Date,Open,High,Low,Close,Adj Close,Volume
2017-08-24,9.800000190734863,9.800000190734863,9.800000190734863,9.800000190734863,9.800000190734863,400
2017-08-25,9.800000190734863,9.800000190734863,9.800000190734863,9.800000190734863,9.800000190734863,0
2017-08-28,9.800000190734863,9.800000190734863,9.800000190734863,9.800000190734863,9.800000190734863,0
2017-08-29,9.75,9.75,9.75,9.75,9.75,49000
2017-08-30,9.75,9.75,9.75,9.75,9.75,100400
2017-08-31,9.75,9.75,9.75,9.75,9.75,300000
2017-09-01,9.75,9.75,9.75,9.75,9.75,0
2017-09-05,9.75,9.75,9.75,9.75,9.75,0
2017-09-06,9.75,9.75,9.75,9.75,9.75,0
2017-09-07,9.75,9.75,9.75,9.75,9.75,0
2017-09-08,9.75,9.75,9.75,9.75,9.75,0
2017-09-11,9.75,9.75,9.75,9.75,9.75,0
2017-09-12,9.75,9.75,9.75,9.75,9.75,0
2017-09-13,9.75,9.75,9.75,9.75,9.75,0
2017-09-14,9.800000190734863,9.800000190734863,9.800000190734863,9.800000190734863,9.800000190734863,17400
2017-09-15,9.800000190734863,9.800000190734863,9.800000190734863,9.800000190734863,9.800000190734863,0
2017-09-18,9.75,9.75,9.75,9.75,9.75,1000
2017-09-19,9.800000190734863,9.819999694824219,9.800000190734863,9.819999694824219,9.819999694824219,55900
2017-09-20,9.819999694824219,9.819999694824219,9.819999694824219,9.819999694824219,9.819999694824219,0
2017-09-21,9.819999694824219,9.819999694824219,9.819999694824219,9.819999694824219,9.819999694824219,0
2017-09-22,9.826000213623047,9.826000213623047,9.789999961853027,9.789999961853027,9.789999961853027,400
2017-09-25,9.789999961853027,9.789999961853027,9.789999961853027,9.789999961853027,9.789999961853027,0
2017-09-26,9.789999961853027,9.789999961853027,9.789999961853027,9.789999961853027,9.789999961853027,0
2017-09-27,9.789999961853027,9.789999961853027,9.789999961853027,9.789999961853027,9.789999961853027,0
2017-09-28,9.850000381469727,9.850000381469727,9.829999923706055,9.829999923706055,9.829999923706055,300
2017-09-29,9.829999923706055,9.829999923706055,9.829999923706055,9.829999923706055,9.829999923706055,0
2017-10-02,9.829999923706055,9.829999923706055,9.829999923706055,9.829999923706055,9.829999923706055,0
2017-10-03,9.829999923706055,9.829999923706055,9.829999923706055,9.829999923706055,9.829999923706055,0
2017-10-04,9.850000381469727,9.850000381469727,9.850000381469727,9.850000381469727,9.850000381469727,100
2017-10-05,9.850000381469727,9.850000381469727,9.850000381469727,9.850000381469727,9.850000381469727,0
2017-10-06,9.850000381469727,9.850000381469727,9.850000381469727,9.850000381469727,9.850000381469727,0
2017-10-09,9.850000381469727,9.850000381469727,9.850000381469727,9.850000381469727,9.850000381469727,0
2017-10-10,9.850000381469727,9.850000381469727,9.850000381469727,9.850000381469727,9.850000381469727,0
2017-10-11,9.75,9.75,9.75,9.75,9.75,2300
2017-10-12,9.75,9.75,9.75,9.75,9.75,0
2017-10-13,9.75,9.75,9.75,9.75,9.75,0
2017-10-16,9.75,9.75,9.75,9.75,9.75,0
2017-10-17,9.75,9.75,9.75,9.75,9.75,0
2017-10-18,9.75,9.75,9.75,9.75,9.75,50000
2017-10-19,9.734999656677246,9.734999656677246,9.734999656677246,9.734999656677246,9.734999656677246,200000
2017-10-20,9.734999656677246,9.734999656677246,9.734999656677246,9.734999656677246,9.734999656677246,0
2017-10-23,9.734999656677246,9.734999656677246,9.734999656677246,9.734999656677246,9.734999656677246,0
2017-10-24,9.734999656677246,9.734999656677246,9.734999656677246,9.734999656677246,9.734999656677246,0
2017-10-25,9.734999656677246,9.734999656677246,9.734999656677246,9.734999656677246,9.734999656677246,0
2017-10-26,9.734999656677246,9.734999656677246,9.734999656677246,9.734999656677246,9.734999656677246,0
2017-10-27,9.734999656677246,9.734999656677246,9.734999656677246,9.734999656677246,9.734999656677246,0
2017-10-30,9.734999656677246,9.734999656677246,9.734999656677246,9.734999656677246,9.734999656677246,0
2017-10-31,9.734999656677246,9.734999656677246,9.734999656677246,9.734999656677246,9.734999656677246,0
2017-11-01,9.890000343322754,9.890000343322754,9.74899959564209,9.74899959564209,9.74899959564209,27900
2017-11-02,9.826000213623047,9.826000213623047,9.826000213623047,9.826000213623047,9.826000213623047,1000
2017-11-03,9.826000213623047,9.826000213623047,9.826000213623047,9.826000213623047,9.826000213623047,0
2017-11-06,9.826000213623047,9.826000213623047,9.826000213623047,9.826000213623047,9.826000213623047,0
2017-11-07,9.710000038146973,9.710000038146973,9.699999809265137,9.699999809265137,9.699999809265137,6800
2017-11-08,9.699999809265137,9.699999809265137,9.699999809265137,9.699999809265137,9.699999809265137,0
2017-11-09,9.699999809265137,9.699999809265137,9.699999809265137,9.699999809265137,9.699999809265137,0
2017-11-10,9.699999809265137,9.699999809265137,9.699999809265137,9.699999809265137,9.699999809265137,0
2017-11-13,9.720000267028809,9.720000267028809,9.720000267028809,9.720000267028809,9.720000267028809,100000
2017-11-14,9.720000267028809,9.720000267028809,9.720000267028809,9.720000267028809,9.720000267028809,0
2017-11-15,9.720000267028809,9.880999565124512,9.720000267028809,9.720000267028809,9.720000267028809,606000
2017-11-16,9.720000267028809,9.720000267028809,9.720000267028809,9.720000267028809,9.720000267028809,0
2017-11-17,9.699999809265137,9.710000038146973,9.699999809265137,9.710000038146973,9.710000038146973,514600
2017-11-20,9.710000038146973,9.710000038146973,9.710000038146973,9.710000038146973,9.710000038146973,0
2017-11-21,9.739999771118164,9.739999771118164,9.710000038146973,9.710000038146973,9.710000038146973,10100
2017-11-22,9.710000038146973,9.710000038146973,9.710000038146973,9.710000038146973,9.710000038146973,0
2017-11-24,9.710000038146973,9.710000038146973,9.710000038146973,9.710000038146973,9.710000038146973,0
2017-11-27,9.710000038146973,9.710000038146973,9.710000038146973,9.710000038146973,9.710000038146973,0
2017-11-28,9.699999809265137,9.711999893188477,9.699999809265137,9.711999893188477,9.711999893188477,2000
2017-11-29,9.710000038146973,9.710000038146973,9.710000038146973,9.710000038146973,9.710000038146973,6900
2017-11-30,9.699999809265137,9.699999809265137,9.699999809265137,9.699999809265137,9.699999809265137,97800
2017-12-01,9.699999809265137,9.699999809265137,9.664999961853027,9.6899995803833,9.6899995803833,1895200
2017-12-04,9.6899995803833,9.6899995803833,9.6899995803833,9.6899995803833,9.6899995803833,0
2017-12-05,9.6899995803833,9.6899995803833,9.6899995803833,9.6899995803833,9.6899995803833,0
2017-12-06,9.6899995803833,9.6899995803833,9.6899995803833,9.6899995803833,9.6899995803833,0
2017-12-07,9.729999542236328,9.75,9.729999542236328,9.729999542236328,9.729999542236328,60300
2017-12-08,9.729999542236328,9.739999771118164,9.729999542236328,9.739999771118164,9.739999771118164,23800
2017-12-11,9.720000267028809,9.720000267028809,9.71399974822998,9.71399974822998,9.71399974822998,1000
2017-12-12,9.75,9.75,9.75,9.75,9.75,50000
2017-12-13,9.739999771118164,9.75,9.739999771118164,9.75,9.75,37300
2017-12-14,9.75,9.75,9.725000381469727,9.75,9.75,80000
2017-12-15,9.75,9.75,9.75,9.75,9.75,0
2017-12-18,9.75,9.75,9.75,9.75,9.75,0
2017-12-19,9.75,9.75,9.75,9.75,9.75,0
2017-12-20,9.75,9.75,9.75,9.75,9.75,0
2017-12-21,9.75,9.75,9.75,9.75,9.75,0
2017-12-22,9.75,9.75,9.75,9.75,9.75,0
2017-12-26,9.75,9.75,9.75,9.75,9.75,0
2017-12-27,9.75,9.75,9.75,9.75,9.75,0
2017-12-28,9.75,9.75,9.75,9.75,9.75,0
2017-12-29,9.75,9.75,9.729999542236328,9.729999542236328,9.729999542236328,700
2018-01-02,9.729999542236328,9.729999542236328,9.729999542236328,9.729999542236328,9.729999542236328,0
2018-01-03,9.729999542236328,9.729999542236328,9.729999542236328,9.729999542236328,9.729999542236328,0
2018-01-04,9.729999542236328,9.729999542236328,9.729999542236328,9.729999542236328,9.729999542236328,0
2018-01-05,9.739999771118164,9.75,9.739999771118164,9.75,9.75,500
2018-01-08,9.699999809265137,9.699999809265137,9.699999809265137,9.699999809265137,9.699999809265137,150000
2018-01-09,9.699999809265137,9.699999809265137,9.699999809265137,9.699999809265137,9.699999809265137,0
2018-01-10,9.699999809265137,9.699999809265137,9.699999809265137,9.699999809265137,9.699999809265137,0
2018-01-11,9.699999809265137,9.699999809265137,9.699999809265137,9.699999809265137,9.699999809265137,0
2018-01-12,9.699999809265137,9.699999809265137,9.699999809265137,9.699999809265137,9.699999809265137,0
2018-01-16,9.710000038146973,9.739999771118164,9.699999809265137,9.734000205993652,9.734000205993652,5000
2018-01-17,9.734000205993652,9.734000205993652,9.734000205993652,9.734000205993652,9.734000205993652,0
2018-01-18,9.682000160217285,9.75,9.670000076293945,9.75,9.75,4000
2018-01-19,9.75,9.75,9.75,9.75,9.75,0
2018-01-22,9.75,9.75,9.75,9.75,9.75,38300
2018-01-23,9.75,9.75,9.75,9.75,9.75,2000
2018-01-24,9.75,9.75,9.75,9.75,9.75,0
2018-01-25,9.760000228881836,9.760000228881836,9.760000228881836,9.760000228881836,9.760000228881836,700
2018-01-26,9.760000228881836,9.760000228881836,9.760000228881836,9.760000228881836,9.760000228881836,0
2018-01-29,9.760000228881836,9.760000228881836,9.760000228881836,9.760000228881836,9.760000228881836,0
2018-01-30,9.760000228881836,9.760000228881836,9.760000228881836,9.760000228881836,9.760000228881836,0
2018-01-31,9.75,9.75,9.75,9.75,9.75,83200
2018-02-01,9.770000457763672,9.789999961853027,9.770000457763672,9.789999961853027,9.789999961853027,30000
2018-02-02,9.789999961853027,9.789999961853027,9.789999961853027,9.789999961853027,9.789999961853027,1300
2018-02-05,9.789999961853027,9.789999961853027,9.789999961853027,9.789999961853027,9.789999961853027,0
2018-02-06,9.767000198364258,9.767000198364258,9.767000198364258,9.767000198364258,9.767000198364258,16100
2018-02-07,9.789999961853027,9.789999961853027,9.789999961853027,9.789999961853027,9.789999961853027,100
2018-02-08,9.789999961853027,9.789999961853027,9.789999961853027,9.789999961853027,9.789999961853027,0
2018-02-09,9.789999961853027,9.789999961853027,9.789999961853027,9.789999961853027,9.789999961853027,0
2018-02-12,9.789999961853027,9.789999961853027,9.789999961853027,9.789999961853027,9.789999961853027,0
2018-02-13,9.789999961853027,9.789999961853027,9.789999961853027,9.789999961853027,9.789999961853027,0
2018-02-14,9.789999961853027,9.789999961853027,9.789999961853027,9.789999961853027,9.789999961853027,0
2018-02-15,9.789999961853027,9.789999961853027,9.789999961853027,9.789999961853027,9.789999961853027,0
2018-02-16,9.789999961853027,9.789999961853027,9.789999961853027,9.789999961853027,9.789999961853027,0
2018-02-20,9.789999961853027,9.789999961853027,9.789999961853027,9.789999961853027,9.789999961853027,0
2018-02-21,9.789999961853027,9.789999961853027,9.789999961853027,9.789999961853027,9.789999961853027,0
2018-02-22,9.789999961853027,9.789999961853027,9.789999961853027,9.789999961853027,9.789999961853027,0
2018-02-23,9.789999961853027,9.789999961853027,9.789999961853027,9.789999961853027,9.789999961853027,0
2018-02-26,9.789999961853027,9.800000190734863,9.789999961853027,9.800000190734863,9.800000190734863,4400
2018-02-27,9.800000190734863,9.859999656677246,9.800000190734863,9.819999694824219,9.819999694824219,78000
2018-02-28,9.819999694824219,9.819999694824219,9.819999694824219,9.819999694824219,9.819999694824219,0
2018-03-01,9.779999732971191,9.850000381469727,9.779999732971191,9.8100004196167,9.8100004196167,3100
2018-03-02,9.8100004196167,9.8100004196167,9.8100004196167,9.8100004196167,9.8100004196167,0
2018-03-05,9.819999694824219,9.829999923706055,9.779999732971191,9.779999732971191,9.779999732971191,602300
2018-03-06,9.779999732971191,9.779999732971191,9.779999732971191,9.779999732971191,9.779999732971191,0
2018-03-07,9.779999732971191,9.779999732971191,9.779999732971191,9.779999732971191,9.779999732971191,0
2018-03-08,9.770000457763672,9.770000457763672,9.770000457763672,9.770000457763672,9.770000457763672,165000
2018-03-09,9.779999732971191,9.779999732971191,9.770000457763672,9.770000457763672,9.770000457763672,400
2018-03-12,9.779999732971191,9.779999732971191,9.770000457763672,9.770000457763672,9.770000457763672,4900
2018-03-13,9.770000457763672,9.770000457763672,9.770000457763672,9.770000457763672,9.770000457763672,0
2018-03-14,9.760000228881836,9.760000228881836,9.760000228881836,9.760000228881836,9.760000228881836,100
2018-03-15,9.770000457763672,9.770000457763672,9.760000228881836,9.760000228881836,9.760000228881836,17100
2018-03-16,9.760000228881836,9.760000228881836,9.760000228881836,9.760000228881836,9.760000228881836,0
2018-03-19,9.760000228881836,9.760000228881836,9.760000228881836,9.760000228881836,9.760000228881836,0
2018-03-20,9.829999923706055,9.850000381469727,9.829999923706055,9.850000381469727,9.850000381469727,40200
2018-03-21,9.850000381469727,9.850000381469727,9.850000381469727,9.850000381469727,9.850000381469727,0
2018-03-22,9.760000228881836,9.779999732971191,9.760000228881836,9.779999732971191,9.779999732971191,111100
2018-03-23,9.779999732971191,9.779999732971191,9.779999732971191,9.779999732971191,9.779999732971191,0
2018-03-26,9.800000190734863,9.850000381469727,9.800000190734863,9.800000190734863,9.800000190734863,59400
2018-03-27,9.800000190734863,9.850000381469727,9.800000190734863,9.800000190734863,9.800000190734863,59400
2018-03-28,9.800000190734863,9.800000190734863,9.800000190734863,9.800000190734863,9.800000190734863,0
2018-03-29,9.800000190734863,9.800000190734863,9.800000190734863,9.800000190734863,9.800000190734863,0
2018-04-02,9.800000190734863,9.800000190734863,9.800000190734863,9.800000190734863,9.800000190734863,0
2018-04-03,9.800000190734863,9.800000190734863,9.800000190734863,9.800000190734863,9.800000190734863,100000
2018-04-04,9.800000190734863,9.800000190734863,9.800000190734863,9.800000190734863,9.800000190734863,0
2018-04-05,9.800000190734863,9.800000190734863,9.800000190734863,9.800000190734863,9.800000190734863,0
2018-04-06,9.800000190734863,9.800000190734863,9.800000190734863,9.800000190734863,9.800000190734863,0
2018-04-09,9.850000381469727,9.850000381469727,9.829999923706055,9.850000381469727,9.850000381469727,19600
2018-04-10,9.850000381469727,9.850000381469727,9.850000381469727,9.850000381469727,9.850000381469727,0
2018-04-11,9.760000228881836,9.850000381469727,9.760000228881836,9.850000381469727,9.850000381469727,26100
2018-04-12,9.850000381469727,9.850000381469727,9.850000381469727,9.850000381469727,9.850000381469727,0
2018-04-13,9.850000381469727,9.850000381469727,9.850000381469727,9.850000381469727,9.850000381469727,0
2018-04-16,9.850000381469727,9.850000381469727,9.850000381469727,9.850000381469727,9.850000381469727,1000
2018-04-17,9.850000381469727,9.850000381469727,9.850000381469727,9.850000381469727,9.850000381469727,0
2018-04-18,9.850000381469727,9.850000381469727,9.850000381469727,9.850000381469727,9.850000381469727,0
2018-04-19,9.850000381469727,9.850000381469727,9.850000381469727,9.850000381469727,9.850000381469727,0
2018-04-20,9.850000381469727,9.850000381469727,9.850000381469727,9.850000381469727,9.850000381469727,0
2018-04-23,9.850000381469727,9.850000381469727,9.850000381469727,9.850000381469727,9.850000381469727,25700
2018-04-24,9.850000381469727,9.850000381469727,9.850000381469727,9.850000381469727,9.850000381469727,0
2018-04-25,9.8100004196167,9.880000114440918,9.800000190734863,9.800000190734863,9.800000190734863,16200
2018-04-26,9.819999694824219,9.880000114440918,9.819999694824219,9.850000381469727,9.850000381469727,241400
2018-04-27,9.850000381469727,9.899999618530273,9.760000228881836,9.850000381469727,9.850000381469727,353800
2018-04-30,9.850000381469727,9.850000381469727,9.850000381469727,9.850000381469727,9.850000381469727,30000
2018-05-01,9.850000381469727,9.850000381469727,9.850000381469727,9.850000381469727,9.850000381469727,0
2018-05-02,9.850000381469727,9.850000381469727,9.850000381469727,9.850000381469727,9.850000381469727,0
2018-05-03,9.850000381469727,9.850000381469727,9.850000381469727,9.850000381469727,9.850000381469727,0
2018-05-04,9.859999656677246,9.899999618530273,9.770000457763672,9.8100004196167,9.8100004196167,18700
2018-05-07,9.890000343322754,9.899999618530273,9.779000282287598,9.819999694824219,9.819999694824219,8100
2018-05-08,9.789999961853027,9.873000144958496,9.777999877929688,9.84000015258789,9.84000015258789,231700
2018-05-09,9.850000381469727,9.890000343322754,9.760000228881836,9.8100004196167,9.8100004196167,402600
2018-05-10,9.880000114440918,9.880000114440918,9.880000114440918,9.880000114440918,9.880000114440918,100
2018-05-11,9.859999656677246,9.859999656677246,9.859999656677246,9.859999656677246,9.859999656677246,300
2018-05-14,9.84000015258789,9.890000343322754,9.788999557495117,9.861000061035156,9.861000061035156,11000
2018-05-15,9.84000015258789,9.84000015258789,9.84000015258789,9.84000015258789,9.84000015258789,4800
2018-05-16,9.829999923706055,9.829999923706055,9.829999923706055,9.829999923706055,9.829999923706055,200
2018-05-17,9.850000381469727,9.880000114440918,9.850000381469727,9.880000114440918,9.880000114440918,300
2018-05-18,9.859000205993652,9.949999809265137,9.789999961853027,9.899999618530273,9.899999618530273,15900
2018-05-21,9.899999618530273,9.899999618530273,9.899999618530273,9.899999618530273,9.899999618530273,0
2018-05-22,9.899999618530273,9.899999618530273,9.850000381469727,9.890000343322754,9.890000343322754,700
2018-05-23,9.890000343322754,9.890000343322754,9.890000343322754,9.890000343322754,9.890000343322754,86400
2018-05-24,9.890000343322754,9.890000343322754,9.890000343322754,9.890000343322754,9.890000343322754,0
2018-05-25,9.859999656677246,9.859999656677246,9.859999656677246,9.859999656677246,9.859999656677246,100
2018-05-29,9.859999656677246,9.859999656677246,9.859999656677246,9.859999656677246,9.859999656677246,0
2018-05-30,9.859999656677246,9.859999656677246,9.859999656677246,9.859999656677246,9.859999656677246,0
2018-05-31,9.859999656677246,9.859999656677246,9.859999656677246,9.859999656677246,9.859999656677246,0
2018-06-01,9.859999656677246,9.859999656677246,9.859999656677246,9.859999656677246,9.859999656677246,0
2018-06-04,10.0,10.0,10.0,10.0,10.0,1600
2018-06-05,9.899999618530273,9.899999618530273,9.770000457763672,9.770000457763672,9.770000457763672,300
2018-06-06,9.770000457763672,9.770000457763672,9.770000457763672,9.770000457763672,9.770000457763672,200
2018-06-07,9.789999961853027,9.850000381469727,9.789999961853027,9.850000381469727,9.850000381469727,5800
2018-06-08,9.859999656677246,9.869999885559082,9.850000381469727,9.869999885559082,9.869999885559082,1200
2018-06-11,9.890000343322754,9.899999618530273,9.890000343322754,9.899999618530273,9.899999618530273,3200
2018-06-12,9.899999618530273,9.899999618530273,9.890000343322754,9.890000343322754,9.890000343322754,300
2018-06-13,9.899999618530273,9.9399995803833,9.878999710083008,9.9399995803833,9.9399995803833,9100
2018-06-14,9.920000076293945,9.920000076293945,9.899999618530273,9.899999618530273,9.899999618530273,6100
2018-06-15,9.888999938964844,9.949999809265137,9.869999885559082,9.9399995803833,9.9399995803833,10400
2018-06-18,9.949999809265137,9.949999809265137,9.949999809265137,9.949999809265137,9.949999809265137,300
2018-06-19,9.949999809265137,9.949999809265137,9.949999809265137,9.949999809265137,9.949999809265137,0
2018-06-20,9.9399995803833,9.949999809265137,9.890000343322754,9.949999809265137,9.949999809265137,276600
2018-06-21,9.949999809265137,9.949999809265137,9.949999809265137,9.949999809265137,9.949999809265137,5900
2018-06-22,9.930000305175781,9.979999542236328,9.899999618530273,9.979999542236328,9.979999542236328,4900
2018-06-25,9.880000114440918,9.890000343322754,9.880000114440918,9.890000343322754,9.890000343322754,2000
2018-06-26,9.899999618530273,9.949999809265137,9.899999618530273,9.949999809265137,9.949999809265137,1800
2018-06-27,9.960000038146973,9.960000038146973,9.960000038146973,9.960000038146973,9.960000038146973,100
2018-06-28,9.979999542236328,9.979999542236328,9.930000305175781,9.930000305175781,9.930000305175781,1500
2018-06-29,9.930000305175781,9.930000305175781,9.930000305175781,9.930000305175781,9.930000305175781,0
2018-07-02,9.9399995803833,10.010000228881836,9.932999610900879,10.0,10.0,189500
2018-07-03,10.010000228881836,10.010000228881836,10.0,10.0,10.0,600
2018-07-05,10.0,10.100000381469727,9.930000305175781,10.029999732971191,10.029999732971191,13400
2018-07-06,10.010000228881836,10.020000457763672,10.0,10.020000457763672,10.020000457763672,1800
2018-07-09,10.010000228881836,10.010000228881836,10.010000228881836,10.010000228881836,10.010000228881836,5400
2018-07-10,9.989999771118164,9.989999771118164,9.930000305175781,9.930000305175781,9.930000305175781,1000
2018-07-11,9.970000267028809,9.979999542236328,9.960000038146973,9.979000091552734,9.979000091552734,2200
2018-07-12,9.979000091552734,9.979000091552734,9.979000091552734,9.979000091552734,9.979000091552734,0
2018-07-13,9.970000267028809,9.970000267028809,9.970000267028809,9.970000267028809,9.970000267028809,100
2018-07-16,9.970000267028809,9.970000267028809,9.970000267028809,9.970000267028809,9.970000267028809,0
2018-07-17,9.989999771118164,10.010000228881836,9.970000267028809,10.010000228881836,10.010000228881836,900
2018-07-18,10.020000457763672,10.149999618530273,10.0,10.0,10.0,344500
2018-07-19,10.010000228881836,10.010000228881836,10.010000228881836,10.010000228881836,10.010000228881836,100
2018-07-20,10.029999732971191,10.029999732971191,10.029999732971191,10.029999732971191,10.029999732971191,100
2018-07-23,10.029999732971191,10.029999732971191,10.029999732971191,10.029999732971191,10.029999732971191,0
2018-07-24,10.050000190734863,10.109999656677246,10.050000190734863,10.100000381469727,10.100000381469727,3900
2018-07-25,10.100000381469727,10.100000381469727,10.100000381469727,10.100000381469727,10.100000381469727,0
2018-07-26,10.100000381469727,10.100000381469727,10.100000381469727,10.100000381469727,10.100000381469727,0
2018-07-27,10.100000381469727,10.100000381469727,10.100000381469727,10.100000381469727,10.100000381469727,168000
2018-07-30,10.119999885559082,10.149999618530273,10.119999885559082,10.149999618530273,10.149999618530273,262500
2018-07-31,10.149999618530273,10.149999618530273,10.130000114440918,10.130000114440918,10.130000114440918,483300
2018-08-01,10.149999618530273,10.149999618530273,10.149999618530273,10.149999618530273,10.149999618530273,100
2018-08-02,10.149999618530273,10.149999618530273,10.149999618530273,10.149999618530273,10.149999618530273,35300
2018-08-03,10.199999809265137,10.199999809265137,10.199999809265137,10.199999809265137,10.199999809265137,600
2018-08-06,10.180000305175781,10.180000305175781,10.180000305175781,10.180000305175781,10.180000305175781,100
2018-08-07,10.180000305175781,10.180000305175781,10.149999618530273,10.149999618530273,10.149999618530273,267500
2018-08-08,10.149999618530273,10.149999618530273,10.149999618530273,10.149999618530273,10.149999618530273,0
2018-08-09,10.130000114440918,10.130000114440918,10.069999694824219,10.069999694824219,10.069999694824219,377800
2018-08-10,10.069999694824219,10.069999694824219,10.069999694824219,10.069999694824219,10.069999694824219,260000
2018-08-13,10.069999694824219,10.069999694824219,10.069999694824219,10.069999694824219,10.069999694824219,0
2018-08-14,10.050000190734863,10.0600004196167,10.050000190734863,10.0600004196167,10.0600004196167,26100
2018-08-15,10.0600004196167,10.0600004196167,10.0600004196167,10.0600004196167,10.0600004196167,0
2018-08-16,10.0600004196167,10.0600004196167,10.0600004196167,10.0600004196167,10.0600004196167,0
2018-08-17,10.0600004196167,10.0600004196167,10.0600004196167,10.0600004196167,10.0600004196167,0
2018-08-20,10.0600004196167,10.0600004196167,10.0600004196167,10.0600004196167,10.0600004196167,0
2018-08-21,10.0600004196167,10.0600004196167,10.0600004196167,10.0600004196167,10.0600004196167,0
2018-08-22,10.0600004196167,10.0600004196167,10.0600004196167,10.0600004196167,10.0600004196167,25000
2018-08-23,10.0600004196167,10.0600004196167,10.0600004196167,10.0600004196167,10.0600004196167,200000
2018-08-24,10.0600004196167,10.0600004196167,10.0600004196167,10.0600004196167,10.0600004196167,0
2018-08-27,10.0600004196167,10.0600004196167,10.0600004196167,10.0600004196167,10.0600004196167,0
2018-08-28,10.069999694824219,10.069999694824219,10.069999694824219,10.069999694824219,10.069999694824219,100
2018-08-29,10.069999694824219,10.069999694824219,10.069999694824219,10.069999694824219,10.069999694824219,72000
2018-08-30,10.069999694824219,10.069999694824219,10.039999961853027,10.050000190734863,10.050000190734863,140700
2018-08-31,10.050000190734863,10.050000190734863,10.050000190734863,10.050000190734863,10.050000190734863,0
2018-09-04,10.050000190734863,10.050000190734863,10.050000190734863,10.050000190734863,10.050000190734863,1500
2018-09-05,10.050000190734863,10.050000190734863,10.050000190734863,10.050000190734863,10.050000190734863,0
2018-09-06,10.050000190734863,10.050000190734863,10.050000190734863,10.050000190734863,10.050000190734863,0
2018-09-07,10.039999961853027,10.069999694824219,10.039999961853027,10.069999694824219,10.069999694824219,100100
2018-09-10,10.069999694824219,10.079999923706055,10.069999694824219,10.079999923706055,10.079999923706055,10900
2018-09-11,10.0649995803833,10.0649995803833,10.0649995803833,10.0649995803833,10.0649995803833,1000
2018-09-12,10.0649995803833,10.0649995803833,10.0649995803833,10.0649995803833,10.0649995803833,0
2018-09-13,10.079999923706055,10.079999923706055,10.079999923706055,10.079999923706055,10.079999923706055,10200
2018-09-14,10.079999923706055,10.079999923706055,10.079999923706055,10.079999923706055,10.079999923706055,0
2018-09-17,10.079999923706055,10.079999923706055,10.079999923706055,10.079999923706055,10.079999923706055,0
2018-09-18,10.079999923706055,10.079999923706055,10.079999923706055,10.079999923706055,10.079999923706055,50000
2018-09-19,10.050000190734863,10.050000190734863,10.050000190734863,10.050000190734863,10.050000190734863,100
2018-09-20,10.050000190734863,10.050000190734863,10.050000190734863,10.050000190734863,10.050000190734863,0
2018-09-21,10.050000190734863,10.050000190734863,10.050000190734863,10.050000190734863,10.050000190734863,0
2018-09-24,9.84000015258789,10.039999961853027,9.84000015258789,10.039999961853027,10.039999961853027,600
2018-09-25,10.039999961853027,10.039999961853027,10.039999961853027,10.039999961853027,10.039999961853027,0
2018-09-26,10.050000190734863,10.050000190734863,10.050000190734863,10.050000190734863,10.050000190734863,166500
2018-09-27,10.0600004196167,10.0600004196167,10.050000190734863,10.0600004196167,10.0600004196167,372200
2018-09-28,10.0600004196167,10.079999923706055,10.0600004196167,10.069999694824219,10.069999694824219,135700
2018-10-01,10.069999694824219,10.069999694824219,10.069999694824219,10.069999694824219,10.069999694824219,110500
2018-10-02,10.071999549865723,10.071999549865723,10.071999549865723,10.071999549865723,10.071999549865723,500
2018-10-03,10.071999549865723,10.071999549865723,10.071999549865723,10.071999549865723,10.071999549865723,0
2018-10-04,10.074999809265137,10.399999618530273,10.069999694824219,10.199999809265137,10.199999809265137,25000
2018-10-05,10.079999923706055,10.100000381469727,10.020000457763672,10.100000381469727,10.100000381469727,47100
2018-10-08,10.020000457763672,10.079999923706055,10.010000228881836,10.069999694824219,10.069999694824219,97300
2018-10-09,10.079999923706055,10.079999923706055,10.079999923706055,10.079999923706055,10.079999923706055,100
2018-10-10,10.079999923706055,10.079999923706055,10.079999923706055,10.079999923706055,10.079999923706055,0
2018-10-11,10.079999923706055,10.079999923706055,10.079999923706055,10.079999923706055,10.079999923706055,0
2018-10-12,10.079999923706055,10.079999923706055,10.079999923706055,10.079999923706055,10.079999923706055,100
2018-10-15,10.069999694824219,10.130000114440918,10.0600004196167,10.130000114440918,10.130000114440918,135600
2018-10-16,10.100000381469727,10.100000381469727,10.100000381469727,10.100000381469727,10.100000381469727,600
2018-10-17,10.0600004196167,10.09000015258789,10.0600004196167,10.079999923706055,10.079999923706055,60400
2018-10-18,10.079999923706055,10.079999923706055,10.079999923706055,10.079999923706055,10.079999923706055,0
2018-10-19,10.100000381469727,10.100000381469727,10.100000381469727,10.100000381469727,10.100000381469727,100
2018-10-22,10.100000381469727,10.100000381469727,10.079999923706055,10.079999923706055,10.079999923706055,1200
2018-10-23,10.069999694824219,10.079999923706055,10.050000190734863,10.050000190734863,10.050000190734863,102300
2018-10-24,10.050000190734863,10.050000190734863,10.050000190734863,10.050000190734863,10.050000190734863,60000
2018-10-25,10.0,10.050999641418457,10.0,10.050000190734863,10.050000190734863,17200
2018-10-26,10.050000190734863,10.119999885559082,10.050000190734863,10.119999885559082,10.119999885559082,122500
2018-10-29,10.100000381469727,10.100000381469727,10.100000381469727,10.100000381469727,10.100000381469727,1100
2018-10-30,10.079999923706055,10.079999923706055,10.0,10.0,10.0,1122000
2018-10-31,10.0,10.0600004196167,10.0,10.029999732971191,10.029999732971191,691200
2018-11-01,10.029999732971191,10.029999732971191,10.029999732971191,10.029999732971191,10.029999732971191,0
2018-11-02,10.050000190734863,10.050000190734863,10.010000228881836,10.020000457763672,10.020000457763672,1800
2018-11-05,10.020000457763672,10.050000190734863,10.0,10.050000190734863,10.050000190734863,20700
2018-11-06,10.050000190734863,10.050000190734863,10.029999732971191,10.039999961853027,10.039999961853027,3200
2018-11-07,10.029999732971191,10.050000190734863,10.0,10.039999961853027,10.039999961853027,42700
2018-11-08,10.020000457763672,10.050000190734863,10.020000457763672,10.050000190734863,10.050000190734863,7200
2018-11-09,10.029999732971191,10.050000190734863,10.010000228881836,10.050000190734863,10.050000190734863,3400
2018-11-12,10.050000190734863,10.050000190734863,9.989999771118164,10.020000457763672,10.020000457763672,25800
2018-11-13,10.020000457763672,10.020000457763672,10.020000457763672,10.020000457763672,10.020000457763672,100
2018-11-14,10.020000457763672,10.020000457763672,10.020000457763672,10.020000457763672,10.020000457763672,100
2018-11-15,10.039999961853027,10.039999961853027,10.039999961853027,10.039999961853027,10.039999961853027,200
2018-11-16,10.020000457763672,10.020000457763672,9.979999542236328,9.979999542236328,9.979999542236328,1400
2018-11-19,10.020000457763672,10.020000457763672,10.020000457763672,10.020000457763672,10.020000457763672,800
2018-11-20,10.020000457763672,10.020000457763672,10.020000457763672,10.020000457763672,10.020000457763672,0
2018-11-21,10.0,10.0,10.0,10.0,10.0,129000
2018-11-23,10.0,10.0,10.0,10.0,10.0,0
2018-11-26,10.0,10.0,10.0,10.0,10.0,100
2018-11-27,9.979999542236328,10.0,9.979999542236328,10.0,10.0,500
2018-11-28,10.0,10.010000228881836,10.0,10.0,10.0,46900
2018-11-29,10.0,10.0,10.0,10.0,10.0,100
2018-11-30,10.0,10.0,10.0,10.0,10.0,100
2018-12-03,10.020000457763672,10.039999961853027,10.020000457763672,10.020000457763672,10.020000457763672,6300
2018-12-04,10.020000457763672,10.020000457763672,10.020000457763672,10.020000457763672,10.020000457763672,0
2018-12-06,10.029999732971191,10.029999732971191,10.0,10.0,10.0,26400
2018-12-07,10.0,10.029999732971191,10.0,10.029999732971191,10.029999732971191,284000
2018-12-10,10.020000457763672,10.020000457763672,9.989999771118164,9.989999771118164,9.989999771118164,3200
2018-12-11,9.989999771118164,10.029999732971191,9.989999771118164,10.010000228881836,10.010000228881836,189100
2018-12-12,10.0,10.0,10.0,10.0,10.0,5000
2018-12-13,10.0,10.0,9.989999771118164,9.989999771118164,9.989999771118164,4700
2018-12-14,10.029999732971191,10.029999732971191,10.029999732971191,10.029999732971191,10.029999732971191,1300
2018-12-17,10.050000190734863,10.050000190734863,10.050000190734863,10.050000190734863,10.050000190734863,300
2018-12-18,10.029999732971191,10.029999732971191,9.979999542236328,9.979999542236328,9.979999542236328,124400
2018-12-19,9.979999542236328,9.979999542236328,9.979999542236328,9.979999542236328,9.979999542236328,0
2018-12-20,9.989999771118164,9.989999771118164,9.979999542236328,9.979999542236328,9.979999542236328,265600
2018-12-21,9.979999542236328,10.0,9.979999542236328,10.0,10.0,282200
2018-12-24,9.979999542236328,10.0,9.979999542236328,10.0,10.0,4100
2018-12-26,10.029999732971191,10.039999961853027,9.989999771118164,10.039999961853027,10.039999961853027,39500
2018-12-27,9.979999542236328,10.0,9.979999542236328,10.0,10.0,1400
2018-12-28,10.0,10.0,10.0,10.0,10.0,0
2018-12-31,10.0,10.0,9.989999771118164,10.0,10.0,37500
2019-01-02,9.979999542236328,10.010000228881836,9.979999542236328,10.010000228881836,10.010000228881836,42100
2019-01-03,9.979999542236328,10.00100040435791,9.979999542236328,10.0,10.0,3000
2019-01-04,10.050000190734863,10.050000190734863,9.989999771118164,10.0,10.0,25900
2019-01-07,10.020000457763672,10.050000190734863,10.020000457763672,10.050000190734863,10.050000190734863,300
2019-01-08,10.0,10.050000190734863,10.0,10.050000190734863,10.050000190734863,36900
2019-01-09,10.050000190734863,10.050000190734863,10.020000457763672,10.020000457763672,10.020000457763672,73800
2019-01-10,10.020000457763672,10.020000457763672,10.020000457763672,10.020000457763672,10.020000457763672,0
2019-01-11,10.050000190734863,10.069999694824219,10.020000457763672,10.020000457763672,10.020000457763672,52700
2019-01-14,10.020000457763672,10.0600004196167,10.020000457763672,10.020000457763672,10.020000457763672,6500
2019-01-15,10.050000190734863,10.0600004196167,10.039999961853027,10.0600004196167,10.0600004196167,17000
2019-01-16,10.0600004196167,10.069999694824219,10.0600004196167,10.069999694824219,10.069999694824219,200
2019-01-17,10.050000190734863,10.069999694824219,10.050000190734863,10.050000190734863,10.050000190734863,495200
2019-01-18,10.079999923706055,10.079999923706055,10.050000190734863,10.0600004196167,10.0600004196167,46100
2019-01-22,10.079999923706055,10.100000381469727,10.079999923706055,10.100000381469727,10.100000381469727,3100
2019-01-23,10.100000381469727,10.100000381469727,10.100000381469727,10.100000381469727,10.100000381469727,100
2019-01-24,10.100000381469727,10.119999885559082,10.100000381469727,10.109999656677246,10.109999656677246,158200
2019-01-25,10.09000015258789,10.100000381469727,10.069999694824219,10.100000381469727,10.100000381469727,1600
2019-01-28,10.119999885559082,10.119999885559082,10.119999885559082,10.119999885559082,10.119999885559082,5300
2019-01-29,10.119999885559082,10.119999885559082,10.050000190734863,10.100000381469727,10.100000381469727,121000
2019-01-30,10.100000381469727,10.109999656677246,10.098999977111816,10.109000205993652,10.109000205993652,1700
2019-01-31,10.100000381469727,10.119999885559082,10.100000381469727,10.119999885559082,10.119999885559082,40200
2019-02-01,10.119999885559082,10.119999885559082,10.100000381469727,10.100000381469727,10.100000381469727,201500
2019-02-04,10.100000381469727,10.100000381469727,10.100000381469727,10.100000381469727,10.100000381469727,100
2019-02-05,10.100000381469727,10.100000381469727,10.100000381469727,10.100000381469727,10.100000381469727,100
2019-02-06,10.100000381469727,10.119999885559082,10.100000381469727,10.119999885559082,10.119999885559082,476100
2019-02-07,10.109999656677246,10.109999656677246,10.100000381469727,10.100000381469727,10.100000381469727,300
2019-02-08,10.119999885559082,10.119999885559082,10.119999885559082,10.119999885559082,10.119999885559082,1100
2019-02-11,10.119999885559082,10.119999885559082,10.09000015258789,10.119999885559082,10.119999885559082,11800
2019-02-12,10.119999885559082,10.140000343322754,10.119999885559082,10.119999885559082,10.119999885559082,101900
2019-02-13,10.119999885559082,10.119999885559082,10.119999885559082,10.119999885559082,10.119999885559082,100
2019-02-14,10.119999885559082,10.119999885559082,10.119999885559082,10.119999885559082,10.119999885559082,900
2019-02-15,10.102999687194824,10.119999885559082,10.100000381469727,10.119999885559082,10.119999885559082,1500
2019-02-19,10.119999885559082,10.140000343322754,10.119999885559082,10.130000114440918,10.130000114440918,286800
2019-02-20,10.119999885559082,10.119999885559082,10.09000015258789,10.100000381469727,10.100000381469727,53500
2019-02-21,10.100000381469727,10.119999885559082,10.100000381469727,10.119999885559082,10.119999885559082,23800
2019-02-22,10.119999885559082,10.140000343322754,10.119999885559082,10.140000343322754,10.140000343322754,6900
2019-02-25,10.119999885559082,10.149999618530273,10.119999885559082,10.119999885559082,10.119999885559082,83300
2019-02-26,10.130000114440918,10.130000114440918,10.130000114440918,10.130000114440918,10.130000114440918,700
2019-02-27,10.149999618530273,10.149999618530273,10.144000053405762,10.144000053405762,10.144000053405762,1800
2019-02-28,10.144000053405762,10.144000053405762,10.144000053405762,10.144000053405762,10.144000053405762,100
2019-03-01,10.144000053405762,10.144000053405762,10.144000053405762,10.144000053405762,10.144000053405762,15300
2019-03-04,10.144000053405762,10.144000053405762,10.144000053405762,10.144000053405762,10.144000053405762,100
2019-03-05,10.140000343322754,10.140000343322754,10.119999885559082,10.119999885559082,10.119999885559082,3100
2019-03-06,10.119999885559082,10.149999618530273,10.119999885559082,10.119999885559082,10.119999885559082,15600
2019-03-07,10.119999885559082,10.119999885559082,10.119999885559082,10.119999885559082,10.119999885559082,8400
2019-03-08,10.119999885559082,10.140000343322754,10.119999885559082,10.130000114440918,10.130000114440918,91000
2019-03-11,10.149999618530273,10.149999618530273,10.149999618530273,10.149999618530273,10.149999618530273,46300
2019-03-12,10.130000114440918,10.149999618530273,10.079999923706055,10.149999618530273,10.149999618530273,12300
2019-03-13,10.149999618530273,10.149999618530273,10.14799976348877,10.149999618530273,10.149999618530273,453500
2019-03-14,10.140000343322754,10.180000305175781,10.140000343322754,10.140000343322754,10.140000343322754,2100
2019-03-15,10.15999984741211,10.15999984741211,10.15999984741211,10.15999984741211,10.15999984741211,100
2019-03-18,10.140000343322754,10.180000305175781,10.140000343322754,10.180000305175781,10.180000305175781,5800
2019-03-19,10.180000305175781,10.180000305175781,10.180000305175781,10.180000305175781,10.180000305175781,100
2019-03-20,10.180000305175781,10.180000305175781,10.180000305175781,10.180000305175781,10.180000305175781,100
2019-03-21,10.15999984741211,10.15999984741211,10.140000343322754,10.140000343322754,10.140000343322754,4500
2019-03-22,10.140000343322754,10.140000343322754,10.140000343322754,10.140000343322754,10.140000343322754,36200
2019-03-25,10.130000114440918,10.180000305175781,10.130000114440918,10.180000305175781,10.180000305175781,117000
2019-03-26,10.199999809265137,10.199999809265137,10.104999542236328,10.180000305175781,10.180000305175781,1500
2019-03-27,10.199999809265137,10.34000015258789,10.130000114440918,10.220000267028809,10.220000267028809,336300
2019-03-28,10.25,10.25,10.239999771118164,10.239999771118164,10.239999771118164,6400
2019-03-29,10.239999771118164,10.25,10.210000038146973,10.210000038146973,10.210000038146973,500
2019-04-01,10.210000038146973,10.210000038146973,10.210000038146973,10.210000038146973,10.210000038146973,100
2019-04-02,10.260000228881836,10.260000228881836,10.260000228881836,10.260000228881836,10.260000228881836,300
2019-04-03,10.239999771118164,10.239999771118164,10.229999542236328,10.229999542236328,10.229999542236328,357900
2019-04-04,10.239999771118164,10.260000228881836,10.199999809265137,10.210000038146973,10.210000038146973,4800
2019-04-05,10.229999542236328,10.229999542236328,10.180000305175781,10.220000267028809,10.220000267028809,2300
2019-04-08,10.239999771118164,10.289999961853027,10.229999542236328,10.239999771118164,10.239999771118164,1100
2019-04-09,10.229999542236328,10.229999542236328,10.229999542236328,10.229999542236328,10.229999542236328,100
2019-04-10,10.229999542236328,10.229999542236328,10.229999542236328,10.229999542236328,10.229999542236328,0
2019-04-11,10.229999542236328,10.229999542236328,10.229999542236328,10.229999542236328,10.229999542236328,0
2019-04-12,10.267000198364258,10.267000198364258,10.267000198364258,10.267000198364258,10.267000198364258,400
2019-04-15,10.329999923706055,10.329999923706055,10.260000228881836,10.300000190734863,10.300000190734863,800
2019-04-16,10.279999732971191,10.329999923706055,10.260000228881836,10.319999694824219,10.319999694824219,303500
2019-04-17,10.300000190734863,10.350000381469727,10.300000190734863,10.300000190734863,10.300000190734863,12300
2019-04-18,10.300000190734863,10.300000190734863,10.300000190734863,10.300000190734863,10.300000190734863,0
2019-04-22,10.170000076293945,10.319999694824219,10.170000076293945,10.279999732971191,10.279999732971191,165700
2019-04-23,10.3100004196167,10.3100004196167,10.3100004196167,10.3100004196167,10.3100004196167,100
2019-04-24,10.270000457763672,10.3100004196167,10.25,10.3100004196167,10.3100004196167,210400
2019-04-25,10.289999961853027,10.298999786376953,10.289999961853027,10.298999786376953,10.298999786376953,280300
2019-04-26,10.3100004196167,10.350000381469727,10.3100004196167,10.350000381469727,10.350000381469727,4000
2019-04-29,10.350000381469727,10.350000381469727,10.3100004196167,10.3100004196167,10.3100004196167,120100
2019-04-30,10.3100004196167,10.3100004196167,10.3100004196167,10.3100004196167,10.3100004196167,0
2019-05-01,10.3100004196167,10.3100004196167,10.3100004196167,10.3100004196167,10.3100004196167,50000
2019-05-02,10.3100004196167,10.3149995803833,10.3100004196167,10.3100004196167,10.3100004196167,52800
2019-05-03,10.15999984741211,10.319999694824219,10.109999656677246,10.319999694824219,10.319999694824219,130200
2019-05-06,10.319999694824219,10.350000381469727,10.312000274658203,10.350000381469727,10.350000381469727,19200
2019-05-07,10.329999923706055,10.350000381469727,10.329999923706055,10.329999923706055,10.329999923706055,2700
2019-05-08,10.329999923706055,10.329999923706055,10.329999923706055,10.329999923706055,10.329999923706055,100
2019-05-09,10.329999923706055,10.350000381469727,10.329999923706055,10.329999923706055,10.329999923706055,202000
2019-05-10,10.329999923706055,10.329999923706055,10.329999923706055,10.329999923706055,10.329999923706055,100
2019-05-13,10.300000190734863,10.350000381469727,10.300000190734863,10.350000381469727,10.350000381469727,163400
2019-05-14,10.329999923706055,10.329999923706055,10.270000457763672,10.329999923706055,10.329999923706055,169000
2019-05-15,10.329999923706055,10.329999923706055,10.329999923706055,10.329999923706055,10.329999923706055,100
2019-05-16,10.329999923706055,10.329999923706055,10.329999923706055,10.329999923706055,10.329999923706055,100
2019-05-17,10.300000190734863,10.319999694824219,10.300000190734863,10.319999694824219,10.319999694824219,3100
2019-05-20,10.319999694824219,10.319999694824219,10.319999694824219,10.319999694824219,10.319999694824219,100
2019-05-21,10.319999694824219,10.350000381469727,10.319999694824219,10.350000381469727,10.350000381469727,18600
2019-05-22,10.350000381469727,10.350000381469727,10.350000381469727,10.350000381469727,10.350000381469727,100
2019-05-23,10.350000381469727,10.350000381469727,10.350000381469727,10.350000381469727,10.350000381469727,100
2019-05-24,10.350000381469727,10.350000381469727,10.350000381469727,10.350000381469727,10.350000381469727,100
2019-05-28,10.350000381469727,10.350000381469727,10.319999694824219,10.34000015258789,10.34000015258789,1600
2019-05-29,10.322999954223633,10.414999961853027,10.322999954223633,10.414999961853027,10.414999961853027,1800
2019-05-30,10.399999618530273,10.40999984741211,10.359999656677246,10.380000114440918,10.380000114440918,4500
2019-05-31,10.34000015258789,10.385000228881836,10.34000015258789,10.385000228881836,10.385000228881836,22000
2019-06-03,10.329999923706055,10.369999885559082,10.329999923706055,10.364999771118164,10.364999771118164,1800
2019-06-04,10.350000381469727,10.380000114440918,10.345000267028809,10.380000114440918,10.380000114440918,13400
2019-06-05,10.359999656677246,10.359999656677246,10.350000381469727,10.350000381469727,10.350000381469727,1600
2019-06-06,10.329999923706055,10.34000015258789,10.329999923706055,10.329999923706055,10.329999923706055,1400
2019-06-07,10.329999923706055,10.329999923706055,10.329999923706055,10.329999923706055,10.329999923706055,100
2019-06-10,10.300000190734863,10.350000381469727,10.300000190734863,10.300000190734863,10.300000190734863,2300
2019-06-11,10.302000045776367,10.329999923706055,10.234999656677246,10.3149995803833,10.3149995803833,1600
2019-06-12,10.3149995803833,10.3149995803833,10.3149995803833,10.3149995803833,10.3149995803833,100
2019-06-13,10.399999618530273,10.5,10.399999618530273,10.430000305175781,10.430000305175781,6882200
2019-06-14,10.430000305175781,10.430000305175781,10.380000114440918,10.430000305175781,10.430000305175781,12900
2019-06-17,10.430000305175781,10.430000305175781,10.350000381469727,10.350000381469727,10.350000381469727,2651100
2019-06-18,10.359999656677246,10.449999809265137,10.350000381469727,10.399999618530273,10.399999618530273,585400
2019-06-19,10.420000076293945,10.4399995803833,10.420000076293945,10.420000076293945,10.420000076293945,104300
2019-06-20,10.449999809265137,10.449999809265137,10.4399995803833,10.4399995803833,10.4399995803833,2100
2019-06-21,10.4399995803833,10.4399995803833,10.319999694824219,10.319999694824219,10.319999694824219,169800
2019-06-24,10.399999618530273,10.40999984741211,10.380000114440918,10.399999618530273,10.399999618530273,252600
2019-06-25,10.449999809265137,10.449999809265137,10.380000114440918,10.380000114440918,10.380000114440918,6800
2019-06-26,10.449999809265137,10.449999809265137,10.329999923706055,10.369999885559082,10.369999885559082,442000
2019-06-27,10.399999618530273,10.418000221252441,10.369999885559082,10.390000343322754,10.390000343322754,220300
2019-06-28,10.369999885559082,10.399999618530273,10.369999885559082,10.399999618530273,10.399999618530273,88200
2019-07-01,10.399999618530273,10.399999618530273,10.390000343322754,10.399999618530273,10.399999618530273,25100
2019-07-02,10.420000076293945,10.420000076293945,10.350000381469727,10.359999656677246,10.359999656677246,21900
2019-07-03,10.319999694824219,10.369999885559082,10.319999694824219,10.369999885559082,10.369999885559082,1600
2019-07-05,10.380000114440918,10.399999618530273,10.350000381469727,10.375,10.375,264500
2019-07-08,10.399999618530273,10.399999618530273,10.350000381469727,10.350000381469727,10.350000381469727,40000
2019-07-09,10.270000457763672,10.380000114440918,10.270000457763672,10.350000381469727,10.350000381469727,1203200
2019-07-10,10.40999984741211,10.40999984741211,10.300000190734863,10.300000190734863,10.300000190734863,213900
2019-07-11,10.390000343322754,10.390000343322754,10.390000343322754,10.390000343322754,10.390000343322754,27300
2019-07-12,10.34000015258789,10.350000381469727,10.260000228881836,10.350000381469727,10.350000381469727,6200
2019-07-15,10.324999809265137,10.34000015258789,10.289999961853027,10.289999961853027,10.289999961853027,53400
2019-07-16,10.350000381469727,10.350000381469727,10.25,10.34000015258789,10.34000015258789,4200
2019-07-17,10.3100004196167,10.329999923706055,10.300000190734863,10.3100004196167,10.3100004196167,422600
2019-07-18,10.34000015258789,10.350000381469727,10.300000190734863,10.350000381469727,10.350000381469727,77200
2019-07-19,10.300000190734863,10.329999923706055,10.300000190734863,10.3100004196167,10.3100004196167,15700
2019-07-22,10.350000381469727,10.369999885559082,10.300000190734863,10.350000381469727,10.350000381469727,85700
2019-07-23,10.3100004196167,10.350000381469727,10.300000190734863,10.319999694824219,10.319999694824219,88600
2019-07-24,10.319999694824219,10.350000381469727,10.28499984741211,10.319999694824219,10.319999694824219,1955100
2019-07-25,10.319999694824219,10.350000381469727,10.319999694824219,10.350000381469727,10.350000381469727,233400
2019-07-26,10.380000114440918,10.380000114440918,10.300000190734863,10.300000190734863,10.300000190734863,304000
2019-07-29,10.3100004196167,10.350000381469727,10.300000190734863,10.300000190734863,10.300000190734863,55000
2019-07-30,10.300000190734863,10.350000381469727,10.300000190734863,10.350000381469727,10.350000381469727,128100
2019-07-31,10.359999656677246,10.359999656677246,10.270000457763672,10.319999694824219,10.319999694824219,701300
2019-08-01,10.350000381469727,10.350000381469727,10.279999732971191,10.350000381469727,10.350000381469727,352700
2019-08-02,10.289999961853027,10.350000381469727,10.289999961853027,10.300000190734863,10.300000190734863,7300
2019-08-05,10.293000221252441,10.293000221252441,10.279999732971191,10.279999732971191,10.279999732971191,25300
2019-08-06,10.279999732971191,10.295000076293945,10.270000457763672,10.270000457763672,10.270000457763672,138500
2019-08-07,10.270000457763672,10.300000190734863,10.260000228881836,10.279999732971191,10.279999732971191,1031700
2019-08-08,10.289999961853027,10.319999694824219,10.270000457763672,10.279999732971191,10.279999732971191,595400
2019-08-09,10.289999961853027,10.319999694824219,10.260000228881836,10.260000228881836,10.260000228881836,195100
2019-08-12,10.260000228881836,10.34000015258789,10.25,10.25,10.25,441900
2019-08-13,10.25,10.300000190734863,10.25,10.279999732971191,10.279999732971191,238700
2019-08-14,10.270000457763672,10.270000457763672,10.25,10.270000457763672,10.270000457763672,762500
2019-08-15,10.270000457763672,10.279999732971191,10.270000457763672,10.279999732971191,10.279999732971191,3100
2019-08-16,10.25,10.270000457763672,10.25,10.270000457763672,10.270000457763672,1200
2019-08-19,10.319999694824219,10.319999694824219,10.260000228881836,10.270000457763672,10.270000457763672,219300
2019-08-20,10.25,10.3100004196167,10.199999809265137,10.300000190734863,10.300000190734863,647400
2019-08-21,10.274999618530273,10.300000190734863,10.25,10.300000190734863,10.300000190734863,110800
2019-08-22,10.289999961853027,10.300000190734863,10.25,10.25,10.25,73200
2019-08-23,10.25,10.25,10.25,10.25,10.25,0
2019-08-26,10.28499984741211,10.300000190734863,10.25,10.260000228881836,10.260000228881836,315300
2019-08-27,10.3100004196167,10.3100004196167,10.25,10.25,10.25,2000
2019-08-28,10.300000190734863,10.300000190734863,10.25,10.25,10.25,2114700
2019-08-29,10.270000457763672,10.270000457763672,10.25,10.25,10.25,1064100
2019-08-30,10.25,10.279999732971191,10.25,10.270000457763672,10.270000457763672,44300
2019-09-03,10.319999694824219,10.319999694824219,10.25,10.279999732971191,10.279999732971191,1821600
2019-09-04,10.279999732971191,10.300000190734863,10.260000228881836,10.300000190734863,10.300000190734863,2856900
2019-09-05,10.260000228881836,10.3100004196167,10.260000228881836,10.300000190734863,10.300000190734863,775500
2019-09-06,10.270000457763672,10.300000190734863,10.260000228881836,10.260000228881836,10.260000228881836,1733600
2019-09-09,10.260000228881836,10.289999961853027,10.25,10.25,10.25,846700
2019-09-10,10.25,10.279999732971191,10.25,10.25,10.25,842400
2019-09-11,10.289999961853027,10.289999961853027,10.25,10.270000457763672,10.270000457763672,2122000
2019-09-12,10.286999702453613,10.289999961853027,10.25,10.25,10.25,289900
2019-09-13,10.270000457763672,10.279999732971191,10.260000228881836,10.270000457763672,10.270000457763672,879600
2019-09-16,10.289999961853027,10.300000190734863,10.270000457763672,10.289999961853027,10.289999961853027,2488000
2019-09-17,10.270000457763672,10.300000190734863,10.270000457763672,10.300000190734863,10.300000190734863,151800
2019-09-18,10.300000190734863,10.300000190734863,10.270000457763672,10.279999732971191,10.279999732971191,275700
2019-09-19,10.260000228881836,10.300000190734863,10.25,10.289999961853027,10.289999961853027,22100
2019-09-20,10.270000457763672,10.300000190734863,10.270000457763672,10.300000190734863,10.300000190734863,132300
2019-09-23,10.293000221252441,10.293000221252441,10.279999732971191,10.279999732971191,10.279999732971191,10300
2019-09-24,10.279999732971191,10.300000190734863,10.279999732971191,10.279999732971191,10.279999732971191,2000
2019-09-25,10.279999732971191,10.3100004196167,10.279999732971191,10.279999732971191,10.279999732971191,32000
2019-09-26,10.295000076293945,10.300000190734863,10.270000457763672,10.270000457763672,10.270000457763672,27900
2019-09-27,10.279999732971191,10.300000190734863,10.279999732971191,10.279999732971191,10.279999732971191,54300
2019-09-30,10.289999961853027,10.289999961853027,10.279999732971191,10.279999732971191,10.279999732971191,11800
2019-10-01,10.300000190734863,10.300000190734863,10.270000457763672,10.270000457763672,10.270000457763672,57100
2019-10-02,10.300000190734863,10.300000190734863,10.279999732971191,10.279999732971191,10.279999732971191,1900
2019-10-03,10.279999732971191,10.289999961853027,10.239999771118164,10.239999771118164,10.239999771118164,152100
2019-10-04,10.28499984741211,10.289999961853027,10.270000457763672,10.289999961853027,10.289999961853027,1011100
2019-10-07,10.279999732971191,10.289999961853027,10.270000457763672,10.289999961853027,10.289999961853027,31400
2019-10-08,10.270000457763672,10.289999961853027,10.260000228881836,10.289999961853027,10.289999961853027,1327400
2019-10-09,10.300000190734863,10.300000190734863,10.270000457763672,10.270000457763672,10.270000457763672,1700
2019-10-10,10.270000457763672,10.270000457763672,10.270000457763672,10.270000457763672,10.270000457763672,100
2019-10-11,10.279999732971191,10.284000396728516,10.260000228881836,10.260000228881836,10.260000228881836,12700
2019-10-14,10.260000228881836,10.260000228881836,10.260000228881836,10.260000228881836,10.260000228881836,0
2019-10-15,10.260000228881836,10.300000190734863,10.239999771118164,10.239999771118164,10.239999771118164,96600
2019-10-16,10.260000228881836,10.34000015258789,10.25,10.300000190734863,10.300000190734863,1044900
2019-10-17,10.289999961853027,10.289999961853027,10.279999732971191,10.289999961853027,10.289999961853027,28900
2019-10-18,10.260000228881836,10.300000190734863,10.260000228881836,10.289999961853027,10.289999961853027,51100
2019-10-21,10.300000190734863,10.34000015258789,10.289999961853027,10.289999961853027,10.289999961853027,43900
2019-10-22,10.25,10.329999923706055,10.25,10.270000457763672,10.270000457763672,7700
2019-10-23,10.300000190734863,10.3100004196167,10.279999732971191,10.289999961853027,10.289999961853027,92200
2019-10-24,10.279999732971191,10.319999694824219,10.279999732971191,10.289999961853027,10.289999961853027,105500
2019-10-25,10.319999694824219,10.319999694824219,10.279999732971191,10.289999961853027,10.289999961853027,3500
2019-10-28,10.289999961853027,10.319999694824219,10.279999732971191,10.300000190734863,10.300000190734863,224000
2019-10-29,10.289999961853027,10.300000190734863,10.270000457763672,10.300000190734863,10.300000190734863,360700
2019-10-30,10.300000190734863,10.300000190734863,10.270000457763672,10.279999732971191,10.279999732971191,2335300
2019-10-31,10.279999732971191,10.289999961853027,10.260000228881836,10.260000228881836,10.260000228881836,210900
2019-11-01,10.279999732971191,10.279999732971191,10.263999938964844,10.279999732971191,10.279999732971191,32000
2019-11-04,10.300000190734863,10.300000190734863,10.270000457763672,10.279999732971191,10.279999732971191,3803800
2019-11-05,10.300000190734863,10.300000190734863,10.270000457763672,10.279999732971191,10.279999732971191,597000
2019-11-06,10.279999732971191,10.279999732971191,10.255000114440918,10.270000457763672,10.270000457763672,495500
2019-11-07,10.272000312805176,10.279999732971191,10.260000228881836,10.279999732971191,10.279999732971191,50800
2019-11-08,10.279999732971191,10.279999732971191,10.260000228881836,10.260000228881836,10.260000228881836,11000
2019-11-11,10.25,10.279999732971191,10.25,10.270000457763672,10.270000457763672,359500
2019-11-12,10.270000457763672,10.300000190734863,10.199999809265137,10.229999542236328,10.229999542236328,5000
2019-11-13,10.329999923706055,10.449999809265137,10.289999961853027,10.359999656677246,10.359999656677246,2347600
2019-11-14,10.489999771118164,10.949999809265137,10.369999885559082,10.8100004196167,10.8100004196167,1801500
2019-11-15,10.880000114440918,10.880999565124512,10.5,10.800000190734863,10.800000190734863,197300
2019-11-18,10.8100004196167,10.819999694824219,10.359999656677246,10.600000381469727,10.600000381469727,1391100
2019-11-19,10.680000305175781,10.680000305175781,10.239999771118164,10.300000190734863,10.300000190734863,387300
2019-11-20,10.5,10.510000228881836,10.390000343322754,10.5,10.5,99200
2019-11-21,10.75,11.300000190734863,10.737000465393066,10.949999809265137,10.949999809265137,170500
2019-11-22,10.965999603271484,11.0,10.649999618530273,10.699999809265137,10.699999809265137,243300
2019-11-25,10.789999961853027,10.789999961853027,10.3100004196167,10.350000381469727,10.350000381469727,305300
2019-11-26,10.699999809265137,10.699999809265137,10.300000190734863,10.449999809265137,10.449999809265137,164100
2019-11-27,10.550000190734863,10.619999885559082,10.5,10.550000190734863,10.550000190734863,100100
2019-11-29,10.550000190734863,10.569999694824219,10.545000076293945,10.550000190734863,10.550000190734863,20100
2019-12-02,10.430000305175781,10.75,10.399999618530273,10.729999542236328,10.729999542236328,223700
2019-12-03,10.75,11.039999961853027,10.600000381469727,10.949999809265137,10.949999809265137,396500
2019-12-04,10.920000076293945,10.944000244140625,10.600000381469727,10.829999923706055,10.829999923706055,194500
2019-12-05,10.670000076293945,11.14799976348877,10.670000076293945,11.050000190734863,11.050000190734863,221200
2019-12-06,10.979999542236328,11.149999618530273,10.880000114440918,11.130000114440918,11.130000114440918,108100
2019-12-09,11.149999618530273,11.729999542236328,11.145000457763672,11.390000343322754,11.390000343322754,609900
2019-12-10,11.350000381469727,11.779999732971191,11.319999694824219,11.6899995803833,11.6899995803833,323500
2019-12-11,11.739999771118164,11.890000343322754,11.5600004196167,11.75,11.75,299600
2019-12-12,11.65999984741211,12.0,11.569999694824219,12.0,12.0,299800
2019-12-13,11.930000305175781,12.199999809265137,11.789999961853027,11.920000076293945,11.920000076293945,294000
2019-12-16,12.520000457763672,12.614999771118164,12.0600004196167,12.270000457763672,12.270000457763672,944500
2019-12-17,12.25,12.670000076293945,12.050000190734863,12.399999618530273,12.399999618530273,932300
2019-12-18,12.34000015258789,12.539999961853027,12.220000267028809,12.449999809265137,12.449999809265137,707800
2019-12-19,12.529999732971191,12.670000076293945,12.300000190734863,12.550000190734863,12.550000190734863,777600
2019-12-20,12.520000457763672,12.65999984741211,12.4399995803833,12.600000381469727,12.600000381469727,897900
2019-12-23,12.600000381469727,12.630000114440918,12.154000282287598,12.199999809265137,12.199999809265137,212900
2019-12-24,12.319999694824219,12.319999694824219,11.949999809265137,12.010000228881836,12.010000228881836,33600
2019-12-26,11.960000038146973,12.289999961853027,11.890000343322754,12.130000114440918,12.130000114440918,41200
2019-12-27,12.0600004196167,12.354999542236328,12.039999961853027,12.319999694824219,12.319999694824219,96600
2019-12-30,12.699999809265137,12.699999809265137,12.34000015258789,12.460000038146973,12.460000038146973,79200
2019-12-31,12.40999984741211,12.520000457763672,12.319999694824219,12.5,12.5,102300
2020-01-02,12.449999809265137,12.649999618530273,12.329999923706055,12.5,12.5,62400
2020-01-03,12.5,12.645000457763672,12.40999984741211,12.569999694824219,12.569999694824219,36500
2020-01-06,12.5600004196167,12.579999923706055,12.34000015258789,12.399999618530273,12.399999618530273,127400
2020-01-07,12.470000267028809,12.470000267028809,12.239999771118164,12.239999771118164,12.239999771118164,50700
2020-01-08,12.300000190734863,12.300000190734863,12.010000228881836,12.109999656677246,12.109999656677246,157100
2020-01-09,12.229999542236328,12.255000114440918,12.020000457763672,12.020000457763672,12.020000457763672,63600
2020-01-10,12.020000457763672,12.420000076293945,11.90999984741211,12.0,12.0,90400
2020-01-13,11.949999809265137,12.109999656677246,11.829999923706055,11.920000076293945,11.920000076293945,115900
2020-01-14,11.880000114440918,12.187000274658203,11.880000114440918,12.0,12.0,66400
2020-01-15,11.989999771118164,12.239999771118164,11.880000114440918,11.970000267028809,11.970000267028809,113200
2020-01-16,11.989999771118164,12.220000267028809,11.989999771118164,12.09000015258789,12.09000015258789,40300
2020-01-17,12.0,12.199999809265137,11.680000305175781,12.029999732971191,12.029999732971191,123000
2020-01-21,12.029999732971191,12.199999809265137,12.0,12.0600004196167,12.0600004196167,61500
2020-01-22,12.149999618530273,12.229999542236328,12.039999961853027,12.100000381469727,12.100000381469727,106900
2020-01-23,12.010000228881836,12.180000305175781,11.890000343322754,12.100000381469727,12.100000381469727,81400
2020-01-24,12.130000114440918,12.1899995803833,11.960000038146973,12.0,12.0,65700
2020-01-27,11.800000190734863,12.100000381469727,11.75,11.920000076293945,11.920000076293945,73200
2020-01-28,12.100000381469727,12.25,11.984999656677246,12.100000381469727,12.100000381469727,81400
2020-01-29,12.25,12.5,12.079999923706055,12.470000267028809,12.470000267028809,106000
2020-01-30,12.529999732971191,12.699999809265137,12.40999984741211,12.5,12.5,167600
2020-01-31,12.550000190734863,12.720000267028809,12.210000038146973,12.25,12.25,84000
2020-02-03,12.15999984741211,12.460000038146973,12.15999984741211,12.260000228881836,12.260000228881836,119600
2020-02-04,12.380000114440918,12.4399995803833,12.180000305175781,12.34000015258789,12.34000015258789,166000
2020-02-05,12.5,12.854999542236328,12.390000343322754,12.59000015258789,12.59000015258789,143100
2020-02-06,12.649999618530273,12.680000305175781,12.550000190734863,12.579999923706055,12.579999923706055,97800
2020-02-07,12.649999618530273,12.710000038146973,12.5,12.630000114440918,12.630000114440918,113700
2020-02-10,12.569999694824219,12.770000457763672,12.3100004196167,12.680000305175781,12.680000305175781,756600
2020-02-11,12.8100004196167,12.8100004196167,12.5,12.649999618530273,12.649999618530273,172900
2020-02-12,12.800000190734863,13.199999809265137,12.630000114440918,13.0,13.0,555800
2020-02-13,13.069999694824219,13.32800006866455,12.90999984741211,13.0,13.0,170000
2020-02-14,13.140000343322754,13.350000381469727,12.979999542236328,13.279999732971191,13.279999732971191,244900
2020-02-18,13.279999732971191,13.300000190734863,12.949999809265137,13.010000228881836,13.010000228881836,113500
2020-02-19,13.010000228881836,13.180000305175781,12.949999809265137,13.029999732971191,13.029999732971191,132400
2020-02-20,13.119999885559082,13.149999618530273,13.029999732971191,13.0600004196167,13.0600004196167,97000
2020-02-21,13.09000015258789,13.100000381469727,12.890000343322754,12.989999771118164,12.989999771118164,269900
2020-02-24,12.819999694824219,13.029999732971191,12.569999694824219,12.890000343322754,12.890000343322754,159700
2020-02-25,12.90999984741211,12.9399995803833,12.692999839782715,12.720000267028809,12.720000267028809,154600
2020-02-26,12.720000267028809,12.739999771118164,12.460000038146973,12.489999771118164,12.489999771118164,273200
2020-02-27,12.289999961853027,12.555000305175781,12.09000015258789,12.25,12.25,374400
2020-02-28,12.0,12.3100004196167,11.789999961853027,12.170000076293945,12.170000076293945,174700
2020-03-02,12.109999656677246,12.34000015258789,11.920000076293945,11.989999771118164,11.989999771118164,150400
2020-03-03,12.119999885559082,12.119999885559082,11.260000228881836,11.3100004196167,11.3100004196167,141200
2020-03-04,11.539999961853027,11.989999771118164,11.270000457763672,11.319999694824219,11.319999694824219,134200
2020-03-05,11.229999542236328,11.239999771118164,10.760000228881836,10.899999618530273,10.899999618530273,285500
2020-03-06,10.829999923706055,11.079999923706055,10.729999542236328,10.779999732971191,10.779999732971191,216900
2020-03-09,10.350000381469727,10.510000228881836,9.670000076293945,9.869999885559082,9.869999885559082,252100
2020-03-10,10.010000228881836,10.229999542236328,9.9399995803833,10.050000190734863,10.050000190734863,390700
2020-03-11,10.010000228881836,10.109999656677246,9.501999855041504,9.75,9.75,249000
2020-03-12,9.569999694824219,9.585000038146973,8.390000343322754,8.600000381469727,8.600000381469727,279100
2020-03-13,8.949999809265137,9.109999656677246,7.877999782562256,8.699999809265137,8.699999809265137,218800
2020-03-16,8.199999809265137,8.199999809265137,6.789999961853027,6.860000133514404,6.860000133514404,176200
2020-03-17,6.659999847412109,7.75,6.619999885559082,7.71999979019165,7.71999979019165,285000
2020-03-18,7.449999809265137,7.650000095367432,6.599999904632568,6.96999979019165,6.96999979019165,184500
2020-03-19,7.0,7.0,5.730000019073486,6.0,6.0,530200
2020-03-20,6.0,6.369999885559082,5.579999923706055,5.599999904632568,5.599999904632568,299100
2020-03-23,5.710000038146973,5.909999847412109,5.21999979019165,5.730000019073486,5.730000019073486,167500
2020-03-24,6.0,7.639999866485596,5.951000213623047,6.96999979019165,6.96999979019165,349700
2020-03-25,7.099999904632568,8.699999809265137,6.630000114440918,7.880000114440918,7.880000114440918,235800
2020-03-26,7.900000095367432,8.069999694824219,7.369999885559082,7.800000190734863,7.800000190734863,372200
2020-03-27,7.570000171661377,7.664999961853027,7.269999980926514,7.559999942779541,7.559999942779541,173000
2020-03-30,7.619999885559082,7.989999771118164,6.869999885559082,7.199999809265137,7.199999809265137,147800
2020-03-31,7.210000038146973,7.670000076293945,7.199999809265137,7.5,7.5,178200
2020-04-01,7.349999904632568,7.769999980926514,7.21999979019165,7.420000076293945,7.420000076293945,235800
2020-04-02,7.5,7.679999828338623,7.230000019073486,7.389999866485596,7.389999866485596,90900
2020-04-03,7.210000038146973,7.400000095367432,7.150000095367432,7.269999980926514,7.269999980926514,155700
2020-04-06,7.460000038146973,8.199999809265137,7.21999979019165,7.510000228881836,7.510000228881836,177300
2020-04-07,7.679999828338623,8.09000015258789,7.380000114440918,7.75,7.75,84200
2020-04-08,7.980000019073486,8.359999656677246,7.760000228881836,8.300000190734863,8.300000190734863,131300
2020-04-09,8.539999961853027,9.255000114440918,8.539999961853027,8.789999961853027,8.789999961853027,221200
2020-04-13,8.930000305175781,9.0,8.0,8.15999984741211,8.15999984741211,159700
2020-04-14,8.229999542236328,8.59000015258789,8.199999809265137,8.460000038146973,8.460000038146973,123300
2020-04-15,8.09000015258789,8.489999771118164,7.929999828338623,8.430000305175781,8.430000305175781,133400
2020-04-16,8.630000114440918,8.630000114440918,8.0,8.210000038146973,8.210000038146973,129000
2020-04-17,8.359999656677246,9.369999885559082,8.359999656677246,9.0,9.0,314800
2020-04-20,8.760000228881836,9.119999885559082,8.739999771118164,9.020000457763672,9.020000457763672,144600
2020-04-21,9.020000457763672,9.020000457763672,8.583999633789062,8.609999656677246,8.609999656677246,76500
2020-04-22,8.619999885559082,8.800000190734863,8.149999618530273,8.149999618530273,8.149999618530273,93200
2020-04-23,8.34000015258789,8.850000381469727,8.206999778747559,8.699999809265137,8.699999809265137,114100
2020-04-24,8.90999984741211,8.90999984741211,8.5,8.539999961853027,8.539999961853027,59100
2020-04-27,8.760000228881836,9.229999542236328,8.569999694824219,9.180000305175781,9.180000305175781,132800
2020-04-28,9.25,9.6899995803833,9.130000114440918,9.399999618530273,9.399999618530273,135600
2020-04-29,9.420000076293945,9.989999771118164,9.289999961853027,9.899999618530273,9.899999618530273,176900
2020-04-30,9.970000267028809,9.989999771118164,9.350000381469727,9.729999542236328,9.729999542236328,172500
2020-05-01,9.5600004196167,10.0600004196167,9.220000267028809,9.789999961853027,9.789999961853027,229600
2020-05-04,9.800000190734863,10.029999732971191,9.470000267028809,9.800000190734863,9.800000190734863,437500
2020-05-05,9.729999542236328,10.449999809265137,9.289999961853027,9.289999961853027,9.289999961853027,948100
2020-05-06,9.479999542236328,9.539999961853027,9.149999618530273,9.289999961853027,9.289999961853027,74500
2020-05-07,9.260000228881836,9.699999809265137,9.260000228881836,9.4399995803833,9.4399995803833,203000
2020-05-08,9.65999984741211,9.760000228881836,8.970000267028809,9.0,9.0,214800
2020-05-11,9.899999618530273,9.899999618530273,7.690000057220459,7.960000038146973,7.960000038146973,649200
2020-05-12,8.079999923706055,8.649999618530273,7.800000190734863,7.800000190734863,7.800000190734863,459500
2020-05-13,7.829999923706055,8.039999961853027,7.25,7.400000095367432,7.400000095367432,650800
2020-05-14,7.420000076293945,7.5329999923706055,7.139999866485596,7.25,7.25,433600
2020-05-15,7.300000190734863,8.3100004196167,7.199999809265137,8.289999961853027,8.289999961853027,317700
2020-05-18,8.380000114440918,9.140000343322754,8.380000114440918,8.739999771118164,8.739999771118164,349000
2020-05-19,8.8100004196167,9.369999885559082,8.550000190734863,8.930000305175781,8.930000305175781,186100
2020-05-20,8.930000305175781,9.489999771118164,8.930000305175781,9.199999809265137,9.199999809265137,430200
2020-05-21,9.34000015258789,9.6899995803833,8.869999885559082,9.180000305175781,9.180000305175781,378600
2020-05-22,9.069999694824219,9.414999961853027,9.010000228881836,9.199999809265137,9.199999809265137,256600
2020-05-26,9.449999809265137,9.90999984741211,9.319999694824219,9.720000267028809,9.720000267028809,214400
2020-05-27,9.989999771118164,9.989999771118164,9.399999618530273,9.479999542236328,9.479999542236328,362900
2020-05-28,9.65999984741211,9.84000015258789,9.430000305175781,9.539999961853027,9.539999961853027,262000
2020-05-29,9.460000038146973,10.5,9.350000381469727,10.140000343322754,10.140000343322754,836500
2020-06-01,10.170000076293945,10.5649995803833,10.130000114440918,10.170000076293945,10.170000076293945,276800
2020-06-02,10.109999656677246,10.329999923706055,10.0,10.029999732971191,10.029999732971191,316500
2020-06-03,10.020000457763672,10.279999732971191,9.869999885559082,10.0600004196167,10.0600004196167,363200
2020-06-04,10.0600004196167,10.680000305175781,10.020000457763672,10.649999618530273,10.649999618530273,541400
2020-06-05,10.930000305175781,11.0,10.710000038146973,10.779999732971191,10.779999732971191,367800
2020-06-08,10.579999923706055,10.850000381469727,9.899999618530273,10.039999961853027,10.039999961853027,490500
2020-06-09,9.84000015258789,9.989999771118164,9.510000228881836,9.5600004196167,9.5600004196167,336500
2020-06-10,9.640000343322754,10.430000305175781,9.510000228881836,10.220000267028809,10.220000267028809,285000
2020-06-11,9.930000305175781,9.930000305175781,9.079999923706055,9.300000190734863,9.300000190734863,272800
2020-06-12,9.1899995803833,9.789999961853027,9.1899995803833,9.479999542236328,9.479999542236328,168000
2020-06-15,8.600000381469727,10.90999984741211,8.430000305175781,10.479999542236328,10.479999542236328,899700
2020-06-16,10.300000190734863,10.3149995803833,9.260000228881836,10.0600004196167,10.0600004196167,655100
2020-06-17,10.0,10.300000190734863,9.979999542236328,10.050000190734863,10.050000190734863,1101000
2020-06-18,9.819999694824219,10.210000038146973,9.760000228881836,10.199999809265137,10.199999809265137,912200
2020-06-19,10.300000190734863,10.489999771118164,10.010000228881836,10.0600004196167,10.0600004196167,2650700
2020-06-22,9.9399995803833,10.25,9.890000343322754,10.079999923706055,10.079999923706055,318300
2020-06-23,9.899999618530273,10.199999809265137,9.899999618530273,10.050000190734863,10.050000190734863,500400
2020-06-24,9.819999694824219,10.130000114440918,9.699999809265137,9.699999809265137,9.699999809265137,406600
2020-06-25,9.680000305175781,9.970000267028809,8.949999809265137,9.680000305175781,9.680000305175781,616400
2020-06-26,9.6899995803833,9.75,8.680000305175781,8.989999771118164,8.989999771118164,5096000
2020-06-29,8.949999809265137,9.079999923706055,8.739999771118164,9.079999923706055,9.079999923706055,331500
2020-06-30,9.119999885559082,9.75,9.010000228881836,9.630000114440918,9.630000114440918,420700
2020-07-01,9.510000228881836,10.020000457763672,9.335000038146973,9.40999984741211,9.40999984741211,295600
2020-07-02,9.579999923706055,9.670000076293945,9.220000267028809,9.289999961853027,9.289999961853027,278100
2020-07-06,9.460000038146973,9.460000038146973,9.229999542236328,9.289999961853027,9.289999961853027,205200
2020-07-07,9.050000190734863,9.170000076293945,8.869999885559082,9.050000190734863,9.050000190734863,137600
2020-07-08,8.9399995803833,9.109999656677246,8.4399995803833,8.800000190734863,8.800000190734863,316400
2020-07-09,8.800000190734863,9.039999961853027,8.579999923706055,9.020000457763672,9.020000457763672,248300
2020-07-10,9.010000228881836,9.40999984741211,8.979999542236328,9.390000343322754,9.390000343322754,269200
2020-07-13,9.619999885559082,9.791000366210938,9.329999923706055,9.40999984741211,9.40999984741211,490500
2020-07-14,9.470000267028809,9.720000267028809,9.289999961853027,9.579999923706055,9.579999923706055,510600
2020-07-15,9.6899995803833,10.265000343322754,9.579999923706055,9.859999656677246,9.859999656677246,590800
2020-07-16,9.770000457763672,9.869999885559082,9.479999542236328,9.819999694824219,9.819999694824219,310300
2020-07-17,9.720000267028809,9.720000267028809,9.109999656677246,9.289999961853027,9.289999961853027,720100
2020-07-20,9.289999961853027,9.40999984741211,9.09000015258789,9.350000381469727,9.350000381469727,354800
2020-07-21,9.479999542236328,9.532999992370605,9.050000190734863,9.079999923706055,9.079999923706055,294900
2020-07-22,9.109999656677246,9.149999618530273,8.720000267028809,8.8100004196167,8.8100004196167,631200
2020-07-23,8.699999809265137,8.90999984741211,8.585000038146973,8.8100004196167,8.8100004196167,502000
2020-07-24,8.779999732971191,8.84000015258789,8.59000015258789,8.800000190734863,8.800000190734863,205000
2020-07-27,8.829999923706055,8.899999618530273,8.050000190734863,8.539999961853027,8.539999961853027,279900
2020-07-28,8.5,8.84000015258789,8.5,8.760000228881836,8.760000228881836,241500
2020-07-29,8.869999885559082,8.920000076293945,8.640000343322754,8.729999542236328,8.729999542236328,167700
2020-07-30,8.569999694824219,8.569999694824219,8.3100004196167,8.350000381469727,8.350000381469727,196500
2020-07-31,8.239999771118164,8.300000190734863,7.909999847412109,7.989999771118164,7.989999771118164,324400
2020-08-03,8.050000190734863,8.050000190734863,7.409999847412109,7.800000190734863,7.800000190734863,723700
2020-08-04,7.78000020980835,7.809999942779541,7.340000152587891,7.809999942779541,7.809999942779541,348600
2020-08-05,7.940000057220459,7.980000019073486,7.650000095367432,7.900000095367432,7.900000095367432,242700
2020-08-06,7.53000020980835,9.350000381469727,7.53000020980835,9.210000038146973,9.210000038146973,902300
2020-08-07,9.100000381469727,10.479999542236328,8.819999694824219,10.199999809265137,10.199999809265137,678100
2020-08-10,10.239999771118164,10.670000076293945,9.619999885559082,9.960000038146973,9.960000038146973,531000
2020-08-11,10.180000305175781,10.329999923706055,9.9399995803833,10.069999694824219,10.069999694824219,373400
2020-08-12,10.319999694824219,10.329999923706055,9.789999961853027,9.8100004196167,9.8100004196167,333400
2020-08-13,9.84000015258789,10.069999694824219,9.680000305175781,9.729999542236328,9.729999542236328,231900
2020-08-14,9.670000076293945,10.239999771118164,9.59000015258789,10.170000076293945,10.170000076293945,355200
2020-08-17,10.25,11.119999885559082,10.149999618530273,10.779999732971191,10.779999732971191,753800
2020-08-18,10.960000038146973,11.210000038146973,10.65999984741211,10.710000038146973,10.710000038146973,351200
2020-08-19,10.699999809265137,10.895000457763672,10.541999816894531,10.75,10.75,292700
2020-08-20,10.720000267028809,11.770000457763672,10.720000267028809,11.729999542236328,11.729999542236328,1016000
2020-08-21,11.5600004196167,12.210000038146973,11.5600004196167,12.1899995803833,12.1899995803833,533500
2020-08-24,12.390000343322754,12.489999771118164,11.760000228881836,12.350000381469727,12.350000381469727,662500
2020-08-25,12.5,12.5,11.84000015258789,11.890000343322754,11.890000343322754,357000
2020-08-26,11.770000457763672,11.854999542236328,11.59000015258789,11.640000343322754,11.640000343322754,283300
2020-08-27,11.770000457763672,12.369999885559082,11.710000038146973,11.90999984741211,11.90999984741211,321000
2020-08-28,12.260000228881836,12.395000457763672,12.010000228881836,12.039999961853027,12.039999961853027,478300
2020-08-31,12.050000190734863,12.050000190734863,11.550000190734863,11.859999656677246,11.859999656677246,451300
2020-09-01,11.960000038146973,12.4399995803833,11.8100004196167,12.09000015258789,12.09000015258789,1132400
2020-09-02,11.970000267028809,13.390000343322754,11.970000267028809,13.140000343322754,13.140000343322754,723500
2020-09-03,13.119999885559082,13.239999771118164,12.640000343322754,12.720000267028809,12.720000267028809,375600
2020-09-04,13.050000190734863,13.3149995803833,12.649999618530273,12.729999542236328,12.729999542236328,339900
2020-09-08,12.729999542236328,13.222999572753906,12.279999732971191,12.729999542236328,12.729999542236328,338600
2020-09-09,13.0,13.850000381469727,12.869999885559082,13.289999961853027,13.289999961853027,678500
2020-09-10,13.5600004196167,13.789999961853027,13.295000076293945,13.479999542236328,13.479999542236328,484200
2020-09-11,13.609999656677246,13.609999656677246,12.619999885559082,12.770000457763672,12.770000457763672,214700
2020-09-14,12.890000343322754,13.199999809265137,12.890000343322754,13.149999618530273,13.149999618530273,289700
2020-09-15,13.390000343322754,15.109999656677246,13.354999542236328,14.550000190734863,14.550000190734863,686000
2020-09-16,14.539999961853027,14.9399995803833,14.164999961853027,14.239999771118164,14.239999771118164,375500
2020-09-17,14.039999961853027,14.619999885559082,13.869999885559082,14.319999694824219,14.319999694824219,350800
2020-09-18,14.5,14.5,13.920000076293945,14.0,14.0,620400
2020-09-21,13.289999961853027,14.180000305175781,13.246999740600586,14.069999694824219,14.069999694824219,395800
2020-09-22,13.149999618530273,13.300000190734863,11.609999656677246,11.8100004196167,11.8100004196167,742100
2020-09-23,11.6899995803833,11.779999732971191,10.399999618530273,10.579999923706055,10.579999923706055,744500
2020-09-24,11.029999732971191,11.920000076293945,10.5,10.65999984741211,10.65999984741211,2026400
2020-09-25,10.65999984741211,11.170000076293945,10.510000228881836,10.619999885559082,10.619999885559082,500900
2020-09-28,10.859999656677246,11.369999885559082,10.5,11.15999984741211,11.15999984741211,309600
2020-09-29,11.25,11.25,10.6899995803833,10.930000305175781,10.930000305175781,298000
2020-09-30,10.9399995803833,11.3100004196167,10.520000457763672,10.710000038146973,10.710000038146973,243400
2020-10-01,10.649999618530273,10.989999771118164,10.359999656677246,10.989999771118164,10.989999771118164,473600
2020-10-02,10.75,10.949999809265137,10.539999961853027,10.8100004196167,10.8100004196167,409500
2020-10-05,10.75,11.119999885559082,10.630000114440918,10.770000457763672,10.770000457763672,367400
2020-10-06,10.850000381469727,10.989999771118164,10.5,10.5600004196167,10.5600004196167,565200
2020-10-07,10.619999885559082,10.970000267028809,10.569999694824219,10.869999885559082,10.869999885559082,238900
2020-10-08,10.949999809265137,11.079999923706055,10.699999809265137,10.770000457763672,10.770000457763672,247800
2020-10-09,10.84000015258789,10.960000038146973,10.75,10.8100004196167,10.8100004196167,132400
2020-10-12,11.0,11.399999618530273,10.9399995803833,11.069999694824219,11.069999694824219,265600
2020-10-13,10.989999771118164,11.199000358581543,10.75,11.119999885559082,11.119999885559082,150400
2020-10-14,11.170000076293945,11.390000343322754,10.59000015258789,10.760000228881836,10.760000228881836,252000
2020-10-15,10.59000015258789,11.09000015258789,10.5,11.09000015258789,11.09000015258789,285900
2020-10-16,11.010000228881836,11.3100004196167,10.920000076293945,11.119999885559082,11.119999885559082,152600
2020-10-19,11.069999694824219,11.319999694824219,10.680000305175781,10.699999809265137,10.699999809265137,204400
2020-10-20,10.739999771118164,10.770000457763672,10.5,10.670000076293945,10.670000076293945,192400
2020-10-21,10.670000076293945,10.779999732971191,10.5,10.510000228881836,10.510000228881836,128100
2020-10-22,10.619999885559082,10.949999809265137,10.5,10.84000015258789,10.84000015258789,236200
2020-10-23,10.930000305175781,10.930000305175781,10.5600004196167,10.770000457763672,10.770000457763672,87800
2020-10-26,10.59000015258789,10.699999809265137,10.119999885559082,10.15999984741211,10.15999984741211,292500
2020-10-27,10.270000457763672,10.279999732971191,9.859999656677246,10.010000228881836,10.010000228881836,350400
2020-10-28,9.739999771118164,9.875,9.350000381469727,9.699999809265137,9.699999809265137,300800
2020-10-29,9.609999656677246,9.800000190734863,9.489999771118164,9.75,9.75,149900
2020-10-30,9.760000228881836,9.760000228881836,9.550000190734863,9.600000381469727,9.600000381469727,262500
2020-11-02,9.770000457763672,9.890000343322754,9.470000267028809,9.640000343322754,9.640000343322754,295500
2020-11-03,9.789999961853027,10.270000457763672,9.774999618530273,10.1899995803833,10.1899995803833,276100
2020-11-04,9.989999771118164,10.255000114440918,9.949999809265137,10.1899995803833,10.1899995803833,143800
2020-11-05,10.350000381469727,10.680000305175781,10.029999732971191,10.289999961853027,10.289999961853027,357300
2020-11-06,10.289999961853027,10.539999961853027,10.1899995803833,10.270000457763672,10.270000457763672,186700
2020-11-09,10.970000267028809,12.09000015258789,10.770000457763672,11.40999984741211,11.40999984741211,704600
2020-11-10,11.489999771118164,11.489999771118164,10.970000267028809,11.0,11.0,535300
2020-11-11,11.109999656677246,11.210000038146973,10.739999771118164,11.0,11.0,285300
2020-11-12,10.859999656677246,11.0600004196167,10.710000038146973,11.0,11.0,198100
2020-11-13,11.0,11.149999618530273,10.8100004196167,10.9399995803833,10.9399995803833,322100
2020-11-16,11.109999656677246,11.390000343322754,11.0,11.180000305175781,11.180000305175781,377300
2020-11-17,11.09000015258789,11.3100004196167,10.59000015258789,10.760000228881836,10.760000228881836,493200
2020-11-18,10.760000228881836,11.130000114440918,10.34000015258789,10.460000038146973,10.460000038146973,203100
2020-11-19,10.399999618530273,10.680000305175781,10.180000305175781,10.390000343322754,10.390000343322754,180700
2020-11-20,10.25,10.460000038146973,10.140000343322754,10.319999694824219,10.319999694824219,201700
2020-11-23,10.460000038146973,10.989999771118164,10.420000076293945,10.850000381469727,10.850000381469727,247100
2020-11-24,10.989999771118164,11.369999885559082,10.989999771118164,11.25,11.25,469300
2020-11-25,10.800000190734863,11.0,10.25,10.869999885559082,10.869999885559082,369400
2020-11-27,10.899999618530273,11.029999732971191,10.640000343322754,10.920000076293945,10.920000076293945,213100
2020-11-30,10.920000076293945,10.920000076293945,10.319999694824219,10.4399995803833,10.4399995803833,397400
2020-12-01,10.550000190734863,10.899999618530273,10.329999923706055,10.619999885559082,10.619999885559082,1968000
2020-12-02,10.600000381469727,10.600000381469727,9.895000457763672,10.359999656677246,10.359999656677246,554500
2020-12-03,10.279999732971191,10.579999923706055,10.270000457763672,10.380000114440918,10.380000114440918,305700
2020-12-04,10.430000305175781,10.779999732971191,10.380000114440918,10.649999618530273,10.649999618530273,275300
2020-12-07,10.470000267028809,10.579999923706055,9.859999656677246,9.869999885559082,9.869999885559082,503300
2020-12-08,9.8100004196167,9.880000114440918,9.550000190734863,9.800000190734863,9.800000190734863,333800
2020-12-09,9.9399995803833,10.039999961853027,9.6899995803833,9.850000381469727,9.850000381469727,454000
2020-12-10,9.850000381469727,10.050000190734863,9.140000343322754,9.15999984741211,9.15999984741211,426600
2020-12-11,9.130000114440918,9.34000015258789,8.819999694824219,9.270000457763672,9.270000457763672,362300
2020-12-14,9.300000190734863,9.739999771118164,9.270000457763672,9.579999923706055,9.579999923706055,511900
2020-12-15,9.579999923706055,9.789999961853027,9.449999809265137,9.670000076293945,9.670000076293945,1065400
2020-12-16,9.739999771118164,10.140000343322754,9.59000015258789,10.050000190734863,10.050000190734863,325500
2020-12-17,9.989999771118164,10.579999923706055,9.949999809265137,10.529999732971191,10.529999732971191,464400
2020-12-18,10.579999923706055,11.130000114440918,10.319999694824219,10.380000114440918,10.380000114440918,2293100
2020-12-21,10.130000114440918,10.350000381469727,9.800000190734863,10.260000228881836,10.260000228881836,394600
2020-12-22,10.199999809265137,10.729999542236328,10.100000381469727,10.6899995803833,10.6899995803833,422700
2020-12-23,10.890000343322754,11.140000343322754,10.710000038146973,10.770000457763672,10.770000457763672,412400
2020-12-24,10.75,11.0,10.670000076293945,10.859999656677246,10.859999656677246,179300
2020-12-28,11.0,11.0,10.430000305175781,10.4399995803833,10.4399995803833,259100
2020-12-29,10.539999961853027,10.539999961853027,9.960000038146973,10.069999694824219,10.069999694824219,221500
2020-12-30,10.039999961853027,10.4399995803833,9.729999542236328,10.1899995803833,10.1899995803833,286500
