Date,Open,High,Low,Close,Adj Close,Volume
2017-11-02,5.599999904632568,5.599999904632568,5.599999904632568,5.599999904632568,5.599999904632568,100
2017-11-03,8.170000076293945,8.484000205993652,5.869999885559082,6.050000190734863,6.050000190734863,523500
2017-11-06,6.010000228881836,6.460000038146973,5.599999904632568,5.599999904632568,5.599999904632568,70600
2017-11-07,5.599999904632568,5.730000019073486,5.599999904632568,5.599999904632568,5.599999904632568,32600
2017-11-08,5.599999904632568,5.650000095367432,5.599999904632568,5.599999904632568,5.599999904632568,118500
2017-11-09,5.599999904632568,5.630000114440918,5.599999904632568,5.60099983215332,5.60099983215332,34700
2017-11-10,5.650000095367432,5.760000228881836,5.610000133514404,5.71999979019165,5.71999979019165,9800
2017-11-13,5.760000228881836,6.189000129699707,5.71999979019165,5.96999979019165,5.96999979019165,21800
2017-11-14,6.150000095367432,6.349999904632568,5.650000095367432,5.96999979019165,5.96999979019165,60400
2017-11-15,5.909999847412109,6.239999771118164,5.789999961853027,6.239999771118164,6.239999771118164,36800
2017-11-16,6.199999809265137,6.590000152587891,6.199999809265137,6.519999980926514,6.519999980926514,33600
2017-11-17,6.699999809265137,6.889999866485596,6.590000152587891,6.889999866485596,6.889999866485596,31400
2017-11-20,7.0,7.840000152587891,6.980000019073486,7.340000152587891,7.340000152587891,56100
2017-11-21,7.650000095367432,7.650000095367432,7.360000133514404,7.420000076293945,7.420000076293945,40100
2017-11-22,7.5,7.502999782562256,6.900000095367432,6.949999809265137,6.949999809265137,23200
2017-11-24,6.849999904632568,7.210000038146973,6.849999904632568,6.869999885559082,6.869999885559082,25500
2017-11-27,6.869999885559082,7.199999809265137,6.828999996185303,6.900000095367432,6.900000095367432,23800
2017-11-28,6.869999885559082,6.88100004196167,6.708000183105469,6.800000190734863,6.800000190734863,6300
2017-11-29,6.820000171661377,7.050000190734863,6.539999961853027,6.78000020980835,6.78000020980835,25500
2017-11-30,6.670000076293945,6.900000095367432,6.639999866485596,6.75,6.75,2900
2017-12-01,6.400000095367432,6.900000095367432,6.400000095367432,6.789999961853027,6.789999961853027,13700
2017-12-04,6.789999961853027,6.789999961853027,6.400000095367432,6.460000038146973,6.460000038146973,22800
2017-12-05,6.409999847412109,6.409999847412109,5.880000114440918,5.980000019073486,5.980000019073486,21800
2017-12-06,6.0,6.110000133514404,5.800000190734863,5.889999866485596,5.889999866485596,18000
2017-12-07,5.909999847412109,6.260000228881836,5.809999942779541,5.900000095367432,5.900000095367432,7100
2017-12-08,5.920000076293945,6.239999771118164,5.920000076293945,6.050000190734863,6.050000190734863,2500
2017-12-11,5.980000019073486,6.199999809265137,5.949999809265137,5.960000038146973,5.960000038146973,18800
2017-12-12,6.099999904632568,6.110000133514404,5.690000057220459,5.840000152587891,5.840000152587891,19600
2017-12-13,5.849999904632568,6.0,5.510000228881836,5.53000020980835,5.53000020980835,20400
2017-12-14,5.579999923706055,5.789999961853027,5.539999961853027,5.539999961853027,5.539999961853027,15400
2017-12-15,5.550000190734863,5.699999809265137,5.0,5.0,5.0,54100
2017-12-18,5.0,5.21999979019165,5.0,5.139999866485596,5.139999866485596,40700
2017-12-19,5.179999828338623,5.239999771118164,5.019999980926514,5.019999980926514,5.019999980926514,27100
2017-12-20,5.1519999504089355,5.1519999504089355,4.820000171661377,4.820000171661377,4.820000171661377,26400
2017-12-21,4.889999866485596,5.210000038146973,4.849999904632568,5.159999847412109,5.159999847412109,14700
2017-12-22,5.019999980926514,5.03000020980835,4.949999809265137,4.949999809265137,4.949999809265137,16100
2017-12-26,4.968999862670898,5.050000190734863,4.968999862670898,5.010000228881836,5.010000228881836,10400
2017-12-27,5.010000228881836,5.019999980926514,4.909999847412109,4.920000076293945,4.920000076293945,61700
2017-12-28,4.980000019073486,5.114999771118164,4.940000057220459,5.050000190734863,5.050000190734863,5700
2017-12-29,5.050000190734863,5.25,5.050000190734863,5.25,5.25,6800
2018-01-02,5.25,5.619999885559082,5.059999942779541,5.619999885559082,5.619999885559082,4900
2018-01-03,5.599999904632568,5.622000217437744,5.201000213623047,5.300000190734863,5.300000190734863,9600
2018-01-04,5.269999980926514,5.460000038146973,5.145999908447266,5.315000057220459,5.315000057220459,3100
2018-01-05,5.300000190734863,5.5279998779296875,5.300000190734863,5.510000228881836,5.510000228881836,2800
2018-01-08,5.550000190734863,5.550000190734863,5.179999828338623,5.239999771118164,5.239999771118164,26300
2018-01-09,5.214000225067139,5.439000129699707,5.210000038146973,5.239999771118164,5.239999771118164,11200
2018-01-10,5.5289998054504395,5.550000190734863,5.159999847412109,5.190000057220459,5.190000057220459,15600
2018-01-11,5.239999771118164,5.394999980926514,5.21999979019165,5.239999771118164,5.239999771118164,2200
2018-01-12,5.269999980926514,5.380000114440918,5.03000020980835,5.170000076293945,5.170000076293945,12800
2018-01-16,5.199999809265137,5.230000019073486,4.809999942779541,4.940000057220459,4.940000057220459,32200
2018-01-17,4.809999942779541,5.070000171661377,4.809999942779541,5.0,5.0,16700
2018-01-18,5.0,5.025000095367432,4.960000038146973,4.960000038146973,4.960000038146973,3300
2018-01-19,4.820000171661377,5.03000020980835,4.800000190734863,4.989999771118164,4.989999771118164,30300
2018-01-22,5.0,5.015999794006348,4.74399995803833,4.75,4.75,33600
2018-01-23,5.0,5.968999862670898,5.0,5.659999847412109,5.659999847412109,304600
2018-01-24,5.71999979019165,6.349999904632568,5.300000190734863,5.429999828338623,5.429999828338623,168800
2018-01-25,5.489999771118164,5.710000038146973,5.300000190734863,5.309999942779541,5.309999942779541,104200
2018-01-26,5.300000190734863,5.400000095367432,5.25,5.300000190734863,5.300000190734863,41900
2018-01-29,5.552999973297119,5.552999973297119,5.349999904632568,5.440000057220459,5.440000057220459,18300
2018-01-30,5.460000038146973,5.465000152587891,5.110000133514404,5.110000133514404,5.110000133514404,33300
2018-01-31,5.139999866485596,5.519999980926514,5.139999866485596,5.369999885559082,5.369999885559082,66900
2018-02-01,5.300000190734863,6.289999961853027,5.300000190734863,6.0,6.0,155800
2018-02-02,6.010000228881836,6.289999961853027,5.864999771118164,6.110000133514404,6.110000133514404,36700
2018-02-05,6.190000057220459,6.835000038146973,6.179999828338623,6.75,6.75,64800
2018-02-06,6.329999923706055,6.829999923706055,6.119999885559082,6.829999923706055,6.829999923706055,45400
2018-02-07,6.78000020980835,6.920000076293945,6.610000133514404,6.78000020980835,6.78000020980835,8600
2018-02-08,6.78000020980835,6.78000020980835,6.329999923706055,6.440000057220459,6.440000057220459,14700
2018-02-09,6.449999809265137,6.927000045776367,6.447000026702881,6.5,6.5,51500
2018-02-12,6.449999809265137,6.579999923706055,6.449999809265137,6.579999923706055,6.579999923706055,4900
2018-02-13,6.815999984741211,6.815999984741211,6.420000076293945,6.519999980926514,6.519999980926514,17300
2018-02-14,6.53000020980835,6.599999904632568,6.199999809265137,6.239999771118164,6.239999771118164,23200
2018-02-15,6.230000019073486,6.650000095367432,6.230000019073486,6.409999847412109,6.409999847412109,59200
2018-02-16,6.599999904632568,6.599999904632568,6.400000095367432,6.480000019073486,6.480000019073486,24400
2018-02-20,6.513999938964844,6.6539998054504395,6.513999938964844,6.559999942779541,6.559999942779541,2700
2018-02-21,6.650000095367432,7.440000057220459,6.599999904632568,6.849999904632568,6.849999904632568,35500
2018-02-22,7.0,7.159999847412109,6.965000152587891,7.010000228881836,7.010000228881836,8200
2018-02-23,7.210000038146973,7.380000114440918,7.0,7.159999847412109,7.159999847412109,36200
2018-02-26,7.25,7.324999809265137,6.96999979019165,6.989999771118164,6.989999771118164,15400
2018-02-27,7.039999961853027,7.090000152587891,6.989999771118164,7.090000152587891,7.090000152587891,36600
2018-02-28,7.0,7.050000190734863,6.71999979019165,6.800000190734863,6.800000190734863,27800
2018-03-01,6.710000038146973,6.97599983215332,6.590000152587891,6.71999979019165,6.71999979019165,4400
2018-03-02,6.760000228881836,7.239999771118164,6.630000114440918,7.239999771118164,7.239999771118164,36200
2018-03-05,8.0,8.4399995803833,7.500999927520752,7.855000019073486,7.855000019073486,165900
2018-03-06,8.039999961853027,13.1899995803833,7.960000038146973,11.0,11.0,1210100
2018-03-07,11.199999809265137,12.729000091552734,10.470000267028809,11.989999771118164,11.989999771118164,293300
2018-03-08,12.109999656677246,13.739999771118164,12.109999656677246,13.460000038146973,13.460000038146973,250400
2018-03-09,13.699999809265137,13.699999809265137,12.670000076293945,13.130000114440918,13.130000114440918,160400
2018-03-12,13.039999961853027,14.49899959564209,13.034000396728516,13.699999809265137,13.699999809265137,103800
2018-03-13,13.65999984741211,14.59000015258789,13.600000381469727,14.239999771118164,14.239999771118164,50500
2018-03-14,14.479999542236328,15.595000267028809,14.479999542236328,14.9399995803833,14.9399995803833,76400
2018-03-15,15.0,15.513999938964844,13.01099967956543,14.029999732971191,14.029999732971191,71000
2018-03-16,14.239999771118164,14.390000343322754,12.0,12.4399995803833,12.4399995803833,206000
2018-03-19,12.399999618530273,12.597999572753906,10.5,11.430000305175781,11.430000305175781,271800
2018-03-20,11.510000228881836,13.569000244140625,11.16100025177002,13.170000076293945,13.170000076293945,70300
2018-03-21,13.220000267028809,13.600000381469727,11.720000267028809,12.25,12.25,41500
2018-03-22,12.149999618530273,12.569999694824219,11.869999885559082,12.5,12.5,32100
2018-03-23,13.050000190734863,13.329999923706055,12.539999961853027,12.90999984741211,12.90999984741211,73500
2018-03-26,13.100000381469727,13.100000381469727,12.5,12.779999732971191,12.779999732971191,38200
2018-03-27,12.729999542236328,13.039999961853027,12.090999603271484,12.890000343322754,12.890000343322754,35800
2018-03-28,12.8100004196167,12.8100004196167,12.25,12.380000114440918,12.380000114440918,26000
2018-03-29,12.25,12.40999984741211,12.0,12.300000190734863,12.300000190734863,15600
2018-04-02,12.1899995803833,12.739999771118164,12.1899995803833,12.3100004196167,12.3100004196167,35300
2018-04-03,12.550000190734863,12.550000190734863,12.140000343322754,12.3100004196167,12.3100004196167,18600
2018-04-04,12.130000114440918,12.829999923706055,11.800000190734863,12.300000190734863,12.300000190734863,32800
2018-04-05,12.5,12.5,11.800000190734863,12.0,12.0,40700
2018-04-06,11.869999885559082,11.979999542236328,11.800000190734863,11.800000190734863,11.800000190734863,11800
2018-04-09,11.920000076293945,12.199999809265137,11.901000022888184,12.0,12.0,18100
2018-04-10,12.0,12.710000038146973,12.0,12.510000228881836,12.510000228881836,40300
2018-04-11,12.619999885559082,12.739999771118164,12.199999809265137,12.739999771118164,12.739999771118164,43000
2018-04-12,12.739999771118164,14.0,12.739999771118164,13.899999618530273,13.899999618530273,67600
2018-04-13,13.989999771118164,14.380000114440918,13.300000190734863,13.59000015258789,13.59000015258789,36000
2018-04-16,13.829999923706055,14.180000305175781,12.4399995803833,12.699999809265137,12.699999809265137,49400
2018-04-17,12.819999694824219,12.850000381469727,12.15999984741211,12.3100004196167,12.3100004196167,35200
2018-04-18,12.260000228881836,12.479999542236328,12.010000228881836,12.039999961853027,12.039999961853027,35100
2018-04-19,12.1899995803833,12.300000190734863,11.670000076293945,11.989999771118164,11.989999771118164,59900
2018-04-20,11.850000381469727,12.210000038146973,11.770000457763672,11.84000015258789,11.84000015258789,23200
2018-04-23,11.876999855041504,11.876999855041504,11.329999923706055,11.399999618530273,11.399999618530273,33700
2018-04-24,11.289999961853027,11.350000381469727,10.232000350952148,10.510000228881836,10.510000228881836,69000
2018-04-25,10.520000457763672,10.770000457763672,10.399999618530273,10.609999656677246,10.609999656677246,24900
2018-04-26,10.699999809265137,10.880000114440918,10.270000457763672,10.270000457763672,10.270000457763672,14600
2018-04-27,10.3100004196167,10.3100004196167,10.010000228881836,10.09000015258789,10.09000015258789,36400
2018-04-30,10.09000015258789,10.319999694824219,10.09000015258789,10.100000381469727,10.100000381469727,9400
2018-05-01,10.100000381469727,10.369999885559082,10.100000381469727,10.119999885559082,10.119999885559082,7600
2018-05-02,10.095000267028809,10.40999984741211,10.050000190734863,10.15999984741211,10.15999984741211,6600
2018-05-03,10.239999771118164,10.40999984741211,10.180000305175781,10.300000190734863,10.300000190734863,24100
2018-05-04,10.489999771118164,10.84000015258789,10.300000190734863,10.8100004196167,10.8100004196167,24500
2018-05-07,10.869999885559082,12.789999961853027,10.869999885559082,12.510000228881836,12.510000228881836,36300
2018-05-08,12.079999923706055,12.079999923706055,10.579999923706055,11.539999961853027,11.539999961853027,78400
2018-05-09,11.380000114440918,11.930000305175781,11.380000114440918,11.75,11.75,26900
2018-05-10,11.970000267028809,12.109999656677246,11.649999618530273,12.039999961853027,12.039999961853027,89400
2018-05-11,12.079999923706055,12.15999984741211,11.5600004196167,12.09000015258789,12.09000015258789,42500
2018-05-14,12.069999694824219,12.069999694824219,11.515000343322754,11.890000343322754,11.890000343322754,20000
2018-05-15,11.779999732971191,12.069999694824219,11.65999984741211,11.890000343322754,11.890000343322754,29600
2018-05-16,11.819999694824219,12.0,11.630000114440918,11.75,11.75,16100
2018-05-17,11.84000015258789,11.84000015258789,11.359999656677246,11.399999618530273,11.399999618530273,37000
2018-05-18,11.359999656677246,11.392999649047852,11.140000343322754,11.3100004196167,11.3100004196167,23000
2018-05-21,11.399999618530273,11.475000381469727,11.180000305175781,11.229999542236328,11.229999542236328,12300
2018-05-22,11.210000038146973,11.489999771118164,11.140000343322754,11.25,11.25,64000
2018-05-23,11.1899995803833,11.199999809265137,11.0,11.020000457763672,11.020000457763672,12700
2018-05-24,11.069999694824219,11.979999542236328,11.0,11.720000267028809,11.720000267028809,67800
2018-05-25,11.600000381469727,11.600000381469727,11.199999809265137,11.229999542236328,11.229999542236328,25300
2018-05-29,11.260000228881836,11.640000343322754,11.229999542236328,11.539999961853027,11.539999961853027,58200
2018-05-30,11.581999778747559,12.800000190734863,11.581999778747559,12.529999732971191,12.529999732971191,169800
2018-05-31,12.279999732971191,13.010000228881836,12.279999732971191,12.710000038146973,12.710000038146973,112800
2018-06-01,12.649999618530273,14.979999542236328,12.538000106811523,14.0600004196167,14.0600004196167,301700
2018-06-04,14.100000381469727,14.229999542236328,12.779999732971191,13.479999542236328,13.479999542236328,103900
2018-06-05,13.399999618530273,13.59000015258789,12.510000228881836,12.59000015258789,12.59000015258789,53200
2018-06-06,12.680000305175781,12.72599983215332,12.460000038146973,12.630000114440918,12.630000114440918,23700
2018-06-07,12.609999656677246,12.609999656677246,12.079999923706055,12.220000267028809,12.220000267028809,31200
2018-06-08,12.279999732971191,12.416999816894531,12.0,12.069999694824219,12.069999694824219,43500
2018-06-11,12.0,12.770000457763672,11.899999618530273,12.760000228881836,12.760000228881836,91800
2018-06-12,12.859999656677246,13.609999656677246,12.859999656677246,13.4399995803833,13.4399995803833,91100
2018-06-13,13.479999542236328,14.0,13.180000305175781,13.359999656677246,13.359999656677246,99300
2018-06-14,13.489999771118164,13.800000190734863,13.260000228881836,13.40999984741211,13.40999984741211,93600
2018-06-15,13.359999656677246,13.989999771118164,13.149999618530273,13.979999542236328,13.979999542236328,161700
2018-06-18,13.989999771118164,14.800000190734863,13.420000076293945,13.579999923706055,13.579999923706055,168000
2018-06-19,13.390000343322754,13.84000015258789,12.630000114440918,12.710000038146973,12.710000038146973,145500
2018-06-20,12.829999923706055,13.260000228881836,12.5600004196167,12.960000038146973,12.960000038146973,82500
2018-06-21,13.0,13.0,11.539999961853027,11.9399995803833,11.9399995803833,158200
2018-06-22,11.9399995803833,12.720000267028809,11.800999641418457,12.539999961853027,12.539999961853027,915900
2018-06-25,12.430000305175781,12.710000038146973,11.829999923706055,11.960000038146973,11.960000038146973,100700
2018-06-26,12.039999961853027,12.234999656677246,11.680000305175781,11.930000305175781,11.930000305175781,115100
2018-06-27,11.989999771118164,12.04699993133545,11.010000228881836,11.050000190734863,11.050000190734863,107600
2018-06-28,11.029999732971191,11.319999694824219,10.819999694824219,10.890000343322754,10.890000343322754,54600
2018-06-29,11.0,11.09000015258789,10.475000381469727,10.779999732971191,10.779999732971191,71800
2018-07-02,10.779999732971191,10.8100004196167,9.829999923706055,10.020000457763672,10.020000457763672,99500
2018-07-03,10.069999694824219,11.010000228881836,9.934000015258789,10.989999771118164,10.989999771118164,43400
2018-07-05,10.979999542236328,11.220000267028809,10.5,10.619999885559082,10.619999885559082,100200
2018-07-06,10.65999984741211,11.079999923706055,10.65999984741211,10.850000381469727,10.850000381469727,44300
2018-07-09,10.829999923706055,11.369999885559082,10.66100025177002,11.260000228881836,11.260000228881836,35600
2018-07-10,11.319999694824219,11.5,11.130000114440918,11.380000114440918,11.380000114440918,30200
2018-07-11,11.260000228881836,11.489999771118164,10.800000190734863,10.890000343322754,10.890000343322754,73600
2018-07-12,10.979999542236328,12.489999771118164,10.899999618530273,12.4399995803833,12.4399995803833,190700
2018-07-13,12.5,12.90999984741211,12.260000228881836,12.630000114440918,12.630000114440918,111800
2018-07-16,12.6899995803833,13.149999618530273,12.09000015258789,12.34000015258789,12.34000015258789,130200
2018-07-17,12.329999923706055,12.760000228881836,12.25,12.420000076293945,12.420000076293945,46800
2018-07-18,12.420000076293945,12.789999961853027,12.220000267028809,12.359999656677246,12.359999656677246,29500
2018-07-19,12.380000114440918,12.479999542236328,12.083999633789062,12.449999809265137,12.449999809265137,19400
2018-07-20,12.40999984741211,12.850000381469727,12.295999526977539,12.680000305175781,12.680000305175781,33500
2018-07-23,12.8100004196167,13.920000076293945,12.479999542236328,13.430000305175781,13.430000305175781,160200
2018-07-24,13.619999885559082,13.800000190734863,13.220000267028809,13.619999885559082,13.619999885559082,50000
2018-07-25,13.600000381469727,13.659000396728516,13.050000190734863,13.470000267028809,13.470000267028809,26400
2018-07-26,13.5,13.779999732971191,13.402999877929688,13.65999984741211,13.65999984741211,39400
2018-07-27,13.699999809265137,13.699999809265137,13.0600004196167,13.239999771118164,13.239999771118164,55700
2018-07-30,13.300000190734863,13.399999618530273,12.699999809265137,12.779999732971191,12.779999732971191,35000
2018-07-31,12.920000076293945,13.5,12.880000114440918,12.960000038146973,12.960000038146973,50700
2018-08-01,13.050000190734863,13.850000381469727,12.800000190734863,13.850000381469727,13.850000381469727,78700
2018-08-02,13.9399995803833,14.399999618530273,13.550000190734863,14.289999961853027,14.289999961853027,109100
2018-08-03,13.9399995803833,14.800000190734863,13.9399995803833,14.739999771118164,14.739999771118164,112900
2018-08-06,14.800000190734863,14.829999923706055,14.449999809265137,14.670000076293945,14.670000076293945,74000
2018-08-07,15.0,15.010000228881836,13.579999923706055,13.739999771118164,13.739999771118164,255400
2018-08-08,14.149999618530273,14.640000343322754,13.756999969482422,14.539999961853027,14.539999961853027,81400
2018-08-09,14.680000305175781,14.829999923706055,14.270000457763672,14.630000114440918,14.630000114440918,103200
2018-08-10,14.550000190734863,14.800000190734863,14.029999732971191,14.75,14.75,54800
2018-08-13,14.699999809265137,14.899999618530273,13.520000457763672,13.75,13.75,119500
2018-08-14,13.729999542236328,13.890000343322754,12.90999984741211,13.359999656677246,13.359999656677246,52200
2018-08-15,13.100000381469727,13.244000434875488,12.1850004196167,12.819999694824219,12.819999694824219,73900
2018-08-16,12.760000228881836,13.34000015258789,12.350000381469727,12.970000267028809,12.970000267028809,30500
2018-08-17,12.970000267028809,13.079999923706055,12.6899995803833,12.75,12.75,18200
2018-08-20,12.781000137329102,13.0,12.520000457763672,12.84000015258789,12.84000015258789,28100
2018-08-21,12.960000038146973,13.5,12.960000038146973,13.5,13.5,46100
2018-08-22,13.539999961853027,13.567999839782715,13.0600004196167,13.09000015258789,13.09000015258789,30200
2018-08-23,13.029999732971191,13.25,12.899999618530273,13.119999885559082,13.119999885559082,18900
2018-08-24,13.119999885559082,13.5,13.119999885559082,13.5,13.5,28600
2018-08-27,13.670000076293945,13.819999694824219,13.5600004196167,13.75,13.75,39000
2018-08-28,13.869999885559082,14.128000259399414,13.600000381469727,13.960000038146973,13.960000038146973,103500
2018-08-29,14.029999732971191,14.359999656677246,13.572999954223633,13.84000015258789,13.84000015258789,89100
2018-08-30,13.84000015258789,14.09000015258789,13.829999923706055,14.010000228881836,14.010000228881836,16900
2018-08-31,14.029999732971191,14.199999809265137,14.029999732971191,14.109999656677246,14.109999656677246,32200
2018-09-04,14.100000381469727,14.100000381469727,13.520000457763672,13.670000076293945,13.670000076293945,28600
2018-09-05,13.600000381469727,13.829999923706055,13.199999809265137,13.640000343322754,13.640000343322754,35200
2018-09-06,13.630000114440918,13.710000038146973,13.130000114440918,13.300000190734863,13.300000190734863,16200
2018-09-07,13.25,13.600000381469727,13.0,13.470000267028809,13.470000267028809,16000
2018-09-10,13.569999694824219,13.569999694824219,12.6899995803833,12.739999771118164,12.739999771118164,48600
2018-09-11,12.699999809265137,12.710000038146973,12.279999732971191,12.510000228881836,12.510000228881836,29300
2018-09-12,12.399999618530273,12.5,11.050000190734863,11.350000381469727,11.350000381469727,105100
2018-09-13,11.539999961853027,12.4399995803833,11.539999961853027,12.135000228881836,12.135000228881836,24900
2018-09-14,12.069999694824219,12.390000343322754,11.40999984741211,11.6899995803833,11.6899995803833,32300
2018-09-17,11.680000305175781,12.239999771118164,11.680000305175781,12.020000457763672,12.020000457763672,20000
2018-09-18,12.010000228881836,12.359999656677246,11.859999656677246,11.890000343322754,11.890000343322754,26900
2018-09-19,11.850000381469727,11.920000076293945,11.479999542236328,11.710000038146973,11.710000038146973,25700
2018-09-20,12.00100040435791,12.420000076293945,12.0,12.260000228881836,12.260000228881836,14400
2018-09-21,12.25,12.350000381469727,11.880000114440918,11.90999984741211,11.90999984741211,33700
2018-09-24,11.850000381469727,11.850000381469727,11.5600004196167,11.640000343322754,11.640000343322754,11100
2018-09-25,11.6899995803833,11.979999542236328,11.20300006866455,11.289999961853027,11.289999961853027,31000
2018-09-26,11.319999694824219,11.399999618530273,11.069999694824219,11.09000015258789,11.09000015258789,27000
2018-09-27,11.050000190734863,11.239999771118164,10.770000457763672,10.850000381469727,10.850000381469727,36900
2018-09-28,11.109999656677246,11.175000190734863,10.836000442504883,11.069999694824219,11.069999694824219,31100
2018-10-01,11.1899995803833,11.550000190734863,11.100000381469727,11.319999694824219,11.319999694824219,22200
2018-10-02,11.300000190734863,11.59000015258789,11.010000228881836,11.029999732971191,11.029999732971191,15300
2018-10-03,11.0,11.199999809265137,11.0,11.170000076293945,11.170000076293945,20900
2018-10-04,11.09000015258789,11.199999809265137,10.850000381469727,10.930000305175781,10.930000305175781,14600
2018-10-05,10.920000076293945,10.920000076293945,10.229999542236328,10.350000381469727,10.350000381469727,87200
2018-10-08,10.289999961853027,10.880000114440918,10.289999961853027,10.710000038146973,10.710000038146973,17700
2018-10-09,10.680000305175781,11.199999809265137,10.680000305175781,11.100000381469727,11.100000381469727,20100
2018-10-10,11.09000015258789,11.09000015258789,10.25,10.3100004196167,10.3100004196167,30900
2018-10-11,10.199999809265137,10.5,9.859999656677246,9.960000038146973,9.960000038146973,77600
2018-10-12,10.25,10.390000343322754,10.128000259399414,10.270000457763672,10.270000457763672,27100
2018-10-15,10.390000343322754,10.699999809265137,10.369999885559082,10.6899995803833,10.6899995803833,22000
2018-10-16,10.619999885559082,10.850000381469727,10.279999732971191,10.350000381469727,10.350000381469727,25800
2018-10-17,10.359999656677246,10.425000190734863,10.100000381469727,10.279999732971191,10.279999732971191,6300
2018-10-18,10.670000076293945,10.670000076293945,9.9399995803833,10.069999694824219,10.069999694824219,50700
2018-10-19,10.0600004196167,10.449999809265137,10.0600004196167,10.239999771118164,10.239999771118164,20400
2018-10-22,9.989999771118164,10.140000343322754,9.989999771118164,10.069999694824219,10.069999694824219,15000
2018-10-23,9.829999923706055,10.039999961853027,9.649999618530273,9.819999694824219,9.819999694824219,53700
2018-10-24,9.829999923706055,9.859999656677246,9.609999656677246,9.609999656677246,9.609999656677246,20200
2018-10-25,9.680000305175781,9.84000015258789,9.510000228881836,9.649999618530273,9.649999618530273,30700
2018-10-26,9.5,9.630000114440918,9.289999961853027,9.449999809265137,9.449999809265137,24900
2018-10-29,9.539999961853027,9.960000038146973,9.319999694824219,9.470000267028809,9.470000267028809,19500
2018-10-30,9.3100004196167,9.569999694824219,9.289999961853027,9.470000267028809,9.470000267028809,21500
2018-10-31,9.59000015258789,9.739999771118164,9.5,9.550000190734863,9.550000190734863,17400
2018-11-01,9.59000015258789,10.0,9.550000190734863,10.0,10.0,7900
2018-11-02,10.0,10.180000305175781,9.899999618530273,10.020000457763672,10.020000457763672,26300
2018-11-05,10.029999732971191,10.100000381469727,9.800000190734863,9.989999771118164,9.989999771118164,12600
2018-11-06,10.0,10.119999885559082,9.9399995803833,10.0,10.0,8700
2018-11-07,10.010000228881836,10.300000190734863,9.949999809265137,10.300000190734863,10.300000190734863,36000
2018-11-08,10.300000190734863,12.0,10.300000190734863,12.0,12.0,153400
2018-11-09,11.800000190734863,11.800000190734863,11.449999809265137,11.729999542236328,11.729999542236328,32800
2018-11-12,11.800000190734863,11.800000190734863,11.279999732971191,11.300000190734863,11.300000190734863,30600
2018-11-13,11.34000015258789,11.600000381469727,11.1899995803833,11.460000038146973,11.460000038146973,28500
2018-11-14,11.729999542236328,11.729999542236328,11.199999809265137,11.350000381469727,11.350000381469727,20300
2018-11-15,11.199999809265137,11.720000267028809,10.65999984741211,11.520000457763672,11.520000457763672,17400
2018-11-16,11.430000305175781,11.449999809265137,10.871000289916992,11.229999542236328,11.229999542236328,31000
2018-11-19,11.300000190734863,11.300000190734863,10.829999923706055,10.9399995803833,10.9399995803833,15800
2018-11-20,10.819999694824219,10.890000343322754,9.699999809265137,10.4399995803833,10.4399995803833,26200
2018-11-21,10.479999542236328,11.09000015258789,10.479999542236328,10.989999771118164,10.989999771118164,17100
2018-11-23,10.670000076293945,11.069999694824219,10.59000015258789,10.850000381469727,10.850000381469727,9300
2018-11-26,11.029999732971191,11.25,10.880999565124512,11.119999885559082,11.119999885559082,13000
2018-11-27,11.069999694824219,11.069999694824219,10.420000076293945,10.760000228881836,10.760000228881836,22300
2018-11-28,10.770000457763672,11.260000228881836,10.550000190734863,11.029999732971191,11.029999732971191,39400
2018-11-29,11.020000457763672,11.109999656677246,10.800000190734863,11.0,11.0,13500
2018-11-30,11.010000228881836,11.300000190734863,10.890000343322754,11.149999618530273,11.149999618530273,21000
2018-12-03,11.40999984741211,11.449999809265137,10.90999984741211,11.03499984741211,11.03499984741211,11900
2018-12-04,11.029999732971191,11.100000381469727,10.319999694824219,10.470000267028809,10.470000267028809,29200
2018-12-06,10.470000267028809,10.779999732971191,10.100000381469727,10.779999732971191,10.779999732971191,15800
2018-12-07,10.670000076293945,10.989999771118164,10.130000114440918,10.470000267028809,10.470000267028809,25500
2018-12-10,10.520000457763672,10.65999984741211,10.289999961853027,10.380000114440918,10.380000114440918,12100
2018-12-11,10.369999885559082,10.739999771118164,10.369999885559082,10.640000343322754,10.640000343322754,1300
2018-12-12,10.960000038146973,10.960000038146973,10.699999809265137,10.779999732971191,10.779999732971191,12400
2018-12-13,10.949999809265137,10.949999809265137,10.380000114440918,10.619999885559082,10.619999885559082,7800
2018-12-14,10.859999656677246,10.859999656677246,10.40999984741211,10.40999984741211,10.40999984741211,3600
2018-12-17,10.390000343322754,10.720000267028809,10.0600004196167,10.270000457763672,10.270000457763672,29300
2018-12-18,10.3100004196167,10.550000190734863,10.220000267028809,10.220000267028809,10.220000267028809,12200
2018-12-19,10.390000343322754,10.550000190734863,10.109999656677246,10.149999618530273,10.149999618530273,17500
2018-12-20,10.329999923706055,10.5,10.039999961853027,10.260000228881836,10.260000228881836,28100
2018-12-21,10.25,10.300000190734863,10.109999656677246,10.260000228881836,10.260000228881836,46800
2018-12-24,10.100000381469727,10.489999771118164,10.0600004196167,10.0600004196167,10.0600004196167,14800
2018-12-26,10.319999694824219,10.5,10.039999961853027,10.420000076293945,10.420000076293945,27500
2018-12-27,10.359999656677246,10.5,10.100000381469727,10.460000038146973,10.460000038146973,32800
2018-12-28,10.5,10.5,10.210000038146973,10.470000267028809,10.470000267028809,28100
2018-12-31,10.550000190734863,10.979999542236328,10.270000457763672,10.880000114440918,10.880000114440918,19800
2019-01-02,10.770000457763672,10.989999771118164,10.619999885559082,10.869999885559082,10.869999885559082,26300
2019-01-03,10.800000190734863,10.800000190734863,10.310999870300293,10.369999885559082,10.369999885559082,21300
2019-01-04,10.371999740600586,10.800000190734863,10.357000350952148,10.699999809265137,10.699999809265137,22700
2019-01-07,10.517000198364258,10.859999656677246,9.991999626159668,10.75,10.75,27200
2019-01-08,10.800000190734863,10.800000190734863,10.430000305175781,10.729999542236328,10.729999542236328,12400
2019-01-09,10.718999862670898,10.739999771118164,10.399999618530273,10.579999923706055,10.579999923706055,17200
2019-01-10,10.550000190734863,10.600000381469727,10.359999656677246,10.5,10.5,7300
2019-01-11,10.449999809265137,10.510000228881836,10.300000190734863,10.510000228881836,10.510000228881836,9400
2019-01-14,10.354999542236328,10.460000038146973,10.180000305175781,10.260000228881836,10.260000228881836,11000
2019-01-15,10.380000114440918,10.430000305175781,10.220000267028809,10.430000305175781,10.430000305175781,4500
2019-01-16,10.5,10.5,10.24899959564209,10.449999809265137,10.449999809265137,10700
2019-01-17,10.25,10.390000343322754,10.020000457763672,10.279999732971191,10.279999732971191,13000
2019-01-18,10.289999961853027,10.336999893188477,9.579999923706055,9.770000457763672,9.770000457763672,28700
2019-01-22,9.770000457763672,9.890000343322754,9.34000015258789,9.350000381469727,9.350000381469727,33100
2019-01-23,9.5,9.699999809265137,9.220000267028809,9.270000457763672,9.270000457763672,28800
2019-01-24,9.260000228881836,9.75,9.260000228881836,9.75,9.75,26500
2019-01-25,9.869999885559082,10.119999885559082,9.800000190734863,10.020000457763672,10.020000457763672,23900
2019-01-28,9.770000457763672,10.039999961853027,9.600000381469727,9.720000267028809,9.720000267028809,17900
2019-01-29,9.800000190734863,9.800000190734863,9.5,9.609999656677246,9.609999656677246,9100
2019-01-30,9.569999694824219,9.576000213623047,9.329000473022461,9.489999771118164,9.489999771118164,18900
2019-01-31,9.359999656677246,9.5600004196167,9.279999732971191,9.3100004196167,9.3100004196167,45600
2019-02-01,9.3100004196167,9.489999771118164,9.210000038146973,9.289999961853027,9.289999961853027,28000
2019-02-04,9.34000015258789,9.420000076293945,9.220000267028809,9.319999694824219,9.319999694824219,21900
2019-02-05,9.319999694824219,9.489999771118164,9.25,9.420000076293945,9.420000076293945,17900
2019-02-06,9.329999923706055,9.427000045776367,9.3100004196167,9.390000343322754,9.390000343322754,11500
2019-02-07,9.350000381469727,9.449999809265137,9.220000267028809,9.260000228881836,9.260000228881836,23000
2019-02-08,9.277999877929688,9.380000114440918,9.277999877929688,9.3100004196167,9.3100004196167,23700
2019-02-11,9.34000015258789,9.489999771118164,9.3100004196167,9.319999694824219,9.319999694824219,31300
2019-02-12,9.350000381469727,9.489999771118164,9.020000457763672,9.479999542236328,9.479999542236328,45100
2019-02-13,9.350000381469727,9.710000038146973,9.15999984741211,9.34000015258789,9.34000015258789,40200
2019-02-14,9.350000381469727,9.699999809265137,9.199999809265137,9.430000305175781,9.430000305175781,71800
2019-02-15,9.399999618530273,9.5600004196167,9.3100004196167,9.5,9.5,33700
2019-02-19,9.5,9.975000381469727,9.449999809265137,9.970000267028809,9.970000267028809,79000
2019-02-20,9.989999771118164,11.723999977111816,9.989999771118164,11.5,11.5,191800
2019-02-21,11.390000343322754,11.390000343322754,10.75,11.140000343322754,11.140000343322754,58100
2019-02-22,11.199999809265137,11.65999984741211,11.140000343322754,11.59000015258789,11.59000015258789,127100
2019-02-25,11.600000381469727,11.949999809265137,11.600000381469727,11.75,11.75,67300
2019-02-26,11.539999961853027,11.720000267028809,11.430000305175781,11.449999809265137,11.449999809265137,9300
2019-02-27,11.479999542236328,11.510000228881836,11.140000343322754,11.380000114440918,11.380000114440918,11400
2019-02-28,11.390000343322754,11.5,11.26200008392334,11.350000381469727,11.350000381469727,20800
2019-03-01,11.5,11.640000343322754,11.427000045776367,11.600000381469727,11.600000381469727,13400
2019-03-04,11.600000381469727,12.479999542236328,11.600000381469727,12.430000305175781,12.430000305175781,103700
2019-03-05,12.420000076293945,13.359999656677246,12.420000076293945,13.350000381469727,13.350000381469727,154200
2019-03-06,13.350000381469727,13.350000381469727,12.489999771118164,12.680000305175781,12.680000305175781,124500
2019-03-07,12.949999809265137,12.949999809265137,10.649999618530273,11.09000015258789,11.09000015258789,199100
2019-03-08,10.90999984741211,11.989999771118164,10.90999984741211,11.649999618530273,11.649999618530273,50900
2019-03-11,11.760000228881836,12.0,11.539999961853027,11.859999656677246,11.859999656677246,51800
2019-03-12,11.979999542236328,11.979999542236328,11.6850004196167,11.890000343322754,11.890000343322754,50900
2019-03-13,11.880000114440918,12.890000343322754,11.869999885559082,12.65999984741211,12.65999984741211,100600
2019-03-14,12.770000457763672,14.0,12.75,13.800000190734863,13.800000190734863,340800
2019-03-15,13.84000015258789,13.880000114440918,13.239999771118164,13.649999618530273,13.649999618530273,151300
2019-03-18,13.630000114440918,14.899999618530273,13.520000457763672,14.869999885559082,14.869999885559082,405600
2019-03-19,14.880000114440918,17.5,14.819999694824219,15.949999809265137,15.949999809265137,719000
2019-03-20,15.680000305175781,16.389999389648438,14.50100040435791,15.930000305175781,15.930000305175781,307600
2019-03-21,15.90999984741211,16.68000030517578,15.899999618530273,16.440000534057617,16.440000534057617,108900
2019-03-22,16.260000228881836,16.31999969482422,14.279999732971191,14.479999542236328,14.479999542236328,159100
2019-03-25,14.930000305175781,15.5,14.470000267028809,15.15999984741211,15.15999984741211,110100
2019-03-26,15.039999961853027,16.0,15.039999961853027,15.800000190734863,15.800000190734863,161100
2019-03-27,15.75,15.871000289916992,14.859999656677246,15.079999923706055,15.079999923706055,75500
2019-03-28,15.079999923706055,15.270000457763672,14.600000381469727,15.149999618530273,15.149999618530273,55900
2019-03-29,15.380000114440918,15.579999923706055,14.75,15.430000305175781,15.430000305175781,69400
2019-04-01,15.460000038146973,15.729999542236328,15.020000457763672,15.460000038146973,15.460000038146973,97100
2019-04-02,15.470000267028809,15.640000343322754,15.192000389099121,15.279999732971191,15.279999732971191,49200
2019-04-03,15.489999771118164,15.949999809265137,15.390000343322754,15.6899995803833,15.6899995803833,82200
2019-04-04,15.84000015258789,16.0,15.279999732971191,15.84000015258789,15.84000015258789,72900
2019-04-05,15.9399995803833,16.0,15.630000114440918,15.800000190734863,15.800000190734863,52900
2019-04-08,15.789999961853027,15.789999961853027,15.369999885559082,15.539999961853027,15.539999961853027,33000
2019-04-09,15.529999732971191,15.720000267028809,15.079999923706055,15.149999618530273,15.149999618530273,38500
2019-04-10,15.329999923706055,15.609000205993652,14.920000076293945,15.350000381469727,15.350000381469727,81800
2019-04-11,15.350000381469727,15.430000305175781,15.300000190734863,15.390000343322754,15.390000343322754,18100
2019-04-12,15.619999885559082,16.110000610351562,15.197999954223633,15.5600004196167,15.5600004196167,93700
2019-04-15,15.609999656677246,15.609999656677246,15.199999809265137,15.4399995803833,15.4399995803833,24800
2019-04-16,15.579999923706055,16.65999984741211,15.5,16.399999618530273,16.399999618530273,220700
2019-04-17,16.65999984741211,17.84000015258789,16.405000686645508,17.510000228881836,17.510000228881836,327200
2019-04-18,17.690000534057617,18.479999542236328,17.049999237060547,18.3799991607666,18.3799991607666,215300
2019-04-22,18.579999923706055,19.399999618530273,15.609999656677246,16.360000610351562,16.360000610351562,353600
2019-04-23,16.31999969482422,17.3799991607666,16.209999084472656,16.809999465942383,16.809999465942383,126800
2019-04-24,16.860000610351562,17.444000244140625,16.600000381469727,16.75,16.75,55300
2019-04-25,16.739999771118164,16.81999969482422,15.800000190734863,15.989999771118164,15.989999771118164,106300
2019-04-26,16.06999969482422,16.389999389648438,15.989999771118164,16.270000457763672,16.270000457763672,51800
2019-04-29,16.260000228881836,17.299999237060547,15.8100004196167,17.200000762939453,17.200000762939453,89300
2019-04-30,17.399999618530273,17.639999389648438,17.01799964904785,17.229999542236328,17.229999542236328,73200
2019-05-01,17.290000915527344,17.540000915527344,17.104999542236328,17.389999389648438,17.389999389648438,42000
2019-05-02,17.229999542236328,18.260000228881836,17.049999237060547,17.950000762939453,17.950000762939453,87500
2019-05-03,17.950000762939453,18.5,17.81100082397461,18.299999237060547,18.299999237060547,59100
2019-05-06,18.1200008392334,18.5,16.94700050354004,18.31999969482422,18.31999969482422,154900
2019-05-07,18.270000457763672,19.280000686645508,18.260000228881836,18.75,18.75,112100
2019-05-08,19.200000762939453,19.5,18.0,18.420000076293945,18.420000076293945,159400
2019-05-09,18.799999237060547,18.888999938964844,17.190000534057617,18.510000228881836,18.510000228881836,116900
2019-05-10,18.479999542236328,19.200000762939453,18.479999542236328,19.020000457763672,19.020000457763672,77600
2019-05-13,18.969999313354492,19.079999923706055,18.170000076293945,18.719999313354492,18.719999313354492,132700
2019-05-14,18.920000076293945,20.0,18.75,19.84000015258789,19.84000015258789,166400
2019-05-15,19.610000610351562,21.8799991607666,19.399999618530273,21.350000381469727,21.350000381469727,209000
2019-05-16,21.5,21.75,18.72800064086914,18.940000534057617,18.940000534057617,203700
2019-05-17,18.65999984741211,19.649999618530273,18.65999984741211,19.239999771118164,19.239999771118164,91800
2019-05-20,18.950000762939453,18.950000762939453,17.65999984741211,17.729999542236328,17.729999542236328,126000
2019-05-21,17.979999542236328,18.459999084472656,17.780000686645508,18.239999771118164,18.239999771118164,85500
2019-05-22,17.969999313354492,18.149999618530273,16.579999923706055,17.479999542236328,17.479999542236328,109500
2019-05-23,17.280000686645508,17.790000915527344,16.549999237060547,17.639999389648438,17.639999389648438,130200
2019-05-24,17.649999618530273,18.389999389648438,17.520000457763672,18.09000015258789,18.09000015258789,34900
2019-05-28,18.290000915527344,19.079999923706055,18.1200008392334,18.65999984741211,18.65999984741211,68100
2019-05-29,18.6200008392334,19.420000076293945,18.59000015258789,19.010000228881836,19.010000228881836,56000
2019-05-30,19.1299991607666,19.540000915527344,18.610000610351562,18.950000762939453,18.950000762939453,64200
2019-05-31,18.670000076293945,19.420000076293945,18.56999969482422,19.260000228881836,19.260000228881836,58900
2019-06-03,19.299999237060547,19.650999069213867,18.290000915527344,18.459999084472656,18.459999084472656,117300
2019-06-04,18.59000015258789,18.81999969482422,17.75,18.700000762939453,18.700000762939453,129900
2019-06-05,18.850000381469727,19.0,17.57200050354004,18.149999618530273,18.149999618530273,112900
2019-06-06,18.139999389648438,18.760000228881836,17.530000686645508,18.559999465942383,18.559999465942383,99600
2019-06-07,18.6200008392334,18.8700008392334,18.25,18.459999084472656,18.459999084472656,62900
2019-06-10,18.56999969482422,18.899999618530273,18.010000228881836,18.899999618530273,18.899999618530273,85500
2019-06-11,18.989999771118164,19.174999237060547,17.719999313354492,18.290000915527344,18.290000915527344,131800
2019-06-12,18.15999984741211,18.3700008392334,17.83300018310547,18.209999084472656,18.209999084472656,76800
2019-06-13,18.209999084472656,18.3799991607666,17.0,17.489999771118164,17.489999771118164,131000
2019-06-14,17.459999084472656,17.65999984741211,17.010000228881836,17.239999771118164,17.239999771118164,92000
2019-06-17,17.200000762939453,17.200000762939453,16.510000228881836,16.729999542236328,16.729999542236328,163800
2019-06-18,18.200000762939453,18.6299991607666,17.3700008392334,17.729999542236328,17.729999542236328,209400
2019-06-19,17.700000762939453,17.700000762939453,16.729999542236328,17.479999542236328,17.479999542236328,132800
2019-06-20,17.56999969482422,17.65999984741211,16.8700008392334,16.93000030517578,16.93000030517578,92600
2019-06-21,16.81999969482422,16.81999969482422,15.90999984741211,16.190000534057617,16.190000534057617,149600
2019-06-24,16.190000534057617,16.56999969482422,15.930000305175781,16.270000457763672,16.270000457763672,89600
2019-06-25,16.1299991607666,16.139999389648438,15.345000267028809,15.4399995803833,15.4399995803833,121700
2019-06-26,15.65999984741211,15.899999618530273,15.25,15.640000343322754,15.640000343322754,93300
2019-06-27,15.710000038146973,15.949999809265137,15.270000457763672,15.4399995803833,15.4399995803833,150000
2019-06-28,15.550000190734863,16.149999618530273,15.359999656677246,15.609999656677246,15.609999656677246,1054300
2019-07-01,16.06999969482422,17.889999389648438,16.06999969482422,17.780000686645508,17.780000686645508,212900
2019-07-02,17.700000762939453,17.700000762939453,17.059999465942383,17.3700008392334,17.3700008392334,92900
2019-07-03,17.34000015258789,17.510000228881836,16.989999771118164,17.280000686645508,17.280000686645508,58000
2019-07-05,16.5,17.049999237060547,15.949999809265137,16.479999542236328,16.479999542236328,122000
2019-07-08,16.43000030517578,17.010000228881836,16.260000228881836,16.8799991607666,16.8799991607666,74600
2019-07-09,16.780000686645508,17.059999465942383,16.780000686645508,16.850000381469727,16.850000381469727,46500
2019-07-10,16.950000762939453,17.260000228881836,16.639999389648438,16.81999969482422,16.81999969482422,60500
2019-07-11,16.940000534057617,16.950000762939453,16.343000411987305,16.510000228881836,16.510000228881836,41200
2019-07-12,16.520000457763672,16.780000686645508,16.350000381469727,16.510000228881836,16.510000228881836,76200
2019-07-15,16.559999465942383,16.950000762939453,16.059999465942383,16.520000457763672,16.520000457763672,52900
2019-07-16,16.600000381469727,17.100000381469727,16.600000381469727,16.81999969482422,16.81999969482422,59700
2019-07-17,16.8700008392334,17.347999572753906,16.299999237060547,17.31999969482422,17.31999969482422,95800
2019-07-18,17.360000610351562,19.10099983215332,17.25,19.030000686645508,19.030000686645508,374200
2019-07-19,18.899999618530273,19.0,17.850000381469727,18.260000228881836,18.260000228881836,225300
2019-07-22,18.299999237060547,18.399999618530273,17.940000534057617,18.31999969482422,18.31999969482422,72800
2019-07-23,18.350000381469727,18.440000534057617,17.93000030517578,18.170000076293945,18.170000076293945,54800
2019-07-24,18.020000457763672,18.3700008392334,17.621999740600586,18.25,18.25,62200
2019-07-25,18.239999771118164,18.239999771118164,17.65999984741211,17.68000030517578,17.68000030517578,34700
2019-07-26,17.860000610351562,18.149999618530273,17.770000457763672,17.790000915527344,17.790000915527344,44200
2019-07-29,18.020000457763672,18.1200008392334,17.600000381469727,18.059999465942383,18.059999465942383,48200
2019-07-30,17.90999984741211,18.049999237060547,17.459999084472656,17.489999771118164,17.489999771118164,45400
2019-07-31,17.549999237060547,17.959999084472656,17.350000381469727,17.43000030517578,17.43000030517578,58300
2019-08-01,17.420000076293945,17.729999542236328,15.760000228881836,16.0,16.0,256800
2019-08-02,15.970000267028809,16.459999084472656,15.899999618530273,16.0,16.0,95400
2019-08-05,15.960000038146973,16.139999389648438,15.430000305175781,15.720000267028809,15.720000267028809,74400
2019-08-06,15.979999542236328,16.229999542236328,15.4399995803833,15.84000015258789,15.84000015258789,86600
2019-08-07,15.65999984741211,16.100000381469727,15.420000076293945,16.100000381469727,16.100000381469727,63000
2019-08-08,17.969999313354492,18.0,16.920000076293945,17.81999969482422,17.81999969482422,255300
2019-08-09,17.75,17.84000015258789,16.920000076293945,17.18000030517578,17.18000030517578,76400
2019-08-12,17.149999618530273,18.3700008392334,16.959999084472656,17.799999237060547,17.799999237060547,173200
2019-08-13,17.770000457763672,18.469999313354492,17.440000534057617,18.309999465942383,18.309999465942383,156400
2019-08-14,16.940000534057617,16.959999084472656,14.420000076293945,14.510000228881836,14.510000228881836,510700
2019-08-15,14.0,14.125,13.350000381469727,13.979999542236328,13.979999542236328,1110300
2019-08-16,14.0,14.300000190734863,13.84000015258789,13.979999542236328,13.979999542236328,423500
2019-08-19,14.449999809265137,14.529999732971191,13.899999618530273,14.0600004196167,14.0600004196167,265200
2019-08-20,14.050000190734863,14.699999809265137,13.899999618530273,14.229999542236328,14.229999542236328,201600
2019-08-21,14.319999694824219,14.569999694824219,14.010000228881836,14.25,14.25,108800
2019-08-22,14.930000305175781,14.930000305175781,14.210000038146973,14.729999542236328,14.729999542236328,153800
2019-08-23,14.510000228881836,14.949999809265137,13.899999618530273,14.09000015258789,14.09000015258789,179500
2019-08-26,14.289999961853027,14.289999961853027,13.640000343322754,13.9399995803833,13.9399995803833,155000
2019-08-27,13.949999809265137,14.069999694824219,13.75,13.859999656677246,13.859999656677246,127500
2019-08-28,13.899999618530273,14.130000114440918,13.75,13.90999984741211,13.90999984741211,75900
2019-08-29,14.09000015258789,14.4399995803833,14.015000343322754,14.260000228881836,14.260000228881836,97400
2019-08-30,14.289999961853027,14.390000343322754,14.130000114440918,14.300000190734863,14.300000190734863,47900
2019-09-03,14.199999809265137,14.989999771118164,14.100000381469727,14.710000038146973,14.710000038146973,149400
2019-09-04,14.920000076293945,15.9399995803833,14.61299991607666,15.699999809265137,15.699999809265137,309500
2019-09-05,15.899999618530273,16.399999618530273,15.0,15.0,15.0,206000
2019-09-06,15.050000190734863,15.140000343322754,14.300000190734863,14.34000015258789,14.34000015258789,226500
2019-09-09,14.6899995803833,14.777000427246094,14.164999961853027,14.329999923706055,14.329999923706055,138000
2019-09-10,14.1899995803833,14.720000267028809,14.09000015258789,14.579999923706055,14.579999923706055,94800
2019-09-11,14.640000343322754,14.949999809265137,14.109999656677246,14.3100004196167,14.3100004196167,190800
2019-09-12,14.350000381469727,14.53499984741211,14.149999618530273,14.270000457763672,14.270000457763672,54800
2019-09-13,14.279999732971191,15.199999809265137,14.270000457763672,14.699999809265137,14.699999809265137,110200
2019-09-16,14.449999809265137,14.850000381469727,14.449999809265137,14.649999618530273,14.649999618530273,76200
2019-09-17,14.5600004196167,14.732000350952148,14.154999732971191,14.539999961853027,14.539999961853027,73700
2019-09-18,14.529999732971191,14.869999885559082,14.260000228881836,14.680000305175781,14.680000305175781,56800
2019-09-19,14.770000457763672,14.979999542236328,14.199999809265137,14.260000228881836,14.260000228881836,71800
2019-09-20,14.3100004196167,14.682000160217285,14.069999694824219,14.390000343322754,14.390000343322754,91900
2019-09-23,14.489999771118164,15.199999809265137,14.456999778747559,14.859999656677246,14.859999656677246,90300
2019-09-24,14.850000381469727,15.428999900817871,14.100000381469727,14.1899995803833,14.1899995803833,128600
2019-09-25,14.319999694824219,14.579999923706055,14.0600004196167,14.579999923706055,14.579999923706055,43300
2019-09-26,14.555999755859375,14.555999755859375,14.09000015258789,14.100000381469727,14.100000381469727,30000
2019-09-27,14.100000381469727,14.25,13.420000076293945,13.770000457763672,13.770000457763672,160300
2019-09-30,13.6899995803833,13.90999984741211,13.45300006866455,13.859999656677246,13.859999656677246,61600
2019-10-01,13.90999984741211,14.140000343322754,13.4399995803833,13.529999732971191,13.529999732971191,77400
2019-10-02,13.420000076293945,13.920000076293945,13.350000381469727,13.819999694824219,13.819999694824219,62800
2019-10-03,13.8100004196167,14.229999542236328,13.798999786376953,13.949999809265137,13.949999809265137,37500
2019-10-04,13.930000305175781,14.260000228881836,13.555000305175781,13.899999618530273,13.899999618530273,52800
2019-10-07,13.729999542236328,13.989999771118164,13.420000076293945,13.489999771118164,13.489999771118164,64400
2019-10-08,13.420000076293945,13.420000076293945,12.699999809265137,13.109999656677246,13.109999656677246,100200
2019-10-09,13.170000076293945,13.630000114440918,13.09000015258789,13.350000381469727,13.350000381469727,69200
2019-10-10,13.390000343322754,13.649999618530273,13.050000190734863,13.239999771118164,13.239999771118164,43900
2019-10-11,13.4399995803833,13.619999885559082,13.229999542236328,13.229999542236328,13.229999542236328,42000
2019-10-14,13.239999771118164,13.550000190734863,12.649999618530273,12.8100004196167,12.8100004196167,79800
2019-10-15,12.880000114440918,13.40999984741211,12.880000114440918,13.1899995803833,13.1899995803833,47800
2019-10-16,13.098999977111816,13.140000343322754,12.640000343322754,12.84000015258789,12.84000015258789,54200
2019-10-17,13.0,13.244000434875488,12.960000038146973,13.239999771118164,13.239999771118164,27900
2019-10-18,13.119999885559082,13.239999771118164,12.630000114440918,12.65999984741211,12.65999984741211,46600
2019-10-21,12.800000190734863,13.25,12.65999984741211,13.149999618530273,13.149999618530273,45200
2019-10-22,13.239999771118164,13.418999671936035,12.899999618530273,13.119999885559082,13.119999885559082,31800
2019-10-23,13.029999732971191,13.329999923706055,12.760000228881836,12.8100004196167,12.8100004196167,77900
2019-10-24,12.880000114440918,14.109999656677246,12.859999656677246,13.5,13.5,131100
2019-10-25,13.649999618530273,13.779999732971191,13.300000190734863,13.399999618530273,13.399999618530273,99700
2019-10-28,13.4350004196167,13.779999732971191,13.279999732971191,13.550000190734863,13.550000190734863,128800
2019-10-29,13.510000228881836,13.600000381469727,12.930000305175781,12.970000267028809,12.970000267028809,91800
2019-10-30,13.050000190734863,13.069999694824219,12.850000381469727,13.0,13.0,85100
2019-10-31,12.970000267028809,13.0,12.510000228881836,12.59000015258789,12.59000015258789,68000
2019-11-01,12.609999656677246,12.960000038146973,12.609999656677246,12.829999923706055,12.829999923706055,71100
2019-11-04,12.90999984741211,13.694999694824219,12.899999618530273,13.640000343322754,13.640000343322754,114300
2019-11-05,13.630000114440918,14.4399995803833,13.449999809265137,14.260000228881836,14.260000228881836,110600
2019-11-06,14.289999961853027,14.899999618530273,14.289999961853027,14.399999618530273,14.399999618530273,191100
2019-11-07,15.600000381469727,15.880000114440918,14.680000305175781,15.649999618530273,15.649999618530273,299200
2019-11-08,15.649999618530273,15.75,14.100000381469727,14.420000076293945,14.420000076293945,155300
2019-11-11,14.390000343322754,14.489999771118164,13.4399995803833,14.390000343322754,14.390000343322754,174900
2019-11-12,14.369999885559082,15.0,14.329999923706055,14.949999809265137,14.949999809265137,118500
2019-11-13,14.960000038146973,15.010000228881836,14.036999702453613,14.520000457763672,14.520000457763672,90800
2019-11-14,14.510000228881836,15.0600004196167,14.3100004196167,14.359999656677246,14.359999656677246,110600
2019-11-15,14.470000267028809,14.699999809265137,14.140000343322754,14.420000076293945,14.420000076293945,75000
2019-11-18,14.3100004196167,14.40999984741211,14.020000457763672,14.149999618530273,14.149999618530273,75700
2019-11-19,14.15999984741211,14.430000305175781,13.899999618530273,13.979999542236328,13.979999542236328,80500
2019-11-20,13.869999885559082,14.8100004196167,13.819999694824219,14.630000114440918,14.630000114440918,254000
2019-11-21,14.539999961853027,14.800000190734863,14.210000038146973,14.300000190734863,14.300000190734863,133900
2019-11-22,14.329999923706055,14.449999809265137,13.84000015258789,13.869999885559082,13.869999885559082,128300
2019-11-25,14.119999885559082,14.529999732971191,14.050000190734863,14.3100004196167,14.3100004196167,95300
2019-11-26,14.319999694824219,14.399999618530273,14.020000457763672,14.100000381469727,14.100000381469727,55200
2019-11-27,14.079999923706055,14.149999618530273,13.569999694824219,13.789999961853027,13.789999961853027,186700
2019-11-29,13.869999885559082,13.989999771118164,13.5600004196167,13.8100004196167,13.8100004196167,85400
2019-12-02,14.0,14.109999656677246,13.760000228881836,13.90999984741211,13.90999984741211,79400
2019-12-03,13.600000381469727,14.0,13.579999923706055,13.989999771118164,13.989999771118164,87300
2019-12-04,14.039999961853027,14.260000228881836,13.920000076293945,14.109999656677246,14.109999656677246,82400
2019-12-05,14.170000076293945,14.779999732971191,14.112000465393066,14.670000076293945,14.670000076293945,92900
2019-12-06,14.6899995803833,15.579999923706055,14.6899995803833,15.420000076293945,15.420000076293945,154700
2019-12-09,15.529999732971191,15.529999732971191,14.479999542236328,14.670000076293945,14.670000076293945,74700
2019-12-10,14.75,15.239999771118164,14.75,15.079999923706055,15.079999923706055,52200
2019-12-11,15.140000343322754,16.0,15.140000343322754,15.729999542236328,15.729999542236328,126500
2019-12-12,15.770000457763672,15.899999618530273,15.699999809265137,15.899999618530273,15.899999618530273,45800
2019-12-13,15.90999984741211,16.950000762939453,15.760000228881836,16.889999389648438,16.889999389648438,152200
2019-12-16,17.059999465942383,18.25,16.920000076293945,18.190000534057617,18.190000534057617,252200
2019-12-17,18.670000076293945,19.09000015258789,18.243999481201172,18.690000534057617,18.690000534057617,197100
2019-12-18,18.790000915527344,18.920000076293945,18.239999771118164,18.43000030517578,18.43000030517578,141900
2019-12-19,18.40999984741211,18.632999420166016,18.100000381469727,18.270000457763672,18.270000457763672,157200
2019-12-20,18.299999237060547,18.6200008392334,18.299999237060547,18.469999313354492,18.469999313354492,99500
2019-12-23,18.549999237060547,19.75,18.309999465942383,19.6200008392334,19.6200008392334,265300
2019-12-24,19.690000534057617,19.790000915527344,19.25,19.329999923706055,19.329999923706055,150100
2019-12-26,19.360000610351562,19.59000015258789,18.75,19.010000228881836,19.010000228881836,170100
2019-12-27,18.860000610351562,19.299999237060547,18.079999923706055,18.399999618530273,18.399999618530273,179700
2019-12-30,18.440000534057617,18.440000534057617,18.030000686645508,18.145000457763672,18.145000457763672,189700
2019-12-31,18.299999237060547,18.777999877929688,18.25,18.450000762939453,18.450000762939453,111400
2020-01-02,18.729999542236328,19.290000915527344,18.510000228881836,18.93000030517578,18.93000030517578,160400
2020-01-03,18.579999923706055,19.25,18.450000762939453,19.100000381469727,19.100000381469727,115300
2020-01-06,18.90999984741211,21.790000915527344,18.899999618530273,21.0,21.0,618800
2020-01-07,21.440000534057617,24.709999084472656,21.239999771118164,24.5,24.5,932500
2020-01-08,24.450000762939453,26.290000915527344,24.440000534057617,24.780000686645508,24.780000686645508,889700
2020-01-09,24.860000610351562,25.0,22.3700008392334,23.479999542236328,23.479999542236328,518800
2020-01-10,23.5,24.420000076293945,23.329999923706055,23.6299991607666,23.6299991607666,193800
2020-01-13,24.149999618530273,26.43000030517578,24.149999618530273,26.280000686645508,26.280000686645508,639000
2020-01-14,27.0,31.829999923706055,27.0,31.59000015258789,31.59000015258789,1253900
2020-01-15,31.59000015258789,36.70000076293945,30.719999313354492,35.150001525878906,35.150001525878906,2232900
2020-01-16,35.54999923706055,37.619998931884766,35.45399856567383,36.310001373291016,36.310001373291016,1204100
2020-01-17,36.0,36.369998931884766,32.349998474121094,36.09000015258789,36.09000015258789,870200
2020-01-21,35.9900016784668,42.689998626708984,35.0,42.66999816894531,42.66999816894531,1341000
2020-01-22,46.0,51.20199966430664,43.58100128173828,48.540000915527344,48.540000915527344,2773600
2020-01-23,46.66999816894531,46.970001220703125,39.77000045776367,40.2599983215332,40.2599983215332,1771300
2020-01-24,41.84000015258789,41.869998931884766,35.0,35.709999084472656,35.709999084472656,1788000
2020-01-27,33.0099983215332,38.79999923706055,32.5,37.56999969482422,37.56999969482422,1367700
2020-01-28,39.779998779296875,42.95000076293945,36.529998779296875,38.06999969482422,38.06999969482422,938300
2020-01-29,37.79999923706055,39.2400016784668,35.720001220703125,37.040000915527344,37.040000915527344,447600
2020-01-30,36.459999084472656,36.84000015258789,35.099998474121094,36.040000915527344,36.040000915527344,606300
2020-01-31,36.0,36.0,33.25199890136719,34.7400016784668,34.7400016784668,474800
2020-02-03,34.88999938964844,38.9900016784668,34.5,35.529998779296875,35.529998779296875,669800
2020-02-04,37.29999923706055,39.08000183105469,36.599998474121094,38.349998474121094,38.349998474121094,597200
2020-02-05,40.02000045776367,40.20000076293945,34.775001525878906,35.349998474121094,35.349998474121094,546000
2020-02-06,35.959999084472656,38.38999938964844,35.349998474121094,37.0,37.0,521700
2020-02-07,37.400001525878906,37.72800064086914,35.470001220703125,36.029998779296875,36.029998779296875,556000
2020-02-10,36.060001373291016,42.0,35.86000061035156,41.59000015258789,41.59000015258789,1098400
2020-02-11,42.7599983215332,43.28799819946289,37.310001373291016,39.310001373291016,39.310001373291016,1474100
2020-02-12,39.720001220703125,41.0,38.529998779296875,40.7599983215332,40.7599983215332,560200
2020-02-13,40.720001220703125,40.720001220703125,38.29999923706055,38.70000076293945,38.70000076293945,472000
2020-02-14,38.86000061035156,39.47999954223633,38.060001373291016,39.099998474121094,39.099998474121094,275400
2020-02-18,40.0099983215332,42.7599983215332,39.869998931884766,41.83000183105469,41.83000183105469,1257100
2020-02-19,42.38999938964844,46.38999938964844,39.68000030517578,39.91999816894531,39.91999816894531,1385500
2020-02-20,40.43000030517578,43.099998474121094,40.22999954223633,42.650001525878906,42.650001525878906,705900
2020-02-21,42.93000030517578,43.57500076293945,38.54999923706055,38.720001220703125,38.720001220703125,626900
2020-02-24,36.400001525878906,39.689998626708984,34.880001068115234,38.2599983215332,38.2599983215332,661300
2020-02-25,38.95000076293945,39.641998291015625,36.06999969482422,37.5,37.5,527400
2020-02-26,36.959999084472656,38.2400016784668,36.5099983215332,37.36000061035156,37.36000061035156,288900
2020-02-27,35.0,36.29999923706055,33.90999984741211,35.11000061035156,35.11000061035156,638700
2020-02-28,33.27000045776367,35.36000061035156,32.130001068115234,34.95000076293945,34.95000076293945,570700
2020-03-02,35.560001373291016,36.68000030517578,33.70000076293945,36.66999816894531,36.66999816894531,319600
2020-03-03,36.9900016784668,37.279998779296875,34.66999816894531,35.560001373291016,35.560001373291016,524000
2020-03-04,36.119998931884766,36.84000015258789,35.0,35.70000076293945,35.70000076293945,258900
2020-03-05,34.88999938964844,36.220001220703125,34.59000015258789,35.290000915527344,35.290000915527344,269200
2020-03-06,34.5,34.599998474121094,30.940000534057617,32.029998779296875,32.029998779296875,527400
2020-03-09,28.260000228881836,29.30500030517578,27.0,27.010000228881836,27.010000228881836,565600
2020-03-10,28.0,29.299999237060547,26.110000610351562,26.790000915527344,26.790000915527344,944700
2020-03-11,27.219999313354492,27.219999313354492,24.799999237060547,25.600000381469727,25.600000381469727,642500
2020-03-12,25.0,25.459999084472656,22.280000686645508,23.43000030517578,23.43000030517578,597600
2020-03-13,25.420000076293945,26.389999389648438,21.530000686645508,22.8700008392334,22.8700008392334,582100
2020-03-16,19.149999618530273,21.889999389648438,18.969999313354492,21.010000228881836,21.010000228881836,520700
2020-03-17,21.440000534057617,24.920000076293945,20.459999084472656,24.020000457763672,24.020000457763672,574700
2020-03-18,22.139999389648438,22.829999923706055,15.949999809265137,17.25,17.25,838400
2020-03-19,21.950000762939453,21.950000762939453,18.56999969482422,20.5,20.5,1269500
2020-03-20,21.84000015258789,24.059999465942383,21.670000076293945,22.06999969482422,22.06999969482422,900600
2020-03-23,22.420000076293945,26.969999313354492,21.530000686645508,26.219999313354492,26.219999313354492,975200
2020-03-24,28.329999923706055,31.459999084472656,27.110000610351562,28.239999771118164,28.239999771118164,1029800
2020-03-25,28.360000610351562,29.899999618530273,27.100000381469727,27.700000762939453,27.700000762939453,573300
2020-03-26,28.049999237060547,30.010000228881836,28.049999237060547,29.899999618530273,29.899999618530273,600800
2020-03-27,28.100000381469727,29.25,27.440000534057617,28.3799991607666,28.3799991607666,337100
2020-03-30,28.43000030517578,30.299999237060547,27.908000946044922,29.989999771118164,29.989999771118164,379000
2020-03-31,30.0,30.600000381469727,28.891000747680664,29.610000610351562,29.610000610351562,522600
2020-04-01,28.350000381469727,29.1200008392334,26.8799991607666,27.34000015258789,27.34000015258789,361400
2020-04-02,27.18000030517578,28.6200008392334,26.799999237060547,27.520000457763672,27.520000457763672,258800
2020-04-03,27.5,27.809999465942383,25.655000686645508,27.200000762939453,27.200000762939453,240600
2020-04-06,27.8799991607666,32.720001220703125,27.309999465942383,32.54999923706055,32.54999923706055,709400
2020-04-07,33.0,34.7400016784668,31.78499984741211,33.25,33.25,589700
2020-04-08,34.0,35.215999603271484,33.470001220703125,34.880001068115234,34.880001068115234,539800
2020-04-09,35.16999816894531,35.935001373291016,32.49300003051758,33.08000183105469,33.08000183105469,376200
2020-04-13,33.209999084472656,33.290000915527344,31.610000610351562,33.279998779296875,33.279998779296875,306300
2020-04-14,34.0,36.59000015258789,34.0,34.59000015258789,34.59000015258789,476500
2020-04-15,34.84000015258789,34.97999954223633,32.150001525878906,33.47999954223633,33.47999954223633,272500
2020-04-16,33.56999969482422,35.790000915527344,33.56999969482422,35.72999954223633,35.72999954223633,327500
2020-04-17,36.5,38.02000045776367,35.58000183105469,36.06999969482422,36.06999969482422,318900
2020-04-20,35.5,37.90999984741211,35.5,36.029998779296875,36.029998779296875,211500
2020-04-21,35.5,35.79999923706055,32.770999908447266,33.33000183105469,33.33000183105469,343700
2020-04-22,34.54999923706055,37.279998779296875,34.54999923706055,37.09000015258789,37.09000015258789,299000
2020-04-23,36.86000061035156,37.40999984741211,35.244998931884766,35.83000183105469,35.83000183105469,288600
2020-04-24,36.029998779296875,36.68000030517578,34.5,36.5,36.5,332100
2020-04-27,37.5,40.790000915527344,37.29999923706055,38.02000045776367,38.02000045776367,616900
2020-04-28,38.79999923706055,39.59000015258789,37.45000076293945,38.2599983215332,38.2599983215332,330400
2020-04-29,39.40999984741211,42.0,39.189998626708984,41.439998626708984,41.439998626708984,379800
2020-04-30,41.790000915527344,41.790000915527344,39.56999969482422,39.93000030517578,39.93000030517578,216900
2020-05-01,38.5,39.5,35.02000045776367,35.68000030517578,35.68000030517578,491400
2020-05-04,35.189998626708984,36.689998626708984,34.56999969482422,35.790000915527344,35.790000915527344,274700
2020-05-05,36.439998626708984,39.060001373291016,36.439998626708984,37.68000030517578,37.68000030517578,286200
2020-05-06,39.61000061035156,41.86000061035156,38.88999938964844,39.29999923706055,39.29999923706055,465100
2020-05-07,39.58000183105469,44.880001068115234,39.58000183105469,44.189998626708984,44.189998626708984,723100
2020-05-08,43.619998931884766,47.63999938964844,43.349998474121094,46.65999984741211,46.65999984741211,707800
2020-05-11,46.83000183105469,54.36000061035156,46.349998474121094,53.84000015258789,53.84000015258789,844500
2020-05-12,55.0,58.779998779296875,51.66999816894531,56.04999923706055,56.04999923706055,1145800
2020-05-13,56.29999923706055,56.810001373291016,47.77000045776367,50.279998779296875,50.279998779296875,788700
2020-05-14,48.22999954223633,60.380001068115234,48.209999084472656,60.029998779296875,60.029998779296875,1281900
2020-05-15,57.0,59.749000549316406,55.459999084472656,58.709999084472656,58.709999084472656,583600
2020-05-18,61.20000076293945,63.959999084472656,58.65399932861328,63.61000061035156,63.61000061035156,572000
2020-05-19,63.79999923706055,69.25,63.790000915527344,65.69000244140625,65.69000244140625,694800
2020-05-20,65.70999908447266,67.52899932861328,53.459999084472656,55.08000183105469,55.08000183105469,1359900
2020-05-21,57.95000076293945,61.380001068115234,53.13999938964844,54.5,54.5,823600
2020-05-22,55.22999954223633,56.66999816894531,50.959999084472656,52.869998931884766,52.869998931884766,452200
2020-05-26,56.97999954223633,62.869998931884766,56.79199981689453,59.20000076293945,59.20000076293945,971300
2020-05-27,60.0099983215332,60.63999938964844,53.0,59.15999984741211,59.15999984741211,618300
2020-05-28,58.900001525878906,62.0,57.63999938964844,58.650001525878906,58.650001525878906,305700
2020-05-29,59.29999923706055,60.0,56.25,59.790000915527344,59.790000915527344,454800
2020-06-01,60.0099983215332,66.97000122070312,60.0099983215332,63.900001525878906,63.900001525878906,595800
2020-06-02,63.939998626708984,64.37000274658203,59.5,60.90999984741211,60.90999984741211,484400
2020-06-03,61.29999923706055,65.87000274658203,61.29999923706055,65.08000183105469,65.08000183105469,428800
2020-06-04,65.08999633789062,65.31999969482422,62.72999954223633,65.0999984741211,65.0999984741211,243900
2020-06-05,64.87999725341797,67.39900207519531,61.56999969482422,62.439998626708984,62.439998626708984,457200
2020-06-08,61.9900016784668,62.099998474121094,55.560001373291016,56.81999969482422,56.81999969482422,865500
2020-06-09,56.2599983215332,59.72999954223633,55.65999984741211,57.459999084472656,57.459999084472656,379200
2020-06-10,58.369998931884766,59.04999923706055,55.79999923706055,58.36000061035156,58.36000061035156,429600
2020-06-11,56.0,58.189998626708984,54.619998931884766,55.349998474121094,55.349998474121094,483300
2020-06-12,56.619998931884766,58.75,53.83000183105469,56.349998474121094,56.349998474121094,364600
2020-06-15,53.84000015258789,59.189998626708984,53.209999084472656,58.5,58.5,457800
2020-06-16,59.72999954223633,60.4900016784668,57.66999816894531,59.33000183105469,59.33000183105469,307500
2020-06-17,59.33000183105469,64.4000015258789,59.02000045776367,61.380001068115234,61.380001068115234,450900
2020-06-18,61.189998626708984,64.37999725341797,59.790000915527344,61.15999984741211,61.15999984741211,299600
2020-06-19,62.279998779296875,64.30999755859375,59.93000030517578,60.43000030517578,60.43000030517578,306900
2020-06-22,59.099998474121094,59.529998779296875,57.189998626708984,57.599998474121094,57.599998474121094,427400
2020-06-23,59.349998474121094,64.9800033569336,59.349998474121094,61.84000015258789,61.84000015258789,552200
2020-06-24,61.599998474121094,63.900001525878906,60.02000045776367,63.560001373291016,63.560001373291016,366600
2020-06-25,63.54999923706055,63.869998931884766,61.18000030517578,63.20000076293945,63.20000076293945,257000
2020-06-26,63.400001525878906,63.5,59.61000061035156,60.66999816894531,60.66999816894531,226900
2020-06-29,61.22999954223633,61.22999954223633,56.22999954223633,58.0,58.0,376500
2020-06-30,58.5099983215332,62.880001068115234,57.220001220703125,62.36000061035156,62.36000061035156,440700
2020-07-01,62.7599983215332,66.48999786376953,59.21099853515625,60.650001525878906,60.650001525878906,412700
2020-07-02,63.970001220703125,68.20999908447266,63.470001220703125,65.88999938964844,65.88999938964844,812800
2020-07-06,70.87000274658203,83.79900360107422,70.7699966430664,80.83999633789062,80.83999633789062,1473500
2020-07-07,79.38999938964844,79.68699645996094,72.74500274658203,73.55999755859375,73.55999755859375,763700
2020-07-08,80.1500015258789,82.63999938964844,77.85099792480469,82.0,82.0,526200
2020-07-09,83.08999633789062,87.33000183105469,82.30999755859375,86.0999984741211,86.0999984741211,643300
2020-07-10,85.95999908447266,86.41000366210938,79.81999969482422,81.62999725341797,81.62999725341797,844100
2020-07-13,83.12999725341797,89.66999816894531,82.11000061035156,83.5199966430664,83.5199966430664,800900
2020-07-14,83.5999984741211,91.37999725341797,82.74800109863281,90.76000213623047,90.76000213623047,790000
2020-07-15,89.16999816894531,89.2300033569336,80.37999725341797,83.88999938964844,83.88999938964844,1056700
2020-07-16,75.20999908447266,79.30999755859375,74.30999755859375,76.61000061035156,76.61000061035156,809200
2020-07-17,79.05000305175781,79.94000244140625,77.26000213623047,79.01000213623047,79.01000213623047,399200
2020-07-20,79.12999725341797,87.0,79.05000305175781,86.30999755859375,86.30999755859375,438400
2020-07-21,87.19000244140625,89.44999694824219,84.11000061035156,87.73999786376953,87.73999786376953,347200
2020-07-22,87.0,90.06999969482422,85.9000015258789,88.91999816894531,88.91999816894531,270400
2020-07-23,89.22000122070312,93.48999786376953,86.81999969482422,87.73999786376953,87.73999786376953,420700
2020-07-24,85.12999725341797,86.20999908447266,78.61000061035156,85.0199966430664,85.0199966430664,441800
2020-07-27,87.30000305175781,91.0999984741211,83.26000213623047,84.29000091552734,84.29000091552734,541400
2020-07-28,84.20999908447266,87.88999938964844,83.73999786376953,85.2699966430664,85.2699966430664,173600
2020-07-29,84.81999969482422,89.66999816894531,83.69999694824219,89.27999877929688,89.27999877929688,226000
2020-07-30,88.93000030517578,92.80000305175781,86.55999755859375,92.27999877929688,92.27999877929688,192500
2020-07-31,93.0,96.58999633789062,91.76000213623047,95.94000244140625,95.94000244140625,413400
2020-08-03,98.79000091552734,108.56999969482422,98.5,107.55000305175781,107.55000305175781,551400
2020-08-04,107.26699829101562,110.0,105.5979995727539,107.6500015258789,107.6500015258789,633800
2020-08-05,109.05000305175781,112.0,103.19000244140625,107.94000244140625,107.94000244140625,463300
2020-08-06,104.80000305175781,113.87000274658203,103.6500015258789,112.29000091552734,112.29000091552734,438000
2020-08-07,109.98999786376953,110.55999755859375,99.79000091552734,101.91999816894531,101.91999816894531,615700
2020-08-10,103.1500015258789,105.7699966430664,96.05999755859375,100.19000244140625,100.19000244140625,372500
2020-08-11,97.58000183105469,101.88500213623047,97.0,98.2699966430664,98.2699966430664,312600
2020-08-12,98.87000274658203,105.91000366210938,96.5,105.4000015258789,105.4000015258789,303600
2020-08-13,106.0999984741211,107.98999786376953,103.04000091552734,104.7699966430664,104.7699966430664,155900
2020-08-14,105.26000213623047,106.97000122070312,103.12000274658203,104.61000061035156,104.61000061035156,173100
2020-08-17,106.43000030517578,107.94000244140625,103.37999725341797,106.63999938964844,106.63999938964844,282700
2020-08-18,106.9000015258789,107.0,102.5,104.83999633789062,104.83999633789062,244800
2020-08-19,104.06999969482422,104.06999969482422,98.0,99.58999633789062,99.58999633789062,415600
2020-08-20,99.4000015258789,99.4000015258789,95.4260025024414,97.37000274658203,97.37000274658203,305900
2020-08-21,96.43000030517578,96.91000366210938,94.98999786376953,96.16999816894531,96.16999816894531,239800
2020-08-24,98.0,98.97000122070312,93.8499984741211,95.3499984741211,95.3499984741211,225400
2020-08-25,95.0,97.95999908447266,94.66000366210938,97.91000366210938,97.91000366210938,207700
2020-08-26,97.91000366210938,98.86000061035156,94.83000183105469,96.05000305175781,96.05000305175781,178900
2020-08-27,96.05999755859375,96.06999969482422,90.0,90.83999633789062,90.83999633789062,363600
2020-08-28,90.69000244140625,92.4000015258789,90.01000213623047,91.98999786376953,91.98999786376953,251300
2020-08-31,92.12000274658203,93.27999877929688,87.5,88.80999755859375,88.80999755859375,268600
2020-09-01,89.30999755859375,90.66000366210938,87.69999694824219,90.48999786376953,90.48999786376953,221300
2020-09-02,92.0,95.87999725341797,89.3499984741211,95.2300033569336,95.2300033569336,293800
2020-09-03,93.0,93.75,81.80000305175781,84.01000213623047,84.01000213623047,480900
2020-09-04,82.01000213623047,83.69000244140625,76.0,82.06999969482422,82.06999969482422,437900
2020-09-08,69.99700164794922,69.99700164794922,58.43000030517578,58.970001220703125,58.970001220703125,1664300
2020-09-09,60.0099983215332,64.33499908447266,58.029998779296875,60.08000183105469,60.08000183105469,907700
2020-09-10,61.04999923706055,62.93000030517578,59.29999923706055,60.65999984741211,60.65999984741211,556400
2020-09-11,64.31999969482422,70.0999984741211,64.08000183105469,66.36000061035156,66.36000061035156,994400
2020-09-14,67.5999984741211,72.73999786376953,65.55500030517578,70.76000213623047,70.76000213623047,511600
2020-09-15,72.02999877929688,73.88999938964844,70.76000213623047,71.37000274658203,71.37000274658203,273500
2020-09-16,71.93000030517578,73.7699966430664,70.80999755859375,71.12000274658203,71.12000274658203,235900
2020-09-17,68.08999633789062,71.38999938964844,66.66999816894531,70.3499984741211,70.3499984741211,454600
2020-09-18,72.45999908447266,73.48999786376953,70.55999755859375,72.83999633789062,72.83999633789062,375500
2020-09-21,70.48999786376953,72.75,69.37000274658203,72.18000030517578,72.18000030517578,287000
2020-09-22,72.68000030517578,72.68000030517578,67.81999969482422,69.87999725341797,69.87999725341797,209100
2020-09-23,69.77999877929688,70.75,67.58000183105469,67.8499984741211,67.8499984741211,291500
2020-09-24,66.8499984741211,70.1050033569336,65.72000122070312,68.98999786376953,68.98999786376953,262300
2020-09-25,68.98999786376953,70.06999969482422,67.5,69.86000061035156,69.86000061035156,168500
2020-09-28,68.80999755859375,69.97000122070312,66.83000183105469,68.31999969482422,68.31999969482422,265900
2020-09-29,67.08000183105469,70.05999755859375,67.08000183105469,69.94000244140625,69.94000244140625,183200
2020-09-30,71.81999969482422,72.94999694824219,68.80000305175781,69.0999984741211,69.0999984741211,234100
2020-10-01,70.52999877929688,76.69000244140625,70.0,75.37999725341797,75.37999725341797,372800
2020-10-02,71.51000213623047,74.30999755859375,70.69000244140625,73.0,73.0,296200
2020-10-05,73.93000030517578,77.1500015258789,73.7699966430664,75.91999816894531,75.91999816894531,325400
2020-10-06,76.0,76.5,70.16000366210938,70.22000122070312,70.22000122070312,465700
2020-10-07,71.70999908447266,75.18000030517578,71.08999633789062,71.87999725341797,71.87999725341797,353900
2020-10-08,67.51399993896484,71.0199966430664,66.2300033569336,70.79000091552734,70.79000091552734,548600
2020-10-09,71.48999786376953,75.93000030517578,71.01000213623047,75.44999694824219,75.44999694824219,345900
2020-10-12,76.5,82.66999816894531,76.46499633789062,77.79000091552734,77.79000091552734,630700
2020-10-13,77.69000244140625,79.56999969482422,74.80999755859375,77.9800033569336,77.9800033569336,238800
2020-10-14,75.44999694824219,77.0,72.30000305175781,74.12999725341797,74.12999725341797,371700
2020-10-15,72.87999725341797,76.23999786376953,71.63999938964844,75.44000244140625,75.44000244140625,258300
2020-10-16,76.48999786376953,76.48999786376953,73.0,75.5999984741211,75.5999984741211,176700
2020-10-19,75.30999755859375,76.80999755859375,71.87999725341797,72.12999725341797,72.12999725341797,208200
2020-10-20,72.2699966430664,74.91000366210938,72.2699966430664,73.31999969482422,73.31999969482422,149900
2020-10-21,73.5199966430664,73.97000122070312,69.33999633789062,69.79000091552734,69.79000091552734,138800
2020-10-22,69.70999908447266,69.8949966430664,65.51000213623047,66.94000244140625,66.94000244140625,339200
2020-10-23,67.41999816894531,68.5,66.54000091552734,67.97000122070312,67.97000122070312,126300
2020-10-26,67.01000213623047,69.9000015258789,66.80000305175781,68.61000061035156,68.61000061035156,139700
2020-10-27,70.52999877929688,70.52999877929688,67.05000305175781,69.29000091552734,69.29000091552734,200500
2020-10-28,67.9000015258789,73.9800033569336,67.26000213623047,72.81999969482422,72.81999969482422,321200
2020-10-29,73.04000091552734,75.88999938964844,71.19100189208984,75.48999786376953,75.48999786376953,218000
2020-10-30,74.41999816894531,75.30000305175781,69.41000366210938,70.37000274658203,70.37000274658203,349000
2020-11-02,71.30000305175781,75.27999877929688,71.0,75.12000274658203,75.12000274658203,203800
2020-11-03,76.76000213623047,80.44000244140625,74.4000015258789,79.95999908447266,79.95999908447266,328500
2020-11-04,80.58000183105469,92.0,80.4489974975586,91.0,91.0,559900
2020-11-05,93.11000061035156,96.48999786376953,90.54000091552734,94.0,94.0,545700
2020-11-06,89.19000244140625,92.33000183105469,85.0999984741211,91.36000061035156,91.36000061035156,384000
2020-11-09,95.37000274658203,97.97000122070312,91.33000183105469,91.69999694824219,91.69999694824219,357200
2020-11-10,90.79000091552734,91.78500366210938,83.23500061035156,83.51000213623047,83.51000213623047,285200
2020-11-11,85.22000122070312,91.08000183105469,85.13999938964844,90.4800033569336,90.4800033569336,194900
2020-11-12,90.0,90.98999786376953,85.5,86.69999694824219,86.69999694824219,185600
2020-11-13,88.58000183105469,88.72000122070312,84.0199966430664,84.4000015258789,84.4000015258789,217500
2020-11-16,84.41999816894531,85.34500122070312,81.08999633789062,81.81999969482422,81.81999969482422,201900
2020-11-17,81.9000015258789,82.37000274658203,73.55000305175781,77.79000091552734,77.79000091552734,347800
2020-11-18,77.62000274658203,78.11199951171875,72.87000274658203,74.76000213623047,74.76000213623047,302300
2020-11-19,74.86000061035156,77.91000366210938,72.5199966430664,75.94999694824219,75.94999694824219,232000
2020-11-20,76.36000061035156,79.6500015258789,74.90499877929688,75.2300033569336,75.2300033569336,187600
2020-11-23,75.5999984741211,76.23999786376953,73.08999633789062,74.61000061035156,74.61000061035156,113400
2020-11-24,75.30999755859375,75.5199966430664,73.27999877929688,73.76000213623047,73.76000213623047,123100
2020-11-25,74.0,77.58999633789062,71.33000183105469,77.05000305175781,77.05000305175781,251600
2020-11-27,78.5,84.61000061035156,77.42400360107422,83.72000122070312,83.72000122070312,279100
2020-11-30,82.88500213623047,85.45999908447266,78.9000015258789,82.62000274658203,82.62000274658203,232900
2020-12-01,82.5999984741211,84.8499984741211,80.06400299072266,83.87000274658203,83.87000274658203,194900
2020-12-02,83.16999816894531,83.16999816894531,80.22000122070312,81.54000091552734,81.54000091552734,157400
2020-12-03,82.6500015258789,83.3499984741211,80.76000213623047,81.0999984741211,81.0999984741211,194400
2020-12-04,81.3499984741211,82.16000366210938,75.02999877929688,77.7300033569336,77.7300033569336,322300
2020-12-07,79.0,84.41999816894531,78.28500366210938,84.12999725341797,84.12999725341797,268600
2020-12-08,83.41000366210938,84.0,80.75,81.37000274658203,81.37000274658203,210400
2020-12-09,81.0,81.08000183105469,73.5,73.7300033569336,73.7300033569336,229200
2020-12-10,73.54000091552734,75.54000091552734,72.26000213623047,73.19999694824219,73.19999694824219,219000
2020-12-11,73.31999969482422,74.51000213623047,70.81800079345703,71.9800033569336,71.9800033569336,148500
2020-12-14,71.9000015258789,75.08999633789062,71.9000015258789,73.76000213623047,73.76000213623047,175500
2020-12-15,75.44999694824219,76.4800033569336,73.72000122070312,75.12999725341797,75.12999725341797,211300
2020-12-16,75.47000122070312,75.85800170898438,71.69999694824219,74.5,74.5,128000
2020-12-17,73.0999984741211,75.18000030517578,72.51000213623047,74.37000274658203,74.37000274658203,128800
2020-12-18,74.12000274658203,76.12999725341797,73.94000244140625,74.47000122070312,74.47000122070312,413100
2020-12-21,74.44000244140625,75.5,72.5,74.98999786376953,74.98999786376953,281000
2020-12-22,75.0,77.2040023803711,72.80999755859375,73.08000183105469,73.08000183105469,129800
2020-12-23,73.9000015258789,74.16999816894531,67.28199768066406,69.93000030517578,69.93000030517578,455500
2020-12-24,70.30000305175781,70.38999938964844,67.5,69.66999816894531,69.66999816894531,121000
2020-12-28,70.98999786376953,70.98999786376953,66.45999908447266,68.52999877929688,68.52999877929688,253500
2020-12-29,68.6500015258789,69.98999786376953,66.7300033569336,67.16999816894531,67.16999816894531,177800
2020-12-30,69.44999694824219,83.77999877929688,68.91000366210938,80.80000305175781,80.80000305175781,958100
