Date,Open,High,Low,Close,Adj Close,Volume
2020-08-06,24.110000610351562,28.299999237060547,24.0,26.5,26.5,3399400
2020-08-07,25.520000457763672,28.93000030517578,24.777000427246094,26.790000915527344,26.790000915527344,648300
2020-08-10,26.979999542236328,28.610000610351562,26.950000762939453,28.0,28.0,248400
2020-08-11,28.440000534057617,28.440000534057617,24.8799991607666,24.90999984741211,24.90999984741211,373300
2020-08-12,25.0,25.479999542236328,24.780000686645508,24.850000381469727,24.850000381469727,132300
2020-08-13,25.290000915527344,25.304000854492188,24.010000228881836,24.5,24.5,255000
2020-08-14,24.780000686645508,25.594999313354492,24.5,24.889999389648438,24.889999389648438,193900
2020-08-17,24.489999771118164,27.299999237060547,24.489999771118164,25.979999542236328,25.979999542236328,261800
2020-08-18,26.0,26.701000213623047,25.799999237060547,26.3799991607666,26.3799991607666,61700
2020-08-19,26.190000534057617,27.68000030517578,26.190000534057617,27.06999969482422,27.06999969482422,134500
2020-08-20,27.0,27.600000381469727,26.350000381469727,27.06999969482422,27.06999969482422,80400
2020-08-21,27.0,28.290000915527344,26.579999923706055,27.65999984741211,27.65999984741211,47900
2020-08-24,27.639999389648438,28.268999099731445,26.520000457763672,27.5,27.5,108600
2020-08-25,27.280000686645508,31.43000030517578,27.280000686645508,29.93000030517578,29.93000030517578,258700
2020-08-26,30.0,30.729999542236328,29.049999237060547,29.540000915527344,29.540000915527344,144000
2020-08-27,29.059999465942383,30.389999389648438,28.530000686645508,30.0,30.0,91600
2020-08-28,30.0,30.959999084472656,29.25,30.959999084472656,30.959999084472656,164700
2020-08-31,31.030000686645508,35.75,31.030000686645508,35.08000183105469,35.08000183105469,310800
2020-09-01,34.88999938964844,38.93000030517578,34.650001525878906,37.650001525878906,37.650001525878906,320700
2020-09-02,38.9900016784668,38.9900016784668,32.08000183105469,37.380001068115234,37.380001068115234,328300
2020-09-03,36.810001373291016,36.9900016784668,32.08000183105469,34.279998779296875,34.279998779296875,191400
2020-09-04,34.0,34.97999954223633,32.2400016784668,33.560001373291016,33.560001373291016,88100
2020-09-08,34.060001373291016,34.222999572753906,32.2599983215332,32.880001068115234,32.880001068115234,175900
2020-09-09,33.0099983215332,35.02000045776367,33.0099983215332,33.029998779296875,33.029998779296875,149200
2020-09-10,33.0099983215332,33.849998474121094,32.52000045776367,32.84000015258789,32.84000015258789,129500
2020-09-11,33.0,36.849998474121094,32.400001525878906,34.2400016784668,34.2400016784668,419800
2020-09-14,34.619998931884766,35.08000183105469,34.224998474121094,34.7599983215332,34.7599983215332,186200
2020-09-15,35.08000183105469,35.9900016784668,33.25,34.369998931884766,34.369998931884766,190900
2020-09-16,34.709999084472656,36.64899826049805,34.441001892089844,35.459999084472656,35.459999084472656,198600
2020-09-17,35.0,36.39500045776367,33.88999938964844,34.5099983215332,34.5099983215332,327000
2020-09-18,34.849998474121094,35.25,32.59000015258789,33.68000030517578,33.68000030517578,1864200
2020-09-21,32.810001373291016,32.810001373291016,30.40999984741211,30.639999389648438,30.639999389648438,170300
2020-09-22,30.799999237060547,31.0,29.799999237060547,30.219999313354492,30.219999313354492,225100
2020-09-23,30.059999465942383,30.200000762939453,28.559999465942383,28.649999618530273,28.649999618530273,113100
2020-09-24,28.729999542236328,29.864999771118164,28.40999984741211,29.219999313354492,29.219999313354492,181700
2020-09-25,29.149999618530273,30.5,29.010000228881836,29.760000228881836,29.760000228881836,127000
2020-09-28,30.270000457763672,30.270000457763672,29.049999237060547,29.43000030517578,29.43000030517578,68200
2020-09-29,29.34000015258789,30.155000686645508,29.149999618530273,29.979999542236328,29.979999542236328,111900
2020-09-30,29.969999313354492,30.200000762939453,28.860000610351562,29.799999237060547,29.799999237060547,154200
2020-10-01,30.0,30.0,28.350000381469727,28.700000762939453,28.700000762939453,160400
2020-10-02,28.5,28.584999084472656,27.219999313354492,27.31999969482422,27.31999969482422,253300
2020-10-05,27.360000610351562,28.100000381469727,26.860000610351562,27.149999618530273,27.149999618530273,168700
2020-10-06,27.270000457763672,28.299999237060547,27.059999465942383,27.329999923706055,27.329999923706055,108700
2020-10-07,27.56999969482422,28.239999771118164,26.801000595092773,27.260000228881836,27.260000228881836,163500
2020-10-08,27.34000015258789,28.399999618530273,26.84000015258789,28.100000381469727,28.100000381469727,226600
2020-10-09,28.290000915527344,30.809999465942383,28.219999313354492,30.270000457763672,30.270000457763672,502300
2020-10-12,30.90999984741211,30.959999084472656,28.450000762939453,28.8700008392334,28.8700008392334,185300
2020-10-13,28.799999237060547,29.0,27.84000015258789,27.8799991607666,27.8799991607666,117200
2020-10-14,28.329999923706055,28.46500015258789,27.1299991607666,28.0,28.0,179600
2020-10-15,27.799999237060547,28.049999237060547,26.549999237060547,26.739999771118164,26.739999771118164,208100
2020-10-16,26.719999313354492,27.110000610351562,25.950000762939453,26.170000076293945,26.170000076293945,134300
2020-10-19,26.170000076293945,26.5,25.610000610351562,25.899999618530273,25.899999618530273,167300
2020-10-20,25.899999618530273,26.309999465942383,24.780000686645508,25.25,25.25,289600
2020-10-21,25.110000610351562,25.709999084472656,24.799999237060547,25.049999237060547,25.049999237060547,260600
2020-10-22,25.0,25.663000106811523,24.635000228881836,25.0,25.0,125300
2020-10-23,25.0,26.600000381469727,24.850000381469727,26.25,26.25,58600
2020-10-26,26.229999542236328,26.229999542236328,24.600000381469727,24.93000030517578,24.93000030517578,62500
2020-10-27,24.860000610351562,26.413999557495117,24.760000228881836,25.90999984741211,25.90999984741211,57900
2020-10-28,25.290000915527344,25.58799934387207,24.530000686645508,25.020000457763672,25.020000457763672,51800
2020-10-29,25.010000228881836,25.06999969482422,24.260000228881836,24.450000762939453,24.450000762939453,266700
2020-10-30,24.229999542236328,24.229999542236328,22.329999923706055,22.8700008392334,22.8700008392334,175000
2020-11-02,23.219999313354492,23.3700008392334,22.483999252319336,23.0,23.0,83900
2020-11-03,23.18000030517578,24.270000457763672,22.770000457763672,24.059999465942383,24.059999465942383,183800
2020-11-04,23.979999542236328,24.760000228881836,23.31999969482422,23.809999465942383,23.809999465942383,271300
2020-11-05,23.790000915527344,25.891000747680664,22.260000228881836,23.40999984741211,23.40999984741211,133500
2020-11-06,23.350000381469727,23.959999084472656,22.68000030517578,23.030000686645508,23.030000686645508,182400
2020-11-09,24.5,24.889999389648438,23.600000381469727,24.290000915527344,24.290000915527344,123700
2020-11-10,24.25,25.18000030517578,24.200000762939453,25.049999237060547,25.049999237060547,202800
2020-11-11,24.969999313354492,25.200000762939453,24.100000381469727,24.350000381469727,24.350000381469727,120400
2020-11-12,24.280000686645508,24.979999542236328,23.90999984741211,24.610000610351562,24.610000610351562,88700
2020-11-13,25.56999969482422,26.079999923706055,23.989999771118164,24.190000534057617,24.190000534057617,158200
2020-11-16,24.284000396728516,24.700000762939453,23.989999771118164,24.389999389648438,24.389999389648438,65600
2020-11-17,24.350000381469727,26.350000381469727,24.350000381469727,25.31999969482422,25.31999969482422,150900
2020-11-18,25.6299991607666,26.010000228881836,24.3700008392334,24.899999618530273,24.899999618530273,117800
2020-11-19,25.059999465942383,25.989999771118164,24.93000030517578,25.5,25.5,63200
2020-11-20,25.479999542236328,26.959999084472656,25.40399932861328,26.75,26.75,142100
2020-11-23,27.270000457763672,28.850000381469727,26.899999618530273,28.670000076293945,28.670000076293945,94100
2020-11-24,28.6299991607666,28.804000854492188,25.979999542236328,26.139999389648438,26.139999389648438,160100
2020-11-25,26.170000076293945,27.834999084472656,25.799999237060547,27.459999084472656,27.459999084472656,104200
2020-11-27,27.579999923706055,28.950000762939453,27.579999923706055,28.770000457763672,28.770000457763672,24700
2020-11-30,28.829999923706055,28.829999923706055,27.479999542236328,28.420000076293945,28.420000076293945,186600
2020-12-01,28.40999984741211,28.899999618530273,25.809999465942383,27.0,27.0,187800
2020-12-02,27.0,28.718000411987305,26.5,28.200000762939453,28.200000762939453,161300
2020-12-03,28.489999771118164,28.56999969482422,27.239999771118164,27.520000457763672,27.520000457763672,50000
2020-12-04,27.030000686645508,27.739999771118164,26.694000244140625,27.139999389648438,27.139999389648438,82400
2020-12-07,27.149999618530273,28.030000686645508,26.91900062561035,27.860000610351562,27.860000610351562,109700
2020-12-08,27.920000076293945,28.65999984741211,27.739999771118164,28.530000686645508,28.530000686645508,104300
2020-12-09,28.81999969482422,29.959999084472656,28.3799991607666,29.1299991607666,29.1299991607666,165200
2020-12-10,29.1299991607666,30.260000228881836,28.450000762939453,29.989999771118164,29.989999771118164,88100
2020-12-11,29.719999313354492,30.309999465942383,29.200000762939453,29.729999542236328,29.729999542236328,73200
2020-12-14,30.0,30.360000610351562,29.3799991607666,29.479999542236328,29.479999542236328,41900
2020-12-15,29.459999084472656,30.290000915527344,29.459999084472656,30.09000015258789,30.09000015258789,63200
2020-12-16,29.799999237060547,30.075000762939453,29.329999923706055,29.459999084472656,29.459999084472656,85100
2020-12-17,29.549999237060547,29.989999771118164,29.040000915527344,29.40999984741211,29.40999984741211,81800
2020-12-18,29.799999237060547,29.90999984741211,28.700000762939453,29.1200008392334,29.1200008392334,89700
2020-12-21,28.56999969482422,28.600000381469727,27.489999771118164,28.3700008392334,28.3700008392334,47000
2020-12-22,28.350000381469727,28.780000686645508,28.0,28.290000915527344,28.290000915527344,58100
2020-12-23,28.399999618530273,31.329999923706055,28.15999984741211,31.1200008392334,31.1200008392334,176800
2020-12-24,31.670000076293945,32.4900016784668,31.1299991607666,32.099998474121094,32.099998474121094,59500
2020-12-28,32.529998779296875,32.869998931884766,30.375,30.8799991607666,30.8799991607666,51200
2020-12-29,30.899999618530273,31.440000534057617,29.5,29.81999969482422,29.81999969482422,59300
2020-12-30,29.81999969482422,30.729999542236328,28.65399932861328,29.729999542236328,29.729999542236328,71400
