Date,Open,High,Low,Close,Adj Close,Volume
2019-03-22,24.639999389648438,24.68000030517578,24.18000030517578,24.459999084472656,20.09309196472168,616000
2019-03-25,24.5,24.600000381469727,24.200000762939453,24.31999969482422,19.978084564208984,16800
2019-03-26,24.420000076293945,24.520000457763672,24.200000762939453,24.520000457763672,20.142379760742188,64300
2019-03-27,24.489999771118164,24.5,24.309999465942383,24.329999923706055,19.98630142211914,39800
2019-03-28,24.399999618530273,24.549999237060547,24.25,24.5,20.125953674316406,12500
2019-03-29,24.5,24.649999618530273,24.420000076293945,24.549999237060547,20.167024612426758,11100
2019-04-01,24.59000015258789,24.600000381469727,24.43400001525879,24.450000762939453,20.084877014160156,27800
2019-04-02,24.5,25.5,24.450000762939453,24.893999099731445,20.449607849121094,309000
2019-04-03,25.139999389648438,25.139999389648438,24.850000381469727,24.850000381469727,20.413461685180664,77100
2019-04-04,24.920000076293945,25.040000915527344,24.920000076293945,25.040000915527344,20.569547653198242,21600
2019-04-05,25.100000381469727,25.149999618530273,25.059999465942383,25.1200008392334,20.63526153564453,18700
2019-04-08,25.219999313354492,25.219999313354492,25.076000213623047,25.110000610351562,20.62704849243164,30300
2019-04-09,25.219999313354492,25.440000534057617,25.200000762939453,25.316999435424805,20.797088623046875,158500
2019-04-10,25.5,25.799999237060547,25.417999267578125,25.700000762939453,21.111711502075195,41200
2019-04-11,25.670000076293945,25.774999618530273,25.520000457763672,25.625,21.05010414123535,31700
2019-04-12,25.600000381469727,25.618999481201172,25.514999389648438,25.59000015258789,21.021350860595703,17000
2019-04-15,25.579999923706055,25.75,25.510000228881836,25.600000381469727,21.029563903808594,11700
2019-04-16,25.66699981689453,25.75200080871582,25.520000457763672,25.65999984741211,21.078853607177734,13700
2019-04-17,25.56999969482422,25.56999969482422,25.299999237060547,25.31999969482422,20.7995548248291,6800
2019-04-18,25.308000564575195,25.440000534057617,25.209999084472656,25.429000854492188,20.88909149169922,7200
2019-04-22,25.305999755859375,25.31999969482422,25.25,25.270000457763672,20.758481979370117,11100
2019-04-23,25.25,25.3700008392334,25.25,25.34000015258789,20.81598472595215,7700
2019-04-24,25.33099937438965,25.388999938964844,25.25,25.25,20.742048263549805,14200
2019-04-25,25.25,25.3799991607666,25.170000076293945,25.200000762939453,20.700977325439453,27900
2019-04-26,25.200000762939453,25.290000915527344,25.110000610351562,25.110000610351562,20.62704849243164,29900
2019-04-29,25.139999389648438,25.273000717163086,25.030000686645508,25.049999237060547,20.5777587890625,32600
2019-04-30,25.170000076293945,25.25,25.104000091552734,25.229999542236328,20.725622177124023,10800
2019-05-01,25.218000411987305,25.25,25.218000411987305,25.25,20.742048263549805,1600
2019-05-02,25.149999618530273,25.239999771118164,25.149999618530273,25.23900032043457,20.733016967773438,3300
2019-05-03,25.222999572753906,25.290000915527344,25.222999572753906,25.25,20.742048263549805,13100
2019-05-06,25.239999771118164,25.309999465942383,25.149999618530273,25.309999465942383,20.791336059570312,9200
2019-05-07,25.259000778198242,25.34000015258789,25.25,25.260000228881836,20.75026512145996,4100
2019-05-08,25.329999923706055,25.38800048828125,25.32900047302246,25.38800048828125,20.855411529541016,1900
2019-05-09,25.25,25.29199981689453,25.149999618530273,25.229999542236328,20.725622177124023,5400
2019-05-10,25.149999618530273,25.15999984741211,25.06999969482422,25.100000381469727,20.61882972717285,12900
2019-05-13,25.100000381469727,25.200000762939453,25.06999969482422,25.200000762939453,20.700977325439453,2200
2019-05-14,25.111000061035156,25.200000762939453,25.111000061035156,25.16900062561035,20.675512313842773,17400
2019-05-15,25.229999542236328,25.295000076293945,25.170000076293945,25.295000076293945,20.77901840209961,9500
2019-05-16,25.299999237060547,25.32900047302246,25.299999237060547,25.299999237060547,20.78312110900879,3600
2019-05-17,25.299999237060547,25.329999923706055,25.299999237060547,25.299999237060547,20.78312110900879,3200
2019-05-20,25.22599983215332,25.263999938964844,25.22599983215332,25.263999938964844,20.753551483154297,500
2019-05-21,25.225000381469727,25.257999420166016,25.209999084472656,25.239999771118164,20.733835220336914,7200
2019-05-22,25.239999771118164,25.25,25.200000762939453,25.225000381469727,20.721513748168945,3000
2019-05-23,25.200000762939453,25.239999771118164,25.1299991607666,25.225000381469727,20.721513748168945,8300
2019-05-24,25.200000762939453,25.25,25.149999618530273,25.149999618530273,20.65990447998047,4700
2019-05-28,25.209999084472656,25.246000289916992,25.170000076293945,25.229999542236328,20.725622177124023,11300
2019-05-29,25.229999542236328,25.239999771118164,25.200000762939453,25.200000762939453,20.700977325439453,5700
2019-05-30,25.15399932861328,25.209999084472656,25.139999389648438,25.200000762939453,20.700977325439453,4900
2019-05-31,25.149999618530273,25.190000534057617,25.149999618530273,25.149999618530273,20.65990447998047,13500
2019-06-03,25.170000076293945,25.200000762939453,25.115999221801758,25.149999618530273,20.65990447998047,8500
2019-06-04,25.16699981689453,25.201000213623047,25.149999618530273,25.176000595092773,20.681262969970703,8800
2019-06-05,25.15999984741211,25.299999237060547,25.100000381469727,25.270000457763672,20.758481979370117,32300
2019-06-06,25.290000915527344,25.297000885009766,25.209999084472656,25.290000915527344,20.77490997314453,4000
2019-06-07,25.264999389648438,25.329999923706055,25.250999450683594,25.31999969482422,20.7995548248291,8700
2019-06-10,25.31999969482422,25.395000457763672,25.309999465942383,25.378999710083008,20.8480224609375,4600
2019-06-11,25.339000701904297,25.360000610351562,25.280000686645508,25.280000686645508,20.76669692993164,10700
2019-06-12,25.280000686645508,25.290000915527344,25.260000228881836,25.284000396728516,20.769983291625977,8800
2019-06-13,25.275999069213867,25.275999069213867,25.100000381469727,25.180999755859375,20.68536949157715,96900
2019-06-14,25.219999313354492,25.219999313354492,25.010000228881836,25.139999389648438,20.65168571472168,61700
2019-06-17,25.155000686645508,25.190000534057617,25.110000610351562,25.190000534057617,20.69276237487793,26500
2019-06-18,25.170000076293945,25.25,25.170000076293945,25.170000076293945,20.676332473754883,15700
2019-06-19,25.170000076293945,25.200000762939453,25.170000076293945,25.200000762939453,20.700977325439453,200
2019-06-20,25.200000762939453,25.260000228881836,25.190000534057617,25.200000762939453,20.700977325439453,12100
2019-06-21,25.219999313354492,25.489999771118164,25.18000030517578,25.3700008392334,20.84062957763672,321100
2019-06-24,25.399999618530273,25.469999313354492,25.3700008392334,25.389999389648438,20.857057571411133,82400
2019-06-25,25.399999618530273,25.43000030517578,25.381000518798828,25.389999389648438,20.857057571411133,29900
2019-06-26,25.399999618530273,25.450000762939453,25.399999618530273,25.450000762939453,20.906343460083008,12700
2019-06-27,25.450000762939453,25.450000762939453,25.31999969482422,25.399999618530273,20.865272521972656,36700
2019-06-28,25.450000762939453,25.586000442504883,25.420000076293945,25.5,20.947418212890625,187900
2019-07-01,25.639999389648438,25.690000534057617,25.450000762939453,25.450000762939453,20.906343460083008,309300
2019-07-02,25.229999542236328,25.239999771118164,25.059999465942383,25.184999465942383,21.103256225585938,80900
2019-07-03,25.219999313354492,25.219999313354492,25.200000762939453,25.209999084472656,21.124208450317383,17400
2019-07-05,25.200000762939453,25.219999313354492,25.1299991607666,25.15999984741211,21.082307815551758,20400
2019-07-08,25.200000762939453,25.229999542236328,25.15999984741211,25.209999084472656,21.124208450317383,24500
2019-07-09,25.219999313354492,25.239999771118164,25.190000534057617,25.190000534057617,21.10744857788086,23900
2019-07-10,25.229999542236328,25.31999969482422,25.200000762939453,25.299999237060547,21.19961929321289,119400
2019-07-11,25.299999237060547,25.3700008392334,25.280000686645508,25.329999923706055,21.22475814819336,70000
2019-07-12,25.329999923706055,25.382999420166016,25.31999969482422,25.3700008392334,21.258277893066406,18800
2019-07-15,25.420000076293945,25.469999313354492,25.350000381469727,25.409000396728516,21.29095458984375,16000
2019-07-16,25.459999084472656,25.459999084472656,25.395000457763672,25.440000534057617,21.316930770874023,18400
2019-07-17,25.479999542236328,25.549999237060547,25.350000381469727,25.549999237060547,21.409099578857422,28500
2019-07-18,25.542999267578125,25.649999618530273,25.424999237060547,25.514999389648438,21.379772186279297,30700
2019-07-19,25.440000534057617,25.549999237060547,25.429000854492188,25.549999237060547,21.409099578857422,10300
2019-07-22,25.549999237060547,25.549999237060547,25.476999282836914,25.530000686645508,21.392343521118164,43900
2019-07-23,25.549999237060547,25.549999237060547,25.459999084472656,25.5,21.367204666137695,21500
2019-07-24,25.510000228881836,25.6299991607666,25.4950008392334,25.610000610351562,21.45937728881836,27500
2019-07-25,25.610000610351562,25.639999389648438,25.5310001373291,25.639999389648438,21.484514236450195,13500
2019-07-26,25.64699935913086,25.75,25.639999389648438,25.75,21.576690673828125,13400
2019-07-29,25.709999084472656,25.8700008392334,25.5,25.573999404907227,21.429210662841797,18500
2019-07-30,25.600000381469727,25.700000762939453,25.600000381469727,25.700000762939453,21.5347957611084,1900
2019-07-31,25.649999618530273,25.780000686645508,25.5,25.5,21.367204666137695,31900
2019-08-01,25.638999938964844,25.709999084472656,25.549999237060547,25.610000610351562,21.45937728881836,6200
2019-08-02,25.618999481201172,25.690000534057617,25.610000610351562,25.639999389648438,21.484514236450195,7200
2019-08-05,25.600000381469727,25.600000381469727,25.437000274658203,25.540000915527344,21.400724411010742,21600
2019-08-06,25.6299991607666,25.638999938964844,25.43000030517578,25.549999237060547,21.409099578857422,6100
2019-08-07,25.549999237060547,25.549999237060547,25.527000427246094,25.527000427246094,21.389827728271484,2000
2019-08-08,25.549999237060547,25.549999237060547,25.3700008392334,25.530000686645508,21.392343521118164,11400
2019-08-09,25.485000610351562,25.549999237060547,25.400999069213867,25.549999237060547,21.409099578857422,4500
2019-08-12,25.459999084472656,25.540000915527344,25.459999084472656,25.540000915527344,21.400724411010742,8400
2019-08-13,25.540000915527344,25.540000915527344,25.466999053955078,25.540000915527344,21.400724411010742,6700
2019-08-14,25.46500015258789,25.530000686645508,25.43000030517578,25.530000686645508,21.392343521118164,7600
2019-08-15,25.489999771118164,25.700000762939453,25.451000213623047,25.674999237060547,21.51384162902832,56200
2019-08-16,25.700000762939453,25.700000762939453,25.510000228881836,25.600000381469727,21.45099639892578,6500
2019-08-19,25.559999465942383,25.600000381469727,25.549999237060547,25.600000381469727,21.45099639892578,5400
2019-08-20,25.520000457763672,25.600000381469727,25.5,25.579999923706055,21.43423843383789,8200
2019-08-21,25.540000915527344,25.579999923706055,25.540000915527344,25.575000762939453,21.430051803588867,8100
2019-08-22,25.600000381469727,25.600000381469727,25.551000595092773,25.579999923706055,21.43423843383789,6500
2019-08-23,25.579999923706055,25.579999923706055,25.534000396728516,25.579999923706055,21.43423843383789,1000
2019-08-26,25.579999923706055,25.649999618530273,25.5,25.649999618530273,21.49289321899414,16300
2019-08-27,25.700000762939453,25.940000534057617,25.700000762939453,25.940000534057617,21.73589515686035,9800
2019-08-28,25.775999069213867,25.940000534057617,25.775999069213867,25.940000534057617,21.73589515686035,6400
2019-08-29,25.920000076293945,25.950000762939453,25.850000381469727,25.920000076293945,21.719135284423828,3900
2019-08-30,25.895999908447266,25.933000564575195,25.865999221801758,25.875,21.68143081665039,1400
2019-09-03,25.881999969482422,25.950000762939453,25.87299919128418,25.950000762939453,21.74427604675293,7100
2019-09-04,25.200000762939453,25.3700008392334,25.059999465942383,25.270000457763672,21.174482345581055,457800
2019-09-05,25.25,25.270000457763672,25.18000030517578,25.235000610351562,21.14515495300293,1498200
2019-09-06,25.25,25.450000762939453,25.219999313354492,25.389999389648438,21.27503204345703,278100
2019-09-09,25.40999984741211,25.579999923706055,25.399999618530273,25.510000228881836,21.375587463378906,156500
2019-09-10,25.549999237060547,25.579999923706055,25.3700008392334,25.43000030517578,21.308551788330078,81000
2019-09-11,25.444000244140625,25.649999618530273,25.34000015258789,25.610000610351562,21.45937728881836,236300
2019-09-12,25.600000381469727,25.65999984741211,25.510000228881836,25.56999969482422,21.425859451293945,70200
2019-09-13,25.520000457763672,25.549999237060547,25.34000015258789,25.40999984741211,21.29178810119629,150400
2019-09-16,25.420000076293945,25.479999542236328,25.350000381469727,25.469999313354492,21.342065811157227,92100
2019-09-17,25.489999771118164,25.56999969482422,25.44700050354004,25.5,21.367204666137695,71400
2019-09-18,25.510000228881836,25.579999923706055,25.450000762939453,25.559999465942383,21.417482376098633,137100
2019-09-19,25.600000381469727,25.6299991607666,25.56999969482422,25.59000015258789,21.442617416381836,206200
2019-09-20,25.65999984741211,25.68000030517578,25.634000778198242,25.65999984741211,21.50127601623535,246200
2019-09-23,25.709999084472656,25.739999771118164,25.700000762939453,25.709999084472656,21.543170928955078,152600
2019-09-24,25.709999084472656,25.73900032043457,25.6200008392334,25.65999984741211,21.50127601623535,59900
2019-09-25,25.68000030517578,25.690000534057617,25.6299991607666,25.649999618530273,21.49289321899414,58200
2019-09-26,25.649999618530273,25.68000030517578,25.579999923706055,25.6200008392334,21.467756271362305,146800
2019-09-27,25.639999389648438,25.670000076293945,25.56999969482422,25.600000381469727,21.45099639892578,62300
2019-09-30,25.649999618530273,25.829999923706055,25.579999923706055,25.68000030517578,21.518033981323242,704000
2019-10-01,25.739999771118164,25.757999420166016,25.649999618530273,25.690000534057617,21.526412963867188,81000
2019-10-02,25.670000076293945,25.68600082397461,25.56100082397461,25.610000610351562,21.45937728881836,87600
2019-10-03,25.229999542236328,25.280000686645508,25.170000076293945,25.219999313354492,21.526809692382812,69700
2019-10-04,25.239999771118164,25.34000015258789,25.239999771118164,25.299999237060547,21.5950927734375,69700
2019-10-07,25.329999923706055,25.329999923706055,25.239999771118164,25.280000686645508,21.578022003173828,80600
2019-10-08,25.270000457763672,25.30900001525879,25.18000030517578,25.204999923706055,21.514005661010742,53400
2019-10-09,25.239999771118164,25.260000228881836,25.209999084472656,25.239999771118164,21.543880462646484,43000
2019-10-10,25.25,25.290000915527344,25.229999542236328,25.260000228881836,21.56095314025879,70800
2019-10-11,25.260000228881836,25.290000915527344,25.229999542236328,25.239999771118164,21.543880462646484,42000
2019-10-14,25.270000457763672,25.34000015258789,25.270000457763672,25.290000915527344,21.58656120300293,56700
2019-10-15,25.299999237060547,25.399999618530273,25.299999237060547,25.3700008392334,21.654844284057617,82000
2019-10-16,25.399999618530273,25.402999877929688,25.309999465942383,25.350000381469727,21.637771606445312,36800
2019-10-17,25.389999389648438,25.399999618530273,25.31999969482422,25.399999618530273,21.680448532104492,40700
2019-10-18,25.420000076293945,25.474000930786133,25.360000610351562,25.3799991607666,21.663379669189453,58400
2019-10-21,25.389999389648438,25.43400001525879,25.360000610351562,25.408000946044922,21.687278747558594,187000
2019-10-22,25.43000030517578,25.43000030517578,25.3700008392334,25.389999389648438,21.671913146972656,36400
2019-10-23,25.43000030517578,25.450000762939453,25.399999618530273,25.43000030517578,21.706058502197266,72500
2019-10-24,25.440000534057617,25.44499969482422,25.3799991607666,25.389999389648438,21.671913146972656,65700
2019-10-25,25.392000198364258,25.469999313354492,25.3799991607666,25.43000030517578,21.706058502197266,79600
2019-10-28,25.389999389648438,25.420000076293945,25.360000610351562,25.420000076293945,21.697521209716797,25800
2019-10-29,25.420000076293945,25.440000534057617,25.309999465942383,25.329999923706055,21.62070083618164,115700
2019-10-30,25.360000610351562,25.399999618530273,25.329999923706055,25.360000610351562,21.64630699157715,44300
2019-10-31,25.360000610351562,25.40999984741211,25.309999465942383,25.309999465942383,21.603628158569336,66500
2019-11-01,25.309999465942383,25.360000610351562,25.299999237060547,25.309999465942383,21.603628158569336,29900
2019-11-04,25.350000381469727,25.3799991607666,25.340999603271484,25.3799991607666,21.663379669189453,26800
2019-11-05,25.360000610351562,25.3799991607666,25.309999465942383,25.360000610351562,21.64630699157715,40300
2019-11-06,25.347999572753906,25.3799991607666,25.343000411987305,25.374000549316406,21.658260345458984,17000
2019-11-07,25.3799991607666,25.3799991607666,25.290000915527344,25.299999237060547,21.5950927734375,55500
2019-11-08,25.31999969482422,25.34000015258789,25.280000686645508,25.280000686645508,21.578022003173828,33100
2019-11-11,25.299999237060547,25.350000381469727,25.297000885009766,25.350000381469727,21.637771606445312,14300
2019-11-12,25.336999893188477,25.3439998626709,25.280000686645508,25.280000686645508,21.578022003173828,44100
2019-11-13,25.290000915527344,25.329999923706055,25.290000915527344,25.309999465942383,21.603628158569336,41000
2019-11-14,25.34000015258789,25.374000549316406,25.31999969482422,25.347000122070312,21.635211944580078,32300
2019-11-15,25.3799991607666,25.3799991607666,25.31999969482422,25.34000015258789,21.62923812866211,16600
2019-11-18,25.350000381469727,25.360000610351562,25.329999923706055,25.360000610351562,21.64630699157715,21400
2019-11-19,25.350000381469727,25.360000610351562,25.323999404907227,25.350000381469727,21.637771606445312,28600
2019-11-20,25.33099937438965,25.350000381469727,25.298999786376953,25.350000381469727,21.637771606445312,34800
2019-11-21,25.34000015258789,25.350000381469727,25.31999969482422,25.31999969482422,21.612163543701172,29000
2019-11-22,25.336000442504883,25.350000381469727,25.336000442504883,25.350000381469727,21.637771606445312,14400
2019-11-25,25.34600067138672,25.399999618530273,25.332000732421875,25.3799991607666,21.663379669189453,38600
2019-11-26,25.350000381469727,25.469999313354492,25.33799934387207,25.399999618530273,21.680448532104492,50300
2019-11-27,25.43000030517578,25.549999237060547,25.40999984741211,25.549999237060547,21.808483123779297,59500
2019-11-29,25.549999237060547,25.610000610351562,25.485000610351562,25.549999237060547,21.808483123779297,91700
2019-12-02,25.489999771118164,25.540000915527344,25.46500015258789,25.540000915527344,21.799949645996094,49300
2019-12-03,25.510000228881836,25.540000915527344,25.40999984741211,25.540000915527344,21.799949645996094,17400
2019-12-04,25.523000717163086,25.540000915527344,25.43000030517578,25.440000534057617,21.71459197998047,33800
2019-12-05,25.5,25.5,25.260000228881836,25.280000686645508,21.578022003173828,110400
2019-12-06,25.34600067138672,25.34600067138672,25.260000228881836,25.270000457763672,21.569488525390625,41100
2019-12-09,25.280000686645508,25.360000610351562,25.260000228881836,25.280000686645508,21.578022003173828,60500
2019-12-10,25.280000686645508,25.280000686645508,25.25,25.2549991607666,21.556684494018555,40100
2019-12-11,25.25,25.299999237060547,25.239999771118164,25.260000228881836,21.56095314025879,94100
2019-12-12,25.260000228881836,25.280000686645508,25.219999313354492,25.25,21.55241584777832,128100
2019-12-13,25.280000686645508,25.299999237060547,25.229999542236328,25.270000457763672,21.569488525390625,65300
2019-12-16,25.270000457763672,25.299999237060547,25.25,25.25,21.55241584777832,145400
2019-12-17,25.260000228881836,25.274999618530273,25.149999618530273,25.209999084472656,21.518274307250977,165900
2019-12-18,25.190000534057617,25.25,25.15999984741211,25.239999771118164,21.543880462646484,102400
2019-12-19,25.25,25.298999786376953,25.209999084472656,25.239999771118164,21.543880462646484,65100
2019-12-20,25.25,25.25,25.219999313354492,25.229999542236328,21.53534507751465,46300
2019-12-23,25.229999542236328,25.290000915527344,25.229999542236328,25.260000228881836,21.56095314025879,86000
2019-12-24,25.270000457763672,25.288999557495117,25.246000289916992,25.260000228881836,21.56095314025879,41300
2019-12-26,25.280000686645508,25.299999237060547,25.260000228881836,25.270000457763672,21.569488525390625,77500
2019-12-27,25.260000228881836,25.280000686645508,25.239999771118164,25.260000228881836,21.56095314025879,108500
2019-12-30,25.270000457763672,25.270000457763672,25.239999771118164,25.260000228881836,21.56095314025879,143500
2019-12-31,25.260000228881836,25.299999237060547,25.209999084472656,25.25,21.55241584777832,206000
2020-01-02,24.899999618530273,25.030000686645508,24.882999420166016,25.030000686645508,21.76897621154785,187500
2020-01-03,25.030000686645508,25.1200008392334,24.979999542236328,25.06999969482422,21.80376434326172,58400
2020-01-06,25.09000015258789,25.15999984741211,25.049999237060547,25.079999923706055,21.81245994567871,110200
2020-01-07,25.075000762939453,25.09000015258789,25.049999237060547,25.06999969482422,21.80376434326172,36300
2020-01-08,25.06999969482422,25.110000610351562,25.040000915527344,25.09000015258789,21.821155548095703,54300
2020-01-09,25.110000610351562,25.110000610351562,25.06999969482422,25.09000015258789,21.821155548095703,37700
2020-01-10,25.100000381469727,25.1200008392334,25.079999923706055,25.100000381469727,21.82985496520996,38400
2020-01-13,25.110000610351562,25.190000534057617,25.100000381469727,25.18000030517578,21.899431228637695,55000
2020-01-14,25.18000030517578,25.239999771118164,25.17799949645996,25.239999771118164,21.951616287231445,40700
2020-01-15,25.200000762939453,25.25,25.170000076293945,25.190000534057617,21.90812873840332,282800
2020-01-16,25.209999084472656,25.21500015258789,25.15999984741211,25.190000534057617,21.90812873840332,33400
2020-01-17,25.209999084472656,25.25,25.190000534057617,25.25,21.96031379699707,53400
2020-01-21,25.200000762939453,25.25,25.200000762939453,25.229999542236328,21.94291877746582,39000
2020-01-22,25.239999771118164,25.239999771118164,25.20199966430664,25.229999542236328,21.94291877746582,24400
2020-01-23,25.25,25.260000228881836,25.229999542236328,25.239999771118164,21.951616287231445,467600
2020-01-24,25.239999771118164,25.290000915527344,25.200000762939453,25.219999313354492,21.934221267700195,37400
2020-01-27,25.18000030517578,25.239999771118164,25.15999984741211,25.229999542236328,21.94291877746582,34400
2020-01-28,25.219999313354492,25.459999084472656,25.201000213623047,25.31999969482422,22.02119255065918,239500
2020-01-29,25.399999618530273,25.450000762939453,25.33300018310547,25.350000381469727,22.047283172607422,120100
2020-01-30,25.368999481201172,25.389999389648438,25.309999465942383,25.389999389648438,22.082069396972656,44400
2020-01-31,25.389999389648438,25.440000534057617,25.38599967956543,25.399999618530273,22.090768814086914,34500
2020-02-03,25.399999618530273,25.584999084472656,25.399999618530273,25.56999969482422,22.23862075805664,175400
2020-02-04,25.56999969482422,25.6299991607666,25.479999542236328,25.5,22.17774200439453,81500
2020-02-05,25.520000457763672,25.639999389648438,25.5,25.6200008392334,22.282106399536133,42800
2020-02-06,25.6299991607666,25.649999618530273,25.600000381469727,25.639999389648438,22.299501419067383,27600
2020-02-07,25.639999389648438,25.719999313354492,25.600000381469727,25.709999084472656,22.360382080078125,33300
2020-02-10,25.709999084472656,25.739999771118164,25.67099952697754,25.709999084472656,22.360382080078125,41500
2020-02-11,25.65399932861328,25.709999084472656,25.6200008392334,25.700000762939453,22.351686477661133,24300
2020-02-12,25.702999114990234,25.780000686645508,25.700000762939453,25.75,22.395170211791992,53800
2020-02-13,25.770000457763672,25.899999618530273,25.770000457763672,25.8700008392334,22.499536514282227,49800
2020-02-14,25.850000381469727,25.850000381469727,25.719999313354492,25.75,22.395170211791992,26900
2020-02-18,25.75,25.860000610351562,25.75,25.860000610351562,22.4908390045166,45700
2020-02-19,25.860000610351562,25.8799991607666,25.81999969482422,25.8799991607666,22.50823211669922,44800
2020-02-20,25.899999618530273,26.149999618530273,25.851999282836914,26.06999969482422,22.673480987548828,54100
2020-02-21,26.06999969482422,26.06999969482422,25.908000946044922,26.010000228881836,22.621294021606445,12200
2020-02-24,25.850000381469727,25.850000381469727,25.655000686645508,25.68000030517578,22.334291458129883,45900
2020-02-25,25.75,25.780000686645508,25.260000228881836,25.290000915527344,21.99510383605957,74200
2020-02-26,25.290000915527344,25.459999084472656,25.274999618530273,25.3700008392334,22.064680099487305,46000
2020-02-27,25.3700008392334,25.3700008392334,24.979999542236328,25.06999969482422,21.80376434326172,112000
2020-02-28,25.06999969482422,25.06999969482422,24.540000915527344,24.93000030517578,21.6820011138916,92500
2020-03-02,24.809999465942383,25.190000534057617,24.799999237060547,25.190000534057617,21.90812873840332,70800
2020-03-03,25.190000534057617,25.764999389648438,24.920000076293945,25.049999237060547,21.786367416381836,75300
2020-03-04,25.100000381469727,25.489999771118164,25.049999237060547,25.433000564575195,22.119468688964844,11900
2020-03-05,25.260000228881836,25.290000915527344,25.100000381469727,25.18000030517578,21.899431228637695,22000
2020-03-06,25.100000381469727,25.149999618530273,24.790000915527344,25.010000228881836,21.75157928466797,37300
2020-03-09,24.06999969482422,24.5,22.81999969482422,22.81999969482422,19.84690284729004,132400
2020-03-10,23.299999237060547,23.950000762939453,21.31999969482422,22.149999618530273,19.264192581176758,105100
2020-03-11,22.5,22.59000015258789,20.100000381469727,20.209999084472656,17.576946258544922,178800
2020-03-12,20.149999618530273,20.149999618530273,15.029999732971191,15.069999694824219,13.106610298156738,194600
2020-03-13,16.0,17.95800018310547,16.0,17.530000686645508,15.246112823486328,164600
2020-03-16,14.5,15.949999809265137,11.520000457763672,14.5,12.610871315002441,193100
2020-03-17,14.536999702453613,16.1200008392334,14.5,14.5,12.610871315002441,76600
2020-03-18,13.949999809265137,14.130000114440918,6.809999942779541,11.079999923706055,9.636445999145508,193400
2020-03-19,10.369999885559082,14.0,8.0,13.699999809265137,11.91510009765625,127100
2020-03-20,13.789999961853027,15.59000015258789,13.789999961853027,14.694000244140625,12.779597282409668,95200
2020-03-23,14.6899995803833,15.140000343322754,11.402999877929688,12.899999618530273,11.219327926635742,85900
2020-03-24,13.5,15.220000267028809,13.399999618530273,14.109999656677246,12.271682739257812,80900
2020-03-25,14.109999656677246,16.110000610351562,13.930999755859375,14.260000228881836,12.402140617370605,102200
2020-03-26,14.3100004196167,18.709999084472656,14.3100004196167,17.760000228881836,15.446145057678223,105100
2020-03-27,17.260000228881836,18.15999984741211,15.449999809265137,17.950000762939453,15.611392974853516,59400
2020-03-30,16.709999084472656,18.25,16.15999984741211,17.75,15.437446594238281,46700
2020-03-31,17.270000457763672,18.5,17.270000457763672,17.8700008392334,15.541813850402832,38100
2020-04-01,17.75,17.75,15.710000038146973,16.690000534057617,14.51555061340332,68800
2020-04-02,16.700000762939453,16.975000381469727,15.6899995803833,16.0,14.317784309387207,35600
2020-04-03,16.166000366210938,16.166000366210938,14.729999542236328,15.0,13.422922134399414,96100
2020-04-06,15.0,16.049999237060547,15.0,15.300000190734863,13.69138240814209,44700
2020-04-07,15.989999771118164,16.75,15.779999732971191,16.25,14.541499137878418,70700
2020-04-08,16.34000015258789,17.4950008392334,15.880000114440918,17.200000762939453,15.391619682312012,78200
2020-04-09,17.440000534057617,19.399999618530273,17.40999984741211,19.399999618530273,17.360315322875977,76200
2020-04-13,19.5,19.636999130249023,18.850000381469727,19.469999313354492,17.42295265197754,37000
2020-04-14,19.5,19.600000381469727,18.850000381469727,19.5,17.449800491333008,34700
2020-04-15,19.5,20.209999084472656,18.850000381469727,19.190000534057617,17.172395706176758,36900
2020-04-16,19.350000381469727,19.5,18.850000381469727,19.290000915527344,17.26188087463379,31500
2020-04-17,20.010000228881836,20.34000015258789,19.200000762939453,19.790000915527344,17.70931053161621,35700
2020-04-20,19.649999618530273,19.649999618530273,19.0,19.0,17.002370834350586,47000
2020-04-21,18.799999237060547,18.799999237060547,18.09000015258789,18.5,16.554935455322266,43000
2020-04-22,18.59000015258789,18.631000518798828,18.110000610351562,18.110000610351562,16.205944061279297,24400
2020-04-23,18.549999237060547,18.649999618530273,18.31999969482422,18.450000762939453,16.510196685791016,14500
2020-04-24,18.600000381469727,18.649999618530273,17.739999771118164,18.010000228881836,16.116455078125,20400
2020-04-27,18.110000610351562,18.389999389648438,18.100000381469727,18.299999237060547,16.375967025756836,63600
2020-04-28,18.329999923706055,19.0,18.329999923706055,18.799999237060547,16.823396682739258,52300
2020-04-29,19.079999923706055,19.649999618530273,19.030000686645508,19.610000610351562,17.548236846923828,49600
2020-04-30,19.649999618530273,19.90999984741211,19.260000228881836,19.90999984741211,17.816694259643555,112600
2020-05-01,19.75,19.90999984741211,19.110000610351562,19.219999313354492,17.19923973083496,34700
2020-05-04,19.041000366210938,19.427000045776367,18.899999618530273,18.950000762939453,16.957626342773438,15500
2020-05-05,19.2549991607666,19.368999481201172,19.049999237060547,19.1200008392334,17.109752655029297,16400
2020-05-06,19.059999465942383,19.399999618530273,19.059999465942383,19.229999542236328,17.208189010620117,21500
2020-05-07,19.260000228881836,19.429000854492188,18.799999237060547,19.110000610351562,17.100805282592773,43900
2020-05-08,19.34600067138672,19.3700008392334,19.200000762939453,19.2450008392334,17.22161102294922,12300
2020-05-11,19.25,19.56999969482422,19.25,19.56999969482422,17.51243782043457,27200
2020-05-12,19.559999465942383,19.56999969482422,19.420000076293945,19.450000762939453,17.405057907104492,17900
2020-05-13,19.1200008392334,19.25,18.499000549316406,18.90999984741211,16.921831130981445,43000
2020-05-14,18.709999084472656,19.239999771118164,16.64900016784668,17.81999969482422,15.946431159973145,55700
2020-05-15,17.610000610351562,18.049999237060547,17.600000381469727,17.799999237060547,15.928535461425781,29300
2020-05-18,18.229999542236328,19.29800033569336,18.229999542236328,18.950000762939453,16.957626342773438,31700
2020-05-19,19.0,19.399999618530273,18.799999237060547,18.829999923706055,16.850244522094727,28100
2020-05-20,19.15999984741211,19.4950008392334,18.829999923706055,18.829999923706055,16.850244522094727,29600
2020-05-21,19.06999969482422,19.479999542236328,18.799999237060547,19.049999237060547,17.04711151123047,37000
2020-05-22,19.299999237060547,19.299999237060547,19.100000381469727,19.219999313354492,17.19923973083496,19200
2020-05-26,19.31999969482422,19.711000442504883,19.31999969482422,19.600000381469727,17.53928565979004,98300
2020-05-27,19.860000610351562,20.34000015258789,19.610000610351562,20.0,17.897232055664062,53600
2020-05-28,20.420000076293945,20.579999923706055,19.850000381469727,19.850000381469727,17.763002395629883,28200
2020-05-29,20.149999618530273,20.341999053955078,19.799999237060547,20.0,17.897232055664062,112600
2020-06-01,20.0,20.200000762939453,19.899999618530273,19.950000762939453,17.852487564086914,26300
2020-06-02,20.020000457763672,20.437999725341797,20.020000457763672,20.18000030517578,18.058307647705078,19900
2020-06-03,20.40999984741211,20.610000610351562,20.309999465942383,20.350000381469727,18.210432052612305,32500
2020-06-04,20.25,20.59000015258789,20.110000610351562,20.299999237060547,18.16568946838379,40400
2020-06-05,20.59000015258789,21.829999923706055,20.549999237060547,21.829999923706055,19.534826278686523,57800
2020-06-08,21.889999389648438,23.006000518798828,21.76799964904785,22.926000595092773,20.515594482421875,35600
2020-06-09,22.799999237060547,22.799999237060547,22.25,22.729999542236328,20.340200424194336,26700
2020-06-10,22.899999618530273,22.899999618530273,22.0,22.700000762939453,20.313358306884766,27400
2020-06-11,21.809999465942383,22.229999542236328,20.700000762939453,21.399999618530273,19.15003776550293,50400
2020-06-12,21.899999618530273,22.549999237060547,21.81999969482422,22.229999542236328,19.892770767211914,130000
2020-06-15,22.18000030517578,22.420000076293945,21.860000610351562,22.399999618530273,20.044897079467773,27700
2020-06-16,22.5,22.600000381469727,22.25,22.549999237060547,20.179126739501953,17300
2020-06-17,22.3700008392334,22.549999237060547,22.100000381469727,22.200000762939453,19.86592674255371,25800
2020-06-18,22.375,22.399999618530273,22.170000076293945,22.399999618530273,20.044897079467773,15500
2020-06-19,22.399999618530273,22.399999618530273,22.18000030517578,22.329999923706055,19.982257843017578,12300
2020-06-22,23.0,23.43000030517578,22.799999237060547,23.290000915527344,20.841327667236328,212800
2020-06-23,23.290000915527344,23.889999389648438,23.229999542236328,23.6299991607666,21.14557647705078,77200
2020-06-24,23.700000762939453,23.704999923706055,23.280000686645508,23.309999465942383,20.859220504760742,79600
2020-06-25,23.299999237060547,23.56999969482422,23.149999618530273,23.260000228881836,20.81447982788086,49900
2020-06-26,23.260000228881836,23.434999465942383,23.079999923706055,23.079999923706055,20.653404235839844,24200
2020-06-29,23.25,23.899999618530273,23.187999725341797,23.65999984741211,21.17242431640625,66800
2020-06-30,23.75,23.969999313354492,23.399999618530273,23.469999313354492,21.002399444580078,82300
2020-07-01,23.25,23.79599952697754,23.25,23.280000686645508,21.257156372070312,29800
2020-07-02,23.489999771118164,23.540000915527344,23.040000915527344,23.059999465942383,21.056272506713867,26600
2020-07-06,23.3700008392334,23.3700008392334,23.049999237060547,23.18000030517578,21.165847778320312,33300
2020-07-07,23.06999969482422,23.209999084472656,22.75,22.979999542236328,20.983224868774414,17200
2020-07-08,23.0,23.149999618530273,22.739999771118164,22.93000030517578,20.937570571899414,21200
2020-07-09,22.899999618530273,22.976999282836914,22.030000686645508,22.149999618530273,20.225343704223633,46400
2020-07-10,22.06999969482422,22.7549991607666,21.68000030517578,21.719999313354492,19.83270835876465,37400
2020-07-13,21.809999465942383,22.09000015258789,21.690000534057617,21.920000076293945,20.015329360961914,55700
2020-07-14,21.799999237060547,21.90999984741211,21.670000076293945,21.68000030517578,19.796184539794922,27700
2020-07-15,21.760000228881836,22.099000930786133,21.68000030517578,22.079999923706055,20.161428451538086,19100
2020-07-16,22.010000228881836,22.299999237060547,22.010000228881836,22.149999618530273,20.225343704223633,22400
2020-07-17,22.209999084472656,22.34000015258789,22.149999618530273,22.299999237060547,20.3623104095459,12300
2020-07-20,22.280000686645508,22.299999237060547,22.149999618530273,22.149999618530273,20.225343704223633,8100
2020-07-21,22.299999237060547,22.299999237060547,21.979999542236328,22.0,20.08837890625,18400
2020-07-22,21.93000030517578,22.25,21.93000030517578,22.040000915527344,20.124902725219727,10700
2020-07-23,22.049999237060547,22.209999084472656,22.049999237060547,22.170000076293945,20.243606567382812,30200
2020-07-24,22.15999984741211,22.200000762939453,22.020000457763672,22.049999237060547,20.134035110473633,15500
2020-07-27,22.100000381469727,22.399999618530273,22.100000381469727,22.219999313354492,20.289262771606445,9900
2020-07-28,22.239999771118164,22.59000015258789,22.239999771118164,22.520000457763672,20.563196182250977,21100
2020-07-29,22.549999237060547,22.989999771118164,22.549999237060547,22.969999313354492,20.97409439086914,33700
2020-07-30,22.90999984741211,23.135000228881836,22.809999465942383,23.049999237060547,21.047142028808594,45900
2020-07-31,23.01799964904785,23.299999237060547,22.90999984741211,23.299999237060547,21.27541732788086,19600
2020-08-03,23.389999389648438,23.389999389648438,22.989999771118164,23.100000381469727,21.092798233032227,22900
2020-08-04,23.100000381469727,23.149999618530273,22.892000198364258,23.09000015258789,21.08366584777832,16900
2020-08-05,23.040000915527344,23.32900047302246,22.972999572753906,23.280000686645508,21.257156372070312,27000
2020-08-06,22.850000381469727,23.229999542236328,22.850000381469727,23.100000381469727,21.092798233032227,14100
2020-08-07,22.886999130249023,23.309999465942383,22.8700008392334,23.270000457763672,21.24802589416504,13400
2020-08-10,23.329999923706055,23.389999389648438,23.1200008392334,23.350000381469727,21.321073532104492,19700
2020-08-11,23.389999389648438,23.389999389648438,23.25,23.299999237060547,21.27541732788086,22500
2020-08-12,23.299999237060547,23.649999618530273,23.280000686645508,23.6200008392334,21.567615509033203,44700
2020-08-13,24.0,24.0,23.5,23.850000381469727,21.77762794494629,38500
2020-08-14,24.1299991607666,24.1299991607666,23.149999618530273,23.670000076293945,21.613271713256836,30800
2020-08-17,23.68000030517578,23.899999618530273,23.600000381469727,23.8799991607666,21.805023193359375,19900
2020-08-18,24.0,24.125,23.885000228881836,24.06999969482422,21.978511810302734,44500
2020-08-19,24.1200008392334,24.389999389648438,24.079999923706055,24.270000457763672,22.1611328125,28600
2020-08-20,24.090999603271484,24.378000259399414,24.090999603271484,24.299999237060547,22.188528060913086,16700
2020-08-21,24.201000213623047,24.399999618530273,24.0,24.270000457763672,22.1611328125,28000
2020-08-24,24.100000381469727,24.135000228881836,23.700000762939453,23.700000762939453,21.640663146972656,50100
2020-08-25,23.56999969482422,23.683000564575195,23.110000610351562,23.110000610351562,21.101926803588867,40900
2020-08-26,23.34000015258789,23.489999771118164,22.969999313354492,23.360000610351562,21.3302059173584,28900
2020-08-27,23.270000457763672,23.959999084472656,23.079999923706055,23.68000030517578,21.622400283813477,21100
2020-08-28,23.709999084472656,23.959999084472656,23.700000762939453,23.790000915527344,21.722843170166016,15700
2020-08-31,23.979999542236328,23.979999542236328,23.079999923706055,23.729999542236328,21.668054580688477,23400
2020-09-01,23.72800064086914,23.729999542236328,23.520000457763672,23.6200008392334,21.567615509033203,14600
2020-09-02,23.729999542236328,23.729999542236328,23.100000381469727,23.40999984741211,21.37586212158203,23900
2020-09-03,23.3799991607666,23.447999954223633,23.139999389648438,23.139999389648438,21.129322052001953,12400
2020-09-04,23.290000915527344,23.43400001525879,23.0,23.18000030517578,21.165847778320312,18400
2020-09-08,23.360000610351562,23.360000610351562,23.200000762939453,23.2450008392334,21.22519874572754,19500
2020-09-09,23.219999313354492,23.5,23.149999618530273,23.299999237060547,21.27541732788086,29500
2020-09-10,23.469999313354492,23.489999771118164,23.350000381469727,23.350000381469727,21.321073532104492,6700
2020-09-11,23.3799991607666,23.600000381469727,23.3700008392334,23.469999313354492,21.430646896362305,7300
2020-09-14,23.600000381469727,23.889999389648438,23.5,23.600000381469727,21.549352645874023,10000
2020-09-15,23.889999389648438,23.959999084472656,23.579999923706055,23.700000762939453,21.640663146972656,56200
2020-09-16,23.899999618530273,24.139999389648438,23.791000366210938,24.139999389648438,22.042428970336914,19500
2020-09-17,23.940000534057617,24.110000610351562,23.760000228881836,24.110000610351562,22.015037536621094,9800
2020-09-18,24.139999389648438,24.139999389648438,23.90999984741211,24.1200008392334,22.024168014526367,11300
2020-09-21,24.079999923706055,24.139999389648438,23.950000762939453,24.1200008392334,22.024168014526367,16800
2020-09-22,24.139999389648438,24.3799991607666,24.139999389648438,24.3700008392334,22.2524471282959,13400
2020-09-23,24.3799991607666,24.399999618530273,24.100000381469727,24.149999618530273,22.05156135559082,26000
2020-09-24,23.989999771118164,24.1200008392334,23.360000610351562,24.100000381469727,22.00590705871582,55000
2020-09-25,24.100000381469727,24.299999237060547,23.979999542236328,24.1200008392334,22.024168014526367,16200
2020-09-28,24.325000762939453,24.636999130249023,24.325000762939453,24.420000076293945,22.298099517822266,32000
2020-09-29,24.469999313354492,24.589000701904297,24.450000762939453,24.450000762939453,22.32549476623535,42200
2020-09-30,24.55500030517578,24.600000381469727,24.280000686645508,24.280000686645508,22.170265197753906,64200
2020-10-01,24.59000015258789,24.59000015258789,24.290000915527344,24.530000686645508,22.39854621887207,20900
2020-10-02,24.299999237060547,24.299999237060547,23.799999237060547,24.280000686645508,22.60240936279297,16700
2020-10-05,24.25,24.290000915527344,23.90999984741211,24.030000686645508,22.36968231201172,30700
2020-10-06,24.229999542236328,24.25,24.0,24.239999771118164,22.565174102783203,16100
2020-10-07,24.1299991607666,24.200000762939453,24.030000686645508,24.049999237060547,22.3882999420166,21300
2020-10-08,24.204999923706055,24.34000015258789,24.204999923706055,24.229999542236328,22.555864334106445,8100
2020-10-09,24.27400016784668,24.27400016784668,24.030000686645508,24.1299991607666,22.4627742767334,14600
2020-10-12,24.06999969482422,24.06999969482422,23.799999237060547,24.010000228881836,22.35106658935547,14100
2020-10-13,24.049999237060547,24.149999618530273,24.0,24.110000610351562,22.44415855407715,17800
2020-10-14,24.0,24.149999618530273,23.979999542236328,24.047000885009766,22.38551139831543,25000
2020-10-15,23.989999771118164,24.132999420166016,23.8799991607666,24.040000915527344,22.37899398803711,8000
2020-10-16,24.049999237060547,24.149999618530273,24.049999237060547,24.100000381469727,22.43484878540039,25300
2020-10-19,24.048999786376953,24.09000015258789,24.020000457763672,24.09000015258789,22.425540924072266,35400
2020-10-20,24.09000015258789,24.209999084472656,24.0,24.170000076293945,22.500009536743164,18500
2020-10-21,24.200000762939453,24.239999771118164,24.100000381469727,24.219999313354492,22.546554565429688,21700
2020-10-22,24.09000015258789,24.309999465942383,24.049999237060547,24.25,22.57448387145996,10800
2020-10-23,24.174999237060547,24.22100067138672,24.100000381469727,24.110000610351562,22.44415855407715,7200
2020-10-26,24.1200008392334,24.13599967956543,23.98200035095215,24.0,22.34175682067871,19400
2020-10-27,24.030000686645508,24.09000015258789,23.850000381469727,23.889999389648438,22.239356994628906,31600
2020-10-28,23.90999984741211,23.90999984741211,23.110000610351562,23.540000915527344,21.91353988647461,26600
2020-10-29,23.56999969482422,23.700000762939453,23.417999267578125,23.450000762939453,21.82975959777832,14100
2020-10-30,23.459999084472656,23.850000381469727,23.459999084472656,23.850000381469727,22.20212173461914,25700
2020-11-02,24.0,24.0,23.649999618530273,23.809999465942383,22.164884567260742,37100
2020-11-03,23.854999542236328,24.0,23.850000381469727,23.959999084472656,22.304519653320312,9300
2020-11-04,23.885000228881836,24.100000381469727,23.799999237060547,23.989999771118164,22.332447052001953,15300
2020-11-05,23.959999084472656,24.049999237060547,23.8799991607666,24.0,22.34175682067871,12500
2020-11-06,24.0,24.0,23.809999465942383,23.889999389648438,22.239356994628906,12500
2020-11-09,24.079999923706055,24.479999542236328,23.989999771118164,24.459999084472656,22.76997184753418,26000
2020-11-10,24.329999923706055,24.989999771118164,24.2450008392334,24.940000534057617,23.21681022644043,19300
2020-11-11,24.950000762939453,25.114999771118164,24.674999237060547,24.950000762939453,23.226118087768555,42000
2020-11-12,25.010000228881836,25.049999237060547,24.625999450683594,24.969999313354492,23.244733810424805,19900
2020-11-13,24.899999618530273,25.0,24.899999618530273,24.940000534057617,23.21681022644043,18100
2020-11-16,24.899999618530273,25.0,24.799999237060547,24.959999084472656,23.23542594909668,35700
2020-11-17,24.959999084472656,25.01799964904785,24.861000061035156,24.93000030517578,23.207500457763672,12000
2020-11-18,24.93000030517578,24.989999771118164,24.8799991607666,24.90999984741211,23.188880920410156,51900
2020-11-19,24.920000076293945,24.930999755859375,24.850000381469727,24.889999389648438,23.170263290405273,16100
2020-11-20,24.86400032043457,24.889999389648438,24.829999923706055,24.829999923706055,23.114408493041992,43100
2020-11-23,24.799999237060547,24.889999389648438,24.75,24.8799991607666,23.160953521728516,23300
2020-11-24,24.889999389648438,24.969999313354492,24.780000686645508,24.889999389648438,23.170263290405273,66000
2020-11-25,24.8700008392334,24.899999618530273,24.350000381469727,24.84000015258789,23.123720169067383,29100
2020-11-27,24.829999923706055,24.979999542236328,24.829999923706055,24.905000686645508,23.18422508239746,11600
2020-11-30,24.850000381469727,24.889999389648438,24.76300048828125,24.889999389648438,23.170263290405273,25800
2020-12-01,24.950000762939453,24.990999221801758,24.899999618530273,24.954999923706055,23.230772018432617,11900
2020-12-02,24.799999237060547,24.989999771118164,24.799999237060547,24.889999389648438,23.170263290405273,32400
2020-12-03,24.8799991607666,24.964000701904297,24.700000762939453,24.900999069213867,23.180503845214844,22300
2020-12-04,24.899999618530273,25.049999237060547,24.899999618530273,25.049999237060547,23.319210052490234,20600
2020-12-07,25.010000228881836,25.149999618530273,24.899999618530273,25.149999618530273,23.41230010986328,17600
2020-12-08,25.1299991607666,25.260000228881836,25.1299991607666,25.1299991607666,23.393680572509766,18300
2020-12-09,25.128000259399414,25.360000610351562,24.860000610351562,25.360000610351562,23.607789993286133,18000
2020-12-10,25.139999389648438,25.299999237060547,25.0,25.149999618530273,23.41230010986328,10500
2020-12-11,25.149999618530273,25.187999725341797,25.0,25.040000915527344,23.309900283813477,10900
2020-12-14,25.1299991607666,25.399999618530273,25.040000915527344,25.350000381469727,23.598480224609375,32200
2020-12-15,25.350000381469727,25.450000762939453,25.350000381469727,25.360000610351562,23.607789993286133,28800
2020-12-16,25.309999465942383,25.514999389648438,25.309999465942383,25.450000762939453,23.691570281982422,15900
2020-12-17,25.459999084472656,25.5,25.360000610351562,25.360000610351562,23.607789993286133,11000
2020-12-18,25.5,25.520000457763672,25.3799991607666,25.520000457763672,23.756732940673828,12300
2020-12-21,25.5,25.5,25.270000457763672,25.489999771118164,23.72880744934082,15000
2020-12-22,25.3799991607666,25.469999313354492,25.280000686645508,25.399999618530273,23.6450252532959,12200
2020-12-23,25.45800018310547,25.489999771118164,25.270000457763672,25.299999237060547,23.55193519592285,11000
2020-12-24,25.399999618530273,25.489999771118164,25.354999542236328,25.479999542236328,23.719497680664062,6200
2020-12-28,25.510000228881836,25.719999313354492,25.361000061035156,25.700000762939453,23.924299240112305,25300
2020-12-29,25.739999771118164,25.739999771118164,25.559999465942383,25.56999969482422,23.803279876708984,12600
2020-12-30,25.566999435424805,25.566999435424805,25.459999084472656,25.5,23.738115310668945,25300
