Date,Open,High,Low,Close,Adj Close,Volume
2019-09-27,25.0,25.0,24.799999237060547,24.90999984741211,21.66197395324707,6105500
2019-09-30,24.940000534057617,25.1299991607666,24.920000076293945,25.049999237060547,21.783720016479492,1281500
2019-10-01,25.049999237060547,25.079999923706055,24.979999542236328,25.049999237060547,21.783720016479492,983100
2019-10-02,25.100000381469727,25.100000381469727,24.979999542236328,25.040000915527344,21.775022506713867,362200
2019-10-03,25.049999237060547,25.149999618530273,25.0,25.139999389648438,21.861982345581055,369500
2019-10-04,25.149999618530273,25.200000762939453,25.100000381469727,25.110000610351562,21.835895538330078,329800
2019-10-07,25.139999389648438,25.149999618530273,25.059999465942383,25.1200008392334,21.844593048095703,466500
2019-10-08,25.1200008392334,25.25,25.110000610351562,25.25,21.9576416015625,404100
2019-10-09,25.25,25.290000915527344,25.200000762939453,25.25,21.9576416015625,169200
2019-10-10,25.25,25.270000457763672,25.100000381469727,25.110000610351562,21.835895538330078,231700
2019-10-11,25.149999618530273,25.170000076293945,25.06999969482422,25.06999969482422,21.801111221313477,184900
2019-10-14,25.1299991607666,25.190000534057617,25.100000381469727,25.18000030517578,21.89676856994629,118400
2019-10-15,25.18000030517578,25.229999542236328,25.1200008392334,25.190000534057617,21.90546417236328,164500
2019-10-16,25.229999542236328,25.229999542236328,25.1200008392334,25.18000030517578,21.89676856994629,178400
2019-10-17,25.170000076293945,25.229999542236328,25.149999618530273,25.229999542236328,21.940248489379883,164300
2019-10-18,25.239999771118164,25.239999771118164,25.15999984741211,25.170000076293945,21.888071060180664,31400
2019-10-21,25.200000762939453,25.209999084472656,25.149999618530273,25.149999618530273,21.87067985534668,246300
2019-10-22,25.200000762939453,25.200000762939453,25.15999984741211,25.18000030517578,21.89676856994629,135100
2019-10-23,25.200000762939453,25.280000686645508,25.183000564575195,25.239999771118164,21.948944091796875,153500
2019-10-24,25.270000457763672,25.399999618530273,25.25,25.399999618530273,22.088083267211914,123200
2019-10-25,25.360000610351562,25.40999984741211,25.299999237060547,25.399999618530273,22.088083267211914,170500
2019-10-28,25.3700008392334,25.420000076293945,25.25,25.420000076293945,22.1054744720459,327000
2019-10-29,25.34000015258789,25.459999084472656,25.34000015258789,25.434999465942383,22.118520736694336,161300
2019-10-30,25.41200065612793,25.649999618530273,25.350000381469727,25.649999618530273,22.30548667907715,400300
2019-10-31,25.524999618530273,25.81999969482422,25.5,25.729999542236328,22.37505340576172,1894700
2019-11-01,25.610000610351562,25.649999618530273,25.510000228881836,25.549999237060547,22.21851921081543,90900
2019-11-04,25.540000915527344,25.56999969482422,25.450000762939453,25.514999389648438,22.188085556030273,121600
2019-11-05,25.5,25.524999618530273,25.450000762939453,25.4950008392334,22.170696258544922,85100
2019-11-06,25.489999771118164,25.600000381469727,25.450000762939453,25.540000915527344,22.20982551574707,250700
2019-11-07,25.509000778198242,25.59000015258789,25.399999618530273,25.579999923706055,22.244611740112305,101400
2019-11-08,25.542999267578125,25.68899917602539,25.513999938964844,25.632999420166016,22.29070281982422,91900
2019-11-11,25.68000030517578,25.700000762939453,25.63599967956543,25.639999389648438,22.29678726196289,22200
2019-11-12,25.6299991607666,25.700000762939453,25.610000610351562,25.639999389648438,22.29678726196289,39500
2019-11-13,25.639999389648438,25.639999389648438,25.5,25.549999237060547,22.21851921081543,66700
2019-11-14,25.559999465942383,25.600000381469727,25.510000228881836,25.579999923706055,22.244611740112305,100600
2019-11-15,25.549999237060547,25.649999618530273,25.5,25.625,22.283742904663086,30800
2019-11-18,25.600000381469727,25.618000030517578,25.549999237060547,25.59000015258789,22.25330924987793,61700
2019-11-19,25.55500030517578,25.58300018310547,25.5,25.549999237060547,22.21851921081543,48500
2019-11-20,25.540000915527344,25.700000762939453,25.5,25.649999618530273,22.30548667907715,57000
2019-11-21,25.54599952697754,25.700000762939453,25.54599952697754,25.684999465942383,22.335918426513672,39800
2019-11-22,25.674999237060547,25.700000762939453,25.56999969482422,25.700000762939453,22.34896469116211,60800
2019-11-25,25.64299964904785,25.75,25.549999237060547,25.6200008392334,22.27939796447754,65100
2019-11-26,25.63599967956543,25.799999237060547,25.579999923706055,25.75,22.392446517944336,77900
2019-11-27,25.729999542236328,25.75,25.59000015258789,25.649999618530273,22.30548667907715,216700
2019-11-29,25.649999618530273,25.649999618530273,25.579999923706055,25.579999923706055,22.244611740112305,68100
2019-12-02,25.59000015258789,25.639999389648438,25.549999237060547,25.610000610351562,22.27069854736328,24700
2019-12-03,25.589000701904297,25.780000686645508,25.56999969482422,25.59000015258789,22.25330924987793,273400
2019-12-04,25.600000381469727,25.739999771118164,25.540000915527344,25.729999542236328,22.37505340576172,66700
2019-12-05,25.739999771118164,25.770000457763672,25.59000015258789,25.75,22.392446517944336,91700
2019-12-06,25.700000762939453,25.760000228881836,25.649999618530273,25.760000228881836,22.401140213012695,12700
2019-12-09,25.71299934387207,25.75,25.59000015258789,25.690000534057617,22.340269088745117,52700
2019-12-10,25.683000564575195,25.739999771118164,25.56999969482422,25.600000381469727,22.262004852294922,60300
2019-12-11,25.600000381469727,25.600000381469727,25.530000686645508,25.600000381469727,22.262004852294922,52200
2019-12-12,25.600000381469727,25.610000610351562,25.5,25.579999923706055,22.244611740112305,92700
2019-12-13,25.559999465942383,25.670000076293945,25.520000457763672,25.600000381469727,22.262004852294922,132200
2019-12-16,25.600000381469727,25.829999923706055,25.600000381469727,25.760000228881836,22.401140213012695,63200
2019-12-17,25.84000015258789,25.889999389648438,25.725000381469727,25.889999389648438,22.514188766479492,46200
2019-12-18,25.979999542236328,25.979999542236328,25.780000686645508,25.920000076293945,22.540281295776367,107300
2019-12-19,25.860000610351562,25.889999389648438,25.78499984741211,25.889999389648438,22.514188766479492,64300
2019-12-20,25.899999618530273,25.950000762939453,25.8700008392334,25.899999618530273,22.52288818359375,60100
2019-12-23,25.910999298095703,25.989999771118164,25.88800048828125,25.979999542236328,22.59245491027832,42100
2019-12-24,25.969999313354492,26.0,25.850000381469727,25.959999084472656,22.575063705444336,22700
2019-12-26,25.829999923706055,26.0,25.829999923706055,25.899999618530273,22.52288818359375,76500
2019-12-27,25.8799991607666,25.959999084472656,25.8700008392334,25.959999084472656,22.575063705444336,17600
2019-12-30,25.510000228881836,25.6299991607666,25.510000228881836,25.590999603271484,22.655624389648438,42200
2019-12-31,25.58799934387207,25.739999771118164,25.58799934387207,25.649999618530273,22.707857131958008,28600
2020-01-02,25.70199966430664,25.889999389648438,25.66699981689453,25.799999237060547,22.84065055847168,49500
2020-01-03,25.850000381469727,25.850000381469727,25.75,25.81999969482422,22.85835838317871,17000
2020-01-06,25.799999237060547,25.850000381469727,25.649999618530273,25.68000030517578,22.734418869018555,44300
2020-01-07,25.739999771118164,25.93000030517578,25.65999984741211,25.739999771118164,22.78753662109375,165800
2020-01-08,25.739999771118164,25.920000076293945,25.68199920654297,25.8700008392334,22.902626037597656,127300
2020-01-09,25.80500030517578,25.850000381469727,25.68000030517578,25.729999542236328,22.778682708740234,72200
2020-01-10,25.709999084472656,25.8799991607666,25.709999084472656,25.8700008392334,22.902626037597656,20900
2020-01-13,25.799999237060547,25.836000442504883,25.739999771118164,25.75,22.796388626098633,21000
2020-01-14,25.780000686645508,25.81999969482422,25.739999771118164,25.760000228881836,22.805240631103516,26300
2020-01-15,25.729999542236328,25.8700008392334,25.719999313354492,25.8700008392334,22.902626037597656,47900
2020-01-16,25.815000534057617,25.8700008392334,25.709999084472656,25.760000228881836,22.805240631103516,45500
2020-01-17,25.799999237060547,26.09000015258789,25.700000762939453,26.059999465942383,23.07082748413086,114000
2020-01-21,26.0,26.079999923706055,25.920000076293945,26.079999923706055,23.08853530883789,26400
2020-01-22,26.59000015258789,26.59000015258789,26.049999237060547,26.079999923706055,23.08853530883789,24300
2020-01-23,26.09000015258789,26.09000015258789,25.850000381469727,25.899999618530273,22.929182052612305,47600
2020-01-24,25.899999618530273,26.0,25.899999618530273,25.969999313354492,22.991151809692383,12300
2020-01-27,25.965999603271484,25.979999542236328,25.850000381469727,25.860000610351562,22.893770217895508,41400
2020-01-28,25.979999542236328,25.982999801635742,25.790000915527344,25.860000610351562,22.893770217895508,38200
2020-01-29,25.8799991607666,25.8799991607666,25.760000228881836,25.84000015258789,22.87606430053711,172000
2020-01-30,25.84000015258789,26.0,25.84000015258789,25.93000030517578,22.955739974975586,38100
2020-01-31,25.993000030517578,26.030000686645508,25.950000762939453,25.950000762939453,22.973445892333984,47000
2020-02-03,26.020000457763672,26.149999618530273,26.014999389648438,26.070999145507812,23.080568313598633,23000
2020-02-04,26.25,26.25,25.829999923706055,25.8700008392334,22.902626037597656,174400
2020-02-05,25.920000076293945,26.020000457763672,25.8700008392334,26.01799964904785,23.033645629882812,100200
2020-02-06,25.954999923706055,25.989999771118164,25.90999984741211,25.989999771118164,23.00885772705078,76100
2020-02-07,26.040000915527344,26.040000915527344,25.979999542236328,26.010000228881836,23.02656364440918,83900
2020-02-10,26.0,26.030000686645508,26.0,26.010000228881836,23.02656364440918,59400
2020-02-11,26.010000228881836,26.020000457763672,25.950000762939453,26.0,23.017711639404297,66800
2020-02-12,26.0,26.0,25.920000076293945,25.979999542236328,23.0000057220459,20000
2020-02-13,25.989999771118164,26.040000915527344,25.93000030517578,26.040000915527344,23.053125381469727,31000
2020-02-14,26.049999237060547,26.049999237060547,25.8799991607666,25.940000534057617,22.964595794677734,21100
2020-02-18,25.889999389648438,25.989999771118164,25.860000610351562,25.90999984741211,22.938039779663086,20600
2020-02-19,25.899999618530273,25.989999771118164,25.809999465942383,25.8799991607666,22.911476135253906,28300
2020-02-20,25.854999542236328,25.989999771118164,25.809999465942383,25.950000762939453,22.973445892333984,25500
2020-02-21,25.920000076293945,25.989999771118164,25.860000610351562,25.940000534057617,22.964595794677734,44500
2020-02-24,25.889999389648438,25.889999389648438,25.77899932861328,25.8700008392334,22.902626037597656,38800
2020-02-25,25.940000534057617,25.940000534057617,25.739999771118164,25.860000610351562,22.893770217895508,69200
2020-02-26,25.93000030517578,25.93000030517578,25.516000747680664,25.75,22.796388626098633,70400
2020-02-27,25.739999771118164,25.739999771118164,25.030000686645508,25.260000228881836,22.362592697143555,147200
2020-02-28,25.25,25.299999237060547,24.709999084472656,24.709999084472656,21.87567710876465,201200
2020-03-02,24.780000686645508,25.280000686645508,24.780000686645508,25.149999618530273,22.265209197998047,73900
2020-03-03,25.149999618530273,25.479999542236328,25.149999618530273,25.25,22.353740692138672,32700
2020-03-04,25.393999099731445,25.649999618530273,25.270000457763672,25.639999389648438,22.699005126953125,58500
2020-03-05,25.469999313354492,25.604999542236328,25.329999923706055,25.389999389648438,22.477678298950195,34800
2020-03-06,25.200000762939453,25.290000915527344,25.040000915527344,25.100000381469727,22.220945358276367,56800
2020-03-09,24.649999618530273,24.989999771118164,24.299999237060547,24.399999618530273,21.60123634338379,191000
2020-03-10,24.889999389648438,24.889999389648438,23.700000762939453,23.90999984741211,21.167442321777344,143500
2020-03-11,23.989999771118164,24.3700008392334,22.600000381469727,22.645000457763672,20.04754066467285,172100
2020-03-12,20.3799991607666,22.489999771118164,18.1299991607666,18.809999465942383,16.65242576599121,522600
2020-03-13,19.049999237060547,20.486000061035156,18.731000900268555,19.600000381469727,17.35181427001953,172500
2020-03-16,19.299999237060547,19.549999237060547,18.100000381469727,18.149999618530273,16.068130493164062,255900
2020-03-17,19.0,19.0,16.219999313354492,16.5,14.607393264770508,179900
2020-03-18,16.0,16.0,8.869999885559082,10.489999771118164,9.286761283874512,721000
2020-03-19,11.0,17.690000534057617,11.0,16.079999923706055,14.23556900024414,533700
2020-03-20,16.100000381469727,16.55500030517578,14.6899995803833,15.350000381469727,13.589303016662598,898800
2020-03-23,15.5,15.579999923706055,13.460000038146973,15.029999732971191,13.306007385253906,565900
2020-03-24,15.5,17.450000762939453,15.5,15.680000305175781,13.881451606750488,382800
2020-03-25,16.25,18.700000762939453,16.010000228881836,16.989999771118164,15.041190147399902,466000
2020-03-26,17.549999237060547,20.75,17.549999237060547,20.059999465942383,17.759048461914062,490700
2020-03-27,19.68000030517578,20.889999389648438,19.110000610351562,20.559999465942383,18.201698303222656,638600
2020-03-30,20.190000534057617,20.440000534057617,19.059999465942383,19.399999618530273,17.174753189086914,167000
2020-03-31,19.100000381469727,19.1200008392334,18.139999389648438,18.5,16.728069305419922,305400
2020-04-01,17.850000381469727,18.170000076293945,16.969999313354492,17.350000381469727,15.688216209411621,420300
2020-04-02,17.299999237060547,18.260000228881836,16.790000915527344,18.229999542236328,16.483930587768555,765500
2020-04-03,18.329999923706055,18.450000762939453,16.989999771118164,18.260000228881836,16.511058807373047,240700
2020-04-06,19.010000228881836,21.139999389648438,19.010000228881836,20.889999389648438,18.8891544342041,295100
2020-04-07,21.3799991607666,21.700000762939453,20.83799934387207,21.59000015258789,19.52210807800293,186300
2020-04-08,21.989999771118164,22.440000534057617,21.709999084472656,22.239999771118164,20.109853744506836,187500
2020-04-09,22.790000915527344,22.790000915527344,21.799999237060547,21.889999389648438,19.793373107910156,521600
2020-04-13,22.170000076293945,22.170000076293945,20.469999313354492,20.889999389648438,18.8891544342041,483000
2020-04-14,21.020000457763672,21.5,20.65999984741211,20.780000686645508,18.789691925048828,324500
2020-04-15,20.5,20.600000381469727,19.530000686645508,19.959999084472656,18.04823112487793,389800
2020-04-16,20.450000762939453,20.670000076293945,19.760000228881836,20.600000381469727,18.62693214416504,131200
2020-04-17,21.200000762939453,21.790000915527344,20.8799991607666,21.75,19.666786193847656,200900
2020-04-20,21.06999969482422,21.950000762939453,21.06999969482422,21.549999237060547,19.48594093322754,82200
2020-04-21,21.399999618530273,21.8700008392334,20.950000762939453,21.799999237060547,19.71199607849121,110500
2020-04-22,21.968000411987305,21.968000411987305,21.389999389648438,21.440000534057617,19.386476516723633,92100
2020-04-23,21.510000228881836,21.729999542236328,21.399999618530273,21.43000030517578,19.37743377685547,61600
2020-04-24,21.40999984741211,21.5,21.06999969482422,21.31999969482422,19.27796745300293,80300
2020-04-27,21.59000015258789,21.59000015258789,21.40999984741211,21.5,19.440731048583984,47800
2020-04-28,21.75,22.128999710083008,21.649999618530273,21.979999542236328,19.874755859375,98500
2020-04-29,21.88800048828125,22.280000686645508,21.88800048828125,22.229999542236328,20.100811004638672,153800
2020-04-30,22.0,22.700000762939453,22.0,22.450000762939453,20.299739837646484,132500
2020-05-01,22.0,22.350000381469727,22.0,22.219999313354492,20.091768264770508,50800
2020-05-04,21.969999313354492,22.25,21.969999313354492,22.0,19.892839431762695,55200
2020-05-05,22.350000381469727,22.433000564575195,22.0,22.110000610351562,19.992305755615234,36500
2020-05-06,22.270000457763672,22.270000457763672,22.0,22.18000030517578,20.055601119995117,52400
2020-05-07,22.18000030517578,22.540000915527344,22.18000030517578,22.299999237060547,20.164106369018555,36900
2020-05-08,22.549999237060547,22.600000381469727,22.334999084472656,22.489999771118164,20.335906982421875,34300
2020-05-11,22.549999237060547,22.549999237060547,22.0,22.1200008392334,20.0013484954834,68400
2020-05-12,22.200000762939453,22.200000762939453,21.850000381469727,21.899999618530273,19.802417755126953,91200
2020-05-13,21.809999465942383,21.81999969482422,21.110000610351562,21.3700008392334,19.32318115234375,58600
2020-05-14,21.059999465942383,21.440000534057617,20.65999984741211,21.270000457763672,19.232759475708008,50400
2020-05-15,21.260000228881836,21.649999618530273,21.200000762939453,21.450000762939453,19.395519256591797,92700
2020-05-18,22.010000228881836,22.049999237060547,21.5,21.882999420166016,19.787046432495117,71600
2020-05-19,21.84000015258789,22.219999313354492,21.760000228881836,21.950000762939453,19.847631454467773,35600
2020-05-20,22.049999237060547,22.207000732421875,22.010000228881836,22.06999969482422,19.95613670349121,29600
2020-05-21,22.079999923706055,22.204999923706055,21.979999542236328,21.989999771118164,19.88379669189453,41700
2020-05-22,22.1200008392334,22.170000076293945,21.81999969482422,22.0,19.892839431762695,175700
2020-05-26,22.200000762939453,22.530000686645508,22.200000762939453,22.360000610351562,20.218358993530273,22400
2020-05-27,22.5,22.540000915527344,22.25,22.43000030517578,20.28165626525879,27900
2020-05-28,22.479999542236328,22.479999542236328,22.290000915527344,22.34000015258789,20.200275421142578,32500
2020-05-29,22.3799991607666,22.469999313354492,22.31999969482422,22.350000381469727,20.209320068359375,15000
2020-06-01,22.389999389648438,22.649999618530273,22.389999389648438,22.5,20.344951629638672,244900
2020-06-02,22.43000030517578,22.549999237060547,22.420000076293945,22.5,20.344951629638672,28700
2020-06-03,22.739999771118164,22.739999771118164,22.40999984741211,22.459999084472656,20.308780670166016,88300
2020-06-04,22.43000030517578,22.649999618530273,22.43000030517578,22.510000228881836,20.353994369506836,102100
2020-06-05,22.860000610351562,22.860000610351562,22.459999084472656,22.799999237060547,20.616214752197266,97900
2020-06-08,22.799999237060547,23.108999252319336,22.799999237060547,23.100000381469727,20.887481689453125,53400
2020-06-09,23.0,23.0,22.739999771118164,22.90999984741211,20.715679168701172,55100
2020-06-10,22.950000762939453,23.219999313354492,22.790000915527344,23.079999923706055,20.869396209716797,52900
2020-06-11,22.889999389648438,22.889999389648438,22.40999984741211,22.420000076293945,20.272613525390625,91200
2020-06-12,22.790000915527344,22.790000915527344,22.010000228881836,22.450000762939453,20.299739837646484,97800
2020-06-15,22.270000457763672,22.559999465942383,22.020000457763672,22.559999465942383,20.399202346801758,48400
2020-06-16,22.81999969482422,22.81999969482422,22.454999923706055,22.6299991607666,20.462495803833008,44400
2020-06-17,22.520000457763672,22.600000381469727,22.329999923706055,22.389999389648438,20.245485305786133,32800
2020-06-18,22.31999969482422,22.399999618530273,22.1299991607666,22.149999618530273,20.028474807739258,29200
2020-06-19,22.31999969482422,22.459999084472656,22.20800018310547,22.270000457763672,20.136981964111328,45700
2020-06-22,22.149999618530273,22.360000610351562,22.049999237060547,22.270000457763672,20.136981964111328,44800
2020-06-23,22.389999389648438,22.540000915527344,22.31999969482422,22.540000915527344,20.381120681762695,28400
2020-06-24,22.5,22.5,22.110000610351562,22.280000686645508,20.14602279663086,50300
2020-06-25,22.010000228881836,22.25,22.010000228881836,22.149999618530273,20.028474807739258,39000
2020-06-26,22.1200008392334,22.1200008392334,21.84000015258789,22.06999969482422,19.95613670349121,51500
2020-06-29,22.06999969482422,22.13800048828125,21.739999771118164,21.959999084472656,19.856670379638672,44100
2020-06-30,21.670000076293945,22.049999237060547,21.485000610351562,21.639999389648438,19.93589973449707,144400
2020-07-01,21.649999618530273,21.81999969482422,21.59000015258789,21.729999542236328,20.018808364868164,131900
2020-07-02,21.850000381469727,21.8700008392334,21.3700008392334,21.549999237060547,19.852985382080078,107700
2020-07-06,21.670000076293945,21.770000457763672,21.579999923706055,21.670000076293945,19.963537216186523,19500
2020-07-07,21.632999420166016,21.739999771118164,21.493999481201172,21.549999237060547,19.852985382080078,30300
2020-07-08,21.729999542236328,21.950000762939453,21.489999771118164,21.920000076293945,20.193849563598633,46900
2020-07-09,21.729999542236328,21.93000030517578,21.690000534057617,21.75,20.0372371673584,20600
2020-07-10,21.639999389648438,21.90999984741211,21.489999771118164,21.860000610351562,20.138574600219727,31700
2020-07-13,21.860000610351562,21.969999313354492,21.614999771118164,21.860000610351562,20.138574600219727,41600
2020-07-14,21.65999984741211,21.8700008392334,21.649999618530273,21.829999923706055,20.110937118530273,26900
2020-07-15,21.969999313354492,22.1299991607666,21.924999237060547,22.059999465942383,20.322826385498047,48400
2020-07-16,22.0,22.290000915527344,21.945999145507812,22.170000076293945,20.424163818359375,16500
2020-07-17,22.170000076293945,22.31999969482422,22.059999465942383,22.25,20.49786376953125,30800
2020-07-20,22.209999084472656,22.415000915527344,22.18899917602539,22.40999984741211,20.645263671875,13900
2020-07-21,22.489999771118164,22.639999389648438,22.361000061035156,22.479999542236328,20.709749221801758,80000
2020-07-22,22.461999893188477,22.565000534057617,22.31999969482422,22.530000686645508,20.755815505981445,48900
2020-07-23,22.510000228881836,22.6299991607666,22.469999313354492,22.6299991607666,20.847936630249023,28700
2020-07-24,22.420000076293945,22.65999984741211,22.389999389648438,22.549999237060547,20.77423667907715,59800
2020-07-27,22.5,22.65999984741211,22.5,22.649999618530273,20.866363525390625,28000
2020-07-28,22.639999389648438,22.850000381469727,22.600000381469727,22.610000610351562,20.82951545715332,85500
2020-07-29,22.690000534057617,22.81999969482422,22.649999618530273,22.81999969482422,21.02297592163086,14900
2020-07-30,22.809999465942383,22.809999465942383,22.55500030517578,22.600000381469727,20.820301055908203,37000
2020-07-31,22.75,22.780000686645508,22.56999969482422,22.719999313354492,20.930850982666016,29500
2020-08-03,22.77899932861328,22.950000762939453,22.725000381469727,22.864999771118164,21.06443214416504,21200
2020-08-04,22.790000915527344,22.940000534057617,22.709999084472656,22.75,20.95848846435547,101200
2020-08-05,22.709999084472656,22.850000381469727,22.709999084472656,22.770000457763672,20.97691535949707,13300
2020-08-06,22.799999237060547,22.850000381469727,22.770000457763672,22.829999923706055,21.032188415527344,10900
2020-08-07,22.770000457763672,22.93000030517578,22.770000457763672,22.850000381469727,21.050613403320312,46000
2020-08-10,23.0,23.125,22.959999084472656,23.09000015258789,21.27171516418457,59400
2020-08-11,23.1200008392334,23.264999389648438,23.110000610351562,23.18000030517578,21.35462760925293,83000
2020-08-12,23.479999542236328,23.479999542236328,23.239999771118164,23.25,21.41911506652832,29500
2020-08-13,23.25,23.399999618530273,23.200000762939453,23.200000762939453,21.3730525970459,23400
2020-08-14,23.209999084472656,23.299999237060547,23.209999084472656,23.280000686645508,21.446752548217773,16000
2020-08-17,23.299999237060547,23.5,23.200000762939453,23.5,21.649429321289062,74300
2020-08-18,23.40999984741211,23.5,23.270000457763672,23.399999618530273,21.55730438232422,73300
2020-08-19,23.3700008392334,23.549999237060547,23.25,23.530000686645508,21.677066802978516,33900
2020-08-20,23.459999084472656,23.739999771118164,23.459999084472656,23.559999465942383,21.70470428466797,19900
2020-08-21,23.670000076293945,23.670000076293945,23.489999771118164,23.525999069213867,21.673381805419922,22400
2020-08-24,23.600000381469727,23.700000762939453,23.56999969482422,23.690000534057617,21.824466705322266,22600
2020-08-25,23.56999969482422,23.655000686645508,23.389999389648438,23.40999984741211,21.566516876220703,32600
2020-08-26,23.5,23.600000381469727,23.43000030517578,23.520000457763672,21.66785430908203,36000
2020-08-27,23.450000762939453,23.579999923706055,23.43000030517578,23.43000030517578,21.584941864013672,21000
2020-08-28,23.59000015258789,23.59000015258789,23.43000030517578,23.469999313354492,21.62179183959961,28200
2020-08-31,23.46299934387207,23.5,23.299999237060547,23.299999237060547,21.465177536010742,57800
2020-09-01,23.309999465942383,23.56999969482422,23.290000915527344,23.520000457763672,21.66785430908203,40100
2020-09-02,23.43000030517578,23.540000915527344,23.25,23.450000762939453,21.603364944458008,40600
2020-09-03,23.450000762939453,23.520000457763672,23.290000915527344,23.420000076293945,21.575727462768555,125500
2020-09-04,23.479999542236328,23.510000228881836,23.239999771118164,23.450000762939453,21.603364944458008,27500
2020-09-08,23.520000457763672,23.719999313354492,23.270000457763672,23.450000762939453,21.603364944458008,97200
2020-09-09,23.584999084472656,23.68600082397461,23.399999618530273,23.635000228881836,21.77379608154297,57700
2020-09-10,23.56999969482422,23.56999969482422,23.450000762939453,23.565000534057617,21.70931053161621,38600
2020-09-11,23.51099967956543,23.559999465942383,23.3799991607666,23.3799991607666,21.538877487182617,36200
2020-09-14,23.43000030517578,23.600000381469727,23.399999618530273,23.549999237060547,21.695491790771484,36300
2020-09-15,23.510000228881836,23.600000381469727,23.450000762939453,23.489999771118164,21.640214920043945,59900
2020-09-16,23.489999771118164,23.989999771118164,23.40999984741211,23.489999771118164,21.640214920043945,34600
2020-09-17,23.59000015258789,23.67099952697754,23.399999618530273,23.459999084472656,21.612577438354492,33400
2020-09-18,24.0,24.0,23.5,23.6200008392334,21.759981155395508,25300
2020-09-21,23.520000457763672,23.6200008392334,23.399999618530273,23.43000030517578,21.584941864013672,35500
2020-09-22,23.399999618530273,23.549999237060547,23.399999618530273,23.459999084472656,21.612577438354492,32100
2020-09-23,23.420000076293945,23.450000762939453,23.18000030517578,23.194000244140625,21.367525100708008,87100
2020-09-24,23.06999969482422,23.3799991607666,23.06999969482422,23.209999084472656,21.382265090942383,69800
2020-09-25,23.270000457763672,23.389999389648438,23.200000762939453,23.326000213623047,21.489131927490234,29500
2020-09-28,23.43000030517578,23.5,23.399999618530273,23.43000030517578,21.584941864013672,37600
2020-09-29,23.299999237060547,23.474000930786133,23.16699981689453,23.31999969482422,21.48360252380371,61900
2020-09-30,23.059999465942383,23.06999969482422,22.780000686645508,22.780000686645508,21.357967376708984,84600
2020-10-01,22.8799991607666,22.920000076293945,22.690000534057617,22.81999969482422,21.395469665527344,25100
2020-10-02,22.59000015258789,22.940000534057617,22.59000015258789,22.780000686645508,21.357967376708984,26800
2020-10-05,22.8700008392334,23.0,22.799999237060547,22.799999237060547,21.376718521118164,28100
2020-10-06,22.75,22.93000030517578,22.65999984741211,22.739999771118164,21.320463180541992,35200
2020-10-07,22.959999084472656,23.100000381469727,22.700000762939453,22.770000457763672,21.34859275817871,37200
2020-10-08,22.649999618530273,22.937000274658203,22.649999618530273,22.81999969482422,21.395469665527344,33500
2020-10-09,22.8799991607666,22.885000228881836,22.700000762939453,22.809999465942383,21.386093139648438,29500
2020-10-12,22.809999465942383,22.900999069213867,22.760000228881836,22.799999237060547,21.376718521118164,17500
2020-10-13,22.799999237060547,22.8799991607666,22.739999771118164,22.760000228881836,21.339216232299805,15300
2020-10-14,22.889999389648438,23.0,22.649999618530273,22.709999084472656,21.292333602905273,50700
2020-10-15,22.59000015258789,22.700000762939453,22.59000015258789,22.649999618530273,21.236082077026367,27400
2020-10-16,22.700000762939453,22.8700008392334,22.683000564575195,22.8700008392334,21.442350387573242,53200
2020-10-19,22.899999618530273,22.940000534057617,22.770000457763672,22.940000534057617,21.507980346679688,46700
2020-10-20,22.950000762939453,23.030000686645508,22.940000534057617,22.979999542236328,21.545480728149414,30500
2020-10-21,22.850000381469727,23.020000457763672,22.850000381469727,22.8799991607666,21.451723098754883,26300
2020-10-22,22.969999313354492,23.0,22.861000061035156,22.959999084472656,21.526729583740234,16800
2020-10-23,22.969999313354492,22.969999313354492,22.690000534057617,22.75,21.3298397064209,81700
2020-10-26,22.75,22.780000686645508,22.40999984741211,22.549999237060547,21.142322540283203,67900
2020-10-27,22.639999389648438,22.700000762939453,22.479999542236328,22.6200008392334,21.207956314086914,28700
2020-10-28,22.520000457763672,22.56999969482422,22.15999984741211,22.15999984741211,20.776668548583984,55300
2020-10-29,22.202999114990234,22.43000030517578,22.149999618530273,22.209999084472656,20.823549270629883,94800
2020-10-30,22.350000381469727,22.350000381469727,21.959999084472656,22.170000076293945,20.786046981811523,112900
2020-11-02,22.079999923706055,22.309999465942383,21.950000762939453,22.0,20.626659393310547,62400
2020-11-03,22.0,22.200000762939453,21.950000762939453,21.989999771118164,20.617280960083008,41800
2020-11-04,22.100000381469727,22.343000411987305,21.8700008392334,22.0,20.626659393310547,252300
2020-11-05,22.100000381469727,22.299999237060547,21.959999084472656,22.030000686645508,20.65478515625,385500
2020-11-06,22.100000381469727,22.139999389648438,21.8799991607666,21.899999618530273,20.532901763916016,97300
2020-11-09,22.219999313354492,22.389999389648438,22.040000915527344,22.260000228881836,20.87042808532715,98100
2020-11-10,22.270000457763672,22.579999923706055,22.1200008392334,22.540000915527344,21.132949829101562,118600
2020-11-11,22.59000015258789,22.639999389648438,22.06999969482422,22.209999084472656,20.823549270629883,264100
2020-11-12,22.139999389648438,22.270000457763672,22.0,22.09000015258789,20.711040496826172,224900
2020-11-13,22.110000610351562,22.290000915527344,22.040000915527344,22.190000534057617,20.804798126220703,217800
2020-11-16,22.290000915527344,22.540000915527344,22.270000457763672,22.510000228881836,21.10482406616211,214000
2020-11-17,22.469999313354492,22.75,22.40999984741211,22.540000915527344,21.132949829101562,136400
2020-11-18,22.639999389648438,22.809999465942383,22.530000686645508,22.700000762939453,21.282962799072266,187600
2020-11-19,22.6299991607666,22.84000015258789,22.6299991607666,22.799999237060547,21.376718521118164,73400
2020-11-20,22.790000915527344,22.829999923706055,22.6200008392334,22.6200008392334,21.207956314086914,108200
2020-11-23,22.780000686645508,23.0,22.739999771118164,22.950000762939453,21.51735496520996,110100
2020-11-24,23.0,23.25,22.90999984741211,23.040000915527344,21.60173797607422,156100
2020-11-25,23.059999465942383,23.200000762939453,22.860000610351562,23.09000015258789,21.648616790771484,33900
2020-11-27,23.200000762939453,23.200000762939453,23.100000381469727,23.190000534057617,21.742374420166016,14600
2020-11-30,23.200000762939453,23.25,23.110000610351562,23.110000610351562,21.66736602783203,115100
2020-12-01,23.149999618530273,23.440000534057617,23.149999618530273,23.3700008392334,21.911136627197266,134000
2020-12-02,23.440000534057617,23.489999771118164,23.239999771118164,23.479999542236328,22.014270782470703,51900
2020-12-03,23.440000534057617,23.549999237060547,23.350000381469727,23.5,22.033021926879883,90700
2020-12-04,23.5,23.600000381469727,23.475000381469727,23.549999237060547,22.07990074157715,89300
2020-12-07,23.600000381469727,23.8799991607666,23.530000686645508,23.770000457763672,22.28616714477539,172200
2020-12-08,23.829999923706055,23.950000762939453,23.809999465942383,23.899999618530273,22.408050537109375,74300
2020-12-09,23.940000534057617,23.969999313354492,23.857999801635742,23.950000762939453,22.454931259155273,35700
2020-12-10,23.899999618530273,23.950000762939453,23.860000610351562,23.950000762939453,22.454931259155273,49100
2020-12-11,23.950000762939453,23.969999313354492,23.860000610351562,23.950000762939453,22.454931259155273,28700
2020-12-14,23.989999771118164,24.0,23.83099937438965,23.889999389648438,22.3986759185791,42400
2020-12-15,23.940000534057617,24.059999465942383,23.940000534057617,24.059999465942383,22.558063507080078,30900
2020-12-16,24.020000457763672,24.229999542236328,23.940000534057617,24.229999542236328,22.717451095581055,53600
2020-12-17,24.329999923706055,24.329999923706055,24.0,24.31999969482422,22.80183219909668,30600
2020-12-18,24.350000381469727,24.350000381469727,24.049999237060547,24.260000228881836,22.74557876586914,47800
2020-12-21,24.25,24.350000381469727,23.979999542236328,24.34000015258789,22.82058334350586,132000
2020-12-22,24.139999389648438,24.450000762939453,24.1299991607666,24.350000381469727,22.829959869384766,44100
2020-12-23,24.350000381469727,24.5,24.200000762939453,24.5,22.970598220825195,56000
2020-12-24,24.3799991607666,24.690000534057617,24.3799991607666,24.610000610351562,23.07373046875,41500
2020-12-28,24.700000762939453,24.979999542236328,24.608999252319336,24.90999984741211,23.35500144958496,92100
2020-12-29,24.93000030517578,24.950000762939453,24.764999389648438,24.940000534057617,23.383127212524414,65100
2020-12-30,24.709999084472656,24.760000228881836,24.509000778198242,24.760000228881836,23.598527908325195,31400
