Date,Open,High,Low,Close,Adj Close,Volume
2019-10-25,12.350000381469727,12.5600004196167,7.190000057220459,10.029999732971191,10.029999732971191,775900
2019-10-28,9.3100004196167,9.800000190734863,8.180000305175781,9.350000381469727,9.350000381469727,98600
2019-10-29,9.739999771118164,9.800000190734863,8.920999526977539,9.210000038146973,9.210000038146973,43400
2019-10-30,8.300000190734863,9.270000457763672,8.270000457763672,8.800000190734863,8.800000190734863,44200
2019-10-31,8.800000190734863,8.800000190734863,8.800000190734863,8.800000190734863,8.800000190734863,0
2019-11-01,8.725000381469727,8.725000381469727,8.270000457763672,8.369999885559082,8.369999885559082,91700
2019-11-04,8.359999656677246,8.4399995803833,8.100000381469727,8.34000015258789,8.34000015258789,70200
2019-11-05,8.380000114440918,8.59000015258789,8.300000190734863,8.329999923706055,8.329999923706055,66300
2019-11-06,8.300000190734863,8.399999618530273,8.079999923706055,8.220000267028809,8.220000267028809,77800
2019-11-07,8.4399995803833,8.550000190734863,8.260000228881836,8.3100004196167,8.3100004196167,72300
2019-11-08,8.593999862670898,8.593999862670898,8.289999961853027,8.380000114440918,8.380000114440918,71600
2019-11-11,8.350000381469727,8.465999603271484,8.185999870300293,8.390000343322754,8.390000343322754,75300
2019-11-12,8.3100004196167,8.449999809265137,8.15999984741211,8.15999984741211,8.15999984741211,63500
2019-11-13,8.170000076293945,8.300000190734863,8.024999618530273,8.210000038146973,8.210000038146973,43200
2019-11-14,8.020000457763672,8.131999969482422,7.199999809265137,7.599999904632568,7.599999904632568,35300
2019-11-15,7.380000114440918,7.380000114440918,6.889999866485596,6.949999809265137,6.949999809265137,81000
2019-11-18,7.150000095367432,7.159999847412109,7.0,7.099999904632568,7.099999904632568,82600
2019-11-19,7.239999771118164,7.400000095367432,7.099999904632568,7.139999866485596,7.139999866485596,105100
2019-11-20,7.159999847412109,7.480000019073486,6.159999847412109,6.389999866485596,6.389999866485596,115400
2019-11-21,6.449999809265137,6.46999979019165,6.119999885559082,6.400000095367432,6.400000095367432,80800
2019-11-22,6.25,6.420000076293945,6.25,6.409999847412109,6.409999847412109,54400
2019-11-25,6.5,6.800000190734863,6.5,6.630000114440918,6.630000114440918,45500
2019-11-26,6.710000038146973,6.960000038146973,6.693999767303467,6.800000190734863,6.800000190734863,45200
2019-11-27,6.789999961853027,7.099999904632568,6.769999980926514,6.869999885559082,6.869999885559082,78400
2019-11-29,6.920000076293945,7.099999904632568,6.760000228881836,6.869999885559082,6.869999885559082,48400
2019-12-02,6.710000038146973,6.840000152587891,6.579999923706055,6.579999923706055,6.579999923706055,75600
2019-12-03,6.604000091552734,6.669000148773193,6.489999771118164,6.590000152587891,6.590000152587891,42400
2019-12-04,6.5,6.820000171661377,6.489999771118164,6.754000186920166,6.754000186920166,40700
2019-12-05,6.730000019073486,6.78000020980835,6.340000152587891,6.679999828338623,6.679999828338623,70100
2019-12-06,6.639999866485596,6.864999771118164,6.380000114440918,6.815999984741211,6.815999984741211,100800
2019-12-09,6.920000076293945,6.966000080108643,6.5,6.739999771118164,6.739999771118164,100400
2019-12-10,6.599999904632568,6.900000095367432,6.320000171661377,6.659999847412109,6.659999847412109,127500
2019-12-11,6.630000114440918,6.78000020980835,6.590000152587891,6.664999961853027,6.664999961853027,115400
2019-12-12,6.630000114440918,6.894999980926514,6.255000114440918,6.480000019073486,6.480000019073486,75100
2019-12-13,6.71999979019165,6.760000228881836,6.355000019073486,6.429999828338623,6.429999828338623,52700
2019-12-16,6.440000057220459,6.610000133514404,6.260000228881836,6.340000152587891,6.340000152587891,51800
2019-12-17,6.500999927520752,6.599999904632568,6.099999904632568,6.269999980926514,6.269999980926514,48200
2019-12-18,6.2210001945495605,6.820000171661377,6.151000022888184,6.769999980926514,6.769999980926514,72200
2019-12-19,6.75,6.75,6.159999847412109,6.53000020980835,6.53000020980835,120100
2019-12-20,6.539999961853027,6.880000114440918,6.5,6.570000171661377,6.570000171661377,69600
2019-12-23,6.690000057220459,6.84499979019165,6.349999904632568,6.390999794006348,6.390999794006348,63200
2019-12-24,6.460000038146973,6.5,6.090000152587891,6.190000057220459,6.190000057220459,65900
2019-12-26,6.239999771118164,6.449999809265137,6.170000076293945,6.25,6.25,22000
2019-12-27,6.300000190734863,6.46999979019165,6.160999774932861,6.400000095367432,6.400000095367432,61300
2019-12-30,6.300000190734863,6.75,6.0320000648498535,6.28000020980835,6.28000020980835,106700
2019-12-31,6.201000213623047,6.684999942779541,6.110000133514404,6.420000076293945,6.420000076293945,62300
2020-01-02,6.400000095367432,6.550000190734863,6.230000019073486,6.489999771118164,6.489999771118164,81000
2020-01-03,6.46999979019165,7.2210001945495605,6.329999923706055,6.828000068664551,6.828000068664551,121800
2020-01-06,6.980000019073486,6.980000019073486,6.480000019073486,6.570000171661377,6.570000171661377,72700
2020-01-07,6.5,7.0,6.5,6.610000133514404,6.610000133514404,117300
2020-01-08,6.739999771118164,6.849999904632568,6.329999923706055,6.460000038146973,6.460000038146973,72800
2020-01-09,6.460000038146973,6.599999904632568,6.309999942779541,6.429999828338623,6.429999828338623,37400
2020-01-10,6.429999828338623,6.579999923706055,6.349999904632568,6.449999809265137,6.449999809265137,43700
2020-01-13,6.550000190734863,6.849999904632568,6.309999942779541,6.570000171661377,6.570000171661377,130500
2020-01-14,6.579999923706055,7.132999897003174,6.53000020980835,7.059999942779541,7.059999942779541,114600
2020-01-15,7.0,7.940000057220459,7.0,7.519999980926514,7.519999980926514,101000
2020-01-16,7.739999771118164,8.649999618530273,7.630000114440918,8.079999923706055,8.079999923706055,167400
2020-01-17,8.220000267028809,8.460000038146973,8.0,8.130000114440918,8.130000114440918,98900
2020-01-21,8.100000381469727,8.100000381469727,7.519999980926514,7.730000019073486,7.730000019073486,88100
2020-01-22,7.769999980926514,8.180000305175781,7.619999885559082,7.71999979019165,7.71999979019165,106500
2020-01-23,7.730000019073486,7.929999828338623,7.447000026702881,7.630000114440918,7.630000114440918,98000
2020-01-24,7.65500020980835,8.050000190734863,7.329999923706055,7.650000095367432,7.650000095367432,116400
2020-01-27,7.510000228881836,7.510000228881836,7.159999847412109,7.199999809265137,7.199999809265137,79700
2020-01-28,7.300000190734863,7.550000190734863,7.28000020980835,7.429999828338623,7.429999828338623,63000
2020-01-29,7.489999771118164,7.869999885559082,7.46999979019165,7.550000190734863,7.550000190734863,69400
2020-01-30,7.550000190734863,7.769999980926514,7.539999961853027,7.619999885559082,7.619999885559082,42500
2020-01-31,7.610000133514404,7.650000095367432,7.099999904632568,7.300000190734863,7.300000190734863,62300
2020-02-03,7.21999979019165,7.5,7.099999904632568,7.150000095367432,7.150000095367432,48800
2020-02-04,7.260000228881836,7.449999809265137,7.199999809265137,7.380000114440918,7.380000114440918,37800
2020-02-05,7.5,7.760000228881836,7.400000095367432,7.610000133514404,7.610000133514404,77500
2020-02-06,7.710000038146973,7.909999847412109,7.550000190734863,7.769999980926514,7.769999980926514,99500
2020-02-07,7.869999885559082,8.260000228881836,7.75,7.829999923706055,7.829999923706055,66300
2020-02-10,7.78000020980835,8.149999618530273,7.78000020980835,7.989999771118164,7.989999771118164,63700
2020-02-11,8.010000228881836,8.199999809265137,8.0,8.0,8.0,75400
2020-02-12,8.039999961853027,8.050000190734863,7.889999866485596,7.960000038146973,7.960000038146973,46700
2020-02-13,8.0,8.300000190734863,7.909999847412109,8.069999694824219,8.069999694824219,101400
2020-02-14,8.140000343322754,8.175000190734863,7.289999961853027,7.715000152587891,7.715000152587891,131100
2020-02-18,7.75,7.869999885559082,7.480000019073486,7.590000152587891,7.590000152587891,62300
2020-02-19,7.590000152587891,7.829999923706055,7.514999866485596,7.699999809265137,7.699999809265137,75900
2020-02-20,7.639999866485596,7.900000095367432,7.53000020980835,7.820000171661377,7.820000171661377,106700
2020-02-21,7.860000133514404,7.909999847412109,7.639999866485596,7.670000076293945,7.670000076293945,79300
2020-02-24,7.489999771118164,7.739999771118164,7.440000057220459,7.53000020980835,7.53000020980835,93600
2020-02-25,7.599999904632568,7.619999885559082,7.239999771118164,7.340000152587891,7.340000152587891,84000
2020-02-26,7.46999979019165,7.570000171661377,7.360000133514404,7.449999809265137,7.449999809265137,74800
2020-02-27,7.400000095367432,7.590000152587891,7.130000114440918,7.5,7.5,87300
2020-02-28,7.420000076293945,7.682000160217285,7.119999885559082,7.570000171661377,7.570000171661377,105900
2020-03-02,7.650000095367432,8.288999557495117,7.579999923706055,8.119999885559082,8.119999885559082,178500
2020-03-03,8.170000076293945,8.720999717712402,8.010000228881836,8.270000457763672,8.270000457763672,214900
2020-03-04,8.493000030517578,9.5600004196167,8.416999816894531,9.479999542236328,9.479999542236328,180100
2020-03-05,9.359999656677246,10.45300006866455,9.359999656677246,10.279999732971191,10.279999732971191,227200
2020-03-06,10.199999809265137,10.657999992370605,9.609999656677246,10.010000228881836,10.010000228881836,177300
2020-03-09,9.569999694824219,10.199999809265137,9.199999809265137,9.510000228881836,9.510000228881836,158000
2020-03-10,9.609999656677246,9.890000343322754,9.46500015258789,9.75,9.75,156000
2020-03-11,10.050000190734863,10.210000038146973,9.300000190734863,9.579999923706055,9.579999923706055,268500
2020-03-12,9.029999732971191,9.859999656677246,9.029999732971191,9.529999732971191,9.529999732971191,183900
2020-03-13,9.859999656677246,9.90999984741211,9.550000190734863,9.59000015258789,9.59000015258789,106000
2020-03-16,9.350000381469727,10.5600004196167,8.899999618530273,9.680000305175781,9.680000305175781,209100
2020-03-17,9.739999771118164,9.850000381469727,9.140000343322754,9.260000228881836,9.260000228881836,95100
2020-03-18,9.100000381469727,9.6899995803833,8.710000038146973,8.890000343322754,8.890000343322754,122300
2020-03-19,8.979999542236328,9.149999618530273,8.619999885559082,8.630000114440918,8.630000114440918,114100
2020-03-20,8.630000114440918,8.770000457763672,8.300000190734863,8.649999618530273,8.649999618530273,74100
2020-03-23,8.539999961853027,8.567999839782715,8.0,8.050000190734863,8.050000190734863,70600
2020-03-24,8.319999694824219,8.779999732971191,8.140000343322754,8.329999923706055,8.329999923706055,137000
2020-03-25,8.229999542236328,8.829999923706055,8.229999542236328,8.329999923706055,8.329999923706055,53000
2020-03-26,8.279999732971191,9.5,8.279999732971191,8.949999809265137,8.949999809265137,121400
2020-03-27,8.869999885559082,9.680000305175781,8.789999961853027,8.859999656677246,8.859999656677246,129600
2020-03-30,8.920000076293945,8.920000076293945,8.039999961853027,8.350000381469727,8.350000381469727,90700
2020-03-31,8.34000015258789,9.130000114440918,8.34000015258789,9.069999694824219,9.069999694824219,116800
2020-04-01,8.579999923706055,9.1899995803833,8.579999923706055,9.050000190734863,9.050000190734863,103200
2020-04-02,9.119999885559082,9.119999885559082,8.479999542236328,8.649999618530273,8.649999618530273,96700
2020-04-03,8.539999961853027,8.800000190734863,8.199999809265137,8.630000114440918,8.630000114440918,56800
2020-04-06,8.579999923706055,8.699999809265137,8.15999984741211,8.369999885559082,8.369999885559082,67400
2020-04-07,8.34000015258789,8.649999618530273,8.010000228881836,8.210000038146973,8.210000038146973,79500
2020-04-08,8.130000114440918,8.9399995803833,8.079999923706055,8.529999732971191,8.529999732971191,97000
2020-04-09,8.4399995803833,9.182000160217285,8.269000053405762,9.119999885559082,9.119999885559082,168000
2020-04-13,9.130000114440918,9.5,8.949999809265137,9.279999732971191,9.279999732971191,81800
2020-04-14,9.170000076293945,9.779999732971191,9.109999656677246,9.369999885559082,9.369999885559082,107500
2020-04-15,9.399999618530273,9.529999732971191,8.9399995803833,8.949999809265137,8.949999809265137,50400
2020-04-16,8.720000267028809,9.029999732971191,8.100000381469727,8.779999732971191,8.779999732971191,103100
2020-04-17,8.739999771118164,9.25,8.600000381469727,8.739999771118164,8.739999771118164,104500
2020-04-20,8.510000228881836,9.3100004196167,8.510000228881836,9.079999923706055,9.079999923706055,59900
2020-04-21,8.699999809265137,9.229999542236328,8.699999809265137,8.920000076293945,8.920000076293945,98600
2020-04-22,9.359999656677246,9.359999656677246,8.5,8.850000381469727,8.850000381469727,113400
2020-04-23,9.039999961853027,9.039999961853027,7.96999979019165,8.609999656677246,8.609999656677246,135000
2020-04-24,8.9399995803833,8.979999542236328,8.3100004196167,8.600000381469727,8.600000381469727,105500
2020-04-27,8.460000038146973,9.069999694824219,8.460000038146973,8.489999771118164,8.489999771118164,102200
2020-04-28,8.359999656677246,8.880000114440918,8.350000381469727,8.579999923706055,8.579999923706055,129000
2020-04-29,8.449999809265137,8.899999618530273,8.180000305175781,8.350000381469727,8.350000381469727,209700
2020-04-30,8.65999984741211,8.979999542236328,8.380000114440918,8.869999885559082,8.869999885559082,67000
2020-05-01,8.850000381469727,9.170000076293945,8.569999694824219,8.970000267028809,8.970000267028809,127600
2020-05-04,8.470000267028809,9.194000244140625,8.34000015258789,8.380000114440918,8.380000114440918,99800
2020-05-05,8.350000381469727,8.65999984741211,8.350000381469727,8.420000076293945,8.420000076293945,66300
2020-05-06,8.470000267028809,8.760000228881836,8.329999923706055,8.430000305175781,8.430000305175781,87200
2020-05-07,8.510000228881836,8.949999809265137,8.420000076293945,8.829999923706055,8.829999923706055,117900
2020-05-08,8.970000267028809,9.569999694824219,8.8100004196167,8.989999771118164,8.989999771118164,146900
2020-05-11,9.029999732971191,9.029999732971191,8.3100004196167,8.5600004196167,8.5600004196167,98600
2020-05-12,8.5,8.6899995803833,8.199999809265137,8.5600004196167,8.5600004196167,75300
2020-05-13,8.600000381469727,8.630000114440918,8.199999809265137,8.3100004196167,8.3100004196167,77200
2020-05-14,8.350000381469727,8.350000381469727,8.0,8.069999694824219,8.069999694824219,78400
2020-05-15,8.15999984741211,8.260000228881836,7.960000038146973,8.0,8.0,57400
2020-05-18,8.279999732971191,8.279999732971191,8.0,8.199999809265137,8.199999809265137,38700
2020-05-19,8.300000190734863,8.300000190734863,8.100000381469727,8.170000076293945,8.170000076293945,38300
2020-05-20,8.199999809265137,8.522000312805176,7.800000190734863,8.03499984741211,8.03499984741211,175000
2020-05-21,8.15999984741211,8.279999732971191,7.960000038146973,8.210000038146973,8.210000038146973,58100
2020-05-22,8.119999885559082,8.1899995803833,7.920000076293945,8.069999694824219,8.069999694824219,51700
2020-05-26,8.15999984741211,8.199999809265137,8.0,8.039999961853027,8.039999961853027,49700
2020-05-27,8.109999656677246,8.199999809265137,7.599999904632568,7.789999961853027,7.789999961853027,63800
2020-05-28,7.800000190734863,7.980000019073486,7.760000228881836,7.929999828338623,7.929999828338623,58200
2020-05-29,7.949999809265137,8.0600004196167,7.75,7.920000076293945,7.920000076293945,48300
2020-06-01,8.020000457763672,8.0600004196167,7.599999904632568,7.730000019073486,7.730000019073486,40700
2020-06-02,7.699999809265137,7.78000020980835,7.380000114440918,7.590000152587891,7.590000152587891,42900
2020-06-03,7.5,7.579999923706055,7.239999771118164,7.380000114440918,7.380000114440918,50200
2020-06-04,7.130000114440918,7.400000095367432,7.099999904632568,7.269999980926514,7.269999980926514,49900
2020-06-05,7.190000057220459,7.315999984741211,7.03000020980835,7.130000114440918,7.130000114440918,46500
2020-06-08,7.239999771118164,7.400000095367432,7.170000076293945,7.360000133514404,7.360000133514404,43600
2020-06-09,7.53000020980835,7.53000020980835,7.03000020980835,7.170000076293945,7.170000076293945,94700
2020-06-10,7.190000057220459,7.199999809265137,6.820000171661377,6.960000038146973,6.960000038146973,87700
2020-06-11,6.960000038146973,6.980000019073486,6.489999771118164,6.570000171661377,6.570000171661377,82400
2020-06-12,6.679999828338623,6.840000152587891,6.170000076293945,6.440000057220459,6.440000057220459,95900
2020-06-15,6.480000019073486,6.650000095367432,6.139999866485596,6.230000019073486,6.230000019073486,98200
2020-06-16,6.260000228881836,6.420000076293945,6.215000152587891,6.349999904632568,6.349999904632568,86100
2020-06-17,6.389999866485596,6.400000095367432,6.159999847412109,6.360000133514404,6.360000133514404,88100
2020-06-18,6.349999904632568,6.440000057220459,6.03000020980835,6.269999980926514,6.269999980926514,63100
2020-06-19,6.349999904632568,6.78000020980835,6.309999942779541,6.579999923706055,6.579999923706055,88100
2020-06-22,6.579999923706055,6.669000148773193,6.110000133514404,6.369999885559082,6.369999885559082,64200
2020-06-23,6.369999885559082,6.429999828338623,6.050000190734863,6.099999904632568,6.099999904632568,41600
2020-06-24,6.110000133514404,6.199999809265137,5.875,6.050000190734863,6.050000190734863,56200
2020-06-25,6.010000228881836,6.25,6.0,6.230000019073486,6.230000019073486,60900
2020-06-26,5.960000038146973,6.519999980926514,5.800000190734863,6.110000133514404,6.110000133514404,81300
2020-06-29,6.03000020980835,6.243000030517578,6.0,6.099999904632568,6.099999904632568,44200
2020-06-30,6.190000057220459,6.25,6.0,6.179999828338623,6.179999828338623,43900
2020-07-01,6.190000057220459,6.300000190734863,6.0,6.079999923706055,6.079999923706055,42700
2020-07-02,6.050000190734863,6.199999809265137,6.010000228881836,6.199999809265137,6.199999809265137,55300
2020-07-06,6.139999866485596,6.199999809265137,5.820000171661377,5.940000057220459,5.940000057220459,50500
2020-07-07,5.929999828338623,5.929999828338623,5.500999927520752,5.510000228881836,5.510000228881836,43700
2020-07-08,5.519999980926514,5.550000190734863,5.050000190734863,5.099999904632568,5.099999904632568,47000
2020-07-09,5.03000020980835,5.5,5.03000020980835,5.119999885559082,5.119999885559082,56500
2020-07-10,5.199999809265137,5.590000152587891,5.139999866485596,5.480000019073486,5.480000019073486,64400
2020-07-13,5.510000228881836,6.050000190734863,5.510000228881836,5.889999866485596,5.889999866485596,49200
2020-07-14,6.300000190734863,6.300000190734863,5.300000190734863,5.71999979019165,5.71999979019165,146700
2020-07-15,5.860000133514404,6.400000095367432,5.690000057220459,5.829999923706055,5.829999923706055,108000
2020-07-16,5.869999885559082,5.889999866485596,5.309999942779541,5.380000114440918,5.380000114440918,43300
2020-07-17,5.46999979019165,5.730000019073486,5.460000038146973,5.579999923706055,5.579999923706055,58900
2020-07-20,5.480000019073486,5.480000019073486,5.019999980926514,5.139999866485596,5.139999866485596,49900
2020-07-21,5.199999809265137,5.320000171661377,5.050000190734863,5.079999923706055,5.079999923706055,23900
2020-07-22,5.21999979019165,5.21999979019165,5.050000190734863,5.090000152587891,5.090000152587891,35300
2020-07-23,5.090000152587891,5.380000114440918,5.050000190734863,5.050000190734863,5.050000190734863,42800
2020-07-24,5.050000190734863,5.210000038146973,4.53000020980835,4.71999979019165,4.71999979019165,76200
2020-07-27,4.690000057220459,4.929999828338623,4.440000057220459,4.5,4.5,48800
2020-07-28,4.960000038146973,4.960000038146973,4.420000076293945,4.46999979019165,4.46999979019165,71400
2020-07-29,4.53000020980835,4.889999866485596,4.420000076293945,4.849999904632568,4.849999904632568,41900
2020-07-30,4.920000076293945,5.199999809265137,4.809999942779541,5.195000171661377,5.195000171661377,75700
2020-07-31,4.900000095367432,5.065000057220459,4.579999923706055,4.639999866485596,4.639999866485596,51100
2020-08-03,4.820000171661377,5.059999942779541,4.789999961853027,4.860000133514404,4.860000133514404,54500
2020-08-04,4.869999885559082,4.960000038146973,4.71999979019165,4.78000020980835,4.78000020980835,50500
2020-08-05,4.889999866485596,4.889999866485596,4.5,4.539999961853027,4.539999961853027,41800
2020-08-06,4.539999961853027,4.71999979019165,4.440000057220459,4.480000019073486,4.480000019073486,27600
2020-08-07,4.550000190734863,4.730000019073486,4.400000095367432,4.400000095367432,4.400000095367432,40900
2020-08-10,4.429999828338623,4.769999980926514,4.429999828338623,4.550000190734863,4.550000190734863,45200
2020-08-11,4.659999847412109,4.75,4.440000057220459,4.579999923706055,4.579999923706055,44300
2020-08-12,4.579999923706055,4.849999904632568,4.489999771118164,4.489999771118164,4.489999771118164,45200
2020-08-13,4.599999904632568,4.829999923706055,4.460000038146973,4.460000038146973,4.460000038146973,62000
2020-08-14,4.519999980926514,4.630000114440918,4.460000038146973,4.5,4.5,22200
2020-08-17,4.559999942779541,4.789999961853027,4.480000019073486,4.570000171661377,4.570000171661377,85800
2020-08-18,4.739999771118164,4.739999771118164,4.579999923706055,4.659999847412109,4.659999847412109,38200
2020-08-19,4.619999885559082,4.860000133514404,4.619999885559082,4.835000038146973,4.835000038146973,32700
2020-08-20,4.889999866485596,5.099999904632568,4.820000171661377,4.860000133514404,4.860000133514404,79600
2020-08-21,4.840000152587891,5.139999866485596,4.800000190734863,4.869999885559082,4.869999885559082,57800
2020-08-24,4.880000114440918,5.044000148773193,4.860000133514404,4.900000095367432,4.900000095367432,39500
2020-08-25,4.920000076293945,5.110000133514404,4.745999813079834,4.860000133514404,4.860000133514404,68200
2020-08-26,4.949999809265137,5.050000190734863,4.800000190734863,4.849999904632568,4.849999904632568,41300
2020-08-27,4.75,4.980000019073486,4.550000190734863,4.570000171661377,4.570000171661377,65800
2020-08-28,4.71999979019165,4.769999980926514,4.53000020980835,4.590000152587891,4.590000152587891,32600
2020-08-31,4.659999847412109,4.840000152587891,4.590000152587891,4.630000114440918,4.630000114440918,44300
2020-09-01,4.690000057220459,4.809999942779541,4.610000133514404,4.735000133514404,4.735000133514404,43800
2020-09-02,4.71999979019165,5.110000133514404,4.610000133514404,4.630000114440918,4.630000114440918,58600
2020-09-03,4.659999847412109,4.690000057220459,4.230000019073486,4.230000019073486,4.230000019073486,43200
2020-09-04,4.179999828338623,4.400000095367432,3.930000066757202,3.990000009536743,3.990000009536743,39700
2020-09-08,3.950000047683716,4.179999828338623,3.809999942779541,3.940000057220459,3.940000057220459,26200
2020-09-09,4.03000020980835,4.150000095367432,3.9600000381469727,4.03000020980835,4.03000020980835,30800
2020-09-10,4.070000171661377,4.260000228881836,4.070000171661377,4.130000114440918,4.130000114440918,32000
2020-09-11,4.190000057220459,4.369999885559082,3.9700000286102295,4.139999866485596,4.139999866485596,85400
2020-09-14,4.179999828338623,4.369999885559082,4.179999828338623,4.230000019073486,4.230000019073486,43600
2020-09-15,4.429999828338623,4.53000020980835,4.21999979019165,4.329999923706055,4.329999923706055,51300
2020-09-16,4.420000076293945,4.619999885559082,4.21999979019165,4.329999923706055,4.329999923706055,52000
2020-09-17,4.186999797821045,4.449999809265137,4.179999828338623,4.329999923706055,4.329999923706055,41700
2020-09-18,4.309999942779541,4.449999809265137,4.309999942779541,4.349999904632568,4.349999904632568,20400
2020-09-21,4.400000095367432,4.5,4.309999942779541,4.340000152587891,4.340000152587891,31300
2020-09-22,4.429999828338623,4.559999942779541,4.369999885559082,4.5,4.5,43000
2020-09-23,4.5,4.650000095367432,4.440000057220459,4.449999809265137,4.449999809265137,43600
2020-09-24,4.539999961853027,4.659999847412109,4.349999904632568,4.380000114440918,4.380000114440918,48300
2020-09-25,4.429999828338623,4.429999828338623,4.099999904632568,4.230000019073486,4.230000019073486,33500
2020-09-28,4.320000171661377,4.46999979019165,4.25,4.25,4.25,45100
2020-09-29,4.230000019073486,4.360000133514404,4.230000019073486,4.289999961853027,4.289999961853027,41800
2020-09-30,4.340000152587891,4.368000030517578,4.210000038146973,4.260000228881836,4.260000228881836,41300
2020-10-01,4.28000020980835,4.369999885559082,4.269999980926514,4.329999923706055,4.329999923706055,41900
2020-10-02,4.409999847412109,4.73199987411499,4.389999866485596,4.570000171661377,4.570000171661377,59900
2020-10-05,4.699999809265137,4.800000190734863,4.539999961853027,4.690000057220459,4.690000057220459,81200
2020-10-06,4.789999961853027,5.010000228881836,4.539999961853027,4.699999809265137,4.699999809265137,77800
2020-10-07,4.784999847412109,5.079999923706055,4.599999904632568,4.929999828338623,4.929999828338623,59800
2020-10-08,5.010000228881836,5.139999866485596,4.800000190734863,5.110000133514404,5.110000133514404,65400
2020-10-09,5.1529998779296875,5.449999809265137,4.913000106811523,5.340000152587891,5.340000152587891,87300
2020-10-12,5.349999904632568,5.679999828338623,5.300000190734863,5.53000020980835,5.53000020980835,74400
2020-10-13,5.78000020980835,6.190000057220459,5.630000114440918,6.190000057220459,6.190000057220459,135500
2020-10-14,6.190000057220459,6.5,6.031000137329102,6.170000076293945,6.170000076293945,104600
2020-10-15,6.28000020980835,6.456999778747559,5.960000038146973,6.340000152587891,6.340000152587891,80200
2020-10-16,6.25,6.900000095367432,6.019999980926514,6.855000019073486,6.855000019073486,143500
2020-10-19,6.880000114440918,7.489999771118164,6.550000190734863,7.449999809265137,7.449999809265137,292200
2020-10-20,7.079999923706055,7.730000019073486,7.050000190734863,7.5,7.5,95500
2020-10-21,7.5,7.5,6.710000038146973,7.039999961853027,7.039999961853027,136600
2020-10-22,6.940000057220459,7.03000020980835,5.489999771118164,5.800000190734863,5.800000190734863,118900
2020-10-23,5.960000038146973,6.320000171661377,5.730000019073486,5.909999847412109,5.909999847412109,65800
2020-10-26,5.909999847412109,6.050000190734863,5.659999847412109,6.010000228881836,6.010000228881836,48500
2020-10-27,5.920000076293945,5.920000076293945,5.329999923706055,5.489999771118164,5.489999771118164,51700
2020-10-28,5.429999828338623,5.764999866485596,5.429999828338623,5.619999885559082,5.619999885559082,42600
2020-10-29,5.550000190734863,5.599999904632568,5.210000038146973,5.570000171661377,5.570000171661377,54100
2020-10-30,5.659999847412109,5.75,5.539999961853027,5.579999923706055,5.579999923706055,53200
2020-11-02,5.619999885559082,5.639999866485596,5.25,5.349999904632568,5.349999904632568,40300
2020-11-03,5.449999809265137,5.559999942779541,5.34499979019165,5.440000057220459,5.440000057220459,42400
2020-11-04,5.619999885559082,5.619999885559082,5.199999809265137,5.199999809265137,5.199999809265137,48200
2020-11-05,5.360000133514404,5.699999809265137,5.269999980926514,5.579999923706055,5.579999923706055,78500
2020-11-06,5.679999828338623,5.988999843597412,5.679999828338623,5.829999923706055,5.829999923706055,57000
2020-11-09,6.059999942779541,6.360000133514404,5.690000057220459,5.820000171661377,5.820000171661377,72900
2020-11-10,5.860000133514404,5.900000095367432,5.579999923706055,5.599999904632568,5.599999904632568,48500
2020-11-11,5.489999771118164,5.699999809265137,5.309999942779541,5.340000152587891,5.340000152587891,55300
2020-11-12,5.5,5.5,5.239999771118164,5.309999942779541,5.309999942779541,47300
2020-11-13,5.440000057220459,5.440000057220459,5.210000038146973,5.239999771118164,5.239999771118164,42600
2020-11-16,5.239999771118164,5.420000076293945,5.150000095367432,5.190000057220459,5.190000057220459,48100
2020-11-17,5.244999885559082,5.25,5.039999961853027,5.050000190734863,5.050000190734863,53400
2020-11-18,5.179999828338623,5.190000057220459,4.710000038146973,4.820000171661377,4.820000171661377,49900
2020-11-19,4.849999904632568,4.909999847412109,4.599999904632568,4.75,4.75,46100
2020-11-20,4.989999771118164,4.989999771118164,4.75,4.849999904632568,4.849999904632568,50200
2020-11-23,4.760000228881836,5.010000228881836,4.739999771118164,4.739999771118164,4.739999771118164,49900
2020-11-24,4.710000038146973,5.0,4.710000038146973,4.980000019073486,4.980000019073486,35400
2020-11-25,4.920000076293945,5.260000228881836,4.860000133514404,5.230000019073486,5.230000019073486,44600
2020-11-27,5.210000038146973,5.880000114440918,5.210000038146973,5.739999771118164,5.739999771118164,63100
2020-11-30,5.809999942779541,6.28000020980835,5.75,6.150000095367432,6.150000095367432,131800
2020-12-01,6.090000152587891,6.176000118255615,5.300000190734863,5.519999980926514,5.519999980926514,104600
2020-12-02,5.130000114440918,5.360000133514404,4.945000171661377,5.190000057220459,5.190000057220459,81400
2020-12-03,5.269999980926514,5.519999980926514,4.869999885559082,5.139999866485596,5.139999866485596,78800
2020-12-04,5.090000152587891,5.349999904632568,5.070000171661377,5.21999979019165,5.21999979019165,47500
2020-12-07,5.21999979019165,5.289999961853027,5.010000228881836,5.050000190734863,5.050000190734863,61900
2020-12-08,5.099999904632568,5.265999794006348,5.010000228881836,5.039999961853027,5.039999961853027,54300
2020-12-09,5.159999847412109,5.159999847412109,4.949999809265137,5.019999980926514,5.019999980926514,72000
2020-12-10,5.150000095367432,5.150000095367432,4.795000076293945,4.940000057220459,4.940000057220459,82500
2020-12-11,5.0,5.0,4.460000038146973,4.460000038146973,4.460000038146973,148700
2020-12-14,4.489999771118164,4.980000019073486,4.489999771118164,4.599999904632568,4.599999904632568,119400
2020-12-15,4.639999866485596,4.9029998779296875,4.580999851226807,4.699999809265137,4.699999809265137,106400
2020-12-16,4.659999847412109,4.679999828338623,4.300000190734863,4.489999771118164,4.489999771118164,150700
2020-12-17,4.610000133514404,4.940000057220459,4.400000095367432,4.940000057220459,4.940000057220459,128100
2020-12-18,4.929999828338623,5.360000133514404,4.769999980926514,4.889999866485596,4.889999866485596,140600
2020-12-21,4.820000171661377,4.900000095367432,4.434999942779541,4.550000190734863,4.550000190734863,166900
2020-12-22,4.550000190734863,4.755000114440918,4.440000057220459,4.559999942779541,4.559999942779541,111800
2020-12-23,4.579999923706055,4.900000095367432,4.559999942779541,4.590000152587891,4.590000152587891,113300
2020-12-24,4.539999961853027,4.860000133514404,4.400000095367432,4.690000057220459,4.690000057220459,107900
2020-12-28,4.631999969482422,5.070000171661377,4.550000190734863,4.789999961853027,4.789999961853027,352900
2020-12-29,4.739999771118164,4.744999885559082,4.400000095367432,4.489999771118164,4.489999771118164,105000
2020-12-30,4.53000020980835,4.96999979019165,4.425000190734863,4.829999923706055,4.829999923706055,194600
