Date,Open,High,Low,Close,Adj Close,Volume
2020-12-15,36.0,39.790000915527344,35.9900016784668,37.95000076293945,36.85444259643555,2393600
2020-12-16,38.16999816894531,40.31999969482422,37.5099983215332,39.849998474121094,38.699588775634766,6522700
2020-12-17,39.20000076293945,40.999000549316406,38.959999084472656,39.15999984741211,38.029510498046875,1957900
2020-12-18,39.290000915527344,39.290000915527344,37.0,37.25,36.17464828491211,27123600
2020-12-21,37.0,38.849998474121094,36.7400016784668,38.790000915527344,37.67019271850586,2033400
2020-12-22,39.0,39.13999938964844,37.90999984741211,38.470001220703125,37.359432220458984,991800
2020-12-23,38.97999954223633,38.97999954223633,38.11000061035156,38.20000076293945,37.09722900390625,1604900
2020-12-24,38.63999938964844,38.79999923706055,37.220001220703125,37.939998626708984,36.844730377197266,456700
2020-12-28,37.91999816894531,38.599998474121094,37.83000183105469,38.36000061035156,37.252601623535156,1326100
2020-12-29,38.400001525878906,38.790000915527344,37.90999984741211,38.0,36.90299987792969,1013900
2020-12-30,37.91999816894531,38.65999984741211,37.86000061035156,38.38999938964844,37.281742095947266,668800
