Date,Open,High,Low,Close,Adj Close,Volume
2017-05-26,135.0,137.6999969482422,131.6999969482422,133.1999969482422,133.1999969482422,1510
2017-05-30,132.0,132.0,124.2300033569336,125.0999984741211,125.0999984741211,2650
2017-05-31,123.30000305175781,129.36000061035156,123.30000305175781,127.5,127.5,1697
2017-06-01,126.9000015258789,133.77000427246094,126.9000015258789,129.89999389648438,129.89999389648438,1450
2017-06-02,129.89999389648438,133.32000732421875,127.5,128.10000610351562,128.10000610351562,2117
2017-06-05,128.39999389648438,129.1199951171875,123.30000305175781,124.19999694824219,124.19999694824219,1113
2017-06-06,122.69999694824219,126.30000305175781,122.69999694824219,123.5999984741211,123.5999984741211,1370
2017-06-07,125.0999984741211,125.0999984741211,117.0,121.5,121.5,1520
2017-06-08,119.4000015258789,121.80000305175781,114.5999984741211,119.4000015258789,119.4000015258789,2093
2017-06-09,118.5,125.4000015258789,117.0,121.5,121.5,2013
2017-06-12,120.0,123.9000015258789,116.4000015258789,116.69999694824219,116.69999694824219,2023
2017-06-13,117.5999984741211,125.25,117.12000274658203,124.5,124.5,1223
2017-06-14,123.51000213623047,123.93000030517578,117.0,119.69999694824219,119.69999694824219,1043
2017-06-15,119.4000015258789,122.97000122070312,116.4000015258789,117.5999984741211,117.5999984741211,1410
2017-06-16,116.4000015258789,118.58999633789062,104.25,106.19999694824219,106.19999694824219,5233
2017-06-19,108.30000305175781,119.69999694824219,108.0,119.69999694824219,119.69999694824219,1977
2017-06-20,120.0,120.30000305175781,110.0999984741211,112.19999694824219,112.19999694824219,1760
2017-06-21,112.19999694824219,119.0999984741211,108.0,114.0,114.0,3327
2017-06-22,116.69999694824219,119.4000015258789,115.80000305175781,117.9000015258789,117.9000015258789,1150
2017-06-23,118.5,120.0,108.9000015258789,108.9000015258789,108.9000015258789,26737
2017-06-26,108.9000015258789,111.9000015258789,105.30000305175781,108.0,108.0,2633
2017-06-27,107.4000015258789,107.69999694824219,103.5,104.0999984741211,104.0999984741211,3213
2017-06-28,103.5,104.0999984741211,98.4000015258789,98.69999694824219,98.69999694824219,3743
2017-06-29,98.4000015258789,103.5,89.0999984741211,89.4000015258789,89.4000015258789,8017
2017-06-30,94.19999694824219,98.33999633789062,87.0,96.0,96.0,2573
2017-07-03,90.0,102.0,88.0199966430664,97.19999694824219,97.19999694824219,2073
2017-07-05,94.80000305175781,99.30000305175781,93.9000015258789,95.4000015258789,95.4000015258789,857
2017-07-06,97.80000305175781,99.1500015258789,89.69999694824219,90.0,90.0,1843
2017-07-07,93.0,93.1500015258789,90.4800033569336,90.5999984741211,90.5999984741211,997
2017-07-10,90.5999984741211,92.0999984741211,83.22000122070312,84.0,84.0,4210
2017-07-11,84.0,86.0999984741211,81.0,81.0,81.0,1970
2017-07-12,82.5,85.80000305175781,76.80000305175781,77.69999694824219,77.69999694824219,2477
2017-07-13,78.30000305175781,82.80000305175781,71.4000015258789,79.80000305175781,79.80000305175781,2743
2017-07-14,81.30000305175781,83.0999984741211,79.80000305175781,81.0,81.0,1467
2017-07-17,79.80000305175781,81.9000015258789,78.0,78.9000015258789,78.9000015258789,850
2017-07-18,77.4000015258789,77.8499984741211,72.0,72.5999984741211,72.5999984741211,3210
2017-07-19,72.30000305175781,77.69999694824219,72.30000305175781,75.0,75.0,1167
2017-07-20,74.4000015258789,75.18000030517578,71.55000305175781,74.0999984741211,74.0999984741211,540
2017-07-21,73.5,75.0,71.69999694824219,74.4000015258789,74.4000015258789,793
2017-07-24,73.80000305175781,73.80000305175781,70.5,73.5,73.5,1643
2017-07-25,73.19999694824219,87.0,70.5,87.0,87.0,4887
2017-07-26,88.5,88.5,81.0,84.0,84.0,2473
2017-07-27,82.80000305175781,87.30000305175781,80.4000015258789,87.30000305175781,87.30000305175781,877
2017-07-28,86.4000015258789,86.4000015258789,77.4000015258789,80.69999694824219,80.69999694824219,1863
2017-07-31,80.69999694824219,81.44999694824219,75.30000305175781,75.5999984741211,75.5999984741211,1193
2017-08-01,75.0,77.69999694824219,69.5999984741211,70.5,70.5,1440
2017-08-02,73.80000305175781,73.80000305175781,66.9000015258789,67.5,67.5,1450
2017-08-03,67.5,73.80000305175781,67.5,72.0,72.0,1567
2017-08-04,68.4000015258789,73.80000305175781,67.5,68.4000015258789,68.4000015258789,1413
2017-08-07,68.0999984741211,73.5,68.0999984741211,72.0,72.0,887
2017-08-08,73.19999694824219,73.19999694824219,69.0,72.0,72.0,617
2017-08-09,70.5,73.5,67.5,67.5,67.5,1017
2017-08-10,67.62000274658203,71.91000366210938,67.5,68.69999694824219,68.69999694824219,1030
2017-08-11,68.0999984741211,69.9000015258789,66.5999984741211,69.9000015258789,69.9000015258789,747
2017-08-14,69.5999984741211,70.19999694824219,66.5999984741211,69.30000305175781,69.30000305175781,660
2017-08-15,66.5999984741211,69.77999877929688,61.290000915527344,62.70000076293945,62.70000076293945,2183
2017-08-16,63.45000076293945,66.5999984741211,62.70000076293945,65.0999984741211,65.0999984741211,560
2017-08-17,65.69999694824219,65.69999694824219,60.900001525878906,61.20000076293945,61.20000076293945,1203
2017-08-18,62.400001525878906,63.119998931884766,61.20000076293945,61.5,61.5,500
2017-08-21,60.900001525878906,61.20000076293945,60.29999923706055,60.599998474121094,60.599998474121094,703
2017-08-22,60.900001525878906,67.5,60.900001525878906,65.37000274658203,65.37000274658203,1893
2017-08-23,65.69999694824219,71.4000015258789,64.80000305175781,67.80000305175781,67.80000305175781,3560
2017-08-24,65.0999984741211,68.4000015258789,62.61000061035156,65.0999984741211,65.0999984741211,2120
2017-08-25,66.0,68.69999694824219,65.0999984741211,65.0999984741211,65.0999984741211,2773
2017-08-28,64.5,75.9000015258789,64.5,72.9000015258789,72.9000015258789,5847
2017-08-29,75.0,84.5999984741211,73.80000305175781,80.4000015258789,80.4000015258789,6640
2017-08-30,74.0999984741211,80.33999633789062,72.5999984741211,75.0,75.0,3317
2017-08-31,76.5,82.7699966430664,75.5999984741211,75.5999984741211,75.5999984741211,1610
2017-09-01,78.0,80.69999694824219,78.0,79.5,79.5,1323
2017-09-05,81.5999984741211,81.5999984741211,75.0,75.0,75.0,1830
2017-09-06,75.0,77.69999694824219,75.0,75.0,75.0,607
2017-09-07,76.80000305175781,76.80000305175781,72.5999984741211,73.19999694824219,73.19999694824219,1467
2017-09-08,73.19999694824219,74.69999694824219,72.5999984741211,72.5999984741211,72.5999984741211,420
2017-09-11,74.0999984741211,76.5,73.19999694824219,74.69999694824219,74.69999694824219,793
2017-09-12,73.80000305175781,77.0999984741211,73.80000305175781,76.5,76.5,1430
2017-09-13,75.30000305175781,78.0,75.1500015258789,78.0,78.0,1380
2017-09-14,78.0,80.4000015258789,76.80000305175781,78.9000015258789,78.9000015258789,1830
2017-09-15,79.5,79.5,72.9000015258789,72.9000015258789,72.9000015258789,2067
2017-09-18,73.19999694824219,75.0,66.30000305175781,69.5999984741211,69.5999984741211,2260
2017-09-19,70.5,72.5999984741211,64.5,72.0,72.0,3743
2017-09-20,73.5,78.9000015258789,72.98999786376953,75.9000015258789,75.9000015258789,2397
2017-09-21,76.19999694824219,78.0,75.62999725341797,77.4000015258789,77.4000015258789,1127
2017-09-22,77.4000015258789,78.0,73.80000305175781,74.4000015258789,74.4000015258789,1573
2017-09-25,73.5,73.73999786376953,62.099998474121094,69.0,69.0,2653
2017-09-26,69.0,70.80000305175781,66.36000061035156,70.5,70.5,720
2017-09-27,70.5,70.5,66.0,69.30000305175781,69.30000305175781,1383
2017-09-28,69.30000305175781,71.48999786376953,69.0,69.5999984741211,69.5999984741211,1037
2017-09-29,71.0999984741211,71.0999984741211,69.36000061035156,69.5999984741211,69.5999984741211,503
2017-10-02,71.0999984741211,71.0999984741211,69.30000305175781,70.19999694824219,70.19999694824219,663
2017-10-03,71.81999969482422,71.81999969482422,68.4000015258789,68.4000015258789,68.4000015258789,563
2017-10-04,68.69999694824219,71.0999984741211,68.69999694824219,68.69999694824219,68.69999694824219,1050
2017-10-05,69.9000015258789,70.5,68.69999694824219,69.5999984741211,69.5999984741211,1160
2017-10-06,69.18000030517578,69.5999984741211,65.69999694824219,68.0999984741211,68.0999984741211,1417
2017-10-09,72.5999984741211,94.80000305175781,72.5999984741211,77.69999694824219,77.69999694824219,46663
2017-10-10,78.0,84.0,72.0,75.30000305175781,75.30000305175781,15007
2017-10-11,78.0,81.0,75.0,79.11000061035156,79.11000061035156,5613
2017-10-12,79.5,81.0,75.9000015258789,76.80000305175781,76.80000305175781,3943
2017-10-13,76.5,76.5,71.69999694824219,75.0,75.0,8327
2017-10-16,74.0999984741211,76.5,72.62999725341797,73.80000305175781,73.80000305175781,2970
2017-10-17,75.0,79.5,73.5,75.5999984741211,75.5999984741211,3630
2017-10-18,75.0,76.47000122070312,74.0999984741211,75.0,75.0,1813
2017-10-19,74.4000015258789,84.0,74.4000015258789,79.80000305175781,79.80000305175781,6377
2017-10-20,76.5,82.08000183105469,76.5,79.80000305175781,79.80000305175781,3030
2017-10-23,81.0,85.19999694824219,79.5,81.5999984741211,81.5999984741211,6610
2017-10-24,83.69999694824219,83.69999694824219,79.80000305175781,81.9000015258789,81.9000015258789,3487
2017-10-25,82.5,82.5,74.69999694824219,78.0,78.0,7197
2017-10-26,79.19999694824219,79.9800033569336,75.5999984741211,78.9000015258789,78.9000015258789,2833
2017-10-27,79.19999694824219,79.19999694824219,73.5,75.9000015258789,75.9000015258789,3370
2017-10-30,75.9000015258789,75.9000015258789,72.0,72.0,72.0,2857
2017-10-31,72.0,75.0,72.0,72.0,72.0,1410
2017-11-01,72.9000015258789,72.9000015258789,66.30000305175781,67.80000305175781,67.80000305175781,4350
2017-11-02,66.30000305175781,72.5999984741211,66.30000305175781,67.80000305175781,67.80000305175781,1620
2017-11-03,67.5,69.0,64.5,65.69999694824219,65.69999694824219,3523
2017-11-06,66.30000305175781,69.66000366210938,65.0999984741211,66.5999984741211,66.5999984741211,1337
2017-11-07,68.0999984741211,71.4000015258789,66.9000015258789,67.19999694824219,67.19999694824219,3440
2017-11-08,67.80000305175781,70.3499984741211,65.0999984741211,69.72000122070312,69.72000122070312,2933
2017-11-09,68.4000015258789,70.7699966430664,66.30000305175781,67.80000305175781,67.80000305175781,1897
2017-11-10,66.9000015258789,70.80000305175781,66.66000366210938,69.0,69.0,1200
2017-11-13,68.4000015258789,70.5,65.69999694824219,66.0,66.0,2377
2017-11-14,67.80000305175781,69.0,63.29999923706055,64.80000305175781,64.80000305175781,3947
2017-11-15,63.29999923706055,66.0,61.79999923706055,61.79999923706055,61.79999923706055,3387
2017-11-16,62.099998474121094,65.69999694824219,60.0,64.80000305175781,64.80000305175781,5017
2017-11-17,65.4000015258789,65.4000015258789,63.0,64.5,64.5,2843
2017-11-20,63.0,63.29999923706055,61.5,61.79999923706055,61.79999923706055,3213
2017-11-21,62.400001525878906,62.790000915527344,60.900001525878906,61.5,61.5,2580
2017-11-22,62.70000076293945,63.900001525878906,61.5,62.400001525878906,62.400001525878906,2540
2017-11-24,62.099998474121094,62.400001525878906,60.0,61.79999923706055,61.79999923706055,2790
2017-11-27,60.29999923706055,61.20000076293945,57.900001525878906,59.400001525878906,59.400001525878906,3913
2017-11-28,60.599998474121094,60.599998474121094,56.70000076293945,58.20000076293945,58.20000076293945,5913
2017-11-29,57.599998474121094,59.70000076293945,56.70000076293945,57.900001525878906,57.900001525878906,4450
2017-11-30,57.0,57.900001525878906,54.0,54.29999923706055,54.29999923706055,4127
2017-12-01,56.099998474121094,56.099998474121094,53.400001525878906,54.0,54.0,3443
2017-12-04,53.70000076293945,55.5,52.97999954223633,53.400001525878906,53.400001525878906,3530
2017-12-05,52.5,56.70000076293945,48.29999923706055,55.5,55.5,5823
2017-12-06,56.70000076293945,56.70000076293945,52.79999923706055,54.29999923706055,54.29999923706055,5307
2017-12-07,51.900001525878906,53.70000076293945,49.79999923706055,53.70000076293945,53.70000076293945,3457
2017-12-08,52.20000076293945,52.5,51.29999923706055,52.20000076293945,52.20000076293945,3250
2017-12-11,52.5,53.400001525878906,48.38999938964844,49.79999923706055,49.79999923706055,5370
2017-12-12,49.79999923706055,51.29999923706055,48.900001525878906,48.900001525878906,48.900001525878906,5643
2017-12-13,48.599998474121094,55.20000076293945,45.29999923706055,50.70000076293945,50.70000076293945,32813
2017-12-14,51.0,52.20000076293945,47.130001068115234,48.599998474121094,48.599998474121094,8417
2017-12-15,48.900001525878906,49.20000076293945,46.5,48.29999923706055,48.29999923706055,9647
2017-12-18,48.29999923706055,48.29999923706055,45.29999923706055,46.79999923706055,46.79999923706055,12193
2017-12-19,46.5,49.79999923706055,45.599998474121094,49.20000076293945,49.20000076293945,7197
2017-12-20,48.900001525878906,51.150001525878906,46.79999923706055,47.099998474121094,47.099998474121094,6600
2017-12-21,49.5,51.0,45.45000076293945,46.5,46.5,15327
2017-12-22,46.20000076293945,50.400001525878906,45.29999923706055,47.70000076293945,47.70000076293945,10120
2017-12-26,49.20000076293945,59.70000076293945,48.29999923706055,52.5,52.5,29100
2017-12-27,53.70000076293945,55.79999923706055,51.29999923706055,53.25,53.25,12523
2017-12-28,55.5,61.20000076293945,52.5,57.599998474121094,57.599998474121094,24317
2017-12-29,58.79999923706055,61.619998931884766,56.099998474121094,59.70000076293945,59.70000076293945,18653
2018-01-02,61.20000076293945,66.0,57.29999923706055,60.0,60.0,34700
2018-01-03,61.5,62.970001220703125,58.5,60.0,60.0,8560
2018-01-04,60.0,61.5,58.5,59.400001525878906,59.400001525878906,10423
2018-01-05,60.0,61.79999923706055,59.099998474121094,60.900001525878906,60.900001525878906,8663
2018-01-08,61.79999923706055,61.79999923706055,57.599998474121094,58.5,58.5,8917
2018-01-09,59.400001525878906,61.5,57.599998474121094,59.54999923706055,59.54999923706055,7843
2018-01-10,60.900001525878906,60.900001525878906,57.599998474121094,59.400001525878906,59.400001525878906,4273
2018-01-11,60.0,60.900001525878906,57.900001525878906,58.5,58.5,6670
2018-01-12,59.099998474121094,59.099998474121094,57.599998474121094,58.79999923706055,58.79999923706055,7387
2018-01-16,60.29999923706055,60.29999923706055,55.5,57.0,57.0,6590
2018-01-17,56.099998474121094,58.20000076293945,55.79999923706055,56.099998474121094,56.099998474121094,4157
2018-01-18,56.70000076293945,56.70000076293945,54.900001525878906,55.5,55.5,3350
2018-01-19,54.900001525878906,55.20000076293945,54.0,54.599998474121094,54.599998474121094,3183
2018-01-22,54.599998474121094,55.20000076293945,54.0,54.599998474121094,54.599998474121094,2830
2018-01-23,55.5,56.099998474121094,54.0,55.20000076293945,55.20000076293945,9360
2018-01-24,55.79999923706055,58.20000076293945,54.900001525878906,57.900001525878906,57.900001525878906,7977
2018-01-25,58.5,58.5,54.599998474121094,55.20000076293945,55.20000076293945,4387
2018-01-26,55.20000076293945,56.189998626708984,54.599998474121094,54.599998474121094,54.599998474121094,3433
2018-01-29,54.900001525878906,57.599998474121094,54.599998474121094,57.0,57.0,5050
2018-01-30,57.900001525878906,57.900001525878906,54.0,54.900001525878906,54.900001525878906,5557
2018-01-31,54.900001525878906,57.0,54.0,54.29999923706055,54.29999923706055,3970
2018-02-01,54.29999923706055,54.29999923706055,48.599998474121094,48.900001525878906,48.900001525878906,8287
2018-02-02,48.900001525878906,50.66999816894531,46.5,46.79999923706055,46.79999923706055,6113
2018-02-05,46.79999923706055,50.400001525878906,45.599998474121094,48.0,48.0,5220
2018-02-06,48.0,48.0,45.900001525878906,47.400001525878906,47.400001525878906,5543
2018-02-07,47.099998474121094,48.56999969482422,46.20000076293945,47.099998474121094,47.099998474121094,3850
2018-02-08,46.5,47.70000076293945,45.900001525878906,45.900001525878906,45.900001525878906,6317
2018-02-09,45.900001525878906,50.70000076293945,45.599998474121094,46.79999923706055,46.79999923706055,9740
2018-02-12,47.70000076293945,47.70000076293945,44.400001525878906,45.0,45.0,9687
2018-02-13,45.0,46.16999816894531,40.20000076293945,42.0,42.0,10703
2018-02-14,41.70000076293945,45.900001525878906,41.70000076293945,44.70000076293945,44.70000076293945,15103
2018-02-15,44.400001525878906,45.869998931884766,42.900001525878906,44.099998474121094,44.099998474121094,4673
2018-02-16,44.099998474121094,45.0,42.0,43.79999923706055,43.79999923706055,6463
2018-02-20,44.400001525878906,44.70000076293945,42.900001525878906,44.400001525878906,44.400001525878906,6740
2018-02-21,44.70000076293945,48.0,43.79999923706055,47.70000076293945,47.70000076293945,10113
2018-02-22,48.0,48.0,43.5,45.29999923706055,45.29999923706055,4957
2018-02-23,44.400001525878906,45.599998474121094,43.5,45.599998474121094,45.599998474121094,3190
2018-02-26,45.599998474121094,48.0,44.400001525878906,47.90999984741211,47.90999984741211,6923
2018-02-27,48.29999923706055,49.20000076293945,45.29999923706055,46.20000076293945,46.20000076293945,9477
2018-02-28,45.29999923706055,47.400001525878906,45.0,47.400001525878906,47.400001525878906,6960
2018-03-01,48.29999923706055,49.5,45.29999923706055,47.400001525878906,47.400001525878906,8943
2018-03-02,46.5,48.599998474121094,45.41999816894531,48.29999923706055,48.29999923706055,6637
2018-03-05,48.599998474121094,48.599998474121094,45.900001525878906,47.099998474121094,47.099998474121094,6053
2018-03-06,46.5,47.099998474121094,44.099998474121094,44.400001525878906,44.400001525878906,6900
2018-03-07,45.0,47.400001525878906,42.900001525878906,46.79999923706055,46.79999923706055,8940
2018-03-08,47.400001525878906,50.099998474121094,44.70000076293945,50.099998474121094,50.099998474121094,12377
2018-03-09,50.099998474121094,55.470001220703125,47.400001525878906,52.5,52.5,15960
2018-03-12,53.400001525878906,54.0,51.0,52.20000076293945,52.20000076293945,12470
2018-03-13,58.5,58.5,51.599998474121094,54.0,54.0,25293
2018-03-14,55.20000076293945,55.20000076293945,49.5,51.599998474121094,51.599998474121094,10700
2018-03-15,51.0,52.04999923706055,49.79999923706055,51.29999923706055,51.29999923706055,4940
2018-03-16,51.0,51.33000183105469,47.70000076293945,48.900001525878906,48.900001525878906,8953
2018-03-19,48.29999923706055,49.5,46.79999923706055,49.20000076293945,49.20000076293945,6013
2018-03-20,49.20000076293945,49.2599983215332,45.0,47.400001525878906,47.400001525878906,6040
2018-03-21,47.70000076293945,49.20000076293945,45.29999923706055,46.79999923706055,46.79999923706055,6040
2018-03-22,46.5,48.56999969482422,45.0,45.599998474121094,45.599998474121094,8870
2018-03-23,45.29999923706055,46.79999923706055,42.900001525878906,45.900001525878906,45.900001525878906,10113
2018-03-26,46.20000076293945,46.20000076293945,44.099998474121094,46.20000076293945,46.20000076293945,6457
2018-03-27,46.79999923706055,48.900001525878906,37.5,37.95000076293945,37.95000076293945,36603
2018-03-28,37.5,39.900001525878906,30.899999618530273,33.0,33.0,23767
2018-03-29,36.29999923706055,36.29999923706055,33.29999923706055,34.79999923706055,34.79999923706055,8207
2018-04-02,35.70000076293945,36.0,33.29999923706055,35.70000076293945,35.70000076293945,8893
2018-04-03,35.400001525878906,35.400001525878906,32.099998474121094,32.099998474121094,32.099998474121094,8400
2018-04-04,32.400001525878906,33.0,31.200000762939453,31.200000762939453,31.200000762939453,7030
2018-04-05,30.600000381469727,32.099998474121094,27.899999618530273,28.5,28.5,12833
2018-04-06,28.68000030517578,28.799999237060547,26.399999618530273,27.8700008392334,27.8700008392334,12513
2018-04-09,27.719999313354492,28.799999237060547,25.5,26.520000457763672,26.520000457763672,12433
2018-04-10,27.0,29.549999237060547,25.5,27.899999618530273,27.899999618530273,34083
2018-04-11,28.200000762939453,28.799999237060547,26.100000381469727,26.729999542236328,26.729999542236328,23743
2018-04-12,26.700000762939453,26.700000762939453,24.0,25.350000381469727,25.350000381469727,34823
2018-04-13,25.170000076293945,26.520000457763672,24.899999618530273,25.799999237060547,25.799999237060547,11690
2018-04-16,26.399999618530273,26.399999618530273,24.600000381469727,25.079999923706055,25.079999923706055,12120
2018-04-17,24.299999237060547,25.260000228881836,23.100000381469727,23.399999618530273,23.399999618530273,17720
2018-04-18,24.899999618530273,24.899999618530273,22.799999237060547,23.280000686645508,23.280000686645508,12103
2018-04-19,23.25,24.270000457763672,22.229999542236328,22.709999084472656,22.709999084472656,10910
2018-04-20,21.899999618530273,22.200000762939453,20.399999618530273,21.239999771118164,21.239999771118164,14320
2018-04-23,20.700000762939453,21.149999618530273,19.5,21.0,21.0,13030
2018-04-24,20.700000762939453,22.799999237060547,20.040000915527344,21.600000381469727,21.600000381469727,11673
2018-04-25,21.600000381469727,22.350000381469727,20.100000381469727,21.0,21.0,11770
2018-04-26,20.969999313354492,22.5,20.399999618530273,21.450000762939453,21.450000762939453,11033
2018-04-27,22.5,24.8700008392334,21.299999237060547,24.299999237060547,24.299999237060547,20687
2018-04-30,25.200000762939453,25.799999237060547,21.600000381469727,21.75,21.75,27540
2018-05-01,21.75,22.200000762939453,20.700000762939453,21.09000015258789,21.09000015258789,13273
2018-05-02,21.0,21.600000381469727,20.43000030517578,20.579999923706055,20.579999923706055,9363
2018-05-03,20.81999969482422,21.0,18.299999237060547,18.56999969482422,18.56999969482422,21303
2018-05-04,18.0,19.5,17.399999618530273,18.899999618530273,18.899999618530273,49690
2018-05-07,19.200000762939453,19.5,17.549999237060547,18.059999465942383,18.059999465942383,16857
2018-05-08,18.600000381469727,19.5,17.850000381469727,18.299999237060547,18.299999237060547,12417
2018-05-09,18.600000381469727,18.65999984741211,17.399999618530273,18.0,18.0,15900
2018-05-10,18.299999237060547,18.299999237060547,16.5,17.100000381469727,17.100000381469727,15827
2018-05-11,17.399999618530273,17.399999618530273,14.430000305175781,15.930000305175781,15.930000305175781,49237
2018-05-14,16.5,16.799999237060547,14.699999809265137,15.600000381469727,15.600000381469727,58147
2018-05-15,15.899999618530273,17.700000762939453,15.029999732971191,16.020000457763672,16.020000457763672,31510
2018-05-16,17.700000762939453,22.5,16.799999237060547,17.280000686645508,17.280000686645508,98107
2018-05-17,17.399999618530273,17.399999618530273,15.0600004196167,15.149999618530273,15.149999618530273,55730
2018-05-18,15.720000267028809,15.720000267028809,14.489999771118164,15.300000190734863,15.300000190734863,39777
2018-05-21,14.699999809265137,14.850000381469727,12.960000038146973,13.350000381469727,13.350000381469727,27290
2018-05-22,13.649999618530273,15.449999809265137,12.300000190734863,15.239999771118164,15.239999771118164,55213
2018-05-23,15.0,19.799999237060547,12.989999771118164,16.59000015258789,16.59000015258789,138560
2018-05-24,17.3700008392334,17.399999618530273,15.0,15.300000190734863,15.300000190734863,27780
2018-05-25,15.149999618530273,15.75,14.430000305175781,15.0600004196167,15.0600004196167,19903
2018-05-29,14.579999923706055,15.300000190734863,13.800000190734863,15.300000190734863,15.300000190734863,19760
2018-05-30,16.079999923706055,18.0,14.489999771118164,16.350000381469727,16.350000381469727,41107
2018-05-31,16.5,19.139999389648438,15.600000381469727,18.299999237060547,18.299999237060547,57947
2018-06-01,18.899999618530273,20.399999618530273,17.549999237060547,17.610000610351562,17.610000610351562,47620
2018-06-04,17.610000610351562,18.0,16.5,16.770000457763672,16.770000457763672,21610
2018-06-05,17.100000381469727,18.510000228881836,16.799999237060547,17.700000762939453,17.700000762939453,37320
2018-06-06,18.899999618530273,21.0,17.700000762939453,20.610000610351562,20.610000610351562,84457
2018-06-07,21.0,23.100000381469727,19.5,20.399999618530273,20.399999618530273,71437
2018-06-08,20.399999618530273,20.700000762939453,18.600000381469727,19.739999771118164,19.739999771118164,29440
2018-06-11,19.260000228881836,19.739999771118164,16.799999237060547,16.799999237060547,16.799999237060547,32390
2018-06-12,17.639999389648438,17.969999313354492,16.799999237060547,16.799999237060547,16.799999237060547,30553
2018-06-13,17.040000915527344,17.100000381469727,15.09000015258789,15.09000015258789,15.09000015258789,36997
2018-06-14,15.300000190734863,16.350000381469727,15.300000190734863,15.869999885559082,15.869999885559082,13383
2018-06-15,16.5,16.5,15.149999618530273,15.539999961853027,15.539999961853027,7333
2018-06-18,15.329999923706055,18.0,15.329999923706055,16.200000762939453,16.200000762939453,36230
2018-06-19,16.440000534057617,20.25,16.200000762939453,18.75,18.75,59460
2018-06-20,19.200000762939453,19.200000762939453,17.700000762939453,18.719999313354492,18.719999313354492,21150
2018-06-21,18.719999313354492,18.719999313354492,17.219999313354492,17.520000457763672,17.520000457763672,14090
2018-06-22,18.600000381469727,18.8700008392334,16.6200008392334,17.639999389648438,17.639999389648438,14403
2018-06-25,18.0,18.360000610351562,15.0600004196167,16.049999237060547,16.049999237060547,39130
2018-06-26,15.899999618530273,16.40999984741211,15.600000381469727,15.65999984741211,15.65999984741211,18023
2018-06-27,15.600000381469727,16.139999389648438,13.649999618530273,13.649999618530273,13.649999618530273,54093
2018-06-28,14.609999656677246,14.699999809265137,12.899999618530273,13.859999656677246,13.859999656677246,23240
2018-06-29,14.3100004196167,14.699999809265137,12.600000381469727,13.350000381469727,13.350000381469727,25873
2018-07-02,13.199999809265137,13.199999809265137,12.0,12.300000190734863,12.300000190734863,34160
2018-07-03,12.09000015258789,12.899999618530273,11.970000267028809,12.510000228881836,12.510000228881836,19817
2018-07-05,12.989999771118164,13.199999809265137,12.0,12.960000038146973,12.960000038146973,13333
2018-07-06,12.899999618530273,13.829999923706055,12.300000190734863,12.420000076293945,12.420000076293945,21137
2018-07-09,13.079999923706055,14.970000267028809,12.449999809265137,13.920000076293945,13.920000076293945,44810
2018-07-10,13.800000190734863,14.369999885559082,12.899999618530273,13.890000343322754,13.890000343322754,18420
2018-07-11,13.890000343322754,14.399999618530273,12.75,13.109999656677246,13.109999656677246,29000
2018-07-12,14.399999618530273,14.399999618530273,13.199999809265137,13.619999885559082,13.619999885559082,52460
2018-07-13,13.800000190734863,17.700000762939453,13.319999694824219,15.300000190734863,15.300000190734863,153567
2018-07-16,16.049999237060547,16.049999237060547,13.5,13.649999618530273,13.649999618530273,109973
2018-07-17,12.300000190734863,13.170000076293945,9.989999771118164,11.069999694824219,11.069999694824219,94260
2018-07-18,11.25,12.0,10.800000190734863,10.979999542236328,10.979999542236328,23727
2018-07-19,10.920000076293945,11.100000381469727,10.199999809265137,10.800000190734863,10.800000190734863,47583
2018-07-20,11.699999809265137,12.600000381469727,10.829999923706055,12.0,12.0,41623
2018-07-23,11.699999809265137,12.300000190734863,11.130000114440918,11.850000381469727,11.850000381469727,17310
2018-07-24,11.850000381469727,12.0,11.100000381469727,11.100000381469727,11.100000381469727,15993
2018-07-25,11.100000381469727,11.699999809265137,10.529999732971191,11.130000114440918,11.130000114440918,12017
2018-07-26,11.399999618530273,11.789999961853027,10.649999618530273,11.460000038146973,11.460000038146973,8777
2018-07-27,11.100000381469727,12.0,11.100000381469727,11.130000114440918,11.130000114440918,13437
2018-07-30,11.100000381469727,11.850000381469727,10.800000190734863,11.100000381469727,11.100000381469727,21370
2018-07-31,9.149999618530273,10.5,7.5,9.989999771118164,9.989999771118164,74313
2018-08-01,9.899999618530273,10.5,9.600000381469727,9.600000381469727,9.600000381469727,15837
2018-08-02,9.600000381469727,10.4399995803833,9.0,10.140000343322754,10.140000343322754,15127
2018-08-03,9.600000381469727,10.4399995803833,9.600000381469727,10.050000190734863,10.050000190734863,12073
2018-08-06,10.199999809265137,10.5,9.600000381469727,9.600000381469727,9.600000381469727,13940
2018-08-07,10.079999923706055,10.5,9.630000114440918,10.020000457763672,10.020000457763672,12237
2018-08-08,10.199999809265137,10.199999809265137,9.600000381469727,10.109999656677246,10.109999656677246,12023
2018-08-09,10.229999542236328,10.260000228881836,9.630000114440918,9.6899995803833,9.6899995803833,5317
2018-08-10,9.899999618530273,10.199999809265137,9.300000190734863,9.300000190734863,9.300000190734863,5633
2018-08-13,9.899999618530273,9.899999618530273,9.600000381469727,9.869999885559082,9.869999885559082,6647
2018-08-14,9.899999618530273,12.300000190734863,9.899999618530273,10.800000190734863,10.800000190734863,62970
2018-08-15,10.800000190734863,10.829999923706055,9.600000381469727,10.350000381469727,10.350000381469727,18680
2018-08-16,10.050000190734863,10.649999618530273,9.75,10.199999809265137,10.199999809265137,8747
2018-08-17,10.5,10.5,9.09000015258789,9.899999618530273,9.899999618530273,10430
2018-08-20,9.300000190734863,9.75,8.699999809265137,9.300000190734863,9.300000190734863,18913
2018-08-21,9.300000190734863,9.600000381469727,9.0,9.180000305175781,9.180000305175781,7270
2018-08-22,9.0,9.300000190734863,8.699999809265137,9.0,9.0,16873
2018-08-23,9.300000190734863,9.600000381469727,9.029999732971191,9.569999694824219,9.569999694824219,17223
2018-08-24,9.600000381469727,10.199999809265137,9.029999732971191,9.300000190734863,9.300000190734863,25990
2018-08-27,9.75,9.75,9.0,9.539999961853027,9.539999961853027,14153
2018-08-28,9.300000190734863,9.449999809265137,8.9399995803833,9.210000038146973,9.210000038146973,9437
2018-08-29,9.270000457763672,9.600000381469727,8.100000381469727,9.300000190734863,9.300000190734863,24207
2018-08-30,9.420000076293945,10.170000076293945,9.119999885559082,9.329999923706055,9.329999923706055,16237
2018-08-31,9.899999618530273,11.399999618530273,8.789999961853027,9.600000381469727,9.600000381469727,46547
2018-09-04,10.199999809265137,10.199999809265137,9.0,9.600000381469727,9.600000381469727,19537
2018-09-05,9.359999656677246,9.600000381469727,9.0,9.300000190734863,9.300000190734863,12860
2018-09-06,9.300000190734863,9.75,9.029999732971191,9.510000228881836,9.510000228881836,5527
2018-09-07,9.899999618530273,9.899999618530273,8.850000381469727,8.850000381469727,8.850000381469727,12767
2018-09-10,9.300000190734863,9.300000190734863,8.399999618530273,8.699999809265137,8.699999809265137,13210
2018-09-11,7.949999809265137,8.850000381469727,7.800000190734863,8.760000228881836,8.760000228881836,16230
2018-09-12,8.699999809265137,8.90999984741211,7.949999809265137,8.640000343322754,8.640000343322754,5173
2018-09-13,7.5,8.039999961853027,7.349999904632568,7.800000190734863,7.800000190734863,31570
2018-09-14,7.300000190734863,9.0,4.801000118255615,5.449999809265137,5.449999809265137,273000
2018-09-17,5.619999885559082,6.480000019073486,4.659999847412109,4.889999866485596,4.889999866485596,154500
2018-09-18,4.71999979019165,4.75,4.269999980926514,4.269999980926514,4.269999980926514,99600
2018-09-19,4.340000152587891,18.309999465942383,4.340000152587891,16.459999084472656,16.459999084472656,2211100
2018-09-20,19.610000610351562,36.25,17.0,26.229999542236328,26.229999542236328,2412800
2018-09-21,26.899999618530273,33.66999816894531,26.0,26.190000534057617,26.190000534057617,880600
2018-09-24,17.020000457763672,17.761999130249023,12.569999694824219,13.899999618530273,13.899999618530273,954000
2018-09-25,13.949999809265137,14.270000457763672,12.550000190734863,13.09000015258789,13.09000015258789,181300
2018-09-26,13.010000228881836,13.010000228881836,11.119999885559082,12.130000114440918,12.130000114440918,193100
2018-09-27,11.170000076293945,11.256999969482422,8.75,8.779999732971191,8.779999732971191,606900
2018-09-28,4.5,4.670000076293945,4.070000171661377,4.400000095367432,4.400000095367432,3416300
2018-10-01,4.690000057220459,5.639999866485596,4.550000190734863,4.980000019073486,4.980000019073486,2835400
2018-10-02,5.190000057220459,5.190000057220459,4.300000190734863,4.610000133514404,4.610000133514404,915900
2018-10-03,4.519999980926514,4.800000190734863,4.5,4.75,4.75,475200
2018-10-04,4.820000171661377,4.820000171661377,4.489999771118164,4.699999809265137,4.699999809265137,420000
2018-10-05,4.670000076293945,7.599999904632568,4.568999767303467,7.239999771118164,7.239999771118164,11963600
2018-10-08,5.0,5.239999771118164,4.769999980926514,4.940000057220459,4.940000057220459,11028800
2018-10-09,4.929999828338623,4.989999771118164,4.429999828338623,4.630000114440918,4.630000114440918,2335900
2018-10-10,4.650000095367432,4.65500020980835,4.25,4.590000152587891,4.590000152587891,1426400
2018-10-11,4.460000038146973,4.460000038146973,4.050000190734863,4.170000076293945,4.170000076293945,1338100
2018-10-12,4.380000114440918,4.400000095367432,4.050000190734863,4.159999847412109,4.159999847412109,1099300
2018-10-15,4.079999923706055,4.14900016784668,3.549999952316284,3.8499999046325684,3.8499999046325684,1462700
2018-10-16,3.990000009536743,4.949999809265137,3.8499999046325684,4.650000095367432,4.650000095367432,4975900
2018-10-17,4.570000171661377,4.690000057220459,4.050000190734863,4.46999979019165,4.46999979019165,1248800
2018-10-18,4.309999942779541,4.540999889373779,4.099999904632568,4.150000095367432,4.150000095367432,827100
2018-10-19,4.079999923706055,4.550000190734863,4.079999923706055,4.309999942779541,4.309999942779541,717600
2018-10-22,4.28000020980835,4.34499979019165,4.0,4.110000133514404,4.110000133514404,498600
2018-10-23,3.9200000762939453,4.340000152587891,3.799999952316284,4.239999771118164,4.239999771118164,696300
2018-10-24,4.050000190734863,4.340000152587891,3.9000000953674316,3.9100000858306885,3.9100000858306885,413700
2018-10-25,3.940000057220459,4.489999771118164,3.9000000953674316,4.139999866485596,4.139999866485596,1316400
2018-10-26,4.0,4.25,3.890000104904175,4.079999923706055,4.079999923706055,823900
2018-10-29,4.099999904632568,4.199999809265137,3.9200000762939453,4.039999961853027,4.039999961853027,414600
2018-10-30,4.050000190734863,4.079999923706055,3.9539999961853027,3.9700000286102295,3.9700000286102295,173400
2018-10-31,4.019999980926514,4.045000076293945,3.5999999046325684,3.809999942779541,3.809999942779541,586100
2018-11-01,3.8499999046325684,4.099999904632568,3.763000011444092,4.0,4.0,451800
2018-11-02,4.050000190734863,4.079999923706055,3.75,4.0,4.0,514400
2018-11-05,3.9800000190734863,4.230000019073486,3.940000057220459,3.990000009536743,3.990000009536743,454800
2018-11-06,3.9800000190734863,4.150000095367432,3.950000047683716,3.9700000286102295,3.9700000286102295,206000
2018-11-07,4.019999980926514,4.139999866485596,3.9800000190734863,4.019999980926514,4.019999980926514,264800
2018-11-08,3.9800000190734863,4.090000152587891,3.9000000953674316,3.9100000858306885,3.9100000858306885,213700
2018-11-09,3.940000057220459,3.940000057220459,3.630000114440918,3.7100000381469727,3.7100000381469727,646200
2018-11-12,3.740000009536743,3.7860000133514404,3.2799999713897705,3.5199999809265137,3.5199999809265137,553600
2018-11-13,3.5299999713897705,3.5799999237060547,3.299999952316284,3.4000000953674316,3.4000000953674316,282500
2018-11-14,3.4000000953674316,3.5329999923706055,2.9000000953674316,3.2799999713897705,3.2799999713897705,617900
2018-11-15,3.259999990463257,3.3889999389648438,3.140000104904175,3.2799999713897705,3.2799999713897705,144800
2018-11-16,3.25,3.319999933242798,3.119999885559082,3.200000047683716,3.200000047683716,168300
2018-11-19,3.1700000762939453,3.240000009536743,3.0999999046325684,3.1500000953674316,3.1500000953674316,143000
2018-11-20,3.119999885559082,3.130000114440918,2.8499999046325684,3.0399999618530273,3.0399999618530273,278400
2018-11-21,3.049999952316284,3.7699999809265137,3.0429999828338623,3.3399999141693115,3.3399999141693115,3900400
2018-11-23,3.109999895095825,3.3350000381469727,3.109999895095825,3.2100000381469727,3.2100000381469727,255800
2018-11-26,3.25,3.5209999084472656,3.2269999980926514,3.4100000858306885,3.4100000858306885,449600
2018-11-27,3.1600000858306885,3.380000114440918,3.1589999198913574,3.2699999809265137,3.2699999809265137,240100
2018-11-28,3.25,3.5899999141693115,3.240000009536743,3.309999942779541,3.309999942779541,451600
2018-11-29,3.2699999809265137,3.4149999618530273,3.25,3.4000000953674316,3.4000000953674316,129500
2018-11-30,3.4200000762939453,3.740000009536743,3.359999895095825,3.5899999141693115,3.5899999141693115,1078300
2018-12-03,3.6700000762939453,3.7899999618530273,3.319000005722046,3.490000009536743,3.490000009536743,521700
2018-12-04,3.4100000858306885,3.4830000400543213,3.2200000286102295,3.25,3.25,340000
2018-12-06,3.1700000762939453,3.2899999618530273,3.119999885559082,3.200000047683716,3.200000047683716,229800
2018-12-07,3.200000047683716,3.259999990463257,3.1500000953674316,3.190000057220459,3.190000057220459,133500
2018-12-10,3.180000066757202,3.2300000190734863,3.009999990463257,3.0799999237060547,3.0799999237060547,244200
2018-12-11,3.130000114440918,3.130000114440918,3.0,3.049999952316284,3.049999952316284,197100
2018-12-12,3.049999952316284,3.119999885559082,3.0,3.049999952316284,3.049999952316284,171300
2018-12-13,2.950000047683716,2.989000082015991,2.3299999237060547,2.4100000858306885,2.4100000858306885,1532400
2018-12-14,2.3399999141693115,2.4000000953674316,2.0,2.1500000953674316,2.1500000953674316,606200
2018-12-17,2.1500000953674316,2.569999933242798,2.0899999141693115,2.194999933242798,2.194999933242798,407800
2018-12-18,2.200000047683716,2.4000000953674316,2.0899999141693115,2.1600000858306885,2.1600000858306885,803100
2018-12-19,2.1700000762939453,2.2100000381469727,2.069999933242798,2.0799999237060547,2.0799999237060547,277900
2018-12-20,2.0799999237060547,2.1070001125335693,1.940000057220459,1.940000057220459,1.940000057220459,338600
2018-12-21,1.9600000381469727,2.009000062942505,1.7000000476837158,1.8600000143051147,1.8600000143051147,427900
2018-12-24,1.7999999523162842,1.8600000143051147,1.7000000476837158,1.7200000286102295,1.7200000286102295,171900
2018-12-26,1.7200000286102295,1.9299999475479126,1.7200000286102295,1.899999976158142,1.899999976158142,255900
2018-12-27,1.8899999856948853,1.909999966621399,1.7799999713897705,1.809999942779541,1.809999942779541,145900
2018-12-28,1.850000023841858,1.899999976158142,1.7999999523162842,1.840000033378601,1.840000033378601,280500
2018-12-31,1.8899999856948853,2.0999999046325684,1.850000023841858,2.059999942779541,2.059999942779541,300000
2019-01-02,2.0999999046325684,2.6500000953674316,2.0899999141693115,2.5999999046325684,2.5999999046325684,778000
2019-01-03,2.5799999237060547,2.7300000190734863,2.2100000381469727,2.5399999618530273,2.5399999618530273,406600
2019-01-04,2.440000057220459,2.6500000953674316,2.433000087738037,2.619999885559082,2.619999885559082,302600
2019-01-07,2.6500000953674316,2.9000000953674316,2.5799999237060547,2.8499999046325684,2.8499999046325684,422600
2019-01-08,2.9000000953674316,2.9170000553131104,2.609999895095825,2.799999952316284,2.799999952316284,249900
2019-01-09,2.859999895095825,2.859999895095825,2.75,2.759999990463257,2.759999990463257,142400
2019-01-10,2.759999990463257,2.8399999141693115,2.7100000381469727,2.799999952316284,2.799999952316284,131200
2019-01-11,2.690000057220459,2.799999952316284,2.6600000858306885,2.680000066757202,2.680000066757202,130800
2019-01-14,2.6500000953674316,2.683000087738037,2.509999990463257,2.6600000858306885,2.6600000858306885,116100
2019-01-15,2.6600000858306885,2.9200000762939453,2.609999895095825,2.740000009536743,2.740000009536743,492900
2019-01-16,2.7899999618530273,3.4000000953674316,2.7799999713897705,3.1500000953674316,3.1500000953674316,2466300
2019-01-17,3.1700000762939453,3.190000057220459,2.9100000858306885,3.0999999046325684,3.0999999046325684,415700
2019-01-18,3.0799999237060547,3.0899999141693115,2.869999885559082,2.9100000858306885,2.9100000858306885,264400
2019-01-22,2.9000000953674316,3.450000047683716,2.75,3.369999885559082,3.369999885559082,2699100
2019-01-23,3.299999952316284,3.5899999141693115,3.0999999046325684,3.3299999237060547,3.3299999237060547,2078400
2019-01-24,3.25,3.6500000953674316,3.240000009536743,3.4200000762939453,3.4200000762939453,1417800
2019-01-25,3.4000000953674316,3.5399999618530273,3.3499999046325684,3.4100000858306885,3.4100000858306885,700500
2019-01-28,3.4000000953674316,3.4030001163482666,2.8499999046325684,3.200000047683716,3.200000047683716,753700
2019-01-29,3.369999885559082,3.390000104904175,2.950000047683716,3.049999952316284,3.049999952316284,889400
2019-01-30,3.069999933242798,3.3399999141693115,2.9200000762939453,3.319999933242798,3.319999933242798,504000
2019-01-31,3.299999952316284,3.319999933242798,3.1579999923706055,3.190000057220459,3.190000057220459,264200
2019-02-01,3.2100000381469727,3.380000114440918,3.2100000381469727,3.3299999237060547,3.3299999237060547,414600
2019-02-04,3.3399999141693115,3.443000078201294,3.309999942779541,3.3399999141693115,3.3399999141693115,173000
2019-02-05,3.319999933242798,3.369999885559082,3.2100000381469727,3.2300000190734863,3.2300000190734863,175100
2019-02-06,3.299999952316284,3.309999942779541,3.119999885559082,3.309999942779541,3.309999942779541,212200
2019-02-07,3.299999952316284,3.299999952316284,3.130000114440918,3.200000047683716,3.200000047683716,155000
2019-02-08,3.1600000858306885,3.1700000762939453,3.0,3.140000104904175,3.140000104904175,179500
2019-02-11,3.0899999141693115,3.0999999046325684,2.8499999046325684,2.9800000190734863,2.9800000190734863,353600
2019-02-12,3.0,3.0799999237060547,2.9000000953674316,3.0299999713897705,3.0299999713897705,143900
2019-02-13,3.0199999809265137,3.0899999141693115,2.9700000286102295,3.049999952316284,3.049999952316284,106200
2019-02-14,3.009999990463257,3.049999952316284,2.880000114440918,2.990000009536743,2.990000009536743,148700
2019-02-15,3.0,3.009000062942505,2.869999885559082,2.990000009536743,2.990000009536743,164300
2019-02-19,3.0,3.0,2.869999885559082,2.9700000286102295,2.9700000286102295,189700
2019-02-20,2.950000047683716,2.950000047683716,2.859999895095825,2.859999895095825,2.859999895095825,137100
2019-02-21,2.9000000953674316,2.9000000953674316,2.7200000286102295,2.7899999618530273,2.7899999618530273,221300
2019-02-22,2.7639999389648438,2.9000000953674316,2.7300000190734863,2.809999942779541,2.809999942779541,140800
2019-02-25,2.869999885559082,2.875,2.759999990463257,2.7699999809265137,2.7699999809265137,95400
2019-02-26,2.75,2.859999895095825,2.75,2.809999942779541,2.809999942779541,107000
2019-02-27,2.890000104904175,2.890000104904175,2.809999942779541,2.8299999237060547,2.8299999237060547,109100
2019-02-28,2.880000114440918,2.880000114440918,2.6500000953674316,2.690000057220459,2.690000057220459,186700
2019-03-01,2.640000104904175,2.799999952316284,2.63700008392334,2.7100000381469727,2.7100000381469727,129500
2019-03-04,2.7100000381469727,2.815999984741211,2.6500000953674316,2.6600000858306885,2.6600000858306885,88700
2019-03-05,2.680000066757202,2.7699999809265137,2.6700000762939453,2.690000057220459,2.690000057220459,71800
2019-03-06,2.690000057220459,3.059999942779541,2.5299999713897705,3.0199999809265137,3.0199999809265137,1324300
2019-03-07,3.7799999713897705,5.940000057220459,3.369999885559082,4.539999961853027,4.539999961853027,31435200
2019-03-08,3.630000114440918,3.75,2.609999895095825,2.880000114440918,2.880000114440918,7264100
2019-03-11,2.8499999046325684,2.9519999027252197,2.7300000190734863,2.7799999713897705,2.7799999713897705,966100
2019-03-12,2.7799999713897705,2.859999895095825,2.6600000858306885,2.759999990463257,2.759999990463257,1047600
2019-03-13,2.7799999713897705,3.1500000953674316,2.700000047683716,2.8499999046325684,2.8499999046325684,2882200
2019-03-14,2.75,2.930000066757202,2.7200000286102295,2.75,2.75,934900
2019-03-15,2.75,2.816999912261963,2.680000066757202,2.700000047683716,2.700000047683716,683300
2019-03-18,2.690000057220459,2.9700000286102295,2.630000114440918,2.890000104904175,2.890000104904175,765700
2019-03-19,3.990000009536743,4.050000190734863,3.2300000190734863,3.319999933242798,3.319999933242798,20681600
2019-03-20,3.1600000858306885,3.319999933242798,2.9800000190734863,3.0299999713897705,3.0299999713897705,2801800
2019-03-21,2.9790000915527344,3.0799999237060547,2.869999885559082,3.0,3.0,1180400
2019-03-22,2.940000057220459,3.0799999237060547,2.809999942779541,2.8399999141693115,2.8399999141693115,1271600
2019-03-25,2.890000104904175,2.9200000762939453,2.7699999809265137,2.9100000858306885,2.9100000858306885,567300
2019-03-26,2.930000066757202,3.069999933242798,2.8299999237060547,2.950000047683716,2.950000047683716,876100
2019-03-27,2.940000057220459,3.0199999809265137,2.819999933242798,2.990000009536743,2.990000009536743,575500
2019-03-28,2.950000047683716,3.0399999618530273,2.9100000858306885,3.0299999713897705,3.0299999713897705,586400
2019-03-29,3.009999990463257,3.0199999809265137,2.9000000953674316,2.9000000953674316,2.9000000953674316,659200
2019-04-01,2.9600000381469727,3.3359999656677246,2.9000000953674316,3.25,3.25,1677900
2019-04-02,3.0399999618530273,3.055000066757202,2.9000000953674316,3.0,3.0,1134500
2019-04-03,2.9800000190734863,3.140000104904175,2.930000066757202,3.0799999237060547,3.0799999237060547,832700
2019-04-04,3.059999942779541,3.2249999046325684,3.009999990463257,3.1700000762939453,3.1700000762939453,888800
2019-04-05,3.0,3.1700000762939453,3.0,3.0899999141693115,3.0899999141693115,630800
2019-04-08,3.140000104904175,3.299999952316284,3.130000114440918,3.2200000286102295,3.2200000286102295,770500
2019-04-09,3.25,3.259999990463257,3.130000114440918,3.1700000762939453,3.1700000762939453,670300
2019-04-10,3.1700000762939453,3.299999952316284,3.0299999713897705,3.299999952316284,3.299999952316284,1243100
2019-04-11,3.380000114440918,3.5299999713897705,3.1600000858306885,3.4000000953674316,3.4000000953674316,1732100
2019-04-12,3.450000047683716,3.4800000190734863,3.140000104904175,3.180000066757202,3.180000066757202,1511100
2019-04-15,3.180000066757202,3.183000087738037,2.940000057220459,3.0,3.0,764400
2019-04-16,3.0399999618530273,3.0799999237060547,2.9100000858306885,2.9600000381469727,2.9600000381469727,570200
2019-04-17,3.0,3.0,2.799999952316284,2.819999933242798,2.819999933242798,823800
2019-04-18,2.799999952316284,2.8380000591278076,2.6500000953674316,2.740000009536743,2.740000009536743,662100
2019-04-22,2.75,2.7850000858306885,2.6500000953674316,2.7100000381469727,2.7100000381469727,477700
2019-04-23,2.680000066757202,2.7799999713897705,2.619999885559082,2.680000066757202,2.680000066757202,482900
2019-04-24,2.680000066757202,2.759999990463257,2.640000104904175,2.7100000381469727,2.7100000381469727,294200
2019-04-25,2.680000066757202,2.7799999713897705,2.6600000858306885,2.7300000190734863,2.7300000190734863,236200
2019-04-26,2.690000057220459,2.8399999141693115,2.6700000762939453,2.809999942779541,2.809999942779541,270000
2019-04-29,2.819999933242798,2.990000009536743,2.7850000858306885,2.9600000381469727,2.9600000381469727,674200
2019-04-30,2.9200000762939453,2.984999895095825,2.799999952316284,2.859999895095825,2.859999895095825,363400
2019-05-01,2.869999885559082,2.930000066757202,2.799999952316284,2.880000114440918,2.880000114440918,223900
2019-05-02,2.8499999046325684,2.9200000762939453,2.809999942779541,2.890000104904175,2.890000104904175,254100
2019-05-03,2.880000114440918,2.950000047683716,2.867000102996826,2.940000057220459,2.940000057220459,330900
2019-05-06,2.8499999046325684,3.056999921798706,2.8399999141693115,3.0399999618530273,3.0399999618530273,338900
2019-05-07,2.990000009536743,3.0429999828338623,2.9000000953674316,2.940000057220459,2.940000057220459,164900
2019-05-08,2.9000000953674316,3.0799999237060547,2.8499999046325684,2.990000009536743,2.990000009536743,531100
2019-05-09,2.930000066757202,2.950000047683716,2.809999942779541,2.859999895095825,2.859999895095825,340100
2019-05-10,2.859999895095825,2.881999969482422,2.700000047683716,2.7699999809265137,2.7699999809265137,377200
2019-05-13,2.740000009536743,2.7699999809265137,2.2799999713897705,2.569999933242798,2.569999933242798,510900
2019-05-14,2.549999952316284,2.700000047683716,2.549999952316284,2.630000114440918,2.630000114440918,201700
2019-05-15,2.700000047683716,2.7300000190734863,2.5299999713897705,2.640000104904175,2.640000104904175,255100
2019-05-16,2.640000104904175,2.680999994277954,2.559999942779541,2.609999895095825,2.609999895095825,204900
2019-05-17,2.569999933242798,2.5810000896453857,2.4000000953674316,2.450000047683716,2.450000047683716,228700
2019-05-20,2.4100000858306885,2.5399999618530273,2.359999895095825,2.450000047683716,2.450000047683716,245000
2019-05-21,2.4600000381469727,2.5799999237060547,2.440000057220459,2.5399999618530273,2.5399999618530273,147300
2019-05-22,2.5199999809265137,2.559999942779541,2.4200000762939453,2.440000057220459,2.440000057220459,202800
2019-05-23,2.440000057220459,2.4700000286102295,2.359999895095825,2.430000066757202,2.430000066757202,144300
2019-05-24,2.4700000286102295,2.5199999809265137,2.390000104904175,2.509999990463257,2.509999990463257,143900
2019-05-28,2.490000009536743,2.5899999141693115,2.4600000381469727,2.559999942779541,2.559999942779541,200100
2019-05-29,2.509999990463257,2.572999954223633,2.4600000381469727,2.490000009536743,2.490000009536743,133700
2019-05-30,2.490000009536743,2.5,2.4200000762939453,2.430000066757202,2.430000066757202,124500
2019-05-31,2.4200000762939453,2.450000047683716,2.359999895095825,2.430000066757202,2.430000066757202,152200
2019-06-03,2.4100000858306885,2.5399999618530273,2.4100000858306885,2.4800000190734863,2.4800000190734863,115900
2019-06-04,2.4700000286102295,2.490000009536743,2.440000057220459,2.444999933242798,2.444999933242798,128500
2019-06-05,2.5,2.559999942779541,2.319999933242798,2.440000057220459,2.440000057220459,361800
2019-06-06,2.440000057220459,2.4600000381469727,2.2699999809265137,2.319999933242798,2.319999933242798,186300
2019-06-07,2.309999942779541,2.390000104904175,2.23799991607666,2.359999895095825,2.359999895095825,247500
2019-06-10,2.4100000858306885,2.5299999713897705,2.3399999141693115,2.3399999141693115,2.3399999141693115,219200
2019-06-11,2.4200000762939453,2.4200000762939453,2.316999912261963,2.3499999046325684,2.3499999046325684,82900
2019-06-12,2.361999988555908,2.4100000858306885,2.319999933242798,2.3499999046325684,2.3499999046325684,110300
2019-06-13,2.380000114440918,2.4800000190734863,2.3499999046325684,2.4800000190734863,2.4800000190734863,199200
2019-06-14,2.4600000381469727,2.619999885559082,2.440000057220459,2.5799999237060547,2.5799999237060547,378400
2019-06-17,2.5799999237060547,2.5999999046325684,2.450000047683716,2.4600000381469727,2.4600000381469727,236200
2019-06-18,2.5,2.5799999237060547,2.3499999046325684,2.359999895095825,2.359999895095825,327100
2019-06-19,2.390000104904175,2.440000057220459,2.299999952316284,2.3299999237060547,2.3299999237060547,160300
2019-06-20,2.359999895095825,2.4019999504089355,2.299999952316284,2.309999942779541,2.309999942779541,128000
2019-06-21,2.309999942779541,2.3399999141693115,2.2300000190734863,2.299999952316284,2.299999952316284,111800
2019-06-24,2.2799999713897705,2.309999942779541,2.200000047683716,2.200000047683716,2.200000047683716,140300
2019-06-25,2.200000047683716,2.2360000610351562,2.134999990463257,2.190000057220459,2.190000057220459,194800
2019-06-26,2.240000009536743,2.2699999809265137,2.2100000381469727,2.2300000190734863,2.2300000190734863,107400
2019-06-27,2.2300000190734863,2.380000114440918,2.2190001010894775,2.309999942779541,2.309999942779541,218400
2019-06-28,2.309999942779541,2.380000114440918,2.309999942779541,2.380000114440918,2.380000114440918,116100
2019-07-01,2.359999895095825,2.490000009536743,2.3540000915527344,2.380000114440918,2.380000114440918,146700
2019-07-02,2.369999885559082,2.450000047683716,2.3499999046325684,2.359999895095825,2.359999895095825,99900
2019-07-03,2.3299999237060547,2.430000066757202,2.3299999237060547,2.380000114440918,2.380000114440918,70900
2019-07-05,2.4000000953674316,2.440000057220459,2.378000020980835,2.4200000762939453,2.4200000762939453,72700
2019-07-08,2.430000066757202,2.5399999618530273,2.4100000858306885,2.5,2.5,159600
2019-07-09,2.8499999046325684,2.950000047683716,2.5199999809265137,2.6600000858306885,2.6600000858306885,5558200
2019-07-10,2.5399999618530273,2.569999933242798,2.4000000953674316,2.450000047683716,2.450000047683716,593000
2019-07-11,2.430000066757202,2.450000047683716,2.359999895095825,2.4000000953674316,2.4000000953674316,323100
2019-07-12,2.430000066757202,2.490000009536743,2.3499999046325684,2.450000047683716,2.450000047683716,269200
2019-07-15,2.4800000190734863,2.490000009536743,2.4000000953674316,2.4700000286102295,2.4700000286102295,116000
2019-07-16,2.4600000381469727,2.5299999713897705,2.440000057220459,2.490000009536743,2.490000009536743,162800
2019-07-17,2.4800000190734863,2.4800000190734863,2.4100000858306885,2.450000047683716,2.450000047683716,73900
2019-07-18,2.430000066757202,2.437999963760376,2.319999933242798,2.3299999237060547,2.3299999237060547,166900
2019-07-19,2.4100000858306885,2.5399999618530273,2.309999942779541,2.3499999046325684,2.3499999046325684,1198000
2019-07-22,2.359999895095825,2.372999906539917,2.2300000190734863,2.3399999141693115,2.3399999141693115,472100
2019-07-23,2.319999933242798,2.369999885559082,2.259999990463257,2.309999942779541,2.309999942779541,298800
2019-07-24,2.3399999141693115,2.3499999046325684,2.2100000381469727,2.3299999237060547,2.3299999237060547,262600
2019-07-25,2.319999933242798,2.390000104904175,2.2899999618530273,2.3299999237060547,2.3299999237060547,309500
2019-07-26,2.3499999046325684,2.4700000286102295,2.3399999141693115,2.4100000858306885,2.4100000858306885,248000
2019-07-29,2.390000104904175,2.4149999618530273,2.299999952316284,2.3499999046325684,2.3499999046325684,113900
2019-07-30,2.319999933242798,2.430000066757202,2.309999942779541,2.390000104904175,2.390000104904175,114100
2019-07-31,2.369999885559082,2.4600000381469727,2.319999933242798,2.4000000953674316,2.4000000953674316,136500
2019-08-01,2.4100000858306885,2.453000068664551,2.3499999046325684,2.380000114440918,2.380000114440918,131200
2019-08-02,2.4100000858306885,2.4100000858306885,2.240000009536743,2.2899999618530273,2.2899999618530273,234400
2019-08-05,2.2200000286102295,2.309999942779541,2.200000047683716,2.2300000190734863,2.2300000190734863,182000
2019-08-06,2.2300000190734863,2.2799999713897705,2.194999933242798,2.2200000286102295,2.2200000286102295,115900
2019-08-07,2.2100000381469727,2.3499999046325684,2.180000066757202,2.259999990463257,2.259999990463257,173400
2019-08-08,2.25,2.319999933242798,2.2300000190734863,2.259999990463257,2.259999990463257,67300
2019-08-09,2.2799999713897705,2.299999952316284,2.200000047683716,2.2100000381469727,2.2100000381469727,153500
2019-08-12,2.2200000286102295,2.2799999713897705,2.1500000953674316,2.1700000762939453,2.1700000762939453,129100
2019-08-13,2.1500000953674316,2.25,2.119999885559082,2.119999885559082,2.119999885559082,158200
2019-08-14,2.200000047683716,2.200000047683716,2.0199999809265137,2.0299999713897705,2.0299999713897705,152200
2019-08-15,2.0399999618530273,2.059999942779541,1.9700000286102295,2.059999942779541,2.059999942779541,151300
2019-08-16,2.0199999809265137,2.0899999141693115,1.9900000095367432,2.0299999713897705,2.0299999713897705,136600
2019-08-19,2.0399999618530273,2.2100000381469727,2.009999990463257,2.190000057220459,2.190000057220459,235000
2019-08-20,2.2100000381469727,2.2100000381469727,2.109999895095825,2.130000114440918,2.130000114440918,62300
2019-08-21,2.2799999713897705,2.2899999618530273,2.069999933242798,2.119999885559082,2.119999885559082,250700
2019-08-22,2.109999895095825,2.1500000953674316,2.0799999237060547,2.132999897003174,2.132999897003174,47400
2019-08-23,2.0899999141693115,2.140000104904175,2.059999942779541,2.0799999237060547,2.0799999237060547,72600
2019-08-26,2.130000114440918,2.130000114440918,2.0199999809265137,2.0199999809265137,2.0199999809265137,56000
2019-08-27,2.0399999618530273,2.1080000400543213,1.9500000476837158,1.9600000381469727,1.9600000381469727,201600
2019-08-28,1.940000057220459,1.9900000095367432,1.940000057220459,1.9800000190734863,1.9800000190734863,71400
2019-08-29,2.0,2.069999933242798,1.9859999418258667,2.059999942779541,2.059999942779541,72700
2019-08-30,2.059999942779541,2.1500000953674316,2.0450000762939453,2.109999895095825,2.109999895095825,83900
2019-09-03,2.0799999237060547,2.190000057220459,2.059999942779541,2.0999999046325684,2.0999999046325684,74500
2019-09-04,2.119999885559082,2.1500000953674316,2.0799999237060547,2.0999999046325684,2.0999999046325684,65600
2019-09-05,2.1500000953674316,2.1600000858306885,2.049999952316284,2.059999942779541,2.059999942779541,161500
2019-09-06,2.1700000762939453,2.1700000762939453,2.0199999809265137,2.0199999809265137,2.0199999809265137,152800
2019-09-09,2.049999952316284,2.130000114440918,2.049999952316284,2.130000114440918,2.130000114440918,149700
2019-09-10,2.130000114440918,2.2899999618530273,2.0999999046325684,2.200000047683716,2.200000047683716,218300
2019-09-11,2.240000009536743,2.2699999809265137,2.1600000858306885,2.200000047683716,2.200000047683716,198400
2019-09-12,2.2300000190734863,2.25,2.1500000953674316,2.1500000953674316,2.1500000953674316,68000
2019-09-13,2.240000009536743,2.25,2.1600000858306885,2.25,2.25,77800
2019-09-16,2.200000047683716,2.2899999618530273,2.1700000762939453,2.2200000286102295,2.2200000286102295,234100
2019-09-17,2.2200000286102295,2.2699999809265137,2.1600000858306885,2.1700000762939453,2.1700000762939453,106300
2019-09-18,2.180000066757202,2.2200000286102295,2.0999999046325684,2.0999999046325684,2.0999999046325684,97900
2019-09-19,2.0999999046325684,2.1700000762939453,2.0199999809265137,2.0399999618530273,2.0399999618530273,106200
2019-09-20,2.0199999809265137,2.140000104904175,2.0199999809265137,2.109999895095825,2.109999895095825,120400
2019-09-23,2.0799999237060547,2.109999895095825,2.069999933242798,2.0899999141693115,2.0899999141693115,73000
2019-09-24,2.059999942779541,2.069999933242798,2.009999990463257,2.0299999713897705,2.0299999713897705,113300
2019-09-25,2.049999952316284,2.0799999237060547,2.009999990463257,2.009999990463257,2.009999990463257,87700
2019-09-26,2.009999990463257,2.109999895095825,1.9500000476837158,2.0,2.0,238100
2019-09-27,2.0,2.0399999618530273,1.9199999570846558,1.9500000476837158,1.9500000476837158,165500
2019-09-30,1.9299999475479126,2.009999990463257,1.909999966621399,1.9500000476837158,1.9500000476837158,119400
2019-10-01,1.9600000381469727,1.9889999628067017,1.899999976158142,1.899999976158142,1.899999976158142,166900
2019-10-02,1.909999966621399,1.9500000476837158,1.8899999856948853,1.8899999856948853,1.8899999856948853,60900
2019-10-03,1.8700000047683716,1.909999966621399,1.850000023841858,1.8799999952316284,1.8799999952316284,67100
2019-10-04,1.899999976158142,1.9700000286102295,1.899999976158142,1.899999976158142,1.899999976158142,132500
2019-10-07,1.909999966621399,1.9600000381469727,1.8899999856948853,1.899999976158142,1.899999976158142,52100
2019-10-08,1.909999966621399,1.9800000190734863,1.8700000047683716,1.9299999475479126,1.9299999475479126,232200
2019-10-09,1.9299999475479126,1.9600000381469727,1.909999966621399,1.9199999570846558,1.9199999570846558,40500
2019-10-10,1.9199999570846558,1.9579999446868896,1.899999976158142,1.899999976158142,1.899999976158142,53800
2019-10-11,1.9299999475479126,1.9800000190734863,1.899999976158142,1.9600000381469727,1.9600000381469727,46000
2019-10-14,1.9500000476837158,1.9700000286102295,1.940000057220459,1.9700000286102295,1.9700000286102295,27300
2019-10-15,1.9600000381469727,2.049999952316284,1.9500000476837158,2.049999952316284,2.049999952316284,93100
2019-10-16,2.059999942779541,2.0769999027252197,1.9800000190734863,2.0299999713897705,2.0299999713897705,123700
2019-10-17,2.0399999618530273,2.0399999618530273,1.9500000476837158,1.9900000095367432,1.9900000095367432,54000
2019-10-18,2.0,2.0299999713897705,1.9600000381469727,2.0199999809265137,2.0199999809265137,35800
2019-10-21,2.0199999809265137,2.0399999618530273,1.9800000190734863,1.9800000190734863,1.9800000190734863,46100
2019-10-22,2.0,2.0399999618530273,1.9500000476837158,2.009999990463257,2.009999990463257,48500
2019-10-23,2.009999990463257,2.0399999618530273,1.9600000381469727,2.0199999809265137,2.0199999809265137,49900
2019-10-24,2.0199999809265137,2.0399999618530273,1.9900000095367432,2.0,2.0,20700
2019-10-25,2.0,2.015000104904175,1.9500000476837158,1.9800000190734863,1.9800000190734863,53000
2019-10-28,1.9800000190734863,2.0299999713897705,1.9800000190734863,2.0199999809265137,2.0199999809265137,24700
2019-10-29,2.0199999809265137,2.0199999809265137,1.9800000190734863,1.9800000190734863,1.9800000190734863,24200
2019-10-30,2.0,2.0,1.9500000476837158,1.9500000476837158,1.9500000476837158,47700
2019-10-31,1.9700000286102295,1.9819999933242798,1.899999976158142,1.909999966621399,1.909999966621399,88800
2019-11-01,1.9299999475479126,1.9700000286102295,1.899999976158142,1.9500000476837158,1.9500000476837158,49700
2019-11-04,1.940000057220459,1.9589999914169312,1.899999976158142,1.9299999475479126,1.9299999475479126,46000
2019-11-05,1.9500000476837158,1.9500000476837158,1.909999966621399,1.9199999570846558,1.9199999570846558,57000
2019-11-06,1.9199999570846558,1.9199999570846558,1.8600000143051147,1.8700000047683716,1.8700000047683716,91000
2019-11-07,1.8700000047683716,1.8799999952316284,1.8300000429153442,1.8569999933242798,1.8569999933242798,65200
2019-11-08,1.850000023841858,1.8600000143051147,1.8200000524520874,1.840000033378601,1.840000033378601,73800
2019-11-11,1.8200000524520874,1.8289999961853027,1.75,1.7799999713897705,1.7799999713897705,121100
2019-11-12,1.7899999618530273,1.840000033378601,1.75,1.75,1.75,77200
2019-11-13,1.7799999713897705,1.7999999523162842,1.75,1.7599999904632568,1.7599999904632568,127300
2019-11-14,1.7000000476837158,1.7000000476837158,1.5210000276565552,1.6100000143051147,1.6100000143051147,573800
2019-11-15,1.600000023841858,1.649999976158142,1.5800000429153442,1.6100000143051147,1.6100000143051147,181200
2019-11-18,1.649999976158142,1.659999966621399,1.5299999713897705,1.559999942779541,1.559999942779541,191100
2019-11-19,1.5299999713897705,1.5700000524520874,1.5099999904632568,1.5299999713897705,1.5299999713897705,168000
2019-11-20,1.5399999618530273,1.6299999952316284,1.5299999713897705,1.5499999523162842,1.5499999523162842,148600
2019-11-21,1.5700000524520874,1.6799999475479126,1.5700000524520874,1.6699999570846558,1.6699999570846558,300900
2019-11-22,1.659999966621399,1.6699999570846558,1.6200000047683716,1.6200000047683716,1.6200000047683716,83300
2019-11-25,1.6100000143051147,1.659999966621399,1.593000054359436,1.649999976158142,1.649999976158142,97900
2019-11-26,1.6299999952316284,1.659999966621399,1.6100000143051147,1.649999976158142,1.649999976158142,111000
2019-11-27,1.649999976158142,1.6799999475479126,1.6200000047683716,1.659999966621399,1.659999966621399,80800
2019-11-29,1.690000057220459,1.8389999866485596,1.659999966621399,1.8200000524520874,1.8200000524520874,95200
2019-12-02,1.899999976158142,1.940000057220459,1.850000023841858,1.940000057220459,1.940000057220459,189300
2019-12-03,1.9500000476837158,2.1500000953674316,1.9299999475479126,2.1500000953674316,2.1500000953674316,295600
2019-12-04,2.1500000953674316,2.2200000286102295,2.0999999046325684,2.140000104904175,2.140000104904175,171400
2019-12-05,2.2100000381469727,2.240000009536743,1.8300000429153442,1.8300000429153442,1.8300000429153442,745800
2019-12-06,1.840000033378601,1.9199999570846558,1.8300000429153442,1.8799999952316284,1.8799999952316284,115100
2019-12-09,1.8899999856948853,1.9299999475479126,1.809999942779541,1.840000033378601,1.840000033378601,138700
2019-12-10,1.850000023841858,1.899999976158142,1.809999942779541,1.8300000429153442,1.8300000429153442,64100
2019-12-11,1.8300000429153442,1.899999976158142,1.7599999904632568,1.850000023841858,1.850000023841858,109200
2019-12-12,1.8200000524520874,1.8799999952316284,1.7899999618530273,1.7899999618530273,1.7899999618530273,112800
2019-12-13,1.7899999618530273,1.850000023841858,1.7100000381469727,1.7200000286102295,1.7200000286102295,141000
2019-12-16,1.7300000190734863,1.7999999523162842,1.7100000381469727,1.7400000095367432,1.7400000095367432,75600
2019-12-17,1.7300000190734863,1.75,1.7050000429153442,1.7400000095367432,1.7400000095367432,80700
2019-12-18,1.7300000190734863,1.7799999713897705,1.7100000381469727,1.7100000381469727,1.7100000381469727,40400
2019-12-19,1.7899999618530273,1.7949999570846558,1.7100000381469727,1.7799999713897705,1.7799999713897705,118700
2019-12-20,1.7699999809265137,1.8300000429153442,1.7400000095367432,1.7599999904632568,1.7599999904632568,101500
2019-12-23,1.7599999904632568,1.809999942779541,1.7300000190734863,1.7699999809265137,1.7699999809265137,129900
2019-12-24,1.7799999713897705,1.809999942779541,1.7699999809265137,1.7699999809265137,1.7699999809265137,70300
2019-12-26,1.7699999809265137,1.8300000429153442,1.7699999809265137,1.7899999618530273,1.7899999618530273,66800
2019-12-27,1.7599999904632568,1.8300000429153442,1.7599999904632568,1.7999999523162842,1.7999999523162842,263300
2019-12-30,1.8200000524520874,1.8300000429153442,1.7699999809265137,1.7999999523162842,1.7999999523162842,159800
2019-12-31,1.7799999713897705,1.9199999570846558,1.7799999713897705,1.8899999856948853,1.8899999856948853,338600
2020-01-02,1.8899999856948853,1.9299999475479126,1.8799999952316284,1.9210000038146973,1.9210000038146973,124100
2020-01-03,1.9199999570846558,1.9500000476837158,1.8910000324249268,1.9199999570846558,1.9199999570846558,136700
2020-01-06,1.940000057220459,1.9500000476837158,1.909999966621399,1.9500000476837158,1.9500000476837158,55100
2020-01-07,1.9700000286102295,1.9700000286102295,1.940000057220459,1.9500000476837158,1.9500000476837158,60200
2020-01-08,1.9600000381469727,1.9700000286102295,1.8799999952316284,1.8799999952316284,1.8799999952316284,52200
2020-01-09,1.909999966621399,1.9249999523162842,1.8600000143051147,1.8700000047683716,1.8700000047683716,56100
2020-01-10,1.8700000047683716,1.8799999952316284,1.809999942779541,1.850000023841858,1.850000023841858,72700
2020-01-13,1.7799999713897705,1.8200000524520874,1.7100000381469727,1.7799999713897705,1.7799999713897705,71000
2020-01-14,1.7599999904632568,1.8240000009536743,1.7599999904632568,1.7699999809265137,1.7699999809265137,52200
2020-01-15,1.7799999713897705,1.809999942779541,1.7699999809265137,1.7999999523162842,1.7999999523162842,43200
2020-01-16,1.7899999618530273,1.840000033378601,1.7899999618530273,1.8229999542236328,1.8229999542236328,78600
2020-01-17,1.840000033378601,1.8700000047683716,1.8300000429153442,1.840000033378601,1.840000033378601,57600
2020-01-21,1.940000057220459,2.200000047683716,1.8700000047683716,2.0199999809265137,2.0199999809265137,1522600
2020-01-22,1.9700000286102295,2.059999942779541,1.8799999952316284,2.0250000953674316,2.0250000953674316,1221500
2020-01-23,2.0799999237060547,2.1500000953674316,1.909999966621399,2.009999990463257,2.009999990463257,1670800
2020-01-24,1.9800000190734863,1.9800000190734863,1.899999976158142,1.909999966621399,1.909999966621399,349000
2020-01-27,1.899999976158142,1.9299999475479126,1.8220000267028809,1.850000023841858,1.850000023841858,194500
2020-01-28,1.8700000047683716,1.8899999856948853,1.7599999904632568,1.8300000429153442,1.8300000429153442,157300
2020-01-29,1.8200000524520874,1.850000023841858,1.75,1.809999942779541,1.809999942779541,185200
2020-01-30,1.7999999523162842,1.840000033378601,1.7400000095367432,1.7699999809265137,1.7699999809265137,117000
2020-01-31,1.7599999904632568,1.809999942779541,1.690000057220459,1.7200000286102295,1.7200000286102295,297900
2020-02-03,1.7200000286102295,1.8300000429153442,1.7200000286102295,1.7599999904632568,1.7599999904632568,75800
2020-02-04,1.7999999523162842,1.7999999523162842,1.7300000190734863,1.75,1.75,92100
2020-02-05,1.7699999809265137,1.850000023841858,1.75,1.809999942779541,1.809999942779541,198600
2020-02-06,1.7999999523162842,1.8799999952316284,1.75,1.7899999618530273,1.7899999618530273,80100
2020-02-07,1.7699999809265137,1.940000057220459,1.7300000190734863,1.7999999523162842,1.7999999523162842,436000
2020-02-10,1.8300000429153442,1.8300000429153442,1.7599999904632568,1.7899999618530273,1.7899999618530273,153400
2020-02-11,1.809999942779541,1.809999942779541,1.7569999694824219,1.7699999809265137,1.7699999809265137,124300
2020-02-12,1.7699999809265137,1.7999999523162842,1.7100000381469727,1.7200000286102295,1.7200000286102295,109400
2020-02-13,1.7000000476837158,1.7599999904632568,1.690000057220459,1.7100000381469727,1.7100000381469727,138300
2020-02-14,1.7000000476837158,1.75,1.6740000247955322,1.7400000095367432,1.7400000095367432,74100
2020-02-18,1.7000000476837158,1.75,1.6799999475479126,1.7100000381469727,1.7100000381469727,60000
2020-02-19,1.7100000381469727,1.7599999904632568,1.7100000381469727,1.7599999904632568,1.7599999904632568,60200
2020-02-20,1.7599999904632568,1.7799999713897705,1.7300000190734863,1.7699999809265137,1.7699999809265137,45700
2020-02-21,1.7899999618530273,1.7899999618530273,1.7200000286102295,1.7599999904632568,1.7599999904632568,74400
2020-02-24,1.7999999523162842,1.809999942779541,1.7100000381469727,1.7699999809265137,1.7699999809265137,209700
2020-02-25,1.7999999523162842,1.8300000429153442,1.7100000381469727,1.7300000190734863,1.7300000190734863,157800
2020-02-26,1.7599999904632568,1.7799999713897705,1.6699999570846558,1.690000057220459,1.690000057220459,102500
2020-02-27,1.690000057220459,1.7799999713897705,1.600000023841858,1.7599999904632568,1.7599999904632568,484000
2020-02-28,4.179999828338623,4.449999809265137,3.0,3.700000047683716,3.700000047683716,26087100
2020-03-02,3.799999952316284,3.880000114440918,2.7100000381469727,3.1600000858306885,3.1600000858306885,5219400
2020-03-03,2.9000000953674316,3.507999897003174,2.5,3.259999990463257,3.259999990463257,5880500
2020-03-04,3.0399999618530273,3.0899999141693115,2.75,2.8499999046325684,2.8499999046325684,2026000
2020-03-05,3.0,3.4539999961853027,2.8499999046325684,3.369999885559082,3.369999885559082,2907300
2020-03-06,3.7699999809265137,3.9000000953674316,3.4000000953674316,3.799999952316284,3.799999952316284,5011700
2020-03-09,3.990000009536743,3.990000009536743,3.109999895095825,3.1600000858306885,3.1600000858306885,2229300
2020-03-10,3.0,3.0759999752044678,2.5,2.609999895095825,2.609999895095825,1828700
2020-03-11,3.0999999046325684,3.7899999618530273,2.9100000858306885,3.190000057220459,3.190000057220459,5055100
2020-03-12,3.309999942779541,3.430000066757202,2.799999952316284,3.299999952316284,3.299999952316284,1307400
2020-03-13,3.059999942779541,3.25,2.700000047683716,2.890000104904175,2.890000104904175,1342000
2020-03-16,2.740000009536743,3.2899999618530273,2.549999952316284,2.890000104904175,2.890000104904175,1084700
2020-03-17,3.0,3.0999999046325684,2.809999942779541,2.990000009536743,2.990000009536743,776300
2020-03-18,3.0999999046325684,3.200000047683716,2.75,2.819999933242798,2.819999933242798,956000
2020-03-19,2.890000104904175,3.069999933242798,2.799999952316284,2.8499999046325684,2.8499999046325684,797200
2020-03-20,2.8499999046325684,3.069999933242798,2.75,2.940000057220459,2.940000057220459,957200
2020-03-23,3.0399999618530273,3.049999952316284,2.75,2.950000047683716,2.950000047683716,746200
2020-03-24,3.0,3.299999952316284,2.9000000953674316,3.200000047683716,3.200000047683716,2705000
2020-03-25,3.1500000953674316,3.4800000190734863,3.059999942779541,3.430000066757202,3.430000066757202,1803200
2020-03-26,3.490000009536743,3.7300000190734863,3.0999999046325684,3.25,3.25,1962200
2020-03-27,2.700000047683716,2.9600000381469727,2.680000066757202,2.8499999046325684,2.8499999046325684,1685800
2020-03-30,3.0399999618530273,3.200000047683716,2.859999895095825,3.0199999809265137,3.0199999809265137,1773500
2020-03-31,3.069999933242798,3.2799999713897705,2.8499999046325684,3.2100000381469727,3.2100000381469727,1807700
2020-04-01,3.25,3.2799999713897705,2.8499999046325684,3.0399999618530273,3.0399999618530273,1731100
2020-04-02,2.9100000858306885,3.0399999618530273,2.890000104904175,3.0199999809265137,3.0199999809265137,534400
2020-04-03,2.9700000286102295,2.990000009536743,2.859999895095825,2.9000000953674316,2.9000000953674316,371500
2020-04-06,2.940000057220459,3.0399999618530273,2.859999895095825,2.9700000286102295,2.9700000286102295,428100
2020-04-07,2.940000057220459,3.430000066757202,2.9000000953674316,3.3499999046325684,3.3499999046325684,3150500
2020-04-08,3.490000009536743,3.5399999618530273,3.130000114440918,3.3499999046325684,3.3499999046325684,1845000
2020-04-09,3.3499999046325684,3.4200000762939453,3.127000093460083,3.1700000762939453,3.1700000762939453,658500
2020-04-13,3.1600000858306885,3.299999952316284,3.059999942779541,3.259999990463257,3.259999990463257,374400
2020-04-14,3.380000114440918,3.4089999198913574,3.2100000381469727,3.25,3.25,371600
2020-04-15,3.1700000762939453,3.4200000762939453,3.130000114440918,3.4100000858306885,3.4100000858306885,580800
2020-04-16,3.5,3.5999999046325684,3.309999942779541,3.4600000381469727,3.4600000381469727,1255100
2020-04-17,3.5,3.5,3.2899999618530273,3.319999933242798,3.319999933242798,474500
2020-04-20,3.299999952316284,3.3450000286102295,3.180000066757202,3.2300000190734863,3.2300000190734863,433400
2020-04-21,3.2300000190734863,3.299999952316284,3.069999933242798,3.1700000762939453,3.1700000762939453,579400
2020-04-22,3.25,3.2899999618530273,3.049999952316284,3.069999933242798,3.069999933242798,367600
2020-04-23,3.0799999237060547,3.180000066757202,3.0299999713897705,3.0899999141693115,3.0899999141693115,306100
2020-04-24,3.0999999046325684,3.2300000190734863,3.0299999713897705,3.1600000858306885,3.1600000858306885,660700
2020-04-27,3.259999990463257,3.2799999713897705,3.0999999046325684,3.1600000858306885,3.1600000858306885,425700
2020-04-28,3.2200000286102295,3.240000009536743,3.009999990463257,3.0899999141693115,3.0899999141693115,417600
2020-04-29,3.1600000858306885,3.1600000858306885,2.9700000286102295,3.0399999618530273,3.0399999618530273,568200
2020-04-30,3.069999933242798,3.069999933242798,2.950000047683716,3.049999952316284,3.049999952316284,420400
2020-05-01,3.0399999618530273,3.0399999618530273,2.880000114440918,2.9600000381469727,2.9600000381469727,601500
2020-05-04,3.0,3.180000066757202,2.9100000858306885,3.1500000953674316,3.1500000953674316,509400
2020-05-05,3.180000066757202,3.2100000381469727,3.0799999237060547,3.140000104904175,3.140000104904175,381400
2020-05-06,3.130000114440918,3.140000104904175,3.009999990463257,3.0999999046325684,3.0999999046325684,408000
2020-05-07,3.140000104904175,3.1500000953674316,3.049999952316284,3.119999885559082,3.119999885559082,349600
2020-05-08,3.1700000762939453,3.1700000762939453,3.0299999713897705,3.109999895095825,3.109999895095825,528100
2020-05-11,3.1500000953674316,3.180000066757202,3.049999952316284,3.1500000953674316,3.1500000953674316,460800
2020-05-12,3.25,3.8550000190734863,3.25,3.700000047683716,3.700000047683716,2970700
2020-05-13,3.75,4.449999809265137,3.6500000953674316,4.130000114440918,4.130000114440918,5858600
2020-05-14,5.099999904632568,5.739999771118164,4.420000076293945,4.489999771118164,4.489999771118164,21069200
2020-05-15,4.329999923706055,4.710000038146973,4.269999980926514,4.480000019073486,4.480000019073486,2714500
2020-05-18,4.590000152587891,4.670000076293945,4.360000133514404,4.5,4.5,1731300
2020-05-19,4.699999809265137,5.349999904632568,4.579999923706055,4.929999828338623,4.929999828338623,2837900
2020-05-20,5.199999809265137,6.690000057220459,5.170000076293945,6.059999942779541,6.059999942779541,12302300
2020-05-21,6.159999847412109,6.460000038146973,5.75,6.079999923706055,6.079999923706055,3665700
2020-05-22,6.0,7.0,5.949999809265137,6.949999809265137,6.949999809265137,5003800
2020-05-26,7.659999847412109,10.680000305175781,7.460000038146973,8.420000076293945,8.420000076293945,36457100
2020-05-27,8.399999618530273,8.399999618530273,6.170000076293945,8.09000015258789,8.09000015258789,6698000
2020-05-28,7.679999828338623,9.149999618530273,7.550000190734863,8.180000305175781,8.180000305175781,3300600
2020-05-29,9.079999923706055,9.479999542236328,8.555000305175781,9.279999732971191,9.279999732971191,4291300
2020-06-01,9.380000114440918,9.529999732971191,8.5600004196167,8.640000343322754,8.640000343322754,3287000
2020-06-02,8.40999984741211,9.09000015258789,8.050000190734863,8.949999809265137,8.949999809265137,1959500
2020-06-03,9.0,9.050000190734863,8.279999732971191,8.329999923706055,8.329999923706055,1592600
2020-06-04,8.170000076293945,8.569999694824219,7.070000171661377,7.550000190734863,7.550000190734863,2719800
2020-06-05,7.409999847412109,7.949999809265137,7.059999942779541,7.559999942779541,7.559999942779541,1606800
2020-06-08,7.320000171661377,7.380000114440918,6.5,6.949999809265137,6.949999809265137,1974800
2020-06-09,6.659999847412109,6.849999904632568,6.449999809265137,6.46999979019165,6.46999979019165,1155900
2020-06-10,6.510000228881836,6.559999942779541,5.710000038146973,6.050000190734863,6.050000190734863,1320700
2020-06-11,5.820000171661377,7.449999809265137,5.75,7.110000133514404,7.110000133514404,2760800
2020-06-12,7.110000133514404,8.024999618530273,7.110000133514404,7.539999961853027,7.539999961853027,2255700
2020-06-15,7.349999904632568,7.789999961853027,7.130000114440918,7.679999828338623,7.679999828338623,2929900
2020-06-16,7.900000095367432,8.180000305175781,7.539999961853027,7.75,7.75,1614100
2020-06-17,7.75,8.050000190734863,7.349999904632568,7.420000076293945,7.420000076293945,872000
2020-06-18,7.550000190734863,7.550000190734863,6.880000114440918,7.300000190734863,7.300000190734863,1044400
2020-06-19,7.449999809265137,7.489999771118164,7.119999885559082,7.400000095367432,7.400000095367432,800400
2020-06-22,8.0,8.460000038146973,7.820000171661377,8.180000305175781,8.180000305175781,3027400
2020-06-23,8.25,8.4399995803833,7.929999828338623,8.350000381469727,8.350000381469727,1411300
2020-06-24,8.350000381469727,8.439000129699707,8.0,8.380000114440918,8.380000114440918,1263300
2020-06-25,8.350000381469727,9.479999542236328,8.0600004196167,9.1899995803833,9.1899995803833,2945400
2020-06-26,10.90999984741211,11.199999809265137,9.869999885559082,10.600000381469727,10.600000381469727,6409200
2020-06-29,12.0,12.739999771118164,9.65999984741211,10.420000076293945,10.420000076293945,5812600
2020-06-30,9.989999771118164,11.039999961853027,9.899999618530273,10.710000038146973,10.710000038146973,1672100
2020-07-01,10.529999732971191,10.550000190734863,8.600000381469727,9.9399995803833,9.9399995803833,2755700
2020-07-02,9.649999618530273,10.75,9.369999885559082,10.420000076293945,10.420000076293945,1642200
2020-07-06,10.59000015258789,10.600000381469727,9.630000114440918,9.930000305175781,9.930000305175781,1181200
2020-07-07,9.920000076293945,11.380000114440918,9.850000381469727,11.1899995803833,11.1899995803833,2484200
2020-07-08,11.699999809265137,20.649999618530273,11.329999923706055,17.030000686645508,17.030000686645508,18213700
2020-07-09,16.729999542236328,24.649999618530273,16.110000610351562,20.219999313354492,20.219999313354492,58738100
2020-07-10,19.485000610351562,24.389999389648438,19.323999404907227,22.350000381469727,22.350000381469727,17919500
2020-07-13,27.479999542236328,28.670000076293945,24.6299991607666,25.0,25.0,15464100
2020-07-14,26.899999618530273,33.301998138427734,25.6200008392334,29.030000686645508,29.030000686645508,16127500
2020-07-15,29.5,30.190000534057617,22.799999237060547,26.5,26.5,8553600
2020-07-16,25.260000228881836,27.429000854492188,24.329999923706055,26.579999923706055,26.579999923706055,2558300
2020-07-17,26.450000762939453,29.200000762939453,26.31999969482422,28.65999984741211,28.65999984741211,4347100
2020-07-20,29.350000381469727,35.099998474121094,25.15999984741211,33.2599983215332,33.2599983215332,6091700
2020-07-21,31.979999542236328,33.20000076293945,30.540000915527344,31.399999618530273,31.399999618530273,2577700
2020-07-22,31.575000762939453,31.575000762939453,28.280000686645508,28.979999542236328,28.979999542236328,2843400
2020-07-23,28.6299991607666,29.489999771118164,26.799999237060547,27.649999618530273,27.649999618530273,2028700
2020-07-24,26.520000457763672,27.610000610351562,25.25,25.6299991607666,25.6299991607666,1931100
2020-07-27,25.579999923706055,27.309999465942383,20.764999389648438,22.43000030517578,22.43000030517578,3573300
2020-07-28,23.600000381469727,24.989999771118164,22.860000610351562,23.600000381469727,23.600000381469727,1763500
2020-07-29,23.799999237060547,23.969999313354492,21.360000610351562,22.520000457763672,22.520000457763672,2102900
2020-07-30,21.56999969482422,26.299999237060547,21.56999969482422,26.059999465942383,26.059999465942383,2892300
2020-07-31,27.0,28.329999923706055,25.65999984741211,26.579999923706055,26.579999923706055,2976900
2020-08-03,26.510000228881836,27.780000686645508,25.549999237060547,27.25,27.25,2207100
2020-08-04,27.170000076293945,29.709999084472656,26.34000015258789,28.18000030517578,28.18000030517578,2305200
2020-08-05,27.530000686645508,28.3799991607666,26.75,27.15999984741211,27.15999984741211,1416300
2020-08-06,27.079999923706055,27.540000915527344,26.049999237060547,26.5,26.5,1104400
2020-08-07,26.100000381469727,28.190000534057617,26.100000381469727,27.3799991607666,27.3799991607666,1029700
2020-08-10,27.329999923706055,27.788999557495117,25.503999710083008,26.094999313354492,26.094999313354492,1092900
2020-08-11,25.34000015258789,25.350000381469727,22.0,23.100000381469727,23.100000381469727,2371500
2020-08-12,22.25,25.0,20.209999084472656,22.579999923706055,22.579999923706055,2126000
2020-08-13,21.899999618530273,24.459999084472656,21.809999465942383,23.700000762939453,23.700000762939453,887800
2020-08-14,24.170000076293945,25.0,23.020000457763672,24.65999984741211,24.65999984741211,1018800
2020-08-17,24.600000381469727,26.75,24.59000015258789,26.559999465942383,26.559999465942383,1535600
2020-08-18,26.559999465942383,26.58099937438965,24.770000457763672,25.760000228881836,25.760000228881836,1317000
2020-08-19,25.3799991607666,25.864999771118164,24.170000076293945,24.43000030517578,24.43000030517578,1032900
2020-08-20,24.520000457763672,26.399999618530273,24.350000381469727,26.06999969482422,26.06999969482422,1341500
2020-08-21,25.600000381469727,26.31999969482422,23.43000030517578,24.040000915527344,24.040000915527344,1542300
2020-08-24,23.1200008392334,23.155000686645508,21.200000762939453,21.989999771118164,21.989999771118164,1511200
2020-08-25,23.299999237060547,23.799999237060547,21.520000457763672,21.56999969482422,21.56999969482422,1366200
2020-08-26,21.420000076293945,21.59000015258789,17.65999984741211,18.420000076293945,18.420000076293945,3319200
2020-08-27,18.469999313354492,18.700000762939453,17.52400016784668,18.219999313354492,18.219999313354492,1047400
2020-08-28,18.44499969482422,18.44499969482422,17.260000228881836,17.6200008392334,17.6200008392334,1272900
2020-08-31,17.850000381469727,17.850000381469727,16.549999237060547,16.8700008392334,16.8700008392334,1378100
2020-09-01,16.459999084472656,16.940000534057617,14.109999656677246,15.09000015258789,15.09000015258789,1838300
2020-09-02,14.789999961853027,15.140000343322754,13.279999732971191,14.609999656677246,14.609999656677246,1421000
2020-09-03,14.470000267028809,14.968999862670898,13.369999885559082,13.40999984741211,13.40999984741211,1008100
2020-09-04,13.239999771118164,13.40999984741211,12.0,12.430000305175781,12.430000305175781,1206200
2020-09-08,12.430000305175781,13.470000267028809,11.75,12.649999618530273,12.649999618530273,1294700
2020-09-09,12.800000190734863,13.649999618530273,12.390000343322754,12.539999961853027,12.539999961853027,1021100
2020-09-10,12.550000190734863,12.600000381469727,11.890000343322754,11.930000305175781,11.930000305175781,1972200
2020-09-11,12.109999656677246,12.619999885559082,11.850000381469727,12.09000015258789,12.09000015258789,1296200
2020-09-14,12.270000457763672,13.710000038146973,12.270000457763672,13.239999771118164,13.239999771118164,1808900
2020-09-15,13.270000457763672,13.6899995803833,12.260000228881836,12.449999809265137,12.449999809265137,1337400
2020-09-16,12.5,14.8100004196167,12.479999542236328,13.84000015258789,13.84000015258789,2636400
2020-09-17,14.100000381469727,15.630000114440918,13.699999809265137,14.020000457763672,14.020000457763672,3076700
2020-09-18,14.180000305175781,14.430000305175781,13.399999618530273,14.119999885559082,14.119999885559082,2456000
2020-09-21,13.899999618530273,14.34000015258789,13.220000267028809,13.569999694824219,13.569999694824219,882100
2020-09-22,13.520000457763672,14.520000457763672,13.119999885559082,14.350000381469727,14.350000381469727,1980500
2020-09-23,14.369999885559082,14.399999618530273,12.319999694824219,12.529999732971191,12.529999732971191,1322600
2020-09-24,12.460000038146973,12.460000038146973,11.699999809265137,12.029999732971191,12.029999732971191,760000
2020-09-25,13.055000305175781,13.890000343322754,12.458999633789062,12.920000076293945,12.920000076293945,2262200
2020-09-28,13.130000114440918,13.130000114440918,12.0,12.300000190734863,12.300000190734863,1217500
2020-09-29,12.170000076293945,13.010000228881836,11.890000343322754,13.010000228881836,13.010000228881836,1373800
2020-09-30,12.899999618530273,13.449999809265137,12.701000213623047,13.199999809265137,13.199999809265137,979300
2020-10-01,13.100000381469727,13.4399995803833,12.619999885559082,12.930000305175781,12.930000305175781,844800
2020-10-02,12.699999809265137,13.350000381469727,12.520000457763672,12.970000267028809,12.970000267028809,735000
2020-10-05,13.010000228881836,13.90999984741211,12.75,13.869999885559082,13.869999885559082,963500
2020-10-06,13.96500015258789,14.399999618530273,13.600000381469727,13.640000343322754,13.640000343322754,849400
2020-10-07,13.779999732971191,14.460000038146973,13.510000228881836,13.779999732971191,13.779999732971191,903700
2020-10-08,14.0,14.0649995803833,13.210000038146973,13.300000190734863,13.300000190734863,804300
2020-10-09,13.34000015258789,13.350000381469727,12.210000038146973,12.369999885559082,12.369999885559082,1199800
2020-10-12,12.800000190734863,13.460000038146973,12.3100004196167,12.600000381469727,12.600000381469727,2471700
2020-10-13,14.199999809265137,16.25,13.819999694824219,14.220000267028809,14.220000267028809,13365900
2020-10-14,14.449999809265137,14.449999809265137,12.609999656677246,12.800000190734863,12.800000190734863,2939400
2020-10-15,12.609999656677246,13.15999984741211,12.15999984741211,13.130000114440918,13.130000114440918,1930600
2020-10-16,13.079999923706055,13.40999984741211,12.699999809265137,12.970000267028809,12.970000267028809,1008500
2020-10-19,13.0,13.008999824523926,12.069999694824219,12.1899995803833,12.1899995803833,1225700
2020-10-20,12.180000305175781,12.449999809265137,11.199999809265137,11.390000343322754,11.390000343322754,1393700
2020-10-21,11.279999732971191,11.550000190734863,10.949999809265137,11.050000190734863,11.050000190734863,828400
2020-10-22,11.057999610900879,11.729999542236328,10.90999984741211,11.680000305175781,11.680000305175781,777300
2020-10-23,11.600000381469727,12.020000457763672,11.300000190734863,12.0,12.0,540800
2020-10-26,12.010000228881836,12.420000076293945,11.40999984741211,11.8100004196167,11.8100004196167,848100
2020-10-27,11.779999732971191,12.109000205993652,11.460000038146973,11.8100004196167,11.8100004196167,496600
2020-10-28,11.399999618530273,11.760000228881836,10.960000038146973,11.199999809265137,11.199999809265137,612800
2020-10-29,11.350000381469727,11.5600004196167,10.40999984741211,11.430000305175781,11.430000305175781,1597900
2020-10-30,11.239999771118164,11.520000457763672,10.869999885559082,11.449999809265137,11.449999809265137,1087800
2020-11-02,11.369999885559082,11.479999542236328,11.050000190734863,11.350000381469727,11.350000381469727,473700
2020-11-03,11.199999809265137,11.739999771118164,11.130000114440918,11.649999618530273,11.649999618530273,451200
2020-11-04,11.600000381469727,12.5600004196167,11.53499984741211,12.510000228881836,12.510000228881836,762300
2020-11-05,12.600000381469727,12.75,12.050000190734863,12.399999618530273,12.399999618530273,769400
2020-11-06,12.15999984741211,12.489999771118164,11.989999771118164,12.449999809265137,12.449999809265137,653600
2020-11-09,12.180000305175781,12.300000190734863,7.800000190734863,7.835000038146973,7.835000038146973,5970700
2020-11-10,8.84000015258789,9.774999618530273,8.40999984741211,9.329999923706055,9.329999923706055,4380500
2020-11-11,9.5,10.130000114440918,9.079999923706055,9.979999542236328,9.979999542236328,1379400
2020-11-12,10.039999961853027,10.670000076293945,9.699999809265137,10.640000343322754,10.640000343322754,2049800
2020-11-13,10.90999984741211,10.9399995803833,9.9399995803833,10.130000114440918,10.130000114440918,1212300
2020-11-16,9.369999885559082,9.857999801635742,9.029999732971191,9.420000076293945,9.420000076293945,1818100
2020-11-17,9.359999656677246,9.699000358581543,9.109999656677246,9.510000228881836,9.510000228881836,883800
2020-11-18,9.619999885559082,9.64900016784668,9.180000305175781,9.319999694824219,9.319999694824219,920100
2020-11-19,9.4399995803833,9.619999885559082,9.260000228881836,9.569999694824219,9.569999694824219,1211400
2020-11-20,9.579999923706055,9.609999656677246,9.300000190734863,9.319999694824219,9.319999694824219,1022100
2020-11-23,9.319999694824219,9.470000267028809,8.760000228881836,9.239999771118164,9.239999771118164,2186900
2020-11-24,10.039999961853027,10.069999694824219,9.020000457763672,9.25,9.25,1959800
2020-11-25,9.170000076293945,10.149999618530273,9.050000190734863,10.09000015258789,10.09000015258789,2216500
2020-11-27,10.045000076293945,10.6899995803833,9.569999694824219,10.520000457763672,10.520000457763672,1481100
2020-11-30,10.699999809265137,12.539999961853027,10.569999694824219,12.229999542236328,12.229999542236328,3772600
2020-12-01,13.550000190734863,15.369999885559082,12.75,13.819999694824219,13.819999694824219,8201700
2020-12-02,12.779999732971191,12.84000015258789,10.979999542236328,11.850000381469727,11.850000381469727,3657100
2020-12-03,11.989999771118164,12.890000343322754,11.699999809265137,12.829999923706055,12.829999923706055,1725100
2020-12-04,12.850000381469727,13.1899995803833,12.100000381469727,12.329999923706055,12.329999923706055,1546600
2020-12-07,12.289999961853027,13.305999755859375,12.220999717712402,12.869999885559082,12.869999885559082,1552300
2020-12-08,12.899999618530273,13.289999961853027,12.300000190734863,13.239999771118164,13.239999771118164,1254300
2020-12-09,13.329999923706055,13.449999809265137,11.829999923706055,12.3100004196167,12.3100004196167,1507200
2020-12-10,11.914999961853027,12.680000305175781,11.914999961853027,12.270000457763672,12.270000457763672,925000
2020-12-11,12.319999694824219,12.899999618530273,11.920000076293945,11.970000267028809,11.970000267028809,1141000
2020-12-14,12.404999732971191,14.569999694824219,12.404999732971191,13.34000015258789,13.34000015258789,3610800
2020-12-15,13.449999809265137,13.5,12.25,12.529999732971191,12.529999732971191,1671200
2020-12-16,12.6899995803833,12.800000190734863,11.90999984741211,12.270000457763672,12.270000457763672,1132600
2020-12-17,12.220000267028809,13.039999961853027,11.899999618530273,12.890000343322754,12.890000343322754,1545700
2020-12-18,12.850000381469727,13.039999961853027,12.109999656677246,12.470000267028809,12.470000267028809,1644900
2020-12-21,12.5,13.850000381469727,12.199999809265137,13.4399995803833,13.4399995803833,1721800
2020-12-22,13.550000190734863,13.949999809265137,12.949999809265137,13.550000190734863,13.550000190734863,1322200
2020-12-23,13.470000267028809,13.6899995803833,12.520000457763672,12.619999885559082,12.619999885559082,2267100
2020-12-24,11.270000457763672,12.295000076293945,11.25,11.449999809265137,11.449999809265137,2637800
2020-12-28,12.0600004196167,12.270000457763672,11.020000457763672,11.100000381469727,11.100000381469727,1974300
2020-12-29,11.25,11.5,10.460000038146973,11.0,11.0,1845800
2020-12-30,11.371999740600586,11.880000114440918,10.899999618530273,11.300000190734863,11.300000190734863,1788900
