Date,Open,High,Low,Close,Adj Close,Volume
2018-11-13,191.0,191.0,181.1999969482422,182.0,169.42474365234375,695
2018-11-14,191.0,192.0,166.1999969482422,166.1999969482422,154.71644592285156,2810
2018-11-15,171.0,184.0,170.39999389648438,176.39999389648438,164.21168518066406,27645
2018-11-16,179.60000610351562,182.1999969482422,171.39999389648438,173.60000610351562,161.60516357421875,5660
2018-11-19,175.1999969482422,176.1999969482422,164.8000030517578,165.0,153.59934997558594,1145
2018-11-20,162.8000030517578,164.0,155.60000610351562,156.8000030517578,145.9659423828125,4395
2018-11-21,155.60000610351562,159.60000610351562,146.60000610351562,154.0,143.35940551757812,12000
2018-11-23,156.0,157.1999969482422,156.0,156.8000030517578,145.9659423828125,70
2018-11-26,163.8000030517578,163.8000030517578,149.1999969482422,160.0,148.94482421875,2000
2018-11-27,159.60000610351562,159.60000610351562,148.1999969482422,155.0,144.29031372070312,9845
2018-11-28,154.8000030517578,155.39999389648438,149.8000030517578,153.8000030517578,143.17323303222656,6325
2018-11-29,155.1999969482422,157.0,151.60000610351562,152.8000030517578,142.2423095703125,5675
2018-11-30,152.8000030517578,159.8000030517578,151.0,152.8000030517578,142.2423095703125,18175
2018-12-03,156.8000030517578,163.0,153.0,157.0,146.15211486816406,1045
2018-12-04,153.60000610351562,161.0,152.39999389648438,154.39999389648438,143.73175048828125,1140
2018-12-06,152.8000030517578,159.60000610351562,152.0,155.0,144.29031372070312,15480
2018-12-07,163.0,163.0,152.1999969482422,156.8000030517578,145.9659423828125,115520
2018-12-10,158.8000030517578,172.0,158.8000030517578,166.39999389648438,154.90261840820312,17460
2018-12-11,170.1999969482422,191.8000030517578,168.1999969482422,183.1999969482422,170.5418243408203,9995
2018-12-12,190.39999389648438,204.0,183.0,194.0,180.59561157226562,12920
2018-12-13,192.1999969482422,200.0,185.60000610351562,189.0,175.9410858154297,14665
2018-12-14,189.1999969482422,204.0,169.0,174.60000610351562,162.5360565185547,19620
2018-12-17,209.60000610351562,209.60000610351562,175.1999969482422,181.1999969482422,168.68002319335938,15310
2018-12-18,179.8000030517578,200.0,173.1999969482422,174.0,161.97750854492188,9925
2018-12-19,171.60000610351562,176.1999969482422,164.60000610351562,169.39999389648438,157.69532775878906,27475
2018-12-20,166.8000030517578,169.0,151.60000610351562,155.8000030517578,145.03504943847656,22865
2018-12-21,154.60000610351562,167.39999389648438,152.60000610351562,152.60000610351562,142.05612182617188,12000
2018-12-24,151.0,165.60000610351562,151.0,154.8000030517578,144.1041259765625,5905
2018-12-26,153.60000610351562,163.39999389648438,153.1999969482422,161.39999389648438,150.2480926513672,16585
2018-12-27,157.60000610351562,169.60000610351562,148.1999969482422,152.60000610351562,142.05612182617188,12715
2018-12-28,154.1999969482422,169.8000030517578,152.0,155.0,144.29031372070312,11275
2018-12-31,156.8000030517578,160.39999389648438,147.0,154.60000610351562,143.91795349121094,22145
2019-01-02,152.39999389648438,163.1999969482422,147.39999389648438,153.1999969482422,142.61468505859375,5785
2019-01-03,152.0,155.39999389648438,143.0,148.39999389648438,138.14633178710938,12290
2019-01-04,151.60000610351562,165.39999389648438,149.1999969482422,162.1999969482422,150.99282836914062,12610
2019-01-07,163.60000610351562,175.0,158.60000610351562,163.60000610351562,152.2960968017578,9435
2019-01-08,165.8000030517578,176.0,162.0,165.0,153.59934997558594,13805
2019-01-09,168.1999969482422,184.0,168.0,176.0,163.83932495117188,14405
2019-01-10,174.60000610351562,185.0,169.0,177.1999969482422,164.95640563964844,11445
2019-01-11,176.1999969482422,176.1999969482422,167.0,169.39999389648438,157.69532775878906,6170
2019-01-14,168.0,175.0,164.0,166.60000610351562,155.0888214111328,14170
2019-01-15,167.39999389648438,175.8000030517578,167.39999389648438,172.39999389648438,160.48805236816406,6690
2019-01-16,172.60000610351562,176.39999389648438,167.60000610351562,171.39999389648438,159.55714416503906,7460
2019-01-17,170.39999389648438,178.0,165.1999969482422,173.8000030517578,161.79132080078125,7420
2019-01-18,179.1999969482422,189.1999969482422,167.1999969482422,171.39999389648438,159.55714416503906,6440
2019-01-22,170.0,170.0,163.0,165.60000610351562,154.15789794921875,10815
2019-01-23,166.0,170.0,154.0,155.39999389648438,144.66265869140625,7540
2019-01-24,157.60000610351562,164.39999389648438,157.60000610351562,162.0,150.806640625,7335
2019-01-25,163.0,170.0,159.39999389648438,162.0,150.806640625,5420
2019-01-28,162.60000610351562,171.8000030517578,159.1999969482422,162.39999389648438,151.17898559570312,10130
2019-01-29,161.8000030517578,168.8000030517578,159.8000030517578,166.60000610351562,155.0888214111328,2100
2019-01-30,165.60000610351562,169.1999969482422,158.60000610351562,162.39999389648438,151.17898559570312,7735
2019-01-31,161.60000610351562,169.0,161.0,162.0,150.806640625,19710
2019-02-01,164.60000610351562,174.1999969482422,159.8000030517578,168.0,156.39205932617188,18325
2019-02-04,171.0,172.39999389648438,163.0,169.8000030517578,158.0677032470703,5425
2019-02-05,170.1999969482422,170.1999969482422,163.8000030517578,166.8000030517578,155.2749786376953,15480
2019-02-06,164.39999389648438,167.39999389648438,160.39999389648438,165.1999969482422,153.7855224609375,7265
2019-02-07,163.0,163.60000610351562,160.39999389648438,162.8000030517578,151.55136108398438,3655
2019-02-08,162.60000610351562,162.60000610351562,157.39999389648438,158.8000030517578,147.82774353027344,3295
2019-02-11,159.0,169.39999389648438,157.0,158.0,147.0830078125,5060
2019-02-12,159.0,163.1999969482422,159.0,159.8000030517578,148.75865173339844,4215
2019-02-13,161.1999969482422,166.39999389648438,157.1999969482422,159.8000030517578,148.75865173339844,12025
2019-02-14,159.60000610351562,160.60000610351562,156.0,157.39999389648438,146.52447509765625,9245
2019-02-15,159.8000030517578,170.0,157.0,162.8000030517578,151.55136108398438,14645
2019-02-19,161.1999969482422,167.60000610351562,160.0,162.60000610351562,151.3651885986328,16860
2019-02-20,162.39999389648438,169.1999969482422,160.0,163.60000610351562,152.2960968017578,7720
2019-02-21,163.60000610351562,165.39999389648438,161.0,162.1999969482422,150.99282836914062,4230
2019-02-22,162.0,165.1999969482422,161.1999969482422,163.1999969482422,151.92372131347656,4425
2019-02-25,164.0,165.0,161.0,163.39999389648438,152.1099090576172,3275
2019-02-26,163.1999969482422,164.8000030517578,161.0,163.39999389648438,152.1099090576172,3850
2019-02-27,163.1999969482422,163.8000030517578,157.39999389648438,160.60000610351562,149.5033721923828,13990
2019-02-28,146.0,146.1999969482422,122.0,122.4000015258789,113.94280242919922,76635
2019-03-01,123.5999984741211,124.5999984741211,101.5999984741211,111.4000015258789,103.70283508300781,69925
2019-03-04,113.4000015258789,119.0,108.19999694824219,111.0,103.33047485351562,47605
2019-03-05,112.19999694824219,114.80000305175781,108.19999694824219,110.4000015258789,102.77193450927734,26435
2019-03-06,110.5999984741211,114.80000305175781,108.19999694824219,112.0,104.26138305664062,23155
2019-03-07,111.80000305175781,116.80000305175781,110.19999694824219,111.80000305175781,104.0751953125,14335
2019-03-08,111.19999694824219,120.0,103.5999984741211,110.0,102.39956665039062,79105
2019-03-11,111.4000015258789,121.19999694824219,111.4000015258789,112.80000305175781,105.006103515625,64615
2019-03-12,114.19999694824219,124.19999694824219,114.19999694824219,123.80000305175781,115.24606323242188,42530
2019-03-13,125.4000015258789,130.0,120.0,123.4000015258789,114.87370300292969,52960
2019-03-14,124.80000305175781,126.4000015258789,120.0,126.4000015258789,117.66641998291016,32410
2019-03-15,127.0,130.1999969482422,124.0,128.8000030517578,119.90058898925781,130820
2019-03-18,129.0,129.0,121.80000305175781,123.5999984741211,115.05988311767578,26530
2019-03-19,125.0,128.1999969482422,121.80000305175781,124.80000305175781,116.17697143554688,32400
2019-03-20,124.80000305175781,125.19999694824219,119.80000305175781,122.5999984741211,114.12897491455078,28040
2019-03-21,122.4000015258789,126.4000015258789,119.19999694824219,125.80000305175781,117.10787200927734,27525
2019-03-22,124.80000305175781,126.5999984741211,119.19999694824219,124.0,115.43224334716797,13975
2019-03-25,124.5999984741211,124.5999984741211,119.80000305175781,120.5999984741211,112.26716613769531,16090
2019-03-26,121.4000015258789,126.0,120.0,120.80000305175781,112.4533462524414,19735
2019-03-27,119.80000305175781,124.80000305175781,118.80000305175781,122.4000015258789,113.94280242919922,19420
2019-03-28,121.80000305175781,123.19999694824219,118.4000015258789,120.0,111.70862579345703,13020
2019-03-29,121.5999984741211,121.5999984741211,115.80000305175781,118.0,109.84680938720703,12700
2019-04-01,118.80000305175781,121.19999694824219,114.0,119.80000305175781,111.52244567871094,23255
2019-04-02,120.19999694824219,122.19999694824219,117.19999694824219,120.19999694824219,111.89480590820312,11410
2019-04-03,120.0,120.19999694824219,118.19999694824219,120.19999694824219,111.89480590820312,36070
2019-04-04,121.0,121.0,118.0,120.0,111.70862579345703,14155
2019-04-05,120.19999694824219,121.4000015258789,118.4000015258789,120.4000015258789,112.08098602294922,16255
2019-04-08,120.19999694824219,121.4000015258789,118.19999694824219,119.0,110.77771759033203,17840
2019-04-09,119.0,125.80000305175781,115.19999694824219,117.5999984741211,109.47444915771484,75885
2019-04-10,119.0,119.4000015258789,115.19999694824219,116.19999694824219,108.17118835449219,18985
2019-04-11,116.5999984741211,118.0,114.19999694824219,115.80000305175781,107.798828125,68890
2019-04-12,116.80000305175781,118.5999984741211,115.5999984741211,117.0,108.91590881347656,13005
2019-04-15,117.80000305175781,118.5999984741211,114.0,117.0,108.91590881347656,28360
2019-04-16,113.0,113.0,103.80000305175781,108.4000015258789,100.91012573242188,23945
2019-04-17,110.0,110.5999984741211,106.5999984741211,108.4000015258789,100.91012573242188,21995
2019-04-18,107.4000015258789,107.4000015258789,96.5999984741211,100.0,93.09052276611328,59135
2019-04-22,99.4000015258789,109.0,98.4000015258789,108.19999694824219,100.72394561767578,16705
2019-04-23,104.19999694824219,110.19999694824219,102.5999984741211,107.4000015258789,99.97921752929688,57965
2019-04-24,106.5999984741211,108.4000015258789,102.0,105.0,97.74504852294922,31235
2019-04-25,104.5999984741211,104.5999984741211,101.4000015258789,102.0,94.95233154296875,10655
2019-04-26,100.0,104.0,97.19999694824219,99.0,92.15960693359375,24020
2019-04-29,99.4000015258789,103.80000305175781,98.0,103.4000015258789,96.25559997558594,12865
2019-04-30,103.0,103.4000015258789,98.4000015258789,101.0,94.02143096923828,10945
2019-05-01,100.80000305175781,105.0,100.19999694824219,102.80000305175781,95.69705963134766,6440
2019-05-02,100.0,104.5999984741211,99.5999984741211,101.19999694824219,94.20760345458984,11750
2019-05-03,101.0,108.5999984741211,101.0,104.0,96.81414031982422,18760
2019-05-06,102.5999984741211,103.80000305175781,98.19999694824219,101.0,94.02143096923828,52160
2019-05-07,100.19999694824219,103.19999694824219,99.5999984741211,101.4000015258789,94.39379119873047,14070
2019-05-08,101.5999984741211,103.0,100.0,102.0,94.95233154296875,35480
2019-05-09,102.0,111.80000305175781,101.19999694824219,106.80000305175781,99.4206771850586,60750
2019-05-10,106.4000015258789,107.80000305175781,103.19999694824219,105.80000305175781,98.48977661132812,34610
2019-05-13,105.4000015258789,109.80000305175781,102.4000015258789,108.19999694824219,100.72394561767578,21785
2019-05-14,108.0,109.80000305175781,106.0,106.19999694824219,98.86212921142578,20755
2019-05-15,105.19999694824219,108.19999694824219,103.0,104.80000305175781,97.55886840820312,12470
2019-05-16,104.80000305175781,107.4000015258789,104.0,106.4000015258789,99.0483169555664,13430
2019-05-17,106.0,108.4000015258789,104.0,107.0,99.60685729980469,62570
2019-05-20,108.0,108.0,104.19999694824219,105.5999984741211,98.30358123779297,13255
2019-05-21,105.5999984741211,107.0,103.0,104.19999694824219,97.00032043457031,67180
2019-05-22,103.5999984741211,104.5999984741211,99.5999984741211,101.19999694824219,94.20760345458984,22590
2019-05-23,100.19999694824219,100.80000305175781,97.5999984741211,98.80000305175781,91.97343444824219,18530
2019-05-24,100.4000015258789,101.80000305175781,97.80000305175781,100.5999984741211,93.6490707397461,16765
2019-05-28,100.5999984741211,100.80000305175781,98.19999694824219,99.4000015258789,92.53197479248047,24145
2019-05-29,98.19999694824219,99.0,93.19999694824219,97.19999694824219,90.48397827148438,47320
2019-05-30,97.19999694824219,98.0,94.80000305175781,96.19999694824219,89.5530776977539,17815
2019-05-31,94.5999984741211,96.4000015258789,90.5999984741211,91.5999984741211,85.27091217041016,49535
2019-06-03,91.5999984741211,94.4000015258789,90.5999984741211,91.0,84.71237182617188,13455
2019-06-04,91.4000015258789,94.80000305175781,91.4000015258789,93.5999984741211,87.13272094726562,14890
2019-06-05,94.0,96.0,90.4000015258789,91.5999984741211,85.27091217041016,14575
2019-06-06,91.4000015258789,93.19999694824219,89.4000015258789,91.0,84.71237182617188,31690
2019-06-07,91.19999694824219,97.0,89.5999984741211,96.80000305175781,90.11162567138672,26245
2019-06-10,96.4000015258789,97.4000015258789,92.5999984741211,94.5999984741211,88.06362915039062,51545
2019-06-11,94.0,97.19999694824219,91.5999984741211,92.80000305175781,86.38800048828125,37745
2019-06-12,92.19999694824219,92.5999984741211,86.4000015258789,88.5999984741211,82.47820281982422,63065
2019-06-13,89.19999694824219,92.0,82.4000015258789,84.80000305175781,78.94076538085938,58455
2019-06-14,85.19999694824219,85.19999694824219,78.0,79.80000305175781,74.2862319946289,46005
2019-06-17,80.19999694824219,81.0,73.19999694824219,78.19999694824219,72.79678344726562,50075
2019-06-18,79.0,80.5999984741211,76.80000305175781,79.5999984741211,74.10005187988281,33925
2019-06-19,79.4000015258789,80.5999984741211,77.0,77.4000015258789,72.05206298828125,19610
2019-06-20,78.0,81.0,77.19999694824219,80.0,74.472412109375,12340
2019-06-21,80.0,84.80000305175781,77.5999984741211,80.0,74.472412109375,52540
2019-06-24,80.0,84.19999694824219,75.0,75.80000305175781,70.56261444091797,23260
2019-06-25,76.0,78.4000015258789,73.0,73.4000015258789,68.32844543457031,15420
2019-06-26,74.0,77.0,73.0,74.5999984741211,69.44552612304688,25915
2019-06-27,75.0,77.80000305175781,71.5999984741211,72.0,67.02517700195312,61230
2019-06-28,71.80000305175781,78.19999694824219,71.80000305175781,74.4000015258789,69.25935363769531,443660
2019-07-01,75.0,81.4000015258789,75.0,79.0,73.54150390625,60985
2019-07-02,79.0,79.19999694824219,76.5999984741211,78.4000015258789,72.98297119140625,21585
2019-07-03,78.19999694824219,78.19999694824219,73.4000015258789,74.4000015258789,69.25935363769531,28490
2019-07-05,75.0,75.5999984741211,73.0,73.19999694824219,68.14225769042969,25615
2019-07-08,73.5999984741211,76.5999984741211,70.80000305175781,71.5999984741211,66.65281677246094,61750
2019-07-09,71.5999984741211,72.5999984741211,69.5999984741211,72.0,67.02517700195312,137690
2019-07-10,72.5999984741211,75.5999984741211,72.5999984741211,74.80000305175781,69.6317138671875,65615
2019-07-11,74.4000015258789,75.80000305175781,74.19999694824219,74.80000305175781,69.6317138671875,80995
2019-07-12,74.4000015258789,75.19999694824219,73.19999694824219,74.5999984741211,69.44552612304688,42440
2019-07-15,75.0,77.19999694824219,72.80000305175781,76.19999694824219,70.93497467041016,28120
2019-07-16,75.4000015258789,75.5999984741211,68.0,68.19999694824219,63.487735748291016,122680
2019-07-17,68.0,68.80000305175781,67.5999984741211,68.0,63.30155563354492,23630
2019-07-18,67.4000015258789,67.80000305175781,62.0,63.20000076293945,58.83320999145508,92090
2019-07-19,64.4000015258789,71.80000305175781,63.599998474121094,70.80000305175781,65.90809631347656,84460
2019-07-22,71.19999694824219,74.80000305175781,70.4000015258789,73.19999694824219,68.14225769042969,42715
2019-07-23,73.4000015258789,74.19999694824219,71.19999694824219,72.80000305175781,67.76990509033203,48020
2019-07-24,71.4000015258789,73.5999984741211,71.19999694824219,73.0,67.95608520507812,44000
2019-07-25,73.19999694824219,74.19999694824219,69.80000305175781,70.5999984741211,65.72190856933594,24955
2019-07-26,70.5999984741211,71.4000015258789,69.0,71.19999694824219,66.28044891357422,14955
2019-07-29,71.0,72.19999694824219,66.0,66.80000305175781,62.18447494506836,29270
2019-07-30,66.0,66.4000015258789,65.0,66.0,61.43974685668945,82905
2019-07-31,65.4000015258789,66.4000015258789,64.0,64.19999694824219,59.76411056518555,63895
2019-08-01,68.0,73.5999984741211,59.20000076293945,60.0,55.854312896728516,99700
2019-08-02,60.0,60.400001525878906,58.20000076293945,59.20000076293945,55.10959243774414,54625
2019-08-05,59.0,60.20000076293945,58.0,59.599998474121094,55.48194885253906,49030
2019-08-06,59.79999923706055,61.20000076293945,57.20000076293945,58.20000076293945,54.17868423461914,39165
2019-08-07,57.79999923706055,57.79999923706055,55.0,56.20000076293945,52.316871643066406,36680
2019-08-08,56.79999923706055,57.599998474121094,55.20000076293945,56.599998474121094,52.68922805786133,57770
2019-08-09,57.0,58.599998474121094,55.0,55.599998474121094,51.75832748413086,25750
2019-08-12,55.79999923706055,56.599998474121094,51.79999923706055,52.400001525878906,48.77943420410156,45060
2019-08-13,53.0,55.20000076293945,51.599998474121094,54.400001525878906,50.64124298095703,32135
2019-08-14,54.0,54.0,50.0,51.0,47.476165771484375,38305
2019-08-15,51.20000076293945,52.400001525878906,50.0,51.400001525878906,47.84852981567383,30685
2019-08-16,52.0,55.400001525878906,52.0,55.0,51.19978332519531,29435
2019-08-19,54.599998474121094,54.599998474121094,50.599998474121094,51.599998474121094,48.03470993041992,41495
2019-08-20,50.79999923706055,53.599998474121094,50.20000076293945,52.0,48.40707015991211,28695
2019-08-21,52.400001525878906,53.0,50.599998474121094,51.400001525878906,47.84852981567383,18705
2019-08-22,52.20000076293945,52.20000076293945,50.0,50.20000076293945,46.731441497802734,20660
2019-08-23,50.0,50.400001525878906,45.400001525878906,46.0,42.82164001464844,40395
2019-08-26,46.0,47.400001525878906,45.20000076293945,45.599998474121094,42.449275970458984,24685
2019-08-27,46.79999923706055,47.79999923706055,43.79999923706055,44.599998474121094,41.51837158203125,50510
2019-08-28,44.400001525878906,47.20000076293945,43.599998474121094,46.20000076293945,43.00782012939453,44310
2019-08-29,46.599998474121094,48.400001525878906,45.79999923706055,47.599998474121094,44.31108474731445,62665
2019-08-30,47.79999923706055,48.400001525878906,45.79999923706055,46.20000076293945,43.00782012939453,16950
2019-09-03,45.400001525878906,46.20000076293945,44.20000076293945,44.400001525878906,41.332191467285156,55110
2019-09-04,45.0,46.599998474121094,45.0,46.0,42.82164001464844,24305
2019-09-05,46.20000076293945,49.20000076293945,46.20000076293945,48.400001525878906,45.05581283569336,33340
2019-09-06,48.400001525878906,48.400001525878906,46.20000076293945,48.0,44.683448791503906,30715
2019-09-09,49.0,52.79999923706055,48.0,51.79999923706055,48.220890045166016,70720
2019-09-10,51.400001525878906,54.599998474121094,49.599998474121094,54.20000076293945,50.45506286621094,49800
2019-09-11,54.0,56.79999923706055,54.0,56.400001525878906,52.5030517578125,29775
2019-09-12,56.400001525878906,56.79999923706055,53.79999923706055,56.0,52.13069152832031,26270
2019-09-13,56.20000076293945,58.20000076293945,55.599998474121094,56.79999923706055,52.87541198730469,25885
2019-09-16,60.0,63.0,59.20000076293945,61.400001525878906,57.1575813293457,51220
2019-09-17,62.20000076293945,63.400001525878906,59.400001525878906,62.599998474121094,58.274662017822266,32910
2019-09-18,62.79999923706055,63.0,59.0,60.0,55.854312896728516,42110
2019-09-19,59.79999923706055,60.20000076293945,56.0,58.79999923706055,54.73722457885742,24060
2019-09-20,58.79999923706055,61.0,57.79999923706055,60.599998474121094,56.4128532409668,55945
2019-09-23,60.79999923706055,60.79999923706055,57.20000076293945,58.79999923706055,54.73722457885742,30985
2019-09-24,58.0,59.400001525878906,54.0,56.0,52.13069152832031,62420
2019-09-25,55.20000076293945,58.0,54.599998474121094,57.0,53.06159591674805,19290
2019-09-26,57.79999923706055,58.400001525878906,55.599998474121094,58.0,53.99250411987305,20360
2019-09-27,58.400001525878906,60.0,57.400001525878906,58.79999923706055,54.73722457885742,45810
2019-09-30,57.599998474121094,58.0,53.0,56.599998474121094,52.68922805786133,33575
2019-10-01,57.400001525878906,57.400001525878906,50.0,51.599998474121094,48.03470993041992,49715
2019-10-02,51.400001525878906,52.0,46.20000076293945,49.400001525878906,45.986717224121094,234725
2019-10-03,50.0,50.0,48.0,49.20000076293945,45.800537109375,13400
2019-10-04,49.599998474121094,52.20000076293945,47.20000076293945,50.599998474121094,47.10380172729492,33115
2019-10-07,51.20000076293945,51.20000076293945,49.400001525878906,49.79999923706055,46.35907745361328,20955
2019-10-08,48.400001525878906,49.400001525878906,48.0,48.0,44.683448791503906,22695
2019-10-09,47.79999923706055,49.400001525878906,47.0,48.599998474121094,45.24198913574219,28875
2019-10-10,49.599998474121094,50.20000076293945,46.79999923706055,48.20000076293945,44.86962890625,21960
2019-10-11,48.599998474121094,50.400001525878906,48.20000076293945,49.0,45.61435317993164,20065
2019-10-14,49.20000076293945,49.400001525878906,47.79999923706055,48.599998474121094,45.24198913574219,14205
2019-10-15,48.400001525878906,48.400001525878906,44.599998474121094,45.0,41.8907356262207,32510
2019-10-16,44.400001525878906,46.599998474121094,44.400001525878906,45.79999923706055,42.63545608520508,23270
2019-10-17,45.79999923706055,46.20000076293945,43.79999923706055,45.20000076293945,42.0769157409668,24790
2019-10-18,45.0,45.79999923706055,44.400001525878906,45.599998474121094,42.449275970458984,8905
2019-10-21,46.0,47.599998474121094,45.400001525878906,47.0,43.752540588378906,6320
2019-10-22,47.0,49.79999923706055,46.20000076293945,49.20000076293945,45.800537109375,10050
2019-10-23,49.400001525878906,49.599998474121094,47.20000076293945,48.20000076293945,44.86962890625,14910
2019-10-24,48.400001525878906,48.400001525878906,47.400001525878906,48.0,44.683448791503906,11545
2019-10-25,48.0,49.79999923706055,47.400001525878906,48.79999923706055,45.42816925048828,4880
2019-10-28,49.599998474121094,50.599998474121094,47.400001525878906,47.599998474121094,44.31108474731445,16465
2019-10-29,47.599998474121094,48.400001525878906,45.400001525878906,46.0,42.82164001464844,16070
2019-10-30,46.0,48.20000076293945,44.400001525878906,46.599998474121094,43.38018035888672,18720
2019-10-31,45.599998474121094,45.599998474121094,43.599998474121094,44.0,40.95983123779297,72210
2019-11-01,43.599998474121094,46.20000076293945,43.400001525878906,45.599998474121094,42.449275970458984,12945
2019-11-04,46.79999923706055,48.599998474121094,45.0,46.20000076293945,43.00782012939453,27235
2019-11-05,46.20000076293945,46.599998474121094,44.20000076293945,45.400001525878906,42.263099670410156,57430
2019-11-06,44.79999923706055,45.20000076293945,43.0,43.79999923706055,40.77364730834961,55075
2019-11-07,44.599998474121094,45.400001525878906,42.0,44.0,40.95983123779297,202615
2019-11-08,44.0,44.0,42.0,42.0,39.09801483154297,28990
2019-11-11,42.400001525878906,43.0,39.79999923706055,40.0,37.2362060546875,23415
2019-11-12,40.20000076293945,42.599998474121094,40.0,40.20000076293945,37.42238998413086,61960
2019-11-13,39.79999923706055,41.20000076293945,36.20000076293945,38.0,35.37439727783203,126615
2019-11-14,37.599998474121094,39.0,37.20000076293945,38.20000076293945,35.560577392578125,25970
2019-11-15,38.400001525878906,39.599998474121094,37.79999923706055,38.79999923706055,36.119117736816406,12875
2019-11-18,38.599998474121094,38.599998474121094,34.79999923706055,35.0,32.58168029785156,120695
2019-11-19,35.20000076293945,35.20000076293945,33.599998474121094,33.79999923706055,31.4645938873291,33940
2019-11-20,33.599998474121094,36.400001525878906,32.599998474121094,36.0,33.51258850097656,68020
2019-11-21,36.400001525878906,40.599998474121094,34.20000076293945,38.79999923706055,36.119117736816406,56005
2019-11-22,38.599998474121094,39.20000076293945,37.0,37.79999923706055,35.18821716308594,24395
2019-11-25,38.0,38.79999923706055,37.0,37.400001525878906,34.81585693359375,15190
2019-11-26,36.79999923706055,39.0,36.599998474121094,37.20000076293945,34.629676818847656,14165
2019-11-27,37.599998474121094,39.599998474121094,36.79999923706055,38.79999923706055,36.119117736816406,18795
2019-11-29,39.0,40.0,38.0,38.599998474121094,35.93293762207031,9825
2019-12-02,39.0,39.599998474121094,36.599998474121094,37.599998474121094,35.00203323364258,15290
2019-12-03,37.400001525878906,38.599998474121094,36.20000076293945,37.20000076293945,34.629676818847656,14720
2019-12-04,38.599998474121094,43.400001525878906,37.79999923706055,41.20000076293945,38.353294372558594,31715
2019-12-05,41.0,43.599998474121094,40.0,40.20000076293945,37.42238998413086,12805
2019-12-06,40.20000076293945,41.20000076293945,40.0,40.79999923706055,37.98093032836914,10865
2019-12-09,41.400001525878906,45.400001525878906,40.79999923706055,44.79999923706055,41.704551696777344,31000
2019-12-10,45.0,49.20000076293945,44.79999923706055,49.20000076293945,45.800537109375,45680
2019-12-11,48.400001525878906,52.599998474121094,47.599998474121094,51.79999923706055,48.220890045166016,47285
2019-12-12,52.0,53.599998474121094,50.0,51.79999923706055,48.220890045166016,42440
2019-12-13,51.79999923706055,53.400001525878906,50.599998474121094,53.0,49.33797836303711,20535
2019-12-16,53.20000076293945,57.79999923706055,53.20000076293945,57.0,53.06159591674805,37935
2019-12-17,58.0,58.79999923706055,54.20000076293945,54.599998474121094,50.82741928100586,66275
2019-12-18,54.0,54.79999923706055,52.20000076293945,52.400001525878906,48.77943420410156,45500
2019-12-19,53.0,53.599998474121094,49.20000076293945,50.79999923706055,47.289981842041016,59610
2019-12-20,50.79999923706055,51.20000076293945,49.400001525878906,50.0,46.54526138305664,28870
2019-12-23,50.79999923706055,54.599998474121094,49.20000076293945,54.0,50.26887893676758,19845
2019-12-24,54.0,55.400001525878906,53.400001525878906,54.400001525878906,50.64124298095703,13765
2019-12-26,53.79999923706055,58.0,53.79999923706055,58.0,53.99250411987305,10835
2019-12-27,58.400001525878906,59.599998474121094,57.0,59.599998474121094,55.48194885253906,19960
2019-12-30,59.599998474121094,59.599998474121094,55.599998474121094,56.400001525878906,52.5030517578125,18880
2019-12-31,56.400001525878906,58.20000076293945,55.79999923706055,57.20000076293945,53.24777603149414,21275
2020-01-02,58.599998474121094,58.599998474121094,53.0,54.79999923706055,51.01360321044922,14455
2020-01-03,54.400001525878906,55.20000076293945,52.20000076293945,54.0,50.26887893676758,15705
2020-01-06,54.20000076293945,55.20000076293945,53.20000076293945,54.0,50.26887893676758,10145
2020-01-07,53.599998474121094,55.599998474121094,52.599998474121094,55.400001525878906,51.57215118408203,12540
2020-01-08,55.20000076293945,55.79999923706055,53.0,55.599998474121094,51.75832748413086,29835
2020-01-09,55.599998474121094,57.0,54.0,56.20000076293945,52.316871643066406,14510
2020-01-10,57.0,57.599998474121094,55.79999923706055,57.599998474121094,53.620140075683594,21610
2020-01-13,57.400001525878906,57.400001525878906,53.599998474121094,54.79999923706055,51.01360321044922,17210
2020-01-14,56.400001525878906,56.400001525878906,51.400001525878906,54.0,50.26887893676758,20980
2020-01-15,53.79999923706055,57.0,52.20000076293945,56.400001525878906,52.5030517578125,113310
2020-01-16,57.599998474121094,58.599998474121094,56.400001525878906,57.0,53.06159591674805,11975
2020-01-17,58.0,58.0,51.20000076293945,53.0,49.33797836303711,14105
2020-01-21,53.20000076293945,53.20000076293945,42.20000076293945,46.20000076293945,43.00782012939453,21625
2020-01-22,46.20000076293945,46.400001525878906,44.599998474121094,45.0,41.8907356262207,25655
2020-01-23,44.0,44.0,41.599998474121094,42.599998474121094,39.656558990478516,63935
2020-01-24,43.0,43.20000076293945,40.0,41.20000076293945,38.353294372558594,111450
2020-01-27,41.20000076293945,42.400001525878906,40.0,42.20000076293945,39.28419876098633,13215
2020-01-28,42.400001525878906,44.0,42.0,44.0,40.95983123779297,18665
2020-01-29,44.20000076293945,44.20000076293945,40.599998474121094,41.0,38.1671142578125,16720
2020-01-30,41.20000076293945,42.20000076293945,40.0,42.20000076293945,39.28419876098633,17715
2020-01-31,42.400001525878906,42.400001525878906,39.400001525878906,41.599998474121094,38.72565460205078,28125
2020-02-03,41.79999923706055,43.400001525878906,39.599998474121094,40.79999923706055,37.98093032836914,13945
2020-02-04,41.20000076293945,42.599998474121094,41.0,41.400001525878906,38.53947448730469,7465
2020-02-05,41.79999923706055,44.20000076293945,41.79999923706055,44.20000076293945,41.14601135253906,11065
2020-02-06,44.20000076293945,44.599998474121094,40.20000076293945,41.0,38.1671142578125,13460
2020-02-07,40.79999923706055,42.400001525878906,39.20000076293945,39.20000076293945,36.491485595703125,14150
2020-02-10,39.20000076293945,40.0,38.400001525878906,39.599998474121094,36.86384582519531,18160
2020-02-11,41.0,41.599998474121094,40.0,41.400001525878906,38.53947448730469,9160
2020-02-12,42.400001525878906,43.599998474121094,40.0,42.20000076293945,39.28419876098633,14945
2020-02-13,42.20000076293945,43.0,40.599998474121094,41.0,38.1671142578125,5840
2020-02-14,40.79999923706055,41.0,37.400001525878906,39.599998474121094,36.86384582519531,95040
2020-02-18,40.0,41.20000076293945,38.20000076293945,38.599998474121094,35.93293762207031,14375
2020-02-19,39.0,41.0,39.0,40.400001525878906,37.60857009887695,16620
2020-02-20,40.400001525878906,41.0,39.400001525878906,40.20000076293945,37.42238998413086,16325
2020-02-21,40.400001525878906,40.400001525878906,37.0,37.400001525878906,34.81585693359375,19670
2020-02-24,36.20000076293945,37.0,33.599998474121094,34.20000076293945,31.836957931518555,59055
2020-02-25,34.400001525878906,34.400001525878906,33.79999923706055,33.79999923706055,31.4645938873291,38205
2020-02-26,33.79999923706055,34.0,30.399999618530273,32.400001525878906,30.161327362060547,44280
2020-02-27,30.200000762939453,36.0,28.600000381469727,28.799999237060547,26.810070037841797,54540
2020-02-28,28.0,34.79999923706055,28.0,29.200000762939453,27.182432174682617,53555
2020-03-02,29.200000762939453,30.200000762939453,27.600000381469727,28.799999237060547,26.810070037841797,30250
2020-03-03,30.0,33.599998474121094,28.799999237060547,29.399999618530273,27.36861228942871,30205
2020-03-04,30.0,32.79999923706055,28.600000381469727,31.0,28.858060836791992,19315
2020-03-05,30.399999618530273,31.399999618530273,27.799999237060547,28.0,26.065345764160156,24690
2020-03-06,27.799999237060547,28.600000381469727,25.799999237060547,26.0,24.203535079956055,20480
2020-03-09,22.0,24.399999618530273,20.0,20.200000762939453,18.804285049438477,35460
2020-03-10,22.0,22.399999618530273,19.200000762939453,21.200000762939453,19.735191345214844,30095
2020-03-11,21.200000762939453,22.200000762939453,20.0,20.399999618530273,18.99046516418457,24160
2020-03-12,19.200000762939453,21.0,17.200000762939453,20.600000381469727,19.176647186279297,33740
2020-03-13,20.399999618530273,23.600000381469727,17.799999237060547,23.600000381469727,21.969364166259766,26455
2020-03-16,20.0,23.0,19.799999237060547,20.600000381469727,19.176647186279297,17970
2020-03-17,21.0,21.0,19.200000762939453,20.0,18.61810302734375,34725
2020-03-18,19.0,19.600000381469727,15.0,16.0,14.894482612609863,25335
2020-03-19,16.200000762939453,20.0,15.0,19.0,17.687198638916016,56865
2020-03-20,18.399999618530273,18.799999237060547,15.0,18.0,16.75629425048828,94075
2020-03-23,18.0,19.399999618530273,16.0,17.0,15.82538890838623,5035
2020-03-24,16.399999618530273,19.0,16.399999618530273,18.799999237060547,17.50101661682129,10240
2020-03-25,18.399999618530273,19.0,15.0,16.0,14.894482612609863,28835
2020-03-26,16.600000381469727,16.600000381469727,15.199999809265137,15.600000381469727,14.52212142944336,10060
2020-03-27,15.199999809265137,15.199999809265137,11.199999809265137,11.399999618530273,10.612318992614746,26715
2020-03-30,14.800000190734863,15.0,12.800000190734863,13.800000190734863,12.846491813659668,10060
2020-03-31,13.600000381469727,15.199999809265137,12.399999618530273,15.0,13.963578224182129,22665
2020-04-01,14.800000190734863,14.800000190734863,12.399999618530273,13.399999618530273,12.474129676818848,6150
2020-04-02,13.199999809265137,15.399999618530273,13.199999809265137,13.800000190734863,12.846491813659668,9200
2020-04-03,14.199999809265137,14.600000381469727,13.199999809265137,13.399999618530273,12.474129676818848,20110
2020-04-06,13.800000190734863,15.199999809265137,13.600000381469727,14.0,13.032672882080078,15325
2020-04-07,14.0,14.399999618530273,13.600000381469727,14.0,13.032672882080078,87750
2020-04-08,14.399999618530273,17.0,13.600000381469727,16.200000762939453,15.080663681030273,16720
2020-04-09,16.0,17.0,14.199999809265137,16.600000381469727,15.453027725219727,14880
2020-04-13,16.600000381469727,17.799999237060547,15.0,15.0,13.963578224182129,7425
2020-04-14,15.0,16.200000762939453,13.600000381469727,13.800000190734863,12.846491813659668,10550
2020-04-15,14.0,14.800000190734863,12.199999809265137,13.0,12.101767539978027,10290
2020-04-16,13.0,14.0,12.199999809265137,13.399999618530273,12.474129676818848,11600
2020-04-17,13.399999618530273,14.0,12.399999618530273,13.800000190734863,12.846491813659668,11340
2020-04-20,13.600000381469727,14.0,11.399999618530273,11.600000381469727,10.798500061035156,36450
2020-04-21,12.199999809265137,12.199999809265137,10.600000381469727,10.800000190734863,10.053776741027832,21140
2020-04-22,11.600000381469727,11.800000190734863,10.600000381469727,11.399999618530273,10.612318992614746,50455
2020-04-23,12.0,13.800000190734863,11.600000381469727,12.600000381469727,11.729406356811523,114880
2020-04-24,13.399999618530273,14.399999618530273,13.199999809265137,14.0,13.032672882080078,24940
2020-04-27,14.399999618530273,14.399999618530273,13.199999809265137,14.0,13.032672882080078,16495
2020-04-28,14.399999618530273,15.0,13.600000381469727,14.800000190734863,13.777398109436035,24775
2020-04-29,15.199999809265137,16.600000381469727,15.0,16.200000762939453,15.080663681030273,24965
2020-04-30,16.200000762939453,16.399999618530273,15.0,15.199999809265137,14.149758338928223,13320
2020-05-01,15.199999809265137,15.600000381469727,12.399999618530273,13.0,12.101767539978027,24670
2020-05-04,13.800000190734863,13.800000190734863,12.199999809265137,12.199999809265137,11.35704231262207,25985
2020-05-05,12.800000190734863,13.399999618530273,12.399999618530273,13.199999809265137,12.287947654724121,24615
2020-05-06,13.399999618530273,13.399999618530273,11.800000190734863,12.399999618530273,11.54322338104248,28385
2020-05-07,13.399999618530273,13.600000381469727,12.399999618530273,13.0,12.101767539978027,15070
2020-05-08,13.0,13.600000381469727,12.199999809265137,13.0,12.101767539978027,10195
2020-05-11,13.399999618530273,13.600000381469727,12.199999809265137,12.199999809265137,11.35704231262207,17625
2020-05-12,12.199999809265137,12.600000381469727,11.399999618530273,11.600000381469727,10.798500061035156,27005
2020-05-13,11.600000381469727,12.0,10.600000381469727,10.800000190734863,10.053776741027832,27065
2020-05-14,10.800000190734863,11.600000381469727,9.399999618530273,10.600000381469727,9.867595672607422,28390
2020-05-15,11.199999809265137,11.199999809265137,10.399999618530273,10.800000190734863,10.053776741027832,29410
2020-05-18,12.399999618530273,12.600000381469727,11.199999809265137,12.199999809265137,11.35704231262207,39830
2020-05-19,11.600000381469727,12.800000190734863,11.600000381469727,12.0,11.170862197875977,22125
2020-05-20,12.800000190734863,13.199999809265137,11.800000190734863,12.600000381469727,11.729406356811523,18455
2020-05-21,12.800000190734863,13.199999809265137,12.199999809265137,12.399999618530273,11.54322338104248,10950
2020-05-22,12.399999618530273,13.199999809265137,11.600000381469727,11.800000190734863,10.984682083129883,14455
2020-05-26,12.399999618530273,13.199999809265137,12.0,12.800000190734863,11.915587425231934,30955
2020-05-27,13.600000381469727,13.600000381469727,12.399999618530273,13.0,12.101767539978027,16310
2020-05-28,13.199999809265137,13.399999618530273,12.399999618530273,12.600000381469727,11.729406356811523,19475
2020-05-29,12.600000381469727,13.800000190734863,12.199999809265137,13.800000190734863,12.846491813659668,29890
2020-06-01,13.399999618530273,13.600000381469727,12.399999618530273,12.600000381469727,11.729406356811523,28755
2020-06-02,13.0,13.600000381469727,12.800000190734863,13.0,12.101767539978027,18360
2020-06-03,13.199999809265137,14.399999618530273,13.0,13.600000381469727,12.660310745239258,61900
2020-06-04,14.0,16.0,13.800000190734863,15.800000190734863,14.70830249786377,38780
2020-06-05,18.600000381469727,19.799999237060547,17.0,19.0,17.687198638916016,54965
2020-06-08,22.0,23.399999618530273,20.200000762939453,21.600000381469727,20.107553482055664,64335
2020-06-09,22.799999237060547,22.799999237060547,18.600000381469727,18.799999237060547,17.50101661682129,47450
2020-06-10,20.200000762939453,21.799999237060547,15.0,15.0,13.963578224182129,63900
2020-06-11,14.0,15.199999809265137,13.199999809265137,13.600000381469727,12.660310745239258,39020
2020-06-12,15.0,16.399999618530273,14.399999618530273,15.0,13.963578224182129,38405
2020-06-15,15.0,19.799999237060547,13.399999618530273,16.600000381469727,15.453027725219727,37600
2020-06-16,17.600000381469727,19.0,15.399999618530273,15.600000381469727,14.52212142944336,29835
2020-06-17,16.399999618530273,16.399999618530273,15.0,15.199999809265137,14.149758338928223,16940
2020-06-18,14.600000381469727,15.0,14.0,14.199999809265137,13.218852996826172,29465
2020-06-19,15.0,15.399999618530273,14.0,14.0,13.032672882080078,29080
2020-06-22,14.0,14.199999809265137,13.399999618530273,14.0,13.032672882080078,27830
2020-06-23,14.199999809265137,14.600000381469727,13.399999618530273,13.800000190734863,12.846491813659668,21980
2020-06-24,13.600000381469727,13.800000190734863,12.0,12.399999618530273,11.54322338104248,55015
2020-06-25,12.199999809265137,12.600000381469727,12.0,12.0,11.170862197875977,34825
2020-06-26,12.0,12.800000190734863,11.0,12.0,11.170862197875977,278985
2020-06-29,12.399999618530273,12.800000190734863,12.0,12.199999809265137,11.35704231262207,15410
2020-06-30,11.199999809265137,12.800000190734863,11.0,12.600000381469727,11.729406356811523,27950
2020-07-01,12.579999923706055,13.960000038146973,11.029999732971191,11.039999961853027,10.277194023132324,52000
2020-07-02,11.449999809265137,11.600000381469727,11.010000228881836,11.25,10.472683906555176,34700
2020-07-06,11.300000190734863,11.970000267028809,11.239999771118164,11.789999961853027,10.975372314453125,22300
2020-07-07,11.619999885559082,13.550000190734863,11.619999885559082,13.279999732971191,12.362421989440918,64000
2020-07-08,13.390000343322754,13.529999732971191,12.359999656677246,12.609999656677246,11.738714218139648,20500
2020-07-09,12.5,12.6899995803833,11.649999618530273,11.869999885559082,11.049844741821289,25900
2020-07-10,11.949999809265137,12.300000190734863,11.5600004196167,12.039999961853027,11.208098411560059,21800
2020-07-13,12.069999694824219,12.300000190734863,11.90999984741211,12.0600004196167,11.226716041564941,19000
2020-07-14,11.880000114440918,12.300000190734863,11.8100004196167,12.039999961853027,11.208098411560059,15900
2020-07-15,12.420000076293945,15.529999732971191,12.390000343322754,13.539999961853027,12.604455947875977,114900
2020-07-16,13.270000457763672,14.130000114440918,13.079999923706055,13.25,12.334494590759277,27000
2020-07-17,13.180000305175781,13.510000228881836,12.5,12.569999694824219,11.701478004455566,17200
2020-07-20,12.569999694824219,13.550000190734863,12.550000190734863,13.010000228881836,12.111076354980469,15800
2020-07-21,13.0,13.979999542236328,13.0,13.600000381469727,12.660310745239258,16600
2020-07-22,13.420000076293945,13.680000305175781,12.760000228881836,13.199999809265137,12.287947654724121,18500
2020-07-23,13.5,13.970000267028809,13.5,13.680000305175781,12.734783172607422,54800
2020-07-24,13.710000038146973,14.0,13.100000381469727,13.100000381469727,12.19485855102539,59300
2020-07-27,13.270000457763672,13.710000038146973,12.710000038146973,12.789999961853027,11.906277656555176,35900
2020-07-28,12.75,13.369999885559082,12.109999656677246,12.109999656677246,11.273262023925781,78400
2020-07-29,13.300000190734863,13.300000190734863,12.600000381469727,12.699999809265137,11.822495460510254,55500
2020-07-30,13.800000190734863,14.829999923706055,13.319999694824219,14.300000190734863,13.311944007873535,106900
2020-07-31,14.300000190734863,14.350000381469727,13.350000381469727,13.5600004196167,12.623074531555176,34700
2020-08-03,13.489999771118164,14.699999809265137,13.239999771118164,14.4399995803833,13.442270278930664,20300
2020-08-04,14.630000114440918,15.600000381469727,14.5,15.369999885559082,14.308012962341309,33400
2020-08-05,15.5600004196167,17.399999618530273,15.5600004196167,16.600000381469727,15.453027725219727,116800
2020-08-06,16.739999771118164,17.0,13.710000038146973,13.90999984741211,12.948890686035156,70100
2020-08-07,14.350000381469727,14.6899995803833,13.510000228881836,13.75,12.799945831298828,32400
2020-08-10,14.569999694824219,14.569999694824219,13.210000038146973,13.420000076293945,12.49274730682373,46800
2020-08-11,14.020000457763672,14.699999809265137,13.819999694824219,13.829999923706055,12.874419212341309,47600
2020-08-12,13.850000381469727,13.960000038146973,13.65999984741211,13.65999984741211,12.716164588928223,11900
2020-08-13,13.670000076293945,13.800000190734863,13.289999961853027,13.40999984741211,12.483438491821289,29900
2020-08-14,13.880000114440918,13.960000038146973,13.569999694824219,13.65999984741211,12.716164588928223,63300
2020-08-17,13.800000190734863,13.989999771118164,12.850000381469727,13.239999771118164,12.32518482208252,65600
2020-08-18,12.960000038146973,13.6899995803833,12.960000038146973,13.680000305175781,12.734783172607422,26200
2020-08-19,13.5,13.630000114440918,13.15999984741211,13.350000381469727,12.427584648132324,24600
2020-08-20,13.350000381469727,13.520000457763672,13.210000038146973,13.449999809265137,12.520674705505371,36000
2020-08-21,13.430000305175781,13.649999618530273,13.3100004196167,13.4399995803833,12.51136589050293,32400
2020-08-24,13.430000305175781,13.619999885559082,13.34000015258789,13.359999656677246,12.436893463134766,8500
2020-08-25,13.609999656677246,13.649999618530273,13.1899995803833,13.1899995803833,12.27863883972168,7800
2020-08-26,13.390000343322754,13.390000343322754,12.760000228881836,12.920000076293945,12.027295112609863,16000
2020-08-27,13.0,13.140000343322754,12.6899995803833,12.710000038146973,11.831805229187012,13700
2020-08-28,12.720000267028809,12.920000076293945,12.600000381469727,12.710000038146973,11.831805229187012,18400
2020-08-31,12.859999656677246,13.25,12.859999656677246,13.15999984741211,12.250711441040039,42000
2020-09-01,12.75,13.09000015258789,12.75,12.850000381469727,11.962132453918457,17000
2020-09-02,12.829999923706055,13.829999923706055,12.800000190734863,13.829999923706055,12.874419212341309,47300
2020-09-03,13.65999984741211,13.890000343322754,13.0,13.300000190734863,12.3810396194458,45800
2020-09-04,13.449999809265137,13.449999809265137,12.699999809265137,12.899999618530273,12.00867748260498,33700
2020-09-08,12.520000457763672,13.270000457763672,12.5,12.800000190734863,11.915587425231934,17400
2020-09-09,13.0,13.0,12.239999771118164,12.40999984741211,11.552534103393555,18700
2020-09-10,12.40999984741211,12.539999961853027,12.149999618530273,12.149999618530273,11.310497283935547,45400
2020-09-11,12.220000267028809,12.220000267028809,11.859999656677246,11.989999771118164,11.161553382873535,58300
2020-09-14,12.079999923706055,12.460000038146973,12.050000190734863,12.050000190734863,11.2174072265625,11100
2020-09-15,12.449999809265137,12.449999809265137,11.600000381469727,11.670000076293945,10.863663673400879,43700
2020-09-16,12.15999984741211,12.5,11.90999984741211,12.319999694824219,11.468751907348633,15200
2020-09-17,11.949999809265137,12.5,11.789999961853027,12.5,11.63631534576416,5500
2020-09-18,12.40999984741211,12.40999984741211,11.979999542236328,11.979999542236328,11.152243614196777,39200
2020-09-21,11.640000343322754,12.010000228881836,11.449999809265137,11.699999809265137,10.891590118408203,13100
2020-09-22,11.789999961853027,11.890000343322754,11.399999618530273,11.539999961853027,10.742646217346191,24900
2020-09-23,11.5600004196167,11.75,11.25,11.25,10.472683906555176,17300
2020-09-24,11.149999618530273,11.40999984741211,10.449999809265137,11.010000228881836,10.249266624450684,16000
2020-09-25,10.760000228881836,11.270000457763672,10.760000228881836,11.100000381469727,10.333047866821289,6200
2020-09-28,11.350000381469727,11.489999771118164,10.930000305175781,10.930000305175781,10.17479419708252,6000
2020-09-29,11.199999809265137,11.289999961853027,10.90999984741211,11.010000228881836,10.249266624450684,6800
2020-09-30,11.0,11.289999961853027,10.850000381469727,11.109999656677246,10.342355728149414,17500
2020-10-01,11.130000114440918,11.199999809265137,10.699999809265137,10.699999809265137,9.960685729980469,9700
2020-10-02,10.59000015258789,11.15999984741211,10.59000015258789,10.800000190734863,10.053776741027832,24900
2020-10-05,10.899999618530273,11.300000190734863,10.760000228881836,11.010000228881836,10.249266624450684,18500
2020-10-06,11.100000381469727,11.300000190734863,10.680000305175781,10.699999809265137,9.960685729980469,28600
2020-10-07,10.829999923706055,10.930000305175781,10.390000343322754,10.710000038146973,9.96999454498291,17900
2020-10-08,10.699999809265137,10.949999809265137,10.260000228881836,10.489999771118164,9.7651948928833,165000
2020-10-09,11.079999923706055,11.079999923706055,10.399999618530273,10.4399995803833,9.718649864196777,35600
2020-10-12,10.5,10.579999923706055,10.260000228881836,10.3100004196167,9.597633361816406,22400
2020-10-13,10.319999694824219,10.609999656677246,10.149999618530273,10.569999694824219,9.839667320251465,46600
2020-10-14,10.319999694824219,10.729999542236328,10.319999694824219,10.489999771118164,9.7651948928833,30500
2020-10-15,10.420000076293945,10.470000267028809,10.149999618530273,10.149999618530273,9.448686599731445,29000
2020-10-16,10.149999618530273,10.359999656677246,10.050000190734863,10.0600004196167,9.364906311035156,27400
2020-10-19,10.199999809265137,10.350000381469727,9.510000228881836,9.550000190734863,8.890144348144531,116700
2020-10-20,9.59000015258789,10.0600004196167,9.550000190734863,9.710000038146973,9.03908920288086,28100
2020-10-21,10.140000343322754,10.140000343322754,9.619999885559082,9.65999984741211,8.99254322052002,18200
2020-10-22,9.800000190734863,10.069999694824219,9.75,9.9399995803833,9.25319766998291,53300
2020-10-23,10.029999732971191,10.130000114440918,9.739999771118164,10.069999694824219,9.374215126037598,22800
2020-10-26,9.989999771118164,10.050000190734863,9.890000343322754,10.010000228881836,9.318360328674316,20600
2020-10-27,9.890000343322754,9.890000343322754,9.720000267028809,9.760000228881836,9.0856351852417,19700
2020-10-28,9.59000015258789,9.800000190734863,9.5,9.600000381469727,8.936690330505371,33200
2020-10-29,9.510000228881836,9.770000457763672,9.4399995803833,9.630000114440918,8.964616775512695,13700
2020-10-30,9.630000114440918,9.930000305175781,9.460000038146973,9.649999618530273,8.983234405517578,8900
2020-11-02,9.720000267028809,10.0,9.649999618530273,9.649999618530273,8.983234405517578,18000
2020-11-03,9.770000457763672,10.1899995803833,9.699999809265137,9.890000343322754,9.206652641296387,39400
2020-11-04,9.9399995803833,10.109999656677246,9.600000381469727,10.029999732971191,9.336978912353516,150200
2020-11-05,18.270000457763672,31.899999618530273,16.719999313354492,30.540000915527344,28.429845809936523,12016400
2020-11-06,28.510000228881836,32.4900016784668,26.520000457763672,29.25,27.22897720336914,851800
2020-11-09,31.709999084472656,35.0,31.520000457763672,33.25,30.95259666442871,310700
2020-11-10,33.150001525878906,36.5,33.150001525878906,35.81999969482422,33.34502029418945,188700
2020-11-11,35.779998779296875,36.47999954223633,31.75,33.56999969482422,31.25048828125,209200
2020-11-12,33.5,33.59000015258789,32.380001068115234,32.65999984741211,30.403364181518555,61700
2020-11-13,32.880001068115234,33.63999938964844,32.7400016784668,33.380001068115234,31.07361602783203,61900
2020-11-16,34.029998779296875,35.5,34.0099983215332,34.9900016784668,32.57237243652344,67700
2020-11-17,35.11000061035156,38.0,34.88999938964844,38.0,35.37439727783203,94200
2020-11-18,39.209999084472656,40.88999938964844,38.099998474121094,39.84000015258789,37.08726119995117,129200
2020-11-19,39.61000061035156,39.61000061035156,37.04999923706055,37.970001220703125,35.346473693847656,92300
2020-11-20,39.060001373291016,39.060001373291016,37.189998626708984,37.36000061035156,34.778621673583984,89000
2020-11-23,37.36000061035156,39.20000076293945,37.36000061035156,38.36000061035156,35.70952224731445,156200
2020-11-24,39.5,44.0,39.220001220703125,39.880001068115234,37.1245002746582,140200
2020-11-25,42.43000030517578,42.880001068115234,39.880001068115234,40.45000076293945,37.65511703491211,103300
2020-11-27,40.810001373291016,41.779998779296875,39.619998931884766,40.0,37.2362060546875,27100
2020-11-30,39.900001525878906,40.45000076293945,39.04999923706055,39.119998931884766,36.41701126098633,82100
2020-12-01,39.68000030517578,40.56999969482422,36.02000045776367,37.5099983215332,34.918251037597656,57900
2020-12-02,37.689998626708984,39.25,37.0,39.25,36.538028717041016,55500
2020-12-03,39.72999954223633,41.619998931884766,39.72999954223633,41.0099983215332,38.176422119140625,80500
2020-12-04,42.0,50.939998626708984,41.79999923706055,49.65999984741211,46.2287483215332,354000
2020-12-07,50.0,50.0,46.16999816894531,46.290000915527344,43.09160232543945,69200
2020-12-08,46.400001525878906,46.5099983215332,44.0099983215332,44.36000061035156,41.29495620727539,76100
2020-12-09,44.72999954223633,46.9900016784668,42.86000061035156,42.869998931884766,39.90790557861328,51500
2020-12-10,45.599998474121094,49.0099983215332,45.599998474121094,48.34000015258789,44.99995803833008,118600
2020-12-11,48.380001068115234,48.75,45.54999923706055,45.9900016784668,42.81233215332031,42700
2020-12-14,47.689998626708984,48.34000015258789,43.720001220703125,44.29999923706055,41.23910140991211,62400
2020-12-15,45.20000076293945,47.75,44.52000045776367,47.7400016784668,44.44141387939453,29900
2020-12-16,47.900001525878906,47.900001525878906,45.63999938964844,46.790000915527344,43.55705642700195,32300
2020-12-17,47.2599983215332,47.29999923706055,45.0,46.61000061035156,43.389488220214844,26600
2020-12-18,47.0,50.40999984741211,46.70000076293945,47.5099983215332,44.2273063659668,98800
2020-12-21,46.0099983215332,47.18000030517578,45.099998474121094,46.97999954223633,43.73392868041992,39600
2020-12-22,47.0,47.0,45.7400016784668,46.29999923706055,43.10091018676758,48200
2020-12-23,46.900001525878906,49.4900016784668,46.5099983215332,48.40999984741211,45.065120697021484,55700
2020-12-24,49.09000015258789,49.09000015258789,46.97999954223633,48.06999969482422,44.74861145019531,13400
2020-12-28,48.33000183105469,48.33000183105469,44.43000030517578,45.02000045776367,41.90935134887695,60100
2020-12-29,44.88999938964844,47.0,44.689998626708984,46.58000183105469,43.36156463623047,33900
2020-12-30,46.470001220703125,46.470001220703125,45.04999923706055,46.36000061035156,43.15676498413086,51300
