Date,Open,High,Low,Close,Adj Close,Volume
2019-11-20,9.979999542236328,10.0,9.949999809265137,10.0,10.0,4212650
2019-11-21,9.970000267028809,9.989999771118164,9.960000038146973,9.989999771118164,9.989999771118164,141582
2019-11-22,9.970000267028809,9.989999771118164,9.960000038146973,9.989999771118164,9.989999771118164,57151
2019-11-25,9.989999771118164,9.989999771118164,9.960000038146973,9.970000267028809,9.970000267028809,55045
2019-11-26,9.979999542236328,9.989999771118164,9.960200309753418,9.989999771118164,9.989999771118164,132833
2019-11-27,9.989999771118164,9.989999771118164,9.989999771118164,9.989999771118164,9.989999771118164,0
2019-11-29,10.0,10.0,9.960000038146973,9.995200157165527,9.995200157165527,48113
2019-12-02,9.989899635314941,9.989999771118164,9.970000267028809,9.979999542236328,9.979999542236328,232544
2019-12-03,9.970000267028809,9.970000267028809,9.970000267028809,9.970000267028809,9.970000267028809,2550
2019-12-04,9.960000038146973,9.989999771118164,9.949999809265137,9.979999542236328,9.979999542236328,20759
2019-12-05,9.979999542236328,9.979999542236328,9.970000267028809,9.979999542236328,9.979999542236328,4050
2019-12-06,9.979999542236328,9.999899864196777,9.970000267028809,9.989999771118164,9.989999771118164,424801
2019-12-09,10.0,10.020000457763672,9.989999771118164,10.0,10.0,150716
2019-12-10,10.020000457763672,10.020000457763672,10.0,10.020000457763672,10.020000457763672,35550
2019-12-11,10.0,10.020000457763672,9.989999771118164,10.020000457763672,10.020000457763672,6850
2019-12-12,10.020000457763672,10.020000457763672,10.0,10.010000228881836,10.010000228881836,307100
2019-12-13,10.0,10.020000457763672,10.0,10.020000457763672,10.020000457763672,410
2019-12-16,10.010000228881836,10.039999961853027,10.005000114440918,10.039999961853027,10.039999961853027,43328
2019-12-17,10.039999961853027,10.039999961853027,10.039999961853027,10.039999961853027,10.039999961853027,400
2019-12-18,10.029999732971191,10.050000190734863,10.029999732971191,10.050000190734863,10.050000190734863,266095
2019-12-19,10.050000190734863,10.050000190734863,10.050000190734863,10.050000190734863,10.050000190734863,300
2019-12-20,10.067299842834473,10.069999694824219,10.050000190734863,10.069999694824219,10.069999694824219,1702
2019-12-23,10.049599647521973,10.049599647521973,10.049300193786621,10.049300193786621,10.049300193786621,601
2019-12-24,10.049300193786621,10.049300193786621,10.049300193786621,10.049300193786621,10.049300193786621,0
2019-12-26,10.049300193786621,10.049300193786621,10.049300193786621,10.049300193786621,10.049300193786621,0
2019-12-27,10.039999961853027,10.079999923706055,10.039999961853027,10.073800086975098,10.073800086975098,4970
2019-12-30,10.069999694824219,10.069999694824219,10.069999694824219,10.069999694824219,10.069999694824219,107938
2019-12-31,10.069999694824219,10.069999694824219,10.069999694824219,10.069999694824219,10.069999694824219,0
2020-01-02,10.069999694824219,10.069999694824219,10.069999694824219,10.069999694824219,10.069999694824219,0
2020-01-03,10.09000015258789,10.149999618530273,10.069999694824219,10.149999618530273,10.149999618530273,30100
2020-01-06,10.130000114440918,10.130000114440918,10.109999656677246,10.109999656677246,10.109999656677246,1505
2020-01-07,10.149999618530273,10.149999618530273,10.149999618530273,10.149999618530273,10.149999618530273,1000
2020-01-08,10.154999732971191,10.154999732971191,10.140000343322754,10.14009952545166,10.14009952545166,2201
2020-01-09,10.140000343322754,10.1850004196167,10.140000343322754,10.180000305175781,10.180000305175781,91544
2020-01-10,10.229999542236328,10.25,10.229999542236328,10.25,10.25,1800
2020-01-13,10.239999771118164,10.25,10.239999771118164,10.25,10.25,120200
2020-01-14,10.380000114440918,10.449999809265137,10.274999618530273,10.274999618530273,10.274999618530273,2056
2020-01-15,10.274999618530273,10.274999618530273,10.274999618530273,10.274999618530273,10.274999618530273,0
2020-01-16,10.274999618530273,10.274999618530273,10.274999618530273,10.274999618530273,10.274999618530273,0
2020-01-17,10.4399995803833,10.4399995803833,10.4399995803833,10.4399995803833,10.4399995803833,100
2020-01-21,10.34630012512207,10.399800300598145,10.295000076293945,10.399800300598145,10.399800300598145,1974
2020-01-22,10.350000381469727,10.350000381469727,10.350000381469727,10.350000381469727,10.350000381469727,500
2020-01-23,10.350000381469727,10.350000381469727,10.350000381469727,10.350000381469727,10.350000381469727,1005
2020-01-24,10.132800102233887,10.350000381469727,10.132800102233887,10.350000381469727,10.350000381469727,24560
2020-01-27,10.350000381469727,10.350000381469727,10.350000381469727,10.350000381469727,10.350000381469727,0
2020-01-28,10.350000381469727,10.350000381469727,10.350000381469727,10.350000381469727,10.350000381469727,0
2020-01-29,10.3100004196167,10.3100004196167,10.3100004196167,10.3100004196167,10.3100004196167,100
2020-01-30,10.3100004196167,10.3100004196167,10.3100004196167,10.3100004196167,10.3100004196167,0
2020-01-31,10.3100004196167,10.3100004196167,10.3100004196167,10.3100004196167,10.3100004196167,0
2020-02-03,10.3100004196167,10.3100004196167,10.3100004196167,10.3100004196167,10.3100004196167,0
2020-02-04,10.3100004196167,10.3100004196167,10.3100004196167,10.3100004196167,10.3100004196167,0
2020-02-05,10.3100004196167,10.3100004196167,10.3100004196167,10.3100004196167,10.3100004196167,0
2020-02-06,10.3100004196167,10.3100004196167,10.3100004196167,10.3100004196167,10.3100004196167,0
2020-02-07,10.3100004196167,10.3100004196167,10.3100004196167,10.3100004196167,10.3100004196167,0
2020-02-10,10.3100004196167,10.3100004196167,10.3100004196167,10.3100004196167,10.3100004196167,0
2020-02-11,10.3100004196167,10.3100004196167,10.3100004196167,10.3100004196167,10.3100004196167,0
2020-02-12,10.25,10.25,10.25,10.25,10.25,450
2020-02-13,10.25,10.25,10.150099754333496,10.25,10.25,11212
2020-02-14,10.20009994506836,10.20009994506836,10.199999809265137,10.199999809265137,10.199999809265137,800
2020-02-18,10.202400207519531,10.202400207519531,10.202400207519531,10.202400207519531,10.202400207519531,300
2020-02-19,10.210000038146973,10.25,10.210000038146973,10.210000038146973,10.210000038146973,10800
2020-02-20,10.255000114440918,10.255000114440918,10.210000038146973,10.210000038146973,10.210000038146973,600
2020-02-21,10.210000038146973,10.210000038146973,10.210000038146973,10.210000038146973,10.210000038146973,0
2020-02-24,10.210000038146973,10.210000038146973,10.210000038146973,10.210000038146973,10.210000038146973,0
2020-02-25,10.289999961853027,10.300000190734863,10.289999961853027,10.300000190734863,10.300000190734863,30000
2020-02-26,10.300000190734863,10.300000190734863,10.300000190734863,10.300000190734863,10.300000190734863,0
2020-02-27,10.300000190734863,10.300000190734863,10.300000190734863,10.300000190734863,10.300000190734863,0
2020-02-28,10.210000038146973,10.399999618530273,10.199999809265137,10.399999618530273,10.399999618530273,10104
2020-03-02,10.350000381469727,10.350000381469727,10.350000381469727,10.350000381469727,10.350000381469727,1200
2020-03-03,10.350000381469727,10.350000381469727,10.350000381469727,10.350000381469727,10.350000381469727,0
2020-03-04,10.300000190734863,10.300000190734863,10.300000190734863,10.300000190734863,10.300000190734863,200
2020-03-05,10.300000190734863,10.300000190734863,10.300000190734863,10.300000190734863,10.300000190734863,0
2020-03-06,10.300000190734863,10.300000190734863,10.300000190734863,10.300000190734863,10.300000190734863,0
2020-03-09,10.300000190734863,10.300000190734863,10.300000190734863,10.300000190734863,10.300000190734863,0
2020-03-10,10.300000190734863,10.300000190734863,10.300000190734863,10.300000190734863,10.300000190734863,0
2020-03-11,10.300000190734863,10.300000190734863,10.300000190734863,10.300000190734863,10.300000190734863,0
2020-03-12,10.300000190734863,10.300000190734863,10.300000190734863,10.300000190734863,10.300000190734863,0
2020-03-13,10.300000190734863,10.300000190734863,10.300000190734863,10.300000190734863,10.300000190734863,0
2020-03-16,10.300000190734863,10.300000190734863,10.300000190734863,10.300000190734863,10.300000190734863,0
2020-03-17,10.300000190734863,10.300000190734863,10.300000190734863,10.300000190734863,10.300000190734863,0
2020-03-18,9.75,9.75,9.75,9.75,9.75,600
2020-03-19,9.699999809265137,9.699999809265137,9.699999809265137,9.699999809265137,9.699999809265137,1003
2020-03-20,9.699999809265137,9.699999809265137,9.699999809265137,9.699999809265137,9.699999809265137,897
2020-03-23,9.699999809265137,9.699999809265137,9.699999809265137,9.699999809265137,9.699999809265137,0
2020-03-24,9.5,9.5,9.5,9.5,9.5,250000
2020-03-25,9.5,9.5,9.5,9.5,9.5,0
2020-03-26,9.5,9.5,9.5,9.5,9.5,0
2020-03-27,9.5,9.5,9.5,9.5,9.5,0
2020-03-30,9.5,9.5,9.5,9.5,9.5,0
2020-03-31,9.5,9.5,9.5,9.5,9.5,0
2020-04-01,9.5,9.5,9.5,9.5,9.5,0
2020-04-02,9.5,9.5,9.5,9.5,9.5,0
2020-04-03,9.5,9.5,9.5,9.5,9.5,0
2020-04-06,9.800000190734863,9.800000190734863,9.800000190734863,9.800000190734863,9.800000190734863,20808
2020-04-07,9.800000190734863,9.800000190734863,9.800000190734863,9.800000190734863,9.800000190734863,0
2020-04-08,9.800000190734863,9.800000190734863,9.800000190734863,9.800000190734863,9.800000190734863,0
2020-04-09,9.800000190734863,9.800000190734863,9.800000190734863,9.800000190734863,9.800000190734863,0
2020-04-13,9.800000190734863,9.800000190734863,9.800000190734863,9.800000190734863,9.800000190734863,0
2020-04-14,9.800000190734863,9.800000190734863,9.800000190734863,9.800000190734863,9.800000190734863,0
2020-04-15,9.800000190734863,9.800000190734863,9.800000190734863,9.800000190734863,9.800000190734863,0
2020-04-16,9.800000190734863,9.800000190734863,9.800000190734863,9.800000190734863,9.800000190734863,0
2020-04-17,9.800000190734863,9.800000190734863,9.800000190734863,9.800000190734863,9.800000190734863,0
2020-04-20,9.800000190734863,9.800000190734863,9.800000190734863,9.800000190734863,9.800000190734863,0
2020-04-21,9.800000190734863,9.800000190734863,9.800000190734863,9.800000190734863,9.800000190734863,0
2020-04-22,9.800000190734863,9.800000190734863,9.800000190734863,9.800000190734863,9.800000190734863,0
2020-04-23,9.75,9.769499778747559,9.630000114440918,9.649299621582031,9.649299621582031,9200
2020-04-24,9.649299621582031,9.649299621582031,9.649299621582031,9.649299621582031,9.649299621582031,0
2020-04-27,9.649299621582031,9.649299621582031,9.649299621582031,9.649299621582031,9.649299621582031,0
2020-04-28,10.0,10.0,9.989999771118164,9.989999771118164,9.989999771118164,6219
2020-04-29,9.93649959564209,9.93649959564209,9.93649959564209,9.93649959564209,9.93649959564209,512
2020-04-30,9.93649959564209,9.93649959564209,9.93649959564209,9.93649959564209,9.93649959564209,0
2020-05-01,9.93649959564209,9.93649959564209,9.93649959564209,9.93649959564209,9.93649959564209,0
2020-05-04,9.93649959564209,9.93649959564209,9.93649959564209,9.93649959564209,9.93649959564209,0
2020-05-05,9.93649959564209,9.93649959564209,9.93649959564209,9.93649959564209,9.93649959564209,0
2020-05-06,9.93649959564209,9.93649959564209,9.93649959564209,9.93649959564209,9.93649959564209,0
2020-05-07,10.005999565124512,10.005999565124512,10.005999565124512,10.005999565124512,10.005999565124512,108
2020-05-08,10.005999565124512,10.005999565124512,10.005999565124512,10.005999565124512,10.005999565124512,0
2020-05-11,10.005999565124512,10.005999565124512,10.005999565124512,10.005999565124512,10.005999565124512,0
2020-05-12,10.005999565124512,10.005999565124512,10.005999565124512,10.005999565124512,10.005999565124512,0
2020-05-13,10.010000228881836,10.010000228881836,9.922800064086914,9.970000267028809,9.970000267028809,5093
2020-05-14,9.970000267028809,9.970000267028809,9.970000267028809,9.970000267028809,9.970000267028809,0
2020-05-15,9.899999618530273,9.970000267028809,9.289999961853027,9.970000267028809,9.970000267028809,5355
2020-05-18,9.970000267028809,9.970000267028809,9.970000267028809,9.970000267028809,9.970000267028809,0
2020-05-19,9.970000267028809,9.970000267028809,9.970000267028809,9.970000267028809,9.970000267028809,0
2020-05-20,9.970000267028809,9.970000267028809,9.970000267028809,9.970000267028809,9.970000267028809,0
2020-05-21,9.970000267028809,9.970000267028809,9.970000267028809,9.970000267028809,9.970000267028809,0
2020-05-22,9.970000267028809,9.970000267028809,9.970000267028809,9.970000267028809,9.970000267028809,0
2020-05-26,9.949999809265137,9.949999809265137,9.949999809265137,9.949999809265137,9.949999809265137,6514
2020-05-27,9.949999809265137,10.010000228881836,9.949999809265137,10.010000228881836,10.010000228881836,5366
2020-05-28,10.010000228881836,10.010000228881836,10.010000228881836,10.010000228881836,10.010000228881836,5016
2020-05-29,10.010000228881836,10.010000228881836,10.010000228881836,10.010000228881836,10.010000228881836,0
2020-06-01,10.010000228881836,10.010000228881836,10.010000228881836,10.010000228881836,10.010000228881836,0
2020-06-02,10.010000228881836,10.010000228881836,10.010000228881836,10.010000228881836,10.010000228881836,0
2020-06-03,10.010000228881836,10.010000228881836,10.010000228881836,10.010000228881836,10.010000228881836,0
2020-06-04,10.010000228881836,10.010000228881836,10.010000228881836,10.010000228881836,10.010000228881836,0
2020-06-05,10.010000228881836,10.010000228881836,10.010000228881836,10.010000228881836,10.010000228881836,0
2020-06-08,10.010000228881836,10.010000228881836,10.010000228881836,10.010000228881836,10.010000228881836,0
2020-06-09,10.010000228881836,10.010000228881836,10.010000228881836,10.010000228881836,10.010000228881836,0
2020-06-10,10.0,10.0,10.0,10.0,10.0,1036
2020-06-11,10.0,10.0,10.0,10.0,10.0,0
2020-06-12,10.0,10.0,10.0,10.0,10.0,0
2020-06-15,10.0,10.0,10.0,10.0,10.0,0
2020-06-16,10.0,10.0,10.0,10.0,10.0,0
2020-06-17,10.0,10.0,10.0,10.0,10.0,240
2020-06-18,10.0,10.0,10.0,10.0,10.0,0
2020-06-19,10.0,10.0,10.0,10.0,10.0,0
2020-06-22,10.0,10.0,10.0,10.0,10.0,0
2020-06-23,10.199999809265137,10.199999809265137,10.199999809265137,10.199999809265137,10.199999809265137,1825
2020-06-24,10.199999809265137,10.199999809265137,10.199999809265137,10.199999809265137,10.199999809265137,0
2020-06-25,10.199999809265137,10.199999809265137,10.199999809265137,10.199999809265137,10.199999809265137,0
2020-06-26,10.199999809265137,10.199999809265137,10.199999809265137,10.199999809265137,10.199999809265137,0
2020-06-29,10.199999809265137,10.199999809265137,10.199999809265137,10.199999809265137,10.199999809265137,0
2020-06-30,10.199999809265137,10.199999809265137,10.199999809265137,10.199999809265137,10.199999809265137,0
2020-07-01,10.199999809265137,10.199999809265137,10.199999809265137,10.199999809265137,10.199999809265137,0
2020-07-02,10.199999809265137,10.199999809265137,10.199999809265137,10.199999809265137,10.199999809265137,0
2020-07-06,10.199999809265137,10.199999809265137,10.199999809265137,10.199999809265137,10.199999809265137,0
2020-07-07,10.199999809265137,10.199999809265137,10.199999809265137,10.199999809265137,10.199999809265137,0
2020-07-08,10.199999809265137,10.199999809265137,10.199999809265137,10.199999809265137,10.199999809265137,0
2020-07-09,10.199999809265137,10.199999809265137,10.199999809265137,10.199999809265137,10.199999809265137,0
2020-07-10,10.199999809265137,10.199999809265137,10.199999809265137,10.199999809265137,10.199999809265137,0
2020-07-13,10.354999542236328,10.380000114440918,10.354999542236328,10.354999542236328,10.354999542236328,3303
2020-07-14,10.354999542236328,10.354999542236328,10.354999542236328,10.354999542236328,10.354999542236328,0
2020-07-15,10.354999542236328,10.354999542236328,10.354999542236328,10.354999542236328,10.354999542236328,0
2020-07-16,10.354999542236328,10.354999542236328,10.354999542236328,10.354999542236328,10.354999542236328,0
2020-07-17,10.354999542236328,10.354999542236328,10.354999542236328,10.354999542236328,10.354999542236328,0
2020-07-20,10.354999542236328,10.354999542236328,10.354999542236328,10.354999542236328,10.354999542236328,0
2020-07-21,10.354999542236328,10.354999542236328,10.354999542236328,10.354999542236328,10.354999542236328,0
2020-07-22,10.149999618530273,10.149999618530273,10.149999618530273,10.149999618530273,10.149999618530273,202
2020-07-23,10.149999618530273,10.149999618530273,10.149999618530273,10.149999618530273,10.149999618530273,0
2020-07-24,10.149999618530273,10.149999618530273,10.149999618530273,10.149999618530273,10.149999618530273,0
2020-07-27,10.5,10.5,10.5,10.5,10.5,1000
2020-07-28,10.5,10.5,10.5,10.5,10.5,0
2020-07-29,10.479999542236328,10.710000038146973,10.479999542236328,10.597999572753906,10.597999572753906,12900
2020-07-30,10.580100059509277,10.580100059509277,10.579999923706055,10.579999923706055,10.579999923706055,900
2020-07-31,10.430000305175781,10.430000305175781,10.430000305175781,10.430000305175781,10.430000305175781,1000
2020-08-03,10.40999984741211,10.430000305175781,10.369999885559082,10.369999885559082,10.369999885559082,3805
2020-08-04,10.369999885559082,10.369999885559082,10.369999885559082,10.369999885559082,10.369999885559082,0
2020-08-05,10.260000228881836,10.289999961853027,10.260000228881836,10.260000228881836,10.260000228881836,3783
2020-08-06,10.260000228881836,10.260000228881836,10.260000228881836,10.260000228881836,10.260000228881836,0
2020-08-07,10.260000228881836,10.260000228881836,10.260000228881836,10.260000228881836,10.260000228881836,0
2020-08-10,10.260000228881836,10.260000228881836,10.260000228881836,10.260000228881836,10.260000228881836,0
2020-08-11,10.260000228881836,10.260000228881836,10.260000228881836,10.260000228881836,10.260000228881836,0
2020-08-12,10.199999809265137,10.210000038146973,10.199999809265137,10.199999809265137,10.199999809265137,10000
2020-08-13,10.199999809265137,10.199999809265137,10.199999809265137,10.199999809265137,10.199999809265137,0
2020-08-14,10.199999809265137,10.199999809265137,10.199999809265137,10.199999809265137,10.199999809265137,0
2020-08-17,10.199999809265137,10.199999809265137,10.199999809265137,10.199999809265137,10.199999809265137,0
2020-08-18,10.199999809265137,10.199999809265137,10.199999809265137,10.199999809265137,10.199999809265137,0
2020-08-19,10.199999809265137,10.199999809265137,10.199999809265137,10.199999809265137,10.199999809265137,0
2020-08-20,10.199999809265137,10.199999809265137,10.199999809265137,10.199999809265137,10.199999809265137,0
2020-08-21,10.199999809265137,10.199999809265137,10.199999809265137,10.199999809265137,10.199999809265137,0
2020-08-24,10.199999809265137,10.199999809265137,10.199999809265137,10.199999809265137,10.199999809265137,0
2020-08-25,10.390000343322754,10.526000022888184,10.253999710083008,10.253999710083008,10.253999710083008,1600
2020-08-26,10.253999710083008,10.253999710083008,10.253999710083008,10.253999710083008,10.253999710083008,0
2020-08-27,10.253999710083008,10.253999710083008,10.253999710083008,10.253999710083008,10.253999710083008,0
2020-08-28,10.253999710083008,10.253999710083008,10.253999710083008,10.253999710083008,10.253999710083008,0
2020-08-31,10.253999710083008,10.253999710083008,10.253999710083008,10.253999710083008,10.253999710083008,0
2020-09-01,10.253999710083008,10.253999710083008,10.253999710083008,10.253999710083008,10.253999710083008,0
2020-09-02,10.253999710083008,10.253999710083008,10.253999710083008,10.253999710083008,10.253999710083008,0
2020-09-03,10.253999710083008,10.253999710083008,10.253999710083008,10.253999710083008,10.253999710083008,0
2020-09-04,10.253999710083008,10.253999710083008,10.253999710083008,10.253999710083008,10.253999710083008,0
2020-09-08,10.253999710083008,10.253999710083008,10.253999710083008,10.253999710083008,10.253999710083008,0
2020-09-09,10.253999710083008,10.253999710083008,10.253999710083008,10.253999710083008,10.253999710083008,0
2020-09-10,10.253999710083008,10.253999710083008,10.253999710083008,10.253999710083008,10.253999710083008,0
2020-09-11,10.253999710083008,10.253999710083008,10.253999710083008,10.253999710083008,10.253999710083008,0
2020-09-14,10.384699821472168,10.384699821472168,10.199999809265137,10.199999809265137,10.199999809265137,1550
2020-09-15,10.199999809265137,10.199999809265137,10.199999809265137,10.199999809265137,10.199999809265137,0
2020-09-16,10.300000190734863,10.300000190734863,10.300000190734863,10.300000190734863,10.300000190734863,867
2020-09-17,10.300000190734863,10.300000190734863,10.300000190734863,10.300000190734863,10.300000190734863,0
2020-09-18,10.300000190734863,10.300000190734863,10.300000190734863,10.300000190734863,10.300000190734863,0
2020-09-21,10.300000190734863,10.300000190734863,10.300000190734863,10.300000190734863,10.300000190734863,0
2020-09-22,10.300000190734863,10.300000190734863,10.300000190734863,10.300000190734863,10.300000190734863,0
2020-09-23,10.300000190734863,10.300000190734863,10.300000190734863,10.300000190734863,10.300000190734863,0
2020-09-24,10.300000190734863,10.300000190734863,10.300000190734863,10.300000190734863,10.300000190734863,0
2020-09-25,10.300000190734863,10.300000190734863,10.300000190734863,10.300000190734863,10.300000190734863,0
2020-09-28,10.300000190734863,10.300000190734863,10.300000190734863,10.300000190734863,10.300000190734863,0
2020-09-29,10.300000190734863,10.300000190734863,10.300000190734863,10.300000190734863,10.300000190734863,0
2020-09-30,10.300000190734863,10.300000190734863,10.300000190734863,10.300000190734863,10.300000190734863,0
2020-10-01,10.300000190734863,10.300000190734863,10.300000190734863,10.300000190734863,10.300000190734863,500
2020-10-02,10.300000190734863,10.300000190734863,10.300000190734863,10.300000190734863,10.300000190734863,0
2020-10-05,10.300000190734863,10.300000190734863,10.300000190734863,10.300000190734863,10.300000190734863,0
2020-10-06,10.300000190734863,10.300000190734863,10.300000190734863,10.300000190734863,10.300000190734863,0
2020-10-07,10.300000190734863,10.300000190734863,10.300000190734863,10.300000190734863,10.300000190734863,0
2020-10-08,10.300000190734863,10.300000190734863,10.300000190734863,10.300000190734863,10.300000190734863,0
2020-10-09,10.300000190734863,10.350000381469727,10.300000190734863,10.350000381469727,10.350000381469727,2000
2020-10-12,10.350000381469727,10.350000381469727,10.350000381469727,10.350000381469727,10.350000381469727,0
2020-10-13,10.350000381469727,10.350000381469727,10.350000381469727,10.350000381469727,10.350000381469727,0
2020-10-14,10.350000381469727,10.350000381469727,10.350000381469727,10.350000381469727,10.350000381469727,0
2020-10-15,10.350000381469727,10.350000381469727,10.350000381469727,10.350000381469727,10.350000381469727,0
2020-10-16,10.350000381469727,10.350000381469727,10.350000381469727,10.350000381469727,10.350000381469727,0
2020-10-19,10.350000381469727,10.350000381469727,10.350000381469727,10.350000381469727,10.350000381469727,0
2020-10-20,10.350000381469727,10.350000381469727,10.350000381469727,10.350000381469727,10.350000381469727,0
2020-10-21,10.350000381469727,10.350000381469727,10.350000381469727,10.350000381469727,10.350000381469727,0
2020-10-22,10.350000381469727,10.350000381469727,10.350000381469727,10.350000381469727,10.350000381469727,0
2020-10-23,10.350000381469727,10.350000381469727,10.350000381469727,10.350000381469727,10.350000381469727,0
2020-10-26,10.350000381469727,10.350000381469727,10.350000381469727,10.350000381469727,10.350000381469727,0
2020-10-27,10.350000381469727,10.350000381469727,10.350000381469727,10.350000381469727,10.350000381469727,0
2020-10-28,10.350000381469727,10.350000381469727,10.350000381469727,10.350000381469727,10.350000381469727,0
2020-10-29,10.350000381469727,10.350000381469727,10.350000381469727,10.350000381469727,10.350000381469727,0
2020-10-30,10.350000381469727,10.350000381469727,10.350000381469727,10.350000381469727,10.350000381469727,0
2020-11-02,10.350000381469727,10.350000381469727,10.350000381469727,10.350000381469727,10.350000381469727,0
2020-11-03,9.880000114440918,10.350000381469727,9.880000114440918,10.199999809265137,10.199999809265137,400
2020-11-04,10.199999809265137,10.199999809265137,10.199999809265137,10.199999809265137,10.199999809265137,100
2020-11-05,10.199999809265137,10.199999809265137,10.199999809265137,10.199999809265137,10.199999809265137,0
2020-11-06,10.199999809265137,10.199999809265137,10.199999809265137,10.199999809265137,10.199999809265137,0
2020-11-09,10.199999809265137,10.199999809265137,10.199999809265137,10.199999809265137,10.199999809265137,0
2020-11-10,10.199999809265137,10.199999809265137,10.199999809265137,10.199999809265137,10.199999809265137,0
2020-11-11,10.199999809265137,10.199999809265137,10.199999809265137,10.199999809265137,10.199999809265137,0
2020-11-12,10.199999809265137,10.199999809265137,10.199999809265137,10.199999809265137,10.199999809265137,0
2020-11-13,9.8100004196167,10.449999809265137,9.51200008392334,10.343299865722656,10.343299865722656,8230
2020-11-16,10.32040023803711,10.390000343322754,10.199999809265137,10.390000343322754,10.390000343322754,3600
2020-11-17,10.390000343322754,10.390000343322754,10.390000343322754,10.390000343322754,10.390000343322754,0
2020-11-18,10.390000343322754,10.390000343322754,10.390000343322754,10.390000343322754,10.390000343322754,0
2020-11-19,10.390000343322754,10.390000343322754,10.390000343322754,10.390000343322754,10.390000343322754,0
2020-11-20,10.449999809265137,10.449999809265137,10.449999809265137,10.449999809265137,10.449999809265137,101
2020-11-23,10.449999809265137,10.449999809265137,10.449999809265137,10.449999809265137,10.449999809265137,0
2020-11-24,10.449999809265137,10.449999809265137,10.449999809265137,10.449999809265137,10.449999809265137,110
2020-11-25,10.449999809265137,10.449999809265137,10.449999809265137,10.449999809265137,10.449999809265137,0
2020-11-27,10.449999809265137,10.449999809265137,10.449999809265137,10.449999809265137,10.449999809265137,0
2020-11-30,10.449999809265137,10.449999809265137,10.449999809265137,10.449999809265137,10.449999809265137,0
2020-12-01,9.925000190734863,10.449999809265137,9.925000190734863,10.039999961853027,10.039999961853027,888
2020-12-02,10.039999961853027,10.039999961853027,10.039999961853027,10.039999961853027,10.039999961853027,0
2020-12-03,10.039999961853027,10.039999961853027,10.039999961853027,10.039999961853027,10.039999961853027,0
2020-12-04,10.449999809265137,10.449999809265137,10.449999809265137,10.449999809265137,10.449999809265137,1022
2020-12-07,9.850000381469727,10.449999809265137,9.850000381469727,10.449999809265137,10.449999809265137,1450
2020-12-08,10.390299797058105,10.523799896240234,10.27280044555664,10.48799991607666,10.48799991607666,5604
2020-12-09,10.600000381469727,10.600000381469727,10.600000381469727,10.600000381469727,10.600000381469727,166
2020-12-10,10.600000381469727,10.600000381469727,10.600000381469727,10.600000381469727,10.600000381469727,0
2020-12-11,11.710000038146973,12.199999809265137,10.670000076293945,10.670000076293945,10.670000076293945,1475
2020-12-14,10.949999809265137,14.649999618530273,10.899999618530273,13.649999618530273,13.649999618530273,1861
2020-12-15,12.289999961853027,12.289999961853027,10.545000076293945,11.95680046081543,11.95680046081543,4888
2020-12-16,11.95680046081543,11.95680046081543,11.95680046081543,11.95680046081543,11.95680046081543,0
2020-12-17,11.95680046081543,11.95680046081543,11.95680046081543,11.95680046081543,11.95680046081543,0
2020-12-18,11.95680046081543,11.95680046081543,11.95680046081543,11.95680046081543,11.95680046081543,0
2020-12-21,11.25,11.25,11.25,11.25,11.25,189
2020-12-22,11.25,11.25,11.25,11.25,11.25,0
2020-12-23,11.050000190734863,11.050000190734863,11.050000190734863,11.050000190734863,11.050000190734863,110
2020-12-24,11.050000190734863,11.050000190734863,11.050000190734863,11.050000190734863,11.050000190734863,0
2020-12-28,11.050000190734863,11.050000190734863,11.050000190734863,11.050000190734863,11.050000190734863,0
2020-12-29,11.050000190734863,11.050000190734863,11.050000190734863,11.050000190734863,11.050000190734863,0
2020-12-30,11.050000190734863,11.050000190734863,11.050000190734863,11.050000190734863,11.050000190734863,0
