Date,Open,High,Low,Close,Adj Close,Volume
2018-09-26,24.5,25.59000015258789,23.15999984741211,23.5,23.5,7353800
2018-09-27,23.969999313354492,25.200000762939453,23.0,23.690000534057617,23.690000534057617,1119100
2018-09-28,23.56999969482422,23.8799991607666,22.229999542236328,22.799999237060547,22.799999237060547,722600
2018-10-01,22.75,22.75,20.600000381469727,21.979999542236328,21.979999542236328,702000
2018-10-02,22.0,22.31999969482422,21.1299991607666,21.920000076293945,21.920000076293945,653500
2018-10-03,22.0,23.219999313354492,21.299999237060547,23.219999313354492,23.219999313354492,244100
2018-10-04,23.510000228881836,23.989999771118164,22.049999237060547,22.610000610351562,22.610000610351562,342100
2018-10-05,22.81999969482422,22.81999969482422,21.690000534057617,22.3799991607666,22.3799991607666,175400
2018-10-08,23.31999969482422,23.31999969482422,22.0,22.530000686645508,22.530000686645508,51900
2018-10-09,22.25,22.690000534057617,22.0,22.18000030517578,22.18000030517578,58400
2018-10-10,22.1200008392334,22.290000915527344,20.700000762939453,21.489999771118164,21.489999771118164,186100
2018-10-11,22.049999237060547,22.93000030517578,20.84000015258789,22.479999542236328,22.479999542236328,76200
2018-10-12,22.399999618530273,24.0,21.469999313354492,22.020000457763672,22.020000457763672,46000
2018-10-15,22.0,22.209999084472656,20.200000762939453,21.600000381469727,21.600000381469727,52500
2018-10-16,22.1200008392334,23.020000457763672,21.0,22.440000534057617,22.440000534057617,44500
2018-10-17,22.34000015258789,23.100000381469727,21.260000228881836,22.709999084472656,22.709999084472656,27000
2018-10-18,22.56999969482422,23.260000228881836,22.549999237060547,22.989999771118164,22.989999771118164,90000
2018-10-19,22.860000610351562,23.389999389648438,22.559999465942383,22.75,22.75,21600
2018-10-22,23.389999389648438,23.479999542236328,21.610000610351562,22.170000076293945,22.170000076293945,103200
2018-10-23,21.969999313354492,22.489999771118164,21.479999542236328,22.110000610351562,22.110000610351562,130300
2018-10-24,21.989999771118164,22.0,21.0,21.149999618530273,21.149999618530273,77200
2018-10-25,21.31999969482422,22.700000762939453,20.610000610351562,21.5,21.5,169900
2018-10-26,21.360000610351562,23.34000015258789,20.969999313354492,21.709999084472656,21.709999084472656,207500
2018-10-29,21.760000228881836,22.149999618530273,20.59000015258789,21.420000076293945,21.420000076293945,59300
2018-10-30,21.309999465942383,21.920000076293945,20.969999313354492,21.309999465942383,21.309999465942383,26700
2018-10-31,21.5,21.700000762939453,20.950000762939453,21.309999465942383,21.309999465942383,125900
2018-11-01,21.270000457763672,21.84000015258789,20.559999465942383,21.270000457763672,21.270000457763672,49500
2018-11-02,21.459999084472656,22.479999542236328,21.329999923706055,22.389999389648438,22.389999389648438,26700
2018-11-05,22.450000762939453,22.639999389648438,21.719999313354492,22.329999923706055,22.329999923706055,51600
2018-11-06,22.440000534057617,22.950000762939453,22.030000686645508,22.030000686645508,22.030000686645508,12700
2018-11-07,22.040000915527344,22.709999084472656,21.510000228881836,22.0,22.0,74900
2018-11-08,22.1299991607666,22.850000381469727,21.56999969482422,22.040000915527344,22.040000915527344,43400
2018-11-09,21.8799991607666,22.6200008392334,21.09000015258789,21.25,21.25,27200
2018-11-12,21.459999084472656,22.34000015258789,21.030000686645508,22.030000686645508,22.030000686645508,36800
2018-11-13,22.200000762939453,22.200000762939453,20.559999465942383,21.079999923706055,21.079999923706055,19700
2018-11-14,21.329999923706055,21.739999771118164,20.700000762939453,21.399999618530273,21.399999618530273,73000
2018-11-15,21.40999984741211,22.979999542236328,20.84000015258789,22.979999542236328,22.979999542236328,16500
2018-11-16,22.8799991607666,23.040000915527344,20.5,22.860000610351562,22.860000610351562,10200
2018-11-19,22.959999084472656,22.959999084472656,21.84000015258789,22.18000030517578,22.18000030517578,14600
2018-11-20,21.8700008392334,23.0,21.8700008392334,22.56999969482422,22.56999969482422,55100
2018-11-21,22.5,23.709999084472656,21.75,23.639999389648438,23.639999389648438,55200
2018-11-23,23.280000686645508,24.489999771118164,22.540000915527344,24.489999771118164,24.489999771118164,15300
2018-11-26,24.5,24.5,23.010000228881836,24.190000534057617,24.190000534057617,28500
2018-11-27,24.170000076293945,24.489999771118164,23.25,23.56999969482422,23.56999969482422,29400
2018-11-28,23.780000686645508,24.489999771118164,22.670000076293945,23.350000381469727,23.350000381469727,50400
2018-11-29,23.25,23.3700008392334,22.639999389648438,23.219999313354492,23.219999313354492,79800
2018-11-30,23.239999771118164,24.450000762939453,22.5,23.649999618530273,23.649999618530273,46400
2018-12-03,23.68000030517578,24.139999389648438,23.0,23.75,23.75,39900
2018-12-04,23.510000228881836,24.6200008392334,22.950000762939453,24.219999313354492,24.219999313354492,92300
2018-12-06,23.760000228881836,24.799999237060547,22.940000534057617,23.780000686645508,23.780000686645508,94900
2018-12-07,24.06999969482422,24.06999969482422,22.139999389648438,23.530000686645508,23.530000686645508,52700
2018-12-10,23.440000534057617,24.030000686645508,21.809999465942383,22.030000686645508,22.030000686645508,46100
2018-12-11,22.030000686645508,23.3799991607666,21.190000534057617,21.670000076293945,21.670000076293945,107000
2018-12-12,21.860000610351562,22.5,21.0,21.579999923706055,21.579999923706055,25900
2018-12-13,21.43000030517578,22.049999237060547,20.899999618530273,21.0,21.0,50100
2018-12-14,21.059999465942383,22.149999618530273,20.68000030517578,21.5,21.5,39300
2018-12-17,21.43000030517578,21.59000015258789,20.530000686645508,20.93000030517578,20.93000030517578,76300
2018-12-18,21.5,22.200000762939453,20.799999237060547,21.170000076293945,21.170000076293945,22300
2018-12-19,21.0,22.209999084472656,20.649999618530273,21.299999237060547,21.299999237060547,53300
2018-12-20,21.56999969482422,21.850000381469727,17.68000030517578,20.0,20.0,52300
2018-12-21,19.219999313354492,20.40999984741211,19.09000015258789,19.469999313354492,19.469999313354492,91000
2018-12-24,19.639999389648438,20.719999313354492,18.93000030517578,20.020000457763672,20.020000457763672,4000
2018-12-26,21.489999771118164,21.489999771118164,19.469999313354492,20.59000015258789,20.59000015258789,12600
2018-12-27,20.690000534057617,21.459999084472656,20.34000015258789,21.020000457763672,21.020000457763672,12200
2018-12-28,21.389999389648438,22.200000762939453,21.030000686645508,21.56999969482422,21.56999969482422,66400
2018-12-31,21.809999465942383,23.100000381469727,21.139999389648438,22.1200008392334,22.1200008392334,11800
2019-01-02,22.100000381469727,22.100000381469727,20.350000381469727,21.709999084472656,21.709999084472656,17800
2019-01-03,22.450000762939453,22.450000762939453,21.25,21.520000457763672,21.520000457763672,11100
2019-01-04,22.350000381469727,22.350000381469727,21.3799991607666,21.84000015258789,21.84000015258789,65700
2019-01-07,21.84000015258789,22.81999969482422,21.56999969482422,21.81999969482422,21.81999969482422,22300
2019-01-08,22.700000762939453,22.700000762939453,21.3799991607666,22.0,22.0,16700
2019-01-09,22.270000457763672,22.850000381469727,20.780000686645508,21.68000030517578,21.68000030517578,131600
2019-01-10,21.6299991607666,22.360000610351562,20.5,21.860000610351562,21.860000610351562,136200
2019-01-11,21.8799991607666,22.260000228881836,20.940000534057617,21.59000015258789,21.59000015258789,116400
2019-01-14,22.649999618530273,22.649999618530273,21.0,21.290000915527344,21.290000915527344,83900
2019-01-15,21.209999084472656,22.5,21.059999465942383,21.899999618530273,21.899999618530273,18100
2019-01-16,21.93000030517578,22.3799991607666,21.5,21.760000228881836,21.760000228881836,27300
2019-01-17,21.940000534057617,22.43000030517578,21.360000610351562,21.690000534057617,21.690000534057617,44300
2019-01-18,22.290000915527344,22.790000915527344,21.3799991607666,22.06999969482422,22.06999969482422,17000
2019-01-22,22.239999771118164,22.950000762939453,21.540000915527344,22.549999237060547,22.549999237060547,38200
2019-01-23,22.59000015258789,22.600000381469727,21.440000534057617,21.920000076293945,21.920000076293945,64000
2019-01-24,21.889999389648438,23.5,21.510000228881836,23.5,23.5,24200
2019-01-25,23.5,23.950000762939453,23.1299991607666,23.1299991607666,23.1299991607666,4400
2019-01-28,23.010000228881836,24.65999984741211,23.0,24.399999618530273,24.399999618530273,16200
2019-01-29,24.0,25.0,22.600000381469727,23.709999084472656,23.709999084472656,70200
2019-01-30,23.56999969482422,26.469999313354492,23.540000915527344,25.200000762939453,25.200000762939453,191500
2019-01-31,25.149999618530273,25.989999771118164,23.3700008392334,25.280000686645508,25.280000686645508,33200
2019-02-01,25.280000686645508,25.81999969482422,23.899999618530273,25.239999771118164,25.239999771118164,87400
2019-02-04,24.899999618530273,26.0,22.40999984741211,25.170000076293945,25.170000076293945,34400
2019-02-05,24.8700008392334,25.899999618530273,24.489999771118164,25.5,25.5,42300
2019-02-06,25.479999542236328,26.0,24.100000381469727,25.3799991607666,25.3799991607666,23200
2019-02-07,25.389999389648438,26.450000762939453,24.8799991607666,26.0,26.0,132600
2019-02-08,26.020000457763672,26.989999771118164,25.559999465942383,26.6299991607666,26.6299991607666,36200
2019-02-11,26.1200008392334,26.959999084472656,25.969999313354492,26.5,26.5,57400
2019-02-12,26.75,26.989999771118164,26.09000015258789,26.6299991607666,26.6299991607666,40300
2019-02-13,26.639999389648438,27.469999313354492,26.15999984741211,26.649999618530273,26.649999618530273,54100
2019-02-14,26.65999984741211,27.239999771118164,25.920000076293945,26.360000610351562,26.360000610351562,18000
2019-02-15,26.3700008392334,26.969999313354492,25.6299991607666,26.75,26.75,83000
2019-02-19,26.719999313354492,27.219999313354492,26.579999923706055,26.6299991607666,26.6299991607666,130700
2019-02-20,26.65999984741211,27.040000915527344,26.260000228881836,26.59000015258789,26.59000015258789,26200
2019-02-21,26.579999923706055,27.010000228881836,25.8700008392334,26.790000915527344,26.790000915527344,16800
2019-02-22,26.780000686645508,27.020000457763672,25.889999389648438,25.889999389648438,25.889999389648438,16600
2019-02-25,26.290000915527344,26.639999389648438,25.799999237060547,26.479999542236328,26.479999542236328,14300
2019-02-26,26.559999465942383,26.8700008392334,25.6200008392334,25.6200008392334,25.6200008392334,130100
2019-02-27,25.670000076293945,26.350000381469727,24.700000762939453,24.790000915527344,24.790000915527344,42300
2019-02-28,24.799999237060547,25.959999084472656,24.110000610351562,24.1200008392334,24.1200008392334,121400
2019-03-01,24.780000686645508,25.59000015258789,24.15999984741211,24.510000228881836,24.510000228881836,123000
2019-03-04,24.8799991607666,25.030000686645508,23.8799991607666,23.8799991607666,23.8799991607666,52000
2019-03-05,23.889999389648438,23.969999313354492,22.190000534057617,23.43000030517578,23.43000030517578,17000
2019-03-06,23.450000762939453,24.18000030517578,23.010000228881836,23.799999237060547,23.799999237060547,50300
2019-03-07,23.1200008392334,24.399999618530273,23.06999969482422,24.280000686645508,24.280000686645508,15700
2019-03-08,24.290000915527344,26.030000686645508,24.290000915527344,26.030000686645508,26.030000686645508,59100
2019-03-11,25.950000762939453,26.850000381469727,25.489999771118164,26.829999923706055,26.829999923706055,42700
2019-03-12,26.56999969482422,27.25,25.579999923706055,27.200000762939453,27.200000762939453,32300
2019-03-13,26.959999084472656,27.299999237060547,26.469999313354492,27.260000228881836,27.260000228881836,19900
2019-03-14,26.899999618530273,27.149999618530273,25.969999313354492,26.709999084472656,26.709999084472656,33500
2019-03-15,27.0,29.079999923706055,26.329999923706055,27.860000610351562,27.860000610351562,239800
2019-03-18,27.65999984741211,28.170000076293945,26.209999084472656,26.299999237060547,26.299999237060547,55700
2019-03-19,26.149999618530273,29.8799991607666,26.149999618530273,29.239999771118164,29.239999771118164,215800
2019-03-20,29.459999084472656,32.2400016784668,27.799999237060547,30.610000610351562,30.610000610351562,176200
2019-03-21,30.229999542236328,30.889999389648438,29.020000457763672,29.709999084472656,29.709999084472656,65300
2019-03-22,30.010000228881836,31.299999237060547,29.979999542236328,30.940000534057617,30.940000534057617,90600
2019-03-25,31.440000534057617,32.060001373291016,30.940000534057617,31.709999084472656,31.709999084472656,99700
2019-03-26,31.520000457763672,31.719999313354492,30.809999465942383,31.049999237060547,31.049999237060547,218200
2019-03-27,31.010000228881836,31.3700008392334,30.1200008392334,31.34000015258789,31.34000015258789,232900
2019-03-28,31.31999969482422,32.25,30.690000534057617,31.899999618530273,31.899999618530273,9500
2019-03-29,32.150001525878906,33.130001068115234,31.809999465942383,32.290000915527344,32.290000915527344,54400
2019-04-01,32.27000045776367,32.650001525878906,31.149999618530273,31.84000015258789,31.84000015258789,61300
2019-04-02,32.08000183105469,32.08000183105469,31.479999542236328,31.59000015258789,31.59000015258789,63600
2019-04-03,31.889999389648438,32.79999923706055,31.700000762939453,32.13999938964844,32.13999938964844,13900
2019-04-04,32.04999923706055,32.97999954223633,31.540000915527344,32.900001525878906,32.900001525878906,34700
2019-04-05,33.34000015258789,33.34000015258789,30.93000030517578,31.299999237060547,31.299999237060547,85900
2019-04-08,31.290000915527344,32.58000183105469,30.729999542236328,32.52000045776367,32.52000045776367,25300
2019-04-09,32.43000030517578,32.43000030517578,31.780000686645508,32.029998779296875,32.029998779296875,7100
2019-04-10,32.0,32.88999938964844,32.0,32.599998474121094,32.599998474121094,7500
2019-04-11,32.43000030517578,33.08000183105469,32.06999969482422,32.400001525878906,32.400001525878906,56300
2019-04-12,32.209999084472656,33.0,32.11000061035156,32.630001068115234,32.630001068115234,43600
2019-04-15,32.59000015258789,33.61000061035156,32.52000045776367,33.41999816894531,33.41999816894531,37200
2019-04-16,33.599998474121094,34.119998931884766,33.349998474121094,33.93000030517578,33.93000030517578,40500
2019-04-17,33.970001220703125,33.970001220703125,32.34000015258789,32.650001525878906,32.650001525878906,47500
2019-04-18,32.65999984741211,32.65999984741211,30.040000915527344,30.43000030517578,30.43000030517578,31800
2019-04-22,30.43000030517578,30.639999389648438,28.350000381469727,29.489999771118164,29.489999771118164,121600
2019-04-23,29.3799991607666,31.309999465942383,29.139999389648438,31.25,31.25,18400
2019-04-24,31.239999771118164,31.459999084472656,30.0,30.049999237060547,30.049999237060547,39600
2019-04-25,29.969999313354492,31.450000762939453,29.969999313354492,30.139999389648438,30.139999389648438,11700
2019-04-26,30.43000030517578,32.439998626708984,30.200000762939453,31.93000030517578,31.93000030517578,24400
2019-04-29,32.25,33.29999923706055,32.25,33.0,33.0,44600
2019-04-30,33.2400016784668,34.439998626708984,31.959999084472656,32.130001068115234,32.130001068115234,39100
2019-05-01,33.380001068115234,33.380001068115234,30.979999542236328,31.489999771118164,31.489999771118164,93300
2019-05-02,31.43000030517578,32.79999923706055,30.829999923706055,32.25,32.25,33800
2019-05-03,32.209999084472656,34.47999954223633,31.459999084472656,33.099998474121094,33.099998474121094,51200
2019-05-06,32.81999969482422,33.189998626708984,31.06999969482422,31.299999237060547,31.299999237060547,47000
2019-05-07,31.09000015258789,31.950000762939453,30.770000457763672,31.329999923706055,31.329999923706055,10700
2019-05-08,32.59000015258789,39.9900016784668,32.45000076293945,38.689998626708984,38.689998626708984,316300
2019-05-09,38.81999969482422,39.58000183105469,37.02000045776367,38.9900016784668,38.9900016784668,112700
2019-05-10,38.650001525878906,40.0,36.77000045776367,38.36000061035156,38.36000061035156,39700
2019-05-13,38.31999969482422,38.7599983215332,36.90999984741211,37.79999923706055,37.79999923706055,28300
2019-05-14,38.470001220703125,39.34000015258789,37.709999084472656,38.68000030517578,38.68000030517578,72900
2019-05-15,38.27000045776367,38.400001525878906,35.54999923706055,36.599998474121094,36.599998474121094,79400
2019-05-16,36.09000015258789,39.33000183105469,36.09000015258789,37.2599983215332,37.2599983215332,86400
2019-05-17,37.52000045776367,37.7400016784668,35.97999954223633,36.529998779296875,36.529998779296875,13500
2019-05-20,35.47999954223633,37.79999923706055,35.47999954223633,37.15999984741211,37.15999984741211,18500
2019-05-21,37.959999084472656,38.43000030517578,36.7599983215332,37.400001525878906,37.400001525878906,7500
2019-05-22,36.13999938964844,37.65999984741211,35.83000183105469,36.2400016784668,36.2400016784668,84900
2019-05-23,36.599998474121094,36.619998931884766,35.810001373291016,35.83000183105469,35.83000183105469,75800
2019-05-24,36.209999084472656,37.72999954223633,35.79999923706055,36.29999923706055,36.29999923706055,16500
2019-05-28,37.099998474121094,39.849998474121094,36.29999923706055,38.599998474121094,38.599998474121094,61100
2019-05-29,38.91999816894531,39.72999954223633,38.08000183105469,38.66999816894531,38.66999816894531,51000
2019-05-30,38.40999984741211,39.459999084472656,38.02000045776367,38.619998931884766,38.619998931884766,48900
2019-05-31,38.66999816894531,38.66999816894531,37.63999938964844,38.400001525878906,38.400001525878906,14700
2019-06-03,37.90999984741211,40.0,37.08000183105469,39.400001525878906,39.400001525878906,160700
2019-06-04,40.41999816894531,42.08000183105469,39.90999984741211,42.08000183105469,42.08000183105469,96200
2019-06-05,42.939998626708984,43.400001525878906,41.279998779296875,41.63999938964844,41.63999938964844,140000
2019-06-06,41.83000183105469,42.84000015258789,40.79999923706055,42.56999969482422,42.56999969482422,63900
2019-06-07,42.880001068115234,44.790000915527344,42.349998474121094,43.4900016784668,43.4900016784668,127600
2019-06-10,44.2400016784668,44.79999923706055,41.04999923706055,42.290000915527344,42.290000915527344,86200
2019-06-11,42.099998474121094,42.790000915527344,40.66999816894531,41.7400016784668,41.7400016784668,116400
2019-06-12,41.88999938964844,44.04999923706055,41.58000183105469,43.439998626708984,43.439998626708984,40700
2019-06-13,44.29999923706055,44.7599983215332,43.869998931884766,44.2599983215332,44.2599983215332,45400
2019-06-14,44.5099983215332,44.5099983215332,41.4900016784668,44.20000076293945,44.20000076293945,17700
2019-06-17,43.869998931884766,44.54999923706055,43.720001220703125,43.900001525878906,43.900001525878906,23400
2019-06-18,44.5099983215332,44.900001525878906,43.20000076293945,43.72999954223633,43.72999954223633,67100
2019-06-19,43.540000915527344,45.720001220703125,43.11000061035156,45.68000030517578,45.68000030517578,43000
2019-06-20,46.34000015258789,46.34000015258789,43.29999923706055,44.849998474121094,44.849998474121094,32700
2019-06-21,44.970001220703125,45.75,43.88999938964844,45.7400016784668,45.7400016784668,63400
2019-06-24,45.9900016784668,46.5,43.11000061035156,43.529998779296875,43.529998779296875,104900
2019-06-25,43.540000915527344,44.47999954223633,41.970001220703125,42.779998779296875,42.779998779296875,109100
2019-06-26,42.95000076293945,43.650001525878906,42.18000030517578,43.650001525878906,43.650001525878906,80700
2019-06-27,44.040000915527344,46.099998474121094,43.75,45.130001068115234,45.130001068115234,38100
2019-06-28,45.290000915527344,45.290000915527344,43.310001373291016,43.779998779296875,43.779998779296875,28100
2019-07-01,43.65999984741211,44.63999938964844,42.2400016784668,43.91999816894531,43.91999816894531,47100
2019-07-02,43.86000061035156,44.849998474121094,42.86000061035156,43.97999954223633,43.97999954223633,190000
2019-07-03,43.7599983215332,44.2400016784668,40.130001068115234,41.529998779296875,41.529998779296875,138300
2019-07-05,41.290000915527344,46.650001525878906,41.290000915527344,44.7599983215332,44.7599983215332,43300
2019-07-08,44.72999954223633,46.29999923706055,43.290000915527344,44.95000076293945,44.95000076293945,74700
2019-07-09,45.09000015258789,45.810001373291016,44.70000076293945,44.7400016784668,44.7400016784668,19700
2019-07-10,45.41999816894531,46.83000183105469,44.45000076293945,45.2400016784668,45.2400016784668,405300
2019-07-11,45.25,45.900001525878906,44.47999954223633,44.689998626708984,44.689998626708984,46700
2019-07-12,45.150001525878906,46.27000045776367,43.459999084472656,45.0,45.0,34700
2019-07-15,44.83000183105469,45.779998779296875,43.66999816894531,45.0,45.0,37700
2019-07-16,44.83000183105469,45.2599983215332,43.7599983215332,43.93000030517578,43.93000030517578,45800
2019-07-17,43.58000183105469,44.939998626708984,43.560001373291016,44.20000076293945,44.20000076293945,107400
2019-07-18,44.20000076293945,46.13999938964844,44.189998626708984,44.75,44.75,91800
2019-07-19,44.880001068115234,45.81999969482422,44.5,44.5,44.5,40700
2019-07-22,44.93000030517578,45.77000045776367,44.459999084472656,44.91999816894531,44.91999816894531,52500
2019-07-23,45.290000915527344,45.369998931884766,44.290000915527344,44.7599983215332,44.7599983215332,52100
2019-07-24,44.900001525878906,47.59000015258789,44.79999923706055,45.0,45.0,149400
2019-07-25,45.400001525878906,46.11000061035156,44.5,44.5,44.5,306800
2019-07-26,44.9900016784668,45.40999984741211,44.31999969482422,44.7599983215332,44.7599983215332,32200
2019-07-29,45.2400016784668,45.40999984741211,44.400001525878906,45.09000015258789,45.09000015258789,57600
2019-07-30,45.220001220703125,45.56999969482422,44.31999969482422,44.47999954223633,44.47999954223633,53700
2019-07-31,44.7400016784668,44.93000030517578,43.709999084472656,44.13999938964844,44.13999938964844,34800
2019-08-01,44.56999969482422,45.61000061035156,43.689998626708984,45.09000015258789,45.09000015258789,74500
2019-08-02,44.7599983215332,45.90999984741211,44.369998931884766,45.529998779296875,45.529998779296875,31600
2019-08-05,45.29999923706055,45.630001068115234,43.79999923706055,44.66999816894531,44.66999816894531,38100
2019-08-06,44.529998779296875,47.650001525878906,44.5,47.20000076293945,47.20000076293945,66300
2019-08-07,46.91999816894531,48.869998931884766,46.130001068115234,48.130001068115234,48.130001068115234,40200
2019-08-08,48.779998779296875,50.619998931884766,47.459999084472656,50.08000183105469,50.08000183105469,29400
2019-08-09,50.0099983215332,50.54999923706055,49.13999938964844,49.86000061035156,49.86000061035156,36000
2019-08-12,49.540000915527344,51.79999923706055,49.52000045776367,51.11000061035156,51.11000061035156,72900
2019-08-13,51.029998779296875,51.029998779296875,48.709999084472656,49.36000061035156,49.36000061035156,34900
2019-08-14,49.2599983215332,49.2599983215332,43.689998626708984,45.20000076293945,45.20000076293945,183000
2019-08-15,45.97999954223633,46.95000076293945,45.20000076293945,46.290000915527344,46.290000915527344,27900
2019-08-16,46.619998931884766,52.599998474121094,45.47999954223633,52.34000015258789,52.34000015258789,109500
2019-08-19,52.599998474121094,56.7400016784668,51.25,52.97999954223633,52.97999954223633,139700
2019-08-20,53.06999969482422,53.33000183105469,50.720001220703125,51.86000061035156,51.86000061035156,62500
2019-08-21,52.040000915527344,52.040000915527344,49.150001525878906,49.95000076293945,49.95000076293945,48300
2019-08-22,49.2599983215332,49.900001525878906,48.209999084472656,49.029998779296875,49.029998779296875,65300
2019-08-23,49.0,49.38999938964844,47.43000030517578,47.88999938964844,47.88999938964844,38800
2019-08-26,48.880001068115234,50.41999816894531,47.380001068115234,49.0099983215332,49.0099983215332,51700
2019-08-27,49.189998626708984,51.84000015258789,49.040000915527344,49.439998626708984,49.439998626708984,166900
2019-08-28,51.650001525878906,51.93000030517578,45.47999954223633,49.529998779296875,49.529998779296875,96400
2019-08-29,50.83000183105469,50.849998474121094,46.70000076293945,48.36000061035156,48.36000061035156,100700
2019-08-30,48.27000045776367,49.349998474121094,47.400001525878906,48.34000015258789,48.34000015258789,55600
2019-09-03,49.20000076293945,49.380001068115234,47.31999969482422,47.36000061035156,47.36000061035156,145000
2019-09-04,48.16999816894531,48.5,47.0,47.90999984741211,47.90999984741211,42200
2019-09-05,48.31999969482422,48.5,47.630001068115234,48.0,48.0,43700
2019-09-06,47.900001525878906,48.029998779296875,45.40999984741211,45.529998779296875,45.529998779296875,78000
2019-09-09,45.810001373291016,45.810001373291016,43.720001220703125,44.0,44.0,43600
2019-09-10,43.779998779296875,43.779998779296875,42.150001525878906,43.369998931884766,43.369998931884766,29800
2019-09-11,43.40999984741211,43.70000076293945,40.650001525878906,41.15999984741211,41.15999984741211,97000
2019-09-12,41.31999969482422,42.83000183105469,40.75,42.5,42.5,35900
2019-09-13,42.439998626708984,43.08000183105469,42.0,43.06999969482422,43.06999969482422,25400
2019-09-16,42.79999923706055,44.16999816894531,42.279998779296875,43.86000061035156,43.86000061035156,47000
2019-09-17,43.689998626708984,46.52000045776367,43.689998626708984,45.4900016784668,45.4900016784668,43900
2019-09-18,45.20000076293945,47.0,45.20000076293945,46.5099983215332,46.5099983215332,48200
2019-09-19,46.349998474121094,48.099998474121094,44.779998779296875,45.29999923706055,45.29999923706055,27500
2019-09-20,45.20000076293945,46.06999969482422,42.0,46.029998779296875,46.029998779296875,63500
2019-09-23,46.02000045776367,47.2400016784668,46.02000045776367,47.04999923706055,47.04999923706055,18400
2019-09-24,47.2599983215332,48.0,46.400001525878906,47.599998474121094,47.599998474121094,24900
2019-09-25,47.68000030517578,48.459999084472656,46.70000076293945,47.5099983215332,47.5099983215332,52700
2019-09-26,47.63999938964844,50.720001220703125,46.9900016784668,50.31999969482422,50.31999969482422,43700
2019-09-27,49.93000030517578,50.5,47.310001373291016,48.18000030517578,48.18000030517578,157100
2019-09-30,48.2400016784668,51.02000045776367,47.18000030517578,50.689998626708984,50.689998626708984,58500
2019-10-01,51.04999923706055,51.189998626708984,48.650001525878906,50.38999938964844,50.38999938964844,140600
2019-10-02,50.560001373291016,51.09000015258789,48.279998779296875,49.75,49.75,82300
2019-10-03,50.130001068115234,52.650001525878906,49.16999816894531,49.9900016784668,49.9900016784668,191500
2019-10-04,50.65999984741211,51.470001220703125,49.72999954223633,49.90999984741211,49.90999984741211,29100
2019-10-07,50.16999816894531,50.16999816894531,46.7400016784668,48.709999084472656,48.709999084472656,59000
2019-10-08,48.61000061035156,49.400001525878906,47.369998931884766,47.72999954223633,47.72999954223633,63300
2019-10-09,47.849998474121094,48.90999984741211,47.38999938964844,47.81999969482422,47.81999969482422,17400
2019-10-10,47.86000061035156,48.25,46.900001525878906,47.56999969482422,47.56999969482422,38000
2019-10-11,48.29999923706055,48.5099983215332,47.38999938964844,47.880001068115234,47.880001068115234,82900
2019-10-14,47.7400016784668,47.7400016784668,46.15999984741211,46.54999923706055,46.54999923706055,12800
2019-10-15,46.790000915527344,48.36000061035156,46.0099983215332,48.25,48.25,46600
2019-10-16,47.95000076293945,48.0099983215332,46.040000915527344,46.439998626708984,46.439998626708984,252800
2019-10-17,46.43000030517578,47.279998779296875,43.779998779296875,43.9900016784668,43.9900016784668,84700
2019-10-18,44.099998474121094,44.68000030517578,41.849998474121094,43.40999984741211,43.40999984741211,145500
2019-10-21,43.41999816894531,44.27000045776367,42.75,43.34000015258789,43.34000015258789,73900
2019-10-22,43.45000076293945,44.0,42.72999954223633,43.470001220703125,43.470001220703125,154000
2019-10-23,43.72999954223633,44.790000915527344,42.599998474121094,44.72999954223633,44.72999954223633,90800
2019-10-24,42.34000015258789,44.790000915527344,42.150001525878906,44.59000015258789,44.59000015258789,384100
2019-10-25,43.0099983215332,43.5,41.54999923706055,42.209999084472656,42.209999084472656,2376400
2019-10-28,42.560001373291016,42.88999938964844,40.52000045776367,40.88999938964844,40.88999938964844,507900
2019-10-29,40.83000183105469,41.79999923706055,40.58000183105469,41.5,41.5,391700
2019-10-30,41.310001373291016,42.41999816894531,40.540000915527344,42.220001220703125,42.220001220703125,682500
2019-10-31,41.77000045776367,42.52000045776367,41.18000030517578,41.5,41.5,503700
2019-11-01,41.22999954223633,42.34000015258789,39.5,41.83000183105469,41.83000183105469,170700
2019-11-04,42.310001373291016,42.310001373291016,40.279998779296875,41.0,41.0,287900
2019-11-05,41.18000030517578,41.650001525878906,40.58000183105469,41.06999969482422,41.06999969482422,430400
2019-11-06,40.90999984741211,41.22999954223633,40.619998931884766,40.88999938964844,40.88999938964844,200200
2019-11-07,40.83000183105469,40.90999984741211,39.29999923706055,40.52000045776367,40.52000045776367,489200
2019-11-08,40.4900016784668,40.63999938964844,38.91999816894531,39.88999938964844,39.88999938964844,291300
2019-11-11,39.7400016784668,40.9900016784668,39.63999938964844,40.93000030517578,40.93000030517578,121700
2019-11-12,40.93000030517578,42.2400016784668,40.5,41.18000030517578,41.18000030517578,324000
2019-11-13,41.040000915527344,42.31999969482422,40.70000076293945,41.119998931884766,41.119998931884766,188900
2019-11-14,41.029998779296875,43.290000915527344,41.029998779296875,42.84000015258789,42.84000015258789,659000
2019-11-15,42.869998931884766,43.70000076293945,42.5,43.040000915527344,43.040000915527344,148500
2019-11-18,42.70000076293945,43.59000015258789,42.220001220703125,42.70000076293945,42.70000076293945,135800
2019-11-19,42.529998779296875,43.13999938964844,41.869998931884766,41.95000076293945,41.95000076293945,83100
2019-11-20,41.11000061035156,42.22999954223633,40.5,40.91999816894531,40.91999816894531,222500
2019-11-21,40.900001525878906,42.709999084472656,40.5,42.29999923706055,42.29999923706055,107600
2019-11-22,42.27000045776367,43.31999969482422,41.869998931884766,42.91999816894531,42.91999816894531,109800
2019-11-25,43.150001525878906,43.959999084472656,42.619998931884766,43.77000045776367,43.77000045776367,93200
2019-11-26,43.86000061035156,44.849998474121094,43.61000061035156,44.09000015258789,44.09000015258789,303400
2019-11-27,44.900001525878906,46.099998474121094,43.0,44.68000030517578,44.68000030517578,290300
2019-11-29,44.79999923706055,44.79999923706055,41.72999954223633,43.0,43.0,137600
2019-12-02,42.88999938964844,44.9900016784668,41.45000076293945,44.0099983215332,44.0099983215332,199000
2019-12-03,43.81999969482422,43.81999969482422,42.41999816894531,43.220001220703125,43.220001220703125,82300
2019-12-04,43.349998474121094,44.560001373291016,41.880001068115234,44.02000045776367,44.02000045776367,326200
2019-12-05,44.310001373291016,45.81999969482422,42.150001525878906,42.599998474121094,42.599998474121094,183500
2019-12-06,42.900001525878906,46.540000915527344,42.599998474121094,46.0,46.0,354200
2019-12-09,46.15999984741211,46.93000030517578,45.2400016784668,46.38999938964844,46.38999938964844,179900
2019-12-10,46.20000076293945,48.150001525878906,45.459999084472656,47.88999938964844,47.88999938964844,254900
2019-12-11,47.79999923706055,48.41999816894531,46.02000045776367,46.38999938964844,46.38999938964844,124800
2019-12-12,46.619998931884766,47.849998474121094,46.58000183105469,47.400001525878906,47.400001525878906,96800
2019-12-13,47.040000915527344,47.88999938964844,45.630001068115234,46.7400016784668,46.7400016784668,106700
2019-12-16,46.86000061035156,47.66999816894531,45.86000061035156,47.13999938964844,47.13999938964844,125100
2019-12-17,47.040000915527344,47.5099983215332,45.400001525878906,45.59000015258789,45.59000015258789,110700
2019-12-18,45.380001068115234,46.79999923706055,44.38999938964844,45.439998626708984,45.439998626708984,139900
2019-12-19,45.61000061035156,47.56999969482422,44.75,46.36000061035156,46.36000061035156,83300
2019-12-20,46.130001068115234,46.5,44.2599983215332,44.790000915527344,44.790000915527344,78500
2019-12-23,44.95000076293945,46.29999923706055,44.47999954223633,44.900001525878906,44.900001525878906,49100
2019-12-24,44.9900016784668,44.9900016784668,44.36000061035156,44.650001525878906,44.650001525878906,50200
2019-12-26,44.810001373291016,46.7599983215332,44.810001373291016,46.04999923706055,46.04999923706055,58200
2019-12-27,46.279998779296875,46.279998779296875,44.40999984741211,45.20000076293945,45.20000076293945,87900
2019-12-30,45.369998931884766,45.369998931884766,43.630001068115234,44.68000030517578,44.68000030517578,87300
2019-12-31,44.77000045776367,44.9900016784668,43.91999816894531,44.20000076293945,44.20000076293945,55600
2020-01-02,44.79999923706055,45.15999984741211,43.880001068115234,44.25,44.25,178900
2020-01-03,44.189998626708984,45.900001525878906,44.189998626708984,45.459999084472656,45.459999084472656,196600
2020-01-06,45.099998474121094,46.27000045776367,43.0,45.75,45.75,142300
2020-01-07,45.79999923706055,47.5099983215332,43.40999984741211,47.13999938964844,47.13999938964844,235800
2020-01-08,47.279998779296875,47.38999938964844,45.81999969482422,47.209999084472656,47.209999084472656,132300
2020-01-09,47.41999816894531,50.310001373291016,47.41999816894531,47.88999938964844,47.88999938964844,182400
2020-01-10,48.099998474121094,49.09000015258789,47.66999816894531,48.36000061035156,48.36000061035156,70900
2020-01-13,48.59000015258789,49.540000915527344,47.849998474121094,48.900001525878906,48.900001525878906,69800
2020-01-14,48.810001373291016,49.540000915527344,48.0,48.93000030517578,48.93000030517578,191300
2020-01-15,49.15999984741211,49.900001525878906,48.45000076293945,49.779998779296875,49.779998779296875,54600
2020-01-16,50.0,50.540000915527344,48.91999816894531,50.25,50.25,137100
2020-01-17,50.0099983215332,50.79999923706055,49.83000183105469,50.43000030517578,50.43000030517578,70100
2020-01-21,50.939998626708984,51.2400016784668,49.88999938964844,50.83000183105469,50.83000183105469,140600
2020-01-22,50.970001220703125,52.4900016784668,50.970001220703125,51.79999923706055,51.79999923706055,155100
2020-01-23,51.25,51.81999969482422,50.68000030517578,51.47999954223633,51.47999954223633,59100
2020-01-24,51.720001220703125,52.040000915527344,50.7400016784668,51.34000015258789,51.34000015258789,79400
2020-01-27,50.540000915527344,50.540000915527344,48.970001220703125,49.97999954223633,49.97999954223633,68400
2020-01-28,50.02000045776367,50.93000030517578,49.81999969482422,50.720001220703125,50.720001220703125,81100
2020-01-29,50.790000915527344,51.29999923706055,50.41999816894531,51.2599983215332,51.2599983215332,58200
2020-01-30,51.099998474121094,51.79999923706055,50.70000076293945,51.650001525878906,51.650001525878906,93400
2020-01-31,51.790000915527344,52.7599983215332,51.0,51.880001068115234,51.880001068115234,180400
2020-02-03,52.040000915527344,53.5,51.560001373291016,52.540000915527344,52.540000915527344,108200
2020-02-04,53.04999923706055,53.04999923706055,52.16999816894531,52.400001525878906,52.400001525878906,61200
2020-02-05,52.709999084472656,52.75,51.560001373291016,52.20000076293945,52.20000076293945,109000
2020-02-06,52.689998626708984,54.90999984741211,52.400001525878906,54.5,54.5,275100
2020-02-07,54.5,54.790000915527344,52.869998931884766,53.06999969482422,53.06999969482422,241000
2020-02-10,52.90999984741211,53.380001068115234,49.869998931884766,50.25,50.25,123400
2020-02-11,50.099998474121094,50.40999984741211,49.439998626708984,50.040000915527344,50.040000915527344,139100
2020-02-12,50.15999984741211,51.369998931884766,49.93000030517578,51.20000076293945,51.20000076293945,140300
2020-02-13,50.810001373291016,54.56999969482422,49.79999923706055,53.16999816894531,53.16999816894531,96800
2020-02-14,53.43000030517578,57.33000183105469,53.43000030517578,57.310001373291016,57.310001373291016,86200
2020-02-18,57.18000030517578,58.11000061035156,56.349998474121094,56.7400016784668,56.7400016784668,156100
2020-02-19,57.150001525878906,57.689998626708984,56.54999923706055,56.54999923706055,56.54999923706055,113800
2020-02-20,56.5099983215332,58.31999969482422,56.34000015258789,57.36000061035156,57.36000061035156,100000
2020-02-21,57.540000915527344,59.4900016784668,57.41999816894531,59.150001525878906,59.150001525878906,79400
2020-02-24,58.11000061035156,58.4900016784668,55.06999969482422,55.84000015258789,55.84000015258789,157100
2020-02-25,55.88999938964844,56.79999923706055,55.0,55.2599983215332,55.2599983215332,88400
2020-02-26,55.689998626708984,57.9900016784668,54.45000076293945,55.18000030517578,55.18000030517578,225200
2020-02-27,54.2400016784668,54.45000076293945,52.119998931884766,53.5,53.5,112800
2020-02-28,52.5,53.95000076293945,49.959999084472656,51.11000061035156,51.11000061035156,215900
2020-03-02,51.81999969482422,53.650001525878906,50.70000076293945,53.15999984741211,53.15999984741211,103300
2020-03-03,53.099998474121094,56.93000030517578,52.9900016784668,55.97999954223633,55.97999954223633,307100
2020-03-04,56.4900016784668,58.040000915527344,55.7599983215332,56.16999816894531,56.16999816894531,96900
2020-03-05,55.65999984741211,57.31999969482422,52.66999816894531,53.0,53.0,205400
2020-03-06,52.16999816894531,53.810001373291016,50.4900016784668,51.7599983215332,51.7599983215332,308600
2020-03-09,49.43000030517578,49.43000030517578,47.04999923706055,47.81999969482422,47.81999969482422,276500
2020-03-10,49.209999084472656,49.7400016784668,45.66999816894531,47.869998931884766,47.869998931884766,590900
2020-03-11,47.060001373291016,48.33000183105469,44.66999816894531,46.4900016784668,46.4900016784668,319000
2020-03-12,43.720001220703125,46.41999816894531,37.189998626708984,40.06999969482422,40.06999969482422,287700
2020-03-13,42.970001220703125,45.61000061035156,40.34000015258789,44.84000015258789,44.84000015258789,446300
2020-03-16,29.09000015258789,44.470001220703125,29.09000015258789,42.90999984741211,42.90999984741211,451400
2020-03-17,40.029998779296875,45.849998474121094,35.189998626708984,42.58000183105469,42.58000183105469,264800
2020-03-18,39.939998626708984,42.4900016784668,36.06999969482422,39.5,39.5,604000
2020-03-19,39.0,45.70000076293945,34.689998626708984,43.38999938964844,43.38999938964844,224900
2020-03-20,43.4900016784668,45.349998474121094,39.97999954223633,40.709999084472656,40.709999084472656,144300
2020-03-23,41.11000061035156,41.11000061035156,38.709999084472656,40.36000061035156,40.36000061035156,335900
2020-03-24,41.560001373291016,44.9900016784668,40.349998474121094,42.2400016784668,42.2400016784668,105800
2020-03-25,42.400001525878906,45.310001373291016,40.93000030517578,42.849998474121094,42.849998474121094,244300
2020-03-26,43.54999923706055,45.939998626708984,43.290000915527344,45.939998626708984,45.939998626708984,74800
2020-03-27,44.88999938964844,46.68000030517578,44.220001220703125,44.7599983215332,44.7599983215332,155900
2020-03-30,44.470001220703125,44.59000015258789,41.31999969482422,42.380001068115234,42.380001068115234,143500
2020-03-31,42.20000076293945,44.52000045776367,41.529998779296875,42.2599983215332,42.2599983215332,120800
2020-04-01,41.400001525878906,41.400001525878906,36.650001525878906,38.5099983215332,38.5099983215332,154800
2020-04-02,38.29999923706055,42.290000915527344,38.29999923706055,39.869998931884766,39.869998931884766,149700
2020-04-03,40.689998626708984,41.04999923706055,36.119998931884766,37.459999084472656,37.459999084472656,82800
2020-04-06,37.939998626708984,39.79999923706055,35.72999954223633,38.20000076293945,38.20000076293945,117200
2020-04-07,40.0,42.58000183105469,40.0,40.650001525878906,40.650001525878906,144200
2020-04-08,40.650001525878906,43.68000030517578,38.970001220703125,43.45000076293945,43.45000076293945,86100
2020-04-09,43.709999084472656,46.79999923706055,42.0099983215332,43.029998779296875,43.029998779296875,97200
2020-04-13,42.86000061035156,44.130001068115234,40.0099983215332,43.619998931884766,43.619998931884766,89500
2020-04-14,44.060001373291016,46.90999984741211,43.40999984741211,46.11000061035156,46.11000061035156,108700
2020-04-15,45.0,48.5099983215332,42.58000183105469,47.38999938964844,47.38999938964844,297500
2020-04-16,47.81999969482422,48.63999938964844,46.02000045776367,47.0099983215332,47.0099983215332,505700
2020-04-17,47.65999984741211,48.65999984741211,44.97999954223633,45.88999938964844,45.88999938964844,203800
2020-04-20,45.720001220703125,47.0,45.279998779296875,45.939998626708984,45.939998626708984,117300
2020-04-21,45.66999816894531,46.9900016784668,44.560001373291016,46.630001068115234,46.630001068115234,49100
2020-04-22,47.5,48.83000183105469,45.720001220703125,48.70000076293945,48.70000076293945,157800
2020-04-23,49.25,50.13999938964844,45.689998626708984,46.040000915527344,46.040000915527344,212900
2020-04-24,46.59000015258789,46.59000015258789,42.84000015258789,44.189998626708984,44.189998626708984,361400
2020-04-27,44.599998474121094,44.77000045776367,42.900001525878906,44.349998474121094,44.349998474121094,202900
2020-04-28,44.959999084472656,49.380001068115234,44.400001525878906,48.0,48.0,111600
2020-04-29,49.880001068115234,53.79999923706055,48.61000061035156,51.61000061035156,51.61000061035156,201800
2020-04-30,50.58000183105469,53.119998931884766,49.86000061035156,50.220001220703125,50.220001220703125,124400
2020-05-01,48.97999954223633,52.650001525878906,48.650001525878906,50.7599983215332,50.7599983215332,310300
2020-05-04,51.09000015258789,52.810001373291016,50.16999816894531,52.27000045776367,52.27000045776367,131100
2020-05-05,53.5,54.79999923706055,52.560001373291016,53.29999923706055,53.29999923706055,107900
2020-05-06,52.90999984741211,58.93000030517578,52.5,56.22999954223633,56.22999954223633,395100
2020-05-07,57.880001068115234,58.61000061035156,55.119998931884766,56.68000030517578,56.68000030517578,304700
2020-05-08,57.290000915527344,58.720001220703125,55.900001525878906,56.599998474121094,56.599998474121094,133400
2020-05-11,56.54999923706055,56.720001220703125,55.56999969482422,55.83000183105469,55.83000183105469,60200
2020-05-12,55.77000045776367,56.93000030517578,53.65999984741211,54.0,54.0,182200
2020-05-13,53.709999084472656,53.86000061035156,49.599998474121094,50.72999954223633,50.72999954223633,223300
2020-05-14,49.77000045776367,51.2400016784668,48.459999084472656,50.59000015258789,50.59000015258789,125300
2020-05-15,50.869998931884766,52.5,50.31999969482422,51.15999984741211,51.15999984741211,247600
2020-05-18,52.130001068115234,53.709999084472656,51.400001525878906,51.560001373291016,51.560001373291016,135100
2020-05-19,51.599998474121094,52.619998931884766,50.0099983215332,51.619998931884766,51.619998931884766,152400
2020-05-20,49.0099983215332,52.369998931884766,49.0099983215332,50.220001220703125,50.220001220703125,350700
2020-05-21,50.36000061035156,51.279998779296875,50.0,50.349998474121094,50.349998474121094,208400
2020-05-22,50.849998474121094,51.869998931884766,49.95000076293945,50.630001068115234,50.630001068115234,105900
2020-05-26,52.5099983215332,52.810001373291016,49.810001373291016,50.33000183105469,50.33000183105469,387400
2020-05-27,50.380001068115234,51.66999816894531,50.0,50.58000183105469,50.58000183105469,511600
2020-05-28,45.54999923706055,50.27000045776367,42.2599983215332,48.95000076293945,48.95000076293945,303800
2020-05-29,48.9900016784668,49.599998474121094,46.86000061035156,48.47999954223633,48.47999954223633,190700
2020-06-01,48.70000076293945,51.189998626708984,48.41999816894531,50.189998626708984,50.189998626708984,202100
2020-06-02,49.900001525878906,50.959999084472656,49.31999969482422,50.459999084472656,50.459999084472656,495900
2020-06-03,46.459999084472656,48.0,46.0,47.68000030517578,47.68000030517578,2255100
2020-06-04,48.849998474121094,48.849998474121094,46.5,46.7400016784668,46.7400016784668,701100
2020-06-05,47.95000076293945,48.97999954223633,45.959999084472656,47.130001068115234,47.130001068115234,613400
2020-06-08,47.20000076293945,48.86000061035156,47.08000183105469,48.40999984741211,48.40999984741211,729100
2020-06-09,48.16999816894531,48.38999938964844,46.099998474121094,46.349998474121094,46.349998474121094,482900
2020-06-10,46.349998474121094,47.41999816894531,45.54999923706055,46.29999923706055,46.29999923706055,293300
2020-06-11,45.45000076293945,46.18000030517578,42.720001220703125,43.63999938964844,43.63999938964844,458000
2020-06-12,44.349998474121094,45.04999923706055,42.099998474121094,43.68000030517578,43.68000030517578,265600
2020-06-15,42.79999923706055,44.52000045776367,40.97999954223633,44.279998779296875,44.279998779296875,260200
2020-06-16,44.849998474121094,46.349998474121094,44.61000061035156,46.119998931884766,46.119998931884766,292100
2020-06-17,46.31999969482422,47.13999938964844,45.81999969482422,46.72999954223633,46.72999954223633,328600
2020-06-18,46.59000015258789,47.279998779296875,45.7400016784668,46.16999816894531,46.16999816894531,124400
2020-06-19,46.59000015258789,47.83000183105469,45.52000045776367,45.720001220703125,45.720001220703125,294800
2020-06-22,45.68000030517578,46.02000045776367,45.45000076293945,45.75,45.75,90900
2020-06-23,46.029998779296875,46.33000183105469,44.70000076293945,45.25,45.25,145700
2020-06-24,44.86000061035156,45.25,42.720001220703125,43.599998474121094,43.599998474121094,304400
2020-06-25,43.43000030517578,44.31999969482422,43.02000045776367,43.9900016784668,43.9900016784668,103000
2020-06-26,44.02000045776367,44.02000045776367,42.400001525878906,42.630001068115234,42.630001068115234,105300
2020-06-29,42.75,43.349998474121094,40.58000183105469,43.060001373291016,43.060001373291016,287100
2020-06-30,43.25,43.689998626708984,42.36000061035156,43.47999954223633,43.47999954223633,148300
2020-07-01,43.560001373291016,43.560001373291016,42.650001525878906,42.72999954223633,42.72999954223633,174400
2020-07-02,43.13999938964844,43.79999923706055,42.66999816894531,43.0,43.0,249500
2020-07-06,43.619998931884766,44.869998931884766,42.81999969482422,44.33000183105469,44.33000183105469,429000
2020-07-07,44.09000015258789,44.31999969482422,41.939998626708984,42.310001373291016,42.310001373291016,320300
2020-07-08,44.97999954223633,47.630001068115234,44.33000183105469,46.0099983215332,46.0099983215332,414300
2020-07-09,46.09000015258789,46.349998474121094,43.970001220703125,45.88999938964844,45.88999938964844,537600
2020-07-10,45.88999938964844,46.7400016784668,45.0099983215332,46.72999954223633,46.72999954223633,129600
2020-07-13,46.83000183105469,47.02000045776367,42.75,42.81999969482422,42.81999969482422,298400
2020-07-14,42.47999954223633,44.5099983215332,42.38999938964844,44.2400016784668,44.2400016784668,199900
2020-07-15,44.9900016784668,45.09000015258789,44.040000915527344,44.2599983215332,44.2599983215332,158600
2020-07-16,43.93000030517578,43.93000030517578,43.04999923706055,43.66999816894531,43.66999816894531,313300
2020-07-17,43.7400016784668,45.65999984741211,43.52000045776367,45.4900016784668,45.4900016784668,108000
2020-07-20,45.27000045776367,48.2400016784668,45.27000045776367,47.790000915527344,47.790000915527344,269800
2020-07-21,48.209999084472656,50.119998931884766,47.849998474121094,48.810001373291016,48.810001373291016,292500
2020-07-22,48.779998779296875,49.27000045776367,47.81999969482422,48.279998779296875,48.279998779296875,127200
2020-07-23,48.11000061035156,48.45000076293945,47.40999984741211,47.79999923706055,47.79999923706055,233500
2020-07-24,47.2599983215332,47.599998474121094,45.400001525878906,45.5099983215332,45.5099983215332,262900
2020-07-27,45.56999969482422,46.13999938964844,44.68000030517578,45.29999923706055,45.29999923706055,191100
2020-07-28,45.400001525878906,45.77000045776367,44.97999954223633,45.060001373291016,45.060001373291016,142800
2020-07-29,45.2400016784668,45.88999938964844,44.150001525878906,44.349998474121094,44.349998474121094,186900
2020-07-30,43.779998779296875,45.970001220703125,42.5,44.810001373291016,44.810001373291016,451700
2020-07-31,44.75,45.04999923706055,43.43000030517578,43.54999923706055,43.54999923706055,399000
2020-08-03,43.869998931884766,43.959999084472656,42.22999954223633,42.290000915527344,42.290000915527344,423700
2020-08-04,42.369998931884766,42.7400016784668,41.61000061035156,41.7400016784668,41.7400016784668,540000
2020-08-05,42.040000915527344,46.16999816894531,41.7400016784668,44.9900016784668,44.9900016784668,1180600
2020-08-06,45.16999816894531,45.68000030517578,43.75,45.59000015258789,45.59000015258789,165900
2020-08-07,45.81999969482422,48.939998626708984,45.720001220703125,48.779998779296875,48.779998779296875,449700
2020-08-10,48.90999984741211,49.38999938964844,47.779998779296875,48.52000045776367,48.52000045776367,288600
2020-08-11,48.689998626708984,48.72999954223633,47.119998931884766,47.34000015258789,47.34000015258789,324200
2020-08-12,47.4900016784668,47.939998626708984,46.77000045776367,47.380001068115234,47.380001068115234,164100
2020-08-13,47.54999923706055,47.54999923706055,46.20000076293945,46.86000061035156,46.86000061035156,249900
2020-08-14,46.61000061035156,46.61000061035156,44.68000030517578,46.369998931884766,46.369998931884766,149100
2020-08-17,46.4900016784668,46.5099983215332,43.650001525878906,43.90999984741211,43.90999984741211,214000
2020-08-18,43.83000183105469,44.54999923706055,42.060001373291016,42.81999969482422,42.81999969482422,211500
2020-08-19,42.790000915527344,42.83000183105469,41.02000045776367,41.529998779296875,41.529998779296875,431800
2020-08-20,41.52000045776367,41.599998474121094,40.45000076293945,41.15999984741211,41.15999984741211,212900
2020-08-21,41.13999938964844,42.52000045776367,40.91999816894531,41.08000183105469,41.08000183105469,169300
2020-08-24,41.31999969482422,41.959999084472656,39.75,40.189998626708984,40.189998626708984,173900
2020-08-25,40.099998474121094,41.61000061035156,40.029998779296875,41.58000183105469,41.58000183105469,115600
2020-08-26,41.400001525878906,41.400001525878906,40.22999954223633,40.849998474121094,40.849998474121094,320000
2020-08-27,40.88999938964844,42.06999969482422,40.790000915527344,41.65999984741211,41.65999984741211,239400
2020-08-28,42.06999969482422,42.84000015258789,41.54999923706055,42.310001373291016,42.310001373291016,291300
2020-08-31,42.70000076293945,45.61000061035156,42.70000076293945,45.2400016784668,45.2400016784668,420500
2020-09-01,45.02000045776367,46.27000045776367,44.810001373291016,45.630001068115234,45.630001068115234,241500
2020-09-02,47.36000061035156,48.5,46.75,48.34000015258789,48.34000015258789,305800
2020-09-03,48.34000015258789,50.400001525878906,46.959999084472656,47.369998931884766,47.369998931884766,295600
2020-09-04,47.560001373291016,48.29999923706055,45.58000183105469,48.13999938964844,48.13999938964844,217700
2020-09-08,47.650001525878906,48.189998626708984,45.81999969482422,47.63999938964844,47.63999938964844,401400
2020-09-09,43.540000915527344,45.099998474121094,42.36000061035156,44.79999923706055,44.79999923706055,1741100
2020-09-10,45.0,45.9900016784668,44.47999954223633,44.81999969482422,44.81999969482422,392100
2020-09-11,45.09000015258789,45.54999923706055,43.72999954223633,44.220001220703125,44.220001220703125,403100
2020-09-14,44.84000015258789,45.09000015258789,43.93000030517578,44.31999969482422,44.31999969482422,243200
2020-09-15,44.619998931884766,44.619998931884766,43.279998779296875,43.470001220703125,43.470001220703125,269300
2020-09-16,43.380001068115234,43.90999984741211,40.72999954223633,41.290000915527344,41.290000915527344,283800
2020-09-17,40.70000076293945,41.68000030517578,39.310001373291016,39.41999816894531,39.41999816894531,499800
2020-09-18,39.25,40.470001220703125,38.56999969482422,39.029998779296875,39.029998779296875,675600
2020-09-21,38.79999923706055,40.29999923706055,38.2599983215332,40.029998779296875,40.029998779296875,657000
2020-09-22,40.04999923706055,40.849998474121094,39.0099983215332,40.13999938964844,40.13999938964844,328700
2020-09-23,40.20000076293945,40.90999984741211,39.25,39.45000076293945,39.45000076293945,194700
2020-09-24,39.25,40.38999938964844,38.9900016784668,39.880001068115234,39.880001068115234,178200
2020-09-25,40.06999969482422,40.65999984741211,39.939998626708984,40.119998931884766,40.119998931884766,107100
2020-09-28,40.529998779296875,40.939998626708984,39.869998931884766,39.900001525878906,39.900001525878906,142700
2020-09-29,39.90999984741211,41.380001068115234,37.72999954223633,40.72999954223633,40.72999954223633,212800
2020-09-30,41.130001068115234,41.15999984741211,40.11000061035156,40.84000015258789,40.84000015258789,528700
2020-10-01,41.20000076293945,41.779998779296875,40.9900016784668,41.5,41.5,212900
2020-10-02,41.20000076293945,41.97999954223633,40.619998931884766,41.2599983215332,41.2599983215332,461500
2020-10-05,40.810001373291016,41.709999084472656,40.470001220703125,40.5099983215332,40.5099983215332,281800
2020-10-06,40.939998626708984,41.90999984741211,39.900001525878906,39.900001525878906,39.900001525878906,315900
2020-10-07,40.43000030517578,41.310001373291016,39.86000061035156,39.88999938964844,39.88999938964844,195100
2020-10-08,40.47999954223633,40.47999954223633,38.56999969482422,38.68000030517578,38.68000030517578,744400
2020-10-09,38.380001068115234,39.08000183105469,37.630001068115234,38.310001373291016,38.310001373291016,480300
2020-10-12,38.599998474121094,39.029998779296875,37.689998626708984,37.93000030517578,37.93000030517578,261000
2020-10-13,38.220001220703125,39.22999954223633,37.27000045776367,39.08000183105469,39.08000183105469,332100
2020-10-14,39.150001525878906,39.349998474121094,37.59000015258789,38.38999938964844,38.38999938964844,302000
2020-10-15,38.369998931884766,38.68000030517578,36.77000045776367,37.22999954223633,37.22999954223633,468500
2020-10-16,37.540000915527344,38.63999938964844,36.119998931884766,36.459999084472656,36.459999084472656,427800
2020-10-19,36.630001068115234,36.97999954223633,34.349998474121094,35.2599983215332,35.2599983215332,1872400
2020-10-20,35.95000076293945,35.95000076293945,34.709999084472656,35.52000045776367,35.52000045776367,612600
2020-10-21,35.91999816894531,35.91999816894531,34.61000061035156,34.88999938964844,34.88999938964844,474800
2020-10-22,34.84000015258789,34.84000015258789,32.970001220703125,34.529998779296875,34.529998779296875,363900
2020-10-23,34.560001373291016,35.650001525878906,34.45000076293945,35.400001525878906,35.400001525878906,442800
2020-10-26,34.41999816894531,36.18000030517578,34.41999816894531,35.619998931884766,35.619998931884766,350400
2020-10-27,35.61000061035156,36.189998626708984,34.79999923706055,35.650001525878906,35.650001525878906,230600
2020-10-28,35.470001220703125,35.5,34.47999954223633,34.81999969482422,34.81999969482422,229300
2020-10-29,34.9900016784668,34.9900016784668,32.86000061035156,34.5,34.5,322700
2020-10-30,34.5,34.83000183105469,33.09000015258789,34.08000183105469,34.08000183105469,226000
2020-11-02,34.130001068115234,34.130001068115234,32.5,32.97999954223633,32.97999954223633,172400
2020-11-03,32.560001373291016,34.88999938964844,32.560001373291016,34.11000061035156,34.11000061035156,231200
2020-11-04,34.400001525878906,36.310001373291016,34.310001373291016,36.15999984741211,36.15999984741211,255600
2020-11-05,36.38999938964844,38.060001373291016,36.0,38.040000915527344,38.040000915527344,322600
2020-11-06,37.720001220703125,38.47999954223633,36.540000915527344,37.810001373291016,37.810001373291016,235300
2020-11-09,38.36000061035156,40.15999984741211,38.209999084472656,39.810001373291016,39.810001373291016,557900
2020-11-10,39.529998779296875,41.47999954223633,39.2400016784668,40.470001220703125,40.470001220703125,233300
2020-11-11,40.45000076293945,41.66999816894531,39.849998474121094,41.22999954223633,41.22999954223633,392700
2020-11-12,41.380001068115234,42.029998779296875,39.86000061035156,39.939998626708984,39.939998626708984,382100
2020-11-13,40.91999816894531,41.7400016784668,40.189998626708984,40.97999954223633,40.97999954223633,179700
2020-11-16,41.560001373291016,41.560001373291016,39.86000061035156,39.97999954223633,39.97999954223633,194700
2020-11-17,40.0099983215332,40.400001525878906,38.900001525878906,39.29999923706055,39.29999923706055,400300
2020-11-18,39.52000045776367,42.0,39.2599983215332,40.150001525878906,40.150001525878906,275300
2020-11-19,40.15999984741211,42.119998931884766,40.15999984741211,40.619998931884766,40.619998931884766,185800
2020-11-20,40.619998931884766,41.290000915527344,40.08000183105469,41.18000030517578,41.18000030517578,61000
2020-11-23,41.29999923706055,42.38999938964844,40.52000045776367,41.689998626708984,41.689998626708984,91900
2020-11-24,41.79999923706055,42.869998931884766,41.040000915527344,41.2599983215332,41.2599983215332,149800
2020-11-25,41.150001525878906,42.4900016784668,40.869998931884766,41.79999923706055,41.79999923706055,86500
2020-11-27,42.209999084472656,43.63999938964844,41.61000061035156,42.400001525878906,42.400001525878906,120500
2020-11-30,42.72999954223633,44.65999984741211,42.09000015258789,43.75,43.75,329000
2020-12-01,43.83000183105469,44.439998626708984,37.369998931884766,37.7400016784668,37.7400016784668,769900
2020-12-02,37.75,38.08000183105469,35.54999923706055,37.11000061035156,37.11000061035156,643400
2020-12-03,37.400001525878906,37.900001525878906,36.34000015258789,37.459999084472656,37.459999084472656,623300
2020-12-04,37.709999084472656,38.790000915527344,36.779998779296875,37.650001525878906,37.650001525878906,153400
2020-12-07,37.66999816894531,38.31999969482422,35.2400016784668,36.70000076293945,36.70000076293945,405800
2020-12-08,36.70000076293945,38.5,36.279998779296875,37.95000076293945,37.95000076293945,277800
2020-12-09,38.18000030517578,38.9900016784668,36.630001068115234,36.75,36.75,389500
2020-12-10,36.34000015258789,38.869998931884766,36.34000015258789,38.72999954223633,38.72999954223633,162200
2020-12-11,38.75,39.7400016784668,38.130001068115234,38.709999084472656,38.709999084472656,214600
2020-12-14,38.939998626708984,39.529998779296875,36.97999954223633,37.31999969482422,37.31999969482422,233800
2020-12-15,37.290000915527344,38.5,36.540000915527344,37.90999984741211,37.90999984741211,137300
2020-12-16,38.130001068115234,38.47999954223633,37.08000183105469,37.40999984741211,37.40999984741211,157100
2020-12-17,37.79999923706055,38.099998474121094,36.560001373291016,36.959999084472656,36.959999084472656,218100
2020-12-18,37.36000061035156,37.849998474121094,35.88999938964844,36.0099983215332,36.0099983215332,178900
2020-12-21,35.849998474121094,37.130001068115234,35.22999954223633,36.029998779296875,36.029998779296875,144100
2020-12-22,35.599998474121094,36.439998626708984,35.29999923706055,35.9900016784668,35.9900016784668,117900
2020-12-23,35.900001525878906,37.2400016784668,35.650001525878906,36.279998779296875,36.279998779296875,163400
2020-12-24,36.349998474121094,36.90999984741211,35.84000015258789,36.65999984741211,36.65999984741211,77900
2020-12-28,36.88999938964844,37.2400016784668,34.93000030517578,36.189998626708984,36.189998626708984,232600
2020-12-29,36.369998931884766,37.04999923706055,35.2599983215332,35.529998779296875,35.529998779296875,119900
2020-12-30,35.72999954223633,36.31999969482422,35.18000030517578,35.540000915527344,35.540000915527344,219600
