Date,Open,High,Low,Close,Adj Close,Volume
2018-02-16,4.650000095367432,4.849999904632568,4.28000020980835,4.5,4.5,22900
2018-02-20,4.380000114440918,4.400000095367432,4.25,4.400000095367432,4.400000095367432,5300
2018-02-21,4.0,4.989999771118164,4.0,4.75,4.75,11000
2018-02-22,4.510000228881836,4.75,4.449999809265137,4.583000183105469,4.583000183105469,3200
2018-02-23,4.349999904632568,4.5,4.349999904632568,4.5,4.5,5400
2018-02-26,4.300000190734863,4.849999904632568,4.099999904632568,4.849999904632568,4.849999904632568,11300
2018-02-27,4.400000095367432,4.5,4.25,4.449999809265137,4.449999809265137,3000
2018-02-28,4.900000095367432,4.900000095367432,4.900000095367432,4.900000095367432,4.900000095367432,2300
2018-03-01,4.900000095367432,4.900000095367432,4.900000095367432,4.900000095367432,4.900000095367432,300
2018-03-02,4.449999809265137,4.849999904632568,4.449999809265137,4.599999904632568,4.599999904632568,2500
2018-03-05,4.550000190734863,4.550000190734863,4.550000190734863,4.550000190734863,4.550000190734863,3400
2018-03-06,4.510000228881836,4.519999980926514,4.349999904632568,4.349999904632568,4.349999904632568,4200
2018-03-07,4.389999866485596,4.699999809265137,4.199999809265137,4.199999809265137,4.199999809265137,8000
2018-03-08,4.449999809265137,4.550000190734863,4.449999809265137,4.550000190734863,4.550000190734863,16500
2018-03-09,4.5,4.5,4.150000095367432,4.449999809265137,4.449999809265137,11700
2018-03-12,4.5,4.5,4.5,4.5,4.5,1200
2018-03-13,4.440000057220459,4.449999809265137,4.440000057220459,4.449999809265137,4.449999809265137,1700
2018-03-14,4.449999809265137,4.489999771118164,4.349999904632568,4.349999904632568,4.349999904632568,7600
2018-03-15,4.389999866485596,4.550000190734863,4.389999866485596,4.5,4.5,3800
2018-03-16,4.5,4.849999904632568,4.5,4.829999923706055,4.829999923706055,18700
2018-03-19,4.849999904632568,5.099999904632568,4.849999904632568,5.0,5.0,19900
2018-03-20,5.199999809265137,5.199999809265137,4.849999904632568,5.0,5.0,12700
2018-03-21,4.949999809265137,5.0,4.699999809265137,5.0,5.0,14400
2018-03-22,5.0,5.0,5.0,5.0,5.0,1500
2018-03-23,5.0,5.0,4.900000095367432,5.0,5.0,8300
2018-03-26,5.0,5.0,4.900000095367432,4.900000095367432,4.900000095367432,1600
2018-03-27,4.900000095367432,5.0,4.900000095367432,5.0,5.0,1500
2018-03-28,5.0,5.0,5.0,5.0,5.0,1500
2018-03-29,4.900000095367432,4.900000095367432,4.5,4.75,4.75,9000
2018-04-02,4.800000190734863,4.900000095367432,4.75,4.900000095367432,4.900000095367432,1900
2018-04-03,4.889999866485596,4.980000019073486,4.849999904632568,4.949999809265137,4.949999809265137,2500
2018-04-04,4.900000095367432,4.949999809265137,4.5,4.900000095367432,4.900000095367432,3300
2018-04-05,4.949999809265137,4.949999809265137,4.599999904632568,4.800000190734863,4.800000190734863,5900
2018-04-06,4.829999923706055,4.840000152587891,4.75,4.789999961853027,4.789999961853027,3700
2018-04-09,4.789999961853027,4.789999961853027,4.5,4.630000114440918,4.630000114440918,9400
2018-04-10,5.0,5.0,5.0,5.0,5.0,1500
2018-04-11,4.5,4.5,4.400000095367432,4.46999979019165,4.46999979019165,15800
2018-04-12,5.0,5.0,4.300000190734863,4.449999809265137,4.449999809265137,9500
2018-04-13,4.300000190734863,4.400000095367432,4.0,4.199999809265137,4.199999809265137,22400
2018-04-16,4.199999809265137,4.300000190734863,3.819999933242798,4.0,4.0,7200
2018-04-17,4.0,4.0,3.75,3.890000104904175,3.890000104904175,20900
2018-04-18,4.139999866485596,4.199999809265137,3.75,3.799999952316284,3.799999952316284,31100
2018-04-19,3.799999952316284,3.799999952316284,3.549999952316284,3.799999952316284,3.799999952316284,30100
2018-04-20,3.799999952316284,3.799999952316284,3.5999999046325684,3.799999952316284,3.799999952316284,21200
2018-04-23,3.9800000190734863,3.9800000190734863,3.5799999237060547,3.5899999141693115,3.5899999141693115,7800
2018-04-24,3.5999999046325684,3.5999999046325684,3.5,3.5799999237060547,3.5799999237060547,8600
2018-04-25,3.694999933242798,3.740000009536743,3.450000047683716,3.5899999141693115,3.5899999141693115,23600
2018-04-26,3.5899999141693115,3.9000000953674316,3.5799999237060547,3.6600000858306885,3.6600000858306885,6000
2018-04-27,3.640000104904175,3.640000104904175,3.509999990463257,3.640000104904175,3.640000104904175,8400
2018-04-30,3.640000104904175,3.640000104904175,3.380000114440918,3.549999952316284,3.549999952316284,4300
2018-05-01,3.490000009536743,3.509999990463257,3.490000009536743,3.490000009536743,3.490000009536743,2600
2018-05-02,3.5,3.75,3.299999952316284,3.430000066757202,3.430000066757202,20400
2018-05-03,3.450000047683716,3.450000047683716,3.440000057220459,3.440000057220459,3.440000057220459,500
2018-05-04,3.4200000762939453,3.509999990463257,3.369999885559082,3.5,3.5,5600
2018-05-07,3.509999990463257,3.7899999618530273,3.4000000953674316,3.5399999618530273,3.5399999618530273,7400
2018-05-08,3.5,3.630000114440918,3.359999895095825,3.390000104904175,3.390000104904175,5700
2018-05-09,3.390000104904175,3.8499999046325684,3.2899999618530273,3.619999885559082,3.619999885559082,15100
2018-05-10,3.609999895095825,3.609999895095825,3.5,3.5,3.5,1600
2018-05-11,3.6500000953674316,3.6500000953674316,3.5,3.559999942779541,3.559999942779541,11000
2018-05-14,3.5999999046325684,3.799999952316284,3.5299999713897705,3.75,3.75,20100
2018-05-15,3.7799999713897705,4.050000190734863,3.7300000190734863,4.050000190734863,4.050000190734863,13000
2018-05-16,4.050000190734863,4.130000114440918,4.0,4.039999961853027,4.039999961853027,14800
2018-05-17,4.039999961853027,4.130000114440918,4.039999961853027,4.079999923706055,4.079999923706055,500
2018-05-18,4.099999904632568,4.179999828338623,4.050000190734863,4.110000133514404,4.110000133514404,4900
2018-05-21,4.164999961853027,4.164999961853027,4.099999904632568,4.099999904632568,4.099999904632568,300
2018-05-22,4.070000171661377,4.139999866485596,4.0,4.099999904632568,4.099999904632568,3400
2018-05-23,4.0,4.050000190734863,4.0,4.050000190734863,4.050000190734863,400
2018-05-24,4.050000190734863,4.050000190734863,3.8499999046325684,4.0,4.0,6200
2018-05-25,3.8499999046325684,4.0,3.8499999046325684,4.0,4.0,2500
2018-05-29,3.9000000953674316,3.990000009536743,3.9000000953674316,3.9000000953674316,3.9000000953674316,9000
2018-05-30,3.9000000953674316,3.9000000953674316,3.9000000953674316,3.9000000953674316,3.9000000953674316,2000
2018-05-31,3.9100000858306885,3.9100000858306885,3.9000000953674316,3.9000000953674316,3.9000000953674316,21300
2018-06-01,3.4600000381469727,3.930000066757202,3.299999952316284,3.930000066757202,3.930000066757202,6300
2018-06-04,3.5899999141693115,3.6500000953674316,3.5899999141693115,3.5899999141693115,3.5899999141693115,2400
2018-06-05,3.5899999141693115,3.5999999046325684,3.299999952316284,3.5999999046325684,3.5999999046325684,24500
2018-06-06,3.5999999046325684,3.5999999046325684,3.5999999046325684,3.5999999046325684,3.5999999046325684,300
2018-06-07,3.299999952316284,3.9000000953674316,3.299999952316284,3.9000000953674316,3.9000000953674316,2100
2018-06-08,3.8399999141693115,3.8399999141693115,3.7899999618530273,3.7899999618530273,3.7899999618530273,3500
2018-06-11,3.509999990463257,3.799999952316284,3.299999952316284,3.799999952316284,3.799999952316284,6700
2018-06-12,3.799999952316284,3.799999952316284,3.799999952316284,3.799999952316284,3.799999952316284,200
2018-06-13,3.75,3.75,3.75,3.75,3.75,100
2018-06-14,3.75,3.75,3.75,3.75,3.75,1200
2018-06-15,3.75,3.75,3.75,3.75,3.75,200
2018-06-18,3.75,3.75,3.75,3.75,3.75,600
2018-06-19,3.799999952316284,3.799999952316284,3.799999952316284,3.799999952316284,3.799999952316284,100
2018-06-20,3.9000000953674316,4.0,3.9000000953674316,4.0,4.0,4000
2018-06-21,4.0,4.070000171661377,4.0,4.070000171661377,4.070000171661377,3700
2018-06-22,4.050000190734863,4.559999942779541,4.050000190734863,4.199999809265137,4.199999809265137,12000
2018-06-25,4.5,4.949999809265137,4.5,4.550000190734863,4.550000190734863,7800
2018-06-26,4.0,4.099999904632568,3.809999942779541,3.9000000953674316,3.9000000953674316,1248800
2018-06-27,3.9000000953674316,3.9519999027252197,3.819999933242798,3.880000114440918,3.880000114440918,296900
2018-06-28,3.799999952316284,4.215000152587891,3.799999952316284,4.190000057220459,4.190000057220459,244800
2018-06-29,4.150000095367432,4.190000057220459,3.880000114440918,4.150000095367432,4.150000095367432,220300
2018-07-02,4.159999847412109,4.218999862670898,4.010000228881836,4.098999977111816,4.098999977111816,118400
2018-07-03,4.199999809265137,4.230000019073486,4.070000171661377,4.190000057220459,4.190000057220459,68800
2018-07-05,4.150000095367432,4.209000110626221,4.050000190734863,4.050000190734863,4.050000190734863,84700
2018-07-06,4.111999988555908,4.178999900817871,4.050000190734863,4.110000133514404,4.110000133514404,58400
2018-07-09,4.239999771118164,4.349999904632568,4.050000190734863,4.269999980926514,4.269999980926514,296500
2018-07-10,4.300000190734863,4.349999904632568,4.139999866485596,4.179999828338623,4.179999828338623,334200
2018-07-11,3.9200000762939453,4.218999862670898,3.9200000762939453,4.119999885559082,4.119999885559082,205100
2018-07-12,4.150000095367432,4.239999771118164,4.019999980926514,4.150000095367432,4.150000095367432,132600
2018-07-13,4.150000095367432,4.179999828338623,4.050000190734863,4.150000095367432,4.150000095367432,153200
2018-07-16,4.289999961853027,4.289999961853027,4.070000171661377,4.190000057220459,4.190000057220459,113800
2018-07-17,4.210000038146973,4.309999942779541,4.150000095367432,4.159999847412109,4.159999847412109,89200
2018-07-18,4.190000057220459,4.25,4.079999923706055,4.079999923706055,4.079999923706055,190900
2018-07-19,4.019999980926514,4.24399995803833,4.019999980926514,4.090000152587891,4.090000152587891,85000
2018-07-20,4.039999961853027,4.239999771118164,4.019999980926514,4.170000076293945,4.170000076293945,42200
2018-07-23,4.239999771118164,4.300000190734863,4.170000076293945,4.179999828338623,4.179999828338623,80100
2018-07-24,4.179999828338623,4.25,4.170000076293945,4.179999828338623,4.179999828338623,67100
2018-07-25,4.230000019073486,4.255000114440918,4.159999847412109,4.199999809265137,4.199999809265137,85600
2018-07-26,4.179999828338623,4.199999809265137,4.050000190734863,4.0970001220703125,4.0970001220703125,37500
2018-07-27,4.150000095367432,4.150000095367432,4.019999980926514,4.059999942779541,4.059999942779541,48700
2018-07-30,4.059999942779541,4.14900016784668,4.019999980926514,4.050000190734863,4.050000190734863,14800
2018-07-31,4.010000228881836,4.074999809265137,3.9159998893737793,3.930000066757202,3.930000066757202,65300
2018-08-01,3.9210000038146973,3.9519999027252197,3.8499999046325684,3.859999895095825,3.859999895095825,72400
2018-08-02,3.8499999046325684,3.9749999046325684,3.5999999046325684,3.630000114440918,3.630000114440918,37200
2018-08-03,3.809999942779541,3.890000104904175,3.5950000286102295,3.630000114440918,3.630000114440918,25900
2018-08-06,3.7730000019073486,3.890000104904175,3.75,3.890000104904175,3.890000104904175,5500
2018-08-07,3.7300000190734863,3.9000000953674316,3.509999990463257,3.559999942779541,3.559999942779541,27800
2018-08-08,3.549999952316284,3.693000078201294,3.430000066757202,3.549999952316284,3.549999952316284,21700
2018-08-09,3.506999969482422,3.859999895095825,3.4600000381469727,3.484999895095825,3.484999895095825,27800
2018-08-10,3.890000104904175,3.9000000953674316,3.5350000858306885,3.75,3.75,4400
2018-08-13,3.799999952316284,3.806999921798706,3.740000009536743,3.753999948501587,3.753999948501587,1400
2018-08-14,3.7960000038146973,3.7960000038146973,3.5999999046325684,3.690000057220459,3.690000057220459,11700
2018-08-15,3.7209999561309814,3.7209999561309814,3.3299999237060547,3.3299999237060547,3.3299999237060547,41600
2018-08-16,3.4000000953674316,3.619999885559082,3.4000000953674316,3.619999885559082,3.619999885559082,5000
2018-08-17,3.6500000953674316,3.9000000953674316,3.5,3.9000000953674316,3.9000000953674316,63400
2018-08-20,3.9000000953674316,3.9700000286102295,3.609999895095825,3.700000047683716,3.700000047683716,73000
2018-08-21,3.619999885559082,3.75,3.5999999046325684,3.75,3.75,20300
2018-08-22,3.700000047683716,3.8499999046325684,3.6449999809265137,3.7899999618530273,3.7899999618530273,43900
2018-08-23,3.619999885559082,3.8380000591278076,3.5,3.549999952316284,3.549999952316284,51600
2018-08-24,3.6500000953674316,3.8299999237060547,3.299999952316284,3.3499999046325684,3.3499999046325684,51200
2018-08-27,3.4079999923706055,3.5999999046325684,3.3499999046325684,3.430000066757202,3.430000066757202,48200
2018-08-28,3.4100000858306885,3.549999952316284,3.3399999141693115,3.549999952316284,3.549999952316284,27300
2018-08-29,3.430000066757202,3.5899999141693115,3.4000000953674316,3.4800000190734863,3.4800000190734863,14700
2018-08-30,3.559999942779541,3.609999895095825,3.369999885559082,3.609999895095825,3.609999895095825,44200
2018-08-31,3.5,3.5999999046325684,3.369999885559082,3.569999933242798,3.569999933242798,26300
2018-09-04,3.5,3.5,3.359999895095825,3.490000009536743,3.490000009536743,7200
2018-09-05,3.4010000228881836,3.5,3.3499999046325684,3.3499999046325684,3.3499999046325684,22600
2018-09-06,3.5,3.5,3.4000000953674316,3.4000000953674316,3.4000000953674316,8400
2018-09-07,3.569999933242798,3.5999999046325684,3.4000000953674316,3.490000009536743,3.490000009536743,21900
2018-09-10,3.490000009536743,3.799999952316284,3.4179999828338623,3.7100000381469727,3.7100000381469727,52000
2018-09-11,3.7899999618530273,3.8399999141693115,3.5899999141693115,3.819999933242798,3.819999933242798,78500
2018-09-12,3.880000114440918,3.880000114440918,3.490000009536743,3.5,3.5,32300
2018-09-13,3.430000066757202,3.700000047683716,3.430000066757202,3.609999895095825,3.609999895095825,35200
2018-09-14,3.7899999618530273,3.7899999618530273,3.3510000705718994,3.5399999618530273,3.5399999618530273,85200
2018-09-17,3.5799999237060547,3.7149999141693115,3.4100000858306885,3.5199999809265137,3.5199999809265137,91700
2018-09-18,3.5899999141693115,3.799999952316284,3.5399999618530273,3.7899999618530273,3.7899999618530273,254600
2018-09-19,3.799999952316284,3.950000047683716,3.559999942779541,3.7300000190734863,3.7300000190734863,232300
2018-09-20,3.890000104904175,4.099999904632568,3.5999999046325684,3.700000047683716,3.700000047683716,547600
2018-09-21,3.700000047683716,3.934000015258789,3.309999942779541,3.390000104904175,3.390000104904175,622900
2018-09-24,3.450000047683716,3.5299999713897705,3.200000047683716,3.200000047683716,3.200000047683716,136400
2018-09-25,3.236999988555908,3.450000047683716,3.119999885559082,3.140000104904175,3.140000104904175,180700
2018-09-26,3.140000104904175,3.2300000190734863,3.0,3.0399999618530273,3.0399999618530273,38500
2018-09-27,3.049999952316284,3.240000009536743,3.049999952316284,3.140000104904175,3.140000104904175,31700
2018-09-28,3.259999990463257,3.259999990463257,3.009999990463257,3.0899999141693115,3.0899999141693115,56800
2018-10-01,3.059999942779541,3.11899995803833,2.8499999046325684,2.890000104904175,2.890000104904175,179600
2018-10-02,2.990000009536743,3.0899999141693115,2.930000066757202,2.9649999141693115,2.9649999141693115,71600
2018-10-03,2.950000047683716,3.1700000762939453,2.940000057220459,2.950000047683716,2.950000047683716,115600
2018-10-04,2.940000057220459,3.1649999618530273,2.940000057220459,2.9700000286102295,2.9700000286102295,64200
2018-10-05,2.9700000286102295,3.0,2.9000000953674316,2.9800000190734863,2.9800000190734863,46900
2018-10-08,3.0999999046325684,3.1500000953674316,2.9000000953674316,2.950000047683716,2.950000047683716,74100
2018-10-09,3.0,3.0,2.799999952316284,2.799999952316284,2.799999952316284,41200
2018-10-10,2.950000047683716,2.9600000381469727,2.7100000381469727,2.7100000381469727,2.7100000381469727,54000
2018-10-11,2.750999927520752,2.8399999141693115,2.5199999809265137,2.5399999618530273,2.5399999618530273,24300
2018-10-12,2.5999999046325684,2.9100000858306885,2.5299999713897705,2.5999999046325684,2.5999999046325684,43100
2018-10-15,2.5299999713897705,2.630000114440918,2.509999990463257,2.5199999809265137,2.5199999809265137,34500
2018-10-16,2.559999942779541,2.5799999237060547,2.25,2.299999952316284,2.299999952316284,143400
2018-10-17,2.3499999046325684,2.4200000762939453,2.2799999713897705,2.309999942779541,2.309999942779541,65500
2018-10-18,2.299999952316284,2.450000047683716,2.25,2.319999933242798,2.319999933242798,54100
2018-10-19,2.2699999809265137,2.2909998893737793,2.069999933242798,2.200000047683716,2.200000047683716,35800
2018-10-22,2.25,2.25,2.049999952316284,2.069999933242798,2.069999933242798,41200
2018-10-23,2.109999895095825,2.1449999809265137,1.9600000381469727,2.0299999713897705,2.0299999713897705,52900
2018-10-24,2.009999990463257,2.1010000705718994,1.850000023841858,1.8799999952316284,1.8799999952316284,152700
2018-10-25,1.9500000476837158,2.23799991607666,1.9199999570846558,2.109999895095825,2.109999895095825,107600
2018-10-26,2.200000047683716,2.234999895095825,1.909999966621399,2.049999952316284,2.049999952316284,23400
2018-10-29,1.937000036239624,2.0899999141693115,1.937000036239624,1.9700000286102295,1.9700000286102295,48200
2018-10-30,2.059999942779541,2.059999942779541,1.899999976158142,1.9199999570846558,1.9199999570846558,19300
2018-10-31,1.9199999570846558,2.140000104904175,1.909999966621399,1.909999966621399,1.909999966621399,51400
2018-11-01,2.0,2.240000009536743,2.0,2.200000047683716,2.200000047683716,22600
2018-11-02,2.109999895095825,2.2200000286102295,2.009999990463257,2.0999999046325684,2.0999999046325684,24200
2018-11-05,2.049999952316284,2.1700000762939453,2.0,2.049999952316284,2.049999952316284,33300
2018-11-06,2.049999952316284,2.1700000762939453,1.875,2.130000114440918,2.130000114440918,50400
2018-11-07,2.2200000286102295,2.240000009536743,1.940000057220459,2.0999999046325684,2.0999999046325684,53500
2018-11-08,2.0399999618530273,2.178999900817871,1.9600000381469727,2.0999999046325684,2.0999999046325684,54400
2018-11-09,2.058000087738037,2.119999885559082,1.899999976158142,1.9800000190734863,1.9800000190734863,490000
2018-11-12,1.9900000095367432,2.069999933242798,1.8799999952316284,1.8799999952316284,1.8799999952316284,56100
2018-11-13,2.0,2.0280001163482666,1.9500000476837158,2.0,2.0,26700
2018-11-14,1.9299999475479126,2.0799999237060547,1.8799999952316284,1.940000057220459,1.940000057220459,33800
2018-11-15,2.1600000858306885,2.1600000858306885,1.9900000095367432,1.9900000095367432,1.9900000095367432,22500
2018-11-16,2.049999952316284,2.049999952316284,1.909999966621399,1.9500000476837158,1.9500000476837158,14200
2018-11-19,1.940000057220459,2.109999895095825,1.909999966621399,1.9700000286102295,1.9700000286102295,11000
2018-11-20,1.909999966621399,1.9800000190734863,1.8600000143051147,1.9600000381469727,1.9600000381469727,47600
2018-11-21,1.8600000143051147,2.0899999141693115,1.850000023841858,1.940000057220459,1.940000057220459,26500
2018-11-23,1.8799999952316284,2.009999990463257,1.8799999952316284,1.9900000095367432,1.9900000095367432,12600
2018-11-26,2.0,2.002000093460083,1.7699999809265137,1.8200000524520874,1.8200000524520874,82300
2018-11-27,1.8700000047683716,1.8799999952316284,1.7699999809265137,1.7999999523162842,1.7999999523162842,64800
2018-11-28,1.75,2.130000114440918,1.75,1.9199999570846558,1.9199999570846558,86500
2018-11-29,1.9299999475479126,2.0999999046325684,1.8200000524520874,2.0,2.0,40900
2018-11-30,2.069999933242798,2.0899999141693115,1.840000033378601,1.899999976158142,1.899999976158142,56200
2018-12-03,1.9500000476837158,2.0999999046325684,1.9199999570846558,2.0999999046325684,2.0999999046325684,43100
2018-12-04,2.0999999046325684,2.130000114440918,1.940000057220459,2.0999999046325684,2.0999999046325684,33500
2018-12-06,2.009999990463257,2.25,2.009999990463257,2.0999999046325684,2.0999999046325684,69100
2018-12-07,2.119999885559082,2.2049999237060547,2.049999952316284,2.0799999237060547,2.0799999237060547,63700
2018-12-10,2.180000066757202,2.2100000381469727,2.049999952316284,2.119999885559082,2.119999885559082,75100
2018-12-11,2.119999885559082,2.1500000953674316,2.0199999809265137,2.0199999809265137,2.0199999809265137,65700
2018-12-12,2.069999933242798,2.119999885559082,2.0,2.009999990463257,2.009999990463257,49900
2018-12-13,2.109999895095825,2.109999895095825,1.9900000095367432,1.9900000095367432,1.9900000095367432,57800
2018-12-14,2.0999999046325684,2.0999999046325684,1.940000057220459,2.0399999618530273,2.0399999618530273,66400
2018-12-17,2.0510001182556152,2.0510001182556152,1.899999976158142,1.899999976158142,1.899999976158142,39800
2018-12-18,1.940000057220459,2.059999942779541,1.899999976158142,1.9700000286102295,1.9700000286102295,178500
2018-12-19,1.9550000429153442,2.059999942779541,1.809999942779541,1.809999942779541,1.809999942779541,98000
2018-12-20,1.909999966621399,1.909999966621399,1.7999999523162842,1.7999999523162842,1.7999999523162842,134800
2018-12-21,1.8799999952316284,2.0299999713897705,1.7200000286102295,1.7300000190734863,1.7300000190734863,132400
2018-12-24,1.75,1.850000023841858,1.649999976158142,1.659999966621399,1.659999966621399,80800
2018-12-26,1.659999966621399,1.8600000143051147,1.559999942779541,1.600000023841858,1.600000023841858,97200
2018-12-27,1.600000023841858,1.75,1.600000023841858,1.600000023841858,1.600000023841858,82500
2018-12-28,1.600000023841858,1.7999999523162842,1.600000023841858,1.7100000381469727,1.7100000381469727,183800
2018-12-31,1.7100000381469727,1.7999999523162842,1.7000000476837158,1.7000000476837158,1.7000000476837158,141100
2019-01-02,1.7599999904632568,2.0399999618530273,1.7599999904632568,1.9900000095367432,1.9900000095367432,84600
2019-01-03,2.0299999713897705,2.1500000953674316,1.899999976158142,2.069999933242798,2.069999933242798,77800
2019-01-04,2.1500000953674316,2.1500000953674316,2.069999933242798,2.125,2.125,69900
2019-01-07,2.1500000953674316,2.2300000190734863,2.059999942779541,2.130000114440918,2.130000114440918,88000
2019-01-08,2.1500000953674316,2.440000057220459,2.01200008392334,2.4000000953674316,2.4000000953674316,138900
2019-01-09,2.4719998836517334,2.6070001125335693,2.299999952316284,2.3499999046325684,2.3499999046325684,97200
2019-01-10,2.3499999046325684,2.5199999809265137,2.319999933242798,2.3949999809265137,2.3949999809265137,81700
2019-01-11,2.559999942779541,3.0999999046325684,2.5,3.0,3.0,257200
2019-01-14,3.009999990463257,3.049999952316284,2.5999999046325684,2.890000104904175,2.890000104904175,103800
2019-01-15,2.940000057220459,2.990999937057495,2.8499999046325684,2.890000104904175,2.890000104904175,31200
2019-01-16,3.0,3.0,2.759999990463257,2.9100000858306885,2.9100000858306885,39000
2019-01-17,2.9000000953674316,3.0999999046325684,2.7750000953674316,3.059999942779541,3.059999942779541,147600
2019-01-18,3.25,3.5,2.9600000381469727,3.299999952316284,3.299999952316284,316900
2019-01-22,3.299999952316284,3.740000009536743,3.25,3.559999942779541,3.559999942779541,429400
2019-01-23,3.559999942779541,3.75,3.4040000438690186,3.509999990463257,3.509999990463257,210300
2019-01-24,3.549999952316284,3.869999885559082,3.25,3.7899999618530273,3.7899999618530273,168700
2019-01-25,3.7899999618530273,4.110000133514404,3.5899999141693115,3.930000066757202,3.930000066757202,270100
2019-01-28,4.050000190734863,4.230000019073486,3.440000057220459,3.9600000381469727,3.9600000381469727,497400
2019-01-29,3.7100000381469727,4.199999809265137,3.5399999618530273,4.179999828338623,4.179999828338623,145600
2019-01-30,4.099999904632568,4.190000057220459,3.880000114440918,3.880000114440918,3.880000114440918,105100
2019-01-31,3.9000000953674316,3.924999952316284,3.4800000190734863,3.4800000190734863,3.4800000190734863,159000
2019-02-01,3.5,3.5899999141693115,3.25,3.450000047683716,3.450000047683716,82100
2019-02-04,3.430000066757202,3.6480000019073486,3.3299999237060547,3.369999885559082,3.369999885559082,34900
2019-02-05,3.5290000438690186,3.6710000038146973,3.4200000762939453,3.5899999141693115,3.5899999141693115,142500
2019-02-06,3.5899999141693115,3.8399999141693115,3.490000009536743,3.7200000286102295,3.7200000286102295,135300
2019-02-07,3.75,3.8499999046325684,3.615999937057495,3.7100000381469727,3.7100000381469727,157200
2019-02-08,3.5369999408721924,3.6500000953674316,3.3399999141693115,3.450000047683716,3.450000047683716,201100
2019-02-11,3.4000000953674316,3.6500000953674316,3.2860000133514404,3.4600000381469727,3.4600000381469727,92900
2019-02-12,3.5,3.559999942779541,3.3499999046325684,3.4000000953674316,3.4000000953674316,121400
2019-02-13,3.450000047683716,3.450000047683716,3.2100000381469727,3.4149999618530273,3.4149999618530273,50600
2019-02-14,3.259999990463257,3.5799999237060547,3.259999990463257,3.4200000762939453,3.4200000762939453,126100
2019-02-15,3.5,3.5199999809265137,3.2699999809265137,3.2699999809265137,3.2699999809265137,70600
2019-02-19,3.3499999046325684,3.3499999046325684,2.8499999046325684,3.069999933242798,3.069999933242798,233000
2019-02-20,3.0999999046325684,3.5,3.0999999046325684,3.119999885559082,3.119999885559082,196000
2019-02-21,3.0999999046325684,3.2300000190734863,2.9600000381469727,3.0199999809265137,3.0199999809265137,224200
2019-02-22,2.9700000286102295,3.25,2.809999942779541,2.8499999046325684,2.8499999046325684,123600
2019-02-25,2.9000000953674316,3.200000047683716,2.759999990463257,2.9200000762939453,2.9200000762939453,161800
2019-02-26,3.009999990463257,3.4000000953674316,3.009999990463257,3.2200000286102295,3.2200000286102295,339200
2019-02-27,3.200000047683716,3.430000066757202,2.990000009536743,2.990000009536743,2.990000009536743,867500
2019-02-28,2.990000009536743,3.309999942779541,2.859999895095825,2.990000009536743,2.990000009536743,287200
2019-03-01,3.0420000553131104,3.2799999713897705,2.88700008392334,2.9700000286102295,2.9700000286102295,304000
2019-03-04,3.0399999618530273,3.25,2.7799999713897705,2.859999895095825,2.859999895095825,396100
2019-03-05,2.7899999618530273,3.25,2.609999895095825,3.0299999713897705,3.0299999713897705,487800
2019-03-06,3.0299999713897705,3.2100000381469727,2.940000057220459,2.9800000190734863,2.9800000190734863,236300
2019-03-07,2.990000009536743,3.0999999046325684,2.7679998874664307,3.069999933242798,3.069999933242798,274600
2019-03-08,3.0899999141693115,3.5,2.9200000762939453,3.5,3.5,375600
2019-03-11,3.549999952316284,3.680000066757202,3.4200000762939453,3.640000104904175,3.640000104904175,200700
2019-03-12,3.6500000953674316,4.03000020980835,3.509999990463257,3.6700000762939453,3.6700000762939453,224100
2019-03-13,3.759999990463257,4.070000171661377,3.6600000858306885,4.03000020980835,4.03000020980835,340400
2019-03-14,4.010000228881836,4.130000114440918,3.6610000133514404,4.130000114440918,4.130000114440918,248300
2019-03-15,4.099999904632568,4.25,3.809999942779541,4.25,4.25,652800
2019-03-18,1.399999976158142,1.409999966621399,1.2000000476837158,1.2200000286102295,1.2200000286102295,6757700
2019-03-19,1.2699999809265137,1.2699999809265137,1.100000023841858,1.1200000047683716,1.1200000047683716,3047400
2019-03-20,1.149999976158142,1.149999976158142,1.0,1.0499999523162842,1.0499999523162842,2893200
2019-03-21,1.059999942779541,1.1200000047683716,1.0299999713897705,1.0800000429153442,1.0800000429153442,1569400
2019-03-22,1.0800000429153442,1.1200000047683716,1.0399999618530273,1.1200000047683716,1.1200000047683716,868700
2019-03-25,1.100000023841858,1.1200000047683716,1.0549999475479126,1.1200000047683716,1.1200000047683716,447600
2019-03-26,1.100000023841858,1.1050000190734863,0.9900000095367432,0.9900000095367432,0.9900000095367432,1049600
2019-03-27,1.0199999809265137,1.0299999713897705,0.9900000095367432,0.9900000095367432,0.9900000095367432,562500
2019-03-28,1.0,1.0,0.9200000166893005,0.9620000123977661,0.9620000123977661,964700
2019-03-29,0.9599999785423279,0.9599999785423279,0.8799999952316284,0.9010000228881836,0.9010000228881836,715500
2019-04-01,0.9100000262260437,0.9919999837875366,0.8999999761581421,0.9800000190734863,0.9800000190734863,1353400
2019-04-02,0.9599999785423279,1.0,0.925000011920929,1.0,1.0,572300
2019-04-03,0.9900000095367432,1.0199999809265137,0.9309999942779541,1.0,1.0,613700
2019-04-04,1.0199999809265137,1.0299999713897705,0.9810000061988831,1.0,1.0,296700
2019-04-05,0.9900000095367432,1.059999942779541,0.9900000095367432,1.0299999713897705,1.0299999713897705,281000
2019-04-08,1.0800000429153442,1.0800000429153442,1.0,1.0299999713897705,1.0299999713897705,327400
2019-04-09,1.0299999713897705,1.0399999618530273,0.9810000061988831,1.0199999809265137,1.0199999809265137,396000
2019-04-10,1.0299999713897705,1.149999976158142,1.0199999809265137,1.1299999952316284,1.1299999952316284,1281600
2019-04-11,1.149999976158142,1.149999976158142,1.0299999713897705,1.059999942779541,1.059999942779541,620100
2019-04-12,1.0800000429153442,1.090000033378601,1.0199999809265137,1.0399999618530273,1.0399999618530273,356300
2019-04-15,1.0299999713897705,1.0549999475479126,0.9620000123977661,0.9779999852180481,0.9779999852180481,318100
2019-04-16,0.9860000014305115,1.0099999904632568,0.9700000286102295,1.0099999904632568,1.0099999904632568,90200
2019-04-17,1.0,1.0089999437332153,0.949999988079071,0.9700000286102295,0.9700000286102295,85900
2019-04-18,0.9800000190734863,1.0199999809265137,0.9599999785423279,0.9829999804496765,0.9829999804496765,167500
2019-04-22,0.9599999785423279,1.0,0.949999988079071,0.9900000095367432,0.9900000095367432,73600
2019-04-23,1.0,1.059999942779541,0.9810000061988831,1.0499999523162842,1.0499999523162842,297200
2019-04-24,1.0499999523162842,1.059999942779541,1.0299999713897705,1.0299999713897705,1.0299999713897705,167500
2019-04-25,1.0299999713897705,1.059999942779541,1.0,1.0399999618530273,1.0399999618530273,714100
2019-04-26,1.0199999809265137,1.059999942779541,1.0199999809265137,1.0520000457763672,1.0520000457763672,245100
2019-04-29,1.0499999523162842,1.0700000524520874,0.9800000190734863,1.0299999713897705,1.0299999713897705,338500
2019-04-30,1.0199999809265137,1.0399999618530273,0.9800000190734863,1.0399999618530273,1.0399999618530273,204300
2019-05-01,1.0399999618530273,1.0499999523162842,1.0010000467300415,1.0199999809265137,1.0199999809265137,211000
2019-05-02,1.100000023841858,1.159999966621399,1.0299999713897705,1.0299999713897705,1.0299999713897705,1816600
2019-05-03,1.0299999713897705,1.0800000429153442,0.949999988079071,1.0399999618530273,1.0399999618530273,376500
2019-05-06,1.0099999904632568,1.0800000429153442,1.0,1.059999942779541,1.059999942779541,143800
2019-05-07,1.059999942779541,1.0700000524520874,1.0099999904632568,1.0499999523162842,1.0499999523162842,81600
2019-05-08,1.0399999618530273,1.0700000524520874,1.0299999713897705,1.059999942779541,1.059999942779541,74600
2019-05-09,1.0499999523162842,1.065000057220459,1.0099999904632568,1.0299999713897705,1.0299999713897705,64900
2019-05-10,1.0399999618530273,1.059999942779541,1.0299999713897705,1.0499999523162842,1.0499999523162842,252100
2019-05-13,1.0499999523162842,1.0549999475479126,1.0199999809265137,1.0399999618530273,1.0399999618530273,124100
2019-05-14,1.0399999618530273,1.0399999618530273,1.0099999904632568,1.0399999618530273,1.0399999618530273,84100
2019-05-15,1.0399999618530273,1.0499999523162842,1.0199999809265137,1.0499999523162842,1.0499999523162842,137100
2019-05-16,1.0499999523162842,1.059999942779541,1.0199999809265137,1.0299999713897705,1.0299999713897705,199800
2019-05-17,1.0399999618530273,1.0470000505447388,0.9900000095367432,1.0099999904632568,1.0099999904632568,114000
2019-05-20,1.0199999809265137,1.0269999504089355,0.9900000095367432,0.9990000128746033,0.9990000128746033,132700
2019-05-21,1.0,1.0299999713897705,0.9800000190734863,1.0,1.0,77100
2019-05-22,1.0099999904632568,1.0299999713897705,0.9900000095367432,1.0299999713897705,1.0299999713897705,125300
2019-05-23,1.0299999713897705,1.1100000143051147,1.0199999809265137,1.1100000143051147,1.1100000143051147,758300
2019-05-24,1.1200000047683716,1.1200000047683716,1.0499999523162842,1.0750000476837158,1.0750000476837158,190900
2019-05-28,1.0700000524520874,1.1080000400543213,1.0299999713897705,1.0399999618530273,1.0399999618530273,173800
2019-05-29,1.0499999523162842,1.0499999523162842,1.0,1.0499999523162842,1.0499999523162842,90400
2019-05-30,1.0499999523162842,1.0800000429153442,1.0199999809265137,1.0800000429153442,1.0800000429153442,109900
2019-05-31,1.0499999523162842,1.090000033378601,1.0399999618530273,1.0499999523162842,1.0499999523162842,82400
2019-06-03,1.059999942779541,1.090000033378601,1.0299999713897705,1.0399999618530273,1.0399999618530273,112800
2019-06-04,1.0499999523162842,1.065000057220459,1.0199999809265137,1.0399999618530273,1.0399999618530273,63300
2019-06-05,1.0199999809265137,1.0299999713897705,0.9900000095367432,1.0,1.0,263100
2019-06-06,1.0,1.0199999809265137,0.9900000095367432,1.0,1.0,157300
2019-06-07,1.0099999904632568,1.0099999904632568,0.9900000095367432,1.0,1.0,58400
2019-06-10,0.9900000095367432,1.0399999618530273,0.9800000190734863,0.9800000190734863,0.9800000190734863,632600
2019-06-11,0.9909999966621399,1.0299999713897705,0.9800000190734863,0.9909999966621399,0.9909999966621399,125100
2019-06-12,1.0149999856948853,1.0199999809265137,0.9750000238418579,0.9750000238418579,0.9750000238418579,119800
2019-06-13,0.9950000047683716,1.0199999809265137,0.9700000286102295,0.9800000190734863,0.9800000190734863,34100
2019-06-14,0.9900000095367432,1.0099999904632568,0.9599999785423279,0.9700000286102295,0.9700000286102295,52500
2019-06-17,0.9890000224113464,1.0,0.9599999785423279,0.9649999737739563,0.9649999737739563,61000
2019-06-18,0.9599999785423279,0.9890000224113464,0.9599999785423279,0.9639999866485596,0.9639999866485596,88300
2019-06-19,0.9649999737739563,0.9879999756813049,0.9599999785423279,0.9599999785423279,0.9599999785423279,51400
2019-06-20,0.9649999737739563,0.9850000143051147,0.9599999785423279,0.9750000238418579,0.9750000238418579,43600
2019-06-21,0.9750000238418579,0.9750000238418579,0.8999999761581421,0.9399999976158142,0.9399999976158142,181800
2019-06-24,0.9399999976158142,0.9599999785423279,0.8999999761581421,0.9300000071525574,0.9300000071525574,72800
2019-06-25,0.9300000071525574,0.9300000071525574,0.8619999885559082,0.8799999952316284,0.8799999952316284,120300
2019-06-26,0.8999999761581421,0.8999999761581421,0.8619999885559082,0.8799999952316284,0.8799999952316284,52500
2019-06-27,0.8799999952316284,0.8989999890327454,0.8700000047683716,0.8980000019073486,0.8980000019073486,74600
2019-06-28,0.8799999952316284,0.9100000262260437,0.8519999980926514,0.9100000262260437,0.9100000262260437,183700
2019-07-01,0.8700000047683716,0.8999999761581421,0.8600000143051147,0.8709999918937683,0.8709999918937683,63600
2019-07-02,0.8999999761581421,0.8999999761581421,0.8799999952316284,0.8920000195503235,0.8920000195503235,78900
2019-07-03,0.8999999761581421,0.8999999761581421,0.8799999952316284,0.8999999761581421,0.8999999761581421,104500
2019-07-05,0.8999999761581421,0.8999999761581421,0.890999972820282,0.8999999761581421,0.8999999761581421,89300
2019-07-08,0.8899999856948853,0.8999999761581421,0.8600000143051147,0.8629999756813049,0.8629999756813049,93800
2019-07-09,0.8600000143051147,0.8999999761581421,0.75,0.8199999928474426,0.8199999928474426,216200
2019-07-10,0.8199999928474426,0.8450000286102295,0.7950000166893005,0.8009999990463257,0.8009999990463257,155500
2019-07-11,0.8009999990463257,0.8199999928474426,0.800000011920929,0.8100000023841858,0.8100000023841858,39000
2019-07-12,0.8399999737739563,0.8399999737739563,0.800000011920929,0.8199999928474426,0.8199999928474426,98300
2019-07-15,0.8299999833106995,0.8500000238418579,0.8100000023841858,0.8460000157356262,0.8460000157356262,72700
2019-07-16,0.8199999928474426,0.8479999899864197,0.8199999928474426,0.8299999833106995,0.8299999833106995,12200
2019-07-17,0.8370000123977661,0.8479999899864197,0.800000011920929,0.8100000023841858,0.8100000023841858,54400
2019-07-18,0.8479999899864197,0.8479999899864197,0.800000011920929,0.8299999833106995,0.8299999833106995,51100
2019-07-19,0.8149999976158142,0.8450000286102295,0.8149999976158142,0.8149999976158142,0.8149999976158142,47100
2019-07-22,0.8149999976158142,0.8169999718666077,0.7699999809265137,0.7929999828338623,0.7929999828338623,77900
2019-07-23,0.8140000104904175,0.8299999833106995,0.7720000147819519,0.8069999814033508,0.8069999814033508,42100
2019-07-24,0.8059999942779541,0.8199999928474426,0.7940000295639038,0.7940000295639038,0.7940000295639038,34300
2019-07-25,0.800000011920929,0.8399999737739563,0.7940000295639038,0.8100000023841858,0.8100000023841858,55900
2019-07-26,0.8299999833106995,0.8389999866485596,0.7799999713897705,0.7799999713897705,0.7799999713897705,113800
2019-07-29,0.7699999809265137,0.8100000023841858,0.7699999809265137,0.7820000052452087,0.7820000052452087,84000
2019-07-30,0.7900000214576721,0.8080000281333923,0.7699999809265137,0.7699999809265137,0.7699999809265137,25200
2019-07-31,0.800000011920929,0.8339999914169312,0.7710000276565552,0.7950000166893005,0.7950000166893005,82800
2019-08-01,0.800000011920929,0.8199999928474426,0.7400000095367432,0.7400000095367432,0.7400000095367432,138500
2019-08-02,0.777999997138977,0.777999997138977,0.7099999785423279,0.7549999952316284,0.7549999952316284,85200
2019-08-05,0.7549999952316284,0.7549999952316284,0.699999988079071,0.7379999756813049,0.7379999756813049,64000
2019-08-06,0.7570000290870667,0.7570000290870667,0.6489999890327454,0.6880000233650208,0.6880000233650208,160200
2019-08-07,0.6700000166893005,0.7080000042915344,0.6579999923706055,0.6949999928474426,0.6949999928474426,50500
2019-08-08,0.6579999923706055,0.7200000286102295,0.6579999923706055,0.6890000104904175,0.6890000104904175,109400
2019-08-09,0.6800000071525574,0.7179999947547913,0.6629999876022339,0.6819999814033508,0.6819999814033508,150600
2019-08-12,0.6690000295639038,0.7099999785423279,0.6629999876022339,0.6850000023841858,0.6850000023841858,15000
2019-08-13,0.6740000247955322,0.7099999785423279,0.6629999876022339,0.6819999814033508,0.6819999814033508,26800
2019-08-14,0.6629999876022339,0.699999988079071,0.6359999775886536,0.6489999890327454,0.6489999890327454,58100
2019-08-15,0.6800000071525574,0.6880000233650208,0.6100000143051147,0.6200000047683716,0.6200000047683716,304000
2019-08-16,0.625,0.6700000166893005,0.625,0.6299999952316284,0.6299999952316284,64000
2019-08-19,0.6299999952316284,0.6589999794960022,0.6299999952316284,0.6399999856948853,0.6399999856948853,91500
2019-08-20,0.6299999952316284,0.6600000262260437,0.6299999952316284,0.6600000262260437,0.6600000262260437,84600
2019-08-21,0.6600000262260437,0.6930000185966492,0.6269999742507935,0.6499999761581421,0.6499999761581421,196100
2019-08-22,0.6499999761581421,0.6930000185966492,0.6499999761581421,0.6729999780654907,0.6729999780654907,18800
2019-08-23,0.6930000185966492,0.6930000185966492,0.6499999761581421,0.6700000166893005,0.6700000166893005,20000
2019-08-26,0.6710000038146973,0.699999988079071,0.6399999856948853,0.6779999732971191,0.6779999732971191,156200
2019-08-27,0.6899999976158142,0.7099999785423279,0.6710000038146973,0.699999988079071,0.699999988079071,125600
2019-08-28,0.699999988079071,0.7440000176429749,0.699999988079071,0.7400000095367432,0.7400000095367432,157500
2019-08-29,0.7400000095367432,0.7599999904632568,0.6620000004768372,0.6980000138282776,0.6980000138282776,178400
2019-08-30,0.6919999718666077,0.75,0.6919999718666077,0.7300000190734863,0.7300000190734863,7100
2019-09-03,0.7099999785423279,0.7300000190734863,0.6700000166893005,0.7300000190734863,0.7300000190734863,11200
2019-09-04,0.7149999737739563,0.722000002861023,0.6790000200271606,0.6850000023841858,0.6850000023841858,44800
2019-09-05,0.6790000200271606,0.699999988079071,0.6620000004768372,0.6940000057220459,0.6940000057220459,8800
2019-09-06,0.6700000166893005,0.7200000286102295,0.6700000166893005,0.7009999752044678,0.7009999752044678,12400
2019-09-09,0.7170000076293945,0.7200000286102295,0.6700000166893005,0.7099999785423279,0.7099999785423279,48500
2019-09-10,0.6869999766349792,0.699999988079071,0.6600000262260437,0.699999988079071,0.699999988079071,49400
2019-09-11,0.699999988079071,0.699999988079071,0.6700000166893005,0.699999988079071,0.699999988079071,15700
2019-09-12,0.6840000152587891,0.699999988079071,0.6700000166893005,0.699999988079071,0.699999988079071,38000
2019-09-13,0.675000011920929,0.699999988079071,0.675000011920929,0.6899999976158142,0.6899999976158142,58100
2019-09-16,0.699999988079071,0.699999988079071,0.675000011920929,0.699999988079071,0.699999988079071,45400
2019-09-17,0.7200000286102295,0.7200000286102295,0.6759999990463257,0.6899999976158142,0.6899999976158142,23900
2019-09-18,0.6759999990463257,0.7300000190734863,0.6759999990463257,0.7099999785423279,0.7099999785423279,187800
2019-09-19,0.7300000190734863,0.7300000190734863,0.6800000071525574,0.699999988079071,0.699999988079071,136200
2019-09-20,0.6800000071525574,0.7200000286102295,0.6700000166893005,0.7200000286102295,0.7200000286102295,46800
2019-09-23,0.6980000138282776,0.7300000190734863,0.6970000267028809,0.7289999723434448,0.7289999723434448,34000
2019-09-24,0.7200000286102295,0.7250000238418579,0.6850000023841858,0.7239999771118164,0.7239999771118164,24300
2019-09-25,0.7049999833106995,0.7200000286102295,0.6899999976158142,0.7200000286102295,0.7200000286102295,32300
2019-09-26,0.7059999704360962,0.7200000286102295,0.6959999799728394,0.7200000286102295,0.7200000286102295,5000
2019-09-27,0.7039999961853027,0.7200000286102295,0.6499999761581421,0.6499999761581421,0.6499999761581421,34600
2019-09-30,0.6700000166893005,0.6809999942779541,0.640999972820282,0.6800000071525574,0.6800000071525574,76700
2019-10-01,0.6600000262260437,0.699999988079071,0.6499999761581421,0.6759999990463257,0.6759999990463257,36500
2019-10-02,0.6610000133514404,0.6940000057220459,0.640999972820282,0.6460000276565552,0.6460000276565552,61300
2019-10-03,0.6610000133514404,0.6669999957084656,0.6399999856948853,0.652999997138977,0.652999997138977,20800
2019-10-04,0.652999997138977,0.652999997138977,0.6200000047683716,0.6499999761581421,0.6499999761581421,30300
2019-10-07,0.6439999938011169,0.6650000214576721,0.6209999918937683,0.6399999856948853,0.6399999856948853,21000
2019-10-08,0.6489999890327454,0.6489999890327454,0.6159999966621399,0.6179999709129333,0.6179999709129333,31600
2019-10-09,0.6380000114440918,0.6470000147819519,0.6000000238418579,0.6110000014305115,0.6110000014305115,67300
2019-10-10,0.6100000143051147,0.6740000247955322,0.5600000023841858,0.5619999766349792,0.5619999766349792,278200
2019-10-11,0.5199999809265137,0.550000011920929,0.46000000834465027,0.49300000071525574,0.49300000071525574,933100
2019-10-14,0.5090000033378601,0.5090000033378601,0.46000000834465027,0.4860000014305115,0.4860000014305115,146600
2019-10-15,0.46399998664855957,0.4970000088214874,0.44999998807907104,0.492000013589859,0.492000013589859,92700
2019-10-16,0.4880000054836273,0.5189999938011169,0.47999998927116394,0.5099999904632568,0.5099999904632568,173300
2019-10-17,0.5,0.5189999938011169,0.49300000071525574,0.5009999871253967,0.5009999871253967,79200
2019-10-18,0.5,0.5099999904632568,0.46000000834465027,0.4620000123977661,0.4620000123977661,103100
2019-10-21,0.5199999809265137,0.5699999928474426,0.5049999952316284,0.5320000052452087,0.5320000052452087,713600
2019-10-22,0.5070000290870667,0.5289999842643738,0.4909999966621399,0.5049999952316284,0.5049999952316284,182200
2019-10-23,0.48500001430511475,0.5370000004768372,0.47999998927116394,0.5299999713897705,0.5299999713897705,125200
2019-10-24,0.531000018119812,0.5350000262260437,0.5,0.5149999856948853,0.5149999856948853,84300
2019-10-25,0.492000013589859,0.5299999713897705,0.49000000953674316,0.5299999713897705,0.5299999713897705,32100
2019-10-28,0.5299999713897705,0.5299999713897705,0.47999998927116394,0.5090000033378601,0.5090000033378601,130700
2019-10-29,0.5,0.5329999923706055,0.4699999988079071,0.527999997138977,0.527999997138977,113500
2019-10-30,0.5099999904632568,0.5400000214576721,0.5,0.5199999809265137,0.5199999809265137,27900
2019-10-31,0.5099999904632568,0.5450000166893005,0.5099999904632568,0.5299999713897705,0.5299999713897705,61600
2019-11-01,0.5249999761581421,0.5590000152587891,0.5249999761581421,0.5590000152587891,0.5590000152587891,69700
2019-11-04,0.5590000152587891,0.5590000152587891,0.550000011920929,0.5590000152587891,0.5590000152587891,72700
2019-11-05,0.5450000166893005,0.5640000104904175,0.5320000052452087,0.5400000214576721,0.5400000214576721,110500
2019-11-06,0.5320000052452087,0.5559999942779541,0.5299999713897705,0.5550000071525574,0.5550000071525574,13800
2019-11-07,0.5400000214576721,0.5509999990463257,0.5350000262260437,0.5400000214576721,0.5400000214576721,24500
2019-11-08,0.5389999747276306,0.5479999780654907,0.5099999904632568,0.5400000214576721,0.5400000214576721,48800
2019-11-11,0.527999997138977,0.5550000071525574,0.5149999856948853,0.550000011920929,0.550000011920929,41200
2019-11-12,0.5350000262260437,0.5550000071525574,0.5350000262260437,0.5350000262260437,0.5350000262260437,31200
2019-11-13,0.5350000262260437,0.5350000262260437,0.4819999933242798,0.4869999885559082,0.4869999885559082,139400
2019-11-14,0.5,0.5199999809265137,0.5,0.5139999985694885,0.5139999985694885,215200
2019-11-15,0.5170000195503235,0.5350000262260437,0.5170000195503235,0.5350000262260437,0.5350000262260437,79400
2019-11-18,0.5299999713897705,0.5600000023841858,0.4699999988079071,0.5090000033378601,0.5090000033378601,100000
2019-11-19,0.5120000243186951,0.5400000214576721,0.5099999904632568,0.5149999856948853,0.5149999856948853,97200
2019-11-20,0.5199999809265137,0.5490000247955322,0.5199999809265137,0.5199999809265137,0.5199999809265137,47600
2019-11-21,0.5210000276565552,0.5410000085830688,0.49000000953674316,0.5180000066757202,0.5180000066757202,142600
2019-11-22,0.5099999904632568,0.5490000247955322,0.5099999904632568,0.5329999923706055,0.5329999923706055,279000
2019-11-25,0.5249999761581421,0.5600000023841858,0.5249999761581421,0.531000018119812,0.531000018119812,62800
2019-11-26,0.5199999809265137,0.5519999861717224,0.5199999809265137,0.5379999876022339,0.5379999876022339,205900
2019-11-27,0.5249999761581421,0.5870000123977661,0.5249999761581421,0.574999988079071,0.574999988079071,539300
2019-11-29,0.5929999947547913,0.6200000047683716,0.5640000104904175,0.6190000176429749,0.6190000176429749,417000
2019-12-02,0.6119999885559082,0.6320000290870667,0.5770000219345093,0.628000020980835,0.628000020980835,314200
2019-12-03,0.6299999952316284,0.6299999952316284,0.6000000238418579,0.6129999756813049,0.6129999756813049,299500
2019-12-04,0.6159999966621399,0.6159999966621399,0.5899999737739563,0.6000000238418579,0.6000000238418579,291600
2019-12-05,0.593999981880188,0.6019999980926514,0.5699999928474426,0.5899999737739563,0.5899999737739563,146000
2019-12-06,0.5899999737739563,0.6010000109672546,0.550000011920929,0.5600000023841858,0.5600000023841858,169400
2019-12-09,0.550000011920929,0.5820000171661377,0.531000018119812,0.5490000247955322,0.5490000247955322,146900
2019-12-10,0.5400000214576721,0.5789999961853027,0.531000018119812,0.5590000152587891,0.5590000152587891,150900
2019-12-11,0.5550000071525574,0.5789999961853027,0.5429999828338623,0.5680000185966492,0.5680000185966492,56800
2019-12-12,0.5450000166893005,0.5789999961853027,0.5450000166893005,0.5699999928474426,0.5699999928474426,72400
2019-12-13,0.5529999732971191,0.5799999833106995,0.5529999732971191,0.5699999928474426,0.5699999928474426,111500
2019-12-16,0.5730000138282776,0.574999988079071,0.5299999713897705,0.5680000185966492,0.5680000185966492,86500
2019-12-17,0.5770000219345093,0.5799999833106995,0.5509999990463257,0.5630000233650208,0.5630000233650208,215300
2019-12-18,0.5550000071525574,0.5899999737739563,0.5550000071525574,0.5699999928474426,0.5699999928474426,169700
2019-12-19,0.5550000071525574,0.5899999737739563,0.5550000071525574,0.5740000009536743,0.5740000009536743,348800
2019-12-20,0.593999981880188,0.593999981880188,0.5600000023841858,0.5640000104904175,0.5640000104904175,146600
2019-12-23,0.574999988079071,0.574999988079071,0.5509999990463257,0.5529999732971191,0.5529999732971191,326700
2019-12-24,0.5600000023841858,0.5600000023841858,0.5360000133514404,0.5379999876022339,0.5379999876022339,286300
2019-12-26,0.5450000166893005,0.5600000023841858,0.5450000166893005,0.5600000023841858,0.5600000023841858,204000
2019-12-27,0.5550000071525574,0.5899999737739563,0.5550000071525574,0.5799999833106995,0.5799999833106995,322200
2019-12-30,0.5600000023841858,0.6179999709129333,0.5600000023841858,0.6000000238418579,0.6000000238418579,523200
2019-12-31,0.6000000238418579,0.6299999952316284,0.5609999895095825,0.6240000128746033,0.6240000128746033,726200
2020-01-02,0.6299999952316284,0.6579999923706055,0.625,0.6399999856948853,0.6399999856948853,996100
2020-01-03,0.6449999809265137,0.6589999794960022,0.6299999952316284,0.6399999856948853,0.6399999856948853,190200
2020-01-06,0.6299999952316284,0.6589999794960022,0.6299999952316284,0.6480000019073486,0.6480000019073486,293500
2020-01-07,0.6380000114440918,0.6629999876022339,0.6000000238418579,0.6629999876022339,0.6629999876022339,341600
2020-01-08,0.6549999713897705,0.656000018119812,0.6050000190734863,0.6169999837875366,0.6169999837875366,2262800
2020-01-09,0.6209999918937683,0.6449999809265137,0.6060000061988831,0.6330000162124634,0.6330000162124634,371200
2020-01-10,0.6299999952316284,0.6349999904632568,0.5899999737739563,0.6169999837875366,0.6169999837875366,467000
2020-01-13,0.6000000238418579,0.6200000047683716,0.5920000076293945,0.6060000061988831,0.6060000061988831,246300
2020-01-14,0.6060000061988831,0.6190000176429749,0.5910000205039978,0.6050000190734863,0.6050000190734863,127100
2020-01-15,0.6169999837875366,0.6399999856948853,0.6100000143051147,0.6169999837875366,0.6169999837875366,219800
2020-01-16,0.6129999756813049,0.6399999856948853,0.6100000143051147,0.6169999837875366,0.6169999837875366,109200
2020-01-17,0.6169999837875366,0.6399999856948853,0.6100000143051147,0.6150000095367432,0.6150000095367432,120500
2020-01-21,0.6150000095367432,0.6299999952316284,0.6000000238418579,0.621999979019165,0.621999979019165,309800
2020-01-22,0.6200000047683716,0.6299999952316284,0.6169999837875366,0.6269999742507935,0.6269999742507935,224300
2020-01-23,0.6169999837875366,0.6299999952316284,0.6169999837875366,0.6290000081062317,0.6290000081062317,174200
2020-01-24,0.6299999952316284,0.6669999957084656,0.621999979019165,0.6579999923706055,0.6579999923706055,536400
2020-01-27,0.6399999856948853,0.6589999794960022,0.6200000047683716,0.6499999761581421,0.6499999761581421,316700
2020-01-28,0.6449999809265137,0.6700000166893005,0.6209999918937683,0.6600000262260437,0.6600000262260437,319700
2020-01-29,0.6600000262260437,0.699999988079071,0.6499999761581421,0.671999990940094,0.671999990940094,447500
2020-01-30,0.6700000166893005,0.6970000267028809,0.6499999761581421,0.6499999761581421,0.6499999761581421,253000
2020-01-31,0.6499999761581421,0.6800000071525574,0.6499999761581421,0.6700000166893005,0.6700000166893005,264500
2020-02-03,0.6729999780654907,0.6980000138282776,0.656000018119812,0.675000011920929,0.675000011920929,405300
2020-02-04,0.6850000023841858,0.7099999785423279,0.675000011920929,0.6940000057220459,0.6940000057220459,490200
2020-02-05,0.7039999961853027,0.7099999785423279,0.6909999847412109,0.7049999833106995,0.7049999833106995,225300
2020-02-06,0.7099999785423279,0.7139999866485596,0.6899999976158142,0.7099999785423279,0.7099999785423279,122200
2020-02-07,0.7089999914169312,0.7089999914169312,0.6700000166893005,0.6800000071525574,0.6800000071525574,310300
2020-02-10,0.7139999866485596,0.7139999866485596,0.6000000238418579,0.6399999856948853,0.6399999856948853,538700
2020-02-11,0.6399999856948853,0.6489999890327454,0.6209999918937683,0.640999972820282,0.640999972820282,225700
2020-02-12,0.6370000243186951,0.6600000262260437,0.6299999952316284,0.6499999761581421,0.6499999761581421,222900
2020-02-13,0.6420000195503235,0.6880000233650208,0.6299999952316284,0.6499999761581421,0.6499999761581421,261300
2020-02-14,0.6600000262260437,0.6899999976158142,0.6539999842643738,0.6539999842643738,0.6539999842643738,89200
2020-02-18,0.6539999842643738,0.6850000023841858,0.652999997138977,0.6850000023841858,0.6850000023841858,86900
2020-02-19,0.6729999780654907,0.6940000057220459,0.6589999794960022,0.6769999861717224,0.6769999861717224,118300
2020-02-20,0.6819999814033508,0.6970000267028809,0.6669999957084656,0.6930000185966492,0.6930000185966492,133000
2020-02-21,0.6930000185966492,0.7099999785423279,0.6899999976158142,0.6949999928474426,0.6949999928474426,104800
2020-02-24,0.6949999928474426,0.6949999928474426,0.675000011920929,0.6800000071525574,0.6800000071525574,138500
2020-02-25,0.6790000200271606,0.6940000057220459,0.6399999856948853,0.6539999842643738,0.6539999842643738,212600
2020-02-26,0.6499999761581421,0.6809999942779541,0.6399999856948853,0.6499999761581421,0.6499999761581421,108900
2020-02-27,0.6499999761581421,0.6679999828338623,0.6200000047683716,0.640999972820282,0.640999972820282,541300
2020-02-28,0.6200000047683716,0.6549999713897705,0.6129999756813049,0.6460000276565552,0.6460000276565552,186100
2020-03-02,0.640999972820282,0.6620000004768372,0.6299999952316284,0.640999972820282,0.640999972820282,138600
2020-03-03,0.6399999856948853,0.6600000262260437,0.6309999823570251,0.6389999985694885,0.6389999985694885,212500
2020-03-04,0.6330000162124634,0.6769999861717224,0.6330000162124634,0.6629999876022339,0.6629999876022339,72500
2020-03-05,0.6589999794960022,0.6600000262260437,0.6510000228881836,0.6600000262260437,0.6600000262260437,23700
2020-03-06,0.6499999761581421,0.6520000100135803,0.6349999904632568,0.6349999904632568,0.6349999904632568,77000
2020-03-09,0.5799999833106995,0.6299999952316284,0.5799999833106995,0.5920000076293945,0.5920000076293945,188400
2020-03-10,0.5849999785423279,0.6399999856948853,0.550000011920929,0.5899999737739563,0.5899999737739563,304900
2020-03-11,0.5889999866485596,0.5889999866485596,0.5199999809265137,0.5400000214576721,0.5400000214576721,453900
2020-03-12,0.4699999988079071,0.550000011920929,0.4699999988079071,0.5249999761581421,0.5249999761581421,363000
2020-03-13,0.5210000276565552,0.6349999904632568,0.5210000276565552,0.5600000023841858,0.5600000023841858,255500
2020-03-16,0.5220000147819519,0.550000011920929,0.4699999988079071,0.5199999809265137,0.5199999809265137,129900
2020-03-17,0.5199999809265137,0.5450000166893005,0.48100000619888306,0.5270000100135803,0.5270000100135803,330600
2020-03-18,0.5080000162124634,0.5370000004768372,0.4309999942779541,0.44999998807907104,0.44999998807907104,191900
2020-03-19,0.41999998688697815,0.5419999957084656,0.41999998688697815,0.44999998807907104,0.44999998807907104,151100
2020-03-20,0.46700000762939453,0.5299999713897705,0.44999998807907104,0.460999995470047,0.460999995470047,121700
2020-03-23,0.44999998807907104,0.5149999856948853,0.44999998807907104,0.4830000102519989,0.4830000102519989,62300
2020-03-24,0.5090000033378601,0.5899999737739563,0.46000000834465027,0.5,0.5,85100
2020-03-25,0.550000011920929,0.550000011920929,0.46399998664855957,0.503000020980835,0.503000020980835,65300
2020-03-26,0.5299999713897705,0.550000011920929,0.49000000953674316,0.5189999938011169,0.5189999938011169,24200
2020-03-27,0.5139999985694885,0.5400000214576721,0.4749999940395355,0.5199999809265137,0.5199999809265137,45300
2020-03-30,0.5230000019073486,0.5400000214576721,0.5,0.5,0.5,250100
2020-03-31,0.5440000295639038,0.5569999814033508,0.5339999794960022,0.550000011920929,0.550000011920929,366900
2020-04-01,0.550000011920929,0.550000011920929,0.5149999856948853,0.5490000247955322,0.5490000247955322,20800
2020-04-02,0.5569999814033508,0.5600000023841858,0.4909999966621399,0.5339999794960022,0.5339999794960022,101900
2020-04-03,0.5099999904632568,0.5540000200271606,0.5099999904632568,0.5299999713897705,0.5299999713897705,19200
2020-04-06,0.5580000281333923,0.5649999976158142,0.5299999713897705,0.5410000085830688,0.5410000085830688,128800
2020-04-07,0.5419999957084656,0.5799999833106995,0.5400000214576721,0.550000011920929,0.550000011920929,35500
2020-04-08,0.5580000281333923,0.5609999895095825,0.5400000214576721,0.5460000038146973,0.5460000038146973,131900
2020-04-09,0.550000011920929,0.5640000104904175,0.5400000214576721,0.550000011920929,0.550000011920929,66300
2020-04-13,0.531000018119812,0.5640000104904175,0.5199999809265137,0.5640000104904175,0.5640000104904175,35100
2020-04-14,0.550000011920929,0.5899999737739563,0.550000011920929,0.5699999928474426,0.5699999928474426,118600
2020-04-15,0.5600000023841858,0.5649999976158142,0.492000013589859,0.5249999761581421,0.5249999761581421,255600
2020-04-16,0.550000011920929,0.6299999952316284,0.5400000214576721,0.6000000238418579,0.6000000238418579,908600
2020-04-17,0.6000000238418579,0.6200000047683716,0.5600000023841858,0.5770000219345093,0.5770000219345093,290100
2020-04-20,0.6299999952316284,0.6850000023841858,0.5989999771118164,0.6800000071525574,0.6800000071525574,1140000
2020-04-21,0.699999988079071,0.7459999918937683,0.6510000228881836,0.7160000205039978,0.7160000205039978,578600
2020-04-22,0.7200000286102295,0.75,0.7200000286102295,0.7200000286102295,0.7200000286102295,224400
2020-04-23,0.7440000176429749,0.7490000128746033,0.6209999918937683,0.6499999761581421,0.6499999761581421,416700
2020-04-24,0.699999988079071,0.7450000047683716,0.6700000166893005,0.7400000095367432,0.7400000095367432,716600
2020-04-27,0.7400000095367432,0.8199999928474426,0.7400000095367432,0.8109999895095825,0.8109999895095825,514600
2020-04-28,0.8500000238418579,0.8799999952316284,0.75,0.7519999742507935,0.7519999742507935,460500
2020-04-29,0.7599999904632568,0.7829999923706055,0.6909999847412109,0.7200000286102295,0.7200000286102295,245400
2020-04-30,0.7200000286102295,0.7200000286102295,0.6499999761581421,0.6700000166893005,0.6700000166893005,320800
2020-05-01,0.6499999761581421,0.6700000166893005,0.6100000143051147,0.6110000014305115,0.6110000014305115,373500
2020-05-04,0.6010000109672546,0.6470000147819519,0.574999988079071,0.6399999856948853,0.6399999856948853,248800
2020-05-05,0.6389999985694885,0.6399999856948853,0.6010000109672546,0.6200000047683716,0.6200000047683716,155700
2020-05-06,0.6200000047683716,0.6399999856948853,0.6200000047683716,0.6309999823570251,0.6309999823570251,86200
2020-05-07,0.6389999985694885,0.6800000071525574,0.6349999904632568,0.6430000066757202,0.6430000066757202,88100
2020-05-08,0.6499999761581421,0.6700000166893005,0.5649999976158142,0.6299999952316284,0.6299999952316284,187400
2020-05-11,0.5699999928474426,0.6399999856948853,0.5699999928474426,0.6110000014305115,0.6110000014305115,265500
2020-05-12,0.6150000095367432,0.6380000114440918,0.6119999885559082,0.6230000257492065,0.6230000257492065,1200000
2020-05-13,1.0,1.059999942779541,0.7400000095367432,0.7799999713897705,0.7799999713897705,25586800
2020-05-14,0.75,0.7910000085830688,0.699999988079071,0.7279999852180481,0.7279999852180481,1996700
2020-05-15,0.7200000286102295,0.7400000095367432,0.699999988079071,0.7300000190734863,0.7300000190734863,1019200
2020-05-18,0.7369999885559082,0.7699999809265137,0.7049999833106995,0.7599999904632568,0.7599999904632568,856100
2020-05-19,0.7300000190734863,0.7900000214576721,0.7279999852180481,0.7699999809265137,0.7699999809265137,551100
2020-05-20,0.75,0.7950000166893005,0.7400000095367432,0.777999997138977,0.777999997138977,386600
2020-05-21,0.7699999809265137,0.8299999833106995,0.7599999904632568,0.800000011920929,0.800000011920929,1044000
2020-05-22,0.8100000023841858,0.8100000023841858,0.7210000157356262,0.7799999713897705,0.7799999713897705,528800
2020-05-26,0.7900000214576721,0.7900000214576721,0.7509999871253967,0.7900000214576721,0.7900000214576721,551900
2020-05-27,0.800000011920929,0.800000011920929,0.7590000033378601,0.7820000052452087,0.7820000052452087,3336200
2020-05-28,1.0499999523162842,1.5299999713897705,0.9620000123977661,1.1299999952316284,1.1299999952316284,65375200
2020-05-29,1.0,1.1200000047683716,0.9900000095367432,1.1200000047683716,1.1200000047683716,5873200
2020-06-01,1.149999976158142,1.2000000476837158,1.090000033378601,1.100000023841858,1.100000023841858,3146300
2020-06-02,1.1100000143051147,1.1399999856948853,1.0800000429153442,1.1100000143051147,1.1100000143051147,1374300
2020-06-03,1.1699999570846558,1.215999960899353,1.100000023841858,1.1799999475479126,1.1799999475479126,2243700
2020-06-04,1.2000000476837158,1.2400000095367432,1.1299999952316284,1.159999966621399,1.159999966621399,1284100
2020-06-05,1.159999966621399,1.190000057220459,1.1200000047683716,1.149999976158142,1.149999976158142,794100
2020-06-08,1.149999976158142,1.2599999904632568,1.1399999856948853,1.25,1.25,1366600
2020-06-09,1.2799999713897705,1.2999999523162842,1.2000000476837158,1.2400000095367432,1.2400000095367432,869400
2020-06-10,1.25,1.2799999713897705,1.1699999570846558,1.2200000286102295,1.2200000286102295,882000
2020-06-11,1.1299999952316284,1.2000000476837158,1.1100000143051147,1.1699999570846558,1.1699999570846558,968200
2020-06-12,1.1699999570846558,1.2699999809265137,1.159999966621399,1.2599999904632568,1.2599999904632568,1040900
2020-06-15,1.2699999809265137,1.350000023841858,1.1799999475479126,1.309999942779541,1.309999942779541,1520600
2020-06-16,1.350000023841858,1.350000023841858,1.2699999809265137,1.3200000524520874,1.3200000524520874,915700
2020-06-17,1.2999999523162842,1.3300000429153442,1.2300000190734863,1.2599999904632568,1.2599999904632568,519800
2020-06-18,1.2599999904632568,1.2699999809265137,1.2100000381469727,1.2400000095367432,1.2400000095367432,336500
2020-06-19,1.25,1.2829999923706055,1.2300000190734863,1.25,1.25,567900
2020-06-22,1.2699999809265137,1.2799999713897705,1.149999976158142,1.190000057220459,1.190000057220459,866400
2020-06-23,1.2200000286102295,1.2699999809265137,1.1699999570846558,1.2400000095367432,1.2400000095367432,591100
2020-06-24,1.340000033378601,1.340000033378601,1.2000000476837158,1.2200000286102295,1.2200000286102295,676900
2020-06-25,1.25,1.2999999523162842,1.2100000381469727,1.2799999713897705,1.2799999713897705,648000
2020-06-26,1.2699999809265137,1.2899999618530273,1.2300000190734863,1.2400000095367432,1.2400000095367432,521200
2020-06-29,1.2799999713897705,1.3300000429153442,1.2000000476837158,1.2599999904632568,1.2599999904632568,803300
2020-06-30,1.2699999809265137,1.2999999523162842,1.2300000190734863,1.25,1.25,354200
2020-07-01,1.2699999809265137,1.2899999618530273,1.2300000190734863,1.2799999713897705,1.2799999713897705,426600
2020-07-02,1.2699999809265137,1.2910000085830688,1.2400000095367432,1.2599999904632568,1.2599999904632568,676600
2020-07-06,1.2699999809265137,1.340000033378601,1.2599999904632568,1.2799999713897705,1.2799999713897705,1566000
2020-07-07,1.2599999904632568,1.3300000429153442,1.25,1.2899999618530273,1.2899999618530273,355500
2020-07-08,1.2899999618530273,1.3200000524520874,1.2799999713897705,1.309999942779541,1.309999942779541,281600
2020-07-09,1.309999942779541,1.375,1.2599999904632568,1.3200000524520874,1.3200000524520874,876900
2020-07-10,1.2999999523162842,1.3300000429153442,1.25,1.2599999904632568,1.2599999904632568,407900
2020-07-13,1.25,1.2799999713897705,1.2000000476837158,1.2000000476837158,1.2000000476837158,433900
2020-07-14,1.2000000476837158,1.2799999713897705,1.190000057220459,1.2649999856948853,1.2649999856948853,385500
2020-07-15,1.2799999713897705,1.3700000047683716,1.25,1.340000033378601,1.340000033378601,1703600
2020-07-16,1.3600000143051147,1.5099999904632568,1.25,1.3899999856948853,1.3899999856948853,2253400
2020-07-17,1.3700000047683716,1.4299999475479126,1.3200000524520874,1.3700000047683716,1.3700000047683716,1537000
2020-07-20,1.3600000143051147,1.399999976158142,1.340000033378601,1.3700000047683716,1.3700000047683716,761800
2020-07-21,1.4199999570846558,1.4500000476837158,1.3799999952316284,1.399999976158142,1.399999976158142,824800
2020-07-22,1.399999976158142,1.4830000400543213,1.3899999856948853,1.4500000476837158,1.4500000476837158,1018800
2020-07-23,1.5,1.6200000047683716,1.4299999475479126,1.4800000190734863,1.4800000190734863,2904600
2020-07-24,1.4800000190734863,1.5499999523162842,1.4199999570846558,1.4800000190734863,1.4800000190734863,679300
2020-07-27,1.5099999904632568,1.590000033378601,1.5,1.5299999713897705,1.5299999713897705,513400
2020-07-28,1.5299999713897705,1.5399999618530273,1.3200000524520874,1.340000033378601,1.340000033378601,837700
2020-07-29,1.3600000143051147,1.3700000047683716,1.159999966621399,1.3200000524520874,1.3200000524520874,1827200
2020-07-30,1.2999999523162842,1.3049999475479126,1.2100000381469727,1.2799999713897705,1.2799999713897705,810300
2020-07-31,1.2799999713897705,1.3200000524520874,1.2400000095367432,1.25,1.25,505200
2020-08-03,1.2599999904632568,1.3600000143051147,1.25,1.2899999618530273,1.2899999618530273,703600
2020-08-04,1.2899999618530273,1.3209999799728394,1.2599999904632568,1.3200000524520874,1.3200000524520874,5816500
2020-08-05,1.7999999523162842,1.8300000429153442,1.4299999475479126,1.5099999904632568,1.5099999904632568,29572800
2020-08-06,1.4600000381469727,1.4600000381469727,1.350000023841858,1.4199999570846558,1.4199999570846558,2706900
2020-08-07,1.3700000047683716,1.7100000381469727,1.315000057220459,1.590000033378601,1.590000033378601,7671000
2020-08-10,1.690000057220459,1.75,1.5399999618530273,1.600000023841858,1.600000023841858,3123100
2020-08-11,1.649999976158142,1.6799999475479126,1.5299999713897705,1.559999942779541,1.559999942779541,3304700
2020-08-12,1.600000023841858,1.6299999952316284,1.4500000476837158,1.5299999713897705,1.5299999713897705,3300900
2020-08-13,1.4900000095367432,1.899999976158142,1.4600000381469727,1.8300000429153442,1.8300000429153442,10910700
2020-08-14,1.7899999618530273,1.809999942779541,1.559999942779541,1.600000023841858,1.600000023841858,3952500
2020-08-17,1.600000023841858,1.75,1.600000023841858,1.659999966621399,1.659999966621399,1430800
2020-08-18,1.6299999952316284,1.649999976158142,1.559999942779541,1.6200000047683716,1.6200000047683716,1260400
2020-08-19,1.5800000429153442,1.649999976158142,1.5700000524520874,1.6299999952316284,1.6299999952316284,786000
2020-08-20,1.600000023841858,1.6399999856948853,1.5700000524520874,1.590000033378601,1.590000033378601,720200
2020-08-21,1.590000033378601,1.600000023841858,1.4900000095367432,1.5399999618530273,1.5399999618530273,1080600
2020-08-24,1.5099999904632568,1.5299999713897705,1.3899999856948853,1.4500000476837158,1.4500000476837158,1246300
2020-08-25,1.440000057220459,1.5299999713897705,1.3899999856948853,1.5,1.5,819600
2020-08-26,1.5,1.5800000429153442,1.4609999656677246,1.4800000190734863,1.4800000190734863,665800
2020-08-27,1.4600000381469727,1.4609999656677246,1.2799999713897705,1.3799999952316284,1.3799999952316284,1387400
2020-08-28,1.350000023841858,1.3700000047683716,1.309999942779541,1.3300000429153442,1.3300000429153442,492300
2020-08-31,1.2999999523162842,1.4199999570846558,1.2899999618530273,1.3650000095367432,1.3650000095367432,624800
2020-09-01,1.409999966621399,1.409999966621399,1.2200000286102295,1.2899999618530273,1.2899999618530273,986500
2020-09-02,1.309999942779541,1.3250000476837158,1.2400000095367432,1.2899999618530273,1.2899999618530273,698500
2020-09-03,1.2699999809265137,1.2999999523162842,1.2000000476837158,1.2400000095367432,1.2400000095367432,516300
2020-09-04,1.25,1.25,1.0399999618530273,1.2200000286102295,1.2200000286102295,734600
2020-09-08,1.2400000095367432,1.2699999809265137,1.1699999570846558,1.2400000095367432,1.2400000095367432,634900
2020-09-09,1.25,1.3799999952316284,1.218000054359436,1.2699999809265137,1.2699999809265137,3628100
2020-09-10,1.2999999523162842,1.3600000143051147,1.1699999570846558,1.2300000190734863,1.2300000190734863,2079400
2020-09-11,1.2400000095367432,1.2699999809265137,1.1799999475479126,1.2100000381469727,1.2100000381469727,443600
2020-09-14,1.2300000190734863,1.25,1.1330000162124634,1.1799999475479126,1.1799999475479126,1100000
2020-09-15,1.1699999570846558,1.340000033378601,1.1699999570846558,1.2400000095367432,1.2400000095367432,1270000
2020-09-16,1.2200000286102295,1.3700000047683716,1.2200000286102295,1.350000023841858,1.350000023841858,985000
2020-09-17,1.350000023841858,1.5800000429153442,1.350000023841858,1.5499999523162842,1.5499999523162842,2309300
2020-09-18,1.5499999523162842,1.600000023841858,1.4600000381469727,1.5,1.5,3754800
2020-09-21,1.4900000095367432,1.5499999523162842,1.4500000476837158,1.5099999904632568,1.5099999904632568,545800
2020-09-22,1.5399999618530273,1.7899999618530273,1.409999966621399,1.409999966621399,1.409999966621399,1951300
2020-09-23,1.4160000085830688,1.6299999952316284,1.399999976158142,1.5199999809265137,1.5199999809265137,2375400
2020-09-24,1.5,1.5499999523162842,1.399999976158142,1.4199999570846558,1.4199999570846558,1748700
2020-09-25,1.4199999570846558,1.4900000095367432,1.3799999952316284,1.409999966621399,1.409999966621399,463500
2020-09-28,1.4299999475479126,1.5499999523162842,1.4299999475479126,1.440000057220459,1.440000057220459,955500
2020-09-29,1.4500000476837158,1.590000033378601,1.4500000476837158,1.4850000143051147,1.4850000143051147,886000
2020-09-30,1.4800000190734863,1.7200000286102295,1.4700000286102295,1.5,1.5,3448800
2020-10-01,1.5299999713897705,1.5499999523162842,1.4500000476837158,1.5099999904632568,1.5099999904632568,1654700
2020-10-02,1.4600000381469727,1.5,1.399999976158142,1.4600000381469727,1.4600000381469727,651900
2020-10-05,1.5,1.5399999618530273,1.4700000286102295,1.4900000095367432,1.4900000095367432,611800
2020-10-06,1.4800000190734863,1.5099999904632568,1.375,1.409999966621399,1.409999966621399,1055100
2020-10-07,1.399999976158142,1.4500000476837158,1.3899999856948853,1.3899999856948853,1.3899999856948853,473100
2020-10-08,1.399999976158142,1.440000057220459,1.3799999952316284,1.4199999570846558,1.4199999570846558,350300
2020-10-09,1.409999966621399,1.4299999475479126,1.3300000429153442,1.399999976158142,1.399999976158142,506100
2020-10-12,1.440000057220459,1.440000057220459,1.399999976158142,1.399999976158142,1.399999976158142,314300
2020-10-13,1.409999966621399,1.524999976158142,1.399999976158142,1.4700000286102295,1.4700000286102295,1416400
2020-10-14,1.440000057220459,1.4700000286102295,1.3799999952316284,1.3899999856948853,1.3899999856948853,613200
2020-10-15,1.3899999856948853,1.4299999475479126,1.340000033378601,1.3600000143051147,1.3600000143051147,1320800
2020-10-16,1.3799999952316284,1.4199999570846558,1.3600000143051147,1.3600000143051147,1.3600000143051147,656400
2020-10-19,1.399999976158142,1.409999966621399,1.3600000143051147,1.3600000143051147,1.3600000143051147,364700
2020-10-20,1.399999976158142,1.4220000505447388,1.3300000429153442,1.340000033378601,1.340000033378601,734000
2020-10-21,1.3700000047683716,1.3700000047683716,1.2799999713897705,1.2899999618530273,1.2899999618530273,488200
2020-10-22,1.2899999618530273,1.3600000143051147,1.2200000286102295,1.3300000429153442,1.3300000429153442,667400
2020-10-23,1.3200000524520874,1.3650000095367432,1.2999999523162842,1.340000033378601,1.340000033378601,634600
2020-10-26,1.340000033378601,1.3550000190734863,1.25,1.2799999713897705,1.2799999713897705,3454800
2020-10-27,1.2999999523162842,1.3669999837875366,1.25,1.2999999523162842,1.2999999523162842,2789000
2020-10-28,1.2599999904632568,1.2999999523162842,1.2000000476837158,1.2999999523162842,1.2999999523162842,1664600
2020-10-29,1.2699999809265137,1.3600000143051147,1.2200000286102295,1.340000033378601,1.340000033378601,1090800
2020-10-30,1.2999999523162842,1.350000023841858,1.2799999713897705,1.340000033378601,1.340000033378601,449500
2020-11-02,1.2799999713897705,1.2999999523162842,1.2300000190734863,1.25,1.25,205300
2020-11-03,1.2300000190734863,1.2799999713897705,1.2200000286102295,1.2699999809265137,1.2699999809265137,258700
2020-11-04,1.25,1.3200000524520874,1.2410000562667847,1.309999942779541,1.309999942779541,454300
2020-11-05,1.309999942779541,1.309999942779541,1.2400000095367432,1.2599999904632568,1.2599999904632568,488500
2020-11-06,1.2599999904632568,1.2999999523162842,1.2300000190734863,1.2999999523162842,1.2999999523162842,248100
2020-11-09,1.2699999809265137,1.409999966621399,1.25,1.3799999952316284,1.3799999952316284,836000
2020-11-10,1.2599999904632568,1.3300000429153442,1.2400000095367432,1.2699999809265137,1.2699999809265137,731100
2020-11-11,1.2799999713897705,1.3899999856948853,1.2400000095367432,1.350000023841858,1.350000023841858,2502200
2020-11-12,1.350000023841858,1.3899999856948853,1.309999942779541,1.3899999856948853,1.3899999856948853,1227300
2020-11-13,1.3799999952316284,1.690000057220459,1.371999979019165,1.6799999475479126,1.6799999475479126,3752400
2020-11-16,1.649999976158142,1.8899999856948853,1.5299999713897705,1.850000023841858,1.850000023841858,3368800
2020-11-17,1.7599999904632568,1.9199999570846558,1.6699999570846558,1.8300000429153442,1.8300000429153442,1413300
2020-11-18,1.7999999523162842,1.8600000143051147,1.7350000143051147,1.7699999809265137,1.7699999809265137,1061100
2020-11-19,1.7799999713897705,1.7890000343322754,1.5399999618530273,1.649999976158142,1.649999976158142,2017500
2020-11-20,1.6200000047683716,1.6690000295639038,1.5410000085830688,1.5700000524520874,1.5700000524520874,887800
2020-11-23,1.5800000429153442,1.6790000200271606,1.5499999523162842,1.6299999952316284,1.6299999952316284,705100
2020-11-24,1.6399999856948853,1.649999976158142,1.5,1.5299999713897705,1.5299999713897705,755400
2020-11-25,1.5499999523162842,1.6100000143051147,1.5479999780654907,1.559999942779541,1.559999942779541,229100
2020-11-27,1.590000033378601,1.6299999952316284,1.590000033378601,1.6200000047683716,1.6200000047683716,238400
2020-11-30,1.6399999856948853,1.7300000190734863,1.6299999952316284,1.7100000381469727,1.7100000381469727,593100
2020-12-01,1.7300000190734863,1.7999999523162842,1.6269999742507935,1.7000000476837158,1.7000000476837158,1384600
2020-12-02,1.6799999475479126,1.7799999713897705,1.625,1.7300000190734863,1.7300000190734863,628000
2020-12-03,1.7799999713897705,1.7999999523162842,1.7400000095367432,1.75,1.75,644300
2020-12-04,1.7599999904632568,1.7999999523162842,1.7300000190734863,1.7899999618530273,1.7899999618530273,347100
2020-12-07,1.809999942779541,1.8200000524520874,1.659999966621399,1.7200000286102295,1.7200000286102295,824900
2020-12-08,1.75,2.1500000953674316,1.7100000381469727,2.0,2.0,4984900
2020-12-09,2.299999952316284,2.309999942779541,1.899999976158142,2.059999942779541,2.059999942779541,4146300
2020-12-10,1.9900000095367432,2.2799999713897705,1.9800000190734863,2.2200000286102295,2.2200000286102295,2349400
2020-12-11,2.200000047683716,2.2899999618530273,2.0999999046325684,2.25,2.25,11109500
2020-12-14,1.2200000286102295,1.25,1.1299999952316284,1.2000000476837158,1.2000000476837158,19505100
2020-12-15,1.2100000381469727,1.2200000286102295,1.1299999952316284,1.1399999856948853,1.1399999856948853,4932000
2020-12-16,1.0800000429153442,1.0800000429153442,1.0099999904632568,1.0499999523162842,1.0499999523162842,4802200
2020-12-17,1.0399999618530273,1.0499999523162842,1.0099999904632568,1.0299999713897705,1.0299999713897705,2559300
2020-12-18,1.0,1.0299999713897705,1.0,1.0,1.0,2412700
2020-12-21,1.0,1.0800000429153442,1.0,1.0399999618530273,1.0399999618530273,4373200
2020-12-22,1.0499999523162842,1.059999942779541,1.0099999904632568,1.0299999713897705,1.0299999713897705,1869000
2020-12-23,1.0299999713897705,1.1200000047683716,1.0099999904632568,1.059999942779541,1.059999942779541,4000500
2020-12-24,1.090000033378601,1.090000033378601,1.0399999618530273,1.0499999523162842,1.0499999523162842,892900
2020-12-28,1.0499999523162842,1.0700000524520874,1.0099999904632568,1.0199999809265137,1.0199999809265137,1961100
2020-12-29,1.0099999904632568,1.0199999809265137,0.9599999785423279,0.9599999785423279,0.9599999785423279,2083800
2020-12-30,0.9700000286102295,1.0199999809265137,0.9679999947547913,0.9900000095367432,0.9900000095367432,1383100
