Date,Open,High,Low,Close,Adj Close,Volume
2018-06-22,28.0,30.0,25.0,25.0,25.0,3153600
2018-06-25,24.700000762939453,26.950000762939453,24.06999969482422,26.190000534057617,26.190000534057617,478600
2018-06-26,26.510000228881836,27.959999084472656,25.5,27.75,27.75,380000
2018-06-27,27.790000915527344,27.790000915527344,25.344999313354492,26.639999389648438,26.639999389648438,180100
2018-06-28,25.076000213623047,26.809999465942383,25.076000213623047,26.18000030517578,26.18000030517578,186700
2018-06-29,26.239999771118164,26.899999618530273,24.57200050354004,26.790000915527344,26.790000915527344,169300
2018-07-02,26.719999313354492,27.735000610351562,24.770000457763672,25.030000686645508,25.030000686645508,149500
2018-07-03,25.209999084472656,25.406999588012695,23.540000915527344,23.84000015258789,23.84000015258789,102000
2018-07-05,24.0,26.81999969482422,23.860000610351562,26.360000610351562,26.360000610351562,138400
2018-07-06,26.329999923706055,27.38800048828125,25.735000610351562,26.34000015258789,26.34000015258789,113300
2018-07-09,26.81999969482422,26.989999771118164,25.030000686645508,25.979999542236328,25.979999542236328,41600
2018-07-10,25.760000228881836,26.65999984741211,25.735000610351562,25.90999984741211,25.90999984741211,29400
2018-07-11,25.799999237060547,26.239999771118164,22.85099983215332,23.309999465942383,23.309999465942383,153200
2018-07-12,23.5,24.170000076293945,20.8799991607666,21.110000610351562,21.110000610351562,155600
2018-07-13,21.149999618530273,23.450000762939453,20.219999313354492,20.860000610351562,20.860000610351562,280000
2018-07-16,20.489999771118164,23.06999969482422,19.17300033569336,22.75,22.75,359200
2018-07-17,23.399999618530273,24.83099937438965,21.190000534057617,21.770000457763672,21.770000457763672,300800
2018-07-18,21.709999084472656,23.3700008392334,21.709999084472656,22.600000381469727,22.600000381469727,120300
2018-07-19,22.530000686645508,23.459999084472656,21.525999069213867,23.360000610351562,23.360000610351562,67500
2018-07-20,23.09000015258789,25.59000015258789,23.09000015258789,25.200000762939453,25.200000762939453,95100
2018-07-23,25.5,26.75,24.229999542236328,24.90999984741211,24.90999984741211,59100
2018-07-24,25.18000030517578,25.18000030517578,23.25,23.5,23.5,37600
2018-07-25,23.697999954223633,26.100000381469727,23.697999954223633,24.350000381469727,24.350000381469727,178500
2018-07-26,24.25,25.559999465942383,23.65999984741211,24.489999771118164,24.489999771118164,65000
2018-07-27,24.5,24.93000030517578,23.600000381469727,24.209999084472656,24.209999084472656,49400
2018-07-30,24.59000015258789,24.899999618530273,23.15999984741211,23.68000030517578,23.68000030517578,75100
2018-07-31,23.760000228881836,23.89900016784668,22.90999984741211,23.479999542236328,23.479999542236328,54900
2018-08-01,23.459999084472656,24.482999801635742,22.780000686645508,23.360000610351562,23.360000610351562,181600
2018-08-02,23.299999237060547,24.399999618530273,22.250999450683594,23.850000381469727,23.850000381469727,204700
2018-08-03,23.81999969482422,25.951000213623047,23.260000228881836,23.600000381469727,23.600000381469727,50600
2018-08-06,23.100000381469727,24.75,23.100000381469727,24.389999389648438,24.389999389648438,70300
2018-08-07,24.579999923706055,25.969999313354492,24.440000534057617,25.229999542236328,25.229999542236328,38300
2018-08-08,25.23900032043457,25.84000015258789,24.88599967956543,25.280000686645508,25.280000686645508,18200
2018-08-09,25.1200008392334,25.937999725341797,24.84000015258789,24.84000015258789,24.84000015258789,9300
2018-08-10,24.639999389648438,26.899999618530273,24.639999389648438,26.899999618530273,26.899999618530273,30900
2018-08-13,26.899999618530273,28.25,25.559999465942383,27.899999618530273,27.899999618530273,29500
2018-08-14,27.920000076293945,28.479999542236328,26.010000228881836,27.670000076293945,27.670000076293945,38100
2018-08-15,27.610000610351562,28.75,26.729999542236328,28.5,28.5,99500
2018-08-16,28.5,31.849000930786133,27.434999465942383,30.399999618530273,30.399999618530273,21700
2018-08-17,30.200000762939453,32.0,29.562999725341797,30.6299991607666,30.6299991607666,45100
2018-08-20,30.43000030517578,31.475000381469727,29.43000030517578,29.75,29.75,43400
2018-08-21,30.59000015258789,31.9689998626709,29.149999618530273,29.149999618530273,29.149999618530273,12200
2018-08-22,29.459999084472656,30.139999389648438,28.145000457763672,29.600000381469727,29.600000381469727,7900
2018-08-23,30.7450008392334,30.989999771118164,28.469999313354492,28.899999618530273,28.899999618530273,22400
2018-08-24,29.959999084472656,30.93000030517578,28.209999084472656,29.040000915527344,29.040000915527344,11100
2018-08-27,28.850000381469727,29.5,27.805999755859375,29.5,29.5,14200
2018-08-28,28.510000228881836,30.139999389648438,28.510000228881836,29.229999542236328,29.229999542236328,9800
2018-08-29,29.270000457763672,30.024999618530273,28.135000228881836,29.75,29.75,8700
2018-08-30,30.320999145507812,30.441999435424805,28.010000228881836,29.920000076293945,29.920000076293945,9000
2018-08-31,30.922000885009766,30.979999542236328,27.84000015258789,29.700000762939453,29.700000762939453,9000
2018-09-04,29.700000762939453,30.940000534057617,28.5,29.260000228881836,29.260000228881836,29800
2018-09-05,29.299999237060547,30.441999435424805,28.0,29.940000534057617,29.940000534057617,26600
2018-09-06,30.145000457763672,31.729999542236328,28.549999237060547,29.639999389648438,29.639999389648438,102700
2018-09-07,29.200000762939453,33.5,29.200000762939453,31.0,31.0,31300
2018-09-10,32.150001525878906,33.5,31.170000076293945,33.33000183105469,33.33000183105469,15400
2018-09-11,33.099998474121094,33.20000076293945,29.895000457763672,31.25,31.25,37400
2018-09-12,30.649999618530273,30.649999618530273,29.670000076293945,29.729999542236328,29.729999542236328,22800
2018-09-13,29.81999969482422,30.0,28.31999969482422,28.700000762939453,28.700000762939453,25900
2018-09-14,29.030000686645508,31.479999542236328,26.799999237060547,30.0,30.0,129400
2018-09-17,30.0,30.0,28.535999298095703,29.84000015258789,29.84000015258789,2500
2018-09-18,30.0,30.492000579833984,28.840999603271484,29.049999237060547,29.049999237060547,8300
2018-09-19,28.260000228881836,30.5,27.854000091552734,29.440000534057617,29.440000534057617,20700
2018-09-20,28.700000762939453,29.389999389648438,26.6299991607666,28.5,28.5,140400
2018-09-21,27.920000076293945,29.799999237060547,27.341999053955078,29.639999389648438,29.639999389648438,68300
2018-09-24,29.420000076293945,29.420000076293945,26.1299991607666,27.200000762939453,27.200000762939453,85300
2018-09-25,27.200000762939453,27.700000762939453,26.219999313354492,27.25,27.25,151200
2018-09-26,27.469999313354492,27.469999313354492,26.55699920654297,27.100000381469727,27.100000381469727,8300
2018-09-27,28.950000762939453,29.375,27.5,29.030000686645508,29.030000686645508,30900
2018-09-28,29.350000381469727,31.8799991607666,28.670000076293945,30.670000076293945,30.670000076293945,32700
2018-10-01,30.639999389648438,32.0,29.420000076293945,30.639999389648438,30.639999389648438,54300
2018-10-02,30.850000381469727,30.850000381469727,29.5,29.809999465942383,29.809999465942383,49400
2018-10-03,29.850000381469727,30.84000015258789,28.5,28.65999984741211,28.65999984741211,7700
2018-10-04,28.6299991607666,29.722000122070312,23.8700008392334,24.709999084472656,24.709999084472656,58100
2018-10-05,26.295000076293945,28.200000762939453,25.290000915527344,27.5,27.5,104500
2018-10-08,27.760000228881836,30.950000762939453,27.760000228881836,28.639999389648438,28.639999389648438,22500
2018-10-09,28.420000076293945,28.825000762939453,27.0,27.1200008392334,27.1200008392334,28000
2018-10-10,27.139999389648438,28.0,24.600000381469727,24.649999618530273,24.649999618530273,33700
2018-10-11,25.059999465942383,25.5,23.30500030517578,24.209999084472656,24.209999084472656,8200
2018-10-12,25.010000228881836,26.469999313354492,24.209999084472656,25.5,25.5,45300
2018-10-15,25.350000381469727,26.0,24.25,24.889999389648438,24.889999389648438,39300
2018-10-16,24.93000030517578,28.510000228881836,23.670000076293945,28.299999237060547,28.299999237060547,164200
2018-10-17,28.09000015258789,29.489999771118164,27.155000686645508,28.100000381469727,28.100000381469727,28900
2018-10-18,27.809999465942383,31.0,25.84000015258789,31.0,31.0,70500
2018-10-19,31.389999389648438,31.520000457763672,28.90399932861328,31.25,31.25,44000
2018-10-22,31.600000381469727,33.935001373291016,29.165000915527344,32.79999923706055,32.79999923706055,38800
2018-10-23,31.84000015258789,34.220001220703125,29.219999313354492,30.639999389648438,30.639999389648438,39500
2018-10-24,31.25,32.43000030517578,29.209999084472656,29.959999084472656,29.959999084472656,29600
2018-10-25,30.889999389648438,32.5,29.520000457763672,31.100000381469727,31.100000381469727,11300
2018-10-26,31.0,31.0,28.31999969482422,29.0,29.0,85600
2018-10-29,28.15999984741211,32.4900016784668,27.600000381469727,27.649999618530273,27.649999618530273,30200
2018-10-30,28.309999465942383,29.0,27.299999237060547,27.600000381469727,27.600000381469727,41900
2018-10-31,28.100000381469727,29.0,25.100000381469727,28.5,28.5,117000
2018-11-01,29.0,32.5,28.030000686645508,31.5,31.5,51500
2018-11-02,32.0,34.220001220703125,30.6299991607666,31.75,31.75,44200
2018-11-05,32.130001068115234,33.040000915527344,31.139999389648438,31.84000015258789,31.84000015258789,21100
2018-11-06,31.149999618530273,31.149999618530273,28.309999465942383,28.540000915527344,28.540000915527344,14800
2018-11-07,28.850000381469727,32.900001525878906,28.850000381469727,31.200000762939453,31.200000762939453,34000
2018-11-08,31.25,40.97999954223633,29.329999923706055,38.88999938964844,38.88999938964844,50500
2018-11-09,39.4900016784668,53.2400016784668,33.83399963378906,48.0099983215332,48.0099983215332,97000
2018-11-12,46.709999084472656,47.16999816894531,33.79999923706055,35.5,35.5,112300
2018-11-13,35.29999923706055,41.97999954223633,35.29999923706055,39.4900016784668,39.4900016784668,145300
2018-11-14,39.0,39.779998779296875,35.34000015258789,37.0,37.0,75500
2018-11-15,36.56999969482422,37.0,35.08000183105469,35.709999084472656,35.709999084472656,7500
2018-11-16,35.029998779296875,36.81399917602539,32.6349983215332,34.9900016784668,34.9900016784668,73100
2018-11-19,35.36000061035156,38.869998931884766,33.358001708984375,36.79999923706055,36.79999923706055,53000
2018-11-20,36.5099983215332,41.20000076293945,33.0,41.20000076293945,41.20000076293945,94000
2018-11-21,41.20000076293945,49.5,38.44900131225586,45.709999084472656,45.709999084472656,136400
2018-11-23,44.75,48.005001068115234,44.060001373291016,45.0,45.0,64800
2018-11-26,45.65999984741211,45.65999984741211,39.45000076293945,40.880001068115234,40.880001068115234,71000
2018-11-27,40.16999816894531,41.150001525878906,36.220001220703125,37.0,37.0,90000
2018-11-28,37.02000045776367,42.505001068115234,35.56999969482422,39.93000030517578,39.93000030517578,84400
2018-11-29,39.689998626708984,41.38999938964844,35.310001373291016,38.779998779296875,38.779998779296875,50600
2018-11-30,38.709999084472656,40.689998626708984,38.220001220703125,39.02000045776367,39.02000045776367,56200
2018-12-03,37.0,44.95000076293945,31.5,41.18000030517578,41.18000030517578,385200
2018-12-04,40.279998779296875,43.880001068115234,38.810001373291016,42.689998626708984,42.689998626708984,88500
2018-12-06,39.31999969482422,43.849998474121094,38.349998474121094,41.0,41.0,111500
2018-12-07,40.130001068115234,41.025001525878906,35.810001373291016,37.0,37.0,26800
2018-12-10,37.0,37.0,35.0099983215332,36.0099983215332,36.0099983215332,35400
2018-12-11,36.22999954223633,36.77000045776367,33.650001525878906,34.33000183105469,34.33000183105469,33500
2018-12-12,35.43000030517578,37.72999954223633,32.720001220703125,32.720001220703125,32.720001220703125,328800
2018-12-13,32.9900016784668,34.63999938964844,30.61400032043457,31.989999771118164,31.989999771118164,71200
2018-12-14,31.540000915527344,37.2400016784668,30.299999237060547,32.83000183105469,32.83000183105469,123800
2018-12-17,32.47999954223633,35.439998626708984,30.030000686645508,31.34000015258789,31.34000015258789,145600
2018-12-18,31.860000610351562,33.599998474121094,28.260000228881836,30.290000915527344,30.290000915527344,185200
2018-12-19,30.25,33.380001068115234,28.5,29.899999618530273,29.899999618530273,92200
2018-12-20,30.40999984741211,31.084999084472656,27.459999084472656,29.860000610351562,29.860000610351562,103000
2018-12-21,30.049999237060547,31.989999771118164,27.700000762939453,29.1299991607666,29.1299991607666,360100
2018-12-24,28.729999542236328,29.76300048828125,27.700000762939453,28.799999237060547,28.799999237060547,14600
2018-12-26,29.440000534057617,31.899999618530273,29.0,31.25,31.25,94600
2018-12-27,30.510000228881836,30.510000228881836,26.5049991607666,27.760000228881836,27.760000228881836,41600
2018-12-28,28.260000228881836,31.174999237060547,27.2450008392334,30.75,30.75,95500
2018-12-31,31.030000686645508,32.90999984741211,29.889999389648438,32.84000015258789,32.84000015258789,76500
2019-01-02,32.36000061035156,33.70000076293945,30.100000381469727,33.36000061035156,33.36000061035156,108400
2019-01-03,33.349998474121094,34.900001525878906,33.349998474121094,34.34000015258789,34.34000015258789,47700
2019-01-04,35.0,35.84000015258789,33.16999816894531,34.709999084472656,34.709999084472656,63700
2019-01-07,34.560001373291016,35.63999938964844,33.06999969482422,34.369998931884766,34.369998931884766,65800
2019-01-08,34.9900016784668,36.0,33.0099983215332,34.68000030517578,34.68000030517578,150100
2019-01-09,35.0,35.31999969482422,33.88999938964844,34.189998626708984,34.189998626708984,81100
2019-01-10,33.43000030517578,35.0,33.43000030517578,34.029998779296875,34.029998779296875,34000
2019-01-11,33.560001373291016,34.93000030517578,32.560001373291016,33.91999816894531,33.91999816894531,27800
2019-01-14,32.95000076293945,34.56800079345703,31.780000686645508,32.04999923706055,32.04999923706055,33800
2019-01-15,32.099998474121094,33.2400016784668,31.75,32.0,32.0,12500
2019-01-16,32.0,32.0,30.600000381469727,30.8700008392334,30.8700008392334,55600
2019-01-17,30.6299991607666,32.619998931884766,30.059999465942383,31.399999618530273,31.399999618530273,57600
2019-01-18,31.709999084472656,32.470001220703125,30.8700008392334,31.030000686645508,31.030000686645508,158700
2019-01-22,30.56999969482422,32.4900016784668,28.25,28.649999618530273,28.649999618530273,62900
2019-01-23,28.690000534057617,29.469999313354492,25.549999237060547,26.3700008392334,26.3700008392334,35300
2019-01-24,26.56999969482422,27.299999237060547,25.079999923706055,25.450000762939453,25.450000762939453,50000
2019-01-25,25.510000228881836,26.389999389648438,25.0,26.0,26.0,39000
2019-01-28,25.479999542236328,28.5,25.479999542236328,27.350000381469727,27.350000381469727,100600
2019-01-29,29.219999313354492,29.5,27.15999984741211,27.5,27.5,56100
2019-01-30,28.010000228881836,28.040000915527344,25.520000457763672,26.459999084472656,26.459999084472656,35000
2019-01-31,27.18000030517578,27.94300079345703,25.5,26.40999984741211,26.40999984741211,27600
2019-02-01,26.420000076293945,27.774999618530273,25.5,25.510000228881836,25.510000228881836,34000
2019-02-04,25.520000457763672,27.489999771118164,25.520000457763672,27.0,27.0,11700
2019-02-05,26.520000457763672,27.3700008392334,25.399999618530273,26.149999618530273,26.149999618530273,27500
2019-02-06,26.15999984741211,28.469999313354492,26.149999618530273,28.0,28.0,22000
2019-02-07,27.920000076293945,28.450000762939453,26.959999084472656,27.875,27.875,26100
2019-02-08,27.8700008392334,29.190000534057617,27.75,28.770000457763672,28.770000457763672,22300
2019-02-11,29.0,30.979999542236328,28.860000610351562,30.940000534057617,30.940000534057617,29500
2019-02-12,30.93000030517578,32.29399871826172,28.299999237060547,28.899999618530273,28.899999618530273,76100
2019-02-13,29.81800079345703,29.81800079345703,27.40999984741211,29.260000228881836,29.260000228881836,7800
2019-02-14,28.8799991607666,30.0,28.649999618530273,29.450000762939453,29.450000762939453,7600
2019-02-15,29.700000762939453,30.399999618530273,28.520000457763672,29.200000762939453,29.200000762939453,30400
2019-02-19,28.799999237060547,29.280000686645508,27.809999465942383,27.979999542236328,27.979999542236328,13000
2019-02-20,30.440000534057617,30.440000534057617,26.125,27.780000686645508,27.780000686645508,48400
2019-02-21,27.479999542236328,28.969999313354492,26.850000381469727,27.1299991607666,27.1299991607666,24100
2019-02-22,27.1200008392334,28.889999389648438,27.0,28.889999389648438,28.889999389648438,19300
2019-02-25,29.450000762939453,29.55500030517578,27.450000762939453,27.969999313354492,27.969999313354492,35500
2019-02-26,28.299999237060547,28.469999313354492,26.5,27.010000228881836,27.010000228881836,20500
2019-02-27,27.690000534057617,28.489999771118164,27.09000015258789,28.489999771118164,28.489999771118164,14900
2019-02-28,28.5,28.5,26.450000762939453,27.350000381469727,27.350000381469727,16600
2019-03-01,27.940000534057617,28.170000076293945,26.899999618530273,27.649999618530273,27.649999618530273,12300
2019-03-04,28.104999542236328,28.469999313354492,26.75,27.329999923706055,27.329999923706055,19300
2019-03-05,27.200000762939453,28.530000686645508,27.0,28.010000228881836,28.010000228881836,16500
2019-03-06,27.684999465942383,28.795000076293945,27.360000610351562,27.549999237060547,27.549999237060547,59000
2019-03-07,27.559999465942383,29.469999313354492,27.559999465942383,28.579999923706055,28.579999923706055,24500
2019-03-08,28.899999618530273,29.040000915527344,26.989999771118164,27.059999465942383,27.059999465942383,27000
2019-03-11,27.459999084472656,28.48699951171875,24.739999771118164,25.90999984741211,25.90999984741211,120200
2019-03-12,25.899999618530273,26.479999542236328,23.6200008392334,24.770000457763672,24.770000457763672,122500
2019-03-13,25.290000915527344,25.889999389648438,24.799999237060547,25.530000686645508,25.530000686645508,177600
2019-03-14,25.25,25.309999465942383,23.7549991607666,24.90999984741211,24.90999984741211,14400
2019-03-15,24.90999984741211,26.75,24.700000762939453,24.700000762939453,24.700000762939453,73600
2019-03-18,25.08799934387207,25.979999542236328,24.5,24.75,24.75,13600
2019-03-19,24.75,25.8439998626709,24.75,24.950000762939453,24.950000762939453,29500
2019-03-20,25.149999618530273,25.30900001525879,24.239999771118164,24.399999618530273,24.399999618530273,9600
2019-03-21,24.636999130249023,26.0,24.399999618530273,25.190000534057617,25.190000534057617,135900
2019-03-22,25.200000762939453,25.469999313354492,24.200000762939453,24.3799991607666,24.3799991607666,27300
2019-03-25,24.690000534057617,24.889999389648438,24.05500030517578,24.459999084472656,24.459999084472656,18200
2019-03-26,24.75,26.8700008392334,24.559999465942383,26.389999389648438,26.389999389648438,222200
2019-03-27,26.84000015258789,28.56999969482422,25.885000228881836,27.739999771118164,27.739999771118164,238700
2019-03-28,28.190000534057617,31.020000457763672,27.55500030517578,30.239999771118164,30.239999771118164,292000
2019-03-29,30.68000030517578,32.79999923706055,29.760000228881836,31.469999313354492,31.469999313354492,225700
2019-04-01,31.010000228881836,32.84400177001953,30.170000076293945,30.299999237060547,30.299999237060547,36200
2019-04-02,30.829999923706055,31.309999465942383,29.799999237060547,29.81999969482422,29.81999969482422,23100
2019-04-03,30.559999465942383,31.165000915527344,30.450000762939453,30.799999237060547,30.799999237060547,19400
2019-04-04,30.479999542236328,31.18000030517578,30.0049991607666,30.959999084472656,30.959999084472656,18800
2019-04-05,31.360000610351562,32.52000045776367,29.78499984741211,31.020000457763672,31.020000457763672,59600
2019-04-08,31.399999618530273,31.59000015258789,29.68000030517578,31.25,31.25,27400
2019-04-09,28.709999084472656,29.5,26.5,26.75,26.75,83700
2019-04-10,27.219999313354492,27.219999313354492,23.809999465942383,24.299999237060547,24.299999237060547,224200
2019-04-11,26.65999984741211,26.709999084472656,25.149999618530273,25.649999618530273,25.649999618530273,810000
2019-04-12,25.350000381469727,26.41699981689453,25.350000381469727,26.1200008392334,26.1200008392334,138600
2019-04-15,26.020000457763672,28.5,25.200000762939453,28.0,28.0,154400
2019-04-16,28.200000762939453,29.229999542236328,26.770000457763672,26.899999618530273,26.899999618530273,182100
2019-04-17,26.31999969482422,26.950000762939453,25.59000015258789,25.729999542236328,25.729999542236328,171300
2019-04-18,25.760000228881836,28.0,24.670000076293945,26.3700008392334,26.3700008392334,323100
2019-04-22,26.3799991607666,27.25,25.719999313354492,26.34000015258789,26.34000015258789,23300
2019-04-23,26.530000686645508,27.865999221801758,25.81999969482422,25.969999313354492,25.969999313354492,37700
2019-04-24,27.0,27.520000457763672,25.829999923706055,26.68000030517578,26.68000030517578,32000
2019-04-25,27.010000228881836,27.31100082397461,25.924999237060547,26.280000686645508,26.280000686645508,78000
2019-04-26,26.389999389648438,26.920000076293945,26.334999084472656,26.889999389648438,26.889999389648438,15600
2019-04-29,26.850000381469727,27.298999786376953,26.399999618530273,26.579999923706055,26.579999923706055,10700
2019-04-30,26.43000030517578,26.510000228881836,25.5939998626709,26.18000030517578,26.18000030517578,286500
2019-05-01,26.3700008392334,27.969999313354492,26.360000610351562,27.559999465942383,27.559999465942383,27500
2019-05-02,27.229999542236328,27.81999969482422,25.559999465942383,26.09000015258789,26.09000015258789,175500
2019-05-03,26.110000610351562,26.829999923706055,24.600000381469727,24.700000762939453,24.700000762939453,77500
2019-05-06,24.59000015258789,25.06999969482422,24.399999618530273,24.8700008392334,24.8700008392334,29500
2019-05-07,24.559999465942383,25.899999618530273,24.559999465942383,25.290000915527344,25.290000915527344,50000
2019-05-08,25.0,25.0,22.510000228881836,23.25,23.25,47000
2019-05-09,23.0,23.329999923706055,20.600000381469727,22.030000686645508,22.030000686645508,69400
2019-05-10,21.770000457763672,23.868000030517578,21.15999984741211,23.190000534057617,23.190000534057617,266100
2019-05-13,22.889999389648438,24.277999877929688,22.0,22.389999389648438,22.389999389648438,38200
2019-05-14,22.0,24.290000915527344,22.0,23.84000015258789,23.84000015258789,73500
2019-05-15,23.579999923706055,25.0,22.500999450683594,23.899999618530273,23.899999618530273,95900
2019-05-16,23.940000534057617,24.239999771118164,22.93000030517578,23.040000915527344,23.040000915527344,46800
2019-05-17,23.0,23.799999237060547,22.149999618530273,22.59000015258789,22.59000015258789,31000
2019-05-20,22.649999618530273,23.514999389648438,21.530000686645508,22.010000228881836,22.010000228881836,55700
2019-05-21,22.450000762939453,22.625,20.81999969482422,21.979999542236328,21.979999542236328,79300
2019-05-22,21.920000076293945,23.270000457763672,20.30299949645996,21.760000228881836,21.760000228881836,412500
2019-05-23,21.68000030517578,22.770000457763672,20.709999084472656,20.760000228881836,20.760000228881836,46800
2019-05-24,20.81999969482422,21.899999618530273,20.635000228881836,21.079999923706055,21.079999923706055,57400
2019-05-28,20.889999389648438,21.9950008392334,20.59000015258789,21.860000610351562,21.860000610351562,60000
2019-05-29,21.84000015258789,22.325000762939453,20.28499984741211,20.549999237060547,20.549999237060547,54600
2019-05-30,20.600000381469727,21.6200008392334,20.479999542236328,21.149999618530273,21.149999618530273,71700
2019-05-31,20.799999237060547,21.3700008392334,20.1200008392334,20.6299991607666,20.6299991607666,66900
2019-06-03,20.850000381469727,20.850000381469727,18.68000030517578,19.190000534057617,19.190000534057617,63200
2019-06-04,19.139999389648438,19.139999389648438,15.100000381469727,16.799999237060547,16.799999237060547,260700
2019-06-05,16.850000381469727,17.0,16.18000030517578,16.690000534057617,16.690000534057617,192600
2019-06-06,17.200000762939453,18.09000015258789,15.970000267028809,16.559999465942383,16.559999465942383,98600
2019-06-07,16.84000015258789,17.25,15.470000267028809,15.930000305175781,15.930000305175781,178200
2019-06-10,16.559999465942383,17.645000457763672,15.100000381469727,15.529999732971191,15.529999732971191,298900
2019-06-11,15.479999542236328,16.18000030517578,15.069999694824219,15.899999618530273,15.899999618530273,122700
2019-06-12,16.25,18.389999389648438,15.539999961853027,16.0,16.0,85200
2019-06-13,16.049999237060547,16.559999465942383,15.699999809265137,16.059999465942383,16.059999465942383,87100
2019-06-14,16.0,16.209999084472656,15.40999984741211,15.40999984741211,15.40999984741211,80900
2019-06-17,15.649999618530273,16.020000457763672,15.09000015258789,15.859999656677246,15.859999656677246,317400
2019-06-18,16.18000030517578,17.34000015258789,15.90999984741211,17.200000762939453,17.200000762939453,245200
2019-06-19,17.280000686645508,17.280000686645508,15.920000076293945,16.639999389648438,16.639999389648438,104600
2019-06-20,16.639999389648438,17.135000228881836,16.399999618530273,16.700000762939453,16.700000762939453,164900
2019-06-21,16.469999313354492,17.079999923706055,15.960000038146973,16.31999969482422,16.31999969482422,191300
2019-06-24,16.25,16.290000915527344,15.324999809265137,15.930000305175781,15.930000305175781,100500
2019-06-25,15.970000267028809,16.545000076293945,15.729999542236328,15.899999618530273,15.899999618530273,57400
2019-06-26,15.960000038146973,16.200000762939453,14.810999870300293,15.100000381469727,15.100000381469727,75300
2019-06-27,15.399999618530273,15.84000015258789,14.800000190734863,15.529999732971191,15.529999732971191,89000
2019-06-28,15.640000343322754,16.709999084472656,15.28600025177002,16.100000381469727,16.100000381469727,78100
2019-07-01,16.459999084472656,17.299999237060547,16.0,16.520000457763672,16.520000457763672,192700
2019-07-02,16.450000762939453,16.899999618530273,15.550000190734863,16.06999969482422,16.06999969482422,116700
2019-07-03,16.059999465942383,16.56999969482422,15.359999656677246,16.329999923706055,16.329999923706055,53200
2019-07-05,16.489999771118164,17.079999923706055,16.09000015258789,16.540000915527344,16.540000915527344,71400
2019-07-08,16.690000534057617,16.690000534057617,15.210000038146973,16.079999923706055,16.079999923706055,112800
2019-07-09,15.850000381469727,19.34000015258789,15.520000457763672,16.719999313354492,16.719999313354492,428600
2019-07-10,16.8799991607666,16.8799991607666,15.600000381469727,16.09000015258789,16.09000015258789,309100
2019-07-11,16.459999084472656,16.459999084472656,15.609999656677246,15.979999542236328,15.979999542236328,69700
2019-07-12,15.819999694824219,16.239999771118164,15.350000381469727,16.010000228881836,16.010000228881836,66200
2019-07-15,16.18000030517578,16.280000686645508,15.34000015258789,16.100000381469727,16.100000381469727,51900
2019-07-16,16.030000686645508,16.96500015258789,15.720000267028809,15.949999809265137,15.949999809265137,228400
2019-07-17,15.819999694824219,16.195999145507812,15.640000343322754,15.90999984741211,15.90999984741211,118200
2019-07-18,15.8100004196167,16.141000747680664,15.380000114440918,15.710000038146973,15.710000038146973,73000
2019-07-19,15.770000457763672,15.90999984741211,14.571000099182129,15.239999771118164,15.239999771118164,59800
2019-07-22,15.40999984741211,15.413000106811523,14.229999542236328,14.479999542236328,14.479999542236328,59100
2019-07-23,14.470000267028809,14.470000267028809,13.25,13.550000190734863,13.550000190734863,148300
2019-07-24,13.680000305175781,13.800000190734863,12.699999809265137,13.130000114440918,13.130000114440918,260700
2019-07-25,13.1899995803833,14.170000076293945,12.90999984741211,13.5,13.5,80500
2019-07-26,13.420000076293945,13.920000076293945,13.420000076293945,13.75,13.75,22700
2019-07-29,13.6899995803833,15.819999694824219,13.6899995803833,15.380000114440918,15.380000114440918,128900
2019-07-30,15.640000343322754,15.979999542236328,15.109999656677246,15.789999961853027,15.789999961853027,144500
2019-07-31,15.930000305175781,16.010000228881836,14.789999961853027,15.420000076293945,15.420000076293945,85300
2019-08-01,15.65999984741211,15.800000190734863,14.279999732971191,14.979999542236328,14.979999542236328,82500
2019-08-02,15.149999618530273,16.0,14.050000190734863,14.949999809265137,14.949999809265137,81900
2019-08-05,14.5600004196167,14.5600004196167,13.390000343322754,14.119999885559082,14.119999885559082,67700
2019-08-06,14.010000228881836,15.119999885559082,13.890000343322754,14.699999809265137,14.699999809265137,45400
2019-08-07,14.710000038146973,15.130000114440918,14.399999618530273,14.829999923706055,14.829999923706055,71400
2019-08-08,15.359999656677246,15.359999656677246,12.505000114440918,13.029999732971191,13.029999732971191,122700
2019-08-09,12.729999542236328,13.199999809265137,10.755000114440918,11.329999923706055,11.329999923706055,281300
2019-08-12,11.050000190734863,11.119000434875488,9.704999923706055,9.789999961853027,9.789999961853027,181900
2019-08-13,9.529999732971191,10.380000114440918,9.529999732971191,10.029999732971191,10.029999732971191,146300
2019-08-14,10.210000038146973,10.760000228881836,9.90999984741211,10.539999961853027,10.539999961853027,212700
2019-08-15,10.420000076293945,10.859000205993652,10.020000457763672,10.020000457763672,10.020000457763672,100300
2019-08-16,9.970000267028809,10.199999809265137,9.604999542236328,9.90999984741211,9.90999984741211,143300
2019-08-19,10.050000190734863,11.055000305175781,9.630000114440918,10.850000381469727,10.850000381469727,554900
2019-08-20,10.6899995803833,11.229999542236328,10.619999885559082,10.770000457763672,10.770000457763672,163300
2019-08-21,10.729999542236328,11.119999885559082,10.630000114440918,10.9399995803833,10.9399995803833,48800
2019-08-22,10.960000038146973,11.380000114440918,10.460000038146973,10.609999656677246,10.609999656677246,254100
2019-08-23,10.569999694824219,11.050000190734863,10.3100004196167,10.5,10.5,770500
2019-08-26,10.670000076293945,10.890000343322754,10.345000267028809,10.520000457763672,10.520000457763672,841400
2019-08-27,10.609999656677246,11.75,9.880000114440918,10.989999771118164,10.989999771118164,683700
2019-08-28,10.649999618530273,11.260000228881836,10.300000190734863,10.40999984741211,10.40999984741211,462700
2019-08-29,10.5,10.75,9.899999618530273,10.25,10.25,69300
2019-08-30,10.25,10.508000373840332,9.899999618530273,10.350000381469727,10.350000381469727,62800
2019-09-03,10.350000381469727,12.1899995803833,9.800000190734863,9.960000038146973,9.960000038146973,191800
2019-09-04,9.920000076293945,10.119999885559082,9.5,9.800000190734863,9.800000190734863,216300
2019-09-05,9.920000076293945,12.09000015258789,9.800000190734863,11.930000305175781,11.930000305175781,7777100
2019-09-06,12.09000015258789,16.93000030517578,12.0,14.09000015258789,14.09000015258789,1493100
2019-09-09,13.829999923706055,14.449999809265137,12.640000343322754,14.319999694824219,14.319999694824219,207500
2019-09-10,13.989999771118164,14.100000381469727,13.170000076293945,13.199999809265137,13.199999809265137,201000
2019-09-11,13.300000190734863,13.5,11.869999885559082,12.289999961853027,12.289999961853027,178700
2019-09-12,12.399999618530273,12.5,11.979999542236328,12.399999618530273,12.399999618530273,108600
2019-09-13,12.850000381469727,15.300000190734863,12.850000381469727,13.5,13.5,292800
2019-09-16,12.949999809265137,13.760000228881836,12.75,13.609999656677246,13.609999656677246,101100
2019-09-17,13.59000015258789,13.979999542236328,12.40999984741211,12.600000381469727,12.600000381469727,106300
2019-09-18,12.609999656677246,13.84000015258789,12.020000457763672,12.5,12.5,101200
2019-09-19,12.670000076293945,12.869999885559082,12.3100004196167,12.579999923706055,12.579999923706055,63700
2019-09-20,12.710000038146973,13.345999717712402,12.50100040435791,13.09000015258789,13.09000015258789,137100
2019-09-23,13.640000343322754,13.720000267028809,12.779999732971191,13.069999694824219,13.069999694824219,92600
2019-09-24,13.010000228881836,13.407999992370605,12.574999809265137,13.149999618530273,13.149999618530273,112100
2019-09-25,13.140000343322754,13.34000015258789,12.609999656677246,12.75,12.75,203600
2019-09-26,12.829999923706055,12.90999984741211,11.630000114440918,11.9399995803833,11.9399995803833,116700
2019-09-27,12.010000228881836,12.595000267028809,11.649999618530273,12.0,12.0,100100
2019-09-30,12.100000381469727,12.800000190734863,11.720999717712402,12.420000076293945,12.420000076293945,68400
2019-10-01,12.539999961853027,12.539999961853027,11.649999618530273,11.779999732971191,11.779999732971191,76400
2019-10-02,11.670000076293945,12.020000457763672,11.109999656677246,11.890000343322754,11.890000343322754,99500
2019-10-03,11.84000015258789,12.850000381469727,11.600000381469727,12.25,12.25,74300
2019-10-04,12.3100004196167,12.3100004196167,11.680000305175781,12.0600004196167,12.0600004196167,38200
2019-10-07,12.140000343322754,12.489999771118164,11.859999656677246,12.350000381469727,12.350000381469727,77900
2019-10-08,12.300000190734863,12.369999885559082,11.789999961853027,11.850000381469727,11.850000381469727,61400
2019-10-09,11.850000381469727,12.770999908447266,11.5,12.380000114440918,12.380000114440918,157200
2019-10-10,12.229999542236328,12.723999977111816,11.914999961853027,12.680000305175781,12.680000305175781,88800
2019-10-11,12.819999694824219,12.920000076293945,11.930000305175781,12.4399995803833,12.4399995803833,45300
2019-10-14,12.34000015258789,12.720000267028809,11.951000213623047,12.15999984741211,12.15999984741211,132300
2019-10-15,12.260000228881836,12.414999961853027,11.96500015258789,12.130000114440918,12.130000114440918,47700
2019-10-16,12.140000343322754,12.390000343322754,11.59000015258789,11.770000457763672,11.770000457763672,59100
2019-10-17,11.979999542236328,13.289999961853027,11.979999542236328,12.920000076293945,12.920000076293945,94400
2019-10-18,12.949999809265137,13.100000381469727,12.149999618530273,12.3100004196167,12.3100004196167,32000
2019-10-21,12.319999694824219,12.920000076293945,12.100000381469727,12.739999771118164,12.739999771118164,54100
2019-10-22,12.760000228881836,13.829999923706055,12.600000381469727,12.880000114440918,12.880000114440918,101400
2019-10-23,13.020000457763672,13.239999771118164,12.420000076293945,12.5,12.5,51400
2019-10-24,12.380000114440918,13.800000190734863,12.380000114440918,13.520000457763672,13.520000457763672,124200
2019-10-25,13.630000114440918,14.25,13.149999618530273,13.40999984741211,13.40999984741211,64100
2019-10-28,13.350000381469727,13.609999656677246,12.600000381469727,12.640000343322754,12.640000343322754,43500
2019-10-29,12.529999732971191,12.789999961853027,12.3100004196167,12.460000038146973,12.460000038146973,77900
2019-10-30,12.319999694824219,12.600000381469727,11.829999923706055,12.010000228881836,12.010000228881836,79400
2019-10-31,12.130000114440918,12.25,11.829999923706055,11.970000267028809,11.970000267028809,217300
2019-11-01,12.100000381469727,12.720000267028809,11.979999542236328,12.65999984741211,12.65999984741211,139800
2019-11-04,12.789999961853027,13.140000343322754,12.529999732971191,12.90999984741211,12.90999984741211,43300
2019-11-05,13.199999809265137,14.815999984741211,13.199999809265137,14.289999961853027,14.289999961853027,77900
2019-11-06,14.289999961853027,14.289999961853027,12.960000038146973,13.039999961853027,13.039999961853027,67800
2019-11-07,13.09000015258789,13.479999542236328,12.039999961853027,12.390000343322754,12.390000343322754,76000
2019-11-08,12.359999656677246,12.630000114440918,11.850000381469727,12.050000190734863,12.050000190734863,35700
2019-11-11,12.430000305175781,12.430000305175781,11.899999618530273,12.239999771118164,12.239999771118164,182300
2019-11-12,12.239999771118164,12.800000190734863,11.359999656677246,11.5,11.5,100200
2019-11-13,11.399999618530273,11.850000381469727,10.829999923706055,11.130000114440918,11.130000114440918,94500
2019-11-14,11.130000114440918,11.470000267028809,10.850000381469727,11.170000076293945,11.170000076293945,48600
2019-11-15,11.3100004196167,12.09000015258789,11.279999732971191,11.789999961853027,11.789999961853027,83800
2019-11-18,11.774999618530273,12.541999816894531,11.626999855041504,11.920000076293945,11.920000076293945,166000
2019-11-19,12.199999809265137,12.920000076293945,12.199999809265137,12.6899995803833,12.6899995803833,78800
2019-11-20,12.859999656677246,14.789999961853027,12.859999656677246,13.800000190734863,13.800000190734863,147800
2019-11-21,14.1899995803833,14.1899995803833,13.270000457763672,13.430000305175781,13.430000305175781,86100
2019-11-22,13.350000381469727,14.0600004196167,12.600000381469727,12.90999984741211,12.90999984741211,39300
2019-11-25,12.850000381469727,13.833000183105469,12.850000381469727,13.539999961853027,13.539999961853027,67000
2019-11-26,13.880000114440918,14.210000038146973,13.5,13.90999984741211,13.90999984741211,55200
2019-11-27,13.920000076293945,14.519000053405762,13.630000114440918,14.289999961853027,14.289999961853027,47400
2019-11-29,14.300000190734863,15.270000457763672,14.300000190734863,15.0,15.0,43300
2019-12-02,15.850000381469727,16.3799991607666,14.670000076293945,16.280000686645508,16.280000686645508,189600
2019-12-03,16.06999969482422,16.75,15.779999732971191,16.190000534057617,16.190000534057617,122100
2019-12-04,16.600000381469727,16.8700008392334,15.010000228881836,15.920000076293945,15.920000076293945,136600
2019-12-05,15.829999923706055,16.200000762939453,14.520000457763672,14.779999732971191,14.779999732971191,128400
2019-12-06,14.630000114440918,15.59000015258789,14.5600004196167,14.739999771118164,14.739999771118164,331200
2019-12-09,16.8799991607666,16.889999389648438,15.0,15.6899995803833,15.6899995803833,157800
2019-12-10,15.350000381469727,15.960000038146973,14.779999732971191,15.0,15.0,151100
2019-12-11,14.84000015258789,15.079999923706055,13.6899995803833,13.710000038146973,13.710000038146973,288900
2019-12-12,13.829999923706055,13.859999656677246,12.710000038146973,13.0,13.0,221500
2019-12-13,12.890000343322754,13.270000457763672,12.279999732971191,12.649999618530273,12.649999618530273,172200
2019-12-16,12.800000190734863,13.005000114440918,11.789999961853027,12.09000015258789,12.09000015258789,493900
2019-12-17,12.149999618530273,13.5,11.949999809265137,13.5,13.5,233800
2019-12-18,13.520000457763672,13.994000434875488,13.100000381469727,13.600000381469727,13.600000381469727,155100
2019-12-19,13.520000457763672,13.890000343322754,13.0600004196167,13.119999885559082,13.119999885559082,100500
2019-12-20,13.1899995803833,13.23799991607666,12.529999732971191,12.789999961853027,12.789999961853027,167900
2019-12-23,12.789999961853027,13.789999961853027,12.319999694824219,13.5600004196167,13.5600004196167,94000
2019-12-24,13.600000381469727,14.319999694824219,13.119999885559082,14.270000457763672,14.270000457763672,42600
2019-12-26,14.3100004196167,14.670000076293945,13.850000381469727,14.1899995803833,14.1899995803833,66600
2019-12-27,14.15999984741211,14.260000228881836,13.520000457763672,13.609999656677246,13.609999656677246,112500
2019-12-30,13.609999656677246,14.1899995803833,13.539999961853027,14.09000015258789,14.09000015258789,134200
2019-12-31,14.010000228881836,14.289999961853027,13.0600004196167,13.199999809265137,13.199999809265137,117400
2020-01-02,13.100000381469727,13.770000457763672,12.5,12.960000038146973,12.960000038146973,55400
2020-01-03,12.859999656677246,13.114999771118164,12.569999694824219,12.90999984741211,12.90999984741211,110800
2020-01-06,12.75,13.100000381469727,12.628000259399414,12.9399995803833,12.9399995803833,82200
2020-01-07,12.930000305175781,13.199999809265137,12.8100004196167,12.989999771118164,12.989999771118164,71500
2020-01-08,12.84000015258789,13.194000244140625,12.729999542236328,13.0,13.0,111700
2020-01-09,12.9399995803833,13.199999809265137,12.850000381469727,12.850000381469727,12.850000381469727,64700
2020-01-10,12.779999732971191,13.239999771118164,12.5,12.5600004196167,12.5600004196167,109300
2020-01-13,12.5600004196167,12.949999809265137,12.199999809265137,12.59000015258789,12.59000015258789,70800
2020-01-14,12.510000228881836,13.100000381469727,12.470000267028809,12.699999809265137,12.699999809265137,108900
2020-01-15,12.609999656677246,13.0,12.600000381469727,12.720000267028809,12.720000267028809,83100
2020-01-16,12.6899995803833,13.119999885559082,12.670000076293945,12.850000381469727,12.850000381469727,112100
2020-01-17,12.859999656677246,13.079999923706055,12.40999984741211,12.550000190734863,12.550000190734863,113600
2020-01-21,12.5600004196167,12.90999984741211,12.270000457763672,12.84000015258789,12.84000015258789,73800
2020-01-22,12.90999984741211,12.970000267028809,12.369999885559082,12.470000267028809,12.470000267028809,61500
2020-01-23,10.0,10.460000038146973,9.699999809265137,9.989999771118164,9.989999771118164,1870500
2020-01-24,10.0,10.140000343322754,9.449999809265137,9.760000228881836,9.760000228881836,578000
2020-01-27,9.600000381469727,10.369999885559082,9.399999618530273,10.180000305175781,10.180000305175781,398800
2020-01-28,10.149999618530273,10.4399995803833,10.0,10.069999694824219,10.069999694824219,193600
2020-01-29,10.010000228881836,10.395000457763672,9.760000228881836,10.25,10.25,211500
2020-01-30,10.5,10.569999694824219,9.75,9.949999809265137,9.949999809265137,337800
2020-01-31,10.0,10.095000267028809,9.600000381469727,9.819999694824219,9.819999694824219,199600
2020-02-03,9.880000114440918,10.229999542236328,9.640000343322754,9.720000267028809,9.720000267028809,176700
2020-02-04,9.84000015258789,9.9399995803833,9.649999618530273,9.65999984741211,9.65999984741211,166000
2020-02-05,9.739999771118164,9.930000305175781,9.65999984741211,9.800000190734863,9.800000190734863,195500
2020-02-06,9.75,10.140000343322754,9.6899995803833,9.850000381469727,9.850000381469727,162800
2020-02-07,9.800000190734863,9.989999771118164,9.5,9.800000190734863,9.800000190734863,139900
2020-02-10,9.729999542236328,10.020000457763672,9.710000038146973,9.960000038146973,9.960000038146973,110700
2020-02-11,9.989999771118164,10.600000381469727,9.800000190734863,10.199999809265137,10.199999809265137,167600
2020-02-12,10.329999923706055,10.359999656677246,9.9399995803833,10.0,10.0,160900
2020-02-13,10.020000457763672,10.59000015258789,9.930000305175781,10.489999771118164,10.489999771118164,242400
2020-02-14,10.609999656677246,11.1899995803833,10.510000228881836,11.180000305175781,11.180000305175781,191000
2020-02-18,11.149999618530273,11.230999946594238,10.109999656677246,10.210000038146973,10.210000038146973,138300
2020-02-19,10.260000228881836,10.555999755859375,9.800000190734863,10.329999923706055,10.329999923706055,140700
2020-02-20,10.4399995803833,10.800000190734863,10.279999732971191,10.539999961853027,10.539999961853027,106700
2020-02-21,10.539999961853027,10.65999984741211,10.229999542236328,10.470000267028809,10.470000267028809,105400
2020-02-24,10.199999809265137,10.350000381469727,9.800000190734863,9.920000076293945,9.920000076293945,185500
2020-02-25,9.920000076293945,10.0,9.079999923706055,9.119999885559082,9.119999885559082,222400
2020-02-26,9.220000267028809,9.600000381469727,9.119999885559082,9.289999961853027,9.289999961853027,69700
2020-02-27,9.289999961853027,9.289999961853027,8.550000190734863,8.600000381469727,8.600000381469727,175800
2020-02-28,8.4399995803833,8.640000343322754,8.119999885559082,8.180000305175781,8.180000305175781,134000
2020-03-02,8.300000190734863,8.520000457763672,7.820000171661377,8.399999618530273,8.399999618530273,195800
2020-03-03,8.649999618530273,9.619999885559082,8.399999618530273,8.90999984741211,8.90999984741211,330700
2020-03-04,9.069999694824219,9.380000114440918,8.899999618530273,9.289999961853027,9.289999961853027,98900
2020-03-05,9.069999694824219,9.210000038146973,8.800000190734863,8.8100004196167,8.8100004196167,99100
2020-03-06,8.710000038146973,8.8100004196167,8.220000267028809,8.25,8.25,122900
2020-03-09,7.730000019073486,7.809999942779541,7.239999771118164,7.340000152587891,7.340000152587891,214900
2020-03-10,7.460000038146973,7.764999866485596,7.179999828338623,7.239999771118164,7.239999771118164,224800
2020-03-11,7.03000020980835,7.565000057220459,6.610000133514404,6.769999980926514,6.769999980926514,165300
2020-03-12,6.329999923706055,6.480000019073486,5.260000228881836,5.360000133514404,5.360000133514404,254300
2020-03-13,5.519999980926514,5.869999885559082,5.369999885559082,5.550000190734863,5.550000190734863,200900
2020-03-16,3.0,5.170000076293945,3.0,5.110000133514404,5.110000133514404,184600
2020-03-17,5.190000057220459,5.590000152587891,4.508999824523926,5.260000228881836,5.260000228881836,168900
2020-03-18,4.960000038146973,5.139999866485596,3.799999952316284,4.199999809265137,4.199999809265137,190300
2020-03-19,4.25,4.929999828338623,4.25,4.909999847412109,4.909999847412109,161900
2020-03-20,4.989999771118164,5.489999771118164,4.409999847412109,4.489999771118164,4.489999771118164,171200
2020-03-23,4.590000152587891,4.815000057220459,4.048999786376953,4.429999828338623,4.429999828338623,52300
2020-03-24,4.570000171661377,4.699999809265137,4.21999979019165,4.480000019073486,4.480000019073486,476500
2020-03-25,4.0,5.545000076293945,4.0,5.320000171661377,5.320000171661377,155100
2020-03-26,5.320000171661377,5.730000019073486,5.25,5.619999885559082,5.619999885559082,124700
2020-03-27,5.239999771118164,5.730000019073486,4.570000171661377,5.440000057220459,5.440000057220459,81600
2020-03-30,5.230000019073486,5.760000228881836,5.230000019073486,5.630000114440918,5.630000114440918,88300
2020-03-31,5.559999942779541,5.989999771118164,5.360000133514404,5.989999771118164,5.989999771118164,187900
2020-04-01,5.53000020980835,5.789999961853027,5.329999923706055,5.420000076293945,5.420000076293945,171200
2020-04-02,5.420000076293945,5.619999885559082,5.050000190734863,5.429999828338623,5.429999828338623,62700
2020-04-03,5.329999923706055,5.75,5.190000057220459,5.380000114440918,5.380000114440918,71500
2020-04-06,6.019999980926514,6.5,5.699999809265137,6.349999904632568,6.349999904632568,156200
2020-04-07,6.769999980926514,7.210000038146973,6.389999866485596,6.550000190734863,6.550000190734863,97400
2020-04-08,6.739999771118164,7.070000171661377,6.590000152587891,7.070000171661377,7.070000171661377,71600
2020-04-09,7.329999923706055,8.149999618530273,7.090000152587891,7.989999771118164,7.989999771118164,231800
2020-04-13,7.980000019073486,8.869999885559082,7.550000190734863,7.739999771118164,7.739999771118164,150400
2020-04-14,7.96999979019165,8.40999984741211,7.90500020980835,8.180000305175781,8.180000305175781,109300
2020-04-15,8.050000190734863,8.479999542236328,7.829999923706055,8.319999694824219,8.319999694824219,81600
2020-04-16,8.479999542236328,8.760000228881836,8.170000076293945,8.680000305175781,8.680000305175781,72900
2020-04-17,8.989999771118164,9.380000114440918,8.75,9.279999732971191,9.279999732971191,126600
2020-04-20,9.180000305175781,11.140000343322754,9.026000022888184,9.199999809265137,9.199999809265137,458900
2020-04-21,9.050000190734863,9.609999656677246,8.789999961853027,9.460000038146973,9.460000038146973,117000
2020-04-22,10.770000457763672,10.770000457763672,9.692999839782715,9.899999618530273,9.899999618530273,139000
2020-04-23,9.84000015258789,10.239999771118164,9.770000457763672,9.949999809265137,9.949999809265137,117300
2020-04-24,9.949999809265137,10.399999618530273,9.869999885559082,10.239999771118164,10.239999771118164,60300
2020-04-27,10.399999618530273,10.619999885559082,9.739999771118164,9.989999771118164,9.989999771118164,134200
2020-04-28,10.1899995803833,10.710000038146973,9.899999618530273,10.140000343322754,10.140000343322754,62100
2020-04-29,10.300000190734863,10.319999694824219,9.75,9.899999618530273,9.899999618530273,66500
2020-04-30,9.789999961853027,9.869999885559082,9.199999809265137,9.420000076293945,9.420000076293945,70600
2020-05-01,9.119999885559082,9.319999694824219,8.609999656677246,9.0,9.0,146900
2020-05-04,8.979999542236328,9.920000076293945,8.78499984741211,9.850000381469727,9.850000381469727,95700
2020-05-05,9.949999809265137,10.020000457763672,9.75,9.869999885559082,9.869999885559082,66300
2020-05-06,9.789999961853027,10.420000076293945,9.0,10.279999732971191,10.279999732971191,148900
2020-05-07,10.59000015258789,10.989999771118164,10.345000267028809,10.720000267028809,10.720000267028809,169900
2020-05-08,10.930000305175781,10.949999809265137,9.84000015258789,10.09000015258789,10.09000015258789,120700
2020-05-11,9.989999771118164,10.9399995803833,9.800000190734863,10.520000457763672,10.520000457763672,90700
2020-05-12,10.630000114440918,11.069999694824219,10.3100004196167,10.4399995803833,10.4399995803833,195100
2020-05-13,10.399999618530273,10.54699993133545,9.675000190734863,10.039999961853027,10.039999961853027,146900
2020-05-14,10.0600004196167,10.789999961853027,9.649999618530273,10.260000228881836,10.260000228881836,90900
2020-05-15,10.239999771118164,10.890000343322754,9.720000267028809,10.75,10.75,82700
2020-05-18,11.0,11.010000228881836,10.5,10.789999961853027,10.789999961853027,122100
2020-05-19,10.8100004196167,10.989999771118164,10.710000038146973,10.979999542236328,10.979999542236328,184900
2020-05-20,11.050000190734863,11.6899995803833,11.050000190734863,11.470000267028809,11.470000267028809,212600
2020-05-21,11.550000190734863,11.609999656677246,11.09000015258789,11.40999984741211,11.40999984741211,127000
2020-05-22,11.40999984741211,11.5600004196167,11.135000228881836,11.550000190734863,11.550000190734863,76800
2020-05-26,11.710000038146973,12.350000381469727,11.5600004196167,12.010000228881836,12.010000228881836,108000
2020-05-27,12.109999656677246,12.25,11.710000038146973,12.109999656677246,12.109999656677246,81900
2020-05-28,12.149999618530273,12.149999618530273,11.279999732971191,11.329999923706055,11.329999923706055,236500
2020-05-29,11.359999656677246,12.520000457763672,11.359999656677246,12.520000457763672,12.520000457763672,325300
2020-06-01,12.359999656677246,12.84000015258789,11.90999984741211,11.979999542236328,11.979999542236328,144600
2020-06-02,12.1899995803833,12.970000267028809,11.649999618530273,12.789999961853027,12.789999961853027,389800
2020-06-03,13.020000457763672,13.34000015258789,12.899999618530273,12.90999984741211,12.90999984741211,106100
2020-06-04,12.930000305175781,13.199999809265137,12.59000015258789,13.050000190734863,13.050000190734863,98300
2020-06-05,13.220000267028809,13.35200023651123,13.0,13.140000343322754,13.140000343322754,205900
2020-06-08,13.289999961853027,13.479999542236328,13.039999961853027,13.100000381469727,13.100000381469727,98800
2020-06-09,13.149999618530273,14.0,13.050000190734863,13.8100004196167,13.8100004196167,112900
2020-06-10,13.899999618530273,14.550000190734863,13.5600004196167,14.140000343322754,14.140000343322754,165800
2020-06-11,13.819999694824219,13.890000343322754,12.819999694824219,12.989999771118164,12.989999771118164,207300
2020-06-12,13.479999542236328,13.880000114440918,12.626999855041504,12.920000076293945,12.920000076293945,480700
2020-06-15,12.670000076293945,13.1899995803833,12.420000076293945,13.0,13.0,611500
2020-06-16,13.350000381469727,13.449999809265137,12.489999771118164,13.039999961853027,13.039999961853027,636100
2020-06-17,13.15999984741211,13.71399974822998,12.859999656677246,13.170000076293945,13.170000076293945,547300
2020-06-18,13.140000343322754,13.460000038146973,12.899999618530273,13.25,13.25,190600
2020-06-19,13.699999809265137,14.800000190734863,13.180000305175781,13.5600004196167,13.5600004196167,330600
2020-06-22,13.329999923706055,15.479999542236328,13.119999885559082,15.380000114440918,15.380000114440918,227600
2020-06-23,15.539999961853027,16.209999084472656,15.430000305175781,15.789999961853027,15.789999961853027,170500
2020-06-24,15.640000343322754,16.149999618530273,15.15999984741211,15.670000076293945,15.670000076293945,238600
2020-06-25,15.670000076293945,16.559999465942383,15.670000076293945,16.139999389648438,16.139999389648438,114000
2020-06-26,16.020000457763672,16.290000915527344,15.829999923706055,16.09000015258789,16.09000015258789,96800
2020-06-29,16.280000686645508,16.299999237060547,15.760000228881836,16.059999465942383,16.059999465942383,152300
2020-06-30,16.040000915527344,16.145000457763672,15.720000267028809,16.030000686645508,16.030000686645508,146400
2020-07-01,16.139999389648438,16.25,15.880000114440918,16.0,16.0,223000
2020-07-02,15.489999771118164,15.989999771118164,14.569999694824219,14.899999618530273,14.899999618530273,192600
2020-07-06,15.210000038146973,15.210000038146973,14.199999809265137,14.34000015258789,14.34000015258789,79200
2020-07-07,14.300000190734863,15.170000076293945,13.91100025177002,15.069999694824219,15.069999694824219,205200
2020-07-08,15.1899995803833,16.0,15.100000381469727,16.0,16.0,90700
2020-07-09,16.139999389648438,16.139999389648438,15.5600004196167,15.930000305175781,15.930000305175781,73600
2020-07-10,15.920000076293945,15.930000305175781,15.079999923706055,15.210000038146973,15.210000038146973,77400
2020-07-13,15.390000343322754,15.489999771118164,14.170000076293945,14.25,14.25,167600
2020-07-14,14.279999732971191,15.3149995803833,14.145000457763672,15.079999923706055,15.079999923706055,194600
2020-07-15,15.3100004196167,15.489999771118164,14.75,15.100000381469727,15.100000381469727,574500
2020-07-16,15.09000015258789,15.470000267028809,14.600000381469727,15.430000305175781,15.430000305175781,172500
2020-07-17,15.5,16.21500015258789,15.11299991607666,16.110000610351562,16.110000610351562,274100
2020-07-20,16.0,16.299999237060547,15.779999732971191,16.299999237060547,16.299999237060547,306300
2020-07-21,16.299999237060547,16.489999771118164,14.859999656677246,14.949999809265137,14.949999809265137,194800
2020-07-22,16.989999771118164,17.190000534057617,15.40999984741211,16.040000915527344,16.040000915527344,384800
2020-07-23,16.18000030517578,16.239999771118164,14.105999946594238,14.380000114440918,14.380000114440918,317000
2020-07-24,14.510000228881836,14.76200008392334,13.765000343322754,13.930000305175781,13.930000305175781,200100
2020-07-27,13.800000190734863,14.430000305175781,13.479999542236328,14.199999809265137,14.199999809265137,228800
2020-07-28,14.170000076293945,14.329999923706055,13.65999984741211,13.670000076293945,13.670000076293945,142700
2020-07-29,13.770000457763672,14.020000457763672,13.050000190734863,13.199999809265137,13.199999809265137,196300
2020-07-30,13.130000114440918,13.760000228881836,13.130000114440918,13.220000267028809,13.220000267028809,194100
2020-07-31,14.5,14.550000190734863,13.180000305175781,13.199999809265137,13.199999809265137,404000
2020-08-03,13.220000267028809,14.300000190734863,13.050000190734863,13.970000267028809,13.970000267028809,309700
2020-08-04,13.899999618530273,14.869999885559082,13.75,14.6899995803833,14.6899995803833,212400
2020-08-05,14.59000015258789,15.5600004196167,14.4399995803833,15.029999732971191,15.029999732971191,312400
2020-08-06,15.470000267028809,16.780000686645508,15.470000267028809,16.1299991607666,16.1299991607666,250200
2020-08-07,16.1299991607666,16.209999084472656,15.085000038146973,15.65999984741211,15.65999984741211,342600
2020-08-10,15.760000228881836,16.15999984741211,15.229999542236328,15.8100004196167,15.8100004196167,196500
2020-08-11,15.6899995803833,16.0,15.180000305175781,15.369999885559082,15.369999885559082,240300
2020-08-12,15.510000228881836,15.699999809265137,15.020000457763672,15.4399995803833,15.4399995803833,149800
2020-08-13,15.5,16.139999389648438,15.300000190734863,16.010000228881836,16.010000228881836,152800
2020-08-14,16.059999465942383,16.209999084472656,15.630000114440918,16.0,16.0,78700
2020-08-17,16.06999969482422,16.36199951171875,15.9399995803833,16.020000457763672,16.020000457763672,75200
2020-08-18,16.1200008392334,16.277000427246094,15.899999618530273,15.9399995803833,15.9399995803833,78000
2020-08-19,16.0,16.309999465942383,15.720000267028809,15.9399995803833,15.9399995803833,165500
2020-08-20,15.890000343322754,16.170000076293945,15.430000305175781,16.0,16.0,113800
2020-08-21,16.09000015258789,16.34000015258789,15.41100025177002,15.720000267028809,15.720000267028809,189700
2020-08-24,15.859999656677246,16.079999923706055,15.510000228881836,15.5600004196167,15.5600004196167,216100
2020-08-25,15.8100004196167,16.190000534057617,15.5600004196167,16.170000076293945,16.170000076293945,196400
2020-08-26,16.1200008392334,16.190000534057617,15.800000190734863,15.850000381469727,15.850000381469727,116300
2020-08-27,15.970000267028809,15.970000267028809,15.260000228881836,15.300000190734863,15.300000190734863,108700
2020-08-28,15.4399995803833,15.550000190734863,15.020000457763672,15.34000015258789,15.34000015258789,83800
2020-08-31,15.4399995803833,15.4399995803833,14.5600004196167,14.670000076293945,14.670000076293945,80700
2020-09-01,14.640000343322754,14.65999984741211,13.930999755859375,14.050000190734863,14.050000190734863,76400
2020-09-02,14.210000038146973,14.210000038146973,13.649999618530273,13.760000228881836,13.760000228881836,77100
2020-09-03,13.65999984741211,13.949999809265137,12.850000381469727,12.850000381469727,12.850000381469727,106500
2020-09-04,12.920000076293945,13.109999656677246,11.5,12.359999656677246,12.359999656677246,114800
2020-09-08,12.130000114440918,13.020000457763672,11.8100004196167,12.5,12.5,63500
2020-09-09,12.680000305175781,13.239999771118164,12.680000305175781,12.920000076293945,12.920000076293945,80400
2020-09-10,12.960000038146973,13.359999656677246,12.744000434875488,12.770000457763672,12.770000457763672,63900
2020-09-11,12.979999542236328,13.100000381469727,12.569999694824219,12.649999618530273,12.649999618530273,42800
2020-09-14,13.229999542236328,14.09000015258789,13.050000190734863,13.8100004196167,13.8100004196167,74900
2020-09-15,13.869999885559082,14.109999656677246,13.630000114440918,13.8100004196167,13.8100004196167,74300
2020-09-16,13.819999694824219,14.399999618530273,13.510000228881836,13.9399995803833,13.9399995803833,56000
2020-09-17,13.710000038146973,14.270000457763672,13.520000457763672,14.0,14.0,80900
2020-09-18,14.0,14.329999923706055,13.630000114440918,14.279999732971191,14.279999732971191,110800
2020-09-21,14.220000267028809,14.220000267028809,13.170000076293945,13.4399995803833,13.4399995803833,119100
2020-09-22,13.4399995803833,13.550000190734863,13.119999885559082,13.300000190734863,13.300000190734863,44600
2020-09-23,13.289999961853027,13.289999961853027,12.600000381469727,12.6899995803833,12.6899995803833,69500
2020-09-24,12.600000381469727,12.789999961853027,12.130000114440918,12.4399995803833,12.4399995803833,50400
2020-09-25,12.319999694824219,12.880000114440918,12.149999618530273,12.770000457763672,12.770000457763672,54700
2020-09-28,13.020000457763672,13.020000457763672,12.569999694824219,12.890000343322754,12.890000343322754,49100
2020-09-29,12.460000038146973,12.550000190734863,12.0,12.0,12.0,74600
2020-09-30,12.25,12.380000114440918,11.5,11.640000343322754,11.640000343322754,64800
2020-10-01,11.600000381469727,11.829999923706055,11.3100004196167,11.630000114440918,11.630000114440918,61500
2020-10-02,11.449999809265137,11.59000015258789,10.649999618530273,11.09000015258789,11.09000015258789,26600
2020-10-05,11.210000038146973,12.020000457763672,11.210000038146973,12.0,12.0,54100
2020-10-06,12.130000114440918,12.279999732971191,11.84000015258789,12.09000015258789,12.09000015258789,123900
2020-10-07,12.244999885559082,12.479999542236328,11.869999885559082,12.270000457763672,12.270000457763672,32200
2020-10-08,12.399999618530273,12.539999961853027,12.010000228881836,12.260000228881836,12.260000228881836,27100
2020-10-09,12.25,12.46500015258789,12.020000457763672,12.350000381469727,12.350000381469727,38800
2020-10-12,12.399999618530273,12.789999961853027,11.779999732971191,12.789999961853027,12.789999961853027,28700
2020-10-13,12.779999732971191,12.779999732971191,12.470000267028809,12.699999809265137,12.699999809265137,24800
2020-10-14,12.619999885559082,12.630000114440918,11.989999771118164,12.229999542236328,12.229999542236328,29900
2020-10-15,12.220000267028809,12.260000228881836,11.890000343322754,12.109999656677246,12.109999656677246,17500
2020-10-16,12.239999771118164,12.260000228881836,11.920000076293945,12.25,12.25,29800
2020-10-19,12.229999542236328,12.329999923706055,11.770000457763672,11.859999656677246,11.859999656677246,47500
2020-10-20,11.770000457763672,12.010000228881836,11.5,11.5600004196167,11.5600004196167,69300
2020-10-21,11.710000038146973,11.84000015258789,11.270000457763672,11.800000190734863,11.800000190734863,48300
2020-10-22,11.970000267028809,12.039999961853027,11.300000190734863,11.739999771118164,11.739999771118164,42000
2020-10-23,11.670000076293945,12.010000228881836,11.510000228881836,12.010000228881836,12.010000228881836,41200
2020-10-26,11.975000381469727,11.979999542236328,11.020000457763672,11.1899995803833,11.1899995803833,54500
2020-10-27,11.359999656677246,11.520000457763672,11.140000343322754,11.180000305175781,11.180000305175781,216600
2020-10-28,11.109999656677246,11.460000038146973,10.866999626159668,11.399999618530273,11.399999618530273,44000
2020-10-29,11.25,11.479999542236328,10.920000076293945,11.420000076293945,11.420000076293945,242800
2020-10-30,11.17199993133545,11.366999626159668,10.789999961853027,10.8100004196167,10.8100004196167,43100
2020-11-02,10.859999656677246,11.319999694824219,10.75,11.279999732971191,11.279999732971191,80100
2020-11-03,11.449999809265137,11.880000114440918,10.75,11.359999656677246,11.359999656677246,161200
2020-11-04,11.40999984741211,12.170000076293945,11.083999633789062,11.9399995803833,11.9399995803833,54800
2020-11-05,11.779999732971191,12.149999618530273,11.399999618530273,12.010000228881836,12.010000228881836,57900
2020-11-06,12.170000076293945,12.170000076293945,10.579999923706055,10.949999809265137,10.949999809265137,74200
2020-11-09,11.0,11.880000114440918,11.0,11.430000305175781,11.430000305175781,61200
2020-11-10,11.529999732971191,12.28499984741211,10.819999694824219,11.0,11.0,60800
2020-11-11,11.069999694824219,11.069999694824219,10.220000267028809,10.5600004196167,10.5600004196167,62300
2020-11-12,10.529999732971191,10.770000457763672,10.069999694824219,10.770000457763672,10.770000457763672,97200
2020-11-13,10.859999656677246,11.170000076293945,10.520000457763672,10.970000267028809,10.970000267028809,37100
2020-11-16,10.970000267028809,11.100000381469727,10.470000267028809,10.760000228881836,10.760000228881836,47400
2020-11-17,11.069999694824219,11.1899995803833,10.779999732971191,11.170000076293945,11.170000076293945,49300
2020-11-18,11.170000076293945,11.170000076293945,10.619999885559082,10.8100004196167,10.8100004196167,97700
2020-11-19,10.989999771118164,11.569999694824219,10.850000381469727,11.220000267028809,11.220000267028809,91200
2020-11-20,11.1899995803833,11.25,10.84000015258789,10.890000343322754,10.890000343322754,78100
2020-11-23,10.930000305175781,11.24899959564209,10.229999542236328,10.279999732971191,10.279999732971191,78300
2020-11-24,10.399999618530273,10.460000038146973,10.0,10.130000114440918,10.130000114440918,64700
2020-11-25,10.359999656677246,10.600000381469727,9.920000076293945,10.579999923706055,10.579999923706055,107200
2020-11-27,10.59000015258789,10.600000381469727,9.130000114440918,9.609999656677246,9.609999656677246,154100
2020-11-30,10.119999885559082,10.598999977111816,10.100000381469727,10.489999771118164,10.489999771118164,148400
2020-12-01,10.220000267028809,10.75,9.609999656677246,9.949999809265137,9.949999809265137,155100
2020-12-02,9.949999809265137,10.5600004196167,9.800000190734863,9.899999618530273,9.899999618530273,145300
2020-12-03,9.930000305175781,10.6899995803833,9.899999618530273,10.5600004196167,10.5600004196167,135200
2020-12-04,10.390000343322754,10.657999992370605,10.180000305175781,10.5,10.5,73900
2020-12-07,10.75,11.960000038146973,10.633999824523926,11.949999809265137,11.949999809265137,197500
2020-12-08,12.0,12.229999542236328,10.399999618530273,10.520000457763672,10.520000457763672,156000
2020-12-09,10.510000228881836,10.609999656677246,9.140000343322754,9.270000457763672,9.270000457763672,346300
2020-12-10,9.25,9.569999694824219,8.550000190734863,8.699999809265137,8.699999809265137,335200
2020-12-11,8.680000305175781,9.100000381469727,8.270000457763672,8.899999618530273,8.899999618530273,187800
2020-12-14,9.069999694824219,9.49899959564209,8.270000457763672,8.5,8.5,252300
2020-12-15,8.5,8.506999969482422,7.869999885559082,8.130000114440918,8.130000114440918,502100
2020-12-16,8.100000381469727,8.739999771118164,8.0,8.359999656677246,8.359999656677246,258200
2020-12-17,8.300000190734863,8.800000190734863,8.220000267028809,8.680000305175781,8.680000305175781,126000
2020-12-18,8.729999542236328,8.979000091552734,8.418000221252441,8.619999885559082,8.619999885559082,157500
2020-12-21,8.569999694824219,8.600000381469727,8.119999885559082,8.449999809265137,8.449999809265137,96500
2020-12-22,8.460000038146973,9.300000190734863,8.40999984741211,8.899999618530273,8.899999618530273,183100
2020-12-23,8.84000015258789,9.038999557495117,8.53499984741211,8.699999809265137,8.699999809265137,108100
2020-12-24,8.729999542236328,9.09000015258789,8.66100025177002,8.899999618530273,8.899999618530273,128700
2020-12-28,9.220000267028809,9.479999542236328,8.770000457763672,8.819999694824219,8.819999694824219,181100
2020-12-29,8.8100004196167,8.96500015258789,8.545000076293945,8.9399995803833,8.9399995803833,119800
2020-12-30,8.869999885559082,9.074999809265137,8.539999961853027,8.979999542236328,8.979999542236328,188200
