Date,Open,High,Low,Close,Adj Close,Volume
2020-08-31,5.75,12.989999771118164,5.150000095367432,11.600000381469727,11.600000381469727,7561600
2020-09-01,10.880000114440918,11.0,8.010000228881836,8.600000381469727,8.600000381469727,1756100
2020-09-02,7.7210001945495605,8.399999618530273,7.010000228881836,7.25,7.25,560900
2020-09-03,7.349999904632568,7.670000076293945,6.309999942779541,6.349999904632568,6.349999904632568,386600
2020-09-04,6.380000114440918,6.670000076293945,5.13700008392334,5.699999809265137,5.699999809265137,404900
2020-09-08,5.300000190734863,8.359999656677246,5.25,7.489999771118164,7.489999771118164,3624500
2020-09-09,6.699999809265137,7.099999904632568,6.25,6.389999866485596,6.389999866485596,473000
2020-09-10,6.300000190734863,6.409999847412109,5.882999897003174,5.940000057220459,5.940000057220459,198800
2020-09-11,6.099999904632568,6.119999885559082,5.920000076293945,5.960000038146973,5.960000038146973,92500
2020-09-14,5.980000019073486,6.489999771118164,5.840000152587891,6.21999979019165,6.21999979019165,266500
2020-09-15,6.300000190734863,7.010000228881836,6.079999923706055,6.460000038146973,6.460000038146973,455300
2020-09-16,6.5,6.75,6.110000133514404,6.25,6.25,169500
2020-09-17,6.25,6.849999904632568,6.130000114440918,6.190000057220459,6.190000057220459,204200
2020-09-18,6.260000228881836,6.489999771118164,5.960000038146973,6.199999809265137,6.199999809265137,136200
2020-09-21,6.380000114440918,7.449999809265137,6.349999904632568,6.800000190734863,6.800000190734863,1874200
2020-09-22,6.829999923706055,8.300000190734863,6.829999923706055,8.239999771118164,8.239999771118164,864700
2020-09-23,8.029999732971191,8.470000267028809,7.0,7.099999904632568,7.099999904632568,577900
2020-09-24,7.119999885559082,7.855000019073486,6.960000038146973,7.610000133514404,7.610000133514404,337000
2020-09-25,7.480000019073486,7.960000038146973,7.179999828338623,7.400000095367432,7.400000095367432,157400
2020-09-28,7.570000171661377,7.78000020980835,6.829999923706055,7.360000133514404,7.360000133514404,267400
2020-09-29,7.510000228881836,7.760000228881836,7.070000171661377,7.300000190734863,7.300000190734863,239800
2020-09-30,7.300000190734863,7.5229997634887695,7.079999923706055,7.269999980926514,7.269999980926514,81500
2020-10-01,7.179999828338623,7.400000095367432,7.0,7.139999866485596,7.139999866485596,43500
2020-10-02,7.050000190734863,7.260000228881836,7.050000190734863,7.099999904632568,7.099999904632568,55700
2020-10-05,7.099999904632568,7.5,6.900000095367432,7.130000114440918,7.130000114440918,167100
2020-10-06,7.050000190734863,7.179999828338623,6.659999847412109,6.679999828338623,6.679999828338623,160000
2020-10-07,6.75,7.0,6.690000057220459,6.900000095367432,6.900000095367432,42000
2020-10-08,6.889999866485596,7.0,6.75,6.809999942779541,6.809999942779541,55700
2020-10-09,6.800000190734863,6.863999843597412,6.5,6.619999885559082,6.619999885559082,61200
2020-10-12,6.71999979019165,6.800000190734863,6.554999828338623,6.559999942779541,6.559999942779541,55800
2020-10-13,6.559999942779541,6.730000019073486,6.550000190734863,6.599999904632568,6.599999904632568,30800
2020-10-14,6.800000190734863,7.199999809265137,6.699999809265137,7.059999942779541,7.059999942779541,224100
2020-10-15,6.800000190734863,7.659999847412109,6.699999809265137,7.494999885559082,7.494999885559082,253600
2020-10-16,7.630000114440918,7.684999942779541,6.949999809265137,7.139999866485596,7.139999866485596,66500
2020-10-19,7.139999866485596,7.650000095367432,6.900000095367432,7.110000133514404,7.110000133514404,224700
2020-10-20,7.119999885559082,7.440000057220459,7.019999980926514,7.079999923706055,7.079999923706055,181200
2020-10-21,7.090000152587891,7.389999866485596,6.670000076293945,6.75,6.75,168300
2020-10-22,6.730000019073486,6.920000076293945,6.53000020980835,6.610000133514404,6.610000133514404,32400
2020-10-23,6.710000038146973,7.150000095367432,6.599999904632568,6.75,6.75,118500
2020-10-26,6.789999961853027,7.110000133514404,6.710000038146973,6.760000228881836,6.760000228881836,117300
2020-10-27,6.760000228881836,6.789999961853027,6.360000133514404,6.369999885559082,6.369999885559082,112900
2020-10-28,10.369999885559082,10.75,7.579999923706055,8.140000343322754,8.140000343322754,18441800
2020-10-29,8.079999923706055,8.079999923706055,6.559999942779541,7.039999961853027,7.039999961853027,758800
2020-10-30,6.989999771118164,6.989999771118164,6.429999828338623,6.460000038146973,6.460000038146973,216500
2020-11-02,6.639999866485596,6.839000225067139,6.039999961853027,6.079999923706055,6.079999923706055,273800
2020-11-03,6.099999904632568,6.429999828338623,5.909999847412109,6.0,6.0,298100
2020-11-04,6.369999885559082,6.369999885559082,5.510000228881836,6.059999942779541,6.059999942779541,468600
2020-11-05,5.900000095367432,5.900000095367432,5.300000190734863,5.360000133514404,5.360000133514404,699700
2020-11-06,6.309999942779541,7.659999847412109,5.599999904632568,6.309999942779541,6.309999942779541,2127800
2020-11-09,6.300000190734863,6.820000171661377,5.579999923706055,6.389999866485596,6.389999866485596,629600
2020-11-10,5.5,5.670000076293945,5.110000133514404,5.199999809265137,5.199999809265137,1092000
2020-11-11,5.309999942779541,5.309999942779541,5.139999866485596,5.21999979019165,5.21999979019165,175000
2020-11-12,5.25,5.25,4.989999771118164,5.21999979019165,5.21999979019165,171200
2020-11-13,5.239999771118164,5.300000190734863,5.011000156402588,5.159999847412109,5.159999847412109,192400
2020-11-16,5.099999904632568,5.199999809265137,4.880000114440918,4.949999809265137,4.949999809265137,380000
2020-11-17,5.099999904632568,5.104000091552734,4.880000114440918,5.039999961853027,5.039999961853027,127700
2020-11-18,5.010000228881836,5.25,5.010000228881836,5.050000190734863,5.050000190734863,146900
2020-11-19,5.230000019073486,5.289999961853027,5.019999980926514,5.190000057220459,5.190000057220459,188100
2020-11-20,5.230000019073486,5.25,5.070000171661377,5.099999904632568,5.099999904632568,87500
2020-11-23,5.199999809265137,5.199999809265137,5.0,5.099999904632568,5.099999904632568,167800
2020-11-24,5.050000190734863,5.139999866485596,4.960000038146973,4.989999771118164,4.989999771118164,172200
2020-11-25,5.0,5.070000171661377,4.960000038146973,5.039999961853027,5.039999961853027,66800
2020-11-27,5.139999866485596,5.150000095367432,5.019999980926514,5.079999923706055,5.079999923706055,75500
2020-11-30,5.130000114440918,5.199999809265137,5.050000190734863,5.179999828338623,5.179999828338623,94100
2020-12-01,5.289999961853027,5.309999942779541,5.019999980926514,5.090000152587891,5.090000152587891,217000
2020-12-02,5.039999961853027,5.389999866485596,4.960000038146973,5.199999809265137,5.199999809265137,555300
2020-12-03,5.329999923706055,5.329999923706055,5.210000038146973,5.289999961853027,5.289999961853027,105800
2020-12-04,5.300000190734863,5.309999942779541,5.1479997634887695,5.239999771118164,5.239999771118164,62900
2020-12-07,5.170000076293945,5.239999771118164,5.139999866485596,5.139999866485596,5.139999866485596,58500
2020-12-08,5.150000095367432,5.21999979019165,5.059999942779541,5.170000076293945,5.170000076293945,56900
2020-12-09,5.170000076293945,5.170000076293945,4.949999809265137,5.03000020980835,5.03000020980835,156400
2020-12-10,5.03000020980835,5.061999797821045,4.800000190734863,5.010000228881836,5.010000228881836,116700
2020-12-11,5.039999961853027,5.170000076293945,4.880000114440918,5.119999885559082,5.119999885559082,100100
2020-12-14,5.090000152587891,5.138000011444092,4.960000038146973,5.039999961853027,5.039999961853027,90700
2020-12-15,5.070000171661377,5.070000171661377,4.980000019073486,5.03000020980835,5.03000020980835,35000
2020-12-16,5.010000228881836,5.010000228881836,4.888999938964844,4.960000038146973,4.960000038146973,63800
2020-12-17,4.989999771118164,5.150000095367432,4.889999866485596,4.960000038146973,4.960000038146973,173400
2020-12-18,5.050000190734863,5.050000190734863,4.840000152587891,4.840000152587891,4.840000152587891,134700
2020-12-21,4.869999885559082,5.510000228881836,4.860000133514404,5.21999979019165,5.21999979019165,716500
2020-12-22,5.309999942779541,5.309999942779541,5.03000020980835,5.039999961853027,5.039999961853027,129700
2020-12-23,5.099999904632568,5.159999847412109,5.010000228881836,5.059999942779541,5.059999942779541,84300
2020-12-24,5.03000020980835,5.110000133514404,4.960000038146973,5.039999961853027,5.039999961853027,47200
2020-12-28,5.0,5.269000053405762,4.929999828338623,5.159999847412109,5.159999847412109,255400
2020-12-29,5.190000057220459,5.215000152587891,4.820000171661377,4.889999866485596,4.889999866485596,219100
2020-12-30,4.940000057220459,5.170000076293945,4.869999885559082,4.909999847412109,4.909999847412109,161600
