Date,Open,High,Low,Close,Adj Close,Volume
2017-08-08,9.699999809265137,9.699999809265137,9.670000076293945,9.6899995803833,9.6899995803833,3269100
2017-08-09,9.720000267028809,9.720000267028809,9.670000076293945,9.6899995803833,9.6899995803833,201500
2017-08-10,9.699999809265137,9.699999809265137,9.680000305175781,9.680000305175781,9.680000305175781,288100
2017-08-11,9.670000076293945,9.699999809265137,9.649999618530273,9.699999809265137,9.699999809265137,332300
2017-08-14,9.670000076293945,9.670000076293945,9.670000076293945,9.670000076293945,9.670000076293945,819500
2017-08-15,9.670000076293945,9.699999809265137,9.670000076293945,9.670000076293945,9.670000076293945,175200
2017-08-16,9.649999618530273,9.699999809265137,9.649999618530273,9.680000305175781,9.680000305175781,143800
2017-08-17,9.680000305175781,9.680000305175781,9.670000076293945,9.670000076293945,9.670000076293945,254000
2017-08-18,9.649999618530273,9.670000076293945,9.649999618530273,9.649999618530273,9.649999618530273,278000
2017-08-21,9.649999618530273,9.670000076293945,9.609999656677246,9.649999618530273,9.649999618530273,104900
2017-08-22,9.699999809265137,9.699999809265137,9.649999618530273,9.680000305175781,9.680000305175781,2300
2017-08-23,9.670000076293945,9.699999809265137,9.619999885559082,9.65999984741211,9.65999984741211,151500
2017-08-24,9.649999618530273,9.670000076293945,9.640000343322754,9.649999618530273,9.649999618530273,19600
2017-08-25,9.630000114440918,9.670000076293945,9.630000114440918,9.65999984741211,9.65999984741211,58500
2017-08-28,9.65999984741211,9.65999984741211,9.65999984741211,9.65999984741211,9.65999984741211,1400
2017-08-29,9.649999618530273,9.6899995803833,9.649999618530273,9.680000305175781,9.680000305175781,52600
2017-08-30,9.6899995803833,9.6899995803833,9.680000305175781,9.684000015258789,9.684000015258789,2400
2017-08-31,9.65999984741211,9.725000381469727,9.649999618530273,9.699999809265137,9.699999809265137,41300
2017-09-01,9.649999618530273,9.680000305175781,9.649999618530273,9.670000076293945,9.670000076293945,7400
2017-09-05,9.664999961853027,9.680000305175781,9.65999984741211,9.670000076293945,9.670000076293945,39400
2017-09-06,9.65999984741211,9.6899995803833,9.65999984741211,9.680000305175781,9.680000305175781,625900
2017-09-07,9.65999984741211,9.6899995803833,9.65999984741211,9.670000076293945,9.670000076293945,297700
2017-09-08,9.670000076293945,9.680000305175781,9.670000076293945,9.680000305175781,9.680000305175781,650100
2017-09-11,9.680000305175781,9.680000305175781,9.670000076293945,9.670000076293945,9.670000076293945,51800
2017-09-12,9.680000305175781,9.6899995803833,9.680000305175781,9.6899995803833,9.6899995803833,170300
2017-09-13,9.680000305175781,9.699999809265137,9.680000305175781,9.680000305175781,9.680000305175781,349700
2017-09-14,9.680000305175781,9.6899995803833,9.680000305175781,9.6899995803833,9.6899995803833,25200
2017-09-15,9.680000305175781,9.6899995803833,9.680000305175781,9.6899995803833,9.6899995803833,39100
2017-09-18,9.680000305175781,9.682999610900879,9.680000305175781,9.682999610900879,9.682999610900879,204300
2017-09-19,9.680000305175781,9.6899995803833,9.680000305175781,9.680000305175781,9.680000305175781,208700
2017-09-20,9.680000305175781,9.680000305175781,9.680000305175781,9.680000305175781,9.680000305175781,0
2017-09-21,9.680000305175781,9.680000305175781,9.680000305175781,9.680000305175781,9.680000305175781,0
2017-09-22,9.6899995803833,9.6899995803833,9.6899995803833,9.6899995803833,9.6899995803833,100
2017-09-25,9.680000305175781,9.6899995803833,9.65999984741211,9.6899995803833,9.6899995803833,91000
2017-09-26,9.680000305175781,9.6899995803833,9.680000305175781,9.6899995803833,9.6899995803833,6300
2017-09-27,9.6899995803833,9.6899995803833,9.680000305175781,9.680000305175781,9.680000305175781,4900
2017-09-28,9.680000305175781,9.6899995803833,9.680000305175781,9.6899995803833,9.6899995803833,500
2017-09-29,9.6899995803833,9.6899995803833,9.6899995803833,9.6899995803833,9.6899995803833,0
2017-10-02,9.6899995803833,9.6899995803833,9.6899995803833,9.6899995803833,9.6899995803833,0
2017-10-03,9.680000305175781,9.6899995803833,9.670000076293945,9.680000305175781,9.680000305175781,436300
2017-10-04,9.680000305175781,9.680000305175781,9.680000305175781,9.680000305175781,9.680000305175781,0
2017-10-05,9.699999809265137,9.699999809265137,9.609999656677246,9.680000305175781,9.680000305175781,747500
2017-10-06,9.680000305175781,9.680000305175781,9.680000305175781,9.680000305175781,9.680000305175781,0
2017-10-09,9.680000305175781,9.680000305175781,9.680000305175781,9.680000305175781,9.680000305175781,0
2017-10-10,9.670000076293945,9.670000076293945,9.65999984741211,9.65999984741211,9.65999984741211,2700
2017-10-11,9.65999984741211,9.65999984741211,9.659000396728516,9.65999984741211,9.65999984741211,23100
2017-10-12,9.65999984741211,9.65999984741211,9.65999984741211,9.65999984741211,9.65999984741211,0
2017-10-13,9.670000076293945,9.680000305175781,9.600000381469727,9.680000305175781,9.680000305175781,6100
2017-10-16,9.680000305175781,9.6899995803833,9.65999984741211,9.670000076293945,9.670000076293945,273800
2017-10-17,9.670000076293945,9.670000076293945,9.670000076293945,9.670000076293945,9.670000076293945,700
2017-10-18,9.670000076293945,9.670000076293945,9.65999984741211,9.65999984741211,9.65999984741211,50500
2017-10-19,9.670000076293945,9.680000305175781,9.65999984741211,9.680000305175781,9.680000305175781,358400
2017-10-20,9.680000305175781,9.680000305175781,9.670000076293945,9.670000076293945,9.670000076293945,1200
2017-10-23,9.65999984741211,9.670000076293945,9.65999984741211,9.670000076293945,9.670000076293945,270200
2017-10-24,9.680000305175781,9.6899995803833,9.649999618530273,9.649999618530273,9.649999618530273,470100
2017-10-25,9.65999984741211,9.668000221252441,9.649999618530273,9.65999984741211,9.65999984741211,112000
2017-10-26,9.6899995803833,9.6899995803833,9.670000076293945,9.680000305175781,9.680000305175781,125600
2017-10-27,9.680000305175781,9.680000305175781,9.680000305175781,9.680000305175781,9.680000305175781,0
2017-10-30,9.670000076293945,9.670000076293945,9.670000076293945,9.670000076293945,9.670000076293945,2600
2017-10-31,9.670000076293945,9.670000076293945,9.670000076293945,9.670000076293945,9.670000076293945,0
2017-11-01,9.670000076293945,9.680000305175781,9.670000076293945,9.680000305175781,9.680000305175781,226200
2017-11-02,9.680000305175781,9.680000305175781,9.680000305175781,9.680000305175781,9.680000305175781,0
2017-11-03,9.670000076293945,9.680000305175781,9.649999618530273,9.680000305175781,9.680000305175781,8000
2017-11-06,9.680000305175781,9.680000305175781,9.680000305175781,9.680000305175781,9.680000305175781,0
2017-11-07,9.649999618530273,9.680000305175781,9.649999618530273,9.680000305175781,9.680000305175781,10400
2017-11-08,9.65999984741211,9.65999984741211,9.65999984741211,9.65999984741211,9.65999984741211,7100
2017-11-09,9.65999984741211,9.65999984741211,9.65999984741211,9.65999984741211,9.65999984741211,0
2017-11-10,9.65999984741211,9.65999984741211,9.65999984741211,9.65999984741211,9.65999984741211,100
2017-11-13,9.65999984741211,9.670000076293945,9.65999984741211,9.670000076293945,9.670000076293945,6800
2017-11-14,9.680000305175781,9.680000305175781,9.680000305175781,9.680000305175781,9.680000305175781,2100
2017-11-15,9.680000305175781,9.680000305175781,9.678000450134277,9.680000305175781,9.680000305175781,2900
2017-11-16,9.680000305175781,9.680000305175781,9.65999984741211,9.680000305175781,9.680000305175781,7900
2017-11-17,9.670000076293945,9.670000076293945,9.670000076293945,9.670000076293945,9.670000076293945,400
2017-11-20,9.670000076293945,9.6899995803833,9.670000076293945,9.680000305175781,9.680000305175781,14100
2017-11-21,9.680000305175781,9.680000305175781,9.680000305175781,9.680000305175781,9.680000305175781,2400
2017-11-22,9.670000076293945,9.680000305175781,9.670000076293945,9.680000305175781,9.680000305175781,20300
2017-11-24,9.680000305175781,9.6899995803833,9.680000305175781,9.680000305175781,9.680000305175781,500
2017-11-27,9.65999984741211,9.663999557495117,9.65999984741211,9.65999984741211,9.65999984741211,4100
2017-11-28,9.65999984741211,9.680000305175781,9.65999984741211,9.65999984741211,9.65999984741211,2300
2017-11-29,9.65999984741211,9.65999984741211,9.65999984741211,9.65999984741211,9.65999984741211,0
2017-11-30,9.65999984741211,9.65999984741211,9.65999984741211,9.65999984741211,9.65999984741211,8600
2017-12-01,9.65999984741211,9.65999984741211,9.65999984741211,9.65999984741211,9.65999984741211,9700
2017-12-04,9.65999984741211,9.65999984741211,9.640000343322754,9.649999618530273,9.649999618530273,12600
2017-12-05,9.6899995803833,9.6899995803833,9.65999984741211,9.65999984741211,9.65999984741211,1000
2017-12-06,9.65999984741211,9.65999984741211,9.65999984741211,9.65999984741211,9.65999984741211,0
2017-12-07,9.65999984741211,9.65999984741211,9.65999984741211,9.65999984741211,9.65999984741211,200
2017-12-08,9.65999984741211,9.65999984741211,9.65999984741211,9.65999984741211,9.65999984741211,100000
2017-12-11,9.649999618530273,9.649999618530273,9.640000343322754,9.649999618530273,9.649999618530273,11600
2017-12-12,9.65999984741211,9.65999984741211,9.65999984741211,9.65999984741211,9.65999984741211,46100
2017-12-13,9.65999984741211,9.65999984741211,9.65999984741211,9.65999984741211,9.65999984741211,5000
2017-12-14,9.65999984741211,9.65999984741211,9.65999984741211,9.65999984741211,9.65999984741211,7800
2017-12-15,9.65999984741211,9.65999984741211,9.65999984741211,9.65999984741211,9.65999984741211,233300
2017-12-18,9.65999984741211,9.65999984741211,9.65999984741211,9.65999984741211,9.65999984741211,0
2017-12-19,9.65999984741211,9.65999984741211,9.65999984741211,9.65999984741211,9.65999984741211,2700
2017-12-20,9.65999984741211,9.65999984741211,9.65999984741211,9.65999984741211,9.65999984741211,0
2017-12-21,9.67300033569336,9.67300033569336,9.67300033569336,9.67300033569336,9.67300033569336,4700
2017-12-22,9.67300033569336,9.67300033569336,9.67300033569336,9.67300033569336,9.67300033569336,0
2017-12-26,9.67300033569336,9.67300033569336,9.67300033569336,9.67300033569336,9.67300033569336,0
2017-12-27,9.65999984741211,9.65999984741211,9.65999984741211,9.65999984741211,9.65999984741211,50000
2017-12-28,9.65999984741211,9.670000076293945,9.65999984741211,9.670000076293945,9.670000076293945,27500
2017-12-29,9.670000076293945,9.670000076293945,9.670000076293945,9.670000076293945,9.670000076293945,0
2018-01-02,9.680000305175781,9.680000305175781,9.680000305175781,9.680000305175781,9.680000305175781,3100
2018-01-03,9.699999809265137,9.699999809265137,9.680000305175781,9.680000305175781,9.680000305175781,10500
2018-01-04,9.680000305175781,9.680000305175781,9.680000305175781,9.680000305175781,9.680000305175781,0
2018-01-05,9.680000305175781,9.680000305175781,9.680000305175781,9.680000305175781,9.680000305175781,5000
2018-01-08,9.680000305175781,9.680000305175781,9.680000305175781,9.680000305175781,9.680000305175781,0
2018-01-09,9.680000305175781,9.680000305175781,9.680000305175781,9.680000305175781,9.680000305175781,0
2018-01-10,9.729999542236328,9.779999732971191,9.729999542236328,9.779999732971191,9.779999732971191,5400
2018-01-11,9.770000457763672,9.770000457763672,9.770000457763672,9.770000457763672,9.770000457763672,100
2018-01-12,9.770000457763672,9.770000457763672,9.770000457763672,9.770000457763672,9.770000457763672,200
2018-01-16,9.770000457763672,9.770000457763672,9.760000228881836,9.760000228881836,9.760000228881836,400
2018-01-17,9.760000228881836,9.760000228881836,9.760000228881836,9.760000228881836,9.760000228881836,0
2018-01-18,9.75,9.75,9.75,9.75,9.75,6400
2018-01-19,9.729999542236328,9.729999542236328,9.729999542236328,9.729999542236328,9.729999542236328,1900
2018-01-22,9.729999542236328,9.729999542236328,9.729999542236328,9.729999542236328,9.729999542236328,0
2018-01-23,9.729999542236328,9.729999542236328,9.729999542236328,9.729999542236328,9.729999542236328,0
2018-01-24,9.729999542236328,9.729999542236328,9.729999542236328,9.729999542236328,9.729999542236328,0
2018-01-25,9.6899995803833,9.6899995803833,9.6899995803833,9.6899995803833,9.6899995803833,191000
2018-01-26,9.6899995803833,9.6899995803833,9.6899995803833,9.6899995803833,9.6899995803833,0
2018-01-29,9.6899995803833,9.699999809265137,9.6899995803833,9.699999809265137,9.699999809265137,100300
2018-01-30,9.699999809265137,9.699999809265137,9.699999809265137,9.699999809265137,9.699999809265137,0
2018-01-31,9.680000305175781,9.699999809265137,9.680000305175781,9.699999809265137,9.699999809265137,50200
2018-02-01,9.699999809265137,9.699999809265137,9.699999809265137,9.699999809265137,9.699999809265137,0
2018-02-02,9.699999809265137,9.699999809265137,9.699999809265137,9.699999809265137,9.699999809265137,0
2018-02-05,9.699999809265137,9.699999809265137,9.699999809265137,9.699999809265137,9.699999809265137,0
2018-02-06,9.699999809265137,9.699999809265137,9.6899995803833,9.699999809265137,9.699999809265137,55200
2018-02-07,9.699999809265137,9.699999809265137,9.699999809265137,9.699999809265137,9.699999809265137,38400
2018-02-08,9.699999809265137,9.699999809265137,9.699999809265137,9.699999809265137,9.699999809265137,0
2018-02-09,9.760000228881836,9.760000228881836,9.649999618530273,9.699999809265137,9.699999809265137,566400
2018-02-12,9.699999809265137,9.699999809265137,9.699999809265137,9.699999809265137,9.699999809265137,60300
2018-02-13,9.710000038146973,9.710000038146973,9.710000038146973,9.710000038146973,9.710000038146973,1000
2018-02-14,9.710000038146973,9.770000457763672,9.699999809265137,9.770000457763672,9.770000457763672,225800
2018-02-15,9.770000457763672,9.770000457763672,9.770000457763672,9.770000457763672,9.770000457763672,0
2018-02-16,9.770000457763672,9.770000457763672,9.770000457763672,9.770000457763672,9.770000457763672,0
2018-02-20,9.720000267028809,9.75,9.699999809265137,9.75,9.75,202000
2018-02-21,9.75,9.75,9.75,9.75,9.75,0
2018-02-22,9.75,9.75,9.75,9.75,9.75,0
2018-02-23,9.699999809265137,9.699999809265137,9.699999809265137,9.699999809265137,9.699999809265137,300
2018-02-26,9.75,9.75,9.720000267028809,9.720000267028809,9.720000267028809,769800
2018-02-27,9.710000038146973,9.710000038146973,9.710000038146973,9.710000038146973,9.710000038146973,800
2018-02-28,9.710000038146973,9.710000038146973,9.680000305175781,9.699999809265137,9.699999809265137,11500
2018-03-01,9.699999809265137,9.699999809265137,9.699999809265137,9.699999809265137,9.699999809265137,36300
2018-03-02,7.75,9.699999809265137,7.75,9.699999809265137,9.699999809265137,19400
2018-03-05,9.699999809265137,9.699999809265137,9.699999809265137,9.699999809265137,9.699999809265137,0
2018-03-06,9.760000228881836,9.760000228881836,9.760000228881836,9.760000228881836,9.760000228881836,300
2018-03-07,9.760000228881836,9.760000228881836,9.760000228881836,9.760000228881836,9.760000228881836,0
2018-03-08,9.319999694824219,9.729999542236328,9.319999694824219,9.729999542236328,9.729999542236328,11700
2018-03-09,9.729999542236328,9.75,9.729999542236328,9.739999771118164,9.739999771118164,7000
2018-03-12,9.739999771118164,9.739999771118164,9.739999771118164,9.739999771118164,9.739999771118164,0
2018-03-13,9.739999771118164,9.739999771118164,9.739999771118164,9.739999771118164,9.739999771118164,0
2018-03-14,9.739999771118164,9.739999771118164,9.739999771118164,9.739999771118164,9.739999771118164,0
2018-03-15,9.739999771118164,9.739999771118164,9.739999771118164,9.739999771118164,9.739999771118164,0
2018-03-16,9.739999771118164,9.739999771118164,9.739999771118164,9.739999771118164,9.739999771118164,0
2018-03-19,9.75,9.75,9.75,9.75,9.75,100
2018-03-20,9.729999542236328,9.789999961853027,9.710000038146973,9.720000267028809,9.720000267028809,17400
2018-03-21,9.720000267028809,9.789999961853027,9.710000038146973,9.779999732971191,9.779999732971191,60200
2018-03-22,9.75,9.75,9.720000267028809,9.720000267028809,9.720000267028809,900
2018-03-23,9.75,9.75,9.720000267028809,9.720000267028809,9.720000267028809,500
2018-03-26,10.170000076293945,10.170000076293945,10.170000076293945,10.170000076293945,10.170000076293945,200
2018-03-27,10.140000343322754,10.140000343322754,9.720000267028809,9.75,9.75,33800
2018-03-28,9.75,9.75,9.75,9.75,9.75,0
2018-03-29,9.760000228881836,9.789999961853027,9.720000267028809,9.720000267028809,9.720000267028809,13500
2018-04-02,9.729999542236328,9.729999542236328,9.729999542236328,9.729999542236328,9.729999542236328,100
2018-04-03,9.789999961853027,9.84000015258789,9.720000267028809,9.819999694824219,9.819999694824219,39900
2018-04-04,9.729999542236328,9.729999542236328,9.729999542236328,9.729999542236328,9.729999542236328,100
2018-04-05,9.729999542236328,9.729999542236328,9.729999542236328,9.729999542236328,9.729999542236328,0
2018-04-06,9.739999771118164,9.739999771118164,9.739999771118164,9.739999771118164,9.739999771118164,100
2018-04-09,9.729999542236328,9.729999542236328,9.729999542236328,9.729999542236328,9.729999542236328,200
2018-04-10,9.710000038146973,9.739999771118164,9.680000305175781,9.739999771118164,9.739999771118164,61600
2018-04-11,9.739999771118164,9.739999771118164,9.739999771118164,9.739999771118164,9.739999771118164,0
2018-04-12,9.739999771118164,9.739999771118164,9.739999771118164,9.739999771118164,9.739999771118164,0
2018-04-13,9.739999771118164,9.920000076293945,9.729999542236328,9.729999542236328,9.729999542236328,1500
2018-04-16,9.729999542236328,9.739999771118164,9.710000038146973,9.739999771118164,9.739999771118164,3800
2018-04-17,9.770000457763672,9.770000457763672,9.770000457763672,9.770000457763672,9.770000457763672,7500
2018-04-18,9.770000457763672,9.770000457763672,9.770000457763672,9.770000457763672,9.770000457763672,1500
2018-04-19,9.760000228881836,9.779999732971191,9.760000228881836,9.779999732971191,9.779999732971191,1200
2018-04-20,9.789999961853027,9.789999961853027,9.789999961853027,9.789999961853027,9.789999961853027,200
2018-04-23,9.789999961853027,9.829999923706055,9.789999961853027,9.789999961853027,9.789999961853027,3000
2018-04-24,9.800000190734863,9.895000457763672,9.800000190734863,9.859999656677246,9.859999656677246,7400
2018-04-25,9.800000190734863,9.800000190734863,9.800000190734863,9.800000190734863,9.800000190734863,2600
2018-04-26,9.800000190734863,9.800000190734863,9.800000190734863,9.800000190734863,9.800000190734863,300
2018-04-27,9.800000190734863,9.800000190734863,9.800000190734863,9.800000190734863,9.800000190734863,0
2018-04-30,9.800000190734863,9.800000190734863,9.789999961853027,9.800000190734863,9.800000190734863,26900
2018-05-01,9.800000190734863,9.800000190734863,9.800000190734863,9.800000190734863,9.800000190734863,0
2018-05-02,9.779999732971191,9.779999732971191,9.779999732971191,9.779999732971191,9.779999732971191,1200
2018-05-03,9.779999732971191,9.779999732971191,9.779999732971191,9.779999732971191,9.779999732971191,0
2018-05-04,9.779999732971191,9.779999732971191,9.779999732971191,9.779999732971191,9.779999732971191,0
2018-05-07,9.78499984741211,9.800000190734863,9.779999732971191,9.789999961853027,9.789999961853027,2400
2018-05-08,9.779999732971191,9.789999961853027,9.779999732971191,9.789999961853027,9.789999961853027,1300
2018-05-09,9.789999961853027,9.829999923706055,9.789999961853027,9.829999923706055,9.829999923706055,844000
2018-05-10,9.789999961853027,9.789999961853027,9.779999732971191,9.779999732971191,9.779999732971191,3000
2018-05-11,9.789999961853027,9.789999961853027,9.789999961853027,9.789999961853027,9.789999961853027,1900
2018-05-14,9.789999961853027,9.789999961853027,9.789999961853027,9.789999961853027,9.789999961853027,0
2018-05-15,9.789999961853027,9.84000015258789,9.789999961853027,9.800000190734863,9.800000190734863,12000
2018-05-16,9.800000190734863,9.800000190734863,9.800000190734863,9.800000190734863,9.800000190734863,0
2018-05-17,9.800000190734863,9.84000015258789,9.800000190734863,9.800000190734863,9.800000190734863,25600
2018-05-18,9.800000190734863,9.800000190734863,9.800000190734863,9.800000190734863,9.800000190734863,0
2018-05-21,9.800000190734863,9.800000190734863,9.800000190734863,9.800000190734863,9.800000190734863,0
2018-05-22,9.850000381469727,9.850000381469727,9.850000381469727,9.850000381469727,9.850000381469727,400
2018-05-23,9.800000190734863,9.800000190734863,9.800000190734863,9.800000190734863,9.800000190734863,7600
2018-05-24,9.800000190734863,9.800000190734863,9.800000190734863,9.800000190734863,9.800000190734863,5100
2018-05-25,9.829999923706055,9.84000015258789,9.8100004196167,9.84000015258789,9.84000015258789,9300
2018-05-29,9.84000015258789,9.84000015258789,9.84000015258789,9.84000015258789,9.84000015258789,0
2018-05-30,9.84000015258789,9.84000015258789,9.84000015258789,9.84000015258789,9.84000015258789,0
2018-05-31,9.84000015258789,9.84000015258789,9.84000015258789,9.84000015258789,9.84000015258789,0
2018-06-01,9.84000015258789,9.84000015258789,9.84000015258789,9.84000015258789,9.84000015258789,0
2018-06-04,9.800000190734863,9.8100004196167,9.800000190734863,9.8100004196167,9.8100004196167,9500
2018-06-05,9.8100004196167,9.8100004196167,9.8100004196167,9.8100004196167,9.8100004196167,200
2018-06-06,9.819999694824219,9.84000015258789,9.800000190734863,9.800000190734863,9.800000190734863,853900
2018-06-07,9.819999694824219,9.84000015258789,9.819999694824219,9.819999694824219,9.819999694824219,32400
2018-06-08,9.859999656677246,9.859999656677246,9.8100004196167,9.8100004196167,9.8100004196167,77700
2018-06-11,9.850000381469727,9.880000114440918,9.850000381469727,9.869999885559082,9.869999885559082,435000
2018-06-12,9.880000114440918,9.880000114440918,9.850000381469727,9.869999885559082,9.869999885559082,701300
2018-06-13,9.850000381469727,9.869999885559082,9.850000381469727,9.850000381469727,9.850000381469727,278100
2018-06-14,9.859999656677246,9.880000114440918,9.859999656677246,9.859999656677246,9.859999656677246,2446400
2018-06-15,9.869999885559082,9.880000114440918,9.869999885559082,9.869999885559082,9.869999885559082,16400
2018-06-18,9.850000381469727,9.869999885559082,9.850000381469727,9.869999885559082,9.869999885559082,23100
2018-06-19,9.869999885559082,9.869999885559082,9.859999656677246,9.859999656677246,9.859999656677246,12200
2018-06-20,9.859999656677246,9.869999885559082,9.850000381469727,9.859999656677246,9.859999656677246,51300
2018-06-21,9.869999885559082,9.875,9.869999885559082,9.875,9.875,600400
2018-06-22,9.890000343322754,9.890000343322754,9.890000343322754,9.890000343322754,9.890000343322754,1500
2018-06-25,9.869999885559082,9.880000114440918,9.869999885559082,9.880000114440918,9.880000114440918,39300
2018-06-26,9.890000343322754,9.890000343322754,9.869999885559082,9.880000114440918,9.880000114440918,50500
2018-06-27,9.880000114440918,9.880000114440918,9.869999885559082,9.869999885559082,9.869999885559082,20300
2018-06-28,9.880000114440918,9.880000114440918,9.880000114440918,9.880000114440918,9.880000114440918,11600
2018-06-29,9.880999565124512,9.899999618530273,9.880999565124512,9.890000343322754,9.890000343322754,11700
2018-07-02,9.880000114440918,9.880000114440918,9.880000114440918,9.880000114440918,9.880000114440918,600
2018-07-03,9.907999992370605,9.907999992370605,9.907999992370605,9.907999992370605,9.907999992370605,200
2018-07-05,9.899999618530273,9.899999618530273,9.899999618530273,9.899999618530273,9.899999618530273,200
2018-07-06,9.899999618530273,9.899999618530273,9.899999618530273,9.899999618530273,9.899999618530273,0
2018-07-09,9.880000114440918,9.880000114440918,9.869999885559082,9.880000114440918,9.880000114440918,9400
2018-07-10,9.880000114440918,9.880000114440918,9.869999885559082,9.880000114440918,9.880000114440918,3900
2018-07-11,9.869999885559082,9.899999618530273,9.869999885559082,9.899999618530273,9.899999618530273,16900
2018-07-12,9.869999885559082,9.869999885559082,9.869999885559082,9.869999885559082,9.869999885559082,34700
2018-07-13,9.869999885559082,9.869999885559082,9.869999885559082,9.869999885559082,9.869999885559082,200
2018-07-16,9.869999885559082,9.90999984741211,9.869999885559082,9.90999984741211,9.90999984741211,4300
2018-07-17,9.899999618530273,9.899999618530273,9.869999885559082,9.890000343322754,9.890000343322754,157500
2018-07-18,9.890000343322754,9.899999618530273,9.890000343322754,9.890000343322754,9.890000343322754,16300
2018-07-19,9.920000076293945,9.920000076293945,9.920000076293945,9.920000076293945,9.920000076293945,10100
2018-07-20,9.90999984741211,9.913000106811523,9.890000343322754,9.890000343322754,9.890000343322754,4300
2018-07-23,9.890000343322754,9.890000343322754,9.890000343322754,9.890000343322754,9.890000343322754,25300
2018-07-24,9.890000343322754,9.890000343322754,9.890000343322754,9.890000343322754,9.890000343322754,0
2018-07-25,9.890000343322754,9.890000343322754,9.890000343322754,9.890000343322754,9.890000343322754,0
2018-07-26,9.880000114440918,9.880000114440918,9.880000114440918,9.880000114440918,9.880000114440918,700
2018-07-27,9.949999809265137,9.949999809265137,9.90999984741211,9.90999984741211,9.90999984741211,15500
2018-07-30,9.90999984741211,9.90999984741211,9.90999984741211,9.90999984741211,9.90999984741211,200
2018-07-31,9.920000076293945,9.920000076293945,9.899999618530273,9.920000076293945,9.920000076293945,72000
2018-08-01,9.920000076293945,9.949999809265137,9.920000076293945,9.9399995803833,9.9399995803833,953900
2018-08-02,9.949999809265137,9.949999809265137,9.930000305175781,9.949999809265137,9.949999809265137,108700
2018-08-03,9.949999809265137,9.949999809265137,9.899999618530273,9.899999618530273,9.899999618530273,300
2018-08-06,9.880000114440918,9.949999809265137,9.880000114440918,9.930000305175781,9.930000305175781,251600
2018-08-07,9.949999809265137,9.949999809265137,9.920000076293945,9.920000076293945,9.920000076293945,11400
2018-08-08,9.930000305175781,9.930000305175781,9.899999618530273,9.899999618530273,9.899999618530273,81200
2018-08-09,9.869999885559082,9.899999618530273,9.869999885559082,9.899999618530273,9.899999618530273,51500
2018-08-10,9.899999618530273,9.899999618530273,9.899999618530273,9.899999618530273,9.899999618530273,114700
2018-08-13,9.899999618530273,9.899999618530273,9.880000114440918,9.880000114440918,9.880000114440918,12900
2018-08-14,9.880000114440918,9.880000114440918,9.880000114440918,9.880000114440918,9.880000114440918,1800
2018-08-15,9.850000381469727,9.890000343322754,9.850000381469727,9.890000343322754,9.890000343322754,43100
2018-08-16,9.930000305175781,9.930000305175781,9.899999618530273,9.899999618530273,9.899999618530273,250100
2018-08-17,9.907999992370605,9.949999809265137,9.907999992370605,9.949999809265137,9.949999809265137,200
2018-08-20,9.920000076293945,9.920000076293945,9.920000076293945,9.920000076293945,9.920000076293945,100
2018-08-21,9.920000076293945,9.920000076293945,9.920000076293945,9.920000076293945,9.920000076293945,0
2018-08-22,9.869999885559082,9.920000076293945,9.869999885559082,9.920000076293945,9.920000076293945,10400
2018-08-23,9.949999809265137,9.960000038146973,9.9399995803833,9.960000038146973,9.960000038146973,670700
2018-08-24,9.949999809265137,9.960000038146973,9.944999694824219,9.949999809265137,9.949999809265137,50200
2018-08-27,9.949999809265137,9.960000038146973,9.914999961853027,9.920000076293945,9.920000076293945,1400
2018-08-28,9.899999618530273,9.949999809265137,9.899999618530273,9.920000076293945,9.920000076293945,2700
2018-08-29,9.9350004196167,9.9350004196167,9.9350004196167,9.9350004196167,9.9350004196167,100
2018-08-30,9.949999809265137,9.949999809265137,9.930000305175781,9.930000305175781,9.930000305175781,61600
2018-08-31,9.920000076293945,9.920000076293945,9.869999885559082,9.869999885559082,9.869999885559082,33500
2018-09-04,9.937999725341797,9.949999809265137,9.920000076293945,9.949999809265137,9.949999809265137,79400
2018-09-05,9.9399995803833,9.9399995803833,9.9399995803833,9.9399995803833,9.9399995803833,800
2018-09-06,9.90999984741211,9.949999809265137,9.90999984741211,9.9399995803833,9.9399995803833,17800
2018-09-07,9.930000305175781,9.930000305175781,9.930000305175781,9.930000305175781,9.930000305175781,200
2018-09-10,9.949999809265137,9.949999809265137,9.920000076293945,9.920000076293945,9.920000076293945,31300
2018-09-11,9.920000076293945,9.949999809265137,9.920000076293945,9.949999809265137,9.949999809265137,31200
2018-09-12,9.920000076293945,9.949999809265137,9.920000076293945,9.949999809265137,9.949999809265137,50300
2018-09-13,9.930000305175781,9.9399995803833,9.899999618530273,9.925000190734863,9.925000190734863,26300
2018-09-14,9.9399995803833,9.9399995803833,9.930000305175781,9.930000305175781,9.930000305175781,10700
2018-09-17,9.9399995803833,9.9399995803833,9.920000076293945,9.920000076293945,9.920000076293945,2800
2018-09-18,9.949999809265137,9.949999809265137,9.920000076293945,9.949999809265137,9.949999809265137,56300
2018-09-19,9.949999809265137,9.970000267028809,9.9399995803833,9.96500015258789,9.96500015258789,11000
2018-09-20,9.96500015258789,9.96500015258789,9.96500015258789,9.96500015258789,9.96500015258789,0
2018-09-21,9.9399995803833,9.960000038146973,9.9399995803833,9.960000038146973,9.960000038146973,50100
2018-09-24,9.960000038146973,9.960000038146973,9.9399995803833,9.960000038146973,9.960000038146973,5000
2018-09-25,9.949999809265137,9.970000267028809,9.930000305175781,9.960000038146973,9.960000038146973,28000
2018-09-26,9.960000038146973,9.960000038146973,9.960000038146973,9.960000038146973,9.960000038146973,0
2018-09-27,9.960000038146973,9.960000038146973,9.960000038146973,9.960000038146973,9.960000038146973,0
2018-09-28,9.9399995803833,9.960000038146973,9.9399995803833,9.960000038146973,9.960000038146973,300
2018-10-01,9.949999809265137,10.0,9.949999809265137,9.979999542236328,9.979999542236328,498900
2018-10-02,9.979999542236328,9.979999542236328,9.979999542236328,9.979999542236328,9.979999542236328,0
2018-10-03,10.0,10.0,9.960000038146973,9.960000038146973,9.960000038146973,200
2018-10-04,9.960000038146973,9.960000038146973,9.960000038146973,9.960000038146973,9.960000038146973,1000
2018-10-05,9.949999809265137,9.970000267028809,9.9399995803833,9.960000038146973,9.960000038146973,2600
2018-10-08,9.960000038146973,9.960000038146973,9.960000038146973,9.960000038146973,9.960000038146973,0
2018-10-09,9.960000038146973,9.960000038146973,9.960000038146973,9.960000038146973,9.960000038146973,2000
2018-10-10,9.960000038146973,9.970000267028809,9.960000038146973,9.970000267028809,9.970000267028809,29000
2018-10-11,9.949999809265137,9.979999542236328,9.949999809265137,9.979999542236328,9.979999542236328,286200
2018-10-12,9.979999542236328,10.0,9.979999542236328,9.989999771118164,9.989999771118164,104400
2018-10-15,10.0,10.010000228881836,10.0,10.010000228881836,10.010000228881836,51600
2018-10-16,10.020000457763672,10.020000457763672,10.00100040435791,10.010000228881836,10.010000228881836,21500
2018-10-17,10.010000228881836,10.010000228881836,10.0,10.0,10.0,45900
2018-10-18,10.0,10.0,10.0,10.0,10.0,0
2018-10-19,10.0,10.0,10.0,10.0,10.0,7000
2018-10-22,9.970000267028809,10.0,9.949999809265137,10.0,10.0,9300
2018-10-23,10.0,10.020000457763672,10.0,10.020000457763672,10.020000457763672,136500
2018-10-24,9.979999542236328,10.0,9.979999542236328,10.0,10.0,29500
2018-10-25,10.020000457763672,10.020000457763672,9.979999542236328,10.0,10.0,6400
2018-10-26,10.0,10.010000228881836,9.970000267028809,10.010000228881836,10.010000228881836,38900
2018-10-29,10.020000457763672,10.020000457763672,10.020000457763672,10.020000457763672,10.020000457763672,100
2018-10-30,10.020000457763672,10.020000457763672,9.989999771118164,10.020000457763672,10.020000457763672,3913300
2018-10-31,9.989999771118164,10.020000457763672,9.989999771118164,10.020000457763672,10.020000457763672,62200
2018-11-01,10.0,10.020000457763672,10.0,10.020000457763672,10.020000457763672,490200
2018-11-02,10.017000198364258,10.020000457763672,10.0,10.0,10.0,153700
2018-11-05,10.0,10.0,10.0,10.0,10.0,1100
2018-11-06,10.0,10.050000190734863,10.0,10.050000190734863,10.050000190734863,108900
2018-11-07,10.050000190734863,10.050000190734863,10.050000190734863,10.050000190734863,10.050000190734863,500
2018-11-08,10.050000190734863,10.100000381469727,10.039999961853027,10.050000190734863,10.050000190734863,236800
2018-11-09,10.0,10.079999923706055,10.0,10.079999923706055,10.079999923706055,1700
2018-11-12,10.079999923706055,10.079999923706055,10.079999923706055,10.079999923706055,10.079999923706055,600
2018-11-13,10.079999923706055,10.079999923706055,10.020000457763672,10.050000190734863,10.050000190734863,57900
2018-11-14,10.0,10.079999923706055,10.0,10.069999694824219,10.069999694824219,11700
2018-11-15,10.029999732971191,10.079999923706055,10.029999732971191,10.069999694824219,10.069999694824219,11700
2018-11-16,10.069999694824219,10.069999694824219,10.0,10.0,10.0,800
2018-11-19,10.079999923706055,10.09000015258789,10.079999923706055,10.09000015258789,10.09000015258789,500
2018-11-20,10.029999732971191,10.079999923706055,10.029999732971191,10.079999923706055,10.079999923706055,3100
2018-11-21,10.050000190734863,10.079999923706055,10.050000190734863,10.079999923706055,10.079999923706055,100400
2018-11-23,10.050000190734863,10.100000381469727,10.050000190734863,10.100000381469727,10.100000381469727,66800
2018-11-26,10.100000381469727,10.100000381469727,10.09000015258789,10.09000015258789,10.09000015258789,1000
2018-11-27,10.100000381469727,10.100000381469727,10.050000190734863,10.079999923706055,10.079999923706055,127800
2018-11-28,10.079999923706055,10.079999923706055,10.079999923706055,10.079999923706055,10.079999923706055,100
2018-11-29,10.079999923706055,10.079999923706055,10.079999923706055,10.079999923706055,10.079999923706055,0
2018-11-30,10.0600004196167,10.100000381469727,10.0600004196167,10.09000015258789,10.09000015258789,7300
2018-12-03,10.09000015258789,10.100000381469727,10.0649995803833,10.100000381469727,10.100000381469727,4500
2018-12-04,10.09000015258789,10.09000015258789,10.09000015258789,10.09000015258789,10.09000015258789,100200
2018-12-06,10.050000190734863,10.069999694824219,10.050000190734863,10.050000190734863,10.050000190734863,2200
2018-12-07,10.064000129699707,10.09000015258789,10.050000190734863,10.079999923706055,10.079999923706055,58100
2018-12-10,10.09000015258789,10.100000381469727,10.050000190734863,10.079999923706055,10.079999923706055,109000
2018-12-11,10.109999656677246,10.109999656677246,10.050000190734863,10.08899974822998,10.08899974822998,328300
2018-12-12,10.119999885559082,10.119999885559082,10.0600004196167,10.0600004196167,10.0600004196167,252100
2018-12-13,10.0600004196167,10.079999923706055,10.0600004196167,10.079999923706055,10.079999923706055,1400
2018-12-14,10.100000381469727,10.119999885559082,10.079999923706055,10.079999923706055,10.079999923706055,1300
2018-12-17,10.079999923706055,10.10099983215332,10.0600004196167,10.0600004196167,10.0600004196167,3800
2018-12-18,10.0600004196167,10.109999656677246,10.0600004196167,10.079999923706055,10.079999923706055,308800
2018-12-19,10.079999923706055,10.09000015258789,10.079999923706055,10.09000015258789,10.09000015258789,300
2018-12-20,10.100000381469727,10.100000381469727,10.07800006866455,10.09000015258789,10.09000015258789,31800
2018-12-21,10.079999923706055,10.100000381469727,10.079999923706055,10.100000381469727,10.100000381469727,46200
2018-12-24,10.100000381469727,10.100000381469727,10.100000381469727,10.100000381469727,10.100000381469727,0
2018-12-26,10.079999923706055,10.100000381469727,10.079999923706055,10.100000381469727,10.100000381469727,12600
2018-12-27,10.081000328063965,10.119999885559082,10.079999923706055,10.109999656677246,10.109999656677246,490900
2018-12-28,10.09000015258789,10.119999885559082,10.09000015258789,10.109999656677246,10.109999656677246,1900
2018-12-31,10.119999885559082,10.140000343322754,10.109999656677246,10.130000114440918,10.130000114440918,227300
2019-01-02,10.079999923706055,10.140000343322754,10.079999923706055,10.130000114440918,10.130000114440918,318000
2019-01-03,10.119999885559082,10.119999885559082,10.109999656677246,10.119999885559082,10.119999885559082,630500
2019-01-04,10.119999885559082,10.130000114440918,10.109999656677246,10.130000114440918,10.130000114440918,1129400
2019-01-07,10.119999885559082,10.130000114440918,10.109999656677246,10.116999626159668,10.116999626159668,646300
2019-01-08,10.109999656677246,10.140000343322754,10.109999656677246,10.119999885559082,10.119999885559082,787100
2019-01-09,10.130000114440918,10.140000343322754,10.119999885559082,10.119999885559082,10.119999885559082,2062600
2019-01-10,10.130000114440918,10.130000114440918,10.119999885559082,10.119999885559082,10.119999885559082,37400
2019-01-11,10.119999885559082,10.140000343322754,10.119999885559082,10.130000114440918,10.130000114440918,124100
2019-01-14,10.130000114440918,10.130000114440918,10.119999885559082,10.130000114440918,10.130000114440918,96100
2019-01-15,10.130000114440918,10.149999618530273,10.119999885559082,10.140000343322754,10.140000343322754,182600
2019-01-16,10.140000343322754,10.149999618530273,10.119999885559082,10.130000114440918,10.130000114440918,41400
2019-01-17,10.149999618530273,10.180000305175781,10.149999618530273,10.180000305175781,10.180000305175781,777600
2019-01-18,10.170000076293945,10.180000305175781,10.15999984741211,10.180000305175781,10.180000305175781,29000
2019-01-22,10.170000076293945,10.180999755859375,10.15999984741211,10.180999755859375,10.180999755859375,19300
2019-01-23,10.149999618530273,10.1899995803833,10.149999618530273,10.1899995803833,10.1899995803833,3000
2019-01-24,10.170000076293945,10.1899995803833,10.15999984741211,10.1899995803833,10.1899995803833,500
2019-01-25,10.15999984741211,10.15999984741211,10.15999984741211,10.15999984741211,10.15999984741211,1100
2019-01-28,10.180000305175781,10.1899995803833,10.180000305175781,10.1899995803833,10.1899995803833,24300
2019-01-29,10.1899995803833,10.199999809265137,10.175000190734863,10.187999725341797,10.187999725341797,296900
2019-01-30,10.199999809265137,10.199999809265137,10.182999610900879,10.182999610900879,10.182999610900879,3400
2019-01-31,10.1899995803833,10.199999809265137,10.180000305175781,10.180000305175781,10.180000305175781,81100
2019-02-01,10.229999542236328,10.229999542236328,10.199999809265137,10.199999809265137,10.199999809265137,342400
2019-02-04,10.1899995803833,10.210000038146973,10.1899995803833,10.199999809265137,10.199999809265137,177300
2019-02-05,10.199999809265137,10.199999809265137,10.199999809265137,10.199999809265137,10.199999809265137,0
2019-02-06,10.1899995803833,10.220000267028809,10.1899995803833,10.1899995803833,10.1899995803833,66900
2019-02-07,10.199999809265137,10.199999809265137,10.180000305175781,10.180000305175781,10.180000305175781,8500
2019-02-08,10.210000038146973,10.210000038146973,10.189000129699707,10.20199966430664,10.20199966430664,72200
2019-02-11,10.1899995803833,10.1899995803833,10.180000305175781,10.180000305175781,10.180000305175781,75300
2019-02-12,10.180000305175781,10.229999542236328,10.180000305175781,10.220000267028809,10.220000267028809,163000
2019-02-13,10.220000267028809,10.220000267028809,10.220000267028809,10.220000267028809,10.220000267028809,100
2019-02-14,10.210000038146973,10.220000267028809,10.210000038146973,10.210000038146973,10.210000038146973,900
2019-02-15,10.220000267028809,10.25,10.220000267028809,10.246000289916992,10.246000289916992,21000
2019-02-19,10.246000289916992,10.246000289916992,10.246000289916992,10.246000289916992,10.246000289916992,0
2019-02-20,10.229999542236328,10.25,10.229999542236328,10.25,10.25,4200
2019-02-21,10.199999809265137,10.25,10.199999809265137,10.25,10.25,2600
2019-02-22,10.25,10.25,10.25,10.25,10.25,100
2019-02-25,10.220000267028809,10.25,10.220000267028809,10.25,10.25,6400
2019-02-26,10.17300033569336,10.25,10.170000076293945,10.25,10.25,3000
2019-02-27,10.215999603271484,10.239999771118164,10.215999603271484,10.239999771118164,10.239999771118164,6700
2019-02-28,10.218000411987305,10.25,10.199999809265137,10.25,10.25,51600
2019-03-01,10.210000038146973,10.229999542236328,10.199999809265137,10.229999542236328,10.229999542236328,42100
2019-03-04,10.229999542236328,10.229999542236328,10.229999542236328,10.229999542236328,10.229999542236328,0
2019-03-05,10.229999542236328,10.229999542236328,10.229999542236328,10.229999542236328,10.229999542236328,0
2019-03-06,10.25,10.25,10.25,10.25,10.25,800
2019-03-07,10.225000381469727,10.25,10.1899995803833,10.239999771118164,10.239999771118164,4100
2019-03-08,10.229000091552734,10.229000091552734,10.229000091552734,10.229000091552734,10.229000091552734,900
2019-03-11,10.246999740600586,10.246999740600586,10.239999771118164,10.239999771118164,10.239999771118164,600
2019-03-12,10.25,10.25,10.246999740600586,10.25,10.25,20900
2019-03-13,10.229999542236328,10.229999542236328,10.229999542236328,10.229999542236328,10.229999542236328,600
2019-03-14,10.25,10.260000228881836,10.25,10.260000228881836,10.260000228881836,10700
2019-03-15,10.23900032043457,10.25,10.229999542236328,10.25,10.25,103300
2019-03-18,10.25,10.25,10.229999542236328,10.25,10.25,136400
2019-03-19,10.236000061035156,10.244999885559082,10.220000267028809,10.239999771118164,10.239999771118164,142300
2019-03-20,10.229999542236328,10.25,10.229999542236328,10.25,10.25,3200
2019-03-21,10.239999771118164,10.239999771118164,10.239999771118164,10.239999771118164,10.239999771118164,1600
2019-03-22,10.25,10.25,10.239999771118164,10.25,10.25,250800
2019-03-25,10.25,10.260000228881836,10.25,10.25,10.25,12600
2019-03-26,10.270000457763672,10.270000457763672,10.239999771118164,10.25,10.25,129900
2019-03-27,10.25,10.25,10.25,10.25,10.25,0
2019-03-28,10.25,10.279999732971191,10.25,10.270000457763672,10.270000457763672,174700
2019-03-29,10.270000457763672,10.270000457763672,10.25,10.25,10.25,89800
2019-04-01,10.260000228881836,10.260000228881836,10.260000228881836,10.260000228881836,10.260000228881836,98900
2019-04-02,10.260000228881836,10.260000228881836,10.260000228881836,10.260000228881836,10.260000228881836,100
2019-04-03,10.260000228881836,10.260000228881836,10.260000228881836,10.260000228881836,10.260000228881836,0
2019-04-04,10.279999732971191,10.300000190734863,10.270000457763672,10.289999961853027,10.289999961853027,70600
2019-04-05,10.295000076293945,10.295000076293945,10.295000076293945,10.295000076293945,10.295000076293945,100
2019-04-08,10.282999992370605,10.289999961853027,10.282999992370605,10.289999961853027,10.289999961853027,1400
2019-04-09,10.300000190734863,10.300000190734863,10.279999732971191,10.286999702453613,10.286999702453613,3900
2019-04-10,10.270000457763672,10.300000190734863,10.270000457763672,10.300000190734863,10.300000190734863,800
2019-04-11,10.291000366210938,10.291000366210938,10.270000457763672,10.270000457763672,10.270000457763672,2300
2019-04-12,10.300000190734863,10.300000190734863,10.300000190734863,10.300000190734863,10.300000190734863,500
2019-04-15,10.300000190734863,10.300000190734863,10.300000190734863,10.300000190734863,10.300000190734863,200
2019-04-16,10.28499984741211,10.28499984741211,10.270000457763672,10.270000457763672,10.270000457763672,200
2019-04-17,10.28499984741211,10.28499984741211,10.28499984741211,10.28499984741211,10.28499984741211,400
2019-04-18,10.289999961853027,10.289999961853027,10.279999732971191,10.289999961853027,10.289999961853027,1000
2019-04-22,10.279999732971191,10.279999732971191,10.279999732971191,10.279999732971191,10.279999732971191,600
2019-04-23,10.319999694824219,10.333000183105469,10.319999694824219,10.319999694824219,10.319999694824219,7700
2019-04-24,10.329999923706055,10.329999923706055,10.319999694824219,10.329999923706055,10.329999923706055,204100
2019-04-25,10.324000358581543,10.329999923706055,10.319999694824219,10.329999923706055,10.329999923706055,800500
2019-04-26,10.3100004196167,10.329999923706055,10.305000305175781,10.329999923706055,10.329999923706055,8600
2019-04-29,10.34000015258789,10.380000114440918,10.319999694824219,10.319999694824219,10.319999694824219,321500
2019-04-30,10.329999923706055,10.380000114440918,10.319999694824219,10.380000114440918,10.380000114440918,257500
2019-05-01,10.359999656677246,10.359999656677246,10.34000015258789,10.34000015258789,10.34000015258789,12300
2019-05-02,10.350000381469727,10.350000381469727,10.34000015258789,10.34000015258789,10.34000015258789,15400
2019-05-03,10.350000381469727,10.350000381469727,10.319999694824219,10.319999694824219,10.319999694824219,26900
2019-05-06,10.319999694824219,10.319999694824219,10.319999694824219,10.319999694824219,10.319999694824219,0
2019-05-07,10.319999694824219,10.319999694824219,10.319999694824219,10.319999694824219,10.319999694824219,225000
2019-05-08,10.319999694824219,10.319999694824219,10.319999694824219,10.319999694824219,10.319999694824219,100
2019-05-09,10.34000015258789,10.359999656677246,10.319999694824219,10.319999694824219,10.319999694824219,71800
2019-05-10,10.335000038146973,10.335000038146973,10.335000038146973,10.335000038146973,10.335000038146973,300
2019-05-13,10.342000007629395,10.342000007629395,10.329999923706055,10.329999923706055,10.329999923706055,26700
2019-05-14,10.350000381469727,10.38700008392334,10.319999694824219,10.319999694824219,10.319999694824219,11100
2019-05-15,10.319999694824219,10.319999694824219,10.319999694824219,10.319999694824219,10.319999694824219,0
2019-05-16,10.319999694824219,10.319999694824219,10.319999694824219,10.319999694824219,10.319999694824219,200
2019-05-17,10.319999694824219,10.319999694824219,10.319999694824219,10.319999694824219,10.319999694824219,0
2019-05-20,10.319999694824219,10.321000099182129,10.319999694824219,10.321000099182129,10.321000099182129,800
2019-05-21,10.34000015258789,10.34000015258789,10.34000015258789,10.34000015258789,10.34000015258789,1525600
2019-05-22,10.34000015258789,10.380000114440918,10.34000015258789,10.380000114440918,10.380000114440918,4900
2019-05-23,10.340999603271484,10.380000114440918,10.340999603271484,10.369999885559082,10.369999885559082,1100
2019-05-24,10.348999977111816,10.348999977111816,10.348999977111816,10.348999977111816,10.348999977111816,300
2019-05-28,10.348999977111816,10.348999977111816,10.348999977111816,10.348999977111816,10.348999977111816,100
2019-05-29,10.348999977111816,10.348999977111816,10.348999977111816,10.348999977111816,10.348999977111816,0
2019-05-30,10.359999656677246,10.359999656677246,10.34000015258789,10.34000015258789,10.34000015258789,3000
2019-05-31,10.34000015258789,10.34000015258789,10.34000015258789,10.34000015258789,10.34000015258789,100
2019-06-03,10.359999656677246,10.380000114440918,10.359999656677246,10.359999656677246,10.359999656677246,14000
2019-06-04,10.380000114440918,10.380000114440918,10.359999656677246,10.359999656677246,10.359999656677246,400
2019-06-05,10.359999656677246,10.359999656677246,10.359999656677246,10.359999656677246,10.359999656677246,100
2019-06-06,10.359999656677246,10.359999656677246,10.359999656677246,10.359999656677246,10.359999656677246,200
2019-06-07,10.399999618530273,10.399999618530273,10.399999618530273,10.399999618530273,10.399999618530273,900
2019-06-10,10.390000343322754,10.390000343322754,10.359999656677246,10.359999656677246,10.359999656677246,700
2019-06-11,10.359999656677246,10.359999656677246,10.359999656677246,10.359999656677246,10.359999656677246,100
2019-06-12,10.359999656677246,10.359999656677246,10.359999656677246,10.359999656677246,10.359999656677246,100
2019-06-13,10.359999656677246,10.359999656677246,10.359999656677246,10.359999656677246,10.359999656677246,0
2019-06-14,10.42199993133545,10.899999618530273,10.369999885559082,10.5,10.5,6600
2019-06-17,10.5,10.5,10.5,10.5,10.5,0
2019-06-18,10.550000190734863,10.555000305175781,10.5,10.5,10.5,8000
2019-06-19,10.5,10.5,10.5,10.5,10.5,0
2019-06-20,10.5,10.5,10.5,10.5,10.5,100
2019-06-21,10.699999809265137,10.699999809265137,10.699999809265137,10.699999809265137,10.699999809265137,3700
2019-06-24,10.437000274658203,10.437000274658203,10.359999656677246,10.359999656677246,10.359999656677246,26300
2019-06-25,10.369999885559082,10.369999885559082,10.359999656677246,10.359999656677246,10.359999656677246,400
2019-06-26,10.390000343322754,10.390000343322754,10.390000343322754,10.390000343322754,10.390000343322754,5400
2019-06-27,10.390000343322754,10.390000343322754,10.390000343322754,10.390000343322754,10.390000343322754,0
2019-06-28,10.380000114440918,10.380000114440918,10.380000114440918,10.380000114440918,10.380000114440918,4100
2019-07-01,10.4350004196167,10.470000267028809,10.4350004196167,10.4350004196167,10.4350004196167,2100
2019-07-02,10.4350004196167,10.4350004196167,10.4350004196167,10.4350004196167,10.4350004196167,100
2019-07-03,10.380000114440918,10.380000114440918,10.380000114440918,10.380000114440918,10.380000114440918,200
2019-07-05,10.380000114440918,10.380000114440918,10.380000114440918,10.380000114440918,10.380000114440918,100
2019-07-08,10.479999542236328,10.479999542236328,10.425000190734863,10.449999809265137,10.449999809265137,7000
2019-07-09,10.359999656677246,10.359999656677246,10.300000190734863,10.300000190734863,10.300000190734863,1400
2019-07-10,10.359999656677246,10.359999656677246,10.359999656677246,10.359999656677246,10.359999656677246,600
2019-07-11,10.359999656677246,10.359999656677246,10.359999656677246,10.359999656677246,10.359999656677246,0
2019-07-12,10.359999656677246,10.359999656677246,10.359999656677246,10.359999656677246,10.359999656677246,0
2019-07-15,10.359999656677246,10.359999656677246,10.359999656677246,10.359999656677246,10.359999656677246,0
2019-07-16,10.40999984741211,10.40999984741211,10.380000114440918,10.380000114440918,10.380000114440918,1600
2019-07-17,10.380000114440918,10.380000114440918,10.380000114440918,10.380000114440918,10.380000114440918,0
2019-07-18,10.380000114440918,10.380000114440918,10.380000114440918,10.380000114440918,10.380000114440918,0
2019-07-19,10.380000114440918,10.380000114440918,10.380000114440918,10.380000114440918,10.380000114440918,0
2019-07-22,10.380000114440918,10.380000114440918,10.380000114440918,10.380000114440918,10.380000114440918,0
2019-07-23,10.380000114440918,10.380000114440918,10.380000114440918,10.380000114440918,10.380000114440918,100
2019-07-24,10.479999542236328,10.489999771118164,10.479999542236328,10.489999771118164,10.489999771118164,1400
2019-07-25,10.47700023651123,10.479999542236328,10.430000305175781,10.430000305175781,10.430000305175781,1500
2019-07-26,10.430000305175781,10.430000305175781,10.430000305175781,10.430000305175781,10.430000305175781,0
2019-07-29,10.430000305175781,10.430000305175781,10.430000305175781,10.430000305175781,10.430000305175781,0
2019-07-30,10.47700023651123,10.479999542236328,10.430000305175781,10.430000305175781,10.430000305175781,1500
2019-07-31,10.47700023651123,10.479999542236328,10.430000305175781,10.430000305175781,10.430000305175781,1500
2019-08-01,10.430000305175781,10.430000305175781,10.430000305175781,10.430000305175781,10.430000305175781,0
2019-08-02,10.430000305175781,10.430000305175781,10.430000305175781,10.430000305175781,10.430000305175781,0
2019-08-05,10.430000305175781,10.430000305175781,10.430000305175781,10.430000305175781,10.430000305175781,0
2019-08-06,10.430000305175781,10.430000305175781,10.430000305175781,10.430000305175781,10.430000305175781,0
2019-08-07,10.369000434875488,10.369000434875488,10.369000434875488,10.369000434875488,10.369000434875488,100
2019-08-08,10.369000434875488,10.369000434875488,10.369000434875488,10.369000434875488,10.369000434875488,100
2019-08-09,9.949999809265137,10.3100004196167,9.949999809265137,10.3100004196167,10.3100004196167,400
2019-08-12,9.949999809265137,10.3100004196167,9.949999809265137,10.3100004196167,10.3100004196167,400
2019-08-13,10.3100004196167,10.3100004196167,10.3100004196167,10.3100004196167,10.3100004196167,500
2019-08-14,10.380000114440918,10.380000114440918,10.380000114440918,10.380000114440918,10.380000114440918,200
2019-08-15,10.380000114440918,10.380000114440918,10.380000114440918,10.380000114440918,10.380000114440918,100
2019-08-16,10.319999694824219,10.319999694824219,10.319999694824219,10.319999694824219,10.319999694824219,600
2019-08-19,10.319999694824219,10.319999694824219,10.319999694824219,10.319999694824219,10.319999694824219,200
2019-08-20,10.319999694824219,10.319999694824219,10.319999694824219,10.319999694824219,10.319999694824219,0
2019-08-21,10.319999694824219,10.319999694824219,10.319999694824219,10.319999694824219,10.319999694824219,0
2019-08-22,10.319999694824219,10.319999694824219,10.319999694824219,10.319999694824219,10.319999694824219,200
2019-08-23,10.319999694824219,10.319999694824219,10.319999694824219,10.319999694824219,10.319999694824219,0
2019-08-26,10.319999694824219,10.319999694824219,10.319999694824219,10.319999694824219,10.319999694824219,0
2019-08-27,10.149999618530273,10.380000114440918,9.5,9.5,9.5,800
2019-08-28,10.0,10.25,10.0,10.25,10.25,1500
2019-08-29,10.25,10.25,10.25,10.25,10.25,0
2019-08-30,10.25,10.25,10.25,10.25,10.25,0
2019-09-03,10.25,10.25,10.25,10.25,10.25,0
2019-09-04,8.0600004196167,8.0600004196167,8.0600004196167,8.0600004196167,8.0600004196167,100
2019-09-05,8.0600004196167,8.0600004196167,8.0600004196167,8.0600004196167,8.0600004196167,0
2019-09-06,8.0600004196167,8.0600004196167,8.0600004196167,8.0600004196167,8.0600004196167,0
2019-09-09,8.0600004196167,8.0600004196167,8.0600004196167,8.0600004196167,8.0600004196167,0
2019-09-10,8.0600004196167,8.0600004196167,8.0600004196167,8.0600004196167,8.0600004196167,0
2019-09-11,8.0600004196167,8.0600004196167,8.0600004196167,8.0600004196167,8.0600004196167,0
2019-09-12,10.331000328063965,10.331000328063965,10.331000328063965,10.331000328063965,10.331000328063965,100
2019-09-13,10.331000328063965,10.331000328063965,10.331000328063965,10.331000328063965,10.331000328063965,100
2019-09-16,10.331000328063965,10.331000328063965,10.331000328063965,10.331000328063965,10.331000328063965,100
2019-09-17,10.331000328063965,10.331000328063965,10.331000328063965,10.331000328063965,10.331000328063965,0
2019-09-18,10.331000328063965,10.331000328063965,10.331000328063965,10.331000328063965,10.331000328063965,0
2019-09-19,10.329999923706055,10.329999923706055,10.329999923706055,10.329999923706055,10.329999923706055,100
2019-09-20,10.329999923706055,10.329999923706055,10.329999923706055,10.329999923706055,10.329999923706055,200
2019-09-23,10.159000396728516,10.159000396728516,10.159000396728516,10.159000396728516,10.159000396728516,100
2019-09-24,10.159000396728516,10.159000396728516,10.159000396728516,10.159000396728516,10.159000396728516,0
2019-09-25,10.159000396728516,10.159000396728516,10.159000396728516,10.159000396728516,10.159000396728516,0
2019-09-26,10.159000396728516,10.159000396728516,10.159000396728516,10.159000396728516,10.159000396728516,0
2019-09-27,10.159000396728516,10.159000396728516,10.159000396728516,10.159000396728516,10.159000396728516,0
2019-09-30,10.159000396728516,10.159000396728516,10.159000396728516,10.159000396728516,10.159000396728516,0
2019-10-01,10.159000396728516,10.159000396728516,10.159000396728516,10.159000396728516,10.159000396728516,0
2019-10-02,10.072999954223633,10.072999954223633,10.069999694824219,10.069999694824219,10.069999694824219,4000
2019-10-03,10.029999732971191,10.039999961853027,10.010000228881836,10.010000228881836,10.010000228881836,6200
2019-10-04,10.1899995803833,10.1899995803833,10.020000457763672,10.020000457763672,10.020000457763672,700
2019-10-07,10.020000457763672,10.020000457763672,10.020000457763672,10.020000457763672,10.020000457763672,0
2019-10-08,10.020000457763672,10.020000457763672,10.020000457763672,10.020000457763672,10.020000457763672,0
2019-10-09,10.010000228881836,10.050000190734863,10.010000228881836,10.050000190734863,10.050000190734863,700
2019-10-10,10.020000457763672,10.300000190734863,10.020000457763672,10.300000190734863,10.300000190734863,3700
2019-10-11,10.21500015258789,10.300000190734863,10.21500015258789,10.300000190734863,10.300000190734863,400
2019-10-14,10.289999961853027,10.300000190734863,10.289999961853027,10.300000190734863,10.300000190734863,4100
2019-10-15,10.300000190734863,10.300000190734863,10.300000190734863,10.300000190734863,10.300000190734863,0
2019-10-16,10.300000190734863,10.300000190734863,10.300000190734863,10.300000190734863,10.300000190734863,0
2019-10-17,10.300000190734863,10.300000190734863,10.300000190734863,10.300000190734863,10.300000190734863,0
2019-10-18,10.300000190734863,10.300000190734863,10.300000190734863,10.300000190734863,10.300000190734863,0
2019-10-21,10.300000190734863,10.300000190734863,10.300000190734863,10.300000190734863,10.300000190734863,100
2019-10-22,10.300000190734863,10.300000190734863,10.300000190734863,10.300000190734863,10.300000190734863,125400
2019-10-23,10.300000190734863,10.300000190734863,10.300000190734863,10.300000190734863,10.300000190734863,0
2019-10-24,10.3100004196167,10.319999694824219,10.3100004196167,10.319999694824219,10.319999694824219,300
2019-10-25,10.319999694824219,10.319999694824219,10.319999694824219,10.319999694824219,10.319999694824219,0
2019-10-28,10.829999923706055,10.829999923706055,10.829999923706055,10.829999923706055,10.829999923706055,1700
2019-10-29,10.829999923706055,10.829999923706055,10.829999923706055,10.829999923706055,10.829999923706055,1300
2019-10-30,10.829999923706055,10.829999923706055,10.611000061035156,10.611000061035156,10.611000061035156,1000
2019-10-31,10.350000381469727,10.350000381469727,10.350000381469727,10.350000381469727,10.350000381469727,1300
2019-11-01,10.829999923706055,10.829999923706055,10.829999923706055,10.829999923706055,10.829999923706055,700
2019-11-04,10.829999923706055,10.829999923706055,10.829999923706055,10.829999923706055,10.829999923706055,0
2019-11-05,10.829999923706055,10.829999923706055,10.829999923706055,10.829999923706055,10.829999923706055,0
2019-11-06,10.829999923706055,10.829999923706055,10.829999923706055,10.829999923706055,10.829999923706055,0
2019-11-07,10.829999923706055,10.829999923706055,10.829999923706055,10.829999923706055,10.829999923706055,0
2019-11-08,10.829999923706055,10.829999923706055,10.829999923706055,10.829999923706055,10.829999923706055,0
2019-11-11,10.829999923706055,10.829999923706055,10.829999923706055,10.829999923706055,10.829999923706055,100
2019-11-12,10.829999923706055,10.829999923706055,10.829999923706055,10.829999923706055,10.829999923706055,0
2019-11-13,10.829999923706055,10.829999923706055,10.829999923706055,10.829999923706055,10.829999923706055,0
2019-11-14,10.829999923706055,10.829999923706055,10.829999923706055,10.829999923706055,10.829999923706055,0
2019-11-15,10.829999923706055,10.829999923706055,10.829999923706055,10.829999923706055,10.829999923706055,0
2019-11-18,10.829999923706055,10.829999923706055,10.829999923706055,10.829999923706055,10.829999923706055,0
2019-11-19,10.829999923706055,10.829999923706055,10.829999923706055,10.829999923706055,10.829999923706055,0
2019-11-20,10.829999923706055,10.829999923706055,10.829999923706055,10.829999923706055,10.829999923706055,0
2019-11-21,10.829999923706055,10.829999923706055,10.829999923706055,10.829999923706055,10.829999923706055,0
2019-11-22,10.300000190734863,10.300000190734863,10.300000190734863,10.300000190734863,10.300000190734863,100
2019-11-25,10.300000190734863,10.300000190734863,10.300000190734863,10.300000190734863,10.300000190734863,0
2019-11-26,10.300000190734863,10.300000190734863,10.300000190734863,10.300000190734863,10.300000190734863,100
2019-11-27,10.300000190734863,10.300000190734863,10.300000190734863,10.300000190734863,10.300000190734863,0
2019-11-29,10.300000190734863,10.300000190734863,10.300000190734863,10.300000190734863,10.300000190734863,0
2019-12-02,10.300000190734863,10.300000190734863,10.300000190734863,10.300000190734863,10.300000190734863,0
2019-12-03,10.300000190734863,10.300000190734863,10.300000190734863,10.300000190734863,10.300000190734863,0
2019-12-04,10.300000190734863,10.300000190734863,10.300000190734863,10.300000190734863,10.300000190734863,0
2019-12-05,10.300000190734863,10.300000190734863,10.300000190734863,10.300000190734863,10.300000190734863,0
2019-12-06,10.300000190734863,10.300000190734863,10.300000190734863,10.300000190734863,10.300000190734863,0
2019-12-09,10.300000190734863,10.300000190734863,10.300000190734863,10.300000190734863,10.300000190734863,0
2019-12-10,10.829999923706055,11.210000038146973,10.819999694824219,11.210000038146973,11.210000038146973,2400
2019-12-11,10.550000190734863,10.550000190734863,10.550000190734863,10.550000190734863,10.550000190734863,200
2019-12-12,10.550000190734863,10.550000190734863,10.550000190734863,10.550000190734863,10.550000190734863,0
2019-12-13,10.550000190734863,10.550000190734863,10.550000190734863,10.550000190734863,10.550000190734863,0
2019-12-16,10.550000190734863,10.550000190734863,10.550000190734863,10.550000190734863,10.550000190734863,0
2019-12-17,10.550000190734863,10.550000190734863,10.550000190734863,10.550000190734863,10.550000190734863,0
2019-12-18,10.550000190734863,10.550000190734863,10.550000190734863,10.550000190734863,10.550000190734863,0
2019-12-19,10.550000190734863,10.550000190734863,10.550000190734863,10.550000190734863,10.550000190734863,0
2019-12-20,10.25,10.25,10.25,10.25,10.25,1500
2019-12-23,10.25,10.25,10.25,10.25,10.25,0
2019-12-24,10.25,10.25,10.25,10.25,10.25,0
2019-12-26,9.399999618530273,9.399999618530273,9.399999618530273,9.399999618530273,9.399999618530273,100
2019-12-27,9.399999618530273,9.399999618530273,9.399999618530273,9.399999618530273,9.399999618530273,0
2019-12-30,10.75,10.75,10.199999809265137,10.199999809265137,10.199999809265137,200
2019-12-31,10.63700008392334,10.63700008392334,10.63700008392334,10.63700008392334,10.63700008392334,300
2020-01-02,10.63700008392334,10.63700008392334,10.63700008392334,10.63700008392334,10.63700008392334,0
2020-01-03,10.63700008392334,10.63700008392334,10.63700008392334,10.63700008392334,10.63700008392334,0
2020-01-06,8.805000305175781,8.805000305175781,8.805000305175781,8.805000305175781,8.805000305175781,100
2020-01-07,8.805000305175781,8.805000305175781,8.805000305175781,8.805000305175781,8.805000305175781,0
2020-01-08,8.805000305175781,8.805000305175781,8.805000305175781,8.805000305175781,8.805000305175781,0
2020-01-09,8.805000305175781,8.805000305175781,8.805000305175781,8.805000305175781,8.805000305175781,0
2020-01-10,8.805000305175781,8.805000305175781,8.805000305175781,8.805000305175781,8.805000305175781,0
2020-01-13,8.805000305175781,8.805000305175781,8.805000305175781,8.805000305175781,8.805000305175781,0
2020-01-14,10.050000190734863,10.050000190734863,10.050000190734863,10.050000190734863,10.050000190734863,100
2020-01-15,10.050000190734863,10.050000190734863,10.050000190734863,10.050000190734863,10.050000190734863,0
2020-01-16,10.050000190734863,10.050000190734863,10.050000190734863,10.050000190734863,10.050000190734863,0
2020-01-17,10.050000190734863,10.050000190734863,10.050000190734863,10.050000190734863,10.050000190734863,0
2020-01-21,10.050000190734863,10.050000190734863,10.050000190734863,10.050000190734863,10.050000190734863,0
2020-01-22,10.050000190734863,10.050000190734863,10.050000190734863,10.050000190734863,10.050000190734863,0
2020-01-23,10.050000190734863,10.050000190734863,10.050000190734863,10.050000190734863,10.050000190734863,0
2020-01-24,10.050000190734863,10.050000190734863,10.050000190734863,10.050000190734863,10.050000190734863,0
2020-01-27,10.50100040435791,10.50100040435791,10.50100040435791,10.50100040435791,10.50100040435791,300
2020-01-28,10.50100040435791,10.50100040435791,10.50100040435791,10.50100040435791,10.50100040435791,0
2020-01-29,10.50100040435791,10.50100040435791,10.50100040435791,10.50100040435791,10.50100040435791,0
2020-01-30,10.5,10.5,10.5,10.5,10.5,100
2020-01-31,10.5,10.5,10.5,10.5,10.5,0
2020-02-03,10.5,10.5,10.5,10.5,10.5,0
2020-02-04,10.5,10.5,10.5,10.5,10.5,0
2020-02-05,10.5,10.5,10.5,10.5,10.5,0
2020-02-06,10.5,10.5,10.5,10.5,10.5,0
2020-02-07,10.5,10.5,10.5,10.5,10.5,0
2020-02-10,10.538000106811523,10.538000106811523,10.538000106811523,10.538000106811523,10.538000106811523,200
2020-02-11,10.538000106811523,10.538000106811523,10.538000106811523,10.538000106811523,10.538000106811523,0
2020-02-12,10.538000106811523,10.538000106811523,10.538000106811523,10.538000106811523,10.538000106811523,0
2020-02-13,10.538000106811523,10.538000106811523,10.538000106811523,10.538000106811523,10.538000106811523,0
2020-02-14,10.538000106811523,10.538000106811523,10.538000106811523,10.538000106811523,10.538000106811523,0
2020-02-18,10.850000381469727,10.850000381469727,10.788000106811523,10.788000106811523,10.788000106811523,6800
2020-02-19,10.788000106811523,10.788000106811523,10.788000106811523,10.788000106811523,10.788000106811523,0
2020-02-20,10.788000106811523,10.788000106811523,10.788000106811523,10.788000106811523,10.788000106811523,0
2020-02-21,10.788000106811523,10.788000106811523,10.788000106811523,10.788000106811523,10.788000106811523,0
2020-02-24,9.899999618530273,9.927000045776367,9.218000411987305,9.927000045776367,9.927000045776367,1500
2020-02-25,9.927000045776367,9.927000045776367,9.927000045776367,9.927000045776367,9.927000045776367,0
2020-02-26,10.899999618530273,10.899999618530273,10.899999618530273,10.899999618530273,10.899999618530273,100
2020-02-27,11.25,11.25,11.25,11.25,11.25,300
2020-02-28,11.25,11.25,11.25,11.25,11.25,0
2020-03-02,11.25,11.25,11.25,11.25,11.25,0
2020-03-03,11.25,11.25,11.25,11.25,11.25,0
2020-03-04,11.25,11.25,11.25,11.25,11.25,0
2020-03-05,11.25,11.25,11.25,11.25,11.25,0
2020-03-06,11.25,11.25,11.25,11.25,11.25,0
2020-03-09,11.25,11.25,11.25,11.25,11.25,0
2020-03-10,11.25,11.25,11.25,11.25,11.25,0
2020-03-11,11.0,11.0,11.0,11.0,11.0,200
2020-03-12,9.899999618530273,9.899999618530273,8.920000076293945,9.029999732971191,9.029999732971191,2400
2020-03-13,9.899999618530273,9.899999618530273,9.899999618530273,9.899999618530273,9.899999618530273,300
2020-03-16,7.130000114440918,7.489999771118164,7.130000114440918,7.489999771118164,7.489999771118164,400
2020-03-17,7.489999771118164,7.489999771118164,7.489999771118164,7.489999771118164,7.489999771118164,0
2020-03-18,7.489999771118164,7.489999771118164,7.489999771118164,7.489999771118164,7.489999771118164,0
2020-03-19,7.489999771118164,7.489999771118164,7.489999771118164,7.489999771118164,7.489999771118164,0
2020-03-20,5.059999942779541,5.059999942779541,4.800000190734863,4.800000190734863,4.800000190734863,1200
2020-03-23,4.329999923706055,5.0,4.204999923706055,5.0,5.0,1000
2020-03-24,5.0,5.0,5.0,5.0,5.0,0
2020-03-25,5.0,5.0,5.0,5.0,5.0,0
2020-03-26,5.0,5.0,5.0,5.0,5.0,0
2020-03-27,5.590000152587891,5.590000152587891,5.099999904632568,5.099999904632568,5.099999904632568,600
2020-03-30,5.099999904632568,5.099999904632568,5.099999904632568,5.099999904632568,5.099999904632568,0
2020-03-31,5.099999904632568,5.099999904632568,5.099999904632568,5.099999904632568,5.099999904632568,0
2020-04-01,5.099999904632568,5.099999904632568,5.099999904632568,5.099999904632568,5.099999904632568,0
2020-04-02,5.099999904632568,5.099999904632568,5.099999904632568,5.099999904632568,5.099999904632568,0
2020-04-03,5.599999904632568,5.599999904632568,2.0999999046325684,2.700000047683716,2.700000047683716,34800
2020-04-06,3.1500000953674316,4.703000068664551,2.75,3.880000114440918,3.880000114440918,22100
2020-04-07,3.950000047683716,3.950000047683716,2.2100000381469727,2.680000066757202,2.680000066757202,131200
2020-04-08,2.25,2.4000000953674316,1.7100000381469727,2.0,2.0,90400
2020-04-09,2.0,2.1549999713897705,1.7410000562667847,1.8700000047683716,1.8700000047683716,68300
2020-04-13,1.899999976158142,1.899999976158142,1.6419999599456787,1.722000002861023,1.722000002861023,86900
2020-04-14,1.899999976158142,2.299999952316284,1.7999999523162842,2.180000066757202,2.180000066757202,504000
2020-04-15,2.299999952316284,2.319999933242798,1.9299999475479126,2.1500000953674316,2.1500000953674316,190300
2020-04-16,2.0199999809265137,2.200000047683716,2.0,2.0299999713897705,2.0299999713897705,91200
2020-04-17,2.130000114440918,2.130000114440918,2.0299999713897705,2.055000066757202,2.055000066757202,58800
2020-04-20,4.400000095367432,4.989999771118164,1.8300000429153442,1.850000023841858,1.850000023841858,12605000
2020-04-21,1.8899999856948853,1.940000057220459,1.7000000476837158,1.7699999809265137,1.7699999809265137,576300
2020-04-22,1.7699999809265137,1.8600000143051147,1.7200000286102295,1.7740000486373901,1.7740000486373901,223100
2020-04-23,1.6799999475479126,1.7640000581741333,1.5199999809265137,1.6699999570846558,1.6699999570846558,401600
2020-04-24,1.5700000524520874,1.7999999523162842,1.5700000524520874,1.75,1.75,244200
2020-04-27,1.7999999523162842,2.200000047683716,1.6699999570846558,2.0,2.0,698500
2020-04-28,2.0,2.0799999237060547,1.899999976158142,1.9900000095367432,1.9900000095367432,191600
2020-04-29,2.0,2.0,1.7799999713897705,1.850000023841858,1.850000023841858,207100
2020-04-30,1.809999942779541,1.840000033378601,1.7599999904632568,1.7799999713897705,1.7799999713897705,148400
2020-05-01,1.7899999618530273,1.7899999618530273,1.6299999952316284,1.6699999570846558,1.6699999570846558,165500
2020-05-04,1.7400000095367432,1.7999999523162842,1.659999966621399,1.715000033378601,1.715000033378601,96100
2020-05-05,1.7599999904632568,1.7999999523162842,1.6799999475479126,1.7100000381469727,1.7100000381469727,74400
2020-05-06,1.7699999809265137,1.7699999809265137,1.659999966621399,1.690000057220459,1.690000057220459,70700
2020-05-07,1.690000057220459,1.6950000524520874,1.5499999523162842,1.600000023841858,1.600000023841858,106300
2020-05-08,1.6100000143051147,1.659999966621399,1.5950000286102295,1.6299999952316284,1.6299999952316284,73600
2020-05-11,1.6100000143051147,1.7000000476837158,1.559999942779541,1.7000000476837158,1.7000000476837158,172700
2020-05-12,1.6200000047683716,1.7000000476837158,1.6200000047683716,1.6399999856948853,1.6399999856948853,60000
2020-05-13,1.6100000143051147,1.625,1.5399999618530273,1.5700000524520874,1.5700000524520874,76500
2020-05-14,1.5199999809265137,1.5800000429153442,1.5199999809265137,1.5700000524520874,1.5700000524520874,47400
2020-05-15,1.5299999713897705,1.6390000581741333,1.5299999713897705,1.5800000429153442,1.5800000429153442,45500
2020-05-18,1.6200000047683716,1.649999976158142,1.559999942779541,1.6399999856948853,1.6399999856948853,85100
2020-05-19,1.590000033378601,1.6399999856948853,1.5800000429153442,1.5800000429153442,1.5800000429153442,40500
2020-05-20,1.6399999856948853,1.6399999856948853,1.5499999523162842,1.5800000429153442,1.5800000429153442,86300
2020-05-21,1.5499999523162842,1.6100000143051147,1.5499999523162842,1.5800000429153442,1.5800000429153442,84200
2020-05-22,1.5800000429153442,1.6200000047683716,1.5499999523162842,1.5800000429153442,1.5800000429153442,52900
2020-05-26,1.590000033378601,1.6399999856948853,1.531000018119812,1.5499999523162842,1.5499999523162842,122600
2020-05-27,1.5700000524520874,1.5700000524520874,1.4500000476837158,1.5360000133514404,1.5360000133514404,155800
2020-05-28,1.590000033378601,1.593999981880188,1.5,1.5700000524520874,1.5700000524520874,76000
2020-05-29,1.590000033378601,1.6399999856948853,1.5429999828338623,1.6200000047683716,1.6200000047683716,229900
2020-06-01,1.6200000047683716,2.630000114440918,1.600000023841858,1.7599999904632568,1.7599999904632568,2094300
2020-06-02,1.840000033378601,2.0,1.7400000095367432,1.840000033378601,1.840000033378601,284100
2020-06-03,1.9600000381469727,1.9600000381469727,1.7400000095367432,1.7599999904632568,1.7599999904632568,197300
2020-06-04,1.8899999856948853,2.0799999237060547,1.8700000047683716,1.9700000286102295,1.9700000286102295,375100
2020-06-05,2.180000066757202,2.3889999389648438,2.059999942779541,2.119999885559082,2.119999885559082,457300
2020-06-08,2.180000066757202,2.200000047683716,1.7999999523162842,2.109999895095825,2.109999895095825,458500
2020-06-09,2.200000047683716,2.299999952316284,2.0,2.180000066757202,2.180000066757202,811000
2020-06-10,3.0,6.880000114440918,2.8299999237060547,3.359999895095825,3.359999895095825,29688000
2020-06-11,3.1700000762939453,4.75,2.75,4.059999942779541,4.059999942779541,3138200
2020-06-12,4.460000038146973,5.25,4.099999904632568,4.550000190734863,4.550000190734863,2016300
2020-06-15,4.320000171661377,4.329999923706055,3.5,3.9600000381469727,3.9600000381469727,809300
2020-06-16,4.380000114440918,4.380000114440918,3.8350000381469727,4.0,4.0,375100
2020-06-17,3.9100000858306885,3.990000009536743,3.630000114440918,3.75,3.75,263100
2020-06-18,3.6700000762939453,3.700000047683716,3.359999895095825,3.5199999809265137,3.5199999809265137,312100
2020-06-19,3.619999885559082,4.800000190734863,3.619999885559082,4.079999923706055,4.079999923706055,1386500
2020-06-22,4.03000020980835,4.289999961853027,3.9100000858306885,3.950000047683716,3.950000047683716,396800
2020-06-23,3.930000066757202,4.170000076293945,3.9200000762939453,3.9700000286102295,3.9700000286102295,226300
2020-06-24,3.9700000286102295,4.0,3.5999999046325684,3.859999895095825,3.859999895095825,353500
2020-06-25,3.880000114440918,3.890000104904175,3.6500000953674316,3.740000009536743,3.740000009536743,124500
2020-06-26,3.740000009536743,3.9800000190734863,3.5,3.859999895095825,3.859999895095825,279700
2020-06-29,3.890000104904175,3.890000104904175,3.5799999237060547,3.6600000858306885,3.6600000858306885,168800
2020-06-30,3.25,3.380000114440918,3.109999895095825,3.309999942779541,3.309999942779541,380700
2020-07-01,3.4000000953674316,3.490000009536743,3.0999999046325684,3.180000066757202,3.180000066757202,158000
2020-07-02,3.109999895095825,3.75,3.109999895095825,3.549999952316284,3.549999952316284,262000
2020-07-06,3.5799999237060547,3.694000005722046,3.2699999809265137,3.430000066757202,3.430000066757202,173800
2020-07-07,3.319999933242798,3.3399999141693115,3.049999952316284,3.0899999141693115,3.0899999141693115,194100
2020-07-08,3.309999942779541,3.309999942779541,3.0799999237060547,3.1500000953674316,3.1500000953674316,59700
2020-07-09,3.200000047683716,3.2300000190734863,3.049999952316284,3.1500000953674316,3.1500000953674316,96700
2020-07-10,3.119999885559082,3.180000066757202,3.0199999809265137,3.0399999618530273,3.0399999618530273,127900
2020-07-13,3.0899999141693115,3.0999999046325684,2.950000047683716,3.009999990463257,3.009999990463257,168200
2020-07-14,3.009999990463257,3.059999942779541,2.6500000953674316,2.8299999237060547,2.8299999237060547,151900
2020-07-15,2.809999942779541,3.434999942779541,2.799999952316284,3.2899999618530273,3.2899999618530273,298800
2020-07-16,3.440000057220459,3.440000057220459,3.119999885559082,3.2799999713897705,3.2799999713897705,125600
2020-07-17,3.25,3.8359999656677246,3.130000114440918,3.4800000190734863,3.4800000190734863,192000
2020-07-20,3.5799999237060547,3.7200000286102295,3.2799999713897705,3.490000009536743,3.490000009536743,148600
2020-07-21,3.680000066757202,4.25,3.5299999713897705,4.119999885559082,4.119999885559082,494300
2020-07-22,4.190000057220459,4.75,3.9600000381469727,4.039999961853027,4.039999961853027,302500
2020-07-23,3.9000000953674316,4.210000038146973,3.700000047683716,3.740000009536743,3.740000009536743,319900
2020-07-24,3.7300000190734863,3.7300000190734863,3.440000057220459,3.6500000953674316,3.6500000953674316,190800
2020-07-27,3.8299999237060547,4.440000057220459,3.700000047683716,3.9600000381469727,3.9600000381469727,408400
2020-07-28,3.990000009536743,4.699999809265137,3.819999933242798,4.059999942779541,4.059999942779541,911700
2020-07-29,4.079999923706055,4.5,4.0,4.329999923706055,4.329999923706055,257100
2020-07-30,4.260000228881836,4.289999961853027,4.059999942779541,4.230000019073486,4.230000019073486,115300
2020-07-31,4.289999961853027,4.489999771118164,4.099999904632568,4.25,4.25,139100
2020-08-03,4.269999980926514,4.460000038146973,4.195000171661377,4.349999904632568,4.349999904632568,102000
2020-08-04,4.449999809265137,4.599999904632568,4.369999885559082,4.550000190734863,4.550000190734863,152500
2020-08-05,4.610000133514404,4.900000095367432,4.599999904632568,4.840000152587891,4.840000152587891,1158700
2020-08-06,12.489999771118164,12.960000038146973,7.989999771118164,8.350000381469727,8.350000381469727,51521500
2020-08-07,7.980000019073486,8.449999809265137,7.619999885559082,7.840000152587891,7.840000152587891,2071700
2020-08-10,7.610000133514404,8.039999961853027,6.510000228881836,6.579999923706055,6.579999923706055,831500
2020-08-11,6.570000171661377,7.677999973297119,6.510000228881836,7.03000020980835,7.03000020980835,843900
2020-08-12,7.039999961853027,7.300000190734863,6.570000171661377,6.829999923706055,6.829999923706055,330900
2020-08-13,6.820000171661377,6.909999847412109,6.170000076293945,6.289999961853027,6.289999961853027,428700
2020-08-14,6.269999980926514,6.300000190734863,4.940000057220459,5.010000228881836,5.010000228881836,777000
2020-08-17,5.050000190734863,5.210000038146973,4.880000114440918,4.989999771118164,4.989999771118164,447000
2020-08-18,4.889999866485596,5.2170000076293945,4.802999973297119,4.900000095367432,4.900000095367432,414500
2020-08-19,5.0,5.099999904632568,4.260000228881836,4.519999980926514,4.519999980926514,673900
2020-08-20,4.449999809265137,4.723999977111816,4.320000171661377,4.619999885559082,4.619999885559082,359300
2020-08-21,4.53000020980835,4.940000057220459,4.440000057220459,4.809999942779541,4.809999942779541,333900
2020-08-24,4.760000228881836,5.489999771118164,4.7210001945495605,5.440000057220459,5.440000057220459,390900
2020-08-25,5.519999980926514,5.75,5.21999979019165,5.590000152587891,5.590000152587891,501600
2020-08-26,5.559999942779541,5.769999980926514,5.400000095367432,5.480000019073486,5.480000019073486,300000
2020-08-27,5.579999923706055,5.579999923706055,4.559999942779541,4.619999885559082,4.619999885559082,345900
2020-08-28,4.630000114440918,5.117000102996826,4.630000114440918,4.75,4.75,291500
2020-08-31,4.75,5.079999923706055,4.739999771118164,4.980000019073486,4.980000019073486,222500
2020-09-01,4.989999771118164,5.199999809265137,4.900000095367432,5.190000057220459,5.190000057220459,253700
2020-09-02,5.199999809265137,5.289999961853027,4.829999923706055,4.869999885559082,4.869999885559082,169900
2020-09-03,4.659999847412109,4.889999866485596,4.599999904632568,4.639999866485596,4.639999866485596,284500
2020-09-04,4.630000114440918,5.489999771118164,4.5,4.96999979019165,4.96999979019165,385500
2020-09-08,4.949999809265137,5.114999771118164,4.75,4.840000152587891,4.840000152587891,244200
2020-09-09,4.900000095367432,5.050000190734863,4.579999923706055,4.610000133514404,4.610000133514404,291800
2020-09-10,4.570000171661377,4.699999809265137,4.230000019073486,4.230000019073486,4.230000019073486,210800
2020-09-11,4.25,4.460000038146973,3.9800000190734863,4.090000152587891,4.090000152587891,159500
2020-09-14,4.130000114440918,4.241000175476074,3.9000000953674316,3.940000057220459,3.940000057220459,193200
2020-09-15,4.059999942779541,4.170000076293945,3.9000000953674316,3.9600000381469727,3.9600000381469727,148700
2020-09-16,4.010000228881836,4.139999866485596,3.9000000953674316,4.070000171661377,4.070000171661377,107100
2020-09-17,4.360000133514404,4.650000095367432,4.119999885559082,4.309999942779541,4.309999942779541,325700
2020-09-18,4.289999961853027,4.625,4.159999847412109,4.159999847412109,4.159999847412109,162100
2020-09-21,4.150000095367432,4.369999885559082,3.8499999046325684,4.360000133514404,4.360000133514404,156600
2020-09-22,4.349999904632568,4.699999809265137,4.150000095367432,4.260000228881836,4.260000228881836,231900
2020-09-23,4.179999828338623,4.409999847412109,3.9100000858306885,3.950000047683716,3.950000047683716,342700
2020-09-24,4.019999980926514,4.099999904632568,3.8499999046325684,3.8499999046325684,3.8499999046325684,144600
2020-09-25,3.950000047683716,4.079999923706055,3.811000108718872,4.0,4.0,144900
2020-09-28,4.019999980926514,4.090000152587891,3.9100000858306885,4.010000228881836,4.010000228881836,42700
2020-09-29,4.0,4.150000095367432,3.950000047683716,4.050000190734863,4.050000190734863,52700
2020-09-30,4.059999942779541,4.230000019073486,4.010000228881836,4.190000057220459,4.190000057220459,62800
2020-10-01,4.239999771118164,4.340000152587891,4.079999923706055,4.340000152587891,4.340000152587891,30900
2020-10-02,4.139999866485596,4.489999771118164,4.044000148773193,4.360000133514404,4.360000133514404,78200
2020-10-05,4.349999904632568,4.349999904632568,4.130000114440918,4.150000095367432,4.150000095367432,38900
2020-10-06,4.130000114440918,4.400000095367432,4.110000133514404,4.239999771118164,4.239999771118164,51900
2020-10-07,4.269999980926514,4.389999866485596,4.122000217437744,4.170000076293945,4.170000076293945,20600
2020-10-08,4.170000076293945,4.260000228881836,4.099999904632568,4.179999828338623,4.179999828338623,38600
2020-10-09,4.210000038146973,4.480000019073486,4.138000011444092,4.150000095367432,4.150000095367432,53600
2020-10-12,4.230000019073486,4.340000152587891,4.079999923706055,4.28000020980835,4.28000020980835,55200
2020-10-13,4.28000020980835,4.28000020980835,4.119999885559082,4.190000057220459,4.190000057220459,32400
2020-10-14,4.25,4.420000076293945,4.139999866485596,4.349999904632568,4.349999904632568,61200
2020-10-15,4.28000020980835,4.449999809265137,4.110000133514404,4.369999885559082,4.369999885559082,108100
2020-10-16,4.349999904632568,4.449999809265137,4.179999828338623,4.179999828338623,4.179999828338623,33900
2020-10-19,4.25,4.34499979019165,4.190000057220459,4.309999942779541,4.309999942779541,31500
2020-10-20,4.369999885559082,4.380000114440918,4.239999771118164,4.300000190734863,4.300000190734863,34200
2020-10-21,4.289999961853027,4.360000133514404,4.119999885559082,4.25,4.25,70500
2020-10-22,4.230000019073486,4.28000020980835,4.079999923706055,4.170000076293945,4.170000076293945,58500
2020-10-23,4.139999866485596,4.599999904632568,4.110000133514404,4.369999885559082,4.369999885559082,235800
2020-10-26,4.264999866485596,4.28000020980835,4.119999885559082,4.130000114440918,4.130000114440918,77800
2020-10-27,4.25,4.269999980926514,3.9000000953674316,4.119999885559082,4.119999885559082,84200
2020-10-28,4.039999961853027,4.059999942779541,3.509999990463257,3.7899999618530273,3.7899999618530273,150600
2020-10-29,3.799999952316284,4.059999942779541,3.7300000190734863,3.940000057220459,3.940000057220459,49700
2020-10-30,3.9200000762939453,3.950000047683716,3.6500000953674316,3.9000000953674316,3.9000000953674316,40300
2020-11-02,3.9000000953674316,3.990000009536743,3.75,3.9800000190734863,3.9800000190734863,30900
2020-11-03,3.9700000286102295,4.039999961853027,3.7699999809265137,4.010000228881836,4.010000228881836,52900
2020-11-04,3.86299991607666,4.019999980926514,3.819999933242798,3.9000000953674316,3.9000000953674316,32400
2020-11-05,3.950000047683716,4.170000076293945,3.9000000953674316,4.150000095367432,4.150000095367432,103600
2020-11-06,4.001999855041504,4.190000057220459,4.0,4.139999866485596,4.139999866485596,82400
2020-11-09,4.110000133514404,4.199999809265137,3.9600000381469727,4.090000152587891,4.090000152587891,47100
2020-11-10,3.9100000858306885,4.014999866485596,3.869999885559082,3.9200000762939453,3.9200000762939453,32200
2020-11-11,4.0,4.070000171661377,3.880000114440918,3.9600000381469727,3.9600000381469727,36000
2020-11-12,3.9100000858306885,3.9800000190734863,3.8499999046325684,3.950000047683716,3.950000047683716,17500
2020-11-13,3.930000066757202,3.9800000190734863,3.859999895095825,3.9800000190734863,3.9800000190734863,22900
2020-11-16,3.8940000534057617,4.210000038146973,3.8940000534057617,4.150000095367432,4.150000095367432,113500
2020-11-17,4.199999809265137,4.320000171661377,4.099999904632568,4.179999828338623,4.179999828338623,74900
2020-11-18,4.119999885559082,5.599999904632568,4.119999885559082,5.289999961853027,5.289999961853027,784900
2020-11-19,4.980000019073486,5.199999809265137,4.25,4.690000057220459,4.690000057220459,365700
2020-11-20,4.400000095367432,4.599999904632568,4.34499979019165,4.489999771118164,4.489999771118164,89200
2020-11-23,4.480000019073486,4.650000095367432,4.349999904632568,4.519999980926514,4.519999980926514,86100
2020-11-24,4.519999980926514,4.748000144958496,4.492000102996826,4.639999866485596,4.639999866485596,88200
2020-11-25,4.550000190734863,5.150000095367432,4.550000190734863,5.099999904632568,5.099999904632568,105500
2020-11-27,5.090000152587891,5.107999801635742,4.800000190734863,4.920000076293945,4.920000076293945,61400
2020-11-30,4.989999771118164,5.0,4.690000057220459,4.960000038146973,4.960000038146973,55600
2020-12-01,4.909999847412109,5.110000133514404,4.710000038146973,4.789999961853027,4.789999961853027,95100
2020-12-02,4.869999885559082,5.340000152587891,4.699999809265137,5.239999771118164,5.239999771118164,183000
2020-12-03,5.150000095367432,5.190000057220459,4.860000133514404,4.960000038146973,4.960000038146973,84000
2020-12-04,4.920000076293945,5.239999771118164,4.920000076293945,5.170000076293945,5.170000076293945,62500
2020-12-07,5.159999847412109,6.090000152587891,5.144999980926514,5.670000076293945,5.670000076293945,260300
2020-12-08,5.900000095367432,6.0,5.170000076293945,5.340000152587891,5.340000152587891,189800
2020-12-09,5.400000095367432,5.619999885559082,4.849999904632568,5.0,5.0,121000
2020-12-10,5.0,5.179999828338623,5.0,5.070000171661377,5.070000171661377,35200
2020-12-11,5.119999885559082,5.150000095367432,4.886000156402588,5.139999866485596,5.139999866485596,96900
2020-12-14,5.179999828338623,5.415999889373779,4.96999979019165,5.03000020980835,5.03000020980835,54700
2020-12-15,5.03000020980835,5.25,4.980000019073486,5.25,5.25,49900
2020-12-16,5.170000076293945,5.460000038146973,5.170000076293945,5.400000095367432,5.400000095367432,51300
2020-12-17,5.400000095367432,5.449999809265137,5.349999904632568,5.400000095367432,5.400000095367432,28400
2020-12-18,5.400000095367432,5.4730000495910645,5.179999828338623,5.190000057220459,5.190000057220459,25900
2020-12-21,5.159999847412109,5.980000019073486,5.159999847412109,5.699999809265137,5.699999809265137,161400
2020-12-22,5.699999809265137,6.749000072479248,5.560999870300293,6.739999771118164,6.739999771118164,176200
2020-12-23,6.929999828338623,6.929999828338623,6.059999942779541,6.210000038146973,6.210000038146973,120800
2020-12-24,6.53000020980835,7.666999816894531,6.489999771118164,6.869999885559082,6.869999885559082,265200
2020-12-28,6.869999885559082,7.630000114440918,6.809999942779541,7.619999885559082,7.619999885559082,180100
2020-12-29,7.789999961853027,7.820000171661377,6.769999980926514,7.289999961853027,7.289999961853027,178700
2020-12-30,7.440000057220459,7.949999809265137,7.320000171661377,7.409999847412109,7.409999847412109,108800
