Date,Open,High,Low,Close,Adj Close,Volume
2019-05-09,15.119999885559082,15.989999771118164,13.510000228881836,13.800000190734863,13.800000190734863,1636300
2019-05-10,13.770000457763672,14.0,12.75,13.920000076293945,13.920000076293945,214200
2019-05-13,13.84000015258789,14.100000381469727,12.600000381469727,13.949999809265137,13.949999809265137,158300
2019-05-14,13.979999542236328,14.197999954223633,13.109999656677246,14.09000015258789,14.09000015258789,164700
2019-05-15,14.079999923706055,14.300000190734863,13.34000015258789,13.75,13.75,84800
2019-05-16,13.760000228881836,14.0,13.229999542236328,13.869999885559082,13.869999885559082,104600
2019-05-17,13.760000228881836,14.055999755859375,13.199999809265137,13.800000190734863,13.800000190734863,84900
2019-05-20,13.739999771118164,14.100000381469727,13.600000381469727,14.0600004196167,14.0600004196167,74400
2019-05-21,14.039999961853027,14.489999771118164,13.850000381469727,14.399999618530273,14.399999618530273,103700
2019-05-22,14.210000038146973,14.5,14.010000228881836,14.279999732971191,14.279999732971191,27700
2019-05-23,14.300000190734863,14.300000190734863,13.569999694824219,14.0,14.0,30800
2019-05-24,13.9399995803833,14.449999809265137,13.65999984741211,14.180000305175781,14.180000305175781,37100
2019-05-28,14.149999618530273,14.5,13.779999732971191,14.199999809265137,14.199999809265137,94900
2019-05-29,14.0,14.244999885559082,13.350000381469727,13.710000038146973,13.710000038146973,48900
2019-05-30,14.0,14.199999809265137,13.649999618530273,14.199999809265137,14.199999809265137,16300
2019-05-31,14.199999809265137,14.428999900817871,13.520000457763672,14.270000457763672,14.270000457763672,48900
2019-06-03,13.960000038146973,15.253000259399414,13.670000076293945,14.770000457763672,14.770000457763672,80000
2019-06-04,14.90999984741211,15.039999961853027,14.33899974822998,14.949999809265137,14.949999809265137,62000
2019-06-05,14.970000267028809,15.050000190734863,14.350000381469727,14.920000076293945,14.920000076293945,56300
2019-06-06,14.640000343322754,14.84000015258789,14.0,14.399999618530273,14.399999618530273,26600
2019-06-07,14.670000076293945,14.779999732971191,13.9399995803833,14.170000076293945,14.170000076293945,131900
2019-06-10,14.100000381469727,14.270000457763672,12.0,13.180000305175781,13.180000305175781,94500
2019-06-11,13.039999961853027,13.199999809265137,12.710000038146973,12.869999885559082,12.869999885559082,13300
2019-06-12,12.239999771118164,13.319999694824219,12.239999771118164,12.619999885559082,12.619999885559082,61800
2019-06-13,12.6899995803833,13.180000305175781,12.6899995803833,12.819999694824219,12.819999694824219,14900
2019-06-14,12.470000267028809,12.585000038146973,10.90999984741211,10.960000038146973,10.960000038146973,22100
2019-06-17,10.979999542236328,11.0,9.779999732971191,9.949999809265137,9.949999809265137,54600
2019-06-18,10.319999694824219,10.736000061035156,9.59000015258789,9.819999694824219,9.819999694824219,42900
2019-06-19,9.779999732971191,10.569999694824219,9.770000457763672,10.100000381469727,10.100000381469727,51900
2019-06-20,10.109999656677246,10.5,9.800000190734863,10.079999923706055,10.079999923706055,44100
2019-06-21,9.975000381469727,10.5,9.760000228881836,9.949999809265137,9.949999809265137,140500
2019-06-24,9.954999923706055,10.5600004196167,9.930000305175781,9.930000305175781,9.930000305175781,85600
2019-06-25,9.8100004196167,10.149999618530273,9.029999732971191,9.199999809265137,9.199999809265137,50600
2019-06-26,9.430000305175781,9.619999885559082,8.119999885559082,8.510000228881836,8.510000228881836,38900
2019-06-27,9.350000381469727,9.5,8.90999984741211,9.119999885559082,9.119999885559082,36300
2019-06-28,9.569999694824219,11.199999809265137,9.25,9.3100004196167,9.3100004196167,236900
2019-07-01,9.069999694824219,9.5,8.510000228881836,8.699999809265137,8.699999809265137,119900
2019-07-02,8.630000114440918,8.920999526977539,8.3100004196167,8.75,8.75,43300
2019-07-03,8.8100004196167,9.199999809265137,8.8100004196167,9.039999961853027,9.039999961853027,9800
2019-07-05,8.9399995803833,9.600000381469727,8.9399995803833,9.260000228881836,9.260000228881836,7700
2019-07-08,9.845000267028809,9.864999771118164,8.75,8.789999961853027,8.789999961853027,6300
2019-07-09,8.920000076293945,8.920000076293945,8.0,8.149999618530273,8.149999618530273,69000
2019-07-10,8.149999618530273,8.619999885559082,8.050000190734863,8.3100004196167,8.3100004196167,10900
2019-07-11,8.3100004196167,9.62600040435791,8.039999961853027,8.210000038146973,8.210000038146973,72300
2019-07-12,8.229999542236328,8.479999542236328,7.704999923706055,7.889999866485596,7.889999866485596,49800
2019-07-15,7.909999847412109,8.100000381469727,7.78000020980835,7.900000095367432,7.900000095367432,6300
2019-07-16,7.889999866485596,7.949999809265137,7.75,7.880000114440918,7.880000114440918,9300
2019-07-17,7.889999866485596,8.045000076293945,7.300000190734863,7.769999980926514,7.769999980926514,24500
2019-07-18,7.760000228881836,8.15999984741211,7.514999866485596,8.109999656677246,8.109999656677246,5100
2019-07-19,8.119999885559082,8.380000114440918,7.585000038146973,7.710000038146973,7.710000038146973,25100
2019-07-22,7.538000106811523,7.598999977111816,7.119999885559082,7.360000133514404,7.360000133514404,9900
2019-07-23,7.380000114440918,7.659999847412109,7.380000114440918,7.519999980926514,7.519999980926514,6800
2019-07-24,7.480000019073486,7.78000020980835,6.829999923706055,7.320000171661377,7.320000171661377,15300
2019-07-25,7.460000038146973,7.820000171661377,7.275000095367432,7.480000019073486,7.480000019073486,5600
2019-07-26,7.460000038146973,8.8100004196167,7.460000038146973,8.079999923706055,8.079999923706055,6900
2019-07-29,8.479999542236328,8.510000228881836,7.824999809265137,8.279999732971191,8.279999732971191,5800
2019-07-30,8.0,8.699999809265137,8.0,8.210000038146973,8.210000038146973,27400
2019-07-31,8.180000305175781,8.736000061035156,8.069999694824219,8.479999542236328,8.479999542236328,16800
2019-08-01,8.449999809265137,8.449999809265137,6.099999904632568,7.070000171661377,7.070000171661377,40100
2019-08-02,6.710000038146973,7.679999828338623,6.300000190734863,7.420000076293945,7.420000076293945,20300
2019-08-05,7.650000095367432,8.0,6.699999809265137,7.079999923706055,7.079999923706055,8300
2019-08-06,7.789999961853027,7.96999979019165,7.571000099182129,7.75,7.75,3500
2019-08-07,7.800000190734863,7.809999942779541,7.420000076293945,7.5,7.5,2900
2019-08-08,7.860000133514404,8.0,7.559999942779541,7.559999942779541,7.559999942779541,3100
2019-08-09,7.489999771118164,7.625,7.25,7.260000228881836,7.260000228881836,5600
2019-08-12,7.019999980926514,7.289999961853027,6.954999923706055,7.0,7.0,7600
2019-08-13,8.399999618530273,8.8100004196167,7.309999942779541,7.679999828338623,7.679999828338623,7100
2019-08-14,7.670000076293945,7.940000057220459,7.300000190734863,7.940000057220459,7.940000057220459,2800
2019-08-15,8.0,8.350000381469727,7.5,7.599999904632568,7.599999904632568,91900
2019-08-16,7.610000133514404,7.909999847412109,7.400000095367432,7.909999847412109,7.909999847412109,2600
2019-08-19,7.929999828338623,7.949999809265137,7.599999904632568,7.940000057220459,7.940000057220459,6200
2019-08-20,7.9120001792907715,7.920000076293945,7.5,7.920000076293945,7.920000076293945,3600
2019-08-21,7.889999866485596,8.109999656677246,7.614999771118164,8.109999656677246,8.109999656677246,4900
2019-08-22,8.170000076293945,8.170000076293945,7.880000114440918,7.909999847412109,7.909999847412109,3300
2019-08-23,7.75,7.800000190734863,7.599999904632568,7.789999961853027,7.789999961853027,6500
2019-08-26,7.900000095367432,7.900000095367432,7.900000095367432,7.900000095367432,7.900000095367432,700
2019-08-27,7.900000095367432,7.900000095367432,7.599999904632568,7.815000057220459,7.815000057220459,1900
2019-08-28,7.730000019073486,7.900000095367432,7.599999904632568,7.730000019073486,7.730000019073486,1500
2019-08-29,7.730000019073486,7.994999885559082,7.034999847412109,7.159999847412109,7.159999847412109,9200
2019-08-30,7.150000095367432,7.230000019073486,6.849999904632568,6.929999828338623,6.929999828338623,8300
2019-09-03,6.783999919891357,7.0,6.75,7.0,7.0,3300
2019-09-04,7.0,7.25,6.75,7.239999771118164,7.239999771118164,4200
2019-09-05,7.260000228881836,7.260000228881836,6.565000057220459,6.900000095367432,6.900000095367432,8700
2019-09-06,7.039999961853027,7.21999979019165,6.993000030517578,7.199999809265137,7.199999809265137,7900
2019-09-09,7.5,7.5,7.034999847412109,7.199999809265137,7.199999809265137,3500
2019-09-10,7.110000133514404,7.119999885559082,7.099999904632568,7.099999904632568,7.099999904632568,1600
2019-09-11,7.099999904632568,7.130000114440918,6.849999904632568,6.849999904632568,6.849999904632568,4300
2019-09-12,6.909999847412109,7.025000095367432,6.75,6.900000095367432,6.900000095367432,4000
2019-09-13,6.829999923706055,6.889999866485596,6.75,6.760000228881836,6.760000228881836,2900
2019-09-16,6.809999942779541,6.809999942779541,6.5,6.769999980926514,6.769999980926514,4600
2019-09-17,6.699999809265137,6.699999809265137,6.400000095367432,6.400000095367432,6.400000095367432,5200
2019-09-18,6.400000095367432,6.409999847412109,6.159999847412109,6.190000057220459,6.190000057220459,20100
2019-09-19,6.179999828338623,6.349999904632568,6.150000095367432,6.199999809265137,6.199999809265137,4100
2019-09-20,6.210000038146973,6.335000038146973,6.170000076293945,6.289999961853027,6.289999961853027,9900
2019-09-23,6.159999847412109,6.25,5.949999809265137,5.949999809265137,5.949999809265137,25000
2019-09-24,6.010000228881836,6.739999771118164,4.789999961853027,5.46999979019165,5.46999979019165,52900
2019-09-25,5.138000011444092,5.46999979019165,5.099999904632568,5.400000095367432,5.400000095367432,16100
2019-09-26,5.296000003814697,5.489999771118164,5.159999847412109,5.309999942779541,5.309999942779541,4100
2019-09-27,5.349999904632568,5.550000190734863,5.199999809265137,5.25,5.25,12100
2019-09-30,5.269999980926514,5.730000019073486,5.25,5.659999847412109,5.659999847412109,6000
2019-10-01,5.730000019073486,5.730000019073486,5.320000171661377,5.320000171661377,5.320000171661377,8900
2019-10-02,5.619999885559082,5.619999885559082,5.050000190734863,5.300000190734863,5.300000190734863,37700
2019-10-03,5.260000228881836,5.789999961853027,5.199999809265137,5.644999980926514,5.644999980926514,4000
2019-10-04,6.071000099182129,6.071000099182129,5.300000190734863,5.300000190734863,5.300000190734863,4000
2019-10-07,5.25,5.25,4.989999771118164,5.099999904632568,5.099999904632568,4600
2019-10-08,5.059999942779541,5.506999969482422,5.059999942779541,5.300000190734863,5.300000190734863,1300
2019-10-09,5.409999847412109,5.409999847412109,5.409999847412109,5.409999847412109,5.409999847412109,300
2019-10-10,5.510000228881836,5.909999847412109,5.448999881744385,5.519999980926514,5.519999980926514,3800
2019-10-11,5.960000038146973,5.960000038146973,5.650000095367432,5.650000095367432,5.650000095367432,1100
2019-10-14,5.590000152587891,5.689000129699707,5.320000171661377,5.480000019073486,5.480000019073486,3500
2019-10-15,5.539999961853027,5.809999942779541,5.239999771118164,5.75,5.75,2000
2019-10-16,5.329999923706055,5.329999923706055,5.230000019073486,5.230000019073486,5.230000019073486,4900
2019-10-17,5.40500020980835,5.40500020980835,5.239999771118164,5.239999771118164,5.239999771118164,800
2019-10-18,5.190000057220459,5.803999900817871,5.034999847412109,5.150000095367432,5.150000095367432,3800
2019-10-21,5.190000057220459,5.498000144958496,5.190000057220459,5.25,5.25,2600
2019-10-22,5.300000190734863,5.375,5.224999904632568,5.25,5.25,9400
2019-10-23,5.260000228881836,5.534999847412109,5.0,5.25,5.25,2100
2019-10-24,5.25,5.25,5.25,5.25,5.25,100
2019-10-25,5.329999923706055,5.329999923706055,5.0,5.0,5.0,9800
2019-10-28,4.820000171661377,5.0,4.820000171661377,5.0,5.0,1800
2019-10-29,4.949999809265137,5.126999855041504,4.699999809265137,4.900000095367432,4.900000095367432,2900
2019-10-30,5.0,5.0,5.0,5.0,5.0,500
2019-10-31,5.159999847412109,5.289999961853027,5.139999866485596,5.289999961853027,5.289999961853027,3900
2019-11-01,5.289999961853027,5.550000190734863,5.289999961853027,5.550000190734863,5.550000190734863,1100
2019-11-04,5.789999961853027,5.789999961853027,5.0,5.0,5.0,5500
2019-11-05,5.050000190734863,6.0,5.050000190734863,5.900000095367432,5.900000095367432,11900
2019-11-06,5.269999980926514,5.659999847412109,4.71999979019165,5.099999904632568,5.099999904632568,48600
2019-11-07,5.300000190734863,5.300000190734863,4.75,4.760000228881836,4.760000228881836,20300
2019-11-08,5.0,5.0,4.320000171661377,4.5,4.5,11000
2019-11-11,4.170000076293945,4.400000095367432,3.4700000286102295,4.21999979019165,4.21999979019165,62200
2019-11-12,4.25,4.25,3.5,3.950000047683716,3.950000047683716,34400
2019-11-13,3.5999999046325684,4.0,3.5999999046325684,3.8299999237060547,3.8299999237060547,24400
2019-11-14,3.380000114440918,3.9619998931884766,3.380000114440918,3.5799999237060547,3.5799999237060547,77400
2019-11-15,3.4700000286102295,3.700000047683716,3.25,3.5,3.5,58900
2019-11-18,3.494999885559082,3.494999885559082,3.0,3.0799999237060547,3.0799999237060547,44900
2019-11-19,2.759999990463257,3.940000057220459,2.759999990463257,3.380000114440918,3.380000114440918,120700
2019-11-20,3.6500000953674316,3.746000051498413,3.3399999141693115,3.559999942779541,3.559999942779541,30300
2019-11-21,3.4000000953674316,3.7200000286102295,3.3299999237060547,3.3499999046325684,3.3499999046325684,40500
2019-11-22,3.5,3.6410000324249268,3.359999895095825,3.430000066757202,3.430000066757202,7800
2019-11-25,3.5,3.799999952316284,3.3299999237060547,3.430000066757202,3.430000066757202,73500
2019-11-26,3.680000066757202,3.75,3.3399999141693115,3.5799999237060547,3.5799999237060547,90400
2019-11-27,3.5399999618530273,4.0,3.5399999618530273,3.9700000286102295,3.9700000286102295,116200
2019-11-29,3.990000009536743,4.079999923706055,3.9200000762939453,4.0,4.0,74300
2019-12-02,4.099999904632568,4.480000019073486,3.8410000801086426,4.360000133514404,4.360000133514404,109400
2019-12-03,4.550000190734863,4.800000190734863,4.289999961853027,4.699999809265137,4.699999809265137,93300
2019-12-04,4.789999961853027,4.800000190734863,4.409999847412109,4.619999885559082,4.619999885559082,84900
2019-12-05,4.579999923706055,4.869999885559082,4.25,4.489999771118164,4.489999771118164,75200
2019-12-06,4.340000152587891,4.340000152587891,3.4200000762939453,3.5899999141693115,3.5899999141693115,180700
2019-12-09,3.3299999237060547,3.75,3.3299999237060547,3.5,3.5,72800
2019-12-10,3.4700000286102295,3.734999895095825,3.3299999237060547,3.490000009536743,3.490000009536743,42900
2019-12-11,3.4700000286102295,3.671999931335449,3.430000066757202,3.5350000858306885,3.5350000858306885,27300
2019-12-12,3.509999990463257,3.628999948501587,3.380000114440918,3.549999952316284,3.549999952316284,20100
2019-12-13,3.5299999713897705,3.575000047683716,3.4000000953674316,3.4800000190734863,3.4800000190734863,23800
2019-12-16,3.4700000286102295,3.5999999046325684,3.359999895095825,3.359999895095825,3.359999895095825,66600
2019-12-17,3.430999994277954,3.5,3.359999895095825,3.4100000858306885,3.4100000858306885,57300
2019-12-18,3.490000009536743,3.5,3.4000000953674316,3.4000000953674316,3.4000000953674316,30500
2019-12-19,3.428999900817871,3.4800000190734863,3.3499999046325684,3.390000104904175,3.390000104904175,51900
2019-12-20,3.380000114440918,3.5899999141693115,3.3299999237060547,3.4100000858306885,3.4100000858306885,532400
2019-12-23,3.450000047683716,3.690000057220459,3.4200000762939453,3.450000047683716,3.450000047683716,81200
2019-12-24,3.4800000190734863,3.609999895095825,3.4600000381469727,3.559999942779541,3.559999942779541,18600
2019-12-26,3.559999942779541,4.289999961853027,3.559999942779541,4.099999904632568,4.099999904632568,158700
2019-12-27,4.010000228881836,4.389999866485596,3.799999952316284,3.8299999237060547,3.8299999237060547,248500
2019-12-30,3.890000104904175,4.21999979019165,3.630000114440918,3.700000047683716,3.700000047683716,46200
2019-12-31,3.7200000286102295,4.010000228881836,3.630000114440918,4.010000228881836,4.010000228881836,51700
2020-01-02,3.880000114440918,4.199999809265137,3.880000114440918,4.119999885559082,4.119999885559082,33500
2020-01-03,3.950000047683716,4.199999809265137,3.8910000324249268,3.9200000762939453,3.9200000762939453,21700
2020-01-06,4.0,4.119999885559082,3.947000026702881,3.9700000286102295,3.9700000286102295,63000
2020-01-07,4.019999980926514,4.119999885559082,3.880000114440918,4.090000152587891,4.090000152587891,40500
2020-01-08,4.5,4.619999885559082,4.1579999923706055,4.579999923706055,4.579999923706055,183200
2020-01-09,4.690000057220459,5.320000171661377,4.639999866485596,4.980000019073486,4.980000019073486,273900
2020-01-10,4.960000038146973,5.0,4.949999809265137,4.989999771118164,4.989999771118164,81000
2020-01-13,5.0,5.039999961853027,4.769999980926514,4.900000095367432,4.900000095367432,70100
2020-01-14,4.909999847412109,4.960000038146973,4.079999923706055,4.670000076293945,4.670000076293945,55100
2020-01-15,4.71999979019165,5.209000110626221,4.255000114440918,4.570000171661377,4.570000171661377,54800
2020-01-16,4.539999961853027,4.949999809265137,4.52400016784668,4.880000114440918,4.880000114440918,66000
2020-01-17,4.960000038146973,5.179999828338623,4.78000020980835,4.980000019073486,4.980000019073486,59400
2020-01-21,4.989999771118164,5.289999961853027,4.989999771118164,5.059999942779541,5.059999942779541,120700
2020-01-22,5.159999847412109,5.289999961853027,5.070000171661377,5.079999923706055,5.079999923706055,52100
2020-01-23,4.989999771118164,5.119999885559082,4.900000095367432,5.079999923706055,5.079999923706055,37100
2020-01-24,5.0,5.119999885559082,4.920000076293945,5.090000152587891,5.090000152587891,25500
2020-01-27,5.079999923706055,5.289999961853027,4.940000057220459,5.239999771118164,5.239999771118164,24700
2020-01-28,5.329999923706055,5.460000038146973,5.159999847412109,5.210000038146973,5.210000038146973,39400
2020-01-29,5.25,5.353000164031982,5.000999927520752,5.070000171661377,5.070000171661377,16200
2020-01-30,5.019999980926514,5.328000068664551,4.840000152587891,4.849999904632568,4.849999904632568,25000
2020-01-31,4.860000133514404,4.980000019073486,4.820000171661377,4.840000152587891,4.840000152587891,38300
2020-02-03,4.889999866485596,4.980000019073486,4.829999923706055,4.849999904632568,4.849999904632568,28700
2020-02-04,4.829999923706055,4.860000133514404,4.670000076293945,4.75,4.75,76200
2020-02-05,4.800000190734863,4.880000114440918,4.670000076293945,4.840000152587891,4.840000152587891,11700
2020-02-06,4.880000114440918,4.949999809265137,4.739999771118164,4.909999847412109,4.909999847412109,8800
2020-02-07,4.876999855041504,4.989999771118164,4.760000228881836,4.849999904632568,4.849999904632568,17600
2020-02-10,4.735000133514404,4.736000061035156,4.619999885559082,4.710000038146973,4.710000038146973,6800
2020-02-11,4.679999828338623,4.880000114440918,4.650000095367432,4.659999847412109,4.659999847412109,28000
2020-02-12,4.7829999923706055,4.7829999923706055,4.599999904632568,4.71999979019165,4.71999979019165,7000
2020-02-13,4.610000133514404,4.808000087738037,4.599999904632568,4.679999828338623,4.679999828338623,6700
2020-02-14,4.650000095367432,4.739999771118164,4.599999904632568,4.639999866485596,4.639999866485596,11400
2020-02-18,4.795000076293945,4.795000076293945,4.599999904632568,4.610000133514404,4.610000133514404,5900
2020-02-19,4.670000076293945,4.678999900817871,4.610000133514404,4.619999885559082,4.619999885559082,5000
2020-02-20,4.599999904632568,4.829999923706055,4.599999904632568,4.75,4.75,14500
2020-02-21,4.880000114440918,4.989999771118164,4.880000114440918,4.949999809265137,4.949999809265137,18700
2020-02-24,4.949999809265137,5.0,4.599999904632568,4.599999904632568,4.599999904632568,20700
2020-02-25,4.724999904632568,4.730000019073486,4.5,4.539999961853027,4.539999961853027,28000
2020-02-26,4.510000228881836,4.51200008392334,3.700000047683716,3.7300000190734863,3.7300000190734863,26600
2020-02-27,3.690000057220459,3.742000102996826,3.553999900817871,3.630000114440918,3.630000114440918,28000
2020-02-28,3.6500000953674316,3.799999952316284,3.615000009536743,3.765000104904175,3.765000104904175,41100
2020-03-02,3.7799999713897705,3.990000009536743,3.609999895095825,3.799999952316284,3.799999952316284,22200
2020-03-03,4.0,4.0,3.3299999237060547,3.380000114440918,3.380000114440918,27200
2020-03-04,3.809999942779541,3.809999942779541,3.3499999046325684,3.450000047683716,3.450000047683716,19200
2020-03-05,3.5,3.8499999046325684,3.5,3.5799999237060547,3.5799999237060547,18700
2020-03-06,3.619999885559082,4.14900016784668,3.619999885559082,3.759999990463257,3.759999990463257,136600
2020-03-09,3.359999895095825,3.5899999141693115,3.2300000190734863,3.309999942779541,3.309999942779541,28800
2020-03-10,3.369999885559082,3.369999885559082,3.2300000190734863,3.2699999809265137,3.2699999809265137,30900
2020-03-11,3.240000009536743,3.434999942779541,3.2300000190734863,3.319999933242798,3.319999933242798,16600
2020-03-12,3.0899999141693115,3.180000066757202,2.859999895095825,2.859999895095825,2.859999895095825,49600
2020-03-13,2.9089999198913574,3.0899999141693115,2.865000009536743,3.0799999237060547,3.0799999237060547,24700
2020-03-16,2.299999952316284,3.0,2.25,2.490000009536743,2.490000009536743,141400
2020-03-17,2.6600000858306885,2.9149999618530273,2.25,2.4000000953674316,2.4000000953674316,35200
2020-03-18,2.25,2.5999999046325684,2.25,2.25,2.25,24600
2020-03-19,2.9700000286102295,2.9700000286102295,2.25,2.390000104904175,2.390000104904175,31700
2020-03-20,2.2899999618530273,3.049999952316284,2.2799999713897705,3.0,3.0,84800
2020-03-23,3.0399999618530273,3.3499999046325684,2.450000047683716,2.700000047683716,2.700000047683716,36300
2020-03-24,2.9100000858306885,2.950000047683716,2.7070000171661377,2.950000047683716,2.950000047683716,29000
2020-03-25,2.9649999141693115,2.9649999141693115,2.4600000381469727,2.799999952316284,2.799999952316284,8400
2020-03-26,2.815000057220459,2.990000009536743,2.75,2.9800000190734863,2.9800000190734863,47700
2020-03-27,3.0199999809265137,3.0199999809265137,2.5999999046325684,2.609999895095825,2.609999895095825,17500
2020-03-30,2.809999942779541,3.5,2.809999942779541,3.4000000953674316,3.4000000953674316,157400
2020-03-31,3.3299999237060547,3.4200000762939453,3.200000047683716,3.4200000762939453,3.4200000762939453,131700
2020-04-01,3.25,3.430000066757202,2.940000057220459,2.940000057220459,2.940000057220459,82300
2020-04-02,2.890000104904175,3.372999906539917,2.799999952316284,3.240000009536743,3.240000009536743,26000
2020-04-03,2.799999952316284,3.430000066757202,2.799999952316284,3.380000114440918,3.380000114440918,35000
2020-04-06,3.4200000762939453,3.5,3.3399999141693115,3.5,3.5,55400
2020-04-07,3.5,3.549999952316284,3.3499999046325684,3.4200000762939453,3.4200000762939453,22300
2020-04-08,3.490000009536743,3.5,3.140000104904175,3.4600000381469727,3.4600000381469727,41600
2020-04-09,3.559999942779541,3.559999942779541,3.3499999046325684,3.490000009536743,3.490000009536743,30600
2020-04-13,3.4600000381469727,3.4600000381469727,3.2899999618530273,3.4200000762939453,3.4200000762939453,8400
2020-04-14,3.4600000381469727,3.619999885559082,3.430000066757202,3.440000057220459,3.440000057220459,49600
2020-04-15,3.2799999713897705,3.5,3.25,3.25,3.25,40700
2020-04-16,3.359999895095825,3.630000114440918,3.2899999618530273,3.4700000286102295,3.4700000286102295,50700
2020-04-17,3.509999990463257,3.5999999046325684,3.3369998931884766,3.5,3.5,29900
2020-04-20,3.5799999237060547,3.9000000953674316,3.509999990463257,3.799999952316284,3.799999952316284,73900
2020-04-21,3.9200000762939453,4.0,3.7019999027252197,3.9200000762939453,3.9200000762939453,40800
2020-04-22,4.039999961853027,4.199999809265137,3.943000078201294,4.179999828338623,4.179999828338623,30900
2020-04-23,4.320000171661377,4.5,4.230999946594238,4.380000114440918,4.380000114440918,61000
2020-04-24,4.46999979019165,4.5,4.25,4.369999885559082,4.369999885559082,46500
2020-04-27,4.389999866485596,4.980000019073486,4.389999866485596,4.900000095367432,4.900000095367432,78500
2020-04-28,5.0,5.0,4.5,4.71999979019165,4.71999979019165,24900
2020-04-29,4.900000095367432,4.900000095367432,4.644999980926514,4.880000114440918,4.880000114440918,35600
2020-04-30,4.760000228881836,4.849999904632568,4.392000198364258,4.659999847412109,4.659999847412109,28600
2020-05-01,4.650000095367432,4.900000095367432,4.519999980926514,4.829999923706055,4.829999923706055,31300
2020-05-04,4.800000190734863,4.829999923706055,4.5,4.78000020980835,4.78000020980835,27200
2020-05-05,4.75,4.900000095367432,4.5320000648498535,4.860000133514404,4.860000133514404,59100
2020-05-06,6.0,7.239999771118164,5.179999828338623,5.650000095367432,5.650000095367432,1529900
2020-05-07,5.860000133514404,6.71999979019165,5.860000133514404,6.699999809265137,6.699999809265137,282500
2020-05-08,6.800000190734863,7.550000190734863,6.686999797821045,7.329999923706055,7.329999923706055,242900
2020-05-11,7.210000038146973,7.730000019073486,6.5329999923706055,7.699999809265137,7.699999809265137,143800
2020-05-12,7.110000133514404,7.289999961853027,5.880000114440918,5.989999771118164,5.989999771118164,420800
2020-05-13,5.989999771118164,6.010000228881836,5.119999885559082,5.340000152587891,5.340000152587891,383000
2020-05-14,5.210000038146973,5.599999904632568,4.110000133514404,4.389999866485596,4.389999866485596,1600800
2020-05-15,4.570000171661377,4.570000171661377,3.9100000858306885,3.9700000286102295,3.9700000286102295,524200
2020-05-18,4.079999923706055,4.260000228881836,3.9000000953674316,4.110000133514404,4.110000133514404,278800
2020-05-19,4.130000114440918,4.434999942779541,4.110000133514404,4.21999979019165,4.21999979019165,299200
2020-05-20,4.21999979019165,4.349999904632568,4.130000114440918,4.199999809265137,4.199999809265137,221200
2020-05-21,4.579999923706055,5.429999828338623,4.566999912261963,5.25,5.25,907300
2020-05-22,5.570000171661377,6.659999847412109,5.570000171661377,6.199999809265137,6.199999809265137,1600900
2020-05-26,6.579999923706055,6.74399995803833,5.440000057220459,5.449999809265137,5.449999809265137,663000
2020-05-27,5.550000190734863,5.567999839782715,4.800000190734863,5.170000076293945,5.170000076293945,474000
2020-05-28,5.849999904632568,6.349999904632568,5.550000190734863,5.670000076293945,5.670000076293945,834600
2020-05-29,5.679999828338623,6.190000057220459,5.610000133514404,6.0,6.0,437500
2020-06-01,6.199999809265137,6.255000114440918,5.659999847412109,6.03000020980835,6.03000020980835,348400
2020-06-02,6.0,6.039999961853027,5.670000076293945,5.960000038146973,5.960000038146973,271000
2020-06-03,5.920000076293945,6.03000020980835,5.75,5.789999961853027,5.789999961853027,166200
2020-06-04,5.710000038146973,5.84499979019165,5.375,5.5,5.5,232900
2020-06-05,5.570000171661377,5.679999828338623,5.179999828338623,5.329999923706055,5.329999923706055,231300
2020-06-08,5.320000171661377,5.699999809265137,5.190000057220459,5.590000152587891,5.590000152587891,216100
2020-06-09,5.639999866485596,5.829999923706055,5.539999961853027,5.630000114440918,5.630000114440918,224400
2020-06-10,5.650000095367432,5.650000095367432,5.25,5.320000171661377,5.320000171661377,205900
2020-06-11,5.21999979019165,5.21999979019165,4.769999980926514,4.829999923706055,4.829999923706055,274100
2020-06-12,5.010000228881836,5.076000213623047,4.755000114440918,5.019999980926514,5.019999980926514,114700
2020-06-15,4.96999979019165,5.480000019073486,4.960000038146973,5.440000057220459,5.440000057220459,273700
2020-06-16,5.449999809265137,5.494999885559082,5.090000152587891,5.389999866485596,5.389999866485596,199500
2020-06-17,5.460000038146973,5.650000095367432,5.320000171661377,5.53000020980835,5.53000020980835,207300
2020-06-18,5.53000020980835,5.820000171661377,5.53000020980835,5.75,5.75,321400
2020-06-19,5.829999923706055,5.900000095367432,5.519999980926514,5.829999923706055,5.829999923706055,1127900
2020-06-22,5.75,5.800000190734863,5.570000171661377,5.699999809265137,5.699999809265137,161800
2020-06-23,5.710000038146973,5.769999980926514,5.110000133514404,5.389999866485596,5.389999866485596,240700
2020-06-24,5.360000133514404,5.360000133514404,4.925000190734863,5.0,5.0,339300
2020-06-25,5.289999961853027,5.489999771118164,4.820000171661377,5.289999961853027,5.289999961853027,351200
2020-06-26,5.289999961853027,5.474999904632568,4.900000095367432,5.079999923706055,5.079999923706055,447500
2020-06-29,5.139999866485596,5.255000114440918,4.949999809265137,5.21999979019165,5.21999979019165,355800
2020-06-30,5.5,5.960000038146973,5.360000133514404,5.53000020980835,5.53000020980835,755200
2020-07-01,5.480000019073486,5.63700008392334,5.420000076293945,5.480000019073486,5.480000019073486,154400
2020-07-02,5.449999809265137,5.505000114440918,5.25,5.289999961853027,5.289999961853027,118300
2020-07-06,5.409999847412109,5.428999900817871,4.96999979019165,5.079999923706055,5.079999923706055,302400
2020-07-07,5.170000076293945,5.210000038146973,4.960000038146973,5.039999961853027,5.039999961853027,192600
2020-07-08,5.090000152587891,5.150000095367432,5.010000228881836,5.150000095367432,5.150000095367432,130500
2020-07-09,5.170000076293945,5.260000228881836,5.059999942779541,5.139999866485596,5.139999866485596,251500
2020-07-10,5.190000057220459,5.269999980926514,4.960000038146973,5.090000152587891,5.090000152587891,263000
2020-07-13,5.139999866485596,5.139999866485596,4.480000019073486,4.489999771118164,4.489999771118164,474600
2020-07-14,4.349999904632568,4.570000171661377,4.25,4.289999961853027,4.289999961853027,403800
2020-07-15,4.349999904632568,4.670000076293945,4.099999904632568,4.434999942779541,4.434999942779541,345800
2020-07-16,4.440000057220459,4.800000190734863,4.349999904632568,4.690000057220459,4.690000057220459,226000
2020-07-17,4.679999828338623,5.110000133514404,4.650000095367432,5.110000133514404,5.110000133514404,293600
2020-07-20,5.190000057220459,5.320000171661377,4.840000152587891,4.949999809265137,4.949999809265137,448900
2020-07-21,5.019999980926514,5.139999866485596,4.769999980926514,4.800000190734863,4.800000190734863,176400
2020-07-22,4.769999980926514,4.800000190734863,4.5,4.619999885559082,4.619999885559082,199100
2020-07-23,4.619999885559082,4.789999961853027,4.5,4.510000228881836,4.510000228881836,224500
2020-07-24,4.510000228881836,4.650000095367432,4.374000072479248,4.409999847412109,4.409999847412109,110800
2020-07-27,4.349999904632568,4.510000228881836,4.159999847412109,4.199999809265137,4.199999809265137,320700
2020-07-28,4.269999980926514,4.550000190734863,4.190000057220459,4.5,4.5,204900
2020-07-29,4.610000133514404,4.670000076293945,4.460000038146973,4.510000228881836,4.510000228881836,133700
2020-07-30,4.5,4.71999979019165,4.360000133514404,4.610000133514404,4.610000133514404,223800
2020-07-31,4.75,4.800000190734863,4.429999828338623,4.489999771118164,4.489999771118164,197000
2020-08-03,4.840000152587891,5.019999980926514,4.579999923706055,4.980000019073486,4.980000019073486,354100
2020-08-04,5.010000228881836,5.28000020980835,4.949999809265137,5.21999979019165,5.21999979019165,252800
2020-08-05,5.349999904632568,5.5,5.059999942779541,5.300000190734863,5.300000190734863,236200
2020-08-06,5.210000038146973,5.340000152587891,5.099999904632568,5.230000019073486,5.230000019073486,137300
2020-08-07,5.21999979019165,5.236000061035156,5.019999980926514,5.15500020980835,5.15500020980835,131700
2020-08-10,5.190000057220459,5.25,4.980000019073486,5.239999771118164,5.239999771118164,133000
2020-08-11,5.289999961853027,5.678999900817871,5.190000057220459,5.480000019073486,5.480000019073486,543200
2020-08-12,5.800000190734863,6.190000057220459,5.619999885559082,5.889999866485596,5.889999866485596,1137100
2020-08-13,5.900000095367432,6.010000228881836,5.210000038146973,5.429999828338623,5.429999828338623,671700
2020-08-14,5.5,5.78000020980835,5.449999809265137,5.710000038146973,5.710000038146973,356700
2020-08-17,5.989999771118164,5.989999771118164,5.71999979019165,5.909999847412109,5.909999847412109,401100
2020-08-18,5.920000076293945,5.949999809265137,5.619999885559082,5.760000228881836,5.760000228881836,292700
2020-08-19,5.869999885559082,5.869999885559082,5.300000190734863,5.730000019073486,5.730000019073486,397700
2020-08-20,5.639999866485596,5.75,5.360000133514404,5.690000057220459,5.690000057220459,218200
2020-08-21,5.610000133514404,5.644000053405762,5.159999847412109,5.320000171661377,5.320000171661377,375900
2020-08-24,5.420000076293945,5.420000076293945,5.050000190734863,5.25,5.25,295400
2020-08-25,5.269999980926514,5.369999885559082,5.179999828338623,5.340000152587891,5.340000152587891,139500
2020-08-26,5.369999885559082,5.420000076293945,5.199999809265137,5.320000171661377,5.320000171661377,275200
2020-08-27,5.369999885559082,5.400000095367432,5.059999942779541,5.170000076293945,5.170000076293945,239500
2020-08-28,5.150000095367432,5.210000038146973,5.0,5.074999809265137,5.074999809265137,243500
2020-08-31,5.099999904632568,5.099999904632568,4.880000114440918,5.0,5.0,240900
2020-09-01,5.090000152587891,5.090000152587891,4.820000171661377,4.889999866485596,4.889999866485596,200500
2020-09-02,4.869999885559082,4.869999885559082,4.5,4.670000076293945,4.670000076293945,272400
2020-09-03,4.650000095367432,4.809999942779541,4.449999809265137,4.480000019073486,4.480000019073486,143700
2020-09-04,4.53000020980835,4.53000020980835,4.150000095367432,4.420000076293945,4.420000076293945,184200
2020-09-08,4.429999828338623,4.739999771118164,4.260000228881836,4.670000076293945,4.670000076293945,222200
2020-09-09,4.690000057220459,4.829999923706055,4.599999904632568,4.679999828338623,4.679999828338623,104000
2020-09-10,4.760000228881836,4.929999828338623,4.670000076293945,4.679999828338623,4.679999828338623,111800
2020-09-11,4.699999809265137,4.710000038146973,4.550000190734863,4.550000190734863,4.550000190734863,110700
2020-09-14,4.639999866485596,4.989999771118164,4.599999904632568,4.860000133514404,4.860000133514404,115500
2020-09-15,4.829999923706055,4.96999979019165,4.710000038146973,4.730000019073486,4.730000019073486,86600
2020-09-16,4.730000019073486,4.869999885559082,4.699999809265137,4.724999904632568,4.724999904632568,79800
2020-09-17,4.690000057220459,4.849999904632568,4.630000114440918,4.775000095367432,4.775000095367432,104100
2020-09-18,4.800000190734863,4.949999809265137,4.699999809265137,4.809999942779541,4.809999942779541,576200
2020-09-21,4.71999979019165,4.71999979019165,4.510000228881836,4.659999847412109,4.659999847412109,168800
2020-09-22,4.610000133514404,4.739999771118164,4.159999847412109,4.699999809265137,4.699999809265137,242800
2020-09-23,4.630000114440918,4.630000114440918,4.28000020980835,4.289999961853027,4.289999961853027,93100
2020-09-24,4.434999942779541,4.434999942779541,4.070000171661377,4.119999885559082,4.119999885559082,142700
2020-09-25,4.309999942779541,4.75,4.309999942779541,4.710000038146973,4.710000038146973,157200
2020-09-28,4.820000171661377,4.820000171661377,4.5,4.639999866485596,4.639999866485596,142000
2020-09-29,4.619999885559082,4.760000228881836,4.559999942779541,4.690000057220459,4.690000057220459,75300
2020-09-30,4.699999809265137,4.78000020980835,4.550000190734863,4.619999885559082,4.619999885559082,119900
2020-10-01,4.619999885559082,4.71999979019165,4.510000228881836,4.699999809265137,4.699999809265137,92500
2020-10-02,4.610000133514404,4.784999847412109,4.550000190734863,4.710000038146973,4.710000038146973,83600
2020-10-05,4.809999942779541,4.849999904632568,4.710000038146973,4.829999923706055,4.829999923706055,132200
2020-10-06,4.840000152587891,4.989999771118164,4.760000228881836,4.789999961853027,4.789999961853027,79400
2020-10-07,4.840000152587891,4.989999771118164,4.800000190734863,4.960000038146973,4.960000038146973,80400
2020-10-08,5.070000171661377,5.150000095367432,4.929999828338623,5.059999942779541,5.059999942779541,67600
2020-10-09,5.079999923706055,5.113999843597412,4.894999980926514,4.929999828338623,4.929999828338623,86600
2020-10-12,4.989999771118164,5.010000228881836,4.874000072479248,4.929999828338623,4.929999828338623,61300
2020-10-13,4.929999828338623,5.079999923706055,4.875,5.070000171661377,5.070000171661377,59400
2020-10-14,5.019999980926514,5.079999923706055,4.889999866485596,4.940000057220459,4.940000057220459,60600
2020-10-15,4.900000095367432,4.90500020980835,4.610000133514404,4.840000152587891,4.840000152587891,92500
2020-10-16,4.820000171661377,4.949999809265137,4.71999979019165,4.820000171661377,4.820000171661377,50700
2020-10-19,4.869999885559082,4.900000095367432,4.599999904632568,4.619999885559082,4.619999885559082,113600
2020-10-20,4.670000076293945,4.735000133514404,4.5,4.53000020980835,4.53000020980835,54700
2020-10-21,4.510000228881836,4.599999904632568,4.400000095367432,4.46999979019165,4.46999979019165,53000
2020-10-22,4.460000038146973,4.579999923706055,4.414999961853027,4.5,4.5,66300
2020-10-23,4.519999980926514,4.559999942779541,4.440000057220459,4.449999809265137,4.449999809265137,32800
2020-10-26,4.440000057220459,4.489999771118164,4.315000057220459,4.429999828338623,4.429999828338623,53700
2020-10-27,4.75,4.800000190734863,4.670000076293945,4.75,4.75,111300
2020-10-28,4.75,4.75,4.320000171661377,4.400000095367432,4.400000095367432,88700
2020-10-29,4.559999942779541,4.559999942779541,4.269999980926514,4.420000076293945,4.420000076293945,68800
2020-10-30,4.545000076293945,4.545000076293945,4.199999809265137,4.239999771118164,4.239999771118164,79100
2020-11-02,4.25,4.510000228881836,4.25,4.510000228881836,4.510000228881836,104100
2020-11-03,4.570000171661377,4.690000057220459,4.46999979019165,4.630000114440918,4.630000114440918,99500
2020-11-04,4.639999866485596,4.849999904632568,4.510000228881836,4.809999942779541,4.809999942779541,80600
2020-11-05,4.800000190734863,4.960000038146973,4.71999979019165,4.75,4.75,78000
2020-11-06,4.71999979019165,4.789999961853027,4.599999904632568,4.610000133514404,4.610000133514404,32400
2020-11-09,4.789999961853027,4.929999828338623,4.699999809265137,4.789999961853027,4.789999961853027,60000
2020-11-10,4.900000095367432,5.159999847412109,4.699999809265137,5.039999961853027,5.039999961853027,131900
2020-11-11,5.050000190734863,5.349999904632568,4.840000152587891,5.329999923706055,5.329999923706055,130900
2020-11-12,5.449999809265137,5.5,4.900000095367432,5.150000095367432,5.150000095367432,159200
2020-11-13,5.269999980926514,5.429999828338623,5.190000057220459,5.289999961853027,5.289999961853027,111500
2020-11-16,5.190000057220459,5.400000095367432,5.010000228881836,5.329999923706055,5.329999923706055,123000
2020-11-17,5.400000095367432,5.400000095367432,5.130000114440918,5.210000038146973,5.210000038146973,69700
2020-11-18,5.449999809265137,5.449999809265137,5.230000019073486,5.28000020980835,5.28000020980835,141200
2020-11-19,5.409999847412109,5.5,5.260000228881836,5.409999847412109,5.409999847412109,129100
2020-11-20,5.320000171661377,5.389999866485596,5.21999979019165,5.349999904632568,5.349999904632568,120900
2020-11-23,5.449999809265137,5.5,5.349999904632568,5.389999866485596,5.389999866485596,91200
2020-11-24,5.5,6.0,5.432000160217285,5.96999979019165,5.96999979019165,216200
2020-11-25,5.96999979019165,6.039999961853027,5.550000190734863,5.650000095367432,5.650000095367432,124500
2020-11-27,5.639999866485596,5.849999904632568,5.639999866485596,5.739999771118164,5.739999771118164,87300
2020-11-30,5.739999771118164,5.909999847412109,5.631999969482422,5.699999809265137,5.699999809265137,78500
2020-12-01,5.78000020980835,5.78000020980835,5.309999942779541,5.309999942779541,5.309999942779541,118900
2020-12-02,5.309999942779541,5.539999961853027,5.190000057220459,5.460000038146973,5.460000038146973,92000
2020-12-03,5.460000038146973,5.559999942779541,5.389999866485596,5.400000095367432,5.400000095367432,31400
2020-12-04,5.400000095367432,5.659999847412109,5.349999904632568,5.570000171661377,5.570000171661377,75800
2020-12-07,5.630000114440918,5.730000019073486,5.480000019073486,5.519999980926514,5.519999980926514,62100
2020-12-08,5.519999980926514,5.6579999923706055,5.429999828338623,5.599999904632568,5.599999904632568,64600
2020-12-09,5.659999847412109,5.690000057220459,5.269999980926514,5.380000114440918,5.380000114440918,79600
2020-12-10,5.380000114440918,5.670000076293945,5.260000228881836,5.639999866485596,5.639999866485596,89500
2020-12-11,5.630000114440918,5.748000144958496,5.440000057220459,5.5,5.5,45400
2020-12-14,5.590000152587891,5.829999923706055,5.5,5.659999847412109,5.659999847412109,111700
2020-12-15,5.71999979019165,6.110000133514404,5.71999979019165,5.920000076293945,5.920000076293945,252200
2020-12-16,5.920000076293945,5.920000076293945,5.570000171661377,5.659999847412109,5.659999847412109,133100
2020-12-17,5.659999847412109,5.869999885559082,5.640999794006348,5.769999980926514,5.769999980926514,59400
2020-12-18,5.820000171661377,5.985000133514404,5.710000038146973,5.829999923706055,5.829999923706055,184400
2020-12-21,5.900000095367432,5.900000095367432,5.5,5.730000019073486,5.730000019073486,97900
2020-12-22,5.769999980926514,5.78000020980835,5.599999904632568,5.71999979019165,5.71999979019165,88700
2020-12-23,5.769999980926514,5.880000114440918,5.260000228881836,5.449999809265137,5.449999809265137,105700
2020-12-24,5.5,5.519999980926514,5.360000133514404,5.429999828338623,5.429999828338623,30400
2020-12-28,5.550000190734863,5.599999904632568,5.25,5.269999980926514,5.269999980926514,59700
2020-12-29,5.289999961853027,5.460000038146973,5.0,5.190000057220459,5.190000057220459,128800
2020-12-30,5.179999828338623,5.429999828338623,5.170000076293945,5.340000152587891,5.340000152587891,61800
