Date,Open,High,Low,Close,Adj Close,Volume
2018-05-03,5.510000228881836,6.800000190734863,5.25,5.869999885559082,5.869999885559082,609500
2018-05-04,5.769999980926514,6.324999809265137,5.610000133514404,5.71999979019165,5.71999979019165,118200
2018-05-07,5.889999866485596,6.0,5.599999904632568,5.826000213623047,5.826000213623047,102600
2018-05-08,5.909999847412109,5.909999847412109,5.409999847412109,5.409999847412109,5.409999847412109,48800
2018-05-09,5.460000038146973,6.5,5.401000022888184,6.300000190734863,6.300000190734863,106400
2018-05-10,6.489999771118164,7.586999893188477,5.915999889373779,6.794000148773193,6.794000148773193,389900
2018-05-11,6.21999979019165,7.349999904632568,6.199999809265137,6.800000190734863,6.800000190734863,133200
2018-05-14,7.28000020980835,7.28000020980835,6.510000228881836,6.650000095367432,6.650000095367432,40100
2018-05-15,6.260000228881836,7.150000095367432,6.25,6.769999980926514,6.769999980926514,100700
2018-05-16,6.869999885559082,6.980000019073486,6.360000133514404,6.53000020980835,6.53000020980835,59300
2018-05-17,6.599999904632568,6.800000190734863,6.25,6.519999980926514,6.519999980926514,59300
2018-05-18,6.5,7.099999904632568,6.5,6.989999771118164,6.989999771118164,55500
2018-05-21,7.25,7.25,6.889999866485596,7.079999923706055,7.079999923706055,39700
2018-05-22,6.699999809265137,8.050000190734863,6.494999885559082,7.75,7.75,326900
2018-05-23,8.050000190734863,9.180000305175781,7.800000190734863,7.949999809265137,7.949999809265137,365400
2018-05-24,8.09000015258789,8.09000015258789,7.295000076293945,7.5,7.5,71400
2018-05-25,7.480000019073486,7.480000019073486,7.210000038146973,7.329999923706055,7.329999923706055,46500
2018-05-29,7.260000228881836,7.300000190734863,7.0,7.0,7.0,54500
2018-05-30,7.0,7.034999847412109,6.5,6.789999961853027,6.789999961853027,105000
2018-05-31,6.840000152587891,7.831999778747559,6.840000152587891,6.960000038146973,6.960000038146973,30000
2018-06-01,7.045000076293945,7.324999809265137,7.045000076293945,7.099999904632568,7.099999904632568,15400
2018-06-04,7.099999904632568,7.099999904632568,6.130000114440918,6.958000183105469,6.958000183105469,58200
2018-06-05,6.900000095367432,7.730000019073486,6.340000152587891,6.860000133514404,6.860000133514404,100200
2018-06-06,6.599999904632568,6.948999881744385,6.5,6.789999961853027,6.789999961853027,40900
2018-06-07,6.71999979019165,6.818999767303467,6.300000190734863,6.75,6.75,38200
2018-06-08,6.800000190734863,7.0,6.604000091552734,6.815000057220459,6.815000057220459,30300
2018-06-11,6.78000020980835,7.5,6.78000020980835,7.460000038146973,7.460000038146973,93300
2018-06-12,7.460000038146973,7.632999897003174,6.921999931335449,7.190000057220459,7.190000057220459,22500
2018-06-13,7.059999942779541,7.449999809265137,6.909999847412109,7.449999809265137,7.449999809265137,31600
2018-06-14,7.5,7.698999881744385,7.067999839782715,7.150000095367432,7.150000095367432,41800
2018-06-15,7.159999847412109,8.149999618530273,7.159999847412109,7.559999942779541,7.559999942779541,96800
2018-06-18,7.940000057220459,11.630000114440918,7.900000095367432,8.6899995803833,8.6899995803833,1031400
2018-06-19,8.529999732971191,8.529999732971191,7.966000080108643,8.029999732971191,8.029999732971191,84400
2018-06-20,8.079999923706055,8.880000114440918,8.050000190734863,8.289999961853027,8.289999961853027,72900
2018-06-21,8.319999694824219,8.789999961853027,8.119999885559082,8.399999618530273,8.399999618530273,50500
2018-06-22,8.300000190734863,11.119999885559082,8.130000114440918,9.407999992370605,9.407999992370605,417700
2018-06-25,9.3100004196167,9.630000114440918,8.614999771118164,8.90999984741211,8.90999984741211,75300
2018-06-26,9.050000190734863,9.630000114440918,8.899999618530273,9.3100004196167,9.3100004196167,55500
2018-06-27,9.3100004196167,9.3100004196167,8.279999732971191,8.369999885559082,8.369999885559082,120600
2018-06-28,8.399999618530273,8.779999732971191,7.75,7.809999942779541,7.809999942779541,82700
2018-06-29,7.75,8.399999618530273,7.380000114440918,7.769999980926514,7.769999980926514,53300
2018-07-02,8.779999732971191,8.899999618530273,7.949999809265137,7.96999979019165,7.96999979019165,203800
2018-07-03,8.029999732971191,8.647000312805176,7.25,7.889999866485596,7.889999866485596,100500
2018-07-05,7.820000171661377,8.23799991607666,6.550000190734863,6.920000076293945,6.920000076293945,181500
2018-07-06,6.860000133514404,7.230000019073486,6.639999866485596,6.820000171661377,6.820000171661377,55800
2018-07-09,6.869999885559082,7.099999904632568,6.5,6.619999885559082,6.619999885559082,58000
2018-07-10,6.570000171661377,6.934999942779541,6.308000087738037,6.5,6.5,13500
2018-07-11,6.460000038146973,6.679999828338623,6.361000061035156,6.52400016784668,6.52400016784668,9300
2018-07-12,6.5370001792907715,6.675000190734863,6.510000228881836,6.659999847412109,6.659999847412109,15600
2018-07-13,6.679999828338623,6.940000057220459,6.53000020980835,6.718999862670898,6.718999862670898,19600
2018-07-16,6.558000087738037,6.670000076293945,6.349999904632568,6.349999904632568,6.349999904632568,5800
2018-07-17,6.300000190734863,6.860000133514404,6.300000190734863,6.489999771118164,6.489999771118164,14900
2018-07-18,6.5,6.513999938964844,6.230000019073486,6.300000190734863,6.300000190734863,26500
2018-07-19,6.394999980926514,6.5,6.394999980926514,6.400000095367432,6.400000095367432,2900
2018-07-20,6.703000068664551,6.703000068664551,6.300000190734863,6.630000114440918,6.630000114440918,7200
2018-07-23,6.75,6.75,6.329999923706055,6.329999923706055,6.329999923706055,10300
2018-07-24,6.329999923706055,6.570000171661377,6.0,6.0,6.0,14500
2018-07-25,5.940000057220459,6.369999885559082,5.623000144958496,5.75,5.75,16500
2018-07-26,5.789999961853027,6.379000186920166,5.7270002365112305,6.265999794006348,6.265999794006348,16600
2018-07-27,6.281000137329102,6.320000171661377,5.900000095367432,5.949999809265137,5.949999809265137,10000
2018-07-30,5.909999847412109,6.057000160217285,5.519999980926514,5.849999904632568,5.849999904632568,10500
2018-07-31,6.057000160217285,6.057000160217285,5.538000106811523,5.900000095367432,5.900000095367432,9300
2018-08-01,5.800000190734863,5.800000190734863,5.710000038146973,5.710000038146973,5.710000038146973,7200
2018-08-02,5.704999923706055,5.800000190734863,5.546999931335449,5.800000190734863,5.800000190734863,8400
2018-08-03,5.704999923706055,5.960000038146973,5.510000228881836,5.869999885559082,5.869999885559082,15100
2018-08-06,5.795000076293945,6.090000152587891,5.710999965667725,5.849999904632568,5.849999904632568,31700
2018-08-07,5.829999923706055,5.921999931335449,5.590000152587891,5.710000038146973,5.710000038146973,37000
2018-08-08,5.579999923706055,5.879000186920166,5.579999923706055,5.849999904632568,5.849999904632568,5800
2018-08-09,5.550000190734863,5.889999866485596,5.510000228881836,5.710000038146973,5.710000038146973,2100
2018-08-10,5.807000160217285,5.900000095367432,5.679999828338623,5.75,5.75,19600
2018-08-13,5.900000095367432,5.900000095367432,5.659999847412109,5.7779998779296875,5.7779998779296875,9900
2018-08-14,5.920000076293945,5.920000076293945,5.78000020980835,5.849999904632568,5.849999904632568,8200
2018-08-15,5.669000148773193,5.840000152587891,5.449999809265137,5.449999809265137,5.449999809265137,9700
2018-08-16,5.679999828338623,5.699999809265137,4.559999942779541,5.25,5.25,69000
2018-08-17,4.928999900817871,5.250999927520752,4.928999900817871,5.099999904632568,5.099999904632568,12300
2018-08-20,5.019999980926514,5.050000190734863,4.900000095367432,5.050000190734863,5.050000190734863,23800
2018-08-21,5.039999961853027,5.327000141143799,5.0,5.320000171661377,5.320000171661377,7900
2018-08-22,5.420000076293945,5.699999809265137,5.400000095367432,5.699999809265137,5.699999809265137,2300
2018-08-23,5.909999847412109,6.260000228881836,5.579999923706055,5.664999961853027,5.664999961853027,82200
2018-08-24,5.710000038146973,6.2220001220703125,5.710000038146973,6.090000152587891,6.090000152587891,12900
2018-08-27,6.329999923706055,6.75,6.079999923706055,6.679999828338623,6.679999828338623,46800
2018-08-28,5.900000095367432,6.823999881744385,5.900000095367432,6.409999847412109,6.409999847412109,13200
2018-08-29,6.46999979019165,6.599999904632568,6.46999979019165,6.599999904632568,6.599999904632568,4700
2018-08-30,6.182000160217285,6.599999904632568,6.182000160217285,6.443999767303467,6.443999767303467,4000
2018-08-31,6.182000160217285,6.449999809265137,6.156000137329102,6.440000057220459,6.440000057220459,1600
2018-09-04,6.300000190734863,6.75,6.300000190734863,6.75,6.75,9800
2018-09-05,6.182000160217285,6.757999897003174,6.182000160217285,6.520999908447266,6.520999908447266,8300
2018-09-06,6.570000171661377,6.723999977111816,6.534999847412109,6.650000095367432,6.650000095367432,4800
2018-09-07,6.35699987411499,6.789999961853027,6.35699987411499,6.789999961853027,6.789999961853027,4800
2018-09-10,6.690000057220459,6.767000198364258,6.5,6.5,6.5,8100
2018-09-11,6.539999961853027,6.710000038146973,6.072999954223633,6.5,6.5,6300
2018-09-12,6.316999912261963,6.71999979019165,6.300000190734863,6.71999979019165,6.71999979019165,4500
2018-09-13,6.510000228881836,7.269999980926514,6.510000228881836,7.171000003814697,7.171000003814697,9300
2018-09-14,7.179999828338623,7.309999942779541,6.800000190734863,7.059999942779541,7.059999942779541,12000
2018-09-17,7.309999942779541,7.519999980926514,7.138999938964844,7.400000095367432,7.400000095367432,20100
2018-09-18,7.250999927520752,7.550000190734863,7.001999855041504,7.449999809265137,7.449999809265137,14900
2018-09-19,7.610000133514404,7.610000133514404,7.099999904632568,7.300000190734863,7.300000190734863,13100
2018-09-20,7.315999984741211,7.46999979019165,6.949999809265137,7.46999979019165,7.46999979019165,37000
2018-09-21,7.313000202178955,7.550000190734863,6.949999809265137,7.050000190734863,7.050000190734863,16100
2018-09-24,7.0,7.170000076293945,6.53000020980835,7.170000076293945,7.170000076293945,24400
2018-09-25,7.019999980926514,7.26800012588501,6.789999961853027,7.185999870300293,7.185999870300293,21600
2018-09-26,7.179999828338623,7.179999828338623,6.561999797821045,7.008999824523926,7.008999824523926,5900
2018-09-27,7.0,7.170000076293945,6.789000034332275,7.0229997634887695,7.0229997634887695,4100
2018-09-28,6.572000026702881,7.519999980926514,6.53000020980835,7.489999771118164,7.489999771118164,10400
2018-10-01,7.489999771118164,7.829999923706055,7.185999870300293,7.389999866485596,7.389999866485596,10400
2018-10-02,7.449999809265137,7.449999809265137,7.449999809265137,7.449999809265137,7.449999809265137,800
2018-10-03,7.159999847412109,7.163000106811523,6.814000129699707,7.150000095367432,7.150000095367432,4200
2018-10-04,7.03000020980835,7.065000057220459,6.914000034332275,6.931000232696533,6.931000232696533,2100
2018-10-05,7.119999885559082,7.119999885559082,6.834000110626221,6.9670000076293945,6.9670000076293945,2000
2018-10-08,6.699999809265137,7.099999904632568,6.5,7.099999904632568,7.099999904632568,7100
2018-10-09,6.630000114440918,7.050000190734863,6.5,6.75,6.75,8800
2018-10-10,6.809999942779541,6.915999889373779,5.880000114440918,6.209000110626221,6.209000110626221,6900
2018-10-11,6.0,6.849999904632568,5.699999809265137,6.170000076293945,6.170000076293945,28200
2018-10-12,6.349999904632568,6.699999809265137,5.900000095367432,6.46999979019165,6.46999979019165,19600
2018-10-15,6.269999980926514,7.119999885559082,5.019999980926514,6.440000057220459,6.440000057220459,11600
2018-10-16,6.449999809265137,6.449999809265137,5.900000095367432,6.199999809265137,6.199999809265137,3100
2018-10-17,5.927999973297119,6.718999862670898,5.886000156402588,6.099999904632568,6.099999904632568,14300
2018-10-18,5.7789998054504395,6.182000160217285,5.7789998054504395,6.182000160217285,6.182000160217285,1600
2018-10-19,6.199999809265137,6.400000095367432,6.0,6.25,6.25,7000
2018-10-22,6.090000152587891,6.218999862670898,5.760000228881836,6.218999862670898,6.218999862670898,1800
2018-10-23,5.849999904632568,6.289999961853027,5.7789998054504395,6.119999885559082,6.119999885559082,3800
2018-10-24,6.0,6.0,5.119999885559082,6.0,6.0,4800
2018-10-25,5.599999904632568,6.300000190734863,5.550000190734863,6.218999862670898,6.218999862670898,14900
2018-10-26,5.739999771118164,6.46999979019165,5.179999828338623,6.050000190734863,6.050000190734863,19000
2018-10-29,5.849999904632568,6.0,5.679999828338623,5.989999771118164,5.989999771118164,4600
2018-10-30,6.28000020980835,6.367000102996826,5.96999979019165,6.300000190734863,6.300000190734863,6200
2018-10-31,6.289999961853027,7.360000133514404,5.949999809265137,6.099999904632568,6.099999904632568,19800
2018-11-01,6.099999904632568,6.099999904632568,5.464000225067139,6.099999904632568,6.099999904632568,7800
2018-11-02,5.960000038146973,6.239999771118164,5.53000020980835,5.880000114440918,5.880000114440918,11600
2018-11-05,5.909999847412109,6.289000034332275,5.599999904632568,5.800000190734863,5.800000190734863,6400
2018-11-06,6.099999904632568,6.099999904632568,5.699999809265137,6.079999923706055,6.079999923706055,16200
2018-11-07,6.059999942779541,7.400000095367432,5.510000228881836,6.400000095367432,6.400000095367432,23300
2018-11-08,6.300000190734863,6.300000190734863,6.300000190734863,6.300000190734863,6.300000190734863,2700
2018-11-09,6.460000038146973,6.489999771118164,5.739999771118164,5.739999771118164,5.739999771118164,3700
2018-11-12,5.920000076293945,6.400000095367432,5.920000076293945,6.400000095367432,6.400000095367432,2000
2018-11-13,6.46999979019165,6.510000228881836,6.46999979019165,6.510000228881836,6.510000228881836,1100
2018-11-14,5.85699987411499,6.429999828338623,5.789999961853027,6.429999828338623,6.429999828338623,18900
2018-11-15,6.054999828338623,6.53000020980835,6.050000190734863,6.53000020980835,6.53000020980835,6300
2018-11-16,6.25,6.25,6.25,6.25,6.25,800
2018-11-19,6.179999828338623,6.869999885559082,6.0,6.5,6.5,12600
2018-11-20,6.25,6.394999980926514,5.900000095367432,6.150000095367432,6.150000095367432,9700
2018-11-21,5.989999771118164,6.329999923706055,5.639999866485596,6.329999923706055,6.329999923706055,4600
2018-11-23,5.7829999923706055,6.229000091552734,5.7829999923706055,6.010000228881836,6.010000228881836,5000
2018-11-26,6.0,6.110000133514404,5.925000190734863,6.110000133514404,6.110000133514404,2200
2018-11-27,5.949999809265137,6.239999771118164,5.677999973297119,6.050000190734863,6.050000190734863,6700
2018-11-28,6.03000020980835,6.050000190734863,5.909999847412109,6.050000190734863,6.050000190734863,2300
2018-11-29,5.823999881744385,6.070000171661377,5.688000202178955,5.985000133514404,5.985000133514404,11300
2018-11-30,5.855999946594238,6.079999923706055,5.78000020980835,6.0,6.0,7900
2018-12-03,6.25,6.25,6.006999969482422,6.25,6.25,700
2018-12-04,6.239999771118164,6.239999771118164,6.010000228881836,6.230000019073486,6.230000019073486,400
2018-12-06,6.230000019073486,6.25,5.809000015258789,6.099999904632568,6.099999904632568,15900
2018-12-07,5.7789998054504395,6.079999923706055,5.53000020980835,5.599999904632568,5.599999904632568,17700
2018-12-10,5.639999866485596,5.875,5.21999979019165,5.309999942779541,5.309999942779541,12000
2018-12-11,5.400000095367432,5.499000072479248,5.239999771118164,5.400000095367432,5.400000095367432,4000
2018-12-12,5.440000057220459,5.670000076293945,5.309999942779541,5.489999771118164,5.489999771118164,7700
2018-12-13,5.429999828338623,5.964000225067139,5.210000038146973,5.570000171661377,5.570000171661377,22700
2018-12-14,5.710000038146973,5.710000038146973,5.340000152587891,5.460000038146973,5.460000038146973,44700
2018-12-17,5.624000072479248,5.90500020980835,5.440000057220459,5.650000095367432,5.650000095367432,43000
2018-12-18,5.590000152587891,5.920000076293945,5.590000152587891,5.909999847412109,5.909999847412109,2400
2018-12-19,5.550000190734863,5.920000076293945,5.440000057220459,5.5,5.5,3300
2018-12-20,5.550000190734863,5.909999847412109,5.260000228881836,5.349999904632568,5.349999904632568,9900
2018-12-21,5.349999904632568,5.630000114440918,5.019999980926514,5.019999980926514,5.019999980926514,4400
2018-12-24,5.099999904632568,5.289999961853027,5.059999942779541,5.275000095367432,5.275000095367432,5800
2018-12-26,5.210000038146973,5.46999979019165,4.960000038146973,4.960000038146973,4.960000038146973,4800
2018-12-27,4.800000190734863,5.139999866485596,4.150000095367432,4.989999771118164,4.989999771118164,47300
2018-12-28,4.789999961853027,5.170000076293945,4.5,4.934999942779541,4.934999942779541,6000
2018-12-31,5.159999847412109,5.159999847412109,4.690000057220459,4.690000057220459,4.690000057220459,3500
2019-01-02,4.880000114440918,5.25,4.699999809265137,4.849999904632568,4.849999904632568,80000
2019-01-03,4.909999847412109,5.119999885559082,4.849999904632568,5.119999885559082,5.119999885559082,15100
2019-01-04,5.179999828338623,5.184000015258789,4.909999847412109,5.119999885559082,5.119999885559082,34300
2019-01-07,5.320000171661377,5.320000171661377,4.553999900817871,5.0,5.0,24400
2019-01-08,5.0,5.190000057220459,4.900000095367432,4.900000095367432,4.900000095367432,14400
2019-01-09,5.059999942779541,5.099999904632568,4.994999885559082,4.994999885559082,4.994999885559082,3600
2019-01-10,5.019999980926514,5.190000057220459,4.949999809265137,5.190000057220459,5.190000057220459,7600
2019-01-11,5.179999828338623,5.179999828338623,5.179999828338623,5.179999828338623,5.179999828338623,4700
2019-01-14,5.099999904632568,5.099999904632568,4.949999809265137,4.949999809265137,4.949999809265137,1400
2019-01-15,4.960999965667725,4.960999965667725,4.927000045776367,4.927000045776367,4.927000045776367,2500
2019-01-16,4.920000076293945,4.920000076293945,4.663000106811523,4.849999904632568,4.849999904632568,3100
2019-01-17,4.900000095367432,4.900000095367432,4.75,4.840000152587891,4.840000152587891,3800
2019-01-18,4.86299991607666,5.0970001220703125,4.86299991607666,5.050000190734863,5.050000190734863,2300
2019-01-22,5.050000190734863,5.050000190734863,5.050000190734863,5.050000190734863,5.050000190734863,100
2019-01-23,4.96999979019165,4.96999979019165,4.96999979019165,4.96999979019165,4.96999979019165,1600
2019-01-24,4.949999809265137,4.949999809265137,4.949999809265137,4.949999809265137,4.949999809265137,600
2019-01-25,4.940000057220459,5.119999885559082,4.7220001220703125,5.099999904632568,5.099999904632568,13400
2019-01-28,4.940000057220459,5.170000076293945,4.603000164031982,4.710000038146973,4.710000038146973,2200
2019-01-29,4.690000057220459,5.0,4.690000057220459,5.0,5.0,2400
2019-01-30,4.880000114440918,5.0,4.559999942779541,4.989999771118164,4.989999771118164,15400
2019-01-31,4.550000190734863,5.150000095367432,4.550000190734863,4.96999979019165,4.96999979019165,1800
2019-02-01,4.966000080108643,4.966000080108643,4.966000080108643,4.966000080108643,4.966000080108643,300
2019-02-04,4.966000080108643,4.966000080108643,4.966000080108643,4.966000080108643,4.966000080108643,100
2019-02-05,4.789999961853027,5.123000144958496,4.789999961853027,5.050000190734863,5.050000190734863,7800
2019-02-06,5.13100004196167,5.13100004196167,4.519999980926514,5.050000190734863,5.050000190734863,5000
2019-02-07,4.940000057220459,4.940000057220459,4.889999866485596,4.889999866485596,4.889999866485596,400
2019-02-08,4.840000152587891,4.880000114440918,4.840000152587891,4.869999885559082,4.869999885559082,1100
2019-02-11,4.710000038146973,4.855000019073486,4.710000038146973,4.824999809265137,4.824999809265137,8600
2019-02-12,4.900000095367432,5.050000190734863,4.900000095367432,5.048999786376953,5.048999786376953,3700
2019-02-13,5.010000228881836,5.050000190734863,4.800000190734863,5.050000190734863,5.050000190734863,21900
2019-02-14,4.974999904632568,5.120999813079834,4.974999904632568,5.090000152587891,5.090000152587891,4400
2019-02-15,5.099999904632568,5.119999885559082,4.820000171661377,5.025000095367432,5.025000095367432,11400
2019-02-19,5.039999961853027,5.046999931335449,4.849999904632568,4.994999885559082,4.994999885559082,6100
2019-02-20,4.880000114440918,4.940000057220459,4.800000190734863,4.800000190734863,4.800000190734863,6600
2019-02-21,4.760000228881836,4.793000221252441,4.699999809265137,4.75,4.75,9300
2019-02-22,4.71999979019165,4.870999813079834,4.5,4.75,4.75,9100
2019-02-25,4.820000171661377,4.889999866485596,4.53000020980835,4.659999847412109,4.659999847412109,6500
2019-02-26,4.683000087738037,4.683000087738037,4.683000087738037,4.683000087738037,4.683000087738037,300
2019-02-27,4.677000045776367,4.677000045776367,4.677000045776367,4.677000045776367,4.677000045776367,1100
2019-02-28,4.710000038146973,5.089000225067139,4.710000038146973,5.034999847412109,5.034999847412109,7200
2019-03-01,4.86899995803833,5.019999980926514,4.86899995803833,5.0,5.0,6000
2019-03-04,5.059999942779541,5.059999942779541,4.760000228881836,4.760000228881836,4.760000228881836,6700
2019-03-05,4.96999979019165,5.010000228881836,4.96999979019165,4.96999979019165,4.96999979019165,4400
2019-03-06,4.730000019073486,4.940000057220459,4.730000019073486,4.940000057220459,4.940000057220459,1900
2019-03-07,4.699999809265137,4.989999771118164,4.699999809265137,4.989999771118164,4.989999771118164,500
2019-03-08,4.989999771118164,4.989999771118164,4.989999771118164,4.989999771118164,4.989999771118164,100
2019-03-11,5.0,5.010000228881836,4.980000019073486,5.010000228881836,5.010000228881836,3500
2019-03-12,4.929999828338623,4.985000133514404,4.670000076293945,4.730000019073486,4.730000019073486,5000
2019-03-13,4.980000019073486,5.0,4.849999904632568,5.0,5.0,6000
2019-03-14,4.921000003814697,4.96999979019165,4.7779998779296875,4.949999809265137,4.949999809265137,4100
2019-03-15,5.0,5.0,4.650000095367432,4.849999904632568,4.849999904632568,5500
2019-03-18,4.997000217437744,5.010000228881836,4.920000076293945,4.989999771118164,4.989999771118164,1100
2019-03-19,4.986000061035156,5.010000228881836,4.760000228881836,4.760000228881836,4.760000228881836,6500
2019-03-20,4.664000034332275,5.010000228881836,4.664000034332275,5.010000228881836,5.010000228881836,6000
2019-03-21,4.932000160217285,5.190000057220459,4.932000160217285,5.169000148773193,5.169000148773193,37000
2019-03-22,5.025000095367432,5.420000076293945,5.025000095367432,5.360000133514404,5.360000133514404,29100
2019-03-25,5.110000133514404,5.434999942779541,5.110000133514404,5.244999885559082,5.244999885559082,14900
2019-03-26,5.110000133514404,5.260000228881836,5.099999904632568,5.144999980926514,5.144999980926514,6500
2019-03-27,5.050000190734863,5.170000076293945,5.025000095367432,5.099999904632568,5.099999904632568,24900
2019-03-28,5.099999904632568,5.099999904632568,4.900000095367432,5.0,5.0,17000
2019-03-29,5.0,5.099999904632568,4.906000137329102,5.041999816894531,5.041999816894531,12400
2019-04-01,5.090000152587891,5.090000152587891,5.070000171661377,5.090000152587891,5.090000152587891,5400
2019-04-02,4.973999977111816,5.099999904632568,4.900000095367432,5.090000152587891,5.090000152587891,2400
2019-04-03,5.025000095367432,5.050000190734863,4.96999979019165,5.0,5.0,5500
2019-04-04,4.934999942779541,5.050000190734863,4.934999942779541,5.0,5.0,5300
2019-04-05,5.019000053405762,5.019000053405762,4.989999771118164,4.989999771118164,4.989999771118164,4900
2019-04-08,4.934999942779541,5.025000095367432,4.934999942779541,5.005000114440918,5.005000114440918,4000
2019-04-09,4.953999996185303,5.03000020980835,4.953999996185303,5.03000020980835,5.03000020980835,300
2019-04-10,5.0,5.099999904632568,4.965000152587891,5.019999980926514,5.019999980926514,17400
2019-04-11,4.96999979019165,5.099999904632568,4.96999979019165,5.0,5.0,32400
2019-04-12,5.03000020980835,5.03000020980835,5.03000020980835,5.03000020980835,5.03000020980835,500
2019-04-15,4.960000038146973,5.03000020980835,4.949999809265137,5.03000020980835,5.03000020980835,15400
2019-04-16,4.910999774932861,5.005000114440918,4.800000190734863,5.0,5.0,12100
2019-04-17,5.0,5.010000228881836,4.75,5.010000228881836,5.010000228881836,7000
2019-04-18,4.849999904632568,5.005000114440918,4.75,5.005000114440918,5.005000114440918,4400
2019-04-22,5.005000114440918,5.005000114440918,5.005000114440918,5.005000114440918,5.005000114440918,100
2019-04-23,4.730000019073486,4.900000095367432,4.710000038146973,4.889999866485596,4.889999866485596,22400
2019-04-24,4.75,4.889999866485596,4.75,4.889999866485596,4.889999866485596,6300
2019-04-25,4.684999942779541,4.820000171661377,4.550000190734863,4.820000171661377,4.820000171661377,15000
2019-04-26,4.699999809265137,4.84499979019165,4.550000190734863,4.599999904632568,4.599999904632568,17200
2019-04-29,4.75,4.769999980926514,4.190000057220459,4.5,4.5,16800
2019-04-30,4.099999904632568,4.298999786376953,3.9619998931884766,4.269999980926514,4.269999980926514,15600
2019-05-01,4.349999904632568,4.349999904632568,3.7219998836517334,4.099999904632568,4.099999904632568,26600
2019-05-02,3.9690001010894775,4.199999809265137,3.5799999237060547,3.994999885559082,3.994999885559082,9200
2019-05-03,4.0,4.150000095367432,3.809999942779541,3.809999942779541,3.809999942779541,9100
2019-05-06,3.819999933242798,4.010000228881836,3.640000104904175,3.869999885559082,3.869999885559082,3400
2019-05-07,3.7100000381469727,3.9100000858306885,3.3440001010894775,3.799999952316284,3.799999952316284,7600
2019-05-08,3.7200000286102295,3.8499999046325684,3.450000047683716,3.5829999446868896,3.5829999446868896,10200
2019-05-09,3.700000047683716,4.0,3.680000066757202,3.9000000953674316,3.9000000953674316,34100
2019-05-10,3.880000114440918,3.880000114440918,3.5179998874664307,3.799999952316284,3.799999952316284,12300
2019-05-13,3.9200000762939453,3.944999933242798,3.753999948501587,3.940000057220459,3.940000057220459,19500
2019-05-14,3.864000082015991,3.9260001182556152,3.630000114440918,3.630000114440918,3.630000114440918,7600
2019-05-15,3.7690000534057617,3.7690000534057617,3.3499999046325684,3.6500000953674316,3.6500000953674316,6700
2019-05-16,3.3499999046325684,3.640000104904175,3.0199999809265137,3.450000047683716,3.450000047683716,68200
2019-05-17,3.1040000915527344,3.549999952316284,3.1040000915527344,3.484999895095825,3.484999895095825,4500
2019-05-20,3.5,3.5,2.7899999618530273,2.8550000190734863,2.8550000190734863,91300
2019-05-21,3.859999895095825,3.9200000762939453,3.0,3.0999999046325684,3.0999999046325684,90700
2019-05-22,3.0999999046325684,3.200000047683716,2.950000047683716,3.0899999141693115,3.0899999141693115,36900
2019-05-23,3.059999942779541,3.119999885559082,2.940000057220459,3.0,3.0,19900
2019-05-24,2.880000114440918,2.9200000762939453,2.3499999046325684,2.8450000286102295,2.8450000286102295,64400
2019-05-28,2.9800000190734863,3.380000114440918,2.9800000190734863,3.319999933242798,3.319999933242798,52500
2019-05-29,3.549999952316284,3.9000000953674316,3.2799999713897705,3.4200000762939453,3.4200000762939453,57800
2019-05-30,3.490000009536743,3.700000047683716,3.359999895095825,3.4800000190734863,3.4800000190734863,47700
2019-05-31,3.5,3.5,3.25,3.490000009536743,3.490000009536743,24600
2019-06-03,3.259999990463257,3.3550000190734863,2.880000114440918,3.1700000762939453,3.1700000762939453,56300
2019-06-04,3.059999942779541,3.549999952316284,3.0299999713897705,3.5399999618530273,3.5399999618530273,70300
2019-06-05,3.700000047683716,3.7300000190734863,3.552999973297119,3.680000066757202,3.680000066757202,51100
2019-06-06,3.7100000381469727,3.990000009536743,3.4560000896453857,3.700000047683716,3.700000047683716,42600
2019-06-07,3.619999885559082,3.799999952316284,3.00600004196167,3.25,3.25,31200
2019-06-10,3.2300000190734863,3.240000009536743,2.864000082015991,2.8929998874664307,2.8929998874664307,12600
2019-06-11,3.049999952316284,3.2360000610351562,2.940000057220459,3.049999952316284,3.049999952316284,7600
2019-06-12,3.069999933242798,3.069999933242798,2.700000047683716,2.98799991607666,2.98799991607666,14300
2019-06-13,2.950000047683716,2.950000047683716,2.1710000038146973,2.619999885559082,2.619999885559082,44400
2019-06-14,2.6600000858306885,2.9749999046325684,2.4000000953674316,2.8499999046325684,2.8499999046325684,44000
2019-06-17,2.8399999141693115,2.8499999046325684,2.424999952316284,2.5350000858306885,2.5350000858306885,17600
2019-06-18,2.5899999141693115,2.7249999046325684,2.2730000019073486,2.4800000190734863,2.4800000190734863,28800
2019-06-19,2.75,3.1500000953674316,2.4800000190734863,2.615000009536743,2.615000009536743,53600
2019-06-20,2.8499999046325684,2.869999885559082,2.369999885559082,2.369999885559082,2.369999885559082,62700
2019-06-21,2.380000114440918,2.450000047683716,2.0950000286102295,2.200000047683716,2.200000047683716,109600
2019-06-24,2.259999990463257,2.434000015258789,2.2109999656677246,2.2109999656677246,2.2109999656677246,37700
2019-06-25,2.2100000381469727,2.450000047683716,2.1700000762939453,2.450000047683716,2.450000047683716,38500
2019-06-26,2.4100000858306885,2.8499999046325684,2.2950000762939453,2.359999895095825,2.359999895095825,46100
2019-06-27,2.319999933242798,2.319999933242798,2.2100000381469727,2.2699999809265137,2.2699999809265137,13900
2019-06-28,2.25,2.450000047683716,2.190000057220459,2.2799999713897705,2.2799999713897705,25800
2019-07-01,2.25,2.3499999046325684,2.0299999713897705,2.059999942779541,2.059999942779541,35100
2019-07-02,1.9600000381469727,2.1600000858306885,1.899999976158142,2.059999942779541,2.059999942779541,22600
2019-07-03,1.9800000190734863,2.069999933242798,1.850000023841858,1.9700000286102295,1.9700000286102295,31000
2019-07-05,2.0,2.140000104904175,1.9819999933242798,2.0899999141693115,2.0899999141693115,10400
2019-07-08,2.184999942779541,2.380000114440918,2.069999933242798,2.380000114440918,2.380000114440918,17000
2019-07-09,2.380000114440918,2.5899999141693115,2.180000066757202,2.3499999046325684,2.3499999046325684,5400
2019-07-10,2.2300000190734863,2.359999895095825,2.0999999046325684,2.2699999809265137,2.2699999809265137,7300
2019-07-11,2.2300000190734863,2.4000000953674316,2.1500000953674316,2.4000000953674316,2.4000000953674316,19300
2019-07-12,2.2100000381469727,2.450000047683716,2.2100000381469727,2.433000087738037,2.433000087738037,6200
2019-07-15,2.4200000762939453,2.493000030517578,2.2799999713897705,2.2799999713897705,2.2799999713897705,3600
2019-07-16,2.2799999713897705,2.2799999713897705,2.0199999809265137,2.1500000953674316,2.1500000953674316,10300
2019-07-17,2.490000009536743,2.490000009536743,2.0399999618530273,2.1600000858306885,2.1600000858306885,1700
2019-07-18,2.1700000762939453,2.4700000286102295,2.0399999618530273,2.2100000381469727,2.2100000381469727,4700
2019-07-19,2.115999937057495,2.2200000286102295,2.115999937057495,2.2200000286102295,2.2200000286102295,800
2019-07-22,2.1500000953674316,2.1500000953674316,2.0999999046325684,2.119999885559082,2.119999885559082,4700
2019-07-23,2.0999999046325684,2.1500000953674316,2.0999999046325684,2.115999937057495,2.115999937057495,3900
2019-07-24,2.0999999046325684,2.1600000858306885,1.934999942779541,2.049999952316284,2.049999952316284,11800
2019-07-25,1.871999979019165,2.0399999618530273,1.871999979019165,2.0399999618530273,2.0399999618530273,1500
2019-07-26,1.9630000591278076,2.0399999618530273,1.9299999475479126,2.0399999618530273,2.0399999618530273,1800
2019-07-29,2.0,2.4769999980926514,1.850000023841858,2.174999952316284,2.174999952316284,16000
2019-07-30,1.899999976158142,2.240000009536743,1.809999942779541,2.13100004196167,2.13100004196167,3900
2019-07-31,2.200000047683716,2.319999933242798,2.069999933242798,2.069999933242798,2.069999933242798,23600
2019-08-01,2.25,2.25,1.9600000381469727,2.130000114440918,2.130000114440918,9300
2019-08-02,2.0199999809265137,2.0999999046325684,1.6740000247955322,2.0999999046325684,2.0999999046325684,15100
2019-08-05,2.0999999046325684,2.0999999046325684,1.9500000476837158,1.9500000476837158,1.9500000476837158,1400
2019-08-06,2.0799999237060547,2.0999999046325684,2.049999952316284,2.049999952316284,2.049999952316284,2600
2019-08-07,2.0299999713897705,2.0799999237060547,1.9800000190734863,2.0360000133514404,2.0360000133514404,4700
2019-08-08,2.049999952316284,2.049999952316284,2.049999952316284,2.049999952316284,2.049999952316284,400
2019-08-09,2.049999952316284,2.049999952316284,1.940000057220459,2.0399999618530273,2.0399999618530273,2800
2019-08-12,1.9700000286102295,2.0399999618530273,1.909999966621399,1.909999966621399,1.909999966621399,1700
2019-08-13,2.0299999713897705,2.0299999713897705,1.909999966621399,2.0199999809265137,2.0199999809265137,1900
2019-08-14,1.9600000381469727,2.0,1.9199999570846558,1.9199999570846558,1.9199999570846558,1900
2019-08-15,2.0,2.0850000381469727,2.0,2.069999933242798,2.069999933242798,16400
2019-08-16,2.0299999713897705,2.0799999237060547,2.009999990463257,2.0799999237060547,2.0799999237060547,2200
2019-08-19,2.1500000953674316,2.319999933242798,2.1070001125335693,2.2100000381469727,2.2100000381469727,54300
2019-08-20,2.071000099182129,2.2300000190734863,2.061000108718872,2.180000066757202,2.180000066757202,10600
2019-08-21,2.180000066757202,2.180000066757202,2.061000108718872,2.0880000591278076,2.0880000591278076,7500
2019-08-22,2.130000114440918,2.130000114440918,2.0899999141693115,2.0950000286102295,2.0950000286102295,2200
2019-08-23,2.119999885559082,2.130000114440918,2.0399999618530273,2.0899999141693115,2.0899999141693115,4700
2019-08-26,2.0,2.0829999446868896,1.9800000190734863,2.059999942779541,2.059999942779541,21100
2019-08-27,2.799999952316284,3.119999885559082,2.069999933242798,2.380000114440918,2.380000114440918,3239300
2019-08-28,2.3299999237060547,2.4700000286102295,2.0999999046325684,2.4000000953674316,2.4000000953674316,147700
2019-08-29,2.440000057220459,2.440000057220459,2.1500000953674316,2.430000066757202,2.430000066757202,49900
2019-08-30,2.430000066757202,2.430000066757202,2.180000066757202,2.2360000610351562,2.2360000610351562,28000
2019-09-03,2.2300000190734863,2.9800000190734863,2.0799999237060547,2.4600000381469727,2.4600000381469727,99500
2019-09-04,2.5799999237060547,3.0999999046325684,2.2899999618530273,2.950000047683716,2.950000047683716,115700
2019-09-05,2.9800000190734863,3.190000057220459,2.9200000762939453,3.068000078201294,3.068000078201294,46000
2019-09-06,3.200000047683716,3.200000047683716,2.759999990463257,2.890000104904175,2.890000104904175,47900
2019-09-09,2.9800000190734863,3.049999952316284,2.809999942779541,2.819999933242798,2.819999933242798,8900
2019-09-10,2.819999933242798,2.8399999141693115,2.5799999237060547,2.625,2.625,20200
2019-09-11,2.615999937057495,2.619999885559082,2.430000066757202,2.4600000381469727,2.4600000381469727,41700
2019-09-12,2.430000066757202,2.4630000591278076,2.3399999141693115,2.443000078201294,2.443000078201294,17200
2019-09-13,2.390000104904175,2.5399999618530273,2.319999933242798,2.3959999084472656,2.3959999084472656,34100
2019-09-16,2.509999990463257,2.6600000858306885,2.5,2.5329999923706055,2.5329999923706055,18000
2019-09-17,2.5299999713897705,2.631999969482422,2.359999895095825,2.369999885559082,2.369999885559082,5200
2019-09-18,2.4679999351501465,2.4679999351501465,2.319999933242798,2.4240000247955322,2.4240000247955322,18300
2019-09-19,2.38100004196167,2.4609999656677246,2.3570001125335693,2.4240000247955322,2.4240000247955322,15800
2019-09-20,2.440000057220459,2.9000000953674316,2.3259999752044678,2.5,2.5,32900
2019-09-23,2.609999895095825,2.6519999504089355,2.559999942779541,2.6519999504089355,2.6519999504089355,4600
2019-09-24,2.6700000762939453,2.6700000762939453,2.4600000381469727,2.5999999046325684,2.5999999046325684,10100
2019-09-25,2.434999942779541,2.569999933242798,2.2100000381469727,2.359999895095825,2.359999895095825,9400
2019-09-26,2.513000011444092,2.513000011444092,2.430000066757202,2.430000066757202,2.430000066757202,4700
2019-09-27,2.5,2.5199999809265137,2.4600000381469727,2.4700000286102295,2.4700000286102295,13800
2019-09-30,2.4000000953674316,2.4730000495910645,2.3499999046325684,2.4730000495910645,2.4730000495910645,2000
2019-10-01,2.4000000953674316,2.490000009536743,2.259999990463257,2.259999990463257,2.259999990463257,11200
2019-10-02,2.1619999408721924,2.305000066757202,2.0899999141693115,2.130000114440918,2.130000114440918,13400
2019-10-03,2.069999933242798,2.315999984741211,2.069999933242798,2.2100000381469727,2.2100000381469727,12300
2019-10-04,2.299999952316284,2.4070000648498535,2.2300000190734863,2.2639999389648438,2.2639999389648438,10400
2019-10-07,2.2799999713897705,2.380000114440918,2.2300000190734863,2.259999990463257,2.259999990463257,3000
2019-10-08,2.2339999675750732,2.2339999675750732,2.1600000858306885,2.180999994277954,2.180999994277954,4600
2019-10-09,2.1610000133514404,2.1610000133514404,2.061000108718872,2.1500000953674316,2.1500000953674316,4100
2019-10-10,2.0769999027252197,2.1700000762939453,2.0769999027252197,2.109999895095825,2.109999895095825,1200
2019-10-11,2.0999999046325684,2.1500000953674316,2.0799999237060547,2.119999885559082,2.119999885559082,12800
2019-10-14,2.0999999046325684,2.0999999046325684,2.069999933242798,2.0999999046325684,2.0999999046325684,4900
2019-10-15,2.0869998931884766,2.109999895095825,2.069999933242798,2.0999999046325684,2.0999999046325684,3500
2019-10-16,2.0999999046325684,2.119999885559082,2.069999933242798,2.0799999237060547,2.0799999237060547,4600
2019-10-17,2.0399999618530273,2.186000108718872,2.0199999809265137,2.0199999809265137,2.0199999809265137,4700
2019-10-18,1.9930000305175781,2.007999897003174,1.7200000286102295,1.940000057220459,1.940000057220459,17500
2019-10-21,1.9299999475479126,2.0,1.909999966621399,1.909999966621399,1.909999966621399,7700
2019-10-22,1.9199999570846558,2.0199999809265137,1.9199999570846558,2.0199999809265137,2.0199999809265137,6700
2019-10-23,2.0199999809265137,2.0399999618530273,1.9889999628067017,2.0199999809265137,2.0199999809265137,8700
2019-10-24,2.1500000953674316,2.1500000953674316,1.9600000381469727,1.9800000190734863,1.9800000190734863,6300
2019-10-25,2.0,2.0,1.9500000476837158,1.9700000286102295,1.9700000286102295,5300
2019-10-28,1.9769999980926514,2.0,1.9600000381469727,2.0,2.0,2900
2019-10-29,1.7070000171661377,2.0,1.7070000171661377,1.9700000286102295,1.9700000286102295,1600
2019-10-30,1.9500000476837158,1.9700000286102295,1.7300000190734863,1.909999966621399,1.909999966621399,2700
2019-10-31,1.8600000143051147,2.0,1.850000023841858,2.0,2.0,4800
2019-11-01,1.9500000476837158,1.9500000476837158,1.934000015258789,1.934000015258789,1.934000015258789,500
2019-11-04,1.9919999837875366,2.5,1.9919999837875366,2.5,2.5,25000
2019-11-05,2.630000114440918,2.630000114440918,2.2049999237060547,2.3499999046325684,2.3499999046325684,6000
2019-11-06,2.240000009536743,2.319999933242798,2.1630001068115234,2.190999984741211,2.190999984741211,6500
2019-11-07,2.200000047683716,2.2699999809265137,2.200000047683716,2.2200000286102295,2.2200000286102295,1600
2019-11-08,2.2200000286102295,2.2200000286102295,2.200000047683716,2.2200000286102295,2.2200000286102295,4700
2019-11-11,2.1500000953674316,2.25,2.1500000953674316,2.25,2.25,600
2019-11-12,2.2269999980926514,2.25,2.1579999923706055,2.25,2.25,29400
2019-11-13,2.200000047683716,2.25,2.1600000858306885,2.190000057220459,2.190000057220459,4600
2019-11-14,2.190999984741211,2.240000009536743,2.059999942779541,2.1740000247955322,2.1740000247955322,50800
2019-11-15,2.240000009536743,2.240000009536743,1.7699999809265137,2.130000114440918,2.130000114440918,45300
2019-11-18,2.0,2.0999999046325684,1.9600000381469727,2.0399999618530273,2.0399999618530273,30600
2019-11-19,2.1070001125335693,2.1500000953674316,2.0420000553131104,2.1500000953674316,2.1500000953674316,4000
2019-11-20,2.052999973297119,2.1500000953674316,1.940000057220459,2.049999952316284,2.049999952316284,12400
2019-11-21,2.0510001182556152,2.061000108718872,1.8849999904632568,1.9500000476837158,1.9500000476837158,36500
2019-11-22,1.9299999475479126,1.9299999475479126,1.7599999904632568,1.7599999904632568,1.7599999904632568,12300
2019-11-25,1.7699999809265137,1.8799999952316284,1.6699999570846558,1.8799999952316284,1.8799999952316284,51700
2019-11-26,1.8569999933242798,1.9500000476837158,1.8200000524520874,1.8600000143051147,1.8600000143051147,4500
2019-11-27,1.809999942779541,1.8899999856948853,1.7999999523162842,1.850000023841858,1.850000023841858,9000
2019-11-29,1.7899999618530273,1.8899999856948853,1.7899999618530273,1.8200000524520874,1.8200000524520874,7500
2019-12-02,1.809999942779541,1.8799999952316284,1.6699999570846558,1.75,1.75,43500
2019-12-03,1.6699999570846558,1.7200000286102295,1.6200000047683716,1.6399999856948853,1.6399999856948853,58800
2019-12-04,2.109999895095825,2.450000047683716,1.4800000190734863,1.75,1.75,2147900
2019-12-05,1.649999976158142,1.7300000190734863,1.3200000524520874,1.4570000171661377,1.4570000171661377,159800
2019-12-06,1.4329999685287476,1.5,1.3600000143051147,1.4800000190734863,1.4800000190734863,88200
2019-12-09,1.4299999475479126,1.5099999904632568,1.350000023841858,1.3899999856948853,1.3899999856948853,65100
2019-12-10,1.3639999628067017,1.899999976158142,1.350000023841858,1.7000000476837158,1.7000000476837158,257300
2019-12-11,1.7799999713897705,1.8619999885559082,1.559999942779541,1.7649999856948853,1.7649999856948853,54100
2019-12-12,1.8300000429153442,1.8700000047683716,1.7000000476837158,1.7200000286102295,1.7200000286102295,73200
2019-12-13,1.7000000476837158,1.7999999523162842,1.6699999570846558,1.7200000286102295,1.7200000286102295,74000
2019-12-16,1.7400000095367432,1.7599999904632568,1.600000023841858,1.75,1.75,23800
2019-12-17,1.7699999809265137,1.8589999675750732,1.440000057220459,1.7799999713897705,1.7799999713897705,360200
2019-12-18,1.75,1.9500000476837158,1.7300000190734863,1.940000057220459,1.940000057220459,56300
2019-12-19,1.909999966621399,1.9500000476837158,1.8700000047683716,1.909999966621399,1.909999966621399,34200
2019-12-20,1.8600000143051147,1.9800000190734863,1.8200000524520874,1.8799999952316284,1.8799999952316284,102600
2019-12-23,1.840000033378601,1.9500000476837158,1.840000033378601,1.9500000476837158,1.9500000476837158,82300
2019-12-24,1.940000057220459,1.940000057220459,1.9240000247955322,1.940000057220459,1.940000057220459,47900
2019-12-26,1.899999976158142,1.940000057220459,1.899999976158142,1.9299999475479126,1.9299999475479126,26300
2019-12-27,1.8700000047683716,1.9299999475479126,1.850000023841858,1.899999976158142,1.899999976158142,22100
2019-12-30,1.850000023841858,1.899999976158142,1.850000023841858,1.899999976158142,1.899999976158142,11900
2019-12-31,1.8600000143051147,2.069999933242798,1.8600000143051147,2.0,2.0,36900
2020-01-02,1.9980000257492065,2.059999942779541,1.909999966621399,2.049999952316284,2.049999952316284,24500
2020-01-03,1.9600000381469727,2.140000104904175,1.940000057220459,2.049999952316284,2.049999952316284,80600
2020-01-06,2.009999990463257,2.0999999046325684,1.9889999628067017,2.0999999046325684,2.0999999046325684,21800
2020-01-07,2.140000104904175,2.1700000762939453,2.061000108718872,2.1700000762939453,2.1700000762939453,46600
2020-01-08,2.119999885559082,2.1700000762939453,1.9800000190734863,2.109999895095825,2.109999895095825,27400
2020-01-09,2.069999933242798,2.4200000762939453,2.009999990463257,2.4200000762939453,2.4200000762939453,129600
2020-01-10,2.3499999046325684,2.4200000762939453,2.1500000953674316,2.4200000762939453,2.4200000762939453,20300
2020-01-13,2.430000066757202,2.5,2.2699999809265137,2.5,2.5,53500
2020-01-14,2.5,2.5,2.3299999237060547,2.430000066757202,2.430000066757202,12100
2020-01-15,2.5799999237060547,2.740000009536743,2.1500000953674316,2.3399999141693115,2.3399999141693115,244400
2020-01-16,2.3299999237060547,2.430000066757202,2.2899999618530273,2.4000000953674316,2.4000000953674316,45800
2020-01-17,2.4800000190734863,2.4800000190734863,2.2890000343322754,2.3949999809265137,2.3949999809265137,28100
2020-01-21,2.2799999713897705,2.4100000858306885,2.25,2.390000104904175,2.390000104904175,28000
2020-01-22,2.3499999046325684,2.390000104904175,2.197000026702881,2.3499999046325684,2.3499999046325684,42500
2020-01-23,2.303999900817871,2.3499999046325684,2.2820000648498535,2.3399999141693115,2.3399999141693115,8300
2020-01-24,2.430000066757202,2.430000066757202,2.2769999504089355,2.299999952316284,2.299999952316284,17300
2020-01-27,2.3299999237060547,2.440000057220459,2.200000047683716,2.390000104904175,2.390000104904175,17800
2020-01-28,2.3299999237060547,2.440000057220459,2.3299999237060547,2.3970000743865967,2.3970000743865967,7800
2020-01-29,2.440000057220459,2.440000057220459,2.359999895095825,2.430000066757202,2.430000066757202,6000
2020-01-30,2.380000114440918,2.430000066757202,2.299999952316284,2.4100000858306885,2.4100000858306885,11500
2020-01-31,2.390000104904175,2.390000104904175,2.2100000381469727,2.2899999618530273,2.2899999618530273,6300
2020-02-03,2.2799999713897705,2.3399999141693115,2.25,2.25,2.25,2900
2020-02-04,2.2799999713897705,2.450000047683716,2.2799999713897705,2.4000000953674316,2.4000000953674316,20000
2020-02-05,2.388000011444092,2.680000066757202,2.309999942779541,2.5399999618530273,2.5399999618530273,63600
2020-02-06,2.569999933242798,2.700000047683716,2.5199999809265137,2.690000057220459,2.690000057220459,36900
2020-02-07,2.700000047683716,2.700000047683716,2.5999999046325684,2.6600000858306885,2.6600000858306885,6600
2020-02-10,2.680999994277954,2.690000057220459,2.624000072479248,2.690000057220459,2.690000057220459,1100
2020-02-11,2.6500000953674316,2.740000009536743,2.4809999465942383,2.740000009536743,2.740000009536743,14200
2020-02-12,2.6700000762939453,2.75,2.6700000762939453,2.75,2.75,6000
2020-02-13,2.630000114440918,2.75,2.2990000247955322,2.6700000762939453,2.6700000762939453,33300
2020-02-14,2.609999895095825,2.740000009536743,2.4800000190734863,2.700000047683716,2.700000047683716,40700
2020-02-18,2.5999999046325684,2.680000066757202,2.5,2.680000066757202,2.680000066757202,6800
2020-02-19,2.6700000762939453,2.6700000762939453,2.5,2.609999895095825,2.609999895095825,22800
2020-02-20,2.549999952316284,2.6500000953674316,2.5,2.5399999618530273,2.5399999618530273,13400
2020-02-21,2.4839999675750732,2.630000114440918,2.450000047683716,2.549999952316284,2.549999952316284,2000
2020-02-24,2.5299999713897705,2.5999999046325684,2.369999885559082,2.5899999141693115,2.5899999141693115,4200
2020-02-25,2.450000047683716,2.5799999237060547,2.309999942779541,2.3499999046325684,2.3499999046325684,2000
2020-02-26,2.3499999046325684,2.3499999046325684,2.3499999046325684,2.3499999046325684,2.3499999046325684,0
2020-02-27,2.1500000953674316,2.2699999809265137,1.9049999713897705,2.1649999618530273,2.1649999618530273,37000
2020-02-28,2.0299999713897705,2.2100000381469727,1.7400000095367432,2.180000066757202,2.180000066757202,9800
2020-03-02,2.0999999046325684,2.0999999046325684,1.8899999856948853,2.0,2.0,22800
2020-03-03,1.9900000095367432,2.0,1.7599999904632568,1.7999999523162842,1.7999999523162842,34900
2020-03-04,1.7999999523162842,1.9299999475479126,1.6200000047683716,1.909999966621399,1.909999966621399,47100
2020-03-05,1.8669999837875366,2.130000114440918,1.7899999618530273,1.809999942779541,1.809999942779541,39400
2020-03-06,1.7300000190734863,2.0899999141693115,1.7300000190734863,2.009999990463257,2.009999990463257,28800
2020-03-09,1.8200000524520874,2.059999942779541,1.8200000524520874,1.9900000095367432,1.9900000095367432,7800
2020-03-10,1.9500000476837158,2.140000104904175,1.9299999475479126,2.140000104904175,2.140000104904175,3400
2020-03-11,2.190000057220459,2.190000057220459,1.899999976158142,2.0899999141693115,2.0899999141693115,5300
2020-03-12,2.069999933242798,2.2100000381469727,1.8589999675750732,1.9299999475479126,1.9299999475479126,10600
2020-03-13,2.058000087738037,2.069999933242798,1.8200000524520874,1.9500000476837158,1.9500000476837158,5600
2020-03-16,1.899999976158142,1.9199999570846558,1.690000057220459,1.8799999952316284,1.8799999952316284,10500
2020-03-17,1.899999976158142,1.899999976158142,1.600000023841858,1.8600000143051147,1.8600000143051147,8600
2020-03-18,1.8600000143051147,1.8600000143051147,1.559999942779541,1.8600000143051147,1.8600000143051147,12700
2020-03-19,1.690000057220459,2.2699999809265137,1.690000057220459,2.200000047683716,2.200000047683716,41600
2020-03-20,2.0999999046325684,2.1500000953674316,2.0199999809265137,2.0199999809265137,2.0199999809265137,25400
2020-03-23,1.9500000476837158,2.119999885559082,1.7000000476837158,2.0899999141693115,2.0899999141693115,4300
2020-03-24,2.009999990463257,2.3499999046325684,1.8600000143051147,1.8600000143051147,1.8600000143051147,57900
2020-03-25,2.190000057220459,2.200000047683716,2.0,2.0850000381469727,2.0850000381469727,6700
2020-03-26,2.0799999237060547,2.0899999141693115,1.7350000143051147,1.9299999475479126,1.9299999475479126,110000
2020-03-27,1.9199999570846558,1.9600000381469727,1.899999976158142,1.9199999570846558,1.9199999570846558,5100
2020-03-30,1.9199999570846558,2.009999990463257,1.649999976158142,1.8700000047683716,1.8700000047683716,17100
2020-03-31,1.909999966621399,1.909999966621399,1.649999976158142,1.8300000429153442,1.8300000429153442,12300
2020-04-01,1.7000000476837158,1.7899999618530273,1.6799999475479126,1.7599999904632568,1.7599999904632568,7500
2020-04-02,1.7899999618530273,1.7899999618530273,1.649999976158142,1.7799999713897705,1.7799999713897705,11800
2020-04-03,1.6979999542236328,1.7300000190734863,1.600000023841858,1.690000057220459,1.690000057220459,8300
2020-04-06,1.659999966621399,1.7799999713897705,1.649999976158142,1.7050000429153442,1.7050000429153442,8400
2020-04-07,1.7100000381469727,2.190000057220459,1.600000023841858,1.75,1.75,1185900
2020-04-08,1.7400000095367432,1.8140000104904175,1.4500000476837158,1.6299999952316284,1.6299999952316284,184600
2020-04-09,1.5800000429153442,1.7000000476837158,1.5499999523162842,1.6299999952316284,1.6299999952316284,63100
2020-04-13,1.5779999494552612,1.649999976158142,1.5390000343322754,1.600000023841858,1.600000023841858,32600
2020-04-14,1.5499999523162842,1.6399999856948853,1.5399999618530273,1.6200000047683716,1.6200000047683716,78700
2020-04-15,1.590000033378601,1.9900000095367432,1.5499999523162842,1.6699999570846558,1.6699999570846558,261600
2020-04-16,4.960000038146973,5.199999809265137,2.509999990463257,2.569999933242798,2.569999933242798,29248500
2020-04-17,2.3499999046325684,2.4800000190734863,2.1700000762939453,2.240000009536743,2.240000009536743,1288000
2020-04-20,2.180000066757202,2.2100000381469727,2.0199999809265137,2.180000066757202,2.180000066757202,499700
2020-04-21,2.0399999618530273,2.1500000953674316,1.9500000476837158,2.130000114440918,2.130000114440918,459500
2020-04-22,2.130000114440918,2.200000047683716,2.0199999809265137,2.109999895095825,2.109999895095825,223200
2020-04-23,2.0999999046325684,2.2200000286102295,2.059999942779541,2.2200000286102295,2.2200000286102295,230900
2020-04-24,2.1600000858306885,2.200000047683716,1.8200000524520874,2.0799999237060547,2.0799999237060547,393700
2020-04-27,1.9500000476837158,2.240000009536743,1.9500000476837158,2.190000057220459,2.190000057220459,454100
2020-04-28,2.059999942779541,2.200000047683716,2.059999942779541,2.119999885559082,2.119999885559082,141900
2020-04-29,2.059999942779541,2.190000057220459,2.0199999809265137,2.140000104904175,2.140000104904175,152500
2020-04-30,2.059999942779541,2.130000114440918,2.0199999809265137,2.109999895095825,2.109999895095825,148500
2020-05-01,2.059999942779541,2.240000009536743,2.0199999809265137,2.180000066757202,2.180000066757202,409500
2020-05-04,2.2899999618530273,2.3399999141693115,2.1600000858306885,2.259999990463257,2.259999990463257,596500
2020-05-05,2.359999895095825,2.440000057220459,2.2699999809265137,2.299999952316284,2.299999952316284,480300
2020-05-06,2.240000009536743,2.2899999618530273,2.1700000762939453,2.2100000381469727,2.2100000381469727,100800
2020-05-07,2.180000066757202,2.25,2.059000015258789,2.1600000858306885,2.1600000858306885,129900
2020-05-08,2.1600000858306885,2.25,2.0999999046325684,2.1700000762939453,2.1700000762939453,176800
2020-05-11,2.190000057220459,2.2799999713897705,2.140000104904175,2.259999990463257,2.259999990463257,105000
2020-05-12,2.25,2.25,2.0999999046325684,2.0999999046325684,2.0999999046325684,194300
2020-05-13,2.0999999046325684,2.140000104904175,1.9800000190734863,2.130000114440918,2.130000114440918,113000
2020-05-14,2.069999933242798,2.680000066757202,2.009999990463257,2.430000066757202,2.430000066757202,943100
2020-05-15,2.4100000858306885,2.5999999046325684,2.25,2.4100000858306885,2.4100000858306885,217000
2020-05-18,2.380000114440918,2.5199999809265137,2.3499999046325684,2.440000057220459,2.440000057220459,152300
2020-05-19,2.4200000762939453,2.509999990463257,2.3399999141693115,2.3499999046325684,2.3499999046325684,91400
2020-05-20,2.359999895095825,2.430000066757202,2.2799999713897705,2.3299999237060547,2.3299999237060547,104400
2020-05-21,2.319999933242798,2.390000104904175,2.2799999713897705,2.2799999713897705,2.2799999713897705,33200
2020-05-22,2.2799999713897705,2.4200000762939453,2.25,2.3299999237060547,2.3299999237060547,140000
2020-05-26,2.680000066757202,2.700000047683716,2.2699999809265137,2.4100000858306885,2.4100000858306885,670000
2020-05-27,2.450000047683716,2.450000047683716,2.319999933242798,2.440000057220459,2.440000057220459,150500
2020-05-28,2.740000009536743,2.740000009536743,2.450000047683716,2.5199999809265137,2.5199999809265137,273100
2020-05-29,2.569999933242798,2.569999933242798,2.240000009536743,2.4000000953674316,2.4000000953674316,197400
2020-06-01,2.3299999237060547,2.4000000953674316,1.909999966621399,2.2100000381469727,2.2100000381469727,301200
2020-06-02,2.190000057220459,2.240000009536743,2.0999999046325684,2.130000114440918,2.130000114440918,62900
2020-06-03,2.1500000953674316,2.240000009536743,2.1500000953674316,2.2300000190734863,2.2300000190734863,101000
2020-06-04,2.259999990463257,2.3499999046325684,2.049999952316284,2.2200000286102295,2.2200000286102295,227500
2020-06-05,2.2100000381469727,2.2899999618530273,2.2100000381469727,2.2799999713897705,2.2799999713897705,55600
2020-06-08,2.2899999618530273,2.3399999141693115,2.180000066757202,2.2699999809265137,2.2699999809265137,71300
2020-06-09,2.2300000190734863,2.2799999713897705,2.069999933242798,2.25,2.25,105600
2020-06-10,2.299999952316284,2.3399999141693115,2.2200000286102295,2.2699999809265137,2.2699999809265137,80300
2020-06-11,2.2899999618530273,2.3299999237060547,2.1500000953674316,2.2100000381469727,2.2100000381469727,87700
2020-06-12,2.2100000381469727,2.2799999713897705,2.109999895095825,2.190000057220459,2.190000057220459,47000
2020-06-15,2.1500000953674316,2.3399999141693115,2.1500000953674316,2.3399999141693115,2.3399999141693115,111800
2020-06-16,2.319999933242798,2.5799999237060547,2.319999933242798,2.5,2.5,161900
2020-06-17,2.490000009536743,2.5899999141693115,2.424999952316284,2.450000047683716,2.450000047683716,106900
2020-06-18,2.4200000762939453,2.5799999237060547,2.4200000762939453,2.509999990463257,2.509999990463257,199900
2020-06-19,2.630000114440918,3.2200000286102295,2.509000062942505,3.0399999618530273,3.0399999618530273,3070400
2020-06-22,2.950000047683716,2.9600000381469727,2.5799999237060547,2.6500000953674316,2.6500000953674316,522900
2020-06-23,3.009999990463257,3.009999990463257,2.559999942779541,2.759999990463257,2.759999990463257,1608200
2020-06-24,2.75,3.5799999237060547,2.640000104904175,3.1700000762939453,3.1700000762939453,2184300
2020-06-25,3.190000057220459,3.369999885559082,2.8299999237060547,3.259999990463257,3.259999990463257,841700
2020-06-26,3.3299999237060547,3.3299999237060547,3.0209999084472656,3.140000104904175,3.140000104904175,220600
2020-06-29,3.2300000190734863,3.3299999237060547,3.0390000343322754,3.200000047683716,3.200000047683716,221200
2020-06-30,2.9000000953674316,3.1700000762939453,2.630000114440918,3.049999952316284,3.049999952316284,614400
2020-07-01,2.990000009536743,3.0299999713897705,2.8469998836517334,2.880000114440918,2.880000114440918,188100
2020-07-02,2.9000000953674316,2.950000047683716,2.6700000762939453,2.7100000381469727,2.7100000381469727,252100
2020-07-06,2.75,2.940000057220459,2.7300000190734863,2.819999933242798,2.819999933242798,211900
2020-07-07,2.809999942779541,3.0,2.759999990463257,2.9100000858306885,2.9100000858306885,176600
2020-07-08,2.890000104904175,3.7699999809265137,2.890000104904175,3.7100000381469727,3.7100000381469727,1121800
2020-07-09,3.5199999809265137,3.740000009536743,3.359999895095825,3.5,3.5,485700
2020-07-10,3.549999952316284,3.940000057220459,3.430000066757202,3.7100000381469727,3.7100000381469727,430000
2020-07-13,3.680000066757202,3.859999895095825,3.309999942779541,3.4000000953674316,3.4000000953674316,236800
2020-07-14,3.369999885559082,4.070000171661377,3.3399999141693115,3.7799999713897705,3.7799999713897705,470700
2020-07-15,3.740000009536743,3.8399999141693115,3.4000000953674316,3.640000104904175,3.640000104904175,255400
2020-07-16,3.5999999046325684,4.199999809265137,3.5799999237060547,3.680000066757202,3.680000066757202,703000
2020-07-17,3.759999990463257,4.204999923706055,3.747999906539917,4.019999980926514,4.019999980926514,452100
2020-07-20,3.9700000286102295,4.159999847412109,3.8440001010894775,4.119999885559082,4.119999885559082,160700
2020-07-21,4.119999885559082,4.130000114440918,3.7799999713897705,3.890000104904175,3.890000104904175,171200
2020-07-22,3.869999885559082,3.9800000190734863,3.5999999046325684,3.7899999618530273,3.7899999618530273,194900
2020-07-23,3.759999990463257,3.799999952316284,3.5999999046325684,3.619999885559082,3.619999885559082,66600
2020-07-24,3.609999895095825,3.609999895095825,3.450000047683716,3.490000009536743,3.490000009536743,114200
2020-07-27,3.5999999046325684,3.7300000190734863,3.4100000858306885,3.690000057220459,3.690000057220459,235600
2020-07-28,3.6700000762939453,3.8499999046325684,3.5399999618530273,3.7799999713897705,3.7799999713897705,186900
2020-07-29,3.690000057220459,4.050000190734863,3.619999885559082,3.930000066757202,3.930000066757202,172400
2020-07-30,3.930000066757202,3.930000066757202,3.7100000381469727,3.75,3.75,155400
2020-07-31,3.759999990463257,3.8399999141693115,3.609999895095825,3.809999942779541,3.809999942779541,187000
2020-08-03,3.799999952316284,4.099999904632568,3.609999895095825,3.890000104904175,3.890000104904175,350700
2020-08-04,3.930000066757202,3.930000066757202,3.5799999237060547,3.7699999809265137,3.7699999809265137,435300
2020-08-05,3.7699999809265137,3.880000114440918,3.319999933242798,3.4800000190734863,3.4800000190734863,323500
2020-08-06,3.4600000381469727,3.5199999809265137,3.0910000801086426,3.319999933242798,3.319999933242798,445400
2020-08-07,3.299999952316284,3.5999999046325684,3.2799999713897705,3.450000047683716,3.450000047683716,223100
2020-08-10,3.440000057220459,3.440000057220459,3.2799999713897705,3.299999952316284,3.299999952316284,123800
2020-08-11,3.2899999618530273,3.2899999618530273,3.049999952316284,3.1500000953674316,3.1500000953674316,204100
2020-08-12,3.140000104904175,3.5,3.059999942779541,3.2799999713897705,3.2799999713897705,243000
2020-08-13,3.2799999713897705,3.3499999046325684,3.2100000381469727,3.309999942779541,3.309999942779541,77900
2020-08-14,3.2799999713897705,3.309999942779541,3.134999990463257,3.1700000762939453,3.1700000762939453,77400
2020-08-17,3.1700000762939453,3.6600000858306885,3.140000104904175,3.640000104904175,3.640000104904175,332100
2020-08-18,3.7899999618530273,3.9800000190734863,3.0,3.450000047683716,3.450000047683716,1225300
2020-08-19,3.5,3.5,3.119999885559082,3.200000047683716,3.200000047683716,188400
2020-08-20,3.25,3.25,2.8399999141693115,2.8499999046325684,2.8499999046325684,317400
2020-08-21,2.9000000953674316,2.9000000953674316,2.559999942779541,2.5999999046325684,2.5999999046325684,183100
2020-08-24,2.509999990463257,2.630000114440918,2.4000000953674316,2.450000047683716,2.450000047683716,282900
2020-08-25,2.450000047683716,2.5199999809265137,2.25,2.369999885559082,2.369999885559082,204100
2020-08-26,2.359999895095825,2.359999895095825,1.9800000190734863,2.0,2.0,462100
2020-08-27,2.049999952316284,2.190000057220459,2.0299999713897705,2.0799999237060547,2.0799999237060547,363300
2020-08-28,2.0799999237060547,2.299999952316284,2.069999933242798,2.2300000190734863,2.2300000190734863,143800
2020-08-31,2.2300000190734863,2.319999933242798,2.140000104904175,2.25,2.25,183900
2020-09-01,2.25,2.3299999237060547,2.109999895095825,2.1700000762939453,2.1700000762939453,204800
2020-09-02,2.1600000858306885,2.180000066757202,2.0999999046325684,2.1600000858306885,2.1600000858306885,94800
2020-09-03,2.119999885559082,2.2200000286102295,2.069999933242798,2.0899999141693115,2.0899999141693115,52200
2020-09-04,2.069999933242798,2.140000104904175,1.9500000476837158,2.0299999713897705,2.0299999713897705,141400
2020-09-08,1.9900000095367432,2.0299999713897705,1.8200000524520874,1.8799999952316284,1.8799999952316284,163300
2020-09-09,1.940000057220459,2.009999990463257,1.9199999570846558,1.9500000476837158,1.9500000476837158,38700
2020-09-10,2.049999952316284,2.069999933242798,1.8350000381469727,1.8799999952316284,1.8799999952316284,1853800
2020-09-11,1.8600000143051147,1.9199999570846558,1.7899999618530273,1.8200000524520874,1.8200000524520874,201400
2020-09-14,1.809999942779541,1.840000033378601,1.6749999523162842,1.7599999904632568,1.7599999904632568,287200
2020-09-15,1.75,1.840000033378601,1.7100000381469727,1.7999999523162842,1.7999999523162842,188500
2020-09-16,1.7899999618530273,1.9739999771118164,1.7899999618530273,1.899999976158142,1.899999976158142,109000
2020-09-17,1.899999976158142,1.940000057220459,1.7400000095367432,1.75,1.75,174600
2020-09-18,1.7999999523162842,1.899999976158142,1.7699999809265137,1.7999999523162842,1.7999999523162842,135500
2020-09-21,1.7699999809265137,1.840000033378601,1.7400000095367432,1.809999942779541,1.809999942779541,35100
2020-09-22,1.840000033378601,1.8600000143051147,1.7899999618530273,1.7999999523162842,1.7999999523162842,30200
2020-09-23,1.7999999523162842,1.8200000524520874,1.7599999904632568,1.7799999713897705,1.7799999713897705,54800
2020-09-24,1.7699999809265137,1.7899999618530273,1.7130000591278076,1.7599999904632568,1.7599999904632568,38200
2020-09-25,1.75,1.840000033378601,1.7300000190734863,1.7899999618530273,1.7899999618530273,49800
2020-09-28,1.7999999523162842,1.840000033378601,1.7400000095367432,1.7400000095367432,1.7400000095367432,27000
2020-09-29,1.75,1.8200000524520874,1.7300000190734863,1.75,1.75,93500
2020-09-30,1.7899999618530273,1.8300000429153442,1.7400000095367432,1.809999942779541,1.809999942779541,99300
2020-10-01,1.850000023841858,1.8700000047683716,1.75,1.7699999809265137,1.7699999809265137,255800
2020-10-02,1.7699999809265137,1.809999942779541,1.75,1.7999999523162842,1.7999999523162842,54200
2020-10-05,1.7000000476837158,1.7799999713897705,1.6740000247955322,1.7200000286102295,1.7200000286102295,71900
2020-10-06,1.7000000476837158,1.7000000476837158,1.6449999809265137,1.649999976158142,1.649999976158142,126400
2020-10-07,1.6799999475479126,1.7000000476837158,1.6519999504089355,1.6799999475479126,1.6799999475479126,39200
2020-10-08,1.649999976158142,1.690000057220459,1.5800000429153442,1.6299999952316284,1.6299999952316284,231500
2020-10-09,1.6200000047683716,1.75,1.6200000047683716,1.7200000286102295,1.7200000286102295,73100
2020-10-12,1.75,1.8200000524520874,1.7100000381469727,1.7799999713897705,1.7799999713897705,72200
2020-10-13,1.7599999904632568,1.875,1.7200000286102295,1.75,1.75,405200
2020-10-14,1.7999999523162842,1.7999999523162842,1.6799999475479126,1.7100000381469727,1.7100000381469727,105600
2020-10-15,1.690000057220459,1.694000005722046,1.6399999856948853,1.684999942779541,1.684999942779541,34500
2020-10-16,1.659999966621399,1.7200000286102295,1.649999976158142,1.6699999570846558,1.6699999570846558,54500
2020-10-19,1.7000000476837158,1.7699999809265137,1.659999966621399,1.7300000190734863,1.7300000190734863,81200
2020-10-20,1.7200000286102295,1.7400000095367432,1.659999966621399,1.7000000476837158,1.7000000476837158,113400
2020-10-21,1.7000000476837158,1.7999999523162842,1.690000057220459,1.7300000190734863,1.7300000190734863,88500
2020-10-22,1.7200000286102295,1.8200000524520874,1.7100000381469727,1.7300000190734863,1.7300000190734863,63800
2020-10-23,1.7000000476837158,1.75,1.690000057220459,1.7300000190734863,1.7300000190734863,44700
2020-10-26,1.75,1.75,1.6399999856948853,1.649999976158142,1.649999976158142,47700
2020-10-27,1.6799999475479126,1.75,1.649999976158142,1.6699999570846558,1.6699999570846558,60600
2020-10-28,1.659999966621399,1.6799999475479126,1.6100000143051147,1.6699999570846558,1.6699999570846558,55800
2020-10-29,1.6399999856948853,1.7400000095367432,1.6260000467300415,1.690000057220459,1.690000057220459,114600
2020-10-30,1.649999976158142,1.690000057220459,1.5299999713897705,1.6200000047683716,1.6200000047683716,95000
2020-11-02,1.6299999952316284,1.6299999952316284,1.5800000429153442,1.6299999952316284,1.6299999952316284,13800
2020-11-03,1.6299999952316284,1.7000000476837158,1.5800000429153442,1.7000000476837158,1.7000000476837158,135400
2020-11-04,1.6699999570846558,1.690000057220459,1.5700000524520874,1.6399999856948853,1.6399999856948853,56200
2020-11-05,1.6299999952316284,1.690000057220459,1.590000033378601,1.6699999570846558,1.6699999570846558,111700
2020-11-06,1.6699999570846558,1.7899999618530273,1.6100000143051147,1.75,1.75,49300
2020-11-09,1.7300000190734863,1.7599999904632568,1.6699999570846558,1.6699999570846558,1.6699999570846558,56400
2020-11-10,1.6699999570846558,1.7599999904632568,1.6699999570846558,1.7400000095367432,1.7400000095367432,103000
2020-11-11,1.7699999809265137,1.850000023841858,1.7209999561309814,1.7970000505447388,1.7970000505447388,192000
2020-11-12,1.9199999570846558,1.9199999570846558,1.7100000381469727,1.7599999904632568,1.7599999904632568,92800
2020-11-13,1.7630000114440918,1.7999999523162842,1.7300000190734863,1.75,1.75,48300
2020-11-16,1.7599999904632568,1.7699999809265137,1.5800000429153442,1.600000023841858,1.600000023841858,96400
2020-11-17,1.6799999475479126,1.6799999475479126,1.340000033378601,1.5199999809265137,1.5199999809265137,191800
2020-11-18,1.5299999713897705,1.5399999618530273,1.4299999475479126,1.4900000095367432,1.4900000095367432,88200
2020-11-19,1.5,1.5,1.4600000381469727,1.5,1.5,38700
2020-11-20,1.5099999904632568,1.5099999904632568,1.4299999475479126,1.4600000381469727,1.4600000381469727,137100
2020-11-23,1.5099999904632568,1.600000023841858,1.4299999475479126,1.5299999713897705,1.5299999713897705,766000
2020-11-24,1.5800000429153442,1.600000023841858,1.440000057220459,1.4500000476837158,1.4500000476837158,361100
2020-11-25,1.4800000190734863,1.5499999523162842,1.3799999952316284,1.409999966621399,1.409999966621399,527600
2020-11-27,1.4299999475479126,1.4299999475479126,1.3700000047683716,1.409999966621399,1.409999966621399,281700
2020-11-30,1.399999976158142,1.399999976158142,1.350000023841858,1.3899999856948853,1.3899999856948853,195600
2020-12-01,1.399999976158142,1.590000033378601,1.399999976158142,1.5399999618530273,1.5399999618530273,1193700
2020-12-02,1.5499999523162842,1.5499999523162842,1.340000033378601,1.4800000190734863,1.4800000190734863,1166500
2020-12-03,1.4600000381469727,1.5130000114440918,1.399999976158142,1.4500000476837158,1.4500000476837158,235500
2020-12-04,1.4199999570846558,1.4600000381469727,1.4199999570846558,1.4500000476837158,1.4500000476837158,124600
2020-12-07,1.5,1.5,1.399999976158142,1.4700000286102295,1.4700000286102295,180200
2020-12-08,1.4500000476837158,1.4700000286102295,1.399999976158142,1.4600000381469727,1.4600000381469727,255100
2020-12-09,1.4299999475479126,1.4700000286102295,1.399999976158142,1.4700000286102295,1.4700000286102295,254800
2020-12-10,1.440000057220459,1.4500000476837158,1.409999966621399,1.440000057220459,1.440000057220459,84800
2020-12-11,1.4199999570846558,1.440000057220459,1.409999966621399,1.440000057220459,1.440000057220459,111300
2020-12-14,1.4299999475479126,1.4299999475479126,1.3600000143051147,1.3799999952316284,1.3799999952316284,221900
2020-12-15,1.350000023841858,1.4199999570846558,1.350000023841858,1.3899999856948853,1.3899999856948853,132600
2020-12-16,1.3799999952316284,1.399999976158142,1.3799999952316284,1.3899999856948853,1.3899999856948853,70700
2020-12-17,1.3799999952316284,1.4049999713897705,1.340000033378601,1.3600000143051147,1.3600000143051147,105800
2020-12-18,1.3600000143051147,1.3899999856948853,1.350000023841858,1.350000023841858,1.350000023841858,172200
2020-12-21,1.399999976158142,1.4199999570846558,1.3600000143051147,1.409999966621399,1.409999966621399,272200
2020-12-22,1.399999976158142,1.409999966621399,1.3700000047683716,1.3700000047683716,1.3700000047683716,143400
2020-12-23,1.3700000047683716,1.399999976158142,1.350000023841858,1.3700000047683716,1.3700000047683716,180300
2020-12-24,1.3600000143051147,1.3899999856948853,1.3600000143051147,1.3799999952316284,1.3799999952316284,72000
2020-12-28,1.3799999952316284,1.5499999523162842,1.3700000047683716,1.4900000095367432,1.4900000095367432,745600
2020-12-29,1.5099999904632568,1.5379999876022339,1.4199999570846558,1.4500000476837158,1.4500000476837158,366000
2020-12-30,1.4299999475479126,1.5,1.4199999570846558,1.4700000286102295,1.4700000286102295,103400
