Date,Open,High,Low,Close,Adj Close,Volume
2020-09-25,20.0,20.049999237060547,20.0,20.0,18.970266342163086,2619300
2020-09-28,20.139999389648438,20.200000762939453,20.049999237060547,20.200000762939453,19.159971237182617,414600
2020-09-29,20.219999313354492,20.219999313354492,20.084999084472656,20.170000076293945,19.131515502929688,416200
2020-09-30,20.239999771118164,20.5,20.200000762939453,20.459999084472656,19.406585693359375,430200
2020-10-01,20.600000381469727,20.600000381469727,20.260000228881836,20.299999237060547,19.254819869995117,315600
2020-10-02,20.170000076293945,20.479999542236328,20.149999618530273,20.459999084472656,19.406585693359375,239600
2020-10-05,20.549999237060547,20.549999237060547,20.290000915527344,20.3700008392334,19.32122039794922,214900
2020-10-06,20.299999237060547,20.440000534057617,20.15999984741211,20.260000228881836,19.216880798339844,335300
2020-10-07,20.389999389648438,20.450000762939453,20.270000457763672,20.3700008392334,19.32122039794922,156800
2020-10-08,20.399999618530273,20.579999923706055,20.290000915527344,20.420000076293945,19.368642807006836,226400
2020-10-09,20.479999542236328,20.5,20.350000381469727,20.479999542236328,19.425554275512695,221900
2020-10-12,20.549999237060547,20.600000381469727,20.3799991607666,20.479999542236328,19.425554275512695,148500
2020-10-13,20.5,20.540000915527344,20.399999618530273,20.459999084472656,19.406585693359375,139000
2020-10-14,20.5,20.540000915527344,20.40999984741211,20.459999084472656,19.406585693359375,151200
2020-10-15,20.389999389648438,20.5,20.3700008392334,20.489999771118164,19.435041427612305,128200
2020-10-16,20.5,20.579999923706055,20.440000534057617,20.5,19.44452476501465,112700
2020-10-19,20.5,20.579999923706055,20.420000076293945,20.450000762939453,19.397104263305664,140600
2020-10-20,20.5,20.56999969482422,20.400999069213867,20.559999465942383,19.501432418823242,142700
2020-10-21,20.530000686645508,20.579999923706055,20.399999618530273,20.479999542236328,19.425554275512695,117100
2020-10-22,20.579999923706055,20.579999923706055,20.440000534057617,20.489999771118164,19.435041427612305,113700
2020-10-23,20.540000915527344,20.600000381469727,20.420000076293945,20.540000915527344,19.482467651367188,122700
2020-10-26,20.3799991607666,20.399999618530273,20.030000686645508,20.100000381469727,19.06511878967285,272700
2020-10-27,20.170000076293945,20.25,20.020000457763672,20.049999237060547,19.01769256591797,263000
2020-10-28,20.0,20.03499984741211,19.299999237060547,19.93000030517578,18.903873443603516,317000
2020-10-29,19.989999771118164,20.100000381469727,19.905000686645508,19.959999084472656,18.932327270507812,165800
2020-10-30,20.0,20.0,19.6560001373291,19.780000686645508,18.7615966796875,209000
2020-11-02,19.829999923706055,20.09000015258789,19.81999969482422,20.06999969482422,19.036664962768555,82400
2020-11-03,20.100000381469727,20.219999313354492,20.0,20.1200008392334,19.084091186523438,97500
2020-11-04,20.229999542236328,20.459999084472656,20.094999313354492,20.350000381469727,19.302244186401367,104700
2020-11-05,20.350000381469727,20.465999603271484,20.049999237060547,20.350000381469727,19.302244186401367,119500
2020-11-06,20.389999389648438,20.459999084472656,20.25,20.459999084472656,19.406585693359375,86300
2020-11-09,20.6200008392334,20.979999542236328,20.059999465942383,20.600000381469727,19.53937530517578,176400
2020-11-10,20.600000381469727,20.8799991607666,20.450000762939453,20.540000915527344,19.482467651367188,223000
2020-11-11,20.790000915527344,21.0,20.5,20.6299991607666,19.567829132080078,145000
2020-11-12,20.639999389648438,20.73900032043457,20.399999618530273,20.520000457763672,19.4634952545166,92800
2020-11-13,20.579999923706055,20.610000610351562,20.40999984741211,20.510000228881836,19.454010009765625,87100
2020-11-16,20.979999542236328,21.049999237060547,20.5,20.600000381469727,19.53937530517578,173500
2020-11-17,20.700000762939453,21.0,20.600000381469727,20.96299934387207,19.88368797302246,153600
2020-11-18,21.06999969482422,21.329999923706055,20.739999771118164,21.010000228881836,19.928268432617188,220200
2020-11-19,21.010000228881836,21.23200035095215,20.760000228881836,20.8799991607666,19.804960250854492,137700
2020-11-20,20.719999313354492,20.849000930786133,20.5,20.780000686645508,19.710105895996094,228700
2020-11-23,20.889999389648438,20.979999542236328,20.691999435424805,20.959999084472656,19.880842208862305,125800
2020-11-24,20.920000076293945,20.979999542236328,20.731000900268555,20.81999969482422,19.748050689697266,110900
2020-11-25,20.799999237060547,20.857999801635742,20.5,20.635000228881836,19.572574615478516,176600
2020-11-27,20.770000457763672,20.799999237060547,20.56999969482422,20.760000228881836,19.691139221191406,41400
2020-11-30,20.739999771118164,21.25,20.600000381469727,21.25,20.15591049194336,162600
2020-12-01,21.25,21.450000762939453,21.079999923706055,21.079999923706055,19.99466323852539,160900
2020-12-02,21.190000534057617,21.780000686645508,21.0,21.649999618530273,20.53531265258789,217800
2020-12-03,21.459999084472656,22.1299991607666,21.459999084472656,21.920000076293945,20.79141616821289,190300
2020-12-04,21.899999618530273,22.270000457763672,21.649999618530273,21.8700008392334,20.743986129760742,184800
2020-12-07,21.950000762939453,22.860000610351562,21.530000686645508,21.899999618530273,20.772441864013672,158100
2020-12-08,22.200000762939453,22.420000076293945,21.690000534057617,22.209999084472656,21.06648063659668,244600
2020-12-09,22.049999237060547,23.469999313354492,22.0,22.110000610351562,20.971633911132812,333800
2020-12-10,22.350000381469727,22.989999771118164,22.010000228881836,22.68000030517578,21.512287139892578,238800
2020-12-11,22.700000762939453,22.899999618530273,22.049999237060547,22.829999923706055,21.654560089111328,284300
2020-12-14,22.59000015258789,23.243999481201172,22.350000381469727,22.540000915527344,21.477331161499023,358600
2020-12-15,22.540000915527344,23.0,22.45400047302246,23.0,21.9156436920166,329400
2020-12-16,22.899999618530273,23.290000915527344,22.719999313354492,23.09000015258789,22.001399993896484,277400
2020-12-17,23.1299991607666,23.73900032043457,22.989999771118164,23.1200008392334,22.02998924255371,296700
2020-12-18,23.479999542236328,23.68400001525879,22.809999465942383,22.969999313354492,21.887056350708008,262800
2020-12-21,22.530000686645508,23.639999389648438,22.530000686645508,22.989999771118164,21.90611457824707,200200
2020-12-22,23.149999618530273,24.0,23.020000457763672,23.5,22.392070770263672,307800
2020-12-23,23.510000228881836,23.799999237060547,23.049999237060547,23.34000015258789,22.239614486694336,219900
2020-12-24,23.479999542236328,23.579999923706055,23.110000610351562,23.329999923706055,22.230087280273438,81100
2020-12-28,23.399999618530273,23.440000534057617,22.798999786376953,22.940000534057617,21.85847282409668,227000
2020-12-29,23.0,23.0,21.889999389648438,22.219999313354492,21.17241668701172,254500
2020-12-30,22.389999389648438,22.5,22.131999969482422,22.440000534057617,21.382043838500977,142600
