Date,Open,High,Low,Close,Adj Close,Volume
2017-05-18,11.0,14.029999732971191,10.550000190734863,13.399999618530273,9.558601379394531,5471200
2017-05-19,13.84000015258789,14.0,12.151000022888184,12.720000267028809,9.073538780212402,679100
2017-05-22,12.6899995803833,13.390000343322754,12.6899995803833,13.100000381469727,9.344603538513184,244200
2017-05-23,13.09000015258789,13.3100004196167,12.5,12.5,8.916605949401855,211100
2017-05-24,12.460000038146973,12.59000015258789,11.5,11.569999694824219,8.253210067749023,509300
2017-05-25,11.649999618530273,11.979999542236328,10.789999961853027,11.199999809265137,7.989279270172119,619900
2017-05-26,11.449999809265137,11.449999809265137,11.140000343322754,11.319999694824219,8.074878692626953,252800
2017-05-30,11.399999618530273,11.899999618530273,11.21500015258789,11.550000190734863,8.238944053649902,199800
2017-05-31,11.65999984741211,11.914999961853027,11.5600004196167,11.760000228881836,8.38874340057373,110200
2017-06-01,11.979999542236328,12.4399995803833,11.850000381469727,12.390000343322754,8.838140487670898,156700
2017-06-02,12.5,12.680000305175781,12.218000411987305,12.399999618530273,8.845272064208984,73000
2017-06-05,12.5,12.850000381469727,12.09000015258789,12.109999656677246,8.638407707214355,135500
2017-06-06,12.119999885559082,12.362000465393066,12.069999694824219,12.069999694824219,8.609874725341797,120300
2017-06-07,12.170000076293945,12.680000305175781,12.130000114440918,12.34000015258789,8.802474021911621,132800
2017-06-08,12.350000381469727,13.050000190734863,12.350000381469727,12.899999618530273,9.201936721801758,170400
2017-06-09,13.119999885559082,13.199999809265137,12.649999618530273,12.899999618530273,9.201936721801758,185800
2017-06-12,12.720000267028809,12.720000267028809,12.25,12.369999885559082,8.823872566223145,136400
2017-06-13,12.40999984741211,12.890000343322754,12.40999984741211,12.680000305175781,9.045005798339844,81000
2017-06-14,12.600000381469727,13.0,12.5,12.600000381469727,8.987939834594727,99900
2017-06-15,12.399999618530273,12.550000190734863,12.180000305175781,12.210000038146973,8.70974063873291,101300
2017-06-16,12.210000038146973,12.230999946594238,12.0,12.0,8.559942245483398,114800
2017-06-19,12.050000190734863,12.180000305175781,12.0,12.0,8.559942245483398,180700
2017-06-20,12.050000190734863,12.248000144958496,12.050000190734863,12.15999984741211,8.674074172973633,37000
2017-06-21,12.050000190734863,12.449999809265137,12.050000190734863,12.319999694824219,8.788206100463867,60000
2017-06-22,12.350000381469727,12.482000350952148,12.350000381469727,12.460000038146973,8.888072967529297,22900
2017-06-23,12.5,12.5600004196167,12.5,12.539999961853027,8.945138931274414,78700
2017-06-26,12.489999771118164,12.699999809265137,12.220000267028809,12.25,8.738273620605469,196400
2017-06-27,12.25,12.281999588012695,12.119999885559082,12.25,8.738273620605469,40800
2017-06-28,12.25,12.600000381469727,12.020000457763672,12.25,8.738273620605469,97500
2017-06-29,12.25,12.25,11.960000038146973,12.0,8.559942245483398,445000
2017-06-30,12.050000190734863,12.25,11.899999618530273,11.899999618530273,8.488608360290527,177000
2017-07-03,12.0,12.09000015258789,11.8100004196167,11.949999809265137,8.524274826049805,189200
2017-07-05,12.0,12.050000190734863,11.800000190734863,11.8100004196167,8.424409866333008,151800
2017-07-06,11.800000190734863,12.050000190734863,11.59000015258789,12.0,8.559942245483398,376600
2017-07-07,12.0,12.079999923706055,11.871000289916992,11.960000038146973,8.531408309936523,104400
2017-07-10,12.0,12.069999694824219,11.800000190734863,11.899999618530273,8.488608360290527,121800
2017-07-11,11.899999618530273,12.020000457763672,11.800000190734863,11.989999771118164,8.552807807922363,132300
2017-07-12,12.0,12.010000228881836,11.800000190734863,11.899999618530273,8.488608360290527,158400
2017-07-13,11.920000076293945,12.100000381469727,11.800000190734863,11.970000267028809,8.538541793823242,382400
2017-07-14,12.09000015258789,13.699999809265137,11.895000457763672,13.65999984741211,9.744067192077637,118500
2017-07-17,13.460000038146973,13.649999618530273,12.845000267028809,12.989999771118164,9.266136169433594,103500
2017-07-18,12.9399995803833,13.600000381469727,12.9399995803833,13.3100004196167,9.494401931762695,53600
2017-07-19,13.359999656677246,13.479999542236328,12.6899995803833,13.199999809265137,9.415936470031738,70600
2017-07-20,13.109999656677246,13.979999542236328,13.109999656677246,13.829999923706055,9.86533260345459,156000
2017-07-21,13.930000305175781,14.960000038146973,13.609999656677246,14.59000015258789,10.407463073730469,205300
2017-07-24,14.520000457763672,15.779999732971191,14.520000457763672,15.25,10.87825870513916,192800
2017-07-25,15.399999618530273,15.420000076293945,14.100000381469727,14.550000190734863,10.378929138183594,209100
2017-07-26,14.649999618530273,15.619999885559082,14.630000114440918,14.800000190734863,10.55726146697998,229300
2017-07-27,16.479999542236328,16.979999542236328,15.050000190734863,15.069999694824219,10.749859809875488,380900
2017-07-28,15.130000114440918,15.869999885559082,15.130000114440918,15.520000457763672,11.070858001708984,181600
2017-07-31,15.399999618530273,16.5,15.399999618530273,15.770000457763672,11.249190330505371,150700
2017-08-01,15.739999771118164,16.600000381469727,15.600000381469727,16.3799991607666,11.684319496154785,305900
2017-08-02,16.59000015258789,16.59000015258789,15.699999809265137,15.979999542236328,11.398988723754883,150100
2017-08-03,15.84000015258789,15.970000267028809,15.739999771118164,15.850000381469727,11.306256294250488,44400
2017-08-04,15.949999809265137,15.949999809265137,15.0,15.699999809265137,11.199256896972656,146500
2017-08-07,15.699999809265137,16.09000015258789,15.5,15.5600004196167,11.09939193725586,104100
2017-08-08,15.699999809265137,16.299999237060547,15.600000381469727,15.680000305175781,11.184990882873535,166700
2017-08-09,15.5,15.989999771118164,15.5,15.680000305175781,11.184990882873535,51000
2017-08-10,15.6899995803833,16.610000610351562,15.680000305175781,16.299999237060547,11.627253532409668,157600
2017-08-11,16.030000686645508,16.489999771118164,15.600000381469727,15.670000076293945,11.1778564453125,104600
2017-08-14,15.699999809265137,16.579999923706055,15.699999809265137,16.520000457763672,11.784186363220215,225800
2017-08-15,16.829999923706055,16.850000381469727,15.850000381469727,15.880000114440918,11.327656745910645,247100
2017-08-16,15.829999923706055,16.68000030517578,15.829999923706055,16.549999237060547,11.805584907531738,90500
2017-08-17,16.34000015258789,16.790000915527344,16.010000228881836,16.100000381469727,11.484588623046875,89400
2017-08-18,16.309999465942383,16.93000030517578,16.020000457763672,16.899999618530273,12.055251121520996,131000
2017-08-21,17.1200008392334,18.850000381469727,16.799999237060547,17.299999237060547,12.340581893920898,319900
2017-08-22,17.299999237060547,17.600000381469727,17.200000762939453,17.299999237060547,12.340581893920898,154500
2017-08-23,17.25,17.3700008392334,17.190000534057617,17.229999542236328,12.290648460388184,62900
2017-08-24,17.209999084472656,17.360000610351562,17.200000762939453,17.270000457763672,12.319183349609375,61200
2017-08-25,17.530000686645508,18.770000457763672,17.320999145507812,18.0,12.839912414550781,361900
2017-08-28,18.0,18.049999237060547,16.809999465942383,17.5,12.483248710632324,176100
2017-08-29,17.299999237060547,18.3700008392334,17.121999740600586,18.059999465942383,12.882710456848145,248100
2017-08-30,18.209999084472656,19.049999237060547,18.1200008392334,18.5,13.196576118469238,309300
2017-08-31,18.5,18.709999084472656,18.149999618530273,18.360000610351562,13.096712112426758,86600
2017-09-01,18.489999771118164,18.899999618530273,18.200000762939453,18.6200008392334,13.282176971435547,102400
2017-09-05,18.350000381469727,18.8700008392334,18.0,18.09000015258789,12.904111862182617,177700
2017-09-06,18.09000015258789,18.600000381469727,17.951000213623047,18.299999237060547,13.053910255432129,65400
2017-09-07,18.350000381469727,19.350000381469727,18.350000381469727,19.260000228881836,13.7387056350708,378200
2017-09-08,19.1200008392334,19.492000579833984,18.75,19.18000030517578,13.681639671325684,235000
2017-09-11,19.600000381469727,20.0,19.299999237060547,19.729999542236328,14.073969841003418,275600
2017-09-12,19.579999923706055,20.489999771118164,19.459999084472656,20.40999984741211,14.559033393859863,563200
2017-09-13,21.1200008392334,22.479999542236328,20.809999465942383,21.530000686645508,15.357961654663086,839900
2017-09-14,21.600000381469727,21.7189998626709,21.110000610351562,21.229999542236328,15.143963813781738,289400
2017-09-15,21.200000762939453,21.700000762939453,21.030000686645508,21.610000610351562,15.41502857208252,323000
2017-09-18,21.700000762939453,22.3700008392334,21.69499969482422,21.889999389648438,15.61475944519043,305600
2017-09-19,22.0,22.139999389648438,20.850000381469727,21.860000610351562,15.59335994720459,286000
2017-09-20,21.760000228881836,23.25,21.600000381469727,22.799999237060547,16.26388931274414,440600
2017-09-21,22.729999542236328,23.100000381469727,22.25,22.59000015258789,16.114089965820312,274300
2017-09-22,22.549999237060547,26.0,22.1299991607666,25.760000228881836,18.375341415405273,568900
2017-09-25,25.719999313354492,26.149999618530273,22.0,23.350000381469727,16.656219482421875,1069400
2017-09-26,23.6200008392334,25.15999984741211,22.90999984741211,24.920000076293945,17.776145935058594,581100
2017-09-27,25.0,25.770000457763672,24.299999237060547,24.979999542236328,17.81894302368164,386500
2017-09-28,24.93000030517578,25.139999389648438,22.5,23.0,16.40655517578125,773100
2017-09-29,23.270000457763672,23.959999084472656,23.100000381469727,23.229999542236328,16.570619583129883,226500
2017-10-02,23.5,23.780000686645508,22.299999237060547,23.700000762939453,16.905885696411133,288200
2017-10-03,23.93000030517578,24.969999313354492,23.43000030517578,24.100000381469727,17.19121551513672,350100
2017-10-04,24.170000076293945,24.239999771118164,23.600000381469727,24.040000915527344,17.14841651916504,161400
2017-10-05,24.079999923706055,25.68000030517578,24.079999923706055,25.600000381469727,18.26120948791504,338500
2017-10-06,25.479999542236328,27.860000610351562,25.100000381469727,27.0,19.259868621826172,683800
2017-10-09,27.0,27.329999923706055,26.58099937438965,27.0,19.259868621826172,359800
2017-10-10,27.959999084472656,27.959999084472656,26.399999618530273,26.760000228881836,19.08867073059082,374700
2017-10-11,26.25,27.364999771118164,26.200000762939453,26.799999237060547,19.117202758789062,275500
2017-10-12,26.799999237060547,27.06999969482422,25.315000534057617,25.899999618530273,18.475208282470703,369000
2017-10-13,25.850000381469727,26.729999542236328,25.469999313354492,26.610000610351562,18.981672286987305,311000
2017-10-16,26.860000610351562,28.18000030517578,26.3700008392334,28.020000457763672,19.987464904785156,480800
2017-10-17,28.049999237060547,28.158000946044922,26.0,26.850000381469727,19.152870178222656,635000
2017-10-18,26.8799991607666,26.8799991607666,24.0,24.309999465942383,17.34101676940918,978900
2017-10-19,23.899999618530273,26.8700008392334,23.239999771118164,25.860000610351562,18.446674346923828,727800
2017-10-20,26.290000915527344,26.889999389648438,26.010000228881836,26.290000915527344,18.753406524658203,341100
2017-10-23,26.100000381469727,26.6200008392334,25.5,25.549999237060547,18.225542068481445,308200
2017-10-24,25.549999237060547,26.389999389648438,25.5,26.0,18.546539306640625,464400
2017-10-25,26.049999237060547,26.06999969482422,23.86199951171875,24.209999084472656,17.269681930541992,358200
2017-10-26,23.0,23.288999557495117,22.211000442504883,22.520000457763672,16.064157485961914,839500
2017-10-27,23.06999969482422,23.177000045776367,22.670000076293945,22.8799991607666,16.320955276489258,359200
2017-10-30,22.809999465942383,23.8799991607666,22.809999465942383,23.600000381469727,16.834550857543945,943600
2017-10-31,23.799999237060547,24.670000076293945,23.6200008392334,23.860000610351562,17.020017623901367,429000
2017-11-01,24.239999771118164,24.56999969482422,23.420000076293945,23.549999237060547,16.798885345458984,324600
2017-11-02,23.610000610351562,24.170000076293945,23.299999237060547,23.729999542236328,16.927284240722656,188700
2017-11-03,23.889999389648438,24.8799991607666,23.549999237060547,24.0,17.119884490966797,428400
2017-11-06,24.0,24.90999984741211,23.969999313354492,24.5,17.476547241210938,298700
2017-11-07,24.65999984741211,24.829999923706055,23.829999923706055,23.8799991607666,17.034282684326172,218500
2017-11-08,24.0,24.290000915527344,23.860000610351562,24.239999771118164,17.29108238220215,257300
2017-11-09,23.3799991607666,23.3799991607666,20.0,21.020000457763672,14.994165420532227,1356000
2017-11-10,20.8799991607666,21.979999542236328,20.809999465942383,21.389999389648438,15.258095741271973,199900
2017-11-13,21.299999237060547,22.15999984741211,21.299999237060547,22.0,15.693225860595703,280900
2017-11-14,21.84000015258789,22.94499969482422,21.65999984741211,22.450000762939453,16.014225006103516,176200
2017-11-15,22.1299991607666,23.100000381469727,21.55500030517578,22.600000381469727,16.12122344970703,279300
2017-11-16,22.649999618530273,23.600000381469727,22.600000381469727,22.899999618530273,16.335222244262695,214600
2017-11-17,22.799999237060547,22.899999618530273,21.8799991607666,22.190000534057617,15.82875919342041,205400
2017-11-20,22.200000762939453,22.549999237060547,21.010000228881836,21.059999465942383,15.022697448730469,327300
2017-11-21,21.0,21.39900016784668,19.8799991607666,20.459999084472656,14.59469985961914,693200
2017-11-22,20.440000534057617,20.920000076293945,20.040000915527344,20.510000228881836,14.63036823272705,145100
2017-11-24,19.301000595092773,20.200000762939453,19.301000595092773,19.670000076293945,14.031171798706055,261200
2017-11-27,19.579999923706055,19.81999969482422,18.010000228881836,18.229999542236328,13.003976821899414,611400
2017-11-28,18.5,18.8799991607666,18.020000457763672,18.479999542236328,13.182311058044434,306000
2017-11-29,18.649999618530273,19.030000686645508,18.40999984741211,18.719999313354492,13.353508949279785,217700
2017-11-30,19.0,19.0,17.90999984741211,18.219999313354492,12.996844291687012,264800
2017-12-01,17.670000076293945,17.969999313354492,17.079999923706055,17.520000457763672,12.497514724731445,276900
2017-12-04,17.530000686645508,17.940000534057617,16.709999084472656,17.25,12.304916381835938,245300
2017-12-05,16.989999771118164,17.610000610351562,16.969999313354492,17.360000610351562,12.383381843566895,85000
2017-12-06,17.239999771118164,17.700000762939453,17.0,17.59000015258789,12.54744815826416,111700
2017-12-07,17.59000015258789,17.799999237060547,17.399999618530273,17.520000457763672,12.497514724731445,65400
2017-12-08,17.65999984741211,18.56999969482422,17.520000457763672,18.360000610351562,13.096712112426758,136600
2017-12-11,18.450000762939453,18.90999984741211,18.34000015258789,18.389999389648438,13.118110656738281,194000
2017-12-12,18.420000076293945,18.770000457763672,18.31999969482422,18.59000015258789,13.260775566101074,133600
2017-12-13,18.610000610351562,19.170000076293945,18.579999923706055,18.8799991607666,13.467639923095703,165600
2017-12-14,18.969999313354492,19.299999237060547,18.469999313354492,18.549999237060547,13.232242584228516,124000
2017-12-15,18.5,18.652000427246094,17.5,17.809999465942383,12.70438003540039,373600
2017-12-18,17.979999542236328,18.200000762939453,17.709999084472656,18.1200008392334,12.925512313842773,81900
2017-12-19,18.030000686645508,18.270000457763672,17.68000030517578,18.010000228881836,12.8470458984375,62600
2017-12-20,18.030000686645508,18.309999465942383,18.0,18.0,12.839912414550781,56900
2017-12-21,18.280000686645508,18.815000534057617,18.100000381469727,18.520000457763672,13.210844039916992,95800
2017-12-22,18.6200008392334,18.6200008392334,18.15999984741211,18.489999771118164,13.189443588256836,70200
2017-12-26,18.579999923706055,18.579999923706055,17.690000534057617,17.93000030517578,12.789979934692383,97300
2017-12-27,17.93000030517578,18.399999618530273,17.8799991607666,17.969999313354492,12.818511962890625,72400
2017-12-28,18.1200008392334,18.40999984741211,18.06999969482422,18.360000610351562,13.096712112426758,78200
2017-12-29,18.450000762939453,18.889999389648438,18.15999984741211,18.670000076293945,13.317842483520508,75500
2018-01-02,19.0,20.399999618530273,18.850000381469727,20.06999969482422,14.316502571105957,419800
2018-01-03,20.299999237060547,20.479999542236328,19.0,20.020000457763672,14.280837059020996,338100
2018-01-04,20.0,20.389999389648438,19.59000015258789,20.239999771118164,14.43776798248291,348500
2018-01-05,20.399999618530273,21.489999771118164,20.399999618530273,20.8799991607666,14.894298553466797,241000
2018-01-08,20.0,20.780000686645508,19.790000915527344,20.020000457763672,14.280837059020996,259600
2018-01-09,19.520000457763672,20.43000030517578,19.520000457763672,20.389999389648438,14.544766426086426,112500
2018-01-10,20.360000610351562,21.360000610351562,20.110000610351562,21.350000381469727,15.229562759399414,207500
2018-01-11,21.520000457763672,22.950000762939453,21.43000030517578,22.760000228881836,16.2353572845459,230600
2018-01-12,22.93000030517578,23.90999984741211,22.389999389648438,23.90999984741211,17.055683135986328,334600
2018-01-16,23.799999237060547,23.98900032043457,21.079999923706055,21.6299991607666,15.42929458618164,311700
2018-01-17,22.09000015258789,22.274999618530273,21.25,21.3799991607666,15.250962257385254,155600
2018-01-18,21.280000686645508,21.3799991607666,19.90999984741211,20.059999465942383,14.309368133544922,203500
2018-01-19,20.0,20.600000381469727,19.860000610351562,20.170000076293945,14.387835502624512,298900
2018-01-22,20.059999465942383,20.81999969482422,19.610000610351562,20.81999969482422,14.851497650146484,154700
2018-01-23,20.940000534057617,21.440000534057617,20.450000762939453,20.81999969482422,14.851497650146484,287500
2018-01-24,21.940000534057617,21.940000534057617,19.860000610351562,20.049999237060547,14.30223560333252,375300
2018-01-25,20.18000030517578,21.280000686645508,20.020000457763672,21.139999389648438,15.079763412475586,185700
2018-01-26,21.43000030517578,21.68000030517578,20.790000915527344,21.450000762939453,15.300895690917969,179900
2018-01-29,21.170000076293945,21.43000030517578,20.670000076293945,21.110000610351562,15.058364868164062,151200
2018-01-30,20.75,20.920000076293945,19.920000076293945,19.940000534057617,14.223769187927246,177500
2018-01-31,20.149999618530273,20.450000762939453,19.950000762939453,20.059999465942383,14.309368133544922,108300
2018-02-01,20.059999465942383,21.170000076293945,19.969999313354492,20.989999771118164,14.972764015197754,230000
2018-02-02,20.8700008392334,21.280000686645508,19.969999313354492,20.18000030517578,14.39496898651123,240900
2018-02-05,20.170000076293945,20.170000076293945,19.049999237060547,19.049999237060547,13.588906288146973,314500
2018-02-06,18.579999923706055,19.43000030517578,18.18000030517578,18.75,13.374908447265625,191800
2018-02-07,18.40999984741211,18.959999084472656,18.3700008392334,18.520000457763672,13.210844039916992,143300
2018-02-08,18.540000915527344,19.190000534057617,18.270000457763672,18.489999771118164,13.189443588256836,183800
2018-02-09,18.510000228881836,18.674999237060547,17.25,18.149999618530273,12.946910858154297,170500
2018-02-12,18.270000457763672,19.1299991607666,18.270000457763672,19.020000457763672,13.56750774383545,47200
2018-02-13,18.850000381469727,19.3700008392334,18.823999404907227,19.18000030517578,13.681639671325684,59900
2018-02-14,19.149999618530273,19.790000915527344,18.81999969482422,19.280000686645508,13.752973556518555,91000
2018-02-15,19.540000915527344,20.059999465942383,19.350000381469727,20.059999465942383,14.309368133544922,86700
2018-02-16,20.110000610351562,20.190000534057617,19.549999237060547,19.56999969482422,13.959837913513184,46900
2018-02-20,19.350000381469727,20.389999389648438,19.350000381469727,19.809999465942383,14.131037712097168,97500
2018-02-21,20.0,20.440000534057617,19.81999969482422,20.040000915527344,14.295104026794434,123700
2018-02-22,20.139999389648438,20.139999389648438,19.280000686645508,19.809999465942383,14.131037712097168,103400
2018-02-23,19.850000381469727,20.3700008392334,19.610000610351562,20.149999618530273,14.373568534851074,68400
2018-02-26,19.239999771118164,19.670000076293945,18.309999465942383,18.739999771118164,13.36777400970459,555700
2018-02-27,19.020000457763672,19.760000228881836,18.860000610351562,19.110000610351562,13.631707191467285,391800
2018-02-28,18.350000381469727,18.700000762939453,17.760000228881836,18.100000381469727,12.911246299743652,3945800
2018-03-01,18.059999465942383,18.469999313354492,17.899999618530273,18.110000610351562,12.918379783630371,725800
2018-03-02,17.90999984741211,18.59000015258789,17.899999618530273,18.5,13.196576118469238,486900
2018-03-05,18.299999237060547,18.329999923706055,17.709999084472656,18.0,12.839912414550781,451500
2018-03-06,17.860000610351562,18.18000030517578,17.709999084472656,17.770000457763672,12.675847053527832,231900
2018-03-07,17.700000762939453,17.700000762939453,16.770000457763672,17.0,12.126585006713867,846700
2018-03-08,17.350000381469727,17.68000030517578,16.979999542236328,17.350000381469727,12.376248359680176,563300
2018-03-09,17.459999084472656,17.68000030517578,17.239999771118164,17.68000030517578,12.61164665222168,284100
2018-03-12,17.700000762939453,17.959999084472656,17.410999298095703,17.649999618530273,12.590246200561523,61200
2018-03-13,17.81999969482422,18.299999237060547,17.600000381469727,17.68000030517578,12.61164665222168,189700
2018-03-14,17.770000457763672,18.170000076293945,17.68000030517578,18.110000610351562,12.918379783630371,165300
2018-03-15,18.15999984741211,18.639999389648438,18.15999984741211,18.420000076293945,13.139510154724121,259200
2018-03-16,18.34000015258789,18.34000015258789,17.600000381469727,17.969999313354492,12.818511962890625,173200
2018-03-19,17.770000457763672,18.149999618530273,17.459999084472656,17.860000610351562,12.740047454833984,218200
2018-03-20,17.899999618530273,18.040000915527344,17.799999237060547,17.940000534057617,12.797113418579102,72800
2018-03-21,17.84000015258789,18.084999084472656,16.600000381469727,17.209999084472656,12.276382446289062,454200
2018-03-22,16.950000762939453,16.950000762939453,15.420000076293945,16.040000915527344,11.441788673400879,787400
2018-03-23,16.110000610351562,16.110000610351562,15.329999923706055,15.380000114440918,10.970992088317871,389400
2018-03-26,15.760000228881836,16.479000091552734,15.350000381469727,15.630000114440918,11.149324417114258,248600
2018-03-27,15.640000343322754,16.270000457763672,15.460000038146973,15.640000343322754,11.156457901000977,190900
2018-03-28,15.729999542236328,16.270000457763672,15.350000381469727,15.949999809265137,11.377588272094727,260300
2018-03-29,15.960000038146973,16.200000762939453,15.350000381469727,15.4399995803833,11.013792037963867,179100
2018-04-02,15.470000267028809,15.8100004196167,15.300000190734863,15.550000190734863,11.092257499694824,146700
2018-04-03,15.5600004196167,15.5600004196167,15.09000015258789,15.380000114440918,10.970992088317871,90900
2018-04-04,15.359999656677246,15.8100004196167,15.0,15.380000114440918,10.970992088317871,235000
2018-04-05,15.489999771118164,15.604999542236328,15.0,15.09000015258789,10.764126777648926,160700
2018-04-06,15.0,15.260000228881836,14.899999618530273,15.170000076293945,10.821192741394043,78600
2018-04-09,15.34000015258789,15.899999618530273,15.069999694824219,15.569999694824219,11.106524467468262,132100
2018-04-10,15.729999542236328,15.90999984741211,15.5,15.680000305175781,11.184990882873535,72500
2018-04-11,15.699999809265137,16.1200008392334,15.699999809265137,15.779999732971191,11.256322860717773,85400
2018-04-12,15.800000190734863,16.270000457763672,15.6899995803833,16.15999984741211,11.527388572692871,88600
2018-04-13,16.31999969482422,16.31999969482422,15.949999809265137,16.049999237060547,11.448921203613281,103100
2018-04-16,16.010000228881836,16.299999237060547,15.989999771118164,16.0,11.41325569152832,54400
2018-04-17,16.0,16.1200008392334,15.270000457763672,15.420000076293945,10.99952507019043,103500
2018-04-18,15.420000076293945,15.949999809265137,15.420000076293945,15.680000305175781,11.184990882873535,48900
2018-04-19,15.800000190734863,16.139999389648438,15.710000038146973,15.899999618530273,11.341922760009766,94000
2018-04-20,15.9399995803833,16.360000610351562,15.170000076293945,15.25,10.87825870513916,186300
2018-04-23,15.210000038146973,15.470000267028809,15.170000076293945,15.289999961853027,10.906791687011719,71800
2018-04-24,15.5,15.579999923706055,14.380000114440918,14.5600004196167,10.386062622070312,226800
2018-04-25,14.529999732971191,14.600000381469727,12.239999771118164,12.770000457763672,9.10920524597168,1409000
2018-04-26,12.859999656677246,13.600000381469727,12.859999656677246,13.34000015258789,9.515801429748535,1371400
2018-04-27,13.489999771118164,14.569999694824219,13.489999771118164,13.960000038146973,9.958065032958984,348700
2018-04-30,14.149999618530273,14.680000305175781,13.960000038146973,13.989999771118164,9.97946548461914,65500
2018-05-01,13.920000076293945,14.550000190734863,13.720000267028809,14.4399995803833,10.30046272277832,85700
2018-05-02,14.380000114440918,14.430000305175781,14.119999885559082,14.430000305175781,10.293330192565918,87400
2018-05-03,14.4399995803833,14.880000114440918,14.229999542236328,14.710000038146973,10.493062019348145,109200
2018-05-04,14.550000190734863,15.100000381469727,14.550000190734863,14.899999618530273,10.628593444824219,101900
2018-05-07,15.0,15.220000267028809,14.600000381469727,14.720000267028809,10.500195503234863,121700
2018-05-08,14.770000457763672,15.289999961853027,14.680000305175781,14.989999771118164,10.692792892456055,101200
2018-05-09,14.960000038146973,15.149999618530273,14.760000228881836,14.979999542236328,10.685659408569336,71400
2018-05-10,15.109999656677246,15.760000228881836,14.819999694824219,15.609999656677246,11.13505744934082,225300
2018-05-11,15.430000305175781,15.479999542236328,15.149999618530273,15.300000190734863,10.913926124572754,115500
2018-05-14,15.869999885559082,15.869999885559082,15.489999771118164,15.800000190734863,11.270589828491211,82200
2018-05-15,15.800000190734863,16.0,15.350000381469727,15.550000190734863,11.092257499694824,123900
2018-05-16,15.579999923706055,15.960000038146973,15.579999923706055,15.75,11.234923362731934,61200
2018-05-17,15.619999885559082,19.18000030517578,15.550000190734863,18.540000915527344,13.22511100769043,1009300
2018-05-18,18.540000915527344,20.950000762939453,17.739999771118164,20.229999542236328,14.430634498596191,2100000
2018-05-21,20.0,20.0,18.049999237060547,18.450000762939453,13.160911560058594,765300
2018-05-22,18.0,19.18000030517578,18.0,18.780000686645508,13.396309852600098,173000
2018-05-23,18.8799991607666,19.100000381469727,18.18000030517578,18.6200008392334,13.282176971435547,85600
2018-05-24,18.780000686645508,19.489999771118164,18.549999237060547,18.899999618530273,13.481907844543457,177200
2018-05-25,18.850000381469727,19.350000381469727,18.34000015258789,18.65999984741211,13.310709953308105,279000
2018-05-29,18.510000228881836,18.8700008392334,17.510000228881836,17.739999771118164,12.654446601867676,439600
2018-05-30,17.860000610351562,17.860000610351562,17.110000610351562,17.6200008392334,12.56884765625,165800
2018-05-31,17.649999618530273,18.09000015258789,17.520000457763672,17.8799991607666,12.754311561584473,82800
2018-06-01,17.940000534057617,18.829999923706055,17.940000534057617,18.469999313354492,13.175176620483398,116400
2018-06-04,18.6200008392334,18.724000930786133,17.6299991607666,17.8700008392334,12.747179985046387,88300
2018-06-05,17.68000030517578,18.350000381469727,17.68000030517578,18.0,12.839912414550781,94500
2018-06-06,18.059999465942383,18.3700008392334,18.0,18.100000381469727,12.911246299743652,99600
2018-06-07,18.200000762939453,18.290000915527344,17.809999465942383,17.90999984741211,12.775712966918945,96800
2018-06-08,17.920000076293945,19.25,17.6299991607666,18.610000610351562,13.275043487548828,897000
2018-06-11,18.780000686645508,19.200000762939453,18.225000381469727,18.440000534057617,13.153778076171875,180400
2018-06-12,18.770000457763672,19.5,18.309999465942383,18.530000686645508,13.217976570129395,775200
2018-06-13,18.420000076293945,18.600000381469727,17.399999618530273,18.020000457763672,12.854179382324219,681200
2018-06-14,17.93000030517578,18.15999984741211,17.229999542236328,17.760000228881836,12.66871452331543,234100
2018-06-15,17.75,18.170000076293945,17.299999237060547,17.93000030517578,12.789979934692383,334300
2018-06-18,17.8799991607666,18.110000610351562,17.479999542236328,17.809999465942383,12.70438003540039,126500
2018-06-19,17.520000457763672,17.6200008392334,17.0,17.420000076293945,12.426182746887207,105500
2018-06-20,17.5,17.834999084472656,17.219999313354492,17.649999618530273,12.590246200561523,181600
2018-06-21,17.530000686645508,17.899999618530273,17.100000381469727,17.360000610351562,12.383381843566895,161700
2018-06-22,17.329999923706055,17.329999923706055,16.739999771118164,16.739999771118164,11.941119194030762,122000
2018-06-25,16.600000381469727,16.600000381469727,15.829000473022461,16.1200008392334,11.498855590820312,148400
2018-06-26,16.239999771118164,16.76799964904785,16.100000381469727,16.40999984741211,11.705720901489258,37600
2018-06-27,16.399999618530273,16.399999618530273,15.8100004196167,15.8100004196167,11.27772331237793,107700
2018-06-28,15.800000190734863,16.079999923706055,15.479999542236328,15.9399995803833,11.370455741882324,174500
2018-06-29,16.6299991607666,17.049999237060547,15.890000343322754,16.6299991607666,11.862651824951172,360000
2018-07-02,16.6200008392334,16.799999237060547,16.309999465942383,16.760000228881836,11.955385208129883,114600
2018-07-03,16.719999313354492,16.719999313354492,16.0,16.309999465942383,11.634387016296387,140900
2018-07-05,16.579999923706055,16.579999923706055,15.720000267028809,16.0,11.41325569152832,287900
2018-07-06,16.0,16.30500030517578,15.894000053405762,16.280000686645508,11.612988471984863,112800
2018-07-09,16.40999984741211,16.40999984741211,16.010000228881836,16.329999923706055,11.648653984069824,89100
2018-07-10,16.290000915527344,16.290000915527344,15.600000381469727,15.789999961853027,11.263456344604492,209300
2018-07-11,15.5,16.01099967956543,15.5,15.899999618530273,11.341922760009766,90100
2018-07-12,16.100000381469727,16.260000228881836,15.90999984741211,16.100000381469727,11.484588623046875,126900
2018-07-13,16.219999313354492,16.899999618530273,15.930000305175781,16.81999969482422,11.998185157775879,197000
2018-07-16,16.75,16.75,16.139999389648438,16.209999084472656,11.563053131103516,32000
2018-07-17,16.049999237060547,16.40999984741211,16.049999237060547,16.329999923706055,11.648653984069824,42800
2018-07-18,16.469999313354492,17.239999771118164,16.0,16.520000457763672,11.784186363220215,380800
2018-07-19,16.5,16.5,16.059999465942383,16.329999923706055,11.648653984069824,75300
2018-07-20,16.350000381469727,16.420000076293945,15.704999923706055,15.8100004196167,11.27772331237793,82800
2018-07-23,15.670000076293945,16.09000015258789,15.65999984741211,16.040000915527344,11.441788673400879,155300
2018-07-24,16.200000762939453,16.450000762939453,15.899999618530273,15.979999542236328,11.398988723754883,172200
2018-07-25,16.18000030517578,16.43000030517578,15.899999618530273,16.200000762939453,11.55592155456543,398100
2018-07-26,15.779999732971191,16.170000076293945,15.779999732971191,16.0,11.41325569152832,206600
2018-07-27,16.010000228881836,16.010000228881836,15.180000305175781,15.279999732971191,10.899659156799316,155300
2018-07-30,15.34000015258789,15.390000343322754,14.850000381469727,15.300000190734863,10.913926124572754,120700
2018-07-31,15.199999809265137,15.470000267028809,14.75,14.850000381469727,10.592928886413574,120200
2018-08-01,14.829999923706055,15.079999923706055,14.579999923706055,14.680000305175781,10.471662521362305,197200
2018-08-02,14.510000228881836,15.4399995803833,14.420000076293945,15.319999694824219,10.928192138671875,194300
2018-08-03,14.510000228881836,15.710000038146973,14.510000228881836,15.270000457763672,10.892526626586914,139700
2018-08-06,15.210000038146973,15.380000114440918,14.430000305175781,14.569999694824219,10.393195152282715,191500
2018-08-07,14.8100004196167,14.8100004196167,14.1899995803833,14.25,10.164931297302246,176800
2018-08-08,14.15999984741211,14.489999771118164,13.960000038146973,14.119999885559082,10.072197914123535,314900
2018-08-09,14.199999809265137,15.1899995803833,14.199999809265137,14.65999984741211,10.457395553588867,186600
2018-08-10,14.680000305175781,14.880000114440918,14.539999961853027,14.569999694824219,10.393195152282715,50200
2018-08-13,11.899999618530273,12.390000343322754,10.800000190734863,11.300000190734863,8.060611724853516,1610300
2018-08-14,11.75,12.079999923706055,11.40999984741211,12.010000228881836,8.567075729370117,622800
2018-08-15,11.899999618530273,12.479999542236328,11.270000457763672,12.359999656677246,8.816739082336426,878200
2018-08-16,12.4399995803833,14.029999732971191,12.4399995803833,12.869999885559082,9.180537223815918,536200
2018-08-17,12.869999885559082,12.970000267028809,11.732000350952148,12.029999732971191,8.581340789794922,685900
2018-08-20,12.109999656677246,13.34000015258789,12.0,13.279999732971191,9.473002433776855,249000
2018-08-21,13.40999984741211,13.706000328063965,12.991000175476074,13.050000190734863,9.30893611907959,139000
2018-08-22,12.979999542236328,13.399999618530273,12.979999542236328,13.1899995803833,9.40880298614502,77800
2018-08-23,13.029999732971191,13.15999984741211,12.75,12.75,9.094937324523926,221200
2018-08-24,12.829999923706055,12.829999923706055,12.329999923706055,12.380000114440918,8.83100700378418,216100
2018-08-27,12.640000343322754,13.0,12.5,12.699999809265137,9.059271812438965,196400
2018-08-28,12.770000457763672,12.880000114440918,12.359999656677246,12.399999618530273,8.845272064208984,193200
2018-08-29,12.3100004196167,13.09000015258789,12.3100004196167,12.449999809265137,8.880939483642578,321300
2018-08-30,12.260000228881836,12.270000457763672,11.699999809265137,11.880000114440918,8.474342346191406,202800
2018-08-31,11.899999618530273,12.350000381469727,11.899999618530273,12.039999961853027,8.588475227355957,129100
2018-09-04,12.029999732971191,12.199999809265137,11.829999923706055,11.890000343322754,8.481475830078125,400800
2018-09-05,11.880000114440918,11.989999771118164,11.5600004196167,11.579999923706055,8.260344505310059,227000
2018-09-06,11.6899995803833,11.8100004196167,11.25,11.3100004196167,8.067745208740234,136600
2018-09-07,11.3100004196167,11.6899995803833,11.3100004196167,11.399999618530273,8.13194465637207,134100
2018-09-10,11.329999923706055,11.510000228881836,11.149999618530273,11.220000267028809,8.003545761108398,285500
2018-09-11,11.149999618530273,11.420000076293945,11.039999961853027,11.300000190734863,8.060611724853516,183900
2018-09-12,11.329999923706055,11.699999809265137,11.0,11.579999923706055,8.260344505310059,218700
2018-09-13,11.619999885559082,12.3100004196167,11.619999885559082,11.859999656677246,8.460075378417969,212900
2018-09-14,11.930000305175781,12.130000114440918,11.739999771118164,11.850000381469727,8.452942848205566,136200
2018-09-17,11.850000381469727,11.850000381469727,11.550000190734863,11.600000381469727,8.27461051940918,93200
2018-09-18,11.569999694824219,11.75,11.569999694824219,11.640000343322754,8.303144454956055,68400
2018-09-19,11.779999732971191,12.029999732971191,11.630000114440918,11.789999961853027,8.41014289855957,268300
2018-09-20,11.880000114440918,12.40999984741211,11.880000114440918,12.229999542236328,8.724006652832031,155600
2018-09-21,12.59000015258789,13.449999809265137,12.550000190734863,13.010000228881836,9.280403137207031,393200
2018-09-24,12.850000381469727,12.859999656677246,11.899999618530273,11.989999771118164,8.552807807922363,310400
2018-09-25,12.109999656677246,12.3100004196167,11.829999923706055,12.119999885559082,8.645541191101074,78400
2018-09-26,12.199999809265137,12.732999801635742,11.949999809265137,12.170000076293945,8.681207656860352,178100
2018-09-27,12.210000038146973,12.859999656677246,12.109999656677246,12.1899995803833,8.695473670959473,115600
2018-09-28,12.15999984741211,12.5,12.15999984741211,12.390000343322754,8.838140487670898,82400
2018-10-01,12.520000457763672,12.59000015258789,12.289999961853027,12.399999618530273,8.845272064208984,112200
2018-10-02,11.460000038146973,11.531000137329102,11.149999618530273,11.170000076293945,7.967879295349121,389800
2018-10-03,11.180000305175781,11.279999732971191,11.0,11.079999923706055,7.903679847717285,365200
2018-10-04,11.0,11.0,10.119999885559082,10.359999656677246,7.390083312988281,345300
2018-10-05,10.359999656677246,10.430000305175781,9.970000267028809,10.149999618530273,7.240283012390137,327200
2018-10-08,10.149999618530273,10.300000190734863,9.640000343322754,9.65999984741211,6.890753269195557,242900
2018-10-09,9.640000343322754,10.029999732971191,9.600000381469727,9.90999984741211,7.069085121154785,207200
2018-10-10,9.960000038146973,9.960000038146973,9.5649995803833,9.649999618530273,6.88361930847168,172100
2018-10-11,9.59000015258789,9.930000305175781,9.130000114440918,9.699999809265137,6.919286251068115,150700
2018-10-12,9.720000267028809,10.850000381469727,9.720000267028809,10.680000305175781,7.618347644805908,402000
2018-10-15,10.649999618530273,10.710000038146973,10.420000076293945,10.460000038146973,7.461415767669678,95200
2018-10-16,10.40999984741211,11.279999732971191,10.399999618530273,11.0600004196167,7.889413356781006,437700
2018-10-17,11.069999694824219,11.446000099182129,10.892999649047852,11.15999984741211,7.960745811462402,147400
2018-10-18,11.15999984741211,11.1899995803833,10.350000381469727,10.390000343322754,7.411483287811279,132800
2018-10-19,10.34000015258789,10.710000038146973,10.079999923706055,10.170000076293945,7.254550933837891,165700
2018-10-22,11.25,11.25,10.489999771118164,10.539999961853027,7.518482208251953,147000
2018-10-23,9.880000114440918,10.460000038146973,9.880000114440918,10.210000038146973,7.283083438873291,103600
2018-10-24,10.029999732971191,11.164999961853027,10.020000457763672,10.5,7.489948749542236,190200
2018-10-25,10.359999656677246,11.649999618530273,10.359999656677246,11.229999542236328,8.0106782913208,285500
2018-10-26,11.039999961853027,11.958000183105469,10.850000381469727,11.460000038146973,8.174744606018066,209800
2018-10-29,11.5600004196167,11.899999618530273,11.140000343322754,11.239999771118164,8.01781177520752,146200
2018-10-30,11.289999961853027,11.880000114440918,11.279999732971191,11.869999885559082,8.467208862304688,143500
2018-10-31,11.970000267028809,12.970000267028809,11.970000267028809,12.369999885559082,8.823872566223145,174400
2018-11-01,12.510000228881836,13.5,12.40999984741211,13.0,9.273269653320312,237200
2018-11-02,13.260000228881836,13.350000381469727,12.399999618530273,12.460000038146973,8.888072967529297,85800
2018-11-05,12.359999656677246,12.489999771118164,11.920000076293945,12.029999732971191,8.581340789794922,53500
2018-11-06,12.100000381469727,12.390000343322754,11.9399995803833,12.170000076293945,8.681207656860352,36500
2018-11-07,12.359999656677246,12.520000457763672,11.854999542236328,12.40999984741211,8.85240650177002,70500
2018-11-08,13.029999732971191,13.175000190734863,12.420000076293945,12.899999618530273,9.201936721801758,299400
2018-11-09,12.760000228881836,12.800000190734863,12.270000457763672,12.600000381469727,8.987939834594727,58300
2018-11-12,12.550000190734863,13.039999961853027,12.550000190734863,12.930000305175781,9.223337173461914,60800
2018-11-13,12.850000381469727,13.180000305175781,12.850000381469727,12.949999809265137,9.237604141235352,120000
2018-11-14,13.15999984741211,13.15999984741211,12.5600004196167,12.6899995803833,9.052138328552246,113400
2018-11-15,10.989999771118164,11.0600004196167,8.824999809265137,10.569999694824219,7.539881706237793,1552500
2018-11-16,10.5,10.859999656677246,10.25,10.819999694824219,7.71821403503418,328200
2018-11-19,10.5,10.699999809265137,10.270000457763672,10.319999694824219,7.361549377441406,116800
2018-11-20,10.09000015258789,10.479999542236328,9.859999656677246,10.199999809265137,7.2759504318237305,144500
2018-11-21,10.289999961853027,10.5,10.199999809265137,10.289999961853027,7.340149879455566,72900
2018-11-23,10.199999809265137,10.34000015258789,10.0,10.079999923706055,7.190351486206055,50700
2018-11-26,10.199999809265137,10.5,10.039999961853027,10.390000343322754,7.411483287811279,80400
2018-11-27,10.229999542236328,11.210000038146973,10.229999542236328,10.859999656677246,7.7467474937438965,137900
2018-11-28,10.9399995803833,11.675000190734863,10.760000228881836,11.109999656677246,7.925078868865967,112200
2018-11-29,11.0600004196167,11.0600004196167,10.680000305175781,10.789999961853027,7.69681453704834,66700
2018-11-30,10.8100004196167,11.199999809265137,10.8100004196167,11.109999656677246,7.925078868865967,50500
2018-12-03,11.300000190734863,11.649999618530273,11.15999984741211,11.260000228881836,8.032078742980957,49400
2018-12-04,11.1899995803833,11.454999923706055,10.829999923706055,10.850000381469727,7.739614009857178,81100
2018-12-06,10.600000381469727,10.960000038146973,10.479999542236328,10.949999809265137,7.810946941375732,71900
2018-12-07,10.949999809265137,11.34000015258789,10.664999961853027,10.800000190734863,7.703948020935059,138000
2018-12-10,10.710000038146973,11.0,9.869999885559082,10.819999694824219,7.71821403503418,230000
2018-12-11,10.949999809265137,11.09000015258789,10.739999771118164,10.800000190734863,7.703948020935059,65800
2018-12-12,10.949999809265137,11.09000015258789,10.9399995803833,10.979999542236328,7.832346439361572,71300
2018-12-13,11.09000015258789,11.170000076293945,10.520000457763672,10.75,7.668280601501465,55600
2018-12-14,10.600000381469727,10.854999542236328,10.239999771118164,10.369999885559082,7.397215843200684,59700
2018-12-17,10.319999694824219,10.890000343322754,10.319999694824219,10.520000457763672,7.50421667098999,407900
2018-12-18,10.5,10.59000015258789,10.140000343322754,10.199999809265137,7.2759504318237305,104300
2018-12-19,10.289999961853027,10.40999984741211,9.760000228881836,9.84000015258789,7.0191521644592285,126300
2018-12-20,9.9399995803833,10.039999961853027,9.619999885559082,9.680000305175781,6.905019760131836,76600
2018-12-21,9.720000267028809,10.09000015258789,9.199999809265137,9.239999771118164,6.591155529022217,805100
2018-12-24,9.25,9.4399995803833,9.055999755859375,9.239999771118164,6.591155529022217,353300
2018-12-26,9.25,9.680000305175781,9.092000007629395,9.25,6.598288059234619,853900
2018-12-27,9.0600004196167,9.329999923706055,9.010000228881836,9.25,6.598288059234619,625300
2018-12-28,9.25,9.609999656677246,9.15999984741211,9.220000267028809,6.5768890380859375,826100
2018-12-31,9.319999694824219,9.8100004196167,9.0600004196167,9.210000038146973,6.5697550773620605,630600
2019-01-02,9.069999694824219,12.350000381469727,9.0649995803833,11.8100004196167,8.424409866333008,719300
2019-01-03,11.449999809265137,11.5,10.300000190734863,10.329999923706055,7.368682861328125,320400
2019-01-04,10.489999771118164,11.359999656677246,10.489999771118164,11.039999961853027,7.875146865844727,211600
2019-01-07,10.970000267028809,11.300000190734863,10.899999618530273,11.300000190734863,8.060611724853516,315600
2019-01-08,11.15999984741211,11.300000190734863,10.970000267028809,11.050000190734863,7.882280349731445,513000
2019-01-09,11.170000076293945,11.960000038146973,11.140000343322754,11.34000015258789,8.089144706726074,410500
2019-01-10,11.260000228881836,11.800000190734863,11.119999885559082,11.15999984741211,7.960745811462402,382500
2019-01-11,11.170000076293945,11.800000190734863,11.079999923706055,11.430000305175781,8.15334415435791,371200
2019-01-14,11.34000015258789,11.399999618530273,10.890000343322754,11.0600004196167,7.889413356781006,146800
2019-01-15,11.079999923706055,11.770000457763672,11.079999923706055,11.640000343322754,8.303144454956055,135300
2019-01-16,11.65999984741211,11.9399995803833,11.539999961853027,11.739999771118164,8.374476432800293,156000
2019-01-17,11.75,11.75,11.390000343322754,11.5,8.203277587890625,156100
2019-01-18,11.65999984741211,11.979999542236328,11.170000076293945,11.34000015258789,8.089144706726074,383900
2019-01-22,11.25,11.520000457763672,10.960000038146973,11.220000267028809,8.003545761108398,442900
2019-01-23,11.289999961853027,11.4350004196167,11.140000343322754,11.25,8.024945259094238,447000
2019-01-24,11.34000015258789,11.489999771118164,11.119999885559082,11.149999618530273,7.953611850738525,354400
2019-01-25,11.180000305175781,11.430000305175781,10.8100004196167,10.829999923706055,7.725347518920898,108800
2019-01-28,10.829999923706055,10.899999618530273,10.579999923706055,10.640000343322754,7.589815616607666,201600
2019-01-29,10.699999809265137,10.699999809265137,10.300000190734863,10.329999923706055,7.368682861328125,118800
2019-01-30,10.3100004196167,10.34000015258789,10.020000457763672,10.260000228881836,7.318750858306885,132700
2019-01-31,10.260000228881836,10.390000343322754,10.029999732971191,10.09000015258789,7.197484493255615,124200
2019-02-01,10.069999694824219,10.5,10.050000190734863,10.460000038146973,7.461415767669678,158400
2019-02-04,10.680000305175781,10.899999618530273,10.489999771118164,10.649999618530273,7.59694766998291,245300
2019-02-05,10.789999961853027,11.699999809265137,10.630000114440918,11.380000114440918,8.11767864227295,182400
2019-02-06,11.4399995803833,11.489999771118164,10.805000305175781,10.859999656677246,7.7467474937438965,148100
2019-02-07,10.779999732971191,10.800000190734863,10.5,10.6899995803833,7.625481128692627,109600
2019-02-08,10.729999542236328,10.800000190734863,10.600000381469727,10.640000343322754,7.589815616607666,69200
2019-02-11,10.640000343322754,10.640000343322754,10.399999618530273,10.420000076293945,7.432882785797119,121300
2019-02-12,10.539999961853027,10.680000305175781,10.380000114440918,10.550000190734863,7.525615692138672,104600
2019-02-13,10.630000114440918,10.690999984741211,10.430000305175781,10.529999732971191,7.511348724365234,160300
2019-02-14,10.510000228881836,10.515999794006348,10.34000015258789,10.369999885559082,7.397215843200684,146000
2019-02-15,10.399999618530273,10.569999694824219,10.229999542236328,10.359999656677246,7.390083312988281,121800
2019-02-19,10.380000114440918,10.515000343322754,10.1899995803833,10.359999656677246,7.390083312988281,173600
2019-02-20,10.420000076293945,10.859999656677246,10.418999671936035,10.8100004196167,7.711081027984619,169100
2019-02-21,10.75,11.380000114440918,10.670000076293945,11.149999618530273,7.953611850738525,215500
2019-02-22,11.239999771118164,11.343000411987305,11.109999656677246,11.300000190734863,8.060611724853516,207200
2019-02-25,11.449999809265137,11.75,11.25,11.40999984741211,8.139078140258789,241000
2019-02-26,11.380000114440918,11.5,11.15999984741211,11.40999984741211,8.139078140258789,128600
2019-02-27,11.380000114440918,11.479999542236328,11.220000267028809,11.40999984741211,8.139078140258789,116300
2019-02-28,11.399999618530273,11.4399995803833,11.069999694824219,11.149999618530273,7.953611850738525,65500
2019-03-01,11.180000305175781,11.279999732971191,10.954999923706055,11.100000381469727,7.9179463386535645,156500
2019-03-04,11.199999809265137,11.199999809265137,10.930000305175781,11.039999961853027,7.875146865844727,140800
2019-03-05,11.140000343322754,11.220000267028809,10.550000190734863,10.699999809265137,7.632615089416504,262300
2019-03-06,10.770000457763672,10.819999694824219,10.425000190734863,10.649999618530273,7.59694766998291,138800
2019-03-07,10.619999885559082,10.619999885559082,10.289999961853027,10.369999885559082,7.397215843200684,107300
2019-03-08,10.229999542236328,10.510000228881836,10.180000305175781,10.350000381469727,7.382950305938721,62900
2019-03-11,10.449999809265137,10.680000305175781,10.430000305175781,10.479999542236328,7.475682258605957,69200
2019-03-12,10.5,10.5,10.170000076293945,10.350000381469727,7.382950305938721,68000
2019-03-13,10.350000381469727,10.822999954223633,10.319999694824219,10.640000343322754,7.589815616607666,115900
2019-03-14,10.649999618530273,10.649999618530273,10.25,10.430000305175781,7.440016269683838,68700
2019-03-15,10.5,10.630000114440918,10.180000305175781,10.199999809265137,7.2759504318237305,65500
2019-03-18,10.289999961853027,10.510000228881836,10.220000267028809,10.399999618530273,7.418615341186523,81600
2019-03-19,10.380000114440918,10.5600004196167,10.3100004196167,10.460000038146973,7.461415767669678,83500
2019-03-20,10.470000267028809,10.470000267028809,10.100000381469727,10.3100004196167,7.354416370391846,139700
2019-03-21,10.5,10.5,10.100000381469727,10.34000015258789,7.375816822052002,86600
2019-03-22,10.15999984741211,10.25,9.779999732971191,9.829999923706055,7.012019157409668,141600
2019-03-25,9.850000381469727,9.90999984741211,9.579999923706055,9.789999961853027,6.983485698699951,85500
2019-03-26,9.779999732971191,10.0,9.649999618530273,9.850000381469727,7.026285648345947,83200
2019-03-27,9.930000305175781,9.930000305175781,9.6899995803833,9.789999961853027,6.983485698699951,92400
2019-03-28,9.779999732971191,10.140000343322754,9.779999732971191,10.0,7.133285045623779,54900
2019-03-29,10.399999618530273,10.479999542236328,10.100000381469727,10.34000015258789,7.375816822052002,130800
2019-04-01,10.569999694824219,10.890000343322754,10.329999923706055,10.399999618530273,7.418615341186523,592900
2019-04-02,10.430000305175781,10.649999618530273,10.164999961853027,10.5600004196167,7.532748699188232,77400
2019-04-03,10.649999618530273,10.829999923706055,10.619999885559082,10.75,7.668280601501465,83400
2019-04-04,10.979999542236328,11.0600004196167,10.539999961853027,10.6899995803833,7.625481128692627,86700
2019-04-05,10.789999961853027,10.789999961853027,10.59000015258789,10.609999656677246,7.56841516494751,35700
2019-04-08,10.640000343322754,10.699999809265137,10.539999961853027,10.649999618530273,7.59694766998291,62900
2019-04-09,10.569999694824219,10.84000015258789,10.569999694824219,10.75,7.668280601501465,29600
2019-04-10,10.8100004196167,10.949999809265137,10.640000343322754,10.789999961853027,7.69681453704834,33800
2019-04-11,10.75,11.0,10.520000457763672,10.75,7.668280601501465,109800
2019-04-12,10.75,10.90999984741211,10.600000381469727,10.729999542236328,7.6540141105651855,65700
2019-04-15,10.729999542236328,11.25,10.640000343322754,11.119999885559082,7.932212829589844,90900
2019-04-16,11.210000038146973,11.869999885559082,11.210000038146973,11.819999694824219,8.43154239654541,550300
2019-04-17,11.880000114440918,12.270000457763672,11.680000305175781,12.020000457763672,8.57420825958252,382500
2019-04-18,12.0600004196167,12.0600004196167,11.378999710083008,11.569999694824219,8.253210067749023,599000
2019-04-22,11.380000114440918,11.680000305175781,11.229999542236328,11.609999656677246,8.281743049621582,97100
2019-04-23,12.239999771118164,12.239999771118164,10.890000343322754,11.960000038146973,8.531408309936523,173900
2019-04-24,12.010000228881836,12.100000381469727,11.770000457763672,11.9399995803833,8.517141342163086,330500
2019-04-25,11.699999809265137,12.020000457763672,11.489999771118164,11.899999618530273,8.488608360290527,153100
2019-04-26,11.729999542236328,12.0,11.710000038146973,11.899999618530273,8.488608360290527,119900
2019-04-29,11.899999618530273,12.220000267028809,11.720000267028809,12.069999694824219,8.609874725341797,121700
2019-04-30,12.039999961853027,12.239999771118164,12.0,12.119999885559082,8.645541191101074,190700
2019-05-01,12.180000305175781,12.180000305175781,12.010000228881836,12.079999923706055,8.617008209228516,55800
2019-05-02,12.180000305175781,12.699999809265137,12.069999694824219,12.09000015258789,8.624141693115234,290400
2019-05-03,12.3100004196167,12.319999694824219,12.010000228881836,12.119999885559082,8.645541191101074,58700
2019-05-06,11.880000114440918,11.930000305175781,11.550000190734863,11.930000305175781,8.510008811950684,84700
2019-05-07,11.75,11.770000457763672,11.300000190734863,11.329999923706055,8.082012176513672,124200
2019-05-08,11.359999656677246,11.600000381469727,11.260000228881836,11.5,8.203277587890625,68100
2019-05-09,11.359999656677246,11.359999656677246,10.899999618530273,11.220000267028809,8.003545761108398,47900
2019-05-10,11.109999656677246,11.309000015258789,10.664999961853027,11.180000305175781,7.975012302398682,94900
2019-05-13,10.65999984741211,11.095000267028809,10.539999961853027,10.609999656677246,7.56841516494751,72100
2019-05-14,10.550000190734863,11.25,10.489999771118164,11.0600004196167,7.889413356781006,108700
2019-05-15,11.100000381469727,11.260000228881836,10.890000343322754,10.90999984741211,7.782413482666016,91600
2019-05-16,10.800000190734863,11.005000114440918,10.520000457763672,10.720000267028809,7.646881580352783,127500
2019-05-17,10.630000114440918,10.930000305175781,10.289999961853027,10.5,7.489948749542236,357900
2019-05-20,10.380000114440918,10.550000190734863,10.020000457763672,10.550000190734863,7.525615692138672,84900
2019-05-21,10.479999542236328,10.770000457763672,10.1899995803833,10.380000114440918,7.4043498039245605,136300
2019-05-22,10.279999732971191,10.609999656677246,9.930000305175781,10.010000228881836,7.140418529510498,55800
2019-05-23,9.829999923706055,9.904999732971191,9.640000343322754,9.739999771118164,6.947819709777832,94200
2019-05-24,9.5,9.850000381469727,9.329999923706055,9.460000038146973,6.748087406158447,231200
2019-05-28,9.760000228881836,9.760000228881836,9.420000076293945,9.4399995803833,6.733819961547852,421200
2019-05-29,9.4399995803833,9.649999618530273,9.40999984741211,9.4399995803833,6.733819961547852,56400
2019-05-30,9.460000038146973,9.720000267028809,9.460000038146973,9.550000190734863,6.812286853790283,77100
2019-05-31,9.460000038146973,9.75,9.4399995803833,9.609999656677246,6.855086326599121,99200
2019-06-03,9.670000076293945,9.930000305175781,9.670000076293945,9.789999961853027,6.983485698699951,81100
2019-06-04,9.699999809265137,9.914999961853027,9.609999656677246,9.609999656677246,6.855086326599121,71100
2019-06-05,9.609999656677246,9.779999732971191,9.380000114440918,9.520000457763672,6.790887832641602,80000
2019-06-06,9.539999961853027,9.569999694824219,9.3100004196167,9.449999809265137,6.7409539222717285,48600
2019-06-07,9.449999809265137,9.47700023651123,9.279999732971191,9.350000381469727,6.669621467590332,69200
2019-06-10,9.489999771118164,9.75,9.449999809265137,9.449999809265137,6.7409539222717285,30700
2019-06-11,9.569999694824219,9.899999618530273,9.5,9.829999923706055,7.012019157409668,168800
2019-06-12,9.680000305175781,9.885000228881836,9.600000381469727,9.640000343322754,6.876486778259277,37200
2019-06-13,9.680000305175781,9.90999984741211,9.640000343322754,9.779999732971191,6.976352214813232,40300
2019-06-14,9.779999732971191,9.9399995803833,9.618000030517578,9.800000190734863,6.99061918258667,45900
2019-06-17,9.9399995803833,10.020000457763672,9.729999542236328,9.84000015258789,7.0191521644592285,29600
2019-06-18,9.899999618530273,10.239999771118164,9.829999923706055,9.949999809265137,7.097618103027344,78200
2019-06-19,10.010000228881836,10.279999732971191,9.739999771118164,9.949999809265137,7.097618103027344,52100
2019-06-20,10.050000190734863,10.350000381469727,10.050000190734863,10.279999732971191,7.333016395568848,51900
2019-06-21,10.25,10.470000267028809,10.119999885559082,10.210000038146973,7.283083438873291,54000
2019-06-24,10.279999732971191,10.300000190734863,10.010000228881836,10.0600004196167,7.176084518432617,49100
2019-06-25,9.979999542236328,10.300000190734863,9.979999542236328,10.0600004196167,7.176084518432617,47000
2019-06-26,10.130000114440918,10.210000038146973,9.8100004196167,9.899999618530273,7.06195068359375,67300
2019-06-27,9.899999618530273,10.199999809265137,9.8100004196167,9.979999542236328,7.119017601013184,81200
2019-06-28,9.920000076293945,10.199999809265137,9.0600004196167,9.0600004196167,6.462756156921387,139600
2019-07-01,9.3100004196167,9.880000114440918,9.300000190734863,9.789999961853027,6.983485698699951,121500
2019-07-02,9.800000190734863,9.859999656677246,9.609999656677246,9.720000267028809,6.9335527420043945,51200
2019-07-03,9.699999809265137,10.279999732971191,9.699999809265137,10.199999809265137,7.2759504318237305,80000
2019-07-05,10.079999923706055,10.180000305175781,9.930000305175781,10.180000305175781,7.261683940887451,53100
2019-07-08,10.130000114440918,10.390000343322754,10.100000381469727,10.319999694824219,7.361549377441406,52400
2019-07-09,10.170000076293945,10.40999984741211,9.970000267028809,10.050000190734863,7.168951511383057,42100
2019-07-10,10.100000381469727,10.270000457763672,9.59000015258789,9.890000343322754,7.054818630218506,88000
2019-07-11,9.90999984741211,10.050000190734863,9.619999885559082,10.0,7.133285045623779,70800
2019-07-12,10.0600004196167,10.170000076293945,9.890000343322754,10.079999923706055,7.190351486206055,32200
2019-07-15,10.1899995803833,10.279999732971191,10.010000228881836,10.100000381469727,7.204617977142334,36300
2019-07-16,10.029999732971191,10.25,9.960000038146973,10.0,7.133285045623779,66000
2019-07-17,10.010000228881836,10.020000457763672,9.59000015258789,9.640000343322754,6.876486778259277,54700
2019-07-18,9.59000015258789,9.880000114440918,9.454999923706055,9.600000381469727,6.847953796386719,26800
2019-07-19,9.710000038146973,9.960000038146973,9.010000228881836,9.300000190734863,6.633955478668213,116200
2019-07-22,9.300000190734863,10.229999542236328,9.199999809265137,9.979999542236328,7.119017601013184,182800
2019-07-23,10.039999961853027,10.149999618530273,9.40999984741211,9.40999984741211,6.71242094039917,59900
2019-07-24,9.460000038146973,9.859999656677246,9.420000076293945,9.449999809265137,6.7409539222717285,47300
2019-07-25,9.800000190734863,9.859999656677246,9.5,9.539999961853027,6.8051533699035645,56800
2019-07-26,9.5,9.569999694824219,9.399999618530273,9.420000076293945,6.719554424285889,50800
2019-07-29,9.300000190734863,9.449999809265137,9.194999694824219,9.300000190734863,6.633955478668213,47800
2019-07-30,9.1899995803833,9.40999984741211,9.1899995803833,9.25,6.598288059234619,28100
2019-07-31,9.25,9.369999885559082,9.100000381469727,9.199999809265137,6.562621593475342,46100
2019-08-01,9.300000190734863,9.399999618530273,9.020000457763672,9.149999618530273,6.5269551277160645,66200
2019-08-02,9.199999809265137,9.350000381469727,9.020000457763672,9.0600004196167,6.462756156921387,52300
2019-08-05,9.020000457763672,9.40999984741211,8.760000228881836,9.079999923706055,6.477022647857666,289200
2019-08-06,9.25,9.479999542236328,8.920000076293945,8.9399995803833,6.377155780792236,31900
2019-08-07,8.960000038146973,9.350000381469727,8.699999809265137,8.890000343322754,6.341490745544434,50600
2019-08-08,9.029999732971191,9.380000114440918,8.899999618530273,9.359999656677246,6.676754474639893,42100
2019-08-09,9.34000015258789,9.34000015258789,8.949999809265137,9.010000228881836,6.427089691162109,24000
2019-08-12,8.890000343322754,9.180000305175781,8.75,8.75,6.241624355316162,65200
2019-08-13,8.75,9.300000190734863,8.75,9.300000190734863,6.633955478668213,16000
2019-08-14,9.119999885559082,9.140000343322754,8.949999809265137,8.960000038146973,6.39142370223999,14100
2019-08-15,9.039999961853027,9.289999961853027,8.949999809265137,9.079999923706055,6.477022647857666,24400
2019-08-16,9.180000305175781,9.380000114440918,8.960000038146973,9.380000114440918,6.691020965576172,15300
2019-08-19,9.5,9.5,9.140000343322754,9.140000343322754,6.51982307434082,44000
2019-08-20,9.149999618530273,9.619999885559082,9.029999732971191,9.350000381469727,6.669621467590332,55300
2019-08-21,9.539999961853027,9.539999961853027,8.979999542236328,8.979999542236328,6.405689716339111,255100
2019-08-22,9.020000457763672,9.420000076293945,9.020000457763672,9.199999809265137,6.562621593475342,73900
2019-08-23,9.100000381469727,9.199999809265137,9.010000228881836,9.199999809265137,6.562621593475342,19200
2019-08-26,9.289999961853027,9.289999961853027,8.899999618530273,8.899999618530273,6.348622798919678,27000
2019-08-27,9.0,9.329999923706055,8.899999618530273,9.329999923706055,6.655354976654053,91100
2019-08-28,9.260000228881836,9.295000076293945,8.899999618530273,8.899999618530273,6.348622798919678,26200
2019-08-29,9.020000457763672,9.289999961853027,8.885000228881836,9.149999618530273,6.5269551277160645,97000
2019-08-30,9.140000343322754,9.199999809265137,8.920000076293945,8.920000076293945,6.362890243530273,40400
2019-09-03,8.75,8.854999542236328,8.399999618530273,8.420000076293945,6.006226062774658,169600
2019-09-04,8.619999885559082,8.84000015258789,8.59000015258789,8.720000267028809,6.220224857330322,112600
2019-09-05,8.800000190734863,8.880000114440918,8.699999809265137,8.800000190734863,6.277291297912598,56200
2019-09-06,8.869999885559082,9.489999771118164,8.850000381469727,9.239999771118164,6.591155529022217,68600
2019-09-09,9.329999923706055,9.989999771118164,9.3100004196167,9.600000381469727,6.847953796386719,110200
2019-09-10,9.529999732971191,9.789999961853027,9.289999961853027,9.65999984741211,6.890753269195557,46400
2019-09-11,9.699999809265137,9.699999809265137,9.140000343322754,9.300000190734863,6.633955478668213,83500
2019-09-12,9.279999732971191,9.5,9.140000343322754,9.319999694824219,6.648221492767334,23300
2019-09-13,9.479999542236328,9.630000114440918,9.3100004196167,9.460000038146973,6.748087406158447,19800
2019-09-16,9.550000190734863,9.680000305175781,9.4399995803833,9.640000343322754,6.876486778259277,26300
2019-09-17,9.5600004196167,9.5600004196167,9.279999732971191,9.300000190734863,6.633955478668213,19100
2019-09-18,9.609999656677246,9.9399995803833,9.289999961853027,9.520000457763672,6.790887832641602,34400
2019-09-19,9.529999732971191,9.789999961853027,9.40999984741211,9.710000038146973,6.926419734954834,71700
2019-09-20,9.770000457763672,10.09000015258789,9.550000190734863,9.550000190734863,6.812286853790283,31500
2019-09-23,9.65999984741211,9.9399995803833,9.430000305175781,9.630000114440918,6.8693528175354,88600
2019-09-24,9.699999809265137,9.890000343322754,9.479999542236328,9.539999961853027,6.8051533699035645,40500
2019-09-25,9.579999923706055,10.039999961853027,9.574999809265137,10.020000457763672,7.147552013397217,49100
2019-09-26,9.949999809265137,10.210000038146973,9.710000038146973,9.970000267028809,7.111884593963623,67300
2019-09-27,9.949999809265137,10.105999946594238,9.449999809265137,9.449999809265137,7.26016092300415,58000
2019-09-30,9.390000343322754,9.770000457763672,9.3100004196167,9.670000076293945,7.42918062210083,40500
2019-10-01,9.899999618530273,9.9350004196167,9.550000190734863,9.670000076293945,7.42918062210083,29400
2019-10-02,9.770000457763672,9.770000457763672,9.199999809265137,9.470000267028809,7.275527000427246,70200
2019-10-03,9.529999732971191,9.84000015258789,9.479999542236328,9.550000190734863,7.33698844909668,111200
2019-10-04,9.4399995803833,9.850000381469727,9.34000015258789,9.829999923706055,7.5521039962768555,57200
2019-10-07,9.680000305175781,9.699999809265137,9.449999809265137,9.569999694824219,7.352353572845459,27200
2019-10-08,9.5,9.520000457763672,9.239999771118164,9.239999771118164,7.0988240242004395,32100
2019-10-09,9.399999618530273,9.539999961853027,9.180000305175781,9.279999732971191,7.129554748535156,32700
2019-10-10,9.220000267028809,9.470000267028809,9.114999771118164,9.34000015258789,7.175652027130127,23400
2019-10-11,9.300000190734863,9.600000381469727,9.149999618530273,9.260000228881836,7.114190101623535,51400
2019-10-14,9.40999984741211,9.505000114440918,9.300000190734863,9.40999984741211,7.229430675506592,19200
2019-10-15,9.520000457763672,9.65999984741211,9.289999961853027,9.380000114440918,7.2063822746276855,32100
2019-10-16,9.270000457763672,9.890000343322754,9.270000457763672,9.890000343322754,7.59820032119751,20100
2019-10-17,9.710000038146973,9.899999618530273,9.449999809265137,9.449999809265137,7.26016092300415,13100
2019-10-18,9.449999809265137,9.729999542236328,9.364999771118164,9.40999984741211,7.229430675506592,14400
2019-10-21,9.359999656677246,9.600000381469727,9.359999656677246,9.5,7.298574447631836,15800
2019-10-22,9.59000015258789,9.59000015258789,8.979999542236328,8.979999542236328,6.899073123931885,26500
2019-10-23,9.119999885559082,9.489999771118164,9.119999885559082,9.489999771118164,7.290892124176025,24700
2019-10-24,9.600000381469727,9.600000381469727,9.260000228881836,9.5,7.298574447631836,11800
2019-10-25,9.420000076293945,9.420000076293945,9.170000076293945,9.270000457763672,7.121872425079346,10700
2019-10-28,9.399999618530273,9.430000305175781,9.109999656677246,9.109999656677246,6.99894905090332,29100
2019-10-29,9.260000228881836,9.470000267028809,9.12600040435791,9.130000114440918,7.0143141746521,6000
2019-10-30,9.149999618530273,9.350000381469727,9.100000381469727,9.350000381469727,7.183333873748779,19800
2019-10-31,9.229999542236328,9.350000381469727,9.0,9.149999618530273,7.029679298400879,47300
2019-11-01,9.3100004196167,9.3100004196167,9.010000228881836,9.010000228881836,6.922122001647949,27000
2019-11-04,9.09000015258789,9.204999923706055,9.020000457763672,9.100000381469727,6.99126672744751,33800
2019-11-05,9.1899995803833,9.300000190734863,9.029999732971191,9.029999732971191,6.937487602233887,23000
2019-11-06,9.029999732971191,9.239999771118164,8.979999542236328,9.130000114440918,7.0143141746521,29800
2019-11-07,9.279999732971191,9.279999732971191,9.050000190734863,9.079999923706055,6.975900650024414,17500
2019-11-08,9.125,9.125,8.899999618530273,8.960000038146973,6.883708953857422,7800
2019-11-11,8.949999809265137,9.244999885559082,8.800000190734863,9.119999885559082,7.006631374359131,11400
2019-11-12,9.020000457763672,9.050000190734863,8.819999694824219,9.050000190734863,6.952852725982666,24500
2019-11-13,8.90999984741211,9.024999618530273,8.800000190734863,8.84000015258789,6.791515827178955,13400
2019-11-14,8.859999656677246,9.020000457763672,8.680000305175781,8.699999809265137,6.683958053588867,38300
2019-11-15,8.680000305175781,9.260000228881836,8.680000305175781,9.140000343322754,7.021997451782227,27000
2019-11-18,9.1899995803833,9.1899995803833,8.90999984741211,8.90999984741211,6.84529447555542,7400
2019-11-19,9.0,9.380000114440918,8.880000114440918,9.300000190734863,7.144920825958252,38800
2019-11-20,9.229999542236328,9.270000457763672,8.979999542236328,9.100000381469727,6.99126672744751,11300
2019-11-21,9.119999885559082,9.164999961853027,8.949999809265137,9.15999984741211,7.037362575531006,37800
2019-11-22,9.229999542236328,9.5,9.010000228881836,9.5,7.298574447631836,26900
2019-11-25,9.4399995803833,9.710000038146973,9.170000076293945,9.65999984741211,7.421497821807861,34000
2019-11-26,9.600000381469727,9.664999961853027,9.420000076293945,9.5600004196167,7.344671726226807,10500
2019-11-27,9.539999961853027,9.649999618530273,9.34000015258789,9.350000381469727,7.183333873748779,11900
2019-11-29,9.489999771118164,9.489999771118164,9.300000190734863,9.479999542236328,7.283209323883057,5400
2019-12-02,9.390000343322754,9.569999694824219,9.109999656677246,9.399999618530273,7.221747398376465,34900
2019-12-03,9.350000381469727,9.350000381469727,9.079999923706055,9.199999809265137,7.0680928230285645,13300
2019-12-04,9.229999542236328,9.399999618530273,9.199999809265137,9.399999618530273,7.221747398376465,10000
2019-12-05,9.300000190734863,9.300000190734863,9.069999694824219,9.079999923706055,6.975900650024414,31100
2019-12-06,9.220000267028809,9.289999961853027,8.960000038146973,8.960000038146973,6.883708953857422,191500
2019-12-09,8.899999618530273,9.0600004196167,8.899999618530273,8.970000267028809,6.891390800476074,16400
2019-12-10,8.968999862670898,9.180000305175781,8.920000076293945,9.180000305175781,7.052728652954102,14800
2019-12-11,9.180000305175781,9.640000343322754,9.130000114440918,9.619999885559082,7.3907670974731445,77800
2019-12-12,9.359999656677246,9.59000015258789,9.140000343322754,9.5,7.298574447631836,29100
2019-12-13,9.359999656677246,9.550000190734863,9.210000038146973,9.5,7.298574447631836,17500
2019-12-16,9.399999618530273,9.489999771118164,9.319999694824219,9.329999923706055,7.16796875,22600
2019-12-17,9.270000457763672,9.5,9.119999885559082,9.359999656677246,7.19101619720459,45800
2019-12-18,9.34000015258789,9.34000015258789,9.170000076293945,9.3100004196167,7.152603626251221,14000
2019-12-19,9.239999771118164,9.3100004196167,9.069999694824219,9.3100004196167,7.152603626251221,27700
2019-12-20,9.3100004196167,9.3100004196167,9.050000190734863,9.300000190734863,7.144920825958252,15300
2019-12-23,9.300000190734863,9.300000190734863,9.050000190734863,9.069999694824219,6.968217849731445,33700
2019-12-24,9.109999656677246,9.1899995803833,9.079999923706055,9.079999923706055,6.975900650024414,46400
2019-12-26,9.229999542236328,9.229999542236328,9.029999732971191,9.109999656677246,6.99894905090332,33100
2019-12-27,9.199999809265137,9.199999809265137,8.960000038146973,8.970000267028809,6.891390800476074,38500
2019-12-30,9.0600004196167,9.0600004196167,8.680000305175781,8.829999923706055,6.783833026885986,56600
2019-12-31,8.819999694824219,8.89900016784668,8.699999809265137,8.829999923706055,6.783833026885986,71900
2020-01-02,8.979999542236328,8.979999542236328,8.600000381469727,8.630000114440918,6.630179405212402,137500
2020-01-03,8.699999809265137,8.920000076293945,8.489999771118164,8.579999923706055,6.5917649269104,59500
2020-01-06,8.5600004196167,8.5600004196167,8.420000076293945,8.420000076293945,6.468842506408691,47100
2020-01-07,8.399999618530273,8.729999542236328,8.399999618530273,8.699999809265137,6.683958053588867,59900
2020-01-08,8.630000114440918,9.289999961853027,8.630000114440918,9.199999809265137,7.0680928230285645,117800
2020-01-09,9.140000343322754,9.229999542236328,9.100000381469727,9.109999656677246,6.99894905090332,59200
2020-01-10,9.300000190734863,9.300000190734863,8.859999656677246,8.859999656677246,6.806880950927734,26900
2020-01-13,8.859999656677246,9.300000190734863,8.859999656677246,9.300000190734863,7.144920825958252,45900
2020-01-14,9.239999771118164,9.260000228881836,9.0600004196167,9.1899995803833,7.060410499572754,41300
2020-01-15,9.199999809265137,9.329999923706055,9.1899995803833,9.220000267028809,7.08345890045166,78400
2020-01-16,9.34000015258789,9.600000381469727,9.229999542236328,9.479999542236328,7.283209323883057,111300
2020-01-17,9.649999618530273,9.75,9.239999771118164,9.5,7.298574447631836,141600
2020-01-21,9.550000190734863,9.699999809265137,9.100000381469727,9.25,7.106507301330566,131400
2020-01-22,9.239999771118164,9.470000267028809,8.899999618530273,8.949999809265137,6.876025676727295,100700
2020-01-23,8.880000114440918,8.989999771118164,8.729999542236328,8.989999771118164,6.906756401062012,35300
2020-01-24,9.0,9.25,8.789999961853027,9.140000343322754,7.021997451782227,78100
2020-01-27,9.0,9.069999694824219,8.930000305175781,8.979999542236328,6.899073123931885,53800
2020-01-28,8.859999656677246,9.0649995803833,8.760000228881836,8.920000076293945,6.852977752685547,43000
2020-01-29,9.0,9.0,8.819999694824219,8.850000381469727,6.799199104309082,18700
2020-01-30,8.75,8.899999618530273,8.699999809265137,8.739999771118164,6.714688301086426,31000
2020-01-31,8.680000305175781,8.6899995803833,8.510000228881836,8.579999923706055,6.5917649269104,28600
2020-02-03,8.649999618530273,8.75,8.5600004196167,8.75,6.7223711013793945,40800
2020-02-04,8.710000038146973,8.9399995803833,8.630000114440918,8.720000267028809,6.699323654174805,297300
2020-02-05,8.829999923706055,9.069999694824219,8.779999732971191,9.069999694824219,6.968217849731445,67800
2020-02-06,9.100000381469727,9.180000305175781,8.899999618530273,9.079999923706055,6.975900650024414,130900
2020-02-07,9.09000015258789,9.300000190734863,8.960000038146973,9.1899995803833,7.060410499572754,129800
2020-02-10,9.079999923706055,9.229999542236328,9.029999732971191,9.050000190734863,6.952852725982666,67300
2020-02-11,9.0600004196167,9.100000381469727,9.0,9.100000381469727,6.99126672744751,73000
2020-02-12,9.079999923706055,9.300000190734863,8.850000381469727,8.859999656677246,6.806880950927734,119900
2020-02-13,8.869999885559082,9.1899995803833,8.84000015258789,9.0600004196167,6.960535526275635,34600
2020-02-14,9.0,9.1899995803833,8.850000381469727,8.850000381469727,6.799199104309082,27400
2020-02-18,8.880000114440918,9.050000190734863,8.880000114440918,8.979999542236328,6.899073123931885,31900
2020-02-19,8.930000305175781,9.135000228881836,8.930000305175781,8.949999809265137,6.876025676727295,35000
2020-02-20,8.949999809265137,9.140000343322754,8.949999809265137,8.970000267028809,6.891390800476074,29800
2020-02-21,8.90999984741211,9.09000015258789,8.880000114440918,8.960000038146973,6.883708953857422,61600
2020-02-24,8.960000038146973,8.987000465393066,8.729999542236328,8.770000457763672,6.73773717880249,33900
2020-02-25,8.800000190734863,8.859999656677246,8.470000267028809,8.479999542236328,6.514937877655029,77700
2020-02-26,8.470000267028809,8.779999732971191,8.470000267028809,8.569999694824219,6.58408260345459,89400
2020-02-27,8.5600004196167,8.5600004196167,8.399999618530273,8.399999618530273,6.453476428985596,64300
2020-02-28,8.300000190734863,8.399999618530273,8.029999732971191,8.119999885559082,6.23836088180542,55400
2020-03-02,8.119999885559082,8.329999923706055,8.100000381469727,8.319999694824219,6.392014980316162,51900
2020-03-03,8.34000015258789,8.350000381469727,8.11299991607666,8.239999771118164,6.33055305480957,57100
2020-03-04,8.300000190734863,8.449999809265137,8.199999809265137,8.449999809265137,6.491889953613281,56600
2020-03-05,8.329999923706055,8.449999809265137,8.210000038146973,8.380000114440918,6.438111305236816,19500
2020-03-06,8.239999771118164,8.34000015258789,8.210000038146973,8.279999732971191,6.361283779144287,32500
2020-03-09,8.069999694824219,8.09000015258789,7.75,7.960000038146973,6.1154375076293945,43300
2020-03-10,8.100000381469727,8.100000381469727,7.860000133514404,7.940000057220459,6.100071907043457,37500
2020-03-11,7.849999904632568,7.960000038146973,7.699999809265137,7.860000133514404,6.038610458374023,49400
2020-03-12,7.510000228881836,7.510000228881836,6.659999847412109,6.659999847412109,5.116684913635254,127400
2020-03-13,6.929999828338623,6.989999771118164,6.610000133514404,6.989999771118164,5.370213985443115,52700
2020-03-16,6.449999809265137,6.670000076293945,6.21999979019165,6.28000020980835,4.824742317199707,35000
2020-03-17,6.309999942779541,6.559999942779541,6.309999942779541,6.409999847412109,4.924616813659668,28800
2020-03-18,6.260000228881836,6.309999942779541,5.699999809265137,6.210000038146973,4.770963191986084,57400
2020-03-19,6.150000095367432,6.170000076293945,5.610000133514404,5.679999828338623,4.363779067993164,68200
2020-03-20,5.789999961853027,6.090000152587891,5.570000171661377,5.570000171661377,4.279269695281982,63300
2020-03-23,5.590000152587891,5.901000022888184,5.510000228881836,5.710000038146973,4.3868279457092285,65500
2020-03-24,5.710000038146973,6.260000228881836,5.710000038146973,6.179999828338623,4.747914791107178,83700
2020-03-25,6.090000152587891,6.659999847412109,6.090000152587891,6.389999866485596,4.909251689910889,43000
2020-03-26,6.409999847412109,6.670000076293945,6.394999980926514,6.5,4.9937615394592285,93100
2020-03-27,6.5,6.5,6.260000228881836,6.380000114440918,4.901569366455078,72600
2020-03-30,6.329999923706055,6.690000057220459,6.329999923706055,6.480000019073486,4.978396415710449,25900
2020-03-31,6.5,6.760000228881836,6.5,6.730000019073486,5.170464038848877,25800
2020-04-01,6.659999847412109,6.659999847412109,6.427000045776367,6.599999904632568,5.0705885887146,26300
2020-04-02,6.46999979019165,6.840000152587891,6.440000057220459,6.570000171661377,5.047540664672852,49800
2020-04-03,6.554999828338623,6.78000020980835,6.46999979019165,6.510000228881836,5.0014448165893555,22600
2020-04-06,6.71999979019165,6.78000020980835,6.570000171661377,6.730000019073486,5.170464038848877,13400
2020-04-07,6.849999904632568,6.889999866485596,6.510000228881836,6.559999942779541,5.039857864379883,42900
2020-04-08,6.599999904632568,6.820000171661377,6.5,6.739999771118164,5.178146839141846,19800
2020-04-09,6.699999809265137,6.909999847412109,6.650000095367432,6.849999904632568,5.2626566886901855,39100
2020-04-13,6.889999866485596,6.889999866485596,6.710000038146973,6.71999979019165,5.162781238555908,23500
2020-04-14,6.769999980926514,6.889999866485596,6.769999980926514,6.860000133514404,5.270339488983154,24300
2020-04-15,6.599999904632568,6.800000190734863,6.590000152587891,6.639999866485596,5.101319313049316,20900
2020-04-16,6.519999980926514,6.809999942779541,6.320000171661377,6.349999904632568,4.878520965576172,47400
2020-04-17,6.579999923706055,6.730000019073486,6.369999885559082,6.5,4.9937615394592285,49900
2020-04-20,6.380000114440918,6.5,6.28000020980835,6.440000057220459,4.947665691375732,34600
2020-04-21,6.570000171661377,6.570000171661377,6.150000095367432,6.21999979019165,4.7786455154418945,25900
2020-04-22,6.340000152587891,6.400000095367432,6.110000133514404,6.110000133514404,4.694136142730713,28400
2020-04-23,6.380000114440918,6.590000152587891,6.170000076293945,6.170000076293945,4.740232467651367,17700
2020-04-24,6.320000171661377,6.340000152587891,6.070000171661377,6.070000171661377,4.663405418395996,19800
2020-04-27,6.385000228881836,6.5,6.25,6.380000114440918,4.901569366455078,39100
2020-04-28,6.429999828338623,6.599999904632568,6.409999847412109,6.449999809265137,4.955348014831543,46800
2020-04-29,6.679999828338623,6.769999980926514,6.554999828338623,6.670000076293945,5.124367713928223,77600
2020-04-30,6.869999885559082,6.880000114440918,6.699999809265137,6.75,5.185829162597656,20000
2020-05-01,6.650000095367432,6.730000019073486,6.269999980926514,6.349999904632568,4.878520965576172,29600
2020-05-04,6.559999942779541,6.559999942779541,6.110000133514404,6.150000095367432,4.72486686706543,60700
2020-05-05,6.320000171661377,6.385000228881836,6.260000228881836,6.289999961853027,4.832424640655518,21600
2020-05-06,6.260000228881836,6.400000095367432,6.199999809265137,6.210000038146973,4.770963191986084,14800
2020-05-07,6.199999809265137,6.360000133514404,6.199999809265137,6.360000133514404,4.886203765869141,10700
2020-05-08,6.360000133514404,6.929999828338623,6.360000133514404,6.929999828338623,5.324118137359619,61800
2020-05-11,7.0,7.130000114440918,6.769999980926514,7.119999885559082,5.470089435577393,43900
2020-05-12,7.010000228881836,7.039999961853027,6.599999904632568,6.599999904632568,5.0705885887146,38100
2020-05-13,6.650000095367432,6.960000038146973,6.556000232696533,6.849999904632568,5.2626566886901855,21900
2020-05-14,6.630000114440918,6.929999828338623,6.630000114440918,6.880000114440918,5.285704612731934,26900
2020-05-15,6.989999771118164,6.989999771118164,6.730000019073486,6.769999980926514,5.201194763183594,22600
2020-05-18,6.980000019073486,7.110000133514404,6.71999979019165,6.860000133514404,5.270339488983154,62700
2020-05-19,6.920000076293945,7.110000133514404,6.869999885559082,6.989999771118164,5.370213985443115,56000
2020-05-20,6.920000076293945,7.139999866485596,6.920000076293945,7.050000190734863,5.416310787200928,81500
2020-05-21,7.03000020980835,7.125,6.929999828338623,7.070000171661377,5.431676387786865,34100
2020-05-22,6.909999847412109,7.059999942779541,6.559999942779541,6.869999885559082,5.278021812438965,105800
2020-05-26,7.139999866485596,7.460000038146973,6.942999839782715,7.429999828338623,5.708253860473633,34200
2020-05-27,7.5,7.659999847412109,7.489999771118164,7.570000171661377,5.815811634063721,36600
2020-05-28,7.659999847412109,7.690000057220459,7.210000038146973,7.269999980926514,5.585330486297607,29100
2020-05-29,7.125,7.309999942779541,6.900000095367432,7.309999942779541,5.616061210632324,67600
2020-06-01,7.309999942779541,7.670000076293945,7.309999942779541,7.5,5.762032508850098,39600
2020-06-02,7.480000019073486,7.53000020980835,7.380000114440918,7.460000038146973,5.731301784515381,12800
2020-06-03,7.309999942779541,7.723999977111816,7.309999942779541,7.599999904632568,5.838859558105469,21500
2020-06-04,7.570000171661377,7.699999809265137,7.449999809265137,7.46999979019165,5.73898458480835,18300
2020-06-05,7.480000019073486,7.949999809265137,7.480000019073486,7.820000171661377,6.007879734039307,26000
2020-06-08,7.71999979019165,8.779999732971191,7.690000057220459,8.59000015258789,6.599448204040527,138700
2020-06-09,8.59000015258789,8.59000015258789,8.039999961853027,8.479999542236328,6.514937877655029,32100
2020-06-10,8.460000038146973,8.470000267028809,8.005000114440918,8.069999694824219,6.199946880340576,41400
2020-06-11,7.710000038146973,7.849999904632568,7.610000133514404,7.670000076293945,5.89263916015625,63900
2020-06-12,8.069999694824219,8.069999694824219,7.5,7.804999828338623,5.996355056762695,41700
2020-06-15,7.75,7.949999809265137,7.559999942779541,7.840000152587891,6.023244857788086,96600
2020-06-16,8.0,8.069999694824219,7.71999979019165,7.849999904632568,6.030927658081055,65300
2020-06-17,7.849999904632568,8.097999572753906,7.78000020980835,7.900000095367432,6.06934118270874,72100
2020-06-18,7.900000095367432,8.020000457763672,7.85699987411499,7.929999828338623,6.092389106750488,9700
2020-06-19,7.929999828338623,8.109999656677246,7.929999828338623,8.069999694824219,6.199946880340576,20600
2020-06-22,8.069999694824219,8.609999656677246,8.069999694824219,8.609999656677246,6.614813327789307,33600
2020-06-23,8.420000076293945,8.430000305175781,8.119999885559082,8.15999984741211,6.269091606140137,29300
2020-06-24,8.210000038146973,8.210000038146973,7.760000228881836,7.800000190734863,5.992514133453369,15100
2020-06-25,7.800000190734863,7.920000076293945,7.730000019073486,7.769999980926514,5.969465732574463,41300
2020-06-26,7.730000019073486,7.840000152587891,7.65500020980835,7.760000228881836,5.961783409118652,38700
2020-06-29,7.760000228881836,7.939000129699707,7.705999851226807,7.820000171661377,6.007879734039307,42000
2020-06-30,7.889999866485596,7.96999979019165,7.775000095367432,7.860000133514404,6.038610458374023,40200
2020-07-01,7.980000019073486,8.118000030517578,7.909999847412109,7.989999771118164,6.138485431671143,26500
2020-07-02,8.130000114440918,8.15999984741211,7.880000114440918,7.880000114440918,6.053975582122803,14400
2020-07-06,8.119999885559082,8.40999984741211,8.079999923706055,8.170000076293945,6.2767744064331055,122200
2020-07-07,8.211999893188477,8.5,7.980000019073486,8.5,6.530303955078125,59000
2020-07-08,8.369999885559082,8.369999885559082,8.069999694824219,8.210000038146973,6.307505130767822,59700
2020-07-09,8.229999542236328,8.289999961853027,7.989999771118164,8.15999984741211,6.269091606140137,81800
2020-07-10,8.239999771118164,8.3100004196167,8.119999885559082,8.199999809265137,6.299821853637695,16500
2020-07-13,8.260000228881836,8.399999618530273,8.220000267028809,8.260000228881836,6.345919132232666,48600
2020-07-14,8.1899995803833,8.289999961853027,8.010000228881836,8.199999809265137,6.299821853637695,81400
2020-07-15,8.300000190734863,8.489999771118164,8.279999732971191,8.430000305175781,6.476524829864502,29600
2020-07-16,8.329999923706055,8.489999771118164,8.300000190734863,8.369999885559082,6.4304280281066895,35400
2020-07-17,8.319999694824219,8.37600040435791,8.050000190734863,8.09000015258789,6.215312957763672,22200
2020-07-20,8.15999984741211,8.300000190734863,8.0600004196167,8.220000267028809,6.315187931060791,86200
2020-07-21,8.229999542236328,8.779999732971191,8.229999542236328,8.699999809265137,6.683958053588867,66100
2020-07-22,8.699999809265137,8.699999809265137,8.369999885559082,8.5,6.530303955078125,33700
2020-07-23,8.359999656677246,8.404999732971191,7.489999771118164,7.789999961853027,5.984830856323242,144300
2020-07-24,7.860000133514404,7.860000133514404,7.510000228881836,7.619999885559082,5.854225158691406,31100
2020-07-27,7.75,7.75,7.519999980926514,7.619999885559082,5.854225158691406,39300
2020-07-28,7.53000020980835,7.679999828338623,7.320000171661377,7.355000019073486,5.650633335113525,90000
2020-07-29,7.429999828338623,7.699999809265137,7.400000095367432,7.449999809265137,5.723618984222412,60800
2020-07-30,7.429999828338623,7.574999809265137,7.300000190734863,7.300000190734863,5.6083784103393555,43700
2020-07-31,7.260000228881836,7.380000114440918,7.179999828338623,7.179999828338623,5.516185760498047,27800
2020-08-03,7.179999828338623,7.46999979019165,7.070000171661377,7.400000095367432,5.685205936431885,32500
2020-08-04,7.400000095367432,7.570000171661377,7.400000095367432,7.480000019073486,5.746667385101318,28600
2020-08-05,7.545000076293945,7.71999979019165,7.460000038146973,7.650000095367432,5.8772735595703125,73500
2020-08-06,7.659999847412109,7.75,7.449999809265137,7.619999885559082,5.854225158691406,93300
2020-08-07,7.5,7.730000019073486,7.454999923706055,7.630000114440918,5.955698490142822,91800
2020-08-10,7.590000152587891,7.664999961853027,7.079999923706055,7.150000095367432,5.581027984619141,154200
2020-08-11,7.197000026702881,7.769999980926514,7.197000026702881,7.550000190734863,5.893253326416016,56000
2020-08-12,7.5,7.71999979019165,7.5,7.550000190734863,5.893253326416016,50000
2020-08-13,7.53000020980835,7.820000171661377,7.53000020980835,7.820000171661377,6.104005336761475,56000
2020-08-14,7.869999885559082,7.869999885559082,7.489999771118164,7.630000114440918,5.955698490142822,118400
2020-08-17,7.670000076293945,7.71999979019165,7.460000038146973,7.460000038146973,5.823002815246582,51800
2020-08-18,7.460000038146973,7.940000057220459,7.460000038146973,7.840000152587891,6.119616985321045,56600
2020-08-19,7.880000114440918,7.880000114440918,7.666999816894531,7.671000003814697,5.987701416015625,46600
2020-08-20,7.579999923706055,7.630000114440918,7.53000020980835,7.570000171661377,5.908864498138428,59000
2020-08-21,7.519999980926514,7.900000095367432,7.51200008392334,7.78000020980835,6.07278299331665,83700
2020-08-24,7.860000133514404,7.860000133514404,7.670000076293945,7.760000228881836,6.057171821594238,16400
2020-08-25,7.75,7.849999904632568,7.559999942779541,7.710000038146973,6.018143653869629,34900
2020-08-26,7.769999980926514,7.809999942779541,7.478000164031982,7.590000152587891,5.924476146697998,57400
2020-08-27,7.489999771118164,7.671999931335449,7.380000114440918,7.429999828338623,5.799585819244385,76900
2020-08-28,7.449999809265137,7.809999942779541,7.369999885559082,7.690000057220459,6.002532005310059,91300
2020-08-31,7.630000114440918,7.760000228881836,7.579999923706055,7.760000228881836,6.057171821594238,48400
2020-09-01,7.78000020980835,7.920000076293945,7.539999961853027,7.570000171661377,5.908864498138428,57200
2020-09-02,7.199999809265137,7.199999809265137,6.809999942779541,6.824999809265137,5.32734489440918,77300
2020-09-03,6.800000190734863,6.824999809265137,6.599999904632568,6.599999904632568,5.1517181396484375,48900
2020-09-04,6.550000190734863,6.71999979019165,6.510000228881836,6.550000190734863,5.112689971923828,35700
2020-09-08,6.480000019073486,6.730000019073486,6.480000019073486,6.630000114440918,5.175135135650635,12900
2020-09-09,6.619999885559082,6.730999946594238,6.599999904632568,6.659999847412109,5.198551654815674,15400
2020-09-10,6.650000095367432,6.769999980926514,6.5,6.5,5.073661804199219,23300
2020-09-11,6.550000190734863,6.644999980926514,6.550000190734863,6.570000171661377,5.12830114364624,16100
2020-09-14,6.619999885559082,6.736000061035156,6.605999946594238,6.650000095367432,5.190746307373047,5200
2020-09-15,6.735000133514404,6.760000228881836,6.599999904632568,6.599999904632568,5.1517181396484375,16400
2020-09-16,6.639999866485596,6.920000076293945,6.635000228881836,6.920000076293945,5.401498317718506,9600
2020-09-17,6.809999942779541,6.809999942779541,6.639999866485596,6.75,5.268802642822266,13000
2020-09-18,6.710000038146973,6.744999885559082,6.599999904632568,6.599999904632568,5.1517181396484375,16500
2020-09-21,6.579999923706055,6.630000114440918,6.510000228881836,6.610000133514404,5.159523963928223,23700
2020-09-22,6.559999942779541,7.0,6.510000228881836,7.0,5.4639434814453125,57900
2020-09-23,6.929999828338623,7.260000228881836,6.849999904632568,7.150000095367432,5.581027984619141,48200
2020-09-24,7.039999961853027,7.065000057220459,6.690000057220459,6.829999923706055,5.331247806549072,33100
2020-09-25,6.699999809265137,7.050000190734863,6.650000095367432,6.789999961853027,5.30002498626709,26200
2020-09-28,6.869999885559082,6.960000038146973,6.829999923706055,6.889999866485596,5.378081321716309,8700
2020-09-29,6.809999942779541,7.010000228881836,6.75,6.769999980926514,5.284413814544678,12500
2020-09-30,6.78000020980835,6.909999847412109,6.179999828338623,6.389999866485596,4.987799644470215,72100
2020-10-01,6.369999885559082,6.639999866485596,6.330999851226807,6.5920000076293945,5.145473480224609,82200
2020-10-02,6.546999931335449,6.679999828338623,6.429999828338623,6.579999923706055,5.136106967926025,34000
2020-10-05,6.679999828338623,6.710000038146973,6.570000171661377,6.570000171661377,5.12830114364624,28900
2020-10-06,6.670000076293945,6.670000076293945,6.510000228881836,6.510000228881836,5.081467628479004,48000
2020-10-07,6.519999980926514,6.699999809265137,6.03000020980835,6.03000020980835,4.706797122955322,69900
2020-10-08,6.199999809265137,6.590000152587891,6.199999809265137,6.525000095367432,5.093175888061523,30800
2020-10-09,6.429999828338623,6.629000186920166,6.309999942779541,6.489999771118164,5.065855979919434,63200
2020-10-12,6.449999809265137,6.625,6.360000133514404,6.449999809265137,5.034633636474609,34100
2020-10-13,6.449999809265137,6.59499979019165,6.369999885559082,6.510000228881836,5.081467628479004,18100
2020-10-14,6.690000057220459,6.78000020980835,6.46999979019165,6.550000190734863,5.112689971923828,34900
2020-10-15,6.480000019073486,6.639999866485596,6.400000095367432,6.460000038146973,5.0424394607543945,24300
2020-10-16,6.550000190734863,6.639999866485596,6.460000038146973,6.539999961853027,5.104884147644043,21100
2020-10-19,6.5,6.583000183105469,6.4120001792907715,6.46999979019165,5.0502448081970215,30600
2020-10-20,6.429999828338623,6.559999942779541,6.400000095367432,6.53000020980835,5.097078800201416,23400
2020-10-21,6.550000190734863,6.605000019073486,6.329999923706055,6.400000095367432,4.99560546875,19300
2020-10-22,6.449999809265137,6.559999942779541,6.360000133514404,6.389999866485596,4.987799644470215,13600
2020-10-23,6.440000057220459,6.510000228881836,6.300000190734863,6.480000019073486,5.058050632476807,30400
2020-10-26,6.340000152587891,6.369999885559082,6.269999980926514,6.309999942779541,4.925354957580566,4200
2020-10-27,6.53000020980835,6.53000020980835,6.329999923706055,6.389999866485596,4.987799644470215,5600
2020-10-28,6.340000152587891,6.340000152587891,6.099999904632568,6.329999923706055,4.9409661293029785,17000
2020-10-29,6.329999923706055,6.360000133514404,6.300000190734863,6.329999923706055,4.9409661293029785,2800
2020-10-30,6.408999919891357,6.408999919891357,6.130000114440918,6.170000076293945,4.816075801849365,8600
2020-11-02,6.170000076293945,6.409999847412109,6.170000076293945,6.25,4.878520965576172,9200
2020-11-03,6.260000228881836,6.429999828338623,6.210000038146973,6.429999828338623,5.019022464752197,16400
2020-11-04,6.329999923706055,6.349999904632568,6.260000228881836,6.269999980926514,4.894132137298584,6000
2020-11-05,6.340000152587891,6.340000152587891,6.230000019073486,6.28000020980835,4.901937961578369,21300
2020-11-06,6.25,6.36299991607666,6.215000152587891,6.21999979019165,4.855103969573975,10400
2020-11-09,6.360000133514404,6.485000133514404,6.360000133514404,6.460000038146973,5.0424394607543945,7000
2020-11-10,6.400000095367432,6.5,6.360000133514404,6.460000038146973,5.0424394607543945,6100
2020-11-11,6.5,6.828000068664551,6.5,6.5,5.073661804199219,36100
2020-11-12,6.599999904632568,6.855000019073486,6.239999771118164,6.239999771118164,4.870715141296387,43200
2020-11-13,6.239999771118164,6.409999847412109,6.239999771118164,6.40500020980835,4.999508380889893,11100
2020-11-16,6.409999847412109,6.554999828338623,6.260000228881836,6.539999961853027,5.104884147644043,19600
2020-11-17,6.360000133514404,6.5,6.289999961853027,6.440000057220459,5.026827812194824,34800
2020-11-18,6.480000019073486,6.800000190734863,6.300000190734863,6.619999885559082,5.16732931137085,23300
2020-11-19,6.650000095367432,6.650000095367432,6.369999885559082,6.5,5.073661804199219,12600
2020-11-20,6.559999942779541,6.630000114440918,6.449999809265137,6.46999979019165,5.0502448081970215,13000
2020-11-23,6.5,6.559999942779541,6.369999885559082,6.559999942779541,5.120495796203613,9100
2020-11-24,6.539999961853027,6.5980000495910645,6.380000114440918,6.5,5.073661804199219,11200
2020-11-25,6.679999828338623,6.679999828338623,6.420000076293945,6.579999923706055,5.136106967926025,18300
2020-11-27,6.659999847412109,6.659999847412109,6.539999961853027,6.630000114440918,5.175135135650635,9000
2020-11-30,6.630000114440918,6.630000114440918,6.420000076293945,6.460000038146973,5.0424394607543945,21200
2020-12-01,6.53000020980835,6.53000020980835,6.269999980926514,6.349999904632568,4.956577301025391,41100
2020-12-02,6.400000095367432,6.400000095367432,6.010000228881836,6.099999904632568,4.761436462402344,67200
2020-12-03,6.099999904632568,6.150000095367432,5.909999847412109,6.150000095367432,4.800464630126953,72800
2020-12-04,6.110000133514404,6.190000057220459,6.070000171661377,6.110000133514404,4.769242286682129,16900
2020-12-07,6.130000114440918,6.199999809265137,6.130000114440918,6.196000099182129,4.836370468139648,4500
2020-12-08,6.210000038146973,6.260000228881836,6.0,6.0,4.683380126953125,42900
2020-12-09,6.0,6.190000057220459,6.0,6.090000152587891,4.753631114959717,5800
2020-12-10,6.090000152587891,6.239999771118164,6.039999961853027,6.119999885559082,4.777047634124756,14400
2020-12-11,6.139999866485596,6.25,6.130000114440918,6.25,4.878520965576172,20200
2020-12-14,6.25,6.340000152587891,6.079999923706055,6.079999923706055,4.745825290679932,9500
2020-12-15,6.199999809265137,6.199999809265137,6.03000020980835,6.099999904632568,4.761436462402344,22100
2020-12-16,6.079999923706055,6.170000076293945,6.059999942779541,6.079999923706055,4.745825290679932,23900
2020-12-17,6.159999847412109,6.260000228881836,6.010000228881836,6.010000228881836,4.69118595123291,24000
2020-12-18,6.079999923706055,6.260000228881836,6.010000228881836,6.150000095367432,4.800464630126953,23000
2020-12-21,6.03000020980835,6.119999885559082,6.019999980926514,6.119999885559082,4.777047634124756,9700
2020-12-22,6.119999885559082,6.119999885559082,5.889999866485596,6.0,4.683380126953125,19600
2020-12-23,6.010000228881836,6.079999923706055,5.900000095367432,5.900000095367432,4.605323791503906,53700
2020-12-24,5.869999885559082,6.0,5.673999786376953,5.840000152587891,4.55849027633667,7400
2020-12-28,5.829999923706055,6.0,5.817999839782715,5.960000038146973,4.652157783508301,11300
2020-12-29,5.900000095367432,5.96999979019165,5.809999942779541,5.900000095367432,4.605323791503906,2900
2020-12-30,5.900000095367432,5.980000019073486,5.840000152587891,5.840000152587891,4.55849027633667,12600
