Date,Open,High,Low,Close,Adj Close,Volume
2018-03-26,9.680000305175781,9.680000305175781,9.680000305175781,9.680000305175781,9.680000305175781,362200
2018-03-27,9.6899995803833,9.75,9.6899995803833,9.75,9.75,5100
2018-03-28,9.699999809265137,9.789999961853027,9.684000015258789,9.789999961853027,9.789999961853027,32800
2018-03-29,9.6899995803833,9.690999984741211,9.6899995803833,9.690999984741211,9.690999984741211,1000
2018-04-02,9.680000305175781,9.680000305175781,9.680000305175781,9.680000305175781,9.680000305175781,401000
2018-04-03,9.680000305175781,9.699999809265137,9.680000305175781,9.699999809265137,9.699999809265137,481400
2018-04-04,9.699999809265137,9.699999809265137,9.699999809265137,9.699999809265137,9.699999809265137,0
2018-04-05,9.699999809265137,9.699999809265137,9.699999809265137,9.699999809265137,9.699999809265137,0
2018-04-06,9.880000114440918,9.880000114440918,9.880000114440918,9.880000114440918,9.880000114440918,900
2018-04-09,9.850000381469727,9.850000381469727,9.699999809265137,9.699999809265137,9.699999809265137,3300
2018-04-10,9.699999809265137,9.699999809265137,9.6899995803833,9.6899995803833,9.6899995803833,132300
2018-04-11,9.6899995803833,9.6899995803833,9.6899995803833,9.6899995803833,9.6899995803833,0
2018-04-12,9.6899995803833,9.869999885559082,9.670000076293945,9.680000305175781,9.680000305175781,560500
2018-04-13,9.680000305175781,9.680000305175781,9.680000305175781,9.680000305175781,9.680000305175781,0
2018-04-16,9.680000305175781,9.680000305175781,9.680000305175781,9.680000305175781,9.680000305175781,0
2018-04-17,9.680000305175781,9.680000305175781,9.680000305175781,9.680000305175781,9.680000305175781,0
2018-04-18,9.680000305175781,9.680000305175781,9.680000305175781,9.680000305175781,9.680000305175781,0
2018-04-19,9.680000305175781,9.680000305175781,9.680000305175781,9.680000305175781,9.680000305175781,0
2018-04-20,9.680000305175781,9.680000305175781,9.680000305175781,9.680000305175781,9.680000305175781,0
2018-04-23,9.680000305175781,9.680000305175781,9.680000305175781,9.680000305175781,9.680000305175781,0
2018-04-24,9.680000305175781,9.680000305175781,9.680000305175781,9.680000305175781,9.680000305175781,0
2018-04-25,9.680000305175781,9.680000305175781,9.680000305175781,9.680000305175781,9.680000305175781,0
2018-04-26,9.680000305175781,9.6899995803833,9.680000305175781,9.6899995803833,9.6899995803833,3300
2018-04-27,9.6899995803833,9.6899995803833,9.6899995803833,9.6899995803833,9.6899995803833,0
2018-04-30,9.720000267028809,9.720000267028809,9.680000305175781,9.680000305175781,9.680000305175781,24800
2018-05-01,9.699999809265137,9.699999809265137,9.699999809265137,9.699999809265137,9.699999809265137,1000
2018-05-02,9.680000305175781,9.710000038146973,9.670000076293945,9.710000038146973,9.710000038146973,2400
2018-05-03,9.710000038146973,9.710000038146973,9.710000038146973,9.710000038146973,9.710000038146973,0
2018-05-04,9.970000267028809,9.979999542236328,9.75,9.75,9.75,500
2018-05-07,9.6899995803833,9.6899995803833,9.680000305175781,9.6899995803833,9.6899995803833,500
2018-05-08,9.6899995803833,9.6899995803833,9.6899995803833,9.6899995803833,9.6899995803833,0
2018-05-09,9.6899995803833,9.6899995803833,9.6899995803833,9.6899995803833,9.6899995803833,60100
2018-05-10,9.6899995803833,9.6899995803833,9.6899995803833,9.6899995803833,9.6899995803833,0
2018-05-11,9.6899995803833,9.6899995803833,9.6899995803833,9.6899995803833,9.6899995803833,0
2018-05-14,9.720000267028809,9.720000267028809,9.699999809265137,9.720000267028809,9.720000267028809,500
2018-05-15,9.720000267028809,9.720000267028809,9.720000267028809,9.720000267028809,9.720000267028809,517800
2018-05-16,9.720000267028809,9.720000267028809,9.720000267028809,9.720000267028809,9.720000267028809,0
2018-05-17,9.710000038146973,9.75,9.670000076293945,9.694000244140625,9.694000244140625,59200
2018-05-18,9.694000244140625,9.694000244140625,9.694000244140625,9.694000244140625,9.694000244140625,0
2018-05-21,9.694000244140625,9.694000244140625,9.694000244140625,9.694000244140625,9.694000244140625,0
2018-05-22,9.694000244140625,9.694000244140625,9.694000244140625,9.694000244140625,9.694000244140625,0
2018-05-23,9.694000244140625,9.694000244140625,9.694000244140625,9.694000244140625,9.694000244140625,0
2018-05-24,9.6899995803833,9.6899995803833,9.6899995803833,9.6899995803833,9.6899995803833,700
2018-05-25,9.6899995803833,9.6899995803833,9.6899995803833,9.6899995803833,9.6899995803833,0
2018-05-29,9.65999984741211,9.720000267028809,9.65999984741211,9.6899995803833,9.6899995803833,1000
2018-05-30,9.699999809265137,9.699999809265137,9.699999809265137,9.699999809265137,9.699999809265137,1200
2018-05-31,9.706000328063965,9.710000038146973,9.706000328063965,9.710000038146973,9.710000038146973,1800
2018-06-01,9.710000038146973,9.710000038146973,9.710000038146973,9.710000038146973,9.710000038146973,0
2018-06-04,9.710000038146973,9.710000038146973,9.710000038146973,9.710000038146973,9.710000038146973,0
2018-06-05,9.710000038146973,9.720000267028809,9.710000038146973,9.720000267028809,9.720000267028809,1100
2018-06-06,9.717000007629395,9.720000267028809,9.717000007629395,9.720000267028809,9.720000267028809,800
2018-06-07,9.699999809265137,9.699999809265137,9.699999809265137,9.699999809265137,9.699999809265137,300000
2018-06-08,9.699999809265137,9.699999809265137,9.699999809265137,9.699999809265137,9.699999809265137,0
2018-06-11,9.699999809265137,9.699999809265137,9.699999809265137,9.699999809265137,9.699999809265137,0
2018-06-12,9.699999809265137,9.699999809265137,9.699999809265137,9.699999809265137,9.699999809265137,0
2018-06-13,9.699999809265137,9.699999809265137,9.699999809265137,9.699999809265137,9.699999809265137,0
2018-06-14,9.699999809265137,9.699999809265137,9.699999809265137,9.699999809265137,9.699999809265137,0
2018-06-15,9.699999809265137,9.699999809265137,9.699999809265137,9.699999809265137,9.699999809265137,0
2018-06-18,9.699999809265137,9.699999809265137,9.699999809265137,9.699999809265137,9.699999809265137,0
2018-06-19,9.699999809265137,9.699999809265137,9.699999809265137,9.699999809265137,9.699999809265137,0
2018-06-20,9.699999809265137,9.699999809265137,9.699999809265137,9.699999809265137,9.699999809265137,0
2018-06-21,9.699999809265137,9.699999809265137,9.699999809265137,9.699999809265137,9.699999809265137,0
2018-06-22,9.699999809265137,9.699999809265137,9.699999809265137,9.699999809265137,9.699999809265137,60100
2018-06-25,9.699999809265137,9.699999809265137,9.699999809265137,9.699999809265137,9.699999809265137,0
2018-06-26,9.699999809265137,9.699999809265137,9.699999809265137,9.699999809265137,9.699999809265137,0
2018-06-27,9.699999809265137,9.699999809265137,9.699999809265137,9.699999809265137,9.699999809265137,0
2018-06-28,9.699999809265137,9.699999809265137,9.699999809265137,9.699999809265137,9.699999809265137,0
2018-06-29,9.699999809265137,9.699999809265137,9.699999809265137,9.699999809265137,9.699999809265137,0
2018-07-02,9.699999809265137,9.699999809265137,9.699999809265137,9.699999809265137,9.699999809265137,0
2018-07-03,9.729999542236328,9.729999542236328,9.729999542236328,9.729999542236328,9.729999542236328,150000
2018-07-05,9.729999542236328,9.729999542236328,9.729999542236328,9.729999542236328,9.729999542236328,0
2018-07-06,9.729999542236328,9.729999542236328,9.729999542236328,9.729999542236328,9.729999542236328,0
2018-07-09,9.729999542236328,9.729999542236328,9.729999542236328,9.729999542236328,9.729999542236328,0
2018-07-10,9.770000457763672,9.770000457763672,9.760000228881836,9.760000228881836,9.760000228881836,151000
2018-07-11,9.760000228881836,9.760000228881836,9.760000228881836,9.760000228881836,9.760000228881836,0
2018-07-12,9.760000228881836,9.760000228881836,9.760000228881836,9.760000228881836,9.760000228881836,0
2018-07-13,9.760000228881836,9.760000228881836,9.760000228881836,9.760000228881836,9.760000228881836,0
2018-07-16,9.760000228881836,9.760000228881836,9.760000228881836,9.760000228881836,9.760000228881836,0
2018-07-17,9.760000228881836,9.760000228881836,9.760000228881836,9.760000228881836,9.760000228881836,0
2018-07-18,9.760000228881836,9.760000228881836,9.760000228881836,9.760000228881836,9.760000228881836,0
2018-07-19,9.760000228881836,9.760000228881836,9.760000228881836,9.760000228881836,9.760000228881836,0
2018-07-20,9.760000228881836,9.760000228881836,9.760000228881836,9.760000228881836,9.760000228881836,0
2018-07-23,9.760000228881836,9.760000228881836,9.760000228881836,9.760000228881836,9.760000228881836,0
2018-07-24,9.760000228881836,9.760000228881836,9.760000228881836,9.760000228881836,9.760000228881836,0
2018-07-25,9.760000228881836,9.760000228881836,9.760000228881836,9.760000228881836,9.760000228881836,0
2018-07-26,9.720000267028809,9.739999771118164,9.720000267028809,9.739999771118164,9.739999771118164,100300
2018-07-27,9.739999771118164,9.739999771118164,9.739999771118164,9.739999771118164,9.739999771118164,0
2018-07-30,9.739999771118164,9.739999771118164,9.739999771118164,9.739999771118164,9.739999771118164,0
2018-07-31,9.770000457763672,9.770000457763672,9.770000457763672,9.770000457763672,9.770000457763672,4500
2018-08-01,9.770000457763672,9.770000457763672,9.770000457763672,9.770000457763672,9.770000457763672,0
2018-08-02,9.770000457763672,9.770000457763672,9.770000457763672,9.770000457763672,9.770000457763672,0
2018-08-03,9.770000457763672,9.770000457763672,9.770000457763672,9.770000457763672,9.770000457763672,0
2018-08-06,9.770000457763672,9.779999732971191,9.770000457763672,9.770000457763672,9.770000457763672,209200
2018-08-07,9.779999732971191,9.779999732971191,9.779999732971191,9.779999732971191,9.779999732971191,13600
2018-08-08,9.779999732971191,9.779999732971191,9.779999732971191,9.779999732971191,9.779999732971191,300
2018-08-09,9.779999732971191,9.800000190734863,9.779999732971191,9.779999732971191,9.779999732971191,181900
2018-08-10,9.789999961853027,9.789999961853027,9.779999732971191,9.779999732971191,9.779999732971191,20000
2018-08-13,9.779999732971191,9.779999732971191,9.779999732971191,9.779999732971191,9.779999732971191,0
2018-08-14,9.770000457763672,9.800000190734863,9.760000228881836,9.800000190734863,9.800000190734863,110100
2018-08-15,9.800000190734863,9.800000190734863,9.800000190734863,9.800000190734863,9.800000190734863,0
2018-08-16,9.800000190734863,9.800000190734863,9.800000190734863,9.800000190734863,9.800000190734863,0
2018-08-17,9.800000190734863,9.800000190734863,9.800000190734863,9.800000190734863,9.800000190734863,0
2018-08-20,9.800000190734863,9.800000190734863,9.800000190734863,9.800000190734863,9.800000190734863,0
2018-08-21,9.800000190734863,9.800000190734863,9.800000190734863,9.800000190734863,9.800000190734863,0
2018-08-22,9.770000457763672,9.770000457763672,9.770000457763672,9.770000457763672,9.770000457763672,1800
2018-08-23,9.75,9.819999694824219,9.699999809265137,9.819999694824219,9.819999694824219,115300
2018-08-24,9.84000015258789,9.84000015258789,9.710000038146973,9.800000190734863,9.800000190734863,2000
2018-08-27,9.800000190734863,9.850000381469727,9.800000190734863,9.850000381469727,9.850000381469727,2800
2018-08-28,9.800000190734863,9.829999923706055,9.779999732971191,9.819999694824219,9.819999694824219,5800
2018-08-29,9.819999694824219,9.819999694824219,9.819999694824219,9.819999694824219,9.819999694824219,0
2018-08-30,9.819999694824219,9.819999694824219,9.819999694824219,9.819999694824219,9.819999694824219,0
2018-08-31,9.819999694824219,9.819999694824219,9.819999694824219,9.819999694824219,9.819999694824219,0
2018-09-04,9.819999694824219,9.819999694824219,9.819999694824219,9.819999694824219,9.819999694824219,0
2018-09-05,9.819999694824219,9.819999694824219,9.819999694824219,9.819999694824219,9.819999694824219,0
2018-09-06,9.819999694824219,9.819999694824219,9.819999694824219,9.819999694824219,9.819999694824219,0
2018-09-07,9.819999694824219,9.819999694824219,9.819999694824219,9.819999694824219,9.819999694824219,0
2018-09-10,9.819999694824219,9.819999694824219,9.819999694824219,9.819999694824219,9.819999694824219,0
2018-09-11,9.819999694824219,9.819999694824219,9.819999694824219,9.819999694824219,9.819999694824219,0
2018-09-12,9.819999694824219,9.819999694824219,9.819999694824219,9.819999694824219,9.819999694824219,10000
2018-09-13,9.819999694824219,9.819999694824219,9.819999694824219,9.819999694824219,9.819999694824219,0
2018-09-14,9.819999694824219,9.819999694824219,9.819999694824219,9.819999694824219,9.819999694824219,0
2018-09-17,9.819999694824219,9.819999694824219,9.819999694824219,9.819999694824219,9.819999694824219,0
2018-09-18,9.819999694824219,9.819999694824219,9.819999694824219,9.819999694824219,9.819999694824219,0
2018-09-19,9.819999694824219,9.819999694824219,9.819999694824219,9.819999694824219,9.819999694824219,0
2018-09-20,9.8100004196167,9.8100004196167,9.699999809265137,9.800000190734863,9.800000190734863,31200
2018-09-21,9.800000190734863,9.800000190734863,9.800000190734863,9.800000190734863,9.800000190734863,100
2018-09-24,9.805000305175781,9.819999694824219,9.805000305175781,9.819999694824219,9.819999694824219,3100
2018-09-25,9.819999694824219,9.819999694824219,9.819999694824219,9.819999694824219,9.819999694824219,0
2018-09-26,9.819999694824219,9.819999694824219,9.819999694824219,9.819999694824219,9.819999694824219,0
2018-09-27,9.819999694824219,9.819999694824219,9.819999694824219,9.819999694824219,9.819999694824219,0
2018-09-28,9.850000381469727,9.850000381469727,9.850000381469727,9.850000381469727,9.850000381469727,200
2018-10-01,9.850000381469727,9.850000381469727,9.850000381469727,9.850000381469727,9.850000381469727,100
2018-10-02,9.850000381469727,9.850000381469727,9.850000381469727,9.850000381469727,9.850000381469727,0
2018-10-03,9.829999923706055,9.850000381469727,9.829999923706055,9.850000381469727,9.850000381469727,1300
2018-10-04,9.829999923706055,9.829999923706055,9.829999923706055,9.829999923706055,9.829999923706055,500
2018-10-05,9.829999923706055,9.829999923706055,9.829999923706055,9.829999923706055,9.829999923706055,0
2018-10-08,9.829999923706055,9.829999923706055,9.829999923706055,9.829999923706055,9.829999923706055,0
2018-10-09,9.829999923706055,9.829999923706055,9.829999923706055,9.829999923706055,9.829999923706055,0
2018-10-10,9.829999923706055,9.829999923706055,9.829999923706055,9.829999923706055,9.829999923706055,0
2018-10-11,9.829999923706055,9.829999923706055,9.829999923706055,9.829999923706055,9.829999923706055,0
2018-10-12,9.829999923706055,9.829999923706055,9.829999923706055,9.829999923706055,9.829999923706055,0
2018-10-15,9.829999923706055,9.829999923706055,9.829999923706055,9.829999923706055,9.829999923706055,0
2018-10-16,9.829999923706055,9.829999923706055,9.829999923706055,9.829999923706055,9.829999923706055,0
2018-10-17,9.829999923706055,9.829999923706055,9.829999923706055,9.829999923706055,9.829999923706055,0
2018-10-18,9.829999923706055,9.829999923706055,9.829999923706055,9.829999923706055,9.829999923706055,0
2018-10-19,9.829999923706055,9.829999923706055,9.829999923706055,9.829999923706055,9.829999923706055,0
2018-10-22,9.829999923706055,9.829999923706055,9.829999923706055,9.829999923706055,9.829999923706055,0
2018-10-23,9.8100004196167,9.829999923706055,9.8100004196167,9.819999694824219,9.819999694824219,104500
2018-10-24,9.8100004196167,9.819999694824219,9.8100004196167,9.819999694824219,9.819999694824219,202000
2018-10-25,9.819999694824219,9.819999694824219,9.819999694824219,9.819999694824219,9.819999694824219,0
2018-10-26,9.819999694824219,9.819999694824219,9.819999694824219,9.819999694824219,9.819999694824219,0
2018-10-29,9.819999694824219,9.819999694824219,9.819999694824219,9.819999694824219,9.819999694824219,0
2018-10-30,9.829999923706055,9.829999923706055,9.829999923706055,9.829999923706055,9.829999923706055,1000
2018-10-31,9.829999923706055,9.899999618530273,9.829999923706055,9.899999618530273,9.899999618530273,95500
2018-11-01,9.880000114440918,9.880000114440918,9.880000114440918,9.880000114440918,9.880000114440918,200
2018-11-02,9.880000114440918,9.880000114440918,9.880000114440918,9.880000114440918,9.880000114440918,0
2018-11-05,9.890000343322754,9.890000343322754,9.890000343322754,9.890000343322754,9.890000343322754,1000
2018-11-06,9.899999618530273,9.899999618530273,9.880000114440918,9.880000114440918,9.880000114440918,1400
2018-11-07,9.880000114440918,9.880000114440918,9.880000114440918,9.880000114440918,9.880000114440918,0
2018-11-08,9.890000343322754,9.890000343322754,9.890000343322754,9.890000343322754,9.890000343322754,200
2018-11-09,9.890000343322754,9.890000343322754,9.890000343322754,9.890000343322754,9.890000343322754,0
2018-11-12,9.890000343322754,9.890000343322754,9.890000343322754,9.890000343322754,9.890000343322754,0
2018-11-13,9.890000343322754,9.890000343322754,9.890000343322754,9.890000343322754,9.890000343322754,0
2018-11-14,9.899999618530273,9.899999618530273,9.899999618530273,9.899999618530273,9.899999618530273,6200
2018-11-15,9.90999984741211,9.90999984741211,9.90999984741211,9.90999984741211,9.90999984741211,1000
2018-11-16,9.90999984741211,9.90999984741211,9.90999984741211,9.90999984741211,9.90999984741211,0
2018-11-19,9.899999618530273,9.90999984741211,9.899999618530273,9.90999984741211,9.90999984741211,1200
2018-11-20,9.90999984741211,9.90999984741211,9.90999984741211,9.90999984741211,9.90999984741211,0
2018-11-21,9.90999984741211,9.90999984741211,9.90999984741211,9.90999984741211,9.90999984741211,0
2018-11-23,9.90999984741211,9.90999984741211,9.90999984741211,9.90999984741211,9.90999984741211,0
2018-11-26,9.90999984741211,9.930000305175781,9.300000190734863,9.930000305175781,9.930000305175781,86700
2018-11-27,9.920000076293945,9.920000076293945,9.920000076293945,9.920000076293945,9.920000076293945,300
2018-11-28,9.90999984741211,9.90999984741211,9.899999618530273,9.90999984741211,9.90999984741211,3400
2018-11-29,9.90999984741211,9.925000190734863,9.899999618530273,9.925000190734863,9.925000190734863,150700
2018-11-30,9.90999984741211,9.920000076293945,9.90999984741211,9.920000076293945,9.920000076293945,26800
2018-12-03,9.920000076293945,9.930000305175781,9.920000076293945,9.930000305175781,9.930000305175781,31300
2018-12-04,9.949999809265137,9.960000038146973,9.920000076293945,9.9399995803833,9.9399995803833,7300
2018-12-06,9.9399995803833,9.9399995803833,9.9399995803833,9.9399995803833,9.9399995803833,0
2018-12-07,9.920000076293945,9.920000076293945,9.920000076293945,9.920000076293945,9.920000076293945,200
2018-12-10,10.0,10.0,9.949999809265137,9.949999809265137,9.949999809265137,600
2018-12-11,9.9399995803833,9.9399995803833,9.9399995803833,9.9399995803833,9.9399995803833,500
2018-12-12,9.949999809265137,9.949999809265137,9.9399995803833,9.9399995803833,9.9399995803833,150300
2018-12-13,9.970000267028809,9.970000267028809,9.970000267028809,9.970000267028809,9.970000267028809,300
2018-12-14,9.970000267028809,9.970000267028809,9.970000267028809,9.970000267028809,9.970000267028809,0
2018-12-17,9.970000267028809,9.970000267028809,9.970000267028809,9.970000267028809,9.970000267028809,0
2018-12-18,9.970000267028809,9.970000267028809,9.970000267028809,9.970000267028809,9.970000267028809,0
2018-12-19,9.970000267028809,9.970000267028809,9.970000267028809,9.970000267028809,9.970000267028809,0
2018-12-20,9.9399995803833,9.9399995803833,9.9399995803833,9.9399995803833,9.9399995803833,2200
2018-12-21,9.9399995803833,9.9399995803833,9.9399995803833,9.9399995803833,9.9399995803833,0
2018-12-24,9.9399995803833,9.9399995803833,9.9399995803833,9.9399995803833,9.9399995803833,0
2018-12-26,9.9399995803833,9.9399995803833,9.9399995803833,9.9399995803833,9.9399995803833,0
2018-12-27,9.9399995803833,9.9399995803833,9.9399995803833,9.9399995803833,9.9399995803833,0
2018-12-28,9.944000244140625,9.949999809265137,9.944000244140625,9.949999809265137,9.949999809265137,2300
2018-12-31,9.949999809265137,9.949999809265137,9.899999618530273,9.930000305175781,9.930000305175781,1600
2019-01-02,9.949999809265137,9.970000267028809,9.949999809265137,9.970000267028809,9.970000267028809,26300
2019-01-03,9.970000267028809,9.989999771118164,9.970000267028809,9.989999771118164,9.989999771118164,26000
2019-01-04,9.970000267028809,9.970000267028809,9.970000267028809,9.970000267028809,9.970000267028809,1000
2019-01-07,9.989999771118164,9.989999771118164,9.979999542236328,9.979999542236328,9.979999542236328,800
2019-01-08,9.989999771118164,10.0,9.9399995803833,10.0,10.0,13300
2019-01-09,10.0,10.0,10.0,10.0,10.0,450000
2019-01-10,10.0,10.010000228881836,10.0,10.010000228881836,10.010000228881836,2000
2019-01-11,10.010000228881836,10.010000228881836,10.0,10.0,10.0,2000
2019-01-14,10.0,10.0,10.0,10.0,10.0,100
2019-01-15,10.0,10.0,10.0,10.0,10.0,0
2019-01-16,10.020000457763672,10.020000457763672,10.010000228881836,10.010000228881836,10.010000228881836,1600
2019-01-17,10.010000228881836,10.010000228881836,10.010000228881836,10.010000228881836,10.010000228881836,0
2019-01-18,10.029999732971191,10.050000190734863,10.029999732971191,10.050000190734863,10.050000190734863,110300
2019-01-22,10.032999992370605,10.032999992370605,10.032999992370605,10.032999992370605,10.032999992370605,1000
2019-01-23,10.032999992370605,10.032999992370605,10.032999992370605,10.032999992370605,10.032999992370605,0
2019-01-24,10.029999732971191,10.029999732971191,10.029999732971191,10.029999732971191,10.029999732971191,100
2019-01-25,10.039999961853027,10.07699966430664,10.039999961853027,10.07699966430664,10.07699966430664,1300
2019-01-28,10.069999694824219,10.100000381469727,10.069999694824219,10.09000015258789,10.09000015258789,48000
2019-01-29,10.079999923706055,10.09000015258789,10.079999923706055,10.09000015258789,10.09000015258789,400
2019-01-30,10.069999694824219,10.079999923706055,10.069999694824219,10.079999923706055,10.079999923706055,1200
2019-01-31,10.079999923706055,10.079999923706055,10.079999923706055,10.079999923706055,10.079999923706055,0
2019-02-01,10.100000381469727,10.100000381469727,10.100000381469727,10.100000381469727,10.100000381469727,200
2019-02-04,10.09000015258789,10.09000015258789,10.09000015258789,10.09000015258789,10.09000015258789,500
2019-02-05,10.09000015258789,10.09000015258789,10.09000015258789,10.09000015258789,10.09000015258789,0
2019-02-06,10.09000015258789,10.09000015258789,10.09000015258789,10.09000015258789,10.09000015258789,0
2019-02-07,10.09000015258789,10.09000015258789,10.09000015258789,10.09000015258789,10.09000015258789,0
2019-02-08,10.09000015258789,10.09000015258789,10.09000015258789,10.09000015258789,10.09000015258789,0
2019-02-11,10.069999694824219,10.069999694824219,10.069999694824219,10.069999694824219,10.069999694824219,300
2019-02-12,10.069999694824219,10.069999694824219,10.069999694824219,10.069999694824219,10.069999694824219,0
2019-02-13,10.079999923706055,10.109999656677246,10.079999923706055,10.109999656677246,10.109999656677246,3500
2019-02-14,10.100000381469727,10.100000381469727,10.100000381469727,10.100000381469727,10.100000381469727,15000
2019-02-15,10.109999656677246,10.119999885559082,10.109999656677246,10.119999885559082,10.119999885559082,11000
2019-02-19,10.119999885559082,10.119999885559082,10.119999885559082,10.119999885559082,10.119999885559082,0
2019-02-20,10.100000381469727,10.109999656677246,10.100000381469727,10.109999656677246,10.109999656677246,45000
2019-02-21,10.109999656677246,10.109999656677246,10.109999656677246,10.109999656677246,10.109999656677246,0
2019-02-22,10.130000114440918,10.130000114440918,10.109999656677246,10.109999656677246,10.109999656677246,65600
2019-02-25,10.149999618530273,10.149999618530273,10.149999618530273,10.149999618530273,10.149999618530273,100
2019-02-26,10.109999656677246,10.149999618530273,10.109999656677246,10.149999618530273,10.149999618530273,10400
2019-02-27,10.119999885559082,10.119999885559082,10.119999885559082,10.119999885559082,10.119999885559082,100
2019-02-28,10.119999885559082,10.119999885559082,10.119999885559082,10.119999885559082,10.119999885559082,0
2019-03-01,10.109999656677246,10.119999885559082,10.109999656677246,10.119999885559082,10.119999885559082,21300
2019-03-04,10.130000114440918,10.130000114440918,10.109999656677246,10.109999656677246,10.109999656677246,6200
2019-03-05,10.109999656677246,10.109999656677246,10.109999656677246,10.109999656677246,10.109999656677246,0
2019-03-06,10.119999885559082,10.149999618530273,10.119999885559082,10.140000343322754,10.140000343322754,193100
2019-03-07,10.140000343322754,10.140000343322754,10.140000343322754,10.140000343322754,10.140000343322754,100
2019-03-08,10.149999618530273,10.149999618530273,10.130000114440918,10.149999618530273,10.149999618530273,7900
2019-03-11,10.140000343322754,10.149999618530273,10.140000343322754,10.149999618530273,10.149999618530273,83100
2019-03-12,10.149999618530273,10.149999618530273,10.149999618530273,10.149999618530273,10.149999618530273,0
2019-03-13,10.149999618530273,10.149999618530273,10.149999618530273,10.149999618530273,10.149999618530273,0
2019-03-14,10.149999618530273,10.149999618530273,10.149999618530273,10.149999618530273,10.149999618530273,0
2019-03-15,10.149999618530273,10.149999618530273,10.149999618530273,10.149999618530273,10.149999618530273,0
2019-03-18,10.130000114440918,10.149999618530273,10.130000114440918,10.149999618530273,10.149999618530273,15000
2019-03-19,10.149999618530273,10.149999618530273,10.149999618530273,10.149999618530273,10.149999618530273,0
2019-03-20,10.140000343322754,10.140000343322754,10.140000343322754,10.140000343322754,10.140000343322754,26300
2019-03-21,10.140000343322754,10.140000343322754,10.140000343322754,10.140000343322754,10.140000343322754,0
2019-03-22,10.140000343322754,10.140000343322754,10.140000343322754,10.140000343322754,10.140000343322754,0
2019-03-25,10.149999618530273,10.149999618530273,10.130000114440918,10.130000114440918,10.130000114440918,1000
2019-03-26,10.130000114440918,10.130000114440918,10.130000114440918,10.130000114440918,10.130000114440918,0
2019-03-27,10.140000343322754,10.140000343322754,10.140000343322754,10.140000343322754,10.140000343322754,5000
2019-03-28,10.149999618530273,10.15999984741211,10.149999618530273,10.15999984741211,10.15999984741211,4100
2019-03-29,10.140000343322754,10.149999618530273,10.140000343322754,10.149999618530273,10.149999618530273,4100
2019-04-01,10.170000076293945,10.170000076293945,10.170000076293945,10.170000076293945,10.170000076293945,102000
2019-04-02,10.180000305175781,10.180000305175781,10.180000305175781,10.180000305175781,10.180000305175781,10000
2019-04-03,10.166000366210938,10.234999656677246,10.15999984741211,10.15999984741211,10.15999984741211,226000
2019-04-04,10.1899995803833,10.199999809265137,10.180000305175781,10.180000305175781,10.180000305175781,2900
2019-04-05,10.15999984741211,10.15999984741211,10.15999984741211,10.15999984741211,10.15999984741211,7800
2019-04-08,10.15999984741211,10.15999984741211,10.15999984741211,10.15999984741211,10.15999984741211,0
2019-04-09,10.15999984741211,10.199999809265137,10.15999984741211,10.1899995803833,10.1899995803833,1600
2019-04-10,10.1899995803833,10.1899995803833,10.1899995803833,10.1899995803833,10.1899995803833,0
2019-04-11,10.1899995803833,10.1899995803833,10.1899995803833,10.1899995803833,10.1899995803833,0
2019-04-12,10.1899995803833,10.1899995803833,10.1899995803833,10.1899995803833,10.1899995803833,0
2019-04-15,10.1899995803833,10.1899995803833,10.1899995803833,10.1899995803833,10.1899995803833,0
2019-04-16,10.1899995803833,10.1899995803833,10.1899995803833,10.1899995803833,10.1899995803833,0
2019-04-17,10.1899995803833,10.1899995803833,10.1899995803833,10.1899995803833,10.1899995803833,0
2019-04-18,10.1899995803833,10.1899995803833,10.1899995803833,10.1899995803833,10.1899995803833,0
2019-04-22,10.225000381469727,10.225000381469727,10.210000038146973,10.220000267028809,10.220000267028809,100700
2019-04-23,10.220000267028809,10.220000267028809,10.220000267028809,10.220000267028809,10.220000267028809,0
2019-04-24,10.220000267028809,10.220000267028809,10.220000267028809,10.220000267028809,10.220000267028809,0
2019-04-25,10.220000267028809,10.220000267028809,10.220000267028809,10.220000267028809,10.220000267028809,0
2019-04-26,10.220000267028809,10.220000267028809,10.220000267028809,10.220000267028809,10.220000267028809,0
2019-04-29,10.220000267028809,10.220000267028809,10.220000267028809,10.220000267028809,10.220000267028809,25000
2019-04-30,10.220000267028809,10.220000267028809,10.220000267028809,10.220000267028809,10.220000267028809,0
2019-05-01,10.220000267028809,10.220000267028809,10.220000267028809,10.220000267028809,10.220000267028809,0
2019-05-02,10.220000267028809,10.220000267028809,10.220000267028809,10.220000267028809,10.220000267028809,0
2019-05-03,10.220000267028809,10.220000267028809,10.220000267028809,10.220000267028809,10.220000267028809,0
2019-05-06,10.1899995803833,10.229999542236328,10.1899995803833,10.220000267028809,10.220000267028809,7200
2019-05-07,10.220000267028809,10.220000267028809,10.220000267028809,10.220000267028809,10.220000267028809,0
2019-05-08,10.220000267028809,10.220000267028809,10.220000267028809,10.220000267028809,10.220000267028809,0
2019-05-09,10.220000267028809,10.220000267028809,10.220000267028809,10.220000267028809,10.220000267028809,0
2019-05-10,10.220000267028809,10.220000267028809,10.220000267028809,10.220000267028809,10.220000267028809,0
2019-05-13,10.229999542236328,10.229999542236328,10.229999542236328,10.229999542236328,10.229999542236328,100
2019-05-14,10.229999542236328,10.229999542236328,10.229999542236328,10.229999542236328,10.229999542236328,0
2019-05-15,10.229999542236328,10.229999542236328,10.220000267028809,10.229999542236328,10.229999542236328,28900
2019-05-16,10.229999542236328,10.229999542236328,10.229999542236328,10.229999542236328,10.229999542236328,0
2019-05-17,10.229999542236328,10.229999542236328,10.229999542236328,10.229999542236328,10.229999542236328,0
2019-05-20,10.239999771118164,10.239999771118164,10.239999771118164,10.239999771118164,10.239999771118164,100
2019-05-21,10.239999771118164,10.239999771118164,10.239999771118164,10.239999771118164,10.239999771118164,0
2019-05-22,10.239999771118164,10.239999771118164,10.239999771118164,10.239999771118164,10.239999771118164,0
2019-05-23,10.239999771118164,10.239999771118164,10.239999771118164,10.239999771118164,10.239999771118164,0
2019-05-24,10.239999771118164,10.239999771118164,10.239999771118164,10.239999771118164,10.239999771118164,0
2019-05-28,10.239999771118164,10.239999771118164,10.239999771118164,10.239999771118164,10.239999771118164,0
2019-05-29,10.239999771118164,10.239999771118164,10.239999771118164,10.239999771118164,10.239999771118164,1000
2019-05-30,10.239999771118164,10.239999771118164,10.239999771118164,10.239999771118164,10.239999771118164,0
2019-05-31,10.239999771118164,10.239999771118164,10.239999771118164,10.239999771118164,10.239999771118164,200
2019-06-03,10.239999771118164,10.239999771118164,10.239999771118164,10.239999771118164,10.239999771118164,0
2019-06-04,10.239999771118164,10.239999771118164,10.239999771118164,10.239999771118164,10.239999771118164,1800
2019-06-05,10.239999771118164,10.239999771118164,10.239999771118164,10.239999771118164,10.239999771118164,0
2019-06-06,10.25,10.25,10.25,10.25,10.25,5000
2019-06-07,10.260000228881836,10.279999732971191,10.25,10.25,10.25,30700
2019-06-10,10.260000228881836,10.260000228881836,10.25,10.255999565124512,10.255999565124512,2300
2019-06-11,10.260000228881836,10.279999732971191,10.25,10.260000228881836,10.260000228881836,309600
2019-06-12,10.260000228881836,10.279999732971191,10.260000228881836,10.270000457763672,10.270000457763672,509000
2019-06-13,10.300000190734863,10.300000190734863,10.300000190734863,10.300000190734863,10.300000190734863,4800
2019-06-14,10.300000190734863,10.300000190734863,10.300000190734863,10.300000190734863,10.300000190734863,0
2019-06-17,10.300000190734863,10.300000190734863,10.289999961853027,10.300000190734863,10.300000190734863,11200
2019-06-18,10.300000190734863,10.300000190734863,10.300000190734863,10.300000190734863,10.300000190734863,0
2019-06-19,10.300000190734863,10.300000190734863,10.300000190734863,10.300000190734863,10.300000190734863,0
2019-06-20,10.300000190734863,10.300000190734863,10.300000190734863,10.300000190734863,10.300000190734863,0
2019-06-21,10.300000190734863,10.300000190734863,10.300000190734863,10.300000190734863,10.300000190734863,0
2019-06-24,10.300000190734863,10.300000190734863,10.300000190734863,10.300000190734863,10.300000190734863,0
2019-06-25,10.300000190734863,10.350000381469727,10.260000228881836,10.300000190734863,10.300000190734863,2400
2019-06-26,10.300000190734863,10.300000190734863,10.300000190734863,10.300000190734863,10.300000190734863,0
2019-06-27,10.300000190734863,10.300000190734863,10.300000190734863,10.300000190734863,10.300000190734863,0
2019-06-28,10.300000190734863,10.300000190734863,10.300000190734863,10.300000190734863,10.300000190734863,0
2019-07-01,10.300000190734863,10.300000190734863,10.300000190734863,10.300000190734863,10.300000190734863,0
2019-07-02,10.300000190734863,10.300000190734863,10.300000190734863,10.300000190734863,10.300000190734863,0
2019-07-03,10.350000381469727,10.350000381469727,10.350000381469727,10.350000381469727,10.350000381469727,1100
2019-07-05,10.350000381469727,10.350000381469727,10.350000381469727,10.350000381469727,10.350000381469727,0
2019-07-08,10.350000381469727,10.350000381469727,10.350000381469727,10.350000381469727,10.350000381469727,0
2019-07-09,10.350000381469727,10.350000381469727,10.350000381469727,10.350000381469727,10.350000381469727,0
2019-07-10,10.300000190734863,10.399999618530273,10.300000190734863,10.350000381469727,10.350000381469727,90800
2019-07-11,10.300000190734863,10.350000381469727,10.300000190734863,10.350000381469727,10.350000381469727,153300
2019-07-12,10.300000190734863,10.300000190734863,10.300000190734863,10.300000190734863,10.300000190734863,1200
2019-07-15,10.3100004196167,10.319999694824219,10.300000190734863,10.319999694824219,10.319999694824219,277300
2019-07-16,10.319999694824219,10.319999694824219,10.319999694824219,10.319999694824219,10.319999694824219,0
2019-07-17,10.319999694824219,10.319999694824219,10.319999694824219,10.319999694824219,10.319999694824219,0
2019-07-18,10.319999694824219,10.319999694824219,10.319999694824219,10.319999694824219,10.319999694824219,0
2019-07-19,10.34000015258789,10.34000015258789,10.34000015258789,10.34000015258789,10.34000015258789,1000
2019-07-22,10.34000015258789,10.34000015258789,10.34000015258789,10.34000015258789,10.34000015258789,0
2019-07-23,10.300000190734863,10.319999694824219,10.300000190734863,10.319999694824219,10.319999694824219,39700
2019-07-24,10.300000190734863,10.319999694824219,10.300000190734863,10.319999694824219,10.319999694824219,1400
2019-07-25,10.300000190734863,10.380000114440918,10.300000190734863,10.300000190734863,10.300000190734863,211600
2019-07-26,10.300000190734863,10.300000190734863,10.300000190734863,10.300000190734863,10.300000190734863,0
2019-07-29,10.300000190734863,10.300000190734863,10.300000190734863,10.300000190734863,10.300000190734863,0
2019-07-30,10.300000190734863,10.3100004196167,10.300000190734863,10.3100004196167,10.3100004196167,800
2019-07-31,10.300000190734863,10.350000381469727,10.300000190734863,10.350000381469727,10.350000381469727,4500
2019-08-01,10.380000114440918,10.380000114440918,10.350000381469727,10.350000381469727,10.350000381469727,1100
2019-08-02,10.34000015258789,10.380000114440918,10.34000015258789,10.380000114440918,10.380000114440918,500
2019-08-05,10.369999885559082,10.369999885559082,10.369999885559082,10.369999885559082,10.369999885559082,300
2019-08-06,10.369999885559082,10.369999885559082,10.369999885559082,10.369999885559082,10.369999885559082,300
2019-08-07,10.300000190734863,10.369999885559082,10.300000190734863,10.369999885559082,10.369999885559082,1276900
2019-08-08,10.380000114440918,10.380000114440918,10.369000434875488,10.369000434875488,10.369000434875488,900
2019-08-09,10.380000114440918,10.380000114440918,10.369000434875488,10.369000434875488,10.369000434875488,900
2019-08-12,10.359999656677246,10.359999656677246,10.359999656677246,10.359999656677246,10.359999656677246,400
2019-08-13,10.359999656677246,10.359999656677246,10.359999656677246,10.359999656677246,10.359999656677246,100
2019-08-14,10.329999923706055,10.359999656677246,10.329999923706055,10.359999656677246,10.359999656677246,1300
2019-08-15,10.329999923706055,10.359999656677246,10.329999923706055,10.359999656677246,10.359999656677246,1300
2019-08-16,10.359999656677246,10.359999656677246,10.359999656677246,10.359999656677246,10.359999656677246,0
2019-08-19,10.359999656677246,10.359999656677246,10.359999656677246,10.359999656677246,10.359999656677246,0
2019-08-20,10.359999656677246,10.359999656677246,10.359999656677246,10.359999656677246,10.359999656677246,0
2019-08-21,10.359999656677246,10.359999656677246,10.359999656677246,10.359999656677246,10.359999656677246,0
2019-08-22,10.329999923706055,10.329999923706055,10.319999694824219,10.319999694824219,10.319999694824219,21000
2019-08-23,10.319999694824219,10.329999923706055,10.319999694824219,10.329999923706055,10.329999923706055,95700
2019-08-26,10.329999923706055,10.34000015258789,10.329999923706055,10.34000015258789,10.34000015258789,63200
2019-08-27,10.329999923706055,10.34000015258789,10.329999923706055,10.34000015258789,10.34000015258789,5100
2019-08-28,10.34000015258789,10.34000015258789,10.34000015258789,10.34000015258789,10.34000015258789,0
2019-08-29,10.3100004196167,10.34000015258789,10.3100004196167,10.34000015258789,10.34000015258789,99200
2019-08-30,10.34000015258789,10.34000015258789,10.329999923706055,10.329999923706055,10.329999923706055,600
2019-09-03,10.3100004196167,10.3100004196167,10.3100004196167,10.3100004196167,10.3100004196167,400
2019-09-04,10.3100004196167,10.3100004196167,10.3100004196167,10.3100004196167,10.3100004196167,0
2019-09-05,10.329999923706055,10.350000381469727,10.329999923706055,10.34000015258789,10.34000015258789,814000
2019-09-06,10.350000381469727,10.350000381469727,10.350000381469727,10.350000381469727,10.350000381469727,10000
2019-09-09,10.34000015258789,10.350000381469727,10.329999923706055,10.34000015258789,10.34000015258789,164500
2019-09-10,10.34000015258789,10.34000015258789,10.34000015258789,10.34000015258789,10.34000015258789,0
2019-09-11,10.329999923706055,10.350000381469727,10.329999923706055,10.350000381469727,10.350000381469727,109900
2019-09-12,10.289999961853027,10.350000381469727,10.289999961853027,10.350000381469727,10.350000381469727,300
2019-09-13,10.319999694824219,10.350000381469727,10.319999694824219,10.350000381469727,10.350000381469727,17300
2019-09-16,10.289999961853027,10.359999656677246,10.289999961853027,10.359999656677246,10.359999656677246,3400
2019-09-17,10.319999694824219,10.359999656677246,10.319999694824219,10.359999656677246,10.359999656677246,8600
2019-09-18,10.350000381469727,10.359999656677246,10.350000381469727,10.350000381469727,10.350000381469727,26500
2019-09-19,10.335000038146973,10.359999656677246,10.335000038146973,10.359999656677246,10.359999656677246,600
2019-09-20,10.359999656677246,10.359999656677246,10.359999656677246,10.359999656677246,10.359999656677246,200
2019-09-23,10.359999656677246,10.359999656677246,10.359999656677246,10.359999656677246,10.359999656677246,0
2019-09-24,10.359999656677246,10.359999656677246,10.359999656677246,10.359999656677246,10.359999656677246,0
2019-09-25,10.359999656677246,10.359999656677246,10.359999656677246,10.359999656677246,10.359999656677246,0
2019-09-26,10.359999656677246,10.359999656677246,10.359999656677246,10.359999656677246,10.359999656677246,0
2019-09-27,10.350000381469727,10.359999656677246,10.34000015258789,10.34000015258789,10.34000015258789,53700
2019-09-30,10.359999656677246,10.369999885559082,10.359999656677246,10.364999771118164,10.364999771118164,6700
2019-10-01,10.364999771118164,10.364999771118164,10.364999771118164,10.364999771118164,10.364999771118164,0
2019-10-02,10.319999694824219,10.369999885559082,10.319999694824219,10.369999885559082,10.369999885559082,291900
2019-10-03,10.369999885559082,10.369999885559082,10.359999656677246,10.364999771118164,10.364999771118164,283800
2019-10-04,10.369999885559082,10.380000114440918,10.362000465393066,10.369999885559082,10.369999885559082,499200
2019-10-07,10.369999885559082,10.369999885559082,10.369999885559082,10.369999885559082,10.369999885559082,0
2019-10-08,10.34000015258789,10.369999885559082,10.34000015258789,10.34000015258789,10.34000015258789,8400
2019-10-09,10.380000114440918,10.380000114440918,10.380000114440918,10.380000114440918,10.380000114440918,76000
2019-10-10,10.380000114440918,10.380000114440918,10.380000114440918,10.380000114440918,10.380000114440918,200
2019-10-11,10.380000114440918,10.380000114440918,10.380000114440918,10.380000114440918,10.380000114440918,0
2019-10-14,10.390000343322754,10.449999809265137,10.390000343322754,10.399999618530273,10.399999618530273,2500
2019-10-15,10.880000114440918,10.880000114440918,10.435999870300293,10.435999870300293,10.435999870300293,3600
2019-10-16,10.350000381469727,10.399999618530273,10.350000381469727,10.399999618530273,10.399999618530273,12200
2019-10-17,10.399999618530273,10.399999618530273,10.399999618530273,10.399999618530273,10.399999618530273,0
2019-10-18,10.369999885559082,10.4399995803833,10.369999885559082,10.4399995803833,10.4399995803833,1500
2019-10-21,10.4399995803833,10.4399995803833,10.4399995803833,10.4399995803833,10.4399995803833,0
2019-10-22,10.380000114440918,10.420000076293945,10.380000114440918,10.420000076293945,10.420000076293945,1200
2019-10-23,10.399999618530273,10.399999618530273,10.399999618530273,10.399999618530273,10.399999618530273,200
2019-10-24,10.399999618530273,10.399999618530273,10.399999618530273,10.399999618530273,10.399999618530273,0
2019-10-25,10.390000343322754,10.399999618530273,10.390000343322754,10.399999618530273,10.399999618530273,1500
2019-10-28,10.399999618530273,10.399999618530273,10.399999618530273,10.399999618530273,10.399999618530273,200
2019-10-29,10.40999984741211,10.40999984741211,10.380000114440918,10.40999984741211,10.40999984741211,226700
2019-10-30,10.399999618530273,10.40999984741211,10.395000457763672,10.40999984741211,10.40999984741211,11000
2019-10-31,10.399999618530273,10.420000076293945,10.39900016784668,10.399999618530273,10.399999618530273,1232000
2019-11-01,10.399999618530273,10.40999984741211,10.390000343322754,10.390000343322754,10.390000343322754,134100
2019-11-04,10.399999618530273,10.399999618530273,10.399999618530273,10.399999618530273,10.399999618530273,100
2019-11-05,10.420000076293945,10.4399995803833,10.420000076293945,10.420000076293945,10.420000076293945,315000
2019-11-06,10.430000305175781,10.430000305175781,10.420000076293945,10.420000076293945,10.420000076293945,88800
2019-11-07,10.420000076293945,10.430000305175781,10.420000076293945,10.430000305175781,10.430000305175781,3800
2019-11-08,10.430000305175781,10.430000305175781,10.430000305175781,10.430000305175781,10.430000305175781,100
2019-11-11,10.420000076293945,10.430000305175781,10.420000076293945,10.420000076293945,10.420000076293945,152200
2019-11-12,10.4399995803833,10.442000389099121,10.4399995803833,10.4399995803833,10.4399995803833,10400
2019-11-13,10.428000450134277,10.4399995803833,10.420000076293945,10.4399995803833,10.4399995803833,900
2019-11-14,10.430000305175781,10.430000305175781,10.430000305175781,10.430000305175781,10.430000305175781,1300
2019-11-15,10.430000305175781,10.430000305175781,10.430000305175781,10.430000305175781,10.430000305175781,0
2019-11-18,10.420000076293945,10.42300033569336,10.420000076293945,10.42300033569336,10.42300033569336,700
2019-11-19,10.42300033569336,10.42300033569336,10.42300033569336,10.42300033569336,10.42300033569336,0
2019-11-20,10.42300033569336,10.42300033569336,10.42300033569336,10.42300033569336,10.42300033569336,0
2019-11-21,10.42300033569336,10.42300033569336,10.42300033569336,10.42300033569336,10.42300033569336,0
2019-11-22,10.4399995803833,10.4399995803833,10.4399995803833,10.4399995803833,10.4399995803833,3200
2019-11-25,10.427000045776367,10.449999809265137,10.427000045776367,10.4399995803833,10.4399995803833,532900
2019-11-26,10.449999809265137,10.449999809265137,10.449999809265137,10.449999809265137,10.449999809265137,69300
2019-11-27,10.449999809265137,10.449999809265137,10.449000358581543,10.449999809265137,10.449999809265137,11800
2019-11-29,10.460000038146973,10.460000038146973,10.460000038146973,10.460000038146973,10.460000038146973,100
2019-12-02,10.460000038146973,10.460000038146973,10.460000038146973,10.460000038146973,10.460000038146973,0
2019-12-03,10.460000038146973,10.460000038146973,10.460000038146973,10.460000038146973,10.460000038146973,0
2019-12-04,10.460000038146973,10.460000038146973,10.460000038146973,10.460000038146973,10.460000038146973,0
2019-12-05,10.460000038146973,10.460000038146973,10.460000038146973,10.460000038146973,10.460000038146973,0
2019-12-06,10.460000038146973,10.460000038146973,10.460000038146973,10.460000038146973,10.460000038146973,0
2019-12-09,10.449999809265137,10.449999809265137,10.449999809265137,10.449999809265137,10.449999809265137,75000
2019-12-10,10.449999809265137,10.449999809265137,10.449999809265137,10.449999809265137,10.449999809265137,0
2019-12-11,10.449999809265137,10.449999809265137,10.449999809265137,10.449999809265137,10.449999809265137,0
2019-12-12,10.489999771118164,10.489999771118164,10.489999771118164,10.489999771118164,10.489999771118164,200
2019-12-13,10.4399995803833,10.460000038146973,10.4399995803833,10.460000038146973,10.460000038146973,200200
2019-12-16,10.460000038146973,10.460000038146973,10.460000038146973,10.460000038146973,10.460000038146973,0
2019-12-17,10.460000038146973,10.489999771118164,10.460000038146973,10.460000038146973,10.460000038146973,1300
2019-12-18,10.489999771118164,10.513999938964844,10.420000076293945,10.420000076293945,10.420000076293945,1500
2019-12-19,10.420000076293945,10.449999809265137,10.420000076293945,10.449999809265137,10.449999809265137,900
2019-12-20,10.4399995803833,10.4399995803833,10.4399995803833,10.4399995803833,10.4399995803833,200
2019-12-23,10.4399995803833,10.449999809265137,10.4399995803833,10.449999809265137,10.449999809265137,2000
2019-12-24,10.460000038146973,10.550000190734863,10.460000038146973,10.550000190734863,10.550000190734863,154200
2019-12-26,10.550000190734863,10.550000190734863,10.539999961853027,10.539999961853027,10.539999961853027,500
2019-12-27,10.715999603271484,10.715999603271484,10.539999961853027,10.550000190734863,10.550000190734863,2200
2019-12-30,10.529999732971191,10.529999732971191,10.529999732971191,10.529999732971191,10.529999732971191,600
2019-12-31,10.529999732971191,10.529999732971191,10.529999732971191,10.529999732971191,10.529999732971191,0
2020-01-02,10.529999732971191,10.529999732971191,10.529999732971191,10.529999732971191,10.529999732971191,0
2020-01-03,10.529999732971191,10.529999732971191,10.529999732971191,10.529999732971191,10.529999732971191,0
2020-01-06,10.529999732971191,10.529999732971191,10.529999732971191,10.529999732971191,10.529999732971191,0
2020-01-07,10.529999732971191,10.529999732971191,10.529999732971191,10.529999732971191,10.529999732971191,0
2020-01-08,10.529999732971191,10.529999732971191,10.529999732971191,10.529999732971191,10.529999732971191,0
2020-01-09,10.50100040435791,10.50100040435791,10.5,10.5,10.5,147900
2020-01-10,10.520000457763672,10.61400032043457,10.520000457763672,10.531000137329102,10.531000137329102,29100
2020-01-13,10.5,10.520000457763672,10.5,10.520000457763672,10.520000457763672,1200
2020-01-14,10.520000457763672,10.520000457763672,10.520000457763672,10.520000457763672,10.520000457763672,0
2020-01-15,10.520000457763672,10.520000457763672,10.520000457763672,10.520000457763672,10.520000457763672,0
2020-01-16,10.520000457763672,10.520000457763672,10.520000457763672,10.520000457763672,10.520000457763672,0
2020-01-17,10.520000457763672,10.520000457763672,10.520000457763672,10.520000457763672,10.520000457763672,0
2020-01-21,10.520000457763672,10.520000457763672,10.520000457763672,10.520000457763672,10.520000457763672,0
2020-01-22,10.520000457763672,10.520000457763672,10.520000457763672,10.520000457763672,10.520000457763672,0
2020-01-23,10.63599967956543,10.63599967956543,10.529999732971191,10.529999732971191,10.529999732971191,1100
2020-01-24,10.529999732971191,10.545999526977539,10.529999732971191,10.545999526977539,10.545999526977539,4500
2020-01-27,10.550000190734863,10.550000190734863,10.54800033569336,10.54800033569336,10.54800033569336,100300
2020-01-28,10.54800033569336,10.54800033569336,10.54800033569336,10.54800033569336,10.54800033569336,0
2020-01-29,10.54800033569336,10.54800033569336,10.54800033569336,10.54800033569336,10.54800033569336,0
2020-01-30,10.54800033569336,10.54800033569336,10.54800033569336,10.54800033569336,10.54800033569336,0
2020-01-31,10.54800033569336,10.54800033569336,10.54800033569336,10.54800033569336,10.54800033569336,0
2020-02-03,10.54800033569336,10.54800033569336,10.54800033569336,10.54800033569336,10.54800033569336,0
2020-02-04,10.54800033569336,10.54800033569336,10.54800033569336,10.54800033569336,10.54800033569336,0
2020-02-05,10.529999732971191,10.569999694824219,10.529999732971191,10.569999694824219,10.569999694824219,2500
2020-02-06,10.529999732971191,10.529999732971191,10.529999732971191,10.529999732971191,10.529999732971191,100
2020-02-07,10.529999732971191,10.529999732971191,10.529999732971191,10.529999732971191,10.529999732971191,0
2020-02-10,10.529999732971191,10.529999732971191,10.529999732971191,10.529999732971191,10.529999732971191,0
2020-02-11,10.529999732971191,10.529999732971191,10.529999732971191,10.529999732971191,10.529999732971191,0
2020-02-12,10.569999694824219,10.569999694824219,10.569999694824219,10.569999694824219,10.569999694824219,5100
2020-02-13,10.569999694824219,10.569999694824219,10.569999694824219,10.569999694824219,10.569999694824219,0
2020-02-14,10.5600004196167,10.5600004196167,10.5600004196167,10.5600004196167,10.5600004196167,2500
2020-02-18,10.550000190734863,10.5600004196167,10.529999732971191,10.529999732971191,10.529999732971191,2500
2020-02-19,10.529999732971191,10.529999732971191,10.529999732971191,10.529999732971191,10.529999732971191,0
2020-02-20,10.529999732971191,10.529999732971191,10.529999732971191,10.529999732971191,10.529999732971191,0
2020-02-21,10.529999732971191,10.529999732971191,10.529999732971191,10.529999732971191,10.529999732971191,0
2020-02-24,10.529999732971191,10.529999732971191,10.529999732971191,10.529999732971191,10.529999732971191,0
2020-02-25,10.529999732971191,10.529999732971191,10.529999732971191,10.529999732971191,10.529999732971191,200
2020-02-26,10.550000190734863,10.550000190734863,10.550000190734863,10.550000190734863,10.550000190734863,500
2020-02-27,10.550000190734863,10.550000190734863,10.550000190734863,10.550000190734863,10.550000190734863,0
2020-02-28,10.5600004196167,10.574000358581543,10.5,10.550000190734863,10.550000190734863,4600
2020-03-02,10.550000190734863,10.550000190734863,10.550000190734863,10.550000190734863,10.550000190734863,0
2020-03-03,10.550000190734863,10.550000190734863,10.550000190734863,10.550000190734863,10.550000190734863,0
2020-03-04,10.550000190734863,10.550000190734863,10.550000190734863,10.550000190734863,10.550000190734863,0
2020-03-05,10.550000190734863,10.550000190734863,10.550000190734863,10.550000190734863,10.550000190734863,6100
2020-03-06,10.550000190734863,10.550000190734863,10.550000190734863,10.550000190734863,10.550000190734863,0
2020-03-09,10.550000190734863,10.550000190734863,10.550000190734863,10.550000190734863,10.550000190734863,0
2020-03-10,10.550000190734863,10.550000190734863,10.550000190734863,10.550000190734863,10.550000190734863,0
2020-03-11,10.571000099182129,10.571000099182129,10.550000190734863,10.550000190734863,10.550000190734863,487800
2020-03-12,10.550000190734863,10.5600004196167,10.550000190734863,10.550000190734863,10.550000190734863,3600
2020-03-13,10.5,10.5,9.569999694824219,10.5,10.5,52000
2020-03-16,10.5,10.5,10.5,10.5,10.5,450000
2020-03-17,10.557999610900879,10.579999923706055,10.557999610900879,10.579999923706055,10.579999923706055,800
2020-03-18,10.640000343322754,10.640000343322754,10.640000343322754,10.640000343322754,10.640000343322754,200
2020-03-19,10.640000343322754,10.640000343322754,10.640000343322754,10.640000343322754,10.640000343322754,3400
2020-03-20,10.640000343322754,10.640000343322754,10.640000343322754,10.640000343322754,10.640000343322754,100000
2020-03-23,10.350000381469727,10.380999565124512,10.350000381469727,10.350000381469727,10.350000381469727,39400
2020-03-24,10.350000381469727,10.350000381469727,10.350000381469727,10.350000381469727,10.350000381469727,0
2020-03-25,10.369999885559082,10.550000190734863,10.369999885559082,10.550000190734863,10.550000190734863,289500
2020-03-26,10.550000190734863,10.550000190734863,10.550000190734863,10.550000190734863,10.550000190734863,0
2020-03-27,10.5600004196167,10.5600004196167,10.5600004196167,10.5600004196167,10.5600004196167,143800
2020-03-30,10.5600004196167,10.5600004196167,10.5600004196167,10.5600004196167,10.5600004196167,0
2020-03-31,10.5600004196167,10.5600004196167,10.5600004196167,10.5600004196167,10.5600004196167,0
2020-04-01,10.649999618530273,10.649999618530273,10.64900016784668,10.64900016784668,10.64900016784668,300
2020-04-02,10.581999778747559,10.581999778747559,10.581999778747559,10.581999778747559,10.581999778747559,200
2020-04-03,10.581999778747559,10.581999778747559,10.581999778747559,10.581999778747559,10.581999778747559,0
2020-04-06,10.600000381469727,10.600000381469727,10.600000381469727,10.600000381469727,10.600000381469727,32400
2020-04-07,10.600000381469727,10.600000381469727,10.600000381469727,10.600000381469727,10.600000381469727,0
2020-04-08,10.600000381469727,10.600000381469727,10.600000381469727,10.600000381469727,10.600000381469727,200
2020-04-09,10.569999694824219,10.569999694824219,10.569999694824219,10.569999694824219,10.569999694824219,25000
2020-04-13,10.619999885559082,10.619999885559082,10.619999885559082,10.619999885559082,10.619999885559082,200
2020-04-14,10.579999923706055,10.579999923706055,10.579999923706055,10.579999923706055,10.579999923706055,100
2020-04-15,10.550000190734863,10.649999618530273,10.550000190734863,10.649999618530273,10.649999618530273,200
2020-04-16,10.649999618530273,10.649999618530273,10.649999618530273,10.649999618530273,10.649999618530273,0
2020-04-17,10.649999618530273,10.649999618530273,10.649999618530273,10.649999618530273,10.649999618530273,0
2020-04-20,10.619999885559082,10.67300033569336,10.569999694824219,10.623000144958496,10.623000144958496,4000
2020-04-21,10.623000144958496,10.623000144958496,10.623000144958496,10.623000144958496,10.623000144958496,0
2020-04-22,11.619999885559082,11.640000343322754,10.619999885559082,10.619999885559082,10.619999885559082,800
2020-04-23,10.619999885559082,10.619999885559082,10.619999885559082,10.619999885559082,10.619999885559082,0
2020-04-24,11.680000305175781,12.850000381469727,10.619999885559082,10.619999885559082,10.619999885559082,1600
2020-04-27,10.619999885559082,10.619999885559082,10.619999885559082,10.619999885559082,10.619999885559082,0
2020-04-28,10.619999885559082,10.619999885559082,10.619999885559082,10.619999885559082,10.619999885559082,0
2020-04-29,10.619999885559082,10.619999885559082,10.619999885559082,10.619999885559082,10.619999885559082,0
2020-04-30,10.619999885559082,11.149999618530273,10.619999885559082,11.149999618530273,11.149999618530273,2200
2020-05-01,10.699999809265137,10.699999809265137,10.699999809265137,10.699999809265137,10.699999809265137,200
2020-05-04,10.699999809265137,10.699999809265137,10.699999809265137,10.699999809265137,10.699999809265137,0
2020-05-05,10.699999809265137,10.699999809265137,10.699999809265137,10.699999809265137,10.699999809265137,0
2020-05-06,10.699999809265137,10.699999809265137,10.699999809265137,10.699999809265137,10.699999809265137,27300
2020-05-07,10.569999694824219,10.649999618530273,10.569999694824219,10.649999618530273,10.649999618530273,9200
2020-05-08,10.649999618530273,10.649999618530273,10.649999618530273,10.649999618530273,10.649999618530273,0
2020-05-11,10.649999618530273,10.649999618530273,10.649999618530273,10.649999618530273,10.649999618530273,0
2020-05-12,10.649999618530273,10.649999618530273,10.649999618530273,10.649999618530273,10.649999618530273,0
2020-05-13,10.649999618530273,10.649999618530273,10.649999618530273,10.649999618530273,10.649999618530273,0
2020-05-14,10.649999618530273,10.649999618530273,10.649999618530273,10.649999618530273,10.649999618530273,0
2020-05-15,10.649999618530273,10.649999618530273,10.649999618530273,10.649999618530273,10.649999618530273,0
2020-05-18,10.649999618530273,10.649999618530273,10.649999618530273,10.649999618530273,10.649999618530273,0
2020-05-19,10.649999618530273,10.649999618530273,10.649999618530273,10.649999618530273,10.649999618530273,0
2020-05-20,10.649999618530273,10.649999618530273,10.649999618530273,10.649999618530273,10.649999618530273,0
2020-05-21,10.649999618530273,10.649999618530273,10.649999618530273,10.649999618530273,10.649999618530273,200
2020-05-22,10.649999618530273,10.649999618530273,10.649999618530273,10.649999618530273,10.649999618530273,0
2020-05-26,10.649999618530273,10.649999618530273,10.649999618530273,10.649999618530273,10.649999618530273,0
2020-05-27,10.649999618530273,10.649999618530273,10.649999618530273,10.649999618530273,10.649999618530273,0
2020-05-28,10.59000015258789,10.59000015258789,10.59000015258789,10.59000015258789,10.59000015258789,300
2020-05-29,10.59000015258789,10.59000015258789,10.59000015258789,10.59000015258789,10.59000015258789,0
2020-06-01,10.59000015258789,10.59000015258789,10.59000015258789,10.59000015258789,10.59000015258789,0
2020-06-02,10.59000015258789,10.59000015258789,10.59000015258789,10.59000015258789,10.59000015258789,0
2020-06-03,10.59000015258789,10.59000015258789,10.59000015258789,10.59000015258789,10.59000015258789,2400
2020-06-04,10.59000015258789,10.59000015258789,10.59000015258789,10.59000015258789,10.59000015258789,0
2020-06-05,11.109999656677246,11.109999656677246,10.649999618530273,10.670000076293945,10.670000076293945,500
2020-06-08,10.75,10.949999809265137,10.725000381469727,10.819999694824219,10.819999694824219,1849000
2020-06-09,11.260000228881836,12.800000190734863,11.130000114440918,12.079999923706055,12.079999923706055,1748000
2020-06-10,13.140000343322754,14.880000114440918,12.739999771118164,13.25,13.25,2377000
2020-06-11,13.0,13.369999885559082,11.75,11.899999618530273,11.899999618530273,1133800
2020-06-12,12.75,12.949999809265137,11.600000381469727,11.949999809265137,11.949999809265137,834400
2020-06-15,12.850000381469727,12.979999542236328,12.470000267028809,12.890000343322754,12.890000343322754,842600
2020-06-16,13.720000267028809,14.899999618530273,13.350000381469727,14.5,14.5,1648800
2020-06-17,16.389999389648438,19.920000076293945,16.299999237060547,17.0,17.0,3406200
2020-06-18,18.5,18.610000610351562,16.500999450683594,18.549999237060547,18.549999237060547,1586300
2020-06-19,19.020000457763672,19.239999771118164,17.34000015258789,17.93000030517578,17.93000030517578,1093300
2020-06-22,17.299999237060547,17.465999603271484,16.049999237060547,16.65999984741211,16.65999984741211,810900
2020-06-23,16.75,16.930999755859375,15.260000228881836,16.0,16.0,585600
2020-06-24,15.5,15.899999618530273,13.329999923706055,14.979999542236328,14.979999542236328,902000
2020-06-25,14.5,15.5600004196167,13.460000038146973,15.5600004196167,15.5600004196167,594500
2020-06-26,15.6899995803833,16.229999542236328,14.800000190734863,15.59000015258789,15.59000015258789,399100
2020-06-29,16.0,16.979999542236328,15.600000381469727,16.3700008392334,16.3700008392334,680700
2020-06-30,18.75,19.350000381469727,15.699999809265137,15.989999771118164,15.989999771118164,1787100
2020-07-01,16.0,16.559999465942383,14.800000190734863,15.100000381469727,15.100000381469727,684300
2020-07-02,15.859999656677246,15.859999656677246,14.350000381469727,14.979999542236328,14.979999542236328,437200
2020-07-06,15.09000015258789,15.399999618530273,13.699999809265137,14.020000457763672,14.020000457763672,518100
2020-07-07,13.5,13.770000457763672,12.699999809265137,13.470000267028809,13.470000267028809,470100
2020-07-08,13.380000114440918,13.550000190734863,12.5,12.90999984741211,12.90999984741211,373800
2020-07-09,13.390000343322754,13.5,12.800000190734863,13.079999923706055,13.079999923706055,262700
2020-07-10,12.390000343322754,13.020000457763672,12.118000030517578,12.25,12.25,346800
2020-07-13,12.0,13.25,11.630000114440918,11.630000114440918,11.630000114440918,674600
2020-07-14,11.779999732971191,12.289999961853027,11.220000267028809,12.100000381469727,12.100000381469727,415300
2020-07-15,12.140000343322754,12.399999618530273,11.630000114440918,12.399999618530273,12.399999618530273,221200
2020-07-16,12.300000190734863,12.520000457763672,12.100000381469727,12.199999809265137,12.199999809265137,123600
2020-07-17,12.029999732971191,12.40999984741211,11.262999534606934,11.699999809265137,11.699999809265137,236200
2020-07-20,12.0,12.289999961853027,11.880000114440918,12.180000305175781,12.180000305175781,176800
2020-07-21,12.050000190734863,12.25,11.78499984741211,11.880000114440918,11.880000114440918,119100
2020-07-22,12.0,12.10099983215332,11.75,11.890000343322754,11.890000343322754,133100
2020-07-23,12.0,12.199999809265137,11.352999687194824,11.630000114440918,11.630000114440918,141900
2020-07-24,11.640000343322754,11.67199993133545,11.010000228881836,11.470000267028809,11.470000267028809,168300
2020-07-27,11.539999961853027,11.9399995803833,11.152999877929688,11.920000076293945,11.920000076293945,174100
2020-07-28,11.729999542236328,11.829999923706055,11.300000190734863,11.40999984741211,11.40999984741211,160100
2020-07-29,11.529999732971191,11.58899974822998,11.270000457763672,11.390000343322754,11.390000343322754,116000
2020-07-30,11.350000381469727,11.350000381469727,11.100000381469727,11.279999732971191,11.279999732971191,101800
2020-07-31,11.1899995803833,11.305000305175781,10.755000114440918,11.130000114440918,11.130000114440918,209800
2020-08-03,11.34000015258789,11.420000076293945,10.993000030517578,11.420000076293945,11.420000076293945,165800
2020-08-04,11.420000076293945,11.930000305175781,11.199999809265137,11.75,11.75,184800
2020-08-05,11.880000114440918,11.899999618530273,11.34000015258789,11.600000381469727,11.600000381469727,115000
2020-08-06,11.4399995803833,11.5600004196167,11.270000457763672,11.300000190734863,11.300000190734863,174300
2020-08-07,11.359999656677246,11.65999984741211,11.0,11.25,11.25,216200
2020-08-10,11.300000190734863,11.579999923706055,11.140000343322754,11.4399995803833,11.4399995803833,203600
2020-08-11,11.789999961853027,11.890000343322754,11.399999618530273,11.6899995803833,11.6899995803833,223100
2020-08-12,11.710000038146973,11.739999771118164,11.420000076293945,11.574999809265137,11.574999809265137,80400
2020-08-13,11.850000381469727,12.890000343322754,11.711000442504883,12.890000343322754,12.890000343322754,460000
2020-08-14,12.470000267028809,13.279999732971191,12.109999656677246,12.210000038146973,12.210000038146973,342300
2020-08-17,12.59000015258789,12.649999618530273,12.130000114440918,12.399999618530273,12.399999618530273,171200
2020-08-18,12.3100004196167,12.460000038146973,12.109999656677246,12.300000190734863,12.300000190734863,153300
2020-08-19,12.359999656677246,12.449999809265137,12.0,12.039999961853027,12.039999961853027,151200
2020-08-20,11.75,11.869999885559082,11.399999618530273,11.420000076293945,11.420000076293945,237400
2020-08-21,11.4399995803833,11.800000190734863,11.420000076293945,11.479999542236328,11.479999542236328,213000
2020-08-24,11.489999771118164,11.699999809265137,10.8100004196167,11.319999694824219,11.319999694824219,572500
2020-08-25,11.539999961853027,11.800000190734863,11.34000015258789,11.699999809265137,11.699999809265137,224500
2020-08-26,11.489999771118164,11.800000190734863,11.40999984741211,11.428000450134277,11.428000450134277,150000
2020-08-27,11.399999618530273,11.430000305175781,11.17300033569336,11.319999694824219,11.319999694824219,148300
2020-08-28,11.3100004196167,11.489999771118164,11.222999572753906,11.300000190734863,11.300000190734863,120100
2020-08-31,11.579999923706055,11.640000343322754,11.279999732971191,11.5,11.5,150200
2020-09-01,11.399999618530273,11.470000267028809,11.050000190734863,11.329999923706055,11.329999923706055,247100
2020-09-02,11.350000381469727,13.739999771118164,11.300000190734863,13.300000190734863,13.300000190734863,933700
2020-09-03,12.779999732971191,13.399999618530273,12.0,12.789999961853027,12.789999961853027,516700
2020-09-04,12.600000381469727,13.0600004196167,11.75,12.859999656677246,12.859999656677246,288800
2020-09-08,12.899999618530273,14.170000076293945,12.619999885559082,13.8100004196167,13.8100004196167,507400
2020-09-09,13.609999656677246,15.149999618530273,13.609999656677246,14.350000381469727,14.350000381469727,425100
2020-09-10,14.989999771118164,15.479999542236328,13.800999641418457,14.199999809265137,14.199999809265137,521300
2020-09-11,14.5,14.930000305175781,13.8100004196167,14.5,14.5,212200
2020-09-14,14.300000190734863,14.437000274658203,13.729999542236328,14.262999534606934,14.262999534606934,266400
2020-09-15,14.170000076293945,14.243000030517578,13.3100004196167,13.649999618530273,13.649999618530273,340100
2020-09-16,13.600000381469727,14.390000343322754,13.600000381469727,13.880000114440918,13.880000114440918,274700
2020-09-17,13.789999961853027,14.0,13.0,13.270000457763672,13.270000457763672,302100
2020-09-18,13.319999694824219,14.960000038146973,13.020000457763672,14.960000038146973,14.960000038146973,720300
2020-09-21,14.15999984741211,14.640000343322754,13.899999618530273,14.359999656677246,14.359999656677246,306900
2020-09-22,14.220000267028809,14.399999618530273,13.699999809265137,13.850000381469727,13.850000381469727,143900
2020-09-23,14.09000015258789,14.09000015258789,12.399999618530273,12.850000381469727,12.850000381469727,367900
2020-09-24,11.899999618530273,13.670000076293945,11.300000190734863,13.0,13.0,584300
2020-09-25,12.890000343322754,13.300000190734863,12.3100004196167,12.779999732971191,12.779999732971191,189300
2020-09-28,12.989999771118164,13.475000381469727,12.75,12.979999542236328,12.979999542236328,185600
2020-09-29,13.0,13.199999809265137,12.260000228881836,12.770000457763672,12.770000457763672,279500
2020-09-30,12.59000015258789,12.654999732971191,12.100000381469727,12.270000457763672,12.270000457763672,115200
2020-10-01,12.050000190734863,12.289999961853027,11.90999984741211,12.109999656677246,12.109999656677246,139500
2020-10-02,11.65999984741211,12.0600004196167,11.65999984741211,11.90999984741211,11.90999984741211,142800
2020-10-05,12.020000457763672,12.1899995803833,11.640000343322754,12.029999732971191,12.029999732971191,122900
2020-10-06,12.0,12.050000190734863,11.25,11.425000190734863,11.425000190734863,190800
2020-10-07,11.5,12.149999618530273,11.5,11.569999694824219,11.569999694824219,159800
2020-10-08,11.600000381469727,11.90999984741211,11.59000015258789,11.739999771118164,11.739999771118164,74200
2020-10-09,11.640000343322754,11.821000099182129,11.550000190734863,11.720000267028809,11.720000267028809,63600
2020-10-12,11.84000015258789,11.979999542236328,11.5,11.550000190734863,11.550000190734863,122400
2020-10-13,11.720000267028809,11.77299976348877,11.5,11.600000381469727,11.600000381469727,98300
2020-10-14,11.550000190734863,11.75,11.529999732971191,11.600000381469727,11.600000381469727,61700
2020-10-15,11.699999809265137,11.699999809265137,11.25,11.550000190734863,11.550000190734863,145300
2020-10-16,11.489999771118164,11.75,11.300000190734863,11.600000381469727,11.600000381469727,88800
2020-10-19,11.600000381469727,11.600000381469727,11.109999656677246,11.260000228881836,11.260000228881836,101500
2020-10-20,11.270000457763672,11.364999771118164,11.0,11.100000381469727,11.100000381469727,89200
2020-10-21,11.050000190734863,11.114999771118164,10.619999885559082,10.850000381469727,10.850000381469727,179900
2020-10-22,10.710000038146973,10.899999618530273,10.550000190734863,10.739999771118164,10.739999771118164,105000
2020-10-23,10.899999618530273,11.262999534606934,10.699999809265137,11.050000190734863,11.050000190734863,115400
2020-10-26,11.010000228881836,11.199999809265137,10.583000183105469,10.760000228881836,10.760000228881836,130700
2020-10-27,10.819999694824219,10.954999923706055,10.5,10.649999618530273,10.649999618530273,126800
2020-10-28,10.550000190734863,10.699999809265137,10.5,10.600000381469727,10.600000381469727,184000
2020-10-29,10.609999656677246,10.765000343322754,10.600000381469727,10.600000381469727,10.600000381469727,125700
2020-10-30,10.699999809265137,10.850000381469727,10.600000381469727,10.720000267028809,10.720000267028809,212800
2020-11-02,10.699999809265137,10.699999809265137,10.5600004196167,10.569999694824219,10.569999694824219,79600
2020-11-03,10.550000190734863,10.699999809265137,10.550000190734863,10.649999618530273,10.649999618530273,112700
2020-11-04,10.600000381469727,10.75,10.600000381469727,10.600000381469727,10.600000381469727,57900
2020-11-05,10.664999961853027,10.699999809265137,10.600000381469727,10.699999809265137,10.699999809265137,60000
2020-11-06,10.699999809265137,10.699999809265137,10.640000343322754,10.649999618530273,10.649999618530273,51800
2020-11-09,10.720000267028809,10.807999610900879,10.649999618530273,10.649999618530273,10.649999618530273,172700
2020-11-10,10.75,10.8149995803833,10.619999885559082,10.6899995803833,10.6899995803833,113400
2020-11-11,10.6899995803833,10.75,10.630000114440918,10.649999618530273,10.649999618530273,66400
2020-11-12,10.680000305175781,10.899999618530273,10.595000267028809,10.595000267028809,10.595000267028809,88200
2020-11-13,10.699999809265137,11.239999771118164,10.600000381469727,11.149999618530273,11.149999618530273,214700
2020-11-16,11.180000305175781,11.199999809265137,10.960000038146973,11.010000228881836,11.010000228881836,96900
2020-11-17,11.010000228881836,11.1899995803833,10.800000190734863,11.09000015258789,11.09000015258789,157100
2020-11-18,11.15999984741211,11.15999984741211,10.220000267028809,11.039999961853027,11.039999961853027,202800
2020-11-19,10.899999618530273,10.989999771118164,10.5600004196167,10.869999885559082,10.869999885559082,70200
2020-11-20,10.819999694824219,11.729999542236328,10.800000190734863,11.5600004196167,11.5600004196167,228400
2020-11-23,11.65999984741211,12.75,11.5600004196167,12.234999656677246,12.234999656677246,299300
2020-11-24,12.3100004196167,12.579999923706055,11.760000228881836,12.25,12.25,120500
2020-11-25,12.279999732971191,12.520000457763672,12.065999984741211,12.449999809265137,12.449999809265137,81700
2020-11-27,12.390000343322754,12.479999542236328,12.100000381469727,12.40999984741211,12.40999984741211,83900
2020-11-30,12.40999984741211,12.59000015258789,11.949999809265137,12.5,12.5,181400
2020-12-01,14.210000038146973,14.5,13.300000190734863,14.15999984741211,14.15999984741211,558800
2020-12-02,12.949999809265137,13.880000114440918,12.520000457763672,13.880000114440918,13.880000114440918,219700
2020-12-03,13.720000267028809,14.210000038146973,13.550000190734863,13.770000457763672,13.770000457763672,188700
2020-12-04,14.270000457763672,15.5,13.800000190734863,15.449999809265137,15.449999809265137,351600
2020-12-07,16.0,17.700000762939453,16.0,17.309999465942383,17.309999465942383,674100
2020-12-08,16.579999923706055,17.1200008392334,15.760000228881836,16.299999237060547,16.299999237060547,347300
2020-12-09,16.510000228881836,17.25,16.049999237060547,16.3700008392334,16.3700008392334,346000
2020-12-10,16.649999618530273,16.88599967956543,15.899999618530273,16.399999618530273,16.399999618530273,209400
2020-12-11,16.520000457763672,16.739999771118164,15.850000381469727,16.450000762939453,16.450000762939453,158800
2020-12-14,16.489999771118164,16.68000030517578,14.75,15.229999542236328,15.229999542236328,658100
2020-12-15,15.65999984741211,15.949999809265137,13.8100004196167,14.979999542236328,14.979999542236328,839200
2020-12-16,14.6899995803833,15.739999771118164,14.125,15.699999809265137,15.699999809265137,447800
2020-12-17,15.0,16.5,13.765999794006348,15.710000038146973,15.710000038146973,401500
2020-12-18,15.649999618530273,16.489999771118164,14.5,16.0,16.0,696900
2020-12-21,14.949999809265137,15.979999542236328,14.890000343322754,15.5600004196167,15.5600004196167,355600
2020-12-22,15.149999618530273,15.489999771118164,14.699999809265137,14.970000267028809,14.970000267028809,331500
2020-12-23,14.944000244140625,15.300000190734863,14.460000038146973,14.5,14.5,419900
2020-12-24,14.529999732971191,15.0,14.529999732971191,14.800000190734863,14.800000190734863,202100
2020-12-28,14.609999656677246,14.659000396728516,13.920000076293945,13.970000267028809,13.970000267028809,497800
2020-12-29,14.100000381469727,14.75,13.5,14.390000343322754,14.390000343322754,763900
2020-12-30,14.529999732971191,14.529999732971191,13.970000267028809,14.25,14.25,203600
