Date,Open,High,Low,Close,Adj Close,Volume
2018-04-23,27.0,27.950000762939453,25.0,27.0,25.311830520629883,136000
2018-04-24,25.600000381469727,27.510000228881836,25.0,27.510000228881836,25.78994369506836,101400
2018-04-25,27.510000228881836,27.510000228881836,27.510000228881836,27.510000228881836,25.78994369506836,0
2018-04-26,27.5,27.5,25.5,26.5,24.84309196472168,84600
2018-04-27,26.5,26.5,26.0,26.059999465942383,24.430599212646484,500
2018-04-30,26.25,26.25,25.5,26.075000762939453,24.444665908813477,2200
2018-05-01,25.496000289916992,26.0,25.0,26.0,24.374359130859375,2300
2018-05-02,25.0,25.75,24.0,25.75,24.139986038208008,24000
2018-05-03,25.5,25.5,25.0,25.239999771118164,23.661876678466797,23000
2018-05-04,25.34000015258789,25.34000015258789,23.299999237060547,24.989999771118164,23.427507400512695,53900
2018-05-07,24.0,25.0,24.0,25.0,23.4368839263916,10100
2018-05-08,24.110000610351562,25.0,24.0,25.0,23.4368839263916,10700
2018-05-09,24.5,25.0,24.5,24.969999313354492,23.40875816345215,3400
2018-05-10,25.0,25.0,24.989999771118164,25.0,23.4368839263916,600
2018-05-11,24.75,24.75,24.139999389648438,24.649999618530273,23.108762741088867,12500
2018-05-14,24.1200008392334,25.0,24.010000228881836,25.0,23.51319122314453,10200
2018-05-15,24.0,24.920000076293945,24.0,24.850000381469727,23.37211036682129,8000
2018-05-16,24.690000534057617,24.690000534057617,24.0,24.3799991607666,22.930065155029297,5200
2018-05-17,24.329999923706055,24.479999542236328,24.040000915527344,24.350000381469727,22.9018497467041,3600
2018-05-18,24.489999771118164,24.889999389648438,24.0,24.389999389648438,22.939468383789062,17200
2018-05-21,24.389999389648438,24.389999389648438,24.389999389648438,24.389999389648438,22.939468383789062,600
2018-05-22,24.18000030517578,24.5,23.5,24.479999542236328,23.02411460876465,20000
2018-05-23,24.34000015258789,24.34000015258789,23.25,23.989999771118164,22.563261032104492,24700
2018-05-24,23.670000076293945,23.950000762939453,23.149999618530273,23.5,22.102399826049805,32100
2018-05-25,23.299999237060547,23.690000534057617,23.100000381469727,23.399999618530273,22.008346557617188,25800
2018-05-29,23.110000610351562,23.399999618530273,23.100000381469727,23.350000381469727,21.961320877075195,8300
2018-05-30,23.100000381469727,23.489999771118164,23.100000381469727,23.489999771118164,22.09299087524414,21900
2018-05-31,23.25,23.5,23.219999313354492,23.420000076293945,22.027162551879883,45500
2018-06-01,23.450000762939453,24.0,23.405000686645508,23.920000076293945,22.497419357299805,27600
2018-06-04,23.510000228881836,24.989999771118164,23.510000228881836,24.270000457763672,22.82660675048828,51700
2018-06-05,25.0,25.899999618530273,24.5,24.719999313354492,23.249839782714844,173000
2018-06-06,24.780000686645508,24.950000762939453,24.621999740600586,24.93000030517578,23.447359085083008,97100
2018-06-07,24.940000534057617,24.950000762939453,24.309999465942383,24.549999237060547,23.089948654174805,60600
2018-06-08,24.75,24.850000381469727,24.395000457763672,24.530000686645508,23.071144104003906,33800
2018-06-11,24.690000534057617,25.040000915527344,24.520000457763672,24.850000381469727,23.37211036682129,83300
2018-06-12,24.950000762939453,25.25,24.5,24.610000610351562,23.146385192871094,64500
2018-06-13,24.899999618530273,25.18000030517578,24.81999969482422,25.040000915527344,23.550809860229492,120100
2018-06-14,25.049999237060547,25.18000030517578,24.825000762939453,25.09000015258789,23.597835540771484,126800
2018-06-15,25.329999923706055,25.329999923706055,24.514999389648438,25.190000534057617,23.691892623901367,106200
2018-06-18,25.3700008392334,26.799999237060547,24.270000457763672,26.1299991607666,24.575984954833984,165900
2018-06-19,25.829999923706055,26.350000381469727,25.31999969482422,25.809999465942383,24.275022506713867,107100
2018-06-20,26.0,26.530000686645508,25.549999237060547,26.299999237060547,24.73587417602539,82800
2018-06-21,26.110000610351562,26.25,25.46500015258789,26.139999389648438,24.585391998291016,45500
2018-06-22,25.850000381469727,27.389999389648438,25.809999465942383,26.719999313354492,25.130895614624023,1252300
2018-06-25,26.450000762939453,27.889999389648438,26.329999923706055,26.530000686645508,24.952199935913086,60300
2018-06-26,26.719999313354492,26.739999771118164,25.607999801635742,26.0,24.453720092773438,72600
2018-06-27,25.950000762939453,27.0,25.950000762939453,26.600000381469727,25.018035888671875,66800
2018-06-28,26.469999313354492,26.889999389648438,25.799999237060547,26.68000030517578,25.093280792236328,76600
2018-06-29,26.06100082397461,26.670000076293945,26.06100082397461,26.350000381469727,24.78290557861328,16400
2018-07-02,26.149999618530273,26.25,25.760000228881836,25.799999237060547,24.265615463256836,25100
2018-07-03,25.799999237060547,25.799999237060547,25.600000381469727,25.68000030517578,24.152753829956055,13900
2018-07-05,25.799999237060547,27.65999984741211,25.40999984741211,26.25,24.68885040283203,41200
2018-07-06,26.31999969482422,26.510000228881836,24.139999389648438,25.149999618530273,23.654268264770508,63200
2018-07-09,25.18000030517578,25.75,25.09000015258789,25.399999618530273,23.889400482177734,16500
2018-07-10,25.309999465942383,25.450000762939453,24.940000534057617,25.100000381469727,23.60724639892578,29700
2018-07-11,25.209999084472656,25.520000457763672,24.899999618530273,25.0,23.51319122314453,35200
2018-07-12,25.040000915527344,25.290000915527344,24.969999313354492,25.219999313354492,23.72010612487793,14400
2018-07-13,25.290000915527344,25.479999542236328,24.899999618530273,25.469999313354492,23.955238342285156,12800
2018-07-16,25.5,25.5,25.0,25.149999618530273,23.654268264770508,9400
2018-07-17,25.149999618530273,25.690000534057617,25.010000228881836,25.56999969482422,24.04928970336914,8800
2018-07-18,25.65999984741211,26.700000762939453,25.05500030517578,25.93000030517578,24.387882232666016,38500
2018-07-19,26.100000381469727,26.25,25.860000610351562,26.079999923706055,24.528963088989258,6800
2018-07-20,26.190000534057617,26.229999542236328,25.54199981689453,26.100000381469727,24.547771453857422,6400
2018-07-23,26.121999740600586,26.399999618530273,26.0,26.280000686645508,24.717063903808594,33600
2018-07-24,26.93000030517578,26.93000030517578,25.152000427246094,26.020000457763672,24.472530364990234,14400
2018-07-25,26.1200008392334,26.1200008392334,25.75,25.75,24.218585968017578,5700
2018-07-26,25.979999542236328,26.350000381469727,25.760000228881836,25.920000076293945,24.378475189208984,9000
2018-07-27,26.06999969482422,26.06999969482422,25.299999237060547,25.729999542236328,24.19977569580078,21600
2018-07-30,25.760000228881836,26.299999237060547,25.690000534057617,26.0,24.453720092773438,16000
2018-07-31,26.239999771118164,26.239999771118164,25.75,25.850000381469727,24.312641143798828,19400
2018-08-01,26.020000457763672,26.020000457763672,25.5,25.5,23.98345184326172,6600
2018-08-02,25.420000076293945,25.579999923706055,25.299999237060547,25.579999923706055,24.05869483947754,13100
2018-08-03,26.0,26.0,25.299999237060547,25.299999237060547,23.795347213745117,5700
2018-08-06,25.226999282836914,25.5,25.100000381469727,25.1299991607666,23.635459899902344,3200
2018-08-07,25.65999984741211,25.65999984741211,25.0,25.219999313354492,23.72010612487793,7300
2018-08-08,25.170000076293945,25.280000686645508,25.049999237060547,25.270000457763672,23.767133712768555,3800
2018-08-09,25.559999465942383,25.559999465942383,25.049999237060547,25.360000610351562,23.851781845092773,10100
2018-08-10,25.079999923706055,25.25,25.059999465942383,25.190000534057617,23.691892623901367,2300
2018-08-13,25.459999084472656,25.459999084472656,25.25,25.25,23.748319625854492,9000
2018-08-14,25.25,25.290000915527344,25.049999237060547,25.280000686645508,23.852113723754883,12300
2018-08-15,25.299999237060547,25.309999465942383,25.299999237060547,25.309999465942383,23.880414962768555,2000
2018-08-16,25.510000228881836,25.75,25.5,25.59000015258789,24.144603729248047,7300
2018-08-17,25.540000915527344,25.69499969482422,25.389999389648438,25.510000228881836,24.069120407104492,6000
2018-08-20,25.299999237060547,25.950000762939453,25.299999237060547,25.649999618530273,24.20121192932129,4000
2018-08-21,25.950000762939453,25.950000762939453,25.600000381469727,25.75,24.295562744140625,4500
2018-08-22,25.790000915527344,26.0,25.350000381469727,25.84000015258789,24.380481719970703,5500
2018-08-23,25.790000915527344,26.0,25.6200008392334,25.989999771118164,24.52200698852539,5500
2018-08-24,26.0,26.0,25.832000732421875,25.979999542236328,24.512571334838867,3800
2018-08-27,25.985000610351562,25.985000610351562,25.299999237060547,25.579999923706055,24.135162353515625,6600
2018-08-28,25.75,25.8700008392334,25.360000610351562,25.540000915527344,24.097427368164062,12500
2018-08-29,25.700000762939453,25.8700008392334,25.299999237060547,25.8700008392334,24.40878677368164,9500
2018-08-30,25.899999618530273,26.0,25.6200008392334,25.950000762939453,24.484270095825195,17100
2018-08-31,25.959999084472656,26.0,25.5,25.8799991607666,24.41822052001953,14400
2018-09-04,26.0,26.170000076293945,25.579999923706055,26.040000915527344,24.569183349609375,13000
2018-09-05,25.670000076293945,25.989999771118164,25.614999771118164,25.899999618530273,24.437089920043945,5600
2018-09-06,25.989999771118164,26.0,25.56999969482422,25.690000534057617,24.23895263671875,27700
2018-09-07,25.8799991607666,25.8799991607666,25.684999465942383,25.729999542236328,24.276691436767578,6500
2018-09-10,25.829999923706055,26.5,25.829999923706055,26.399999618530273,24.908851623535156,80600
2018-09-11,26.170000076293945,26.780000686645508,26.149999618530273,26.739999771118164,25.22964859008789,67900
2018-09-12,26.75,26.850000381469727,26.540000915527344,26.540000915527344,25.040943145751953,84200
2018-09-13,26.780000686645508,26.850000381469727,26.239999771118164,26.350000381469727,24.861677169799805,42600
2018-09-14,26.489999771118164,26.899999618530273,26.040000915527344,26.770000457763672,25.257951736450195,35000
2018-09-17,26.950000762939453,27.0,26.780000686645508,26.850000381469727,25.333431243896484,50500
2018-09-18,26.850000381469727,26.950000762939453,26.030000686645508,26.8700008392334,25.352304458618164,41400
2018-09-19,26.950000762939453,27.0,26.600000381469727,26.950000762939453,25.427783966064453,42700
2018-09-20,26.670000076293945,27.3700008392334,26.649999618530273,27.360000610351562,25.81462860107422,52800
2018-09-21,27.31999969482422,27.399999618530273,26.459999084472656,26.459999084472656,24.965457916259766,370500
2018-09-24,26.649999618530273,27.219999313354492,26.25,26.549999237060547,25.050376892089844,34200
2018-09-25,26.469999313354492,26.469999313354492,25.0,25.020000457763672,23.606792449951172,45800
2018-09-26,25.030000686645508,26.239999771118164,25.030000686645508,25.979999542236328,24.512571334838867,11000
2018-09-27,25.829999923706055,26.649999618530273,25.600000381469727,26.059999465942383,24.588050842285156,47900
2018-09-28,26.0,26.639999389648438,25.520000457763672,26.549999237060547,25.050376892089844,34300
2018-10-01,26.3799991607666,26.700000762939453,26.0,26.25,24.767322540283203,15200
2018-10-02,26.25,26.25,25.84000015258789,26.030000686645508,24.55974578857422,5200
2018-10-03,26.040000915527344,26.200000762939453,25.940000534057617,26.079999923706055,24.60692596435547,21800
2018-10-04,26.0,26.15999984741211,25.75,26.040000915527344,24.569183349609375,8900
2018-10-05,26.100000381469727,26.190000534057617,25.496999740600586,26.049999237060547,24.578615188598633,4500
2018-10-08,26.219999313354492,26.219999313354492,25.75200080871582,26.010000228881836,24.540878295898438,8600
2018-10-09,26.0,26.899999618530273,26.0,26.6200008392334,25.116424560546875,22200
2018-10-10,26.549999237060547,26.920000076293945,26.0,26.040000915527344,24.569183349609375,9800
2018-10-11,26.030000686645508,26.739999771118164,25.959999084472656,25.959999084472656,24.493698120117188,13900
2018-10-12,26.229999542236328,26.485000610351562,25.719999313354492,26.09000015258789,24.616361618041992,63500
2018-10-15,25.989999771118164,25.989999771118164,25.385000228881836,25.719999313354492,24.267257690429688,22400
2018-10-16,25.93000030517578,25.93000030517578,25.100000381469727,25.440000534057617,24.003074645996094,23000
2018-10-17,25.3700008392334,26.0,25.1299991607666,25.93000030517578,24.465396881103516,26700
2018-10-18,25.809999465942383,26.0,25.34000015258789,25.860000610351562,24.39935302734375,5400
2018-10-19,25.799999237060547,26.0,25.100000381469727,25.219999313354492,23.795499801635742,13000
2018-10-22,25.25,25.540000915527344,25.1200008392334,25.31999969482422,23.88985252380371,12700
2018-10-23,25.18000030517578,25.96500015258789,25.0,25.239999771118164,23.814367294311523,34500
2018-10-24,25.389999389648438,25.790000915527344,25.0,25.1299991607666,23.710580825805664,51300
2018-10-25,25.239999771118164,25.959999084472656,25.0,25.219999313354492,23.795499801635742,10100
2018-10-26,25.3700008392334,26.920000076293945,23.475000381469727,25.81999969482422,24.36161231994629,36200
2018-10-29,26.079999923706055,26.229999542236328,25.549999237060547,26.079999923706055,24.60692596435547,7100
2018-10-30,26.040000915527344,26.56999969482422,25.900999069213867,26.299999237060547,24.814496994018555,24400
2018-10-31,26.59000015258789,26.719999313354492,26.149999618530273,26.3700008392334,24.880544662475586,16400
2018-11-01,26.549999237060547,26.75,25.920000076293945,26.729999542236328,25.2202091217041,3600
2018-11-02,26.780000686645508,26.780000686645508,25.398000717163086,26.0,24.531444549560547,6100
2018-11-05,25.90999984741211,26.15999984741211,25.530000686645508,25.530000686645508,24.087989807128906,5800
2018-11-06,25.5,26.450000762939453,25.5,26.1299991607666,24.654096603393555,6700
2018-11-07,26.229999542236328,26.290000915527344,25.34000015258789,25.829999923706055,24.371044158935547,13000
2018-11-08,25.540000915527344,26.450000762939453,25.540000915527344,26.149999618530273,24.672971725463867,9000
2018-11-09,26.299999237060547,26.354999542236328,25.700000762939453,25.979999542236328,24.512571334838867,7700
2018-11-12,26.0,26.514999389648438,25.415000915527344,25.65999984741211,24.210649490356445,3000
2018-11-13,25.920000076293945,26.0,25.31999969482422,25.420000076293945,23.984203338623047,2100
2018-11-14,25.719999313354492,25.889999389648438,25.30699920654297,25.700000762939453,24.32493782043457,8600
2018-11-15,25.56999969482422,25.597999572753906,25.010000228881836,25.309999465942383,23.955806732177734,12300
2018-11-16,25.09000015258789,26.0,24.920000076293945,25.479999542236328,24.11671257019043,10500
2018-11-19,25.65999984741211,25.780000686645508,24.5,25.010000228881836,23.671859741210938,22600
2018-11-20,24.90999984741211,25.350000381469727,24.6200008392334,24.6200008392334,23.30272674560547,5200
2018-11-21,25.350000381469727,25.350000381469727,25.350000381469727,25.350000381469727,23.993669509887695,2000
2018-11-23,25.149999618530273,25.350000381469727,25.149999618530273,25.350000381469727,23.993669509887695,3000
2018-11-26,25.389999389648438,26.0,25.079999923706055,25.1299991607666,23.785436630249023,7100
2018-11-27,25.010000228881836,25.170000076293945,24.8799991607666,24.950000762939453,23.615070343017578,5500
2018-11-28,25.989999771118164,26.829999923706055,24.850000381469727,26.25,24.84551429748535,18000
2018-11-29,25.979999542236328,26.25,25.469999313354492,26.219999313354492,24.817119598388672,14400
2018-11-30,26.030000686645508,26.1299991607666,24.985000610351562,25.290000915527344,23.936880111694336,16800
2018-12-03,25.469999313354492,26.100000381469727,25.469999313354492,25.8700008392334,24.4858455657959,6800
2018-12-04,25.440000534057617,26.55900001525879,22.940000534057617,23.59000015258789,22.327836990356445,20500
2018-12-06,23.239999771118164,24.850000381469727,23.239999771118164,23.440000534057617,22.185861587524414,7400
2018-12-07,24.31999969482422,24.31999969482422,23.100000381469727,23.399999618530273,22.148000717163086,11500
2018-12-10,23.540000915527344,23.540000915527344,22.799999237060547,23.469999313354492,22.21425437927246,13300
2018-12-11,23.549999237060547,23.549999237060547,20.639999389648438,21.489999771118164,20.340192794799805,8000
2018-12-12,21.280000686645508,23.540000915527344,21.280000686645508,22.75,21.532777786254883,19200
2018-12-13,22.860000610351562,24.139999389648438,22.75,23.68000030517578,22.41301727294922,23600
2018-12-14,23.6200008392334,24.81999969482422,23.445999145507812,24.600000381469727,23.283796310424805,10900
2018-12-17,24.1299991607666,24.979999542236328,23.34000015258789,23.649999618530273,22.38462257385254,9100
2018-12-18,23.559999465942383,24.68000030517578,23.559999465942383,24.149999618530273,22.857872009277344,22700
2018-12-19,23.860000610351562,24.3700008392334,23.1299991607666,23.979999542236328,22.69696617126465,34500
2018-12-20,24.06999969482422,24.780000686645508,24.06999969482422,24.399999618530273,23.094497680664062,28000
2018-12-21,24.299999237060547,24.399999618530273,23.030000686645508,24.06999969482422,22.782148361206055,52900
2018-12-24,24.190000534057617,25.06999969482422,23.235000610351562,24.5,23.189144134521484,27800
2018-12-26,24.829999923706055,25.8799991607666,23.1200008392334,24.940000534057617,23.60560417175293,61800
2018-12-27,24.690000534057617,24.950000762939453,24.0,24.56999969482422,23.255399703979492,51000
2018-12-28,24.93000030517578,24.950000762939453,23.729999542236328,23.829999923706055,22.554990768432617,103100
2018-12-31,23.690000534057617,24.5,23.610000610351562,24.229999542236328,22.933589935302734,21900
2019-01-02,24.040000915527344,24.040000915527344,23.31800079345703,24.0,22.715900421142578,18700
2019-01-03,23.979999542236328,24.0,23.260000228881836,23.780000686645508,22.507671356201172,34600
2019-01-04,23.799999237060547,23.950000762939453,23.549999237060547,23.90999984741211,22.630714416503906,10400
2019-01-07,23.90999984741211,23.90999984741211,23.469999313354492,23.649999618530273,22.38462257385254,20500
2019-01-08,23.65999984741211,23.950000762939453,22.43000030517578,23.739999771118164,22.46980857849121,31200
2019-01-09,23.479999542236328,23.479999542236328,23.100000381469727,23.389999389648438,22.138538360595703,6200
2019-01-10,23.280000686645508,23.280000686645508,22.809999465942383,22.899999618530273,21.674753189086914,18400
2019-01-11,22.670000076293945,23.195999145507812,22.670000076293945,23.190000534057617,21.949237823486328,6300
2019-01-14,23.309999465942383,23.309999465942383,22.520000457763672,23.110000610351562,21.873519897460938,42100
2019-01-15,23.0,23.190000534057617,22.83799934387207,23.190000534057617,21.949237823486328,3100
2019-01-16,23.149999618530273,23.424999237060547,22.770000457763672,23.110000610351562,21.873519897460938,4500
2019-01-17,23.1299991607666,23.950000762939453,23.020000457763672,23.90999984741211,22.630714416503906,8300
2019-01-18,23.81999969482422,24.0,23.5,24.0,22.715900421142578,16600
2019-01-22,23.899999618530273,24.350000381469727,23.579999923706055,23.709999084472656,22.44141387939453,6000
2019-01-23,23.700000762939453,23.969999313354492,23.260000228881836,23.399999618530273,22.148000717163086,5800
2019-01-24,23.290000915527344,23.46500015258789,22.809999465942383,23.200000762939453,21.958702087402344,5100
2019-01-25,23.1200008392334,23.25,22.809999465942383,23.09000015258789,21.854589462280273,6500
2019-01-28,22.90999984741211,23.75,22.799999237060547,23.450000762939453,22.195327758789062,7300
2019-01-29,23.6200008392334,23.6200008392334,22.799999237060547,22.799999237060547,21.580101013183594,6700
2019-01-30,22.899999618530273,23.424999237060547,22.899999618530273,23.260000228881836,22.015491485595703,14600
2019-01-31,23.18000030517578,23.329999923706055,23.06999969482422,23.06999969482422,21.835657119750977,26200
2019-02-01,23.25,23.25,23.049999237060547,23.049999237060547,21.816728591918945,4400
2019-02-04,23.209999084472656,23.68000030517578,22.989999771118164,23.100000381469727,21.86405372619629,5200
2019-02-05,23.34000015258789,24.450000762939453,23.0,24.15999984741211,22.867334365844727,19800
2019-02-06,24.309999465942383,24.3799991607666,23.38599967956543,23.93000030517578,22.64964485168457,28100
2019-02-07,23.899999618530273,24.299999237060547,23.899999618530273,24.1200008392334,22.82947540283203,42500
2019-02-08,24.299999237060547,24.299999237060547,23.93000030517578,24.1299991607666,22.83894157409668,4700
2019-02-11,24.684999465942383,24.93000030517578,24.100000381469727,24.139999389648438,22.848403930664062,10900
2019-02-12,24.229999542236328,24.3700008392334,23.975000381469727,24.209999084472656,22.91465950012207,13400
2019-02-13,24.100000381469727,24.450000762939453,24.040000915527344,24.450000762939453,23.14182472229004,10000
2019-02-14,24.15999984741211,24.670000076293945,23.881999969482422,24.399999618530273,23.170310974121094,14700
2019-02-15,24.549999237060547,24.649999618530273,23.780000686645508,24.260000228881836,23.03736686706543,21500
2019-02-19,24.020000457763672,24.469999313354492,24.020000457763672,24.3799991607666,23.151317596435547,7300
2019-02-20,24.229999542236328,24.5,24.079999923706055,24.079999923706055,22.866436004638672,6500
2019-02-21,24.25,24.25,23.989999771118164,24.059999465942383,22.847442626953125,8900
2019-02-22,24.170000076293945,24.440000534057617,24.149999618530273,24.350000381469727,23.12282943725586,13100
2019-02-25,24.399999618530273,24.5,24.030000686645508,24.030000686645508,22.81895637512207,8700
2019-02-26,23.959999084472656,24.440000534057617,23.18199920654297,24.079999923706055,22.866436004638672,16200
2019-02-27,24.190000534057617,24.5,24.18000030517578,24.18000030517578,22.96139907836914,15400
2019-02-28,24.290000915527344,25.0,24.030000686645508,24.719999313354492,23.47418212890625,13700
2019-03-01,24.6200008392334,25.0,24.600000381469727,25.0,23.740070343017578,21000
2019-03-04,24.8700008392334,25.799999237060547,24.235000610351562,25.610000610351562,24.31932830810547,52700
2019-03-05,25.700000762939453,25.739999771118164,24.8439998626709,25.079999923706055,23.816038131713867,20000
2019-03-06,24.93000030517578,25.309999465942383,24.799999237060547,25.030000686645508,23.7685604095459,26900
2019-03-07,24.829999923706055,24.989999771118164,23.270000457763672,23.479999542236328,22.296674728393555,20300
2019-03-08,23.43000030517578,24.239999771118164,23.43000030517578,23.93000030517578,22.723997116088867,107900
2019-03-11,24.065000534057617,24.170000076293945,23.8799991607666,24.040000915527344,22.828453063964844,13200
2019-03-12,24.0,24.31999969482422,23.940000534057617,24.190000534057617,22.97089195251465,14100
2019-03-13,24.086000442504883,24.690000534057617,23.989999771118164,24.690000534057617,23.445693969726562,21200
2019-03-14,24.649999618530273,24.649999618530273,24.110000610351562,24.6200008392334,23.379222869873047,26900
2019-03-15,24.6299991607666,25.8700008392334,24.6299991607666,25.329999923706055,24.053443908691406,53200
2019-03-18,25.31999969482422,25.5,24.80699920654297,25.489999771118164,24.20537567138672,41400
2019-03-19,25.100000381469727,25.8700008392334,25.100000381469727,25.700000762939453,24.4047908782959,42800
2019-03-20,25.25,25.670000076293945,25.152000427246094,25.450000762939453,24.16739273071289,18700
2019-03-21,25.25,25.530000686645508,24.989999771118164,25.110000610351562,23.844528198242188,15300
2019-03-22,25.030000686645508,25.690000534057617,22.42799949645996,22.59000015258789,21.45152473449707,43700
2019-03-25,22.760000228881836,23.8700008392334,22.440000534057617,23.8700008392334,22.667022705078125,9400
2019-03-26,24.25,24.389999389648438,23.030000686645508,24.3799991607666,23.151317596435547,19900
2019-03-27,24.6299991607666,24.75,24.334999084472656,24.450000762939453,23.217792510986328,5200
2019-03-28,24.799999237060547,25.1299991607666,24.395000457763672,24.799999237060547,23.550151824951172,10000
2019-03-29,24.729999542236328,25.0,24.329999923706055,24.540000915527344,23.303251266479492,8900
2019-04-01,24.350000381469727,25.0,23.496999740600586,24.59000015258789,23.35073471069336,5500
2019-04-02,24.309999465942383,24.739999771118164,24.01799964904785,24.350000381469727,23.12282943725586,6600
2019-04-03,24.34000015258789,24.34000015258789,23.65999984741211,24.09000015258789,22.875932693481445,3500
2019-04-04,23.658000946044922,24.631999969482422,23.658000946044922,24.559999465942383,23.32224464416504,7400
2019-04-05,24.600000381469727,24.729999542236328,24.520000457763672,24.719999313354492,23.47418212890625,4100
2019-04-08,24.700000762939453,24.75,24.579999923706055,24.6200008392334,23.379222869873047,4200
2019-04-09,24.61199951171875,24.700000762939453,24.61199951171875,24.649999618530273,23.407711029052734,2800
2019-04-10,24.700000762939453,24.850000381469727,24.610000610351562,24.81999969482422,23.569141387939453,4800
2019-04-11,24.652000427246094,24.760000228881836,24.56999969482422,24.56999969482422,23.331743240356445,3900
2019-04-12,24.729999542236328,24.899999618530273,24.67799949645996,24.889999389648438,23.635618209838867,7400
2019-04-15,24.889999389648438,24.899999618530273,24.533000946044922,24.649999618530273,23.407711029052734,5100
2019-04-16,24.700000762939453,24.84000015258789,24.43000030517578,24.43000030517578,23.19879913330078,5800
2019-04-17,24.649999618530273,24.829999923706055,24.076000213623047,24.709999084472656,23.464685440063477,5400
2019-04-18,24.489999771118164,24.799999237060547,23.424999237060547,24.75,23.50267219543457,6300
2019-04-22,24.47100067138672,24.760000228881836,24.47100067138672,24.59000015258789,23.35073471069336,2300
2019-04-23,24.75,24.899999618530273,24.549999237060547,24.780000686645508,23.531158447265625,8600
2019-04-24,24.510000228881836,24.75,24.510000228881836,24.690000534057617,23.445693969726562,9300
2019-04-25,24.56999969482422,24.649999618530273,24.469999313354492,24.469999313354492,23.236785888671875,3300
2019-04-26,24.8799991607666,24.959999084472656,24.149999618530273,24.5,23.265268325805664,7900
2019-04-29,24.520000457763672,25.0,24.520000457763672,24.950000762939453,23.692590713500977,12000
2019-04-30,24.576000213623047,25.450000762939453,24.576000213623047,25.450000762939453,24.16739273071289,21500
2019-05-01,25.25,25.5,24.860000610351562,25.139999389648438,23.873016357421875,8400
2019-05-02,25.479999542236328,25.479999542236328,25.040000915527344,25.15999984741211,23.89200782775879,4400
2019-05-03,25.25,25.5,24.81999969482422,25.270000457763672,23.996463775634766,17400
2019-05-06,25.43000030517578,25.5,24.766000747680664,25.200000762939453,23.929994583129883,14000
2019-05-07,25.43000030517578,25.440000534057617,25.149999618530273,25.309999465942383,24.034448623657227,9300
2019-05-08,25.450000762939453,25.479999542236328,25.260000228881836,25.479999542236328,24.195880889892578,11400
2019-05-09,25.43000030517578,25.5,24.31999969482422,24.329999923706055,23.103837966918945,26200
2019-05-10,24.690000534057617,25.399999618530273,24.5,24.5,23.265268325805664,24400
2019-05-13,24.290000915527344,25.139999389648438,24.1200008392334,24.610000610351562,23.36972427368164,14500
2019-05-14,25.450000762939453,25.450000762939453,24.1299991607666,25.34000015258789,24.161109924316406,22200
2019-05-15,25.389999389648438,25.420000076293945,24.690000534057617,25.299999237060547,24.12297248840332,6300
2019-05-16,25.25,25.5,25.079999923706055,25.200000762939453,24.027624130249023,13600
2019-05-17,25.170000076293945,25.5,24.8799991607666,25.360000610351562,24.1801815032959,5900
2019-05-20,25.299999237060547,25.3700008392334,24.90999984741211,25.350000381469727,24.1706485748291,7100
2019-05-21,25.360000610351562,25.360000610351562,25.059999465942383,25.270000457763672,24.094371795654297,9500
2019-05-22,24.889999389648438,25.399999618530273,24.850000381469727,25.1200008392334,23.95134925842285,6800
2019-05-23,25.1299991607666,25.1299991607666,24.420000076293945,24.690000534057617,23.541351318359375,8900
2019-05-24,25.280000686645508,25.280000686645508,24.479999542236328,25.139999389648438,23.970413208007812,6400
2019-05-28,24.959999084472656,25.149999618530273,24.709999084472656,24.709999084472656,23.560420989990234,3000
2019-05-29,24.649999618530273,25.030000686645508,24.649999618530273,24.770000457763672,23.617631912231445,9100
2019-05-30,24.969999313354492,25.040000915527344,24.459999084472656,24.989999771118164,23.827396392822266,7700
2019-05-31,24.979999542236328,24.979999542236328,24.520000457763672,24.520000457763672,23.37925910949707,5800
2019-06-03,24.6200008392334,24.969999313354492,24.09000015258789,24.75,23.598560333251953,11000
2019-06-04,24.760000228881836,25.040000915527344,24.530000686645508,25.040000915527344,23.875070571899414,8800
2019-06-05,24.8700008392334,25.299999237060547,24.75,24.75,23.598560333251953,8600
2019-06-06,25.18000030517578,25.18000030517578,24.684999465942383,24.850000381469727,23.69390869140625,4100
2019-06-07,24.93000030517578,25.0,24.719999313354492,24.84000015258789,23.68437385559082,6200
2019-06-10,25.0,25.40999984741211,24.825000762939453,24.969999313354492,23.80832290649414,22200
2019-06-11,25.030000686645508,25.270000457763672,24.665000915527344,25.149999618530273,23.979949951171875,11500
2019-06-12,24.899999618530273,25.420000076293945,23.540000915527344,24.18000030517578,23.05507469177246,26200
2019-06-13,24.5,24.829999923706055,24.31999969482422,24.59000015258789,23.446002960205078,10800
2019-06-14,24.190000534057617,25.25,24.049999237060547,24.75,23.598560333251953,12700
2019-06-17,25.219999313354492,25.219999313354492,24.915000915527344,25.100000381469727,23.932279586791992,12700
2019-06-18,25.239999771118164,25.239999771118164,24.895000457763672,25.200000762939453,24.027624130249023,6700
2019-06-19,24.989999771118164,25.25,24.989999771118164,25.239999771118164,24.06576156616211,7900
2019-06-20,25.3799991607666,25.3799991607666,24.979999542236328,25.3700008392334,24.189716339111328,16100
2019-06-21,25.079999923706055,25.450000762939453,24.96500015258789,25.43000030517578,24.24692153930664,41400
2019-06-24,25.479999542236328,25.479999542236328,25.219999313354492,25.399999618530273,24.218318939208984,15000
2019-06-25,25.440000534057617,25.700000762939453,25.065000534057617,25.600000381469727,24.40901756286621,17100
2019-06-26,25.40999984741211,25.625,24.954999923706055,25.260000228881836,24.084835052490234,13500
2019-06-27,25.204999923706055,25.600000381469727,25.200000762939453,25.450000762939453,24.265995025634766,26600
2019-06-28,25.43000030517578,25.600000381469727,25.344999313354492,25.450000762939453,24.265995025634766,263700
2019-07-01,25.809999465942383,25.889999389648438,25.479999542236328,25.479999542236328,24.294601440429688,11500
2019-07-02,25.68000030517578,25.8799991607666,25.100000381469727,25.469999313354492,24.28506088256836,20800
2019-07-03,25.947999954223633,25.947999954223633,25.479999542236328,25.600000381469727,24.40901756286621,3700
2019-07-05,25.510000228881836,25.809999465942383,25.454999923706055,25.760000228881836,24.56157112121582,8400
2019-07-08,25.724000930786133,25.799999237060547,25.65999984741211,25.790000915527344,24.59017562866211,8700
2019-07-09,25.010000228881836,25.83799934387207,25.010000228881836,25.290000915527344,24.11343765258789,6800
2019-07-10,25.290000915527344,25.75,25.260000228881836,25.399999618530273,24.218318939208984,5300
2019-07-11,25.40999984741211,25.56999969482422,25.110000610351562,25.290000915527344,24.11343765258789,9700
2019-07-12,25.489999771118164,25.68000030517578,25.000999450683594,25.059999465942383,23.89413833618164,9100
2019-07-15,24.989999771118164,25.25,24.989999771118164,25.239999771118164,24.06576156616211,8100
2019-07-16,25.200000762939453,25.200000762939453,24.950000762939453,25.06999969482422,23.90367317199707,3800
2019-07-17,24.959999084472656,25.239999771118164,24.950000762939453,25.030000686645508,23.865537643432617,3800
2019-07-18,25.239999771118164,25.239999771118164,24.979999542236328,25.239999771118164,24.06576156616211,3600
2019-07-19,25.010000228881836,25.239999771118164,24.950000762939453,25.15999984741211,23.989486694335938,4600
2019-07-22,24.950000762939453,25.420000076293945,24.950000762939453,25.420000076293945,24.237388610839844,3100
2019-07-23,25.0,25.200000762939453,24.969999313354492,25.200000762939453,24.027624130249023,2800
2019-07-24,25.200000762939453,25.450000762939453,25.155000686645508,25.25,24.075300216674805,6700
2019-07-25,25.010000228881836,25.43000030517578,25.010000228881836,25.239999771118164,24.06576156616211,3300
2019-07-26,25.209999084472656,25.25,24.899999618530273,25.010000228881836,23.846464157104492,24400
2019-07-29,25.139999389648438,25.200000762939453,24.76300048828125,25.020000457763672,23.856000900268555,14400
2019-07-30,24.920000076293945,25.479999542236328,24.920000076293945,25.170000076293945,23.999021530151367,13300
2019-07-31,25.18000030517578,25.299999237060547,24.899999618530273,24.940000534057617,23.779722213745117,19100
2019-08-01,24.860000610351562,25.204999923706055,24.75,24.889999389648438,23.73204803466797,13900
2019-08-02,24.760000228881836,25.190000534057617,24.209999084472656,24.25,23.121822357177734,6200
2019-08-05,24.030000686645508,24.030000686645508,21.55699920654297,22.670000076293945,21.615327835083008,19000
2019-08-06,22.950000762939453,23.75,22.0,23.700000762939453,22.597410202026367,9600
2019-08-07,23.09000015258789,23.65999984741211,22.309999465942383,23.110000610351562,22.03485870361328,12400
2019-08-08,23.0,24.139999389648438,22.459999084472656,23.440000534057617,22.349506378173828,15500
2019-08-09,23.0,23.479999542236328,22.450000762939453,22.790000915527344,21.729745864868164,11800
2019-08-12,22.770000457763672,23.479999542236328,22.75,23.3700008392334,22.28276252746582,6700
2019-08-13,23.469999313354492,23.940000534057617,23.024999618530273,23.8799991607666,22.76903533935547,8800
2019-08-14,23.3799991607666,24.0,22.68000030517578,22.68000030517578,21.71579933166504,8000
2019-08-15,22.950000762939453,23.579999923706055,22.950000762939453,23.25,22.261566162109375,111600
2019-08-16,23.31999969482422,24.520000457763672,23.299999237060547,24.25,23.219053268432617,34200
2019-08-19,24.559999465942383,24.65999984741211,24.049999237060547,24.549999237060547,23.506301879882812,8600
2019-08-20,24.440000534057617,25.065000534057617,24.229999542236328,24.670000076293945,23.621196746826172,30100
2019-08-21,24.940000534057617,24.940000534057617,24.020000457763672,24.020000457763672,22.998830795288086,6900
2019-08-22,24.270000457763672,24.549999237060547,23.599000930786133,23.860000610351562,22.84563636779785,10000
2019-08-23,23.100000381469727,23.940000534057617,22.010000228881836,22.549999237060547,21.591323852539062,22000
2019-08-26,22.850000381469727,23.25,22.823999404907227,23.25,22.261566162109375,3700
2019-08-27,23.209999084472656,23.920000076293945,23.030000686645508,23.200000762939453,22.213695526123047,11300
2019-08-28,23.309999465942383,23.5,23.309999465942383,23.5,22.500940322875977,5100
2019-08-29,22.559999465942383,24.030000686645508,22.559999465942383,23.600000381469727,22.59668731689453,20100
2019-08-30,23.68000030517578,23.68000030517578,23.5,23.6200008392334,22.61583709716797,6800
2019-09-03,23.479999542236328,23.479999542236328,23.0,23.0,22.022192001342773,7100
2019-09-04,23.610000610351562,23.610000610351562,23.440000534057617,23.440000534057617,22.44348907470703,2900
2019-09-05,23.68000030517578,23.75,23.270000457763672,23.420000076293945,22.42433738708496,7700
2019-09-06,23.6200008392334,24.0,23.190000534057617,23.610000610351562,22.60626220703125,4800
2019-09-09,24.0,24.0,23.6299991607666,24.0,22.97968292236328,6600
2019-09-10,23.5,23.899999618530273,23.459999084472656,23.56999969482422,22.567960739135742,10600
2019-09-11,23.760000228881836,25.100000381469727,23.760000228881836,24.559999465942383,23.51587677001953,18200
2019-09-12,24.329999923706055,25.489999771118164,23.639999389648438,25.25,24.176538467407227,18200
2019-09-13,25.290000915527344,25.5,25.1200008392334,25.1200008392334,24.05206871032715,13700
2019-09-16,25.18000030517578,25.18000030517578,24.356000900268555,24.90999984741211,23.850994110107422,13300
2019-09-17,24.90999984741211,25.100000381469727,24.56999969482422,24.969999313354492,23.908443450927734,13400
2019-09-18,25.059999465942383,25.100000381469727,24.735000610351562,24.75,23.697795867919922,8300
2019-09-19,24.950000762939453,25.0,24.4950008392334,24.549999237060547,23.506301879882812,14800
2019-09-20,24.5,25.03499984741211,24.1299991607666,24.989999771118164,23.92759132385254,83000
2019-09-23,24.709999084472656,24.874000549316406,24.099000930786133,24.75,23.697795867919922,7500
2019-09-24,24.43199920654297,25.0,24.326000213623047,24.6299991607666,23.582895278930664,8400
2019-09-25,24.549999237060547,25.100000381469727,24.179000854492188,25.0,23.937170028686523,21600
2019-09-26,24.809999465942383,24.899999618530273,24.5,24.510000228881836,23.468000411987305,5200
2019-09-27,25.020000457763672,25.020000457763672,24.549999237060547,24.549999237060547,23.506301879882812,5600
2019-09-30,24.780000686645508,24.899999618530273,24.239999771118164,24.399999618530273,23.36267852783203,32700
2019-10-01,24.520000457763672,24.780000686645508,24.520000457763672,24.610000610351562,23.563749313354492,7600
2019-10-02,24.280000686645508,24.59000015258789,24.020000457763672,24.020000457763672,22.998830795288086,6900
2019-10-03,23.940000534057617,24.209999084472656,23.829999923706055,24.020000457763672,22.998830795288086,1900
2019-10-04,23.920000076293945,24.290000915527344,23.799999237060547,24.290000915527344,23.257354736328125,4500
2019-10-07,24.18000030517578,24.399999618530273,23.90999984741211,23.90999984741211,22.893510818481445,4600
2019-10-08,23.8799991607666,23.969999313354492,23.760000228881836,23.760000228881836,22.7498836517334,2300
2019-10-09,23.959999084472656,24.170000076293945,23.8799991607666,23.8799991607666,22.864782333374023,4000
2019-10-10,24.059999465942383,24.18000030517578,23.809999465942383,23.950000762939453,22.931808471679688,8300
2019-10-11,24.219999313354492,24.43000030517578,24.0,24.200000762939453,23.171178817749023,9300
2019-10-14,24.100000381469727,24.25,23.770000457763672,24.25,23.219053268432617,3600
2019-10-15,24.170000076293945,24.3799991607666,24.170000076293945,24.3799991607666,23.34352684020996,3600
2019-10-16,24.350000381469727,24.350000381469727,24.219999313354492,24.239999771118164,23.20948028564453,5100
2019-10-17,24.399999618530273,24.399999618530273,24.229999542236328,24.229999542236328,23.19990348815918,6600
2019-10-18,24.1299991607666,24.479999542236328,24.1299991607666,24.3799991607666,23.34352684020996,14900
2019-10-21,24.540000915527344,24.729999542236328,24.25,24.729999542236328,23.67864418029785,6800
2019-10-22,24.45199966430664,24.6299991607666,24.3799991607666,24.3799991607666,23.34352684020996,3300
2019-10-23,24.5,24.5,24.280000686645508,24.280000686645508,23.247777938842773,3000
2019-10-24,24.489999771118164,24.5,23.979999542236328,24.450000762939453,23.410551071166992,3900
2019-10-25,24.84000015258789,24.854999542236328,24.270000457763672,24.270000457763672,23.238204956054688,5800
2019-10-28,24.65999984741211,24.690000534057617,24.139999389648438,24.579999923706055,23.53502655029297,11800
2019-10-29,24.440000534057617,24.68000030517578,24.18000030517578,24.360000610351562,23.32438087463379,7500
2019-10-30,24.31999969482422,24.989999771118164,24.31999969482422,24.90999984741211,23.850994110107422,10600
2019-10-31,24.8799991607666,24.899999618530273,24.40399932861328,24.440000534057617,23.400976181030273,14400
2019-11-01,24.65999984741211,24.729999542236328,24.09000015258789,24.389999389648438,23.353103637695312,14100
2019-11-04,24.420000076293945,24.940000534057617,24.420000076293945,24.899999618530273,23.841415405273438,7700
2019-11-05,24.899999618530273,24.899999618530273,24.75,24.850000381469727,23.793542861938477,6400
2019-11-06,24.600000381469727,24.850000381469727,24.450000762939453,24.764999389648438,23.712158203125,5500
2019-11-07,24.899999618530273,24.950000762939453,24.850000381469727,24.899999618530273,23.841415405273438,7000
2019-11-08,24.760000228881836,24.790000915527344,24.760000228881836,24.790000915527344,23.73609733581543,1600
2019-11-11,24.739999771118164,24.739999771118164,24.434999465942383,24.700000762939453,23.64992332458496,2800
2019-11-12,24.59000015258789,24.899999618530273,24.540000915527344,24.610000610351562,23.563749313354492,3600
2019-11-13,24.559999465942383,24.899999618530273,24.540000915527344,24.81999969482422,23.764820098876953,3200
2019-11-14,24.684999465942383,24.790000915527344,24.579999923706055,24.65999984741211,23.70713996887207,3700
2019-11-15,24.850000381469727,24.979999542236328,24.65999984741211,24.790000915527344,23.832117080688477,8200
2019-11-18,24.65999984741211,24.65999984741211,23.649999618530273,24.329999923706055,23.389892578125,9900
2019-11-19,24.479999542236328,24.979999542236328,24.450000762939453,24.979999542236328,24.014772415161133,9500
2019-11-20,24.809999465942383,24.969999313354492,24.267000198364258,24.579999923706055,23.630229949951172,23200
2019-11-21,24.5,24.899999618530273,24.489999771118164,24.540000915527344,23.591777801513672,6000
2019-11-22,24.719999313354492,24.989999771118164,24.649999618530273,24.729999542236328,23.774433135986328,5600
2019-11-25,24.625999450683594,25.18000030517578,24.610000610351562,24.940000534057617,23.976320266723633,16100
2019-11-26,24.93000030517578,24.93000030517578,24.260000228881836,24.260000228881836,23.322595596313477,11300
2019-11-27,24.013999938964844,24.780000686645508,24.013999938964844,24.049999237060547,23.120708465576172,5600
2019-11-29,24.399999618530273,24.690000534057617,23.768999099731445,24.600000381469727,23.649459838867188,5600
2019-12-02,24.479999542236328,24.540000915527344,24.3799991607666,24.540000915527344,23.591777801513672,3600
2019-12-03,24.18000030517578,24.5,24.097999572753906,24.420000076293945,23.47641372680664,2700
2019-12-04,24.600000381469727,24.829999923706055,24.347999572753906,24.649999618530273,23.69752311706543,6600
2019-12-05,24.520000457763672,24.520000457763672,24.309999465942383,24.309999465942383,23.370664596557617,1700
2019-12-06,24.43000030517578,25.125,24.43000030517578,24.760000228881836,23.80327606201172,18900
2019-12-09,24.770000457763672,24.770000457763672,24.579999923706055,24.59000015258789,23.639842987060547,4600
2019-12-10,24.520000457763672,24.889999389648438,24.299999237060547,24.889999389648438,23.928251266479492,8200
2019-12-11,24.790000915527344,25.18000030517578,24.600000381469727,24.8799991607666,23.918638229370117,12900
2019-12-12,24.610000610351562,25.049999237060547,24.1200008392334,25.0,24.03400421142578,22900
2019-12-13,24.280000686645508,25.18000030517578,24.270000457763672,24.989999771118164,24.02438735961914,13000
2019-12-16,25.0,25.18000030517578,24.950000762939453,24.950000762939453,23.985939025878906,6500
2019-12-17,25.0,25.0,24.8700008392334,24.8700008392334,23.909029006958008,10000
2019-12-18,24.989999771118164,25.0,24.829999923706055,24.829999923706055,23.87057113647461,7600
2019-12-19,24.709999084472656,25.0,23.969999313354492,24.829999923706055,23.87057113647461,11400
2019-12-20,25.010000228881836,25.010000228881836,24.81999969482422,25.0,24.03400421142578,64000
2019-12-23,24.8799991607666,25.18000030517578,24.152999877929688,24.600000381469727,23.649459838867188,4400
2019-12-24,24.559999465942383,24.790000915527344,24.413000106811523,24.65999984741211,23.70713996887207,1900
2019-12-26,24.52400016784668,24.979999542236328,24.52400016784668,24.899999618530273,23.937864303588867,2900
2019-12-27,24.940000534057617,25.5,24.579999923706055,24.8700008392334,23.909029006958008,18500
2019-12-30,24.6299991607666,24.645000457763672,24.121000289916992,24.290000915527344,23.351436614990234,17600
2019-12-31,24.350000381469727,25.024999618530273,24.110000610351562,24.93000030517578,23.96670913696289,20800
2020-01-02,25.06999969482422,25.06999969482422,24.8799991607666,24.969999313354492,24.005159378051758,5000
2020-01-03,25.0,25.06999969482422,24.610000610351562,24.899999618530273,23.937864303588867,13200
2020-01-06,24.899999618530273,25.0,24.829999923706055,24.93000030517578,23.96670913696289,11000
2020-01-07,24.899999618530273,25.06999969482422,24.75,24.799999237060547,23.84173011779785,2600
2020-01-08,24.559999465942383,25.110000610351562,24.34600067138672,24.969999313354492,24.005159378051758,12300
2020-01-09,25.0,25.0,25.0,25.0,24.03400421142578,3500
2020-01-10,24.959999084472656,25.09000015258789,24.639999389648438,24.979999542236328,24.014772415161133,10000
2020-01-13,24.90999984741211,25.0,24.899999618530273,25.0,24.03400421142578,8300
2020-01-14,24.93000030517578,25.0,24.850000381469727,24.920000076293945,23.95709228515625,9000
2020-01-15,24.790000915527344,24.989999771118164,24.790000915527344,24.969999313354492,24.005159378051758,6000
2020-01-16,25.0,25.03499984741211,24.739999771118164,24.899999618530273,23.937864303588867,23200
2020-01-17,25.110000610351562,25.110000610351562,24.729999542236328,24.729999542236328,23.774433135986328,6600
2020-01-21,24.65999984741211,24.989999771118164,24.459999084472656,24.6299991607666,23.678298950195312,10400
2020-01-22,24.5,24.625,24.299999237060547,24.40999984741211,23.466800689697266,3800
2020-01-23,24.510000228881836,24.860000610351562,24.510000228881836,24.860000610351562,23.8994140625,3400
2020-01-24,24.709999084472656,24.959999084472656,24.649999618530273,24.649999618530273,23.69752311706543,6000
2020-01-27,24.889999389648438,25.38599967956543,24.59000015258789,24.59000015258789,23.639842987060547,33400
2020-01-28,25.0,25.08099937438965,24.799999237060547,25.0,24.03400421142578,12700
2020-01-29,25.030000686645508,25.3700008392334,25.0,25.3700008392334,24.389705657958984,12400
2020-01-30,25.139999389648438,25.18000030517578,24.8700008392334,24.8700008392334,23.909029006958008,4100
2020-01-31,24.65999984741211,24.969999313354492,24.60099983215332,24.780000686645508,23.82250213623047,13900
2020-02-03,25.030000686645508,25.75,24.768999099731445,25.260000228881836,24.283958435058594,33400
2020-02-04,25.530000686645508,25.6299991607666,24.81599998474121,25.399999618530273,24.41854476928711,20600
2020-02-05,25.600000381469727,26.299999237060547,25.600000381469727,26.0,24.995361328125,54200
2020-02-06,26.200000762939453,26.25,25.985000610351562,26.020000457763672,25.014591217041016,17800
2020-02-07,26.030000686645508,26.100000381469727,25.739999771118164,25.739999771118164,24.745407104492188,41300
2020-02-10,25.77400016784668,26.0,25.75,26.0,24.995361328125,6400
2020-02-11,26.059999465942383,26.200000762939453,26.059999465942383,26.110000610351562,25.101112365722656,7900
2020-02-12,26.31999969482422,26.31999969482422,26.200000762939453,26.209999084472656,25.197250366210938,7500
2020-02-13,26.100000381469727,26.510000228881836,26.100000381469727,26.5,25.5736141204834,26200
2020-02-14,26.25,26.260000228881836,26.139999389648438,26.190000534057617,25.274452209472656,7700
2020-02-18,26.280000686645508,26.639999389648438,25.56999969482422,25.56999969482422,24.676124572753906,9500
2020-02-19,25.860000610351562,26.139999389648438,25.600000381469727,25.600000381469727,24.705074310302734,19000
2020-02-20,25.610000610351562,25.843000411987305,25.510000228881836,25.709999084472656,24.81123161315918,10900
2020-02-21,25.780000686645508,25.93000030517578,25.450000762939453,25.450000762939453,24.560321807861328,25600
2020-02-24,24.979999542236328,25.315000534057617,24.899999618530273,25.030000686645508,24.155004501342773,7000
2020-02-25,25.139999389648438,25.325000762939453,24.649999618530273,24.899999618530273,24.029544830322266,15000
2020-02-26,25.010000228881836,25.239999771118164,24.75,25.0,24.126052856445312,9300
2020-02-27,24.899999618530273,25.31999969482422,24.719999313354492,24.770000457763672,23.90409278869629,32900
2020-02-28,24.3700008392334,24.850000381469727,23.489999771118164,24.06999969482422,23.22856330871582,41700
2020-03-02,23.92300033569336,24.283000946044922,23.68400001525879,24.079999923706055,23.23821258544922,16800
2020-03-03,23.959999084472656,24.3799991607666,22.969999313354492,23.18000030517578,22.36967658996582,15200
2020-03-04,23.75,23.75,22.799999237060547,23.59000015258789,22.765342712402344,37200
2020-03-05,23.139999389648438,23.59000015258789,21.299999237060547,21.600000381469727,20.84490966796875,16000
2020-03-06,21.309999465942383,22.100000381469727,21.267000198364258,21.690000534057617,20.9317626953125,14600
2020-03-09,20.850000381469727,21.333999633789062,18.700000762939453,19.5,18.81831932067871,20400
2020-03-10,19.850000381469727,19.850000381469727,16.604000091552734,18.610000610351562,17.959434509277344,34100
2020-03-11,17.709999084472656,18.450000762939453,17.270000457763672,17.469999313354492,16.859283447265625,30900
2020-03-12,16.719999313354492,17.6299991607666,15.100000381469727,15.109999656677246,14.581787109375,96200
2020-03-13,16.469999313354492,16.610000610351562,13.25,15.0,14.475629806518555,124600
2020-03-16,12.58899974822998,13.699999809265137,10.90999984741211,10.90999984741211,10.528607368469238,67400
2020-03-17,11.989999771118164,13.0,10.489999771118164,11.0,10.615462303161621,102900
2020-03-18,11.210000038146973,13.699999809265137,10.350000381469727,10.399999618530273,10.036437034606934,108700
2020-03-19,10.399999618530273,12.425000190734863,9.25,9.640000343322754,9.30300521850586,181200
2020-03-20,9.75,10.680000305175781,9.75,9.960000038146973,9.611820220947266,153700
2020-03-23,10.100000381469727,10.229999542236328,9.170000076293945,9.829999923706055,9.486364364624023,36300
2020-03-24,10.34000015258789,10.970000267028809,10.0,10.25,9.891681671142578,48500
2020-03-25,10.25,12.829999923706055,10.149999618530273,11.1899995803833,10.798820495605469,82900
2020-03-26,11.010000228881836,15.074999809265137,11.0,14.869999885559082,14.350174903869629,55100
2020-03-27,14.699999809265137,14.699999809265137,12.0,13.420000076293945,12.950865745544434,75200
2020-03-30,13.300000190734863,14.579999923706055,12.260000228881836,13.5,13.028069496154785,43100
2020-03-31,13.529999732971191,14.229999542236328,12.680000305175781,13.5,13.028069496154785,53600
2020-04-01,13.279999732971191,13.279999732971191,11.25,11.270000457763672,10.87602424621582,105100
2020-04-02,10.970000267028809,12.1899995803833,10.970000267028809,11.880000114440918,11.464699745178223,35500
2020-04-03,11.649999618530273,12.529999732971191,10.850000381469727,11.0,10.615462303161621,49600
2020-04-06,11.619999885559082,13.420000076293945,11.619999885559082,12.300000190734863,11.870018005371094,54300
2020-04-07,12.819999694824219,13.133999824523926,11.260000228881836,11.960000038146973,11.541903495788574,72100
2020-04-08,12.449999809265137,12.800000190734863,11.609999656677246,12.630000114440918,12.188482284545898,56600
2020-04-09,13.180000305175781,13.651000022888184,12.789999961853027,13.449999809265137,12.979816436767578,42200
2020-04-13,13.850000381469727,13.850000381469727,12.300000190734863,12.789999961853027,12.342888832092285,32500
2020-04-14,13.180000305175781,13.84000015258789,12.84000015258789,12.949999809265137,12.497294425964355,29100
2020-04-15,12.510000228881836,12.510000228881836,11.510000228881836,11.859999656677246,11.445398330688477,35100
2020-04-16,12.199999809265137,12.199999809265137,11.100000381469727,11.699999809265137,11.29099178314209,41400
2020-04-17,12.369999885559082,12.630000114440918,11.920000076293945,12.039999961853027,11.61910629272461,33300
2020-04-20,12.020000457763672,12.489999771118164,11.680000305175781,11.829999923706055,11.416447639465332,52200
2020-04-21,11.279999732971191,12.100000381469727,11.109999656677246,12.079999923706055,11.657708168029785,44500
2020-04-22,12.380000114440918,12.380000114440918,11.59000015258789,12.149999618530273,11.725260734558105,21200
2020-04-23,12.079999923706055,13.079999923706055,11.819999694824219,12.579999923706055,12.140229225158691,33500
2020-04-24,13.109999656677246,13.109999656677246,12.319999694824219,12.520000457763672,12.082327842712402,90400
2020-04-27,12.899999618530273,13.37600040435791,12.59000015258789,13.239999771118164,12.777155876159668,93300
2020-04-28,13.489999771118164,14.579999923706055,13.130000114440918,14.010000228881836,13.52023983001709,39900
2020-04-29,13.239999771118164,14.90999984741211,11.84000015258789,14.489999771118164,13.983458518981934,86400
2020-04-30,14.010000228881836,14.324999809265137,13.5,13.979999542236328,13.491287231445312,27400
2020-05-01,13.15999984741211,14.180000305175781,12.300999641418457,12.960000038146973,12.50694465637207,45300
2020-05-04,12.609999656677246,12.8100004196167,11.84000015258789,12.739999771118164,12.294635772705078,30700
2020-05-05,12.739999771118164,14.050000190734863,12.470000267028809,12.579999923706055,12.140229225158691,84400
2020-05-06,12.619999885559082,12.619999885559082,11.550000190734863,11.779999732971191,11.368195533752441,30900
2020-05-07,11.9399995803833,13.3100004196167,11.65999984741211,11.960000038146973,11.541903495788574,67500
2020-05-08,12.369999885559082,13.029999732971191,11.75,12.079999923706055,11.657708168029785,62800
2020-05-11,12.020000457763672,12.279999732971191,11.329999923706055,11.989999771118164,11.570854187011719,51200
2020-05-12,12.100000381469727,12.100000381469727,11.34000015258789,11.34000015258789,10.943577766418457,69000
2020-05-13,11.25,11.260000228881836,10.430000305175781,11.119999885559082,10.731267929077148,60100
2020-05-14,10.720000267028809,11.399999618530273,10.0,11.079999923706055,10.789695739746094,155400
2020-05-15,11.069999694824219,11.460000038146973,10.895000457763672,11.4399995803833,11.140263557434082,28100
2020-05-18,11.920000076293945,12.600000381469727,10.946999549865723,12.34000015258789,12.016682624816895,79900
2020-05-19,12.289999961853027,12.529999732971191,11.890000343322754,12.029999732971191,11.714803695678711,55300
2020-05-20,12.3100004196167,12.75,12.239999771118164,12.550000190734863,12.22118091583252,56900
2020-05-21,12.5,12.920000076293945,12.079999923706055,12.649999618530273,12.318560600280762,85600
2020-05-22,12.729999542236328,12.729999542236328,12.399999618530273,12.729999542236328,12.396463394165039,25200
2020-05-26,13.170000076293945,14.470000267028809,13.15999984741211,13.789999961853027,13.428690910339355,93800
2020-05-27,14.100000381469727,14.329999923706055,13.930000305175781,14.140000343322754,13.76952075958252,97200
2020-05-28,14.380000114440918,16.329999923706055,14.3100004196167,15.199999809265137,14.80174732208252,89300
2020-05-29,15.149999618530273,15.649999618530273,14.050000190734863,14.489999771118164,14.110349655151367,61600
2020-06-01,14.869999885559082,14.869999885559082,14.0,14.0,13.63318920135498,67700
2020-06-02,14.130000114440918,14.460000038146973,14.0,14.1899995803833,13.818211555480957,67600
2020-06-03,14.369999885559082,16.344999313354492,14.149999618530273,15.649999618530273,15.239957809448242,77000
2020-06-04,15.510000228881836,15.84000015258789,14.96500015258789,15.619999885559082,15.21074390411377,63700
2020-06-05,16.399999618530273,17.989999771118164,16.334999084472656,17.360000610351562,16.905155181884766,129400
2020-06-08,18.190000534057617,18.190000534057617,16.610000610351562,16.719999313354492,16.281923294067383,87400
2020-06-09,16.3700008392334,17.329999923706055,16.0,16.93000030517578,16.486421585083008,59000
2020-06-10,17.100000381469727,17.100000381469727,16.0,16.0,15.580787658691406,59100
2020-06-11,15.34000015258789,15.34000015258789,13.84000015258789,13.979999542236328,13.613712310791016,58100
2020-06-12,14.6899995803833,14.949999809265137,14.25,14.84000015258789,14.451181411743164,42800
2020-06-15,14.25,15.244999885559082,14.130000114440918,15.029999732971191,14.636202812194824,51200
2020-06-16,15.800000190734863,16.8700008392334,15.057999610900879,16.559999465942383,16.126113891601562,93000
2020-06-17,16.540000915527344,16.799999237060547,15.050000190734863,15.350000381469727,14.947819709777832,79200
2020-06-18,15.239999771118164,16.950000762939453,15.079999923706055,16.56999969482422,16.13585090637207,140100
2020-06-19,16.450000762939453,16.850000381469727,14.859999656677246,15.100000381469727,14.70436954498291,276100
2020-06-22,14.979999542236328,15.539999961853027,14.760000228881836,15.430000305175781,15.02572250366211,88000
2020-06-23,15.5600004196167,16.049999237060547,14.859999656677246,15.0,14.606987953186035,112400
2020-06-24,14.729999542236328,14.789999961853027,14.039999961853027,14.449999809265137,14.07139778137207,66700
2020-06-25,14.319999694824219,14.699999809265137,14.029999732971191,14.640000343322754,14.256421089172363,44300
2020-06-26,14.40999984741211,14.520000457763672,14.029999732971191,14.279999732971191,13.905853271484375,126000
2020-06-29,14.5,15.010000228881836,14.5,14.779999732971191,14.392751693725586,47500
2020-06-30,14.680000305175781,15.550000190734863,14.680000305175781,15.350000381469727,14.947819709777832,56600
2020-07-01,15.40999984741211,15.40999984741211,14.470000267028809,14.520000457763672,14.139565467834473,29700
2020-07-02,15.010000228881836,15.010000228881836,14.079999923706055,14.210000038146973,13.837687492370605,31900
2020-07-06,14.529999732971191,14.737000465393066,14.199999809265137,14.489999771118164,14.110349655151367,30100
2020-07-07,14.260000228881836,14.819999694824219,13.789999961853027,13.8100004196167,13.448168754577637,30600
2020-07-08,13.670000076293945,14.585000038146973,13.550000190734863,13.6899995803833,13.331311225891113,24900
2020-07-09,13.600000381469727,14.145000457763672,12.763999938964844,12.8100004196167,12.47436809539795,39400
2020-07-10,12.960000038146973,13.970000267028809,12.800000190734863,13.760000228881836,13.3994779586792,34200
2020-07-13,13.949999809265137,14.154999732971191,13.1899995803833,13.859999656677246,13.496856689453125,55100
2020-07-14,14.0,15.220000267028809,13.289999961853027,13.710000038146973,13.350788116455078,73000
2020-07-15,14.0,15.039999961853027,14.0,14.800000190734863,14.412229537963867,44400
2020-07-16,15.746999740600586,15.746999740600586,14.279999732971191,14.579999923706055,14.197993278503418,37900
2020-07-17,14.3100004196167,14.885000228881836,13.779999732971191,14.09000015258789,13.720830917358398,29700
2020-07-20,13.890000343322754,14.0600004196167,12.649999618530273,13.729999542236328,13.37026309967041,23000
2020-07-21,13.84000015258789,14.979999542236328,13.84000015258789,14.359999656677246,13.983757019042969,23900
2020-07-22,14.140000343322754,14.649999618530273,13.989999771118164,14.25,13.876640319824219,23000
2020-07-23,13.979999542236328,14.609999656677246,13.850000381469727,14.0,13.63318920135498,34600
2020-07-24,13.869999885559082,14.265000343322754,13.869999885559082,13.880000114440918,13.516334533691406,10500
2020-07-27,14.0600004196167,14.267999649047852,13.550000190734863,13.699999809265137,13.341050148010254,10700
2020-07-28,13.550000190734863,13.9399995803833,13.5,13.670000076293945,13.311835289001465,4700
2020-07-29,13.65999984741211,14.260000228881836,13.65999984741211,14.210000038146973,13.837687492370605,20500
2020-07-30,14.0,14.187999725341797,13.399999618530273,13.550000190734863,13.19498062133789,35100
2020-07-31,13.510000228881836,13.800000190734863,13.4399995803833,13.640000343322754,13.282622337341309,30000
2020-08-03,13.520000457763672,13.710000038146973,13.300000190734863,13.539999961853027,13.185242652893066,26900
2020-08-04,13.399999618530273,13.399999618530273,13.279999732971191,13.350000381469727,13.00022029876709,8700
2020-08-05,13.539999961853027,14.050000190734863,13.430000305175781,13.899999618530273,13.535809516906738,39900
2020-08-06,13.800000190734863,14.0,13.65999984741211,13.9399995803833,13.574760437011719,15700
2020-08-07,13.8100004196167,14.890000343322754,13.760000228881836,14.869999885559082,14.480395317077637,67000
2020-08-10,14.779999732971191,15.350000381469727,14.489999771118164,15.039999961853027,14.645940780639648,28900
2020-08-11,15.289999961853027,15.364999771118164,14.420000076293945,14.970000267028809,14.577775001525879,45600
2020-08-12,15.399999618530273,15.399999618530273,14.65999984741211,15.09000015258789,14.694631576538086,26900
2020-08-13,14.84000015258789,14.960000038146973,14.180000305175781,14.600000381469727,14.312315940856934,21000
2020-08-14,14.710000038146973,15.100000381469727,13.819999694824219,14.729999542236328,14.439752578735352,17200
2020-08-17,14.279999732971191,14.600000381469727,14.199999809265137,14.59000015258789,14.302512168884277,6000
2020-08-18,14.449999809265137,14.779999732971191,13.75,13.890000343322754,13.61630630493164,16200
2020-08-19,14.15999984741211,14.289999961853027,13.699999809265137,13.800000190734863,13.528079986572266,24800
2020-08-20,13.529999732971191,13.621000289916992,13.25,13.34000015258789,13.077143669128418,16200
2020-08-21,13.220000267028809,13.220000267028809,12.119999885559082,12.130000114440918,11.890985488891602,79800
2020-08-24,12.449999809265137,13.970000267028809,12.449999809265137,13.819999694824219,13.547683715820312,43300
2020-08-25,14.0,14.960000038146973,13.640000343322754,14.850000381469727,14.557389259338379,46500
2020-08-26,14.779999732971191,14.8100004196167,13.982999801635742,14.119999885559082,13.841773986816406,28400
2020-08-27,14.180000305175781,14.600000381469727,13.71500015258789,14.550000190734863,14.263301849365234,56500
2020-08-28,14.609999656677246,15.140000343322754,14.470000267028809,15.0600004196167,14.763251304626465,47200
2020-08-31,15.180000305175781,15.390000343322754,14.220000267028809,14.470000267028809,14.184876441955566,47400
2020-09-01,14.369999885559082,15.640000343322754,14.329999923706055,15.5,15.194581031799316,53100
2020-09-02,15.430000305175781,16.0,14.819999694824219,15.949999809265137,15.635713577270508,81200
2020-09-03,15.970000267028809,15.970000267028809,15.399999618530273,15.579999923706055,15.273005485534668,18100
2020-09-04,15.850000381469727,15.920000076293945,15.449999809265137,15.550000190734863,15.243597030639648,72700
2020-09-08,15.3100004196167,15.484999656677246,14.880000114440918,15.34000015258789,15.037734031677246,41300
2020-09-09,15.649999618530273,15.75,14.670000076293945,15.229999542236328,14.929900169372559,56300
2020-09-10,15.25,15.489999771118164,15.130000114440918,15.140000343322754,14.841675758361816,44900
2020-09-11,15.199999809265137,15.274999618530273,15.0,15.050000190734863,14.753448486328125,35300
2020-09-14,15.220000267028809,15.40999984741211,14.979999542236328,15.1899995803833,14.890689849853516,23400
2020-09-15,15.350000381469727,15.369999885559082,15.0600004196167,15.0600004196167,14.763251304626465,26200
2020-09-16,15.220000267028809,15.390000343322754,15.020000457763672,15.100000381469727,14.802464485168457,47300
2020-09-17,15.0,15.305000305175781,14.930000305175781,14.9399995803833,14.645614624023438,53900
2020-09-18,15.130000114440918,15.5600004196167,14.5649995803833,14.739999771118164,14.449556350708008,740400
2020-09-21,14.5,15.300000190734863,13.380000114440918,13.649999618530273,13.381033897399902,46600
2020-09-22,13.6899995803833,13.8100004196167,13.020000457763672,13.079999923706055,12.822265625,36000
2020-09-23,13.079999923706055,13.329999923706055,12.760000228881836,12.789999961853027,12.537981033325195,44500
2020-09-24,12.829999923706055,13.529999732971191,12.77400016784668,13.359999656677246,13.096748352050781,42800
2020-09-25,13.1899995803833,13.720000267028809,12.600000381469727,13.510000228881836,13.243793487548828,19800
2020-09-28,13.670000076293945,14.75,13.670000076293945,14.109999656677246,13.83197021484375,29300
2020-09-29,14.229999542236328,14.680000305175781,13.859999656677246,14.1899995803833,13.910393714904785,20900
2020-09-30,14.3100004196167,15.140000343322754,14.3100004196167,15.0,14.70443344116211,43400
2020-10-01,15.09000015258789,15.569999694824219,14.710000038146973,15.319999694824219,15.01812744140625,42200
2020-10-02,15.029999732971191,15.770000457763672,15.029999732971191,15.5,15.194581031799316,47000
2020-10-05,15.600000381469727,15.800000190734863,15.399999618530273,15.729999542236328,15.420049667358398,32000
2020-10-06,15.84000015258789,15.949999809265137,15.390000343322754,15.399999618530273,15.096551895141602,62000
2020-10-07,15.180000305175781,16.0,15.180000305175781,16.0,15.684728622436523,57900
2020-10-08,16.0,16.260000228881836,15.829999923706055,16.079999923706055,15.763153076171875,44000
2020-10-09,16.200000762939453,16.200000762939453,15.800000190734863,15.819999694824219,15.508275985717773,10500
2020-10-12,15.84000015258789,16.200000762939453,15.739999771118164,16.149999618530273,15.83177375793457,24800
2020-10-13,15.979999542236328,15.979999542236328,15.420000076293945,15.489999771118164,15.184778213500977,11400
2020-10-14,15.470000267028809,15.670000076293945,15.15999984741211,15.220000267028809,14.920099258422852,7500
2020-10-15,14.989999771118164,15.899999618530273,14.9399995803833,15.739999771118164,15.429852485656738,13700
2020-10-16,15.609999656677246,16.125,15.609999656677246,16.06999969482422,15.753349304199219,26800
2020-10-19,15.90999984741211,16.149999618530273,15.760000228881836,15.850000381469727,15.53768539428711,9700
2020-10-20,16.0,16.450000762939453,16.0,16.350000381469727,16.027833938598633,27400
2020-10-21,16.399999618530273,16.469999313354492,16.229000091552734,16.40999984741211,16.08664894104004,15600
2020-10-22,16.489999771118164,17.0,16.31999969482422,16.950000762939453,16.616010665893555,70500
2020-10-23,17.15999984741211,17.350000381469727,16.68000030517578,17.15999984741211,16.821870803833008,31600
2020-10-26,17.15999984741211,17.15999984741211,16.433000564575195,16.979999542236328,16.645418167114258,15800
2020-10-27,16.780000686645508,16.790000915527344,16.34000015258789,16.360000610351562,16.03763771057129,12300
2020-10-28,15.899999618530273,16.639999389648438,15.670000076293945,16.209999084472656,15.890591621398926,31000
2020-10-29,16.059999465942383,17.075000762939453,15.899999618530273,16.959999084472656,16.625810623168945,33200
2020-10-30,16.649999618530273,16.959999084472656,16.190000534057617,16.610000610351562,16.2827091217041,28900
2020-11-02,16.530000686645508,17.0,16.40999984741211,16.899999618530273,16.566993713378906,24300
2020-11-03,17.200000762939453,17.75,17.200000762939453,17.68000030517578,17.33162498474121,44700
2020-11-04,17.3700008392334,17.3700008392334,16.18000030517578,16.350000381469727,16.027833938598633,11100
2020-11-05,16.299999237060547,17.28499984741211,16.299999237060547,17.110000610351562,16.772855758666992,43000
2020-11-06,17.290000915527344,17.299999237060547,16.891000747680664,17.219999313354492,16.88068962097168,104000
2020-11-09,18.510000228881836,19.954999923706055,18.440000534057617,19.170000076293945,18.792264938354492,70600
2020-11-10,19.56999969482422,20.78499984741211,19.5,20.200000762939453,19.801969528198242,73500
2020-11-11,20.399999618530273,20.399999618530273,19.020000457763672,20.0,19.605911254882812,31600
2020-11-12,19.459999084472656,19.704999923706055,18.510000228881836,18.739999771118164,18.463054656982422,27000
2020-11-13,19.0,19.545000076293945,18.959999084472656,19.290000915527344,19.004926681518555,28100
2020-11-16,19.90999984741211,20.329999923706055,19.850000381469727,20.100000381469727,19.802955627441406,52500
2020-11-17,19.790000915527344,20.5,19.790000915527344,20.0,19.704435348510742,30400
2020-11-18,20.239999771118164,20.360000610351562,19.75,19.75,19.4581298828125,21300
2020-11-19,19.700000762939453,19.93000030517578,19.43400001525879,19.860000610351562,19.56650161743164,15400
2020-11-20,19.510000228881836,19.764999389648438,18.90999984741211,18.950000762939453,18.669950485229492,45600
2020-11-23,19.329999923706055,19.454999923706055,18.809999465942383,19.399999618530273,19.113300323486328,32300
2020-11-24,19.760000228881836,20.350000381469727,19.760000228881836,20.260000228881836,19.960590362548828,55600
2020-11-25,19.84000015258789,20.299999237060547,19.84000015258789,20.059999465942383,19.763545989990234,16200
2020-11-27,20.040000915527344,20.280000686645508,19.604999542236328,20.209999084472656,19.91132926940918,7600
2020-11-30,20.200000762939453,20.200000762939453,18.600000381469727,18.670000076293945,18.39409065246582,21800
2020-12-01,19.260000228881836,19.8700008392334,18.174999237060547,19.0,18.71921157836914,52800
2020-12-02,19.0,20.209999084472656,19.0,20.040000915527344,19.74384307861328,14300
2020-12-03,19.760000228881836,20.219999313354492,19.60099983215332,19.719999313354492,19.428571701049805,11600
2020-12-04,19.989999771118164,20.489999771118164,19.6200008392334,20.399999618530273,20.098522186279297,20200
2020-12-07,20.149999618530273,20.5,19.739999771118164,20.15999984741211,19.862070083618164,18800
2020-12-08,20.020000457763672,20.450000762939453,19.969999313354492,20.450000762939453,20.147785186767578,31400
2020-12-09,20.450000762939453,20.489999771118164,19.670000076293945,19.780000686645508,19.487686157226562,39500
2020-12-10,19.799999237060547,20.15999984741211,19.094999313354492,19.709999084472656,19.418716430664062,35600
2020-12-11,19.479999542236328,20.450000762939453,19.479999542236328,20.25,19.95073699951172,28600
2020-12-14,20.5,20.690000534057617,20.149999618530273,20.5,20.19704246520996,34100
2020-12-15,20.600000381469727,21.610000610351562,20.569000244140625,21.40999984741211,21.093595504760742,85100
2020-12-16,21.399999618530273,21.649999618530273,20.989999771118164,21.170000076293945,20.85714340209961,19600
2020-12-17,20.950000762939453,21.989999771118164,20.8799991607666,21.850000381469727,21.5270938873291,41200
2020-12-18,21.950000762939453,22.0,21.43000030517578,21.989999771118164,21.665023803710938,207400
2020-12-21,21.799999237060547,21.836000442504883,20.309999465942383,20.559999465942383,20.25615692138672,21700
2020-12-22,20.43000030517578,20.53499984741211,20.010000228881836,20.030000686645508,19.733991622924805,15800
2020-12-23,20.100000381469727,20.360000610351562,20.06999969482422,20.229999542236328,19.931034088134766,19700
2020-12-24,20.28499984741211,20.28499984741211,20.0,20.010000228881836,19.714284896850586,19500
2020-12-28,20.360000610351562,20.3799991607666,20.0,20.270000457763672,19.970443725585938,39300
2020-12-29,20.440000534057617,20.440000534057617,20.100000381469727,20.290000915527344,19.990148544311523,14300
2020-12-30,20.149999618530273,20.719999313354492,20.149999618530273,20.649999618530273,20.344825744628906,27000
