Date,Open,High,Low,Close,Adj Close,Volume
2019-03-18,24.75,24.75,24.75,24.75,21.22694206237793,1290500
2019-03-19,24.989999771118164,25.100000381469727,24.950000762939453,25.059999465942383,21.492813110351562,1880800
2019-03-20,25.09000015258789,25.200000762939453,25.030000686645508,25.170000076293945,21.587156295776367,1193000
2019-03-21,25.09000015258789,25.350000381469727,25.09000015258789,25.299999237060547,21.698650360107422,952400
2019-03-22,25.209999084472656,25.450000762939453,25.200000762939453,25.25,21.65576934814453,609800
2019-03-25,25.350000381469727,25.399999618530273,25.200000762939453,25.350000381469727,21.741533279418945,386600
2019-03-26,25.350000381469727,25.489999771118164,25.299999237060547,25.450000762939453,21.827299118041992,675600
2019-03-27,25.450000762939453,26.489999771118164,25.3700008392334,26.200000762939453,22.47054100036621,1848200
2019-03-28,26.059999465942383,26.299999237060547,25.961000442504883,26.0,22.299007415771484,316200
2019-03-29,26.049999237060547,26.149999618530273,25.700000762939453,25.700000762939453,22.041715621948242,232600
2019-04-01,25.899999618530273,25.989999771118164,25.799999237060547,25.8799991607666,22.19609260559082,83200
2019-04-02,25.957000732421875,26.09000015258789,25.770000457763672,25.899999618530273,22.213245391845703,191100
2019-04-03,25.75,25.979999542236328,25.729999542236328,25.809999465942383,22.13605308532715,269900
2019-04-04,25.81999969482422,26.049999237060547,25.780000686645508,25.780000686645508,22.11032485961914,129700
2019-04-05,25.8799991607666,25.950000762939453,25.815000534057617,25.850000381469727,22.170358657836914,185600
2019-04-08,25.90999984741211,25.950000762939453,25.809999465942383,25.950000762939453,22.25612449645996,331400
2019-04-09,25.941999435424805,25.950000762939453,25.799999237060547,25.85700035095215,22.176362991333008,136000
2019-04-10,25.884000778198242,25.989999771118164,25.829999923706055,25.989999771118164,22.29043197631836,159800
2019-04-11,25.860000610351562,25.989999771118164,25.860000610351562,25.899999618530273,22.213245391845703,214700
2019-04-12,25.93000030517578,26.1200008392334,25.850000381469727,26.09000015258789,22.37619400024414,128000
2019-04-15,26.020000457763672,26.209999084472656,26.020000457763672,26.110000610351562,22.39335060119629,98700
2019-04-16,26.190000534057617,26.229999542236328,26.020000457763672,26.049999237060547,22.34189224243164,198100
2019-04-17,26.100000381469727,26.18000030517578,26.020000457763672,26.15999984741211,22.43623161315918,96100
2019-04-18,26.059999465942383,26.360000610351562,26.020000457763672,26.100000381469727,22.384775161743164,258400
2019-04-22,26.139999389648438,26.15999984741211,26.014999389648438,26.110000610351562,22.39335060119629,212100
2019-04-23,26.1200008392334,26.190000534057617,26.059999465942383,26.110000610351562,22.39335060119629,44700
2019-04-24,26.135000228881836,26.15999984741211,26.079999923706055,26.104000091552734,22.388208389282227,50900
2019-04-25,26.110000610351562,26.239999771118164,26.049999237060547,26.219999313354492,22.487693786621094,87300
2019-04-26,26.209999084472656,26.5,26.190000534057617,26.5,22.727834701538086,192300
2019-04-29,26.549999237060547,26.670000076293945,26.479999542236328,26.579999923706055,22.796449661254883,188900
2019-04-30,26.59000015258789,26.75,26.40999984741211,26.40999984741211,22.650646209716797,338800
2019-05-01,26.440000534057617,26.549999237060547,26.40999984741211,26.549999237060547,22.77071762084961,237400
2019-05-02,26.440000534057617,26.56999969482422,26.440000534057617,26.520000457763672,22.7449893951416,53500
2019-05-03,26.559999465942383,26.600000381469727,26.510000228881836,26.540000915527344,22.762144088745117,38300
2019-05-06,26.5,26.6299991607666,26.420000076293945,26.56999969482422,22.787874221801758,26200
2019-05-07,26.5,26.573999404907227,26.40999984741211,26.5,22.727834701538086,34600
2019-05-08,26.474000930786133,26.5,26.399999618530273,26.4689998626709,22.701248168945312,72500
2019-05-09,26.5,26.549999237060547,26.309999465942383,26.444000244140625,22.679807662963867,90400
2019-05-10,26.43000030517578,26.520000457763672,26.389999389648438,26.479999542236328,22.710678100585938,23700
2019-05-13,26.479999542236328,26.479999542236328,26.139999389648438,26.3700008392334,22.616344451904297,67400
2019-05-14,26.3799991607666,26.5,26.350000381469727,26.489999771118164,22.71925926208496,29400
2019-05-15,26.350000381469727,26.719999313354492,26.350000381469727,26.709999084472656,22.907943725585938,55300
2019-05-16,26.729999542236328,26.799999237060547,26.670000076293945,26.670000076293945,22.87363624572754,60100
2019-05-17,26.6299991607666,26.799999237060547,26.6200008392334,26.760000228881836,22.95082664489746,26500
2019-05-20,26.6200008392334,26.84000015258789,26.610000610351562,26.610000610351562,22.82217788696289,66100
2019-05-21,26.639999389648438,26.709999084472656,26.510000228881836,26.600000381469727,22.813600540161133,85400
2019-05-22,26.670000076293945,26.719999313354492,26.56999969482422,26.6299991607666,22.839332580566406,40500
2019-05-23,26.59000015258789,26.75,26.59000015258789,26.68000030517578,22.88221549987793,37000
2019-05-24,26.679000854492188,26.75,26.649999618530273,26.729999542236328,22.92509651184082,54500
2019-05-28,26.75,26.9060001373291,26.708999633789062,26.8700008392334,23.045167922973633,49400
2019-05-29,26.860000610351562,26.933000564575195,26.81999969482422,26.93000030517578,23.096630096435547,82700
2019-05-30,26.950000762939453,27.139999389648438,26.950000762939453,27.139999389648438,23.276731491088867,30200
2019-05-31,26.90999984741211,27.09000015258789,26.780000686645508,26.780000686645508,22.967979431152344,244500
2019-06-03,26.75200080871582,26.93000030517578,26.75,26.8799991607666,23.053743362426758,21700
2019-06-04,26.90999984741211,27.079999923706055,26.888999938964844,27.059999465942383,23.208120346069336,156300
2019-06-05,27.079999923706055,27.09000015258789,26.850000381469727,26.920000076293945,23.08805274963379,95000
2019-06-06,26.860000610351562,26.979999542236328,26.84000015258789,26.899999618530273,23.070898056030273,43800
2019-06-07,26.56999969482422,26.639999389648438,26.440000534057617,26.639999389648438,23.20416259765625,56000
2019-06-10,26.590999603271484,26.75200080871582,26.590999603271484,26.729999542236328,23.282556533813477,163800
2019-06-11,26.809999465942383,26.829999923706055,26.649999618530273,26.709999084472656,23.265132904052734,65500
2019-06-12,26.690000534057617,26.790000915527344,26.670000076293945,26.780000686645508,23.326108932495117,99900
2019-06-13,26.75,26.90999984741211,26.75,26.90999984741211,23.439340591430664,297000
2019-06-14,26.84000015258789,26.93000030517578,26.829999923706055,26.8700008392334,23.40450096130371,88900
2019-06-17,26.81999969482422,27.079999923706055,26.81999969482422,27.010000228881836,23.526445388793945,214500
2019-06-18,27.0,27.0,26.639999389648438,26.739999771118164,23.2912654876709,561100
2019-06-19,26.739999771118164,26.829999923706055,26.68000030517578,26.799999237060547,23.343528747558594,70800
2019-06-20,26.8700008392334,26.8700008392334,26.690000534057617,26.739999771118164,23.2912654876709,78400
2019-06-21,26.739999771118164,26.790000915527344,26.6200008392334,26.6200008392334,23.18674659729004,41400
2019-06-24,26.700000762939453,26.770000457763672,26.399999618530273,26.479999542236328,23.06479835510254,66000
2019-06-25,26.40999984741211,26.49799919128418,25.729999542236328,26.040000915527344,22.681549072265625,426700
2019-06-26,26.06999969482422,26.190000534057617,26.010000228881836,26.15999984741211,22.78607177734375,102000
2019-06-27,26.15999984741211,26.329999923706055,26.15999984741211,26.270000457763672,22.881885528564453,91500
2019-06-28,26.260000228881836,26.6200008392334,26.25200080871582,26.6200008392334,23.18674659729004,258000
2019-07-01,26.34000015258789,26.511999130249023,26.34000015258789,26.43000030517578,23.02124786376953,31200
2019-07-02,26.34000015258789,26.489999771118164,26.309999465942383,26.450000762939453,23.038673400878906,56200
2019-07-03,26.503000259399414,26.610000610351562,26.399999618530273,26.600000381469727,23.16932487487793,37700
2019-07-05,26.566999435424805,26.649999618530273,26.54199981689453,26.649999618530273,23.212875366210938,11700
2019-07-08,26.600000381469727,26.68000030517578,26.600000381469727,26.649999618530273,23.212875366210938,32100
2019-07-09,26.600000381469727,26.770000457763672,26.600000381469727,26.770000457763672,23.317399978637695,37900
2019-07-10,26.6299991607666,26.770000457763672,26.6299991607666,26.68000030517578,23.23900604248047,29600
2019-07-11,26.65999984741211,26.780000686645508,26.65999984741211,26.780000686645508,23.326108932495117,15800
2019-07-12,26.690000534057617,26.850000381469727,26.690000534057617,26.850000381469727,23.3870792388916,4000
2019-07-15,26.82900047302246,27.010000228881836,26.78700065612793,26.860000610351562,23.39579200744629,40500
2019-07-16,26.81999969482422,26.947999954223633,26.658000946044922,26.719999313354492,23.27384376525879,68100
2019-07-17,26.81999969482422,26.899999618530273,26.75,26.860000610351562,23.39579200744629,44100
2019-07-18,26.739999771118164,26.940000534057617,26.739999771118164,26.940000534057617,23.465471267700195,32500
2019-07-19,26.860000610351562,26.899999618530273,26.790000915527344,26.899999618530273,23.430631637573242,28800
2019-07-22,26.860000610351562,27.0,26.816999435424805,27.0,23.51773452758789,41400
2019-07-23,26.959999084472656,27.010000228881836,26.92799949645996,27.0,23.51773452758789,27200
2019-07-24,26.979999542236328,27.079999923706055,26.850000381469727,27.0,23.51773452758789,68400
2019-07-25,26.940000534057617,27.079999923706055,26.93000030517578,27.020000457763672,23.535154342651367,59000
2019-07-26,27.079999923706055,27.089000701904297,26.969999313354492,27.049999237060547,23.561283111572266,31500
2019-07-29,27.06999969482422,27.100000381469727,26.889999389648438,27.010000228881836,23.526445388793945,31200
2019-07-30,26.979999542236328,27.15999984741211,26.979999542236328,27.079999923706055,23.587417602539062,70500
2019-07-31,27.06800079345703,27.260000228881836,27.042999267578125,27.239999771118164,23.726778030395508,166200
2019-08-01,27.18899917602539,27.329999923706055,26.799999237060547,26.90999984741211,23.439340591430664,54200
2019-08-02,26.850000381469727,27.038000106811523,26.775999069213867,26.969999313354492,23.49160385131836,26500
2019-08-05,26.76799964904785,26.76799964904785,26.450000762939453,26.690000534057617,23.24771499633789,26000
2019-08-06,26.469999313354492,26.899999618530273,26.469999313354492,26.850000381469727,23.3870792388916,38800
2019-08-07,26.60700035095215,26.889999389648438,26.60700035095215,26.850000381469727,23.3870792388916,27200
2019-08-08,26.760000228881836,27.0,26.760000228881836,26.979999542236328,23.50031280517578,24400
2019-08-09,27.010000228881836,27.131000518798828,26.989999771118164,27.059999465942383,23.56999397277832,28900
2019-08-12,27.020000457763672,27.1200008392334,27.0,27.079999923706055,23.587417602539062,56200
2019-08-13,26.889999389648438,27.18000030517578,26.889999389648438,27.110000610351562,23.613548278808594,42900
2019-08-14,27.09000015258789,27.200000762939453,26.950000762939453,27.200000762939453,23.691940307617188,58900
2019-08-15,27.149999618530273,27.229999542236328,27.149999618530273,27.229999542236328,23.71807098388672,41600
2019-08-16,27.219999313354492,27.325000762939453,27.187999725341797,27.219999313354492,23.70935821533203,30200
2019-08-19,27.191999435424805,27.34000015258789,27.079999923706055,27.290000915527344,23.770334243774414,46600
2019-08-20,27.100000381469727,27.290000915527344,27.100000381469727,27.200000762939453,23.691940307617188,79200
2019-08-21,27.170000076293945,27.489999771118164,27.170000076293945,27.43000030517578,23.892274856567383,65900
2019-08-22,27.27899932861328,27.479999542236328,27.27899932861328,27.450000762939453,23.909698486328125,48000
2019-08-23,27.440000534057617,27.479999542236328,27.350000381469727,27.450000762939453,23.909698486328125,38700
2019-08-26,27.43000030517578,27.450000762939453,27.360000610351562,27.40999984741211,23.87485694885254,26200
2019-08-27,27.420000076293945,27.489999771118164,27.260000228881836,27.350000381469727,23.82259178161621,44700
2019-08-28,27.290000915527344,27.399999618530273,27.170000076293945,27.280000686645508,23.761621475219727,58700
2019-08-29,27.239999771118164,27.3700008392334,27.149999618530273,27.350000381469727,23.82259178161621,58500
2019-08-30,27.299999237060547,27.489999771118164,27.18000030517578,27.299999237060547,23.779043197631836,199000
2019-09-03,27.200000762939453,27.5,27.190000534057617,27.489999771118164,23.944536209106445,54400
2019-09-04,27.5,28.059999465942383,27.239999771118164,27.3700008392334,23.840015411376953,157400
2019-09-05,27.299999237060547,27.517000198364258,27.0,27.290000915527344,23.770334243774414,69700
2019-09-06,27.260000228881836,27.3799991607666,27.059999465942383,27.299999237060547,23.779043197631836,40400
2019-09-09,27.1299991607666,27.170000076293945,26.81999969482422,27.149999618530273,24.011638641357422,65200
2019-09-10,27.003999710083008,27.149999618530273,26.81999969482422,26.920000076293945,23.808225631713867,146200
2019-09-11,26.899999618530273,27.149999618530273,26.899999618530273,27.1200008392334,23.985107421875,65100
2019-09-12,27.1299991607666,27.1299991607666,26.889999389648438,26.969999313354492,23.852447509765625,61000
2019-09-13,26.969999313354492,26.969999313354492,26.15999984741211,26.450000762939453,23.392559051513672,97600
2019-09-16,26.799999237060547,26.829999923706055,26.18000030517578,26.350000381469727,23.304115295410156,494600
2019-09-17,26.389999389648438,26.788000106811523,26.3799991607666,26.68000030517578,23.595972061157227,94100
2019-09-18,26.829999923706055,26.979999542236328,26.790000915527344,26.920000076293945,23.808225631713867,30400
2019-09-19,27.0,27.389999389648438,26.709999084472656,27.309999465942383,24.153146743774414,74800
2019-09-20,27.219999313354492,28.420000076293945,27.209999084472656,27.450000762939453,24.27696418762207,39400
2019-09-23,27.3799991607666,27.860000610351562,27.3799991607666,27.709999084472656,24.506908416748047,95800
2019-09-24,27.739999771118164,27.78499984741211,27.246999740600586,27.280000686645508,24.12661361694336,105100
2019-09-25,27.770000457763672,27.770000457763672,27.299999237060547,27.450000762939453,24.27696418762207,30200
2019-09-26,27.56399917602539,27.57200050354004,27.09000015258789,27.229999542236328,24.082393646240234,44100
2019-09-27,27.5,27.520000457763672,27.260000228881836,27.450000762939453,24.27696418762207,53900
2019-09-30,27.5,27.979999542236328,27.445999145507812,27.6200008392334,24.42731475830078,207500
2019-10-01,27.600000381469727,27.670000076293945,27.280000686645508,27.604999542236328,24.414045333862305,37700
2019-10-02,27.079999923706055,27.6200008392334,27.059999465942383,27.510000228881836,24.330026626586914,22700
2019-10-03,27.299999237060547,27.55900001525879,27.25,27.489999771118164,24.31233787536621,13900
2019-10-04,27.299999237060547,27.719999313354492,27.290000915527344,27.3799991607666,24.215055465698242,49000
2019-10-07,27.3799991607666,27.3799991607666,27.25,27.31999969482422,24.161989212036133,20900
2019-10-08,27.350000381469727,27.489999771118164,27.299999237060547,27.440000534057617,24.26812171936035,27300
2019-10-09,27.600000381469727,27.739999771118164,27.388999938964844,27.719999313354492,24.5157527923584,21500
2019-10-10,27.770000457763672,27.969999313354492,27.610000610351562,27.969999313354492,24.736854553222656,32400
2019-10-11,27.959999084472656,27.959999084472656,27.670000076293945,27.829999923706055,24.613039016723633,25200
2019-10-14,27.850000381469727,28.139999389648438,27.780000686645508,28.020000457763672,24.78107452392578,54100
2019-10-15,28.0049991607666,28.25,27.920000076293945,28.09000015258789,24.84298324584961,22800
2019-10-16,28.1200008392334,28.3700008392334,27.600000381469727,28.3700008392334,25.090620040893555,49700
2019-10-17,27.950000762939453,28.450000762939453,27.950000762939453,28.297000885009766,25.02605628967285,140500
2019-10-18,28.11199951171875,28.540000915527344,28.11199951171875,28.520000457763672,25.22327995300293,104900
2019-10-21,28.510000228881836,28.54800033569336,28.309999465942383,28.350000381469727,25.07292938232422,31800
2019-10-22,28.329999923706055,28.399999618530273,28.020000457763672,28.299999237060547,25.02870750427246,51900
2019-10-23,28.260000228881836,28.459999084472656,28.239999771118164,28.25,24.984485626220703,41200
2019-10-24,28.209999084472656,28.31999969482422,28.049999237060547,28.170000076293945,24.913734436035156,40700
2019-10-25,28.049999237060547,28.179000854492188,27.902999877929688,28.0,24.76338768005371,37800
2019-10-28,27.860000610351562,27.979999542236328,27.760000228881836,27.969999313354492,24.736854553222656,19700
2019-10-29,27.459999084472656,27.959999084472656,27.459999084472656,27.520000457763672,24.3388729095459,45600
2019-10-30,27.399999618530273,27.739999771118164,27.299999237060547,27.700000762939453,24.49806785583496,48600
2019-10-31,27.64299964904785,27.889999389648438,27.56999969482422,27.889999389648438,24.666099548339844,183400
2019-11-01,27.549999237060547,27.719999313354492,27.46299934387207,27.719999313354492,24.5157527923584,23200
2019-11-04,27.649999618530273,27.889999389648438,27.610000610351562,27.84000015258789,24.62187957763672,25100
2019-11-05,27.889999389648438,27.889999389648438,27.229999542236328,27.25,24.100080490112305,46000
2019-11-06,27.239999771118164,27.368000030517578,27.15999984741211,27.229999542236328,24.082393646240234,43700
2019-11-07,27.290000915527344,27.527000427246094,27.0,27.1299991607666,23.99395179748535,48400
2019-11-08,27.1299991607666,27.31999969482422,27.059999465942383,27.1299991607666,23.99395179748535,22600
2019-11-11,27.170000076293945,27.200000762939453,27.030000686645508,27.040000915527344,23.914358139038086,14500
2019-11-12,27.131999969482422,27.198999404907227,27.010000228881836,27.049999237060547,23.923200607299805,35200
2019-11-13,27.18899917602539,27.18899917602539,27.0,27.09000015258789,23.95857810974121,32700
2019-11-14,27.170000076293945,27.29199981689453,27.1200008392334,27.18000030517578,24.038171768188477,39000
2019-11-15,27.110000610351562,27.222000122070312,27.049999237060547,27.1200008392334,23.985107421875,17300
2019-11-18,27.059999465942383,27.200000762939453,27.049999237060547,27.1200008392334,23.985107421875,25800
2019-11-19,27.100000381469727,27.15999984741211,26.950000762939453,27.0,23.87898063659668,257500
2019-11-20,26.966999053955078,27.020000457763672,26.649999618530273,26.78700065612793,23.690601348876953,79600
2019-11-21,26.81999969482422,26.989999771118164,26.809999465942383,26.989999771118164,23.870134353637695,34400
2019-11-22,26.8700008392334,27.059999465942383,26.8700008392334,26.979999542236328,23.861291885375977,14000
2019-11-25,26.985000610351562,26.985000610351562,26.860000610351562,26.920000076293945,23.808225631713867,16600
2019-11-26,26.906999588012695,26.950000762939453,26.84000015258789,26.920000076293945,23.808225631713867,24600
2019-11-27,26.899999618530273,26.957000732421875,26.700000762939453,26.75,23.65787696838379,33300
2019-11-29,26.801000595092773,26.80500030517578,26.600000381469727,26.670000076293945,23.58712387084961,72900
2019-12-02,26.690000534057617,26.760000228881836,26.350000381469727,26.639999389648438,23.560592651367188,40400
2019-12-03,26.540000915527344,26.719999313354492,26.459999084472656,26.540000915527344,23.472152709960938,112800
2019-12-04,26.6200008392334,26.799999237060547,26.565000534057617,26.780000686645508,23.684410095214844,71800
2019-12-05,26.600000381469727,26.780000686645508,26.510000228881836,26.68000030517578,23.595972061157227,81300
2019-12-06,26.649999618530273,26.860000610351562,26.597999572753906,26.860000610351562,23.755163192749023,19200
2019-12-09,26.579999923706055,26.700000762939453,26.5,26.670000076293945,23.955463409423828,54200
2019-12-10,26.520000457763672,26.829999923706055,26.520000457763672,26.829999923706055,24.099180221557617,22000
2019-12-11,26.858999252319336,26.93000030517578,26.600000381469727,26.899999618530273,24.162057876586914,45100
2019-12-12,26.899999618530273,27.149999618530273,26.809999465942383,27.149999618530273,24.386608123779297,35200
2019-12-13,26.927000045776367,27.469999313354492,26.927000045776367,27.459999084472656,24.665056228637695,20600
2019-12-16,27.799999237060547,27.84000015258789,27.31100082397461,27.84000015258789,25.006380081176758,27700
2019-12-17,27.56999969482422,28.25,27.56999969482422,28.239999771118164,25.36566734313965,52900
2019-12-18,28.229999542236328,28.229999542236328,27.770000457763672,27.770000457763672,24.943506240844727,40500
2019-12-19,27.690000534057617,27.87700080871582,27.530000686645508,27.87700080871582,25.039615631103516,27400
2019-12-20,27.989999771118164,27.989999771118164,27.6200008392334,27.639999389648438,24.82673454284668,23800
2019-12-23,27.799999237060547,27.799999237060547,27.5,27.68000030517578,24.8626651763916,17700
2019-12-24,27.75,27.75,27.552000045776367,27.65999984741211,24.84469985961914,6100
2019-12-26,27.799999237060547,27.799999237060547,27.510000228881836,27.510000228881836,24.70996856689453,12100
2019-12-27,27.59000015258789,27.760000228881836,27.559999465942383,27.649999618530273,24.835718154907227,18700
2019-12-30,27.549999237060547,27.75,27.524999618530273,27.670000076293945,24.853683471679688,7400
2019-12-31,27.6200008392334,27.75,27.520000457763672,27.75,24.925540924072266,38500
2020-01-02,27.6299991607666,28.047000885009766,27.6299991607666,27.920000076293945,25.07823944091797,183400
2020-01-03,27.950000762939453,28.260000228881836,27.920000076293945,28.06999969482422,25.212970733642578,30700
2020-01-06,28.115999221801758,28.135000228881836,28.040000915527344,28.059999465942383,25.20398712158203,14200
2020-01-07,28.010000228881836,28.040000915527344,27.549999237060547,27.700000762939453,24.880630493164062,109100
2020-01-08,27.65999984741211,27.770000457763672,27.59000015258789,27.649999618530273,24.835718154907227,65800
2020-01-09,27.579999923706055,27.690000534057617,27.510000228881836,27.65999984741211,24.84469985961914,37700
2020-01-10,27.700000762939453,27.729999542236328,27.610000610351562,27.729999542236328,24.907577514648438,32600
2020-01-13,27.700000762939453,27.799999237060547,27.667999267578125,27.700000762939453,24.880630493164062,57600
2020-01-14,27.649999618530273,27.739999771118164,27.584999084472656,27.739999771118164,24.91655921936035,20100
2020-01-15,27.700000762939453,27.700000762939453,27.440000534057617,27.450000762939453,24.656078338623047,53800
2020-01-16,27.559999465942383,27.559999465942383,27.31999969482422,27.433000564575195,24.640806198120117,45000
2020-01-17,27.34000015258789,27.729999542236328,27.34000015258789,27.690000534057617,24.87164878845215,47500
2020-01-21,27.739999771118164,27.75,27.559999465942383,27.700000762939453,24.880630493164062,32700
2020-01-22,27.600000381469727,27.700000762939453,27.55500030517578,27.700000762939453,24.880630493164062,24500
2020-01-23,27.66900062561035,27.700000762939453,27.584999084472656,27.610000610351562,24.79979133605957,15900
2020-01-24,27.68000030517578,27.790000915527344,27.549999237060547,27.700000762939453,24.880630493164062,23000
2020-01-27,27.68000030517578,27.700000762939453,27.450000762939453,27.5,24.700986862182617,161000
2020-01-28,27.5,27.649999618530273,27.399999618530273,27.420000076293945,24.62912940979004,47600
2020-01-29,27.5,27.954999923706055,27.459999084472656,27.950000762939453,25.10518455505371,32200
2020-01-30,27.639999389648438,28.139999389648438,27.639999389648438,28.1299991607666,25.266862869262695,21700
2020-01-31,27.97800064086914,28.24799919128418,27.97800064086914,28.06999969482422,25.212970733642578,36600
2020-02-03,28.100000381469727,28.198999404907227,27.940000534057617,28.149999618530273,25.28483009338379,12200
2020-02-04,27.93600082397461,28.149999618530273,27.93600082397461,28.033000946044922,25.179738998413086,13900
2020-02-05,28.1200008392334,28.139999389648438,27.850000381469727,28.010000228881836,25.159076690673828,14400
2020-02-06,28.049999237060547,28.149999618530273,28.010000228881836,28.1299991607666,25.266862869262695,20600
2020-02-07,28.149999618530273,28.260000228881836,28.030000686645508,28.190000534057617,25.320758819580078,13700
2020-02-10,28.0,28.53700065612793,28.0,28.5,25.599206924438477,27700
2020-02-11,28.5,28.899999618530273,28.243999481201172,28.860000610351562,25.922565460205078,25800
2020-02-12,28.850000381469727,29.399999618530273,28.31999969482422,28.399999618530273,25.509382247924805,40500
2020-02-13,28.84000015258789,28.889999389648438,28.469999313354492,28.499000549316406,25.598304748535156,28300
2020-02-14,28.5,28.80299949645996,28.309999465942383,28.389999389648438,25.500398635864258,15700
2020-02-18,28.239999771118164,28.530000686645508,28.239999771118164,28.40999984741211,25.51836395263672,19800
2020-02-19,28.440000534057617,28.614999771118164,28.040000915527344,28.040000915527344,25.186023712158203,77400
2020-02-20,28.040000915527344,28.17300033569336,28.040000915527344,28.15999984741211,25.29380989074707,22800
2020-02-21,28.110000610351562,28.18199920654297,27.725000381469727,27.969999313354492,25.12314796447754,16200
2020-02-24,27.66900062561035,27.81100082397461,27.530000686645508,27.56999969482422,24.76386260986328,33200
2020-02-25,27.75,28.55500030517578,27.049999237060547,27.059999465942383,24.305770874023438,41700
2020-02-26,27.584999084472656,27.600000381469727,26.979999542236328,27.264999389648438,24.489904403686523,41600
2020-02-27,26.899999618530273,27.43000030517578,26.59000015258789,26.899999618530273,24.162057876586914,45800
2020-02-28,26.700000762939453,26.863000869750977,26.149999618530273,26.239999771118164,23.569231033325195,72300
2020-03-02,26.639999389648438,27.11400032043457,26.639999389648438,27.040000915527344,24.287809371948242,32500
2020-03-03,27.17300033569336,27.739999771118164,27.100000381469727,27.170000076293945,24.404573440551758,23600
2020-03-04,27.299999237060547,27.889999389648438,27.209999084472656,27.850000381469727,25.015361785888672,47300
2020-03-05,27.639999389648438,27.652000427246094,27.100000381469727,27.329999923706055,24.548290252685547,30900
2020-03-06,27.200000762939453,27.242000579833984,26.149999618530273,26.260000228881836,23.587196350097656,91400
2020-03-09,25.43000030517578,25.725000381469727,23.510000228881836,25.059999465942383,22.869003295898438,160800
2020-03-10,25.1200008392334,26.280000686645508,24.25,25.950000762939453,23.68119239807129,70900
2020-03-11,25.510000228881836,25.649999618530273,25.110000610351562,25.299999237060547,23.0880184173584,107200
2020-03-12,25.040000915527344,25.040000915527344,22.600000381469727,23.559999465942383,21.50014877319336,115400
2020-03-13,24.0,24.915000915527344,23.30500030517578,24.81999969482422,22.64998435974121,61600
2020-03-16,22.75,24.149999618530273,20.0,21.559999465942383,19.67500877380371,85900
2020-03-17,24.700000762939453,24.700000762939453,22.420000076293945,22.5,20.53282356262207,74700
2020-03-18,22.170000076293945,22.170000076293945,13.010000228881836,16.25,14.829262733459473,134400
2020-03-19,14.890000343322754,20.0,13.039999961853027,18.59000015258789,16.964675903320312,150800
2020-03-20,20.350000381469727,22.670000076293945,16.329999923706055,16.329999923706055,14.902268409729004,90900
2020-03-23,16.299999237060547,16.950000762939453,14.0,15.5600004196167,14.199590682983398,94300
2020-03-24,16.43000030517578,21.0,16.388999938964844,20.5,18.707683563232422,89600
2020-03-25,22.399999618530273,24.639999389648438,20.690000534057617,22.670000076293945,20.687963485717773,130400
2020-03-26,22.43000030517578,24.489999771118164,22.43000030517578,23.989999771118164,21.89255714416504,69200
2020-03-27,23.760000228881836,23.986000061035156,22.299999237060547,22.902000427246094,20.89967918395996,67400
2020-03-30,22.079999923706055,24.0,22.079999923706055,23.110000610351562,21.089492797851562,65000
2020-03-31,23.31999969482422,24.469999313354492,22.84000015258789,24.329999923706055,22.202829360961914,62700
2020-04-01,24.0,24.0,21.170000076293945,22.020000457763672,20.094791412353516,79000
2020-04-02,21.93000030517578,22.790000915527344,20.549999237060547,22.40999984741211,20.450693130493164,61600
2020-04-03,22.5,22.73699951171875,20.030000686645508,20.93000030517578,19.10009002685547,51400
2020-04-06,22.860000610351562,23.75,22.131000518798828,22.170000076293945,20.231678009033203,37600
2020-04-07,22.5,23.219999313354492,22.21299934387207,22.809999465942383,20.815723419189453,68800
2020-04-08,23.0,24.520000457763672,22.833999633789062,23.81999969482422,21.737415313720703,138200
2020-04-09,23.920000076293945,24.850000381469727,23.55900001525879,24.40999984741211,22.275833129882812,124900
2020-04-13,24.510000228881836,24.510000228881836,23.75,24.3799991607666,22.248455047607422,37500
2020-04-14,24.600000381469727,24.850000381469727,24.399999618530273,24.729999542236328,22.567855834960938,66600
2020-04-15,24.579999923706055,24.649999618530273,23.520000457763672,24.469999313354492,22.33058738708496,78800
2020-04-16,24.5,24.850000381469727,23.841999053955078,24.799999237060547,22.63173484802246,60900
2020-04-17,25.0,25.079999923706055,24.649999618530273,24.649999618530273,22.494848251342773,97800
2020-04-20,24.549999237060547,24.899999618530273,24.0,24.601999282836914,22.451047897338867,48900
2020-04-21,24.899999618530273,24.90999984741211,23.8799991607666,24.09000015258789,21.983814239501953,41700
2020-04-22,24.479999542236328,24.899999618530273,24.25,24.520000457763672,22.3762149810791,52800
2020-04-23,24.780000686645508,25.149999618530273,24.6299991607666,24.90999984741211,22.732118606567383,72500
2020-04-24,25.139999389648438,25.139999389648438,24.5,24.899999618530273,22.722991943359375,40000
2020-04-27,25.049999237060547,25.09000015258789,24.75,24.829999923706055,22.65911293029785,75900
2020-04-28,25.0,25.0,24.75,24.889999389648438,22.713865280151367,52200
2020-04-29,25.0,25.100000381469727,24.75,24.93000030517578,22.7503719329834,89000
2020-04-30,24.829999923706055,25.139999389648438,24.75,24.969999313354492,22.78687286376953,62700
2020-05-01,24.899999618530273,24.899999618530273,24.510000228881836,24.809999465942383,22.6408634185791,34700
2020-05-04,24.899999618530273,25.010000228881836,24.5,24.75,22.586105346679688,45500
2020-05-05,24.8799991607666,25.010000228881836,24.600000381469727,24.639999389648438,22.4857234954834,44800
2020-05-06,24.959999084472656,25.110000610351562,24.513999938964844,24.950000762939453,22.768625259399414,53900
2020-05-07,25.0,25.1200008392334,24.790000915527344,24.899999618530273,22.722991943359375,54500
2020-05-08,25.024999618530273,25.110000610351562,24.753000259399414,25.059999465942383,22.869003295898438,58000
2020-05-11,25.079999923706055,25.148000717163086,24.861000061035156,24.969999313354492,22.78687286376953,72400
2020-05-12,25.149999618530273,25.299999237060547,25.09000015258789,25.299999237060547,23.0880184173584,97600
2020-05-13,25.299999237060547,25.299999237060547,24.847999572753906,25.190000534057617,22.987638473510742,35700
2020-05-14,25.100000381469727,25.459999084472656,24.389999389648438,25.450000762939453,23.22490882873535,46900
2020-05-15,25.350000381469727,25.642000198364258,25.350000381469727,25.6200008392334,23.380046844482422,18300
2020-05-18,25.780000686645508,25.780000686645508,24.780000686645508,24.780000686645508,22.613483428955078,214400
2020-05-19,24.860000610351562,24.860000610351562,24.510000228881836,24.799999237060547,22.63173484802246,45900
2020-05-20,24.8799991607666,25.06999969482422,24.75,24.8799991607666,22.704740524291992,73900
2020-05-21,24.950000762939453,25.0,24.850000381469727,24.920000076293945,22.741243362426758,74200
2020-05-22,24.920000076293945,25.049999237060547,24.84000015258789,24.979999542236328,22.79599952697754,39800
2020-05-26,25.06999969482422,25.209999084472656,24.979999542236328,25.030000686645508,22.841625213623047,39100
2020-05-27,25.15999984741211,25.579999923706055,25.020000457763672,25.579999923706055,23.343538284301758,59600
2020-05-28,25.43000030517578,25.489999771118164,25.200000762939453,25.420000076293945,23.197526931762695,49100
2020-05-29,25.309999465942383,25.899999618530273,25.25,25.790000915527344,23.535181045532227,50100
2020-06-01,25.850000381469727,25.989999771118164,25.549999237060547,25.959999084472656,23.69031524658203,28100
2020-06-02,25.860000610351562,25.989999771118164,25.69099998474121,25.8799991607666,23.6173095703125,32300
2020-06-03,25.989999771118164,25.989999771118164,25.552000045776367,25.8700008392334,23.608186721801758,34500
2020-06-04,25.860000610351562,26.100000381469727,25.65999984741211,26.0,23.726818084716797,38900
2020-06-05,26.030000686645508,26.239999771118164,25.920000076293945,25.979999542236328,23.708568572998047,27800
2020-06-08,26.020000457763672,26.639999389648438,26.020000457763672,26.549999237060547,24.22873306274414,52900
2020-06-09,26.350000381469727,26.350000381469727,25.850000381469727,25.850000381469727,23.96268653869629,50400
2020-06-10,26.010000228881836,26.149999618530273,25.68000030517578,26.100000381469727,24.194435119628906,31200
2020-06-11,25.34000015258789,25.670000076293945,24.8799991607666,25.030000686645508,23.202556610107422,56400
2020-06-12,25.469999313354492,25.68000030517578,25.05500030517578,25.06999969482422,23.239635467529297,36700
2020-06-15,25.069000244140625,25.600000381469727,24.864999771118164,25.579999923706055,23.712398529052734,33300
2020-06-16,25.5,25.860000610351562,25.43000030517578,25.547000885009766,23.68181037902832,49900
2020-06-17,25.606000900268555,25.690000534057617,25.26099967956543,25.600000381469727,23.730939865112305,36300
2020-06-18,25.540000915527344,25.836999893188477,25.5,25.739999771118164,23.8607177734375,25100
2020-06-19,25.402000427246094,25.979999542236328,25.402000427246094,25.860000610351562,23.97195816040039,16300
2020-06-22,25.979999542236328,25.989999771118164,25.270000457763672,25.56999969482422,23.703128814697266,19700
2020-06-23,25.760000228881836,25.895999908447266,25.299999237060547,25.350000381469727,23.499191284179688,18300
2020-06-24,25.399999618530273,25.399999618530273,24.829999923706055,25.350000381469727,23.499191284179688,29600
2020-06-25,25.350000381469727,25.440000534057617,25.1299991607666,25.260000228881836,23.415761947631836,34400
2020-06-26,25.299999237060547,25.420000076293945,25.229999542236328,25.3700008392334,23.517732620239258,25300
2020-06-29,25.260000228881836,25.639999389648438,25.200000762939453,25.639999389648438,23.76801872253418,19400
2020-06-30,25.350000381469727,25.639999389648438,25.09000015258789,25.149999618530273,23.313793182373047,90900
2020-07-01,25.156999588012695,25.31999969482422,25.100000381469727,25.100000381469727,23.267444610595703,41200
2020-07-02,25.15999984741211,25.299999237060547,25.15999984741211,25.15999984741211,23.32306671142578,24200
2020-07-06,25.229999542236328,25.375,25.200000762939453,25.280000686645508,23.434303283691406,17900
2020-07-07,25.360000610351562,25.360000610351562,25.049999237060547,25.219999313354492,23.378684997558594,29600
2020-07-08,25.149999618530273,25.290000915527344,24.8799991607666,24.8799991607666,23.063507080078125,53500
2020-07-09,25.090999603271484,25.150999069213867,24.8799991607666,24.989999771118164,23.165475845336914,48900
2020-07-10,24.989999771118164,25.15999984741211,24.989999771118164,25.1299991607666,23.29525375366211,38000
2020-07-13,25.260000228881836,25.290000915527344,25.104000091552734,25.149999618530273,23.313793182373047,20500
2020-07-14,25.110000610351562,25.309999465942383,25.110000610351562,25.299999237060547,23.452842712402344,15100
2020-07-15,25.399999618530273,25.64900016784668,25.33300018310547,25.639999389648438,23.76801872253418,21600
2020-07-16,25.600000381469727,25.969999313354492,25.5,25.969999313354492,24.073925018310547,25200
2020-07-17,25.8799991607666,25.940000534057617,25.770000457763672,25.780000686645508,23.897796630859375,14800
2020-07-20,26.030000686645508,26.100000381469727,25.746999740600586,26.100000381469727,24.194435119628906,14100
2020-07-21,25.96500015258789,26.190000534057617,25.96500015258789,26.190000534057617,24.277864456176758,12600
2020-07-22,26.25,26.25,26.010000228881836,26.09000015258789,24.185163497924805,26300
2020-07-23,26.18000030517578,26.18000030517578,25.959999084472656,26.100000381469727,24.194435119628906,18700
2020-07-24,26.18000030517578,26.25,26.055999755859375,26.170000076293945,24.259323120117188,18200
2020-07-27,25.860000610351562,26.25,25.860000610351562,25.959999084472656,24.064655303955078,28100
2020-07-28,26.06999969482422,26.239999771118164,26.049999237060547,26.049999237060547,24.148086547851562,28300
2020-07-29,26.229999542236328,26.496000289916992,26.12700080871582,26.354999542236328,24.430818557739258,35500
2020-07-30,26.479999542236328,26.530000686645508,26.360000610351562,26.360000610351562,24.43545150756836,19200
2020-07-31,26.690000534057617,26.690000534057617,26.239999771118164,26.459999084472656,24.528148651123047,17900
2020-08-03,26.59000015258789,26.600000381469727,26.209999084472656,26.389999389648438,24.463260650634766,13100
2020-08-04,26.59000015258789,26.613000869750977,26.42300033569336,26.549999237060547,24.61157989501953,9900
2020-08-05,26.68000030517578,26.8700008392334,26.51099967956543,26.83799934387207,24.87855339050293,19400
2020-08-06,26.84000015258789,26.84600067138672,26.399999618530273,26.450000762939453,24.518882751464844,26600
2020-08-07,26.549999237060547,26.670000076293945,26.31999969482422,26.420000076293945,24.491071701049805,24900
2020-08-10,26.600000381469727,26.899999618530273,26.489999771118164,26.829999923706055,24.871137619018555,15000
2020-08-11,26.899999618530273,26.899999618530273,26.459999084472656,26.459999084472656,24.528148651123047,32100
2020-08-12,26.739999771118164,26.940000534057617,26.600000381469727,26.850000381469727,24.88967514038086,21900
2020-08-13,26.920000076293945,26.969999313354492,26.709999084472656,26.934999465942383,24.968469619750977,25400
2020-08-14,26.8799991607666,27.079999923706055,26.6299991607666,26.920000076293945,24.954565048217773,34700
2020-08-17,26.940000534057617,27.079999923706055,26.69700050354004,26.899999618530273,24.93602752685547,12000
2020-08-18,26.920000076293945,27.110000610351562,26.704999923706055,27.110000610351562,25.130695343017578,14500
2020-08-19,27.100000381469727,27.149999618530273,26.90999984741211,27.094999313354492,25.116788864135742,28000
2020-08-20,27.100000381469727,27.149999618530273,27.100000381469727,27.149999618530273,25.167774200439453,19000
2020-08-21,27.170000076293945,27.360000610351562,26.950000762939453,27.360000610351562,25.362442016601562,18300
2020-08-24,27.25,27.3799991607666,27.1299991607666,27.200000762939453,25.21412467956543,22100
2020-08-25,27.190000534057617,27.229999542236328,26.989999771118164,27.139999389648438,25.15850257873535,23400
2020-08-26,27.100000381469727,27.25,27.0,27.239999771118164,25.251203536987305,27200
2020-08-27,27.19499969482422,27.3799991607666,27.19499969482422,27.3700008392334,25.37171173095703,20400
2020-08-28,27.43000030517578,27.437000274658203,27.190000534057617,27.211999893188477,25.225248336791992,14000
2020-08-31,27.6299991607666,27.6299991607666,27.100000381469727,27.209999084472656,25.223392486572266,45000
2020-09-01,27.15999984741211,27.40999984741211,26.90999984741211,27.05500030517578,25.079710006713867,27500
2020-09-02,27.093000411987305,27.1299991607666,26.915000915527344,26.950000762939453,24.982376098632812,22700
2020-09-03,27.0,27.290000915527344,26.899999618530273,26.96500015258789,24.99628257751465,36600
2020-09-04,27.024999618530273,27.024999618530273,26.510000228881836,26.81999969482422,24.861865997314453,34000
2020-09-08,26.850000381469727,26.850000381469727,26.59000015258789,26.639999389648438,24.695009231567383,13100
2020-09-09,26.56999969482422,26.687000274658203,26.399999618530273,26.639999389648438,25.08388328552246,13100
2020-09-10,26.600000381469727,26.78499984741211,26.399999618530273,26.75,25.187458038330078,32400
2020-09-11,26.889999389648438,26.889999389648438,26.350000381469727,26.450000762939453,24.904983520507812,3100
2020-09-14,26.520000457763672,26.69099998474121,26.350000381469727,26.469999313354492,24.92381477355957,19100
2020-09-15,26.46299934387207,26.733999252319336,26.459999084472656,26.733999252319336,25.172393798828125,14100
2020-09-16,26.790000915527344,27.1299991607666,26.790000915527344,26.850000381469727,25.281620025634766,16600
2020-09-17,27.09000015258789,27.09000015258789,26.549999237060547,26.69499969482422,25.135669708251953,18600
2020-09-18,26.940000534057617,26.940000534057617,26.56800079345703,26.780000686645508,25.215707778930664,7400
2020-09-21,26.780000686645508,26.969999313354492,26.600000381469727,26.709999084472656,25.149795532226562,7000
2020-09-22,26.709999084472656,26.709999084472656,26.600000381469727,26.709999084472656,25.149795532226562,26000
2020-09-23,26.709999084472656,26.709999084472656,26.020000457763672,26.21500015258789,24.6837100982666,39100
2020-09-24,26.1200008392334,26.229999542236328,25.68000030517578,26.059999465942383,24.537761688232422,28000
2020-09-25,26.219999313354492,27.049999237060547,26.045000076293945,26.920000076293945,25.3475284576416,30000
2020-09-28,27.09000015258789,27.135000228881836,26.889999389648438,27.1299991607666,25.545263290405273,14300
2020-09-29,27.110000610351562,27.219999313354492,26.656999588012695,27.110000610351562,25.526430130004883,16000
2020-09-30,27.309999465942383,27.309999465942383,26.6200008392334,26.6200008392334,25.065052032470703,60500
2020-10-01,26.770000457763672,27.3799991607666,26.74799919128418,27.3799991607666,25.780658721923828,25900
2020-10-02,27.280000686645508,27.5,26.945999145507812,27.5,25.893651962280273,12200
2020-10-05,27.389999389648438,27.684999465942383,27.06999969482422,27.06999969482422,25.488767623901367,18500
2020-10-06,27.309999465942383,27.829999923706055,27.110000610351562,27.540000915527344,25.931312561035156,29100
2020-10-07,27.639999389648438,27.809999465942383,27.2549991607666,27.739999771118164,26.119630813598633,49600
2020-10-08,27.690000534057617,27.75,27.325000762939453,27.700000762939453,26.081968307495117,32600
2020-10-09,27.969999313354492,27.969999313354492,27.04800033569336,27.540000915527344,25.931312561035156,16200
2020-10-12,27.739999771118164,27.739999771118164,26.959999084472656,27.399999618530273,25.799489974975586,16700
2020-10-13,27.5,27.600000381469727,27.3799991607666,27.600000381469727,25.987808227539062,32800
2020-10-14,27.395000457763672,27.719999313354492,26.809999465942383,26.889999389648438,25.31928062438965,40200
2020-10-15,26.84000015258789,27.172000885009766,26.770000457763672,27.15999984741211,25.573509216308594,35100
2020-10-16,27.219999313354492,27.26799964904785,26.549999237060547,26.639999389648438,25.08388328552246,110900
2020-10-19,26.770000457763672,26.820999145507812,26.360000610351562,26.579999923706055,25.027387619018555,42200
2020-10-20,26.610000610351562,26.8799991607666,26.489999771118164,26.600000381469727,25.046220779418945,17200
2020-10-21,26.68000030517578,26.68000030517578,26.350000381469727,26.40999984741211,24.867319107055664,20900
2020-10-22,26.469999313354492,26.600000381469727,26.31999969482422,26.59000015258789,25.036806106567383,21300
2020-10-23,26.670000076293945,26.940000534057617,26.59000015258789,26.90999984741211,25.338111877441406,37400
2020-10-26,26.899999618530273,26.93000030517578,26.360000610351562,26.549999237060547,24.9991397857666,29300
2020-10-27,26.59000015258789,26.709999084472656,26.360000610351562,26.420000076293945,24.87673568725586,16900
2020-10-28,26.299999237060547,26.56599998474121,25.764999389648438,26.049999237060547,24.528348922729492,89700
2020-10-29,26.139999389648438,26.479999542236328,26.079999923706055,26.299999237060547,24.763744354248047,25900
2020-10-30,26.420000076293945,26.510000228881836,26.200000762939453,26.510000228881836,24.96147918701172,53500
2020-11-02,26.600000381469727,26.709999084472656,26.31999969482422,26.6200008392334,25.065052032470703,41100
2020-11-03,26.65999984741211,26.91200065612793,26.31999969482422,26.31999969482422,24.782575607299805,26600
2020-11-04,26.520000457763672,27.1200008392334,26.520000457763672,27.010000228881836,25.432273864746094,12600
2020-11-05,27.179000854492188,27.479999542236328,27.020000457763672,27.479999542236328,25.87481689453125,33000
2020-11-06,27.350000381469727,27.5,27.049999237060547,27.31999969482422,25.724164962768555,20100
2020-11-09,27.549999237060547,27.825000762939453,27.049999237060547,27.459999084472656,25.855985641479492,58000
2020-11-10,27.389999389648438,27.530000686645508,26.90999984741211,27.0,25.422855377197266,49000
2020-11-11,27.1200008392334,27.235000610351562,27.030000686645508,27.049999237060547,25.469932556152344,21800
2020-11-12,27.100000381469727,27.163000106811523,26.979999542236328,26.979999542236328,25.404022216796875,25800
2020-11-13,27.06999969482422,27.190000534057617,26.959999084472656,27.1299991607666,25.545263290405273,12500
2020-11-16,27.260000228881836,27.979999542236328,27.15999984741211,27.850000381469727,26.22320556640625,74900
2020-11-17,27.84000015258789,28.06100082397461,27.68000030517578,27.8700008392334,26.242036819458008,72400
2020-11-18,27.860000610351562,28.100000381469727,27.6200008392334,27.780000686645508,26.15729522705078,39500
2020-11-19,27.889999389648438,27.989999771118164,27.770000457763672,27.770000457763672,26.147878646850586,21800
2020-11-20,27.75,27.989999771118164,27.709999084472656,27.979999542236328,26.345611572265625,36000
2020-11-23,27.989999771118164,28.155000686645508,27.8799991607666,27.889999389648438,26.260866165161133,38100
2020-11-24,28.139999389648438,28.520000457763672,27.850000381469727,28.0,26.364442825317383,32700
2020-11-25,28.139999389648438,28.139999389648438,27.850000381469727,27.889999389648438,26.260866165161133,21100
2020-11-27,27.979999542236328,27.9950008392334,27.860000610351562,27.979999542236328,26.345611572265625,5200
2020-11-30,27.940000534057617,28.09000015258789,27.84000015258789,27.8799991607666,26.25145149230957,78700
2020-12-01,28.09000015258789,28.09000015258789,27.850000381469727,27.8799991607666,26.25145149230957,20700
2020-12-02,27.75,27.959999084472656,27.735000610351562,27.850000381469727,26.22320556640625,32500
2020-12-03,27.969999313354492,27.989999771118164,27.729999542236328,27.84000015258789,26.213788986206055,90300
2020-12-04,27.84000015258789,27.850000381469727,27.799999237060547,27.829999923706055,26.20437240600586,22700
2020-12-07,27.799999237060547,28.010000228881836,27.799999237060547,28.010000228881836,26.373857498168945,2500
2020-12-08,27.979999542236328,28.25,27.959999084472656,28.1200008392334,26.477434158325195,28800
2020-12-09,27.84000015258789,28.34000015258789,27.670000076293945,28.34000015258789,27.08234405517578,40400
2020-12-10,28.110000610351562,28.139999389648438,27.190000534057617,27.34000015258789,26.126720428466797,104300
2020-12-11,27.3700008392334,27.3799991607666,26.950000762939453,27.149999618530273,25.945152282714844,38100
2020-12-14,27.104999542236328,27.37299919128418,27.104999542236328,27.299999237060547,26.08849334716797,26500
2020-12-15,27.360000610351562,27.655000686645508,27.360000610351562,27.549999237060547,26.327402114868164,39500
2020-12-16,27.469999313354492,27.690000534057617,27.469999313354492,27.6200008392334,26.39429473876953,17700
2020-12-17,27.69700050354004,27.84000015258789,27.639999389648438,27.790000915527344,26.556753158569336,32300
2020-12-18,27.790000915527344,27.969999313354492,27.719999313354492,27.93000030517578,26.69053840637207,12600
2020-12-21,27.829999923706055,27.940000534057617,27.719999313354492,27.929000854492188,26.68958282470703,21300
2020-12-22,27.899999618530273,27.957000732421875,27.440000534057617,27.520000457763672,26.29873275756836,37400
2020-12-23,27.649999618530273,27.739999771118164,27.36199951171875,27.469999313354492,26.25094985961914,28600
2020-12-24,27.5,27.600000381469727,27.3700008392334,27.56999969482422,26.346511840820312,6100
2020-12-28,27.670000076293945,27.670000076293945,27.360000610351562,27.489999771118164,26.270063400268555,17000
2020-12-29,27.518999099731445,27.549999237060547,27.399999618530273,27.530000686645508,26.30828857421875,18100
2020-12-30,27.3700008392334,27.639999389648438,27.3700008392334,27.610000610351562,26.38473892211914,46500
