Date,Open,High,Low,Close,Adj Close,Volume
2017-05-04,20.0,20.25,17.0,17.5,17.5,3944100
2017-05-05,17.5,18.440000534057617,17.209999084472656,17.90999984741211,17.90999984741211,702300
2017-05-08,17.989999771118164,19.399999618530273,17.969999313354492,19.399999618530273,19.399999618530273,351800
2017-05-09,19.75,20.0,19.450000762939453,19.850000381469727,19.850000381469727,230900
2017-05-10,19.93000030517578,21.8700008392334,19.15999984741211,21.8700008392334,21.8700008392334,304600
2017-05-11,21.8700008392334,22.700000762939453,21.260000228881836,21.899999618530273,21.899999618530273,327100
2017-05-12,21.90999984741211,22.200000762939453,21.43000030517578,21.59000015258789,21.59000015258789,70200
2017-05-15,21.510000228881836,22.31999969482422,21.510000228881836,21.969999313354492,21.969999313354492,89700
2017-05-16,21.899999618530273,22.989999771118164,21.8799991607666,22.850000381469727,22.850000381469727,127900
2017-05-17,22.489999771118164,23.1299991607666,21.75,22.09000015258789,22.09000015258789,252000
2017-05-18,21.760000228881836,22.5,21.510000228881836,22.420000076293945,22.420000076293945,83700
2017-05-19,22.469999313354492,23.05900001525879,21.649999618530273,22.020000457763672,22.020000457763672,241700
2017-05-22,22.010000228881836,22.25,20.56100082397461,20.899999618530273,20.899999618530273,233500
2017-05-23,20.969999313354492,22.149999618530273,20.655000686645508,21.940000534057617,21.940000534057617,160300
2017-05-24,22.030000686645508,22.030000686645508,21.65999984741211,21.84000015258789,21.84000015258789,90400
2017-05-25,21.850000381469727,23.450000762939453,21.610000610351562,22.969999313354492,22.969999313354492,203000
2017-05-26,23.190000534057617,25.200000762939453,22.790000915527344,23.790000915527344,23.790000915527344,219700
2017-05-30,24.56999969482422,25.8700008392334,23.709999084472656,24.09000015258789,24.09000015258789,802000
2017-05-31,24.290000915527344,25.399999618530273,24.110000610351562,25.209999084472656,25.209999084472656,242900
2017-06-01,25.459999084472656,26.280000686645508,24.780000686645508,24.889999389648438,24.889999389648438,215200
2017-06-02,25.09000015258789,25.350000381469727,24.010000228881836,24.510000228881836,24.510000228881836,187600
2017-06-05,24.559999465942383,24.809999465942383,24.149999618530273,24.75,24.75,129300
2017-06-06,24.729999542236328,24.989999771118164,21.670000076293945,22.219999313354492,22.219999313354492,308700
2017-06-07,22.079999923706055,22.618000030517578,21.81999969482422,22.010000228881836,22.010000228881836,98900
2017-06-08,21.84000015258789,22.309999465942383,21.829999923706055,21.989999771118164,21.989999771118164,40400
2017-06-09,21.850000381469727,21.989999771118164,20.899999618530273,21.5,21.5,107700
2017-06-12,21.739999771118164,21.899999618530273,21.0,21.56999969482422,21.56999969482422,232900
2017-06-13,21.65999984741211,22.834999084472656,21.25,22.68000030517578,22.68000030517578,112400
2017-06-14,22.639999389648438,23.739999771118164,22.1299991607666,23.520000457763672,23.520000457763672,249500
2017-06-15,23.34000015258789,23.39699935913086,22.386999130249023,23.079999923706055,23.079999923706055,256200
2017-06-16,22.93000030517578,25.799999237060547,22.760000228881836,25.579999923706055,25.579999923706055,606000
2017-06-19,25.700000762939453,26.8700008392334,25.309999465942383,25.6299991607666,25.6299991607666,365600
2017-06-20,25.5,26.264999389648438,25.360000610351562,25.579999923706055,25.579999923706055,217600
2017-06-21,25.469999313354492,26.979999542236328,25.139999389648438,26.799999237060547,26.799999237060547,259600
2017-06-22,26.93000030517578,28.34000015258789,24.920000076293945,25.459999084472656,25.459999084472656,279300
2017-06-23,25.549999237060547,25.760000228881836,24.579999923706055,25.329999923706055,25.329999923706055,1293500
2017-06-26,25.299999237060547,25.6299991607666,24.760000228881836,25.010000228881836,25.010000228881836,241700
2017-06-27,24.899999618530273,25.459999084472656,24.899999618530273,25.059999465942383,25.059999465942383,104700
2017-06-28,25.149999618530273,25.329999923706055,24.760000228881836,24.790000915527344,24.790000915527344,76100
2017-06-29,24.649999618530273,25.219999313354492,24.329999923706055,25.1299991607666,25.1299991607666,65500
2017-06-30,25.059999465942383,25.420000076293945,24.59000015258789,25.0,25.0,209900
2017-07-03,25.18000030517578,26.100000381469727,25.1200008392334,26.010000228881836,26.010000228881836,24100
2017-07-05,25.770000457763672,26.639999389648438,25.040000915527344,25.510000228881836,25.510000228881836,48800
2017-07-06,25.600000381469727,25.600000381469727,24.530000686645508,24.65999984741211,24.65999984741211,64200
2017-07-07,24.809999465942383,25.0,23.530000686645508,24.010000228881836,24.010000228881836,160200
2017-07-10,23.90999984741211,24.649999618530273,23.030000686645508,24.0,24.0,118600
2017-07-11,23.959999084472656,24.5049991607666,23.014999389648438,23.829999923706055,23.829999923706055,160300
2017-07-12,23.920000076293945,25.170000076293945,23.450000762939453,24.600000381469727,24.600000381469727,165100
2017-07-13,24.559999465942383,25.020000457763672,24.058000564575195,24.399999618530273,24.399999618530273,93000
2017-07-14,24.520000457763672,25.270000457763672,24.049999237060547,24.729999542236328,24.729999542236328,94700
2017-07-17,24.65999984741211,25.21500015258789,24.3799991607666,25.030000686645508,25.030000686645508,50800
2017-07-18,24.93000030517578,25.31999969482422,23.579999923706055,24.90999984741211,24.90999984741211,82100
2017-07-19,24.8700008392334,25.0,24.219999313354492,24.739999771118164,24.739999771118164,40000
2017-07-20,24.799999237060547,25.0,24.079999923706055,24.329999923706055,24.329999923706055,85500
2017-07-21,24.799999237060547,25.25,24.1299991607666,24.8799991607666,24.8799991607666,93600
2017-07-24,24.770000457763672,25.950000762939453,24.25,25.790000915527344,25.790000915527344,58300
2017-07-25,25.90999984741211,26.270000457763672,25.309999465942383,26.229999542236328,26.229999542236328,85700
2017-07-26,26.450000762939453,26.450000762939453,25.42099952697754,26.1200008392334,26.1200008392334,127500
2017-07-27,26.06999969482422,26.06999969482422,24.559999465942383,25.25,25.25,47500
2017-07-28,25.190000534057617,25.75,25.110000610351562,25.610000610351562,25.610000610351562,12900
2017-07-31,25.610000610351562,26.139999389648438,25.06999969482422,25.760000228881836,25.760000228881836,45800
2017-08-01,25.610000610351562,25.844999313354492,24.469999313354492,25.34000015258789,25.34000015258789,58800
2017-08-02,25.149999618530273,25.780000686645508,23.475000381469727,23.6299991607666,23.6299991607666,74300
2017-08-03,23.809999465942383,24.25,23.139999389648438,23.540000915527344,23.540000915527344,43600
2017-08-04,23.540000915527344,23.709999084472656,23.010000228881836,23.579999923706055,23.579999923706055,22100
2017-08-07,23.770000457763672,24.139999389648438,23.280000686645508,23.979999542236328,23.979999542236328,45200
2017-08-08,24.0,24.579999923706055,23.770000457763672,24.239999771118164,24.239999771118164,74800
2017-08-09,24.170000076293945,24.399999618530273,23.924999237060547,24.18000030517578,24.18000030517578,34200
2017-08-10,24.06999969482422,24.43000030517578,23.187000274658203,23.6200008392334,23.6200008392334,61200
2017-08-11,23.56999969482422,24.600000381469727,23.56999969482422,24.399999618530273,24.399999618530273,69500
2017-08-14,24.219999313354492,24.549999237060547,22.951000213623047,24.40999984741211,24.40999984741211,303600
2017-08-15,24.40999984741211,25.40999984741211,24.329999923706055,24.59000015258789,24.59000015258789,172900
2017-08-16,24.600000381469727,25.959999084472656,24.520000457763672,25.639999389648438,25.639999389648438,140000
2017-08-17,25.579999923706055,26.25,25.049999237060547,25.59000015258789,25.59000015258789,156900
2017-08-18,25.309999465942383,28.790000915527344,25.200000762939453,28.520000457763672,28.520000457763672,188300
2017-08-21,28.729999542236328,30.739999771118164,28.729999542236328,30.329999923706055,30.329999923706055,277600
2017-08-22,30.610000610351562,34.0,30.31999969482422,33.5,33.5,219200
2017-08-23,33.369998931884766,33.70000076293945,32.290000915527344,33.02000045776367,33.02000045776367,156500
2017-08-24,33.34000015258789,34.630001068115234,32.862998962402344,34.20000076293945,34.20000076293945,144200
2017-08-25,34.099998474121094,34.529998779296875,33.54999923706055,34.2400016784668,34.2400016784668,69200
2017-08-28,34.33000183105469,38.0,34.029998779296875,37.540000915527344,37.540000915527344,241500
2017-08-29,37.040000915527344,37.18000030517578,36.22999954223633,36.439998626708984,36.439998626708984,184100
2017-08-30,36.43000030517578,36.54999923706055,34.970001220703125,35.150001525878906,35.150001525878906,315300
2017-08-31,35.279998779296875,36.5989990234375,34.93000030517578,35.75,35.75,305800
2017-09-01,35.9900016784668,38.08000183105469,35.58000183105469,38.0,38.0,79200
2017-09-05,38.08000183105469,38.369998931884766,37.310001373291016,37.540000915527344,37.540000915527344,115200
2017-09-06,37.63999938964844,38.209999084472656,37.47999954223633,38.08000183105469,38.08000183105469,58600
2017-09-07,38.150001525878906,38.560001373291016,37.54999923706055,37.970001220703125,37.970001220703125,50600
2017-09-08,38.029998779296875,38.30500030517578,37.13999938964844,38.119998931884766,38.119998931884766,86300
2017-09-11,38.220001220703125,38.85599899291992,37.970001220703125,38.209999084472656,38.209999084472656,86800
2017-09-12,38.5099983215332,38.689998626708984,37.58000183105469,38.0099983215332,38.0099983215332,71600
2017-09-13,38.33000183105469,38.810001373291016,37.93000030517578,38.16999816894531,38.16999816894531,86800
2017-09-14,38.18000030517578,38.560001373291016,37.33000183105469,37.81999969482422,37.81999969482422,104700
2017-09-15,38.04999923706055,38.099998474121094,37.18000030517578,37.86000061035156,37.86000061035156,325400
2017-09-18,37.93000030517578,38.459999084472656,37.27000045776367,37.349998474121094,37.349998474121094,205200
2017-09-19,37.34000015258789,38.334999084472656,37.0,37.68000030517578,37.68000030517578,377700
2017-09-20,37.95000076293945,39.50899887084961,37.0,37.18000030517578,37.18000030517578,167100
2017-09-21,37.16999816894531,37.689998626708984,36.279998779296875,36.790000915527344,36.790000915527344,99900
2017-09-22,37.130001068115234,37.29999923706055,36.540000915527344,36.880001068115234,36.880001068115234,40300
2017-09-25,37.16999816894531,38.665000915527344,36.65999984741211,37.97999954223633,37.97999954223633,181900
2017-09-26,37.95000076293945,39.46900177001953,37.630001068115234,37.9900016784668,37.9900016784668,124700
2017-09-27,37.95000076293945,38.54999923706055,37.380001068115234,38.06999969482422,38.06999969482422,146700
2017-09-28,37.84000015258789,39.09000015258789,37.56999969482422,38.0,38.0,200100
2017-09-29,38.02000045776367,38.150001525878906,37.08000183105469,37.380001068115234,37.380001068115234,118700
2017-10-02,26.850000381469727,36.150001525878906,26.649999618530273,35.560001373291016,35.560001373291016,1850900
2017-10-03,35.369998931884766,35.61000061035156,32.018001556396484,33.08000183105469,33.08000183105469,642300
2017-10-04,33.0,33.529998779296875,32.0,33.0,33.0,185400
2017-10-05,33.029998779296875,33.029998779296875,31.799999237060547,32.060001373291016,32.060001373291016,185800
2017-10-06,32.0099983215332,32.4900016784668,31.850000381469727,32.099998474121094,32.099998474121094,99400
2017-10-09,32.0,32.18000030517578,31.600000381469727,32.11000061035156,32.11000061035156,113000
2017-10-10,32.18000030517578,33.172000885009766,31.84000015258789,33.040000915527344,33.040000915527344,88000
2017-10-11,33.15999984741211,33.959999084472656,33.060001373291016,33.900001525878906,33.900001525878906,162500
2017-10-12,34.029998779296875,34.029998779296875,32.060001373291016,32.560001373291016,32.560001373291016,91600
2017-10-13,32.61000061035156,32.61000061035156,31.299999237060547,31.700000762939453,31.700000762939453,84400
2017-10-16,31.829999923706055,31.829999923706055,31.09000015258789,31.549999237060547,31.549999237060547,75100
2017-10-17,31.770000457763672,32.06999969482422,31.420000076293945,32.06999969482422,32.06999969482422,120500
2017-10-18,32.25,32.529998779296875,31.809999465942383,32.40999984741211,32.40999984741211,50600
2017-10-19,32.15999984741211,32.7599983215332,32.0,32.720001220703125,32.720001220703125,66100
2017-10-20,32.689998626708984,32.70000076293945,31.549999237060547,31.670000076293945,31.670000076293945,78800
2017-10-23,31.549999237060547,31.549999237060547,30.32200050354004,31.15999984741211,31.15999984741211,124100
2017-10-24,30.760000228881836,31.040000915527344,29.670000076293945,30.25,30.25,297300
2017-10-25,30.290000915527344,30.68000030517578,29.90999984741211,30.079999923706055,30.079999923706055,129700
2017-10-26,29.899999618530273,30.3700008392334,28.90999984741211,30.15999984741211,30.15999984741211,94700
2017-10-27,30.110000610351562,32.349998474121094,30.030000686645508,32.08000183105469,32.08000183105469,127800
2017-10-30,31.959999084472656,32.380001068115234,30.360000610351562,30.770000457763672,30.770000457763672,93500
2017-10-31,30.510000228881836,30.510000228881836,28.3799991607666,30.059999465942383,30.059999465942383,871000
2017-11-01,30.329999923706055,30.329999923706055,28.450000762939453,29.360000610351562,29.360000610351562,356100
2017-11-02,29.360000610351562,29.69499969482422,28.739999771118164,28.93000030517578,28.93000030517578,98200
2017-11-03,28.8700008392334,29.760000228881836,28.639999389648438,29.440000534057617,29.440000534057617,333100
2017-11-06,29.579999923706055,30.264999389648438,28.600000381469727,29.649999618530273,29.649999618530273,313900
2017-11-07,29.639999389648438,30.190000534057617,28.719999313354492,29.049999237060547,29.049999237060547,337300
2017-11-08,28.959999084472656,29.309999465942383,26.469999313354492,27.700000762939453,27.700000762939453,246500
2017-11-09,27.56999969482422,27.700000762939453,25.920000076293945,26.25,26.25,380500
2017-11-10,26.389999389648438,26.71500015258789,25.559999465942383,26.469999313354492,26.469999313354492,562500
2017-11-13,26.559999465942383,26.739999771118164,25.100000381469727,25.389999389648438,25.389999389648438,341500
2017-11-14,25.40999984741211,25.40999984741211,24.010000228881836,24.389999389648438,24.389999389648438,326400
2017-11-15,24.270000457763672,25.125,23.200000762939453,23.940000534057617,23.940000534057617,299700
2017-11-16,24.200000762939453,25.600000381469727,23.510000228881836,25.360000610351562,25.360000610351562,385900
2017-11-17,25.329999923706055,25.84000015258789,24.920000076293945,25.610000610351562,25.610000610351562,169900
2017-11-20,25.520000457763672,26.639999389648438,25.010000228881836,25.079999923706055,25.079999923706055,167700
2017-11-21,25.110000610351562,25.8700008392334,24.68000030517578,25.149999618530273,25.149999618530273,278400
2017-11-22,25.229999542236328,25.81999969482422,25.0,25.510000228881836,25.510000228881836,137400
2017-11-24,25.600000381469727,26.579999923706055,25.149999618530273,25.979999542236328,25.979999542236328,167000
2017-11-27,25.950000762939453,26.3799991607666,25.43000030517578,25.950000762939453,25.950000762939453,342700
2017-11-28,25.8799991607666,26.014999389648438,24.690000534057617,25.350000381469727,25.350000381469727,293900
2017-11-29,25.350000381469727,25.94499969482422,24.8700008392334,25.260000228881836,25.260000228881836,636100
2017-11-30,25.31999969482422,25.709999084472656,23.1299991607666,23.1299991607666,23.1299991607666,574700
2017-12-01,23.1200008392334,23.239999771118164,20.62700080871582,22.579999923706055,22.579999923706055,579300
2017-12-04,22.6200008392334,23.149999618530273,20.81999969482422,21.18000030517578,21.18000030517578,598400
2017-12-05,21.18000030517578,21.989999771118164,20.75,21.100000381469727,21.100000381469727,532200
2017-12-06,21.010000228881836,21.229999542236328,18.950000762939453,20.440000534057617,20.440000534057617,378800
2017-12-07,20.530000686645508,21.09000015258789,20.0,20.790000915527344,20.790000915527344,391500
2017-12-08,20.93000030517578,21.600000381469727,20.139999389648438,21.010000228881836,21.010000228881836,1191100
2017-12-11,21.200000762939453,21.84000015258789,20.899999618530273,21.700000762939453,21.700000762939453,253100
2017-12-12,21.81999969482422,22.40999984741211,21.290000915527344,21.770000457763672,21.770000457763672,215700
2017-12-13,21.75,23.43000030517578,21.639999389648438,23.239999771118164,23.239999771118164,481800
2017-12-14,23.290000915527344,23.6200008392334,21.559999465942383,21.93000030517578,21.93000030517578,249200
2017-12-15,22.3700008392334,22.665000915527344,21.690000534057617,22.280000686645508,22.280000686645508,393700
2017-12-18,22.450000762939453,23.8799991607666,22.350000381469727,23.670000076293945,23.670000076293945,218300
2017-12-19,23.709999084472656,25.34000015258789,23.40999984741211,25.209999084472656,25.209999084472656,291700
2017-12-20,25.170000076293945,27.1200008392334,25.170000076293945,26.850000381469727,26.850000381469727,379300
2017-12-21,26.790000915527344,28.190000534057617,26.139999389648438,27.209999084472656,27.209999084472656,668700
2017-12-22,27.579999923706055,28.25,26.610000610351562,28.100000381469727,28.100000381469727,361600
2017-12-26,27.770000457763672,28.06999969482422,27.309999465942383,27.510000228881836,27.510000228881836,244900
2017-12-27,27.6200008392334,27.729999542236328,26.850000381469727,26.950000762939453,26.950000762939453,131900
2017-12-28,27.049999237060547,27.229999542236328,26.56999969482422,27.010000228881836,27.010000228881836,152200
2017-12-29,27.229999542236328,27.270000457763672,26.81999969482422,26.979999542236328,26.979999542236328,154800
2018-01-02,27.270000457763672,28.190000534057617,27.110000610351562,28.09000015258789,28.09000015258789,193600
2018-01-03,28.209999084472656,28.93000030517578,28.209999084472656,28.420000076293945,28.420000076293945,289700
2018-01-04,28.450000762939453,29.190000534057617,27.940000534057617,28.850000381469727,28.850000381469727,352200
2018-01-05,28.950000762939453,30.274999618530273,28.510000228881836,29.959999084472656,29.959999084472656,576500
2018-01-08,29.760000228881836,30.25,29.18000030517578,29.90999984741211,29.90999984741211,249700
2018-01-09,30.0,30.649999618530273,29.790000915527344,30.06999969482422,30.06999969482422,431100
2018-01-10,29.979999542236328,29.979999542236328,26.809999465942383,27.09000015258789,27.09000015258789,474200
2018-01-11,27.290000915527344,27.290000915527344,25.709999084472656,26.1299991607666,26.1299991607666,434800
2018-01-12,26.229999542236328,26.950000762939453,25.420000076293945,26.440000534057617,26.440000534057617,195400
2018-01-16,26.049999237060547,27.25,26.030000686645508,26.56999969482422,26.56999969482422,274600
2018-01-17,26.420000076293945,27.239999771118164,25.639999389648438,26.93000030517578,26.93000030517578,341400
2018-01-18,26.0,29.459999084472656,26.0,28.969999313354492,28.969999313354492,442200
2018-01-19,28.940000534057617,31.25,28.639999389648438,31.239999771118164,31.239999771118164,776000
2018-01-22,31.239999771118164,32.849998474121094,31.239999771118164,32.060001373291016,32.060001373291016,1250000
2018-01-23,32.0,33.25,31.709999084472656,33.150001525878906,33.150001525878906,847100
2018-01-24,33.150001525878906,33.59000015258789,30.461000442504883,31.3700008392334,31.3700008392334,337700
2018-01-25,31.649999618530273,33.0099983215332,30.621999740600586,32.29999923706055,32.29999923706055,285300
2018-01-26,32.560001373291016,32.84000015258789,30.75,32.75,32.75,313200
2018-01-29,32.709999084472656,33.13999938964844,32.09000015258789,33.099998474121094,33.099998474121094,425200
2018-01-30,32.689998626708984,32.9900016784668,32.0,32.91999816894531,32.91999816894531,363100
2018-01-31,33.099998474121094,34.650001525878906,31.850000381469727,34.560001373291016,34.560001373291016,963200
2018-02-01,34.25,34.68000030517578,31.90999984741211,32.70000076293945,32.70000076293945,422000
2018-02-02,32.5099983215332,33.40999984741211,31.739999771118164,32.060001373291016,32.060001373291016,268500
2018-02-05,31.90999984741211,33.5,31.790000915527344,32.40999984741211,32.40999984741211,578300
2018-02-06,31.860000610351562,32.77000045776367,30.459999084472656,32.4900016784668,32.4900016784668,666800
2018-02-07,32.56999969482422,33.45000076293945,32.5,32.540000915527344,32.540000915527344,227200
2018-02-08,32.63999938964844,32.90999984741211,30.290000915527344,30.399999618530273,30.399999618530273,225300
2018-02-09,30.719999313354492,30.889999389648438,27.510000228881836,29.709999084472656,29.709999084472656,419500
2018-02-12,29.959999084472656,31.239999771118164,29.309999465942383,30.549999237060547,30.549999237060547,342500
2018-02-13,30.25,31.479999542236328,29.770000457763672,31.170000076293945,31.170000076293945,175800
2018-02-14,30.770000457763672,31.5,29.790000915527344,29.899999618530273,29.899999618530273,224700
2018-02-15,30.0,30.0,29.01799964904785,29.190000534057617,29.190000534057617,146900
2018-02-16,29.219999313354492,29.920000076293945,28.93000030517578,29.610000610351562,29.610000610351562,284500
2018-02-20,29.469999313354492,30.149999618530273,29.15999984741211,29.579999923706055,29.579999923706055,249500
2018-02-21,29.600000381469727,30.280000686645508,28.889999389648438,28.940000534057617,28.940000534057617,218700
2018-02-22,29.360000610351562,32.0,29.360000610351562,31.059999465942383,31.059999465942383,665900
2018-02-23,30.940000534057617,33.82099914550781,30.530000686645508,33.099998474121094,33.099998474121094,437000
2018-02-26,33.349998474121094,34.349998474121094,33.189998626708984,33.66999816894531,33.66999816894531,450800
2018-02-27,33.720001220703125,34.619998931884766,32.869998931884766,34.290000915527344,34.290000915527344,391000
2018-02-28,34.220001220703125,34.4900016784668,33.130001068115234,33.88999938964844,33.88999938964844,506800
2018-03-01,34.0,34.124000549316406,31.979999542236328,32.40999984741211,32.40999984741211,449700
2018-03-02,32.310001373291016,34.400001525878906,32.060001373291016,33.97999954223633,33.97999954223633,559500
2018-03-05,33.689998626708984,34.0,32.79999923706055,33.209999084472656,33.209999084472656,633300
2018-03-06,33.20000076293945,34.34000015258789,29.700000762939453,30.690000534057617,30.690000534057617,910100
2018-03-07,30.40999984741211,32.849998474121094,30.0,30.25,30.25,672300
2018-03-08,30.56999969482422,31.010000228881836,29.299999237060547,29.489999771118164,29.489999771118164,324200
2018-03-09,29.709999084472656,30.81999969482422,29.360000610351562,30.5,30.5,371600
2018-03-12,30.43000030517578,30.979999542236328,29.579999923706055,30.31999969482422,30.31999969482422,539200
2018-03-13,30.31999969482422,31.389999389648438,28.690000534057617,28.93000030517578,28.93000030517578,913300
2018-03-14,29.200000762939453,29.719999313354492,28.1200008392334,28.530000686645508,28.530000686645508,487300
2018-03-15,28.719999313354492,28.843000411987305,26.719999313354492,27.25,27.25,838000
2018-03-16,27.280000686645508,28.950000762939453,27.020000457763672,27.219999313354492,27.219999313354492,3609400
2018-03-19,27.299999237060547,28.149999618530273,25.18000030517578,27.84000015258789,27.84000015258789,656900
2018-03-20,27.790000915527344,29.40999984741211,27.05299949645996,28.860000610351562,28.860000610351562,459800
2018-03-21,28.709999084472656,29.562999725341797,27.940000534057617,28.600000381469727,28.600000381469727,508100
2018-03-22,28.200000762939453,28.489999771118164,26.989999771118164,27.209999084472656,27.209999084472656,579300
2018-03-23,27.209999084472656,27.209999084472656,24.670000076293945,24.760000228881836,24.760000228881836,649700
2018-03-26,18.68000030517578,23.899999618530273,16.5,22.959999084472656,22.959999084472656,12376300
2018-03-27,23.389999389648438,24.940000534057617,21.600000381469727,22.489999771118164,22.489999771118164,2837200
2018-03-28,22.3799991607666,24.65999984741211,21.860000610351562,24.329999923706055,24.329999923706055,1148000
2018-03-29,24.309999465942383,26.68000030517578,23.209999084472656,25.760000228881836,25.760000228881836,954600
2018-04-02,25.540000915527344,25.829999923706055,23.90999984741211,24.530000686645508,24.530000686645508,847100
2018-04-03,24.65999984741211,25.790000915527344,24.149999618530273,25.100000381469727,25.100000381469727,765800
2018-04-04,24.739999771118164,25.5,24.0,25.149999618530273,25.149999618530273,648300
2018-04-05,23.950000762939453,24.8799991607666,23.530000686645508,24.5,24.5,957100
2018-04-06,24.350000381469727,24.540000915527344,23.489999771118164,23.6200008392334,23.6200008392334,411300
2018-04-09,24.239999771118164,24.8700008392334,23.209999084472656,24.34000015258789,24.34000015258789,944900
2018-04-10,24.479999542236328,25.809999465942383,23.799999237060547,25.700000762939453,25.700000762939453,610100
2018-04-11,25.420000076293945,25.770000457763672,24.920000076293945,25.299999237060547,25.299999237060547,614300
2018-04-12,25.479999542236328,27.829999923706055,25.420000076293945,27.43000030517578,27.43000030517578,545700
2018-04-13,27.450000762939453,27.799999237060547,25.639999389648438,26.6200008392334,26.6200008392334,568900
2018-04-16,26.969999313354492,27.0,25.989999771118164,26.5,26.5,275400
2018-04-17,26.610000610351562,27.040000915527344,26.25,26.350000381469727,26.350000381469727,331100
2018-04-18,26.40999984741211,28.299999237060547,26.049999237060547,27.600000381469727,27.600000381469727,385900
2018-04-19,27.530000686645508,28.280000686645508,26.989999771118164,27.270000457763672,27.270000457763672,280600
2018-04-20,27.18000030517578,27.479999542236328,26.59000015258789,27.18000030517578,27.18000030517578,245900
2018-04-23,27.559999465942383,28.989999771118164,26.829999923706055,28.5,28.5,396300
2018-04-24,28.469999313354492,28.889999389648438,26.299999237060547,26.43000030517578,26.43000030517578,512300
2018-04-25,26.3700008392334,27.3700008392334,25.600000381469727,27.100000381469727,27.100000381469727,256900
2018-04-26,27.139999389648438,27.350000381469727,26.559999465942383,27.190000534057617,27.190000534057617,368900
2018-04-27,27.3700008392334,29.170000076293945,27.170000076293945,28.93000030517578,28.93000030517578,367800
2018-04-30,28.940000534057617,29.780000686645508,28.520000457763672,29.15999984741211,29.15999984741211,569000
2018-05-01,29.09000015258789,29.510000228881836,28.4950008392334,28.760000228881836,28.760000228881836,352900
2018-05-02,28.59000015258789,29.649999618530273,28.56999969482422,28.979999542236328,28.979999542236328,254100
2018-05-03,28.860000610351562,29.280000686645508,27.59000015258789,28.0,28.0,271900
2018-05-04,27.799999237060547,28.049999237060547,27.5,27.899999618530273,27.899999618530273,977800
2018-05-07,28.0,28.3700008392334,27.139999389648438,27.469999313354492,27.469999313354492,200900
2018-05-08,27.389999389648438,27.829999923706055,26.90999984741211,27.170000076293945,27.170000076293945,192400
2018-05-09,27.309999465942383,27.549999237060547,26.739999771118164,27.229999542236328,27.229999542236328,245700
2018-05-10,27.479999542236328,27.670000076293945,26.399999618530273,26.510000228881836,26.510000228881836,272700
2018-05-11,26.700000762939453,27.3700008392334,26.600000381469727,27.190000534057617,27.190000534057617,189900
2018-05-14,27.329999923706055,28.719999313354492,26.959999084472656,28.68000030517578,28.68000030517578,273500
2018-05-15,28.540000915527344,29.860000610351562,28.184999465942383,29.770000457763672,29.770000457763672,335800
2018-05-16,29.719999313354492,30.479999542236328,29.049999237060547,29.950000762939453,29.950000762939453,453200
2018-05-17,29.875,30.739999771118164,29.40999984741211,30.290000915527344,30.290000915527344,312200
2018-05-18,30.3799991607666,31.65999984741211,29.989999771118164,31.25,31.25,382600
2018-05-21,31.5,33.0,31.5,32.45000076293945,32.45000076293945,455800
2018-05-22,32.45000076293945,33.720001220703125,32.45000076293945,33.209999084472656,33.209999084472656,319400
2018-05-23,33.220001220703125,33.90999984741211,33.02000045776367,33.470001220703125,33.470001220703125,305100
2018-05-24,33.439998626708984,34.79999923706055,33.0099983215332,34.540000915527344,34.540000915527344,391100
2018-05-25,34.47999954223633,34.689998626708984,33.779998779296875,34.5,34.5,302500
2018-05-29,34.209999084472656,34.75,33.117000579833984,34.38999938964844,34.38999938964844,287600
2018-05-30,34.560001373291016,35.0,34.20000076293945,34.939998626708984,34.939998626708984,311300
2018-05-31,35.0,35.08000183105469,34.39400100708008,35.0,35.0,325400
2018-06-01,35.130001068115234,35.189998626708984,34.79999923706055,35.029998779296875,35.029998779296875,360400
2018-06-04,35.0,35.25,34.119998931884766,34.400001525878906,34.400001525878906,399500
2018-06-05,34.61000061035156,36.06999969482422,34.61000061035156,35.83000183105469,35.83000183105469,492100
2018-06-06,35.86000061035156,36.13999938964844,35.59000015258789,35.849998474121094,35.849998474121094,274100
2018-06-07,35.95000076293945,36.04999923706055,33.970001220703125,34.099998474121094,34.099998474121094,256900
2018-06-08,34.36000061035156,36.060001373291016,34.029998779296875,35.66999816894531,35.66999816894531,317500
2018-06-11,35.65999984741211,36.70000076293945,34.630001068115234,36.11000061035156,36.11000061035156,391700
2018-06-12,36.72999954223633,38.97999954223633,36.5,37.52000045776367,37.52000045776367,452000
2018-06-13,37.349998474121094,39.18000030517578,37.099998474121094,38.58000183105469,38.58000183105469,402000
2018-06-14,38.58000183105469,39.689998626708984,38.099998474121094,39.650001525878906,39.650001525878906,349300
2018-06-15,39.599998474121094,41.58000183105469,39.22999954223633,40.869998931884766,40.869998931884766,3212400
2018-06-18,40.470001220703125,42.70000076293945,39.54499816894531,41.63999938964844,41.63999938964844,415800
2018-06-19,42.08000183105469,44.279998779296875,42.0,42.290000915527344,42.290000915527344,686100
2018-06-20,42.5,42.90800094604492,40.88999938964844,41.34000015258789,41.34000015258789,552000
2018-06-21,41.61000061035156,41.9900016784668,39.2599983215332,40.150001525878906,40.150001525878906,405000
2018-06-22,40.31999969482422,40.939998626708984,39.439998626708984,40.380001068115234,40.380001068115234,781100
2018-06-25,40.0,40.29999923706055,39.02000045776367,39.61000061035156,39.61000061035156,638800
2018-06-26,39.650001525878906,40.349998474121094,39.470001220703125,39.939998626708984,39.939998626708984,439600
2018-06-27,40.08000183105469,40.08000183105469,37.97999954223633,38.02000045776367,38.02000045776367,357800
2018-06-28,37.869998931884766,38.680999755859375,37.75,38.040000915527344,38.040000915527344,487700
2018-06-29,38.439998626708984,39.84000015258789,37.27000045776367,39.52000045776367,39.52000045776367,553700
2018-07-02,39.099998474121094,41.25,38.75,41.22999954223633,41.22999954223633,246500
2018-07-03,41.40999984741211,42.06999969482422,41.380001068115234,41.90999984741211,41.90999984741211,389400
2018-07-05,41.70000076293945,42.0,40.47999954223633,41.38999938964844,41.38999938964844,305600
2018-07-06,41.66999816894531,43.349998474121094,41.66999816894531,43.0,43.0,458900
2018-07-09,43.29999923706055,43.75,41.20000076293945,42.040000915527344,42.040000915527344,344800
2018-07-10,42.119998931884766,42.720001220703125,40.79999923706055,41.150001525878906,41.150001525878906,277100
2018-07-11,40.91999816894531,41.38999938964844,39.79999923706055,40.84000015258789,40.84000015258789,392500
2018-07-12,41.95000076293945,42.040000915527344,40.70000076293945,41.650001525878906,41.650001525878906,327800
2018-07-13,41.439998626708984,42.959999084472656,41.41999816894531,41.79999923706055,41.79999923706055,212100
2018-07-16,41.52000045776367,41.869998931884766,37.36000061035156,37.369998931884766,37.369998931884766,418700
2018-07-17,37.380001068115234,37.630001068115234,36.20000076293945,36.66999816894531,36.66999816894531,403500
2018-07-18,36.86000061035156,37.2400016784668,35.46900177001953,36.97999954223633,36.97999954223633,314500
2018-07-19,36.970001220703125,37.63999938964844,36.400001525878906,36.41999816894531,36.41999816894531,218600
2018-07-20,36.5,37.75,36.40999984741211,36.880001068115234,36.880001068115234,220200
2018-07-23,36.70000076293945,36.880001068115234,36.25,36.27000045776367,36.27000045776367,248900
2018-07-24,36.41999816894531,37.099998474121094,36.029998779296875,36.11000061035156,36.11000061035156,283600
2018-07-25,36.459999084472656,36.459999084472656,35.099998474121094,35.599998474121094,35.599998474121094,218700
2018-07-26,35.58000183105469,36.16999816894531,34.439998626708984,34.849998474121094,34.849998474121094,286800
2018-07-27,34.869998931884766,34.869998931884766,33.15999984741211,33.869998931884766,33.869998931884766,300200
2018-07-30,33.81999969482422,34.099998474121094,33.150001525878906,33.31999969482422,33.31999969482422,250000
2018-07-31,33.27000045776367,36.099998474121094,33.18000030517578,34.52000045776367,34.52000045776367,436000
2018-08-01,34.4900016784668,35.63999938964844,34.119998931884766,35.45000076293945,35.45000076293945,351300
2018-08-02,35.38999938964844,35.81999969482422,33.79999923706055,35.029998779296875,35.029998779296875,143200
2018-08-03,35.38999938964844,35.5,34.720001220703125,35.0099983215332,35.0099983215332,303100
2018-08-06,34.90999984741211,35.83000183105469,34.345001220703125,35.630001068115234,35.630001068115234,176700
2018-08-07,35.439998626708984,36.33000183105469,34.16999816894531,34.869998931884766,34.869998931884766,228200
2018-08-08,35.0,35.04399871826172,34.06999969482422,34.880001068115234,34.880001068115234,133500
2018-08-09,35.0099983215332,35.150001525878906,34.189998626708984,34.290000915527344,34.290000915527344,129100
2018-08-10,34.0099983215332,34.93000030517578,33.5,33.63999938964844,33.63999938964844,124800
2018-08-13,33.56999969482422,33.900001525878906,32.7599983215332,33.5099983215332,33.5099983215332,192600
2018-08-14,33.790000915527344,34.61000061035156,32.2599983215332,32.790000915527344,32.790000915527344,157300
2018-08-15,32.720001220703125,33.584999084472656,31.360000610351562,33.130001068115234,33.130001068115234,290900
2018-08-16,33.66999816894531,35.36000061035156,33.2400016784668,35.099998474121094,35.099998474121094,268300
2018-08-17,34.91999816894531,35.619998931884766,34.599998474121094,34.86000061035156,34.86000061035156,145300
2018-08-20,34.779998779296875,35.41999816894531,33.41999816894531,33.84000015258789,33.84000015258789,185900
2018-08-21,33.880001068115234,34.79999923706055,33.7599983215332,34.720001220703125,34.720001220703125,104900
2018-08-22,34.63999938964844,35.95000076293945,34.400001525878906,35.619998931884766,35.619998931884766,216700
2018-08-23,36.0,36.45000076293945,35.38999938964844,35.810001373291016,35.810001373291016,326500
2018-08-24,35.900001525878906,36.2599983215332,35.29999923706055,35.619998931884766,35.619998931884766,213700
2018-08-27,35.77000045776367,36.369998931884766,35.560001373291016,35.90999984741211,35.90999984741211,279000
2018-08-28,35.83000183105469,37.849998474121094,35.47999954223633,37.81999969482422,37.81999969482422,358300
2018-08-29,37.720001220703125,38.22999954223633,36.560001373291016,36.91999816894531,36.91999816894531,186300
2018-08-30,36.900001525878906,38.369998931884766,36.66999816894531,37.880001068115234,37.880001068115234,230300
2018-08-31,37.77000045776367,38.01499938964844,36.29999923706055,37.86000061035156,37.86000061035156,280700
2018-09-04,37.939998626708984,38.38999938964844,36.58000183105469,37.060001373291016,37.060001373291016,220200
2018-09-05,36.93000030517578,37.33000183105469,35.36000061035156,37.060001373291016,37.060001373291016,219200
2018-09-06,37.18000030517578,37.310001373291016,35.0,35.439998626708984,35.439998626708984,262200
2018-09-07,35.209999084472656,36.290000915527344,34.75,35.5,35.5,145900
2018-09-10,35.65999984741211,35.869998931884766,34.814998626708984,35.790000915527344,35.790000915527344,135400
2018-09-11,35.90999984741211,36.45500183105469,35.31999969482422,36.2400016784668,36.2400016784668,378600
2018-09-12,38.540000915527344,38.7400016784668,36.02000045776367,38.560001373291016,38.560001373291016,348700
2018-09-13,38.72999954223633,38.81999969482422,37.06999969482422,37.369998931884766,37.369998931884766,276300
2018-09-14,37.36000061035156,37.65999984741211,36.58000183105469,36.779998779296875,36.779998779296875,289800
2018-09-17,36.61000061035156,36.97999954223633,35.59000015258789,35.86000061035156,35.86000061035156,274100
2018-09-18,35.91999816894531,36.95000076293945,35.599998474121094,36.90999984741211,36.90999984741211,160100
2018-09-19,36.790000915527344,37.29999923706055,36.25,37.25,37.25,191200
2018-09-20,37.540000915527344,38.9900016784668,36.915000915527344,38.95000076293945,38.95000076293945,263400
2018-09-21,39.04999923706055,39.939998626708984,37.58000183105469,37.66999816894531,37.66999816894531,866700
2018-09-24,37.709999084472656,37.720001220703125,35.90999984741211,36.33000183105469,36.33000183105469,215400
2018-09-25,36.52000045776367,37.56999969482422,35.720001220703125,37.470001220703125,37.470001220703125,238500
2018-09-26,37.5,38.724998474121094,36.90999984741211,37.689998626708984,37.689998626708984,345800
2018-09-27,37.810001373291016,37.974998474121094,36.630001068115234,37.81999969482422,37.81999969482422,188600
2018-09-28,37.68000030517578,38.29999923706055,37.02000045776367,37.54999923706055,37.54999923706055,210900
2018-10-01,37.810001373291016,38.689998626708984,37.02000045776367,37.22999954223633,37.22999954223633,117300
2018-10-02,37.459999084472656,38.17499923706055,36.57400131225586,37.560001373291016,37.560001373291016,185400
2018-10-03,37.310001373291016,39.56999969482422,36.90999984741211,39.27000045776367,39.27000045776367,162200
2018-10-04,38.95000076293945,38.95000076293945,36.040000915527344,36.2599983215332,36.2599983215332,310300
2018-10-05,36.220001220703125,37.0099983215332,34.599998474121094,36.400001525878906,36.400001525878906,229200
2018-10-08,36.15999984741211,37.09000015258789,35.7400016784668,36.2599983215332,36.2599983215332,266600
2018-10-09,35.97999954223633,37.875,35.38999938964844,35.849998474121094,35.849998474121094,203700
2018-10-10,35.689998626708984,36.19499969482422,34.63999938964844,35.0,35.0,272500
2018-10-11,35.040000915527344,36.470001220703125,34.25,36.04999923706055,36.04999923706055,493800
2018-10-12,36.77000045776367,37.970001220703125,36.31999969482422,37.16999816894531,37.16999816894531,569500
2018-10-15,37.119998931884766,37.81999969482422,36.27000045776367,36.529998779296875,36.529998779296875,291400
2018-10-16,36.66999816894531,37.2400016784668,35.2599983215332,35.86000061035156,35.86000061035156,497800
2018-10-17,35.880001068115234,36.439998626708984,35.4900016784668,36.04999923706055,36.04999923706055,184900
2018-10-18,36.0,36.29999923706055,35.3849983215332,35.7400016784668,35.7400016784668,258200
2018-10-19,35.7400016784668,36.29999923706055,34.779998779296875,34.97999954223633,34.97999954223633,532600
2018-10-22,35.15999984741211,36.4900016784668,34.54999923706055,36.22999954223633,36.22999954223633,202700
2018-10-23,35.58000183105469,36.154998779296875,34.619998931884766,34.900001525878906,34.900001525878906,234900
2018-10-24,35.2599983215332,35.68000030517578,33.060001373291016,33.25,33.25,541000
2018-10-25,33.52000045776367,36.25,33.25,35.36000061035156,35.36000061035156,372100
2018-10-26,34.84000015258789,37.01499938964844,34.40999984741211,35.369998931884766,35.369998931884766,301700
2018-10-29,35.619998931884766,36.28499984741211,34.5,35.0,35.0,441400
2018-10-30,34.810001373291016,35.94499969482422,34.38999938964844,34.91999816894531,34.91999816894531,415600
2018-10-31,35.560001373291016,37.099998474121094,35.099998474121094,36.04999923706055,36.04999923706055,482900
2018-11-01,36.20000076293945,40.060001373291016,35.72999954223633,40.0099983215332,40.0099983215332,474800
2018-11-02,40.2599983215332,40.56999969482422,38.880001068115234,39.90999984741211,39.90999984741211,287900
2018-11-05,40.29999923706055,40.7400016784668,38.529998779296875,39.16999816894531,39.16999816894531,221700
2018-11-06,39.290000915527344,39.540000915527344,38.40999984741211,39.22999954223633,39.22999954223633,284500
2018-11-07,39.72999954223633,41.599998474121094,39.244998931884766,41.4900016784668,41.4900016784668,412000
2018-11-08,41.27000045776367,41.900001525878906,40.775001525878906,41.20000076293945,41.20000076293945,247700
2018-11-09,40.959999084472656,41.290000915527344,38.81999969482422,38.91999816894531,38.91999816894531,201500
2018-11-12,38.779998779296875,38.779998779296875,36.310001373291016,36.45000076293945,36.45000076293945,182500
2018-11-13,36.4900016784668,37.40999984741211,36.11000061035156,36.900001525878906,36.900001525878906,219900
2018-11-14,37.279998779296875,37.279998779296875,33.59000015258789,33.68000030517578,33.68000030517578,303600
2018-11-15,33.25,34.880001068115234,30.979999542236328,34.25,34.25,464600
2018-11-16,33.91999816894531,35.18000030517578,33.584999084472656,34.91999816894531,34.91999816894531,247500
2018-11-19,34.779998779296875,34.779998779296875,32.599998474121094,32.7599983215332,32.7599983215332,304300
2018-11-20,32.06999969482422,34.132999420166016,30.950000762939453,32.41999816894531,32.41999816894531,266600
2018-11-21,32.40999984741211,34.04999923706055,31.549999237060547,33.84000015258789,33.84000015258789,221300
2018-11-23,33.560001373291016,33.75,32.36000061035156,32.56999969482422,32.56999969482422,114400
2018-11-26,33.11000061035156,34.029998779296875,32.400001525878906,32.65999984741211,32.65999984741211,223000
2018-11-27,32.029998779296875,32.275001525878906,29.43000030517578,30.149999618530273,30.149999618530273,464300
2018-11-28,30.3799991607666,31.260000228881836,30.18000030517578,31.25,31.25,428600
2018-11-29,31.149999618530273,31.709999084472656,29.940000534057617,31.579999923706055,31.579999923706055,496200
2018-11-30,31.729999542236328,34.20000076293945,31.729999542236328,33.9900016784668,33.9900016784668,490200
2018-12-03,36.150001525878906,42.720001220703125,36.150001525878906,42.619998931884766,42.619998931884766,1867100
2018-12-04,42.75,42.88999938964844,41.0,41.16999816894531,41.16999816894531,567900
2018-12-06,40.560001373291016,43.06999969482422,39.862998962402344,42.900001525878906,42.900001525878906,570600
2018-12-07,42.470001220703125,43.33000183105469,40.130001068115234,40.66999816894531,40.66999816894531,428100
2018-12-10,40.61000061035156,42.40999984741211,39.28499984741211,40.459999084472656,40.459999084472656,718100
2018-12-11,39.66999816894531,39.970001220703125,36.04999923706055,36.61000061035156,36.61000061035156,485800
2018-12-12,37.15999984741211,38.220001220703125,36.54999923706055,37.66999816894531,37.66999816894531,269200
2018-12-13,37.869998931884766,38.08000183105469,35.52000045776367,36.4900016784668,36.4900016784668,2051300
2018-12-14,36.15999984741211,38.56999969482422,36.0099983215332,37.66999816894531,37.66999816894531,389100
2018-12-17,37.150001525878906,38.040000915527344,35.77000045776367,37.27000045776367,37.27000045776367,594800
2018-12-18,37.27000045776367,37.709999084472656,35.900001525878906,36.5,36.5,626500
2018-12-19,36.599998474121094,37.29999923706055,33.45000076293945,33.810001373291016,33.810001373291016,880900
2018-12-20,33.43000030517578,33.86000061035156,30.75,32.20000076293945,32.20000076293945,607600
2018-12-21,32.060001373291016,32.18000030517578,29.350000381469727,29.75,29.75,1308700
2018-12-24,29.170000076293945,31.600000381469727,29.170000076293945,30.809999465942383,30.809999465942383,206000
2018-12-26,30.950000762939453,34.40999984741211,30.950000762939453,34.290000915527344,34.290000915527344,452400
2018-12-27,33.5,34.880001068115234,32.90999984741211,34.209999084472656,34.209999084472656,530300
2018-12-28,34.439998626708984,36.150001525878906,33.470001220703125,34.66999816894531,34.66999816894531,634400
2018-12-31,35.099998474121094,37.0,34.75,36.97999954223633,36.97999954223633,393800
2019-01-02,36.2400016784668,37.0,35.40999984741211,36.689998626708984,36.689998626708984,454400
2019-01-03,36.650001525878906,36.849998474121094,34.13999938964844,34.72999954223633,34.72999954223633,367300
2019-01-04,35.400001525878906,36.93000030517578,34.65999984741211,36.86000061035156,36.86000061035156,289100
2019-01-07,37.349998474121094,38.0,36.0,37.63999938964844,37.63999938964844,535000
2019-01-08,38.06999969482422,38.233001708984375,36.369998931884766,37.790000915527344,37.790000915527344,342100
2019-01-09,37.79999923706055,38.369998931884766,37.31999969482422,37.81999969482422,37.81999969482422,327800
2019-01-10,37.5,37.970001220703125,37.0,37.7599983215332,37.7599983215332,336500
2019-01-11,37.7400016784668,38.165000915527344,36.869998931884766,37.11000061035156,37.11000061035156,284800
2019-01-14,36.7599983215332,37.20000076293945,35.41999816894531,35.43000030517578,35.43000030517578,275100
2019-01-15,35.52000045776367,36.72999954223633,34.61000061035156,34.95000076293945,34.95000076293945,598500
2019-01-16,34.900001525878906,36.04999923706055,34.744998931884766,35.52000045776367,35.52000045776367,426700
2019-01-17,35.439998626708984,38.29999923706055,35.0,37.560001373291016,37.560001373291016,479500
2019-01-18,37.59000015258789,38.18000030517578,36.314998626708984,36.849998474121094,36.849998474121094,312300
2019-01-22,36.52000045776367,36.93000030517578,35.459999084472656,35.849998474121094,35.849998474121094,525600
2019-01-23,35.849998474121094,37.040000915527344,34.720001220703125,35.16999816894531,35.16999816894531,180900
2019-01-24,35.09000015258789,35.66999816894531,34.369998931884766,34.52000045776367,34.52000045776367,154500
2019-01-25,34.90999984741211,36.11000061035156,34.064998626708984,35.84000015258789,35.84000015258789,202900
2019-01-28,35.36000061035156,36.11000061035156,34.59000015258789,35.08000183105469,35.08000183105469,367600
2019-01-29,35.22999954223633,35.529998779296875,34.29999923706055,34.689998626708984,34.689998626708984,984500
2019-01-30,35.0,39.70800018310547,35.0,38.29999923706055,38.29999923706055,902400
2019-01-31,38.189998626708984,39.3849983215332,37.09000015258789,38.09000015258789,38.09000015258789,455600
2019-02-01,38.779998779296875,42.369998931884766,37.58000183105469,41.63999938964844,41.63999938964844,591700
2019-02-04,42.400001525878906,43.11000061035156,40.709999084472656,42.5099983215332,42.5099983215332,463400
2019-02-05,43.06999969482422,43.40999984741211,41.70000076293945,42.689998626708984,42.689998626708984,420500
2019-02-06,42.66999816894531,42.86000061035156,41.599998474121094,42.16999816894531,42.16999816894531,149800
2019-02-07,41.63999938964844,42.505001068115234,41.11000061035156,41.56999969482422,41.56999969482422,579600
2019-02-08,41.68000030517578,44.130001068115234,41.099998474121094,42.91999816894531,42.91999816894531,421600
2019-02-11,43.209999084472656,43.7599983215332,42.073001861572266,43.150001525878906,43.150001525878906,299000
2019-02-12,43.709999084472656,44.724998474121094,43.08000183105469,43.849998474121094,43.849998474121094,298700
2019-02-13,44.22999954223633,44.4900016784668,43.52000045776367,44.27000045776367,44.27000045776367,276200
2019-02-14,44.31999969482422,45.0,42.97999954223633,43.900001525878906,43.900001525878906,334800
2019-02-15,44.33000183105469,45.45500183105469,43.220001220703125,45.380001068115234,45.380001068115234,484300
2019-02-19,45.279998779296875,45.68000030517578,43.88999938964844,44.25,44.25,381900
2019-02-20,44.59000015258789,45.119998931884766,43.85499954223633,44.18000030517578,44.18000030517578,382000
2019-02-21,43.91999816894531,44.13999938964844,43.16999816894531,43.439998626708984,43.439998626708984,212500
2019-02-22,43.560001373291016,45.369998931884766,43.244998931884766,45.0,45.0,398000
2019-02-25,45.59000015258789,46.108001708984375,44.654998779296875,45.45000076293945,45.45000076293945,288200
2019-02-26,45.369998931884766,45.369998931884766,43.790000915527344,44.130001068115234,44.130001068115234,359800
2019-02-27,44.13999938964844,46.11000061035156,43.65999984741211,45.099998474121094,45.099998474121094,446700
2019-02-28,44.86000061035156,45.290000915527344,43.43000030517578,43.97999954223633,43.97999954223633,319100
2019-03-01,44.130001068115234,48.5,44.130001068115234,47.84000015258789,47.84000015258789,976600
2019-03-04,48.599998474121094,48.790000915527344,45.9900016784668,47.15999984741211,47.15999984741211,499700
2019-03-05,47.099998474121094,49.104000091552734,46.72999954223633,47.5099983215332,47.5099983215332,393600
2019-03-06,47.709999084472656,48.2599983215332,44.83000183105469,45.25,45.25,573900
2019-03-07,45.16999816894531,46.86000061035156,44.290000915527344,46.61000061035156,46.61000061035156,317200
2019-03-08,46.09000015258789,48.279998779296875,46.04999923706055,47.43000030517578,47.43000030517578,398700
2019-03-11,47.619998931884766,49.18000030517578,47.43000030517578,49.040000915527344,49.040000915527344,476700
2019-03-12,49.2400016784668,50.56999969482422,48.61000061035156,49.38999938964844,49.38999938964844,482200
2019-03-13,49.9900016784668,50.21500015258789,49.17100143432617,49.63999938964844,49.63999938964844,312000
2019-03-14,49.459999084472656,50.290000915527344,48.810001373291016,50.099998474121094,50.099998474121094,390300
2019-03-15,50.279998779296875,50.650001525878906,49.810001373291016,50.099998474121094,50.099998474121094,1308000
2019-03-18,50.369998931884766,50.439998626708984,47.29999923706055,49.439998626708984,49.439998626708984,762400
2019-03-19,50.02000045776367,50.130001068115234,48.86000061035156,50.04999923706055,50.04999923706055,592400
2019-03-20,49.97999954223633,50.345001220703125,48.16999816894531,49.279998779296875,49.279998779296875,630300
2019-03-21,48.689998626708984,53.36000061035156,48.689998626708984,53.290000915527344,53.290000915527344,584500
2019-03-22,52.869998931884766,53.65999984741211,50.599998474121094,50.849998474121094,50.849998474121094,401100
2019-03-25,51.0,51.93000030517578,49.779998779296875,51.58000183105469,51.58000183105469,280100
2019-03-26,51.61000061035156,53.81999969482422,51.61000061035156,52.869998931884766,52.869998931884766,455500
2019-03-27,52.91999816894531,53.5099983215332,49.83599853515625,50.849998474121094,50.849998474121094,411200
2019-03-28,51.09000015258789,51.880001068115234,50.599998474121094,51.7400016784668,51.7400016784668,189000
2019-03-29,52.279998779296875,52.45000076293945,50.540000915527344,51.470001220703125,51.470001220703125,324900
2019-04-01,51.5,52.20000076293945,50.09000015258789,50.720001220703125,50.720001220703125,322500
2019-04-02,50.36000061035156,51.310001373291016,49.81999969482422,50.189998626708984,50.189998626708984,461000
2019-04-03,50.7599983215332,51.1870002746582,48.75,49.400001525878906,49.400001525878906,594300
2019-04-04,49.04999923706055,49.34000015258789,47.810001373291016,49.0,49.0,871500
2019-04-05,49.2599983215332,50.7400016784668,49.08000183105469,50.189998626708984,50.189998626708984,631800
2019-04-08,50.189998626708984,50.970001220703125,48.540000915527344,50.2599983215332,50.2599983215332,525200
2019-04-09,48.86000061035156,49.75,47.5099983215332,48.9900016784668,48.9900016784668,311400
2019-04-10,48.9900016784668,50.04999923706055,48.25,49.29999923706055,49.29999923706055,248400
2019-04-11,49.150001525878906,49.2599983215332,48.09000015258789,48.54999923706055,48.54999923706055,581200
2019-04-12,49.04999923706055,59.400001525878906,48.25,58.2400016784668,58.2400016784668,5044100
2019-04-15,59.060001373291016,60.95000076293945,58.06399917602539,59.91999816894531,59.91999816894531,1075300
2019-04-16,59.90999984741211,62.24800109863281,59.630001068115234,61.900001525878906,61.900001525878906,948600
2019-04-17,61.880001068115234,62.029998779296875,58.380001068115234,60.18000030517578,60.18000030517578,975500
2019-04-18,60.06999969482422,60.81999969482422,58.810001373291016,60.15999984741211,60.15999984741211,681700
2019-04-22,60.15999984741211,61.099998474121094,58.810001373291016,60.880001068115234,60.880001068115234,486300
2019-04-23,61.09000015258789,64.54000091552734,61.09000015258789,64.0,64.0,914100
2019-04-24,64.47000122070312,64.56999969482422,62.349998474121094,63.150001525878906,63.150001525878906,591900
2019-04-25,63.06999969482422,64.83000183105469,62.0099983215332,64.36000061035156,64.36000061035156,668200
2019-04-26,64.56999969482422,64.69999694824219,61.38999938964844,64.01000213623047,64.01000213623047,455500
2019-04-29,64.0,64.27999877929688,62.709999084472656,62.84000015258789,62.84000015258789,505400
2019-04-30,62.97999954223633,63.709999084472656,59.7599983215332,59.849998474121094,59.849998474121094,748100
2019-05-01,59.470001220703125,60.5,57.7599983215332,57.93000030517578,57.93000030517578,613000
2019-05-02,57.91999816894531,58.6150016784668,55.75,57.13999938964844,57.13999938964844,475000
2019-05-03,57.31999969482422,57.689998626708984,56.25,57.060001373291016,57.060001373291016,616200
2019-05-06,56.29999923706055,60.560001373291016,56.29999923706055,59.91999816894531,59.91999816894531,608800
2019-05-07,59.150001525878906,59.79999923706055,57.875,58.5,58.5,452900
2019-05-08,60.2599983215332,64.66999816894531,59.79999923706055,62.279998779296875,62.279998779296875,1521100
2019-05-09,61.630001068115234,64.73999786376953,61.349998474121094,63.470001220703125,63.470001220703125,801300
2019-05-10,63.439998626708984,64.01000213623047,61.029998779296875,62.68000030517578,62.68000030517578,372400
2019-05-13,61.04999923706055,62.75,60.2599983215332,60.2599983215332,60.2599983215332,567300
2019-05-14,60.709999084472656,63.935001373291016,60.22999954223633,63.209999084472656,63.209999084472656,442700
2019-05-15,62.40999984741211,63.48099899291992,61.33000183105469,61.779998779296875,61.779998779296875,437500
2019-05-16,62.369998931884766,65.63999938964844,62.369998931884766,63.779998779296875,63.779998779296875,575400
2019-05-17,63.13999938964844,65.0,60.97999954223633,61.810001373291016,61.810001373291016,394200
2019-05-20,60.810001373291016,63.310001373291016,60.75,61.70000076293945,61.70000076293945,314500
2019-05-21,62.27000045776367,62.474998474121094,61.189998626708984,61.7599983215332,61.7599983215332,275100
2019-05-22,61.09000015258789,62.44499969482422,60.22999954223633,62.09000015258789,62.09000015258789,262800
2019-05-23,61.41999816894531,61.970001220703125,59.5099983215332,60.709999084472656,60.709999084472656,358000
2019-05-24,61.13999938964844,62.196998596191406,60.63999938964844,61.83000183105469,61.83000183105469,259000
2019-05-28,61.880001068115234,62.7599983215332,58.08000183105469,58.709999084472656,58.709999084472656,673100
2019-05-29,58.220001220703125,59.970001220703125,57.560001373291016,58.75,58.75,256600
2019-05-30,59.130001068115234,59.7400016784668,56.29999923706055,56.54999923706055,56.54999923706055,530000
2019-05-31,56.02000045776367,58.470001220703125,56.02000045776367,56.459999084472656,56.459999084472656,726900
2019-06-03,56.790000915527344,57.72999954223633,54.75,55.88999938964844,55.88999938964844,692300
2019-06-04,56.11000061035156,57.5,55.790000915527344,56.70000076293945,56.70000076293945,522600
2019-06-05,56.959999084472656,57.314998626708984,56.150001525878906,56.709999084472656,56.709999084472656,247200
2019-06-06,56.52000045776367,56.65999984741211,55.52000045776367,55.70000076293945,55.70000076293945,269300
2019-06-07,56.04999923706055,67.86000061035156,54.939998626708984,67.01000213623047,67.01000213623047,2145300
2019-06-10,64.30999755859375,65.61000061035156,62.5,63.650001525878906,63.650001525878906,863800
2019-06-11,63.79999923706055,64.73999786376953,60.69499969482422,62.0099983215332,62.0099983215332,544500
2019-06-12,61.84000015258789,62.847999572753906,61.33000183105469,62.540000915527344,62.540000915527344,357400
2019-06-13,63.02000045776367,63.720001220703125,61.7599983215332,62.97999954223633,62.97999954223633,431900
2019-06-14,62.63999938964844,64.2300033569336,61.97999954223633,62.97999954223633,62.97999954223633,415900
2019-06-17,61.75,63.810001373291016,52.33000183105469,57.36000061035156,57.36000061035156,2429500
2019-06-18,40.47999954223633,46.0,40.40999984741211,43.81999969482422,43.81999969482422,8080100
2019-06-19,43.04999923706055,44.34000015258789,40.2400016784668,40.650001525878906,40.650001525878906,6012600
2019-06-20,40.869998931884766,41.189998626708984,38.7599983215332,39.880001068115234,39.880001068115234,3176000
2019-06-21,39.66999816894531,41.060001373291016,39.5,41.060001373291016,41.060001373291016,1847200
2019-06-24,40.790000915527344,41.16999816894531,39.54999923706055,39.79999923706055,39.79999923706055,1525400
2019-06-25,40.34000015258789,41.33000183105469,39.599998474121094,39.790000915527344,39.790000915527344,1081300
2019-06-26,40.220001220703125,42.70000076293945,39.720001220703125,42.02000045776367,42.02000045776367,1641000
2019-06-27,43.06999969482422,43.459999084472656,41.599998474121094,42.5099983215332,42.5099983215332,2059000
2019-06-28,42.720001220703125,44.3849983215332,42.25,43.790000915527344,43.790000915527344,1743800
2019-07-01,44.22999954223633,45.0,42.959999084472656,43.2599983215332,43.2599983215332,1021200
2019-07-02,43.5,44.43000030517578,42.619998931884766,43.029998779296875,43.029998779296875,1067100
2019-07-03,43.040000915527344,44.959999084472656,42.43000030517578,44.58000183105469,44.58000183105469,931000
2019-07-05,44.38999938964844,44.560001373291016,42.58000183105469,42.91999816894531,42.91999816894531,807500
2019-07-08,42.5099983215332,43.369998931884766,41.439998626708984,42.34000015258789,42.34000015258789,734300
2019-07-09,42.33000183105469,43.439998626708984,41.91999816894531,43.2400016784668,43.2400016784668,448000
2019-07-10,43.619998931884766,43.900001525878906,42.790000915527344,43.709999084472656,43.709999084472656,663000
2019-07-11,44.630001068115234,44.91999816894531,42.65999984741211,43.09000015258789,43.09000015258789,1223700
2019-07-12,43.0,43.75,42.18000030517578,42.52000045776367,42.52000045776367,626000
2019-07-15,43.060001373291016,46.369998931884766,42.599998474121094,45.720001220703125,45.720001220703125,1163600
2019-07-16,46.0,46.29999923706055,44.39500045776367,45.29999923706055,45.29999923706055,1005800
2019-07-17,45.099998474121094,45.84000015258789,44.22999954223633,44.5,44.5,484800
2019-07-18,44.41999816894531,44.91999816894531,44.119998931884766,44.7400016784668,44.7400016784668,403000
2019-07-19,44.66999816894531,45.17499923706055,43.959999084472656,44.099998474121094,44.099998474121094,497900
2019-07-22,43.099998474121094,45.29999923706055,42.720001220703125,45.25,45.25,1100000
2019-07-23,44.880001068115234,45.41999816894531,43.2400016784668,43.4900016784668,43.4900016784668,563600
2019-07-24,43.380001068115234,44.72999954223633,42.209999084472656,44.380001068115234,44.380001068115234,406900
2019-07-25,44.380001068115234,44.380001068115234,42.85499954223633,43.11000061035156,43.11000061035156,408000
2019-07-26,43.439998626708984,44.900001525878906,42.86000061035156,44.650001525878906,44.650001525878906,654200
2019-07-29,44.560001373291016,45.220001220703125,43.25199890136719,45.0,45.0,538600
2019-07-30,44.38999938964844,44.60300064086914,42.7400016784668,43.20000076293945,43.20000076293945,896700
2019-07-31,43.0,43.81999969482422,41.95000076293945,43.040000915527344,43.040000915527344,1034300
2019-08-01,42.84000015258789,43.77000045776367,41.875,42.29999923706055,42.29999923706055,953000
2019-08-02,41.90999984741211,42.04999923706055,40.720001220703125,41.2599983215332,41.2599983215332,985500
2019-08-05,40.650001525878906,41.040000915527344,39.220001220703125,39.56999969482422,39.56999969482422,758200
2019-08-06,39.970001220703125,40.349998474121094,37.779998779296875,39.11000061035156,39.11000061035156,704100
2019-08-07,38.5,39.94499969482422,37.84000015258789,39.70000076293945,39.70000076293945,1052800
2019-08-08,39.849998474121094,40.95000076293945,39.0099983215332,40.599998474121094,40.599998474121094,554500
2019-08-09,39.15999984741211,40.06999969482422,38.119998931884766,39.380001068115234,39.380001068115234,736300
2019-08-12,38.97999954223633,39.6150016784668,37.61000061035156,37.68000030517578,37.68000030517578,521000
2019-08-13,37.5099983215332,39.689998626708984,37.06999969482422,38.83000183105469,38.83000183105469,804500
2019-08-14,38.09000015258789,38.5,37.06999969482422,38.0099983215332,38.0099983215332,504800
2019-08-15,38.02000045776367,38.97999954223633,36.939998626708984,37.4900016784668,37.4900016784668,621700
2019-08-16,37.869998931884766,39.369998931884766,37.22999954223633,39.220001220703125,39.220001220703125,502400
2019-08-19,39.63999938964844,39.709999084472656,38.099998474121094,38.16999816894531,38.16999816894531,387900
2019-08-20,38.04999923706055,38.349998474121094,37.2599983215332,37.380001068115234,37.380001068115234,428400
2019-08-21,37.84000015258789,38.29999923706055,37.0,37.41999816894531,37.41999816894531,539200
2019-08-22,38.36000061035156,39.15999984741211,37.73500061035156,38.650001525878906,38.650001525878906,518500
2019-08-23,38.290000915527344,39.44200134277344,38.290000915527344,38.540000915527344,38.540000915527344,587100
2019-08-26,38.970001220703125,39.599998474121094,38.279998779296875,38.84000015258789,38.84000015258789,594500
2019-08-27,38.880001068115234,39.2400016784668,36.689998626708984,37.79999923706055,37.79999923706055,541300
2019-08-28,37.58000183105469,38.47999954223633,37.29999923706055,37.77000045776367,37.77000045776367,380400
2019-08-29,38.189998626708984,38.8650016784668,37.41999816894531,38.63999938964844,38.63999938964844,372800
2019-08-30,38.83000183105469,39.91999816894531,38.40999984741211,39.189998626708984,39.189998626708984,783700
2019-09-03,38.88999938964844,39.79999923706055,37.08000183105469,38.099998474121094,38.099998474121094,715300
2019-09-04,39.099998474121094,42.4900016784668,39.099998474121094,41.650001525878906,41.650001525878906,1583100
2019-09-05,41.79999923706055,42.20000076293945,39.584999084472656,40.900001525878906,40.900001525878906,595500
2019-09-06,40.91999816894531,42.68000030517578,40.880001068115234,41.4900016784668,41.4900016784668,563600
2019-09-09,41.68000030517578,41.7599983215332,40.5099983215332,41.2400016784668,41.2400016784668,633400
2019-09-10,41.22999954223633,41.88999938964844,39.95000076293945,41.79999923706055,41.79999923706055,749400
2019-09-11,41.849998474121094,45.93000030517578,41.72200012207031,45.36000061035156,45.36000061035156,1212400
2019-09-12,45.439998626708984,45.630001068115234,43.959999084472656,44.97999954223633,44.97999954223633,471800
2019-09-13,45.150001525878906,47.119998931884766,44.869998931884766,47.029998779296875,47.029998779296875,752300
2019-09-16,47.5,49.959999084472656,47.5,48.02000045776367,48.02000045776367,1207100
2019-09-17,48.0,48.439998626708984,46.290000915527344,47.31999969482422,47.31999969482422,760400
2019-09-18,47.54999923706055,49.97999954223633,47.0,49.470001220703125,49.470001220703125,971600
2019-09-19,49.15999984741211,49.404998779296875,47.470001220703125,47.70000076293945,47.70000076293945,521900
2019-09-20,47.52000045776367,47.599998474121094,46.06999969482422,46.88999938964844,46.88999938964844,2110700
2019-09-23,46.720001220703125,47.54999923706055,45.869998931884766,46.29999923706055,46.29999923706055,486300
2019-09-24,46.540000915527344,46.935001373291016,44.54999923706055,44.88999938964844,44.88999938964844,692800
2019-09-25,44.790000915527344,44.90999984741211,43.05500030517578,43.810001373291016,43.810001373291016,608800
2019-09-26,43.720001220703125,43.880001068115234,41.81999969482422,43.0099983215332,43.0099983215332,555700
2019-09-27,42.95000076293945,43.400001525878906,40.70000076293945,41.52000045776367,41.52000045776367,901300
2019-09-30,41.56999969482422,42.619998931884766,41.05500030517578,41.720001220703125,41.720001220703125,856300
2019-10-01,41.81999969482422,43.36000061035156,40.5,41.40999984741211,41.40999984741211,661100
2019-10-02,41.040000915527344,42.380001068115234,40.25,42.16999816894531,42.16999816894531,533600
2019-10-03,41.90999984741211,43.72999954223633,41.45000076293945,43.709999084472656,43.709999084472656,825300
2019-10-04,44.0,44.1870002746582,42.540000915527344,43.2400016784668,43.2400016784668,589700
2019-10-07,43.040000915527344,43.5099983215332,41.77000045776367,41.900001525878906,41.900001525878906,544900
2019-10-08,41.47999954223633,42.16999816894531,39.779998779296875,40.86000061035156,40.86000061035156,465700
2019-10-09,41.0,41.91999816894531,41.0,41.560001373291016,41.560001373291016,462900
2019-10-10,41.61000061035156,42.349998474121094,41.31999969482422,41.709999084472656,41.709999084472656,506300
2019-10-11,42.22999954223633,43.233001708984375,41.02000045776367,43.0099983215332,43.0099983215332,612800
2019-10-14,43.0099983215332,44.0,42.220001220703125,43.119998931884766,43.119998931884766,482000
2019-10-15,43.38999938964844,45.060001373291016,43.314998626708984,44.630001068115234,44.630001068115234,365500
2019-10-16,44.189998626708984,44.81999969482422,43.65999984741211,44.2599983215332,44.2599983215332,317600
2019-10-17,44.369998931884766,44.97999954223633,43.72999954223633,44.720001220703125,44.720001220703125,387700
2019-10-18,44.349998474121094,46.15999984741211,44.029998779296875,44.970001220703125,44.970001220703125,699000
2019-10-21,45.08000183105469,45.45000076293945,44.04999923706055,45.06999969482422,45.06999969482422,539400
2019-10-22,45.54999923706055,46.63999938964844,45.23500061035156,46.09000015258789,46.09000015258789,415400
2019-10-23,45.63999938964844,47.869998931884766,45.25,47.0099983215332,47.0099983215332,426300
2019-10-24,47.119998931884766,47.709999084472656,45.18000030517578,45.529998779296875,45.529998779296875,393700
2019-10-25,45.290000915527344,47.70000076293945,45.290000915527344,46.77000045776367,46.77000045776367,416300
2019-10-28,47.220001220703125,48.36000061035156,46.310001373291016,47.810001373291016,47.810001373291016,750700
2019-10-29,47.7599983215332,47.849998474121094,46.81999969482422,46.95000076293945,46.95000076293945,291300
2019-10-30,46.7599983215332,46.7599983215332,45.099998474121094,45.22999954223633,45.22999954223633,316400
2019-10-31,45.0,46.20000076293945,44.04999923706055,45.91999816894531,45.91999816894531,427000
2019-11-01,46.11000061035156,47.790000915527344,46.040000915527344,47.279998779296875,47.279998779296875,380000
2019-11-04,47.61000061035156,47.83000183105469,45.290000915527344,46.900001525878906,46.900001525878906,735300
2019-11-05,47.220001220703125,48.439998626708984,46.40999984741211,46.959999084472656,46.959999084472656,379500
2019-11-06,46.880001068115234,47.040000915527344,45.15999984741211,45.34000015258789,45.34000015258789,314100
2019-11-07,45.9900016784668,47.150001525878906,45.59000015258789,46.0099983215332,46.0099983215332,449900
2019-11-08,46.0,48.369998931884766,45.85499954223633,48.33000183105469,48.33000183105469,567400
2019-11-11,47.86000061035156,48.25,46.880001068115234,47.90999984741211,47.90999984741211,415100
2019-11-12,47.849998474121094,49.52000045776367,47.5,49.02000045776367,49.02000045776367,458800
2019-11-13,48.43000030517578,49.0099983215332,47.04999923706055,48.52000045776367,48.52000045776367,504200
2019-11-14,48.619998931884766,49.779998779296875,48.16999816894531,49.02000045776367,49.02000045776367,643000
2019-11-15,49.52000045776367,51.5,48.959999084472656,51.08000183105469,51.08000183105469,884700
2019-11-18,50.90999984741211,51.81999969482422,50.16999816894531,51.59000015258789,51.59000015258789,855800
2019-11-19,52.0,52.84000015258789,51.09000015258789,51.560001373291016,51.560001373291016,592300
2019-11-20,51.4900016784668,53.130001068115234,51.22999954223633,52.70000076293945,52.70000076293945,675500
2019-11-21,52.900001525878906,53.90999984741211,52.5,53.880001068115234,53.880001068115234,720200
2019-11-22,55.2400016784668,56.61000061035156,54.0099983215332,56.5,56.5,1292200
2019-11-25,56.650001525878906,57.93000030517578,54.83000183105469,57.400001525878906,57.400001525878906,1430100
2019-11-26,57.720001220703125,57.720001220703125,56.29999923706055,57.0,57.0,683700
2019-11-27,57.27000045776367,58.0,56.20000076293945,57.650001525878906,57.650001525878906,529500
2019-11-29,57.220001220703125,58.415000915527344,56.75,57.31999969482422,57.31999969482422,219500
2019-12-02,57.81999969482422,58.189998626708984,55.2400016784668,55.2400016784668,55.2400016784668,529500
2019-12-03,54.52000045776367,55.25,53.375,53.7599983215332,53.7599983215332,663900
2019-12-04,53.91999816894531,54.8849983215332,53.5,54.02000045776367,54.02000045776367,622200
2019-12-05,54.11000061035156,54.40599822998047,52.540000915527344,53.7599983215332,53.7599983215332,744800
2019-12-06,55.0099983215332,57.03499984741211,54.05400085449219,54.849998474121094,54.849998474121094,1250700
2019-12-09,55.099998474121094,55.41999816894531,52.79999923706055,52.95000076293945,52.95000076293945,787500
2019-12-10,53.0,54.62799835205078,52.650001525878906,53.900001525878906,53.900001525878906,536900
2019-12-11,54.15999984741211,54.27000045776367,51.29999923706055,51.349998474121094,51.349998474121094,911500
2019-12-12,51.119998931884766,52.22999954223633,50.41999816894531,51.0099983215332,51.0099983215332,485600
2019-12-13,51.0,52.52000045776367,50.900001525878906,52.45000076293945,52.45000076293945,678900
2019-12-16,53.04999923706055,55.470001220703125,52.933998107910156,55.130001068115234,55.130001068115234,879500
2019-12-17,56.900001525878906,57.33000183105469,52.90999984741211,53.119998931884766,53.119998931884766,1125000
2019-12-18,53.119998931884766,53.209999084472656,51.68000030517578,52.130001068115234,52.130001068115234,583100
2019-12-19,52.380001068115234,53.06999969482422,51.709999084472656,52.52000045776367,52.52000045776367,663900
2019-12-20,52.47999954223633,53.5,52.0,53.16999816894531,53.16999816894531,725100
2019-12-23,53.869998931884766,54.70000076293945,53.209999084472656,54.08000183105469,54.08000183105469,865400
2019-12-24,54.5,55.72999954223633,54.25,55.41999816894531,55.41999816894531,313500
2019-12-26,55.400001525878906,57.029998779296875,55.2599983215332,56.779998779296875,56.779998779296875,348100
2019-12-27,56.95000076293945,57.31999969482422,55.13999938964844,56.029998779296875,56.029998779296875,725800
2019-12-30,55.970001220703125,56.31999969482422,52.20000076293945,53.459999084472656,53.459999084472656,851000
2019-12-31,53.5,55.540000915527344,53.02000045776367,54.439998626708984,54.439998626708984,472400
2020-01-02,55.0,55.459999084472656,53.13999938964844,53.380001068115234,53.380001068115234,559000
2020-01-03,52.599998474121094,53.86000061035156,51.650001525878906,52.79999923706055,52.79999923706055,510000
2020-01-06,52.18000030517578,53.900001525878906,51.22999954223633,53.7400016784668,53.7400016784668,956300
2020-01-07,53.779998779296875,56.16999816894531,52.95000076293945,55.91999816894531,55.91999816894531,645500
2020-01-08,55.97999954223633,56.52000045776367,54.4900016784668,55.90999984741211,55.90999984741211,325500
2020-01-09,56.38999938964844,57.95000076293945,55.775001525878906,56.41999816894531,56.41999816894531,451900
2020-01-10,56.52000045776367,58.14899826049805,55.68000030517578,56.720001220703125,56.720001220703125,777300
2020-01-13,56.650001525878906,56.935001373291016,51.64500045776367,52.0,52.0,1064300
2020-01-14,52.0,53.5,50.84000015258789,52.0099983215332,52.0099983215332,750300
2020-01-15,51.97999954223633,53.0,50.900001525878906,51.4900016784668,51.4900016784668,739800
2020-01-16,51.77000045776367,52.32400131225586,50.63999938964844,51.70000076293945,51.70000076293945,828100
2020-01-17,52.290000915527344,56.529998779296875,51.90999984741211,56.0099983215332,56.0099983215332,1299000
2020-01-21,56.47999954223633,57.959999084472656,55.16999816894531,56.0,56.0,1180500
2020-01-22,55.959999084472656,59.650001525878906,54.13999938964844,57.290000915527344,57.290000915527344,1267500
2020-01-23,57.93000030517578,57.93000030517578,55.08000183105469,55.970001220703125,55.970001220703125,795900
2020-01-24,56.0,56.66999816894531,53.38999938964844,54.5,54.5,731800
2020-01-27,52.849998474121094,54.404998779296875,52.65399932861328,53.25,53.25,558400
2020-01-28,53.630001068115234,57.060001373291016,53.25,56.439998626708984,56.439998626708984,672400
2020-01-29,50.75,52.290000915527344,50.11000061035156,50.900001525878906,50.900001525878906,4074200
2020-01-30,50.68000030517578,50.75199890136719,48.099998474121094,48.4900016784668,48.4900016784668,1649300
2020-01-31,48.70000076293945,48.81999969482422,46.70000076293945,48.4900016784668,48.4900016784668,1839300
2020-02-03,49.029998779296875,49.79999923706055,47.970001220703125,49.209999084472656,49.209999084472656,947800
2020-02-04,50.06999969482422,52.86000061035156,49.25,52.439998626708984,52.439998626708984,1284600
2020-02-05,52.869998931884766,54.0,51.96699905395508,53.91999816894531,53.91999816894531,1052600
2020-02-06,54.56999969482422,54.880001068115234,53.5,54.04999923706055,54.04999923706055,751800
2020-02-07,53.939998626708984,54.04999923706055,50.65999984741211,51.25,51.25,1096300
2020-02-10,45.88999938964844,49.2599983215332,44.95000076293945,47.060001373291016,47.060001373291016,5198000
2020-02-11,47.369998931884766,47.720001220703125,45.130001068115234,45.16999816894531,45.16999816894531,1180800
2020-02-12,45.83000183105469,46.310001373291016,44.53499984741211,45.119998931884766,45.119998931884766,693800
2020-02-13,44.88999938964844,46.08000183105469,44.349998474121094,45.630001068115234,45.630001068115234,812300
2020-02-14,45.90999984741211,46.709999084472656,45.20000076293945,45.33000183105469,45.33000183105469,459200
2020-02-18,45.5,46.86000061035156,44.77000045776367,46.43000030517578,46.43000030517578,509100
2020-02-19,46.52000045776367,46.84000015258789,45.43000030517578,46.279998779296875,46.279998779296875,438700
2020-02-20,46.040000915527344,46.470001220703125,45.189998626708984,45.880001068115234,45.880001068115234,569200
2020-02-21,45.79999923706055,45.90999984741211,44.779998779296875,45.34000015258789,45.34000015258789,758900
2020-02-24,43.81999969482422,44.91999816894531,43.41999816894531,44.4900016784668,44.4900016784668,686200
2020-02-25,44.880001068115234,45.33000183105469,42.89500045776367,43.79999923706055,43.79999923706055,784600
2020-02-26,43.70000076293945,44.685001373291016,42.52000045776367,44.630001068115234,44.630001068115234,785000
2020-02-27,43.65999984741211,44.0099983215332,40.779998779296875,40.81999969482422,40.81999969482422,1177100
2020-02-28,41.5,44.20000076293945,40.79999923706055,44.15999984741211,44.15999984741211,1874300
2020-03-02,44.869998931884766,46.630001068115234,43.70000076293945,46.560001373291016,46.560001373291016,894800
2020-03-03,46.65999984741211,46.970001220703125,44.599998474121094,46.2400016784668,46.2400016784668,781200
2020-03-04,47.41999816894531,49.61000061035156,46.78900146484375,49.119998931884766,49.119998931884766,883700
2020-03-05,47.650001525878906,50.72999954223633,47.0,49.5,49.5,778600
2020-03-06,47.75,48.27199935913086,44.54999923706055,46.209999084472656,46.209999084472656,700700
2020-03-09,43.54999923706055,43.86000061035156,38.04999923706055,40.470001220703125,40.470001220703125,697000
2020-03-10,42.119998931884766,44.33000183105469,39.70000076293945,44.04999923706055,44.04999923706055,631500
2020-03-11,43.119998931884766,43.361000061035156,39.165000915527344,39.459999084472656,39.459999084472656,710300
2020-03-12,36.81999969482422,37.0,33.32500076293945,33.619998931884766,33.619998931884766,1371800
2020-03-13,36.5,37.202999114990234,31.0,35.56999969482422,35.56999969482422,936800
2020-03-16,31.510000228881836,32.900001525878906,27.399999618530273,27.510000228881836,27.510000228881836,1395100
2020-03-17,28.079999923706055,30.6200008392334,26.559999465942383,30.5,30.5,1661000
2020-03-18,28.6200008392334,30.760000228881836,27.1200008392334,30.360000610351562,30.360000610351562,1119800
2020-03-19,29.780000686645508,31.90999984741211,28.200000762939453,30.469999313354492,30.469999313354492,1102400
2020-03-20,30.639999389648438,32.430999755859375,29.09000015258789,29.59000015258789,29.59000015258789,1421200
2020-03-23,29.790000915527344,30.899999618530273,28.665000915527344,29.34000015258789,29.34000015258789,671300
2020-03-24,31.389999389648438,34.0099983215332,30.469999313354492,34.0099983215332,34.0099983215332,1312500
2020-03-25,33.72999954223633,36.2599983215332,32.970001220703125,33.47999954223633,33.47999954223633,744100
2020-03-26,33.75,36.23500061035156,33.16999816894531,35.810001373291016,35.810001373291016,1009700
2020-03-27,34.849998474121094,36.2400016784668,34.040000915527344,35.279998779296875,35.279998779296875,617800
2020-03-30,33.439998626708984,34.70500183105469,31.684999465942383,33.310001373291016,33.310001373291016,2884600
2020-03-31,33.29999923706055,35.83000183105469,33.209999084472656,34.029998779296875,34.029998779296875,1294700
2020-04-01,33.279998779296875,33.84000015258789,29.69499969482422,29.770000457763672,29.770000457763672,1013900
2020-04-02,29.68000030517578,32.130001068115234,29.09000015258789,30.299999237060547,30.299999237060547,713300
2020-04-03,29.690000534057617,30.26799964904785,28.2549991607666,29.010000228881836,29.010000228881836,804500
2020-04-06,30.770000457763672,32.20000076293945,30.0,32.08000183105469,32.08000183105469,1075300
2020-04-07,33.52000045776367,33.90999984741211,30.079999923706055,30.229999542236328,30.229999542236328,1213800
2020-04-08,30.5,34.029998779296875,29.530000686645508,33.75,33.75,1310400
2020-04-09,35.04999923706055,36.91999816894531,34.46500015258789,36.2400016784668,36.2400016784668,1404600
2020-04-13,36.41999816894531,36.41999816894531,33.150001525878906,34.0,34.0,705000
2020-04-14,34.599998474121094,35.869998931884766,34.209999084472656,35.59000015258789,35.59000015258789,1038600
2020-04-15,34.65999984741211,35.18000030517578,32.93000030517578,33.709999084472656,33.709999084472656,851300
2020-04-16,33.5099983215332,34.189998626708984,31.860000610351562,33.63999938964844,33.63999938964844,1156100
2020-04-17,35.689998626708984,38.7599983215332,34.779998779296875,38.40999984741211,38.40999984741211,1136200
2020-04-20,37.91999816894531,42.06999969482422,37.91999816894531,41.79999923706055,41.79999923706055,1181200
2020-04-21,40.4900016784668,42.060001373291016,39.58000183105469,41.5099983215332,41.5099983215332,904100
2020-04-22,41.90999984741211,43.4900016784668,41.36000061035156,42.90999984741211,42.90999984741211,908300
2020-04-23,43.11000061035156,45.47999954223633,43.11000061035156,44.2400016784668,44.2400016784668,765900
2020-04-24,44.220001220703125,47.150001525878906,43.029998779296875,46.970001220703125,46.970001220703125,990400
2020-04-27,47.68000030517578,49.68000030517578,47.3849983215332,48.75,48.75,873600
2020-04-28,49.709999084472656,49.83000183105469,46.72999954223633,48.02000045776367,48.02000045776367,760100
2020-04-29,49.2599983215332,49.52000045776367,47.56999969482422,48.70000076293945,48.70000076293945,585000
2020-04-30,48.15999984741211,49.5,47.0,47.099998474121094,47.099998474121094,713200
2020-05-01,46.099998474121094,46.7599983215332,43.779998779296875,45.06999969482422,45.06999969482422,679400
2020-05-04,44.36000061035156,48.90999984741211,44.36000061035156,48.83000183105469,48.83000183105469,816100
2020-05-05,49.5,50.66999816894531,48.619998931884766,48.7400016784668,48.7400016784668,900300
2020-05-06,49.31999969482422,49.939998626708984,48.0,48.150001525878906,48.150001525878906,651500
2020-05-07,49.52000045776367,49.52000045776367,47.810001373291016,48.220001220703125,48.220001220703125,761800
2020-05-08,49.130001068115234,49.77000045776367,47.2400016784668,47.65999984741211,47.65999984741211,732600
2020-05-11,47.470001220703125,50.47999954223633,47.02000045776367,49.95000076293945,49.95000076293945,739600
2020-05-12,50.650001525878906,51.2400016784668,46.709999084472656,46.72999954223633,46.72999954223633,702700
2020-05-13,46.849998474121094,47.33000183105469,43.29999923706055,45.0099983215332,45.0099983215332,741200
2020-05-14,44.040000915527344,44.43000030517578,42.7400016784668,44.310001373291016,44.310001373291016,618100
2020-05-15,44.189998626708984,47.68000030517578,43.83000183105469,47.2599983215332,47.2599983215332,622000
2020-05-18,49.029998779296875,51.27000045776367,48.880001068115234,50.47999954223633,50.47999954223633,656900
2020-05-19,50.18000030517578,51.91999816894531,49.97999954223633,50.06999969482422,50.06999969482422,377000
2020-05-20,50.33000183105469,52.7599983215332,50.33000183105469,51.95000076293945,51.95000076293945,511700
2020-05-21,52.220001220703125,53.0,51.08000183105469,52.209999084472656,52.209999084472656,498200
2020-05-22,53.0,59.529998779296875,52.619998931884766,58.380001068115234,58.380001068115234,1599300
2020-05-26,60.0,63.415000915527344,58.97999954223633,60.0099983215332,60.0099983215332,1488800
2020-05-27,60.58000183105469,60.939998626708984,56.691001892089844,60.11000061035156,60.11000061035156,925200
2020-05-28,60.43000030517578,61.06999969482422,57.540000915527344,57.79999923706055,57.79999923706055,561800
2020-05-29,57.619998931884766,62.59000015258789,57.11000061035156,62.470001220703125,62.470001220703125,770400
2020-06-01,61.650001525878906,65.9800033569336,61.38999938964844,64.31999969482422,64.31999969482422,990300
2020-06-02,64.98999786376953,68.62000274658203,63.869998931884766,66.68000030517578,66.68000030517578,902300
2020-06-03,66.6500015258789,67.48999786376953,65.54000091552734,66.27999877929688,66.27999877929688,757700
2020-06-04,65.69000244140625,69.36000061035156,65.37200164794922,67.41000366210938,67.41000366210938,961000
2020-06-05,69.12999725341797,69.55999755859375,67.61000061035156,68.1500015258789,68.1500015258789,614800
2020-06-08,68.05999755859375,70.07499694824219,66.875,69.76000213623047,69.76000213623047,721500
2020-06-09,68.95999908447266,69.6500015258789,67.19999694824219,68.56999969482422,68.56999969482422,627100
2020-06-10,69.5,69.98999786376953,66.02999877929688,66.66999816894531,66.66999816894531,850200
2020-06-11,64.83000183105469,65.2249984741211,61.29999923706055,61.79999923706055,61.79999923706055,1165500
2020-06-12,64.73999786376953,66.29000091552734,62.16999816894531,66.0,66.0,868400
2020-06-15,64.9000015258789,68.52999877929688,63.9900016784668,68.37999725341797,68.37999725341797,802200
2020-06-16,70.0,70.12999725341797,66.31999969482422,68.02999877929688,68.02999877929688,641000
2020-06-17,68.55000305175781,72.73999786376953,68.47000122070312,72.01000213623047,72.01000213623047,1825000
2020-06-18,73.5999984741211,76.4000015258789,72.87999725341797,74.2300033569336,74.2300033569336,1219700
2020-06-19,75.0,75.41000366210938,68.27999877929688,72.68000030517578,72.68000030517578,2381600
2020-06-22,73.0,74.05000305175781,71.41000366210938,73.69000244140625,73.69000244140625,898700
2020-06-23,74.94999694824219,75.52999877929688,72.0199966430664,72.88999938964844,72.88999938964844,941100
2020-06-24,70.0,70.91000366210938,68.5199966430664,70.04000091552734,70.04000091552734,1446300
2020-06-25,70.04000091552734,74.41000366210938,69.54000091552734,72.52999877929688,72.52999877929688,714900
2020-06-26,71.2699966430664,72.75499725341797,69.37999725341797,70.0,70.0,1508600
2020-06-29,70.62999725341797,70.70999908447266,68.0,69.31999969482422,69.31999969482422,546600
2020-06-30,68.7699966430664,73.44999694824219,68.61000061035156,73.11000061035156,73.11000061035156,711100
2020-07-01,73.29000091552734,74.0199966430664,70.25299835205078,72.38999938964844,72.38999938964844,613800
2020-07-02,72.98999786376953,73.08999633789062,69.91999816894531,71.19999694824219,71.19999694824219,434000
2020-07-06,72.5,72.5,70.2300033569336,71.55999755859375,71.55999755859375,395700
2020-07-07,70.91000366210938,73.72000122070312,70.55000305175781,72.08000183105469,72.08000183105469,331200
2020-07-08,72.73999786376953,78.75,71.93000030517578,77.94999694824219,77.94999694824219,1111900
2020-07-09,77.95999908447266,78.38999938964844,73.55999755859375,75.88999938964844,75.88999938964844,486500
2020-07-10,75.79000091552734,75.83000183105469,73.5,74.13999938964844,74.13999938964844,290300
2020-07-13,74.5999984741211,75.83999633789062,69.41000366210938,69.55000305175781,69.55000305175781,759600
2020-07-14,69.75,72.94999694824219,69.19000244140625,72.9000015258789,72.9000015258789,433700
2020-07-15,75.0999984741211,77.22000122070312,73.6500015258789,76.38999938964844,76.38999938964844,876100
2020-07-16,75.02999877929688,75.69999694824219,72.71800231933594,73.76000213623047,73.76000213623047,586000
2020-07-17,73.58000183105469,74.0999984741211,72.30000305175781,72.73999786376953,72.73999786376953,534100
2020-07-20,73.25,74.7300033569336,73.0,73.58000183105469,73.58000183105469,257200
2020-07-21,74.4000015258789,74.62999725341797,72.41999816894531,72.52999877929688,72.52999877929688,527600
2020-07-22,72.5999984741211,73.74500274658203,72.26000213623047,72.97000122070312,72.97000122070312,258600
2020-07-23,72.5,75.29000091552734,70.38999938964844,71.12999725341797,71.12999725341797,526100
2020-07-24,70.44999694824219,70.79000091552734,67.51000213623047,69.6500015258789,69.6500015258789,415900
2020-07-27,69.9000015258789,71.30000305175781,69.0,69.72000122070312,69.72000122070312,342300
2020-07-28,69.23999786376953,69.5999984741211,67.19999694824219,67.43000030517578,67.43000030517578,462300
2020-07-29,67.97000122070312,68.41000366210938,63.43000030517578,63.75,63.75,1103000
2020-07-30,64.01000213623047,65.0999984741211,63.65999984741211,64.25,64.25,560400
2020-07-31,64.23999786376953,64.79000091552734,62.400001525878906,64.04000091552734,64.04000091552734,537000
2020-08-03,64.55000305175781,66.37000274658203,63.970001220703125,65.83000183105469,65.83000183105469,714600
2020-08-04,65.7699966430664,67.02200317382812,64.95999908447266,66.30000305175781,66.30000305175781,279900
2020-08-05,66.94999694824219,66.9800033569336,65.62999725341797,66.19000244140625,66.19000244140625,228000
2020-08-06,66.23999786376953,67.02999877929688,63.119998931884766,63.41999816894531,63.41999816894531,477200
2020-08-07,63.689998626708984,73.0,63.41899871826172,67.6500015258789,67.6500015258789,1094700
2020-08-10,66.36000061035156,67.80000305175781,60.7400016784668,62.09000015258789,62.09000015258789,890100
2020-08-11,62.0,62.869998931884766,57.65999984741211,59.790000915527344,59.790000915527344,911500
2020-08-12,59.9900016784668,60.31999969482422,58.52000045776367,59.400001525878906,59.400001525878906,517500
2020-08-13,60.5,63.47999954223633,60.5,62.15999984741211,62.15999984741211,624400
2020-08-14,61.86000061035156,62.47999954223633,60.09000015258789,60.88999938964844,60.88999938964844,344700
2020-08-17,60.97999954223633,64.73999786376953,60.83000183105469,64.05000305175781,64.05000305175781,529800
2020-08-18,64.05000305175781,64.55999755859375,61.72999954223633,63.45000076293945,63.45000076293945,324300
2020-08-19,63.650001525878906,64.51000213623047,62.68600082397461,63.86000061035156,63.86000061035156,326100
2020-08-20,63.0099983215332,64.37999725341797,63.0099983215332,63.880001068115234,63.880001068115234,235100
2020-08-21,63.4900016784668,65.22000122070312,62.28499984741211,62.84000015258789,62.84000015258789,428200
2020-08-24,63.13999938964844,63.13999938964844,60.2599983215332,60.599998474121094,60.599998474121094,560000
2020-08-25,60.900001525878906,61.5,59.709999084472656,60.58000183105469,60.58000183105469,322700
2020-08-26,60.5,62.11000061035156,60.279998779296875,60.79999923706055,60.79999923706055,242000
2020-08-27,61.34000015258789,61.5,60.02000045776367,60.91999816894531,60.91999816894531,193000
2020-08-28,60.91999816894531,60.91999816894531,59.56999969482422,60.2599983215332,60.2599983215332,280900
2020-08-31,60.88999938964844,63.91999816894531,60.52000045776367,63.38999938964844,63.38999938964844,620600
2020-09-01,63.13999938964844,63.89500045776367,61.59000015258789,61.79999923706055,61.79999923706055,391900
2020-09-02,61.689998626708984,62.70000076293945,59.36000061035156,62.540000915527344,62.540000915527344,375800
2020-09-03,61.77000045776367,61.83000183105469,58.65999984741211,60.52000045776367,60.52000045776367,375100
2020-09-04,60.63999938964844,63.150001525878906,58.4900016784668,62.349998474121094,62.349998474121094,485400
2020-09-08,60.65999984741211,63.91999816894531,59.56999969482422,62.75,62.75,403000
2020-09-09,63.20000076293945,64.81999969482422,62.209999084472656,62.380001068115234,62.380001068115234,341500
2020-09-10,63.27000045776367,64.53500366210938,61.41999816894531,61.529998779296875,61.529998779296875,380800
2020-09-11,61.70000076293945,62.029998779296875,58.310001373291016,59.040000915527344,59.040000915527344,434900
2020-09-14,60.220001220703125,61.75,60.02000045776367,60.849998474121094,60.849998474121094,645500
2020-09-15,63.20000076293945,65.19999694824219,62.02000045776367,63.040000915527344,63.040000915527344,512500
2020-09-16,63.45000076293945,64.12999725341797,62.209999084472656,62.86000061035156,62.86000061035156,308100
2020-09-17,61.970001220703125,63.45000076293945,61.38999938964844,62.849998474121094,62.849998474121094,197600
2020-09-18,63.66999816894531,64.375,62.31999969482422,63.5099983215332,63.5099983215332,775200
2020-09-21,61.970001220703125,62.005001068115234,59.150001525878906,59.65999984741211,59.65999984741211,471600
2020-09-22,59.709999084472656,62.189998626708984,57.70000076293945,62.0,62.0,651800
2020-09-23,63.25,64.47000122070312,61.650001525878906,63.33000183105469,63.33000183105469,1084400
2020-09-24,62.65999984741211,63.29999923706055,60.20000076293945,62.25,62.25,876900
2020-09-25,61.849998474121094,63.560001373291016,60.849998474121094,62.689998626708984,62.689998626708984,588900
2020-09-28,63.209999084472656,63.97999954223633,61.95000076293945,62.27000045776367,62.27000045776367,371400
2020-09-29,62.06999969482422,63.939998626708984,61.5,63.15999984741211,63.15999984741211,343400
2020-09-30,63.72999954223633,65.19000244140625,62.86000061035156,65.01000213623047,65.01000213623047,543000
2020-10-01,65.41000366210938,66.5,64.49500274658203,65.87999725341797,65.87999725341797,440600
2020-10-02,64.19999694824219,66.13500213623047,64.05000305175781,65.06999969482422,65.06999969482422,363500
2020-10-05,65.7300033569336,69.2300033569336,65.7300033569336,68.83999633789062,68.83999633789062,402800
2020-10-06,69.30999755859375,71.23999786376953,68.87000274658203,69.33999633789062,69.33999633789062,496400
2020-10-07,70.18000030517578,74.47000122070312,70.18000030517578,73.94999694824219,73.94999694824219,615000
2020-10-08,74.98999786376953,78.0,74.23999786376953,77.30999755859375,77.30999755859375,697300
2020-10-09,77.18000030517578,78.44999694824219,76.25,77.9800033569336,77.9800033569336,524500
2020-10-12,78.76000213623047,79.08000183105469,77.2699966430664,78.2300033569336,78.2300033569336,837400
2020-10-13,77.05999755859375,78.90499877929688,76.75,77.5199966430664,77.5199966430664,335800
2020-10-14,77.20999908447266,78.15499877929688,76.20999908447266,76.88999938964844,76.88999938964844,317200
2020-10-15,75.36000061035156,77.22799682617188,74.25,77.0,77.0,427400
2020-10-16,76.8499984741211,79.11000061035156,76.8499984741211,77.93000030517578,77.93000030517578,371200
2020-10-19,78.6500015258789,79.44000244140625,77.22000122070312,77.48999786376953,77.48999786376953,337800
2020-10-20,77.98999786376953,78.66999816894531,76.29000091552734,77.16999816894531,77.16999816894531,518900
2020-10-21,77.08999633789062,78.30000305175781,76.44200134277344,77.62000274658203,77.62000274658203,382900
2020-10-22,77.44000244140625,79.94000244140625,77.0999984741211,79.7699966430664,79.7699966430664,473700
2020-10-23,79.98999786376953,80.0,78.24700164794922,78.9800033569336,78.9800033569336,536800
2020-10-26,77.58000183105469,78.30000305175781,76.58999633789062,77.45999908447266,77.45999908447266,499800
2020-10-27,77.77999877929688,79.44000244140625,77.08999633789062,79.05000305175781,79.05000305175781,388400
2020-10-28,77.70999908447266,78.80000305175781,76.69999694824219,77.58000183105469,77.58000183105469,415500
2020-10-29,77.41999816894531,78.5999984741211,75.73999786376953,78.47000122070312,78.47000122070312,476400
2020-10-30,78.66000366210938,78.88999938964844,76.68000030517578,77.45999908447266,77.45999908447266,514200
2020-11-02,77.81999969482422,78.26000213623047,75.54000091552734,77.33000183105469,77.33000183105469,631600
2020-11-03,77.98999786376953,81.45999908447266,77.70999908447266,80.66999816894531,80.66999816894531,474800
2020-11-04,80.76000213623047,89.16999816894531,80.59500122070312,88.63999938964844,88.63999938964844,984600
2020-11-05,89.06999969482422,89.45999908447266,87.04000091552734,87.8499984741211,87.8499984741211,494400
2020-11-06,87.36000061035156,87.91000366210938,83.51000213623047,84.30999755859375,84.30999755859375,772900
2020-11-09,83.5,83.5,78.43000030517578,81.20999908447266,81.20999908447266,1162900
2020-11-10,81.6500015258789,86.47000122070312,79.7750015258789,86.44000244140625,86.44000244140625,806900
2020-11-11,87.5,94.86000061035156,86.68000030517578,92.9800033569336,92.9800033569336,1237300
2020-11-12,93.30999755859375,95.93000030517578,92.19000244140625,92.91999816894531,92.91999816894531,676600
2020-11-13,94.80000305175781,97.13999938964844,93.05000305175781,94.51000213623047,94.51000213623047,639300
2020-11-16,96.87999725341797,97.0,93.0999984741211,96.19000244140625,96.19000244140625,549500
2020-11-17,95.69999694824219,98.31999969482422,94.29000091552734,96.58000183105469,96.58000183105469,435300
2020-11-18,97.27999877929688,100.7699966430664,97.17500305175781,98.23999786376953,98.23999786376953,1420500
2020-11-19,98.94000244140625,99.22000122070312,94.86000061035156,96.76000213623047,96.76000213623047,707800
2020-11-20,95.97000122070312,99.58000183105469,95.97000122070312,98.13999938964844,98.13999938964844,831500
2020-11-23,98.55000305175781,98.86499786376953,87.68000030517578,88.4800033569336,88.4800033569336,1131600
2020-11-24,90.97000122070312,91.66999816894531,88.16999816894531,90.13999938964844,90.13999938964844,566500
2020-11-25,89.86000061035156,92.61000061035156,89.19000244140625,89.62000274658203,89.62000274658203,656600
2020-11-27,90.33000183105469,92.32499694824219,90.33000183105469,91.36000061035156,91.36000061035156,220000
2020-11-30,91.55999755859375,91.98999786376953,86.5199966430664,88.94999694824219,88.94999694824219,512900
2020-12-01,89.58000183105469,89.58000183105469,86.11000061035156,86.68000030517578,86.68000030517578,934300
2020-12-02,85.94000244140625,89.12999725341797,85.3499984741211,88.02999877929688,88.02999877929688,578100
2020-12-03,88.08999633789062,88.7699966430664,85.87999725341797,87.02999877929688,87.02999877929688,395400
2020-12-04,87.02999877929688,89.4800033569336,86.33999633789062,88.36000061035156,88.36000061035156,356900
2020-12-07,90.06999969482422,92.83000183105469,89.63999938964844,90.2300033569336,90.2300033569336,580800
2020-12-08,89.41999816894531,91.16000366210938,87.80000305175781,90.16999816894531,90.16999816894531,562100
2020-12-09,90.7699966430664,91.08999633789062,86.58999633789062,86.94000244140625,86.94000244140625,372500
2020-12-10,86.52999877929688,88.9800033569336,86.33999633789062,87.77999877929688,87.77999877929688,360600
2020-12-11,87.47000122070312,89.31999969482422,86.06999969482422,87.27999877929688,87.27999877929688,284800
2020-12-14,88.68000030517578,91.5,86.44999694824219,86.98999786376953,86.98999786376953,517900
2020-12-15,89.3499984741211,89.3499984741211,87.7699966430664,88.66000366210938,88.66000366210938,379800
2020-12-16,89.9000015258789,90.97000122070312,88.01000213623047,89.6500015258789,89.6500015258789,422500
2020-12-17,89.19000244140625,93.0,88.2300033569336,92.75,92.75,391000
2020-12-18,92.13999938964844,92.69000244140625,89.87999725341797,91.69999694824219,91.69999694824219,906000
2020-12-21,90.12999725341797,95.0,89.19999694824219,93.77999877929688,93.77999877929688,543700
2020-12-22,94.04000091552734,94.69000244140625,91.25299835205078,91.61000061035156,91.61000061035156,322300
2020-12-23,91.6500015258789,91.98999786376953,89.3499984741211,91.2300033569336,91.2300033569336,237000
2020-12-24,92.23999786376953,93.69000244140625,89.70999908447266,90.2699966430664,90.2699966430664,193500
2020-12-28,90.5,90.5,87.30000305175781,87.56999969482422,87.56999969482422,298300
2020-12-29,88.54000091552734,89.4800033569336,85.16000366210938,86.43000030517578,86.43000030517578,305700
2020-12-30,87.16000366210938,87.80000305175781,85.08000183105469,86.13999938964844,86.13999938964844,287600
