Date,Open,High,Low,Close,Adj Close,Volume
2019-12-12,37.25,37.75,34.599998474121094,35.5,35.5,9506100
2019-12-13,36.0,38.97999954223633,35.630001068115234,38.97999954223633,38.97999954223633,1615700
2019-12-16,39.369998931884766,40.22999954223633,36.150001525878906,36.380001068115234,36.380001068115234,1229000
2019-12-17,37.2599983215332,37.9900016784668,36.529998779296875,37.0,37.0,796500
2019-12-18,37.27000045776367,38.5,36.79999923706055,38.040000915527344,38.040000915527344,1206000
2019-12-19,38.25,38.25,37.0,38.20000076293945,38.20000076293945,249600
2019-12-20,38.4900016784668,38.5,37.755001068115234,38.13999938964844,38.13999938964844,566900
2019-12-23,38.0,39.75,37.61000061035156,38.7599983215332,38.7599983215332,384500
2019-12-24,38.75,41.380001068115234,38.742000579833984,40.04999923706055,40.04999923706055,326200
2019-12-26,40.13999938964844,41.75,39.0,39.0,39.0,522400
2019-12-27,39.02000045776367,39.040000915527344,37.560001373291016,38.58000183105469,38.58000183105469,317800
2019-12-30,38.459999084472656,38.775001525878906,36.790000915527344,36.93000030517578,36.93000030517578,484300
2019-12-31,37.310001373291016,38.44499969482422,37.0620002746582,38.04999923706055,38.04999923706055,509700
2020-01-02,38.36000061035156,38.70000076293945,36.82099914550781,38.70000076293945,38.70000076293945,851700
2020-01-03,38.54999923706055,38.630001068115234,37.43299865722656,38.0099983215332,38.0099983215332,292600
2020-01-06,37.529998779296875,37.560001373291016,35.58000183105469,37.5099983215332,37.5099983215332,871900
2020-01-07,37.400001525878906,37.400001525878906,36.5,36.52000045776367,36.52000045776367,568200
2020-01-08,36.349998474121094,38.40999984741211,36.29999923706055,37.88999938964844,37.88999938964844,617800
2020-01-09,38.099998474121094,38.88999938964844,37.650001525878906,38.86000061035156,38.86000061035156,369500
2020-01-10,38.97999954223633,39.933998107910156,38.45000076293945,39.4900016784668,39.4900016784668,246400
2020-01-13,39.599998474121094,41.209999084472656,39.599998474121094,41.08000183105469,41.08000183105469,306000
2020-01-14,41.099998474121094,41.689998626708984,40.529998779296875,41.06999969482422,41.06999969482422,310000
2020-01-15,41.0,42.5,39.5,40.099998474121094,40.099998474121094,699100
2020-01-16,40.08000183105469,41.68000030517578,39.77000045776367,41.47999954223633,41.47999954223633,281300
2020-01-17,41.810001373291016,43.86000061035156,41.29999923706055,43.70000076293945,43.70000076293945,547300
2020-01-21,44.310001373291016,44.70000076293945,43.540000915527344,43.81999969482422,43.81999969482422,394700
2020-01-22,43.959999084472656,46.970001220703125,43.849998474121094,46.52000045776367,46.52000045776367,679500
2020-01-23,46.72999954223633,47.36000061035156,45.40999984741211,46.27000045776367,46.27000045776367,758700
2020-01-24,46.5099983215332,47.689998626708984,46.18000030517578,47.22999954223633,47.22999954223633,431400
2020-01-27,46.380001068115234,46.88999938964844,45.63999938964844,46.58000183105469,46.58000183105469,222300
2020-01-28,46.880001068115234,49.61800003051758,46.880001068115234,48.2599983215332,48.2599983215332,334400
2020-01-29,48.709999084472656,49.5,48.380001068115234,48.689998626708984,48.689998626708984,230300
2020-01-30,48.470001220703125,48.970001220703125,47.529998779296875,48.5,48.5,310200
2020-01-31,48.310001373291016,50.97999954223633,48.150001525878906,50.31999969482422,50.31999969482422,411200
2020-02-03,50.5099983215332,51.840999603271484,50.31999969482422,51.45000076293945,51.45000076293945,349500
2020-02-04,51.91999816894531,53.290000915527344,51.91999816894531,52.900001525878906,52.900001525878906,385200
2020-02-05,53.209999084472656,53.209999084472656,46.8849983215332,49.63999938964844,49.63999938964844,861000
2020-02-06,49.90999984741211,50.81800079345703,46.7599983215332,48.5099983215332,48.5099983215332,634500
2020-02-07,56.880001068115234,58.96699905395508,52.79999923706055,55.810001373291016,55.810001373291016,1716100
2020-02-10,55.95000076293945,59.5,55.4900016784668,59.22999954223633,59.22999954223633,613100
2020-02-11,60.88999938964844,61.52000045776367,58.349998474121094,60.650001525878906,60.650001525878906,950200
2020-02-12,61.29999923706055,63.5,61.04999923706055,62.939998626708984,62.939998626708984,551100
2020-02-13,62.119998931884766,64.12000274658203,61.90999984741211,62.130001068115234,62.130001068115234,511200
2020-02-14,61.4900016784668,63.91299819946289,61.0,61.77000045776367,61.77000045776367,498600
2020-02-18,61.65999984741211,63.25,59.33000183105469,59.33000183105469,59.33000183105469,553300
2020-02-19,59.77000045776367,63.619998931884766,59.11000061035156,62.779998779296875,62.779998779296875,421700
2020-02-20,63.130001068115234,63.5099983215332,58.540000915527344,60.11000061035156,60.11000061035156,411900
2020-02-21,59.93000030517578,59.95100021362305,55.810001373291016,56.279998779296875,56.279998779296875,487500
2020-02-24,53.25,55.779998779296875,52.9900016784668,55.2400016784668,55.2400016784668,457800
2020-02-25,56.13999938964844,56.68000030517578,53.54999923706055,55.22999954223633,55.22999954223633,554200
2020-02-26,55.31999969482422,58.599998474121094,55.0,56.880001068115234,56.880001068115234,434600
2020-02-27,54.880001068115234,56.849998474121094,53.0,53.41999816894531,53.41999816894531,557500
2020-02-28,52.099998474121094,57.04999923706055,50.400001525878906,56.7599983215332,56.7599983215332,978600
2020-03-02,57.439998626708984,60.959999084472656,54.95000076293945,60.5,60.5,699100
2020-03-03,60.52000045776367,61.36000061035156,56.65999984741211,58.68000030517578,58.68000030517578,767700
2020-03-04,59.2599983215332,60.47999954223633,58.0,58.7599983215332,58.7599983215332,288100
2020-03-05,57.33000183105469,62.869998931884766,56.63999938964844,58.45000076293945,58.45000076293945,645900
2020-03-06,56.630001068115234,57.970001220703125,52.099998474121094,53.630001068115234,53.630001068115234,585100
2020-03-09,49.36000061035156,49.36000061035156,44.6150016784668,44.720001220703125,44.720001220703125,1089900
2020-03-10,47.130001068115234,48.709999084472656,44.72999954223633,48.040000915527344,48.040000915527344,650600
2020-03-11,47.459999084472656,48.150001525878906,44.61000061035156,45.04999923706055,45.04999923706055,568900
2020-03-12,42.31999969482422,44.0,38.0,40.119998931884766,40.119998931884766,970300
2020-03-13,43.209999084472656,45.0,39.36000061035156,39.95000076293945,39.95000076293945,1134800
2020-03-16,35.849998474121094,40.0,32.459999084472656,36.25,36.25,1221300
2020-03-17,36.83000183105469,37.025001525878906,32.5,33.63999938964844,33.63999938964844,818200
2020-03-18,32.63999938964844,33.5,23.610000610351562,29.209999084472656,29.209999084472656,1386100
2020-03-19,27.5,38.0,27.399999618530273,35.689998626708984,35.689998626708984,1692800
2020-03-20,38.0,41.11000061035156,36.7599983215332,37.779998779296875,37.779998779296875,1696400
2020-03-23,37.2400016784668,38.4379997253418,34.40999984741211,37.290000915527344,37.290000915527344,1307600
2020-03-24,38.290000915527344,41.7400016784668,38.290000915527344,41.36000061035156,41.36000061035156,520400
2020-03-25,40.20000076293945,42.97999954223633,37.20000076293945,41.11000061035156,41.11000061035156,786700
2020-03-26,40.79999923706055,45.959999084472656,38.53300094604492,41.22999954223633,41.22999954223633,1316600
2020-03-27,39.38999938964844,40.20000076293945,37.75,38.79999923706055,38.79999923706055,1724700
2020-03-30,38.849998474121094,38.939998626708984,36.11199951171875,37.52000045776367,37.52000045776367,1803000
2020-03-31,37.779998779296875,37.779998779296875,32.72999954223633,34.20000076293945,34.20000076293945,1550600
2020-04-01,32.130001068115234,33.75,30.690000534057617,31.75,31.75,2003700
2020-04-02,30.940000534057617,32.40999984741211,29.43000030517578,30.229999542236328,30.229999542236328,538800
2020-04-03,29.81999969482422,31.690000534057617,27.530000686645508,31.049999237060547,31.049999237060547,1222300
2020-04-06,32.4900016784668,39.0,31.850000381469727,38.29999923706055,38.29999923706055,1870500
2020-04-07,40.2400016784668,42.69200134277344,37.630001068115234,38.9900016784668,38.9900016784668,862700
2020-04-08,39.40999984741211,45.0,38.810001373291016,44.27000045776367,44.27000045776367,876900
2020-04-09,44.810001373291016,49.869998931884766,40.189998626708984,42.34000015258789,42.34000015258789,1467000
2020-04-13,42.59000015258789,42.7400016784668,40.2599983215332,40.2599983215332,40.2599983215332,489900
2020-04-14,41.65999984741211,45.880001068115234,41.349998474121094,42.13999938964844,42.13999938964844,682300
2020-04-15,40.5,41.784000396728516,38.79999923706055,39.029998779296875,39.029998779296875,540800
2020-04-16,40.0,40.95000076293945,37.90999984741211,37.9900016784668,37.9900016784668,451500
2020-04-17,40.380001068115234,43.650001525878906,39.5099983215332,42.029998779296875,42.029998779296875,902700
2020-04-20,40.04999923706055,47.59000015258789,40.0,46.290000915527344,46.290000915527344,897400
2020-04-21,45.88999938964844,48.70000076293945,42.77000045776367,45.220001220703125,45.220001220703125,659600
2020-04-22,45.2400016784668,49.63999938964844,45.2400016784668,47.70000076293945,47.70000076293945,707600
2020-04-23,47.5099983215332,48.9900016784668,45.5099983215332,46.68000030517578,46.68000030517578,385800
2020-04-24,46.06999969482422,50.77000045776367,45.68000030517578,48.7400016784668,48.7400016784668,654600
2020-04-27,51.47999954223633,54.16600036621094,49.47100067138672,52.81999969482422,52.81999969482422,737800
2020-04-28,54.720001220703125,56.0,52.060001373291016,55.41999816894531,55.41999816894531,699200
2020-04-29,57.0099983215332,61.97999954223633,57.0,60.29999923706055,60.29999923706055,936700
2020-04-30,59.06999969482422,60.2599983215332,56.400001525878906,58.88999938964844,58.88999938964844,1203500
2020-05-01,55.08000183105469,57.08000183105469,54.334999084472656,55.72999954223633,55.72999954223633,701200
2020-05-04,53.290000915527344,56.65999984741211,53.290000915527344,55.13999938964844,55.13999938964844,525900
2020-05-05,58.75,63.439998626708984,56.099998474121094,62.220001220703125,62.220001220703125,821100
2020-05-06,62.220001220703125,66.0,61.310001373291016,65.9000015258789,65.9000015258789,697200
2020-05-07,68.5,75.70999908447266,66.18499755859375,73.22000122070312,73.22000122070312,1490700
2020-05-08,67.2699966430664,97.83999633789062,67.0,83.62000274658203,83.62000274658203,2484300
2020-05-11,84.0,84.0,79.0,79.20999908447266,79.20999908447266,1018700
2020-05-12,80.80999755859375,87.57499694824219,78.58999633789062,78.91000366210938,78.91000366210938,943500
2020-05-13,78.45999908447266,80.94000244140625,75.0999984741211,75.5,75.5,708800
2020-05-14,74.01000213623047,79.98999786376953,72.05000305175781,79.58000183105469,79.58000183105469,594200
2020-05-15,78.58999633789062,83.33999633789062,77.01000213623047,77.2699966430664,77.2699966430664,653900
2020-05-18,79.94999694824219,80.26000213623047,75.0,76.12000274658203,76.12000274658203,790800
2020-05-19,75.76000213623047,79.6500015258789,74.20999908447266,78.5,78.5,614600
2020-05-20,80.48999786376953,81.0,74.51000213623047,74.98999786376953,74.98999786376953,658900
2020-05-21,74.20999908447266,74.5,69.5999984741211,70.66999816894531,70.66999816894531,1274700
2020-05-22,70.68000030517578,70.95999908447266,65.41000366210938,66.56999969482422,66.56999969482422,1642700
2020-05-26,66.9000015258789,66.9000015258789,63.56999969482422,64.37000274658203,64.37000274658203,5442900
2020-05-27,63.75,65.41000366210938,61.75,64.25,64.25,6597500
2020-05-28,65.9000015258789,71.25,64.4000015258789,69.37000274658203,69.37000274658203,4760600
2020-05-29,69.0,70.16300201416016,66.19000244140625,69.63999938964844,69.63999938964844,2122700
2020-06-01,69.5,73.23999786376953,67.19999694824219,72.52999877929688,72.52999877929688,2302500
2020-06-02,72.52999877929688,73.25499725341797,69.0199966430664,70.45999908447266,70.45999908447266,1362300
2020-06-03,70.45999908447266,73.9800033569336,69.5,72.86000061035156,72.86000061035156,1716200
2020-06-04,71.30000305175781,72.28500366210938,68.02999877929688,70.36000061035156,70.36000061035156,1575800
2020-06-05,70.0,71.0,66.37799835205078,70.16000366210938,70.16000366210938,1489500
2020-06-08,68.83000183105469,70.31300354003906,67.30999755859375,67.9000015258789,67.9000015258789,1117900
2020-06-09,67.0,71.2300033569336,66.06999969482422,70.3499984741211,70.3499984741211,1894000
2020-06-10,72.0,75.43000030517578,68.68000030517578,75.0,75.0,3052500
2020-06-11,74.25,76.92500305175781,70.33999633789062,72.30999755859375,72.30999755859375,5902700
2020-06-12,73.77999877929688,78.5,70.75,78.3499984741211,78.3499984741211,5186800
2020-06-15,75.94000244140625,80.94999694824219,75.0,78.12000274658203,78.12000274658203,2341700
2020-06-16,79.04000091552734,79.94999694824219,75.16999816894531,76.56999969482422,76.56999969482422,1715100
2020-06-17,76.9800033569336,79.48999786376953,75.97000122070312,75.98999786376953,75.98999786376953,1500500
2020-06-18,77.87000274658203,83.69999694824219,76.95500183105469,81.86000061035156,81.86000061035156,2731500
2020-06-19,82.83999633789062,83.4000015258789,80.01000213623047,81.9000015258789,81.9000015258789,2057000
2020-06-22,79.5,85.69000244140625,79.45999908447266,84.48999786376953,84.48999786376953,1688800
2020-06-23,84.6500015258789,88.75,81.2300033569336,81.33999633789062,81.33999633789062,1732200
2020-06-24,79.20999908447266,83.87000274658203,78.2699966430664,80.88999938964844,80.88999938964844,1300700
2020-06-25,81.58999633789062,84.94999694824219,79.87999725341797,84.4800033569336,84.4800033569336,1027600
2020-06-26,85.61000061035156,89.94000244140625,83.45999908447266,89.73999786376953,89.73999786376953,2737200
2020-06-29,90.0,91.37000274658203,85.5,89.76000213623047,89.76000213623047,2216700
2020-06-30,89.0,91.12999725341797,87.87999725341797,90.20999908447266,90.20999908447266,1774400
2020-07-01,90.19000244140625,93.0,88.56500244140625,89.91000366210938,89.91000366210938,1475500
2020-07-02,90.51000213623047,91.06500244140625,88.4000015258789,88.4000015258789,88.4000015258789,879900
2020-07-06,90.0,92.0999984741211,87.55999755859375,88.58000183105469,88.58000183105469,1101000
2020-07-07,88.0,89.4800033569336,84.12999725341797,85.63999938964844,85.63999938964844,1548400
2020-07-08,86.80999755859375,91.0,86.75,90.45999908447266,90.45999908447266,798900
2020-07-09,91.0,94.11000061035156,89.66999816894531,91.66999816894531,91.66999816894531,805200
2020-07-10,91.77999877929688,94.79000091552734,87.25,89.5999984741211,89.5999984741211,1230700
2020-07-13,90.0,91.05999755859375,81.2699966430664,83.0999984741211,83.0999984741211,1334300
2020-07-14,82.30000305175781,84.4000015258789,77.80999755859375,82.91999816894531,82.91999816894531,1537800
2020-07-15,83.37999725341797,84.26000213623047,81.73999786376953,82.91000366210938,82.91000366210938,677500
2020-07-16,81.73999786376953,82.1500015258789,77.87000274658203,81.5199966430664,81.5199966430664,954600
2020-07-17,81.98999786376953,83.66999816894531,80.37000274658203,82.9000015258789,82.9000015258789,458900
2020-07-20,82.1500015258789,90.18000030517578,82.1500015258789,88.76000213623047,88.76000213623047,849100
2020-07-21,89.05999755859375,89.75,85.01000213623047,86.47000122070312,86.47000122070312,512700
2020-07-22,87.04000091552734,88.052001953125,84.69000244140625,85.37999725341797,85.37999725341797,543900
2020-07-23,85.0,87.79000091552734,80.75,83.30000305175781,83.30000305175781,821200
2020-07-24,81.69999694824219,86.23999786376953,80.83999633789062,82.31999969482422,82.31999969482422,717100
2020-07-27,82.69999694824219,83.31999969482422,80.50399780273438,82.88999938964844,82.88999938964844,484300
2020-07-28,83.33999633789062,85.58999633789062,81.61000061035156,85.0999984741211,85.0999984741211,718200
2020-07-29,88.0,92.30999755859375,86.08999633789062,91.4000015258789,91.4000015258789,967200
2020-07-30,89.97000122070312,92.94999694824219,88.16999816894531,92.06999969482422,92.06999969482422,426400
2020-07-31,93.73999786376953,93.86599731445312,90.58000183105469,93.11000061035156,93.11000061035156,490900
2020-08-03,94.1500015258789,97.27999877929688,92.44999694824219,96.81999969482422,96.81999969482422,857900
2020-08-04,97.2699966430664,104.79000091552734,94.11000061035156,94.75,94.75,2910300
2020-08-05,95.23999786376953,102.62999725341797,94.98999786376953,100.97000122070312,100.97000122070312,1183000
2020-08-06,100.51000213623047,102.94000244140625,97.92500305175781,101.1500015258789,101.1500015258789,573600
2020-08-07,99.9000015258789,100.45999908447266,93.29000091552734,94.48999786376953,94.48999786376953,1555500
2020-08-10,98.97000122070312,98.97000122070312,85.72000122070312,87.5999984741211,87.5999984741211,1847600
2020-08-11,86.16999816894531,87.86000061035156,83.12100219726562,84.2699966430664,84.2699966430664,1227900
2020-08-12,84.5,87.12000274658203,84.30999755859375,85.83000183105469,85.83000183105469,993600
2020-08-13,86.52999877929688,89.45999908447266,85.58000183105469,85.63999938964844,85.63999938964844,779100
2020-08-14,86.54000091552734,88.43000030517578,84.1500015258789,86.47000122070312,86.47000122070312,901700
2020-08-17,87.63999938964844,94.98999786376953,86.58000183105469,94.25,94.25,1086500
2020-08-18,95.05999755859375,95.05999755859375,91.8499984741211,93.91000366210938,93.91000366210938,483800
2020-08-19,94.48999786376953,97.93000030517578,92.62999725341797,95.69000244140625,95.69000244140625,943300
2020-08-20,95.08000183105469,98.02400207519531,95.08000183105469,97.18000030517578,97.18000030517578,448900
2020-08-21,96.47000122070312,97.48999786376953,94.37999725341797,96.70999908447266,96.70999908447266,896100
2020-08-24,98.05999755859375,98.2300033569336,91.58000183105469,93.61000061035156,93.61000061035156,1099700
2020-08-25,93.0,97.03199768066406,90.30000305175781,96.7699966430664,96.7699966430664,1497400
2020-08-26,98.87999725341797,104.43499755859375,97.16000366210938,103.0,103.0,1360000
2020-08-27,103.0,107.41000366210938,101.9800033569336,106.05999755859375,106.05999755859375,1570100
2020-08-28,103.5,106.58000183105469,98.19000244140625,100.30999755859375,100.30999755859375,3086100
2020-08-31,97.94999694824219,99.44000244140625,97.00499725341797,98.9800033569336,98.9800033569336,3712300
2020-09-01,97.0,100.0,96.7750015258789,98.33000183105469,98.33000183105469,4398200
2020-09-02,101.9800033569336,101.9800033569336,96.55000305175781,100.04000091552734,100.04000091552734,5475100
2020-09-03,97.11000061035156,97.88999938964844,88.73999786376953,90.12999725341797,90.12999725341797,3584500
2020-09-04,89.52999877929688,90.6050033569336,82.61000061035156,87.05000305175781,87.05000305175781,2445900
2020-09-08,83.0,87.48999786376953,82.20500183105469,84.0199966430664,84.0199966430664,1725000
2020-09-09,86.05000305175781,89.02999877929688,85.30000305175781,88.30999755859375,88.30999755859375,1530700
2020-09-10,89.06999969482422,95.16000366210938,89.01000213623047,91.30000305175781,91.30000305175781,2383900
2020-09-11,91.51000213623047,91.70500183105469,86.91000366210938,89.70999908447266,89.70999908447266,1944400
2020-09-14,90.51000213623047,91.55000305175781,86.69999694824219,88.7699966430664,88.7699966430664,1195800
2020-09-15,89.7300033569336,90.4000015258789,85.94000244140625,87.08000183105469,87.08000183105469,1450000
2020-09-16,87.98999786376953,90.83999633789062,84.66999816894531,84.66999816894531,84.66999816894531,1261700
2020-09-17,83.18000030517578,85.13999938964844,82.19000244140625,84.11000061035156,84.11000061035156,1295400
2020-09-18,84.91999816894531,87.25,83.66999816894531,87.04000091552734,87.04000091552734,5416600
2020-09-21,84.86000061035156,88.4000015258789,84.7300033569336,88.3499984741211,88.3499984741211,2861000
2020-09-22,89.06999969482422,92.12000274658203,87.70999908447266,91.6500015258789,91.6500015258789,1568700
2020-09-23,92.0,93.93000030517578,90.2300033569336,92.30000305175781,92.30000305175781,2064900
2020-09-24,91.05000305175781,95.0,88.5199966430664,93.80000305175781,93.80000305175781,2602500
2020-09-25,93.7699966430664,95.3499984741211,90.63600158691406,95.18000030517578,95.18000030517578,965400
2020-09-28,96.04000091552734,98.0999984741211,95.0199966430664,97.54000091552734,97.54000091552734,1309200
2020-09-29,97.83999633789062,102.63999938964844,96.83000183105469,101.63999938964844,101.63999938964844,2643500
2020-09-30,101.36000061035156,103.37999725341797,99.20999908447266,100.30999755859375,100.30999755859375,1050500
2020-10-01,101.75,102.9800033569336,99.5,101.63999938964844,101.63999938964844,1477000
2020-10-02,99.13999938964844,102.16999816894531,97.72000122070312,101.08999633789062,101.08999633789062,758700
2020-10-05,101.94000244140625,102.98999786376953,100.75,101.83999633789062,101.83999633789062,719800
2020-10-06,105.56999969482422,106.43000030517578,102.0,103.61000061035156,103.61000061035156,1600500
2020-10-07,104.58000183105469,110.29000091552734,104.23999786376953,109.7300033569336,109.7300033569336,1468700
2020-10-08,111.0,111.41000366210938,107.19999694824219,110.44000244140625,110.44000244140625,940300
2020-10-09,111.05000305175781,114.33499908447266,110.68499755859375,113.70999908447266,113.70999908447266,585100
2020-10-12,115.12000274658203,117.25,112.62000274658203,115.33999633789062,115.33999633789062,824500
2020-10-13,115.4800033569336,120.0,115.30000305175781,119.77999877929688,119.77999877929688,814000
2020-10-14,120.0,120.7699966430664,117.33000183105469,119.83000183105469,119.83000183105469,645500
2020-10-15,116.80999755859375,118.97000122070312,115.02999877929688,116.44000244140625,116.44000244140625,615700
2020-10-16,117.97000122070312,120.13999938964844,115.95999908447266,116.05999755859375,116.05999755859375,387200
2020-10-19,116.44000244140625,119.19999694824219,115.56999969482422,115.94000244140625,115.94000244140625,363600
2020-10-20,116.0199966430664,117.4000015258789,112.55000305175781,112.86000061035156,112.86000061035156,600600
2020-10-21,113.7699966430664,116.79000091552734,111.5199966430664,111.98999786376953,111.98999786376953,701300
2020-10-22,112.73999786376953,114.04000091552734,108.5,109.80999755859375,109.80999755859375,582300
2020-10-23,109.95999908447266,110.45500183105469,107.70999908447266,109.19999694824219,109.19999694824219,392700
2020-10-26,108.44999694824219,111.18000030517578,104.16000366210938,107.69999694824219,107.69999694824219,661100
2020-10-27,109.3499984741211,111.33999633789062,107.73999786376953,111.2300033569336,111.2300033569336,427700
2020-10-28,109.41000366210938,110.34500122070312,106.05000305175781,108.68000030517578,108.68000030517578,632600
2020-10-29,109.61000061035156,109.97000122070312,105.31999969482422,105.5999984741211,105.5999984741211,527300
2020-10-30,105.0,106.79000091552734,99.66000366210938,100.0,100.0,1248300
2020-11-02,101.4000015258789,101.7300033569336,94.86000061035156,96.72000122070312,96.72000122070312,1329900
2020-11-03,97.80000305175781,100.45999908447266,96.9000015258789,99.73999786376953,99.73999786376953,665000
2020-11-04,101.5199966430664,111.83999633789062,101.36000061035156,108.7699966430664,108.7699966430664,1147000
2020-11-05,112.0,113.20999908447266,109.04000091552734,110.87999725341797,110.87999725341797,950300
2020-11-06,105.87999725341797,109.25,101.0,102.0999984741211,102.0999984741211,1952400
2020-11-09,99.01000213623047,99.33000183105469,90.83000183105469,97.3499984741211,97.3499984741211,3114200
2020-11-10,95.0199966430664,96.53500366210938,89.19000244140625,95.5,95.5,2042900
2020-11-11,95.56999969482422,96.16999816894531,93.8499984741211,95.69999694824219,95.69999694824219,930200
2020-11-12,95.37000274658203,99.44999694824219,94.68000030517578,95.7699966430664,95.7699966430664,922400
2020-11-13,97.0,98.41000366210938,94.20999908447266,95.23999786376953,95.23999786376953,771300
2020-11-16,95.0,97.47000122070312,93.0,96.45999908447266,96.45999908447266,615200
2020-11-17,97.87999725341797,99.83999633789062,96.49800109863281,98.80000305175781,98.80000305175781,1168500
2020-11-18,100.0,103.94000244140625,98.83000183105469,102.27999877929688,102.27999877929688,870400
2020-11-19,102.83000183105469,106.94999694824219,100.32499694824219,106.29000091552734,106.29000091552734,784800
2020-11-20,106.3499984741211,109.97000122070312,105.37000274658203,109.30000305175781,109.30000305175781,885000
2020-11-23,110.0999984741211,116.08999633789062,108.76000213623047,114.97000122070312,114.97000122070312,1580300
2020-11-24,109.45999908447266,115.19999694824219,108.95999908447266,109.06999969482422,109.06999969482422,3184000
2020-11-25,109.4800033569336,115.19999694824219,108.5199966430664,114.02999877929688,114.02999877929688,2702700
2020-11-27,115.45999908447266,119.48999786376953,113.80999755859375,118.9800033569336,118.9800033569336,709900
2020-11-30,119.5,123.48799896240234,116.31999969482422,122.70999908447266,122.70999908447266,1695500
2020-12-01,120.41999816894531,124.5,119.98999786376953,123.83999633789062,123.83999633789062,1315600
2020-12-02,121.88999938964844,122.88999938964844,117.12999725341797,117.69999694824219,117.69999694824219,1085300
2020-12-03,117.44999694824219,121.23999786376953,117.25,118.95999908447266,118.95999908447266,734500
2020-12-04,121.88999938964844,129.91000366210938,121.44000244140625,126.2300033569336,126.2300033569336,2139900
2020-12-07,127.93000030517578,130.52000427246094,127.43000030517578,129.92999267578125,129.92999267578125,1276500
2020-12-08,130.0,132.08999633789062,129.00999450683594,131.55999755859375,131.55999755859375,1421900
2020-12-09,131.91000366210938,137.66000366210938,130.35000610351562,132.0,132.0,1693700
2020-12-10,130.5500030517578,137.24000549316406,129.08999633789062,137.11000061035156,137.11000061035156,1270200
2020-12-11,137.80999755859375,145.97000122070312,137.33999633789062,143.42999267578125,143.42999267578125,2392100
2020-12-14,143.4499969482422,145.49000549316406,140.10000610351562,143.0,143.0,1726800
2020-12-15,143.00999450683594,145.1699981689453,139.7449951171875,140.50999450683594,140.50999450683594,1399300
2020-12-16,141.1300048828125,143.08999633789062,138.16000366210938,142.67999267578125,142.67999267578125,1326000
2020-12-17,143.08999633789062,147.7899932861328,142.7899932861328,145.94000244140625,145.94000244140625,1373300
2020-12-18,148.44000244140625,149.24000549316406,145.05999755859375,148.0800018310547,148.0800018310547,2637300
2020-12-21,144.6300048828125,148.69000244140625,142.6999969482422,148.0399932861328,148.0399932861328,1103600
2020-12-22,149.22000122070312,154.02999877929688,148.1999969482422,153.8000030517578,153.8000030517578,1117800
2020-12-23,153.0,153.25999450683594,148.14599609375,149.49000549316406,149.49000549316406,866300
2020-12-24,151.0500030517578,151.52000427246094,147.14999389648438,148.38999938964844,148.38999938964844,532400
2020-12-28,149.14999389648438,149.67999267578125,140.25,141.0,141.0,891300
2020-12-29,142.97000122070312,142.97000122070312,136.7899932861328,138.64999389648438,138.64999389648438,848800
2020-12-30,138.39999389648438,139.50999450683594,137.1199951171875,137.25,137.25,626900
