Date,Open,High,Low,Close,Adj Close,Volume
2020-03-31,38.630001068115234,42.630001068115234,32.540000915527344,32.540000915527344,30.699949264526367,104600
2020-04-01,35.790000915527344,35.790000915527344,34.0,34.20000076293945,32.26608657836914,287400
2020-04-02,34.29999923706055,37.689998626708984,34.20000076293945,36.59000015258789,34.52092742919922,310600
2020-04-03,36.59000015258789,36.849998474121094,34.709999084472656,35.290000915527344,33.29444122314453,433700
2020-04-06,36.06999969482422,37.58000183105469,36.06999969482422,37.060001373291016,34.96436309814453,379600
2020-04-07,38.529998779296875,39.349998474121094,37.20000076293945,38.380001068115234,36.209716796875,325500
2020-04-08,38.119998931884766,40.5099983215332,37.70000076293945,39.380001068115234,37.15316390991211,401900
2020-04-09,39.88999938964844,41.439998626708984,39.5099983215332,40.93000030517578,38.615516662597656,333100
2020-04-13,40.7599983215332,40.7599983215332,38.88399887084961,40.20000076293945,37.926795959472656,260100
2020-04-14,40.29999923706055,40.68000030517578,39.060001373291016,39.939998626708984,37.68149948120117,263700
2020-04-15,39.720001220703125,39.83000183105469,37.29899978637695,37.56999969482422,35.445518493652344,243900
2020-04-16,37.849998474121094,37.970001220703125,37.130001068115234,37.58000183105469,35.454952239990234,259100
2020-04-17,38.88999938964844,40.27000045776367,38.34000015258789,40.27000045776367,37.99283981323242,178200
2020-04-20,39.650001525878906,39.755001068115234,37.75,38.470001220703125,36.29462432861328,195700
2020-04-21,37.810001373291016,38.06999969482422,37.198001861572266,37.630001068115234,35.50212478637695,330000
2020-04-22,37.810001373291016,38.75,37.79999923706055,38.33000183105469,36.16254806518555,160800
2020-04-23,38.65999984741211,38.880001068115234,37.90999984741211,38.08000183105469,35.92667770385742,162300
2020-04-24,37.58000183105469,38.41999816894531,37.5,37.7400016784668,35.60590362548828,394400
2020-04-27,37.7400016784668,39.8650016784668,37.64500045776367,39.66999816894531,37.42676544189453,191900
2020-04-28,39.810001373291016,40.5,39.209999084472656,39.36000061035156,37.134300231933594,205000
2020-04-29,39.599998474121094,42.060001373291016,39.56999969482422,42.04999923706055,39.67218017578125,305500
2020-04-30,41.7400016784668,42.43000030517578,40.86000061035156,41.86000061035156,39.49292755126953,307300
2020-05-01,41.119998931884766,41.5,40.56999969482422,41.40999984741211,39.0683708190918,126400
2020-05-04,41.189998626708984,41.75,40.75,41.66999816894531,39.31366729736328,337100
2020-05-05,41.560001373291016,43.40999984741211,41.560001373291016,42.7599983215332,40.34203338623047,399300
2020-05-06,42.779998779296875,43.0099983215332,40.939998626708984,41.18000030517578,38.851375579833984,67500
2020-05-07,41.310001373291016,42.095001220703125,41.250999450683594,41.47999954223633,39.13441467285156,119800
2020-05-08,42.290000915527344,43.599998474121094,41.832000732421875,43.47999954223633,41.02132034301758,159700
2020-05-11,43.650001525878906,46.90999984741211,42.84000015258789,46.90999984741211,44.257362365722656,197700
2020-05-12,47.41999816894531,47.810001373291016,45.974998474121094,46.0,43.39882278442383,178400
2020-05-13,45.68000030517578,46.0,43.560001373291016,44.060001373291016,41.56852722167969,198100
2020-05-14,43.459999084472656,43.709999084472656,42.470001220703125,43.470001220703125,41.01189422607422,124600
2020-05-15,43.470001220703125,43.970001220703125,42.90999984741211,43.709999084472656,41.23831558227539,96200
2020-05-18,44.93000030517578,45.95000076293945,44.48400115966797,45.38999938964844,42.82331466674805,81600
2020-05-19,45.45000076293945,46.54999923706055,45.130001068115234,45.959999084472656,43.361083984375,120900
2020-05-20,46.470001220703125,46.68000030517578,44.81999969482422,44.88999938964844,42.351593017578125,100700
2020-05-21,44.849998474121094,45.130001068115234,43.595001220703125,43.9900016784668,41.50248718261719,91900
2020-05-22,44.0,44.310001373291016,43.29999923706055,44.099998474121094,41.60626220703125,68600
2020-05-26,44.93000030517578,44.93000030517578,43.56999969482422,43.599998474121094,41.13453674316406,87600
2020-05-27,44.619998931884766,44.650001525878906,43.25,43.70000076293945,41.2288818359375,110600
2020-05-28,43.66999816894531,43.66999816894531,42.5099983215332,43.060001373291016,41.08100128173828,94100
2020-05-29,42.83000183105469,43.86000061035156,42.36000061035156,43.400001525878906,41.4053840637207,283200
2020-06-01,43.04999923706055,44.83000183105469,42.86000061035156,44.58000183105469,42.53114700317383,432600
2020-06-02,45.0,46.54999923706055,44.63999938964844,46.310001373291016,44.181640625,198100
2020-06-03,46.4900016784668,48.130001068115234,46.119998931884766,47.5099983215332,45.32648468017578,319000
2020-06-04,47.650001525878906,49.459999084472656,47.02000045776367,48.02000045776367,45.81304931640625,428900
2020-06-05,48.709999084472656,49.709999084472656,48.63999938964844,49.290000915527344,47.02468490600586,119300
2020-06-08,50.0,51.79999923706055,49.84000015258789,51.279998779296875,48.923221588134766,399400
2020-06-09,51.0,51.130001068115234,49.43000030517578,49.7599983215332,47.473079681396484,319100
2020-06-10,49.7599983215332,50.189998626708984,48.849998474121094,49.41999816894531,47.148704528808594,277900
2020-06-11,48.380001068115234,49.27000045776367,46.83000183105469,46.83000183105469,44.67774200439453,287400
2020-06-12,48.04999923706055,48.869998931884766,47.11000061035156,47.310001373291016,45.13568115234375,311000
2020-06-15,46.61000061035156,48.099998474121094,46.08100128173828,47.84000015258789,45.64132308959961,298100
2020-06-16,49.13999938964844,50.189998626708984,48.400001525878906,49.5,47.22502899169922,372000
2020-06-17,49.470001220703125,49.63999938964844,48.79999923706055,49.61000061035156,47.32997512817383,191000
2020-06-18,49.439998626708984,50.18000030517578,48.90999984741211,50.0,47.70204544067383,262900
2020-06-19,50.54999923706055,51.75,50.18000030517578,50.59000015258789,48.26493453979492,510900
2020-06-22,50.630001068115234,51.290000915527344,50.029998779296875,50.31999969482422,48.00733947753906,398900
2020-06-23,50.869998931884766,51.25,49.88999938964844,50.150001525878906,47.84515380859375,391200
2020-06-24,49.849998474121094,50.459999084472656,49.060001373291016,49.150001525878906,46.89112091064453,366400
2020-06-25,49.150001525878906,49.40999984741211,47.36000061035156,47.84000015258789,45.64132308959961,566500
2020-06-26,47.540000915527344,47.540000915527344,44.27000045776367,44.36000061035156,42.32126235961914,4123700
2020-06-29,44.40999984741211,45.2400016784668,43.709999084472656,44.25,42.2163200378418,453500
2020-06-30,44.43000030517578,45.72999954223633,43.959999084472656,45.540000915527344,43.447025299072266,367500
2020-07-01,45.619998931884766,46.03499984741211,44.709999084472656,44.93000030517578,42.86505889892578,177200
2020-07-02,45.54999923706055,46.02000045776367,44.849998474121094,45.08000183105469,43.0081672668457,256200
2020-07-06,45.29999923706055,45.97999954223633,45.1349983215332,45.84000015258789,43.733238220214844,303200
2020-07-07,45.34000015258789,46.54999923706055,45.25,45.63999938964844,43.54243087768555,178000
2020-07-08,45.5099983215332,45.88999938964844,44.25,44.7400016784668,42.68379592895508,235600
2020-07-09,44.65999984741211,44.849998474121094,43.20000076293945,43.41999816894531,41.42445755004883,375400
2020-07-10,43.22999954223633,43.869998931884766,43.11000061035156,43.38999938964844,41.395835876464844,198100
2020-07-13,43.709999084472656,45.34000015258789,43.6150016784668,44.97999954223633,42.91276931762695,200500
2020-07-14,44.95000076293945,46.43000030517578,44.790000915527344,46.41999816894531,44.286582946777344,210600
2020-07-15,47.209999084472656,47.79999923706055,47.0,47.650001525878906,45.460052490234375,227800
2020-07-16,47.54999923706055,47.630001068115234,46.90999984741211,47.5099983215332,45.32648468017578,123600
2020-07-17,47.13999938964844,48.68000030517578,47.13999938964844,48.5,46.27098846435547,172000
2020-07-20,48.22999954223633,48.790000915527344,47.63999938964844,47.689998626708984,45.49821853637695,128900
2020-07-21,48.25,49.33000183105469,47.75,48.689998626708984,46.45225524902344,167700
2020-07-22,46.790000915527344,47.63999938964844,46.36000061035156,47.18000030517578,45.011653900146484,215700
2020-07-23,47.31999969482422,47.47999954223633,46.869998931884766,47.04999923706055,44.887630462646484,160800
2020-07-24,47.09000015258789,47.09000015258789,46.349998474121094,46.47999954223633,44.34382629394531,168600
2020-07-27,46.529998779296875,46.80500030517578,46.09000015258789,46.63999938964844,44.4964714050293,167100
2020-07-28,46.22999954223633,47.349998474121094,46.209999084472656,46.61000061035156,44.46785354614258,163300
2020-07-29,47.09000015258789,47.09000015258789,45.560001373291016,46.09000015258789,43.971744537353516,186900
2020-07-30,46.54999923706055,46.54999923706055,44.66999816894531,45.369998931884766,43.28483963012695,155700
2020-07-31,45.0,45.65999984741211,44.70000076293945,45.63999938964844,43.54243087768555,172200
2020-08-03,45.849998474121094,46.72999954223633,45.34000015258789,46.72999954223633,44.582332611083984,126800
2020-08-04,46.84000015258789,46.849998474121094,46.130001068115234,46.279998779296875,44.15301513671875,155100
2020-08-05,46.59000015258789,47.79999923706055,46.59000015258789,47.77000045776367,45.57453536987305,208600
2020-08-06,47.66999816894531,48.18000030517578,47.0,47.83000183105469,45.63178634643555,128900
2020-08-07,47.33000183105469,48.2130012512207,47.22999954223633,47.869998931884766,45.66994094848633,171700
2020-08-10,48.189998626708984,49.185001373291016,48.189998626708984,49.060001373291016,46.80525207519531,122400
2020-08-11,49.52000045776367,50.79999923706055,49.38999938964844,50.099998474121094,47.797454833984375,159600
2020-08-12,50.130001068115234,52.08000183105469,50.130001068115234,51.66999816894531,49.2952995300293,184500
2020-08-13,52.0,52.02000045776367,51.09000015258789,51.349998474121094,48.9900016784668,179100
2020-08-14,51.349998474121094,51.349998474121094,50.0099983215332,50.27000045776367,47.95964050292969,185300
2020-08-17,50.59000015258789,50.61000061035156,50.040000915527344,50.060001373291016,47.75929641723633,169500
2020-08-18,50.43000030517578,50.5,49.540000915527344,49.709999084472656,47.42538070678711,121100
2020-08-19,50.0099983215332,51.18000030517578,49.89500045776367,50.79999923706055,48.46527862548828,265700
2020-08-20,50.56999969482422,51.220001220703125,49.70000076293945,51.11000061035156,48.76103591918945,184400
2020-08-21,50.630001068115234,51.709999084472656,50.349998474121094,51.40999984741211,49.04724884033203,146900
2020-08-24,51.9900016784668,53.10499954223633,51.5,52.869998931884766,50.440147399902344,229600
2020-08-25,53.290000915527344,53.40999984741211,50.435001373291016,51.220001220703125,48.86598205566406,192100
2020-08-26,51.220001220703125,51.470001220703125,50.58000183105469,51.22999954223633,48.875518798828125,122200
2020-08-27,51.52000045776367,51.650001525878906,51.01499938964844,51.16999816894531,48.818275451660156,108000
2020-08-28,51.63999938964844,51.63999938964844,50.37200164794922,50.5099983215332,48.649723052978516,78600
2020-08-31,50.470001220703125,50.849998474121094,49.91999816894531,49.91999816894531,48.081451416015625,137700
2020-09-01,49.65999984741211,50.63999938964844,48.84000015258789,50.459999084472656,48.6015625,173300
2020-09-02,50.93000030517578,53.15999984741211,50.720001220703125,52.970001220703125,51.01912307739258,179600
2020-09-03,52.66999816894531,52.90999984741211,51.47999954223633,51.70000076293945,49.7958984375,152300
2020-09-04,51.86000061035156,52.34000015258789,51.189998626708984,51.209999084472656,49.32394027709961,140700
2020-09-08,51.0,51.5099983215332,50.29999923706055,50.849998474121094,48.97719955444336,161400
2020-09-09,50.95000076293945,53.310001373291016,50.91999816894531,52.38999938964844,50.46048355102539,211700
2020-09-10,52.83000183105469,52.83000183105469,51.33000183105469,51.41999816894531,49.52620315551758,188200
2020-09-11,51.43000030517578,53.040000915527344,51.189998626708984,52.599998474121094,50.66274642944336,172100
2020-09-14,52.86000061035156,54.11000061035156,52.86000061035156,53.88999938964844,51.905235290527344,178900
2020-09-15,54.29999923706055,55.88999938964844,54.02000045776367,55.5099983215332,53.465572357177734,168900
2020-09-16,55.79999923706055,56.15999984741211,54.79999923706055,55.09000015258789,53.06104278564453,154800
2020-09-17,55.099998474121094,55.95000076293945,54.59000015258789,55.900001525878906,53.84121322631836,175700
2020-09-18,55.63999938964844,56.689998626708984,55.099998474121094,56.45000076293945,54.37095642089844,397300
2020-09-21,55.189998626708984,55.380001068115234,53.029998779296875,54.0,52.01118850708008,190700
2020-09-22,54.220001220703125,54.58000183105469,53.207000732421875,54.400001525878906,52.396453857421875,85900
2020-09-23,54.65999984741211,54.720001220703125,53.43000030517578,53.65999984741211,51.68370819091797,242300
2020-09-24,53.5,54.16999816894531,52.95000076293945,53.689998626708984,51.71260070800781,88500
2020-09-25,53.91999816894531,55.55699920654297,53.2400016784668,55.16999816894531,53.13809585571289,131900
2020-09-28,55.900001525878906,56.709999084472656,55.619998931884766,56.040000915527344,53.97605514526367,111700
2020-09-29,56.290000915527344,56.29999923706055,55.310001373291016,55.630001068115234,53.581153869628906,118000
2020-09-30,55.91999816894531,56.33000183105469,54.869998931884766,55.38999938964844,53.3499870300293,219800
2020-10-01,55.5099983215332,56.18000030517578,54.93000030517578,55.31999969482422,53.282569885253906,189300
2020-10-02,54.779998779296875,55.349998474121094,54.5,55.04999923706055,53.02251434326172,100500
2020-10-05,55.56999969482422,56.689998626708984,54.915000915527344,56.529998779296875,54.4480094909668,165500
2020-10-06,57.06999969482422,57.2400016784668,56.06999969482422,56.560001373291016,54.476905822753906,184000
2020-10-07,56.88999938964844,59.185001373291016,56.75,57.83000183105469,55.70012664794922,252200
2020-10-08,58.5,58.779998779296875,56.560001373291016,56.959999084472656,54.86216735839844,233100
2020-10-09,56.959999084472656,57.42499923706055,55.93000030517578,55.93000030517578,53.87010955810547,275800
2020-10-12,55.93000030517578,56.9900016784668,55.880001068115234,56.77000045776367,54.679168701171875,113000
2020-10-13,56.54999923706055,56.86000061035156,55.5099983215332,55.7400016784668,53.687103271484375,143100
2020-10-14,55.720001220703125,56.380001068115234,54.84000015258789,56.0,53.937522888183594,142500
2020-10-15,55.75,56.29999923706055,55.75,55.95000076293945,53.88936996459961,136700
2020-10-16,56.31999969482422,57.22999954223633,55.685001373291016,57.13999938964844,55.03554153442383,150300
2020-10-19,57.56999969482422,57.869998931884766,56.84000015258789,57.33000183105469,55.218544006347656,136000
2020-10-20,57.720001220703125,58.83000183105469,57.18000030517578,57.86000061035156,55.729026794433594,117400
2020-10-21,58.25,58.52000045776367,57.810001373291016,57.91999816894531,55.78681564331055,113700
2020-10-22,57.939998626708984,58.77000045776367,57.93000030517578,58.599998474121094,56.44176483154297,109600
2020-10-23,58.79999923706055,58.83000183105469,57.560001373291016,58.290000915527344,56.1431884765625,94400
2020-10-26,57.93000030517578,58.18000030517578,56.65999984741211,57.439998626708984,55.32448959350586,111100
2020-10-27,57.150001525878906,57.349998474121094,56.5629997253418,57.029998779296875,54.929588317871094,118100
2020-10-28,56.0099983215332,57.060001373291016,54.22999954223633,54.22999954223633,52.23271942138672,256500
2020-10-29,53.86000061035156,55.290000915527344,52.5099983215332,54.790000915527344,52.772090911865234,176200
2020-10-30,54.630001068115234,54.630001068115234,53.58000183105469,54.470001220703125,52.4638786315918,194500
2020-11-02,55.040000915527344,56.459999084472656,55.040000915527344,56.36000061035156,54.28426742553711,127200
2020-11-03,57.189998626708984,58.83000183105469,57.189998626708984,58.560001373291016,56.40324020385742,180400
2020-11-04,58.66999816894531,59.41999816894531,57.709999084472656,58.88999938964844,56.72108840942383,129700
2020-11-05,59.59000015258789,62.279998779296875,59.44499969482422,61.68000030517578,59.4083366394043,188000
2020-11-06,62.040000915527344,62.4900016784668,61.02000045776367,61.900001525878906,59.6202278137207,106500
2020-11-09,64.86000061035156,67.83000183105469,64.45999908447266,64.56999969482422,62.191898345947266,371900
2020-11-10,64.4800033569336,68.16000366210938,64.01000213623047,68.05000305175781,65.54373168945312,288300
2020-11-11,68.25,69.88999938964844,67.80000305175781,68.19999694824219,65.68820190429688,207300
2020-11-12,67.6500015258789,67.81999969482422,65.87000274658203,66.0999984741211,63.665550231933594,180000
2020-11-13,66.81999969482422,66.9800033569336,65.51000213623047,65.95999908447266,63.530704498291016,159000
2020-11-16,66.83999633789062,67.58999633789062,66.05999755859375,67.04000091552734,64.57093048095703,215000
2020-11-17,67.23999786376953,67.23999786376953,65.88999938964844,66.2699966430664,63.829280853271484,138200
2020-11-18,66.33999633789062,67.02899932861328,66.05999755859375,66.06999969482422,63.63664627075195,175200
2020-11-19,65.83000183105469,65.83000183105469,64.5999984741211,65.0999984741211,62.70236587524414,159000
2020-11-20,64.68000030517578,66.12000274658203,64.66999816894531,66.12000274658203,63.68480682373047,135600
2020-11-23,66.73999786376953,67.94999694824219,66.19999694824219,67.52999877929688,65.04287719726562,203600
2020-11-24,68.18000030517578,70.25,68.08999633789062,69.66000366210938,67.09443664550781,175000
2020-11-25,69.37999725341797,69.6500015258789,68.76000213623047,69.26000213623047,66.70916748046875,99400
2020-11-27,68.61000061035156,69.23999786376953,67.2699966430664,67.2699966430664,65.24935913085938,72500
2020-11-30,67.5,67.94000244140625,65.9000015258789,66.6500015258789,64.64798736572266,431500
2020-12-01,67.4000015258789,68.12999725341797,65.13999938964844,65.18000030517578,63.22215270996094,172100
2020-12-02,65.37000274658203,65.66999816894531,64.57499694824219,65.45999908447266,63.493736267089844,100200
2020-12-03,65.75,66.69999694824219,65.54000091552734,66.01000213623047,64.0272216796875,85400
2020-12-04,66.70999908447266,68.37999725341797,66.2699966430664,68.31999969482422,66.26782989501953,117300
2020-12-07,68.1500015258789,68.56999969482422,67.16999816894531,67.30999755859375,65.28816986083984,107300
2020-12-08,66.79000091552734,68.08999633789062,66.79000091552734,67.7300033569336,65.695556640625,120300
2020-12-09,68.19000244140625,68.91000366210938,67.54000091552734,68.86000061035156,66.79161071777344,120600
2020-12-10,68.86000061035156,69.44999694824219,68.0,69.05000305175781,66.97590637207031,170000
2020-12-11,68.70999908447266,69.07499694824219,68.0,68.0199966430664,65.97684478759766,99800
2020-12-14,68.8499984741211,69.02999877929688,67.16000366210938,67.26000213623047,65.23966979980469,166800
2020-12-15,67.29000091552734,68.91000366210938,67.00499725341797,67.88999938964844,65.85074615478516,168000
2020-12-16,68.20999908447266,68.9800033569336,67.33999633789062,68.33999633789062,66.28722381591797,133400
2020-12-17,68.9800033569336,70.27999877929688,68.7490005493164,69.70999908447266,67.61607360839844,132700
2020-12-18,70.13999938964844,70.13999938964844,68.55999755859375,68.73999786376953,66.67520904541016,315000
2020-12-21,67.61000061035156,69.04000091552734,66.64099884033203,68.87000274658203,66.80130767822266,115400
2020-12-22,69.08999633789062,70.95999908447266,68.45800018310547,70.11000061035156,68.00405883789062,124500
2020-12-23,71.20999908447266,73.02999877929688,70.52999877929688,72.81999969482422,70.63265991210938,152400
2020-12-24,72.56999969482422,73.8499984741211,72.05000305175781,73.5199966430664,71.31163024902344,233100
2020-12-28,74.01000213623047,74.5999984741211,72.0199966430664,72.48999786376953,70.31256866455078,103800
2020-12-29,73.05999755859375,73.53800201416016,71.41999816894531,71.58999633789062,69.43960571289062,100200
2020-12-30,71.58999633789062,72.80000305175781,71.2300033569336,72.33000183105469,70.15737915039062,91200
