Date,Open,High,Low,Close,Adj Close,Volume
2020-09-18,10.5,10.989999771118164,9.699999809265137,9.989999771118164,9.989999771118164,553500
2020-09-21,10.0,10.0,9.3100004196167,9.75,9.75,163900
2020-09-22,9.600000381469727,9.859999656677246,9.550000190734863,9.550000190734863,9.550000190734863,32100
2020-09-23,9.710000038146973,9.850000381469727,9.300000190734863,9.300000190734863,9.300000190734863,35400
2020-09-24,9.260000228881836,9.449999809265137,9.0,9.399999618530273,9.399999618530273,49800
2020-09-25,9.119999885559082,9.289999961853027,8.760000228881836,9.15999984741211,9.15999984741211,37500
2020-09-28,9.199999809265137,9.470000267028809,8.899999618530273,9.33899974822998,9.33899974822998,19400
2020-09-29,9.362000465393066,9.479999542236328,9.25,9.460000038146973,9.460000038146973,12700
2020-09-30,9.670000076293945,9.859000205993652,9.25,9.510000228881836,9.510000228881836,15600
2020-10-01,9.649999618530273,9.649999618530273,9.5,9.539999961853027,9.539999961853027,4300
2020-10-02,9.3100004196167,9.5,9.265000343322754,9.369999885559082,9.369999885559082,9900
2020-10-05,9.479999542236328,9.479999542236328,9.25,9.3100004196167,9.3100004196167,7700
2020-10-06,9.390000343322754,9.562000274658203,9.335000038146973,9.510000228881836,9.510000228881836,7200
2020-10-07,9.454999923706055,9.654999732971191,9.319999694824219,9.319999694824219,9.319999694824219,6600
2020-10-08,9.545999526977539,9.649999618530273,9.319999694824219,9.319999694824219,9.319999694824219,2800
2020-10-09,9.649999618530273,9.890000343322754,9.369999885559082,9.600000381469727,9.600000381469727,24200
2020-10-12,9.5,9.822999954223633,9.34000015258789,9.380000114440918,9.380000114440918,5600
2020-10-13,9.3100004196167,10.25,9.3100004196167,9.899999618530273,9.899999618530273,65000
2020-10-14,10.289999961853027,12.0,9.970000267028809,10.550000190734863,10.550000190734863,141000
2020-10-15,10.496000289916992,10.899999618530273,9.75,10.289999961853027,10.289999961853027,110800
2020-10-16,10.100000381469727,10.5,9.720000267028809,9.75,9.75,57900
2020-10-19,9.75,10.5,9.34000015258789,9.569999694824219,9.569999694824219,68800
2020-10-20,9.489999771118164,9.753000259399414,9.479999542236328,9.529999732971191,9.529999732971191,14900
2020-10-21,9.65999984741211,9.65999984741211,9.0,9.109999656677246,9.109999656677246,38200
2020-10-22,9.109999656677246,9.399999618530273,9.0,9.175000190734863,9.175000190734863,19300
2020-10-23,9.100000381469727,9.25,9.0,9.010000228881836,9.010000228881836,9100
2020-10-26,9.0,9.100000381469727,7.8379998207092285,7.980000019073486,7.980000019073486,107400
2020-10-27,8.050000190734863,8.529999732971191,8.0,8.029999732971191,8.029999732971191,36300
2020-10-28,7.800000190734863,8.383999824523926,7.699999809265137,7.933000087738037,7.933000087738037,41800
2020-10-29,8.010000228881836,8.380000114440918,7.949999809265137,8.300000190734863,8.300000190734863,19500
2020-10-30,8.3149995803833,8.399999618530273,7.909999847412109,7.96999979019165,7.96999979019165,41700
2020-11-02,8.180000305175781,8.180000305175781,7.925000190734863,7.925000190734863,7.925000190734863,8100
2020-11-03,7.929999828338623,8.5,7.900000095367432,8.125,8.125,31000
2020-11-04,8.229999542236328,8.359999656677246,8.020000457763672,8.204999923706055,8.204999923706055,8900
2020-11-05,8.399999618530273,8.399999618530273,8.020000457763672,8.140000343322754,8.140000343322754,9800
2020-11-06,8.5,8.5,8.149999618530273,8.239999771118164,8.239999771118164,3600
2020-11-09,8.5,8.5,8.0,8.289999961853027,8.289999961853027,15700
2020-11-10,8.0,8.149999618530273,8.0,8.074999809265137,8.074999809265137,6000
2020-11-11,7.954999923706055,8.102999687194824,7.920000076293945,8.100000381469727,8.100000381469727,1700
2020-11-12,8.100000381469727,8.100000381469727,7.96999979019165,7.96999979019165,7.96999979019165,2100
2020-11-13,8.225000381469727,8.23900032043457,7.909999847412109,8.039999961853027,8.039999961853027,9200
2020-11-16,8.125,8.177000045776367,7.550000190734863,7.860000133514404,7.860000133514404,11100
2020-11-17,7.619999885559082,8.0,7.510000228881836,8.0,8.0,21200
2020-11-18,7.889999866485596,7.889999866485596,7.769999980926514,7.8460001945495605,7.8460001945495605,2800
2020-11-19,7.880000114440918,8.0,7.760000228881836,7.880000114440918,7.880000114440918,6500
2020-11-20,7.889999866485596,8.0,7.5,7.900000095367432,7.900000095367432,21500
2020-11-23,7.75,8.289999961853027,7.75,8.0600004196167,8.0600004196167,21300
2020-11-24,7.75,8.699999809265137,7.75,8.430000305175781,8.430000305175781,50300
2020-11-25,8.449999809265137,8.579999923706055,8.279999732971191,8.4399995803833,8.4399995803833,33200
2020-11-27,8.3100004196167,9.140000343322754,8.199999809265137,8.84000015258789,8.84000015258789,31200
2020-11-30,8.9399995803833,9.887999534606934,8.8100004196167,9.649999618530273,9.649999618530273,66000
2020-12-01,9.833000183105469,10.199999809265137,9.300000190734863,9.420000076293945,9.420000076293945,24500
2020-12-02,9.289999961853027,9.9399995803833,9.130000114440918,9.130000114440918,9.130000114440918,5900
2020-12-03,8.991999626159668,9.206999778747559,8.503999710083008,8.880000114440918,8.880000114440918,17300
2020-12-04,8.5,8.984999656677246,8.5,8.829999923706055,8.829999923706055,6500
2020-12-07,9.5649995803833,9.66100025177002,8.380000114440918,8.550000190734863,8.550000190734863,8900
2020-12-08,8.800000190734863,8.800000190734863,8.510000228881836,8.600000381469727,8.600000381469727,9000
2020-12-09,8.979999542236328,8.979999542236328,8.050000190734863,8.550000190734863,8.550000190734863,27800
2020-12-10,9.079999923706055,9.920000076293945,8.479999542236328,9.760000228881836,9.760000228881836,128000
2020-12-11,9.630000114440918,10.460000038146973,9.630000114440918,10.300000190734863,10.300000190734863,107700
2020-12-14,10.5,12.279999732971191,10.5,12.0,12.0,331200
2020-12-15,12.390000343322754,13.279999732971191,12.300000190734863,13.1899995803833,13.1899995803833,308800
2020-12-16,12.760000228881836,13.0,11.739999771118164,13.0,13.0,80900
2020-12-17,12.729999542236328,14.069000244140625,12.38599967956543,13.9399995803833,13.9399995803833,142500
2020-12-18,13.600000381469727,15.0,13.140000343322754,13.90999984741211,13.90999984741211,115900
2020-12-21,13.75,14.5,13.399999618530273,14.359999656677246,14.359999656677246,54400
2020-12-22,14.770000457763672,15.25,13.928000450134277,15.140000343322754,15.140000343322754,35300
2020-12-23,15.0600004196167,17.79599952697754,15.0600004196167,15.600000381469727,15.600000381469727,60200
2020-12-24,15.449999809265137,16.049999237060547,15.0600004196167,15.5,15.5,24600
2020-12-28,16.0,16.299999237060547,15.149999618530273,15.800000190734863,15.800000190734863,33100
2020-12-29,15.630999565124512,15.989999771118164,15.050000190734863,15.199999809265137,15.199999809265137,51600
2020-12-30,15.73900032043457,15.949999809265137,15.210000038146973,15.8100004196167,15.8100004196167,43800
