Date,Open,High,Low,Close,Adj Close,Volume
2020-02-11,25.190000534057617,25.3799991607666,25.190000534057617,25.350000381469727,23.08653450012207,1377100
2020-02-12,25.549999237060547,25.549999237060547,25.299999237060547,25.3799991607666,23.113855361938477,410800
2020-02-13,25.3799991607666,25.3799991607666,25.25,25.3799991607666,23.113855361938477,121600
2020-02-14,25.3799991607666,25.450000762939453,25.360000610351562,25.3700008392334,23.104747772216797,128100
2020-02-18,25.385000228881836,25.43000030517578,25.350000381469727,25.399999618530273,23.132068634033203,111800
2020-02-19,25.399999618530273,25.549999237060547,25.399999618530273,25.479999542236328,23.204923629760742,153800
2020-02-20,25.479999542236328,25.5939998626709,25.350000381469727,25.510000228881836,23.232248306274414,213900
2020-02-21,25.579999923706055,25.59000015258789,25.520000457763672,25.56800079345703,23.28506851196289,111200
2020-02-24,25.360000610351562,25.489999771118164,24.84000015258789,25.479999542236328,23.204923629760742,219300
2020-02-25,25.530000686645508,25.540000915527344,25.270000457763672,25.34000015258789,23.077428817749023,125100
2020-02-26,25.350000381469727,25.43000030517578,25.25,25.25,22.99546241760254,112400
2020-02-27,25.149999618530273,25.200000762939453,24.454999923706055,24.959999084472656,22.731355667114258,165500
2020-02-28,24.799999237060547,24.799999237060547,24.058000564575195,24.489999771118164,22.303321838378906,1133300
2020-03-02,24.399999618530273,24.479999542236328,24.0,24.239999771118164,22.075645446777344,75400
2020-03-03,24.31999969482422,24.68000030517578,24.25,24.299999237060547,22.130285263061523,170600
2020-03-04,24.360000610351562,24.739999771118164,24.350000381469727,24.719999313354492,22.512786865234375,112400
2020-03-05,24.6200008392334,24.732999801635742,24.350000381469727,24.579999923706055,22.385286331176758,32400
2020-03-06,24.030000686645508,24.5,23.81999969482422,24.100000381469727,21.948144912719727,29300
2020-03-09,23.469999313354492,24.0,21.3799991607666,21.3799991607666,19.47100830078125,30300
2020-03-10,22.600000381469727,22.600000381469727,21.459999084472656,21.809999465942383,19.862613677978516,34700
2020-03-11,21.84000015258789,21.8799991607666,20.09000015258789,20.34000015258789,18.52387046813965,26100
2020-03-12,16.450000762939453,17.0,14.75,15.420000076293945,14.043169975280762,50200
2020-03-13,16.510000228881836,18.200000762939453,16.5,18.0,16.392805099487305,100500
2020-03-16,14.75,15.821000099182129,14.0,14.0,12.749958992004395,36500
2020-03-17,14.199999809265137,14.199999809265137,12.5,12.770000457763672,11.629783630371094,53600
2020-03-18,11.300000190734863,12.010000228881836,8.0,8.0,7.285691261291504,33100
2020-03-19,8.050000190734863,10.5,8.050000190734863,10.09000015258789,9.189078330993652,150400
2020-03-20,10.510000228881836,12.5,9.529999732971191,10.0600004196167,9.161758422851562,220300
2020-03-23,10.086999893188477,10.229999542236328,9.0,9.699999809265137,8.833900451660156,142700
2020-03-24,10.199999809265137,12.687999725341797,10.199999809265137,12.460000038146973,11.347463607788086,141400
2020-03-25,12.970000267028809,15.57800006866455,12.800000190734863,15.326000213623047,13.957562446594238,65500
2020-03-26,15.470000267028809,17.117000579833984,15.470000267028809,16.450000762939453,14.981203079223633,135700
2020-03-27,16.200000762939453,16.200000762939453,14.699999809265137,14.699999809265137,13.387457847595215,80500
2020-03-30,14.899999618530273,15.399999618530273,14.5649995803833,14.970000267028809,13.633350372314453,35400
2020-03-31,15.0,15.0,13.899999618530273,14.0,12.749958992004395,87200
2020-04-01,13.710000038146973,13.729999542236328,12.739999771118164,13.050000190734863,11.884783744812012,32500
2020-04-02,13.869999885559082,14.800000190734863,13.0,13.800000190734863,12.567817687988281,182300
2020-04-03,13.5,14.0,11.449999809265137,14.0,12.749958992004395,172900
2020-04-06,14.300000190734863,15.289999961853027,14.201000213623047,15.010000228881836,13.669778823852539,80900
2020-04-07,15.75,16.329999923706055,15.25,16.149999618530273,14.707988739013672,129900
2020-04-08,17.131000518798828,18.350000381469727,16.700000762939453,18.280000686645508,16.647804260253906,83800
2020-04-09,18.5,20.040000915527344,18.399999618530273,19.3799991607666,17.64958381652832,110700
2020-04-13,19.0,19.0,17.950000762939453,18.31999969482422,16.684232711791992,237500
2020-04-14,18.549999237060547,19.389999389648438,18.549999237060547,19.049999237060547,17.349050521850586,86600
2020-04-15,18.770000457763672,18.989999771118164,18.549999237060547,18.899999618530273,17.212444305419922,66700
2020-04-16,18.959999084472656,19.344999313354492,18.3799991607666,19.06999969482422,17.367265701293945,93000
2020-04-17,19.31999969482422,19.899999618530273,19.309999465942383,19.530000686645508,17.786191940307617,54300
2020-04-20,18.700000762939453,19.579999923706055,18.700000762939453,19.200000762939453,17.485658645629883,12400
2020-04-21,18.950000762939453,19.270000457763672,17.809999465942383,18.260000228881836,16.629592895507812,21700
2020-04-22,18.549999237060547,18.989999771118164,18.5,18.55500030517578,16.898250579833984,12000
2020-04-23,18.79199981689453,19.194000244140625,18.760000228881836,18.889999389648438,17.203336715698242,13100
2020-04-24,19.479999542236328,19.489999771118164,18.200000762939453,18.780000686645508,17.103160858154297,16800
2020-04-27,18.780000686645508,19.469999313354492,18.448999404907227,19.469999313354492,17.731550216674805,41100
2020-04-28,19.364999771118164,19.75,19.209999084472656,19.719999313354492,17.959226608276367,67200
2020-04-29,19.700000762939453,20.049999237060547,19.350000381469727,19.93000030517578,18.15047836303711,73400
2020-04-30,19.5,20.350000381469727,19.5,20.0,18.2142276763916,311300
2020-05-01,19.860000610351562,19.889999389648438,19.25,19.8799991607666,18.104942321777344,21500
2020-05-04,19.56599998474121,19.860000610351562,19.549999237060547,19.860000610351562,18.086727142333984,4200
2020-05-05,19.534000396728516,20.1200008392334,19.534000396728516,19.549999237060547,17.804407119750977,10100
2020-05-06,19.541000366210938,19.68000030517578,19.0,19.0,17.30351448059082,21000
2020-05-07,18.975000381469727,19.25,18.81999969482422,19.0,17.30351448059082,19300
2020-05-08,19.440000534057617,20.200000762939453,19.125,19.600000381469727,17.849945068359375,70900
2020-05-11,19.600000381469727,19.899999618530273,19.358999252319336,19.774999618530273,18.009319305419922,10700
2020-05-12,19.389999389648438,20.329999923706055,19.110000610351562,19.329999923706055,17.60405158996582,23100
2020-05-13,18.010000228881836,19.23699951171875,18.010000228881836,18.235000610351562,16.606822967529297,35500
2020-05-14,18.139999389648438,18.139999389648438,17.059999465942383,17.25,15.709772109985352,45800
2020-05-15,17.239999771118164,17.80900001525879,17.030000686645508,17.639999389648438,16.06494903564453,46800
2020-05-18,18.149999618530273,18.399999618530273,17.829999923706055,17.84000015258789,16.247089385986328,26900
2020-05-19,17.816999435424805,18.0,17.510000228881836,17.950000762939453,16.347270965576172,29800
2020-05-20,18.0,18.010000228881836,17.510000228881836,17.65999984741211,16.08316421508789,28000
2020-05-21,18.200000762939453,18.200000762939453,17.25,17.25,15.709772109985352,65900
2020-05-22,18.100000381469727,18.100000381469727,17.360000610351562,17.559999465942383,15.992091178894043,44500
2020-05-26,18.200000762939453,18.200000762939453,17.065000534057617,17.82900047302246,16.23707389831543,38900
2020-05-27,17.850000381469727,18.5,17.829999923706055,18.5,16.848161697387695,30300
2020-05-28,18.579999923706055,18.989999771118164,18.260000228881836,18.770000457763672,17.094051361083984,58100
2020-05-29,18.399999618530273,18.399999618530273,17.75,18.0,16.866355895996094,14200
2020-06-01,17.559999465942383,18.530000686645508,17.559999465942383,18.3700008392334,17.213054656982422,17000
2020-06-02,18.469999313354492,18.469999313354492,18.09000015258789,18.1200008392334,16.97879981994629,20200
2020-06-03,18.25,18.59000015258789,18.149999618530273,18.559999465942383,17.391088485717773,31000
2020-06-04,18.75,18.790000915527344,18.40999984741211,18.770000457763672,17.587862014770508,22200
2020-06-05,19.040000915527344,20.045000076293945,19.040000915527344,19.799999237060547,18.55299186706543,39300
2020-06-08,20.09000015258789,20.190000534057617,19.34000015258789,20.170000076293945,18.899688720703125,76500
2020-06-09,19.899999618530273,20.010000228881836,19.360000610351562,19.68000030517578,18.4405517578125,51800
2020-06-10,19.520000457763672,19.520000457763672,19.040000915527344,19.350000381469727,18.13133430480957,31100
2020-06-11,18.899999618530273,18.940000534057617,17.639999389648438,17.84000015258789,16.716432571411133,16300
2020-06-12,18.770000457763672,18.770000457763672,17.610000610351562,17.68000030517578,16.566511154174805,30400
2020-06-15,17.610000610351562,17.950000762939453,17.489999771118164,17.719999313354492,16.603992462158203,24600
2020-06-16,18.68000030517578,18.68000030517578,18.139999389648438,18.139999389648438,16.997539520263672,19200
2020-06-17,18.489999771118164,18.489999771118164,17.899999618530273,17.899999618530273,16.77265167236328,1600
2020-06-18,18.149999618530273,18.190000534057617,17.899999618530273,17.899999618530273,16.77265167236328,1600
2020-06-19,18.56999969482422,18.56999969482422,17.860000610351562,17.969999313354492,16.838247299194336,8900
2020-06-22,18.270000457763672,18.270000457763672,17.56999969482422,17.6200008392334,16.510290145874023,12100
2020-06-23,18.31999969482422,18.31999969482422,17.5310001373291,17.69499969482422,16.580564498901367,8400
2020-06-24,17.260000228881836,17.59000015258789,16.739999771118164,17.059999465942383,15.985556602478027,18600
2020-06-25,18.31999969482422,18.31999969482422,16.670000076293945,16.899999618530273,15.835634231567383,26600
2020-06-26,16.899999618530273,16.899999618530273,16.010000228881836,16.229999542236328,15.207831382751465,27000
2020-06-29,16.700000762939453,16.700000762939453,16.079999923706055,16.270000457763672,15.245311737060547,35000
2020-06-30,16.329999923706055,16.729999542236328,16.299999237060547,16.559999465942383,15.517048835754395,68100
2020-07-01,16.579999923706055,16.75,16.5,16.670000076293945,15.62012004852295,17400
2020-07-02,16.950000762939453,17.350000381469727,16.950000762939453,17.049999237060547,15.976187705993652,4800
2020-07-06,17.360000610351562,17.485000610351562,17.06999969482422,17.200000762939453,16.116743087768555,12100
2020-07-07,17.25,17.260000228881836,16.979999542236328,16.979999542236328,15.910595893859863,25000
2020-07-08,17.049999237060547,17.149999618530273,16.420000076293945,16.420000076293945,15.3858642578125,36100
2020-07-09,17.079999923706055,17.079999923706055,16.690000534057617,16.950000762939453,15.882486343383789,1600
2020-07-10,17.5,17.5,16.920000076293945,16.969999313354492,15.901225090026855,5000
2020-07-13,16.520000457763672,17.0,16.520000457763672,16.950000762939453,15.882486343383789,17700
2020-07-14,16.940000534057617,16.940000534057617,16.700000762939453,16.770000457763672,15.713822364807129,5800
2020-07-15,16.989999771118164,17.0,16.625,16.989999771118164,15.919967651367188,14300
2020-07-16,17.0,17.040000915527344,16.790000915527344,17.040000915527344,15.966817855834961,14000
2020-07-17,17.5,17.5,16.8799991607666,17.065000534057617,15.990243911743164,5300
2020-07-20,17.049999237060547,17.325000762939453,17.049999237060547,17.110000610351562,16.03240966796875,22100
2020-07-21,18.809999465942383,18.809999465942383,16.850000381469727,17.079999923706055,16.00429916381836,90400
2020-07-22,17.15999984741211,17.25,16.8799991607666,16.8799991607666,15.816893577575684,39500
2020-07-23,17.007999420166016,17.059999465942383,16.836999893188477,16.969999313354492,15.901225090026855,12300
2020-07-24,17.040000915527344,17.079999923706055,16.94499969482422,17.059999465942383,15.985556602478027,4300
2020-07-27,18.100000381469727,18.100000381469727,17.21500015258789,17.375,16.280717849731445,10300
2020-07-28,17.139999389648438,17.43000030517578,17.139999389648438,17.31999969482422,16.229183197021484,3400
2020-07-29,17.729999542236328,17.989999771118164,17.489999771118164,17.899999618530273,16.77265167236328,10700
2020-07-30,18.43000030517578,18.43000030517578,17.7810001373291,18.079999923706055,16.94131851196289,20700
2020-07-31,18.100000381469727,18.100000381469727,17.95599937438965,18.0,16.866355895996094,5800
2020-08-03,18.469999313354492,18.610000610351562,17.93000030517578,18.3700008392334,17.213054656982422,19400
2020-08-04,18.459999084472656,18.549999237060547,17.920000076293945,18.110000610351562,16.96942710876465,9600
2020-08-05,18.34000015258789,18.34000015258789,17.969999313354492,18.0,16.866355895996094,7400
2020-08-06,18.170000076293945,18.170000076293945,17.709999084472656,17.850000381469727,16.725805282592773,6800
2020-08-07,17.989999771118164,17.989999771118164,17.549999237060547,17.6299991607666,16.5196590423584,7800
2020-08-10,17.889999389648438,18.030000686645508,17.889999389648438,18.030000686645508,16.894468307495117,8400
2020-08-11,18.239999771118164,18.719999313354492,18.18000030517578,18.299999237060547,17.147462844848633,23100
2020-08-12,18.549999237060547,19.58099937438965,18.3700008392334,19.43000030517578,18.206295013427734,20900
2020-08-13,19.3700008392334,19.618000030517578,18.989999771118164,19.020000457763672,17.822118759155273,41200
2020-08-14,19.15999984741211,19.440000534057617,18.979999542236328,19.399999618530273,18.178184509277344,11200
2020-08-17,19.399999618530273,19.399999618530273,19.049999237060547,19.350000381469727,18.13133430480957,16500
2020-08-18,19.610000610351562,19.8799991607666,19.40999984741211,19.850000381469727,18.599843978881836,19700
2020-08-19,19.940000534057617,20.049999237060547,19.709999084472656,19.84000015258789,18.590471267700195,18200
2020-08-20,19.940000534057617,20.170000076293945,19.649999618530273,19.719999313354492,18.478029251098633,19200
2020-08-21,19.780000686645508,20.510000228881836,19.52199935913086,19.969999313354492,18.712284088134766,15700
2020-08-24,20.280000686645508,20.3700008392334,20.0,20.309999465942383,19.030872344970703,29500
2020-08-25,20.56999969482422,20.56999969482422,20.040000915527344,20.1200008392334,18.852840423583984,15000
2020-08-26,20.56999969482422,20.56999969482422,19.969999313354492,20.020000457763672,18.759138107299805,20900
2020-08-27,20.18000030517578,20.264999389648438,19.989999771118164,19.989999771118164,18.73102569580078,59100
2020-08-28,20.020000457763672,20.200000762939453,19.90999984741211,19.950000762939453,18.693544387817383,44400
2020-08-31,19.84000015258789,19.84000015258789,19.510000228881836,19.81999969482422,18.91205596923828,21100
2020-09-01,19.889999389648438,19.889999389648438,19.579999923706055,19.649999618530273,18.74984359741211,14100
2020-09-02,19.84000015258789,19.84000015258789,19.5,19.559999465942383,18.663965225219727,14900
2020-09-03,19.719999313354492,19.719999313354492,19.43000030517578,19.43000030517578,18.539920806884766,8700
2020-09-04,19.549999237060547,19.549999237060547,18.924999237060547,19.420000076293945,18.530380249023438,11800
2020-09-08,19.420000076293945,19.420000076293945,18.84000015258789,19.25,18.368167877197266,10800
2020-09-09,19.420000076293945,19.450000762939453,19.190000534057617,19.200000762939453,18.320459365844727,32500
2020-09-10,19.229999542236328,19.59000015258789,19.190000534057617,19.200000762939453,18.320459365844727,9300
2020-09-11,19.445999145507812,19.445999145507812,19.3700008392334,19.3700008392334,18.482669830322266,1000
2020-09-14,19.469999313354492,19.469999313354492,19.29199981689453,19.29199981689453,18.40824317932129,4900
2020-09-15,19.40999984741211,19.40999984741211,19.2549991607666,19.2549991607666,18.372936248779297,7800
2020-09-16,19.489999771118164,19.489999771118164,19.25,19.25,18.368167877197266,5000
2020-09-17,19.389999389648438,19.389999389648438,18.50200080871582,19.0,18.12961769104004,7400
2020-09-18,19.389999389648438,19.389999389648438,18.989999771118164,19.0,18.12961769104004,6500
2020-09-21,19.040000915527344,19.040000915527344,18.700000762939453,18.899999618530273,18.03420066833496,7200
2020-09-22,19.09000015258789,19.09000015258789,18.899999618530273,18.952999114990234,18.08477210998535,5600
2020-09-23,18.969999313354492,18.969999313354492,18.0,18.110000610351562,17.280391693115234,12500
2020-09-24,18.360000610351562,18.360000610351562,17.899999618530273,17.969999313354492,17.146800994873047,15200
2020-09-25,18.25,18.361000061035156,17.899999618530273,18.25,17.413976669311523,9100
2020-09-28,18.59000015258789,18.68000030517578,18.479999542236328,18.489999771118164,17.642982482910156,78700
2020-09-29,18.81999969482422,18.81999969482422,18.260000228881836,18.260000228881836,17.423519134521484,11100
2020-09-30,18.440000534057617,18.549999237060547,17.8700008392334,17.8700008392334,17.0513858795166,60400
2020-10-01,18.020000457763672,18.40399932861328,17.959999084472656,17.989999771118164,17.16588592529297,96000
2020-10-02,17.979999542236328,18.094999313354492,17.670000076293945,17.989999771118164,17.16588592529297,60100
2020-10-05,18.18000030517578,18.360000610351562,18.110000610351562,18.190000534057617,17.35672378540039,54200
2020-10-06,18.25,18.459999084472656,18.110000610351562,18.18000030517578,17.347183227539062,108900
2020-10-07,18.190000534057617,18.65999984741211,18.190000534057617,18.549999237060547,17.700231552124023,169400
2020-10-08,18.75,19.139999389648438,18.75,18.979999542236328,18.11053466796875,238000
2020-10-09,19.40999984741211,19.40999984741211,19.149999618530273,19.329999923706055,18.444501876831055,72200
2020-10-12,19.540000915527344,19.850000381469727,19.25,19.3799991607666,18.492210388183594,29200
2020-10-13,19.3799991607666,19.663000106811523,19.350000381469727,19.479999542236328,18.587629318237305,42900
2020-10-14,19.479999542236328,19.479999542236328,18.860000610351562,19.0,18.12961769104004,26400
2020-10-15,18.979999542236328,19.1200008392334,18.780000686645508,19.1200008392334,18.244121551513672,16400
2020-10-16,19.100000381469727,19.229999542236328,18.950000762939453,19.15999984741211,18.282289505004883,22300
2020-10-19,19.360000610351562,19.360000610351562,19.0,19.09000015258789,18.215497970581055,59800
2020-10-20,19.270000457763672,19.3799991607666,19.100000381469727,19.290000915527344,18.406335830688477,9100
2020-10-21,19.350000381469727,19.649999618530273,19.219999313354492,19.510000228881836,18.616256713867188,52500
2020-10-22,19.6200008392334,19.75,19.399999618530273,19.670000076293945,18.7689266204834,19100
2020-10-23,19.81999969482422,19.969999313354492,19.670000076293945,19.969999313354492,19.05518341064453,29200
2020-10-26,19.770000457763672,19.889999389648438,19.649999618530273,19.829999923706055,18.92159652709961,21400
2020-10-27,19.90999984741211,19.90999984741211,19.610000610351562,19.690000534057617,18.788009643554688,38400
2020-10-28,19.600000381469727,19.600000381469727,19.049999237060547,19.299999237060547,18.415874481201172,83100
2020-10-29,19.399999618530273,19.510000228881836,19.200000762939453,19.309999465942383,18.425416946411133,44100
2020-10-30,19.25,19.520000457763672,19.100000381469727,19.399999618530273,18.511295318603516,43400
2020-11-02,19.950000762939453,19.950000762939453,19.25,19.309999465942383,18.425416946411133,14500
2020-11-03,19.389999389648438,19.56999969482422,19.0,19.0,18.12961769104004,20900
2020-11-04,19.15999984741211,19.34000015258789,19.15999984741211,19.229999542236328,18.349082946777344,11900
2020-11-05,19.3700008392334,19.950000762939453,19.290000915527344,19.850000381469727,18.94068145751953,84300
2020-11-06,19.940000534057617,19.940000534057617,19.510000228881836,19.549999237060547,18.654422760009766,13200
2020-11-09,20.0,20.700000762939453,19.75,19.979999542236328,19.06472396850586,68100
2020-11-10,19.969999313354492,20.81999969482422,19.969999313354492,20.81999969482422,19.866247177124023,42900
2020-11-11,20.899999618530273,22.049999237060547,20.899999618530273,21.889999389648438,20.88722801208496,50700
2020-11-12,21.889999389648438,21.889999389648438,21.270000457763672,21.389999389648438,20.41013526916504,10600
2020-11-13,21.780000686645508,21.920000076293945,21.399999618530273,21.780000686645508,20.782270431518555,28700
2020-11-16,21.68000030517578,22.920000076293945,21.68000030517578,22.5,21.46928596496582,65000
2020-11-17,22.729999542236328,22.920000076293945,22.143999099731445,22.25,21.230737686157227,20500
2020-11-18,22.459999084472656,22.459999084472656,22.260000228881836,22.280000686645508,21.25936508178711,17800
2020-11-19,22.280000686645508,22.299999237060547,22.049999237060547,22.100000381469727,21.087608337402344,13800
2020-11-20,22.219999313354492,22.479999542236328,22.18899917602539,22.459999084472656,21.431116104125977,12500
2020-11-23,22.479999542236328,22.75,22.299999237060547,22.68000030517578,21.641040802001953,28900
2020-11-24,22.700000762939453,22.989999771118164,22.530000686645508,22.649999618530273,21.61241340637207,18700
2020-11-25,22.770000457763672,22.799999237060547,22.56999969482422,22.711999893188477,21.671573638916016,9200
2020-11-27,22.621000289916992,22.989999771118164,22.621000289916992,22.989999771118164,21.936838150024414,5500
2020-11-30,22.6200008392334,22.729999542236328,22.149999618530273,22.540000915527344,21.848630905151367,17000
2020-12-01,22.670000076293945,22.940000534057617,22.579999923706055,22.59000015258789,21.897096633911133,19900
2020-12-02,22.649999618530273,22.649999618530273,22.5,22.649999618530273,21.95525550842285,4000
2020-12-03,22.639999389648438,22.709999084472656,22.450000762939453,22.709999084472656,22.01341438293457,9500
2020-12-04,22.649999618530273,22.959999084472656,22.649999618530273,22.959999084472656,22.255746841430664,9300
2020-12-07,22.959999084472656,22.959999084472656,22.5,22.65999984741211,21.964948654174805,18800
2020-12-08,22.65999984741211,22.850000381469727,22.65999984741211,22.809999465942383,22.1103458404541,8100
2020-12-09,22.75,22.8799991607666,22.610000610351562,22.610000610351562,21.91648292541504,9400
2020-12-10,22.3700008392334,22.549999237060547,22.309999465942383,22.485000610351562,21.795318603515625,7300
2020-12-11,22.40999984741211,22.479999542236328,22.31999969482422,22.479999542236328,21.790470123291016,3600
2020-12-14,22.549999237060547,22.549999237060547,22.170000076293945,22.309999465942383,21.62568473815918,32000
2020-12-15,22.309999465942383,22.527999877929688,22.0,22.18000030517578,21.49967384338379,21500
2020-12-16,22.3700008392334,22.399999618530273,21.93000030517578,22.045000076293945,21.368812561035156,19300
2020-12-17,22.01799964904785,22.049999237060547,21.860000610351562,22.030000686645508,21.354272842407227,13400
2020-12-18,21.993999481201172,22.0,21.670000076293945,21.81999969482422,21.150712966918945,18100
2020-12-21,21.639999389648438,21.920000076293945,21.5,21.6200008392334,20.956850051879883,23900
2020-12-22,21.510000228881836,21.649999618530273,21.31999969482422,21.399999618530273,20.74359703063965,16300
2020-12-23,21.010000228881836,21.3700008392334,21.010000228881836,21.219999313354492,20.56911849975586,24800
2020-12-24,21.0,21.34000015258789,20.746999740600586,21.229999542236328,20.578811645507812,12500
2020-12-28,21.399999618530273,21.850000381469727,21.360000610351562,21.399999618530273,20.74359703063965,38100
2020-12-29,21.59000015258789,21.59000015258789,21.302000045776367,21.329999923706055,20.675743103027344,22300
2020-12-30,21.190000534057617,21.600000381469727,21.190000534057617,21.549999237060547,20.888996124267578,32200
