Date,Open,High,Low,Close,Adj Close,Volume
2019-03-14,24.6299991607666,24.6299991607666,24.6299991607666,24.6299991607666,21.150819778442383,369000
2019-03-15,24.829999923706055,24.850000381469727,24.75,24.799999237060547,21.296802520751953,2741900
2019-03-18,24.799999237060547,24.8799991607666,24.774999618530273,24.81999969482422,21.313982009887695,677700
2019-03-19,24.850000381469727,24.885000228881836,24.799999237060547,24.850000381469727,21.339740753173828,375900
2019-03-20,24.850000381469727,24.850000381469727,24.600000381469727,24.81999969482422,21.313982009887695,67800
2019-03-21,24.780000686645508,24.829999923706055,24.75,24.790000915527344,21.28822135925293,197000
2019-03-22,24.75,24.809999465942383,24.610000610351562,24.799999237060547,21.296802520751953,122700
2019-03-25,24.799999237060547,24.81999969482422,24.729999542236328,24.770000457763672,21.27104377746582,82400
2019-03-26,24.797000885009766,24.850000381469727,24.77899932861328,24.81999969482422,21.313982009887695,117500
2019-03-27,24.81999969482422,24.8799991607666,24.809999465942383,24.829999923706055,21.322566986083984,430000
2019-03-28,24.8799991607666,24.90999984741211,24.81999969482422,24.849000930786133,21.338884353637695,335400
2019-03-29,24.8799991607666,24.899999618530273,24.799999237060547,24.829999923706055,21.322566986083984,272800
2019-04-01,24.84000015258789,24.93000030517578,24.790000915527344,24.850000381469727,21.339740753173828,143000
2019-04-02,24.850000381469727,24.899999618530273,24.829999923706055,24.889999389648438,21.374094009399414,145400
2019-04-03,24.920000076293945,25.049999237060547,24.8799991607666,24.969999313354492,21.442790985107422,102900
2019-04-04,25.040000915527344,25.100000381469727,24.93000030517578,25.020000457763672,21.485729217529297,249200
2019-04-05,25.030000686645508,25.079999923706055,24.969999313354492,24.969999313354492,21.442790985107422,61700
2019-04-08,24.979999542236328,25.079999923706055,24.979999542236328,25.020000457763672,21.485729217529297,35400
2019-04-09,25.010000228881836,25.040000915527344,24.899999618530273,24.90999984741211,21.391265869140625,46000
2019-04-10,24.899999618530273,25.187999725341797,24.899999618530273,25.100000381469727,21.55443000793457,236900
2019-04-11,25.139999389648438,25.18000030517578,25.079999923706055,25.079999923706055,21.537254333496094,49300
2019-04-12,25.18000030517578,25.18000030517578,25.079999923706055,25.1299991607666,21.58019256591797,43800
2019-04-15,25.1200008392334,25.170000076293945,25.079999923706055,25.170000076293945,21.614540100097656,79500
2019-04-16,25.200000762939453,25.200000762939453,25.049999237060547,25.075000762939453,21.532962799072266,94400
2019-04-17,25.06999969482422,25.149999618530273,24.979999542236328,25.040000915527344,21.502904891967773,71400
2019-04-18,25.030000686645508,25.09000015258789,25.030000686645508,25.09000015258789,21.545841217041016,80200
2019-04-22,25.09000015258789,25.100000381469727,25.030000686645508,25.049999237060547,21.51148796081543,33400
2019-04-23,25.09000015258789,25.09000015258789,25.041000366210938,25.09000015258789,21.545841217041016,22400
2019-04-24,25.079999923706055,25.149999618530273,25.079999923706055,25.149999618530273,21.597366333007812,49000
2019-04-25,25.1200008392334,25.190000534057617,25.1200008392334,25.190000534057617,21.631717681884766,57100
2019-04-26,25.200000762939453,25.209999084472656,25.1200008392334,25.200000762939453,21.640302658081055,17300
2019-04-29,25.209999084472656,25.290000915527344,25.15999984741211,25.190000534057617,21.631717681884766,66700
2019-04-30,25.200000762939453,25.25,25.079999923706055,25.100000381469727,21.55443000793457,91700
2019-05-01,25.09000015258789,25.1299991607666,25.020000457763672,25.099000930786133,21.553571701049805,16100
2019-05-02,25.079999923706055,25.139999389648438,25.059999465942383,25.0939998626709,21.54927635192871,8400
2019-05-03,25.079999923706055,25.138999938964844,25.062999725341797,25.09000015258789,21.545841217041016,20400
2019-05-06,25.06999969482422,25.100000381469727,25.010000228881836,25.076000213623047,21.5338191986084,10800
2019-05-07,25.010000228881836,25.06999969482422,24.989999771118164,25.049999237060547,21.51148796081543,28100
2019-05-08,25.049999237060547,25.09000015258789,25.010000228881836,25.06999969482422,21.52866554260254,16100
2019-05-09,25.1299991607666,25.1299991607666,25.010000228881836,25.049999237060547,21.51148796081543,12400
2019-05-10,25.18000030517578,25.18000030517578,25.040000915527344,25.049999237060547,21.51148796081543,17400
2019-05-13,25.030000686645508,25.075000762939453,24.969999313354492,24.969999313354492,21.442790985107422,32100
2019-05-14,25.030000686645508,25.06999969482422,25.0,25.030000686645508,21.49431610107422,22600
2019-05-15,25.079999923706055,25.139999389648438,25.049999237060547,25.1299991607666,21.58019256591797,310400
2019-05-16,25.079999923706055,25.170000076293945,25.079999923706055,25.1299991607666,21.58019256591797,67600
2019-05-17,25.18000030517578,25.18000030517578,25.079999923706055,25.1299991607666,21.58019256591797,15000
2019-05-20,25.110000610351562,25.143999099731445,25.049999237060547,25.100000381469727,21.55443000793457,14300
2019-05-21,25.18000030517578,25.18000030517578,25.090999603271484,25.170000076293945,21.614540100097656,15700
2019-05-22,25.170000076293945,25.190000534057617,25.100000381469727,25.190000534057617,21.631717681884766,10100
2019-05-23,25.190000534057617,25.239999771118164,25.1200008392334,25.219999313354492,21.65747833251953,52800
2019-05-24,25.229999542236328,25.229999542236328,25.06999969482422,25.219999313354492,21.65747833251953,23300
2019-05-28,25.229999542236328,25.31999969482422,25.218000411987305,25.299999237060547,21.726173400878906,28400
2019-05-29,25.299999237060547,25.34000015258789,25.239999771118164,25.299999237060547,21.726173400878906,37200
2019-05-30,24.950000762939453,25.0,24.920000076293945,24.979999542236328,21.83719825744629,55900
2019-05-31,24.969999313354492,25.0,24.770000457763672,24.959999084472656,21.819713592529297,119500
2019-06-03,24.959999084472656,24.979999542236328,24.899999618530273,24.959999084472656,21.819713592529297,46300
2019-06-04,24.90999984741211,25.1200008392334,24.90999984741211,25.049999237060547,21.89838981628418,33900
2019-06-05,25.100000381469727,25.149999618530273,25.010000228881836,25.06999969482422,21.915876388549805,45000
2019-06-06,25.06999969482422,25.09000015258789,25.065000534057617,25.079999923706055,21.924617767333984,55800
2019-06-07,25.07900047302246,25.09000015258789,25.010000228881836,25.09000015258789,21.933359146118164,21500
2019-06-10,25.139999389648438,25.139999389648438,25.010000228881836,25.010000228881836,21.863428115844727,13100
2019-06-11,25.15999984741211,25.190000534057617,25.030000686645508,25.1200008392334,21.959583282470703,12800
2019-06-12,25.139999389648438,25.139999389648438,25.040000915527344,25.040000915527344,21.889652252197266,24100
2019-06-13,25.139999389648438,25.139999389648438,25.040000915527344,25.040000915527344,21.889652252197266,8600
2019-06-14,25.170000076293945,25.170000076293945,25.0,25.139999389648438,21.977066040039062,20500
2019-06-17,25.15999984741211,25.190000534057617,25.09000015258789,25.190000534057617,22.020780563354492,18100
2019-06-18,25.190000534057617,25.270000457763672,25.059999465942383,25.149999618530273,21.985811233520508,39000
2019-06-19,25.149999618530273,25.219999313354492,25.139999389648438,25.200000762939453,22.02952003479004,12100
2019-06-20,25.299999237060547,25.360000610351562,25.209999084472656,25.31999969482422,22.134422302246094,26900
2019-06-21,25.31999969482422,25.350000381469727,25.110000610351562,25.200000762939453,22.02952003479004,30300
2019-06-24,25.25,25.25,25.09000015258789,25.110000610351562,21.950843811035156,37000
2019-06-25,25.1200008392334,25.194000244140625,25.030000686645508,25.14299964904785,21.979694366455078,26800
2019-06-26,25.110000610351562,25.17099952697754,25.030000686645508,25.079999923706055,21.924617767333984,23000
2019-06-27,25.09000015258789,25.139999389648438,25.010000228881836,25.100000381469727,21.942102432250977,22100
2019-06-28,25.1299991607666,25.209999084472656,25.04400062561035,25.209999084472656,22.03826332092285,80200
2019-07-01,25.200000762939453,25.209999084472656,25.033000946044922,25.06999969482422,21.915876388549805,20600
2019-07-02,25.200000762939453,25.200000762939453,25.06999969482422,25.149999618530273,21.985811233520508,9400
2019-07-03,25.18000030517578,25.18000030517578,25.06999969482422,25.100000381469727,21.942102432250977,17500
2019-07-05,25.15999984741211,25.170000076293945,25.110000610351562,25.15999984741211,21.994552612304688,5800
2019-07-08,25.15999984741211,25.239999771118164,25.110000610351562,25.139999389648438,21.977066040039062,26200
2019-07-09,25.1299991607666,25.149999618530273,25.079999923706055,25.079999923706055,21.924617767333984,22900
2019-07-10,25.18000030517578,25.18000030517578,25.100000381469727,25.18000030517578,22.012039184570312,6800
2019-07-11,25.200000762939453,25.200000762939453,25.149999618530273,25.149999618530273,21.985811233520508,13000
2019-07-12,25.18000030517578,25.239999771118164,25.149999618530273,25.239999771118164,22.06448745727539,10000
2019-07-15,25.239999771118164,25.239999771118164,25.209999084472656,25.229999542236328,22.055744171142578,11300
2019-07-16,25.290000915527344,25.34000015258789,25.290000915527344,25.34000015258789,22.15190887451172,17300
2019-07-17,25.360000610351562,25.389999389648438,25.270000457763672,25.3799991607666,22.186874389648438,59000
2019-07-18,25.3799991607666,25.469999313354492,25.319000244140625,25.389999389648438,22.195615768432617,20200
2019-07-19,25.399999618530273,25.451000213623047,25.360000610351562,25.420000076293945,22.221839904785156,27900
2019-07-22,25.420000076293945,25.479999542236328,25.375,25.479999542236328,22.274293899536133,11900
2019-07-23,25.479999542236328,25.540000915527344,25.3799991607666,25.540000915527344,22.326745986938477,36900
2019-07-24,25.549999237060547,25.700000762939453,25.510000228881836,25.700000762939453,22.466615676879883,10100
2019-07-25,25.700000762939453,25.790000915527344,25.600000381469727,25.770000457763672,22.527809143066406,11700
2019-07-26,25.790000915527344,25.8799991607666,25.780000686645508,25.8799991607666,22.623966217041016,10400
2019-07-29,25.860000610351562,25.920000076293945,25.59000015258789,25.600000381469727,22.379196166992188,60500
2019-07-30,25.649999618530273,25.729999542236328,25.56999969482422,25.690000534057617,22.45787239074707,13100
2019-07-31,25.65999984741211,25.75,25.5,25.68000030517578,22.449129104614258,125700
2019-08-01,25.610000610351562,25.68000030517578,25.530000686645508,25.670000076293945,22.44038963317871,5400
2019-08-02,25.68000030517578,25.68000030517578,25.549999237060547,25.649999618530273,22.42290496826172,6900
2019-08-05,25.6299991607666,25.6299991607666,25.440000534057617,25.459999084472656,22.256811141967773,21700
2019-08-06,25.479999542236328,25.549999237060547,25.450000762939453,25.549999237060547,22.335485458374023,9400
2019-08-07,25.5,25.549999237060547,25.399999618530273,25.549999237060547,22.335485458374023,12900
2019-08-08,25.540000915527344,25.549999237060547,25.493999481201172,25.549999237060547,22.335485458374023,10100
2019-08-09,25.549999237060547,25.690000534057617,25.549999237060547,25.670000076293945,22.44038963317871,16200
2019-08-12,25.690000534057617,25.75,25.559999465942383,25.729999542236328,22.492839813232422,5800
2019-08-13,25.729999542236328,25.770000457763672,25.510000228881836,25.700000762939453,22.466615676879883,29600
2019-08-14,25.700000762939453,25.739999771118164,25.670000076293945,25.690000534057617,22.45787239074707,23400
2019-08-15,25.709999084472656,25.709999084472656,25.6200008392334,25.65999984741211,22.431644439697266,19600
2019-08-16,25.709999084472656,25.75,25.700000762939453,25.739999771118164,22.5015811920166,8600
2019-08-19,25.709999084472656,25.790000915527344,25.709999084472656,25.790000915527344,22.545289993286133,11000
2019-08-20,25.790000915527344,25.799999237060547,25.700000762939453,25.799999237060547,22.554031372070312,11400
2019-08-21,25.799999237060547,25.8799991607666,25.7549991607666,25.850000381469727,22.597742080688477,12800
2019-08-22,25.850000381469727,25.940000534057617,25.649999618530273,25.920000076293945,22.658935546875,17600
2019-08-23,25.93000030517578,26.049999237060547,25.899999618530273,26.0,22.72886848449707,12900
2019-08-26,26.0,26.0,25.860000610351562,25.959999084472656,22.69390296936035,7800
2019-08-27,26.0,26.100000381469727,25.989999771118164,26.100000381469727,22.816287994384766,13100
2019-08-28,26.100000381469727,26.149999618530273,26.049999237060547,26.1299991607666,22.842514038085938,25200
2019-08-29,25.700000762939453,25.93000030517578,25.700000762939453,25.93000030517578,23.025440216064453,34500
2019-08-30,25.950000762939453,25.969999313354492,25.850000381469727,25.899999618530273,22.99880027770996,60000
2019-09-03,25.899999618530273,25.899999618530273,25.709999084472656,25.799999237060547,22.90999984741211,18800
2019-09-04,25.799999237060547,25.889999389648438,25.75,25.889999389648438,22.989919662475586,41900
2019-09-05,25.889999389648438,25.920000076293945,25.889999389648438,25.920000076293945,23.016559600830078,17800
2019-09-06,25.920000076293945,26.040000915527344,25.875,26.040000915527344,23.123119354248047,20500
2019-09-09,26.030000686645508,26.040000915527344,25.892000198364258,25.950000762939453,23.043197631835938,13700
2019-09-10,25.760000228881836,26.020000457763672,25.760000228881836,26.010000228881836,23.096477508544922,43600
2019-09-11,25.950000762939453,26.020000457763672,25.8799991607666,26.0,23.087596893310547,15900
2019-09-12,26.030000686645508,26.030000686645508,25.940000534057617,26.010000228881836,23.096477508544922,4700
2019-09-13,26.010000228881836,26.010000228881836,25.540000915527344,25.700000762939453,22.821205139160156,10900
2019-09-16,25.860000610351562,25.860000610351562,25.600000381469727,25.670000076293945,22.79456329345703,7500
2019-09-17,25.700000762939453,25.860000610351562,25.700000762939453,25.850000381469727,22.95440101623535,7700
2019-09-18,25.799999237060547,25.8700008392334,25.670000076293945,25.860000610351562,22.963279724121094,28400
2019-09-19,25.8700008392334,25.989999771118164,25.860000610351562,25.940000534057617,23.034317016601562,10000
2019-09-20,26.040000915527344,26.049999237060547,25.96500015258789,26.0,23.087596893310547,35900
2019-09-23,26.0,26.04800033569336,25.889999389648438,25.959999084472656,23.052078247070312,14000
2019-09-24,26.030000686645508,26.030000686645508,25.93000030517578,26.0,23.087596893310547,3500
2019-09-25,26.0,26.06999969482422,25.950000762939453,26.06999969482422,23.149757385253906,7100
2019-09-26,26.09000015258789,26.09000015258789,25.899999618530273,25.959999084472656,23.052078247070312,13400
2019-09-27,25.989999771118164,26.100000381469727,25.950000762939453,26.100000381469727,23.176395416259766,132800
2019-09-30,26.049999237060547,26.229999542236328,26.0,26.229999542236328,23.291833877563477,79500
2019-10-01,26.239999771118164,26.290000915527344,26.079999923706055,26.25,23.309595108032227,22200
2019-10-02,26.25,26.268999099731445,26.079999923706055,26.079999923706055,23.15863609313965,10200
2019-10-03,26.149999618530273,26.149999618530273,26.042999267578125,26.100000381469727,23.176395416259766,8300
2019-10-04,26.100000381469727,26.170000076293945,26.020000457763672,26.065000534057617,23.145320892333984,16500
2019-10-07,26.100000381469727,26.149999618530273,26.049999237060547,26.1299991607666,23.203035354614258,55900
2019-10-08,26.1299991607666,26.15999984741211,26.100000381469727,26.139999389648438,23.211917877197266,23900
2019-10-09,26.139999389648438,26.280000686645508,26.0,26.149999618530273,23.220792770385742,26800
2019-10-10,26.270000457763672,26.280000686645508,26.110000610351562,26.149999618530273,23.220792770385742,26400
2019-10-11,26.280000686645508,26.280000686645508,26.09000015258789,26.100000381469727,23.176395416259766,22300
2019-10-14,26.15999984741211,26.350000381469727,26.1200008392334,26.350000381469727,23.398395538330078,13700
2019-10-15,26.3700008392334,26.3700008392334,26.239999771118164,26.299999237060547,23.353994369506836,10100
2019-10-16,26.360000610351562,26.360000610351562,26.18000030517578,26.270000457763672,23.327356338500977,14800
2019-10-17,26.309999465942383,26.479999542236328,26.200000762939453,26.479999542236328,23.513832092285156,25000
2019-10-18,26.350000381469727,26.739999771118164,26.299999237060547,26.579999923706055,23.602628707885742,86600
2019-10-21,26.59000015258789,26.809999465942383,26.59000015258789,26.799999237060547,23.797985076904297,25000
2019-10-22,26.790000915527344,26.969999313354492,26.75,26.889999389648438,23.87790298461914,14500
2019-10-23,26.979999542236328,26.989999771118164,26.780000686645508,26.90999984741211,23.89566421508789,13900
2019-10-24,26.889999389648438,26.94700050354004,26.799999237060547,26.899999618530273,23.88678550720215,7800
2019-10-25,26.940000534057617,26.940000534057617,26.829999923706055,26.829999923706055,23.824623107910156,12500
2019-10-28,26.989999771118164,26.989999771118164,26.530000686645508,26.540000915527344,23.567110061645508,20600
2019-10-29,26.639999389648438,26.639999389648438,26.450000762939453,26.450000762939453,23.487192153930664,18700
2019-10-30,26.530000686645508,27.219999313354492,26.469999313354492,26.709999084472656,23.718067169189453,19900
2019-10-31,26.709999084472656,26.829999923706055,26.510000228881836,26.709999084472656,23.718067169189453,65000
2019-11-01,26.520000457763672,26.635000228881836,26.520000457763672,26.600000381469727,23.620389938354492,9000
2019-11-04,26.600000381469727,26.600000381469727,26.510000228881836,26.56999969482422,23.593748092651367,3000
2019-11-05,26.559999465942383,26.56999969482422,26.420000076293945,26.56999969482422,23.593748092651367,5100
2019-11-06,26.56999969482422,26.56999969482422,26.25,26.25,23.309595108032227,29300
2019-11-07,26.450000762939453,26.450000762939453,26.170000076293945,26.170000076293945,23.238555908203125,6900
2019-11-08,26.239999771118164,26.290000915527344,25.989999771118164,26.110000610351562,23.18527603149414,14800
2019-11-11,26.166000366210938,26.350000381469727,26.010000228881836,26.190000534057617,23.256315231323242,5900
2019-11-12,26.040000915527344,26.260000228881836,26.040000915527344,26.1200008392334,23.194156646728516,7800
2019-11-13,26.110000610351562,26.200000762939453,26.059999465942383,26.06999969482422,23.149757385253906,9100
2019-11-14,26.420000076293945,26.43000030517578,26.02899932861328,26.059999465942383,23.14087677001953,24400
2019-11-15,25.959999084472656,26.079999923706055,25.850000381469727,26.0,23.087596893310547,39200
2019-11-18,26.059999465942383,26.18000030517578,26.059999465942383,26.15399932861328,23.224346160888672,9000
2019-11-19,26.18000030517578,26.18000030517578,26.100000381469727,26.170000076293945,23.238555908203125,3400
2019-11-20,26.149999618530273,26.149999618530273,25.920000076293945,25.950000762939453,23.043197631835938,13100
2019-11-21,26.110000610351562,26.139999389648438,26.06999969482422,26.1299991607666,23.203035354614258,7500
2019-11-22,26.190000534057617,26.190000534057617,26.040000915527344,26.059999465942383,23.14087677001953,17000
2019-11-25,26.139999389648438,26.18000030517578,26.079999923706055,26.110000610351562,23.18527603149414,8800
2019-11-26,26.18000030517578,26.18000030517578,26.09000015258789,26.09000015258789,23.167516708374023,10400
2019-11-27,26.149999618530273,26.170000076293945,26.059999465942383,26.100000381469727,23.176395416259766,45300
2019-11-29,25.75,25.760000228881836,25.3700008392334,25.510000228881836,23.010427474975586,42300
2019-12-02,25.601999282836914,25.601999282836914,25.25,25.3799991607666,22.89316177368164,37100
2019-12-03,25.389999389648438,25.549999237060547,25.3700008392334,25.5,23.00140380859375,13700
2019-12-04,25.549999237060547,25.709999084472656,25.549999237060547,25.670000076293945,23.154748916625977,7500
2019-12-05,25.579999923706055,25.68000030517578,25.510000228881836,25.639999389648438,23.127689361572266,7000
2019-12-06,25.68000030517578,25.700000762939453,25.469999313354492,25.690000534057617,23.172788619995117,17400
2019-12-09,25.700000762939453,25.700000762939453,25.540000915527344,25.700000762939453,23.18181037902832,7000
2019-12-10,25.6200008392334,25.674999237060547,25.6200008392334,25.670000076293945,23.154748916625977,7100
2019-12-11,25.700000762939453,25.780000686645508,25.579999923706055,25.770000457763672,23.244949340820312,25300
2019-12-12,25.809999465942383,25.809999465942383,25.6200008392334,25.68000030517578,23.163766860961914,29900
2019-12-13,25.670000076293945,25.780000686645508,25.6200008392334,25.709999084472656,23.190828323364258,16000
2019-12-16,25.829999923706055,25.860000610351562,25.75,25.844999313354492,23.31260108947754,9500
2019-12-17,25.850000381469727,25.850000381469727,25.700000762939453,25.82900047302246,23.29817008972168,10000
2019-12-18,25.829999923706055,25.8700008392334,25.729999542236328,25.760000228881836,23.235931396484375,6400
2019-12-19,25.84000015258789,25.889999389648438,25.780000686645508,25.799999237060547,23.272008895874023,6100
2019-12-20,25.8700008392334,25.8700008392334,25.827999114990234,25.8700008392334,23.33515167236328,5900
2019-12-23,25.850000381469727,25.850000381469727,25.809999465942383,25.84000015258789,23.308090209960938,34300
2019-12-24,25.760000228881836,25.850000381469727,25.760000228881836,25.850000381469727,23.31711196899414,8200
2019-12-26,25.8700008392334,25.959999084472656,25.8700008392334,25.959999084472656,23.416332244873047,6700
2019-12-27,25.969999313354492,25.979999542236328,25.910999298095703,25.910999298095703,23.372133255004883,10300
2019-12-30,25.94300079345703,25.952999114990234,25.850000381469727,25.920000076293945,23.380252838134766,13900
2019-12-31,25.920000076293945,25.969999313354492,25.891000747680664,25.969999313354492,23.425352096557617,4900
2020-01-02,25.969999313354492,26.049999237060547,25.90999984741211,26.049999237060547,23.497514724731445,73400
2020-01-03,26.049999237060547,26.190000534057617,26.049999237060547,26.09000015258789,23.533594131469727,39200
2020-01-06,26.139999389648438,26.165000915527344,26.06999969482422,26.15999984741211,23.59673500061035,39100
2020-01-07,26.170000076293945,26.170000076293945,26.1200008392334,26.15999984741211,23.59673500061035,17200
2020-01-08,26.15999984741211,26.18000030517578,26.059999465942383,26.110000610351562,23.5516357421875,513800
2020-01-09,26.18000030517578,26.219999313354492,26.15999984741211,26.219999313354492,23.650856018066406,20000
2020-01-10,26.239999771118164,26.239999771118164,26.18000030517578,26.190000534057617,23.623794555664062,8800
2020-01-13,26.260000228881836,26.260000228881836,26.200000762939453,26.239999771118164,23.668895721435547,4000
2020-01-14,26.25,26.290000915527344,26.239999771118164,26.290000915527344,23.714000701904297,8800
2020-01-15,26.290000915527344,26.290000915527344,26.25,26.290000915527344,23.714000701904297,5700
2020-01-16,26.290000915527344,26.290000915527344,26.1200008392334,26.190000534057617,23.623794555664062,9800
2020-01-17,26.15999984741211,26.34000015258789,26.149999618530273,26.209999084472656,23.641836166381836,32800
2020-01-21,26.209999084472656,26.290000915527344,26.209999084472656,26.270000457763672,23.695959091186523,7500
2020-01-22,26.290000915527344,26.34000015258789,26.264999389648438,26.299999237060547,23.72301483154297,14600
2020-01-23,26.299999237060547,26.350000381469727,26.299999237060547,26.350000381469727,23.76811981201172,4500
2020-01-24,26.299999237060547,26.389999389648438,26.299999237060547,26.389999389648438,23.80419921875,7400
2020-01-27,26.389999389648438,26.389999389648438,26.200000762939453,26.299999237060547,23.72301483154297,1500
2020-01-28,26.34000015258789,26.34000015258789,26.31999969482422,26.31999969482422,23.741056442260742,1400
2020-01-29,26.3799991607666,26.389999389648438,26.354999542236328,26.3799991607666,23.795177459716797,4600
2020-01-30,26.3799991607666,26.440000534057617,26.368999481201172,26.422000885009766,23.833066940307617,4700
2020-01-31,26.450000762939453,26.639999389648438,26.450000762939453,26.600000381469727,23.993621826171875,48300
2020-02-03,26.579999923706055,26.739999771118164,26.579999923706055,26.610000610351562,24.00264549255371,17200
2020-02-04,26.649999618530273,26.790000915527344,26.6200008392334,26.790000915527344,24.165008544921875,12700
2020-02-05,26.799999237060547,26.8799991607666,26.799999237060547,26.84000015258789,24.210105895996094,6700
2020-02-06,26.899999618530273,26.93000030517578,26.8700008392334,26.93000030517578,24.291288375854492,3400
2020-02-07,26.940000534057617,26.959999084472656,26.834999084472656,26.940000534057617,24.30030632019043,16200
2020-02-10,26.979999542236328,26.979999542236328,26.729999542236328,26.729999542236328,24.110883712768555,59600
2020-02-11,26.889999389648438,26.889999389648438,26.600000381469727,26.6299991607666,24.020681381225586,19800
2020-02-12,26.75,26.850000381469727,26.65999984741211,26.65999984741211,24.047744750976562,43200
2020-02-13,26.75,26.790000915527344,26.610000610351562,26.790000915527344,24.165008544921875,22400
2020-02-14,26.799999237060547,26.799999237060547,26.610000610351562,26.610000610351562,24.00264549255371,4700
2020-02-18,26.729999542236328,26.780000686645508,26.670000076293945,26.684999465942383,24.070293426513672,22700
2020-02-19,26.760000228881836,26.790000915527344,26.510000228881836,26.510000228881836,23.91244125366211,17200
2020-02-20,26.510000228881836,26.760000228881836,26.510000228881836,26.760000228881836,24.1379451751709,3100
2020-02-21,26.600000381469727,26.69099998474121,26.600000381469727,26.610000610351562,24.00264549255371,4100
2020-02-24,26.600000381469727,26.600000381469727,26.309999465942383,26.350000381469727,23.76811981201172,15600
2020-02-25,26.3700008392334,26.472000122070312,25.860000610351562,25.860000610351562,23.32613182067871,19400
2020-02-26,25.8700008392334,26.173999786376953,25.8700008392334,26.03499984741211,23.483985900878906,17000
2020-02-27,25.5,25.71500015258789,25.06999969482422,25.420000076293945,22.929244995117188,39800
2020-02-28,25.209999084472656,25.209999084472656,24.639999389648438,25.0,22.916410446166992,36000
2020-03-02,25.0,25.479999542236328,25.0,25.25,23.145572662353516,16600
2020-03-03,25.452999114990234,25.75,25.25,25.34000015258789,23.228073120117188,22800
2020-03-04,25.5049991607666,25.84000015258789,25.399999618530273,25.75,23.60390281677246,17400
2020-03-05,25.61199951171875,25.649999618530273,25.600000381469727,25.649999618530273,23.512239456176758,5000
2020-03-06,25.600000381469727,25.639999389648438,25.170000076293945,25.170000076293945,23.07224464416504,26900
2020-03-09,24.0,24.600000381469727,21.739999771118164,22.75,20.853931427001953,37500
2020-03-10,23.25,24.440000534057617,23.197999954223633,24.260000228881836,22.23808479309082,22100
2020-03-11,24.020000457763672,24.020000457763672,22.0,22.25,20.395605087280273,42000
2020-03-12,21.75,21.979999542236328,16.149999618530273,21.59000015258789,19.790613174438477,166200
2020-03-13,22.020000457763672,23.729999542236328,22.000999450683594,22.889999389648438,20.982267379760742,141300
2020-03-16,21.059999465942383,21.059999465942383,18.649999618530273,19.110000610351562,17.51730728149414,88800
2020-03-17,18.1200008392334,18.832000732421875,15.579999923706055,17.209999084472656,15.775655746459961,71100
2020-03-18,16.959999084472656,16.959999084472656,12.300000190734863,12.3100004196167,11.284040451049805,87400
2020-03-19,12.5,15.600000381469727,11.579999923706055,13.75,12.604025840759277,75600
2020-03-20,14.010000228881836,15.5,13.010000228881836,13.020000457763672,11.934866905212402,54100
2020-03-23,13.100000381469727,14.34000015258789,11.0,12.0,10.999876022338867,70200
2020-03-24,13.59000015258789,15.59000015258789,13.359999656677246,14.78499984741211,13.552764892578125,45400
2020-03-25,15.416000366210938,17.829999923706055,15.300000190734863,17.709999084472656,16.233983993530273,40800
2020-03-26,18.68000030517578,19.84000015258789,17.020000457763672,19.489999771118164,17.865633010864258,59600
2020-03-27,18.40999984741211,18.799999237060547,17.5,17.5,16.041488647460938,45300
2020-03-30,16.700000762939453,18.399999618530273,16.700000762939453,17.65999984741211,16.188154220581055,73700
2020-03-31,17.989999771118164,19.399999618530273,16.700000762939453,17.1299991607666,15.702324867248535,65300
2020-04-01,17.200000762939453,17.259000778198242,16.100000381469727,16.729999542236328,15.335659980773926,58400
2020-04-02,16.510000228881836,17.489999771118164,16.059999465942383,16.68000030517578,15.289828300476074,45300
2020-04-03,16.579999923706055,16.691999435424805,15.170000076293945,16.600000381469727,15.216496467590332,64800
2020-04-06,17.850000381469727,17.860000610351562,16.75,17.0,15.583160400390625,48400
2020-04-07,17.149999618530273,18.25,17.040000915527344,18.079999923706055,16.57314682006836,77600
2020-04-08,17.75,20.0,17.75,19.75,18.103965759277344,96700
2020-04-09,21.0,22.0,20.639999389648438,21.290000915527344,19.51561737060547,53600
2020-04-13,21.079999923706055,21.079999923706055,19.6200008392334,19.6200008392334,17.984798431396484,64100
2020-04-14,20.0,21.309999465942383,19.700000762939453,20.93000030517578,19.185617446899414,49800
2020-04-15,20.799999237060547,20.989999771118164,20.059999465942383,20.829999923706055,19.09395408630371,30900
2020-04-16,20.329999923706055,20.989999771118164,20.1200008392334,20.920000076293945,19.17645263671875,15600
2020-04-17,22.719999313354492,22.719999313354492,20.579999923706055,20.709999084472656,18.98395538330078,68400
2020-04-20,20.610000610351562,21.0,20.360000610351562,20.5,18.791458129882812,17700
2020-04-21,20.399999618530273,20.43899917602539,19.149999618530273,19.149999618530273,17.553970336914062,28600
2020-04-22,19.799999237060547,20.100000381469727,19.489999771118164,19.809999465942383,18.158964157104492,22600
2020-04-23,20.0,20.13800048828125,19.56999969482422,19.75,18.103965759277344,41800
2020-04-24,19.950000762939453,19.950000762939453,19.69099998474121,19.799999237060547,18.149795532226562,70200
2020-04-27,19.989999771118164,20.350000381469727,19.860000610351562,20.19499969482422,18.511877059936523,39000
2020-04-28,20.280000686645508,20.84000015258789,20.215999603271484,20.59000015258789,18.87395668029785,16200
2020-04-29,20.799999237060547,21.65999984741211,20.799999237060547,21.479999542236328,19.68977928161621,44200
2020-04-30,21.75,22.040000915527344,21.100000381469727,21.450000762939453,19.662281036376953,54600
2020-05-01,21.399999618530273,21.52199935913086,20.84000015258789,21.350000381469727,19.570615768432617,38100
2020-05-04,21.040000915527344,21.489999771118164,21.040000915527344,21.469999313354492,19.680614471435547,17300
2020-05-05,21.510000228881836,21.989999771118164,21.299999237060547,21.54599952697754,19.75027847290039,14100
2020-05-06,21.90999984741211,22.075000762939453,20.540000915527344,20.610000610351562,18.892288208007812,25500
2020-05-07,20.610000610351562,21.0,20.610000610351562,20.639999389648438,18.919788360595703,18200
2020-05-08,20.93000030517578,21.73900032043457,20.93000030517578,21.25,19.478946685791016,28300
2020-05-11,21.25,21.549999237060547,21.16200065612793,21.450000762939453,19.662281036376953,28400
2020-05-12,21.260000228881836,21.48699951171875,21.0,21.0,19.249784469604492,25700
2020-05-13,20.700000762939453,21.200000762939453,19.510000228881836,19.690000534057617,18.048967361450195,51500
2020-05-14,19.649999618530273,19.790000915527344,18.700000762939453,19.399999618530273,17.78313446044922,74300
2020-05-15,19.540000915527344,20.209999084472656,19.25,20.209999084472656,18.52562713623047,19200
2020-05-18,20.8799991607666,20.8799991607666,19.899999618530273,19.899999618530273,18.24146270751953,29900
2020-05-19,20.0,20.329999923706055,19.459999084472656,19.499000549316406,17.873884201049805,24100
2020-05-20,19.600000381469727,20.03499984741211,19.56999969482422,19.690000534057617,18.048967361450195,12000
2020-05-21,19.68000030517578,19.92300033569336,19.15999984741211,19.15999984741211,17.563135147094727,24800
2020-05-22,19.489999771118164,19.520000457763672,19.170000076293945,19.399999618530273,17.78313446044922,26000
2020-05-26,19.600000381469727,20.049999237060547,19.450000762939453,19.799999237060547,18.149795532226562,28100
2020-05-27,19.979999542236328,20.68000030517578,19.790000915527344,20.479999542236328,18.773122787475586,27500
2020-05-28,20.479999542236328,21.229999542236328,20.479999542236328,20.780000686645508,19.04812240600586,20600
2020-05-29,20.68000030517578,20.68000030517578,19.85300064086914,20.190000534057617,18.876094818115234,19800
2020-06-01,20.200000762939453,20.75,20.110000610351562,20.579999923706055,19.24071502685547,24200
2020-06-02,20.424999237060547,20.67099952697754,20.172000885009766,20.229999542236328,18.91349220275879,26700
2020-06-03,20.469999313354492,20.5,20.149999618530273,20.469999313354492,19.137874603271484,30000
2020-06-04,20.5,20.940000534057617,20.440000534057617,20.940000534057617,19.577289581298828,22200
2020-06-05,21.149999618530273,21.850000381469727,21.149999618530273,21.639999389648438,20.231735229492188,49400
2020-06-08,21.829999923706055,22.45800018310547,21.829999923706055,22.25,20.802034378051758,46600
2020-06-09,22.110000610351562,22.110000610351562,21.700000762939453,21.729999542236328,20.31587791442871,18100
2020-06-10,21.940000534057617,21.940000534057617,21.100000381469727,21.489999771118164,20.091495513916016,19900
2020-06-11,21.0,21.0,19.360000610351562,19.510000228881836,18.24034881591797,30300
2020-06-12,20.719999313354492,20.719999313354492,19.600000381469727,19.790000915527344,18.502126693725586,18100
2020-06-15,19.600000381469727,19.81999969482422,19.466999053955078,19.649999618530273,18.371238708496094,20700
2020-06-16,20.399999618530273,20.510000228881836,19.829999923706055,20.100000381469727,18.79195213317871,30800
2020-06-17,20.170000076293945,20.170000076293945,19.760000228881836,19.81999969482422,18.530174255371094,24800
2020-06-18,19.809999465942383,20.0,19.670000076293945,19.780000686645508,18.492778778076172,13200
2020-06-19,19.899999618530273,20.100000381469727,19.56999969482422,19.770000457763672,18.483427047729492,21600
2020-06-22,19.6299991607666,19.65999984741211,19.385000228881836,19.6200008392334,18.343191146850586,17800
2020-06-23,19.649999618530273,19.709999084472656,19.420000076293945,19.610000610351562,18.333839416503906,20100
2020-06-24,19.6299991607666,19.6299991607666,18.229000091552734,18.969999313354492,17.735488891601562,30500
2020-06-25,19.17799949645996,19.17799949645996,18.670000076293945,18.84000015258789,17.613950729370117,20500
2020-06-26,18.84000015258789,18.84000015258789,17.81999969482422,17.979999542236328,16.80991554260254,26800
2020-06-29,18.229999542236328,18.36199951171875,17.59000015258789,18.110000610351562,16.931455612182617,39100
2020-06-30,18.09000015258789,19.283000946044922,18.09000015258789,18.280000686645508,17.09039306640625,70500
2020-07-01,18.6299991607666,18.899999618530273,18.510000228881836,18.899999618530273,17.670042037963867,24800
2020-07-02,19.149999618530273,19.424999237060547,19.09000015258789,19.139999389648438,17.894426345825195,12200
2020-07-06,19.17300033569336,19.399999618530273,19.139999389648438,19.145000457763672,17.89910125732422,15700
2020-07-07,19.496000289916992,19.496000289916992,18.860000610351562,18.90999984741211,17.679393768310547,7600
2020-07-08,18.899999618530273,19.391000747680664,18.540000915527344,18.649999618530273,17.436315536499023,11500
2020-07-09,18.79400062561035,18.8700008392334,18.540000915527344,18.8700008392334,17.641996383666992,10400
2020-07-10,18.799999237060547,18.989999771118164,18.600000381469727,18.780000686645508,17.5578556060791,8100
2020-07-13,18.799999237060547,18.950000762939453,18.665000915527344,18.700000762939453,17.483060836791992,23800
2020-07-14,18.799999237060547,18.819000244140625,18.600000381469727,18.600000381469727,17.38956642150879,17200
2020-07-15,18.600000381469727,19.079999923706055,18.600000381469727,19.079999923706055,17.83833122253418,28700
2020-07-16,19.0,19.263999938964844,18.860000610351562,18.979999542236328,17.744836807250977,17500
2020-07-17,19.270000457763672,19.270000457763672,19.0,19.25,17.997268676757812,11900
2020-07-20,19.20599937438965,19.423999786376953,19.020000457763672,19.020000457763672,17.782236099243164,12000
2020-07-21,19.190000534057617,19.729999542236328,19.020000457763672,19.270000457763672,18.015966415405273,23700
2020-07-22,19.190000534057617,19.433000564575195,19.1200008392334,19.1200008392334,17.875728607177734,15700
2020-07-23,19.1200008392334,19.260000228881836,19.020000457763672,19.09000015258789,17.847681045532227,32000
2020-07-24,19.020000457763672,19.15999984741211,19.010000228881836,19.149999618530273,17.90377426147461,3300
2020-07-27,19.350000381469727,19.43000030517578,19.290000915527344,19.290000915527344,18.034666061401367,7900
2020-07-28,19.18000030517578,19.440000534057617,19.18000030517578,19.290000915527344,18.034666061401367,12800
2020-07-29,19.440000534057617,19.961999893188477,19.299999237060547,19.87700080871582,18.583463668823242,17900
2020-07-30,19.889999389648438,20.190000534057617,19.700000762939453,19.989999771118164,18.689109802246094,19800
2020-07-31,20.059999465942383,20.15999984741211,19.850000381469727,20.049999237060547,18.745206832885742,16500
2020-08-03,19.979999542236328,20.6299991607666,19.950000762939453,20.45400047302246,19.12291717529297,20600
2020-08-04,20.450000762939453,20.450000762939453,19.8799991607666,20.100000381469727,18.79195213317871,15800
2020-08-05,20.100000381469727,20.239999771118164,20.020000457763672,20.18000030517578,18.866748809814453,8600
2020-08-06,20.049999237060547,20.18000030517578,19.6299991607666,19.649999618530273,18.371238708496094,9200
2020-08-07,19.950000762939453,20.110000610351562,19.739999771118164,19.950000762939453,18.651716232299805,14300
2020-08-10,20.0,20.3700008392334,20.0,20.059999465942383,18.754554748535156,27400
2020-08-11,20.270000457763672,20.55500030517578,20.049999237060547,20.15999984741211,18.848047256469727,36900
2020-08-12,20.229999542236328,21.399999618530273,20.229999542236328,21.389999389648438,19.998003005981445,44200
2020-08-13,21.5,21.75,20.90999984741211,21.040000915527344,19.6707820892334,26000
2020-08-14,20.860000610351562,21.670000076293945,20.860000610351562,21.575000762939453,20.170963287353516,7800
2020-08-17,21.59000015258789,21.690000534057617,21.44499969482422,21.690000534057617,20.278480529785156,6500
2020-08-18,21.719999313354492,22.229999542236328,21.719999313354492,22.200000762939453,20.755292892456055,14500
2020-08-19,22.200000762939453,22.2810001373291,22.040000915527344,22.15999984741211,20.717893600463867,7400
2020-08-20,22.049999237060547,22.399999618530273,21.75,21.75,20.334575653076172,18000
2020-08-21,22.059999465942383,22.399999618530273,21.933000564575195,22.399999618530273,20.942276000976562,4700
2020-08-24,22.459999084472656,22.750999450683594,22.209999084472656,22.469999313354492,21.007719039916992,22100
2020-08-25,22.5,22.927000045776367,22.5,22.5,21.0357666015625,16900
2020-08-26,22.66699981689453,22.889999389648438,22.5,22.770000457763672,21.288196563720703,14300
2020-08-27,22.760000228881836,22.850000381469727,22.600000381469727,22.65999984741211,21.18535614013672,23500
2020-08-28,23.0,23.1299991607666,22.479999542236328,22.549999237060547,21.0825138092041,50200
2020-08-31,22.538999557495117,22.538999557495117,22.06999969482422,22.25,21.18343162536621,11900
2020-09-01,22.30500030517578,22.315000534057617,22.06100082397461,22.200000762939453,21.13582992553711,8100
2020-09-02,22.190000534057617,22.299999237060547,22.0,22.0,20.945415496826172,10400
2020-09-03,22.0,22.125,22.0,22.0,20.945415496826172,6300
2020-09-04,22.25,22.25,21.510000228881836,21.84000015258789,20.7930850982666,11400
2020-09-08,21.56999969482422,21.875,21.56999969482422,21.770000457763672,20.726442337036133,11600
2020-09-09,21.770000457763672,21.899999618530273,21.75,21.75,20.707399368286133,7900
2020-09-10,21.770000457763672,21.899999618530273,21.40999984741211,21.40999984741211,20.383697509765625,6900
2020-09-11,21.649999618530273,22.010000228881836,21.649999618530273,21.809999465942383,20.764522552490234,16500
2020-09-14,22.09000015258789,22.09000015258789,21.809999465942383,21.809999465942383,20.764522552490234,7700
2020-09-15,21.709999084472656,21.91900062561035,21.700000762939453,21.709999084472656,20.6693172454834,8800
2020-09-16,21.940000534057617,21.990999221801758,21.510000228881836,21.510000228881836,20.478904724121094,13000
2020-09-17,21.559999465942383,21.559999465942383,21.329999923706055,21.450000762939453,20.421781539916992,5200
2020-09-18,21.989999771118164,21.989999771118164,21.450000762939453,21.690000534057617,20.65027618408203,7200
2020-09-21,21.360000610351562,21.450000762939453,21.26799964904785,21.299999237060547,20.27897071838379,7900
2020-09-22,21.40999984741211,21.5,21.260000228881836,21.299999237060547,20.27897071838379,9500
2020-09-23,21.049999237060547,21.75,20.209999084472656,20.31999969482422,19.345949172973633,18800
2020-09-24,20.719999313354492,20.719999313354492,19.299999237060547,20.25,19.27930450439453,8800
2020-09-25,20.25,20.75,20.25,20.350000381469727,19.374509811401367,8600
2020-09-28,20.709999084472656,21.0,20.709999084472656,20.950000762939453,19.945749282836914,17900
2020-09-29,20.3700008392334,20.889999389648438,20.3700008392334,20.790000915527344,19.793418884277344,18700
2020-09-30,20.799999237060547,20.799999237060547,20.170000076293945,20.170000076293945,19.203136444091797,37500
2020-10-01,20.420000076293945,20.604999542236328,20.25,20.549999237060547,19.564922332763672,22000
2020-10-02,20.5,20.5,20.280000686645508,20.329999923706055,19.35546875,25400
2020-10-05,20.5,20.749000549316406,20.479999542236328,20.579999923706055,19.59348487854004,34400
2020-10-06,20.5,20.670000076293945,20.40999984741211,20.479999542236328,19.49827766418457,43400
2020-10-07,20.600000381469727,20.950000762939453,20.59000015258789,20.75,19.755334854125977,60800
2020-10-08,20.889999389648438,21.510000228881836,20.889999389648438,21.479999542236328,20.450342178344727,39800
2020-10-09,21.549999237060547,21.770000457763672,21.450000762939453,21.579999923706055,20.545549392700195,15300
2020-10-12,21.700000762939453,21.809999465942383,21.3439998626709,21.6200008392334,20.58363151550293,25200
2020-10-13,21.799999237060547,21.799999237060547,21.309999465942383,21.65999984741211,20.621713638305664,21500
2020-10-14,21.729999542236328,21.75,21.040000915527344,21.06999969482422,20.059995651245117,19000
2020-10-15,21.040000915527344,21.15999984741211,20.940000534057617,21.040000915527344,20.031436920166016,25600
2020-10-16,21.280000686645508,21.280000686645508,20.959999084472656,21.190000534057617,20.174243927001953,11400
2020-10-19,21.100000381469727,21.239999771118164,21.010000228881836,21.079999923706055,20.069517135620117,18000
2020-10-20,21.020000457763672,21.479999542236328,21.020000457763672,21.34000015258789,20.317054748535156,18600
2020-10-21,21.09000015258789,21.5,21.09000015258789,21.270000457763672,20.250410079956055,29200
2020-10-22,21.290000915527344,21.56999969482422,21.09000015258789,21.56999969482422,20.536029815673828,25400
2020-10-23,21.68000030517578,21.770000457763672,21.329999923706055,21.530000686645508,20.497947692871094,36900
2020-10-26,21.479999542236328,21.530000686645508,21.299999237060547,21.350000381469727,20.326574325561523,11800
2020-10-27,21.5,21.5,21.309999465942383,21.450000762939453,20.421781539916992,11600
2020-10-28,21.209999084472656,21.209999084472656,20.860000610351562,21.020000457763672,20.012393951416016,15700
2020-10-29,20.82200050354004,21.12700080871582,20.479999542236328,20.729999542236328,19.73629379272461,28200
2020-10-30,20.75,20.8799991607666,20.639999389648438,20.8799991607666,19.87910270690918,30400
2020-11-02,20.8799991607666,20.988000869750977,20.68000030517578,20.850000381469727,19.850543975830078,15300
2020-11-03,20.989999771118164,21.1200008392334,20.649999618530273,20.690000534057617,19.698211669921875,11200
2020-11-04,20.65999984741211,20.940000534057617,20.65999984741211,20.854999542236328,19.855302810668945,10500
2020-11-05,20.889999389648438,21.562000274658203,20.780000686645508,21.010000228881836,20.002872467041016,82700
2020-11-06,21.06999969482422,21.200000762939453,20.700000762939453,20.8700008392334,19.869583129882812,30400
2020-11-09,21.579999923706055,22.190000534057617,21.209999084472656,21.770000457763672,20.726442337036133,65100
2020-11-10,21.950000762939453,22.709999084472656,21.829999923706055,22.709999084472656,21.621381759643555,21000
2020-11-11,22.799999237060547,23.40999984741211,22.649999618530273,22.924999237060547,21.826074600219727,22300
2020-11-12,22.90999984741211,23.1200008392334,22.5,22.670000076293945,21.583297729492188,22200
2020-11-13,22.479999542236328,23.190000534057617,22.479999542236328,23.049999237060547,21.94508171081543,7800
2020-11-16,23.0,23.889999389648438,23.0,23.770000457763672,22.630569458007812,19700
2020-11-17,23.739999771118164,24.184999465942383,23.739999771118164,23.825000762939453,22.682933807373047,28400
2020-11-18,23.799999237060547,24.0,23.700000762939453,23.969999313354492,22.820981979370117,26500
2020-11-19,24.0,24.0,23.719999313354492,23.739999771118164,22.602008819580078,19200
2020-11-20,24.040000915527344,24.049999237060547,23.84000015258789,23.959999084472656,22.81146240234375,18000
2020-11-23,24.049999237060547,24.5,24.0,24.270000457763672,23.10660171508789,33700
2020-11-24,24.1200008392334,24.64900016784668,24.1200008392334,24.43000030517578,23.25893211364746,15600
2020-11-25,24.6200008392334,24.719999313354492,24.47100067138672,24.579999923706055,23.40174102783203,17300
2020-11-27,24.600000381469727,24.610000610351562,24.270000457763672,24.520000457763672,23.34461784362793,14400
2020-11-30,24.219999313354492,24.670000076293945,24.0,24.479999542236328,23.69894027709961,26400
2020-12-01,24.7189998626709,24.770000457763672,24.450000762939453,24.459999084472656,23.67957878112793,13700
2020-12-02,24.399999618530273,24.709999084472656,24.399999618530273,24.610000610351562,23.82479476928711,14600
2020-12-03,24.5,24.5,24.350000381469727,24.479999542236328,23.69894027709961,18400
2020-12-04,24.5,24.700000762939453,24.43199920654297,24.5,23.71830177307129,21500
2020-12-07,24.5,24.674999237060547,24.450000762939453,24.559999465942383,23.77638816833496,31800
2020-12-08,24.639999389648438,24.690000534057617,24.530000686645508,24.530000686645508,23.747346878051758,13900
2020-12-09,24.59000015258789,24.695999145507812,24.450000762939453,24.450000762939453,23.669898986816406,5800
2020-12-10,24.459999084472656,24.459999084472656,24.290000915527344,24.360000610351562,23.5827693939209,4100
2020-12-11,24.399999618530273,24.670000076293945,24.360000610351562,24.360000610351562,23.5827693939209,9600
2020-12-14,24.360000610351562,24.551000595092773,24.229999542236328,24.299999237060547,23.524682998657227,14200
2020-12-15,24.350000381469727,24.399999618530273,24.200000762939453,24.200000762939453,23.427875518798828,11900
2020-12-16,24.299999237060547,24.469999313354492,24.100000381469727,24.149999618530273,23.379470825195312,13600
2020-12-17,24.229999542236328,24.260000228881836,24.18000030517578,24.229999542236328,23.45691680908203,11200
2020-12-18,24.25,24.25,23.996999740600586,24.15999984741211,23.389150619506836,11300
2020-12-21,24.100000381469727,24.100000381469727,23.899999618530273,23.959999084472656,23.195531845092773,11000
2020-12-22,23.90999984741211,23.989999771118164,23.459999084472656,23.510000228881836,22.759889602661133,11500
2020-12-23,23.61199951171875,23.65999984741211,23.299999237060547,23.440000534057617,22.692123413085938,26000
2020-12-24,23.559999465942383,23.559999465942383,23.450000762939453,23.510000228881836,22.759889602661133,2500
2020-12-28,23.760000228881836,23.899999618530273,23.709999084472656,23.885000228881836,23.1229248046875,19200
2020-12-29,23.75,24.020000457763672,23.530000686645508,23.860000610351562,23.098722457885742,16200
2020-12-30,23.729999542236328,23.93000030517578,23.65999984741211,23.65999984741211,22.90510368347168,35100
