Date,Open,High,Low,Close,Adj Close,Volume
2019-10-18,16.1200008392334,16.989999771118164,15.805000305175781,16.350000381469727,16.350000381469727,1219200
2019-10-21,16.40999984741211,17.469999313354492,16.25,16.68000030517578,16.68000030517578,949200
2019-10-22,16.579999923706055,16.701000213623047,15.649999618530273,16.0,16.0,2064900
2019-10-23,15.979999542236328,16.700000762939453,15.729999542236328,16.25,16.25,4250700
2019-10-24,16.25,16.399999618530273,15.979999542236328,16.299999237060547,16.299999237060547,450700
2019-10-25,16.270000457763672,16.75,16.114999771118164,16.299999237060547,16.299999237060547,362700
2019-10-28,16.450000762939453,16.829999923706055,16.299999237060547,16.68000030517578,16.68000030517578,291100
2019-10-29,16.68000030517578,17.43000030517578,16.68000030517578,17.260000228881836,17.260000228881836,500200
2019-10-30,17.260000228881836,17.839000701904297,17.06999969482422,17.40999984741211,17.40999984741211,467500
2019-10-31,17.399999618530273,17.84000015258789,16.983999252319336,17.469999313354492,17.469999313354492,630900
2019-11-01,17.469999313354492,18.489999771118164,17.43899917602539,17.989999771118164,17.989999771118164,905500
2019-11-04,18.09000015258789,18.709999084472656,17.93000030517578,18.399999618530273,18.399999618530273,475500
2019-11-05,18.450000762939453,18.729999542236328,17.510000228881836,17.770000457763672,17.770000457763672,697100
2019-11-06,17.6200008392334,17.8700008392334,17.010000228881836,17.389999389648438,17.389999389648438,353200
2019-11-07,17.360000610351562,18.100000381469727,17.209999084472656,17.950000762939453,17.950000762939453,289000
2019-11-08,17.899999618530273,18.385000228881836,17.709999084472656,18.25,18.25,243100
2019-11-11,18.350000381469727,19.219999313354492,18.350000381469727,18.940000534057617,18.940000534057617,797300
2019-11-12,19.049999237060547,19.211000442504883,18.639999389648438,18.649999618530273,18.649999618530273,744000
2019-11-13,18.690000534057617,19.219999313354492,18.5,19.219999313354492,19.219999313354492,547500
2019-11-14,19.299999237060547,19.75,18.760000228881836,19.260000228881836,19.260000228881836,314300
2019-11-15,19.260000228881836,19.43600082397461,18.8799991607666,19.079999923706055,19.079999923706055,183600
2019-11-18,18.959999084472656,19.40999984741211,18.90999984741211,19.239999771118164,19.239999771118164,300700
2019-11-19,19.219999313354492,19.540000915527344,18.68000030517578,19.399999618530273,19.399999618530273,716800
2019-11-20,19.3700008392334,19.700000762939453,19.260000228881836,19.309999465942383,19.309999465942383,436300
2019-11-21,19.280000686645508,19.562999725341797,18.790000915527344,18.8700008392334,18.8700008392334,442000
2019-11-22,18.719999313354492,20.899999618530273,18.649999618530273,20.3700008392334,20.3700008392334,651900
2019-11-25,20.75,20.75,20.059999465942383,20.100000381469727,20.100000381469727,312300
2019-11-26,20.139999389648438,20.559999465942383,19.93000030517578,20.040000915527344,20.040000915527344,2192500
2019-11-27,20.040000915527344,20.239999771118164,19.989999771118164,20.09000015258789,20.09000015258789,253000
2019-11-29,20.100000381469727,20.260000228881836,20.010000228881836,20.030000686645508,20.030000686645508,84800
2019-12-02,20.100000381469727,20.53499984741211,19.959999084472656,20.229999542236328,20.229999542236328,698900
2019-12-03,20.200000762939453,20.479999542236328,20.020000457763672,20.25,20.25,525400
2019-12-04,20.280000686645508,20.899999618530273,20.280000686645508,20.799999237060547,20.799999237060547,744800
2019-12-05,20.75,21.259000778198242,20.450000762939453,20.770000457763672,20.770000457763672,392800
2019-12-06,20.959999084472656,21.06999969482422,20.559999465942383,21.0,21.0,367400
2019-12-09,21.079999923706055,21.339000701904297,20.719999313354492,21.239999771118164,21.239999771118164,1357100
2019-12-10,21.219999313354492,21.485000610351562,20.610000610351562,21.0,21.0,455000
2019-12-11,21.1299991607666,21.299999237060547,20.709999084472656,21.0,21.0,309100
2019-12-12,20.969999313354492,21.299999237060547,20.530000686645508,20.8700008392334,20.8700008392334,296400
2019-12-13,20.93000030517578,21.5,20.899999618530273,21.40999984741211,21.40999984741211,672400
2019-12-16,21.600000381469727,21.719999313354492,21.360000610351562,21.549999237060547,21.549999237060547,728600
2019-12-17,21.479999542236328,21.8799991607666,21.459999084472656,21.600000381469727,21.600000381469727,815400
2019-12-18,21.700000762939453,21.999000549316406,21.270000457763672,21.780000686645508,21.780000686645508,800900
2019-12-19,21.8700008392334,22.829999923706055,21.683000564575195,22.600000381469727,22.600000381469727,1494800
2019-12-20,22.81999969482422,22.989999771118164,22.020000457763672,22.1200008392334,22.1200008392334,6791100
2019-12-23,22.389999389648438,23.360000610351562,22.360000610351562,23.0,23.0,753600
2019-12-24,23.0,23.270000457763672,23.0,23.139999389648438,23.139999389648438,310500
2019-12-26,23.15999984741211,24.030000686645508,23.110000610351562,23.81999969482422,23.81999969482422,373300
2019-12-27,23.93000030517578,24.030000686645508,22.809999465942383,22.989999771118164,22.989999771118164,352500
2019-12-30,22.959999084472656,23.139999389648438,22.139999389648438,22.40999984741211,22.40999984741211,332900
2019-12-31,22.31999969482422,22.469999313354492,21.260000228881836,21.290000915527344,21.290000915527344,542200
2020-01-02,21.350000381469727,21.44499969482422,20.049999237060547,20.31999969482422,20.31999969482422,684500
2020-01-03,20.1200008392334,20.420000076293945,19.844999313354492,20.34000015258789,20.34000015258789,402500
2020-01-06,20.329999923706055,21.09000015258789,20.329999923706055,21.040000915527344,21.040000915527344,324500
2020-01-07,21.030000686645508,22.06999969482422,20.843000411987305,21.969999313354492,21.969999313354492,338600
2020-01-08,21.969999313354492,22.40999984741211,21.969999313354492,22.209999084472656,22.209999084472656,406700
2020-01-09,22.25,22.360000610351562,21.360000610351562,21.40999984741211,21.40999984741211,595200
2020-01-10,21.3799991607666,21.3799991607666,20.479999542236328,20.6299991607666,20.6299991607666,863500
2020-01-13,20.579999923706055,20.915000915527344,20.43000030517578,20.530000686645508,20.530000686645508,651000
2020-01-14,20.559999465942383,21.670000076293945,20.09000015258789,21.649999618530273,21.649999618530273,624100
2020-01-15,21.56999969482422,23.149999618530273,21.562999725341797,22.450000762939453,22.450000762939453,481500
2020-01-16,22.530000686645508,22.70800018310547,21.809999465942383,22.450000762939453,22.450000762939453,339100
2020-01-17,22.5,22.6299991607666,21.8700008392334,22.559999465942383,22.559999465942383,319400
2020-01-21,22.530000686645508,23.173999786376953,22.2549991607666,22.950000762939453,22.950000762939453,344600
2020-01-22,22.979999542236328,23.350000381469727,22.639999389648438,22.780000686645508,22.780000686645508,215700
2020-01-23,22.969999313354492,24.030000686645508,22.90999984741211,23.399999618530273,23.399999618530273,368400
2020-01-24,23.489999771118164,23.530000686645508,22.420000076293945,22.690000534057617,22.690000534057617,306600
2020-01-27,22.399999618530273,22.450000762939453,21.860000610351562,22.31999969482422,22.31999969482422,578500
2020-01-28,22.549999237060547,23.559999465942383,22.549999237060547,23.360000610351562,23.360000610351562,236500
2020-01-29,23.559999465942383,23.670000076293945,22.780000686645508,22.829999923706055,22.829999923706055,163500
2020-01-30,22.65999984741211,22.915000915527344,22.239999771118164,22.6299991607666,22.6299991607666,203000
2020-01-31,22.549999237060547,22.549999237060547,21.530000686645508,21.639999389648438,21.639999389648438,132000
2020-02-03,21.760000228881836,22.170000076293945,21.56999969482422,21.860000610351562,21.860000610351562,484300
2020-02-04,22.219999313354492,22.649999618530273,22.0,22.549999237060547,22.549999237060547,295700
2020-02-05,22.860000610351562,22.902999877929688,21.860000610351562,22.75,22.75,323600
2020-02-06,22.950000762939453,23.21500015258789,22.540000915527344,22.850000381469727,22.850000381469727,276300
2020-02-07,22.989999771118164,23.610000610351562,20.030000686645508,21.260000228881836,21.260000228881836,877500
2020-02-10,21.260000228881836,21.6299991607666,20.90999984741211,21.540000915527344,21.540000915527344,519600
2020-02-11,21.84000015258789,22.549999237060547,21.76300048828125,21.969999313354492,21.969999313354492,294000
2020-02-12,22.100000381469727,23.6200008392334,22.079999923706055,22.34000015258789,22.34000015258789,1090100
2020-02-13,22.280000686645508,22.739999771118164,21.850000381469727,22.43000030517578,22.43000030517578,307900
2020-02-14,22.559999465942383,22.700000762939453,21.81999969482422,22.329999923706055,22.329999923706055,518500
2020-02-18,22.200000762939453,22.309999465942383,21.950000762939453,22.139999389648438,22.139999389648438,336500
2020-02-19,22.229999542236328,22.31999969482422,21.540000915527344,21.559999465942383,21.559999465942383,206800
2020-02-20,21.510000228881836,22.209999084472656,21.222999572753906,22.170000076293945,22.170000076293945,290400
2020-02-21,22.219999313354492,22.399999618530273,21.624000549316406,22.239999771118164,22.239999771118164,172500
2020-02-24,21.540000915527344,21.78499984741211,21.09000015258789,21.350000381469727,21.350000381469727,217600
2020-02-25,21.420000076293945,21.84000015258789,20.520000457763672,21.0,21.0,356600
2020-02-26,21.309999465942383,21.639999389648438,21.100000381469727,21.31999969482422,21.31999969482422,336800
2020-02-27,21.0,21.200000762939453,20.25,20.549999237060547,20.549999237060547,471500
2020-02-28,20.1200008392334,20.209999084472656,18.799999237060547,19.649999618530273,19.649999618530273,622200
2020-03-02,19.760000228881836,20.200000762939453,18.709999084472656,20.15999984741211,20.15999984741211,420100
2020-03-03,20.15999984741211,20.3700008392334,19.424999237060547,19.8799991607666,19.8799991607666,618300
2020-03-04,20.229999542236328,20.3799991607666,19.399999618530273,20.280000686645508,20.280000686645508,269400
2020-03-05,19.760000228881836,20.110000610351562,19.420000076293945,19.719999313354492,19.719999313354492,258000
2020-03-06,19.229999542236328,19.420000076293945,18.5,19.309999465942383,19.309999465942383,429900
2020-03-09,18.81999969482422,18.972999572753906,17.235000610351562,17.350000381469727,17.350000381469727,395700
2020-03-10,17.59000015258789,18.18000030517578,16.559999465942383,16.6200008392334,16.6200008392334,329500
2020-03-11,16.139999389648438,16.469999313354492,15.75,16.440000534057617,16.440000534057617,491300
2020-03-12,15.369999885559082,16.110000610351562,14.479999542236328,16.020000457763672,16.020000457763672,607500
2020-03-13,16.520000457763672,18.139999389648438,14.75,17.989999771118164,17.989999771118164,676500
2020-03-16,17.489999771118164,17.489999771118164,15.729999542236328,17.010000228881836,17.010000228881836,658700
2020-03-17,17.170000076293945,19.270000457763672,15.9399995803833,18.280000686645508,18.280000686645508,750600
2020-03-18,17.06999969482422,18.309999465942383,15.800000190734863,16.6200008392334,16.6200008392334,593000
2020-03-19,16.709999084472656,17.899999618530273,15.140000343322754,15.270000457763672,15.270000457763672,450700
2020-03-20,15.529999732971191,16.799999237060547,14.430000305175781,15.270000457763672,15.270000457763672,1082700
2020-03-23,15.270000457763672,15.449999809265137,13.5600004196167,14.4399995803833,14.4399995803833,447800
2020-03-24,14.9399995803833,15.59000015258789,13.859999656677246,14.649999618530273,14.649999618530273,472400
2020-03-25,14.59000015258789,14.90999984741211,14.079999923706055,14.720000267028809,14.720000267028809,409700
2020-03-26,15.0,16.420000076293945,14.40999984741211,16.399999618530273,16.399999618530273,836900
2020-03-27,15.890000343322754,17.170000076293945,15.4399995803833,16.84000015258789,16.84000015258789,506500
2020-03-30,17.049999237060547,17.440000534057617,16.600000381469727,17.15999984741211,17.15999984741211,866800
2020-03-31,17.049999237060547,17.389999389648438,16.600000381469727,17.049999237060547,17.049999237060547,679300
2020-04-01,16.559999465942383,18.059999465942383,16.420000076293945,17.559999465942383,17.559999465942383,528800
2020-04-02,17.920000076293945,18.600000381469727,16.823999404907227,18.510000228881836,18.510000228881836,306600
2020-04-03,18.459999084472656,19.93000030517578,18.209999084472656,19.700000762939453,19.700000762939453,719100
2020-04-06,19.899999618530273,20.3700008392334,18.854000091552734,19.110000610351562,19.110000610351562,437600
2020-04-07,19.440000534057617,19.6200008392334,16.170000076293945,17.15999984741211,17.15999984741211,505800
2020-04-08,17.450000762939453,18.43000030517578,16.5,17.059999465942383,17.059999465942383,627200
2020-04-09,17.350000381469727,17.479999542236328,16.469999313354492,16.889999389648438,16.889999389648438,763100
2020-04-13,16.940000534057617,17.59000015258789,16.586000442504883,17.520000457763672,17.520000457763672,474200
2020-04-14,18.139999389648438,18.25,17.0,17.229999542236328,17.229999542236328,667700
2020-04-15,17.0,17.18000030517578,15.770000457763672,15.899999618530273,15.899999618530273,1011500
2020-04-16,16.079999923706055,16.81999969482422,15.4399995803833,16.489999771118164,16.489999771118164,1119200
2020-04-17,16.690000534057617,16.799999237060547,15.359999656677246,15.920000076293945,15.920000076293945,636700
2020-04-20,15.539999961853027,16.170000076293945,15.5,15.609999656677246,15.609999656677246,342600
2020-04-21,15.279999732971191,15.819999694824219,15.279999732971191,15.65999984741211,15.65999984741211,386700
2020-04-22,15.859999656677246,16.90999984741211,15.369999885559082,16.780000686645508,16.780000686645508,563200
2020-04-23,16.68000030517578,17.440000534057617,16.31999969482422,17.139999389648438,17.139999389648438,459200
2020-04-24,17.139999389648438,17.336999893188477,16.350000381469727,17.030000686645508,17.030000686645508,468100
2020-04-27,17.149999618530273,17.799999237060547,17.049999237060547,17.469999313354492,17.469999313354492,480700
2020-04-28,17.899999618530273,17.899999618530273,17.280000686645508,17.34000015258789,17.34000015258789,392700
2020-04-29,17.780000686645508,18.25,17.559999465942383,18.0,18.0,337500
2020-04-30,17.739999771118164,18.020000457763672,17.281999588012695,17.530000686645508,17.530000686645508,278400
2020-05-01,17.270000457763672,17.30500030517578,16.420000076293945,16.65999984741211,16.65999984741211,202900
2020-05-04,16.56999969482422,17.489999771118164,16.40999984741211,17.110000610351562,17.110000610351562,509400
2020-05-05,17.3799991607666,17.420000076293945,16.219999313354492,16.440000534057617,16.440000534057617,326400
2020-05-06,16.399999618530273,16.65999984741211,15.859999656677246,15.869999885559082,15.869999885559082,558700
2020-05-07,16.030000686645508,17.780000686645508,15.970000267028809,17.110000610351562,17.110000610351562,593400
2020-05-08,18.219999313354492,18.790000915527344,17.559999465942383,18.31999969482422,18.31999969482422,686000
2020-05-11,18.010000228881836,19.260000228881836,17.809999465942383,19.049999237060547,19.049999237060547,574600
2020-05-12,19.079999923706055,20.260000228881836,18.93000030517578,19.760000228881836,19.760000228881836,598500
2020-05-13,19.709999084472656,20.0,18.1200008392334,18.81999969482422,18.81999969482422,449200
2020-05-14,18.479999542236328,19.139999389648438,17.68000030517578,19.0,19.0,297900
2020-05-15,19.059999465942383,20.030000686645508,18.739999771118164,19.65999984741211,19.65999984741211,598600
2020-05-18,20.40999984741211,20.81999969482422,19.889999389648438,20.06999969482422,20.06999969482422,485900
2020-05-19,19.93000030517578,20.670000076293945,19.760000228881836,19.81999969482422,19.81999969482422,493300
2020-05-20,20.079999923706055,20.1200008392334,19.030000686645508,19.479999542236328,19.479999542236328,314200
2020-05-21,19.40999984741211,19.40999984741211,18.719999313354492,19.18000030517578,19.18000030517578,287900
2020-05-22,19.40999984741211,19.530000686645508,18.860000610351562,19.3799991607666,19.3799991607666,331900
2020-05-26,19.959999084472656,20.290000915527344,19.68000030517578,19.90999984741211,19.90999984741211,228000
2020-05-27,20.1299991607666,20.489999771118164,19.469999313354492,20.209999084472656,20.209999084472656,653000
2020-05-28,20.3799991607666,20.9950008392334,20.040000915527344,20.079999923706055,20.079999923706055,266700
2020-05-29,19.90999984741211,20.260000228881836,19.584999084472656,20.079999923706055,20.079999923706055,747600
2020-06-01,20.170000076293945,20.489999771118164,19.895000457763672,20.209999084472656,20.209999084472656,497200
2020-06-02,20.280000686645508,20.989999771118164,20.135000228881836,20.469999313354492,20.469999313354492,384200
2020-06-03,20.709999084472656,21.559999465942383,20.65999984741211,21.149999618530273,21.149999618530273,518500
2020-06-04,20.93000030517578,21.559999465942383,20.40999984741211,20.56999969482422,20.56999969482422,456100
2020-06-05,21.030000686645508,22.68000030517578,20.899999618530273,21.969999313354492,21.969999313354492,664600
2020-06-08,22.25,22.59000015258789,20.139999389648438,20.260000228881836,20.260000228881836,648800
2020-06-09,20.079999923706055,21.239999771118164,19.90999984741211,21.0,21.0,459800
2020-06-10,21.139999389648438,21.139999389648438,19.809999465942383,20.0,20.0,499200
2020-06-11,19.600000381469727,20.0,18.670000076293945,18.729999542236328,18.729999542236328,343700
2020-06-12,19.06999969482422,19.40999984741211,18.190000534057617,19.110000610351562,19.110000610351562,463500
2020-06-15,18.760000228881836,19.979999542236328,18.636999130249023,19.709999084472656,19.709999084472656,365300
2020-06-16,20.200000762939453,20.229999542236328,19.559999465942383,19.8799991607666,19.8799991607666,237100
2020-06-17,19.899999618530273,20.139999389648438,19.149999618530273,19.520000457763672,19.520000457763672,398900
2020-06-18,19.34000015258789,19.760000228881836,18.8700008392334,18.950000762939453,18.950000762939453,169500
2020-06-19,19.0,19.25,18.53499984741211,18.65999984741211,18.65999984741211,453600
2020-06-22,18.559999465942383,19.170000076293945,18.559999465942383,18.889999389648438,18.889999389648438,313100
2020-06-23,19.020000457763672,19.209999084472656,18.719999313354492,18.799999237060547,18.799999237060547,312000
2020-06-24,18.559999465942383,18.739999771118164,18.06999969482422,18.15999984741211,18.15999984741211,277400
2020-06-25,18.010000228881836,18.709999084472656,17.81999969482422,18.65999984741211,18.65999984741211,363400
2020-06-26,18.6299991607666,18.770000457763672,17.780000686645508,18.1299991607666,18.1299991607666,1206700
2020-06-29,18.329999923706055,18.889999389648438,18.014999389648438,18.81999969482422,18.81999969482422,369500
2020-06-30,18.690000534057617,20.09000015258789,18.690000534057617,19.940000534057617,19.940000534057617,564100
2020-07-01,19.989999771118164,20.2549991607666,19.200000762939453,19.309999465942383,19.309999465942383,385100
2020-07-02,19.59000015258789,19.829999923706055,19.350000381469727,19.65999984741211,19.65999984741211,150100
2020-07-06,19.920000076293945,20.1200008392334,19.649999618530273,19.90999984741211,19.90999984741211,253600
2020-07-07,19.65999984741211,19.920000076293945,19.329999923706055,19.440000534057617,19.440000534057617,290600
2020-07-08,19.3799991607666,19.549999237060547,18.940000534057617,19.360000610351562,19.360000610351562,166700
2020-07-09,19.290000915527344,19.489999771118164,18.889999389648438,19.1200008392334,19.1200008392334,180200
2020-07-10,19.190000534057617,19.549999237060547,19.09000015258789,19.549999237060547,19.549999237060547,225700
2020-07-13,19.549999237060547,20.07900047302246,19.5,20.020000457763672,20.020000457763672,320300
2020-07-14,20.100000381469727,20.799999237060547,20.030000686645508,20.65999984741211,20.65999984741211,276600
2020-07-15,21.0,21.479999542236328,20.469999313354492,20.530000686645508,20.530000686645508,241000
2020-07-16,20.469999313354492,20.850000381469727,20.329999923706055,20.579999923706055,20.579999923706055,116000
2020-07-17,20.610000610351562,20.920000076293945,20.479999542236328,20.520000457763672,20.520000457763672,108900
2020-07-20,20.799999237060547,21.110000610351562,20.540000915527344,20.979999542236328,20.979999542236328,204600
2020-07-21,21.209999084472656,21.290000915527344,20.350000381469727,20.5,20.5,727400
2020-07-22,20.610000610351562,20.610000610351562,19.780000686645508,20.139999389648438,20.139999389648438,176400
2020-07-23,20.139999389648438,20.579999923706055,19.920000076293945,20.360000610351562,20.360000610351562,1035300
2020-07-24,19.75,19.860000610351562,18.639999389648438,18.739999771118164,18.739999771118164,874000
2020-07-27,18.799999237060547,19.739999771118164,18.649999618530273,19.350000381469727,19.350000381469727,297800
2020-07-28,19.219999313354492,19.520000457763672,18.940000534057617,19.350000381469727,19.350000381469727,219800
2020-07-29,19.479999542236328,19.729999542236328,19.309999465942383,19.520000457763672,19.520000457763672,144300
2020-07-30,19.229999542236328,19.6200008392334,18.8700008392334,19.5,19.5,309100
2020-07-31,19.40999984741211,19.920000076293945,19.360000610351562,19.8700008392334,19.8700008392334,354800
2020-08-03,20.020000457763672,20.020000457763672,19.440000534057617,19.6299991607666,19.6299991607666,250700
2020-08-04,19.6200008392334,20.440000534057617,19.604999542236328,20.420000076293945,20.420000076293945,475700
2020-08-05,20.610000610351562,20.739999771118164,19.579999923706055,20.690000534057617,20.690000534057617,573700
2020-08-06,20.920000076293945,21.31999969482422,20.469999313354492,20.56999969482422,20.56999969482422,244000
2020-08-07,18.670000076293945,20.239999771118164,17.68000030517578,19.790000915527344,19.790000915527344,1095500
2020-08-10,19.780000686645508,20.0,19.18000030517578,19.31999969482422,19.31999969482422,330000
2020-08-11,19.270000457763672,19.950000762939453,18.700000762939453,18.889999389648438,18.889999389648438,273900
2020-08-12,18.969999313354492,19.850000381469727,18.8700008392334,19.520000457763672,19.520000457763672,969900
2020-08-13,19.579999923706055,19.899999618530273,19.420000076293945,19.540000915527344,19.540000915527344,106100
2020-08-14,19.3700008392334,19.790000915527344,19.3700008392334,19.559999465942383,19.559999465942383,174400
2020-08-17,19.600000381469727,19.799999237060547,19.469999313354492,19.719999313354492,19.719999313354492,190200
2020-08-18,19.649999618530273,19.719999313354492,19.150999069213867,19.600000381469727,19.600000381469727,288400
2020-08-19,19.709999084472656,20.030000686645508,19.479999542236328,19.549999237060547,19.549999237060547,238200
2020-08-20,19.239999771118164,19.81999969482422,19.239999771118164,19.6200008392334,19.6200008392334,150600
2020-08-21,19.489999771118164,20.260000228881836,19.299999237060547,19.969999313354492,19.969999313354492,207700
2020-08-24,20.149999618530273,20.149999618530273,19.59000015258789,20.100000381469727,20.100000381469727,180300
2020-08-25,20.25,20.280000686645508,19.799999237060547,19.959999084472656,19.959999084472656,229600
2020-08-26,19.780000686645508,20.010000228881836,19.469999313354492,19.540000915527344,19.540000915527344,346600
2020-08-27,19.600000381469727,20.09000015258789,19.5,19.719999313354492,19.719999313354492,175000
2020-08-28,19.81999969482422,19.959999084472656,19.530000686645508,19.920000076293945,19.920000076293945,531200
2020-08-31,19.90999984741211,20.09000015258789,19.3700008392334,19.440000534057617,19.440000534057617,470800
2020-09-01,19.290000915527344,19.700000762939453,19.290000915527344,19.540000915527344,19.540000915527344,290000
2020-09-02,19.799999237060547,20.079999923706055,19.399999618530273,19.719999313354492,19.719999313354492,250900
2020-09-03,19.690000534057617,19.940000534057617,19.299999237060547,19.8700008392334,19.8700008392334,235300
2020-09-04,20.030000686645508,20.079999923706055,19.360000610351562,19.6200008392334,19.6200008392334,431200
2020-09-08,19.479999542236328,19.479999542236328,18.540000915527344,19.06999969482422,19.06999969482422,358300
2020-09-09,19.09000015258789,19.7450008392334,18.850000381469727,19.399999618530273,19.399999618530273,351100
2020-09-10,19.399999618530273,20.06999969482422,19.399999618530273,19.610000610351562,19.610000610351562,416700
2020-09-11,19.760000228881836,19.760000228881836,19.43000030517578,19.530000686645508,19.530000686645508,252700
2020-09-14,19.530000686645508,19.760000228881836,19.280000686645508,19.299999237060547,19.299999237060547,283400
2020-09-15,19.450000762939453,19.809999465942383,19.1299991607666,19.15999984741211,19.15999984741211,189800
2020-09-16,19.229999542236328,19.450000762939453,19.0,19.0,19.0,183200
2020-09-17,18.780000686645508,19.170000076293945,18.75,19.079999923706055,19.079999923706055,139800
2020-09-18,19.15999984741211,19.3700008392334,18.540000915527344,19.030000686645508,19.030000686645508,363800
2020-09-21,18.770000457763672,18.979999542236328,18.489999771118164,18.68000030517578,18.68000030517578,228700
2020-09-22,18.760000228881836,19.239999771118164,18.600000381469727,19.139999389648438,19.139999389648438,294800
2020-09-23,19.1299991607666,19.260000228881836,18.59000015258789,18.760000228881836,18.760000228881836,279300
2020-09-24,18.8799991607666,19.170000076293945,18.594999313354492,19.0,19.0,178300
2020-09-25,18.860000610351562,19.174999237060547,18.5,18.719999313354492,18.719999313354492,1234100
2020-09-28,19.34000015258789,20.0,19.030000686645508,19.860000610351562,19.860000610351562,592400
2020-09-29,19.829999923706055,20.770000457763672,19.709999084472656,20.600000381469727,20.600000381469727,370700
2020-09-30,20.690000534057617,20.89699935913086,20.389999389648438,20.739999771118164,20.739999771118164,462700
2020-10-01,20.889999389648438,21.264999389648438,20.559999465942383,21.0,21.0,196700
2020-10-02,20.700000762939453,21.280000686645508,20.520000457763672,20.899999618530273,20.899999618530273,189300
2020-10-05,20.969999313354492,21.170000076293945,20.81999969482422,20.93000030517578,20.93000030517578,152400
2020-10-06,21.049999237060547,21.260000228881836,20.719999313354492,20.809999465942383,20.809999465942383,313000
2020-10-07,20.899999618530273,21.790000915527344,20.899999618530273,21.510000228881836,21.510000228881836,244500
2020-10-08,21.780000686645508,22.145000457763672,21.709999084472656,21.790000915527344,21.790000915527344,297500
2020-10-09,21.829999923706055,22.229999542236328,21.815000534057617,22.059999465942383,22.059999465942383,270800
2020-10-12,22.059999465942383,22.479999542236328,22.049999237060547,22.309999465942383,22.309999465942383,225500
2020-10-13,22.049999237060547,22.540000915527344,22.049999237060547,22.420000076293945,22.420000076293945,354200
2020-10-14,22.489999771118164,22.760000228881836,22.149999618530273,22.6200008392334,22.6200008392334,238500
2020-10-15,22.420000076293945,22.90999984741211,22.280000686645508,22.75,22.75,199400
2020-10-16,22.700000762939453,22.969999313354492,22.479999542236328,22.639999389648438,22.639999389648438,264900
2020-10-19,22.649999618530273,22.760000228881836,21.579999923706055,21.6200008392334,21.6200008392334,151900
2020-10-20,21.670000076293945,21.89299964904785,21.139999389648438,21.18000030517578,21.18000030517578,153500
2020-10-21,21.170000076293945,21.610000610351562,21.020000457763672,21.219999313354492,21.219999313354492,297500
2020-10-22,21.290000915527344,21.350000381469727,20.84000015258789,20.950000762939453,20.950000762939453,171000
2020-10-23,21.0,21.190000534057617,20.825000762939453,20.969999313354492,20.969999313354492,141700
2020-10-26,20.790000915527344,20.809999465942383,20.139999389648438,20.190000534057617,20.190000534057617,182600
2020-10-27,20.219999313354492,20.649999618530273,20.200000762939453,20.239999771118164,20.239999771118164,137100
2020-10-28,19.989999771118164,20.235000610351562,19.110000610351562,19.209999084472656,19.209999084472656,176900
2020-10-29,19.110000610351562,19.15999984741211,18.489999771118164,18.8799991607666,18.8799991607666,241600
2020-10-30,18.790000915527344,18.8799991607666,18.209999084472656,18.290000915527344,18.290000915527344,336700
2020-11-02,18.549999237060547,18.93000030517578,17.899999618530273,18.860000610351562,18.860000610351562,401100
2020-11-03,19.239999771118164,19.770000457763672,18.889999389648438,19.209999084472656,19.209999084472656,407500
2020-11-04,19.209999084472656,19.739999771118164,18.90999984741211,19.600000381469727,19.600000381469727,163800
2020-11-05,19.889999389648438,19.950000762939453,19.600000381469727,19.729999542236328,19.729999542236328,102300
2020-11-06,19.809999465942383,19.90999984741211,19.25,19.270000457763672,19.270000457763672,170700
2020-11-09,19.8799991607666,21.059999465942383,19.520000457763672,20.65999984741211,20.65999984741211,356000
2020-11-10,20.719999313354492,21.209999084472656,20.270000457763672,20.290000915527344,20.290000915527344,285700
2020-11-11,20.549999237060547,20.549999237060547,19.719999313354492,20.040000915527344,20.040000915527344,309200
2020-11-12,19.979999542236328,20.18000030517578,19.739999771118164,20.049999237060547,20.049999237060547,231500
2020-11-13,20.65999984741211,20.979999542236328,20.09000015258789,20.760000228881836,20.760000228881836,405700
2020-11-16,21.100000381469727,21.274999618530273,20.829999923706055,20.889999389648438,20.889999389648438,334100
2020-11-17,20.8700008392334,21.110000610351562,20.6200008392334,20.920000076293945,20.920000076293945,1151400
2020-11-18,20.920000076293945,21.020000457763672,20.639999389648438,20.700000762939453,20.700000762939453,532300
2020-11-19,20.700000762939453,20.719999313354492,19.389999389648438,20.020000457763672,20.020000457763672,461100
2020-11-20,20.110000610351562,21.670000076293945,20.0,21.399999618530273,21.399999618530273,1070100
2020-11-23,21.559999465942383,21.670000076293945,20.950000762939453,21.110000610351562,21.110000610351562,287400
2020-11-24,21.299999237060547,21.389999389648438,21.054000854492188,21.190000534057617,21.190000534057617,290200
2020-11-25,21.190000534057617,21.3799991607666,20.65999984741211,21.020000457763672,21.020000457763672,247000
2020-11-27,21.260000228881836,21.260000228881836,20.829999923706055,20.969999313354492,20.969999313354492,69700
2020-11-30,21.18000030517578,21.18000030517578,20.229999542236328,20.399999618530273,20.399999618530273,268700
2020-12-01,20.530000686645508,20.920000076293945,20.1299991607666,20.850000381469727,20.850000381469727,290300
2020-12-02,20.68000030517578,20.920000076293945,20.149999618530273,20.850000381469727,20.850000381469727,186200
2020-12-03,20.889999389648438,21.030000686645508,20.610000610351562,20.93000030517578,20.93000030517578,235300
2020-12-04,21.020000457763672,21.920000076293945,20.8799991607666,21.899999618530273,21.899999618530273,389900
2020-12-07,21.81999969482422,22.799999237060547,21.725000381469727,22.780000686645508,22.780000686645508,368100
2020-12-08,22.59000015258789,24.209999084472656,22.520000457763672,24.190000534057617,24.190000534057617,609600
2020-12-09,24.549999237060547,25.31999969482422,23.924999237060547,24.219999313354492,24.219999313354492,498600
2020-12-10,24.25,24.81999969482422,24.149999618530273,24.690000534057617,24.690000534057617,315200
2020-12-11,24.59000015258789,24.989999771118164,23.860000610351562,24.1200008392334,24.1200008392334,576100
2020-12-14,24.549999237060547,25.15999984741211,24.34000015258789,24.920000076293945,24.920000076293945,508700
2020-12-15,25.170000076293945,25.408000946044922,24.399999618530273,24.489999771118164,24.489999771118164,358400
2020-12-16,24.469999313354492,24.649999618530273,24.25,24.389999389648438,24.389999389648438,257400
2020-12-17,24.510000228881836,24.764999389648438,23.950000762939453,24.65999984741211,24.65999984741211,359600
2020-12-18,24.579999923706055,24.920000076293945,24.264999389648438,24.489999771118164,24.489999771118164,623300
2020-12-21,23.959999084472656,24.239999771118164,23.389999389648438,24.149999618530273,24.149999618530273,305600
2020-12-22,24.209999084472656,24.860000610351562,23.709999084472656,24.280000686645508,24.280000686645508,594200
2020-12-23,24.309999465942383,24.75,23.860000610351562,24.510000228881836,24.510000228881836,298000
2020-12-24,24.780000686645508,25.079999923706055,24.549999237060547,24.920000076293945,24.920000076293945,101200
2020-12-28,25.0,25.290000915527344,23.559999465942383,24.139999389648438,24.139999389648438,477700
2020-12-29,24.360000610351562,24.360000610351562,23.18000030517578,23.59000015258789,23.59000015258789,539200
2020-12-30,23.549999237060547,23.979999542236328,23.3700008392334,23.760000228881836,23.760000228881836,240100
