Date,Open,High,Low,Close,Adj Close,Volume
2018-09-20,20.0,20.739999771118164,19.040000915527344,19.09000015258789,17.532957077026367,1405000
2018-09-21,19.149999618530273,19.600000381469727,18.899999618530273,19.100000381469727,17.542146682739258,214300
2018-09-24,19.049999237060547,19.350000381469727,19.049999237060547,19.110000610351562,17.551328659057617,54500
2018-09-25,19.09000015258789,19.200000762939453,19.0,19.09000015258789,17.532957077026367,29200
2018-09-26,19.09000015258789,19.09000015258789,19.0,19.0,17.450300216674805,80900
2018-09-27,19.030000686645508,19.479999542236328,18.6299991607666,19.0,17.450300216674805,40000
2018-09-28,18.93000030517578,19.399999618530273,18.34000015258789,19.25,17.679908752441406,27300
2018-10-01,19.010000228881836,19.440000534057617,19.010000228881836,19.020000457763672,17.468669891357422,12400
2018-10-02,18.90999984741211,19.020000457763672,18.5,19.010000228881836,17.45948600769043,43600
2018-10-03,18.93000030517578,19.059999465942383,18.90999984741211,18.950000762939453,17.404376983642578,7700
2018-10-04,18.899999618530273,18.899999618530273,18.5,18.75,17.220691680908203,15100
2018-10-05,18.610000610351562,18.809999465942383,18.549999237060547,18.549999237060547,17.037004470825195,9200
2018-10-08,18.579999923706055,18.579999923706055,18.079999923706055,18.200000762939453,16.71554946899414,56000
2018-10-09,18.059999465942383,18.5,18.049999237060547,18.149999618530273,16.66963005065918,21100
2018-10-10,18.15999984741211,18.5,18.049999237060547,18.3700008392334,16.871685028076172,57500
2018-10-11,18.270000457763672,18.299999237060547,18.0,18.1299991607666,16.651262283325195,7000
2018-10-12,18.489999771118164,18.6299991607666,18.020000457763672,18.549999237060547,17.037004470825195,8300
2018-10-15,18.75,19.360000610351562,18.469999313354492,19.0,17.450300216674805,42900
2018-10-16,18.950000762939453,19.389999389648438,18.81999969482422,18.81999969482422,17.28498077392578,4300
2018-10-17,19.149999618530273,19.299999237060547,18.420000076293945,18.989999771118164,17.441116333007812,6400
2018-10-18,19.15999984741211,19.15999984741211,18.549999237060547,18.549999237060547,17.037004470825195,3200
2018-10-19,19.0,19.0,18.0,18.5,16.9910831451416,6000
2018-10-22,18.450000762939453,18.81999969482422,17.049999237060547,17.790000915527344,16.338993072509766,15000
2018-10-23,17.549999237060547,17.549999237060547,17.0,17.469999313354492,16.04509162902832,6800
2018-10-24,17.059999465942383,17.06999969482422,14.34000015258789,15.130000114440918,13.895949363708496,67400
2018-10-25,15.0600004196167,15.949999809265137,15.039999961853027,15.569999694824219,14.300061225891113,36100
2018-10-26,15.9399995803833,15.9399995803833,15.0,15.25,14.0061616897583,39400
2018-10-29,15.25,16.950000762939453,15.010000228881836,16.899999618530273,15.52158260345459,12900
2018-10-30,16.950000762939453,18.450000762939453,15.550000190734863,15.670000076293945,14.39190673828125,18700
2018-10-31,15.680000305175781,17.469999313354492,15.680000305175781,16.549999237060547,15.200129508972168,11500
2018-11-01,16.479999542236328,18.350000381469727,16.079999923706055,18.350000381469727,16.85331916809082,10400
2018-11-02,18.170000076293945,19.0,18.170000076293945,18.8799991607666,17.340087890625,3000
2018-11-05,18.670000076293945,18.950000762939453,18.0,18.899999618530273,17.358455657958984,6800
2018-11-06,18.899999618530273,18.899999618530273,18.219999313354492,18.219999313354492,16.73392105102539,2800
2018-11-07,18.5,18.75,18.489999771118164,18.5,16.9910831451416,2300
2018-11-08,18.75,18.75,18.350000381469727,18.350000381469727,16.85331916809082,17000
2018-11-09,18.290000915527344,18.899999618530273,18.229999542236328,18.649999618530273,17.12884521484375,5300
2018-11-12,18.43000030517578,18.5,18.100000381469727,18.170000076293945,16.687999725341797,5200
2018-11-13,18.110000610351562,18.350000381469727,18.100000381469727,18.350000381469727,16.85331916809082,15600
2018-11-14,18.350000381469727,18.540000915527344,17.34000015258789,18.489999771118164,16.981897354125977,7000
2018-11-15,18.0,18.799999237060547,18.0,18.799999237060547,17.266611099243164,5500
2018-11-16,18.6200008392334,18.899999618530273,17.34000015258789,18.799999237060547,17.266611099243164,19600
2018-11-19,18.299999237060547,18.899999618530273,18.0,18.75,17.220691680908203,53000
2018-11-20,18.75,18.809999465942383,17.399999618530273,17.399999618530273,15.980801582336426,3200
2018-11-21,17.989999771118164,18.0,17.889999389648438,17.940000534057617,16.476757049560547,3600
2018-11-23,18.149999618530273,18.700000762939453,18.09000015258789,18.700000762939453,17.17477035522461,1800
2018-11-26,18.899999618530273,18.899999618530273,17.350000381469727,17.799999237060547,16.348173141479492,11300
2018-11-27,18.0,18.0,17.809999465942383,17.809999465942383,16.357357025146484,2700
2018-11-28,17.940000534057617,18.0,17.5,17.790000915527344,16.338993072509766,99700
2018-11-29,17.829999923706055,18.979999542236328,16.5,18.399999618530273,16.89923667907715,10500
2018-11-30,18.690000534057617,18.75,16.8700008392334,18.489999771118164,16.981897354125977,7700
2018-12-03,18.899999618530273,18.950000762939453,17.75,17.75,16.30225372314453,39200
2018-12-04,17.719999313354492,18.420000076293945,17.040000915527344,18.06999969482422,16.596153259277344,24700
2018-12-06,17.950000762939453,18.059999465942383,16.799999237060547,17.260000228881836,15.85222339630127,30700
2018-12-07,17.459999084472656,17.860000610351562,17.149999618530273,17.510000228881836,16.081829071044922,39300
2018-12-10,17.719999313354492,17.850000381469727,17.219999313354492,17.450000762939453,16.026723861694336,29100
2018-12-11,17.700000762939453,17.850000381469727,17.350000381469727,17.5,16.072643280029297,13000
2018-12-12,17.790000915527344,17.790000915527344,16.469999313354492,17.399999618530273,15.980801582336426,9700
2018-12-13,17.600000381469727,17.729999542236328,15.1899995803833,17.18000030517578,15.7787446975708,19300
2018-12-14,17.18000030517578,17.18000030517578,15.630000114440918,16.969999313354492,15.585872650146484,20800
2018-12-17,17.100000381469727,17.709999084472656,16.020000457763672,17.010000228881836,15.622615814208984,41700
2018-12-18,17.3799991607666,17.3799991607666,16.020000457763672,16.440000534057617,15.099102020263672,31600
2018-12-19,17.489999771118164,17.5,16.010000228881836,16.280000686645508,14.952153205871582,34800
2018-12-20,16.940000534057617,16.940000534057617,15.600000381469727,16.010000228881836,14.704174041748047,33200
2018-12-21,16.600000381469727,16.600000381469727,14.630000114440918,15.0,13.7765531539917,273800
2018-12-24,14.760000228881836,14.760000228881836,13.270000457763672,13.270000457763672,12.187657356262207,19300
2018-12-26,13.460000038146973,14.229999542236328,12.149999618530273,12.15999984741211,11.168191909790039,22000
2018-12-27,12.3100004196167,12.5,10.850000381469727,11.949999809265137,10.975319862365723,78300
2018-12-28,11.899999618530273,13.239999771118164,11.350000381469727,12.600000381469727,11.572304725646973,57200
2018-12-31,12.770000457763672,13.710000038146973,12.600000381469727,13.350000381469727,12.261133193969727,24700
2019-01-02,13.399999618530273,14.25,13.050000190734863,13.350000381469727,12.261133193969727,13200
2019-01-03,13.34000015258789,13.8100004196167,12.899999618530273,13.399999618530273,12.307053565979004,29900
2019-01-04,13.609999656677246,15.0,13.609999656677246,14.800000190734863,13.592864990234375,20900
2019-01-07,15.0,15.010000228881836,14.199999809265137,14.239999771118164,13.078540802001953,20700
2019-01-08,14.239999771118164,15.0,14.239999771118164,14.609999656677246,13.418362617492676,23100
2019-01-09,14.800000190734863,15.1899995803833,14.75,14.9399995803833,13.721447944641113,7700
2019-01-10,14.8100004196167,14.84000015258789,14.220000267028809,14.470000267028809,13.28978157043457,14700
2019-01-11,14.529999732971191,14.850000381469727,14.170000076293945,14.75,13.546944618225098,13100
2019-01-14,14.260000228881836,14.989999771118164,14.260000228881836,14.510000228881836,13.326519012451172,20900
2019-01-15,14.720000267028809,15.050000190734863,14.550000190734863,14.75,13.546944618225098,103700
2019-01-16,14.6899995803833,15.289999961853027,14.649999618530273,15.199999809265137,13.96023941040039,264400
2019-01-17,15.010000228881836,15.569999694824219,15.010000228881836,15.5,14.235771179199219,13300
2019-01-18,15.649999618530273,15.930000305175781,15.25,15.649999618530273,14.373537063598633,25100
2019-01-22,15.65999984741211,16.209999084472656,15.109999656677246,15.510000228881836,14.244956016540527,15800
2019-01-23,15.5600004196167,15.90999984741211,15.100000381469727,15.699999809265137,14.419458389282227,23200
2019-01-24,15.760000228881836,15.760000228881836,15.09000015258789,15.25,14.0061616897583,4000
2019-01-25,15.15999984741211,15.399999618530273,15.020000457763672,15.149999618530273,13.914318084716797,18500
2019-01-28,15.149999618530273,15.239999771118164,15.0,15.170000076293945,13.93268871307373,20300
2019-01-29,15.050000190734863,15.369999885559082,15.020000457763672,15.020000457763672,13.794922828674316,9100
2019-01-30,14.800000190734863,15.699999809265137,14.800000190734863,15.5,14.235771179199219,24300
2019-01-31,15.6899995803833,15.890000343322754,15.59000015258789,15.59000015258789,14.318431854248047,10700
2019-02-01,17.6200008392334,17.6200008392334,15.829999923706055,16.670000076293945,15.310343742370605,5100
2019-02-04,16.670000076293945,16.8799991607666,16.65999984741211,16.81999969482422,15.448107719421387,5400
2019-02-05,16.81999969482422,17.350000381469727,16.719999313354492,17.020000457763672,15.631796836853027,16200
2019-02-06,17.010000228881836,17.170000076293945,16.65999984741211,16.700000762939453,15.337895393371582,3300
2019-02-07,16.899999618530273,17.399999618530273,16.799999237060547,16.889999389648438,15.512397766113281,18800
2019-02-08,16.959999084472656,16.959999084472656,16.110000610351562,16.25,14.924600601196289,2800
2019-02-11,16.170000076293945,16.790000915527344,16.170000076293945,16.3799991607666,15.04399585723877,38800
2019-02-12,16.3799991607666,16.3799991607666,16.3799991607666,16.3799991607666,15.04399585723877,700
2019-02-13,16.219999313354492,16.3799991607666,15.9399995803833,16.290000915527344,14.961337089538574,3000
2019-02-14,16.43000030517578,17.5,16.040000915527344,16.420000076293945,15.080734252929688,21500
2019-02-15,16.43000030517578,16.950000762939453,16.3700008392334,16.440000534057617,15.099102020263672,2500
2019-02-19,16.459999084472656,17.260000228881836,16.209999084472656,16.469999313354492,15.126654624938965,13200
2019-02-20,16.329999923706055,16.329999923706055,16.25,16.25,14.924600601196289,4700
2019-02-21,16.489999771118164,16.489999771118164,16.290000915527344,16.450000762939453,15.10828685760498,3000
2019-02-22,16.290000915527344,16.5,16.25,16.25,14.924600601196289,3400
2019-02-25,17.170000076293945,17.170000076293945,16.920000076293945,16.920000076293945,15.53995132446289,1900
2019-02-26,16.75,16.75,16.309999465942383,16.309999465942383,14.979704856872559,2700
2019-02-27,17.5,17.5,16.350000381469727,16.350000381469727,15.016443252563477,1300
2019-02-28,16.489999771118164,17.190000534057617,16.0,16.0,14.694989204406738,18700
2019-03-01,16.0,16.850000381469727,16.0,16.309999465942383,14.979704856872559,3900
2019-03-04,16.329999923706055,16.329999923706055,16.270000457763672,16.270000457763672,14.942967414855957,1200
2019-03-05,16.34000015258789,16.34000015258789,15.770000457763672,15.930000305175781,14.630699157714844,1700
2019-03-06,15.899999618530273,15.899999618530273,15.770000457763672,15.770000457763672,14.483749389648438,2700
2019-03-07,16.459999084472656,16.459999084472656,15.569999694824219,15.569999694824219,14.300061225891113,4900
2019-03-08,15.529999732971191,16.93000030517578,15.369999885559082,15.40999984741211,14.15311050415039,1800
2019-03-11,15.369999885559082,15.369999885559082,15.270000457763672,15.3100004196167,14.06126880645752,3400
2019-03-12,16.25,16.549999237060547,15.270000457763672,15.510000228881836,14.244956016540527,26700
2019-03-13,15.300000190734863,15.569999694824219,15.300000190734863,15.569999694824219,14.300061225891113,1100
2019-03-14,15.890000343322754,16.8700008392334,15.579999923706055,16.15999984741211,14.841939926147461,4600
2019-03-15,16.110000610351562,16.790000915527344,15.430000305175781,15.430000305175781,14.171480178833008,18300
2019-03-18,16.100000381469727,16.100000381469727,15.829999923706055,15.829999923706055,14.53885555267334,3400
2019-03-19,15.59000015258789,15.630000114440918,15.15999984741211,15.170000076293945,13.93268871307373,6100
2019-03-20,15.149999618530273,15.199999809265137,15.100000381469727,15.100000381469727,13.868395805358887,4100
2019-03-21,15.100000381469727,15.319999694824219,15.100000381469727,15.319999694824219,14.070452690124512,2300
2019-03-22,15.550000190734863,15.569999694824219,15.100000381469727,15.100000381469727,13.868395805358887,9300
2019-03-25,15.5,16.219999313354492,15.350000381469727,16.1200008392334,14.805201530456543,4000
2019-03-26,15.5,16.389999389648438,15.5,16.299999237060547,14.970519065856934,6900
2019-03-27,15.25,17.049999237060547,15.25,17.0,15.61342716217041,8900
2019-03-28,16.8700008392334,17.489999771118164,16.719999313354492,17.170000076293945,15.769561767578125,13800
2019-03-29,17.0,17.700000762939453,17.0,17.3700008392334,15.953250885009766,9100
2019-04-01,17.68000030517578,17.68000030517578,17.079999923706055,17.079999923706055,15.686901092529297,4600
2019-04-02,17.34000015258789,17.34000015258789,17.34000015258789,17.34000015258789,15.925697326660156,500
2019-04-03,17.229999542236328,17.229999542236328,16.520000457763672,16.520000457763672,15.172575950622559,2200
2019-04-04,16.670000076293945,17.700000762939453,16.65999984741211,17.329999923706055,15.916512489318848,9200
2019-04-05,17.56999969482422,17.649999618530273,16.459999084472656,17.5,16.072643280029297,7500
2019-04-08,17.489999771118164,17.5,17.100000381469727,17.209999084472656,15.806297302246094,7600
2019-04-09,17.209999084472656,17.209999084472656,17.020000457763672,17.020000457763672,15.631796836853027,1700
2019-04-10,16.719999313354492,17.75,16.719999313354492,17.75,16.30225372314453,5700
2019-04-11,17.260000228881836,17.260000228881836,16.850000381469727,16.850000381469727,15.475661277770996,1200
2019-04-12,16.889999389648438,17.75,16.889999389648438,17.700000762939453,16.256332397460938,5000
2019-04-15,17.709999084472656,17.709999084472656,17.1299991607666,17.5,16.072643280029297,2600
2019-04-16,17.200000762939453,17.700000762939453,17.200000762939453,17.479999542236328,16.054275512695312,7100
2019-04-17,17.399999618530273,17.5,16.899999618530273,17.450000762939453,16.026723861694336,2100
2019-04-18,17.280000686645508,17.5,17.1200008392334,17.440000534057617,16.017539978027344,20300
2019-04-22,17.5,17.5,17.389999389648438,17.420000076293945,15.99916934967041,6100
2019-04-23,17.809999465942383,17.809999465942383,17.469999313354492,17.5,16.072643280029297,1800
2019-04-24,17.75,17.75,17.75,17.75,16.30225372314453,500
2019-04-25,17.610000610351562,17.610000610351562,17.520000457763672,17.610000610351562,16.173673629760742,1100
2019-04-26,17.790000915527344,17.809999465942383,17.360000610351562,17.809999465942383,16.357357025146484,2900
2019-04-29,17.760000228881836,18.0,17.670000076293945,17.670000076293945,16.228778839111328,4800
2019-04-30,17.969999313354492,17.969999313354492,17.25,17.31999969482422,15.907325744628906,4000
2019-05-01,17.700000762939453,17.700000762939453,17.270000457763672,17.270000457763672,15.861405372619629,1300
2019-05-02,17.440000534057617,17.440000534057617,17.440000534057617,17.440000534057617,16.017539978027344,600
2019-05-03,17.6299991607666,17.75,17.5,17.649999618530273,16.21040916442871,11000
2019-05-06,17.639999389648438,18.0,17.559999465942383,17.649999618530273,16.21040916442871,9900
2019-05-07,17.770000457763672,17.770000457763672,17.510000228881836,17.75,16.30225372314453,6100
2019-05-08,17.899999618530273,17.899999618530273,17.899999618530273,17.899999618530273,16.440021514892578,900
2019-05-09,17.700000762939453,17.700000762939453,17.600000381469727,17.600000381469727,16.164487838745117,2700
2019-05-10,17.5,17.68000030517578,17.5,17.68000030517578,16.237966537475586,1100
2019-05-13,17.530000686645508,17.700000762939453,17.270000457763672,17.5,16.072643280029297,11700
2019-05-14,17.3700008392334,17.700000762939453,17.3700008392334,17.700000762939453,16.256332397460938,1400
2019-05-15,17.440000534057617,17.700000762939453,17.440000534057617,17.700000762939453,16.256332397460938,1500
2019-05-16,17.450000762939453,17.450000762939453,17.450000762939453,17.450000762939453,16.026723861694336,400
2019-05-17,17.40999984741211,17.600000381469727,17.40999984741211,17.510000228881836,16.081829071044922,1800
2019-05-20,17.489999771118164,17.5,17.280000686645508,17.479999542236328,16.054275512695312,1400
2019-05-21,17.43000030517578,17.5,17.350000381469727,17.5,16.072643280029297,2900
2019-05-22,17.270000457763672,17.270000457763672,17.270000457763672,17.270000457763672,15.861405372619629,600
2019-05-23,17.270000457763672,17.43000030517578,17.270000457763672,17.270000457763672,15.861405372619629,1800
2019-05-24,17.25,17.639999389648438,17.25,17.5,16.072643280029297,3700
2019-05-28,17.5,17.5,17.25,17.25,15.843036651611328,2500
2019-05-29,17.25,17.5,17.25,17.309999465942383,15.898140907287598,4900
2019-05-30,17.350000381469727,17.489999771118164,17.350000381469727,17.450000762939453,16.026723861694336,1800
2019-05-31,17.299999237060547,17.309999465942383,16.940000534057617,16.940000534057617,15.558320999145508,6500
2019-06-03,17.149999618530273,17.149999618530273,16.850000381469727,17.09000015258789,15.696085929870605,4300
2019-06-04,17.299999237060547,17.299999237060547,16.969999313354492,17.209999084472656,15.806297302246094,1700
2019-06-05,17.200000762939453,17.3799991607666,17.049999237060547,17.049999237060547,15.65934944152832,1900
2019-06-06,16.93000030517578,17.18000030517578,16.93000030517578,16.959999084472656,15.576689720153809,3200
2019-06-07,17.25,17.25,17.0,17.0,15.61342716217041,2500
2019-06-10,17.049999237060547,17.190000534057617,17.010000228881836,17.06999969482422,15.677718162536621,20600
2019-06-11,17.06999969482422,17.06999969482422,17.0,17.0,15.61342716217041,10700
2019-06-12,17.030000686645508,17.049999237060547,16.899999618530273,16.899999618530273,15.52158260345459,3100
2019-06-13,17.049999237060547,17.049999237060547,16.56999969482422,16.75,15.383817672729492,9100
2019-06-14,16.799999237060547,17.5,16.600000381469727,16.600000381469727,15.246051788330078,3500
2019-06-17,16.899999618530273,17.0,16.3700008392334,16.75,15.383817672729492,12700
2019-06-18,16.670000076293945,16.959999084472656,16.65999984741211,16.950000762939453,15.5675048828125,7500
2019-06-19,17.079999923706055,17.079999923706055,16.399999618530273,16.950000762939453,15.5675048828125,4300
2019-06-20,16.950000762939453,17.229999542236328,16.5,16.690000534057617,15.32871150970459,2200
2019-06-21,16.540000915527344,17.06999969482422,16.540000915527344,16.950000762939453,15.5675048828125,6900
2019-06-24,16.950000762939453,16.950000762939453,16.649999618530273,16.649999618530273,15.291974067687988,2000
2019-06-25,16.75,16.959999084472656,16.399999618530273,16.450000762939453,15.10828685760498,4400
2019-06-26,16.93000030517578,17.100000381469727,16.600000381469727,16.600000381469727,15.246051788330078,3600
2019-06-27,16.860000610351562,16.940000534057617,16.600000381469727,16.93000030517578,15.549134254455566,12500
2019-06-28,16.950000762939453,19.25,16.790000915527344,18.489999771118164,16.981897354125977,97100
2019-07-01,18.450000762939453,18.649999618530273,17.479999542236328,18.260000228881836,16.770658493041992,16000
2019-07-02,18.600000381469727,18.600000381469727,17.6299991607666,17.81999969482422,16.36654281616211,11400
2019-07-03,18.31999969482422,18.31999969482422,17.530000686645508,18.149999618530273,16.66963005065918,4300
2019-07-05,18.020000457763672,18.43000030517578,17.799999237060547,17.799999237060547,16.348173141479492,4300
2019-07-08,18.0,18.18000030517578,17.989999771118164,18.1200008392334,16.642078399658203,3800
2019-07-09,18.049999237060547,18.3700008392334,18.049999237060547,18.139999389648438,16.660446166992188,10500
2019-07-10,18.139999389648438,18.280000686645508,18.139999389648438,18.219999313354492,16.73392105102539,2300
2019-07-11,18.239999771118164,18.239999771118164,18.010000228881836,18.09000015258789,16.614519119262695,3300
2019-07-12,18.100000381469727,18.100000381469727,17.799999237060547,17.799999237060547,16.348173141479492,4100
2019-07-15,17.940000534057617,17.969999313354492,17.940000534057617,17.969999313354492,16.504310607910156,800
2019-07-16,17.940000534057617,17.979999542236328,17.639999389648438,17.860000610351562,16.403282165527344,1900
2019-07-17,18.18000030517578,18.18000030517578,17.81999969482422,17.860000610351562,16.403282165527344,1900
2019-07-18,18.170000076293945,18.170000076293945,17.950000762939453,17.950000762939453,16.485942840576172,1600
2019-07-19,17.809999465942383,18.110000610351562,17.540000915527344,18.0,16.531864166259766,1900
2019-07-22,17.670000076293945,18.09000015258789,17.549999237060547,17.579999923706055,16.146120071411133,3100
2019-07-23,17.600000381469727,17.8700008392334,17.549999237060547,17.8700008392334,16.41246795654297,4600
2019-07-24,18.030000686645508,18.09000015258789,17.65999984741211,17.760000228881836,16.311437606811523,3900
2019-07-25,18.020000457763672,18.049999237060547,17.530000686645508,17.84000015258789,16.38491439819336,2200
2019-07-26,17.969999313354492,19.200000762939453,17.610000610351562,18.610000610351562,17.092111587524414,18400
2019-07-29,18.959999084472656,19.0,18.530000686645508,18.56999969482422,17.055374145507812,3200
2019-07-30,18.700000762939453,18.950000762939453,18.600000381469727,18.600000381469727,17.08292579650879,3300
2019-07-31,18.739999771118164,18.979999542236328,18.649999618530273,18.90999984741211,17.367637634277344,6700
2019-08-01,19.0,19.0,18.469999313354492,18.84000015258789,17.30335235595703,7200
2019-08-02,18.65999984741211,18.65999984741211,18.450000762939453,18.450000762939453,16.945161819458008,3700
2019-08-05,18.010000228881836,18.049999237060547,17.5,17.5,16.072643280029297,8400
2019-08-06,17.950000762939453,18.0,17.440000534057617,17.440000534057617,16.017539978027344,3500
2019-08-07,17.389999389648438,17.389999389648438,16.559999465942383,16.559999465942383,15.209312438964844,4800
2019-08-08,17.450000762939453,17.510000228881836,16.950000762939453,16.950000762939453,15.5675048828125,2800
2019-08-09,16.809999465942383,16.809999465942383,16.649999618530273,16.709999084472656,15.347078323364258,1200
2019-08-12,17.860000610351562,17.860000610351562,16.729999542236328,17.06999969482422,15.677718162536621,4000
2019-08-13,17.020000457763672,17.43000030517578,17.020000457763672,17.43000030517578,16.00835418701172,6400
2019-08-14,17.059999465942383,17.059999465942383,16.450000762939453,16.450000762939453,15.10828685760498,5500
2019-08-15,17.34000015258789,17.34000015258789,16.56999969482422,16.68000030517578,15.319526672363281,2800
2019-08-16,16.850000381469727,17.350000381469727,16.579999923706055,17.350000381469727,15.934880256652832,13200
2019-08-19,17.799999237060547,17.799999237060547,17.06999969482422,17.5,16.072643280029297,2000
2019-08-20,17.139999389648438,17.190000534057617,16.34000015258789,16.600000381469727,15.246051788330078,7200
2019-08-21,16.520000457763672,16.520000457763672,16.520000457763672,16.520000457763672,15.172575950622559,1900
2019-08-22,17.5,17.5,16.40999984741211,16.40999984741211,15.071549415588379,4400
2019-08-23,16.329999923706055,16.329999923706055,16.209999084472656,16.209999084472656,14.887860298156738,5400
2019-08-26,16.799999237060547,16.959999084472656,16.479999542236328,16.899999618530273,15.52158260345459,1800
2019-08-27,16.75,16.75,16.450000762939453,16.450000762939453,15.10828685760498,1600
2019-08-28,16.6299991607666,17.100000381469727,16.299999237060547,17.100000381469727,15.705268859863281,2200
2019-08-29,17.049999237060547,17.850000381469727,17.049999237060547,17.5,16.072643280029297,11300
2019-08-30,17.979999542236328,18.40999984741211,17.479999542236328,17.989999771118164,16.522676467895508,11200
2019-09-03,17.889999389648438,17.889999389648438,17.489999771118164,17.489999771118164,16.063457489013672,1000
2019-09-04,17.260000228881836,17.760000228881836,17.25,17.760000228881836,16.311437606811523,900
2019-09-05,17.559999465942383,17.809999465942383,16.889999389648438,17.700000762939453,16.256332397460938,12000
2019-09-06,17.56999969482422,18.100000381469727,17.56999969482422,17.65999984741211,16.219593048095703,61300
2019-09-09,17.920000076293945,17.940000534057617,17.809999465942383,17.809999465942383,16.357357025146484,3600
2019-09-10,17.6299991607666,17.920000076293945,17.6299991607666,17.920000076293945,16.458389282226562,900
2019-09-11,18.18000030517578,18.43000030517578,18.079999923706055,18.239999771118164,16.752290725708008,4400
2019-09-12,18.09000015258789,18.3700008392334,18.0,18.149999618530273,16.66963005065918,18800
2019-09-13,18.280000686645508,18.280000686645508,18.0,18.040000915527344,16.568601608276367,12500
2019-09-16,18.049999237060547,18.579999923706055,18.049999237060547,18.549999237060547,17.037004470825195,21400
2019-09-17,18.729999542236328,18.75,18.65999984741211,18.65999984741211,17.138032913208008,12500
2019-09-18,18.75,18.780000686645508,18.709999084472656,18.709999084472656,17.1839542388916,5300
2019-09-19,18.829999923706055,18.829999923706055,18.350000381469727,18.56999969482422,17.055374145507812,2300
2019-09-20,18.489999771118164,19.0,18.1200008392334,18.520000457763672,17.00945281982422,46000
2019-09-23,18.68000030517578,18.799999237060547,18.68000030517578,18.729999542236328,17.202322006225586,9000
2019-09-24,18.719999313354492,18.719999313354492,18.229999542236328,18.579999923706055,17.064556121826172,8100
2019-09-25,18.729999542236328,18.81999969482422,18.729999542236328,18.770000457763672,17.239063262939453,6300
2019-09-26,18.760000228881836,18.93000030517578,18.75,18.799999237060547,17.266611099243164,6800
2019-09-27,18.93000030517578,19.0,18.90999984741211,18.940000534057617,17.395193099975586,10000
2019-09-30,19.0,19.0,18.799999237060547,18.799999237060547,17.358261108398438,10200
2019-10-01,18.889999389648438,19.149999618530273,18.649999618530273,18.649999618530273,17.219762802124023,37300
2019-10-02,18.709999084472656,18.93000030517578,18.5,18.790000915527344,17.349031448364258,8000
2019-10-03,18.010000228881836,18.739999771118164,18.010000228881836,18.739999771118164,17.3028621673584,700
2019-10-04,18.610000610351562,18.739999771118164,18.110000610351562,18.350000381469727,16.942771911621094,5100
2019-10-07,18.34000015258789,18.34000015258789,17.799999237060547,17.799999237060547,16.434951782226562,1200
2019-10-08,17.799999237060547,17.799999237060547,17.549999237060547,17.549999237060547,16.204124450683594,1600
2019-10-09,17.5,17.5,17.5,17.5,16.157957077026367,800
2019-10-10,17.559999465942383,17.559999465942383,17.559999465942383,17.559999465942383,16.213356018066406,700
2019-10-11,17.559999465942383,18.5,17.559999465942383,18.06999969482422,16.68424415588379,1700
2019-10-14,18.0,18.0,18.0,18.0,16.619613647460938,500
2019-10-15,17.889999389648438,17.889999389648438,17.889999389648438,17.889999389648438,16.518047332763672,700
2019-10-16,18.049999237060547,18.049999237060547,18.049999237060547,18.049999237060547,16.66577911376953,400
2019-10-17,17.850000381469727,18.0,17.850000381469727,18.0,16.619613647460938,1900
2019-10-18,17.860000610351562,18.139999389648438,17.860000610351562,18.100000381469727,16.711944580078125,8900
2019-10-21,18.110000610351562,18.229999542236328,18.010000228881836,18.100000381469727,16.711944580078125,11300
2019-10-22,17.959999084472656,17.959999084472656,17.959999084472656,17.959999084472656,16.582679748535156,500
2019-10-23,18.100000381469727,18.100000381469727,17.700000762939453,18.09000015258789,16.702707290649414,6600
2019-10-24,17.399999618530273,18.100000381469727,17.399999618530273,18.100000381469727,16.711944580078125,3000
2019-10-25,18.100000381469727,18.190000534057617,18.040000915527344,18.100000381469727,16.711944580078125,4300
2019-10-28,17.520000457763672,18.100000381469727,17.520000457763672,18.100000381469727,16.711944580078125,5800
2019-10-29,17.920000076293945,18.200000762939453,17.920000076293945,18.200000762939453,16.804275512695312,2700
2019-10-30,18.200000762939453,18.200000762939453,18.059999465942383,18.200000762939453,16.804275512695312,4300
2019-10-31,17.989999771118164,18.219999313354492,17.989999771118164,18.200000762939453,16.804275512695312,3500
2019-11-01,18.649999618530273,18.93000030517578,18.639999389648438,18.739999771118164,17.3028621673584,3900
2019-11-04,18.979999542236328,18.979999542236328,18.6299991607666,18.6299991607666,17.201297760009766,2400
2019-11-05,18.239999771118164,18.979999542236328,18.239999771118164,18.979999542236328,17.524457931518555,3500
2019-11-06,18.700000762939453,18.700000762939453,18.700000762939453,18.700000762939453,17.265932083129883,300
2019-11-07,18.75,18.950000762939453,18.59000015258789,18.75,17.312095642089844,5200
2019-11-08,18.75,18.93000030517578,18.719999313354492,18.719999313354492,17.284395217895508,1300
2019-11-11,18.950000762939453,18.950000762939453,18.860000610351562,18.950000762939453,17.49675941467285,4400
2019-11-12,18.899999618530273,19.0,18.899999618530273,18.959999084472656,17.505992889404297,9400
2019-11-13,18.43000030517578,19.06999969482422,18.43000030517578,19.06999969482422,17.607553482055664,500
2019-11-14,18.84000015258789,18.84000015258789,18.510000228881836,18.75,17.312095642089844,1400
2019-11-15,18.899999618530273,19.149999618530273,18.75,18.850000381469727,17.404428482055664,3700
2019-11-18,19.010000228881836,19.100000381469727,18.860000610351562,18.920000076293945,17.469058990478516,5200
2019-11-19,18.959999084472656,19.100000381469727,18.940000534057617,19.100000381469727,17.635255813598633,3600
2019-11-20,19.25,19.25,18.760000228881836,18.760000228881836,17.321331024169922,10300
2019-11-21,19.030000686645508,19.030000686645508,18.940000534057617,18.940000534057617,17.48752784729004,1100
2019-11-22,18.889999389648438,19.100000381469727,18.889999389648438,19.010000228881836,17.55215835571289,2400
2019-11-25,18.93000030517578,19.1299991607666,18.920000076293945,19.09000015258789,17.626020431518555,4400
2019-11-26,19.0,19.09000015258789,18.809999465942383,18.809999465942383,17.367494583129883,3500
2019-11-27,19.06999969482422,19.06999969482422,19.059999465942383,19.059999465942383,17.59832191467285,700
2019-11-29,18.90999984741211,18.90999984741211,18.90999984741211,18.90999984741211,17.459827423095703,800
2019-12-02,18.549999237060547,19.09000015258789,18.549999237060547,18.979999542236328,17.524457931518555,3700
2019-12-03,18.860000610351562,19.010000228881836,18.860000610351562,18.8799991607666,17.432126998901367,1100
2019-12-04,18.899999618530273,18.899999618530273,18.780000686645508,18.81999969482422,17.376726150512695,1200
2019-12-05,18.739999771118164,19.09000015258789,18.739999771118164,19.030000686645508,17.57062530517578,13000
2019-12-06,19.100000381469727,19.100000381469727,18.850000381469727,18.850000381469727,17.404428482055664,5800
2019-12-09,19.040000915527344,19.040000915527344,18.719999313354492,18.75,17.312095642089844,3700
2019-12-10,18.780000686645508,19.110000610351562,18.510000228881836,19.100000381469727,17.635255813598633,6000
2019-12-11,18.81999969482422,19.149999618530273,18.81999969482422,19.0,17.542924880981445,1300
2019-12-12,19.0,19.0,18.829999923706055,18.829999923706055,17.385961532592773,1200
2019-12-13,18.989999771118164,19.0,18.889999389648438,19.0,17.542924880981445,3300
2019-12-16,19.0,19.25,19.0,19.18000030517578,17.709121704101562,9900
2019-12-17,19.020000457763672,19.329999923706055,18.84000015258789,19.25,17.773752212524414,5000
2019-12-18,19.389999389648438,20.040000915527344,19.360000610351562,19.3700008392334,17.884552001953125,14900
2019-12-19,19.329999923706055,19.329999923706055,18.760000228881836,19.139999389648438,17.67218589782715,3100
2019-12-20,19.139999389648438,19.579999923706055,18.40999984741211,19.579999923706055,18.078445434570312,50500
2019-12-23,19.729999542236328,19.729999542236328,19.520000457763672,19.600000381469727,18.096912384033203,8300
2019-12-24,19.520000457763672,19.520000457763672,19.520000457763672,19.520000457763672,18.023048400878906,300
2019-12-26,19.510000228881836,19.649999618530273,19.309999465942383,19.540000915527344,18.04151153564453,16000
2019-12-27,19.06999969482422,19.06999969482422,18.649999618530273,18.969999313354492,17.975183486938477,5700
2019-12-30,18.75,18.75,18.229999542236328,18.420000076293945,17.454025268554688,9000
2019-12-31,18.229999542236328,19.09000015258789,18.229999542236328,18.959999084472656,17.965707778930664,1700
2020-01-02,19.020000457763672,19.229999542236328,18.8700008392334,18.920000076293945,17.927804946899414,1900
2020-01-03,19.09000015258789,19.09000015258789,18.510000228881836,18.510000228881836,17.539306640625,1200
2020-01-06,18.709999084472656,18.709999084472656,18.209999084472656,18.489999771118164,17.520357131958008,2200
2020-01-07,18.59000015258789,18.59000015258789,18.25,18.309999465942383,17.349794387817383,44400
2020-01-08,18.40999984741211,18.65999984741211,18.110000610351562,18.5,17.529830932617188,7700
2020-01-09,18.68000030517578,18.68000030517578,18.489999771118164,18.6299991607666,17.653011322021484,111600
2020-01-10,18.690000534057617,18.719999313354492,18.549999237060547,18.549999237060547,17.57720947265625,1800
2020-01-13,18.549999237060547,18.68000030517578,18.360000610351562,18.68000030517578,17.700389862060547,3500
2020-01-14,18.649999618530273,18.829999923706055,18.56999969482422,18.600000381469727,17.624588012695312,4600
2020-01-15,18.709999084472656,18.729999542236328,18.530000686645508,18.690000534057617,17.709867477416992,3800
2020-01-16,18.790000915527344,18.829999923706055,18.75,18.799999237060547,17.814096450805664,1700
2020-01-17,18.8799991607666,18.8799991607666,18.65999984741211,18.65999984741211,17.681442260742188,2800
2020-01-21,18.719999313354492,18.739999771118164,18.65999984741211,18.719999313354492,17.738292694091797,3900
2020-01-22,18.670000076293945,18.81999969482422,18.649999618530273,18.799999237060547,17.814096450805664,1200
2020-01-23,18.719999313354492,18.719999313354492,18.700000762939453,18.700000762939453,17.719343185424805,1400
2020-01-24,18.65999984741211,18.829999923706055,18.65999984741211,18.65999984741211,17.681442260742188,1300
2020-01-27,18.6299991607666,18.6299991607666,18.420000076293945,18.420000076293945,17.454025268554688,6700
2020-01-28,18.479999542236328,18.479999542236328,18.479999542236328,18.479999542236328,17.51087760925293,900
2020-01-29,18.540000915527344,18.56999969482422,18.540000915527344,18.56999969482422,17.596158981323242,1100
2020-01-30,18.100000381469727,18.540000915527344,18.100000381469727,18.540000915527344,17.567733764648438,2000
2020-01-31,18.190000534057617,18.190000534057617,18.190000534057617,18.190000534057617,17.236087799072266,1300
2020-02-03,18.25,18.25,18.200000762939453,18.200000762939453,17.245563507080078,1700
2020-02-04,18.979999542236328,18.979999542236328,18.299999237060547,18.799999237060547,17.814096450805664,4800
2020-02-05,18.790000915527344,18.920000076293945,18.420000076293945,18.899999618530273,17.908851623535156,2500
2020-02-06,18.56999969482422,18.56999969482422,18.5,18.520000457763672,17.548784255981445,2900
2020-02-07,18.3700008392334,18.3700008392334,18.3700008392334,18.3700008392334,17.406648635864258,1100
2020-02-10,18.799999237060547,18.799999237060547,18.799999237060547,18.799999237060547,17.814096450805664,500
2020-02-11,18.469999313354492,18.520000457763672,18.40999984741211,18.510000228881836,17.539306640625,2100
2020-02-12,18.889999389648438,18.920000076293945,18.5,18.510000228881836,17.539306640625,6300
2020-02-13,18.5,18.6299991607666,18.5,18.6299991607666,17.653011322021484,600
2020-02-14,18.8799991607666,18.8799991607666,18.5,18.75,17.766719818115234,1300
2020-02-18,18.75,18.75,18.75,18.75,17.766719818115234,0
2020-02-19,18.5,18.510000228881836,18.5,18.510000228881836,17.539306640625,1300
2020-02-20,18.610000610351562,18.610000610351562,18.510000228881836,18.510000228881836,17.539306640625,700
2020-02-21,18.639999389648438,18.639999389648438,18.420000076293945,18.469999313354492,17.50140380859375,7100
2020-02-24,18.43000030517578,18.43000030517578,18.350000381469727,18.350000381469727,17.387697219848633,3100
2020-02-25,18.56999969482422,18.56999969482422,18.549999237060547,18.549999237060547,17.57720947265625,1300
2020-02-26,18.3799991607666,18.3799991607666,18.3799991607666,18.3799991607666,17.416122436523438,400
2020-02-27,18.15999984741211,18.219999313354492,18.0,18.0,17.056053161621094,5100
2020-02-28,18.0,18.190000534057617,17.8799991607666,17.899999618530273,16.96129608154297,16900
2020-03-02,17.940000534057617,17.940000534057617,16.610000610351562,17.219999313354492,16.316957473754883,12500
2020-03-03,16.75,16.75,15.65999984741211,15.65999984741211,14.838764190673828,3500
2020-03-04,16.219999313354492,16.219999313354492,15.300000190734863,15.390000343322754,14.582923889160156,8900
2020-03-05,15.399999618530273,15.399999618530273,15.100000381469727,15.260000228881836,14.459741592407227,7200
2020-03-06,14.720000267028809,14.9399995803833,14.59000015258789,14.59000015258789,13.82487678527832,3600
2020-03-09,13.949999809265137,13.949999809265137,9.819999694824219,10.84000015258789,10.27153205871582,19300
2020-03-10,11.0,12.479999542236328,10.130000114440918,10.699999809265137,10.138875007629395,29500
2020-03-11,10.720000267028809,10.720000267028809,9.539999961853027,9.970000267028809,9.447157859802246,238200
2020-03-12,10.300000190734863,10.300000190734863,7.03000020980835,7.570000171661377,7.173017501831055,22500
2020-03-13,9.649999618530273,9.949999809265137,8.699999809265137,8.970000267028809,8.49959945678711,44300
2020-03-16,8.640000343322754,8.699999809265137,7.610000133514404,8.130000114440918,7.703649044036865,156900
2020-03-17,7.800000190734863,7.829999923706055,6.0,6.480000019073486,6.140178680419922,60000
2020-03-18,6.190000057220459,6.989999771118164,5.579999923706055,5.809999942779541,5.505314350128174,33700
2020-03-19,6.050000190734863,7.96999979019165,6.019999980926514,6.650000095367432,6.301263332366943,27100
2020-03-20,6.309999942779541,7.889999866485596,6.309999942779541,7.0,6.632908821105957,27600
2020-03-23,7.199999809265137,7.5,6.590000152587891,7.239999771118164,6.86032247543335,6200
2020-03-24,7.949999809265137,8.899999618530273,7.210000038146973,8.75,8.291136741638184,479300
2020-03-25,9.0,9.229999542236328,7.960000038146973,9.170000076293945,8.689111709594727,23400
2020-03-26,8.170000076293945,9.34000015258789,8.170000076293945,8.949999809265137,8.480648040771484,9000
2020-03-27,8.529999732971191,8.880000114440918,7.679999828338623,8.029999732971191,7.608893871307373,5700
2020-03-30,8.75,8.75,7.989999771118164,8.0,7.676059722900391,15000
2020-03-31,8.170000076293945,8.25,7.699999809265137,7.940000057220459,7.618488788604736,15200
2020-04-01,7.5,7.699999809265137,6.909999847412109,6.949999809265137,6.668576240539551,11900
2020-04-02,7.170000076293945,7.210000038146973,6.75,7.0,6.716552257537842,18700
2020-04-03,6.849999904632568,6.880000114440918,6.650000095367432,6.699999809265137,6.428699970245361,9200
2020-04-06,7.050000190734863,7.730000019073486,7.050000190734863,7.150000095367432,6.860478401184082,7300
2020-04-07,7.289999961853027,7.369999885559082,6.710000038146973,6.900000095367432,6.620601177215576,43800
2020-04-08,7.0,7.239999771118164,6.650000095367432,7.239999771118164,6.946833610534668,39500
2020-04-09,7.730000019073486,8.130000114440918,7.300000190734863,7.869999885559082,7.551323890686035,26900
2020-04-13,7.449999809265137,7.949999809265137,6.820000171661377,6.820000171661377,6.543841361999512,53300
2020-04-14,7.159999847412109,7.159999847412109,6.849999904632568,6.869999885559082,6.591816425323486,17200
2020-04-15,7.559999942779541,7.739999771118164,6.489999771118164,6.820000171661377,6.543841361999512,14300
2020-04-16,7.039999961853027,7.070000171661377,6.650000095367432,6.760000228881836,6.486270427703857,11800
2020-04-17,6.920000076293945,7.170000076293945,6.900000095367432,7.170000076293945,6.879668712615967,10300
2020-04-20,7.480000019073486,7.53000020980835,6.71999979019165,6.760000228881836,6.486270427703857,9100
2020-04-21,6.699999809265137,6.75,6.650000095367432,6.710000038146973,6.438294887542725,14800
2020-04-22,6.789999961853027,7.46999979019165,6.789999961853027,7.159999847412109,6.870073318481445,10700
2020-04-23,7.090000152587891,7.570000171661377,6.900000095367432,7.090000152587891,6.802907943725586,4400
2020-04-24,6.800000190734863,7.130000114440918,6.78000020980835,7.03000020980835,6.74533748626709,9800
2020-04-27,7.239999771118164,8.079999923706055,7.239999771118164,7.679999828338623,7.369017124176025,15700
2020-04-28,8.149999618530273,8.149999618530273,7.75,8.0,7.676059722900391,8200
2020-04-29,8.350000381469727,8.470000267028809,7.710000038146973,8.15999984741211,7.8295817375183105,25900
2020-04-30,7.769999980926514,11.350000381469727,7.769999980926514,10.0,9.595074653625488,76200
2020-05-01,10.0,11.25,9.199999809265137,9.65999984741211,9.268840789794922,26200
2020-05-04,9.649999618530273,10.850000381469727,9.649999618530273,10.399999618530273,9.978877067565918,20500
2020-05-05,10.75,10.75,9.609999656677246,10.130000114440918,9.719810485839844,16800
2020-05-06,10.649999618530273,10.649999618530273,9.920000076293945,10.010000228881836,9.604670524597168,12300
2020-05-07,10.229999542236328,10.380000114440918,9.680000305175781,10.039999961853027,9.633455276489258,16600
2020-05-08,10.390000343322754,10.75,9.989999771118164,10.75,10.314703941345215,37500
2020-05-11,10.710000038146973,10.729999542236328,10.359999656677246,10.359999656677246,9.940496444702148,15900
2020-05-12,10.140000343322754,10.489999771118164,10.020000457763672,10.1899995803833,9.77738094329834,16300
2020-05-13,9.899999618530273,9.960000038146973,8.779999732971191,9.119999885559082,8.75070858001709,35200
2020-05-14,8.800000190734863,9.199999809265137,8.670000076293945,9.069999694824219,8.702733993530273,11600
2020-05-15,9.039999961853027,9.300000190734863,8.819999694824219,9.050000190734863,8.68354320526123,41300
2020-05-18,9.850000381469727,10.319999694824219,9.75,10.300000190734863,9.882927894592285,17100
2020-05-19,9.5,9.5600004196167,9.100000381469727,9.210000038146973,8.837063789367676,48800
2020-05-20,9.449999809265137,9.739999771118164,9.170000076293945,9.279999732971191,8.904230117797852,28300
2020-05-21,9.119999885559082,9.399999618530273,8.829999923706055,8.90999984741211,8.549210548400879,37900
2020-05-22,8.779999732971191,8.970000267028809,8.779999732971191,8.970000267028809,8.606781005859375,8600
2020-05-26,9.3100004196167,9.739999771118164,9.300000190734863,9.569999694824219,9.182486534118652,10400
2020-05-27,9.880000114440918,10.199999809265137,9.789999961853027,10.020000457763672,9.614264488220215,23800
2020-05-28,10.229999542236328,10.479999542236328,10.0600004196167,10.0600004196167,9.652645111083984,14600
2020-05-29,10.220000267028809,10.390000343322754,10.199999809265137,10.199999809265137,9.786974906921387,2600
2020-06-01,10.430000305175781,10.4399995803833,9.960000038146973,10.010000228881836,9.604670524597168,11700
2020-06-02,10.25,10.25,9.75,9.75,9.35519790649414,12200
2020-06-03,9.979999542236328,10.25,9.859999656677246,10.130000114440918,9.719810485839844,14200
2020-06-04,10.109999656677246,10.399999618530273,10.050000190734863,10.369999885559082,9.950092315673828,20900
2020-06-05,10.720000267028809,12.0,10.720000267028809,11.149999618530273,10.698508262634277,44200
2020-06-08,11.25,12.739999771118164,11.25,12.569999694824219,12.06100845336914,19500
2020-06-09,12.09000015258789,13.1899995803833,12.09000015258789,13.1899995803833,12.655902862548828,15500
2020-06-10,12.069999694824219,13.850000381469727,11.640000343322754,11.930000305175781,11.44692325592041,20500
2020-06-11,11.25,11.25,10.5,10.529999732971191,10.103612899780273,12500
2020-06-12,10.890000343322754,10.890000343322754,9.720000267028809,10.510000228881836,10.08442497253418,13400
2020-06-15,10.229999542236328,10.380000114440918,9.210000038146973,10.319999694824219,9.902116775512695,22600
2020-06-16,10.75,10.859999656677246,9.90999984741211,10.09000015258789,9.681429862976074,19300
2020-06-17,10.279999732971191,10.279999732971191,9.649999618530273,9.859999656677246,9.46074390411377,6200
2020-06-18,9.850000381469727,10.109999656677246,9.819999694824219,10.109999656677246,9.7006196975708,80100
2020-06-19,10.300000190734863,10.300000190734863,9.899999618530273,10.270000457763672,9.854141235351562,22700
2020-06-22,10.180000305175781,10.180000305175781,9.989999771118164,10.0600004196167,9.652645111083984,4700
2020-06-23,10.0,10.130000114440918,9.899999618530273,9.899999618530273,9.499123573303223,6800
2020-06-24,9.34000015258789,10.170000076293945,9.15999984741211,9.880000114440918,9.576667785644531,22700
2020-06-25,9.430000305175781,10.25,9.270000457763672,10.039999961853027,9.731755256652832,10000
2020-06-26,9.869999885559082,11.609999656677246,9.59000015258789,11.609999656677246,11.25355339050293,89400
2020-06-29,11.300000190734863,11.300000190734863,10.140000343322754,10.680000305175781,10.352107048034668,21700
2020-06-30,10.739999771118164,10.859999656677246,10.739999771118164,10.859999656677246,10.526579856872559,2600
2020-07-01,11.479999542236328,11.479999542236328,10.619999885559082,10.890000343322754,10.555659294128418,10900
2020-07-02,10.970000267028809,11.270000457763672,10.90999984741211,11.039999961853027,10.701054573059082,6500
2020-07-06,11.039999961853027,11.039999961853027,10.0600004196167,10.5,10.177632331848145,37400
2020-07-07,10.5,10.84000015258789,10.039999961853027,10.050000190734863,9.741448402404785,5300
2020-07-08,10.0,10.289999961853027,10.0,10.210000038146973,9.896535873413086,21700
2020-07-09,10.329999923706055,10.510000228881836,9.899999618530273,9.9399995803833,9.634824752807617,15700
2020-07-10,10.020000457763672,10.020000457763672,9.699999809265137,10.010000228881836,9.702677726745605,9800
2020-07-13,9.920000076293945,10.109999656677246,9.880000114440918,10.109999656677246,9.799605369567871,5600
2020-07-14,9.989999771118164,9.989999771118164,9.649999618530273,9.649999618530273,9.353729248046875,26300
2020-07-15,9.890000343322754,10.300000190734863,9.880000114440918,10.119999885559082,9.809300422668457,9500
2020-07-16,10.0,10.020000457763672,9.630000114440918,9.949999809265137,9.644518852233887,12000
2020-07-17,9.899999618530273,10.079999923706055,9.680000305175781,9.850000381469727,9.547589302062988,5600
2020-07-20,9.789999961853027,9.850000381469727,9.510000228881836,9.699999809265137,9.40219497680664,10800
2020-07-21,10.09000015258789,10.09000015258789,9.75,9.960000038146973,9.65421199798584,10700
2020-07-22,9.789999961853027,9.789999961853027,9.600000381469727,9.739999771118164,9.440966606140137,4300
2020-07-23,9.630000114440918,9.869999885559082,9.380000114440918,9.449999809265137,9.159869194030762,4400
2020-07-24,9.5,9.779999732971191,9.25,9.5,9.208333969116211,19100
2020-07-27,9.109999656677246,10.0,9.100000381469727,10.0,9.69298267364502,13600
2020-07-28,9.699999809265137,10.0,9.699999809265137,9.920000076293945,9.615440368652344,4300
2020-07-29,10.050000190734863,10.050000190734863,9.880000114440918,9.890000343322754,9.586359977722168,2200
2020-07-30,9.890000343322754,10.0,9.890000343322754,9.890000343322754,9.586359977722168,8000
2020-07-31,9.90999984741211,10.350000381469727,9.869999885559082,9.90999984741211,9.60574722290039,3800
2020-08-03,10.0,10.0,9.789999961853027,9.789999961853027,9.489431381225586,43000
2020-08-04,10.119999885559082,10.119999885559082,10.119999885559082,10.119999885559082,9.809300422668457,1000
2020-08-05,10.010000228881836,10.109999656677246,9.90999984741211,10.109999656677246,9.799605369567871,2800
2020-08-06,10.5,10.510000228881836,10.329999923706055,10.4399995803833,10.119474411010742,3400
2020-08-07,10.100000381469727,10.859999656677246,10.100000381469727,10.859999656677246,10.526579856872559,6000
2020-08-10,10.609999656677246,11.670000076293945,10.5,11.09000015258789,10.749519348144531,1600
2020-08-11,11.039999961853027,11.600000381469727,11.0,11.350000381469727,11.001537322998047,6200
2020-08-12,11.859999656677246,11.859999656677246,10.920000076293945,11.470000267028809,11.117853164672852,3700
2020-08-13,11.199999809265137,11.4399995803833,11.199999809265137,11.4399995803833,11.088772773742676,1000
2020-08-14,11.470000267028809,12.399999618530273,11.220000267028809,11.6899995803833,11.331098556518555,12100
2020-08-17,11.289999961853027,11.289999961853027,11.289999961853027,11.289999961853027,10.943379402160645,400
2020-08-18,11.0,11.229999542236328,10.800000190734863,10.800000190734863,10.468422889709473,2900
2020-08-19,11.0,11.0,10.630000114440918,10.680000305175781,10.352107048034668,2100
2020-08-20,10.170000076293945,10.359999656677246,10.170000076293945,10.260000228881836,9.945001602172852,900
2020-08-21,10.40999984741211,11.039999961853027,10.199999809265137,10.25,9.935307502746582,11900
2020-08-24,10.510000228881836,10.579999923706055,10.300000190734863,10.5,10.177632331848145,5700
2020-08-25,10.4399995803833,10.90999984741211,10.289999961853027,10.289999961853027,9.974080085754395,1500
2020-08-26,10.170000076293945,10.710000038146973,10.170000076293945,10.520000457763672,10.19701862335205,3600
2020-08-27,10.5,10.5,10.0,10.0,9.69298267364502,1100
2020-08-28,10.260000228881836,11.399999618530273,10.260000228881836,11.399999618530273,11.05000114440918,2300
2020-08-31,10.819999694824219,11.0,10.239999771118164,10.239999771118164,9.925616264343262,10400
2020-09-01,10.399999618530273,10.449999809265137,10.039999961853027,10.039999961853027,9.731755256652832,5900
2020-09-02,10.0,10.140000343322754,9.800000190734863,9.850000381469727,9.547589302062988,20600
2020-09-03,9.010000228881836,10.140000343322754,9.010000228881836,10.140000343322754,9.828686714172363,6600
2020-09-04,9.770000457763672,10.020000457763672,9.770000457763672,10.0,9.69298267364502,7700
2020-09-08,9.630000114440918,9.949999809265137,9.380000114440918,9.699999809265137,9.40219497680664,33400
2020-09-09,9.609999656677246,9.960000038146973,9.609999656677246,9.869999885559082,9.566974639892578,3800
2020-09-10,9.899999618530273,10.079999923706055,9.600000381469727,9.649999618530273,9.353729248046875,10500
2020-09-11,9.720000267028809,9.720000267028809,9.600000381469727,9.65999984741211,9.363420486450195,1600
2020-09-14,9.829999923706055,9.890000343322754,9.649999618530273,9.890000343322754,9.586359977722168,4200
2020-09-15,9.880000114440918,10.029999732971191,9.550000190734863,9.550000190734863,9.256799697875977,4300
2020-09-16,9.609999656677246,9.609999656677246,9.3100004196167,9.399999618530273,9.111404418945312,6100
2020-09-17,9.5600004196167,9.59000015258789,9.5,9.550000190734863,9.256799697875977,30800
2020-09-18,9.640000343322754,9.640000343322754,9.5,9.550000190734863,9.256799697875977,24000
2020-09-21,9.399999618530273,9.40999984741211,9.180000305175781,9.25,8.966010093688965,9100
2020-09-22,9.350000381469727,9.350000381469727,9.0,9.140000343322754,8.859387397766113,12400
2020-09-23,9.199999809265137,9.199999809265137,8.109999656677246,8.510000228881836,8.248729705810547,32100
2020-09-24,8.569999694824219,8.979999542236328,8.569999694824219,8.569999694824219,8.306886672973633,2800
2020-09-25,8.720000267028809,8.970000267028809,8.569999694824219,8.75,8.48136043548584,10600
2020-09-28,8.970000267028809,9.630000114440918,8.970000267028809,9.4399995803833,9.150176048278809,15500
2020-09-29,9.109999656677246,9.75,9.109999656677246,9.75,9.551843643188477,1200
2020-09-30,9.369999885559082,9.710000038146973,9.270000457763672,9.399999618530273,9.208956718444824,5500
2020-10-01,9.649999618530273,9.760000228881836,9.399999618530273,9.399999618530273,9.208956718444824,153700
2020-10-02,9.279999732971191,9.279999732971191,9.180000305175781,9.180000305175781,8.993428230285645,2400
2020-10-05,9.210000038146973,9.970000267028809,9.210000038146973,9.970000267028809,9.767374038696289,12700
2020-10-06,10.0,10.149999618530273,9.40999984741211,9.510000228881836,9.31672191619873,10800
2020-10-07,9.5,9.710000038146973,9.489999771118164,9.649999618530273,9.453876495361328,9200
2020-10-08,9.609999656677246,9.890000343322754,9.609999656677246,9.729999542236328,9.532249450683594,7200
2020-10-09,9.699999809265137,9.710000038146973,9.449999809265137,9.5,9.306924819946289,12000
2020-10-12,9.59000015258789,9.970000267028809,9.550000190734863,9.949999809265137,9.747779846191406,4900
2020-10-13,9.579999923706055,9.699999809265137,9.460000038146973,9.5,9.306924819946289,18000
2020-10-14,9.510000228881836,9.569999694824219,9.449999809265137,9.449999809265137,9.257940292358398,3900
2020-10-15,9.449999809265137,9.449999809265137,9.199999809265137,9.449999809265137,9.257940292358398,3300
2020-10-16,9.329999923706055,9.470000267028809,9.300000190734863,9.319999694824219,9.130583763122559,2800
2020-10-19,9.720000267028809,9.770000457763672,9.300000190734863,9.300000190734863,9.110989570617676,22500
2020-10-20,9.34000015258789,9.569999694824219,9.34000015258789,9.539999961853027,9.346112251281738,1200
2020-10-21,9.510000228881836,9.619999885559082,9.270000457763672,9.510000228881836,9.31672191619873,23800
2020-10-22,9.649999618530273,9.819999694824219,9.5600004196167,9.5600004196167,9.365705490112305,28000
2020-10-23,9.579999923706055,9.850000381469727,9.550000190734863,9.550000190734863,9.35590934753418,6500
2020-10-26,9.300000190734863,9.399999618530273,9.300000190734863,9.399999618530273,9.208956718444824,1800
2020-10-27,9.529999732971191,9.529999732971191,9.319999694824219,9.359999656677246,9.169770240783691,3000
2020-10-28,9.199999809265137,9.199999809265137,9.079999923706055,9.130000114440918,8.94444465637207,6800
2020-10-29,9.260000228881836,9.260000228881836,9.100000381469727,9.170000076293945,8.98363208770752,3700
2020-10-30,9.300000190734863,9.300000190734863,9.069999694824219,9.069999694824219,8.885664939880371,10800
2020-11-02,9.1899995803833,9.600000381469727,9.1899995803833,9.550000190734863,9.35590934753418,23100
2020-11-03,9.640000343322754,9.670000076293945,9.420000076293945,9.449999809265137,9.257940292358398,16900
2020-11-04,9.329999923706055,9.609999656677246,9.079999923706055,9.380000114440918,9.189364433288574,59900
2020-11-05,9.569999694824219,9.760000228881836,9.289999961853027,9.729999542236328,9.532249450683594,8100
2020-11-06,9.699999809265137,9.8100004196167,9.529999732971191,9.550000190734863,9.35590934753418,6700
2020-11-09,9.970000267028809,12.40999984741211,9.949999809265137,11.90999984741211,11.667943954467773,31500
2020-11-10,11.850000381469727,12.630000114440918,11.130000114440918,12.149999618530273,11.903066635131836,15800
2020-11-11,12.010000228881836,12.100000381469727,11.850000381469727,11.979999542236328,11.73652172088623,5900
2020-11-12,11.420000076293945,11.529999732971191,10.899999618530273,11.239999771118164,11.011561393737793,7500
2020-11-13,11.239999771118164,11.399999618530273,11.0,11.199999809265137,10.97237491607666,4700
2020-11-16,11.4399995803833,11.859999656677246,11.4399995803833,11.859999656677246,11.6189603805542,7000
2020-11-17,11.800000190734863,12.399999618530273,11.640000343322754,11.829999923706055,11.589570999145508,3200
2020-11-18,11.989999771118164,12.460000038146973,11.850000381469727,12.020000457763672,11.77570915222168,9500
2020-11-19,12.149999618530273,12.149999618530273,11.510000228881836,11.670000076293945,11.432823181152344,3900
2020-11-20,11.5,12.399999618530273,11.5,12.149999618530273,11.903066635131836,4300
2020-11-23,12.15999984741211,12.390000343322754,11.75,11.779999732971191,11.540586471557617,18000
2020-11-24,11.859999656677246,12.6899995803833,11.859999656677246,12.619999885559082,12.36351490020752,7100
2020-11-25,12.550000190734863,12.699999809265137,12.420000076293945,12.529999732971191,12.275344848632812,4000
2020-11-27,12.949999809265137,12.949999809265137,12.449999809265137,12.640000343322754,12.383109092712402,2400
2020-11-30,12.510000228881836,12.510000228881836,12.140000343322754,12.15999984741211,11.912863731384277,2100
2020-12-01,12.229999542236328,12.609999656677246,12.100000381469727,12.199999809265137,11.95205020904541,3300
2020-12-02,12.399999618530273,12.489999771118164,12.170000076293945,12.170000076293945,11.922661781311035,3600
2020-12-03,12.170000076293945,12.359999656677246,11.90999984741211,11.90999984741211,11.667943954467773,11200
2020-12-04,12.15999984741211,12.90999984741211,11.75,11.9399995803833,11.697335243225098,13000
2020-12-07,12.0,12.34000015258789,11.899999618530273,11.899999618530273,11.658148765563965,14600
2020-12-08,11.920000076293945,12.119999885559082,11.600000381469727,11.800000190734863,11.560179710388184,10500
2020-12-09,11.899999618530273,11.899999618530273,11.600000381469727,11.609999656677246,11.374041557312012,11700
2020-12-10,11.859999656677246,11.880000114440918,11.65999984741211,11.850000381469727,11.60916519165039,6700
2020-12-11,11.890000343322754,12.930000305175781,11.75,12.079999923706055,11.834489822387695,7000
2020-12-14,12.329999923706055,12.579999923706055,12.069999694824219,12.3100004196167,12.059815406799316,8300
2020-12-15,12.880000114440918,12.880000114440918,12.420000076293945,12.420000076293945,12.167579650878906,2900
2020-12-16,12.779999732971191,12.930000305175781,12.5,12.5,12.245953559875488,5500
2020-12-17,12.710000038146973,12.869999885559082,12.149999618530273,12.75,12.490873336791992,8000
2020-12-18,12.960000038146973,14.979999542236328,12.850000381469727,13.539999961853027,13.264816284179688,26900
2020-12-21,13.390000343322754,14.15999984741211,13.390000343322754,13.9399995803833,13.768543243408203,18200
2020-12-22,13.25,14.5,13.25,14.050000190734863,13.877191543579102,50000
2020-12-23,13.970000267028809,14.210000038146973,13.949999809265137,14.199999809265137,14.025345802307129,9200
2020-12-24,14.289999961853027,14.359999656677246,13.899999618530273,13.899999618530273,13.729035377502441,3200
2020-12-28,14.470000267028809,15.0,14.050000190734863,14.510000228881836,14.331533432006836,7800
2020-12-29,14.149999618530273,14.529999732971191,14.149999618530273,14.34000015258789,14.16362476348877,7200
2020-12-30,14.329999923706055,14.600000381469727,14.329999923706055,14.390000343322754,14.213008880615234,2600
