Date,Open,High,Low,Close,Adj Close,Volume
2020-10-08,9.75,9.75,9.725000381469727,9.729999542236328,9.729999542236328,1165200
2020-10-09,9.734999656677246,9.739999771118164,9.729999542236328,9.739999771118164,9.739999771118164,311500
2020-10-12,9.729999542236328,9.739999771118164,9.729999542236328,9.729999542236328,9.729999542236328,130000
2020-10-13,9.729999542236328,9.729999542236328,9.729999542236328,9.729999542236328,9.729999542236328,1525800
2020-10-14,9.753000259399414,9.765000343322754,9.734999656677246,9.734999656677246,9.734999656677246,1007400
2020-10-15,9.74899959564209,9.74899959564209,9.729999542236328,9.729999542236328,9.729999542236328,1500
2020-10-16,9.729999542236328,9.729999542236328,9.710000038146973,9.710000038146973,9.710000038146973,4200
2020-10-19,9.729999542236328,9.729999542236328,9.680999755859375,9.720000267028809,9.720000267028809,25100
2020-10-20,9.710000038146973,9.739999771118164,9.710000038146973,9.739999771118164,9.739999771118164,5900
2020-10-21,9.720000267028809,9.729999542236328,9.699999809265137,9.699999809265137,9.699999809265137,52300
2020-10-22,9.699999809265137,9.699999809265137,9.699999809265137,9.699999809265137,9.699999809265137,189300
2020-10-23,9.699999809265137,9.699999809265137,9.699999809265137,9.699999809265137,9.699999809265137,100
2020-10-26,9.699999809265137,9.699999809265137,9.699999809265137,9.699999809265137,9.699999809265137,0
2020-10-27,9.699999809265137,9.699999809265137,9.699999809265137,9.699999809265137,9.699999809265137,0
2020-10-28,9.670000076293945,9.770000457763672,9.640000343322754,9.739999771118164,9.739999771118164,21000
2020-10-29,9.649999618530273,9.649999618530273,9.640000343322754,9.640000343322754,9.640000343322754,400
2020-10-30,9.640000343322754,9.640000343322754,9.640000343322754,9.640000343322754,9.640000343322754,0
2020-11-02,9.640000343322754,9.640000343322754,9.640000343322754,9.640000343322754,9.640000343322754,0
2020-11-03,9.699999809265137,9.699999809265137,9.699999809265137,9.699999809265137,9.699999809265137,21800
2020-11-04,9.739999771118164,9.739999771118164,9.739999771118164,9.739999771118164,9.739999771118164,200
2020-11-05,9.75,9.758999824523926,9.729999542236328,9.75,9.75,172100
2020-11-06,9.75,9.75,9.710000038146973,9.75,9.75,12500
2020-11-09,9.770000457763672,9.770000457763672,9.720000267028809,9.760000228881836,9.760000228881836,237300
2020-11-10,9.75,9.770000457763672,9.729999542236328,9.75,9.75,69000
2020-11-11,9.760000228881836,9.770000457763672,9.760000228881836,9.770000457763672,9.770000457763672,500800
2020-11-12,9.75,9.770000457763672,9.75,9.770000457763672,9.770000457763672,258000
2020-11-13,9.770000457763672,9.770000457763672,9.739999771118164,9.770000457763672,9.770000457763672,169300
2020-11-16,9.75,9.770000457763672,9.744999885559082,9.760000228881836,9.760000228881836,959100
2020-11-17,9.75,9.770000457763672,9.75,9.770000457763672,9.770000457763672,27200
2020-11-18,9.755000114440918,9.760000228881836,9.720000267028809,9.760000228881836,9.760000228881836,27000
2020-11-19,9.770000457763672,9.770000457763672,9.720000267028809,9.760000228881836,9.760000228881836,14000
2020-11-20,9.760000228881836,9.770000457763672,9.699999809265137,9.739999771118164,9.739999771118164,55600
2020-11-23,9.75,9.800000190734863,9.739999771118164,9.789999961853027,9.789999961853027,162900
2020-11-24,9.800000190734863,9.800000190734863,9.770000457763672,9.800000190734863,9.800000190734863,5300
2020-11-25,9.800000190734863,9.829999923706055,9.770000457763672,9.829999923706055,9.829999923706055,353000
2020-11-27,9.829999923706055,9.850000381469727,9.829999923706055,9.850000381469727,9.850000381469727,12200
2020-11-30,9.8100004196167,9.869999885559082,9.75,9.850000381469727,9.850000381469727,64500
2020-12-01,9.838000297546387,9.869999885559082,9.75,9.859999656677246,9.859999656677246,100200
2020-12-02,9.84000015258789,9.859999656677246,9.779999732971191,9.84000015258789,9.84000015258789,17000
2020-12-03,9.829999923706055,9.899999618530273,9.829999923706055,9.899999618530273,9.899999618530273,839400
2020-12-04,9.850000381469727,9.899999618530273,9.770000457763672,9.850000381469727,9.850000381469727,73300
2020-12-07,9.90999984741211,9.960000038146973,9.800000190734863,9.899999618530273,9.899999618530273,261900
2020-12-08,9.949999809265137,9.949999809265137,9.850000381469727,9.930000305175781,9.930000305175781,434000
2020-12-09,9.930000305175781,9.930000305175781,9.880000114440918,9.899999618530273,9.899999618530273,64800
2020-12-10,9.880000114440918,9.949999809265137,9.829999923706055,9.880000114440918,9.880000114440918,377600
2020-12-11,9.880000114440918,9.949999809265137,9.869999885559082,9.899999618530273,9.899999618530273,469900
2020-12-14,9.949999809265137,10.149999618530273,9.920000076293945,10.0,10.0,101400
2020-12-15,10.0,10.039999961853027,10.0,10.0,10.0,72000
2020-12-16,10.0,10.020000457763672,10.0,10.010000228881836,10.010000228881836,231700
2020-12-17,10.0,10.020000457763672,9.960000038146973,9.960000038146973,9.960000038146973,323500
2020-12-18,10.0,10.0,9.920000076293945,9.960000038146973,9.960000038146973,177900
2020-12-21,9.960000038146973,10.024999618530273,9.960000038146973,10.010000228881836,10.010000228881836,477800
2020-12-22,10.031999588012695,10.031999588012695,10.0,10.0,10.0,285400
2020-12-23,10.050000190734863,10.050000190734863,9.960000038146973,10.0,10.0,320300
2020-12-24,10.020000457763672,10.050000190734863,10.010000228881836,10.029999732971191,10.029999732971191,357800
2020-12-28,10.15999984741211,10.199999809265137,10.050000190734863,10.100000381469727,10.100000381469727,829100
2020-12-29,10.180000305175781,10.239999771118164,10.050000190734863,10.09000015258789,10.09000015258789,406900
2020-12-30,10.199999809265137,10.550000190734863,10.199999809265137,10.399999618530273,10.399999618530273,2830100
