Date,Open,High,Low,Close,Adj Close,Volume
2018-03-20,5.199999809265137,5.599999904632568,4.599999904632568,4.619999885559082,4.619999885559082,304300
2018-03-21,4.889999866485596,4.900000095367432,4.610000133514404,4.742000102996826,4.742000102996826,23200
2018-03-22,4.671000003814697,4.75,4.599999904632568,4.599999904632568,4.599999904632568,54100
2018-03-23,4.599999904632568,4.75,4.599999904632568,4.65500020980835,4.65500020980835,8400
2018-03-26,4.679999828338623,4.679999828338623,4.5,4.5,4.5,42100
2018-03-27,4.690000057220459,4.699999809265137,4.5,4.5,4.5,9200
2018-03-28,4.5,4.513999938964844,4.5,4.5,4.5,27800
2018-03-29,4.690000057220459,4.690000057220459,4.5,4.5,4.5,15900
2018-04-02,4.5920000076293945,4.5920000076293945,4.400000095367432,4.400000095367432,4.400000095367432,43400
2018-04-03,4.409999847412109,4.848999977111816,4.409999847412109,4.848999977111816,4.848999977111816,35100
2018-04-04,4.829999923706055,4.829999923706055,4.49399995803833,4.679999828338623,4.679999828338623,19700
2018-04-05,4.789999961853027,4.800000190734863,4.590000152587891,4.716000080108643,4.716000080108643,36600
2018-04-06,4.684000015258789,5.21999979019165,4.6579999923706055,4.75,4.75,64700
2018-04-09,4.900000095367432,4.900000095367432,4.730000019073486,4.828999996185303,4.828999996185303,20800
2018-04-10,4.9039998054504395,5.0,4.889999866485596,4.889999866485596,4.889999866485596,26600
2018-04-11,4.888999938964844,4.889999866485596,4.854000091552734,4.861000061035156,4.861000061035156,5900
2018-04-12,4.75,4.949999809265137,4.75,4.949999809265137,4.949999809265137,3800
2018-04-13,5.0,5.0,4.800000190734863,4.926000118255615,4.926000118255615,16000
2018-04-16,4.929999828338623,5.0,4.671000003814697,4.671000003814697,4.671000003814697,3200
2018-04-17,4.760000228881836,4.988999843597412,4.760000228881836,4.926000118255615,4.926000118255615,3600
2018-04-18,4.789999961853027,5.0,4.789999961853027,4.949999809265137,4.949999809265137,51600
2018-04-19,4.900000095367432,4.960000038146973,4.860000133514404,4.860000133514404,4.860000133514404,1200
2018-04-20,4.949999809265137,4.949999809265137,4.889999866485596,4.889999866485596,4.889999866485596,2600
2018-04-23,4.980000019073486,4.980000019073486,4.900000095367432,4.900000095367432,4.900000095367432,14900
2018-04-24,4.900000095367432,4.980000019073486,4.880000114440918,4.949999809265137,4.949999809265137,4100
2018-04-25,4.810999870300293,5.099999904632568,4.800000190734863,5.013000011444092,5.013000011444092,9200
2018-04-26,5.099999904632568,8.5,5.099999904632568,5.429999828338623,5.429999828338623,442700
2018-04-27,5.420000076293945,6.098999977111816,5.420000076293945,5.699999809265137,5.699999809265137,110000
2018-04-30,5.769999980926514,6.289999961853027,5.550000190734863,5.809999942779541,5.809999942779541,84400
2018-05-01,5.769999980926514,5.880000114440918,5.130000114440918,5.159999847412109,5.159999847412109,33200
2018-05-02,5.989999771118164,5.989999771118164,5.010000228881836,5.590000152587891,5.590000152587891,52400
2018-05-03,5.215000152587891,5.798999786376953,5.215000152587891,5.519999980926514,5.519999980926514,29800
2018-05-04,5.5,5.699999809265137,4.660999774932861,5.0,5.0,56900
2018-05-07,5.300000190734863,5.400000095367432,5.10699987411499,5.300000190734863,5.300000190734863,25900
2018-05-08,5.28000020980835,5.409999847412109,5.260000228881836,5.400000095367432,5.400000095367432,13800
2018-05-09,5.389999866485596,5.659999847412109,5.349999904632568,5.589000225067139,5.589000225067139,7700
2018-05-10,5.5,5.989999771118164,5.159999847412109,5.159999847412109,5.159999847412109,23600
2018-05-11,5.689000129699707,5.689000129699707,5.341000080108643,5.609000205993652,5.609000205993652,19700
2018-05-14,5.389999866485596,5.610000133514404,5.389999866485596,5.550000190734863,5.550000190734863,8100
2018-05-15,5.539999961853027,5.550000190734863,5.360000133514404,5.550000190734863,5.550000190734863,4200
2018-05-16,5.550000190734863,5.826000213623047,5.550000190734863,5.826000213623047,5.826000213623047,17300
2018-05-17,5.520999908447266,6.099999904632568,5.520999908447266,5.995999813079834,5.995999813079834,30900
2018-05-18,5.699999809265137,6.349999904632568,5.260000228881836,6.199999809265137,6.199999809265137,39200
2018-05-21,6.239999771118164,6.340000152587891,6.031000137329102,6.340000152587891,6.340000152587891,5100
2018-05-22,6.0,6.25,6.0,6.199999809265137,6.199999809265137,5700
2018-05-23,6.230000019073486,7.0,6.0,6.880000114440918,6.880000114440918,53400
2018-05-24,6.880000114440918,6.880000114440918,6.389999866485596,6.570000171661377,6.570000171661377,45300
2018-05-25,6.570000171661377,6.739999771118164,6.10099983215332,6.71999979019165,6.71999979019165,14300
2018-05-29,6.559999942779541,6.75,6.420000076293945,6.730000019073486,6.730000019073486,4500
2018-05-30,6.53000020980835,6.53000020980835,6.10099983215332,6.39900016784668,6.39900016784668,5300
2018-05-31,6.289999961853027,6.519000053405762,6.050000190734863,6.510000228881836,6.510000228881836,9400
2018-06-01,6.230000019073486,6.480000019073486,5.9710001945495605,6.460000038146973,6.460000038146973,17100
2018-06-04,6.2230000495910645,6.360000133514404,5.809999942779541,6.150000095367432,6.150000095367432,26900
2018-06-05,6.019999980926514,6.198999881744385,6.010000228881836,6.050000190734863,6.050000190734863,8300
2018-06-06,6.0,6.580999851226807,6.0,6.309999942779541,6.309999942779541,25700
2018-06-07,6.658999919891357,6.658999919891357,6.260000228881836,6.468999862670898,6.468999862670898,16400
2018-06-08,6.739999771118164,6.739999771118164,6.3420000076293945,6.590000152587891,6.590000152587891,1400
2018-06-11,6.5,6.5,6.159999847412109,6.480000019073486,6.480000019073486,2500
2018-06-12,6.46999979019165,6.699999809265137,6.230000019073486,6.699999809265137,6.699999809265137,10300
2018-06-13,6.75,6.75,6.060999870300293,6.598999977111816,6.598999977111816,35700
2018-06-14,6.400000095367432,6.590000152587891,6.210000038146973,6.550000190734863,6.550000190734863,19100
2018-06-15,6.619999885559082,7.510000228881836,6.619999885559082,7.39900016784668,7.39900016784668,56500
2018-06-18,7.389999866485596,7.949999809265137,6.8420000076293945,7.21999979019165,7.21999979019165,55400
2018-06-19,6.949999809265137,7.199999809265137,6.800000190734863,7.063000202178955,7.063000202178955,14600
2018-06-20,7.099999904632568,7.099999904632568,6.860000133514404,6.985000133514404,6.985000133514404,2800
2018-06-21,6.900000095367432,6.900000095367432,5.730999946594238,6.210000038146973,6.210000038146973,23200
2018-06-22,6.630000114440918,6.880000114440918,6.409999847412109,6.449999809265137,6.449999809265137,7000
2018-06-25,6.400000095367432,7.090000152587891,6.119999885559082,7.090000152587891,7.090000152587891,2200
2018-06-26,6.539999961853027,7.068999767303467,6.539999961853027,6.784999847412109,6.784999847412109,1500
2018-06-27,6.510000228881836,7.019999980926514,6.210000038146973,6.2210001945495605,6.2210001945495605,3300
2018-06-28,6.150000095367432,6.150000095367432,6.010000228881836,6.010000228881836,6.010000228881836,400
2018-06-29,5.900000095367432,5.989999771118164,5.710000038146973,5.75,5.75,6700
2018-07-02,5.855000019073486,6.171000003814697,5.699999809265137,6.125999927520752,6.125999927520752,9500
2018-07-03,6.190000057220459,6.190000057220459,6.0,6.056000232696533,6.056000232696533,12500
2018-07-05,6.25,6.25,5.949999809265137,6.0,6.0,6900
2018-07-06,6.578999996185303,6.578999996185303,6.130000114440918,6.489999771118164,6.489999771118164,15400
2018-07-09,6.550000190734863,6.599999904632568,6.360000133514404,6.559999942779541,6.559999942779541,12700
2018-07-10,6.659999847412109,6.800000190734863,6.659999847412109,6.710000038146973,6.710000038146973,6100
2018-07-11,6.701000213623047,6.701000213623047,6.699999809265137,6.699999809265137,6.699999809265137,700
2018-07-12,6.900000095367432,6.980000019073486,6.824999809265137,6.929999828338623,6.929999828338623,5500
2018-07-13,6.980000019073486,7.440000057220459,6.980000019073486,7.230000019073486,7.230000019073486,7500
2018-07-16,7.639999866485596,7.64900016784668,7.199999809265137,7.494999885559082,7.494999885559082,1800
2018-07-17,7.590000152587891,7.650000095367432,7.563000202178955,7.590000152587891,7.590000152587891,2400
2018-07-18,7.590000152587891,7.650000095367432,7.25,7.599999904632568,7.599999904632568,5100
2018-07-19,7.650000095367432,8.199999809265137,7.349999904632568,7.821000099182129,7.821000099182129,16300
2018-07-20,8.5,8.5,7.079999923706055,7.989999771118164,7.989999771118164,9200
2018-07-23,8.0,8.75,7.75,8.048999786376953,8.048999786376953,16700
2018-07-24,8.0,8.0,7.144000053405762,7.7789998054504395,7.7789998054504395,20100
2018-07-25,8.0,9.0,7.800000190734863,8.0,8.0,2100
2018-07-26,8.505999565124512,8.59000015258789,7.880000114440918,7.880000114440918,7.880000114440918,1500
2018-07-27,7.789999961853027,8.199999809265137,7.739999771118164,8.17300033569336,8.17300033569336,16300
2018-07-30,8.130000114440918,8.399999618530273,7.650000095367432,8.270000457763672,8.270000457763672,16400
2018-07-31,8.949999809265137,9.460000038146973,7.639999866485596,9.0,9.0,15100
2018-08-01,8.039999961853027,8.5,8.039999961853027,8.5,8.5,600
2018-08-02,8.010000228881836,8.975000381469727,7.547999858856201,8.420000076293945,8.420000076293945,8300
2018-08-03,7.550000190734863,8.383000373840332,7.03000020980835,8.34000015258789,8.34000015258789,3800
2018-08-06,8.170000076293945,8.170000076293945,7.420000076293945,7.877999782562256,7.877999782562256,5500
2018-08-07,7.610000133514404,7.76200008392334,7.0,7.377999782562256,7.377999782562256,2200
2018-08-08,8.0,8.0,7.0,7.2170000076293945,7.2170000076293945,11100
2018-08-09,7.190000057220459,7.599999904632568,7.190000057220459,7.460000038146973,7.460000038146973,13900
2018-08-10,7.400000095367432,7.699999809265137,7.1529998779296875,7.455999851226807,7.455999851226807,1500
2018-08-13,7.630000114440918,7.630000114440918,7.0,7.050000190734863,7.050000190734863,8100
2018-08-14,7.460000038146973,7.460000038146973,6.440000057220459,7.15500020980835,7.15500020980835,6700
2018-08-15,7.139999866485596,7.139999866485596,6.800000190734863,7.0,7.0,1700
2018-08-16,6.800000190734863,7.309999942779541,6.5980000495910645,7.309999942779541,7.309999942779541,7700
2018-08-17,6.949999809265137,7.309999942779541,6.699999809265137,6.849999904632568,6.849999904632568,31900
2018-08-20,7.0,7.041999816894531,6.849999904632568,6.849999904632568,6.849999904632568,5500
2018-08-21,6.829999923706055,7.110000133514404,6.802999973297119,7.079999923706055,7.079999923706055,15000
2018-08-22,7.099999904632568,7.289999961853027,6.699999809265137,7.050000190734863,7.050000190734863,7600
2018-08-23,7.0,7.03000020980835,6.699999809265137,7.0,7.0,2000
2018-08-24,7.230000019073486,7.230000019073486,6.510000228881836,6.71999979019165,6.71999979019165,2800
2018-08-27,6.730000019073486,6.840000152587891,6.71999979019165,6.78000020980835,6.78000020980835,4000
2018-08-28,6.690000057220459,7.449999809265137,6.599999904632568,6.800000190734863,6.800000190734863,9800
2018-08-29,6.760000228881836,7.0,6.289999961853027,6.679999828338623,6.679999828338623,6500
2018-08-30,6.051000118255615,6.999000072479248,6.051000118255615,6.989999771118164,6.989999771118164,7800
2018-08-31,7.349999904632568,7.699999809265137,7.019999980926514,7.699999809265137,7.699999809265137,5200
2018-09-04,8.0,8.5600004196167,7.510000228881836,7.809999942779541,7.809999942779541,4300
2018-09-05,7.710000038146973,8.03499984741211,7.110000133514404,7.639999866485596,7.639999866485596,6300
2018-09-06,7.839000225067139,8.300000190734863,7.449999809265137,8.0,8.0,1700
2018-09-07,7.599999904632568,8.0,7.199999809265137,7.599999904632568,7.599999904632568,5300
2018-09-10,7.599999904632568,7.989999771118164,7.5,7.989999771118164,7.989999771118164,1800
2018-09-11,7.5,7.690000057220459,7.400000095367432,7.570000171661377,7.570000171661377,12500
2018-09-12,8.300000190734863,8.300000190734863,7.570000171661377,7.760000228881836,7.760000228881836,5200
2018-09-13,8.28499984741211,8.300000190734863,7.110000133514404,7.685999870300293,7.685999870300293,12200
2018-09-14,7.75,8.25,7.550000190734863,7.619999885559082,7.619999885559082,10300
2018-09-17,7.539999961853027,8.300000190734863,7.539999961853027,8.210000038146973,8.210000038146973,5800
2018-09-18,7.119999885559082,8.010000228881836,7.119999885559082,7.6529998779296875,7.6529998779296875,5400
2018-09-19,7.599999904632568,7.599999904632568,7.110000133514404,7.559999942779541,7.559999942779541,900
2018-09-20,7.599999904632568,7.599999904632568,7.199999809265137,7.5970001220703125,7.5970001220703125,4800
2018-09-21,7.869999885559082,7.869999885559082,7.869999885559082,7.869999885559082,7.869999885559082,300
2018-09-24,7.5,8.229999542236328,7.210000038146973,8.100000381469727,8.100000381469727,12700
2018-09-25,7.5,8.0,7.5,7.75,7.75,10900
2018-09-26,8.199999809265137,8.300000190734863,7.5,7.808000087738037,7.808000087738037,10500
2018-09-27,8.0,8.0,7.949999809265137,7.949999809265137,7.949999809265137,300
2018-09-28,8.0,8.289999961853027,8.0,8.0,8.0,600
2018-10-01,7.909999847412109,9.0,7.909999847412109,8.479999542236328,8.479999542236328,2000
2018-10-02,8.720000267028809,8.720000267028809,7.289999961853027,8.0600004196167,8.0600004196167,1000
2018-10-03,8.0600004196167,8.336000442504883,7.679999828338623,7.679999828338623,7.679999828338623,7400
2018-10-04,7.5,8.404999732971191,7.5,7.599999904632568,7.599999904632568,8000
2018-10-05,7.800000190734863,8.75,7.75,8.75,8.75,300
2018-10-08,8.5,8.5,7.440000057220459,7.53000020980835,7.53000020980835,5300
2018-10-09,7.400000095367432,7.96999979019165,7.260000228881836,7.309999942779541,7.309999942779541,4100
2018-10-10,7.6020002365112305,7.6020002365112305,7.309999942779541,7.349999904632568,7.349999904632568,2300
2018-10-11,7.28000020980835,7.28000020980835,6.5,6.539999961853027,6.539999961853027,2900
2018-10-12,7.0,7.0,6.349999904632568,6.96999979019165,6.96999979019165,400
2018-10-15,7.110000133514404,7.550000190734863,7.110000133514404,7.550000190734863,7.550000190734863,2800
2018-10-16,7.125,7.900000095367432,7.125,7.809999942779541,7.809999942779541,1200
2018-10-17,7.800000190734863,8.25,7.75,8.0,8.0,2300
2018-10-18,8.029999732971191,8.069999694824219,6.699999809265137,6.699999809265137,6.699999809265137,1400
2018-10-19,7.0,7.699999809265137,6.519999980926514,6.519999980926514,6.519999980926514,1300
2018-10-22,6.610000133514404,7.0,6.610000133514404,7.0,7.0,200
2018-10-23,7.789999961853027,7.789999961853027,6.800000190734863,7.0,7.0,3000
2018-10-24,7.0,7.0,7.0,7.0,7.0,0
2018-10-25,6.809999942779541,7.0,6.809999942779541,7.0,7.0,1600
2018-10-26,7.046000003814697,7.050000190734863,6.400000095367432,6.400000095367432,6.400000095367432,3600
2018-10-29,6.590000152587891,7.21999979019165,6.590000152587891,7.21999979019165,7.21999979019165,200
2018-10-30,7.0,7.0,6.170000076293945,6.329999923706055,6.329999923706055,2500
2018-10-31,6.329999923706055,7.099999904632568,6.329999923706055,6.880000114440918,6.880000114440918,6000
2018-11-01,7.099999904632568,7.099999904632568,6.21999979019165,6.670000076293945,6.670000076293945,3500
2018-11-02,6.329999923706055,7.170000076293945,6.329999923706055,7.170000076293945,7.170000076293945,5200
2018-11-05,7.177999973297119,7.177999973297119,6.690000057220459,6.710000038146973,6.710000038146973,3000
2018-11-06,6.71999979019165,6.7220001220703125,6.309999942779541,6.349999904632568,6.349999904632568,1800
2018-11-07,6.440000057220459,6.440000057220459,5.880000114440918,5.889999866485596,5.889999866485596,6100
2018-11-08,5.876999855041504,6.300000190734863,5.860000133514404,6.177000045776367,6.177000045776367,2400
2018-11-09,6.300000190734863,6.590000152587891,6.300000190734863,6.556000232696533,6.556000232696533,3300
2018-11-12,6.557000160217285,6.557000160217285,6.425000190734863,6.550000190734863,6.550000190734863,1200
2018-11-13,6.480000019073486,6.539999961853027,6.315000057220459,6.315000057220459,6.315000057220459,1200
2018-11-14,6.559999942779541,6.559999942779541,6.480000019073486,6.480000019073486,6.480000019073486,400
2018-11-15,6.440000057220459,6.449999809265137,6.440000057220459,6.449999809265137,6.449999809265137,400
2018-11-16,6.400000095367432,6.420000076293945,6.329999923706055,6.409999847412109,6.409999847412109,1800
2018-11-19,6.199999809265137,6.409999847412109,5.889999866485596,6.409999847412109,6.409999847412109,800
2018-11-20,6.369999885559082,6.369999885559082,6.369999885559082,6.369999885559082,6.369999885559082,100
2018-11-21,6.349999904632568,6.349999904632568,6.150000095367432,6.150000095367432,6.150000095367432,600
2018-11-23,6.150000095367432,6.150000095367432,6.150000095367432,6.150000095367432,6.150000095367432,0
2018-11-26,5.889999866485596,6.099999904632568,5.660999774932861,6.099999904632568,6.099999904632568,1000
2018-11-27,6.099999904632568,6.099999904632568,6.099999904632568,6.099999904632568,6.099999904632568,100
2018-11-28,5.989999771118164,5.989999771118164,5.989999771118164,5.989999771118164,5.989999771118164,600
2018-11-29,5.989999771118164,5.989999771118164,5.989999771118164,5.989999771118164,5.989999771118164,0
2018-11-30,5.989999771118164,5.989999771118164,5.989999771118164,5.989999771118164,5.989999771118164,0
2018-12-03,5.714000225067139,5.949999809265137,5.714000225067139,5.949999809265137,5.949999809265137,500
2018-12-04,5.949999809265137,5.949999809265137,5.949999809265137,5.949999809265137,5.949999809265137,0
2018-12-06,5.550000190734863,5.550000190734863,5.550000190734863,5.550000190734863,5.550000190734863,300
2018-12-07,5.550000190734863,5.550000190734863,5.550000190734863,5.550000190734863,5.550000190734863,100
2018-12-10,4.949999809265137,5.0,4.460000038146973,5.0,5.0,500
2018-12-11,4.949999809265137,4.949999809265137,4.0,4.0,4.0,300
2018-12-12,4.989999771118164,4.989999771118164,4.110000133514404,4.849999904632568,4.849999904632568,4200
2018-12-13,4.849999904632568,4.849999904632568,4.849999904632568,4.849999904632568,4.849999904632568,100
2018-12-14,4.119999885559082,4.119999885559082,4.0,4.079999923706055,4.079999923706055,2400
2018-12-17,4.0,4.849999904632568,3.990000009536743,4.5,4.5,5800
2018-12-18,4.5,4.5,4.5,4.5,4.5,0
2018-12-19,3.5,4.499000072479248,3.5,4.499000072479248,4.499000072479248,12000
2018-12-20,4.25,4.25,3.3499999046325684,4.25,4.25,4800
2018-12-21,4.230000019073486,4.449999809265137,3.6500000953674316,3.7899999618530273,3.7899999618530273,9100
2018-12-24,3.7899999618530273,3.7899999618530273,3.7899999618530273,3.7899999618530273,3.7899999618530273,0
2018-12-26,4.489999771118164,4.570000171661377,4.429999828338623,4.570000171661377,4.570000171661377,2700
2018-12-27,4.570000171661377,5.5,4.570000171661377,5.460000038146973,5.460000038146973,7200
2018-12-28,5.400000095367432,5.5,4.320000171661377,5.5,5.5,4700
2018-12-31,5.5,6.5,5.210000038146973,6.5,6.5,3200
2019-01-02,6.170000076293945,6.789999961853027,6.170000076293945,6.789999961853027,6.789999961853027,1900
2019-01-03,7.010000228881836,7.010000228881836,6.550000190734863,7.0,7.0,2700
2019-01-04,7.010000228881836,7.5,6.400000095367432,7.5,7.5,5900
2019-01-07,7.5,8.0,6.650000095367432,8.0,8.0,6900
2019-01-08,8.0,8.460000038146973,7.932000160217285,8.460000038146973,8.460000038146973,8900
2019-01-09,8.279999732971191,8.75,7.659999847412109,8.5,8.5,3900
2019-01-10,8.489999771118164,8.75,7.960000038146973,8.739999771118164,8.739999771118164,12600
2019-01-11,8.739999771118164,8.949999809265137,8.220000267028809,8.880000114440918,8.880000114440918,11900
2019-01-14,9.0,9.1899995803833,9.0,9.170000076293945,9.170000076293945,3100
2019-01-15,9.170000076293945,9.210000038146973,8.420000076293945,8.819999694824219,8.819999694824219,17700
2019-01-16,9.210000038146973,9.210000038146973,7.789999961853027,9.0,9.0,8300
2019-01-17,8.140000343322754,8.779999732971191,7.590000152587891,7.639999866485596,7.639999866485596,8000
2019-01-18,8.489999771118164,8.5,7.300000190734863,7.300000190734863,7.300000190734863,6400
2019-01-22,7.239999771118164,8.0,7.239999771118164,7.998000144958496,7.998000144958496,2400
2019-01-23,8.399999618530273,8.399999618530273,7.659999847412109,8.279999732971191,8.279999732971191,3900
2019-01-24,8.0,8.399999618530273,7.5,7.820000171661377,7.820000171661377,6300
2019-01-25,8.220999717712402,9.079999923706055,8.071000099182129,8.781000137329102,8.781000137329102,7100
2019-01-28,9.25,9.25,8.329999923706055,8.899999618530273,8.899999618530273,900
2019-01-29,7.900000095367432,8.739999771118164,7.53000020980835,8.739999771118164,8.739999771118164,900
2019-01-30,8.84000015258789,8.899999618530273,7.5,8.770000457763672,8.770000457763672,9700
2019-01-31,8.770000457763672,8.850000381469727,7.840000152587891,8.59000015258789,8.59000015258789,6100
2019-02-01,8.850000381469727,8.850000381469727,8.069999694824219,8.850000381469727,8.850000381469727,5100
2019-02-04,8.979999542236328,8.979999542236328,8.850000381469727,8.970000267028809,8.970000267028809,1500
2019-02-05,9.0,9.100000381469727,8.949999809265137,9.100000381469727,9.100000381469727,1200
2019-02-06,8.10099983215332,9.25,8.100000381469727,9.25,9.25,1600
2019-02-07,9.300000190734863,9.300000190734863,9.300000190734863,9.300000190734863,9.300000190734863,400
2019-02-08,9.300000190734863,9.300000190734863,9.300000190734863,9.300000190734863,9.300000190734863,0
2019-02-11,9.199999809265137,9.289999961853027,9.170000076293945,9.289999961853027,9.289999961853027,900
2019-02-12,9.300000190734863,9.5,9.289999961853027,9.489999771118164,9.489999771118164,2400
2019-02-13,9.479999542236328,9.75,9.479999542236328,9.75,9.75,3000
2019-02-14,9.640000343322754,11.170000076293945,9.03600025177002,10.920000076293945,10.920000076293945,26800
2019-02-15,10.399999618530273,10.920000076293945,9.920000076293945,10.90999984741211,10.90999984741211,1700
2019-02-19,10.069999694824219,11.5,10.069999694824219,11.5,11.5,8000
2019-02-20,11.520000457763672,11.520000457763672,10.399999618530273,11.520000457763672,11.520000457763672,4500
2019-02-21,11.539999961853027,11.539999961853027,10.069999694824219,11.510000228881836,11.510000228881836,1500
2019-02-22,11.279999732971191,12.5,11.140000343322754,12.380000114440918,12.380000114440918,9400
2019-02-25,12.399999618530273,13.449999809265137,12.0,13.223999977111816,13.223999977111816,6700
2019-02-26,13.050000190734863,13.479999542236328,12.0,13.34000015258789,13.34000015258789,4800
2019-02-27,13.199999809265137,13.555999755859375,11.59000015258789,12.199999809265137,12.199999809265137,9600
2019-02-28,12.449999809265137,12.65999984741211,10.550000190734863,12.0,12.0,3500
2019-03-01,11.789999961853027,11.789999961853027,10.630000114440918,10.789999961853027,10.789999961853027,3800
2019-03-04,11.789999961853027,11.789999961853027,10.279999732971191,11.399999618530273,11.399999618530273,3800
2019-03-05,11.0,11.788999557495117,10.229999542236328,11.579000473022461,11.579000473022461,2400
2019-03-06,11.680000305175781,11.789999961853027,11.569999694824219,11.598999977111816,11.598999977111816,1300
2019-03-07,11.789999961853027,11.789999961853027,10.300000190734863,11.789999961853027,11.789999961853027,6600
2019-03-08,11.800000190734863,11.800000190734863,10.718000411987305,11.800000190734863,11.800000190734863,700
2019-03-11,10.640000343322754,12.680000305175781,10.3100004196167,11.399999618530273,11.399999618530273,8500
2019-03-12,11.380000114440918,12.680000305175781,10.5600004196167,10.5600004196167,10.5600004196167,3300
2019-03-13,11.020000457763672,11.020000457763672,9.65999984741211,11.020000457763672,11.020000457763672,11300
2019-03-14,10.670000076293945,12.220000267028809,10.1899995803833,11.449999809265137,11.449999809265137,12800
2019-03-15,11.5,11.5,9.800000190734863,9.800000190734863,9.800000190734863,13300
2019-03-18,9.979999542236328,11.5,9.399999618530273,10.289999961853027,10.289999961853027,13600
2019-03-19,10.289999961853027,10.399999618530273,9.479999542236328,10.399999618530273,10.399999618530273,8500
2019-03-20,10.0,10.399999618530273,9.5,9.75,9.75,12200
2019-03-21,10.350000381469727,10.350000381469727,9.5,10.267999649047852,10.267999649047852,7600
2019-03-22,9.829999923706055,10.399999618530273,8.239999771118164,9.289999961853027,9.289999961853027,6800
2019-03-25,9.199999809265137,9.460000038146973,8.949999809265137,9.210000038146973,9.210000038146973,4000
2019-03-26,9.25,9.25,9.25,9.25,9.25,100
2019-03-27,9.010000228881836,9.260000228881836,7.710000038146973,8.1899995803833,8.1899995803833,7100
2019-03-28,8.760000228881836,8.760000228881836,7.550000190734863,8.760000228881836,8.760000228881836,2000
2019-03-29,9.199999809265137,9.199999809265137,7.420000076293945,7.420000076293945,7.420000076293945,3100
2019-04-01,7.980000019073486,7.980000019073486,6.573999881744385,7.25,7.25,2000
2019-04-02,7.599999904632568,7.599999904632568,6.989999771118164,7.079999923706055,7.079999923706055,2400
2019-04-03,7.320000171661377,7.320000171661377,5.900000095367432,6.599999904632568,6.599999904632568,5400
2019-04-04,6.329999923706055,6.599999904632568,6.110000133514404,6.519999980926514,6.519999980926514,7000
2019-04-05,6.579999923706055,8.569999694824219,6.039999961853027,7.900000095367432,7.900000095367432,10900
2019-04-08,7.940000057220459,9.020000457763672,7.489999771118164,9.020000457763672,9.020000457763672,17400
2019-04-09,7.400000095367432,9.210000038146973,7.400000095367432,9.0600004196167,9.0600004196167,7000
2019-04-10,9.210000038146973,9.210000038146973,7.7220001220703125,9.020000457763672,9.020000457763672,7800
2019-04-11,8.989999771118164,9.510000228881836,8.359999656677246,9.489999771118164,9.489999771118164,5700
2019-04-12,9.039999961853027,9.510000228881836,7.920000076293945,8.600000381469727,8.600000381469727,2100
2019-04-15,8.619999885559082,9.329999923706055,8.0,8.600000381469727,8.600000381469727,8200
2019-04-16,8.649999618530273,9.149999618530273,8.010000228881836,8.300000190734863,8.300000190734863,6200
2019-04-17,8.130000114440918,9.149999618530273,7.53000020980835,8.399999618530273,8.399999618530273,11500
2019-04-18,8.779999732971191,9.288000106811523,6.869999885559082,9.130000114440918,9.130000114440918,15100
2019-04-22,8.119999885559082,8.199999809265137,7.300000190734863,7.880000114440918,7.880000114440918,6500
2019-04-23,8.210000038146973,8.210000038146973,7.389999866485596,8.210000038146973,8.210000038146973,1400
2019-04-24,7.739999771118164,8.210000038146973,7.159999847412109,7.659999847412109,7.659999847412109,3000
2019-04-25,7.210000038146973,7.900000095367432,7.170000076293945,7.900000095367432,7.900000095367432,1000
2019-04-26,7.360000133514404,7.360000133514404,5.300000190734863,5.980000019073486,5.980000019073486,15900
2019-04-29,6.440000057220459,6.440000057220459,5.034999847412109,6.300000190734863,6.300000190734863,8100
2019-04-30,6.400000095367432,6.760000228881836,6.03000020980835,6.71999979019165,6.71999979019165,4400
2019-05-01,7.119999885559082,7.519999980926514,6.184000015258789,7.130000114440918,7.130000114440918,5300
2019-05-02,6.239999771118164,7.119999885559082,6.21999979019165,7.070000171661377,7.070000171661377,1000
2019-05-03,7.130000114440918,7.130000114440918,5.519999980926514,6.300000190734863,6.300000190734863,7600
2019-05-06,5.815999984741211,7.119999885559082,5.815999984741211,6.389999866485596,6.389999866485596,2100
2019-05-07,6.710000038146973,6.710000038146973,5.519999980926514,6.039999961853027,6.039999961853027,7200
2019-05-08,6.349999904632568,6.650000095367432,6.090000152587891,6.550000190734863,6.550000190734863,7000
2019-05-09,6.289999961853027,6.559999942779541,5.5,5.599999904632568,5.599999904632568,24900
2019-05-10,5.599999904632568,5.880000114440918,5.010000228881836,5.230000019073486,5.230000019073486,11300
2019-05-13,5.0,5.179999828338623,4.659999847412109,4.989999771118164,4.989999771118164,1500
2019-05-14,4.659999847412109,5.400000095367432,4.449999809265137,5.130000114440918,5.130000114440918,14200
2019-05-15,5.039999961853027,5.039999961853027,4.409999847412109,4.590000152587891,4.590000152587891,17700
2019-05-16,4.5,4.5,3.700000047683716,3.7300000190734863,3.7300000190734863,56000
2019-05-17,4.039999961853027,4.960000038146973,4.039999961853027,4.699999809265137,4.699999809265137,37300
2019-05-20,4.599999904632568,4.599999904632568,4.050000190734863,4.369999885559082,4.369999885559082,30100
2019-05-21,4.179999828338623,4.389999866485596,3.5999999046325684,4.0,4.0,41200
2019-05-22,3.890000104904175,4.171000003814697,3.5399999618530273,3.5399999618530273,3.5399999618530273,71700
2019-05-23,3.5999999046325684,4.0,3.5999999046325684,3.8399999141693115,3.8399999141693115,89300
2019-05-24,3.7920000553131104,4.230000019073486,3.509999990463257,3.5199999809265137,3.5199999809265137,72300
2019-05-28,3.700000047683716,3.7009999752044678,3.359999895095825,3.700000047683716,3.700000047683716,65500
2019-05-29,3.75,3.799999952316284,3.2799999713897705,3.5999999046325684,3.5999999046325684,89000
2019-05-30,3.5999999046325684,3.7300000190734863,3.299999952316284,3.569999933242798,3.569999933242798,79600
2019-05-31,3.319999933242798,3.569999933242798,3.299999952316284,3.5299999713897705,3.5299999713897705,106300
2019-06-03,3.5299999713897705,3.5999999046325684,3.0999999046325684,3.299999952316284,3.299999952316284,96300
2019-06-04,3.299999952316284,3.380000114440918,3.0999999046325684,3.299999952316284,3.299999952316284,105100
2019-06-05,3.319999933242798,3.4000000953674316,3.109999895095825,3.4000000953674316,3.4000000953674316,102600
2019-06-06,3.390000104904175,3.4600000381469727,3.200000047683716,3.4100000858306885,3.4100000858306885,175700
2019-06-07,3.4000000953674316,3.809999942779541,3.4000000953674316,3.700000047683716,3.700000047683716,215300
2019-06-10,3.7699999809265137,4.010000228881836,3.5,4.010000228881836,4.010000228881836,233400
2019-06-11,4.0,4.190000057220459,3.569999933242798,3.9000000953674316,3.9000000953674316,241800
2019-06-12,3.9800000190734863,4.079999923706055,3.5880000591278076,3.930000066757202,3.930000066757202,254300
2019-06-13,3.9200000762939453,4.010000228881836,3.6500000953674316,3.9800000190734863,3.9800000190734863,289000
2019-06-14,3.859999895095825,4.050000190734863,3.680000066757202,3.890000104904175,3.890000104904175,316800
2019-06-17,3.869999885559082,3.9000000953674316,3.680000066757202,3.75,3.75,312100
2019-06-18,3.7899999618530273,3.9200000762939453,3.5199999809265137,3.869999885559082,3.869999885559082,321900
2019-06-19,3.700000047683716,3.9000000953674316,3.609999895095825,3.700000047683716,3.700000047683716,312800
2019-06-20,3.740000009536743,4.150000095367432,3.6500000953674316,4.079999923706055,4.079999923706055,302300
2019-06-21,4.099999904632568,4.447000026702881,3.6549999713897705,3.8399999141693115,3.8399999141693115,365200
2019-06-24,3.799999952316284,3.9000000953674316,3.5299999713897705,3.690000057220459,3.690000057220459,319600
2019-06-25,3.680000066757202,3.740000009536743,3.2200000286102295,3.2200000286102295,3.2200000286102295,286000
2019-06-26,3.299999952316284,3.569999933242798,3.0399999618530273,3.2899999618530273,3.2899999618530273,233700
2019-06-27,3.299999952316284,3.4000000953674316,3.049999952316284,3.25,3.25,230200
2019-06-28,3.4700000286102295,3.490000009536743,3.200000047683716,3.4600000381469727,3.4600000381469727,302800
2019-07-01,3.4200000762939453,3.799999952316284,3.0350000858306885,3.259999990463257,3.259999990463257,286700
2019-07-02,3.2200000286102295,3.4600000381469727,3.119999885559082,3.2200000286102295,3.2200000286102295,325200
2019-07-03,3.180000066757202,3.390000104904175,3.049999952316284,3.2300000190734863,3.2300000190734863,276600
2019-07-05,3.2100000381469727,3.4200000762939453,3.009999990463257,3.2300000190734863,3.2300000190734863,357300
2019-07-08,3.190000057220459,3.380000114440918,3.059999942779541,3.130000114440918,3.130000114440918,338900
2019-07-09,3.0999999046325684,3.3399999141693115,3.0999999046325684,3.190000057220459,3.190000057220459,200100
2019-07-10,3.1700000762939453,3.259999990463257,2.9000000953674316,3.1500000953674316,3.1500000953674316,254100
2019-07-11,3.1500000953674316,3.2200000286102295,3.0,3.0799999237060547,3.0799999237060547,191300
2019-07-12,3.059999942779541,3.1700000762939453,2.940000057220459,3.0799999237060547,3.0799999237060547,242000
2019-07-15,3.0399999618530273,3.109999895095825,2.809999942779541,2.8499999046325684,2.8499999046325684,145600
2019-07-16,2.8299999237060547,2.859999895095825,2.559999942779541,2.569999933242798,2.569999933242798,142900
2019-07-17,2.549999952316284,2.7899999618530273,2.5199999809265137,2.7799999713897705,2.7799999713897705,150600
2019-07-18,2.7799999713897705,2.990000009536743,2.4800000190734863,2.5799999237060547,2.5799999237060547,236200
2019-07-19,2.6500000953674316,2.7200000286102295,2.5,2.690000057220459,2.690000057220459,246800
2019-07-22,2.9000000953674316,2.9000000953674316,1.9500000476837158,2.2200000286102295,2.2200000286102295,234700
2019-07-23,2.200000047683716,2.319999933242798,2.049999952316284,2.109999895095825,2.109999895095825,149900
2019-07-24,2.069999933242798,2.299999952316284,1.7400000095367432,1.7549999952316284,1.7549999952316284,175800
2019-07-25,1.7599999904632568,1.7599999904632568,1.5299999713897705,1.559999942779541,1.559999942779541,29000
2019-07-26,1.5,1.5499999523162842,1.409999966621399,1.409999966621399,1.409999966621399,31400
2019-07-29,1.3899999856948853,1.4800000190734863,1.0499999523162842,1.1299999952316284,1.1299999952316284,128800
2019-07-30,1.1100000143051147,1.2899999618530273,1.100000023841858,1.25,1.25,133900
2019-07-31,1.2200000286102295,1.3799999952316284,1.0199999809265137,1.2799999713897705,1.2799999713897705,320100
2019-08-01,1.4500000476837158,1.4500000476837158,1.0399999618530273,1.100000023841858,1.100000023841858,213600
2019-08-02,1.0959999561309814,1.1100000143051147,0.9800000190734863,1.100000023841858,1.100000023841858,85700
2019-08-05,1.0299999713897705,1.0299999713897705,0.7760000228881836,0.7900000214576721,0.7900000214576721,179300
2019-08-06,0.7889999747276306,0.8600000143051147,0.6399999856948853,0.6669999957084656,0.6669999957084656,141500
2019-08-07,0.6830000281333923,0.7269999980926514,0.550000011920929,0.597000002861023,0.597000002861023,169300
2019-08-08,0.6079999804496765,0.6600000262260437,0.5799999833106995,0.6000000238418579,0.6000000238418579,82200
2019-08-09,0.6000000238418579,0.6389999985694885,0.5600000023841858,0.6299999952316284,0.6299999952316284,48400
2019-08-12,0.5479999780654907,0.7799999713897705,0.5479999780654907,0.5619999766349792,0.5619999766349792,588700
2019-08-13,0.5799999833106995,1.059999942779541,0.5619999766349792,1.0190000534057617,1.0190000534057617,1736800
2019-08-14,0.703000009059906,0.8199999928474426,0.6150000095367432,0.6589999794960022,0.6589999794960022,549800
2019-08-15,0.6700000166893005,0.6700000166893005,0.5299999713897705,0.5299999713897705,0.5299999713897705,244100
2019-08-16,0.5299999713897705,0.5879999995231628,0.5299999713897705,0.5799999833106995,0.5799999833106995,213100
2019-08-19,0.5979999899864197,0.6899999976158142,0.5299999713897705,0.6539999842643738,0.6539999842643738,208900
2019-08-20,0.6299999952316284,0.6499999761581421,0.5809999704360962,0.5950000286102295,0.5950000286102295,46700
2019-08-21,0.5849999785423279,0.6899999976158142,0.5699999928474426,0.6370000243186951,0.6370000243186951,344200
2019-08-22,0.6579999923706055,0.7680000066757202,0.5609999895095825,0.6399999856948853,0.6399999856948853,520400
2019-08-23,0.6299999952316284,0.6499999761581421,0.5529999732971191,0.5649999976158142,0.5649999976158142,171700
2019-08-26,0.578000009059906,0.5989999771118164,0.5199999809265137,0.5740000009536743,0.5740000009536743,229000
2019-08-27,0.6000000238418579,0.6000000238418579,0.5249999761581421,0.5680000185966492,0.5680000185966492,39300
2019-08-28,0.5690000057220459,0.5690000057220459,0.5249999761581421,0.550000011920929,0.550000011920929,55000
2019-08-29,0.5130000114440918,0.6000000238418579,0.5009999871253967,0.5239999890327454,0.5239999890327454,197600
2019-08-30,0.550000011920929,0.5899999737739563,0.531000018119812,0.5720000267028809,0.5720000267028809,95400
2019-09-03,0.550000011920929,0.5899999737739563,0.5,0.5149999856948853,0.5149999856948853,119100
2019-09-04,0.5270000100135803,0.550000011920929,0.5059999823570251,0.5199999809265137,0.5199999809265137,61500
2019-09-05,0.5199999809265137,0.5370000004768372,0.5099999904632568,0.515999972820282,0.515999972820282,39500
2019-09-06,0.515999972820282,0.5199999809265137,0.45500001311302185,0.45500001311302185,0.45500001311302185,80600
2019-09-09,0.4320000112056732,0.49900001287460327,0.4320000112056732,0.49000000953674316,0.49000000953674316,89500
2019-09-10,0.46399998664855957,0.550000011920929,0.4000000059604645,0.5,0.5,154800
2019-09-11,0.5249999761581421,0.6399999856948853,0.5,0.5270000100135803,0.5270000100135803,421100
2019-09-12,0.550000011920929,0.5799999833106995,0.5329999923706055,0.550000011920929,0.550000011920929,145900
2019-09-13,0.5690000057220459,0.5690000057220459,0.5299999713897705,0.5400000214576721,0.5400000214576721,53100
2019-09-16,0.5299999713897705,0.5529999732971191,0.5049999952316284,0.5440000295639038,0.5440000295639038,66400
2019-09-17,0.5600000023841858,0.6389999985694885,0.5120000243186951,0.5989999771118164,0.5989999771118164,309200
2019-09-18,0.6000000238418579,0.6000000238418579,0.5400000214576721,0.5580000281333923,0.5580000281333923,74500
2019-09-19,0.5600000023841858,0.5669999718666077,0.5130000114440918,0.5199999809265137,0.5199999809265137,57100
2019-09-20,0.5049999952316284,0.5659999847412109,0.5049999952316284,0.5400000214576721,0.5400000214576721,44400
2019-09-23,0.5669999718666077,0.5799999833106995,0.5099999904632568,0.5400000214576721,0.5400000214576721,26300
2019-09-24,0.5199999809265137,0.5389999747276306,0.46000000834465027,0.5239999890327454,0.5239999890327454,109900
2019-09-25,0.49000000953674316,0.5389999747276306,0.4699999988079071,0.4749999940395355,0.4749999940395355,58300
2019-09-26,0.4830000102519989,0.550000011920929,0.47999998927116394,0.503000020980835,0.503000020980835,355500
2019-09-27,0.5400000214576721,0.5400000214576721,0.460999995470047,0.4819999933242798,0.4819999933242798,89200
2019-09-30,0.44999998807907104,0.5049999952316284,0.41999998688697815,0.49399998784065247,0.49399998784065247,182400
2019-10-01,0.5,0.5189999938011169,0.4699999988079071,0.5049999952316284,0.5049999952316284,101600
2019-10-02,0.5,0.5,0.44999998807907104,0.4699999988079071,0.4699999988079071,46900
2019-10-03,0.46000000834465027,0.5,0.4300000071525574,0.45100000500679016,0.45100000500679016,80500
2019-10-04,0.47999998927116394,0.4830000102519989,0.4300000071525574,0.4690000116825104,0.4690000116825104,34500
2019-10-07,0.4650000035762787,0.47999998927116394,0.4399999976158142,0.45399999618530273,0.45399999618530273,29100
2019-10-08,0.45399999618530273,0.4699999988079071,0.4320000112056732,0.4699999988079071,0.4699999988079071,63200
2019-10-09,0.4729999899864197,0.4729999899864197,0.421999990940094,0.4399999976158142,0.4399999976158142,29200
2019-10-10,0.4399999976158142,0.4429999887943268,0.41999998688697815,0.41999998688697815,0.41999998688697815,79600
2019-10-11,0.42100000381469727,0.47600001096725464,0.42100000381469727,0.4410000145435333,0.4410000145435333,37300
2019-10-14,0.4300000071525574,0.49000000953674316,0.4300000071525574,0.4580000042915344,0.4580000042915344,43500
2019-10-15,0.4650000035762787,0.8399999737739563,0.4300000071525574,0.699999988079071,0.699999988079071,1617800
2019-10-16,0.5799999833106995,0.6200000047683716,0.4309999942779541,0.4790000021457672,0.4790000021457672,555100
2019-10-17,0.4699999988079071,0.4950000047683716,0.4300000071525574,0.44999998807907104,0.44999998807907104,135300
2019-10-18,0.4580000042915344,0.5170000195503235,0.4300000071525574,0.46299999952316284,0.46299999952316284,89900
2019-10-21,0.44999998807907104,0.4830000102519989,0.44999998807907104,0.47099998593330383,0.47099998593330383,43600
2019-10-22,0.4699999988079071,0.4699999988079071,0.4569999873638153,0.4569999873638153,0.4569999873638153,25000
2019-10-23,0.4699999988079071,0.49000000953674316,0.43299999833106995,0.47600001096725464,0.47600001096725464,70500
2019-10-24,0.46000000834465027,0.49000000953674316,0.4410000145435333,0.48399999737739563,0.48399999737739563,25800
2019-10-25,0.4699999988079071,0.5799999833106995,0.44999998807907104,0.48100000619888306,0.48100000619888306,193500
2019-10-28,0.4650000035762787,0.4860000014305115,0.46000000834465027,0.4699999988079071,0.4699999988079071,23900
2019-10-29,0.46000000834465027,0.47999998927116394,0.4300000071525574,0.45100000500679016,0.45100000500679016,81300
2019-10-30,0.4620000123977661,0.47999998927116394,0.4320000112056732,0.43299999833106995,0.43299999833106995,77900
2019-10-31,0.45500001311302185,0.4659999907016754,0.4300000071525574,0.4429999887943268,0.4429999887943268,27900
2019-11-01,0.4300000071525574,0.4350000023841858,0.4099999964237213,0.41200000047683716,0.41200000047683716,92500
2019-11-04,0.4099999964237213,0.41499999165534973,0.38999998569488525,0.4000000059604645,0.4000000059604645,64900
2019-11-05,0.4000000059604645,0.4000000059604645,0.4000000059604645,0.4000000059604645,0.4000000059604645,0
2019-11-06,0.4000000059604645,0.4000000059604645,0.4000000059604645,0.4000000059604645,0.4000000059604645,0
2019-11-07,0.4000000059604645,0.4000000059604645,0.4000000059604645,0.4000000059604645,0.4000000059604645,0
2019-11-08,0.4000000059604645,0.4000000059604645,0.4000000059604645,0.4000000059604645,0.4000000059604645,0
2019-11-11,0.4000000059604645,0.4000000059604645,0.4000000059604645,0.4000000059604645,0.4000000059604645,0
2019-11-12,0.4000000059604645,0.4000000059604645,0.4000000059604645,0.4000000059604645,0.4000000059604645,0
2019-11-13,0.4000000059604645,0.4000000059604645,0.4000000059604645,0.4000000059604645,0.4000000059604645,0
2019-11-14,0.4000000059604645,0.4000000059604645,0.4000000059604645,0.4000000059604645,0.4000000059604645,0
2019-11-15,0.4000000059604645,0.4000000059604645,0.4000000059604645,0.4000000059604645,0.4000000059604645,0
2019-11-18,0.4000000059604645,0.4000000059604645,0.4000000059604645,0.4000000059604645,0.4000000059604645,0
2019-11-19,0.4000000059604645,0.4000000059604645,0.4000000059604645,0.4000000059604645,0.4000000059604645,0
2019-11-20,0.4000000059604645,0.4000000059604645,0.4000000059604645,0.4000000059604645,0.4000000059604645,0
2019-11-21,0.4000000059604645,0.4000000059604645,0.4000000059604645,0.4000000059604645,0.4000000059604645,0
2019-11-22,0.4000000059604645,0.4000000059604645,0.4000000059604645,0.4000000059604645,0.4000000059604645,0
2019-11-25,0.4000000059604645,0.4000000059604645,0.4000000059604645,0.4000000059604645,0.4000000059604645,0
2019-11-26,0.4000000059604645,0.4000000059604645,0.4000000059604645,0.4000000059604645,0.4000000059604645,0
2019-11-27,0.4000000059604645,0.4000000059604645,0.4000000059604645,0.4000000059604645,0.4000000059604645,0
2019-11-29,0.4000000059604645,0.4000000059604645,0.4000000059604645,0.4000000059604645,0.4000000059604645,0
2019-12-02,0.4000000059604645,0.4000000059604645,0.4000000059604645,0.4000000059604645,0.4000000059604645,0
2019-12-03,0.4000000059604645,0.4000000059604645,0.4000000059604645,0.4000000059604645,0.4000000059604645,0
2019-12-04,0.4000000059604645,0.4000000059604645,0.4000000059604645,0.4000000059604645,0.4000000059604645,0
2019-12-05,0.4000000059604645,0.4000000059604645,0.4000000059604645,0.4000000059604645,0.4000000059604645,0
2019-12-06,0.4000000059604645,0.4000000059604645,0.4000000059604645,0.4000000059604645,0.4000000059604645,0
2019-12-09,0.4000000059604645,0.4000000059604645,0.4000000059604645,0.4000000059604645,0.4000000059604645,0
2019-12-10,0.4000000059604645,0.4000000059604645,0.4000000059604645,0.4000000059604645,0.4000000059604645,0
2019-12-11,0.4000000059604645,0.4000000059604645,0.4000000059604645,0.4000000059604645,0.4000000059604645,0
2019-12-12,0.4000000059604645,0.4000000059604645,0.4000000059604645,0.4000000059604645,0.4000000059604645,0
2019-12-13,0.4000000059604645,0.4000000059604645,0.4000000059604645,0.4000000059604645,0.4000000059604645,0
2019-12-16,0.4000000059604645,0.4000000059604645,0.4000000059604645,0.4000000059604645,0.4000000059604645,0
2019-12-17,0.4000000059604645,0.4000000059604645,0.4000000059604645,0.4000000059604645,0.4000000059604645,0
2019-12-18,0.4000000059604645,0.4000000059604645,0.4000000059604645,0.4000000059604645,0.4000000059604645,0
2019-12-19,0.4000000059604645,0.4000000059604645,0.4000000059604645,0.4000000059604645,0.4000000059604645,0
2019-12-20,0.4000000059604645,0.4000000059604645,0.4000000059604645,0.4000000059604645,0.4000000059604645,0
2019-12-23,0.4000000059604645,0.4000000059604645,0.4000000059604645,0.4000000059604645,0.4000000059604645,0
2019-12-24,0.4000000059604645,0.4000000059604645,0.4000000059604645,0.4000000059604645,0.4000000059604645,0
2019-12-26,0.4000000059604645,0.4000000059604645,0.4000000059604645,0.4000000059604645,0.4000000059604645,0
2019-12-27,0.4000000059604645,0.4000000059604645,0.4000000059604645,0.4000000059604645,0.4000000059604645,0
2019-12-30,0.4000000059604645,0.4000000059604645,0.4000000059604645,0.4000000059604645,0.4000000059604645,0
2019-12-31,0.4000000059604645,0.4000000059604645,0.4000000059604645,0.4000000059604645,0.4000000059604645,0
2020-01-02,0.4000000059604645,0.4000000059604645,0.4000000059604645,0.4000000059604645,0.4000000059604645,0
2020-01-03,0.4000000059604645,0.4000000059604645,0.4000000059604645,0.4000000059604645,0.4000000059604645,0
2020-01-06,0.4000000059604645,0.4000000059604645,0.4000000059604645,0.4000000059604645,0.4000000059604645,0
2020-01-07,0.4000000059604645,0.4000000059604645,0.4000000059604645,0.4000000059604645,0.4000000059604645,0
2020-01-08,0.4000000059604645,0.4000000059604645,0.4000000059604645,0.4000000059604645,0.4000000059604645,0
2020-01-09,0.4000000059604645,0.4000000059604645,0.4000000059604645,0.4000000059604645,0.4000000059604645,0
2020-01-10,0.4000000059604645,0.4000000059604645,0.4000000059604645,0.4000000059604645,0.4000000059604645,0
2020-01-13,0.4000000059604645,0.4000000059604645,0.4000000059604645,0.4000000059604645,0.4000000059604645,0
2020-01-14,0.4000000059604645,0.4000000059604645,0.4000000059604645,0.4000000059604645,0.4000000059604645,0
2020-01-15,0.4000000059604645,0.4000000059604645,0.4000000059604645,0.4000000059604645,0.4000000059604645,0
2020-01-16,0.4000000059604645,0.4000000059604645,0.4000000059604645,0.4000000059604645,0.4000000059604645,0
2020-01-17,0.4000000059604645,0.4000000059604645,0.4000000059604645,0.4000000059604645,0.4000000059604645,0
2020-01-21,0.4000000059604645,0.4000000059604645,0.4000000059604645,0.4000000059604645,0.4000000059604645,0
2020-01-22,0.4000000059604645,0.4000000059604645,0.4000000059604645,0.4000000059604645,0.4000000059604645,0
2020-01-23,0.4000000059604645,0.4000000059604645,0.4000000059604645,0.4000000059604645,0.4000000059604645,0
2020-01-24,0.4000000059604645,0.4000000059604645,0.4000000059604645,0.4000000059604645,0.4000000059604645,0
2020-01-27,0.4000000059604645,0.4000000059604645,0.4000000059604645,0.4000000059604645,0.4000000059604645,0
2020-01-28,0.4000000059604645,0.4000000059604645,0.4000000059604645,0.4000000059604645,0.4000000059604645,0
2020-01-29,0.4000000059604645,0.4000000059604645,0.4000000059604645,0.4000000059604645,0.4000000059604645,0
2020-01-30,0.4000000059604645,0.4000000059604645,0.4000000059604645,0.4000000059604645,0.4000000059604645,0
2020-01-31,0.4000000059604645,0.4000000059604645,0.4000000059604645,0.4000000059604645,0.4000000059604645,0
2020-02-03,0.4000000059604645,0.4000000059604645,0.4000000059604645,0.4000000059604645,0.4000000059604645,0
2020-02-04,0.4000000059604645,0.4000000059604645,0.4000000059604645,0.4000000059604645,0.4000000059604645,0
2020-02-05,0.4000000059604645,0.4000000059604645,0.4000000059604645,0.4000000059604645,0.4000000059604645,0
2020-02-06,0.4000000059604645,0.4000000059604645,0.4000000059604645,0.4000000059604645,0.4000000059604645,0
2020-02-07,0.4000000059604645,0.4000000059604645,0.4000000059604645,0.4000000059604645,0.4000000059604645,0
2020-02-10,0.4000000059604645,0.4000000059604645,0.4000000059604645,0.4000000059604645,0.4000000059604645,0
2020-02-11,0.4000000059604645,0.4000000059604645,0.4000000059604645,0.4000000059604645,0.4000000059604645,0
2020-02-12,0.4000000059604645,0.4000000059604645,0.4000000059604645,0.4000000059604645,0.4000000059604645,0
2020-02-13,0.4000000059604645,0.4000000059604645,0.4000000059604645,0.4000000059604645,0.4000000059604645,0
2020-02-14,0.4000000059604645,0.4000000059604645,0.4000000059604645,0.4000000059604645,0.4000000059604645,0
2020-02-18,0.4000000059604645,0.4000000059604645,0.4000000059604645,0.4000000059604645,0.4000000059604645,0
2020-02-19,0.4000000059604645,0.4000000059604645,0.4000000059604645,0.4000000059604645,0.4000000059604645,0
2020-02-20,0.4000000059604645,0.4000000059604645,0.4000000059604645,0.4000000059604645,0.4000000059604645,0
2020-02-21,0.4000000059604645,0.4000000059604645,0.4000000059604645,0.4000000059604645,0.4000000059604645,0
2020-02-24,0.4000000059604645,0.4000000059604645,0.4000000059604645,0.4000000059604645,0.4000000059604645,0
2020-02-25,0.4000000059604645,0.4000000059604645,0.4000000059604645,0.4000000059604645,0.4000000059604645,0
2020-02-26,0.4000000059604645,0.4000000059604645,0.4000000059604645,0.4000000059604645,0.4000000059604645,0
2020-02-27,0.4000000059604645,0.4000000059604645,0.4000000059604645,0.4000000059604645,0.4000000059604645,0
2020-02-28,0.4000000059604645,0.4000000059604645,0.4000000059604645,0.4000000059604645,0.4000000059604645,0
2020-03-02,0.4000000059604645,0.4000000059604645,0.4000000059604645,0.4000000059604645,0.4000000059604645,0
2020-03-03,0.4000000059604645,0.4000000059604645,0.4000000059604645,0.4000000059604645,0.4000000059604645,0
2020-03-04,0.4000000059604645,0.4000000059604645,0.4000000059604645,0.4000000059604645,0.4000000059604645,0
2020-03-05,0.4000000059604645,0.4000000059604645,0.4000000059604645,0.4000000059604645,0.4000000059604645,0
2020-03-06,0.4000000059604645,0.4000000059604645,0.4000000059604645,0.4000000059604645,0.4000000059604645,0
2020-03-09,0.4000000059604645,0.4000000059604645,0.4000000059604645,0.4000000059604645,0.4000000059604645,0
2020-03-10,0.4000000059604645,0.4000000059604645,0.4000000059604645,0.4000000059604645,0.4000000059604645,0
2020-03-11,0.4000000059604645,0.4000000059604645,0.4000000059604645,0.4000000059604645,0.4000000059604645,0
2020-03-12,0.4000000059604645,0.4000000059604645,0.4000000059604645,0.4000000059604645,0.4000000059604645,0
2020-03-13,0.4000000059604645,0.4000000059604645,0.4000000059604645,0.4000000059604645,0.4000000059604645,0
2020-03-16,0.4000000059604645,0.4000000059604645,0.4000000059604645,0.4000000059604645,0.4000000059604645,0
2020-03-17,0.4000000059604645,0.4000000059604645,0.4000000059604645,0.4000000059604645,0.4000000059604645,0
2020-03-18,0.4000000059604645,0.4000000059604645,0.4000000059604645,0.4000000059604645,0.4000000059604645,0
2020-03-19,0.4000000059604645,0.4000000059604645,0.4000000059604645,0.4000000059604645,0.4000000059604645,0
2020-03-20,0.4000000059604645,0.4000000059604645,0.4000000059604645,0.4000000059604645,0.4000000059604645,0
2020-03-23,0.4000000059604645,0.4000000059604645,0.4000000059604645,0.4000000059604645,0.4000000059604645,0
2020-03-24,0.4000000059604645,0.4000000059604645,0.4000000059604645,0.4000000059604645,0.4000000059604645,0
2020-03-25,0.3799999952316284,0.3799999952316284,0.2800000011920929,0.33000001311302185,0.33000001311302185,389900
2020-03-26,0.3400000035762787,0.5600000023841858,0.3400000035762787,0.4399999976158142,0.4399999976158142,251900
2020-03-27,0.36000001430511475,0.4779999852180481,0.36000001430511475,0.46000000834465027,0.46000000834465027,186900
2020-03-30,0.5799999833106995,0.5799999833106995,0.4050000011920929,0.41999998688697815,0.41999998688697815,53000
2020-03-31,0.41999998688697815,0.5799999833106995,0.41999998688697815,0.550000011920929,0.550000011920929,217700
2020-04-01,0.5400000214576721,0.5400000214576721,0.4000000059604645,0.4779999852180481,0.4779999852180481,104600
2020-04-02,0.47200000286102295,0.5400000214576721,0.41499999165534973,0.5199999809265137,0.5199999809265137,67200
2020-04-03,0.4880000054836273,0.5400000214576721,0.4699999988079071,0.5299999713897705,0.5299999713897705,59400
2020-04-06,0.550000011920929,0.746999979019165,0.5,0.6899999976158142,0.6899999976158142,264000
2020-04-07,0.6899999976158142,1.0,0.6899999976158142,0.9399999976158142,0.9399999976158142,472800
2020-04-08,0.9800000190734863,1.100000023841858,0.7799999713897705,0.8799999952316284,0.8799999952316284,297000
2020-04-09,0.9369999766349792,0.9900000095367432,0.8149999976158142,0.8809999823570251,0.8809999823570251,161700
2020-04-13,0.8460000157356262,0.902999997138977,0.8199999928474426,0.8199999928474426,0.8199999928474426,24100
2020-04-14,0.878000020980835,1.100000023841858,0.8299999833106995,1.090000033378601,1.090000033378601,151800
2020-04-15,1.1200000047683716,1.840000033378601,0.9980000257492065,1.5399999618530273,1.5399999618530273,638900
2020-04-16,1.590000033378601,1.9800000190734863,1.409999966621399,1.9500000476837158,1.9500000476837158,771100
2020-04-17,2.8299999237060547,3.4600000381469727,2.2200000286102295,2.549999952316284,2.549999952316284,11762100
2020-04-20,2.200000047683716,2.680000066757202,1.9600000381469727,2.450000047683716,2.450000047683716,1409900
2020-04-21,2.380000114440918,2.9800000190734863,2.119999885559082,2.200000047683716,2.200000047683716,729000
2020-04-22,2.700000047683716,2.700000047683716,2.240000009536743,2.4000000953674316,2.4000000953674316,559300
2020-04-23,2.359999895095825,2.4600000381469727,2.0199999809265137,2.2799999713897705,2.2799999713897705,629800
2020-04-24,2.2100000381469727,2.450000047683716,1.399999976158142,1.5299999713897705,1.5299999713897705,2620100
2020-04-27,1.3899999856948853,1.940000057220459,1.2999999523162842,1.690000057220459,1.690000057220459,1402900
2020-04-28,1.7400000095367432,1.850000023841858,1.5529999732971191,1.5800000429153442,1.5800000429153442,264100
2020-04-29,1.5800000429153442,1.6519999504089355,1.409999966621399,1.5800000429153442,1.5800000429153442,337800
2020-04-30,1.5,1.6200000047683716,1.4500000476837158,1.4800000190734863,1.4800000190734863,141800
2020-05-01,1.4800000190734863,1.590000033378601,1.340000033378601,1.4600000381469727,1.4600000381469727,119100
2020-05-04,1.4600000381469727,1.5499999523162842,1.409999966621399,1.4600000381469727,1.4600000381469727,134900
2020-05-05,1.4900000095367432,1.559999942779541,1.4299999475479126,1.440000057220459,1.440000057220459,124300
2020-05-06,1.440000057220459,1.4700000286102295,1.309999942779541,1.3700000047683716,1.3700000047683716,125000
2020-05-07,1.399999976158142,1.5,1.3200000524520874,1.440000057220459,1.440000057220459,159400
2020-05-08,1.4900000095367432,1.6399999856948853,1.350000023841858,1.5199999809265137,1.5199999809265137,1003500
2020-05-11,1.5499999523162842,1.5499999523162842,1.3899999856948853,1.5,1.5,267400
2020-05-12,1.4900000095367432,1.5199999809265137,1.350000023841858,1.4199999570846558,1.4199999570846558,127700
2020-05-13,1.350000023841858,1.3799999952316284,1.1649999618530273,1.2000000476837158,1.2000000476837158,399100
2020-05-14,1.2200000286102295,1.2599999904632568,1.0779999494552612,1.1299999952316284,1.1299999952316284,665500
2020-05-15,1.1399999856948853,1.2000000476837158,1.0199999809265137,1.1160000562667847,1.1160000562667847,1005500
2020-05-18,1.090000033378601,1.1100000143051147,1.0299999713897705,1.0299999713897705,1.0299999713897705,237600
2020-05-19,1.0399999618530273,1.0499999523162842,0.8199999928474426,0.859000027179718,0.859000027179718,787500
2020-05-20,0.7300000190734863,1.2200000286102295,0.7300000190734863,0.8700000047683716,0.8700000047683716,1556300
2020-05-21,0.8399999737739563,0.8399999737739563,0.7699999809265137,0.7900000214576721,0.7900000214576721,197700
2020-05-22,0.7900000214576721,0.8379999995231628,0.7710000276565552,0.8009999990463257,0.8009999990463257,73000
2020-05-26,0.8399999737739563,1.149999976158142,0.800000011920929,0.8899999856948853,0.8899999856948853,1219000
2020-05-27,0.9309999942779541,1.0529999732971191,0.9100000262260437,0.9900000095367432,0.9900000095367432,312400
2020-05-28,1.0099999904632568,1.3300000429153442,0.9900000095367432,0.9990000128746033,0.9990000128746033,1117600
2020-05-29,1.0399999618530273,1.100000023841858,0.949999988079071,0.9549999833106995,0.9549999833106995,208100
2020-06-01,1.0,1.0199999809265137,0.949999988079071,0.9900000095367432,0.9900000095367432,97000
2020-06-02,1.0800000429153442,1.149999976158142,1.0299999713897705,1.090000033378601,1.090000033378601,154300
2020-06-03,1.090000033378601,1.149999976158142,1.059999942779541,1.1399999856948853,1.1399999856948853,115300
2020-06-04,1.1200000047683716,1.440000057220459,1.1200000047683716,1.3899999856948853,1.3899999856948853,284300
2020-06-05,1.440000057220459,2.0999999046325684,1.440000057220459,1.6100000143051147,1.6100000143051147,759700
2020-06-08,1.659999966621399,1.7999999523162842,1.4199999570846558,1.6100000143051147,1.6100000143051147,182400
2020-06-09,1.600000023841858,1.9900000095367432,1.4800000190734863,1.840000033378601,1.840000033378601,285700
2020-06-10,1.9299999475479126,2.240000009536743,1.6200000047683716,1.6679999828338623,1.6679999828338623,746200
2020-06-11,1.5199999809265137,1.8799999952316284,1.5099999904632568,1.649999976158142,1.649999976158142,353500
2020-06-12,1.940000057220459,1.9500000476837158,1.6200000047683716,1.6399999856948853,1.6399999856948853,141000
2020-06-15,1.6299999952316284,1.7599999904632568,1.6200000047683716,1.7000000476837158,1.7000000476837158,76700
2020-06-16,1.7400000095367432,1.75,1.6200000047683716,1.649999976158142,1.649999976158142,108700
2020-06-17,1.649999976158142,1.850000023841858,1.5199999809265137,1.5700000524520874,1.5700000524520874,600300
2020-06-18,1.6200000047683716,1.7000000476837158,1.5800000429153442,1.590000033378601,1.590000033378601,113000
2020-06-19,1.649999976158142,1.850000023841858,1.5700000524520874,1.6100000143051147,1.6100000143051147,858900
2020-06-22,1.6399999856948853,1.6399999856948853,1.5,1.559999942779541,1.559999942779541,141700
2020-06-23,1.5399999618530273,1.600000023841858,1.3200000524520874,1.3799999952316284,1.3799999952316284,534200
2020-06-24,1.3600000143051147,1.3700000047683716,1.2100000381469727,1.2300000190734863,1.2300000190734863,158100
2020-06-25,1.2699999809265137,1.3899999856948853,1.1699999570846558,1.2599999904632568,1.2599999904632568,80300
2020-06-26,1.25,1.2599999904632568,1.1799999475479126,1.2300000190734863,1.2300000190734863,66200
2020-06-29,1.2599999904632568,1.5299999713897705,1.2100000381469727,1.2799999713897705,1.2799999713897705,123600
2020-06-30,1.2699999809265137,1.4800000190734863,1.2599999904632568,1.2899999618530273,1.2899999618530273,216900
2020-07-01,1.2999999523162842,1.3600000143051147,1.2699999809265137,1.2999999523162842,1.2999999523162842,80600
2020-07-02,1.2999999523162842,1.350000023841858,1.2599999904632568,1.3300000429153442,1.3300000429153442,71600
2020-07-06,1.3300000429153442,1.350000023841858,1.2100000381469727,1.309999942779541,1.309999942779541,91200
2020-07-07,1.309999942779541,1.3600000143051147,1.2699999809265137,1.2899999618530273,1.2899999618530273,208200
2020-07-08,1.2899999618530273,1.5299999713897705,1.2899999618530273,1.5,1.5,283400
2020-07-09,1.5,2.4800000190734863,1.5,2.4049999713897705,2.4049999713897705,1878300
2020-07-10,1.9700000286102295,2.246000051498413,1.7799999713897705,1.8200000524520874,1.8200000524520874,1167400
2020-07-13,1.7999999523162842,2.0,1.6239999532699585,1.7400000095367432,1.7400000095367432,385800
2020-07-14,1.75,1.7899999618530273,1.7000000476837158,1.7599999904632568,1.7599999904632568,118500
2020-07-15,1.9900000095367432,2.259999990463257,1.7599999904632568,1.9900000095367432,1.9900000095367432,808500
2020-07-16,1.9700000286102295,1.9900000095367432,1.809999942779541,1.9500000476837158,1.9500000476837158,83800
2020-07-17,1.9500000476837158,2.049999952316284,1.909999966621399,1.940000057220459,1.940000057220459,28500
2020-07-20,1.9299999475479126,2.005000114440918,1.850000023841858,1.8700000047683716,1.8700000047683716,83000
2020-07-21,1.909999966621399,2.0299999713897705,1.8799999952316284,2.0,2.0,57700
2020-07-22,1.9800000190734863,1.9800000190734863,1.8600000143051147,1.8899999856948853,1.8899999856948853,33900
2020-07-23,1.8700000047683716,2.0999999046325684,1.8700000047683716,1.909999966621399,1.909999966621399,130300
2020-07-24,1.8799999952316284,2.0,1.8799999952316284,1.909999966621399,1.909999966621399,83100
2020-07-27,1.9800000190734863,2.009999990463257,1.909999966621399,1.9199999570846558,1.9199999570846558,133400
2020-07-28,1.9199999570846558,3.240000009536743,1.9199999570846558,2.8299999237060547,2.8299999237060547,1766200
2020-07-29,2.7100000381469727,3.2899999618530273,2.4700000286102295,3.130000114440918,3.130000114440918,625400
2020-07-30,2.940000057220459,3.200000047683716,2.8259999752044678,2.950000047683716,2.950000047683716,171500
2020-07-31,2.9600000381469727,3.1500000953674316,2.9600000381469727,3.0899999141693115,3.0899999141693115,70900
2020-08-03,3.130000114440918,3.6700000762939453,3.0999999046325684,3.109999895095825,3.109999895095825,337800
2020-08-04,3.130000114440918,3.549999952316284,3.130000114440918,3.390000104904175,3.390000104904175,144300
2020-08-05,3.359999895095825,4.46999979019165,3.319999933242798,4.289999961853027,4.289999961853027,443400
2020-08-06,4.360000133514404,5.449999809265137,3.799999952316284,4.900000095367432,4.900000095367432,593700
2020-08-07,5.010000228881836,5.5,4.510000228881836,4.980000019073486,4.980000019073486,215900
2020-08-10,4.940000057220459,5.039999961853027,4.400000095367432,4.699999809265137,4.699999809265137,279600
2020-08-11,4.5,4.840000152587891,4.099999904632568,4.360000133514404,4.360000133514404,201100
2020-08-12,4.360000133514404,4.670000076293945,4.349999904632568,4.360000133514404,4.360000133514404,84800
2020-08-13,4.360000133514404,4.610000133514404,3.890000104904175,4.099999904632568,4.099999904632568,183400
2020-08-14,4.010000228881836,4.369999885559082,4.0,4.099999904632568,4.099999904632568,60000
2020-08-17,4.070000171661377,4.239999771118164,3.950000047683716,4.050000190734863,4.050000190734863,66200
2020-08-18,3.9200000762939453,4.159999847412109,3.505000114440918,3.740000009536743,3.740000009536743,130800
2020-08-19,3.680000066757202,3.9600000381469727,3.680000066757202,3.819999933242798,3.819999933242798,28900
2020-08-20,3.809999942779541,4.25,3.809999942779541,4.010000228881836,4.010000228881836,66700
2020-08-21,3.9700000286102295,4.170000076293945,3.9700000286102295,4.170000076293945,4.170000076293945,17800
2020-08-24,4.210000038146973,4.71999979019165,4.199999809265137,4.5,4.5,116600
2020-08-25,4.449999809265137,4.71999979019165,4.21999979019165,4.559999942779541,4.559999942779541,107500
2020-08-26,4.639999866485596,4.869999885559082,4.534999847412109,4.599999904632568,4.599999904632568,46200
2020-08-27,4.78000020980835,4.925000190734863,4.679999828338623,4.747000217437744,4.747000217437744,90500
2020-08-28,4.670000076293945,4.909999847412109,4.670000076293945,4.889999866485596,4.889999866485596,68100
2020-08-31,5.0,5.099999904632568,4.900000095367432,4.96999979019165,4.96999979019165,93700
2020-09-01,4.820000171661377,5.079999923706055,4.820000171661377,4.920000076293945,4.920000076293945,137200
2020-09-02,4.699999809265137,4.880000114440918,4.550000190734863,4.679999828338623,4.679999828338623,71400
2020-09-03,4.590000152587891,4.599999904632568,4.050000190734863,4.510000228881836,4.510000228881836,48900
2020-09-04,4.420000076293945,4.690000057220459,4.409999847412109,4.605000019073486,4.605000019073486,31400
2020-09-08,4.5,4.650000095367432,4.309999942779541,4.309999942779541,4.309999942779541,40700
2020-09-09,4.5,4.639999866485596,4.309999942779541,4.610000133514404,4.610000133514404,59900
2020-09-10,4.5,4.639999866485596,4.275000095367432,4.409999847412109,4.409999847412109,24200
2020-09-11,4.119999885559082,4.579999923706055,4.119999885559082,4.579999923706055,4.579999923706055,29800
2020-09-14,4.460000038146973,4.730000019073486,4.409999847412109,4.590000152587891,4.590000152587891,39600
2020-09-15,4.599999904632568,4.599999904632568,4.400000095367432,4.429999828338623,4.429999828338623,64000
2020-09-16,4.309999942779541,4.590000152587891,4.039999961853027,4.130000114440918,4.130000114440918,132600
2020-09-17,4.159999847412109,4.380000114440918,4.159999847412109,4.239999771118164,4.239999771118164,44300
2020-09-18,4.340000152587891,4.510000228881836,4.145999908447266,4.449999809265137,4.449999809265137,82400
2020-09-21,4.340000152587891,4.449999809265137,4.199999809265137,4.260000228881836,4.260000228881836,17900
2020-09-22,4.2779998779296875,4.28000020980835,3.859999895095825,3.9700000286102295,3.9700000286102295,45200
2020-09-23,3.880000114440918,4.0329999923706055,3.5,3.8499999046325684,3.8499999046325684,57600
2020-09-24,3.75,3.9200000762939453,3.674999952316284,3.9200000762939453,3.9200000762939453,27400
2020-09-25,3.940000057220459,4.239999771118164,3.940000057220459,4.190000057220459,4.190000057220459,40200
2020-09-28,4.139999866485596,4.260000228881836,4.039999961853027,4.110000133514404,4.110000133514404,27300
2020-09-29,4.110000133514404,4.139999866485596,4.010000228881836,4.070000171661377,4.070000171661377,20200
2020-09-30,4.460000038146973,4.460000038146973,4.0,4.110000133514404,4.110000133514404,26800
2020-10-01,4.110000133514404,4.150000095367432,3.990000009536743,4.019999980926514,4.019999980926514,17300
2020-10-02,3.8399999141693115,4.300000190734863,3.8399999141693115,4.039999961853027,4.039999961853027,15400
2020-10-05,3.9700000286102295,4.269999980926514,3.75,3.8399999141693115,3.8399999141693115,54200
2020-10-06,3.5799999237060547,4.139999866485596,3.569999933242798,3.990000009536743,3.990000009536743,38800
2020-10-07,4.050000190734863,4.239999771118164,3.9549999237060547,4.0,4.0,69600
2020-10-08,4.025000095367432,4.199999809265137,3.9000000953674316,3.9200000762939453,3.9200000762939453,144100
2020-10-09,3.9200000762939453,4.0929999351501465,3.9200000762939453,4.050000190734863,4.050000190734863,60400
2020-10-12,4.005000114440918,4.150000095367432,3.950000047683716,3.9700000286102295,3.9700000286102295,44900
2020-10-13,4.0,4.170000076293945,3.9579999446868896,4.0,4.0,7600
2020-10-14,3.940000057220459,4.039999961853027,3.940000057220459,4.0,4.0,3400
2020-10-15,4.079999923706055,4.079999923706055,3.9600000381469727,3.9600000381469727,3.9600000381469727,6200
2020-10-16,3.9800000190734863,3.9830000400543213,3.8499999046325684,3.8499999046325684,3.8499999046325684,5600
2020-10-19,3.5999999046325684,4.199999809265137,3.5999999046325684,4.099999904632568,4.099999904632568,37400
2020-10-20,4.079999923706055,4.079999923706055,3.819999933242798,3.819999933242798,3.819999933242798,13500
2020-10-21,3.984999895095825,4.139999866485596,3.8499999046325684,3.9549999237060547,3.9549999237060547,55700
2020-10-22,4.050000190734863,4.690000057220459,3.9800000190734863,4.0,4.0,161600
2020-10-23,3.990000009536743,4.329999923706055,3.5850000381469727,3.9600000381469727,3.9600000381469727,114300
2020-10-26,3.8299999237060547,4.079999923706055,3.628000020980835,4.019999980926514,4.019999980926514,83300
2020-10-27,4.159999847412109,4.190000057220459,3.7699999809265137,3.9200000762939453,3.9200000762939453,48800
2020-10-28,3.8499999046325684,3.9179999828338623,3.559999942779541,3.5999999046325684,3.5999999046325684,58500
2020-10-29,3.6500000953674316,3.869999885559082,3.6500000953674316,3.7899999618530273,3.7899999618530273,13400
2020-10-30,3.859999895095825,3.9000000953674316,3.625,3.75,3.75,17100
2020-11-02,3.75,3.819999933242798,3.609999895095825,3.799999952316284,3.799999952316284,16900
2020-11-03,3.799999952316284,3.9800000190734863,3.799999952316284,3.9000000953674316,3.9000000953674316,13400
2020-11-04,4.079999923706055,4.340000152587891,3.8499999046325684,4.210000038146973,4.210000038146973,339800
2020-11-05,4.349999904632568,4.650000095367432,4.135000228881836,4.300000190734863,4.300000190734863,569200
2020-11-06,4.389999866485596,4.390999794006348,3.869999885559082,3.9600000381469727,3.9600000381469727,145500
2020-11-09,3.869999885559082,3.9600000381469727,3.4000000953674316,3.559999942779541,3.559999942779541,286400
2020-11-10,3.640000104904175,3.990000009536743,3.609999895095825,3.880000114440918,3.880000114440918,119800
2020-11-11,4.0,4.150000095367432,3.7200000286102295,3.809999942779541,3.809999942779541,395300
2020-11-12,3.799999952316284,4.420000076293945,3.799999952316284,4.159999847412109,4.159999847412109,545700
2020-11-13,4.119999885559082,4.360000133514404,4.099999904632568,4.340000152587891,4.340000152587891,113500
2020-11-16,4.619999885559082,5.46999979019165,4.460000038146973,5.409999847412109,5.409999847412109,860200
2020-11-17,6.150000095367432,7.050000190734863,5.579999923706055,5.96999979019165,5.96999979019165,3628700
2020-11-18,6.0,6.5,5.5,5.639999866485596,5.639999866485596,1027400
2020-11-19,5.639999866485596,6.230000019073486,5.210000038146973,6.199999809265137,6.199999809265137,519800
2020-11-20,6.28000020980835,6.889999866485596,5.909999847412109,6.099999904632568,6.099999904632568,871800
2020-11-23,6.5,6.860000133514404,6.159999847412109,6.170000076293945,6.170000076293945,991500
2020-11-24,6.650000095367432,6.71999979019165,6.0,6.309999942779541,6.309999942779541,600800
2020-11-25,6.380000114440918,8.140000343322754,5.78000020980835,7.269999980926514,7.269999980926514,1488000
2020-11-27,6.190000057220459,6.659999847412109,5.889999866485596,6.320000171661377,6.320000171661377,1583900
2020-11-30,7.309999942779541,8.119999885559082,6.7129998207092285,8.069999694824219,8.069999694824219,2038000
2020-12-01,7.769999980926514,9.050000190734863,7.340000152587891,7.980000019073486,7.980000019073486,2096800
2020-12-02,7.840000152587891,7.949999809265137,7.349999904632568,7.769999980926514,7.769999980926514,445700
2020-12-03,7.929999828338623,7.929999828338623,7.019999980926514,7.449999809265137,7.449999809265137,1028400
2020-12-04,7.25,7.329999923706055,6.300000190734863,6.349999904632568,6.349999904632568,1195000
2020-12-07,6.53000020980835,6.690000057220459,6.300000190734863,6.320000171661377,6.320000171661377,390400
2020-12-08,6.269999980926514,6.269999980926514,5.75,5.849999904632568,5.849999904632568,701300
2020-12-09,5.800000190734863,5.989999771118164,5.630000114440918,5.690000057220459,5.690000057220459,453000
2020-12-10,5.489999771118164,6.159999847412109,5.449999809265137,5.920000076293945,5.920000076293945,385200
2020-12-11,5.78000020980835,6.0,5.78000020980835,5.960000038146973,5.960000038146973,323400
2020-12-14,6.309999942779541,6.480000019073486,5.929999828338623,6.019999980926514,6.019999980926514,1077200
2020-12-15,6.110000133514404,6.489999771118164,6.050000190734863,6.159999847412109,6.159999847412109,2144400
2020-12-16,6.880000114440918,7.050000190734863,4.789999961853027,5.050000190734863,5.050000190734863,11541700
2020-12-17,6.0,6.050000190734863,5.309999942779541,5.510000228881836,5.510000228881836,5043800
2020-12-18,5.309999942779541,5.829999923706055,5.099999904632568,5.559999942779541,5.559999942779541,1141300
2020-12-21,5.71999979019165,6.639999866485596,5.53000020980835,6.25,6.25,3178200
2020-12-22,6.800000190734863,6.849999904632568,5.840000152587891,6.489999771118164,6.489999771118164,4127600
2020-12-23,6.579999923706055,6.900000095367432,5.929999828338623,5.949999809265137,5.949999809265137,2187200
2020-12-24,6.03000020980835,6.34499979019165,5.650000095367432,5.789999961853027,5.789999961853027,858600
2020-12-28,6.679999828338623,12.449999809265137,6.409999847412109,10.489999771118164,10.489999771118164,60474000
2020-12-29,9.84000015258789,10.869999885559082,8.439000129699707,10.5600004196167,10.5600004196167,8421000
2020-12-30,12.274999618530273,16.190000534057617,12.109999656677246,15.149999618530273,15.149999618530273,46688400
