Date,Open,High,Low,Close,Adj Close,Volume
2019-04-17,11.130000114440918,12.390000343322754,10.739999771118164,11.09000015258789,11.09000015258789,1286600
2019-04-18,11.029999732971191,11.449999809265137,10.800000190734863,11.25,11.25,165800
2019-04-22,11.399999618530273,11.5,11.300000190734863,11.5,11.5,50200
2019-04-23,11.550000190734863,11.550000190734863,11.039999961853027,11.3100004196167,11.3100004196167,26300
2019-04-24,11.220000267028809,11.279999732971191,11.0,11.25,11.25,20900
2019-04-25,11.199999809265137,11.199999809265137,11.0,11.0,11.0,20600
2019-04-26,10.819999694824219,11.140000343322754,10.810999870300293,11.010000228881836,11.010000228881836,12700
2019-04-29,11.0,11.024999618530273,10.869999885559082,10.869999885559082,10.869999885559082,8400
2019-04-30,10.880000114440918,10.949999809265137,10.788000106811523,10.869999885559082,10.869999885559082,14600
2019-05-01,10.829999923706055,11.039999961853027,10.829999923706055,11.0,11.0,22400
2019-05-02,11.0,11.140000343322754,11.0,11.029999732971191,11.029999732971191,30300
2019-05-03,11.010000228881836,11.079999923706055,11.0,11.079999923706055,11.079999923706055,11800
2019-05-06,10.8100004196167,11.095000267028809,10.8100004196167,11.029999732971191,11.029999732971191,19700
2019-05-07,10.970000267028809,11.010000228881836,10.788999557495117,11.010000228881836,11.010000228881836,6400
2019-05-08,10.918999671936035,11.005000114440918,10.779999732971191,10.86400032043457,10.86400032043457,3300
2019-05-09,10.82699966430664,10.878999710083008,10.75,10.817000389099121,10.817000389099121,7100
2019-05-10,10.824000358581543,10.880000114440918,10.5,10.800000190734863,10.800000190734863,14500
2019-05-13,10.65999984741211,10.8100004196167,10.300000190734863,10.380000114440918,10.380000114440918,18100
2019-05-14,10.529999732971191,10.800000190734863,10.5,10.710000038146973,10.710000038146973,18900
2019-05-15,10.729999542236328,10.869999885559082,10.729999542236328,10.800000190734863,10.800000190734863,7400
2019-05-16,11.029999732971191,11.100000381469727,10.800000190734863,10.819999694824219,10.819999694824219,12000
2019-05-17,10.814000129699707,10.994999885559082,10.800000190734863,10.881999969482422,10.881999969482422,5500
2019-05-20,10.890000343322754,10.994999885559082,10.520000457763672,10.550000190734863,10.550000190734863,23900
2019-05-21,10.829999923706055,10.880000114440918,10.668000221252441,10.850000381469727,10.850000381469727,3500
2019-05-22,10.84000015258789,10.890000343322754,10.57800006866455,10.82800006866455,10.82800006866455,8400
2019-05-23,10.5,10.699999809265137,10.380000114440918,10.680000305175781,10.680000305175781,17300
2019-05-24,10.760000228881836,10.880000114440918,10.37399959564209,10.880000114440918,10.880000114440918,6700
2019-05-28,10.210000038146973,10.545000076293945,10.079999923706055,10.545000076293945,10.545000076293945,11200
2019-05-29,9.729999542236328,10.239999771118164,9.5,10.180000305175781,10.180000305175781,14000
2019-05-30,9.859999656677246,10.119999885559082,9.850000381469727,10.060999870300293,10.060999870300293,5800
2019-05-31,9.800000190734863,10.270000457763672,9.75,10.270000457763672,10.270000457763672,5100
2019-06-03,9.880000114440918,10.539999961853027,9.800000190734863,10.100000381469727,10.100000381469727,30300
2019-06-04,9.930000305175781,10.050000190734863,9.84000015258789,9.90999984741211,9.90999984741211,25500
2019-06-05,9.8100004196167,9.9399995803833,9.800000190734863,9.9399995803833,9.9399995803833,4100
2019-06-06,9.800000190734863,9.932000160217285,9.710000038146973,9.932000160217285,9.932000160217285,5200
2019-06-07,9.550000190734863,9.82800006866455,9.5,9.678000450134277,9.678000450134277,1000
2019-06-10,9.65999984741211,9.826000213623047,9.550000190734863,9.550000190734863,9.550000190734863,2100
2019-06-11,9.399999618530273,9.399999618530273,9.100000381469727,9.100000381469727,9.100000381469727,4800
2019-06-12,8.0,9.5,8.0,8.890000343322754,8.890000343322754,10100
2019-06-13,8.989999771118164,8.989999771118164,8.572999954223633,8.699999809265137,8.699999809265137,5200
2019-06-14,8.59000015258789,8.694000244140625,8.529999732971191,8.65999984741211,8.65999984741211,9400
2019-06-17,8.90999984741211,9.0,8.850000381469727,9.0,9.0,8200
2019-06-18,9.100000381469727,9.289999961853027,9.020000457763672,9.289999961853027,9.289999961853027,8300
2019-06-19,9.369999885559082,9.5,9.0,9.40999984741211,9.40999984741211,9200
2019-06-20,9.770000457763672,10.28499984741211,9.770000457763672,10.25,10.25,23500
2019-06-21,10.350000381469727,10.350000381469727,9.829999923706055,10.25,10.25,15500
2019-06-24,10.350000381469727,10.496000289916992,10.25,10.489999771118164,10.489999771118164,12500
2019-06-25,10.470000267028809,10.470000267028809,10.17300033569336,10.305000305175781,10.305000305175781,10700
2019-06-26,10.244999885559082,10.380000114440918,10.199999809265137,10.380000114440918,10.380000114440918,9200
2019-06-27,10.3100004196167,10.470000267028809,10.25,10.255000114440918,10.255000114440918,2600
2019-06-28,10.25,10.48799991607666,10.201000213623047,10.48799991607666,10.48799991607666,3600
2019-07-01,10.800000190734863,10.800000190734863,10.260000228881836,10.54699993133545,10.54699993133545,62600
2019-07-02,10.449999809265137,10.850000381469727,10.449999809265137,10.800000190734863,10.800000190734863,1500
2019-07-03,10.270999908447266,10.270999908447266,9.989999771118164,10.199999809265137,10.199999809265137,4000
2019-07-05,10.100000381469727,10.27299976348877,10.026000022888184,10.27299976348877,10.27299976348877,800
2019-07-08,10.430000305175781,10.5,10.220000267028809,10.5,10.5,1700
2019-07-09,10.470000267028809,10.510000228881836,10.35200023651123,10.510000228881836,10.510000228881836,5700
2019-07-10,10.369000434875488,10.369000434875488,10.300000190734863,10.343999862670898,10.343999862670898,1100
2019-07-11,10.260000228881836,10.5,10.069999694824219,10.069999694824219,10.069999694824219,800
2019-07-12,10.407999992370605,10.407999992370605,10.407999992370605,10.407999992370605,10.407999992370605,200
2019-07-15,10.20300006866455,10.350000381469727,9.510000228881836,10.100000381469727,10.100000381469727,5800
2019-07-16,9.890000343322754,10.079999923706055,9.890000343322754,10.0,10.0,3200
2019-07-17,9.720000267028809,10.364999771118164,9.699999809265137,10.279999732971191,10.279999732971191,9100
2019-07-18,10.15999984741211,10.449999809265137,10.100000381469727,10.149999618530273,10.149999618530273,35500
2019-07-19,10.449999809265137,10.449999809265137,10.149999618530273,10.177000045776367,10.177000045776367,2100
2019-07-22,9.960000038146973,10.145000457763672,9.899999618530273,10.050000190734863,10.050000190734863,23200
2019-07-23,9.979999542236328,9.979999542236328,9.8100004196167,9.960000038146973,9.960000038146973,5000
2019-07-24,9.899999618530273,10.149999618530273,9.899999618530273,10.149999618530273,10.149999618530273,1600
2019-07-25,10.039999961853027,10.149999618530273,10.01099967956543,10.149999618530273,10.149999618530273,1600
2019-07-26,10.010000228881836,10.4399995803833,10.010000228881836,10.4399995803833,10.4399995803833,4600
2019-07-29,10.09000015258789,10.15999984741211,10.09000015258789,10.130000114440918,10.130000114440918,900
2019-07-30,10.270000457763672,10.300000190734863,9.550000190734863,10.300000190734863,10.300000190734863,3300
2019-07-31,10.420000076293945,10.420000076293945,9.880000114440918,9.885000228881836,9.885000228881836,9600
2019-08-01,10.329999923706055,10.329999923706055,10.100000381469727,10.192999839782715,10.192999839782715,9900
2019-08-02,10.050000190734863,10.229999542236328,10.024999618530273,10.029999732971191,10.029999732971191,700
2019-08-05,9.920000076293945,10.0,9.920000076293945,10.0,10.0,3100
2019-08-06,9.960000038146973,10.076000213623047,9.850000381469727,9.949999809265137,9.949999809265137,12500
2019-08-07,9.800000190734863,10.0,9.699999809265137,9.75,9.75,9500
2019-08-08,9.529999732971191,9.614999771118164,9.300000190734863,9.40999984741211,9.40999984741211,58500
2019-08-09,9.449999809265137,9.571999549865723,9.300000190734863,9.300000190734863,9.300000190734863,9400
2019-08-12,9.3100004196167,9.3100004196167,9.3100004196167,9.3100004196167,9.3100004196167,100
2019-08-13,9.210000038146973,9.300000190734863,9.170000076293945,9.300000190734863,9.300000190734863,1800
2019-08-14,8.829999923706055,8.979999542236328,8.5,8.550000190734863,8.550000190734863,7400
2019-08-15,8.5,8.800000190734863,8.3100004196167,8.789999961853027,8.789999961853027,17200
2019-08-16,9.0,9.010000228881836,8.850000381469727,9.0,9.0,16700
2019-08-19,9.244999885559082,9.25,9.199999809265137,9.25,9.25,3500
2019-08-20,9.369999885559082,10.220000267028809,9.34000015258789,10.1899995803833,10.1899995803833,11300
2019-08-21,9.630000114440918,10.170000076293945,9.630000114440918,10.170000076293945,10.170000076293945,10700
2019-08-22,10.25,11.0,9.949999809265137,10.050000190734863,10.050000190734863,10900
2019-08-23,10.010000228881836,10.710000038146973,10.010000228881836,10.25,10.25,30600
2019-08-26,10.0,10.390000343322754,9.864999771118164,10.34000015258789,10.34000015258789,18700
2019-08-27,10.0,10.130000114440918,9.800000190734863,10.0,10.0,32600
2019-08-28,10.229999542236328,10.229999542236328,9.9399995803833,10.0,10.0,9300
2019-08-29,9.979999542236328,10.098999977111816,9.979999542236328,10.0,10.0,3900
2019-08-30,10.0,10.069999694824219,10.0,10.069999694824219,10.069999694824219,7600
2019-09-03,10.15999984741211,10.15999984741211,10.0,10.0,10.0,12200
2019-09-04,10.34000015258789,10.53499984741211,10.34000015258789,10.390000343322754,10.390000343322754,3400
2019-09-05,10.637999534606934,10.637999534606934,10.3100004196167,10.3100004196167,10.3100004196167,900
2019-09-06,10.371000289916992,10.371000289916992,10.371000289916992,10.371000289916992,10.371000289916992,100
2019-09-09,10.50100040435791,10.699999809265137,10.5,10.5,10.5,6100
2019-09-10,10.510000228881836,10.550000190734863,10.5,10.5,10.5,3900
2019-09-11,10.670000076293945,10.680000305175781,10.5,10.5,10.5,400
2019-09-12,10.5,10.53600025177002,10.399999618530273,10.5,10.5,2800
2019-09-13,10.61299991607666,10.61299991607666,10.5,10.5,10.5,800
2019-09-16,10.630000114440918,10.630000114440918,10.5,10.569999694824219,10.569999694824219,3600
2019-09-17,10.569999694824219,10.569999694824219,10.569999694824219,10.569999694824219,10.569999694824219,100
2019-09-18,10.279999732971191,10.6850004196167,10.25,10.6850004196167,10.6850004196167,3000
2019-09-19,10.34000015258789,10.649999618530273,10.1899995803833,10.1899995803833,10.1899995803833,9500
2019-09-20,10.1899995803833,10.5,10.180000305175781,10.373000144958496,10.373000144958496,1200
2019-09-23,9.680000305175781,9.890000343322754,9.520000457763672,9.633000373840332,9.633000373840332,4600
2019-09-24,9.430000305175781,9.630000114440918,9.260000228881836,9.279999732971191,9.279999732971191,7400
2019-09-25,9.399999618530273,9.800000190734863,9.140000343322754,9.510000228881836,9.510000228881836,2400
2019-09-26,9.859999656677246,9.859999656677246,9.510000228881836,9.510000228881836,9.510000228881836,900
2019-09-27,9.520000457763672,9.520000457763672,9.510000228881836,9.510000228881836,9.510000228881836,900
2019-09-30,9.510000228881836,9.819999694824219,9.109999656677246,9.109999656677246,9.109999656677246,3700
2019-10-01,9.25,9.649999618530273,9.1899995803833,9.1899995803833,9.1899995803833,8300
2019-10-02,9.142000198364258,9.142000198364258,9.010000228881836,9.039999961853027,9.039999961853027,800
2019-10-03,9.0,9.130000114440918,8.920000076293945,9.119999885559082,9.119999885559082,5500
2019-10-04,9.100000381469727,9.15999984741211,8.960000038146973,9.029999732971191,9.029999732971191,1600
2019-10-07,8.829999923706055,9.288999557495117,8.829999923706055,9.180000305175781,9.180000305175781,36800
2019-10-08,8.609999656677246,8.630000114440918,8.319999694824219,8.319999694824219,8.319999694824219,2300
2019-10-09,8.67199993133545,9.289999961853027,8.67199993133545,9.119999885559082,9.119999885559082,3800
2019-10-10,8.899999618530273,9.079999923706055,8.5,9.0,9.0,1500
2019-10-11,8.8100004196167,9.0,8.8100004196167,9.0,9.0,8600
2019-10-14,9.09000015258789,9.09000015258789,9.09000015258789,9.09000015258789,9.09000015258789,1600
2019-10-15,9.09000015258789,9.09000015258789,9.09000015258789,9.09000015258789,9.09000015258789,0
2019-10-16,8.800000190734863,8.850000381469727,8.649999618530273,8.800000190734863,8.800000190734863,5200
2019-10-17,8.8100004196167,8.890000343322754,8.8100004196167,8.850000381469727,8.850000381469727,2500
2019-10-18,8.850000381469727,8.850000381469727,8.49899959564209,8.84000015258789,8.84000015258789,2400
2019-10-21,8.899999618530273,8.899999618530273,8.899999618530273,8.899999618530273,8.899999618530273,400
2019-10-22,8.529999732971191,8.529999732971191,8.40999984741211,8.529999732971191,8.529999732971191,3900
2019-10-23,8.5,8.569999694824219,8.460000038146973,8.550000190734863,8.550000190734863,7400
2019-10-24,8.5600004196167,8.6899995803833,8.526000022888184,8.526000022888184,8.526000022888184,13400
2019-10-25,8.5600004196167,8.5600004196167,8.508000373840332,8.5600004196167,8.5600004196167,3200
2019-10-28,8.5600004196167,8.668999671936035,8.489999771118164,8.649999618530273,8.649999618530273,3200
2019-10-29,8.779999732971191,8.779999732971191,8.479999542236328,8.479999542236328,8.479999542236328,4100
2019-10-30,8.633999824523926,8.850000381469727,8.633999824523926,8.715999603271484,8.715999603271484,2300
2019-10-31,8.664999961853027,9.0,8.581000328063965,8.899999618530273,8.899999618530273,6500
2019-11-01,9.0,9.890000343322754,8.744999885559082,9.3100004196167,9.3100004196167,37000
2019-11-04,9.180000305175781,9.739999771118164,8.5,9.739999771118164,9.739999771118164,12100
2019-11-05,9.75,9.770000457763672,9.494999885559082,9.770000457763672,9.770000457763672,3400
2019-11-06,9.696000099182129,9.9399995803833,9.220000267028809,9.350000381469727,9.350000381469727,6800
2019-11-07,9.654999732971191,9.670000076293945,9.350000381469727,9.350000381469727,9.350000381469727,9700
2019-11-08,9.220000267028809,9.289999961853027,9.149999618530273,9.289999961853027,9.289999961853027,4100
2019-11-11,9.069999694824219,9.069999694824219,9.0,9.0,9.0,1700
2019-11-12,9.25,9.25,9.0600004196167,9.0600004196167,9.0600004196167,1500
2019-11-13,9.069999694824219,9.069999694824219,9.069999694824219,9.069999694824219,9.069999694824219,1700
2019-11-14,8.760000228881836,9.194000244140625,8.760000228881836,9.130000114440918,9.130000114440918,2000
2019-11-15,8.670000076293945,9.039999961853027,8.670000076293945,8.949999809265137,8.949999809265137,1000
2019-11-18,8.71500015258789,8.899999618530273,8.300000190734863,8.300000190734863,8.300000190734863,15600
2019-11-19,8.680000305175781,8.699999809265137,8.5,8.699999809265137,8.699999809265137,1100
2019-11-20,8.539999961853027,8.539999961853027,8.5,8.5,8.5,1300
2019-11-21,8.569999694824219,8.569999694824219,8.300000190734863,8.54800033569336,8.54800033569336,1100
2019-11-22,8.59000015258789,8.619999885559082,8.3100004196167,8.350000381469727,8.350000381469727,5000
2019-11-25,9.199999809265137,9.463000297546387,8.904000282287598,9.399999618530273,9.399999618530273,8700
2019-11-26,9.15999984741211,9.42199993133545,9.0600004196167,9.0600004196167,9.0600004196167,3800
2019-11-27,9.0600004196167,9.40999984741211,9.0600004196167,9.40999984741211,9.40999984741211,3600
2019-11-29,9.210000038146973,9.40999984741211,8.789999961853027,9.229999542236328,9.229999542236328,2500
2019-12-02,10.09000015258789,11.236000061035156,10.09000015258789,10.800000190734863,10.800000190734863,187900
2019-12-03,10.050000190734863,10.520000457763672,10.050000190734863,10.470000267028809,10.470000267028809,37100
2019-12-04,10.970000267028809,10.970000267028809,10.5,10.557999610900879,10.557999610900879,7200
2019-12-05,10.5600004196167,10.829999923706055,10.510000228881836,10.829999923706055,10.829999923706055,4800
2019-12-06,10.5,10.789999961853027,10.5,10.649999618530273,10.649999618530273,3500
2019-12-09,10.529999732971191,10.949999809265137,10.529999732971191,10.739999771118164,10.739999771118164,12000
2019-12-10,10.619999885559082,10.668000221252441,10.5,10.5,10.5,7000
2019-12-11,10.510000228881836,10.571000099182129,10.069999694824219,10.15999984741211,10.15999984741211,8200
2019-12-12,10.479999542236328,10.5,10.369999885559082,10.369999885559082,10.369999885559082,4200
2019-12-13,10.420000076293945,10.439000129699707,10.420000076293945,10.439000129699707,10.439000129699707,600
2019-12-16,10.149999618530273,10.460000038146973,9.994999885559082,10.029999732971191,10.029999732971191,2800
2019-12-17,10.0,10.020000457763672,9.8100004196167,10.00100040435791,10.00100040435791,3000
2019-12-18,9.824000358581543,9.838000297546387,9.145999908447266,9.550000190734863,9.550000190734863,22300
2019-12-19,9.550000190734863,9.774999618530273,9.505999565124512,9.774999618530273,9.774999618530273,3300
2019-12-20,9.756999969482422,9.800000190734863,9.649999618530273,9.649999618530273,9.649999618530273,7600
2019-12-23,9.640000343322754,9.75,9.630000114440918,9.720000267028809,9.720000267028809,5000
2019-12-24,9.720000267028809,9.720000267028809,9.720000267028809,9.720000267028809,9.720000267028809,0
2019-12-26,9.649999618530273,9.729999542236328,9.5600004196167,9.614999771118164,9.614999771118164,8200
2019-12-27,9.600000381469727,9.75,9.364999771118164,9.6899995803833,9.6899995803833,4800
2019-12-30,9.890000343322754,9.890000343322754,9.739999771118164,9.75,9.75,3200
2019-12-31,9.789999961853027,9.875,9.75,9.75,9.75,2500
2020-01-02,10.300000190734863,10.300000190734863,9.958999633789062,9.958999633789062,9.958999633789062,2900
2020-01-03,10.173999786376953,10.197999954223633,10.173999786376953,10.197999954223633,10.197999954223633,400
2020-01-06,9.769000053405762,10.227999687194824,9.75,10.227999687194824,10.227999687194824,1700
2020-01-07,9.9399995803833,9.970000267028809,9.9399995803833,9.946999549865723,9.946999549865723,1100
2020-01-08,9.90999984741211,10.013999938964844,9.899999618530273,10.013999938964844,10.013999938964844,1900
2020-01-09,10.109999656677246,10.109999656677246,9.975000381469727,10.0,10.0,1500
2020-01-10,10.104999542236328,10.17300033569336,10.100000381469727,10.100000381469727,10.100000381469727,1900
2020-01-13,10.529999732971191,10.583000183105469,10.529999732971191,10.583000183105469,10.583000183105469,1700
2020-01-14,10.75,10.770999908447266,10.699999809265137,10.75,10.75,2300
2020-01-15,10.789999961853027,10.800000190734863,10.789999961853027,10.789999961853027,10.789999961853027,146200
2020-01-16,11.25,11.729999542236328,11.25,11.720000267028809,11.720000267028809,21900
2020-01-17,11.710000038146973,11.949999809265137,11.699999809265137,11.710000038146973,11.710000038146973,12600
2020-01-21,11.8100004196167,12.449999809265137,11.8100004196167,12.220000267028809,12.220000267028809,13200
2020-01-22,12.420000076293945,12.529999732971191,12.286999702453613,12.3100004196167,12.3100004196167,8200
2020-01-23,11.359999656677246,11.86400032043457,11.359999656677246,11.86400032043457,11.86400032043457,2000
2020-01-24,11.967000007629395,12.1899995803833,11.967000007629395,12.130000114440918,12.130000114440918,4300
2020-01-27,11.600000381469727,11.819999694824219,11.369999885559082,11.680000305175781,11.680000305175781,5400
2020-01-28,11.210000038146973,11.600000381469727,11.210000038146973,11.220000267028809,11.220000267028809,26800
2020-01-29,11.229999542236328,11.229999542236328,11.229999542236328,11.229999542236328,11.229999542236328,200
2020-01-30,11.067000389099121,12.069999694824219,11.067000389099121,11.84000015258789,11.84000015258789,2500
2020-01-31,11.350000381469727,11.800000190734863,11.100000381469727,11.25,11.25,2300
2020-02-03,11.0,11.300000190734863,10.800000190734863,11.180000305175781,11.180000305175781,3700
2020-02-04,11.0,11.0,10.84000015258789,11.0,11.0,5600
2020-02-05,11.0,11.0,10.850000381469727,10.88599967956543,10.88599967956543,7900
2020-02-06,10.880000114440918,12.0,10.5,11.989999771118164,11.989999771118164,33900
2020-02-07,12.0,12.0,11.0,11.899999618530273,11.899999618530273,20100
2020-02-10,11.949999809265137,12.239999771118164,11.84000015258789,12.0,12.0,38000
2020-02-11,11.899999618530273,12.100000381469727,11.760000228881836,12.03499984741211,12.03499984741211,6300
2020-02-12,12.0,12.229999542236328,11.899999618530273,12.039999961853027,12.039999961853027,12800
2020-02-13,11.90999984741211,11.991000175476074,11.25,11.979999542236328,11.979999542236328,5500
2020-02-14,12.0,12.0,11.979999542236328,11.979999542236328,11.979999542236328,2000
2020-02-18,11.75,11.875,11.75,11.803999900817871,11.803999900817871,3700
2020-02-19,11.789999961853027,12.156999588012695,11.729999542236328,12.09000015258789,12.09000015258789,7800
2020-02-20,11.979999542236328,12.029999732971191,11.934000015258789,12.0,12.0,8200
2020-02-21,12.180000305175781,12.1899995803833,12.0,12.0,12.0,6700
2020-02-24,11.649999618530273,11.649999618530273,11.350000381469727,11.5,11.5,10000
2020-02-25,11.569999694824219,11.640000343322754,11.5,11.522000312805176,11.522000312805176,4600
2020-02-26,11.640000343322754,12.170000076293945,11.539999961853027,11.550000190734863,11.550000190734863,2600
2020-02-27,11.25,11.366999626159668,10.949999809265137,11.366999626159668,11.366999626159668,3900
2020-02-28,11.079999923706055,11.079999923706055,10.59000015258789,10.59000015258789,10.59000015258789,4300
2020-03-02,10.789999961853027,10.899999618530273,10.789999961853027,10.899999618530273,10.899999618530273,3100
2020-03-03,10.789999961853027,10.930000305175781,10.75,10.75,10.75,20600
2020-03-04,10.529999732971191,10.994999885559082,10.529999732971191,10.960000038146973,10.960000038146973,16200
2020-03-05,10.319999694824219,10.350000381469727,9.850000381469727,10.298999786376953,10.298999786376953,15700
2020-03-06,10.0,10.366999626159668,9.75,10.100000381469727,10.100000381469727,19500
2020-03-09,7.989999771118164,8.40999984741211,7.989999771118164,8.130000114440918,8.130000114440918,35800
2020-03-10,8.75,8.963000297546387,8.510000228881836,8.800000190734863,8.800000190734863,23600
2020-03-11,8.399999618530273,8.399999618530273,8.100000381469727,8.196000099182129,8.196000099182129,19900
2020-03-12,7.139999866485596,7.199999809265137,6.949999809265137,7.150000095367432,7.150000095367432,24000
2020-03-13,7.5,9.0,7.440000057220459,7.570000171661377,7.570000171661377,11500
2020-03-16,6.190000057220459,6.335999965667725,6.150000095367432,6.239999771118164,6.239999771118164,10000
2020-03-17,6.300000190734863,6.452000141143799,5.849999904632568,6.019999980926514,6.019999980926514,28500
2020-03-18,5.389999866485596,5.497000217437744,5.099999904632568,5.232999801635742,5.232999801635742,14500
2020-03-19,5.610000133514404,6.5,5.5,6.0,6.0,12400
2020-03-20,6.010000228881836,6.26800012588501,5.610000133514404,5.849999904632568,5.849999904632568,17600
2020-03-23,5.849999904632568,5.980000019073486,5.650000095367432,5.980000019073486,5.980000019073486,57800
2020-03-24,6.210000038146973,6.639999866485596,6.150000095367432,6.300000190734863,6.300000190734863,30200
2020-03-25,6.355999946594238,6.599999904632568,6.300000190734863,6.599999904632568,6.599999904632568,7400
2020-03-26,6.650000095367432,6.78000020980835,6.519999980926514,6.78000020980835,6.78000020980835,21100
2020-03-27,6.78000020980835,6.78000020980835,6.510000228881836,6.650000095367432,6.650000095367432,800
2020-03-30,6.78000020980835,6.980000019073486,6.78000020980835,6.980000019073486,6.980000019073486,28200
2020-03-31,7.159999847412109,7.940000057220459,7.159999847412109,7.940000057220459,7.940000057220459,8900
2020-04-01,7.5,7.5,7.25,7.300000190734863,7.300000190734863,36200
2020-04-02,7.210000038146973,7.480999946594238,7.179999828338623,7.480999946594238,7.480999946594238,8400
2020-04-03,7.849999904632568,7.849999904632568,7.368000030517578,7.400000095367432,7.400000095367432,1300
2020-04-06,7.449999809265137,7.557000160217285,7.359000205993652,7.557000160217285,7.557000160217285,5100
2020-04-07,7.929999828338623,7.929999828338623,7.484000205993652,7.53000020980835,7.53000020980835,5900
2020-04-08,7.900000095367432,7.900000095367432,7.599999904632568,7.599999904632568,7.599999904632568,1700
2020-04-09,7.880000114440918,8.125,7.880000114440918,8.125,8.125,2500
2020-04-13,8.229999542236328,8.229999542236328,8.050000190734863,8.050000190734863,8.050000190734863,700
2020-04-14,8.095000267028809,8.182000160217285,8.0,8.0,8.0,800
2020-04-15,7.599999904632568,8.0,7.599999904632568,8.0,8.0,400
2020-04-16,7.389999866485596,7.400000095367432,7.389999866485596,7.400000095367432,7.400000095367432,29600
2020-04-17,7.650000095367432,7.650000095367432,7.650000095367432,7.650000095367432,7.650000095367432,100
2020-04-20,7.650000095367432,7.650000095367432,7.650000095367432,7.650000095367432,7.650000095367432,500
2020-04-21,7.449999809265137,7.564000129699707,7.436999797821045,7.564000129699707,7.564000129699707,9300
2020-04-22,7.639999866485596,7.639999866485596,7.639999866485596,7.639999866485596,7.639999866485596,400
2020-04-23,7.480000019073486,7.900000095367432,7.480000019073486,7.900000095367432,7.900000095367432,34200
2020-04-24,7.699999809265137,7.800000190734863,7.699999809265137,7.800000190734863,7.800000190734863,1600
2020-04-27,8.050000190734863,8.1899995803833,7.915999889373779,8.0,8.0,21700
2020-04-28,8.25,8.444999694824219,8.25,8.350000381469727,8.350000381469727,2200
2020-04-29,8.5600004196167,8.59000015258789,8.380000114440918,8.470000267028809,8.470000267028809,2000
2020-04-30,8.529999732971191,8.550000190734863,8.109999656677246,8.550000190734863,8.550000190734863,5100
2020-05-01,8.550000190734863,8.550000190734863,8.550000190734863,8.550000190734863,8.550000190734863,0
2020-05-04,8.199999809265137,8.220000267028809,7.710000038146973,8.180000305175781,8.180000305175781,3800
2020-05-05,8.300000190734863,8.300000190734863,8.180000305175781,8.180000305175781,8.180000305175781,2300
2020-05-06,8.329999923706055,8.385000228881836,8.180000305175781,8.180000305175781,8.180000305175781,1200
2020-05-07,8.329999923706055,8.569999694824219,8.180000305175781,8.51099967956543,8.51099967956543,26500
2020-05-08,8.5,8.5,8.470000267028809,8.470000267028809,8.470000267028809,300
2020-05-11,8.460000038146973,8.460000038146973,8.460000038146973,8.460000038146973,8.460000038146973,400
2020-05-12,8.460000038146973,8.460000038146973,8.4399995803833,8.449999809265137,8.449999809265137,400
2020-05-13,8.229999542236328,8.229999542236328,8.229999542236328,8.229999542236328,8.229999542236328,300
2020-05-14,8.0,8.0,7.659999847412109,7.989999771118164,7.989999771118164,2000
2020-05-15,7.349999904632568,8.069999694824219,7.349999904632568,7.90500020980835,7.90500020980835,300
2020-05-18,8.10200023651123,8.25100040435791,7.789999961853027,8.25100040435791,8.25100040435791,1600
2020-05-19,8.270000457763672,8.300000190734863,8.239999771118164,8.272000312805176,8.272000312805176,1100
2020-05-20,8.239999771118164,8.5,8.239999771118164,8.239999771118164,8.239999771118164,700
2020-05-21,8.130999565124512,8.130999565124512,7.835999965667725,8.0,8.0,3500
2020-05-22,8.050000190734863,8.270000457763672,7.949999809265137,8.270000457763672,8.270000457763672,2900
2020-05-26,7.925000190734863,7.925000190734863,7.925000190734863,7.925000190734863,7.925000190734863,1300
2020-05-27,7.760000228881836,7.889999866485596,7.570000171661377,7.889999866485596,7.889999866485596,4200
2020-05-28,8.0,8.0,7.809999942779541,7.809999942779541,7.809999942779541,500
2020-05-29,7.800000190734863,7.800000190734863,7.800000190734863,7.800000190734863,7.800000190734863,500
2020-06-01,7.230000019073486,7.46999979019165,6.769999980926514,7.3520002365112305,7.3520002365112305,7100
2020-06-02,7.050000190734863,7.290999889373779,7.050000190734863,7.290999889373779,7.290999889373779,800
2020-06-03,6.78000020980835,7.015999794006348,6.755000114440918,6.789999961853027,6.789999961853027,6100
2020-06-04,6.769999980926514,6.989999771118164,6.690000057220459,6.800000190734863,6.800000190734863,2400
2020-06-05,6.78000020980835,7.460000038146973,6.78000020980835,6.900000095367432,6.900000095367432,2600
2020-06-08,6.900000095367432,7.159999847412109,6.769999980926514,7.019999980926514,7.019999980926514,13900
2020-06-09,7.079999923706055,7.317999839782715,7.070000171661377,7.301000118255615,7.301000118255615,2000
2020-06-10,7.300000190734863,7.400000095367432,7.300000190734863,7.400000095367432,7.400000095367432,1800
2020-06-11,7.119999885559082,7.119999885559082,6.801000118255615,6.809999942779541,6.809999942779541,4700
2020-06-12,6.900000095367432,7.320000171661377,6.889999866485596,7.320000171661377,7.320000171661377,2800
2020-06-15,6.829999923706055,6.951000213623047,6.820000171661377,6.951000213623047,6.951000213623047,2600
2020-06-16,6.909999847412109,6.920000076293945,6.909999847412109,6.920000076293945,6.920000076293945,1100
2020-06-17,7.070000171661377,7.070000171661377,6.869999885559082,6.869999885559082,6.869999885559082,1900
2020-06-18,6.699999809265137,6.699999809265137,6.380000114440918,6.460000038146973,6.460000038146973,9400
2020-06-19,6.489999771118164,6.53000020980835,6.323999881744385,6.360000133514404,6.360000133514404,6500
2020-06-22,6.159999847412109,6.260000228881836,6.010000228881836,6.199999809265137,6.199999809265137,10700
2020-06-23,6.139999866485596,6.75,6.052000045776367,6.249000072479248,6.249000072479248,12100
2020-06-24,6.389999866485596,6.429999828338623,6.019999980926514,6.1519999504089355,6.1519999504089355,19800
2020-06-25,6.059999942779541,6.170000076293945,6.019999980926514,6.039999961853027,6.039999961853027,4700
2020-06-26,6.164999961853027,6.25,6.02400016784668,6.059999942779541,6.059999942779541,5700
2020-06-29,6.019999980926514,6.019999980926514,5.809999942779541,5.889999866485596,5.889999866485596,9300
2020-06-30,5.9019999504089355,5.920000076293945,5.900000095367432,5.920000076293945,5.920000076293945,7400
2020-07-01,6.159999847412109,6.159999847412109,5.900000095367432,5.989999771118164,5.989999771118164,9600
2020-07-02,6.179999828338623,6.199999809265137,6.039999961853027,6.039999961853027,6.039999961853027,4500
2020-07-06,5.849999904632568,5.989999771118164,5.849999904632568,5.949999809265137,5.949999809265137,1700
2020-07-07,5.849999904632568,5.900000095367432,5.75,5.75,5.75,8700
2020-07-08,5.670000076293945,5.670000076293945,5.670000076293945,5.670000076293945,5.670000076293945,900
2020-07-09,5.679999828338623,5.71999979019165,5.519999980926514,5.519999980926514,5.519999980926514,4900
2020-07-10,5.590000152587891,5.710000038146973,5.550000190734863,5.550000190734863,5.550000190734863,9400
2020-07-13,5.710000038146973,5.909999847412109,5.579999923706055,5.730000019073486,5.730000019073486,8700
2020-07-14,5.739999771118164,5.900000095367432,5.739999771118164,5.900000095367432,5.900000095367432,1500
2020-07-15,5.900000095367432,5.900000095367432,5.765999794006348,5.820000171661377,5.820000171661377,2200
2020-07-16,5.75,5.920000076293945,5.659999847412109,5.789999961853027,5.789999961853027,4600
2020-07-17,5.789999961853027,5.929999828338623,5.769999980926514,5.769999980926514,5.769999980926514,900
2020-07-20,5.769999980926514,6.0,5.769999980926514,5.880000114440918,5.880000114440918,4400
2020-07-21,6.550000190734863,6.739999771118164,5.869999885559082,5.880000114440918,5.880000114440918,67700
2020-07-22,6.139999866485596,6.193999767303467,5.940000057220459,6.0,6.0,15500
2020-07-23,6.380000114440918,6.489999771118164,6.210000038146973,6.480000019073486,6.480000019073486,17800
2020-07-24,6.420000076293945,6.420000076293945,6.010000228881836,6.400000095367432,6.400000095367432,3800
2020-07-27,6.21999979019165,6.21999979019165,6.010000228881836,6.150000095367432,6.150000095367432,3200
2020-07-28,6.070000171661377,6.103000164031982,6.070000171661377,6.099999904632568,6.099999904632568,1400
2020-07-29,6.039999961853027,6.039999961853027,6.039999961853027,6.039999961853027,6.039999961853027,500
2020-07-30,6.0,6.0,5.900000095367432,5.909999847412109,5.909999847412109,1400
2020-07-31,5.960000038146973,5.960000038146973,5.900000095367432,5.952000141143799,5.952000141143799,1100
2020-08-03,6.25,6.25,5.960000038146973,6.179999828338623,6.179999828338623,8000
2020-08-04,6.039999961853027,6.125,6.039999961853027,6.090000152587891,6.090000152587891,1400
2020-08-05,6.0,6.190000057220459,6.0,6.079999923706055,6.079999923706055,1500
2020-08-06,6.079999923706055,6.4070000648498535,6.050000190734863,6.105000019073486,6.105000019073486,7700
2020-08-07,6.0,6.349999904632568,6.0,6.159999847412109,6.159999847412109,7700
2020-08-10,5.989999771118164,6.119999885559082,5.909999847412109,6.090000152587891,6.090000152587891,8000
2020-08-11,6.086999893188477,6.360000133514404,6.086999893188477,6.269999980926514,6.269999980926514,11600
2020-08-12,6.550000190734863,6.784999847412109,6.550000190734863,6.610000133514404,6.610000133514404,26500
2020-08-13,6.750999927520752,6.829999923706055,6.610000133514404,6.829999923706055,6.829999923706055,5300
2020-08-14,6.820000171661377,6.949999809265137,6.659999847412109,6.949999809265137,6.949999809265137,5900
2020-08-17,6.929999828338623,7.0,6.670000076293945,7.0,7.0,3500
2020-08-18,6.849999904632568,6.849999904632568,6.699999809265137,6.840000152587891,6.840000152587891,3500
2020-08-19,6.699999809265137,6.800000190734863,6.420000076293945,6.659999847412109,6.659999847412109,23300
2020-08-20,6.630000114440918,6.630000114440918,6.420000076293945,6.420000076293945,6.420000076293945,1000
2020-08-21,6.699999809265137,6.699999809265137,6.360000133514404,6.480000019073486,6.480000019073486,2100
2020-08-24,8.399999618530273,8.399999618530273,7.004000186920166,7.349999904632568,7.349999904632568,777400
2020-08-25,7.949999809265137,8.09000015258789,7.570000171661377,7.900000095367432,7.900000095367432,86000
2020-08-26,7.690000057220459,7.756999969482422,7.364999771118164,7.630000114440918,7.630000114440918,42800
2020-08-27,7.5,7.5,7.050000190734863,7.400000095367432,7.400000095367432,46400
2020-08-28,7.420000076293945,7.75,7.420000076293945,7.670000076293945,7.670000076293945,36900
2020-08-31,7.570000171661377,7.849999904632568,7.510000228881836,7.849999904632568,7.849999904632568,19200
2020-09-01,7.659999847412109,8.0,7.619999885559082,8.0,8.0,26100
2020-09-02,7.53000020980835,7.75,7.420000076293945,7.75,7.75,24400
2020-09-03,7.28000020980835,7.710000038146973,6.809999942779541,6.940000057220459,6.940000057220459,27500
2020-09-04,6.835999965667725,6.869999885559082,6.5,6.730000019073486,6.730000019073486,20700
2020-09-08,6.599999904632568,6.599999904632568,6.300000190734863,6.449999809265137,6.449999809265137,10000
2020-09-09,6.190000057220459,6.28000020980835,6.190000057220459,6.210000038146973,6.210000038146973,21900
2020-09-10,6.119999885559082,6.429999828338623,6.010000228881836,6.010000228881836,6.010000228881836,7300
2020-09-11,6.019999980926514,6.110000133514404,5.823999881744385,5.949999809265137,5.949999809265137,12600
2020-09-14,5.929999828338623,6.090000152587891,5.860000133514404,5.960000038146973,5.960000038146973,9300
2020-09-15,6.050000190734863,6.25,6.0,6.079999923706055,6.079999923706055,11000
2020-09-16,6.139999866485596,6.150000095367432,6.070000171661377,6.139999866485596,6.139999866485596,1600
2020-09-17,5.929999828338623,6.119999885559082,5.929999828338623,5.989999771118164,5.989999771118164,3200
2020-09-18,6.010000228881836,6.199999809265137,6.0,6.050000190734863,6.050000190734863,8000
2020-09-21,5.96999979019165,5.96999979019165,5.800000190734863,5.900000095367432,5.900000095367432,8000
2020-09-22,5.800000190734863,5.931000232696533,5.789999961853027,5.868000030517578,5.868000030517578,4700
2020-09-23,5.900000095367432,5.900000095367432,5.78000020980835,5.789999961853027,5.789999961853027,7200
2020-09-24,5.75,5.75,5.630000114440918,5.630000114440918,5.630000114440918,7800
2020-09-25,5.755000114440918,5.835000038146973,5.695000171661377,5.835000038146973,5.835000038146973,2900
2020-09-28,5.909999847412109,5.927000045776367,5.822999954223633,5.920000076293945,5.920000076293945,5400
2020-09-29,5.849999904632568,5.900000095367432,5.809999942779541,5.900000095367432,5.900000095367432,2700
2020-09-30,5.900000095367432,5.923999786376953,5.78000020980835,5.831999778747559,5.831999778747559,4300
2020-10-01,5.849999904632568,6.01200008392334,5.75,6.0,6.0,5300
2020-10-02,5.795000076293945,5.810999870300293,5.795000076293945,5.810999870300293,5.810999870300293,1300
2020-10-05,5.699999809265137,5.840000152587891,5.670000076293945,5.679999828338623,5.679999828338623,11500
2020-10-06,5.650000095367432,5.900000095367432,5.550000190734863,5.679999828338623,5.679999828338623,49800
2020-10-07,5.550000190734863,5.896999835968018,5.550000190734863,5.739999771118164,5.739999771118164,34400
2020-10-08,6.170000076293945,6.170000076293945,5.833000183105469,5.940000057220459,5.940000057220459,3400
2020-10-09,5.900000095367432,6.110000133514404,5.889999866485596,5.900000095367432,5.900000095367432,6900
2020-10-12,5.900000095367432,6.170000076293945,5.840000152587891,5.929999828338623,5.929999828338623,5900
2020-10-13,6.099999904632568,6.099999904632568,5.829999923706055,5.965000152587891,5.965000152587891,2800
2020-10-14,6.21999979019165,6.349999904632568,6.010000228881836,6.050000190734863,6.050000190734863,12600
2020-10-15,6.010000228881836,6.039999961853027,6.010000228881836,6.0329999923706055,6.0329999923706055,2400
2020-10-16,6.079999923706055,6.199999809265137,6.010000228881836,6.010000228881836,6.010000228881836,2500
2020-10-19,6.199999809265137,6.364999771118164,5.980000019073486,6.25,6.25,19000
2020-10-20,6.179999828338623,6.309999942779541,6.019999980926514,6.019999980926514,6.019999980926514,9700
2020-10-21,6.139999866485596,6.27400016784668,6.130000114440918,6.27400016784668,6.27400016784668,2900
2020-10-22,6.21999979019165,6.21999979019165,6.0,6.019999980926514,6.019999980926514,2400
2020-10-23,6.080999851226807,6.199999809265137,6.060999870300293,6.199999809265137,6.199999809265137,1600
2020-10-26,6.135000228881836,6.135000228881836,6.0,6.040999889373779,6.040999889373779,8200
2020-10-27,6.119999885559082,6.119999885559082,5.789999961853027,5.800000190734863,5.800000190734863,3400
2020-10-28,5.75,5.78000020980835,5.570000171661377,5.579999923706055,5.579999923706055,12100
2020-10-29,5.690000057220459,5.7220001220703125,5.579999923706055,5.7220001220703125,5.7220001220703125,8400
2020-10-30,6.179999828338623,6.179999828338623,5.550000190734863,5.589000225067139,5.589000225067139,4900
2020-11-02,5.690000057220459,5.880000114440918,5.675000190734863,5.860000133514404,5.860000133514404,4700
2020-11-03,5.809999942779541,5.809999942779541,5.670000076293945,5.670000076293945,5.670000076293945,3000
2020-11-04,5.840000152587891,5.925000190734863,5.800000190734863,5.800000190734863,5.800000190734863,3700
2020-11-05,5.940000057220459,5.940000057220459,5.820000171661377,5.84499979019165,5.84499979019165,800
2020-11-06,5.860000133514404,5.860000133514404,5.75,5.789999961853027,5.789999961853027,3800
2020-11-09,5.880000114440918,6.099999904632568,5.860000133514404,5.869999885559082,5.869999885559082,8600
2020-11-10,5.860000133514404,6.054999828338623,5.860000133514404,6.054999828338623,6.054999828338623,3100
2020-11-11,5.955999851226807,6.050000190734863,5.900000095367432,6.050000190734863,6.050000190734863,3600
2020-11-12,5.954999923706055,6.0,5.760000228881836,5.760000228881836,5.760000228881836,12000
2020-11-13,5.965000152587891,5.965000152587891,5.869999885559082,5.909999847412109,5.909999847412109,3800
2020-11-16,6.099999904632568,6.14900016784668,6.005000114440918,6.047999858856201,6.047999858856201,14900
2020-11-17,6.201000213623047,6.300000190734863,6.139999866485596,6.139999866485596,6.139999866485596,6000
2020-11-18,6.300000190734863,6.4629998207092285,6.210000038146973,6.329999923706055,6.329999923706055,22800
2020-11-19,6.46999979019165,6.46999979019165,6.210000038146973,6.260000228881836,6.260000228881836,8000
2020-11-20,6.25,6.420000076293945,6.039999961853027,6.059999942779541,6.059999942779541,18500
2020-11-23,6.309000015258789,6.389999866485596,6.239999771118164,6.340000152587891,6.340000152587891,18300
2020-11-24,6.360000133514404,6.409999847412109,6.239999771118164,6.300000190734863,6.300000190734863,23200
2020-11-25,6.340000152587891,6.360000133514404,6.329999923706055,6.349999904632568,6.349999904632568,1900
2020-11-27,6.510000228881836,6.710000038146973,6.372000217437744,6.449999809265137,6.449999809265137,34500
2020-11-30,6.420000076293945,6.5,6.380000114440918,6.46999979019165,6.46999979019165,13100
2020-12-01,6.429999828338623,6.630000114440918,6.429999828338623,6.480000019073486,6.480000019073486,18000
2020-12-02,6.409999847412109,6.480000019073486,6.320000171661377,6.460000038146973,6.460000038146973,11400
2020-12-03,6.418000221252441,6.449999809265137,6.070000171661377,6.199999809265137,6.199999809265137,5800
2020-12-04,6.289999961853027,6.480000019073486,6.25,6.354000091552734,6.354000091552734,13400
2020-12-07,6.480000019073486,6.480000019073486,6.179999828338623,6.289999961853027,6.289999961853027,5100
2020-12-08,6.409999847412109,6.429999828338623,6.203999996185303,6.21999979019165,6.21999979019165,11800
2020-12-09,6.440000057220459,6.440000057220459,6.230000019073486,6.230000019073486,6.230000019073486,33700
2020-12-10,6.309999942779541,6.349999904632568,6.150000095367432,6.150000095367432,6.150000095367432,13300
2020-12-11,6.070000171661377,6.289999961853027,6.070000171661377,6.150000095367432,6.150000095367432,7000
2020-12-14,6.340000152587891,6.340000152587891,6.210000038146973,6.21999979019165,6.21999979019165,18300
2020-12-15,6.2170000076293945,6.329999923706055,6.190000057220459,6.300000190734863,6.300000190734863,4900
2020-12-16,6.21999979019165,6.21999979019165,6.119999885559082,6.150000095367432,6.150000095367432,15800
2020-12-17,6.170000076293945,6.199999809265137,6.050000190734863,6.139999866485596,6.139999866485596,14300
2020-12-18,6.2129998207092285,6.2129998207092285,6.110000133514404,6.170000076293945,6.170000076293945,5500
2020-12-21,6.019999980926514,6.025000095367432,5.820000171661377,5.949999809265137,5.949999809265137,20300
2020-12-22,6.070000171661377,6.159999847412109,6.010000228881836,6.03000020980835,6.03000020980835,13600
2020-12-23,6.119999885559082,6.119999885559082,6.070000171661377,6.070000171661377,6.070000171661377,6600
2020-12-24,6.163000106811523,6.25,6.163000106811523,6.179999828338623,6.179999828338623,1600
2020-12-28,6.5,6.599999904632568,6.420000076293945,6.599999904632568,6.599999904632568,25100
2020-12-29,6.690000057220459,6.769999980926514,6.659999847412109,6.7170000076293945,6.7170000076293945,13300
2020-12-30,6.710000038146973,6.949999809265137,6.710000038146973,6.840000152587891,6.840000152587891,18800
