Date,Open,High,Low,Close,Adj Close,Volume
2019-05-02,46.0,72.94999694824219,45.0,65.75,65.75,23119000
2019-05-03,72.0,74.0,65.66000366210938,66.79000091552734,66.79000091552734,13139400
2019-05-06,62.72999954223633,74.83999633789062,62.5,74.79000091552734,74.79000091552734,8746200
2019-05-07,77.13999938964844,85.44999694824219,75.0,79.16999816894531,79.16999816894531,16532100
2019-05-08,83.61000061035156,85.37999725341797,70.78500366210938,72.25,72.25,14711800
2019-05-09,70.5,73.19999694824219,67.0999984741211,68.2699966430664,68.2699966430664,6284500
2019-05-10,69.08999633789062,69.33200073242188,61.599998474121094,66.22000122070312,66.22000122070312,4888000
2019-05-13,65.45999908447266,71.95999908447266,63.36000061035156,69.5,69.5,4784500
2019-05-14,72.4800033569336,80.75,71.12000274658203,79.68000030517578,79.68000030517578,7079600
2019-05-15,79.0,93.0,74.55000305175781,86.91999816894531,86.91999816894531,18356200
2019-05-16,90.0999984741211,96.78500366210938,89.51000213623047,92.91999816894531,92.91999816894531,13900300
2019-05-17,92.45999908447266,96.68000030517578,85.70999908447266,89.3499984741211,89.3499984741211,10724100
2019-05-20,88.9000015258789,90.95999908447266,83.12999725341797,86.08999633789062,86.08999633789062,5189700
2019-05-21,88.02999877929688,88.75,76.76000213623047,77.5,77.5,9065100
2019-05-22,77.37999725341797,81.73999786376953,77.0,77.62999725341797,77.62999725341797,3898400
2019-05-23,79.4000015258789,83.80000305175781,78.12300109863281,82.0999984741211,82.0999984741211,4331300
2019-05-24,83.91999816894531,85.5,79.51000213623047,79.66999816894531,79.66999816894531,2909500
2019-05-28,83.9800033569336,88.83000183105469,83.69999694824219,86.0,86.0,6604000
2019-05-29,90.05000305175781,97.6500015258789,87.31999969482422,97.5,97.5,8372000
2019-05-30,101.89700317382812,105.25,94.02999877929688,98.58999633789062,98.58999633789062,12359800
2019-05-31,100.0,104.55000305175781,97.26000213623047,104.12000274658203,104.12000274658203,7733900
2019-06-03,104.13999938964844,108.66999816894531,95.66200256347656,96.16000366210938,96.16000366210938,8027700
2019-06-04,101.25,103.5,97.81999969482422,103.41000366210938,103.41000366210938,5484900
2019-06-05,105.5,105.5,99.63999938964844,102.5999984741211,102.5999984741211,4283500
2019-06-06,102.0,102.25,98.8499984741211,99.5,99.5,6484000
2019-06-07,130.0,149.4600067138672,120.76000213623047,138.64999389648438,138.64999389648438,23916700
2019-06-10,155.6999969482422,186.42999267578125,147.0,168.10000610351562,168.10000610351562,24986000
2019-06-11,145.25,150.0,125.2300033569336,126.04000091552734,126.04000091552734,15516000
2019-06-12,133.99000549316406,150.4499969482422,131.56300354003906,141.97000122070312,141.97000122070312,16918600
2019-06-13,141.52000427246094,146.4499969482422,134.25,141.38999938964844,141.38999938964844,9474600
2019-06-14,142.00999450683594,157.89999389648438,141.8000030517578,151.47999572753906,151.47999572753906,14964600
2019-06-17,163.17999267578125,171.19000244140625,160.61099243164062,169.9600067138672,169.9600067138672,14626700
2019-06-18,200.0,201.8800048828125,160.6999969482422,169.88999938964844,169.88999938964844,23966900
2019-06-19,171.3699951171875,174.4499969482422,162.25,169.27999877929688,169.27999877929688,9452000
2019-06-20,173.0,174.0,163.3000030517578,165.1699981689453,165.1699981689453,6660500
2019-06-21,153.5399932861328,161.7899932861328,150.0,154.1300048828125,154.1300048828125,7474600
2019-06-24,151.8800048828125,152.6999969482422,138.0,140.99000549316406,140.99000549316406,6538500
2019-06-25,138.5,150.69000244140625,138.34300231933594,150.60000610351562,150.60000610351562,6632500
2019-06-26,160.10000610351562,162.25,153.02000427246094,160.47999572753906,160.47999572753906,6378600
2019-06-27,157.30999755859375,164.7899932861328,155.4499969482422,162.91000366210938,162.91000366210938,5731400
2019-06-28,165.3000030517578,168.8000030517578,159.5500030517578,160.67999267578125,160.67999267578125,7315300
2019-07-01,161.49000549316406,162.4499969482422,152.0,152.5800018310547,152.5800018310547,4438900
2019-07-02,153.0,153.6999969482422,147.02000427246094,149.7100067138672,149.7100067138672,3267500
2019-07-03,151.0,154.0,148.6999969482422,151.5,151.5,2261000
2019-07-05,150.0,153.7899932861328,148.05599975585938,152.6300048828125,152.6300048828125,2040300
2019-07-08,152.49000549316406,158.92999267578125,152.0,156.6699981689453,156.6699981689453,3615500
2019-07-09,158.72999572753906,159.58999633789062,154.50999450683594,157.82000732421875,157.82000732421875,2607700
2019-07-10,159.47999572753906,163.8800048828125,158.0,163.50999450683594,163.50999450683594,3982900
2019-07-11,165.0,174.24000549316406,163.5500030517578,174.1999969482422,174.1999969482422,5469500
2019-07-12,172.3699951171875,172.39999389648438,164.75,166.80999755859375,166.80999755859375,4659900
2019-07-15,168.16000366210938,170.6999969482422,166.0,166.52999877929688,166.52999877929688,2652900
2019-07-16,168.4499969482422,174.67300415039062,167.00999450683594,172.58999633789062,172.58999633789062,3969100
2019-07-17,173.0800018310547,173.42999267578125,168.1060028076172,169.63999938964844,169.63999938964844,2437300
2019-07-18,169.39999389648438,172.4499969482422,167.80999755859375,170.33999633789062,170.33999633789062,1692300
2019-07-19,172.0,178.5500030517578,170.77000427246094,176.7899932861328,176.7899932861328,4256200
2019-07-22,178.5,200.8000030517578,177.75999450683594,194.1999969482422,194.1999969482422,11395400
2019-07-23,199.60000610351562,208.47999572753906,191.77999877929688,195.47999572753906,195.47999572753906,10669200
2019-07-24,201.0,205.5,197.2100067138672,202.9199981689453,202.9199981689453,7168700
2019-07-25,207.0,222.88999938964844,205.4499969482422,222.86000061035156,222.86000061035156,10015800
2019-07-26,235.55999755859375,239.7100067138672,215.5,234.89999389648438,234.89999389648438,16531300
2019-07-29,228.89999389648438,233.8699951171875,201.0,222.1300048828125,222.1300048828125,16047000
2019-07-30,186.33999633789062,216.89999389648438,183.5,194.75999450683594,194.75999450683594,19060400
2019-07-31,195.75999450683594,207.0,193.5,196.50999450683594,196.50999450683594,11930600
2019-08-01,175.13999938964844,183.99000549316406,172.0,176.0399932861328,176.0399932861328,15083500
2019-08-02,177.60000610351562,181.91000366210938,175.0500030517578,177.11000061035156,177.11000061035156,5806900
2019-08-05,173.10000610351562,178.22999572753906,170.99000549316406,175.94000244140625,175.94000244140625,5665500
2019-08-06,180.10000610351562,181.75,160.6199951171875,161.24000549316406,161.24000549316406,8407700
2019-08-07,164.0,167.44500732421875,160.5500030517578,167.0,167.0,5858000
2019-08-08,168.57000732421875,168.67999267578125,158.0,162.6999969482422,162.6999969482422,5106000
2019-08-09,162.5399932861328,166.3000030517578,162.0500030517578,164.3699951171875,164.3699951171875,2756400
2019-08-12,164.52999877929688,172.1750030517578,162.5,169.11000061035156,169.11000061035156,3973800
2019-08-13,169.0,171.97999572753906,165.5800018310547,167.2899932861328,167.2899932861328,3048100
2019-08-14,165.75,166.7449951171875,161.05999755859375,162.89999389648438,162.89999389648438,2246600
2019-08-15,163.0,164.13999938964844,137.11000061035156,144.1999969482422,144.1999969482422,9600100
2019-08-16,144.2100067138672,148.5399932861328,136.27000427246094,144.77000427246094,144.77000427246094,5867000
2019-08-19,147.38999938964844,148.5,140.77000427246094,144.50999450683594,144.50999450683594,3840600
2019-08-20,155.0,158.1999969482422,151.52999877929688,153.97000122070312,153.97000122070312,7051800
2019-08-21,155.75,155.75,149.13400268554688,151.9499969482422,151.9499969482422,3659700
2019-08-22,151.0399932861328,152.2100067138672,146.10000610351562,150.99000549316406,150.99000549316406,2930200
2019-08-23,150.0,151.63999938964844,146.25999450683594,146.85000610351562,146.85000610351562,2214300
2019-08-26,153.8000030517578,155.39999389648438,150.3000030517578,155.1300048828125,155.1300048828125,3650400
2019-08-27,159.27999877929688,161.4250030517578,155.3000030517578,157.02000427246094,157.02000427246094,4423400
2019-08-28,158.27999877929688,162.5,155.39999389648438,160.30999755859375,160.30999755859375,3708100
2019-08-29,161.75,166.72000122070312,159.0,165.47999572753906,165.47999572753906,3764700
2019-08-30,168.6699981689453,172.2899932861328,166.6999969482422,167.6300048828125,167.6300048828125,4145800
2019-09-03,167.6300048828125,169.30999755859375,162.2100067138672,163.14999389648438,163.14999389648438,2425400
2019-09-04,165.36000061035156,165.5,161.6439971923828,163.67999267578125,163.67999267578125,2143100
2019-09-05,162.0500030517578,167.14999389648438,160.52000427246094,160.97000122070312,160.97000122070312,2281600
2019-09-06,155.83999633789062,157.625,151.67999267578125,154.99000549316406,154.99000549316406,3560600
2019-09-09,153.13999938964844,153.92599487304688,147.25399780273438,149.52999877929688,149.52999877929688,3097900
2019-09-10,147.0,147.5,142.97999572753906,146.89999389648438,146.89999389648438,1885600
2019-09-11,147.22999572753906,152.8000030517578,147.00999450683594,151.80999755859375,151.80999755859375,1869500
2019-09-12,151.60000610351562,154.41000366210938,149.13999938964844,152.9600067138672,152.9600067138672,1520100
2019-09-13,155.2899932861328,156.92999267578125,153.57699584960938,155.97999572753906,155.97999572753906,1810300
2019-09-16,155.83999633789062,159.85000610351562,154.5500030517578,158.97000122070312,158.97000122070312,1766800
2019-09-17,160.0,161.49000549316406,158.89999389648438,160.30999755859375,160.30999755859375,1558800
2019-09-18,160.00999450683594,160.49000549316406,149.0,153.99000549316406,153.99000549316406,3033300
2019-09-19,156.83999633789062,157.10000610351562,152.5,154.9199981689453,154.9199981689453,1570900
2019-09-20,154.97000122070312,156.55999755859375,153.44000244140625,155.25999450683594,155.25999450683594,1293800
2019-09-23,152.66000366210938,154.27000427246094,146.2899932861328,148.22000122070312,148.22000122070312,2396600
2019-09-24,146.74000549316406,147.0,139.07000732421875,142.99000549316406,142.99000549316406,2316900
2019-09-25,139.3000030517578,142.89999389648438,133.0800018310547,138.32000732421875,138.32000732421875,2531600
2019-09-26,160.50999450683594,160.60000610351562,148.60000610351562,154.33999633789062,154.33999633789062,8074700
2019-09-27,151.0,153.80999755859375,148.89999389648438,151.66000366210938,151.66000366210938,1989400
2019-09-30,150.69000244140625,151.0,145.67999267578125,148.6199951171875,148.6199951171875,1667100
2019-10-01,148.64999389648438,149.39999389648438,143.6999969482422,146.4199981689453,146.4199981689453,1491200
2019-10-02,144.9600067138672,145.25,141.10000610351562,143.3000030517578,143.3000030517578,1542300
2019-10-03,142.05999755859375,146.9250030517578,141.32000732421875,145.44000244140625,145.44000244140625,1160600
2019-10-04,146.05999755859375,147.1699981689453,144.27000427246094,145.72000122070312,145.72000122070312,1373500
2019-10-07,144.5,145.1699981689453,142.02999877929688,145.05999755859375,145.05999755859375,1319900
2019-10-08,143.0,143.94000244140625,140.17999267578125,142.72999572753906,142.72999572753906,1123400
2019-10-09,143.25999450683594,143.70199584960938,137.55999755859375,139.35000610351562,139.35000610351562,1477600
2019-10-10,138.5,138.9499969482422,134.91000366210938,136.0,136.0,1735600
2019-10-11,136.00999450683594,136.85000610351562,130.63999938964844,131.38999938964844,131.38999938964844,2441000
2019-10-14,128.4499969482422,128.4600067138672,124.62999725341797,126.30999755859375,126.30999755859375,2126900
2019-10-15,124.2699966430664,125.4000015258789,120.52999877929688,122.05000305175781,122.05000305175781,2635900
2019-10-16,122.0,126.48999786376953,121.7770004272461,123.91999816894531,123.91999816894531,1961900
2019-10-17,123.98999786376953,124.58000183105469,116.86000061035156,117.3499984741211,117.3499984741211,2838700
2019-10-18,115.0,115.38999938964844,107.91000366210938,109.98999786376953,109.98999786376953,3818800
2019-10-21,113.5999984741211,113.60900115966797,106.01000213623047,110.12999725341797,110.12999725341797,3585700
2019-10-22,110.0,112.87999725341797,105.55000305175781,106.4000015258789,106.4000015258789,2318200
2019-10-23,102.69999694824219,105.66999816894531,97.25,97.9000015258789,97.9000015258789,4719000
2019-10-24,96.5,103.7699966430664,96.1500015258789,101.69999694824219,101.69999694824219,4696000
2019-10-25,101.7699966430664,102.0,97.73899841308594,100.80999755859375,100.80999755859375,3302200
2019-10-28,101.0,108.16999816894531,97.8499984741211,105.41000366210938,105.41000366210938,8359600
2019-10-29,82.95999908447266,88.87999725341797,80.0999984741211,81.98999786376953,81.98999786376953,32782100
2019-10-30,84.3499984741211,90.0,83.0,88.88999938964844,88.88999938964844,14613800
2019-10-31,90.44000244140625,90.44000244140625,83.62999725341797,84.44999694824219,84.44999694824219,7036300
2019-11-01,84.37000274658203,85.29000091552734,81.83000183105469,82.0,82.0,5197900
2019-11-04,83.4000015258789,83.44000244140625,79.62999725341797,79.79000091552734,79.79000091552734,4697200
2019-11-05,83.25,84.97000122070312,81.38999938964844,81.44999694824219,81.44999694824219,8328100
2019-11-06,82.04000091552734,83.51000213623047,80.5,80.7300033569336,80.7300033569336,3654600
2019-11-07,81.0999984741211,81.19000244140625,77.22000122070312,78.98999786376953,78.98999786376953,6162300
2019-11-08,79.25,80.79000091552734,78.66999816894531,79.94999694824219,79.94999694824219,2816100
2019-11-11,79.87999725341797,79.96499633789062,75.64700317382812,76.79000091552734,76.79000091552734,4998700
2019-11-12,76.75,79.47000122070312,73.8499984741211,78.2699966430664,78.2699966430664,6289400
2019-11-13,78.0,80.18000030517578,77.0,79.01499938964844,79.01499938964844,3886400
2019-11-14,81.33999633789062,83.37999725341797,79.63999938964844,80.43000030517578,80.43000030517578,5525400
2019-11-15,81.04000091552734,83.13999938964844,79.05999755859375,80.80999755859375,80.80999755859375,4057800
2019-11-18,81.22000122070312,81.22000122070312,78.55000305175781,79.72000122070312,79.72000122070312,2931700
2019-11-19,79.75,80.0,76.55000305175781,77.3499984741211,77.3499984741211,2948000
2019-11-20,76.88999938964844,78.56999969482422,76.2300033569336,78.12000274658203,78.12000274658203,2196300
2019-11-21,78.30000305175781,80.17500305175781,77.18000030517578,78.62000274658203,78.62000274658203,2630600
2019-11-22,78.55000305175781,78.9000015258789,76.55000305175781,77.33999633789062,77.33999633789062,2343000
2019-11-25,78.04000091552734,78.80000305175781,76.05000305175781,77.27999877929688,77.27999877929688,3920700
2019-11-26,77.5199966430664,79.7300033569336,76.69999694824219,79.43000030517578,79.43000030517578,3298600
2019-11-27,79.95999908447266,83.6510009765625,79.75,81.66000366210938,81.66000366210938,5099900
2019-11-29,82.08000183105469,84.9000015258789,81.83000183105469,82.95999908447266,82.95999908447266,3694700
2019-12-02,83.30000305175781,83.64399719238281,77.02999877929688,79.2699966430664,79.2699966430664,5973100
2019-12-03,77.51000213623047,77.68000030517578,75.4000015258789,76.16000366210938,76.16000366210938,5244700
2019-12-04,76.75,77.05000305175781,73.51000213623047,73.88999938964844,73.88999938964844,5165700
2019-12-05,73.58999633789062,76.02999877929688,71.3010025024414,73.66000366210938,73.66000366210938,5681400
2019-12-06,74.0,76.30000305175781,73.25,76.22000122070312,76.22000122070312,3563100
2019-12-09,76.16000366210938,76.27400207519531,73.62999725341797,74.05000305175781,74.05000305175781,3014000
2019-12-10,73.44999694824219,75.08000183105469,73.4000015258789,74.6500015258789,74.6500015258789,2453000
2019-12-11,74.79000091552734,76.94999694824219,74.45999908447266,75.9000015258789,75.9000015258789,3321100
2019-12-12,75.91000366210938,76.87999725341797,74.2699966430664,75.2300033569336,75.2300033569336,2606500
2019-12-13,75.36000061035156,76.38999938964844,74.8499984741211,75.0199966430664,75.0199966430664,1771800
2019-12-16,75.0,75.01000213623047,71.64600372314453,73.5999984741211,73.5999984741211,4872400
2019-12-17,73.16999816894531,77.20999908447266,73.16999816894531,76.33000183105469,76.33000183105469,4608400
2019-12-18,76.55000305175781,77.87999725341797,75.44000244140625,77.30000305175781,77.30000305175781,3738500
2019-12-19,77.79000091552734,80.0199966430664,76.81999969482422,77.36000061035156,77.36000061035156,4775100
2019-12-20,76.87999725341797,77.0,75.06999969482422,76.83999633789062,76.83999633789062,5968100
2019-12-23,76.87999725341797,78.45999908447266,76.62999725341797,77.73999786376953,77.73999786376953,2860900
2019-12-24,78.0199966430664,79.27999877929688,76.93900299072266,77.7300033569336,77.7300033569336,2016400
2019-12-26,78.25,78.5790023803711,76.05000305175781,76.4000015258789,76.4000015258789,2957200
2019-12-27,76.7300033569336,77.41999816894531,75.13999938964844,75.63999938964844,75.63999938964844,2733200
2019-12-30,75.76000213623047,75.94999694824219,73.5999984741211,74.1500015258789,74.1500015258789,2548100
2019-12-31,73.55000305175781,75.7300033569336,73.22000122070312,75.5999984741211,75.5999984741211,2002000
2020-01-02,76.2300033569336,77.19999694824219,75.26000213623047,75.63999938964844,75.63999938964844,2221700
2020-01-03,75.12000274658203,76.19999694824219,74.31400299072266,75.41000366210938,75.41000366210938,1628700
2020-01-06,74.97000122070312,75.75,73.83000183105469,74.58999633789062,74.58999633789062,2324700
2020-01-07,75.0,84.87999725341797,75.0,83.88999938964844,83.88999938964844,12044600
2020-01-08,86.0,88.2699966430664,81.16000366210938,81.4800033569336,81.4800033569336,18216000
2020-01-09,82.9800033569336,90.39900207519531,81.3499984741211,90.25,90.25,17066000
2020-01-10,91.8239974975586,97.9000015258789,90.25,96.06999969482422,96.06999969482422,22552600
2020-01-13,99.70999908447266,115.5,98.80000305175781,114.33999633789062,114.33999633789062,29486000
2020-01-14,124.7300033569336,135.22999572753906,114.27999877929688,117.05000305175781,117.05000305175781,50610900
2020-01-15,110.79000091552734,115.25,106.11000061035156,107.08000183105469,107.08000183105469,23035000
2020-01-16,111.2699966430664,114.4000015258789,107.25,110.4000015258789,110.4000015258789,15019400
2020-01-17,110.83999633789062,113.11000061035156,107.43000030517578,109.12000274658203,109.12000274658203,10445500
2020-01-21,113.0,129.5500030517578,111.12000274658203,129.17999267578125,129.17999267578125,29424000
2020-01-22,126.93000030517578,134.6999969482422,119.01000213623047,122.4000015258789,122.4000015258789,25189100
2020-01-23,119.75,120.98999786376953,112.87999725341797,118.63999938964844,118.63999938964844,12073800
2020-01-24,123.80999755859375,126.73999786376953,116.41999816894531,119.48999786376953,119.48999786376953,13241500
2020-01-27,119.80000305175781,129.8300018310547,119.5999984741211,124.75,124.75,18454200
2020-01-28,124.43000030517578,127.88500213623047,117.26000213623047,120.12000274658203,120.12000274658203,12237600
2020-01-29,123.73999786376953,123.80000305175781,113.62999725341797,114.87999725341797,114.87999725341797,12994900
2020-01-30,115.4000015258789,118.47000122070312,114.48999786376953,117.29000091552734,117.29000091552734,6708400
2020-01-31,117.43000030517578,118.1500015258789,108.02999877929688,110.41999816894531,110.41999816894531,8055200
2020-02-03,111.80999755859375,112.69999694824219,102.43000030517578,106.0,106.0,11075700
2020-02-04,106.7699966430664,114.1500015258789,106.5,110.43000030517578,110.43000030517578,8532900
2020-02-05,113.5,113.98999786376953,108.95999908447266,110.16999816894531,110.16999816894531,5428400
2020-02-06,111.99700164794922,113.00499725341797,109.55000305175781,111.88999938964844,111.88999938964844,4170400
2020-02-07,111.9800033569336,120.5199966430664,111.30000305175781,116.44000244140625,116.44000244140625,12762200
2020-02-10,118.48999786376953,122.5,116.0999984741211,119.7300033569336,119.7300033569336,10574200
2020-02-11,120.45999908447266,123.0999984741211,116.0999984741211,117.13999938964844,117.13999938964844,7971100
2020-02-12,117.27999877929688,119.5,113.7699966430664,114.7300033569336,114.7300033569336,6242500
2020-02-13,114.79000091552734,117.0,111.0,112.01000213623047,112.01000213623047,7911200
2020-02-14,113.0,117.47000122070312,112.30999755859375,116.22000122070312,116.22000122070312,6969200
2020-02-18,118.0,123.69999694824219,117.5770034790039,122.02999877929688,122.02999877929688,8647400
2020-02-19,124.06999969482422,129.0,122.0999984741211,126.0999984741211,126.0999984741211,8705700
2020-02-20,126.08000183105469,126.0999984741211,115.13999938964844,120.58000183105469,120.58000183105469,8376500
2020-02-21,120.62000274658203,122.0,116.02999877929688,117.44999694824219,117.44999694824219,5571200
2020-02-24,110.0,114.80000305175781,109.05000305175781,113.95999908447266,113.95999908447266,5926500
2020-02-25,115.12000274658203,116.80000305175781,108.13999938964844,109.91999816894531,109.91999816894531,5461200
2020-02-26,115.33000183105469,118.19999694824219,111.55000305175781,112.51000213623047,112.51000213623047,7231900
2020-02-27,110.33999633789062,111.5,103.5,106.13999938964844,106.13999938964844,7833600
2020-02-28,88.0,91.7699966430664,85.0,89.6500015258789,89.6500015258789,13209600
2020-03-02,95.0,96.80000305175781,90.30000305175781,96.0999984741211,96.0999984741211,7240500
2020-03-03,101.5999984741211,101.66899871826172,94.62999725341797,95.43000030517578,95.43000030517578,9611900
2020-03-04,99.0199966430664,101.93000030517578,97.69999694824219,101.88999938964844,101.88999938964844,6576800
2020-03-05,99.23999786376953,100.25,95.06999969482422,95.87000274658203,95.87000274658203,4337400
2020-03-06,92.9000015258789,96.44000244140625,91.5999984741211,96.08999633789062,96.08999633789062,4210300
2020-03-09,85.5,91.6500015258789,82.22000122070312,87.95999908447266,87.95999908447266,5221200
2020-03-10,92.05000305175781,92.88999938964844,85.61000061035156,90.9800033569336,90.9800033569336,4388300
2020-03-11,87.87000274658203,89.5199966430664,81.32599639892578,82.63999938964844,82.63999938964844,4175500
2020-03-12,72.5,76.11000061035156,68.8499984741211,74.0,74.0,7099000
2020-03-13,76.01000213623047,79.4469985961914,68.61000061035156,73.05999755859375,73.05999755859375,5494000
2020-03-16,63.81999969482422,66.19000244140625,60.13999938964844,61.54999923706055,61.54999923706055,5988700
2020-03-17,61.560001373291016,65.88999938964844,57.7599983215332,60.31999969482422,60.31999969482422,5631500
2020-03-18,56.150001525878906,58.30799865722656,51.0,54.02000045776367,54.02000045776367,4744600
2020-03-19,52.04999923706055,58.79999923706055,48.18000030517578,57.33000183105469,57.33000183105469,5759800
2020-03-20,59.61000061035156,63.47800064086914,54.150001525878906,57.9900016784668,57.9900016784668,5121500
2020-03-23,57.5099983215332,60.869998931884766,55.11000061035156,57.54999923706055,57.54999923706055,3675500
2020-03-24,62.349998474121094,69.75,62.0,67.43000030517578,67.43000030517578,5678800
2020-03-25,73.12999725341797,78.5999984741211,70.56400299072266,73.0,73.0,6706100
2020-03-26,69.5,72.95999908447266,66.41999816894531,71.0999984741211,71.0999984741211,7950000
2020-03-27,68.16999816894531,68.21499633789062,64.22000122070312,66.12000274658203,66.12000274658203,4075700
2020-03-30,67.0,68.5,63.81999969482422,66.08999633789062,66.08999633789062,3106700
2020-03-31,67.19999694824219,69.0,65.33999633789062,66.5999984741211,66.5999984741211,2564600
2020-04-01,64.19999694824219,65.68000030517578,63.189998626708984,64.18000030517578,64.18000030517578,2368500
2020-04-02,63.86000061035156,63.970001220703125,57.0,57.95000076293945,57.95000076293945,4847400
2020-04-03,59.0099983215332,60.849998474121094,57.119998931884766,59.90999984741211,59.90999984741211,3221600
2020-04-06,62.75,66.66000366210938,62.04999923706055,65.91999816894531,65.91999816894531,3839100
2020-04-07,70.01000213623047,71.80000305175781,65.29399871826172,67.43000030517578,67.43000030517578,4450300
2020-04-08,68.3499984741211,71.4000015258789,67.38999938964844,69.47000122070312,69.47000122070312,2387000
2020-04-09,71.68000030517578,74.72000122070312,70.5999984741211,72.30000305175781,72.30000305175781,3338300
2020-04-13,73.01000213623047,77.16000366210938,71.2300033569336,76.66999816894531,76.66999816894531,3299200
2020-04-14,79.98999786376953,82.62999725341797,77.19999694824219,78.05000305175781,78.05000305175781,4982600
2020-04-15,76.70999908447266,77.0,72.62000274658203,74.69999694824219,74.69999694824219,2968500
2020-04-16,75.41999816894531,76.06999969482422,72.9000015258789,74.81999969482422,74.81999969482422,2040500
2020-04-17,77.77999877929688,78.0,75.33000183105469,76.91000366210938,76.91000366210938,2131100
2020-04-20,76.23999786376953,83.62000274658203,76.0,79.12000274658203,79.12000274658203,4607000
2020-04-21,87.51000213623047,92.0,82.10299682617188,84.95999908447266,84.95999908447266,13184900
2020-04-22,87.0,90.38999938964844,85.13999938964844,88.45999908447266,88.45999908447266,6116900
2020-04-23,89.87000274658203,101.55999755859375,89.29499816894531,99.77999877929688,99.77999877929688,11319900
2020-04-24,105.0,113.4800033569336,103.0,108.77999877929688,108.77999877929688,21184600
2020-04-27,111.91999816894531,116.63999938964844,97.5,99.62999725341797,99.62999725341797,20131500
2020-04-28,101.97000122070312,104.4800033569336,97.25,99.5199966430664,99.5199966430664,7076500
2020-04-29,100.55999755859375,103.0,97.91999816894531,100.0999984741211,100.0999984741211,4531300
2020-04-30,98.19000244140625,107.0,96.12999725341797,98.98999786376953,98.98999786376953,6718800
2020-05-01,94.4000015258789,98.72000122070312,89.9000015258789,91.52999877929688,91.52999877929688,6558400
2020-05-04,89.0,95.47100067138672,88.51000213623047,95.16000366210938,95.16000366210938,4267800
2020-05-05,100.5,102.5,96.66300201416016,100.16000366210938,100.16000366210938,11915200
2020-05-06,110.26000213623047,126.5,110.0,126.20999908447266,126.20999908447266,38572400
2020-05-07,126.72000122070312,127.83999633789062,117.12000274658203,122.66000366210938,122.66000366210938,22971000
2020-05-08,123.47000122070312,136.0,119.10099792480469,133.50999450683594,133.50999450683594,22483300
2020-05-11,129.50999450683594,139.2899932861328,129.0,130.82000732421875,130.82000732421875,15832000
2020-05-12,133.97000122070312,145.5,131.88999938964844,136.92999267578125,136.92999267578125,21441900
2020-05-13,140.5800018310547,147.5500030517578,127.20999908447266,134.50999450683594,134.50999450683594,22508200
2020-05-14,133.49000549316406,141.0,131.2100067138672,135.41000366210938,135.41000366210938,12681800
2020-05-15,134.97999572753906,140.1999969482422,132.6300048828125,134.16000366210938,134.16000366210938,8232900
2020-05-18,137.49000549316406,137.9499969482422,128.80999755859375,130.02999877929688,130.02999877929688,8007300
2020-05-19,132.72999572753906,142.0,132.6699981689453,136.1999969482422,136.1999969482422,13729700
2020-05-20,142.07000732421875,144.9199981689453,137.0399932861328,140.5,140.5,9777900
2020-05-21,141.02999877929688,141.9149932861328,134.4499969482422,138.11000061035156,138.11000061035156,5531800
2020-05-22,137.25999450683594,139.3800048828125,135.07000732421875,136.8000030517578,136.8000030517578,3318600
2020-05-26,139.8300018310547,139.8800048828125,131.5,132.8699951171875,132.8699951171875,4639100
2020-05-27,130.7100067138672,131.97999572753906,116.0,123.1500015258789,123.1500015258789,10083700
2020-05-28,121.55000305175781,126.5989990234375,120.0,120.81999969482422,120.81999969482422,4995800
2020-05-29,122.1500015258789,129.0,121.5,128.2899932861328,128.2899932861328,7669700
2020-06-01,134.30999755859375,139.1999969482422,133.27999877929688,138.69000244140625,138.69000244140625,11557800
2020-06-02,136.1300048828125,136.75,132.13999938964844,135.19000244140625,135.19000244140625,6732900
2020-06-03,135.0,138.4499969482422,133.22000122070312,134.22999572753906,134.22999572753906,4649000
2020-06-04,133.86000061035156,142.2100067138672,133.16000366210938,136.44000244140625,136.44000244140625,7779600
2020-06-05,136.0500030517578,137.88999938964844,132.77000427246094,133.52999877929688,133.52999877929688,4612000
2020-06-08,137.02000427246094,163.22000122070312,135.75,162.4600067138672,162.4600067138672,20318900
2020-06-09,156.7100067138672,161.5399932861328,148.55999755859375,153.9499969482422,153.9499969482422,13834100
2020-06-10,155.0,163.0800018310547,153.64999389648438,156.16000366210938,156.16000366210938,8852300
2020-06-11,147.2100067138672,155.24000549316406,140.25,143.50999450683594,143.50999450683594,9487200
2020-06-12,151.3300018310547,151.9409942626953,141.64999389648438,144.74000549316406,144.74000549316406,5705000
2020-06-15,142.60000610351562,154.39999389648438,141.00999450683594,154.0,154.0,6470500
2020-06-16,156.5,157.35000610351562,147.54100036621094,151.94000244140625,151.94000244140625,4797600
2020-06-17,155.97999572753906,167.16000366210938,154.3699951171875,156.33999633789062,156.33999633789062,16144400
2020-06-18,157.25999450683594,160.97000122070312,154.8800048828125,158.1999969482422,158.1999969482422,6264300
2020-06-19,160.1999969482422,165.4600067138672,156.8699951171875,158.27999877929688,158.27999877929688,7732100
2020-06-22,161.38999938964844,164.9600067138672,158.60000610351562,159.6300048828125,159.6300048828125,5035000
2020-06-23,159.4199981689453,160.13699340820312,151.55999755859375,152.7899932861328,152.7899932861328,7571100
2020-06-24,150.093994140625,156.5800018310547,148.5,151.3800048828125,151.3800048828125,5063400
2020-06-25,149.0,151.75,136.0,145.35000610351562,145.35000610351562,13608800
2020-06-26,143.77999877929688,146.0,140.25,141.67999267578125,141.67999267578125,4284400
2020-06-29,133.64999389648438,134.2100067138672,125.0,131.5500030517578,131.5500030517578,10411300
2020-06-30,132.7899932861328,136.6060028076172,130.5500030517578,133.97999572753906,133.97999572753906,4915800
2020-07-01,146.6699981689453,151.52999877929688,138.77000427246094,141.63999938964844,141.63999938964844,14713400
2020-07-02,146.66000366210938,146.9499969482422,140.3000030517578,140.72000122070312,140.72000122070312,4938800
2020-07-06,143.0,144.72000122070312,140.14999389648438,143.0,143.0,4625900
2020-07-07,142.58999633789062,146.4499969482422,138.5,143.11000061035156,143.11000061035156,4844600
2020-07-08,143.41000366210938,145.9499969482422,140.75,144.97999572753906,144.97999572753906,3049100
2020-07-09,145.0,145.5,136.5,141.22000122070312,141.22000122070312,4505200
2020-07-10,135.2100067138672,136.64999389648438,130.75,135.02999877929688,135.02999877929688,5998300
2020-07-13,135.10000610351562,136.1699981689453,125.87999725341797,125.9800033569336,125.9800033569336,6980900
2020-07-14,126.01000213623047,129.99000549316406,125.2699966430664,127.77999877929688,127.77999877929688,3448100
2020-07-15,129.1199951171875,135.66000366210938,126.87000274658203,131.75,131.75,6835800
2020-07-16,129.58999633789062,133.60000610351562,126.45700073242188,128.4499969482422,128.4499969482422,5508600
2020-07-17,128.6699981689453,129.74000549316406,126.5999984741211,128.27000427246094,128.27000427246094,2693400
2020-07-20,128.30999755859375,129.1280059814453,126.51000213623047,128.5,128.5,2487300
2020-07-21,129.83999633789062,135.9199981689453,128.75,129.9199981689453,129.9199981689453,5012900
2020-07-22,130.14999389648438,133.07000732421875,128.6999969482422,130.57000732421875,130.57000732421875,2716700
2020-07-23,130.0800018310547,132.8000030517578,124.56099700927734,127.1500015258789,127.1500015258789,3561600
2020-07-24,124.01499938964844,126.4000015258789,120.31999969482422,125.08999633789062,125.08999633789062,2700900
2020-07-27,125.25,126.77999877929688,122.25,126.72000122070312,126.72000122070312,2912200
2020-07-28,124.94999694824219,129.5780029296875,124.94999694824219,125.43000030517578,125.43000030517578,2062400
2020-07-29,126.5,128.33999633789062,125.20999908447266,126.68000030517578,126.68000030517578,2110900
2020-07-30,126.13999938964844,127.13999938964844,122.11000061035156,123.31999969482422,123.31999969482422,2667600
2020-07-31,124.08999633789062,125.9000015258789,122.41000366210938,125.9000015258789,125.9000015258789,2957100
2020-08-03,128.64999389648438,134.39999389648438,127.1500015258789,134.32000732421875,134.32000732421875,5635000
2020-08-04,138.66700744628906,142.50999450683594,134.16000366210938,142.25,142.25,10277600
2020-08-05,130.13999938964844,138.38999938964844,130.0,132.69000244140625,132.69000244140625,10536600
2020-08-06,133.52999877929688,136.22999572753906,131.57000732421875,132.5800018310547,132.5800018310547,3954000
2020-08-07,132.3300018310547,135.97999572753906,130.5,131.50999450683594,131.50999450683594,3478600
2020-08-10,132.1999969482422,132.5679931640625,124.66000366210938,127.43000030517578,127.43000030517578,3538900
2020-08-11,127.37999725341797,128.57000732421875,124.4000015258789,125.5,125.5,2602900
2020-08-12,126.27999877929688,126.7699966430664,123.08999633789062,123.83000183105469,123.83000183105469,3601600
2020-08-13,124.83000183105469,127.44999694824219,124.5,126.98999786376953,126.98999786376953,2528200
2020-08-14,127.05000305175781,127.3499984741211,124.6500015258789,125.04000091552734,125.04000091552734,1426100
2020-08-17,125.55999755859375,126.75,123.95999908447266,125.5,125.5,1708400
2020-08-18,125.1500015258789,126.63999938964844,122.66999816894531,124.30999755859375,124.30999755859375,2111200
2020-08-19,124.30999755859375,126.73999786376953,121.35399627685547,125.3499984741211,125.3499984741211,3013500
2020-08-20,124.58000183105469,129.63999938964844,123.2699966430664,127.91999816894531,127.91999816894531,2546500
2020-08-21,127.12999725341797,128.6699981689453,125.30000305175781,126.0,126.0,1791800
2020-08-24,126.23999786376953,127.4000015258789,123.75,124.51000213623047,124.51000213623047,1915100
2020-08-25,125.0,125.83000183105469,123.01300048828125,124.51000213623047,124.51000213623047,1930200
2020-08-26,124.4000015258789,126.13200378417969,123.36000061035156,125.5199966430664,125.5199966430664,2258400
2020-08-27,129.5,138.5,128.77999877929688,132.14999389648438,132.14999389648438,10979500
2020-08-28,132.27999877929688,134.64199829101562,129.58999633789062,131.02000427246094,131.02000427246094,2847000
2020-08-31,135.2100067138672,138.25,133.10000610351562,135.85000610351562,135.85000610351562,4298700
2020-09-01,136.0500030517578,136.67999267578125,131.8000030517578,135.24000549316406,135.24000549316406,2595800
2020-09-02,135.99000549316406,135.99000549316406,129.39999389648438,129.6999969482422,129.6999969482422,3004900
2020-09-03,133.00999450683594,142.5,128.7100067138672,129.8000030517578,129.8000030517578,10864300
2020-09-04,130.6199951171875,134.72000122070312,120.55000305175781,125.81999969482422,125.81999969482422,4671100
2020-09-08,123.80999755859375,137.77999877929688,123.44999694824219,134.47000122070312,134.47000122070312,7318300
2020-09-09,132.5,139.47000122070312,132.2480010986328,138.1699981689453,138.1699981689453,4381400
2020-09-10,139.39999389648438,149.57000732421875,138.58999633789062,143.0399932861328,143.0399932861328,8189300
2020-09-11,144.0,144.07000732421875,132.4499969482422,134.8800048828125,134.8800048828125,3989200
2020-09-14,136.14999389648438,145.3699951171875,136.0500030517578,143.17999267578125,143.17999267578125,4812000
2020-09-15,144.1199951171875,150.0,141.41299438476562,146.47999572753906,146.47999572753906,4324400
2020-09-16,147.47999572753906,158.60000610351562,146.16000366210938,156.57000732421875,156.57000732421875,8248500
2020-09-17,150.5,157.5800018310547,149.25999450683594,157.22000122070312,157.22000122070312,4796000
2020-09-18,150.0,153.44000244140625,146.02000427246094,149.0399932861328,149.0399932861328,8810000
2020-09-21,144.2550048828125,149.07000732421875,140.30999755859375,148.8000030517578,148.8000030517578,3839300
2020-09-22,150.52999877929688,162.5,150.3800048828125,153.82000732421875,153.82000732421875,8806300
2020-09-23,154.44000244140625,157.5,149.41000366210938,150.57000732421875,150.57000732421875,2890900
2020-09-24,148.50999450683594,150.97300720214844,144.6999969482422,147.89999389648438,147.89999389648438,2461100
2020-09-25,149.47000122070312,155.91000366210938,148.0,155.02000427246094,155.02000427246094,2569200
2020-09-28,158.1999969482422,160.0,150.41000366210938,151.3000030517578,151.3000030517578,2675900
2020-09-29,160.0,170.4499969482422,159.14999389648438,165.66000366210938,165.66000366210938,20636600
2020-09-30,164.83299255371094,172.4499969482422,163.83999633789062,166.05999755859375,166.05999755859375,6050700
2020-10-01,169.24000549316406,172.69000244140625,165.8800048828125,170.60000610351562,170.60000610351562,4729200
2020-10-02,165.58999633789062,171.75,164.80999755859375,166.24000549316406,166.24000549316406,2949000
2020-10-05,168.64999389648438,175.88999938964844,166.75900268554688,175.49000549316406,175.49000549316406,4163200
2020-10-06,176.22999572753906,186.6999969482422,175.0,181.86000061035156,181.86000061035156,8478800
2020-10-07,184.64999389648438,191.60000610351562,184.1999969482422,189.13999938964844,189.13999938964844,5167900
2020-10-08,193.0,197.5,188.63999938964844,193.3800048828125,193.3800048828125,5878900
2020-10-09,194.66000366210938,195.91000366210938,190.4499969482422,194.94500732421875,194.94500732421875,3107500
2020-10-12,196.52999877929688,197.25,190.75999450683594,192.3000030517578,192.3000030517578,2506000
2020-10-13,184.38999938964844,189.05999755859375,180.9600067138672,187.6199951171875,187.6199951171875,5048400
2020-10-14,186.63999938964844,191.42999267578125,186.0,188.72999572753906,188.72999572753906,2550900
2020-10-15,184.67999267578125,189.0,183.39999389648438,184.85000610351562,184.85000610351562,2272200
2020-10-16,187.1699981689453,188.30999755859375,182.35000610351562,183.5800018310547,183.5800018310547,1959800
2020-10-19,184.11000061035156,188.58999633789062,181.10000610351562,184.13999938964844,184.13999938964844,2255000
2020-10-20,185.0590057373047,185.0590057373047,175.9499969482422,176.2899932861328,176.2899932861328,2362500
2020-10-21,177.58999633789062,181.07000732421875,176.00799560546875,177.91000366210938,177.91000366210938,1845600
2020-10-22,178.4199981689453,178.83999633789062,167.89999389648438,172.1699981689453,172.1699981689453,3283700
2020-10-23,173.0,174.12399291992188,168.10000610351562,171.72999572753906,171.72999572753906,1711200
2020-10-26,171.4199981689453,175.33999633789062,161.83999633789062,164.5399932861328,164.5399932861328,2731500
2020-10-27,165.0,167.00999450683594,160.85000610351562,161.9499969482422,161.9499969482422,1894600
2020-10-28,159.5,160.52000427246094,154.7449951171875,156.0500030517578,156.0500030517578,2426600
2020-10-29,157.44000244140625,157.4499969482422,151.35000610351562,151.85000610351562,151.85000610351562,1985000
2020-10-30,150.5,152.3000030517578,141.07000732421875,142.42999267578125,142.42999267578125,3164100
2020-11-02,145.35000610351562,148.0,141.47500610351562,143.55999755859375,143.55999755859375,2155400
2020-11-03,146.25999450683594,150.75999450683594,145.7100067138672,146.35000610351562,146.35000610351562,2145100
2020-11-04,150.10000610351562,153.11000061035156,148.2100067138672,149.2899932861328,149.2899932861328,1673400
2020-11-05,153.5,157.35000610351562,152.31700134277344,157.0399932861328,157.0399932861328,2653300
2020-11-06,156.77999877929688,158.94000244140625,154.30999755859375,156.86000061035156,156.86000061035156,2302200
2020-11-09,164.3699951171875,170.8000030517578,141.2519989013672,150.5,150.5,21307500
2020-11-10,118.91999816894531,131.9199981689453,113.26000213623047,125.01000213623047,125.01000213623047,29678100
2020-11-11,127.08999633789062,129.89999389648438,125.0999984741211,127.88999938964844,127.88999938964844,7151600
2020-11-12,129.47000122070312,132.41700744628906,126.87999725341797,128.89999389648438,128.89999389648438,6376800
2020-11-13,130.2899932861328,130.41900634765625,123.25,124.73999786376953,124.73999786376953,5332200
2020-11-16,126.30000305175781,127.94999694824219,121.52999877929688,127.1500015258789,127.1500015258789,5256700
2020-11-17,126.61699676513672,129.97000122070312,126.15699768066406,129.89999389648438,129.89999389648438,2845600
2020-11-18,132.0,137.00999450683594,132.0,134.00999450683594,134.00999450683594,7279900
2020-11-19,134.64999389648438,139.64999389648438,134.0800018310547,137.4199981689453,137.4199981689453,3402300
2020-11-20,138.1999969482422,138.25,133.60000610351562,136.55999755859375,136.55999755859375,2652900
2020-11-23,136.75,144.14999389648438,136.25,140.9600067138672,140.9600067138672,3616600
2020-11-24,143.74000549316406,145.88999938964844,140.0,141.8300018310547,141.8300018310547,2819700
2020-11-25,140.6699981689453,142.60000610351562,137.7100067138672,139.5800018310547,139.5800018310547,2143600
2020-11-27,141.0,144.8000030517578,140.5,142.1999969482422,142.1999969482422,1565700
2020-11-30,142.38999938964844,143.4499969482422,135.58999633789062,139.89999389648438,139.89999389648438,2560500
2020-12-01,140.77000427246094,140.91000366210938,134.6300048828125,137.25,137.25,2588200
2020-12-02,135.64999389648438,140.0,134.66000366210938,138.52999877929688,138.52999877929688,2095800
2020-12-03,140.55999755859375,144.6999969482422,139.00999450683594,139.35000610351562,139.35000610351562,3062100
2020-12-04,140.67999267578125,140.85299682617188,137.89999389648438,139.6199951171875,139.6199951171875,1983300
2020-12-07,139.0,139.77999877929688,135.66000366210938,136.94000244140625,136.94000244140625,2834900
2020-12-08,136.61000061035156,141.6699981689453,136.33999633789062,140.72000122070312,140.72000122070312,3021200
2020-12-09,141.4499969482422,147.25,136.60000610351562,136.92999267578125,136.92999267578125,4232500
2020-12-10,137.32000732421875,139.00999450683594,134.5399932861328,137.4600067138672,137.4600067138672,2208600
2020-12-11,137.5,141.19000244140625,136.24000549316406,138.6999969482422,138.6999969482422,1828700
2020-12-14,139.42999267578125,142.58999633789062,136.67999267578125,137.72999572753906,137.72999572753906,3124800
2020-12-15,139.72000122070312,140.4499969482422,135.1300048828125,137.61000061035156,137.61000061035156,2426600
2020-12-16,138.14999389648438,141.60000610351562,137.6300048828125,139.3699951171875,139.3699951171875,2210300
2020-12-17,140.0,143.89999389648438,138.89999389648438,143.22999572753906,143.22999572753906,2947200
2020-12-18,143.22999572753906,145.7899932861328,141.89999389648438,144.72999572753906,144.72999572753906,2686600
2020-12-21,141.0,143.39999389648438,138.11000061035156,138.57000732421875,138.57000732421875,3127400
2020-12-22,140.0,141.4600067138672,136.4199981689453,138.67999267578125,138.67999267578125,2285700
2020-12-23,138.7100067138672,141.1699981689453,136.13999938964844,139.9199981689453,139.9199981689453,1790800
2020-12-24,139.58999633789062,140.39999389648438,135.05999755859375,136.58999633789062,136.58999633789062,1969700
2020-12-28,136.64300537109375,137.35000610351562,126.33000183105469,126.44000244140625,126.44000244140625,5988600
2020-12-29,127.7699966430664,129.9199981689453,123.87999725341797,125.9000015258789,125.9000015258789,3489600
2020-12-30,126.79000091552734,128.5800018310547,125.05999755859375,126.48999786376953,126.48999786376953,2606000
