Date,Open,High,Low,Close,Adj Close,Volume
2017-12-15,13.59000015258789,15.128999710083008,13.25,14.399999618530273,14.399999618530273,3320900
2017-12-18,14.550000190734863,15.0,14.40999984741211,14.600000381469727,14.600000381469727,550900
2017-12-19,14.729999542236328,14.979999542236328,14.0,14.899999618530273,14.899999618530273,465800
2017-12-20,14.869999885559082,14.986000061035156,14.769000053405762,14.789999961853027,14.789999961853027,121600
2017-12-21,14.9399995803833,15.90999984741211,14.710000038146973,15.699999809265137,15.699999809265137,329700
2017-12-22,15.619999885559082,15.869999885559082,15.100000381469727,15.109999656677246,15.109999656677246,137400
2017-12-26,15.170000076293945,15.930000305175781,14.781000137329102,15.739999771118164,15.739999771118164,155400
2017-12-27,15.720000267028809,16.3799991607666,15.720000267028809,15.850000381469727,15.850000381469727,227600
2017-12-28,15.819999694824219,16.0,15.550999641418457,15.739999771118164,15.739999771118164,54900
2017-12-29,15.779999732971191,17.77899932861328,15.600000381469727,17.760000228881836,17.760000228881836,221800
2018-01-02,17.959999084472656,19.549999237060547,17.812000274658203,18.549999237060547,18.549999237060547,407500
2018-01-03,18.6299991607666,18.888999938964844,18.059999465942383,18.200000762939453,18.200000762939453,151800
2018-01-04,18.100000381469727,18.6299991607666,17.100000381469727,17.700000762939453,17.700000762939453,169800
2018-01-05,17.81999969482422,19.469999313354492,17.589000701904297,18.799999237060547,18.799999237060547,394500
2018-01-08,19.290000915527344,19.43000030517578,18.510000228881836,19.1200008392334,19.1200008392334,208600
2018-01-09,18.989999771118164,18.989999771118164,18.059999465942383,18.479999542236328,18.479999542236328,227800
2018-01-10,18.479999542236328,19.1200008392334,18.31100082397461,19.040000915527344,19.040000915527344,169500
2018-01-11,19.139999389648438,20.0,18.875999450683594,19.68000030517578,19.68000030517578,439700
2018-01-12,19.780000686645508,20.510000228881836,19.5,20.510000228881836,20.510000228881836,724200
2018-01-16,21.030000686645508,21.290000915527344,20.260000228881836,20.420000076293945,20.420000076293945,397200
2018-01-17,20.440000534057617,20.510000228881836,19.715999603271484,19.959999084472656,19.959999084472656,212900
2018-01-18,19.979999542236328,20.388999938964844,18.020000457763672,18.43000030517578,18.43000030517578,459400
2018-01-19,18.6299991607666,19.0,18.131000518798828,18.530000686645508,18.530000686645508,236400
2018-01-22,18.59000015258789,18.90999984741211,17.610000610351562,18.170000076293945,18.170000076293945,399300
2018-01-23,18.200000762939453,19.489999771118164,18.049999237060547,19.229999542236328,19.229999542236328,193500
2018-01-24,19.229999542236328,19.770000457763672,18.309999465942383,18.75,18.75,214500
2018-01-25,18.719999313354492,19.020000457763672,18.510000228881836,18.8700008392334,18.8700008392334,84500
2018-01-26,19.010000228881836,19.010000228881836,17.5,17.5,17.5,490200
2018-01-29,17.520000457763672,18.454999923706055,17.40999984741211,18.209999084472656,18.209999084472656,155700
2018-01-30,18.1200008392334,18.410999298095703,17.809999465942383,17.860000610351562,17.860000610351562,103600
2018-01-31,18.0,19.190000534057617,17.790000915527344,19.09000015258789,19.09000015258789,271400
2018-02-01,18.829999923706055,20.5,18.615999221801758,19.899999618530273,19.899999618530273,346800
2018-02-02,20.25,20.610000610351562,19.1299991607666,20.610000610351562,20.610000610351562,475200
2018-02-05,20.579999923706055,22.5,19.079999923706055,20.040000915527344,20.040000915527344,1055400
2018-02-06,19.829999923706055,20.798999786376953,18.600000381469727,19.979999542236328,19.979999542236328,345700
2018-02-07,20.0,20.5,19.670000076293945,20.239999771118164,20.239999771118164,231600
2018-02-08,20.139999389648438,20.405000686645508,18.56999969482422,18.639999389648438,18.639999389648438,290400
2018-02-09,18.829999923706055,19.014999389648438,16.59000015258789,18.040000915527344,18.040000915527344,607500
2018-02-12,18.100000381469727,18.229999542236328,17.639999389648438,18.0,18.0,207600
2018-02-13,17.889999389648438,18.5,17.540000915527344,17.979999542236328,17.979999542236328,82900
2018-02-14,18.030000686645508,18.639999389648438,17.780000686645508,17.969999313354492,17.969999313354492,181600
2018-02-15,18.1299991607666,18.899999618530273,17.81999969482422,18.709999084472656,18.709999084472656,194100
2018-02-16,18.709999084472656,19.3799991607666,18.0,19.270000457763672,19.270000457763672,252800
2018-02-20,19.739999771118164,20.790000915527344,19.350000381469727,20.670000076293945,20.670000076293945,207900
2018-02-21,20.709999084472656,21.360000610351562,19.950000762939453,20.100000381469727,20.100000381469727,275400
2018-02-22,20.049999237060547,20.260000228881836,19.020000457763672,19.40999984741211,19.40999984741211,213000
2018-02-23,19.530000686645508,20.44499969482422,19.18600082397461,19.639999389648438,19.639999389648438,209600
2018-02-26,20.0,20.833999633789062,19.899999618530273,20.25,20.25,312200
2018-02-27,20.100000381469727,23.0,20.100000381469727,22.579999923706055,22.579999923706055,781200
2018-02-28,22.899999618530273,24.239999771118164,22.520000457763672,22.760000228881836,22.760000228881836,730000
2018-03-01,22.799999237060547,23.5,22.170000076293945,22.670000076293945,22.670000076293945,316200
2018-03-02,22.440000534057617,23.434999465942383,21.167999267578125,21.950000762939453,21.950000762939453,854100
2018-03-05,23.06999969482422,25.200000762939453,22.549999237060547,23.5,23.5,1149800
2018-03-06,24.0,24.520000457763672,23.041000366210938,24.329999923706055,24.329999923706055,779800
2018-03-07,25.0,25.899999618530273,23.600000381469727,24.100000381469727,24.100000381469727,974000
2018-03-08,24.389999389648438,24.989999771118164,23.90999984741211,24.8700008392334,24.8700008392334,437100
2018-03-09,25.209999084472656,27.049999237060547,25.190000534057617,26.899999618530273,26.899999618530273,1192600
2018-03-12,27.639999389648438,31.1299991607666,27.239999771118164,29.8799991607666,29.8799991607666,2312200
2018-03-13,30.030000686645508,30.610000610351562,28.110000610351562,30.0,30.0,1348800
2018-03-14,30.0,31.399999618530273,29.75,31.200000762939453,31.200000762939453,1338700
2018-03-15,31.40999984741211,34.0,31.25,33.59000015258789,33.59000015258789,1526300
2018-03-16,34.20000076293945,34.209999084472656,30.229999542236328,31.549999237060547,31.549999237060547,4348000
2018-03-19,30.809999465942383,32.540000915527344,30.450000762939453,32.099998474121094,32.099998474121094,1155200
2018-03-20,32.66999816894531,32.900001525878906,30.81999969482422,31.510000228881836,31.510000228881836,652700
2018-03-21,31.600000381469727,31.700000762939453,31.0,31.420000076293945,31.420000076293945,456700
2018-03-22,31.049999237060547,32.650001525878906,30.950000762939453,31.989999771118164,31.989999771118164,654900
2018-03-23,31.889999389648438,32.472999572753906,28.510000228881836,29.700000762939453,29.700000762939453,1060600
2018-03-26,30.850000381469727,31.8799991607666,30.3700008392334,31.75,31.75,585300
2018-03-27,32.2599983215332,32.29999923706055,29.290000915527344,29.520000457763672,29.520000457763672,565400
2018-03-28,29.229999542236328,29.719999313354492,27.5,27.959999084472656,27.959999084472656,917800
2018-03-29,28.040000915527344,29.610000610351562,27.079999923706055,29.34000015258789,29.34000015258789,631600
2018-04-02,29.040000915527344,29.280000686645508,28.15999984741211,28.90999984741211,28.90999984741211,614000
2018-04-03,29.25,30.079999923706055,28.850000381469727,29.270000457763672,29.270000457763672,283700
2018-04-04,28.84000015258789,29.06999969482422,27.700000762939453,28.469999313354492,28.469999313354492,402400
2018-04-05,28.8799991607666,29.420000076293945,28.6299991607666,29.079999923706055,29.079999923706055,282600
2018-04-06,28.649999618530273,29.139999389648438,27.270000457763672,27.510000228881836,27.510000228881836,428200
2018-04-09,27.709999084472656,29.889999389648438,27.709999084472656,28.81999969482422,28.81999969482422,406300
2018-04-10,29.440000534057617,30.0,28.940000534057617,29.799999237060547,29.799999237060547,317700
2018-04-11,29.540000915527344,30.989999771118164,28.690000534057617,29.56999969482422,29.56999969482422,709200
2018-04-12,29.889999389648438,31.260000228881836,29.450000762939453,30.579999923706055,30.579999923706055,466400
2018-04-13,30.950000762939453,31.3700008392334,29.75,30.34000015258789,30.34000015258789,745700
2018-04-16,30.649999618530273,30.940000534057617,29.815000534057617,30.760000228881836,30.760000228881836,344800
2018-04-17,31.110000610351562,33.560001373291016,30.976999282836914,33.31999969482422,33.31999969482422,593800
2018-04-18,33.650001525878906,33.900001525878906,31.81999969482422,32.849998474121094,32.849998474121094,798700
2018-04-19,32.599998474121094,32.63399887084961,31.309999465942383,31.670000076293945,31.670000076293945,393000
2018-04-20,31.709999084472656,32.47999954223633,29.584999084472656,30.1200008392334,30.1200008392334,671400
2018-04-23,30.43000030517578,31.239999771118164,29.549999237060547,29.799999237060547,29.799999237060547,525700
2018-04-24,27.350000381469727,27.36400032043457,25.18000030517578,26.280000686645508,26.280000686645508,1826100
2018-04-25,26.360000610351562,26.389999389648438,24.829999923706055,25.75,25.75,948400
2018-04-26,24.690000534057617,24.790000915527344,23.5,23.770000457763672,23.770000457763672,5804500
2018-04-27,24.260000228881836,24.450000762939453,22.600000381469727,22.809999465942383,22.809999465942383,2103000
2018-04-30,23.020000457763672,23.690000534057617,22.549999237060547,23.389999389648438,23.389999389648438,1107500
2018-05-01,23.489999771118164,23.8700008392334,22.940000534057617,23.68000030517578,23.68000030517578,996700
2018-05-02,23.68000030517578,24.809999465942383,23.6299991607666,23.969999313354492,23.969999313354492,1580100
2018-05-03,23.8799991607666,23.8799991607666,22.709999084472656,22.739999771118164,22.739999771118164,936800
2018-05-04,22.75,23.5,22.290000915527344,22.75,22.75,895400
2018-05-07,22.719999313354492,23.34000015258789,22.110000610351562,22.950000762939453,22.950000762939453,810000
2018-05-08,22.780000686645508,23.25,22.510000228881836,22.700000762939453,22.700000762939453,602600
2018-05-09,22.700000762939453,23.0,22.030000686645508,22.6299991607666,22.6299991607666,919700
2018-05-10,22.739999771118164,22.799999237060547,22.020000457763672,22.559999465942383,22.559999465942383,1118900
2018-05-11,21.56999969482422,22.420000076293945,19.549999237060547,20.020000457763672,20.020000457763672,2695400
2018-05-14,20.0,20.940000534057617,19.950000762939453,20.420000076293945,20.420000076293945,1094800
2018-05-15,20.209999084472656,20.690000534057617,20.020000457763672,20.510000228881836,20.510000228881836,782100
2018-05-16,20.459999084472656,21.420000076293945,20.360000610351562,21.059999465942383,21.059999465942383,788600
2018-05-17,20.920000076293945,21.100000381469727,20.599000930786133,20.639999389648438,20.639999389648438,502100
2018-05-18,20.56999969482422,21.0,20.56999969482422,20.760000228881836,20.760000228881836,354500
2018-05-21,20.920000076293945,21.450000762939453,20.59000015258789,20.729999542236328,20.729999542236328,595600
2018-05-22,20.8700008392334,20.8700008392334,19.700000762939453,19.950000762939453,19.950000762939453,548400
2018-05-23,19.850000381469727,20.510000228881836,19.47100067138672,20.100000381469727,20.100000381469727,419100
2018-05-24,20.010000228881836,20.084999084472656,18.959999084472656,19.510000228881836,19.510000228881836,698300
2018-05-25,19.579999923706055,20.0,19.459999084472656,19.889999389648438,19.889999389648438,377300
2018-05-29,19.670000076293945,19.909000396728516,18.969999313354492,19.5,19.5,425600
2018-05-30,19.530000686645508,19.700000762939453,18.950000762939453,19.0,19.0,501800
2018-05-31,19.0,19.270000457763672,18.739999771118164,19.209999084472656,19.209999084472656,556600
2018-06-01,19.209999084472656,19.489999771118164,19.0,19.100000381469727,19.100000381469727,297900
2018-06-04,19.100000381469727,19.799999237060547,18.899999618530273,19.600000381469727,19.600000381469727,628000
2018-06-05,19.540000915527344,21.030000686645508,19.514999389648438,21.010000228881836,21.010000228881836,998000
2018-06-06,21.010000228881836,21.229999542236328,20.540000915527344,20.920000076293945,20.920000076293945,789000
2018-06-07,20.84000015258789,20.90999984741211,20.209999084472656,20.209999084472656,20.209999084472656,494100
2018-06-08,20.170000076293945,20.780000686645508,19.90999984741211,20.3700008392334,20.3700008392334,559600
2018-06-11,20.280000686645508,20.341999053955078,18.209999084472656,18.3700008392334,18.3700008392334,1492300
2018-06-12,18.739999771118164,19.34000015258789,18.469999313354492,19.030000686645508,19.030000686645508,1273400
2018-06-13,17.950000762939453,19.010000228881836,17.459999084472656,18.3700008392334,18.3700008392334,5099500
2018-06-14,18.43000030517578,18.65999984741211,18.0,18.5,18.5,1483700
2018-06-15,18.469999313354492,18.479999542236328,17.719999313354492,17.81999969482422,17.81999969482422,5037700
2018-06-18,17.93000030517578,19.079999923706055,17.84000015258789,18.5,18.5,1851600
2018-06-19,18.3799991607666,18.59000015258789,17.59000015258789,17.920000076293945,17.920000076293945,1297000
2018-06-20,18.25,18.489999771118164,17.899999618530273,17.969999313354492,17.969999313354492,1314900
2018-06-21,17.93000030517578,18.100000381469727,17.3799991607666,17.709999084472656,17.709999084472656,830900
2018-06-22,17.760000228881836,17.959999084472656,17.219999313354492,17.700000762939453,17.700000762939453,1567700
2018-06-25,17.540000915527344,17.764999389648438,17.309999465942383,17.68000030517578,17.68000030517578,502700
2018-06-26,17.68000030517578,17.68000030517578,17.25,17.329999923706055,17.329999923706055,684500
2018-06-27,17.34000015258789,17.604999542236328,17.059999465942383,17.06999969482422,17.06999969482422,544500
2018-06-28,17.110000610351562,17.125,15.800000190734863,16.010000228881836,16.010000228881836,1753800
2018-06-29,16.170000076293945,16.652000427246094,16.010000228881836,16.329999923706055,16.329999923706055,811200
2018-07-02,16.06999969482422,16.559999465942383,15.9350004196167,16.389999389648438,16.389999389648438,322900
2018-07-03,16.520000457763672,16.520000457763672,15.899999618530273,15.9399995803833,15.9399995803833,188500
2018-07-05,16.020000457763672,16.219999313354492,15.579999923706055,16.09000015258789,16.09000015258789,324400
2018-07-06,16.100000381469727,16.834999084472656,16.059999465942383,16.809999465942383,16.809999465942383,487500
2018-07-09,16.760000228881836,16.8799991607666,16.040000915527344,16.3799991607666,16.3799991607666,480300
2018-07-10,17.790000915527344,18.825000762939453,17.56999969482422,17.770000457763672,17.770000457763672,1634200
2018-07-11,17.549999237060547,17.989999771118164,17.21500015258789,17.299999237060547,17.299999237060547,507500
2018-07-12,17.010000228881836,17.030000686645508,14.890000343322754,15.430000305175781,15.430000305175781,2124900
2018-07-13,15.5,16.229999542236328,15.5,15.619999885559082,15.619999885559082,886500
2018-07-16,15.640000343322754,15.869999885559082,15.3100004196167,15.539999961853027,15.539999961853027,692100
2018-07-17,15.460000038146973,15.760000228881836,15.460000038146973,15.65999984741211,15.65999984741211,406600
2018-07-18,15.699999809265137,15.911999702453613,15.569999694824219,15.760000228881836,15.760000228881836,380800
2018-07-19,15.789999961853027,15.789999961853027,15.529999732971191,15.739999771118164,15.739999771118164,499100
2018-07-20,15.729999542236328,16.1200008392334,15.579999923706055,15.699999809265137,15.699999809265137,528100
2018-07-23,15.649999618530273,15.789999961853027,15.130000114440918,15.760000228881836,15.760000228881836,456500
2018-07-24,15.920000076293945,15.9399995803833,15.289999961853027,15.319999694824219,15.319999694824219,480100
2018-07-25,15.319999694824219,15.6899995803833,15.279000282287598,15.65999984741211,15.65999984741211,317400
2018-07-26,15.569999694824219,15.609999656677246,15.064000129699707,15.109999656677246,15.109999656677246,733800
2018-07-27,15.140000343322754,15.350000381469727,14.65999984741211,14.680000305175781,14.680000305175781,790900
2018-07-30,14.729999542236328,14.90999984741211,14.329999923706055,14.510000228881836,14.510000228881836,529200
2018-07-31,14.5,15.34000015258789,14.5,15.229999542236328,15.229999542236328,767900
2018-08-01,15.1899995803833,15.380000114440918,14.979999542236328,15.069999694824219,15.069999694824219,248700
2018-08-02,15.050000190734863,15.239999771118164,14.84000015258789,15.239999771118164,15.239999771118164,320700
2018-08-03,15.050000190734863,15.550000190734863,14.970000267028809,15.140000343322754,15.140000343322754,275100
2018-08-06,15.180000305175781,15.579999923706055,15.0,15.380000114440918,15.380000114440918,496600
2018-08-07,15.449999809265137,16.31999969482422,15.390000343322754,15.899999618530273,15.899999618530273,775400
2018-08-08,15.979999542236328,15.987000465393066,15.430000305175781,15.600000381469727,15.600000381469727,350800
2018-08-09,15.539999961853027,15.989999771118164,15.539999961853027,15.819999694824219,15.819999694824219,467800
2018-08-10,15.729999542236328,15.829999923706055,15.399999618530273,15.619999885559082,15.619999885559082,493000
2018-08-13,15.600000381469727,15.869999885559082,15.489999771118164,15.779999732971191,15.779999732971191,293000
2018-08-14,15.8100004196167,15.899999618530273,15.095000267028809,15.600000381469727,15.600000381469727,1282400
2018-08-15,11.930000305175781,12.5600004196167,11.260000228881836,12.079999923706055,12.079999923706055,5346000
2018-08-16,12.180000305175781,12.777999877929688,11.59000015258789,12.460000038146973,12.460000038146973,2639800
2018-08-17,12.300000190734863,12.739999771118164,12.079999923706055,12.479999542236328,12.479999542236328,1263900
2018-08-20,12.4399995803833,13.369999885559082,12.4399995803833,13.109999656677246,13.109999656677246,1574100
2018-08-21,13.149999618530273,13.550000190734863,13.079999923706055,13.100000381469727,13.100000381469727,693400
2018-08-22,13.149999618530273,13.444000244140625,12.90999984741211,13.369999885559082,13.369999885559082,696400
2018-08-23,13.350000381469727,13.649999618530273,13.220000267028809,13.359999656677246,13.359999656677246,504800
2018-08-24,14.100000381469727,14.300000190734863,13.680000305175781,13.970000267028809,13.970000267028809,1038800
2018-08-27,13.979999542236328,14.619999885559082,13.979999542236328,14.569999694824219,14.569999694824219,866500
2018-08-28,14.350000381469727,14.59000015258789,14.229999542236328,14.420000076293945,14.420000076293945,784700
2018-08-29,14.359999656677246,14.880000114440918,14.25,14.59000015258789,14.59000015258789,538500
2018-08-30,14.579999923706055,14.859999656677246,14.510000228881836,14.59000015258789,14.59000015258789,585200
2018-08-31,14.600000381469727,14.850000381469727,14.239999771118164,14.6899995803833,14.6899995803833,607500
2018-09-04,14.579999923706055,14.880000114440918,14.270000457763672,14.649999618530273,14.649999618530273,1428300
2018-09-05,14.630000114440918,15.3100004196167,14.279999732971191,15.050000190734863,15.050000190734863,973700
2018-09-06,15.09000015258789,15.307999610900879,14.640000343322754,14.84000015258789,14.84000015258789,580100
2018-09-07,14.739999771118164,14.970000267028809,14.619999885559082,14.930000305175781,14.930000305175781,547100
2018-09-10,14.869999885559082,15.449999809265137,14.859999656677246,15.09000015258789,15.09000015258789,711900
2018-09-11,14.989999771118164,15.369999885559082,14.989999771118164,15.34000015258789,15.34000015258789,679500
2018-09-12,15.270000457763672,15.75,15.239999771118164,15.630000114440918,15.630000114440918,802300
2018-09-13,15.6899995803833,16.15999984741211,15.6899995803833,16.06999969482422,16.06999969482422,477300
2018-09-14,16.15999984741211,16.34000015258789,15.800000190734863,15.8100004196167,15.8100004196167,674800
2018-09-17,15.829999923706055,15.9399995803833,15.487000465393066,15.670000076293945,15.670000076293945,733000
2018-09-18,15.699999809265137,16.020000457763672,15.5,15.920000076293945,15.920000076293945,852900
2018-09-19,15.920000076293945,16.40999984741211,15.8100004196167,16.299999237060547,16.299999237060547,717300
2018-09-20,16.350000381469727,16.75,16.15999984741211,16.329999923706055,16.329999923706055,778000
2018-09-21,16.329999923706055,16.510000228881836,16.18000030517578,16.209999084472656,16.209999084472656,3088300
2018-09-24,16.260000228881836,16.260000228881836,15.34000015258789,15.460000038146973,15.460000038146973,963700
2018-09-25,15.460000038146973,15.789999961853027,15.319999694824219,15.369999885559082,15.369999885559082,1123700
2018-09-26,15.399999618530273,15.680000305175781,15.369999885559082,15.399999618530273,15.399999618530273,547500
2018-09-27,15.399999618530273,15.430000305175781,14.460000038146973,14.84000015258789,14.84000015258789,651100
2018-09-28,14.739999771118164,14.850000381469727,14.520000457763672,14.75,14.75,331200
2018-10-01,14.739999771118164,15.279999732971191,14.736000061035156,15.069999694824219,15.069999694824219,427400
2018-10-02,15.0,15.260000228881836,14.170000076293945,14.260000228881836,14.260000228881836,749200
2018-10-03,14.350000381469727,14.649999618530273,14.15999984741211,14.399999618530273,14.399999618530273,411700
2018-10-04,14.40999984741211,14.40999984741211,14.100000381469727,14.25,14.25,295300
2018-10-05,14.210000038146973,14.4399995803833,13.59000015258789,14.010000228881836,14.010000228881836,607400
2018-10-08,13.920000076293945,14.300000190734863,13.640000343322754,14.180000305175781,14.180000305175781,400500
2018-10-09,14.100000381469727,14.40999984741211,14.029999732971191,14.09000015258789,14.09000015258789,530000
2018-10-10,14.010000228881836,14.229999542236328,13.279999732971191,13.510000228881836,13.510000228881836,693900
2018-10-11,13.399999618530273,13.859999656677246,13.0,13.479999542236328,13.479999542236328,510300
2018-10-12,13.779999732971191,13.789999961853027,13.359999656677246,13.6899995803833,13.6899995803833,547300
2018-10-15,13.649999618530273,13.84000015258789,13.460000038146973,13.470000267028809,13.470000267028809,687700
2018-10-16,13.569999694824219,14.069999694824219,13.350000381469727,14.029999732971191,14.029999732971191,518800
2018-10-17,14.0600004196167,14.479999542236328,13.57800006866455,14.34000015258789,14.34000015258789,332900
2018-10-18,14.279999732971191,14.460000038146973,14.069999694824219,14.069999694824219,14.069999694824219,374800
2018-10-19,14.039999961853027,14.291999816894531,13.869999885559082,13.989999771118164,13.989999771118164,412600
2018-10-22,14.029999732971191,14.399999618530273,13.869999885559082,14.1899995803833,14.1899995803833,220600
2018-10-23,14.229999542236328,14.420000076293945,13.619999885559082,13.989999771118164,13.989999771118164,678600
2018-10-24,14.069999694824219,14.130000114440918,13.255000114440918,13.5600004196167,13.5600004196167,434600
2018-10-25,13.5,14.079999923706055,13.5,13.989999771118164,13.989999771118164,263300
2018-10-26,13.739999771118164,14.140000343322754,13.430000305175781,13.84000015258789,13.84000015258789,282900
2018-10-29,13.899999618530273,14.050000190734863,13.25,13.399999618530273,13.399999618530273,285100
2018-10-30,13.369999885559082,13.989999771118164,13.369999885559082,13.800000190734863,13.800000190734863,563800
2018-10-31,14.260000228881836,14.479999542236328,14.020000457763672,14.399999618530273,14.399999618530273,531400
2018-11-01,14.5,15.010000228881836,14.40999984741211,14.619999885559082,14.619999885559082,702300
2018-11-02,14.6899995803833,15.0,14.380000114440918,14.640000343322754,14.640000343322754,402600
2018-11-05,14.579999923706055,14.779999732971191,14.239999771118164,14.720000267028809,14.720000267028809,371100
2018-11-06,14.630000114440918,15.109999656677246,14.539999961853027,14.869999885559082,14.869999885559082,561800
2018-11-07,15.0,15.779999732971191,14.84000015258789,15.770000457763672,15.770000457763672,715700
2018-11-08,16.0,16.0,14.800000190734863,16.0,16.0,820700
2018-11-09,15.930000305175781,16.420000076293945,15.739999771118164,15.760000228881836,15.760000228881836,491400
2018-11-12,15.699999809265137,15.819999694824219,15.050000190734863,15.140000343322754,15.140000343322754,413700
2018-11-13,15.25,15.4399995803833,14.9399995803833,15.09000015258789,15.09000015258789,389300
2018-11-14,15.239999771118164,15.640000343322754,15.199999809265137,15.460000038146973,15.460000038146973,387000
2018-11-15,15.420000076293945,16.020000457763672,15.229999542236328,15.880000114440918,15.880000114440918,431500
2018-11-16,15.75,16.09000015258789,15.380000114440918,15.880000114440918,15.880000114440918,367400
2018-11-19,15.960000038146973,16.0,14.850000381469727,14.989999771118164,14.989999771118164,460800
2018-11-20,14.65999984741211,15.0600004196167,14.329999923706055,14.579999923706055,14.579999923706055,304400
2018-11-21,14.729999542236328,15.100000381469727,14.600000381469727,14.880000114440918,14.880000114440918,211100
2018-11-23,14.640000343322754,15.425000190734863,14.640000343322754,15.09000015258789,15.09000015258789,172600
2018-11-26,15.289999961853027,15.65999984741211,14.779999732971191,15.579999923706055,15.579999923706055,321500
2018-11-27,15.479999542236328,15.654999732971191,14.760000228881836,14.8100004196167,14.8100004196167,377000
2018-11-28,14.850000381469727,15.119999885559082,14.8100004196167,15.0,15.0,393600
2018-11-29,15.0,15.289999961853027,14.789999961853027,15.079999923706055,15.079999923706055,234700
2018-11-30,14.880000114440918,15.550000190734863,14.510000228881836,15.550000190734863,15.550000190734863,812600
2018-12-03,15.640000343322754,15.760000228881836,15.399999618530273,15.680000305175781,15.680000305175781,366500
2018-12-04,15.609999656677246,15.739999771118164,15.199999809265137,15.350000381469727,15.350000381469727,335900
2018-12-06,15.100000381469727,15.670000076293945,14.779999732971191,15.670000076293945,15.670000076293945,357200
2018-12-07,15.609999656677246,15.850000381469727,15.050000190734863,15.180000305175781,15.180000305175781,337900
2018-12-10,15.25,15.359999656677246,14.369999885559082,15.0600004196167,15.0600004196167,359500
2018-12-11,15.420000076293945,15.460000038146973,14.84000015258789,15.100000381469727,15.100000381469727,175500
2018-12-12,15.34000015258789,15.390000343322754,14.880000114440918,14.960000038146973,14.960000038146973,274100
2018-12-13,15.149999618530273,15.279999732971191,14.529999732971191,14.8100004196167,14.8100004196167,248100
2018-12-14,14.569999694824219,14.604999542236328,13.800000190734863,13.850000381469727,13.850000381469727,360500
2018-12-17,13.5,14.079999923706055,13.260000228881836,13.380000114440918,13.380000114440918,529700
2018-12-18,13.5,13.736000061035156,12.819999694824219,13.0600004196167,13.0600004196167,368500
2018-12-19,13.039999961853027,13.390000343322754,12.760000228881836,13.020000457763672,13.020000457763672,480000
2018-12-20,13.010000228881836,13.229999542236328,12.550000190734863,12.65999984741211,12.65999984741211,364000
2018-12-21,12.640000343322754,12.710000038146973,11.8100004196167,11.9399995803833,11.9399995803833,853600
2018-12-24,11.760000228881836,12.199999809265137,11.651000022888184,11.890000343322754,11.890000343322754,156100
2018-12-26,11.869999885559082,12.460000038146973,11.770000457763672,12.4399995803833,12.4399995803833,203200
2018-12-27,12.170000076293945,12.710000038146973,12.039999961853027,12.6899995803833,12.6899995803833,186900
2018-12-28,12.600000381469727,13.180000305175781,12.550000190734863,12.899999618530273,12.899999618530273,313100
2018-12-31,12.989999771118164,13.149999618530273,12.699999809265137,13.130000114440918,13.130000114440918,280700
2019-01-02,12.850000381469727,13.454999923706055,12.670000076293945,13.050000190734863,13.050000190734863,182900
2019-01-03,13.050000190734863,13.0600004196167,12.225000381469727,12.279999732971191,12.279999732971191,246200
2019-01-04,12.65999984741211,13.210000038146973,12.550000190734863,13.069999694824219,13.069999694824219,263100
2019-01-07,13.069999694824219,13.59000015258789,12.979999542236328,13.329999923706055,13.329999923706055,362800
2019-01-08,13.40999984741211,13.489999771118164,13.039999961853027,13.399999618530273,13.399999618530273,384000
2019-01-09,13.5,13.59000015258789,13.270000457763672,13.539999961853027,13.539999961853027,146000
2019-01-10,13.449999809265137,13.800000190734863,13.449999809265137,13.65999984741211,13.65999984741211,126100
2019-01-11,13.600000381469727,13.859999656677246,13.529999732971191,13.760000228881836,13.760000228881836,122200
2019-01-14,13.640000343322754,13.789999961853027,13.380999565124512,13.600000381469727,13.600000381469727,177300
2019-01-15,13.600000381469727,13.699999809265137,13.489999771118164,13.630000114440918,13.630000114440918,140000
2019-01-16,13.729999542236328,14.210000038146973,13.5600004196167,14.1899995803833,14.1899995803833,265100
2019-01-17,14.119999885559082,14.475000381469727,13.949999809265137,14.390000343322754,14.390000343322754,271100
2019-01-18,10.550000190734863,12.359999656677246,10.501999855041504,11.199999809265137,11.199999809265137,4308400
2019-01-22,10.949999809265137,11.460000038146973,10.949999809265137,11.199999809265137,11.199999809265137,998600
2019-01-23,11.279999732971191,11.859999656677246,11.260000228881836,11.819999694824219,11.819999694824219,704900
2019-01-24,11.850000381469727,12.449999809265137,11.850000381469727,12.130000114440918,12.130000114440918,368800
2019-01-25,12.170000076293945,12.470000267028809,12.03499984741211,12.270000457763672,12.270000457763672,264300
2019-01-28,12.170000076293945,12.199000358581543,11.817999839782715,11.869999885559082,11.869999885559082,288400
2019-01-29,11.869999885559082,11.890000343322754,11.550000190734863,11.680000305175781,11.680000305175781,202000
2019-01-30,11.75,11.84000015258789,11.550000190734863,11.6899995803833,11.6899995803833,283600
2019-01-31,11.75,11.989999771118164,11.630000114440918,11.640000343322754,11.640000343322754,211300
2019-02-01,11.65999984741211,11.949999809265137,11.520000457763672,11.779999732971191,11.779999732971191,251500
2019-02-04,11.729999542236328,11.869999885559082,11.612000465393066,11.789999961853027,11.789999961853027,217500
2019-02-05,11.819999694824219,12.039999961853027,11.779999732971191,11.789999961853027,11.789999961853027,235400
2019-02-06,11.720000267028809,11.9399995803833,11.600000381469727,11.600000381469727,11.600000381469727,249600
2019-02-07,11.529999732971191,11.619999885559082,11.229999542236328,11.350000381469727,11.350000381469727,257800
2019-02-08,11.359999656677246,11.479999542236328,11.25,11.329999923706055,11.329999923706055,210400
2019-02-11,11.40999984741211,11.899999618530273,11.319999694824219,11.770000457763672,11.770000457763672,340800
2019-02-12,11.829999923706055,12.109999656677246,11.699999809265137,11.770000457763672,11.770000457763672,279600
2019-02-13,11.800000190734863,12.100000381469727,11.800000190734863,12.029999732971191,12.029999732971191,531900
2019-02-14,11.550000190734863,12.225000381469727,11.550000190734863,12.069999694824219,12.069999694824219,267800
2019-02-15,12.079999923706055,12.15999984741211,11.789999961853027,11.859999656677246,11.859999656677246,243400
2019-02-19,11.829999923706055,12.050000190734863,11.675000190734863,11.779999732971191,11.779999732971191,451100
2019-02-20,11.829999923706055,12.09000015258789,11.670000076293945,11.979999542236328,11.979999542236328,411100
2019-02-21,12.09000015258789,12.460000038146973,11.793000221252441,11.960000038146973,11.960000038146973,542300
2019-02-22,10.0,10.5,9.0600004196167,10.350000381469727,10.350000381469727,5080000
2019-02-25,10.390000343322754,10.819999694824219,10.25,10.270000457763672,10.270000457763672,724500
2019-02-26,10.300000190734863,10.609999656677246,10.300000190734863,10.399999618530273,10.399999618530273,480900
2019-02-27,10.399999618530273,10.6899995803833,10.279999732971191,10.550000190734863,10.550000190734863,388500
2019-02-28,10.579999923706055,10.649999618530273,10.149999618530273,10.1899995803833,10.1899995803833,235300
2019-03-01,10.270000457763672,10.449999809265137,10.220000267028809,10.319999694824219,10.319999694824219,395600
2019-03-04,10.350000381469727,10.5,10.008999824523926,10.039999961853027,10.039999961853027,693300
2019-03-05,10.050000190734863,10.170000076293945,9.859999656677246,9.869999885559082,9.869999885559082,301700
2019-03-06,9.90999984741211,9.913999557495117,9.59000015258789,9.649999618530273,9.649999618530273,380700
2019-03-07,9.649999618530273,9.760000228881836,9.359999656677246,9.420000076293945,9.420000076293945,303600
2019-03-08,9.380000114440918,9.5,9.319999694824219,9.4399995803833,9.4399995803833,258700
2019-03-11,9.470000267028809,9.609999656677246,9.40999984741211,9.5,9.5,306100
2019-03-12,9.609999656677246,9.829999923706055,9.420000076293945,9.420000076293945,9.420000076293945,245000
2019-03-13,9.4399995803833,9.479999542236328,9.3100004196167,9.319999694824219,9.319999694824219,290300
2019-03-14,9.300000190734863,9.329999923706055,8.979999542236328,9.0,9.0,510300
2019-03-15,9.0,9.279999732971191,8.90999984741211,8.949999809265137,8.949999809265137,1486900
2019-03-18,8.970000267028809,9.149999618530273,8.850000381469727,8.899999618530273,8.899999618530273,298400
2019-03-19,9.100000381469727,9.359999656677246,8.9399995803833,9.100000381469727,9.100000381469727,668600
2019-03-20,9.119999885559082,9.220000267028809,8.899999618530273,9.010000228881836,9.010000228881836,421100
2019-03-21,8.949999809265137,9.34000015258789,8.949999809265137,9.140000343322754,9.140000343322754,313900
2019-03-22,9.079999923706055,9.260000228881836,8.779999732971191,8.779999732971191,8.779999732971191,259700
2019-03-25,8.760000228881836,8.819999694824219,8.539999961853027,8.630000114440918,8.630000114440918,250900
2019-03-26,8.649999618530273,8.75,8.40999984741211,8.539999961853027,8.539999961853027,279800
2019-03-27,8.550000190734863,8.779999732971191,8.149999618530273,8.359999656677246,8.359999656677246,559800
2019-03-28,8.34000015258789,8.539999961853027,8.109999656677246,8.270000457763672,8.270000457763672,627500
2019-03-29,8.34000015258789,8.520000457763672,8.180000305175781,8.300000190734863,8.300000190734863,334900
2019-04-01,8.359999656677246,8.65999984741211,8.359999656677246,8.489999771118164,8.489999771118164,227600
2019-04-02,8.489999771118164,8.640000343322754,8.430000305175781,8.619999885559082,8.619999885559082,241700
2019-04-03,8.710000038146973,8.833000183105469,8.619999885559082,8.640000343322754,8.640000343322754,304700
2019-04-04,8.6899995803833,8.819999694824219,8.640000343322754,8.739999771118164,8.739999771118164,159600
2019-04-05,8.779999732971191,8.869999885559082,8.6899995803833,8.84000015258789,8.84000015258789,296800
2019-04-08,8.770000457763672,9.045000076293945,8.739999771118164,9.029999732971191,9.029999732971191,201500
2019-04-09,9.0,9.255000114440918,8.869999885559082,8.920000076293945,8.920000076293945,346700
2019-04-10,8.920000076293945,9.149999618530273,8.869999885559082,8.899999618530273,8.899999618530273,233000
2019-04-11,8.899999618530273,8.975000381469727,8.767000198364258,8.890000343322754,8.890000343322754,233900
2019-04-12,8.949999809265137,9.0600004196167,8.819999694824219,8.850000381469727,8.850000381469727,160900
2019-04-15,8.850000381469727,8.899999618530273,8.642999649047852,8.829999923706055,8.829999923706055,150800
2019-04-16,9.15999984741211,9.345000267028809,9.041000366210938,9.220000267028809,9.220000267028809,318100
2019-04-17,9.260000228881836,9.59000015258789,9.220000267028809,9.510000228881836,9.510000228881836,573600
2019-04-18,9.479999542236328,9.729999542236328,9.3100004196167,9.520000457763672,9.520000457763672,1188600
2019-04-22,9.539999961853027,10.100000381469727,9.539999961853027,9.789999961853027,9.789999961853027,403000
2019-04-23,9.779999732971191,9.960000038146973,9.579999923706055,9.890000343322754,9.890000343322754,346400
2019-04-24,9.880000114440918,10.100000381469727,9.760000228881836,9.899999618530273,9.899999618530273,268600
2019-04-25,9.760000228881836,9.9399995803833,9.609999656677246,9.800000190734863,9.800000190734863,329200
2019-04-26,9.8100004196167,9.90999984741211,9.75,9.800000190734863,9.800000190734863,182200
2019-04-29,9.8100004196167,10.050000190734863,9.770000457763672,9.880000114440918,9.880000114440918,264200
2019-04-30,9.869999885559082,9.869999885559082,9.5,9.59000015258789,9.59000015258789,266000
2019-05-01,9.609999656677246,9.9399995803833,9.4350004196167,9.550000190734863,9.550000190734863,453200
2019-05-02,7.820000171661377,8.369999885559082,7.550000190734863,7.679999828338623,7.679999828338623,1790600
2019-05-03,7.690000057220459,7.800000190734863,7.114999771118164,7.400000095367432,7.400000095367432,1095500
2019-05-06,7.349999904632568,7.389999866485596,7.079999923706055,7.170000076293945,7.170000076293945,449700
2019-05-07,7.159999847412109,7.230000019073486,6.809999942779541,7.159999847412109,7.159999847412109,537500
2019-05-08,7.070000171661377,7.190000057220459,6.820000171661377,7.0,7.0,504500
2019-05-09,6.920000076293945,7.0,6.715000152587891,6.860000133514404,6.860000133514404,357600
2019-05-10,6.820000171661377,6.840000152587891,6.559999942779541,6.78000020980835,6.78000020980835,360300
2019-05-13,6.590000152587891,6.730000019073486,6.425000190734863,6.53000020980835,6.53000020980835,277600
2019-05-14,6.510000228881836,6.699999809265137,6.320000171661377,6.5,6.5,375000
2019-05-15,6.460000038146973,6.760000228881836,6.440999984741211,6.730000019073486,6.730000019073486,362800
2019-05-16,6.730000019073486,6.909999847412109,6.559999942779541,6.570000171661377,6.570000171661377,333700
2019-05-17,6.5,6.579999923706055,6.329999923706055,6.360000133514404,6.360000133514404,236500
2019-05-20,6.309999942779541,6.389999866485596,6.130000114440918,6.139999866485596,6.139999866485596,245700
2019-05-21,6.190000057220459,6.320000171661377,6.139999866485596,6.25,6.25,313100
2019-05-22,6.21999979019165,6.269999980926514,6.0,6.010000228881836,6.010000228881836,317800
2019-05-23,5.869999885559082,6.0,5.78000020980835,5.960000038146973,5.960000038146973,336800
2019-05-24,6.0,6.090000152587891,5.980000019073486,6.059999942779541,6.059999942779541,175300
2019-05-28,6.070000171661377,6.159999847412109,5.860000133514404,5.940000057220459,5.940000057220459,169000
2019-05-29,5.900000095367432,5.960000038146973,5.789999961853027,5.840000152587891,5.840000152587891,120300
2019-05-30,5.840000152587891,5.920000076293945,5.659999847412109,5.739999771118164,5.739999771118164,195600
2019-05-31,5.679999828338623,5.71999979019165,5.533999919891357,5.619999885559082,5.619999885559082,218800
2019-06-03,5.610000133514404,5.829999923706055,5.610000133514404,5.71999979019165,5.71999979019165,307400
2019-06-04,5.769999980926514,5.940000057220459,5.739999771118164,5.739999771118164,5.739999771118164,202500
2019-06-05,5.789999961853027,5.935999870300293,5.570000171661377,5.75,5.75,212700
2019-06-06,5.75,5.78000020980835,5.550000190734863,5.650000095367432,5.650000095367432,221400
2019-06-07,5.670000076293945,5.675000190734863,5.460000038146973,5.639999866485596,5.639999866485596,235200
2019-06-10,5.699999809265137,5.820000171661377,5.660999774932861,5.739999771118164,5.739999771118164,179800
2019-06-11,5.78000020980835,5.920000076293945,5.699999809265137,5.710000038146973,5.710000038146973,179600
2019-06-12,5.690000057220459,5.789999961853027,5.610000133514404,5.679999828338623,5.679999828338623,154800
2019-06-13,5.690000057220459,6.179999828338623,5.690000057220459,6.150000095367432,6.150000095367432,411800
2019-06-14,6.130000114440918,6.269999980926514,5.96999979019165,6.119999885559082,6.119999885559082,470800
2019-06-17,6.090000152587891,6.179999828338623,5.909999847412109,6.110000133514404,6.110000133514404,524300
2019-06-18,6.190000057220459,6.331999778747559,6.119999885559082,6.159999847412109,6.159999847412109,165500
2019-06-19,6.21999979019165,6.300000190734863,6.079999923706055,6.25,6.25,153900
2019-06-20,6.329999923706055,6.480000019073486,6.239999771118164,6.309999942779541,6.309999942779541,165800
2019-06-21,6.300000190734863,6.480000019073486,6.204999923706055,6.46999979019165,6.46999979019165,411200
2019-06-24,6.480000019073486,6.480000019073486,6.199999809265137,6.269999980926514,6.269999980926514,249400
2019-06-25,6.269999980926514,6.380000114440918,6.139999866485596,6.139999866485596,6.139999866485596,244600
2019-06-26,6.199999809265137,6.460000038146973,6.195000171661377,6.409999847412109,6.409999847412109,198700
2019-06-27,6.429999828338623,6.559999942779541,6.420000076293945,6.480000019073486,6.480000019073486,163900
2019-06-28,6.519999980926514,6.690000057220459,6.400000095367432,6.429999828338623,6.429999828338623,888400
2019-07-01,6.550000190734863,6.730000019073486,6.300000190734863,6.380000114440918,6.380000114440918,297600
2019-07-02,6.420000076293945,6.570000171661377,6.340000152587891,6.369999885559082,6.369999885559082,158200
2019-07-03,6.400000095367432,6.400000095367432,6.309999942779541,6.360000133514404,6.360000133514404,53300
2019-07-05,6.329999923706055,6.369999885559082,6.260000228881836,6.360000133514404,6.360000133514404,109800
2019-07-08,6.329999923706055,6.340000152587891,6.110000133514404,6.150000095367432,6.150000095367432,114600
2019-07-09,6.110000133514404,6.2129998207092285,6.050000190734863,6.170000076293945,6.170000076293945,125200
2019-07-10,6.21999979019165,6.53000020980835,6.179999828338623,6.400000095367432,6.400000095367432,222400
2019-07-11,6.380000114440918,6.429999828338623,6.21999979019165,6.380000114440918,6.380000114440918,138600
2019-07-12,6.420000076293945,6.650000095367432,6.409999847412109,6.599999904632568,6.599999904632568,213600
2019-07-15,6.610000133514404,6.800000190734863,6.480000019073486,6.78000020980835,6.78000020980835,688100
2019-07-16,6.789999961853027,6.810999870300293,6.460000038146973,6.5,6.5,292000
2019-07-17,6.5,6.619999885559082,6.389999866485596,6.570000171661377,6.570000171661377,167000
2019-07-18,6.570000171661377,6.800000190734863,6.550000190734863,6.630000114440918,6.630000114440918,184600
2019-07-19,6.599999904632568,6.710000038146973,6.570000171661377,6.639999866485596,6.639999866485596,137000
2019-07-22,6.639999866485596,6.75,6.550000190734863,6.610000133514404,6.610000133514404,190000
2019-07-23,6.630000114440918,6.739999771118164,6.559999942779541,6.650000095367432,6.650000095367432,203100
2019-07-24,6.630000114440918,6.840000152587891,6.579999923706055,6.829999923706055,6.829999923706055,169500
2019-07-25,6.849999904632568,6.849999904632568,6.599999904632568,6.659999847412109,6.659999847412109,141800
2019-07-26,6.690000057220459,6.820000171661377,6.599999904632568,6.769999980926514,6.769999980926514,379700
2019-07-29,6.800000190734863,6.909999847412109,6.679999828338623,6.829999923706055,6.829999923706055,210300
2019-07-30,6.239999771118164,6.590000152587891,5.769999980926514,6.340000152587891,6.340000152587891,839300
2019-07-31,6.380000114440918,6.650000095367432,6.320000171661377,6.590000152587891,6.590000152587891,397300
2019-08-01,6.690000057220459,7.889999866485596,6.679999828338623,7.610000133514404,7.610000133514404,1526300
2019-08-02,7.570000171661377,7.570000171661377,7.079999923706055,7.269999980926514,7.269999980926514,445000
2019-08-05,7.119999885559082,7.320000171661377,7.039999961853027,7.25,7.25,265700
2019-08-06,7.320000171661377,7.639999866485596,7.21999979019165,7.449999809265137,7.449999809265137,1215300
2019-08-07,7.440000057220459,7.570000171661377,7.25,7.260000228881836,7.260000228881836,543100
2019-08-08,7.269999980926514,7.40500020980835,7.190000057220459,7.239999771118164,7.239999771118164,240100
2019-08-09,7.190000057220459,7.21999979019165,6.920000076293945,7.010000228881836,7.010000228881836,284900
2019-08-12,7.0,7.070000171661377,6.909999847412109,6.949999809265137,6.949999809265137,194500
2019-08-13,6.909999847412109,7.019999980926514,6.593999862670898,6.820000171661377,6.820000171661377,289500
2019-08-14,6.75,6.75,6.360000133514404,6.420000076293945,6.420000076293945,390500
2019-08-15,6.420000076293945,6.440000057220459,6.105000019073486,6.230000019073486,6.230000019073486,214700
2019-08-16,6.300000190734863,6.599999904632568,6.21999979019165,6.369999885559082,6.369999885559082,296400
2019-08-19,6.46999979019165,6.570000171661377,6.360000133514404,6.389999866485596,6.389999866485596,207900
2019-08-20,6.389999866485596,6.559999942779541,6.260000228881836,6.369999885559082,6.369999885559082,171600
2019-08-21,6.389999866485596,6.599999904632568,6.349999904632568,6.510000228881836,6.510000228881836,207500
2019-08-22,6.510000228881836,6.670000076293945,6.420000076293945,6.539999961853027,6.539999961853027,107300
2019-08-23,6.510000228881836,6.510000228881836,6.050000190734863,6.110000133514404,6.110000133514404,389400
2019-08-26,6.170000076293945,6.188000202178955,5.710000038146973,5.75,5.75,220700
2019-08-27,5.760000228881836,5.789999961853027,5.380000114440918,5.429999828338623,5.429999828338623,339800
2019-08-28,5.429999828338623,5.690000057220459,5.349999904632568,5.599999904632568,5.599999904632568,348500
2019-08-29,5.639999866485596,5.789999961853027,5.519999980926514,5.659999847412109,5.659999847412109,265700
2019-08-30,5.699999809265137,5.840000152587891,5.650000095367432,5.760000228881836,5.760000228881836,120500
2019-09-03,5.679999828338623,5.840000152587891,5.619999885559082,5.739999771118164,5.739999771118164,199700
2019-09-04,5.809999942779541,5.929999828338623,5.639999866485596,5.880000114440918,5.880000114440918,184000
2019-09-05,5.940000057220459,6.300000190734863,5.929999828338623,6.25,6.25,292600
2019-09-06,6.25,6.449999809265137,6.25,6.440000057220459,6.440000057220459,99300
2019-09-09,6.449999809265137,6.75,6.409999847412109,6.75,6.75,240500
2019-09-10,6.71999979019165,7.099999904632568,6.670000076293945,6.989999771118164,6.989999771118164,414000
2019-09-11,7.039999961853027,7.369999885559082,6.889999866485596,7.28000020980835,7.28000020980835,431500
2019-09-12,7.269999980926514,7.289999961853027,6.900000095367432,7.199999809265137,7.199999809265137,368800
2019-09-13,7.130000114440918,7.409999847412109,7.130000114440918,7.389999866485596,7.389999866485596,160500
2019-09-16,7.360000133514404,7.619999885559082,7.230000019073486,7.489999771118164,7.489999771118164,153700
2019-09-17,7.440000057220459,7.440000057220459,7.139999866485596,7.239999771118164,7.239999771118164,159600
2019-09-18,7.21999979019165,7.300000190734863,7.090000152587891,7.260000228881836,7.260000228881836,154200
2019-09-19,7.329999923706055,7.429999828338623,7.125,7.190000057220459,7.190000057220459,201300
2019-09-20,7.199999809265137,7.550000190734863,7.199999809265137,7.489999771118164,7.489999771118164,422600
2019-09-23,7.400000095367432,7.519999980926514,7.360000133514404,7.5,7.5,266400
2019-09-24,7.5,7.510000228881836,7.21999979019165,7.28000020980835,7.28000020980835,202700
2019-09-25,7.269999980926514,7.510000228881836,7.170000076293945,7.46999979019165,7.46999979019165,234900
2019-09-26,7.460000038146973,7.677999973297119,7.260000228881836,7.554999828338623,7.554999828338623,285300
2019-09-27,7.570000171661377,7.900000095367432,7.570000171661377,7.815000057220459,7.815000057220459,329800
2019-09-30,7.829999923706055,7.96999979019165,7.690000057220459,7.855000019073486,7.855000019073486,396500
2019-10-01,7.869999885559082,8.029999732971191,7.059999942779541,7.119999885559082,7.119999885559082,265500
2019-10-02,7.059999942779541,7.059999942779541,6.46999979019165,6.590000152587891,6.590000152587891,248400
2019-10-03,6.579999923706055,6.730000019073486,6.25,6.269999980926514,6.269999980926514,237200
2019-10-04,6.300000190734863,6.329999923706055,6.039999961853027,6.215000152587891,6.215000152587891,177900
2019-10-07,6.210000038146973,6.46999979019165,6.210000038146973,6.360000133514404,6.360000133514404,145300
2019-10-08,6.320000171661377,6.369999885559082,6.160999774932861,6.255000114440918,6.255000114440918,153600
2019-10-09,6.320000171661377,6.380000114440918,6.179999828338623,6.275000095367432,6.275000095367432,121600
2019-10-10,6.289999961853027,6.519999980926514,6.239999771118164,6.474999904632568,6.474999904632568,150900
2019-10-11,6.559999942779541,6.775000095367432,6.445000171661377,6.550000190734863,6.550000190734863,130000
2019-10-14,6.539999961853027,6.570000171661377,6.425000190734863,6.5,6.5,121800
2019-10-15,6.5,6.769999980926514,6.489999771118164,6.670000076293945,6.670000076293945,125800
2019-10-16,6.659999847412109,6.940000057220459,6.590000152587891,6.789999961853027,6.789999961853027,138000
2019-10-17,6.820000171661377,7.090000152587891,6.820000171661377,7.059999942779541,7.059999942779541,189200
2019-10-18,7.0,7.079999923706055,6.840000152587891,6.869999885559082,6.869999885559082,130900
2019-10-21,6.889999866485596,7.135000228881836,6.849999904632568,7.119999885559082,7.119999885559082,135100
2019-10-22,7.079999923706055,7.420000076293945,7.074999809265137,7.329999923706055,7.329999923706055,125600
2019-10-23,7.340000152587891,7.340000152587891,7.03000020980835,7.090000152587891,7.090000152587891,298200
2019-10-24,6.840000152587891,7.03000020980835,6.349999904632568,6.510000228881836,6.510000228881836,311500
2019-10-25,6.480000019073486,6.610000133514404,6.400000095367432,6.489999771118164,6.489999771118164,155300
2019-10-28,6.46999979019165,6.929999828338623,6.453999996185303,6.849999904632568,6.849999904632568,256500
2019-10-29,6.789999961853027,6.789999961853027,6.650000095367432,6.679999828338623,6.679999828338623,161900
2019-10-30,6.659999847412109,6.690000057220459,6.5,6.599999904632568,6.599999904632568,151100
2019-10-31,6.559999942779541,6.75,6.474999904632568,6.71999979019165,6.71999979019165,212000
2019-11-01,4.860000133514404,5.119999885559082,4.199999809265137,4.300000190734863,4.300000190734863,3030300
2019-11-04,4.360000133514404,4.360000133514404,3.8499999046325684,3.9700000286102295,3.9700000286102295,1789200
2019-11-05,3.9100000858306885,4.010000228881836,3.8450000286102295,3.930000066757202,3.930000066757202,1639500
2019-11-06,3.940000057220459,3.940000057220459,3.640000104904175,3.7200000286102295,3.7200000286102295,1001800
2019-11-07,3.7799999713897705,3.7799999713897705,3.4700000286102295,3.6500000953674316,3.6500000953674316,852800
2019-11-08,3.680000066757202,3.7300000190734863,3.5299999713897705,3.5299999713897705,3.5299999713897705,352200
2019-11-11,3.559999942779541,3.5999999046325684,3.390000104904175,3.5199999809265137,3.5199999809265137,1916300
2019-11-12,3.569999933242798,3.5999999046325684,3.2799999713897705,3.4200000762939453,3.4200000762939453,1837600
2019-11-13,3.4100000858306885,3.440000057220459,3.0899999141693115,3.325000047683716,3.325000047683716,1326700
2019-11-14,3.369999885559082,3.5299999713897705,3.240000009536743,3.319999933242798,3.319999933242798,1381600
2019-11-15,3.3299999237060547,3.4600000381469727,3.299999952316284,3.4000000953674316,3.4000000953674316,726100
2019-11-18,3.3550000190734863,3.4600000381469727,3.25,3.3499999046325684,3.3499999046325684,921900
2019-11-19,3.309999942779541,3.440000057220459,3.2699999809265137,3.2899999618530273,3.2899999618530273,528000
2019-11-20,3.309999942779541,3.319999933242798,3.180000066757202,3.190000057220459,3.190000057220459,526700
2019-11-21,3.2100000381469727,3.2200000286102295,3.119999885559082,3.130000114440918,3.130000114440918,397700
2019-11-22,3.140000104904175,3.3499999046325684,3.119999885559082,3.309999942779541,3.309999942779541,502300
2019-11-25,3.3399999141693115,3.5799999237060547,3.309000015258789,3.5199999809265137,3.5199999809265137,412900
2019-11-26,3.509999990463257,3.609999895095825,3.450000047683716,3.509999990463257,3.509999990463257,486400
2019-11-27,3.509999990463257,3.7100000381469727,3.4600000381469727,3.6600000858306885,3.6600000858306885,595800
2019-11-29,3.6600000858306885,3.75,3.640000104904175,3.680000066757202,3.680000066757202,238800
2019-12-02,3.7200000286102295,3.7200000286102295,3.4800000190734863,3.5,3.5,736700
2019-12-03,3.450000047683716,3.630000114440918,3.4000000953674316,3.630000114440918,3.630000114440918,403400
2019-12-04,3.619999885559082,3.75,3.5899999141693115,3.680000066757202,3.680000066757202,522100
2019-12-05,3.680000066757202,3.700000047683716,3.5899999141693115,3.6500000953674316,3.6500000953674316,430400
2019-12-06,3.6500000953674316,3.7799999713897705,3.6500000953674316,3.700000047683716,3.700000047683716,305500
2019-12-09,3.7200000286102295,3.8499999046325684,3.569999933242798,3.5899999141693115,3.5899999141693115,460500
2019-12-10,3.559999942779541,3.700000047683716,3.5199999809265137,3.690000057220459,3.690000057220459,518900
2019-12-11,3.7100000381469727,3.759999990463257,3.6600000858306885,3.7100000381469727,3.7100000381469727,253700
2019-12-12,3.7100000381469727,3.930000066757202,3.7100000381469727,3.880000114440918,3.880000114440918,469300
2019-12-13,3.880000114440918,3.930000066757202,3.7899999618530273,3.8499999046325684,3.8499999046325684,397700
2019-12-16,3.859999895095825,4.190000057220459,3.859999895095825,4.014999866485596,4.014999866485596,1091100
2019-12-17,4.010000228881836,4.260000228881836,3.869999885559082,4.170000076293945,4.170000076293945,1147900
2019-12-18,4.190000057220459,4.269999980926514,4.054999828338623,4.079999923706055,4.079999923706055,1602500
2019-12-19,4.099999904632568,4.130000114440918,3.9700000286102295,3.990000009536743,3.990000009536743,880800
2019-12-20,3.9700000286102295,4.059999942779541,3.930000066757202,4.019999980926514,4.019999980926514,854600
2019-12-23,4.039999961853027,4.090000152587891,3.9600000381469727,4.010000228881836,4.010000228881836,303400
2019-12-24,4.03000020980835,4.159999847412109,4.0,4.159999847412109,4.159999847412109,184000
2019-12-26,4.170000076293945,4.179999828338623,3.940000057220459,3.9600000381469727,3.9600000381469727,589200
2019-12-27,3.9700000286102295,4.119999885559082,3.9700000286102295,4.059999942779541,4.059999942779541,359800
2019-12-30,4.090000152587891,4.164999961853027,4.03000020980835,4.050000190734863,4.050000190734863,323000
2019-12-31,4.0,4.159999847412109,4.0,4.090000152587891,4.090000152587891,414700
2020-01-02,4.139999866485596,4.179999828338623,3.9600000381469727,4.039999961853027,4.039999961853027,341700
2020-01-03,3.950000047683716,4.068999767303467,3.940999984741211,4.010000228881836,4.010000228881836,215800
2020-01-06,3.9700000286102295,4.190000057220459,3.950000047683716,4.130000114440918,4.130000114440918,691200
2020-01-07,4.099999904632568,4.179999828338623,4.010000228881836,4.010000228881836,4.010000228881836,282000
2020-01-08,3.990000009536743,4.039999961853027,3.8399999141693115,3.869999885559082,3.869999885559082,1457900
2020-01-09,3.869999885559082,3.990000009536743,3.75,3.9800000190734863,3.9800000190734863,583900
2020-01-10,3.9800000190734863,4.010000228881836,3.9100000858306885,3.950000047683716,3.950000047683716,661800
2020-01-13,3.930000066757202,4.0,3.8299999237060547,3.9700000286102295,3.9700000286102295,425900
2020-01-14,3.9700000286102295,4.150000095367432,3.9700000286102295,4.130000114440918,4.130000114440918,445600
2020-01-15,4.119999885559082,4.230000019073486,4.079999923706055,4.079999923706055,4.079999923706055,258800
2020-01-16,4.130000114440918,4.150000095367432,3.950000047683716,3.950000047683716,3.950000047683716,303800
2020-01-17,3.9800000190734863,3.9800000190734863,3.8399999141693115,3.859999895095825,3.859999895095825,249300
2020-01-21,3.809999942779541,3.825000047683716,3.6700000762939453,3.7699999809265137,3.7699999809265137,367400
2020-01-22,3.7799999713897705,3.9000000953674316,3.740000009536743,3.7799999713897705,3.7799999713897705,349100
2020-01-23,3.75,3.7799999713897705,3.5999999046325684,3.630000114440918,3.630000114440918,294000
2020-01-24,4.150000095367432,4.840000152587891,4.130000114440918,4.690000057220459,4.690000057220459,6783700
2020-01-27,4.730000019073486,4.739999771118164,4.269999980926514,4.639999866485596,4.639999866485596,1457200
2020-01-28,4.699999809265137,4.760000228881836,4.329999923706055,4.480000019073486,4.480000019073486,1193000
2020-01-29,4.480000019073486,4.533999919891357,4.050000190734863,4.159999847412109,4.159999847412109,889200
2020-01-30,4.090000152587891,4.150000095367432,3.9000000953674316,3.9600000381469727,3.9600000381469727,466400
2020-01-31,3.950000047683716,4.089000225067139,3.940000057220459,4.010000228881836,4.010000228881836,466400
2020-02-03,3.9800000190734863,4.059999942779541,3.9100000858306885,3.9600000381469727,3.9600000381469727,584700
2020-02-04,3.990000009536743,4.034999847412109,3.7799999713897705,3.819999933242798,3.819999933242798,303000
2020-02-05,3.8399999141693115,3.9700000286102295,3.7799999713897705,3.950000047683716,3.950000047683716,299500
2020-02-06,3.9700000286102295,3.9800000190734863,3.8299999237060547,3.8450000286102295,3.8450000286102295,556900
2020-02-07,3.8299999237060547,3.8299999237060547,3.680000066757202,3.7200000286102295,3.7200000286102295,270200
2020-02-10,3.7300000190734863,3.7799999713897705,3.6600000858306885,3.740000009536743,3.740000009536743,139500
2020-02-11,3.759999990463257,3.9700000286102295,3.7100000381469727,3.890000104904175,3.890000104904175,360500
2020-02-12,4.170000076293945,4.369999885559082,4.150000095367432,4.340000152587891,4.340000152587891,1239200
2020-02-13,4.289999961853027,4.309999942779541,4.139999866485596,4.21999979019165,4.21999979019165,327800
2020-02-14,4.25,4.574999809265137,4.210000038146973,4.489999771118164,4.489999771118164,542500
2020-02-18,4.53000020980835,4.570000171661377,4.28000020980835,4.349999904632568,4.349999904632568,326000
2020-02-19,4.380000114440918,4.480000019073486,4.349999904632568,4.440000057220459,4.440000057220459,523900
2020-02-20,4.46999979019165,4.670000076293945,4.340000152587891,4.610000133514404,4.610000133514404,1031500
2020-02-21,4.739999771118164,4.869999885559082,4.179999828338623,4.840000152587891,4.840000152587891,1345000
2020-02-24,4.699999809265137,4.699999809265137,4.110000133514404,4.199999809265137,4.199999809265137,959700
2020-02-25,4.309999942779541,4.309999942779541,3.930000066757202,3.990000009536743,3.990000009536743,675600
2020-02-26,3.990000009536743,4.059999942779541,3.555000066757202,3.5899999141693115,3.5899999141693115,742700
2020-02-27,3.5899999141693115,3.5999999046325684,3.2950000762939453,3.3499999046325684,3.3499999046325684,704400
2020-02-28,3.299999952316284,3.369999885559082,3.140000104904175,3.2799999713897705,3.2799999713897705,595700
2020-03-02,3.309999942779541,3.369999885559082,3.119999885559082,3.369999885559082,3.369999885559082,477200
2020-03-03,3.369999885559082,3.4700000286102295,3.200000047683716,3.3299999237060547,3.3299999237060547,484300
2020-03-04,3.4000000953674316,3.450000047683716,3.1500000953674316,3.450000047683716,3.450000047683716,352500
2020-03-05,3.319999933242798,3.359999895095825,3.200000047683716,3.2100000381469727,3.2100000381469727,411900
2020-03-06,3.0999999046325684,3.1600000858306885,2.9200000762939453,3.0,3.0,750000
2020-03-09,2.799999952316284,2.880000114440918,2.4700000286102295,2.640000104904175,2.640000104904175,534900
2020-03-10,2.7799999713897705,2.7799999713897705,2.3399999141693115,2.4000000953674316,2.4000000953674316,970200
2020-03-11,2.3399999141693115,2.4700000286102295,2.180000066757202,2.2300000190734863,2.2300000190734863,720700
2020-03-12,2.049999952316284,2.109999895095825,1.8700000047683716,1.9299999475479126,1.9299999475479126,806000
2020-03-13,1.899999976158142,2.3499999046325684,1.850000023841858,2.3399999141693115,2.3399999141693115,813300
2020-03-16,2.0,2.490000009536743,1.9800000190734863,2.200000047683716,2.200000047683716,629800
2020-03-17,2.240000009536743,2.359999895095825,2.009999990463257,2.3499999046325684,2.3499999046325684,760600
2020-03-18,2.200000047683716,2.5199999809265137,2.0199999809265137,2.359999895095825,2.359999895095825,459100
2020-03-19,2.319999933242798,2.559999942779541,2.2100000381469727,2.380000114440918,2.380000114440918,344400
2020-03-20,2.390000104904175,2.759999990463257,2.2899999618530273,2.5799999237060547,2.5799999237060547,807600
2020-03-23,2.5999999046325684,2.8399999141693115,2.4800000190734863,2.630000114440918,2.630000114440918,754400
2020-03-24,2.7899999618530273,3.049999952316284,2.7899999618530273,3.0199999809265137,3.0199999809265137,477800
2020-03-25,3.0199999809265137,3.575000047683716,2.990000009536743,3.4100000858306885,3.4100000858306885,1054500
2020-03-26,3.4700000286102295,3.680000066757202,3.4200000762939453,3.6600000858306885,3.6600000858306885,592300
2020-03-27,3.5199999809265137,3.565000057220459,3.2699999809265137,3.4200000762939453,3.4200000762939453,513900
2020-03-30,3.430000066757202,3.430000066757202,3.2100000381469727,3.4200000762939453,3.4200000762939453,210300
2020-03-31,3.4100000858306885,3.5299999713897705,3.309999942779541,3.5,3.5,600500
2020-04-01,3.380000114440918,3.4200000762939453,3.0299999713897705,3.1500000953674316,3.1500000953674316,396800
2020-04-02,3.0899999141693115,3.380000114440918,2.990000009536743,3.119999885559082,3.119999885559082,424300
2020-04-03,3.1500000953674316,3.3299999237060547,3.0999999046325684,3.2899999618530273,3.2899999618530273,303000
2020-04-06,3.4200000762939453,3.859999895095825,3.3550000190734863,3.7899999618530273,3.7899999618530273,336000
2020-04-07,3.9100000858306885,4.105000019073486,3.5,3.880000114440918,3.880000114440918,745600
2020-04-08,3.930000066757202,4.070000171661377,3.7750000953674316,3.950000047683716,3.950000047683716,356000
2020-04-09,4.090000152587891,4.119999885559082,3.9000000953674316,4.010000228881836,4.010000228881836,411200
2020-04-13,3.9800000190734863,4.0,3.640000104904175,3.6500000953674316,3.6500000953674316,225200
2020-04-14,3.6700000762939453,3.9600000381469727,3.4800000190734863,3.700000047683716,3.700000047683716,547600
2020-04-15,3.569999933242798,3.7799999713897705,3.369999885559082,3.559999942779541,3.559999942779541,468900
2020-04-16,3.569999933242798,3.859999895095825,3.569999933242798,3.740000009536743,3.740000009536743,389400
2020-04-17,3.859999895095825,4.320000171661377,3.8499999046325684,4.320000171661377,4.320000171661377,370800
2020-04-20,4.260000228881836,4.46999979019165,4.099999904632568,4.420000076293945,4.420000076293945,313200
2020-04-21,4.289999961853027,4.349999904632568,4.110000133514404,4.230000019073486,4.230000019073486,187800
2020-04-22,4.300000190734863,4.53000020980835,4.239999771118164,4.380000114440918,4.380000114440918,255900
2020-04-23,4.389999866485596,4.63700008392334,4.349999904632568,4.480000019073486,4.480000019073486,343700
2020-04-24,4.489999771118164,4.670000076293945,4.349999904632568,4.659999847412109,4.659999847412109,201800
2020-04-27,4.690000057220459,5.1519999504089355,4.570000171661377,4.960000038146973,4.960000038146973,570800
2020-04-28,5.090000152587891,5.099999904632568,4.781000137329102,4.920000076293945,4.920000076293945,354000
2020-04-29,5.039999961853027,5.210000038146973,4.968999862670898,5.170000076293945,5.170000076293945,435700
2020-04-30,5.25,5.630000114440918,5.085000038146973,5.130000114440918,5.130000114440918,482900
2020-05-01,4.610000133514404,4.809999942779541,4.105000019073486,4.664999961853027,4.664999961853027,900300
2020-05-04,4.590000152587891,4.789999961853027,4.190000057220459,4.199999809265137,4.199999809265137,338800
2020-05-05,4.21999979019165,4.478000164031982,4.070000171661377,4.119999885559082,4.119999885559082,360700
2020-05-06,4.179999828338623,4.275000095367432,3.7100000381469727,3.8499999046325684,3.8499999046325684,707900
2020-05-07,3.9600000381469727,4.289999961853027,3.875,4.039999961853027,4.039999961853027,596000
2020-05-08,4.079999923706055,4.230000019073486,4.03000020980835,4.059999942779541,4.059999942779541,391400
2020-05-11,4.019999980926514,4.150000095367432,3.890000104904175,3.930000066757202,3.930000066757202,472600
2020-05-12,4.0,4.28000020980835,4.0,4.090000152587891,4.090000152587891,394100
2020-05-13,4.079999923706055,4.090000152587891,3.869999885559082,3.9800000190734863,3.9800000190734863,544000
2020-05-14,3.880000114440918,4.014999866485596,3.799999952316284,3.930000066757202,3.930000066757202,681400
2020-05-15,3.9200000762939453,3.9800000190734863,3.7699999809265137,3.7899999618530273,3.7899999618530273,318100
2020-05-18,3.930000066757202,4.059999942779541,3.869999885559082,4.059999942779541,4.059999942779541,454600
2020-05-19,4.050000190734863,4.380000114440918,3.9800000190734863,4.21999979019165,4.21999979019165,300000
2020-05-20,4.300000190734863,4.380000114440918,4.130000114440918,4.199999809265137,4.199999809265137,368600
2020-05-21,4.179999828338623,4.340000152587891,4.150000095367432,4.210000038146973,4.210000038146973,143200
2020-05-22,4.210000038146973,4.269999980926514,4.099999904632568,4.139999866485596,4.139999866485596,169800
2020-05-26,4.300000190734863,4.335000038146973,4.03000020980835,4.050000190734863,4.050000190734863,427100
2020-05-27,4.110000133514404,4.440000057220459,4.019999980926514,4.400000095367432,4.400000095367432,237000
2020-05-28,4.46999979019165,4.570000171661377,4.349999904632568,4.380000114440918,4.380000114440918,233700
2020-05-29,4.349999904632568,4.360000133514404,4.139999866485596,4.349999904632568,4.349999904632568,215300
2020-06-01,4.340000152587891,4.639999866485596,4.340000152587891,4.559999942779541,4.559999942779541,234900
2020-06-02,4.599999904632568,4.650000095367432,4.380000114440918,4.460000038146973,4.460000038146973,181500
2020-06-03,4.510000228881836,4.809999942779541,4.510000228881836,4.760000228881836,4.760000228881836,456700
2020-06-04,4.769999980926514,5.039999961853027,4.699999809265137,4.730000019073486,4.730000019073486,299100
2020-06-05,4.829999923706055,5.0,4.820000171661377,4.920000076293945,4.920000076293945,319500
2020-06-08,4.960000038146973,5.010000228881836,4.829999923706055,4.869999885559082,4.869999885559082,223600
2020-06-09,4.760000228881836,4.789999961853027,4.599999904632568,4.659999847412109,4.659999847412109,213300
2020-06-10,4.630000114440918,4.860000133514404,4.539999961853027,4.710000038146973,4.710000038146973,273600
2020-06-11,4.510000228881836,4.519999980926514,4.230000019073486,4.260000228881836,4.260000228881836,262100
2020-06-12,4.429999828338623,4.5,4.130000114440918,4.239999771118164,4.239999771118164,176700
2020-06-15,4.119999885559082,4.289999961853027,4.010000228881836,4.179999828338623,4.179999828338623,251600
2020-06-16,4.329999923706055,4.449999809265137,4.269999980926514,4.440000057220459,4.440000057220459,160100
2020-06-17,4.449999809265137,4.449999809265137,4.25,4.28000020980835,4.28000020980835,167700
2020-06-18,4.269999980926514,4.650000095367432,4.179999828338623,4.5,4.5,1195100
2020-06-19,4.570000171661377,4.570000171661377,4.25,4.460000038146973,4.460000038146973,368100
2020-06-22,4.539999961853027,4.679999828338623,4.439000129699707,4.539999961853027,4.539999961853027,218900
2020-06-23,4.619999885559082,4.6519999504089355,4.360000133514404,4.380000114440918,4.380000114440918,221000
2020-06-24,4.300000190734863,4.300000190734863,3.950000047683716,3.950000047683716,3.950000047683716,336300
2020-06-25,3.950000047683716,3.9800000190734863,3.759999990463257,3.8499999046325684,3.8499999046325684,259100
2020-06-26,3.8299999237060547,4.019999980926514,3.819999933242798,3.930000066757202,3.930000066757202,468400
2020-06-29,3.9800000190734863,4.124000072479248,3.880000114440918,4.03000020980835,4.03000020980835,170300
2020-06-30,4.010000228881836,4.230000019073486,4.010000228881836,4.159999847412109,4.159999847412109,213000
2020-07-01,4.190000057220459,4.329999923706055,4.119999885559082,4.269999980926514,4.269999980926514,154400
2020-07-02,4.340000152587891,4.440000057220459,4.260000228881836,4.289999961853027,4.289999961853027,135300
2020-07-06,4.369999885559082,4.465000152587891,4.349999904632568,4.409999847412109,4.409999847412109,111400
2020-07-07,4.380000114440918,4.429999828338623,4.190000057220459,4.260000228881836,4.260000228881836,249000
2020-07-08,4.25,4.429999828338623,4.182000160217285,4.409999847412109,4.409999847412109,201800
2020-07-09,4.400000095367432,4.630000114440918,4.400000095367432,4.5,4.5,962900
2020-07-10,4.53000020980835,4.53000020980835,4.170000076293945,4.210000038146973,4.210000038146973,223800
2020-07-13,4.289999961853027,4.46999979019165,4.210000038146973,4.21999979019165,4.21999979019165,204200
2020-07-14,4.190000057220459,4.329999923706055,4.130000114440918,4.260000228881836,4.260000228881836,176900
2020-07-15,4.380000114440918,4.570000171661377,4.369999885559082,4.480000019073486,4.480000019073486,306700
2020-07-16,4.480000019073486,4.53000020980835,4.21999979019165,4.5,4.5,122600
2020-07-17,4.429999828338623,4.650000095367432,4.429999828338623,4.550000190734863,4.550000190734863,311500
2020-07-20,4.559999942779541,4.71999979019165,4.510000228881836,4.619999885559082,4.619999885559082,202600
2020-07-21,4.699999809265137,4.820000171661377,4.505000114440918,4.559999942779541,4.559999942779541,200200
2020-07-22,4.539999961853027,4.620999813079834,4.420000076293945,4.5,4.5,277900
2020-07-23,4.5,4.75,4.394999980926514,4.53000020980835,4.53000020980835,500400
2020-07-24,4.480000019073486,4.880000114440918,4.480000019073486,4.809999942779541,4.809999942779541,409800
2020-07-27,4.820000171661377,4.965000152587891,4.71999979019165,4.760000228881836,4.760000228881836,206200
2020-07-28,4.730000019073486,4.75,4.545000076293945,4.619999885559082,4.619999885559082,272800
2020-07-29,4.679999828338623,5.0,4.519999980926514,4.820000171661377,4.820000171661377,415300
2020-07-30,4.71999979019165,5.730000019073486,4.664999961853027,5.619999885559082,5.619999885559082,798200
2020-07-31,5.190000057220459,5.650000095367432,5.010000228881836,5.610000133514404,5.610000133514404,510000
2020-08-03,5.659999847412109,5.869999885559082,5.599999904632568,5.78000020980835,5.78000020980835,309700
2020-08-04,5.789999961853027,5.859000205993652,5.565000057220459,5.599999904632568,5.599999904632568,356100
2020-08-05,5.75,5.769999980926514,5.480000019073486,5.570000171661377,5.570000171661377,1181200
2020-08-06,5.590000152587891,6.099999904632568,5.590000152587891,6.03000020980835,6.03000020980835,391300
2020-08-07,5.980000019073486,6.03000020980835,5.869999885559082,5.989999771118164,5.989999771118164,296100
2020-08-10,6.019999980926514,6.034999847412109,5.679999828338623,5.699999809265137,5.699999809265137,195800
2020-08-11,5.75,5.840000152587891,5.440000057220459,5.480000019073486,5.480000019073486,177200
2020-08-12,5.53000020980835,5.767000198364258,5.369999885559082,5.449999809265137,5.449999809265137,151500
2020-08-13,5.420000076293945,5.53000020980835,5.320000171661377,5.465000152587891,5.465000152587891,260100
2020-08-14,5.449999809265137,5.449999809265137,5.119999885559082,5.25,5.25,214600
2020-08-17,5.289999961853027,5.289999961853027,5.070000171661377,5.230000019073486,5.230000019073486,274400
2020-08-18,5.269999980926514,5.269999980926514,5.070000171661377,5.159999847412109,5.159999847412109,187600
2020-08-19,5.179999828338623,5.289999961853027,5.130000114440918,5.144999980926514,5.144999980926514,298100
2020-08-20,5.090000152587891,5.203000068664551,5.050000190734863,5.110000133514404,5.110000133514404,255800
2020-08-21,5.099999904632568,5.099999904632568,4.869999885559082,5.010000228881836,5.010000228881836,567500
2020-08-24,5.070000171661377,5.079999923706055,4.610000133514404,4.739999771118164,4.739999771118164,265500
2020-08-25,4.75,4.789999961853027,4.510000228881836,4.75,4.75,235300
2020-08-26,4.769999980926514,4.849999904632568,4.539999961853027,4.559999942779541,4.559999942779541,170600
2020-08-27,4.619999885559082,4.769999980926514,4.369999885559082,4.400000095367432,4.400000095367432,241900
2020-08-28,4.400000095367432,4.40500020980835,4.230000019073486,4.269999980926514,4.269999980926514,214000
2020-08-31,4.289999961853027,4.736000061035156,4.264999866485596,4.550000190734863,4.550000190734863,935400
2020-09-01,4.53000020980835,4.760000228881836,4.510000228881836,4.699999809265137,4.699999809265137,314300
2020-09-02,4.789999961853027,5.190000057220459,4.699999809265137,5.184999942779541,5.184999942779541,363600
2020-09-03,5.25,5.25,4.625,4.800000190734863,4.800000190734863,482900
2020-09-04,4.820000171661377,4.829999923706055,4.5,4.539999961853027,4.539999961853027,249200
2020-09-08,4.5,4.5,4.230000019073486,4.239999771118164,4.239999771118164,217100
2020-09-09,4.619999885559082,4.619999885559082,4.239999771118164,4.369999885559082,4.369999885559082,223900
2020-09-10,4.380000114440918,4.485000133514404,4.329999923706055,4.340000152587891,4.340000152587891,135900
2020-09-11,4.380000114440918,4.380000114440918,4.190000057220459,4.269999980926514,4.269999980926514,162200
2020-09-14,4.300000190734863,4.5,4.28000020980835,4.460000038146973,4.460000038146973,185200
2020-09-15,4.460000038146973,4.699999809265137,4.440000057220459,4.559999942779541,4.559999942779541,181900
2020-09-16,4.570000171661377,4.579999923706055,4.289999961853027,4.340000152587891,4.340000152587891,404400
2020-09-17,4.300000190734863,4.425000190734863,4.179999828338623,4.289999961853027,4.289999961853027,501800
2020-09-18,4.340000152587891,4.355000019073486,4.110000133514404,4.260000228881836,4.260000228881836,558600
2020-09-21,4.179999828338623,4.179999828338623,3.9700000286102295,4.025000095367432,4.025000095367432,398800
2020-09-22,4.139999866485596,4.150000095367432,3.8299999237060547,4.085000038146973,4.085000038146973,438700
2020-09-23,4.050000190734863,4.099999904632568,3.8299999237060547,3.940000057220459,3.940000057220459,295400
2020-09-24,3.869999885559082,3.950000047683716,3.7799999713897705,3.799999952316284,3.799999952316284,250400
2020-09-25,3.7300000190734863,3.8299999237060547,3.6500000953674316,3.7799999713897705,3.7799999713897705,202700
2020-09-28,3.8499999046325684,4.019000053405762,3.8499999046325684,3.9100000858306885,3.9100000858306885,153000
2020-09-29,3.9200000762939453,4.130000114440918,3.9200000762939453,4.110000133514404,4.110000133514404,155500
2020-09-30,4.090000152587891,4.170000076293945,3.9600000381469727,4.03000020980835,4.03000020980835,189400
2020-10-01,4.090000152587891,4.119999885559082,3.990000009536743,4.079999923706055,4.079999923706055,133700
2020-10-02,4.0,4.110000133514404,3.950000047683716,4.099999904632568,4.099999904632568,143100
2020-10-05,4.139999866485596,4.309999942779541,4.130000114440918,4.260000228881836,4.260000228881836,208000
2020-10-06,4.309999942779541,4.460000038146973,4.110000133514404,4.130000114440918,4.130000114440918,179700
2020-10-07,4.199999809265137,4.28000020980835,4.179999828338623,4.269999980926514,4.269999980926514,197800
2020-10-08,4.25,4.380000114440918,4.119999885559082,4.360000133514404,4.360000133514404,206200
2020-10-09,4.380000114440918,4.585999965667725,4.380000114440918,4.53000020980835,4.53000020980835,205000
2020-10-12,4.510000228881836,4.574999809265137,4.260000228881836,4.360000133514404,4.360000133514404,139800
2020-10-13,4.349999904632568,4.489999771118164,4.199999809265137,4.300000190734863,4.300000190734863,103900
2020-10-14,4.320000171661377,4.35099983215332,4.210000038146973,4.230000019073486,4.230000019073486,143100
2020-10-15,4.199999809265137,4.369999885559082,4.119999885559082,4.340000152587891,4.340000152587891,145300
2020-10-16,4.349999904632568,4.5,4.28000020980835,4.429999828338623,4.429999828338623,180500
2020-10-19,4.480000019073486,4.579999923706055,4.289999961853027,4.320000171661377,4.320000171661377,257700
2020-10-20,4.380000114440918,4.449999809265137,4.300000190734863,4.309999942779541,4.309999942779541,102200
2020-10-21,4.329999923706055,4.440000057220459,4.289999961853027,4.349999904632568,4.349999904632568,105100
2020-10-22,4.349999904632568,4.650000095367432,4.324999809265137,4.59499979019165,4.59499979019165,539300
2020-10-23,4.590000152587891,4.590000152587891,4.400000095367432,4.539999961853027,4.539999961853027,134300
2020-10-26,4.510000228881836,4.949999809265137,4.460000038146973,4.900000095367432,4.900000095367432,633900
2020-10-27,4.900000095367432,4.921000003814697,4.349999904632568,4.550000190734863,4.550000190734863,529900
2020-10-28,4.5,4.679999828338623,4.329999923706055,4.610000133514404,4.610000133514404,658100
2020-10-29,4.710000038146973,4.949999809265137,4.539999961853027,4.639999866485596,4.639999866485596,661100
2020-10-30,4.639999866485596,4.690000057220459,4.150000095367432,4.170000076293945,4.170000076293945,212500
2020-11-02,4.199999809265137,4.235000133514404,4.03000020980835,4.210000038146973,4.210000038146973,204300
2020-11-03,4.230000019073486,4.400000095367432,4.21999979019165,4.320000171661377,4.320000171661377,248400
2020-11-04,4.28000020980835,4.480000019073486,4.28000020980835,4.349999904632568,4.349999904632568,182900
2020-11-05,4.449999809265137,4.599999904632568,4.369999885559082,4.5,4.5,207800
2020-11-06,4.5,4.510000228881836,4.380000114440918,4.420000076293945,4.420000076293945,86300
2020-11-09,4.427000045776367,4.900000095367432,4.427000045776367,4.550000190734863,4.550000190734863,326900
2020-11-10,4.550000190734863,4.71999979019165,4.389999866485596,4.590000152587891,4.590000152587891,234600
2020-11-11,4.599999904632568,4.61299991607666,4.449999809265137,4.570000171661377,4.570000171661377,232000
2020-11-12,4.539999961853027,4.610000133514404,4.449999809265137,4.489999771118164,4.489999771118164,192900
2020-11-13,4.559999942779541,4.690000057220459,4.5,4.639999866485596,4.639999866485596,141600
2020-11-16,4.769999980926514,4.869999885559082,4.71999979019165,4.769999980926514,4.769999980926514,249900
2020-11-17,4.75,4.880000114440918,4.684000015258789,4.789999961853027,4.789999961853027,272300
2020-11-18,4.820000171661377,5.150000095367432,4.739999771118164,5.070000171661377,5.070000171661377,375800
2020-11-19,5.099999904632568,5.130000114440918,4.800000190734863,5.010000228881836,5.010000228881836,149900
2020-11-20,4.96999979019165,5.409999847412109,4.925000190734863,5.360000133514404,5.360000133514404,415700
2020-11-23,5.349999904632568,5.519999980926514,5.070000171661377,5.400000095367432,5.400000095367432,305800
2020-11-24,5.480000019073486,5.690000057220459,5.380000114440918,5.460000038146973,5.460000038146973,273700
2020-11-25,5.440000057220459,5.639999866485596,5.289999961853027,5.489999771118164,5.489999771118164,173700
2020-11-27,5.46999979019165,5.539999961853027,5.159999847412109,5.239999771118164,5.239999771118164,156400
2020-11-30,5.25,5.389999866485596,5.150000095367432,5.309999942779541,5.309999942779541,185000
2020-12-01,5.369999885559082,5.639999866485596,5.329999923706055,5.400000095367432,5.400000095367432,220900
2020-12-02,5.400000095367432,5.829999923706055,5.355000019073486,5.78000020980835,5.78000020980835,394900
2020-12-03,5.809999942779541,6.639999866485596,5.767000198364258,6.385000228881836,6.385000228881836,1644600
2020-12-04,6.480000019073486,6.829999923706055,6.159999847412109,6.809999942779541,6.809999942779541,741600
2020-12-07,7.039999961853027,7.210000038146973,6.690000057220459,6.900000095367432,6.900000095367432,552300
2020-12-08,6.949999809265137,7.610000133514404,6.949999809265137,7.5,7.5,688700
2020-12-09,7.659999847412109,7.96999979019165,6.889999866485596,7.070000171661377,7.070000171661377,795800
2020-12-10,6.96999979019165,7.289999961853027,6.769999980926514,7.039999961853027,7.039999961853027,337600
2020-12-11,6.980000019073486,7.0,6.420000076293945,6.639999866485596,6.639999866485596,280000
2020-12-14,6.760000228881836,6.800000190734863,6.564000129699707,6.659999847412109,6.659999847412109,176100
2020-12-15,6.789999961853027,6.823999881744385,6.6020002365112305,6.789999961853027,6.789999961853027,164400
2020-12-16,6.730000019073486,6.889999866485596,6.53000020980835,6.570000171661377,6.570000171661377,208800
2020-12-17,6.610000133514404,6.989999771118164,6.579999923706055,6.869999885559082,6.869999885559082,216000
2020-12-18,6.829999923706055,6.9070000648498535,6.550000190734863,6.559999942779541,6.559999942779541,512000
2020-12-21,6.380000114440918,6.71999979019165,6.309999942779541,6.610000133514404,6.610000133514404,298600
2020-12-22,6.610000133514404,6.769999980926514,6.5289998054504395,6.659999847412109,6.659999847412109,256500
2020-12-23,6.71999979019165,6.750999927520752,6.449999809265137,6.480000019073486,6.480000019073486,254700
2020-12-24,6.440000057220459,6.730000019073486,6.420000076293945,6.639999866485596,6.639999866485596,173600
2020-12-28,6.75,7.065999984741211,6.599999904632568,6.610000133514404,6.610000133514404,303000
2020-12-29,6.599999904632568,6.709000110626221,6.329999923706055,6.429999828338623,6.429999828338623,186900
2020-12-30,6.440000057220459,6.610000133514404,6.260000228881836,6.389999866485596,6.389999866485596,226800
