Date,Open,High,Low,Close,Adj Close,Volume
2020-01-21,56.0,58.66600036621094,53.33000183105469,58.66600036621094,56.210445404052734,1200
2020-01-22,58.66600036621094,58.66600036621094,58.66600036621094,58.66600036621094,56.210445404052734,0
2020-01-23,58.619998931884766,58.650001525878906,54.0099983215332,57.54999923706055,55.14115524291992,1700
2020-01-24,58.66999816894531,58.66999816894531,58.66999816894531,58.66999816894531,56.21427536010742,200
2020-01-27,56.5,56.5,56.400001525878906,56.400001525878906,54.03929138183594,200
2020-01-28,56.400001525878906,56.400001525878906,56.400001525878906,56.400001525878906,54.03929138183594,0
2020-01-29,56.400001525878906,56.400001525878906,56.400001525878906,56.400001525878906,54.03929138183594,0
2020-01-30,56.400001525878906,56.400001525878906,56.400001525878906,56.400001525878906,54.03929138183594,0
2020-01-31,56.400001525878906,56.400001525878906,56.400001525878906,56.400001525878906,54.03929138183594,0
2020-02-03,56.400001525878906,56.400001525878906,56.400001525878906,56.400001525878906,54.03929138183594,0
2020-02-04,56.400001525878906,56.400001525878906,56.400001525878906,56.400001525878906,54.03929138183594,0
2020-02-05,56.400001525878906,56.400001525878906,56.400001525878906,56.400001525878906,54.03929138183594,0
2020-02-06,56.400001525878906,56.400001525878906,56.400001525878906,56.400001525878906,54.03929138183594,0
2020-02-07,55.499000549316406,55.499000549316406,55.499000549316406,55.499000549316406,53.17600631713867,300
2020-02-10,55.499000549316406,55.499000549316406,55.499000549316406,55.499000549316406,53.17600631713867,0
2020-02-11,52.75,54.45000076293945,52.75,54.45000076293945,52.1709098815918,500
2020-02-12,54.45000076293945,54.45000076293945,54.45000076293945,54.45000076293945,52.1709098815918,0
2020-02-13,56.97600173950195,56.97600173950195,56.97600173950195,56.97600173950195,54.59117889404297,100
2020-02-14,56.97600173950195,56.97600173950195,56.97600173950195,56.97600173950195,54.59117889404297,0
2020-02-18,56.97600173950195,56.97600173950195,56.97600173950195,56.97600173950195,54.59117889404297,0
2020-02-19,60.400001525878906,60.400001525878906,58.987998962402344,58.987998962402344,56.51896667480469,500
2020-02-20,58.987998962402344,58.987998962402344,58.987998962402344,58.987998962402344,56.51896667480469,0
2020-02-21,60.5,60.5,60.5,60.5,57.967674255371094,100
2020-02-24,60.5,60.5,60.5,60.5,57.967674255371094,0
2020-02-25,60.5,60.5,60.5,60.5,57.967674255371094,0
2020-02-26,60.5,60.75,59.36800003051758,60.25,57.728145599365234,2100
2020-02-27,54.5,57.0,54.5,56.72700119018555,54.352603912353516,1200
2020-02-28,56.874000549316406,57.821998596191406,54.75,57.084999084472656,54.695613861083984,2100
2020-03-02,57.084999084472656,57.084999084472656,57.084999084472656,57.084999084472656,54.695613861083984,0
2020-03-03,57.084999084472656,57.084999084472656,57.084999084472656,57.084999084472656,54.695613861083984,0
2020-03-04,57.084999084472656,57.084999084472656,57.084999084472656,57.084999084472656,54.695613861083984,0
2020-03-05,57.084999084472656,57.084999084472656,57.084999084472656,57.084999084472656,54.695613861083984,0
2020-03-06,59.06999969482422,59.06999969482422,59.06999969482422,59.06999969482422,56.5975341796875,100
2020-03-09,59.06999969482422,59.06999969482422,59.06999969482422,59.06999969482422,56.5975341796875,0
2020-03-10,59.06999969482422,59.06999969482422,59.06999969482422,59.06999969482422,56.5975341796875,0
2020-03-11,61.45000076293945,61.5,61.45000076293945,61.5,58.925819396972656,400200
2020-03-12,61.5,61.5,61.5,61.5,58.925819396972656,0
2020-03-13,61.5,61.5,61.5,61.5,58.925819396972656,0
2020-03-16,61.5,61.5,61.5,61.5,58.925819396972656,0
2020-03-17,63.189998626708984,63.189998626708984,57.29999923706055,57.29999923706055,54.90161895751953,600
2020-03-18,57.29999923706055,57.29999923706055,57.29999923706055,57.29999923706055,54.90161895751953,0
2020-03-19,55.0,55.0,55.0,55.0,52.6978874206543,300
2020-03-20,55.0,55.0,55.0,55.0,52.6978874206543,0
2020-03-23,54.900001525878906,54.900001525878906,54.900001525878906,54.900001525878906,52.60207748413086,500
2020-03-24,54.900001525878906,54.900001525878906,54.900001525878906,54.900001525878906,52.60207748413086,0
2020-03-25,54.81999969482422,55.0,54.81999969482422,55.0,52.6978874206543,400
2020-03-26,59.9900016784668,59.9900016784668,59.9900016784668,59.9900016784668,57.479026794433594,300
2020-03-27,59.9900016784668,59.9900016784668,59.9900016784668,59.9900016784668,57.479026794433594,0
2020-03-30,59.9900016784668,59.9900016784668,59.9900016784668,59.9900016784668,57.479026794433594,0
2020-03-31,59.9900016784668,59.9900016784668,59.9900016784668,59.9900016784668,57.479026794433594,0
2020-04-01,56.04499816894531,56.04499816894531,56.04499816894531,56.04499816894531,53.69915008544922,200
2020-04-02,55.470001220703125,55.470001220703125,50.47999954223633,50.47999954223633,48.3670768737793,400
2020-04-03,50.47999954223633,50.47999954223633,50.47999954223633,50.47999954223633,48.3670768737793,0
2020-04-06,50.47999954223633,50.47999954223633,50.47999954223633,50.47999954223633,48.3670768737793,0
2020-04-07,50.47999954223633,50.47999954223633,50.47999954223633,50.47999954223633,48.3670768737793,0
2020-04-08,49.75,52.279998779296875,49.75,52.279998779296875,50.091739654541016,300
2020-04-09,53.474998474121094,53.84000015258789,53.474998474121094,53.84000015258789,51.58644485473633,600
2020-04-13,53.84000015258789,53.84000015258789,53.84000015258789,53.84000015258789,51.58644485473633,0
2020-04-14,53.84000015258789,53.84000015258789,53.84000015258789,53.84000015258789,51.58644485473633,0
2020-04-15,53.77000045776367,53.77000045776367,53.494998931884766,53.494998931884766,51.255882263183594,900
2020-04-16,53.494998931884766,53.494998931884766,53.494998931884766,53.494998931884766,51.255882263183594,0
2020-04-17,55.290000915527344,55.290000915527344,55.290000915527344,55.290000915527344,52.97574996948242,100
2020-04-20,51.029998779296875,53.72999954223633,51.029998779296875,53.72999954223633,51.481048583984375,800
2020-04-21,54.10900115966797,54.10900115966797,54.10900115966797,54.10900115966797,51.84418487548828,200
2020-04-22,54.10900115966797,54.10900115966797,54.10900115966797,54.10900115966797,51.84418487548828,0
2020-04-23,51.060001373291016,51.060001373291016,51.060001373291016,51.060001373291016,48.92280197143555,100
2020-04-24,53.18000030517578,53.18000030517578,53.18000030517578,53.18000030517578,50.95406723022461,300
2020-04-27,53.18000030517578,53.18000030517578,53.18000030517578,53.18000030517578,50.95406723022461,0
2020-04-28,52.650001525878906,52.650001525878906,52.650001525878906,52.650001525878906,50.44625473022461,400
2020-04-29,51.29999923706055,52.08000183105469,51.29999923706055,51.70000076293945,49.536014556884766,600
2020-04-30,54.79999923706055,57.29999923706055,54.79999923706055,55.0,52.6978874206543,1000
2020-05-01,55.0,55.0,55.0,55.0,52.6978874206543,0
2020-05-04,55.0,55.0,55.0,55.0,52.6978874206543,0
2020-05-05,53.0099983215332,55.7599983215332,53.0099983215332,55.494998931884766,53.17217254638672,700
2020-05-06,55.494998931884766,55.494998931884766,55.494998931884766,55.494998931884766,53.17217254638672,0
2020-05-07,55.494998931884766,55.494998931884766,55.494998931884766,55.494998931884766,53.17217254638672,0
2020-05-08,55.494998931884766,55.494998931884766,55.494998931884766,55.494998931884766,53.17217254638672,0
2020-05-11,55.494998931884766,55.494998931884766,55.494998931884766,55.494998931884766,53.17217254638672,0
2020-05-12,58.79999923706055,58.79999923706055,58.79999923706055,58.79999923706055,56.33883285522461,200
2020-05-13,58.79999923706055,58.79999923706055,58.79999923706055,58.79999923706055,56.33883285522461,0
2020-05-14,62.040000915527344,62.040000915527344,53.70000076293945,58.95000076293945,56.4825553894043,600
2020-05-15,54.869998931884766,54.869998931884766,54.869998931884766,54.869998931884766,52.573326110839844,100
2020-05-18,54.869998931884766,54.869998931884766,54.869998931884766,54.869998931884766,52.573326110839844,0
2020-05-19,54.869998931884766,54.869998931884766,54.869998931884766,54.869998931884766,52.573326110839844,0
2020-05-20,54.869998931884766,54.869998931884766,54.869998931884766,54.869998931884766,52.573326110839844,0
2020-05-21,53.810001373291016,53.810001373291016,53.810001373291016,53.810001373291016,51.55769729614258,200
2020-05-22,53.810001373291016,53.810001373291016,53.810001373291016,53.810001373291016,51.55769729614258,0
2020-05-26,58.27000045776367,58.27000045776367,58.27000045776367,58.27000045776367,55.831016540527344,100
2020-05-27,58.27000045776367,58.27000045776367,58.27000045776367,58.27000045776367,55.831016540527344,0
2020-05-28,58.27000045776367,58.27000045776367,58.27000045776367,58.27000045776367,55.831016540527344,0
2020-05-29,58.27000045776367,58.27000045776367,58.27000045776367,58.27000045776367,55.831016540527344,0
2020-06-01,54.400001525878906,54.400001525878906,54.400001525878906,54.400001525878906,52.12300109863281,100
2020-06-02,54.400001525878906,54.400001525878906,54.400001525878906,54.400001525878906,52.12300109863281,0
2020-06-03,54.400001525878906,54.400001525878906,54.400001525878906,54.400001525878906,52.12300109863281,0
2020-06-04,54.400001525878906,54.400001525878906,54.400001525878906,54.400001525878906,52.12300109863281,0
2020-06-05,58.04999923706055,58.04999923706055,58.04999923706055,58.04999923706055,55.6202278137207,300
2020-06-08,58.04999923706055,58.04999923706055,58.04999923706055,58.04999923706055,55.6202278137207,0
2020-06-09,57.58000183105469,57.58000183105469,57.58000183105469,57.58000183105469,55.169898986816406,100
2020-06-10,57.58000183105469,57.58000183105469,57.58000183105469,57.58000183105469,55.169898986816406,0
2020-06-11,57.970001220703125,58.0,57.970001220703125,58.0,55.572322845458984,600
2020-06-12,57.933998107910156,59.33000183105469,57.933998107910156,59.33000183105469,56.84665298461914,1100
2020-06-15,59.33000183105469,59.33000183105469,59.33000183105469,59.33000183105469,56.84665298461914,0
2020-06-16,59.33000183105469,59.33000183105469,59.33000183105469,59.33000183105469,56.84665298461914,0
2020-06-17,59.33000183105469,59.33000183105469,59.33000183105469,59.33000183105469,56.84665298461914,0
2020-06-18,59.33000183105469,59.33000183105469,59.33000183105469,59.33000183105469,56.84665298461914,0
2020-06-19,59.33000183105469,59.33000183105469,59.33000183105469,59.33000183105469,56.84665298461914,0
2020-06-22,59.33000183105469,59.33000183105469,59.33000183105469,59.33000183105469,56.84665298461914,0
2020-06-23,59.33000183105469,59.33000183105469,59.33000183105469,59.33000183105469,56.84665298461914,0
2020-06-24,59.33000183105469,59.33000183105469,59.33000183105469,59.33000183105469,56.84665298461914,0
2020-06-25,56.0099983215332,56.0099983215332,55.9900016784668,55.9900016784668,53.646453857421875,500
2020-06-26,55.9900016784668,55.9900016784668,55.9900016784668,55.9900016784668,53.646453857421875,0
2020-06-29,55.9900016784668,55.9900016784668,55.9900016784668,55.9900016784668,53.646453857421875,0
2020-06-30,57.0099983215332,57.0099983215332,57.0099983215332,57.0099983215332,54.99207305908203,100
2020-07-01,57.0099983215332,57.0099983215332,57.0099983215332,57.0099983215332,54.99207305908203,0
2020-07-02,54.5099983215332,54.5099983215332,54.5099983215332,54.5099983215332,52.58055877685547,100
2020-07-06,54.5099983215332,54.5099983215332,54.5099983215332,54.5099983215332,52.58055877685547,0
2020-07-07,55.04999923706055,55.04999923706055,55.04999923706055,55.04999923706055,53.10144805908203,100
2020-07-08,57.79999923706055,60.65999984741211,56.36000061035156,60.0,57.87623596191406,1000
2020-07-09,60.0,60.0,60.0,60.0,57.87623596191406,0
2020-07-10,60.0,60.0,60.0,60.0,57.87623596191406,0
2020-07-13,64.04000091552734,64.04000091552734,56.7599983215332,56.7599983215332,54.750919342041016,900
2020-07-14,57.5,59.060001373291016,57.5,59.060001373291016,56.96951675415039,500
2020-07-15,59.060001373291016,59.060001373291016,59.060001373291016,59.060001373291016,56.96951675415039,0
2020-07-16,57.0,57.0,57.0,57.0,54.98242950439453,100
2020-07-17,57.0,57.0,57.0,57.0,54.98242950439453,0
2020-07-20,55.29999923706055,57.57500076293945,55.29999923706055,57.57500076293945,55.53707504272461,200
2020-07-21,57.57500076293945,57.57500076293945,57.57500076293945,57.57500076293945,55.53707504272461,0
2020-07-22,57.57500076293945,57.57500076293945,57.57500076293945,57.57500076293945,55.53707504272461,0
2020-07-23,61.59000015258789,61.59000015258789,61.59000015258789,61.59000015258789,59.40996170043945,100
2020-07-24,61.59000015258789,61.59000015258789,61.59000015258789,61.59000015258789,59.40996170043945,0
2020-07-27,61.56999969482422,61.56999969482422,61.56999969482422,61.56999969482422,59.39066696166992,100
2020-07-28,59.099998474121094,59.099998474121094,59.099998474121094,59.099998474121094,57.008094787597656,100
2020-07-29,59.099998474121094,59.099998474121094,59.099998474121094,59.099998474121094,57.008094787597656,0
2020-07-30,64.79000091552734,64.79000091552734,58.630001068115234,58.630001068115234,56.55472946166992,800
2020-07-31,59.8650016784668,62.70000076293945,57.0,61.45000076293945,59.2749137878418,1100
2020-08-03,61.45000076293945,61.45000076293945,61.45000076293945,61.45000076293945,59.2749137878418,0
2020-08-04,61.45000076293945,61.45000076293945,61.45000076293945,61.45000076293945,59.2749137878418,0
2020-08-05,61.45000076293945,61.45000076293945,61.45000076293945,61.45000076293945,59.2749137878418,0
2020-08-06,61.45000076293945,61.45000076293945,61.45000076293945,61.45000076293945,59.2749137878418,0
2020-08-07,61.279998779296875,61.279998779296875,61.279998779296875,61.279998779296875,59.110931396484375,300
2020-08-10,64.94999694824219,64.94999694824219,61.900001525878906,62.0,59.805442810058594,1200
2020-08-11,62.0,62.0,62.0,62.0,59.805442810058594,0
2020-08-12,62.0,62.0,62.0,62.0,59.805442810058594,0
2020-08-13,62.0,62.0,62.0,62.0,59.805442810058594,0
2020-08-14,62.0,62.0,62.0,62.0,59.805442810058594,0
2020-08-17,62.0,62.0,62.0,62.0,59.805442810058594,0
2020-08-18,62.0,62.0,62.0,62.0,59.805442810058594,0
2020-08-19,62.0,62.0,62.0,62.0,59.805442810058594,0
2020-08-20,62.0,62.0,62.0,62.0,59.805442810058594,0
2020-08-21,62.0,62.0,62.0,62.0,59.805442810058594,0
2020-08-24,61.54999923706055,61.54999923706055,61.54999923706055,61.54999923706055,59.371376037597656,100
2020-08-25,61.54999923706055,61.54999923706055,61.54999923706055,61.54999923706055,59.371376037597656,0
2020-08-26,61.54999923706055,61.54999923706055,61.54999923706055,61.54999923706055,59.371376037597656,0
2020-08-27,61.54999923706055,61.54999923706055,61.54999923706055,61.54999923706055,59.371376037597656,0
2020-08-28,61.54999923706055,61.54999923706055,61.54999923706055,61.54999923706055,59.371376037597656,0
2020-08-31,57.25,57.25,57.25,57.25,55.223575592041016,200
2020-09-01,57.25,57.25,57.25,57.25,55.223575592041016,0
2020-09-02,57.25,57.25,57.25,57.25,55.223575592041016,0
2020-09-03,57.25,57.25,57.25,57.25,55.223575592041016,0
2020-09-04,57.25,57.25,57.25,57.25,55.223575592041016,0
2020-09-08,57.25,57.25,57.25,57.25,55.223575592041016,0
2020-09-09,57.25,57.25,57.25,57.25,55.223575592041016,0
2020-09-10,57.25,57.25,57.25,57.25,55.223575592041016,0
2020-09-11,57.25,57.25,57.25,57.25,55.223575592041016,0
2020-09-14,61.06999969482422,61.06999969482422,61.06999969482422,61.06999969482422,58.90836715698242,100
2020-09-15,61.06999969482422,61.06999969482422,61.06999969482422,61.06999969482422,58.90836715698242,0
2020-09-16,60.0,60.0,60.0,60.0,57.87623596191406,100
2020-09-17,60.0,60.0,60.0,60.0,57.87623596191406,100
2020-09-18,60.0,60.0,60.0,60.0,57.87623596191406,0
2020-09-21,60.0,60.0,60.0,60.0,57.87623596191406,0
2020-09-22,62.0,62.0,62.0,62.0,59.805442810058594,100
2020-09-23,57.79999923706055,57.79999923706055,57.79999923706055,57.79999923706055,55.75410842895508,200
2020-09-24,57.79999923706055,57.79999923706055,57.79999923706055,57.79999923706055,55.75410842895508,0
2020-09-25,57.79999923706055,57.79999923706055,57.79999923706055,57.79999923706055,55.75410842895508,0
2020-09-28,61.349998474121094,61.349998474121094,61.349998474121094,61.349998474121094,59.17845153808594,100
2020-09-29,61.349998474121094,61.349998474121094,61.349998474121094,61.349998474121094,59.17845153808594,0
2020-09-30,57.7599983215332,57.7599983215332,57.7599983215332,57.7599983215332,56.706382751464844,200
2020-10-01,57.7599983215332,57.7599983215332,57.7599983215332,57.7599983215332,56.706382751464844,0
2020-10-02,57.7599983215332,57.7599983215332,57.7599983215332,57.7599983215332,56.706382751464844,0
2020-10-05,57.7599983215332,57.7599983215332,57.7599983215332,57.7599983215332,56.706382751464844,0
2020-10-06,57.880001068115234,57.880001068115234,57.880001068115234,57.880001068115234,56.82419967651367,100
2020-10-07,57.880001068115234,57.880001068115234,57.880001068115234,57.880001068115234,56.82419967651367,0
2020-10-08,59.07400131225586,59.07400131225586,59.07400131225586,59.07400131225586,57.99641799926758,200
2020-10-09,59.07400131225586,59.07400131225586,59.07400131225586,59.07400131225586,57.99641799926758,0
2020-10-12,57.77000045776367,57.77000045776367,57.77000045776367,57.77000045776367,56.71620559692383,100
2020-10-13,59.189998626708984,59.29999923706055,59.189998626708984,59.29999923706055,58.21828842163086,300
2020-10-14,61.97999954223633,61.97999954223633,61.97999954223633,61.97999954223633,60.84941101074219,100
2020-10-15,61.97999954223633,61.97999954223633,61.97999954223633,61.97999954223633,60.84941101074219,0
2020-10-16,61.97999954223633,61.97999954223633,61.97999954223633,61.97999954223633,60.84941101074219,0
2020-10-19,62.97999954223633,62.97999954223633,62.97999954223633,62.97999954223633,61.8311653137207,100
2020-10-20,62.97999954223633,62.97999954223633,62.97999954223633,62.97999954223633,61.8311653137207,0
2020-10-21,62.97999954223633,62.97999954223633,62.97999954223633,62.97999954223633,61.8311653137207,0
2020-10-22,62.869998931884766,62.869998931884766,62.869998931884766,62.869998931884766,61.72317123413086,100
2020-10-23,62.869998931884766,62.869998931884766,62.869998931884766,62.869998931884766,61.72317123413086,700
2020-10-26,62.869998931884766,62.869998931884766,62.869998931884766,62.869998931884766,61.72317123413086,0
2020-10-27,62.869998931884766,62.869998931884766,62.869998931884766,62.869998931884766,61.72317123413086,0
2020-10-28,62.869998931884766,62.869998931884766,62.869998931884766,62.869998931884766,61.72317123413086,0
2020-10-29,60.0,60.0,60.0,60.0,58.905521392822266,500
2020-10-30,60.0,60.0,60.0,60.0,58.905521392822266,0
2020-11-02,60.0,60.0,60.0,60.0,58.905521392822266,0
2020-11-03,61.20000076293945,61.20000076293945,60.97200012207031,60.97200012207031,59.85979461669922,600
2020-11-04,60.97200012207031,60.97200012207031,60.97200012207031,60.97200012207031,59.85979461669922,0
2020-11-05,60.97200012207031,60.97200012207031,60.97200012207031,60.97200012207031,59.85979461669922,0
2020-11-06,60.97200012207031,60.97200012207031,60.97200012207031,60.97200012207031,59.85979461669922,0
2020-11-09,65.0,65.0,65.0,65.0,63.8143196105957,200
2020-11-10,65.0,65.0,65.0,65.0,63.8143196105957,0
2020-11-11,65.0,65.0,65.0,65.0,63.8143196105957,0
2020-11-12,65.0,65.0,65.0,65.0,63.8143196105957,0
2020-11-13,65.0,65.0,65.0,65.0,63.8143196105957,0
2020-11-16,65.0,65.0,65.0,65.0,63.8143196105957,0
2020-11-17,65.0,65.0,65.0,65.0,63.8143196105957,0
2020-11-18,65.0,65.0,65.0,65.0,63.8143196105957,0
2020-11-19,65.0,65.0,65.0,65.0,63.8143196105957,0
2020-11-20,65.0,65.0,65.0,65.0,63.8143196105957,0
2020-11-23,65.0,65.0,65.0,65.0,63.8143196105957,0
2020-11-24,59.02000045776367,60.0,58.310001373291016,60.0,58.905521392822266,500
2020-11-25,61.9900016784668,61.9900016784668,61.9900016784668,61.9900016784668,60.85922622680664,100
2020-11-27,61.9900016784668,61.9900016784668,61.9900016784668,61.9900016784668,60.85922622680664,0
2020-11-30,61.9900016784668,61.9900016784668,61.9900016784668,61.9900016784668,60.85922622680664,0
2020-12-01,61.9900016784668,61.9900016784668,61.9900016784668,61.9900016784668,60.85922622680664,0
2020-12-02,61.9900016784668,61.9900016784668,61.9900016784668,61.9900016784668,60.85922622680664,200
2020-12-03,62.16999816894531,62.16999816894531,62.16999816894531,62.16999816894531,61.03593826293945,100
2020-12-04,62.16999816894531,62.16999816894531,62.16999816894531,62.16999816894531,61.03593826293945,0
2020-12-07,59.560001373291016,60.16999816894531,59.560001373291016,60.16999816894531,59.07242202758789,700
2020-12-08,61.4640007019043,61.4640007019043,61.4640007019043,61.4640007019043,60.34282302856445,200
2020-12-09,65.20999908447266,65.20999908447266,65.20999908447266,65.20999908447266,64.0204849243164,100
2020-12-10,64.7699966430664,64.7699966430664,64.7699966430664,64.7699966430664,63.5885124206543,200
2020-12-11,64.7699966430664,64.7699966430664,64.7699966430664,64.7699966430664,63.5885124206543,0
2020-12-14,64.7699966430664,64.7699966430664,64.7699966430664,64.7699966430664,63.5885124206543,0
2020-12-15,64.7699966430664,64.7699966430664,64.7699966430664,64.7699966430664,63.5885124206543,0
2020-12-16,62.375,67.94999694824219,62.375,67.94999694824219,66.71050262451172,1318400
2020-12-17,67.94999694824219,67.94999694824219,67.94999694824219,67.94999694824219,66.71050262451172,0
2020-12-18,67.38999938964844,67.38999938964844,64.19999694824219,64.19999694824219,63.02891159057617,400
2020-12-21,63.349998474121094,63.349998474121094,59.52000045776367,61.275001525878906,60.15726852416992,800
2020-12-22,61.83000183105469,61.83000183105469,59.720001220703125,59.75,58.66008758544922,400
2020-12-23,60.310001373291016,60.310001373291016,60.310001373291016,60.310001373291016,59.209869384765625,100
2020-12-24,60.310001373291016,60.310001373291016,60.310001373291016,60.310001373291016,59.209869384765625,0
2020-12-28,60.310001373291016,60.310001373291016,60.310001373291016,60.310001373291016,59.209869384765625,0
2020-12-29,60.310001373291016,60.310001373291016,60.310001373291016,60.310001373291016,59.209869384765625,0
2020-12-30,60.310001373291016,60.310001373291016,60.310001373291016,60.310001373291016,59.5803337097168,0
