Date,Open,High,Low,Close,Adj Close,Volume
2017-11-14,22.5,22.5,22.25,22.25,22.25,900
2017-11-15,25.0,25.0,25.0,25.0,25.0,100
2017-11-16,25.299999237060547,25.299999237060547,21.8799991607666,21.8799991607666,21.8799991607666,1400
2017-11-17,21.8799991607666,21.8799991607666,21.8799991607666,21.8799991607666,21.8799991607666,0
2017-11-20,21.8799991607666,21.8799991607666,21.8799991607666,21.8799991607666,21.8799991607666,0
2017-11-21,21.8799991607666,21.8799991607666,21.8799991607666,21.8799991607666,21.8799991607666,0
2017-11-22,21.8799991607666,21.8799991607666,21.8799991607666,21.8799991607666,21.8799991607666,0
2017-11-24,21.8799991607666,21.8799991607666,21.8799991607666,21.8799991607666,21.8799991607666,0
2017-11-27,21.8799991607666,21.8799991607666,21.8799991607666,21.8799991607666,21.8799991607666,0
2017-11-28,21.8700008392334,22.25,21.450000762939453,21.450000762939453,21.450000762939453,3300
2017-11-29,21.450000762939453,24.399999618530273,21.350000381469727,23.219999313354492,23.219999313354492,5301200
2017-11-30,23.25,23.780000686645508,21.75,22.0,22.0,1549300
2017-12-01,22.100000381469727,22.559999465942383,21.299999237060547,21.299999237060547,21.299999237060547,1106100
2017-12-04,21.5,21.549999237060547,19.549999237060547,19.610000610351562,19.610000610351562,1370000
2017-12-05,19.670000076293945,21.219999313354492,19.510000228881836,21.049999237060547,21.049999237060547,748400
2017-12-06,21.110000610351562,21.610000610351562,20.399999618530273,21.200000762939453,21.200000762939453,778900
2017-12-07,21.0,24.530000686645508,21.0,23.850000381469727,23.850000381469727,1077900
2017-12-08,25.18000030517578,26.670000076293945,23.5,25.3700008392334,25.3700008392334,938400
2017-12-11,25.0,30.239999771118164,25.0,29.5,29.5,1628500
2017-12-12,29.559999465942383,30.530000686645508,28.299999237060547,29.81999969482422,29.81999969482422,1018200
2017-12-13,29.829999923706055,30.68000030517578,28.739999771118164,28.899999618530273,28.899999618530273,444500
2017-12-14,28.899999618530273,29.5,27.739999771118164,27.790000915527344,27.790000915527344,601500
2017-12-15,27.75,29.290000915527344,27.670000076293945,28.719999313354492,28.719999313354492,1860600
2017-12-18,29.200000762939453,30.93000030517578,29.139999389648438,29.850000381469727,29.850000381469727,1020900
2017-12-19,29.989999771118164,32.47999954223633,29.989999771118164,32.29999923706055,32.29999923706055,616600
2017-12-20,32.13999938964844,32.970001220703125,31.739999771118164,32.5,32.5,570500
2017-12-21,32.5,34.11000061035156,32.5,33.880001068115234,33.880001068115234,285300
2017-12-22,34.08000183105469,36.40999984741211,33.68000030517578,35.97999954223633,35.97999954223633,451200
2017-12-26,36.279998779296875,38.79999923706055,36.0,38.630001068115234,38.630001068115234,531500
2017-12-27,38.70000076293945,41.88999938964844,37.47999954223633,37.869998931884766,37.869998931884766,839000
2017-12-28,38.06999969482422,39.72999954223633,36.56999969482422,39.099998474121094,39.099998474121094,968300
2017-12-29,39.150001525878906,40.060001373291016,38.689998626708984,39.5099983215332,39.5099983215332,333500
2018-01-02,39.349998474121094,39.36000061035156,38.310001373291016,38.439998626708984,38.439998626708984,471500
2018-01-03,38.470001220703125,38.97999954223633,37.0,37.0099983215332,37.0099983215332,525700
2018-01-04,37.0,37.61000061035156,35.470001220703125,35.709999084472656,35.709999084472656,517500
2018-01-05,35.689998626708984,35.970001220703125,34.790000915527344,35.0,35.0,577300
2018-01-08,34.7599983215332,35.7400016784668,32.880001068115234,34.689998626708984,34.689998626708984,652800
2018-01-09,34.619998931884766,36.09000015258789,33.88999938964844,34.099998474121094,34.099998474121094,356000
2018-01-10,33.970001220703125,34.619998931884766,33.5,34.25,34.25,329500
2018-01-11,34.540000915527344,35.73500061035156,34.45000076293945,35.58000183105469,35.58000183105469,600600
2018-01-12,35.79999923706055,36.209999084472656,34.84000015258789,35.04999923706055,35.04999923706055,310800
2018-01-16,34.9900016784668,35.34000015258789,31.5,32.529998779296875,32.529998779296875,581100
2018-01-17,32.529998779296875,36.119998931884766,32.529998779296875,35.7400016784668,35.7400016784668,426700
2018-01-18,35.65999984741211,36.060001373291016,34.130001068115234,34.279998779296875,34.279998779296875,413000
2018-01-19,33.95000076293945,35.880001068115234,33.577999114990234,35.08000183105469,35.08000183105469,180400
2018-01-22,35.11000061035156,37.43000030517578,34.9900016784668,37.29999923706055,37.29999923706055,491900
2018-01-23,37.29999923706055,37.900001525878906,34.13999938964844,35.61000061035156,35.61000061035156,328100
2018-01-24,36.060001373291016,36.290000915527344,34.39500045776367,35.58000183105469,35.58000183105469,170100
2018-01-25,35.66999816894531,35.91999816894531,33.45000076293945,34.27000045776367,34.27000045776367,252800
2018-01-26,34.20000076293945,35.93000030517578,34.040000915527344,34.68000030517578,34.68000030517578,174100
2018-01-29,34.34000015258789,35.279998779296875,32.560001373291016,33.15999984741211,33.15999984741211,268300
2018-01-30,32.810001373291016,33.09000015258789,31.06999969482422,31.59000015258789,31.59000015258789,415500
2018-01-31,31.739999771118164,33.150001525878906,31.299999237060547,32.43000030517578,32.43000030517578,249900
2018-02-01,32.439998626708984,34.040000915527344,31.709999084472656,33.849998474121094,33.849998474121094,331300
2018-02-02,33.380001068115234,33.79999923706055,30.700000762939453,30.979999542236328,30.979999542236328,474300
2018-02-05,30.829999923706055,32.5,30.399999618530273,31.030000686645508,31.030000686645508,457200
2018-02-06,29.780000686645508,32.47999954223633,29.100000381469727,31.68000030517578,31.68000030517578,516300
2018-02-07,31.780000686645508,31.899999618530273,29.6200008392334,29.790000915527344,29.790000915527344,295900
2018-02-08,29.649999618530273,30.25,27.989999771118164,28.25,28.25,423600
2018-02-09,28.59000015258789,29.790000915527344,27.10099983215332,29.389999389648438,29.389999389648438,409200
2018-02-12,29.399999618530273,31.700000762939453,29.040000915527344,31.350000381469727,31.350000381469727,443500
2018-02-13,31.280000686645508,33.06999969482422,30.899999618530273,32.209999084472656,32.209999084472656,294300
2018-02-14,31.719999313354492,33.599998474121094,31.700000762939453,32.9900016784668,32.9900016784668,252900
2018-02-15,33.36000061035156,33.790000915527344,31.81999969482422,32.06999969482422,32.06999969482422,149700
2018-02-16,31.959999084472656,33.79999923706055,31.549999237060547,32.56999969482422,32.56999969482422,439400
2018-02-20,32.93000030517578,33.459999084472656,31.479999542236328,31.860000610351562,31.860000610351562,543700
2018-02-21,31.959999084472656,34.29999923706055,31.959999084472656,32.619998931884766,32.619998931884766,387900
2018-02-22,32.689998626708984,33.9900016784668,31.634000778198242,32.72999954223633,32.72999954223633,250400
2018-02-23,33.040000915527344,33.72999954223633,32.20000076293945,32.97999954223633,32.97999954223633,263800
2018-02-26,33.34000015258789,33.7400016784668,32.23500061035156,32.84000015258789,32.84000015258789,289800
2018-02-27,32.619998931884766,33.290000915527344,31.959999084472656,32.209999084472656,32.209999084472656,302600
2018-02-28,32.40999984741211,33.224998474121094,31.489999771118164,31.690000534057617,31.690000534057617,302500
2018-03-01,31.489999771118164,32.779998779296875,30.6200008392334,31.549999237060547,31.549999237060547,332200
2018-03-02,31.09000015258789,32.46500015258789,30.5,31.690000534057617,31.690000534057617,328300
2018-03-05,31.520000457763672,32.25,31.020000457763672,31.18000030517578,31.18000030517578,344500
2018-03-06,31.5,32.400001525878906,31.299999237060547,32.08000183105469,32.08000183105469,345100
2018-03-07,31.81999969482422,33.40999984741211,31.729999542236328,31.899999618530273,31.899999618530273,339800
2018-03-08,32.27000045776367,32.59000015258789,31.280000686645508,31.459999084472656,31.459999084472656,396800
2018-03-09,31.579999923706055,31.969999313354492,28.600000381469727,28.690000534057617,28.690000534057617,573900
2018-03-12,28.690000534057617,30.25,27.75,29.829999923706055,29.829999923706055,517900
2018-03-13,29.90999984741211,30.149999618530273,28.649999618530273,29.469999313354492,29.469999313354492,632200
2018-03-14,29.670000076293945,31.09000015258789,29.670000076293945,29.969999313354492,29.969999313354492,401400
2018-03-15,30.239999771118164,30.6200008392334,29.709999084472656,29.829999923706055,29.829999923706055,570900
2018-03-16,29.829999923706055,31.6200008392334,29.829999923706055,31.040000915527344,31.040000915527344,1966700
2018-03-19,31.049999237060547,31.309999465942383,29.700000762939453,30.18000030517578,30.18000030517578,606100
2018-03-20,29.8799991607666,30.53499984741211,29.709999084472656,29.93000030517578,29.93000030517578,458900
2018-03-21,30.059999465942383,30.440000534057617,29.704999923706055,29.8700008392334,29.8700008392334,496800
2018-03-22,29.639999389648438,30.75,29.31999969482422,29.420000076293945,29.420000076293945,410500
2018-03-23,29.579999923706055,30.260000228881836,29.079999923706055,29.469999313354492,29.469999313354492,334000
2018-03-26,29.56999969482422,30.34000015258789,29.260000228881836,29.420000076293945,29.420000076293945,252800
2018-03-27,29.450000762939453,29.65999984741211,26.989999771118164,27.450000762939453,27.450000762939453,328600
2018-03-28,27.420000076293945,27.940000534057617,26.6200008392334,27.729999542236328,27.729999542236328,555000
2018-03-29,27.760000228881836,29.959999084472656,27.760000228881836,28.969999313354492,28.969999313354492,321700
2018-04-02,28.90999984741211,29.280000686645508,28.25,28.5,28.5,223800
2018-04-03,28.780000686645508,30.15999984741211,28.780000686645508,29.18000030517578,29.18000030517578,369400
2018-04-04,28.829999923706055,29.280000686645508,28.729999542236328,29.06999969482422,29.06999969482422,224100
2018-04-05,29.290000915527344,30.045000076293945,29.030000686645508,29.829999923706055,29.829999923706055,392900
2018-04-06,29.899999618530273,30.299999237060547,29.014999389648438,29.350000381469727,29.350000381469727,278200
2018-04-09,29.440000534057617,30.15999984741211,29.280000686645508,29.739999771118164,29.739999771118164,279400
2018-04-10,30.139999389648438,31.299999237060547,30.06999969482422,31.100000381469727,31.100000381469727,258800
2018-04-11,30.989999771118164,31.764999389648438,30.920000076293945,31.139999389648438,31.139999389648438,353400
2018-04-12,31.170000076293945,31.299999237060547,30.8799991607666,30.940000534057617,30.940000534057617,159300
2018-04-13,31.0,31.6200008392334,30.760000228881836,31.520000457763672,31.520000457763672,301300
2018-04-16,31.68000030517578,32.0,29.15999984741211,30.56999969482422,30.56999969482422,978900
2018-04-17,30.770000457763672,32.67499923706055,30.520000457763672,32.38999938964844,32.38999938964844,759200
2018-04-18,32.63999938964844,34.88999938964844,32.5,34.650001525878906,34.650001525878906,954000
2018-04-19,34.7599983215332,36.16999816894531,34.361000061035156,34.90999984741211,34.90999984741211,346700
2018-04-20,34.869998931884766,34.970001220703125,33.540000915527344,33.90999984741211,33.90999984741211,159800
2018-04-23,33.88999938964844,34.880001068115234,32.71099853515625,33.869998931884766,33.869998931884766,198900
2018-04-24,33.810001373291016,33.810001373291016,31.149999618530273,32.540000915527344,32.540000915527344,385500
2018-04-25,32.33000183105469,33.63999938964844,32.150001525878906,32.880001068115234,32.880001068115234,224000
2018-04-26,33.02000045776367,33.689998626708984,32.40999984741211,32.619998931884766,32.619998931884766,182100
2018-04-27,32.52000045776367,32.83000183105469,30.84000015258789,31.209999084472656,31.209999084472656,350600
2018-04-30,31.06999969482422,32.04999923706055,31.059999465942383,31.450000762939453,31.450000762939453,268200
2018-05-01,31.1299991607666,31.25,30.270000457763672,30.860000610351562,30.860000610351562,480600
2018-05-02,31.020000457763672,32.099998474121094,30.6299991607666,31.34000015258789,31.34000015258789,953400
2018-05-03,32.150001525878906,35.38999938964844,32.11000061035156,35.29999923706055,35.29999923706055,850700
2018-05-04,35.439998626708984,39.29999923706055,35.18000030517578,39.08000183105469,39.08000183105469,615800
2018-05-07,39.29999923706055,41.220001220703125,38.98899841308594,40.209999084472656,40.209999084472656,729400
2018-05-08,40.119998931884766,42.810001373291016,39.810001373291016,42.029998779296875,42.029998779296875,833700
2018-05-09,42.41999816894531,43.5,41.650001525878906,42.959999084472656,42.959999084472656,824200
2018-05-10,43.08000183105469,43.45500183105469,41.880001068115234,42.650001525878906,42.650001525878906,929600
2018-05-11,42.4900016784668,43.810001373291016,42.43000030517578,42.90999984741211,42.90999984741211,595100
2018-05-14,43.130001068115234,44.59000015258789,43.130001068115234,43.90999984741211,43.90999984741211,802100
2018-05-15,44.02000045776367,44.58000183105469,42.7400016784668,44.310001373291016,44.310001373291016,671300
2018-05-16,44.06999969482422,44.849998474121094,42.970001220703125,43.220001220703125,43.220001220703125,317900
2018-05-17,43.779998779296875,44.54999923706055,43.279998779296875,43.90999984741211,43.90999984741211,385200
2018-05-18,43.7599983215332,44.290000915527344,43.29999923706055,43.869998931884766,43.869998931884766,385200
2018-05-21,44.09000015258789,44.439998626708984,43.400001525878906,44.380001068115234,44.380001068115234,258400
2018-05-22,43.90999984741211,45.68000030517578,43.525001525878906,43.59000015258789,43.59000015258789,175300
2018-05-23,43.40999984741211,43.40999984741211,42.279998779296875,42.5099983215332,42.5099983215332,283000
2018-05-24,42.5099983215332,42.86000061035156,41.939998626708984,42.369998931884766,42.369998931884766,557100
2018-05-25,42.16999816894531,42.43000030517578,40.939998626708984,41.45000076293945,41.45000076293945,511700
2018-05-29,41.43000030517578,43.40999984741211,41.43000030517578,43.18000030517578,43.18000030517578,257900
2018-05-30,43.45000076293945,44.959999084472656,43.2400016784668,43.66999816894531,43.66999816894531,214100
2018-05-31,43.599998474121094,44.584999084472656,43.599998474121094,44.060001373291016,44.060001373291016,239700
2018-06-01,44.38999938964844,45.904998779296875,44.255001068115234,45.70000076293945,45.70000076293945,722900
2018-06-04,46.34000015258789,47.119998931884766,44.7599983215332,45.529998779296875,45.529998779296875,349200
2018-06-05,45.54999923706055,48.119998931884766,45.54999923706055,47.349998474121094,47.349998474121094,536900
2018-06-06,47.4900016784668,47.650001525878906,45.130001068115234,46.70000076293945,46.70000076293945,360900
2018-06-07,46.959999084472656,47.47999954223633,45.314998626708984,45.91999816894531,45.91999816894531,560000
2018-06-08,46.34000015258789,46.560001373291016,43.709999084472656,44.13999938964844,44.13999938964844,378400
2018-06-11,43.97999954223633,44.849998474121094,43.790000915527344,43.810001373291016,43.810001373291016,393200
2018-06-12,43.93000030517578,44.369998931884766,42.939998626708984,43.150001525878906,43.150001525878906,515500
2018-06-13,43.380001068115234,44.849998474121094,42.619998931884766,43.5,43.5,703600
2018-06-14,43.810001373291016,44.400001525878906,43.05500030517578,43.97999954223633,43.97999954223633,439700
2018-06-15,42.88999938964844,43.099998474121094,42.0099983215332,42.22999954223633,42.22999954223633,986700
2018-06-18,42.060001373291016,42.59000015258789,41.40999984741211,41.849998474121094,41.849998474121094,375800
2018-06-19,41.400001525878906,41.709999084472656,40.099998474121094,40.84000015258789,40.84000015258789,514400
2018-06-20,41.060001373291016,41.45000076293945,40.04499816894531,41.119998931884766,41.119998931884766,304000
2018-06-21,40.939998626708984,41.40999984741211,40.779998779296875,41.08000183105469,41.08000183105469,358300
2018-06-22,42.099998474121094,42.38399887084961,40.38999938964844,41.83000183105469,41.83000183105469,2606500
2018-06-25,41.40999984741211,41.650001525878906,40.06999969482422,40.369998931884766,40.369998931884766,419800
2018-06-26,40.70000076293945,42.5,40.470001220703125,41.650001525878906,41.650001525878906,604800
2018-06-27,41.70000076293945,41.70000076293945,37.4900016784668,37.61000061035156,37.61000061035156,836700
2018-06-28,37.5,38.439998626708984,36.38999938964844,38.349998474121094,38.349998474121094,729900
2018-06-29,38.400001525878906,38.83000183105469,38.150001525878906,38.349998474121094,38.349998474121094,426900
2018-07-02,37.88999938964844,38.810001373291016,37.540000915527344,38.29999923706055,38.29999923706055,567700
2018-07-03,38.5,39.334999084472656,38.380001068115234,39.06999969482422,39.06999969482422,107800
2018-07-05,39.27000045776367,39.874000549316406,39.040000915527344,39.849998474121094,39.849998474121094,230600
2018-07-06,39.540000915527344,40.0,38.290000915527344,38.310001373291016,38.310001373291016,353000
2018-07-09,38.40999984741211,39.209999084472656,38.20500183105469,39.060001373291016,39.060001373291016,329900
2018-07-10,39.5,39.70500183105469,38.2400016784668,39.04999923706055,39.04999923706055,380500
2018-07-11,38.56999969482422,39.2400016784668,37.849998474121094,39.119998931884766,39.119998931884766,469200
2018-07-12,39.29999923706055,39.29999923706055,38.119998931884766,38.349998474121094,38.349998474121094,557200
2018-07-13,38.279998779296875,39.849998474121094,38.279998779296875,39.439998626708984,39.439998626708984,513000
2018-07-16,40.0,40.849998474121094,39.63999938964844,40.560001373291016,40.560001373291016,612900
2018-07-17,40.529998779296875,40.983001708984375,39.95000076293945,40.83000183105469,40.83000183105469,437200
2018-07-18,40.790000915527344,42.150001525878906,40.560001373291016,41.970001220703125,41.970001220703125,468900
2018-07-19,42.20000076293945,42.4900016784668,41.470001220703125,42.04999923706055,42.04999923706055,705500
2018-07-20,42.09000015258789,42.7599983215332,41.900001525878906,42.25,42.25,660900
2018-07-23,42.06999969482422,42.459999084472656,41.15999984741211,41.38999938964844,41.38999938964844,337900
2018-07-24,41.869998931884766,42.505001068115234,41.060001373291016,41.29999923706055,41.29999923706055,328000
2018-07-25,41.209999084472656,41.220001220703125,39.529998779296875,40.849998474121094,40.849998474121094,364000
2018-07-26,40.779998779296875,42.40999984741211,40.7400016784668,42.2599983215332,42.2599983215332,302300
2018-07-27,42.08000183105469,42.2400016784668,40.4900016784668,40.970001220703125,40.970001220703125,270700
2018-07-30,41.09000015258789,41.4900016784668,40.150001525878906,40.470001220703125,40.470001220703125,217400
2018-07-31,40.560001373291016,41.970001220703125,40.380001068115234,41.630001068115234,41.630001068115234,330900
2018-08-01,41.27000045776367,41.959999084472656,40.599998474121094,41.58000183105469,41.58000183105469,352900
2018-08-02,41.529998779296875,47.349998474121094,41.130001068115234,46.380001068115234,46.380001068115234,714800
2018-08-03,46.2599983215332,46.560001373291016,43.939998626708984,44.7599983215332,44.7599983215332,517300
2018-08-06,44.47999954223633,45.619998931884766,43.939998626708984,44.720001220703125,44.720001220703125,365500
2018-08-07,45.06999969482422,45.349998474121094,44.040000915527344,45.0,45.0,628200
2018-08-08,45.060001373291016,45.25,43.67499923706055,44.349998474121094,44.349998474121094,390900
2018-08-09,44.13999938964844,44.51499938964844,43.400001525878906,43.709999084472656,43.709999084472656,317200
2018-08-10,43.43000030517578,44.06999969482422,42.68199920654297,43.43000030517578,43.43000030517578,582700
2018-08-13,43.2599983215332,43.91999816894531,42.459999084472656,43.06999969482422,43.06999969482422,184300
2018-08-14,43.220001220703125,44.25,42.665000915527344,43.43000030517578,43.43000030517578,173700
2018-08-15,43.060001373291016,43.63999938964844,41.279998779296875,41.58000183105469,41.58000183105469,233000
2018-08-16,41.97999954223633,42.47999954223633,41.349998474121094,41.7599983215332,41.7599983215332,196600
2018-08-17,41.63999938964844,43.2400016784668,41.63999938964844,42.709999084472656,42.709999084472656,207700
2018-08-20,42.7599983215332,43.27000045776367,42.58000183105469,42.970001220703125,42.970001220703125,121200
2018-08-21,43.16999816894531,43.5,42.40999984741211,42.5,42.5,203800
2018-08-22,42.56999969482422,42.689998626708984,41.150001525878906,41.81999969482422,41.81999969482422,194100
2018-08-23,41.86000061035156,41.970001220703125,41.04999923706055,41.59000015258789,41.59000015258789,206100
2018-08-24,41.630001068115234,42.470001220703125,41.119998931884766,41.5099983215332,41.5099983215332,126600
2018-08-27,41.709999084472656,42.81999969482422,41.709999084472656,42.13999938964844,42.13999938964844,201800
2018-08-28,42.34000015258789,42.45000076293945,40.68000030517578,41.189998626708984,41.189998626708984,216000
2018-08-29,41.150001525878906,42.470001220703125,40.88999938964844,42.25,42.25,218700
2018-08-30,42.119998931884766,43.060001373291016,40.9900016784668,41.900001525878906,41.900001525878906,226100
2018-08-31,41.689998626708984,43.34000015258789,41.2599983215332,42.900001525878906,42.900001525878906,261400
2018-09-04,42.5,43.79499816894531,42.209999084472656,43.5,43.5,296600
2018-09-05,43.52000045776367,43.97999954223633,42.209999084472656,42.599998474121094,42.599998474121094,219100
2018-09-06,42.68000030517578,44.61000061035156,42.68000030517578,44.13999938964844,44.13999938964844,250200
2018-09-07,44.0099983215332,44.79999923706055,43.51499938964844,43.9900016784668,43.9900016784668,187600
2018-09-10,44.779998779296875,46.2599983215332,44.16999816894531,45.970001220703125,45.970001220703125,453900
2018-09-11,45.38999938964844,45.90999984741211,44.310001373291016,45.7599983215332,45.7599983215332,241200
2018-09-12,45.849998474121094,47.4900016784668,45.7400016784668,47.02000045776367,47.02000045776367,354000
2018-09-13,46.599998474121094,47.20000076293945,43.09000015258789,43.369998931884766,43.369998931884766,574800
2018-09-14,43.599998474121094,43.779998779296875,41.2400016784668,41.380001068115234,41.380001068115234,486400
2018-09-17,41.47999954223633,42.84000015258789,41.220001220703125,41.65999984741211,41.65999984741211,438300
2018-09-18,41.79999923706055,42.7599983215332,41.29999923706055,41.93000030517578,41.93000030517578,373400
2018-09-19,41.970001220703125,42.39500045776367,41.36000061035156,41.529998779296875,41.529998779296875,314600
2018-09-20,41.58000183105469,42.290000915527344,41.27000045776367,42.2599983215332,42.2599983215332,391200
2018-09-21,42.040000915527344,42.349998474121094,40.599998474121094,41.68000030517578,41.68000030517578,1371500
2018-09-24,41.81999969482422,42.29999923706055,41.59000015258789,42.15999984741211,42.15999984741211,301700
2018-09-25,42.22999954223633,42.7400016784668,41.79999923706055,42.27000045776367,42.27000045776367,397200
2018-09-26,42.25,42.70000076293945,41.04999923706055,41.310001373291016,41.310001373291016,552000
2018-09-27,41.5,42.400001525878906,40.75,41.380001068115234,41.380001068115234,448000
2018-09-28,41.290000915527344,41.70000076293945,39.88999938964844,40.810001373291016,40.810001373291016,470500
2018-10-01,40.91999816894531,41.52000045776367,40.27000045776367,40.7599983215332,40.7599983215332,297700
2018-10-02,40.61000061035156,41.86000061035156,40.56999969482422,40.939998626708984,40.939998626708984,424000
2018-10-03,40.849998474121094,41.36000061035156,38.891998291015625,39.83000183105469,39.83000183105469,762200
2018-10-04,39.61000061035156,40.02000045776367,38.54999923706055,39.54999923706055,39.54999923706055,533100
2018-10-05,39.70000076293945,40.22999954223633,39.25,39.7400016784668,39.7400016784668,210400
2018-10-08,39.70000076293945,40.720001220703125,39.540000915527344,40.5,40.5,218200
2018-10-09,40.33000183105469,41.310001373291016,40.290000915527344,40.650001525878906,40.650001525878906,301000
2018-10-10,40.459999084472656,41.0099983215332,38.599998474121094,38.75,38.75,384200
2018-10-11,38.45000076293945,39.689998626708984,38.150001525878906,38.599998474121094,38.599998474121094,259300
2018-10-12,39.11000061035156,39.27000045776367,37.61000061035156,38.31999969482422,38.31999969482422,365000
2018-10-15,38.52000045776367,39.60499954223633,38.31999969482422,39.02000045776367,39.02000045776367,226900
2018-10-16,39.41999816894531,41.310001373291016,39.1150016784668,40.59000015258789,40.59000015258789,376400
2018-10-17,40.5099983215332,40.81999969482422,40.0,40.459999084472656,40.459999084472656,158100
2018-10-18,40.439998626708984,41.20000076293945,39.9900016784668,40.619998931884766,40.619998931884766,276500
2018-10-19,40.58000183105469,40.970001220703125,39.31999969482422,39.36000061035156,39.36000061035156,245200
2018-10-22,39.54999923706055,40.47999954223633,39.33000183105469,39.63999938964844,39.63999938964844,214800
2018-10-23,38.93000030517578,39.9900016784668,38.209999084472656,39.4900016784668,39.4900016784668,215500
2018-10-24,39.5,39.720001220703125,36.84000015258789,36.880001068115234,36.880001068115234,317700
2018-10-25,37.61000061035156,39.349998474121094,37.13999938964844,38.81999969482422,38.81999969482422,364000
2018-10-26,38.29999923706055,39.72999954223633,37.849998474121094,39.369998931884766,39.369998931884766,387100
2018-10-29,39.7599983215332,40.63999938964844,38.79999923706055,39.08000183105469,39.08000183105469,259900
2018-10-30,38.900001525878906,40.16999816894531,38.119998931884766,39.04999923706055,39.04999923706055,233300
2018-10-31,39.5,40.2400016784668,38.900001525878906,39.84000015258789,39.84000015258789,320600
2018-11-01,38.70000076293945,39.599998474121094,35.88999938964844,37.63999938964844,37.63999938964844,1093500
2018-11-02,37.59000015258789,38.470001220703125,36.279998779296875,38.220001220703125,38.220001220703125,582900
2018-11-05,38.47999954223633,40.47999954223633,38.220001220703125,40.02000045776367,40.02000045776367,426300
2018-11-06,39.779998779296875,41.435001373291016,39.400001525878906,40.91999816894531,40.91999816894531,458900
2018-11-07,41.34000015258789,41.34000015258789,38.869998931884766,40.290000915527344,40.290000915527344,291500
2018-11-08,39.7599983215332,40.900001525878906,38.76100158691406,40.400001525878906,40.400001525878906,257500
2018-11-09,40.0,41.40999984741211,39.84000015258789,41.02000045776367,41.02000045776367,407200
2018-11-12,41.18000030517578,41.22999954223633,39.630001068115234,40.31999969482422,40.31999969482422,251000
2018-11-13,40.029998779296875,41.95000076293945,40.029998779296875,41.31999969482422,41.31999969482422,327200
2018-11-14,41.97999954223633,41.97999954223633,39.7400016784668,40.540000915527344,40.540000915527344,226600
2018-11-15,40.18000030517578,40.68000030517578,38.380001068115234,38.58000183105469,38.58000183105469,512600
2018-11-16,38.650001525878906,38.95000076293945,37.2599983215332,38.209999084472656,38.209999084472656,435500
2018-11-19,38.2400016784668,38.790000915527344,36.560001373291016,36.880001068115234,36.880001068115234,315300
2018-11-20,36.5,36.529998779296875,34.529998779296875,35.43000030517578,35.43000030517578,287300
2018-11-21,35.5,36.7400016784668,35.47999954223633,35.86000061035156,35.86000061035156,287200
2018-11-23,35.38999938964844,35.47999954223633,34.72999954223633,35.04999923706055,35.04999923706055,100200
2018-11-26,35.18000030517578,36.13999938964844,33.66999816894531,34.209999084472656,34.209999084472656,323300
2018-11-27,34.0,34.83000183105469,33.16999816894531,34.36000061035156,34.36000061035156,264400
2018-11-28,34.18000030517578,35.36000061035156,33.369998931884766,34.95000076293945,34.95000076293945,254500
2018-11-29,34.95000076293945,35.43000030517578,34.34000015258789,34.54999923706055,34.54999923706055,206500
2018-11-30,34.349998474121094,34.810001373291016,33.689998626708984,34.36000061035156,34.36000061035156,406500
2018-12-03,34.86000061035156,35.400001525878906,33.54999923706055,35.220001220703125,35.220001220703125,403600
2018-12-04,35.290000915527344,35.5099983215332,33.439998626708984,33.66999816894531,33.66999816894531,408200
2018-12-06,33.29999923706055,33.650001525878906,32.459999084472656,33.15999984741211,33.15999984741211,440600
2018-12-07,33.4900016784668,34.43000030517578,32.59000015258789,32.66999816894531,32.66999816894531,309700
2018-12-10,32.459999084472656,33.150001525878906,31.68000030517578,32.150001525878906,32.150001525878906,796100
2018-12-11,32.68000030517578,33.349998474121094,31.700000762939453,32.9900016784668,32.9900016784668,594300
2018-12-12,33.2599983215332,33.72999954223633,32.66999816894531,32.93000030517578,32.93000030517578,327900
2018-12-13,32.95000076293945,33.91999816894531,32.61000061035156,33.20000076293945,33.20000076293945,403400
2018-12-14,32.869998931884766,33.9900016784668,32.36000061035156,32.560001373291016,32.560001373291016,258800
2018-12-17,32.43000030517578,33.25,31.65999984741211,31.81999969482422,31.81999969482422,385400
2018-12-18,32.060001373291016,33.869998931884766,31.489999771118164,33.119998931884766,33.119998931884766,310300
2018-12-19,33.08000183105469,33.86000061035156,31.764999389648438,31.90999984741211,31.90999984741211,231400
2018-12-20,32.0,32.939998626708984,31.579999923706055,31.649999618530273,31.649999618530273,319500
2018-12-21,31.3700008392334,31.65999984741211,29.520000457763672,29.780000686645508,29.780000686645508,778800
2018-12-24,29.34000015258789,30.450000762939453,29.34000015258789,29.649999618530273,29.649999618530273,171400
2018-12-26,29.700000762939453,31.450000762939453,29.360000610351562,31.389999389648438,31.389999389648438,213600
2018-12-27,30.860000610351562,31.280000686645508,29.899999618530273,31.110000610351562,31.110000610351562,134800
2018-12-28,31.280000686645508,32.220001220703125,30.540000915527344,31.600000381469727,31.600000381469727,139400
2018-12-31,31.729999542236328,32.20000076293945,30.90999984741211,31.709999084472656,31.709999084472656,210700
2019-01-02,31.450000762939453,32.95000076293945,30.799999237060547,32.36000061035156,32.36000061035156,174500
2019-01-03,32.290000915527344,32.290000915527344,31.30500030517578,31.489999771118164,31.489999771118164,259200
2019-01-04,31.959999084472656,33.59000015258789,31.600000381469727,32.7599983215332,32.7599983215332,294800
2019-01-07,32.880001068115234,33.27000045776367,31.860000610351562,32.439998626708984,32.439998626708984,282100
2019-01-08,32.880001068115234,32.93000030517578,32.209999084472656,32.650001525878906,32.650001525878906,239700
2019-01-09,32.810001373291016,33.27000045776367,32.349998474121094,32.56999969482422,32.56999969482422,273600
2019-01-10,32.099998474121094,32.90999984741211,31.84000015258789,32.630001068115234,32.630001068115234,423400
2019-01-11,32.43000030517578,33.290000915527344,32.43000030517578,33.15999984741211,33.15999984741211,345200
2019-01-14,32.869998931884766,33.61000061035156,32.20000076293945,32.38999938964844,32.38999938964844,193700
2019-01-15,32.36000061035156,32.8390007019043,31.364999771118164,31.950000762939453,31.950000762939453,287600
2019-01-16,31.920000076293945,33.005001068115234,31.920000076293945,32.7599983215332,32.7599983215332,218400
2019-01-17,32.54999923706055,34.099998474121094,32.54999923706055,34.029998779296875,34.029998779296875,280800
2019-01-18,34.22999954223633,34.380001068115234,33.5099983215332,34.09000015258789,34.09000015258789,237700
2019-01-22,33.84000015258789,34.20500183105469,33.09700012207031,33.880001068115234,33.880001068115234,152900
2019-01-23,34.09000015258789,35.2400016784668,34.09000015258789,34.83000183105469,34.83000183105469,244900
2019-01-24,34.849998474121094,35.02000045776367,33.18000030517578,33.83000183105469,33.83000183105469,232200
2019-01-25,34.119998931884766,35.0,34.119998931884766,34.70000076293945,34.70000076293945,119000
2019-01-28,34.369998931884766,34.7599983215332,33.91999816894531,34.56999969482422,34.56999969482422,157200
2019-01-29,34.720001220703125,35.185001373291016,34.15999984741211,34.209999084472656,34.209999084472656,115300
2019-01-30,34.58000183105469,35.540000915527344,34.45000076293945,35.06999969482422,35.06999969482422,152800
2019-01-31,35.11000061035156,35.56999969482422,34.630001068115234,35.529998779296875,35.529998779296875,226600
2019-02-01,35.33000183105469,35.55500030517578,34.650001525878906,34.849998474121094,34.849998474121094,146300
2019-02-04,34.790000915527344,35.66999816894531,34.68000030517578,35.29999923706055,35.29999923706055,201200
2019-02-05,35.38999938964844,35.84000015258789,35.064998626708984,35.31999969482422,35.31999969482422,117400
2019-02-06,35.31999969482422,35.529998779296875,34.279998779296875,34.720001220703125,34.720001220703125,213800
2019-02-07,37.400001525878906,37.400001525878906,34.0359992980957,34.34000015258789,34.34000015258789,281900
2019-02-08,34.209999084472656,34.279998779296875,32.810001373291016,33.22999954223633,33.22999954223633,244400
2019-02-11,33.70000076293945,35.689998626708984,33.28499984741211,34.4900016784668,34.4900016784668,299600
2019-02-12,34.88999938964844,34.970001220703125,33.619998931884766,34.2400016784668,34.2400016784668,278100
2019-02-13,34.2400016784668,35.529998779296875,34.16999816894531,35.369998931884766,35.369998931884766,268100
2019-02-14,35.22999954223633,36.040000915527344,35.22999954223633,35.849998474121094,35.849998474121094,258600
2019-02-15,36.0099983215332,36.2599983215332,35.650001525878906,36.04999923706055,36.04999923706055,160000
2019-02-19,36.02000045776367,36.70000076293945,35.970001220703125,36.439998626708984,36.439998626708984,211700
2019-02-20,36.58000183105469,37.150001525878906,36.099998474121094,37.08000183105469,37.08000183105469,226300
2019-02-21,37.22999954223633,37.540000915527344,36.779998779296875,37.400001525878906,37.400001525878906,227300
2019-02-22,37.54999923706055,38.106998443603516,37.08000183105469,37.2400016784668,37.2400016784668,169200
2019-02-25,37.31999969482422,37.31999969482422,36.444000244140625,36.970001220703125,36.970001220703125,178100
2019-02-26,37.04999923706055,37.61000061035156,36.970001220703125,37.2599983215332,37.2599983215332,187600
2019-02-27,37.52000045776367,38.45000076293945,37.29999923706055,38.31999969482422,38.31999969482422,183900
2019-02-28,38.40999984741211,38.47999954223633,37.2599983215332,37.95000076293945,37.95000076293945,192600
2019-03-01,38.20000076293945,38.40999984741211,37.34000015258789,38.369998931884766,38.369998931884766,183800
2019-03-04,38.400001525878906,38.7400016784668,37.43000030517578,37.61000061035156,37.61000061035156,348000
2019-03-05,37.7400016784668,38.189998626708984,37.38999938964844,37.40999984741211,37.40999984741211,274400
2019-03-06,37.56999969482422,37.599998474121094,35.2599983215332,35.4900016784668,35.4900016784668,261000
2019-03-07,35.75,35.77000045776367,34.22999954223633,34.27000045776367,34.27000045776367,281100
2019-03-08,34.099998474121094,34.3849983215332,33.439998626708984,33.66999816894531,33.66999816894531,178400
2019-03-11,33.939998626708984,35.2400016784668,33.775001525878906,35.15999984741211,35.15999984741211,477500
2019-03-12,35.040000915527344,36.42499923706055,35.040000915527344,36.150001525878906,36.150001525878906,349500
2019-03-13,36.380001068115234,36.9900016784668,36.040000915527344,36.40999984741211,36.40999984741211,276000
2019-03-14,36.540000915527344,36.880001068115234,36.099998474121094,36.75,36.75,175800
2019-03-15,36.900001525878906,37.5,36.650001525878906,37.380001068115234,37.380001068115234,635300
2019-03-18,37.41999816894531,38.119998931884766,37.084999084472656,37.56999969482422,37.56999969482422,251400
2019-03-19,37.81999969482422,37.9900016784668,37.2599983215332,37.59000015258789,37.59000015258789,236700
2019-03-20,37.45000076293945,37.619998931884766,36.7599983215332,36.970001220703125,36.970001220703125,249000
2019-03-21,36.810001373291016,37.849998474121094,36.29499816894531,36.38999938964844,36.38999938964844,288600
2019-03-22,36.02000045776367,36.5,35.20000076293945,35.220001220703125,35.220001220703125,213900
2019-03-25,35.220001220703125,35.220001220703125,34.150001525878906,34.209999084472656,34.209999084472656,384600
2019-03-26,34.380001068115234,34.77000045776367,34.0,34.060001373291016,34.060001373291016,274100
2019-03-27,33.900001525878906,34.40999984741211,33.0,33.2599983215332,33.2599983215332,294500
2019-03-28,33.2599983215332,33.959999084472656,33.060001373291016,33.849998474121094,33.849998474121094,228200
2019-03-29,34.279998779296875,35.040000915527344,33.61000061035156,34.220001220703125,34.220001220703125,407000
2019-04-01,34.58000183105469,35.18000030517578,34.04999923706055,34.18000030517578,34.18000030517578,336600
2019-04-02,34.130001068115234,34.16999816894531,32.810001373291016,33.279998779296875,33.279998779296875,336400
2019-04-03,33.47999954223633,33.64500045776367,32.25,32.59000015258789,32.59000015258789,374100
2019-04-04,32.529998779296875,33.290000915527344,32.2599983215332,33.279998779296875,33.279998779296875,296700
2019-04-05,33.470001220703125,33.86000061035156,33.18000030517578,33.459999084472656,33.459999084472656,451400
2019-04-08,33.45000076293945,33.92499923706055,33.189998626708984,33.52000045776367,33.52000045776367,348600
2019-04-09,33.41999816894531,33.93000030517578,33.16999816894531,33.43000030517578,33.43000030517578,304900
2019-04-10,33.58000183105469,34.33000183105469,33.279998779296875,34.04999923706055,34.04999923706055,275200
2019-04-11,34.06999969482422,34.380001068115234,33.290000915527344,33.72999954223633,33.72999954223633,324600
2019-04-12,33.779998779296875,34.27000045776367,33.400001525878906,34.099998474121094,34.099998474121094,233300
2019-04-15,34.099998474121094,34.209999084472656,33.52000045776367,33.720001220703125,33.720001220703125,261400
2019-04-16,33.66999816894531,34.65999984741211,33.375,34.380001068115234,34.380001068115234,309400
2019-04-17,34.470001220703125,34.58000183105469,33.58000183105469,33.63999938964844,33.63999938964844,394000
2019-04-18,33.27000045776367,33.63999938964844,32.98500061035156,33.22999954223633,33.22999954223633,340700
2019-04-22,33.2400016784668,34.25,33.13999938964844,33.83000183105469,33.83000183105469,160300
2019-04-23,33.810001373291016,34.60499954223633,33.38999938964844,34.349998474121094,34.349998474121094,272900
2019-04-24,34.279998779296875,34.61000061035156,33.93000030517578,34.349998474121094,34.349998474121094,214900
2019-04-25,34.189998626708984,34.33000183105469,33.27000045776367,33.34000015258789,33.34000015258789,213900
2019-04-26,33.5,34.11000061035156,33.04999923706055,34.08000183105469,34.08000183105469,104700
2019-04-29,34.02000045776367,34.310001373291016,33.83000183105469,33.869998931884766,33.869998931884766,112300
2019-04-30,33.77000045776367,34.209999084472656,33.56999969482422,33.900001525878906,33.900001525878906,248100
2019-05-01,33.939998626708984,34.05400085449219,32.560001373291016,32.689998626708984,32.689998626708984,447600
2019-05-02,32.5,32.81999969482422,31.542999267578125,31.81999969482422,31.81999969482422,209000
2019-05-03,32.06999969482422,33.20000076293945,32.06999969482422,32.91999816894531,32.91999816894531,285700
2019-05-06,32.439998626708984,33.33000183105469,32.08000183105469,33.18000030517578,33.18000030517578,204900
2019-05-07,32.75,32.81999969482422,31.655000686645508,31.889999389648438,31.889999389648438,200400
2019-05-08,33.0,33.900001525878906,30.979999542236328,31.149999618530273,31.149999618530273,373800
2019-05-09,30.6200008392334,31.413000106811523,30.049999237060547,30.65999984741211,30.65999984741211,433500
2019-05-10,30.520000457763672,31.760000228881836,30.295000076293945,31.6200008392334,31.6200008392334,304900
2019-05-13,31.3799991607666,31.3799991607666,29.59000015258789,29.700000762939453,29.700000762939453,335700
2019-05-14,29.770000457763672,30.229999542236328,28.770000457763672,29.959999084472656,29.959999084472656,333300
2019-05-15,29.649999618530273,30.030000686645508,29.389999389648438,29.920000076293945,29.920000076293945,228100
2019-05-16,30.25,30.25,29.399999618530273,29.979999542236328,29.979999542236328,238700
2019-05-17,29.639999389648438,29.959999084472656,28.8700008392334,28.969999313354492,28.969999313354492,231100
2019-05-20,28.770000457763672,29.200000762939453,28.18000030517578,28.739999771118164,28.739999771118164,175700
2019-05-21,28.90999984741211,29.479999542236328,28.770000457763672,29.0,29.0,164500
2019-05-22,28.799999237060547,28.799999237060547,27.719999313354492,28.149999618530273,28.149999618530273,262900
2019-05-23,27.530000686645508,28.190000534057617,27.1299991607666,27.31999969482422,27.31999969482422,319500
2019-05-24,27.6299991607666,27.739999771118164,26.709999084472656,27.239999771118164,27.239999771118164,236300
2019-05-28,27.260000228881836,27.450000762939453,26.799999237060547,27.1200008392334,27.1200008392334,263300
2019-05-29,26.799999237060547,27.25,26.466999053955078,26.760000228881836,26.760000228881836,205700
2019-05-30,26.8799991607666,27.18000030517578,26.31999969482422,26.399999618530273,26.399999618530273,224100
2019-05-31,25.920000076293945,26.299999237060547,25.600000381469727,26.219999313354492,26.219999313354492,279800
2019-06-03,26.489999771118164,26.815000534057617,26.059999465942383,26.690000534057617,26.690000534057617,239300
2019-06-04,27.049999237060547,27.809999465942383,26.860000610351562,27.440000534057617,27.440000534057617,226400
2019-06-05,27.549999237060547,27.709999084472656,26.34000015258789,26.440000534057617,26.440000534057617,225400
2019-06-06,26.469999313354492,26.68000030517578,25.899999618530273,26.40999984741211,26.40999984741211,332300
2019-06-07,26.389999389648438,27.0,26.100000381469727,26.610000610351562,26.610000610351562,165800
2019-06-10,26.600000381469727,27.190000534057617,26.450000762939453,26.5,26.5,168600
2019-06-11,26.68000030517578,27.40999984741211,26.68000030517578,26.889999389648438,26.889999389648438,215900
2019-06-12,26.350000381469727,26.739999771118164,25.698999404907227,25.84000015258789,25.84000015258789,195000
2019-06-13,25.950000762939453,26.114999771118164,25.309999465942383,25.530000686645508,25.530000686645508,395900
2019-06-14,25.350000381469727,25.454999923706055,24.780000686645508,25.100000381469727,25.100000381469727,293700
2019-06-17,25.040000915527344,25.684999465942383,24.94499969482422,25.420000076293945,25.420000076293945,367500
2019-06-18,25.68000030517578,27.010000228881836,25.68000030517578,26.049999237060547,26.049999237060547,288000
2019-06-19,26.170000076293945,26.84000015258789,26.09000015258789,26.389999389648438,26.389999389648438,275500
2019-06-20,26.950000762939453,27.34000015258789,26.670000076293945,26.68000030517578,26.68000030517578,277700
2019-06-21,26.469999313354492,27.3799991607666,26.469999313354492,27.270000457763672,27.270000457763672,744800
2019-06-24,27.200000762939453,27.299999237060547,26.34000015258789,26.399999618530273,26.399999618530273,293500
2019-06-25,26.31999969482422,26.40999984741211,25.139999389648438,25.219999313354492,25.219999313354492,207000
2019-06-26,25.3799991607666,25.799999237060547,24.924999237060547,25.549999237060547,25.549999237060547,221000
2019-06-27,25.690000534057617,26.084999084472656,25.190000534057617,26.049999237060547,26.049999237060547,163300
2019-06-28,26.079999923706055,27.010000228881836,26.040000915527344,26.610000610351562,26.610000610351562,719600
2019-07-01,27.079999923706055,27.079999923706055,26.260000228881836,26.700000762939453,26.700000762939453,315300
2019-07-02,26.719999313354492,26.815000534057617,25.360000610351562,25.420000076293945,25.420000076293945,265300
2019-07-03,25.489999771118164,25.75,25.030000686645508,25.700000762939453,25.700000762939453,109600
2019-07-05,25.450000762939453,25.989999771118164,25.420000076293945,25.940000534057617,25.940000534057617,152100
2019-07-08,25.770000457763672,26.395000457763672,25.6200008392334,25.81999969482422,25.81999969482422,360500
2019-07-09,25.719999313354492,25.850000381469727,25.059999465942383,25.579999923706055,25.579999923706055,188300
2019-07-10,25.809999465942383,26.100000381469727,25.260000228881836,25.559999465942383,25.559999465942383,220900
2019-07-11,25.6299991607666,25.969999313354492,25.100000381469727,25.190000534057617,25.190000534057617,163700
2019-07-12,25.25,25.649999618530273,25.059999465942383,25.309999465942383,25.309999465942383,206600
2019-07-15,25.34000015258789,25.700000762939453,24.479999542236328,24.530000686645508,24.530000686645508,234100
2019-07-16,24.399999618530273,24.78499984741211,24.229999542236328,24.43000030517578,24.43000030517578,150100
2019-07-17,24.690000534057617,24.690000534057617,24.239999771118164,24.299999237060547,24.299999237060547,181200
2019-07-18,24.25,24.329999923706055,23.020000457763672,23.280000686645508,23.280000686645508,472500
2019-07-19,23.18000030517578,23.790000915527344,22.65999984741211,23.6200008392334,23.6200008392334,667500
2019-07-22,23.68000030517578,24.200000762939453,23.1200008392334,23.149999618530273,23.149999618530273,301200
2019-07-23,23.25,23.25,22.500999450683594,22.989999771118164,22.989999771118164,494600
2019-07-24,22.950000762939453,23.43000030517578,22.84000015258789,23.329999923706055,23.329999923706055,354700
2019-07-25,23.399999618530273,23.530000686645508,22.290000915527344,22.3700008392334,22.3700008392334,303000
2019-07-26,22.450000762939453,22.600000381469727,21.520000457763672,22.329999923706055,22.329999923706055,456200
2019-07-29,22.290000915527344,22.389999389648438,21.68000030517578,21.790000915527344,21.790000915527344,225800
2019-07-30,21.610000610351562,22.09000015258789,21.329999923706055,21.969999313354492,21.969999313354492,261200
2019-07-31,21.84000015258789,22.19499969482422,21.3799991607666,21.489999771118164,21.489999771118164,243100
2019-08-01,21.450000762939453,21.5,20.100000381469727,20.639999389648438,20.639999389648438,408800
2019-08-02,20.600000381469727,20.860000610351562,19.940000534057617,20.170000076293945,20.170000076293945,413000
2019-08-05,19.709999084472656,19.770000457763672,18.739999771118164,19.1299991607666,19.1299991607666,593800
2019-08-06,20.079999923706055,20.079999923706055,18.139999389648438,18.75,18.75,591700
2019-08-07,18.56999969482422,18.799999237060547,17.860000610351562,18.170000076293945,18.170000076293945,378500
2019-08-08,18.790000915527344,18.84000015258789,18.030000686645508,18.139999389648438,18.139999389648438,368600
2019-08-09,18.1299991607666,18.139999389648438,17.649999618530273,17.780000686645508,17.780000686645508,401100
2019-08-12,17.6299991607666,17.799999237060547,16.780000686645508,17.389999389648438,17.389999389648438,321700
2019-08-13,17.18000030517578,18.31999969482422,17.1200008392334,17.290000915527344,17.290000915527344,520700
2019-08-14,16.920000076293945,17.309999465942383,16.565000534057617,16.899999618530273,16.899999618530273,560600
2019-08-15,16.860000610351562,17.139999389648438,16.350000381469727,16.639999389648438,16.639999389648438,342000
2019-08-16,16.709999084472656,17.399999618530273,16.459999084472656,17.25,17.25,408800
2019-08-19,17.549999237060547,18.1299991607666,17.299999237060547,18.049999237060547,18.049999237060547,449800
2019-08-20,17.860000610351562,18.299999237060547,17.579999923706055,17.860000610351562,17.860000610351562,322800
2019-08-21,18.149999618530273,18.56999969482422,17.6200008392334,17.639999389648438,17.639999389648438,311600
2019-08-22,17.639999389648438,17.760000228881836,17.05500030517578,17.059999465942383,17.059999465942383,309100
2019-08-23,17.0,17.0,16.219999313354492,16.420000076293945,16.420000076293945,333400
2019-08-26,16.6200008392334,16.6299991607666,15.960000038146973,16.579999923706055,16.579999923706055,235000
2019-08-27,16.670000076293945,16.780000686645508,16.040000915527344,16.149999618530273,16.149999618530273,311800
2019-08-28,16.510000228881836,16.809999465942383,15.920000076293945,16.3799991607666,16.3799991607666,262400
2019-08-29,16.59000015258789,16.899999618530273,16.4950008392334,16.719999313354492,16.719999313354492,202500
2019-08-30,16.860000610351562,17.209999084472656,16.469999313354492,16.760000228881836,16.760000228881836,338900
2019-09-03,16.440000534057617,16.854999542236328,16.079999923706055,16.350000381469727,16.350000381469727,259600
2019-09-04,16.670000076293945,17.100000381469727,16.56999969482422,16.670000076293945,16.670000076293945,194800
2019-09-05,16.920000076293945,17.299999237060547,16.59000015258789,16.600000381469727,16.600000381469727,344000
2019-09-06,16.610000610351562,16.809999465942383,16.3799991607666,16.579999923706055,16.579999923706055,291700
2019-09-09,16.709999084472656,17.559999465942383,16.329999923706055,17.479999542236328,17.479999542236328,362000
2019-09-10,17.489999771118164,18.549999237060547,17.34000015258789,18.520000457763672,18.520000457763672,380700
2019-09-11,18.729999542236328,19.200000762939453,18.219999313354492,18.389999389648438,18.389999389648438,338400
2019-09-12,18.170000076293945,18.399999618530273,17.239999771118164,17.420000076293945,17.420000076293945,432600
2019-09-13,17.6200008392334,17.920000076293945,17.059999465942383,17.25,17.25,371500
2019-09-16,17.790000915527344,17.790000915527344,17.059999465942383,17.440000534057617,17.440000534057617,258100
2019-09-17,17.260000228881836,17.670000076293945,17.09000015258789,17.440000534057617,17.440000534057617,316900
2019-09-18,17.309999465942383,17.610000610351562,16.559999465942383,16.899999618530273,16.899999618530273,292700
2019-09-19,16.969999313354492,17.219999313354492,16.690000534057617,16.709999084472656,16.709999084472656,311400
2019-09-20,16.770000457763672,17.049999237060547,16.049999237060547,16.3799991607666,16.3799991607666,738200
2019-09-23,16.239999771118164,16.739999771118164,16.149999618530273,16.469999313354492,16.469999313354492,239400
2019-09-24,16.389999389648438,16.579999923706055,15.510000228881836,15.539999961853027,15.539999961853027,407100
2019-09-25,15.489999771118164,16.15999984741211,15.420000076293945,15.90999984741211,15.90999984741211,245200
2019-09-26,15.850000381469727,16.020000457763672,15.449999809265137,15.729999542236328,15.729999542236328,398300
2019-09-27,15.649999618530273,16.030000686645508,15.460000038146973,15.489999771118164,15.489999771118164,280000
2019-09-30,15.399999618530273,15.949999809265137,15.109999656677246,15.630000114440918,15.630000114440918,385400
2019-10-01,15.710000038146973,16.1299991607666,14.359999656677246,14.569999694824219,14.569999694824219,530700
2019-10-02,14.4399995803833,14.720000267028809,14.220000267028809,14.529999732971191,14.529999732971191,269500
2019-10-03,14.4399995803833,14.760000228881836,14.039999961853027,14.670000076293945,14.670000076293945,265300
2019-10-04,14.729999542236328,14.930000305175781,14.399999618530273,14.65999984741211,14.65999984741211,337300
2019-10-07,14.649999618530273,14.739999771118164,14.199999809265137,14.380000114440918,14.380000114440918,240400
2019-10-08,14.229999542236328,14.329999923706055,13.8100004196167,14.020000457763672,14.020000457763672,379700
2019-10-09,14.1899995803833,14.470000267028809,14.0,14.380000114440918,14.380000114440918,154400
2019-10-10,14.579999923706055,14.989999771118164,14.40999984741211,14.739999771118164,14.739999771118164,283100
2019-10-11,15.0,15.920000076293945,14.9399995803833,15.4399995803833,15.4399995803833,409400
2019-10-14,15.270000457763672,15.729999542236328,15.050000190734863,15.319999694824219,15.319999694824219,271900
2019-10-15,15.279999732971191,16.049999237060547,15.130000114440918,15.380000114440918,15.380000114440918,206800
2019-10-16,15.380000114440918,16.3799991607666,15.260000228881836,15.369999885559082,15.369999885559082,415500
2019-10-17,15.430000305175781,15.640000343322754,14.920000076293945,15.020000457763672,15.020000457763672,219100
2019-10-18,15.0,15.069999694824219,14.300000190734863,14.300000190734863,14.300000190734863,230300
2019-10-21,14.369999885559082,14.864999771118164,14.350000381469727,14.5,14.5,170100
2019-10-22,14.529999732971191,14.880000114440918,14.194999694824219,14.649999618530273,14.649999618530273,303200
2019-10-23,14.649999618530273,15.15999984741211,14.369999885559082,15.0,15.0,221500
2019-10-24,15.130000114440918,15.239999771118164,14.449999809265137,14.640000343322754,14.640000343322754,183700
2019-10-25,14.529999732971191,14.800000190734863,14.460000038146973,14.5,14.5,186400
2019-10-28,14.520000457763672,14.670000076293945,14.329999923706055,14.550000190734863,14.550000190734863,200400
2019-10-29,14.350000381469727,14.40999984741211,13.630000114440918,14.010000228881836,14.010000228881836,469900
2019-10-30,13.960000038146973,13.989999771118164,13.520000457763672,13.539999961853027,13.539999961853027,308400
2019-10-31,13.5,13.510000228881836,12.920000076293945,13.229999542236328,13.229999542236328,493700
2019-11-01,13.319999694824219,13.789999961853027,13.25,13.489999771118164,13.489999771118164,481600
2019-11-04,13.800000190734863,14.029999732971191,13.34000015258789,13.930000305175781,13.930000305175781,496000
2019-11-05,12.84000015258789,14.38700008392334,11.970000267028809,13.630000114440918,13.630000114440918,713800
2019-11-06,13.520000457763672,13.75,12.880000114440918,12.989999771118164,12.989999771118164,482600
2019-11-07,13.25,13.420000076293945,12.899999618530273,13.279999732971191,13.279999732971191,308300
2019-11-08,13.079999923706055,13.5600004196167,13.0,13.25,13.25,315200
2019-11-11,13.050000190734863,13.095000267028809,12.529999732971191,12.710000038146973,12.710000038146973,447900
2019-11-12,12.6899995803833,12.789999961853027,12.199999809265137,12.260000228881836,12.260000228881836,731500
2019-11-13,12.149999618530273,12.289999961853027,11.734999656677246,12.0,12.0,388700
2019-11-14,11.970000267028809,12.170000076293945,11.800000190734863,11.819999694824219,11.819999694824219,480800
2019-11-15,12.109999656677246,12.739999771118164,11.920000076293945,12.260000228881836,12.260000228881836,711600
2019-11-18,12.199999809265137,12.274999618530273,11.845000267028809,12.100000381469727,12.100000381469727,534200
2019-11-19,12.140000343322754,12.25,11.710000038146973,12.09000015258789,12.09000015258789,485800
2019-11-20,12.069999694824219,12.180000305175781,11.8100004196167,11.9399995803833,11.9399995803833,514500
2019-11-21,11.890000343322754,12.329999923706055,11.770000457763672,12.220000267028809,12.220000267028809,296700
2019-11-22,12.239999771118164,12.850000381469727,12.220000267028809,12.65999984741211,12.65999984741211,296700
2019-11-25,12.670000076293945,13.319999694824219,12.65999984741211,13.229999542236328,13.229999542236328,290400
2019-11-26,13.220000267028809,13.350000381469727,13.020000457763672,13.149999618530273,13.149999618530273,342600
2019-11-27,13.199999809265137,13.484999656677246,13.0600004196167,13.180000305175781,13.180000305175781,214800
2019-11-29,13.029999732971191,13.067999839782715,12.5,12.760000228881836,12.760000228881836,201200
2019-12-02,12.800000190734863,12.989999771118164,12.25,12.600000381469727,12.600000381469727,414500
2019-12-03,12.460000038146973,12.770000457763672,12.25,12.710000038146973,12.710000038146973,304700
2019-12-04,12.800000190734863,13.039999961853027,12.619999885559082,12.729999542236328,12.729999542236328,227600
2019-12-05,12.75,12.890000343322754,12.600000381469727,12.789999961853027,12.789999961853027,274300
2019-12-06,12.869999885559082,13.229999542236328,12.869999885559082,13.109999656677246,13.109999656677246,255200
2019-12-09,13.180000305175781,13.529999732971191,13.140000343322754,13.34000015258789,13.34000015258789,375300
2019-12-10,13.329999923706055,13.630000114440918,13.130000114440918,13.359999656677246,13.359999656677246,301000
2019-12-11,13.40999984741211,13.819999694824219,13.239999771118164,13.359999656677246,13.359999656677246,373300
2019-12-12,13.479999542236328,14.319999694824219,13.329999923706055,14.199999809265137,14.199999809265137,355000
2019-12-13,14.180000305175781,14.329999923706055,13.539999961853027,13.600000381469727,13.600000381469727,336900
2019-12-16,13.770000457763672,14.9399995803833,13.770000457763672,14.630000114440918,14.630000114440918,580000
2019-12-17,14.609999656677246,14.880000114440918,14.390000343322754,14.630000114440918,14.630000114440918,521000
2019-12-18,14.579999923706055,14.949999809265137,14.420000076293945,14.850000381469727,14.850000381469727,476200
2019-12-19,14.850000381469727,14.989999771118164,14.449999809265137,14.520000457763672,14.520000457763672,454800
2019-12-20,14.550000190734863,14.819999694824219,14.380000114440918,14.579999923706055,14.579999923706055,1191100
2019-12-23,14.619999885559082,14.87399959564209,14.369999885559082,14.75,14.75,248000
2019-12-24,14.75,14.949999809265137,14.619999885559082,14.829999923706055,14.829999923706055,130900
2019-12-26,14.850000381469727,15.149999618530273,14.680000305175781,14.869999885559082,14.869999885559082,242900
2019-12-27,14.970000267028809,15.140000343322754,14.8100004196167,14.84000015258789,14.84000015258789,240700
2019-12-30,14.890000343322754,15.0,14.420000076293945,14.470000267028809,14.470000267028809,312200
2019-12-31,14.350000381469727,14.539999961853027,13.760000228881836,14.510000228881836,14.510000228881836,751400
2020-01-02,14.680000305175781,15.010000228881836,14.520000457763672,14.670000076293945,14.670000076293945,529400
2020-01-03,14.600000381469727,15.119999885559082,14.279999732971191,14.479999542236328,14.479999542236328,449100
2020-01-06,14.489999771118164,14.649999618530273,13.920000076293945,13.930000305175781,13.930000305175781,391900
2020-01-07,14.0,14.029999732971191,13.40999984741211,13.5,13.5,283500
2020-01-08,13.520000457763672,13.5600004196167,12.420000076293945,12.420000076293945,12.420000076293945,446000
2020-01-09,12.350000381469727,12.5600004196167,11.739999771118164,12.0,12.0,610800
2020-01-10,12.029999732971191,12.149999618530273,11.460000038146973,11.5600004196167,11.5600004196167,461700
2020-01-13,11.59000015258789,11.800000190734863,11.239999771118164,11.680000305175781,11.680000305175781,327900
2020-01-14,11.680000305175781,12.220000267028809,11.649999618530273,11.9399995803833,11.9399995803833,329700
2020-01-15,11.880000114440918,12.010000228881836,11.539999961853027,11.819999694824219,11.819999694824219,352700
2020-01-16,11.9399995803833,12.170000076293945,11.4399995803833,11.479999542236328,11.479999542236328,377800
2020-01-17,11.539999961853027,11.539999961853027,11.0,11.100000381469727,11.100000381469727,437900
2020-01-21,11.0,11.026000022888184,10.199999809265137,10.40999984741211,10.40999984741211,751300
2020-01-22,10.40999984741211,10.40999984741211,9.789999961853027,10.0,10.0,451000
2020-01-23,9.869999885559082,9.914999961853027,9.5,9.84000015258789,9.84000015258789,404300
2020-01-24,9.800000190734863,9.949999809265137,9.079999923706055,9.569999694824219,9.569999694824219,679700
2020-01-27,9.260000228881836,9.300000190734863,8.850000381469727,8.949999809265137,8.949999809265137,592300
2020-01-28,9.0,9.100000381469727,8.550000190734863,8.59000015258789,8.59000015258789,636100
2020-01-29,8.649999618530273,8.699999809265137,8.210000038146973,8.479999542236328,8.479999542236328,406100
2020-01-30,8.300000190734863,8.630000114440918,8.220000267028809,8.470000267028809,8.470000267028809,271300
2020-01-31,8.40999984741211,8.420000076293945,8.0600004196167,8.130000114440918,8.130000114440918,396300
2020-02-03,8.149999618530273,8.220000267028809,7.940000057220459,8.119999885559082,8.119999885559082,480400
2020-02-04,8.15999984741211,8.420000076293945,8.0600004196167,8.15999984741211,8.15999984741211,533700
2020-02-05,8.329999923706055,10.520000457763672,8.270000457763672,10.329999923706055,10.329999923706055,1423500
2020-02-06,10.479999542236328,10.479999542236328,9.449999809265137,9.720000267028809,9.720000267028809,473600
2020-02-07,9.5600004196167,9.593999862670898,9.079999923706055,9.390000343322754,9.390000343322754,341100
2020-02-10,9.350000381469727,9.720000267028809,8.975000381469727,9.579999923706055,9.579999923706055,575400
2020-02-11,9.289999961853027,9.289999961853027,7.0,7.849999904632568,7.849999904632568,2253000
2020-02-12,7.849999904632568,8.239999771118164,6.96999979019165,6.980000019073486,6.980000019073486,1382500
2020-02-13,6.940000057220459,7.630000114440918,6.869999885559082,7.599999904632568,7.599999904632568,1017100
2020-02-14,7.599999904632568,7.639999866485596,6.78000020980835,7.039999961853027,7.039999961853027,908300
2020-02-18,6.940000057220459,6.989999771118164,6.110000133514404,6.210000038146973,6.210000038146973,1530300
2020-02-19,6.389999866485596,6.659999847412109,6.260000228881836,6.369999885559082,6.369999885559082,818400
2020-02-20,6.389999866485596,6.489999771118164,5.989999771118164,6.039999961853027,6.039999961853027,624600
2020-02-21,6.039999961853027,6.130000114440918,5.710000038146973,5.880000114440918,5.880000114440918,696100
2020-02-24,5.639999866485596,6.460000038146973,5.349999904632568,6.090000152587891,6.090000152587891,836600
2020-02-25,6.090000152587891,6.110000133514404,5.71999979019165,5.949999809265137,5.949999809265137,583800
2020-02-26,5.929999828338623,6.010000228881836,5.269999980926514,5.550000190734863,5.550000190734863,1227900
2020-02-27,5.320000171661377,5.730000019073486,4.940000057220459,5.590000152587891,5.590000152587891,960200
2020-02-28,5.389999866485596,6.070000171661377,5.389999866485596,5.690000057220459,5.690000057220459,777300
2020-03-02,5.78000020980835,5.789999961853027,5.0,5.010000228881836,5.010000228881836,710100
2020-03-03,5.039999961853027,5.579999923706055,5.0,5.46999979019165,5.46999979019165,687200
2020-03-04,5.53000020980835,6.210000038146973,5.46999979019165,6.090000152587891,6.090000152587891,720300
2020-03-05,6.019999980926514,6.46999979019165,5.920000076293945,6.329999923706055,6.329999923706055,857500
2020-03-06,6.28000020980835,6.369999885559082,5.75,6.309999942779541,6.309999942779541,1558000
2020-03-09,5.360000133514404,6.239999771118164,5.360000133514404,5.670000076293945,5.670000076293945,859600
2020-03-10,6.070000171661377,6.070000171661377,5.460000038146973,5.610000133514404,5.610000133514404,855700
2020-03-11,5.590000152587891,5.590000152587891,5.039999961853027,5.320000171661377,5.320000171661377,569200
2020-03-12,4.889999866485596,5.239999771118164,4.269999980926514,4.480000019073486,4.480000019073486,708400
2020-03-13,4.659999847412109,5.485000133514404,4.460000038146973,5.46999979019165,5.46999979019165,885400
2020-03-16,4.869999885559082,6.170000076293945,4.869999885559082,5.519999980926514,5.519999980926514,1037500
2020-03-17,5.679999828338623,8.420000076293945,5.519999980926514,8.279999732971191,8.279999732971191,1964600
2020-03-18,7.75,8.109999656677246,6.889999866485596,7.269999980926514,7.269999980926514,996300
2020-03-19,7.329999923706055,8.687999725341797,7.170000076293945,7.420000076293945,7.420000076293945,825200
2020-03-20,7.380000114440918,7.546999931335449,5.579999923706055,6.389999866485596,6.389999866485596,1830000
2020-03-23,6.110000133514404,6.579999923706055,4.269999980926514,4.409999847412109,4.409999847412109,753700
2020-03-24,4.849999904632568,4.929999828338623,4.510000228881836,4.809999942779541,4.809999942779541,588400
2020-03-25,4.849999904632568,5.289999961853027,4.179999828338623,4.28000020980835,4.28000020980835,1137700
2020-03-26,4.360000133514404,4.659999847412109,3.6600000858306885,4.320000171661377,4.320000171661377,756400
2020-03-27,4.199999809265137,4.289999961853027,4.010000228881836,4.260000228881836,4.260000228881836,362900
2020-03-30,4.199999809265137,4.21999979019165,3.6600000858306885,3.7699999809265137,3.7699999809265137,512600
2020-03-31,3.7699999809265137,3.9800000190734863,3.609999895095825,3.690000057220459,3.690000057220459,453700
2020-04-01,3.609999895095825,3.8929998874664307,3.3499999046325684,3.8499999046325684,3.8499999046325684,572100
2020-04-02,3.9000000953674316,4.380000114440918,3.7100000381469727,4.070000171661377,4.070000171661377,833800
2020-04-03,4.099999904632568,4.71999979019165,3.9700000286102295,4.420000076293945,4.420000076293945,841600
2020-04-06,4.619999885559082,4.820000171661377,4.380000114440918,4.559999942779541,4.559999942779541,419500
2020-04-07,4.800000190734863,4.840000152587891,3.950000047683716,3.9600000381469727,3.9600000381469727,561000
2020-04-08,4.0,4.329999923706055,3.859999895095825,4.300000190734863,4.300000190734863,438100
2020-04-09,4.389999866485596,5.519999980926514,4.269999980926514,5.489999771118164,5.489999771118164,1028000
2020-04-13,5.5,6.0,5.300000190734863,5.710000038146973,5.710000038146973,652800
2020-04-14,5.869999885559082,6.28000020980835,5.619999885559082,5.980000019073486,5.980000019073486,666400
2020-04-15,5.78000020980835,5.78000020980835,5.309999942779541,5.440000057220459,5.440000057220459,362400
2020-04-16,5.400000095367432,5.409999847412109,4.650000095367432,4.869999885559082,4.869999885559082,540600
2020-04-17,5.099999904632568,5.449999809265137,5.0,5.230000019073486,5.230000019073486,432600
2020-04-20,5.28000020980835,5.489999771118164,4.820000171661377,5.159999847412109,5.159999847412109,583500
2020-04-21,4.96999979019165,5.489999771118164,4.949999809265137,5.349999904632568,5.349999904632568,657700
2020-04-22,5.570000171661377,5.934999942779541,5.440000057220459,5.800000190734863,5.800000190734863,589400
2020-04-23,5.789999961853027,6.0,4.940000057220459,5.019999980926514,5.019999980926514,684400
2020-04-24,5.119999885559082,5.230000019073486,4.360000133514404,4.760000228881836,4.760000228881836,481800
2020-04-27,4.800000190734863,5.0,4.349999904632568,4.980000019073486,4.980000019073486,318200
2020-04-28,5.0,5.650000095367432,5.0,5.619999885559082,5.619999885559082,477000
2020-04-29,5.75,6.289999961853027,5.659999847412109,6.0,6.0,872400
2020-04-30,6.199999809265137,7.670000076293945,5.849999904632568,7.590000152587891,7.590000152587891,1602000
2020-05-01,7.300000190734863,7.559999942779541,6.800000190734863,6.909999847412109,6.909999847412109,888500
2020-05-04,6.710000038146973,7.210000038146973,6.53000020980835,7.070000171661377,7.070000171661377,382300
2020-05-05,7.269999980926514,7.599999904632568,6.570000171661377,6.639999866485596,6.639999866485596,533400
2020-05-06,6.630000114440918,6.840000152587891,6.099999904632568,6.150000095367432,6.150000095367432,275100
2020-05-07,6.210000038146973,6.489999771118164,5.820000171661377,5.869999885559082,5.869999885559082,236600
2020-05-08,5.989999771118164,7.320000171661377,5.989999771118164,7.179999828338623,7.179999828338623,609400
2020-05-11,6.460000038146973,7.5,6.304999828338623,7.409999847412109,7.409999847412109,634800
2020-05-12,7.340000152587891,7.53000020980835,7.0,7.050000190734863,7.050000190734863,492300
2020-05-13,6.949999809265137,7.070000171661377,6.179999828338623,6.260000228881836,6.260000228881836,648600
2020-05-14,6.139999866485596,6.429999828338623,5.809999942779541,6.199999809265137,6.199999809265137,415700
2020-05-15,6.340000152587891,6.559999942779541,5.940000057220459,5.96999979019165,5.96999979019165,741400
2020-05-18,6.170000076293945,7.03000020980835,6.090000152587891,6.869999885559082,6.869999885559082,485500
2020-05-19,6.860000133514404,7.179999828338623,6.5,6.809999942779541,6.809999942779541,318800
2020-05-20,6.900000095367432,7.5,6.835000038146973,7.300000190734863,7.300000190734863,380500
2020-05-21,7.239999771118164,7.389999866485596,6.829999923706055,6.96999979019165,6.96999979019165,383700
2020-05-22,6.909999847412109,7.050000190734863,6.619999885559082,6.929999828338623,6.929999828338623,217100
2020-05-26,7.199999809265137,7.215000152587891,6.760000228881836,6.989999771118164,6.989999771118164,422700
2020-05-27,7.150000095367432,7.380000114440918,6.809999942779541,7.320000171661377,7.320000171661377,343700
2020-05-28,7.400000095367432,7.71999979019165,7.039999961853027,7.590000152587891,7.590000152587891,492000
2020-05-29,7.519999980926514,7.590000152587891,6.71999979019165,6.809999942779541,6.809999942779541,574700
2020-06-01,6.769999980926514,7.019999980926514,6.71999979019165,6.78000020980835,6.78000020980835,212100
2020-06-02,6.789999961853027,6.909999847412109,6.429999828338623,6.480000019073486,6.480000019073486,419900
2020-06-03,6.630000114440918,7.099999904632568,6.610000133514404,6.699999809265137,6.699999809265137,354500
2020-06-04,6.610000133514404,7.300000190734863,6.420000076293945,7.260000228881836,7.260000228881836,378600
2020-06-05,7.570000171661377,8.369999885559082,7.570000171661377,8.140000343322754,8.140000343322754,640600
2020-06-08,8.539999961853027,9.890000343322754,8.539999961853027,9.800000190734863,9.800000190734863,1024400
2020-06-09,9.510000228881836,9.949999809265137,9.119999885559082,9.420000076293945,9.420000076293945,567900
2020-06-10,9.380000114440918,9.399999618530273,8.869999885559082,8.880000114440918,8.880000114440918,527100
2020-06-11,8.369999885559082,8.369999885559082,7.119999885559082,7.230000019073486,7.230000019073486,523400
2020-06-12,7.71999979019165,7.920000076293945,6.699999809265137,7.070000171661377,7.070000171661377,564100
2020-06-15,6.690000057220459,7.170000076293945,6.409999847412109,7.010000228881836,7.010000228881836,455900
2020-06-16,7.380000114440918,7.639999866485596,7.070000171661377,7.420000076293945,7.420000076293945,439200
2020-06-17,7.389999866485596,7.389999866485596,6.440000057220459,6.46999979019165,6.46999979019165,778700
2020-06-18,6.46999979019165,6.630000114440918,6.059999942779541,6.110000133514404,6.110000133514404,740900
2020-06-19,6.150000095367432,6.449999809265137,5.929999828338623,6.079999923706055,6.079999923706055,1900200
2020-06-22,6.0,6.25,5.570000171661377,5.590000152587891,5.590000152587891,836500
2020-06-23,5.710000038146973,5.869999885559082,5.340000152587891,5.630000114440918,5.630000114440918,834500
2020-06-24,5.460000038146973,5.599999904632568,5.179999828338623,5.289999961853027,5.289999961853027,630400
2020-06-25,5.21999979019165,5.849999904632568,5.090000152587891,5.630000114440918,5.630000114440918,707800
2020-06-26,5.46999979019165,5.46999979019165,5.070000171661377,5.110000133514404,5.110000133514404,580800
2020-06-29,5.099999904632568,5.5,5.099999904632568,5.25,5.25,363500
2020-06-30,5.25,5.28000020980835,5.0,5.070000171661377,5.070000171661377,734800
2020-07-01,5.070000171661377,5.275000095367432,4.940000057220459,5.010000228881836,5.010000228881836,375400
2020-07-02,5.159999847412109,5.2820000648498535,5.050000190734863,5.170000076293945,5.170000076293945,278900
2020-07-06,5.349999904632568,5.659999847412109,5.119999885559082,5.389999866485596,5.389999866485596,364800
2020-07-07,5.289999961853027,5.46999979019165,5.170000076293945,5.199999809265137,5.199999809265137,407700
2020-07-08,5.150000095367432,5.369999885559082,5.039999961853027,5.349999904632568,5.349999904632568,287000
2020-07-09,5.300000190734863,5.389999866485596,4.909999847412109,5.150000095367432,5.150000095367432,389000
2020-07-10,5.130000114440918,5.440000057220459,5.010000228881836,5.400000095367432,5.400000095367432,271500
2020-07-13,5.489999771118164,5.599999904632568,5.230000019073486,5.28000020980835,5.28000020980835,259900
2020-07-14,5.230000019073486,5.699999809265137,5.130000114440918,5.400000095367432,5.400000095367432,340900
2020-07-15,5.739999771118164,5.75,5.440000057220459,5.630000114440918,5.630000114440918,361800
2020-07-16,5.579999923706055,5.760000228881836,5.440000057220459,5.730000019073486,5.730000019073486,205600
2020-07-17,5.739999771118164,6.090000152587891,5.739999771118164,5.860000133514404,5.860000133514404,366500
2020-07-20,5.860000133514404,5.96999979019165,5.460000038146973,5.53000020980835,5.53000020980835,312700
2020-07-21,5.599999904632568,5.869999885559082,5.460000038146973,5.579999923706055,5.579999923706055,262900
2020-07-22,5.5,5.670000076293945,5.460000038146973,5.489999771118164,5.489999771118164,195000
2020-07-23,5.440000057220459,5.889999866485596,5.369999885559082,5.610000133514404,5.610000133514404,362400
2020-07-24,5.610000133514404,5.690000057220459,5.380000114440918,5.389999866485596,5.389999866485596,227600
2020-07-27,5.369999885559082,5.619999885559082,5.290999889373779,5.550000190734863,5.550000190734863,199800
2020-07-28,5.5,5.599999904632568,5.260000228881836,5.480000019073486,5.480000019073486,200000
2020-07-29,5.480000019073486,6.019999980926514,5.440000057220459,6.019999980926514,6.019999980926514,398400
2020-07-30,5.820000171661377,5.96999979019165,5.550000190734863,5.920000076293945,5.920000076293945,193400
2020-07-31,5.880000114440918,5.920000076293945,5.5,5.880000114440918,5.880000114440918,343100
2020-08-03,5.800000190734863,5.96999979019165,5.675000190734863,5.800000190734863,5.800000190734863,253400
2020-08-04,5.710000038146973,5.880000114440918,5.480000019073486,5.519999980926514,5.519999980926514,348300
2020-08-05,5.650000095367432,5.71999979019165,5.099999904632568,5.119999885559082,5.119999885559082,412600
2020-08-06,5.110000133514404,5.15500020980835,4.90500020980835,4.96999979019165,4.96999979019165,450000
2020-08-07,5.179999828338623,5.230000019073486,4.900000095367432,5.179999828338623,5.179999828338623,297700
2020-08-10,5.239999771118164,5.679999828338623,5.050000190734863,5.610000133514404,5.610000133514404,362500
2020-08-11,5.579999923706055,5.949999809265137,5.550000190734863,5.610000133514404,5.610000133514404,381300
2020-08-12,5.730000019073486,5.739999771118164,5.355999946594238,5.519999980926514,5.519999980926514,231900
2020-08-13,5.489999771118164,5.610000133514404,5.320000171661377,5.329999923706055,5.329999923706055,188600
2020-08-14,5.369999885559082,5.639999866485596,5.289999961853027,5.550000190734863,5.550000190734863,234400
2020-08-17,5.53000020980835,5.670000076293945,5.498000144958496,5.650000095367432,5.650000095367432,200500
2020-08-18,5.710000038146973,5.710000038146973,5.360000133514404,5.46999979019165,5.46999979019165,257400
2020-08-19,5.480000019073486,5.480000019073486,5.099999904632568,5.150000095367432,5.150000095367432,278300
2020-08-20,5.099999904632568,5.179999828338623,4.920000076293945,5.090000152587891,5.090000152587891,321700
2020-08-21,5.03000020980835,5.127999782562256,4.960000038146973,5.019999980926514,5.019999980926514,335600
2020-08-24,5.059999942779541,5.119999885559082,4.900000095367432,5.050000190734863,5.050000190734863,500300
2020-08-25,5.159999847412109,5.289999961853027,4.929999828338623,5.050000190734863,5.050000190734863,276300
2020-08-26,5.019999980926514,5.199999809265137,4.980000019073486,5.119999885559082,5.119999885559082,184600
2020-08-27,5.159999847412109,5.364999771118164,5.091000080108643,5.309999942779541,5.309999942779541,316700
2020-08-28,5.400000095367432,5.599999904632568,5.079999923706055,5.380000114440918,5.380000114440918,328900
2020-08-31,5.349999904632568,5.429999828338623,5.139999866485596,5.170000076293945,5.170000076293945,295400
2020-09-01,5.199999809265137,5.289999961853027,4.960000038146973,5.130000114440918,5.130000114440918,422700
2020-09-02,5.119999885559082,5.119999885559082,4.769999980926514,4.980000019073486,4.980000019073486,465900
2020-09-03,4.980000019073486,5.130000114440918,4.849999904632568,4.929999828338623,4.929999828338623,334600
2020-09-04,5.03000020980835,5.050000190734863,4.449999809265137,4.659999847412109,4.659999847412109,609000
2020-09-08,4.599999904632568,4.599999904632568,4.199999809265137,4.360000133514404,4.360000133514404,724300
2020-09-09,4.420000076293945,4.570000171661377,4.199999809265137,4.5,4.5,648100
2020-09-10,4.519999980926514,4.90500020980835,4.400000095367432,4.679999828338623,4.679999828338623,718400
2020-09-11,4.679999828338623,4.710000038146973,4.46999979019165,4.590000152587891,4.590000152587891,265700
2020-09-14,4.619999885559082,4.869999885559082,4.460000038146973,4.809999942779541,4.809999942779541,264200
2020-09-15,4.860000133514404,5.190000057220459,4.730000019073486,5.110000133514404,5.110000133514404,263200
2020-09-16,5.139999866485596,5.400000095367432,5.070000171661377,5.389999866485596,5.389999866485596,255800
2020-09-17,5.340000152587891,5.570000171661377,5.190000057220459,5.239999771118164,5.239999771118164,273300
2020-09-18,5.320000171661377,6.010000228881836,5.300000190734863,5.75,5.75,960600
2020-09-21,5.519999980926514,5.570000171661377,5.0,5.269999980926514,5.269999980926514,376400
2020-09-22,5.28000020980835,5.349999904632568,5.119999885559082,5.210000038146973,5.210000038146973,217100
2020-09-23,5.21999979019165,5.380000114440918,4.670000076293945,4.739999771118164,4.739999771118164,325300
2020-09-24,4.820000171661377,4.909999847412109,4.579999923706055,4.75,4.75,223600
2020-09-25,4.679999828338623,4.769999980926514,4.349999904632568,4.380000114440918,4.380000114440918,378200
2020-09-28,4.449999809265137,4.739999771118164,4.289999961853027,4.679999828338623,4.679999828338623,364900
2020-09-29,4.650000095367432,4.710000038146973,4.349999904632568,4.519999980926514,4.519999980926514,521700
2020-09-30,4.489999771118164,4.739999771118164,4.380000114440918,4.429999828338623,4.429999828338623,400900
2020-10-01,4.420000076293945,4.449999809265137,4.050000190734863,4.119999885559082,4.119999885559082,339800
2020-10-02,4.059999942779541,4.429999828338623,4.050000190734863,4.380000114440918,4.380000114440918,289400
2020-10-05,4.489999771118164,4.581999778747559,4.329999923706055,4.369999885559082,4.369999885559082,138200
2020-10-06,4.429999828338623,4.579999923706055,4.170000076293945,4.190000057220459,4.190000057220459,227600
2020-10-07,4.21999979019165,4.260000228881836,4.019999980926514,4.119999885559082,4.119999885559082,297200
2020-10-08,4.159999847412109,4.329999923706055,4.070000171661377,4.320000171661377,4.320000171661377,172500
2020-10-09,4.440000057220459,4.5,4.190000057220459,4.300000190734863,4.300000190734863,190900
2020-10-12,4.380000114440918,4.550000190734863,4.300000190734863,4.360000133514404,4.360000133514404,290700
2020-10-13,4.329999923706055,4.329999923706055,4.099999904632568,4.28000020980835,4.28000020980835,279100
2020-10-14,4.320000171661377,4.340000152587891,4.130000114440918,4.170000076293945,4.170000076293945,167000
2020-10-15,4.21999979019165,4.38100004196167,4.119999885559082,4.170000076293945,4.170000076293945,299600
2020-10-16,4.199999809265137,4.2170000076293945,4.0,4.110000133514404,4.110000133514404,206100
2020-10-19,4.119999885559082,4.210000038146973,4.019999980926514,4.03000020980835,4.03000020980835,200100
2020-10-20,4.050000190734863,4.170000076293945,3.9800000190734863,4.119999885559082,4.119999885559082,220200
2020-10-21,4.099999904632568,4.389999866485596,4.099999904632568,4.199999809265137,4.199999809265137,186700
2020-10-22,4.21999979019165,4.340000152587891,4.170000076293945,4.320000171661377,4.320000171661377,122200
2020-10-23,4.460000038146973,4.809999942779541,4.349999904632568,4.679999828338623,4.679999828338623,423000
2020-10-26,4.630000114440918,4.889999866485596,4.550000190734863,4.889999866485596,4.889999866485596,356000
2020-10-27,4.889999866485596,4.900000095367432,4.460000038146973,4.46999979019165,4.46999979019165,322700
2020-10-28,4.369999885559082,4.429999828338623,4.010000228881836,4.079999923706055,4.079999923706055,420700
2020-10-29,4.050000190734863,4.139999866485596,3.8499999046325684,3.859999895095825,3.859999895095825,385900
2020-10-30,3.8399999141693115,3.9000000953674316,3.7300000190734863,3.7899999618530273,3.7899999618530273,295300
2020-11-02,3.8499999046325684,4.150000095367432,3.700000047683716,4.019999980926514,4.019999980926514,285400
2020-11-03,4.110000133514404,4.199999809265137,3.9000000953674316,4.039999961853027,4.039999961853027,362900
2020-11-04,3.9600000381469727,3.9600000381469727,3.700000047683716,3.759999990463257,3.759999990463257,571700
2020-11-05,3.759999990463257,4.21999979019165,3.6600000858306885,4.110000133514404,4.110000133514404,631400
2020-11-06,4.139999866485596,4.210000038146973,3.884999990463257,4.039999961853027,4.039999961853027,384700
2020-11-09,4.429999828338623,4.789999961853027,4.329999923706055,4.460000038146973,4.460000038146973,538600
2020-11-10,4.559999942779541,4.619999885559082,4.340000152587891,4.440000057220459,4.440000057220459,272900
2020-11-11,4.440000057220459,4.690000057220459,4.369999885559082,4.670000076293945,4.670000076293945,267800
2020-11-12,4.679999828338623,4.679999828338623,4.25,4.349999904632568,4.349999904632568,254200
2020-11-13,4.400000095367432,4.579999923706055,4.369999885559082,4.489999771118164,4.489999771118164,147800
2020-11-16,4.659999847412109,4.940000057220459,4.539999961853027,4.78000020980835,4.78000020980835,590100
2020-11-17,4.78000020980835,5.048999786376953,4.630000114440918,4.909999847412109,4.909999847412109,389700
2020-11-18,4.909999847412109,5.369999885559082,4.8460001945495605,4.960000038146973,4.960000038146973,424400
2020-11-19,4.940000057220459,5.159999847412109,4.789999961853027,5.110000133514404,5.110000133514404,259300
2020-11-20,5.050000190734863,5.179999828338623,4.96999979019165,5.119999885559082,5.119999885559082,171700
2020-11-23,5.230000019073486,5.480000019073486,5.039999961853027,5.440000057220459,5.440000057220459,502000
2020-11-24,5.570000171661377,6.070000171661377,5.46999979019165,5.929999828338623,5.929999828338623,682300
2020-11-25,5.860000133514404,6.159999847412109,5.574999809265137,6.019999980926514,6.019999980926514,435000
2020-11-27,6.010000228881836,6.010000228881836,5.579999923706055,5.679999828338623,5.679999828338623,410300
2020-11-30,5.590000152587891,5.730000019073486,5.269999980926514,5.289999961853027,5.289999961853027,650300
2020-12-01,5.420000076293945,5.519999980926514,5.110000133514404,5.21999979019165,5.21999979019165,475100
2020-12-02,5.21999979019165,5.650000095367432,5.110000133514404,5.610000133514404,5.610000133514404,358700
2020-12-03,5.619999885559082,5.849999904632568,5.502999782562256,5.710000038146973,5.710000038146973,354900
2020-12-04,5.800000190734863,5.840000152587891,5.53000020980835,5.730000019073486,5.730000019073486,271800
2020-12-07,5.670000076293945,5.929999828338623,5.559999942779541,5.849999904632568,5.849999904632568,299200
2020-12-08,5.800000190734863,6.349999904632568,5.679999828338623,6.110000133514404,6.110000133514404,605700
2020-12-09,6.199999809265137,6.639999866485596,6.019999980926514,6.03000020980835,6.03000020980835,780100
2020-12-10,6.0,6.96999979019165,5.889999866485596,6.789999961853027,6.789999961853027,783300
2020-12-11,6.800000190734863,6.800000190734863,6.480000019073486,6.510000228881836,6.510000228881836,393600
2020-12-14,6.690000057220459,7.130000114440918,6.639999866485596,6.849999904632568,6.849999904632568,633700
2020-12-15,6.920000076293945,7.25,6.870999813079834,7.099999904632568,7.099999904632568,381800
2020-12-16,7.130000114440918,7.710000038146973,7.019999980926514,7.679999828338623,7.679999828338623,613200
2020-12-17,7.739999771118164,8.199999809265137,7.309999942779541,7.960000038146973,7.960000038146973,503500
2020-12-18,7.900000095367432,8.140000343322754,7.739999771118164,7.800000190734863,7.800000190734863,1127700
2020-12-21,7.380000114440918,7.699999809265137,7.159999847412109,7.590000152587891,7.590000152587891,479900
2020-12-22,7.630000114440918,7.630000114440918,6.784999847412109,6.829999923706055,6.829999923706055,576900
2020-12-23,6.880000114440918,7.070000171661377,6.650000095367432,6.75,6.75,512600
2020-12-24,6.75,6.760000228881836,6.489999771118164,6.590000152587891,6.590000152587891,166800
2020-12-28,6.639999866485596,6.869999885559082,6.5,6.849999904632568,6.849999904632568,477800
2020-12-29,6.920000076293945,6.920000076293945,6.420000076293945,6.489999771118164,6.489999771118164,227600
2020-12-30,6.5,7.21999979019165,6.5,6.78000020980835,6.78000020980835,1314100
