Date,Open,High,Low,Close,Adj Close,Volume
2019-11-22,10.045000076293945,10.09000015258789,10.03499984741211,10.050000190734863,10.050000190734863,3858800
2019-11-25,10.050000190734863,10.75,10.039999961853027,10.0600004196167,10.0600004196167,94200
2019-11-26,10.0600004196167,10.076000213623047,10.0600004196167,10.069999694824219,10.069999694824219,38300
2019-11-27,10.0600004196167,10.180000305175781,10.0600004196167,10.069999694824219,10.069999694824219,34100
2019-11-29,10.1899995803833,10.1899995803833,10.067000389099121,10.074999809265137,10.074999809265137,3400
2019-12-02,10.069999694824219,10.085000038146973,10.0600004196167,10.0600004196167,10.0600004196167,163100
2019-12-03,10.100000381469727,10.100000381469727,10.050000190734863,10.069999694824219,10.069999694824219,37700
2019-12-04,10.050000190734863,10.09000015258789,10.050000190734863,10.079999923706055,10.079999923706055,427400
2019-12-05,10.079999923706055,10.100000381469727,10.050000190734863,10.079999923706055,10.079999923706055,138400
2019-12-06,10.095000267028809,10.095000267028809,10.074999809265137,10.079999923706055,10.079999923706055,23000
2019-12-09,10.09000015258789,10.100000381469727,10.079999923706055,10.100000381469727,10.100000381469727,10500
2019-12-10,10.079999923706055,10.100000381469727,10.079999923706055,10.100000381469727,10.100000381469727,1300
2019-12-11,10.100000381469727,10.100000381469727,10.100000381469727,10.100000381469727,10.100000381469727,0
2019-12-12,10.100000381469727,10.100000381469727,10.069999694824219,10.100000381469727,10.100000381469727,68900
2019-12-13,10.100000381469727,10.119999885559082,10.100000381469727,10.109999656677246,10.109999656677246,557500
2019-12-16,10.149999618530273,10.15999984741211,10.137999534606934,10.137999534606934,10.137999534606934,15200
2019-12-17,10.13700008392334,10.152999877929688,10.119999885559082,10.149999618530273,10.149999618530273,20900
2019-12-18,10.109999656677246,10.15999984741211,10.109999656677246,10.15999984741211,10.15999984741211,800
2019-12-19,10.15999984741211,10.199999809265137,10.119999885559082,10.170000076293945,10.170000076293945,129200
2019-12-20,10.300000190734863,10.300000190734863,10.119999885559082,10.170000076293945,10.170000076293945,1600
2019-12-23,10.149999618530273,10.149999618530273,10.149999618530273,10.149999618530273,10.149999618530273,100
2019-12-24,10.149999618530273,10.149999618530273,10.149999618530273,10.149999618530273,10.149999618530273,0
2019-12-26,10.149999618530273,10.149999618530273,10.149999618530273,10.149999618530273,10.149999618530273,0
2019-12-27,10.140000343322754,10.15999984741211,10.140000343322754,10.15999984741211,10.15999984741211,11500
2019-12-30,10.15999984741211,10.175000190734863,10.15999984741211,10.175000190734863,10.175000190734863,3900
2019-12-31,10.119999885559082,10.25,10.119999885559082,10.170000076293945,10.170000076293945,153200
2020-01-02,10.170000076293945,10.199999809265137,10.170000076293945,10.180000305175781,10.180000305175781,7500
2020-01-03,10.180000305175781,10.180000305175781,10.180000305175781,10.180000305175781,10.180000305175781,0
2020-01-06,10.180000305175781,10.180000305175781,10.180000305175781,10.180000305175781,10.180000305175781,0
2020-01-07,10.229000091552734,10.229000091552734,10.180000305175781,10.180000305175781,10.180000305175781,1400
2020-01-08,10.180000305175781,10.199999809265137,10.170000076293945,10.199999809265137,10.199999809265137,11600
2020-01-09,10.1899995803833,10.211000442504883,10.1899995803833,10.199999809265137,10.199999809265137,10500
2020-01-10,10.25,10.399999618530273,10.25,10.350000381469727,10.350000381469727,456600
2020-01-13,10.3100004196167,10.3100004196167,10.3100004196167,10.3100004196167,10.3100004196167,100700
2020-01-14,10.220000267028809,10.25,10.210000038146973,10.25,10.25,1100
2020-01-15,10.300000190734863,10.380000114440918,10.300000190734863,10.300000190734863,10.300000190734863,9600
2020-01-16,10.390000343322754,10.390000343322754,10.390000343322754,10.390000343322754,10.390000343322754,10000
2020-01-17,10.359999656677246,10.449999809265137,10.359999656677246,10.449999809265137,10.449999809265137,403200
2020-01-21,10.449999809265137,10.489999771118164,10.40999984741211,10.489999771118164,10.489999771118164,300800
2020-01-22,10.489999771118164,10.489999771118164,10.489999771118164,10.489999771118164,10.489999771118164,0
2020-01-23,10.473999977111816,11.479999542236328,10.359999656677246,10.520000457763672,10.520000457763672,222400
2020-01-24,10.460000038146973,10.460000038146973,10.460000038146973,10.460000038146973,10.460000038146973,2000
2020-01-27,10.449999809265137,10.449999809265137,10.4399995803833,10.4399995803833,10.4399995803833,1300
2020-01-28,10.4399995803833,10.4399995803833,10.4399995803833,10.4399995803833,10.4399995803833,0
2020-01-29,10.4399995803833,10.4399995803833,10.4399995803833,10.4399995803833,10.4399995803833,0
2020-01-30,10.5,10.550000190734863,10.449999809265137,10.5,10.5,102900
2020-01-31,10.449999809265137,10.449999809265137,10.449999809265137,10.449999809265137,10.449999809265137,700
2020-02-03,10.399999618530273,10.449999809265137,10.399999618530273,10.4399995803833,10.4399995803833,2700
2020-02-04,10.5,10.5,10.449999809265137,10.5,10.5,1500
2020-02-05,10.479999542236328,10.479999542236328,10.479999542236328,10.479999542236328,10.479999542236328,800
2020-02-06,10.460000038146973,10.739999771118164,10.449999809265137,10.739999771118164,10.739999771118164,2500
2020-02-07,10.510000228881836,10.579999923706055,10.5,10.539999961853027,10.539999961853027,302500
2020-02-10,10.449999809265137,10.510000228881836,10.449999809265137,10.510000228881836,10.510000228881836,101000
2020-02-11,10.513999938964844,10.520000457763672,10.460000038146973,10.520000457763672,10.520000457763672,62400
2020-02-12,10.520000457763672,10.520000457763672,10.520000457763672,10.520000457763672,10.520000457763672,0
2020-02-13,10.489999771118164,10.5,10.489999771118164,10.489999771118164,10.489999771118164,1500
2020-02-14,10.489999771118164,10.489999771118164,10.489999771118164,10.489999771118164,10.489999771118164,6200
2020-02-18,10.380000114440918,10.90999984741211,10.350000381469727,10.90999984741211,10.90999984741211,4400
2020-02-19,10.539999961853027,10.539999961853027,10.369999885559082,10.369999885559082,10.369999885559082,2100
2020-02-20,10.510000228881836,11.569999694824219,10.510000228881836,10.569999694824219,10.569999694824219,14700
2020-02-21,10.569999694824219,10.569999694824219,10.569999694824219,10.569999694824219,10.569999694824219,0
2020-02-24,10.569999694824219,10.569999694824219,10.569999694824219,10.569999694824219,10.569999694824219,0
2020-02-25,10.569999694824219,10.569999694824219,10.569999694824219,10.569999694824219,10.569999694824219,150000
2020-02-26,10.569999694824219,10.569999694824219,10.569999694824219,10.569999694824219,10.569999694824219,0
2020-02-27,10.75100040435791,10.75100040435791,10.75100040435791,10.75100040435791,10.75100040435791,100
2020-02-28,10.449999809265137,11.03499984741211,10.399999618530273,10.449999809265137,10.449999809265137,415700
2020-03-02,10.470000267028809,10.470000267028809,10.399999618530273,10.399999618530273,10.399999618530273,150400
2020-03-03,10.460000038146973,10.460000038146973,10.460000038146973,10.460000038146973,10.460000038146973,61700
2020-03-04,10.460000038146973,10.460000038146973,10.460000038146973,10.460000038146973,10.460000038146973,0
2020-03-05,10.460000038146973,10.460000038146973,10.460000038146973,10.460000038146973,10.460000038146973,0
2020-03-06,10.399999618530273,10.399999618530273,10.399999618530273,10.399999618530273,10.399999618530273,21800
2020-03-09,10.300000190734863,10.300000190734863,10.199999809265137,10.25,10.25,1000
2020-03-10,10.25,10.25,10.25,10.25,10.25,0
2020-03-11,10.25,10.390000343322754,10.199999809265137,10.380000114440918,10.380000114440918,201300
2020-03-12,10.5,10.5,10.149999618530273,10.149999618530273,10.149999618530273,6400
2020-03-13,10.020000457763672,10.100000381469727,10.0,10.029999732971191,10.029999732971191,114300
2020-03-16,9.8100004196167,9.899999618530273,9.75,9.899999618530273,9.899999618530273,206000
2020-03-17,9.8100004196167,9.899999618530273,9.800000190734863,9.819999694824219,9.819999694824219,255400
2020-03-18,9.800000190734863,9.800000190734863,9.800000190734863,9.800000190734863,9.800000190734863,400
2020-03-19,9.699999809265137,9.701000213623047,9.699999809265137,9.701000213623047,9.701000213623047,2300
2020-03-20,9.800000190734863,9.800000190734863,9.071000099182129,9.550000190734863,9.550000190734863,6200
2020-03-23,9.550000190734863,9.550000190734863,9.550000190734863,9.550000190734863,9.550000190734863,0
2020-03-24,9.640000343322754,9.640000343322754,9.640000343322754,9.640000343322754,9.640000343322754,1100
2020-03-25,9.699999809265137,10.175000190734863,9.699999809265137,9.699999809265137,9.699999809265137,233700
2020-03-26,9.850000381469727,9.850000381469727,9.850000381469727,9.850000381469727,9.850000381469727,2200
2020-03-27,9.850000381469727,9.850000381469727,9.850000381469727,9.850000381469727,9.850000381469727,0
2020-03-30,9.850000381469727,9.850000381469727,9.850000381469727,9.850000381469727,9.850000381469727,20900
2020-03-31,9.890000343322754,9.890000343322754,9.890000343322754,9.890000343322754,9.890000343322754,1200
2020-04-01,9.899999618530273,10.265000343322754,9.899999618530273,9.899999618530273,9.899999618530273,10400
2020-04-02,9.899999618530273,9.899999618530273,9.899999618530273,9.899999618530273,9.899999618530273,0
2020-04-03,9.899999618530273,9.899999618530273,9.899999618530273,9.899999618530273,9.899999618530273,45200
2020-04-06,9.899999618530273,9.899999618530273,9.899999618530273,9.899999618530273,9.899999618530273,0
2020-04-07,9.949999809265137,9.949999809265137,9.949999809265137,9.949999809265137,9.949999809265137,200
2020-04-08,9.949999809265137,9.949999809265137,9.949999809265137,9.949999809265137,9.949999809265137,0
2020-04-09,9.949999809265137,9.949999809265137,9.949999809265137,9.949999809265137,9.949999809265137,0
2020-04-13,9.949999809265137,9.949999809265137,9.949999809265137,9.949999809265137,9.949999809265137,11000
2020-04-14,9.989999771118164,9.989999771118164,9.949999809265137,9.949999809265137,9.949999809265137,700
2020-04-15,10.020000457763672,10.020000457763672,10.020000457763672,10.020000457763672,10.020000457763672,50000
2020-04-16,10.050000190734863,10.050000190734863,10.050000190734863,10.050000190734863,10.050000190734863,28000
2020-04-17,10.050000190734863,10.050000190734863,10.050000190734863,10.050000190734863,10.050000190734863,0
2020-04-20,10.050000190734863,10.050000190734863,10.050000190734863,10.050000190734863,10.050000190734863,0
2020-04-21,9.899999618530273,9.899999618530273,9.899999618530273,9.899999618530273,9.899999618530273,300
2020-04-22,10.050000190734863,10.050000190734863,10.050000190734863,10.050000190734863,10.050000190734863,36300
2020-04-23,10.050000190734863,10.050000190734863,10.050000190734863,10.050000190734863,10.050000190734863,0
2020-04-24,10.050000190734863,10.050000190734863,10.050000190734863,10.050000190734863,10.050000190734863,0
2020-04-27,10.050000190734863,10.050000190734863,10.050000190734863,10.050000190734863,10.050000190734863,0
2020-04-28,10.050000190734863,10.050000190734863,10.050000190734863,10.050000190734863,10.050000190734863,0
2020-04-29,10.0,10.0,10.0,10.0,10.0,1000
2020-04-30,10.199999809265137,10.199999809265137,10.199999809265137,10.199999809265137,10.199999809265137,100
2020-05-01,10.199999809265137,10.199999809265137,10.199999809265137,10.199999809265137,10.199999809265137,0
2020-05-04,10.199999809265137,10.199999809265137,10.199999809265137,10.199999809265137,10.199999809265137,0
2020-05-05,10.199999809265137,10.199999809265137,10.199999809265137,10.199999809265137,10.199999809265137,0
2020-05-06,10.199999809265137,10.199999809265137,10.199999809265137,10.199999809265137,10.199999809265137,0
2020-05-07,10.199999809265137,10.199999809265137,10.199999809265137,10.199999809265137,10.199999809265137,0
2020-05-08,10.199999809265137,10.199999809265137,10.199999809265137,10.199999809265137,10.199999809265137,0
2020-05-11,10.199999809265137,10.199999809265137,10.199999809265137,10.199999809265137,10.199999809265137,0
2020-05-12,10.199999809265137,10.199999809265137,10.199999809265137,10.199999809265137,10.199999809265137,0
2020-05-13,10.199999809265137,10.199999809265137,10.199999809265137,10.199999809265137,10.199999809265137,0
2020-05-14,10.199999809265137,10.199999809265137,10.199999809265137,10.199999809265137,10.199999809265137,0
2020-05-15,10.199999809265137,10.199999809265137,10.199999809265137,10.199999809265137,10.199999809265137,0
2020-05-18,10.199999809265137,10.199999809265137,10.199999809265137,10.199999809265137,10.199999809265137,0
2020-05-19,10.199999809265137,10.199999809265137,10.199999809265137,10.199999809265137,10.199999809265137,0
2020-05-20,10.006999969482422,10.006999969482422,10.006999969482422,10.006999969482422,10.006999969482422,1500
2020-05-21,10.0,10.0,9.949999809265137,9.949999809265137,9.949999809265137,400
2020-05-22,9.949999809265137,9.949999809265137,9.949999809265137,9.949999809265137,9.949999809265137,0
2020-05-26,9.949999809265137,9.949999809265137,9.949999809265137,9.949999809265137,9.949999809265137,0
2020-05-27,9.949999809265137,9.949999809265137,9.949999809265137,9.949999809265137,9.949999809265137,0
2020-05-28,10.100000381469727,10.100000381469727,10.100000381469727,10.100000381469727,10.100000381469727,4200
2020-05-29,10.100000381469727,10.100000381469727,10.100000381469727,10.100000381469727,10.100000381469727,0
2020-06-01,10.109999656677246,10.109999656677246,10.109999656677246,10.109999656677246,10.109999656677246,100
2020-06-02,10.140000343322754,10.140000343322754,10.100000381469727,10.100000381469727,10.100000381469727,10400
2020-06-03,10.100000381469727,10.100000381469727,10.029999732971191,10.029999732971191,10.029999732971191,33200
2020-06-04,10.029999732971191,10.029999732971191,10.029999732971191,10.029999732971191,10.029999732971191,0
2020-06-05,10.020000457763672,10.020000457763672,10.020000457763672,10.020000457763672,10.020000457763672,100
2020-06-08,10.0600004196167,10.0600004196167,10.0600004196167,10.0600004196167,10.0600004196167,600
2020-06-09,10.100000381469727,10.100000381469727,10.100000381469727,10.100000381469727,10.100000381469727,50000
2020-06-10,10.140000343322754,10.149999618530273,10.140000343322754,10.145000457763672,10.145000457763672,1800
2020-06-11,10.145000457763672,10.145000457763672,10.145000457763672,10.145000457763672,10.145000457763672,0
2020-06-12,10.100000381469727,10.149999618530273,10.100000381469727,10.109999656677246,10.109999656677246,186100
2020-06-15,10.199999809265137,10.199999809265137,10.069999694824219,10.100000381469727,10.100000381469727,155400
2020-06-16,10.100000381469727,10.100000381469727,10.100000381469727,10.100000381469727,10.100000381469727,1100
2020-06-17,10.119999885559082,10.119999885559082,10.119999885559082,10.119999885559082,10.119999885559082,31900
2020-06-18,10.050000190734863,10.25,10.050000190734863,10.25,10.25,4100
2020-06-19,10.25,10.25,10.25,10.25,10.25,0
2020-06-22,10.25,10.25,10.25,10.25,10.25,0
2020-06-23,10.25,10.25,10.25,10.25,10.25,0
2020-06-24,10.25,10.25,10.25,10.25,10.25,0
2020-06-25,10.25,10.25,10.25,10.25,10.25,0
2020-06-26,10.25,10.25,10.25,10.25,10.25,0
2020-06-29,10.25,10.25,10.25,10.25,10.25,0
2020-06-30,10.25,10.25,10.25,10.25,10.25,0
2020-07-01,10.25,10.25,10.25,10.25,10.25,0
2020-07-02,10.25,10.25,10.25,10.25,10.25,0
2020-07-06,10.300000190734863,10.300000190734863,10.300000190734863,10.300000190734863,10.300000190734863,2000
2020-07-07,10.300000190734863,10.300000190734863,10.300000190734863,10.300000190734863,10.300000190734863,0
2020-07-08,10.300000190734863,10.300000190734863,10.300000190734863,10.300000190734863,10.300000190734863,0
2020-07-09,10.300000190734863,10.300000190734863,10.300000190734863,10.300000190734863,10.300000190734863,0
2020-07-10,10.300000190734863,10.300000190734863,10.300000190734863,10.300000190734863,10.300000190734863,0
2020-07-13,10.404999732971191,10.510000228881836,10.404999732971191,10.510000228881836,10.510000228881836,5400
2020-07-14,10.300000190734863,10.600000381469727,10.300000190734863,10.600000381469727,10.600000381469727,255000
2020-07-15,10.649999618530273,10.649999618530273,10.649999618530273,10.649999618530273,10.649999618530273,1500
2020-07-16,10.989999771118164,11.0,10.899999618530273,10.899999618530273,10.899999618530273,32700
2020-07-17,11.15999984741211,11.15999984741211,11.15999984741211,11.15999984741211,11.15999984741211,900
2020-07-20,11.0,11.0,11.0,11.0,11.0,1000
2020-07-21,10.960000038146973,10.960000038146973,10.75,10.850000381469727,10.850000381469727,4300
2020-07-22,10.850000381469727,10.850000381469727,10.850000381469727,10.850000381469727,10.850000381469727,0
2020-07-23,10.949999809265137,10.970000267028809,10.850000381469727,10.970000267028809,10.970000267028809,5100
2020-07-24,10.970000267028809,10.970000267028809,10.970000267028809,10.970000267028809,10.970000267028809,0
2020-07-27,10.970000267028809,10.970000267028809,10.970000267028809,10.970000267028809,10.970000267028809,0
2020-07-28,10.970000267028809,10.970000267028809,10.970000267028809,10.970000267028809,10.970000267028809,0
2020-07-29,10.970000267028809,10.970000267028809,10.970000267028809,10.970000267028809,10.970000267028809,0
2020-07-30,10.970000267028809,10.970000267028809,10.970000267028809,10.970000267028809,10.970000267028809,0
2020-07-31,10.307000160217285,10.510000228881836,10.307000160217285,10.510000228881836,10.510000228881836,4500
2020-08-03,10.510000228881836,10.510000228881836,10.510000228881836,10.510000228881836,10.510000228881836,0
2020-08-04,10.510000228881836,10.510000228881836,10.510000228881836,10.510000228881836,10.510000228881836,0
2020-08-05,10.489999771118164,10.489999771118164,10.489999771118164,10.489999771118164,10.489999771118164,308900
2020-08-06,10.489999771118164,10.489999771118164,10.489999771118164,10.489999771118164,10.489999771118164,0
2020-08-07,10.741000175476074,10.741000175476074,10.741000175476074,10.741000175476074,10.741000175476074,700
2020-08-10,10.899999618530273,10.899999618530273,10.899999618530273,10.899999618530273,10.899999618530273,1800
2020-08-11,10.899999618530273,10.899999618530273,10.899999618530273,10.899999618530273,10.899999618530273,0
2020-08-12,10.899999618530273,10.899999618530273,10.899999618530273,10.899999618530273,10.899999618530273,0
2020-08-13,10.899999618530273,10.899999618530273,10.899999618530273,10.899999618530273,10.899999618530273,0
2020-08-14,10.899999618530273,10.899999618530273,10.899999618530273,10.899999618530273,10.899999618530273,0
2020-08-17,10.899999618530273,10.899999618530273,10.899999618530273,10.899999618530273,10.899999618530273,0
2020-08-18,10.510000228881836,10.510000228881836,10.510000228881836,10.510000228881836,10.510000228881836,1000
2020-08-19,10.449999809265137,10.449999809265137,10.449999809265137,10.449999809265137,10.449999809265137,1600
2020-08-20,10.449999809265137,10.449999809265137,10.449999809265137,10.449999809265137,10.449999809265137,0
2020-08-21,10.449999809265137,10.449999809265137,10.449999809265137,10.449999809265137,10.449999809265137,0
2020-08-24,10.449999809265137,10.449999809265137,10.449999809265137,10.449999809265137,10.449999809265137,0
2020-08-25,10.449999809265137,10.449999809265137,10.449999809265137,10.449999809265137,10.449999809265137,0
2020-08-26,10.449999809265137,10.449999809265137,10.449999809265137,10.449999809265137,10.449999809265137,0
2020-08-27,10.449999809265137,10.449999809265137,10.449999809265137,10.449999809265137,10.449999809265137,0
2020-08-28,10.40999984741211,10.5,10.40999984741211,10.5,10.5,32500
2020-08-31,10.739999771118164,10.760000228881836,10.729999542236328,10.760000228881836,10.760000228881836,10200
2020-09-01,10.79699993133545,10.800000190734863,10.79699993133545,10.800000190734863,10.800000190734863,500
2020-09-02,10.800000190734863,10.800000190734863,10.800000190734863,10.800000190734863,10.800000190734863,0
2020-09-03,10.79699993133545,10.800000190734863,10.79699993133545,10.800000190734863,10.800000190734863,500
2020-09-04,10.800000190734863,10.800000190734863,10.800000190734863,10.800000190734863,10.800000190734863,0
2020-09-08,10.979999542236328,10.979999542236328,10.979999542236328,10.979999542236328,10.979999542236328,200
2020-09-09,10.550000190734863,10.550000190734863,10.550000190734863,10.550000190734863,10.550000190734863,100
2020-09-10,10.550000190734863,10.550000190734863,10.550000190734863,10.550000190734863,10.550000190734863,0
2020-09-11,10.550000190734863,10.550000190734863,10.550000190734863,10.550000190734863,10.550000190734863,0
2020-09-14,10.550000190734863,10.550000190734863,10.550000190734863,10.550000190734863,10.550000190734863,0
2020-09-15,10.550000190734863,10.550000190734863,10.550000190734863,10.550000190734863,10.550000190734863,0
2020-09-16,10.550000190734863,10.550000190734863,10.550000190734863,10.550000190734863,10.550000190734863,0
2020-09-17,10.550000190734863,10.550000190734863,10.550000190734863,10.550000190734863,10.550000190734863,0
2020-09-18,10.550000190734863,10.550000190734863,10.550000190734863,10.550000190734863,10.550000190734863,0
2020-09-21,10.550000190734863,10.550000190734863,10.550000190734863,10.550000190734863,10.550000190734863,0
2020-09-22,10.550000190734863,10.550000190734863,10.550000190734863,10.550000190734863,10.550000190734863,0
2020-09-23,10.550000190734863,10.550000190734863,10.550000190734863,10.550000190734863,10.550000190734863,0
2020-09-24,10.449999809265137,10.449999809265137,10.390000343322754,10.399999618530273,10.399999618530273,10000
2020-09-25,10.399999618530273,10.399999618530273,10.399999618530273,10.399999618530273,10.399999618530273,0
2020-09-28,10.399999618530273,10.399999618530273,10.399999618530273,10.399999618530273,10.399999618530273,0
2020-09-29,10.520000457763672,10.520000457763672,10.520000457763672,10.520000457763672,10.520000457763672,50000
2020-09-30,10.520000457763672,10.520000457763672,10.520000457763672,10.520000457763672,10.520000457763672,0
2020-10-01,10.520000457763672,10.520000457763672,10.520000457763672,10.520000457763672,10.520000457763672,0
2020-10-02,10.520000457763672,10.520000457763672,10.520000457763672,10.520000457763672,10.520000457763672,25000
2020-10-05,10.520000457763672,10.520000457763672,10.520000457763672,10.520000457763672,10.520000457763672,0
2020-10-06,10.520000457763672,10.520000457763672,10.520000457763672,10.520000457763672,10.520000457763672,0
2020-10-07,10.520000457763672,10.520000457763672,10.520000457763672,10.520000457763672,10.520000457763672,0
2020-10-08,10.520000457763672,10.520000457763672,10.520000457763672,10.520000457763672,10.520000457763672,0
2020-10-09,10.520000457763672,10.520000457763672,10.520000457763672,10.520000457763672,10.520000457763672,0
2020-10-12,10.520000457763672,10.520000457763672,10.520000457763672,10.520000457763672,10.520000457763672,0
2020-10-13,10.520000457763672,10.520000457763672,10.520000457763672,10.520000457763672,10.520000457763672,0
2020-10-14,10.520000457763672,10.520000457763672,10.520000457763672,10.520000457763672,10.520000457763672,0
2020-10-15,10.520000457763672,10.520000457763672,10.520000457763672,10.520000457763672,10.520000457763672,0
2020-10-16,10.520000457763672,10.520000457763672,10.520000457763672,10.520000457763672,10.520000457763672,0
2020-10-19,10.520000457763672,10.520000457763672,10.520000457763672,10.520000457763672,10.520000457763672,0
2020-10-20,10.520000457763672,10.520000457763672,10.520000457763672,10.520000457763672,10.520000457763672,0
2020-10-21,10.520000457763672,10.520000457763672,10.520000457763672,10.520000457763672,10.520000457763672,0
2020-10-22,10.520000457763672,10.520000457763672,10.520000457763672,10.520000457763672,10.520000457763672,0
2020-10-23,10.520000457763672,10.520000457763672,10.520000457763672,10.520000457763672,10.520000457763672,100
2020-10-26,10.520000457763672,10.520000457763672,10.520000457763672,10.520000457763672,10.520000457763672,0
2020-10-27,10.520000457763672,10.520000457763672,10.520000457763672,10.520000457763672,10.520000457763672,0
2020-10-28,10.520000457763672,10.520000457763672,10.520000457763672,10.520000457763672,10.520000457763672,0
2020-10-29,10.520000457763672,10.520000457763672,10.520000457763672,10.520000457763672,10.520000457763672,0
2020-10-30,10.520000457763672,10.520000457763672,10.520000457763672,10.520000457763672,10.520000457763672,0
2020-11-02,10.520000457763672,10.520000457763672,10.520000457763672,10.520000457763672,10.520000457763672,0
2020-11-03,10.520000457763672,10.520000457763672,10.520000457763672,10.520000457763672,10.520000457763672,0
2020-11-04,10.520000457763672,10.520000457763672,10.520000457763672,10.520000457763672,10.520000457763672,0
2020-11-05,10.520000457763672,10.520000457763672,10.520000457763672,10.520000457763672,10.520000457763672,0
2020-11-06,10.649999618530273,10.649999618530273,10.649999618530273,10.649999618530273,10.649999618530273,200
2020-11-09,10.531000137329102,10.779999732971191,10.295000076293945,10.54699993133545,10.54699993133545,400
2020-11-10,10.54699993133545,10.54699993133545,10.54699993133545,10.54699993133545,10.54699993133545,0
2020-11-11,10.425000190734863,10.425000190734863,10.25,10.376999855041504,10.376999855041504,500
2020-11-12,10.376999855041504,10.376999855041504,10.376999855041504,10.376999855041504,10.376999855041504,0
2020-11-13,10.376999855041504,10.376999855041504,10.376999855041504,10.376999855041504,10.376999855041504,0
2020-11-16,11.5,11.5,11.5,11.5,11.5,300
2020-11-17,11.5,11.5,11.5,11.5,11.5,0
2020-11-18,11.5,11.5,11.5,11.5,11.5,0
2020-11-19,11.5,11.5,11.5,11.5,11.5,0
2020-11-20,11.5,11.5,11.5,11.5,11.5,0
2020-11-23,10.449999809265137,10.449999809265137,10.449999809265137,10.449999809265137,10.449999809265137,80000
2020-11-24,10.449999809265137,10.449999809265137,10.449999809265137,10.449999809265137,10.449999809265137,0
2020-11-25,10.449999809265137,10.449999809265137,10.449999809265137,10.449999809265137,10.449999809265137,100
2020-11-27,10.449999809265137,10.449999809265137,10.449999809265137,10.449999809265137,10.449999809265137,0
2020-11-30,10.449999809265137,10.449999809265137,10.449999809265137,10.449999809265137,10.449999809265137,0
2020-12-01,10.449999809265137,10.449999809265137,10.449999809265137,10.449999809265137,10.449999809265137,0
2020-12-02,10.449999809265137,10.449999809265137,10.449999809265137,10.449999809265137,10.449999809265137,0
2020-12-03,10.449999809265137,10.449999809265137,10.449999809265137,10.449999809265137,10.449999809265137,0
2020-12-04,10.449999809265137,10.449999809265137,10.449999809265137,10.449999809265137,10.449999809265137,0
2020-12-07,10.449999809265137,10.449999809265137,10.449999809265137,10.449999809265137,10.449999809265137,0
2020-12-08,10.449999809265137,10.449999809265137,10.449999809265137,10.449999809265137,10.449999809265137,0
2020-12-09,10.449999809265137,10.449999809265137,10.449999809265137,10.449999809265137,10.449999809265137,0
2020-12-10,10.449999809265137,10.449999809265137,10.449999809265137,10.449999809265137,10.449999809265137,100
2020-12-11,10.449999809265137,10.449999809265137,10.449999809265137,10.449999809265137,10.449999809265137,0
2020-12-14,10.449999809265137,10.449999809265137,10.449999809265137,10.449999809265137,10.449999809265137,0
2020-12-15,10.449999809265137,10.449999809265137,10.449999809265137,10.449999809265137,10.449999809265137,0
2020-12-16,10.449999809265137,10.449999809265137,10.449999809265137,10.449999809265137,10.449999809265137,0
2020-12-17,10.449999809265137,10.449999809265137,10.449999809265137,10.449999809265137,10.449999809265137,0
2020-12-18,10.449999809265137,10.449999809265137,10.449999809265137,10.449999809265137,10.449999809265137,0
2020-12-21,10.75,10.75,10.710000038146973,10.710000038146973,10.710000038146973,200
2020-12-22,10.944999694824219,10.944999694824219,10.944999694824219,10.944999694824219,10.944999694824219,300
2020-12-23,10.944999694824219,10.944999694824219,10.944999694824219,10.944999694824219,10.944999694824219,0
2020-12-24,10.996999740600586,11.0,10.550000190734863,10.649999618530273,10.649999618530273,2800
2020-12-28,10.649999618530273,10.649999618530273,10.649999618530273,10.649999618530273,10.649999618530273,0
2020-12-29,10.649999618530273,10.649999618530273,10.649999618530273,10.649999618530273,10.649999618530273,0
2020-12-30,10.5600004196167,10.5600004196167,10.5600004196167,10.5600004196167,10.5600004196167,300
