Date,Open,High,Low,Close,Adj Close,Volume
2018-05-25,5.670000076293945,5.698999881744385,5.25,5.400000095367432,5.400000095367432,94000
2018-05-29,5.690000057220459,5.690000057220459,5.03000020980835,5.039999961853027,5.039999961853027,108800
2018-05-30,4.940000057220459,5.150000095367432,4.760000228881836,5.0,5.0,135100
2018-05-31,5.320000171661377,5.320000171661377,5.0,5.139999866485596,5.139999866485596,60900
2018-06-01,5.139999866485596,5.349999904632568,5.050000190734863,5.25,5.25,122200
2018-06-04,5.25,5.309999942779541,5.039999961853027,5.099999904632568,5.099999904632568,71800
2018-06-05,5.050000190734863,5.300000190734863,4.699999809265137,4.949999809265137,4.949999809265137,51000
2018-06-06,5.179999828338623,5.179999828338623,4.869999885559082,5.099999904632568,5.099999904632568,50800
2018-06-07,4.869999885559082,5.098999977111816,4.829999923706055,4.920000076293945,4.920000076293945,40200
2018-06-08,4.889999866485596,5.400000095367432,4.820000171661377,5.199999809265137,5.199999809265137,240400
2018-06-11,5.243000030517578,5.289000034332275,4.951000213623047,5.150000095367432,5.150000095367432,47700
2018-06-12,5.051000118255615,5.099999904632568,4.949999809265137,5.039999961853027,5.039999961853027,43500
2018-06-13,5.0929999351501465,5.189000129699707,4.98799991607666,5.0879998207092285,5.0879998207092285,32400
2018-06-14,5.199999809265137,6.5,5.099999904632568,6.099999904632568,6.099999904632568,1326400
2018-06-15,9.649999618530273,12.050000190734863,7.690000057220459,8.899999618530273,8.899999618530273,14301000
2018-06-18,8.6899995803833,11.743000030517578,7.659999847412109,10.800000190734863,10.800000190734863,2577700
2018-06-19,10.680000305175781,12.199999809265137,10.279999732971191,10.760000228881836,10.760000228881836,1424700
2018-06-20,14.789999961853027,17.350000381469727,12.5,16.799999237060547,16.799999237060547,3173700
2018-06-21,15.319999694824219,15.699000358581543,12.652000427246094,13.109999656677246,13.109999656677246,1296800
2018-06-22,13.449999809265137,13.890000343322754,13.0,13.319999694824219,13.319999694824219,329500
2018-06-25,13.329999923706055,13.581999778747559,11.180000305175781,11.670000076293945,11.670000076293945,535800
2018-06-26,11.600000381469727,14.5,11.529999732971191,13.520000457763672,13.520000457763672,660200
2018-06-27,14.5,14.850000381469727,13.020000457763672,13.149999618530273,13.149999618530273,686000
2018-06-28,13.050000190734863,13.89900016784668,13.050000190734863,13.430000305175781,13.430000305175781,199300
2018-06-29,13.359999656677246,13.854999542236328,12.223999977111816,12.949999809265137,12.949999809265137,212700
2018-07-02,12.829999923706055,13.5,12.3100004196167,13.020000457763672,13.020000457763672,171500
2018-07-03,13.220000267028809,13.239999771118164,12.529999732971191,12.680000305175781,12.680000305175781,122200
2018-07-05,12.6899995803833,13.098999977111816,11.0,11.020000457763672,11.020000457763672,359800
2018-07-06,11.0,11.218000411987305,10.680000305175781,10.859999656677246,10.859999656677246,111800
2018-07-09,11.0,11.449999809265137,10.130999565124512,11.050000190734863,11.050000190734863,272300
2018-07-10,11.350000381469727,13.59000015258789,11.050000190734863,13.244999885559082,13.244999885559082,454400
2018-07-11,13.130000114440918,13.489999771118164,12.510000228881836,12.510000228881836,12.510000228881836,173900
2018-07-12,12.510000228881836,12.979999542236328,12.0600004196167,12.220000267028809,12.220000267028809,111100
2018-07-13,12.199999809265137,15.0,11.8100004196167,14.289999961853027,14.289999961853027,889300
2018-07-16,13.9399995803833,14.913999557495117,13.600000381469727,13.75,13.75,425700
2018-07-17,13.800000190734863,14.800000190734863,13.644000053405762,14.489999771118164,14.489999771118164,294100
2018-07-18,14.399999618530273,15.420000076293945,13.880000114440918,14.210000038146973,14.210000038146973,653000
2018-07-19,14.149999618530273,15.350000381469727,14.149999618530273,14.630000114440918,14.630000114440918,255900
2018-07-20,14.569999694824219,15.170000076293945,14.190999984741211,14.319999694824219,14.319999694824219,146900
2018-07-23,14.270000457763672,14.699999809265137,13.220000267028809,14.5,14.5,225200
2018-07-24,14.75,14.75,13.850000381469727,14.234999656677246,14.234999656677246,116000
2018-07-25,13.989999771118164,15.979999542236328,13.880000114440918,14.920000076293945,14.920000076293945,413700
2018-07-26,14.789999961853027,15.420000076293945,14.100000381469727,15.039999961853027,15.039999961853027,217800
2018-07-27,15.029999732971191,15.800000190734863,14.5600004196167,14.949999809265137,14.949999809265137,153600
2018-07-30,15.15999984741211,15.729999542236328,14.973999977111816,15.199999809265137,15.199999809265137,94700
2018-07-31,15.109999656677246,15.640000343322754,15.0,15.430000305175781,15.430000305175781,120000
2018-08-01,15.430000305175781,15.600000381469727,15.013999938964844,15.039999961853027,15.039999961853027,83300
2018-08-02,15.039999961853027,15.135000228881836,13.800000190734863,14.079999923706055,14.079999923706055,190100
2018-08-03,14.170000076293945,14.305000305175781,12.199999809265137,12.390000343322754,12.390000343322754,189800
2018-08-06,12.279999732971191,13.118000030517578,12.26099967956543,12.760000228881836,12.760000228881836,108100
2018-08-07,12.510000228881836,14.430000305175781,12.5,14.199999809265137,14.199999809265137,211200
2018-08-08,14.069999694824219,14.680000305175781,13.029999732971191,14.09000015258789,14.09000015258789,92600
2018-08-09,14.0,14.281999588012695,13.75,14.050000190734863,14.050000190734863,50100
2018-08-10,14.050000190734863,14.6899995803833,13.869000434875488,14.170000076293945,14.170000076293945,26400
2018-08-13,14.010000228881836,14.630000114440918,13.076000213623047,14.204999923706055,14.204999923706055,47500
2018-08-14,14.109999656677246,14.649999618530273,13.850000381469727,13.920000076293945,13.920000076293945,112500
2018-08-15,13.5,14.119999885559082,12.600000381469727,13.199999809265137,13.199999809265137,167700
2018-08-16,13.510000228881836,13.680000305175781,12.876999855041504,13.40999984741211,13.40999984741211,62800
2018-08-17,13.173999786376953,13.633999824523926,12.5,12.8100004196167,12.8100004196167,126800
2018-08-20,12.800000190734863,13.989999771118164,12.359999656677246,13.649999618530273,13.649999618530273,112600
2018-08-21,13.8100004196167,14.380000114440918,13.0,13.4350004196167,13.4350004196167,137400
2018-08-22,13.399999618530273,14.1899995803833,13.029999732971191,13.930000305175781,13.930000305175781,146100
2018-08-23,13.859999656677246,14.300000190734863,13.5,13.84000015258789,13.84000015258789,193000
2018-08-24,13.9399995803833,14.1899995803833,13.569999694824219,13.819999694824219,13.819999694824219,90500
2018-08-27,13.75,14.27299976348877,13.75,14.0600004196167,14.0600004196167,27900
2018-08-28,13.90999984741211,14.100000381469727,13.75,13.90999984741211,13.90999984741211,57300
2018-08-29,14.100000381469727,14.211999893188477,13.770000457763672,14.0,14.0,57700
2018-08-30,14.210000038146973,14.210000038146973,13.770000457763672,14.039999961853027,14.039999961853027,40000
2018-08-31,13.930000305175781,15.470000267028809,13.600000381469727,13.84000015258789,13.84000015258789,431100
2018-09-04,13.720000267028809,14.479999542236328,12.510000228881836,14.369999885559082,14.369999885559082,275100
2018-09-05,14.479999542236328,15.039999961853027,13.819000244140625,14.550000190734863,14.550000190734863,117800
2018-09-06,14.319999694824219,14.760000228881836,13.795999526977539,14.199999809265137,14.199999809265137,97200
2018-09-07,14.029999732971191,14.619999885559082,13.850000381469727,14.010000228881836,14.010000228881836,96700
2018-09-10,14.100000381469727,14.630000114440918,13.850000381469727,14.020000457763672,14.020000457763672,66400
2018-09-11,14.020000457763672,14.229999542236328,13.35099983215332,13.399999618530273,13.399999618530273,80600
2018-09-12,13.8100004196167,13.8100004196167,12.875,13.600000381469727,13.600000381469727,56400
2018-09-13,13.680000305175781,13.680000305175781,12.760000228881836,13.359999656677246,13.359999656677246,42800
2018-09-14,13.449999809265137,13.730999946594238,13.00100040435791,13.449999809265137,13.449999809265137,28300
2018-09-17,13.819999694824219,14.399999618530273,13.276000022888184,13.6899995803833,13.6899995803833,43700
2018-09-18,13.600000381469727,13.9399995803833,13.199999809265137,13.199999809265137,13.199999809265137,38500
2018-09-19,13.149999618530273,13.84000015258789,13.026000022888184,13.699999809265137,13.699999809265137,46400
2018-09-20,14.319999694824219,14.399999618530273,13.149999618530273,13.180000305175781,13.180000305175781,18800
2018-09-21,13.630000114440918,13.789999961853027,13.100000381469727,13.229999542236328,13.229999542236328,30600
2018-09-24,13.0,13.430000305175781,12.970000267028809,13.130000114440918,13.130000114440918,54300
2018-09-25,13.029999732971191,13.5,12.300000190734863,12.9399995803833,12.9399995803833,92800
2018-09-26,12.510000228881836,13.470000267028809,11.800000190734863,12.64900016784668,12.64900016784668,168400
2018-09-27,12.640000343322754,13.0,12.300000190734863,12.3100004196167,12.3100004196167,75600
2018-09-28,12.199999809265137,12.3100004196167,10.5,10.850000381469727,10.850000381469727,148200
2018-10-01,10.789999961853027,10.850000381469727,8.949999809265137,9.960000038146973,9.960000038146973,240200
2018-10-02,9.960000038146973,9.960000038146973,8.699999809265137,9.399999618530273,9.399999618530273,158100
2018-10-03,9.399999618530273,9.899999618530273,8.710000038146973,9.5,9.5,58700
2018-10-04,9.5,10.300000190734863,9.0,9.470000267028809,9.470000267028809,136500
2018-10-05,9.529999732971191,11.0,9.0600004196167,9.25,9.25,99300
2018-10-08,9.300000190734863,9.300000190734863,8.399999618530273,8.739999771118164,8.739999771118164,120800
2018-10-09,8.649999618530273,9.300000190734863,8.5,8.800000190734863,8.800000190734863,114500
2018-10-10,9.0,9.069999694824219,8.270000457763672,8.489999771118164,8.489999771118164,70400
2018-10-11,8.489999771118164,8.942000389099121,8.369999885559082,8.4399995803833,8.4399995803833,49700
2018-10-12,8.630000114440918,9.199999809265137,8.579999923706055,8.779999732971191,8.779999732971191,55600
2018-10-15,8.630000114440918,9.057999610900879,8.3100004196167,8.510000228881836,8.510000228881836,14100
2018-10-16,8.40999984741211,9.09000015258789,8.40999984741211,8.65999984741211,8.65999984741211,25700
2018-10-17,8.59000015258789,8.869999885559082,8.5,8.5,8.5,31100
2018-10-18,8.470000267028809,8.710000038146973,8.105999946594238,8.449000358581543,8.449000358581543,14800
2018-10-19,8.210000038146973,8.40999984741211,8.0600004196167,8.0600004196167,8.0600004196167,24700
2018-10-22,8.0600004196167,8.489999771118164,8.0,8.039999961853027,8.039999961853027,15000
2018-10-23,7.920000076293945,7.920000076293945,7.289999961853027,7.888999938964844,7.888999938964844,14900
2018-10-24,7.929999828338623,8.0,6.699999809265137,6.75,6.75,21100
2018-10-25,6.760000228881836,7.349999904632568,5.409999847412109,6.159999847412109,6.159999847412109,17300
2018-10-26,6.050000190734863,7.235000133514404,6.050000190734863,6.360000133514404,6.360000133514404,36100
2018-10-29,6.46999979019165,6.980000019073486,6.110000133514404,6.630000114440918,6.630000114440918,60800
2018-10-30,6.590000152587891,6.909999847412109,6.590000152587891,6.849999904632568,6.849999904632568,6800
2018-10-31,6.949999809265137,7.044000148773193,6.699999809265137,6.86299991607666,6.86299991607666,33200
2018-11-01,6.940000057220459,7.199999809265137,6.679999828338623,6.730000019073486,6.730000019073486,23800
2018-11-02,6.710000038146973,6.980000019073486,6.409999847412109,6.409999847412109,6.409999847412109,22000
2018-11-05,6.599999904632568,6.789000034332275,6.420000076293945,6.78000020980835,6.78000020980835,13400
2018-11-06,6.699999809265137,6.888000011444092,6.559999942779541,6.559999942779541,6.559999942779541,41800
2018-11-07,6.639999866485596,6.639999866485596,5.760000228881836,5.909999847412109,5.909999847412109,46100
2018-11-08,5.900000095367432,6.229000091552734,5.809999942779541,5.869999885559082,5.869999885559082,10700
2018-11-09,5.800000190734863,5.849999904632568,5.690000057220459,5.699999809265137,5.699999809265137,25200
2018-11-12,5.690000057220459,6.0,5.690000057220459,5.960000038146973,5.960000038146973,5300
2018-11-13,5.840000152587891,5.96999979019165,5.5980000495910645,5.760000228881836,5.760000228881836,6200
2018-11-14,5.690000057220459,6.0,5.690000057220459,5.809999942779541,5.809999942779541,13100
2018-11-15,5.738999843597412,5.985000133514404,5.738999843597412,5.900000095367432,5.900000095367432,3800
2018-11-16,5.860000133514404,5.929999828338623,5.179999828338623,5.691999912261963,5.691999912261963,30100
2018-11-19,5.900000095367432,5.980000019073486,5.744999885559082,5.89300012588501,5.89300012588501,12900
2018-11-20,5.739999771118164,5.940000057220459,5.389999866485596,5.800000190734863,5.800000190734863,8100
2018-11-21,5.730000019073486,5.920000076293945,5.639999866485596,5.859000205993652,5.859000205993652,26300
2018-11-23,5.920000076293945,5.920000076293945,5.75,5.920000076293945,5.920000076293945,900
2018-11-26,5.800000190734863,5.800000190734863,5.800000190734863,5.800000190734863,5.800000190734863,1300
2018-11-27,5.797999858856201,6.0,5.538000106811523,5.989999771118164,5.989999771118164,49700
2018-11-28,5.75,6.0,5.75,5.929999828338623,5.929999828338623,20500
2018-11-29,5.78000020980835,5.894999980926514,5.639999866485596,5.894999980926514,5.894999980926514,2900
2018-11-30,5.860000133514404,5.921000003814697,5.519999980926514,5.519999980926514,5.519999980926514,6200
2018-12-03,6.039999961853027,6.840000152587891,5.599999904632568,5.75,5.75,5100
2018-12-04,5.611999988555908,5.900000095367432,5.611999988555908,5.900000095367432,5.900000095367432,2700
2018-12-06,5.71999979019165,6.400000095367432,5.690000057220459,6.210000038146973,6.210000038146973,43400
2018-12-07,6.189000129699707,6.189000129699707,5.718999862670898,5.989999771118164,5.989999771118164,4000
2018-12-10,5.960000038146973,6.0,5.599999904632568,5.75,5.75,3800
2018-12-11,5.8379998207092285,5.860000133514404,5.659999847412109,5.71999979019165,5.71999979019165,5400
2018-12-12,5.71999979019165,5.71999979019165,5.349999904632568,5.360000133514404,5.360000133514404,15000
2018-12-13,5.360000133514404,5.650000095367432,5.349999904632568,5.349999904632568,5.349999904632568,1100
2018-12-14,5.416999816894531,5.480000019073486,4.940000057220459,5.329999923706055,5.329999923706055,12900
2018-12-17,5.199999809265137,5.3460001945495605,5.163000106811523,5.3460001945495605,5.3460001945495605,900
2018-12-18,5.369999885559082,5.369999885559082,4.300000190734863,4.849999904632568,4.849999904632568,13400
2018-12-19,4.559999942779541,5.340000152587891,4.559999942779541,4.619999885559082,4.619999885559082,2900
2018-12-20,4.65500020980835,4.736000061035156,4.474999904632568,4.619999885559082,4.619999885559082,16600
2018-12-21,5.079999923706055,5.079999923706055,4.0,4.0,4.0,6000
2018-12-24,4.269999980926514,4.269999980926514,3.559999942779541,3.559999942779541,3.559999942779541,9000
2018-12-26,3.759999990463257,3.759999990463257,3.4200000762939453,3.4800000190734863,3.4800000190734863,30300
2018-12-27,3.690000057220459,3.759999990463257,3.299999952316284,3.319999933242798,3.319999933242798,17200
2018-12-28,3.4000000953674316,3.4000000953674316,2.119999885559082,2.25,2.25,419000
2018-12-31,2.5999999046325684,2.6040000915527344,2.1500000953674316,2.4200000762939453,2.4200000762939453,229000
2019-01-02,2.390000104904175,2.390000104904175,2.259999990463257,2.259999990463257,2.259999990463257,33200
2019-01-03,2.190000057220459,2.312000036239624,2.180000066757202,2.2279999256134033,2.2279999256134033,25700
2019-01-04,2.450000047683716,2.8529999256134033,2.200000047683716,2.509999990463257,2.509999990463257,72100
2019-01-07,2.559999942779541,3.328000068664551,2.2799999713897705,3.1059999465942383,3.1059999465942383,114700
2019-01-08,3.299999952316284,8.329999923706055,3.049999952316284,6.349999904632568,6.349999904632568,893300
2019-01-09,6.199999809265137,7.179999828338623,4.650000095367432,5.349999904632568,5.349999904632568,860600
2019-01-10,4.800000190734863,5.28000020980835,4.449999809265137,5.019999980926514,5.019999980926514,119400
2019-01-11,4.809999942779541,5.929999828338623,4.77400016784668,5.204999923706055,5.204999923706055,289000
2019-01-14,5.010000228881836,5.177999973297119,4.909999847412109,4.973999977111816,4.973999977111816,61700
2019-01-15,4.909999847412109,5.589000225067139,4.568999767303467,5.369999885559082,5.369999885559082,119800
2019-01-16,5.5,7.150000095367432,5.480000019073486,6.170000076293945,6.170000076293945,571300
2019-01-17,6.050000190734863,6.429999828338623,5.550000190734863,5.929999828338623,5.929999828338623,83400
2019-01-18,6.0,6.260000228881836,5.949999809265137,6.050000190734863,6.050000190734863,35300
2019-01-22,6.050000190734863,6.050000190734863,5.673999786376953,5.869999885559082,5.869999885559082,15500
2019-01-23,5.869999885559082,6.123000144958496,5.349999904632568,5.949999809265137,5.949999809265137,20500
2019-01-24,5.739999771118164,6.071000099182129,5.699999809265137,5.771999835968018,5.771999835968018,13600
2019-01-25,5.800000190734863,6.289999961853027,5.539999961853027,5.820000171661377,5.820000171661377,57000
2019-01-28,6.0,6.0,5.730000019073486,5.829999923706055,5.829999923706055,3700
2019-01-29,6.0,6.420000076293945,5.869999885559082,6.28000020980835,6.28000020980835,67000
2019-01-30,6.449999809265137,6.500999927520752,5.900000095367432,6.489999771118164,6.489999771118164,55000
2019-01-31,6.519999980926514,7.199999809265137,6.28000020980835,7.105000019073486,7.105000019073486,95200
2019-02-01,7.119999885559082,7.656000137329102,6.800000190734863,7.248000144958496,7.248000144958496,75400
2019-02-04,7.429999828338623,7.664000034332275,7.409999847412109,7.420000076293945,7.420000076293945,10900
2019-02-05,7.360000133514404,7.619999885559082,6.840000152587891,7.478000164031982,7.478000164031982,32000
2019-02-06,7.5,8.798999786376953,7.5,8.369999885559082,8.369999885559082,130400
2019-02-07,8.5,9.890000343322754,8.4399995803833,9.6899995803833,9.6899995803833,91800
2019-02-08,9.699999809265137,11.442000389099121,9.5,11.149999618530273,11.149999618530273,160300
2019-02-11,11.800000190734863,15.84000015258789,11.369999885559082,15.729999542236328,15.729999542236328,420400
2019-02-12,16.860000610351562,17.993999481201172,13.510000228881836,15.989999771118164,15.989999771118164,745000
2019-02-13,15.180000305175781,16.888999938964844,14.0,14.069999694824219,14.069999694824219,293800
2019-02-14,13.5,13.800000190734863,11.8100004196167,12.48799991607666,12.48799991607666,221100
2019-02-15,12.5,13.230999946594238,11.819999694824219,12.09000015258789,12.09000015258789,75700
2019-02-19,11.619999885559082,13.310999870300293,11.619999885559082,12.609999656677246,12.609999656677246,30600
2019-02-20,12.890000343322754,13.25,11.468000411987305,12.970000267028809,12.970000267028809,57600
2019-02-21,12.84000015258789,13.4399995803833,12.680000305175781,13.369999885559082,13.369999885559082,33600
2019-02-22,13.187999725341797,13.34000015258789,12.335000038146973,12.880000114440918,12.880000114440918,35300
2019-02-25,13.0,13.0,12.350000381469727,12.550000190734863,12.550000190734863,52300
2019-02-26,12.180000305175781,13.28600025177002,11.593000411987305,11.989999771118164,11.989999771118164,49900
2019-02-27,11.300000190734863,11.390000343322754,9.130000114440918,9.739999771118164,9.739999771118164,156500
2019-02-28,9.739999771118164,10.09000015258789,9.5,10.010000228881836,10.010000228881836,34900
2019-03-01,9.739999771118164,10.5,9.15999984741211,10.270000457763672,10.270000457763672,23400
2019-03-04,10.59000015258789,10.59000015258789,9.529999732971191,9.539999961853027,9.539999961853027,16600
2019-03-05,9.420000076293945,10.140000343322754,9.109999656677246,9.199999809265137,9.199999809265137,18500
2019-03-06,10.0,10.199999809265137,9.369999885559082,9.9399995803833,9.9399995803833,64800
2019-03-07,9.9399995803833,9.979999542236328,9.210000038146973,9.96500015258789,9.96500015258789,10900
2019-03-08,9.449999809265137,10.199999809265137,9.239999771118164,10.147000312805176,10.147000312805176,14800
2019-03-11,10.09000015258789,11.979999542236328,9.996000289916992,10.010000228881836,10.010000228881836,48700
2019-03-12,10.293000221252441,10.46500015258789,9.697999954223633,10.029999732971191,10.029999732971191,19100
2019-03-13,9.779999732971191,10.180000305175781,9.779999732971191,10.039999961853027,10.039999961853027,12100
2019-03-14,9.6899995803833,10.015000343322754,9.668999671936035,9.96500015258789,9.96500015258789,32200
2019-03-15,9.82800006866455,10.079999923706055,9.73900032043457,10.050000190734863,10.050000190734863,12200
2019-03-18,9.880999565124512,10.739999771118164,9.880000114440918,10.289999961853027,10.289999961853027,48700
2019-03-19,11.100000381469727,11.100000381469727,9.989999771118164,10.399999618530273,10.399999618530273,36000
2019-03-20,10.1899995803833,10.9399995803833,10.022000312805176,10.180000305175781,10.180000305175781,23700
2019-03-21,9.90999984741211,10.600000381469727,9.859999656677246,10.600000381469727,10.600000381469727,16300
2019-03-22,10.0,10.777000427246094,9.989999771118164,10.140000343322754,10.140000343322754,11800
2019-03-25,9.960000038146973,10.519000053405762,9.550000190734863,10.0,10.0,25200
2019-03-26,10.050000190734863,10.699999809265137,9.96500015258789,10.569999694824219,10.569999694824219,9400
2019-03-27,9.819999694824219,10.59000015258789,9.75,10.220000267028809,10.220000267028809,13500
2019-03-28,9.777999877929688,10.107999801635742,9.57800006866455,9.979999542236328,9.979999542236328,13700
2019-03-29,9.949999809265137,10.5,9.87600040435791,10.289999961853027,10.289999961853027,17100
2019-04-01,10.449999809265137,10.75,9.83899974822998,10.069999694824219,10.069999694824219,12700
2019-04-02,10.300000190734863,10.470000267028809,9.550000190734863,9.829999923706055,9.829999923706055,17900
2019-04-03,9.880999565124512,10.369999885559082,9.84000015258789,9.84000015258789,9.84000015258789,14500
2019-04-04,9.5600004196167,10.020000457763672,9.529999732971191,9.649999618530273,9.649999618530273,12000
2019-04-05,9.791999816894531,10.09000015258789,9.59000015258789,9.59000015258789,9.59000015258789,10700
2019-04-08,9.989999771118164,9.989999771118164,9.300000190734863,9.699999809265137,9.699999809265137,13800
2019-04-09,9.699999809265137,9.869999885559082,9.380000114440918,9.770000457763672,9.770000457763672,20300
2019-04-10,9.6899995803833,9.83899974822998,9.550000190734863,9.779999732971191,9.779999732971191,44300
2019-04-11,9.880000114440918,9.880000114440918,9.218000411987305,9.880000114440918,9.880000114440918,6200
2019-04-12,9.550000190734863,9.859999656677246,9.484999656677246,9.619999885559082,9.619999885559082,11100
2019-04-15,9.75,9.779999732971191,9.517000198364258,9.529999732971191,9.529999732971191,11100
2019-04-16,9.520000457763672,9.680000305175781,9.520000457763672,9.680000305175781,9.680000305175781,2700
2019-04-17,9.600000381469727,9.760000228881836,9.192999839782715,9.75,9.75,10700
2019-04-18,9.479999542236328,9.75,9.32699966430664,9.729999542236328,9.729999542236328,11200
2019-04-22,9.748000144958496,9.760000228881836,9.720000267028809,9.720000267028809,9.720000267028809,2700
2019-04-23,9.5600004196167,9.789999961853027,9.239999771118164,9.779999732971191,9.779999732971191,6000
2019-04-24,9.649999618530273,9.649999618530273,9.649999618530273,9.649999618530273,9.649999618530273,300
2019-04-25,9.460000038146973,9.65999984741211,9.460000038146973,9.619999885559082,9.619999885559082,20700
2019-04-26,9.600000381469727,9.61299991607666,9.199999809265137,9.199999809265137,9.199999809265137,26300
2019-04-29,9.199999809265137,9.350000381469727,9.095000267028809,9.229999542236328,9.229999542236328,5900
2019-04-30,9.170000076293945,9.251999855041504,8.699999809265137,9.039999961853027,9.039999961853027,35500
2019-05-01,8.553000450134277,8.770999908447266,7.9120001792907715,8.1899995803833,8.1899995803833,36100
2019-05-02,7.804999828338623,8.199999809265137,7.420000076293945,7.510000228881836,7.510000228881836,8500
2019-05-03,7.599999904632568,8.390000343322754,7.599999904632568,8.0,8.0,27400
2019-05-06,7.699999809265137,7.703000068664551,7.420000076293945,7.480000019073486,7.480000019073486,6800
2019-05-07,7.489999771118164,7.5,7.179999828338623,7.190000057220459,7.190000057220459,6800
2019-05-08,7.433000087738037,7.433000087738037,7.010000228881836,7.039999961853027,7.039999961853027,21100
2019-05-09,6.940000057220459,7.050000190734863,6.519999980926514,7.050000190734863,7.050000190734863,4800
2019-05-10,6.892000198364258,7.099999904632568,6.892000198364258,6.980000019073486,6.980000019073486,2700
2019-05-13,7.0,7.21999979019165,6.239999771118164,7.21999979019165,7.21999979019165,19500
2019-05-14,6.159999847412109,7.079999923706055,6.159999847412109,6.800000190734863,6.800000190734863,10900
2019-05-15,6.460000038146973,7.230000019073486,6.460000038146973,7.230000019073486,7.230000019073486,29000
2019-05-16,6.829999923706055,7.754000186920166,6.559999942779541,7.25,7.25,17800
2019-05-17,7.369999885559082,7.369999885559082,6.809999942779541,7.289999961853027,7.289999961853027,19400
2019-05-20,6.815000057220459,7.260000228881836,6.64300012588501,6.909999847412109,6.909999847412109,8100
2019-05-21,6.920000076293945,7.215000152587891,6.633999824523926,6.679999828338623,6.679999828338623,8100
2019-05-22,6.849999904632568,7.002999782562256,6.539999961853027,6.809999942779541,6.809999942779541,7800
2019-05-23,6.590000152587891,6.677000045776367,6.0,6.0,6.0,70400
2019-05-24,6.039999961853027,6.64900016784668,6.039999961853027,6.199999809265137,6.199999809265137,2600
2019-05-28,6.440000057220459,6.802000045776367,6.289999961853027,6.340000152587891,6.340000152587891,23300
2019-05-29,6.21999979019165,6.36899995803833,6.070000171661377,6.329999923706055,6.329999923706055,13800
2019-05-30,6.019999980926514,6.400000095367432,6.019999980926514,6.139999866485596,6.139999866485596,27800
2019-05-31,5.999000072479248,6.400000095367432,5.820000171661377,6.170000076293945,6.170000076293945,22000
2019-06-03,5.889999866485596,6.150000095367432,5.800000190734863,5.960000038146973,5.960000038146973,7200
2019-06-04,5.840000152587891,6.053999900817871,5.840000152587891,6.0,6.0,24900
2019-06-05,6.039999961853027,6.199999809265137,5.900000095367432,5.900000095367432,5.900000095367432,9300
2019-06-06,6.0,6.199999809265137,5.96999979019165,5.989999771118164,5.989999771118164,20100
2019-06-07,6.320000171661377,6.320000171661377,5.579999923706055,6.050000190734863,6.050000190734863,15600
2019-06-10,5.960000038146973,6.409999847412109,5.769999980926514,6.010000228881836,6.010000228881836,16800
2019-06-11,6.179999828338623,6.730000019073486,5.909999847412109,5.909999847412109,5.909999847412109,4300
2019-06-12,5.900000095367432,6.230000019073486,5.900000095367432,6.119999885559082,6.119999885559082,5300
2019-06-13,6.119999885559082,6.139999866485596,6.010000228881836,6.010000228881836,6.010000228881836,2700
2019-06-14,5.840000152587891,6.150000095367432,5.570000171661377,5.570000171661377,5.570000171661377,10000
2019-06-17,5.860000133514404,6.300000190734863,5.75,6.300000190734863,6.300000190734863,16500
2019-06-18,6.170000076293945,6.460000038146973,6.014999866485596,6.340000152587891,6.340000152587891,6400
2019-06-19,6.21999979019165,6.460000038146973,6.070000171661377,6.440000057220459,6.440000057220459,2000
2019-06-20,6.449999809265137,6.6479997634887695,5.889999866485596,6.130000114440918,6.130000114440918,33000
2019-06-21,6.150000095367432,6.550000190734863,6.125,6.360000133514404,6.360000133514404,25100
2019-06-24,6.21999979019165,6.610000133514404,5.869999885559082,5.869999885559082,5.869999885559082,4800
2019-06-25,6.099999904632568,6.199999809265137,5.449999809265137,5.559999942779541,5.559999942779541,26200
2019-06-26,5.699999809265137,6.130000114440918,5.5,5.699999809265137,5.699999809265137,61300
2019-06-27,5.829999923706055,5.840000152587891,5.440000057220459,5.690000057220459,5.690000057220459,8300
2019-06-28,5.769999980926514,5.769999980926514,5.570000171661377,5.650000095367432,5.650000095367432,3500
2019-07-01,5.760000228881836,5.800000190734863,5.625,5.800000190734863,5.800000190734863,10100
2019-07-02,5.730000019073486,5.861999988555908,5.650000095367432,5.699999809265137,5.699999809265137,19000
2019-07-03,5.699999809265137,5.800000190734863,5.579999923706055,5.650000095367432,5.650000095367432,2100
2019-07-05,5.590000152587891,5.959000110626221,5.590000152587891,5.959000110626221,5.959000110626221,12800
2019-07-08,5.699999809265137,5.820000171661377,5.5,5.78000020980835,5.78000020980835,12500
2019-07-09,5.900000095367432,5.934999942779541,5.659999847412109,5.690000057220459,5.690000057220459,37800
2019-07-10,5.800000190734863,5.800000190734863,5.0,5.480000019073486,5.480000019073486,20600
2019-07-11,5.5,5.695000171661377,5.289999961853027,5.349999904632568,5.349999904632568,13700
2019-07-12,5.489999771118164,5.550000190734863,5.435999870300293,5.502999782562256,5.502999782562256,6500
2019-07-15,6.03000020980835,6.03000020980835,5.400000095367432,5.53000020980835,5.53000020980835,16300
2019-07-16,5.349999904632568,5.550000190734863,5.0970001220703125,5.389999866485596,5.389999866485596,34200
2019-07-17,5.460000038146973,5.460000038146973,5.176000118255615,5.210000038146973,5.210000038146973,1100
2019-07-18,5.300000190734863,5.579999923706055,5.010000228881836,5.480000019073486,5.480000019073486,20300
2019-07-19,5.46999979019165,5.480000019073486,5.380000114440918,5.426000118255615,5.426000118255615,6400
2019-07-22,5.380000114440918,5.409999847412109,5.300000190734863,5.360000133514404,5.360000133514404,26100
2019-07-23,5.360000133514404,5.539999961853027,5.360000133514404,5.360000133514404,5.360000133514404,5000
2019-07-24,5.550000190734863,5.550000190734863,5.5,5.5,5.5,1100
2019-07-25,5.422999858856201,5.5,5.130000114440918,5.25,5.25,4500
2019-07-26,5.199999809265137,5.449999809265137,5.199999809265137,5.449999809265137,5.449999809265137,14900
2019-07-29,5.369999885559082,5.449999809265137,5.369999885559082,5.409999847412109,5.409999847412109,12600
2019-07-30,5.449999809265137,5.449999809265137,5.304999828338623,5.389999866485596,5.389999866485596,21500
2019-07-31,5.449999809265137,5.449999809265137,5.349999904632568,5.400000095367432,5.400000095367432,7300
2019-08-01,5.449999809265137,5.460000038146973,5.380000114440918,5.440000057220459,5.440000057220459,5100
2019-08-02,5.440000057220459,5.440000057220459,5.170000076293945,5.380000114440918,5.380000114440918,10400
2019-08-05,5.269999980926514,5.349999904632568,5.010000228881836,5.309999942779541,5.309999942779541,7700
2019-08-06,5.380000114440918,5.400000095367432,5.380000114440918,5.400000095367432,5.400000095367432,700
2019-08-07,5.380000114440918,5.400000095367432,5.065000057220459,5.380000114440918,5.380000114440918,7100
2019-08-08,5.429999828338623,5.429999828338623,5.360000133514404,5.360000133514404,5.360000133514404,800
2019-08-09,5.360000133514404,5.440000057220459,5.360000133514404,5.360000133514404,5.360000133514404,19700
2019-08-12,5.230000019073486,5.400000095367432,5.03000020980835,5.260000228881836,5.260000228881836,13900
2019-08-13,5.199999809265137,5.360000133514404,5.199999809265137,5.269999980926514,5.269999980926514,8800
2019-08-14,5.019999980926514,5.191999912261963,5.019999980926514,5.191999912261963,5.191999912261963,14700
2019-08-15,5.449999809265137,5.456999778747559,5.199999809265137,5.349999904632568,5.349999904632568,2400
2019-08-16,5.400000095367432,5.400000095367432,5.329999923706055,5.329999923706055,5.329999923706055,1400
2019-08-19,5.349999904632568,5.5,5.340000152587891,5.40500020980835,5.40500020980835,29800
2019-08-20,5.340000152587891,5.377999782562256,5.329999923706055,5.349999904632568,5.349999904632568,5900
2019-08-21,5.449999809265137,5.449999809265137,5.050000190734863,5.230000019073486,5.230000019073486,21700
2019-08-22,5.070000171661377,5.579999923706055,5.070000171661377,5.380000114440918,5.380000114440918,11400
2019-08-23,5.260000228881836,5.260000228881836,4.900000095367432,4.943999767303467,4.943999767303467,53300
2019-08-26,4.925000190734863,5.239999771118164,4.769999980926514,4.875,4.875,9200
2019-08-27,5.0,5.250999927520752,4.860000133514404,4.860000133514404,4.860000133514404,24400
2019-08-28,5.25,5.360000133514404,5.099999904632568,5.195000171661377,5.195000171661377,10300
2019-08-29,5.190000057220459,5.300000190734863,5.050000190734863,5.050000190734863,5.050000190734863,17200
2019-08-30,5.300000190734863,5.300000190734863,5.070000171661377,5.070000171661377,5.070000171661377,4600
2019-09-03,5.300000190734863,5.300000190734863,5.110000133514404,5.139999866485596,5.139999866485596,26200
2019-09-04,5.25,5.25,4.949999809265137,5.110000133514404,5.110000133514404,11000
2019-09-05,5.190000057220459,5.420000076293945,5.119999885559082,5.210000038146973,5.210000038146973,10400
2019-09-06,5.25,5.300000190734863,5.139999866485596,5.199999809265137,5.199999809265137,18300
2019-09-09,5.230000019073486,5.429999828338623,4.994999885559082,5.019999980926514,5.019999980926514,26700
2019-09-10,5.050000190734863,5.300000190734863,5.050000190734863,5.150000095367432,5.150000095367432,38600
2019-09-11,5.170000076293945,5.298999786376953,4.989999771118164,4.989999771118164,4.989999771118164,36600
2019-09-12,5.139999866485596,5.46999979019165,5.099999904632568,5.230000019073486,5.230000019073486,18400
2019-09-13,5.260000228881836,5.489999771118164,5.164999961853027,5.25,5.25,57700
2019-09-16,5.25,5.448999881744385,5.130000114440918,5.170000076293945,5.170000076293945,45100
2019-09-17,5.099999904632568,5.349999904632568,5.099999904632568,5.349999904632568,5.349999904632568,22300
2019-09-18,5.21999979019165,5.300000190734863,5.199999809265137,5.300000190734863,5.300000190734863,18300
2019-09-19,5.349999904632568,5.510000228881836,5.119999885559082,5.199999809265137,5.199999809265137,98500
2019-09-20,5.190000057220459,5.28000020980835,4.809999942779541,4.96999979019165,4.96999979019165,68200
2019-09-23,5.123000144958496,5.300000190734863,4.920000076293945,5.03000020980835,5.03000020980835,37700
2019-09-24,5.130000114440918,5.199999809265137,4.880000114440918,5.059999942779541,5.059999942779541,25100
2019-09-25,4.900000095367432,5.260000228881836,4.900000095367432,5.199999809265137,5.199999809265137,11300
2019-09-26,5.172999858856201,5.172999858856201,4.960000038146973,5.039999961853027,5.039999961853027,10600
2019-09-27,5.090000152587891,5.25,5.045000076293945,5.050000190734863,5.050000190734863,9900
2019-09-30,5.039999961853027,5.190000057220459,5.03000020980835,5.079999923706055,5.079999923706055,11800
2019-10-01,5.059999942779541,5.090000152587891,5.059999942779541,5.090000152587891,5.090000152587891,3000
2019-10-02,4.959000110626221,5.119999885559082,4.959000110626221,5.079999923706055,5.079999923706055,11300
2019-10-03,5.0,5.142000198364258,4.989999771118164,5.059999942779541,5.059999942779541,9800
2019-10-04,5.050000190734863,5.078999996185303,5.039999961853027,5.039999961853027,5.039999961853027,3200
2019-10-07,4.940000057220459,5.119999885559082,4.940000057220459,5.039999961853027,5.039999961853027,9500
2019-10-08,5.0,5.105999946594238,4.948999881744385,5.070000171661377,5.070000171661377,5200
2019-10-09,5.059999942779541,5.10099983215332,4.960000038146973,5.039999961853027,5.039999961853027,8100
2019-10-10,5.099999904632568,5.099999904632568,4.875,4.900000095367432,4.900000095367432,31600
2019-10-11,4.909999847412109,5.050000190734863,4.909999847412109,4.920000076293945,4.920000076293945,63700
2019-10-14,5.0,5.050000190734863,4.989999771118164,4.989999771118164,4.989999771118164,5900
2019-10-15,5.099999904632568,5.099999904632568,4.909999847412109,5.0,5.0,6000
2019-10-16,5.050000190734863,5.050000190734863,4.900000095367432,4.909999847412109,4.909999847412109,18100
2019-10-17,5.0,5.0,4.849999904632568,4.869999885559082,4.869999885559082,17500
2019-10-18,4.929999828338623,4.940000057220459,4.849999904632568,4.940000057220459,4.940000057220459,1500
2019-10-21,4.909999847412109,4.980000019073486,4.894999980926514,4.894999980926514,4.894999980926514,8900
2019-10-22,4.909999847412109,4.980000019073486,4.869999885559082,4.869999885559082,4.869999885559082,9900
2019-10-23,4.849999904632568,4.96999979019165,4.849999904632568,4.900000095367432,4.900000095367432,7700
2019-10-24,4.849999904632568,4.940000057220459,4.809999942779541,4.849999904632568,4.849999904632568,38500
2019-10-25,4.769999980926514,4.800000190734863,4.199999809265137,4.710000038146973,4.710000038146973,15200
2019-10-28,4.800000190734863,4.800000190734863,4.510000228881836,4.775000095367432,4.775000095367432,3800
2019-10-29,4.840000152587891,4.849999904632568,4.360000133514404,4.360000133514404,4.360000133514404,17100
2019-10-30,4.369999885559082,4.75,4.369999885559082,4.590000152587891,4.590000152587891,20200
2019-10-31,4.650000095367432,4.660999774932861,4.216000080108643,4.420000076293945,4.420000076293945,15400
2019-11-01,4.650000095367432,4.677999973297119,4.309999942779541,4.452000141143799,4.452000141143799,27100
2019-11-04,4.550000190734863,4.550000190734863,4.010000228881836,4.059999942779541,4.059999942779541,21300
2019-11-05,4.170000076293945,4.260000228881836,4.054999828338623,4.170000076293945,4.170000076293945,28500
2019-11-06,4.150000095367432,4.230000019073486,4.0,4.0,4.0,34000
2019-11-07,4.065000057220459,4.150000095367432,4.0,4.070000171661377,4.070000171661377,19300
2019-11-08,4.050000190734863,4.070000171661377,3.944999933242798,4.019999980926514,4.019999980926514,47400
2019-11-11,3.930000066757202,4.0,3.7100000381469727,3.759999990463257,3.759999990463257,53600
2019-11-12,3.7100000381469727,3.869999885559082,3.5,3.5399999618530273,3.5399999618530273,106100
2019-11-13,3.509999990463257,3.5280001163482666,3.0,3.4719998836517334,3.4719998836517334,34800
2019-11-14,3.4000000953674316,3.5399999618530273,3.2300000190734863,3.3499999046325684,3.3499999046325684,7800
2019-11-15,3.380000114440918,3.6670000553131104,3.0999999046325684,3.3610000610351562,3.3610000610351562,110900
2019-11-18,3.299999952316284,3.4000000953674316,3.059999942779541,3.299999952316284,3.299999952316284,70000
2019-11-19,3.119999885559082,3.2039999961853027,3.0820000171661377,3.0820000171661377,3.0820000171661377,30300
2019-11-20,3.0899999141693115,3.1500000953674316,3.009999990463257,3.0339999198913574,3.0339999198913574,17200
2019-11-21,3.009999990463257,3.190000057220459,2.819999933242798,2.8399999141693115,2.8399999141693115,33300
2019-11-22,2.990000009536743,3.0,2.8499999046325684,2.9670000076293945,2.9670000076293945,31500
2019-11-25,3.0199999809265137,3.549999952316284,2.9800000190734863,2.990000009536743,2.990000009536743,9700
2019-11-26,3.0,3.2190001010894775,2.8499999046325684,2.9700000286102295,2.9700000286102295,27900
2019-11-27,3.015000104904175,3.015000104904175,2.700000047683716,2.700000047683716,2.700000047683716,56100
2019-11-29,2.819999933242798,2.874000072479248,2.7100000381469727,2.75,2.75,16600
2019-12-02,2.6500000953674316,2.799999952316284,2.6500000953674316,2.7239999771118164,2.7239999771118164,16700
2019-12-03,2.700000047683716,2.881999969482422,2.700000047683716,2.7750000953674316,2.7750000953674316,12700
2019-12-04,2.859999895095825,2.859999895095825,2.7300000190734863,2.7899999618530273,2.7899999618530273,8900
2019-12-05,2.7899999618530273,2.9049999713897705,2.759999990463257,2.759999990463257,2.759999990463257,28500
2019-12-06,2.8499999046325684,2.890000104904175,2.75,2.75,2.75,23600
2019-12-09,2.809999942779541,2.809999942779541,2.609999895095825,2.690000057220459,2.690000057220459,11400
2019-12-10,2.759999990463257,2.9200000762939453,2.7200000286102295,2.809999942779541,2.809999942779541,33700
2019-12-11,2.871999979019165,2.9100000858306885,2.809999942779541,2.9000000953674316,2.9000000953674316,31400
2019-12-12,2.9600000381469727,3.434000015258789,2.8940000534057617,3.0999999046325684,3.0999999046325684,69500
2019-12-13,3.0799999237060547,3.450000047683716,3.059999942779541,3.240000009536743,3.240000009536743,93300
2019-12-16,3.25,3.2899999618530273,3.0999999046325684,3.177000045776367,3.177000045776367,34900
2019-12-17,3.1600000858306885,3.4200000762939453,3.119999885559082,3.119999885559082,3.119999885559082,18800
2019-12-18,3.200000047683716,3.4200000762939453,3.200000047683716,3.4100000858306885,3.4100000858306885,35700
2019-12-19,3.450000047683716,4.017000198364258,3.450000047683716,3.549999952316284,3.549999952316284,75100
2019-12-20,3.640000104904175,4.050000190734863,3.640000104904175,3.8499999046325684,3.8499999046325684,26700
2019-12-23,4.070000171661377,4.699999809265137,3.869999885559082,4.349999904632568,4.349999904632568,36600
2019-12-24,4.920000076293945,8.859999656677246,4.679999828338623,6.400000095367432,6.400000095367432,1273800
2019-12-26,6.420000076293945,6.440000057220459,5.360000133514404,6.059999942779541,6.059999942779541,266000
2019-12-27,6.090000152587891,6.599999904632568,5.449999809265137,5.579999923706055,5.579999923706055,97700
2019-12-30,5.699999809265137,5.724999904632568,5.010000228881836,5.019999980926514,5.019999980926514,94300
2019-12-31,5.0,5.159999847412109,4.800000190734863,5.0,5.0,48000
2020-01-02,5.010000228881836,5.085000038146973,4.5,4.5,4.5,49300
2020-01-03,4.5,4.980000019073486,4.5,4.75,4.75,41300
2020-01-06,4.659999847412109,4.980000019073486,4.659999847412109,4.820000171661377,4.820000171661377,13900
2020-01-07,4.820000171661377,4.909999847412109,4.199999809265137,4.21999979019165,4.21999979019165,35500
2020-01-08,4.139999866485596,4.389999866485596,3.9800000190734863,4.0,4.0,45100
2020-01-09,4.0,4.269000053405762,3.9200000762939453,4.139999866485596,4.139999866485596,33000
2020-01-10,4.150000095367432,4.579999923706055,4.039999961853027,4.050000190734863,4.050000190734863,11900
2020-01-13,3.940000057220459,4.1570000648498535,3.8399999141693115,3.990000009536743,3.990000009536743,60100
2020-01-14,4.099999904632568,4.139999866485596,3.8499999046325684,3.984999895095825,3.984999895095825,35800
2020-01-15,3.882999897003174,4.151000022888184,3.799999952316284,3.9100000858306885,3.9100000858306885,26900
2020-01-16,3.950000047683716,4.497000217437744,3.950000047683716,4.420000076293945,4.420000076293945,93300
2020-01-17,4.423999786376953,4.460000038146973,3.9600000381469727,4.010000228881836,4.010000228881836,59200
2020-01-21,4.0,4.019999980926514,3.75,3.75,3.75,32300
2020-01-22,3.740000009536743,3.740000009536743,3.38700008392334,3.571000099182129,3.571000099182129,27500
2020-01-23,3.4600000381469727,3.5850000381469727,3.4600000381469727,3.5299999713897705,3.5299999713897705,24700
2020-01-24,3.6500000953674316,3.6500000953674316,3.4179999828338623,3.4200000762939453,3.4200000762939453,25300
2020-01-27,3.6050000190734863,3.7119998931884766,3.4000000953674316,3.430000066757202,3.430000066757202,42600
2020-01-28,3.5450000762939453,3.5799999237060547,3.4000000953674316,3.430000066757202,3.430000066757202,19700
2020-01-29,3.5,3.5339999198913574,3.4000000953674316,3.4000000953674316,3.4000000953674316,19700
2020-01-30,3.430000066757202,3.6600000858306885,3.0999999046325684,3.0999999046325684,3.0999999046325684,38700
2020-01-31,3.0999999046325684,3.11299991607666,2.9000000953674316,3.0799999237060547,3.0799999237060547,8300
2020-02-03,3.0299999713897705,3.299999952316284,2.799999952316284,3.049999952316284,3.049999952316284,24500
2020-02-04,3.0999999046325684,4.590000152587891,3.0999999046325684,3.4000000953674316,3.4000000953674316,744200
2020-02-05,3.25,3.390000104904175,2.9049999713897705,3.069999933242798,3.069999933242798,124300
2020-02-06,3.109999895095825,3.109999895095825,2.9100000858306885,3.009999990463257,3.009999990463257,45900
2020-02-07,2.9700000286102295,3.2750000953674316,2.859999895095825,2.869999885559082,2.869999885559082,27700
2020-02-10,2.8399999141693115,3.0190000534057617,2.799999952316284,2.9200000762939453,2.9200000762939453,33700
2020-02-11,2.950000047683716,2.9800000190734863,2.8499999046325684,2.950000047683716,2.950000047683716,17300
2020-02-12,3.003999948501587,3.4800000190734863,3.003999948501587,3.3589999675750732,3.3589999675750732,70000
2020-02-13,3.3929998874664307,3.4719998836517334,3.0199999809265137,3.1589999198913574,3.1589999198913574,48500
2020-02-14,3.1700000762939453,3.299999952316284,3.0799999237060547,3.0799999237060547,3.0799999237060547,22200
2020-02-18,3.0799999237060547,3.240000009536743,3.009999990463257,3.0799999237060547,3.0799999237060547,16700
2020-02-19,3.0999999046325684,3.319999933242798,3.061000108718872,3.0799999237060547,3.0799999237060547,24600
2020-02-20,3.0850000381469727,3.240000009536743,3.009999990463257,3.1500000953674316,3.1500000953674316,19400
2020-02-21,3.2200000286102295,3.2200000286102295,3.109999895095825,3.200000047683716,3.200000047683716,18900
2020-02-24,3.0299999713897705,3.184999942779541,3.009999990463257,3.109999895095825,3.109999895095825,21700
2020-02-25,3.180000066757202,3.180000066757202,2.9000000953674316,2.9000000953674316,2.9000000953674316,27300
2020-02-26,2.940000057220459,2.940000057220459,2.609999895095825,2.8399999141693115,2.8399999141693115,40500
2020-02-27,2.609999895095825,2.7200000286102295,2.5299999713897705,2.559999942779541,2.559999942779541,29700
2020-02-28,2.5299999713897705,2.5999999046325684,2.430000066757202,2.440000057220459,2.440000057220459,28000
2020-03-02,2.440000057220459,2.740000009536743,2.430000066757202,2.5999999046325684,2.5999999046325684,17400
2020-03-03,2.609999895095825,2.6670000553131104,2.509999990463257,2.640000104904175,2.640000104904175,15300
2020-03-04,2.609999895095825,2.609999895095825,2.180000066757202,2.2300000190734863,2.2300000190734863,113800
2020-03-05,2.25,2.2690000534057617,1.899999976158142,1.9600000381469727,1.9600000381469727,82500
2020-03-06,2.2799999713897705,2.950000047683716,1.7400000095367432,2.0,2.0,1098600
2020-03-09,1.7999999523162842,1.840000033378601,1.6200000047683716,1.6799999475479126,1.6799999475479126,104400
2020-03-10,1.6799999475479126,2.0889999866485596,1.659999966621399,1.9500000476837158,1.9500000476837158,135100
2020-03-11,2.2799999713897705,2.2799999713897705,1.7599999904632568,1.7929999828338623,1.7929999828338623,117000
2020-03-12,1.7200000286102295,1.9500000476837158,1.649999976158142,1.8650000095367432,1.8650000095367432,32800
2020-03-13,1.9900000095367432,2.049999952316284,1.8600000143051147,1.8700000047683716,1.8700000047683716,41300
2020-03-16,1.75,1.9299999475479126,1.649999976158142,1.840000033378601,1.840000033378601,31700
2020-03-17,1.9299999475479126,1.9700000286102295,1.7799999713897705,1.7799999713897705,1.7799999713897705,11700
2020-03-18,1.75,1.8899999856948853,1.7000000476837158,1.850000023841858,1.850000023841858,13500
2020-03-19,1.7599999904632568,1.8170000314712524,1.7000000476837158,1.7599999904632568,1.7599999904632568,21500
2020-03-20,1.840000033378601,2.0,1.7699999809265137,1.7799999713897705,1.7799999713897705,17300
2020-03-23,1.7999999523162842,1.7999999523162842,1.7059999704360962,1.7170000076293945,1.7170000076293945,7600
2020-03-24,1.7000000476837158,1.899999976158142,1.7000000476837158,1.7599999904632568,1.7599999904632568,28200
2020-03-25,1.7100000381469727,1.909999966621399,1.7100000381469727,1.909999966621399,1.909999966621399,12100
2020-03-26,1.9479999542236328,2.1700000762939453,1.9299999475479126,2.1600000858306885,2.1600000858306885,89300
2020-03-27,2.055000066757202,2.1600000858306885,1.9800000190734863,1.9809999465942383,1.9809999465942383,32000
2020-03-30,1.909999966621399,1.940000057220459,1.7369999885559082,1.8300000429153442,1.8300000429153442,34500
2020-03-31,1.7999999523162842,2.299999952316284,1.7200000286102295,2.0450000762939453,2.0450000762939453,155700
2020-04-01,1.9429999589920044,1.965000033378601,1.7999999523162842,1.809999942779541,1.809999942779541,13700
2020-04-02,1.7999999523162842,1.809999942779541,1.7200000286102295,1.7300000190734863,1.7300000190734863,21000
2020-04-03,1.75,1.850000023841858,1.7000000476837158,1.75600004196167,1.75600004196167,10700
2020-04-06,1.7200000286102295,1.843000054359436,1.7200000286102295,1.840000033378601,1.840000033378601,7900
2020-04-07,1.809999942779541,1.9700000286102295,1.75,1.9199999570846558,1.9199999570846558,17100
2020-04-08,1.7599999904632568,2.2799999713897705,1.7599999904632568,1.940000057220459,1.940000057220459,75100
2020-04-09,1.8799999952316284,2.055000066757202,1.8799999952316284,2.0,2.0,12600
2020-04-13,2.0,2.0,1.809999942779541,1.878999948501587,1.878999948501587,6100
2020-04-14,1.9079999923706055,2.0,1.8799999952316284,2.0,2.0,2400
2020-04-15,2.0,2.25,1.965000033378601,2.1459999084472656,2.1459999084472656,10100
2020-04-16,2.200000047683716,2.200000047683716,1.9900000095367432,2.055999994277954,2.055999994277954,4800
2020-04-17,1.9900000095367432,2.072000026702881,1.899999976158142,2.072000026702881,2.072000026702881,6300
2020-04-20,1.9500000476837158,2.180000066757202,1.9500000476837158,2.0299999713897705,2.0299999713897705,34500
2020-04-21,2.0250000953674316,2.140000104904175,1.9600000381469727,1.9700000286102295,1.9700000286102295,25700
2020-04-22,2.0450000762939453,2.140000104904175,1.9830000400543213,1.9830000400543213,1.9830000400543213,4200
2020-04-23,2.0299999713897705,2.0899999141693115,1.9500000476837158,2.0269999504089355,2.0269999504089355,8600
2020-04-24,2.0999999046325684,2.125,1.9500000476837158,2.009999990463257,2.009999990463257,6300
2020-04-27,2.006999969482422,2.0999999046325684,1.9800000190734863,2.0869998931884766,2.0869998931884766,11000
2020-04-28,2.0,2.130000114440918,1.9630000591278076,2.0,2.0,3800
2020-04-29,2.140000104904175,2.1500000953674316,1.9639999866485596,2.0940001010894775,2.0940001010894775,32000
2020-04-30,2.1600000858306885,2.1710000038146973,2.0199999809265137,2.049999952316284,2.049999952316284,12000
2020-05-01,2.0199999809265137,2.0799999237060547,1.899999976158142,1.9210000038146973,1.9210000038146973,17400
2020-05-04,1.8799999952316284,2.069999933242798,1.8799999952316284,1.9900000095367432,1.9900000095367432,25500
2020-05-05,1.9299999475479126,2.0799999237060547,1.9299999475479126,2.0199999809265137,2.0199999809265137,25800
2020-05-06,2.049999952316284,2.140000104904175,2.0,2.056999921798706,2.056999921798706,9100
2020-05-07,2.0999999046325684,2.109999895095825,2.0350000858306885,2.059999942779541,2.059999942779541,4000
2020-05-08,2.049999952316284,2.140000104904175,1.9299999475479126,2.065000057220459,2.065000057220459,2800
2020-05-11,2.069999933242798,2.2209999561309814,2.059999942779541,2.119999885559082,2.119999885559082,31400
2020-05-12,2.130000114440918,2.1610000133514404,2.009999990463257,2.0299999713897705,2.0299999713897705,10100
2020-05-13,2.009999990463257,2.0199999809265137,1.9199999570846558,2.009999990463257,2.009999990463257,22400
2020-05-14,2.0299999713897705,2.0999999046325684,1.8799999952316284,1.906000018119812,1.906000018119812,28700
2020-05-15,1.9500000476837158,1.9500000476837158,1.909999966621399,1.909999966621399,1.909999966621399,8700
2020-05-18,1.9600000381469727,2.1500000953674316,1.9600000381469727,1.9700000286102295,1.9700000286102295,12000
2020-05-19,2.059999942779541,2.059999942779541,1.9600000381469727,2.0399999618530273,2.0399999618530273,22900
2020-05-20,2.0450000762939453,2.049999952316284,1.899999976158142,1.9600000381469727,1.9600000381469727,17700
2020-05-21,1.9600000381469727,2.049999952316284,1.9199999570846558,2.0,2.0,12000
2020-05-22,1.9299999475479126,1.940000057220459,1.8300000429153442,1.8799999952316284,1.8799999952316284,24500
2020-05-26,1.9299999475479126,1.940000057220459,1.8530000448226929,1.9299999475479126,1.9299999475479126,2500
2020-05-27,1.899999976158142,1.909999966621399,1.7999999523162842,1.7999999523162842,1.7999999523162842,21000
2020-05-28,1.8300000429153442,1.9299999475479126,1.8279999494552612,1.8550000190734863,1.8550000190734863,26200
2020-05-29,1.8300000429153442,1.8830000162124634,1.7300000190734863,1.8700000047683716,1.8700000047683716,32500
2020-06-01,1.850000023841858,1.940000057220459,1.8350000381469727,1.9199999570846558,1.9199999570846558,15400
2020-06-02,1.9500000476837158,1.9700000286102295,1.8760000467300415,1.909999966621399,1.909999966621399,15400
2020-06-03,1.9299999475479126,1.9700000286102295,1.8799999952316284,1.899999976158142,1.899999976158142,41000
2020-06-04,1.940000057220459,1.940000057220459,1.8899999856948853,1.8899999856948853,1.8899999856948853,12700
2020-06-05,1.899999976158142,1.9900000095367432,1.850000023841858,1.9500000476837158,1.9500000476837158,36700
2020-06-08,1.9800000190734863,2.299999952316284,1.909999966621399,2.0450000762939453,2.0450000762939453,137900
2020-06-09,1.9800000190734863,2.1740000247955322,1.8300000429153442,2.069999933242798,2.069999933242798,74600
2020-06-10,2.069999933242798,3.75,2.069999933242798,2.9200000762939453,2.9200000762939453,1143800
2020-06-11,2.740000009536743,2.740000009536743,2.109999895095825,2.3499999046325684,2.3499999046325684,179600
2020-06-12,3.1700000762939453,3.390000104904175,2.450000047683716,2.7899999618530273,2.7899999618530273,812500
2020-06-15,2.5999999046325684,2.700000047683716,2.2799999713897705,2.4200000762939453,2.4200000762939453,91800
2020-06-16,2.5,2.5999999046325684,2.2339999675750732,2.509999990463257,2.509999990463257,42100
2020-06-17,2.369999885559082,2.5899999141693115,2.369999885559082,2.5199999809265137,2.5199999809265137,28700
2020-06-18,2.509999990463257,2.990000009536743,2.3399999141693115,2.369999885559082,2.369999885559082,312600
2020-06-19,2.5899999141693115,2.640000104904175,2.299999952316284,2.359999895095825,2.359999895095825,117600
2020-06-22,2.450000047683716,2.4600000381469727,2.299999952316284,2.319999933242798,2.319999933242798,15400
2020-06-23,2.309999942779541,2.552999973297119,2.299999952316284,2.3499999046325684,2.3499999046325684,68600
2020-06-24,2.309999942779541,2.609999895095825,2.2699999809265137,2.4100000858306885,2.4100000858306885,202900
2020-06-25,2.4100000858306885,2.569999933242798,2.3299999237060547,2.4000000953674316,2.4000000953674316,30300
2020-06-26,2.369999885559082,2.440000057220459,2.0299999713897705,2.0299999713897705,2.0299999713897705,45600
2020-06-29,2.049999952316284,2.180000066757202,2.049999952316284,2.1500000953674316,2.1500000953674316,17300
2020-06-30,2.130000114440918,2.2899999618530273,2.130000114440918,2.1600000858306885,2.1600000858306885,22400
2020-07-01,2.1600000858306885,2.378000020980835,2.1500000953674316,2.309999942779541,2.309999942779541,47400
2020-07-02,2.25,2.380000114440918,2.1500000953674316,2.1600000858306885,2.1600000858306885,22500
2020-07-06,2.75,2.75,2.1600000858306885,2.309999942779541,2.309999942779541,168200
2020-07-07,2.2799999713897705,2.4000000953674316,2.2149999141693115,2.25,2.25,9100
2020-07-08,2.25,2.369999885559082,2.25,2.259999990463257,2.259999990463257,16700
2020-07-09,2.450000047683716,2.450000047683716,2.259999990463257,2.359999895095825,2.359999895095825,27800
2020-07-10,2.369999885559082,2.5999999046325684,2.200000047683716,2.312000036239624,2.312000036239624,119200
2020-07-13,2.309999942779541,2.384999990463257,2.200000047683716,2.2699999809265137,2.2699999809265137,22300
2020-07-14,2.180000066757202,2.2799999713897705,2.1500000953674316,2.1500000953674316,2.1500000953674316,23200
2020-07-15,2.2060000896453857,3.690000057220459,2.1700000762939453,3.319999933242798,3.319999933242798,436200
2020-07-16,2.680000066757202,2.950000047683716,2.359999895095825,2.5999999046325684,2.5999999046325684,268100
2020-07-17,2.7200000286102295,2.7799999713897705,2.509999990463257,2.6500000953674316,2.6500000953674316,36500
2020-07-20,2.6700000762939453,2.6700000762939453,2.5199999809265137,2.559999942779541,2.559999942779541,26300
2020-07-21,2.5399999618530273,2.559999942779541,2.369999885559082,2.4600000381469727,2.4600000381469727,41700
2020-07-22,2.5,2.5,2.390000104904175,2.4200000762939453,2.4200000762939453,6700
2020-07-23,2.5199999809265137,2.690000057220459,2.380000114440918,2.5999999046325684,2.5999999046325684,68400
2020-07-24,2.5399999618530273,2.569999933242798,2.4100000858306885,2.450000047683716,2.450000047683716,8000
2020-07-27,2.621999979019165,2.799999952316284,2.4800000190734863,2.609999895095825,2.609999895095825,120500
2020-07-28,2.4700000286102295,2.950000047683716,2.319999933242798,2.5899999141693115,2.5899999141693115,245600
2020-07-29,2.559999942779541,2.75,2.5,2.5,2.5,39300
2020-07-30,2.430000066757202,2.6449999809265137,2.430000066757202,2.4800000190734863,2.4800000190734863,11400
2020-07-31,2.433000087738037,2.5999999046325684,2.319999933242798,2.5399999618530273,2.5399999618530273,63100
2020-08-03,2.5299999713897705,2.622999906539917,2.430000066757202,2.4700000286102295,2.4700000286102295,45300
2020-08-04,2.5,2.5399999618530273,2.434999942779541,2.4600000381469727,2.4600000381469727,33100
2020-08-05,2.440000057220459,2.559999942779541,2.4000000953674316,2.450000047683716,2.450000047683716,33100
2020-08-06,2.4600000381469727,2.5999999046325684,2.430000066757202,2.509999990463257,2.509999990463257,81400
2020-08-07,2.5850000381469727,2.640000104904175,2.440000057220459,2.490000009536743,2.490000009536743,39100
2020-08-10,2.640000104904175,3.0999999046325684,2.5,2.8489999771118164,2.8489999771118164,308400
2020-08-11,2.9000000953674316,3.299999952316284,2.700000047683716,2.8499999046325684,2.8499999046325684,252600
2020-08-12,2.7699999809265137,3.015000104904175,2.5899999141693115,2.7100000381469727,2.7100000381469727,63100
2020-08-13,2.7100000381469727,3.4830000400543213,2.7100000381469727,3.069999933242798,3.069999933242798,398800
2020-08-14,3.1500000953674316,3.640000104904175,3.0999999046325684,3.5999999046325684,3.5999999046325684,403600
2020-08-17,4.179999828338623,4.710000038146973,3.5999999046325684,4.050000190734863,4.050000190734863,1452800
2020-08-18,3.880000114440918,4.130000114440918,3.380000114440918,3.549999952316284,3.549999952316284,265600
2020-08-19,3.440000057220459,3.740000009536743,2.9800000190734863,3.069999933242798,3.069999933242798,222700
2020-08-20,3.0799999237060547,3.2100000381469727,2.9149999618530273,3.109999895095825,3.109999895095825,93900
2020-08-21,3.0999999046325684,4.130000114440918,3.0999999046325684,3.630000114440918,3.630000114440918,1041600
2020-08-24,3.859999895095825,3.8610000610351562,3.430000066757202,3.690000057220459,3.690000057220459,146800
2020-08-25,3.6500000953674316,4.5,3.5299999713897705,3.950000047683716,3.950000047683716,372300
2020-08-26,4.0,4.114999771118164,3.680000066757202,3.809999942779541,3.809999942779541,83000
2020-08-27,3.809999942779541,3.9000000953674316,3.390000104904175,3.640000104904175,3.640000104904175,113900
2020-08-28,3.5999999046325684,3.8399999141693115,3.549999952316284,3.759999990463257,3.759999990463257,32200
2020-08-31,3.799999952316284,3.8499999046325684,3.4000000953674316,3.5999999046325684,3.5999999046325684,59900
2020-09-01,3.5999999046325684,3.5999999046325684,3.069999933242798,3.3299999237060547,3.3299999237060547,110800
2020-09-02,3.2799999713897705,3.740000009536743,3.2699999809265137,3.7200000286102295,3.7200000286102295,118700
2020-09-03,3.7300000190734863,3.8959999084472656,3.5399999618530273,3.7799999713897705,3.7799999713897705,111800
2020-09-04,3.7699999809265137,3.9000000953674316,3.375,3.549999952316284,3.549999952316284,66000
2020-09-08,3.690000057220459,3.690000057220459,3.190000057220459,3.4600000381469727,3.4600000381469727,42200
2020-09-09,3.380000114440918,3.4019999504089355,3.1500000953674316,3.1600000858306885,3.1600000858306885,47800
2020-09-10,3.1700000762939453,3.1700000762939453,3.069999933242798,3.109999895095825,3.109999895095825,22100
2020-09-11,3.109999895095825,3.119999885559082,3.0299999713897705,3.0450000762939453,3.0450000762939453,15100
2020-09-14,3.0199999809265137,3.049999952316284,2.9700000286102295,2.9800000190734863,2.9800000190734863,33000
2020-09-15,2.9600000381469727,3.1500000953674316,2.9600000381469727,3.0850000381469727,3.0850000381469727,91500
2020-09-16,3.0899999141693115,3.265000104904175,3.065999984741211,3.187000036239624,3.187000036239624,30100
2020-09-17,3.200000047683716,3.2950000762939453,3.0199999809265137,3.109999895095825,3.109999895095825,37800
2020-09-18,3.109999895095825,3.124000072479248,2.9000000953674316,2.950000047683716,2.950000047683716,30700
2020-09-21,2.799999952316284,2.859999895095825,2.75,2.859999895095825,2.859999895095825,26800
2020-09-22,2.859999895095825,2.940000057220459,2.8499999046325684,2.859999895095825,2.859999895095825,11300
2020-09-23,2.809999942779541,2.9700000286102295,2.799999952316284,2.8499999046325684,2.8499999046325684,32900
2020-09-24,2.888000011444092,3.0,2.7699999809265137,2.8399999141693115,2.8399999141693115,18200
2020-09-25,2.9000000953674316,2.9600000381469727,2.7799999713897705,2.940000057220459,2.940000057220459,41300
2020-09-28,2.950000047683716,3.0899999141693115,2.7899999618530273,2.990000009536743,2.990000009536743,39400
2020-09-29,2.9600000381469727,2.9600000381469727,2.5420000553131104,2.890000104904175,2.890000104904175,45100
2020-09-30,2.7200000286102295,2.890000104904175,2.6600000858306885,2.759999990463257,2.759999990463257,7100
2020-10-01,2.7219998836517334,2.869999885559082,2.690000057220459,2.8410000801086426,2.8410000801086426,13000
2020-10-02,2.799999952316284,2.880000114440918,2.700000047683716,2.75,2.75,9200
2020-10-05,2.8369998931884766,2.8399999141693115,2.6600000858306885,2.7100000381469727,2.7100000381469727,43200
2020-10-06,2.6500000953674316,2.744999885559082,2.634000062942505,2.6700000762939453,2.6700000762939453,22000
2020-10-07,2.6700000762939453,2.690000057220459,2.553999900817871,2.640000104904175,2.640000104904175,55600
2020-10-08,2.630000114440918,3.109999895095825,2.630000114440918,2.9000000953674316,2.9000000953674316,47800
2020-10-09,2.990000009536743,3.049999952316284,2.940000057220459,2.98799991607666,2.98799991607666,9400
2020-10-12,3.0299999713897705,3.049999952316284,2.75,2.8949999809265137,2.8949999809265137,34100
2020-10-13,2.809999942779541,3.200000047683716,2.799999952316284,3.0899999141693115,3.0899999141693115,70500
2020-10-14,3.0450000762939453,3.180000066757202,2.930000066757202,3.009999990463257,3.009999990463257,29800
2020-10-15,3.0299999713897705,3.680000066757202,3.009999990463257,3.0899999141693115,3.0899999141693115,326200
2020-10-16,3.130000114440918,3.9000000953674316,3.0999999046325684,3.700000047683716,3.700000047683716,483500
2020-10-19,3.819999933242798,4.170000076293945,3.630000114440918,3.8299999237060547,3.8299999237060547,308600
2020-10-20,3.740000009536743,3.9019999504089355,3.309999942779541,3.3499999046325684,3.3499999046325684,155800
2020-10-21,3.359999895095825,3.7200000286102295,3.359999895095825,3.4800000190734863,3.4800000190734863,122900
2020-10-22,3.5,4.199999809265137,3.4000000953674316,3.880000114440918,3.880000114440918,1302900
2020-10-23,4.610000133514404,6.050000190734863,4.010000228881836,4.329999923706055,4.329999923706055,16172300
2020-10-26,3.950000047683716,4.0,3.309999942779541,3.5799999237060547,3.5799999237060547,543800
2020-10-27,3.559999942779541,3.559999942779541,3.0899999141693115,3.190000057220459,3.190000057220459,395900
2020-10-28,3.0999999046325684,3.239000082015991,3.0199999809265137,3.2100000381469727,3.2100000381469727,79900
2020-10-29,3.1600000858306885,3.299999952316284,3.0899999141693115,3.2899999618530273,3.2899999618530273,119400
2020-10-30,3.240000009536743,3.240000009536743,3.049999952316284,3.0799999237060547,3.0799999237060547,66300
2020-11-02,3.0899999141693115,3.0899999141693115,2.940000057220459,3.059999942779541,3.059999942779541,103000
2020-11-03,3.049999952316284,3.134000062942505,3.0199999809265137,3.0199999809265137,3.0199999809265137,53900
2020-11-04,3.069999933242798,3.1500000953674316,2.9800000190734863,2.990000009536743,2.990000009536743,45800
2020-11-05,3.0,3.130000114440918,2.950000047683716,3.0999999046325684,3.0999999046325684,53500
2020-11-06,3.0450000762939453,3.0799999237060547,2.8399999141693115,2.890000104904175,2.890000104904175,109100
2020-11-09,3.1700000762939453,3.1700000762939453,2.7200000286102295,2.890000104904175,2.890000104904175,140900
2020-11-10,2.9800000190734863,3.009999990463257,2.8550000190734863,2.9200000762939453,2.9200000762939453,39100
2020-11-11,2.9739999771118164,3.0399999618530273,2.8499999046325684,2.890000104904175,2.890000104904175,82400
2020-11-12,2.8399999141693115,2.9690001010894775,2.8399999141693115,2.890000104904175,2.890000104904175,67200
2020-11-13,2.9600000381469727,2.9830000400543213,2.799999952316284,2.799999952316284,2.799999952316284,122000
2020-11-16,3.0299999713897705,3.700000047683716,3.0,3.119999885559082,3.119999885559082,2485200
2020-11-17,3.009999990463257,3.119999885559082,2.9000000953674316,2.9700000286102295,2.9700000286102295,161000
2020-11-18,2.990000009536743,3.0,2.8299999237060547,2.880000114440918,2.880000114440918,153100
2020-11-19,2.930000066757202,3.0,2.819999933242798,2.930000066757202,2.930000066757202,68300
2020-11-20,2.990000009536743,3.190000057220459,2.880000114440918,2.990000009536743,2.990000009536743,236300
2020-11-23,3.0999999046325684,3.200000047683716,3.0,3.119999885559082,3.119999885559082,258600
2020-11-24,3.180000066757202,3.2799999713897705,3.069999933242798,3.121999979019165,3.121999979019165,132100
2020-11-25,3.130000114440918,3.3499999046325684,3.119999885559082,3.1500000953674316,3.1500000953674316,206700
2020-11-27,3.2100000381469727,3.25,3.130000114440918,3.1500000953674316,3.1500000953674316,85400
2020-11-30,3.109999895095825,3.2899999618530273,3.109999895095825,3.2799999713897705,3.2799999713897705,109200
2020-12-01,3.3399999141693115,3.3399999141693115,2.9700000286102295,3.0399999618530273,3.0399999618530273,217700
2020-12-02,2.990000009536743,3.234999895095825,2.9000000953674316,3.1700000762939453,3.1700000762939453,104200
2020-12-03,3.200000047683716,3.2200000286102295,3.0899999141693115,3.180000066757202,3.180000066757202,50000
2020-12-04,3.2200000286102295,3.299999952316284,3.0899999141693115,3.2300000190734863,3.2300000190734863,234800
2020-12-07,3.240000009536743,3.2730000019073486,3.130000114440918,3.180000066757202,3.180000066757202,138000
2020-12-08,3.859999895095825,4.429999828338623,3.299999952316284,3.380000114440918,3.380000114440918,7410800
2020-12-09,3.1489999294281006,3.299999952316284,3.0,3.009999990463257,3.009999990463257,563300
2020-12-10,3.0,3.200000047683716,3.0,3.0799999237060547,3.0799999237060547,206900
2020-12-11,3.0920000076293945,3.180000066757202,3.0199999809265137,3.1700000762939453,3.1700000762939453,173400
2020-12-14,3.1500000953674316,3.180000066757202,3.0199999809265137,3.1700000762939453,3.1700000762939453,198900
2020-12-15,3.109999895095825,3.1500000953674316,3.0199999809265137,3.0999999046325684,3.0999999046325684,135100
2020-12-16,3.0899999141693115,3.140000104904175,2.940000057220459,3.0,3.0,403100
2020-12-17,2.9700000286102295,3.0399999618530273,2.9700000286102295,3.009999990463257,3.009999990463257,116500
2020-12-18,3.0,3.0899999141693115,2.859999895095825,2.950000047683716,2.950000047683716,279100
2020-12-21,2.9200000762939453,3.140000104904175,2.9010000228881836,3.0399999618530273,3.0399999618530273,325200
2020-12-22,3.0899999141693115,3.109999895095825,2.8399999141693115,2.9100000858306885,2.9100000858306885,476100
2020-12-23,2.9700000286102295,3.0299999713897705,2.880000114440918,3.0,3.0,215100
2020-12-24,2.990000009536743,3.1489999294281006,2.990000009536743,3.069999933242798,3.069999933242798,173900
2020-12-28,3.130000114440918,3.2200000286102295,3.049999952316284,3.130000114440918,3.130000114440918,590700
2020-12-29,3.200000047683716,3.299999952316284,2.880000114440918,3.009999990463257,3.009999990463257,427500
2020-12-30,3.0399999618530273,3.1500000953674316,3.009999990463257,3.069999933242798,3.069999933242798,179900
