Date,Open,High,Low,Close,Adj Close,Volume
2018-01-19,17.5,18.0,17.049999237060547,17.770000457763672,16.11745262145996,18176900
2018-01-22,17.889999389648438,18.0,17.559999465942383,17.790000915527344,16.13559341430664,2261600
2018-01-23,17.950000762939453,17.950000762939453,17.40999984741211,17.639999389648438,15.99954605102539,2391200
2018-01-24,17.829999923706055,17.829999923706055,17.540000915527344,17.6299991607666,15.990473747253418,1419900
2018-01-25,17.600000381469727,18.049999237060547,17.309999465942383,17.75,16.099313735961914,3198700
2018-01-26,17.809999465942383,17.889999389648438,17.649999618530273,17.75,16.099313735961914,562100
2018-01-29,17.610000610351562,17.989999771118164,17.579999923706055,17.950000762939453,16.280717849731445,947300
2018-01-30,17.920000076293945,17.969999313354492,17.59000015258789,17.90999984741211,16.244434356689453,925600
2018-01-31,17.90999984741211,18.350000381469727,17.829999923706055,18.280000686645508,16.580028533935547,1161100
2018-02-01,18.270000457763672,18.40999984741211,18.1200008392334,18.270000457763672,16.570959091186523,974300
2018-02-02,18.229999542236328,18.290000915527344,17.850000381469727,18.18000030517578,16.48932456970215,1226100
2018-02-05,18.1200008392334,18.290000915527344,17.799999237060547,17.940000534057617,16.271642684936523,613400
2018-02-06,17.84000015258789,17.989999771118164,17.25,17.799999237060547,16.144662857055664,1929500
2018-02-07,17.739999771118164,18.100000381469727,17.649999618530273,18.020000457763672,16.344209671020508,510500
2018-02-08,17.940000534057617,18.020000457763672,17.65999984741211,17.68000030517578,16.035823822021484,484600
2018-02-09,17.709999084472656,17.950000762939453,16.1299991607666,17.790000915527344,16.13559341430664,1018700
2018-02-12,17.56999969482422,17.93000030517578,17.350000381469727,17.530000686645508,15.899773597717285,559500
2018-02-13,17.649999618530273,18.09000015258789,17.610000610351562,17.959999084472656,16.28978157043457,334500
2018-02-14,17.940000534057617,18.010000228881836,17.700000762939453,17.979999542236328,16.307924270629883,391900
2018-02-15,18.0,18.079999923706055,17.889999389648438,17.920000076293945,16.253503799438477,393900
2018-02-16,17.93000030517578,18.06999969482422,17.829999923706055,17.979999542236328,16.307924270629883,341800
2018-02-20,18.0,18.030000686645508,17.899999618530273,17.969999313354492,16.298856735229492,390900
2018-02-21,18.0,18.020000457763672,17.780000686645508,17.899999618530273,16.235366821289062,641400
2018-02-22,17.850000381469727,17.950000762939453,17.65999984741211,17.850000381469727,16.190013885498047,564400
2018-02-23,17.809999465942383,18.25,17.799999237060547,18.219999313354492,16.525604248046875,747700
2018-02-26,18.270000457763672,18.3700008392334,18.079999923706055,18.09000015258789,16.407695770263672,330900
2018-02-27,18.170000076293945,18.25,17.920000076293945,18.0,16.326065063476562,718600
2018-02-28,18.0,18.059999465942383,17.899999618530273,18.0,16.326065063476562,720200
2018-03-01,18.0,18.260000228881836,17.860000610351562,17.90999984741211,16.244434356689453,733100
2018-03-02,17.81999969482422,18.100000381469727,17.18000030517578,17.899999618530273,16.235366821289062,563600
2018-03-05,17.90999984741211,17.950000762939453,17.700000762939453,17.760000228881836,16.108381271362305,377400
2018-03-06,17.799999237060547,18.149999618530273,17.75,17.770000457763672,16.11745262145996,266700
2018-03-07,17.780000686645508,17.93000030517578,17.719999313354492,17.739999771118164,16.090242385864258,257700
2018-03-08,17.8799991607666,18.0,17.780000686645508,17.860000610351562,16.19908332824707,249600
2018-03-09,17.950000762939453,18.049999237060547,17.809999465942383,17.969999313354492,16.298856735229492,471500
2018-03-12,18.329999923706055,18.34000015258789,17.93000030517578,18.1299991607666,16.4439754486084,364900
2018-03-13,18.049999237060547,18.209999084472656,17.75,17.90999984741211,16.244434356689453,256100
2018-03-14,17.899999618530273,18.059999465942383,17.770000457763672,17.940000534057617,16.271642684936523,456300
2018-03-15,17.979999542236328,18.420000076293945,17.979999542236328,18.329999923706055,16.6253719329834,493300
2018-03-16,18.31999969482422,18.670000076293945,18.110000610351562,18.670000076293945,16.93375587463379,7694500
2018-03-19,18.670000076293945,18.790000915527344,18.479999542236328,18.700000762939453,16.96097183227539,740800
2018-03-20,18.780000686645508,18.780000686645508,18.459999084472656,18.719999313354492,16.979110717773438,451200
2018-03-21,18.600000381469727,19.1299991607666,18.549999237060547,18.8799991607666,17.124229431152344,970600
2018-03-22,18.760000228881836,18.950000762939453,18.729999542236328,18.850000381469727,17.09701919555664,368300
2018-03-23,18.829999923706055,18.950000762939453,18.56999969482422,18.65999984741211,16.9246883392334,563700
2018-03-26,18.84000015258789,18.899999618530273,18.520000457763672,18.649999618530273,16.91561508178711,885900
2018-03-27,18.75,18.799999237060547,18.450000762939453,18.469999313354492,16.752357482910156,259200
2018-03-28,18.3799991607666,18.700000762939453,18.299999237060547,18.6299991607666,17.02653694152832,759300
2018-03-29,18.549999237060547,19.280000686645508,18.549999237060547,19.079999923706055,17.437803268432617,726000
2018-04-02,19.0,19.219999313354492,18.56999969482422,18.579999923706055,16.980838775634766,529200
2018-04-03,18.790000915527344,18.790000915527344,18.530000686645508,18.649999618530273,17.04481315612793,569800
2018-04-04,18.5,18.969999313354492,18.43600082397461,18.81999969482422,17.200180053710938,552900
2018-04-05,18.799999237060547,18.875,18.649999618530273,18.84000015258789,17.218461990356445,555200
2018-04-06,18.760000228881836,18.940000534057617,18.690000534057617,18.829999923706055,17.209321975708008,195500
2018-04-09,18.969999313354492,19.260000228881836,18.709999084472656,19.059999465942383,17.419527053833008,651000
2018-04-10,19.190000534057617,19.209999084472656,19.010000228881836,19.100000381469727,17.456083297729492,529200
2018-04-11,19.059999465942383,19.559999465942383,19.0,19.459999084472656,17.78510093688965,716300
2018-04-12,19.540000915527344,19.6299991607666,19.290000915527344,19.290000915527344,17.62973403930664,578700
2018-04-13,19.399999618530273,19.399999618530273,19.020000457763672,19.020000457763672,17.38296890258789,301600
2018-04-16,19.059999465942383,19.3700008392334,18.90999984741211,19.360000610351562,17.69370460510254,252200
2018-04-17,19.3700008392334,19.65999984741211,19.360000610351562,19.479999542236328,17.803377151489258,298400
2018-04-18,19.530000686645508,19.829999923706055,19.239999771118164,19.719999313354492,18.022720336914062,266400
2018-04-19,19.610000610351562,19.770000457763672,19.5049991607666,19.719999313354492,18.022720336914062,441200
2018-04-20,19.729999542236328,20.06999969482422,19.719999313354492,19.850000381469727,18.14153289794922,469100
2018-04-23,19.860000610351562,20.110000610351562,19.85099983215332,19.979999542236328,18.260339736938477,566600
2018-04-24,20.049999237060547,20.110000610351562,19.940000534057617,20.079999923706055,18.35173797607422,575200
2018-04-25,20.170000076293945,20.260000228881836,19.969999313354492,20.200000762939453,18.461408615112305,191000
2018-04-26,20.350000381469727,20.5,20.229999542236328,20.329999923706055,18.580219268798828,256200
2018-04-27,20.34000015258789,21.049999237060547,20.34000015258789,20.81999969482422,19.028045654296875,350400
2018-04-30,20.81999969482422,21.1299991607666,20.530000686645508,20.610000610351562,18.836116790771484,580200
2018-05-01,20.600000381469727,20.639999389648438,20.299999237060547,20.610000610351562,18.836116790771484,707000
2018-05-02,20.549999237060547,20.920000076293945,20.5,20.510000228881836,18.744726181030273,732400
2018-05-03,20.510000228881836,20.790000915527344,20.31999969482422,20.719999313354492,18.93665313720703,222100
2018-05-04,20.719999313354492,20.920000076293945,20.639999389648438,20.739999771118164,18.954933166503906,318000
2018-05-07,20.8700008392334,21.040000915527344,20.64299964904785,20.989999771118164,19.183412551879883,197300
2018-05-08,20.920000076293945,21.15999984741211,20.690000534057617,21.139999389648438,19.32050323486328,381300
2018-05-09,21.200000762939453,21.530000686645508,21.040000915527344,21.489999771118164,19.640378952026367,351700
2018-05-10,21.719999313354492,22.059999465942383,21.350000381469727,21.43000030517578,19.585542678833008,805400
2018-05-11,23.190000534057617,23.540000915527344,21.719999313354492,22.299999237060547,20.380661010742188,2001700
2018-05-14,22.299999237060547,22.389999389648438,21.229999542236328,21.420000076293945,19.57640838623047,622600
2018-05-15,21.389999389648438,21.739999771118164,20.75,21.030000686645508,19.219970703125,1317500
2018-05-16,21.06999969482422,21.489999771118164,20.899999618530273,21.40999984741211,19.5672607421875,933800
2018-05-17,21.440000534057617,22.06999969482422,21.110000610351562,21.850000381469727,19.96939468383789,1642000
2018-05-18,21.950000762939453,22.030000686645508,21.700000762939453,21.850000381469727,19.96939468383789,526000
2018-05-21,21.850000381469727,22.100000381469727,21.770000457763672,21.889999389648438,20.005950927734375,467800
2018-05-22,21.75,22.010000228881836,21.25,21.420000076293945,19.57640838623047,739700
2018-05-23,21.520000457763672,21.989999771118164,21.280000686645508,21.639999389648438,19.7774715423584,876700
2018-05-24,21.709999084472656,21.799999237060547,21.450000762939453,21.68000030517578,19.81402587890625,312700
2018-05-25,21.75,21.829999923706055,21.424999237060547,21.610000610351562,19.75004768371582,283700
2018-05-29,21.5,21.674999237060547,21.350000381469727,21.43000030517578,19.585542678833008,771900
2018-05-30,21.510000228881836,21.81999969482422,21.450000762939453,21.760000228881836,19.887144088745117,434900
2018-05-31,21.780000686645508,21.780000686645508,20.450000762939453,20.600000381469727,18.82697868347168,3858800
2018-06-01,21.0,21.6200008392334,20.770000457763672,21.350000381469727,19.512428283691406,1360800
2018-06-04,21.299999237060547,22.139999389648438,21.260000228881836,22.0,20.106483459472656,1872200
2018-06-05,21.940000534057617,22.030000686645508,21.34000015258789,21.520000457763672,19.667797088623047,1049000
2018-06-06,21.530000686645508,21.799999237060547,21.239999771118164,21.700000762939453,19.832304000854492,756500
2018-06-07,21.719999313354492,21.860000610351562,21.658000946044922,21.739999771118164,19.868860244750977,1104200
2018-06-08,21.760000228881836,21.864999771118164,21.610000610351562,21.700000762939453,19.832304000854492,817600
2018-06-11,21.75,21.75,21.389999389648438,21.6200008392334,19.759191513061523,409000
2018-06-12,21.6299991607666,21.940000534057617,21.559999465942383,21.700000762939453,19.832304000854492,1035400
2018-06-13,21.8700008392334,21.90999984741211,21.575000762939453,21.700000762939453,19.832304000854492,1448500
2018-06-14,21.829999923706055,21.940000534057617,21.670000076293945,21.670000076293945,19.804885864257812,701200
2018-06-15,21.649999618530273,21.709999084472656,21.239999771118164,21.5,19.649518966674805,2579900
2018-06-18,21.389999389648438,21.829999923706055,21.389999389648438,21.719999313354492,19.850582122802734,961900
2018-06-19,21.649999618530273,22.049999237060547,21.450000762939453,21.75,19.878002166748047,1260100
2018-06-20,21.950000762939453,22.15999984741211,21.81999969482422,22.1200008392334,20.216156005859375,875100
2018-06-21,22.1200008392334,22.31999969482422,21.899999618530273,22.25,20.3349666595459,604500
2018-06-22,22.239999771118164,22.450000762939453,22.059999465942383,22.260000228881836,20.344106674194336,1436100
2018-06-25,22.260000228881836,22.559999465942383,22.100000381469727,22.540000915527344,20.600006103515625,339000
2018-06-26,22.59000015258789,22.780000686645508,22.3799991607666,22.65999984741211,20.709678649902344,399500
2018-06-27,22.639999389648438,22.639999389648438,22.010000228881836,22.1200008392334,20.216156005859375,430400
2018-06-28,22.0,22.322999954223633,21.860000610351562,22.25,20.509279251098633,264800
2018-06-29,22.440000534057617,22.440000534057617,21.8700008392334,22.020000457763672,20.297271728515625,564600
2018-07-02,21.920000076293945,22.030000686645508,21.75,21.8700008392334,20.159006118774414,285200
2018-07-03,21.899999618530273,22.059999465942383,21.84000015258789,22.040000915527344,20.315704345703125,287400
2018-07-05,22.110000610351562,22.350000381469727,21.920000076293945,22.209999084472656,20.47240447998047,714000
2018-07-06,22.229999542236328,22.43000030517578,22.184999465942383,22.299999237060547,20.55536651611328,578500
2018-07-09,22.299999237060547,22.43000030517578,21.389999389648438,21.5,19.81795310974121,1816800
2018-07-10,21.520000457763672,21.915000915527344,21.43000030517578,21.6200008392334,19.928564071655273,876300
2018-07-11,21.530000686645508,21.670000076293945,21.440000534057617,21.440000534057617,19.76264762878418,410600
2018-07-12,21.610000610351562,21.709999084472656,21.3799991607666,21.540000915527344,19.854825973510742,437000
2018-07-13,21.5,21.777000427246094,21.5,21.719999313354492,20.02073860168457,399200
2018-07-16,21.790000915527344,21.899999618530273,21.5,21.639999389648438,19.94700050354004,400200
2018-07-17,21.59000015258789,21.71500015258789,21.25,21.290000915527344,19.624380111694336,760700
2018-07-18,21.260000228881836,21.559999465942383,21.110000610351562,21.25,19.587512969970703,694100
2018-07-19,21.25,21.459999084472656,21.149999618530273,21.440000534057617,19.76264762878418,959300
2018-07-20,21.34000015258789,21.469999313354492,21.170000076293945,21.360000610351562,19.688905715942383,481100
2018-07-23,21.420000076293945,21.420000076293945,21.059999465942383,21.290000915527344,19.624380111694336,777700
2018-07-24,21.290000915527344,21.639999389648438,21.15999984741211,21.5,19.81795310974121,468500
2018-07-25,21.389999389648438,21.65999984741211,21.299999237060547,21.6200008392334,19.928564071655273,1112900
2018-07-26,21.65999984741211,21.829999923706055,21.559999465942383,21.59000015258789,19.900909423828125,566400
2018-07-27,21.59000015258789,21.610000610351562,21.170000076293945,21.239999771118164,19.578289031982422,517000
2018-07-30,21.34000015258789,21.549999237060547,21.1200008392334,21.31999969482422,19.652034759521484,632100
2018-07-31,21.399999618530273,21.719999313354492,21.274999618530273,21.510000228881836,19.827171325683594,896200
2018-08-01,21.479999542236328,21.545000076293945,21.280000686645508,21.40999984741211,19.73499298095703,403800
2018-08-02,21.3700008392334,21.593000411987305,21.25,21.540000915527344,19.854825973510742,426400
2018-08-03,21.610000610351562,21.690000534057617,21.5049991607666,21.68000030517578,19.983871459960938,401100
2018-08-06,21.739999771118164,21.84000015258789,21.549999237060547,21.670000076293945,19.974655151367188,296900
2018-08-07,21.600000381469727,21.649999618530273,21.270000457763672,21.489999771118164,19.808732986450195,410500
2018-08-08,21.469999313354492,21.5,21.299999237060547,21.3700008392334,19.698123931884766,753800
2018-08-09,21.389999389648438,21.549999237060547,21.25,21.5,19.81795310974121,403700
2018-08-10,23.040000915527344,23.31999969482422,21.450000762939453,23.139999389648438,21.329648971557617,1753600
2018-08-13,23.290000915527344,23.5,22.760000228881836,22.979999542236328,21.182161331176758,623700
2018-08-14,22.899999618530273,23.510000228881836,22.709999084472656,23.1200008392334,21.311214447021484,822500
2018-08-15,23.139999389648438,23.309999465942383,22.889999389648438,23.1200008392334,21.311214447021484,414900
2018-08-16,23.200000762939453,23.600000381469727,22.920000076293945,23.530000686645508,21.68913459777832,551400
2018-08-17,23.610000610351562,24.15999984741211,23.399999618530273,23.8700008392334,22.00253677368164,522100
2018-08-20,24.040000915527344,24.1200008392334,23.790000915527344,23.989999771118164,22.113147735595703,370000
2018-08-21,24.06999969482422,24.389999389648438,23.780000686645508,24.100000381469727,22.214542388916016,499700
2018-08-22,24.100000381469727,24.290000915527344,23.670000076293945,23.770000457763672,21.91036033630371,325200
2018-08-23,23.770000457763672,23.8700008392334,23.56999969482422,23.850000381469727,21.98409652709961,369000
2018-08-24,23.899999618530273,24.059999465942383,23.809999465942383,24.049999237060547,22.1684513092041,432500
2018-08-27,24.18000030517578,24.31999969482422,23.940000534057617,24.200000762939453,22.306716918945312,453100
2018-08-28,24.229999542236328,24.43000030517578,24.030000686645508,24.3700008392334,22.463422775268555,546300
2018-08-29,24.450000762939453,24.690000534057617,24.34000015258789,24.639999389648438,22.71229362487793,425400
2018-08-30,24.610000610351562,24.899999618530273,24.3700008392334,24.520000457763672,22.601680755615234,514200
2018-08-31,24.459999084472656,24.950000762939453,24.232999801635742,24.899999618530273,22.951955795288086,541300
2018-09-04,24.850000381469727,25.149999618530273,24.7450008392334,24.8799991607666,22.933517456054688,787200
2018-09-05,24.829999923706055,25.010000228881836,24.670000076293945,24.8799991607666,22.933517456054688,369800
2018-09-06,24.8799991607666,24.93000030517578,24.649999618530273,24.729999542236328,22.795251846313477,327100
2018-09-07,24.700000762939453,24.940000534057617,24.540000915527344,24.68000030517578,22.74916648864746,468700
2018-09-10,24.809999465942383,24.90999984741211,24.610000610351562,24.760000228881836,22.822908401489258,604300
2018-09-11,24.739999771118164,24.93000030517578,24.700000762939453,24.81999969482422,22.878211975097656,506700
2018-09-12,23.969999313354492,24.700000762939453,23.871000289916992,24.639999389648438,22.71229362487793,1462600
2018-09-13,24.780000686645508,25.3799991607666,24.729999542236328,25.18000030517578,23.21004867553711,1459100
2018-09-14,25.0,25.200000762939453,24.8700008392334,24.90999984741211,22.961172103881836,13019400
2018-09-17,24.780000686645508,25.940000534057617,24.780000686645508,25.690000534057617,23.680152893066406,3490700
2018-09-18,25.84000015258789,25.93000030517578,25.270000457763672,25.59000015258789,23.587970733642578,3111100
2018-09-19,25.690000534057617,26.079999923706055,25.270000457763672,25.270000457763672,23.293006896972656,1807300
2018-09-20,25.25,25.459999084472656,25.110000610351562,25.270000457763672,23.293006896972656,1081300
2018-09-21,25.31999969482422,25.440000534057617,25.110000610351562,25.3799991607666,23.3944034576416,5927500
2018-09-24,25.399999618530273,25.479999542236328,25.18000030517578,25.25,23.274572372436523,1151900
2018-09-25,25.299999237060547,25.489999771118164,25.040000915527344,25.190000534057617,23.219266891479492,1144300
2018-09-26,25.170000076293945,25.399999618530273,24.899999618530273,24.979999542236328,23.025693893432617,946300
2018-09-27,24.899999618530273,25.09000015258789,24.6200008392334,24.84000015258789,23.070276260375977,688500
2018-09-28,24.84000015258789,25.020000457763672,24.75,25.020000457763672,23.237451553344727,1041700
2018-10-01,25.110000610351562,25.200000762939453,24.8799991607666,24.93000030517578,23.153865814208984,615200
2018-10-02,24.920000076293945,25.260000228881836,24.829999923706055,25.020000457763672,23.237451553344727,643500
2018-10-03,24.520000457763672,25.270000457763672,24.520000457763672,25.020000457763672,23.237451553344727,964000
2018-10-04,24.799999237060547,25.190000534057617,24.610000610351562,24.6200008392334,22.865949630737305,968000
2018-10-05,24.65999984741211,24.950000762939453,24.469999313354492,24.8799991607666,23.107425689697266,538700
2018-10-08,24.8799991607666,25.174999237060547,24.844999313354492,25.1200008392334,23.33032989501953,524900
2018-10-09,24.649999618530273,25.40999984741211,24.579999923706055,25.219999313354492,23.423200607299805,578600
2018-10-10,24.440000534057617,25.540000915527344,24.440000534057617,24.770000457763672,23.005266189575195,837600
2018-10-11,24.760000228881836,24.940000534057617,24.149999618530273,24.299999237060547,22.568744659423828,676600
2018-10-12,24.049999237060547,24.56999969482422,23.600000381469727,24.1299991607666,22.410856246948242,717300
2018-10-15,23.670000076293945,24.3799991607666,23.280000686645508,24.260000228881836,22.531599044799805,428300
2018-10-16,24.299999237060547,24.6200008392334,24.236000061035156,24.540000915527344,22.791650772094727,688300
2018-10-17,24.520000457763672,24.65999984741211,24.389999389648438,24.549999237060547,22.800941467285156,903200
2018-10-18,24.459999084472656,24.520000457763672,24.190000534057617,24.190000534057617,22.466585159301758,524000
2018-10-19,24.190000534057617,24.655000686645508,24.190000534057617,24.43000030517578,22.689489364624023,696800
2018-10-22,24.510000228881836,24.81999969482422,24.450000762939453,24.5,22.754499435424805,480500
2018-10-23,24.43000030517578,24.5,24.06999969482422,24.360000610351562,22.624475479125977,652800
2018-10-24,24.40999984741211,24.850000381469727,24.3799991607666,24.489999771118164,22.74521255493164,777500
2018-10-25,24.56999969482422,25.030000686645508,24.524999618530273,24.75,22.986690521240234,570800
2018-10-26,24.739999771118164,24.860000610351562,24.290000915527344,24.709999084472656,22.949541091918945,583900
2018-10-29,24.739999771118164,25.1299991607666,24.690000534057617,24.81999969482422,23.051700592041016,462200
2018-10-30,24.8799991607666,25.43000030517578,24.6200008392334,24.780000686645508,23.014551162719727,1186000
2018-10-31,24.8799991607666,24.979999542236328,24.5,24.75,22.986690521240234,712700
2018-11-01,24.790000915527344,24.969999313354492,24.670000076293945,24.770000457763672,23.005266189575195,617000
2018-11-02,24.850000381469727,24.969999313354492,24.3700008392334,24.440000534057617,22.698774337768555,1036700
2018-11-05,24.479999542236328,24.96500015258789,24.469999313354492,24.84000015258789,23.070276260375977,499500
2018-11-06,24.809999465942383,24.975000381469727,24.704999923706055,24.75,22.986690521240234,467700
2018-11-07,24.739999771118164,25.209999084472656,24.700000762939453,24.940000534057617,23.163150787353516,1246200
2018-11-08,24.899999618530273,25.06999969482422,24.6200008392334,24.899999618530273,23.12600326538086,696200
2018-11-09,24.8799991607666,26.459999084472656,24.450000762939453,26.360000610351562,24.481985092163086,1930600
2018-11-12,26.350000381469727,26.790000915527344,26.110000610351562,26.15999984741211,24.29623031616211,1122000
2018-11-13,26.299999237060547,26.43000030517578,25.700000762939453,25.969999313354492,24.119770050048828,1491900
2018-11-14,26.0,26.969999313354492,25.979999542236328,26.530000686645508,24.639873504638672,2191200
2018-11-15,26.399999618530273,26.469999313354492,25.691999435424805,26.299999237060547,24.426259994506836,1030500
2018-11-16,26.260000228881836,26.68000030517578,26.09000015258789,26.68000030517578,24.779186248779297,1241400
2018-11-19,26.739999771118164,26.90999984741211,26.270000457763672,26.399999618530273,24.519136428833008,701300
2018-11-20,26.299999237060547,26.360000610351562,25.8799991607666,26.1200008392334,24.25908660888672,849100
2018-11-21,26.299999237060547,26.81999969482422,26.229999542236328,26.709999084472656,24.807048797607422,1306000
2018-11-23,26.729999542236328,27.209999084472656,26.489999771118164,26.950000762939453,25.02994728088379,715100
2018-11-26,27.030000686645508,27.030000686645508,26.260000228881836,26.309999465942383,24.435548782348633,894000
2018-11-27,26.280000686645508,26.75,26.25,26.5,24.612009048461914,1894600
2018-11-28,26.530000686645508,26.969999313354492,26.5,26.739999771118164,24.834911346435547,2348400
2018-11-29,26.6299991607666,27.0,26.6299991607666,26.959999084472656,25.03923797607422,1510600
2018-11-30,26.81999969482422,27.149999618530273,26.6299991607666,26.799999237060547,24.890634536743164,6432100
2018-12-03,26.940000534057617,26.969999313354492,26.56999969482422,26.93000030517578,25.011377334594727,809000
2018-12-04,26.950000762939453,27.280000686645508,26.89900016784668,26.959999084472656,25.03923797607422,1407000
2018-12-06,26.81999969482422,27.729999542236328,26.75,27.700000762939453,25.726516723632812,1225300
2018-12-07,27.729999542236328,28.010000228881836,27.510000228881836,27.860000610351562,25.875118255615234,948900
2018-12-10,27.600000381469727,27.920000076293945,27.450000762939453,27.780000686645508,25.800817489624023,900000
2018-12-11,27.920000076293945,28.040000915527344,27.329999923706055,27.579999923706055,25.61506462097168,593400
2018-12-12,27.739999771118164,27.799999237060547,27.200000762939453,27.25,25.308574676513672,482300
2018-12-13,27.25,27.65999984741211,27.200000762939453,27.600000381469727,25.63364028930664,14099000
2018-12-14,27.489999771118164,27.75,27.0,27.100000381469727,25.16926383972168,1287800
2018-12-17,27.25,27.450000762939453,26.34000015258789,26.350000381469727,24.472694396972656,1188300
2018-12-18,26.549999237060547,26.75,26.3799991607666,26.65999984741211,24.76061248779297,918600
2018-12-19,26.700000762939453,26.770000457763672,26.110000610351562,26.229999542236328,24.36124610900879,804700
2018-12-20,26.190000534057617,26.239999771118164,25.700000762939453,26.200000762939453,24.333385467529297,883400
2018-12-21,26.149999618530273,26.959999084472656,25.43000030517578,25.450000762939453,23.636816024780273,1570600
2018-12-24,25.389999389648438,25.420000076293945,24.270000457763672,24.270000457763672,22.5408878326416,373000
2018-12-26,24.290000915527344,25.270000457763672,24.290000915527344,25.239999771118164,23.44178009033203,1450700
2018-12-27,25.15999984741211,25.209999084472656,24.3700008392334,25.200000762939453,23.404630661010742,1256000
2018-12-28,25.18000030517578,25.31999969482422,24.84000015258789,25.15999984741211,23.543115615844727,584000
2018-12-31,25.25,25.579999923706055,24.860000610351562,25.540000915527344,23.898696899414062,815500
2019-01-02,25.280000686645508,25.280000686645508,24.520000457763672,24.920000076293945,23.318540573120117,1080300
2019-01-03,24.889999389648438,25.31999969482422,24.56999969482422,25.079999923706055,23.4682559967041,718100
2019-01-04,25.299999237060547,25.809999465942383,25.219999313354492,25.450000762939453,23.81447982788086,1312300
2019-01-07,25.540000915527344,26.049999237060547,25.440000534057617,25.670000076293945,24.020339965820312,939100
2019-01-08,25.920000076293945,26.549999237060547,25.639999389648438,26.43000030517578,24.731502532958984,846100
2019-01-09,26.489999771118164,26.489999771118164,26.030000686645508,26.3700008392334,24.67535972595215,705600
2019-01-10,26.420000076293945,27.139999389648438,26.270000457763672,27.1200008392334,25.377159118652344,800200
2019-01-11,27.170000076293945,27.510000228881836,27.010000228881836,27.450000762939453,25.68595314025879,771500
2019-01-14,27.43000030517578,27.610000610351562,27.190000534057617,27.459999084472656,25.695310592651367,1467900
2019-01-15,27.540000915527344,27.829999923706055,27.399999618530273,27.75,25.966672897338867,1250200
2019-01-16,27.889999389648438,28.010000228881836,27.559999465942383,27.760000228881836,25.976028442382812,1522600
2019-01-17,27.68000030517578,28.079999923706055,27.68000030517578,28.079999923706055,26.27546501159668,842000
2019-01-18,28.18000030517578,28.309999465942383,28.0,28.260000228881836,26.443897247314453,633600
2019-01-22,28.149999618530273,28.420000076293945,27.950000762939453,28.309999465942383,26.490684509277344,1055900
2019-01-23,28.3700008392334,28.850000381469727,28.163000106811523,28.280000686645508,26.462614059448242,1102900
2019-01-24,28.280000686645508,28.360000610351562,27.729999542236328,27.770000457763672,25.985389709472656,546700
2019-01-25,27.760000228881836,28.18000030517578,27.739999771118164,27.93000030517578,26.13510513305664,993100
2019-01-28,27.799999237060547,28.40999984741211,27.75,28.200000762939453,26.387754440307617,1225200
2019-01-29,28.229999542236328,28.469999313354492,28.079999923706055,28.280000686645508,26.462614059448242,1303500
2019-01-30,28.360000610351562,29.010000228881836,28.25,28.68000030517578,26.8369083404541,1739600
2019-01-31,28.709999084472656,29.5,28.530000686645508,29.31999969482422,27.43577766418457,1607000
2019-02-01,29.40999984741211,29.56999969482422,28.6299991607666,29.149999618530273,27.276702880859375,1287400
2019-02-04,29.1200008392334,29.209999084472656,28.809999465942383,29.059999465942383,27.192485809326172,453600
2019-02-05,29.1200008392334,29.510000228881836,28.780000686645508,29.440000534057617,27.548065185546875,639900
2019-02-06,29.3799991607666,29.59000015258789,28.899999618530273,28.920000076293945,27.06148338317871,664700
2019-02-07,28.809999465942383,29.2549991607666,28.6200008392334,29.1200008392334,27.248632431030273,879600
2019-02-08,29.010000228881836,29.209999084472656,28.84000015258789,29.040000915527344,27.17377471923828,942500
2019-02-11,29.040000915527344,29.229999542236328,28.73699951171875,28.799999237060547,26.94919776916504,972100
2019-02-12,28.93000030517578,28.93000030517578,28.44499969482422,28.65999984741211,26.818191528320312,926400
2019-02-13,28.639999389648438,28.709999084472656,28.329999923706055,28.6299991607666,26.790117263793945,813300
2019-02-14,28.6299991607666,28.829999923706055,28.25,28.770000457763672,26.921123504638672,542300
2019-02-15,28.889999389648438,28.899999618530273,28.670000076293945,28.75,26.90241241455078,456900
2019-02-19,28.780000686645508,29.229999542236328,28.700000762939453,28.93000030517578,27.070842742919922,1180500
2019-02-20,28.920000076293945,29.09000015258789,28.549999237060547,28.59000015258789,26.75269317626953,1020800
2019-02-21,28.459999084472656,28.760000228881836,28.31999969482422,28.540000915527344,26.70590591430664,1173500
2019-02-22,28.790000915527344,29.68000030517578,28.639999389648438,29.440000534057617,27.548065185546875,2382100
2019-02-25,29.610000610351562,29.665000915527344,28.25,28.56999969482422,26.733976364135742,1738700
2019-02-26,28.649999618530273,28.709999084472656,28.059999465942383,28.469999313354492,26.64040184020996,1260200
2019-02-27,28.389999389648438,28.65999984741211,27.969999313354492,28.059999465942383,26.256750106811523,1439600
2019-02-28,28.079999923706055,28.979999542236328,27.959999084472656,28.75,26.90241241455078,3503400
2019-03-01,28.700000762939453,28.940000534057617,28.34000015258789,28.770000457763672,26.921123504638672,20210500
2019-03-04,28.889999389648438,29.510000228881836,28.809999465942383,29.190000534057617,27.314132690429688,5923300
2019-03-05,29.190000534057617,29.8799991607666,29.049999237060547,29.8799991607666,27.959793090820312,13262300
2019-03-06,30.149999618530273,30.149999618530273,29.440000534057617,29.920000076293945,27.99721908569336,2654600
2019-03-07,29.920000076293945,30.059999465942383,29.209999084472656,29.389999389648438,27.501279830932617,2546200
2019-03-08,29.329999923706055,29.610000610351562,29.329999923706055,29.600000381469727,27.697782516479492,1352800
2019-03-11,29.6299991607666,30.3799991607666,29.6299991607666,30.3700008392334,28.418302536010742,3361500
2019-03-12,30.399999618530273,30.399999618530273,29.829999923706055,29.90999984741211,27.98786163330078,1934200
2019-03-13,30.030000686645508,30.3700008392334,29.99799919128418,30.1299991607666,28.193727493286133,1867700
2019-03-14,30.260000228881836,30.56999969482422,30.139999389648438,30.290000915527344,28.343441009521484,2013800
2019-03-15,30.34000015258789,30.530000686645508,30.06999969482422,30.530000686645508,28.568016052246094,7569200
2019-03-18,30.459999084472656,30.540000915527344,30.15999984741211,30.5,28.539947509765625,1540200
2019-03-19,30.59000015258789,30.812999725341797,30.010000228881836,30.100000381469727,28.165651321411133,1207800
2019-03-20,30.030000686645508,30.1299991607666,29.65999984741211,29.860000610351562,27.94107437133789,1160600
2019-03-21,29.780000686645508,30.40999984741211,29.780000686645508,30.309999465942383,28.36215591430664,1431800
2019-03-22,30.299999237060547,30.510000228881836,30.040000915527344,30.25,28.306015014648438,1610500
2019-03-25,30.280000686645508,30.600000381469727,30.239999771118164,30.530000686645508,28.568016052246094,1358100
2019-03-26,30.729999542236328,30.760000228881836,30.469999313354492,30.68000030517578,28.70838165283203,926000
2019-03-27,30.639999389648438,30.665000915527344,30.139999389648438,30.3799991607666,28.427654266357422,1171200
2019-03-28,30.200000762939453,30.75,30.149999618530273,30.729999542236328,28.945722579956055,1228600
2019-03-29,30.780000686645508,30.850000381469727,30.450000762939453,30.510000228881836,28.73849868774414,1426800
2019-04-01,30.6200008392334,30.799999237060547,30.06999969482422,30.479999542236328,28.71023941040039,1124300
2019-04-02,30.579999923706055,30.799999237060547,30.360000610351562,30.719999313354492,28.93630599975586,1952400
2019-04-03,30.809999465942383,30.989999771118164,30.579999923706055,30.809999465942383,29.02107810974121,654100
2019-04-04,30.780000686645508,30.850000381469727,30.25,30.479999542236328,28.71023941040039,538200
2019-04-05,30.469999313354492,30.780000686645508,30.469999313354492,30.770000457763672,28.983400344848633,738100
2019-04-08,30.690000534057617,30.770000457763672,30.420000076293945,30.469999313354492,28.70081901550293,459800
2019-04-09,30.43000030517578,30.469999313354492,30.200000762939453,30.3799991607666,28.616044998168945,774900
2019-04-10,30.489999771118164,31.139999389648438,30.424999237060547,31.079999923706055,29.275405883789062,1236500
2019-04-11,31.100000381469727,31.170000076293945,30.93000030517578,31.100000381469727,29.29424285888672,1096000
2019-04-12,31.09000015258789,31.15999984741211,30.729999542236328,31.059999465942383,29.25656509399414,704800
2019-04-15,31.040000915527344,31.100000381469727,30.549999237060547,30.700000762939453,28.91746711730957,669000
2019-04-16,30.6200008392334,31.459999084472656,29.690000534057617,30.0,28.258108139038086,4123200
2019-04-17,30.149999618530273,30.709999084472656,29.700000762939453,30.420000076293945,28.65372657775879,23627200
2019-04-18,30.479999542236328,31.0049991607666,30.360000610351562,30.93000030517578,29.134111404418945,7359200
2019-04-22,30.899999618530273,31.360000610351562,30.65999984741211,31.360000610351562,29.53914451599121,10963000
2019-04-23,31.59000015258789,31.719999313354492,31.290000915527344,31.719999313354492,29.87824249267578,4059900
2019-04-24,31.700000762939453,31.959999084472656,31.559999465942383,31.93000030517578,30.0760498046875,2767300
2019-04-25,31.860000610351562,32.0,31.655000686645508,32.0,30.141984939575195,2210500
2019-04-26,32.08000183105469,32.349998474121094,32.02000045776367,32.310001373291016,30.43398666381836,3916800
2019-04-29,32.349998474121094,32.400001525878906,31.600000381469727,31.809999465942383,29.963014602661133,1846900
2019-04-30,31.829999923706055,32.15999984741211,31.540000915527344,32.0099983215332,30.15140724182129,1604500
2019-05-01,32.06999969482422,32.38999938964844,31.959999084472656,32.150001525878906,30.28327751159668,2350200
2019-05-02,32.16999816894531,32.560001373291016,31.8799991607666,32.119998931884766,30.255014419555664,1733700
2019-05-03,32.189998626708984,32.470001220703125,31.979999542236328,32.41999816894531,30.53759765625,1987800
2019-05-06,32.20000076293945,32.5,32.08000183105469,32.349998474121094,30.47165870666504,1217600
2019-05-07,32.189998626708984,32.29999923706055,31.56999969482422,31.780000686645508,29.93475914001465,2559300
2019-05-08,31.5,31.5,30.670000076293945,30.829999923706055,29.039915084838867,3840100
2019-05-09,30.719999313354492,30.850000381469727,30.25,30.739999771118164,28.95514488220215,3293300
2019-05-10,30.739999771118164,31.020000457763672,30.5,30.8700008392334,29.077594757080078,2481800
2019-05-13,30.56999969482422,30.81999969482422,30.2549991607666,30.440000534057617,28.672561645507812,2730600
2019-05-14,30.479999542236328,31.059999465942383,30.350000381469727,30.950000762939453,29.152950286865234,3574800
2019-05-15,30.920000076293945,31.18000030517578,30.684999465942383,31.030000686645508,29.22830581665039,2550700
2019-05-16,31.059999465942383,31.329999923706055,31.040000915527344,31.170000076293945,29.36017608642578,1719000
2019-05-17,30.989999771118164,31.139999389648438,30.829999923706055,31.1299991607666,29.322498321533203,2479400
2019-05-20,31.020000457763672,31.100000381469727,30.65999984741211,30.770000457763672,28.983400344848633,1981100
2019-05-21,30.950000762939453,31.450000762939453,30.8700008392334,31.350000381469727,29.529722213745117,1697400
2019-05-22,31.329999923706055,31.639999389648438,31.219999313354492,31.549999237060547,29.71811294555664,1456800
2019-05-23,31.360000610351562,31.809999465942383,31.329999923706055,31.5,29.6710147857666,2154000
2019-05-24,31.6299991607666,32.130001068115234,31.6299991607666,31.84000015258789,29.991273880004883,2353800
2019-05-28,31.959999084472656,32.209999084472656,31.889999389648438,32.0099983215332,30.15140724182129,2233700
2019-05-29,31.81999969482422,31.889999389648438,31.15999984741211,31.31999969482422,29.501462936401367,1962300
2019-05-30,31.299999237060547,31.600000381469727,31.045000076293945,31.389999389648438,29.567401885986328,1260300
2019-05-31,31.1299991607666,31.479999542236328,31.030000686645508,31.299999237060547,29.48262596130371,2367300
2019-06-03,31.389999389648438,31.489999771118164,30.979999542236328,31.25,29.435529708862305,1267500
2019-06-04,31.350000381469727,31.440000534057617,30.520000457763672,30.790000915527344,29.002239227294922,2703800
2019-06-05,31.1200008392334,31.559999465942383,31.040000915527344,31.5,29.6710147857666,3461900
2019-06-06,31.610000610351562,31.69300079345703,31.190000534057617,31.670000076293945,29.831148147583008,1838700
2019-06-07,31.739999771118164,32.08000183105469,31.690000534057617,31.719999313354492,29.87824249267578,1461200
2019-06-10,31.780000686645508,32.029998779296875,31.459999084472656,31.93000030517578,30.0760498046875,1715300
2019-06-11,31.979999542236328,32.244998931884766,31.780000686645508,32.22999954223633,30.35862922668457,1909200
2019-06-12,32.220001220703125,32.86000061035156,32.21500015258789,32.65999984741211,30.763662338256836,2530100
2019-06-13,32.7599983215332,33.16999816894531,32.66999816894531,33.16999816894531,31.244047164916992,2830500
2019-06-14,33.20000076293945,33.3849983215332,32.97999954223633,33.04999923706055,31.131017684936523,1252600
2019-06-17,33.130001068115234,33.54999923706055,33.04999923706055,33.5,31.554893493652344,1887300
2019-06-18,33.650001525878906,33.779998779296875,33.34000015258789,33.40999984741211,31.470111846923828,1394600
2019-06-19,33.31999969482422,33.63999938964844,33.22999954223633,33.470001220703125,31.526628494262695,1743600
2019-06-20,34.040000915527344,34.16999816894531,33.54999923706055,34.130001068115234,32.1483154296875,3393600
2019-06-21,34.04999923706055,34.099998474121094,33.66999816894531,33.97999954223633,32.00701904296875,3430200
2019-06-24,34.06999969482422,34.2400016784668,33.689998626708984,33.790000915527344,31.828048706054688,2223200
2019-06-25,33.88999938964844,34.040000915527344,33.220001220703125,33.29999923706055,31.36650276184082,2418700
2019-06-26,33.279998779296875,33.29999923706055,32.31999969482422,32.41999816894531,30.53759765625,2687300
2019-06-27,32.33000183105469,32.65999984741211,32.19499969482422,32.41999816894531,30.72715187072754,1678700
2019-06-28,32.56999969482422,32.79999923706055,32.27000045776367,32.41999816894531,30.72715187072754,16249500
2019-07-01,32.91999816894531,33.540000915527344,32.41999816894531,33.36000061035156,31.618066787719727,4561700
2019-07-02,33.33000183105469,34.13999938964844,33.33000183105469,34.13999938964844,32.357337951660156,1657800
2019-07-03,34.20000076293945,34.459999084472656,34.084999084472656,34.400001525878906,32.60376739501953,1108100
2019-07-05,34.20000076293945,34.494998931884766,33.75,34.47999954223633,32.67959213256836,1210000
2019-07-08,34.529998779296875,34.689998626708984,34.20500183105469,34.29999923706055,32.50898361206055,1470300
2019-07-09,34.279998779296875,34.58000183105469,34.16999816894531,34.5099983215332,32.7080192565918,1633100
2019-07-10,34.68000030517578,34.88999938964844,34.380001068115234,34.849998474121094,33.0302619934082,1549400
2019-07-11,34.83000183105469,34.90999984741211,34.08000183105469,34.40999984741211,32.613243103027344,1416500
2019-07-12,34.459999084472656,34.459999084472656,33.92499923706055,34.27000045776367,32.480552673339844,1406000
2019-07-15,34.310001373291016,34.400001525878906,33.959999084472656,34.09000015258789,32.30995178222656,1471500
2019-07-16,33.95000076293945,34.099998474121094,33.810001373291016,33.93000030517578,32.15830993652344,1472700
2019-07-17,34.0099983215332,34.119998931884766,33.380001068115234,33.68000030517578,31.921358108520508,1249400
2019-07-18,33.529998779296875,33.810001373291016,33.33000183105469,33.619998931884766,31.864492416381836,1703300
2019-07-19,33.630001068115234,33.88999938964844,33.1150016784668,33.18000030517578,31.447467803955078,1855100
2019-07-22,33.22999954223633,33.279998779296875,32.77000045776367,33.0,31.276872634887695,1574800
2019-07-23,33.16999816894531,33.63999938964844,32.86000061035156,33.5,31.750755310058594,2658600
2019-07-24,33.540000915527344,33.56999969482422,32.970001220703125,33.099998474121094,31.37164306640625,1716400
2019-07-25,33.38999938964844,33.459999084472656,32.9900016784668,33.08000183105469,31.35269546508789,1571000
2019-07-26,33.040000915527344,33.70000076293945,33.040000915527344,33.599998474121094,31.84553337097168,2309600
2019-07-29,33.7400016784668,33.880001068115234,33.54999923706055,33.72999954223633,31.968746185302734,1513400
2019-07-30,33.65999984741211,34.0099983215332,33.40999984741211,33.61000061035156,31.855022430419922,1485700
2019-07-31,33.560001373291016,33.959999084472656,33.33000183105469,33.529998779296875,31.779190063476562,2247000
2019-08-01,33.59000015258789,33.73500061035156,33.220001220703125,33.43000030517578,31.684417724609375,2305800
2019-08-02,33.400001525878906,33.79499816894531,33.279998779296875,33.70000076293945,31.94032096862793,2099800
2019-08-05,33.36000061035156,33.41999816894531,32.720001220703125,33.16999816894531,31.4379825592041,2815400
2019-08-06,33.25,33.61000061035156,33.0,33.439998626708984,31.693889617919922,1391100
2019-08-07,33.33000183105469,34.099998474121094,33.040000915527344,33.880001068115234,32.11091232299805,1452500
2019-08-08,33.880001068115234,34.7599983215332,33.52000045776367,34.5,32.69854736328125,3063500
2019-08-09,34.75,35.5099983215332,34.349998474121094,35.369998931884766,33.52312088012695,2091400
2019-08-12,35.31999969482422,35.900001525878906,35.099998474121094,35.45000076293945,33.59894561767578,2577400
2019-08-13,35.470001220703125,35.61000061035156,35.099998474121094,35.43000030517578,33.57998275756836,966300
2019-08-14,35.06999969482422,35.400001525878906,34.849998474121094,34.9900016784668,33.162967681884766,1674600
2019-08-15,35.18000030517578,35.599998474121094,35.11000061035156,35.400001525878906,33.551551818847656,1558400
2019-08-16,35.779998779296875,36.0099983215332,35.380001068115234,35.93000030517578,34.053871154785156,1450300
2019-08-19,36.06999969482422,36.47999954223633,35.77000045776367,36.29999923706055,34.40456008911133,999400
2019-08-20,36.439998626708984,36.459999084472656,35.970001220703125,36.040000915527344,34.15813064575195,789900
2019-08-21,35.939998626708984,36.54999923706055,35.86000061035156,36.27000045776367,34.37612533569336,989700
2019-08-22,36.34000015258789,36.72999954223633,36.08300018310547,36.66999816894531,34.75523376464844,818600
2019-08-23,36.61000061035156,36.83000183105469,36.310001373291016,36.400001525878906,34.49933624267578,1287000
2019-08-26,36.65999984741211,36.70000076293945,36.15999984741211,36.470001220703125,34.565677642822266,930700
2019-08-27,36.619998931884766,36.75,36.0099983215332,36.13999938964844,34.25291061401367,1429000
2019-08-28,36.119998931884766,36.41999816894531,35.90700149536133,36.15999984741211,34.2718620300293,987400
2019-08-29,36.36000061035156,36.45000076293945,36.119998931884766,36.16999816894531,34.281341552734375,777500
2019-08-30,36.369998931884766,36.4900016784668,36.04999923706055,36.41999816894531,34.518287658691406,836800
2019-09-03,36.31999969482422,37.2400016784668,36.20000076293945,36.97999954223633,35.049049377441406,1697700
2019-09-04,37.15999984741211,37.34000015258789,36.970001220703125,37.33000183105469,35.380775451660156,1034300
2019-09-05,37.2599983215332,37.38999938964844,36.779998779296875,37.150001525878906,35.210166931152344,833100
2019-09-06,37.20000076293945,37.279998779296875,36.70000076293945,36.84000015258789,34.916358947753906,1116400
2019-09-09,36.90999984741211,36.939998626708984,36.25,36.52000045776367,34.61307144165039,1655500
2019-09-10,36.34000015258789,36.34000015258789,35.2599983215332,35.529998779296875,33.67475891113281,2505500
2019-09-11,35.45000076293945,35.599998474121094,34.959999084472656,35.20000076293945,33.361995697021484,1853400
2019-09-12,35.52000045776367,35.90999984741211,35.310001373291016,35.650001525878906,33.78849792480469,1852500
2019-09-13,35.65999984741211,35.869998931884766,35.209999084472656,35.2599983215332,33.41885757446289,1504100
2019-09-16,35.2599983215332,36.36000061035156,35.209999084472656,36.150001525878906,34.262393951416016,2494400
2019-09-17,36.18000030517578,36.66999816894531,36.119998931884766,36.459999084472656,34.55619812011719,1490300
2019-09-18,36.25,36.470001220703125,35.400001525878906,35.83000183105469,33.959102630615234,2148300
2019-09-19,35.900001525878906,36.900001525878906,35.900001525878906,36.650001525878906,34.73628616333008,2298600
2019-09-20,36.7400016784668,37.060001373291016,36.599998474121094,36.86000061035156,34.9353141784668,10442200
2019-09-23,36.849998474121094,36.959999084472656,36.540000915527344,36.58000183105469,34.6699333190918,2348700
2019-09-24,36.86000061035156,36.86000061035156,36.220001220703125,36.29999923706055,34.40456008911133,892600
2019-09-25,36.220001220703125,36.95000076293945,36.220001220703125,36.90999984741211,34.98270797729492,1492700
2019-09-26,37.08000183105469,37.2400016784668,36.91999816894531,37.0,35.06800842285156,948100
2019-09-27,36.810001373291016,36.84299850463867,36.20000076293945,36.79999923706055,35.06800842285156,2772000
2019-09-30,36.79999923706055,37.36000061035156,36.79999923706055,37.06999969482422,35.325294494628906,1745100
2019-10-01,37.130001068115234,37.25,36.720001220703125,37.0,35.25859069824219,2411900
2019-10-02,36.93000030517578,37.0099983215332,36.630001068115234,36.7400016784668,35.01082992553711,1898000
2019-10-03,36.790000915527344,37.58000183105469,36.7400016784668,37.560001373291016,35.792240142822266,1962400
2019-10-04,37.599998474121094,37.880001068115234,37.5,37.63999938964844,35.86846923828125,1361600
2019-10-07,37.459999084472656,37.810001373291016,37.22999954223633,37.7599983215332,35.98282241821289,956200
2019-10-08,37.61000061035156,37.7599983215332,37.220001220703125,37.47999954223633,35.71599578857422,1706300
2019-10-09,37.650001525878906,37.724998474121094,37.43000030517578,37.470001220703125,35.70647430419922,1645400
2019-10-10,37.470001220703125,37.630001068115234,37.22999954223633,37.38999938964844,35.63023376464844,1659400
2019-10-11,37.70000076293945,37.70000076293945,37.20000076293945,37.29999923706055,35.54447555541992,1179600
2019-10-14,37.400001525878906,37.41999816894531,37.06999969482422,37.380001068115234,35.62070846557617,1088800
2019-10-15,37.400001525878906,37.56999969482422,37.060001373291016,37.5,35.73505783081055,1444900
2019-10-16,37.45000076293945,37.755001068115234,37.060001373291016,37.70000076293945,35.92564392089844,1144900
2019-10-17,37.65999984741211,37.948001861572266,37.599998474121094,37.900001525878906,36.11623764038086,1307800
2019-10-18,37.9900016784668,38.130001068115234,37.810001373291016,38.119998931884766,36.32587814331055,856600
2019-10-21,38.06999969482422,38.400001525878906,37.97999954223633,38.310001373291016,36.50693893432617,903200
2019-10-22,38.400001525878906,38.54999923706055,38.11000061035156,38.27000045776367,36.46881866455078,1332500
2019-10-23,38.29999923706055,38.68000030517578,38.13999938964844,38.66999816894531,36.84999084472656,1547300
2019-10-24,38.720001220703125,39.255001068115234,38.52000045776367,38.9900016784668,37.15493392944336,1669300
2019-10-25,38.79999923706055,39.119998931884766,38.630001068115234,39.04999923706055,37.21210479736328,828200
2019-10-28,39.04999923706055,39.279998779296875,38.7400016784668,39.20000076293945,37.35505294799805,1481700
2019-10-29,39.18000030517578,39.849998474121094,39.09000015258789,39.689998626708984,37.82198715209961,1671400
2019-10-30,39.810001373291016,40.22999954223633,39.529998779296875,40.119998931884766,38.231746673583984,1149600
2019-10-31,40.16999816894531,40.27000045776367,39.95000076293945,40.09000015258789,38.20315933227539,1477600
2019-11-01,40.2400016784668,40.41999816894531,39.33000183105469,39.4900016784668,37.63140106201172,1731800
2019-11-04,39.40999984741211,39.40999984741211,38.380001068115234,38.58000183105469,36.76423645019531,1670700
2019-11-05,38.45000076293945,38.5099983215332,37.5099983215332,37.66999816894531,35.89706039428711,1973900
2019-11-06,37.709999084472656,38.209999084472656,37.689998626708984,38.060001373291016,36.26870346069336,1196100
2019-11-07,37.95000076293945,38.20000076293945,37.279998779296875,37.439998626708984,35.677879333496094,1376200
2019-11-08,36.40999984741211,36.61000061035156,34.849998474121094,35.349998474121094,33.68624496459961,5221600
2019-11-11,35.439998626708984,35.70000076293945,34.90999984741211,35.150001525878906,33.49566650390625,1879900
2019-11-12,35.209999084472656,35.52000045776367,34.880001068115234,35.220001220703125,33.56237030029297,1688700
2019-11-13,35.18000030517578,35.650001525878906,35.18000030517578,35.209999084472656,33.55283737182617,1511500
2019-11-14,35.290000915527344,36.15999984741211,35.25,36.099998474121094,34.40094757080078,2267300
2019-11-15,36.13999938964844,36.54999923706055,36.0,36.45000076293945,34.73447799682617,1357400
2019-11-18,36.47999954223633,37.779998779296875,36.47999954223633,37.7599983215332,35.98282241821289,3149000
2019-11-19,37.790000915527344,38.150001525878906,37.470001220703125,37.7599983215332,35.98282241821289,1168100
2019-11-20,37.70000076293945,38.145999908447266,37.70000076293945,37.72999954223633,35.95423126220703,1709900
2019-11-21,37.63999938964844,37.9900016784668,36.869998931884766,36.970001220703125,35.23000717163086,1413600
2019-11-22,37.08000183105469,37.15999984741211,36.04999923706055,36.459999084472656,34.74400329589844,1453400
2019-11-25,36.5,37.220001220703125,36.310001373291016,37.09000015258789,35.34435272216797,1608000
2019-11-26,37.18000030517578,37.85499954223633,37.16999816894531,37.68000030517578,35.906585693359375,1530500
2019-11-27,37.689998626708984,38.09000015258789,37.5,37.86000061035156,36.0781135559082,960300
2019-11-29,37.91999816894531,38.029998779296875,37.52000045776367,37.619998931884766,35.84941101074219,538600
2019-12-02,37.5,37.7400016784668,37.0890007019043,37.290000915527344,35.534942626953125,876600
2019-12-03,37.08000183105469,37.60599899291992,37.060001373291016,37.310001373291016,35.55400848388672,778500
2019-12-04,37.459999084472656,37.7599983215332,37.290000915527344,37.5,35.73505783081055,717900
2019-12-05,37.47999954223633,37.81999969482422,37.31999969482422,37.43000030517578,35.668357849121094,845700
2019-12-06,37.45000076293945,37.7400016784668,36.959999084472656,37.09000015258789,35.34435272216797,1302000
2019-12-09,36.709999084472656,36.779998779296875,36.060001373291016,36.16999816894531,34.4676513671875,2483400
2019-12-10,36.25,36.54999923706055,35.349998474121094,35.66999816894531,33.99118423461914,2617800
2019-12-11,35.619998931884766,35.93000030517578,34.810001373291016,35.029998779296875,33.38130569458008,1818700
2019-12-12,34.90999984741211,35.15999984741211,33.38999938964844,33.84000015258789,32.247318267822266,3168900
2019-12-13,33.9900016784668,34.0,32.31999969482422,33.060001373291016,31.504030227661133,4823300
2019-12-16,33.11000061035156,33.150001525878906,32.2400016784668,32.95000076293945,31.399208068847656,3895000
2019-12-17,33.130001068115234,33.45000076293945,32.40999984741211,33.150001525878906,31.589797973632812,4552600
2019-12-18,33.720001220703125,34.40999984741211,33.560001373291016,33.619998931884766,32.03767013549805,3000500
2019-12-19,33.56999969482422,34.130001068115234,33.25,34.06999969482422,32.46649169921875,2547800
2019-12-20,34.130001068115234,34.56999969482422,34.02000045776367,34.310001373291016,32.69519805908203,1942400
2019-12-23,34.36000061035156,34.72999954223633,34.22999954223633,34.279998779296875,32.66661071777344,1484800
2019-12-24,34.130001068115234,34.40999984741211,34.02000045776367,34.25,32.638023376464844,240000
2019-12-26,34.27000045776367,34.70000076293945,34.15999984741211,34.52000045776367,32.89530944824219,876000
2019-12-27,34.689998626708984,35.0099983215332,34.47999954223633,34.720001220703125,33.08589553833008,1112800
2019-12-30,34.52000045776367,34.73500061035156,34.31999969482422,34.58000183105469,33.143409729003906,1495600
2019-12-31,34.810001373291016,35.150001525878906,34.75,35.060001373291016,33.60346603393555,1698400
2020-01-02,35.310001373291016,35.45000076293945,33.974998474121094,34.34000015258789,32.91337585449219,1678000
2020-01-03,34.20000076293945,34.790000915527344,34.10499954223633,34.75,33.30634689331055,1208200
2020-01-06,34.61000061035156,35.20000076293945,34.5,34.88999938964844,33.44053268432617,2086400
2020-01-07,34.61000061035156,34.91999816894531,34.0099983215332,34.15999984741211,32.7408561706543,1324700
2020-01-08,34.11000061035156,34.459999084472656,33.810001373291016,34.2599983215332,32.83669662475586,1389200
2020-01-09,34.310001373291016,34.38999938964844,33.85499954223633,33.880001068115234,32.47248458862305,1413400
2020-01-10,34.0099983215332,34.66999816894531,33.90999984741211,34.58000183105469,33.143409729003906,1382600
2020-01-13,34.599998474121094,35.18000030517578,34.58000183105469,34.9900016784668,33.536376953125,1023100
2020-01-14,35.0,35.16999816894531,34.79999923706055,35.029998779296875,33.574710845947266,1839800
2020-01-15,35.06999969482422,35.7599983215332,34.97999954223633,35.369998931884766,33.90058517456055,1122100
2020-01-16,35.380001068115234,35.779998779296875,35.310001373291016,35.4900016784668,34.01560592651367,973600
2020-01-17,35.5,35.619998931884766,35.36000061035156,35.41999816894531,33.948509216308594,1328300
2020-01-21,35.470001220703125,36.130001068115234,35.40999984741211,35.95000076293945,34.45649337768555,1561500
2020-01-22,35.959999084472656,36.43000030517578,34.96500015258789,35.20000076293945,33.737648010253906,1870500
2020-01-23,35.18000030517578,35.959999084472656,35.040000915527344,35.72999954223633,34.245628356933594,2043700
2020-01-24,35.810001373291016,35.900001525878906,35.209999084472656,35.25,33.78557205200195,867800
2020-01-27,35.02000045776367,35.31999969482422,34.84000015258789,35.040000915527344,33.58429718017578,1844900
2020-01-28,35.13999938964844,35.404998779296875,34.790000915527344,35.09000015258789,33.632225036621094,1902900
2020-01-29,35.31999969482422,35.494998931884766,35.0,35.04999923706055,33.59388732910156,1155500
2020-01-30,35.0,35.47999954223633,35.0,35.13999938964844,33.680145263671875,1515700
2020-01-31,35.13999938964844,35.220001220703125,34.43000030517578,34.470001220703125,33.0379753112793,1535100
2020-02-03,34.54999923706055,34.93000030517578,34.25,34.349998474121094,32.92296600341797,1094000
2020-02-04,34.40999984741211,34.880001068115234,34.40999984741211,34.5099983215332,33.07631301879883,1126000
2020-02-05,34.529998779296875,34.69499969482422,34.43000030517578,34.54999923706055,33.114654541015625,832500
2020-02-06,34.59000015258789,35.33000183105469,34.5,34.900001525878906,33.45011520385742,816200
2020-02-07,35.040000915527344,35.349998474121094,34.93000030517578,35.099998474121094,33.64180374145508,981800
2020-02-10,35.209999084472656,35.5,35.029998779296875,35.33000183105469,33.86225128173828,1323000
2020-02-11,35.36000061035156,35.7599983215332,35.36000061035156,35.65999984741211,34.17853927612305,1119800
2020-02-12,35.630001068115234,36.56999969482422,35.619998931884766,36.560001373291016,35.04115676879883,1600600
2020-02-13,36.52000045776367,37.569000244140625,36.43000030517578,37.29999923706055,35.750404357910156,1424900
2020-02-14,37.43000030517578,38.119998931884766,37.2599983215332,38.060001373291016,36.47883224487305,1716000
2020-02-18,38.220001220703125,38.630001068115234,37.97999954223633,38.290000915527344,36.69927978515625,2887300
2020-02-19,38.27000045776367,38.43000030517578,36.68000030517578,36.720001220703125,35.19450378417969,2169200
2020-02-20,36.77000045776367,37.5099983215332,36.650001525878906,37.349998474121094,35.7983283996582,1745900
2020-02-21,34.9900016784668,35.34000015258789,33.959999084472656,34.810001373291016,33.363853454589844,5070800
2020-02-24,34.0,34.56999969482422,33.56999969482422,33.83000183105469,32.424564361572266,2638600
2020-02-25,33.90999984741211,34.04999923706055,32.849998474121094,33.22999954223633,31.8494930267334,2261600
2020-02-26,33.2599983215332,33.41999816894531,31.889999389648438,32.34000015258789,30.996469497680664,1992300
2020-02-27,32.04999923706055,32.52000045776367,31.100000381469727,31.100000381469727,29.807981491088867,2651400
2020-02-28,30.389999389648438,31.139999389648438,29.100000381469727,30.670000076293945,29.395841598510742,3635200
2020-03-02,30.809999465942383,32.54999923706055,30.399999618530273,32.5,31.149818420410156,2839500
2020-03-03,32.5,34.14500045776367,32.18000030517578,32.38999938964844,31.044387817382812,3978200
2020-03-04,32.95000076293945,33.36000061035156,32.45000076293945,33.36000061035156,31.974090576171875,1337400
2020-03-05,32.779998779296875,32.779998779296875,31.479999542236328,31.729999542236328,30.411808013916016,2919900
2020-03-06,30.709999084472656,31.6200008392334,30.149999618530273,31.479999542236328,30.17219352722168,3376300
2020-03-09,29.670000076293945,30.325000762939453,27.65999984741211,29.700000762939453,28.466140747070312,2882700
2020-03-10,30.1200008392334,31.280000686645508,29.31999969482422,31.200000762939453,29.903825759887695,2017700
2020-03-11,30.520000457763672,30.520000457763672,29.350000381469727,29.940000534057617,28.6961727142334,2723100
2020-03-12,27.649999618530273,29.25,26.280000686645508,27.43000030517578,26.290447235107422,2563100
2020-03-13,28.700000762939453,29.950000762939453,27.399999618530273,29.719999313354492,28.485309600830078,2978500
2020-03-16,26.350000381469727,26.889999389648438,23.7549991607666,24.030000686645508,23.031696319580078,2703100
2020-03-17,24.690000534057617,29.079999923706055,23.299999237060547,28.399999618530273,27.220149993896484,3850000
2020-03-18,26.420000076293945,30.100000381469727,25.81999969482422,28.639999389648438,27.450180053710938,3562900
2020-03-19,28.639999389648438,31.760000228881836,28.639999389648438,30.149999618530273,28.89744758605957,3514900
2020-03-20,30.579999923706055,31.149999618530273,28.829999923706055,30.06999969482422,28.820770263671875,4807500
2020-03-23,29.989999771118164,30.389999389648438,27.59000015258789,28.31999969482422,27.143470764160156,2909900
2020-03-24,28.670000076293945,31.079999923706055,28.010000228881836,30.860000610351562,29.577951431274414,2738800
2020-03-25,30.450000762939453,33.71500015258789,29.959999084472656,31.809999465942383,30.488483428955078,3565400
2020-03-26,31.889999389648438,33.11000061035156,30.709999084472656,32.959999084472656,31.590709686279297,2308900
2020-03-27,32.290000915527344,34.2599983215332,32.20000076293945,33.88999938964844,32.482078552246094,3049800
2020-03-30,34.220001220703125,35.13999938964844,33.27000045776367,34.959999084472656,33.71654510498047,2388500
2020-03-31,34.63999938964844,34.939998626708984,33.189998626708984,34.040000915527344,32.82926940917969,3008500
2020-04-01,32.540000915527344,33.97999954223633,31.700000762939453,33.029998779296875,31.855192184448242,2619400
2020-04-02,32.58000183105469,33.595001220703125,32.06999969482422,33.41999816894531,32.231319427490234,2761000
2020-04-03,33.09000015258789,34.0,32.459999084472656,33.470001220703125,32.279544830322266,2167400
2020-04-06,34.5,35.880001068115234,33.63999938964844,34.209999084472656,32.993221282958984,1563200
2020-04-07,34.7400016784668,36.119998931884766,33.63999938964844,34.15999984741211,32.94499588012695,1566600
2020-04-08,34.439998626708984,34.77000045776367,33.40999984741211,34.47999954223633,33.25362014770508,1938800
2020-04-09,34.959999084472656,36.27000045776367,34.58000183105469,35.95000076293945,34.67133331298828,3181600
2020-04-13,35.68000030517578,35.7599983215332,33.56999969482422,34.119998931884766,32.90642547607422,2372400
2020-04-14,34.880001068115234,35.27000045776367,34.459999084472656,34.77000045776367,33.533302307128906,1189400
2020-04-15,33.88999938964844,34.0,32.58000183105469,33.08000183105469,31.90341567993164,1525700
2020-04-16,33.400001525878906,33.4900016784668,32.630001068115234,33.13999938964844,31.961278915405273,1486000
2020-04-17,33.65999984741211,34.5099983215332,33.30500030517578,34.27000045776367,33.05108642578125,1449100
2020-04-20,34.09000015258789,34.400001525878906,33.040000915527344,33.9900016784668,32.78104782104492,1256500
2020-04-21,33.4900016784668,34.0099983215332,32.63999938964844,32.84000015258789,31.671951293945312,899200
2020-04-22,33.20000076293945,33.77000045776367,33.09000015258789,33.380001068115234,32.192745208740234,1387000
2020-04-23,33.58000183105469,33.779998779296875,31.729999542236328,31.809999465942383,30.6785831451416,992200
2020-04-24,31.950000762939453,32.09000015258789,31.270000457763672,31.34000015258789,30.225299835205078,2622100
2020-04-27,31.670000076293945,32.34000015258789,31.5,32.029998779296875,30.890758514404297,1368300
2020-04-28,32.66999816894531,32.94499969482422,32.189998626708984,32.290000915527344,31.141511917114258,2795400
2020-04-29,32.90999984741211,33.209999084472656,30.93000030517578,31.170000076293945,30.06134796142578,2255800
2020-04-30,30.729999542236328,30.899999618530273,29.6299991607666,30.59000015258789,29.501976013183594,2618400
2020-05-01,29.920000076293945,30.309999465942383,29.209999084472656,29.290000915527344,28.24821662902832,1329500
2020-05-04,28.989999771118164,29.149999618530273,27.770000457763672,29.010000228881836,27.97817611694336,2775100
2020-05-05,29.110000610351562,29.670000076293945,28.559999465942383,29.399999618530273,28.35430335998535,2429100
2020-05-06,29.639999389648438,30.31999969482422,29.5,30.1299991607666,29.058338165283203,1993400
2020-05-07,30.950000762939453,31.684999465942383,30.40999984741211,31.170000076293945,30.06134796142578,2013300
2020-05-08,32.54999923706055,35.279998779296875,32.54999923706055,35.209999084472656,33.9576530456543,3157600
2020-05-11,35.25,35.88999938964844,34.91999816894531,35.349998474121094,34.092674255371094,2273200
2020-05-12,35.41999816894531,35.810001373291016,33.310001373291016,33.31999969482422,32.1348762512207,2187000
2020-05-13,33.209999084472656,33.529998779296875,32.66999816894531,32.9900016784668,31.816617965698242,2342300
2020-05-14,32.59000015258789,33.65999984741211,32.3849983215332,33.41999816894531,32.231319427490234,2462200
2020-05-15,33.08000183105469,34.209999084472656,32.40999984741211,33.939998626708984,32.73282241821289,2024300
2020-05-18,35.13999938964844,35.2599983215332,33.84000015258789,34.779998779296875,33.542945861816406,1882700
2020-05-19,34.77000045776367,35.04999923706055,34.0,34.0099983215332,32.800331115722656,1894100
2020-05-20,34.400001525878906,35.11000061035156,34.209999084472656,34.599998474121094,33.369346618652344,1513600
2020-05-21,34.400001525878906,34.79999923706055,34.400001525878906,34.61000061035156,33.378997802734375,2199500
2020-05-22,34.61000061035156,34.79800033569336,34.380001068115234,34.689998626708984,33.456146240234375,1039800
2020-05-26,35.22999954223633,35.65999984741211,34.560001373291016,34.81999969482422,33.58152389526367,1572100
2020-05-27,35.18000030517578,35.314998626708984,34.47999954223633,35.22999954223633,33.9769401550293,980600
2020-05-28,35.25,35.5,34.709999084472656,35.380001068115234,34.12160873413086,1373000
2020-05-29,35.189998626708984,35.880001068115234,35.108001708984375,35.709999084472656,34.43987274169922,4083500
2020-06-01,35.709999084472656,36.04999923706055,35.25,35.7599983215332,34.48809051513672,1268100
2020-06-02,36.04999923706055,36.04999923706055,35.31999969482422,35.5099983215332,34.24697494506836,1652800
2020-06-03,35.70000076293945,36.349998474121094,35.40999984741211,35.9900016784668,34.70991134643555,1943600
2020-06-04,35.619998931884766,35.849998474121094,34.939998626708984,35.25,33.99623107910156,1682300
2020-06-05,35.77000045776367,36.20000076293945,35.119998931884766,35.900001525878906,34.62311553955078,3591400
2020-06-08,35.95000076293945,36.220001220703125,35.45000076293945,35.68000030517578,34.41093826293945,2221800
2020-06-09,35.099998474121094,35.45000076293945,34.720001220703125,35.25,33.99623107910156,1244400
2020-06-10,35.25,35.439998626708984,34.77000045776367,35.130001068115234,33.88050079345703,1734700
2020-06-11,34.130001068115234,35.11000061035156,33.900001525878906,34.0,32.79069519042969,2082900
2020-06-12,34.72999954223633,34.84000015258789,34.0099983215332,34.810001373291016,33.57188034057617,1379800
2020-06-15,34.060001373291016,35.70000076293945,33.83000183105469,35.470001220703125,34.20840835571289,2015800
2020-06-16,36.31999969482422,36.43000030517578,35.56999969482422,36.279998779296875,34.98958969116211,1434200
2020-06-17,36.439998626708984,36.439998626708984,35.880001068115234,36.189998626708984,34.90279769897461,1366000
2020-06-18,35.83000183105469,36.16999816894531,35.68000030517578,36.060001373291016,34.77742385864258,7113700
2020-06-19,36.290000915527344,36.47999954223633,35.869998931884766,36.060001373291016,34.77742385864258,3872300
2020-06-22,36.0,36.93000030517578,35.470001220703125,36.86000061035156,35.54896926879883,2410400
2020-06-23,37.13999938964844,37.13999938964844,36.15999984741211,36.20000076293945,34.91244125366211,1321400
2020-06-24,36.08000183105469,36.56999969482422,35.779998779296875,36.5099983215332,35.2114143371582,2091900
2020-06-25,36.400001525878906,36.63999938964844,35.63600158691406,36.5,35.2017707824707,1284600
2020-06-26,36.25,36.625,35.869998931884766,36.2599983215332,34.97031021118164,4892700
2020-06-29,36.63999938964844,36.689998626708984,35.93000030517578,36.18000030517578,35.096412658691406,1407100
2020-06-30,36.189998626708984,36.65999984741211,36.09000015258789,36.29999923706055,35.21281814575195,1479400
2020-07-01,36.5099983215332,36.93000030517578,36.18000030517578,36.619998931884766,35.52323532104492,1732300
2020-07-02,36.970001220703125,37.22999954223633,36.654998779296875,36.709999084472656,35.61053466796875,848500
2020-07-06,37.220001220703125,37.630001068115234,36.84000015258789,37.439998626708984,36.31867218017578,1149800
2020-07-07,37.02000045776367,37.529998779296875,36.7599983215332,37.130001068115234,36.01795959472656,1464900
2020-07-08,37.7599983215332,37.869998931884766,36.40999984741211,36.560001373291016,35.46503448486328,1697500
2020-07-09,36.45000076293945,37.16299819946289,36.45000076293945,37.02000045776367,35.911251068115234,1011900
2020-07-10,36.95000076293945,37.11000061035156,36.220001220703125,36.75,35.64934158325195,867200
2020-07-13,36.66999816894531,36.849998474121094,35.66999816894531,35.709999084472656,34.6404914855957,1016700
2020-07-14,35.709999084472656,36.22999954223633,35.02000045776367,35.369998931884766,34.3106689453125,1155600
2020-07-15,35.91999816894531,36.22999954223633,35.63999938964844,36.150001525878906,35.06731033325195,1797000
2020-07-16,35.86000061035156,36.220001220703125,35.7599983215332,36.150001525878906,35.06731033325195,1462700
2020-07-17,36.209999084472656,37.70000076293945,36.189998626708984,37.54999923706055,36.42538070678711,1321100
2020-07-20,37.72999954223633,37.93000030517578,37.5,37.54999923706055,36.42538070678711,1950000
2020-07-21,37.47999954223633,38.119998931884766,37.349998474121094,37.86000061035156,36.72610092163086,2113500
2020-07-22,37.880001068115234,38.9900016784668,37.81999969482422,38.97999954223633,37.81255340576172,909400
2020-07-23,39.0,39.61000061035156,38.54999923706055,38.560001373291016,37.40513610839844,1805500
2020-07-24,38.4900016784668,38.4900016784668,37.790000915527344,38.33000183105469,37.18202209472656,1249200
2020-07-27,38.15999984741211,39.38999938964844,38.09000015258789,39.36000061035156,38.181175231933594,798200
2020-07-28,39.25,39.790000915527344,39.09000015258789,39.5099983215332,38.32667922973633,673800
2020-07-29,39.66999816894531,40.470001220703125,39.66999816894531,40.45000076293945,39.238525390625,589100
2020-07-30,40.25,40.790000915527344,40.09000015258789,40.349998474121094,39.14152145385742,1129400
2020-07-31,40.45000076293945,40.45000076293945,39.70000076293945,40.349998474121094,39.14152145385742,1447700
2020-08-03,40.5099983215332,40.599998474121094,40.09000015258789,40.22999954223633,39.02511215209961,960900
2020-08-04,40.11000061035156,41.15999984741211,40.11000061035156,40.959999084472656,39.733253479003906,1524100
2020-08-05,41.0099983215332,41.15999984741211,40.43000030517578,40.959999084472656,39.733253479003906,993600
2020-08-06,40.900001525878906,41.290000915527344,40.61000061035156,41.04999923706055,39.820552825927734,829500
2020-08-07,41.02000045776367,41.02000045776367,38.5099983215332,39.52000045776367,38.33637619018555,2348500
2020-08-10,39.59000015258789,40.369998931884766,39.060001373291016,39.189998626708984,38.01626205444336,1129500
2020-08-11,39.459999084472656,39.459999084472656,38.060001373291016,38.66999816894531,37.51183319091797,1222700
2020-08-12,38.900001525878906,39.189998626708984,38.5099983215332,38.7599983215332,37.59914016723633,942600
2020-08-13,39.459999084472656,39.619998931884766,38.36899948120117,38.720001220703125,37.560340881347656,1117800
2020-08-14,38.70000076293945,38.95000076293945,37.9900016784668,38.060001373291016,36.920108795166016,516000
2020-08-17,38.0,38.97999954223633,37.869998931884766,38.790000915527344,37.62824630737305,881600
2020-08-18,38.90999984741211,39.29999923706055,38.40999984741211,39.08000183105469,37.90956115722656,1195600
2020-08-19,39.11000061035156,39.24700164794922,38.06999969482422,38.5099983215332,37.35662841796875,897900
2020-08-20,38.47999954223633,39.0,38.3849983215332,38.689998626708984,37.53123474121094,608900
2020-08-21,38.810001373291016,39.099998474121094,38.345001220703125,38.720001220703125,37.560340881347656,496200
2020-08-24,38.880001068115234,38.93000030517578,37.86000061035156,38.220001220703125,37.075313568115234,981400
2020-08-25,38.220001220703125,38.70000076293945,38.150001525878906,38.68000030517578,37.52153396606445,571900
2020-08-26,38.54999923706055,38.810001373291016,37.95000076293945,38.16999816894531,37.02680587768555,1162400
2020-08-27,38.279998779296875,38.779998779296875,38.15999984741211,38.5,37.34693145751953,720400
2020-08-28,38.68000030517578,38.689998626708984,38.08000183105469,38.5,37.34693145751953,402300
2020-08-31,38.470001220703125,38.619998931884766,38.130001068115234,38.349998474121094,37.2014274597168,1031700
2020-09-01,38.290000915527344,38.779998779296875,37.900001525878906,38.59000015258789,37.434234619140625,567200
2020-09-02,38.63999938964844,38.790000915527344,38.209999084472656,38.75,37.589439392089844,1100400
2020-09-03,38.7599983215332,38.97999954223633,37.81999969482422,37.939998626708984,36.80369567871094,982300
2020-09-04,37.959999084472656,38.47999954223633,37.43000030517578,37.939998626708984,36.80369567871094,832200
2020-09-08,37.709999084472656,37.95500183105469,37.220001220703125,37.72999954223633,36.59999084472656,1211800
2020-09-09,38.0,38.4900016784668,37.68000030517578,37.810001373291016,36.67759323120117,1091100
2020-09-10,37.7400016784668,37.959999084472656,37.029998779296875,37.029998779296875,35.920955657958984,1271100
2020-09-11,37.029998779296875,37.130001068115234,36.22999954223633,36.47999954223633,35.387428283691406,929900
2020-09-14,36.790000915527344,37.150001525878906,36.61000061035156,36.939998626708984,35.833648681640625,981700
2020-09-15,37.040000915527344,37.209999084472656,36.779998779296875,37.0,35.89186096191406,1074400
2020-09-16,37.25,37.40999984741211,36.619998931884766,36.65999984741211,35.562034606933594,1908500
2020-09-17,36.45000076293945,36.4900016784668,35.650001525878906,35.91999816894531,34.84419631958008,1926400
2020-09-18,35.68000030517578,35.86000061035156,35.189998626708984,35.369998931884766,34.3106689453125,2521000
2020-09-21,35.130001068115234,35.439998626708984,34.79999923706055,35.119998931884766,34.06815719604492,1915900
2020-09-22,35.119998931884766,35.810001373291016,35.08000183105469,35.2599983215332,34.20396423339844,1849900
2020-09-23,35.31999969482422,35.630001068115234,34.91999816894531,35.189998626708984,34.13606262207031,1389300
2020-09-24,35.25,35.959999084472656,35.22999954223633,35.66999816894531,34.6016845703125,988600
2020-09-25,35.4900016784668,35.959999084472656,35.29999923706055,35.79999923706055,34.7277946472168,841100
2020-09-28,36.16999816894531,36.34000015258789,35.79999923706055,36.099998474121094,35.01880645751953,905800
2020-09-29,35.75,35.95000076293945,35.189998626708984,35.5099983215332,34.648033142089844,1281600
2020-09-30,35.81999969482422,35.98500061035156,35.310001373291016,35.75,34.88220977783203,1697300
2020-10-01,35.849998474121094,36.45000076293945,35.185001373291016,36.45000076293945,35.565216064453125,1672700
2020-10-02,36.0099983215332,36.81999969482422,35.810001373291016,36.439998626708984,35.55545425415039,1781100
2020-10-05,36.61000061035156,37.525001525878906,35.90999984741211,37.38999938964844,36.48239517211914,1284100
2020-10-06,37.58000183105469,37.83700180053711,37.09000015258789,37.529998779296875,36.61900329589844,1155300
2020-10-07,37.66999816894531,37.82500076293945,37.02299880981445,37.279998779296875,36.375064849853516,1536200
2020-10-08,37.4900016784668,38.01499938964844,37.36000061035156,37.97999954223633,37.058074951171875,1319200
2020-10-09,38.290000915527344,39.07400131225586,38.060001373291016,38.88999938964844,37.945987701416016,1493300
2020-10-12,38.86000061035156,39.35499954223633,38.40999984741211,39.130001068115234,38.1801643371582,566200
2020-10-13,38.25,38.65999984741211,37.779998779296875,38.540000915527344,37.60448455810547,2709100
2020-10-14,38.47999954223633,38.63999938964844,37.720001220703125,37.77000045776367,36.85317611694336,14231600
2020-10-15,37.27000045776367,37.880001068115234,37.27000045776367,37.52000045776367,36.6092414855957,3644900
2020-10-16,37.560001373291016,37.59000015258789,37.27000045776367,37.290000915527344,36.384822845458984,4415000
2020-10-19,37.540000915527344,37.599998474121094,36.26499938964844,36.33000183105469,35.4481315612793,2452500
2020-10-20,36.61000061035156,37.185001373291016,36.369998931884766,36.88999938964844,35.99453353881836,3927600
2020-10-21,36.900001525878906,37.34000015258789,36.665000915527344,36.849998474121094,35.95550537109375,3512300
2020-10-22,36.83000183105469,37.33000183105469,36.630001068115234,37.119998931884766,36.21894836425781,4535200
2020-10-23,37.209999084472656,37.40999984741211,36.816001892089844,37.189998626708984,36.28725051879883,1433200
2020-10-26,36.849998474121094,37.040000915527344,36.69900131225586,37.0,36.101863861083984,1906000
2020-10-27,36.970001220703125,37.2400016784668,36.83000183105469,36.91999816894531,36.0238037109375,1646400
2020-10-28,36.630001068115234,36.83000183105469,35.970001220703125,36.02000045776367,35.145652770996094,2463000
2020-10-29,36.0099983215332,36.349998474121094,35.540000915527344,36.13999938964844,35.26274108886719,1711600
2020-10-30,36.16999816894531,36.45000076293945,35.790000915527344,36.22999954223633,35.35055923461914,1396300
2020-11-02,36.5099983215332,36.60499954223633,35.720001220703125,36.2400016784668,35.360313415527344,1389200
2020-11-03,36.43000030517578,36.869998931884766,36.099998474121094,36.790000915527344,35.8969612121582,1147500
2020-11-04,36.95000076293945,37.560001373291016,36.869998931884766,36.93000030517578,36.03356170654297,1430000
2020-11-05,37.22999954223633,37.470001220703125,36.90999984741211,37.16999816894531,36.267738342285156,1671200
2020-11-06,37.75,37.97999954223633,37.0099983215332,37.33000183105469,36.42385482788086,2142900
2020-11-09,38.5,38.540000915527344,34.875,34.9900016784668,34.14065933227539,5764800
2020-11-10,34.86000061035156,35.380001068115234,34.45000076293945,34.52000045776367,33.682064056396484,5180300
2020-11-11,34.72999954223633,36.15999984741211,34.72999954223633,35.790000915527344,34.92123794555664,2129600
2020-11-12,35.83000183105469,36.459999084472656,35.689998626708984,36.349998474121094,35.4676399230957,2664700
2020-11-13,36.5,36.93000030517578,36.06999969482422,36.84000015258789,35.94574737548828,1744500
2020-11-16,37.060001373291016,37.30500030517578,35.7599983215332,36.93000030517578,36.03356170654297,1484400
2020-11-17,36.70000076293945,36.72999954223633,36.0,36.040000915527344,35.16516876220703,1714800
2020-11-18,36.0,36.38999938964844,35.130001068115234,35.20000076293945,34.345558166503906,1974900
2020-11-19,35.29999923706055,35.66999816894531,34.9900016784668,35.02000045776367,34.16992950439453,2172600
2020-11-20,35.16999816894531,35.20000076293945,34.130001068115234,34.400001525878906,33.56498336791992,3749600
2020-11-23,34.369998931884766,34.56999969482422,33.959999084472656,34.150001525878906,33.321044921875,4114600
2020-11-24,34.20000076293945,34.20000076293945,33.189998626708984,33.33000183105469,32.52095413208008,4091500
2020-11-25,33.349998474121094,34.06999969482422,33.09000015258789,33.790000915527344,32.969783782958984,2661500
2020-11-27,33.900001525878906,34.097999572753906,33.6349983215332,34.0,33.174686431884766,830300
2020-11-30,34.16999816894531,34.540000915527344,33.54999923706055,34.130001068115234,33.30152893066406,2619300
2020-12-01,34.25,34.540000915527344,33.849998474121094,34.33000183105469,33.496673583984375,1396600
2020-12-02,34.25,34.619998931884766,33.7599983215332,33.84000015258789,33.01856994628906,1428400
2020-12-03,33.689998626708984,34.16999816894531,33.66999816894531,33.84000015258789,33.01856994628906,1908500
2020-12-04,34.060001373291016,34.349998474121094,33.709999084472656,34.119998931884766,33.29177474975586,1275100
2020-12-07,34.189998626708984,34.54999923706055,33.72999954223633,34.310001373291016,33.47716522216797,1555200
2020-12-08,34.16999816894531,34.40999984741211,33.68000030517578,33.720001220703125,32.901485443115234,1833000
2020-12-09,33.75,33.81999969482422,33.18000030517578,33.599998474121094,32.784393310546875,1534200
2020-12-10,33.63999938964844,33.97999954223633,33.560001373291016,33.630001068115234,32.81366729736328,1247700
2020-12-11,33.880001068115234,34.220001220703125,33.5,33.95000076293945,33.12590026855469,1382700
2020-12-14,34.06999969482422,34.45000076293945,33.720001220703125,33.880001068115234,33.05760192871094,1646700
2020-12-15,33.83000183105469,34.84000015258789,33.73500061035156,34.84000015258789,33.99429702758789,1261100
2020-12-16,35.0,35.529998779296875,34.98500061035156,35.5099983215332,34.648033142089844,2034300
2020-12-17,35.54999923706055,36.099998474121094,35.54499816894531,35.939998626708984,35.067596435546875,1867700
2020-12-18,36.04999923706055,36.220001220703125,35.6349983215332,35.93000030517578,35.057838439941406,3631400
2020-12-21,35.5,36.150001525878906,35.5,36.130001068115234,35.25298309326172,2405600
2020-12-22,36.029998779296875,36.79999923706055,35.91999816894531,36.75,35.85792922973633,2030000
2020-12-23,36.90999984741211,37.125,36.06999969482422,36.130001068115234,35.25298309326172,1285100
2020-12-24,36.08000183105469,36.40999984741211,35.93000030517578,36.400001525878906,35.51642990112305,598300
2020-12-28,36.709999084472656,36.75,35.88999938964844,36.119998931884766,35.243221282958984,945700
2020-12-29,36.349998474121094,36.81999969482422,36.08000183105469,36.150001525878906,35.272499084472656,825600
2020-12-30,35.939998626708984,36.709999084472656,35.939998626708984,36.66999816894531,35.98893737792969,1164600
