Date,Open,High,Low,Close,Adj Close,Volume
2020-10-30,10.0,10.020000457763672,9.90999984741211,9.920000076293945,9.920000076293945,22877500
2020-11-02,9.949999809265137,9.961000442504883,9.920000076293945,9.920000076293945,9.920000076293945,2009800
2020-11-03,9.979999542236328,9.979999542236328,9.90999984741211,9.920000076293945,9.920000076293945,1374200
2020-11-04,9.90999984741211,9.960000038146973,9.90999984741211,9.9399995803833,9.9399995803833,224800
2020-11-05,9.930000305175781,9.954999923706055,9.930000305175781,9.9399995803833,9.9399995803833,672000
2020-11-06,9.949999809265137,9.949999809265137,9.930000305175781,9.9399995803833,9.9399995803833,419300
2020-11-09,9.9399995803833,9.970000267028809,9.930000305175781,9.930000305175781,9.930000305175781,407600
2020-11-10,9.9350004196167,9.970000267028809,9.920000076293945,9.930000305175781,9.930000305175781,1556600
2020-11-11,9.930000305175781,9.949999809265137,9.90999984741211,9.9399995803833,9.9399995803833,577800
2020-11-12,9.9399995803833,9.949999809265137,9.930000305175781,9.930000305175781,9.930000305175781,544800
2020-11-13,9.949999809265137,10.0,9.937999725341797,9.949999809265137,9.949999809265137,886500
2020-11-16,9.949999809265137,10.0,9.930000305175781,9.949999809265137,9.949999809265137,651400
2020-11-17,9.949999809265137,9.979999542236328,9.944999694824219,9.949999809265137,9.949999809265137,165600
2020-11-18,9.930000305175781,9.979999542236328,9.930000305175781,9.979999542236328,9.979999542236328,207600
2020-11-19,9.960000038146973,9.989999771118164,9.949999809265137,9.960000038146973,9.960000038146973,277100
2020-11-20,9.960000038146973,10.020000457763672,9.949999809265137,10.020000457763672,10.020000457763672,1194600
2020-11-23,10.0,10.039999961853027,10.0,10.010000228881836,10.010000228881836,522700
2020-11-24,10.0,10.050000190734863,10.0,10.010000228881836,10.010000228881836,969800
2020-11-25,10.050000190734863,10.079999923706055,10.010000228881836,10.020000457763672,10.020000457763672,1025900
2020-11-27,10.100000381469727,10.199999809265137,10.100000381469727,10.100000381469727,10.100000381469727,361500
2020-11-30,10.199999809265137,10.25,10.109999656677246,10.119999885559082,10.119999885559082,384000
2020-12-01,10.199999809265137,10.199999809265137,10.130000114440918,10.140000343322754,10.140000343322754,113800
2020-12-02,10.149999618530273,10.1899995803833,10.100000381469727,10.100000381469727,10.100000381469727,293500
2020-12-03,10.130000114440918,10.140000343322754,10.029999732971191,10.100000381469727,10.100000381469727,112200
2020-12-04,10.119999885559082,10.149999618530273,10.100000381469727,10.130000114440918,10.130000114440918,189900
2020-12-07,10.149999618530273,10.199999809265137,10.130000114440918,10.149999618530273,10.149999618530273,515800
2020-12-08,10.149999618530273,10.199999809265137,10.140000343322754,10.149999618530273,10.149999618530273,62800
2020-12-09,10.180000305175781,10.279999732971191,10.149999618530273,10.199999809265137,10.199999809265137,869100
2020-12-10,10.199999809265137,10.300000190734863,10.1899995803833,10.220000267028809,10.220000267028809,1449900
2020-12-11,10.289999961853027,10.319999694824219,10.25,10.319999694824219,10.319999694824219,538100
2020-12-14,10.439000129699707,10.4399995803833,10.300000190734863,10.319999694824219,10.319999694824219,265800
2020-12-15,10.319999694824219,10.399999618530273,10.282999992370605,10.319999694824219,10.319999694824219,147000
2020-12-16,10.350000381469727,10.350000381469727,10.25,10.25,10.25,253800
2020-12-17,10.270000457763672,10.399999618530273,10.270000457763672,10.300000190734863,10.300000190734863,592300
2020-12-18,10.3100004196167,10.449999809265137,10.279999732971191,10.399999618530273,10.399999618530273,309300
2020-12-21,10.390000343322754,10.479999542236328,10.300000190734863,10.40999984741211,10.40999984741211,210400
2020-12-22,10.4399995803833,10.569999694824219,10.350000381469727,10.40999984741211,10.40999984741211,204100
2020-12-23,10.5,10.550000190734863,10.420000076293945,10.550000190734863,10.550000190734863,293800
2020-12-24,10.520000457763672,10.520000457763672,10.399999618530273,10.420000076293945,10.420000076293945,258100
2020-12-28,10.52299976348877,10.638999938964844,10.444999694824219,10.479999542236328,10.479999542236328,649100
2020-12-29,10.5,10.649999618530273,10.369999885559082,10.399999618530273,10.399999618530273,133700
2020-12-30,10.359999656677246,10.579999923706055,10.350000381469727,10.5,10.5,1193500
