Date,Open,High,Low,Close,Adj Close,Volume
2020-02-06,14.5,15.850000381469727,13.25,13.5,13.5,11455900
2020-02-07,13.970000267028809,13.979999542236328,11.050000190734863,11.050000190734863,11.050000190734863,5811700
2020-02-10,10.550000190734863,10.930000305175781,9.859999656677246,9.989999771118164,9.989999771118164,3845200
2020-02-11,10.0,10.34000015258789,9.720000267028809,9.920000076293945,9.920000076293945,2714400
2020-02-12,10.15999984741211,10.699999809265137,9.770000457763672,10.390000343322754,10.390000343322754,1524900
2020-02-13,10.449999809265137,10.850000381469727,10.210000038146973,10.640000343322754,10.640000343322754,844900
2020-02-14,10.539999961853027,10.880000114440918,10.25,10.260000228881836,10.260000228881836,895200
2020-02-18,10.1899995803833,10.319999694824219,9.979999542236328,10.119999885559082,10.119999885559082,646300
2020-02-19,10.079999923706055,10.199999809265137,9.989999771118164,10.0600004196167,10.0600004196167,613900
2020-02-20,10.029999732971191,11.399999618530273,10.0,10.5600004196167,10.5600004196167,2048700
2020-02-21,10.569999694824219,10.800000190734863,10.10099983215332,10.390000343322754,10.390000343322754,648800
2020-02-24,10.0,10.180000305175781,9.3100004196167,10.100000381469727,10.100000381469727,826900
2020-02-25,10.079999923706055,10.130000114440918,9.600000381469727,9.699999809265137,9.699999809265137,673900
2020-02-26,9.789999961853027,9.90999984741211,9.510000228881836,9.680000305175781,9.680000305175781,395200
2020-02-27,9.399999618530273,9.600000381469727,8.850000381469727,9.039999961853027,9.039999961853027,716300
2020-02-28,8.5,9.649999618530273,8.0,9.020000457763672,9.020000457763672,889900
2020-03-02,9.100000381469727,9.270000457763672,8.5,9.039999961853027,9.039999961853027,459500
2020-03-03,9.050000190734863,9.25,8.869999885559082,9.0600004196167,9.0600004196167,279000
2020-03-04,9.289999961853027,9.40999984741211,8.899999618530273,9.319999694824219,9.319999694824219,299100
2020-03-05,9.140000343322754,9.274999618530273,8.630000114440918,8.770000457763672,8.770000457763672,226300
2020-03-06,8.529999732971191,8.649999618530273,7.889999866485596,8.050000190734863,8.050000190734863,519600
2020-03-09,6.699999809265137,6.75,6.010000228881836,6.409999847412109,6.409999847412109,1220300
2020-03-10,6.739999771118164,6.849999904632568,6.099999904632568,6.340000152587891,6.340000152587891,377900
2020-03-11,6.21999979019165,6.2220001220703125,5.849999904632568,5.849999904632568,5.849999904632568,495500
2020-03-12,5.449999809265137,5.449999809265137,4.940000057220459,5.090000152587891,5.090000152587891,559200
2020-03-13,5.28000020980835,5.949999809265137,4.78000020980835,5.789999961853027,5.789999961853027,608600
2020-03-16,5.329999923706055,5.329999923706055,4.050000190734863,4.639999866485596,4.639999866485596,834600
2020-03-17,4.639999866485596,4.96999979019165,4.409999847412109,4.449999809265137,4.449999809265137,689300
2020-03-18,4.190000057220459,4.304999828338623,3.2769999504089355,3.5,3.5,519000
2020-03-19,3.7300000190734863,4.429999828338623,3.1500000953674316,3.630000114440918,3.630000114440918,610100
2020-03-20,3.4100000858306885,4.199999809265137,3.180000066757202,3.180000066757202,3.180000066757202,996200
2020-03-23,3.309999942779541,3.5429999828338623,3.180000066757202,3.4800000190734863,3.4800000190734863,772900
2020-03-24,3.680000066757202,3.7699999809265137,3.430000066757202,3.7699999809265137,3.7699999809265137,589700
2020-03-25,3.9000000953674316,4.0,3.5199999809265137,3.9200000762939453,3.9200000762939453,507600
2020-03-26,3.9600000381469727,4.739999771118164,3.9149999618530273,4.690000057220459,4.690000057220459,1094900
2020-03-27,4.610000133514404,4.610000133514404,3.950000047683716,4.0,4.0,805900
2020-03-30,4.050000190734863,4.199999809265137,3.740000009536743,4.170000076293945,4.170000076293945,410600
2020-03-31,4.150000095367432,4.380000114440918,4.033999919891357,4.289999961853027,4.289999961853027,282300
2020-04-01,4.059999942779541,4.150000095367432,3.8499999046325684,4.03000020980835,4.03000020980835,300800
2020-04-02,3.9800000190734863,4.110000133514404,3.8499999046325684,3.950000047683716,3.950000047683716,296900
2020-04-03,3.9600000381469727,4.039999961853027,3.759999990463257,4.039999961853027,4.039999961853027,793600
2020-04-06,4.210000038146973,4.429999828338623,4.086999893188477,4.400000095367432,4.400000095367432,379000
2020-04-07,4.550000190734863,4.699999809265137,4.119999885559082,4.590000152587891,4.590000152587891,526100
2020-04-08,4.650000095367432,5.360000133514404,4.269000053405762,4.960000038146973,4.960000038146973,596900
2020-04-09,5.090000152587891,5.349999904632568,5.0,5.269999980926514,5.269999980926514,433900
2020-04-13,5.28000020980835,5.28000020980835,4.900000095367432,5.239999771118164,5.239999771118164,234900
2020-04-14,5.380000114440918,5.630000114440918,5.360000133514404,5.510000228881836,5.510000228881836,226600
2020-04-15,5.369999885559082,5.769999980926514,5.199999809265137,5.639999866485596,5.639999866485596,212300
2020-04-16,5.78000020980835,7.679999828338623,5.625,7.570000171661377,7.570000171661377,993000
2020-04-17,7.519999980926514,7.690000057220459,6.28000020980835,6.409999847412109,6.409999847412109,612900
2020-04-20,6.289999961853027,6.300000190734863,5.519999980926514,5.699999809265137,5.699999809265137,697000
2020-04-21,5.550000190734863,5.989999771118164,5.329999923706055,5.909999847412109,5.909999847412109,276400
2020-04-22,6.019999980926514,6.389999866485596,5.809999942779541,6.340000152587891,6.340000152587891,313300
2020-04-23,6.809999942779541,6.989999771118164,6.114999771118164,6.300000190734863,6.300000190734863,488900
2020-04-24,6.210000038146973,6.75,6.202000141143799,6.659999847412109,6.659999847412109,231900
2020-04-27,6.929999828338623,8.0600004196167,6.730000019073486,8.0,8.0,973700
2020-04-28,8.0,8.720000267028809,7.199999809265137,8.0600004196167,8.0600004196167,600500
2020-04-29,8.0600004196167,8.5,7.349999904632568,7.369999885559082,7.369999885559082,301600
2020-04-30,7.380000114440918,7.579999923706055,6.800000190734863,6.949999809265137,6.949999809265137,211000
2020-05-01,6.619999885559082,6.71999979019165,6.159999847412109,6.260000228881836,6.260000228881836,296000
2020-05-04,6.199999809265137,6.590000152587891,6.150000095367432,6.420000076293945,6.420000076293945,164900
2020-05-05,6.519999980926514,6.940000057220459,6.28000020980835,6.360000133514404,6.360000133514404,257900
2020-05-06,6.440000057220459,6.53000020980835,6.110000133514404,6.329999923706055,6.329999923706055,218900
2020-05-07,6.489999771118164,6.849999904632568,6.289999961853027,6.480000019073486,6.480000019073486,306700
2020-05-08,6.679999828338623,7.260000228881836,6.460000038146973,7.170000076293945,7.170000076293945,389800
2020-05-11,7.179999828338623,8.33899974822998,7.179999828338623,7.900000095367432,7.900000095367432,1026600
2020-05-12,7.880000114440918,7.9070000648498535,6.340000152587891,6.369999885559082,6.369999885559082,1571300
2020-05-13,6.760000228881836,7.71999979019165,6.360000133514404,6.710000038146973,6.710000038146973,1478700
2020-05-14,7.0,7.090000152587891,6.300000190734863,6.329999923706055,6.329999923706055,725900
2020-05-15,6.340000152587891,6.670000076293945,6.309999942779541,6.579999923706055,6.579999923706055,233800
2020-05-18,6.869999885559082,6.940000057220459,6.449999809265137,6.599999904632568,6.599999904632568,288100
2020-05-19,6.690000057220459,6.699999809265137,6.380000114440918,6.5,6.5,228300
2020-05-20,6.5,6.75,6.420000076293945,6.650000095367432,6.650000095367432,198400
2020-05-21,6.489999771118164,7.159999847412109,6.4019999504089355,6.900000095367432,6.900000095367432,276800
2020-05-22,6.940000057220459,6.940000057220459,6.510000228881836,6.860000133514404,6.860000133514404,138900
2020-05-26,7.039999961853027,7.340000152587891,6.949999809265137,7.25,7.25,495100
2020-05-27,7.320000171661377,7.400000095367432,6.699999809265137,7.210000038146973,7.210000038146973,264200
2020-05-28,7.28000020980835,7.340000152587891,6.900000095367432,6.909999847412109,6.909999847412109,123100
2020-05-29,6.900000095367432,7.179999828338623,6.830999851226807,7.059999942779541,7.059999942779541,230300
2020-06-01,7.0,7.400000095367432,6.909999847412109,7.260000228881836,7.260000228881836,349300
2020-06-02,7.260000228881836,7.449999809265137,7.039999961853027,7.429999828338623,7.429999828338623,217200
2020-06-03,7.5,8.279999732971191,7.429999828338623,8.270000457763672,8.270000457763672,495600
2020-06-04,8.270000457763672,8.489999771118164,7.860000133514404,8.180000305175781,8.180000305175781,267200
2020-06-05,8.369999885559082,9.100000381469727,8.1899995803833,9.0,9.0,514100
2020-06-08,9.199999809265137,9.880000114440918,9.109999656677246,9.670000076293945,9.670000076293945,507600
2020-06-09,10.010000228881836,10.140000343322754,8.619999885559082,8.65999984741211,8.65999984741211,497100
2020-06-10,8.75,8.869999885559082,7.894999980926514,8.220000267028809,8.220000267028809,307100
2020-06-11,7.400000095367432,7.736000061035156,7.019999980926514,7.510000228881836,7.510000228881836,308000
2020-06-12,7.980000019073486,8.220000267028809,7.429999828338623,8.140000343322754,8.140000343322754,213000
2020-06-15,8.0600004196167,8.779999732971191,7.75,8.640000343322754,8.640000343322754,221400
2020-06-16,9.130000114440918,9.130000114440918,8.369999885559082,8.649999618530273,8.649999618530273,152500
2020-06-17,8.710000038146973,9.430000305175781,8.70300006866455,9.420000076293945,9.420000076293945,439100
2020-06-18,9.300000190734863,9.75,8.8100004196167,9.199999809265137,9.199999809265137,310900
2020-06-19,9.350000381469727,9.538000106811523,8.779999732971191,8.779999732971191,8.779999732971191,521700
2020-06-22,8.670000076293945,8.979999542236328,8.3100004196167,8.979999542236328,8.979999542236328,239000
2020-06-23,9.130000114440918,9.210000038146973,8.6899995803833,8.90999984741211,8.90999984741211,159200
2020-06-24,8.869999885559082,9.050000190734863,8.517999649047852,8.920000076293945,8.920000076293945,121100
2020-06-25,8.619999885559082,8.979999542236328,8.539999961853027,8.760000228881836,8.760000228881836,76600
2020-06-26,8.5600004196167,8.680000305175781,8.359999656677246,8.5,8.5,334700
2020-06-29,8.359999656677246,8.829999923706055,8.210000038146973,8.819999694824219,8.819999694824219,135800
2020-06-30,8.819999694824219,9.020000457763672,8.75,8.970000267028809,8.970000267028809,147500
2020-07-01,9.010000228881836,9.100000381469727,8.699999809265137,9.079999923706055,9.079999923706055,167600
2020-07-02,9.25,9.25,8.649999618530273,8.779999732971191,8.779999732971191,146700
2020-07-06,8.680000305175781,8.989999771118164,8.449999809265137,8.819999694824219,8.819999694824219,213100
2020-07-07,8.619999885559082,9.09000015258789,8.5600004196167,8.569999694824219,8.569999694824219,188500
2020-07-08,8.600000381469727,8.979999542236328,8.5600004196167,8.640000343322754,8.640000343322754,136800
2020-07-09,8.529999732971191,8.680000305175781,8.140000343322754,8.220000267028809,8.220000267028809,111300
2020-07-10,8.199999809265137,8.470000267028809,8.100000381469727,8.170000076293945,8.170000076293945,146700
2020-07-13,8.170000076293945,8.390000343322754,7.420000076293945,7.460000038146973,7.460000038146973,293200
2020-07-14,7.389999866485596,7.849999904632568,7.25,7.699999809265137,7.699999809265137,156900
2020-07-15,7.849999904632568,8.170000076293945,7.671999931335449,8.109999656677246,8.109999656677246,188700
2020-07-16,7.989999771118164,8.0,7.619999885559082,7.909999847412109,7.909999847412109,122100
2020-07-17,7.949999809265137,8.149999618530273,7.789999961853027,7.849999904632568,7.849999904632568,110500
2020-07-20,7.880000114440918,8.050000190734863,7.570000171661377,7.769999980926514,7.769999980926514,113900
2020-07-21,7.809999942779541,8.0600004196167,7.579999923706055,7.650000095367432,7.650000095367432,80500
2020-07-22,7.590000152587891,7.840000152587891,7.369999885559082,7.800000190734863,7.800000190734863,158400
2020-07-23,7.78000020980835,7.880000114440918,7.409999847412109,7.449999809265137,7.449999809265137,97300
2020-07-24,7.360000133514404,7.539999961853027,7.300000190734863,7.360000133514404,7.360000133514404,95500
2020-07-27,7.369999885559082,8.050000190734863,7.369999885559082,8.020000457763672,8.020000457763672,180900
2020-07-28,8.039999961853027,9.079999923706055,8.029999732971191,8.630000114440918,8.630000114440918,1032900
2020-07-29,9.0,9.130000114440918,8.789999961853027,9.0,9.0,319000
2020-07-30,8.859999656677246,9.399999618530273,8.609999656677246,9.270000457763672,9.270000457763672,304000
2020-07-31,9.260000228881836,9.359999656677246,8.850000381469727,9.229999542236328,9.229999542236328,229400
2020-08-03,8.710000038146973,8.899999618530273,7.809999942779541,8.0,8.0,737000
2020-08-04,8.15999984741211,8.1899995803833,7.800000190734863,8.100000381469727,8.100000381469727,434300
2020-08-05,8.1899995803833,8.84000015258789,7.980000019073486,8.760000228881836,8.760000228881836,348900
2020-08-06,8.699999809265137,8.720000267028809,8.3100004196167,8.699999809265137,8.699999809265137,164100
2020-08-07,8.6899995803833,8.899999618530273,8.529999732971191,8.739999771118164,8.739999771118164,232600
2020-08-10,9.199999809265137,9.84000015258789,8.765000343322754,9.579999923706055,9.579999923706055,826900
2020-08-11,9.020000457763672,9.329999923706055,8.039999961853027,8.989999771118164,8.989999771118164,1251500
2020-08-12,9.180000305175781,9.279999732971191,8.8100004196167,8.859999656677246,8.859999656677246,340300
2020-08-13,9.600000381469727,9.600000381469727,8.630000114440918,8.699999809265137,8.699999809265137,414500
2020-08-14,8.869999885559082,9.0,8.140000343322754,8.170000076293945,8.170000076293945,450000
2020-08-17,8.210000038146973,8.420000076293945,7.929999828338623,8.350000381469727,8.350000381469727,302600
2020-08-18,8.75,8.75,8.350000381469727,8.40999984741211,8.40999984741211,318300
2020-08-19,8.279999732971191,8.819999694824219,8.079999923706055,8.760000228881836,8.760000228881836,340000
2020-08-20,8.550000190734863,8.819999694824219,8.229999542236328,8.75,8.75,408400
2020-08-21,8.75,9.399999618530273,8.5600004196167,9.260000228881836,9.260000228881836,513600
2020-08-24,9.260000228881836,9.699999809265137,9.03499984741211,9.350000381469727,9.350000381469727,826300
2020-08-25,9.319999694824219,9.800000190734863,9.180000305175781,9.75,9.75,395700
2020-08-26,9.779999732971191,10.180000305175781,8.949999809265137,9.25,9.25,572400
2020-08-27,9.460000038146973,9.510000228881836,8.789999961853027,9.3100004196167,9.3100004196167,351400
2020-08-28,9.319999694824219,9.60099983215332,8.739999771118164,9.390000343322754,9.390000343322754,697800
2020-08-31,9.510000228881836,9.640000343322754,9.050000190734863,9.079999923706055,9.079999923706055,309100
2020-09-01,8.970000267028809,9.199999809265137,8.5,9.09000015258789,9.09000015258789,385000
2020-09-02,8.949999809265137,9.109999656677246,8.881999969482422,9.0,9.0,322500
2020-09-03,9.220000267028809,9.220000267028809,8.350000381469727,8.550000190734863,8.550000190734863,459100
2020-09-04,8.4399995803833,9.220000267028809,8.425000190734863,9.09000015258789,9.09000015258789,511100
2020-09-08,8.699999809265137,9.149999618530273,8.399999618530273,8.449999809265137,8.449999809265137,377700
2020-09-09,8.489999771118164,8.619999885559082,8.0,8.300000190734863,8.300000190734863,388200
2020-09-10,8.220000267028809,8.40999984741211,8.010000228881836,8.130000114440918,8.130000114440918,294200
2020-09-11,8.15999984741211,8.255000114440918,7.849999904632568,8.079999923706055,8.079999923706055,268300
2020-09-14,8.210000038146973,8.399999618530273,7.900000095367432,8.34000015258789,8.34000015258789,464500
2020-09-15,8.390000343322754,8.760000228881836,8.34000015258789,8.619999885559082,8.619999885559082,328200
2020-09-16,8.550000190734863,8.899999618530273,8.40999984741211,8.460000038146973,8.460000038146973,438300
2020-09-17,8.260000228881836,8.489999771118164,8.170000076293945,8.399999618530273,8.399999618530273,425300
2020-09-18,8.449999809265137,8.640000343322754,7.800000190734863,7.989999771118164,7.989999771118164,3001100
2020-09-21,7.800000190734863,7.900000095367432,7.449999809265137,7.699999809265137,7.699999809265137,448700
2020-09-22,7.78000020980835,7.877999782562256,7.139999866485596,7.340000152587891,7.340000152587891,607000
2020-09-23,7.230000019073486,7.320000171661377,6.900000095367432,6.989999771118164,6.989999771118164,680800
2020-09-24,6.860000133514404,6.989999771118164,6.28000020980835,6.559999942779541,6.559999942779541,761500
2020-09-25,6.599999904632568,6.849999904632568,6.510000228881836,6.650000095367432,6.650000095367432,241000
2020-09-28,6.78000020980835,6.980000019073486,6.650000095367432,6.849999904632568,6.849999904632568,250900
2020-09-29,6.860000133514404,6.96999979019165,6.550000190734863,6.809999942779541,6.809999942779541,318600
2020-09-30,6.739999771118164,7.190000057220459,6.739999771118164,7.190000057220459,7.190000057220459,374600
2020-10-01,7.139999866485596,7.400000095367432,6.820000171661377,6.889999866485596,6.889999866485596,505900
2020-10-02,6.679999828338623,7.070000171661377,6.610000133514404,6.900000095367432,6.900000095367432,441100
2020-10-05,7.0,7.150000095367432,6.809999942779541,7.099999904632568,7.099999904632568,470000
2020-10-06,7.159999847412109,7.329999923706055,6.800000190734863,6.849999904632568,6.849999904632568,456300
2020-10-07,6.900000095367432,7.21999979019165,6.760000228881836,6.940000057220459,6.940000057220459,468900
2020-10-08,7.090000152587891,7.179999828338623,6.860000133514404,7.170000076293945,7.170000076293945,401800
2020-10-09,7.25,7.372000217437744,7.0,7.150000095367432,7.150000095367432,312600
2020-10-12,7.139999866485596,7.25,6.980000019073486,7.130000114440918,7.130000114440918,257100
2020-10-13,7.130000114440918,7.880000114440918,6.900000095367432,7.849999904632568,7.849999904632568,462900
2020-10-14,7.900000095367432,8.149999618530273,7.480000019073486,8.029999732971191,8.029999732971191,398500
2020-10-15,7.909999847412109,8.0600004196167,7.519999980926514,7.809999942779541,7.809999942779541,514000
2020-10-16,7.71999979019165,7.980000019073486,7.659999847412109,7.980000019073486,7.980000019073486,318300
2020-10-19,8.020000457763672,8.649999618530273,8.010000228881836,8.119999885559082,8.119999885559082,578400
2020-10-20,8.180000305175781,8.350000381469727,7.710000038146973,7.789999961853027,7.789999961853027,240500
2020-10-21,7.809999942779541,7.809999942779541,7.28000020980835,7.559999942779541,7.559999942779541,202900
2020-10-22,7.46999979019165,7.659999847412109,7.409999847412109,7.599999904632568,7.599999904632568,140400
2020-10-23,7.610000133514404,7.659999847412109,7.199999809265137,7.429999828338623,7.429999828338623,232300
2020-10-26,7.320000171661377,7.480000019073486,6.900000095367432,7.289999961853027,7.289999961853027,343700
2020-10-27,7.28000020980835,7.289999961853027,6.889999866485596,7.050000190734863,7.050000190734863,258500
2020-10-28,6.940000057220459,6.96999979019165,6.510000228881836,6.800000190734863,6.800000190734863,348100
2020-10-29,6.829999923706055,6.869999885559082,6.559999942779541,6.679999828338623,6.679999828338623,337800
2020-10-30,6.679999828338623,6.800000190734863,6.21999979019165,6.630000114440918,6.630000114440918,429000
2020-11-02,6.650000095367432,6.840000152587891,6.440000057220459,6.579999923706055,6.579999923706055,328800
2020-11-03,6.809999942779541,7.1539998054504395,6.679999828338623,7.010000228881836,7.010000228881836,411900
2020-11-04,7.010000228881836,7.090000152587891,6.829999923706055,6.940000057220459,6.940000057220459,236900
2020-11-05,7.070000171661377,7.239999771118164,6.869999885559082,7.199999809265137,7.199999809265137,235800
2020-11-06,7.179999828338623,7.440000057220459,7.119999885559082,7.309999942779541,7.309999942779541,196300
2020-11-09,7.71999979019165,7.869999885559082,6.789999961853027,6.880000114440918,6.880000114440918,443800
2020-11-10,7.0,7.190000057220459,6.199999809265137,6.590000152587891,6.590000152587891,998100
2020-11-11,6.75,6.829999923706055,6.380000114440918,6.619999885559082,6.619999885559082,314700
2020-11-12,6.630000114440918,6.769999980926514,6.489999771118164,6.599999904632568,6.599999904632568,370000
2020-11-13,6.71999979019165,7.46999979019165,6.630000114440918,7.429999828338623,7.429999828338623,967000
2020-11-16,6.300000190734863,6.420000076293945,5.53000020980835,6.420000076293945,6.420000076293945,3716100
2020-11-17,6.110000133514404,6.630000114440918,5.989999771118164,6.360000133514404,6.360000133514404,1752100
2020-11-18,6.449999809265137,6.474999904632568,6.079999923706055,6.179999828338623,6.179999828338623,803700
2020-11-19,6.21999979019165,6.340000152587891,6.03000020980835,6.199999809265137,6.199999809265137,576700
2020-11-20,6.130000114440918,6.460000038146973,6.0289998054504395,6.119999885559082,6.119999885559082,682100
2020-11-23,6.099999904632568,6.289999961853027,6.019999980926514,6.039999961853027,6.039999961853027,800600
2020-11-24,6.150000095367432,6.199999809265137,5.900000095367432,6.010000228881836,6.010000228881836,1194000
2020-11-25,6.019999980926514,6.630000114440918,5.989999771118164,6.409999847412109,6.409999847412109,1206300
2020-11-27,6.550000190734863,6.572000026702881,6.300000190734863,6.519999980926514,6.519999980926514,309000
2020-11-30,6.5,6.5,6.059999942779541,6.289999961853027,6.289999961853027,587300
2020-12-01,6.360000133514404,6.449999809265137,6.110000133514404,6.130000114440918,6.130000114440918,411800
2020-12-02,6.050000190734863,6.409999847412109,6.050000190734863,6.289999961853027,6.289999961853027,448700
2020-12-03,6.300000190734863,6.389999866485596,6.179999828338623,6.190000057220459,6.190000057220459,306600
2020-12-04,6.28000020980835,6.829999923706055,6.210000038146973,6.670000076293945,6.670000076293945,738500
2020-12-07,6.670000076293945,7.099999904632568,6.670000076293945,6.699999809265137,6.699999809265137,637100
2020-12-08,6.670000076293945,7.03000020980835,6.599999904632568,6.769999980926514,6.769999980926514,511800
2020-12-09,6.800000190734863,7.639999866485596,6.789999961853027,6.980000019073486,6.980000019073486,1193900
2020-12-10,6.920000076293945,7.329999923706055,6.75,7.230000019073486,7.230000019073486,421200
2020-12-11,7.139999866485596,7.21999979019165,6.639999866485596,6.769999980926514,6.769999980926514,795500
2020-12-14,6.800000190734863,6.949999809265137,6.349999904632568,6.369999885559082,6.369999885559082,769100
2020-12-15,6.429999828338623,6.710000038146973,6.329999923706055,6.690000057220459,6.690000057220459,575200
2020-12-16,6.730000019073486,6.784999847412109,6.519999980926514,6.659999847412109,6.659999847412109,401100
2020-12-17,6.699999809265137,6.735000133514404,6.449999809265137,6.480000019073486,6.480000019073486,605200
2020-12-18,6.539999961853027,6.820000171661377,6.420000076293945,6.590000152587891,6.590000152587891,855700
2020-12-21,6.559999942779541,6.840000152587891,6.400000095367432,6.789999961853027,6.789999961853027,814700
2020-12-22,6.840000152587891,7.639999866485596,6.739999771118164,7.46999979019165,7.46999979019165,1664000
2020-12-23,7.480000019073486,7.579999923706055,7.039999961853027,7.099999904632568,7.099999904632568,786900
2020-12-24,7.03000020980835,7.03000020980835,6.849999904632568,6.96999979019165,6.96999979019165,286000
2020-12-28,7.070000171661377,7.099999904632568,6.619999885559082,6.619999885559082,6.619999885559082,559700
2020-12-29,6.619999885559082,6.630000114440918,6.119999885559082,6.139999866485596,6.139999866485596,1029600
2020-12-30,6.190000057220459,6.389999866485596,6.150000095367432,6.28000020980835,6.28000020980835,772300
