Date,Open,High,Low,Close,Adj Close,Volume
2017-08-18,13.0,13.260000228881836,9.25,9.25,8.532004356384277,576000
2017-08-21,9.59000015258789,10.1899995803833,9.300000190734863,10.1899995803833,9.399040222167969,208100
2017-08-22,10.1899995803833,10.739999771118164,10.0,10.430000305175781,9.62041187286377,100900
2017-08-23,10.609999656677246,11.550000190734863,10.609999656677246,11.550000190734863,10.65347671508789,168400
2017-08-24,12.34000015258789,12.34000015258789,10.5,11.329999923706055,10.450553894042969,185800
2017-08-25,11.25,11.619999885559082,10.260000228881836,10.609999656677246,9.786439895629883,72400
2017-08-28,11.100000381469727,11.100000381469727,10.0,10.350000381469727,9.546622276306152,47000
2017-08-29,10.319999694824219,10.319999694824219,9.600000381469727,9.880000114440918,9.113102912902832,50800
2017-08-30,9.84000015258789,10.170000076293945,9.600000381469727,9.699999809265137,8.947074890136719,14400
2017-08-31,9.699999809265137,9.989999771118164,9.369999885559082,9.569999694824219,8.827165603637695,30300
2017-09-01,9.479999542236328,9.920000076293945,9.479999542236328,9.739999771118164,8.983970642089844,29400
2017-09-05,9.899999618530273,9.899999618530273,8.600000381469727,8.699999809265137,8.024696350097656,110300
2017-09-06,8.75,9.119999885559082,8.010000228881836,8.399999618530273,7.747982025146484,114800
2017-09-07,8.59000015258789,8.59000015258789,7.699999809265137,7.699999809265137,7.102316856384277,88600
2017-09-08,7.949999809265137,8.119999885559082,7.710000038146973,7.989999771118164,7.369807243347168,39900
2017-09-11,8.220000267028809,8.260000228881836,7.809999942779541,8.109999656677246,7.48049259185791,41300
2017-09-12,8.050000190734863,8.050000190734863,7.800000190734863,7.989999771118164,7.369807243347168,38700
2017-09-13,8.0,8.0,7.710000038146973,7.710000038146973,7.111541748046875,28600
2017-09-14,7.710999965667725,7.789000034332275,7.034999847412109,7.230000019073486,6.668799877166748,135900
2017-09-15,7.239999771118164,7.414999961853027,7.050000190734863,7.110000133514404,6.5581135749816895,28900
2017-09-18,7.139999866485596,7.21999979019165,7.0,7.070000171661377,6.521218776702881,32800
2017-09-19,7.130000114440918,7.599999904632568,7.039999961853027,7.53000020980835,6.9455132484436035,101800
2017-09-20,7.590000152587891,8.25,7.552999973297119,8.25,7.609626293182373,70700
2017-09-21,8.5,8.6850004196167,8.359999656677246,8.600000381469727,7.932458877563477,33900
2017-09-22,8.5,9.039999961853027,8.25100040435791,8.899999618530273,8.209172248840332,52600
2017-09-25,9.149999618530273,9.194999694824219,8.260000228881836,8.670000076293945,7.997025012969971,72800
2017-09-26,8.670000076293945,8.670000076293945,7.650000095367432,7.989999771118164,7.369807243347168,77100
2017-09-27,8.220000267028809,8.25,7.21999979019165,7.28000020980835,6.714919090270996,61400
2017-09-28,7.199999809265137,7.510000228881836,6.789999961853027,7.139999866485596,6.585785388946533,75300
2017-09-29,7.150000095367432,7.289000034332275,7.0,7.190000057220459,6.631904602050781,24100
2017-10-02,7.239999771118164,7.369999885559082,7.019000053405762,7.159999847412109,6.604232311248779,33300
2017-10-03,7.349999904632568,7.53000020980835,7.159999847412109,7.409999847412109,6.834827423095703,43100
2017-10-04,7.480000019073486,7.579999923706055,7.25,7.25,6.687246799468994,20900
2017-10-05,7.389999866485596,7.46999979019165,7.26200008392334,7.440000057220459,6.862499237060547,13600
2017-10-06,7.300000190734863,8.149999618530273,7.300000190734863,8.149999618530273,7.517387866973877,21600
2017-10-09,8.010000228881836,8.239999771118164,7.699999809265137,7.840000152587891,7.23145055770874,8200
2017-10-10,8.100000381469727,8.100000381469727,7.65500020980835,7.78000020980835,7.176107883453369,8300
2017-10-11,7.650000095367432,7.710000038146973,7.300000190734863,7.300000190734863,6.733366012573242,14200
2017-10-12,7.25,7.360000133514404,7.150000095367432,7.360000133514404,6.788708686828613,13800
2017-10-13,7.389999866485596,7.53000020980835,7.159999847412109,7.421999931335449,6.845895767211914,12600
2017-10-16,7.300000190734863,7.980000019073486,7.300000190734863,7.445000171661377,6.8671112060546875,16000
2017-10-17,7.300000190734863,7.900000095367432,7.010000228881836,7.110000133514404,6.5581135749816895,84500
2017-10-18,7.320000171661377,7.380000114440918,7.010000228881836,7.079999923706055,6.530442714691162,42300
2017-10-19,7.150000095367432,7.329999923706055,7.059999942779541,7.150000095367432,6.5950093269348145,22500
2017-10-20,7.0929999351501465,7.269999980926514,7.090000152587891,7.159999847412109,6.604232311248779,18300
2017-10-23,7.110000133514404,7.949999809265137,7.110000133514404,7.820000171661377,7.213003158569336,53600
2017-10-24,7.900000095367432,8.630000114440918,7.604000091552734,8.25,7.609626293182373,67600
2017-10-25,8.300000190734863,8.59000015258789,7.199999809265137,7.349999904632568,6.779484748840332,79200
2017-10-26,7.619999885559082,7.7769999504089355,7.300000190734863,7.409999847412109,6.834827423095703,22900
2017-10-27,7.480000019073486,7.5,7.360000133514404,7.489999771118164,6.908617973327637,15300
2017-10-30,7.513999938964844,7.949999809265137,7.5,7.679999828338623,7.083869934082031,26000
2017-10-31,7.690000057220459,7.949999809265137,7.46999979019165,7.489999771118164,6.908617973327637,38200
2017-11-01,7.480000019073486,7.980000019073486,7.480000019073486,7.610000133514404,7.019303321838379,37700
2017-11-02,7.599999904632568,8.199999809265137,7.550000190734863,7.809999942779541,7.203779220581055,34800
2017-11-03,7.800000190734863,8.229999542236328,7.690000057220459,8.029999732971191,7.406702518463135,24100
2017-11-06,8.319999694824219,8.829999923706055,8.100000381469727,8.819999694824219,8.135380744934082,102200
2017-11-07,9.0,9.6899995803833,8.35099983215332,8.789999961853027,8.107709884643555,198900
2017-11-08,8.760000228881836,9.0600004196167,8.520000457763672,8.710000038146973,8.033920288085938,82200
2017-11-09,8.630000114440918,8.699999809265137,8.300000190734863,8.619999885559082,7.9509053230285645,57900
2017-11-10,8.300000190734863,8.729999542236328,8.300000190734863,8.319999694824219,7.674191951751709,78600
2017-11-13,8.300000190734863,9.199999809265137,8.28499984741211,8.90999984741211,8.218396186828613,68400
2017-11-14,8.920000076293945,8.920000076293945,8.300000190734863,8.4399995803833,7.784877777099609,52100
2017-11-15,8.399999618530273,8.760000228881836,8.270000457763672,8.569999694824219,7.904787063598633,68700
2017-11-16,8.569999694824219,8.569999694824219,8.199999809265137,8.300000190734863,7.655745506286621,42700
2017-11-17,8.260000228881836,8.479999542236328,8.260000228881836,8.470000267028809,7.812549591064453,9000
2017-11-20,8.300000190734863,8.399999618530273,8.10099983215332,8.25,7.609626293182373,55000
2017-11-21,8.170000076293945,8.399999618530273,8.170000076293945,8.350000381469727,7.701864242553711,11700
2017-11-22,8.350000381469727,8.390000343322754,8.253999710083008,8.350000381469727,7.701864242553711,7600
2017-11-24,8.350000381469727,8.399999618530273,8.149999618530273,8.15999984741211,7.526611804962158,9700
2017-11-27,8.210000038146973,8.529999732971191,8.199999809265137,8.390000343322754,7.738759517669678,27000
2017-11-28,8.369999885559082,8.449999809265137,8.199999809265137,8.25,7.609626293182373,37800
2017-11-29,8.239999771118164,8.303000450134277,8.0,8.180000305175781,7.5450592041015625,40300
2017-11-30,8.180000305175781,8.399999618530273,8.010000228881836,8.010000228881836,7.3882551193237305,51400
2017-12-01,8.180000305175781,8.34000015258789,8.0,8.109999656677246,7.48049259185791,64300
2017-12-04,8.180000305175781,8.479999542236328,8.100000381469727,8.109999656677246,7.48049259185791,68600
2017-12-05,8.319999694824219,8.329999923706055,8.050000190734863,8.15999984741211,7.526611804962158,33400
2017-12-06,8.255000114440918,8.399999618530273,8.050000190734863,8.170000076293945,7.5358357429504395,37600
2017-12-07,8.25,8.25,8.069999694824219,8.130000114440918,7.4989399909973145,42100
2017-12-08,8.130000114440918,8.130000114440918,8.0,8.100000381469727,7.471269607543945,43900
2017-12-11,8.119999885559082,9.489999771118164,8.119999885559082,9.479999542236328,8.74415111541748,238600
2017-12-12,9.479999542236328,9.75,9.100000381469727,9.239999771118164,8.522781372070312,60600
2017-12-13,9.350000381469727,10.600000381469727,9.321999549865723,10.510000228881836,9.694202423095703,181600
2017-12-14,10.5,10.84000015258789,10.119999885559082,10.479999542236328,9.66653060913086,208300
2017-12-15,10.215999603271484,11.149999618530273,10.215999603271484,10.8100004196167,9.970915794372559,391300
2017-12-18,10.630000114440918,10.800000190734863,10.4399995803833,10.609999656677246,9.786439895629883,31400
2017-12-19,10.322999954223633,10.493000030517578,9.489999771118164,9.59000015258789,8.845613479614258,71900
2017-12-20,9.3100004196167,9.770000457763672,9.3100004196167,9.5,8.762598991394043,16400
2017-12-21,9.4350004196167,10.039999961853027,9.229999542236328,9.609999656677246,8.86406135559082,40600
2017-12-22,9.699999809265137,9.762999534606934,9.600000381469727,9.630000114440918,8.882509231567383,9700
2017-12-26,9.710000038146973,10.0,9.600000381469727,9.609999656677246,8.86406135559082,10300
2017-12-27,9.800000190734863,9.989999771118164,9.345000267028809,9.369999885559082,8.64268970489502,17400
2017-12-28,9.5,9.5,9.149999618530273,9.420000076293945,8.688809394836426,11800
2017-12-29,9.319999694824219,9.494999885559082,8.890000343322754,9.0,8.301409721374512,77900
2018-01-02,9.0,9.119999885559082,9.0,9.0600004196167,8.3567533493042,19100
2018-01-03,9.050000190734863,9.0600004196167,8.918000221252441,9.050000190734863,8.347528457641602,11300
2018-01-04,8.899999618530273,9.0,8.800000190734863,9.0,8.301409721374512,6300
2018-01-05,8.979999542236328,9.220000267028809,8.930000305175781,9.220000267028809,8.50433349609375,19500
2018-01-08,9.239999771118164,9.430000305175781,9.050000190734863,9.420000076293945,8.688809394836426,37800
2018-01-09,9.420000076293945,10.180000305175781,9.420000076293945,9.90999984741211,9.140774726867676,68800
2018-01-10,9.800000190734863,10.880000114440918,9.800000190734863,10.399999618530273,9.592741012573242,80600
2018-01-11,10.430000305175781,10.430000305175781,9.800000190734863,10.010000228881836,9.233013153076172,29500
2018-01-12,10.300000190734863,10.529999732971191,9.902999877929688,10.130000114440918,9.343697547912598,33900
2018-01-16,10.630000114440918,10.677000045776367,10.109999656677246,10.5,9.684978485107422,42400
2018-01-17,10.59000015258789,10.850000381469727,10.420000076293945,10.699999809265137,9.869454383850098,14100
2018-01-18,10.6899995803833,10.6899995803833,10.15999984741211,10.529999732971191,9.71264934539795,6400
2018-01-19,10.5,10.5,10.359999656677246,10.359999656677246,9.5558443069458,4100
2018-01-22,10.789999961853027,10.890000343322754,10.539999961853027,10.59000015258789,9.767992973327637,65300
2018-01-23,10.819999694824219,10.848999977111816,9.800000190734863,10.140000343322754,9.352922439575195,88000
2018-01-24,10.208000183105469,10.210000038146973,9.899999618530273,10.130000114440918,9.343697547912598,13500
2018-01-25,10.130000114440918,10.130000114440918,9.300000190734863,9.819999694824219,9.057760238647461,68000
2018-01-26,9.84000015258789,9.890000343322754,9.520000457763672,9.850000381469727,9.085432052612305,4100
2018-01-29,9.699999809265137,9.930000305175781,9.699999809265137,9.880000114440918,9.113102912902832,9800
2018-01-30,9.59000015258789,9.739999771118164,9.270000457763672,9.4399995803833,8.707256317138672,19600
2018-01-31,9.449999809265137,9.8100004196167,9.210000038146973,9.359999656677246,8.633465766906738,11400
2018-02-01,9.369999885559082,9.369999885559082,9.25,9.3100004196167,8.587347984313965,14400
2018-02-02,9.300000190734863,9.380000114440918,9.0,9.279999732971191,8.559675216674805,7800
2018-02-05,9.109999656677246,9.989999771118164,9.0,9.0,8.301409721374512,8500
2018-02-06,9.229999542236328,9.819999694824219,8.904999732971191,9.390000343322754,8.661138534545898,56500
2018-02-07,9.449999809265137,9.449999809265137,8.75,8.770000457763672,8.089262962341309,60500
2018-02-08,8.869999885559082,9.069999694824219,8.5,8.829999923706055,8.14460563659668,29500
2018-02-09,8.699999809265137,9.029000282287598,8.5,8.699999809265137,8.024696350097656,10200
2018-02-12,8.5,8.5600004196167,7.829999923706055,8.359999656677246,7.711087226867676,46500
2018-02-13,8.170000076293945,8.390000343322754,8.010000228881836,8.220000267028809,7.581954479217529,34400
2018-02-14,8.0,8.3100004196167,7.300000190734863,7.840000152587891,7.23145055770874,100000
2018-02-15,7.900000095367432,8.0,7.510000228881836,7.519999980926514,6.936289310455322,29700
2018-02-16,7.559999942779541,7.789999961853027,7.090000152587891,7.579999923706055,6.991631984710693,30100
2018-02-20,7.739999771118164,7.739999771118164,7.10099983215332,7.340000152587891,6.770261287689209,67700
2018-02-21,7.400000095367432,8.220000267028809,7.400000095367432,8.0,7.379031181335449,161800
2018-02-22,8.100000381469727,8.380000114440918,7.849999904632568,7.949999809265137,7.332912445068359,37600
2018-02-23,7.929999828338623,8.0,7.849999904632568,7.989999771118164,7.369807243347168,47800
2018-02-26,8.039999961853027,8.1899995803833,7.619999885559082,7.989999771118164,7.369807243347168,40900
2018-02-27,8.170000076293945,8.180000305175781,7.78000020980835,7.980000019073486,7.360583782196045,23600
2018-02-28,7.800000190734863,8.0,7.510000228881836,7.800000190734863,7.194555282592773,20500
2018-03-01,7.739999771118164,7.869999885559082,7.739999771118164,7.789999961853027,7.185331344604492,6400
2018-03-02,7.6620001792907715,8.40999984741211,7.6620001792907715,8.350000381469727,7.701864242553711,9000
2018-03-05,7.820000171661377,8.279999732971191,7.699999809265137,7.96999979019165,7.3513593673706055,10400
2018-03-06,8.140000343322754,8.220000267028809,7.940000057220459,7.940000057220459,7.323688507080078,9900
2018-03-07,8.15999984741211,8.399999618530273,8.0600004196167,8.09000015258789,7.462045192718506,6100
2018-03-08,8.0,8.260000228881836,7.816999912261963,7.980000019073486,7.360583782196045,41000
2018-03-09,8.109999656677246,8.149999618530273,7.300000190734863,7.809999942779541,7.203779220581055,27200
2018-03-12,7.900000095367432,7.900000095367432,7.050000190734863,7.519999980926514,6.936289310455322,77000
2018-03-13,7.590000152587891,7.960000038146973,7.559999942779541,7.829999923706055,7.222226619720459,63400
2018-03-14,7.769999980926514,7.829999923706055,7.25,7.260000228881836,6.696470737457275,45600
2018-03-15,7.25,7.400000095367432,6.820000171661377,6.909999847412109,6.373638153076172,66300
2018-03-16,7.119999885559082,7.949999809265137,6.849999904632568,7.949999809265137,7.332912445068359,136600
2018-03-19,7.710000038146973,7.800000190734863,7.465000152587891,7.679999828338623,7.083869934082031,7900
2018-03-20,7.769999980926514,7.802999973297119,7.710000038146973,7.739999771118164,7.139212131500244,11100
2018-03-21,7.650000095367432,8.210000038146973,7.610000133514404,7.75,7.148436069488525,23600
2018-03-22,7.625999927520752,7.829999923706055,7.539999961853027,7.559999942779541,6.973184108734131,18500
2018-03-23,7.488999843597412,7.488999843597412,7.066999912261963,7.119999885559082,6.567337512969971,3200
2018-03-26,7.75,7.800000190734863,7.010000228881836,7.349999904632568,6.779484748840332,17700
2018-03-27,7.25,7.639999866485596,7.099999904632568,7.329999923706055,6.761037826538086,45900
2018-03-28,7.510000228881836,7.880000114440918,6.809999942779541,7.019999980926514,6.475100040435791,82900
2018-03-29,7.150000095367432,7.199999809265137,6.920000076293945,7.119999885559082,6.567337512969971,85200
2018-04-02,7.130000114440918,7.315000057220459,6.670000076293945,7.019999980926514,6.475100040435791,48600
2018-04-03,7.289999961853027,7.309999942779541,6.78000020980835,6.960000038146973,6.41975736618042,21000
2018-04-04,7.199999809265137,7.199999809265137,6.849999904632568,6.849999904632568,6.318295478820801,11700
2018-04-05,6.989999771118164,7.199999809265137,6.739999771118164,7.0,6.4566521644592285,50800
2018-04-06,6.980000019073486,7.110000133514404,6.260000228881836,6.730000019073486,6.2076096534729,51900
2018-04-09,6.960000038146973,6.960000038146973,6.579999923706055,6.639999866485596,6.124595642089844,10000
2018-04-10,6.829999923706055,6.829999923706055,6.625999927520752,6.789999961853027,6.26295280456543,10900
2018-04-11,6.960000038146973,6.960000038146973,6.599999904632568,6.699999809265137,6.179938793182373,11300
2018-04-12,6.559999942779541,6.989999771118164,6.190000057220459,6.960000038146973,6.41975736618042,48800
2018-04-13,6.659999847412109,6.940000057220459,6.630000114440918,6.880000114440918,6.345966815948486,12100
2018-04-16,6.809999942779541,7.190000057220459,6.800000190734863,7.170000076293945,6.613456726074219,31000
2018-04-17,6.949999809265137,7.28000020980835,6.65500020980835,6.900000095367432,6.364414691925049,78700
2018-04-18,6.5,6.960000038146973,6.489999771118164,6.760000228881836,6.235281467437744,31100
2018-04-19,6.7170000076293945,6.869999885559082,6.699999809265137,6.829999923706055,6.299847602844238,12500
2018-04-20,6.619999885559082,7.199999809265137,6.400000095367432,6.539999961853027,6.032357692718506,81300
2018-04-23,6.739999771118164,6.909999847412109,6.388999938964844,6.860000133514404,6.327519416809082,51300
2018-04-24,6.809999942779541,7.210000038146973,6.520999908447266,6.840000152587891,6.309072017669678,58700
2018-04-25,6.900000095367432,7.260000228881836,6.880000114440918,7.25,6.687246799468994,45700
2018-04-26,7.210000038146973,7.449999809265137,6.599999904632568,7.380000114440918,6.807156085968018,24400
2018-04-27,7.409999847412109,7.440000057220459,7.150000095367432,7.349999904632568,6.779484748840332,21500
2018-04-30,7.369999885559082,7.659999847412109,7.369999885559082,7.619999885559082,7.02852725982666,45800
2018-05-01,7.630000114440918,7.630000114440918,7.239999771118164,7.599999904632568,7.010079383850098,8500
2018-05-02,7.550000190734863,7.599999904632568,7.320000171661377,7.539999961853027,6.954736709594727,5800
2018-05-03,7.460000038146973,7.699999809265137,7.21999979019165,7.21999979019165,6.65957498550415,9900
2018-05-04,7.300000190734863,7.699999809265137,7.170000076293945,7.690000057220459,7.093093395233154,27500
2018-05-07,7.670000076293945,7.96999979019165,7.619999885559082,7.920000076293945,7.305241107940674,27000
2018-05-08,7.979000091552734,8.1899995803833,7.960000038146973,8.180000305175781,7.5450592041015625,23900
2018-05-09,8.100000381469727,8.319999694824219,8.083999633789062,8.199999809265137,7.563507080078125,29900
2018-05-10,8.130000114440918,8.720000267028809,8.045999526977539,8.380000114440918,7.729535102844238,31100
2018-05-11,8.260000228881836,8.550000190734863,7.870999813079834,8.5,7.8402204513549805,176400
2018-05-14,8.470000267028809,8.699999809265137,8.401000022888184,8.680000305175781,8.00624942779541,12300
2018-05-15,8.649999618530273,8.729999542236328,8.0,8.720000267028809,8.043144226074219,12900
2018-05-16,8.640000343322754,8.9399995803833,8.442000389099121,8.770000457763672,8.089262962341309,7400
2018-05-17,8.720000267028809,9.149999618530273,8.446000099182129,9.029999732971191,8.329081535339355,161000
2018-05-18,8.850000381469727,9.199999809265137,8.850000381469727,9.050000190734863,8.347528457641602,86900
2018-05-21,9.130000114440918,9.25,8.75,9.25,8.532004356384277,14000
2018-05-22,9.239999771118164,9.479999542236328,9.0,9.279999732971191,8.559675216674805,19100
2018-05-23,9.199999809265137,9.395000457763672,8.557999610900879,9.109999656677246,8.402872085571289,206000
2018-05-24,8.529999732971191,9.479999542236328,8.430000305175781,9.479999542236328,8.74415111541748,47800
2018-05-25,9.399999618530273,10.244999885559082,9.369999885559082,10.149999618530273,9.362146377563477,64300
2018-05-29,9.789999961853027,10.140000343322754,9.510000228881836,10.130000114440918,9.343697547912598,29100
2018-05-30,10.109999656677246,11.40999984741211,9.850000381469727,10.989999771118164,10.136942863464355,88900
2018-05-31,11.0,11.140000343322754,10.130000114440918,10.369999885559082,9.565069198608398,71600
2018-06-01,10.5,10.5,9.979999542236328,10.40999984741211,9.601963996887207,9300
2018-06-04,10.09000015258789,10.25,9.819999694824219,9.819999694824219,9.057760238647461,10400
2018-06-05,10.0,10.25,9.814000129699707,10.109999656677246,9.325249671936035,17800
2018-06-06,10.239999771118164,10.239999771118164,9.800000190734863,9.920000076293945,9.149998664855957,17400
2018-06-07,10.180000305175781,10.220000267028809,9.770000457763672,10.029999732971191,9.251459121704102,20300
2018-06-08,9.651000022888184,10.130000114440918,9.649999618530273,9.649999618530273,8.900956153869629,17500
2018-06-11,9.760000228881836,10.00100040435791,9.729999542236328,9.819999694824219,9.057760238647461,21000
2018-06-12,10.149999618530273,10.149999618530273,9.489999771118164,9.850000381469727,9.085432052612305,37600
2018-06-13,9.949999809265137,9.984999656677246,9.699999809265137,9.979999542236328,9.205340385437012,31600
2018-06-14,9.9399995803833,10.6850004196167,9.9399995803833,10.399999618530273,9.592741012573242,34000
2018-06-15,10.329999923706055,10.680000305175781,9.880000114440918,10.680000305175781,9.851006507873535,11900
2018-06-18,10.449999809265137,10.449999809265137,10.020000457763672,10.180000305175781,9.389817237854004,42800
2018-06-19,10.149999618530273,10.489999771118164,10.149999618530273,10.25,9.454383850097656,24200
2018-06-20,10.574999809265137,10.574999809265137,10.359999656677246,10.449999809265137,9.638859748840332,2400
2018-06-21,10.399999618530273,10.4399995803833,10.369999885559082,10.4399995803833,9.629634857177734,8300
2018-06-22,10.180000305175781,10.4399995803833,9.699999809265137,10.3100004196167,9.509726524353027,156600
2018-06-25,9.850000381469727,10.0,9.446999549865723,9.789999961853027,9.030089378356934,111800
2018-06-26,9.899999618530273,9.899999618530273,9.484999656677246,9.739999771118164,8.983970642089844,7100
2018-06-27,9.9399995803833,9.9399995803833,9.359999656677246,9.460000038146973,8.725704193115234,21600
2018-06-28,9.369999885559082,9.654999732971191,9.25,9.5600004196167,8.81794261932373,204900
2018-06-29,9.609999656677246,9.8100004196167,9.449999809265137,9.579999923706055,8.836389541625977,66600
2018-07-02,9.680000305175781,9.680000305175781,9.119000434875488,9.300000190734863,8.578124046325684,112300
2018-07-03,9.449999809265137,9.479999542236328,9.260000228881836,9.260000228881836,8.541228294372559,45100
2018-07-05,9.420000076293945,9.949999809265137,9.210000038146973,9.920000076293945,9.149998664855957,57000
2018-07-06,9.647000312805176,10.3100004196167,9.420999526977539,9.729999542236328,8.974746704101562,134200
2018-07-09,9.699999809265137,9.949999809265137,9.289999961853027,9.720000267028809,8.965523719787598,14100
2018-07-10,9.59000015258789,9.904999732971191,9.289999961853027,9.720000267028809,8.965523719787598,19100
2018-07-11,9.619999885559082,9.619999885559082,9.199999809265137,9.380000114440918,8.6519136428833,24100
2018-07-12,9.5,9.725000381469727,9.27400016784668,9.550000190734863,8.80871868133545,33700
2018-07-13,9.470000267028809,9.744999885559082,9.36299991607666,9.510000228881836,8.77182388305664,36300
2018-07-16,9.449999809265137,9.6850004196167,9.03600025177002,9.390000343322754,8.661138534545898,186600
2018-07-17,9.460000038146973,9.460000038146973,9.140000343322754,9.300000190734863,8.578124046325684,43000
2018-07-18,9.300000190734863,9.699999809265137,9.300000190734863,9.550000190734863,8.80871868133545,26900
2018-07-19,9.550000190734863,9.550000190734863,9.270000457763672,9.270000457763672,8.55045223236084,6900
2018-07-20,9.130000114440918,9.40999984741211,9.09000015258789,9.319999694824219,8.59657096862793,17500
2018-07-23,9.479999542236328,9.699999809265137,9.170000076293945,9.65999984741211,8.91018009185791,49100
2018-07-24,9.699999809265137,10.5649995803833,9.3100004196167,9.600000381469727,8.854837417602539,57200
2018-07-25,9.510000228881836,9.729999542236328,9.300000190734863,9.65999984741211,8.91018009185791,22000
2018-07-26,9.529999732971191,9.86400032043457,9.350000381469727,9.550000190734863,8.80871868133545,25000
2018-07-27,9.550000190734863,9.800000190734863,9.255000114440918,9.399999618530273,8.670361518859863,82600
2018-07-30,9.770000457763672,11.234999656677246,9.600000381469727,10.449999809265137,9.638859748840332,125800
2018-07-31,11.40999984741211,11.40999984741211,10.3100004196167,10.449999809265137,9.638859748840332,36800
2018-08-01,10.470000267028809,10.920000076293945,10.140000343322754,10.850000381469727,10.007811546325684,27000
2018-08-02,11.0,11.0,10.369999885559082,10.800000190734863,9.961692810058594,20200
2018-08-03,10.800000190734863,10.800000190734863,10.092000007629395,10.569999694824219,10.17343807220459,33000
2018-08-06,10.319999694824219,10.376999855041504,9.449999809265137,9.470000267028809,9.114707946777344,29000
2018-08-07,9.520000457763672,10.149999618530273,9.520000457763672,10.130000114440918,9.749946594238281,32300
2018-08-08,10.199999809265137,10.199999809265137,9.119999885559082,9.350000381469727,8.999210357666016,26300
2018-08-09,9.270000457763672,9.729999542236328,9.109999656677246,9.109999656677246,8.768214225769043,12000
2018-08-10,9.270000457763672,9.34000015258789,9.050000190734863,9.130000114440918,8.787463188171387,10800
2018-08-13,9.48900032043457,9.48900032043457,8.769000053405762,8.859999656677246,8.527593612670898,12100
2018-08-14,8.890000343322754,9.300000190734863,8.890000343322754,9.170000076293945,8.825963020324707,16400
2018-08-15,9.270000457763672,9.34000015258789,8.9399995803833,9.220000267028809,8.8740873336792,23800
2018-08-16,9.034000396728516,9.359999656677246,9.034000396728516,9.270000457763672,8.922211647033691,7400
2018-08-17,9.140000343322754,9.649999618530273,9.069999694824219,9.069999694824219,8.729715347290039,7000
2018-08-20,9.149999618530273,9.5,9.029999732971191,9.40999984741211,9.056958198547363,9400
2018-08-21,9.539999961853027,9.960000038146973,9.510000228881836,9.75,9.38420295715332,7800
2018-08-22,9.760000228881836,10.0,9.760000228881836,9.859999656677246,9.490076065063477,2800
2018-08-23,9.960000038146973,10.0,9.770000457763672,9.770000457763672,9.40345287322998,6400
2018-08-24,9.869999885559082,9.890000343322754,9.720000267028809,9.800000190734863,9.432327270507812,29200
2018-08-27,9.8100004196167,10.149999618530273,9.8100004196167,10.039999961853027,9.663322448730469,11700
2018-08-28,10.010000228881836,10.260000228881836,10.010000228881836,10.229999542236328,9.846193313598633,5000
2018-08-29,10.229999542236328,10.350000381469727,10.015000343322754,10.289999961853027,9.903943061828613,7100
2018-08-30,10.25,10.300000190734863,10.25,10.289999961853027,9.903943061828613,6200
2018-08-31,10.28499984741211,10.295000076293945,10.25,10.25,9.86544418334961,4000
2018-09-04,10.289999961853027,10.350000381469727,10.25,10.350000381469727,9.961692810058594,7800
2018-09-05,10.279999732971191,10.350000381469727,10.25,10.350000381469727,9.961692810058594,3500
2018-09-06,10.350000381469727,10.350000381469727,10.25,10.25,9.86544418334961,4500
2018-09-07,10.25100040435791,10.289999961853027,10.25,10.289999961853027,9.903943061828613,3800
2018-09-10,10.260000228881836,10.300000190734863,9.869999885559082,9.869999885559082,9.499700546264648,11600
2018-09-11,9.96500015258789,10.260000228881836,9.859999656677246,10.239999771118164,9.855819702148438,13100
2018-09-12,10.23900032043457,10.300000190734863,9.940999984741211,10.300000190734863,9.913568496704102,20100
2018-09-13,10.0,10.960000038146973,10.0,10.770000457763672,10.365935325622559,27400
2018-09-14,10.869999885559082,10.949999809265137,10.6899995803833,10.739999771118164,10.33705997467041,19900
2018-09-17,10.819999694824219,10.9399995803833,10.739999771118164,10.800000190734863,10.394808769226074,4800
2018-09-18,10.779999732971191,10.829999923706055,10.130000114440918,10.449999809265137,10.057940483093262,8300
2018-09-19,10.418999671936035,10.699999809265137,9.850000381469727,10.680000305175781,10.279312133789062,30800
2018-09-20,10.420000076293945,10.420000076293945,10.0,10.010000228881836,9.634448051452637,16600
2018-09-21,10.100000381469727,10.157999992370605,9.729999542236328,9.770000457763672,9.40345287322998,10600
2018-09-24,9.720000267028809,9.979999542236328,9.600000381469727,9.729999542236328,9.364952087402344,6800
2018-09-25,10.013999938964844,10.236000061035156,9.619999885559082,9.619999885559082,9.259079933166504,9200
2018-09-26,9.619999885559082,10.237000465393066,9.619999885559082,9.869999885559082,9.499700546264648,10900
2018-09-27,10.029999732971191,10.739999771118164,9.9399995803833,10.739999771118164,10.33705997467041,27000
2018-09-28,10.75,10.774999618530273,10.199999809265137,10.199999809265137,9.817319869995117,2000
2018-10-01,10.3100004196167,10.399999618530273,10.029999732971191,10.25,9.86544418334961,21200
2018-10-02,9.84000015258789,10.34000015258789,9.84000015258789,10.100000381469727,9.72107219696045,3100
2018-10-03,10.149999618530273,10.229999542236328,9.779999732971191,10.229999542236328,9.846193313598633,5200
2018-10-04,10.140000343322754,10.140000343322754,9.720000267028809,9.720000267028809,9.355328559875488,12200
2018-10-05,9.979999542236328,9.979999542236328,9.40999984741211,9.550000190734863,9.191706657409668,14900
2018-10-08,9.640000343322754,9.930000305175781,9.550000190734863,9.930000305175781,9.557450294494629,12500
2018-10-09,9.75,9.75,9.229999542236328,9.279999732971191,8.931836128234863,19500
2018-10-10,9.289999961853027,9.300000190734863,9.109999656677246,9.199999809265137,8.854837417602539,25100
2018-10-11,9.199999809265137,9.270000457763672,9.199999809265137,9.239999771118164,8.893336296081543,13200
2018-10-12,9.331999778747559,9.418000221252441,9.109999656677246,9.149999618530273,8.806713104248047,15700
2018-10-15,9.130000114440918,9.180000305175781,8.800000190734863,8.880000114440918,8.546842575073242,25100
2018-10-16,8.859999656677246,9.029999732971191,8.850000381469727,8.850000381469727,8.517969131469727,21400
2018-10-17,8.876999855041504,9.119000434875488,8.869999885559082,9.0,8.662341117858887,8800
2018-10-18,9.0,9.0,8.850000381469727,9.0,8.662341117858887,4900
2018-10-19,9.0600004196167,9.3100004196167,8.970000267028809,9.15999984741211,8.816337585449219,4000
2018-10-22,9.010000228881836,9.09000015258789,8.869999885559082,8.930000305175781,8.59496784210205,4000
2018-10-23,8.850000381469727,9.164999961853027,8.850000381469727,8.869000434875488,8.536255836486816,15100
2018-10-24,8.96500015258789,8.96500015258789,8.189000129699707,8.3100004196167,7.998228549957275,16500
2018-10-25,8.100000381469727,8.649999618530273,8.08899974822998,8.300000190734863,7.988603591918945,13400
2018-10-26,8.21500015258789,8.449999809265137,7.800000190734863,8.359999656677246,8.04635238647461,21400
2018-10-29,8.359999656677246,8.680000305175781,8.079999923706055,8.680000305175781,8.354347229003906,26000
2018-10-30,8.65999984741211,9.449999809265137,8.50100040435791,9.300000190734863,9.165438652038574,37400
2018-10-31,9.399999618530273,9.399999618530273,8.59000015258789,9.109999656677246,8.978187561035156,29300
2018-11-01,9.170000076293945,9.880000114440918,9.026000022888184,9.880000114440918,9.737046241760254,15600
2018-11-02,9.720000267028809,9.923999786376953,8.767000198364258,9.100000381469727,8.96833324432373,22800
2018-11-05,9.260000228881836,9.880000114440918,9.199999809265137,9.270000457763672,9.135872840881348,23600
2018-11-06,9.420000076293945,9.579999923706055,9.109999656677246,9.109999656677246,8.978187561035156,17800
2018-11-07,9.539999961853027,9.539999961853027,9.020000457763672,9.350000381469727,9.214715957641602,15900
2018-11-08,9.329999923706055,9.329999923706055,9.0,9.010000228881836,8.879634857177734,7300
2018-11-09,8.9399995803833,9.152000427246094,8.850000381469727,8.850000381469727,8.721949577331543,5600
2018-11-12,8.949999809265137,8.949999809265137,8.800000190734863,8.892000198364258,8.763341903686523,8800
2018-11-13,8.930000305175781,8.989999771118164,8.670000076293945,8.840999603271484,8.713079452514648,17300
2018-11-14,8.84000015258789,9.289999961853027,8.84000015258789,9.149999618530273,9.017608642578125,12300
2018-11-15,9.350000381469727,9.529999732971191,9.0,9.529999732971191,9.392110824584961,18400
2018-11-16,9.420000076293945,9.5,8.949999809265137,9.5,9.362545013427734,11100
2018-11-19,9.479999542236328,9.479999542236328,8.369999885559082,8.800000190734863,8.672673225402832,19100
2018-11-20,8.770000457763672,9.199999809265137,8.5,9.199999809265137,9.066884994506836,15800
2018-11-21,9.180000305175781,9.701000213623047,9.029999732971191,9.510000228881836,9.372400283813477,19500
2018-11-23,9.449999809265137,9.449999809265137,8.869999885559082,9.210000038146973,9.076741218566895,3700
2018-11-26,9.239999771118164,9.479999542236328,8.920000076293945,9.449999809265137,9.313267707824707,6400
2018-11-27,9.380000114440918,9.932999610900879,9.010000228881836,9.180000305175781,9.047175407409668,34300
2018-11-28,8.850000381469727,9.178999900817871,8.710000038146973,8.770000457763672,8.643107414245605,5100
2018-11-29,8.9399995803833,9.140000343322754,8.420000076293945,8.699999809265137,8.574119567871094,38700
2018-11-30,8.609999656677246,8.75,8.210000038146973,8.25,8.130631446838379,63900
2018-12-03,8.40999984741211,8.550000190734863,8.25,8.550000190734863,8.426290512084961,17000
2018-12-04,8.579999923706055,8.579999923706055,8.010000228881836,8.170000076293945,8.051788330078125,13600
2018-12-06,8.130000114440918,8.199999809265137,8.0,8.0,7.88424825668335,27800
2018-12-07,8.010000228881836,8.300000190734863,7.949999809265137,7.949999809265137,7.8349714279174805,23500
2018-12-10,7.989999771118164,8.380000114440918,7.300000190734863,7.929999828338623,7.815260887145996,15100
2018-12-11,7.869999885559082,8.350000381469727,7.296999931335449,8.0,7.88424825668335,55800
2018-12-12,8.092000007629395,8.680000305175781,7.900000095367432,8.649999618530273,8.524843215942383,39600
2018-12-13,8.4399995803833,8.607000350952148,8.319999694824219,8.579999923706055,8.455856323242188,11700
2018-12-14,8.579999923706055,9.0,8.579999923706055,8.9399995803833,8.810647010803223,33100
2018-12-17,9.0,9.25,8.715999603271484,9.25,9.116162300109863,24600
2018-12-18,8.972000122070312,9.475000381469727,8.972000122070312,9.460000038146973,9.323123931884766,21500
2018-12-19,9.619999885559082,9.95300006866455,8.710000038146973,9.779999732971191,9.638493537902832,61500
2018-12-20,9.800000190734863,9.859999656677246,9.390000343322754,9.699999809265137,9.559650421142578,18900
2018-12-21,9.579999923706055,9.626999855041504,8.649999618530273,8.649999618530273,8.524843215942383,33900
2018-12-24,8.670000076293945,8.9399995803833,8.119999885559082,8.470000267028809,8.347448348999023,9900
2018-12-26,8.289999961853027,8.720000267028809,8.289999961853027,8.399999618530273,8.278460502624512,7600
2018-12-27,8.5,8.649999618530273,7.900000095367432,8.15999984741211,8.041933059692383,12300
2018-12-28,8.0,8.225000381469727,7.760000228881836,8.069999694824219,7.953235149383545,17900
2018-12-31,7.85099983215332,8.4399995803833,7.510000228881836,7.519999980926514,7.411193370819092,33300
2019-01-02,7.420000076293945,8.170000076293945,6.75,7.800000190734863,7.687142372131348,48800
2019-01-03,7.679999828338623,8.140000343322754,7.599999904632568,7.949999809265137,7.8349714279174805,22200
2019-01-04,8.140000343322754,8.170000076293945,7.809999942779541,8.069999694824219,7.953235149383545,14900
2019-01-07,8.109999656677246,8.109999656677246,7.809999942779541,8.029999732971191,7.913814067840576,5800
2019-01-08,7.920000076293945,8.140000343322754,7.909999847412109,8.100000381469727,7.982801914215088,7700
2019-01-09,8.180000305175781,8.289999961853027,7.75,8.0,7.88424825668335,18300
2019-01-10,7.940000057220459,7.989999771118164,7.900000095367432,7.929999828338623,7.815260887145996,3300
2019-01-11,7.920000076293945,8.069999694824219,7.920000076293945,8.069999694824219,7.953235149383545,2100
2019-01-14,8.194999694824219,8.600000381469727,7.989999771118164,8.25,8.130631446838379,21200
2019-01-15,8.600000381469727,8.600000381469727,8.050000190734863,8.079999923706055,7.963090896606445,4400
2019-01-16,8.130000114440918,8.279999732971191,7.900000095367432,7.920000076293945,7.805405616760254,7500
2019-01-17,8.25,8.25,7.960000038146973,8.15999984741211,8.041933059692383,42800
2019-01-18,8.20300006866455,8.3100004196167,8.050000190734863,8.100000381469727,7.982801914215088,4100
2019-01-22,8.25100040435791,8.342000007629395,7.909999847412109,7.929999828338623,7.815260887145996,11800
2019-01-23,7.980000019073486,8.039999961853027,7.699999809265137,7.769999980926514,7.657576084136963,7000
2019-01-24,7.869999885559082,8.109999656677246,7.835999965667725,7.920000076293945,7.805405616760254,6200
2019-01-25,8.0600004196167,8.085000038146973,7.849999904632568,7.949999809265137,7.8349714279174805,2000
2019-01-28,7.960000038146973,7.989999771118164,7.599999904632568,7.769999980926514,7.657576084136963,31200
2019-01-29,7.78000020980835,7.900000095367432,7.75,7.861000061035156,7.747259616851807,5600
2019-01-30,7.630000114440918,7.749000072479248,7.619999885559082,7.749000072479248,7.636879920959473,4600
2019-01-31,8.199999809265137,8.960000038146973,7.650000095367432,7.920000076293945,7.805405616760254,65600
2019-02-01,7.909999847412109,7.920000076293945,7.710000038146973,7.800000190734863,7.687142372131348,31200
2019-02-04,7.869999885559082,8.010000228881836,7.757999897003174,8.010000228881836,7.89410400390625,1600
2019-02-05,7.890999794006348,7.980000019073486,7.809999942779541,7.949999809265137,7.8349714279174805,2100
2019-02-06,7.980000019073486,8.019000053405762,7.360000133514404,7.78000020980835,7.667431831359863,28300
2019-02-07,7.760000228881836,7.78000020980835,7.533999919891357,7.78000020980835,7.667431831359863,25800
2019-02-08,7.769999980926514,7.880000114440918,7.75,7.809999942779541,7.696997165679932,5600
2019-02-11,7.829999923706055,7.880000114440918,7.800000190734863,7.800000190734863,7.687142372131348,2700
2019-02-12,7.809999942779541,7.900000095367432,7.599999904632568,7.900000095367432,7.7856950759887695,126300
2019-02-13,7.849999904632568,7.909999847412109,7.670000076293945,7.71999979019165,7.608299255371094,3100
2019-02-14,7.642000198364258,7.800000190734863,7.599999904632568,7.630000114440918,7.519601821899414,34700
2019-02-15,7.690999984741211,7.71999979019165,7.599999904632568,7.699999809265137,7.588588714599609,14400
2019-02-19,7.670000076293945,7.702000141143799,7.599999904632568,7.690000057220459,7.578733921051025,6000
2019-02-20,7.699999809265137,7.730000019073486,7.599999904632568,7.610000133514404,7.49989128112793,5100
2019-02-21,7.730000019073486,7.730000019073486,7.550000190734863,7.619999885559082,7.509746551513672,19800
2019-02-22,7.650000095367432,7.650000095367432,7.519999980926514,7.53000020980835,7.421048641204834,4400
2019-02-25,7.53000020980835,7.610000133514404,7.380000114440918,7.53000020980835,7.421048641204834,6900
2019-02-26,7.263000011444092,7.510000228881836,7.263000011444092,7.429999828338623,7.322495460510254,2300
2019-02-27,7.329999923706055,7.428999900817871,7.309999942779541,7.380000114440918,7.273219108581543,8800
2019-02-28,7.360000133514404,7.679999828338623,7.360000133514404,7.679999828338623,7.568878173828125,16200
2019-03-01,7.409999847412109,7.599999904632568,7.329999923706055,7.380000114440918,7.273219108581543,16400
2019-03-04,7.46999979019165,7.570000171661377,7.349999904632568,7.360000133514404,7.253508567810059,11900
2019-03-05,7.5,7.5,7.360000133514404,7.360000133514404,7.253508567810059,7000
2019-03-06,7.409999847412109,7.420000076293945,7.349999904632568,7.389999866485596,7.283074378967285,18700
2019-03-07,7.419000148773193,7.989999771118164,7.419000148773193,7.989999771118164,7.874392509460449,28400
2019-03-08,7.860000133514404,8.199999809265137,7.739999771118164,8.199999809265137,8.081354141235352,22300
2019-03-11,8.199999809265137,8.199999809265137,8.100000381469727,8.180000305175781,8.061644554138184,3100
2019-03-12,8.15999984741211,8.350000381469727,8.045000076293945,8.149999618530273,8.03207778930664,15800
2019-03-13,8.109999656677246,8.289999961853027,8.050000190734863,8.140000343322754,8.022222518920898,8700
2019-03-14,8.180000305175781,8.1850004196167,8.149999618530273,8.180000305175781,8.061644554138184,1600
2019-03-15,8.130000114440918,8.260000228881836,7.965000152587891,8.0,7.88424825668335,22000
2019-03-18,8.260000228881836,8.260000228881836,7.889999866485596,8.0,7.88424825668335,10200
2019-03-19,8.26099967956543,8.300000190734863,7.75,7.75,7.6378655433654785,11600
2019-03-20,7.699999809265137,7.989999771118164,7.699999809265137,7.989999771118164,7.874392509460449,8200
2019-03-21,7.920000076293945,8.277999877929688,7.920000076293945,8.079999923706055,7.963090896606445,12200
2019-03-22,8.100000381469727,8.170000076293945,7.869999885559082,7.980000019073486,7.864537715911865,7300
2019-03-25,8.050000190734863,8.09000015258789,7.800000190734863,8.029999732971191,7.913814067840576,12100
2019-03-26,8.100000381469727,8.100000381469727,7.909999847412109,7.980000019073486,7.864537715911865,10900
2019-03-27,8.050000190734863,8.248000144958496,7.960000038146973,8.010000228881836,7.89410400390625,9500
2019-03-28,8.0600004196167,9.359999656677246,8.0600004196167,9.064000129699707,8.932853698730469,55300
2019-03-29,9.600000381469727,13.109000205993652,9.520000457763672,12.359999656677246,12.18116283416748,1281600
2019-04-01,12.25,12.336999893188477,10.220000267028809,10.819999694824219,10.663445472717285,443100
2019-04-02,11.0,11.0,10.090999603271484,10.520000457763672,10.36778736114502,91900
2019-04-03,10.520000457763672,10.670000076293945,10.321999549865723,10.350000381469727,10.200246810913086,43800
2019-04-04,10.260000228881836,10.704999923706055,10.260000228881836,10.6899995803833,10.53532600402832,30800
2019-04-05,10.699999809265137,10.899999618530273,10.553000450134277,10.779999732971191,10.624024391174316,20800
2019-04-08,10.6899995803833,10.6899995803833,10.130000114440918,10.149999618530273,10.00313949584961,36900
2019-04-09,10.1899995803833,10.4399995803833,9.949999809265137,9.979999542236328,9.835598945617676,38100
2019-04-10,9.979999542236328,10.079999923706055,9.539999961853027,9.850000381469727,9.707481384277344,52300
2019-04-11,9.930000305175781,10.050000190734863,9.75,10.050000190734863,9.904586791992188,12400
2019-04-12,10.050000190734863,10.149999618530273,10.0,10.039999961853027,9.894731521606445,7800
2019-04-15,10.039999961853027,10.109999656677246,9.899999618530273,10.109999656677246,9.96371841430664,36000
2019-04-16,9.90999984741211,10.140000343322754,9.90999984741211,10.130000114440918,9.983429908752441,3500
2019-04-17,10.149999618530273,10.149999618530273,9.529999732971191,9.600000381469727,9.461098670959473,48600
2019-04-18,9.529999732971191,9.84000015258789,9.520000457763672,9.84000015258789,9.697625160217285,16800
2019-04-22,9.770000457763672,10.119999885559082,9.706999778747559,9.770000457763672,9.62863826751709,13000
2019-04-23,9.770000457763672,10.04699993133545,9.770000457763672,9.890000343322754,9.746902465820312,5400
2019-04-24,10.039999961853027,10.800000190734863,9.899999618530273,10.0,9.855310440063477,56700
2019-04-25,10.0,10.506999969482422,9.899999618530273,9.989999771118164,9.845455169677734,8800
2019-04-26,9.989999771118164,10.239999771118164,9.899999618530273,10.069999694824219,9.924297332763672,7200
2019-04-29,9.989999771118164,10.5,9.845000267028809,9.880000114440918,9.737046241760254,9200
2019-04-30,9.970000267028809,10.027000427246094,9.75,9.800000190734863,9.658204078674316,4800
2019-05-01,9.850000381469727,10.079999923706055,9.572999954223633,9.75,9.608927726745605,22000
2019-05-02,9.630000114440918,9.78499984741211,9.260000228881836,9.529999732971191,9.392110824584961,12100
2019-05-03,9.59000015258789,9.720000267028809,9.392000198364258,9.399999618530273,9.263991355895996,14600
2019-05-06,9.40999984741211,9.668999671936035,9.40999984741211,9.479999542236328,9.342833518981934,13100
2019-05-07,10.0,10.0,9.079999923706055,9.109999656677246,8.978187561035156,12400
2019-05-08,9.586999893188477,9.637999534606934,9.300000190734863,9.3100004196167,9.175293922424316,2900
2019-05-09,9.300000190734863,9.399999618530273,9.300000190734863,9.354999542236328,9.219642639160156,5500
2019-05-10,9.354000091552734,9.413999557495117,9.199999809265137,9.350000381469727,9.214715957641602,5800
2019-05-13,9.319999694824219,9.454000473022461,9.079999923706055,9.319999694824219,9.185149192810059,4700
2019-05-14,9.369999885559082,9.687999725341797,9.149999618530273,9.510000228881836,9.372400283813477,33400
2019-05-15,9.5,9.5,8.850000381469727,9.1899995803833,9.057029724121094,34600
2019-05-16,9.59000015258789,9.645000457763672,8.100000381469727,8.220000267028809,8.101065635681152,121600
2019-05-17,8.149999618530273,8.723999977111816,8.010000228881836,8.350000381469727,8.2291841506958,26300
2019-05-20,8.6899995803833,8.710000038146973,8.232000350952148,8.289999961853027,8.170052528381348,39500
2019-05-21,8.260000228881836,8.829999923706055,8.199999809265137,8.260000228881836,8.140486717224121,12600
2019-05-22,8.319999694824219,8.708000183105469,8.260000228881836,8.630000114440918,8.505132675170898,22400
2019-05-23,8.786999702453613,8.786999702453613,8.1899995803833,8.430000305175781,8.308027267456055,3000
2019-05-24,8.399999618530273,8.607000350952148,8.170000076293945,8.170000076293945,8.051788330078125,8100
2019-05-28,8.319999694824219,8.550000190734863,8.229999542236328,8.380000114440918,8.258749961853027,11000
2019-05-29,8.300000190734863,8.539999961853027,8.170000076293945,8.199999809265137,8.081354141235352,57200
2019-05-30,8.26099967956543,8.362000465393066,8.079999923706055,8.079999923706055,7.963090896606445,22800
2019-05-31,8.079999923706055,8.09000015258789,7.909999847412109,8.050000190734863,7.933525085449219,46200
2019-06-03,8.050000190734863,8.27299976348877,7.820000171661377,8.050000190734863,7.933525085449219,8300
2019-06-04,8.039999961853027,8.260000228881836,7.909999847412109,8.050000190734863,7.933525085449219,42000
2019-06-05,8.100000381469727,8.130000114440918,7.650000095367432,7.679999828338623,7.568878173828125,37700
2019-06-06,7.75,7.809999942779541,7.53000020980835,7.539999961853027,7.430903911590576,38900
2019-06-07,7.590000152587891,7.860000133514404,7.519999980926514,7.630000114440918,7.519601821899414,28500
2019-06-10,7.563000202178955,7.7779998779296875,7.563000202178955,7.599999904632568,7.490035533905029,11900
2019-06-11,7.750999927520752,7.800000190734863,7.21999979019165,7.309999942779541,7.2042317390441895,47600
2019-06-12,7.369999885559082,7.440000057220459,7.110000133514404,7.190000057220459,7.085968017578125,22200
2019-06-13,7.150000095367432,7.480000019073486,7.150000095367432,7.25,7.145100116729736,31600
2019-06-14,7.21999979019165,7.630000114440918,7.21999979019165,7.349999904632568,7.243652820587158,8600
2019-06-17,7.289999961853027,7.300000190734863,7.190000057220459,7.190000057220459,7.085968017578125,2800
2019-06-18,7.214000225067139,7.400000095367432,7.170000076293945,7.309999942779541,7.2042317390441895,15400
2019-06-19,7.39900016784668,7.644999980926514,7.335000038146973,7.570000171661377,7.460470199584961,24000
2019-06-20,7.550000190734863,7.624000072479248,7.311999797821045,7.400000095367432,7.292929649353027,18500
2019-06-21,7.46999979019165,7.46999979019165,7.300000190734863,7.349999904632568,7.243652820587158,5000
2019-06-24,7.409999847412109,7.489999771118164,7.355000019073486,7.489999771118164,7.381627082824707,4600
2019-06-25,7.400000095367432,7.425000190734863,7.320000171661377,7.425000190734863,7.317568302154541,10500
2019-06-26,7.400000095367432,7.489999771118164,7.36299991607666,7.489999771118164,7.381627082824707,3700
2019-06-27,7.420000076293945,7.420000076293945,7.320000171661377,7.349999904632568,7.243652820587158,7900
2019-06-28,7.5,7.795000076293945,7.5,7.5,7.391482830047607,40800
2019-07-01,7.510000228881836,7.599999904632568,7.5,7.559999942779541,7.4506144523620605,4800
2019-07-02,7.900000095367432,7.900000095367432,7.3470001220703125,7.670000076293945,7.559022903442383,5000
2019-07-03,7.610000133514404,7.836999893188477,7.519999980926514,7.599999904632568,7.490035533905029,3800
2019-07-05,7.590000152587891,7.590000152587891,7.5,7.5,7.391482830047607,5200
2019-07-08,7.489999771118164,7.579999923706055,7.449999809265137,7.489999771118164,7.381627082824707,10100
2019-07-09,7.315000057220459,7.5,7.309999942779541,7.309999942779541,7.2042317390441895,3000
2019-07-10,7.300000190734863,7.460000038146973,7.300000190734863,7.389999866485596,7.283074378967285,1400
2019-07-11,7.460000038146973,7.5,7.070000171661377,7.159999847412109,7.056402206420898,9700
2019-07-12,7.110000133514404,7.150000095367432,7.010000228881836,7.019999980926514,6.91842794418335,10900
2019-07-15,7.309999942779541,8.670000076293945,7.25,8.399999618530273,8.278460502624512,100700
2019-07-16,8.470000267028809,8.5,8.020000457763672,8.25,8.130631446838379,38400
2019-07-17,8.460000038146973,8.460000038146973,8.119999885559082,8.399999618530273,8.278460502624512,24600
2019-07-18,8.359999656677246,8.956000328063965,8.319999694824219,8.831999778747559,8.70421028137207,54100
2019-07-19,8.920000076293945,8.949000358581543,8.579999923706055,8.670000076293945,8.544553756713867,20800
2019-07-22,8.770000457763672,8.817000389099121,8.515000343322754,8.675000190734863,8.549482345581055,8300
2019-07-23,8.819999694824219,8.876999855041504,8.0,8.0,7.88424825668335,42800
2019-07-24,8.029999732971191,8.369000434875488,8.020000457763672,8.25,8.130631446838379,11400
2019-07-25,8.210000038146973,8.270000457763672,7.929999828338623,7.960000038146973,7.844827175140381,12300
2019-07-26,7.929999828338623,8.550000190734863,7.929999828338623,8.489999771118164,8.367157936096191,24500
2019-07-29,8.550000190734863,8.970000267028809,8.3100004196167,8.699999809265137,8.574119567871094,39600
2019-07-30,8.739999771118164,9.220000267028809,8.649999618530273,9.050000190734863,8.919055938720703,30100
2019-07-31,9.0,9.545000076293945,9.0,9.279999732971191,9.14572811126709,53200
2019-08-01,9.399999618530273,9.409000396728516,9.222000122070312,9.399999618530273,9.263991355895996,38100
2019-08-02,9.380000114440918,9.449999809265137,8.930000305175781,9.369999885559082,9.23442554473877,19400
2019-08-05,9.399999618530273,9.4399995803833,8.430999755859375,9.324999809265137,9.19007682800293,21500
2019-08-06,9.399999618530273,9.46399974822998,9.010000228881836,9.010000228881836,8.879634857177734,13200
2019-08-07,9.220000267028809,9.800000190734863,9.170000076293945,9.300000190734863,9.165438652038574,45300
2019-08-08,9.390000343322754,9.581000328063965,8.75,8.819999694824219,8.692383766174316,28500
2019-08-09,9.0,9.23900032043457,9.0,9.0,8.869779586791992,13100
2019-08-12,9.050000190734863,9.428999900817871,9.0,9.029999732971191,8.899345397949219,16600
2019-08-13,9.460000038146973,9.460000038146973,9.045000076293945,9.28499984741211,9.150655746459961,10100
2019-08-14,9.399999618530273,9.793999671936035,9.038000106811523,9.369999885559082,9.23442554473877,37900
2019-08-15,9.050000190734863,9.75,9.050000190734863,9.199999809265137,9.066884994506836,25300
2019-08-16,9.206000328063965,9.350000381469727,9.0600004196167,9.350000381469727,9.214715957641602,7700
2019-08-19,9.3100004196167,9.479999542236328,9.100000381469727,9.199999809265137,9.066884994506836,14400
2019-08-20,9.083999633789062,9.125,9.0,9.069999694824219,8.938766479492188,15200
2019-08-21,9.0600004196167,9.375,9.0,9.020000457763672,8.889490127563477,4300
2019-08-22,9.1899995803833,9.484999656677246,9.0,9.0,8.869779586791992,1300
2019-08-23,9.010000228881836,9.239999771118164,9.0,9.210000038146973,9.076741218566895,10000
2019-08-26,9.199999809265137,9.3100004196167,9.107000350952148,9.300000190734863,9.165438652038574,14900
2019-08-27,9.380999565124512,9.951000213623047,9.050000190734863,9.25,9.116162300109863,39400
2019-08-28,9.399999618530273,9.520999908447266,9.140000343322754,9.1899995803833,9.057029724121094,16700
2019-08-29,9.420000076293945,10.0,9.15999984741211,9.220000267028809,9.086596488952637,15200
2019-08-30,9.5,9.5,9.119999885559082,9.119999885559082,8.988042831420898,8400
2019-09-03,9.616999626159668,9.616999626159668,9.0,9.010000228881836,8.879634857177734,24800
2019-09-04,9.5,9.5,9.0,9.0,8.869779586791992,7900
2019-09-05,9.039999961853027,9.53499984741211,9.0,9.010000228881836,8.879634857177734,3800
2019-09-06,9.050000190734863,9.40999984741211,9.020000457763672,9.279999732971191,9.14572811126709,24200
2019-09-09,9.1899995803833,9.239999771118164,8.829999923706055,9.199999809265137,9.066884994506836,28000
2019-09-10,9.289999961853027,9.489999771118164,9.0,9.220000267028809,9.086596488952637,8200
2019-09-11,9.149999618530273,10.626999855041504,9.149999618530273,9.829999923706055,9.687769889831543,198500
2019-09-12,9.920000076293945,9.979999542236328,9.479999542236328,9.5,9.362545013427734,14600
2019-09-13,9.78499984741211,9.78499984741211,9.460000038146973,9.520000457763672,9.382255554199219,1800
2019-09-16,9.619999885559082,9.710000038146973,9.319999694824219,9.449999809265137,9.313267707824707,4800
2019-09-17,9.699999809265137,9.739999771118164,9.449999809265137,9.670000076293945,9.530085563659668,9800
2019-09-18,9.5600004196167,10.02299976348877,9.449999809265137,9.779999732971191,9.638493537902832,12700
2019-09-19,9.710000038146973,10.189000129699707,9.329999923706055,9.359999656677246,9.224570274353027,9200
2019-09-20,9.850000381469727,9.850000381469727,9.449999809265137,9.850000381469727,9.707481384277344,10000
2019-09-23,9.510000228881836,9.817999839782715,9.479999542236328,9.670000076293945,9.530085563659668,9800
2019-09-24,9.545999526977539,9.609999656677246,9.510000228881836,9.609999656677246,9.470952987670898,3200
2019-09-25,9.600000381469727,9.666000366210938,9.600000381469727,9.600000381469727,9.461098670959473,3300
2019-09-26,9.5,9.5,9.5,9.5,9.362545013427734,700
2019-09-27,9.609999656677246,9.652999877929688,9.600000381469727,9.600000381469727,9.461098670959473,2500
2019-09-30,9.673999786376953,9.699999809265137,9.600000381469727,9.649999618530273,9.510374069213867,2000
2019-10-01,9.449999809265137,9.739999771118164,9.449999809265137,9.739999771118164,9.599072456359863,1500
2019-10-02,9.6899995803833,9.84000015258789,9.460000038146973,9.460000038146973,9.323123931884766,15600
2019-10-03,9.460000038146973,9.585000038146973,9.25,9.270000457763672,9.135872840881348,10800
2019-10-04,9.420000076293945,9.670000076293945,9.329999923706055,9.460000038146973,9.323123931884766,6600
2019-10-07,9.420000076293945,9.819999694824219,9.25,9.300000190734863,9.165438652038574,15000
2019-10-08,9.34000015258789,9.800000190734863,9.34000015258789,9.5600004196167,9.421676635742188,6600
2019-10-09,9.470000267028809,9.850000381469727,9.380000114440918,9.850000381469727,9.707481384277344,6200
2019-10-10,9.829000473022461,9.829000473022461,9.300000190734863,9.300000190734863,9.165438652038574,5400
2019-10-11,9.699999809265137,9.699999809265137,9.25,9.260000228881836,9.126017570495605,9300
2019-10-14,9.4399995803833,9.609999656677246,9.050000190734863,9.479999542236328,9.342833518981934,10100
2019-10-15,9.369999885559082,9.369999885559082,9.170000076293945,9.1899995803833,9.057029724121094,2500
2019-10-16,9.24899959564209,9.420000076293945,9.192999839782715,9.40999984741211,9.273846626281738,4100
2019-10-17,9.25,9.25,9.119999885559082,9.130000114440918,8.99789810180664,3300
2019-10-18,9.178000450134277,9.479999542236328,8.800000190734863,9.0,8.869779586791992,36700
2019-10-21,9.0,9.335000038146973,8.798999786376953,8.798999786376953,8.671687126159668,52100
2019-10-22,8.960000038146973,9.319999694824219,8.960000038146973,9.260000228881836,9.126017570495605,23700
2019-10-23,9.361000061035156,9.609999656677246,9.119999885559082,9.119999885559082,8.988042831420898,9600
2019-10-24,9.289999961853027,10.050000190734863,9.25,9.539999961853027,9.401966094970703,33100
2019-10-25,9.619999885559082,9.850000381469727,9.590999603271484,9.850000381469727,9.707481384277344,8300
2019-10-28,9.850000381469727,9.850000381469727,9.59000015258789,9.739999771118164,9.599072456359863,8100
2019-10-29,9.262999534606934,9.75,9.262999534606934,9.5,9.362545013427734,5200
2019-10-30,9.383999824523926,9.697999954223633,9.359999656677246,9.640000343322754,9.500519752502441,8600
2019-10-31,9.779999732971191,9.779999732971191,9.25,9.25,9.116162300109863,2400
2019-11-01,9.390999794006348,9.800000190734863,9.3149995803833,9.739999771118164,9.599072456359863,10100
2019-11-04,9.84000015258789,9.850000381469727,9.449999809265137,9.800000190734863,9.658204078674316,3700
2019-11-05,9.800000190734863,9.8100004196167,9.470000267028809,9.550000190734863,9.411821365356445,7500
2019-11-06,9.65999984741211,9.84000015258789,9.520000457763672,9.75,9.608927726745605,3400
2019-11-07,9.850000381469727,9.850000381469727,9.430000305175781,9.550000190734863,9.411821365356445,10700
2019-11-08,9.645999908447266,9.65999984741211,9.600000381469727,9.600000381469727,9.461098670959473,900
2019-11-11,9.479999542236328,9.78499984741211,9.479999542236328,9.710000038146973,9.569506645202637,1100
2019-11-12,9.710000038146973,9.710000038146973,9.710000038146973,9.710000038146973,9.569506645202637,100
2019-11-13,9.609999656677246,9.84000015258789,9.609999656677246,9.699999809265137,9.559650421142578,3200
2019-11-14,9.850000381469727,10.189000129699707,9.753999710083008,10.140000343322754,9.993285179138184,31200
2019-11-15,9.399999618530273,9.5,8.4399995803833,8.930000305175781,8.800792694091797,82800
2019-11-18,8.868000030517578,8.868000030517578,8.630000114440918,8.640000343322754,8.514988899230957,18600
2019-11-19,8.520000457763672,8.729999542236328,8.5,8.729999542236328,8.60368537902832,9800
2019-11-20,8.699999809265137,8.699999809265137,7.510000228881836,7.949999809265137,7.8349714279174805,43900
2019-11-21,7.771999835968018,8.289999961853027,7.771999835968018,8.0,7.88424825668335,16300
2019-11-22,8.15999984741211,8.15999984741211,7.650000095367432,7.650000095367432,7.539312362670898,21800
2019-11-25,7.578999996185303,7.940000057220459,7.539999961853027,7.730000019073486,7.618155002593994,18900
2019-11-26,7.71999979019165,7.730000019073486,7.599999904632568,7.630000114440918,7.519601821899414,6500
2019-11-27,7.800000190734863,8.119000434875488,7.599999904632568,7.599999904632568,7.490035533905029,12000
2019-11-29,7.550000190734863,7.989999771118164,7.5229997634887695,7.840000152587891,7.726563453674316,9700
2019-12-02,7.710000038146973,7.929999828338623,7.689000129699707,7.909999847412109,7.795550346374512,13600
2019-12-03,7.860000133514404,7.860000133514404,7.460999965667725,7.789999961853027,7.677286624908447,9800
2019-12-04,7.800000190734863,7.800000190734863,7.5,7.5,7.391482830047607,14100
2019-12-05,7.5,7.800000190734863,7.5,7.650000095367432,7.539312362670898,6100
2019-12-06,7.639999866485596,7.650000095367432,7.010000228881836,7.03000020980835,6.928283214569092,29200
2019-12-09,7.300000190734863,7.499000072479248,7.28000020980835,7.400000095367432,7.292929649353027,23800
2019-12-10,7.389999866485596,8.135000228881836,7.380000114440918,8.100000381469727,7.982801914215088,25600
2019-12-11,7.875,8.015000343322754,7.659999847412109,7.900000095367432,7.7856950759887695,21100
2019-12-12,7.670000076293945,8.050000190734863,7.670000076293945,8.050000190734863,7.933525085449219,9500
2019-12-13,8.149999618530273,8.350000381469727,7.739999771118164,8.350000381469727,8.2291841506958,6700
2019-12-16,8.199999809265137,8.319999694824219,7.909999847412109,8.210000038146973,8.091209411621094,13800
2019-12-17,8.027000427246094,8.199999809265137,8.027000427246094,8.149999618530273,8.03207778930664,2700
2019-12-18,8.149999618530273,8.239999771118164,8.0,8.09000015258789,7.9729461669921875,6300
2019-12-19,8.020000457763672,8.149999618530273,8.020000457763672,8.130000114440918,8.012367248535156,11900
2019-12-20,8.0600004196167,8.199999809265137,7.920000076293945,8.199999809265137,8.081354141235352,18100
2019-12-23,8.239999771118164,8.244999885559082,7.96999979019165,8.09000015258789,7.9729461669921875,13600
2019-12-24,8.09000015258789,8.135000228881836,8.026000022888184,8.135000228881836,8.017294883728027,7800
2019-12-26,8.109000205993652,8.109999656677246,7.900000095367432,7.949999809265137,7.8349714279174805,10100
2019-12-27,7.900000095367432,8.029999732971191,7.841000080108643,7.989999771118164,7.874392509460449,9500
2019-12-30,7.929999828338623,8.100000381469727,7.71999979019165,7.78000020980835,7.667431831359863,15200
2019-12-31,7.760000228881836,8.119000434875488,7.760000228881836,8.0,7.88424825668335,12300
2020-01-02,8.0,8.0,7.800000190734863,7.940000057220459,7.8251166343688965,5600
2020-01-03,7.96999979019165,8.130000114440918,7.900000095367432,7.96999979019165,7.854681968688965,7300
2020-01-06,8.010000228881836,8.050000190734863,7.9070000648498535,8.029999732971191,7.913814067840576,6500
2020-01-07,8.180000305175781,8.204999923706055,8.180000305175781,8.1850004196167,8.066572189331055,2300
2020-01-08,8.229999542236328,8.25,8.109999656677246,8.109999656677246,7.992656230926514,9200
2020-01-09,8.199999809265137,8.199999809265137,7.798999786376953,8.100000381469727,7.982801914215088,3000
2020-01-10,8.100000381469727,8.234999656677246,7.948999881744385,8.050000190734863,7.933525085449219,15300
2020-01-13,8.107000350952148,8.267000198364258,8.069999694824219,8.220000267028809,8.101065635681152,4600
2020-01-14,8.279999732971191,8.36299991607666,8.109999656677246,8.289999961853027,8.170052528381348,1800
2020-01-15,8.130000114440918,8.3100004196167,8.109999656677246,8.239999771118164,8.12077522277832,5400
2020-01-16,8.258999824523926,8.388999938964844,8.258999824523926,8.34000015258789,8.219328880310059,10700
2020-01-17,8.420000076293945,8.739999771118164,8.420000076293945,8.600000381469727,8.475566864013672,13900
2020-01-21,8.630000114440918,8.845999717712402,8.609999656677246,8.84000015258789,8.7120943069458,4200
2020-01-22,8.850000381469727,8.850000381469727,8.630000114440918,8.654999732971191,8.529770851135254,7400
2020-01-23,8.75,8.75,8.75,8.75,8.623396873474121,400
2020-01-24,8.718000411987305,8.847000122070312,8.652999877929688,8.729999542236328,8.60368537902832,18900
2020-01-27,8.609999656677246,8.609999656677246,8.109999656677246,8.199999809265137,8.081354141235352,24500
2020-01-28,8.166000366210938,8.300000190734863,7.826000213623047,8.199999809265137,8.081354141235352,28200
2020-01-29,8.300000190734863,8.300000190734863,8.017999649047852,8.053999900817871,7.937466621398926,2800
2020-01-30,7.973999977111816,8.227999687194824,7.973999977111816,8.140000343322754,8.022222518920898,3200
2020-01-31,8.100000381469727,8.125,8.0,8.010000228881836,7.89410400390625,5000
2020-02-03,8.0,8.406000137329102,8.0,8.039999961853027,7.923669338226318,7600
2020-02-04,8.680000305175781,8.680000305175781,8.199999809265137,8.199999809265137,8.081354141235352,500
2020-02-05,8.470000267028809,8.470000267028809,8.029999732971191,8.199999809265137,8.081354141235352,5900
2020-02-06,8.329999923706055,8.829999923706055,8.199999809265137,8.25,8.130631446838379,21500
2020-02-07,8.4399995803833,8.510000228881836,8.199999809265137,8.359999656677246,8.239039421081543,4100
2020-02-10,8.460000038146973,8.5600004196167,8.270000457763672,8.300000190734863,8.17990779876709,7700
2020-02-11,8.489999771118164,8.489999771118164,8.09000015258789,8.460000038146973,8.337592124938965,12700
2020-02-12,8.300000190734863,8.489999771118164,8.300000190734863,8.489999771118164,8.367157936096191,2200
2020-02-13,8.550000190734863,8.649999618530273,8.217000007629395,8.350000381469727,8.2291841506958,8600
2020-02-14,8.520000457763672,8.670000076293945,8.260000228881836,8.670000076293945,8.544553756713867,22500
2020-02-18,8.640000343322754,9.0,8.640000343322754,8.989999771118164,8.859923362731934,26300
2020-02-19,9.0,9.399999618530273,8.899999618530273,9.25,9.116162300109863,15500
2020-02-20,9.3100004196167,9.3100004196167,9.039999961853027,9.100000381469727,8.96833324432373,6800
2020-02-21,9.170000076293945,9.170000076293945,8.739999771118164,9.140000343322754,9.0077543258667,20300
2020-02-24,8.8100004196167,9.449999809265137,8.8100004196167,9.399999618530273,9.263991355895996,37000
2020-02-25,9.869999885559082,10.239999771118164,9.569999694824219,10.039999961853027,9.894731521606445,139400
2020-02-26,9.930000305175781,10.300000190734863,9.779999732971191,10.210000038146973,10.062272071838379,111600
2020-02-27,10.199999809265137,10.199999809265137,9.600000381469727,9.600000381469727,9.461098670959473,100900
2020-02-28,9.520000457763672,9.520000457763672,8.829999923706055,8.859999656677246,8.731804847717285,18000
2020-03-02,8.850000381469727,9.729999542236328,8.345999717712402,9.470000267028809,9.332979202270508,17800
2020-03-03,9.649999618530273,9.699999809265137,8.449999809265137,8.5600004196167,8.436145782470703,12600
2020-03-04,9.039999961853027,9.0649995803833,8.229000091552734,8.529999732971191,8.40657901763916,23300
2020-03-05,8.210000038146973,8.795000076293945,8.210000038146973,8.689000129699707,8.563279151916504,9000
2020-03-06,8.630000114440918,8.630000114440918,7.605000019073486,8.069999694824219,7.953235149383545,12500
2020-03-09,7.46999979019165,8.484000205993652,7.46999979019165,7.989999771118164,7.874392509460449,8400
2020-03-10,8.180000305175781,8.180000305175781,7.811999797821045,8.15999984741211,8.041933059692383,11400
2020-03-11,8.168999671936035,8.168999671936035,7.409999847412109,7.429999828338623,7.322495460510254,8100
2020-03-12,7.245999813079834,7.599999904632568,6.710000038146973,6.71999979019165,6.622768402099609,46300
2020-03-13,6.46999979019165,7.026000022888184,6.085000038146973,6.46999979019165,6.376385688781738,41700
2020-03-16,5.699999809265137,6.418000221252441,4.660999774932861,5.369999885559082,5.292301654815674,52100
2020-03-17,5.369999885559082,6.23199987411499,5.343999862670898,6.070000171661377,5.982173442840576,26000
2020-03-18,5.953999996185303,5.953999996185303,4.760000228881836,5.093999862670898,5.020295143127441,20000
2020-03-19,5.929999828338623,6.3979997634887695,5.054999828338623,5.5,5.4204206466674805,38600
2020-03-20,6.210000038146973,6.269999980926514,5.099999904632568,5.110000133514404,5.0360636711120605,26700
2020-03-23,5.449999809265137,5.710000038146973,5.010000228881836,5.010000228881836,4.9375104904174805,9800
2020-03-24,5.190000057220459,5.389999866485596,5.039000034332275,5.372000217437744,5.2942728996276855,14200
2020-03-25,5.453000068664551,6.3470001220703125,5.453000068664551,5.989999771118164,5.9033308029174805,27200
2020-03-26,5.900000095367432,6.284999847412109,5.876999855041504,5.909999847412109,5.824488162994385,22700
2020-03-27,5.849999904632568,6.552999973297119,5.53000020980835,5.71999979019165,5.637237071990967,5700
2020-03-30,5.519999980926514,6.389999866485596,5.389999866485596,6.25,6.159568786621094,14800
2020-03-31,6.389999866485596,7.47599983215332,6.019999980926514,6.570000171661377,6.474938869476318,47500
2020-04-01,6.21999979019165,6.71999979019165,5.434999942779541,5.820000171661377,5.735790729522705,50300
2020-04-02,5.980000019073486,6.449999809265137,5.75,6.03000020980835,5.942752361297607,24300
2020-04-03,6.489999771118164,6.550000190734863,6.313000202178955,6.550000190734863,6.455228328704834,1100
2020-04-06,6.75,7.085000038146973,6.610000133514404,6.659999847412109,6.563636302947998,32300
2020-04-07,7.0,7.084000110626221,6.679999828338623,6.800000190734863,6.701611042022705,16500
2020-04-08,6.908999919891357,7.800000190734863,6.880000114440918,7.5970001220703125,7.48707914352417,21800
2020-04-09,7.603000164031982,8.25,7.603000164031982,7.7789998054504395,7.666445732116699,15700
2020-04-13,7.614999771118164,8.0600004196167,7.550000190734863,8.050000190734863,7.933525085449219,10400
2020-04-14,8.050000190734863,8.380000114440918,8.010000228881836,8.324999809265137,8.204545974731445,17500
2020-04-15,8.149999618530273,8.880000114440918,8.010000228881836,8.520000457763672,8.396724700927734,20600
2020-04-16,8.609999656677246,8.642999649047852,8.210000038146973,8.210000038146973,8.091209411621094,15700
2020-04-17,8.699999809265137,8.949999809265137,8.489999771118164,8.789999961853027,8.66281795501709,12700
2020-04-20,8.90999984741211,9.420000076293945,8.760000228881836,8.899999618530273,8.771225929260254,48200
2020-04-21,8.333000183105469,9.149999618530273,8.277000427246094,8.529999732971191,8.40657901763916,33300
2020-04-22,8.319999694824219,8.930000305175781,8.279999732971191,8.670000076293945,8.544553756713867,3900
2020-04-23,8.454999923706055,9.109999656677246,8.454999923706055,8.670000076293945,8.544553756713867,13700
2020-04-24,8.460000038146973,8.880000114440918,8.25,8.75,8.623396873474121,18500
2020-04-27,8.630000114440918,8.970000267028809,8.572999954223633,8.739999771118164,8.613540649414062,17300
2020-04-28,8.529999732971191,8.84000015258789,8.505000114440918,8.6899995803833,8.564264297485352,4800
2020-04-29,8.729999542236328,8.967000007629395,8.609999656677246,8.770000457763672,8.643107414245605,30100
2020-04-30,8.739999771118164,8.895999908447266,8.300000190734863,8.8100004196167,8.682528495788574,18900
2020-05-01,8.770000457763672,9.050000190734863,8.489999771118164,8.880000114440918,8.75151538848877,8600
2020-05-04,8.670000076293945,8.729999542236328,8.4399995803833,8.4399995803833,8.31788158416748,7300
2020-05-05,8.470000267028809,8.8100004196167,8.319999694824219,8.380000114440918,8.258749961853027,14900
2020-05-06,8.45199966430664,8.45199966430664,7.949999809265137,8.380000114440918,8.258749961853027,13200
2020-05-07,8.270000457763672,8.979999542236328,8.241999626159668,8.8100004196167,8.682528495788574,12200
2020-05-08,8.604999542236328,8.789999961853027,8.33899974822998,8.449999809265137,8.327736854553223,10200
2020-05-11,8.329999923706055,8.789999961853027,8.15999984741211,8.199999809265137,8.081354141235352,14200
2020-05-12,8.380000114440918,8.720000267028809,8.199999809265137,8.199999809265137,8.081354141235352,11200
2020-05-13,8.029999732971191,8.600000381469727,7.599999904632568,7.900000095367432,7.7856950759887695,22400
2020-05-14,7.550000190734863,8.37399959564209,7.550000190734863,8.199999809265137,8.081354141235352,29400
2020-05-15,8.199999809265137,8.199999809265137,6.699999809265137,7.25,7.145100116729736,61300
2020-05-18,7.449999809265137,7.579999923706055,7.130000114440918,7.489999771118164,7.381627082824707,13900
2020-05-19,7.599999904632568,7.910999774932861,7.269999980926514,7.269999980926514,7.164810657501221,12100
2020-05-20,7.190000057220459,7.835000038146973,7.190000057220459,7.699999809265137,7.588588714599609,7400
2020-05-21,7.889999866485596,8.09000015258789,7.47599983215332,7.75,7.6378655433654785,5700
2020-05-22,7.935999870300293,8.050000190734863,7.730000019073486,7.989999771118164,7.874392509460449,5000
2020-05-26,8.0,8.0,7.599999904632568,7.659999847412109,7.549167633056641,8300
2020-05-27,7.739999771118164,7.739999771118164,7.099999904632568,7.300000190734863,7.1943769454956055,16100
2020-05-28,7.599999904632568,7.71999979019165,7.5,7.5,7.391482830047607,3500
2020-05-29,7.508999824523926,7.508999824523926,7.309999942779541,7.400000095367432,7.292929649353027,8400
2020-06-01,7.454999923706055,7.739999771118164,7.454999923706055,7.579999923706055,7.470324993133545,9800
2020-06-02,7.579999923706055,7.579999923706055,7.400000095367432,7.505000114440918,7.3964104652404785,6800
2020-06-03,7.479000091552734,7.489999771118164,7.25,7.360000133514404,7.253508567810059,4300
2020-06-04,7.5,8.380000114440918,7.494999885559082,8.0600004196167,7.943380355834961,39800
2020-06-05,8.300000190734863,8.649999618530273,8.069999694824219,8.210000038146973,8.091209411621094,39900
2020-06-08,8.720000267028809,8.720000267028809,8.180000305175781,8.369999885559082,8.248894691467285,13000
2020-06-09,8.050000190734863,8.289999961853027,7.800000190734863,7.800000190734863,7.687142372131348,15700
2020-06-10,8.039999961853027,8.039999961853027,7.28000020980835,7.369999885559082,7.263363361358643,11400
2020-06-11,7.170000076293945,7.230000019073486,6.445000171661377,6.809999942779541,6.711466312408447,48600
2020-06-12,7.380000114440918,7.448999881744385,6.849999904632568,7.130000114440918,7.026836395263672,12400
2020-06-15,6.989999771118164,7.375,6.956999778747559,7.1570000648498535,7.053445816040039,5000
2020-06-16,6.800000190734863,8.420000076293945,6.800000190734863,7.985000133514404,7.869465351104736,40200
2020-06-17,8.34000015258789,8.989999771118164,7.75,7.815000057220459,7.701925277709961,69700
2020-06-18,7.760000228881836,7.860000133514404,7.199999809265137,7.349999904632568,7.243652820587158,31300
2020-06-19,7.507999897003174,7.769999980926514,6.989999771118164,7.380000114440918,7.273219108581543,19200
2020-06-22,8.170000076293945,8.300000190734863,7.170000076293945,7.260000228881836,7.1549553871154785,37000
2020-06-23,7.53000020980835,7.6539998054504395,7.239999771118164,7.260000228881836,7.1549553871154785,19200
2020-06-24,7.199999809265137,7.239999771118164,6.820000171661377,6.96999979019165,6.8691511154174805,21500
2020-06-25,7.079999923706055,7.349999904632568,6.711999893188477,6.78000020980835,6.681900501251221,19100
2020-06-26,6.699999809265137,7.050000190734863,6.585000038146973,7.050000190734863,6.947993755340576,14800
2020-06-29,6.889999866485596,7.289999961853027,6.849999904632568,6.860000133514404,6.760743141174316,11100
2020-06-30,6.900000095367432,7.010000228881836,6.869999885559082,6.949999809265137,6.849440574645996,7100
2020-07-01,7.0,7.239999771118164,6.980000019073486,7.239999771118164,7.135244369506836,5500
2020-07-02,7.239999771118164,7.324999809265137,7.025000095367432,7.179999828338623,7.076112747192383,3200
2020-07-06,7.300000190734863,9.0600004196167,7.300000190734863,9.010000228881836,8.879634857177734,238900
2020-07-07,9.0,9.0,7.800000190734863,8.460000038146973,8.337592124938965,78400
2020-07-08,8.84000015258789,8.84000015258789,8.5,8.520000457763672,8.396724700927734,29700
2020-07-09,8.645999908447266,8.645999908447266,8.149999618530273,8.232999801635742,8.113876342773438,17700
2020-07-10,8.430000305175781,8.699999809265137,8.239999771118164,8.550000190734863,8.426290512084961,64800
2020-07-13,8.699999809265137,8.850000381469727,8.520000457763672,8.539999961853027,8.416435241699219,20900
2020-07-14,8.680000305175781,9.097999572753906,8.15999984741211,8.619999885559082,8.495277404785156,68900
2020-07-15,8.90999984741211,9.100000381469727,8.720000267028809,9.079999923706055,8.94862174987793,54000
2020-07-16,9.0,9.600000381469727,9.0,9.505999565124512,9.368457794189453,144600
2020-07-17,9.59000015258789,9.59000015258789,9.130000114440918,9.359999656677246,9.224570274353027,35100
2020-07-20,9.239999771118164,9.34000015258789,8.960000038146973,9.300000190734863,9.165438652038574,17100
2020-07-21,9.300000190734863,9.380000114440918,8.899999618530273,8.935999870300293,8.806705474853516,34300
2020-07-22,8.914999961853027,9.1899995803833,8.859999656677246,9.039999961853027,8.909200668334961,9800
2020-07-23,9.039999961853027,9.256999969482422,8.6899995803833,9.050000190734863,8.919055938720703,22700
2020-07-24,9.050000190734863,9.3100004196167,8.829999923706055,9.15999984741211,9.027463912963867,8200
2020-07-27,9.09000015258789,9.1899995803833,8.890000343322754,9.1899995803833,9.057029724121094,13200
2020-07-28,9.270000457763672,9.289999961853027,8.895000457763672,9.149999618530273,9.017608642578125,12000
2020-07-29,9.079999923706055,9.25,9.055000305175781,9.25,9.116162300109863,12900
2020-07-30,9.225000381469727,9.470000267028809,9.104999542236328,9.470000267028809,9.332979202270508,25700
2020-07-31,9.479999542236328,9.989999771118164,9.350000381469727,9.65999984741211,9.52022933959961,86900
2020-08-03,9.5600004196167,9.899999618530273,9.5600004196167,9.850000381469727,9.707481384277344,26900
2020-08-04,9.789999961853027,9.789999961853027,9.609999656677246,9.635000228881836,9.49559211730957,5700
2020-08-05,9.649999618530273,9.781000137329102,9.28499984741211,9.609999656677246,9.470952987670898,42800
2020-08-06,9.119999885559082,9.90999984741211,8.529999732971191,9.020000457763672,8.889490127563477,62000
2020-08-07,9.039999961853027,9.170000076293945,8.180000305175781,8.779999732971191,8.652961730957031,33300
2020-08-10,8.989999771118164,9.4399995803833,8.654999732971191,9.399999618530273,9.263991355895996,9800
2020-08-11,9.880000114440918,9.880000114440918,9.079999923706055,9.520000457763672,9.382255554199219,26300
2020-08-12,9.479999542236328,9.930000305175781,9.479999542236328,9.630000114440918,9.490663528442383,25000
2020-08-13,9.75,11.350000381469727,9.75,11.020000457763672,10.860552787780762,149400
2020-08-14,10.989999771118164,11.604999542236328,10.569999694824219,10.930000305175781,10.771854400634766,90900
2020-08-17,11.0,11.989999771118164,11.0,11.489999771118164,11.323751449584961,45700
2020-08-18,11.40999984741211,11.75,11.395000457763672,11.678000450134277,11.509032249450684,20700
2020-08-19,11.59000015258789,12.65999984741211,11.574999809265137,12.149999618530273,11.974201202392578,94200
2020-08-20,12.1899995803833,12.829999923706055,11.918999671936035,12.550000190734863,12.368414878845215,70700
2020-08-21,12.65999984741211,12.770000457763672,11.300000190734863,12.0,11.826372146606445,26500
2020-08-24,12.25,12.800000190734863,12.140000343322754,12.520000457763672,12.338849067687988,23600
2020-08-25,12.6899995803833,12.6899995803833,12.29699993133545,12.579999923706055,12.397980690002441,25300
2020-08-26,12.680000305175781,13.800000190734863,12.628000259399414,13.380000114440918,13.186405181884766,64500
2020-08-27,13.210000038146973,14.989999771118164,13.210000038146973,14.029999732971191,13.82699966430664,126900
2020-08-28,13.970000267028809,16.0,13.949999809265137,15.859999656677246,15.859999656677246,109800
2020-08-31,16.020000457763672,17.899999618530273,14.5,14.960000038146973,14.960000038146973,265300
2020-09-01,15.100000381469727,15.579999923706055,13.079999923706055,13.130000114440918,13.130000114440918,101000
2020-09-02,13.239999771118164,15.399999618530273,13.010000228881836,14.0,14.0,93300
2020-09-03,14.130000114440918,15.170000076293945,12.680000305175781,13.050000190734863,13.050000190734863,67300
2020-09-04,13.100000381469727,13.399999618530273,11.420000076293945,12.960000038146973,12.960000038146973,52000
2020-09-08,12.680000305175781,13.904999732971191,12.680000305175781,13.359999656677246,13.359999656677246,16100
2020-09-09,13.550000190734863,14.0,13.5,13.600000381469727,13.600000381469727,23200
2020-09-10,13.550000190734863,13.819999694824219,12.984000205993652,13.09000015258789,13.09000015258789,15100
2020-09-11,12.949999809265137,13.0600004196167,12.239999771118164,12.760000228881836,12.760000228881836,14500
2020-09-14,12.949999809265137,13.989999771118164,12.949999809265137,13.15999984741211,13.15999984741211,16400
2020-09-15,13.25,13.25,12.960000038146973,13.149999618530273,13.149999618530273,34200
2020-09-16,13.6899995803833,13.6899995803833,12.949999809265137,13.069999694824219,13.069999694824219,33000
2020-09-17,12.75,13.430000305175781,12.75,12.8100004196167,12.8100004196167,14600
2020-09-18,13.229999542236328,13.9399995803833,13.180000305175781,13.380000114440918,13.380000114440918,28600
2020-09-21,13.319999694824219,13.699999809265137,13.010000228881836,13.390000343322754,13.390000343322754,59800
2020-09-22,13.5,14.970000267028809,13.449999809265137,14.199999809265137,14.199999809265137,50900
2020-09-23,14.279999732971191,14.930000305175781,13.609999656677246,13.739999771118164,13.739999771118164,52100
2020-09-24,13.199999809265137,13.970000267028809,13.1899995803833,13.529999732971191,13.529999732971191,18800
2020-09-25,13.720000267028809,15.130000114440918,13.720000267028809,14.100000381469727,14.100000381469727,81100
2020-09-28,14.149999618530273,15.09000015258789,14.149999618530273,14.5,14.5,61600
2020-09-29,14.678999900817871,14.678999900817871,14.3100004196167,14.390000343322754,14.390000343322754,36100
2020-09-30,14.3100004196167,14.899999618530273,14.199999809265137,14.430000305175781,14.430000305175781,51700
2020-10-01,14.520000457763672,14.800000190734863,14.350000381469727,14.59000015258789,14.59000015258789,23800
2020-10-02,14.279999732971191,14.989999771118164,14.100000381469727,14.880000114440918,14.880000114440918,16100
2020-10-05,14.90999984741211,15.329999923706055,14.59000015258789,14.6899995803833,14.6899995803833,63400
2020-10-06,14.75,15.289999961853027,14.699999809265137,14.949999809265137,14.949999809265137,23600
2020-10-07,15.206999778747559,17.149999618530273,15.206999778747559,16.200000762939453,16.200000762939453,57000
2020-10-08,16.889999389648438,16.889999389648438,14.960000038146973,15.6899995803833,15.6899995803833,68300
2020-10-09,15.880000114440918,16.475000381469727,14.510000228881836,14.75,14.75,47300
2020-10-12,14.75,15.65999984741211,13.920000076293945,13.949999809265137,13.949999809265137,45800
2020-10-13,14.069999694824219,14.699999809265137,13.600000381469727,13.859999656677246,13.859999656677246,27400
2020-10-14,14.140000343322754,14.210000038146973,13.800000190734863,13.90999984741211,13.90999984741211,12200
2020-10-15,13.59000015258789,14.640000343322754,13.59000015258789,14.319999694824219,14.319999694824219,17000
2020-10-16,14.5,14.640000343322754,14.1899995803833,14.1899995803833,14.1899995803833,12100
2020-10-19,14.039999961853027,14.390000343322754,13.649999618530273,13.850000381469727,13.850000381469727,86500
2020-10-20,14.130000114440918,14.34000015258789,13.6899995803833,13.779999732971191,13.779999732971191,25100
2020-10-21,13.71500015258789,14.640000343322754,13.71500015258789,14.520000457763672,14.520000457763672,32700
2020-10-22,14.3100004196167,14.75,14.3100004196167,14.40999984741211,14.40999984741211,19500
2020-10-23,14.75,14.819999694824219,14.350000381469727,14.680000305175781,14.680000305175781,20400
2020-10-26,14.960000038146973,15.649999618530273,14.25,14.479999542236328,14.479999542236328,73200
2020-10-27,14.539999961853027,15.020000457763672,14.449000358581543,14.899999618530273,14.899999618530273,66500
2020-10-28,14.5,15.619999885559082,14.470000267028809,15.0,15.0,38200
2020-10-29,15.329999923706055,15.5,15.079999923706055,15.479999542236328,15.479999542236328,43600
2020-10-30,15.13599967956543,15.75,14.270000457763672,14.819999694824219,14.819999694824219,74900
2020-11-02,15.260000228881836,15.260000228881836,12.8100004196167,13.449999809265137,13.449999809265137,106100
2020-11-03,13.40999984741211,13.90999984741211,13.029999732971191,13.630000114440918,13.630000114440918,41300
2020-11-04,13.539999961853027,13.960000038146973,13.239999771118164,13.300000190734863,13.300000190734863,26000
2020-11-05,13.4399995803833,14.100000381469727,13.260000228881836,13.920000076293945,13.920000076293945,24900
2020-11-06,13.84000015258789,14.899999618530273,13.84000015258789,14.600000381469727,14.600000381469727,38700
2020-11-09,14.649999618530273,15.069999694824219,14.40999984741211,14.470000267028809,14.470000267028809,41300
2020-11-10,14.5,14.970000267028809,14.21500015258789,14.5,14.5,31500
2020-11-11,14.979999542236328,16.200000762939453,14.550000190734863,15.720000267028809,15.720000267028809,90700
2020-11-12,15.390000343322754,15.899999618530273,15.029999732971191,15.4399995803833,15.4399995803833,94200
2020-11-13,15.170000076293945,15.470000267028809,14.199999809265137,14.859999656677246,14.859999656677246,131500
2020-11-16,14.470000267028809,14.539999961853027,14.0,14.529999732971191,14.529999732971191,82400
2020-11-17,14.420000076293945,15.670000076293945,14.225000381469727,15.0600004196167,15.0600004196167,137900
2020-11-18,15.050000190734863,15.885000228881836,15.050000190734863,15.800000190734863,15.800000190734863,26000
2020-11-19,15.5600004196167,16.280000686645508,15.5600004196167,15.880000114440918,15.880000114440918,45100
2020-11-20,15.90999984741211,16.600000381469727,15.819999694824219,16.15999984741211,16.15999984741211,89500
2020-11-23,16.139999389648438,16.65999984741211,16.059999465942383,16.170000076293945,16.170000076293945,50600
2020-11-24,16.170000076293945,16.170000076293945,15.529999732971191,15.920000076293945,15.920000076293945,25200
2020-11-25,15.770000457763672,16.329999923706055,15.75,16.1299991607666,16.1299991607666,32700
2020-11-27,16.139999389648438,16.729999542236328,16.139999389648438,16.600000381469727,16.600000381469727,24900
2020-11-30,16.600000381469727,17.59000015258789,16.520000457763672,17.200000762939453,17.200000762939453,95000
2020-12-01,17.200000762939453,17.5,16.75,17.0,17.0,21900
2020-12-02,17.25,17.25,15.890000343322754,16.200000762939453,16.200000762939453,20200
2020-12-03,16.110000610351562,16.850000381469727,16.110000610351562,16.489999771118164,16.489999771118164,22400
2020-12-04,16.479999542236328,16.68000030517578,16.299999237060547,16.440000534057617,16.440000534057617,25500
2020-12-07,16.190000534057617,16.90999984741211,15.819999694824219,15.989999771118164,15.989999771118164,38100
2020-12-08,15.880000114440918,16.395000457763672,15.539999961853027,15.84000015258789,15.84000015258789,41100
2020-12-09,16.229999542236328,16.600000381469727,15.899999618530273,16.149999618530273,16.149999618530273,22900
2020-12-10,16.030000686645508,18.709999084472656,16.030000686645508,18.600000381469727,18.600000381469727,91200
2020-12-11,18.34000015258789,19.229999542236328,17.488000869750977,18.25,18.25,167300
2020-12-14,18.34000015258789,18.850000381469727,17.600000381469727,18.049999237060547,18.049999237060547,49100
2020-12-15,18.90999984741211,19.68000030517578,18.25,19.0,19.0,112500
2020-12-16,19.420000076293945,19.420000076293945,17.719999313354492,17.989999771118164,17.989999771118164,65800
2020-12-17,17.989999771118164,18.34000015258789,16.139999389648438,17.3799991607666,17.3799991607666,96800
2020-12-18,17.5,17.790000915527344,16.31999969482422,17.75,17.75,88100
2020-12-21,17.8700008392334,18.489999771118164,17.049999237060547,18.440000534057617,18.440000534057617,34100
2020-12-22,18.969999313354492,19.219999313354492,18.389999389648438,18.540000915527344,18.540000915527344,40100
2020-12-23,18.600000381469727,20.149999618530273,18.600000381469727,19.899999618530273,19.899999618530273,71600
2020-12-24,19.860000610351562,20.56999969482422,19.440000534057617,19.829999923706055,19.829999923706055,30400
2020-12-28,19.899999618530273,20.0,19.040000915527344,19.3799991607666,19.3799991607666,31700
2020-12-29,20.979999542236328,20.979999542236328,19.059999465942383,19.280000686645508,19.280000686645508,23000
2020-12-30,19.711999893188477,20.114999771118164,19.197999954223633,20.020000457763672,20.020000457763672,29800
