Date,Open,High,Low,Close,Adj Close,Volume
2019-05-24,29.75,32.0,28.5,29.0,27.938997268676758,44000
2019-05-28,29.25,30.5,28.510000228881836,28.764999389648438,27.71259307861328,61500
2019-05-29,29.899999618530273,29.899999618530273,27.65999984741211,28.5,27.457290649414062,207800
2019-05-30,28.989999771118164,29.15999984741211,28.219999313354492,28.799999237060547,27.746313095092773,666000
2019-05-31,28.5,28.59000015258789,26.969999313354492,26.969999313354492,25.983266830444336,853800
2019-06-03,26.540000915527344,27.0,24.3700008392334,24.809999465942383,23.902294158935547,19259600
2019-06-04,24.350000381469727,27.940000534057617,24.350000381469727,27.75,26.734731674194336,20135100
2019-06-05,27.540000915527344,28.219999313354492,26.459999084472656,28.010000228881836,26.985218048095703,10740200
2019-06-06,27.690000534057617,27.690000534057617,26.229999542236328,26.899999618530273,25.915828704833984,13986100
2019-06-07,26.170000076293945,26.93000030517578,25.71500015258789,26.309999465942383,25.347414016723633,10049100
2019-06-10,26.06999969482422,26.739999771118164,25.1200008392334,25.309999465942383,24.383996963500977,10247200
2019-06-11,25.010000228881836,25.360000610351562,24.530000686645508,24.950000762939453,24.037172317504883,11641200
2019-06-12,25.110000610351562,25.450000762939453,24.479999542236328,25.06999969482422,24.152782440185547,13392000
2019-06-13,25.059999465942383,25.190000534057617,24.700000762939453,24.969999313354492,24.056440353393555,9710800
2019-06-14,24.760000228881836,25.239999771118164,24.549999237060547,25.190000534057617,24.268388748168945,7036800
2019-06-17,25.530000686645508,26.899999618530273,25.450000762939453,25.950000762939453,25.000585556030273,13710100
2019-06-18,26.030000686645508,27.56999969482422,25.75,27.299999237060547,26.301189422607422,14485400
2019-06-19,27.479999542236328,27.479999542236328,26.8700008392334,27.149999618530273,26.156679153442383,10228800
2019-06-20,27.3700008392334,27.600000381469727,26.420000076293945,27.15999984741211,26.166316986083984,7728000
2019-06-21,26.8700008392334,27.709999084472656,26.8700008392334,27.209999084472656,26.2144832611084,12548900
2019-06-24,27.139999389648438,28.450000762939453,27.05299949645996,28.010000228881836,26.985218048095703,6494900
2019-06-25,28.020000457763672,28.09000015258789,27.479999542236328,27.670000076293945,26.657657623291016,6698600
2019-06-26,27.93000030517578,29.375,27.850000381469727,29.260000228881836,28.189485549926758,6735100
2019-06-27,29.3799991607666,30.329999923706055,29.260000228881836,29.56999969482422,28.488142013549805,5879600
2019-06-28,29.600000381469727,29.75,29.260000228881836,29.56999969482422,28.488142013549805,15517800
2019-07-01,29.579999923706055,30.75,28.950000762939453,29.68000030517578,28.5941219329834,5272900
2019-07-02,29.5,29.600000381469727,28.139999389648438,28.989999771118164,27.929365158081055,5438300
2019-07-03,28.780000686645508,28.899999618530273,28.200000762939453,28.799999237060547,27.746313095092773,2234900
2019-07-05,28.450000762939453,29.31999969482422,28.260000228881836,28.639999389648438,27.592166900634766,2888200
2019-07-08,28.389999389648438,28.389999389648438,27.639999389648438,27.770000457763672,26.753999710083008,3478600
2019-07-09,27.469999313354492,27.770000457763672,26.829999923706055,26.989999771118164,26.002534866333008,5285700
2019-07-10,26.809999465942383,27.0,26.440000534057617,26.5,25.53046226501465,5133700
2019-07-11,26.549999237060547,26.799999237060547,25.959999084472656,26.43000030517578,25.463024139404297,6066200
2019-07-12,26.420000076293945,27.729999542236328,26.260000228881836,27.600000381469727,26.59021759033203,5154500
2019-07-15,27.40999984741211,28.270000457763672,27.399999618530273,28.079999923706055,27.052656173706055,3443100
2019-07-16,27.93000030517578,28.5,27.71500015258789,27.860000610351562,26.8407039642334,3735900
2019-07-17,27.600000381469727,27.709999084472656,26.850000381469727,26.8799991607666,25.896556854248047,3999300
2019-07-18,26.579999923706055,26.979999542236328,26.413000106811523,26.649999618530273,25.674972534179688,3009800
2019-07-19,26.790000915527344,27.479999542236328,26.639999389648438,27.389999389648438,26.387901306152344,4694800
2019-07-22,27.34000015258789,27.850000381469727,27.209999084472656,27.760000228881836,26.74436378479004,2546100
2019-07-23,27.649999618530273,28.479999542236328,27.450000762939453,28.1200008392334,27.0911922454834,2921400
2019-07-24,27.770000457763672,28.520000457763672,27.6299991607666,28.31999969482422,27.283872604370117,2311800
2019-07-25,28.100000381469727,28.399999618530273,27.75,28.020000457763672,26.994853973388672,3532200
2019-07-26,27.719999313354492,28.524999618530273,27.649999618530273,28.479999542236328,27.438020706176758,3052700
2019-07-29,28.360000610351562,28.950000762939453,28.31999969482422,28.780000686645508,27.727046966552734,6245200
2019-07-30,28.0,29.290000915527344,27.799999237060547,29.1299991607666,28.19158172607422,7142300
2019-07-31,29.100000381469727,30.149999618530273,28.709999084472656,29.5,28.54966163635254,7662000
2019-08-01,29.5,32.779998779296875,29.309999465942383,31.25,30.243288040161133,11564200
2019-08-02,30.940000534057617,31.540000915527344,30.850000381469727,31.459999084472656,30.446521759033203,7305800
2019-08-05,30.6299991607666,30.969999313354492,29.639999389648438,29.899999618530273,28.93677520751953,5552500
2019-08-06,30.059999465942383,30.219999313354492,29.469999313354492,30.049999237060547,29.08194351196289,5355900
2019-08-07,29.579999923706055,30.829999923706055,29.43000030517578,30.639999389648438,29.652936935424805,4925200
2019-08-08,30.709999084472656,31.790000915527344,30.670000076293945,31.610000610351562,30.591690063476562,3962600
2019-08-09,31.940000534057617,32.0,31.219999313354492,31.6299991607666,30.61104393005371,4753200
2019-08-12,31.489999771118164,31.829999923706055,29.510000228881836,29.6299991607666,28.67547607421875,7112500
2019-08-13,29.329999923706055,30.149999618530273,29.190000534057617,29.600000381469727,28.646440505981445,6855400
2019-08-14,29.1200008392334,29.360000610351562,28.280000686645508,28.34000015258789,27.427034378051758,4580100
2019-08-15,28.93000030517578,29.229999542236328,27.93000030517578,28.420000076293945,27.504457473754883,3561600
2019-08-16,28.690000534057617,30.309999465942383,28.559999465942383,30.239999771118164,29.265825271606445,4285100
2019-08-19,30.75,30.84000015258789,30.25,30.56999969482422,29.58519172668457,4207300
2019-08-20,30.6200008392334,30.68000030517578,30.09000015258789,30.260000228881836,29.285179138183594,3073700
2019-08-21,30.299999237060547,30.979999542236328,30.280000686645508,30.579999923706055,29.594873428344727,2815400
2019-08-22,30.780000686645508,30.950000762939453,30.209999084472656,30.290000915527344,29.3142147064209,3351400
2019-08-23,29.799999237060547,30.15999984741211,28.809999465942383,29.049999237060547,28.114158630371094,3911600
2019-08-26,29.350000381469727,29.475000381469727,28.670000076293945,29.020000457763672,28.085126876831055,3479800
2019-08-27,29.149999618530273,29.43000030517578,28.53499984741211,28.729999542236328,27.804468154907227,3528400
2019-08-28,28.479999542236328,29.530000686645508,28.309999465942383,29.170000076293945,28.23029327392578,5091800
2019-08-29,29.549999237060547,30.22800064086914,29.520000457763672,29.709999084472656,28.752897262573242,3135600
2019-08-30,30.0,30.030000686645508,29.260000228881836,29.31999969482422,28.375459671020508,5220200
2019-09-03,28.989999771118164,29.100000381469727,28.0,28.229999542236328,27.320575714111328,3279100
2019-09-04,28.6200008392334,28.84000015258789,28.170000076293945,28.43000030517578,27.51413345336914,2962100
2019-09-05,28.739999771118164,28.989999771118164,27.950000762939453,28.459999084472656,27.54316520690918,4972700
2019-09-06,28.450000762939453,28.809999465942383,27.889999389648438,28.389999389648438,27.475419998168945,5140000
2019-09-09,28.350000381469727,28.81999969482422,28.020000457763672,28.75,27.823822021484375,4661000
2019-09-10,28.700000762939453,29.1299991607666,28.139999389648438,28.559999465942383,27.639944076538086,3682900
2019-09-11,28.5,29.299999237060547,28.110000610351562,29.270000457763672,28.327072143554688,3033600
2019-09-12,29.5,30.09000015258789,28.899999618530273,29.899999618530273,28.93677520751953,7967600
2019-09-13,30.040000915527344,30.350000381469727,29.899999618530273,30.1200008392334,29.149686813354492,4919600
2019-09-16,30.049999237060547,30.059999465942383,28.84000015258789,29.399999618530273,28.452884674072266,3300700
2019-09-17,29.31999969482422,29.469999313354492,28.959999084472656,28.979999542236328,28.046415328979492,4118200
2019-09-18,28.75,29.459999084472656,28.75,29.149999618530273,28.210935592651367,3606000
2019-09-19,29.260000228881836,29.709999084472656,29.059999465942383,29.139999389648438,28.20125961303711,3222400
2019-09-20,29.350000381469727,29.56999969482422,28.850000381469727,28.920000076293945,27.98834800720215,6865000
2019-09-23,28.639999389648438,29.0,28.44499969482422,28.8799991607666,27.94963264465332,3314300
2019-09-24,28.709999084472656,28.989999771118164,27.961000442504883,28.239999771118164,27.33025360107422,2840500
2019-09-25,28.219999313354492,28.5,27.770000457763672,28.200000762939453,27.291542053222656,3154200
2019-09-26,28.110000610351562,28.200000762939453,27.489999771118164,27.639999389648438,26.74958038330078,3532100
2019-09-27,27.549999237060547,28.229999542236328,27.309999465942383,27.799999237060547,26.9044246673584,4534900
2019-09-30,27.899999618530273,28.350000381469727,27.760000228881836,28.0,27.09798240661621,6245000
2019-10-01,28.030000686645508,28.3799991607666,27.229999542236328,27.549999237060547,26.6624813079834,5843200
2019-10-02,27.149999618530273,27.670000076293945,26.6200008392334,26.940000534057617,26.072134017944336,5181600
2019-10-03,26.90999984741211,27.15999984741211,26.510000228881836,26.8799991607666,26.014062881469727,3622400
2019-10-04,27.0,27.038000106811523,25.801000595092773,25.889999389648438,25.05595588684082,4851400
2019-10-07,26.0,26.469999313354492,25.729999542236328,26.0,25.162412643432617,5474100
2019-10-08,25.639999389648438,26.43000030517578,25.59000015258789,26.219999313354492,25.375328063964844,6214200
2019-10-09,26.790000915527344,26.829999923706055,25.739999771118164,26.170000076293945,25.326940536499023,3916700
2019-10-10,26.170000076293945,26.719999313354492,25.709999084472656,25.729999542236328,24.901111602783203,3003300
2019-10-11,26.100000381469727,27.1200008392334,25.989999771118164,26.65999984741211,25.801151275634766,4555600
2019-10-14,26.399999618530273,26.770000457763672,26.200000762939453,26.329999923706055,25.481781005859375,3064900
2019-10-15,26.219999313354492,27.09000015258789,26.065000534057617,26.700000762939453,25.839866638183594,3826500
2019-10-16,26.350000381469727,27.229999542236328,26.290000915527344,26.8700008392334,26.0043888092041,3023500
2019-10-17,27.049999237060547,27.209999084472656,26.65999984741211,26.770000457763672,25.907608032226562,2196500
2019-10-18,26.600000381469727,26.639999389648438,25.639999389648438,26.040000915527344,25.201126098632812,4332300
2019-10-21,26.290000915527344,26.579999923706055,25.43000030517578,25.5,24.67852210998535,3318300
2019-10-22,25.510000228881836,26.049999237060547,25.229999542236328,25.979999542236328,25.1430606842041,4166600
2019-10-23,25.889999389648438,26.020000457763672,25.21500015258789,25.610000610351562,24.784976959228516,4140000
2019-10-24,25.6299991607666,26.549999237060547,25.5,26.3700008392334,25.520496368408203,5359700
2019-10-25,26.3700008392334,26.959999084472656,26.239999771118164,26.729999542236328,25.868898391723633,2676900
2019-10-28,26.790000915527344,27.139999389648438,26.600000381469727,26.770000457763672,25.907608032226562,2943500
2019-10-29,26.510000228881836,27.239999771118164,26.420000076293945,26.780000686645508,25.917285919189453,2837000
2019-10-30,27.049999237060547,27.59000015258789,26.90999984741211,27.479999542236328,26.594736099243164,5993500
2019-10-31,26.5,27.479999542236328,25.25,26.3799991607666,25.530170440673828,7084400
2019-11-01,26.18000030517578,26.600000381469727,25.510000228881836,26.18000030517578,25.33661460876465,10081500
2019-11-04,26.170000076293945,26.420000076293945,25.649999618530273,25.739999771118164,24.91078758239746,8316200
2019-11-05,25.479999542236328,26.030000686645508,24.760000228881836,25.65999984741211,24.8333683013916,8240500
2019-11-06,25.81999969482422,26.31999969482422,25.719999313354492,26.1299991607666,25.288227081298828,6560000
2019-11-07,26.469999313354492,26.479999542236328,26.1200008392334,26.149999618530273,25.307580947875977,4554200
2019-11-08,26.100000381469727,26.363000869750977,25.90999984741211,26.200000762939453,25.355972290039062,2998800
2019-11-11,26.040000915527344,26.739999771118164,25.690000534057617,26.739999771118164,25.878576278686523,3258300
2019-11-12,26.93000030517578,27.239999771118164,26.530000686645508,26.719999313354492,25.85921859741211,4665500
2019-11-13,26.5,26.540000915527344,25.459999084472656,25.719999313354492,24.891437530517578,3759900
2019-11-14,25.709999084472656,26.860000610351562,25.709999084472656,26.3799991607666,25.530170440673828,7274500
2019-11-15,26.56999969482422,26.6200008392334,25.434999465942383,25.479999542236328,24.659168243408203,4788600
2019-11-18,25.5,25.764999389648438,25.360000610351562,25.479999542236328,24.659168243408203,4656400
2019-11-19,25.549999237060547,25.924999237060547,25.309999465942383,25.700000762939453,24.87207794189453,4135100
2019-11-20,25.6200008392334,25.700000762939453,24.915000915527344,24.979999542236328,24.175270080566406,4531200
2019-11-21,24.969999313354492,25.40999984741211,24.93000030517578,25.110000610351562,24.30108642578125,4165700
2019-11-22,25.030000686645508,25.575000762939453,25.030000686645508,25.540000915527344,24.71723175048828,11212400
2019-11-25,25.739999771118164,26.110000610351562,25.649999618530273,25.93000030517578,25.094669342041016,6107900
2019-11-26,25.780000686645508,26.204999923706055,25.700000762939453,25.8799991607666,25.046279907226562,7580900
2019-11-27,25.770000457763672,26.219999313354492,25.68000030517578,26.049999237060547,25.338077545166016,6745600
2019-11-29,25.969999313354492,26.079999923706055,25.549999237060547,26.020000457763672,25.308900833129883,8233100
2019-12-02,26.030000686645508,26.139999389648438,25.040000915527344,25.18000030517578,24.491859436035156,7232800
2019-12-03,24.81999969482422,24.8700008392334,24.299999237060547,24.649999618530273,23.976343154907227,8645000
2019-12-04,24.899999618530273,25.211999893188477,24.6200008392334,24.84000015258789,24.161149978637695,13263000
2019-12-05,24.969999313354492,25.09000015258789,24.100000381469727,24.81999969482422,24.14169692993164,7510700
2019-12-06,25.0,25.559999465942383,24.940000534057617,25.260000228881836,24.56967544555664,5835800
2019-12-09,25.469999313354492,26.1299991607666,25.395000457763672,25.770000457763672,25.06573486328125,6603500
2019-12-10,25.690000534057617,25.8799991607666,25.420000076293945,25.8700008392334,25.163002014160156,5134600
2019-12-11,25.889999389648438,26.270000457763672,25.829999923706055,26.200000762939453,25.483983993530273,5215000
2019-12-12,26.1200008392334,27.075000762939453,26.0,26.979999542236328,26.242664337158203,4930200
2019-12-13,26.979999542236328,27.149999618530273,26.459999084472656,26.489999771118164,25.76605987548828,6268800
2019-12-16,26.940000534057617,27.559999465942383,26.850000381469727,27.549999237060547,26.797086715698242,9527400
2019-12-17,27.260000228881836,27.549999237060547,26.579999923706055,26.770000457763672,26.038402557373047,9227900
2019-12-18,26.709999084472656,27.940000534057617,26.489999771118164,27.81999969482422,27.059709548950195,13869000
2019-12-19,27.739999771118164,28.270000457763672,27.459999084472656,27.709999084472656,26.952713012695312,11975100
2019-12-20,27.68000030517578,28.25,27.440000534057617,28.18000030517578,27.40987205505371,30573900
2019-12-23,28.190000534057617,28.7450008392334,28.100000381469727,28.65999984741211,27.876752853393555,5970800
2019-12-24,28.600000381469727,29.040000915527344,28.3799991607666,28.809999465942383,28.02265167236328,1698400
2019-12-26,28.68000030517578,29.200000762939453,28.6299991607666,29.190000534057617,28.39227294921875,2599300
2019-12-27,29.200000762939453,29.280000686645508,28.979999542236328,29.139999389648438,28.34363555908203,2738200
2019-12-30,29.1299991607666,29.229999542236328,28.790000915527344,28.860000610351562,28.071287155151367,2795600
2019-12-31,28.850000381469727,29.59000015258789,28.809999465942383,29.559999465942383,28.75215721130371,3414500
2020-01-02,29.809999465942383,29.809999465942383,28.719999313354492,28.739999771118164,27.954565048217773,6896100
2020-01-03,28.420000076293945,28.899999618530273,28.360000610351562,28.399999618530273,27.623857498168945,5611400
2020-01-06,28.079999923706055,28.500999450683594,27.975000381469727,28.360000610351562,27.58495330810547,6972800
2020-01-07,28.309999465942383,28.719999313354492,28.170000076293945,28.469999313354492,27.691946029663086,6014800
2020-01-08,28.5,28.780000686645508,28.100000381469727,28.700000762939453,27.915660858154297,3684500
2020-01-09,28.799999237060547,28.850000381469727,28.3799991607666,28.729999542236328,27.944839477539062,3703200
2020-01-10,28.809999465942383,28.93000030517578,28.31999969482422,28.350000381469727,27.575227737426758,4498700
2020-01-13,28.34000015258789,28.600000381469727,28.155000686645508,28.579999923706055,27.798940658569336,4735100
2020-01-14,28.559999465942383,28.790000915527344,28.299999237060547,28.639999389648438,27.8572998046875,5370600
2020-01-15,28.649999618530273,28.889999389648438,28.475000381469727,28.68000030517578,27.896207809448242,6336800
2020-01-16,28.770000457763672,29.260000228881836,28.524999618530273,29.219999313354492,28.421449661254883,5847900
2020-01-17,28.459999084472656,28.6299991607666,27.6299991607666,28.299999237060547,27.52659034729004,8668600
2020-01-21,28.059999465942383,28.350000381469727,27.709999084472656,27.81999969482422,27.059709548950195,5514000
2020-01-22,27.81999969482422,28.25,27.5,28.15999984741211,27.390417098999023,8672900
2020-01-23,28.010000228881836,28.510000228881836,27.510000228881836,28.450000762939453,27.67249298095703,4139400
2020-01-24,28.309999465942383,28.354999542236328,27.709999084472656,27.950000762939453,27.186159133911133,4996200
2020-01-27,27.229999542236328,27.530000686645508,26.969999313354492,27.15999984741211,26.417747497558594,4195000
2020-01-28,27.299999237060547,27.579999923706055,27.0,27.559999465942383,26.806814193725586,5618800
2020-01-29,27.549999237060547,27.989999771118164,27.510000228881836,27.799999237060547,27.040254592895508,3499600
2020-01-30,27.940000534057617,29.44700050354004,27.600000381469727,29.239999771118164,28.440900802612305,9762200
2020-01-31,28.780000686645508,29.149999618530273,28.459999084472656,28.920000076293945,28.129648208618164,6788300
2020-02-03,29.059999465942383,30.260000228881836,28.81999969482422,30.1200008392334,29.296850204467773,9430800
2020-02-04,30.610000610351562,31.110000610351562,30.045000076293945,30.950000762939453,30.104169845581055,5853400
2020-02-05,30.31999969482422,31.709999084472656,29.690000534057617,31.709999084472656,30.843399047851562,5745300
2020-02-06,32.0,32.06999969482422,31.299999237060547,31.59000015258789,30.72667694091797,6383600
2020-02-07,31.40999984741211,31.43000030517578,30.795000076293945,31.040000915527344,30.191713333129883,3716100
2020-02-10,30.739999771118164,31.014999389648438,30.46500015258789,30.600000381469727,29.763734817504883,3416600
2020-02-11,30.65999984741211,31.350000381469727,30.40999984741211,30.510000228881836,29.676198959350586,3705400
2020-02-12,30.739999771118164,31.09000015258789,30.649999618530273,30.940000534057617,30.094444274902344,3023400
2020-02-13,30.68000030517578,31.040000915527344,30.454999923706055,30.600000381469727,29.763734817504883,4543000
2020-02-14,30.65999984741211,30.93000030517578,30.579999923706055,30.709999084472656,29.8707275390625,3895500
2020-02-18,30.68000030517578,31.479999542236328,30.610000610351562,31.399999618530273,30.541868209838867,3524700
2020-02-19,31.399999618530273,31.799999237060547,31.219999313354492,31.520000457763672,30.658594131469727,3042600
2020-02-20,31.3700008392334,32.08000183105469,31.31999969482422,31.56999969482422,30.707225799560547,2460300
2020-02-21,31.350000381469727,31.670000076293945,31.18000030517578,31.219999313354492,30.366788864135742,3955200
2020-02-24,30.469999313354492,30.889999389648438,30.270000457763672,30.65999984741211,29.822097778320312,3441300
2020-02-25,30.6200008392334,30.81999969482422,28.229999542236328,28.3799991607666,27.60440444946289,5045600
2020-02-26,28.40999984741211,29.33300018310547,28.31999969482422,28.5,27.721126556396484,4157900
2020-02-27,28.1200008392334,28.670000076293945,27.239999771118164,27.290000915527344,26.544191360473633,4702500
2020-02-28,26.530000686645508,27.200000762939453,25.860000610351562,27.200000762939453,26.456653594970703,9732700
2020-03-02,27.270000457763672,28.260000228881836,26.86199951171875,28.239999771118164,27.600143432617188,7440100
2020-03-03,28.479999542236328,29.260000228881836,27.489999771118164,27.920000076293945,27.287391662597656,8503900
2020-03-04,28.190000534057617,28.920000076293945,27.809999465942383,28.899999618530273,28.245187759399414,6341400
2020-03-05,28.0,28.424999237060547,27.15999984741211,27.309999465942383,26.69121742248535,3974300
2020-03-06,26.520000457763672,26.579999923706055,24.920000076293945,25.299999237060547,24.72675895690918,5843700
2020-03-09,23.280000686645508,24.31999969482422,22.8700008392334,23.06999969482422,22.547285079956055,7758500
2020-03-10,24.399999618530273,25.989999771118164,23.8799991607666,25.90999984741211,25.322935104370117,6696200
2020-03-11,25.010000228881836,25.65999984741211,24.450000762939453,25.0,24.43355369567871,6382300
2020-03-12,22.8700008392334,24.950000762939453,22.260000228881836,22.34000015258789,21.833826065063477,6448100
2020-03-13,23.829999923706055,25.0,21.549999237060547,24.81999969482422,24.25763511657715,7214500
2020-03-16,21.510000228881836,23.34000015258789,20.565000534057617,20.739999771118164,20.270076751708984,6308300
2020-03-17,21.229999542236328,24.139999389648438,20.719999313354492,22.670000076293945,22.156349182128906,7555300
2020-03-18,21.079999923706055,23.399999618530273,20.3799991607666,21.56999969482422,21.081270217895508,7526200
2020-03-19,21.18000030517578,24.799999237060547,20.540000915527344,23.260000228881836,22.73297882080078,5291400
2020-03-20,23.200000762939453,23.239999771118164,21.110000610351562,22.530000686645508,22.019519805908203,10607100
2020-03-23,22.219999313354492,23.52899932861328,21.420000076293945,21.920000076293945,21.42333984375,8693500
2020-03-24,23.010000228881836,23.969999313354492,21.5,22.329999923706055,21.824052810668945,8305600
2020-03-25,22.75,25.139999389648438,22.139999389648438,23.399999618530273,22.869808197021484,5823500
2020-03-26,23.110000610351562,24.850000381469727,22.885000228881836,24.139999389648438,23.593040466308594,7085600
2020-03-27,23.110000610351562,24.809999465942383,22.665000915527344,23.209999084472656,22.684114456176758,4538800
2020-03-30,23.280000686645508,24.31999969482422,22.90999984741211,24.09000015258789,23.544174194335938,4469500
2020-03-31,24.229999542236328,24.56999969482422,23.350000381469727,23.5,22.967540740966797,4090400
2020-04-01,23.25,23.600000381469727,22.350000381469727,22.510000228881836,21.99997329711914,6706600
2020-04-02,22.850000381469727,23.43000030517578,21.816999435424805,22.239999771118164,21.7360897064209,6302000
2020-04-03,22.209999084472656,23.049999237060547,22.1200008392334,22.6200008392334,22.107481002807617,5961100
2020-04-06,23.5,24.57200050354004,23.219999313354492,24.260000228881836,23.710323333740234,6132500
2020-04-07,25.0,25.93000030517578,24.350000381469727,24.530000686645508,23.974205017089844,5777100
2020-04-08,24.549999237060547,26.170000076293945,24.40999984741211,26.049999237060547,25.459760665893555,4231800
2020-04-09,26.200000762939453,28.06999969482422,26.200000762939453,27.93000030517578,27.297164916992188,6076900
2020-04-13,27.31999969482422,27.489999771118164,25.899999618530273,26.559999465942383,25.958208084106445,3453900
2020-04-14,27.59000015258789,27.844999313354492,26.040000915527344,26.440000534057617,25.840927124023438,2853300
2020-04-15,26.06999969482422,26.149999618530273,24.614999771118164,25.510000228881836,24.93199920654297,2927100
2020-04-16,25.3799991607666,25.743999481201172,24.579999923706055,25.15999984741211,24.589929580688477,2663500
2020-04-17,25.940000534057617,26.315000534057617,24.920000076293945,25.510000228881836,24.93199920654297,5696900
2020-04-20,25.860000610351562,25.860000610351562,24.56999969482422,24.6299991607666,24.071937561035156,4242500
2020-04-21,24.010000228881836,24.950000762939453,23.860000610351562,24.270000457763672,23.720096588134766,5773900
2020-04-22,24.75,25.21500015258789,24.290000915527344,24.940000534057617,24.374916076660156,3936700
2020-04-23,25.280000686645508,25.84000015258789,25.010000228881836,25.399999618530273,24.82448959350586,2754500
2020-04-24,25.579999923706055,26.68000030517578,25.3799991607666,26.270000457763672,25.674781799316406,3851300
2020-04-27,26.329999923706055,26.559999465942383,25.510000228881836,25.559999465942383,24.980865478515625,4908800
2020-04-28,26.149999618530273,26.514999389648438,25.809999465942383,26.190000534057617,25.59659194946289,3812800
2020-04-29,26.81999969482422,27.260000228881836,26.459999084472656,27.049999237060547,26.437105178833008,2008800
2020-04-30,26.700000762939453,26.700000762939453,25.860000610351562,26.190000534057617,25.59659194946289,2678300
2020-05-01,25.829999923706055,25.829999923706055,25.09000015258789,25.489999771118164,24.912450790405273,2457600
2020-05-04,25.149999618530273,25.459999084472656,24.81800079345703,25.420000076293945,24.844036102294922,4121600
2020-05-05,25.399999618530273,26.510000228881836,25.209999084472656,26.18000030517578,25.586816787719727,2412300
2020-05-06,26.190000534057617,26.729999542236328,25.010000228881836,25.010000228881836,24.443326950073242,3304300
2020-05-07,25.969999313354492,27.25,25.969999313354492,26.450000762939453,25.8507022857666,4475300
2020-05-08,26.719999313354492,26.969999313354492,25.459999084472656,25.979999542236328,25.39134979248047,4765100
2020-05-11,25.100000381469727,25.149999618530273,24.290000915527344,24.3799991607666,23.827600479125977,6871900
2020-05-12,24.290000915527344,24.450000762939453,23.219999313354492,23.25,22.72320556640625,4881100
2020-05-13,23.149999618530273,23.399999618530273,22.3799991607666,23.270000457763672,22.742753982543945,4581500
2020-05-14,22.770000457763672,23.360000610351562,22.3799991607666,23.31999969482422,22.919660568237305,3357400
2020-05-15,23.200000762939453,23.270000457763672,22.6200008392334,22.770000457763672,22.379104614257812,3601200
2020-05-18,23.690000534057617,24.280000686645508,23.040000915527344,24.010000228881836,23.59781837463379,5834600
2020-05-19,24.110000610351562,24.3799991607666,23.59000015258789,23.989999771118164,23.578163146972656,6195900
2020-05-20,24.68000030517578,25.604999542236328,24.649999618530273,25.09000015258789,24.659276962280273,4719600
2020-05-21,24.940000534057617,25.479999542236328,24.510000228881836,24.549999237060547,24.1285457611084,4021000
2020-05-22,24.5,24.670000076293945,24.25,24.540000915527344,24.118717193603516,3830600
2020-05-26,25.43000030517578,26.059999465942383,25.200000762939453,25.639999389648438,25.199832916259766,3797800
2020-05-27,25.889999389648438,26.174999237060547,25.459999084472656,25.799999237060547,25.357086181640625,5831000
2020-05-28,26.260000228881836,27.469999313354492,25.920000076293945,26.989999771118164,26.526657104492188,4069200
2020-05-29,26.729999542236328,27.43000030517578,26.709999084472656,27.309999465942383,26.84116554260254,6293700
2020-06-01,27.100000381469727,27.25,26.5,26.81999969482422,26.359577178955078,3167100
2020-06-02,26.93000030517578,28.030000686645508,26.75,28.010000228881836,27.529150009155273,4302500
2020-06-03,28.170000076293945,28.950000762939453,28.149999618530273,28.5,28.0107364654541,3287700
2020-06-04,28.799999237060547,30.18000030517578,28.6299991607666,30.170000076293945,29.652067184448242,6759100
2020-06-05,31.0,31.690000534057617,30.489999771118164,30.649999618530273,30.12382698059082,4189400
2020-06-08,29.690000534057617,30.81999969482422,29.309999465942383,30.010000228881836,29.494813919067383,4850400
2020-06-09,29.639999389648438,29.96500015258789,29.079999923706055,29.59000015258789,29.08202362060547,5365200
2020-06-10,29.479999542236328,30.1299991607666,29.139999389648438,29.139999389648438,28.639747619628906,4184300
2020-06-11,28.43000030517578,28.440000534057617,27.020000457763672,27.100000381469727,26.6347713470459,5928500
2020-06-12,28.440000534057617,28.489999771118164,27.200000762939453,27.540000915527344,27.067218780517578,3843900
2020-06-15,26.739999771118164,27.110000610351562,26.520000457763672,26.770000457763672,26.310436248779297,5109000
2020-06-16,28.3799991607666,28.719999313354492,27.450000762939453,27.81999969482422,27.342409133911133,8797100
2020-06-17,27.770000457763672,27.889999389648438,27.06999969482422,27.350000381469727,26.880477905273438,5295300
2020-06-18,27.350000381469727,27.56999969482422,27.209999084472656,27.479999542236328,27.008243560791016,4402000
2020-06-19,27.989999771118164,27.989999771118164,26.729999542236328,27.1299991607666,26.66425323486328,6693100
2020-06-22,26.969999313354492,27.649999618530273,26.510000228881836,27.579999923706055,27.106529235839844,3936700
2020-06-23,27.84000015258789,27.90999984741211,27.3700008392334,27.420000076293945,26.949275970458984,3022700
2020-06-24,26.8700008392334,26.920000076293945,26.030000686645508,26.06999969482422,25.622451782226562,3985000
2020-06-25,25.979999542236328,26.3700008392334,25.719999313354492,26.200000762939453,25.750219345092773,5600200
2020-06-26,26.110000610351562,26.15999984741211,25.53499984741211,25.920000076293945,25.475027084350586,4319200
2020-06-29,26.350000381469727,26.6299991607666,26.040000915527344,26.139999389648438,25.69124984741211,3931000
2020-06-30,26.1200008392334,27.079999923706055,25.799999237060547,26.790000915527344,26.33009147644043,4590500
2020-07-01,26.950000762939453,27.399999618530273,26.459999084472656,27.040000915527344,26.575801849365234,4838000
2020-07-02,27.3799991607666,28.110000610351562,27.3799991607666,27.56999969482422,27.09670066833496,3766400
2020-07-06,28.219999313354492,28.219999313354492,27.079999923706055,27.530000686645508,27.057390213012695,3668300
2020-07-07,27.270000457763672,27.270000457763672,26.899999618530273,27.139999389648438,26.674081802368164,5931800
2020-07-08,27.079999923706055,27.1299991607666,25.440000534057617,25.860000610351562,25.416059494018555,5560400
2020-07-09,26.030000686645508,26.05500030517578,25.440000534057617,25.75,25.307945251464844,4392200
2020-07-10,25.829999923706055,26.6200008392334,25.700000762939453,26.6200008392334,26.16301155090332,2464100
2020-07-13,27.110000610351562,27.18000030517578,26.600000381469727,26.84000015258789,26.379234313964844,2782600
2020-07-14,26.670000076293945,27.239999771118164,26.510000228881836,27.079999923706055,26.6151123046875,8445800
2020-07-15,27.860000610351562,28.049999237060547,27.420000076293945,27.940000534057617,27.460351943969727,2994200
2020-07-16,27.75,28.2549991607666,27.71500015258789,27.920000076293945,27.440690994262695,1977300
2020-07-17,28.059999465942383,28.43000030517578,27.75,28.350000381469727,27.863313674926758,2704500
2020-07-20,28.1299991607666,28.260000228881836,27.719999313354492,27.719999313354492,27.244125366210938,1677300
2020-07-21,27.860000610351562,28.450000762939453,27.860000610351562,28.350000381469727,27.863313674926758,3064200
2020-07-22,28.040000915527344,28.68000030517578,28.040000915527344,28.65999984741211,28.16798973083496,1954200
2020-07-23,28.469999313354492,28.920000076293945,28.325000762939453,28.670000076293945,28.17781639099121,2428200
2020-07-24,28.739999771118164,28.809999465942383,28.309999465942383,28.520000457763672,28.030391693115234,1877400
2020-07-27,28.559999465942383,29.0,28.479999542236328,28.809999465942383,28.315414428710938,2683100
2020-07-28,28.65999984741211,28.760000228881836,28.1299991607666,28.190000534057617,27.706056594848633,3500600
2020-07-29,28.1299991607666,28.829999923706055,28.1299991607666,28.809999465942383,28.315414428710938,2840200
2020-07-30,28.219999313354492,28.530000686645508,27.790000915527344,28.479999542236328,27.991077423095703,3311900
2020-07-31,28.399999618530273,28.700000762939453,28.020000457763672,28.559999465942383,28.0697078704834,7305100
2020-08-03,28.780000686645508,28.899999618530273,28.469999313354492,28.520000457763672,28.030391693115234,3600600
2020-08-04,28.5,28.99799919128418,28.43000030517578,28.709999084472656,28.21712875366211,4663400
2020-08-05,29.0,29.139999389648438,28.549999237060547,28.549999237060547,28.059877395629883,5502300
2020-08-06,26.8799991607666,27.25,25.219999313354492,25.420000076293945,24.98360824584961,11668200
2020-08-07,25.34000015258789,25.5,24.829999923706055,25.31999969482422,24.885326385498047,7460000
2020-08-10,25.040000915527344,25.6299991607666,24.979999542236328,25.420000076293945,24.98360824584961,8355800
2020-08-11,25.889999389648438,27.030000686645508,25.7450008392334,26.780000686645508,26.32026481628418,8120000
2020-08-12,27.200000762939453,27.299999237060547,26.1299991607666,26.360000610351562,25.907474517822266,5139300
2020-08-13,26.329999923706055,27.0,26.079999923706055,26.920000076293945,26.5889892578125,9040600
2020-08-14,26.75,28.110000610351562,26.559999465942383,27.8700008392334,27.52730941772461,5367300
2020-08-17,27.889999389648438,28.139999389648438,27.33300018310547,27.770000457763672,27.428539276123047,9275000
2020-08-18,27.850000381469727,28.420000076293945,27.809999465942383,28.399999618530273,28.05078887939453,3124700
2020-08-19,28.149999618530273,28.610000610351562,28.0,28.559999465942383,28.20882225036621,5122000
2020-08-20,28.25,28.799999237060547,28.170000076293945,28.799999237060547,28.445871353149414,4583500
2020-08-21,28.639999389648438,28.700000762939453,28.014999389648438,28.440000534057617,28.090299606323242,6864100
2020-08-24,28.8700008392334,28.979999542236328,28.200000762939453,28.540000915527344,28.189069747924805,4409500
2020-08-25,28.700000762939453,29.170000076293945,28.610000610351562,28.649999618530273,28.297718048095703,2344000
2020-08-26,28.649999618530273,29.280000686645508,28.43000030517578,29.229999542236328,28.87058448791504,2458300
2020-08-27,29.239999771118164,29.450000762939453,29.05500030517578,29.290000915527344,28.929847717285156,1791300
2020-08-28,29.399999618530273,29.81999969482422,29.1299991607666,29.520000457763672,29.157018661499023,3202600
2020-08-31,29.43000030517578,29.43000030517578,28.530000686645508,28.549999237060547,28.198945999145508,3974800
2020-09-01,28.579999923706055,29.450000762939453,28.420000076293945,29.440000534057617,29.0780029296875,3797800
2020-09-02,29.329999923706055,30.190000534057617,29.1200008392334,30.1299991607666,29.759517669677734,3610200
2020-09-03,29.920000076293945,30.209999084472656,29.110000610351562,29.40999984741211,29.048370361328125,3800800
2020-09-04,29.799999237060547,30.1200008392334,29.05500030517578,29.31999969482422,28.9594783782959,5136800
2020-09-08,29.06999969482422,29.06999969482422,28.229999542236328,28.299999237060547,27.95201873779297,4213500
2020-09-09,28.540000915527344,29.40999984741211,28.510000228881836,28.739999771118164,28.38661003112793,2818000
2020-09-10,28.719999313354492,29.260000228881836,28.690000534057617,29.139999389648438,28.78169059753418,4138000
2020-09-11,29.34000015258789,29.450000762939453,28.93000030517578,29.020000457763672,28.66316795349121,3131400
2020-09-14,29.110000610351562,29.43000030517578,28.844999313354492,28.969999313354492,28.613780975341797,3917900
2020-09-15,29.059999465942383,29.690000534057617,29.030000686645508,29.450000762939453,29.087881088256836,3127900
2020-09-16,29.59000015258789,29.959999084472656,29.135000228881836,29.229999542236328,28.87058448791504,5769100
2020-09-17,28.899999618530273,29.760000228881836,28.739999771118164,29.579999923706055,29.21628189086914,5728400
2020-09-18,29.6299991607666,29.719999313354492,28.854999542236328,28.989999771118164,28.633535385131836,7175600
2020-09-21,28.190000534057617,28.520000457763672,27.915000915527344,28.219999313354492,27.873003005981445,6130200
2020-09-22,28.09000015258789,28.239999771118164,27.809999465942383,28.09000015258789,27.74460220336914,5703500
2020-09-23,27.90999984741211,28.309999465942383,27.389999389648438,27.459999084472656,27.12234878540039,4874200
2020-09-24,27.459999084472656,27.954999923706055,27.18000030517578,27.6299991607666,27.29025650024414,3031700
2020-09-25,27.3700008392334,28.53499984741211,27.309999465942383,28.3799991607666,28.031034469604492,2556300
2020-09-28,28.81999969482422,29.31999969482422,28.75,28.969999313354492,28.613780975341797,2714400
2020-09-29,28.770000457763672,29.020000457763672,28.485000610351562,28.59000015258789,28.238452911376953,1972000
2020-09-30,28.770000457763672,29.540000915527344,28.524999618530273,28.809999465942383,28.455747604370117,8009400
2020-10-01,28.8799991607666,29.309999465942383,28.610000610351562,28.68000030517578,28.327348709106445,4918400
2020-10-02,28.399999618530273,29.780000686645508,28.290000915527344,29.3700008392334,29.00886344909668,4851300
2020-10-05,29.770000457763672,30.280000686645508,29.770000457763672,30.110000610351562,29.739765167236328,5166300
2020-10-06,30.34000015258789,30.7549991607666,30.030000686645508,30.09000015258789,29.720008850097656,4972400
2020-10-07,30.40999984741211,31.079999923706055,30.3700008392334,30.530000686645508,30.15460205078125,5575400
2020-10-08,31.78499984741211,32.63999938964844,31.29599952697754,32.33000183105469,31.93246841430664,7033600
2020-10-09,32.45000076293945,33.689998626708984,32.290000915527344,33.43000030517578,33.018943786621094,5323300
2020-10-12,33.61000061035156,33.86000061035156,33.310001373291016,33.59000015258789,33.176971435546875,3968100
2020-10-13,33.310001373291016,33.77000045776367,33.012001037597656,33.70000076293945,33.285621643066406,5405200
2020-10-14,33.790000915527344,34.36000061035156,33.470001220703125,33.81999969482422,33.40414810180664,3363700
2020-10-15,33.18000030517578,34.095001220703125,33.18000030517578,33.9900016784668,33.572052001953125,3035100
2020-10-16,34.33000183105469,34.40999984741211,34.06999969482422,34.08000183105469,33.660953521728516,2802000
2020-10-19,34.2599983215332,34.540000915527344,33.189998626708984,33.52000045776367,33.10783386230469,5716500
2020-10-20,33.7400016784668,33.75,32.91999816894531,33.06999969482422,32.66337203979492,3697400
2020-10-21,33.099998474121094,33.290000915527344,32.73099899291992,32.900001525878906,32.49545669555664,3451400
2020-10-22,32.939998626708984,33.369998931884766,32.75,33.130001068115234,32.722633361816406,2646200
2020-10-23,33.150001525878906,33.494998931884766,33.040000915527344,33.16999816894531,32.76213455200195,3552400
2020-10-26,32.83000183105469,33.0,32.20500183105469,32.709999084472656,32.30779266357422,2679000
2020-10-27,32.779998779296875,32.84000015258789,32.33000183105469,32.34000015258789,31.942344665527344,2268400
2020-10-28,31.459999084472656,32.119998931884766,31.15999984741211,31.860000610351562,31.468244552612305,3974000
2020-10-29,31.600000381469727,32.685001373291016,31.540000915527344,32.5,32.10037612915039,3936000
2020-10-30,32.38999938964844,32.97999954223633,32.11000061035156,32.97999954223633,32.57447052001953,4327700
2020-11-02,33.279998779296875,33.84000015258789,33.099998474121094,33.47999954223633,33.06832504272461,3722000
2020-11-03,33.400001525878906,33.54999923706055,32.529998779296875,32.93000030517578,32.52509307861328,3620600
2020-11-04,32.959999084472656,33.3849983215332,32.11000061035156,32.779998779296875,32.376930236816406,3832400
2020-11-05,33.150001525878906,34.45000076293945,33.09000015258789,33.939998626708984,33.52267074584961,3876100
2020-11-06,34.189998626708984,34.388999938964844,33.6150016784668,33.70000076293945,33.285621643066406,2576800
2020-11-09,34.9900016784668,36.279998779296875,34.599998474121094,34.63999938964844,34.21406173706055,4633900
2020-11-10,34.75,36.38999938964844,34.75,36.22999954223633,35.78451156616211,6713100
2020-11-11,36.369998931884766,36.900001525878906,36.150001525878906,36.630001068115234,36.179595947265625,4494500
2020-11-12,36.34000015258789,36.34000015258789,34.8650016784668,35.060001373291016,34.75223922729492,3750300
2020-11-13,35.130001068115234,36.220001220703125,35.130001068115234,36.0099983215332,35.69389343261719,3361500
2020-11-16,36.900001525878906,37.56999969482422,36.34000015258789,37.43000030517578,37.1014289855957,3498000
2020-11-17,37.0099983215332,37.29499816894531,36.560001373291016,37.02000045776367,36.695030212402344,3706200
2020-11-18,37.2400016784668,37.540000915527344,36.689998626708984,36.689998626708984,36.367923736572266,2329400
2020-11-19,36.63999938964844,37.310001373291016,36.38999938964844,36.959999084472656,36.635555267333984,3274100
2020-11-20,36.935001373291016,37.27000045776367,36.849998474121094,37.15999984741211,36.833797454833984,2536500
2020-11-23,37.529998779296875,38.29999923706055,37.52000045776367,37.790000915527344,37.45826721191406,2712000
2020-11-24,38.15999984741211,39.0099983215332,37.90999984741211,38.900001525878906,38.558528900146484,4449400
2020-11-25,38.779998779296875,38.88999938964844,38.32500076293945,38.58000183105469,38.241336822509766,2738900
2020-11-27,38.540000915527344,38.970001220703125,38.31999969482422,38.40999984741211,38.07282638549805,1368500
2020-11-30,38.40999984741211,38.59000015258789,37.7400016784668,38.31999969482422,37.98361587524414,4864600
2020-12-01,38.70000076293945,39.439998626708984,38.2400016784668,38.310001373291016,37.97370529174805,3367500
2020-12-02,38.130001068115234,38.67499923706055,37.90999984741211,38.27000045776367,37.93405532836914,3503800
2020-12-03,38.15999984741211,38.619998931884766,37.86000061035156,38.209999084472656,37.87458419799805,2874200
2020-12-04,38.38999938964844,38.81999969482422,38.25,38.650001525878906,38.31072235107422,3633500
2020-12-07,38.4900016784668,38.775001525878906,37.834999084472656,37.939998626708984,37.60695266723633,3012900
2020-12-08,37.7599983215332,38.45500183105469,37.61000061035156,38.41999816894531,38.08273696899414,4178100
2020-12-09,38.470001220703125,39.369998931884766,38.459999084472656,39.0099983215332,38.66755676269531,3293800
2020-12-10,38.66999816894531,39.22999954223633,38.4900016784668,38.7400016784668,38.399932861328125,3124000
2020-12-11,38.310001373291016,38.70000076293945,38.060001373291016,38.38999938964844,38.053001403808594,3131000
2020-12-14,40.0,40.22999954223633,38.71500015258789,38.7599983215332,38.41975402832031,3594000
2020-12-15,39.2400016784668,39.31800079345703,38.2400016784668,39.220001220703125,38.87571716308594,3789100
2020-12-16,39.29999923706055,39.29999923706055,38.619998931884766,39.08000183105469,38.73694610595703,3164700
2020-12-17,39.33000183105469,39.70000076293945,39.21200180053711,39.68000030517578,39.33168029785156,4322000
2020-12-18,39.41999816894531,39.68000030517578,38.82500076293945,39.40999984741211,39.06404495239258,9395000
2020-12-21,38.65999984741211,39.619998931884766,38.32099914550781,39.54999923706055,39.20281982421875,2894300
2020-12-22,39.61000061035156,39.71500015258789,38.95000076293945,38.97999954223633,38.6378173828125,2713800
2020-12-23,39.11000061035156,39.540000915527344,39.11000061035156,39.18000030517578,38.83606719970703,2330800
2020-12-24,39.029998779296875,39.54999923706055,39.029998779296875,39.5,39.15325927734375,847600
2020-12-28,39.369998931884766,39.56999969482422,38.31999969482422,38.349998474121094,38.01335144042969,2545800
2020-12-29,38.66999816894531,38.91999816894531,37.67499923706055,37.939998626708984,37.60695266723633,3183900
2020-12-30,38.189998626708984,38.689998626708984,38.0099983215332,38.439998626708984,38.102561950683594,3396800
