Date,Open,High,Low,Close,Adj Close,Volume
2019-12-23,24.950000762939453,25.139999389648438,24.899999618530273,25.100000381469727,22.858776092529297,121700
2019-12-24,25.1299991607666,25.290000915527344,25.1299991607666,25.219999313354492,22.968059539794922,33400
2019-12-26,25.31999969482422,25.440000534057617,25.309999465942383,25.3799991607666,23.11376953125,32300
2019-12-27,25.440000534057617,25.530000686645508,25.43000030517578,25.479999542236328,23.20484161376953,53400
2019-12-30,25.5,25.549999237060547,25.350000381469727,25.389999389648438,23.122879028320312,40600
2019-12-31,25.3799991607666,25.3799991607666,25.290000915527344,25.290000915527344,23.031810760498047,19800
2020-01-02,25.399999618530273,25.530000686645508,25.3799991607666,25.389999389648438,23.122879028320312,21700
2020-01-03,25.43000030517578,25.44700050354004,25.290000915527344,25.34000015258789,23.077342987060547,30500
2020-01-06,25.43000030517578,25.440000534057617,25.350000381469727,25.386999130249023,23.120147705078125,22900
2020-01-07,25.40999984741211,25.47100067138672,25.392000198364258,25.420000076293945,23.15019989013672,17600
2020-01-08,25.450000762939453,25.450000762939453,25.420000076293945,25.440000534057617,23.168415069580078,3200
2020-01-09,25.5,25.520000457763672,25.440000534057617,25.440000534057617,23.168415069580078,28200
2020-01-10,25.5,25.530000686645508,25.459999084472656,25.485000610351562,23.20939826965332,10700
2020-01-13,25.540000915527344,25.600000381469727,25.540000915527344,25.56999969482422,23.286808013916016,8800
2020-01-14,25.604999542236328,25.610000610351562,25.40999984741211,25.5310001373291,23.25128936767578,48700
2020-01-15,25.600000381469727,25.639999389648438,25.54800033569336,25.54800033569336,23.26677131652832,9300
2020-01-16,25.59000015258789,25.600000381469727,25.540000915527344,25.600000381469727,23.31412696838379,17100
2020-01-17,25.639999389648438,25.649999618530273,25.520000457763672,25.638999938964844,23.349647521972656,17200
2020-01-21,25.621000289916992,25.75,25.621000289916992,25.75,23.450733184814453,5300
2020-01-22,25.65399932861328,25.75,25.600000381469727,25.639999389648438,23.350555419921875,15300
2020-01-23,25.639999389648438,25.75,25.549999237060547,25.61199951171875,23.325056076049805,14000
2020-01-24,25.649999618530273,25.68400001525879,25.540000915527344,25.540000915527344,23.25948715209961,18800
2020-01-27,25.510000228881836,25.64900016784668,25.479999542236328,25.479999542236328,23.20484161376953,3400
2020-01-28,25.575000762939453,25.649999618530273,25.549999237060547,25.60099983215332,23.315040588378906,69300
2020-01-29,25.649999618530273,25.68000030517578,25.600000381469727,25.68000030517578,23.386985778808594,2400
2020-01-30,25.68000030517578,25.700000762939453,25.625,25.690000534057617,23.396093368530273,4100
2020-01-31,25.700000762939453,25.790000915527344,25.700000762939453,25.700000762939453,23.40519905090332,15000
2020-02-03,25.790000915527344,25.84000015258789,25.775999069213867,25.84000015258789,23.532699584960938,9100
2020-02-04,25.850000381469727,25.850000381469727,25.81999969482422,25.834999084472656,23.52814483642578,8400
2020-02-05,25.850000381469727,25.8799991607666,25.700000762939453,25.75,23.450733184814453,7100
2020-02-06,25.72100067138672,25.899999618530273,25.72100067138672,25.899999618530273,23.58734130859375,6300
2020-02-07,25.899999618530273,25.899999618530273,25.65999984741211,25.709999084472656,23.414304733276367,41100
2020-02-10,25.75,25.780000686645508,25.600000381469727,25.649999618530273,23.359661102294922,17200
2020-02-11,25.719999313354492,25.719999313354492,25.6200008392334,25.700000762939453,23.40519905090332,10600
2020-02-12,25.700000762939453,25.719999313354492,25.600000381469727,25.670000076293945,23.37787628173828,7300
2020-02-13,25.670000076293945,25.75,25.549999237060547,25.610000610351562,23.3232364654541,28100
2020-02-14,25.700000762939453,25.700000762939453,25.579999923706055,25.658000946044922,23.3669490814209,13300
2020-02-18,25.700000762939453,25.700000762939453,25.68000030517578,25.690000534057617,23.396093368530273,9000
2020-02-19,25.700000762939453,25.700000762939453,25.639999389648438,25.639999389648438,23.350555419921875,7900
2020-02-20,25.739999771118164,25.760000228881836,25.68000030517578,25.739999771118164,23.441627502441406,21900
2020-02-21,25.739999771118164,25.809999465942383,25.739999771118164,25.790000915527344,23.487165451049805,11700
2020-02-24,25.59000015258789,25.59000015258789,25.5,25.562999725341797,23.280431747436523,14600
2020-02-25,25.56999969482422,25.600000381469727,25.510000228881836,25.520000457763672,23.24127197265625,32200
2020-02-26,25.520000457763672,25.600000381469727,25.18000030517578,25.290000915527344,23.031810760498047,53700
2020-02-27,25.200000762939453,25.200000762939453,24.90999984741211,25.0,22.767704010009766,9000
2020-02-28,24.899999618530273,24.899999618530273,24.75,24.75,22.540027618408203,5900
2020-03-02,24.899999618530273,25.139999389648438,24.84000015258789,25.110000610351562,22.867881774902344,22800
2020-03-03,25.139999389648438,25.54599952697754,25.08300018310547,25.457000732421875,23.18389892578125,20700
2020-03-04,25.459999084472656,25.850000381469727,25.459999084472656,25.850000381469727,23.541805267333984,13500
2020-03-05,25.75,25.75,25.020000457763672,25.020000457763672,22.785919189453125,40000
2020-03-06,25.329999923706055,25.3700008392334,24.989999771118164,25.059999465942383,22.822343826293945,37600
2020-03-09,24.600000381469727,24.851999282836914,23.06999969482422,24.84000015258789,22.621990203857422,18600
2020-03-10,25.100000381469727,25.100000381469727,23.700000762939453,24.299999237060547,22.130205154418945,4500
2020-03-11,24.100000381469727,24.440000534057617,23.799999237060547,23.899999618530273,21.765926361083984,11900
2020-03-12,23.190000534057617,23.190000534057617,21.549999237060547,22.69499969482422,20.66852378845215,6800
2020-03-13,22.81999969482422,23.520000457763672,22.3799991607666,22.75,20.718610763549805,13300
2020-03-16,21.149999618530273,21.36400032043457,21.149999618530273,21.36400032043457,19.456369400024414,1900
2020-03-17,21.3700008392334,21.59000015258789,20.049999237060547,20.049999237060547,18.25969886779785,2900
2020-03-18,16.209999084472656,16.209999084472656,13.970000267028809,14.404999732971191,13.11875057220459,4100
2020-03-19,14.449999809265137,16.0,12.600000381469727,15.699999809265137,14.298118591308594,12900
2020-03-20,15.699999809265137,16.676000595092773,15.699999809265137,16.35099983215332,14.890989303588867,3500
2020-03-23,16.209999084472656,17.5,14.510000228881836,14.583000183105469,13.280856132507324,9200
2020-03-24,15.100000381469727,16.229999542236328,15.100000381469727,15.489999771118164,14.1068696975708,3400
2020-03-25,16.06999969482422,20.299999237060547,16.0,18.0,16.392745971679688,11400
2020-03-26,19.670000076293945,20.329999923706055,19.670000076293945,19.799999237060547,18.456520080566406,2800
2020-03-27,19.799999237060547,19.899999618530273,17.34000015258789,19.899999618530273,18.549734115600586,3700
2020-03-30,18.56999969482422,19.836000442504883,18.56999969482422,19.836000442504883,18.490079879760742,3300
2020-03-31,19.799999237060547,19.899999618530273,19.799999237060547,19.899999618530273,18.549734115600586,900
2020-04-01,19.549999237060547,19.549999237060547,19.549999237060547,19.549999237060547,18.22348403930664,900
2020-04-02,20.261999130249023,20.261999130249023,20.149999618530273,20.149999618530273,18.782772064208984,2200
2020-04-03,19.020000457763672,19.020000457763672,17.75,17.839000701904297,16.62858009338379,4300
2020-04-06,17.860000610351562,18.0,17.860000610351562,18.0,16.778656005859375,1300
2020-04-07,19.450000762939453,19.489999771118164,18.551000595092773,18.906999588012695,17.624113082885742,2300
2020-04-08,18.889999389648438,19.5,18.549999237060547,19.5,18.176877975463867,6900
2020-04-09,20.149999618530273,21.0,20.149999618530273,20.97599983215332,19.55272674560547,4100
2020-04-13,20.799999237060547,20.799999237060547,20.799999237060547,20.799999237060547,19.388668060302734,100
2020-04-14,21.030000686645508,21.3700008392334,21.030000686645508,21.200000762939453,19.76152992248535,1100
2020-04-15,21.170000076293945,21.170000076293945,20.299999237060547,20.600000381469727,19.202238082885742,1600
2020-04-16,20.600000381469727,20.600000381469727,20.600000381469727,20.600000381469727,19.202238082885742,0
2020-04-17,20.68000030517578,20.68000030517578,20.68000030517578,20.68000030517578,19.276811599731445,500
2020-04-20,20.799999237060547,21.100000381469727,20.0,20.149999618530273,18.782772064208984,5600
2020-04-21,20.25,20.350000381469727,20.25,20.350000381469727,18.96920394897461,600
2020-04-22,20.350000381469727,20.350000381469727,20.049999237060547,20.14900016784668,18.781841278076172,2900
2020-04-23,20.50200080871582,21.559999465942383,20.5,21.174999237060547,19.738224029541016,4600
2020-04-24,21.200000762939453,21.33099937438965,21.200000762939453,21.33099937438965,19.883636474609375,1400
2020-04-27,21.34000015258789,22.464000701904297,21.229999542236328,22.464000701904297,20.939762115478516,4900
2020-04-28,22.464000701904297,22.464000701904297,22.464000701904297,22.464000701904297,20.939762115478516,0
2020-04-29,22.690000534057617,22.690000534057617,22.350000381469727,22.5,20.97332000732422,7400
2020-04-30,22.649999618530273,22.649999618530273,21.600000381469727,21.600000381469727,20.134387969970703,500
2020-05-01,21.3799991607666,21.899999618530273,21.25,21.899999618530273,20.414030075073242,1600
2020-05-04,20.309999465942383,21.5,20.309999465942383,21.4950008392334,20.036514282226562,4800
2020-05-05,21.4950008392334,21.4950008392334,21.4950008392334,21.4950008392334,20.036514282226562,0
2020-05-06,21.899999618530273,21.899999618530273,21.899999618530273,21.899999618530273,20.414030075073242,2000
2020-05-07,21.395000457763672,21.899999618530273,21.395000457763672,21.600000381469727,20.134387969970703,2300
2020-05-08,21.799999237060547,21.979999542236328,20.989999771118164,21.524999618530273,20.06447410583496,5400
2020-05-11,21.19099998474121,21.209999084472656,21.190000534057617,21.190000534057617,19.752208709716797,1100
2020-05-12,21.190000534057617,21.190000534057617,21.010000228881836,21.010000228881836,19.584423065185547,6100
2020-05-13,21.049999237060547,21.840999603271484,20.90999984741211,21.840999603271484,20.359033584594727,5300
2020-05-14,20.69499969482422,21.549999237060547,20.69499969482422,21.549999237060547,20.08778190612793,500
2020-05-15,21.149999618530273,21.149999618530273,21.149999618530273,21.149999618530273,19.714920043945312,300
2020-05-18,21.299999237060547,21.299999237060547,21.0,21.0,19.575098037719727,1900
2020-05-19,21.0,21.0,21.0,21.0,19.575098037719727,0
2020-05-20,21.485000610351562,21.799999237060547,21.18000030517578,21.260000228881836,19.81745719909668,2900
2020-05-21,21.25,21.6299991607666,21.25,21.5,20.04117202758789,700
2020-05-22,21.5,21.5,21.260000228881836,21.260000228881836,19.81745719909668,400
2020-05-26,21.5,21.725000381469727,21.5,21.707000732421875,20.234128952026367,12900
2020-05-27,21.704999923706055,21.704999923706055,21.424999237060547,21.549999237060547,20.08778190612793,1600
2020-05-28,21.559999465942383,21.989999771118164,21.5,21.59000015258789,20.12506675720215,24600
2020-05-29,21.579999923706055,21.719999313354492,21.440000534057617,21.719999313354492,20.246244430541992,800
2020-06-01,21.670000076293945,21.93000030517578,21.670000076293945,21.93000030517578,20.44199562072754,3300
2020-06-02,21.889999389648438,21.899999618530273,21.709999084472656,21.75,20.27420997619629,7500
2020-06-03,21.8700008392334,21.899999618530273,21.700000762939453,21.899999618530273,20.414030075073242,3400
2020-06-04,21.8799991607666,22.219999313354492,21.8700008392334,22.100000381469727,20.600460052490234,6000
2020-06-05,22.270000457763672,22.5,22.0,22.420000076293945,20.89874839782715,1800
2020-06-08,22.399999618530273,22.614999771118164,22.200000762939453,22.610000610351562,21.075855255126953,6800
2020-06-09,22.459999084472656,22.667999267578125,22.399999618530273,22.663000106811523,21.125261306762695,1800
2020-06-10,22.700000762939453,22.700000762939453,22.200000762939453,22.5,20.97332000732422,3600
2020-06-11,22.299999237060547,22.5049991607666,22.0,22.209999084472656,20.7029972076416,23600
2020-06-12,22.367000579833984,22.367000579833984,21.799999237060547,21.80900001525879,20.329206466674805,700
2020-06-15,22.200000762939453,22.200000762939453,20.81599998474121,21.5,20.04117202758789,7300
2020-06-16,21.239999771118164,22.0,21.239999771118164,21.450000762939453,19.99456787109375,1000
2020-06-17,21.469999313354492,21.979999542236328,21.469999313354492,21.979999542236328,20.488603591918945,900
2020-06-18,21.739999771118164,21.739999771118164,21.739999771118164,21.739999771118164,20.2648868560791,100
2020-06-19,21.486000061035156,21.959999084472656,21.486000061035156,21.920000076293945,20.432674407958984,2000
2020-06-22,21.989999771118164,21.989999771118164,21.520000457763672,21.520000457763672,20.059816360473633,1400
2020-06-23,21.719999313354492,21.768999099731445,21.559999465942383,21.559999465942383,20.09709930419922,3300
2020-06-24,21.559999465942383,21.959999084472656,21.559999465942383,21.86199951171875,20.37860679626465,900
2020-06-25,21.510000228881836,21.510000228881836,21.25,21.25,19.808135986328125,4400
2020-06-26,21.559999465942383,21.559999465942383,21.149999618530273,21.35300064086914,20.22392463684082,1000
2020-06-29,21.170000076293945,21.530000686645508,21.163999557495117,21.344999313354492,20.216344833374023,3600
2020-06-30,21.200000762939453,21.440000534057617,21.200000762939453,21.25,20.12636947631836,2200
2020-07-01,20.899999618530273,20.899999618530273,20.8799991607666,20.8799991607666,19.775930404663086,600
2020-07-02,20.8799991607666,21.25,20.700000762939453,21.25,20.12636947631836,5000
2020-07-06,21.09000015258789,21.09000015258789,20.860000610351562,20.913999557495117,19.808134078979492,2500
2020-07-07,20.809999465942383,21.010000228881836,20.809999465942383,20.875,19.771196365356445,3600
2020-07-08,20.75,20.75,20.450000762939453,20.450000762939453,19.368671417236328,3400
2020-07-09,20.290000915527344,20.950000762939453,20.1299991607666,20.149999618530273,19.084531784057617,11700
2020-07-10,20.149999618530273,20.51099967956543,20.149999618530273,20.410999298095703,19.33173179626465,1400
2020-07-13,20.399999618530273,20.40999984741211,20.399999618530273,20.399999618530273,19.321311950683594,1800
2020-07-14,20.3700008392334,20.3700008392334,20.18000030517578,20.341999053955078,19.266380310058594,4900
2020-07-15,20.25,20.444000244140625,20.149999618530273,20.444000244140625,19.362987518310547,1500
2020-07-16,20.56999969482422,20.56999969482422,20.26099967956543,20.290000915527344,19.217130661010742,2100
2020-07-17,20.451000213623047,20.451000213623047,20.426000595092773,20.426000595092773,19.34593963623047,200
2020-07-20,20.309999465942383,20.309999465942383,20.200000762939453,20.299999237060547,19.226600646972656,1200
2020-07-21,20.25,20.25,20.225000381469727,20.25,19.179244995117188,1600
2020-07-22,20.243999481201172,20.389999389648438,20.149999618530273,20.350000381469727,19.273958206176758,3700
2020-07-23,20.399999618530273,20.399999618530273,20.399999618530273,20.399999618530273,19.321311950683594,800
2020-07-24,20.29599952697754,20.389999389648438,20.149999618530273,20.389999389648438,19.31184196472168,1200
2020-07-27,20.350000381469727,20.350000381469727,20.020000457763672,20.09000015258789,19.0277042388916,9600
2020-07-28,20.131000518798828,20.399999618530273,19.940000534057617,20.059999465942383,18.99928855895996,4800
2020-07-29,20.06999969482422,20.100000381469727,19.940000534057617,20.100000381469727,19.03717613220215,5100
2020-07-30,20.170000076293945,20.989999771118164,20.170000076293945,20.5,19.416025161743164,51200
2020-07-31,20.610000610351562,20.610000610351562,20.309999465942383,20.5,19.416025161743164,13600
2020-08-03,20.520000457763672,21.229999542236328,20.520000457763672,21.149999618530273,20.03165626525879,20000
2020-08-04,21.0,21.329999923706055,21.0,21.309999465942383,20.183195114135742,12000
2020-08-05,21.18000030517578,22.329999923706055,21.18000030517578,21.5,20.363149642944336,26200
2020-08-06,21.959999084472656,22.09000015258789,21.0,21.479999542236328,20.344205856323242,30000
2020-08-07,21.170000076293945,21.25,21.0,21.049999237060547,19.93694496154785,13900
2020-08-10,21.010000228881836,21.790000915527344,21.010000228881836,21.65999984741211,20.51468849182129,7600
2020-08-11,21.700000762939453,22.0,21.649999618530273,21.674999237060547,20.52889633178711,8700
2020-08-12,21.670000076293945,21.899999618530273,21.584999084472656,21.899999618530273,20.74199676513672,6600
2020-08-13,21.979999542236328,21.989999771118164,21.959999084472656,21.989999771118164,20.827238082885742,1000
2020-08-14,21.969999313354492,21.989999771118164,21.618000030517578,21.979999542236328,20.817768096923828,7200
2020-08-17,21.989999771118164,22.360000610351562,21.98900032043457,22.360000610351562,21.177675247192383,8200
2020-08-18,22.200000762939453,22.5,22.200000762939453,22.34000015258789,21.158733367919922,8100
2020-08-19,22.450000762939453,22.774999618530273,22.36199951171875,22.639999389648438,21.442867279052734,16200
2020-08-20,22.719999313354492,22.950000762939453,22.489999771118164,22.950000762939453,21.736478805541992,10700
2020-08-21,22.889999389648438,22.940000534057617,22.75,22.940000534057617,21.727006912231445,4200
2020-08-24,22.950000762939453,22.950000762939453,22.92099952697754,22.950000762939453,21.736478805541992,4500
2020-08-25,22.950000762939453,22.989999771118164,22.860000610351562,22.959999084472656,21.745948791503906,7300
2020-08-26,23.06999969482422,23.100000381469727,22.954999923706055,23.09000015258789,21.86907386779785,5600
2020-08-27,23.1200008392334,23.1200008392334,22.549999237060547,22.799999237060547,21.594409942626953,6800
2020-08-28,23.079999923706055,23.100000381469727,22.75,22.75,21.54705238342285,2400
2020-08-31,22.829999923706055,22.829999923706055,22.5,22.5,21.310272216796875,2800
2020-09-01,22.75,22.989999771118164,22.75,22.989999771118164,21.77436065673828,5400
2020-09-02,22.899999618530273,23.110000610351562,22.75,23.0,21.78383445739746,4700
2020-09-03,23.010000228881836,23.010000228881836,22.35099983215332,22.600000381469727,21.404985427856445,3800
2020-09-04,22.610000610351562,22.649999618530273,22.489999771118164,22.489999771118164,21.300800323486328,4900
2020-09-08,22.5,22.5,22.290000915527344,22.290000915527344,21.111377716064453,1400
2020-09-09,22.5,22.586999893188477,22.485000610351562,22.56999969482422,21.376569747924805,4600
2020-09-10,22.610000610351562,22.739999771118164,22.399999618530273,22.711999893188477,21.511062622070312,3800
2020-09-11,22.850000381469727,22.850000381469727,22.28700065612793,22.299999237060547,21.120847702026367,3600
2020-09-14,22.450000762939453,22.450000762939453,22.05500030517578,22.079999923706055,21.23239517211914,2500
2020-09-15,22.1200008392334,22.408000946044922,21.93000030517578,22.010000228881836,21.165081024169922,1900
2020-09-16,22.3799991607666,22.389999389648438,22.19499969482422,22.229999542236328,21.376636505126953,5000
2020-09-17,22.440000534057617,22.530000686645508,22.299999237060547,22.299999237060547,21.443950653076172,1000
2020-09-18,22.520000457763672,22.520000457763672,21.950000762939453,22.0,21.155466079711914,4500
2020-09-21,22.0,22.100000381469727,21.709999084472656,21.90999984741211,21.06892204284668,3200
2020-09-22,22.263999938964844,22.5,21.899999618530273,22.389999389648438,21.530492782592773,7200
2020-09-23,22.46299934387207,22.649999618530273,22.04199981689453,22.1299991607666,21.280475616455078,8800
2020-09-24,22.280000686645508,22.5,21.90999984741211,22.347999572753906,21.4901065826416,1900
2020-09-25,22.219999313354492,22.219999313354492,22.219999313354492,22.219999313354492,21.367019653320312,400
2020-09-28,22.447999954223633,22.600000381469727,22.440000534057617,22.600000381469727,21.732431411743164,6800
2020-09-29,22.524999618530273,22.559999465942383,22.40999984741211,22.40999984741211,21.549726486206055,5200
2020-09-30,22.43000030517578,22.59000015258789,22.149999618530273,22.219999313354492,21.367019653320312,11500
2020-10-01,22.219999313354492,22.219999313354492,22.219999313354492,22.219999313354492,21.367019653320312,0
2020-10-02,22.219999313354492,22.219999313354492,22.219999313354492,22.219999313354492,21.367019653320312,0
2020-10-05,22.43000030517578,22.43000030517578,22.40999984741211,22.43000030517578,21.568958282470703,900
2020-10-06,22.450000762939453,22.700000762939453,22.450000762939453,22.649999618530273,21.780513763427734,1300
2020-10-07,22.700000762939453,23.25,22.600000381469727,23.25,22.35748291015625,8600
2020-10-08,23.399999618530273,24.023000717163086,23.399999618530273,23.854000091552734,22.938295364379883,5600
2020-10-09,23.940000534057617,23.940000534057617,23.832000732421875,23.832000732421875,22.91714096069336,300
2020-10-12,23.799999237060547,23.799999237060547,23.25,23.25,22.35748291015625,700
2020-10-13,23.399999618530273,23.889999389648438,23.399999618530273,23.700000762939453,22.790206909179688,1900
2020-10-14,23.700000762939453,23.889999389648438,23.700000762939453,23.770000457763672,22.857519149780273,5300
2020-10-15,23.700000762939453,23.770000457763672,22.92799949645996,23.770000457763672,22.857519149780273,2600
2020-10-16,23.770000457763672,23.770000457763672,23.0,23.770000457763672,22.857519149780273,2000
2020-10-19,23.770000457763672,23.770000457763672,23.149999618530273,23.700000762939453,22.790206909179688,6800
2020-10-20,23.450000762939453,23.889999389648438,23.450000762939453,23.799999237060547,22.886367797851562,9500
2020-10-21,23.700000762939453,23.850000381469727,23.489999771118164,23.5,22.597885131835938,31300
2020-10-22,23.559999465942383,24.399999618530273,23.549999237060547,24.399999618530273,23.463335037231445,39500
2020-10-23,24.3700008392334,24.399999618530273,24.20199966430664,24.20199966430664,23.27293586730957,10300
2020-10-26,24.219999313354492,24.399999618530273,23.979999542236328,24.389999389648438,23.453718185424805,6200
2020-10-27,24.389999389648438,24.389999389648438,23.530000686645508,23.530000686645508,22.626733779907227,6600
2020-10-28,23.770000457763672,23.770000457763672,23.219999313354492,23.290000915527344,22.395946502685547,5900
2020-10-29,24.3799991607666,24.3799991607666,22.959999084472656,23.3799991607666,22.48248863220215,42100
2020-10-30,23.600000381469727,24.290000915527344,23.41200065612793,23.850000381469727,22.9344482421875,13900
2020-11-02,24.290000915527344,24.83099937438965,24.260000228881836,24.5,23.559494018554688,30600
2020-11-03,24.579999923706055,24.799999237060547,24.579999923706055,24.799999237060547,23.847978591918945,4400
2020-11-04,24.700000762939453,24.700000762939453,24.510000228881836,24.510000228881836,23.56911277770996,1900
2020-11-05,24.8799991607666,25.0,24.67099952697754,25.0,24.040302276611328,9000
2020-11-06,24.899999618530273,25.0,24.829999923706055,25.0,24.040302276611328,4400
2020-11-09,25.0,25.0,24.90999984741211,25.0,24.040302276611328,28700
2020-11-10,24.979999542236328,25.25,24.969999313354492,25.14900016784668,24.183584213256836,13500
2020-11-11,25.06999969482422,25.09000015258789,24.917999267578125,25.09000015258789,24.126848220825195,14200
2020-11-12,25.03499984741211,25.06999969482422,24.899999618530273,25.0,24.040302276611328,4600
2020-11-13,25.049999237060547,25.049999237060547,24.899999618530273,25.049999237060547,24.088380813598633,26000
2020-11-16,25.049999237060547,25.149999618530273,25.04400062561035,25.139999389648438,24.1749267578125,19000
2020-11-17,25.200000762939453,25.200000762939453,24.899999618530273,25.149999618530273,24.184545516967773,20800
2020-11-18,25.149999618530273,25.5,25.100000381469727,25.4950008392334,24.516300201416016,14400
2020-11-19,25.5,25.5,25.149999618530273,25.25,24.280704498291016,9500
2020-11-20,25.09000015258789,25.25,24.959999084472656,25.170000076293945,24.203777313232422,26400
2020-11-23,25.110000610351562,25.399999618530273,25.049999237060547,25.399999618530273,24.42494773864746,11100
2020-11-24,25.299999237060547,25.5,25.100000381469727,25.100000381469727,24.136465072631836,13700
2020-11-25,25.15999984741211,25.399999618530273,25.1299991607666,25.13800048828125,24.173006057739258,18100
2020-11-27,25.149999618530273,25.329999923706055,25.149999618530273,25.155000686645508,24.18935203552246,1800
2020-11-30,25.139999389648438,25.440000534057617,25.100000381469727,25.25,24.280704498291016,11000
2020-12-01,25.260000228881836,25.600000381469727,25.25200080871582,25.299999237060547,24.328784942626953,8000
2020-12-02,25.350000381469727,25.610000610351562,25.280000686645508,25.280000686645508,24.309553146362305,8600
2020-12-03,25.329999923706055,25.549999237060547,25.260000228881836,25.260000228881836,24.290321350097656,2300
2020-12-04,25.290000915527344,25.350000381469727,25.139999389648438,25.18000030517578,24.21339225769043,12700
2020-12-07,25.18000030517578,25.454999923706055,25.18000030517578,25.399999618530273,24.42494773864746,5400
2020-12-08,25.270000457763672,25.399999618530273,25.25,25.399999618530273,24.42494773864746,3400
2020-12-09,25.34000015258789,25.989999771118164,25.33300018310547,25.75,24.761510848999023,10300
2020-12-10,25.56999969482422,25.899999618530273,25.389999389648438,25.389999389648438,24.415328979492188,6900
2020-12-11,25.329999923706055,25.649999618530273,25.329999923706055,25.329999923706055,24.357633590698242,5200
2020-12-14,25.350000381469727,25.350000381469727,24.65999984741211,24.966999053955078,24.33131980895996,20700
2020-12-15,24.889999389648438,25.143999099731445,24.797000885009766,25.143999099731445,24.503814697265625,8300
2020-12-16,25.051000595092773,25.280000686645508,24.969999313354492,25.06999969482422,24.431697845458984,8900
2020-12-17,25.09000015258789,26.0,25.059999465942383,25.81999969482422,25.1626033782959,12900
2020-12-18,25.656999588012695,25.790000915527344,25.559999465942383,25.559999465942383,24.909223556518555,2700
2020-12-21,25.450000762939453,25.613000869750977,25.350000381469727,25.399999618530273,24.7532958984375,10800
2020-12-22,25.350000381469727,25.899999618530273,25.350000381469727,25.360000610351562,24.714317321777344,8100
2020-12-23,25.600000381469727,25.899999618530273,25.600000381469727,25.700000762939453,25.0456600189209,2300
2020-12-24,25.700000762939453,25.798999786376953,25.700000762939453,25.760000228881836,25.1041316986084,3100
2020-12-28,25.899999618530273,25.899999618530273,25.329999923706055,25.350000381469727,24.704570770263672,8200
2020-12-29,25.469999313354492,26.219999313354492,25.469999313354492,25.850000381469727,25.19184112548828,84100
2020-12-30,25.93000030517578,26.100000381469727,25.7549991607666,25.764999389648438,25.1090030670166,7200
