Date,Open,High,Low,Close,Adj Close,Volume
2020-01-08,9.9399995803833,10.0,9.84000015258789,10.0,10.0,164300
2020-01-09,10.0,10.0,9.899999618530273,9.899999618530273,9.899999618530273,27400
2020-01-10,9.899999618530273,9.899999618530273,9.899999618530273,9.899999618530273,9.899999618530273,3700
2020-01-13,9.960000038146973,10.0,9.9399995803833,9.9399995803833,9.9399995803833,108000
2020-01-14,9.9399995803833,9.9399995803833,9.9399995803833,9.9399995803833,9.9399995803833,0
2020-01-15,9.9399995803833,9.9399995803833,9.9399995803833,9.9399995803833,9.9399995803833,1200
2020-01-16,9.9399995803833,9.9399995803833,9.9399995803833,9.9399995803833,9.9399995803833,0
2020-01-17,9.875,9.875,9.875,9.875,9.875,80300
2020-01-21,9.875,9.875,9.875,9.875,9.875,0
2020-01-22,9.875,9.875,9.875,9.875,9.875,0
2020-01-23,9.9399995803833,9.9399995803833,9.9399995803833,9.9399995803833,9.9399995803833,100
2020-01-24,9.9399995803833,9.9399995803833,9.9399995803833,9.9399995803833,9.9399995803833,0
2020-01-27,9.880000114440918,9.880000114440918,9.880000114440918,9.880000114440918,9.880000114440918,13200
2020-01-28,9.90999984741211,9.90999984741211,9.899999618530273,9.899999618530273,9.899999618530273,88600
2020-01-29,9.890000343322754,9.899999618530273,9.890000343322754,9.899999618530273,9.899999618530273,325800
2020-01-30,9.899999618530273,9.899999618530273,9.899999618530273,9.899999618530273,9.899999618530273,0
2020-01-31,9.899999618530273,9.899999618530273,9.899999618530273,9.899999618530273,9.899999618530273,0
2020-02-03,9.899999618530273,9.920000076293945,9.899999618530273,9.90999984741211,9.90999984741211,120300
2020-02-04,9.880000114440918,9.920000076293945,9.880000114440918,9.920000076293945,9.920000076293945,33200
2020-02-05,9.913000106811523,9.930000305175781,9.913000106811523,9.920000076293945,9.920000076293945,254800
2020-02-06,9.930000305175781,9.9350004196167,9.925999641418457,9.9350004196167,9.9350004196167,338100
2020-02-07,9.9399995803833,9.9399995803833,9.9399995803833,9.9399995803833,9.9399995803833,201000
2020-02-10,9.967000007629395,9.967000007629395,9.967000007629395,9.967000007629395,9.967000007629395,200
2020-02-11,9.967000007629395,9.984000205993652,9.967000007629395,9.984000205993652,9.984000205993652,200
2020-02-12,9.984000205993652,9.984000205993652,9.984000205993652,9.984000205993652,9.984000205993652,0
2020-02-13,9.984000205993652,9.984000205993652,9.984000205993652,9.984000205993652,9.984000205993652,0
2020-02-14,9.984000205993652,9.984000205993652,9.984000205993652,9.984000205993652,9.984000205993652,0
2020-02-18,9.984000205993652,9.984000205993652,9.984000205993652,9.984000205993652,9.984000205993652,0
2020-02-19,9.984000205993652,9.984000205993652,9.984000205993652,9.984000205993652,9.984000205993652,0
2020-02-20,9.960000038146973,9.960000038146973,9.960000038146973,9.960000038146973,9.960000038146973,75000
2020-02-21,9.9399995803833,9.9399995803833,9.9399995803833,9.9399995803833,9.9399995803833,50000
2020-02-24,9.9399995803833,9.9399995803833,9.930000305175781,9.930000305175781,9.930000305175781,258400
2020-02-25,9.9399995803833,9.9399995803833,9.930000305175781,9.930000305175781,9.930000305175781,26200
2020-02-26,9.9399995803833,9.9399995803833,9.930000305175781,9.930000305175781,9.930000305175781,5100
2020-02-27,9.920000076293945,9.920000076293945,9.920000076293945,9.920000076293945,9.920000076293945,800
2020-02-28,9.899999618530273,9.913999557495117,9.899999618530273,9.899999618530273,9.899999618530273,288600
2020-03-02,9.9399995803833,10.0,9.9399995803833,10.0,10.0,2600
2020-03-03,9.899999618530273,9.899999618530273,9.899999618530273,9.899999618530273,9.899999618530273,800
2020-03-04,9.899999618530273,9.899999618530273,9.899999618530273,9.899999618530273,9.899999618530273,0
2020-03-05,9.949999809265137,9.949999809265137,9.949999809265137,9.949999809265137,9.949999809265137,200
2020-03-06,9.90999984741211,9.984000205993652,9.90999984741211,9.984000205993652,9.984000205993652,900
2020-03-09,9.880000114440918,9.880000114440918,9.70199966430664,9.70199966430664,9.70199966430664,200
2020-03-10,9.899999618530273,9.899999618530273,9.899999618530273,9.899999618530273,9.899999618530273,500000
2020-03-11,9.899999618530273,9.899999618530273,9.899999618530273,9.899999618530273,9.899999618530273,0
2020-03-12,9.859999656677246,10.0,9.75,9.75,9.75,31400
2020-03-13,9.779999732971191,9.779999732971191,9.720000267028809,9.720000267028809,9.720000267028809,23500
2020-03-16,9.720000267028809,9.720000267028809,9.720000267028809,9.720000267028809,9.720000267028809,0
2020-03-17,9.600000381469727,9.600000381469727,9.600000381469727,9.600000381469727,9.600000381469727,8000
2020-03-18,9.600000381469727,9.649999618530273,9.300000190734863,9.649999618530273,9.649999618530273,614200
2020-03-19,9.649999618530273,9.649999618530273,9.649999618530273,9.649999618530273,9.649999618530273,0
2020-03-20,9.649999618530273,9.649999618530273,9.649999618530273,9.649999618530273,9.649999618530273,102500
2020-03-23,9.420000076293945,9.489999771118164,9.416999816894531,9.489999771118164,9.489999771118164,56300
2020-03-24,9.510000228881836,9.510000228881836,9.510000228881836,9.510000228881836,9.510000228881836,38000
2020-03-25,9.510000228881836,9.510000228881836,9.510000228881836,9.510000228881836,9.510000228881836,0
2020-03-26,9.625,9.625,9.625,9.625,9.625,123500
2020-03-27,10.0,10.0,9.949999809265137,9.949999809265137,9.949999809265137,3300
2020-03-30,9.949999809265137,9.949999809265137,9.949999809265137,9.949999809265137,9.949999809265137,0
2020-03-31,9.8100004196167,9.8100004196167,9.8100004196167,9.8100004196167,9.8100004196167,200
2020-04-01,9.800000190734863,9.800000190734863,9.800000190734863,9.800000190734863,9.800000190734863,100
2020-04-02,9.875,9.875,9.800000190734863,9.800000190734863,9.800000190734863,63400
2020-04-03,9.729999542236328,9.878000259399414,9.680000305175781,9.680000305175781,9.680000305175781,5300
2020-04-06,9.725000381469727,9.725000381469727,9.725000381469727,9.725000381469727,9.725000381469727,21500
2020-04-07,9.725000381469727,9.725000381469727,9.725000381469727,9.725000381469727,9.725000381469727,0
2020-04-08,9.729999542236328,9.729999542236328,9.729999542236328,9.729999542236328,9.729999542236328,700
2020-04-09,9.729999542236328,9.729999542236328,9.729999542236328,9.729999542236328,9.729999542236328,561100
2020-04-13,9.75,9.75,9.739999771118164,9.75,9.75,138800
2020-04-14,9.75,9.75,9.75,9.75,9.75,0
2020-04-15,9.75,9.75,9.75,9.75,9.75,0
2020-04-16,9.75,9.75,9.75,9.75,9.75,0
2020-04-17,9.779999732971191,9.779999732971191,9.779999732971191,9.779999732971191,9.779999732971191,434100
2020-04-20,9.779999732971191,9.836000442504883,9.760000228881836,9.760000228881836,9.760000228881836,21100
2020-04-21,9.760000228881836,9.760000228881836,9.760000228881836,9.760000228881836,9.760000228881836,0
2020-04-22,9.850000381469727,9.850000381469727,9.850000381469727,9.850000381469727,9.850000381469727,8400
2020-04-23,9.800000190734863,9.800000190734863,9.800000190734863,9.800000190734863,9.800000190734863,2300
2020-04-24,9.949999809265137,9.949999809265137,9.949999809265137,9.949999809265137,9.949999809265137,5100
2020-04-27,9.949999809265137,9.949999809265137,9.949999809265137,9.949999809265137,9.949999809265137,0
2020-04-28,9.949999809265137,9.949999809265137,9.949999809265137,9.949999809265137,9.949999809265137,0
2020-04-29,9.949999809265137,9.949999809265137,9.949999809265137,9.949999809265137,9.949999809265137,457600
2020-04-30,9.949999809265137,9.949999809265137,9.949999809265137,9.949999809265137,9.949999809265137,0
2020-05-01,9.739999771118164,9.800000190734863,9.739999771118164,9.800000190734863,9.800000190734863,8200
2020-05-04,9.8100004196167,9.8100004196167,9.800000190734863,9.800000190734863,9.800000190734863,15000
2020-05-05,9.800000190734863,9.800000190734863,9.779999732971191,9.779999732971191,9.779999732971191,299400
2020-05-06,9.75,9.75,9.75,9.75,9.75,10000
2020-05-07,9.75,9.75,9.75,9.75,9.75,0
2020-05-08,9.75,9.75,9.75,9.75,9.75,0
2020-05-11,9.75,9.75,9.75,9.75,9.75,0
2020-05-12,9.75,9.75,9.75,9.75,9.75,0
2020-05-13,9.75,9.770000457763672,9.6899995803833,9.6899995803833,9.6899995803833,7500
2020-05-14,9.720000267028809,9.720000267028809,9.699999809265137,9.699999809265137,9.699999809265137,7000
2020-05-15,9.800000190734863,9.800000190734863,9.800000190734863,9.800000190734863,9.800000190734863,100
2020-05-18,9.800000190734863,9.800000190734863,9.800000190734863,9.800000190734863,9.800000190734863,0
2020-05-19,9.800000190734863,9.800000190734863,9.800000190734863,9.800000190734863,9.800000190734863,0
2020-05-20,9.800000190734863,9.800000190734863,9.800000190734863,9.800000190734863,9.800000190734863,0
2020-05-21,9.788999557495117,9.788999557495117,9.788999557495117,9.788999557495117,9.788999557495117,100
2020-05-22,9.788999557495117,9.788999557495117,9.788999557495117,9.788999557495117,9.788999557495117,0
2020-05-26,9.800000190734863,9.800000190734863,9.800000190734863,9.800000190734863,9.800000190734863,6200
2020-05-27,9.800000190734863,9.800000190734863,9.800000190734863,9.800000190734863,9.800000190734863,0
2020-05-28,9.800000190734863,9.800000190734863,9.800000190734863,9.800000190734863,9.800000190734863,0
2020-05-29,9.779999732971191,9.779999732971191,9.779999732971191,9.779999732971191,9.779999732971191,13400
2020-06-01,9.779999732971191,9.779999732971191,9.779999732971191,9.779999732971191,9.779999732971191,0
2020-06-02,9.800000190734863,9.800000190734863,9.800000190734863,9.800000190734863,9.800000190734863,400
2020-06-03,9.760000228881836,9.760000228881836,9.75,9.75,9.75,13000
2020-06-04,9.75,9.75,9.75,9.75,9.75,0
2020-06-05,9.75,9.75,9.75,9.75,9.75,0
2020-06-08,9.75,9.75,9.75,9.75,9.75,0
2020-06-09,9.949999809265137,9.949999809265137,9.930000305175781,9.949999809265137,9.949999809265137,600
2020-06-10,9.899999618530273,9.899999618530273,9.859999656677246,9.859999656677246,9.859999656677246,1900
2020-06-11,9.829999923706055,9.850000381469727,9.829999923706055,9.850000381469727,9.850000381469727,158000
2020-06-12,9.854999542236328,9.854999542236328,9.854999542236328,9.854999542236328,9.854999542236328,200
2020-06-15,9.854999542236328,9.854999542236328,9.854999542236328,9.854999542236328,9.854999542236328,100
2020-06-16,9.875,9.899999618530273,9.875,9.899999618530273,9.899999618530273,36300
2020-06-17,9.899999618530273,9.899999618530273,9.899999618530273,9.899999618530273,9.899999618530273,0
2020-06-18,9.901000022888184,9.901000022888184,9.901000022888184,9.901000022888184,9.901000022888184,500
2020-06-19,9.899999618530273,9.899999618530273,9.899999618530273,9.899999618530273,9.899999618530273,100
2020-06-22,9.899999618530273,9.949999809265137,9.899999618530273,9.949999809265137,9.949999809265137,900
2020-06-23,10.0,10.0,10.0,10.0,10.0,15400
2020-06-24,10.0,10.0,9.989999771118164,9.989999771118164,9.989999771118164,10300
2020-06-25,9.979999542236328,10.0,9.979999542236328,9.989999771118164,9.989999771118164,88100
2020-06-26,10.0,10.0,10.0,10.0,10.0,15200
2020-06-29,9.996999740600586,10.050000190734863,9.996999740600586,10.020000457763672,10.020000457763672,35000
2020-06-30,10.140000343322754,10.140000343322754,9.989999771118164,10.050000190734863,10.050000190734863,60000
2020-07-01,10.050000190734863,10.050000190734863,10.0,10.020000457763672,10.020000457763672,6800
2020-07-02,9.979999542236328,9.979999542236328,9.979999542236328,9.979999542236328,9.979999542236328,1200
2020-07-06,10.069999694824219,10.069999694824219,10.050000190734863,10.069999694824219,10.069999694824219,18700
2020-07-07,10.0600004196167,10.09000015258789,10.0,10.04800033569336,10.04800033569336,44400
2020-07-08,10.04800033569336,10.04800033569336,10.04800033569336,10.04800033569336,10.04800033569336,0
2020-07-09,10.04800033569336,10.04800033569336,10.04800033569336,10.04800033569336,10.04800033569336,0
2020-07-10,10.0,10.029999732971191,10.0,10.029999732971191,10.029999732971191,8400
2020-07-13,10.0600004196167,10.09000015258789,10.050000190734863,10.069999694824219,10.069999694824219,126700
2020-07-14,10.079999923706055,10.149999618530273,10.079999923706055,10.149999618530273,10.149999618530273,12800
2020-07-15,10.149999618530273,10.149999618530273,10.149999618530273,10.149999618530273,10.149999618530273,0
2020-07-16,10.149999618530273,10.201000213623047,10.149999618530273,10.149999618530273,10.149999618530273,1400
2020-07-17,10.15999984741211,10.229999542236328,10.149999618530273,10.149999618530273,10.149999618530273,45000
2020-07-20,10.15999984741211,10.180000305175781,10.15999984741211,10.15999984741211,10.15999984741211,500
2020-07-21,10.210000038146973,10.279999732971191,10.199999809265137,10.279999732971191,10.279999732971191,15700
2020-07-22,10.300000190734863,10.4399995803833,10.29800033569336,10.4399995803833,10.4399995803833,37500
2020-07-23,10.350000381469727,10.430000305175781,10.350000381469727,10.399999618530273,10.399999618530273,25200
2020-07-24,10.399999618530273,10.399999618530273,10.220000267028809,10.220000267028809,10.220000267028809,4000
2020-07-27,10.390000343322754,10.399999618530273,10.350000381469727,10.399999618530273,10.399999618530273,19000
2020-07-28,10.399999618530273,10.399999618530273,10.399999618530273,10.399999618530273,10.399999618530273,0
2020-07-29,10.350000381469727,10.350000381469727,10.25,10.350000381469727,10.350000381469727,133600
2020-07-30,10.210000038146973,10.25,10.149999618530273,10.229999542236328,10.229999542236328,34100
2020-07-31,10.227999687194824,10.34000015258789,10.100000381469727,10.100000381469727,10.100000381469727,29100
2020-08-03,10.109999656677246,10.109999656677246,10.100000381469727,10.109999656677246,10.109999656677246,5000
2020-08-04,10.1899995803833,10.239999771118164,10.1899995803833,10.229999542236328,10.229999542236328,5400
2020-08-05,10.229999542236328,10.229999542236328,10.229999542236328,10.229999542236328,10.229999542236328,0
2020-08-06,10.229999542236328,10.229999542236328,10.229999542236328,10.229999542236328,10.229999542236328,0
2020-08-07,10.130000114440918,10.130000114440918,10.130000114440918,10.130000114440918,10.130000114440918,100000
2020-08-10,10.130000114440918,10.130000114440918,10.130000114440918,10.130000114440918,10.130000114440918,0
2020-08-11,10.100000381469727,10.140000343322754,10.069999694824219,10.09000015258789,10.09000015258789,3289100
2020-08-12,10.081999778747559,10.081999778747559,10.0600004196167,10.079999923706055,10.079999923706055,37600
2020-08-13,10.100000381469727,10.100000381469727,10.0600004196167,10.069999694824219,10.069999694824219,10400
2020-08-14,10.09000015258789,10.09000015258789,10.029999732971191,10.050000190734863,10.050000190734863,557900
2020-08-17,10.09000015258789,10.100000381469727,10.039999961853027,10.0600004196167,10.0600004196167,51700
2020-08-18,10.039999961853027,10.050000190734863,10.020000457763672,10.020000457763672,10.020000457763672,67600
2020-08-19,10.010000228881836,10.010000228881836,9.979999542236328,10.0,10.0,44500
2020-08-20,10.010000228881836,10.020000457763672,9.979999542236328,9.979999542236328,9.979999542236328,56300
2020-08-21,9.979999542236328,9.989999771118164,9.979999542236328,9.979999542236328,9.979999542236328,10600
2020-08-24,10.050000190734863,10.050000190734863,10.0,10.010000228881836,10.010000228881836,170300
2020-08-25,10.039999961853027,10.039999961853027,10.005999565124512,10.010000228881836,10.010000228881836,349100
2020-08-26,10.069999694824219,10.069999694824219,9.989999771118164,9.989999771118164,9.989999771118164,488700
2020-08-27,10.0,10.010000228881836,9.979999542236328,9.996999740600586,9.996999740600586,51200
2020-08-28,10.0,10.010000228881836,9.949999809265137,9.984999656677246,9.984999656677246,175900
2020-08-31,10.0,10.0,9.9399995803833,9.949999809265137,9.949999809265137,65300
2020-09-01,9.949999809265137,10.0,9.949999809265137,9.949999809265137,9.949999809265137,29800
2020-09-02,10.0,10.0,9.949999809265137,10.0,10.0,52200
2020-09-03,10.0,10.039999961853027,9.989999771118164,10.010000228881836,10.010000228881836,443400
2020-09-04,10.050000190734863,10.050000190734863,9.982000350952148,9.989999771118164,9.989999771118164,96900
2020-09-08,10.029999732971191,10.050000190734863,9.979999542236328,10.010000228881836,10.010000228881836,216200
2020-09-09,10.010000228881836,10.039999961853027,9.989999771118164,9.989999771118164,9.989999771118164,113600
2020-09-10,10.100000381469727,10.100000381469727,9.979999542236328,9.984999656677246,9.984999656677246,1272400
2020-09-11,10.050000190734863,10.0600004196167,9.979999542236328,9.989999771118164,9.989999771118164,872100
2020-09-14,10.010000228881836,10.020000457763672,9.979999542236328,9.989999771118164,9.989999771118164,72600
2020-09-15,10.0600004196167,10.0600004196167,9.970000267028809,10.0,10.0,101700
2020-09-16,10.010000228881836,10.010000228881836,9.979999542236328,9.989999771118164,9.989999771118164,50400
2020-09-17,10.010000228881836,10.020000457763672,9.970000267028809,10.0,10.0,119400
2020-09-18,10.010000228881836,10.020000457763672,9.930000305175781,10.0,10.0,308400
2020-09-21,10.0,10.0,9.9399995803833,9.989999771118164,9.989999771118164,77000
2020-09-22,9.949999809265137,10.0,9.949999809265137,9.979999542236328,9.979999542236328,578200
2020-09-23,9.979999542236328,10.0,9.960000038146973,9.960000038146973,9.960000038146973,101800
2020-09-24,9.989999771118164,9.989999771118164,9.9399995803833,9.949999809265137,9.949999809265137,52600
2020-09-25,9.975000381469727,10.0,9.949999809265137,9.949999809265137,9.949999809265137,69900
2020-09-28,9.949999809265137,9.970000267028809,9.9399995803833,9.970000267028809,9.970000267028809,230200
2020-09-29,10.0,10.0,9.949999809265137,9.979999542236328,9.979999542236328,57800
2020-09-30,10.0,10.0,9.9399995803833,9.960000038146973,9.960000038146973,364000
2020-10-01,10.0,10.0,9.9399995803833,9.9399995803833,9.9399995803833,903900
2020-10-02,9.930000305175781,9.960000038146973,9.920000076293945,9.949999809265137,9.949999809265137,608600
2020-10-05,10.0,10.020000457763672,9.949999809265137,10.0,10.0,179300
2020-10-06,10.0,10.020000457763672,9.970999717712402,10.010000228881836,10.010000228881836,312400
2020-10-07,10.010000228881836,10.039999961853027,9.970000267028809,10.029999732971191,10.029999732971191,837800
2020-10-08,9.90999984741211,9.989999771118164,9.680000305175781,9.899999618530273,9.899999618530273,56700
2020-10-09,9.800000190734863,10.130000114440918,9.409000396728516,10.050000190734863,10.050000190734863,218600
2020-10-12,10.140000343322754,10.300000190734863,9.75,9.960000038146973,9.960000038146973,170800
2020-10-13,10.15999984741211,10.1899995803833,9.75,9.9399995803833,9.9399995803833,68000
2020-10-14,9.9399995803833,10.1899995803833,9.850000381469727,10.100000381469727,10.100000381469727,72300
2020-10-15,11.0,12.057000160217285,10.5,11.199999809265137,11.199999809265137,450500
2020-10-16,11.640000343322754,11.640000343322754,10.545999526977539,10.760000228881836,10.760000228881836,83200
2020-10-19,11.489999771118164,11.489999771118164,10.770000457763672,11.020000457763672,11.020000457763672,207000
2020-10-20,11.029999732971191,11.100000381469727,10.300000190734863,10.520000457763672,10.520000457763672,94400
2020-10-21,10.670000076293945,11.0,10.34000015258789,10.670000076293945,10.670000076293945,80100
2020-10-22,10.84000015258789,10.960000038146973,9.6899995803833,9.6899995803833,9.6899995803833,71900
2020-10-23,9.710000038146973,9.880000114440918,8.899999618530273,9.050000190734863,9.050000190734863,81400
2020-10-26,9.050000190734863,9.050000190734863,8.5,8.510000228881836,8.510000228881836,84600
2020-10-27,8.489999771118164,9.0,8.460000038146973,8.600000381469727,8.600000381469727,57000
2020-10-28,8.550000190734863,8.569999694824219,8.1899995803833,8.380000114440918,8.380000114440918,29600
2020-10-29,8.300000190734863,8.539999961853027,8.25,8.4399995803833,8.4399995803833,15300
2020-10-30,8.470000267028809,8.699999809265137,8.149999618530273,8.630000114440918,8.630000114440918,21200
2020-11-02,8.630000114440918,8.770000457763672,8.489999771118164,8.770000457763672,8.770000457763672,23300
2020-11-03,9.460000038146973,9.739999771118164,8.770000457763672,9.130000114440918,9.130000114440918,26600
2020-11-04,9.079999923706055,9.25,8.800000190734863,8.899999618530273,8.899999618530273,24200
2020-11-05,8.930000305175781,9.25,8.930000305175781,9.210000038146973,9.210000038146973,13000
2020-11-06,9.260000228881836,9.449999809265137,8.850000381469727,9.239999771118164,9.239999771118164,17100
2020-11-09,8.489999771118164,9.539999961853027,7.440000057220459,9.220000267028809,9.220000267028809,17900
2020-11-10,9.15999984741211,9.489999771118164,8.850000381469727,8.949999809265137,8.949999809265137,22700
2020-11-11,8.90999984741211,9.4399995803833,8.90999984741211,9.4399995803833,9.4399995803833,44400
2020-11-12,9.350000381469727,10.0,9.270000457763672,9.800000190734863,9.800000190734863,949600
2020-11-13,10.0,10.0,9.029999732971191,9.229999542236328,9.229999542236328,63400
2020-11-16,9.300000190734863,9.489999771118164,9.029999732971191,9.220000267028809,9.220000267028809,40500
2020-11-17,9.229999542236328,10.734000205993652,9.229999542236328,10.5,10.5,136200
2020-11-18,10.430000305175781,10.76099967956543,9.899999618530273,10.050000190734863,10.050000190734863,53900
2020-11-19,10.09000015258789,10.246999740600586,9.510000228881836,9.899999618530273,9.899999618530273,31800
2020-11-20,9.880000114440918,10.050000190734863,9.75,10.050000190734863,10.050000190734863,35300
2020-11-23,10.0600004196167,10.25,9.670000076293945,9.90999984741211,9.90999984741211,46200
2020-11-24,9.819999694824219,10.489999771118164,9.600000381469727,10.0,10.0,78100
2020-11-25,10.020000457763672,10.140000343322754,9.880000114440918,9.9399995803833,9.9399995803833,35400
2020-11-27,9.979999542236328,10.100000381469727,9.8100004196167,9.920000076293945,9.920000076293945,42300
2020-11-30,9.819999694824219,10.449999809265137,9.710000038146973,9.789999961853027,9.789999961853027,102000
2020-12-01,9.8100004196167,9.8100004196167,9.569999694824219,9.59000015258789,9.59000015258789,40000
2020-12-02,9.59000015258789,9.640000343322754,9.449999809265137,9.5,9.5,50000
2020-12-03,9.460000038146973,9.5,9.229999542236328,9.300000190734863,9.300000190734863,55100
2020-12-04,9.279999732971191,9.390000343322754,9.0600004196167,9.180000305175781,9.180000305175781,144400
2020-12-07,9.180000305175781,9.239999771118164,8.779999732971191,8.84000015258789,8.84000015258789,109700
2020-12-08,8.720000267028809,9.270000457763672,8.720000267028809,8.899999618530273,8.899999618530273,175700
2020-12-09,9.020000457763672,9.130000114440918,8.569999694824219,8.6899995803833,8.6899995803833,165000
2020-12-10,8.970000267028809,8.970000267028809,8.720000267028809,8.899999618530273,8.899999618530273,136600
2020-12-11,9.0,9.010000228881836,8.6899995803833,8.850000381469727,8.850000381469727,108700
2020-12-14,8.970000267028809,9.699999809265137,8.800000190734863,9.699999809265137,9.699999809265137,315200
2020-12-15,10.09000015258789,11.0,9.890000343322754,10.890000343322754,10.890000343322754,355700
2020-12-16,10.800000190734863,11.670000076293945,10.069999694824219,10.609999656677246,10.609999656677246,358500
2020-12-17,10.619999885559082,11.104999542236328,10.550000190734863,11.09000015258789,11.09000015258789,282100
2020-12-18,11.345999717712402,11.649999618530273,10.529999732971191,10.529999732971191,10.529999732971191,891200
2020-12-21,13.359999656677246,14.029999732971191,12.109999656677246,13.210000038146973,13.210000038146973,1555100
2020-12-22,14.90999984741211,15.300000190734863,13.100000381469727,13.899999618530273,13.899999618530273,1360700
2020-12-23,13.630000114440918,14.5,13.3100004196167,13.449999809265137,13.449999809265137,672400
2020-12-24,13.770000457763672,13.869999885559082,13.130000114440918,13.800000190734863,13.800000190734863,202700
2020-12-28,13.8100004196167,14.199999809265137,13.039999961853027,13.420000076293945,13.420000076293945,494900
2020-12-29,14.029999732971191,14.5,13.770000457763672,14.0,14.0,692200
2020-12-30,14.229999542236328,15.0,14.149999618530273,14.300000190734863,14.300000190734863,619900
