Date,Open,High,Low,Close,Adj Close,Volume
2018-03-23,29.0,31.600000381469727,27.84000015258789,28.479999542236328,28.479999542236328,56108700
2018-03-26,30.450000762939453,30.65999984741211,27.75,30.450000762939453,30.450000762939453,16985700
2018-03-27,30.40999984741211,30.68000030517578,29.0,29.899999618530273,29.899999618530273,6911000
2018-03-28,29.260000228881836,31.190000534057617,28.610000610351562,30.979999542236328,30.979999542236328,5113300
2018-03-29,31.979999542236328,34.367000579833984,30.790000915527344,31.25,31.25,15800200
2018-04-02,31.190000534057617,31.38800048828125,29.309999465942383,30.010000228881836,30.010000228881836,5907700
2018-04-03,30.510000228881836,31.600000381469727,29.450000762939453,31.59000015258789,31.59000015258789,4305300
2018-04-04,30.31999969482422,31.46500015258789,30.200000762939453,30.850000381469727,30.850000381469727,2951200
2018-04-05,31.200000762939453,31.760000228881836,30.299999237060547,30.53499984741211,30.53499984741211,2734400
2018-04-06,30.3700008392334,31.0,30.0,30.239999771118164,30.239999771118164,1626700
2018-04-09,30.639999389648438,31.0,30.1299991607666,30.139999389648438,30.139999389648438,1128800
2018-04-10,30.440000534057617,31.739999771118164,30.25,31.229999542236328,31.229999542236328,2470300
2018-04-11,31.299999237060547,32.4900016784668,30.8700008392334,32.31999969482422,32.31999969482422,2391500
2018-04-12,33.11000061035156,34.82899856567383,32.91999816894531,33.27000045776367,33.27000045776367,5592300
2018-04-13,31.270000457763672,32.2400016784668,29.729999542236328,30.0,30.0,8525200
2018-04-16,30.200000762939453,30.399999618530273,28.0,29.020000457763672,29.020000457763672,5727900
2018-04-17,29.899999618530273,30.0,28.610000610351562,29.829999923706055,29.829999923706055,3438400
2018-04-18,30.010000228881836,31.170000076293945,29.610000610351562,30.559999465942383,30.559999465942383,2968200
2018-04-19,30.649999618530273,30.8799991607666,29.400999069213867,29.899999618530273,29.899999618530273,1575900
2018-04-20,29.700000762939453,29.899999618530273,28.670000076293945,28.920000076293945,28.920000076293945,1742500
2018-04-23,29.18000030517578,29.649999618530273,28.93000030517578,29.110000610351562,29.110000610351562,1468100
2018-04-24,29.229999542236328,29.799999237060547,28.290000915527344,28.940000534057617,28.940000534057617,1495200
2018-04-25,28.940000534057617,29.040000915527344,28.190000534057617,28.639999389648438,28.639999389648438,1258300
2018-04-26,28.8700008392334,29.503999710083008,28.530000686645508,29.329999923706055,29.329999923706055,1935700
2018-04-27,29.59000015258789,30.149999618530273,29.25,29.610000610351562,29.610000610351562,1263200
2018-04-30,29.799999237060547,30.329999923706055,29.6200008392334,30.110000610351562,30.110000610351562,1242300
2018-05-01,30.299999237060547,31.34000015258789,29.799999237060547,30.899999618530273,30.899999618530273,1735200
2018-05-02,30.969999313354492,31.5,30.5,31.010000228881836,31.010000228881836,1576100
2018-05-03,30.75,31.010000228881836,29.739999771118164,30.190000534057617,30.190000534057617,1127700
2018-05-04,30.1299991607666,30.399999618530273,29.049999237060547,29.1299991607666,29.1299991607666,1793100
2018-05-07,29.489999771118164,29.878999710083008,29.329999923706055,29.40999984741211,29.40999984741211,1807900
2018-05-08,29.56999969482422,30.299999237060547,29.5,30.229999542236328,30.229999542236328,1518900
2018-05-09,30.600000381469727,31.5,30.139999389648438,31.399999618530273,31.399999618530273,3258800
2018-05-10,32.29999923706055,32.29999923706055,31.40999984741211,32.0,32.0,6650900
2018-05-11,31.950000762939453,32.380001068115234,30.59000015258789,31.280000686645508,31.280000686645508,7338600
2018-05-14,31.6200008392334,31.75,29.700000762939453,29.959999084472656,29.959999084472656,4929300
2018-05-15,29.940000534057617,30.110000610351562,29.5,29.549999237060547,29.549999237060547,2766300
2018-05-16,29.780000686645508,30.950000762939453,29.6200008392334,30.739999771118164,30.739999771118164,2859500
2018-05-17,30.950000762939453,31.31999969482422,30.350000381469727,30.549999237060547,30.549999237060547,1817600
2018-05-18,30.600000381469727,30.75,30.15999984741211,30.200000762939453,30.200000762939453,1232600
2018-05-21,30.450000762939453,30.600000381469727,29.950000762939453,30.09000015258789,30.09000015258789,1444200
2018-05-22,30.049999237060547,30.459999084472656,30.010000228881836,30.09000015258789,30.09000015258789,883300
2018-05-23,30.0,30.1299991607666,29.549999237060547,29.739999771118164,29.739999771118164,1461700
2018-05-24,29.799999237060547,30.5,29.56999969482422,30.200000762939453,30.200000762939453,1238200
2018-05-25,30.100000381469727,30.382999420166016,29.799999237060547,29.969999313354492,29.969999313354492,958300
2018-05-29,29.940000534057617,30.100000381469727,29.40999984741211,29.780000686645508,29.780000686645508,966500
2018-05-30,29.899999618530273,30.56999969482422,29.780000686645508,30.469999313354492,30.469999313354492,1496600
2018-05-31,30.270000457763672,30.600000381469727,29.809999465942383,29.989999771118164,29.989999771118164,1369200
2018-06-01,30.0,30.229999542236328,29.420000076293945,29.649999618530273,29.649999618530273,2306100
2018-06-04,29.989999771118164,30.299999237060547,29.510000228881836,29.979999542236328,29.979999542236328,1935100
2018-06-05,29.809999465942383,30.969999313354492,29.809999465942383,30.889999389648438,30.889999389648438,2716100
2018-06-06,31.100000381469727,31.889999389648438,30.3700008392334,31.229999542236328,31.229999542236328,3475300
2018-06-07,31.290000915527344,31.299999237060547,29.809999465942383,30.270000457763672,30.270000457763672,2489700
2018-06-08,30.110000610351562,30.549999237060547,29.8799991607666,29.959999084472656,29.959999084472656,1770800
2018-06-11,30.1200008392334,30.405000686645508,29.899999618530273,30.100000381469727,30.100000381469727,1286400
2018-06-12,30.219999313354492,31.0,29.920000076293945,30.829999923706055,30.829999923706055,2650500
2018-06-13,30.809999465942383,31.899999618530273,30.459999084472656,31.670000076293945,31.670000076293945,3523000
2018-06-14,32.47999954223633,38.09000015258789,32.20500183105469,36.119998931884766,36.119998931884766,23701100
2018-06-15,36.119998931884766,40.084999084472656,35.349998474121094,39.599998474121094,39.599998474121094,19674900
2018-06-18,39.0,43.5,38.119998931884766,42.0,42.0,16268900
2018-06-19,41.349998474121094,42.88999938964844,38.5,39.70000076293945,39.70000076293945,12730700
2018-06-20,40.70000076293945,40.7400016784668,36.529998779296875,37.29999923706055,37.29999923706055,9481900
2018-06-21,36.90999984741211,38.4900016784668,35.36000061035156,35.689998626708984,35.689998626708984,7154000
2018-06-22,36.369998931884766,37.0,33.599998474121094,33.720001220703125,33.720001220703125,9475500
2018-06-25,33.22999954223633,34.59000015258789,32.15299987792969,32.52000045776367,32.52000045776367,8311900
2018-06-26,33.29999923706055,34.09000015258789,32.560001373291016,32.77000045776367,32.77000045776367,7061800
2018-06-27,33.040000915527344,33.59000015258789,31.190000534057617,31.219999313354492,31.219999313354492,5208600
2018-06-28,31.100000381469727,33.43000030517578,30.649999618530273,33.400001525878906,33.400001525878906,5733300
2018-06-29,33.560001373291016,34.0,31.739999771118164,32.41999816894531,32.41999816894531,6491000
2018-07-02,32.25,33.72999954223633,31.799999237060547,32.79999923706055,32.79999923706055,4212000
2018-07-03,33.02000045776367,33.22999954223633,31.889999389648438,32.0,32.0,1865000
2018-07-05,32.099998474121094,32.25,31.100000381469727,31.459999084472656,31.459999084472656,3420900
2018-07-06,31.540000915527344,32.08000183105469,31.270000457763672,31.360000610351562,31.360000610351562,3881000
2018-07-09,31.549999237060547,32.08000183105469,30.75,31.780000686645508,31.780000686645508,4204300
2018-07-10,31.979999542236328,32.900001525878906,31.049999237060547,31.280000686645508,31.280000686645508,4758400
2018-07-11,31.06999969482422,31.649999618530273,30.450000762939453,30.940000534057617,30.940000534057617,3297100
2018-07-12,31.34000015258789,32.689998626708984,30.950000762939453,32.41999816894531,32.41999816894531,3727900
2018-07-13,32.5,32.83000183105469,31.40999984741211,32.16999816894531,32.16999816894531,2409100
2018-07-16,32.15999984741211,32.43000030517578,31.510000228881836,32.27000045776367,32.27000045776367,1976400
2018-07-17,31.8799991607666,32.72999954223633,30.5,31.649999618530273,31.649999618530273,6014400
2018-07-18,31.350000381469727,31.986000061035156,31.1200008392334,31.239999771118164,31.239999771118164,1357300
2018-07-19,31.25,31.719999313354492,30.899999618530273,31.299999237060547,31.299999237060547,1958300
2018-07-20,31.34000015258789,31.579999923706055,30.8700008392334,31.0,31.0,1517100
2018-07-23,31.020000457763672,32.02000045776367,30.780000686645508,31.799999237060547,31.799999237060547,2894000
2018-07-24,32.31999969482422,32.69900131225586,30.149999618530273,30.75,30.75,4942500
2018-07-25,30.59000015258789,31.700000762939453,30.56999969482422,31.309999465942383,31.309999465942383,2511600
2018-07-26,31.0,31.360000610351562,30.600000381469727,30.709999084472656,30.709999084472656,1895200
2018-07-27,30.959999084472656,31.559999465942383,29.229999542236328,30.030000686645508,30.030000686645508,3221200
2018-07-30,30.100000381469727,30.399999618530273,27.399999618530273,27.770000457763672,27.770000457763672,6040400
2018-07-31,28.0,28.299999237060547,26.610000610351562,26.770000457763672,26.770000457763672,3947100
2018-08-01,27.549999237060547,28.649999618530273,27.219999313354492,27.809999465942383,27.809999465942383,4934400
2018-08-02,28.09000015258789,29.950000762939453,27.84000015258789,29.809999465942383,29.809999465942383,5371600
2018-08-03,30.030000686645508,30.031999588012695,28.809999465942383,29.969999313354492,29.969999313354492,3656000
2018-08-06,30.25,30.40999984741211,29.43000030517578,30.280000686645508,30.280000686645508,4124000
2018-08-07,30.510000228881836,31.790000915527344,30.399999618530273,31.520000457763672,31.520000457763672,4437600
2018-08-08,31.75,31.790000915527344,30.610000610351562,31.549999237060547,31.549999237060547,2925500
2018-08-09,31.649999618530273,34.95000076293945,31.60099983215332,34.43000030517578,34.43000030517578,18209900
2018-08-10,31.760000228881836,32.25,30.809999465942383,31.049999237060547,31.049999237060547,22123400
2018-08-13,31.479999542236328,31.950000762939453,29.100000381469727,29.15999984741211,29.15999984741211,11274500
2018-08-14,29.450000762939453,29.450000762939453,27.729999542236328,28.969999313354492,28.969999313354492,10805300
2018-08-15,28.56999969482422,29.200000762939453,28.200000762939453,28.969999313354492,28.969999313354492,3791900
2018-08-16,29.232999801635742,29.25,28.010000228881836,28.229999542236328,28.229999542236328,5359200
2018-08-17,28.059999465942383,28.229999542236328,27.0,27.510000228881836,27.510000228881836,6564600
2018-08-20,27.420000076293945,27.81999969482422,26.65999984741211,27.6200008392334,27.6200008392334,5149700
2018-08-21,27.700000762939453,28.34000015258789,27.18000030517578,28.270000457763672,28.270000457763672,4623500
2018-08-22,28.200000762939453,28.75,28.0,28.079999923706055,28.079999923706055,3458100
2018-08-23,28.0,28.799999237060547,27.75,28.34000015258789,28.34000015258789,3613900
2018-08-24,27.56999969482422,27.959999084472656,26.5,27.030000686645508,27.030000686645508,23986900
2018-08-27,27.0,27.700000762939453,26.950000762939453,27.3799991607666,27.3799991607666,7189600
2018-08-28,27.360000610351562,27.399999618530273,26.520000457763672,27.15999984741211,27.15999984741211,8478400
2018-08-29,27.020000457763672,27.389999389648438,26.75,27.010000228881836,27.010000228881836,6147600
2018-08-30,26.969999313354492,27.010000228881836,26.25,26.700000762939453,26.700000762939453,4212700
2018-08-31,26.610000610351562,27.0,26.50200080871582,26.850000381469727,26.850000381469727,3005000
2018-09-04,26.639999389648438,26.979999542236328,26.40999984741211,26.959999084472656,26.959999084472656,5090900
2018-09-05,26.709999084472656,26.899999618530273,25.649999618530273,26.600000381469727,26.600000381469727,6721300
2018-09-06,26.459999084472656,26.510000228881836,25.190000534057617,25.739999771118164,25.739999771118164,6803400
2018-09-07,25.100000381469727,26.8700008392334,24.780000686645508,26.760000228881836,26.760000228881836,6305700
2018-09-10,26.75,27.1200008392334,26.329999923706055,26.8799991607666,26.8799991607666,3629500
2018-09-11,26.549999237060547,27.290000915527344,26.51099967956543,26.969999313354492,26.969999313354492,2786900
2018-09-12,26.760000228881836,26.89699935913086,25.780000686645508,26.139999389648438,26.139999389648438,4784700
2018-09-13,26.399999618530273,26.524999618530273,25.459999084472656,25.729999542236328,25.729999542236328,4083800
2018-09-14,25.729999542236328,26.219999313354492,25.700000762939453,26.079999923706055,26.079999923706055,2909500
2018-09-17,25.799999237060547,26.75,25.799999237060547,26.200000762939453,26.200000762939453,3722100
2018-09-18,26.389999389648438,26.770000457763672,26.34000015258789,26.360000610351562,26.360000610351562,2381500
2018-09-19,26.530000686645508,26.75,25.030000686645508,25.65999984741211,25.65999984741211,6276500
2018-09-20,25.670000076293945,27.0,25.6299991607666,26.5,26.5,6485300
2018-09-21,26.739999771118164,27.020000457763672,26.18000030517578,26.360000610351562,26.360000610351562,6765500
2018-09-24,25.989999771118164,26.399999618530273,25.55500030517578,26.329999923706055,26.329999923706055,3330100
2018-09-25,26.309999465942383,27.200000762939453,26.299999237060547,27.139999389648438,27.139999389648438,3663500
2018-09-26,27.25,27.350000381469727,26.549999237060547,27.110000610351562,27.110000610351562,3638300
2018-09-27,27.209999084472656,27.290000915527344,26.951000213623047,27.049999237060547,27.049999237060547,1540100
2018-09-28,26.899999618530273,27.040000915527344,26.309999465942383,26.829999923706055,26.829999923706055,3221200
2018-10-01,26.81999969482422,26.93000030517578,25.700000762939453,26.219999313354492,26.219999313354492,4674300
2018-10-02,26.3799991607666,26.530000686645508,26.030000686645508,26.31999969482422,26.31999969482422,2659700
2018-10-03,26.3700008392334,26.520000457763672,26.059999465942383,26.25,26.25,1672000
2018-10-04,26.06999969482422,26.209999084472656,24.170000076293945,24.540000915527344,24.540000915527344,6012900
2018-10-05,24.690000534057617,24.860000610351562,22.920000076293945,24.06999969482422,24.06999969482422,8569500
2018-10-08,23.5,23.81999969482422,22.149999618530273,22.850000381469727,22.850000381469727,5834500
2018-10-09,22.3799991607666,23.389999389648438,22.18000030517578,22.75,22.75,4785100
2018-10-10,23.420000076293945,23.559999465942383,22.190000534057617,22.780000686645508,22.780000686645508,7874700
2018-10-11,22.59000015258789,23.56999969482422,22.06999969482422,22.8700008392334,22.8700008392334,5771000
2018-10-12,23.3700008392334,24.0,23.270000457763672,23.920000076293945,23.920000076293945,4268800
2018-10-15,23.760000228881836,24.190000534057617,23.25,23.969999313354492,23.969999313354492,1828800
2018-10-16,24.25,25.010000228881836,24.200000762939453,24.899999618530273,24.899999618530273,2197800
2018-10-17,24.889999389648438,24.959999084472656,24.3799991607666,24.860000610351562,24.860000610351562,1457900
2018-10-18,24.600000381469727,24.760000228881836,23.75,24.190000534057617,24.190000534057617,1750700
2018-10-19,24.190000534057617,24.65999984741211,23.260000228881836,23.3799991607666,23.3799991607666,1605800
2018-10-22,23.40999984741211,23.68000030517578,22.950000762939453,23.420000076293945,23.420000076293945,2288800
2018-10-23,22.610000610351562,23.594999313354492,22.51099967956543,23.360000610351562,23.360000610351562,2923300
2018-10-24,23.299999237060547,23.299999237060547,21.969999313354492,21.989999771118164,21.989999771118164,2726300
2018-10-25,22.229999542236328,22.469999313354492,21.360000610351562,22.350000381469727,22.350000381469727,2895800
2018-10-26,21.649999618530273,22.59000015258789,21.510000228881836,21.709999084472656,21.709999084472656,2717300
2018-10-29,22.09000015258789,22.829999923706055,21.6299991607666,22.010000228881836,22.010000228881836,2328300
2018-10-30,21.989999771118164,22.809999465942383,21.774999618530273,22.799999237060547,22.799999237060547,2360400
2018-10-31,23.110000610351562,23.799999237060547,23.0,23.469999313354492,23.469999313354492,2529300
2018-11-01,23.5,24.0,23.1200008392334,23.719999313354492,23.719999313354492,1756800
2018-11-02,23.979999542236328,24.1200008392334,23.389999389648438,24.030000686645508,24.030000686645508,2132700
2018-11-05,23.899999618530273,24.09000015258789,23.649999618530273,24.059999465942383,24.059999465942383,1580400
2018-11-06,23.90999984741211,24.450000762939453,23.780000686645508,24.049999237060547,24.049999237060547,1623500
2018-11-07,24.510000228881836,25.360000610351562,24.43000030517578,25.010000228881836,25.010000228881836,3021400
2018-11-08,24.940000534057617,25.53499984741211,24.25,24.739999771118164,24.739999771118164,7141700
2018-11-09,27.020000457763672,27.149999618530273,24.75,25.549999237060547,25.549999237060547,14744600
2018-11-12,24.68000030517578,25.010000228881836,23.56999969482422,24.34000015258789,24.34000015258789,5441700
2018-11-13,24.09000015258789,24.610000610351562,23.360000610351562,23.670000076293945,23.670000076293945,3562100
2018-11-14,23.809999465942383,24.239999771118164,23.3700008392334,23.559999465942383,23.559999465942383,3897000
2018-11-15,23.260000228881836,24.690000534057617,23.020000457763672,24.600000381469727,24.600000381469727,3167400
2018-11-16,23.899999618530273,24.280000686645508,23.200000762939453,23.270000457763672,23.270000457763672,4518100
2018-11-19,23.059999465942383,23.145000457763672,21.31999969482422,21.549999237060547,21.549999237060547,5910400
2018-11-20,20.0,21.780000686645508,19.540000915527344,21.450000762939453,21.450000762939453,4278000
2018-11-21,21.68000030517578,22.09000015258789,21.239999771118164,21.75,21.75,2496800
2018-11-23,21.540000915527344,22.440000534057617,21.5,22.350000381469727,22.350000381469727,1111800
2018-11-26,22.510000228881836,23.690000534057617,22.510000228881836,23.65999984741211,23.65999984741211,4483900
2018-11-27,23.09000015258789,23.399999618530273,22.56999969482422,23.040000915527344,23.040000915527344,3636200
2018-11-28,23.43000030517578,24.239999771118164,23.0,24.190000534057617,24.190000534057617,5568500
2018-11-29,23.8799991607666,24.639999389648438,23.530000686645508,24.459999084472656,24.459999084472656,3591200
2018-11-30,24.270000457763672,24.270000457763672,22.709999084472656,23.389999389648438,23.389999389648438,9758400
2018-12-03,23.899999618530273,24.0,23.43000030517578,23.770000457763672,23.770000457763672,3843300
2018-12-04,23.360000610351562,23.700000762939453,22.350000381469727,22.420000076293945,22.420000076293945,2560500
2018-12-06,21.860000610351562,22.610000610351562,21.469999313354492,22.420000076293945,22.420000076293945,3416200
2018-12-07,22.18000030517578,22.600000381469727,21.15999984741211,21.510000228881836,21.510000228881836,3077400
2018-12-10,21.389999389648438,22.329999923706055,21.350000381469727,22.010000228881836,22.010000228881836,2801000
2018-12-11,22.520000457763672,23.275999069213867,22.25,22.56999969482422,22.56999969482422,2892600
2018-12-12,22.920000076293945,23.3700008392334,22.770000457763672,22.809999465942383,22.809999465942383,1742400
2018-12-13,22.90999984741211,23.389999389648438,22.739999771118164,23.190000534057617,23.190000534057617,2102100
2018-12-14,22.65999984741211,23.450000762939453,22.5,22.600000381469727,22.600000381469727,1990800
2018-12-17,22.34000015258789,22.375,21.389999389648438,21.760000228881836,21.760000228881836,3291200
2018-12-18,21.93000030517578,22.225000381469727,21.190000534057617,21.459999084472656,21.459999084472656,3845100
2018-12-19,21.459999084472656,22.0,21.229999542236328,21.559999465942383,21.559999465942383,3500000
2018-12-20,21.40999984741211,21.58099937438965,19.697999954223633,20.3700008392334,20.3700008392334,5135400
2018-12-21,20.639999389648438,20.790000915527344,18.770000457763672,19.3799991607666,19.3799991607666,7083400
2018-12-24,18.549999237060547,20.030000686645508,18.5,19.75,19.75,2187800
2018-12-26,19.989999771118164,20.770000457763672,19.65999984741211,20.760000228881836,20.760000228881836,3460500
2018-12-27,20.440000534057617,20.90999984741211,20.06999969482422,20.8700008392334,20.8700008392334,1600900
2018-12-28,20.940000534057617,21.149999618530273,20.280000686645508,20.790000915527344,20.790000915527344,2171300
2018-12-31,20.969999313354492,21.18000030517578,20.100000381469727,20.43000030517578,20.43000030517578,3862600
2019-01-02,19.959999084472656,20.899999618530273,19.760000228881836,20.670000076293945,20.670000076293945,2253600
2019-01-03,20.40999984741211,20.850000381469727,20.059999465942383,20.09000015258789,20.09000015258789,1691000
2019-01-04,20.549999237060547,21.459999084472656,20.5,21.280000686645508,21.280000686645508,1815600
2019-01-07,21.3799991607666,22.149999618530273,21.110000610351562,21.760000228881836,21.760000228881836,2418800
2019-01-08,22.040000915527344,22.219999313354492,21.6200008392334,22.06999969482422,22.06999969482422,1805000
2019-01-09,22.010000228881836,22.610000610351562,21.760000228881836,22.299999237060547,22.299999237060547,2066100
2019-01-10,22.1299991607666,22.799999237060547,22.010000228881836,22.489999771118164,22.489999771118164,1507800
2019-01-11,22.290000915527344,22.530000686645508,22.110000610351562,22.389999389648438,22.389999389648438,1552100
2019-01-14,22.219999313354492,22.229999542236328,21.910999298095703,22.010000228881836,22.010000228881836,1402100
2019-01-15,21.989999771118164,22.790000915527344,21.979999542236328,22.579999923706055,22.579999923706055,1618500
2019-01-16,22.56999969482422,22.700000762939453,22.15999984741211,22.479999542236328,22.479999542236328,1377500
2019-01-17,22.5,22.812999725341797,22.270000457763672,22.600000381469727,22.600000381469727,1493700
2019-01-18,22.860000610351562,23.799999237060547,22.719999313354492,23.59000015258789,23.59000015258789,2870300
2019-01-22,23.399999618530273,23.5,22.649999618530273,22.899999618530273,22.899999618530273,1931200
2019-01-23,23.360000610351562,23.549999237060547,23.040000915527344,23.309999465942383,23.309999465942383,1913100
2019-01-24,23.190000534057617,23.469999313354492,23.010000228881836,23.389999389648438,23.389999389648438,1347200
2019-01-25,23.68000030517578,24.100000381469727,23.489999771118164,23.899999618530273,23.899999618530273,2680600
2019-01-28,23.6299991607666,24.18000030517578,23.239999771118164,24.139999389648438,24.139999389648438,2131600
2019-01-29,24.06999969482422,24.100000381469727,23.079999923706055,23.239999771118164,23.239999771118164,1723100
2019-01-30,23.5,24.045000076293945,23.329999923706055,23.93000030517578,23.93000030517578,1476800
2019-01-31,24.040000915527344,24.989999771118164,24.0,24.709999084472656,24.709999084472656,3611300
2019-02-01,24.549999237060547,24.649999618530273,23.270000457763672,24.239999771118164,24.239999771118164,4505100
2019-02-04,24.389999389648438,24.850000381469727,24.0,24.56999969482422,24.56999969482422,1697800
2019-02-05,24.639999389648438,25.295000076293945,24.489999771118164,25.200000762939453,25.200000762939453,3021300
2019-02-06,25.25,25.440000534057617,24.75,25.239999771118164,25.239999771118164,1906500
2019-02-07,25.100000381469727,25.209999084472656,24.40999984741211,24.790000915527344,24.790000915527344,1462100
2019-02-08,24.610000610351562,25.469999313354492,24.510000228881836,25.420000076293945,25.420000076293945,1834700
2019-02-11,25.469999313354492,25.649999618530273,25.079999923706055,25.149999618530273,25.149999618530273,1591300
2019-02-12,25.440000534057617,25.600000381469727,25.25,25.43000030517578,25.43000030517578,1218900
2019-02-13,25.559999465942383,25.639999389648438,25.219999313354492,25.450000762939453,25.450000762939453,1354400
2019-02-14,25.530000686645508,25.94499969482422,25.31999969482422,25.780000686645508,25.780000686645508,1701600
2019-02-15,26.0,26.0,25.479999542236328,25.540000915527344,25.540000915527344,1906200
2019-02-19,25.3799991607666,26.209999084472656,25.329999923706055,25.989999771118164,25.989999771118164,2801400
2019-02-20,26.299999237060547,26.489999771118164,25.469999313354492,25.489999771118164,25.489999771118164,3002300
2019-02-21,25.709999084472656,25.739999771118164,24.93000030517578,25.59000015258789,25.59000015258789,7690400
2019-02-22,23.799999237060547,24.200000762939453,23.030000686645508,23.450000762939453,23.450000762939453,13652100
2019-02-25,23.530000686645508,23.979999542236328,23.43000030517578,23.59000015258789,23.59000015258789,4989800
2019-02-26,23.280000686645508,24.389999389648438,23.25,24.34000015258789,24.34000015258789,4623200
2019-02-27,23.850000381469727,24.350000381469727,23.5,24.239999771118164,24.239999771118164,3441800
2019-02-28,24.0,24.100000381469727,23.31999969482422,23.860000610351562,23.860000610351562,3922900
2019-03-01,23.920000076293945,24.0,23.600000381469727,23.889999389648438,23.889999389648438,3471600
2019-03-04,24.0,24.0,23.37700080871582,23.860000610351562,23.860000610351562,4560900
2019-03-05,23.760000228881836,23.790000915527344,23.514999389648438,23.540000915527344,23.540000915527344,2056100
2019-03-06,23.450000762939453,23.450000762939453,22.2549991607666,22.6299991607666,22.6299991607666,5492000
2019-03-07,22.600000381469727,22.75,22.190000534057617,22.510000228881836,22.510000228881836,2721800
2019-03-08,22.030000686645508,22.489999771118164,21.84000015258789,22.229999542236328,22.229999542236328,2440600
2019-03-11,22.270000457763672,23.0,22.229999542236328,22.639999389648438,22.639999389648438,2242000
2019-03-12,22.84000015258789,23.2450008392334,22.700000762939453,23.110000610351562,23.110000610351562,2345500
2019-03-13,23.010000228881836,23.280000686645508,22.59000015258789,22.59000015258789,22.59000015258789,3397000
2019-03-14,22.479999542236328,22.8700008392334,22.079999923706055,22.1299991607666,22.1299991607666,3085700
2019-03-15,22.299999237060547,22.549999237060547,22.149999618530273,22.309999465942383,22.309999465942383,2359100
2019-03-18,22.299999237060547,22.459999084472656,21.979999542236328,22.15999984741211,22.15999984741211,3246600
2019-03-19,22.209999084472656,22.489999771118164,22.020000457763672,22.31999969482422,22.31999969482422,2615400
2019-03-20,22.34000015258789,22.450000762939453,22.049999237060547,22.100000381469727,22.100000381469727,1745300
2019-03-21,22.030000686645508,22.739999771118164,22.010000228881836,22.65999984741211,22.65999984741211,2311600
2019-03-22,22.5,22.700000762939453,21.670000076293945,21.719999313354492,21.719999313354492,3392300
2019-03-25,21.5,21.8799991607666,21.334999084472656,21.829999923706055,21.829999923706055,1856600
2019-03-26,22.020000457763672,22.1200008392334,21.780000686645508,21.959999084472656,21.959999084472656,1361900
2019-03-27,21.93000030517578,21.950000762939453,21.079999923706055,21.420000076293945,21.420000076293945,2970900
2019-03-28,21.459999084472656,21.56999969482422,21.139999389648438,21.5,21.5,2003900
2019-03-29,21.670000076293945,21.950000762939453,21.579999923706055,21.799999237060547,21.799999237060547,2879400
2019-04-01,22.0,22.15999984741211,21.459999084472656,21.56999969482422,21.56999969482422,2821600
2019-04-02,21.510000228881836,22.139999389648438,21.350000381469727,22.1299991607666,22.1299991607666,3500600
2019-04-03,22.15999984741211,22.549999237060547,22.09000015258789,22.280000686645508,22.280000686645508,1869400
2019-04-04,22.229999542236328,22.420000076293945,21.709999084472656,21.899999618530273,21.899999618530273,2329900
2019-04-05,22.020000457763672,22.100000381469727,21.81999969482422,21.950000762939453,21.950000762939453,1970300
2019-04-08,21.790000915527344,22.3799991607666,21.59000015258789,22.139999389648438,22.139999389648438,1885500
2019-04-09,21.979999542236328,22.15999984741211,21.780000686645508,21.940000534057617,21.940000534057617,2380000
2019-04-10,21.959999084472656,22.329999923706055,21.940000534057617,22.280000686645508,22.280000686645508,1614900
2019-04-11,22.280000686645508,22.440000534057617,22.030000686645508,22.079999923706055,22.079999923706055,1033000
2019-04-12,22.200000762939453,22.405000686645508,21.959999084472656,22.34000015258789,22.34000015258789,1929700
2019-04-15,22.290000915527344,22.530000686645508,22.110000610351562,22.149999618530273,22.149999618530273,1003900
2019-04-16,22.25,22.34600067138672,21.68000030517578,21.799999237060547,21.799999237060547,1795000
2019-04-17,21.90999984741211,21.979000091552734,21.040000915527344,21.149999618530273,21.149999618530273,4526800
2019-04-18,21.149999618530273,21.34000015258789,20.600000381469727,21.25,21.25,2141200
2019-04-22,21.059999465942383,23.344999313354492,21.059999465942383,23.15999984741211,23.15999984741211,7393600
2019-04-23,22.790000915527344,23.450000762939453,21.969999313354492,23.329999923706055,23.329999923706055,5649000
2019-04-24,23.309999465942383,23.76099967956543,23.25,23.399999618530273,23.399999618530273,3822700
2019-04-25,23.43000030517578,24.049999237060547,23.31999969482422,23.649999618530273,23.649999618530273,4025600
2019-04-26,23.559999465942383,24.389999389648438,23.559999465942383,24.350000381469727,24.350000381469727,18865700
2019-04-29,24.399999618530273,24.649999618530273,24.25,24.40999984741211,24.40999984741211,4458500
2019-04-30,24.420000076293945,24.6299991607666,24.100000381469727,24.3799991607666,24.3799991607666,3224300
2019-05-01,24.5,24.5,23.8799991607666,23.899999618530273,23.899999618530273,2059100
2019-05-02,23.950000762939453,24.1200008392334,23.510000228881836,23.969999313354492,23.969999313354492,3039900
2019-05-03,24.0,24.5,23.8799991607666,24.420000076293945,24.420000076293945,2733700
2019-05-06,23.799999237060547,24.299999237060547,23.56999969482422,24.15999984741211,24.15999984741211,3665100
2019-05-07,23.979999542236328,24.139999389648438,23.329999923706055,23.59000015258789,23.59000015258789,2747100
2019-05-08,23.639999389648438,24.149999618530273,23.510000228881836,23.670000076293945,23.670000076293945,2157600
2019-05-09,23.329999923706055,23.459999084472656,22.84000015258789,23.229999542236328,23.229999542236328,6706400
2019-05-10,24.790000915527344,24.790000915527344,22.600000381469727,23.5,23.5,9323300
2019-05-13,22.399999618530273,22.709999084472656,21.56999969482422,21.68000030517578,21.68000030517578,4746500
2019-05-14,21.860000610351562,22.350000381469727,21.860000610351562,22.190000534057617,22.190000534057617,4144600
2019-05-15,21.889999389648438,23.18000030517578,21.854000091552734,22.809999465942383,22.809999465942383,4252200
2019-05-16,22.81999969482422,23.75,22.790000915527344,23.520000457763672,23.520000457763672,4173000
2019-05-17,23.06999969482422,23.450000762939453,22.850000381469727,23.0,23.0,2931200
2019-05-20,22.459999084472656,23.485000610351562,22.450000762939453,23.139999389648438,23.139999389648438,2485900
2019-05-21,23.450000762939453,23.68000030517578,23.139999389648438,23.200000762939453,23.200000762939453,2507500
2019-05-22,23.280000686645508,23.6299991607666,23.1299991607666,23.209999084472656,23.209999084472656,2229200
2019-05-23,22.75,23.040000915527344,22.360000610351562,22.559999465942383,22.559999465942383,2583200
2019-05-24,22.690000534057617,22.8799991607666,22.399999618530273,22.600000381469727,22.600000381469727,2136300
2019-05-28,22.780000686645508,23.350000381469727,22.450000762939453,22.649999618530273,22.649999618530273,10821500
2019-05-29,22.450000762939453,22.739999771118164,22.25,22.6200008392334,22.6200008392334,2399400
2019-05-30,22.600000381469727,22.950000762939453,22.25,22.3799991607666,22.3799991607666,1975600
2019-05-31,22.03499984741211,22.81999969482422,21.95400047302246,22.559999465942383,22.559999465942383,3562600
2019-06-03,22.700000762939453,23.0,22.264999389648438,22.329999923706055,22.329999923706055,4396300
2019-06-04,22.34000015258789,22.350000381469727,21.0,21.8700008392334,21.8700008392334,6103600
2019-06-05,22.1299991607666,22.959999084472656,21.899999618530273,22.8799991607666,22.8799991607666,6698600
2019-06-06,22.530000686645508,22.920000076293945,22.1200008392334,22.84000015258789,22.84000015258789,4258600
2019-06-07,22.889999389648438,23.389999389648438,22.829999923706055,23.030000686645508,23.030000686645508,4412200
2019-06-10,22.899999618530273,23.010000228881836,22.209999084472656,22.739999771118164,22.739999771118164,4863200
2019-06-11,22.979999542236328,23.059999465942383,22.399999618530273,22.68000030517578,22.68000030517578,3300300
2019-06-12,22.790000915527344,23.18000030517578,22.649999618530273,23.030000686645508,23.030000686645508,4022400
2019-06-13,23.1299991607666,24.165000915527344,23.049999237060547,24.049999237060547,24.049999237060547,7969500
2019-06-14,23.690000534057617,24.0,23.219999313354492,23.459999084472656,23.459999084472656,4540100
2019-06-17,23.549999237060547,24.059999465942383,23.440000534057617,23.540000915527344,23.540000915527344,4466200
2019-06-18,23.889999389648438,24.049999237060547,23.6299991607666,23.84000015258789,23.84000015258789,3643500
2019-06-19,24.0,24.209999084472656,23.889999389648438,24.200000762939453,24.200000762939453,3929200
2019-06-20,24.200000762939453,24.520000457763672,23.899999618530273,24.520000457763672,24.520000457763672,5767200
2019-06-21,24.270000457763672,25.18000030517578,24.21500015258789,25.010000228881836,25.010000228881836,13559800
2019-06-24,25.100000381469727,25.420000076293945,24.71500015258789,24.799999237060547,24.799999237060547,5463500
2019-06-25,25.0,25.0,23.924999237060547,23.969999313354492,23.969999313354492,5583200
2019-06-26,24.200000762939453,24.760000228881836,24.15999984741211,24.6200008392334,24.6200008392334,6385400
2019-06-27,24.709999084472656,25.239999771118164,24.68000030517578,24.950000762939453,24.950000762939453,5424500
2019-06-28,24.889999389648438,25.065000534057617,24.239999771118164,25.049999237060547,25.049999237060547,17831900
2019-07-01,25.309999465942383,25.415000915527344,24.934999465942383,25.010000228881836,25.010000228881836,4195100
2019-07-02,25.0,25.09000015258789,24.639999389648438,25.0,25.0,3702200
2019-07-03,24.75,25.110000610351562,24.329999923706055,25.079999923706055,25.079999923706055,3734400
2019-07-05,24.93000030517578,25.25,24.90999984741211,25.15999984741211,25.15999984741211,2224100
2019-07-08,25.079999923706055,25.309999465942383,24.719999313354492,24.950000762939453,24.950000762939453,3594800
2019-07-09,24.84000015258789,25.229999542236328,24.84000015258789,25.209999084472656,25.209999084472656,3058400
2019-07-10,25.170000076293945,25.68000030517578,25.06599998474121,25.510000228881836,25.510000228881836,5798300
2019-07-11,25.530000686645508,26.049999237060547,25.424999237060547,25.959999084472656,25.959999084472656,4417700
2019-07-12,26.040000915527344,26.149999618530273,25.829999923706055,25.8700008392334,25.8700008392334,2711400
2019-07-15,25.959999084472656,26.200000762939453,25.773000717163086,26.1299991607666,26.1299991607666,5305200
2019-07-16,26.09000015258789,26.139999389648438,25.149999618530273,25.450000762939453,25.450000762939453,3954200
2019-07-17,25.440000534057617,25.719999313354492,25.020000457763672,25.049999237060547,25.049999237060547,2526500
2019-07-18,25.020000457763672,25.219999313354492,24.709999084472656,24.979999542236328,24.979999542236328,3131400
2019-07-19,25.09000015258789,25.170000076293945,24.389999389648438,24.43000030517578,24.43000030517578,2859300
2019-07-22,24.510000228881836,24.719999313354492,24.170000076293945,24.399999618530273,24.399999618530273,2758900
2019-07-23,24.700000762939453,24.700000762939453,24.170000076293945,24.229999542236328,24.229999542236328,2521100
2019-07-24,24.309999465942383,24.75,24.139999389648438,24.68000030517578,24.68000030517578,1871900
2019-07-25,24.719999313354492,24.780000686645508,24.459999084472656,24.549999237060547,24.549999237060547,1979200
2019-07-26,24.690000534057617,24.969999313354492,24.520000457763672,24.6299991607666,24.6299991607666,2170200
2019-07-29,24.639999389648438,24.799999237060547,23.459999084472656,23.940000534057617,23.940000534057617,3036800
2019-07-30,23.799999237060547,23.92300033569336,23.614999771118164,23.799999237060547,23.799999237060547,1991400
2019-07-31,23.84000015258789,24.040000915527344,23.329999923706055,23.559999465942383,23.559999465942383,2775000
2019-08-01,23.559999465942383,24.229999542236328,23.389999389648438,23.5,23.5,2947800
2019-08-02,23.31999969482422,23.43000030517578,22.790000915527344,23.020000457763672,23.020000457763672,2728400
2019-08-05,22.329999923706055,22.329999923706055,21.510000228881836,21.809999465942383,21.809999465942383,5726900
2019-08-06,22.239999771118164,22.59000015258789,21.469999313354492,21.700000762939453,21.700000762939453,3814900
2019-08-07,21.09000015258789,21.200000762939453,20.469999313354492,20.760000228881836,20.760000228881836,6883000
2019-08-08,21.1200008392334,21.579999923706055,20.959999084472656,21.459999084472656,21.459999084472656,9409600
2019-08-09,20.540000915527344,20.56599998474121,18.399999618530273,18.709999084472656,18.709999084472656,19604500
2019-08-12,18.700000762939453,18.989999771118164,18.200000762939453,18.219999313354492,18.219999313354492,6569700
2019-08-13,18.1299991607666,18.43000030517578,17.950000762939453,18.3700008392334,18.3700008392334,7308200
2019-08-14,17.780000686645508,17.989999771118164,17.375,17.56999969482422,17.56999969482422,6310900
2019-08-15,17.450000762939453,17.639999389648438,17.200000762939453,17.260000228881836,17.260000228881836,5200100
2019-08-16,17.31999969482422,17.600000381469727,17.229999542236328,17.479999542236328,17.479999542236328,2572900
2019-08-19,17.65999984741211,17.920000076293945,17.6200008392334,17.790000915527344,17.790000915527344,5017500
2019-08-20,17.68000030517578,18.0,17.600000381469727,17.799999237060547,17.799999237060547,3304900
2019-08-21,18.0,18.309999465942383,17.8700008392334,17.920000076293945,17.920000076293945,3149000
2019-08-22,17.950000762939453,18.059999465942383,17.639999389648438,18.0,18.0,2210200
2019-08-23,17.889999389648438,18.209999084472656,17.711999893188477,17.760000228881836,17.760000228881836,3876400
2019-08-26,17.920000076293945,17.959999084472656,17.475000381469727,17.700000762939453,17.700000762939453,2493600
2019-08-27,17.850000381469727,18.0,17.454999923706055,17.530000686645508,17.530000686645508,2024800
2019-08-28,17.59000015258789,17.700000762939453,17.290000915527344,17.649999618530273,17.649999618530273,1932000
2019-08-29,17.81999969482422,18.149999618530273,17.709999084472656,17.899999618530273,17.899999618530273,2310900
2019-08-30,18.06999969482422,18.06999969482422,17.639999389648438,17.899999618530273,17.899999618530273,1543700
2019-09-03,17.690000534057617,17.9950008392334,17.68199920654297,17.950000762939453,17.950000762939453,2787400
2019-09-04,18.110000610351562,18.489999771118164,18.040000915527344,18.3799991607666,18.3799991607666,3168800
2019-09-05,18.549999237060547,18.950000762939453,18.510000228881836,18.860000610351562,18.860000610351562,3402400
2019-09-06,18.959999084472656,19.149999618530273,18.770000457763672,18.969999313354492,18.969999313354492,2468500
2019-09-09,19.030000686645508,19.479999542236328,18.885000228881836,19.479999542236328,19.479999542236328,3878800
2019-09-10,19.239999771118164,20.110000610351562,19.06999969482422,20.06999969482422,20.06999969482422,4615000
2019-09-11,20.190000534057617,20.56999969482422,19.899999618530273,20.31999969482422,20.31999969482422,4552300
2019-09-12,20.40999984741211,20.440000534057617,19.895000457763672,20.020000457763672,20.020000457763672,3160300
2019-09-13,19.920000076293945,20.389999389648438,19.915000915527344,20.059999465942383,20.059999465942383,6588600
2019-09-16,19.829999923706055,20.459999084472656,19.739999771118164,20.399999618530273,20.399999618530273,2806400
2019-09-17,20.420000076293945,20.950000762939453,20.31999969482422,20.8799991607666,20.8799991607666,4334300
2019-09-18,20.760000228881836,21.0,20.59000015258789,20.959999084472656,20.959999084472656,3691800
2019-09-19,20.989999771118164,21.100000381469727,20.6299991607666,21.030000686645508,21.030000686645508,3203600
2019-09-20,21.15999984741211,21.469999313354492,20.90999984741211,21.030000686645508,21.030000686645508,5691200
2019-09-23,20.889999389648438,20.889999389648438,19.875,20.274999618530273,20.274999618530273,4685400
2019-09-24,20.43000030517578,20.770000457763672,19.700000762939453,19.790000915527344,19.790000915527344,4664600
2019-09-25,19.850000381469727,20.0,19.190000534057617,19.75,19.75,2789000
2019-09-26,20.31999969482422,20.889999389648438,19.950000762939453,20.06999969482422,20.06999969482422,4352800
2019-09-27,20.1200008392334,20.270000457763672,19.459999084472656,19.770000457763672,19.770000457763672,3667200
2019-09-30,19.790000915527344,20.280000686645508,19.709999084472656,20.170000076293945,20.170000076293945,2142800
2019-10-01,20.229999542236328,20.34000015258789,19.790000915527344,19.950000762939453,19.950000762939453,1876600
2019-10-02,19.760000228881836,19.899999618530273,19.209999084472656,19.260000228881836,19.260000228881836,2572000
2019-10-03,19.149999618530273,19.559999465942383,18.780000686645508,19.469999313354492,19.469999313354492,2541400
2019-10-04,19.610000610351562,19.899999618530273,19.3799991607666,19.469999313354492,19.469999313354492,2447100
2019-10-07,19.5,19.889999389648438,19.360000610351562,19.700000762939453,19.700000762939453,1907800
2019-10-08,19.65999984741211,19.65999984741211,19.1200008392334,19.274999618530273,19.274999618530273,1785100
2019-10-09,19.549999237060547,19.600000381469727,18.989999771118164,19.040000915527344,19.040000915527344,1684800
2019-10-10,18.959999084472656,19.1200008392334,18.670000076293945,18.760000228881836,18.760000228881836,3079900
2019-10-11,18.989999771118164,19.559999465942383,18.90999984741211,19.264999389648438,19.264999389648438,3689400
2019-10-14,19.1200008392334,19.459999084472656,18.959999084472656,19.34000015258789,19.34000015258789,3890100
2019-10-15,19.34000015258789,19.65999984741211,19.190000534057617,19.415000915527344,19.415000915527344,1911000
2019-10-16,19.25,19.329999923706055,18.799999237060547,18.940000534057617,18.940000534057617,2723200
2019-10-17,18.950000762939453,19.170000076293945,18.84000015258789,18.940000534057617,18.940000534057617,1743600
2019-10-18,18.84000015258789,18.950000762939453,18.309999465942383,18.415000915527344,18.415000915527344,2533700
2019-10-21,18.59000015258789,19.18000030517578,18.506999969482422,18.920000076293945,18.920000076293945,2989700
2019-10-22,19.510000228881836,19.65999984741211,19.059999465942383,19.31999969482422,19.31999969482422,2162500
2019-10-23,19.25,19.530000686645508,19.18000030517578,19.209999084472656,19.209999084472656,1485800
2019-10-24,19.43000030517578,19.56999969482422,19.270000457763672,19.549999237060547,19.549999237060547,1329200
2019-10-25,19.540000915527344,19.8700008392334,19.329999923706055,19.729999542236328,19.729999542236328,1569700
2019-10-28,19.899999618530273,20.155000686645508,19.739999771118164,20.06999969482422,20.06999969482422,1368700
2019-10-29,19.969999313354492,20.1200008392334,19.79599952697754,20.059999465942383,20.059999465942383,1438300
2019-10-30,20.219999313354492,20.229999542236328,19.829999923706055,20.049999237060547,20.049999237060547,1287100
2019-10-31,20.0,20.049999237060547,19.6299991607666,19.81999969482422,19.81999969482422,1862500
2019-11-01,19.8799991607666,20.5,19.75,20.25,20.25,1876700
2019-11-04,20.600000381469727,20.809999465942383,20.420000076293945,20.540000915527344,20.540000915527344,2139500
2019-11-05,20.780000686645508,20.950000762939453,20.549999237060547,20.8700008392334,20.8700008392334,1762400
2019-11-06,20.829999923706055,20.834999084472656,20.459999084472656,20.559999465942383,20.559999465942383,2515700
2019-11-07,20.65999984741211,21.200000762939453,20.40999984741211,20.959999084472656,20.959999084472656,6738000
2019-11-08,21.030000686645508,21.100000381469727,18.860000610351562,19.795000076293945,19.795000076293945,9567900
2019-11-11,19.700000762939453,19.788999557495117,18.760000228881836,18.860000610351562,18.860000610351562,6272200
2019-11-12,18.84000015258789,19.280000686645508,18.799999237060547,18.90999984741211,18.90999984741211,3367800
2019-11-13,18.84000015258789,19.649999618530273,18.260000228881836,19.450000762939453,19.450000762939453,9185300
2019-11-14,19.469999313354492,19.503000259399414,18.739999771118164,18.84000015258789,18.84000015258789,4549000
2019-11-15,18.90999984741211,19.239999771118164,18.684999465942383,19.209999084472656,19.209999084472656,4428000
2019-11-18,19.110000610351562,19.204999923706055,18.690000534057617,18.969999313354492,18.969999313354492,3210300
2019-11-19,18.889999389648438,19.1299991607666,18.6299991607666,19.030000686645508,19.030000686645508,3661800
2019-11-20,18.8700008392334,19.149999618530273,18.729999542236328,18.93000030517578,18.93000030517578,3757900
2019-11-21,19.0,19.270000457763672,18.469999313354492,18.520000457763672,18.520000457763672,4144000
2019-11-22,18.65999984741211,19.09000015258789,18.56999969482422,18.979999542236328,18.979999542236328,2860400
2019-11-25,18.989999771118164,19.31999969482422,18.93000030517578,19.030000686645508,19.030000686645508,3231600
2019-11-26,18.989999771118164,19.190000534057617,18.799999237060547,18.899999618530273,18.899999618530273,4500700
2019-11-27,18.93000030517578,18.969999313354492,18.6200008392334,18.700000762939453,18.700000762939453,2726700
2019-11-29,18.610000610351562,18.65999984741211,18.479999542236328,18.489999771118164,18.489999771118164,1351000
2019-12-02,18.5,18.57900047302246,17.969999313354492,18.350000381469727,18.350000381469727,3957900
2019-12-03,18.09000015258789,18.309999465942383,17.84000015258789,18.200000762939453,18.200000762939453,5945400
2019-12-04,18.329999923706055,18.399999618530273,18.06999969482422,18.260000228881836,18.260000228881836,5077700
2019-12-05,18.260000228881836,18.3700008392334,17.940000534057617,18.059999465942383,18.059999465942383,3828800
2019-12-06,18.139999389648438,18.459999084472656,18.079999923706055,18.270000457763672,18.270000457763672,3316700
2019-12-09,18.270000457763672,18.44499969482422,18.059999465942383,18.09000015258789,18.09000015258789,3073500
2019-12-10,18.040000915527344,18.1200008392334,17.790000915527344,17.809999465942383,17.809999465942383,3518200
2019-12-11,17.399999618530273,17.5,16.950000762939453,17.239999771118164,17.239999771118164,8195600
2019-12-12,17.149999618530273,17.219999313354492,16.625,16.75,16.75,6194000
2019-12-13,16.75,17.024999618530273,16.079999923706055,16.799999237060547,16.799999237060547,4183100
2019-12-16,16.889999389648438,17.280000686645508,16.889999389648438,17.1200008392334,17.1200008392334,3125300
2019-12-17,17.170000076293945,17.209999084472656,16.649999618530273,17.15999984741211,17.15999984741211,4920000
2019-12-18,17.1299991607666,17.575000762939453,17.079999923706055,17.200000762939453,17.200000762939453,2787700
2019-12-19,17.139999389648438,18.799999237060547,17.100000381469727,18.15999984741211,18.15999984741211,12817600
2019-12-20,18.209999084472656,18.2450008392334,17.829999923706055,17.860000610351562,17.860000610351562,5345000
2019-12-23,17.850000381469727,17.940000534057617,17.690000534057617,17.774999618530273,17.774999618530273,3472500
2019-12-24,17.770000457763672,17.975000381469727,17.75,17.780000686645508,17.780000686645508,911300
2019-12-26,17.799999237060547,18.045000076293945,17.700000762939453,17.780000686645508,17.780000686645508,2270700
2019-12-27,17.90999984741211,18.0,17.434999465942383,17.719999313354492,17.719999313354492,2320900
2019-12-30,17.649999618530273,17.836999893188477,17.375,17.600000381469727,17.600000381469727,2958500
2019-12-31,17.510000228881836,18.030000686645508,17.510000228881836,17.90999984741211,17.90999984741211,2817400
2020-01-02,18.059999465942383,18.459999084472656,17.975000381469727,18.09000015258789,18.09000015258789,4186500
2020-01-03,17.979999542236328,18.200000762939453,17.81999969482422,18.0,18.0,2731500
2020-01-06,18.06999969482422,18.610000610351562,17.979999542236328,18.530000686645508,18.530000686645508,4524300
2020-01-07,18.6200008392334,18.770000457763672,18.190000534057617,18.530000686645508,18.530000686645508,2902200
2020-01-08,18.43000030517578,18.6299991607666,18.219999313354492,18.459999084472656,18.459999084472656,2994300
2020-01-09,18.43000030517578,18.635000228881836,18.219999313354492,18.3700008392334,18.3700008392334,3507000
2020-01-10,18.010000228881836,18.059999465942383,17.55500030517578,17.81999969482422,17.81999969482422,5614800
2020-01-13,17.969999313354492,18.040000915527344,17.809999465942383,17.860000610351562,17.860000610351562,2415300
2020-01-14,17.860000610351562,18.059999465942383,17.770000457763672,18.0049991607666,18.0049991607666,2262700
2020-01-15,18.030000686645508,18.860000610351562,17.950000762939453,18.309999465942383,18.309999465942383,5214700
2020-01-16,18.489999771118164,18.56999969482422,17.924999237060547,18.0,18.0,3353200
2020-01-17,18.06999969482422,18.19499969482422,17.850000381469727,18.020000457763672,18.020000457763672,2774200
2020-01-21,17.969999313354492,17.989999771118164,17.520000457763672,17.639999389648438,17.639999389648438,3743000
2020-01-22,17.690000534057617,17.940000534057617,17.5,17.530000686645508,17.530000686645508,2477100
2020-01-23,17.540000915527344,17.739999771118164,17.184999465942383,17.709999084472656,17.709999084472656,3266900
2020-01-24,17.600000381469727,17.985000610351562,17.190000534057617,17.34000015258789,17.34000015258789,3441300
2020-01-27,17.059999465942383,17.1299991607666,16.81999969482422,16.950000762939453,16.950000762939453,4195700
2020-01-28,17.06999969482422,17.219999313354492,16.860000610351562,17.139999389648438,17.139999389648438,2615200
2020-01-29,17.18000030517578,17.3700008392334,16.93000030517578,16.950000762939453,16.950000762939453,2654700
2020-01-30,16.84000015258789,17.040000915527344,16.770000457763672,17.010000228881836,17.010000228881836,2631700
2020-01-31,17.139999389648438,17.229999542236328,16.6299991607666,17.020000457763672,17.020000457763672,5366500
2020-02-03,17.010000228881836,17.09000015258789,16.729999542236328,16.90999984741211,16.90999984741211,3338800
2020-02-04,17.139999389648438,17.329999923706055,17.020000457763672,17.100000381469727,17.100000381469727,6108400
2020-02-05,17.200000762939453,17.850000381469727,17.200000762939453,17.610000610351562,17.610000610351562,8241300
2020-02-06,17.670000076293945,18.68000030517578,17.200000762939453,18.260000228881836,18.260000228881836,11325500
2020-02-07,18.100000381469727,18.229999542236328,17.969999313354492,18.100000381469727,18.100000381469727,4624800
2020-02-10,17.920000076293945,18.59000015258789,17.860000610351562,18.530000686645508,18.530000686645508,5747000
2020-02-11,18.530000686645508,18.684999465942383,18.389999389648438,18.600000381469727,18.600000381469727,4168300
2020-02-12,18.729999542236328,18.736000061035156,18.299999237060547,18.56999969482422,18.56999969482422,3910700
2020-02-13,18.5,18.760000228881836,18.450000762939453,18.610000610351562,18.610000610351562,3757000
2020-02-14,18.600000381469727,18.649999618530273,18.40999984741211,18.530000686645508,18.530000686645508,4036000
2020-02-18,18.579999923706055,18.649999618530273,18.239999771118164,18.389999389648438,18.389999389648438,5152000
2020-02-19,18.3700008392334,18.549999237060547,18.190000534057617,18.31999969482422,18.31999969482422,4445500
2020-02-20,18.280000686645508,18.799999237060547,18.09000015258789,18.71500015258789,18.71500015258789,13450400
2020-02-21,21.989999771118164,23.729999542236328,21.8799991607666,22.450000762939453,22.450000762939453,48249100
2020-02-24,20.610000610351562,22.084999084472656,20.34000015258789,21.760000228881836,21.760000228881836,14663700
2020-02-25,21.81999969482422,21.899999618530273,20.43000030517578,20.639999389648438,20.639999389648438,8500400
2020-02-26,20.520000457763672,20.969999313354492,19.725000381469727,19.8799991607666,19.8799991607666,5432900
2020-02-27,19.149999618530273,20.020000457763672,19.114999771118164,19.329999923706055,19.329999923706055,6090600
2020-02-28,18.770000457763672,19.6200008392334,18.690000534057617,19.559999465942383,19.559999465942383,8068800
2020-03-02,19.850000381469727,19.874000549316406,18.790000915527344,19.290000915527344,19.290000915527344,6871100
2020-03-03,19.290000915527344,20.040000915527344,19.100000381469727,19.315000534057617,19.315000534057617,4300300
2020-03-04,19.520000457763672,19.81999969482422,19.18000030517578,19.799999237060547,19.799999237060547,3495000
2020-03-05,19.270000457763672,19.6200008392334,19.19499969482422,19.34000015258789,19.34000015258789,3494000
2020-03-06,18.860000610351562,19.850000381469727,18.799999237060547,19.40999984741211,19.40999984741211,5586300
2020-03-09,18.459999084472656,18.459999084472656,17.6299991607666,17.670000076293945,17.670000076293945,5677500
2020-03-10,18.200000762939453,18.350000381469727,16.75,17.389999389648438,17.389999389648438,5138300
2020-03-11,16.90999984741211,17.038000106811523,15.850000381469727,16.15999984741211,16.15999984741211,7459100
2020-03-12,14.65999984741211,16.829999923706055,14.550000190734863,15.6899995803833,15.6899995803833,12611500
2020-03-13,16.649999618530273,18.360000610351562,15.760000228881836,18.350000381469727,18.350000381469727,10874000
2020-03-16,16.110000610351562,17.128000259399414,15.8100004196167,16.079999923706055,16.079999923706055,7316500
2020-03-17,16.260000228881836,16.889999389648438,14.800000190734863,16.809999465942383,16.809999465942383,5713400
2020-03-18,15.829999923706055,17.165000915527344,14.960000038146973,16.520000457763672,16.520000457763672,4886500
2020-03-19,16.299999237060547,18.450000762939453,16.200000762939453,17.81999969482422,17.81999969482422,4158000
2020-03-20,18.0,18.81999969482422,17.219999313354492,17.59000015258789,17.59000015258789,6393500
2020-03-23,17.75,17.799999237060547,16.121000289916992,17.110000610351562,17.110000610351562,6406800
2020-03-24,17.81999969482422,18.920000076293945,17.584999084472656,18.799999237060547,18.799999237060547,5616500
2020-03-25,18.649999618530273,19.059999465942383,18.15999984741211,18.40999984741211,18.40999984741211,4506700
2020-03-26,17.81999969482422,19.309999465942383,17.709999084472656,18.920000076293945,18.920000076293945,7321900
2020-03-27,18.110000610351562,18.40999984741211,17.479999542236328,17.75,17.75,4748500
2020-03-30,18.100000381469727,18.5049991607666,17.860000610351562,18.149999618530273,18.149999618530273,4559700
2020-03-31,18.209999084472656,18.8700008392334,17.889999389648438,18.100000381469727,18.100000381469727,4376500
2020-04-01,17.510000228881836,18.229999542236328,17.350000381469727,17.8799991607666,17.8799991607666,4085500
2020-04-02,17.700000762939453,18.549999237060547,17.68000030517578,18.229999542236328,18.229999542236328,3893200
2020-04-03,18.1299991607666,18.639999389648438,17.81999969482422,17.959999084472656,17.959999084472656,4820900
2020-04-06,18.440000534057617,18.780000686645508,17.899999618530273,18.059999465942383,18.059999465942383,6676500
2020-04-07,18.280000686645508,18.329999923706055,17.31999969482422,17.700000762939453,17.700000762939453,6596400
2020-04-08,18.0,18.54400062561035,17.850000381469727,18.290000915527344,18.290000915527344,4430100
2020-04-09,18.5,18.950000762939453,17.8700008392334,18.059999465942383,18.059999465942383,4776800
2020-04-13,18.200000762939453,18.600000381469727,17.90999984741211,18.530000686645508,18.530000686645508,2964900
2020-04-14,18.6299991607666,19.084999084472656,18.6299991607666,19.0,19.0,3225000
2020-04-15,18.59000015258789,19.239999771118164,18.503000259399414,18.950000762939453,18.950000762939453,2815000
2020-04-16,19.079999923706055,19.229999542236328,18.420000076293945,18.735000610351562,18.735000610351562,3315100
2020-04-17,19.0,19.290000915527344,18.770000457763672,19.18000030517578,19.18000030517578,4692800
2020-04-20,19.18000030517578,20.389999389648438,19.149999618530273,20.34000015258789,20.34000015258789,8733900
2020-04-21,20.329999923706055,20.690000534057617,19.3799991607666,19.65999984741211,19.65999984741211,5548300
2020-04-22,19.969999313354492,20.170000076293945,19.670000076293945,19.969999313354492,19.969999313354492,2852200
2020-04-23,20.010000228881836,20.149999618530273,19.739999771118164,19.834999084472656,19.834999084472656,3055500
2020-04-24,20.0,20.239999771118164,19.8799991607666,20.204999923706055,20.204999923706055,2975600
2020-04-27,20.5,20.9950008392334,20.219999313354492,20.799999237060547,20.799999237060547,3878400
2020-04-28,21.0,21.15999984741211,20.46500015258789,20.549999237060547,20.549999237060547,4118600
2020-04-29,20.6299991607666,21.239999771118164,20.549999237060547,20.979999542236328,20.979999542236328,3675700
2020-04-30,20.920000076293945,21.1299991607666,20.610000610351562,21.020000457763672,21.020000457763672,3693200
2020-05-01,20.510000228881836,20.729999542236328,19.5,19.600000381469727,19.600000381469727,3962000
2020-05-04,19.549999237060547,19.940000534057617,19.309999465942383,19.8799991607666,19.8799991607666,3052300
2020-05-05,20.34000015258789,20.437999725341797,19.975000381469727,20.03499984741211,20.03499984741211,2515100
2020-05-06,20.209999084472656,20.388999938964844,19.889999389648438,20.344999313354492,20.344999313354492,3546400
2020-05-07,21.010000228881836,21.940000534057617,20.739999771118164,21.889999389648438,21.889999389648438,15490200
2020-05-08,22.450000762939453,23.020000457763672,21.260000228881836,21.8799991607666,21.8799991607666,14584200
2020-05-11,21.530000686645508,23.030000686645508,21.510000228881836,22.940000534057617,22.940000534057617,12135200
2020-05-12,22.8700008392334,23.0,22.09000015258789,22.1299991607666,22.1299991607666,8023400
2020-05-13,22.079999923706055,22.260000228881836,21.170000076293945,21.520000457763672,21.520000457763672,5318400
2020-05-14,21.149999618530273,21.5,20.809999465942383,21.5,21.5,4943100
2020-05-15,21.6299991607666,22.399999618530273,21.469999313354492,22.3700008392334,22.3700008392334,10768700
2020-05-18,22.440000534057617,22.450000762939453,21.549999237060547,21.59000015258789,21.59000015258789,7246700
2020-05-19,21.639999389648438,22.079999923706055,21.43000030517578,21.75,21.75,3652800
2020-05-20,21.8700008392334,22.35099983215332,21.850000381469727,22.225000381469727,22.225000381469727,7977300
2020-05-21,22.25,22.40999984741211,21.8799991607666,22.1299991607666,22.1299991607666,6140500
2020-05-22,22.350000381469727,22.350000381469727,21.604999542236328,21.665000915527344,21.665000915527344,11759300
2020-05-26,22.5,22.950000762939453,22.25,22.899999618530273,22.899999618530273,10814800
2020-05-27,22.899999618530273,22.90999984741211,21.709999084472656,22.809999465942383,22.809999465942383,7770800
2020-05-28,22.75,23.219999313354492,22.5,22.59000015258789,22.59000015258789,9170200
2020-05-29,22.610000610351562,22.75,21.950000762939453,22.56999969482422,22.56999969482422,8380500
2020-06-01,22.690000534057617,23.6200008392334,22.31999969482422,23.540000915527344,23.540000915527344,8170400
2020-06-02,23.549999237060547,23.639999389648438,22.610000610351562,23.270000457763672,23.270000457763672,6439000
2020-06-03,23.270000457763672,23.600000381469727,22.799999237060547,23.549999237060547,23.549999237060547,7266400
2020-06-04,23.540000915527344,23.81999969482422,22.864999771118164,23.280000686645508,23.280000686645508,6102200
2020-06-05,23.100000381469727,23.440000534057617,21.68000030517578,21.979999542236328,21.979999542236328,9469600
2020-06-08,22.0,22.684999465942383,21.90999984741211,22.540000915527344,22.540000915527344,5779300
2020-06-09,22.15999984741211,22.299999237060547,21.770000457763672,21.93000030517578,21.93000030517578,5545700
2020-06-10,22.040000915527344,22.40999984741211,21.8799991607666,21.979999542236328,21.979999542236328,6162300
2020-06-11,21.3700008392334,21.584999084472656,20.350000381469727,20.420000076293945,20.420000076293945,6861000
2020-06-12,21.040000915527344,21.280000686645508,20.549999237060547,21.030000686645508,21.030000686645508,5346300
2020-06-15,20.84000015258789,21.59000015258789,20.709999084472656,21.520000457763672,21.520000457763672,4149800
2020-06-16,22.0,22.670000076293945,21.719999313354492,22.549999237060547,22.549999237060547,8442300
2020-06-17,22.700000762939453,22.790000915527344,22.270000457763672,22.709999084472656,22.709999084472656,5640000
2020-06-18,22.309999465942383,23.149999618530273,22.309999465942383,23.0,23.0,5721500
2020-06-19,23.149999618530273,23.399999618530273,22.940000534057617,23.299999237060547,23.299999237060547,9171200
2020-06-22,23.459999084472656,23.645000457763672,23.309999465942383,23.510000228881836,23.510000228881836,8027600
2020-06-23,23.75,24.139999389648438,23.459999084472656,23.649999618530273,23.649999618530273,12342700
2020-06-24,23.610000610351562,23.81999969482422,22.360000610351562,22.639999389648438,22.639999389648438,8910300
2020-06-25,22.649999618530273,22.700000762939453,21.8700008392334,22.15999984741211,22.15999984741211,9031800
2020-06-26,22.200000762939453,22.209999084472656,21.344999313354492,21.469999313354492,21.469999313354492,8855500
2020-06-29,21.459999084472656,21.482999801635742,20.579999923706055,21.290000915527344,21.290000915527344,6968900
2020-06-30,21.389999389648438,21.815000534057617,21.270000457763672,21.770000457763672,21.770000457763672,5695600
2020-07-01,21.760000228881836,21.854999542236328,21.405000686645508,21.780000686645508,21.780000686645508,9791000
2020-07-02,22.1200008392334,22.190000534057617,21.549999237060547,21.649999618530273,21.649999618530273,7624400
2020-07-06,22.0,22.469999313354492,21.760000228881836,22.420000076293945,22.420000076293945,7832900
2020-07-07,22.350000381469727,22.84000015258789,22.149999618530273,22.440000534057617,22.440000534057617,6590400
2020-07-08,22.739999771118164,22.7450008392334,22.309999465942383,22.739999771118164,22.739999771118164,4568700
2020-07-09,22.84000015258789,22.899999618530273,22.235000610351562,22.399999618530273,22.399999618530273,4193600
2020-07-10,22.420000076293945,22.440000534057617,22.09000015258789,22.110000610351562,22.110000610351562,4059000
2020-07-13,22.139999389648438,22.170000076293945,20.219999313354492,20.260000228881836,20.260000228881836,10286700
2020-07-14,20.040000915527344,20.34000015258789,19.6200008392334,20.290000915527344,20.290000915527344,7595300
2020-07-15,20.483999252319336,20.8799991607666,20.1299991607666,20.850000381469727,20.850000381469727,6447300
2020-07-16,20.6299991607666,20.670000076293945,20.209999084472656,20.65999984741211,20.65999984741211,3901000
2020-07-17,20.899999618530273,20.920000076293945,20.344999313354492,20.829999923706055,20.829999923706055,2941000
2020-07-20,21.700000762939453,22.940000534057617,21.610000610351562,22.889999389648438,22.889999389648438,10954900
2020-07-21,23.079999923706055,23.149999618530273,22.325000762939453,22.420000076293945,22.420000076293945,5529000
2020-07-22,22.40999984741211,22.635000228881836,21.90999984741211,22.149999618530273,22.149999618530273,5989800
2020-07-23,22.139999389648438,22.450000762939453,21.75,21.84000015258789,21.84000015258789,3179300
2020-07-24,21.649999618530273,21.719999313354492,21.165000915527344,21.350000381469727,21.350000381469727,3985600
2020-07-27,21.329999923706055,21.649999618530273,21.05500030517578,21.549999237060547,21.549999237060547,3792200
2020-07-28,21.670000076293945,22.774999618530273,21.6299991607666,22.270000457763672,22.270000457763672,5870000
2020-07-29,22.459999084472656,22.690000534057617,22.209999084472656,22.559999465942383,22.559999465942383,2697300
2020-07-30,22.280000686645508,22.489999771118164,21.81999969482422,22.389999389648438,22.389999389648438,2210000
2020-07-31,22.079999923706055,22.780000686645508,21.809999465942383,22.75,22.75,5524000
2020-08-03,22.950000762939453,23.309999465942383,22.760000228881836,23.15999984741211,23.15999984741211,4402900
2020-08-04,23.280000686645508,23.350000381469727,22.739999771118164,23.229999542236328,23.229999542236328,7193700
2020-08-05,23.40999984741211,23.639999389648438,22.829999923706055,23.219999313354492,23.219999313354492,6591000
2020-08-06,23.399999618530273,23.5,22.799999237060547,23.270000457763672,23.270000457763672,12912000
2020-08-07,22.010000228881836,22.200000762939453,20.520000457763672,20.690000534057617,20.690000534057617,22826300
2020-08-10,20.969999313354492,20.989999771118164,19.430999755859375,19.920000076293945,19.920000076293945,11801500
2020-08-11,19.850000381469727,20.25,19.600000381469727,19.65999984741211,19.65999984741211,11497100
2020-08-12,19.940000534057617,20.190000534057617,19.559999465942383,19.639999389648438,19.639999389648438,7896200
2020-08-13,19.75,19.8799991607666,19.559999465942383,19.6299991607666,19.6299991607666,4166300
2020-08-14,19.6299991607666,19.799999237060547,19.315000534057617,19.5,19.5,5130400
2020-08-17,19.700000762939453,20.190000534057617,19.6200008392334,19.920000076293945,19.920000076293945,6837700
2020-08-18,21.040000915527344,21.100000381469727,20.1200008392334,20.479999542236328,20.479999542236328,9694800
2020-08-19,20.420000076293945,20.540000915527344,20.059999465942383,20.139999389648438,20.139999389648438,6040100
2020-08-20,20.0,20.2189998626709,19.81999969482422,20.15999984741211,20.15999984741211,4332000
2020-08-21,20.100000381469727,20.200000762939453,19.780000686645508,20.1200008392334,20.1200008392334,4560100
2020-08-24,20.200000762939453,20.364999771118164,19.850000381469727,20.209999084472656,20.209999084472656,4533900
2020-08-25,20.04400062561035,20.299999237060547,19.950000762939453,20.139999389648438,20.139999389648438,3941800
2020-08-26,20.200000762939453,20.75,20.200000762939453,20.56999969482422,20.56999969482422,4516400
2020-08-27,20.6299991607666,20.663000106811523,20.1299991607666,20.309999465942383,20.309999465942383,4047100
2020-08-28,20.5,21.059999465942383,20.5,20.719999313354492,20.719999313354492,4379400
2020-08-31,20.899999618530273,21.360000610351562,20.760000228881836,21.170000076293945,21.170000076293945,6463200
2020-09-01,21.367000579833984,21.40999984741211,21.03499984741211,21.31999969482422,21.31999969482422,4772200
2020-09-02,21.3799991607666,21.780000686645508,21.06999969482422,21.75,21.75,6919600
2020-09-03,21.34000015258789,21.575000762939453,20.280000686645508,20.56999969482422,20.56999969482422,8290000
2020-09-04,20.239999771118164,20.520000457763672,19.110000610351562,19.75,19.75,6896400
2020-09-08,19.200000762939453,20.200000762939453,19.149999618530273,19.8799991607666,19.8799991607666,5726200
2020-09-09,20.309999465942383,20.540000915527344,20.049999237060547,20.354999542236328,20.354999542236328,4321200
2020-09-10,20.399999618530273,20.719999313354492,19.7549991607666,19.764999389648438,19.764999389648438,4156000
2020-09-11,19.889999389648438,20.209999084472656,19.450000762939453,19.850000381469727,19.850000381469727,4039800
2020-09-14,20.0,20.309999465942383,19.920000076293945,20.18000030517578,20.18000030517578,3672600
2020-09-15,20.280000686645508,20.540000915527344,20.184999465942383,20.350000381469727,20.350000381469727,4178600
2020-09-16,20.43000030517578,20.860000610351562,20.149999618530273,20.219999313354492,20.219999313354492,4678500
2020-09-17,19.68000030517578,19.959999084472656,19.424999237060547,19.5,19.5,6783600
2020-09-18,19.579999923706055,19.639999389648438,18.844999313354492,19.280000686645508,19.280000686645508,10695000
2020-09-21,19.0,19.239999771118164,18.729999542236328,19.229999542236328,19.229999542236328,4574900
2020-09-22,19.3799991607666,19.56999969482422,18.985000610351562,19.530000686645508,19.530000686645508,4409900
2020-09-23,19.59000015258789,19.69700050354004,19.145000457763672,19.18000030517578,19.18000030517578,3983600
2020-09-24,19.049999237060547,19.1299991607666,18.604999542236328,18.780000686645508,18.780000686645508,4607000
2020-09-25,19.110000610351562,19.299999237060547,18.8700008392334,19.149999618530273,19.149999618530273,4098200
2020-09-28,19.459999084472656,19.489999771118164,19.094999313354492,19.280000686645508,19.280000686645508,3520100
2020-09-29,19.31999969482422,19.420000076293945,19.079999923706055,19.1299991607666,19.1299991607666,3881500
2020-09-30,19.059999465942383,19.530000686645508,19.010000228881836,19.260000228881836,19.260000228881836,3731100
2020-10-01,19.389999389648438,19.764999389648438,19.389999389648438,19.475000381469727,19.475000381469727,3310100
2020-10-02,19.170000076293945,19.479999542236328,18.975000381469727,19.18000030517578,19.18000030517578,3323500
2020-10-05,19.350000381469727,19.600000381469727,19.229999542236328,19.510000228881836,19.510000228881836,3936700
2020-10-06,19.5,19.899999618530273,19.170000076293945,19.280000686645508,19.280000686645508,6545500
2020-10-07,19.489999771118164,19.774999618530273,19.110000610351562,19.65999984741211,19.65999984741211,4734500
2020-10-08,19.790000915527344,19.84000015258789,19.350000381469727,19.670000076293945,19.670000076293945,6575700
2020-10-09,19.93000030517578,20.479999542236328,19.850000381469727,20.389999389648438,20.389999389648438,5279200
2020-10-12,20.719999313354492,20.719999313354492,20.010000228881836,20.030000686645508,20.030000686645508,4332100
2020-10-13,20.100000381469727,20.450000762939453,20.100000381469727,20.34000015258789,20.34000015258789,2887000
2020-10-14,20.3799991607666,20.399999618530273,19.70199966430664,19.84000015258789,19.84000015258789,3608800
2020-10-15,19.68000030517578,20.18000030517578,19.549999237060547,20.139999389648438,20.139999389648438,4278900
2020-10-16,20.18000030517578,20.586000442504883,20.059999465942383,20.31999969482422,20.31999969482422,3823200
2020-10-19,20.549999237060547,20.700000762939453,19.851999282836914,19.889999389648438,19.889999389648438,3649600
2020-10-20,20.0,20.1299991607666,19.649999618530273,19.780000686645508,19.780000686645508,3035600
2020-10-21,19.969999313354492,20.165000915527344,19.780000686645508,19.979999542236328,19.979999542236328,3303900
2020-10-22,19.940000534057617,20.229999542236328,19.7549991607666,20.200000762939453,20.200000762939453,3587000
2020-10-23,20.190000534057617,20.190000534057617,19.549999237060547,19.719999313354492,19.719999313354492,3109200
2020-10-26,19.600000381469727,19.850000381469727,19.0,19.125,19.125,3486500
2020-10-27,19.280000686645508,19.420000076293945,19.010000228881836,19.030000686645508,19.030000686645508,3289600
2020-10-28,18.860000610351562,18.860000610351562,18.360000610351562,18.610000610351562,18.610000610351562,3637000
2020-10-29,18.729999542236328,18.97599983215332,18.579999923706055,18.75,18.75,3124200
2020-10-30,18.5,18.552000045776367,17.711999893188477,18.260000228881836,18.260000228881836,7509400
2020-11-02,18.329999923706055,18.332000732421875,17.655000686645508,17.969999313354492,17.969999313354492,7164600
2020-11-03,18.079999923706055,18.3799991607666,18.030000686645508,18.200000762939453,18.200000762939453,5379600
2020-11-04,18.600000381469727,18.989999771118164,18.450000762939453,18.549999237060547,18.549999237060547,8441700
2020-11-05,19.0,20.18000030517578,18.940000534057617,20.1200008392334,20.1200008392334,12253800
2020-11-06,19.440000534057617,19.799999237060547,18.969999313354492,19.145000457763672,19.145000457763672,8683400
2020-11-09,19.489999771118164,20.079999923706055,18.75,18.75,18.75,9305300
2020-11-10,18.670000076293945,18.670000076293945,18.010000228881836,18.469999313354492,18.469999313354492,8121300
2020-11-11,18.670000076293945,18.940000534057617,18.6299991607666,18.81999969482422,18.81999969482422,5119900
2020-11-12,18.6299991607666,18.979999542236328,18.6200008392334,18.770000457763672,18.770000457763672,6102400
2020-11-13,18.8700008392334,19.200000762939453,18.75,19.059999465942383,19.059999465942383,5595600
2020-11-16,19.100000381469727,19.15999984741211,18.579999923706055,18.690000534057617,18.690000534057617,7813700
2020-11-17,18.600000381469727,18.700000762939453,18.34000015258789,18.549999237060547,18.549999237060547,8302100
2020-11-18,18.6299991607666,18.760000228881836,18.424999237060547,18.43000030517578,18.43000030517578,4715000
2020-11-19,18.406999588012695,18.96299934387207,18.34000015258789,18.920000076293945,18.920000076293945,7755300
2020-11-20,18.84000015258789,19.225000381469727,18.75,19.030000686645508,19.030000686645508,5297600
2020-11-23,19.100000381469727,19.209999084472656,18.7450008392334,19.1200008392334,19.1200008392334,4784400
2020-11-24,19.086000442504883,19.149999618530273,18.40999984741211,18.450000762939453,18.450000762939453,8064700
2020-11-25,18.610000610351562,19.149999618530273,18.375,19.110000610351562,19.110000610351562,6544800
2020-11-27,19.6299991607666,19.937000274658203,19.190000534057617,19.540000915527344,19.540000915527344,5179500
2020-11-30,19.940000534057617,19.989999771118164,19.610000610351562,19.969999313354492,19.969999313354492,10419700
2020-12-01,20.184999465942383,20.219999313354492,19.843000411987305,20.170000076293945,20.170000076293945,6786000
2020-12-02,20.0,20.21500015258789,19.790000915527344,20.110000610351562,20.110000610351562,6000100
2020-12-03,20.270000457763672,20.575000762939453,20.165000915527344,20.229999542236328,20.229999542236328,9269700
2020-12-04,20.450000762939453,20.459999084472656,20.18000030517578,20.350000381469727,20.350000381469727,7450200
2020-12-07,20.482999801635742,20.739999771118164,20.405000686645508,20.5,20.5,6187500
2020-12-08,20.420000076293945,21.600000381469727,20.420000076293945,21.59000015258789,21.59000015258789,10420400
2020-12-09,21.510000228881836,21.530000686645508,20.81999969482422,21.260000228881836,21.260000228881836,8471200
2020-12-10,20.809999465942383,21.325000762939453,20.790000915527344,21.239999771118164,21.239999771118164,8195700
2020-12-11,21.15999984741211,22.5,21.059999465942383,22.489999771118164,22.489999771118164,15773400
2020-12-14,24.030000686645508,24.135000228881836,23.18000030517578,23.31999969482422,23.31999969482422,18955400
2020-12-15,23.459999084472656,23.940000534057617,22.610000610351562,23.1200008392334,23.1200008392334,11132200
2020-12-16,23.15999984741211,24.059999465942383,23.149999618530273,23.520000457763672,23.520000457763672,8083000
2020-12-17,23.760000228881836,24.170000076293945,23.709999084472656,23.889999389648438,23.889999389648438,6007400
2020-12-18,23.950000762939453,24.079999923706055,23.53499984741211,23.68000030517578,23.68000030517578,7270200
2020-12-21,23.15999984741211,23.670000076293945,23.059999465942383,23.549999237060547,23.549999237060547,5526000
2020-12-22,23.799999237060547,25.06999969482422,23.780000686645508,24.8700008392334,24.8700008392334,13858900
2020-12-23,24.8799991607666,25.15999984741211,24.424999237060547,24.610000610351562,24.610000610351562,5998500
2020-12-24,24.889999389648438,24.889999389648438,24.399999618530273,24.649999618530273,24.649999618530273,2652900
2020-12-28,24.94300079345703,25.049999237060547,23.530000686645508,23.600000381469727,23.600000381469727,6228700
2020-12-29,23.5,23.709999084472656,22.829999923706055,22.93000030517578,22.93000030517578,5619200
2020-12-30,23.100000381469727,23.1299991607666,22.530000686645508,22.600000381469727,22.600000381469727,5004000
