Date,Open,High,Low,Close,Adj Close,Volume
2017-09-28,20.059999465942383,20.530000686645508,16.110000610351562,17.649999618530273,17.649999618530273,5789200
2017-09-29,18.5,19.950000762939453,17.65999984741211,18.989999771118164,18.989999771118164,901900
2017-10-02,19.18000030517578,20.34000015258789,18.910999298095703,19.729999542236328,19.729999542236328,587500
2017-10-03,19.520000457763672,19.93199920654297,18.820999145507812,19.709999084472656,19.709999084472656,142000
2017-10-04,19.670000076293945,20.8700008392334,19.231000900268555,20.25,20.25,183100
2017-10-05,20.25,22.440000534057617,20.25,22.170000076293945,22.170000076293945,473200
2017-10-06,22.049999237060547,22.969999313354492,21.799999237060547,22.90999984741211,22.90999984741211,158600
2017-10-09,23.450000762939453,24.200000762939453,22.649999618530273,23.309999465942383,23.309999465942383,250600
2017-10-10,23.139999389648438,23.959999084472656,22.149999618530273,22.899999618530273,22.899999618530273,65500
2017-10-11,22.969999313354492,23.809999465942383,22.059999465942383,22.3799991607666,22.3799991607666,147400
2017-10-12,22.290000915527344,23.0,21.8700008392334,22.8799991607666,22.8799991607666,181900
2017-10-13,22.719999313354492,24.299999237060547,22.559999465942383,24.200000762939453,24.200000762939453,341000
2017-10-16,24.010000228881836,24.5,23.309999465942383,24.0,24.0,216300
2017-10-17,23.760000228881836,23.899999618530273,21.030000686645508,21.43000030517578,21.43000030517578,181800
2017-10-18,21.3799991607666,22.399999618530273,19.290000915527344,19.959999084472656,19.959999084472656,141300
2017-10-19,19.93000030517578,20.0,18.799999237060547,19.84000015258789,19.84000015258789,103000
2017-10-20,19.3700008392334,20.78499984741211,19.038999557495117,20.149999618530273,20.149999618530273,139400
2017-10-23,20.940000534057617,22.450000762939453,20.1200008392334,20.790000915527344,20.790000915527344,282600
2017-10-24,20.969999313354492,21.399999618530273,19.5,20.350000381469727,20.350000381469727,118700
2017-10-25,20.399999618530273,20.399999618530273,18.56999969482422,19.31999969482422,19.31999969482422,118400
2017-10-26,19.530000686645508,19.719999313354492,18.950000762939453,19.399999618530273,19.399999618530273,133600
2017-10-27,19.81999969482422,19.81999969482422,18.030000686645508,18.639999389648438,18.639999389648438,272100
2017-10-30,18.649999618530273,19.59000015258789,18.60300064086914,19.09000015258789,19.09000015258789,387900
2017-10-31,18.940000534057617,19.43000030517578,18.834999084472656,19.190000534057617,19.190000534057617,94900
2017-11-01,19.229999542236328,19.850000381469727,17.36400032043457,19.079999923706055,19.079999923706055,141300
2017-11-02,18.850000381469727,19.31999969482422,17.315000534057617,17.959999084472656,17.959999084472656,211500
2017-11-03,17.8799991607666,19.219999313354492,17.510000228881836,19.010000228881836,19.010000228881836,118600
2017-11-06,19.309999465942383,19.309999465942383,18.3799991607666,18.959999084472656,18.959999084472656,229700
2017-11-07,18.860000610351562,18.860000610351562,17.5,18.049999237060547,18.049999237060547,77500
2017-11-08,17.760000228881836,17.760000228881836,16.760000228881836,17.0,17.0,284000
2017-11-09,16.989999771118164,17.0,16.469999313354492,16.729999542236328,16.729999542236328,170200
2017-11-10,16.579999923706055,17.510000228881836,16.200000762939453,17.399999618530273,17.399999618530273,155900
2017-11-13,17.25,18.010000228881836,16.790000915527344,17.670000076293945,17.670000076293945,111700
2017-11-14,17.010000228881836,18.049999237060547,16.93000030517578,17.510000228881836,17.510000228881836,131200
2017-11-15,17.5,18.350000381469727,16.889999389648438,17.850000381469727,17.850000381469727,129700
2017-11-16,17.8700008392334,18.25,17.329999923706055,17.770000457763672,17.770000457763672,169900
2017-11-17,18.06999969482422,20.513999938964844,17.989999771118164,19.600000381469727,19.600000381469727,154000
2017-11-20,19.389999389648438,21.139999389648438,19.360000610351562,20.81999969482422,20.81999969482422,187400
2017-11-21,21.010000228881836,21.81999969482422,20.719999313354492,21.06999969482422,21.06999969482422,161100
2017-11-22,21.18000030517578,21.617000579833984,20.093000411987305,20.469999313354492,20.469999313354492,86400
2017-11-24,20.3700008392334,20.809999465942383,20.0,20.09000015258789,20.09000015258789,21600
2017-11-27,20.040000915527344,20.5,19.788000106811523,20.049999237060547,20.049999237060547,75300
2017-11-28,20.65999984741211,20.899999618530273,19.809999465942383,20.360000610351562,20.360000610351562,42800
2017-11-29,20.549999237060547,20.549999237060547,18.709999084472656,19.239999771118164,19.239999771118164,77300
2017-11-30,19.1200008392334,20.59000015258789,18.510000228881836,19.860000610351562,19.860000610351562,87700
2017-12-01,19.6299991607666,20.079999923706055,18.770000457763672,19.549999237060547,19.549999237060547,71000
2017-12-04,19.700000762939453,19.700000762939453,17.6299991607666,17.770000457763672,17.770000457763672,121100
2017-12-05,17.829999923706055,18.489999771118164,17.520000457763672,17.889999389648438,17.889999389648438,87200
2017-12-06,18.0,18.280000686645508,17.0,17.06999969482422,17.06999969482422,107600
2017-12-07,16.979999542236328,18.229999542236328,16.979999542236328,17.8799991607666,17.8799991607666,152300
2017-12-08,17.649999618530273,18.75,17.104999542236328,18.209999084472656,18.209999084472656,141000
2017-12-11,18.200000762939453,19.360000610351562,16.75,16.829999923706055,16.829999923706055,203500
2017-12-12,16.989999771118164,18.059999465942383,16.25,16.600000381469727,16.600000381469727,155800
2017-12-13,16.459999084472656,18.010000228881836,16.31999969482422,17.81999969482422,17.81999969482422,262000
2017-12-14,17.729999542236328,18.049999237060547,16.399999618530273,16.75,16.75,298100
2017-12-15,16.56999969482422,17.100000381469727,15.149999618530273,16.540000915527344,16.540000915527344,1341500
2017-12-18,16.610000610351562,17.549999237060547,16.07900047302246,17.149999618530273,17.149999618530273,136100
2017-12-19,17.040000915527344,17.5,16.219999313354492,17.09000015258789,17.09000015258789,237400
2017-12-20,17.559999465942383,19.0,17.1200008392334,18.65999984741211,18.65999984741211,230000
2017-12-21,18.700000762939453,19.959999084472656,18.395000457763672,19.600000381469727,19.600000381469727,86400
2017-12-22,19.790000915527344,21.989999771118164,19.670000076293945,21.510000228881836,21.510000228881836,237400
2017-12-26,21.610000610351562,21.65999984741211,20.950000762939453,21.600000381469727,21.600000381469727,92500
2017-12-27,21.5,21.940000534057617,20.270000457763672,21.0,21.0,132100
2017-12-28,20.84000015258789,22.44499969482422,20.579999923706055,22.31999969482422,22.31999969482422,177900
2017-12-29,22.239999771118164,23.194000244140625,21.110000610351562,22.670000076293945,22.670000076293945,118600
2018-01-02,22.6299991607666,25.2450008392334,22.209999084472656,25.209999084472656,25.209999084472656,286500
2018-01-03,25.0,26.270000457763672,23.360000610351562,26.139999389648438,26.139999389648438,239900
2018-01-04,26.139999389648438,26.59000015258789,24.100000381469727,25.010000228881836,25.010000228881836,246300
2018-01-05,25.34000015258789,26.479999542236328,24.670000076293945,25.809999465942383,25.809999465942383,127400
2018-01-08,26.06999969482422,26.06999969482422,24.520000457763672,24.989999771118164,24.989999771118164,100100
2018-01-09,25.040000915527344,25.889999389648438,24.719999313354492,25.06999969482422,25.06999969482422,165400
2018-01-10,25.200000762939453,25.780000686645508,24.989999771118164,25.65999984741211,25.65999984741211,134500
2018-01-11,25.799999237060547,25.829999923706055,24.889999389648438,24.989999771118164,24.989999771118164,164100
2018-01-12,25.219999313354492,25.295000076293945,24.40999984741211,24.540000915527344,24.540000915527344,224200
2018-01-16,24.760000228881836,24.93000030517578,23.549999237060547,24.3799991607666,24.3799991607666,202300
2018-01-17,24.510000228881836,25.704999923706055,24.309999465942383,24.979999542236328,24.979999542236328,135800
2018-01-18,25.100000381469727,26.719999313354492,24.6299991607666,26.040000915527344,26.040000915527344,198600
2018-01-19,26.200000762939453,27.530000686645508,25.6200008392334,27.469999313354492,27.469999313354492,173400
2018-01-22,27.549999237060547,28.19499969482422,26.343000411987305,27.899999618530273,27.899999618530273,197400
2018-01-23,27.739999771118164,28.31999969482422,26.489999771118164,28.09000015258789,28.09000015258789,200400
2018-01-24,28.170000076293945,28.959999084472656,26.25,26.6299991607666,26.6299991607666,256500
2018-01-25,26.889999389648438,27.43899917602539,25.56999969482422,27.079999923706055,27.079999923706055,206300
2018-01-26,27.209999084472656,27.31999969482422,26.149999618530273,26.440000534057617,26.440000534057617,112900
2018-01-29,26.350000381469727,26.674999237060547,25.8700008392334,26.219999313354492,26.219999313354492,449500
2018-01-30,25.90999984741211,26.610000610351562,25.687999725341797,26.360000610351562,26.360000610351562,316200
2018-01-31,26.549999237060547,26.959999084472656,24.850000381469727,26.0,26.0,134000
2018-02-01,25.989999771118164,27.000999450683594,25.8700008392334,26.829999923706055,26.829999923706055,202500
2018-02-02,26.540000915527344,26.65999984741211,25.420000076293945,26.1200008392334,26.1200008392334,291500
2018-02-05,25.8799991607666,26.440000534057617,25.290000915527344,25.940000534057617,25.940000534057617,343200
2018-02-06,25.530000686645508,26.790000915527344,24.75,26.020000457763672,26.020000457763672,192700
2018-02-07,25.809999465942383,26.6299991607666,25.670000076293945,26.389999389648438,26.389999389648438,42900
2018-02-08,26.440000534057617,27.020000457763672,25.600000381469727,25.799999237060547,25.799999237060547,48300
2018-02-09,25.950000762939453,26.77899932861328,24.729999542236328,26.06999969482422,26.06999969482422,233100
2018-02-12,26.18000030517578,28.25,25.530000686645508,27.940000534057617,27.940000534057617,127600
2018-02-13,27.68000030517578,29.479999542236328,27.68000030517578,28.920000076293945,28.920000076293945,115500
2018-02-14,28.709999084472656,29.684999465942383,28.1299991607666,29.0,29.0,125900
2018-02-15,29.1200008392334,29.299999237060547,27.805999755859375,28.700000762939453,28.700000762939453,60900
2018-02-16,29.200000762939453,29.979999542236328,28.719999313354492,29.709999084472656,29.709999084472656,173300
2018-02-20,29.59000015258789,29.59000015258789,27.450000762939453,28.170000076293945,28.170000076293945,188800
2018-02-21,28.329999923706055,29.56999969482422,28.010000228881836,28.09000015258789,28.09000015258789,61400
2018-02-22,28.299999237060547,29.100000381469727,26.549999237060547,26.59000015258789,26.59000015258789,168700
2018-02-23,26.760000228881836,27.420000076293945,24.760000228881836,25.040000915527344,25.040000915527344,136900
2018-02-26,25.149999618530273,27.639999389648438,24.989999771118164,27.139999389648438,27.139999389648438,198700
2018-02-27,27.1200008392334,28.170000076293945,26.579999923706055,26.829999923706055,26.829999923706055,64900
2018-02-28,26.899999618530273,27.760000228881836,24.940000534057617,25.020000457763672,25.020000457763672,227300
2018-03-01,25.700000762939453,25.700000762939453,23.7549991607666,24.360000610351562,24.360000610351562,200800
2018-03-02,24.15999984741211,27.56999969482422,24.049999237060547,27.229999542236328,27.229999542236328,114900
2018-03-05,27.049999237060547,27.850000381469727,23.15999984741211,27.610000610351562,27.610000610351562,312100
2018-03-06,27.639999389648438,27.805999755859375,24.18000030517578,24.270000457763672,24.270000457763672,167400
2018-03-07,24.100000381469727,24.65999984741211,23.700000762939453,24.399999618530273,24.399999618530273,218900
2018-03-08,24.709999084472656,24.799999237060547,22.860000610351562,23.489999771118164,23.489999771118164,250800
2018-03-09,23.96500015258789,24.665000915527344,23.424999237060547,24.540000915527344,24.540000915527344,266800
2018-03-12,24.5,25.03499984741211,23.610000610351562,23.700000762939453,23.700000762939453,198800
2018-03-13,24.600000381469727,25.40999984741211,23.260000228881836,23.420000076293945,23.420000076293945,150500
2018-03-14,23.549999237060547,24.31999969482422,23.094999313354492,23.6200008392334,23.6200008392334,79100
2018-03-15,23.690000534057617,24.17099952697754,22.059999465942383,22.170000076293945,22.170000076293945,120400
2018-03-16,22.06999969482422,22.559999465942383,21.579999923706055,22.399999618530273,22.399999618530273,108900
2018-03-19,22.329999923706055,23.18000030517578,21.950000762939453,22.93000030517578,22.93000030517578,91100
2018-03-20,22.950000762939453,23.239999771118164,22.549999237060547,22.84000015258789,22.84000015258789,87100
2018-03-21,22.809999465942383,23.65999984741211,22.809999465942383,23.0,23.0,26200
2018-03-22,22.81999969482422,23.280000686645508,21.809999465942383,21.84000015258789,21.84000015258789,54400
2018-03-23,21.940000534057617,23.280000686645508,21.15999984741211,21.18000030517578,21.18000030517578,41800
2018-03-26,21.510000228881836,22.739999771118164,20.579999923706055,20.90999984741211,20.90999984741211,81900
2018-03-27,21.020000457763672,21.770000457763672,20.700000762939453,20.75,20.75,119400
2018-03-28,20.75,21.764999389648438,20.049999237060547,20.989999771118164,20.989999771118164,81900
2018-03-29,21.09000015258789,21.09000015258789,19.739999771118164,20.040000915527344,20.040000915527344,173500
2018-04-02,19.81999969482422,21.399999618530273,19.190000534057617,20.059999465942383,20.059999465942383,145500
2018-04-03,20.06999969482422,22.350000381469727,19.690000534057617,21.8700008392334,21.8700008392334,136200
2018-04-04,21.700000762939453,22.4950008392334,21.31999969482422,21.780000686645508,21.780000686645508,111300
2018-04-05,22.020000457763672,22.2450008392334,21.200000762939453,21.84000015258789,21.84000015258789,73600
2018-04-06,21.56999969482422,24.149999618530273,21.489999771118164,24.0,24.0,198300
2018-04-09,24.309999465942383,25.739999771118164,23.90999984741211,25.5,25.5,179000
2018-04-10,25.829999923706055,27.540000915527344,24.959999084472656,27.030000686645508,27.030000686645508,119800
2018-04-11,26.719999313354492,27.829999923706055,25.250999450683594,27.329999923706055,27.329999923706055,323600
2018-04-12,27.540000915527344,27.719999313354492,26.079999923706055,27.049999237060547,27.049999237060547,159900
2018-04-13,27.219999313354492,27.219999313354492,25.440000534057617,25.56999969482422,25.56999969482422,58800
2018-04-16,25.829999923706055,26.040000915527344,24.010000228881836,24.1299991607666,24.1299991607666,78000
2018-04-17,22.649999618530273,26.68000030517578,22.649999618530273,23.780000686645508,23.780000686645508,148800
2018-04-18,23.920000076293945,24.399999618530273,23.239999771118164,23.559999465942383,23.559999465942383,108100
2018-04-19,23.3700008392334,24.360000610351562,23.3700008392334,24.139999389648438,24.139999389648438,85100
2018-04-20,24.030000686645508,24.399999618530273,23.59000015258789,24.229999542236328,24.229999542236328,63000
2018-04-23,24.270000457763672,24.770000457763672,23.049999237060547,23.139999389648438,23.139999389648438,57100
2018-04-24,23.299999237060547,23.639999389648438,22.65999984741211,22.8799991607666,22.8799991607666,37100
2018-04-25,22.8700008392334,24.014999389648438,22.209999084472656,22.559999465942383,22.559999465942383,78700
2018-04-26,22.760000228881836,23.15999984741211,22.229999542236328,22.459999084472656,22.459999084472656,63700
2018-04-27,22.559999465942383,22.861000061035156,21.61400032043457,22.170000076293945,22.170000076293945,87100
2018-04-30,22.270000457763672,23.110000610351562,22.040000915527344,22.440000534057617,22.440000534057617,70400
2018-05-01,22.43000030517578,23.850000381469727,21.959999084472656,23.639999389648438,23.639999389648438,127500
2018-05-02,23.6200008392334,25.889999389648438,23.6200008392334,25.229999542236328,25.229999542236328,148500
2018-05-03,25.1299991607666,25.5,24.399999618530273,24.610000610351562,24.610000610351562,42200
2018-05-04,24.420000076293945,25.559999465942383,24.420000076293945,25.149999618530273,25.149999618530273,53200
2018-05-07,25.219999313354492,25.540000915527344,24.799999237060547,25.100000381469727,25.100000381469727,30200
2018-05-08,25.049999237060547,25.479999542236328,24.0,24.670000076293945,24.670000076293945,54900
2018-05-09,23.200000762939453,26.200000762939453,23.200000762939453,25.600000381469727,25.600000381469727,124900
2018-05-10,25.610000610351562,26.850000381469727,24.799999237060547,24.959999084472656,24.959999084472656,82600
2018-05-11,24.829999923706055,25.350000381469727,24.139999389648438,24.959999084472656,24.959999084472656,83000
2018-05-14,25.149999618530273,27.413000106811523,24.625,26.829999923706055,26.829999923706055,137600
2018-05-15,26.739999771118164,26.739999771118164,25.899999618530273,26.40999984741211,26.40999984741211,62000
2018-05-16,26.34000015258789,26.850000381469727,25.481000900268555,25.860000610351562,25.860000610351562,72000
2018-05-17,25.969999313354492,26.649999618530273,25.03499984741211,25.729999542236328,25.729999542236328,181100
2018-05-18,25.8799991607666,26.25,24.329999923706055,25.280000686645508,25.280000686645508,106200
2018-05-21,25.399999618530273,27.459999084472656,25.25,27.209999084472656,27.209999084472656,115400
2018-05-22,27.450000762939453,27.479999542236328,24.920000076293945,25.670000076293945,25.670000076293945,193200
2018-05-23,25.59000015258789,25.950000762939453,25.200000762939453,25.850000381469727,25.850000381469727,137800
2018-05-24,25.81999969482422,26.229999542236328,25.030000686645508,25.049999237060547,25.049999237060547,112500
2018-05-25,25.020000457763672,26.235000610351562,24.801000595092773,25.309999465942383,25.309999465942383,64100
2018-05-29,25.059999465942383,26.549999237060547,25.059999465942383,26.5,26.5,58300
2018-05-30,26.549999237060547,27.520000457763672,25.93000030517578,26.729999542236328,26.729999542236328,114200
2018-05-31,27.040000915527344,27.040000915527344,25.280000686645508,25.719999313354492,25.719999313354492,262400
2018-06-01,25.780000686645508,26.110000610351562,24.479999542236328,25.90999984741211,25.90999984741211,248900
2018-06-04,26.950000762939453,38.43000030517578,26.950000762939453,38.310001373291016,38.310001373291016,1869500
2018-06-05,36.36000061035156,41.625,35.564998626708984,39.970001220703125,39.970001220703125,856000
2018-06-06,40.68000030517578,42.78200149536133,39.56999969482422,41.52000045776367,41.52000045776367,415100
2018-06-07,40.150001525878906,40.415000915527344,35.75,35.88999938964844,35.88999938964844,3388900
2018-06-08,35.56999969482422,37.79999923706055,35.04999923706055,35.130001068115234,35.130001068115234,534300
2018-06-11,35.400001525878906,36.41999816894531,35.029998779296875,36.11000061035156,36.11000061035156,284700
2018-06-12,38.38999938964844,38.75,36.599998474121094,38.47999954223633,38.47999954223633,319300
2018-06-13,38.29999923706055,38.75,37.04999923706055,38.34000015258789,38.34000015258789,139600
2018-06-14,38.349998474121094,41.040000915527344,38.0,40.369998931884766,40.369998931884766,239900
2018-06-15,40.43000030517578,43.650001525878906,39.94300079345703,41.86000061035156,41.86000061035156,405400
2018-06-18,41.400001525878906,45.61000061035156,41.400001525878906,44.65999984741211,44.65999984741211,392200
2018-06-19,43.0099983215332,45.0,42.2599983215332,43.959999084472656,43.959999084472656,312800
2018-06-20,44.040000915527344,45.09000015258789,43.7400016784668,44.369998931884766,44.369998931884766,117400
2018-06-21,44.540000915527344,45.119998931884766,43.0,44.95000076293945,44.95000076293945,273200
2018-06-22,45.08000183105469,45.08000183105469,36.56999969482422,39.54999923706055,39.54999923706055,850300
2018-06-25,39.220001220703125,41.18000030517578,39.08000183105469,39.5,39.5,226800
2018-06-26,39.63999938964844,40.619998931884766,39.04999923706055,40.130001068115234,40.130001068115234,194100
2018-06-27,40.13999938964844,40.16999816894531,36.54999923706055,37.459999084472656,37.459999084472656,193700
2018-06-28,37.63999938964844,39.22999954223633,37.40999984741211,38.459999084472656,38.459999084472656,122300
2018-06-29,38.61000061035156,39.720001220703125,38.01499938964844,39.349998474121094,39.349998474121094,145100
2018-07-02,39.060001373291016,40.189998626708984,38.29999923706055,38.720001220703125,38.720001220703125,225000
2018-07-03,38.650001525878906,41.33000183105469,38.584999084472656,41.029998779296875,41.029998779296875,107700
2018-07-05,42.0,43.91999816894531,41.119998931884766,42.099998474121094,42.099998474121094,218700
2018-07-06,42.22999954223633,42.380001068115234,40.119998931884766,40.56999969482422,40.56999969482422,99100
2018-07-09,40.650001525878906,41.27000045776367,40.04999923706055,40.38999938964844,40.38999938964844,238800
2018-07-10,40.400001525878906,40.58000183105469,38.07500076293945,38.63999938964844,38.63999938964844,176200
2018-07-11,38.36000061035156,39.36000061035156,37.599998474121094,37.77000045776367,37.77000045776367,144900
2018-07-12,38.220001220703125,39.15999984741211,37.1510009765625,38.439998626708984,38.439998626708984,162000
2018-07-13,38.43000030517578,38.68000030517578,37.040000915527344,37.560001373291016,37.560001373291016,138100
2018-07-16,37.560001373291016,39.06700134277344,36.5,38.209999084472656,38.209999084472656,236200
2018-07-17,38.02000045776367,39.310001373291016,36.95000076293945,37.869998931884766,37.869998931884766,286800
2018-07-18,37.93000030517578,38.56999969482422,36.7599983215332,37.88999938964844,37.88999938964844,137600
2018-07-19,37.7599983215332,38.2599983215332,36.02000045776367,36.959999084472656,36.959999084472656,244700
2018-07-20,36.959999084472656,37.209999084472656,36.1870002746582,37.09000015258789,37.09000015258789,161000
2018-07-23,37.0099983215332,37.27000045776367,36.099998474121094,36.52000045776367,36.52000045776367,165800
2018-07-24,36.54999923706055,37.88999938964844,35.5,36.18000030517578,36.18000030517578,288600
2018-07-25,36.29999923706055,36.8380012512207,35.79399871826172,36.720001220703125,36.720001220703125,200100
2018-07-26,36.7599983215332,37.27000045776367,36.58000183105469,36.599998474121094,36.599998474121094,97800
2018-07-27,36.630001068115234,36.630001068115234,33.599998474121094,33.79999923706055,33.79999923706055,158300
2018-07-30,33.79999923706055,34.439998626708984,33.20000076293945,33.56999969482422,33.56999969482422,102500
2018-07-31,33.869998931884766,34.5,32.79999923706055,34.400001525878906,34.400001525878906,157400
2018-08-01,34.5099983215332,35.900001525878906,34.5099983215332,35.4900016784668,35.4900016784668,101000
2018-08-02,35.290000915527344,36.380001068115234,34.91999816894531,36.25,36.25,90700
2018-08-03,36.18000030517578,38.529998779296875,35.0,35.689998626708984,35.689998626708984,98500
2018-08-06,35.709999084472656,36.5099983215332,34.970001220703125,35.959999084472656,35.959999084472656,78200
2018-08-07,38.275001525878906,39.74599838256836,35.97999954223633,36.0,36.0,154800
2018-08-08,37.13999938964844,37.13999938964844,33.75,34.880001068115234,34.880001068115234,173400
2018-08-09,35.099998474121094,36.970001220703125,35.029998779296875,36.58000183105469,36.58000183105469,123300
2018-08-10,36.13999938964844,36.290000915527344,35.2239990234375,35.59000015258789,35.59000015258789,68500
2018-08-13,36.0099983215332,36.400001525878906,35.02000045776367,35.380001068115234,35.380001068115234,32400
2018-08-14,35.310001373291016,35.46500015258789,34.2140007019043,34.4900016784668,34.4900016784668,53400
2018-08-15,34.4900016784668,34.939998626708984,33.255001068115234,33.709999084472656,33.709999084472656,78900
2018-08-16,33.560001373291016,35.724998474121094,33.20000076293945,35.52000045776367,35.52000045776367,152700
2018-08-17,35.380001068115234,35.5099983215332,33.7599983215332,34.959999084472656,34.959999084472656,108000
2018-08-20,35.119998931884766,35.119998931884766,33.56999969482422,34.25,34.25,141000
2018-08-21,34.369998931884766,35.349998474121094,34.279998779296875,34.68000030517578,34.68000030517578,67800
2018-08-22,34.75,36.86000061035156,34.0,36.25,36.25,151600
2018-08-23,36.75,36.75,34.900001525878906,35.77000045776367,35.77000045776367,241100
2018-08-24,35.52000045776367,36.15999984741211,34.099998474121094,35.470001220703125,35.470001220703125,92300
2018-08-27,35.79999923706055,39.08000183105469,35.22999954223633,38.54999923706055,38.54999923706055,171300
2018-08-28,38.779998779296875,39.900001525878906,38.084999084472656,38.310001373291016,38.310001373291016,116500
2018-08-29,39.0,39.099998474121094,36.36199951171875,37.650001525878906,37.650001525878906,117000
2018-08-30,37.63999938964844,38.119998931884766,37.029998779296875,37.310001373291016,37.310001373291016,63500
2018-08-31,37.2400016784668,37.869998931884766,36.439998626708984,36.9900016784668,36.9900016784668,150200
2018-09-04,37.369998931884766,37.56999969482422,35.790000915527344,36.209999084472656,36.209999084472656,147900
2018-09-05,36.060001373291016,36.90999984741211,35.060001373291016,35.66999816894531,35.66999816894531,69300
2018-09-06,35.869998931884766,37.220001220703125,34.939998626708984,36.900001525878906,36.900001525878906,191300
2018-09-07,36.5,38.0,36.176998138427734,37.959999084472656,37.959999084472656,78600
2018-09-10,38.09000015258789,39.1349983215332,37.810001373291016,38.209999084472656,38.209999084472656,327900
2018-09-11,38.27000045776367,39.27000045776367,37.2400016784668,38.40999984741211,38.40999984741211,105700
2018-09-12,38.06999969482422,38.349998474121094,36.33000183105469,36.560001373291016,36.560001373291016,119700
2018-09-13,36.400001525878906,37.209999084472656,36.349998474121094,36.45000076293945,36.45000076293945,102100
2018-09-14,36.400001525878906,36.599998474121094,34.665000915527344,35.5,35.5,107400
2018-09-17,35.34000015258789,35.779998779296875,34.209999084472656,34.7400016784668,34.7400016784668,80700
2018-09-18,35.54999923706055,36.16999816894531,34.060001373291016,36.099998474121094,36.099998474121094,205700
2018-09-19,36.689998626708984,38.93000030517578,36.2599983215332,36.380001068115234,36.380001068115234,163900
2018-09-20,36.599998474121094,39.611000061035156,36.20000076293945,39.310001373291016,39.310001373291016,177900
2018-09-21,39.59000015258789,40.779998779296875,37.7599983215332,38.970001220703125,38.970001220703125,1025400
2018-09-24,39.25,41.0,38.21799850463867,39.91999816894531,39.91999816894531,265900
2018-09-25,36.84000015258789,38.97999954223633,35.91999816894531,38.2599983215332,38.2599983215332,209000
2018-09-26,38.220001220703125,39.869998931884766,37.939998626708984,38.5,38.5,271500
2018-09-27,38.77000045776367,39.88999938964844,37.36000061035156,38.4900016784668,38.4900016784668,371700
2018-09-28,38.36000061035156,38.95000076293945,37.68000030517578,38.720001220703125,38.720001220703125,152200
2018-10-01,39.0,39.540000915527344,35.25,35.540000915527344,35.540000915527344,151100
2018-10-02,35.20000076293945,35.92499923706055,34.52000045776367,35.099998474121094,35.099998474121094,160700
2018-10-03,35.25,36.2400016784668,34.0,36.13999938964844,36.13999938964844,128500
2018-10-04,36.13999938964844,37.37699890136719,32.04999923706055,32.20000076293945,32.20000076293945,411000
2018-10-05,32.4900016784668,32.720001220703125,30.200000762939453,31.15999984741211,31.15999984741211,101500
2018-10-08,31.010000228881836,31.110000610351562,29.3799991607666,30.809999465942383,30.809999465942383,425400
2018-10-09,30.579999923706055,31.72800064086914,30.270000457763672,31.389999389648438,31.389999389648438,139700
2018-10-10,31.15999984741211,31.90999984741211,29.110000610351562,29.280000686645508,29.280000686645508,173800
2018-10-11,29.010000228881836,30.44099998474121,27.719999313354492,28.079999923706055,28.079999923706055,109700
2018-10-12,28.670000076293945,29.554000854492188,27.690000534057617,28.149999618530273,28.149999618530273,182200
2018-10-15,28.1200008392334,28.639999389648438,26.579999923706055,27.979999542236328,27.979999542236328,245300
2018-10-16,28.280000686645508,29.219999313354492,27.59000015258789,28.75,28.75,153300
2018-10-17,28.6200008392334,28.90999984741211,27.5,28.649999618530273,28.649999618530273,327300
2018-10-18,28.59000015258789,28.59000015258789,27.010000228881836,27.229999542236328,27.229999542236328,267800
2018-10-19,27.0,27.155000686645508,22.049999237060547,22.260000228881836,22.260000228881836,1036300
2018-10-22,22.299999237060547,23.7549991607666,21.6200008392334,22.649999618530273,22.649999618530273,1039500
2018-10-23,22.270000457763672,23.395000457763672,20.84000015258789,22.540000915527344,22.540000915527344,393800
2018-10-24,22.6299991607666,23.010000228881836,20.790000915527344,20.809999465942383,20.809999465942383,353900
2018-10-25,21.06999969482422,22.125,20.229999542236328,21.139999389648438,21.139999389648438,311200
2018-10-26,20.709999084472656,22.1200008392334,20.09000015258789,20.479999542236328,20.479999542236328,263000
2018-10-29,20.920000076293945,20.94499969482422,18.549999237060547,19.079999923706055,19.079999923706055,101800
2018-10-30,18.969999313354492,19.979999542236328,18.799999237060547,19.940000534057617,19.940000534057617,152400
2018-10-31,20.350000381469727,21.190000534057617,19.959999084472656,20.190000534057617,20.190000534057617,424500
2018-11-01,20.3799991607666,21.450000762939453,19.650999069213867,21.360000610351562,21.360000610351562,595600
2018-11-02,21.540000915527344,22.450000762939453,20.260000228881836,20.40999984741211,20.40999984741211,393300
2018-11-05,20.6200008392334,20.645000457763672,19.040000915527344,20.40999984741211,20.40999984741211,232800
2018-11-06,20.260000228881836,20.68000030517578,19.979999542236328,20.56999969482422,20.56999969482422,570700
2018-11-07,20.829999923706055,21.959999084472656,20.829999923706055,21.690000534057617,21.690000534057617,573000
2018-11-08,20.010000228881836,20.889999389648438,19.801000595092773,20.0,20.0,528800
2018-11-09,19.790000915527344,20.6299991607666,19.059999465942383,20.0,20.0,377100
2018-11-12,20.31999969482422,21.68000030517578,19.559999465942383,20.959999084472656,20.959999084472656,471100
2018-11-13,21.030000686645508,23.405000686645508,20.829999923706055,21.6299991607666,21.6299991607666,340600
2018-11-14,22.010000228881836,22.030000686645508,20.020000457763672,20.579999923706055,20.579999923706055,277400
2018-11-15,20.75,24.25,20.75,22.729999542236328,22.729999542236328,732800
2018-11-16,22.360000610351562,23.360000610351562,21.290000915527344,22.75,22.75,260300
2018-11-19,22.610000610351562,23.459999084472656,21.760000228881836,22.920000076293945,22.920000076293945,344700
2018-11-20,22.350000381469727,23.780000686645508,22.350000381469727,23.229999542236328,23.229999542236328,201700
2018-11-21,23.639999389648438,24.43000030517578,23.079999923706055,23.5,23.5,183500
2018-11-23,23.149999618530273,24.075000762939453,22.739999771118164,23.079999923706055,23.079999923706055,115400
2018-11-26,23.440000534057617,24.06999969482422,22.559999465942383,24.059999465942383,24.059999465942383,180300
2018-11-27,23.84000015258789,24.200000762939453,23.06999969482422,23.989999771118164,23.989999771118164,199200
2018-11-28,24.190000534057617,25.96500015258789,23.790000915527344,25.3799991607666,25.3799991607666,215500
2018-11-29,25.1200008392334,26.270000457763672,25.1200008392334,25.59000015258789,25.59000015258789,222500
2018-11-30,25.469999313354492,26.549999237060547,25.469999313354492,26.06999969482422,26.06999969482422,393600
2018-12-03,26.90999984741211,27.6299991607666,26.420000076293945,27.610000610351562,27.610000610351562,239500
2018-12-04,27.920000076293945,28.239999771118164,25.93000030517578,26.469999313354492,26.469999313354492,385100
2018-12-06,25.959999084472656,27.920000076293945,25.28499984741211,27.889999389648438,27.889999389648438,233000
2018-12-07,27.75,28.90999984741211,27.709999084472656,27.959999084472656,27.959999084472656,321300
2018-12-10,27.940000534057617,28.100000381469727,26.559999465942383,27.43000030517578,27.43000030517578,148000
2018-12-11,27.81999969482422,27.959999084472656,26.450000762939453,27.139999389648438,27.139999389648438,102900
2018-12-12,27.40999984741211,28.43000030517578,26.709999084472656,26.93000030517578,26.93000030517578,232900
2018-12-13,26.739999771118164,27.100000381469727,24.53499984741211,25.43000030517578,25.43000030517578,314100
2018-12-14,25.0,26.6299991607666,24.68000030517578,26.209999084472656,26.209999084472656,146100
2018-12-17,26.450000762939453,26.979999542236328,24.559999465942383,24.739999771118164,24.739999771118164,247700
2018-12-18,24.90999984741211,25.30500030517578,22.709999084472656,23.559999465942383,23.559999465942383,339000
2018-12-19,23.719999313354492,24.260000228881836,21.56999969482422,22.309999465942383,22.309999465942383,310200
2018-12-20,22.389999389648438,22.979999542236328,20.6200008392334,21.209999084472656,21.209999084472656,454100
2018-12-21,21.190000534057617,21.299999237060547,20.0,20.059999465942383,20.059999465942383,1092600
2018-12-24,20.0,20.864999771118164,19.760000228881836,20.100000381469727,20.100000381469727,117700
2018-12-26,20.25,21.06999969482422,19.690000534057617,20.969999313354492,20.969999313354492,440600
2018-12-27,20.579999923706055,21.100000381469727,19.709999084472656,20.719999313354492,20.719999313354492,177200
2018-12-28,20.719999313354492,21.56999969482422,20.209999084472656,20.59000015258789,20.59000015258789,192600
2018-12-31,21.260000228881836,22.0,20.3700008392334,20.989999771118164,20.989999771118164,469700
2019-01-02,20.920000076293945,22.940000534057617,20.075000762939453,22.479999542236328,22.479999542236328,432700
2019-01-03,22.18000030517578,22.424999237060547,20.440000534057617,20.649999618530273,20.649999618530273,295500
2019-01-04,20.950000762939453,22.350000381469727,20.469999313354492,21.469999313354492,21.469999313354492,196800
2019-01-07,21.940000534057617,25.684999465942383,21.753000259399414,24.350000381469727,24.350000381469727,698700
2019-01-08,24.6200008392334,25.700000762939453,24.0,25.0,25.0,509100
2019-01-09,25.40999984741211,25.899999618530273,24.350000381469727,25.40999984741211,25.40999984741211,452400
2019-01-10,25.1299991607666,25.899999618530273,24.385000228881836,25.889999389648438,25.889999389648438,410200
2019-01-11,25.84000015258789,26.0,24.729999542236328,24.920000076293945,24.920000076293945,204000
2019-01-14,24.670000076293945,24.670000076293945,24.1200008392334,24.31999969482422,24.31999969482422,248100
2019-01-15,24.389999389648438,25.149999618530273,24.219999313354492,25.149999618530273,25.149999618530273,228100
2019-01-16,25.450000762939453,27.469999313354492,25.450000762939453,26.399999618530273,26.399999618530273,389800
2019-01-17,26.309999465942383,26.989999771118164,25.31999969482422,25.510000228881836,25.510000228881836,108000
2019-01-18,25.65999984741211,26.84000015258789,25.18000030517578,26.75,26.75,169800
2019-01-22,26.579999923706055,26.655000686645508,25.799999237060547,26.3700008392334,26.3700008392334,247700
2019-01-23,26.549999237060547,27.530000686645508,25.15999984741211,25.739999771118164,25.739999771118164,339300
2019-01-24,25.639999389648438,26.530000686645508,25.6299991607666,26.450000762939453,26.450000762939453,129700
2019-01-25,26.68000030517578,27.610000610351562,26.280000686645508,27.329999923706055,27.329999923706055,262200
2019-01-28,26.8799991607666,26.8799991607666,25.190000534057617,25.309999465942383,25.309999465942383,163500
2019-01-29,25.25,25.90999984741211,24.399999618530273,25.829999923706055,25.829999923706055,172400
2019-01-30,26.100000381469727,26.5,25.399999618530273,26.350000381469727,26.350000381469727,97600
2019-01-31,25.989999771118164,27.020000457763672,25.905000686645508,26.8700008392334,26.8700008392334,138500
2019-02-01,26.850000381469727,28.003999710083008,26.59000015258789,27.559999465942383,27.559999465942383,171300
2019-02-04,27.520000457763672,27.8700008392334,27.209999084472656,27.75,27.75,100700
2019-02-05,27.860000610351562,28.25,27.059999465942383,27.459999084472656,27.459999084472656,214900
2019-02-06,27.479999542236328,27.639999389648438,26.709999084472656,27.030000686645508,27.030000686645508,83800
2019-02-07,26.950000762939453,27.270000457763672,26.34000015258789,27.1200008392334,27.1200008392334,150900
2019-02-08,27.09000015258789,27.760000228881836,26.43600082397461,27.709999084472656,27.709999084472656,195300
2019-02-11,27.940000534057617,27.989999771118164,26.90999984741211,27.690000534057617,27.690000534057617,137300
2019-02-12,27.93000030517578,28.010000228881836,27.059999465942383,27.6299991607666,27.6299991607666,146800
2019-02-13,27.860000610351562,28.06999969482422,27.559999465942383,27.739999771118164,27.739999771118164,100300
2019-02-14,27.6200008392334,28.100000381469727,27.209999084472656,27.969999313354492,27.969999313354492,83800
2019-02-15,28.059999465942383,29.174999237060547,27.020000457763672,29.0,29.0,150300
2019-02-19,28.979999542236328,30.059999465942383,28.549999237060547,29.280000686645508,29.280000686645508,184100
2019-02-20,29.270000457763672,29.405000686645508,27.950000762939453,28.56999969482422,28.56999969482422,103900
2019-02-21,28.56999969482422,28.639999389648438,26.395000457763672,26.459999084472656,26.459999084472656,119000
2019-02-22,26.559999465942383,27.68000030517578,25.87299919128418,27.610000610351562,27.610000610351562,137000
2019-02-25,28.1200008392334,29.322999954223633,27.360000610351562,28.75,28.75,245200
2019-02-26,28.760000228881836,29.15999984741211,28.100000381469727,28.690000534057617,28.690000534057617,142400
2019-02-27,28.690000534057617,29.979999542236328,28.309999465942383,29.549999237060547,29.549999237060547,159800
2019-02-28,29.600000381469727,29.780000686645508,27.600000381469727,28.399999618530273,28.399999618530273,193300
2019-03-01,28.6299991607666,29.299999237060547,28.0,28.639999389648438,28.639999389648438,177300
2019-03-04,28.8799991607666,29.09000015258789,26.889999389648438,28.639999389648438,28.639999389648438,210800
2019-03-05,28.649999618530273,29.110000610351562,27.290000915527344,27.59000015258789,27.59000015258789,156000
2019-03-06,27.610000610351562,27.610000610351562,25.989999771118164,26.100000381469727,26.100000381469727,149000
2019-03-07,26.079999923706055,26.610000610351562,25.610000610351562,25.899999618530273,25.899999618530273,74300
2019-03-08,25.799999237060547,26.5,25.520000457763672,25.799999237060547,25.799999237060547,69800
2019-03-11,25.969999313354492,26.8799991607666,25.420000076293945,26.790000915527344,26.790000915527344,130800
2019-03-12,26.969999313354492,27.25,26.1200008392334,26.790000915527344,26.790000915527344,91800
2019-03-13,26.81999969482422,26.81999969482422,25.780000686645508,26.260000228881836,26.260000228881836,105300
2019-03-14,26.25,26.795000076293945,24.860000610351562,25.5,25.5,219600
2019-03-15,25.40999984741211,26.92799949645996,24.920000076293945,25.290000915527344,25.290000915527344,268300
2019-03-18,25.290000915527344,26.049999237060547,24.920000076293945,25.399999618530273,25.399999618530273,145200
2019-03-19,25.18000030517578,25.5,24.760000228881836,24.8799991607666,24.8799991607666,131200
2019-03-20,25.190000534057617,25.280000686645508,24.524999618530273,24.68000030517578,24.68000030517578,178900
2019-03-21,24.510000228881836,24.940000534057617,23.81999969482422,24.459999084472656,24.459999084472656,174700
2019-03-22,24.280000686645508,24.700000762939453,23.649999618530273,23.940000534057617,23.940000534057617,219400
2019-03-25,23.700000762939453,24.15999984741211,23.194000244140625,24.059999465942383,24.059999465942383,161200
2019-03-26,24.18000030517578,24.520000457763672,23.709999084472656,24.510000228881836,24.510000228881836,114700
2019-03-27,24.549999237060547,24.549999237060547,23.200000762939453,23.899999618530273,23.899999618530273,165200
2019-03-28,23.940000534057617,24.084999084472656,23.309999465942383,23.649999618530273,23.649999618530273,111400
2019-03-29,23.760000228881836,23.760000228881836,22.190000534057617,23.209999084472656,23.209999084472656,272700
2019-04-01,23.530000686645508,24.264999389648438,23.270000457763672,23.75,23.75,201400
2019-04-02,23.75,24.059999465942383,23.420000076293945,23.540000915527344,23.540000915527344,173100
2019-04-03,23.75,23.780000686645508,22.735000610351562,22.969999313354492,22.969999313354492,294800
2019-04-04,22.989999771118164,23.15999984741211,22.270000457763672,22.6299991607666,22.6299991607666,319200
2019-04-05,22.760000228881836,24.389999389648438,22.760000228881836,24.34000015258789,24.34000015258789,234700
2019-04-08,24.489999771118164,24.540000915527344,23.540000915527344,23.600000381469727,23.600000381469727,129500
2019-04-09,23.540000915527344,23.780000686645508,23.020000457763672,23.030000686645508,23.030000686645508,109200
2019-04-10,23.079999923706055,23.829999923706055,22.7549991607666,23.639999389648438,23.639999389648438,105700
2019-04-11,23.68000030517578,23.729999542236328,22.809999465942383,23.290000915527344,23.290000915527344,156200
2019-04-12,23.540000915527344,23.8700008392334,22.559999465942383,22.959999084472656,22.959999084472656,100600
2019-04-15,23.010000228881836,23.139999389648438,22.31999969482422,22.81999969482422,22.81999969482422,78400
2019-04-16,22.81999969482422,23.719999313354492,22.639999389648438,23.510000228881836,23.510000228881836,142000
2019-04-17,23.559999465942383,23.65999984741211,21.780000686645508,22.969999313354492,22.969999313354492,315900
2019-04-18,22.950000762939453,23.600000381469727,22.190000534057617,23.450000762939453,23.450000762939453,283200
2019-04-22,23.309999465942383,24.270000457763672,22.8799991607666,24.200000762939453,24.200000762939453,121300
2019-04-23,24.239999771118164,25.43000030517578,24.100000381469727,25.350000381469727,25.350000381469727,155000
2019-04-24,25.510000228881836,25.829999923706055,24.3799991607666,24.450000762939453,24.450000762939453,131700
2019-04-25,24.3799991607666,24.399999618530273,23.579999923706055,24.0,24.0,173400
2019-04-26,23.940000534057617,24.014999389648438,23.170000076293945,23.959999084472656,23.959999084472656,81200
2019-04-29,24.0,24.229999542236328,23.549999237060547,23.719999313354492,23.719999313354492,109500
2019-04-30,23.729999542236328,23.729999542236328,22.5,23.0,23.0,224100
2019-05-01,23.030000686645508,23.405000686645508,22.34000015258789,22.93000030517578,22.93000030517578,236500
2019-05-02,22.8799991607666,23.40999984741211,22.5,22.920000076293945,22.920000076293945,67400
2019-05-03,23.100000381469727,23.639999389648438,22.81999969482422,23.59000015258789,23.59000015258789,100000
2019-05-06,23.030000686645508,23.889999389648438,22.3799991607666,23.68000030517578,23.68000030517578,223500
2019-05-07,23.3799991607666,24.163000106811523,21.989999771118164,22.510000228881836,22.510000228881836,199100
2019-05-08,22.610000610351562,24.18000030517578,22.049999237060547,24.049999237060547,24.049999237060547,178700
2019-05-09,23.729999542236328,24.56999969482422,23.079999923706055,24.329999923706055,24.329999923706055,108500
2019-05-10,22.950000762939453,23.729999542236328,22.719999313354492,23.010000228881836,23.010000228881836,144400
2019-05-13,22.25,23.299999237060547,22.06999969482422,22.670000076293945,22.670000076293945,193300
2019-05-14,22.559999465942383,23.280000686645508,22.290000915527344,23.110000610351562,23.110000610351562,158600
2019-05-15,22.670000076293945,23.850000381469727,22.670000076293945,23.469999313354492,23.469999313354492,101600
2019-05-16,23.489999771118164,24.270000457763672,23.239999771118164,24.1299991607666,24.1299991607666,125000
2019-05-17,23.809999465942383,24.5,23.299999237060547,23.889999389648438,23.889999389648438,109500
2019-05-20,23.6299991607666,23.6299991607666,22.690000534057617,22.739999771118164,22.739999771118164,130100
2019-05-21,23.049999237060547,25.1299991607666,22.885000228881836,25.079999923706055,25.079999923706055,161400
2019-05-22,24.90999984741211,25.110000610351562,23.959999084472656,24.25,24.25,96400
2019-05-23,23.600000381469727,24.020000457763672,23.09000015258789,23.479999542236328,23.479999542236328,93300
2019-05-24,23.610000610351562,24.360000610351562,23.15999984741211,23.670000076293945,23.670000076293945,170300
2019-05-28,23.6200008392334,24.1299991607666,23.274999618530273,23.440000534057617,23.440000534057617,104300
2019-05-29,23.209999084472656,24.985000610351562,22.944000244140625,24.56999969482422,24.56999969482422,240500
2019-05-30,24.850000381469727,24.979999542236328,23.0,23.43000030517578,23.43000030517578,193100
2019-05-31,23.010000228881836,23.450000762939453,22.170000076293945,22.81999969482422,22.81999969482422,190000
2019-06-03,23.389999389648438,25.350000381469727,23.049999237060547,24.459999084472656,24.459999084472656,433900
2019-06-04,24.809999465942383,24.809999465942383,22.864999771118164,23.219999313354492,23.219999313354492,344200
2019-06-05,23.31999969482422,23.31999969482422,21.774999618530273,21.8700008392334,21.8700008392334,317900
2019-06-06,21.850000381469727,21.850000381469727,20.670000076293945,21.100000381469727,21.100000381469727,251000
2019-06-07,21.170000076293945,22.59000015258789,20.19499969482422,21.920000076293945,21.920000076293945,255200
2019-06-10,21.90999984741211,22.18000030517578,21.190000534057617,21.559999465942383,21.559999465942383,119700
2019-06-11,21.920000076293945,22.957000732421875,21.030000686645508,21.049999237060547,21.049999237060547,153400
2019-06-12,21.0,22.229999542236328,20.920000076293945,22.229999542236328,22.229999542236328,132600
2019-06-13,22.440000534057617,23.40999984741211,22.09600067138672,23.15999984741211,23.15999984741211,183900
2019-06-14,23.06999969482422,23.149999618530273,21.40999984741211,21.440000534057617,21.440000534057617,192600
2019-06-17,22.100000381469727,23.479999542236328,21.93000030517578,23.059999465942383,23.059999465942383,355000
2019-06-18,23.110000610351562,24.059999465942383,22.709999084472656,23.979999542236328,23.979999542236328,157400
2019-06-19,23.90999984741211,25.360000610351562,23.90999984741211,24.469999313354492,24.469999313354492,254200
2019-06-20,24.899999618530273,25.96500015258789,24.5,25.0,25.0,174400
2019-06-21,25.020000457763672,26.360000610351562,24.65999984741211,26.209999084472656,26.209999084472656,418300
2019-06-24,26.149999618530273,26.90999984741211,23.65999984741211,23.850000381469727,23.850000381469727,355400
2019-06-25,24.079999923706055,24.3799991607666,23.40999984741211,23.690000534057617,23.690000534057617,313900
2019-06-26,23.90999984741211,24.350000381469727,23.079999923706055,23.360000610351562,23.360000610351562,556100
2019-06-27,23.489999771118164,24.100000381469727,23.110000610351562,23.34000015258789,23.34000015258789,196100
2019-06-28,23.34000015258789,23.350000381469727,22.43000030517578,22.549999237060547,22.549999237060547,1197100
2019-07-01,22.770000457763672,24.31999969482422,22.600000381469727,24.0,24.0,393900
2019-07-02,23.920000076293945,24.0,22.610000610351562,23.09000015258789,23.09000015258789,182800
2019-07-03,23.170000076293945,23.3700008392334,22.690000534057617,23.190000534057617,23.190000534057617,88100
2019-07-05,23.030000686645508,23.5,22.760000228881836,22.920000076293945,22.920000076293945,216700
2019-07-08,22.90999984741211,23.079999923706055,21.850000381469727,22.489999771118164,22.489999771118164,219300
2019-07-09,22.40999984741211,22.690000534057617,21.8700008392334,22.190000534057617,22.190000534057617,181600
2019-07-10,22.3700008392334,22.770000457763672,21.25,21.760000228881836,21.760000228881836,308500
2019-07-11,21.809999465942383,22.34000015258789,21.270000457763672,21.84000015258789,21.84000015258789,183800
2019-07-12,22.139999389648438,22.399999618530273,21.450000762939453,21.600000381469727,21.600000381469727,236000
2019-07-15,21.6299991607666,21.93000030517578,21.43000030517578,21.780000686645508,21.780000686645508,149800
2019-07-16,21.809999465942383,22.219999313354492,20.75,20.90999984741211,20.90999984741211,489500
2019-07-17,21.020000457763672,21.3799991607666,20.469999313354492,20.549999237060547,20.549999237060547,332100
2019-07-18,21.8799991607666,21.8799991607666,20.420000076293945,20.649999618530273,20.649999618530273,321700
2019-07-19,20.649999618530273,21.155000686645508,20.5,20.649999618530273,20.649999618530273,255300
2019-07-22,20.8799991607666,22.25,20.670000076293945,21.770000457763672,21.770000457763672,181300
2019-07-23,21.770000457763672,22.260000228881836,21.770000457763672,21.8700008392334,21.8700008392334,165700
2019-07-24,21.8799991607666,22.25,21.68000030517578,21.90999984741211,21.90999984741211,193100
2019-07-25,21.829999923706055,21.864999771118164,20.790000915527344,21.260000228881836,21.260000228881836,408400
2019-07-26,21.40999984741211,21.78499984741211,20.84000015258789,21.479999542236328,21.479999542236328,412700
2019-07-29,21.489999771118164,21.8700008392334,20.93000030517578,21.540000915527344,21.540000915527344,388100
2019-07-30,21.5,22.440000534057617,21.5,22.40999984741211,22.40999984741211,328800
2019-07-31,22.420000076293945,22.520000457763672,21.84000015258789,22.100000381469727,22.100000381469727,280600
2019-08-01,22.200000762939453,22.92300033569336,21.93000030517578,22.479999542236328,22.479999542236328,322000
2019-08-02,22.579999923706055,22.579999923706055,21.6200008392334,22.3700008392334,22.3700008392334,226200
2019-08-05,22.219999313354492,23.989999771118164,21.739999771118164,23.0,23.0,512700
2019-08-06,23.0,23.625,22.219999313354492,22.93000030517578,22.93000030517578,259700
2019-08-07,22.889999389648438,24.0,22.34000015258789,23.450000762939453,23.450000762939453,473000
2019-08-08,23.469999313354492,23.979999542236328,22.950000762939453,23.1200008392334,23.1200008392334,253600
2019-08-09,23.09000015258789,23.780000686645508,22.90999984741211,23.479999542236328,23.479999542236328,311200
2019-08-12,23.329999923706055,23.559999465942383,19.8799991607666,19.950000762939453,19.950000762939453,506800
2019-08-13,42.900001525878906,42.9900016784668,34.54999923706055,35.900001525878906,35.900001525878906,10982500
2019-08-14,36.33000183105469,39.150001525878906,35.099998474121094,37.869998931884766,37.869998931884766,3079400
2019-08-15,37.0,37.20000076293945,35.5,36.29999923706055,36.29999923706055,6037300
2019-08-16,36.0,37.369998931884766,35.56999969482422,37.0,37.0,1813300
2019-08-19,37.34000015258789,37.79999923706055,35.869998931884766,36.650001525878906,36.650001525878906,688500
2019-08-20,36.97999954223633,37.04999923706055,35.83000183105469,37.0,37.0,720600
2019-08-21,37.0,37.150001525878906,35.88999938964844,36.08000183105469,36.08000183105469,526600
2019-08-22,35.849998474121094,37.79999923706055,35.380001068115234,37.08000183105469,37.08000183105469,959400
2019-08-23,36.58000183105469,37.56100082397461,35.97999954223633,36.06999969482422,36.06999969482422,526600
2019-08-26,36.220001220703125,37.36000061035156,35.698001861572266,37.290000915527344,37.290000915527344,767300
2019-08-27,37.56999969482422,38.38999938964844,36.959999084472656,37.869998931884766,37.869998931884766,894100
2019-08-28,37.70000076293945,39.4900016784668,36.97800064086914,38.849998474121094,38.849998474121094,851200
2019-08-29,38.900001525878906,39.22999954223633,37.209999084472656,37.5,37.5,374500
2019-08-30,37.43000030517578,37.7599983215332,36.2400016784668,36.279998779296875,36.279998779296875,789100
2019-09-03,36.02000045776367,36.56999969482422,35.79999923706055,36.43000030517578,36.43000030517578,637400
2019-09-04,36.5,37.22999954223633,36.02000045776367,36.72999954223633,36.72999954223633,548500
2019-09-05,36.650001525878906,38.119998931884766,36.5099983215332,37.31999969482422,37.31999969482422,580500
2019-09-06,37.400001525878906,37.810001373291016,36.54499816894531,37.09000015258789,37.09000015258789,597600
2019-09-09,37.38999938964844,37.38999938964844,35.11000061035156,35.29999923706055,35.29999923706055,630600
2019-09-10,35.0099983215332,35.599998474121094,34.040000915527344,35.2599983215332,35.2599983215332,528600
2019-09-11,35.20000076293945,35.720001220703125,34.04999923706055,35.560001373291016,35.560001373291016,683200
2019-09-12,35.56999969482422,37.47999954223633,35.349998474121094,36.47999954223633,36.47999954223633,452400
2019-09-13,36.40999984741211,37.27000045776367,36.02000045776367,36.849998474121094,36.849998474121094,460900
2019-09-16,36.70000076293945,37.85900115966797,35.529998779296875,36.5099983215332,36.5099983215332,676500
2019-09-17,36.560001373291016,37.801998138427734,35.869998931884766,36.52000045776367,36.52000045776367,640000
2019-09-18,36.34000015258789,36.34000015258789,35.5,35.90999984741211,35.90999984741211,499400
2019-09-19,36.06999969482422,36.50199890136719,34.91999816894531,36.02000045776367,36.02000045776367,355800
2019-09-20,36.0,36.720001220703125,35.5,36.529998779296875,36.529998779296875,1269400
2019-09-23,36.279998779296875,37.27000045776367,35.810001373291016,36.36000061035156,36.36000061035156,426000
2019-09-24,36.40999984741211,36.720001220703125,34.58000183105469,35.41999816894531,35.41999816894531,382400
2019-09-25,35.04999923706055,35.7859992980957,34.2599983215332,34.5099983215332,34.5099983215332,407800
2019-09-26,34.65999984741211,34.65999984741211,32.58000183105469,32.86000061035156,32.86000061035156,479200
2019-09-27,32.900001525878906,33.43000030517578,31.90999984741211,32.54999923706055,32.54999923706055,488100
2019-09-30,33.43000030517578,34.47999954223633,33.125,33.939998626708984,33.939998626708984,420300
2019-10-01,33.81999969482422,34.97999954223633,32.834999084472656,33.040000915527344,33.040000915527344,752500
2019-10-02,32.84000015258789,34.27000045776367,32.03499984741211,34.150001525878906,34.150001525878906,403100
2019-10-03,34.47999954223633,35.65999984741211,33.86000061035156,35.63999938964844,35.63999938964844,440900
2019-10-04,35.689998626708984,36.0099983215332,33.08000183105469,34.380001068115234,34.380001068115234,409000
2019-10-07,34.25,34.56999969482422,33.310001373291016,33.75,33.75,240500
2019-10-08,33.61000061035156,33.650001525878906,31.770000457763672,31.8799991607666,31.8799991607666,384000
2019-10-09,32.060001373291016,32.32500076293945,31.3700008392334,31.700000762939453,31.700000762939453,163300
2019-10-10,31.760000228881836,32.68000030517578,31.760000228881836,32.540000915527344,32.540000915527344,228900
2019-10-11,32.95000076293945,33.18000030517578,32.43000030517578,32.540000915527344,32.540000915527344,374200
2019-10-14,32.45000076293945,33.959999084472656,32.36000061035156,33.15999984741211,33.15999984741211,177400
2019-10-15,33.38999938964844,34.97999954223633,33.38999938964844,34.43000030517578,34.43000030517578,199200
2019-10-16,34.130001068115234,35.08000183105469,33.7599983215332,34.02000045776367,34.02000045776367,288400
2019-10-17,34.27000045776367,34.709999084472656,33.810001373291016,34.060001373291016,34.060001373291016,167400
2019-10-18,33.84000015258789,34.90999984741211,33.84000015258789,34.22999954223633,34.22999954223633,277600
2019-10-21,34.56999969482422,35.2599983215332,34.119998931884766,35.02000045776367,35.02000045776367,131500
2019-10-22,35.5099983215332,35.7400016784668,34.209999084472656,34.86000061035156,34.86000061035156,282500
2019-10-23,34.72999954223633,35.2400016784668,34.43000030517578,34.59000015258789,34.59000015258789,132800
2019-10-24,34.70000076293945,35.880001068115234,34.439998626708984,35.39500045776367,35.39500045776367,547400
2019-10-25,35.29999923706055,36.79999923706055,34.93000030517578,36.060001373291016,36.060001373291016,422700
2019-10-28,36.79999923706055,41.400001525878906,36.79999923706055,39.06999969482422,39.06999969482422,1530400
2019-10-29,39.77000045776367,41.31999969482422,38.862998962402344,40.529998779296875,40.529998779296875,1144500
2019-10-30,40.599998474121094,43.93000030517578,40.290000915527344,43.849998474121094,43.849998474121094,772600
2019-10-31,44.18000030517578,44.459999084472656,43.20000076293945,44.34000015258789,44.34000015258789,678600
2019-11-01,44.849998474121094,45.540000915527344,43.96099853515625,45.459999084472656,45.459999084472656,752800
2019-11-04,45.470001220703125,47.63399887084961,44.83000183105469,46.0,46.0,592500
2019-11-05,45.97999954223633,47.2400016784668,44.54999923706055,46.15999984741211,46.15999984741211,533300
2019-11-06,46.099998474121094,46.95000076293945,45.5,46.5099983215332,46.5099983215332,340200
2019-11-07,46.790000915527344,47.9900016784668,46.6150016784668,47.13999938964844,47.13999938964844,590800
2019-11-08,47.040000915527344,48.0,46.05099868774414,47.470001220703125,47.470001220703125,540100
2019-11-11,47.33000183105469,48.915000915527344,46.95000076293945,48.59000015258789,48.59000015258789,706300
2019-11-12,48.4900016784668,49.2400016784668,48.150001525878906,48.34000015258789,48.34000015258789,230500
2019-11-13,48.34000015258789,49.689998626708984,46.939998626708984,48.720001220703125,48.720001220703125,245600
2019-11-14,48.599998474121094,49.36000061035156,47.400001525878906,47.97999954223633,47.97999954223633,401400
2019-11-15,48.52000045776367,49.970001220703125,48.27000045776367,48.90999984741211,48.90999984741211,422800
2019-11-18,49.209999084472656,49.849998474121094,47.96500015258789,48.130001068115234,48.130001068115234,461900
2019-11-19,48.400001525878906,49.18000030517578,47.81999969482422,48.0,48.0,457900
2019-11-20,47.36000061035156,49.209999084472656,47.28499984741211,47.79999923706055,47.79999923706055,909100
2019-11-21,47.36000061035156,48.290000915527344,46.47999954223633,48.150001525878906,48.150001525878906,451300
2019-11-22,48.560001373291016,48.720001220703125,46.85499954223633,47.2400016784668,47.2400016784668,297200
2019-11-25,47.529998779296875,48.95000076293945,47.529998779296875,48.439998626708984,48.439998626708984,552000
2019-11-26,48.36000061035156,49.90999984741211,47.34000015258789,49.599998474121094,49.599998474121094,557200
2019-11-27,49.599998474121094,49.900001525878906,46.31999969482422,47.0099983215332,47.0099983215332,657800
2019-11-29,46.93000030517578,48.779998779296875,46.599998474121094,47.290000915527344,47.290000915527344,196700
2019-12-02,47.63999938964844,48.47999954223633,45.86000061035156,47.599998474121094,47.599998474121094,437600
2019-12-03,47.25,51.47999954223633,47.25,51.29999923706055,51.29999923706055,697900
2019-12-04,51.5,51.90999984741211,50.25,51.849998474121094,51.849998474121094,373300
2019-12-05,51.849998474121094,52.349998474121094,51.0,51.380001068115234,51.380001068115234,415500
2019-12-06,51.7599983215332,52.810001373291016,51.1150016784668,52.79999923706055,52.79999923706055,252100
2019-12-09,53.15999984741211,55.0,53.15999984741211,54.93000030517578,54.93000030517578,713600
2019-12-10,54.97999954223633,56.5,54.18000030517578,56.400001525878906,56.400001525878906,901300
2019-12-11,56.06999969482422,58.5099983215332,56.06999969482422,58.209999084472656,58.209999084472656,404000
2019-12-12,58.400001525878906,60.13999938964844,58.400001525878906,58.7599983215332,58.7599983215332,568600
2019-12-13,58.72999954223633,64.66000366210938,58.67300033569336,64.62999725341797,64.62999725341797,672900
2019-12-16,65.0,66.43000030517578,61.810001373291016,63.93000030517578,63.93000030517578,1193000
2019-12-17,65.83999633789062,70.0,64.93000030517578,69.93000030517578,69.93000030517578,1101200
2019-12-18,69.66999816894531,69.94000244140625,65.08999633789062,67.12999725341797,67.12999725341797,1008900
2019-12-19,67.30999755859375,67.94000244140625,64.73999786376953,66.83000183105469,66.83000183105469,816100
2019-12-20,67.06999969482422,68.08999633789062,65.25,67.18000030517578,67.18000030517578,1269200
2019-12-23,67.18000030517578,68.6500015258789,66.8499984741211,68.19999694824219,68.19999694824219,366000
2019-12-24,68.19000244140625,68.41999816894531,67.27999877929688,67.94000244140625,67.94000244140625,163700
2019-12-26,68.02999877929688,68.33000183105469,66.91999816894531,67.61000061035156,67.61000061035156,153300
2019-12-27,67.80999755859375,67.80999755859375,64.08000183105469,64.48999786376953,64.48999786376953,394200
2019-12-30,63.939998626708984,64.4000015258789,61.88999938964844,62.2400016784668,62.2400016784668,467500
2019-12-31,61.900001525878906,63.09000015258789,61.81999969482422,62.2400016784668,62.2400016784668,476200
2020-01-02,62.25,62.560001373291016,56.869998931884766,57.849998474121094,57.849998474121094,861900
2020-01-03,56.279998779296875,58.814998626708984,55.400001525878906,57.220001220703125,57.220001220703125,677200
2020-01-06,57.27000045776367,58.13999938964844,55.790000915527344,57.349998474121094,57.349998474121094,388900
2020-01-07,57.119998931884766,60.13999938964844,56.650001525878906,58.779998779296875,58.779998779296875,581500
2020-01-08,58.439998626708984,60.44599914550781,57.97999954223633,60.02000045776367,60.02000045776367,604600
2020-01-09,60.439998626708984,63.08000183105469,59.779998779296875,62.5,62.5,723900
2020-01-10,62.849998474121094,63.93000030517578,61.970001220703125,62.52000045776367,62.52000045776367,930900
2020-01-13,62.75,62.75,59.68000030517578,62.19499969482422,62.19499969482422,935300
2020-01-14,61.869998931884766,63.36000061035156,60.0,62.130001068115234,62.130001068115234,862800
2020-01-15,62.61000061035156,65.48999786376953,61.689998626708984,65.37999725341797,65.37999725341797,377900
2020-01-16,65.87999725341797,67.44000244140625,64.99500274658203,67.16999816894531,67.16999816894531,324100
2020-01-17,67.0,69.87999725341797,66.9000015258789,69.4000015258789,69.4000015258789,438900
2020-01-21,69.05000305175781,70.08999633789062,66.27999877929688,66.56999969482422,66.56999969482422,639800
2020-01-22,67.0999984741211,67.77999877929688,66.4000015258789,66.73999786376953,66.73999786376953,443600
2020-01-23,66.38999938964844,66.83000183105469,65.30000305175781,66.16000366210938,66.16000366210938,332400
2020-01-24,66.44000244140625,67.44999694824219,65.20999908447266,66.25,66.25,327900
2020-01-27,64.11000061035156,66.27999877929688,63.400001525878906,65.41999816894531,65.41999816894531,352300
2020-01-28,65.95999908447266,67.12999725341797,64.7699966430664,65.4000015258789,65.4000015258789,516400
2020-01-29,65.68000030517578,66.47000122070312,64.56999969482422,65.0199966430664,65.0199966430664,279000
2020-01-30,64.4800033569336,65.0199966430664,62.29999923706055,63.88999938964844,63.88999938964844,244000
2020-01-31,63.5,63.66999816894531,61.46200180053711,62.630001068115234,62.630001068115234,600100
2020-02-03,63.47999954223633,65.9000015258789,62.073001861572266,65.30999755859375,65.30999755859375,584900
2020-02-04,65.94000244140625,68.07499694824219,65.77999877929688,67.01000213623047,67.01000213623047,306000
2020-02-05,67.47000122070312,68.2300033569336,66.0,67.16000366210938,67.16000366210938,377600
2020-02-06,67.29000091552734,68.47000122070312,67.16000366210938,67.5,67.5,224100
2020-02-07,67.05000305175781,68.0199966430664,66.46499633789062,66.97000122070312,66.97000122070312,288600
2020-02-10,66.83000183105469,70.27999877929688,66.08999633789062,69.31999969482422,69.31999969482422,241000
2020-02-11,69.9800033569336,71.11000061035156,67.87999725341797,68.83999633789062,68.83999633789062,188600
2020-02-12,68.93000030517578,70.27999877929688,67.5199966430664,69.38999938964844,69.38999938964844,215800
2020-02-13,63.060001373291016,63.27000045776367,58.189998626708984,58.439998626708984,58.439998626708984,1155700
2020-02-14,54.5,56.2400016784668,53.38999938964844,55.540000915527344,55.540000915527344,2616900
2020-02-18,55.599998474121094,56.900001525878906,53.7599983215332,54.869998931884766,54.869998931884766,686300
2020-02-19,55.189998626708984,55.97999954223633,54.599998474121094,55.119998931884766,55.119998931884766,364500
2020-02-20,55.45000076293945,56.25,55.02000045776367,55.810001373291016,55.810001373291016,421800
2020-02-21,55.84000015258789,56.459999084472656,54.880001068115234,55.099998474121094,55.099998474121094,503600
2020-02-24,53.81999969482422,54.58000183105469,52.481998443603516,53.83000183105469,53.83000183105469,362400
2020-02-25,54.060001373291016,55.43000030517578,53.779998779296875,53.849998474121094,53.849998474121094,483900
2020-02-26,54.29999923706055,55.189998626708984,53.65999984741211,54.43000030517578,54.43000030517578,432600
2020-02-27,53.0,54.150001525878906,49.84000015258789,51.18000030517578,51.18000030517578,574900
2020-02-28,50.0,53.41999816894531,49.75,53.2400016784668,53.2400016784668,608600
2020-03-02,53.93000030517578,57.209999084472656,53.040000915527344,57.02000045776367,57.02000045776367,757200
2020-03-03,56.5,57.58000183105469,54.83000183105469,56.040000915527344,56.040000915527344,719000
2020-03-04,57.0,58.2599983215332,55.689998626708984,57.650001525878906,57.650001525878906,609700
2020-03-05,56.380001068115234,57.560001373291016,54.79999923706055,55.0,55.0,514300
2020-03-06,53.130001068115234,54.67499923706055,51.0,52.43000030517578,52.43000030517578,650200
2020-03-09,49.470001220703125,51.36000061035156,47.005001068115234,47.189998626708984,47.189998626708984,889100
2020-03-10,47.0,50.0,45.02399826049805,49.9900016784668,49.9900016784668,939600
2020-03-11,48.34000015258789,49.130001068115234,42.93000030517578,44.41999816894531,44.41999816894531,738500
2020-03-12,40.97999954223633,42.060001373291016,38.779998779296875,39.41999816894531,39.41999816894531,1029000
2020-03-13,41.79999923706055,44.040000915527344,36.33000183105469,41.540000915527344,41.540000915527344,1007800
2020-03-16,36.02000045776367,39.349998474121094,33.099998474121094,33.630001068115234,33.630001068115234,951800
2020-03-17,34.06999969482422,38.369998931884766,33.619998931884766,35.650001525878906,35.650001525878906,1209100
2020-03-18,33.310001373291016,38.470001220703125,33.310001373291016,36.880001068115234,36.880001068115234,1081200
2020-03-19,36.72999954223633,40.7400016784668,35.34000015258789,38.439998626708984,38.439998626708984,748300
2020-03-20,38.439998626708984,39.7400016784668,36.06999969482422,37.15999984741211,37.15999984741211,948500
2020-03-23,37.650001525878906,38.060001373291016,34.79999923706055,36.5099983215332,36.5099983215332,666400
2020-03-24,37.939998626708984,39.880001068115234,37.69300079345703,39.349998474121094,39.349998474121094,1344300
2020-03-25,39.380001068115234,42.33000183105469,38.11000061035156,41.34000015258789,41.34000015258789,745100
2020-03-26,41.25,45.27000045776367,41.25,44.349998474121094,44.349998474121094,522700
2020-03-27,42.599998474121094,43.779998779296875,41.81999969482422,41.849998474121094,41.849998474121094,370600
2020-03-30,42.939998626708984,43.16999816894531,40.77000045776367,41.900001525878906,41.900001525878906,431700
2020-03-31,41.459999084472656,42.005001068115234,40.09000015258789,41.16999816894531,41.16999816894531,564500
2020-04-01,40.0099983215332,40.76499938964844,36.7599983215332,37.349998474121094,37.349998474121094,595800
2020-04-02,36.790000915527344,40.119998931884766,36.13999938964844,37.779998779296875,37.779998779296875,370700
2020-04-03,37.34000015258789,40.939998626708984,36.20000076293945,37.04999923706055,37.04999923706055,296700
2020-04-06,38.75,42.540000915527344,38.279998779296875,42.2400016784668,42.2400016784668,459900
2020-04-07,42.95000076293945,46.415000915527344,42.915000915527344,43.52000045776367,43.52000045776367,681200
2020-04-08,44.439998626708984,45.2599983215332,43.15999984741211,44.540000915527344,44.540000915527344,712400
2020-04-09,45.119998931884766,46.75,42.369998931884766,43.31999969482422,43.31999969482422,382400
2020-04-13,43.29999923706055,45.36000061035156,43.29999923706055,44.65999984741211,44.65999984741211,341400
2020-04-14,45.88999938964844,46.84000015258789,44.189998626708984,46.25,46.25,489200
2020-04-15,45.209999084472656,46.040000915527344,42.52000045776367,43.619998931884766,43.619998931884766,477700
2020-04-16,44.13999938964844,44.779998779296875,41.0,43.400001525878906,43.400001525878906,457500
2020-04-17,44.720001220703125,47.2599983215332,44.18000030517578,47.130001068115234,47.130001068115234,649100
2020-04-20,45.52000045776367,50.380001068115234,45.52000045776367,49.36000061035156,49.36000061035156,483200
2020-04-21,48.77000045776367,49.88999938964844,45.96500015258789,46.38999938964844,46.38999938964844,419800
2020-04-22,47.06999969482422,47.915000915527344,45.310001373291016,46.83000183105469,46.83000183105469,262800
2020-04-23,47.27000045776367,48.119998931884766,44.84000015258789,45.470001220703125,45.470001220703125,456100
2020-04-24,45.97999954223633,48.45000076293945,44.90999984741211,48.02000045776367,48.02000045776367,392400
2020-04-27,48.83000183105469,49.959999084472656,48.11000061035156,48.400001525878906,48.400001525878906,231400
2020-04-28,58.0,58.994998931884766,54.47999954223633,56.20000076293945,56.20000076293945,1820000
2020-04-29,58.2400016784668,58.720001220703125,56.220001220703125,57.63999938964844,57.63999938964844,679900
2020-04-30,56.43000030517578,58.632999420166016,55.849998474121094,57.97999954223633,57.97999954223633,674600
2020-05-01,56.130001068115234,57.9900016784668,51.540000915527344,52.369998931884766,52.369998931884766,663900
2020-05-04,52.380001068115234,56.73500061035156,52.11199951171875,56.2599983215332,56.2599983215332,488200
2020-05-05,57.4900016784668,59.68000030517578,56.5099983215332,57.150001525878906,57.150001525878906,481700
2020-05-06,57.54999923706055,57.97999954223633,54.70399856567383,55.290000915527344,55.290000915527344,628700
2020-05-07,55.41999816894531,56.400001525878906,54.220001220703125,55.099998474121094,55.099998474121094,455100
2020-05-08,55.63999938964844,56.130001068115234,53.900001525878906,54.709999084472656,54.709999084472656,325800
2020-05-11,54.4900016784668,56.119998931884766,54.220001220703125,55.5,55.5,864100
2020-05-12,55.5,56.369998931884766,51.619998931884766,51.7400016784668,51.7400016784668,795600
2020-05-13,52.09000015258789,53.0,47.7400016784668,48.439998626708984,48.439998626708984,402400
2020-05-14,47.709999084472656,48.66999816894531,46.060001373291016,48.470001220703125,48.470001220703125,338300
2020-05-15,48.220001220703125,51.84000015258789,47.34000015258789,51.7400016784668,51.7400016784668,319400
2020-05-18,55.0,57.19200134277344,53.42499923706055,55.27000045776367,55.27000045776367,704300
2020-05-19,56.41999816894531,57.869998931884766,55.09000015258789,56.45000076293945,56.45000076293945,352400
2020-05-20,57.0,58.4900016784668,55.61000061035156,57.970001220703125,57.970001220703125,321900
2020-05-21,57.18000030517578,60.560001373291016,56.880001068115234,59.68000030517578,59.68000030517578,406400
2020-05-22,59.310001373291016,60.369998931884766,57.810001373291016,59.22999954223633,59.22999954223633,272300
2020-05-26,60.97999954223633,61.84000015258789,58.40999984741211,58.77000045776367,58.77000045776367,289500
2020-05-27,59.2599983215332,59.52000045776367,55.84000015258789,58.63999938964844,58.63999938964844,329900
2020-05-28,58.63999938964844,59.959999084472656,56.91999816894531,57.0,57.0,229300
2020-05-29,57.15999984741211,58.83000183105469,55.2599983215332,58.56999969482422,58.56999969482422,647100
2020-06-01,58.709999084472656,61.040000915527344,58.40999984741211,60.70000076293945,60.70000076293945,423300
2020-06-02,60.779998779296875,60.779998779296875,55.97600173950195,59.31999969482422,59.31999969482422,450200
2020-06-03,59.79999923706055,60.0,56.66999816894531,56.790000915527344,56.790000915527344,319200
2020-06-04,56.279998779296875,57.720001220703125,53.27000045776367,53.689998626708984,53.689998626708984,385600
2020-06-05,55.119998931884766,56.459999084472656,54.060001373291016,55.189998626708984,55.189998626708984,542100
2020-06-08,55.52000045776367,58.45000076293945,54.7599983215332,55.939998626708984,55.939998626708984,396300
2020-06-09,55.529998779296875,57.720001220703125,55.029998779296875,56.29999923706055,56.29999923706055,263700
2020-06-10,56.58000183105469,57.7599983215332,55.970001220703125,56.459999084472656,56.459999084472656,314800
2020-06-11,54.72999954223633,55.30500030517578,52.4900016784668,52.54999923706055,52.54999923706055,372100
2020-06-12,53.869998931884766,55.18000030517578,52.34000015258789,54.2400016784668,54.2400016784668,379800
2020-06-15,52.970001220703125,58.7599983215332,52.5099983215332,58.63999938964844,58.63999938964844,484600
2020-06-16,59.79999923706055,60.349998474121094,57.810001373291016,59.5,59.5,364400
2020-06-17,59.7599983215332,62.27000045776367,59.28499984741211,61.84000015258789,61.84000015258789,681100
2020-06-18,61.54999923706055,62.349998474121094,59.380001068115234,60.209999084472656,60.209999084472656,493100
2020-06-19,61.040000915527344,63.90999984741211,59.849998474121094,62.720001220703125,62.720001220703125,1226900
2020-06-22,62.52000045776367,65.58000183105469,61.90999984741211,65.02999877929688,65.02999877929688,708600
2020-06-23,65.0,66.12000274658203,63.290000915527344,64.22000122070312,64.22000122070312,721800
2020-06-24,64.19999694824219,65.00499725341797,62.0,63.63999938964844,63.63999938964844,494400
2020-06-25,63.15999984741211,64.43000030517578,60.349998474121094,62.16999816894531,62.16999816894531,692200
2020-06-26,61.720001220703125,62.189998626708984,56.5,57.13999938964844,57.13999938964844,2809500
2020-06-29,57.2599983215332,59.88999938964844,56.41999816894531,58.529998779296875,58.529998779296875,407000
2020-06-30,58.130001068115234,59.88999938964844,57.69499969482422,59.720001220703125,59.720001220703125,404000
2020-07-01,59.720001220703125,60.72999954223633,57.56999969482422,58.15999984741211,58.15999984741211,521300
2020-07-02,58.599998474121094,58.63999938964844,55.41999816894531,56.709999084472656,56.709999084472656,327300
2020-07-06,56.79999923706055,57.98500061035156,54.04999923706055,55.06999969482422,55.06999969482422,469900
2020-07-07,55.599998474121094,57.2400016784668,54.54999923706055,54.900001525878906,54.900001525878906,673900
2020-07-08,55.0,56.9900016784668,53.54999923706055,56.79999923706055,56.79999923706055,350800
2020-07-09,56.95000076293945,57.58000183105469,53.744998931884766,54.72999954223633,54.72999954223633,292000
2020-07-10,54.2599983215332,54.86000061035156,53.599998474121094,54.2400016784668,54.2400016784668,282100
2020-07-13,54.630001068115234,56.47999954223633,52.064998626708984,52.22999954223633,52.22999954223633,392400
2020-07-14,52.38999938964844,52.77000045776367,50.369998931884766,52.459999084472656,52.459999084472656,363100
2020-07-15,53.38999938964844,53.83000183105469,51.08000183105469,53.40999984741211,53.40999984741211,342100
2020-07-16,52.86000061035156,53.6349983215332,51.38999938964844,53.31999969482422,53.31999969482422,576200
2020-07-17,53.119998931884766,53.36000061035156,51.869998931884766,51.880001068115234,51.880001068115234,305900
2020-07-20,51.849998474121094,53.25,50.76499938964844,52.9900016784668,52.9900016784668,326700
2020-07-21,53.540000915527344,53.540000915527344,49.47999954223633,49.88999938964844,49.88999938964844,349800
2020-07-22,49.790000915527344,50.38999938964844,49.13999938964844,49.650001525878906,49.650001525878906,210500
2020-07-23,49.83000183105469,51.09000015258789,48.59000015258789,48.86000061035156,48.86000061035156,213300
2020-07-24,48.15999984741211,48.93000030517578,46.810001373291016,47.75,47.75,304100
2020-07-27,47.81999969482422,49.45000076293945,47.470001220703125,49.2400016784668,49.2400016784668,269600
2020-07-28,49.189998626708984,49.54999923706055,46.75,46.86000061035156,46.86000061035156,487900
2020-07-29,47.16999816894531,47.38999938964844,44.29999923706055,46.06999969482422,46.06999969482422,552500
2020-07-30,45.540000915527344,47.47999954223633,45.064998626708984,46.790000915527344,46.790000915527344,253200
2020-07-31,46.630001068115234,47.209999084472656,45.529998779296875,46.369998931884766,46.369998931884766,618900
2020-08-03,47.77000045776367,49.59000015258789,46.7400016784668,49.459999084472656,49.459999084472656,469300
2020-08-04,48.9900016784668,49.06999969482422,47.5099983215332,48.529998779296875,48.529998779296875,327800
2020-08-05,49.59000015258789,50.33000183105469,47.52000045776367,48.400001525878906,48.400001525878906,615800
2020-08-06,48.29999923706055,49.20000076293945,45.65999984741211,47.900001525878906,47.900001525878906,344400
2020-08-07,47.790000915527344,49.2599983215332,47.540000915527344,48.90999984741211,48.90999984741211,366300
2020-08-10,48.88999938964844,49.11000061035156,47.189998626708984,47.880001068115234,47.880001068115234,213100
2020-08-11,48.099998474121094,48.7400016784668,46.439998626708984,46.81999969482422,46.81999969482422,249200
2020-08-12,47.22999954223633,48.369998931884766,46.52000045776367,46.900001525878906,46.900001525878906,402700
2020-08-13,47.040000915527344,48.125,46.88999938964844,47.25,47.25,178700
2020-08-14,47.36000061035156,47.36000061035156,44.68000030517578,45.27000045776367,45.27000045776367,248600
2020-08-17,45.220001220703125,46.7400016784668,45.12699890136719,46.34000015258789,46.34000015258789,229600
2020-08-18,46.810001373291016,46.810001373291016,44.52000045776367,44.61000061035156,44.61000061035156,258200
2020-08-19,44.56999969482422,44.91999816894531,43.470001220703125,44.029998779296875,44.029998779296875,229000
2020-08-20,43.790000915527344,44.47999954223633,43.619998931884766,44.0099983215332,44.0099983215332,191900
2020-08-21,43.7400016784668,44.11000061035156,43.02000045776367,43.79999923706055,43.79999923706055,237600
2020-08-24,44.099998474121094,44.189998626708984,43.0,43.95000076293945,43.95000076293945,405500
2020-08-25,44.34000015258789,45.790000915527344,43.79999923706055,45.34000015258789,45.34000015258789,239600
2020-08-26,45.22999954223633,45.7400016784668,44.2599983215332,44.630001068115234,44.630001068115234,258000
2020-08-27,44.630001068115234,44.970001220703125,43.959999084472656,44.5099983215332,44.5099983215332,153800
2020-08-28,44.619998931884766,45.040000915527344,44.0099983215332,44.7400016784668,44.7400016784668,248900
2020-08-31,45.04999923706055,45.314998626708984,44.29999923706055,45.0099983215332,45.0099983215332,285200
2020-09-01,44.9900016784668,45.689998626708984,44.150001525878906,45.36000061035156,45.36000061035156,297500
2020-09-02,45.790000915527344,46.06999969482422,44.849998474121094,45.84000015258789,45.84000015258789,240500
2020-09-03,45.790000915527344,46.064998626708984,44.099998474121094,44.220001220703125,44.220001220703125,291700
2020-09-04,44.459999084472656,46.4900016784668,43.25,45.59000015258789,45.59000015258789,356700
2020-09-08,44.400001525878906,46.97999954223633,43.90999984741211,46.040000915527344,46.040000915527344,376500
2020-09-09,46.40999984741211,47.314998626708984,45.80500030517578,46.81999969482422,46.81999969482422,217400
2020-09-10,47.27000045776367,49.435001373291016,44.16999816894531,44.18000030517578,44.18000030517578,686900
2020-09-11,44.2400016784668,45.09000015258789,44.02000045776367,44.869998931884766,44.869998931884766,395200
2020-09-14,46.650001525878906,50.099998474121094,46.650001525878906,50.060001373291016,50.060001373291016,763400
2020-09-15,50.0,51.650001525878906,49.3849983215332,51.4900016784668,51.4900016784668,462100
2020-09-16,51.970001220703125,52.40999984741211,50.16999816894531,51.650001525878906,51.650001525878906,328000
2020-09-17,50.83000183105469,53.189998626708984,50.470001220703125,52.56999969482422,52.56999969482422,263000
2020-09-18,53.900001525878906,56.16999816894531,52.77000045776367,56.06999969482422,56.06999969482422,1327000
2020-09-21,54.880001068115234,54.88999938964844,52.02000045776367,52.349998474121094,52.349998474121094,402900
2020-09-22,52.45000076293945,52.45000076293945,49.52000045776367,52.0099983215332,52.0099983215332,310400
2020-09-23,52.06999969482422,53.04999923706055,50.88999938964844,50.970001220703125,50.970001220703125,298000
2020-09-24,50.54999923706055,50.54999923706055,47.220001220703125,48.040000915527344,48.040000915527344,321000
2020-09-25,47.75,49.78499984741211,47.25,49.65999984741211,49.65999984741211,325000
2020-09-28,49.970001220703125,50.81999969482422,48.77000045776367,49.90999984741211,49.90999984741211,251700
2020-09-29,50.0,50.0099983215332,48.650001525878906,49.54999923706055,49.54999923706055,445200
2020-09-30,49.959999084472656,51.36000061035156,49.2400016784668,51.29999923706055,51.29999923706055,412400
2020-10-01,51.9900016784668,52.400001525878906,50.56999969482422,52.349998474121094,52.349998474121094,743300
2020-10-02,51.150001525878906,52.68000030517578,50.85499954223633,51.77000045776367,51.77000045776367,328500
2020-10-05,52.540000915527344,55.779998779296875,51.83000183105469,55.54999923706055,55.54999923706055,489600
2020-10-06,55.540000915527344,57.869998931884766,54.41999816894531,56.20000076293945,56.20000076293945,427500
2020-10-07,56.77000045776367,58.0,55.755001068115234,57.41999816894531,57.41999816894531,411000
2020-10-08,58.0,58.0,55.0,55.16999816894531,55.16999816894531,274200
2020-10-09,55.72999954223633,56.0,53.099998474121094,53.459999084472656,53.459999084472656,295700
2020-10-12,53.59000015258789,56.38999938964844,53.31999969482422,55.88999938964844,55.88999938964844,290900
2020-10-13,55.7599983215332,58.130001068115234,54.60499954223633,57.560001373291016,57.560001373291016,584900
2020-10-14,57.86000061035156,58.0,55.32500076293945,56.040000915527344,56.040000915527344,198700
2020-10-15,55.150001525878906,56.334999084472656,53.150001525878906,56.150001525878906,56.150001525878906,253700
2020-10-16,56.209999084472656,59.95000076293945,54.76499938964844,58.90999984741211,58.90999984741211,357700
2020-10-19,59.189998626708984,60.59000015258789,58.220001220703125,58.86000061035156,58.86000061035156,413700
2020-10-20,59.38999938964844,59.81999969482422,58.49700164794922,59.349998474121094,59.349998474121094,285000
2020-10-21,59.43000030517578,62.255001068115234,58.290000915527344,60.20000076293945,60.20000076293945,239000
2020-10-22,60.31999969482422,64.18000030517578,60.31999969482422,63.4900016784668,63.4900016784668,280300
2020-10-23,64.04000091552734,64.93900299072266,62.630001068115234,64.05999755859375,64.05999755859375,243400
2020-10-26,62.91999816894531,63.380001068115234,61.52000045776367,62.72999954223633,62.72999954223633,347200
2020-10-27,62.83000183105469,62.83000183105469,60.939998626708984,61.0,61.0,317200
2020-10-28,59.959999084472656,60.0099983215332,58.0099983215332,58.11000061035156,58.11000061035156,225300
2020-10-29,57.779998779296875,59.38999938964844,56.099998474121094,58.970001220703125,58.970001220703125,248700
2020-10-30,58.7400016784668,58.86000061035156,56.849998474121094,58.06999969482422,58.06999969482422,192000
2020-11-02,58.790000915527344,58.84000015258789,56.529998779296875,57.91999816894531,57.91999816894531,197800
2020-11-03,58.9900016784668,61.209999084472656,57.26499938964844,60.65999984741211,60.65999984741211,256500
2020-11-04,60.66999816894531,65.9000015258789,60.66999816894531,64.51000213623047,64.51000213623047,430500
2020-11-05,64.80999755859375,65.44999694824219,62.150001525878906,64.94000244140625,64.94000244140625,252700
2020-11-06,61.400001525878906,65.83000183105469,60.04999923706055,60.38999938964844,60.38999938964844,545400
2020-11-09,64.05000305175781,65.69999694824219,61.880001068115234,64.87999725341797,64.87999725341797,406700
2020-11-10,65.83999633789062,65.83999633789062,62.58000183105469,63.849998474121094,63.849998474121094,382100
2020-11-11,64.62999725341797,65.17500305175781,61.459999084472656,65.1500015258789,65.1500015258789,229400
2020-11-12,64.0,66.15499877929688,62.599998474121094,65.22000122070312,65.22000122070312,464300
2020-11-13,63.70000076293945,66.06500244140625,63.70000076293945,65.08999633789062,65.08999633789062,303700
2020-11-16,66.3499984741211,68.4000015258789,65.01000213623047,66.18000030517578,66.18000030517578,408500
2020-11-17,65.98999786376953,66.63999938964844,63.68000030517578,65.97000122070312,65.97000122070312,273600
2020-11-18,66.63999938964844,66.63999938964844,65.0199966430664,65.12000274658203,65.12000274658203,288500
2020-11-19,65.58999633789062,66.02999877929688,63.72999954223633,63.9900016784668,63.9900016784668,473400
2020-11-20,63.189998626708984,63.19499969482422,60.79999923706055,62.119998931884766,62.119998931884766,330900
2020-11-23,62.84000015258789,64.32499694824219,61.5,61.66999816894531,61.66999816894531,334400
2020-11-24,62.0,62.7599983215332,60.88999938964844,61.75,61.75,393700
2020-11-25,61.75,62.35499954223633,61.27000045776367,61.79999923706055,61.79999923706055,270500
2020-11-27,62.0,62.439998626708984,61.369998931884766,62.349998474121094,62.349998474121094,169600
2020-11-30,62.720001220703125,62.970001220703125,60.61000061035156,61.79999923706055,61.79999923706055,275500
2020-12-01,62.0,62.939998626708984,59.709999084472656,60.040000915527344,60.040000915527344,349800
2020-12-02,59.91999816894531,59.91999816894531,56.75,56.849998474121094,56.849998474121094,298700
2020-12-03,57.91999816894531,58.47999954223633,56.86000061035156,57.68000030517578,57.68000030517578,510100
2020-12-04,58.0,58.02000045776367,56.880001068115234,57.310001373291016,57.310001373291016,364500
2020-12-07,56.0,57.0099983215332,54.939998626708984,55.86000061035156,55.86000061035156,360300
2020-12-08,55.75,57.97999954223633,54.58000183105469,57.91999816894531,57.91999816894531,512400
2020-12-09,58.4900016784668,58.869998931884766,54.619998931884766,56.279998779296875,56.279998779296875,401400
2020-12-10,56.04999923706055,56.939998626708984,55.16999816894531,55.90999984741211,55.90999984741211,338200
2020-12-11,55.709999084472656,56.18000030517578,54.5,55.25,55.25,302700
2020-12-14,56.560001373291016,58.91400146484375,55.2599983215332,56.97999954223633,56.97999954223633,646700
2020-12-15,57.529998779296875,57.529998779296875,54.959999084472656,56.400001525878906,56.400001525878906,319200
2020-12-16,56.869998931884766,56.869998931884766,55.36000061035156,55.7400016784668,55.7400016784668,324000
2020-12-17,55.900001525878906,57.650001525878906,55.27000045776367,55.779998779296875,55.779998779296875,282400
2020-12-18,56.2400016784668,56.654998779296875,54.0099983215332,54.86000061035156,54.86000061035156,948900
2020-12-21,54.02000045776367,56.70000076293945,53.619998931884766,56.70000076293945,56.70000076293945,441800
2020-12-22,56.86000061035156,61.91999816894531,56.689998626708984,61.08000183105469,61.08000183105469,397900
2020-12-23,61.52000045776367,61.59000015258789,59.06999969482422,59.09000015258789,59.09000015258789,245000
2020-12-24,59.15999984741211,60.209999084472656,58.689998626708984,58.880001068115234,58.880001068115234,91700
2020-12-28,59.400001525878906,59.709999084472656,57.52000045776367,57.58000183105469,57.58000183105469,273200
2020-12-29,57.779998779296875,58.59000015258789,55.13999938964844,55.439998626708984,55.439998626708984,212100
2020-12-30,55.45000076293945,58.630001068115234,55.45000076293945,58.189998626708984,58.189998626708984,220600
