Date,Open,High,Low,Close,Adj Close,Volume
2018-06-29,23.799999237060547,28.860000610351562,22.0,27.299999237060547,27.299999237060547,8123100
2018-07-02,25.43000030517578,25.940000534057617,23.1299991607666,23.75,23.75,1852200
2018-07-03,23.399999618530273,24.36199951171875,23.18000030517578,23.209999084472656,23.209999084472656,437600
2018-07-05,23.450000762939453,23.889999389648438,21.5,22.459999084472656,22.459999084472656,1292700
2018-07-06,22.479999542236328,22.479999542236328,21.809999465942383,21.889999389648438,21.889999389648438,425000
2018-07-09,22.100000381469727,22.280000686645508,20.5,20.940000534057617,20.940000534057617,1004300
2018-07-10,20.950000762939453,21.099000930786133,19.459999084472656,19.889999389648438,19.889999389648438,1127500
2018-07-11,19.950000762939453,19.950000762939453,18.639999389648438,19.049999237060547,19.049999237060547,638200
2018-07-12,19.329999923706055,20.440000534057617,18.350000381469727,19.84000015258789,19.84000015258789,1158000
2018-07-13,20.309999465942383,20.920000076293945,19.260000228881836,19.719999313354492,19.719999313354492,730600
2018-07-16,19.8700008392334,19.8700008392334,18.8799991607666,18.989999771118164,18.989999771118164,317800
2018-07-17,19.280000686645508,19.450000762939453,18.799999237060547,19.25,19.25,330700
2018-07-18,19.149999618530273,19.690000534057617,18.639999389648438,18.850000381469727,18.850000381469727,243800
2018-07-19,18.989999771118164,18.989999771118164,18.40999984741211,18.6299991607666,18.6299991607666,188300
2018-07-20,18.829999923706055,18.829999923706055,18.364999771118164,18.68000030517578,18.68000030517578,181000
2018-07-23,18.770000457763672,20.139999389648438,18.5,19.299999237060547,19.299999237060547,608600
2018-07-24,20.0,20.420000076293945,18.989999771118164,19.170000076293945,19.170000076293945,1088500
2018-07-25,19.389999389648438,19.799999237060547,18.934999465942383,19.68000030517578,19.68000030517578,442600
2018-07-26,19.649999618530273,19.780000686645508,18.049999237060547,18.260000228881836,18.260000228881836,475400
2018-07-27,18.719999313354492,18.749000549316406,16.5,16.6299991607666,16.6299991607666,403200
2018-07-30,16.600000381469727,17.0,15.791000366210938,16.059999465942383,16.059999465942383,942900
2018-07-31,16.0,17.290000915527344,15.800000190734863,16.610000610351562,16.610000610351562,968800
2018-08-01,16.56999969482422,17.01799964904785,16.229999542236328,16.520000457763672,16.520000457763672,472700
2018-08-02,16.329999923706055,17.5,16.204999923706055,16.6200008392334,16.6200008392334,676600
2018-08-03,16.59000015258789,17.200000762939453,16.40999984741211,17.030000686645508,17.030000686645508,288700
2018-08-06,16.969999313354492,17.5,16.850000381469727,17.360000610351562,17.360000610351562,163000
2018-08-07,17.260000228881836,18.229999542236328,17.260000228881836,17.739999771118164,17.739999771118164,364800
2018-08-08,17.770000457763672,18.09000015258789,17.450000762939453,17.93000030517578,17.93000030517578,141000
2018-08-09,17.8799991607666,18.290000915527344,17.30900001525879,17.700000762939453,17.700000762939453,405100
2018-08-10,17.530000686645508,17.979999542236328,17.5,17.920000076293945,17.920000076293945,149800
2018-08-13,18.049999237060547,18.639999389648438,17.459999084472656,18.510000228881836,18.510000228881836,162500
2018-08-14,18.510000228881836,18.649999618530273,17.670000076293945,18.459999084472656,18.459999084472656,251000
2018-08-15,18.31999969482422,18.520000457763672,17.211000442504883,17.8700008392334,17.8700008392334,430800
2018-08-16,18.0,18.709999084472656,17.722000122070312,18.290000915527344,18.290000915527344,231300
2018-08-17,18.200000762939453,18.415000915527344,17.549999237060547,18.0,18.0,204700
2018-08-20,17.940000534057617,18.1299991607666,17.309999465942383,17.8700008392334,17.8700008392334,503600
2018-08-21,17.81999969482422,18.799999237060547,17.649999618530273,18.65999984741211,18.65999984741211,217500
2018-08-22,18.770000457763672,20.200000762939453,18.700000762939453,19.940000534057617,19.940000534057617,406300
2018-08-23,20.049999237060547,20.719999313354492,19.53499984741211,19.670000076293945,19.670000076293945,243500
2018-08-24,19.790000915527344,20.360000610351562,19.530000686645508,20.0,20.0,150100
2018-08-27,20.170000076293945,21.39900016784668,20.038999557495117,20.530000686645508,20.530000686645508,459300
2018-08-28,20.75,21.229999542236328,20.340999603271484,20.969999313354492,20.969999313354492,834000
2018-08-29,21.1200008392334,23.399999618530273,20.972000122070312,22.59000015258789,22.59000015258789,698000
2018-08-30,23.15999984741211,23.479999542236328,21.3799991607666,23.360000610351562,23.360000610351562,889600
2018-08-31,23.34000015258789,23.56999969482422,22.799999237060547,23.510000228881836,23.510000228881836,249800
2018-09-04,23.549999237060547,23.6200008392334,21.829999923706055,22.079999923706055,22.079999923706055,619100
2018-09-05,22.059999465942383,22.299999237060547,20.614999771118164,20.90999984741211,20.90999984741211,533800
2018-09-06,20.899999618530273,21.860000610351562,20.709999084472656,21.719999313354492,21.719999313354492,575600
2018-09-07,23.200000762939453,27.100000381469727,19.059999465942383,19.260000228881836,19.260000228881836,5915400
2018-09-10,19.290000915527344,20.850000381469727,19.0,20.469999313354492,20.469999313354492,1675300
2018-09-11,20.59000015258789,21.780000686645508,20.304000854492188,21.219999313354492,21.219999313354492,776900
2018-09-12,21.1299991607666,21.586999893188477,20.09000015258789,20.100000381469727,20.100000381469727,782700
2018-09-13,20.290000915527344,21.700000762939453,20.049999237060547,21.549999237060547,21.549999237060547,430400
2018-09-14,21.5,23.209999084472656,21.5,21.979999542236328,21.979999542236328,566400
2018-09-17,21.920000076293945,22.309999465942383,20.5,21.190000534057617,21.190000534057617,816500
2018-09-18,21.1200008392334,21.889999389648438,21.06999969482422,21.43000030517578,21.43000030517578,436400
2018-09-19,21.3700008392334,21.68000030517578,20.6200008392334,20.719999313354492,20.719999313354492,834600
2018-09-20,20.75,22.049999237060547,20.75,21.520000457763672,21.520000457763672,412000
2018-09-21,21.299999237060547,21.469999313354492,20.170000076293945,20.520000457763672,20.520000457763672,1779300
2018-09-24,20.5,20.73900032043457,20.09000015258789,20.3700008392334,20.3700008392334,705800
2018-09-25,20.469999313354492,21.270000457763672,19.84000015258789,20.579999923706055,20.579999923706055,1077800
2018-09-26,20.549999237060547,21.979999542236328,20.399999618530273,21.709999084472656,21.709999084472656,592800
2018-09-27,21.780000686645508,22.75,20.8799991607666,21.1200008392334,21.1200008392334,716900
2018-09-28,21.09000015258789,21.709999084472656,20.559999465942383,21.450000762939453,21.450000762939453,465600
2018-10-01,21.610000610351562,22.0,20.834999084472656,21.110000610351562,21.110000610351562,610300
2018-10-02,20.93000030517578,21.420000076293945,20.761999130249023,21.170000076293945,21.170000076293945,163700
2018-10-03,21.360000610351562,21.450000762939453,20.520000457763672,20.719999313354492,20.719999313354492,284300
2018-10-04,20.639999389648438,20.834999084472656,19.5,20.030000686645508,20.030000686645508,534700
2018-10-05,20.1200008392334,20.1200008392334,18.899999618530273,19.079999923706055,19.079999923706055,666300
2018-10-08,18.90999984741211,19.25,17.40999984741211,18.280000686645508,18.280000686645508,585200
2018-10-09,18.1299991607666,18.399999618530273,17.149999618530273,17.350000381469727,17.350000381469727,413600
2018-10-10,17.31999969482422,17.31999969482422,16.059999465942383,16.84000015258789,16.84000015258789,589900
2018-10-11,16.65999984741211,18.719999313354492,16.1299991607666,17.790000915527344,17.790000915527344,890200
2018-10-12,18.1299991607666,19.040000915527344,17.780000686645508,18.8799991607666,18.8799991607666,514200
2018-10-15,18.719999313354492,18.940000534057617,18.09000015258789,18.270000457763672,18.270000457763672,227800
2018-10-16,18.469999313354492,19.389999389648438,18.190000534057617,19.329999923706055,19.329999923706055,279100
2018-10-17,19.329999923706055,19.329999923706055,18.5,18.770000457763672,18.770000457763672,151900
2018-10-18,18.559999465942383,18.90999984741211,17.68000030517578,18.260000228881836,18.260000228881836,256600
2018-10-19,18.450000762939453,18.760000228881836,17.600000381469727,17.81999969482422,17.81999969482422,620900
2018-10-22,17.920000076293945,18.3700008392334,16.940000534057617,17.360000610351562,17.360000610351562,362400
2018-10-23,16.959999084472656,17.308000564575195,16.500999450683594,17.1299991607666,17.1299991607666,291400
2018-10-24,17.1299991607666,17.520000457763672,16.829999923706055,17.020000457763672,17.020000457763672,188700
2018-10-25,17.229999542236328,18.0,16.8799991607666,17.299999237060547,17.299999237060547,290100
2018-10-26,16.950000762939453,17.3700008392334,16.410999298095703,16.829999923706055,16.829999923706055,392300
2018-10-29,17.44499969482422,17.44499969482422,16.200000762939453,16.459999084472656,16.459999084472656,320800
2018-10-30,16.360000610351562,16.68000030517578,15.430000305175781,15.9399995803833,15.9399995803833,344100
2018-10-31,16.239999771118164,17.040000915527344,16.040000915527344,16.229999542236328,16.229999542236328,488800
2018-11-01,16.31999969482422,16.850000381469727,16.229999542236328,16.68000030517578,16.68000030517578,406900
2018-11-02,16.670000076293945,16.899999618530273,16.329999923706055,16.530000686645508,16.530000686645508,201800
2018-11-05,16.530000686645508,16.530000686645508,15.800000190734863,16.25,16.25,164300
2018-11-06,16.270000457763672,16.634000778198242,15.835000038146973,16.200000762939453,16.200000762939453,176900
2018-11-07,16.43000030517578,16.979999542236328,16.309999465942383,16.84000015258789,16.84000015258789,219000
2018-11-08,16.979999542236328,18.059999465942383,16.979999542236328,17.84000015258789,17.84000015258789,299900
2018-11-09,17.68000030517578,17.700000762939453,16.440000534057617,17.299999237060547,17.299999237060547,204300
2018-11-12,17.239999771118164,17.399999618530273,15.9399995803833,16.170000076293945,16.170000076293945,255500
2018-11-13,16.280000686645508,16.450000762939453,15.470000267028809,16.06999969482422,16.06999969482422,243500
2018-11-14,16.309999465942383,16.381999969482422,15.15999984741211,15.5,15.5,305700
2018-11-15,15.5,16.459999084472656,15.479999542236328,15.979999542236328,15.979999542236328,216100
2018-11-16,15.8100004196167,16.739999771118164,15.600000381469727,16.3700008392334,16.3700008392334,164600
2018-11-19,16.34000015258789,16.360000610351562,14.4399995803833,14.670000076293945,14.670000076293945,812500
2018-11-20,14.300000190734863,14.529999732971191,13.279999732971191,14.170000076293945,14.170000076293945,708700
2018-11-21,14.300000190734863,15.619999885559082,14.149999618530273,15.0600004196167,15.0600004196167,300600
2018-11-23,14.970000267028809,15.34000015258789,14.640000343322754,15.119999885559082,15.119999885559082,83400
2018-11-26,15.369999885559082,15.90999984741211,15.020000457763672,15.829999923706055,15.829999923706055,308700
2018-11-27,15.630000114440918,15.630000114440918,14.859999656677246,14.90999984741211,14.90999984741211,219600
2018-11-28,15.15999984741211,15.892999649047852,14.920000076293945,15.8100004196167,15.8100004196167,190300
2018-11-29,15.859999656677246,16.31999969482422,15.229999542236328,16.170000076293945,16.170000076293945,207000
2018-11-30,16.200000762939453,16.200000762939453,15.512999534606934,15.960000038146973,15.960000038146973,138900
2018-12-03,16.399999618530273,16.530000686645508,15.800000190734863,16.149999618530273,16.149999618530273,183900
2018-12-04,16.020000457763672,16.829999923706055,15.630000114440918,15.8100004196167,15.8100004196167,249000
2018-12-06,15.289999961853027,16.600000381469727,15.239999771118164,15.630000114440918,15.630000114440918,402000
2018-12-07,17.950000762939453,20.489999771118164,17.25,20.399999618530273,20.399999618530273,2625200
2018-12-10,20.549999237060547,21.899999618530273,20.549999237060547,21.229999542236328,21.229999542236328,1261600
2018-12-11,21.850000381469727,22.450000762939453,20.549999237060547,21.170000076293945,21.170000076293945,610800
2018-12-12,21.34000015258789,21.849000930786133,20.799999237060547,21.190000534057617,21.190000534057617,370700
2018-12-13,21.530000686645508,23.100000381469727,21.233999252319336,22.3799991607666,22.3799991607666,449300
2018-12-14,21.899999618530273,22.8700008392334,21.655000686645508,21.969999313354492,21.969999313354492,444300
2018-12-17,22.010000228881836,22.15999984741211,19.799999237060547,20.020000457763672,20.020000457763672,391800
2018-12-18,20.020000457763672,20.437000274658203,19.270000457763672,19.8700008392334,19.8700008392334,218500
2018-12-19,19.889999389648438,20.360000610351562,18.579999923706055,18.989999771118164,18.989999771118164,372900
2018-12-20,18.989999771118164,19.469999313354492,17.299999237060547,18.290000915527344,18.290000915527344,389900
2018-12-21,18.200000762939453,18.77899932861328,16.440000534057617,16.56999969482422,16.56999969482422,532500
2018-12-24,16.489999771118164,17.219999313354492,16.309999465942383,16.989999771118164,16.989999771118164,208000
2018-12-26,17.290000915527344,17.459999084472656,16.420000076293945,17.239999771118164,17.239999771118164,622400
2018-12-27,17.100000381469727,17.55500030517578,16.360000610351562,17.3700008392334,17.3700008392334,890900
2018-12-28,17.270000457763672,18.31999969482422,16.790000915527344,17.90999984741211,17.90999984741211,1068300
2018-12-31,18.149999618530273,20.200000762939453,17.90999984741211,19.6299991607666,19.6299991607666,587000
2019-01-02,19.239999771118164,19.43000030517578,17.850000381469727,18.290000915527344,18.290000915527344,836000
2019-01-03,18.06999969482422,18.222999572753906,17.100000381469727,17.690000534057617,17.690000534057617,397300
2019-01-04,18.059999465942383,18.988000869750977,17.81999969482422,18.459999084472656,18.459999084472656,570000
2019-01-07,18.579999923706055,20.479999542236328,18.434999465942383,20.270000457763672,20.270000457763672,452100
2019-01-08,20.559999465942383,21.325000762939453,20.1299991607666,21.139999389648438,21.139999389648438,441400
2019-01-09,21.15999984741211,22.020000457763672,20.459999084472656,21.459999084472656,21.459999084472656,816000
2019-01-10,21.18000030517578,21.799999237060547,20.329999923706055,21.690000534057617,21.690000534057617,369200
2019-01-11,21.540000915527344,22.829999923706055,21.11400032043457,22.719999313354492,22.719999313354492,285200
2019-01-14,22.940000534057617,23.670000076293945,22.20599937438965,22.93000030517578,22.93000030517578,335900
2019-01-15,22.920000076293945,23.170000076293945,22.53499984741211,22.850000381469727,22.850000381469727,288100
2019-01-16,22.850000381469727,23.493000030517578,22.59000015258789,23.270000457763672,23.270000457763672,470300
2019-01-17,23.139999389648438,24.790000915527344,22.899999618530273,24.469999313354492,24.469999313354492,276900
2019-01-18,24.469999313354492,27.049999237060547,24.299999237060547,26.59000015258789,26.59000015258789,743000
2019-01-22,26.59000015258789,27.530000686645508,26.135000228881836,26.489999771118164,26.489999771118164,710600
2019-01-23,26.450000762939453,26.940000534057617,24.93000030517578,25.399999618530273,25.399999618530273,472900
2019-01-24,25.399999618530273,25.764999389648438,24.950000762939453,25.690000534057617,25.690000534057617,173600
2019-01-25,25.920000076293945,26.559999465942383,25.450000762939453,26.329999923706055,26.329999923706055,581300
2019-01-28,26.010000228881836,26.399999618530273,25.3700008392334,26.049999237060547,26.049999237060547,194200
2019-01-29,25.920000076293945,25.950000762939453,24.780000686645508,25.170000076293945,25.170000076293945,212000
2019-01-30,25.420000076293945,26.149999618530273,25.010000228881836,26.049999237060547,26.049999237060547,210400
2019-01-31,25.969999313354492,27.850000381469727,25.91900062561035,27.0,27.0,413700
2019-02-01,27.059999465942383,27.40999984741211,26.360000610351562,26.860000610351562,26.860000610351562,229900
2019-02-04,26.8799991607666,27.634000778198242,26.239999771118164,26.8799991607666,26.8799991607666,279100
2019-02-05,26.8799991607666,28.75,26.600000381469727,27.459999084472656,27.459999084472656,499200
2019-02-06,27.350000381469727,27.81999969482422,25.40999984741211,26.93000030517578,26.93000030517578,317500
2019-02-07,26.6200008392334,28.450000762939453,26.489999771118164,27.81999969482422,27.81999969482422,310800
2019-02-08,27.6200008392334,30.079999923706055,27.165000915527344,29.610000610351562,29.610000610351562,356400
2019-02-11,29.799999237060547,30.600000381469727,28.5,29.56999969482422,29.56999969482422,398000
2019-02-12,29.6200008392334,30.20800018310547,29.079999923706055,30.010000228881836,30.010000228881836,278900
2019-02-13,30.239999771118164,30.239999771118164,28.889999389648438,29.209999084472656,29.209999084472656,311400
2019-02-14,29.25,32.22999954223633,29.209999084472656,31.190000534057617,31.190000534057617,608500
2019-02-15,31.309999465942383,31.475000381469727,30.110000610351562,31.290000915527344,31.290000915527344,442700
2019-02-19,31.84000015258789,33.31999969482422,31.649999618530273,32.77000045776367,32.77000045776367,429500
2019-02-20,32.869998931884766,33.67900085449219,32.75,33.59000015258789,33.59000015258789,415700
2019-02-21,33.540000915527344,33.59000015258789,31.799999237060547,32.189998626708984,32.189998626708984,506000
2019-02-22,32.52000045776367,33.9900016784668,31.979999542236328,32.959999084472656,32.959999084472656,613800
2019-02-25,33.130001068115234,35.93000030517578,33.130001068115234,35.439998626708984,35.439998626708984,716400
2019-02-26,35.45000076293945,36.06999969482422,34.5099983215332,34.72999954223633,34.72999954223633,565400
2019-02-27,34.47999954223633,35.04999923706055,34.08000183105469,34.18000030517578,34.18000030517578,665100
2019-02-28,34.189998626708984,34.939998626708984,34.06999969482422,34.689998626708984,34.689998626708984,1506000
2019-03-01,34.790000915527344,36.02000045776367,34.150001525878906,35.41999816894531,35.41999816894531,492000
2019-03-04,36.0,36.869998931884766,34.39500045776367,35.34000015258789,35.34000015258789,801400
2019-03-05,34.40999984741211,34.599998474121094,31.395000457763672,32.25,32.25,827900
2019-03-06,32.27000045776367,33.2599983215332,30.09000015258789,31.190000534057617,31.190000534057617,821800
2019-03-07,31.540000915527344,33.150001525878906,30.850000381469727,32.27000045776367,32.27000045776367,453200
2019-03-08,31.100000381469727,31.219999313354492,29.65999984741211,31.049999237060547,31.049999237060547,673300
2019-03-11,31.139999389648438,32.2400016784668,30.25,30.559999465942383,30.559999465942383,624900
2019-03-12,30.799999237060547,31.25,29.530000686645508,30.469999313354492,30.469999313354492,618600
2019-03-13,30.84000015258789,31.440000534057617,30.739999771118164,31.200000762939453,31.200000762939453,1054800
2019-03-14,37.790000915527344,39.130001068115234,34.599998474121094,37.790000915527344,37.790000915527344,4342800
2019-03-15,37.970001220703125,41.847999572753906,37.189998626708984,41.709999084472656,41.709999084472656,4153900
2019-03-18,41.38999938964844,43.40999984741211,40.63999938964844,43.189998626708984,43.189998626708984,1345400
2019-03-19,43.7400016784668,44.94599914550781,42.619998931884766,44.0099983215332,44.0099983215332,1437200
2019-03-20,43.650001525878906,43.974998474121094,42.810001373291016,43.43000030517578,43.43000030517578,3052100
2019-03-21,42.849998474121094,44.55500030517578,42.849998474121094,43.560001373291016,43.560001373291016,1834200
2019-03-22,43.0,44.2400016784668,42.875,43.41999816894531,43.41999816894531,524600
2019-03-25,43.119998931884766,44.31999969482422,41.8650016784668,43.58000183105469,43.58000183105469,724000
2019-03-26,43.880001068115234,47.08000183105469,42.560001373291016,43.18000030517578,43.18000030517578,1486900
2019-03-27,43.099998474121094,43.90299987792969,37.0099983215332,40.630001068115234,40.630001068115234,2454300
2019-03-28,40.619998931884766,41.619998931884766,38.97999954223633,39.54999923706055,39.54999923706055,972100
2019-03-29,40.04999923706055,40.790000915527344,39.5099983215332,40.33000183105469,40.33000183105469,583800
2019-04-01,40.599998474121094,41.61000061035156,39.625,40.97999954223633,40.97999954223633,795800
2019-04-02,40.869998931884766,41.060001373291016,39.650001525878906,40.7599983215332,40.7599983215332,1635100
2019-04-03,40.810001373291016,41.29199981689453,39.459999084472656,39.54999923706055,39.54999923706055,625000
2019-04-04,39.63999938964844,39.77000045776367,36.70000076293945,37.5,37.5,840600
2019-04-05,37.619998931884766,38.321998596191406,37.0099983215332,37.86000061035156,37.86000061035156,603000
2019-04-08,37.849998474121094,38.790000915527344,37.11000061035156,38.029998779296875,38.029998779296875,582500
2019-04-09,37.93000030517578,39.25,37.60499954223633,37.970001220703125,37.970001220703125,2269800
2019-04-10,37.97999954223633,38.849998474121094,37.29600143432617,37.369998931884766,37.369998931884766,491300
2019-04-11,37.790000915527344,40.150001525878906,37.290000915527344,39.70000076293945,39.70000076293945,1134900
2019-04-12,39.83000183105469,40.150001525878906,38.189998626708984,38.310001373291016,38.310001373291016,541300
2019-04-15,38.220001220703125,38.849998474121094,37.04999923706055,37.56999969482422,37.56999969482422,2038000
2019-04-16,37.599998474121094,38.84000015258789,37.220001220703125,37.630001068115234,37.630001068115234,784800
2019-04-17,37.900001525878906,38.18000030517578,35.54999923706055,36.09000015258789,36.09000015258789,887200
2019-04-18,36.0099983215332,36.43199920654297,34.41999816894531,34.4900016784668,34.4900016784668,945400
2019-04-22,34.5,36.459999084472656,34.099998474121094,35.83000183105469,35.83000183105469,551700
2019-04-23,36.0,37.47999954223633,36.0,36.95000076293945,36.95000076293945,1038300
2019-04-24,37.290000915527344,38.959999084472656,36.43000030517578,37.2400016784668,37.2400016784668,2348900
2019-04-25,37.560001373291016,38.900001525878906,37.310001373291016,37.779998779296875,37.779998779296875,822200
2019-04-26,37.869998931884766,39.40999984741211,37.36000061035156,38.560001373291016,38.560001373291016,550300
2019-04-29,38.54999923706055,39.66999816894531,38.02000045776367,38.13999938964844,38.13999938964844,638000
2019-04-30,38.25,39.470001220703125,38.013999938964844,38.310001373291016,38.310001373291016,703700
2019-05-01,38.45000076293945,38.9900016784668,36.45000076293945,36.959999084472656,36.959999084472656,584400
2019-05-02,36.93000030517578,37.619998931884766,35.91999816894531,36.459999084472656,36.459999084472656,638900
2019-05-03,36.459999084472656,37.04999923706055,35.5,36.7599983215332,36.7599983215332,661400
2019-05-06,35.90999984741211,39.2599983215332,35.500999450683594,38.7400016784668,38.7400016784668,717400
2019-05-07,38.380001068115234,38.7400016784668,35.11000061035156,35.959999084472656,35.959999084472656,516100
2019-05-08,35.93000030517578,37.290000915527344,35.779998779296875,36.790000915527344,36.790000915527344,238300
2019-05-09,36.27000045776367,36.790000915527344,34.5,36.38999938964844,36.38999938964844,330600
2019-05-10,36.06999969482422,37.25,34.79999923706055,36.720001220703125,36.720001220703125,362400
2019-05-13,35.68000030517578,36.189998626708984,33.66999816894531,34.06999969482422,34.06999969482422,588200
2019-05-14,34.18000030517578,36.150001525878906,34.18000030517578,35.7599983215332,35.7599983215332,363100
2019-05-15,35.400001525878906,37.040000915527344,35.17499923706055,36.599998474121094,36.599998474121094,269400
2019-05-16,36.689998626708984,37.84000015258789,36.689998626708984,37.689998626708984,37.689998626708984,525600
2019-05-17,37.04999923706055,38.35599899291992,36.36000061035156,38.029998779296875,38.029998779296875,423200
2019-05-20,37.349998474121094,37.459999084472656,35.95000076293945,36.16999816894531,36.16999816894531,336100
2019-05-21,36.849998474121094,36.999000549316406,36.189998626708984,36.91999816894531,36.91999816894531,259000
2019-05-22,36.720001220703125,37.220001220703125,36.5,36.790000915527344,36.790000915527344,237600
2019-05-23,36.45000076293945,36.45000076293945,34.31999969482422,34.91999816894531,34.91999816894531,474900
2019-05-24,35.08000183105469,35.66999816894531,34.59000015258789,34.959999084472656,34.959999084472656,257300
2019-05-28,35.02000045776367,35.974998474121094,34.91999816894531,35.34000015258789,35.34000015258789,370700
2019-05-29,35.029998779296875,35.290000915527344,34.060001373291016,34.099998474121094,34.099998474121094,475600
2019-05-30,34.18000030517578,34.43000030517578,33.25,33.79999923706055,33.79999923706055,532000
2019-05-31,33.189998626708984,34.56999969482422,32.650001525878906,33.5,33.5,562300
2019-06-03,33.41999816894531,33.832000732421875,30.459999084472656,30.790000915527344,30.790000915527344,884300
2019-06-04,31.469999313354492,32.29999923706055,31.010000228881836,31.920000076293945,31.920000076293945,591100
2019-06-05,32.310001373291016,32.68000030517578,30.729999542236328,31.889999389648438,31.889999389648438,522900
2019-06-06,31.5,31.989999771118164,30.809999465942383,31.760000228881836,31.760000228881836,1257700
2019-06-07,27.440000534057617,30.0,25.1200008392334,29.81999969482422,29.81999969482422,5235700
2019-06-10,32.15999984741211,35.099998474121094,31.780000686645508,32.02000045776367,32.02000045776367,1961500
2019-06-11,31.3799991607666,32.81999969482422,28.90999984741211,29.309999465942383,29.309999465942383,907900
2019-06-12,29.270000457763672,29.950000762939453,28.899999618530273,29.559999465942383,29.559999465942383,536800
2019-06-13,28.520000457763672,29.6200008392334,27.770000457763672,29.3799991607666,29.3799991607666,765800
2019-06-14,29.149999618530273,29.170000076293945,28.299999237060547,28.709999084472656,28.709999084472656,322300
2019-06-17,29.040000915527344,30.81399917602539,29.030000686645508,30.6200008392334,30.6200008392334,1064200
2019-06-18,31.040000915527344,32.2599983215332,30.3799991607666,30.389999389648438,30.389999389648438,814400
2019-06-19,30.389999389648438,31.1299991607666,29.979999542236328,30.739999771118164,30.739999771118164,615600
2019-06-20,31.440000534057617,31.790000915527344,30.290000915527344,30.350000381469727,30.350000381469727,521100
2019-06-21,30.110000610351562,31.3799991607666,29.809999465942383,30.780000686645508,30.780000686645508,2394700
2019-06-24,30.649999618530273,30.649999618530273,28.610000610351562,28.670000076293945,28.670000076293945,986000
2019-06-25,28.899999618530273,29.65999984741211,28.420000076293945,28.440000534057617,28.440000534057617,522800
2019-06-26,28.530000686645508,28.829999923706055,27.93000030517578,28.469999313354492,28.469999313354492,472300
2019-06-27,28.450000762939453,28.80500030517578,27.90999984741211,27.950000762939453,27.950000762939453,433400
2019-06-28,28.15999984741211,28.219999313354492,27.0,27.31999969482422,27.31999969482422,1031200
2019-07-01,27.540000915527344,29.1299991607666,27.464000701904297,27.739999771118164,27.739999771118164,846000
2019-07-02,27.530000686645508,28.31999969482422,27.09000015258789,28.06999969482422,28.06999969482422,511600
2019-07-03,28.329999923706055,29.415000915527344,28.09000015258789,28.309999465942383,28.309999465942383,325700
2019-07-05,28.030000686645508,28.399999618530273,27.510000228881836,28.3700008392334,28.3700008392334,319200
2019-07-08,28.110000610351562,29.270000457763672,27.784000396728516,28.540000915527344,28.540000915527344,396600
2019-07-09,28.459999084472656,30.19099998474121,28.386999130249023,29.290000915527344,29.290000915527344,861800
2019-07-10,29.530000686645508,31.10300064086914,29.41699981689453,30.68000030517578,30.68000030517578,798500
2019-07-11,30.68000030517578,31.350000381469727,30.204999923706055,30.5,30.5,391900
2019-07-12,30.649999618530273,31.024999618530273,30.020000457763672,30.950000762939453,30.950000762939453,243800
2019-07-15,30.950000762939453,31.139999389648438,28.739999771118164,28.8799991607666,28.8799991607666,600100
2019-07-16,28.950000762939453,29.030000686645508,27.459999084472656,27.649999618530273,27.649999618530273,371000
2019-07-17,27.739999771118164,28.277000427246094,27.450000762939453,27.510000228881836,27.510000228881836,334000
2019-07-18,27.420000076293945,27.709999084472656,26.31999969482422,27.059999465942383,27.059999465942383,770900
2019-07-19,27.1200008392334,28.889999389648438,26.90999984741211,27.170000076293945,27.170000076293945,539000
2019-07-22,27.200000762939453,28.299999237060547,27.0,28.06999969482422,28.06999969482422,618700
2019-07-23,28.1299991607666,28.940000534057617,27.579999923706055,28.579999923706055,28.579999923706055,646000
2019-07-24,28.43000030517578,29.440000534057617,27.983999252319336,29.209999084472656,29.209999084472656,358500
2019-07-25,29.1299991607666,29.29400062561035,28.540000915527344,29.1200008392334,29.1200008392334,265600
2019-07-26,29.309999465942383,30.489999771118164,28.950000762939453,30.219999313354492,30.219999313354492,298500
2019-07-29,30.381999969482422,30.381999969482422,28.565000534057617,29.149999618530273,29.149999618530273,696900
2019-07-30,28.969999313354492,30.05500030517578,28.559999465942383,29.209999084472656,29.209999084472656,798300
2019-07-31,29.299999237060547,29.600000381469727,27.280000686645508,27.739999771118164,27.739999771118164,479700
2019-08-01,27.780000686645508,28.450000762939453,27.350000381469727,27.59000015258789,27.59000015258789,539700
2019-08-02,27.239999771118164,27.399999618530273,25.81999969482422,26.68000030517578,26.68000030517578,522300
2019-08-05,25.780000686645508,26.280000686645508,25.325000762939453,26.079999923706055,26.079999923706055,452300
2019-08-06,26.389999389648438,26.950000762939453,25.25,25.3700008392334,25.3700008392334,377200
2019-08-07,25.100000381469727,25.65999984741211,24.40999984741211,25.389999389648438,25.389999389648438,306900
2019-08-08,25.450000762939453,26.385000228881836,25.360000610351562,26.149999618530273,26.149999618530273,324700
2019-08-09,26.010000228881836,26.59000015258789,25.420000076293945,25.889999389648438,25.889999389648438,275800
2019-08-12,25.719999313354492,26.18000030517578,25.21500015258789,25.510000228881836,25.510000228881836,359600
2019-08-13,25.559999465942383,26.6200008392334,25.559999465942383,25.920000076293945,25.920000076293945,300900
2019-08-14,25.350000381469727,25.920000076293945,24.670000076293945,25.440000534057617,25.440000534057617,345400
2019-08-15,25.100000381469727,25.3700008392334,24.530000686645508,25.079999923706055,25.079999923706055,343900
2019-08-16,25.399999618530273,26.165000915527344,25.110000610351562,25.420000076293945,25.420000076293945,241600
2019-08-19,25.799999237060547,25.799999237060547,25.219999313354492,25.280000686645508,25.280000686645508,448500
2019-08-20,25.25,25.549999237060547,24.649999618530273,24.93000030517578,24.93000030517578,431200
2019-08-21,25.1200008392334,25.6200008392334,23.5,23.690000534057617,23.690000534057617,710300
2019-08-22,23.690000534057617,24.0,23.170000076293945,23.799999237060547,23.799999237060547,294800
2019-08-23,23.649999618530273,24.75,23.520000457763672,24.079999923706055,24.079999923706055,445500
2019-08-26,24.309999465942383,24.559999465942383,23.392000198364258,23.829999923706055,23.829999923706055,251500
2019-08-27,24.020000457763672,24.09000015258789,22.579999923706055,22.709999084472656,22.709999084472656,337800
2019-08-28,22.719999313354492,23.34000015258789,22.34000015258789,23.059999465942383,23.059999465942383,609000
2019-08-29,23.770000457763672,24.780000686645508,23.34000015258789,24.530000686645508,24.530000686645508,470900
2019-08-30,24.989999771118164,25.079999923706055,23.913999557495117,24.829999923706055,24.829999923706055,261200
2019-09-03,24.530000686645508,25.360000610351562,23.920000076293945,24.239999771118164,24.239999771118164,418800
2019-09-04,24.75,24.959999084472656,24.079999923706055,24.1299991607666,24.1299991607666,410600
2019-09-05,24.350000381469727,25.239999771118164,23.25,25.209999084472656,25.209999084472656,1401700
2019-09-06,16.850000381469727,17.799999237060547,15.680000305175781,15.770000457763672,15.770000457763672,12413800
2019-09-09,15.829999923706055,16.18000030517578,15.039999961853027,15.949999809265137,15.949999809265137,3271400
2019-09-10,15.720000267028809,17.270000457763672,15.289999961853027,17.1200008392334,17.1200008392334,2031900
2019-09-11,17.8799991607666,18.399999618530273,16.850000381469727,17.06999969482422,17.06999969482422,2239400
2019-09-12,17.110000610351562,17.25200080871582,16.559999465942383,17.040000915527344,17.040000915527344,1079100
2019-09-13,17.049999237060547,17.1200008392334,16.59000015258789,16.940000534057617,16.940000534057617,899500
2019-09-16,16.8700008392334,17.75,16.6200008392334,17.559999465942383,17.559999465942383,1219100
2019-09-17,17.6200008392334,18.100000381469727,17.020000457763672,17.770000457763672,17.770000457763672,706300
2019-09-18,17.700000762939453,18.0,17.309999465942383,17.860000610351562,17.860000610351562,906900
2019-09-19,17.809999465942383,18.950000762939453,17.729999542236328,18.040000915527344,18.040000915527344,975500
2019-09-20,18.1200008392334,18.44499969482422,17.270000457763672,17.799999237060547,17.799999237060547,1465900
2019-09-23,17.649999618530273,17.738000869750977,17.072999954223633,17.309999465942383,17.309999465942383,444400
2019-09-24,17.299999237060547,17.350000381469727,16.5,16.7450008392334,16.7450008392334,604800
2019-09-25,16.649999618530273,17.06999969482422,16.100000381469727,16.8799991607666,16.8799991607666,1023600
2019-09-26,16.739999771118164,16.829999923706055,16.200000762939453,16.475000381469727,16.475000381469727,471500
2019-09-27,16.389999389648438,16.510000228881836,15.649999618530273,15.869999885559082,15.869999885559082,522500
2019-09-30,15.84000015258789,16.229999542236328,15.420000076293945,15.979999542236328,15.979999542236328,996300
2019-10-01,16.09000015258789,16.219999313354492,15.199999809265137,15.300000190734863,15.300000190734863,722700
2019-10-02,15.119999885559082,15.529999732971191,14.800000190734863,15.489999771118164,15.489999771118164,612500
2019-10-03,15.510000228881836,16.360000610351562,15.100000381469727,16.110000610351562,16.110000610351562,646300
2019-10-04,16.229999542236328,16.489999771118164,15.899999618530273,16.43000030517578,16.43000030517578,301300
2019-10-07,16.530000686645508,16.770000457763672,16.0,16.40999984741211,16.40999984741211,473400
2019-10-08,16.209999084472656,16.344999313354492,15.40999984741211,15.529999732971191,15.529999732971191,595400
2019-10-09,15.8100004196167,16.239999771118164,15.319999694824219,15.350000381469727,15.350000381469727,401500
2019-10-10,15.380000114440918,15.930000305175781,15.25,15.779999732971191,15.779999732971191,496900
2019-10-11,15.920000076293945,16.450000762939453,15.8100004196167,16.309999465942383,16.309999465942383,344300
2019-10-14,16.239999771118164,16.56999969482422,15.890000343322754,16.329999923706055,16.329999923706055,262600
2019-10-15,16.260000228881836,16.566999435424805,16.18000030517578,16.309999465942383,16.309999465942383,319000
2019-10-16,16.239999771118164,16.299999237060547,15.600000381469727,16.229999542236328,16.229999542236328,381400
2019-10-17,16.239999771118164,16.56999969482422,16.020000457763672,16.09000015258789,16.09000015258789,282900
2019-10-18,16.059999465942383,16.149999618530273,15.079999923706055,15.614999771118164,15.614999771118164,1013400
2019-10-21,15.789999961853027,16.34000015258789,15.350000381469727,16.200000762939453,16.200000762939453,381100
2019-10-22,16.149999618530273,16.459999084472656,15.770000457763672,15.970000267028809,15.970000267028809,255600
2019-10-23,15.890000343322754,16.270000457763672,15.8100004196167,15.989999771118164,15.989999771118164,308300
2019-10-24,16.040000915527344,16.989999771118164,15.850000381469727,16.709999084472656,16.709999084472656,339300
2019-10-25,16.690000534057617,17.1299991607666,16.520000457763672,16.989999771118164,16.989999771118164,730500
2019-10-28,17.09000015258789,17.170000076293945,16.450000762939453,16.510000228881836,16.510000228881836,320800
2019-10-29,16.600000381469727,16.600000381469727,15.90999984741211,16.149999618530273,16.149999618530273,371200
2019-10-30,16.139999389648438,16.440000534057617,15.989999771118164,16.239999771118164,16.239999771118164,356100
2019-10-31,16.299999237060547,16.440000534057617,15.869999885559082,16.079999923706055,16.079999923706055,188300
2019-11-01,16.15999984741211,16.700000762939453,16.030000686645508,16.479999542236328,16.479999542236328,624300
2019-11-04,16.790000915527344,16.799999237060547,16.1200008392334,16.25,16.25,380400
2019-11-05,16.43000030517578,16.559999465942383,16.1299991607666,16.399999618530273,16.399999618530273,470000
2019-11-06,16.489999771118164,16.6299991607666,16.190000534057617,16.299999237060547,16.299999237060547,398600
2019-11-07,16.350000381469727,16.68000030517578,16.1299991607666,16.389999389648438,16.389999389648438,241900
2019-11-08,16.5,16.6299991607666,16.209999084472656,16.56999969482422,16.56999969482422,202500
2019-11-11,16.3799991607666,16.850000381469727,16.309999465942383,16.6200008392334,16.6200008392334,263500
2019-11-12,16.700000762939453,17.399999618530273,16.670000076293945,17.170000076293945,17.170000076293945,243000
2019-11-13,17.0,17.389999389648438,16.799999237060547,16.90999984741211,16.90999984741211,223300
2019-11-14,16.93000030517578,17.09000015258789,16.760000228881836,16.940000534057617,16.940000534057617,161700
2019-11-15,17.030000686645508,17.209999084472656,16.649999618530273,16.799999237060547,16.799999237060547,225200
2019-11-18,16.75,17.06999969482422,16.538000106811523,16.829999923706055,16.829999923706055,385900
2019-11-19,16.979999542236328,17.040000915527344,16.559999465942383,17.030000686645508,17.030000686645508,161600
2019-11-20,16.959999084472656,18.190000534057617,16.959999084472656,17.920000076293945,17.920000076293945,574500
2019-11-21,18.049999237060547,18.079999923706055,17.40999984741211,17.479999542236328,17.479999542236328,222300
2019-11-22,17.6200008392334,17.670000076293945,17.280000686645508,17.530000686645508,17.530000686645508,194800
2019-11-25,17.690000534057617,18.280000686645508,17.6200008392334,18.024999618530273,18.024999618530273,455100
2019-11-26,18.09000015258789,18.649999618530273,17.8799991607666,18.149999618530273,18.149999618530273,386700
2019-11-27,18.25,18.829999923706055,18.25,18.6200008392334,18.6200008392334,295600
2019-11-29,18.600000381469727,18.8700008392334,18.40999984741211,18.799999237060547,18.799999237060547,150800
2019-12-02,18.989999771118164,19.93000030517578,18.290000915527344,19.670000076293945,19.670000076293945,903900
2019-12-03,19.31999969482422,20.09000015258789,19.11400032043457,19.915000915527344,19.915000915527344,757200
2019-12-04,20.0,20.049999237060547,19.299999237060547,19.610000610351562,19.610000610351562,571900
2019-12-05,19.75,19.825000762939453,18.700000762939453,19.5,19.5,868700
2019-12-06,23.100000381469727,24.219999313354492,22.10099983215332,23.389999389648438,23.389999389648438,5027000
2019-12-09,23.530000686645508,24.290000915527344,23.170000076293945,23.3799991607666,23.3799991607666,1246800
2019-12-10,23.579999923706055,24.8700008392334,23.229999542236328,24.56999969482422,24.56999969482422,818700
2019-12-11,24.639999389648438,24.700000762939453,23.540000915527344,23.719999313354492,23.719999313354492,557600
2019-12-12,23.700000762939453,24.277000427246094,23.040000915527344,23.649999618530273,23.649999618530273,445500
2019-12-13,23.540000915527344,24.6200008392334,23.31999969482422,24.34000015258789,24.34000015258789,484500
2019-12-16,24.34000015258789,24.5,22.700000762939453,22.8799991607666,22.8799991607666,669700
2019-12-17,22.860000610351562,22.860000610351562,21.059999465942383,21.4950008392334,21.4950008392334,1072800
2019-12-18,21.450000762939453,22.135000228881836,21.18000030517578,22.03499984741211,22.03499984741211,1163200
2019-12-19,22.100000381469727,22.280000686645508,21.510000228881836,22.149999618530273,22.149999618530273,454800
2019-12-20,22.170000076293945,22.190000534057617,21.5,21.969999313354492,21.969999313354492,2339000
2019-12-23,21.969999313354492,23.059999465942383,21.829999923706055,23.049999237060547,23.049999237060547,1004900
2019-12-24,23.010000228881836,23.670000076293945,22.767000198364258,23.309999465942383,23.309999465942383,207900
2019-12-26,23.309999465942383,23.790000915527344,23.040000915527344,23.139999389648438,23.139999389648438,433700
2019-12-27,23.329999923706055,23.34000015258789,22.649999618530273,22.979999542236328,22.979999542236328,308100
2019-12-30,22.950000762939453,23.270000457763672,21.8799991607666,22.270000457763672,22.270000457763672,423900
2019-12-31,22.139999389648438,22.3700008392334,21.649999618530273,21.719999313354492,21.719999313354492,365100
2020-01-02,21.940000534057617,21.950000762939453,20.899999618530273,21.040000915527344,21.040000915527344,673200
2020-01-03,20.84000015258789,21.790000915527344,20.579999923706055,21.5,21.5,366200
2020-01-06,21.389999389648438,22.75,21.260000228881836,22.690000534057617,22.690000534057617,407100
2020-01-07,22.700000762939453,22.969999313354492,22.53700065612793,22.649999618530273,22.649999618530273,225400
2020-01-08,22.770000457763672,23.149999618530273,22.440000534057617,22.610000610351562,22.610000610351562,202200
2020-01-09,22.709999084472656,23.729999542236328,22.350000381469727,23.649999618530273,23.649999618530273,342100
2020-01-10,23.799999237060547,24.200000762939453,23.219999313354492,24.190000534057617,24.190000534057617,502200
2020-01-13,24.229999542236328,24.969999313354492,24.0,24.559999465942383,24.559999465942383,539700
2020-01-14,24.549999237060547,24.709999084472656,24.059999465942383,24.290000915527344,24.290000915527344,521500
2020-01-15,24.280000686645508,25.450000762939453,24.128999710083008,24.90999984741211,24.90999984741211,382800
2020-01-16,25.049999237060547,25.399999618530273,24.649999618530273,24.969999313354492,24.969999313354492,335600
2020-01-17,25.3799991607666,25.3799991607666,24.0,24.110000610351562,24.110000610351562,392400
2020-01-21,24.0,24.40999984741211,23.729999542236328,24.290000915527344,24.290000915527344,369100
2020-01-22,24.420000076293945,25.110000610351562,24.149999618530273,24.8700008392334,24.8700008392334,336300
2020-01-23,24.850000381469727,25.950000762939453,24.209999084472656,25.780000686645508,25.780000686645508,640800
2020-01-24,26.100000381469727,27.239999771118164,24.881000518798828,25.209999084472656,25.209999084472656,422600
2020-01-27,24.209999084472656,24.850000381469727,23.979999542236328,24.59000015258789,24.59000015258789,290500
2020-01-28,24.709999084472656,25.530000686645508,24.709999084472656,25.030000686645508,25.030000686645508,299400
2020-01-29,25.229999542236328,25.315000534057617,24.5,24.809999465942383,24.809999465942383,261400
2020-01-30,24.479999542236328,24.950000762939453,24.079999923706055,24.690000534057617,24.690000534057617,155400
2020-01-31,24.6299991607666,24.6299991607666,23.860000610351562,24.219999313354492,24.219999313354492,275600
2020-02-03,24.200000762939453,24.59000015258789,23.510000228881836,23.8700008392334,23.8700008392334,310000
2020-02-04,24.309999465942383,25.020000457763672,23.889999389648438,24.670000076293945,24.670000076293945,348900
2020-02-05,24.920000076293945,24.920000076293945,24.229999542236328,24.709999084472656,24.709999084472656,229900
2020-02-06,24.860000610351562,25.350000381469727,24.360000610351562,24.690000534057617,24.690000534057617,257500
2020-02-07,24.899999618530273,25.239999771118164,24.600000381469727,24.75,24.75,188700
2020-02-10,24.709999084472656,25.139999389648438,23.950000762939453,24.06999969482422,24.06999969482422,217800
2020-02-11,24.290000915527344,25.700000762939453,23.875,24.780000686645508,24.780000686645508,235500
2020-02-12,24.940000534057617,25.375,24.329999923706055,24.610000610351562,24.610000610351562,187400
2020-02-13,24.469999313354492,25.229999542236328,24.42799949645996,24.950000762939453,24.950000762939453,231100
2020-02-14,25.010000228881836,25.40999984741211,24.639999389648438,25.059999465942383,25.059999465942383,170700
2020-02-18,24.799999237060547,24.959999084472656,24.399999618530273,24.770000457763672,24.770000457763672,173200
2020-02-19,24.889999389648438,25.920000076293945,24.84000015258789,25.0,25.0,230700
2020-02-20,25.0,25.459999084472656,23.65999984741211,25.424999237060547,25.424999237060547,459600
2020-02-21,25.43000030517578,27.1200008392334,24.670000076293945,26.860000610351562,26.860000610351562,592700
2020-02-24,25.950000762939453,27.503999710083008,25.229999542236328,26.959999084472656,26.959999084472656,668900
2020-02-25,26.979999542236328,27.170000076293945,23.885000228881836,24.5,24.5,898500
2020-02-26,24.610000610351562,24.871000289916992,23.389999389648438,23.649999618530273,23.649999618530273,291800
2020-02-27,23.0,23.3799991607666,21.760000228881836,21.989999771118164,21.989999771118164,604500
2020-02-28,19.860000610351562,21.1299991607666,19.450000762939453,21.09000015258789,21.09000015258789,1122100
2020-03-02,21.299999237060547,21.31999969482422,20.09000015258789,20.3799991607666,20.3799991607666,527100
2020-03-03,20.3799991607666,21.344999313354492,19.68000030517578,19.81999969482422,19.81999969482422,406100
2020-03-04,20.209999084472656,20.520000457763672,19.93000030517578,20.139999389648438,20.139999389648438,411300
2020-03-05,19.56999969482422,20.190000534057617,18.8799991607666,18.979999542236328,18.979999542236328,378700
2020-03-06,17.8799991607666,18.790000915527344,17.6200008392334,17.770000457763672,17.770000457763672,617700
2020-03-09,16.309999465942383,16.40999984741211,14.880000114440918,14.970000267028809,14.970000267028809,1035800
2020-03-10,16.0,16.43000030517578,13.600000381469727,14.25,14.25,1095900
2020-03-11,14.0,14.72700023651123,11.8100004196167,12.289999961853027,12.289999961853027,1006500
2020-03-12,11.239999771118164,11.597999572753906,10.25,11.520000457763672,11.520000457763672,1225000
2020-03-13,12.09000015258789,12.720000267028809,11.0,12.710000038146973,12.710000038146973,742300
2020-03-16,11.510000228881836,12.079999923706055,9.770000457763672,9.779999732971191,9.779999732971191,786500
2020-03-17,10.109999656677246,10.920000076293945,9.420000076293945,10.640000343322754,10.640000343322754,821800
2020-03-18,10.010000228881836,10.119999885559082,7.809999942779541,9.010000228881836,9.010000228881836,1022000
2020-03-19,8.84000015258789,9.390000343322754,8.319999694824219,9.15999984741211,9.15999984741211,987000
2020-03-20,9.369999885559082,9.520000457763672,7.619999885559082,8.3100004196167,8.3100004196167,1222500
2020-03-23,8.220000267028809,8.609999656677246,7.699999809265137,7.980000019073486,7.980000019073486,540700
2020-03-24,8.520000457763672,9.5,8.289999961853027,9.390000343322754,9.390000343322754,731100
2020-03-25,9.510000228881836,10.545000076293945,9.187999725341797,9.760000228881836,9.760000228881836,735800
2020-03-26,10.050000190734863,11.4399995803833,10.050000190734863,10.489999771118164,10.489999771118164,559200
2020-03-27,10.0,11.130000114440918,9.510000228881836,10.529999732971191,10.529999732971191,423600
2020-03-30,11.029999732971191,11.039999961853027,9.630000114440918,10.260000228881836,10.260000228881836,526200
2020-03-31,10.229999542236328,10.793000221252441,9.220000267028809,9.9399995803833,9.9399995803833,753800
2020-04-01,9.380000114440918,10.180000305175781,9.085000038146973,9.229999542236328,9.229999542236328,443600
2020-04-02,9.039999961853027,9.220000267028809,8.65999984741211,8.770000457763672,8.770000457763672,708300
2020-04-03,8.789999961853027,8.9399995803833,8.085000038146973,8.539999961853027,8.539999961853027,429700
2020-04-06,9.029999732971191,9.489999771118164,8.84000015258789,9.350000381469727,9.350000381469727,326600
2020-04-07,9.84000015258789,10.418000221252441,9.529999732971191,9.600000381469727,9.600000381469727,508400
2020-04-08,9.84000015258789,11.050999641418457,9.710000038146973,10.75,10.75,526400
2020-04-09,11.109999656677246,11.982999801635742,11.079999923706055,11.720000267028809,11.720000267028809,1079900
2020-04-13,13.350000381469727,14.458000183105469,12.800000190734863,14.050000190734863,14.050000190734863,2604900
2020-04-14,14.5,15.829999923706055,14.25,15.550000190734863,15.550000190734863,1649900
2020-04-15,15.199999809265137,15.220000267028809,13.91100025177002,14.989999771118164,14.989999771118164,964400
2020-04-16,15.15999984741211,15.5,14.0,14.529999732971191,14.529999732971191,738300
2020-04-17,14.979999542236328,14.989999771118164,14.100000381469727,14.319999694824219,14.319999694824219,609400
2020-04-20,14.140000343322754,15.130000114440918,13.809000015258789,14.289999961853027,14.289999961853027,712100
2020-04-21,14.0,14.468000411987305,13.630000114440918,14.210000038146973,14.210000038146973,611800
2020-04-22,14.5,14.890000343322754,14.050000190734863,14.470000267028809,14.470000267028809,577800
2020-04-23,14.600000381469727,15.010000228881836,14.399999618530273,14.6899995803833,14.6899995803833,680000
2020-04-24,14.75,16.600000381469727,14.75,16.389999389648438,16.389999389648438,922700
2020-04-27,16.790000915527344,17.926000595092773,16.649999618530273,17.530000686645508,17.530000686645508,801500
2020-04-28,18.239999771118164,18.68000030517578,16.760000228881836,17.68000030517578,17.68000030517578,764700
2020-04-29,18.229999542236328,19.84000015258789,18.040000915527344,19.34000015258789,19.34000015258789,3184000
2020-04-30,19.1299991607666,20.219999313354492,18.3799991607666,19.450000762939453,19.450000762939453,698000
2020-05-01,18.829999923706055,18.9950008392334,17.350000381469727,17.43000030517578,17.43000030517578,669800
2020-05-04,17.0,18.760000228881836,16.729999542236328,18.209999084472656,18.209999084472656,584600
2020-05-05,18.549999237060547,20.059999465942383,18.549999237060547,19.219999313354492,19.219999313354492,593000
2020-05-06,19.299999237060547,19.738000869750977,18.674999237060547,18.81999969482422,18.81999969482422,417100
2020-05-07,19.3700008392334,20.489999771118164,19.149999618530273,20.200000762939453,20.200000762939453,507000
2020-05-08,20.690000534057617,21.0,19.760000228881836,20.81999969482422,20.81999969482422,482300
2020-05-11,20.8799991607666,21.5,20.040000915527344,20.079999923706055,20.079999923706055,421400
2020-05-12,20.200000762939453,21.510000228881836,19.75,20.690000534057617,20.690000534057617,353300
2020-05-13,20.5,21.020000457763672,19.360000610351562,20.0,20.0,445600
2020-05-14,19.479999542236328,20.790000915527344,18.790000915527344,20.559999465942383,20.559999465942383,1109500
2020-05-15,20.280000686645508,22.399999618530273,20.010000228881836,22.280000686645508,22.280000686645508,1225600
2020-05-18,22.850000381469727,23.857999801635742,22.309999465942383,23.260000228881836,23.260000228881836,715500
2020-05-19,23.260000228881836,26.149999618530273,23.260000228881836,24.170000076293945,24.170000076293945,890800
2020-05-20,24.8799991607666,25.257999420166016,24.040000915527344,24.90999984741211,24.90999984741211,619200
2020-05-21,25.5,25.670000076293945,24.110000610351562,24.459999084472656,24.459999084472656,1107100
2020-05-22,24.639999389648438,25.110000610351562,24.25,25.010000228881836,25.010000228881836,731700
2020-05-26,25.520000457763672,25.899999618530273,25.030000686645508,25.43000030517578,25.43000030517578,553100
2020-05-27,25.489999771118164,25.56999969482422,23.790000915527344,25.1299991607666,25.1299991607666,636000
2020-05-28,25.0,25.520000457763672,24.110000610351562,24.399999618530273,24.399999618530273,524600
2020-05-29,24.239999771118164,25.450000762939453,24.149999618530273,25.31999969482422,25.31999969482422,658800
2020-06-01,25.690000534057617,29.229999542236328,25.59000015258789,28.600000381469727,28.600000381469727,1077600
2020-06-02,28.84000015258789,28.950000762939453,27.389999389648438,28.270000457763672,28.270000457763672,650600
2020-06-03,28.799999237060547,31.260000228881836,28.3799991607666,31.139999389648438,31.139999389648438,835200
2020-06-04,30.989999771118164,31.149999618530273,28.649999618530273,29.059999465942383,29.059999465942383,1180300
2020-06-05,31.010000228881836,35.63999938964844,31.010000228881836,32.189998626708984,32.189998626708984,2362500
2020-06-08,32.2400016784668,32.619998931884766,30.729999542236328,31.190000534057617,31.190000534057617,1181500
2020-06-09,30.809999465942383,30.829999923706055,29.280000686645508,29.959999084472656,29.959999084472656,874400
2020-06-10,30.049999237060547,31.770000457763672,29.1200008392334,30.75,30.75,750400
2020-06-11,28.670000076293945,30.719999313354492,27.739999771118164,27.889999389648438,27.889999389648438,741200
2020-06-12,29.299999237060547,31.479999542236328,28.889999389648438,31.079999923706055,31.079999923706055,871400
2020-06-15,29.68000030517578,29.959999084472656,27.200000762939453,28.56999969482422,28.56999969482422,1551400
2020-06-16,29.950000762939453,31.540000915527344,29.31999969482422,30.959999084472656,30.959999084472656,1105900
2020-06-17,31.149999618530273,31.200000762939453,29.56999969482422,30.3700008392334,30.3700008392334,1005400
2020-06-18,29.940000534057617,32.56999969482422,29.309999465942383,32.25,32.25,1096900
2020-06-19,33.0,33.349998474121094,29.709999084472656,30.059999465942383,30.059999465942383,4290900
2020-06-22,29.600000381469727,32.599998474121094,29.399999618530273,31.889999389648438,31.889999389648438,770700
2020-06-23,32.5,32.5,30.530000686645508,31.110000610351562,31.110000610351562,902700
2020-06-24,30.479999542236328,31.68000030517578,29.899999618530273,30.520000457763672,30.520000457763672,641800
2020-06-25,30.93000030517578,32.189998626708984,30.600000381469727,31.649999618530273,31.649999618530273,632700
2020-06-26,31.940000534057617,31.940000534057617,30.25,30.899999618530273,30.899999618530273,1795600
2020-06-29,31.06999969482422,31.825000762939453,30.18400001525879,31.450000762939453,31.450000762939453,584500
2020-06-30,31.1299991607666,32.849998474121094,31.06999969482422,32.16999816894531,32.16999816894531,630100
2020-07-01,32.18000030517578,33.63999938964844,31.93000030517578,33.630001068115234,33.630001068115234,705500
2020-07-02,34.650001525878906,36.290000915527344,34.54999923706055,35.61000061035156,35.61000061035156,934200
2020-07-06,36.5099983215332,37.4900016784668,35.310001373291016,36.0099983215332,36.0099983215332,646400
2020-07-07,35.52000045776367,37.119998931884766,35.494998931884766,36.54999923706055,36.54999923706055,508600
2020-07-08,36.880001068115234,38.0,36.84000015258789,37.9900016784668,37.9900016784668,647800
2020-07-09,38.25,38.47999954223633,36.599998474121094,37.970001220703125,37.970001220703125,504200
2020-07-10,37.08000183105469,37.810001373291016,35.43000030517578,35.630001068115234,35.630001068115234,525900
2020-07-13,36.060001373291016,36.279998779296875,33.222999572753906,33.33000183105469,33.33000183105469,657500
2020-07-14,33.33000183105469,34.09700012207031,32.06999969482422,33.84000015258789,33.84000015258789,458100
2020-07-15,34.41999816894531,34.720001220703125,32.970001220703125,34.08000183105469,34.08000183105469,407000
2020-07-16,33.630001068115234,33.75,32.310001373291016,33.099998474121094,33.099998474121094,789900
2020-07-17,33.150001525878906,33.779998779296875,32.630001068115234,33.5,33.5,319500
2020-07-20,33.2400016784668,34.900001525878906,33.2400016784668,34.849998474121094,34.849998474121094,324000
2020-07-21,35.29999923706055,35.95000076293945,33.84000015258789,34.25,34.25,457100
2020-07-22,34.060001373291016,35.470001220703125,34.040000915527344,34.290000915527344,34.290000915527344,209100
2020-07-23,34.0099983215332,34.25,31.639999389648438,32.310001373291016,32.310001373291016,460300
2020-07-24,31.670000076293945,31.90999984741211,30.5,31.43000030517578,31.43000030517578,429000
2020-07-27,31.68000030517578,32.63999938964844,31.371000289916992,32.56999969482422,32.56999969482422,233200
2020-07-28,32.70000076293945,32.90999984741211,31.360000610351562,31.450000762939453,31.450000762939453,261300
2020-07-29,31.65999984741211,32.880001068115234,31.65999984741211,32.45000076293945,32.45000076293945,380600
2020-07-30,31.760000228881836,32.744998931884766,31.094999313354492,32.54999923706055,32.54999923706055,337900
2020-07-31,33.13999938964844,33.25,31.149999618530273,32.18000030517578,32.18000030517578,339700
2020-08-03,32.290000915527344,32.689998626708984,31.510000228881836,32.369998931884766,32.369998931884766,411300
2020-08-04,32.310001373291016,32.439998626708984,31.049999237060547,31.829999923706055,31.829999923706055,271200
2020-08-05,32.0,33.11000061035156,31.850000381469727,32.529998779296875,32.529998779296875,1159800
2020-08-06,32.77000045776367,32.77000045776367,31.1299991607666,31.399999618530273,31.399999618530273,314600
2020-08-07,31.270000457763672,31.350000381469727,29.670000076293945,30.989999771118164,30.989999771118164,617900
2020-08-10,31.360000610351562,31.459999084472656,29.292999267578125,29.889999389648438,29.889999389648438,454300
2020-08-11,30.079999923706055,31.65999984741211,29.469999313354492,30.59000015258789,30.59000015258789,513300
2020-08-12,31.139999389648438,33.5099983215332,31.139999389648438,33.459999084472656,33.459999084472656,639600
2020-08-13,33.4900016784668,36.150001525878906,33.02000045776367,35.84000015258789,35.84000015258789,674900
2020-08-14,35.90999984741211,35.90999984741211,34.959999084472656,35.66999816894531,35.66999816894531,307900
2020-08-17,35.435001373291016,36.38999938964844,35.41999816894531,35.63999938964844,35.63999938964844,437300
2020-08-18,35.86000061035156,36.5,35.650001525878906,36.470001220703125,36.470001220703125,297700
2020-08-19,36.470001220703125,36.9900016784668,35.900001525878906,36.779998779296875,36.779998779296875,239700
2020-08-20,36.40999984741211,39.529998779296875,35.970001220703125,38.869998931884766,38.869998931884766,765500
2020-08-21,38.880001068115234,38.880001068115234,36.72999954223633,37.400001525878906,37.400001525878906,379200
2020-08-24,38.0,39.09000015258789,37.0099983215332,37.38999938964844,37.38999938964844,366900
2020-08-25,37.58000183105469,38.14799880981445,36.630001068115234,38.0,38.0,191400
2020-08-26,38.36000061035156,39.34000015258789,38.29999923706055,38.59000015258789,38.59000015258789,392900
2020-08-27,38.900001525878906,38.939998626708984,37.84000015258789,38.27000045776367,38.27000045776367,196500
2020-08-28,38.59000015258789,39.630001068115234,38.03499984741211,39.0099983215332,39.0099983215332,331300
2020-08-31,39.0,41.20000076293945,38.32699966430664,40.720001220703125,40.720001220703125,486200
2020-09-01,41.4900016784668,46.029998779296875,41.19499969482422,44.66999816894531,44.66999816894531,997200
2020-09-02,45.599998474121094,46.62799835205078,42.29999923706055,44.529998779296875,44.529998779296875,843600
2020-09-03,42.5,42.900001525878906,37.279998779296875,37.279998779296875,37.279998779296875,1043500
2020-09-04,42.4900016784668,47.25,38.349998474121094,40.279998779296875,40.279998779296875,2749600
2020-09-08,38.040000915527344,40.2400016784668,37.55500030517578,38.29999923706055,38.29999923706055,929200
2020-09-09,39.130001068115234,40.209999084472656,36.939998626708984,39.959999084472656,39.959999084472656,797900
2020-09-10,40.349998474121094,42.7599983215332,39.290000915527344,39.54999923706055,39.54999923706055,676200
2020-09-11,39.900001525878906,41.650001525878906,37.92100143432617,39.52000045776367,39.52000045776367,606300
2020-09-14,40.040000915527344,40.39500045776367,38.0099983215332,38.7599983215332,38.7599983215332,391100
2020-09-15,39.209999084472656,39.93000030517578,37.86000061035156,38.869998931884766,38.869998931884766,323600
2020-09-16,38.91999816894531,39.400001525878906,37.43000030517578,37.95000076293945,37.95000076293945,420000
2020-09-17,36.7400016784668,37.58000183105469,36.22999954223633,37.29999923706055,37.29999923706055,407800
2020-09-18,37.88999938964844,37.88999938964844,35.70000076293945,36.58000183105469,36.58000183105469,519900
2020-09-21,35.130001068115234,37.59000015258789,34.2599983215332,37.560001373291016,37.560001373291016,402200
2020-09-22,36.709999084472656,38.79999923706055,36.709999084472656,38.54999923706055,38.54999923706055,325800
2020-09-23,38.45000076293945,38.56999969482422,35.9900016784668,36.27000045776367,36.27000045776367,322400
2020-09-24,35.58000183105469,36.59000015258789,34.810001373291016,36.11000061035156,36.11000061035156,474900
2020-09-25,36.29999923706055,37.95000076293945,36.1150016784668,37.56999969482422,37.56999969482422,284700
2020-09-28,38.25,39.83000183105469,38.02000045776367,38.77000045776367,38.77000045776367,363300
2020-09-29,39.4900016784668,40.0099983215332,38.63999938964844,39.11000061035156,39.11000061035156,378200
2020-09-30,38.880001068115234,39.41999816894531,37.959999084472656,38.33000183105469,38.33000183105469,311200
2020-10-01,38.970001220703125,40.279998779296875,38.63999938964844,39.86000061035156,39.86000061035156,330400
2020-10-02,36.630001068115234,39.790000915527344,36.36000061035156,38.0099983215332,38.0099983215332,379100
2020-10-05,38.45000076293945,39.356998443603516,36.92499923706055,37.310001373291016,37.310001373291016,364300
2020-10-06,37.540000915527344,39.2599983215332,37.33000183105469,37.95000076293945,37.95000076293945,307400
2020-10-07,38.2599983215332,39.439998626708984,38.2599983215332,38.810001373291016,38.810001373291016,334400
2020-10-08,39.25,40.4900016784668,38.25,38.59000015258789,38.59000015258789,442000
2020-10-09,39.0,41.5,38.900001525878906,41.29999923706055,41.29999923706055,452500
2020-10-12,41.959999084472656,42.470001220703125,40.470001220703125,41.2400016784668,41.2400016784668,296400
2020-10-13,41.5099983215332,41.869998931884766,41.0099983215332,41.58000183105469,41.58000183105469,216300
2020-10-14,41.61000061035156,41.61000061035156,40.25,40.790000915527344,40.790000915527344,251700
2020-10-15,39.79999923706055,40.93000030517578,39.060001373291016,40.83000183105469,40.83000183105469,272100
2020-10-16,41.02000045776367,41.16899871826172,38.564998626708984,38.880001068115234,38.880001068115234,377700
2020-10-19,39.04999923706055,40.18000030517578,38.150001525878906,38.33000183105469,38.33000183105469,278300
2020-10-20,38.7599983215332,38.7599983215332,37.0,37.84000015258789,37.84000015258789,334300
2020-10-21,38.040000915527344,38.16699981689453,35.08000183105469,35.189998626708984,35.189998626708984,377900
2020-10-22,35.31999969482422,36.040000915527344,33.70000076293945,35.52000045776367,35.52000045776367,349800
2020-10-23,35.68000030517578,36.28200149536133,34.540000915527344,36.060001373291016,36.060001373291016,227800
2020-10-26,35.2400016784668,36.20000076293945,34.2400016784668,34.959999084472656,34.959999084472656,329700
2020-10-27,35.18000030517578,36.810001373291016,34.630001068115234,35.11000061035156,35.11000061035156,967100
2020-10-28,34.22999954223633,34.81999969482422,33.32500076293945,33.619998931884766,33.619998931884766,1035700
2020-10-29,33.83000183105469,34.439998626708984,33.529998779296875,33.95000076293945,33.95000076293945,234700
2020-10-30,33.529998779296875,33.599998474121094,31.059999465942383,31.770000457763672,31.770000457763672,600000
2020-11-02,32.2400016784668,33.369998931884766,31.854999542236328,33.13999938964844,33.13999938964844,612000
2020-11-03,33.59000015258789,34.70399856567383,33.29999923706055,34.38999938964844,34.38999938964844,248800
2020-11-04,35.7400016784668,36.869998931884766,35.29999923706055,36.18000030517578,36.18000030517578,255800
2020-11-05,37.20000076293945,38.15999984741211,36.79999923706055,38.11000061035156,38.11000061035156,217100
2020-11-06,38.0,38.0,36.709999084472656,37.0,37.0,246900
2020-11-09,37.72999954223633,38.369998931884766,34.33000183105469,34.459999084472656,34.459999084472656,576500
2020-11-10,34.189998626708984,34.867000579833984,31.649999618530273,31.739999771118164,31.739999771118164,631400
2020-11-11,32.540000915527344,32.599998474121094,31.010000228881836,31.989999771118164,31.989999771118164,760200
2020-11-12,32.040000915527344,34.540000915527344,32.0099983215332,33.11000061035156,33.11000061035156,426800
2020-11-13,33.369998931884766,35.275001525878906,33.369998931884766,34.29999923706055,34.29999923706055,313200
2020-11-16,34.060001373291016,34.7599983215332,33.630001068115234,33.93000030517578,33.93000030517578,412400
2020-11-17,34.060001373291016,34.86000061035156,33.33000183105469,34.79999923706055,34.79999923706055,290600
2020-11-18,35.060001373291016,35.4900016784668,34.5099983215332,34.91999816894531,34.91999816894531,249300
2020-11-19,35.130001068115234,36.04499816894531,34.900001525878906,35.77000045776367,35.77000045776367,273400
2020-11-20,35.7400016784668,36.275001525878906,34.790000915527344,35.849998474121094,35.849998474121094,407700
2020-11-23,36.290000915527344,36.83000183105469,35.380001068115234,36.40999984741211,36.40999984741211,293700
2020-11-24,36.9900016784668,36.9900016784668,35.060001373291016,35.47999954223633,35.47999954223633,327200
2020-11-25,35.59000015258789,38.060001373291016,35.36000061035156,37.709999084472656,37.709999084472656,328500
2020-11-27,37.90999984741211,38.5099983215332,37.36000061035156,37.9900016784668,37.9900016784668,189300
2020-11-30,38.43000030517578,38.650001525878906,37.15999984741211,37.9900016784668,37.9900016784668,408200
2020-12-01,38.0,38.51499938964844,37.255001068115234,37.66999816894531,37.66999816894531,591700
2020-12-02,37.06999969482422,37.189998626708984,35.40999984741211,36.90999984741211,36.90999984741211,393600
2020-12-03,37.7400016784668,39.165000915527344,37.11000061035156,38.2599983215332,38.2599983215332,1193000
2020-12-04,44.08100128173828,45.97999954223633,42.619998931884766,44.88999938964844,44.88999938964844,2996100
2020-12-07,44.15999984741211,47.790000915527344,44.15999984741211,45.38999938964844,45.38999938964844,1051900
2020-12-08,45.27000045776367,46.0,44.08000183105469,44.56999969482422,44.56999969482422,652600
2020-12-09,44.689998626708984,45.34000015258789,43.029998779296875,43.52000045776367,43.52000045776367,867100
2020-12-10,42.22999954223633,45.529998779296875,42.22999954223633,45.27000045776367,45.27000045776367,383700
2020-12-11,45.15999984741211,46.880001068115234,44.564998626708984,46.70000076293945,46.70000076293945,376800
2020-12-14,48.70000076293945,57.20000076293945,48.54999923706055,56.43000030517578,56.43000030517578,3554500
2020-12-15,54.9900016784668,57.75,53.869998931884766,56.380001068115234,56.380001068115234,1177700
2020-12-16,55.9900016784668,60.90999984741211,55.7400016784668,60.459999084472656,60.459999084472656,1287900
2020-12-17,63.14699935913086,67.45999908447266,62.724998474121094,66.98999786376953,66.98999786376953,2071200
2020-12-18,67.66000366210938,69.55999755859375,65.30999755859375,66.26000213623047,66.26000213623047,3547000
2020-12-21,64.38999938964844,68.28800201416016,64.0009994506836,67.56999969482422,67.56999969482422,756700
2020-12-22,68.0199966430664,72.06999969482422,67.01000213623047,71.58999633789062,71.58999633789062,809900
2020-12-23,71.11000061035156,72.0,68.45999908447266,69.43000030517578,69.43000030517578,569700
2020-12-24,69.62000274658203,69.69999694824219,66.77999877929688,67.26000213623047,67.26000213623047,250000
2020-12-28,68.45999908447266,69.0,66.0999984741211,67.62000274658203,67.62000274658203,446800
2020-12-29,67.13999938964844,67.98999786376953,63.619998931884766,64.9000015258789,64.9000015258789,295400
2020-12-30,64.94000244140625,66.48999786376953,64.23999786376953,64.55999755859375,64.55999755859375,190700
