Date,Open,High,Low,Close,Adj Close,Volume
2019-08-01,25.5,26.3700008392334,23.649999618530273,23.850000381469727,23.850000381469727,29037100
2019-08-02,23.18000030517578,26.940000534057617,22.959999084472656,26.06999969482422,26.06999969482422,2785200
2019-08-05,25.200000762939453,25.290000915527344,22.31999969482422,23.739999771118164,23.739999771118164,2628500
2019-08-06,24.059999465942383,24.899999618530273,23.200000762939453,24.520000457763672,24.520000457763672,1614800
2019-08-07,23.75,26.6200008392334,23.5,26.149999618530273,26.149999618530273,5085200
2019-08-08,26.899999618530273,27.479999542236328,24.100000381469727,26.0,26.0,2222700
2019-08-09,26.5,26.5,24.466999053955078,25.25,25.25,991000
2019-08-12,25.299999237060547,25.299999237060547,23.0,23.270000457763672,23.270000457763672,1088700
2019-08-13,23.280000686645508,24.549999237060547,23.110000610351562,23.600000381469727,23.600000381469727,1037600
2019-08-14,23.030000686645508,23.315000534057617,21.219999313354492,21.43000030517578,21.43000030517578,1976900
2019-08-15,21.610000610351562,22.360000610351562,20.459999084472656,21.329999923706055,21.329999923706055,1218500
2019-08-16,21.59000015258789,22.639999389648438,21.399999618530273,22.389999389648438,22.389999389648438,1146400
2019-08-19,22.639999389648438,24.459999084472656,22.639999389648438,23.969999313354492,23.969999313354492,706800
2019-08-20,24.010000228881836,24.760000228881836,23.790000915527344,24.479999542236328,24.479999542236328,439600
2019-08-21,24.600000381469727,25.479999542236328,24.559999465942383,25.040000915527344,25.040000915527344,562900
2019-08-22,25.09000015258789,25.350000381469727,23.809999465942383,24.18000030517578,24.18000030517578,546300
2019-08-23,24.040000915527344,24.309999465942383,23.5310001373291,23.899999618530273,23.899999618530273,297200
2019-08-26,24.270000457763672,24.5,23.780000686645508,23.8700008392334,23.8700008392334,601800
2019-08-27,24.0,24.899999618530273,22.68000030517578,23.399999618530273,23.399999618530273,764300
2019-08-28,23.309999465942383,24.0,22.600000381469727,23.010000228881836,23.010000228881836,470500
2019-08-29,23.170000076293945,23.489999771118164,22.520000457763672,23.440000534057617,23.440000534057617,442700
2019-08-30,23.540000915527344,23.75,22.270000457763672,22.979999542236328,22.979999542236328,1191600
2019-09-03,22.5,23.280000686645508,22.299999237060547,23.100000381469727,23.100000381469727,1438900
2019-09-04,23.469999313354492,24.200000762939453,23.09000015258789,23.979999542236328,23.979999542236328,1103700
2019-09-05,22.309999465942383,24.959999084472656,21.670000076293945,24.729999542236328,24.729999542236328,1852700
2019-09-06,25.260000228881836,25.299999237060547,23.579999923706055,23.799999237060547,23.799999237060547,843400
2019-09-09,23.93000030517578,23.947999954223633,19.709999084472656,21.510000228881836,21.510000228881836,2368200
2019-09-10,21.31999969482422,21.75,19.81999969482422,20.110000610351562,20.110000610351562,1243300
2019-09-11,20.479999542236328,20.979999542236328,19.760000228881836,20.90999984741211,20.90999984741211,549200
2019-09-12,21.0,21.829999923706055,20.52199935913086,21.25,21.25,728700
2019-09-13,21.56999969482422,21.56999969482422,20.780000686645508,21.020000457763672,21.020000457763672,822700
2019-09-16,20.81999969482422,20.81999969482422,19.8799991607666,20.040000915527344,20.040000915527344,1764200
2019-09-17,20.309999465942383,20.625,20.049999237060547,20.1299991607666,20.1299991607666,779000
2019-09-18,20.350000381469727,20.969999313354492,20.0,20.790000915527344,20.790000915527344,561300
2019-09-19,20.790000915527344,21.969999313354492,20.790000915527344,21.360000610351562,21.360000610351562,978600
2019-09-20,21.729999542236328,21.729999542236328,21.280000686645508,21.530000686645508,21.530000686645508,4191100
2019-09-23,21.260000228881836,21.979999542236328,21.260000228881836,21.760000228881836,21.760000228881836,459700
2019-09-24,22.1200008392334,22.1200008392334,21.489999771118164,21.59000015258789,21.59000015258789,1461300
2019-09-25,21.760000228881836,21.770000457763672,20.735000610351562,20.899999618530273,20.899999618530273,1033400
2019-09-26,20.940000534057617,20.96500015258789,19.899999618530273,20.040000915527344,20.040000915527344,853300
2019-09-27,20.170000076293945,20.469999313354492,18.549999237060547,18.950000762939453,18.950000762939453,1695900
2019-09-30,19.040000915527344,19.040000915527344,18.520000457763672,18.670000076293945,18.670000076293945,1911000
2019-10-01,18.5,18.899999618530273,18.0,18.100000381469727,18.100000381469727,1107100
2019-10-02,18.34000015258789,18.6200008392334,17.43000030517578,18.170000076293945,18.170000076293945,1417600
2019-10-03,18.309999465942383,19.209999084472656,17.690000534057617,19.15999984741211,19.15999984741211,798400
2019-10-04,19.6200008392334,19.899999618530273,18.920000076293945,19.8799991607666,19.8799991607666,888400
2019-10-07,19.760000228881836,20.18000030517578,19.290000915527344,19.5,19.5,680700
2019-10-08,19.049999237060547,19.440000534057617,18.920000076293945,19.09000015258789,19.09000015258789,306500
2019-10-09,19.139999389648438,19.440000534057617,18.920000076293945,19.040000915527344,19.040000915527344,430300
2019-10-10,18.950000762939453,19.079999923706055,18.459999084472656,18.5,18.5,745700
2019-10-11,18.65999984741211,18.834999084472656,18.549999237060547,18.700000762939453,18.700000762939453,812200
2019-10-14,18.579999923706055,18.68000030517578,17.954999923706055,18.5,18.5,944100
2019-10-15,18.68000030517578,18.799999237060547,18.020000457763672,18.200000762939453,18.200000762939453,508700
2019-10-16,18.030000686645508,18.049999237060547,17.049999237060547,17.25,17.25,791000
2019-10-17,17.40999984741211,18.239999771118164,17.3700008392334,17.93000030517578,17.93000030517578,533800
2019-10-18,17.799999237060547,18.059999465942383,17.469999313354492,17.940000534057617,17.940000534057617,534800
2019-10-21,18.020000457763672,18.3799991607666,17.860000610351562,18.270000457763672,18.270000457763672,391500
2019-10-22,18.299999237060547,18.299999237060547,17.739999771118164,18.040000915527344,18.040000915527344,1037900
2019-10-23,17.920000076293945,18.479999542236328,17.84000015258789,18.31999969482422,18.31999969482422,609300
2019-10-24,18.40999984741211,19.149999618530273,18.320999145507812,18.780000686645508,18.780000686645508,513500
2019-10-25,18.68000030517578,19.079999923706055,18.44499969482422,18.479999542236328,18.479999542236328,474800
2019-10-28,18.700000762939453,19.079999923706055,18.510000228881836,18.899999618530273,18.899999618530273,748400
2019-10-29,18.959999084472656,19.014999389648438,18.350000381469727,18.510000228881836,18.510000228881836,236700
2019-10-30,18.540000915527344,20.149999618530273,18.350000381469727,19.760000228881836,19.760000228881836,1207900
2019-10-31,23.0,24.0,19.5,20.229999542236328,20.229999542236328,2555200
2019-11-01,20.610000610351562,21.402999877929688,19.90999984741211,21.149999618530273,21.149999618530273,803500
2019-11-04,21.3700008392334,22.479999542236328,20.719999313354492,20.790000915527344,20.790000915527344,918300
2019-11-05,20.790000915527344,21.209999084472656,20.200000762939453,20.479999542236328,20.479999542236328,963400
2019-11-06,20.399999618530273,20.700000762939453,19.889999389648438,20.0,20.0,705000
2019-11-07,20.100000381469727,20.350000381469727,19.110000610351562,19.170000076293945,19.170000076293945,670400
2019-11-08,19.049999237060547,19.440000534057617,18.7549991607666,19.399999618530273,19.399999618530273,651300
2019-11-11,19.299999237060547,20.389999389648438,19.100000381469727,20.18000030517578,20.18000030517578,456900
2019-11-12,20.190000534057617,20.59000015258789,19.829999923706055,20.149999618530273,20.149999618530273,403500
2019-11-13,19.969999313354492,21.56100082397461,19.84000015258789,21.329999923706055,21.329999923706055,803300
2019-11-14,21.649999618530273,21.66699981689453,20.790000915527344,21.09000015258789,21.09000015258789,622500
2019-11-15,20.979999542236328,21.639999389648438,20.84600067138672,21.450000762939453,21.450000762939453,413600
2019-11-18,21.43000030517578,22.298999786376953,21.299999237060547,22.06999969482422,22.06999969482422,362300
2019-11-19,22.0,22.670000076293945,21.43000030517578,22.360000610351562,22.360000610351562,497000
2019-11-20,22.510000228881836,23.809999465942383,22.079999923706055,23.530000686645508,23.530000686645508,1089200
2019-11-21,23.979999542236328,25.389999389648438,23.76300048828125,25.149999618530273,25.149999618530273,1108500
2019-11-22,25.860000610351562,25.97599983215332,23.75,24.190000534057617,24.190000534057617,628100
2019-11-25,24.5,25.280000686645508,24.5,25.1200008392334,25.1200008392334,419900
2019-11-26,25.15999984741211,26.25,25.15999984741211,26.209999084472656,26.209999084472656,788500
2019-11-27,26.59000015258789,27.1299991607666,26.06999969482422,26.850000381469727,26.850000381469727,1021400
2019-11-29,26.549999237060547,26.850000381469727,26.299999237060547,26.56999969482422,26.56999969482422,204500
2019-12-02,26.8799991607666,26.954999923706055,25.18000030517578,26.299999237060547,26.299999237060547,587800
2019-12-03,25.649999618530273,27.18899917602539,25.510000228881836,27.020000457763672,27.020000457763672,741300
2019-12-04,25.760000228881836,26.422000885009766,23.799999237060547,25.010000228881836,25.010000228881836,2722400
2019-12-05,24.860000610351562,25.424999237060547,24.360000610351562,25.100000381469727,25.100000381469727,637000
2019-12-06,24.5,24.649999618530273,24.059999465942383,24.40999984741211,24.40999984741211,11306900
2019-12-09,24.25,24.639999389648438,24.06999969482422,24.43000030517578,24.43000030517578,2544700
2019-12-10,24.43000030517578,24.850000381469727,24.350000381469727,24.350000381469727,24.350000381469727,3222000
2019-12-11,24.299999237060547,24.420000076293945,23.899999618530273,24.010000228881836,24.010000228881836,2184100
2019-12-12,24.0,24.280000686645508,23.600000381469727,23.81999969482422,23.81999969482422,1505800
2019-12-13,23.600000381469727,24.489999771118164,23.450000762939453,24.360000610351562,24.360000610351562,1056400
2019-12-16,24.65999984741211,25.540000915527344,24.530000686645508,25.329999923706055,25.329999923706055,2251200
2019-12-17,25.43000030517578,25.513999938964844,24.584999084472656,24.6299991607666,24.6299991607666,760400
2019-12-18,24.600000381469727,24.8700008392334,24.5,24.639999389648438,24.639999389648438,823700
2019-12-19,24.6299991607666,25.1299991607666,24.59000015258789,24.739999771118164,24.739999771118164,962600
2019-12-20,25.010000228881836,25.670000076293945,24.788999557495117,25.520000457763672,25.520000457763672,3205200
2019-12-23,25.65999984741211,26.059999465942383,25.530000686645508,25.8700008392334,25.8700008392334,1571700
2019-12-24,26.139999389648438,26.360000610351562,25.420000076293945,25.719999313354492,25.719999313354492,553600
2019-12-26,25.5,26.989999771118164,25.469999313354492,26.600000381469727,26.600000381469727,845000
2019-12-27,26.8799991607666,27.0,25.600000381469727,25.65999984741211,25.65999984741211,863000
2019-12-30,25.6200008392334,26.479999542236328,25.049999237060547,26.020000457763672,26.020000457763672,1193500
2019-12-31,25.899999618530273,26.739999771118164,25.15999984741211,25.299999237060547,25.299999237060547,1731600
2020-01-02,25.56999969482422,26.420000076293945,25.43000030517578,26.030000686645508,26.030000686645508,1040300
2020-01-03,25.639999389648438,26.399999618530273,25.520000457763672,26.31999969482422,26.31999969482422,711600
2020-01-06,26.06999969482422,29.209999084472656,26.06999969482422,28.950000762939453,28.950000762939453,4647600
2020-01-07,29.520000457763672,29.649999618530273,27.90999984741211,28.1299991607666,28.1299991607666,2197600
2020-01-08,28.030000686645508,28.25,26.6200008392334,28.010000228881836,28.010000228881836,2521100
2020-01-09,28.5,28.739999771118164,27.25,27.479999542236328,27.479999542236328,1000700
2020-01-10,27.940000534057617,29.079999923706055,27.549999237060547,27.760000228881836,27.760000228881836,1501600
2020-01-13,28.0,29.1299991607666,27.549999237060547,28.829999923706055,28.829999923706055,1338300
2020-01-14,29.719999313354492,30.149999618530273,27.219999313354492,27.790000915527344,27.790000915527344,2479800
2020-01-15,27.8799991607666,28.440000534057617,27.309999465942383,27.5,27.5,1058500
2020-01-16,27.700000762939453,27.889999389648438,26.8799991607666,27.399999618530273,27.399999618530273,1663100
2020-01-17,27.5,27.600000381469727,26.639999389648438,26.81999969482422,26.81999969482422,1275600
2020-01-21,27.0,27.649999618530273,26.200000762939453,26.260000228881836,26.260000228881836,2467000
2020-01-22,26.510000228881836,26.90999984741211,25.729999542236328,26.09000015258789,26.09000015258789,2020600
2020-01-23,26.290000915527344,28.200000762939453,26.100000381469727,27.8799991607666,27.8799991607666,1915400
2020-01-24,28.09000015258789,28.440000534057617,27.540000915527344,27.760000228881836,27.760000228881836,1347400
2020-01-27,26.90999984741211,28.128999710083008,26.600000381469727,27.940000534057617,27.940000534057617,2015300
2020-01-28,28.219999313354492,28.79800033569336,27.760000228881836,28.68000030517578,28.68000030517578,3343900
2020-01-29,31.350000381469727,32.946998596191406,29.850000381469727,31.0,31.0,4292300
2020-01-30,31.0,32.09000015258789,30.030000686645508,32.060001373291016,32.060001373291016,1924300
2020-01-31,32.18000030517578,32.277000427246094,30.75,31.309999465942383,31.309999465942383,1136600
2020-02-03,29.549999237060547,30.520000457763672,29.399999618530273,30.219999313354492,30.219999313354492,5566900
2020-02-04,30.6299991607666,32.5099983215332,30.354999542236328,32.400001525878906,32.400001525878906,2597200
2020-02-05,33.2599983215332,33.33000183105469,31.15999984741211,31.950000762939453,31.950000762939453,2170400
2020-02-06,31.940000534057617,32.689998626708984,31.030000686645508,31.940000534057617,31.940000534057617,1000700
2020-02-07,32.15999984741211,34.34000015258789,31.260000228881836,32.689998626708984,32.689998626708984,1982100
2020-02-10,33.09000015258789,33.959999084472656,32.70000076293945,33.81999969482422,33.81999969482422,812900
2020-02-11,34.08000183105469,35.900001525878906,33.90999984741211,35.689998626708984,35.689998626708984,2781800
2020-02-12,35.5,36.36399841308594,34.900001525878906,36.209999084472656,36.209999084472656,1827600
2020-02-13,36.0,36.4900016784668,35.52000045776367,35.97999954223633,35.97999954223633,2527600
2020-02-14,36.310001373291016,36.459999084472656,35.779998779296875,36.119998931884766,36.119998931884766,1181700
2020-02-18,35.790000915527344,36.119998931884766,35.0,35.13999938964844,35.13999938964844,1325500
2020-02-19,33.709999084472656,35.939998626708984,33.61000061035156,35.119998931884766,35.119998931884766,2589300
2020-02-20,35.720001220703125,37.064998626708984,34.15999984741211,35.38999938964844,35.38999938964844,3144000
2020-02-21,34.220001220703125,34.349998474121094,33.310001373291016,33.459999084472656,33.459999084472656,10470800
2020-02-24,32.04999923706055,33.2400016784668,32.04999923706055,32.93000030517578,32.93000030517578,2768200
2020-02-25,33.310001373291016,33.5,32.09000015258789,32.599998474121094,32.599998474121094,5124300
2020-02-26,32.459999084472656,33.38999938964844,32.310001373291016,32.58000183105469,32.58000183105469,2217600
2020-02-27,31.979999542236328,32.709999084472656,30.780000686645508,31.639999389648438,31.639999389648438,3407800
2020-02-28,30.43000030517578,32.31999969482422,30.059999465942383,32.29999923706055,32.29999923706055,2856100
2020-03-02,32.5,32.79999923706055,31.121000289916992,32.380001068115234,32.380001068115234,3430000
2020-03-03,32.91999816894531,33.345001220703125,30.59000015258789,31.540000915527344,31.540000915527344,2521700
2020-03-04,33.22999954223633,33.22999954223633,32.099998474121094,32.88999938964844,32.88999938964844,2108100
2020-03-05,32.619998931884766,33.768001556396484,32.36000061035156,33.290000915527344,33.290000915527344,1991000
2020-03-06,32.68000030517578,32.939998626708984,29.6200008392334,30.25,30.25,4144700
2020-03-09,26.5,28.450000762939453,25.700000762939453,26.360000610351562,26.360000610351562,5478100
2020-03-10,27.110000610351562,27.489999771118164,24.959999084472656,27.100000381469727,27.100000381469727,2982700
2020-03-11,26.469999313354492,26.75,23.530000686645508,24.219999313354492,24.219999313354492,3548400
2020-03-12,22.0,23.190000534057617,21.260000228881836,22.110000610351562,22.110000610351562,3311200
2020-03-13,23.5,24.3799991607666,21.139999389648438,23.469999313354492,23.469999313354492,2581700
2020-03-16,20.959999084472656,21.85700035095215,18.790000915527344,19.3700008392334,19.3700008392334,3536200
2020-03-17,20.0,20.420000076293945,18.5,19.510000228881836,19.510000228881836,3315800
2020-03-18,18.290000915527344,19.739999771118164,17.100000381469727,19.520000457763672,19.520000457763672,2582600
2020-03-19,19.520000457763672,21.649999618530273,18.219999313354492,20.8799991607666,20.8799991607666,1757800
2020-03-20,21.149999618530273,23.975000381469727,20.760000228881836,22.780000686645508,22.780000686645508,5717400
2020-03-23,22.969999313354492,23.049999237060547,20.96500015258789,22.190000534057617,22.190000534057617,1753100
2020-03-24,23.520000457763672,26.0,23.06999969482422,25.75,25.75,1831300
2020-03-25,25.56999969482422,27.389999389648438,24.325000762939453,26.34000015258789,26.34000015258789,2179700
2020-03-26,25.520000457763672,26.860000610351562,25.110000610351562,25.649999618530273,25.649999618530273,1399000
2020-03-27,24.829999923706055,25.0,23.739999771118164,24.489999771118164,24.489999771118164,1374000
2020-03-30,24.549999237060547,25.290000915527344,23.959999084472656,24.549999237060547,24.549999237060547,770400
2020-03-31,24.399999618530273,25.809999465942383,23.530000686645508,23.84000015258789,23.84000015258789,1578500
2020-04-01,22.719999313354492,22.8700008392334,21.59000015258789,22.520000457763672,22.520000457763672,1319600
2020-04-02,21.809999465942383,23.040000915527344,20.739999771118164,21.3799991607666,21.3799991607666,1754200
2020-04-03,21.25,21.959999084472656,19.950000762939453,20.649999618530273,20.649999618530273,1531500
2020-04-06,20.75,22.8799991607666,20.649999618530273,22.540000915527344,22.540000915527344,2457100
2020-04-07,23.260000228881836,23.704999923706055,22.219999313354492,23.0,23.0,1993200
2020-04-08,23.43000030517578,24.889999389648438,22.459999084472656,24.479999542236328,24.479999542236328,2026600
2020-04-09,24.700000762939453,26.25,24.26099967956543,24.760000228881836,24.760000228881836,1319600
2020-04-13,24.670000076293945,24.670000076293945,23.049999237060547,24.219999313354492,24.219999313354492,1454700
2020-04-14,25.0,25.959999084472656,24.500999450683594,25.549999237060547,25.549999237060547,1261800
2020-04-15,25.0,25.174999237060547,24.200000762939453,25.049999237060547,25.049999237060547,1598100
2020-04-16,26.010000228881836,26.25,25.100000381469727,25.780000686645508,25.780000686645508,1635200
2020-04-17,25.850000381469727,26.424999237060547,25.354999542236328,25.700000762939453,25.700000762939453,1599600
2020-04-20,25.68000030517578,27.104999542236328,25.139999389648438,26.540000915527344,26.540000915527344,1967500
2020-04-21,26.219999313354492,27.170000076293945,25.34000015258789,25.559999465942383,25.559999465942383,1601900
2020-04-22,27.010000228881836,28.1200008392334,26.09000015258789,27.290000915527344,27.290000915527344,3310600
2020-04-23,27.459999084472656,28.299999237060547,26.530000686645508,27.549999237060547,27.549999237060547,1478600
2020-04-24,27.93000030517578,29.489999771118164,27.530000686645508,28.549999237060547,28.549999237060547,1828500
2020-04-27,29.3700008392334,29.5,28.6200008392334,28.889999389648438,28.889999389648438,1219600
2020-04-28,29.350000381469727,30.469999313354492,27.56999969482422,28.489999771118164,28.489999771118164,1831800
2020-04-29,29.200000762939453,30.690000534057617,29.077999114990234,30.190000534057617,30.190000534057617,1279100
2020-04-30,30.110000610351562,30.809999465942383,29.56999969482422,29.850000381469727,29.850000381469727,880000
2020-05-01,29.170000076293945,29.170000076293945,26.920000076293945,27.15999984741211,27.15999984741211,2133700
2020-05-04,26.989999771118164,29.229999542236328,26.989999771118164,28.260000228881836,28.260000228881836,1131700
2020-05-05,28.850000381469727,30.100000381469727,28.799999237060547,29.299999237060547,29.299999237060547,1153400
2020-05-06,29.479999542236328,30.209999084472656,29.010000228881836,29.809999465942383,29.809999465942383,1104200
2020-05-07,31.010000228881836,32.52000045776367,30.850000381469727,31.889999389648438,31.889999389648438,2457400
2020-05-08,32.41999816894531,32.63999938964844,31.049999237060547,31.219999313354492,31.219999313354492,2752800
2020-05-11,32.220001220703125,34.279998779296875,31.690000534057617,33.5,33.5,3745100
2020-05-12,31.729999542236328,33.40999984741211,30.25,32.400001525878906,32.400001525878906,4928300
2020-05-13,33.529998779296875,33.61000061035156,31.399999618530273,32.93000030517578,32.93000030517578,3679200
2020-05-14,32.560001373291016,33.38999938964844,31.75,33.0,33.0,2031600
2020-05-15,32.869998931884766,33.41999816894531,32.435001373291016,33.029998779296875,33.029998779296875,2059900
2020-05-18,33.790000915527344,35.0,33.5,34.88999938964844,34.88999938964844,2098200
2020-05-19,35.189998626708984,37.04999923706055,35.060001373291016,36.4900016784668,36.4900016784668,3133700
2020-05-20,37.83000183105469,39.0,36.619998931884766,36.81999969482422,36.81999969482422,2640500
2020-05-21,36.68000030517578,37.040000915527344,35.119998931884766,36.04999923706055,36.04999923706055,2400900
2020-05-22,36.040000915527344,37.150001525878906,35.54999923706055,37.0,37.0,2158500
2020-05-26,38.310001373291016,38.34000015258789,36.209999084472656,37.279998779296875,37.279998779296875,2388800
2020-05-27,37.060001373291016,37.29999923706055,33.310001373291016,35.93000030517578,35.93000030517578,2321600
2020-05-28,36.09000015258789,38.900001525878906,36.064998626708984,37.72999954223633,37.72999954223633,2483900
2020-05-29,38.13999938964844,39.099998474121094,37.36000061035156,38.470001220703125,38.470001220703125,9993200
2020-06-01,37.97999954223633,38.95000076293945,36.08000183105469,38.65999984741211,38.65999984741211,3248200
2020-06-02,38.59000015258789,38.59000015258789,36.400001525878906,36.77000045776367,36.77000045776367,3333800
2020-06-03,35.0,36.29999923706055,34.61000061035156,36.22999954223633,36.22999954223633,15304200
2020-06-04,35.880001068115234,36.4900016784668,35.0099983215332,36.150001525878906,36.150001525878906,8071700
2020-06-05,35.40999984741211,38.189998626708984,35.27000045776367,37.29999923706055,37.29999923706055,6456600
2020-06-08,37.220001220703125,37.380001068115234,35.41999816894531,36.52000045776367,36.52000045776367,2347400
2020-06-09,36.52000045776367,39.40999984741211,36.220001220703125,37.959999084472656,37.959999084472656,4457000
2020-06-10,38.95000076293945,39.2599983215332,37.02000045776367,37.900001525878906,37.900001525878906,2327200
2020-06-11,36.2599983215332,37.45000076293945,35.21900177001953,35.439998626708984,35.439998626708984,2427000
2020-06-12,36.310001373291016,37.099998474121094,35.15999984741211,35.88999938964844,35.88999938964844,2020500
2020-06-15,35.310001373291016,38.81999969482422,34.880001068115234,38.58000183105469,38.58000183105469,3714900
2020-06-16,39.630001068115234,40.65999984741211,38.76100158691406,39.959999084472656,39.959999084472656,4403300
2020-06-17,40.4900016784668,41.66999816894531,40.06999969482422,40.650001525878906,40.650001525878906,4113400
2020-06-18,40.63999938964844,40.90999984741211,39.40999984741211,40.40999984741211,40.40999984741211,1702800
2020-06-19,42.83000183105469,43.099998474121094,40.92900085449219,41.79999923706055,41.79999923706055,3845400
2020-06-22,41.95000076293945,43.15999984741211,41.630001068115234,42.599998474121094,42.599998474121094,1963100
2020-06-23,42.95000076293945,44.15999984741211,42.400001525878906,42.65999984741211,42.65999984741211,2048200
2020-06-24,42.13999938964844,43.119998931884766,41.029998779296875,42.34000015258789,42.34000015258789,2247100
2020-06-25,42.290000915527344,42.55699920654297,40.06999969482422,40.97999954223633,40.97999954223633,2732400
2020-06-26,41.209999084472656,41.79999923706055,40.099998474121094,41.400001525878906,41.400001525878906,4881100
2020-06-29,41.25,41.43899917602539,38.209999084472656,40.529998779296875,40.529998779296875,3004300
2020-06-30,40.630001068115234,40.91999816894531,39.775001525878906,40.599998474121094,40.599998474121094,4014600
2020-07-01,40.61000061035156,43.310001373291016,40.61000061035156,42.849998474121094,42.849998474121094,2317800
2020-07-02,43.209999084472656,43.3849983215332,41.619998931884766,42.349998474121094,42.349998474121094,2021800
2020-07-06,42.75,42.90999984741211,41.02000045776367,41.08000183105469,41.08000183105469,2748100
2020-07-07,41.20000076293945,42.470001220703125,40.80500030517578,41.81999969482422,41.81999969482422,1935800
2020-07-08,42.5,42.900001525878906,41.59000015258789,42.36000061035156,42.36000061035156,2408200
2020-07-09,42.81999969482422,44.369998931884766,41.060001373291016,44.060001373291016,44.060001373291016,3919000
2020-07-10,44.40999984741211,44.64500045776367,42.209999084472656,43.380001068115234,43.380001068115234,2830300
2020-07-13,43.650001525878906,44.198001861572266,38.880001068115234,39.4900016784668,39.4900016784668,4576500
2020-07-14,38.369998931884766,40.86000061035156,37.27000045776367,40.83000183105469,40.83000183105469,2460200
2020-07-15,41.09000015258789,42.209999084472656,40.45000076293945,42.189998626708984,42.189998626708984,2263700
2020-07-16,42.130001068115234,42.130001068115234,39.06999969482422,40.439998626708984,40.439998626708984,2135300
2020-07-17,40.45000076293945,42.040000915527344,39.93000030517578,41.63999938964844,41.63999938964844,1544500
2020-07-20,42.40999984741211,43.599998474121094,41.40999984741211,43.470001220703125,43.470001220703125,1178400
2020-07-21,44.0,44.25,42.560001373291016,43.029998779296875,43.029998779296875,1068000
2020-07-22,43.0,43.68000030517578,42.790000915527344,43.15999984741211,43.15999984741211,939100
2020-07-23,42.970001220703125,44.45000076293945,41.77000045776367,42.59000015258789,42.59000015258789,1939100
2020-07-24,41.79999923706055,42.150001525878906,39.810001373291016,41.279998779296875,41.279998779296875,1882800
2020-07-27,42.27000045776367,42.43000030517578,41.45000076293945,42.400001525878906,42.400001525878906,2126900
2020-07-28,42.38999938964844,42.630001068115234,40.6349983215332,40.7400016784668,40.7400016784668,3934800
2020-07-29,41.970001220703125,42.59000015258789,38.439998626708984,41.90999984741211,41.90999984741211,3926900
2020-07-30,41.529998779296875,42.83000183105469,40.3650016784668,42.369998931884766,42.369998931884766,2085200
2020-07-31,43.20000076293945,43.31999969482422,40.88999938964844,41.83000183105469,41.83000183105469,1262600
2020-08-03,40.720001220703125,41.470001220703125,40.43000030517578,41.400001525878906,41.400001525878906,10471000
2020-08-04,41.400001525878906,41.66999816894531,40.5099983215332,41.5,41.5,5640500
2020-08-05,41.79999923706055,42.93000030517578,41.439998626708984,42.150001525878906,42.150001525878906,6895300
2020-08-06,42.189998626708984,42.720001220703125,39.91999816894531,41.2400016784668,41.2400016784668,3903400
2020-08-07,40.7599983215332,40.7599983215332,37.47999954223633,37.84000015258789,37.84000015258789,6301000
2020-08-10,37.5,38.220001220703125,35.529998779296875,36.79999923706055,36.79999923706055,5720600
2020-08-11,36.41999816894531,37.619998931884766,35.41999816894531,36.810001373291016,36.810001373291016,5392100
2020-08-12,36.869998931884766,37.35300064086914,36.310001373291016,36.779998779296875,36.779998779296875,3859700
2020-08-13,36.7599983215332,38.275001525878906,36.52000045776367,37.529998779296875,37.529998779296875,2324700
2020-08-14,37.83000183105469,38.28499984741211,37.2400016784668,37.310001373291016,37.310001373291016,2152900
2020-08-17,36.36000061035156,38.38999938964844,36.349998474121094,38.29999923706055,38.29999923706055,2517000
2020-08-18,38.77000045776367,39.0,38.22999954223633,38.83000183105469,38.83000183105469,2629700
2020-08-19,39.0,39.540000915527344,38.125,39.290000915527344,39.290000915527344,2391900
2020-08-20,38.88999938964844,40.369998931884766,38.70199966430664,40.119998931884766,40.119998931884766,2463800
2020-08-21,39.97999954223633,40.17499923706055,39.42499923706055,39.7599983215332,39.7599983215332,1988700
2020-08-24,40.0,40.36000061035156,38.849998474121094,39.5099983215332,39.5099983215332,1979800
2020-08-25,39.5,40.38999938964844,39.47999954223633,40.119998931884766,40.119998931884766,1761500
2020-08-26,40.939998626708984,44.12900161743164,40.88999938964844,43.630001068115234,43.630001068115234,3562900
2020-08-27,43.439998626708984,43.439998626708984,42.15999984741211,42.68000030517578,42.68000030517578,1411900
2020-08-28,42.9900016784668,44.130001068115234,42.9900016784668,43.25,43.25,2277000
2020-08-31,43.38999938964844,44.400001525878906,42.900001525878906,44.22999954223633,44.22999954223633,3527400
2020-09-01,44.90999984741211,47.68000030517578,44.810001373291016,47.09000015258789,47.09000015258789,5056600
2020-09-02,48.75,48.849998474121094,44.900001525878906,46.689998626708984,46.689998626708984,5477900
2020-09-03,45.0,45.5,40.27000045776367,41.7400016784668,41.7400016784668,4714100
2020-09-04,40.70000076293945,41.75,37.65999984741211,39.9900016784668,39.9900016784668,3586400
2020-09-08,38.29999923706055,40.220001220703125,37.584999084472656,38.59000015258789,38.59000015258789,2441100
2020-09-09,39.66999816894531,40.869998931884766,38.61000061035156,40.0099983215332,40.0099983215332,3463900
2020-09-10,40.25,41.0,38.95000076293945,39.11000061035156,39.11000061035156,1984000
2020-09-11,39.619998931884766,40.06999969482422,38.4900016784668,39.130001068115234,39.130001068115234,2310800
2020-09-14,39.66999816894531,40.040000915527344,38.58100128173828,39.720001220703125,39.720001220703125,2403700
2020-09-15,40.08000183105469,41.310001373291016,39.86000061035156,40.529998779296875,40.529998779296875,2048100
2020-09-16,40.400001525878906,40.70000076293945,39.08000183105469,39.11000061035156,39.11000061035156,2237200
2020-09-17,38.20000076293945,39.93000030517578,37.900001525878906,39.849998474121094,39.849998474121094,3871000
2020-09-18,40.099998474121094,40.18000030517578,38.529998779296875,39.439998626708984,39.439998626708984,2761500
2020-09-21,38.650001525878906,40.38999938964844,38.150001525878906,40.34000015258789,40.34000015258789,1626600
2020-09-22,41.0,41.470001220703125,40.04999923706055,41.22999954223633,41.22999954223633,1741800
2020-09-23,41.13999938964844,41.900001525878906,40.2599983215332,40.290000915527344,40.290000915527344,2088300
2020-09-24,39.86000061035156,40.34000015258789,38.459999084472656,38.95000076293945,38.95000076293945,1778100
2020-09-25,39.83000183105469,41.66999816894531,39.10300064086914,41.18000030517578,41.18000030517578,1912700
2020-09-28,41.54999923706055,42.06999969482422,40.584999084472656,40.81999969482422,40.81999969482422,1411800
2020-09-29,41.060001373291016,41.68000030517578,40.45000076293945,41.220001220703125,41.220001220703125,1746100
2020-09-30,40.86000061035156,42.38999938964844,40.52000045776367,41.02000045776367,41.02000045776367,2174200
2020-10-01,41.83000183105469,42.15999984741211,41.19499969482422,41.38999938964844,41.38999938964844,1987600
2020-10-02,40.25,41.790000915527344,39.5,39.56999969482422,39.56999969482422,1846800
2020-10-05,39.83000183105469,40.790000915527344,39.345001220703125,39.88999938964844,39.88999938964844,3072100
2020-10-06,39.470001220703125,40.790000915527344,39.15999984741211,40.06999969482422,40.06999969482422,2517200
2020-10-07,41.15999984741211,42.18000030517578,40.93000030517578,41.68000030517578,41.68000030517578,2496300
2020-10-08,42.099998474121094,42.130001068115234,40.9010009765625,41.529998779296875,41.529998779296875,2133100
2020-10-09,41.75,43.099998474121094,41.290000915527344,43.04999923706055,43.04999923706055,3041400
2020-10-12,43.90999984741211,43.9900016784668,42.619998931884766,43.470001220703125,43.470001220703125,2211300
2020-10-13,43.470001220703125,44.79999923706055,43.16999816894531,44.38999938964844,44.38999938964844,1694100
2020-10-14,44.68000030517578,45.18000030517578,43.349998474121094,43.709999084472656,43.709999084472656,1814000
2020-10-15,42.72999954223633,43.88999938964844,41.83000183105469,43.5,43.5,1453100
2020-10-16,43.5,43.810001373291016,42.875,42.90999984741211,42.90999984741211,900500
2020-10-19,43.16999816894531,44.86000061035156,43.04999923706055,43.869998931884766,43.869998931884766,2609700
2020-10-20,44.0,44.869998931884766,43.099998474121094,43.15999984741211,43.15999984741211,1172200
2020-10-21,43.650001525878906,43.97999954223633,42.5,42.91999816894531,42.91999816894531,1319600
2020-10-22,42.7400016784668,43.150001525878906,41.310001373291016,42.61000061035156,42.61000061035156,1306800
2020-10-23,42.939998626708984,43.40999984741211,42.119998931884766,43.31999969482422,43.31999969482422,1141400
2020-10-26,42.79999923706055,43.25,39.540000915527344,40.310001373291016,40.310001373291016,2751200
2020-10-27,41.130001068115234,41.54999923706055,40.5,40.790000915527344,40.790000915527344,2170600
2020-10-28,39.029998779296875,39.9900016784668,36.060001373291016,36.11000061035156,36.11000061035156,9965800
2020-10-29,36.540000915527344,37.779998779296875,36.11000061035156,36.150001525878906,36.150001525878906,5518200
2020-10-30,36.0,36.16999816894531,34.689998626708984,35.310001373291016,35.310001373291016,4254300
2020-11-02,35.81999969482422,35.86000061035156,34.15999984741211,34.5,34.5,4188400
2020-11-03,34.689998626708984,35.88999938964844,34.42499923706055,35.380001068115234,35.380001068115234,4823100
2020-11-04,36.59000015258789,37.66999816894531,35.900001525878906,36.33000183105469,36.33000183105469,5545800
2020-11-05,37.900001525878906,39.38999938964844,37.79999923706055,38.68000030517578,38.68000030517578,3687600
2020-11-06,38.68000030517578,39.02000045776367,36.85499954223633,36.939998626708984,36.939998626708984,2808900
2020-11-09,37.20000076293945,37.529998779296875,35.18000030517578,35.4900016784668,35.4900016784668,3771200
2020-11-10,35.220001220703125,35.75,33.83000183105469,34.36000061035156,34.36000061035156,4224000
2020-11-11,35.0,36.06999969482422,34.65999984741211,35.9900016784668,35.9900016784668,2383400
2020-11-12,36.470001220703125,36.560001373291016,35.04999923706055,35.40999984741211,35.40999984741211,2249700
2020-11-13,35.790000915527344,36.36000061035156,34.650001525878906,35.189998626708984,35.189998626708984,2117600
2020-11-16,35.2400016784668,36.09000015258789,34.814998626708984,35.970001220703125,35.970001220703125,1786700
2020-11-17,35.779998779296875,36.400001525878906,35.5099983215332,36.16999816894531,36.16999816894531,1669700
2020-11-18,36.220001220703125,36.869998931884766,35.290000915527344,35.470001220703125,35.470001220703125,2110800
2020-11-19,35.25,36.470001220703125,35.06999969482422,35.959999084472656,35.959999084472656,1727700
2020-11-20,36.08000183105469,37.2599983215332,35.5099983215332,36.58000183105469,36.58000183105469,1878600
2020-11-23,36.75,37.04499816894531,35.939998626708984,36.18000030517578,36.18000030517578,2746700
2020-11-24,36.0,36.81999969482422,35.45000076293945,36.369998931884766,36.369998931884766,2956500
2020-11-25,36.970001220703125,38.38999938964844,36.470001220703125,38.27000045776367,38.27000045776367,2382800
2020-11-27,39.04999923706055,39.2599983215332,38.0,38.41999816894531,38.41999816894531,1073300
2020-11-30,38.7400016784668,39.369998931884766,37.619998931884766,38.02000045776367,38.02000045776367,2535800
2020-12-01,37.81999969482422,38.529998779296875,37.220001220703125,38.4900016784668,38.4900016784668,2078200
2020-12-02,37.88999938964844,38.119998931884766,36.880001068115234,38.040000915527344,38.040000915527344,2408200
2020-12-03,38.2400016784668,39.38999938964844,38.20000076293945,38.650001525878906,38.650001525878906,1664400
2020-12-04,38.939998626708984,39.65999984741211,38.61000061035156,39.529998779296875,39.529998779296875,1356000
2020-12-07,39.869998931884766,40.060001373291016,39.33000183105469,39.560001373291016,39.560001373291016,821600
2020-12-08,39.47999954223633,41.11000061035156,39.349998474121094,40.7599983215332,40.7599983215332,1516600
2020-12-09,40.25,40.25,37.959999084472656,38.65999984741211,38.65999984741211,5582400
2020-12-10,38.5,39.5,37.90999984741211,38.709999084472656,38.709999084472656,2599700
2020-12-11,38.959999084472656,39.439998626708984,38.470001220703125,39.09000015258789,39.09000015258789,2295500
2020-12-14,39.06999969482422,39.220001220703125,38.0,38.45000076293945,38.45000076293945,3027200
2020-12-15,39.04999923706055,39.9900016784668,38.38999938964844,39.47999954223633,39.47999954223633,2279200
2020-12-16,39.630001068115234,43.349998474121094,39.404998779296875,42.75,42.75,5211500
2020-12-17,43.5,43.95000076293945,42.2599983215332,43.7400016784668,43.7400016784668,3179500
2020-12-18,44.0,44.70000076293945,43.72200012207031,44.119998931884766,44.119998931884766,3299000
2020-12-21,43.45000076293945,44.45000076293945,43.0620002746582,44.09000015258789,44.09000015258789,1584500
2020-12-22,44.27000045776367,45.06999969482422,43.75,44.5099983215332,44.5099983215332,1728500
2020-12-23,44.70000076293945,44.7599983215332,43.5890007019043,43.900001525878906,43.900001525878906,1266800
2020-12-24,43.5,44.040000915527344,43.08000183105469,43.18000030517578,43.18000030517578,649100
2020-12-28,43.970001220703125,44.0,41.470001220703125,41.54999923706055,41.54999923706055,1599100
2020-12-29,41.79999923706055,42.755001068115234,41.189998626708984,41.880001068115234,41.880001068115234,1511600
2020-12-30,42.400001525878906,44.08000183105469,42.25,43.689998626708984,43.689998626708984,1836100
