Date,Open,High,Low,Close,Adj Close,Volume
2018-03-26,24.149999618530273,24.149999618530273,23.950000762939453,23.969999313354492,20.564319610595703,96400
2018-03-27,24.040000915527344,24.099000930786133,23.989999771118164,24.09000015258789,20.667272567749023,32700
2018-03-28,24.09000015258789,24.09000015258789,23.989999771118164,23.989999771118164,20.58147621154785,23400
2018-03-29,24.030000686645508,24.139999389648438,24.020000457763672,24.139999389648438,20.710168838500977,42900
2018-04-02,24.139999389648438,24.139999389648438,24.0,24.0,20.590057373046875,243900
2018-04-03,24.1200008392334,24.139999389648438,23.950000762939453,23.989999771118164,20.58147621154785,22700
2018-04-04,24.040000915527344,24.040000915527344,23.979000091552734,24.040000915527344,20.624374389648438,11600
2018-04-05,24.040000915527344,24.09000015258789,24.020000457763672,24.040000915527344,20.624374389648438,23100
2018-04-06,24.079999923706055,24.079999923706055,23.93000030517578,23.93000030517578,20.530004501342773,17900
2018-04-09,23.979999542236328,24.030000686645508,23.90999984741211,24.020000457763672,20.607215881347656,20200
2018-04-10,24.030000686645508,24.079999923706055,23.97100067138672,24.079999923706055,20.658687591552734,22700
2018-04-11,24.079999923706055,24.190000534057617,24.059999465942383,24.190000534057617,20.753063201904297,40900
2018-04-12,24.190000534057617,24.190000534057617,24.149999618530273,24.190000534057617,20.753063201904297,32900
2018-04-13,24.190000534057617,24.190000534057617,24.06999969482422,24.170000076293945,20.735902786254883,14400
2018-04-16,24.170000076293945,24.190000534057617,24.0,24.190000534057617,20.753063201904297,33100
2018-04-17,24.190000534057617,24.190000534057617,24.059999465942383,24.18000030517578,20.744483947753906,41700
2018-04-18,24.18000030517578,24.18000030517578,24.040000915527344,24.049999237060547,20.632953643798828,36500
2018-04-19,24.049999237060547,24.1299991607666,24.049999237060547,24.100000381469727,20.675851821899414,32700
2018-04-20,24.100000381469727,24.100000381469727,24.0,24.059999465942383,20.641530990600586,15300
2018-04-23,24.049999237060547,24.09000015258789,23.93899917602539,24.010000228881836,20.59864044189453,86800
2018-04-24,24.079999923706055,24.079999923706055,23.920000076293945,24.0,20.590057373046875,33000
2018-04-25,23.8799991607666,23.989999771118164,23.75,23.899999618530273,20.5042667388916,28400
2018-04-26,24.0,24.0,23.760000228881836,23.850000381469727,20.46137046813965,40800
2018-04-27,23.950000762939453,23.979999542236328,23.861000061035156,23.979999542236328,20.57289695739746,25800
2018-04-30,23.979999542236328,24.0,23.899999618530273,23.959999084472656,20.555736541748047,18000
2018-05-01,23.959999084472656,23.979999542236328,23.878999710083008,23.920000076293945,20.521421432495117,25100
2018-05-02,23.950000762939453,24.0,23.94099998474121,24.0,20.590057373046875,22400
2018-05-03,24.0,24.06999969482422,23.959999084472656,24.0,20.590057373046875,25500
2018-05-04,24.040000915527344,24.100000381469727,24.034000396728516,24.100000381469727,20.675851821899414,15800
2018-05-07,24.100000381469727,24.15999984741211,24.0,24.1200008392334,20.69300651550293,71600
2018-05-08,24.149999618530273,24.149999618530273,24.020000457763672,24.110000610351562,20.68442726135254,36800
2018-05-09,24.110000610351562,24.110000610351562,24.059999465942383,24.06999969482422,20.650110244750977,29700
2018-05-10,24.09000015258789,24.09000015258789,24.0,24.049999237060547,20.632953643798828,30500
2018-05-11,24.100000381469727,24.149999618530273,24.079999923706055,24.149999618530273,20.7187442779541,28800
2018-05-14,24.149999618530273,24.149999618530273,24.048999786376953,24.149999618530273,20.7187442779541,27700
2018-05-15,24.149999618530273,24.170000076293945,24.070999145507812,24.110000610351562,20.68442726135254,37100
2018-05-16,23.969999313354492,23.969999313354492,23.760000228881836,23.8700008392334,20.478530883789062,52800
2018-05-17,23.90999984741211,24.0,23.8700008392334,23.889999389648438,20.495683670043945,44500
2018-05-18,23.950000762939453,23.989999771118164,23.910999298095703,23.969999313354492,20.564319610595703,31900
2018-05-21,23.989999771118164,23.989999771118164,23.8799991607666,23.920000076293945,20.521421432495117,51300
2018-05-22,23.979999542236328,23.989999771118164,23.920000076293945,23.989999771118164,20.58147621154785,28400
2018-05-23,24.0,24.09000015258789,24.0,24.09000015258789,20.667272567749023,25100
2018-05-24,24.079999923706055,24.200000762939453,24.020000457763672,24.200000762939453,20.76164436340332,52400
2018-05-25,24.399999618530273,24.399999618530273,24.209999084472656,24.329999923706055,20.873167037963867,54700
2018-05-29,24.3700008392334,24.3700008392334,24.16900062561035,24.299999237060547,20.847431182861328,34600
2018-05-30,24.479999542236328,24.489999771118164,24.139999389648438,24.170000076293945,20.735902786254883,81000
2018-05-31,24.34000015258789,24.479999542236328,24.139999389648438,24.270000457763672,20.82169532775879,16200
2018-06-01,24.389999389648438,24.450000762939453,24.270000457763672,24.450000762939453,20.976119995117188,31600
2018-06-04,24.5,24.729999542236328,24.3799991607666,24.700000762939453,21.190603256225586,42400
2018-06-05,24.6200008392334,25.0,24.559999465942383,25.0,21.447978973388672,99500
2018-06-06,24.950000762939453,24.950000762939453,24.75,24.899999618530273,21.3621826171875,47600
2018-06-07,24.850000381469727,24.899999618530273,24.799999237060547,24.84000015258789,21.31070899963379,52400
2018-06-08,24.889999389648438,24.889999389648438,24.753000259399414,24.790000915527344,21.26781463623047,29900
2018-06-11,24.829999923706055,24.850000381469727,24.68000030517578,24.68000030517578,21.173442840576172,33700
2018-06-12,24.75,24.780000686645508,24.52400016784668,24.579999923706055,21.087648391723633,19100
2018-06-13,24.700000762939453,24.83099937438965,24.59000015258789,24.68000030517578,21.173442840576172,28400
2018-06-14,24.799999237060547,24.799999237060547,24.59000015258789,24.711000442504883,21.200035095214844,19900
2018-06-15,24.68000030517578,24.790000915527344,24.639999389648438,24.790000915527344,21.26781463623047,13500
2018-06-18,24.68000030517578,24.790000915527344,24.68000030517578,24.760000228881836,21.242074966430664,12500
2018-06-19,24.75,24.790000915527344,24.75,24.783000946044922,21.261808395385742,11800
2018-06-20,24.799999237060547,24.799999237060547,24.600000381469727,24.719999313354492,21.20775604248047,43600
2018-06-21,24.719999313354492,24.719999313354492,24.459999084472656,24.5,21.019014358520508,18600
2018-06-22,24.5,24.5,24.3700008392334,24.489999771118164,21.010438919067383,33400
2018-06-25,24.489999771118164,24.6299991607666,24.389999389648438,24.559999465942383,21.07048797607422,18500
2018-06-26,24.600000381469727,24.700000762939453,24.510000228881836,24.649999618530273,21.147703170776367,19600
2018-06-27,24.677000045776367,24.780000686645508,24.670000076293945,24.719999313354492,21.20775604248047,31500
2018-06-28,24.68000030517578,24.75,24.579999923706055,24.690000534057617,21.182018280029297,37600
2018-06-29,24.690000534057617,24.799999237060547,24.610000610351562,24.610000610351562,21.113388061523438,27600
2018-07-02,24.649999618530273,24.850000381469727,24.6299991607666,24.850000381469727,21.31928825378418,32000
2018-07-03,24.8700008392334,24.889999389648438,24.670000076293945,24.860000610351562,21.32786750793457,22300
2018-07-05,24.8700008392334,24.8700008392334,24.71500015258789,24.850000381469727,21.31928825378418,30300
2018-07-06,24.850000381469727,24.950000762939453,24.819000244140625,24.891000747680664,21.354459762573242,12900
2018-07-09,24.940000534057617,24.950000762939453,24.889999389648438,24.940000534057617,21.396503448486328,21000
2018-07-10,24.940000534057617,24.989999771118164,24.8799991607666,24.940000534057617,21.396503448486328,19100
2018-07-11,24.93000030517578,24.989999771118164,24.889999389648438,24.989999771118164,21.439395904541016,22100
2018-07-12,24.93000030517578,24.989999771118164,24.899999618530273,24.979999542236328,21.430814743041992,17500
2018-07-13,24.950000762939453,24.959999084472656,24.84000015258789,24.850000381469727,21.31928825378418,18600
2018-07-16,24.889999389648438,24.889999389648438,24.579999923706055,24.6299991607666,21.13054656982422,21300
2018-07-17,24.549999237060547,24.790000915527344,24.5310001373291,24.649999618530273,21.147703170776367,30900
2018-07-18,24.75,24.780000686645508,24.667999267578125,24.72100067138672,21.208614349365234,22100
2018-07-19,24.799999237060547,24.899999618530273,24.520000457763672,24.600000381469727,21.104808807373047,40400
2018-07-20,24.65999984741211,24.790000915527344,24.65999984741211,24.790000915527344,21.26781463623047,7500
2018-07-23,24.780000686645508,24.780000686645508,24.579999923706055,24.6299991607666,21.13054656982422,17400
2018-07-24,24.690000534057617,24.729999542236328,24.540000915527344,24.690000534057617,21.182018280029297,35500
2018-07-25,24.6200008392334,24.729999542236328,24.510000228881836,24.559999465942383,21.07048797607422,32300
2018-07-26,24.649999618530273,24.65999984741211,24.54199981689453,24.600000381469727,21.104808807373047,11400
2018-07-27,24.649999618530273,24.649999618530273,24.520000457763672,24.6299991607666,21.13054656982422,7600
2018-07-30,24.6299991607666,24.649999618530273,24.589000701904297,24.628999710083008,21.129690170288086,34700
2018-07-31,24.6299991607666,24.65999984741211,24.510000228881836,24.530000686645508,21.044755935668945,38200
2018-08-01,24.579999923706055,24.64900016784668,24.530000686645508,24.530000686645508,21.044755935668945,13700
2018-08-02,24.530000686645508,24.719999313354492,24.530000686645508,24.649999618530273,21.147703170776367,26000
2018-08-03,24.649999618530273,24.649999618530273,24.579999923706055,24.6200008392334,21.121967315673828,13500
2018-08-06,24.649999618530273,24.649999618530273,24.549999237060547,24.575000762939453,21.08336067199707,25700
2018-08-07,24.59000015258789,24.600000381469727,24.549999237060547,24.600000381469727,21.104808807373047,13200
2018-08-08,24.600000381469727,24.600000381469727,24.520000457763672,24.540000915527344,21.053333282470703,31600
2018-08-09,24.530000686645508,24.600000381469727,24.530000686645508,24.600000381469727,21.104808807373047,8000
2018-08-10,24.600000381469727,24.65999984741211,24.559999465942383,24.559999465942383,21.07048797607422,11800
2018-08-13,24.58799934387207,24.64900016784668,24.540000915527344,24.540000915527344,21.053333282470703,18400
2018-08-14,24.639999389648438,24.639999389648438,24.549999237060547,24.56999969482422,21.079071044921875,18600
2018-08-15,24.579999923706055,24.719999313354492,24.562000274658203,24.709999084472656,21.19917869567871,8000
2018-08-16,24.479999542236328,24.479999542236328,24.329999923706055,24.392000198364258,21.207870483398438,20300
2018-08-17,24.469999313354492,24.540000915527344,24.3799991607666,24.43000030517578,21.24091339111328,25800
2018-08-20,24.43000030517578,24.5310001373291,24.39900016784668,24.46299934387207,21.269603729248047,13800
2018-08-21,24.459999084472656,24.579999923706055,24.459999084472656,24.530000686645508,21.32785987854004,19400
2018-08-22,24.600000381469727,24.600000381469727,24.510000228881836,24.549999237060547,21.345247268676758,14800
2018-08-23,24.6200008392334,24.690000534057617,24.510000228881836,24.600000381469727,21.38871955871582,22800
2018-08-24,24.600000381469727,24.6299991607666,24.520999908447266,24.6299991607666,21.414806365966797,21000
2018-08-27,24.709999084472656,24.709999084472656,24.420000076293945,24.579999923706055,21.371328353881836,56300
2018-08-28,24.579999923706055,24.649999618530273,24.420000076293945,24.649999618530273,21.432191848754883,27000
2018-08-29,24.649999618530273,24.71500015258789,24.559999465942383,24.579999923706055,21.371328353881836,24000
2018-08-30,24.739999771118164,24.75,24.59000015258789,24.75,21.519140243530273,20200
2018-08-31,24.75,24.75,24.600000381469727,24.610000610351562,21.397417068481445,21100
2018-09-04,24.84000015258789,24.84000015258789,24.600000381469727,24.690000534057617,21.466970443725586,14400
2018-09-05,24.700000762939453,24.780000686645508,24.600000381469727,24.729999542236328,21.501750946044922,36900
2018-09-06,24.739999771118164,24.739999771118164,24.56999969482422,24.56999969482422,21.362638473510742,35300
2018-09-07,24.56999969482422,24.56999969482422,24.450000762939453,24.559999465942383,21.353940963745117,16200
2018-09-10,24.6299991607666,24.729999542236328,24.465999603271484,24.709999084472656,21.484363555908203,27100
2018-09-11,24.709999084472656,24.709999084472656,24.610000610351562,24.68000030517578,21.45827865600586,52100
2018-09-12,24.709999084472656,24.8799991607666,24.68000030517578,24.8799991607666,21.632169723510742,19600
2018-09-13,24.8799991607666,24.8799991607666,24.670000076293945,24.68000030517578,21.45827865600586,55200
2018-09-14,24.6200008392334,24.65999984741211,24.399999618530273,24.6299991607666,21.414806365966797,39900
2018-09-17,24.6299991607666,24.6299991607666,24.40999984741211,24.40999984741211,21.22352409362793,33800
2018-09-18,24.34000015258789,24.34000015258789,24.18000030517578,24.190000534057617,21.032241821289062,31900
2018-09-19,24.190000534057617,24.266000747680664,23.95199966430664,24.0,20.86704444885254,17900
2018-09-20,24.0,24.07900047302246,23.90999984741211,23.90999984741211,20.788793563842773,19900
2018-09-21,23.90999984741211,24.020000457763672,23.90999984741211,24.0,20.86704444885254,18800
2018-09-24,24.0,24.0,23.760000228881836,23.760000228881836,20.658376693725586,33900
2018-09-25,23.84000015258789,23.84000015258789,23.68000030517578,23.700000762939453,20.606210708618164,19500
2018-09-26,23.700000762939453,23.847000122070312,23.6200008392334,23.65999984741211,20.571430206298828,31000
2018-09-27,23.75,23.84000015258789,23.68000030517578,23.719999313354492,20.62359619140625,11500
2018-09-28,23.799999237060547,23.8799991607666,23.700000762939453,23.700000762939453,20.606210708618164,42600
2018-10-01,23.75,23.78700065612793,23.34000015258789,23.34000015258789,20.293201446533203,31600
2018-10-02,23.360000610351562,23.600000381469727,23.149999618530273,23.219999313354492,20.188865661621094,28900
2018-10-03,23.360000610351562,23.552000045776367,23.100000381469727,23.100000381469727,20.084531784057617,28600
2018-10-04,23.09000015258789,23.388999938964844,22.31999969482422,22.8700008392334,19.884553909301758,29000
2018-10-05,22.889999389648438,22.889999389648438,22.385000228881836,22.450000762939453,19.51938247680664,26000
2018-10-08,22.329999923706055,22.75,22.32699966430664,22.43000030517578,19.501995086669922,29600
2018-10-09,22.59000015258789,22.639999389648438,22.465999603271484,22.600000381469727,19.64980125427246,24800
2018-10-10,22.639999389648438,22.639999389648438,22.149999618530273,22.18000030517578,19.28462791442871,22100
2018-10-11,22.309999465942383,22.472999572753906,22.200000762939453,22.229999542236328,19.328102111816406,33100
2018-10-12,22.350000381469727,22.469999313354492,22.31999969482422,22.329999923706055,19.41504669189453,23500
2018-10-15,22.399999618530273,22.420000076293945,22.270000457763672,22.389999389648438,19.467212677001953,15600
2018-10-16,22.469999313354492,22.709999084472656,22.469999313354492,22.700000762939453,19.73674774169922,35600
2018-10-17,22.700000762939453,22.700000762939453,22.39299964904785,22.600000381469727,19.64980125427246,26900
2018-10-18,22.600000381469727,22.700000762939453,22.482999801635742,22.600000381469727,19.64980125427246,15800
2018-10-19,22.670000076293945,23.1200008392334,22.670000076293945,22.94700050354004,19.951505661010742,18900
2018-10-22,22.959999084472656,23.100000381469727,22.959999084472656,23.100000381469727,20.084531784057617,6200
2018-10-23,23.149999618530273,23.152999877929688,22.905000686645508,23.010000228881836,20.00628089904785,22000
2018-10-24,23.09000015258789,23.09000015258789,22.770000457763672,22.895999908447266,19.90715980529785,23600
2018-10-25,22.979999542236328,22.979999542236328,22.719999313354492,22.809999465942383,19.832386016845703,30600
2018-10-26,22.809999465942383,22.910999298095703,22.660999298095703,22.700000762939453,19.73674774169922,12300
2018-10-29,22.729999542236328,23.010000228881836,22.6299991607666,22.649999618530273,19.693273544311523,28300
2018-10-30,22.6200008392334,22.719999313354492,22.6200008392334,22.719999313354492,19.754135131835938,24200
2018-10-31,22.899999618530273,22.988000869750977,22.750999450683594,22.899999618530273,19.9106388092041,30300
2018-11-01,22.899999618530273,22.902999877929688,22.739999771118164,22.783000946044922,19.80891227722168,17100
2018-11-02,22.90999984741211,23.0,22.850000381469727,22.989999771118164,19.9888916015625,17800
2018-11-05,22.989999771118164,23.118000030517578,22.850000381469727,22.950000762939453,19.954111099243164,13100
2018-11-06,23.049999237060547,23.18000030517578,23.010000228881836,23.09000015258789,20.075836181640625,33700
2018-11-07,23.1200008392334,23.190000534057617,23.030000686645508,23.030000686645508,20.023672103881836,32300
2018-11-08,23.040000915527344,23.100000381469727,23.040000915527344,23.040000915527344,20.032363891601562,18100
2018-11-09,23.1200008392334,23.15999984741211,23.030000686645508,23.030000686645508,20.023672103881836,8500
2018-11-12,23.260000228881836,23.260000228881836,23.059999465942383,23.059999465942383,20.04975128173828,13900
2018-11-13,23.229999542236328,23.429000854492188,23.131000518798828,23.139999389648438,20.119308471679688,33300
2018-11-14,23.3700008392334,23.489999771118164,23.06999969482422,23.09000015258789,20.075836181640625,41200
2018-11-15,22.959999084472656,22.959999084472656,22.3799991607666,22.3799991607666,19.738916397094727,45700
2018-11-16,22.43000030517578,22.58799934387207,22.389999389648438,22.399999618530273,19.75655746459961,21500
2018-11-19,22.559999465942383,22.59000015258789,22.399999618530273,22.399999618530273,19.75655746459961,25700
2018-11-20,22.469999313354492,22.469999313354492,21.920000076293945,21.940000534057617,19.350839614868164,58000
2018-11-21,22.049999237060547,22.100000381469727,21.75,21.899999618530273,19.315561294555664,51100
2018-11-23,21.899999618530273,22.049999237060547,21.899999618530273,22.049999237060547,19.447856903076172,6500
2018-11-26,22.079999923706055,22.09000015258789,21.90999984741211,21.93000030517578,19.342021942138672,20900
2018-11-27,22.020000457763672,22.038999557495117,21.850000381469727,21.8700008392334,19.28910255432129,20200
2018-11-28,21.989999771118164,22.049999237060547,21.729999542236328,21.8799991607666,19.29792022705078,45500
2018-11-29,21.920000076293945,21.950000762939453,21.559999465942383,21.559999465942383,19.015684127807617,50100
2018-11-30,21.600000381469727,21.700000762939453,21.270000457763672,21.350000381469727,18.83046531677246,37200
2018-12-03,21.600000381469727,21.70599937438965,21.40999984741211,21.690000534057617,19.130342483520508,60100
2018-12-04,21.690000534057617,21.690000534057617,21.25,21.511999130249023,18.973350524902344,49100
2018-12-06,21.43000030517578,21.51799964904785,21.266000747680664,21.440000534057617,18.90984535217285,62800
2018-12-07,21.520000457763672,21.65999984741211,21.389999389648438,21.489999771118164,18.953947067260742,49000
2018-12-10,21.59000015258789,21.65999984741211,21.299999237060547,21.530000686645508,18.989227294921875,47300
2018-12-11,21.56999969482422,21.649999618530273,21.469999313354492,21.53499984741211,18.993635177612305,44000
2018-12-12,21.610000610351562,21.839000701904297,21.579999923706055,21.75,19.183263778686523,70700
2018-12-13,21.84000015258789,21.910999298095703,21.610000610351562,21.739999771118164,19.1744441986084,65600
2018-12-14,21.739999771118164,21.969999313354492,21.59000015258789,21.81999969482422,19.2450008392334,56800
2018-12-17,21.850000381469727,21.85099983215332,21.65999984741211,21.809999465942383,19.236181259155273,46100
2018-12-18,21.850000381469727,21.950000762939453,21.719999313354492,21.90999984741211,19.32438087463379,100000
2018-12-19,21.90999984741211,21.940000534057617,21.850000381469727,21.920000076293945,19.333202362060547,80900
2018-12-20,21.850000381469727,21.979999542236328,21.670000076293945,21.8799991607666,19.29792022705078,118600
2018-12-21,22.0,22.0,21.81100082397461,21.989999771118164,19.394941329956055,47000
2018-12-24,22.030000686645508,22.030000686645508,21.770000457763672,21.94099998474121,19.351722717285156,26200
2018-12-26,22.030000686645508,22.030000686645508,21.829999923706055,22.0,19.403762817382812,44500
2018-12-27,21.860000610351562,21.969999313354492,21.809999465942383,21.81999969482422,19.2450008392334,54300
2018-12-28,21.860000610351562,22.15999984741211,21.850000381469727,22.15999984741211,19.544878005981445,24400
2018-12-31,22.309999465942383,23.350000381469727,22.209999084472656,22.25,19.624258041381836,43000
2019-01-02,22.25,22.65999984741211,22.209999084472656,22.56999969482422,19.906494140625,35500
2019-01-03,22.579999923706055,22.639999389648438,22.399999618530273,22.579999923706055,19.915313720703125,13400
2019-01-04,22.719999313354492,23.059999465942383,22.593000411987305,22.799999237060547,20.10934829711914,45500
2019-01-07,22.81999969482422,23.08300018310547,22.75,22.760000228881836,20.07407569885254,68700
2019-01-08,22.90999984741211,23.13800048828125,22.792999267578125,23.010000228881836,20.294570922851562,55300
2019-01-09,23.040000915527344,23.049999237060547,22.947999954223633,22.969999313354492,20.25928497314453,41300
2019-01-10,22.959999084472656,23.059999465942383,22.766000747680664,23.040000915527344,20.321029663085938,43600
2019-01-11,23.059999465942383,23.399999618530273,22.96299934387207,23.34000015258789,20.58562660217285,49100
2019-01-14,23.34000015258789,23.639999389648438,23.215999603271484,23.5,20.726741790771484,42900
2019-01-15,23.510000228881836,23.6299991607666,23.34600067138672,23.424999237060547,20.66059684753418,39600
2019-01-16,23.450000762939453,23.5,23.209999084472656,23.479999542236328,20.709102630615234,43400
2019-01-17,23.489999771118164,23.790000915527344,23.309999465942383,23.610000610351562,20.823762893676758,52300
2019-01-18,23.600000381469727,23.759000778198242,23.43000030517578,23.520000457763672,20.744386672973633,52400
2019-01-22,23.520000457763672,23.61199951171875,23.229999542236328,23.299999237060547,20.550344467163086,41000
2019-01-23,23.399999618530273,23.399999618530273,23.260000228881836,23.399999618530273,20.6385440826416,29800
2019-01-24,23.399999618530273,23.459999084472656,23.299999237060547,23.440000534057617,20.673824310302734,111800
2019-01-25,23.365999221801758,23.639999389648438,23.365999221801758,23.639999389648438,20.8502197265625,46200
2019-01-28,23.639999389648438,23.84000015258789,23.549999237060547,23.84000015258789,21.026620864868164,44300
2019-01-29,23.860000610351562,23.8700008392334,23.756999969482422,23.799999237060547,20.991336822509766,29300
2019-01-30,23.850000381469727,24.030000686645508,23.790000915527344,23.976999282836914,21.147451400756836,46100
2019-01-31,24.010000228881836,24.709999084472656,23.899999618530273,24.709999084472656,21.7939510345459,152600
2019-02-01,24.639999389648438,24.739999771118164,24.36199951171875,24.709999084472656,21.7939510345459,47200
2019-02-04,24.75,24.799999237060547,24.65999984741211,24.799999237060547,21.873329162597656,69000
2019-02-05,24.799999237060547,24.989999771118164,24.75,24.8799991607666,21.943889617919922,40000
2019-02-06,24.950000762939453,24.950000762939453,24.6299991607666,24.799999237060547,21.873329162597656,45100
2019-02-07,24.799999237060547,24.799999237060547,24.549999237060547,24.649999618530273,21.741031646728516,40500
2019-02-08,24.780000686645508,24.780000686645508,24.600000381469727,24.68000030517578,21.767492294311523,100300
2019-02-11,24.6299991607666,24.670000076293945,24.530000686645508,24.649999618530273,21.741031646728516,20100
2019-02-12,24.600000381469727,24.753000259399414,24.559999465942383,24.639999389648438,21.732210159301758,55200
2019-02-13,24.299999237060547,24.459999084472656,24.299999237060547,24.459999084472656,21.864501953125,20900
2019-02-14,24.3799991607666,24.610000610351562,24.350000381469727,24.610000610351562,21.998592376708984,29300
2019-02-15,24.600000381469727,24.65999984741211,24.518999099731445,24.610000610351562,21.998592376708984,14500
2019-02-19,24.479999542236328,24.614999771118164,24.479999542236328,24.600000381469727,21.989652633666992,89700
2019-02-20,24.600000381469727,24.649999618530273,24.50200080871582,24.615999221801758,22.003950119018555,28500
2019-02-21,24.600000381469727,24.697999954223633,24.520000457763672,24.649999618530273,22.034343719482422,35900
2019-02-22,24.549999237060547,24.84000015258789,24.540000915527344,24.84000015258789,22.204181671142578,41600
2019-02-25,24.739999771118164,25.0,24.739999771118164,24.979999542236328,22.329326629638672,61000
2019-02-26,24.950000762939453,24.969999313354492,24.809999465942383,24.950000762939453,22.302513122558594,31100
2019-02-27,24.940000534057617,24.940000534057617,24.809999465942383,24.899999618530273,22.2578182220459,18500
2019-02-28,24.889999389648438,25.1299991607666,24.850000381469727,25.1299991607666,22.46341323852539,181700
2019-03-01,25.1200008392334,25.190000534057617,25.010000228881836,25.1299991607666,22.46341323852539,65000
2019-03-04,25.079999923706055,25.1200008392334,25.010000228881836,25.06999969482422,22.409778594970703,24500
2019-03-05,24.920000076293945,25.06999969482422,24.920000076293945,25.06999969482422,22.409778594970703,27900
2019-03-06,25.0,25.020000457763672,24.799999237060547,24.950000762939453,22.302513122558594,92200
2019-03-07,24.899999618530273,24.899999618530273,24.56999969482422,24.760000228881836,22.13267707824707,59500
2019-03-08,24.790000915527344,24.850000381469727,24.6299991607666,24.770000457763672,22.141613006591797,29100
2019-03-11,24.579999923706055,24.709999084472656,24.559999465942383,24.600000381469727,21.989652633666992,28600
2019-03-12,24.600000381469727,24.65999984741211,24.489999771118164,24.514999389648438,21.913673400878906,22800
2019-03-13,24.56999969482422,24.700000762939453,24.5,24.670000076293945,22.052223205566406,25500
2019-03-14,24.549999237060547,24.799999237060547,24.549999237060547,24.799999237060547,22.16843032836914,25200
2019-03-15,24.81999969482422,24.889999389648438,24.711000442504883,24.889999389648438,22.24888038635254,19400
2019-03-18,24.860000610351562,24.979999542236328,24.860000610351562,24.940000534057617,22.2935733795166,34500
2019-03-19,24.940000534057617,24.940000534057617,24.780000686645508,24.850000381469727,22.21312141418457,25300
2019-03-20,24.790000915527344,24.93000030517578,24.600000381469727,24.8700008392334,22.231000900268555,50400
2019-03-21,24.860000610351562,24.940000534057617,24.770000457763672,24.940000534057617,22.2935733795166,23300
2019-03-22,24.940000534057617,24.940000534057617,24.729999542236328,24.889999389648438,22.24888038635254,37300
2019-03-25,24.780000686645508,24.889999389648438,24.780000686645508,24.889999389648438,22.24888038635254,21800
2019-03-26,24.860000610351562,24.989999771118164,24.850000381469727,24.989999771118164,22.338268280029297,25000
2019-03-27,24.989999771118164,25.100000381469727,24.940000534057617,25.079999923706055,22.418718338012695,54800
2019-03-28,25.100000381469727,25.100000381469727,25.010000228881836,25.06999969482422,22.409778594970703,88400
2019-03-29,25.100000381469727,25.139999389648438,25.010000228881836,25.040000915527344,22.382963180541992,146300
2019-04-01,24.899999618530273,25.1299991607666,24.899999618530273,25.110000610351562,22.445533752441406,27700
2019-04-02,25.100000381469727,25.100000381469727,25.02899932861328,25.09000015258789,22.427658081054688,27200
2019-04-03,25.049999237060547,25.100000381469727,25.030000686645508,25.079999923706055,22.418718338012695,11500
2019-04-04,25.09000015258789,25.09000015258789,25.030000686645508,25.030000686645508,22.374021530151367,17500
2019-04-05,25.049999237060547,25.079999923706055,25.030000686645508,25.030000686645508,22.374021530151367,18200
2019-04-08,25.09000015258789,25.09000015258789,24.979999542236328,25.010000228881836,22.35614585876465,22200
2019-04-09,25.030000686645508,25.033000946044922,24.950000762939453,25.010000228881836,22.35614585876465,14100
2019-04-10,24.959999084472656,25.059999465942383,24.8799991607666,25.0,22.347204208374023,23300
2019-04-11,25.0,25.0,24.899999618530273,24.920000076293945,22.27569580078125,16000
2019-04-12,24.93000030517578,25.059999465942383,24.93000030517578,25.030000686645508,22.374021530151367,18500
2019-04-15,24.989999771118164,25.1200008392334,24.950000762939453,25.100000381469727,22.436594009399414,24900
2019-04-16,25.09000015258789,25.1299991607666,25.054000854492188,25.1200008392334,22.45447540283203,80600
2019-04-17,25.09000015258789,25.100000381469727,24.989999771118164,25.014999389648438,22.360614776611328,18700
2019-04-18,25.020000457763672,25.059999465942383,24.979999542236328,24.979999542236328,22.329326629638672,21600
2019-04-22,25.059999465942383,25.059999465942383,24.950000762939453,25.059999465942383,22.40083885192871,26400
2019-04-23,25.059999465942383,25.229999542236328,24.979999542236328,25.229999542236328,22.552799224853516,30700
2019-04-24,25.200000762939453,25.290000915527344,25.100000381469727,25.190000534057617,22.517044067382812,38800
2019-04-25,25.149999618530273,25.229999542236328,25.079999923706055,25.229999542236328,22.552799224853516,16900
2019-04-26,25.229999542236328,25.229999542236328,25.049999237060547,25.09000015258789,22.427658081054688,12000
2019-04-29,25.100000381469727,25.139999389648438,25.040000915527344,25.125,22.45894432067871,27500
2019-04-30,25.209999084472656,25.489999771118164,25.14900016784668,25.489999771118164,22.78520965576172,151200
2019-05-01,25.540000915527344,25.549999237060547,25.360000610351562,25.469999313354492,22.767335891723633,26800
2019-05-02,25.469999313354492,25.5,25.368999481201172,25.389999389648438,22.695819854736328,20000
2019-05-03,25.3700008392334,25.3700008392334,25.290000915527344,25.290000915527344,22.606433868408203,31900
2019-05-06,25.152999877929688,25.350000381469727,25.150999069213867,25.34000015258789,22.65113067626953,22000
2019-05-07,25.34000015258789,25.34000015258789,25.25,25.34000015258789,22.65113067626953,14000
2019-05-08,25.34000015258789,25.34000015258789,25.18199920654297,25.34000015258789,22.65113067626953,45900
2019-05-09,25.34000015258789,25.34000015258789,25.290000915527344,25.31999969482422,22.63324737548828,6500
2019-05-10,25.3799991607666,25.440000534057617,25.361000061035156,25.440000534057617,22.740520477294922,12100
2019-05-13,25.34000015258789,25.43000030517578,25.309999465942383,25.40999984741211,22.713701248168945,13600
2019-05-14,25.40999984741211,25.520000457763672,25.299999237060547,25.520000457763672,22.812028884887695,54700
2019-05-15,25.520000457763672,25.760000228881836,25.367000579833984,25.760000228881836,23.026565551757812,39400
2019-05-16,25.43000030517578,25.53499984741211,25.329999923706055,25.510000228881836,23.097183227539062,44800
2019-05-17,25.479999542236328,25.489999771118164,25.389999389648438,25.469999313354492,23.060970306396484,16400
2019-05-20,25.469999313354492,25.540000915527344,25.389999389648438,25.520000457763672,23.106239318847656,65700
2019-05-21,25.489999771118164,25.530000686645508,25.40999984741211,25.489999771118164,23.079072952270508,21900
2019-05-22,25.530000686645508,25.530000686645508,25.350000381469727,25.440000534057617,23.0338077545166,27700
2019-05-23,25.450000762939453,25.489999771118164,25.360000610351562,25.489999771118164,23.079072952270508,43800
2019-05-24,25.489999771118164,25.600000381469727,25.47599983215332,25.530000686645508,23.115297317504883,18600
2019-05-28,25.5,25.5049991607666,25.399999618530273,25.40999984741211,23.006643295288086,72900
2019-05-29,25.40999984741211,25.459999084472656,25.31999969482422,25.3700008392334,22.970428466796875,14500
2019-05-30,25.3700008392334,25.459999084472656,25.329999923706055,25.459999084472656,23.05191421508789,21000
2019-05-31,25.469999313354492,25.600000381469727,25.402000427246094,25.600000381469727,23.17867660522461,167500
2019-06-03,25.559999465942383,25.6299991607666,25.459999084472656,25.6299991607666,23.205835342407227,27300
2019-06-04,25.6299991607666,25.6299991607666,25.530000686645508,25.601999282836914,23.18048095703125,29900
2019-06-05,25.639999389648438,25.639999389648438,25.496999740600586,25.510000228881836,23.097183227539062,26000
2019-06-06,25.579999923706055,25.579999923706055,25.450000762939453,25.5,23.0881290435791,12500
2019-06-07,25.540000915527344,25.56999969482422,25.5,25.530000686645508,23.115297317504883,12200
2019-06-10,25.559999465942383,25.579999923706055,25.530000686645508,25.549999237060547,23.133399963378906,24800
2019-06-11,25.540000915527344,25.540000915527344,25.329999923706055,25.329999923706055,22.934207916259766,13900
2019-06-12,25.459999084472656,25.459999084472656,25.309999465942383,25.31999969482422,22.925151824951172,8600
2019-06-13,25.31999969482422,25.440000534057617,25.31999969482422,25.329999923706055,22.934207916259766,11500
2019-06-14,25.34000015258789,25.489999771118164,25.34000015258789,25.489999771118164,23.079072952270508,22500
2019-06-17,25.3700008392334,25.59000015258789,25.3700008392334,25.510000228881836,23.097183227539062,23500
2019-06-18,25.579999923706055,25.670000076293945,25.43000030517578,25.479999542236328,23.070018768310547,13200
2019-06-19,25.399999618530273,25.540000915527344,25.389999389648438,25.40999984741211,23.006643295288086,41000
2019-06-20,25.610000610351562,25.670000076293945,25.40999984741211,25.670000076293945,23.242050170898438,27400
2019-06-21,25.670000076293945,25.670000076293945,25.5,25.5,23.0881290435791,24700
2019-06-24,25.530000686645508,25.649999618530273,25.520000457763672,25.530000686645508,23.115297317504883,21300
2019-06-25,25.540000915527344,25.56999969482422,25.450000762939453,25.56999969482422,23.151508331298828,48000
2019-06-26,25.600000381469727,25.649999618530273,25.5,25.600000381469727,23.17867660522461,32000
2019-06-27,25.610000610351562,25.719999313354492,25.549999237060547,25.579999923706055,23.160560607910156,83500
2019-06-28,25.639999389648438,25.65999984741211,25.520000457763672,25.65999984741211,23.23299789428711,156500
2019-07-01,25.600000381469727,25.600000381469727,25.459999084472656,25.469999313354492,23.060970306396484,11000
2019-07-02,25.58099937438965,25.58099937438965,25.469999313354492,25.579999923706055,23.160560607910156,10600
2019-07-03,25.59000015258789,25.639999389648438,25.573999404907227,25.639999389648438,23.214887619018555,10100
2019-07-05,25.5,25.690000534057617,25.5,25.690000534057617,23.260160446166992,7200
2019-07-08,25.65999984741211,25.65999984741211,25.540000915527344,25.540000915527344,23.124347686767578,11300
2019-07-09,25.579999923706055,25.639999389648438,25.514999389648438,25.559999465942383,23.142452239990234,13600
2019-07-10,25.582000732421875,25.700000762939453,25.548999786376953,25.649999618530273,23.223939895629883,27800
2019-07-11,25.610000610351562,25.68400001525879,25.579999923706055,25.649999618530273,23.223939895629883,11700
2019-07-12,25.66900062561035,25.68000030517578,25.549999237060547,25.600000381469727,23.17867660522461,37500
2019-07-15,25.670000076293945,25.670000076293945,25.56999969482422,25.670000076293945,23.242050170898438,37600
2019-07-16,25.670000076293945,25.729999542236328,25.628999710083008,25.729999542236328,23.296375274658203,14600
2019-07-17,25.700000762939453,25.81999969482422,25.695999145507812,25.81999969482422,23.37786293029785,29600
2019-07-18,25.81999969482422,25.969999313354492,25.799999237060547,25.950000762939453,23.495569229125977,15000
2019-07-19,25.899999618530273,26.0,25.809999465942383,26.0,23.54084014892578,25100
2019-07-22,26.0,26.100000381469727,26.0,26.100000381469727,23.631380081176758,12400
2019-07-23,26.09000015258789,26.104999542236328,25.979999542236328,26.100000381469727,23.631380081176758,16900
2019-07-24,26.190000534057617,26.229999542236328,26.010000228881836,26.229999542236328,23.74908447265625,21200
2019-07-25,26.229999542236328,26.229999542236328,26.097999572753906,26.219999313354492,23.74003028869629,17000
2019-07-26,26.229999542236328,26.229999542236328,26.149999618530273,26.219999313354492,23.74003028869629,14900
2019-07-29,26.219999313354492,26.459999084472656,26.143999099731445,26.459999084472656,23.95733070373535,28800
2019-07-30,26.27899932861328,26.540000915527344,26.27899932861328,26.540000915527344,24.029766082763672,28000
2019-07-31,26.5,26.760000228881836,26.450000762939453,26.719999313354492,24.192739486694336,153900
2019-08-01,26.649999618530273,26.93000030517578,26.610000610351562,26.700000762939453,24.17462921142578,34900
2019-08-02,26.700000762939453,26.799999237060547,26.65999984741211,26.739999771118164,24.210845947265625,18700
2019-08-05,26.799999237060547,26.799999237060547,26.450000762939453,26.549999237060547,24.038816452026367,16600
2019-08-06,26.450000762939453,26.600000381469727,26.450000762939453,26.469999313354492,23.966384887695312,20100
2019-08-07,26.579999923706055,26.579999923706055,26.239999771118164,26.40999984741211,23.912057876586914,18900
2019-08-08,26.40399932861328,26.56999969482422,26.399999618530273,26.450000762939453,23.94827651977539,20100
2019-08-09,26.43000030517578,26.610000610351562,26.350000381469727,26.610000610351562,24.093143463134766,20500
2019-08-12,26.43000030517578,26.589000701904297,26.371999740600586,26.510000228881836,24.002601623535156,20800
2019-08-13,26.434999465942383,26.719999313354492,26.434999465942383,26.670000076293945,24.14746856689453,19300
2019-08-14,26.469999313354492,26.8700008392334,26.469999313354492,26.8700008392334,24.32855224609375,22300
2019-08-15,26.700000762939453,26.780000686645508,26.610000610351562,26.739999771118164,24.51003646850586,21800
2019-08-16,26.65999984741211,26.809999465942383,26.649999618530273,26.770000457763672,24.53753662109375,20000
2019-08-19,26.76799964904785,26.899999618530273,26.68000030517578,26.860000610351562,24.620031356811523,43700
2019-08-20,26.739999771118164,26.84000015258789,26.729999542236328,26.790000915527344,24.555870056152344,13900
2019-08-21,26.760000228881836,26.969999313354492,26.733999252319336,26.959999084472656,24.71169090270996,16100
2019-08-22,26.940000534057617,27.100000381469727,26.916000366210938,27.100000381469727,24.840017318725586,17300
2019-08-23,27.100000381469727,27.200000762939453,27.030000686645508,27.139999389648438,24.87668228149414,17100
2019-08-26,27.139999389648438,27.139999389648438,27.010000228881836,27.1200008392334,24.85835075378418,25800
2019-08-27,27.059999465942383,27.1200008392334,26.959999084472656,27.059999465942383,24.80335235595703,29500
2019-08-28,26.979999542236328,27.260000228881836,26.979999542236328,27.25,24.977508544921875,27400
2019-08-29,27.25,27.420000076293945,27.197999954223633,27.420000076293945,25.133331298828125,33600
2019-08-30,27.420000076293945,27.469999313354492,27.209999084472656,27.3700008392334,25.087501525878906,142500
2019-09-03,27.3700008392334,27.459999084472656,27.260000228881836,27.40999984741211,25.124164581298828,23900
2019-09-04,27.350000381469727,27.354999542236328,27.260000228881836,27.290000915527344,25.01417350769043,53000
2019-09-05,27.489999771118164,27.489999771118164,26.940000534057617,27.1299991607666,24.867515563964844,28700
2019-09-06,27.09000015258789,27.25,27.09000015258789,27.200000762939453,24.93168067932129,28800
2019-09-09,27.14299964904785,27.18000030517578,27.0,27.1299991607666,24.867515563964844,15200
2019-09-10,27.06399917602539,27.114999771118164,26.809999465942383,26.809999465942383,24.574201583862305,20400
2019-09-11,26.690000534057617,26.829999923706055,26.639999389648438,26.829999923706055,24.592533111572266,17600
2019-09-12,26.799999237060547,26.8799991607666,26.740999221801758,26.8799991607666,24.638362884521484,5600
2019-09-13,26.739999771118164,26.80500030517578,26.18400001525879,26.500999450683594,24.29096794128418,26500
2019-09-16,26.559999465942383,26.579999923706055,26.365999221801758,26.549999237060547,24.33588409423828,6800
2019-09-17,26.579999923706055,26.639999389648438,26.506999969482422,26.56999969482422,24.35421371459961,13800
2019-09-18,26.6299991607666,26.84000015258789,26.5049991607666,26.829999923706055,24.592533111572266,13500
2019-09-19,26.90999984741211,27.040000915527344,26.843000411987305,27.040000915527344,24.785022735595703,20800
2019-09-20,27.040000915527344,27.1299991607666,26.93000030517578,27.110000610351562,24.84918212890625,7900
2019-09-23,27.110000610351562,27.399999618530273,27.110000610351562,27.399999618530273,25.11499786376953,14300
2019-09-24,27.399999618530273,27.440000534057617,27.329999923706055,27.440000534057617,25.151660919189453,25700
2019-09-25,27.290000915527344,27.399999618530273,27.260000228881836,27.3700008392334,25.087501525878906,24200
2019-09-26,27.399999618530273,27.399999618530273,27.26099967956543,27.389999389648438,25.105833053588867,11400
2019-09-27,27.389999389648438,27.559999465942383,27.280000686645508,27.549999237060547,25.25248908996582,25300
2019-09-30,27.520000457763672,27.829999923706055,27.469999313354492,27.829999923706055,25.50914192199707,175200
2019-10-01,27.75,27.8799991607666,27.59600067138672,27.8799991607666,25.554967880249023,39100
2019-10-02,27.729999542236328,27.777000427246094,27.520000457763672,27.68000030517578,25.37164878845215,9900
2019-10-03,27.700000762939453,27.81999969482422,27.54400062561035,27.739999771118164,25.426645278930664,20900
2019-10-04,27.663999557495117,27.780000686645508,27.663999557495117,27.719999313354492,25.40831184387207,6700
2019-10-07,27.65999984741211,27.780000686645508,27.65999984741211,27.780000686645508,25.46331214904785,12600
2019-10-08,27.768999099731445,27.878000259399414,27.709999084472656,27.799999237060547,25.481639862060547,8200
2019-10-09,27.829999923706055,27.8439998626709,27.75,27.829999923706055,25.50914192199707,9900
2019-10-10,27.805999755859375,27.805999755859375,27.65999984741211,27.790000915527344,25.472475051879883,20100
2019-10-11,27.770000457763672,27.920000076293945,27.690000534057617,27.920000076293945,25.591632843017578,23100
2019-10-14,27.899999618530273,28.149999618530273,27.799999237060547,28.149999618530273,25.802453994750977,25800
2019-10-15,28.09000015258789,28.149999618530273,27.940000534057617,28.0,25.66496467590332,20500
2019-10-16,28.100000381469727,28.100000381469727,27.770000457763672,27.850000381469727,25.527469635009766,31500
2019-10-17,27.92300033569336,28.030000686645508,27.81999969482422,27.899999618530273,25.573301315307617,23000
2019-10-18,27.81999969482422,27.850000381469727,27.790000915527344,27.850000381469727,25.527469635009766,7300
2019-10-21,27.799999237060547,28.030000686645508,27.7549991607666,27.790000915527344,25.472475051879883,27000
2019-10-22,27.799999237060547,28.0,27.7549991607666,27.860000610351562,25.536638259887695,24500
2019-10-23,27.8700008392334,27.93000030517578,27.719999313354492,27.790000915527344,25.472475051879883,18500
2019-10-24,27.739999771118164,27.982999801635742,27.700000762939453,27.809999465942383,25.490806579589844,15600
2019-10-25,27.802000045776367,27.8799991607666,27.709999084472656,27.81999969482422,25.49997329711914,10400
2019-10-28,27.739999771118164,27.84600067138672,27.030000686645508,27.1299991607666,24.867515563964844,108900
2019-10-29,27.06999969482422,27.06999969482422,26.739999771118164,26.959999084472656,24.71169090270996,64000
2019-10-30,26.90999984741211,26.90999984741211,26.639999389648438,26.850000381469727,24.61086654663086,31000
2019-10-31,26.850000381469727,27.030000686645508,26.6299991607666,26.889999389648438,24.64752960205078,133100
2019-11-01,26.84000015258789,26.969999313354492,26.68000030517578,26.860000610351562,24.620031356811523,17900
2019-11-04,26.738000869750977,26.843000411987305,26.670000076293945,26.760000228881836,24.528369903564453,7400
2019-11-05,26.690000534057617,26.708999633789062,26.5,26.65999984741211,24.436708450317383,9300
2019-11-06,26.559999465942383,26.670000076293945,26.469999313354492,26.469999313354492,24.262554168701172,23000
2019-11-07,26.549999237060547,26.549999237060547,26.332000732421875,26.43000030517578,24.225893020629883,11400
2019-11-08,26.489999771118164,26.6200008392334,26.29599952697754,26.6200008392334,24.400049209594727,9400
2019-11-11,26.517000198364258,26.600000381469727,26.479999542236328,26.540000915527344,24.326719284057617,6600
2019-11-12,26.600000381469727,26.639999389648438,26.506999969482422,26.639999389648438,24.418378829956055,16900
2019-11-13,26.639999389648438,26.81999969482422,26.639999389648438,26.81999969482422,24.583370208740234,11700
2019-11-14,26.5,26.729999542236328,26.5,26.729999542236328,24.804218292236328,15800
2019-11-15,26.639999389648438,26.719999313354492,26.43000030517578,26.700000762939453,24.77638053894043,7300
2019-11-18,26.569000244140625,26.690000534057617,26.549999237060547,26.579999923706055,24.66502571105957,19100
2019-11-19,26.56999969482422,26.75,26.488000869750977,26.75,24.82278060913086,21000
2019-11-20,26.610000610351562,26.68000030517578,26.510000228881836,26.68000030517578,24.757823944091797,11500
2019-11-21,26.579999923706055,26.709999084472656,26.450000762939453,26.6200008392334,24.702144622802734,10500
2019-11-22,26.709999084472656,26.709999084472656,26.420000076293945,26.440000534057617,24.53511619567871,16700
2019-11-25,26.402000427246094,26.530000686645508,26.34000015258789,26.389999389648438,24.48871421813965,6700
2019-11-26,26.43000030517578,26.43000030517578,26.09000015258789,26.149999618530273,24.266006469726562,15700
2019-11-27,26.309999465942383,26.309999465942383,25.889999389648438,25.889999389648438,24.024738311767578,18800
2019-11-29,25.989999771118164,25.989999771118164,25.729999542236328,25.760000228881836,23.904104232788086,66500
2019-12-02,25.81999969482422,25.834999084472656,25.399999618530273,25.549999237060547,23.709232330322266,30600
2019-12-03,25.479999542236328,25.610000610351562,25.469999313354492,25.549999237060547,23.709232330322266,20800
2019-12-04,25.510000228881836,25.68000030517578,25.510000228881836,25.68000030517578,23.829866409301758,36400
2019-12-05,25.690000534057617,25.690000534057617,25.399999618530273,25.440000534057617,23.607158660888672,16300
2019-12-06,25.399999618530273,25.533000946044922,25.389999389648438,25.5,23.6628360748291,12900
2019-12-09,25.489999771118164,25.5939998626709,25.488000869750977,25.59000015258789,23.746353149414062,17700
2019-12-10,25.559999465942383,25.600000381469727,25.549999237060547,25.57699966430664,23.734291076660156,10300
2019-12-11,25.579999923706055,25.850000381469727,25.579999923706055,25.790000915527344,23.93194580078125,8000
2019-12-12,25.799999237060547,25.93000030517578,25.75,25.899999618530273,24.034015655517578,27500
2019-12-13,25.850000381469727,26.329999923706055,25.850000381469727,26.260000228881836,24.368080139160156,11400
2019-12-16,26.1299991607666,26.334999084472656,26.1299991607666,26.31999969482422,24.42375946044922,11900
2019-12-17,26.43000030517578,26.524999618530273,26.392000198364258,26.4950008392334,24.586153030395508,15700
2019-12-18,26.538000106811523,26.770000457763672,26.459999084472656,26.770000457763672,24.841341018676758,18400
2019-12-19,26.65999984741211,26.81399917602539,26.527000427246094,26.81399917602539,24.882165908813477,7400
2019-12-20,26.75,26.850000381469727,26.6299991607666,26.825000762939453,24.892375946044922,12300
2019-12-23,26.850000381469727,26.850000381469727,26.768999099731445,26.850000381469727,24.91557502746582,9200
2019-12-24,26.850000381469727,26.920000076293945,26.66699981689453,26.920000076293945,24.980533599853516,4500
2019-12-26,26.920000076293945,27.0,26.790000915527344,26.84000015258789,24.906293869018555,8900
2019-12-27,26.84000015258789,26.920000076293945,26.280000686645508,26.889999389648438,24.952693939208984,13400
2019-12-30,26.729999542236328,26.820999145507812,26.489999771118164,26.520000457763672,24.609352111816406,11800
2019-12-31,26.510000228881836,26.8799991607666,26.420000076293945,26.440000534057617,24.53511619567871,24300
2020-01-02,26.440000534057617,26.75,26.440000534057617,26.75,24.82278060913086,19700
2020-01-03,26.610000610351562,26.79599952697754,26.610000610351562,26.649999618530273,24.729982376098633,66000
2020-01-06,26.68000030517578,26.68000030517578,26.56999969482422,26.649999618530273,24.729982376098633,14600
2020-01-07,26.729999542236328,26.739999771118164,26.582000732421875,26.649999618530273,24.729982376098633,11600
2020-01-08,26.639999389648438,26.68000030517578,26.597999572753906,26.670000076293945,24.7485408782959,16300
2020-01-09,26.719999313354492,26.799999237060547,26.68000030517578,26.799999237060547,24.869178771972656,7300
2020-01-10,26.889999389648438,26.90999984741211,26.885000228881836,26.885000228881836,24.94805335998535,8900
2020-01-13,26.770000457763672,26.979999542236328,26.770000457763672,26.979999542236328,25.03620719909668,14700
2020-01-14,26.979999542236328,27.079999923706055,26.885000228881836,26.989999771118164,25.045488357543945,16100
2020-01-15,27.04599952697754,27.06999969482422,26.920000076293945,27.030000686645508,25.08260726928711,5700
2020-01-16,26.959999084472656,27.139999389648438,26.959999084472656,26.979999542236328,25.03620719909668,20600
2020-01-17,27.15999984741211,27.15999984741211,26.8799991607666,26.90999984741211,24.97125244140625,9900
2020-01-21,26.989999771118164,26.989999771118164,26.649999618530273,26.649999618530273,24.729982376098633,19400
2020-01-22,26.649999618530273,26.695999145507812,26.56999969482422,26.649999618530273,24.729982376098633,21100
2020-01-23,26.545000076293945,26.65999984741211,26.489999771118164,26.489999771118164,24.581512451171875,10200
2020-01-24,26.540000915527344,26.549999237060547,26.464000701904297,26.464000701904297,24.557384490966797,9400
2020-01-27,26.360000610351562,26.5310001373291,26.360000610351562,26.5,24.590791702270508,3800
2020-01-28,26.43000030517578,26.43899917602539,26.375999450683594,26.420000076293945,24.516555786132812,11500
2020-01-29,26.3799991607666,26.489999771118164,26.3799991607666,26.489999771118164,24.581512451171875,6300
2020-01-30,26.350000381469727,26.549999237060547,26.350000381469727,26.549999237060547,24.637189865112305,8900
2020-01-31,26.6299991607666,26.719999313354492,26.59000015258789,26.59000015258789,24.674306869506836,20000
2020-02-03,26.709999084472656,26.760000228881836,26.65999984741211,26.760000228881836,24.832059860229492,11300
2020-02-04,26.760000228881836,26.82900047302246,26.674999237060547,26.770000457763672,24.841341018676758,12500
2020-02-05,26.899999618530273,26.899999618530273,26.770000457763672,26.8700008392334,24.93413543701172,12500
2020-02-06,26.8700008392334,26.889999389648438,26.709999084472656,26.8700008392334,24.93413543701172,17100
2020-02-07,26.8799991607666,27.09000015258789,26.850000381469727,27.06999969482422,25.11972427368164,21700
2020-02-10,26.979999542236328,27.079999923706055,26.944000244140625,27.049999237060547,25.101165771484375,8400
2020-02-11,26.950000762939453,27.09000015258789,26.950000762939453,27.09000015258789,25.13828468322754,9500
2020-02-12,27.09000015258789,27.18000030517578,27.0,27.059999465942383,25.110445022583008,15100
2020-02-13,26.959999084472656,26.959999084472656,26.729999542236328,26.850000381469727,24.91557502746582,8200
2020-02-14,26.790000915527344,26.940000534057617,26.790000915527344,26.940000534057617,24.99909019470215,6300
2020-02-18,26.93000030517578,26.93000030517578,26.739999771118164,26.799999237060547,24.869178771972656,7900
2020-02-19,26.770000457763672,26.770000457763672,26.459999084472656,26.459999084472656,24.553672790527344,41800
2020-02-20,26.510000228881836,26.649999618530273,26.371000289916992,26.520000457763672,24.609352111816406,29100
2020-02-21,26.540000915527344,26.56800079345703,26.398000717163086,26.41699981689453,24.513771057128906,9600
2020-02-24,26.459999084472656,26.465999603271484,25.989999771118164,25.989999771118164,24.117534637451172,27600
2020-02-25,26.170000076293945,26.170000076293945,25.670000076293945,25.670000076293945,23.82059097290039,30300
2020-02-26,25.700000762939453,25.966999053955078,25.43000030517578,25.81999969482422,23.95978355407715,42200
2020-02-27,25.969999313354492,25.969999313354492,25.25,25.5,23.6628360748291,27200
2020-02-28,25.549999237060547,25.551000595092773,25.049999237060547,25.100000381469727,23.29165267944336,86700
2020-03-02,25.34000015258789,25.56999969482422,25.270000457763672,25.540000915527344,23.699954986572266,20700
2020-03-03,25.56999969482422,26.298999786376953,25.450000762939453,25.549999237060547,23.709232330322266,46000
2020-03-04,26.040000915527344,26.139999389648438,25.70800018310547,26.139999389648438,24.25672721862793,32800
2020-03-05,25.951000213623047,26.089000701904297,25.940000534057617,25.950000762939453,24.08041763305664,15400
2020-03-06,25.6200008392334,26.173999786376953,25.503000259399414,25.860000610351562,23.99690055847168,49100
2020-03-09,25.440000534057617,25.440000534057617,25.1299991607666,25.264999389648438,23.444766998291016,25000
2020-03-10,25.3799991607666,25.530000686645508,25.190000534057617,25.34000015258789,23.51436424255371,21200
2020-03-11,25.15399932861328,25.420000076293945,25.020000457763672,25.270000457763672,23.449405670166016,21400
2020-03-12,24.84000015258789,24.84000015258789,22.190000534057617,23.260000228881836,21.584218978881836,65400
2020-03-13,23.850000381469727,24.56999969482422,23.600000381469727,23.600000381469727,21.89972496032715,35200
2020-03-16,22.989999771118164,23.5,22.110000610351562,22.489999771118164,20.86969566345215,73800
2020-03-17,22.950000762939453,22.989999771118164,22.489999771118164,22.530000686645508,20.906810760498047,39500
2020-03-18,22.239999771118164,22.479999542236328,17.649999618530273,18.139999389648438,16.833091735839844,81200
2020-03-19,19.0,21.440000534057617,18.172000885009766,20.510000228881836,19.032344818115234,86100
2020-03-20,20.889999389648438,22.100000381469727,20.40999984741211,20.549999237060547,19.069461822509766,33200
2020-03-23,19.549999237060547,20.59000015258789,19.0,19.5,18.095109939575195,53100
2020-03-24,20.15999984741211,21.923999786376953,20.15999984741211,21.274999618530273,19.742229461669922,37400
2020-03-25,21.530000686645508,23.989999771118164,21.530000686645508,23.950000762939453,22.224506378173828,40400
2020-03-26,23.433000564575195,24.299999237060547,23.433000564575195,24.280000686645508,22.530733108520508,16700
2020-03-27,24.06999969482422,24.22599983215332,23.200000762939453,23.959999084472656,22.233783721923828,21900
2020-03-30,24.290000915527344,24.32200050354004,23.735000610351562,24.32200050354004,22.569705963134766,18300
2020-03-31,24.459999084472656,24.459999084472656,23.950000762939453,23.969999313354492,22.243064880371094,23800
2020-04-01,23.65999984741211,23.700000762939453,23.010000228881836,23.290000915527344,21.612058639526367,34700
2020-04-02,23.110000610351562,23.420000076293945,22.933000564575195,23.420000076293945,21.732690811157227,30300
2020-04-03,23.540000915527344,23.540000915527344,23.010000228881836,23.1200008392334,21.454303741455078,17900
2020-04-06,23.389999389648438,24.040000915527344,23.389999389648438,23.709999084472656,22.00179672241211,14000
2020-04-07,24.049999237060547,24.479999542236328,24.049999237060547,24.479999542236328,22.71632194519043,23600
2020-04-08,24.6299991607666,25.0,24.1299991607666,24.579999923706055,22.809118270874023,24100
2020-04-09,25.229999542236328,25.3700008392334,24.989999771118164,25.079999923706055,23.273096084594727,30900
2020-04-13,25.0,25.0,24.5,24.59000015258789,22.81839942932129,28400
2020-04-14,24.989999771118164,25.0,24.826000213623047,24.959999084472656,23.161739349365234,11900
2020-04-15,24.799999237060547,25.0,24.6200008392334,24.899999618530273,23.106063842773438,24500
2020-04-16,25.059999465942383,25.170000076293945,24.850000381469727,25.139999389648438,23.328771591186523,14000
2020-04-17,25.209999084472656,25.420000076293945,25.110000610351562,25.420000076293945,23.588600158691406,25700
2020-04-20,25.1200008392334,25.3799991607666,25.1200008392334,25.3700008392334,23.542203903198242,19200
2020-04-21,25.100000381469727,25.34600067138672,24.93000030517578,25.149999618530273,23.33805274963379,12200
2020-04-22,25.3799991607666,25.3799991607666,25.139999389648438,25.139999389648438,23.328771591186523,9500
2020-04-23,25.139999389648438,25.420000076293945,25.139999389648438,25.420000076293945,23.588600158691406,18100
2020-04-24,25.239999771118164,25.450000762939453,25.239999771118164,25.450000762939453,23.61644172668457,10400
2020-04-27,25.450000762939453,25.520000457763672,25.33799934387207,25.510000228881836,23.672117233276367,17200
2020-04-28,25.450000762939453,25.649999618530273,25.450000762939453,25.524999618530273,23.68603515625,18600
2020-04-29,25.469999313354492,25.639999389648438,25.469999313354492,25.59000015258789,23.746353149414062,10600
2020-04-30,25.530000686645508,25.790000915527344,25.479999542236328,25.540000915527344,23.699954986572266,43000
2020-05-01,25.670000076293945,25.670000076293945,25.31999969482422,25.670000076293945,23.82059097290039,15600
2020-05-04,25.420000076293945,25.700000762939453,25.420000076293945,25.700000762939453,23.848430633544922,7200
2020-05-05,25.559999465942383,25.798999786376953,25.559999465942383,25.75,23.894824981689453,8700
2020-05-06,25.700000762939453,25.743000030517578,25.510000228881836,25.57900047302246,23.73614501953125,5000
2020-05-07,25.549999237060547,25.860000610351562,25.549999237060547,25.600000381469727,23.755634307861328,12000
2020-05-08,25.65999984741211,25.889999389648438,25.65999984741211,25.889999389648438,24.024738311767578,5400
2020-05-11,25.829999923706055,26.09000015258789,25.75,26.09000015258789,24.2103271484375,24400
2020-05-12,26.0,26.15999984741211,25.860000610351562,26.149999618530273,24.266006469726562,33400
2020-05-13,25.959999084472656,26.139999389648438,25.850000381469727,26.139999389648438,24.25672721862793,18800
2020-05-14,25.65999984741211,25.899999618530273,25.399999618530273,25.8799991607666,24.316862106323242,26100
2020-05-15,25.739999771118164,25.899999618530273,25.739999771118164,25.84000015258789,24.279277801513672,7900
2020-05-18,26.040000915527344,26.040000915527344,25.790000915527344,25.8799991607666,24.316862106323242,15100
2020-05-19,25.93000030517578,26.0,25.84000015258789,25.979999542236328,24.41082000732422,8300
2020-05-20,25.850000381469727,25.920000076293945,25.790000915527344,25.850000381469727,24.28867530822754,4300
2020-05-21,25.979999542236328,26.0,25.809999465942383,25.948999404907227,24.38169288635254,18000
2020-05-22,26.059999465942383,26.06999969482422,25.809999465942383,25.829999923706055,24.269880294799805,23000
2020-05-26,26.049999237060547,26.069000244140625,25.979999542236328,25.979999542236328,24.41082000732422,5100
2020-05-27,26.020000457763672,26.079999923706055,25.961000442504883,26.079999923706055,24.504783630371094,10800
2020-05-28,26.079999923706055,26.219999313354492,26.06999969482422,26.1200008392334,24.54236602783203,11700
2020-05-29,26.200000762939453,26.200000762939453,26.0,26.0,24.42961311340332,33500
2020-06-01,26.229999542236328,26.25,26.15999984741211,26.239999771118164,24.655115127563477,10700
2020-06-02,26.239999771118164,26.290000915527344,26.165000915527344,26.290000915527344,24.70210075378418,12800
2020-06-03,26.290000915527344,26.299999237060547,26.219999313354492,26.280000686645508,24.692703247070312,13100
2020-06-04,26.219999313354492,26.3700008392334,26.219999313354492,26.299999237060547,24.71149253845215,9300
2020-06-05,26.329999923706055,26.610000610351562,26.329999923706055,26.452999114990234,24.85525131225586,19200
2020-06-08,26.34000015258789,26.65999984741211,26.34000015258789,26.65999984741211,25.04975128173828,11600
2020-06-09,26.420000076293945,26.75,26.420000076293945,26.75,25.134313583374023,15900
2020-06-10,26.604999542236328,26.729999542236328,26.56999969482422,26.729999542236328,25.115520477294922,8300
2020-06-11,26.489999771118164,26.600000381469727,26.09000015258789,26.170000076293945,24.589345932006836,38900
2020-06-12,26.290000915527344,26.290000915527344,25.850000381469727,25.850000381469727,24.28867530822754,9200
2020-06-15,25.790000915527344,26.049999237060547,25.790000915527344,25.860000610351562,24.298070907592773,11500
2020-06-16,26.100000381469727,26.170000076293945,25.8700008392334,25.959999084472656,24.39202880859375,33600
2020-06-17,26.040000915527344,26.040000915527344,25.799999237060547,25.920000076293945,24.354448318481445,26500
2020-06-18,25.959999084472656,25.989999771118164,25.709999084472656,25.790000915527344,24.2322998046875,20500
2020-06-19,25.84000015258789,25.90999984741211,25.709999084472656,25.780000686645508,24.222902297973633,12100
2020-06-22,25.780000686645508,25.864999771118164,25.670000076293945,25.670000076293945,24.11954689025879,11300
2020-06-23,25.670000076293945,25.739999771118164,25.56999969482422,25.56999969482422,24.025585174560547,17000
2020-06-24,25.6299991607666,25.6299991607666,25.43000030517578,25.559999465942383,24.016189575195312,13000
2020-06-25,25.559999465942383,25.600000381469727,25.469999313354492,25.488000869750977,23.948537826538086,19000
2020-06-26,25.540000915527344,25.540000915527344,25.290000915527344,25.389999389648438,23.856456756591797,12800
2020-06-29,25.43000030517578,25.43000030517578,25.200000762939453,25.34000015258789,23.809476852416992,34900
2020-06-30,25.290000915527344,25.40999984741211,25.1200008392334,25.1200008392334,23.602767944335938,105000
2020-07-01,25.18000030517578,25.299999237060547,25.18000030517578,25.270000457763672,23.743703842163086,42200
2020-07-02,25.360000610351562,25.440000534057617,25.280000686645508,25.389999389648438,23.856456756591797,11900
2020-07-06,25.389999389648438,25.389999389648438,25.209999084472656,25.329999923706055,23.80008316040039,40400
2020-07-07,25.260000228881836,25.375,25.200000762939453,25.270000457763672,23.743703842163086,50700
2020-07-08,25.31999969482422,25.6200008392334,25.299999237060547,25.6200008392334,24.07256507873535,30000
2020-07-09,25.6200008392334,25.739999771118164,25.450000762939453,25.709999084472656,24.15713119506836,22900
2020-07-10,25.75,25.760000228881836,25.6200008392334,25.75,24.194713592529297,109400
2020-07-13,25.69099998474121,25.74799919128418,25.579999923706055,25.58799934387207,24.042495727539062,14000
2020-07-14,25.579999923706055,25.597000122070312,25.466999053955078,25.59000015258789,24.04437828063965,12500
2020-07-15,25.610000610351562,25.729999542236328,25.52199935913086,25.729999542236328,24.17592430114746,12300
2020-07-16,25.729999542236328,25.959999084472656,25.687999725341797,25.959999084472656,24.39202880859375,23500
2020-07-17,25.915000915527344,25.915000915527344,25.81999969482422,25.8799991607666,24.316862106323242,6500
2020-07-20,25.809999465942383,26.1299991607666,25.809999465942383,26.1299991607666,24.551761627197266,18300
2020-07-21,26.049999237060547,26.15999984741211,26.0,26.06999969482422,24.49538803100586,153700
2020-07-22,26.0,26.110000610351562,25.979999542236328,26.020000457763672,24.448406219482422,37900
2020-07-23,26.0,26.110000610351562,25.969999313354492,25.979999542236328,24.41082000732422,26000
2020-07-24,26.059999465942383,26.219999313354492,25.979999542236328,26.209999084472656,24.626928329467773,14600
2020-07-27,26.219999313354492,26.25,26.06100082397461,26.06100082397461,24.48693084716797,20300
2020-07-28,26.222999572753906,26.415000915527344,26.222999572753906,26.415000915527344,24.819547653198242,19800
2020-07-29,26.479999542236328,26.479999542236328,26.363000869750977,26.469999313354492,24.871225357055664,27000
2020-07-30,26.389999389648438,26.610000610351562,26.3799991607666,26.600000381469727,24.993371963500977,13500
2020-07-31,26.610000610351562,26.739999771118164,26.604999542236328,26.610000610351562,25.002771377563477,23500
2020-08-03,26.649999618530273,26.954999923706055,26.649999618530273,26.954999923706055,25.326932907104492,19000
2020-08-04,26.969999313354492,26.969999313354492,26.6299991607666,26.809999465942383,25.19068717956543,22300
2020-08-05,26.809999465942383,26.920000076293945,26.700000762939453,26.719999313354492,25.106124877929688,38400
2020-08-06,26.729999542236328,26.920000076293945,26.6299991607666,26.68000030517578,25.068544387817383,23000
2020-08-07,26.760000228881836,26.760000228881836,26.635000228881836,26.75,25.134313583374023,19100
2020-08-10,26.739999771118164,26.75,26.53499984741211,26.639999389648438,25.03095817565918,10500
2020-08-11,26.75,26.75,26.65999984741211,26.739999771118164,25.12491798400879,7200
2020-08-12,26.75,26.8799991607666,26.68000030517578,26.8799991607666,25.256460189819336,10800
2020-08-13,26.860000610351562,26.899999618530273,26.760000228881836,26.899999618530273,25.27525520324707,8100
2020-08-14,26.639999389648438,27.899999618530273,26.614999771118164,26.729999542236328,25.429372787475586,413600
2020-08-17,26.6299991607666,26.760000228881836,26.6299991607666,26.760000228881836,25.457914352416992,14300
2020-08-18,26.760000228881836,26.920000076293945,26.70199966430664,26.90999984741211,25.600616455078125,29400
2020-08-19,26.739999771118164,26.90999984741211,26.6200008392334,26.780000686645508,25.476940155029297,18900
2020-08-20,26.809999465942383,26.8700008392334,26.634000778198242,26.809999465942383,25.505477905273438,18900
2020-08-21,26.709999084472656,26.760000228881836,26.639999389648438,26.639999389648438,25.34375,9600
2020-08-24,26.90999984741211,26.90999984741211,26.790000915527344,26.829999923706055,25.524505615234375,13100
2020-08-25,26.899999618530273,26.899999618530273,26.56999969482422,26.649999618530273,25.35326385498047,30500
2020-08-26,26.649999618530273,26.729999542236328,26.6200008392334,26.6200008392334,25.324726104736328,22600
2020-08-27,26.6299991607666,26.889999389648438,26.600000381469727,26.760000228881836,25.457914352416992,11800
2020-08-28,26.889999389648438,26.889999389648438,26.6200008392334,26.6200008392334,25.324726104736328,11400
2020-08-31,26.600000381469727,26.649999618530273,26.56999969482422,26.56999969482422,25.277156829833984,19600
2020-09-01,26.920000076293945,26.920000076293945,26.43000030517578,26.549999237060547,25.25813102722168,48200
2020-09-02,26.6299991607666,26.729999542236328,26.510000228881836,26.729999542236328,25.429372787475586,9900
2020-09-03,26.729999542236328,26.729999542236328,26.562999725341797,26.690000534057617,25.39131736755371,15000
2020-09-04,26.709999084472656,26.709999084472656,26.510000228881836,26.530000686645508,25.239105224609375,16400
2020-09-08,26.639999389648438,26.719999313354492,26.500999450683594,26.527999877929688,25.237199783325195,10100
2020-09-09,26.55500030517578,26.709999084472656,26.520000457763672,26.639999389648438,25.34375,8300
2020-09-10,26.709999084472656,26.94099998474121,26.670000076293945,26.920000076293945,25.61012840270996,8900
2020-09-11,26.920000076293945,26.920000076293945,26.6299991607666,26.6299991607666,25.334238052368164,4800
2020-09-14,26.889999389648438,26.93000030517578,26.649999618530273,26.700000762939453,25.40083122253418,29000
2020-09-15,26.6200008392334,26.950000762939453,26.57200050354004,26.6299991607666,25.334238052368164,26500
2020-09-16,26.68400001525879,26.73200035095215,26.6200008392334,26.6200008392334,25.324726104736328,12300
2020-09-17,26.579999923706055,26.739999771118164,26.5,26.540000915527344,25.248619079589844,17600
2020-09-18,26.5,26.594999313354492,26.389999389648438,26.440000534057617,25.153486251831055,14800
2020-09-21,26.299999237060547,26.489999771118164,26.09000015258789,26.1200008392334,24.84905433654785,20100
2020-09-22,26.299999237060547,26.559999465942383,26.219999313354492,26.559999465942383,25.267642974853516,40000
2020-09-23,26.510000228881836,26.579999923706055,26.209999084472656,26.270999908447266,24.992706298828125,24300
2020-09-24,26.489999771118164,26.489999771118164,26.260000228881836,26.459999084472656,25.172508239746094,6100
2020-09-25,26.479999542236328,26.799999237060547,26.468000411987305,26.799999237060547,25.4959659576416,8200
2020-09-28,26.799999237060547,26.90999984741211,26.610000610351562,26.719999313354492,25.419858932495117,26800
2020-09-29,26.690000534057617,26.711000442504883,26.600000381469727,26.65999984741211,25.36277961730957,17600
2020-09-30,26.649999618530273,26.65999984741211,26.3799991607666,26.3799991607666,25.09640121459961,73300
2020-10-01,26.68000030517578,26.75,26.350000381469727,26.719999313354492,25.419858932495117,16700
2020-10-02,26.709999084472656,26.760000228881836,26.600000381469727,26.75,25.44839859008789,31000
2020-10-05,26.639999389648438,26.93000030517578,26.639999389648438,26.90999984741211,25.600616455078125,8100
2020-10-06,26.93000030517578,26.989999771118164,26.5,26.59000015258789,25.296184539794922,47500
2020-10-07,26.559999465942383,26.770000457763672,26.510000228881836,26.584999084472656,25.291425704956055,38400
2020-10-08,26.600000381469727,26.760000228881836,26.579999923706055,26.59000015258789,25.296184539794922,19800
2020-10-09,26.75,26.809999465942383,26.709999084472656,26.809999465942383,25.505477905273438,6600
2020-10-12,26.850000381469727,27.0,26.819000244140625,27.0,25.686235427856445,11000
2020-10-13,26.81999969482422,26.979999542236328,26.81999969482422,26.90999984741211,25.600616455078125,38800
2020-10-14,26.719999313354492,26.976999282836914,26.719999313354492,26.739999771118164,25.438884735107422,8900
2020-10-15,26.739999771118164,26.93000030517578,26.739999771118164,26.93000030517578,25.619638442993164,11900
2020-10-16,26.8700008392334,26.979999542236328,26.825000762939453,26.854999542236328,25.548290252685547,34400
2020-10-19,26.920000076293945,26.9689998626709,26.65999984741211,26.81999969482422,25.514991760253906,40400
2020-10-20,26.899999618530273,26.899999618530273,26.742000579833984,26.889999389648438,25.581586837768555,8200
2020-10-21,26.889999389648438,26.889999389648438,26.43000030517578,26.549999237060547,25.25813102722168,15600
2020-10-22,26.68000030517578,26.84000015258789,26.600000381469727,26.84000015258789,25.534019470214844,11400
2020-10-23,26.889999389648438,26.889999389648438,26.670000076293945,26.799999237060547,25.4959659576416,62200
2020-10-26,26.649999618530273,26.81999969482422,26.649999618530273,26.799999237060547,25.4959659576416,6100
2020-10-27,26.709999084472656,26.81999969482422,26.709999084472656,26.81999969482422,25.514991760253906,18100
2020-10-28,26.700000762939453,26.739999771118164,26.25,26.25,24.972728729248047,15700
2020-10-29,26.260000228881836,26.579999923706055,26.25,26.360000610351562,25.077375411987305,19700
2020-10-30,26.270000457763672,26.65999984741211,26.270000457763672,26.56999969482422,25.277156829833984,49000
2020-11-02,26.65999984741211,26.68000030517578,26.59000015258789,26.6200008392334,25.324726104736328,12900
2020-11-03,26.649999618530273,26.799999237060547,26.6200008392334,26.6200008392334,25.324726104736328,7400
2020-11-04,26.649999618530273,26.989999771118164,26.649999618530273,26.950000762939453,25.6386661529541,9200
2020-11-05,26.989999771118164,27.149999618530273,26.94700050354004,27.1299991607666,25.809907913208008,19200
2020-11-06,27.1299991607666,27.1299991607666,26.882999420166016,26.93000030517578,25.619638442993164,8400
2020-11-09,27.219999313354492,27.329999923706055,26.889999389648438,27.209999084472656,25.886016845703125,34700
2020-11-10,27.280000686645508,27.329999923706055,27.104999542236328,27.31999969482422,25.990663528442383,15100
2020-11-11,27.31999969482422,27.34000015258789,27.089000701904297,27.329999923706055,26.00017738342285,14500
2020-11-12,27.329999923706055,27.329999923706055,27.165000915527344,27.260000228881836,25.933584213256836,10300
2020-11-13,26.950000762939453,27.016000747680664,26.799999237060547,26.84000015258789,25.844993591308594,14900
2020-11-16,26.790000915527344,27.110000610351562,26.645000457763672,26.989999771118164,25.98943328857422,28800
2020-11-17,26.93000030517578,27.239999771118164,26.93000030517578,27.209999084472656,26.201276779174805,16100
2020-11-18,27.219999313354492,27.219999313354492,27.059999465942383,27.059999465942383,26.056838989257812,9800
2020-11-19,27.059999465942383,27.200000762939453,26.9950008392334,27.020000457763672,26.018320083618164,21900
2020-11-20,27.020000457763672,27.1560001373291,26.969999313354492,26.989999771118164,25.98943328857422,7300
2020-11-23,26.969999313354492,27.260000228881836,26.969999313354492,27.149999618530273,26.14350128173828,8800
2020-11-24,27.260000228881836,27.34000015258789,27.15999984741211,27.18000030517578,26.17238998413086,13300
2020-11-25,27.260000228881836,27.290000915527344,27.079999923706055,27.149999618530273,26.14350128173828,21000
2020-11-27,27.242000579833984,27.242000579833984,27.1200008392334,27.15999984741211,26.15313148498535,4600
2020-11-30,27.219999313354492,27.233999252319336,27.06999969482422,27.079999923706055,26.07609748840332,30500
2020-12-01,27.229999542236328,27.239999771118164,27.14900016784668,27.219999313354492,26.210906982421875,10200
2020-12-02,27.1299991607666,27.229999542236328,27.1299991607666,27.21500015258789,26.206092834472656,17800
2020-12-03,27.139999389648438,27.229999542236328,27.100000381469727,27.229999542236328,26.220535278320312,9400
2020-12-04,27.219999313354492,27.290000915527344,27.219999313354492,27.270000457763672,26.259052276611328,14700
2020-12-07,27.290000915527344,27.34000015258789,27.139999389648438,27.200000762939453,26.191648483276367,21500
2020-12-08,27.18000030517578,27.290000915527344,27.15999984741211,27.260000228881836,26.249422073364258,21200
2020-12-09,27.200000762939453,27.280000686645508,27.200000762939453,27.280000686645508,26.2686824798584,16000
2020-12-10,27.229999542236328,27.277000427246094,27.139999389648438,27.219999313354492,26.210906982421875,18500
2020-12-11,27.18000030517578,27.229999542236328,27.139999389648438,27.149999618530273,26.14350128173828,16700
2020-12-14,27.149999618530273,27.270000457763672,27.010000228881836,27.149999618530273,26.14350128173828,26200
2020-12-15,27.149999618530273,27.209999084472656,27.097999572753906,27.170000076293945,26.16275978088379,26800
2020-12-16,27.155000686645508,27.214000701904297,27.040000915527344,27.200000762939453,26.191648483276367,24500
2020-12-17,27.200000762939453,27.25,26.920000076293945,27.040000915527344,26.037580490112305,47700
2020-12-18,27.1299991607666,27.280000686645508,27.05500030517578,27.280000686645508,26.2686824798584,12900
2020-12-21,27.139999389648438,27.309999465942383,27.139999389648438,27.309999465942383,26.297569274902344,20400
2020-12-22,27.309999465942383,27.489999771118164,27.149999618530273,27.18000030517578,26.17238998413086,30200
2020-12-23,27.290000915527344,27.329999923706055,27.15999984741211,27.219999313354492,26.210906982421875,14500
2020-12-24,27.280000686645508,27.389999389648438,27.170000076293945,27.34000015258789,26.326457977294922,24000
2020-12-28,27.3700008392334,27.3700008392334,27.229999542236328,27.229999542236328,26.220535278320312,29600
2020-12-29,27.229999542236328,27.309999465942383,27.229999542236328,27.280000686645508,26.2686824798584,11700
2020-12-30,27.200000762939453,27.329999923706055,27.09000015258789,27.25,26.239795684814453,22800
