Date,Open,High,Low,Close,Adj Close,Volume
2018-10-18,23.969999313354492,24.0,23.81999969482422,23.90999984741211,20.423954010009766,52000
2018-10-19,23.899999618530273,24.149999618530273,23.6299991607666,23.709999084472656,20.25311279296875,120800
2018-10-22,23.75,23.950000762939453,23.639999389648438,23.84000015258789,20.364160537719727,104200
2018-10-23,23.84000015258789,23.8700008392334,23.780000686645508,23.860000610351562,20.381244659423828,84600
2018-10-24,23.8700008392334,23.979999542236328,23.850000381469727,23.90999984741211,20.423954010009766,84900
2018-10-25,24.0,24.18000030517578,23.940000534057617,24.18000030517578,20.654590606689453,134000
2018-10-26,24.100000381469727,24.149999618530273,24.0,24.09000015258789,20.57771110534668,54000
2018-10-29,24.149999618530273,24.399999618530273,24.110000610351562,24.260000228881836,20.72292709350586,62100
2018-10-30,24.389999389648438,24.389999389648438,24.200000762939453,24.350000381469727,20.799806594848633,44900
2018-10-31,24.389999389648438,24.579999923706055,24.280000686645508,24.350000381469727,20.799806594848633,80000
2018-11-01,24.440000534057617,24.489999771118164,24.31999969482422,24.399999618530273,20.842514038085938,53600
2018-11-02,24.3700008392334,24.450000762939453,24.25,24.280000686645508,20.740013122558594,39200
2018-11-05,24.309999465942383,24.389999389648438,24.260000228881836,24.350000381469727,20.799806594848633,31300
2018-11-06,24.389999389648438,24.5,24.3700008392334,24.440000534057617,20.876684188842773,48600
2018-11-07,24.450000762939453,24.459999084472656,24.31999969482422,24.31999969482422,20.77417755126953,103300
2018-11-08,24.3799991607666,24.5,24.06999969482422,24.479999542236328,20.91084861755371,88500
2018-11-09,24.469999313354492,24.540000915527344,24.350000381469727,24.540000915527344,20.962100982666016,34000
2018-11-12,24.59000015258789,24.68000030517578,24.450000762939453,24.65999984741211,21.064605712890625,43700
2018-11-13,24.68000030517578,24.700000762939453,24.510000228881836,24.690000534057617,21.090234756469727,37700
2018-11-14,24.729999542236328,24.729999542236328,24.450000762939453,24.450000762939453,20.885223388671875,49200
2018-11-15,24.450000762939453,24.5,24.1299991607666,24.40999984741211,20.851055145263672,41100
2018-11-16,24.450000762939453,24.489999771118164,24.270000457763672,24.450000762939453,20.885223388671875,26300
2018-11-19,24.440000534057617,24.440000534057617,24.280000686645508,24.389999389648438,20.83397102355957,39600
2018-11-20,24.350000381469727,24.350000381469727,24.020000457763672,24.020000457763672,20.517915725708008,53000
2018-11-21,24.18000030517578,24.18000030517578,24.020000457763672,24.030000686645508,20.526460647583008,34900
2018-11-23,24.040000915527344,24.1299991607666,24.010000228881836,24.1200008392334,20.603336334228516,3200
2018-11-26,24.139999389648438,24.139999389648438,23.889999389648438,23.940000534057617,20.449581146240234,53900
2018-11-27,23.979999542236328,24.09000015258789,23.920000076293945,23.959999084472656,20.466663360595703,42600
2018-11-28,23.860000610351562,24.059999465942383,23.809999465942383,23.920000076293945,20.432497024536133,39600
2018-11-29,24.0,24.280000686645508,23.940000534057617,24.190000534057617,20.663131713867188,43000
2018-11-30,24.15999984741211,24.239999771118164,23.84000015258789,24.079999923706055,20.569171905517578,55500
2018-12-03,24.290000915527344,24.399999618530273,24.09000015258789,24.200000762939453,20.671674728393555,51800
2018-12-04,24.270000457763672,24.360000610351562,24.0,24.0,20.50083351135254,44400
2018-12-06,24.040000915527344,24.209999084472656,23.770000457763672,24.200000762939453,20.671674728393555,52800
2018-12-07,24.200000762939453,24.440000534057617,24.170000076293945,24.440000534057617,20.876684188842773,59500
2018-12-10,24.440000534057617,24.450000762939453,24.260000228881836,24.3799991607666,20.825428009033203,32900
2018-12-11,24.309999465942383,24.389999389648438,24.209999084472656,24.280000686645508,20.740013122558594,83400
2018-12-12,24.280000686645508,24.3799991607666,24.190000534057617,24.270000457763672,20.73146629333496,58500
2018-12-13,23.959999084472656,24.09000015258789,23.81999969482422,23.81999969482422,20.639619827270508,79100
2018-12-14,23.809999465942383,23.989999771118164,23.75,23.829999923706055,20.648284912109375,42800
2018-12-17,23.90999984741211,23.93000030517578,23.809999465942383,23.829999923706055,20.648284912109375,55100
2018-12-18,23.950000762939453,24.09000015258789,23.84000015258789,24.030000686645508,20.82158088684082,77600
2018-12-19,24.030000686645508,24.059999465942383,23.75,23.809999465942383,20.630956649780273,79900
2018-12-20,23.860000610351562,23.860000610351562,23.5,23.860000610351562,20.67428207397461,66200
2018-12-21,23.75,23.959999084472656,23.600000381469727,23.889999389648438,20.700273513793945,52300
2018-12-24,23.889999389648438,23.889999389648438,23.299999237060547,23.329999923706055,20.215045928955078,36000
2018-12-26,23.770000457763672,23.780000686645508,23.40999984741211,23.43000030517578,20.30169105529785,32900
2018-12-27,23.540000915527344,23.559999465942383,23.149999618530273,23.200000762939453,20.102399826049805,58300
2018-12-28,23.6200008392334,23.799999237060547,23.34000015258789,23.440000534057617,20.31035614013672,110600
2018-12-31,23.690000534057617,23.799999237060547,23.389999389648438,23.799999237060547,20.622291564941406,200600
2019-01-02,23.709999084472656,24.149999618530273,23.709999084472656,24.110000610351562,20.890897750854492,35600
2019-01-03,24.049999237060547,24.399999618530273,24.0,24.350000381469727,21.098854064941406,40000
2019-01-04,24.350000381469727,24.649999618530273,24.18000030517578,24.280000686645508,21.0382022857666,89200
2019-01-07,24.399999618530273,24.649999618530273,24.360000610351562,24.649999618530273,21.358802795410156,66000
2019-01-08,24.65999984741211,24.850000381469727,24.610000610351562,24.850000381469727,21.53209686279297,67200
2019-01-09,24.850000381469727,24.860000610351562,24.729999542236328,24.799999237060547,21.4887752532959,65900
2019-01-10,24.75,24.950000762939453,24.6200008392334,24.93000030517578,21.60141944885254,86900
2019-01-11,24.899999618530273,24.940000534057617,24.6200008392334,24.75,21.44544792175293,98000
2019-01-14,24.739999771118164,24.90999984741211,24.65999984741211,24.700000762939453,21.40212631225586,45700
2019-01-15,24.81999969482422,24.8700008392334,24.68000030517578,24.809999465942383,21.4974365234375,60700
2019-01-16,24.719999313354492,24.850000381469727,24.530000686645508,24.540000915527344,21.263486862182617,95200
2019-01-17,24.579999923706055,24.860000610351562,24.5,24.850000381469727,21.53209686279297,61700
2019-01-18,24.8799991607666,24.93000030517578,24.670000076293945,24.920000076293945,21.592754364013672,44200
2019-01-22,24.899999618530273,24.899999618530273,24.6299991607666,24.770000457763672,21.462779998779297,72800
2019-01-23,24.770000457763672,24.81999969482422,24.739999771118164,24.790000915527344,21.480106353759766,87400
2019-01-24,24.790000915527344,24.889999389648438,24.739999771118164,24.739999771118164,21.436784744262695,60400
2019-01-25,24.899999618530273,24.90999984741211,24.770000457763672,24.829999923706055,21.5147647857666,89800
2019-01-28,24.850000381469727,24.889999389648438,24.739999771118164,24.850000381469727,21.53209686279297,136200
2019-01-29,24.899999618530273,24.899999618530273,24.809999465942383,24.899999618530273,21.575420379638672,142300
2019-01-30,24.90999984741211,24.989999771118164,24.899999618530273,24.940000534057617,21.610078811645508,241800
2019-01-31,24.979999542236328,25.1200008392334,24.959999084472656,25.0,21.662071228027344,276900
2019-02-01,24.940000534057617,24.989999771118164,24.8799991607666,24.940000534057617,21.610078811645508,56100
2019-02-04,25.020000457763672,25.020000457763672,24.950000762939453,25.010000228881836,21.670732498168945,74700
2019-02-05,25.010000228881836,25.059999465942383,24.920000076293945,25.030000686645508,21.688064575195312,543700
2019-02-06,25.059999465942383,25.059999465942383,24.8799991607666,25.010000228881836,21.670732498168945,49800
2019-02-07,25.010000228881836,25.010000228881836,24.860000610351562,25.0,21.662071228027344,72600
2019-02-08,24.989999771118164,25.049999237060547,24.950000762939453,25.040000915527344,21.696733474731445,148300
2019-02-11,25.040000915527344,25.040000915527344,24.950000762939453,25.030000686645508,21.688064575195312,51700
2019-02-12,25.040000915527344,25.049999237060547,24.920000076293945,25.040000915527344,21.696733474731445,177200
2019-02-13,25.06999969482422,25.09000015258789,24.93000030517578,25.079999923706055,21.731388092041016,209400
2019-02-14,25.06999969482422,25.06999969482422,25.0,25.059999465942383,21.71405601501465,47300
2019-02-15,25.079999923706055,25.1299991607666,24.93000030517578,25.06999969482422,21.72272300720215,193400
2019-02-19,25.100000381469727,25.15999984741211,25.0,25.149999618530273,21.792043685913086,88700
2019-02-20,25.190000534057617,25.25,25.149999618530273,25.18000030517578,21.818035125732422,83900
2019-02-21,25.200000762939453,25.239999771118164,25.110000610351562,25.139999389648438,21.78337860107422,70800
2019-02-22,25.219999313354492,25.290000915527344,25.15999984741211,25.280000686645508,21.90468978881836,49400
2019-02-25,25.200000762939453,25.239999771118164,25.139999389648438,25.18000030517578,21.818035125732422,145300
2019-02-26,25.209999084472656,25.219999313354492,25.139999389648438,25.190000534057617,21.82670021057129,81000
2019-02-27,25.270000457763672,25.290000915527344,25.149999618530273,25.25,21.87868881225586,102300
2019-02-28,25.280000686645508,25.450000762939453,25.280000686645508,25.450000762939453,22.05198860168457,270200
2019-03-01,25.3799991607666,25.420000076293945,25.25,25.420000076293945,22.025989532470703,160000
2019-03-04,25.350000381469727,25.40999984741211,25.299999237060547,25.399999618530273,22.008663177490234,86500
2019-03-05,25.399999618530273,25.459999084472656,25.309999465942383,25.459999084472656,22.06064796447754,71800
2019-03-06,25.420000076293945,25.510000228881836,25.34000015258789,25.459999084472656,22.06064796447754,83200
2019-03-07,25.40999984741211,25.520000457763672,25.299999237060547,25.459999084472656,22.06064796447754,85100
2019-03-08,25.450000762939453,25.639999389648438,25.31999969482422,25.639999389648438,22.216617584228516,49200
2019-03-11,25.639999389648438,25.639999389648438,25.469999313354492,25.600000381469727,22.181961059570312,62800
2019-03-12,25.600000381469727,25.719999313354492,25.559999465942383,25.700000762939453,22.268606185913086,43500
2019-03-13,25.440000534057617,25.559999465942383,25.34000015258789,25.559999465942383,22.454851150512695,65000
2019-03-14,25.559999465942383,25.600000381469727,25.450000762939453,25.559999465942383,22.454851150512695,55000
2019-03-15,25.56999969482422,25.6299991607666,25.459999084472656,25.59000015258789,22.48120880126953,80800
2019-03-18,25.579999923706055,25.68000030517578,25.40999984741211,25.479999542236328,22.384572982788086,110200
2019-03-19,25.479999542236328,25.56999969482422,25.3700008392334,25.40999984741211,22.323076248168945,73800
2019-03-20,25.450000762939453,25.450000762939453,25.360000610351562,25.399999618530273,22.314289093017578,34700
2019-03-21,25.420000076293945,25.469999313354492,25.329999923706055,25.40999984741211,22.323076248168945,116500
2019-03-22,25.440000534057617,25.5,25.399999618530273,25.43000030517578,22.340646743774414,44700
2019-03-25,25.440000534057617,25.450000762939453,25.049999237060547,25.190000534057617,22.129798889160156,407400
2019-03-26,25.25,25.31999969482422,25.15999984741211,25.31999969482422,22.244009017944336,106600
2019-03-27,25.329999923706055,25.40999984741211,25.299999237060547,25.389999389648438,22.305503845214844,87900
2019-03-28,25.43000030517578,25.5,25.389999389648438,25.5,22.402143478393555,103100
2019-03-29,25.510000228881836,25.540000915527344,25.399999618530273,25.489999771118164,22.393356323242188,235500
2019-04-01,25.479999542236328,25.600000381469727,25.479999542236328,25.510000228881836,22.41092872619629,57400
2019-04-02,25.530000686645508,25.530000686645508,25.450000762939453,25.479999542236328,22.384572982788086,66400
2019-04-03,25.489999771118164,25.540000915527344,25.459999084472656,25.489999771118164,22.393356323242188,50300
2019-04-04,25.549999237060547,25.600000381469727,25.5,25.579999923706055,22.472423553466797,47600
2019-04-05,25.639999389648438,25.780000686645508,25.559999465942383,25.700000762939453,22.577844619750977,37000
2019-04-08,25.75,25.799999237060547,25.690000534057617,25.700000762939453,22.577844619750977,21400
2019-04-09,25.719999313354492,25.790000915527344,25.670000076293945,25.670000076293945,22.551490783691406,22700
2019-04-10,25.790000915527344,25.790000915527344,25.600000381469727,25.600000381469727,22.489994049072266,58600
2019-04-11,25.790000915527344,25.860000610351562,25.6299991607666,25.799999237060547,22.66569709777832,32700
2019-04-12,25.799999237060547,25.799999237060547,25.739999771118164,25.75,22.62177085876465,29400
2019-04-15,25.799999237060547,25.799999237060547,25.649999618530273,25.780000686645508,22.648128509521484,28900
2019-04-16,25.780000686645508,26.0,25.780000686645508,25.989999771118164,22.832612991333008,39800
2019-04-17,25.989999771118164,26.020000457763672,25.8700008392334,25.920000076293945,22.771116256713867,32400
2019-04-18,25.850000381469727,25.899999618530273,25.829999923706055,25.8700008392334,22.72719383239746,28600
2019-04-22,25.940000534057617,25.940000534057617,25.809999465942383,25.889999389648438,22.744762420654297,42500
2019-04-23,25.93000030517578,25.93000030517578,25.790000915527344,25.850000381469727,22.709623336791992,88600
2019-04-24,25.889999389648438,25.889999389648438,25.770000457763672,25.809999465942383,22.674480438232422,43600
2019-04-25,25.93000030517578,25.93000030517578,25.790000915527344,25.860000610351562,22.71840476989746,24300
2019-04-26,25.770000457763672,25.850000381469727,25.719999313354492,25.739999771118164,22.612987518310547,27300
2019-04-29,25.799999237060547,25.829999923706055,25.75,25.799999237060547,22.66569709777832,32600
2019-04-30,25.829999923706055,25.989999771118164,25.799999237060547,25.93000030517578,22.779903411865234,250800
2019-05-01,25.969999313354492,25.969999313354492,25.809999465942383,25.899999618530273,22.7535457611084,47200
2019-05-02,25.90999984741211,25.920000076293945,25.799999237060547,25.899999618530273,22.7535457611084,48700
2019-05-03,25.899999618530273,25.899999618530273,25.84000015258789,25.8799991607666,22.735977172851562,23900
2019-05-06,25.8799991607666,25.899999618530273,25.799999237060547,25.84000015258789,22.700836181640625,25100
2019-05-07,25.84000015258789,25.889999389648438,25.799999237060547,25.8700008392334,22.72719383239746,26000
2019-05-08,25.8700008392334,25.93000030517578,25.829999923706055,25.84000015258789,22.700836181640625,31800
2019-05-09,25.8700008392334,25.93000030517578,25.84000015258789,25.920000076293945,22.771116256713867,29500
2019-05-10,25.920000076293945,26.0,25.850000381469727,25.950000762939453,22.797475814819336,32200
2019-05-13,25.8700008392334,25.93000030517578,25.8700008392334,25.93000030517578,22.779903411865234,18500
2019-05-14,25.979999542236328,26.06999969482422,25.8700008392334,26.06999969482422,22.90289306640625,40000
2019-05-15,26.110000610351562,26.389999389648438,26.09000015258789,26.389999389648438,23.184019088745117,60400
2019-05-16,26.350000381469727,26.510000228881836,26.270000457763672,26.450000762939453,23.236732482910156,43100
2019-05-17,26.280000686645508,26.469999313354492,26.25,26.309999465942383,23.113737106323242,23700
2019-05-20,26.309999465942383,26.40999984741211,26.049999237060547,26.209999084472656,23.025888442993164,58400
2019-05-21,26.200000762939453,26.290000915527344,26.09000015258789,26.239999771118164,23.05224609375,64300
2019-05-22,26.239999771118164,26.3700008392334,26.1200008392334,26.299999237060547,23.104951858520508,22900
2019-05-23,26.3700008392334,26.389999389648438,26.25,26.389999389648438,23.184019088745117,35600
2019-05-24,26.489999771118164,26.5,26.3799991607666,26.5,23.280658721923828,25900
2019-05-28,26.5,26.5,26.3799991607666,26.420000076293945,23.21037483215332,32100
2019-05-29,26.5,26.5,26.31999969482422,26.34000015258789,23.140092849731445,33900
2019-05-30,26.360000610351562,26.479999542236328,26.25,26.450000762939453,23.236732482910156,42800
2019-05-31,26.489999771118164,26.799999237060547,26.399999618530273,26.719999313354492,23.47393035888672,209500
2019-06-03,26.760000228881836,26.850000381469727,26.56999969482422,26.780000686645508,23.526643753051758,42600
2019-06-04,26.709999084472656,26.979999542236328,26.700000762939453,26.709999084472656,23.46514320373535,70800
2019-06-05,26.75,26.889999389648438,26.6200008392334,26.670000076293945,23.430002212524414,40300
2019-06-06,26.809999465942383,26.809999465942383,26.6299991607666,26.700000762939453,23.45635986328125,18400
2019-06-07,26.760000228881836,26.850000381469727,26.6200008392334,26.6200008392334,23.386079788208008,35100
2019-06-10,26.6200008392334,26.739999771118164,26.6200008392334,26.700000762939453,23.45635986328125,51300
2019-06-11,26.799999237060547,26.799999237060547,26.56999969482422,26.719999313354492,23.47393035888672,39100
2019-06-12,26.770000457763672,26.770000457763672,26.670000076293945,26.68000030517578,23.438791275024414,17700
2019-06-13,26.489999771118164,26.489999771118164,26.1200008392334,26.149999618530273,23.28032112121582,68000
2019-06-14,26.209999084472656,26.25,25.989999771118164,26.0,23.146785736083984,92900
2019-06-17,26.0,26.110000610351562,25.959999084472656,26.110000610351562,23.244712829589844,33500
2019-06-18,26.209999084472656,26.299999237060547,26.059999465942383,26.110000610351562,23.244712829589844,78800
2019-06-19,26.1299991607666,26.31999969482422,26.100000381469727,26.239999771118164,23.36044692993164,32300
2019-06-20,26.25,26.309999465942383,26.15999984741211,26.200000762939453,23.324840545654297,90400
2019-06-21,26.200000762939453,26.280000686645508,26.200000762939453,26.270000457763672,23.38715362548828,33200
2019-06-24,26.270000457763672,26.299999237060547,26.15999984741211,26.25,23.36935043334961,45000
2019-06-25,26.200000762939453,26.399999618530273,26.200000762939453,26.290000915527344,23.404964447021484,59600
2019-06-26,26.3700008392334,26.530000686645508,26.350000381469727,26.389999389648438,23.493988037109375,83900
2019-06-27,26.399999618530273,26.59000015258789,26.399999618530273,26.579999923706055,23.66313362121582,33800
2019-06-28,26.6200008392334,26.790000915527344,26.600000381469727,26.719999313354492,23.78777313232422,207900
2019-07-01,26.700000762939453,26.700000762939453,26.510000228881836,26.530000686645508,23.618621826171875,19600
2019-07-02,26.510000228881836,26.579999923706055,26.450000762939453,26.579999923706055,23.66313362121582,24400
2019-07-03,26.65999984741211,26.65999984741211,26.40999984741211,26.65999984741211,23.734355926513672,10700
2019-07-05,26.639999389648438,26.639999389648438,26.5,26.59000015258789,23.672039031982422,9400
2019-07-08,26.639999389648438,26.639999389648438,26.520000457763672,26.579999923706055,23.66313362121582,11700
2019-07-09,26.459999084472656,26.6200008392334,26.459999084472656,26.56999969482422,23.654233932495117,19700
2019-07-10,26.549999237060547,26.6200008392334,26.530000686645508,26.59000015258789,23.672039031982422,26800
2019-07-11,26.68000030517578,26.68000030517578,26.469999313354492,26.5,23.591915130615234,23000
2019-07-12,26.579999923706055,26.639999389648438,26.479999542236328,26.530000686645508,23.618621826171875,21500
2019-07-15,26.530000686645508,26.530000686645508,26.389999389648438,26.530000686645508,23.618621826171875,17200
2019-07-16,26.600000381469727,26.700000762939453,26.469999313354492,26.700000762939453,23.769968032836914,40000
2019-07-17,26.709999084472656,26.959999084472656,26.68000030517578,26.940000534057617,23.983631134033203,28600
2019-07-18,26.979999542236328,27.219999313354492,26.93000030517578,27.190000534057617,24.206192016601562,43500
2019-07-19,27.219999313354492,27.25,27.170000076293945,27.229999542236328,24.241806030273438,26000
2019-07-22,27.34000015258789,27.399999618530273,27.100000381469727,27.399999618530273,24.393152236938477,38300
2019-07-23,27.399999618530273,27.450000762939453,27.299999237060547,27.399999618530273,24.393152236938477,40700
2019-07-24,27.40999984741211,27.450000762939453,27.200000762939453,27.34000015258789,24.33973503112793,102300
2019-07-25,27.270000457763672,27.40999984741211,27.1200008392334,27.1299991607666,24.15277862548828,41400
2019-07-26,27.25,27.270000457763672,26.979999542236328,27.059999465942383,24.09046173095703,40300
2019-07-29,27.239999771118164,27.329999923706055,27.100000381469727,27.229999542236328,24.241806030273438,47300
2019-07-30,27.299999237060547,27.450000762939453,27.209999084472656,27.450000762939453,24.43766212463379,46500
2019-07-31,27.479999542236328,27.5,27.280000686645508,27.329999923706055,24.330833435058594,209600
2019-08-01,27.43000030517578,27.43000030517578,27.1299991607666,27.18000030517578,24.19729232788086,60400
2019-08-02,27.209999084472656,27.34000015258789,27.110000610351562,27.34000015258789,24.33973503112793,27900
2019-08-05,27.299999237060547,27.299999237060547,26.799999237060547,26.850000381469727,23.90350914001465,47400
2019-08-06,27.09000015258789,27.09000015258789,26.719999313354492,26.81999969482422,23.876800537109375,20600
2019-08-07,26.739999771118164,26.860000610351562,26.6299991607666,26.719999313354492,23.78777313232422,12800
2019-08-08,26.799999237060547,27.010000228881836,26.770000457763672,26.93000030517578,23.974727630615234,37100
2019-08-09,26.940000534057617,27.1200008392334,26.860000610351562,26.899999618530273,23.94801902770996,18000
2019-08-12,26.8799991607666,27.139999389648438,26.8799991607666,26.940000534057617,23.983631134033203,18400
2019-08-13,27.030000686645508,27.229999542236328,26.940000534057617,27.229999542236328,24.241806030273438,37100
2019-08-14,27.190000534057617,27.5,27.1200008392334,27.5,24.482175827026367,40500
2019-08-15,27.670000076293945,27.950000762939453,27.440000534057617,27.770000457763672,24.72254753112793,73400
2019-08-16,27.889999389648438,27.93000030517578,27.549999237060547,27.649999618530273,24.61571502685547,45900
2019-08-19,27.75,27.75,27.440000534057617,27.56999969482422,24.544496536254883,29900
2019-08-20,27.579999923706055,27.760000228881836,27.579999923706055,27.739999771118164,24.695837020874023,32900
2019-08-21,27.799999237060547,27.950000762939453,27.770000457763672,27.850000381469727,24.79376983642578,46600
2019-08-22,27.940000534057617,27.989999771118164,27.899999618530273,27.969999313354492,24.900596618652344,37800
2019-08-23,27.979999542236328,27.979999542236328,27.809999465942383,27.850000381469727,24.79376983642578,39900
2019-08-26,27.959999084472656,27.959999084472656,27.68000030517578,27.829999923706055,24.775962829589844,19600
2019-08-27,27.920000076293945,27.979999542236328,27.65999984741211,27.719999313354492,24.678035736083984,49000
2019-08-28,27.809999465942383,27.889999389648438,27.770000457763672,27.889999389648438,24.829378128051758,18700
2019-08-29,27.940000534057617,27.989999771118164,27.729999542236328,27.979999542236328,24.909500122070312,77900
2019-08-30,27.850000381469727,28.06999969482422,27.809999465942383,28.049999237060547,24.971818923950195,165200
2019-09-03,28.049999237060547,28.049999237060547,27.979999542236328,28.030000686645508,24.954011917114258,31700
2019-09-04,28.049999237060547,28.190000534057617,27.899999618530273,28.190000534057617,25.096458435058594,51100
2019-09-05,28.149999618530273,28.25,27.969999313354492,27.969999313354492,24.900596618652344,42700
2019-09-06,28.100000381469727,28.139999389648438,27.93000030517578,27.940000534057617,24.873889923095703,40400
2019-09-09,27.889999389648438,27.989999771118164,27.5,27.700000762939453,24.66023063659668,27600
2019-09-10,27.75,27.760000228881836,27.450000762939453,27.5,24.482175827026367,25300
2019-09-11,27.360000610351562,27.65999984741211,27.06999969482422,27.239999771118164,24.250709533691406,40700
2019-09-12,27.0,27.0,26.790000915527344,26.940000534057617,24.297607421875,59700
2019-09-13,26.979999542236328,26.979999542236328,26.360000610351562,26.670000076293945,24.05409049987793,60200
2019-09-16,26.790000915527344,26.790000915527344,26.440000534057617,26.559999465942383,23.954879760742188,43600
2019-09-17,26.68000030517578,26.799999237060547,26.610000610351562,26.780000686645508,24.153301239013672,38100
2019-09-18,26.8700008392334,27.079999923706055,26.81999969482422,26.989999771118164,24.342702865600586,57600
2019-09-19,27.100000381469727,27.200000762939453,27.010000228881836,27.09000015258789,24.432897567749023,58300
2019-09-20,27.100000381469727,27.3700008392334,27.06999969482422,27.25,24.577199935913086,33200
2019-09-23,27.350000381469727,27.489999771118164,27.25,27.489999771118164,24.79366111755371,49800
2019-09-24,27.530000686645508,27.610000610351562,27.40999984741211,27.5,24.80267906188965,34700
2019-09-25,27.56999969482422,27.56999969482422,27.239999771118164,27.350000381469727,24.667394638061523,142600
2019-09-26,27.350000381469727,27.350000381469727,27.25,27.299999237060547,24.622299194335938,91500
2019-09-27,27.329999923706055,27.420000076293945,27.25,27.420000076293945,24.730525970458984,116100
2019-09-30,27.350000381469727,27.540000915527344,27.350000381469727,27.459999084472656,24.766603469848633,234900
2019-10-01,27.389999389648438,27.479999542236328,27.329999923706055,27.450000762939453,24.757587432861328,14700
2019-10-02,27.329999923706055,27.440000534057617,27.200000762939453,27.34000015258789,24.658374786376953,23100
2019-10-03,27.43000030517578,27.440000534057617,27.3700008392334,27.440000534057617,24.748565673828125,9900
2019-10-04,27.440000534057617,27.6200008392334,27.399999618530273,27.600000381469727,24.89287567138672,18500
2019-10-07,27.6299991607666,27.6299991607666,27.399999618530273,27.459999084472656,24.766603469848633,18200
2019-10-08,27.399999618530273,27.530000686645508,27.389999389648438,27.479999542236328,24.784643173217773,25900
2019-10-09,27.530000686645508,27.549999237060547,27.489999771118164,27.520000457763672,24.82071876525879,35800
2019-10-10,27.549999237060547,27.549999237060547,27.399999618530273,27.510000228881836,24.81170082092285,16500
2019-10-11,27.489999771118164,27.649999618530273,27.299999237060547,27.43000030517578,24.73954963684082,41900
2019-10-14,27.350000381469727,27.649999618530273,27.350000381469727,27.649999618530273,24.93796730041504,40100
2019-10-15,27.649999618530273,27.65999984741211,27.479999542236328,27.540000915527344,24.83875846862793,181700
2019-10-16,27.5,27.600000381469727,27.459999084472656,27.579999923706055,24.874832153320312,25500
2019-10-17,27.6299991607666,27.6299991607666,27.329999923706055,27.469999313354492,24.775623321533203,54200
2019-10-18,27.40999984741211,27.559999465942383,27.260000228881836,27.34000015258789,24.658374786376953,43400
2019-10-21,27.299999237060547,27.43000030517578,27.280000686645508,27.34000015258789,24.658374786376953,29700
2019-10-22,27.299999237060547,27.420000076293945,27.270000457763672,27.420000076293945,24.730525970458984,19200
2019-10-23,27.420000076293945,27.5,27.420000076293945,27.479999542236328,24.784643173217773,19300
2019-10-24,27.489999771118164,27.579999923706055,27.469999313354492,27.559999465942383,24.856792449951172,19800
2019-10-25,27.559999465942383,27.559999465942383,27.520000457763672,27.540000915527344,24.83875846862793,89600
2019-10-28,27.549999237060547,27.59000015258789,27.309999465942383,27.43000030517578,24.73954963684082,34300
2019-10-29,27.450000762939453,27.450000762939453,27.1299991607666,27.209999084472656,24.54112434387207,52000
2019-10-30,27.1299991607666,27.270000457763672,26.950000762939453,27.200000762939453,24.532106399536133,55900
2019-10-31,27.200000762939453,27.31999969482422,27.09000015258789,27.200000762939453,24.532106399536133,205300
2019-11-01,27.170000076293945,27.239999771118164,27.06999969482422,27.190000534057617,24.523086547851562,37300
2019-11-04,27.190000534057617,27.190000534057617,27.09000015258789,27.100000381469727,24.441913604736328,21200
2019-11-05,27.09000015258789,27.149999618530273,27.0,27.059999465942383,24.40583610534668,15000
2019-11-06,27.079999923706055,27.1200008392334,26.93000030517578,26.93000030517578,24.288589477539062,51700
2019-11-07,26.920000076293945,26.920000076293945,26.65999984741211,26.760000228881836,24.135265350341797,34100
2019-11-08,26.770000457763672,27.100000381469727,26.719999313354492,27.049999237060547,24.396818161010742,35400
2019-11-11,26.989999771118164,27.010000228881836,26.860000610351562,26.899999618530273,24.261531829833984,25000
2019-11-12,26.950000762939453,26.950000762939453,26.790000915527344,26.860000610351562,24.225454330444336,17300
2019-11-13,26.940000534057617,27.030000686645508,26.829999923706055,26.829999923706055,24.198396682739258,28700
2019-11-14,26.989999771118164,27.06999969482422,26.860000610351562,27.06999969482422,24.414857864379883,16500
2019-11-15,26.93000030517578,27.049999237060547,26.889999389648438,26.93000030517578,24.288589477539062,24200
2019-11-18,26.959999084472656,27.010000228881836,26.850000381469727,26.889999389648438,24.252513885498047,23200
2019-11-19,26.899999618530273,27.06999969482422,26.899999618530273,26.940000534057617,24.297607421875,26000
2019-11-20,27.0,27.0,26.8799991607666,26.989999771118164,24.342702865600586,37900
2019-11-21,26.969999313354492,26.969999313354492,26.850000381469727,26.860000610351562,24.225454330444336,32500
2019-11-22,26.940000534057617,26.950000762939453,26.8799991607666,26.8799991607666,24.243494033813477,14500
2019-11-25,26.93000030517578,26.940000534057617,26.8799991607666,26.8799991607666,24.243494033813477,40500
2019-11-26,26.93000030517578,27.030000686645508,26.850000381469727,27.030000686645508,24.378780364990234,53000
2019-11-27,26.940000534057617,27.020000457763672,26.81999969482422,26.81999969482422,24.18937873840332,33700
2019-11-29,26.81999969482422,26.889999389648438,26.670000076293945,26.719999313354492,24.09918785095215,96500
2019-12-02,26.700000762939453,26.81999969482422,26.540000915527344,26.639999389648438,24.02703094482422,35200
2019-12-03,26.559999465942383,26.690000534057617,26.530000686645508,26.68000030517578,24.0631103515625,43800
2019-12-04,26.68000030517578,26.739999771118164,26.600000381469727,26.670000076293945,24.05409049987793,25100
2019-12-05,26.670000076293945,26.690000534057617,26.549999237060547,26.639999389648438,24.02703094482422,48800
2019-12-06,26.649999618530273,26.690000534057617,26.579999923706055,26.690000534057617,24.072128295898438,24700
2019-12-09,26.690000534057617,26.690000534057617,26.6299991607666,26.65999984741211,24.04507064819336,33100
2019-12-10,26.649999618530273,26.729999542236328,26.649999618530273,26.729999542236328,24.10820770263672,23600
2019-12-11,26.75,26.950000762939453,26.690000534057617,26.950000762939453,24.306629180908203,24000
2019-12-12,26.68000030517578,26.68000030517578,26.31999969482422,26.579999923706055,24.290178298950195,70900
2019-12-13,26.579999923706055,26.709999084472656,26.469999313354492,26.709999084472656,24.40897560119629,30800
2019-12-16,26.709999084472656,26.889999389648438,26.709999084472656,26.8700008392334,24.555192947387695,38400
2019-12-17,26.850000381469727,27.0,26.829999923706055,26.989999771118164,24.66485595703125,45500
2019-12-18,26.989999771118164,27.1299991607666,26.899999618530273,27.1299991607666,24.792795181274414,30700
2019-12-19,27.1299991607666,27.1299991607666,26.979999542236328,27.040000915527344,24.710548400878906,35300
2019-12-20,27.040000915527344,27.15999984741211,27.040000915527344,27.139999389648438,24.80193519592285,12500
2019-12-23,27.139999389648438,27.170000076293945,27.010000228881836,27.170000076293945,24.8293514251709,10900
2019-12-24,27.059999465942383,27.18000030517578,27.059999465942383,27.170000076293945,24.8293514251709,10300
2019-12-26,27.18000030517578,27.18000030517578,27.06999969482422,27.139999389648438,24.80193519592285,9300
2019-12-27,27.18000030517578,27.18000030517578,27.079999923706055,27.15999984741211,24.82021141052246,17200
2019-12-30,27.149999618530273,27.229999542236328,27.09000015258789,27.15999984741211,24.82021141052246,9600
2019-12-31,27.170000076293945,27.170000076293945,27.0,27.049999237060547,24.719688415527344,45600
2020-01-02,27.010000228881836,27.43000030517578,27.010000228881836,27.43000030517578,25.066951751708984,66300
2020-01-03,27.209999084472656,27.59000015258789,27.209999084472656,27.549999237060547,25.176612854003906,34100
2020-01-06,27.540000915527344,27.639999389648438,27.510000228881836,27.549999237060547,25.176612854003906,66200
2020-01-07,27.56999969482422,27.579999923706055,27.450000762939453,27.479999542236328,25.11264419555664,49200
2020-01-08,27.549999237060547,27.739999771118164,27.479999542236328,27.709999084472656,25.32282829284668,59100
2020-01-09,27.670000076293945,27.979999542236328,27.670000076293945,27.84000015258789,25.441633224487305,53800
2020-01-10,27.940000534057617,27.969999313354492,27.75,27.889999389648438,25.487323760986328,65800
2020-01-13,27.959999084472656,27.959999084472656,27.799999237060547,27.8799991607666,25.478187561035156,42500
2020-01-14,27.770000457763672,27.959999084472656,27.719999313354492,27.940000534057617,25.533016204833984,31600
2020-01-15,27.850000381469727,27.860000610351562,27.56999969482422,27.850000381469727,25.45077133178711,37300
2020-01-16,27.790000915527344,27.790000915527344,27.6299991607666,27.6299991607666,25.24972152709961,15200
2020-01-17,27.729999542236328,27.780000686645508,27.440000534057617,27.6299991607666,25.24972152709961,22600
2020-01-21,27.700000762939453,27.760000228881836,27.510000228881836,27.549999237060547,25.176612854003906,29100
2020-01-22,27.670000076293945,27.68000030517578,27.450000762939453,27.68000030517578,25.2954158782959,19800
2020-01-23,27.690000534057617,27.690000534057617,27.459999084472656,27.600000381469727,25.222307205200195,14800
2020-01-24,27.530000686645508,27.68000030517578,27.399999618530273,27.540000915527344,25.167476654052734,24000
2020-01-27,27.34000015258789,27.68000030517578,27.34000015258789,27.65999984741211,25.27713966369629,11300
2020-01-28,27.690000534057617,27.829999923706055,27.649999618530273,27.729999542236328,25.341106414794922,31700
2020-01-29,27.799999237060547,27.809999465942383,27.670000076293945,27.770000457763672,25.377662658691406,14500
2020-01-30,27.770000457763672,27.790000915527344,27.68000030517578,27.75,25.35938262939453,17100
2020-01-31,27.799999237060547,27.920000076293945,27.56999969482422,27.59000015258789,25.213167190551758,58700
2020-02-03,27.729999542236328,27.799999237060547,27.690000534057617,27.799999237060547,25.405075073242188,16000
2020-02-04,27.799999237060547,27.8700008392334,27.690000534057617,27.860000610351562,25.45990753173828,17400
2020-02-05,27.940000534057617,28.0,27.799999237060547,27.969999313354492,25.56043243408203,29700
2020-02-06,27.969999313354492,27.989999771118164,27.920000076293945,27.979999542236328,25.569570541381836,13600
2020-02-07,27.979999542236328,28.170000076293945,27.940000534057617,28.030000686645508,25.615266799926758,62100
2020-02-10,28.1200008392334,28.1200008392334,27.899999618530273,28.040000915527344,25.624404907226562,27600
2020-02-11,28.09000015258789,28.110000610351562,28.0,28.09000015258789,25.670095443725586,24300
2020-02-12,28.079999923706055,28.079999923706055,27.969999313354492,28.06999969482422,25.65182113647461,18900
2020-02-13,28.030000686645508,28.06999969482422,27.850000381469727,28.049999237060547,25.6335391998291,19100
2020-02-14,27.950000762939453,28.149999618530273,27.950000762939453,28.049999237060547,25.6335391998291,16600
2020-02-18,28.100000381469727,28.15999984741211,27.920000076293945,28.0,25.587848663330078,17400
2020-02-19,28.049999237060547,28.049999237060547,27.75,27.75,25.35938262939453,25900
2020-02-20,27.670000076293945,27.940000534057617,27.530000686645508,27.940000534057617,25.533016204833984,32100
2020-02-21,27.860000610351562,28.0,27.780000686645508,27.84000015258789,25.441633224487305,26700
2020-02-24,27.709999084472656,27.979999542236328,27.360000610351562,27.389999389648438,25.0303955078125,20600
2020-02-25,27.399999618530273,27.440000534057617,26.959999084472656,26.959999084472656,24.637439727783203,56900
2020-02-26,27.280000686645508,27.280000686645508,26.739999771118164,26.920000076293945,24.600887298583984,45500
2020-02-27,26.799999237060547,27.350000381469727,26.700000762939453,26.950000762939453,24.62830352783203,70000
2020-02-28,26.780000686645508,26.889999389648438,26.270000457763672,26.270000457763672,24.00688362121582,132900
2020-03-02,26.299999237060547,26.8700008392334,26.270000457763672,26.719999313354492,24.418113708496094,67400
2020-03-03,26.8799991607666,27.290000915527344,26.639999389648438,26.899999618530273,24.582611083984375,61800
2020-03-04,27.030000686645508,27.40999984741211,27.010000228881836,27.40999984741211,25.048673629760742,49800
2020-03-05,27.100000381469727,27.329999923706055,27.059999465942383,27.200000762939453,24.856765747070312,25900
2020-03-06,27.049999237060547,27.219999313354492,26.809999465942383,26.899999618530273,24.582611083984375,48900
2020-03-09,26.299999237060547,26.579999923706055,26.299999237060547,26.549999237060547,24.26276206970215,57700
2020-03-10,26.700000762939453,26.93000030517578,26.649999618530273,26.760000228881836,24.454669952392578,20300
2020-03-11,26.850000381469727,26.850000381469727,26.260000228881836,26.479999542236328,24.198793411254883,62600
2020-03-12,25.84000015258789,25.84000015258789,24.059999465942383,24.06999969482422,22.292749404907227,214400
2020-03-13,24.56999969482422,25.510000228881836,24.530000686645508,25.149999618530273,23.293004989624023,92700
2020-03-16,24.350000381469727,24.969999313354492,24.110000610351562,24.5,22.69099998474121,99200
2020-03-17,24.770000457763672,25.0,24.5,24.75,22.92254066467285,102200
2020-03-18,24.5,24.520000457763672,21.5,22.5,20.83867073059082,110500
2020-03-19,21.670000076293945,24.510000228881836,21.510000228881836,24.510000228881836,22.70026206970215,129600
2020-03-20,24.350000381469727,25.200000762939453,23.8700008392334,24.489999771118164,22.68173599243164,128000
2020-03-23,24.59000015258789,24.59000015258789,22.559999465942383,23.1200008392334,21.412893295288086,103300
2020-03-24,23.760000228881836,24.989999771118164,23.65999984741211,24.200000762939453,22.413148880004883,101100
2020-03-25,24.479999542236328,26.559999465942383,24.299999237060547,25.3799991607666,23.50602149963379,114000
2020-03-26,26.139999389648438,26.190000534057617,25.56999969482422,26.190000534057617,24.256216049194336,54200
2020-03-27,25.5,25.75,25.170000076293945,25.729999542236328,23.830177307128906,91200
2020-03-30,25.700000762939453,25.8700008392334,25.579999923706055,25.739999771118164,23.839441299438477,34600
2020-03-31,25.65999984741211,25.950000762939453,25.610000610351562,25.610000610351562,23.719039916992188,34800
2020-04-01,25.06999969482422,25.40999984741211,25.0,25.170000076293945,23.311527252197266,55100
2020-04-02,25.149999618530273,25.290000915527344,24.639999389648438,25.15999984741211,23.302265167236328,67900
2020-04-03,25.040000915527344,25.489999771118164,24.850000381469727,25.489999771118164,23.607900619506836,66600
2020-04-06,25.260000228881836,26.09000015258789,25.260000228881836,25.809999465942383,23.904272079467773,24000
2020-04-07,25.93000030517578,26.100000381469727,25.709999084472656,26.040000915527344,24.117290496826172,28100
2020-04-08,26.139999389648438,26.450000762939453,25.8799991607666,26.239999771118164,24.302520751953125,44000
2020-04-09,26.690000534057617,26.809999465942383,26.40999984741211,26.56999969482422,24.608156204223633,65200
2020-04-13,26.649999618530273,26.649999618530273,25.850000381469727,25.979999542236328,24.061717987060547,38500
2020-04-14,26.170000076293945,26.520000457763672,26.079999923706055,26.079999923706055,24.154335021972656,27900
2020-04-15,25.709999084472656,26.350000381469727,25.709999084472656,26.260000228881836,24.321044921875,25500
2020-04-16,26.1200008392334,26.479999542236328,26.049999237060547,26.469999313354492,24.515539169311523,22700
2020-04-17,26.56999969482422,26.700000762939453,26.329999923706055,26.489999771118164,24.534061431884766,34300
2020-04-20,26.5,26.709999084472656,26.40999984741211,26.600000381469727,24.635940551757812,22900
2020-04-21,26.59000015258789,26.59000015258789,26.219999313354492,26.450000762939453,24.497018814086914,20200
2020-04-22,26.639999389648438,26.639999389648438,26.420000076293945,26.510000228881836,24.552587509155273,44000
2020-04-23,26.520000457763672,26.709999084472656,26.469999313354492,26.68000030517578,24.710031509399414,26400
2020-04-24,26.68000030517578,26.829999923706055,26.540000915527344,26.829999923706055,24.84895896911621,24300
2020-04-27,26.670000076293945,26.899999618530273,26.670000076293945,26.799999237060547,24.8211727142334,26900
2020-04-28,26.93000030517578,26.93000030517578,26.719999313354492,26.799999237060547,24.8211727142334,24100
2020-04-29,26.950000762939453,27.15999984741211,26.920000076293945,27.15999984741211,25.154590606689453,20200
2020-04-30,27.18000030517578,27.18000030517578,26.959999084472656,27.06999969482422,25.07123565673828,50700
2020-05-01,26.90999984741211,27.110000610351562,26.90999984741211,27.079999923706055,25.08049964904785,29400
2020-05-04,26.899999618530273,27.18000030517578,26.899999618530273,27.18000030517578,25.17311668395996,18400
2020-05-05,27.239999771118164,27.239999771118164,27.030000686645508,27.030000686645508,25.034189224243164,24600
2020-05-06,27.18000030517578,27.18000030517578,26.969999313354492,27.1299991607666,25.126806259155273,17700
2020-05-07,27.18000030517578,27.18000030517578,27.049999237060547,27.09000015258789,25.08976173400879,20800
2020-05-08,27.18000030517578,27.31999969482422,27.100000381469727,27.270000457763672,25.2564697265625,14000
2020-05-11,27.31999969482422,27.40999984741211,27.200000762939453,27.329999923706055,25.312040328979492,21900
2020-05-12,27.31999969482422,27.479999542236328,27.31999969482422,27.3700008392334,25.349088668823242,11100
2020-05-13,27.440000534057617,27.440000534057617,27.079999923706055,27.170000076293945,25.163854598999023,24500
2020-05-14,27.09000015258789,27.290000915527344,26.920000076293945,27.139999389648438,25.13606834411621,23100
2020-05-15,27.18000030517578,27.219999313354492,27.06999969482422,27.15999984741211,25.154590606689453,19200
2020-05-18,27.299999237060547,27.299999237060547,27.010000228881836,27.170000076293945,25.163854598999023,12900
2020-05-19,27.1299991607666,27.25,27.049999237060547,27.18000030517578,25.17311668395996,25100
2020-05-20,27.18000030517578,27.299999237060547,27.1200008392334,27.280000686645508,25.26573371887207,33800
2020-05-21,27.190000534057617,27.389999389648438,27.190000534057617,27.389999389648438,25.36760902404785,12100
2020-05-22,27.389999389648438,27.40999984741211,27.25,27.299999237060547,25.28425407409668,11700
2020-05-26,27.5,27.6200008392334,27.3700008392334,27.479999542236328,25.450965881347656,22900
2020-05-27,27.59000015258789,27.670000076293945,27.469999313354492,27.670000076293945,25.626934051513672,19600
2020-05-28,27.670000076293945,27.790000915527344,27.510000228881836,27.649999618530273,25.60841178894043,78600
2020-05-29,27.649999618530273,27.950000762939453,27.649999618530273,27.649999618530273,25.60841178894043,35100
2020-06-01,27.649999618530273,27.950000762939453,27.649999618530273,27.940000534057617,25.87700080871582,19000
2020-06-02,27.969999313354492,27.969999313354492,27.790000915527344,27.940000534057617,25.87700080871582,18500
2020-06-03,27.889999389648438,27.979999542236328,27.799999237060547,27.979999542236328,25.914047241210938,24200
2020-06-04,27.979999542236328,28.0,27.8799991607666,28.0,25.932571411132812,16900
2020-06-05,27.950000762939453,27.969999313354492,27.809999465942383,27.8799991607666,25.821430206298828,56800
2020-06-08,27.989999771118164,27.989999771118164,27.770000457763672,27.81999969482422,25.76586151123047,41900
2020-06-09,27.81999969482422,27.829999923706055,27.56999969482422,27.65999984741211,25.61767578125,25400
2020-06-10,27.65999984741211,27.739999771118164,27.510000228881836,27.649999618530273,25.60841178894043,51200
2020-06-11,27.149999618530273,27.149999618530273,26.579999923706055,26.670000076293945,25.0192813873291,75600
2020-06-12,26.760000228881836,27.049999237060547,26.709999084472656,26.709999084472656,25.056804656982422,23500
2020-06-15,26.68000030517578,26.920000076293945,26.540000915527344,26.860000610351562,25.19752311706543,32300
2020-06-16,27.030000686645508,27.139999389648438,26.8700008392334,26.969999313354492,25.300710678100586,45600
2020-06-17,26.850000381469727,27.079999923706055,26.81999969482422,26.81999969482422,25.15999412536621,88900
2020-06-18,26.860000610351562,26.93000030517578,26.739999771118164,26.889999389648438,25.225662231445312,17300
2020-06-19,26.8700008392334,26.989999771118164,26.799999237060547,26.940000534057617,25.27256965637207,14800
2020-06-22,26.969999313354492,27.0,26.65999984741211,26.709999084472656,25.056804656982422,39900
2020-06-23,26.809999465942383,26.889999389648438,26.719999313354492,26.84000015258789,25.178760528564453,29200
2020-06-24,26.84000015258789,26.889999389648438,26.719999313354492,26.780000686645508,25.122474670410156,121800
2020-06-25,26.84000015258789,26.969999313354492,26.799999237060547,26.90999984741211,25.244426727294922,21600
2020-06-26,26.950000762939453,26.950000762939453,26.6299991607666,26.6299991607666,24.98175811767578,60900
2020-06-29,26.6299991607666,26.81999969482422,26.579999923706055,26.81999969482422,25.15999412536621,47400
2020-06-30,26.770000457763672,26.8700008392334,26.530000686645508,26.530000686645508,24.8879451751709,123600
2020-07-01,26.649999618530273,26.719999313354492,26.56999969482422,26.690000534057617,25.03804588317871,18500
2020-07-02,26.780000686645508,26.860000610351562,26.670000076293945,26.799999237060547,25.1412353515625,24100
2020-07-06,26.850000381469727,26.8799991607666,26.760000228881836,26.860000610351562,25.19752311706543,75800
2020-07-07,26.860000610351562,26.899999618530273,26.790000915527344,26.850000381469727,25.188140869140625,20100
2020-07-08,26.84000015258789,26.940000534057617,26.780000686645508,26.920000076293945,25.253808975219727,17100
2020-07-09,26.920000076293945,27.1299991607666,26.850000381469727,27.079999923706055,25.403905868530273,28600
2020-07-10,27.100000381469727,27.200000762939453,27.020000457763672,27.139999389648438,25.46019172668457,119900
2020-07-13,27.100000381469727,27.239999771118164,26.959999084472656,26.989999771118164,25.319475173950195,50600
2020-07-14,27.100000381469727,27.149999618530273,26.969999313354492,27.06999969482422,25.39452362060547,25700
2020-07-15,27.06999969482422,27.329999923706055,27.06999969482422,27.329999923706055,25.638431549072266,21000
2020-07-16,27.1200008392334,27.75,27.1200008392334,27.729999542236328,26.013673782348633,63600
2020-07-17,27.729999542236328,27.729999542236328,27.420000076293945,27.610000610351562,25.90110206604004,56300
2020-07-20,27.520000457763672,27.770000457763672,27.520000457763672,27.739999771118164,26.023052215576172,33100
2020-07-21,27.829999923706055,27.829999923706055,27.670000076293945,27.700000762939453,25.985532760620117,35700
2020-07-22,27.780000686645508,27.93000030517578,27.700000762939453,27.8700008392334,26.14501190185547,66200
2020-07-23,27.8700008392334,27.8700008392334,27.6299991607666,27.719999313354492,26.00429344177246,87200
2020-07-24,27.65999984741211,27.8799991607666,27.65999984741211,27.8700008392334,26.14501190185547,21600
2020-07-27,27.8700008392334,27.8799991607666,27.729999542236328,27.760000228881836,26.04181671142578,149600
2020-07-28,27.760000228881836,27.8700008392334,27.760000228881836,27.8700008392334,26.14501190185547,17100
2020-07-29,27.889999389648438,27.899999618530273,27.780000686645508,27.809999465942383,26.088722229003906,36200
2020-07-30,27.770000457763672,27.959999084472656,27.770000457763672,27.940000534057617,26.210676193237305,31300
2020-07-31,27.899999618530273,27.959999084472656,27.8799991607666,27.959999084472656,26.22943687438965,28300
2020-08-03,27.959999084472656,27.959999084472656,27.8700008392334,27.950000762939453,26.22005844116211,20200
2020-08-04,27.950000762939453,27.959999084472656,27.790000915527344,27.899999618530273,26.17315101623535,32400
2020-08-05,27.899999618530273,27.899999618530273,27.649999618530273,27.649999618530273,25.938623428344727,52800
2020-08-06,27.799999237060547,27.850000381469727,27.40999984741211,27.420000076293945,25.72286033630371,72700
2020-08-07,27.489999771118164,27.559999465942383,27.3799991607666,27.5,25.797908782958984,40600
2020-08-10,27.5,27.739999771118164,27.489999771118164,27.739999771118164,26.023052215576172,22100
2020-08-11,27.829999923706055,27.8700008392334,27.649999618530273,27.799999237060547,26.0793399810791,21100
2020-08-12,27.780000686645508,27.889999389648438,27.760000228881836,27.850000381469727,26.12624740600586,40100
2020-08-13,27.84000015258789,27.84000015258789,27.760000228881836,27.84000015258789,26.116865158081055,25200
2020-08-14,27.84000015258789,27.899999618530273,27.75,27.889999389648438,26.163768768310547,434700
2020-08-17,27.889999389648438,27.940000534057617,27.860000610351562,27.93000030517578,26.201297760009766,27500
2020-08-18,27.93000030517578,28.0,27.93000030517578,28.0,26.2669620513916,38700
2020-08-19,28.0,28.0,27.969999313354492,27.969999313354492,26.238815307617188,53700
2020-08-20,27.950000762939453,28.079999923706055,27.950000762939453,28.079999923706055,26.342012405395508,27900
2020-08-21,28.079999923706055,28.079999923706055,27.8700008392334,28.059999465942383,26.323246002197266,11900
2020-08-24,28.020000457763672,28.049999237060547,28.0,28.020000457763672,26.28572654724121,36300
2020-08-25,28.040000915527344,28.049999237060547,27.8799991607666,27.950000762939453,26.22005844116211,54100
2020-08-26,27.979999542236328,28.079999923706055,27.90999984741211,27.90999984741211,26.18252944946289,67200
2020-08-27,28.0,28.1200008392334,27.959999084472656,28.059999465942383,26.323246002197266,71200
2020-08-28,28.110000610351562,28.1200008392334,28.010000228881836,28.010000228881836,26.276344299316406,17900
2020-08-31,28.079999923706055,28.190000534057617,28.040000915527344,28.18000030517578,26.435821533203125,30000
2020-09-01,28.149999618530273,28.190000534057617,28.010000228881836,28.020000457763672,26.28572654724121,67200
2020-09-02,28.030000686645508,28.170000076293945,28.0,28.079999923706055,26.342012405395508,28200
2020-09-03,28.100000381469727,28.110000610351562,27.860000610351562,27.950000762939453,26.22005844116211,49800
2020-09-04,28.020000457763672,28.020000457763672,27.799999237060547,27.90999984741211,26.18252944946289,109000
2020-09-08,27.920000076293945,27.940000534057617,27.6299991607666,27.809999465942383,26.088722229003906,29700
2020-09-09,27.8799991607666,28.049999237060547,27.81999969482422,27.969999313354492,26.238815307617188,37200
2020-09-10,28.010000228881836,28.170000076293945,27.90999984741211,28.1200008392334,26.379533767700195,31900
2020-09-11,27.81999969482422,27.940000534057617,27.6200008392334,27.81999969482422,26.42893409729004,44000
2020-09-14,27.899999618530273,28.040000915527344,27.860000610351562,27.90999984741211,26.514432907104492,32800
2020-09-15,28.059999465942383,28.059999465942383,27.899999618530273,27.899999618530273,26.504934310913086,45700
2020-09-16,27.899999618530273,28.06999969482422,27.899999618530273,27.940000534057617,26.542936325073242,40300
2020-09-17,27.860000610351562,28.06999969482422,27.860000610351562,27.950000762939453,26.55243682861328,39500
2020-09-18,28.020000457763672,28.020000457763672,27.850000381469727,27.940000534057617,26.542936325073242,23800
2020-09-21,27.8700008392334,28.010000228881836,27.719999313354492,27.920000076293945,26.523935317993164,28400
2020-09-22,27.940000534057617,28.1299991607666,27.940000534057617,28.1299991607666,26.723432540893555,51300
2020-09-23,28.030000686645508,28.049999237060547,27.729999542236328,27.889999389648438,26.495433807373047,74500
2020-09-24,27.850000381469727,27.950000762939453,27.729999542236328,27.780000686645508,26.39093780517578,60500
2020-09-25,27.809999465942383,27.940000534057617,27.719999313354492,27.719999313354492,26.33393669128418,92600
2020-09-28,27.799999237060547,27.969999313354492,27.799999237060547,27.829999923706055,26.438434600830078,54200
2020-09-29,27.84000015258789,27.979999542236328,27.6200008392334,27.709999084472656,26.32443618774414,79100
2020-09-30,27.809999465942383,27.920000076293945,27.559999465942383,27.559999465942383,26.181936264038086,121400
2020-10-01,27.670000076293945,27.93000030517578,27.600000381469727,27.90999984741211,26.514432907104492,35300
2020-10-02,27.799999237060547,27.90999984741211,27.65999984741211,27.75,26.362436294555664,45200
2020-10-05,27.829999923706055,27.899999618530273,27.709999084472656,27.729999542236328,26.343435287475586,31400
2020-10-06,27.829999923706055,27.860000610351562,27.6200008392334,27.799999237060547,26.409934997558594,50900
2020-10-07,27.850000381469727,27.93000030517578,27.649999618530273,27.93000030517578,26.533437728881836,61800
2020-10-08,27.809999465942383,28.110000610351562,27.809999465942383,28.059999465942383,26.656932830810547,25200
2020-10-09,28.1299991607666,28.139999389648438,27.989999771118164,28.139999389648438,26.732934951782227,9100
2020-10-12,28.110000610351562,28.1200008392334,28.059999465942383,28.079999923706055,26.675935745239258,18700
2020-10-13,28.100000381469727,28.1299991607666,27.950000762939453,28.049999237060547,26.64743423461914,60800
2020-10-14,28.059999465942383,28.06999969482422,27.979999542236328,28.049999237060547,26.64743423461914,11300
2020-10-15,27.940000534057617,28.100000381469727,27.84000015258789,28.100000381469727,26.694936752319336,25500
2020-10-16,28.1299991607666,28.139999389648438,28.0,28.06999969482422,26.66643524169922,26200
2020-10-19,28.100000381469727,28.100000381469727,27.600000381469727,27.760000228881836,26.37193489074707,55800
2020-10-20,27.81999969482422,27.8700008392334,27.739999771118164,27.770000457763672,26.38143539428711,25300
2020-10-21,27.8700008392334,27.8700008392334,27.549999237060547,27.559999465942383,26.181936264038086,16200
2020-10-22,27.600000381469727,27.93000030517578,27.579999923706055,27.920000076293945,26.523935317993164,28400
2020-10-23,27.940000534057617,27.989999771118164,27.709999084472656,27.860000610351562,26.466938018798828,69900
2020-10-26,27.799999237060547,27.920000076293945,27.719999313354492,27.799999237060547,26.409934997558594,26600
2020-10-27,27.829999923706055,27.899999618530273,27.719999313354492,27.790000915527344,26.400436401367188,15400
2020-10-28,27.729999542236328,27.729999542236328,27.399999618530273,27.399999618530273,26.029935836791992,24700
2020-10-29,27.459999084472656,27.700000762939453,27.459999084472656,27.489999771118164,26.11543846130371,13200
2020-10-30,27.489999771118164,27.639999389648438,27.420000076293945,27.59000015258789,26.21043586730957,53100
2020-11-02,27.530000686645508,27.809999465942383,27.530000686645508,27.729999542236328,26.343435287475586,23800
2020-11-03,27.760000228881836,27.979999542236328,27.639999389648438,27.90999984741211,26.514432907104492,50700
2020-11-04,28.010000228881836,28.229999542236328,27.950000762939453,28.149999618530273,26.742435455322266,31900
2020-11-05,28.079999923706055,28.170000076293945,28.059999465942383,28.15999984741211,26.751935958862305,27100
2020-11-06,28.079999923706055,28.110000610351562,27.90999984741211,27.959999084472656,26.561933517456055,29900
2020-11-09,28.049999237060547,28.329999923706055,28.049999237060547,28.110000610351562,26.704435348510742,32400
2020-11-10,28.18000030517578,28.329999923706055,28.1200008392334,28.219999313354492,26.808935165405273,32200
2020-11-11,28.280000686645508,28.280000686645508,28.170000076293945,28.200000762939453,26.789936065673828,34300
2020-11-12,28.15999984741211,28.260000228881836,28.110000610351562,28.1200008392334,26.71393394470215,64000
2020-11-13,28.219999313354492,28.25,28.09000015258789,28.09000015258789,26.685436248779297,20800
2020-11-16,28.139999389648438,28.299999237060547,28.049999237060547,28.299999237060547,26.884933471679688,31400
2020-11-17,28.219999313354492,28.31999969482422,28.139999389648438,28.270000457763672,26.856433868408203,46400
2020-11-18,28.200000762939453,28.3799991607666,28.170000076293945,28.260000228881836,26.846935272216797,31100
2020-11-19,28.299999237060547,28.3700008392334,28.170000076293945,28.18000030517578,26.77093505859375,66400
2020-11-20,28.239999771118164,28.290000915527344,28.06999969482422,28.1299991607666,26.723432540893555,29500
2020-11-23,28.1200008392334,28.270000457763672,28.1200008392334,28.260000228881836,26.846935272216797,55400
2020-11-24,28.270000457763672,28.3799991607666,28.09000015258789,28.280000686645508,26.865934371948242,36700
2020-11-25,28.260000228881836,28.31999969482422,28.1299991607666,28.219999313354492,26.808935165405273,23600
2020-11-27,28.209999084472656,28.290000915527344,28.170000076293945,28.239999771118164,26.82793426513672,11100
2020-11-30,28.239999771118164,28.299999237060547,28.139999389648438,28.139999389648438,26.732934951782227,52000
2020-12-01,28.270000457763672,28.329999923706055,28.15999984741211,28.239999771118164,26.82793426513672,10800
2020-12-02,28.18000030517578,28.25,28.15999984741211,28.170000076293945,26.761436462402344,46700
2020-12-03,28.239999771118164,28.329999923706055,28.190000534057617,28.280000686645508,26.865934371948242,15500
2020-12-04,28.329999923706055,28.3799991607666,28.25,28.3799991607666,26.960933685302734,31400
2020-12-07,28.40999984741211,28.420000076293945,28.270000457763672,28.40999984741211,26.98943328857422,18600
2020-12-08,28.3799991607666,28.520000457763672,28.3799991607666,28.510000228881836,27.084434509277344,32600
2020-12-09,28.579999923706055,28.579999923706055,28.389999389648438,28.579999923706055,27.15093421936035,30300
2020-12-10,28.520000457763672,28.540000915527344,28.420000076293945,28.469999313354492,27.046432495117188,26600
2020-12-11,28.200000762939453,28.229999542236328,28.06999969482422,28.200000762939453,27.12531089782715,47400
2020-12-14,28.079999923706055,28.209999084472656,28.079999923706055,28.209999084472656,27.134925842285156,22700
2020-12-15,28.239999771118164,28.3799991607666,28.200000762939453,28.350000381469727,27.26959228515625,50800
2020-12-16,28.3700008392334,28.40999984741211,28.229999542236328,28.40999984741211,27.327306747436523,42900
2020-12-17,28.399999618530273,28.440000534057617,28.309999465942383,28.399999618530273,27.31768798828125,26100
2020-12-18,28.40999984741211,28.450000762939453,28.31999969482422,28.450000762939453,27.365781784057617,13700
2020-12-21,28.3799991607666,28.420000076293945,28.200000762939453,28.420000076293945,27.336925506591797,43300
2020-12-22,28.420000076293945,28.469999313354492,28.280000686645508,28.31999969482422,27.24073600769043,111100
2020-12-23,28.399999618530273,28.450000762939453,28.34000015258789,28.420000076293945,27.336925506591797,41300
2020-12-24,28.43000030517578,28.5,28.399999618530273,28.450000762939453,27.365781784057617,12300
2020-12-28,28.489999771118164,28.520000457763672,28.3799991607666,28.469999313354492,27.385019302368164,36200
2020-12-29,28.520000457763672,28.700000762939453,28.440000534057617,28.579999923706055,27.490827560424805,32500
2020-12-30,28.579999923706055,28.780000686645508,28.56999969482422,28.780000686645508,27.68320655822754,19300
