Date,Open,High,Low,Close,Adj Close,Volume
2007-12-17,86.98999786376953,86.98999786376953,86.98999786376953,86.98999786376953,86.98999786376953,23
2008-05-12,82.04000091552734,82.04000091552734,82.04000091552734,82.04000091552734,82.04000091552734,30
2008-07-29,70.5,70.5,70.5,70.5,70.5,49
2008-09-29,61.0,61.0,61.0,61.0,61.0,51
2008-10-01,58.11000061035156,58.11000061035156,58.11000061035156,58.11000061035156,58.11000061035156,12
2008-12-01,56.5,56.5,56.5,56.5,56.5,50
2008-12-15,58.70000076293945,58.70000076293945,58.70000076293945,58.70000076293945,58.70000076293945,1800
2008-12-18,58.04999923706055,58.04999923706055,58.04999923706055,58.04999923706055,58.04999923706055,200
2008-12-23,64.98999786376953,64.98999786376953,64.98999786376953,64.98999786376953,64.98999786376953,8
2010-05-07,61.02000045776367,61.02000045776367,61.02000045776367,61.02000045776367,61.02000045776367,0
2010-11-03,63.84000015258789,63.84000015258789,63.84000015258789,63.84000015258789,63.84000015258789,149
2010-11-15,60.16999816894531,60.16999816894531,60.16999816894531,60.16999816894531,60.16999816894531,20
2010-11-17,60.16999816894531,60.16999816894531,60.16999816894531,60.16999816894531,60.16999816894531,0
2011-01-21,63.099998474121094,63.099998474121094,63.099998474121094,63.099998474121094,63.099998474121094,7
2011-11-17,63.099998474121094,63.099998474121094,63.099998474121094,63.099998474121094,63.099998474121094,0
2011-11-18,63.099998474121094,63.099998474121094,63.099998474121094,63.099998474121094,63.099998474121094,0
2011-11-21,63.099998474121094,63.099998474121094,63.099998474121094,63.099998474121094,63.099998474121094,0
2011-11-22,63.099998474121094,63.099998474121094,63.099998474121094,63.099998474121094,63.099998474121094,0
2011-11-23,63.099998474121094,63.099998474121094,63.099998474121094,63.099998474121094,63.099998474121094,0
2011-11-25,63.099998474121094,63.099998474121094,63.099998474121094,63.099998474121094,63.099998474121094,0
2011-11-28,63.099998474121094,63.099998474121094,63.099998474121094,63.099998474121094,63.099998474121094,0
2011-11-29,63.099998474121094,63.099998474121094,63.099998474121094,63.099998474121094,63.099998474121094,0
2011-11-30,63.099998474121094,63.099998474121094,63.099998474121094,63.099998474121094,63.099998474121094,0
2011-12-01,63.099998474121094,63.099998474121094,63.099998474121094,63.099998474121094,63.099998474121094,0
2011-12-02,63.099998474121094,63.099998474121094,63.099998474121094,63.099998474121094,63.099998474121094,0
2011-12-05,63.099998474121094,63.099998474121094,63.099998474121094,63.099998474121094,63.099998474121094,0
2011-12-06,63.099998474121094,63.099998474121094,63.099998474121094,63.099998474121094,63.099998474121094,0
2011-12-07,63.099998474121094,63.099998474121094,63.099998474121094,63.099998474121094,63.099998474121094,0
2011-12-08,63.099998474121094,63.099998474121094,63.099998474121094,63.099998474121094,63.099998474121094,0
2011-12-09,63.099998474121094,63.099998474121094,63.099998474121094,63.099998474121094,63.099998474121094,0
2011-12-12,63.099998474121094,63.099998474121094,63.099998474121094,63.099998474121094,63.099998474121094,0
2011-12-13,63.099998474121094,63.099998474121094,63.099998474121094,63.099998474121094,63.099998474121094,0
2011-12-14,63.099998474121094,63.099998474121094,63.099998474121094,63.099998474121094,63.099998474121094,0
2011-12-15,63.099998474121094,63.099998474121094,63.099998474121094,63.099998474121094,63.099998474121094,0
2011-12-16,63.099998474121094,63.099998474121094,63.099998474121094,63.099998474121094,63.099998474121094,0
2011-12-19,63.099998474121094,63.099998474121094,63.099998474121094,63.099998474121094,63.099998474121094,0
2011-12-20,63.099998474121094,63.099998474121094,63.099998474121094,63.099998474121094,63.099998474121094,0
2011-12-21,63.099998474121094,63.099998474121094,63.099998474121094,63.099998474121094,63.099998474121094,0
2011-12-22,63.099998474121094,63.099998474121094,63.099998474121094,63.099998474121094,63.099998474121094,0
2011-12-23,63.099998474121094,63.099998474121094,63.099998474121094,63.099998474121094,63.099998474121094,0
2011-12-27,63.099998474121094,63.099998474121094,63.099998474121094,63.099998474121094,63.099998474121094,0
2011-12-28,63.099998474121094,63.099998474121094,63.099998474121094,63.099998474121094,63.099998474121094,0
2011-12-29,63.099998474121094,63.099998474121094,63.099998474121094,63.099998474121094,63.099998474121094,0
2011-12-30,63.099998474121094,63.099998474121094,63.099998474121094,63.099998474121094,63.099998474121094,0
2012-01-03,63.099998474121094,63.099998474121094,63.099998474121094,63.099998474121094,63.099998474121094,0
2012-01-04,63.099998474121094,63.099998474121094,63.099998474121094,63.099998474121094,63.099998474121094,0
2012-01-05,63.099998474121094,63.099998474121094,63.099998474121094,63.099998474121094,63.099998474121094,0
2012-01-06,63.099998474121094,63.099998474121094,63.099998474121094,63.099998474121094,63.099998474121094,0
2012-01-09,63.099998474121094,63.099998474121094,63.099998474121094,63.099998474121094,63.099998474121094,0
2012-01-10,63.099998474121094,63.099998474121094,63.099998474121094,63.099998474121094,63.099998474121094,0
2012-01-11,63.099998474121094,63.099998474121094,63.099998474121094,63.099998474121094,63.099998474121094,0
2012-01-12,63.099998474121094,63.099998474121094,63.099998474121094,63.099998474121094,63.099998474121094,0
2012-01-13,63.099998474121094,63.099998474121094,63.099998474121094,63.099998474121094,63.099998474121094,0
2012-01-17,63.099998474121094,63.099998474121094,63.099998474121094,63.099998474121094,63.099998474121094,0
2012-01-18,63.099998474121094,63.099998474121094,63.099998474121094,63.099998474121094,63.099998474121094,0
2012-01-19,63.099998474121094,63.099998474121094,63.099998474121094,63.099998474121094,63.099998474121094,0
2012-01-20,63.099998474121094,63.099998474121094,63.099998474121094,63.099998474121094,63.099998474121094,0
2012-01-23,63.099998474121094,63.099998474121094,63.099998474121094,63.099998474121094,63.099998474121094,0
2012-01-24,63.099998474121094,63.099998474121094,63.099998474121094,63.099998474121094,63.099998474121094,0
2012-01-25,63.099998474121094,63.099998474121094,63.099998474121094,63.099998474121094,63.099998474121094,0
2012-01-26,63.099998474121094,63.099998474121094,63.099998474121094,63.099998474121094,63.099998474121094,0
2012-01-27,63.099998474121094,63.099998474121094,63.099998474121094,63.099998474121094,63.099998474121094,0
2012-01-30,63.099998474121094,63.099998474121094,63.099998474121094,63.099998474121094,63.099998474121094,0
2012-01-31,63.099998474121094,63.099998474121094,63.099998474121094,63.099998474121094,63.099998474121094,0
2012-02-01,63.099998474121094,63.099998474121094,63.099998474121094,63.099998474121094,63.099998474121094,0
2012-02-02,63.099998474121094,63.099998474121094,63.099998474121094,63.099998474121094,63.099998474121094,0
2012-02-03,63.099998474121094,63.099998474121094,63.099998474121094,63.099998474121094,63.099998474121094,0
2012-02-06,63.099998474121094,63.099998474121094,63.099998474121094,63.099998474121094,63.099998474121094,0
2012-02-07,63.099998474121094,63.099998474121094,63.099998474121094,63.099998474121094,63.099998474121094,0
2012-02-08,63.099998474121094,63.099998474121094,63.099998474121094,63.099998474121094,63.099998474121094,0
2012-02-09,63.099998474121094,63.099998474121094,63.099998474121094,63.099998474121094,63.099998474121094,0
2012-02-10,63.099998474121094,63.099998474121094,63.099998474121094,63.099998474121094,63.099998474121094,0
2012-02-13,63.099998474121094,63.099998474121094,63.099998474121094,63.099998474121094,63.099998474121094,0
2012-02-14,63.099998474121094,63.099998474121094,63.099998474121094,63.099998474121094,63.099998474121094,0
2012-02-15,63.099998474121094,63.099998474121094,63.099998474121094,63.099998474121094,63.099998474121094,0
2012-02-16,63.099998474121094,63.099998474121094,63.099998474121094,63.099998474121094,63.099998474121094,0
2012-02-17,63.099998474121094,63.099998474121094,63.099998474121094,63.099998474121094,63.099998474121094,0
2012-02-21,63.099998474121094,63.099998474121094,63.099998474121094,63.099998474121094,63.099998474121094,0
2012-02-22,63.099998474121094,63.099998474121094,63.099998474121094,63.099998474121094,63.099998474121094,0
2012-02-23,63.099998474121094,63.099998474121094,63.099998474121094,63.099998474121094,63.099998474121094,0
2012-02-24,63.099998474121094,63.099998474121094,63.099998474121094,63.099998474121094,63.099998474121094,0
2012-02-27,63.099998474121094,63.099998474121094,63.099998474121094,63.099998474121094,63.099998474121094,0
2012-02-28,63.099998474121094,63.099998474121094,63.099998474121094,63.099998474121094,63.099998474121094,0
2012-02-29,63.099998474121094,63.099998474121094,63.099998474121094,63.099998474121094,63.099998474121094,0
2012-03-01,63.099998474121094,63.099998474121094,63.099998474121094,63.099998474121094,63.099998474121094,0
2012-03-02,63.099998474121094,63.099998474121094,63.099998474121094,63.099998474121094,63.099998474121094,0
2012-03-05,63.099998474121094,63.099998474121094,63.099998474121094,63.099998474121094,63.099998474121094,0
2012-03-06,63.099998474121094,63.099998474121094,63.099998474121094,63.099998474121094,63.099998474121094,0
2012-03-07,63.099998474121094,63.099998474121094,63.099998474121094,63.099998474121094,63.099998474121094,0
2012-03-08,63.099998474121094,63.099998474121094,63.099998474121094,63.099998474121094,63.099998474121094,0
2012-03-09,63.099998474121094,63.099998474121094,63.099998474121094,63.099998474121094,63.099998474121094,0
2012-03-12,63.099998474121094,63.099998474121094,63.099998474121094,63.099998474121094,63.099998474121094,0
2012-03-13,63.099998474121094,63.099998474121094,63.099998474121094,63.099998474121094,63.099998474121094,0
2012-03-14,63.099998474121094,63.099998474121094,63.099998474121094,63.099998474121094,63.099998474121094,0
2012-03-15,63.099998474121094,63.099998474121094,63.099998474121094,63.099998474121094,63.099998474121094,0
2012-03-16,63.099998474121094,63.099998474121094,63.099998474121094,63.099998474121094,63.099998474121094,0
2012-03-19,63.099998474121094,63.099998474121094,63.099998474121094,63.099998474121094,63.099998474121094,0
2012-03-20,63.099998474121094,63.099998474121094,63.099998474121094,63.099998474121094,63.099998474121094,0
2012-03-21,63.099998474121094,63.099998474121094,63.099998474121094,63.099998474121094,63.099998474121094,0
2012-03-22,63.099998474121094,63.099998474121094,63.099998474121094,63.099998474121094,63.099998474121094,0
2012-03-23,63.099998474121094,63.099998474121094,63.099998474121094,63.099998474121094,63.099998474121094,0
2012-03-26,63.099998474121094,63.099998474121094,63.099998474121094,63.099998474121094,63.099998474121094,0
2012-03-27,63.099998474121094,63.099998474121094,63.099998474121094,63.099998474121094,63.099998474121094,0
2012-03-28,63.099998474121094,63.099998474121094,63.099998474121094,63.099998474121094,63.099998474121094,0
2012-03-29,63.099998474121094,63.099998474121094,63.099998474121094,63.099998474121094,63.099998474121094,0
2012-03-30,63.099998474121094,63.099998474121094,63.099998474121094,63.099998474121094,63.099998474121094,0
2012-04-02,63.099998474121094,63.099998474121094,63.099998474121094,63.099998474121094,63.099998474121094,0
2012-04-03,63.099998474121094,63.099998474121094,63.099998474121094,63.099998474121094,63.099998474121094,0
2012-04-04,63.099998474121094,63.099998474121094,63.099998474121094,63.099998474121094,63.099998474121094,0
2012-04-05,63.099998474121094,63.099998474121094,63.099998474121094,63.099998474121094,63.099998474121094,0
2012-04-09,63.099998474121094,63.099998474121094,63.099998474121094,63.099998474121094,63.099998474121094,0
2012-04-10,63.099998474121094,63.099998474121094,63.099998474121094,63.099998474121094,63.099998474121094,0
2012-04-11,63.099998474121094,63.099998474121094,63.099998474121094,63.099998474121094,63.099998474121094,0
2012-04-12,63.099998474121094,63.099998474121094,63.099998474121094,63.099998474121094,63.099998474121094,0
2012-04-13,63.099998474121094,63.099998474121094,63.099998474121094,63.099998474121094,63.099998474121094,0
2012-04-16,63.099998474121094,63.099998474121094,63.099998474121094,63.099998474121094,63.099998474121094,0
2012-04-17,63.099998474121094,63.099998474121094,63.099998474121094,63.099998474121094,63.099998474121094,0
2012-04-18,63.099998474121094,63.099998474121094,63.099998474121094,63.099998474121094,63.099998474121094,0
2012-04-19,63.099998474121094,63.099998474121094,63.099998474121094,63.099998474121094,63.099998474121094,0
2012-04-20,63.099998474121094,63.099998474121094,63.099998474121094,63.099998474121094,63.099998474121094,0
2012-04-23,63.099998474121094,63.099998474121094,63.099998474121094,63.099998474121094,63.099998474121094,0
2012-04-24,63.099998474121094,63.099998474121094,63.099998474121094,63.099998474121094,63.099998474121094,0
2012-04-25,63.099998474121094,63.099998474121094,63.099998474121094,63.099998474121094,63.099998474121094,0
2012-04-26,63.099998474121094,63.099998474121094,63.099998474121094,63.099998474121094,63.099998474121094,0
2012-04-27,63.099998474121094,63.099998474121094,63.099998474121094,63.099998474121094,63.099998474121094,0
2012-04-30,63.099998474121094,63.099998474121094,63.099998474121094,63.099998474121094,63.099998474121094,0
2012-05-01,63.099998474121094,63.099998474121094,63.099998474121094,63.099998474121094,63.099998474121094,0
2012-05-02,63.099998474121094,63.099998474121094,63.099998474121094,63.099998474121094,63.099998474121094,0
2012-05-03,63.099998474121094,63.099998474121094,63.099998474121094,63.099998474121094,63.099998474121094,0
2012-05-04,63.099998474121094,63.099998474121094,63.099998474121094,63.099998474121094,63.099998474121094,0
2012-05-07,63.099998474121094,63.099998474121094,63.099998474121094,63.099998474121094,63.099998474121094,0
2012-05-08,63.099998474121094,63.099998474121094,63.099998474121094,63.099998474121094,63.099998474121094,0
2012-05-09,63.099998474121094,63.099998474121094,63.099998474121094,63.099998474121094,63.099998474121094,0
2012-05-10,63.099998474121094,63.099998474121094,63.099998474121094,63.099998474121094,63.099998474121094,0
2012-05-11,63.099998474121094,63.099998474121094,63.099998474121094,63.099998474121094,63.099998474121094,0
2012-05-14,63.099998474121094,63.099998474121094,63.099998474121094,63.099998474121094,63.099998474121094,0
2012-05-15,63.099998474121094,63.099998474121094,63.099998474121094,63.099998474121094,63.099998474121094,0
2012-05-16,63.099998474121094,63.099998474121094,63.099998474121094,63.099998474121094,63.099998474121094,0
2012-05-17,63.099998474121094,63.099998474121094,63.099998474121094,63.099998474121094,63.099998474121094,0
2012-05-18,63.099998474121094,63.099998474121094,63.099998474121094,63.099998474121094,63.099998474121094,0
2012-05-21,63.099998474121094,63.099998474121094,63.099998474121094,63.099998474121094,63.099998474121094,0
2012-05-22,63.099998474121094,63.099998474121094,63.099998474121094,63.099998474121094,63.099998474121094,0
2012-05-23,63.099998474121094,63.099998474121094,63.099998474121094,63.099998474121094,63.099998474121094,0
2012-05-24,63.099998474121094,63.099998474121094,63.099998474121094,63.099998474121094,63.099998474121094,0
2012-05-25,63.099998474121094,63.099998474121094,63.099998474121094,63.099998474121094,63.099998474121094,0
2012-05-29,63.099998474121094,63.099998474121094,63.099998474121094,63.099998474121094,63.099998474121094,0
2012-05-30,63.099998474121094,63.099998474121094,63.099998474121094,63.099998474121094,63.099998474121094,0
2012-05-31,63.099998474121094,63.099998474121094,63.099998474121094,63.099998474121094,63.099998474121094,0
2012-06-01,63.099998474121094,63.099998474121094,63.099998474121094,63.099998474121094,63.099998474121094,0
2012-06-04,63.099998474121094,63.099998474121094,63.099998474121094,63.099998474121094,63.099998474121094,0
2012-06-05,63.099998474121094,63.099998474121094,63.099998474121094,63.099998474121094,63.099998474121094,0
2012-06-06,63.099998474121094,63.099998474121094,63.099998474121094,63.099998474121094,63.099998474121094,0
2012-06-07,63.099998474121094,63.099998474121094,63.099998474121094,63.099998474121094,63.099998474121094,0
2012-06-08,63.099998474121094,63.099998474121094,63.099998474121094,63.099998474121094,63.099998474121094,0
2012-06-11,63.099998474121094,63.099998474121094,63.099998474121094,63.099998474121094,63.099998474121094,0
2012-06-12,63.099998474121094,63.099998474121094,63.099998474121094,63.099998474121094,63.099998474121094,0
2012-06-13,63.099998474121094,63.099998474121094,63.099998474121094,63.099998474121094,63.099998474121094,0
2012-06-14,63.099998474121094,63.099998474121094,63.099998474121094,63.099998474121094,63.099998474121094,0
2012-06-15,63.099998474121094,63.099998474121094,63.099998474121094,63.099998474121094,63.099998474121094,0
2012-06-18,63.099998474121094,63.099998474121094,63.099998474121094,63.099998474121094,63.099998474121094,0
2012-06-19,63.099998474121094,63.099998474121094,63.099998474121094,63.099998474121094,63.099998474121094,0
2012-06-20,63.099998474121094,63.099998474121094,63.099998474121094,63.099998474121094,63.099998474121094,0
2012-06-21,63.099998474121094,63.099998474121094,63.099998474121094,63.099998474121094,63.099998474121094,0
2012-06-22,63.099998474121094,63.099998474121094,63.099998474121094,63.099998474121094,63.099998474121094,0
2012-06-25,63.099998474121094,63.099998474121094,63.099998474121094,63.099998474121094,63.099998474121094,0
2012-06-26,63.099998474121094,63.099998474121094,63.099998474121094,63.099998474121094,63.099998474121094,0
2012-06-27,63.099998474121094,63.099998474121094,63.099998474121094,63.099998474121094,63.099998474121094,0
2012-06-28,63.099998474121094,63.099998474121094,63.099998474121094,63.099998474121094,63.099998474121094,0
2012-06-29,63.099998474121094,63.099998474121094,63.099998474121094,63.099998474121094,63.099998474121094,0
2012-07-02,63.099998474121094,63.099998474121094,63.099998474121094,63.099998474121094,63.099998474121094,0
2012-07-03,63.099998474121094,63.099998474121094,63.099998474121094,63.099998474121094,63.099998474121094,0
2012-07-05,63.099998474121094,63.099998474121094,63.099998474121094,63.099998474121094,63.099998474121094,0
2012-07-06,63.099998474121094,63.099998474121094,63.099998474121094,63.099998474121094,63.099998474121094,0
2012-07-09,63.099998474121094,63.099998474121094,63.099998474121094,63.099998474121094,63.099998474121094,0
2012-07-10,63.099998474121094,63.099998474121094,63.099998474121094,63.099998474121094,63.099998474121094,0
2012-07-11,63.099998474121094,63.099998474121094,63.099998474121094,63.099998474121094,63.099998474121094,0
2012-07-12,63.099998474121094,63.099998474121094,63.099998474121094,63.099998474121094,63.099998474121094,0
2012-07-13,63.099998474121094,63.099998474121094,63.099998474121094,63.099998474121094,63.099998474121094,0
2012-07-16,63.099998474121094,63.099998474121094,63.099998474121094,63.099998474121094,63.099998474121094,0
2012-07-17,63.099998474121094,63.099998474121094,63.099998474121094,63.099998474121094,63.099998474121094,0
2012-07-18,63.099998474121094,63.099998474121094,63.099998474121094,63.099998474121094,63.099998474121094,0
2012-07-19,63.099998474121094,63.099998474121094,63.099998474121094,63.099998474121094,63.099998474121094,0
2012-07-20,63.099998474121094,63.099998474121094,63.099998474121094,63.099998474121094,63.099998474121094,0
2012-07-23,63.099998474121094,63.099998474121094,63.099998474121094,63.099998474121094,63.099998474121094,0
2012-07-24,63.099998474121094,63.099998474121094,63.099998474121094,63.099998474121094,63.099998474121094,0
2012-07-25,63.099998474121094,63.099998474121094,63.099998474121094,63.099998474121094,63.099998474121094,0
2012-07-26,63.099998474121094,63.099998474121094,63.099998474121094,63.099998474121094,63.099998474121094,0
2012-07-27,63.099998474121094,63.099998474121094,63.099998474121094,63.099998474121094,63.099998474121094,0
2012-07-30,63.099998474121094,63.099998474121094,63.099998474121094,63.099998474121094,63.099998474121094,0
2012-07-31,63.099998474121094,63.099998474121094,63.099998474121094,63.099998474121094,63.099998474121094,0
2012-08-01,63.099998474121094,63.099998474121094,63.099998474121094,63.099998474121094,63.099998474121094,0
2012-08-02,63.099998474121094,63.099998474121094,63.099998474121094,63.099998474121094,63.099998474121094,0
2012-08-03,63.099998474121094,63.099998474121094,63.099998474121094,63.099998474121094,63.099998474121094,0
2012-08-06,63.099998474121094,63.099998474121094,63.099998474121094,63.099998474121094,63.099998474121094,0
2012-08-07,63.099998474121094,63.099998474121094,63.099998474121094,63.099998474121094,63.099998474121094,0
2012-08-08,63.099998474121094,63.099998474121094,63.099998474121094,63.099998474121094,63.099998474121094,0
2012-08-09,63.099998474121094,63.099998474121094,63.099998474121094,63.099998474121094,63.099998474121094,0
2012-08-10,63.099998474121094,63.099998474121094,63.099998474121094,63.099998474121094,63.099998474121094,0
2012-08-13,63.099998474121094,63.099998474121094,63.099998474121094,63.099998474121094,63.099998474121094,0
2012-08-14,63.099998474121094,63.099998474121094,63.099998474121094,63.099998474121094,63.099998474121094,0
2012-08-15,63.099998474121094,63.099998474121094,63.099998474121094,63.099998474121094,63.099998474121094,0
2012-08-16,63.099998474121094,63.099998474121094,63.099998474121094,63.099998474121094,63.099998474121094,0
2012-08-17,63.099998474121094,63.099998474121094,63.099998474121094,63.099998474121094,63.099998474121094,0
2012-08-20,63.099998474121094,63.099998474121094,63.099998474121094,63.099998474121094,63.099998474121094,0
2012-08-21,63.099998474121094,63.099998474121094,63.099998474121094,63.099998474121094,63.099998474121094,0
2012-08-22,63.099998474121094,63.099998474121094,63.099998474121094,63.099998474121094,63.099998474121094,0
2012-08-23,63.099998474121094,63.099998474121094,63.099998474121094,63.099998474121094,63.099998474121094,0
2012-08-24,63.099998474121094,63.099998474121094,63.099998474121094,63.099998474121094,63.099998474121094,0
2012-08-27,63.099998474121094,63.099998474121094,63.099998474121094,63.099998474121094,63.099998474121094,0
2012-08-28,63.099998474121094,63.099998474121094,63.099998474121094,63.099998474121094,63.099998474121094,0
2012-08-29,63.099998474121094,63.099998474121094,63.099998474121094,63.099998474121094,63.099998474121094,0
2012-08-30,63.099998474121094,63.099998474121094,63.099998474121094,63.099998474121094,63.099998474121094,0
2012-08-31,63.099998474121094,63.099998474121094,63.099998474121094,63.099998474121094,63.099998474121094,0
2012-09-04,63.099998474121094,63.099998474121094,63.099998474121094,63.099998474121094,63.099998474121094,0
2012-09-05,63.099998474121094,63.099998474121094,63.099998474121094,63.099998474121094,63.099998474121094,0
2012-09-06,63.099998474121094,63.099998474121094,63.099998474121094,63.099998474121094,63.099998474121094,0
2012-09-07,63.099998474121094,63.099998474121094,63.099998474121094,63.099998474121094,63.099998474121094,0
2012-09-10,63.099998474121094,63.099998474121094,63.099998474121094,63.099998474121094,63.099998474121094,0
2012-09-11,63.099998474121094,63.099998474121094,63.099998474121094,63.099998474121094,63.099998474121094,0
2012-09-12,63.099998474121094,63.099998474121094,63.099998474121094,63.099998474121094,63.099998474121094,0
2012-09-13,63.099998474121094,63.099998474121094,63.099998474121094,63.099998474121094,63.099998474121094,0
2012-09-14,63.099998474121094,63.099998474121094,63.099998474121094,63.099998474121094,63.099998474121094,0
2012-09-17,63.099998474121094,63.099998474121094,63.099998474121094,63.099998474121094,63.099998474121094,0
2012-09-18,63.099998474121094,63.099998474121094,63.099998474121094,63.099998474121094,63.099998474121094,0
2012-09-19,63.099998474121094,63.099998474121094,63.099998474121094,63.099998474121094,63.099998474121094,0
2012-09-20,63.099998474121094,63.099998474121094,63.099998474121094,63.099998474121094,63.099998474121094,0
2012-09-21,63.099998474121094,63.099998474121094,63.099998474121094,63.099998474121094,63.099998474121094,0
2012-09-24,63.099998474121094,63.099998474121094,63.099998474121094,63.099998474121094,63.099998474121094,0
2012-09-25,63.099998474121094,63.099998474121094,63.099998474121094,63.099998474121094,63.099998474121094,0
2012-09-26,63.099998474121094,63.099998474121094,63.099998474121094,63.099998474121094,63.099998474121094,0
2012-09-27,63.099998474121094,63.099998474121094,63.099998474121094,63.099998474121094,63.099998474121094,0
2012-09-28,63.099998474121094,63.099998474121094,63.099998474121094,63.099998474121094,63.099998474121094,0
2012-10-01,63.099998474121094,63.099998474121094,63.099998474121094,63.099998474121094,63.099998474121094,0
2012-10-02,63.099998474121094,63.099998474121094,63.099998474121094,63.099998474121094,63.099998474121094,0
2012-10-03,63.099998474121094,63.099998474121094,63.099998474121094,63.099998474121094,63.099998474121094,0
2012-10-04,63.099998474121094,63.099998474121094,63.099998474121094,63.099998474121094,63.099998474121094,0
2012-10-05,63.099998474121094,63.099998474121094,63.099998474121094,63.099998474121094,63.099998474121094,0
2012-10-08,63.099998474121094,63.099998474121094,63.099998474121094,63.099998474121094,63.099998474121094,0
2012-10-09,63.099998474121094,63.099998474121094,63.099998474121094,63.099998474121094,63.099998474121094,0
2012-10-10,63.099998474121094,63.099998474121094,63.099998474121094,63.099998474121094,63.099998474121094,0
2012-10-11,63.099998474121094,63.099998474121094,63.099998474121094,63.099998474121094,63.099998474121094,0
2012-10-12,63.099998474121094,63.099998474121094,63.099998474121094,63.099998474121094,63.099998474121094,0
2012-10-15,63.099998474121094,63.099998474121094,63.099998474121094,63.099998474121094,63.099998474121094,0
2012-10-16,63.099998474121094,63.099998474121094,63.099998474121094,63.099998474121094,63.099998474121094,0
2012-10-17,63.099998474121094,63.099998474121094,63.099998474121094,63.099998474121094,63.099998474121094,0
2012-10-18,63.099998474121094,63.099998474121094,63.099998474121094,63.099998474121094,63.099998474121094,0
2012-10-19,63.099998474121094,63.099998474121094,63.099998474121094,63.099998474121094,63.099998474121094,0
2012-10-22,63.099998474121094,63.099998474121094,63.099998474121094,63.099998474121094,63.099998474121094,0
2012-10-23,63.099998474121094,63.099998474121094,63.099998474121094,63.099998474121094,63.099998474121094,0
2012-10-24,63.099998474121094,63.099998474121094,63.099998474121094,63.099998474121094,63.099998474121094,0
2012-10-25,63.099998474121094,63.099998474121094,63.099998474121094,63.099998474121094,63.099998474121094,0
2012-10-26,63.099998474121094,63.099998474121094,63.099998474121094,63.099998474121094,63.099998474121094,0
2012-10-31,63.099998474121094,63.099998474121094,63.099998474121094,63.099998474121094,63.099998474121094,0
2012-11-01,63.099998474121094,63.099998474121094,63.099998474121094,63.099998474121094,63.099998474121094,0
2012-11-02,63.099998474121094,63.099998474121094,63.099998474121094,63.099998474121094,63.099998474121094,0
2012-11-05,63.099998474121094,63.099998474121094,63.099998474121094,63.099998474121094,63.099998474121094,0
2012-11-06,63.099998474121094,63.099998474121094,63.099998474121094,63.099998474121094,63.099998474121094,0
2012-11-07,63.099998474121094,63.099998474121094,63.099998474121094,63.099998474121094,63.099998474121094,0
2012-11-08,63.099998474121094,63.099998474121094,63.099998474121094,63.099998474121094,63.099998474121094,0
2012-11-09,63.099998474121094,63.099998474121094,63.099998474121094,63.099998474121094,63.099998474121094,0
2012-11-12,63.099998474121094,63.099998474121094,63.099998474121094,63.099998474121094,63.099998474121094,0
2012-11-13,63.099998474121094,63.099998474121094,63.099998474121094,63.099998474121094,63.099998474121094,0
2012-11-14,63.099998474121094,63.099998474121094,63.099998474121094,63.099998474121094,63.099998474121094,0
2012-11-15,63.099998474121094,63.099998474121094,63.099998474121094,63.099998474121094,63.099998474121094,0
2012-11-16,63.099998474121094,63.099998474121094,63.099998474121094,63.099998474121094,63.099998474121094,0
2012-11-19,63.099998474121094,63.099998474121094,63.099998474121094,63.099998474121094,63.099998474121094,0
2012-11-20,63.099998474121094,63.099998474121094,63.099998474121094,63.099998474121094,63.099998474121094,0
2012-11-21,63.099998474121094,63.099998474121094,63.099998474121094,63.099998474121094,63.099998474121094,0
2012-11-23,63.099998474121094,63.099998474121094,63.099998474121094,63.099998474121094,63.099998474121094,0
2012-11-26,63.099998474121094,63.099998474121094,63.099998474121094,63.099998474121094,63.099998474121094,0
2012-11-27,63.099998474121094,63.099998474121094,63.099998474121094,63.099998474121094,63.099998474121094,0
2012-11-28,63.099998474121094,63.099998474121094,63.099998474121094,63.099998474121094,63.099998474121094,0
2012-11-29,63.099998474121094,63.099998474121094,63.099998474121094,63.099998474121094,63.099998474121094,0
2012-11-30,63.099998474121094,63.099998474121094,63.099998474121094,63.099998474121094,63.099998474121094,0
2012-12-03,63.099998474121094,63.099998474121094,63.099998474121094,63.099998474121094,63.099998474121094,0
2012-12-04,63.099998474121094,63.099998474121094,63.099998474121094,63.099998474121094,63.099998474121094,0
2012-12-05,63.099998474121094,63.099998474121094,63.099998474121094,63.099998474121094,63.099998474121094,0
2012-12-06,63.099998474121094,63.099998474121094,63.099998474121094,63.099998474121094,63.099998474121094,0
2012-12-07,63.099998474121094,63.099998474121094,63.099998474121094,63.099998474121094,63.099998474121094,0
2012-12-10,63.099998474121094,63.099998474121094,63.099998474121094,63.099998474121094,63.099998474121094,0
2012-12-11,63.099998474121094,63.099998474121094,63.099998474121094,63.099998474121094,63.099998474121094,0
2012-12-12,63.099998474121094,63.099998474121094,63.099998474121094,63.099998474121094,63.099998474121094,0
2012-12-13,63.099998474121094,63.099998474121094,63.099998474121094,63.099998474121094,63.099998474121094,0
2012-12-14,63.099998474121094,63.099998474121094,63.099998474121094,63.099998474121094,63.099998474121094,0
2012-12-17,63.099998474121094,63.099998474121094,63.099998474121094,63.099998474121094,63.099998474121094,0
2012-12-18,63.099998474121094,63.099998474121094,63.099998474121094,63.099998474121094,63.099998474121094,0
2012-12-19,63.099998474121094,63.099998474121094,63.099998474121094,63.099998474121094,63.099998474121094,0
2012-12-20,63.099998474121094,63.099998474121094,63.099998474121094,63.099998474121094,63.099998474121094,0
2012-12-21,63.099998474121094,63.099998474121094,63.099998474121094,63.099998474121094,63.099998474121094,0
2012-12-24,63.099998474121094,63.099998474121094,63.099998474121094,63.099998474121094,63.099998474121094,0
2012-12-26,63.099998474121094,63.099998474121094,63.099998474121094,63.099998474121094,63.099998474121094,0
2012-12-27,63.099998474121094,63.099998474121094,63.099998474121094,63.099998474121094,63.099998474121094,0
2012-12-28,63.099998474121094,63.099998474121094,63.099998474121094,63.099998474121094,63.099998474121094,0
2012-12-31,63.099998474121094,63.099998474121094,63.099998474121094,63.099998474121094,63.099998474121094,0
2013-01-02,63.099998474121094,63.099998474121094,63.099998474121094,63.099998474121094,63.099998474121094,0
2013-01-03,63.099998474121094,63.099998474121094,63.099998474121094,63.099998474121094,63.099998474121094,0
2013-01-04,63.099998474121094,63.099998474121094,63.099998474121094,63.099998474121094,63.099998474121094,0
2013-01-07,63.099998474121094,63.099998474121094,63.099998474121094,63.099998474121094,63.099998474121094,0
2013-01-08,63.099998474121094,63.099998474121094,63.099998474121094,63.099998474121094,63.099998474121094,0
2013-01-09,63.099998474121094,63.099998474121094,63.099998474121094,63.099998474121094,63.099998474121094,0
2013-01-10,63.099998474121094,63.099998474121094,63.099998474121094,63.099998474121094,63.099998474121094,0
2013-01-11,63.099998474121094,63.099998474121094,63.099998474121094,63.099998474121094,63.099998474121094,0
2013-01-14,63.099998474121094,63.099998474121094,63.099998474121094,63.099998474121094,63.099998474121094,0
2013-01-15,63.099998474121094,63.099998474121094,63.099998474121094,63.099998474121094,63.099998474121094,0
2013-01-16,63.099998474121094,63.099998474121094,63.099998474121094,63.099998474121094,63.099998474121094,0
2013-01-17,63.099998474121094,63.099998474121094,63.099998474121094,63.099998474121094,63.099998474121094,0
2013-01-18,63.099998474121094,63.099998474121094,63.099998474121094,63.099998474121094,63.099998474121094,0
2013-01-22,63.099998474121094,63.099998474121094,63.099998474121094,63.099998474121094,63.099998474121094,0
2013-01-23,63.099998474121094,63.099998474121094,63.099998474121094,63.099998474121094,63.099998474121094,0
2013-01-24,63.099998474121094,63.099998474121094,63.099998474121094,63.099998474121094,63.099998474121094,0
2013-01-25,63.099998474121094,63.099998474121094,63.099998474121094,63.099998474121094,63.099998474121094,0
2013-01-28,63.099998474121094,63.099998474121094,63.099998474121094,63.099998474121094,63.099998474121094,0
2013-01-29,63.099998474121094,63.099998474121094,63.099998474121094,63.099998474121094,63.099998474121094,0
2013-01-30,63.099998474121094,63.099998474121094,63.099998474121094,63.099998474121094,63.099998474121094,0
2013-01-31,63.099998474121094,63.099998474121094,63.099998474121094,63.099998474121094,63.099998474121094,0
2013-02-01,63.099998474121094,63.099998474121094,63.099998474121094,63.099998474121094,63.099998474121094,0
2013-02-04,63.099998474121094,63.099998474121094,63.099998474121094,63.099998474121094,63.099998474121094,0
2013-02-05,63.099998474121094,63.099998474121094,63.099998474121094,63.099998474121094,63.099998474121094,0
2013-02-06,63.099998474121094,63.099998474121094,63.099998474121094,63.099998474121094,63.099998474121094,0
2013-02-07,63.099998474121094,63.099998474121094,63.099998474121094,63.099998474121094,63.099998474121094,0
2013-02-08,63.099998474121094,63.099998474121094,63.099998474121094,63.099998474121094,63.099998474121094,0
2013-02-11,63.099998474121094,63.099998474121094,63.099998474121094,63.099998474121094,63.099998474121094,0
2013-02-12,63.099998474121094,63.099998474121094,63.099998474121094,63.099998474121094,63.099998474121094,0
2013-02-13,63.099998474121094,63.099998474121094,63.099998474121094,63.099998474121094,63.099998474121094,0
2013-02-14,63.099998474121094,63.099998474121094,63.099998474121094,63.099998474121094,63.099998474121094,0
2013-02-15,63.099998474121094,63.099998474121094,63.099998474121094,63.099998474121094,63.099998474121094,0
2013-02-19,63.099998474121094,63.099998474121094,63.099998474121094,63.099998474121094,63.099998474121094,0
2013-02-20,63.099998474121094,63.099998474121094,63.099998474121094,63.099998474121094,63.099998474121094,0
2013-02-21,63.099998474121094,63.099998474121094,63.099998474121094,63.099998474121094,63.099998474121094,0
2013-02-22,63.099998474121094,63.099998474121094,63.099998474121094,63.099998474121094,63.099998474121094,0
2013-02-25,63.099998474121094,63.099998474121094,63.099998474121094,63.099998474121094,63.099998474121094,0
2013-02-26,63.099998474121094,63.099998474121094,63.099998474121094,63.099998474121094,63.099998474121094,0
2013-02-27,63.099998474121094,63.099998474121094,63.099998474121094,63.099998474121094,63.099998474121094,0
2013-02-28,63.099998474121094,63.099998474121094,63.099998474121094,63.099998474121094,63.099998474121094,0
2013-03-01,63.099998474121094,63.099998474121094,63.099998474121094,63.099998474121094,63.099998474121094,0
2013-03-04,63.099998474121094,63.099998474121094,63.099998474121094,63.099998474121094,63.099998474121094,0
2013-03-05,63.099998474121094,63.099998474121094,63.099998474121094,63.099998474121094,63.099998474121094,0
2013-03-06,63.099998474121094,63.099998474121094,63.099998474121094,63.099998474121094,63.099998474121094,0
2013-03-07,63.099998474121094,63.099998474121094,63.099998474121094,63.099998474121094,63.099998474121094,0
2013-03-08,63.099998474121094,63.099998474121094,63.099998474121094,63.099998474121094,63.099998474121094,0
2013-03-11,63.099998474121094,63.099998474121094,63.099998474121094,63.099998474121094,63.099998474121094,0
2013-03-12,63.099998474121094,63.099998474121094,63.099998474121094,63.099998474121094,63.099998474121094,0
2013-03-13,63.099998474121094,63.099998474121094,63.099998474121094,63.099998474121094,63.099998474121094,0
2013-03-14,63.099998474121094,63.099998474121094,63.099998474121094,63.099998474121094,63.099998474121094,0
2013-03-15,63.099998474121094,63.099998474121094,63.099998474121094,63.099998474121094,63.099998474121094,0
2013-03-18,63.099998474121094,63.099998474121094,63.099998474121094,63.099998474121094,63.099998474121094,0
2013-03-19,63.099998474121094,63.099998474121094,63.099998474121094,63.099998474121094,63.099998474121094,0
2013-03-20,63.099998474121094,63.099998474121094,63.099998474121094,63.099998474121094,63.099998474121094,0
2013-03-21,63.099998474121094,63.099998474121094,63.099998474121094,63.099998474121094,63.099998474121094,0
2013-03-22,63.099998474121094,63.099998474121094,63.099998474121094,63.099998474121094,63.099998474121094,0
2013-03-25,63.099998474121094,63.099998474121094,63.099998474121094,63.099998474121094,63.099998474121094,0
2013-03-26,63.099998474121094,63.099998474121094,63.099998474121094,63.099998474121094,63.099998474121094,0
2013-03-27,63.099998474121094,63.099998474121094,63.099998474121094,63.099998474121094,63.099998474121094,0
2013-03-28,63.099998474121094,63.099998474121094,63.099998474121094,63.099998474121094,63.099998474121094,0
2013-04-01,63.099998474121094,63.099998474121094,63.099998474121094,63.099998474121094,63.099998474121094,0
2013-04-02,63.099998474121094,63.099998474121094,63.099998474121094,63.099998474121094,63.099998474121094,0
2013-04-03,63.099998474121094,63.099998474121094,63.099998474121094,63.099998474121094,63.099998474121094,0
2013-04-04,63.099998474121094,63.099998474121094,63.099998474121094,63.099998474121094,63.099998474121094,0
2013-04-05,63.099998474121094,63.099998474121094,63.099998474121094,63.099998474121094,63.099998474121094,0
2013-04-08,63.099998474121094,63.099998474121094,63.099998474121094,63.099998474121094,63.099998474121094,0
2013-04-09,63.099998474121094,63.099998474121094,63.099998474121094,63.099998474121094,63.099998474121094,0
2013-04-10,63.099998474121094,63.099998474121094,63.099998474121094,63.099998474121094,63.099998474121094,0
2013-04-11,63.099998474121094,63.099998474121094,63.099998474121094,63.099998474121094,63.099998474121094,0
2013-04-12,63.099998474121094,63.099998474121094,63.099998474121094,63.099998474121094,63.099998474121094,0
2013-04-15,63.099998474121094,63.099998474121094,63.099998474121094,63.099998474121094,63.099998474121094,0
2013-04-16,63.099998474121094,63.099998474121094,63.099998474121094,63.099998474121094,63.099998474121094,0
2013-04-17,63.099998474121094,63.099998474121094,63.099998474121094,63.099998474121094,63.099998474121094,0
2013-04-18,63.099998474121094,63.099998474121094,63.099998474121094,63.099998474121094,63.099998474121094,0
2013-04-19,63.099998474121094,63.099998474121094,63.099998474121094,63.099998474121094,63.099998474121094,0
2013-04-22,63.099998474121094,63.099998474121094,63.099998474121094,63.099998474121094,63.099998474121094,0
2013-04-23,63.099998474121094,63.099998474121094,63.099998474121094,63.099998474121094,63.099998474121094,0
2013-04-24,63.099998474121094,63.099998474121094,63.099998474121094,63.099998474121094,63.099998474121094,0
2013-04-25,63.099998474121094,63.099998474121094,63.099998474121094,63.099998474121094,63.099998474121094,0
2013-04-26,63.099998474121094,63.099998474121094,63.099998474121094,63.099998474121094,63.099998474121094,0
2013-04-29,63.099998474121094,63.099998474121094,63.099998474121094,63.099998474121094,63.099998474121094,0
2013-04-30,63.099998474121094,63.099998474121094,63.099998474121094,63.099998474121094,63.099998474121094,0
2013-05-01,63.099998474121094,63.099998474121094,63.099998474121094,63.099998474121094,63.099998474121094,0
2013-05-02,63.099998474121094,63.099998474121094,63.099998474121094,63.099998474121094,63.099998474121094,0
2013-05-03,63.099998474121094,63.099998474121094,63.099998474121094,63.099998474121094,63.099998474121094,0
2013-05-06,63.099998474121094,63.099998474121094,63.099998474121094,63.099998474121094,63.099998474121094,0
2013-05-07,63.099998474121094,63.099998474121094,63.099998474121094,63.099998474121094,63.099998474121094,0
2013-05-08,63.099998474121094,63.099998474121094,63.099998474121094,63.099998474121094,63.099998474121094,0
2013-05-09,63.099998474121094,63.099998474121094,63.099998474121094,63.099998474121094,63.099998474121094,0
2013-05-10,63.099998474121094,63.099998474121094,63.099998474121094,63.099998474121094,63.099998474121094,0
2013-05-13,63.099998474121094,63.099998474121094,63.099998474121094,63.099998474121094,63.099998474121094,0
2013-05-14,63.099998474121094,63.099998474121094,63.099998474121094,63.099998474121094,63.099998474121094,0
2013-05-15,63.099998474121094,63.099998474121094,63.099998474121094,63.099998474121094,63.099998474121094,0
2013-05-16,63.099998474121094,63.099998474121094,63.099998474121094,63.099998474121094,63.099998474121094,0
2013-05-17,63.099998474121094,63.099998474121094,63.099998474121094,63.099998474121094,63.099998474121094,0
2013-05-20,63.099998474121094,63.099998474121094,63.099998474121094,63.099998474121094,63.099998474121094,0
2013-05-21,63.099998474121094,63.099998474121094,63.099998474121094,63.099998474121094,63.099998474121094,0
2013-05-22,63.099998474121094,63.099998474121094,63.099998474121094,63.099998474121094,63.099998474121094,0
2013-05-23,63.099998474121094,63.099998474121094,63.099998474121094,63.099998474121094,63.099998474121094,0
2013-05-24,63.099998474121094,63.099998474121094,63.099998474121094,63.099998474121094,63.099998474121094,0
2013-05-28,63.099998474121094,63.099998474121094,63.099998474121094,63.099998474121094,63.099998474121094,0
2013-05-29,63.099998474121094,63.099998474121094,63.099998474121094,63.099998474121094,63.099998474121094,0
2013-05-30,63.099998474121094,63.099998474121094,63.099998474121094,63.099998474121094,63.099998474121094,0
2013-05-31,63.099998474121094,63.099998474121094,63.099998474121094,63.099998474121094,63.099998474121094,0
2013-06-03,63.099998474121094,63.099998474121094,63.099998474121094,63.099998474121094,63.099998474121094,0
2013-06-04,63.099998474121094,63.099998474121094,63.099998474121094,63.099998474121094,63.099998474121094,0
2013-06-05,63.099998474121094,63.099998474121094,63.099998474121094,63.099998474121094,63.099998474121094,0
2013-06-06,63.099998474121094,63.099998474121094,63.099998474121094,63.099998474121094,63.099998474121094,0
2013-06-07,63.099998474121094,63.099998474121094,63.099998474121094,63.099998474121094,63.099998474121094,0
2013-06-10,63.099998474121094,63.099998474121094,63.099998474121094,63.099998474121094,63.099998474121094,0
2013-06-11,63.099998474121094,63.099998474121094,63.099998474121094,63.099998474121094,63.099998474121094,0
2013-06-12,63.099998474121094,63.099998474121094,63.099998474121094,63.099998474121094,63.099998474121094,0
2013-06-13,63.099998474121094,63.099998474121094,63.099998474121094,63.099998474121094,63.099998474121094,0
2013-06-14,63.099998474121094,63.099998474121094,63.099998474121094,63.099998474121094,63.099998474121094,0
2013-06-17,63.099998474121094,63.099998474121094,63.099998474121094,63.099998474121094,63.099998474121094,0
2013-06-18,63.099998474121094,63.099998474121094,63.099998474121094,63.099998474121094,63.099998474121094,0
2013-06-19,63.099998474121094,63.099998474121094,63.099998474121094,63.099998474121094,63.099998474121094,0
2013-06-20,63.099998474121094,63.099998474121094,63.099998474121094,63.099998474121094,63.099998474121094,0
2013-06-21,63.099998474121094,63.099998474121094,63.099998474121094,63.099998474121094,63.099998474121094,0
2013-06-24,63.099998474121094,63.099998474121094,63.099998474121094,63.099998474121094,63.099998474121094,0
2013-06-25,63.099998474121094,63.099998474121094,63.099998474121094,63.099998474121094,63.099998474121094,0
2013-06-26,63.099998474121094,63.099998474121094,63.099998474121094,63.099998474121094,63.099998474121094,0
2013-06-27,63.099998474121094,63.099998474121094,63.099998474121094,63.099998474121094,63.099998474121094,0
2013-06-28,63.099998474121094,63.099998474121094,63.099998474121094,63.099998474121094,63.099998474121094,0
2013-07-01,63.099998474121094,63.099998474121094,63.099998474121094,63.099998474121094,63.099998474121094,0
2013-07-02,63.099998474121094,63.099998474121094,63.099998474121094,63.099998474121094,63.099998474121094,0
2013-07-03,63.099998474121094,63.099998474121094,63.099998474121094,63.099998474121094,63.099998474121094,0
2013-07-05,63.099998474121094,63.099998474121094,63.099998474121094,63.099998474121094,63.099998474121094,0
2013-07-08,63.099998474121094,63.099998474121094,63.099998474121094,63.099998474121094,63.099998474121094,0
2013-07-09,63.099998474121094,63.099998474121094,63.099998474121094,63.099998474121094,63.099998474121094,0
2013-07-10,63.099998474121094,63.099998474121094,63.099998474121094,63.099998474121094,63.099998474121094,0
2013-07-11,63.099998474121094,63.099998474121094,63.099998474121094,63.099998474121094,63.099998474121094,0
2013-07-12,63.099998474121094,63.099998474121094,63.099998474121094,63.099998474121094,63.099998474121094,0
2013-07-15,63.099998474121094,63.099998474121094,63.099998474121094,63.099998474121094,63.099998474121094,0
2013-07-16,63.099998474121094,63.099998474121094,63.099998474121094,63.099998474121094,63.099998474121094,0
2013-07-17,63.099998474121094,63.099998474121094,63.099998474121094,63.099998474121094,63.099998474121094,0
2013-07-18,63.099998474121094,63.099998474121094,63.099998474121094,63.099998474121094,63.099998474121094,0
2013-07-19,63.099998474121094,63.099998474121094,63.099998474121094,63.099998474121094,63.099998474121094,0
2013-07-22,63.099998474121094,63.099998474121094,63.099998474121094,63.099998474121094,63.099998474121094,0
2013-07-23,63.099998474121094,63.099998474121094,63.099998474121094,63.099998474121094,63.099998474121094,0
2013-07-24,63.099998474121094,63.099998474121094,63.099998474121094,63.099998474121094,63.099998474121094,0
2013-07-25,63.099998474121094,63.099998474121094,63.099998474121094,63.099998474121094,63.099998474121094,0
2013-07-26,63.099998474121094,63.099998474121094,63.099998474121094,63.099998474121094,63.099998474121094,0
2013-07-29,63.099998474121094,63.099998474121094,63.099998474121094,63.099998474121094,63.099998474121094,0
2013-07-30,63.099998474121094,63.099998474121094,63.099998474121094,63.099998474121094,63.099998474121094,0
2013-07-31,63.099998474121094,63.099998474121094,63.099998474121094,63.099998474121094,63.099998474121094,0
2013-08-01,63.099998474121094,63.099998474121094,63.099998474121094,63.099998474121094,63.099998474121094,0
2013-08-02,63.099998474121094,63.099998474121094,63.099998474121094,63.099998474121094,63.099998474121094,0
2013-08-05,63.099998474121094,63.099998474121094,63.099998474121094,63.099998474121094,63.099998474121094,0
2013-08-06,63.099998474121094,63.099998474121094,63.099998474121094,63.099998474121094,63.099998474121094,0
2013-08-07,63.099998474121094,63.099998474121094,63.099998474121094,63.099998474121094,63.099998474121094,0
2013-08-08,63.099998474121094,63.099998474121094,63.099998474121094,63.099998474121094,63.099998474121094,0
2013-08-09,63.099998474121094,63.099998474121094,63.099998474121094,63.099998474121094,63.099998474121094,0
2013-08-12,63.099998474121094,63.099998474121094,63.099998474121094,63.099998474121094,63.099998474121094,0
2013-08-13,63.099998474121094,63.099998474121094,63.099998474121094,63.099998474121094,63.099998474121094,0
2013-08-14,63.099998474121094,63.099998474121094,63.099998474121094,63.099998474121094,63.099998474121094,0
2013-08-15,63.099998474121094,63.099998474121094,63.099998474121094,63.099998474121094,63.099998474121094,0
2013-08-16,63.099998474121094,63.099998474121094,63.099998474121094,63.099998474121094,63.099998474121094,0
2013-08-19,63.099998474121094,63.099998474121094,63.099998474121094,63.099998474121094,63.099998474121094,0
2013-08-20,63.099998474121094,63.099998474121094,63.099998474121094,63.099998474121094,63.099998474121094,0
2013-08-21,63.099998474121094,63.099998474121094,63.099998474121094,63.099998474121094,63.099998474121094,0
2013-08-22,63.099998474121094,63.099998474121094,63.099998474121094,63.099998474121094,63.099998474121094,0
2013-08-23,63.099998474121094,63.099998474121094,63.099998474121094,63.099998474121094,63.099998474121094,0
2013-08-26,63.099998474121094,63.099998474121094,63.099998474121094,63.099998474121094,63.099998474121094,0
2013-08-27,63.099998474121094,63.099998474121094,63.099998474121094,63.099998474121094,63.099998474121094,0
2013-08-28,63.099998474121094,63.099998474121094,63.099998474121094,63.099998474121094,63.099998474121094,0
2013-08-29,63.099998474121094,63.099998474121094,63.099998474121094,63.099998474121094,63.099998474121094,0
2013-08-30,63.099998474121094,63.099998474121094,63.099998474121094,63.099998474121094,63.099998474121094,0
2013-09-03,63.099998474121094,63.099998474121094,63.099998474121094,63.099998474121094,63.099998474121094,0
2013-09-04,63.099998474121094,63.099998474121094,63.099998474121094,63.099998474121094,63.099998474121094,0
2013-09-05,63.099998474121094,63.099998474121094,63.099998474121094,63.099998474121094,63.099998474121094,0
2013-09-06,63.099998474121094,63.099998474121094,63.099998474121094,63.099998474121094,63.099998474121094,0
2013-09-09,63.099998474121094,63.099998474121094,63.099998474121094,63.099998474121094,63.099998474121094,0
2013-09-10,63.099998474121094,63.099998474121094,63.099998474121094,63.099998474121094,63.099998474121094,0
2013-09-11,63.099998474121094,63.099998474121094,63.099998474121094,63.099998474121094,63.099998474121094,0
2013-09-12,63.099998474121094,63.099998474121094,63.099998474121094,63.099998474121094,63.099998474121094,0
2013-09-13,63.099998474121094,63.099998474121094,63.099998474121094,63.099998474121094,63.099998474121094,0
2013-09-16,63.099998474121094,63.099998474121094,63.099998474121094,63.099998474121094,63.099998474121094,0
2013-09-17,63.099998474121094,63.099998474121094,63.099998474121094,63.099998474121094,63.099998474121094,0
2013-09-18,63.099998474121094,63.099998474121094,63.099998474121094,63.099998474121094,63.099998474121094,0
2013-09-19,63.099998474121094,63.099998474121094,63.099998474121094,63.099998474121094,63.099998474121094,0
2013-09-20,63.099998474121094,63.099998474121094,63.099998474121094,63.099998474121094,63.099998474121094,0
2013-09-23,63.099998474121094,63.099998474121094,63.099998474121094,63.099998474121094,63.099998474121094,0
2013-09-24,63.099998474121094,63.099998474121094,63.099998474121094,63.099998474121094,63.099998474121094,0
2013-09-25,63.099998474121094,63.099998474121094,63.099998474121094,63.099998474121094,63.099998474121094,0
2013-09-26,63.099998474121094,63.099998474121094,63.099998474121094,63.099998474121094,63.099998474121094,0
2013-09-27,63.099998474121094,63.099998474121094,63.099998474121094,63.099998474121094,63.099998474121094,0
2013-09-30,63.099998474121094,63.099998474121094,63.099998474121094,63.099998474121094,63.099998474121094,0
2013-10-01,63.099998474121094,63.099998474121094,63.099998474121094,63.099998474121094,63.099998474121094,0
2013-10-02,63.099998474121094,63.099998474121094,63.099998474121094,63.099998474121094,63.099998474121094,0
2013-10-03,63.099998474121094,63.099998474121094,63.099998474121094,63.099998474121094,63.099998474121094,0
2013-10-04,63.099998474121094,63.099998474121094,63.099998474121094,63.099998474121094,63.099998474121094,0
2013-10-07,63.099998474121094,63.099998474121094,63.099998474121094,63.099998474121094,63.099998474121094,0
2013-10-08,63.099998474121094,63.099998474121094,63.099998474121094,63.099998474121094,63.099998474121094,0
2013-10-09,63.099998474121094,63.099998474121094,63.099998474121094,63.099998474121094,63.099998474121094,0
2013-10-10,63.099998474121094,63.099998474121094,63.099998474121094,63.099998474121094,63.099998474121094,0
2013-10-11,63.099998474121094,63.099998474121094,63.099998474121094,63.099998474121094,63.099998474121094,0
2013-10-14,63.099998474121094,63.099998474121094,63.099998474121094,63.099998474121094,63.099998474121094,0
2013-10-15,63.099998474121094,63.099998474121094,63.099998474121094,63.099998474121094,63.099998474121094,0
2013-10-16,63.099998474121094,63.099998474121094,63.099998474121094,63.099998474121094,63.099998474121094,0
2013-10-17,63.099998474121094,63.099998474121094,63.099998474121094,63.099998474121094,63.099998474121094,0
2013-10-18,63.099998474121094,63.099998474121094,63.099998474121094,63.099998474121094,63.099998474121094,0
2013-10-21,63.099998474121094,63.099998474121094,63.099998474121094,63.099998474121094,63.099998474121094,0
2013-10-22,63.099998474121094,63.099998474121094,63.099998474121094,63.099998474121094,63.099998474121094,0
2013-10-23,63.099998474121094,63.099998474121094,63.099998474121094,63.099998474121094,63.099998474121094,0
2013-10-24,63.099998474121094,63.099998474121094,63.099998474121094,63.099998474121094,63.099998474121094,0
2013-10-25,63.099998474121094,63.099998474121094,63.099998474121094,63.099998474121094,63.099998474121094,0
2013-10-28,63.099998474121094,63.099998474121094,63.099998474121094,63.099998474121094,63.099998474121094,0
2013-10-29,63.099998474121094,63.099998474121094,63.099998474121094,63.099998474121094,63.099998474121094,0
2013-10-30,63.099998474121094,63.099998474121094,63.099998474121094,63.099998474121094,63.099998474121094,0
2013-10-31,63.099998474121094,63.099998474121094,63.099998474121094,63.099998474121094,63.099998474121094,0
2013-11-01,63.099998474121094,63.099998474121094,63.099998474121094,63.099998474121094,63.099998474121094,0
2013-11-04,63.099998474121094,63.099998474121094,63.099998474121094,63.099998474121094,63.099998474121094,0
2013-11-05,63.099998474121094,63.099998474121094,63.099998474121094,63.099998474121094,63.099998474121094,0
2013-11-06,63.099998474121094,63.099998474121094,63.099998474121094,63.099998474121094,63.099998474121094,0
2013-11-07,63.099998474121094,63.099998474121094,63.099998474121094,63.099998474121094,63.099998474121094,0
2013-11-08,63.099998474121094,63.099998474121094,63.099998474121094,63.099998474121094,63.099998474121094,0
2013-11-11,63.099998474121094,63.099998474121094,63.099998474121094,63.099998474121094,63.099998474121094,0
2013-11-12,63.099998474121094,63.099998474121094,63.099998474121094,63.099998474121094,63.099998474121094,0
2013-11-13,63.099998474121094,63.099998474121094,63.099998474121094,63.099998474121094,63.099998474121094,0
2013-11-14,63.099998474121094,63.099998474121094,63.099998474121094,63.099998474121094,63.099998474121094,0
2013-11-15,63.099998474121094,63.099998474121094,63.099998474121094,63.099998474121094,63.099998474121094,0
2013-11-18,63.099998474121094,63.099998474121094,63.099998474121094,63.099998474121094,63.099998474121094,0
2013-11-19,63.099998474121094,63.099998474121094,63.099998474121094,63.099998474121094,63.099998474121094,0
2013-11-20,63.099998474121094,63.099998474121094,63.099998474121094,63.099998474121094,63.099998474121094,0
2013-11-21,63.099998474121094,63.099998474121094,63.099998474121094,63.099998474121094,63.099998474121094,0
2013-11-22,63.099998474121094,63.099998474121094,63.099998474121094,63.099998474121094,63.099998474121094,0
2013-11-25,63.099998474121094,63.099998474121094,63.099998474121094,63.099998474121094,63.099998474121094,0
2013-11-26,63.099998474121094,63.099998474121094,63.099998474121094,63.099998474121094,63.099998474121094,0
2013-11-27,63.099998474121094,63.099998474121094,63.099998474121094,63.099998474121094,63.099998474121094,0
2013-11-29,63.099998474121094,63.099998474121094,63.099998474121094,63.099998474121094,63.099998474121094,0
2013-12-02,63.099998474121094,63.099998474121094,63.099998474121094,63.099998474121094,63.099998474121094,0
2013-12-03,63.099998474121094,63.099998474121094,63.099998474121094,63.099998474121094,63.099998474121094,0
2013-12-04,63.099998474121094,63.099998474121094,63.099998474121094,63.099998474121094,63.099998474121094,0
2013-12-05,63.099998474121094,63.099998474121094,63.099998474121094,63.099998474121094,63.099998474121094,0
2013-12-06,63.099998474121094,63.099998474121094,63.099998474121094,63.099998474121094,63.099998474121094,0
2013-12-09,63.099998474121094,63.099998474121094,63.099998474121094,63.099998474121094,63.099998474121094,0
2013-12-10,63.099998474121094,63.099998474121094,63.099998474121094,63.099998474121094,63.099998474121094,0
2013-12-11,63.099998474121094,63.099998474121094,63.099998474121094,63.099998474121094,63.099998474121094,0
2013-12-12,63.099998474121094,63.099998474121094,63.099998474121094,63.099998474121094,63.099998474121094,0
2013-12-13,63.099998474121094,63.099998474121094,63.099998474121094,63.099998474121094,63.099998474121094,0
2013-12-16,63.099998474121094,63.099998474121094,63.099998474121094,63.099998474121094,63.099998474121094,0
2013-12-17,63.099998474121094,63.099998474121094,63.099998474121094,63.099998474121094,63.099998474121094,0
2013-12-18,63.099998474121094,63.099998474121094,63.099998474121094,63.099998474121094,63.099998474121094,0
2013-12-19,63.099998474121094,63.099998474121094,63.099998474121094,63.099998474121094,63.099998474121094,0
2013-12-20,63.099998474121094,63.099998474121094,63.099998474121094,63.099998474121094,63.099998474121094,0
2013-12-23,63.099998474121094,63.099998474121094,63.099998474121094,63.099998474121094,63.099998474121094,0
2013-12-24,63.099998474121094,63.099998474121094,63.099998474121094,63.099998474121094,63.099998474121094,0
2013-12-26,63.099998474121094,63.099998474121094,63.099998474121094,63.099998474121094,63.099998474121094,0
2013-12-27,63.099998474121094,63.099998474121094,63.099998474121094,63.099998474121094,63.099998474121094,0
2013-12-30,63.099998474121094,63.099998474121094,63.099998474121094,63.099998474121094,63.099998474121094,0
2013-12-31,63.099998474121094,63.099998474121094,63.099998474121094,63.099998474121094,63.099998474121094,0
2014-01-02,63.099998474121094,63.099998474121094,63.099998474121094,63.099998474121094,63.099998474121094,0
2014-01-03,63.099998474121094,63.099998474121094,63.099998474121094,63.099998474121094,63.099998474121094,0
2014-01-06,63.099998474121094,63.099998474121094,63.099998474121094,63.099998474121094,63.099998474121094,0
2014-01-07,63.099998474121094,63.099998474121094,63.099998474121094,63.099998474121094,63.099998474121094,0
2014-01-08,63.099998474121094,63.099998474121094,63.099998474121094,63.099998474121094,63.099998474121094,0
2014-01-09,63.099998474121094,63.099998474121094,63.099998474121094,63.099998474121094,63.099998474121094,0
2014-01-10,63.099998474121094,63.099998474121094,63.099998474121094,63.099998474121094,63.099998474121094,0
2014-01-13,63.099998474121094,63.099998474121094,63.099998474121094,63.099998474121094,63.099998474121094,0
2014-01-14,63.099998474121094,63.099998474121094,63.099998474121094,63.099998474121094,63.099998474121094,0
2014-01-15,63.099998474121094,63.099998474121094,63.099998474121094,63.099998474121094,63.099998474121094,0
2014-01-16,63.099998474121094,63.099998474121094,63.099998474121094,63.099998474121094,63.099998474121094,0
2014-01-17,63.099998474121094,63.099998474121094,63.099998474121094,63.099998474121094,63.099998474121094,0
2014-01-21,63.099998474121094,63.099998474121094,63.099998474121094,63.099998474121094,63.099998474121094,0
2014-01-22,63.099998474121094,63.099998474121094,63.099998474121094,63.099998474121094,63.099998474121094,0
2014-01-23,63.099998474121094,63.099998474121094,63.099998474121094,63.099998474121094,63.099998474121094,0
2014-01-24,63.099998474121094,63.099998474121094,63.099998474121094,63.099998474121094,63.099998474121094,0
2014-01-27,63.099998474121094,63.099998474121094,63.099998474121094,63.099998474121094,63.099998474121094,0
2014-01-28,63.099998474121094,63.099998474121094,63.099998474121094,63.099998474121094,63.099998474121094,0
2014-01-29,63.099998474121094,63.099998474121094,63.099998474121094,63.099998474121094,63.099998474121094,0
2014-01-30,63.099998474121094,63.099998474121094,63.099998474121094,63.099998474121094,63.099998474121094,0
2014-01-31,63.099998474121094,63.099998474121094,63.099998474121094,63.099998474121094,63.099998474121094,0
2014-02-03,63.099998474121094,63.099998474121094,63.099998474121094,63.099998474121094,63.099998474121094,0
2014-02-04,63.099998474121094,63.099998474121094,63.099998474121094,63.099998474121094,63.099998474121094,0
2014-02-05,63.099998474121094,63.099998474121094,63.099998474121094,63.099998474121094,63.099998474121094,0
2014-02-06,63.099998474121094,63.099998474121094,63.099998474121094,63.099998474121094,63.099998474121094,0
2014-02-07,63.099998474121094,63.099998474121094,63.099998474121094,63.099998474121094,63.099998474121094,0
2014-02-10,63.099998474121094,63.099998474121094,63.099998474121094,63.099998474121094,63.099998474121094,0
2014-02-11,63.099998474121094,63.099998474121094,63.099998474121094,63.099998474121094,63.099998474121094,0
2014-02-12,63.099998474121094,63.099998474121094,63.099998474121094,63.099998474121094,63.099998474121094,0
2014-02-13,63.099998474121094,63.099998474121094,63.099998474121094,63.099998474121094,63.099998474121094,0
2014-02-14,63.099998474121094,63.099998474121094,63.099998474121094,63.099998474121094,63.099998474121094,0
2014-02-18,63.099998474121094,63.099998474121094,63.099998474121094,63.099998474121094,63.099998474121094,0
2014-02-19,63.099998474121094,63.099998474121094,63.099998474121094,63.099998474121094,63.099998474121094,0
2014-02-20,63.099998474121094,63.099998474121094,63.099998474121094,63.099998474121094,63.099998474121094,0
2014-02-21,63.099998474121094,63.099998474121094,63.099998474121094,63.099998474121094,63.099998474121094,0
2014-02-24,63.099998474121094,63.099998474121094,63.099998474121094,63.099998474121094,63.099998474121094,0
2014-02-25,63.099998474121094,63.099998474121094,63.099998474121094,63.099998474121094,63.099998474121094,0
2014-02-26,63.099998474121094,63.099998474121094,63.099998474121094,63.099998474121094,63.099998474121094,0
2014-02-27,63.099998474121094,63.099998474121094,63.099998474121094,63.099998474121094,63.099998474121094,0
2014-02-28,63.099998474121094,63.099998474121094,63.099998474121094,63.099998474121094,63.099998474121094,0
2014-03-03,63.099998474121094,63.099998474121094,63.099998474121094,63.099998474121094,63.099998474121094,0
2014-03-04,63.099998474121094,63.099998474121094,63.099998474121094,63.099998474121094,63.099998474121094,0
2014-03-05,63.099998474121094,63.099998474121094,63.099998474121094,63.099998474121094,63.099998474121094,0
2014-03-06,63.099998474121094,63.099998474121094,63.099998474121094,63.099998474121094,63.099998474121094,0
2014-03-07,63.099998474121094,63.099998474121094,63.099998474121094,63.099998474121094,63.099998474121094,0
2014-03-10,63.099998474121094,63.099998474121094,63.099998474121094,63.099998474121094,63.099998474121094,0
2014-03-11,63.099998474121094,63.099998474121094,63.099998474121094,63.099998474121094,63.099998474121094,0
2014-03-12,63.099998474121094,63.099998474121094,63.099998474121094,63.099998474121094,63.099998474121094,0
2014-03-13,63.099998474121094,63.099998474121094,63.099998474121094,63.099998474121094,63.099998474121094,0
2014-03-14,63.099998474121094,63.099998474121094,63.099998474121094,63.099998474121094,63.099998474121094,0
2014-03-17,63.099998474121094,63.099998474121094,63.099998474121094,63.099998474121094,63.099998474121094,0
2014-03-18,63.099998474121094,63.099998474121094,63.099998474121094,63.099998474121094,63.099998474121094,0
2014-03-19,63.099998474121094,63.099998474121094,63.099998474121094,63.099998474121094,63.099998474121094,0
2014-03-20,63.099998474121094,63.099998474121094,63.099998474121094,63.099998474121094,63.099998474121094,0
2014-03-21,63.099998474121094,63.099998474121094,63.099998474121094,63.099998474121094,63.099998474121094,0
2014-03-24,63.099998474121094,63.099998474121094,63.099998474121094,63.099998474121094,63.099998474121094,0
2014-03-25,63.099998474121094,63.099998474121094,63.099998474121094,63.099998474121094,63.099998474121094,0
2014-03-26,63.099998474121094,63.099998474121094,63.099998474121094,63.099998474121094,63.099998474121094,0
2014-03-27,63.099998474121094,63.099998474121094,63.099998474121094,63.099998474121094,63.099998474121094,0
2014-03-28,63.099998474121094,63.099998474121094,63.099998474121094,63.099998474121094,63.099998474121094,0
2014-03-31,63.099998474121094,63.099998474121094,63.099998474121094,63.099998474121094,63.099998474121094,0
2014-04-01,63.099998474121094,63.099998474121094,63.099998474121094,63.099998474121094,63.099998474121094,0
2014-04-02,63.099998474121094,63.099998474121094,63.099998474121094,63.099998474121094,63.099998474121094,0
2014-04-03,63.099998474121094,63.099998474121094,63.099998474121094,63.099998474121094,63.099998474121094,0
2014-04-04,63.099998474121094,63.099998474121094,63.099998474121094,63.099998474121094,63.099998474121094,0
2014-04-07,63.099998474121094,63.099998474121094,63.099998474121094,63.099998474121094,63.099998474121094,0
2014-04-08,63.099998474121094,63.099998474121094,63.099998474121094,63.099998474121094,63.099998474121094,0
2014-04-09,63.099998474121094,63.099998474121094,63.099998474121094,63.099998474121094,63.099998474121094,0
2014-04-10,63.099998474121094,63.099998474121094,63.099998474121094,63.099998474121094,63.099998474121094,0
2014-04-11,63.099998474121094,63.099998474121094,63.099998474121094,63.099998474121094,63.099998474121094,0
2014-04-14,63.099998474121094,63.099998474121094,63.099998474121094,63.099998474121094,63.099998474121094,0
2014-04-15,63.099998474121094,63.099998474121094,63.099998474121094,63.099998474121094,63.099998474121094,0
2014-04-16,63.099998474121094,63.099998474121094,63.099998474121094,63.099998474121094,63.099998474121094,0
2014-04-17,63.099998474121094,63.099998474121094,63.099998474121094,63.099998474121094,63.099998474121094,0
2014-04-21,63.099998474121094,63.099998474121094,63.099998474121094,63.099998474121094,63.099998474121094,0
2014-04-22,63.099998474121094,63.099998474121094,63.099998474121094,63.099998474121094,63.099998474121094,0
2014-04-23,63.099998474121094,63.099998474121094,63.099998474121094,63.099998474121094,63.099998474121094,0
2014-04-24,63.099998474121094,63.099998474121094,63.099998474121094,63.099998474121094,63.099998474121094,0
2014-04-25,63.099998474121094,63.099998474121094,63.099998474121094,63.099998474121094,63.099998474121094,0
2014-04-28,63.099998474121094,63.099998474121094,63.099998474121094,63.099998474121094,63.099998474121094,0
2014-04-29,63.099998474121094,63.099998474121094,63.099998474121094,63.099998474121094,63.099998474121094,0
2014-04-30,63.099998474121094,63.099998474121094,63.099998474121094,63.099998474121094,63.099998474121094,0
2014-05-01,63.099998474121094,63.099998474121094,63.099998474121094,63.099998474121094,63.099998474121094,0
2014-05-02,63.099998474121094,63.099998474121094,63.099998474121094,63.099998474121094,63.099998474121094,0
2014-05-05,63.099998474121094,63.099998474121094,63.099998474121094,63.099998474121094,63.099998474121094,0
2014-05-06,63.099998474121094,63.099998474121094,63.099998474121094,63.099998474121094,63.099998474121094,0
2014-05-07,63.099998474121094,63.099998474121094,63.099998474121094,63.099998474121094,63.099998474121094,0
2014-05-08,63.099998474121094,63.099998474121094,63.099998474121094,63.099998474121094,63.099998474121094,0
2014-05-09,63.099998474121094,63.099998474121094,63.099998474121094,63.099998474121094,63.099998474121094,0
2014-05-14,63.099998474121094,63.099998474121094,63.099998474121094,63.099998474121094,63.099998474121094,0
2014-05-16,63.099998474121094,63.099998474121094,63.099998474121094,63.099998474121094,63.099998474121094,0
2014-06-03,63.099998474121094,63.099998474121094,63.099998474121094,63.099998474121094,63.099998474121094,0
2014-06-17,63.099998474121094,63.099998474121094,63.099998474121094,63.099998474121094,63.099998474121094,0
2014-06-18,63.099998474121094,63.099998474121094,63.099998474121094,63.099998474121094,63.099998474121094,0
2014-06-19,63.099998474121094,63.099998474121094,63.099998474121094,63.099998474121094,63.099998474121094,0
2014-06-20,63.099998474121094,63.099998474121094,63.099998474121094,63.099998474121094,63.099998474121094,0
2014-06-23,63.099998474121094,63.099998474121094,63.099998474121094,63.099998474121094,63.099998474121094,0
2014-06-24,63.099998474121094,63.099998474121094,63.099998474121094,63.099998474121094,63.099998474121094,0
2014-06-25,63.099998474121094,63.099998474121094,63.099998474121094,63.099998474121094,63.099998474121094,0
2014-06-26,63.099998474121094,63.099998474121094,63.099998474121094,63.099998474121094,63.099998474121094,0
2014-06-27,63.099998474121094,63.099998474121094,63.099998474121094,63.099998474121094,63.099998474121094,0
2014-06-30,63.099998474121094,63.099998474121094,63.099998474121094,63.099998474121094,63.099998474121094,0
2014-07-01,63.099998474121094,63.099998474121094,63.099998474121094,63.099998474121094,63.099998474121094,0
2014-07-02,63.099998474121094,63.099998474121094,63.099998474121094,63.099998474121094,63.099998474121094,0
2014-07-03,63.099998474121094,63.099998474121094,63.099998474121094,63.099998474121094,63.099998474121094,0
2014-07-07,63.099998474121094,63.099998474121094,63.099998474121094,63.099998474121094,63.099998474121094,0
2014-07-08,63.099998474121094,63.099998474121094,63.099998474121094,63.099998474121094,63.099998474121094,0
2014-07-09,63.099998474121094,63.099998474121094,63.099998474121094,63.099998474121094,63.099998474121094,0
2014-07-10,63.099998474121094,63.099998474121094,63.099998474121094,63.099998474121094,63.099998474121094,0
2014-07-11,63.099998474121094,63.099998474121094,63.099998474121094,63.099998474121094,63.099998474121094,0
2014-07-14,63.099998474121094,63.099998474121094,63.099998474121094,63.099998474121094,63.099998474121094,0
2014-07-15,63.099998474121094,63.099998474121094,63.099998474121094,63.099998474121094,63.099998474121094,0
2014-07-16,63.099998474121094,63.099998474121094,63.099998474121094,63.099998474121094,63.099998474121094,0
2014-07-17,63.099998474121094,63.099998474121094,63.099998474121094,63.099998474121094,63.099998474121094,0
2014-07-21,63.099998474121094,63.099998474121094,63.099998474121094,63.099998474121094,63.099998474121094,0
2014-07-23,63.099998474121094,63.099998474121094,63.099998474121094,63.099998474121094,63.099998474121094,0
2014-07-25,63.099998474121094,63.099998474121094,63.099998474121094,63.099998474121094,63.099998474121094,0
2014-07-28,63.099998474121094,63.099998474121094,63.099998474121094,63.099998474121094,63.099998474121094,0
2014-07-29,63.099998474121094,63.099998474121094,63.099998474121094,63.099998474121094,63.099998474121094,0
2014-07-30,63.099998474121094,63.099998474121094,63.099998474121094,63.099998474121094,63.099998474121094,0
2014-07-31,63.099998474121094,63.099998474121094,63.099998474121094,63.099998474121094,63.099998474121094,0
2014-08-01,63.099998474121094,63.099998474121094,63.099998474121094,63.099998474121094,63.099998474121094,0
2014-08-05,63.099998474121094,63.099998474121094,63.099998474121094,63.099998474121094,63.099998474121094,0
2014-08-07,63.099998474121094,63.099998474121094,63.099998474121094,63.099998474121094,63.099998474121094,0
2014-08-12,63.099998474121094,63.099998474121094,63.099998474121094,63.099998474121094,63.099998474121094,0
2014-08-14,63.099998474121094,63.099998474121094,63.099998474121094,63.099998474121094,63.099998474121094,0
2014-08-18,63.099998474121094,63.099998474121094,63.099998474121094,63.099998474121094,63.099998474121094,0
2014-08-19,63.099998474121094,63.099998474121094,63.099998474121094,63.099998474121094,63.099998474121094,0
2014-08-21,63.099998474121094,63.099998474121094,63.099998474121094,63.099998474121094,63.099998474121094,0
2014-08-22,63.099998474121094,63.099998474121094,63.099998474121094,63.099998474121094,63.099998474121094,0
2014-08-26,63.099998474121094,63.099998474121094,63.099998474121094,63.099998474121094,63.099998474121094,0
2014-08-27,63.099998474121094,63.099998474121094,63.099998474121094,63.099998474121094,63.099998474121094,0
2014-08-29,63.099998474121094,63.099998474121094,63.099998474121094,63.099998474121094,63.099998474121094,0
2014-09-04,63.099998474121094,63.099998474121094,63.099998474121094,63.099998474121094,63.099998474121094,0
2014-09-05,63.099998474121094,63.099998474121094,63.099998474121094,63.099998474121094,63.099998474121094,0
2014-09-17,63.099998474121094,63.099998474121094,63.099998474121094,63.099998474121094,63.099998474121094,0
2014-09-19,63.099998474121094,63.099998474121094,63.099998474121094,63.099998474121094,63.099998474121094,0
2014-09-22,63.099998474121094,63.099998474121094,63.099998474121094,63.099998474121094,63.099998474121094,0
2014-10-03,63.099998474121094,63.099998474121094,63.099998474121094,63.099998474121094,63.099998474121094,0
2014-10-08,63.099998474121094,63.099998474121094,63.099998474121094,63.099998474121094,63.099998474121094,0
2014-10-15,63.099998474121094,63.099998474121094,63.099998474121094,63.099998474121094,63.099998474121094,0
2014-10-16,63.099998474121094,63.099998474121094,63.099998474121094,63.099998474121094,63.099998474121094,0
2014-10-17,63.099998474121094,63.099998474121094,63.099998474121094,63.099998474121094,63.099998474121094,0
2014-10-20,63.099998474121094,63.099998474121094,63.099998474121094,63.099998474121094,63.099998474121094,0
2014-10-21,63.099998474121094,63.099998474121094,63.099998474121094,63.099998474121094,63.099998474121094,0
2014-10-22,63.099998474121094,63.099998474121094,63.099998474121094,63.099998474121094,63.099998474121094,0
2014-10-23,63.099998474121094,63.099998474121094,63.099998474121094,63.099998474121094,63.099998474121094,0
2014-10-24,63.099998474121094,63.099998474121094,63.099998474121094,63.099998474121094,63.099998474121094,0
2014-10-27,63.099998474121094,63.099998474121094,63.099998474121094,63.099998474121094,63.099998474121094,0
2014-10-28,63.099998474121094,63.099998474121094,63.099998474121094,63.099998474121094,63.099998474121094,0
2014-10-31,63.099998474121094,63.099998474121094,63.099998474121094,63.099998474121094,63.099998474121094,0
2014-11-03,63.099998474121094,63.099998474121094,63.099998474121094,63.099998474121094,63.099998474121094,0
2014-11-05,63.099998474121094,63.099998474121094,63.099998474121094,63.099998474121094,63.099998474121094,0
2014-11-07,63.099998474121094,63.099998474121094,63.099998474121094,63.099998474121094,63.099998474121094,0
2014-11-10,63.099998474121094,63.099998474121094,63.099998474121094,63.099998474121094,63.099998474121094,0
2014-11-12,63.099998474121094,63.099998474121094,63.099998474121094,63.099998474121094,63.099998474121094,0
2014-11-13,63.099998474121094,63.099998474121094,63.099998474121094,63.099998474121094,63.099998474121094,0
2014-11-14,63.099998474121094,63.099998474121094,63.099998474121094,63.099998474121094,63.099998474121094,0
2014-11-21,63.099998474121094,63.099998474121094,63.099998474121094,63.099998474121094,63.099998474121094,0
2014-11-24,63.099998474121094,63.099998474121094,63.099998474121094,63.099998474121094,63.099998474121094,0
2014-11-25,63.099998474121094,63.099998474121094,63.099998474121094,63.099998474121094,63.099998474121094,0
2014-11-28,63.099998474121094,63.099998474121094,63.099998474121094,63.099998474121094,63.099998474121094,0
2014-12-01,63.099998474121094,63.099998474121094,63.099998474121094,63.099998474121094,63.099998474121094,0
2014-12-09,63.099998474121094,63.099998474121094,63.099998474121094,63.099998474121094,63.099998474121094,0
2014-12-10,63.099998474121094,63.099998474121094,63.099998474121094,63.099998474121094,63.099998474121094,0
2014-12-19,63.099998474121094,63.099998474121094,63.099998474121094,63.099998474121094,63.099998474121094,0
2015-01-05,63.099998474121094,63.099998474121094,63.099998474121094,63.099998474121094,63.099998474121094,0
2015-01-06,63.099998474121094,63.099998474121094,63.099998474121094,63.099998474121094,63.099998474121094,0
2015-01-28,63.099998474121094,63.099998474121094,63.099998474121094,63.099998474121094,63.099998474121094,0
2015-01-29,63.099998474121094,63.099998474121094,63.099998474121094,63.099998474121094,63.099998474121094,0
2015-01-30,63.099998474121094,63.099998474121094,63.099998474121094,63.099998474121094,63.099998474121094,0
2015-02-02,63.099998474121094,63.099998474121094,63.099998474121094,63.099998474121094,63.099998474121094,0
2015-02-03,63.099998474121094,63.099998474121094,63.099998474121094,63.099998474121094,63.099998474121094,0
2015-02-04,63.099998474121094,63.099998474121094,63.099998474121094,63.099998474121094,63.099998474121094,0
2015-02-05,63.099998474121094,63.099998474121094,63.099998474121094,63.099998474121094,63.099998474121094,0
2015-02-06,63.099998474121094,63.099998474121094,63.099998474121094,63.099998474121094,63.099998474121094,0
2015-02-09,63.099998474121094,63.099998474121094,63.099998474121094,63.099998474121094,63.099998474121094,0
2015-02-10,63.099998474121094,63.099998474121094,63.099998474121094,63.099998474121094,63.099998474121094,0
2015-02-13,63.099998474121094,63.099998474121094,63.099998474121094,63.099998474121094,63.099998474121094,0
2015-02-19,63.099998474121094,63.099998474121094,63.099998474121094,63.099998474121094,63.099998474121094,0
2015-02-20,63.099998474121094,63.099998474121094,63.099998474121094,63.099998474121094,63.099998474121094,0
2015-02-24,63.099998474121094,63.099998474121094,63.099998474121094,63.099998474121094,63.099998474121094,0
2015-02-25,63.099998474121094,63.099998474121094,63.099998474121094,63.099998474121094,63.099998474121094,0
2015-02-27,63.099998474121094,63.099998474121094,63.099998474121094,63.099998474121094,63.099998474121094,0
2015-03-02,63.099998474121094,63.099998474121094,63.099998474121094,63.099998474121094,63.099998474121094,0
2015-03-04,63.099998474121094,63.099998474121094,63.099998474121094,63.099998474121094,63.099998474121094,0
2015-03-05,63.099998474121094,63.099998474121094,63.099998474121094,63.099998474121094,63.099998474121094,0
2015-03-06,63.099998474121094,63.099998474121094,63.099998474121094,63.099998474121094,63.099998474121094,0
2015-03-09,63.099998474121094,63.099998474121094,63.099998474121094,63.099998474121094,63.099998474121094,0
2015-03-10,63.099998474121094,63.099998474121094,63.099998474121094,63.099998474121094,63.099998474121094,0
2015-03-11,63.099998474121094,63.099998474121094,63.099998474121094,63.099998474121094,63.099998474121094,0
2015-03-12,63.099998474121094,63.099998474121094,63.099998474121094,63.099998474121094,63.099998474121094,0
2015-03-19,63.099998474121094,63.099998474121094,63.099998474121094,63.099998474121094,63.099998474121094,0
2015-03-20,63.099998474121094,63.099998474121094,63.099998474121094,63.099998474121094,63.099998474121094,0
2015-03-23,63.099998474121094,63.099998474121094,63.099998474121094,63.099998474121094,63.099998474121094,0
2015-03-25,63.099998474121094,63.099998474121094,63.099998474121094,63.099998474121094,63.099998474121094,0
2015-03-27,63.099998474121094,63.099998474121094,63.099998474121094,63.099998474121094,63.099998474121094,0
2015-04-06,63.099998474121094,63.099998474121094,63.099998474121094,63.099998474121094,63.099998474121094,0
2015-04-07,63.099998474121094,63.099998474121094,63.099998474121094,63.099998474121094,63.099998474121094,0
2015-04-14,63.099998474121094,63.099998474121094,63.099998474121094,63.099998474121094,63.099998474121094,0
2015-04-27,63.099998474121094,63.099998474121094,63.099998474121094,63.099998474121094,63.099998474121094,0
2015-05-14,63.099998474121094,63.099998474121094,63.099998474121094,63.099998474121094,63.099998474121094,0
2015-05-15,63.099998474121094,63.099998474121094,63.099998474121094,63.099998474121094,63.099998474121094,0
2015-05-18,63.099998474121094,63.099998474121094,63.099998474121094,63.099998474121094,63.099998474121094,0
2015-05-19,63.099998474121094,63.099998474121094,63.099998474121094,63.099998474121094,63.099998474121094,0
2015-05-20,63.099998474121094,63.099998474121094,63.099998474121094,63.099998474121094,63.099998474121094,0
2015-05-21,63.099998474121094,63.099998474121094,63.099998474121094,63.099998474121094,63.099998474121094,0
2015-05-22,63.099998474121094,63.099998474121094,63.099998474121094,63.099998474121094,63.099998474121094,0
2015-05-26,63.099998474121094,63.099998474121094,63.099998474121094,63.099998474121094,63.099998474121094,0
2015-05-27,63.099998474121094,63.099998474121094,63.099998474121094,63.099998474121094,63.099998474121094,0
2015-05-29,63.099998474121094,63.099998474121094,63.099998474121094,63.099998474121094,63.099998474121094,0
2015-06-02,63.099998474121094,63.099998474121094,63.099998474121094,63.099998474121094,63.099998474121094,0
2015-06-04,63.099998474121094,63.099998474121094,63.099998474121094,63.099998474121094,63.099998474121094,0
2015-06-05,63.099998474121094,63.099998474121094,63.099998474121094,63.099998474121094,63.099998474121094,0
2015-06-10,63.099998474121094,63.099998474121094,63.099998474121094,63.099998474121094,63.099998474121094,0
2015-06-11,63.099998474121094,63.099998474121094,63.099998474121094,63.099998474121094,63.099998474121094,0
2015-06-15,63.099998474121094,63.099998474121094,63.099998474121094,63.099998474121094,63.099998474121094,0
2015-06-16,63.099998474121094,63.099998474121094,63.099998474121094,63.099998474121094,63.099998474121094,0
2015-06-17,63.099998474121094,63.099998474121094,63.099998474121094,63.099998474121094,63.099998474121094,0
2015-06-23,63.099998474121094,63.099998474121094,63.099998474121094,63.099998474121094,63.099998474121094,0
2015-06-29,63.099998474121094,63.099998474121094,63.099998474121094,63.099998474121094,63.099998474121094,0
2015-06-30,63.099998474121094,63.099998474121094,63.099998474121094,63.099998474121094,63.099998474121094,0
2015-07-01,63.099998474121094,63.099998474121094,63.099998474121094,63.099998474121094,63.099998474121094,0
2015-07-02,63.099998474121094,63.099998474121094,63.099998474121094,63.099998474121094,63.099998474121094,0
2015-07-06,63.099998474121094,63.099998474121094,63.099998474121094,63.099998474121094,63.099998474121094,0
2015-07-07,63.099998474121094,63.099998474121094,63.099998474121094,63.099998474121094,63.099998474121094,0
2015-07-09,63.099998474121094,63.099998474121094,63.099998474121094,63.099998474121094,63.099998474121094,0
2015-07-10,63.099998474121094,63.099998474121094,63.099998474121094,63.099998474121094,63.099998474121094,0
2015-07-14,63.099998474121094,63.099998474121094,63.099998474121094,63.099998474121094,63.099998474121094,0
2015-07-22,63.099998474121094,63.099998474121094,63.099998474121094,63.099998474121094,63.099998474121094,0
2015-08-25,63.099998474121094,63.099998474121094,63.099998474121094,63.099998474121094,63.099998474121094,0
2015-08-26,63.099998474121094,63.099998474121094,63.099998474121094,63.099998474121094,63.099998474121094,0
2015-08-27,63.099998474121094,63.099998474121094,63.099998474121094,63.099998474121094,63.099998474121094,0
2015-08-28,63.099998474121094,63.099998474121094,63.099998474121094,63.099998474121094,63.099998474121094,0
2015-08-31,63.099998474121094,63.099998474121094,63.099998474121094,63.099998474121094,63.099998474121094,0
2015-09-01,63.099998474121094,63.099998474121094,63.099998474121094,63.099998474121094,63.099998474121094,0
2015-09-02,63.099998474121094,63.099998474121094,63.099998474121094,63.099998474121094,63.099998474121094,0
2015-09-03,63.099998474121094,63.099998474121094,63.099998474121094,63.099998474121094,63.099998474121094,0
2015-09-04,63.099998474121094,63.099998474121094,63.099998474121094,63.099998474121094,63.099998474121094,0
2015-09-08,63.099998474121094,63.099998474121094,63.099998474121094,63.099998474121094,63.099998474121094,0
2015-09-09,63.099998474121094,63.099998474121094,63.099998474121094,63.099998474121094,63.099998474121094,0
2015-09-10,63.099998474121094,63.099998474121094,63.099998474121094,63.099998474121094,63.099998474121094,0
2015-09-11,63.099998474121094,63.099998474121094,63.099998474121094,63.099998474121094,63.099998474121094,0
2015-09-14,63.099998474121094,63.099998474121094,63.099998474121094,63.099998474121094,63.099998474121094,0
2015-09-15,63.099998474121094,63.099998474121094,63.099998474121094,63.099998474121094,63.099998474121094,0
2015-09-16,63.099998474121094,63.099998474121094,63.099998474121094,63.099998474121094,63.099998474121094,0
2015-09-17,63.099998474121094,63.099998474121094,63.099998474121094,63.099998474121094,63.099998474121094,0
2015-09-18,63.099998474121094,63.099998474121094,63.099998474121094,63.099998474121094,63.099998474121094,0
2015-09-22,63.099998474121094,63.099998474121094,63.099998474121094,63.099998474121094,63.099998474121094,0
2015-09-24,63.099998474121094,63.099998474121094,63.099998474121094,63.099998474121094,63.099998474121094,0
2015-09-28,63.099998474121094,63.099998474121094,63.099998474121094,63.099998474121094,63.099998474121094,0
2015-09-29,63.099998474121094,63.099998474121094,63.099998474121094,63.099998474121094,63.099998474121094,0
2015-09-30,63.099998474121094,63.099998474121094,63.099998474121094,63.099998474121094,63.099998474121094,0
2015-10-01,63.099998474121094,63.099998474121094,63.099998474121094,63.099998474121094,63.099998474121094,0
2015-10-02,63.099998474121094,63.099998474121094,63.099998474121094,63.099998474121094,63.099998474121094,0
2015-10-05,63.099998474121094,63.099998474121094,63.099998474121094,63.099998474121094,63.099998474121094,0
2016-08-03,74.45999908447266,74.45999908447266,74.45999908447266,74.45999908447266,74.45999908447266,0
2016-08-19,78.01000213623047,78.01000213623047,78.01000213623047,78.01000213623047,78.01000213623047,0
2016-08-22,77.68000030517578,77.68000030517578,77.68000030517578,77.68000030517578,77.68000030517578,0
2016-08-23,77.66000366210938,77.66000366210938,77.66000366210938,77.66000366210938,77.66000366210938,0
2016-08-24,77.56999969482422,77.56999969482422,77.56999969482422,77.56999969482422,77.56999969482422,0
2016-08-25,77.88999938964844,77.88999938964844,77.88999938964844,77.88999938964844,77.88999938964844,0
2016-08-26,77.5,77.5,77.5,77.5,77.5,0
2016-08-29,77.48999786376953,77.48999786376953,77.48999786376953,77.48999786376953,77.48999786376953,0
2016-08-30,78.13999938964844,78.13999938964844,78.13999938964844,78.13999938964844,78.13999938964844,0
2016-08-31,78.04000091552734,78.04000091552734,78.04000091552734,78.04000091552734,78.04000091552734,0
2016-09-01,78.37000274658203,78.37000274658203,78.37000274658203,78.37000274658203,78.37000274658203,0
2016-09-02,78.58999633789062,78.58999633789062,78.58999633789062,78.58999633789062,78.58999633789062,0
2016-09-06,79.81999969482422,79.81999969482422,79.81999969482422,79.81999969482422,79.81999969482422,0
2016-09-07,79.52999877929688,79.52999877929688,79.52999877929688,79.52999877929688,79.52999877929688,0
2016-09-08,79.62000274658203,79.62000274658203,79.62000274658203,79.62000274658203,79.62000274658203,0
2016-09-09,79.43000030517578,79.43000030517578,79.43000030517578,79.43000030517578,79.43000030517578,0
2016-09-12,77.58999633789062,77.58999633789062,77.58999633789062,77.58999633789062,77.58999633789062,0
2016-09-13,77.9000015258789,77.9000015258789,77.9000015258789,77.9000015258789,77.9000015258789,0
2016-09-14,77.11000061035156,77.11000061035156,77.11000061035156,77.11000061035156,77.11000061035156,0
2016-09-15,76.37000274658203,76.37000274658203,76.37000274658203,76.37000274658203,76.37000274658203,0
2016-09-16,77.05000305175781,77.05000305175781,77.05000305175781,77.05000305175781,77.05000305175781,0
2016-09-19,77.11000061035156,77.11000061035156,77.11000061035156,77.11000061035156,77.11000061035156,0
2016-09-20,77.30999755859375,77.30999755859375,77.30999755859375,77.30999755859375,77.30999755859375,0
2016-09-21,77.93000030517578,77.93000030517578,77.93000030517578,77.93000030517578,77.93000030517578,0
2016-09-22,77.95999908447266,77.95999908447266,77.95999908447266,77.95999908447266,77.95999908447266,0
2016-09-23,78.58999633789062,78.58999633789062,78.58999633789062,78.58999633789062,78.58999633789062,0
2016-09-26,78.05000305175781,78.05000305175781,78.05000305175781,78.05000305175781,78.05000305175781,0
2016-09-27,78.19999694824219,78.19999694824219,78.19999694824219,78.19999694824219,78.19999694824219,0
2016-09-28,77.79000091552734,77.79000091552734,77.79000091552734,77.79000091552734,77.79000091552734,0
2016-09-29,78.80999755859375,78.80999755859375,78.80999755859375,78.80999755859375,78.80999755859375,0
2016-09-30,77.4000015258789,77.4000015258789,77.4000015258789,77.4000015258789,77.4000015258789,0
2016-10-03,78.94999694824219,78.94999694824219,78.94999694824219,78.94999694824219,78.94999694824219,0
2016-10-04,78.77999877929688,78.77999877929688,78.77999877929688,78.77999877929688,78.77999877929688,0
2016-10-05,78.48999786376953,78.48999786376953,78.48999786376953,78.48999786376953,78.48999786376953,0
2016-10-06,78.81999969482422,78.81999969482422,78.81999969482422,78.81999969482422,78.81999969482422,0
2016-10-07,78.44999694824219,78.44999694824219,78.44999694824219,78.44999694824219,78.44999694824219,0
2016-10-10,77.51000213623047,77.51000213623047,77.51000213623047,77.51000213623047,77.51000213623047,0
2016-10-11,78.22000122070312,78.22000122070312,78.22000122070312,78.22000122070312,78.22000122070312,0
2016-10-12,77.76000213623047,77.76000213623047,77.76000213623047,77.76000213623047,77.76000213623047,0
2016-10-13,76.88999938964844,76.88999938964844,76.88999938964844,76.88999938964844,76.88999938964844,0
2016-10-14,78.12000274658203,78.12000274658203,78.12000274658203,78.12000274658203,78.12000274658203,0
2016-10-17,77.7699966430664,77.7699966430664,77.7699966430664,77.7699966430664,77.7699966430664,0
2016-10-18,78.61000061035156,78.61000061035156,78.61000061035156,78.61000061035156,78.61000061035156,0
2016-10-19,78.7300033569336,78.7300033569336,78.7300033569336,78.7300033569336,78.7300033569336,0
2016-10-20,79.06999969482422,79.06999969482422,79.06999969482422,79.06999969482422,79.06999969482422,0
2016-10-21,79.08000183105469,79.08000183105469,79.08000183105469,79.08000183105469,79.08000183105469,0
2016-10-24,79.47000122070312,79.47000122070312,79.47000122070312,79.47000122070312,79.47000122070312,0
2016-10-25,79.4000015258789,79.4000015258789,79.4000015258789,79.4000015258789,79.4000015258789,0
2016-10-26,79.22000122070312,79.22000122070312,79.22000122070312,79.22000122070312,79.22000122070312,0
2016-10-27,78.66999816894531,78.66999816894531,78.66999816894531,78.66999816894531,78.66999816894531,0
2016-10-28,78.11000061035156,78.11000061035156,78.11000061035156,78.11000061035156,78.11000061035156,0
2016-10-31,78.05000305175781,78.05000305175781,78.05000305175781,78.05000305175781,78.05000305175781,0
2016-11-01,77.55999755859375,77.55999755859375,77.55999755859375,77.55999755859375,77.55999755859375,0
2016-11-02,76.58000183105469,76.58000183105469,76.58000183105469,76.58000183105469,76.58000183105469,0
2016-11-03,76.12000274658203,76.12000274658203,76.12000274658203,76.12000274658203,76.12000274658203,0
2016-11-04,74.86000061035156,74.86000061035156,74.86000061035156,74.86000061035156,74.86000061035156,0
2016-11-07,75.47000122070312,75.47000122070312,75.47000122070312,75.47000122070312,75.47000122070312,0
2016-11-08,75.30999755859375,75.30999755859375,75.30999755859375,75.30999755859375,75.30999755859375,0
2016-11-09,74.69999694824219,74.69999694824219,74.69999694824219,74.69999694824219,74.69999694824219,0
2016-11-10,76.19999694824219,76.19999694824219,76.19999694824219,76.19999694824219,76.19999694824219,0
2016-11-11,75.18000030517578,75.18000030517578,75.18000030517578,75.18000030517578,75.18000030517578,0
2016-11-14,75.31999969482422,75.31999969482422,75.31999969482422,75.31999969482422,75.31999969482422,0
2016-11-15,75.37999725341797,75.37999725341797,75.37999725341797,75.37999725341797,75.37999725341797,0
2016-11-16,75.80000305175781,75.80000305175781,75.80000305175781,75.80000305175781,75.80000305175781,0
2016-11-17,75.36000061035156,75.36000061035156,75.36000061035156,75.36000061035156,75.36000061035156,0
2016-11-18,76.16999816894531,76.16999816894531,76.16999816894531,76.16999816894531,76.16999816894531,0
2016-11-21,75.95999908447266,75.95999908447266,75.95999908447266,75.95999908447266,75.95999908447266,0
2016-11-22,76.16000366210938,76.16000366210938,76.16000366210938,76.16000366210938,76.16000366210938,0
2016-11-23,76.4800033569336,76.4800033569336,76.4800033569336,76.4800033569336,76.4800033569336,0
2016-11-25,76.7699966430664,76.7699966430664,76.7699966430664,76.7699966430664,76.7699966430664,0
2016-11-28,76.16999816894531,76.16999816894531,76.16999816894531,76.16999816894531,76.16999816894531,0
2016-11-29,76.12999725341797,76.12999725341797,76.12999725341797,76.12999725341797,76.12999725341797,0
2016-11-30,77.16000366210938,77.16000366210938,77.16000366210938,77.16000366210938,77.16000366210938,0
2016-12-01,77.41000366210938,77.41000366210938,77.41000366210938,77.41000366210938,77.41000366210938,0
2016-12-02,76.08000183105469,76.08000183105469,76.08000183105469,76.08000183105469,76.08000183105469,0
2016-12-05,76.02999877929688,76.02999877929688,76.02999877929688,76.02999877929688,76.02999877929688,0
2016-12-06,75.58000183105469,75.58000183105469,75.58000183105469,75.58000183105469,75.58000183105469,0
2016-12-07,76.9800033569336,76.9800033569336,76.9800033569336,76.9800033569336,76.9800033569336,0
2016-12-08,77.76000213623047,77.76000213623047,77.76000213623047,77.76000213623047,77.76000213623047,0
2016-12-09,78.47000122070312,78.47000122070312,78.47000122070312,78.47000122070312,78.47000122070312,0
2016-12-12,79.4000015258789,79.4000015258789,79.4000015258789,79.4000015258789,79.4000015258789,0
2016-12-13,79.22000122070312,79.22000122070312,79.22000122070312,79.22000122070312,79.22000122070312,0
2016-12-14,79.68000030517578,79.68000030517578,79.68000030517578,79.68000030517578,79.68000030517578,0
2016-12-15,79.2699966430664,79.2699966430664,79.2699966430664,79.2699966430664,79.2699966430664,0
2016-12-16,79.48999786376953,79.48999786376953,79.48999786376953,79.48999786376953,79.48999786376953,0
2016-12-19,79.27999877929688,79.27999877929688,79.27999877929688,79.27999877929688,79.27999877929688,0
2016-12-20,79.5199966430664,79.5199966430664,79.5199966430664,79.5199966430664,79.5199966430664,0
2016-12-21,79.43000030517578,79.43000030517578,79.43000030517578,79.43000030517578,79.43000030517578,0
2016-12-22,79.4000015258789,79.4000015258789,79.4000015258789,79.4000015258789,79.4000015258789,0
2016-12-23,79.47000122070312,79.47000122070312,79.47000122070312,79.47000122070312,79.47000122070312,0
2016-12-27,79.69999694824219,79.69999694824219,79.69999694824219,79.69999694824219,79.69999694824219,0
2016-12-28,79.66000366210938,79.66000366210938,79.66000366210938,79.66000366210938,79.66000366210938,0
2016-12-29,79.31999969482422,79.31999969482422,79.31999969482422,79.31999969482422,79.31999969482422,0
2016-12-30,79.44000244140625,79.44000244140625,79.44000244140625,79.44000244140625,79.44000244140625,0
2017-01-03,80.08999633789062,80.08999633789062,80.08999633789062,80.08999633789062,80.08999633789062,0
2017-01-04,80.05999755859375,80.05999755859375,80.05999755859375,80.05999755859375,80.05999755859375,0
2017-01-05,79.4800033569336,79.4800033569336,79.4800033569336,79.4800033569336,79.4800033569336,0
2017-01-06,79.23999786376953,79.23999786376953,79.23999786376953,79.23999786376953,79.23999786376953,0
2017-01-09,79.0999984741211,79.0999984741211,79.0999984741211,79.0999984741211,79.0999984741211,0
2017-01-10,78.68000030517578,78.68000030517578,78.68000030517578,78.68000030517578,78.68000030517578,0
2017-01-11,78.47000122070312,78.47000122070312,78.47000122070312,78.47000122070312,78.47000122070312,0
2017-01-23,78.45999908447266,78.45999908447266,78.45999908447266,78.45999908447266,78.45999908447266,0
2017-01-24,78.70999908447266,78.70999908447266,78.70999908447266,78.70999908447266,78.70999908447266,0
2017-01-25,79.77999877929688,79.77999877929688,79.77999877929688,79.77999877929688,79.77999877929688,0
2017-01-26,80.69999694824219,80.69999694824219,80.69999694824219,80.69999694824219,80.69999694824219,0
2017-01-27,80.7300033569336,80.7300033569336,80.7300033569336,80.7300033569336,80.7300033569336,0
2017-01-30,79.87000274658203,79.87000274658203,79.87000274658203,79.87000274658203,79.87000274658203,0
2017-01-31,79.72000122070312,79.72000122070312,79.72000122070312,79.72000122070312,79.72000122070312,0
2017-02-01,79.20999908447266,79.20999908447266,79.20999908447266,79.20999908447266,79.20999908447266,0
2017-02-02,79.08999633789062,79.08999633789062,79.08999633789062,79.08999633789062,79.08999633789062,0
2017-02-03,79.25,79.25,79.25,79.25,79.25,0
2017-02-06,79.91999816894531,79.91999816894531,79.91999816894531,79.91999816894531,79.91999816894531,0
2017-02-07,78.98999786376953,78.98999786376953,78.98999786376953,78.98999786376953,78.98999786376953,0
2017-02-08,79.55999755859375,79.55999755859375,79.55999755859375,79.55999755859375,79.55999755859375,0
2017-02-09,79.47000122070312,79.47000122070312,79.47000122070312,79.47000122070312,79.47000122070312,0
2017-02-10,79.94000244140625,79.94000244140625,79.94000244140625,79.94000244140625,79.94000244140625,0
2017-03-10,82.94000244140625,82.94000244140625,82.94000244140625,82.94000244140625,82.94000244140625,0
2017-03-13,83.12999725341797,83.12999725341797,83.12999725341797,83.12999725341797,83.12999725341797,0
