Date,Open,High,Low,Close,Adj Close,Volume
2019-07-24,19.889999389648438,19.889999389648438,19.399999618530273,19.59000015258789,19.59000015258789,124500
2019-07-25,19.5,19.860000610351562,19.5,19.75,19.75,52000
2019-07-26,19.790000915527344,19.790000915527344,19.56999969482422,19.709999084472656,19.709999084472656,11400
2019-07-29,19.802000045776367,19.889999389648438,19.729999542236328,19.829999923706055,19.829999923706055,8500
2019-07-30,19.889999389648438,19.950000762939453,19.850000381469727,19.899999618530273,19.899999618530273,12600
2019-07-31,19.889999389648438,19.951000213623047,19.8700008392334,19.915000915527344,19.915000915527344,21200
2019-08-01,20.0,20.469999313354492,20.0,20.34000015258789,20.34000015258789,19700
2019-08-02,20.100000381469727,20.100000381469727,19.940000534057617,20.049999237060547,20.049999237060547,1100
2019-08-05,20.100000381469727,20.100000381469727,19.850000381469727,19.95400047302246,19.95400047302246,14100
2019-08-06,20.0,20.0,19.850000381469727,19.8799991607666,19.8799991607666,11400
2019-08-07,19.90999984741211,20.170000076293945,19.799999237060547,20.010000228881836,20.010000228881836,10300
2019-08-08,20.0,20.125999450683594,19.92799949645996,20.125999450683594,20.125999450683594,5300
2019-08-09,20.239999771118164,20.3700008392334,19.989999771118164,20.170000076293945,20.170000076293945,10400
2019-08-12,20.040000915527344,20.18000030517578,20.0,20.110000610351562,20.110000610351562,1000
2019-08-13,20.18000030517578,20.299999237060547,20.100000381469727,20.299999237060547,20.299999237060547,5400
2019-08-14,20.280000686645508,20.280000686645508,20.128999710083008,20.149999618530273,20.149999618530273,2700
2019-08-15,20.100000381469727,20.149999618530273,19.649999618530273,19.649999618530273,19.649999618530273,5800
2019-08-16,19.899999618530273,20.329999923706055,19.899999618530273,20.18000030517578,20.18000030517578,12800
2019-08-19,20.149999618530273,20.299999237060547,20.149999618530273,20.200000762939453,20.200000762939453,3700
2019-08-20,20.10700035095215,20.200000762939453,20.010000228881836,20.010000228881836,20.010000228881836,1700
2019-08-21,19.950000762939453,19.979999542236328,19.8799991607666,19.979999542236328,19.979999542236328,4300
2019-08-22,19.989999771118164,20.15999984741211,19.849000930786133,20.149999618530273,20.149999618530273,2300
2019-08-23,19.850000381469727,20.049999237060547,19.812000274658203,20.03499984741211,20.03499984741211,9200
2019-08-26,19.8799991607666,20.049999237060547,19.8799991607666,19.8799991607666,19.8799991607666,2100
2019-08-27,19.8799991607666,20.0,19.56999969482422,19.56999969482422,19.56999969482422,6000
2019-08-28,19.854999542236328,20.0,19.6299991607666,19.899999618530273,19.899999618530273,7200
2019-08-29,19.989999771118164,20.0,19.799999237060547,20.0,20.0,4500
2019-08-30,20.0,20.0,19.726999282836914,19.75,19.75,5800
2019-09-03,20.229999542236328,20.290000915527344,19.895999908447266,20.0,20.0,9900
2019-09-04,20.25,20.25,19.75,19.81999969482422,19.81999969482422,5400
2019-09-05,19.975000381469727,20.01799964904785,19.81999969482422,19.81999969482422,19.81999969482422,900
2019-09-06,20.010000228881836,20.014999389648438,19.81999969482422,19.81999969482422,19.81999969482422,2700
2019-09-09,20.010000228881836,20.010000228881836,19.950000762939453,19.950000762939453,19.950000762939453,2000
2019-09-10,19.899999618530273,20.01300048828125,19.899999618530273,20.010000228881836,20.010000228881836,3300
2019-09-11,19.899999618530273,20.184999465942383,19.899999618530273,19.90999984741211,19.90999984741211,14700
2019-09-12,19.90999984741211,19.90999984741211,19.90999984741211,19.90999984741211,19.90999984741211,0
2019-09-13,19.920000076293945,19.92099952697754,19.899999618530273,19.899999618530273,19.899999618530273,2000
2019-09-16,19.850000381469727,19.90999984741211,19.850000381469727,19.850000381469727,19.850000381469727,2000
2019-09-17,19.829999923706055,20.030000686645508,19.621999740600586,19.65999984741211,19.65999984741211,10000
2019-09-18,19.84000015258789,19.847000122070312,19.709999084472656,19.709999084472656,19.709999084472656,11000
2019-09-19,19.709999084472656,19.989999771118164,19.489999771118164,19.549999237060547,19.549999237060547,17300
2019-09-20,19.534000396728516,19.549999237060547,19.520000457763672,19.520000457763672,19.520000457763672,1200
2019-09-23,19.549999237060547,19.549999237060547,19.5,19.5,19.5,4000
2019-09-24,19.489999771118164,19.829999923706055,19.350000381469727,19.5,19.5,9600
2019-09-25,19.399999618530273,19.399999618530273,19.399999618530273,19.399999618530273,19.399999618530273,100
2019-09-26,19.375,19.639999389648438,19.375,19.389999389648438,19.389999389648438,8400
2019-09-27,19.350000381469727,19.43000030517578,19.280000686645508,19.299999237060547,19.299999237060547,1900
2019-09-30,19.5,19.547000885009766,19.350000381469727,19.350000381469727,19.350000381469727,800
2019-10-01,19.3799991607666,19.600000381469727,19.3799991607666,19.600000381469727,19.600000381469727,400
2019-10-02,19.600000381469727,19.604999542236328,19.5,19.5,19.5,2100
2019-10-03,19.700000762939453,19.79599952697754,19.5,19.760000228881836,19.760000228881836,7000
2019-10-04,19.75,19.799999237060547,19.679000854492188,19.726999282836914,19.726999282836914,5400
2019-10-07,19.764999389648438,19.799999237060547,19.530000686645508,19.649999618530273,19.649999618530273,3200
2019-10-08,19.649999618530273,19.799999237060547,19.280000686645508,19.540000915527344,19.540000915527344,3900
2019-10-09,19.559999465942383,19.559999465942383,19.3700008392334,19.3700008392334,19.3700008392334,4900
2019-10-10,19.299999237060547,19.799999237060547,19.299999237060547,19.700000762939453,19.700000762939453,11500
2019-10-11,19.799999237060547,19.799999237060547,19.649999618530273,19.649999618530273,19.649999618530273,2900
2019-10-14,19.40999984741211,19.725000381469727,19.40999984741211,19.600000381469727,19.600000381469727,1200
2019-10-15,19.469999313354492,19.53499984741211,19.459999084472656,19.53499984741211,19.53499984741211,800
2019-10-16,19.770000457763672,19.770000457763672,19.309999465942383,19.309999465942383,19.309999465942383,6000
2019-10-17,19.548999786376953,19.549999237060547,19.299999237060547,19.510000228881836,19.510000228881836,3900
2019-10-18,19.510000228881836,19.510000228881836,19.510000228881836,19.510000228881836,19.510000228881836,0
2019-10-21,19.389999389648438,19.389999389648438,19.280000686645508,19.34000015258789,19.34000015258789,6300
2019-10-22,19.389999389648438,19.399999618530273,18.5,19.079999923706055,19.079999923706055,104000
2019-10-23,19.0939998626709,19.280000686645508,19.0939998626709,19.100000381469727,19.100000381469727,5800
2019-10-24,19.079999923706055,19.079999923706055,18.864999771118164,19.079999923706055,19.079999923706055,7900
2019-10-25,19.0049991607666,19.06999969482422,18.95400047302246,19.049999237060547,19.049999237060547,3200
2019-10-28,19.05299949645996,19.05299949645996,18.969999313354492,18.969999313354492,18.969999313354492,1900
2019-10-29,18.75,19.014999389648438,18.68000030517578,18.989999771118164,18.989999771118164,27400
2019-10-30,19.049999237060547,19.079999923706055,18.989999771118164,18.989999771118164,18.989999771118164,21000
2019-10-31,18.979999542236328,19.040000915527344,18.809999465942383,19.0,19.0,10000
2019-11-01,18.81999969482422,19.040000915527344,18.809999465942383,19.040000915527344,19.040000915527344,12000
2019-11-04,18.760000228881836,18.961999893188477,18.760000228881836,18.899999618530273,18.899999618530273,3600
2019-11-05,19.024999618530273,19.04800033569336,18.968000411987305,19.020000457763672,19.020000457763672,11200
2019-11-06,19.049999237060547,19.066999435424805,18.917999267578125,19.010000228881836,19.010000228881836,4100
2019-11-07,19.045000076293945,19.06999969482422,18.95599937438965,18.95599937438965,18.95599937438965,2200
2019-11-08,18.780000686645508,18.950000762939453,18.65999984741211,18.899999618530273,18.899999618530273,22400
2019-11-11,18.923999786376953,19.0,18.690000534057617,18.950000762939453,18.950000762939453,6700
2019-11-12,18.950000762939453,18.950000762939453,18.700000762939453,18.799999237060547,18.799999237060547,4000
2019-11-13,18.799999237060547,18.854999542236328,18.600000381469727,18.6200008392334,18.6200008392334,9800
2019-11-14,18.6200008392334,18.75,18.559999465942383,18.559999465942383,18.559999465942383,11800
2019-11-15,18.540000915527344,18.549999237060547,18.320999145507812,18.3799991607666,18.3799991607666,14600
2019-11-18,18.511999130249023,18.511999130249023,18.399999618530273,18.399999618530273,18.399999618530273,2300
2019-11-19,18.3700008392334,18.540000915527344,18.3700008392334,18.44700050354004,18.44700050354004,6300
2019-11-20,18.472000122070312,18.472000122070312,18.290000915527344,18.290000915527344,18.290000915527344,4100
2019-11-21,18.219999313354492,18.489999771118164,18.149999618530273,18.489999771118164,18.489999771118164,6700
2019-11-22,18.479999542236328,18.479999542236328,18.309999465942383,18.350000381469727,18.350000381469727,1900
2019-11-25,18.365999221801758,18.440000534057617,18.190000534057617,18.440000534057617,18.440000534057617,1900
2019-11-26,18.5,18.5,18.260000228881836,18.299999237060547,18.299999237060547,2600
2019-11-27,18.25,18.457000732421875,18.209999084472656,18.25,18.25,2300
2019-11-29,18.30900001525879,18.39299964904785,18.30900001525879,18.350000381469727,18.350000381469727,1600
2019-12-02,18.3700008392334,18.3700008392334,18.350000381469727,18.350000381469727,18.350000381469727,2900
2019-12-03,18.29599952697754,18.3700008392334,18.29599952697754,18.3700008392334,18.3700008392334,4900
2019-12-04,18.399999618530273,18.43000030517578,18.350000381469727,18.43000030517578,18.43000030517578,4400
2019-12-05,18.43000030517578,18.43000030517578,18.209999084472656,18.399999618530273,18.399999618530273,3600
2019-12-06,18.43000030517578,18.485000610351562,18.260000228881836,18.260000228881836,18.260000228881836,3900
2019-12-09,18.482999801635742,18.482999801635742,18.42300033569336,18.42300033569336,18.42300033569336,600
2019-12-10,18.350000381469727,18.509000778198242,18.350000381469727,18.509000778198242,18.509000778198242,2300
2019-12-11,18.389999389648438,18.41699981689453,18.049999237060547,18.049999237060547,18.049999237060547,7800
2019-12-12,18.260000228881836,18.448999404907227,18.0,18.15999984741211,18.15999984741211,65400
2019-12-13,18.209999084472656,18.329999923706055,18.200000762939453,18.200000762939453,18.200000762939453,5700
2019-12-16,18.350000381469727,18.450000762939453,18.290000915527344,18.40999984741211,18.40999984741211,16000
2019-12-17,18.374000549316406,18.52899932861328,18.354999542236328,18.5,18.5,7500
2019-12-18,18.540000915527344,18.540000915527344,18.430999755859375,18.479999542236328,18.479999542236328,5100
2019-12-19,18.540000915527344,18.540000915527344,18.479999542236328,18.540000915527344,18.540000915527344,2300
2019-12-20,18.538999557495117,18.540000915527344,18.530000686645508,18.538999557495117,18.538999557495117,2600
2019-12-23,18.540000915527344,18.639999389648438,18.520000457763672,18.635000228881836,18.635000228881836,9400
2019-12-24,18.628000259399414,18.628000259399414,18.594999313354492,18.594999313354492,18.594999313354492,500
2019-12-26,18.636999130249023,18.636999130249023,18.547000885009766,18.6299991607666,18.6299991607666,2400
2019-12-27,18.719999313354492,18.739999771118164,18.40999984741211,18.600000381469727,18.600000381469727,18200
2019-12-30,18.6299991607666,18.718000411987305,18.600000381469727,18.71500015258789,18.71500015258789,7400
2019-12-31,18.719999313354492,18.809999465942383,18.700000762939453,18.7549991607666,18.7549991607666,13400
2020-01-02,18.809999465942383,18.857999801635742,18.79599952697754,18.799999237060547,18.799999237060547,3200
2020-01-03,18.85300064086914,18.899999618530273,18.799999237060547,18.82900047302246,18.82900047302246,2300
2020-01-06,18.895000457763672,18.899999618530273,18.860000610351562,18.889999389648438,18.889999389648438,16500
2020-01-07,19.010000228881836,19.010000228881836,18.700000762939453,18.93000030517578,18.93000030517578,14800
2020-01-08,18.799999237060547,19.079999923706055,18.700000762939453,18.700000762939453,18.700000762939453,20800
2020-01-09,18.950000762939453,18.950000762939453,18.812000274658203,18.940000534057617,18.940000534057617,2800
2020-01-10,18.780000686645508,19.054000854492188,18.780000686645508,18.8799991607666,18.8799991607666,1800
2020-01-13,18.93000030517578,19.003000259399414,18.899999618530273,19.003000259399414,19.003000259399414,4700
2020-01-14,19.0,19.06999969482422,18.756000518798828,18.989999771118164,18.989999771118164,6100
2020-01-15,19.03499984741211,19.03499984741211,19.03499984741211,19.03499984741211,19.03499984741211,500
2020-01-16,19.079999923706055,19.079999923706055,19.027999877929688,19.027999877929688,19.027999877929688,5800
2020-01-17,19.040000915527344,19.079999923706055,18.850000381469727,18.99799919128418,18.99799919128418,15600
2020-01-21,19.079999923706055,19.110000610351562,19.010000228881836,19.094999313354492,19.094999313354492,7400
2020-01-22,19.1200008392334,19.29800033569336,19.100000381469727,19.107999801635742,19.107999801635742,9400
2020-01-23,19.110000610351562,19.110000610351562,19.066999435424805,19.066999435424805,19.066999435424805,900
2020-01-24,19.003000259399414,19.094999313354492,19.003000259399414,19.059999465942383,19.059999465942383,2500
2020-01-27,19.0,19.0,18.309999465942383,18.549999237060547,18.549999237060547,12500
2020-01-28,18.75,19.045000076293945,18.75,19.045000076293945,19.045000076293945,4400
2020-01-29,19.09000015258789,19.160999298095703,19.020000457763672,19.075000762939453,19.075000762939453,4000
2020-01-30,19.05900001525879,19.05900001525879,19.010000228881836,19.05500030517578,19.05500030517578,1200
2020-01-31,19.106000900268555,19.106000900268555,19.040000915527344,19.040000915527344,19.040000915527344,1500
2020-02-03,19.09000015258789,19.132999420166016,19.09000015258789,19.110000610351562,19.110000610351562,9800
2020-02-04,19.170000076293945,19.170000076293945,19.055999755859375,19.155000686645508,19.155000686645508,8700
2020-02-05,19.15999984741211,19.20800018310547,19.110000610351562,19.110000610351562,19.110000610351562,10900
2020-02-06,19.155000686645508,19.190000534057617,19.155000686645508,19.190000534057617,19.190000534057617,400
2020-02-07,19.25,19.3799991607666,19.09000015258789,19.280000686645508,19.280000686645508,9400
2020-02-10,19.280000686645508,19.280000686645508,19.280000686645508,19.280000686645508,19.280000686645508,0
2020-02-11,19.25,19.25,19.049999237060547,19.149999618530273,19.149999618530273,2100
2020-02-12,19.15999984741211,19.219999313354492,19.15999984741211,19.219999313354492,19.219999313354492,2100
2020-02-13,19.149999618530273,19.149999618530273,19.059999465942383,19.059999465942383,19.059999465942383,1300
2020-02-14,19.086000442504883,19.100000381469727,19.086000442504883,19.100000381469727,19.100000381469727,1600
2020-02-18,18.989999771118164,19.173999786376953,18.67799949645996,18.899999618530273,18.899999618530273,6600
2020-02-19,18.950000762939453,19.139999389648438,18.950000762939453,19.139999389648438,19.139999389648438,2100
2020-02-20,19.06999969482422,19.149999618530273,18.899999618530273,19.121000289916992,19.121000289916992,3700
2020-02-21,19.010000228881836,19.020000457763672,19.0,19.0,19.0,1300
2020-02-24,18.959999084472656,18.959999084472656,18.860000610351562,18.860000610351562,18.860000610351562,7500
2020-02-25,18.799999237060547,18.80900001525879,18.780000686645508,18.780000686645508,18.780000686645508,4000
2020-02-26,18.788000106811523,18.860000610351562,18.732999801635742,18.75,18.75,4400
2020-02-27,18.579999923706055,18.760000228881836,18.579999923706055,18.72800064086914,18.72800064086914,4300
2020-02-28,18.649999618530273,18.66699981689453,18.440000534057617,18.552000045776367,18.552000045776367,6600
2020-03-02,18.649999618530273,19.25,18.649999618530273,19.09000015258789,19.09000015258789,19900
2020-03-03,19.149999618530273,19.187000274658203,18.850000381469727,18.937999725341797,18.937999725341797,11600
2020-03-04,18.979999542236328,19.069000244140625,18.940000534057617,19.05699920654297,19.05699920654297,7600
2020-03-05,19.049999237060547,19.059999465942383,18.549999237060547,18.694000244140625,18.694000244140625,11200
2020-03-06,18.8799991607666,18.8799991607666,18.549999237060547,18.575000762939453,18.575000762939453,5800
2020-03-09,18.5,18.559999465942383,18.0,18.049999237060547,18.049999237060547,16500
2020-03-10,18.739999771118164,18.739999771118164,18.229999542236328,18.229999542236328,18.229999542236328,1400
2020-03-11,18.25,18.25,17.860000610351562,17.860000610351562,17.860000610351562,4600
2020-03-12,17.75,17.75,16.6299991607666,16.990999221801758,16.990999221801758,12600
2020-03-13,16.69499969482422,16.75,16.280000686645508,16.56999969482422,16.56999969482422,12500
2020-03-16,15.979999542236328,16.100000381469727,15.25,15.326000213623047,15.326000213623047,12300
2020-03-17,15.109999656677246,15.175999641418457,13.5,13.600000381469727,13.600000381469727,10800
2020-03-18,12.390000343322754,12.390000343322754,5.9720001220703125,6.331999778747559,6.331999778747559,44100
2020-03-19,6.329999923706055,9.180000305175781,5.619999885559082,9.180000305175781,9.180000305175781,47100
2020-03-20,9.0,9.149999618530273,7.909999847412109,9.079999923706055,9.079999923706055,29000
2020-03-23,8.880000114440918,8.880000114440918,8.0,8.539999961853027,8.539999961853027,7700
2020-03-24,8.789999961853027,9.920000076293945,8.789999961853027,9.645000457763672,9.645000457763672,37200
2020-03-25,9.989999771118164,10.631999969482422,9.902999877929688,10.314000129699707,10.314000129699707,40200
2020-03-26,10.5,13.180000305175781,10.5,11.800000190734863,11.800000190734863,72800
2020-03-27,12.34000015258789,12.51200008392334,11.5,11.5,11.5,29200
2020-03-30,10.90999984741211,11.345999717712402,10.510000228881836,11.0600004196167,11.0600004196167,35900
2020-03-31,11.390000343322754,12.468999862670898,10.520000457763672,10.699999809265137,10.699999809265137,32600
2020-04-01,11.09000015258789,11.532999992370605,10.307000160217285,10.307000160217285,10.307000160217285,21200
2020-04-02,10.0,10.0,8.75,9.510000228881836,9.510000228881836,22100
2020-04-03,9.079999923706055,9.079999923706055,7.5,7.958000183105469,7.958000183105469,19000
2020-04-06,8.199999809265137,8.670000076293945,8.166999816894531,8.59000015258789,8.59000015258789,11400
2020-04-07,9.229999542236328,9.699999809265137,8.619999885559082,9.199999809265137,9.199999809265137,20900
2020-04-08,9.010000228881836,10.229999542236328,8.956000328063965,10.067999839782715,10.067999839782715,25400
2020-04-09,10.458999633789062,12.17300033569336,10.206000328063965,10.609999656677246,10.609999656677246,50500
2020-04-13,10.770000457763672,11.178999900817871,10.201000213623047,10.550000190734863,10.550000190734863,28400
2020-04-14,10.937000274658203,10.937000274658203,10.175000190734863,10.75,10.75,33300
2020-04-15,10.550000190734863,11.380000114440918,10.550000190734863,10.949999809265137,10.949999809265137,16100
2020-04-16,11.093999862670898,11.100000381469727,10.75,10.850000381469727,10.850000381469727,14500
2020-04-17,10.845000267028809,11.100000381469727,10.100000381469727,10.293000221252441,10.293000221252441,23400
2020-04-20,10.5,10.5,9.630000114440918,9.640000343322754,9.640000343322754,17100
2020-04-21,9.201000213623047,10.25,8.609999656677246,8.609999656677246,8.609999656677246,27200
2020-04-22,8.859999656677246,9.373000144958496,8.720000267028809,9.244999885559082,9.244999885559082,5600
2020-04-23,9.550000190734863,9.899999618530273,9.449999809265137,9.779999732971191,9.779999732971191,5500
2020-04-24,9.75,9.779999732971191,9.592000007629395,9.699999809265137,9.699999809265137,8800
2020-04-27,9.720000267028809,9.744999885559082,9.710000038146973,9.710000038146973,9.710000038146973,9700
2020-04-28,10.020000457763672,10.020000457763672,9.59000015258789,9.59000015258789,9.59000015258789,6800
2020-04-29,9.6899995803833,9.729999542236328,9.57699966430664,9.699999809265137,9.699999809265137,34900
2020-04-30,9.699999809265137,9.710000038146973,9.600000381469727,9.699999809265137,9.699999809265137,51700
2020-05-01,9.696000099182129,9.699999809265137,9.619999885559082,9.619999885559082,9.619999885559082,23800
2020-05-04,9.600000381469727,9.600000381469727,9.319999694824219,9.319999694824219,9.319999694824219,4600
2020-05-05,9.46399974822998,9.46399974822998,9.220000267028809,9.229999542236328,9.229999542236328,11700
2020-05-06,9.300000190734863,9.401000022888184,9.0,9.25,9.25,17100
2020-05-07,9.161999702453613,9.25,9.069000244140625,9.25,9.25,16300
2020-05-08,9.15999984741211,9.34000015258789,9.0,9.180000305175781,9.180000305175781,26000
2020-05-11,9.39799976348877,9.39799976348877,9.005000114440918,9.031999588012695,9.031999588012695,4200
2020-05-12,9.272000312805176,9.274999618530273,9.0600004196167,9.079999923706055,9.079999923706055,4300
2020-05-13,9.020000457763672,9.055000305175781,8.824999809265137,8.90999984741211,8.90999984741211,11300
2020-05-14,8.25,9.1899995803833,8.25,9.100000381469727,9.100000381469727,6800
2020-05-15,9.020000457763672,9.1899995803833,9.020000457763672,9.130000114440918,9.130000114440918,2100
2020-05-18,9.34000015258789,9.399999618530273,9.154999732971191,9.300000190734863,9.300000190734863,48100
2020-05-19,9.494999885559082,9.494999885559082,9.029999732971191,9.25,9.25,12100
2020-05-20,9.300000190734863,9.550000190734863,9.274999618530273,9.300000190734863,9.300000190734863,13100
2020-05-21,9.40999984741211,9.40999984741211,9.225000381469727,9.300000190734863,9.300000190734863,13300
2020-05-22,9.470000267028809,9.470000267028809,9.293999671936035,9.350000381469727,9.350000381469727,2800
2020-05-26,9.149999618530273,9.680000305175781,9.149999618530273,9.40999984741211,9.40999984741211,17600
2020-05-27,9.40999984741211,10.739999771118164,9.375,10.350000381469727,10.350000381469727,100800
2020-05-28,10.539999961853027,10.76200008392334,10.369999885559082,10.609000205993652,10.609000205993652,69600
2020-05-29,10.579999923706055,10.678999900817871,10.510000228881836,10.616999626159668,10.616999626159668,15000
2020-06-01,10.680000305175781,10.970000267028809,10.604999542236328,10.779999732971191,10.779999732971191,26200
2020-06-02,10.800000190734863,11.125,10.739999771118164,11.0,11.0,28700
2020-06-03,11.34000015258789,11.899999618530273,10.944000244140625,11.300000190734863,11.300000190734863,33800
2020-06-04,12.380000114440918,13.130000114440918,11.366000175476074,11.489999771118164,11.489999771118164,34500
2020-06-05,11.604999542236328,14.079999923706055,11.550000190734863,13.420000076293945,13.420000076293945,63300
2020-06-08,13.399999618530273,13.84000015258789,13.130000114440918,13.524999618530273,13.524999618530273,13800
2020-06-09,13.880000114440918,14.0,13.25100040435791,13.399999618530273,13.399999618530273,11500
2020-06-10,13.505999565124512,13.543000221252441,12.350000381469727,12.899999618530273,12.899999618530273,22800
2020-06-11,12.819999694824219,12.819999694824219,11.788999557495117,12.460000038146973,12.460000038146973,21500
2020-06-12,12.579999923706055,13.319999694824219,12.579999923706055,13.25,13.25,9300
2020-06-15,12.984999656677246,13.5,12.984999656677246,13.5,13.5,5000
2020-06-16,13.5,14.234999656677246,13.5,14.15999984741211,14.15999984741211,9600
2020-06-17,14.600000381469727,15.114999771118164,14.149999618530273,14.149999618530273,14.149999618530273,29200
2020-06-18,14.4399995803833,14.831999778747559,14.050000190734863,14.279999732971191,14.279999732971191,5700
2020-06-19,14.5,14.5,14.012999534606934,14.012999534606934,14.012999534606934,5300
2020-06-22,14.0,14.489999771118164,13.800000190734863,13.800000190734863,13.800000190734863,4100
2020-06-23,14.067999839782715,14.067999839782715,13.751999855041504,13.949999809265137,13.949999809265137,3000
2020-06-24,13.83899974822998,14.199999809265137,13.489999771118164,14.199999809265137,14.199999809265137,7800
2020-06-25,13.944999694824219,14.020000457763672,13.489999771118164,13.600000381469727,13.600000381469727,4700
2020-06-26,14.350000381469727,14.350000381469727,13.489999771118164,13.5,13.5,10700
2020-06-29,13.529999732971191,13.529999732971191,13.050000190734863,13.050000190734863,13.050000190734863,5700
2020-06-30,13.0600004196167,13.329999923706055,12.890000343322754,12.949999809265137,12.949999809265137,13700
2020-07-01,13.069999694824219,13.15999984741211,12.932000160217285,12.932000160217285,12.932000160217285,18300
2020-07-02,13.130000114440918,13.270000457763672,12.90999984741211,12.949999809265137,12.949999809265137,13400
2020-07-06,12.920000076293945,13.359999656677246,12.920000076293945,12.970000267028809,12.970000267028809,18400
2020-07-07,13.130000114440918,13.149999618530273,12.380000114440918,12.75,12.75,12200
2020-07-08,13.359999656677246,13.359999656677246,13.050000190734863,13.050000190734863,13.050000190734863,800
2020-07-09,13.234999656677246,14.479999542236328,13.133000373840332,14.199999809265137,14.199999809265137,26800
2020-07-10,13.869999885559082,13.899999618530273,13.020000457763672,13.720000267028809,13.720000267028809,9000
2020-07-13,13.800000190734863,13.819999694824219,13.170000076293945,13.170000076293945,13.170000076293945,10200
2020-07-14,13.25,13.640000343322754,13.25,13.59000015258789,13.59000015258789,7000
2020-07-15,13.699999809265137,13.699999809265137,13.404999732971191,13.428000450134277,13.428000450134277,2200
2020-07-16,13.449999809265137,13.5,13.25,13.25,13.25,5500
2020-07-17,13.210000038146973,13.5,13.210000038146973,13.479999542236328,13.479999542236328,1500
2020-07-20,13.380999565124512,13.479999542236328,13.210000038146973,13.210000038146973,13.210000038146973,13200
2020-07-21,13.449999809265137,13.449999809265137,13.25100040435791,13.350000381469727,13.350000381469727,5100
2020-07-22,13.3149995803833,13.479999542236328,13.010000228881836,13.029999732971191,13.029999732971191,13000
2020-07-23,13.470000267028809,13.470000267028809,13.149999618530273,13.241000175476074,13.241000175476074,3800
2020-07-24,13.109999656677246,13.470000267028809,12.609999656677246,12.710000038146973,12.710000038146973,52200
2020-07-27,12.84000015258789,12.991000175476074,12.720000267028809,12.760000228881836,12.760000228881836,18700
2020-07-28,12.670000076293945,12.8100004196167,12.619999885559082,12.8100004196167,12.8100004196167,10000
2020-07-29,12.79800033569336,13.0,12.79800033569336,13.0,13.0,8500
2020-07-30,12.979999542236328,13.0,12.899999618530273,12.920000076293945,12.920000076293945,3400
2020-07-31,12.90999984741211,12.989999771118164,12.40999984741211,12.989999771118164,12.989999771118164,12200
2020-08-03,12.989999771118164,12.989999771118164,12.472999572753906,12.699999809265137,12.699999809265137,4200
2020-08-04,12.774999618530273,12.800000190734863,12.635000228881836,12.65999984741211,12.65999984741211,4600
2020-08-05,12.600000381469727,12.800000190734863,12.420000076293945,12.649999618530273,12.649999618530273,7500
2020-08-06,12.739999771118164,12.739999771118164,12.609999656677246,12.729999542236328,12.729999542236328,3700
2020-08-07,12.812999725341797,12.90999984741211,12.609999656677246,12.770000457763672,12.770000457763672,3600
2020-08-10,12.729999542236328,12.989999771118164,12.670000076293945,12.989999771118164,12.989999771118164,5700
2020-08-11,13.017000198364258,13.020000457763672,12.399999618530273,12.5600004196167,12.5600004196167,9900
2020-08-12,13.050000190734863,13.050000190734863,12.600000381469727,12.729999542236328,12.729999542236328,7400
2020-08-13,12.800000190734863,12.800000190734863,12.720000267028809,12.720000267028809,12.720000267028809,500
2020-08-14,12.75,12.75,12.680000305175781,12.71500015258789,12.71500015258789,1600
2020-08-17,12.704999923706055,13.149999618530273,12.704999923706055,12.97700023651123,12.97700023651123,17800
2020-08-18,12.71399974822998,13.050000190734863,12.71399974822998,12.920000076293945,12.920000076293945,13500
2020-08-19,12.803000450134277,13.0,12.803000450134277,12.899999618530273,12.899999618530273,4900
2020-08-20,13.0600004196167,13.112000465393066,12.949999809265137,12.949999809265137,12.949999809265137,1500
2020-08-21,12.869999885559082,13.0,12.739999771118164,13.0,13.0,13900
2020-08-24,12.897000312805176,12.899999618530273,12.762999534606934,12.875,12.875,2800
2020-08-25,12.850000381469727,13.050000190734863,12.850000381469727,12.975000381469727,12.975000381469727,4900
2020-08-26,12.871000289916992,12.899999618530273,12.850000381469727,12.850000381469727,12.850000381469727,12700
2020-08-27,13.210000038146973,13.210000038146973,13.0,13.0,13.0,700
2020-08-28,12.869999885559082,13.029999732971191,12.390000343322754,13.020000457763672,13.020000457763672,10500
2020-08-31,13.020000457763672,13.020000457763672,12.630000114440918,12.850000381469727,12.850000381469727,6400
2020-09-01,12.850000381469727,12.925000190734863,12.819999694824219,12.864999771118164,12.864999771118164,4400
2020-09-02,12.84000015258789,12.96500015258789,12.84000015258789,12.84000015258789,12.84000015258789,4500
2020-09-03,13.020000457763672,13.619999885559082,12.84000015258789,12.9399995803833,12.9399995803833,26200
2020-09-04,13.079999923706055,13.109999656677246,12.758000373840332,13.0,13.0,7100
2020-09-08,13.0,13.720000267028809,12.90999984741211,13.15999984741211,13.15999984741211,4600
2020-09-09,13.3100004196167,13.3100004196167,13.029999732971191,13.069999694824219,13.069999694824219,3300
2020-09-10,13.583999633789062,13.583999633789062,12.75,13.149999618530273,13.149999618530273,4400
2020-09-11,13.128999710083008,13.128999710083008,12.90999984741211,12.90999984741211,12.90999984741211,9300
2020-09-14,12.979999542236328,13.25,12.949999809265137,13.229999542236328,13.229999542236328,9000
2020-09-15,13.229999542236328,13.720000267028809,13.229999542236328,13.329999923706055,13.329999923706055,6400
2020-09-16,13.362000465393066,13.75,13.149999618530273,13.699999809265137,13.699999809265137,10700
2020-09-17,13.84000015258789,13.930000305175781,13.460000038146973,13.75,13.75,2100
2020-09-18,13.800000190734863,13.800000190734863,13.75,13.800000190734863,13.800000190734863,1000
2020-09-21,13.75,13.75,13.399999618530273,13.600000381469727,13.600000381469727,7200
2020-09-22,13.479999542236328,13.673999786376953,13.479999542236328,13.5600004196167,13.5600004196167,7400
2020-09-23,13.406000137329102,13.529999732971191,13.399999618530273,13.399999618530273,13.399999618530273,800
2020-09-24,13.449999809265137,13.449999809265137,13.425000190734863,13.425000190734863,13.425000190734863,2400
2020-09-25,13.425000190734863,13.430000305175781,13.425000190734863,13.430000305175781,13.430000305175781,600
2020-09-28,13.675000190734863,13.789999961853027,13.420000076293945,13.515000343322754,13.515000343322754,4000
2020-09-29,13.289999961853027,13.289999961853027,12.5,13.050000190734863,13.050000190734863,15500
2020-09-30,13.199999809265137,13.300000190734863,13.119999885559082,13.130999565124512,13.130999565124512,1500
2020-10-01,13.25,13.680000305175781,13.199999809265137,13.300000190734863,13.300000190734863,3300
2020-10-02,13.170000076293945,13.600000381469727,12.753000259399414,13.324999809265137,13.324999809265137,2600
2020-10-05,13.0,13.350000381469727,13.0,13.210000038146973,13.210000038146973,6400
2020-10-06,13.239999771118164,13.434000015258789,13.220000267028809,13.25,13.25,4800
2020-10-07,13.378000259399414,13.473999977111816,13.350000381469727,13.399999618530273,13.399999618530273,7200
2020-10-08,13.489999771118164,13.489999771118164,13.029999732971191,13.279999732971191,13.279999732971191,12400
2020-10-09,13.010000228881836,14.239999771118164,12.869999885559082,13.4399995803833,13.4399995803833,39100
2020-10-12,13.180000305175781,13.180000305175781,13.175000190734863,13.175000190734863,13.175000190734863,500
2020-10-13,13.300000190734863,13.300000190734863,13.180000305175781,13.199999809265137,13.199999809265137,2000
2020-10-14,13.300000190734863,13.300000190734863,13.0600004196167,13.109999656677246,13.109999656677246,1800
2020-10-15,13.100000381469727,13.175000190734863,13.100000381469727,13.175000190734863,13.175000190734863,1000
2020-10-16,13.11400032043457,13.220000267028809,13.11400032043457,13.220000267028809,13.220000267028809,5400
2020-10-19,13.15999984741211,13.180000305175781,13.15999984741211,13.170000076293945,13.170000076293945,700
2020-10-20,13.180000305175781,13.180000305175781,13.180000305175781,13.180000305175781,13.180000305175781,200
2020-10-21,13.270999908447266,13.270999908447266,13.109999656677246,13.239999771118164,13.239999771118164,600
2020-10-22,13.307999610900879,13.3149995803833,13.119999885559082,13.305000305175781,13.305000305175781,4000
2020-10-23,13.289999961853027,13.289999961853027,13.154999732971191,13.154999732971191,13.154999732971191,1400
2020-10-26,13.378000259399414,13.378000259399414,13.204999923706055,13.288000106811523,13.288000106811523,3500
2020-10-27,13.255000114440918,13.300000190734863,13.210000038146973,13.300000190734863,13.300000190734863,1500
2020-10-28,13.210000038146973,13.380000114440918,13.210000038146973,13.25,13.25,7300
2020-10-29,13.23799991607666,13.25,13.187000274658203,13.25,13.25,1200
2020-10-30,13.300000190734863,13.612000465393066,13.300000190734863,13.59000015258789,13.59000015258789,2000
2020-11-02,13.59000015258789,13.600000381469727,13.329999923706055,13.329999923706055,13.329999923706055,5300
2020-11-03,13.399999618530273,13.399999618530273,13.390000343322754,13.399999618530273,13.399999618530273,1600
2020-11-04,13.420000076293945,13.420000076293945,13.199999809265137,13.350000381469727,13.350000381469727,2900
2020-11-05,13.300000190734863,13.8100004196167,13.15999984741211,13.15999984741211,13.15999984741211,4800
2020-11-06,13.289999961853027,13.770000457763672,13.16100025177002,13.220000267028809,13.220000267028809,9800
2020-11-09,13.59000015258789,13.59000015258789,13.1899995803833,13.329999923706055,13.329999923706055,7600
2020-11-10,13.380000114440918,13.468999862670898,13.1899995803833,13.460000038146973,13.460000038146973,5000
2020-11-11,13.38700008392334,13.402999877929688,13.25,13.300000190734863,13.300000190734863,7500
2020-11-12,13.364999771118164,13.399999618530273,13.319999694824219,13.399999618530273,13.399999618530273,2800
2020-11-13,13.36400032043457,13.399999618530273,13.36400032043457,13.399999618530273,13.399999618530273,2100
2020-11-16,13.277000427246094,13.375,13.277000427246094,13.3100004196167,13.3100004196167,1500
2020-11-17,13.222000122070312,13.307000160217285,13.222000122070312,13.300000190734863,13.300000190734863,5300
2020-11-18,13.489999771118164,13.489999771118164,13.241999626159668,13.300000190734863,13.300000190734863,13900
2020-11-19,13.329999923706055,13.345999717712402,13.229999542236328,13.239999771118164,13.239999771118164,14200
2020-11-20,13.274999618530273,13.5600004196167,13.274999618530273,13.399999618530273,13.399999618530273,21000
2020-11-23,13.5,13.84000015258789,13.5,13.8100004196167,13.8100004196167,6800
2020-11-24,13.800000190734863,13.930000305175781,13.800000190734863,13.930000305175781,13.930000305175781,10300
2020-11-25,14.0,14.0,13.859999656677246,13.923999786376953,13.923999786376953,2100
2020-11-27,14.050000190734863,14.050000190734863,13.899999618530273,13.949999809265137,13.949999809265137,1000
2020-11-30,15.109999656677246,15.109999656677246,14.07800006866455,14.25,14.25,6900
2020-12-01,14.25,14.60099983215332,13.946999549865723,14.050000190734863,14.050000190734863,9800
2020-12-02,14.100000381469727,14.25,13.75,13.75,13.75,12700
2020-12-03,13.75,13.939000129699707,13.75,13.75,13.75,15900
2020-12-04,13.869999885559082,13.869999885559082,13.359999656677246,13.710000038146973,13.710000038146973,17700
2020-12-07,13.710000038146973,13.850000381469727,13.649999618530273,13.699999809265137,13.699999809265137,13600
2020-12-08,13.8100004196167,13.989999771118164,13.79699993133545,13.989999771118164,13.989999771118164,15200
2020-12-09,13.890000343322754,14.09000015258789,13.890000343322754,14.09000015258789,14.09000015258789,5000
2020-12-10,14.069999694824219,15.100000381469727,14.069999694824219,14.920000076293945,14.920000076293945,22500
2020-12-11,14.881999969482422,15.003999710083008,14.75,14.949999809265137,14.949999809265137,16900
2020-12-14,14.871999740600586,15.001999855041504,14.871999740600586,15.001999855041504,15.001999855041504,1600
2020-12-15,15.109999656677246,15.109999656677246,14.869999885559082,14.899999618530273,14.899999618530273,3300
2020-12-16,14.899999618530273,15.0,14.899999618530273,14.970000267028809,14.970000267028809,4200
2020-12-17,14.96500015258789,15.395000457763672,14.96500015258789,15.335000038146973,15.335000038146973,6900
2020-12-18,15.3100004196167,15.3100004196167,15.119999885559082,15.295999526977539,15.295999526977539,5800
2020-12-21,15.239999771118164,15.470000267028809,14.692999839782715,14.854000091552734,14.854000091552734,5400
2020-12-22,14.789999961853027,15.199999809265137,14.789999961853027,14.85099983215332,14.85099983215332,2800
2020-12-23,15.15999984741211,15.5,14.970000267028809,14.970000267028809,14.970000267028809,1800
2020-12-24,15.0,15.0,15.0,15.0,15.0,600
2020-12-28,14.850000381469727,14.979999542236328,14.649999618530273,14.789999961853027,14.789999961853027,8600
2020-12-29,14.8100004196167,14.8100004196167,13.930000305175781,14.40999984741211,14.40999984741211,6300
2020-12-30,14.260000228881836,14.59000015258789,14.260000228881836,14.40999984741211,14.40999984741211,3400
