Date,Open,High,Low,Close,Adj Close,Volume
2020-01-16,25.010000228881836,25.049999237060547,24.979999542236328,25.030000686645508,23.085880279541016,19050400
2020-01-17,25.049999237060547,25.079999923706055,25.0,25.040000915527344,23.09510040283203,6089700
2020-01-21,25.040000915527344,25.149999618530273,25.030000686645508,25.079999923706055,23.131994247436523,3152000
2020-01-22,25.049999237060547,25.15999984741211,25.049999237060547,25.149999618530273,23.196557998657227,3097400
2020-01-23,54.380001068115234,57.0,53.0,55.25,50.95864486694336,5501400
2020-01-24,53.900001525878906,56.0,53.900001525878906,55.0,50.728057861328125,1016200
2020-01-27,54.5,55.5,53.849998474121094,54.900001525878906,50.63582992553711,67700
2020-01-28,54.75,55.5,54.04999923706055,55.25,50.95864486694336,76000
2020-01-29,25.25,25.260000228881836,25.149999618530273,25.209999084472656,23.25189781188965,1401900
2020-01-30,54.209999084472656,55.73500061035156,54.209999084472656,55.43299865722656,51.1274299621582,604000
2020-01-31,55.0,55.0,54.400001525878906,54.76100158691406,50.50762176513672,37100
2020-02-03,54.84400177001953,55.0,54.349998474121094,54.952999114990234,50.68471145629883,117900
2020-02-04,55.33000183105469,55.70000076293945,55.33000183105469,55.5,51.1892204284668,65900
2020-02-05,56.099998474121094,56.099998474121094,55.400001525878906,55.40999984741211,51.10622024536133,22000
2020-02-06,55.56999969482422,55.849998474121094,55.56999969482422,55.70000076293945,51.373687744140625,2400
2020-02-07,55.43000030517578,55.72999954223633,55.0,55.290000915527344,50.99553298950195,47000
2020-02-10,55.75,55.75,55.0,55.400001525878906,51.09699249267578,109200
2020-02-11,55.689998626708984,56.040000915527344,55.31800079345703,55.70000076293945,51.373687744140625,27600
2020-02-12,56.48500061035156,56.83000183105469,55.380001068115234,55.54999923706055,51.2353401184082,114600
2020-02-13,56.25,56.25,55.27000045776367,55.34000015258789,51.04164505004883,63300
2020-02-14,55.0,55.349998474121094,54.61000061035156,55.09000015258789,50.81106948852539,23400
2020-02-18,55.63999938964844,55.63999938964844,54.349998474121094,54.40999984741211,50.18388748168945,28600
2020-02-19,54.25,54.400001525878906,53.130001068115234,54.150001525878906,49.9440803527832,279600
2020-02-20,56.0,56.0,53.59000015258789,54.25,50.036312103271484,148600
2020-02-21,53.93000030517578,55.18000030517578,53.93000030517578,55.04999923706055,50.774173736572266,359600
2020-02-24,54.939998626708984,54.939998626708984,53.54999923706055,53.93000030517578,49.74116897583008,175600
2020-02-25,53.79999923706055,53.810001373291016,52.75,52.75,48.65281677246094,224900
2020-02-26,53.099998474121094,53.369998931884766,52.20000076293945,52.290000915527344,48.228546142578125,890800
2020-02-27,51.90999984741211,53.150001525878906,51.650001525878906,51.650001525878906,47.63825988769531,138100
2020-02-28,50.45000076293945,51.439998626708984,50.0,51.04999923706055,47.08485794067383,1243700
2020-03-02,50.94499969482422,51.439998626708984,50.4900016784668,51.119998931884766,47.14942932128906,176700
2020-03-03,51.40999984741211,51.7599983215332,50.349998474121094,50.41999816894531,46.5037956237793,168100
2020-03-04,50.36000061035156,51.65999984741211,50.279998779296875,51.65999984741211,47.64748001098633,33800
2020-03-05,50.59000015258789,50.823001861572266,49.43899917602539,49.58000183105469,45.729042053222656,340100
2020-03-06,49.25,49.25,47.83599853515625,48.599998474121094,44.82516098022461,262300
2020-03-09,45.75,48.04999923706055,45.57500076293945,45.83000183105469,42.27030944824219,28100
2020-03-10,46.970001220703125,47.560001373291016,45.564998626708984,46.84000015258789,43.20185852050781,123400
2020-03-11,46.0,46.0,45.20000076293945,45.43000030517578,41.90137481689453,6100
2020-03-12,43.959999084472656,43.959999084472656,39.540000915527344,39.540000915527344,36.46886444091797,121700
2020-03-13,40.529998779296875,41.70000076293945,39.47999954223633,40.0,36.89313507080078,116200
2020-03-16,35.65999984741211,38.90999984741211,35.0,35.0,32.281494140625,48400
2020-03-17,36.7599983215332,39.29999923706055,35.0099983215332,38.77000045776367,35.7586669921875,421500
2020-03-18,37.90999984741211,37.90999984741211,30.725000381469727,34.40999984741211,31.737319946289062,55100
2020-03-19,32.071998596191406,35.7400016784668,30.979999542236328,32.45000076293945,29.929553985595703,16300
2020-03-20,33.0,36.0,33.0,34.84000015258789,32.1339225769043,9000
2020-03-23,35.0,35.2400016784668,32.47999954223633,33.43000030517578,30.833436965942383,148300
2020-03-24,36.77000045776367,36.77000045776367,34.90999984741211,35.84000015258789,33.05624771118164,203800
2020-03-25,37.150001525878906,37.5,35.729000091552734,36.31999969482422,33.49896240234375,205300
2020-03-26,38.130001068115234,40.720001220703125,38.130001068115234,40.220001220703125,37.09604263305664,37700
2020-03-27,39.45000076293945,42.422000885009766,39.45000076293945,42.422000885009766,39.12701416015625,900
2020-03-30,41.0,43.040000915527344,40.310001373291016,41.54999923706055,38.32274627685547,2800
2020-03-31,41.11000061035156,43.4900016784668,41.11000061035156,41.13999938964844,37.944583892822266,6500
2020-04-01,38.724998474121094,40.790000915527344,37.83000183105469,39.810001373291016,36.7178955078125,15900
2020-04-02,37.43000030517578,39.65999984741211,37.43000030517578,37.56999969482422,34.65187072753906,31100
2020-04-03,38.290000915527344,38.290000915527344,37.54999923706055,37.7400016784668,34.80867385864258,4800
2020-04-06,39.619998931884766,40.61000061035156,39.619998931884766,40.02000045776367,36.91157913208008,1400
2020-04-07,41.470001220703125,41.9900016784668,41.470001220703125,41.9900016784668,38.72856903076172,1500
2020-04-08,43.869998931884766,44.06999969482422,42.34000015258789,42.34000015258789,39.05138397216797,2700
2020-04-09,44.45000076293945,45.86000061035156,44.45000076293945,45.86000061035156,42.2979736328125,74400
2020-04-13,43.75,43.95000076293945,43.75,43.79999923706055,40.397979736328125,2900
2020-04-14,44.16999816894531,44.20000076293945,43.43000030517578,43.970001220703125,41.168548583984375,3700
2020-04-15,42.630001068115234,43.040000915527344,42.52000045776367,42.970001220703125,40.232261657714844,3000
2020-04-16,41.650001525878906,42.665000915527344,41.650001525878906,42.58000183105469,39.86710739135742,201600
2020-04-17,44.630001068115234,46.18000030517578,44.196998596191406,46.18000030517578,43.23774337768555,1300
2020-04-20,47.56999969482422,47.56999969482422,45.400001525878906,45.869998931884766,42.94749069213867,4500
2020-04-21,44.34000015258789,44.34000015258789,41.7400016784668,43.52399826049805,40.75096130371094,31500
2020-04-22,43.560001373291016,43.560001373291016,43.529998779296875,43.540000915527344,40.76594543457031,2000
2020-04-23,43.810001373291016,43.810001373291016,43.52000045776367,43.52000045776367,40.747215270996094,494900
2020-04-24,42.935001373291016,43.2400016784668,42.856998443603516,43.2400016784668,40.48505783081055,160100
2020-04-27,43.720001220703125,45.400001525878906,43.720001220703125,45.150001525878906,42.27336883544922,12100
2020-04-28,44.349998474121094,45.099998474121094,44.060001373291016,45.099998474121094,42.22654724121094,20900
2020-04-29,46.91999816894531,46.91999816894531,46.15999984741211,46.15999984741211,43.21901321411133,2100
2020-04-30,45.2599983215332,46.43000030517578,44.90299987792969,46.0,43.069210052490234,217600
2020-05-01,45.09000015258789,45.2400016784668,44.3489990234375,45.2400016784668,42.357627868652344,51000
2020-05-04,44.599998474121094,44.599998474121094,44.349998474121094,44.349998474121094,41.52433395385742,700
2020-05-05,46.790000915527344,46.790000915527344,44.52000045776367,44.689998626708984,41.84267044067383,4900
2020-05-06,42.75,44.137001037597656,42.75,43.2599983215332,40.503780364990234,111200
2020-05-07,41.90999984741211,41.90999984741211,37.0,37.0,34.64262390136719,542000
2020-05-08,38.119998931884766,40.0,37.34000015258789,37.63999938964844,35.241851806640625,327600
2020-05-11,36.0,38.606998443603516,35.9900016784668,38.33000183105469,35.88788986206055,249100
2020-05-12,37.99300003051758,37.99300003051758,37.0,37.099998474121094,34.73625183105469,211400
2020-05-13,36.30799865722656,36.625,35.65999984741211,35.90999984741211,33.6220703125,96000
2020-05-14,35.25,36.08000183105469,35.25,36.08000183105469,33.7812385559082,105700
2020-05-15,36.68000030517578,36.68000030517578,35.08000183105469,35.20000076293945,32.95730209350586,9700
2020-05-18,35.630001068115234,36.029998779296875,35.45000076293945,35.79999923706055,33.519081115722656,79800
2020-05-19,35.11000061035156,35.95000076293945,35.11000061035156,35.869998931884766,33.58462142944336,3900
2020-05-20,36.0,36.36000061035156,35.792999267578125,35.939998626708984,33.6501579284668,33000
2020-05-21,35.70000076293945,35.80500030517578,34.79999923706055,35.20000076293945,32.95730209350586,652900
2020-05-22,35.45000076293945,35.75,34.79999923706055,35.11000061035156,32.873043060302734,10300
2020-05-26,35.7599983215332,35.95000076293945,35.7599983215332,35.95000076293945,33.659523010253906,8300
2020-05-27,36.02000045776367,38.12099838256836,36.0099983215332,38.12099838256836,35.69219970703125,2200
2020-05-28,38.540000915527344,38.75,38.125,38.20000076293945,35.76616668701172,69000
2020-05-29,37.84000015258789,38.23500061035156,37.209999084472656,38.029998779296875,35.60700225830078,34800
2020-06-01,38.02000045776367,38.11000061035156,37.810001373291016,38.11000061035156,35.68190383911133,2300
2020-06-02,39.0,39.180999755859375,38.9900016784668,39.180999755859375,36.68466567993164,36900
2020-06-03,39.459999084472656,41.46500015258789,39.2400016784668,39.5,36.983341217041016,21500
2020-06-04,39.75,39.779998779296875,39.400001525878906,39.400001525878906,36.889713287353516,7100
2020-06-05,40.720001220703125,42.09000015258789,40.4640007019043,41.5,38.85591125488281,220800
2020-06-08,42.0,42.7400016784668,41.97999954223633,42.7400016784668,40.01691436767578,30200
2020-06-09,42.09000015258789,42.810001373291016,42.09000015258789,42.220001220703125,39.5300407409668,58700
2020-06-10,41.5,41.5,41.11000061035156,41.439998626708984,38.79973602294922,5500
2020-06-11,39.75,40.720001220703125,38.40999984741211,38.40999984741211,35.96278762817383,24800
2020-06-12,39.0,40.38999938964844,38.88999938964844,39.790000915527344,37.25486373901367,49700
2020-06-15,38.970001220703125,39.81999969482422,38.54999923706055,39.220001220703125,36.7211799621582,120000
2020-06-16,40.20000076293945,40.2599983215332,39.915000915527344,40.0099983215332,37.460845947265625,150000
2020-06-17,39.93000030517578,40.06999969482422,39.68000030517578,39.720001220703125,37.189327239990234,7200
2020-06-18,39.720001220703125,40.34000015258789,39.152000427246094,39.95000076293945,37.40467071533203,8300
2020-06-19,40.189998626708984,40.189998626708984,39.470001220703125,39.90999984741211,37.36721420288086,19700
2020-06-22,39.349998474121094,39.869998931884766,39.130001068115234,39.84000015258789,37.30167770385742,7900
2020-06-23,40.43000030517578,40.58000183105469,40.060001373291016,40.5,37.91962814331055,4500
2020-06-24,40.0,40.189998626708984,38.75,40.189998626708984,37.62937927246094,3700
2020-06-25,40.0099983215332,41.5099983215332,38.70000076293945,39.099998474121094,36.608829498291016,2200
2020-06-26,39.099998474121094,39.10200119018555,38.5,38.5,36.047054290771484,600
2020-06-29,40.33000183105469,40.47999954223633,37.505001068115234,38.54800033569336,36.09199905395508,88000
2020-06-30,38.7400016784668,38.805999755859375,38.2599983215332,38.439998626708984,35.990875244140625,86600
2020-07-01,39.0,39.0,38.189998626708984,38.189998626708984,35.756805419921875,15800
2020-07-02,39.369998931884766,39.400001525878906,38.20000076293945,38.56999969482422,36.11259460449219,6200
2020-07-06,39.0,39.209999084472656,39.0,39.209999084472656,36.71181869506836,1600
2020-07-07,39.04999923706055,39.33000183105469,38.90999984741211,38.90999984741211,36.43092727661133,1000
2020-07-08,38.900001525878906,38.900001525878906,38.900001525878906,38.900001525878906,36.421566009521484,300
2020-07-09,38.84000015258789,39.220001220703125,38.84000015258789,39.220001220703125,36.7211799621582,2000
2020-07-10,39.20000076293945,39.65999984741211,39.20000076293945,39.380001068115234,36.87099075317383,2400
2020-07-13,40.084999084472656,41.25,40.04999923706055,41.25,38.62184524536133,3600
2020-07-14,40.7400016784668,40.7400016784668,40.0,40.45000076293945,38.455474853515625,75200
2020-07-15,41.75,41.9379997253418,41.49599838256836,41.5,39.453697204589844,27800
2020-07-16,41.52000045776367,41.560001373291016,41.0,41.0,38.978355407714844,12200
2020-07-17,41.027000427246094,41.027000427246094,40.790000915527344,40.900001525878906,38.88328170776367,127900
2020-07-20,40.90399932861328,41.209999084472656,40.709999084472656,40.709999084472656,38.70265197753906,2100
2020-07-21,41.40999984741211,41.40999984741211,40.70000076293945,40.70000076293945,38.69314193725586,10400
2020-07-22,41.0,41.0,39.880001068115234,40.0,38.02766036987305,28900
2020-07-23,40.29999923706055,40.58000183105469,40.0,40.41999816894531,38.42694854736328,23300
2020-07-24,40.29999923706055,40.29999923706055,40.209999084472656,40.209999084472656,38.2273063659668,1700
2020-07-27,38.59000015258789,38.79999923706055,37.709999084472656,37.86000061035156,35.99318313598633,36100
2020-07-28,37.380001068115234,37.47999954223633,37.04999923706055,37.189998626708984,35.35621643066406,68600
2020-07-29,36.5,37.130001068115234,36.5,37.06999969482422,35.24213790893555,129100
2020-07-30,37.900001525878906,38.45000076293945,37.43000030517578,38.45000076293945,36.5540885925293,69000
2020-07-31,39.470001220703125,39.88999938964844,39.257999420166016,39.5099983215332,37.561824798583984,66900
2020-08-03,39.529998779296875,40.54999923706055,39.0,39.0,37.076969146728516,78600
2020-08-04,39.36000061035156,41.709999084472656,39.36000061035156,41.0,38.978355407714844,484500
2020-08-05,41.209999084472656,41.869998931884766,41.209999084472656,41.58000183105469,39.529754638671875,14100
2020-08-06,41.68000030517578,41.68000030517578,40.185001373291016,40.439998626708984,38.445960998535156,60200
2020-08-07,41.11000061035156,41.11000061035156,40.470001220703125,40.75,38.74068069458008,9000
2020-08-10,41.31999969482422,41.36000061035156,40.88999938964844,41.24399948120117,39.210323333740234,7000
2020-08-11,41.75,42.244998931884766,41.625,41.97999954223633,39.910030364990234,3000
2020-08-12,42.099998474121094,42.099998474121094,41.95000076293945,42.0099983215332,39.93855285644531,2400
2020-08-13,41.779998779296875,41.779998779296875,40.95000076293945,40.95000076293945,38.93082046508789,1400
2020-08-14,41.7599983215332,42.849998474121094,41.7599983215332,42.72999954223633,40.623050689697266,3600
2020-08-17,42.130001068115234,42.939998626708984,42.130001068115234,42.439998626708984,40.34735107421875,2900
2020-08-18,42.40999984741211,43.06999969482422,42.29999923706055,42.959999084472656,40.84170913696289,14700
2020-08-19,43.13999938964844,43.189998626708984,42.59000015258789,42.59000015258789,40.489952087402344,37900
2020-08-20,42.5,44.849998474121094,42.5,44.720001220703125,42.51492691040039,5100
2020-08-21,43.7599983215332,43.900001525878906,43.75,43.79999923706055,41.640289306640625,1700
2020-08-24,44.435001373291016,44.65999984741211,44.435001373291016,44.59000015258789,42.391334533691406,2800
2020-08-25,45.0,46.810001373291016,45.0,46.72999954223633,44.42581558227539,110900
2020-08-26,46.310001373291016,46.310001373291016,45.380001068115234,45.380001068115234,43.14238357543945,47300
2020-08-27,46.060001373291016,46.060001373291016,45.84000015258789,45.86000061035156,43.59871292114258,32900
2020-08-28,46.0,46.66999816894531,46.0,46.66999816894531,44.3687744140625,3300
2020-08-31,46.849998474121094,47.13999938964844,46.310001373291016,46.310001373291016,44.026527404785156,6300
2020-09-01,46.380001068115234,46.47999954223633,46.04999923706055,46.43000030517578,44.14060592651367,4100
2020-09-02,46.058998107910156,46.349998474121094,46.0,46.349998474121094,44.064552307128906,4500
2020-09-03,46.279998779296875,46.380001068115234,45.35200119018555,45.35200119018555,43.11576461791992,800
2020-09-04,45.349998474121094,45.349998474121094,44.70000076293945,45.189998626708984,42.96175003051758,3600
2020-09-08,44.15999984741211,45.54499816894531,44.15999984741211,44.90999984741211,42.695556640625,49900
2020-09-09,45.72999954223633,46.16400146484375,45.72999954223633,45.91999816894531,43.655757904052734,2100
2020-09-10,45.12900161743164,45.12900161743164,43.86000061035156,43.95000076293945,41.782894134521484,3500
2020-09-11,43.95000076293945,43.95000076293945,43.95000076293945,43.95000076293945,41.782894134521484,0
2020-09-14,44.66999816894531,44.95000076293945,44.5,44.95000076293945,42.73358154296875,1800
2020-09-15,45.220001220703125,45.220001220703125,43.380001068115234,43.849998474121094,41.68782043457031,4200
2020-09-16,44.040000915527344,44.869998931884766,44.040000915527344,44.16999816894531,41.99204635620117,3000
2020-09-17,44.2400016784668,44.290000915527344,44.15999984741211,44.209999084472656,42.03007125854492,1400
2020-09-18,43.2599983215332,43.2599983215332,43.2599983215332,43.2599983215332,41.126914978027344,200
2020-09-21,43.0,43.0,43.0,43.0,40.87973403930664,244100
2020-09-22,43.2599983215332,43.970001220703125,43.2599983215332,43.970001220703125,41.80190658569336,1900
2020-09-23,43.619998931884766,43.619998931884766,42.63999938964844,42.880001068115234,40.765655517578125,118200
2020-09-24,42.040000915527344,42.91999816894531,42.040000915527344,42.900001525878906,40.78466796875,10200
2020-09-25,42.59000015258789,43.220001220703125,42.59000015258789,43.13999938964844,41.01283264160156,6900
2020-09-28,43.52000045776367,44.040000915527344,43.220001220703125,43.38999938964844,41.25050735473633,130200
2020-09-29,43.77000045776367,43.77000045776367,43.11000061035156,43.11000061035156,40.984310150146484,3300
2020-09-30,43.54999923706055,45.529998779296875,43.540000915527344,44.36000061035156,42.17267608642578,58500
2020-10-01,44.939998626708984,44.939998626708984,43.88999938964844,44.25,42.06809616088867,7500
2020-10-02,43.349998474121094,44.93000030517578,43.349998474121094,44.540000915527344,42.34380340576172,6000
2020-10-05,44.93000030517578,45.18000030517578,44.91999816894531,44.939998626708984,42.72407531738281,9400
2020-10-06,45.27000045776367,46.0099983215332,45.06999969482422,45.16999816894531,42.94272994995117,10700
2020-10-07,45.75299835205078,50.650001525878906,45.72999954223633,49.83000183105469,47.37295913696289,242700
2020-10-08,49.4900016784668,50.625999450683594,49.15999984741211,50.29999923706055,47.81978225708008,107600
2020-10-09,51.06999969482422,52.220001220703125,51.06999969482422,51.375,48.84177780151367,297000
2020-10-12,51.90999984741211,52.4900016784668,51.79999923706055,52.31999969482422,49.74018478393555,6100
2020-10-13,52.04999923706055,52.290000915527344,50.400001525878906,51.06999969482422,48.55181884765625,385600
2020-10-14,50.099998474121094,50.209999084472656,49.400001525878906,49.400001525878906,47.54603576660156,2700
2020-10-15,49.400001525878906,49.47999954223633,48.77000045776367,49.400001525878906,47.54603576660156,81400
2020-10-16,49.720001220703125,49.720001220703125,49.119998931884766,49.119998931884766,47.27654266357422,214500
2020-10-19,48.00600051879883,48.00600051879883,47.7599983215332,47.9900016784668,46.1889533996582,8600
2020-10-20,48.34000015258789,48.70000076293945,48.31999969482422,48.58000183105469,46.756813049316406,2500
2020-10-21,48.31800079345703,49.04999923706055,47.310001373291016,47.380001068115234,45.601844787597656,48300
2020-10-22,48.06999969482422,48.4640007019043,48.029998779296875,48.40999984741211,46.59318923950195,109500
2020-10-23,48.5,48.91999816894531,48.5,48.91999816894531,47.084049224853516,1600
2020-10-26,47.849998474121094,48.24800109863281,47.849998474121094,48.05500030517578,46.25151062011719,1300
2020-10-27,48.029998779296875,48.93000030517578,47.97999954223633,48.93000030517578,47.09367752075195,1800
2020-10-28,48.29999923706055,48.91400146484375,47.790000915527344,47.849998474121094,46.054203033447266,34600
2020-10-29,47.77399826049805,48.790000915527344,47.77399826049805,48.790000915527344,46.95893096923828,3400
2020-10-30,48.880001068115234,48.880001068115234,47.880001068115234,48.369998931884766,46.5546875,23700
2020-11-02,48.79999923706055,49.249000549316406,48.70000076293945,49.04999923706055,47.209171295166016,13200
2020-11-03,48.97999954223633,49.33000183105469,48.395999908447266,48.395999908447266,46.5797119140625,174900
2020-11-04,48.619998931884766,49.16400146484375,48.619998931884766,49.11000061035156,47.26691818237305,7200
2020-11-05,49.97999954223633,50.0099983215332,49.54999923706055,50.0099983215332,48.133140563964844,94100
2020-11-06,46.84000015258789,49.38999938964844,43.84000015258789,46.470001220703125,44.72599792480469,85700
2020-11-09,46.650001525878906,48.43000030517578,46.650001525878906,48.33000183105469,46.51619338989258,7800
2020-11-10,48.02000045776367,48.43000030517578,46.665000915527344,48.43000030517578,46.6124382019043,4700
2020-11-11,47.810001373291016,47.810001373291016,46.56999969482422,47.099998474121094,45.33235168457031,127700
2020-11-12,46.46099853515625,47.29999923706055,46.46099853515625,46.720001220703125,44.96661376953125,4400
2020-11-13,46.93000030517578,47.20000076293945,46.58000183105469,47.099998474121094,45.33235168457031,72000
2020-11-16,47.45000076293945,48.16999816894531,46.43000030517578,47.27000045776367,45.4959716796875,46100
2020-11-17,47.0,48.189998626708984,47.0,47.369998931884766,45.59221649169922,8200
2020-11-18,47.209999084472656,47.2400016784668,45.959999084472656,46.09000015258789,44.360260009765625,4200
2020-11-19,46.54999923706055,46.54999923706055,46.099998474121094,46.13999938964844,44.408382415771484,3000
2020-11-20,46.060001373291016,46.47999954223633,45.84000015258789,46.125,44.393943786621094,2400
2020-11-23,47.45000076293945,48.43000030517578,47.45000076293945,48.08000183105469,46.27557373046875,50600
2020-11-24,49.84000015258789,49.84000015258789,48.369998931884766,49.04999923706055,47.209171295166016,145700
2020-11-25,48.279998779296875,49.47999954223633,48.099998474121094,49.189998626708984,47.34391784667969,4400
2020-11-27,48.459999084472656,48.6349983215332,48.459999084472656,48.630001068115234,46.804931640625,1400
2020-11-30,48.41999816894531,48.70000076293945,47.09000015258789,47.459999084472656,45.6788444519043,50600
2020-12-01,47.75,47.75,45.869998931884766,46.119998931884766,44.389129638671875,73300
2020-12-02,46.31999969482422,46.9900016784668,46.22999954223633,46.779998779296875,45.02436065673828,14200
2020-12-03,47.0,47.060001373291016,45.900001525878906,46.0,44.27363967895508,92300
2020-12-04,46.099998474121094,46.150001525878906,45.70000076293945,45.82500076293945,44.10520553588867,6200
2020-12-07,46.40999984741211,46.40999984741211,46.060001373291016,46.27000045776367,44.533504486083984,24600
2020-12-08,46.27000045776367,46.849998474121094,46.27000045776367,46.599998474121094,44.85111618041992,7000
2020-12-09,46.4900016784668,46.849998474121094,45.57600021362305,45.599998474121094,43.88864517211914,5200
2020-12-10,45.58000183105469,45.823001861572266,45.41999816894531,45.5099983215332,43.80202102661133,2500
2020-12-11,45.63999938964844,45.63999938964844,44.70000076293945,45.36000061035156,43.65765380859375,4200
2020-12-14,45.369998931884766,45.63999938964844,45.308998107910156,45.380001068115234,43.676902770996094,20300
2020-12-15,45.349998474121094,48.709999084472656,45.220001220703125,48.150001525878906,46.34294891357422,601100
2020-12-16,47.41999816894531,47.41999816894531,46.70000076293945,46.93000030517578,45.168731689453125,17600
2020-12-17,47.33000183105469,47.77000045776367,47.130001068115234,47.70000076293945,45.90983581542969,5000
2020-12-18,47.95000076293945,47.95000076293945,46.91999816894531,47.38999938964844,45.61146926879883,78100
2020-12-21,46.91999816894531,47.279998779296875,46.68000030517578,46.849998474121094,45.091732025146484,6000
2020-12-22,46.7599983215332,48.0,46.7599983215332,48.0,46.19857406616211,6200
2020-12-23,47.7599983215332,48.150001525878906,47.20000076293945,48.060001373291016,46.256324768066406,10100
2020-12-24,48.0,48.290000915527344,47.79999923706055,48.25,46.43919372558594,4400
2020-12-28,48.20000076293945,48.7599983215332,47.88999938964844,48.7599983215332,46.9300537109375,8800
2020-12-29,48.452999114990234,48.56999969482422,47.84000015258789,48.0,46.19857406616211,5600
2020-12-30,47.790000915527344,48.15999984741211,47.73500061035156,47.744998931884766,45.95314407348633,4600
