Date,Open,High,Low,Close,Adj Close,Volume
2018-04-26,25.020000457763672,25.200000762939453,25.0,25.15999984741211,25.15999984741211,263800
2018-04-27,25.200000762939453,25.290000915527344,25.139999389648438,25.25,25.25,152100
2018-04-30,25.229999542236328,25.31999969482422,25.18000030517578,25.25,25.25,421000
2018-05-01,25.260000228881836,25.260000228881836,25.180999755859375,25.229999542236328,25.229999542236328,63800
2018-05-02,25.239999771118164,26.040000915527344,25.200000762939453,25.3799991607666,25.3799991607666,226300
2018-05-03,25.280000686645508,25.43899917602539,25.280000686645508,25.31999969482422,25.31999969482422,112700
2018-05-04,25.399999618530273,25.450000762939453,25.3700008392334,25.3700008392334,25.3700008392334,410100
2018-05-07,25.399999618530273,25.399999618530273,25.238000869750977,25.299999237060547,25.299999237060547,145500
2018-05-08,25.299999237060547,25.31999969482422,25.219999313354492,25.280000686645508,25.280000686645508,130500
2018-05-09,25.25,25.329999923706055,25.229999542236328,25.239999771118164,25.239999771118164,229400
2018-05-10,25.270000457763672,25.329999923706055,25.219999313354492,25.260000228881836,25.260000228881836,1471500
2018-05-11,25.280000686645508,25.540000915527344,25.239999771118164,25.479999542236328,25.479999542236328,691800
2018-05-14,25.469999313354492,25.540000915527344,25.375,25.440000534057617,25.440000534057617,150700
2018-05-15,25.40999984741211,25.40999984741211,25.25,25.260000228881836,25.260000228881836,230400
2018-05-16,25.260000228881836,25.43000030517578,25.25,25.350000381469727,25.350000381469727,169500
2018-05-17,25.3700008392334,25.489999771118164,25.3700008392334,25.43000030517578,25.43000030517578,274000
2018-05-18,25.450000762939453,25.450000762939453,25.329999923706055,25.440000534057617,25.440000534057617,30200
2018-05-21,25.5,25.5,25.299999237060547,25.360000610351562,25.360000610351562,69700
2018-05-22,25.399999618530273,25.408000946044922,25.329999923706055,25.3799991607666,25.3799991607666,220800
2018-05-23,25.3799991607666,25.420000076293945,25.360000610351562,25.389999389648438,25.389999389648438,122200
2018-05-24,25.399999618530273,25.450000762939453,25.389999389648438,25.420000076293945,25.420000076293945,82400
2018-05-25,25.450000762939453,25.450000762939453,25.389999389648438,25.40999984741211,25.40999984741211,56100
2018-05-29,25.420000076293945,25.549999237060547,25.358999252319336,25.43000030517578,25.43000030517578,749600
2018-05-30,25.43000030517578,25.479999542236328,25.416000366210938,25.450000762939453,25.450000762939453,212900
2018-05-31,25.489999771118164,25.75,25.43000030517578,25.65999984741211,25.65999984741211,371300
2018-06-01,25.549999237060547,25.833999633789062,25.5,25.6299991607666,25.6299991607666,78600
2018-06-04,25.6299991607666,25.700000762939453,25.559999465942383,25.56999969482422,25.56999969482422,54700
2018-06-05,25.600000381469727,25.6200008392334,25.43000030517578,25.489999771118164,25.489999771118164,54500
2018-06-06,25.530000686645508,25.597999572753906,25.440000534057617,25.440000534057617,25.440000534057617,154900
2018-06-07,25.479999542236328,25.549999237060547,25.440000534057617,25.549999237060547,25.549999237060547,669500
2018-06-08,25.5,25.549999237060547,25.493999481201172,25.5,25.5,28400
2018-06-11,25.459999084472656,25.579999923706055,25.420000076293945,25.440000534057617,25.440000534057617,199000
2018-06-12,25.479999542236328,25.520000457763672,25.440000534057617,25.469999313354492,25.469999313354492,32800
2018-06-13,25.540000915527344,25.540000915527344,25.392000198364258,25.450000762939453,25.450000762939453,66700
2018-06-14,25.450000762939453,25.489999771118164,25.40999984741211,25.459999084472656,25.459999084472656,37400
2018-06-15,25.450000762939453,25.566999435424805,25.40999984741211,25.530000686645508,25.530000686645508,171400
2018-06-18,25.520000457763672,25.520000457763672,25.299999237060547,25.43000030517578,25.43000030517578,212300
2018-06-19,25.40999984741211,25.459999084472656,25.3799991607666,25.43000030517578,25.43000030517578,334100
2018-06-20,25.459999084472656,25.524999618530273,25.41900062561035,25.43000030517578,25.43000030517578,80900
2018-06-21,25.450000762939453,25.459999084472656,25.3799991607666,25.385000228881836,25.385000228881836,20000
2018-06-22,25.40999984741211,25.489999771118164,25.350000381469727,25.489999771118164,25.489999771118164,163800
2018-06-25,25.440000534057617,25.479999542236328,25.389999389648438,25.450000762939453,25.450000762939453,105700
2018-06-26,25.479999542236328,25.479999542236328,25.350000381469727,25.399999618530273,25.399999618530273,81200
2018-06-27,25.43000030517578,25.510000228881836,25.402999877929688,25.430999755859375,25.430999755859375,118700
2018-06-28,25.100000381469727,25.18000030517578,25.049999237060547,25.170000076293945,25.170000076293945,68700
2018-06-29,25.149999618530273,25.304000854492188,25.149999618530273,25.18000030517578,25.18000030517578,107100
2018-07-02,25.219999313354492,25.420000076293945,25.200000762939453,25.350000381469727,25.350000381469727,30700
2018-07-03,25.350000381469727,25.459999084472656,25.299999237060547,25.360000610351562,25.360000610351562,16200
2018-07-05,25.420000076293945,25.639999389648438,25.420000076293945,25.56999969482422,25.56999969482422,52800
2018-07-06,25.5,25.559999465942383,25.45800018310547,25.466999053955078,25.466999053955078,40100
2018-07-09,25.489999771118164,25.489999771118164,25.31999969482422,25.350000381469727,25.350000381469727,57500
2018-07-10,25.489999771118164,25.5,25.40999984741211,25.489999771118164,25.489999771118164,371100
2018-07-11,25.489999771118164,25.540000915527344,25.420000076293945,25.520000457763672,25.520000457763672,45400
2018-07-12,25.549999237060547,25.59000015258789,25.479999542236328,25.56999969482422,25.56999969482422,55800
2018-07-13,25.59000015258789,25.59000015258789,25.440000534057617,25.51099967956543,25.51099967956543,21600
2018-07-16,25.510000228881836,25.510000228881836,25.260000228881836,25.389999389648438,25.389999389648438,96400
2018-07-17,25.389999389648438,25.392000198364258,25.31999969482422,25.360000610351562,25.360000610351562,56700
2018-07-18,25.399999618530273,25.530000686645508,25.326000213623047,25.459999084472656,25.459999084472656,54600
2018-07-19,25.459999084472656,25.6200008392334,25.322999954223633,25.3799991607666,25.3799991607666,181500
2018-07-20,25.361000061035156,25.389999389648438,25.297000885009766,25.3799991607666,25.3799991607666,90200
2018-07-23,25.3799991607666,25.469999313354492,25.3799991607666,25.450000762939453,25.450000762939453,55600
2018-07-24,25.469999313354492,25.469999313354492,25.350000381469727,25.350000381469727,25.350000381469727,19200
2018-07-25,25.350000381469727,25.440000534057617,25.329999923706055,25.350000381469727,25.350000381469727,150000
2018-07-26,25.420000076293945,25.579999923706055,25.360000610351562,25.530000686645508,25.530000686645508,71800
2018-07-27,25.600000381469727,25.600000381469727,25.450000762939453,25.549999237060547,25.549999237060547,40500
2018-07-30,25.600000381469727,25.600000381469727,25.469999313354492,25.520000457763672,25.520000457763672,18600
2018-07-31,25.5,25.540000915527344,25.450000762939453,25.5,25.5,167000
2018-08-01,25.40999984741211,25.549999237060547,25.399999618530273,25.40999984741211,25.40999984741211,29400
2018-08-02,25.540000915527344,25.65999984741211,25.510000228881836,25.549999237060547,25.549999237060547,77500
2018-08-03,25.549999237060547,25.639999389648438,25.538000106811523,25.549999237060547,25.549999237060547,37500
2018-08-06,25.6299991607666,25.6299991607666,25.475000381469727,25.510000228881836,25.510000228881836,52900
2018-08-07,25.56999969482422,25.628000259399414,25.459999084472656,25.5,25.5,68300
2018-08-08,25.530000686645508,25.56999969482422,25.457000732421875,25.492000579833984,25.492000579833984,37200
2018-08-09,25.549999237060547,25.56999969482422,25.48699951171875,25.55699920654297,25.55699920654297,45200
2018-08-10,25.540000915527344,25.559999465942383,25.5,25.530000686645508,25.530000686645508,18200
2018-08-13,25.559999465942383,25.559999465942383,25.46299934387207,25.47599983215332,25.47599983215332,26600
2018-08-14,25.540000915527344,25.545000076293945,25.440000534057617,25.450000762939453,25.450000762939453,69900
2018-08-15,25.43000030517578,25.461999893188477,25.3799991607666,25.430999755859375,25.430999755859375,26200
2018-08-16,25.469999313354492,25.5,25.440000534057617,25.450000762939453,25.450000762939453,33000
2018-08-17,25.479999542236328,25.549999237060547,25.474000930786133,25.549999237060547,25.549999237060547,42400
2018-08-20,25.579999923706055,25.579999923706055,25.450000762939453,25.479999542236328,25.479999542236328,39400
2018-08-21,25.540000915527344,25.540000915527344,25.40999984741211,25.479999542236328,25.479999542236328,19900
2018-08-22,25.5,25.579999923706055,25.5,25.559999465942383,25.559999465942383,46900
2018-08-23,25.59000015258789,25.6299991607666,25.540000915527344,25.6299991607666,25.6299991607666,26100
2018-08-24,25.6299991607666,25.649999618530273,25.55699920654297,25.649999618530273,25.649999618530273,29400
2018-08-27,25.649999618530273,25.690000534057617,25.56100082397461,25.670000076293945,25.670000076293945,34000
2018-08-28,25.690000534057617,25.729999542236328,25.600000381469727,25.729999542236328,25.729999542236328,36200
2018-08-29,25.739999771118164,25.739999771118164,25.600000381469727,25.719999313354492,25.719999313354492,28700
2018-08-30,25.719999313354492,25.756999969482422,25.645000457763672,25.700000762939453,25.700000762939453,26700
2018-08-31,25.8799991607666,25.899999618530273,25.610000610351562,25.6299991607666,25.6299991607666,44800
2018-09-04,25.75,25.770000457763672,25.56999969482422,25.670000076293945,25.670000076293945,21700
2018-09-05,25.75,25.850000381469727,25.540000915527344,25.649999618530273,25.649999618530273,101900
2018-09-06,25.700000762939453,25.700000762939453,25.510000228881836,25.530000686645508,25.530000686645508,99300
2018-09-07,25.459999084472656,25.479999542236328,25.389999389648438,25.469999313354492,25.469999313354492,37500
2018-09-10,25.5,25.540000915527344,25.433000564575195,25.459999084472656,25.459999084472656,62700
2018-09-11,25.530000686645508,25.53499984741211,25.37700080871582,25.459999084472656,25.459999084472656,130100
2018-09-12,25.5,25.56999969482422,25.440000534057617,25.510000228881836,25.510000228881836,60600
2018-09-13,25.56999969482422,25.56999969482422,25.510000228881836,25.549999237060547,25.549999237060547,38500
2018-09-14,25.510000228881836,25.56999969482422,25.469999313354492,25.56999969482422,25.56999969482422,17900
2018-09-17,25.56999969482422,25.56999969482422,25.399999618530273,25.469999313354492,25.469999313354492,90800
2018-09-18,25.420000076293945,25.472000122070312,25.389999389648438,25.40999984741211,25.40999984741211,250800
2018-09-19,25.450000762939453,25.450000762939453,25.285999298095703,25.309999465942383,25.309999465942383,60300
2018-09-20,25.350000381469727,25.43000030517578,25.309999465942383,25.31999969482422,25.31999969482422,53000
2018-09-21,25.329999923706055,25.450000762939453,25.309999465942383,25.31999969482422,25.31999969482422,30300
2018-09-24,25.360000610351562,25.450000762939453,25.360000610351562,25.440000534057617,25.440000534057617,25100
2018-09-25,25.450000762939453,25.450000762939453,25.3700008392334,25.399999618530273,25.399999618530273,45200
2018-09-26,25.440000534057617,25.450000762939453,25.350000381469727,25.440000534057617,25.440000534057617,26200
2018-09-27,25.450000762939453,25.59000015258789,25.402000427246094,25.520000457763672,25.520000457763672,26500
2018-09-28,25.239999771118164,25.25,25.110000610351562,25.239999771118164,25.239999771118164,73800
2018-10-01,25.15999984741211,25.239999771118164,25.100000381469727,25.190000534057617,25.190000534057617,174300
2018-10-02,25.167999267578125,25.239999771118164,25.149999618530273,25.149999618530273,25.149999618530273,61800
2018-10-03,25.15999984741211,25.200000762939453,24.850000381469727,24.93000030517578,24.93000030517578,117200
2018-10-04,24.989999771118164,24.989999771118164,24.770000457763672,24.860000610351562,24.860000610351562,71400
2018-10-05,24.8799991607666,24.959999084472656,24.790000915527344,24.799999237060547,24.799999237060547,41300
2018-10-08,24.950000762939453,24.957000732421875,24.797000885009766,24.84000015258789,24.84000015258789,68900
2018-10-09,24.850000381469727,24.989999771118164,24.850000381469727,24.889999389648438,24.889999389648438,29200
2018-10-10,24.969999313354492,24.969999313354492,24.700000762939453,24.8799991607666,24.8799991607666,41400
2018-10-11,24.8799991607666,24.959999084472656,24.719999313354492,24.7450008392334,24.7450008392334,36900
2018-10-12,24.950000762939453,24.950000762939453,24.770000457763672,24.799999237060547,24.799999237060547,30500
2018-10-15,24.850000381469727,24.90399932861328,24.700000762939453,24.739999771118164,24.739999771118164,65000
2018-10-16,24.899999618530273,24.899999618530273,24.719999313354492,24.729999542236328,24.729999542236328,79900
2018-10-17,24.719999313354492,24.767000198364258,24.610000610351562,24.649999618530273,24.649999618530273,49200
2018-10-18,24.649999618530273,24.81999969482422,24.649999618530273,24.799999237060547,24.799999237060547,87000
2018-10-19,24.809999465942383,24.809999465942383,24.709999084472656,24.709999084472656,24.709999084472656,39100
2018-10-22,24.790000915527344,24.799999237060547,24.6200008392334,24.790000915527344,24.790000915527344,21600
2018-10-23,24.790000915527344,24.790000915527344,24.600000381469727,24.649999618530273,24.649999618530273,44700
2018-10-24,24.75,24.75,24.649999618530273,24.700000762939453,24.700000762939453,49600
2018-10-25,24.700000762939453,24.790000915527344,24.56999969482422,24.690000534057617,24.690000534057617,31600
2018-10-26,24.739999771118164,24.790000915527344,24.649999618530273,24.690000534057617,24.690000534057617,23700
2018-10-29,24.700000762939453,24.739999771118164,24.649999618530273,24.690000534057617,24.690000534057617,33600
2018-10-30,24.700000762939453,24.739999771118164,24.610000610351562,24.6299991607666,24.6299991607666,34700
2018-10-31,24.68000030517578,24.739999771118164,24.6299991607666,24.68000030517578,24.68000030517578,185700
2018-11-01,24.68000030517578,24.700000762939453,24.549999237060547,24.6200008392334,24.6200008392334,132400
2018-11-02,24.639999389648438,24.639999389648438,24.549999237060547,24.549999237060547,24.549999237060547,27600
2018-11-05,24.600000381469727,24.6299991607666,24.520000457763672,24.6299991607666,24.6299991607666,45600
2018-11-06,24.6299991607666,24.790000915527344,24.589000701904297,24.729999542236328,24.729999542236328,34000
2018-11-07,24.790000915527344,24.98900032043457,24.777000427246094,24.790000915527344,24.790000915527344,44600
2018-11-08,24.860000610351562,24.8799991607666,24.610000610351562,24.700000762939453,24.700000762939453,86900
2018-11-09,24.690000534057617,24.799999237060547,24.690000534057617,24.700000762939453,24.700000762939453,19800
2018-11-12,24.719999313354492,24.790000915527344,24.700000762939453,24.784000396728516,24.784000396728516,21300
2018-11-13,24.790000915527344,24.829999923706055,24.700000762939453,24.700000762939453,24.700000762939453,17500
2018-11-14,24.700000762939453,24.850000381469727,24.600000381469727,24.618999481201172,24.618999481201172,94500
2018-11-15,24.600000381469727,24.65999984741211,24.200000762939453,24.459999084472656,24.459999084472656,49200
2018-11-16,24.399999618530273,24.540000915527344,24.399999618530273,24.448999404907227,24.448999404907227,27500
2018-11-19,24.5,24.610000610351562,24.34000015258789,24.34000015258789,24.34000015258789,47900
2018-11-20,24.399999618530273,24.399999618530273,23.93000030517578,23.93000030517578,23.93000030517578,128200
2018-11-21,24.209999084472656,24.209999084472656,24.024999618530273,24.06999969482422,24.06999969482422,60100
2018-11-23,23.969999313354492,24.1299991607666,23.93000030517578,23.989999771118164,23.989999771118164,20300
2018-11-26,24.100000381469727,24.100000381469727,23.621999740600586,23.8799991607666,23.8799991607666,68800
2018-11-27,23.920000076293945,23.920000076293945,23.6299991607666,23.739999771118164,23.739999771118164,124200
2018-11-28,23.799999237060547,23.829999923706055,23.31999969482422,23.3700008392334,23.3700008392334,183200
2018-11-29,23.299999237060547,23.450000762939453,23.06999969482422,23.100000381469727,23.100000381469727,400200
2018-11-30,23.079999923706055,23.290000915527344,22.899999618530273,23.260000228881836,23.260000228881836,235900
2018-12-03,23.299999237060547,23.3700008392334,22.940000534057617,23.200000762939453,23.200000762939453,92900
2018-12-04,23.219999313354492,23.389999389648438,22.899999618530273,23.299999237060547,23.299999237060547,122200
2018-12-06,23.149999618530273,23.299999237060547,23.0,23.18000030517578,23.18000030517578,156400
2018-12-07,23.3799991607666,23.5,23.239999771118164,23.450000762939453,23.450000762939453,118000
2018-12-10,23.59000015258789,23.59000015258789,23.334999084472656,23.43000030517578,23.43000030517578,37000
2018-12-11,23.469999313354492,23.670000076293945,23.450000762939453,23.549999237060547,23.549999237060547,135100
2018-12-12,23.670000076293945,24.09000015258789,23.670000076293945,23.979999542236328,23.979999542236328,320800
2018-12-13,23.8700008392334,24.100000381469727,23.8700008392334,23.989999771118164,23.989999771118164,39400
2018-12-14,24.040000915527344,24.219999313354492,23.77199935913086,24.09000015258789,24.09000015258789,95800
2018-12-17,24.1299991607666,24.1299991607666,23.770000457763672,23.770000457763672,23.770000457763672,81800
2018-12-18,23.829999923706055,23.899999618530273,23.459999084472656,23.5,23.5,348400
2018-12-19,23.600000381469727,23.8799991607666,23.469999313354492,23.760000228881836,23.760000228881836,182500
2018-12-20,23.790000915527344,24.06999969482422,23.450000762939453,23.670000076293945,23.670000076293945,160700
2018-12-21,23.68000030517578,23.68000030517578,23.360000610351562,23.360000610351562,23.360000610351562,69300
2018-12-24,23.219999313354492,23.25,22.520000457763672,22.850000381469727,22.850000381469727,57900
2018-12-26,22.850000381469727,23.489999771118164,22.850000381469727,23.059999465942383,23.059999465942383,75500
2018-12-27,23.010000228881836,23.09000015258789,22.889999389648438,22.889999389648438,22.889999389648438,63400
2018-12-28,22.780000686645508,22.969999313354492,22.55500030517578,22.8799991607666,22.8799991607666,131600
2018-12-31,23.010000228881836,23.549999237060547,22.899999618530273,23.540000915527344,23.540000915527344,145100
2019-01-02,23.209999084472656,24.100000381469727,23.200000762939453,24.09000015258789,24.09000015258789,165800
2019-01-03,24.059999465942383,24.15999984741211,23.81999969482422,24.149999618530273,24.149999618530273,80100
2019-01-04,24.15999984741211,24.700000762939453,24.15999984741211,24.700000762939453,24.700000762939453,110700
2019-01-07,24.700000762939453,25.100000381469727,24.649999618530273,24.979999542236328,24.979999542236328,83300
2019-01-08,25.0,25.149999618530273,24.812000274658203,25.139999389648438,25.139999389648438,54400
2019-01-09,25.190000534057617,25.190000534057617,24.84000015258789,25.190000534057617,25.190000534057617,81300
2019-01-10,25.1299991607666,25.1299991607666,24.979999542236328,25.010000228881836,25.010000228881836,49700
2019-01-11,25.09000015258789,25.399999618530273,24.950000762939453,25.149999618530273,25.149999618530273,152400
2019-01-14,25.209999084472656,25.43000030517578,25.077999114990234,25.200000762939453,25.200000762939453,94600
2019-01-15,25.31999969482422,25.31999969482422,25.079999923706055,25.110000610351562,25.110000610351562,86300
2019-01-16,25.15999984741211,25.280000686645508,24.780000686645508,24.8799991607666,24.8799991607666,136700
2019-01-17,24.90999984741211,25.15999984741211,24.819000244140625,25.139999389648438,25.139999389648438,106000
2019-01-18,25.139999389648438,25.239999771118164,24.93000030517578,25.110000610351562,25.110000610351562,45100
2019-01-22,25.0,25.239999771118164,24.826000213623047,25.200000762939453,25.200000762939453,94500
2019-01-23,25.190000534057617,25.190000534057617,24.809999465942383,25.09000015258789,25.09000015258789,32100
2019-01-24,25.079999923706055,25.079999923706055,24.850000381469727,24.850000381469727,24.850000381469727,56900
2019-01-25,24.959999084472656,25.02899932861328,24.860000610351562,24.899999618530273,24.899999618530273,66100
2019-01-28,24.899999618530273,25.079999923706055,24.863000869750977,25.020000457763672,25.020000457763672,97300
2019-01-29,25.059999465942383,25.079999923706055,24.959999084472656,24.959999084472656,24.959999084472656,44800
2019-01-30,25.0,25.170000076293945,25.0,25.059999465942383,25.059999465942383,177200
2019-01-31,25.1200008392334,25.489999771118164,25.06999969482422,25.200000762939453,25.200000762939453,218700
2019-02-01,25.1299991607666,25.3700008392334,25.1299991607666,25.3700008392334,25.3700008392334,22700
2019-02-04,25.360000610351562,25.547000885009766,25.235000610351562,25.5,25.5,53800
2019-02-05,25.540000915527344,25.649999618530273,25.371000289916992,25.420000076293945,25.420000076293945,60500
2019-02-06,25.5,25.538999557495117,25.31999969482422,25.399999618530273,25.399999618530273,69900
2019-02-07,25.450000762939453,25.600000381469727,25.25,25.25,25.25,44100
2019-02-08,25.31999969482422,25.59000015258789,25.309999465942383,25.48200035095215,25.48200035095215,51300
2019-02-11,25.399999618530273,25.600000381469727,25.34000015258789,25.450000762939453,25.450000762939453,79500
2019-02-12,25.579999923706055,25.579999923706055,25.399999618530273,25.450000762939453,25.450000762939453,88600
2019-02-13,25.520000457763672,25.520000457763672,25.309999465942383,25.34000015258789,25.34000015258789,30800
2019-02-14,25.3700008392334,25.450000762939453,25.260000228881836,25.290000915527344,25.290000915527344,57900
2019-02-15,25.3700008392334,25.520000457763672,25.270000457763672,25.270000457763672,25.270000457763672,60100
2019-02-19,25.3700008392334,25.420000076293945,25.299999237060547,25.329999923706055,25.329999923706055,28500
2019-02-20,25.40999984741211,25.40999984741211,25.209999084472656,25.229999542236328,25.229999542236328,110500
2019-02-21,25.260000228881836,25.3799991607666,25.219999313354492,25.3799991607666,25.3799991607666,50200
2019-02-22,25.3799991607666,25.5,25.31399917602539,25.5,25.5,32500
2019-02-25,25.5,25.56999969482422,25.350000381469727,25.520000457763672,25.520000457763672,303500
2019-02-26,25.540000915527344,25.56999969482422,25.3700008392334,25.56999969482422,25.56999969482422,34300
2019-02-27,25.559999465942383,25.59000015258789,25.399999618530273,25.5,25.5,75900
2019-02-28,25.559999465942383,25.84000015258789,25.511999130249023,25.84000015258789,25.84000015258789,286300
2019-03-01,25.8700008392334,25.969999313354492,25.520000457763672,25.75,25.75,206700
2019-03-04,25.81999969482422,25.81999969482422,25.530000686645508,25.670000076293945,25.670000076293945,55800
2019-03-05,25.700000762939453,25.770000457763672,25.549999237060547,25.770000457763672,25.770000457763672,87800
2019-03-06,25.780000686645508,25.780000686645508,25.610000610351562,25.68000030517578,25.68000030517578,66100
2019-03-07,25.700000762939453,25.760000228881836,25.549999237060547,25.649999618530273,25.649999618530273,129600
2019-03-08,25.65999984741211,25.75,25.559999465942383,25.690000534057617,25.690000534057617,103600
2019-03-11,25.719999313354492,25.719999313354492,25.600000381469727,25.68000030517578,25.68000030517578,59700
2019-03-12,25.719999313354492,25.719999313354492,25.540000915527344,25.670000076293945,25.670000076293945,194800
2019-03-13,25.700000762939453,25.75,25.579999923706055,25.6299991607666,25.6299991607666,67600
2019-03-14,25.649999618530273,25.81999969482422,25.610000610351562,25.799999237060547,25.799999237060547,65700
2019-03-15,25.799999237060547,25.969999313354492,25.7450008392334,25.969999313354492,25.969999313354492,33400
2019-03-18,25.959999084472656,26.149999618530273,25.959999084472656,26.030000686645508,26.030000686645508,67600
2019-03-19,26.100000381469727,26.100000381469727,25.940000534057617,26.09000015258789,26.09000015258789,35800
2019-03-20,26.100000381469727,26.18000030517578,25.950000762939453,26.18000030517578,26.18000030517578,62300
2019-03-21,26.06999969482422,26.329999923706055,26.04199981689453,26.25,26.25,53000
2019-03-22,26.229999542236328,26.280000686645508,25.93000030517578,25.969999313354492,25.969999313354492,48200
2019-03-25,26.06999969482422,26.09000015258789,25.940000534057617,25.989999771118164,25.989999771118164,75700
2019-03-26,26.1299991607666,26.209999084472656,25.969999313354492,26.200000762939453,26.200000762939453,46000
2019-03-27,26.139999389648438,26.5,26.114999771118164,26.5,26.5,63100
2019-03-28,26.540000915527344,26.679000854492188,26.375,26.450000762939453,26.450000762939453,77200
2019-03-29,26.239999771118164,26.239999771118164,25.889999389648438,26.0,26.0,255800
2019-04-01,26.040000915527344,26.128000259399414,25.829999923706055,26.100000381469727,26.100000381469727,52100
2019-04-02,26.09000015258789,26.100000381469727,25.937999725341797,26.049999237060547,26.049999237060547,27300
2019-04-03,26.079999923706055,26.1299991607666,25.99799919128418,26.079999923706055,26.079999923706055,38000
2019-04-04,26.1299991607666,26.190000534057617,25.93000030517578,26.190000534057617,26.190000534057617,80500
2019-04-05,26.170000076293945,26.209999084472656,26.02199935913086,26.079999923706055,26.079999923706055,46900
2019-04-08,26.049999237060547,26.18000030517578,25.760000228881836,25.790000915527344,25.790000915527344,65200
2019-04-09,25.790000915527344,25.84000015258789,25.760000228881836,25.760000228881836,25.760000228881836,43400
2019-04-10,25.81999969482422,25.8700008392334,25.700000762939453,25.75,25.75,124200
2019-04-11,25.809999465942383,25.809999465942383,25.729999542236328,25.790000915527344,25.790000915527344,22300
2019-04-12,25.799999237060547,25.920000076293945,25.790000915527344,25.860000610351562,25.860000610351562,26900
2019-04-15,25.920000076293945,25.950000762939453,25.850000381469727,25.8799991607666,25.8799991607666,58000
2019-04-16,25.940000534057617,25.940000534057617,25.799999237060547,25.889999389648438,25.889999389648438,97900
2019-04-17,25.940000534057617,25.950000762939453,25.860000610351562,25.940000534057617,25.940000534057617,47300
2019-04-18,25.950000762939453,26.0,25.899999618530273,26.0,26.0,42100
2019-04-22,26.030000686645508,26.108999252319336,25.90999984741211,25.940000534057617,25.940000534057617,48300
2019-04-23,26.06999969482422,26.149999618530273,25.969999313354492,26.149999618530273,26.149999618530273,45500
2019-04-24,26.149999618530273,26.299999237060547,26.1200008392334,26.290000915527344,26.290000915527344,42800
2019-04-25,26.290000915527344,26.290000915527344,26.110000610351562,26.18000030517578,26.18000030517578,39500
2019-04-26,26.219999313354492,26.219999313354492,25.969999313354492,26.139999389648438,26.139999389648438,35900
2019-04-29,26.18000030517578,26.25,26.030000686645508,26.149999618530273,26.149999618530273,51700
2019-04-30,26.149999618530273,26.5,26.100000381469727,26.43000030517578,26.43000030517578,269900
2019-05-01,26.479999542236328,26.479999542236328,26.280000686645508,26.350000381469727,26.350000381469727,30600
2019-05-02,26.420000076293945,26.420000076293945,26.249000549316406,26.249000549316406,26.249000549316406,25700
2019-05-03,26.329999923706055,26.3799991607666,26.18000030517578,26.200000762939453,26.200000762939453,865000
2019-05-06,26.239999771118164,26.375,26.020000457763672,26.34000015258789,26.34000015258789,33100
2019-05-07,26.34000015258789,26.34000015258789,26.049999237060547,26.31999969482422,26.31999969482422,57600
2019-05-08,26.329999923706055,26.40399932861328,26.20400047302246,26.360000610351562,26.360000610351562,42200
2019-05-09,26.360000610351562,26.420000076293945,26.149999618530273,26.420000076293945,26.420000076293945,36000
2019-05-10,26.40999984741211,26.469999313354492,26.350000381469727,26.459999084472656,26.459999084472656,37700
2019-05-13,26.3799991607666,26.549999237060547,26.15999984741211,26.3799991607666,26.3799991607666,45900
2019-05-14,26.469999313354492,26.5,26.290000915527344,26.459999084472656,26.459999084472656,53200
2019-05-15,26.469999313354492,26.59000015258789,26.450000762939453,26.530000686645508,26.530000686645508,56700
2019-05-16,26.59000015258789,26.59000015258789,26.40999984741211,26.549999237060547,26.549999237060547,39100
2019-05-17,26.540000915527344,26.56999969482422,26.479999542236328,26.540000915527344,26.540000915527344,58800
2019-05-20,26.559999465942383,26.559999465942383,26.350000381469727,26.350000381469727,26.350000381469727,115400
2019-05-21,26.450000762939453,26.510000228881836,26.360000610351562,26.510000228881836,26.510000228881836,46800
2019-05-22,26.549999237060547,26.56999969482422,26.423999786376953,26.5,26.5,36700
2019-05-23,26.5,26.5,26.309999465942383,26.350000381469727,26.350000381469727,65300
2019-05-24,26.450000762939453,26.489999771118164,26.0,26.489999771118164,26.489999771118164,23400
2019-05-28,26.489999771118164,26.62700080871582,26.43000030517578,26.469999313354492,26.469999313354492,40700
2019-05-29,26.479999542236328,26.62299919128418,26.219999313354492,26.309999465942383,26.309999465942383,81100
2019-05-30,26.3799991607666,26.459999084472656,26.219999313354492,26.290000915527344,26.290000915527344,132600
2019-05-31,26.280000686645508,26.450000762939453,26.200000762939453,26.420000076293945,26.420000076293945,216600
2019-06-03,26.450000762939453,26.450000762939453,26.128000259399414,26.275999069213867,26.275999069213867,38600
2019-06-04,26.329999923706055,26.399999618530273,26.219999313354492,26.299999237060547,26.299999237060547,41700
2019-06-05,26.329999923706055,26.329999923706055,26.219999313354492,26.25,26.25,42100
2019-06-06,26.299999237060547,26.399999618530273,26.219999313354492,26.3700008392334,26.3700008392334,44600
2019-06-07,26.399999618530273,26.469999313354492,26.389999389648438,26.450000762939453,26.450000762939453,26500
2019-06-10,26.479999542236328,26.549999237060547,26.40999984741211,26.440000534057617,26.440000534057617,110100
2019-06-11,26.489999771118164,26.579999923706055,26.433000564575195,26.523000717163086,26.523000717163086,72200
2019-06-12,26.549999237060547,26.549999237060547,26.43000030517578,26.469999313354492,26.469999313354492,23500
2019-06-13,26.510000228881836,26.540000915527344,26.469999313354492,26.493999481201172,26.493999481201172,21600
2019-06-14,26.5,26.65999984741211,26.440000534057617,26.639999389648438,26.639999389648438,40200
2019-06-17,26.690000534057617,26.690000534057617,26.56999969482422,26.5939998626709,26.5939998626709,21800
2019-06-18,26.760000228881836,26.760000228881836,26.420000076293945,26.450000762939453,26.450000762939453,158900
2019-06-19,26.5,26.55299949645996,26.31999969482422,26.389999389648438,26.389999389648438,54200
2019-06-20,26.459999084472656,26.549999237060547,26.423999786376953,26.520000457763672,26.520000457763672,32700
2019-06-21,26.520000457763672,26.549999237060547,26.440000534057617,26.549999237060547,26.549999237060547,34900
2019-06-24,26.549999237060547,26.559999465942383,26.450000762939453,26.479999542236328,26.479999542236328,142700
2019-06-25,26.5,26.5,26.450000762939453,26.489999771118164,26.489999771118164,51800
2019-06-26,26.5,26.540000915527344,26.450000762939453,26.489999771118164,26.489999771118164,79300
2019-06-27,26.450000762939453,26.579999923706055,26.450000762939453,26.5,26.5,75700
2019-06-28,26.139999389648438,26.200000762939453,26.040000915527344,26.100000381469727,26.100000381469727,303000
2019-07-01,26.139999389648438,26.139999389648438,26.010000228881836,26.139999389648438,26.139999389648438,40900
2019-07-02,26.139999389648438,26.15999984741211,24.270000457763672,26.09000015258789,26.09000015258789,119100
2019-07-03,26.149999618530273,26.18000030517578,26.020000457763672,26.18000030517578,26.18000030517578,23000
2019-07-05,26.18000030517578,26.18000030517578,26.100000381469727,26.149999618530273,26.149999618530273,25600
2019-07-08,26.149999618530273,26.190000534057617,26.100000381469727,26.190000534057617,26.190000534057617,19300
2019-07-09,26.1299991607666,26.290000915527344,26.1200008392334,26.1299991607666,26.1299991607666,36100
2019-07-10,26.219999313354492,26.34000015258789,26.166000366210938,26.329999923706055,26.329999923706055,21100
2019-07-11,26.31999969482422,26.3700008392334,26.285999298095703,26.3700008392334,26.3700008392334,16900
2019-07-12,26.3700008392334,26.420000076293945,26.360000610351562,26.399999618530273,26.399999618530273,56600
2019-07-15,26.399999618530273,26.420000076293945,26.32699966430664,26.40999984741211,26.40999984741211,27700
2019-07-16,26.40999984741211,26.5,26.358999252319336,26.5,26.5,25900
2019-07-17,26.3799991607666,26.68000030517578,26.3799991607666,26.65999984741211,26.65999984741211,47500
2019-07-18,26.690000534057617,26.760000228881836,26.604999542236328,26.760000228881836,26.760000228881836,64900
2019-07-19,26.760000228881836,26.760000228881836,26.584999084472656,26.670000076293945,26.670000076293945,103200
2019-07-22,26.68000030517578,26.729000091552734,26.579999923706055,26.639999389648438,26.639999389648438,47300
2019-07-23,26.760000228881836,26.760000228881836,26.54199981689453,26.6299991607666,26.6299991607666,85600
2019-07-24,26.670000076293945,26.75,26.60099983215332,26.68000030517578,26.68000030517578,159100
2019-07-25,26.780000686645508,26.780000686645508,26.59000015258789,26.6200008392334,26.6200008392334,36600
2019-07-26,26.6299991607666,26.649999618530273,26.520000457763672,26.6200008392334,26.6200008392334,41800
2019-07-29,26.68000030517578,26.68000030517578,26.559999465942383,26.649999618530273,26.649999618530273,174100
2019-07-30,26.690000534057617,26.739999771118164,26.638999938964844,26.65999984741211,26.65999984741211,164400
2019-07-31,26.719999313354492,26.850000381469727,26.670000076293945,26.790000915527344,26.790000915527344,239000
2019-08-01,26.799999237060547,26.93000030517578,26.65999984741211,26.889999389648438,26.889999389648438,31900
2019-08-02,26.90999984741211,27.200000762939453,26.83300018310547,27.1299991607666,27.1299991607666,50700
2019-08-05,27.09000015258789,27.09000015258789,26.790000915527344,26.889999389648438,26.889999389648438,30900
2019-08-06,26.969999313354492,27.010000228881836,26.8799991607666,26.899999618530273,26.899999618530273,33700
2019-08-07,26.969999313354492,26.969999313354492,26.670000076293945,26.683000564575195,26.683000564575195,30900
2019-08-08,26.84000015258789,26.899999618530273,26.649999618530273,26.799999237060547,26.799999237060547,30000
2019-08-09,26.81999969482422,27.030000686645508,26.81999969482422,26.940000534057617,26.940000534057617,35700
2019-08-12,26.940000534057617,27.09000015258789,26.860000610351562,27.0,27.0,29500
2019-08-13,27.030000686645508,27.200000762939453,26.983999252319336,27.190000534057617,27.190000534057617,20100
2019-08-14,27.149999618530273,27.520000457763672,27.149999618530273,27.520000457763672,27.520000457763672,52500
2019-08-15,27.56999969482422,27.809999465942383,27.3700008392334,27.59000015258789,27.59000015258789,56000
2019-08-16,27.639999389648438,27.760000228881836,27.48699951171875,27.649999618530273,27.649999618530273,48300
2019-08-19,27.739999771118164,27.739999771118164,27.31999969482422,27.559999465942383,27.559999465942383,80400
2019-08-20,27.6200008392334,27.68000030517578,27.489999771118164,27.56999969482422,27.56999969482422,45400
2019-08-21,27.68000030517578,27.68000030517578,27.530000686645508,27.649999618530273,27.649999618530273,34300
2019-08-22,27.649999618530273,27.799999237060547,27.649999618530273,27.780000686645508,27.780000686645508,35600
2019-08-23,27.780000686645508,27.889999389648438,27.68000030517578,27.790000915527344,27.790000915527344,35100
2019-08-26,27.799999237060547,27.920000076293945,27.66699981689453,27.780000686645508,27.780000686645508,40700
2019-08-27,27.780000686645508,27.84000015258789,27.649999618530273,27.799999237060547,27.799999237060547,79800
2019-08-28,27.799999237060547,27.799999237060547,27.663999557495117,27.709999084472656,27.709999084472656,79500
2019-08-29,27.75,27.850000381469727,27.670000076293945,27.850000381469727,27.850000381469727,51300
2019-08-30,27.8700008392334,27.920000076293945,27.75,27.920000076293945,27.920000076293945,204800
2019-09-03,27.850000381469727,27.93000030517578,27.84600067138672,27.899999618530273,27.899999618530273,43000
2019-09-04,27.950000762939453,27.950000762939453,27.81999969482422,27.920000076293945,27.920000076293945,43000
2019-09-05,27.940000534057617,27.950000762939453,27.759000778198242,27.760000228881836,27.760000228881836,44000
2019-09-06,27.760000228881836,27.90999984741211,27.760000228881836,27.889999389648438,27.889999389648438,29300
2019-09-09,27.90999984741211,27.910999298095703,27.687999725341797,27.75,27.75,43000
2019-09-10,27.809999465942383,27.809999465942383,27.600000381469727,27.68000030517578,27.68000030517578,34800
2019-09-11,27.639999389648438,27.639999389648438,27.239999771118164,27.43000030517578,27.43000030517578,45000
2019-09-12,27.540000915527344,27.65999984741211,27.360000610351562,27.440000534057617,27.440000534057617,44200
2019-09-13,27.489999771118164,27.489999771118164,26.850000381469727,26.969999313354492,26.969999313354492,67600
2019-09-16,27.170000076293945,27.280000686645508,27.01099967956543,27.165000915527344,27.165000915527344,14000
2019-09-17,27.260000228881836,27.3700008392334,27.204999923706055,27.34000015258789,27.34000015258789,23300
2019-09-18,27.280000686645508,27.489999771118164,27.149999618530273,27.450000762939453,27.450000762939453,50200
2019-09-19,27.520000457763672,27.670000076293945,27.43000030517578,27.479999542236328,27.479999542236328,57700
2019-09-20,27.579999923706055,27.600000381469727,27.490999221801758,27.549999237060547,27.549999237060547,44700
2019-09-23,27.6299991607666,27.68000030517578,27.5,27.56999969482422,27.56999969482422,49700
2019-09-24,27.600000381469727,27.70400047302246,27.510000228881836,27.579999923706055,27.579999923706055,34800
2019-09-25,27.639999389648438,27.770000457763672,27.5939998626709,27.729999542236328,27.729999542236328,32600
2019-09-26,27.790000915527344,27.969999313354492,27.663000106811523,27.969999313354492,27.969999313354492,26800
2019-09-27,27.969999313354492,28.290000915527344,27.950000762939453,28.200000762939453,28.200000762939453,76800
2019-09-30,27.90999984741211,28.15999984741211,27.514999389648438,27.899999618530273,27.899999618530273,300300
2019-10-01,27.899999618530273,27.899999618530273,27.709999084472656,27.729999542236328,27.729999542236328,61900
2019-10-02,27.780000686645508,27.780000686645508,27.358999252319336,27.6200008392334,27.6200008392334,24000
2019-10-03,27.709999084472656,27.753000259399414,27.469999313354492,27.540000915527344,27.540000915527344,40500
2019-10-04,27.6200008392334,27.81599998474121,27.541000366210938,27.68000030517578,27.68000030517578,20100
2019-10-07,27.600000381469727,27.790000915527344,27.590999603271484,27.780000686645508,27.780000686645508,22900
2019-10-08,27.65999984741211,27.75,27.472999572753906,27.600000381469727,27.600000381469727,18200
2019-10-09,27.780000686645508,27.799999237060547,27.63599967956543,27.65999984741211,27.65999984741211,28200
2019-10-10,27.739999771118164,27.78499984741211,27.559999465942383,27.69499969482422,27.69499969482422,22700
2019-10-11,27.700000762939453,27.709999084472656,27.559999465942383,27.709999084472656,27.709999084472656,23200
2019-10-14,27.709999084472656,27.735000610351562,27.610000610351562,27.670000076293945,27.670000076293945,50800
2019-10-15,27.739999771118164,27.799999237060547,27.638999938964844,27.65999984741211,27.65999984741211,22600
2019-10-16,27.690000534057617,27.799999237060547,27.610000610351562,27.770000457763672,27.770000457763672,46200
2019-10-17,27.829999923706055,27.920000076293945,27.700000762939453,27.760000228881836,27.760000228881836,33800
2019-10-18,27.899999618530273,27.920000076293945,27.59000015258789,27.600000381469727,27.600000381469727,35200
2019-10-21,27.600000381469727,27.709999084472656,27.56999969482422,27.709999084472656,27.709999084472656,24700
2019-10-22,27.709999084472656,27.861000061035156,27.700000762939453,27.81999969482422,27.81999969482422,51300
2019-10-23,27.8799991607666,28.059999465942383,27.77899932861328,27.84000015258789,27.84000015258789,55900
2019-10-24,27.90999984741211,27.959999084472656,27.760000228881836,27.81999969482422,27.81999969482422,37500
2019-10-25,27.889999389648438,27.899999618530273,27.68000030517578,27.860000610351562,27.860000610351562,37700
2019-10-28,27.899999618530273,27.899999618530273,27.530000686645508,27.829999923706055,27.829999923706055,146500
2019-10-29,27.729999542236328,27.785999298095703,27.489999771118164,27.530000686645508,27.530000686645508,30300
2019-10-30,27.600000381469727,27.649999618530273,27.399999618530273,27.540000915527344,27.540000915527344,54100
2019-10-31,27.540000915527344,27.649999618530273,27.190000534057617,27.459999084472656,27.459999084472656,289700
2019-11-01,27.459999084472656,27.489999771118164,27.290000915527344,27.350000381469727,27.350000381469727,37700
2019-11-04,27.43000030517578,27.43000030517578,27.292999267578125,27.399999618530273,27.399999618530273,25500
2019-11-05,27.329999923706055,27.40999984741211,27.200000762939453,27.34000015258789,27.34000015258789,43200
2019-11-06,27.360000610351562,27.451000213623047,27.170000076293945,27.170000076293945,27.170000076293945,48000
2019-11-07,27.110000610351562,27.110000610351562,26.93000030517578,26.989999771118164,26.989999771118164,29600
2019-11-08,26.989999771118164,27.280000686645508,26.93899917602539,27.239999771118164,27.239999771118164,22600
2019-11-11,27.239999771118164,27.389999389648438,27.1299991607666,27.25,27.25,27500
2019-11-12,27.290000915527344,27.3799991607666,27.184999465942383,27.350000381469727,27.350000381469727,37300
2019-11-13,27.389999389648438,27.5,27.290000915527344,27.399999618530273,27.399999618530273,29500
2019-11-14,27.5,27.549999237060547,27.329999923706055,27.459999084472656,27.459999084472656,43100
2019-11-15,27.559999465942383,27.670000076293945,27.420000076293945,27.639999389648438,27.639999389648438,23300
2019-11-18,27.628999710083008,27.700000762939453,27.520000457763672,27.549999237060547,27.549999237060547,49200
2019-11-19,27.6299991607666,27.639999389648438,27.420000076293945,27.56999969482422,27.56999969482422,35300
2019-11-20,27.59000015258789,27.6299991607666,27.270000457763672,27.3799991607666,27.3799991607666,46900
2019-11-21,27.469999313354492,27.5,27.350000381469727,27.433000564575195,27.433000564575195,25700
2019-11-22,27.520000457763672,27.559999465942383,27.260000228881836,27.309999465942383,27.309999465942383,49200
2019-11-25,27.420000076293945,27.420000076293945,27.18000030517578,27.219999313354492,27.219999313354492,27600
2019-11-26,27.260000228881836,27.323999404907227,27.18000030517578,27.219999313354492,27.219999313354492,46700
2019-11-27,27.219999313354492,27.365999221801758,27.040000915527344,27.079999923706055,27.079999923706055,55100
2019-11-29,27.139999389648438,27.139999389648438,26.8700008392334,26.950000762939453,26.950000762939453,104000
2019-12-02,26.959999084472656,26.959999084472656,26.549999237060547,26.770000457763672,26.770000457763672,36500
2019-12-03,26.75,26.75,26.579999923706055,26.59000015258789,26.59000015258789,33900
2019-12-04,26.670000076293945,26.77899932861328,26.610000610351562,26.639999389648438,26.639999389648438,32200
2019-12-05,26.719999313354492,26.739999771118164,26.549999237060547,26.6200008392334,26.6200008392334,36800
2019-12-06,26.6299991607666,26.739999771118164,26.510000228881836,26.670000076293945,26.670000076293945,26500
2019-12-09,26.700000762939453,26.72599983215332,26.579999923706055,26.670000076293945,26.670000076293945,39500
2019-12-10,26.670000076293945,26.739999771118164,26.520000457763672,26.709999084472656,26.709999084472656,28000
2019-12-11,26.719999313354492,26.93000030517578,26.65999984741211,26.920000076293945,26.920000076293945,40700
2019-12-12,26.969999313354492,26.979999542236328,26.75,26.969999313354492,26.969999313354492,56700
2019-12-13,26.979999542236328,27.09000015258789,26.959999084472656,27.049999237060547,27.049999237060547,44800
2019-12-16,27.110000610351562,27.149999618530273,27.010000228881836,27.100000381469727,27.100000381469727,32100
2019-12-17,27.149999618530273,27.290000915527344,26.96500015258789,27.290000915527344,27.290000915527344,26000
2019-12-18,27.25,27.382999420166016,27.18000030517578,27.3799991607666,27.3799991607666,31500
2019-12-19,27.399999618530273,27.459999084472656,27.280000686645508,27.440000534057617,27.440000534057617,21700
2019-12-20,27.459999084472656,27.610000610351562,27.3799991607666,27.559999465942383,27.559999465942383,24700
2019-12-23,27.600000381469727,27.889999389648438,27.5,27.889999389648438,27.889999389648438,29700
2019-12-24,27.940000534057617,27.969999313354492,27.875,27.969999313354492,27.969999313354492,19300
2019-12-26,27.989999771118164,28.329999923706055,27.850000381469727,28.329999923706055,28.329999923706055,27000
2019-12-27,28.149999618530273,28.299999237060547,28.010000228881836,28.190000534057617,28.190000534057617,41800
2019-12-30,27.920000076293945,27.920000076293945,27.610000610351562,27.84000015258789,27.84000015258789,15300
2019-12-31,27.850000381469727,27.850000381469727,27.559999465942383,27.579999923706055,27.579999923706055,41300
2020-01-02,27.600000381469727,27.850000381469727,27.5,27.700000762939453,27.700000762939453,76200
2020-01-03,27.700000762939453,27.739999771118164,27.639999389648438,27.68000030517578,27.68000030517578,63800
2020-01-06,27.68000030517578,27.780000686645508,27.540000915527344,27.540000915527344,27.540000915527344,49300
2020-01-07,27.59000015258789,27.59000015258789,27.3700008392334,27.389999389648438,27.389999389648438,107700
2020-01-08,27.469999313354492,27.639999389648438,27.420000076293945,27.420000076293945,27.420000076293945,46600
2020-01-09,27.579999923706055,27.65999984741211,27.408000946044922,27.559999465942383,27.559999465942383,19500
2020-01-10,27.559999465942383,27.660999298095703,27.459999084472656,27.645999908447266,27.645999908447266,31300
2020-01-13,27.649999618530273,27.68000030517578,27.593000411987305,27.68000030517578,27.68000030517578,39100
2020-01-14,27.68000030517578,27.68000030517578,27.57699966430664,27.670000076293945,27.670000076293945,39200
2020-01-15,27.68000030517578,27.75,27.530000686645508,27.639999389648438,27.639999389648438,40800
2020-01-16,27.649999618530273,27.649999618530273,27.510000228881836,27.584999084472656,27.584999084472656,33500
2020-01-17,27.600000381469727,27.65999984741211,27.579999923706055,27.645000457763672,27.645000457763672,24100
2020-01-21,27.690000534057617,27.690000534057617,27.608999252319336,27.68000030517578,27.68000030517578,28200
2020-01-22,27.690000534057617,27.690000534057617,27.610000610351562,27.645000457763672,27.645000457763672,26700
2020-01-23,27.709999084472656,27.709999084472656,27.600000381469727,27.68000030517578,27.68000030517578,30200
2020-01-24,27.690000534057617,27.709999084472656,27.479999542236328,27.639999389648438,27.639999389648438,17900
2020-01-27,27.6299991607666,27.6299991607666,27.399999618530273,27.530000686645508,27.530000686645508,46000
2020-01-28,27.59000015258789,27.59000015258789,27.040000915527344,27.149999618530273,27.149999618530273,136600
2020-01-29,27.209999084472656,27.259000778198242,27.09000015258789,27.200000762939453,27.200000762939453,38400
2020-01-30,27.239999771118164,27.358999252319336,27.110000610351562,27.274999618530273,27.274999618530273,35100
2020-01-31,27.350000381469727,27.402000427246094,27.18000030517578,27.209999084472656,27.209999084472656,66000
2020-02-03,27.280000686645508,27.389999389648438,27.209999084472656,27.309999465942383,27.309999465942383,52700
2020-02-04,27.3700008392334,27.440000534057617,27.347000122070312,27.42099952697754,27.42099952697754,30300
2020-02-05,27.440000534057617,27.51799964904785,27.229999542236328,27.280000686645508,27.280000686645508,111400
2020-02-06,27.290000915527344,27.360000610351562,27.239999771118164,27.360000610351562,27.360000610351562,23700
2020-02-07,27.389999389648438,27.639999389648438,27.360000610351562,27.6299991607666,27.6299991607666,35100
2020-02-10,27.639999389648438,27.719999313354492,27.4689998626709,27.68000030517578,27.68000030517578,27800
2020-02-11,27.739999771118164,27.860000610351562,27.530000686645508,27.530000686645508,27.530000686645508,59200
2020-02-12,27.739999771118164,27.739999771118164,27.399999618530273,27.399999618530273,27.399999618530273,41800
2020-02-13,27.469999313354492,27.479000091552734,27.31999969482422,27.34000015258789,27.34000015258789,35600
2020-02-14,27.350000381469727,27.459999084472656,27.299999237060547,27.299999237060547,27.299999237060547,64900
2020-02-18,27.299999237060547,27.440000534057617,27.299999237060547,27.350000381469727,27.350000381469727,20700
2020-02-19,27.43000030517578,27.43000030517578,27.170000076293945,27.170000076293945,27.170000076293945,42400
2020-02-20,27.360000610351562,27.43000030517578,27.21500015258789,27.43000030517578,27.43000030517578,42000
2020-02-21,27.43000030517578,27.43000030517578,27.260000228881836,27.260000228881836,27.260000228881836,26600
2020-02-24,27.15999984741211,27.229999542236328,26.719999313354492,26.719999313354492,26.719999313354492,46400
2020-02-25,26.93000030517578,26.93000030517578,26.540000915527344,26.559999465942383,26.559999465942383,95300
2020-02-26,26.809999465942383,26.809999465942383,26.459999084472656,26.510000228881836,26.510000228881836,62600
2020-02-27,26.520000457763672,26.542999267578125,26.1299991607666,26.15999984741211,26.15999984741211,55900
2020-02-28,26.06999969482422,26.06999969482422,25.299999237060547,25.360000610351562,25.360000610351562,142400
2020-03-02,25.600000381469727,25.989999771118164,25.600000381469727,25.93000030517578,25.93000030517578,78200
2020-03-03,26.06999969482422,26.639999389648438,25.829999923706055,26.142000198364258,26.142000198364258,39800
2020-03-04,26.360000610351562,26.549999237060547,26.25,26.549999237060547,26.549999237060547,28500
2020-03-05,26.3799991607666,26.65999984741211,26.295000076293945,26.5,26.5,49800
2020-03-06,26.209999084472656,26.389999389648438,25.823999404907227,25.93000030517578,25.93000030517578,165000
2020-03-09,25.329999923706055,25.454999923706055,23.139999389648438,23.309999465942383,23.309999465942383,127600
2020-03-10,23.75,24.0,23.5,23.5,23.5,121000
2020-03-11,23.489999771118164,23.5,22.604999542236328,22.770000457763672,22.770000457763672,78700
2020-03-12,20.06999969482422,20.445999145507812,18.020000457763672,18.860000610351562,18.860000610351562,125800
2020-03-13,19.559999465942383,20.559999465942383,19.0,20.350000381469727,20.350000381469727,98600
2020-03-16,18.68000030517578,20.190000534057617,18.190000534057617,18.809999465942383,18.809999465942383,84900
2020-03-17,18.850000381469727,18.850000381469727,18.299999237060547,18.309999465942383,18.309999465942383,116000
2020-03-18,17.010000228881836,18.020000457763672,15.359999656677246,15.449999809265137,15.449999809265137,154000
2020-03-19,14.0,16.868000030517578,13.130000114440918,15.9399995803833,15.9399995803833,151900
2020-03-20,16.329999923706055,18.989999771118164,16.329999923706055,16.760000228881836,16.760000228881836,99500
2020-03-23,16.479999542236328,16.535999298095703,14.489999771118164,15.0,15.0,101800
2020-03-24,16.0,17.290000915527344,16.0,16.719999313354492,16.719999313354492,81100
2020-03-25,16.979999542236328,18.75,16.8799991607666,18.040000915527344,18.040000915527344,98000
2020-03-26,18.25,19.950000762939453,18.25,19.899999618530273,19.899999618530273,101000
2020-03-27,19.5,20.700000762939453,18.6200008392334,19.280000686645508,19.280000686645508,107800
2020-03-30,19.299999237060547,19.860000610351562,18.0,19.549999237060547,19.549999237060547,72900
2020-03-31,19.010000228881836,19.59000015258789,18.20199966430664,18.25,18.25,100000
2020-04-01,18.0,18.25,16.809999465942383,17.040000915527344,17.040000915527344,98800
2020-04-02,17.040000915527344,18.219999313354492,16.600000381469727,17.8700008392334,17.8700008392334,172300
2020-04-03,17.899999618530273,18.101999282836914,17.31999969482422,17.989999771118164,17.989999771118164,41900
2020-04-06,18.200000762939453,19.0,18.010000228881836,18.899999618530273,18.899999618530273,81800
2020-04-07,19.030000686645508,20.190000534057617,19.030000686645508,20.190000534057617,20.190000534057617,213900
2020-04-08,20.459999084472656,22.75,20.150999069213867,22.389999389648438,22.389999389648438,137600
2020-04-09,23.0,24.440000534057617,23.0,23.85099983215332,23.85099983215332,111200
2020-04-13,23.799999237060547,23.799999237060547,22.719999313354492,23.649999618530273,23.649999618530273,50800
2020-04-14,23.90999984741211,24.68000030517578,23.8700008392334,24.299999237060547,24.299999237060547,84300
2020-04-15,23.770000457763672,24.5,22.878999710083008,24.3700008392334,24.3700008392334,87600
2020-04-16,24.479999542236328,24.5,23.520000457763672,24.020000457763672,24.020000457763672,82800
2020-04-17,24.5,24.5,23.649999618530273,23.75,23.75,130700
2020-04-20,22.790000915527344,23.5,22.790000915527344,23.139999389648438,23.139999389648438,194900
2020-04-21,22.75,23.110000610351562,21.979999542236328,22.0,22.0,94800
2020-04-22,22.479999542236328,23.389999389648438,22.0,22.5,22.5,75700
2020-04-23,22.8700008392334,23.489999771118164,22.260000228881836,23.489999771118164,23.489999771118164,58300
2020-04-24,23.579999923706055,23.600000381469727,23.049999237060547,23.5,23.5,48500
2020-04-27,23.829999923706055,23.989999771118164,23.149999618530273,23.540000915527344,23.540000915527344,62100
2020-04-28,23.780000686645508,23.780000686645508,22.945999145507812,23.149999618530273,23.149999618530273,125300
2020-04-29,23.34000015258789,23.799999237060547,23.010000228881836,23.600000381469727,23.600000381469727,224200
2020-04-30,23.81999969482422,23.950000762939453,23.34000015258789,23.510000228881836,23.510000228881836,118600
2020-05-01,23.510000228881836,23.510000228881836,22.81999969482422,23.100000381469727,23.100000381469727,43300
2020-05-04,23.190000534057617,23.28499984741211,22.75,22.799999237060547,22.799999237060547,56800
2020-05-05,23.079999923706055,23.34000015258789,22.760000228881836,22.790000915527344,22.790000915527344,100800
2020-05-06,22.860000610351562,23.049999237060547,22.540000915527344,22.940000534057617,22.940000534057617,93700
2020-05-07,23.049999237060547,23.239999771118164,22.81999969482422,22.940000534057617,22.940000534057617,73600
2020-05-08,23.100000381469727,23.649999618530273,23.100000381469727,23.399999618530273,23.399999618530273,63900
2020-05-11,23.510000228881836,23.649999618530273,23.200000762939453,23.399999618530273,23.399999618530273,44100
2020-05-12,23.440000534057617,24.139999389648438,23.40999984741211,23.700000762939453,23.700000762939453,220100
2020-05-13,23.8700008392334,23.8700008392334,23.219999313354492,23.389999389648438,23.389999389648438,49200
2020-05-14,23.219999313354492,23.299999237060547,22.75,23.219999313354492,23.219999313354492,46900
2020-05-15,23.110000610351562,23.479999542236328,23.110000610351562,23.43000030517578,23.43000030517578,30300
2020-05-18,23.6299991607666,23.8700008392334,23.43000030517578,23.549999237060547,23.549999237060547,98600
2020-05-19,23.700000762939453,24.139999389648438,23.56999969482422,23.90999984741211,23.90999984741211,69700
2020-05-20,24.149999618530273,24.34000015258789,23.799999237060547,24.34000015258789,24.34000015258789,59200
2020-05-21,24.280000686645508,24.440000534057617,23.799999237060547,23.899999618530273,23.899999618530273,119200
2020-05-22,24.079999923706055,24.200000762939453,23.8439998626709,23.899999618530273,23.899999618530273,46100
2020-05-26,24.149999618530273,24.173999786376953,23.69700050354004,23.770000457763672,23.770000457763672,43600
2020-05-27,23.940000534057617,24.170000076293945,23.808000564575195,24.149999618530273,24.149999618530273,35900
2020-05-28,24.350000381469727,24.43000030517578,24.079999923706055,24.239999771118164,24.239999771118164,84000
2020-05-29,24.260000228881836,24.350000381469727,24.209999084472656,24.25,24.25,90200
2020-06-01,24.200000762939453,24.440000534057617,24.100000381469727,24.209999084472656,24.209999084472656,31700
2020-06-02,24.25,24.40999984741211,24.25,24.3799991607666,24.3799991607666,61500
2020-06-03,24.459999084472656,24.479999542236328,24.260000228881836,24.360000610351562,24.360000610351562,50400
2020-06-04,24.329999923706055,24.75,24.329999923706055,24.729999542236328,24.729999542236328,96300
2020-06-05,24.93000030517578,25.43000030517578,24.56999969482422,25.190000534057617,25.190000534057617,64800
2020-06-08,25.190000534057617,25.3700008392334,25.031999588012695,25.139999389648438,25.139999389648438,59500
2020-06-09,25.100000381469727,25.309999465942383,25.0,25.290000915527344,25.290000915527344,21900
2020-06-10,25.280000686645508,25.280000686645508,24.799999237060547,24.969999313354492,24.969999313354492,70700
2020-06-11,24.649999618530273,24.767000198364258,23.75,23.940000534057617,23.940000534057617,49900
2020-06-12,24.329999923706055,24.510000228881836,24.079999923706055,24.229999542236328,24.229999542236328,56300
2020-06-15,23.760000228881836,24.139999389648438,23.700000762939453,24.040000915527344,24.040000915527344,75700
2020-06-16,24.440000534057617,24.670000076293945,24.260000228881836,24.670000076293945,24.670000076293945,29700
2020-06-17,24.790000915527344,24.829999923706055,24.5,24.700000762939453,24.700000762939453,35100
2020-06-18,24.75,24.790000915527344,24.600000381469727,24.790000915527344,24.790000915527344,19900
2020-06-19,24.93000030517578,24.989999771118164,24.63599967956543,24.84000015258789,24.84000015258789,38700
2020-06-22,24.889999389648438,24.889999389648438,24.46500015258789,24.6200008392334,24.6200008392334,39700
2020-06-23,24.8700008392334,24.899999618530273,24.6299991607666,24.809999465942383,24.809999465942383,18800
2020-06-24,24.799999237060547,24.84000015258789,24.600000381469727,24.670000076293945,24.670000076293945,39000
2020-06-25,24.75,24.8700008392334,24.510000228881836,24.530000686645508,24.530000686645508,27500
2020-06-26,24.670000076293945,24.690000534057617,24.299999237060547,24.559999465942383,24.559999465942383,31900
2020-06-29,24.68000030517578,24.829999923706055,24.389999389648438,24.75,24.75,39500
2020-06-30,24.510000228881836,24.639999389648438,24.110000610351562,24.299999237060547,24.299999237060547,185200
2020-07-01,24.360000610351562,24.670000076293945,24.229999542236328,24.610000610351562,24.610000610351562,26700
2020-07-02,24.579999923706055,24.790000915527344,24.569000244140625,24.729999542236328,24.729999542236328,39600
2020-07-06,24.719999313354492,24.889999389648438,24.492000579833984,24.59000015258789,24.59000015258789,32600
2020-07-07,24.639999389648438,24.639999389648438,24.40999984741211,24.489999771118164,24.489999771118164,38500
2020-07-08,24.65999984741211,24.65999984741211,24.170000076293945,24.219999313354492,24.219999313354492,64000
2020-07-09,24.34000015258789,24.600000381469727,24.222999572753906,24.479999542236328,24.479999542236328,39700
2020-07-10,24.600000381469727,24.690000534057617,24.354999542236328,24.469999313354492,24.469999313354492,35000
2020-07-13,24.649999618530273,24.649999618530273,24.309999465942383,24.350000381469727,24.350000381469727,36500
2020-07-14,24.43000030517578,24.559999465942383,24.260000228881836,24.3799991607666,24.3799991607666,48800
2020-07-15,24.399999618530273,24.5,24.25,24.399999618530273,24.399999618530273,40400
2020-07-16,24.459999084472656,24.739999771118164,24.450000762939453,24.540000915527344,24.540000915527344,42300
2020-07-17,24.479999542236328,24.649999618530273,24.360000610351562,24.520000457763672,24.520000457763672,36600
2020-07-20,24.6299991607666,24.649999618530273,24.450000762939453,24.520000457763672,24.520000457763672,24800
2020-07-21,24.40999984741211,24.520000457763672,24.360000610351562,24.489999771118164,24.489999771118164,38700
2020-07-22,24.489999771118164,24.549999237060547,24.424999237060547,24.5,24.5,48700
2020-07-23,24.59000015258789,24.6299991607666,24.450000762939453,24.579999923706055,24.579999923706055,63900
2020-07-24,24.639999389648438,24.65999984741211,24.395000457763672,24.6200008392334,24.6200008392334,22000
2020-07-27,24.6299991607666,24.700000762939453,24.469999313354492,24.540000915527344,24.540000915527344,70600
2020-07-28,24.530000686645508,24.684999465942383,24.31999969482422,24.59000015258789,24.59000015258789,32600
2020-07-29,24.729999542236328,24.809999465942383,24.704999923706055,24.799999237060547,24.799999237060547,82100
2020-07-30,24.799999237060547,24.8700008392334,24.739999771118164,24.829999923706055,24.829999923706055,57600
2020-07-31,24.8700008392334,24.940000534057617,24.68199920654297,24.899999618530273,24.899999618530273,66100
2020-08-03,24.920000076293945,25.0,24.899999618530273,24.924999237060547,24.924999237060547,55300
2020-08-04,25.0,25.049999237060547,24.795000076293945,24.889999389648438,24.889999389648438,37600
2020-08-05,24.959999084472656,25.05699920654297,24.540000915527344,24.764999389648438,24.764999389648438,39500
2020-08-06,24.860000610351562,24.881000518798828,24.700000762939453,24.8700008392334,24.8700008392334,29000
2020-08-07,24.770000457763672,24.895000457763672,24.649999618530273,24.860000610351562,24.860000610351562,43100
2020-08-10,24.860000610351562,24.979999542236328,24.799999237060547,24.940000534057617,24.940000534057617,60800
2020-08-11,24.979999542236328,25.09000015258789,24.895000457763672,24.940000534057617,24.940000534057617,81000
2020-08-12,24.950000762939453,25.0,24.82200050354004,24.969999313354492,24.969999313354492,61600
2020-08-13,25.0,25.0,24.899999618530273,24.93000030517578,24.93000030517578,50700
2020-08-14,24.979999542236328,25.100000381469727,24.950000762939453,25.0,25.0,44500
2020-08-17,25.09000015258789,25.09000015258789,24.899999618530273,25.0,25.0,46500
2020-08-18,25.020000457763672,25.299999237060547,24.92099952697754,25.100000381469727,25.100000381469727,89900
2020-08-19,25.149999618530273,25.219999313354492,25.010000228881836,25.100000381469727,25.100000381469727,65300
2020-08-20,25.079999923706055,25.229999542236328,25.0,25.049999237060547,25.049999237060547,55300
2020-08-21,25.079999923706055,25.190000534057617,25.0,25.040000915527344,25.040000915527344,52400
2020-08-24,25.139999389648438,25.18000030517578,25.0,25.040000915527344,25.040000915527344,64400
2020-08-25,25.040000915527344,25.149999618530273,24.950000762939453,25.139999389648438,25.139999389648438,1050500
2020-08-26,25.170000076293945,25.770000457763672,25.170000076293945,25.770000457763672,25.770000457763672,90400
2020-08-27,25.770000457763672,25.920000076293945,25.58099937438965,25.690000534057617,25.690000534057617,65800
2020-08-28,25.829999923706055,25.940000534057617,25.459999084472656,25.639999389648438,25.639999389648438,69300
2020-08-31,25.719999313354492,25.829999923706055,25.61400032043457,25.81999969482422,25.81999969482422,65200
2020-09-01,25.81999969482422,25.920000076293945,25.649999618530273,25.75,25.75,45100
2020-09-02,25.770000457763672,25.790000915527344,25.65999984741211,25.68000030517578,25.68000030517578,39100
2020-09-03,25.770000457763672,25.790000915527344,25.559999465942383,25.600000381469727,25.600000381469727,50200
2020-09-04,25.690000534057617,25.700000762939453,25.25,25.600000381469727,25.600000381469727,39800
2020-09-08,25.600000381469727,25.6299991607666,25.389999389648438,25.549999237060547,25.549999237060547,28500
2020-09-09,25.610000610351562,25.940000534057617,25.559999465942383,25.799999237060547,25.799999237060547,42100
2020-09-10,25.920000076293945,25.950000762939453,25.6200008392334,25.670000076293945,25.670000076293945,37700
2020-09-11,25.790000915527344,25.799999237060547,25.600000381469727,25.649999618530273,25.649999618530273,21100
2020-09-14,25.84000015258789,26.086999893188477,25.7450008392334,26.049999237060547,26.049999237060547,36800
2020-09-15,26.09000015258789,26.34000015258789,26.06100082397461,26.200000762939453,26.200000762939453,36000
2020-09-16,26.34000015258789,26.34000015258789,26.0,26.09000015258789,26.09000015258789,42800
2020-09-17,26.09000015258789,26.200000762939453,25.674999237060547,25.809999465942383,25.809999465942383,40200
2020-09-18,25.979999542236328,26.18000030517578,25.770000457763672,25.950000762939453,25.950000762939453,28200
2020-09-21,25.920000076293945,25.920000076293945,25.700000762939453,25.850000381469727,25.850000381469727,35300
2020-09-22,25.899999618530273,26.0,25.709999084472656,25.770000457763672,25.770000457763672,52000
2020-09-23,25.8799991607666,25.8799991607666,25.079999923706055,25.1200008392334,25.1200008392334,93000
2020-09-24,25.209999084472656,25.31999969482422,24.780000686645508,25.059999465942383,25.059999465942383,93100
2020-09-25,25.18000030517578,25.959999084472656,25.114999771118164,25.850000381469727,25.850000381469727,49500
2020-09-28,26.030000686645508,26.09000015258789,25.850000381469727,25.8700008392334,25.8700008392334,83500
2020-09-29,25.8700008392334,25.979999542236328,25.40999984741211,25.520000457763672,25.520000457763672,59600
2020-09-30,25.649999618530273,25.709999084472656,25.149999618530273,25.200000762939453,25.200000762939453,136100
2020-10-01,25.299999237060547,25.49799919128418,25.1200008392334,25.25,25.25,100900
2020-10-02,25.030000686645508,25.200000762939453,24.850000381469727,25.18000030517578,25.18000030517578,106800
2020-10-05,25.209999084472656,25.34000015258789,25.170000076293945,25.34000015258789,25.34000015258789,66100
2020-10-06,25.399999618530273,25.530000686645508,25.299999237060547,25.399999618530273,25.399999618530273,69400
2020-10-07,25.520000457763672,25.6299991607666,25.450000762939453,25.549999237060547,25.549999237060547,87200
2020-10-08,25.639999389648438,25.639999389648438,25.420000076293945,25.540000915527344,25.540000915527344,36100
2020-10-09,25.649999618530273,25.759000778198242,25.40999984741211,25.450000762939453,25.450000762939453,38000
2020-10-12,25.43000030517578,25.56599998474121,25.299999237060547,25.549999237060547,25.549999237060547,36800
2020-10-13,25.540000915527344,25.615999221801758,25.469999313354492,25.549999237060547,25.549999237060547,45100
2020-10-14,25.59000015258789,25.600000381469727,25.4950008392334,25.540000915527344,25.540000915527344,24900
2020-10-15,25.540000915527344,25.59000015258789,25.389999389648438,25.389999389648438,25.389999389648438,39600
2020-10-16,25.520000457763672,25.534000396728516,25.388999938964844,25.389999389648438,25.389999389648438,27700
2020-10-19,25.540000915527344,25.6200008392334,25.420000076293945,25.549999237060547,25.549999237060547,62900
2020-10-20,25.56999969482422,25.649999618530273,25.5,25.600000381469727,25.600000381469727,90400
2020-10-21,25.6299991607666,25.6299991607666,25.43000030517578,25.479999542236328,25.479999542236328,57200
2020-10-22,25.549999237060547,25.639999389648438,25.437000274658203,25.600000381469727,25.600000381469727,50400
2020-10-23,25.540000915527344,25.729999542236328,25.520000457763672,25.600000381469727,25.600000381469727,49100
2020-10-26,25.520000457763672,25.600000381469727,25.450000762939453,25.600000381469727,25.600000381469727,35600
2020-10-27,25.65999984741211,25.670000076293945,25.450000762939453,25.600000381469727,25.600000381469727,46600
2020-10-28,25.530000686645508,25.610000610351562,25.239999771118164,25.239999771118164,25.239999771118164,47400
2020-10-29,25.3700008392334,25.440000534057617,25.219999313354492,25.260000228881836,25.260000228881836,28100
2020-10-30,25.34000015258789,25.559999465942383,25.250999450683594,25.520000457763672,25.520000457763672,92500
2020-11-02,25.59000015258789,25.6299991607666,25.290000915527344,25.389999389648438,25.389999389648438,63600
2020-11-03,25.40999984741211,25.600000381469727,25.40999984741211,25.450000762939453,25.450000762939453,27400
2020-11-04,25.479999542236328,25.65999984741211,25.479999542236328,25.639999389648438,25.639999389648438,38200
2020-11-05,25.649999618530273,25.899999618530273,25.618999481201172,25.850000381469727,25.850000381469727,85600
2020-11-06,25.770000457763672,25.899999618530273,25.559999465942383,25.6200008392334,25.6200008392334,31800
2020-11-09,25.860000610351562,26.024999618530273,25.850000381469727,26.0,26.0,51000
2020-11-10,26.030000686645508,26.149999618530273,25.84000015258789,26.100000381469727,26.100000381469727,40400
2020-11-11,26.1200008392334,26.21500015258789,25.99799919128418,26.190000534057617,26.190000534057617,18900
2020-11-12,26.239999771118164,26.239999771118164,25.860000610351562,25.950000762939453,25.950000762939453,45100
2020-11-13,25.979999542236328,26.1200008392334,25.889999389648438,25.959999084472656,25.959999084472656,32000
2020-11-16,26.0,26.200000762939453,26.0,26.139999389648438,26.139999389648438,82100
2020-11-17,26.18000030517578,26.309999465942383,25.899999618530273,26.309999465942383,26.309999465942383,32800
2020-11-18,26.31999969482422,26.440000534057617,26.15999984741211,26.229999542236328,26.229999542236328,57100
2020-11-19,26.299999237060547,26.3799991607666,26.18000030517578,26.299999237060547,26.299999237060547,33400
2020-11-20,26.389999389648438,26.43000030517578,26.25,26.280000686645508,26.280000686645508,48900
2020-11-23,26.3700008392334,26.399999618530273,26.315000534057617,26.360000610351562,26.360000610351562,27800
2020-11-24,26.559999465942383,26.68000030517578,26.350000381469727,26.450000762939453,26.450000762939453,49300
2020-11-25,26.540000915527344,26.600000381469727,26.299999237060547,26.389999389648438,26.389999389648438,22900
2020-11-27,26.489999771118164,26.770000457763672,26.489999771118164,26.56999969482422,26.56999969482422,16100
2020-11-30,26.670000076293945,26.81999969482422,26.530000686645508,26.56999969482422,26.56999969482422,76000
2020-12-01,26.700000762939453,26.729999542236328,26.514999389648438,26.649999618530273,26.649999618530273,22300
2020-12-02,26.600000381469727,26.600000381469727,26.540000915527344,26.540000915527344,26.540000915527344,24000
2020-12-03,26.59000015258789,26.600000381469727,26.43000030517578,26.540000915527344,26.540000915527344,21200
2020-12-04,26.56999969482422,26.59000015258789,26.52400016784668,26.540000915527344,26.540000915527344,29500
2020-12-07,26.600000381469727,26.649999618530273,26.5,26.600000381469727,26.600000381469727,22900
2020-12-08,26.639999389648438,26.700000762939453,26.6200008392334,26.649999618530273,26.649999618530273,34000
2020-12-09,26.719999313354492,26.8700008392334,26.530000686645508,26.700000762939453,26.700000762939453,44100
2020-12-10,26.6299991607666,26.78700065612793,26.56999969482422,26.68000030517578,26.68000030517578,23500
2020-12-11,26.700000762939453,26.82699966430664,26.61199951171875,26.719999313354492,26.719999313354492,58500
2020-12-14,26.809999465942383,26.860000610351562,26.75,26.84000015258789,26.84000015258789,64700
2020-12-15,26.93000030517578,27.209999084472656,26.910999298095703,27.100000381469727,27.100000381469727,80800
2020-12-16,27.149999618530273,27.200000762939453,27.09000015258789,27.149999618530273,27.149999618530273,44300
2020-12-17,27.229999542236328,27.229999542236328,26.87700080871582,27.010000228881836,27.010000228881836,41100
2020-12-18,27.020000457763672,27.190000534057617,26.889999389648438,27.040000915527344,27.040000915527344,29000
2020-12-21,26.989999771118164,27.079999923706055,26.799999237060547,26.93000030517578,26.93000030517578,42000
2020-12-22,27.020000457763672,27.155000686645508,26.860000610351562,26.920000076293945,26.920000076293945,48300
2020-12-23,27.0,27.190000534057617,26.8700008392334,27.155000686645508,27.155000686645508,31500
2020-12-24,27.239999771118164,27.280000686645508,27.030000686645508,27.149999618530273,27.149999618530273,26600
2020-12-28,27.360000610351562,27.375,26.899999618530273,26.959999084472656,26.959999084472656,45400
2020-12-29,27.030000686645508,27.219999313354492,26.579999923706055,26.68000030517578,26.68000030517578,87100
2020-12-30,26.440000534057617,26.510000228881836,26.40999984741211,26.489999771118164,26.489999771118164,34000
