Date,Open,High,Low,Close,Adj Close,Volume
2018-10-12,14.350000381469727,14.949999809265137,13.760000228881836,14.0,14.0,913200
2018-10-15,14.0,14.180000305175781,14.0,14.0,14.0,47200
2018-10-16,13.819999694824219,14.199999809265137,13.819999694824219,14.0,14.0,29600
2018-10-17,14.0,14.149999618530273,13.899999618530273,14.0,14.0,11300
2018-10-18,14.0,14.0,13.029999732971191,13.920000076293945,13.920000076293945,59200
2018-10-19,13.949999809265137,14.4399995803833,13.800000190734863,14.0,14.0,117200
2018-10-22,13.989999771118164,14.529999732971191,13.989999771118164,14.3100004196167,14.3100004196167,13800
2018-10-23,13.289999961853027,13.960000038146973,9.210000038146973,13.850000381469727,13.850000381469727,39200
2018-10-24,13.930000305175781,14.0,13.920000076293945,13.989999771118164,13.989999771118164,23100
2018-10-25,14.079999923706055,14.970000267028809,13.010000228881836,14.970000267028809,14.970000267028809,153300
2018-10-26,13.859999656677246,15.369999885559082,13.859999656677246,14.850000381469727,14.850000381469727,8800
2018-10-29,15.010000228881836,15.010000228881836,14.260000228881836,14.470000267028809,14.470000267028809,5100
2018-10-30,14.479999542236328,14.640000343322754,13.65999984741211,14.319999694824219,14.319999694824219,12700
2018-10-31,14.319999694824219,14.90999984741211,13.880000114440918,14.0,14.0,14400
2018-11-01,14.229999542236328,15.050000190734863,11.75,14.979999542236328,14.979999542236328,11800
2018-11-02,14.970000267028809,15.399999618530273,13.470000267028809,15.039999961853027,15.039999961853027,6300
2018-11-05,15.390000343322754,16.34000015258789,12.829999923706055,16.34000015258789,16.34000015258789,3100
2018-11-06,15.109999656677246,18.5,15.109999656677246,16.979999542236328,16.979999542236328,34200
2018-11-07,16.959999084472656,19.270000457763672,16.959999084472656,17.100000381469727,17.100000381469727,48800
2018-11-08,16.899999618530273,18.0,16.350000381469727,16.989999771118164,16.989999771118164,66800
2018-11-09,16.770000457763672,16.989999771118164,15.069999694824219,16.5,16.5,8400
2018-11-12,16.479999542236328,16.479999542236328,14.1899995803833,15.600000381469727,15.600000381469727,13500
2018-11-13,15.390000343322754,16.360000610351562,14.09000015258789,15.550000190734863,15.550000190734863,10800
2018-11-14,15.539999961853027,16.309999465942383,14.239999771118164,15.890000343322754,15.890000343322754,6800
2018-11-15,12.600000381469727,16.190000534057617,12.600000381469727,15.850000381469727,15.850000381469727,48100
2018-11-16,14.319999694824219,18.290000915527344,13.5,16.899999618530273,16.899999618530273,78000
2018-11-19,16.889999389648438,16.889999389648438,14.880000114440918,14.880000114440918,14.880000114440918,34100
2018-11-20,14.8100004196167,14.850000381469727,14.020000457763672,14.5,14.5,19500
2018-11-21,14.119999885559082,16.0,14.119999885559082,14.600000381469727,14.600000381469727,20600
2018-11-23,14.579999923706055,19.690000534057617,14.579999923706055,19.440000534057617,19.440000534057617,18700
2018-11-26,19.3700008392334,19.3700008392334,16.5,16.670000076293945,16.670000076293945,39600
2018-11-27,16.639999389648438,17.0,15.949999809265137,16.469999313354492,16.469999313354492,19700
2018-11-28,16.170000076293945,16.170000076293945,14.90999984741211,15.579999923706055,15.579999923706055,17500
2018-11-29,15.59000015258789,16.0,14.899999618530273,14.899999618530273,14.899999618530273,29000
2018-11-30,14.75,17.299999237060547,14.75,16.399999618530273,16.399999618530273,36700
2018-12-03,16.729999542236328,17.5,15.619999885559082,16.200000762939453,16.200000762939453,30700
2018-12-04,16.290000915527344,16.399999618530273,15.25,15.899999618530273,15.899999618530273,40500
2018-12-06,15.550000190734863,16.399999618530273,13.920000076293945,14.40999984741211,14.40999984741211,21700
2018-12-07,14.40999984741211,15.40999984741211,12.510000228881836,15.279999732971191,15.279999732971191,41900
2018-12-10,15.079999923706055,15.25,12.760000228881836,14.079999923706055,14.079999923706055,19000
2018-12-11,14.34000015258789,15.5,13.609999656677246,14.390000343322754,14.390000343322754,13900
2018-12-12,14.40999984741211,14.40999984741211,13.029999732971191,13.300000190734863,13.300000190734863,11200
2018-12-13,13.930000305175781,13.930000305175781,11.399999618530273,12.369999885559082,12.369999885559082,20500
2018-12-14,12.0,13.199999809265137,11.260000228881836,12.0,12.0,24100
2018-12-17,11.880000114440918,12.149999618530273,10.199999809265137,10.75,10.75,34500
2018-12-18,11.0,12.09000015258789,11.0,11.039999961853027,11.039999961853027,49300
2018-12-19,11.039999961853027,12.050000190734863,9.619999885559082,9.890000343322754,9.890000343322754,55700
2018-12-20,9.989999771118164,10.039999961853027,5.840000152587891,6.320000171661377,6.320000171661377,134100
2018-12-21,6.409999847412109,8.399999618530273,5.5,7.75,7.75,551000
2018-12-24,7.590000152587891,9.399999618530273,7.170000076293945,9.0,9.0,19700
2018-12-26,8.960000038146973,9.5,7.920000076293945,8.460000038146973,8.460000038146973,73900
2018-12-27,8.350000381469727,8.380000114440918,6.059999942779541,7.619999885559082,7.619999885559082,67700
2018-12-28,7.630000114440918,8.239999771118164,7.489999771118164,7.809999942779541,7.809999942779541,8300
2018-12-31,9.989999771118164,9.989999771118164,8.0,8.15999984741211,8.15999984741211,42000
2019-01-02,8.15999984741211,8.260000228881836,7.070000171661377,7.429999828338623,7.429999828338623,165800
2019-01-03,7.420000076293945,7.420000076293945,7.0,7.059999942779541,7.059999942779541,36500
2019-01-04,7.949999809265137,8.739999771118164,7.25,8.069999694824219,8.069999694824219,76900
2019-01-07,8.069999694824219,10.5,7.929999828338623,10.119999885559082,10.119999885559082,44500
2019-01-08,10.329999923706055,11.899999618530273,10.0,10.899999618530273,10.899999618530273,24800
2019-01-09,10.890000343322754,11.029999732971191,10.0,10.479999542236328,10.479999542236328,20300
2019-01-10,10.520000457763672,11.260000228881836,10.460000038146973,10.479999542236328,10.479999542236328,5000
2019-01-11,10.470000267028809,10.880000114440918,10.260000228881836,10.569999694824219,10.569999694824219,31600
2019-01-14,10.579999923706055,10.960000038146973,9.9399995803833,10.1899995803833,10.1899995803833,16700
2019-01-15,10.199999809265137,11.630000114440918,9.899999618530273,10.569999694824219,10.569999694824219,76100
2019-01-16,11.09000015258789,11.09000015258789,9.989999771118164,10.569999694824219,10.569999694824219,29000
2019-01-17,10.479999542236328,11.729999542236328,10.100000381469727,11.279999732971191,11.279999732971191,24600
2019-01-18,11.350000381469727,12.75,10.630000114440918,12.020000457763672,12.020000457763672,33600
2019-01-22,12.109999656677246,13.319999694824219,11.0,11.529999732971191,11.529999732971191,116400
2019-01-23,11.520000457763672,11.520000457763672,10.149999618530273,10.609999656677246,10.609999656677246,10500
2019-01-24,10.729999542236328,11.5,9.90999984741211,10.90999984741211,10.90999984741211,25200
2019-01-25,10.899999618530273,11.170000076293945,9.34000015258789,9.869999885559082,9.869999885559082,19800
2019-01-28,9.680000305175781,9.800000190734863,8.699999809265137,8.819999694824219,8.819999694824219,25000
2019-01-29,8.8100004196167,9.020000457763672,8.65999984741211,8.65999984741211,8.65999984741211,7100
2019-01-30,8.649999618530273,8.84000015258789,8.050000190734863,8.25,8.25,11600
2019-01-31,8.600000381469727,8.789999961853027,8.0,8.789999961853027,8.789999961853027,52500
2019-02-01,8.800000190734863,9.600000381469727,8.5,8.680000305175781,8.680000305175781,7100
2019-02-04,8.699999809265137,9.220000267028809,8.600000381469727,8.619999885559082,8.619999885559082,8600
2019-02-05,8.600000381469727,9.229999542236328,8.479999542236328,8.800000190734863,8.800000190734863,40100
2019-02-06,8.720000267028809,8.859999656677246,8.300000190734863,8.5,8.5,13900
2019-02-07,8.59000015258789,8.739999771118164,8.25,8.25,8.25,15600
2019-02-08,8.289999961853027,8.289999961853027,7.679999828338623,7.690000057220459,7.690000057220459,11800
2019-02-11,7.809999942779541,7.900000095367432,7.099999904632568,7.099999904632568,7.099999904632568,52600
2019-02-12,7.239999771118164,8.0,7.0,7.190000057220459,7.190000057220459,20500
2019-02-13,7.079999923706055,7.159999847412109,6.53000020980835,7.159999847412109,7.159999847412109,50700
2019-02-14,7.110000133514404,7.489999771118164,6.400000095367432,6.53000020980835,6.53000020980835,8500
2019-02-15,6.650000095367432,6.869999885559082,5.909999847412109,6.510000228881836,6.510000228881836,23700
2019-02-19,6.679999828338623,6.989999771118164,6.449999809265137,6.900000095367432,6.900000095367432,31100
2019-02-20,6.889999866485596,6.909999847412109,6.03000020980835,6.039999961853027,6.039999961853027,30800
2019-02-21,6.039999961853027,6.260000228881836,5.760000228881836,5.840000152587891,5.840000152587891,75800
2019-02-22,5.909999847412109,6.0,5.630000114440918,6.0,6.0,62500
2019-02-25,6.300000190734863,6.800000190734863,5.900000095367432,6.610000133514404,6.610000133514404,29600
2019-02-26,6.659999847412109,7.610000133514404,6.349999904632568,7.380000114440918,7.380000114440918,29400
2019-02-27,7.570000171661377,7.710000038146973,7.070000171661377,7.619999885559082,7.619999885559082,19200
2019-02-28,7.699999809265137,8.199999809265137,7.199999809265137,7.869999885559082,7.869999885559082,20500
2019-03-01,7.869999885559082,8.34000015258789,7.300000190734863,7.550000190734863,7.550000190734863,21100
2019-03-04,7.539999961853027,7.690000057220459,7.5,7.53000020980835,7.53000020980835,17000
2019-03-05,7.199999809265137,8.0,7.150000095367432,7.480000019073486,7.480000019073486,15200
2019-03-06,7.539999961853027,7.840000152587891,7.199999809265137,7.369999885559082,7.369999885559082,34400
2019-03-07,7.510000228881836,7.650000095367432,7.329999923706055,7.460000038146973,7.460000038146973,9000
2019-03-08,7.489999771118164,7.75,7.099999904632568,7.449999809265137,7.449999809265137,13200
2019-03-11,8.180000305175781,8.180000305175781,7.320000171661377,7.619999885559082,7.619999885559082,7800
2019-03-12,7.570000171661377,8.0,7.25,7.730000019073486,7.730000019073486,14400
2019-03-13,7.829999923706055,7.860000133514404,7.139999866485596,7.78000020980835,7.78000020980835,29800
2019-03-14,7.21999979019165,7.639999866485596,6.519999980926514,7.150000095367432,7.150000095367432,46500
2019-03-15,6.96999979019165,7.369999885559082,6.889999866485596,7.369999885559082,7.369999885559082,20400
2019-03-18,7.320000171661377,7.510000228881836,7.0,7.0,7.0,10500
2019-03-19,7.090000152587891,7.409999847412109,7.090000152587891,7.349999904632568,7.349999904632568,10400
2019-03-20,7.0,7.46999979019165,7.0,7.309999942779541,7.309999942779541,4800
2019-03-21,7.239999771118164,7.28000020980835,6.900000095367432,6.909999847412109,6.909999847412109,12500
2019-03-22,6.920000076293945,7.349999904632568,6.739999771118164,6.809999942779541,6.809999942779541,10800
2019-03-25,7.400000095367432,7.400000095367432,6.699999809265137,7.0,7.0,11000
2019-03-26,7.300000190734863,7.510000228881836,6.920000076293945,7.510000228881836,7.510000228881836,31900
2019-03-27,7.099999904632568,7.699999809265137,7.099999904632568,7.539999961853027,7.539999961853027,8700
2019-03-28,7.5,8.100000381469727,7.5,7.96999979019165,7.96999979019165,11900
2019-03-29,8.119999885559082,8.4399995803833,7.550000190734863,8.0,8.0,25000
2019-04-01,8.050000190734863,8.630000114440918,8.039999961853027,8.199999809265137,8.199999809265137,24700
2019-04-02,7.900000095367432,8.65999984741211,7.239999771118164,7.409999847412109,7.409999847412109,22700
2019-04-03,7.400000095367432,7.800000190734863,7.010000228881836,7.179999828338623,7.179999828338623,7800
2019-04-04,7.550000190734863,7.559999942779541,7.0,7.150000095367432,7.150000095367432,6500
2019-04-05,7.869999885559082,7.869999885559082,7.110000133514404,7.460000038146973,7.460000038146973,8500
2019-04-08,7.519999980926514,8.520000457763672,7.380000114440918,7.510000228881836,7.510000228881836,14400
2019-04-09,7.5,7.829999923706055,6.860000133514404,6.869999885559082,6.869999885559082,8800
2019-04-10,6.900000095367432,7.309999942779541,6.900000095367432,7.230000019073486,7.230000019073486,10800
2019-04-11,7.179999828338623,7.260000228881836,6.610000133514404,6.650000095367432,6.650000095367432,19900
2019-04-12,6.800000190734863,7.190000057220459,6.599999904632568,6.610000133514404,6.610000133514404,12400
2019-04-15,6.820000171661377,6.949999809265137,6.03000020980835,6.059999942779541,6.059999942779541,30600
2019-04-16,6.21999979019165,6.449999809265137,5.650000095367432,5.650000095367432,5.650000095367432,31000
2019-04-17,6.099999904632568,6.099999904632568,5.480000019073486,5.480000019073486,5.480000019073486,54200
2019-04-18,5.440000057220459,6.050000190734863,5.119999885559082,5.349999904632568,5.349999904632568,36400
2019-04-22,5.489999771118164,6.340000152587891,5.489999771118164,5.510000228881836,5.510000228881836,32400
2019-04-23,5.730000019073486,6.289999961853027,5.300000190734863,5.420000076293945,5.420000076293945,22600
2019-04-24,5.650000095367432,5.650000095367432,5.28000020980835,5.28000020980835,5.28000020980835,8400
2019-04-25,5.460000038146973,5.53000020980835,5.349999904632568,5.380000114440918,5.380000114440918,17800
2019-04-26,5.369999885559082,6.260000228881836,5.329999923706055,5.989999771118164,5.989999771118164,10400
2019-04-29,6.0,6.46999979019165,5.980000019073486,6.139999866485596,6.139999866485596,57600
2019-04-30,6.230000019073486,6.239999771118164,6.230000019073486,6.239999771118164,6.239999771118164,5500
2019-05-01,5.5,6.440000057220459,5.5,6.389999866485596,6.389999866485596,17200
2019-05-02,6.369999885559082,6.579999923706055,6.050000190734863,6.329999923706055,6.329999923706055,93000
2019-05-03,6.389999866485596,6.75,6.340000152587891,6.75,6.75,6700
2019-05-06,6.199999809265137,7.28000020980835,6.0,6.920000076293945,6.920000076293945,7100
2019-05-07,6.260000228881836,8.0,6.0,7.710000038146973,7.710000038146973,27500
2019-05-08,7.820000171661377,8.029999732971191,5.96999979019165,6.079999923706055,6.079999923706055,105700
2019-05-09,6.090000152587891,6.269999980926514,5.730000019073486,6.039999961853027,6.039999961853027,10400
2019-05-10,6.070000171661377,6.210000038146973,5.880000114440918,5.980000019073486,5.980000019073486,16700
2019-05-13,5.980000019073486,6.619999885559082,5.980000019073486,6.079999923706055,6.079999923706055,18300
2019-05-14,6.099999904632568,6.550000190734863,6.0,6.099999904632568,6.099999904632568,56600
2019-05-15,6.099999904632568,6.369999885559082,6.0,6.050000190734863,6.050000190734863,13400
2019-05-16,6.050000190734863,6.380000114440918,6.050000190734863,6.119999885559082,6.119999885559082,5300
2019-05-17,6.099999904632568,6.300000190734863,6.070000171661377,6.130000114440918,6.130000114440918,2600
2019-05-20,6.139999866485596,6.619999885559082,6.110000133514404,6.570000171661377,6.570000171661377,15600
2019-05-21,6.519999980926514,7.760000228881836,6.369999885559082,7.730000019073486,7.730000019073486,36200
2019-05-22,7.010000228881836,7.710000038146973,6.590000152587891,6.590000152587891,6.590000152587891,11100
2019-05-23,6.679999828338623,7.349999904632568,6.019999980926514,6.110000133514404,6.110000133514404,15200
2019-05-24,6.110000133514404,6.25,6.0,6.070000171661377,6.070000171661377,11300
2019-05-28,6.190000057220459,6.389999866485596,6.050000190734863,6.199999809265137,6.199999809265137,7500
2019-05-29,6.420000076293945,6.420000076293945,6.110000133514404,6.170000076293945,6.170000076293945,14300
2019-05-30,6.199999809265137,6.900000095367432,6.010000228881836,6.599999904632568,6.599999904632568,35200
2019-05-31,6.449999809265137,6.78000020980835,6.25,6.449999809265137,6.449999809265137,24000
2019-06-03,6.320000171661377,6.590000152587891,6.099999904632568,6.389999866485596,6.389999866485596,35200
2019-06-04,6.400000095367432,6.78000020980835,6.25,6.340000152587891,6.340000152587891,7600
2019-06-05,6.190000057220459,6.619999885559082,6.050000190734863,6.25,6.25,14000
2019-06-06,6.300000190734863,6.300000190734863,5.789999961853027,6.0,6.0,14400
2019-06-07,5.980000019073486,6.260000228881836,5.739999771118164,6.010000228881836,6.010000228881836,18900
2019-06-10,6.039999961853027,6.489999771118164,5.960000038146973,6.179999828338623,6.179999828338623,21600
2019-06-11,6.28000020980835,6.579999923706055,5.920000076293945,6.010000228881836,6.010000228881836,17500
2019-06-12,5.980000019073486,6.420000076293945,5.75,6.0,6.0,44700
2019-06-13,5.960000038146973,6.130000114440918,5.809999942779541,6.03000020980835,6.03000020980835,37700
2019-06-14,5.900000095367432,6.070000171661377,5.869999885559082,6.0,6.0,31900
2019-06-17,5.96999979019165,6.21999979019165,5.909999847412109,6.010000228881836,6.010000228881836,30400
2019-06-18,6.0,6.150000095367432,5.960000038146973,6.059999942779541,6.059999942779541,25000
2019-06-19,6.0,6.230000019073486,5.909999847412109,6.010000228881836,6.010000228881836,45100
2019-06-20,6.0,6.400000095367432,5.900000095367432,6.099999904632568,6.099999904632568,32400
2019-06-21,6.050000190734863,6.199999809265137,5.920000076293945,6.0,6.0,24000
2019-06-24,6.0,6.210000038146973,5.630000114440918,5.630000114440918,5.630000114440918,40300
2019-06-25,5.690000057220459,6.039999961853027,5.690000057220459,5.920000076293945,5.920000076293945,21900
2019-06-26,5.980000019073486,5.980000019073486,5.699999809265137,5.699999809265137,5.699999809265137,29700
2019-06-27,5.78000020980835,5.869999885559082,5.699999809265137,5.75,5.75,18300
2019-06-28,5.71999979019165,5.849999904632568,5.519999980926514,5.659999847412109,5.659999847412109,476100
2019-07-01,5.71999979019165,5.739999771118164,5.400000095367432,5.440000057220459,5.440000057220459,30600
2019-07-02,6.53000020980835,7.449999809265137,5.599999904632568,5.599999904632568,5.599999904632568,57900
2019-07-03,5.599999904632568,5.849999904632568,5.5,5.510000228881836,5.510000228881836,33500
2019-07-05,5.309999942779541,5.650000095367432,5.309999942779541,5.5,5.5,6700
2019-07-08,5.5,5.75,5.429999828338623,5.5,5.5,9600
2019-07-09,5.510000228881836,5.550000190734863,5.449999809265137,5.5,5.5,7200
2019-07-10,5.590000152587891,6.139999866485596,5.489999771118164,5.510000228881836,5.510000228881836,14300
2019-07-11,5.489999771118164,5.710000038146973,5.460000038146973,5.5,5.5,8800
2019-07-12,5.53000020980835,5.599999904632568,5.480000019073486,5.5,5.5,8300
2019-07-15,5.599999904632568,5.789999961853027,5.46999979019165,5.46999979019165,5.46999979019165,3900
2019-07-16,5.550000190734863,5.590000152587891,5.449999809265137,5.5,5.5,12400
2019-07-17,5.590000152587891,5.590000152587891,5.480000019073486,5.5,5.5,12200
2019-07-18,5.539999961853027,5.579999923706055,5.449999809265137,5.449999809265137,5.449999809265137,8000
2019-07-19,5.5,5.579999923706055,5.409999847412109,5.510000228881836,5.510000228881836,15200
2019-07-22,5.489999771118164,5.519999980926514,5.440000057220459,5.440000057220459,5.440000057220459,15900
2019-07-23,5.409999847412109,5.53000020980835,5.150000095367432,5.190000057220459,5.190000057220459,8200
2019-07-24,5.199999809265137,5.300000190734863,4.989999771118164,4.989999771118164,4.989999771118164,19500
2019-07-25,4.980000019073486,5.099999904632568,4.610000133514404,4.650000095367432,4.650000095367432,134700
2019-07-26,4.789999961853027,4.880000114440918,4.550000190734863,4.559999942779541,4.559999942779541,7700
2019-07-29,4.489999771118164,4.889999866485596,4.300000190734863,4.300000190734863,4.300000190734863,177900
2019-07-30,4.309999942779541,4.5,4.25,4.25,4.25,112900
2019-07-31,4.289999961853027,4.349999904632568,4.099999904632568,4.099999904632568,4.099999904632568,12400
2019-08-01,4.25,4.25,3.8499999046325684,3.950000047683716,3.950000047683716,99900
2019-08-02,4.050000190734863,4.190000057220459,4.050000190734863,4.159999847412109,4.159999847412109,30200
2019-08-05,4.199999809265137,4.880000114440918,3.7899999618530273,4.0,4.0,48200
2019-08-06,4.070000171661377,4.070000171661377,3.309999942779541,3.309999942779541,3.309999942779541,39600
2019-08-07,3.4000000953674316,3.5399999618530273,3.0999999046325684,3.450000047683716,3.450000047683716,23600
2019-08-08,3.5,3.940000057220459,3.5,3.740000009536743,3.740000009536743,8200
2019-08-09,3.7699999809265137,4.28000020980835,3.549999952316284,3.7799999713897705,3.7799999713897705,28700
2019-08-12,3.740000009536743,3.8499999046325684,3.559999942779541,3.559999942779541,3.559999942779541,6200
2019-08-13,3.799999952316284,4.179999828338623,3.609999895095825,3.759999990463257,3.759999990463257,22300
2019-08-14,3.7300000190734863,4.190000057220459,3.4700000286102295,3.609999895095825,3.609999895095825,13500
2019-08-15,3.930000066757202,4.179999828338623,3.5299999713897705,3.9100000858306885,3.9100000858306885,19500
2019-08-16,3.890000104904175,4.050000190734863,3.880000114440918,4.050000190734863,4.050000190734863,8100
2019-08-19,4.110000133514404,4.110000133514404,3.7799999713897705,4.099999904632568,4.099999904632568,7200
2019-08-20,3.950000047683716,4.059999942779541,3.9100000858306885,4.050000190734863,4.050000190734863,2800
2019-08-21,4.019999980926514,4.130000114440918,4.0,4.0,4.0,10100
2019-08-22,4.050000190734863,4.130000114440918,4.0,4.050000190734863,4.050000190734863,3900
2019-08-23,4.039999961853027,4.130000114440918,3.8399999141693115,4.050000190734863,4.050000190734863,13100
2019-08-26,3.9800000190734863,4.079999923706055,3.880000114440918,3.890000104904175,3.890000104904175,5200
2019-08-27,3.880000114440918,3.880000114440918,3.549999952316284,3.619999885559082,3.619999885559082,7700
2019-08-28,3.7899999618530273,4.0,3.6600000858306885,3.7100000381469727,3.7100000381469727,5400
2019-08-29,3.940000057220459,4.059999942779541,3.7200000286102295,4.019999980926514,4.019999980926514,4200
2019-08-30,3.9100000858306885,3.9100000858306885,3.8499999046325684,3.859999895095825,3.859999895095825,4400
2019-09-03,3.700000047683716,3.799999952316284,3.549999952316284,3.569999933242798,3.569999933242798,18500
2019-09-04,3.799999952316284,3.799999952316284,3.5799999237060547,3.640000104904175,3.640000104904175,2700
2019-09-05,4.050000190734863,4.050000190734863,3.6700000762939453,4.03000020980835,4.03000020980835,900
2019-09-06,3.990000009536743,3.990000009536743,3.680000066757202,3.950000047683716,3.950000047683716,3600
2019-09-09,3.859999895095825,3.990000009536743,3.680000066757202,3.700000047683716,3.700000047683716,1200
2019-09-10,3.680000066757202,3.990000009536743,3.6700000762939453,3.6700000762939453,3.6700000762939453,102700
2019-09-11,3.9600000381469727,3.990000009536743,3.759999990463257,3.759999990463257,3.759999990463257,92800
2019-09-12,4.0,4.039999961853027,3.759999990463257,3.7699999809265137,3.7699999809265137,68100
2019-09-13,3.930000066757202,4.0,3.809999942779541,3.809999942779541,3.809999942779541,3400
2019-09-16,3.809999942779541,4.230000019073486,3.809999942779541,4.079999923706055,4.079999923706055,6500
2019-09-17,4.110000133514404,4.110000133514404,3.8399999141693115,3.859999895095825,3.859999895095825,2200
2019-09-18,3.950000047683716,4.0,3.6700000762939453,3.680000066757202,3.680000066757202,25800
2019-09-19,3.7799999713897705,3.9200000762939453,3.6700000762939453,3.6700000762939453,3.6700000762939453,5400
2019-09-20,3.7699999809265137,3.9100000858306885,3.75,3.8299999237060547,3.8299999237060547,7900
2019-09-23,3.7799999713897705,4.039999961853027,3.740000009536743,3.859999895095825,3.859999895095825,32400
2019-09-24,3.9200000762939453,3.9800000190734863,3.7200000286102295,3.8399999141693115,3.8399999141693115,15200
2019-09-25,3.859999895095825,3.890000104904175,3.740000009536743,3.740000009536743,3.740000009536743,12900
2019-09-26,3.75,3.990000009536743,3.75,3.9100000858306885,3.9100000858306885,15900
2019-09-27,3.809999942779541,3.940000057220459,3.690000057220459,3.7300000190734863,3.7300000190734863,34700
2019-09-30,3.75,3.930000066757202,3.6600000858306885,3.799999952316284,3.799999952316284,34700
2019-10-01,3.799999952316284,3.9700000286102295,3.6500000953674316,3.6500000953674316,3.6500000953674316,37700
2019-10-02,3.6600000858306885,3.9200000762939453,3.6500000953674316,3.700000047683716,3.700000047683716,31000
2019-10-03,3.690000057220459,3.859999895095825,3.6600000858306885,3.6600000858306885,3.6600000858306885,1900
2019-10-04,3.759999990463257,4.300000190734863,3.759999990463257,4.110000133514404,4.110000133514404,33500
2019-10-07,4.190000057220459,4.329999923706055,4.010000228881836,4.019999980926514,4.019999980926514,4300
2019-10-08,4.210000038146973,4.28000020980835,4.010000228881836,4.03000020980835,4.03000020980835,7600
2019-10-09,4.150000095367432,4.510000228881836,4.150000095367432,4.260000228881836,4.260000228881836,15700
2019-10-10,4.96999979019165,4.96999979019165,4.0,4.070000171661377,4.070000171661377,25500
2019-10-11,4.079999923706055,4.119999885559082,3.6500000953674316,3.6500000953674316,3.6500000953674316,33800
2019-10-14,3.630000114440918,3.7100000381469727,3.609999895095825,3.6600000858306885,3.6600000858306885,4600
2019-10-15,3.640000104904175,3.9200000762939453,3.5899999141693115,3.630000114440918,3.630000114440918,40600
2019-10-16,3.7799999713897705,3.7799999713897705,3.369999885559082,3.5399999618530273,3.5399999618530273,14100
2019-10-17,3.609999895095825,3.740000009536743,3.5,3.5,3.5,1009700
2019-10-18,3.619999885559082,3.6500000953674316,3.25,3.2899999618530273,3.2899999618530273,6600
2019-10-21,3.2300000190734863,3.609999895095825,3.2300000190734863,3.5,3.5,2000
2019-10-22,3.4600000381469727,3.680000066757202,3.4600000381469727,3.4700000286102295,3.4700000286102295,2700
2019-10-23,3.4200000762939453,3.619999885559082,3.240000009536743,3.509999990463257,3.509999990463257,1100
2019-10-24,3.25,3.5,2.869999885559082,3.0,3.0,25500
2019-10-25,3.059999942779541,3.430000066757202,2.559999942779541,3.25,3.25,12800
2019-10-28,3.4000000953674316,3.450000047683716,3.0799999237060547,3.190000057220459,3.190000057220459,7200
2019-10-29,3.299999952316284,3.5,2.8299999237060547,3.3399999141693115,3.3399999141693115,6600
2019-10-30,2.9800000190734863,3.5,2.9800000190734863,3.180000066757202,3.180000066757202,5100
2019-10-31,3.25,3.5799999237060547,3.25,3.569999933242798,3.569999933242798,4600
2019-11-01,3.440000057220459,3.9100000858306885,3.4000000953674316,3.450000047683716,3.450000047683716,24100
2019-11-04,3.5,3.700000047683716,3.190000057220459,3.700000047683716,3.700000047683716,7900
2019-11-05,3.5199999809265137,3.5199999809265137,3.2100000381469727,3.2699999809265137,3.2699999809265137,10000
2019-11-06,3.299999952316284,3.299999952316284,3.200000047683716,3.299999952316284,3.299999952316284,6800
2019-11-07,3.4000000953674316,3.440000057220459,3.180000066757202,3.200000047683716,3.200000047683716,3100
2019-11-08,3.180000066757202,3.4100000858306885,3.180000066757202,3.3299999237060547,3.3299999237060547,8200
2019-11-11,3.3499999046325684,3.3499999046325684,3.190000057220459,3.259999990463257,3.259999990463257,6100
2019-11-12,3.3399999141693115,3.5,3.190000057220459,3.4800000190734863,3.4800000190734863,2900
2019-11-13,3.5999999046325684,3.759999990463257,3.190000057220459,3.2200000286102295,3.2200000286102295,11500
2019-11-14,3.2899999618530273,3.6500000953674316,3.2899999618530273,3.6500000953674316,3.6500000953674316,154600
2019-11-15,3.5,3.5,3.390000104904175,3.490000009536743,3.490000009536743,3900
2019-11-18,3.5399999618530273,3.6500000953674316,3.2200000286102295,3.6500000953674316,3.6500000953674316,31400
2019-11-19,3.5999999046325684,3.75,3.509999990463257,3.559999942779541,3.559999942779541,10000
2019-11-20,3.700000047683716,3.7300000190734863,3.5,3.5,3.5,23200
2019-11-21,3.619999885559082,3.619999885559082,3.4200000762939453,3.549999952316284,3.549999952316284,2700
2019-11-22,3.390000104904175,3.549999952316284,3.3299999237060547,3.359999895095825,3.359999895095825,11400
2019-11-25,3.5199999809265137,3.5899999141693115,3.2200000286102295,3.2200000286102295,3.2200000286102295,5800
2019-11-26,3.2300000190734863,3.450000047683716,3.180000066757202,3.190000057220459,3.190000057220459,12100
2019-11-27,3.380000114440918,3.380000114440918,3.190000057220459,3.259999990463257,3.259999990463257,3600
2019-11-29,3.25,3.25,3.25,3.25,3.25,200
2019-12-02,3.5,3.5899999141693115,3.259999990463257,3.309999942779541,3.309999942779541,17600
2019-12-03,3.450000047683716,4.46999979019165,3.4100000858306885,3.990000009536743,3.990000009536743,100700
2019-12-04,4.130000114440918,4.309999942779541,3.619999885559082,3.9600000381469727,3.9600000381469727,25100
2019-12-05,4.079999923706055,4.489999771118164,4.079999923706055,4.110000133514404,4.110000133514404,7700
2019-12-06,4.25,4.260000228881836,3.8399999141693115,3.8399999141693115,3.8399999141693115,19900
2019-12-09,4.03000020980835,4.139999866485596,3.9600000381469727,4.050000190734863,4.050000190734863,12400
2019-12-10,4.510000228881836,5.46999979019165,4.5,4.75,4.75,536900
2019-12-11,4.760000228881836,4.929999828338623,4.5,4.75,4.75,40900
2019-12-12,4.889999866485596,4.889999866485596,4.639999866485596,4.75,4.75,35400
2019-12-13,4.760000228881836,5.099999904632568,4.679999828338623,5.0,5.0,57400
2019-12-16,5.0,5.199999809265137,4.369999885559082,4.829999923706055,4.829999923706055,96500
2019-12-17,5.010000228881836,5.019999980926514,4.619999885559082,4.869999885559082,4.869999885559082,38300
2019-12-18,4.900000095367432,5.0,4.46999979019165,4.510000228881836,4.510000228881836,31500
2019-12-19,4.480000019073486,4.679999828338623,4.329999923706055,4.539999961853027,4.539999961853027,19100
2019-12-20,4.570000171661377,4.739999771118164,4.5,4.690000057220459,4.690000057220459,25700
2019-12-23,4.809999942779541,5.0,4.380000114440918,4.380000114440918,4.380000114440918,25600
2019-12-24,4.480000019073486,4.510000228881836,4.25,4.28000020980835,4.28000020980835,31700
2019-12-26,4.289999961853027,4.340000152587891,3.309999942779541,3.9200000762939453,3.9200000762939453,61500
2019-12-27,4.090000152587891,4.289999961853027,3.940000057220459,4.03000020980835,4.03000020980835,12700
2019-12-30,4.179999828338623,4.5,3.9100000858306885,4.190000057220459,4.190000057220459,54300
2019-12-31,4.400000095367432,4.880000114440918,3.309999942779541,3.380000114440918,3.380000114440918,217500
2020-01-02,3.5799999237060547,4.170000076293945,3.559999942779541,4.090000152587891,4.090000152587891,71400
2020-01-03,4.070000171661377,4.840000152587891,3.7899999618530273,4.400000095367432,4.400000095367432,52300
2020-01-06,4.510000228881836,4.880000114440918,4.110000133514404,4.380000114440918,4.380000114440918,41300
2020-01-07,4.5,4.880000114440918,4.079999923706055,4.409999847412109,4.409999847412109,36400
2020-01-08,4.550000190734863,4.550000190734863,4.239999771118164,4.519999980926514,4.519999980926514,13500
2020-01-09,4.46999979019165,4.650000095367432,4.380000114440918,4.46999979019165,4.46999979019165,43300
2020-01-10,4.610000133514404,4.820000171661377,4.300000190734863,4.389999866485596,4.389999866485596,103200
2020-01-13,4.590000152587891,4.639999866485596,4.440000057220459,4.590000152587891,4.590000152587891,46500
2020-01-14,4.630000114440918,4.909999847412109,4.489999771118164,4.659999847412109,4.659999847412109,36700
2020-01-15,4.460000038146973,4.699999809265137,4.460000038146973,4.510000228881836,4.510000228881836,19600
2020-01-16,4.670000076293945,4.880000114440918,4.550000190734863,4.610000133514404,4.610000133514404,33800
2020-01-17,4.820000171661377,4.880000114440918,4.559999942779541,4.619999885559082,4.619999885559082,43100
2020-01-21,4.570000171661377,4.679999828338623,4.210000038146973,4.409999847412109,4.409999847412109,32100
2020-01-22,4.440000057220459,4.440000057220459,3.890000104904175,4.139999866485596,4.139999866485596,34800
2020-01-23,4.070000171661377,4.309999942779541,4.0,4.28000020980835,4.28000020980835,13400
2020-01-24,4.739999771118164,5.71999979019165,4.650000095367432,5.099999904632568,5.099999904632568,253300
2020-01-27,5.0,5.400000095367432,4.96999979019165,5.050000190734863,5.050000190734863,67800
2020-01-28,5.170000076293945,5.300000190734863,5.0,5.0,5.0,21000
2020-01-29,5.050000190734863,5.079999923706055,4.769999980926514,4.989999771118164,4.989999771118164,34200
2020-01-30,4.980000019073486,4.980000019073486,4.699999809265137,4.769999980926514,4.769999980926514,17700
2020-01-31,4.710000038146973,4.78000020980835,4.349999904632568,4.570000171661377,4.570000171661377,53800
2020-02-03,4.46999979019165,4.639999866485596,4.420000076293945,4.489999771118164,4.489999771118164,13700
2020-02-04,4.489999771118164,4.5,4.300000190734863,4.300000190734863,4.300000190734863,47900
2020-02-05,4.300000190734863,4.860000133514404,4.300000190734863,4.769999980926514,4.769999980926514,34700
2020-02-06,4.880000114440918,5.010000228881836,4.699999809265137,4.699999809265137,4.699999809265137,26000
2020-02-07,4.860000133514404,4.989999771118164,4.699999809265137,4.809999942779541,4.809999942779541,6600
2020-02-10,4.889999866485596,4.96999979019165,4.710000038146973,4.820000171661377,4.820000171661377,15900
2020-02-11,4.920000076293945,4.949999809265137,4.789999961853027,4.949999809265137,4.949999809265137,10100
2020-02-12,4.989999771118164,5.0,4.929999828338623,4.960000038146973,4.960000038146973,15700
2020-02-13,5.0,5.070000171661377,4.900000095367432,4.980000019073486,4.980000019073486,11500
2020-02-14,4.989999771118164,5.150000095367432,4.96999979019165,4.96999979019165,4.96999979019165,8700
2020-02-18,5.099999904632568,5.159999847412109,5.0,5.059999942779541,5.059999942779541,42300
2020-02-19,5.119999885559082,5.380000114440918,5.03000020980835,5.03000020980835,5.03000020980835,54800
2020-02-20,5.0,5.179999828338623,4.980000019073486,5.079999923706055,5.079999923706055,7900
2020-02-21,5.150000095367432,5.599999904632568,4.980000019073486,5.130000114440918,5.130000114440918,24600
2020-02-24,5.090000152587891,5.5,5.090000152587891,5.5,5.5,23600
2020-02-25,5.539999961853027,5.659999847412109,5.349999904632568,5.360000133514404,5.360000133514404,13300
2020-02-26,5.440000057220459,5.440000057220459,5.170000076293945,5.309999942779541,5.309999942779541,5100
2020-02-27,5.260000228881836,5.28000020980835,5.0,5.090000152587891,5.090000152587891,35200
2020-02-28,4.989999771118164,5.070000171661377,4.650000095367432,4.809999942779541,4.809999942779541,36200
2020-03-02,5.0,5.21999979019165,4.869999885559082,5.099999904632568,5.099999904632568,19700
2020-03-03,5.190000057220459,5.190000057220459,4.699999809265137,4.789999961853027,4.789999961853027,8800
2020-03-04,5.090000152587891,5.090000152587891,4.789999961853027,4.889999866485596,4.889999866485596,7800
2020-03-05,4.960000038146973,4.989999771118164,4.789999961853027,4.789999961853027,4.789999961853027,14500
2020-03-06,4.900000095367432,5.21999979019165,4.650000095367432,5.139999866485596,5.139999866485596,11400
2020-03-09,4.059999942779541,5.099999904632568,4.050000190734863,4.25,4.25,26400
2020-03-10,4.269999980926514,4.400000095367432,3.2300000190734863,3.5999999046325684,3.5999999046325684,91000
2020-03-11,3.5,3.7200000286102295,3.180000066757202,3.5,3.5,26100
2020-03-12,3.190000057220459,3.490000009536743,3.190000057220459,3.4800000190734863,3.4800000190734863,7000
2020-03-13,3.319999933242798,3.380000114440918,2.950000047683716,2.9800000190734863,2.9800000190734863,12700
2020-03-16,2.9800000190734863,3.009999990463257,2.4200000762939453,2.4200000762939453,2.4200000762939453,15700
2020-03-17,2.700000047683716,3.680000066757202,2.630000114440918,3.25,3.25,33100
2020-03-18,3.7100000381469727,3.8499999046325684,2.8299999237060547,2.9600000381469727,2.9600000381469727,25800
2020-03-19,2.930000066757202,3.940000057220459,2.630000114440918,3.940000057220459,3.940000057220459,22900
2020-03-20,3.940000057220459,3.940000057220459,3.0,3.2300000190734863,3.2300000190734863,16000
2020-03-23,3.0999999046325684,3.0999999046325684,2.7899999618530273,2.799999952316284,2.799999952316284,7500
2020-03-24,3.2799999713897705,3.450000047683716,2.200000047683716,2.299999952316284,2.299999952316284,44300
2020-03-25,2.630000114440918,3.1600000858306885,2.630000114440918,2.6500000953674316,2.6500000953674316,25900
2020-03-26,2.9100000858306885,2.940000057220459,2.7100000381469727,2.740000009536743,2.740000009536743,7200
2020-03-27,2.880000114440918,2.880000114440918,2.5,2.619999885559082,2.619999885559082,23400
2020-03-30,2.940000057220459,3.0,2.4000000953674316,2.5999999046325684,2.5999999046325684,10700
2020-03-31,2.7300000190734863,2.990000009536743,2.5999999046325684,2.7100000381469727,2.7100000381469727,11000
2020-04-01,2.509999990463257,2.990000009536743,2.4700000286102295,2.4800000190734863,2.4800000190734863,35000
2020-04-02,2.5,2.690000057220459,2.319999933242798,2.450000047683716,2.450000047683716,15100
2020-04-03,2.559999942779541,2.559999942779541,2.299999952316284,2.3399999141693115,2.3399999141693115,6200
2020-04-06,2.309999942779541,2.509999990463257,2.309999942779541,2.4000000953674316,2.4000000953674316,8800
2020-04-07,2.4600000381469727,2.5,2.369999885559082,2.369999885559082,2.369999885559082,7200
2020-04-08,2.4000000953674316,2.549999952316284,2.380000114440918,2.430000066757202,2.430000066757202,24600
2020-04-09,2.5199999809265137,2.640000104904175,2.5199999809265137,2.5299999713897705,2.5299999713897705,13400
2020-04-13,2.5999999046325684,2.950000047683716,2.5399999618530273,2.5399999618530273,2.5399999618530273,44000
2020-04-14,2.6500000953674316,2.9800000190734863,2.6500000953674316,2.9600000381469727,2.9600000381469727,19500
2020-04-15,2.990000009536743,3.259999990463257,2.5,2.5,2.5,48700
2020-04-16,2.7699999809265137,2.940000057220459,2.4000000953674316,2.7300000190734863,2.7300000190734863,29700
2020-04-17,2.7899999618530273,2.799999952316284,2.6700000762939453,2.7300000190734863,2.7300000190734863,10400
2020-04-20,2.740000009536743,2.890000104904175,2.6500000953674316,2.6500000953674316,2.6500000953674316,7900
2020-04-21,2.700000047683716,2.7100000381469727,2.5,2.5,2.5,7300
2020-04-22,2.5,2.6500000953674316,2.369999885559082,2.450000047683716,2.450000047683716,21200
2020-04-23,2.630000114440918,2.7699999809265137,2.490000009536743,2.7699999809265137,2.7699999809265137,20900
2020-04-24,2.799999952316284,2.9800000190734863,2.7100000381469727,2.8499999046325684,2.8499999046325684,26800
2020-04-27,3.0,3.0,2.759999990463257,2.9100000858306885,2.9100000858306885,13000
2020-04-28,2.859999895095825,3.0,2.6700000762939453,2.700000047683716,2.700000047683716,77200
2020-04-29,2.859999895095825,3.0,2.619999885559082,2.859999895095825,2.859999895095825,15600
2020-04-30,2.7300000190734863,2.950000047683716,2.700000047683716,2.7300000190734863,2.7300000190734863,9200
2020-05-01,2.7100000381469727,2.9600000381469727,2.5,2.5199999809265137,2.5199999809265137,15100
2020-05-04,2.8299999237060547,2.8399999141693115,2.5299999713897705,2.5999999046325684,2.5999999046325684,10400
2020-05-05,2.759999990463257,2.809999942779541,2.430000066757202,2.680000066757202,2.680000066757202,21000
2020-05-06,2.75,2.759999990463257,2.5199999809265137,2.680000066757202,2.680000066757202,4100
2020-05-07,2.6500000953674316,3.0,2.640000104904175,2.9800000190734863,2.9800000190734863,46000
2020-05-08,2.890000104904175,3.309999942779541,2.890000104904175,3.309999942779541,3.309999942779541,20900
2020-05-11,3.319999933242798,3.319999933242798,3.0199999809265137,3.2200000286102295,3.2200000286102295,11400
2020-05-12,3.240000009536743,3.440000057220459,3.2200000286102295,3.3499999046325684,3.3499999046325684,31600
2020-05-13,3.0399999618530273,3.2300000190734863,2.7799999713897705,3.0399999618530273,3.0399999618530273,10400
2020-05-14,3.0199999809265137,3.0899999141693115,2.75,2.8499999046325684,2.8499999046325684,20600
2020-05-15,2.799999952316284,2.9800000190734863,2.799999952316284,2.9800000190734863,2.9800000190734863,900
2020-05-18,2.9800000190734863,3.140000104904175,2.630000114440918,2.6600000858306885,2.6600000858306885,20200
2020-05-19,2.990000009536743,3.0,2.7899999618530273,2.799999952316284,2.799999952316284,34900
2020-05-20,3.0,3.0,2.7899999618530273,2.990000009536743,2.990000009536743,27200
2020-05-21,2.990000009536743,3.25,2.990000009536743,3.069999933242798,3.069999933242798,6800
2020-05-22,3.140000104904175,3.140000104904175,2.990000009536743,3.0799999237060547,3.0799999237060547,7700
2020-05-26,3.4200000762939453,3.619999885559082,3.2300000190734863,3.2899999618530273,3.2899999618530273,55800
2020-05-27,3.559999942779541,3.6600000858306885,3.109999895095825,3.5299999713897705,3.5299999713897705,18900
2020-05-28,3.680000066757202,3.75,3.2899999618530273,3.5299999713897705,3.5299999713897705,14800
2020-05-29,3.690000057220459,3.700000047683716,3.299999952316284,3.450000047683716,3.450000047683716,15600
2020-06-01,3.3499999046325684,3.6500000953674316,3.3299999237060547,3.509999990463257,3.509999990463257,32300
2020-06-02,3.430000066757202,3.5399999618530273,3.25,3.4000000953674316,3.4000000953674316,20100
2020-06-03,3.390000104904175,3.509999990463257,3.240000009536743,3.240000009536743,3.240000009536743,14600
2020-06-04,3.2100000381469727,3.3499999046325684,2.8399999141693115,3.0399999618530273,3.0399999618530273,43100
2020-06-05,3.0399999618530273,3.1500000953674316,2.8299999237060547,2.9600000381469727,2.9600000381469727,32300
2020-06-08,2.869999885559082,3.0399999618530273,2.7799999713897705,3.0,3.0,44300
2020-06-09,2.9600000381469727,3.0999999046325684,2.9000000953674316,3.0,3.0,25400
2020-06-10,3.0399999618530273,3.0399999618530273,2.8299999237060547,2.8399999141693115,2.8399999141693115,50500
2020-06-11,2.5799999237060547,2.9100000858306885,2.5799999237060547,2.7699999809265137,2.7699999809265137,33300
2020-06-12,2.819999933242798,2.8299999237060547,2.549999952316284,2.690000057220459,2.690000057220459,21500
2020-06-15,2.8499999046325684,2.9200000762939453,2.5999999046325684,2.890000104904175,2.890000104904175,39900
2020-06-16,2.799999952316284,2.990000009536743,2.7799999713897705,2.869999885559082,2.869999885559082,39900
2020-06-17,2.890000104904175,2.9800000190734863,2.640000104904175,2.7200000286102295,2.7200000286102295,10800
2020-06-18,2.75,2.9000000953674316,2.75,2.759999990463257,2.759999990463257,24000
2020-06-19,2.700000047683716,2.9000000953674316,2.690000057220459,2.7300000190734863,2.7300000190734863,25700
2020-06-22,2.799999952316284,2.8499999046325684,2.619999885559082,2.619999885559082,2.619999885559082,34800
2020-06-23,2.6500000953674316,2.700000047683716,2.630000114440918,2.630000114440918,2.630000114440918,59200
2020-06-24,2.6600000858306885,2.75,2.5299999713897705,2.690000057220459,2.690000057220459,141800
2020-06-25,2.640000104904175,2.8499999046325684,2.640000104904175,2.700000047683716,2.700000047683716,128200
2020-06-26,2.7100000381469727,2.9000000953674316,2.680000066757202,2.880000114440918,2.880000114440918,128300
2020-06-29,3.0,3.0,2.759999990463257,2.8299999237060547,2.8299999237060547,21500
2020-06-30,2.8499999046325684,2.950000047683716,2.819999933242798,2.950000047683716,2.950000047683716,18500
2020-07-01,2.869999885559082,2.890000104904175,2.799999952316284,2.799999952316284,2.799999952316284,20600
2020-07-02,2.7899999618530273,2.819999933242798,2.7100000381469727,2.7799999713897705,2.7799999713897705,25300
2020-07-06,2.8499999046325684,2.9000000953674316,2.7300000190734863,2.8299999237060547,2.8299999237060547,21100
2020-07-07,2.7799999713897705,2.8399999141693115,2.640000104904175,2.8299999237060547,2.8299999237060547,67400
2020-07-08,2.8299999237060547,2.8299999237060547,2.680000066757202,2.799999952316284,2.799999952316284,25500
2020-07-09,2.9700000286102295,3.380000114440918,2.880000114440918,3.319999933242798,3.319999933242798,167500
2020-07-10,3.430000066757202,3.430000066757202,3.0199999809265137,3.190000057220459,3.190000057220459,48200
2020-07-13,9.0,27.049999237060547,7.349999904632568,26.5,26.5,100657000
2020-07-14,19.1200008392334,19.18000030517578,13.0,13.979999542236328,13.979999542236328,19452700
2020-07-15,13.170000076293945,19.219999313354492,12.59000015258789,17.329999923706055,17.329999923706055,19378100
2020-07-16,15.90999984741211,17.299999237060547,14.0600004196167,14.770000457763672,14.770000457763672,2283800
2020-07-17,15.149999618530273,15.180000305175781,13.109999656677246,13.859999656677246,13.859999656677246,1361100
2020-07-20,14.050000190734863,14.399999618530273,13.25,13.640000343322754,13.640000343322754,726000
2020-07-21,13.449999809265137,13.640000343322754,12.119999885559082,12.699999809265137,12.699999809265137,844300
2020-07-22,12.399999618530273,16.5,12.399999618530273,13.380000114440918,13.380000114440918,6717600
2020-07-23,13.369999885559082,13.800000190734863,12.600000381469727,13.260000228881836,13.260000228881836,963600
2020-07-24,12.699999809265137,13.5,12.40999984741211,13.3100004196167,13.3100004196167,521000
2020-07-27,12.84000015258789,13.1899995803833,12.369999885559082,12.649999618530273,12.649999618530273,346800
2020-07-28,12.0600004196167,12.449999809265137,11.65999984741211,11.760000228881836,11.760000228881836,449300
2020-07-29,11.920000076293945,12.0,11.15999984741211,11.4399995803833,11.4399995803833,414800
2020-07-30,11.170000076293945,11.229999542236328,10.600000381469727,10.6899995803833,10.6899995803833,444300
2020-07-31,10.609999656677246,10.6899995803833,9.180000305175781,9.649999618530273,9.649999618530273,546500
2020-08-03,9.649999618530273,10.640000343322754,9.3100004196167,10.100000381469727,10.100000381469727,395400
2020-08-04,10.010000228881836,10.899999618530273,9.75,10.369999885559082,10.369999885559082,481800
2020-08-05,10.449999809265137,10.859999656677246,10.300000190734863,10.630000114440918,10.630000114440918,320500
2020-08-06,10.5,10.829999923706055,9.649999618530273,9.75,9.75,450000
2020-08-07,9.75,9.859999656677246,9.359999656677246,9.479999542236328,9.479999542236328,180600
2020-08-10,9.510000228881836,10.5,9.449999809265137,10.050000190734863,10.050000190734863,1346100
2020-08-11,12.0,12.289999961853027,10.020000457763672,10.109999656677246,10.109999656677246,1987200
2020-08-12,10.050000190734863,10.100000381469727,8.5,8.970000267028809,8.970000267028809,846900
2020-08-13,8.819999694824219,9.100000381469727,8.619999885559082,8.819999694824219,8.819999694824219,472900
2020-08-14,7.75,7.800000190734863,6.900000095367432,7.239999771118164,7.239999771118164,2750800
2020-08-17,7.449999809265137,7.46999979019165,7.079999923706055,7.110000133514404,7.110000133514404,752900
2020-08-18,7.079999923706055,7.150000095367432,6.760000228881836,6.840000152587891,6.840000152587891,692100
2020-08-19,6.860000133514404,7.289999961853027,6.650000095367432,6.849999904632568,6.849999904632568,691300
2020-08-20,6.889999866485596,7.0,6.599999904632568,6.840000152587891,6.840000152587891,405700
2020-08-21,6.849999904632568,7.050000190734863,6.619999885559082,6.880000114440918,6.880000114440918,384900
2020-08-24,6.880000114440918,6.880000114440918,6.360000133514404,6.71999979019165,6.71999979019165,521400
2020-08-25,6.670000076293945,7.190000057220459,6.5,7.039999961853027,7.039999961853027,496900
2020-08-26,7.019999980926514,7.03000020980835,6.670000076293945,6.860000133514404,6.860000133514404,407800
2020-08-27,6.78000020980835,6.820000171661377,5.880000114440918,5.980000019073486,5.980000019073486,611800
2020-08-28,6.0,6.090000152587891,5.809999942779541,6.079999923706055,6.079999923706055,577500
2020-08-31,6.019999980926514,6.079999923706055,5.769999980926514,5.889999866485596,5.889999866485596,420600
2020-09-01,5.860000133514404,5.860000133514404,5.25,5.460000038146973,5.460000038146973,438900
2020-09-02,5.389999866485596,5.53000020980835,5.230000019073486,5.329999923706055,5.329999923706055,297900
2020-09-03,5.360000133514404,5.570000171661377,5.119999885559082,5.179999828338623,5.179999828338623,374500
2020-09-04,5.300000190734863,5.340000152587891,4.699999809265137,5.059999942779541,5.059999942779541,395400
2020-09-08,4.980000019073486,5.489999771118164,4.800000190734863,5.159999847412109,5.159999847412109,288300
2020-09-09,5.269999980926514,5.400000095367432,4.920000076293945,5.25,5.25,274300
2020-09-10,5.25,5.360000133514404,5.019999980926514,5.119999885559082,5.119999885559082,120700
2020-09-11,5.159999847412109,5.789999961853027,5.059999942779541,5.559999942779541,5.559999942779541,372400
2020-09-14,5.570000171661377,6.110000133514404,5.409999847412109,5.71999979019165,5.71999979019165,457300
2020-09-15,6.010000228881836,7.5,5.909999847412109,6.010000228881836,6.010000228881836,3969600
2020-09-16,6.079999923706055,6.320000171661377,5.800000190734863,6.320000171661377,6.320000171661377,574000
2020-09-17,6.300000190734863,6.53000020980835,6.110000133514404,6.369999885559082,6.369999885559082,317400
2020-09-18,6.329999923706055,6.900000095367432,6.159999847412109,6.409999847412109,6.409999847412109,686500
2020-09-21,6.420000076293945,6.820000171661377,6.099999904632568,6.78000020980835,6.78000020980835,342300
2020-09-22,6.670000076293945,6.690000057220459,6.179999828338623,6.309999942779541,6.309999942779541,325000
2020-09-23,6.269999980926514,6.510000228881836,5.590000152587891,5.610000133514404,5.610000133514404,351100
2020-09-24,5.449999809265137,5.75,5.099999904632568,5.599999904632568,5.599999904632568,179500
2020-09-25,5.610000133514404,5.860000133514404,5.5,5.75,5.75,134100
2020-09-28,5.820000171661377,5.820000171661377,5.510000228881836,5.630000114440918,5.630000114440918,139500
2020-09-29,5.590000152587891,5.78000020980835,5.519999980926514,5.739999771118164,5.739999771118164,157300
2020-09-30,5.739999771118164,5.849999904632568,5.460000038146973,5.769999980926514,5.769999980926514,414800
2020-10-01,5.710000038146973,6.349999904632568,5.659999847412109,6.079999923706055,6.079999923706055,226600
2020-10-02,5.800000190734863,6.090000152587891,5.71999979019165,6.0,6.0,203600
2020-10-05,6.019999980926514,6.400000095367432,5.989999771118164,6.360000133514404,6.360000133514404,206100
2020-10-06,6.349999904632568,6.389999866485596,5.960000038146973,6.150000095367432,6.150000095367432,190900
2020-10-07,6.239999771118164,6.670000076293945,6.239999771118164,6.579999923706055,6.579999923706055,172300
2020-10-08,6.590000152587891,6.650000095367432,6.179999828338623,6.269999980926514,6.269999980926514,192600
2020-10-09,6.28000020980835,6.53000020980835,6.150000095367432,6.449999809265137,6.449999809265137,131900
2020-10-12,6.21999979019165,6.630000114440918,6.050000190734863,6.159999847412109,6.159999847412109,303300
2020-10-13,6.150000095367432,6.360000133514404,6.070000171661377,6.150000095367432,6.150000095367432,139400
2020-10-14,6.139999866485596,6.199999809265137,5.949999809265137,6.119999885559082,6.119999885559082,163300
2020-10-15,6.039999961853027,6.050000190734863,5.440000057220459,5.639999866485596,5.639999866485596,269900
2020-10-16,5.579999923706055,6.239999771118164,5.579999923706055,6.159999847412109,6.159999847412109,216100
2020-10-19,6.150000095367432,6.150000095367432,5.800000190734863,5.849999904632568,5.849999904632568,112800
2020-10-20,5.909999847412109,5.929999828338623,5.570000171661377,5.690000057220459,5.690000057220459,172200
2020-10-21,5.639999866485596,5.760000228881836,5.53000020980835,5.610000133514404,5.610000133514404,94700
2020-10-22,5.590000152587891,5.829999923706055,5.449999809265137,5.809999942779541,5.809999942779541,153500
2020-10-23,5.800000190734863,5.880000114440918,5.599999904632568,5.840000152587891,5.840000152587891,86100
2020-10-26,5.820000171661377,5.900000095367432,5.53000020980835,5.659999847412109,5.659999847412109,67100
2020-10-27,5.619999885559082,5.789999961853027,5.510000228881836,5.760000228881836,5.760000228881836,62000
2020-10-28,5.619999885559082,5.71999979019165,5.300000190734863,5.449999809265137,5.449999809265137,107100
2020-10-29,5.400000095367432,6.239999771118164,5.300000190734863,6.0,6.0,2230000
2020-10-30,7.139999866485596,7.510000228881836,5.989999771118164,6.349999904632568,6.349999904632568,17622200
2020-11-02,6.119999885559082,6.119999885559082,5.230000019073486,5.28000020980835,5.28000020980835,1854600
2020-11-03,5.239999771118164,5.320000171661377,5.010000228881836,5.059999942779541,5.059999942779541,498900
2020-11-04,5.050000190734863,5.260000228881836,4.840000152587891,5.039999961853027,5.039999961853027,551600
2020-11-05,5.059999942779541,5.090000152587891,4.860000133514404,4.889999866485596,4.889999866485596,417200
2020-11-06,5.190000057220459,5.190000057220459,4.389999866485596,4.449999809265137,4.449999809265137,1275500
2020-11-09,4.170000076293945,4.28000020980835,3.5399999618530273,3.549999952316284,3.549999952316284,1395600
2020-11-10,3.700000047683716,3.799999952316284,3.4700000286102295,3.4800000190734863,3.4800000190734863,1556100
2020-11-11,3.5299999713897705,6.440000057220459,3.5299999713897705,5.039999961853027,5.039999961853027,36224500
2020-11-12,4.829999923706055,4.909999847412109,4.300000190734863,4.480000019073486,4.480000019073486,2057700
2020-11-13,4.5,4.880000114440918,4.420000076293945,4.53000020980835,4.53000020980835,525200
2020-11-16,4.46999979019165,4.590000152587891,4.320000171661377,4.579999923706055,4.579999923706055,534200
2020-11-17,4.53000020980835,4.650000095367432,4.460000038146973,4.46999979019165,4.46999979019165,326500
2020-11-18,4.460000038146973,4.570000171661377,4.25,4.300000190734863,4.300000190734863,426200
2020-11-19,4.309999942779541,4.860000133514404,4.210000038146973,4.690000057220459,4.690000057220459,670500
2020-11-20,4.710000038146973,5.099999904632568,4.579999923706055,4.909999847412109,4.909999847412109,670800
2020-11-23,5.130000114440918,5.679999828338623,5.019999980926514,5.25,5.25,2197700
2020-11-24,5.190000057220459,5.190000057220459,4.71999979019165,5.090000152587891,5.090000152587891,701000
2020-11-25,4.150000095367432,4.989999771118164,4.110000133514404,4.909999847412109,4.909999847412109,1783000
2020-11-27,4.880000114440918,5.03000020980835,4.829999923706055,4.920000076293945,4.920000076293945,442300
2020-11-30,5.039999961853027,5.380000114440918,4.829999923706055,5.199999809265137,5.199999809265137,1226200
2020-12-01,5.320000171661377,5.380000114440918,4.869999885559082,4.960000038146973,4.960000038146973,582900
2020-12-02,4.960000038146973,5.210000038146973,4.800000190734863,5.039999961853027,5.039999961853027,493300
2020-12-03,5.03000020980835,5.050000190734863,4.849999904632568,4.929999828338623,4.929999828338623,338600
2020-12-04,4.949999809265137,5.130000114440918,4.800000190734863,4.900000095367432,4.900000095367432,430700
2020-12-07,4.900000095367432,4.920000076293945,4.639999866485596,4.71999979019165,4.71999979019165,339800
2020-12-08,4.730000019073486,4.989999771118164,4.659999847412109,4.829999923706055,4.829999923706055,288300
2020-12-09,4.829999923706055,4.869999885559082,4.579999923706055,4.590000152587891,4.590000152587891,249400
2020-12-10,4.579999923706055,4.769999980926514,4.420000076293945,4.760000228881836,4.760000228881836,185700
2020-12-11,4.699999809265137,4.880000114440918,4.619999885559082,4.860000133514404,4.860000133514404,208200
2020-12-14,4.860000133514404,4.980000019073486,4.760000228881836,4.820000171661377,4.820000171661377,189300
2020-12-15,4.849999904632568,4.900000095367432,4.730000019073486,4.820000171661377,4.820000171661377,223600
2020-12-16,4.860000133514404,5.099999904632568,4.849999904632568,4.920000076293945,4.920000076293945,308800
2020-12-17,4.920000076293945,4.949999809265137,4.789999961853027,4.789999961853027,4.789999961853027,191500
2020-12-18,4.800000190734863,5.28000020980835,4.739999771118164,4.949999809265137,4.949999809265137,368700
2020-12-21,4.929999828338623,4.940000057220459,4.679999828338623,4.739999771118164,4.739999771118164,223100
2020-12-22,4.739999771118164,4.849999904632568,4.639999866485596,4.840000152587891,4.840000152587891,153500
2020-12-23,4.800000190734863,4.840000152587891,4.619999885559082,4.699999809265137,4.699999809265137,161700
2020-12-24,4.710000038146973,4.840000152587891,4.570000171661377,4.659999847412109,4.659999847412109,156000
2020-12-28,4.699999809265137,4.78000020980835,4.340000152587891,4.360000133514404,4.360000133514404,352500
2020-12-29,4.409999847412109,6.389999866485596,4.079999923706055,6.179999828338623,6.179999828338623,10817300
2020-12-30,5.71999979019165,5.730000019073486,4.78000020980835,5.440000057220459,5.440000057220459,3692900
