Date,Open,High,Low,Close,Adj Close,Volume
2020-07-23,9.960000038146973,10.010000228881836,9.949999809265137,10.0,10.0,10030900
2020-07-24,10.0,10.050000190734863,9.979999542236328,10.029999732971191,10.029999732971191,236600
2020-07-27,10.050000190734863,11.020000457763672,10.02299976348877,10.180000305175781,10.180000305175781,232900
2020-07-28,10.180000305175781,10.180000305175781,10.050000190734863,10.100000381469727,10.100000381469727,175100
2020-07-29,10.119999885559082,10.140000343322754,10.053999900817871,10.100000381469727,10.100000381469727,60800
2020-07-30,10.119999885559082,10.119999885559082,10.0,10.010000228881836,10.010000228881836,283200
2020-07-31,10.029999732971191,10.050000190734863,9.949999809265137,9.989999771118164,9.989999771118164,549200
2020-08-03,10.039999961853027,10.039999961853027,9.970000267028809,10.0,10.0,211600
2020-08-04,10.039999961853027,10.039999961853027,9.960000038146973,10.0,10.0,608200
2020-08-05,10.0,10.0,9.979999542236328,10.0,10.0,366100
2020-08-06,10.0,10.027000427246094,9.989999771118164,9.989999771118164,9.989999771118164,69300
2020-08-07,9.989999771118164,10.010000228881836,9.979999542236328,9.993000030517578,9.993000030517578,17100
2020-08-10,10.050000190734863,10.050000190734863,9.989999771118164,10.029999732971191,10.029999732971191,32900
2020-08-11,10.01099967956543,10.039999961853027,10.010000228881836,10.010000228881836,10.010000228881836,5400
2020-08-12,10.010000228881836,10.029999732971191,9.90999984741211,9.970000267028809,9.970000267028809,139200
2020-08-13,9.994000434875488,10.050000190734863,9.994000434875488,10.015000343322754,10.015000343322754,68100
2020-08-14,9.984999656677246,9.989999771118164,9.984999656677246,9.984999656677246,9.984999656677246,2900
2020-08-17,10.029999732971191,10.029999732971191,10.0,10.0,10.0,44600
2020-08-18,9.994000434875488,10.008999824523926,9.984999656677246,9.987000465393066,9.987000465393066,320200
2020-08-19,9.979999542236328,10.0,9.970000267028809,9.989999771118164,9.989999771118164,11000
2020-08-20,9.979999542236328,9.979999542236328,9.949999809265137,9.979999542236328,9.979999542236328,21700
2020-08-21,9.958000183105469,9.975000381469727,9.949999809265137,9.970999717712402,9.970999717712402,4500
2020-08-24,9.960000038146973,9.960000038146973,9.9399995803833,9.95199966430664,9.95199966430664,71800
2020-08-25,9.968000411987305,9.970000267028809,9.932000160217285,9.949999809265137,9.949999809265137,11500
2020-08-26,9.949999809265137,9.979999542236328,9.949999809265137,9.961000442504883,9.961000442504883,8200
2020-08-27,9.968000411987305,9.968000411987305,9.9399995803833,9.9399995803833,9.9399995803833,11900
2020-08-28,9.970000267028809,9.970000267028809,9.897000312805176,9.897000312805176,9.897000312805176,44600
2020-08-31,9.960000038146973,9.960000038146973,9.869999885559082,9.89900016784668,9.89900016784668,82500
2020-09-01,9.899999618530273,9.913999557495117,9.859999656677246,9.90999984741211,9.90999984741211,102500
2020-09-02,9.890000343322754,9.930000305175781,9.890000343322754,9.930000305175781,9.930000305175781,4000
2020-09-03,9.925000190734863,9.96500015258789,9.869999885559082,9.930000305175781,9.930000305175781,21700
2020-09-04,9.979999542236328,10.0,9.920000076293945,9.920000076293945,9.920000076293945,12700
2020-09-08,9.949999809265137,9.989999771118164,9.930000305175781,9.989999771118164,9.989999771118164,43300
2020-09-09,9.979999542236328,10.0,9.949999809265137,9.960000038146973,9.960000038146973,62300
2020-09-10,10.0,10.0,9.90999984741211,9.90999984741211,9.90999984741211,85300
2020-09-11,9.940999984741211,10.0,9.914999961853027,9.949999809265137,9.949999809265137,546100
2020-09-14,9.970000267028809,10.010000228881836,9.949999809265137,10.0,10.0,493600
2020-09-15,10.0,10.09000015258789,10.0,10.029999732971191,10.029999732971191,329500
2020-09-16,10.020000457763672,10.149999618530273,10.020000457763672,10.09000015258789,10.09000015258789,526300
2020-09-17,10.100000381469727,10.119999885559082,10.050000190734863,10.069999694824219,10.069999694824219,820200
2020-09-18,10.199999809265137,10.199999809265137,10.020000457763672,10.050000190734863,10.050000190734863,141200
2020-09-21,10.050000190734863,10.149999618530273,10.050000190734863,10.109999656677246,10.109999656677246,399200
2020-09-22,10.130000114440918,10.130000114440918,10.050000190734863,10.100000381469727,10.100000381469727,14700
2020-09-23,10.069999694824219,10.069999694824219,10.020000457763672,10.0600004196167,10.0600004196167,18500
2020-09-24,10.0649995803833,10.069999694824219,10.020000457763672,10.0600004196167,10.0600004196167,16500
2020-09-25,9.960000038146973,10.149999618530273,9.960000038146973,10.109999656677246,10.109999656677246,6100
2020-09-28,10.039999961853027,10.25,10.039999961853027,10.069999694824219,10.069999694824219,11700
2020-09-29,10.149999618530273,10.149999618530273,10.069999694824219,10.069999694824219,10.069999694824219,10700
2020-09-30,10.119999885559082,10.149999618530273,10.09000015258789,10.09000015258789,10.09000015258789,5500
2020-10-01,10.149999618530273,10.149999618530273,10.0,10.0,10.0,218600
2020-10-02,10.0,10.0600004196167,9.975000381469727,9.994999885559082,9.994999885559082,672600
2020-10-05,10.0,10.0600004196167,9.979999542236328,10.0,10.0,18600
2020-10-06,10.039999961853027,10.09000015258789,10.0,10.010000228881836,10.010000228881836,43400
2020-10-07,10.029999732971191,10.029999732971191,9.970000267028809,9.970000267028809,9.970000267028809,1500
2020-10-08,10.050000190734863,10.050000190734863,9.993000030517578,9.993000030517578,9.993000030517578,2000
2020-10-09,10.039999961853027,10.050000190734863,10.015000343322754,10.020000457763672,10.020000457763672,3600
2020-10-12,10.0,10.034000396728516,9.949999809265137,10.034000396728516,10.034000396728516,7600
2020-10-13,9.949999809265137,10.029999732971191,9.949999809265137,10.0,10.0,6400
2020-10-14,10.050000190734863,10.050000190734863,9.989999771118164,9.989999771118164,9.989999771118164,2200
2020-10-15,9.989999771118164,10.008000373840332,9.979999542236328,9.979999542236328,9.979999542236328,6800
2020-10-16,9.970000267028809,10.050000190734863,9.970000267028809,10.050000190734863,10.050000190734863,800
2020-10-19,10.039999961853027,10.100000381469727,10.039999961853027,10.053000450134277,10.053000450134277,2300
2020-10-20,10.100000381469727,10.100000381469727,10.050000190734863,10.050000190734863,10.050000190734863,300
2020-10-21,9.989999771118164,10.09000015258789,9.989999771118164,10.067000389099121,10.067000389099121,1100
2020-10-22,9.949999809265137,10.079999923706055,9.949999809265137,10.079999923706055,10.079999923706055,28500
2020-10-23,10.039999961853027,10.079999923706055,9.949999809265137,10.0,10.0,33500
2020-10-26,9.979999542236328,9.979999542236328,9.930000305175781,9.979999542236328,9.979999542236328,57900
2020-10-27,9.960000038146973,9.970999717712402,9.9399995803833,9.960000038146973,9.960000038146973,23200
2020-10-28,9.930000305175781,9.970000267028809,9.890000343322754,9.930000305175781,9.930000305175781,419100
2020-10-29,9.9399995803833,9.979999542236328,9.9399995803833,9.9399995803833,9.9399995803833,11600
2020-10-30,9.930000305175781,9.954999923706055,9.930000305175781,9.9399995803833,9.9399995803833,30400
2020-11-02,9.9399995803833,9.96500015258789,9.920000076293945,9.920000076293945,9.920000076293945,25400
2020-11-03,9.90999984741211,9.954999923706055,9.90999984741211,9.920000076293945,9.920000076293945,11000
2020-11-04,9.899999618530273,9.944999694824219,9.899999618530273,9.90999984741211,9.90999984741211,16500
2020-11-05,9.944999694824219,9.949999809265137,9.90999984741211,9.90999984741211,9.90999984741211,10700
2020-11-06,9.949999809265137,9.989999771118164,9.946999549865723,9.960000038146973,9.960000038146973,20400
2020-11-09,9.975000381469727,10.0,9.951000213623047,9.960000038146973,9.960000038146973,2300
2020-11-10,9.982999801635742,10.0,9.982999801635742,10.0,10.0,700
2020-11-11,9.989999771118164,10.043000221252441,9.970000267028809,10.0,10.0,6200
2020-11-12,9.989999771118164,9.994000434875488,9.90999984741211,9.949999809265137,9.949999809265137,3300
2020-11-13,9.975000381469727,10.0,9.970000267028809,9.970000267028809,9.970000267028809,2300
2020-11-16,9.934000015258789,9.970000267028809,9.920000076293945,9.970000267028809,9.970000267028809,5800
2020-11-17,9.9350004196167,9.984999656677246,9.9350004196167,9.984999656677246,9.984999656677246,1800
2020-11-18,9.949999809265137,10.0,9.949999809265137,10.0,10.0,4200
2020-11-19,10.0,10.024999618530273,10.0,10.0,10.0,12200
2020-11-20,10.0,10.024999618530273,10.0,10.024999618530273,10.024999618530273,10800
2020-11-23,10.019000053405762,10.25,10.019000053405762,10.119999885559082,10.119999885559082,23400
2020-11-24,10.079999923706055,10.199999809265137,9.979999542236328,10.010000228881836,10.010000228881836,56000
2020-11-25,10.03499984741211,10.048999786376953,10.010000228881836,10.048999786376953,10.048999786376953,9500
2020-11-27,10.149999618530273,10.180000305175781,10.130000114440918,10.180000305175781,10.180000305175781,4000
2020-11-30,10.180000305175781,10.199999809265137,10.100000381469727,10.100000381469727,10.100000381469727,10700
2020-12-01,10.050000190734863,10.116999626159668,10.050000190734863,10.050000190734863,10.050000190734863,23900
2020-12-02,10.081999778747559,10.170000076293945,9.989999771118164,10.145000457763672,10.145000457763672,46500
2020-12-03,10.180000305175781,10.187000274658203,10.140000343322754,10.180000305175781,10.180000305175781,42100
2020-12-04,10.180000305175781,10.288999557495117,10.180000305175781,10.220000267028809,10.220000267028809,83300
2020-12-07,10.279999732971191,10.345000267028809,10.22599983215332,10.319999694824219,10.319999694824219,55100
2020-12-08,10.350000381469727,10.350000381469727,10.25,10.25,10.25,13100
2020-12-09,10.390000343322754,10.399999618530273,10.260000228881836,10.364999771118164,10.364999771118164,10300
2020-12-10,10.289999961853027,10.399999618530273,10.260000228881836,10.279999732971191,10.279999732971191,7300
2020-12-11,10.399999618530273,10.9350004196167,10.359999656677246,10.359999656677246,10.359999656677246,14800
2020-12-14,10.399999618530273,10.5,10.300000190734863,10.380000114440918,10.380000114440918,53900
2020-12-15,10.399999618530273,10.59000015258789,10.390000343322754,10.399999618530273,10.399999618530273,17600
2020-12-16,10.390000343322754,10.399999618530273,10.350000381469727,10.399999618530273,10.399999618530273,16000
2020-12-17,10.289999961853027,10.399999618530273,10.1899995803833,10.329999923706055,10.329999923706055,32800
2020-12-18,10.34000015258789,10.517999649047852,10.34000015258789,10.359999656677246,10.359999656677246,30400
2020-12-21,10.539999961853027,10.539999961853027,10.270000457763672,10.375,10.375,9900
2020-12-22,10.479999542236328,10.5,10.350000381469727,10.430000305175781,10.430000305175781,611600
2020-12-23,10.4399995803833,10.484999656677246,10.300000190734863,10.380000114440918,10.380000114440918,24600
2020-12-24,10.520000457763672,10.520000457763672,10.420000076293945,10.470000267028809,10.470000267028809,2400
2020-12-28,10.470000267028809,10.770000457763672,10.25,10.274999618530273,10.274999618530273,99400
2020-12-29,10.6899995803833,10.699999809265137,10.579999923706055,10.609999656677246,10.609999656677246,67400
2020-12-30,10.640000343322754,10.75,10.625,10.670000076293945,10.670000076293945,151200
