Date,Open,High,Low,Close,Adj Close,Volume
2018-09-26,13.449999809265137,13.699999809265137,10.600000381469727,10.65999984741211,10.65999984741211,2411100
2018-09-27,10.550000190734863,11.140000343322754,9.449999809265137,10.0,10.0,358700
2018-09-28,9.970000267028809,11.0,9.5,10.880000114440918,10.880000114440918,201300
2018-10-01,10.859999656677246,11.369999885559082,9.989999771118164,10.0,10.0,67100
2018-10-02,10.0,10.289999961853027,9.399999618530273,9.520000457763672,9.520000457763672,165300
2018-10-03,9.699999809265137,10.239999771118164,8.75,8.970000267028809,8.970000267028809,104200
2018-10-04,8.960000038146973,9.300000190734863,8.3100004196167,8.329999923706055,8.329999923706055,218100
2018-10-05,8.289999961853027,8.5,7.409999847412109,8.010000228881836,8.010000228881836,232500
2018-10-08,8.149999618530273,8.65999984741211,8.0,8.329999923706055,8.329999923706055,128500
2018-10-09,8.119999885559082,8.630000114440918,8.100000381469727,8.630000114440918,8.630000114440918,71100
2018-10-10,8.5600004196167,8.84000015258789,8.050000190734863,8.550000190734863,8.550000190734863,122500
2018-10-11,8.529999732971191,8.539999961853027,8.0600004196167,8.270000457763672,8.270000457763672,56900
2018-10-12,8.520000457763672,8.739999771118164,7.639999866485596,8.670000076293945,8.670000076293945,83900
2018-10-15,8.720000267028809,8.720000267028809,8.0600004196167,8.40999984741211,8.40999984741211,33800
2018-10-16,8.399999618530273,8.699999809265137,8.199999809265137,8.319999694824219,8.319999694824219,40600
2018-10-17,8.15999984741211,8.34000015258789,7.78000020980835,7.829999923706055,7.829999923706055,46500
2018-10-18,7.75,7.96999979019165,6.550000190734863,7.440000057220459,7.440000057220459,54800
2018-10-19,7.800000190734863,7.800000190734863,7.059999942779541,7.440000057220459,7.440000057220459,33800
2018-10-22,7.289999961853027,7.550000190734863,6.869999885559082,7.320000171661377,7.320000171661377,55200
2018-10-23,7.360000133514404,7.360000133514404,6.880000114440918,6.920000076293945,6.920000076293945,39800
2018-10-24,7.0,7.440000057220459,6.539999961853027,6.610000133514404,6.610000133514404,52000
2018-10-25,6.610000133514404,7.059999942779541,6.360000133514404,6.380000114440918,6.380000114440918,70200
2018-10-26,6.300000190734863,6.449999809265137,5.710000038146973,6.039999961853027,6.039999961853027,171600
2018-10-29,6.039999961853027,6.409999847412109,5.710000038146973,5.829999923706055,5.829999923706055,175900
2018-10-30,5.789999961853027,6.039999961853027,5.710000038146973,5.75,5.75,23200
2018-10-31,6.289999961853027,6.289999961853027,5.78000020980835,6.110000133514404,6.110000133514404,50400
2018-11-01,6.090000152587891,6.880000114440918,6.050000190734863,6.599999904632568,6.599999904632568,51000
2018-11-02,6.579999923706055,6.840000152587891,6.079999923706055,6.800000190734863,6.800000190734863,31100
2018-11-05,6.630000114440918,7.159999847412109,6.21999979019165,6.21999979019165,6.21999979019165,60700
2018-11-06,6.199999809265137,6.619999885559082,6.0,6.110000133514404,6.110000133514404,26400
2018-11-07,6.099999904632568,6.599999904632568,6.010000228881836,6.409999847412109,6.409999847412109,31600
2018-11-08,6.46999979019165,6.96999979019165,6.210000038146973,6.28000020980835,6.28000020980835,42200
2018-11-09,6.349999904632568,6.5,6.210000038146973,6.5,6.5,32900
2018-11-12,6.440000057220459,6.519999980926514,6.199999809265137,6.199999809265137,6.199999809265137,15000
2018-11-13,6.329999923706055,6.559999942779541,6.050000190734863,6.230000019073486,6.230000019073486,25600
2018-11-14,6.260000228881836,6.5,6.059999942779541,6.179999828338623,6.179999828338623,12000
2018-11-15,6.099999904632568,6.489999771118164,6.099999904632568,6.340000152587891,6.340000152587891,17700
2018-11-16,6.179999828338623,6.349999904632568,6.179999828338623,6.25,6.25,7900
2018-11-19,6.239999771118164,6.369999885559082,6.230000019073486,6.230000019073486,6.230000019073486,6700
2018-11-20,6.230000019073486,6.5,6.0,6.099999904632568,6.099999904632568,33400
2018-11-21,6.150000095367432,6.449999809265137,6.019999980926514,6.380000114440918,6.380000114440918,53400
2018-11-23,6.360000133514404,6.75,6.110000133514404,6.710000038146973,6.710000038146973,25700
2018-11-26,6.75,6.75,6.210000038146973,6.400000095367432,6.400000095367432,41900
2018-11-27,6.329999923706055,6.710000038146973,6.199999809265137,6.210000038146973,6.210000038146973,57500
2018-11-28,6.210000038146973,6.329999923706055,5.800000190734863,5.889999866485596,5.889999866485596,53200
2018-11-29,5.949999809265137,5.989999771118164,5.900000095367432,5.980000019073486,5.980000019073486,18200
2018-11-30,6.170000076293945,6.349999904632568,6.0,6.139999866485596,6.139999866485596,17000
2018-12-03,6.260000228881836,6.320000171661377,5.849999904632568,6.0,6.0,24300
2018-12-04,6.0,6.199999809265137,5.849999904632568,6.099999904632568,6.099999904632568,17500
2018-12-06,6.070000171661377,6.179999828338623,5.800000190734863,6.050000190734863,6.050000190734863,61300
2018-12-07,6.090000152587891,6.090000152587891,5.869999885559082,5.980000019073486,5.980000019073486,16100
2018-12-10,5.989999771118164,6.039999961853027,5.889999866485596,5.949999809265137,5.949999809265137,18800
2018-12-11,6.070000171661377,6.070000171661377,5.75,5.949999809265137,5.949999809265137,32200
2018-12-12,5.940000057220459,6.369999885559082,5.940000057220459,6.179999828338623,6.179999828338623,26700
2018-12-13,6.179999828338623,6.300000190734863,5.880000114440918,6.260000228881836,6.260000228881836,19400
2018-12-14,6.159999847412109,6.190000057220459,5.869999885559082,6.190000057220459,6.190000057220459,9700
2018-12-17,6.190000057220459,6.25,5.900000095367432,6.050000190734863,6.050000190734863,63300
2018-12-18,6.090000152587891,6.25,5.599999904632568,5.840000152587891,5.840000152587891,97100
2018-12-19,5.650000095367432,5.829999923706055,5.360000133514404,5.510000228881836,5.510000228881836,134000
2018-12-20,5.510000228881836,5.75,5.349999904632568,5.739999771118164,5.739999771118164,40300
2018-12-21,5.650000095367432,5.670000076293945,5.010000228881836,5.090000152587891,5.090000152587891,106000
2018-12-24,5.010000228881836,5.090000152587891,4.739999771118164,4.769999980926514,4.769999980926514,18800
2018-12-26,4.809999942779541,4.809999942779541,4.260000228881836,4.489999771118164,4.489999771118164,46700
2018-12-27,4.400000095367432,4.800000190734863,4.400000095367432,4.550000190734863,4.550000190734863,36700
2018-12-28,4.75,4.869999885559082,4.260000228881836,4.329999923706055,4.329999923706055,168100
2018-12-31,4.25,4.400000095367432,4.019999980926514,4.070000171661377,4.070000171661377,122300
2019-01-02,3.990000009536743,4.550000190734863,3.9700000286102295,4.510000228881836,4.510000228881836,14700
2019-01-03,4.5,4.5,4.25,4.440000057220459,4.440000057220459,18400
2019-01-04,4.579999923706055,4.929999828338623,4.579999923706055,4.650000095367432,4.650000095367432,41500
2019-01-07,4.590000152587891,5.0,4.5,4.900000095367432,4.900000095367432,17300
2019-01-08,5.019999980926514,5.420000076293945,5.0,5.389999866485596,5.389999866485596,35400
2019-01-09,5.389999866485596,5.610000133514404,5.019999980926514,5.599999904632568,5.599999904632568,2400
2019-01-10,5.210000038146973,5.650000095367432,4.949999809265137,5.449999809265137,5.449999809265137,5200
2019-01-11,5.349999904632568,5.400000095367432,5.010000228881836,5.010000228881836,5.010000228881836,7700
2019-01-14,5.050000190734863,5.050000190734863,5.050000190734863,5.050000190734863,5.050000190734863,3100
2019-01-15,5.21999979019165,5.650000095367432,5.21999979019165,5.440000057220459,5.440000057220459,6700
2019-01-16,5.5,5.639999866485596,5.340000152587891,5.510000228881836,5.510000228881836,9300
2019-01-17,5.5,5.789999961853027,5.0,5.710000038146973,5.710000038146973,12100
2019-01-18,5.800000190734863,5.849999904632568,4.820000171661377,5.659999847412109,5.659999847412109,11700
2019-01-22,5.579999923706055,5.579999923706055,5.0,5.0,5.0,20400
2019-01-23,5.0,5.400000095367432,5.0,5.0,5.0,10100
2019-01-24,5.480000019073486,5.480000019073486,5.099999904632568,5.340000152587891,5.340000152587891,3400
2019-01-25,5.340000152587891,5.699999809265137,5.340000152587891,5.659999847412109,5.659999847412109,4200
2019-01-28,5.610000133514404,5.699999809265137,5.300000190734863,5.570000171661377,5.570000171661377,2200
2019-01-29,5.480000019073486,5.480000019073486,5.199999809265137,5.429999828338623,5.429999828338623,2500
2019-01-30,5.199999809265137,5.369999885559082,4.789999961853027,5.199999809265137,5.199999809265137,14500
2019-01-31,5.059999942779541,5.269999980926514,5.059999942779541,5.260000228881836,5.260000228881836,5200
2019-02-01,5.409999847412109,5.409999847412109,4.900000095367432,4.900000095367432,4.900000095367432,4700
2019-02-04,5.0,5.5,5.0,5.380000114440918,5.380000114440918,3100
2019-02-05,5.849999904632568,5.949999809265137,5.420000076293945,5.809999942779541,5.809999942779541,37300
2019-02-06,5.849999904632568,6.349999904632568,5.5,5.800000190734863,5.800000190734863,18600
2019-02-07,6.070000171661377,6.070000171661377,5.71999979019165,5.71999979019165,5.71999979019165,20700
2019-02-08,5.809999942779541,6.230000019073486,5.809999942779541,6.230000019073486,6.230000019073486,19900
2019-02-11,6.329999923706055,7.21999979019165,6.25,7.019999980926514,7.019999980926514,52500
2019-02-12,7.400000095367432,7.5,6.900000095367432,7.150000095367432,7.150000095367432,39700
2019-02-13,7.360000133514404,7.360000133514404,7.050000190734863,7.050000190734863,7.050000190734863,5200
2019-02-14,7.46999979019165,7.46999979019165,6.610000133514404,6.699999809265137,6.699999809265137,26400
2019-02-15,6.699999809265137,6.699999809265137,6.5,6.5,6.5,6200
2019-02-19,6.5,6.5,6.0,6.0,6.0,13300
2019-02-20,5.949999809265137,6.039999961853027,5.670000076293945,5.670000076293945,5.670000076293945,4900
2019-02-21,5.849999904632568,5.880000114440918,5.820000171661377,5.820000171661377,5.820000171661377,4600
2019-02-22,6.03000020980835,6.03000020980835,5.78000020980835,5.789999961853027,5.789999961853027,3700
2019-02-25,5.889999866485596,5.96999979019165,5.699999809265137,5.75,5.75,10000
2019-02-26,5.789999961853027,6.079999923706055,5.340000152587891,5.380000114440918,5.380000114440918,14000
2019-02-27,5.449999809265137,5.929999828338623,5.400000095367432,5.849999904632568,5.849999904632568,5000
2019-02-28,5.849999904632568,5.989999771118164,5.800000190734863,5.800000190734863,5.800000190734863,6100
2019-03-01,5.949999809265137,6.289999961853027,5.829999923706055,5.829999923706055,5.829999923706055,9100
2019-03-04,6.340000152587891,6.380000114440918,6.139999866485596,6.320000171661377,6.320000171661377,2900
2019-03-05,5.960000038146973,5.960000038146973,5.960000038146973,5.960000038146973,5.960000038146973,300
2019-03-06,6.190000057220459,6.369999885559082,6.179999828338623,6.360000133514404,6.360000133514404,4500
2019-03-07,6.25,7.199999809265137,6.25,6.929999828338623,6.929999828338623,35000
2019-03-08,7.03000020980835,7.03000020980835,6.789999961853027,6.880000114440918,6.880000114440918,4100
2019-03-11,7.050000190734863,7.050000190734863,6.710000038146973,6.71999979019165,6.71999979019165,3300
2019-03-12,6.710000038146973,7.099999904632568,6.710000038146973,7.099999904632568,7.099999904632568,2300
2019-03-13,7.079999923706055,7.099999904632568,6.900000095367432,6.989999771118164,6.989999771118164,5500
2019-03-14,7.03000020980835,7.03000020980835,6.699999809265137,6.800000190734863,6.800000190734863,1800
2019-03-15,6.949999809265137,7.0,6.949999809265137,7.0,7.0,3600
2019-03-18,7.0,7.050000190734863,7.0,7.050000190734863,7.050000190734863,1800
2019-03-19,7.070000171661377,7.079999923706055,6.949999809265137,6.980000019073486,6.980000019073486,7500
2019-03-20,7.0,7.010000228881836,6.900000095367432,6.96999979019165,6.96999979019165,2300
2019-03-21,7.039999961853027,7.039999961853027,6.960000038146973,6.960000038146973,6.960000038146973,1300
2019-03-22,6.909999847412109,6.929999828338623,6.699999809265137,6.71999979019165,6.71999979019165,9500
2019-03-25,6.619999885559082,6.989999771118164,6.559999942779541,6.559999942779541,6.559999942779541,3700
2019-03-26,6.920000076293945,6.920000076293945,6.920000076293945,6.920000076293945,6.920000076293945,200
2019-03-27,6.949999809265137,6.949999809265137,6.900000095367432,6.900000095367432,6.900000095367432,700
2019-03-28,7.070000171661377,7.070000171661377,6.599999904632568,6.639999866485596,6.639999866485596,2200
2019-03-29,6.929999828338623,6.929999828338623,6.510000228881836,6.760000228881836,6.760000228881836,4000
2019-04-01,7.0,7.070000171661377,6.269999980926514,6.460000038146973,6.460000038146973,10400
2019-04-02,6.610000133514404,6.800000190734863,6.400000095367432,6.449999809265137,6.449999809265137,15400
2019-04-03,6.75,6.909999847412109,6.75,6.769999980926514,6.769999980926514,1900
2019-04-04,6.599999904632568,6.929999828338623,6.5,6.559999942779541,6.559999942779541,11800
2019-04-05,6.510000228881836,6.980000019073486,6.5,6.670000076293945,6.670000076293945,6700
2019-04-08,6.78000020980835,6.78000020980835,6.5,6.690000057220459,6.690000057220459,5200
2019-04-09,6.730000019073486,6.730000019073486,6.5,6.610000133514404,6.610000133514404,3900
2019-04-10,6.650000095367432,6.699999809265137,6.5,6.5,6.5,20200
2019-04-11,6.5,6.550000190734863,6.449999809265137,6.449999809265137,6.449999809265137,5400
2019-04-12,6.480000019073486,6.630000114440918,6.460000038146973,6.480000019073486,6.480000019073486,1800
2019-04-15,6.449999809265137,6.460000038146973,6.440000057220459,6.460000038146973,6.460000038146973,5400
2019-04-16,6.420000076293945,6.449999809265137,6.300000190734863,6.380000114440918,6.380000114440918,6200
2019-04-17,6.329999923706055,6.389999866485596,6.329999923706055,6.360000133514404,6.360000133514404,1900
2019-04-18,6.300000190734863,6.369999885559082,5.409999847412109,5.5,5.5,28800
2019-04-22,5.690000057220459,6.099999904632568,5.559999942779541,5.980000019073486,5.980000019073486,56100
2019-04-23,5.920000076293945,6.639999866485596,5.920000076293945,6.480000019073486,6.480000019073486,90200
2019-04-24,6.320000171661377,6.619999885559082,6.320000171661377,6.449999809265137,6.449999809265137,5100
2019-04-25,6.5,6.519999980926514,6.320000171661377,6.5,6.5,11200
2019-04-26,6.550000190734863,6.900000095367432,6.400000095367432,6.900000095367432,6.900000095367432,16300
2019-04-29,6.809999942779541,7.099999904632568,6.5,6.880000114440918,6.880000114440918,29800
2019-04-30,6.800000190734863,6.980000019073486,6.800000190734863,6.880000114440918,6.880000114440918,3800
2019-05-01,6.639999866485596,6.96999979019165,6.119999885559082,6.630000114440918,6.630000114440918,31800
2019-05-02,6.730000019073486,6.960000038146973,6.730000019073486,6.880000114440918,6.880000114440918,1800
2019-05-03,6.78000020980835,6.900000095367432,6.639999866485596,6.739999771118164,6.739999771118164,19200
2019-05-06,6.760000228881836,6.789999961853027,6.730000019073486,6.789999961853027,6.789999961853027,1100
2019-05-07,6.630000114440918,7.0,6.5,7.0,7.0,5100
2019-05-08,6.860000133514404,6.889999866485596,6.599999904632568,6.75,6.75,1500
2019-05-09,6.659999847412109,6.769999980926514,6.190000057220459,6.769999980926514,6.769999980926514,45000
2019-05-10,6.690000057220459,6.690000057220459,6.679999828338623,6.679999828338623,6.679999828338623,900
2019-05-13,6.019999980926514,6.860000133514404,6.019999980926514,6.860000133514404,6.860000133514404,800
2019-05-14,6.800000190734863,6.900000095367432,6.679999828338623,6.889999866485596,6.889999866485596,24900
2019-05-15,6.559999942779541,6.789999961853027,6.559999942779541,6.789999961853027,6.789999961853027,900
2019-05-16,6.789999961853027,6.900000095367432,6.110000133514404,6.699999809265137,6.699999809265137,10000
2019-05-17,6.699999809265137,6.71999979019165,6.289999961853027,6.639999866485596,6.639999866485596,2900
2019-05-20,6.510000228881836,6.510000228881836,6.25,6.449999809265137,6.449999809265137,2900
2019-05-21,6.25,6.420000076293945,6.090000152587891,6.320000171661377,6.320000171661377,4300
2019-05-22,6.730000019073486,6.730000019073486,6.46999979019165,6.480000019073486,6.480000019073486,700
2019-05-23,6.21999979019165,6.25,6.059999942779541,6.25,6.25,3700
2019-05-24,6.449999809265137,6.449999809265137,6.159999847412109,6.340000152587891,6.340000152587891,3100
2019-05-28,6.28000020980835,6.309999942779541,6.25,6.25,6.25,8400
2019-05-29,6.130000114440918,6.210000038146973,6.099999904632568,6.210000038146973,6.210000038146973,500
2019-05-30,6.110000133514404,6.179999828338623,6.079999923706055,6.110000133514404,6.110000133514404,12700
2019-05-31,6.03000020980835,6.190000057220459,5.980000019073486,6.150000095367432,6.150000095367432,15300
2019-06-03,5.980000019073486,6.420000076293945,5.980000019073486,6.239999771118164,6.239999771118164,33700
2019-06-04,5.690000057220459,6.239999771118164,5.690000057220459,6.150000095367432,6.150000095367432,4300
2019-06-05,6.239999771118164,6.239999771118164,6.019999980926514,6.150000095367432,6.150000095367432,6200
2019-06-06,6.090000152587891,6.119999885559082,6.090000152587891,6.119999885559082,6.119999885559082,800
2019-06-07,6.059999942779541,6.159999847412109,6.059999942779541,6.159999847412109,6.159999847412109,4300
2019-06-10,6.079999923706055,6.559999942779541,6.079999923706055,6.5,6.5,21900
2019-06-11,6.269999980926514,6.389999866485596,6.25,6.25,6.25,7100
2019-06-12,6.179999828338623,6.519999980926514,6.179999828338623,6.429999828338623,6.429999828338623,2200
2019-06-13,6.449999809265137,6.449999809265137,6.130000114440918,6.25,6.25,9400
2019-06-14,6.130000114440918,6.289999961853027,6.079999923706055,6.269999980926514,6.269999980926514,8200
2019-06-17,6.079999923706055,6.300000190734863,6.019999980926514,6.019999980926514,6.019999980926514,6100
2019-06-18,6.349999904632568,6.380000114440918,6.190000057220459,6.190000057220459,6.190000057220459,900
2019-06-19,6.059999942779541,6.25,6.059999942779541,6.119999885559082,6.119999885559082,15500
2019-06-20,6.25,6.25,5.960000038146973,6.0,6.0,12200
2019-06-21,6.150000095367432,6.300000190734863,5.989999771118164,6.070000171661377,6.070000171661377,9400
2019-06-24,6.150000095367432,6.269999980926514,5.949999809265137,6.019999980926514,6.019999980926514,6900
2019-06-25,6.050000190734863,6.320000171661377,6.050000190734863,6.170000076293945,6.170000076293945,15100
2019-06-26,6.110000133514404,6.369999885559082,6.0,6.03000020980835,6.03000020980835,8900
2019-06-27,6.099999904632568,6.380000114440918,6.099999904632568,6.369999885559082,6.369999885559082,4600
2019-06-28,6.090000152587891,6.449999809265137,6.070000171661377,6.449999809265137,6.449999809265137,11300
2019-07-01,6.239999771118164,6.449999809265137,6.230000019073486,6.449999809265137,6.449999809265137,1500
2019-07-02,6.329999923706055,6.409999847412109,6.130000114440918,6.400000095367432,6.400000095367432,5900
2019-07-03,6.119999885559082,6.400000095367432,6.119999885559082,6.380000114440918,6.380000114440918,600
2019-07-05,6.110000133514404,6.400000095367432,6.110000133514404,6.400000095367432,6.400000095367432,900
2019-07-08,6.449999809265137,6.449999809265137,6.289999961853027,6.349999904632568,6.349999904632568,5900
2019-07-09,6.349999904632568,6.449999809265137,6.320000171661377,6.449999809265137,6.449999809265137,4900
2019-07-10,6.380000114440918,6.400000095367432,6.329999923706055,6.329999923706055,6.329999923706055,3600
2019-07-11,6.389999866485596,6.389999866485596,6.349999904632568,6.349999904632568,6.349999904632568,1400
2019-07-12,6.449999809265137,6.449999809265137,6.320000171661377,6.320000171661377,6.320000171661377,1800
2019-07-15,6.309999942779541,6.449999809265137,6.309999942779541,6.400000095367432,6.400000095367432,7000
2019-07-16,6.389999866485596,6.429999828338623,6.340000152587891,6.429999828338623,6.429999828338623,20900
2019-07-17,6.429999828338623,6.429999828338623,6.429999828338623,6.429999828338623,6.429999828338623,200
2019-07-18,6.349999904632568,6.349999904632568,6.260000228881836,6.260000228881836,6.260000228881836,6000
2019-07-19,6.25,6.329999923706055,6.25,6.300000190734863,6.300000190734863,5200
2019-07-22,6.349999904632568,6.380000114440918,6.320000171661377,6.380000114440918,6.380000114440918,900
2019-07-23,6.28000020980835,6.300000190734863,6.21999979019165,6.289999961853027,6.289999961853027,7100
2019-07-24,6.239999771118164,6.369999885559082,6.159999847412109,6.369999885559082,6.369999885559082,7500
2019-07-25,6.420000076293945,6.440000057220459,6.349999904632568,6.440000057220459,6.440000057220459,10900
2019-07-26,6.429999828338623,6.449999809265137,6.320000171661377,6.400000095367432,6.400000095367432,17600
2019-07-29,6.389999866485596,6.389999866485596,6.380000114440918,6.380000114440918,6.380000114440918,1900
2019-07-30,6.440000057220459,6.449999809265137,6.409999847412109,6.449999809265137,6.449999809265137,1000
2019-07-31,6.380000114440918,6.829999923706055,6.380000114440918,6.550000190734863,6.550000190734863,13900
2019-08-01,6.579999923706055,6.75,6.570000171661377,6.630000114440918,6.630000114440918,7500
2019-08-02,6.400000095367432,6.550000190734863,6.369999885559082,6.46999979019165,6.46999979019165,11500
2019-08-05,6.46999979019165,6.699999809265137,6.25,6.440000057220459,6.440000057220459,9800
2019-08-06,6.599999904632568,6.800000190734863,6.309999942779541,6.739999771118164,6.739999771118164,47300
2019-08-07,6.5,6.800000190734863,6.5,6.800000190734863,6.800000190734863,4000
2019-08-08,6.829999923706055,7.0,6.389999866485596,6.789999961853027,6.789999961853027,36900
2019-08-09,6.699999809265137,6.989999771118164,6.550000190734863,6.989999771118164,6.989999771118164,20800
2019-08-12,6.659999847412109,7.0,6.659999847412109,7.0,7.0,14300
2019-08-13,6.820000171661377,7.760000228881836,6.46999979019165,7.199999809265137,7.199999809265137,44200
2019-08-14,7.0,7.449999809265137,6.949999809265137,7.25,7.25,8100
2019-08-15,7.269999980926514,7.699999809265137,7.059999942779541,7.449999809265137,7.449999809265137,37800
2019-08-16,7.699999809265137,8.25,7.489999771118164,8.25,8.25,17200
2019-08-19,9.0600004196167,9.25,8.399999618530273,8.399999618530273,8.399999618530273,42500
2019-08-20,8.470000267028809,8.470000267028809,7.909999847412109,8.420000076293945,8.420000076293945,8800
2019-08-21,8.430000305175781,8.4399995803833,7.800000190734863,8.329999923706055,8.329999923706055,11800
2019-08-22,7.909999847412109,8.390000343322754,7.900000095367432,8.300000190734863,8.300000190734863,9300
2019-08-23,8.329999923706055,8.470000267028809,8.119999885559082,8.470000267028809,8.470000267028809,6100
2019-08-26,8.279999732971191,8.279999732971191,7.28000020980835,8.0,8.0,37500
2019-08-27,7.940000057220459,8.0,7.460000038146973,7.590000152587891,7.590000152587891,10100
2019-08-28,7.699999809265137,8.0,7.699999809265137,7.699999809265137,7.699999809265137,5800
2019-08-29,7.760000228881836,7.880000114440918,7.460000038146973,7.460000038146973,7.460000038146973,9900
2019-08-30,7.5,7.650000095367432,7.400000095367432,7.400000095367432,7.400000095367432,8600
2019-09-03,7.230000019073486,7.230000019073486,6.75,6.75,6.75,21300
2019-09-04,7.300000190734863,7.300000190734863,6.440000057220459,6.949999809265137,6.949999809265137,18100
2019-09-05,7.110000133514404,7.110000133514404,6.510000228881836,6.690000057220459,6.690000057220459,15700
2019-09-06,6.900000095367432,7.079999923706055,6.849999904632568,6.909999847412109,6.909999847412109,2400
2019-09-09,6.619999885559082,6.909999847412109,6.5,6.519999980926514,6.519999980926514,21400
2019-09-10,6.650000095367432,6.989999771118164,6.239999771118164,6.300000190734863,6.300000190734863,12600
2019-09-11,6.420000076293945,6.429999828338623,6.130000114440918,6.300000190734863,6.300000190734863,18000
2019-09-12,6.320000171661377,6.949999809265137,6.320000171661377,6.380000114440918,6.380000114440918,98000
2019-09-13,6.239999771118164,6.590000152587891,5.239999771118164,5.769999980926514,5.769999980926514,33500
2019-09-16,6.0,6.25,5.550000190734863,5.71999979019165,5.71999979019165,45000
2019-09-17,5.5,5.739999771118164,5.03000020980835,5.119999885559082,5.119999885559082,39000
2019-09-18,5.369999885559082,6.340000152587891,5.199999809265137,5.809999942779541,5.809999942779541,16600
2019-09-19,5.949999809265137,6.139999866485596,5.480000019073486,5.769999980926514,5.769999980926514,19600
2019-09-20,5.409999847412109,6.5,5.409999847412109,6.360000133514404,6.360000133514404,69400
2019-09-23,6.230000019073486,6.78000020980835,5.820000171661377,6.389999866485596,6.389999866485596,39700
2019-09-24,6.079999923706055,6.690000057220459,6.079999923706055,6.130000114440918,6.130000114440918,22100
2019-09-25,6.380000114440918,6.650000095367432,6.260000228881836,6.300000190734863,6.300000190734863,6600
2019-09-26,6.360000133514404,6.610000133514404,6.150000095367432,6.170000076293945,6.170000076293945,15000
2019-09-27,6.380000114440918,6.599999904632568,6.059999942779541,6.150000095367432,6.150000095367432,16800
2019-09-30,6.190000057220459,6.349999904632568,5.840000152587891,5.960000038146973,5.960000038146973,38600
2019-10-01,5.820000171661377,6.210000038146973,5.519999980926514,5.639999866485596,5.639999866485596,29900
2019-10-02,5.559999942779541,5.800000190734863,5.550000190734863,5.590000152587891,5.590000152587891,7400
2019-10-03,5.730000019073486,6.170000076293945,5.730000019073486,6.039999961853027,6.039999961853027,8400
2019-10-04,5.900000095367432,6.119999885559082,5.300000190734863,5.550000190734863,5.550000190734863,27500
2019-10-07,5.769999980926514,5.889999866485596,5.510000228881836,5.610000133514404,5.610000133514404,12300
2019-10-08,5.690000057220459,6.199999809265137,5.690000057220459,5.800000190734863,5.800000190734863,32900
2019-10-09,5.75,6.059999942779541,5.75,5.789999961853027,5.789999961853027,8500
2019-10-10,5.840000152587891,6.179999828338623,5.599999904632568,5.869999885559082,5.869999885559082,12100
2019-10-11,5.889999866485596,5.889999866485596,5.550000190734863,5.849999904632568,5.849999904632568,8600
2019-10-14,5.860000133514404,5.900000095367432,5.769999980926514,5.769999980926514,5.769999980926514,1200
2019-10-15,5.670000076293945,5.900000095367432,5.550000190734863,5.78000020980835,5.78000020980835,26700
2019-10-16,5.789999961853027,5.789999961853027,5.699999809265137,5.699999809265137,5.699999809265137,3000
2019-10-17,5.760000228881836,5.909999847412109,5.760000228881836,5.800000190734863,5.800000190734863,1200
2019-10-18,5.75,5.75,5.75,5.75,5.75,700
2019-10-21,5.690000057220459,6.159999847412109,5.690000057220459,6.159999847412109,6.159999847412109,6100
2019-10-22,6.25,6.269999980926514,6.210000038146973,6.210000038146973,6.210000038146973,4100
2019-10-23,6.25,6.25,6.179999828338623,6.179999828338623,6.179999828338623,1600
2019-10-24,6.25,6.260000228881836,6.190000057220459,6.199999809265137,6.199999809265137,2200
2019-10-25,6.190000057220459,6.190000057220459,6.190000057220459,6.190000057220459,6.190000057220459,100
2019-10-28,6.260000228881836,6.269999980926514,6.139999866485596,6.139999866485596,6.139999866485596,900
2019-10-29,6.059999942779541,6.28000020980835,6.059999942779541,6.28000020980835,6.28000020980835,3600
2019-10-30,6.019999980926514,6.050000190734863,6.019999980926514,6.050000190734863,6.050000190734863,2300
2019-10-31,6.03000020980835,6.03000020980835,5.949999809265137,5.96999979019165,5.96999979019165,1900
2019-11-01,6.21999979019165,6.21999979019165,5.650000095367432,5.739999771118164,5.739999771118164,23600
2019-11-04,5.760000228881836,5.769999980926514,5.599999904632568,5.699999809265137,5.699999809265137,10600
2019-11-05,5.679999828338623,5.679999828338623,5.570000171661377,5.610000133514404,5.610000133514404,1400
2019-11-06,5.619999885559082,5.949999809265137,5.599999904632568,5.889999866485596,5.889999866485596,5300
2019-11-07,5.920000076293945,5.980000019073486,5.920000076293945,5.980000019073486,5.980000019073486,600
2019-11-08,5.610000133514404,5.659999847412109,5.550000190734863,5.599999904632568,5.599999904632568,5300
2019-11-11,5.550000190734863,5.829999923706055,5.550000190734863,5.550000190734863,5.550000190734863,6000
2019-11-12,5.550000190734863,5.599999904632568,5.550000190734863,5.590000152587891,5.590000152587891,20300
2019-11-13,5.550000190734863,5.550000190734863,5.070000171661377,5.28000020980835,5.28000020980835,10900
2019-11-14,5.320000171661377,5.329999923706055,5.03000020980835,5.079999923706055,5.079999923706055,6100
2019-11-15,5.099999904632568,5.230000019073486,5.010000228881836,5.010000228881836,5.010000228881836,10600
2019-11-18,5.070000171661377,5.070000171661377,4.800000190734863,4.940000057220459,4.940000057220459,10200
2019-11-19,4.96999979019165,5.130000114440918,4.900000095367432,4.949999809265137,4.949999809265137,6600
2019-11-20,4.920000076293945,5.130000114440918,4.900000095367432,5.090000152587891,5.090000152587891,8200
2019-11-21,5.010000228881836,5.010000228881836,4.809999942779541,4.889999866485596,4.889999866485596,11400
2019-11-22,4.800000190734863,5.0,4.75,4.840000152587891,4.840000152587891,10400
2019-11-25,4.889999866485596,4.980000019073486,4.809999942779541,4.809999942779541,4.809999942779541,10500
2019-11-26,4.920000076293945,4.940000057220459,4.579999923706055,4.599999904632568,4.599999904632568,13800
2019-11-27,4.699999809265137,4.75,4.650000095367432,4.739999771118164,4.739999771118164,3300
2019-11-29,4.670000076293945,4.849999904632568,4.559999942779541,4.849999904632568,4.849999904632568,15400
2019-12-02,4.860000133514404,5.0,4.800000190734863,4.809999942779541,4.809999942779541,25100
2019-12-03,5.039999961853027,5.039999961853027,4.809999942779541,4.900000095367432,4.900000095367432,10200
2019-12-04,5.03000020980835,5.090000152587891,4.869999885559082,4.96999979019165,4.96999979019165,23700
2019-12-05,5.019999980926514,5.090000152587891,4.980000019073486,4.980000019073486,4.980000019073486,2500
2019-12-06,5.099999904632568,5.099999904632568,4.820000171661377,4.880000114440918,4.880000114440918,5900
2019-12-09,4.949999809265137,5.090000152587891,4.949999809265137,5.010000228881836,5.010000228881836,14800
2019-12-10,5.070000171661377,5.519999980926514,5.070000171661377,5.400000095367432,5.400000095367432,45900
2019-12-11,5.460000038146973,5.460000038146973,5.079999923706055,5.320000171661377,5.320000171661377,17200
2019-12-12,5.409999847412109,5.420000076293945,5.199999809265137,5.199999809265137,5.199999809265137,10600
2019-12-13,5.289999961853027,5.329999923706055,5.25,5.25,5.25,3300
2019-12-16,5.260000228881836,5.380000114440918,5.25,5.25,5.25,1300
2019-12-17,5.25,5.5,5.150000095367432,5.329999923706055,5.329999923706055,16000
2019-12-18,5.389999866485596,5.389999866485596,4.800000190734863,4.800000190734863,4.800000190734863,11500
2019-12-19,4.800000190734863,4.989999771118164,4.579999923706055,4.800000190734863,4.800000190734863,21400
2019-12-20,4.949999809265137,4.989999771118164,4.75,4.75,4.75,2600
2019-12-23,4.849999904632568,4.989999771118164,4.610000133514404,4.949999809265137,4.949999809265137,10000
2019-12-24,5.079999923706055,5.090000152587891,4.71999979019165,4.920000076293945,4.920000076293945,4400
2019-12-26,5.25,5.25,4.849999904632568,5.0,5.0,22900
2019-12-27,4.980000019073486,5.190000057220459,4.760000228881836,5.110000133514404,5.110000133514404,24600
2019-12-30,4.949999809265137,5.139999866485596,4.889999866485596,5.090000152587891,5.090000152587891,9000
2019-12-31,5.050000190734863,5.119999885559082,4.809999942779541,4.96999979019165,4.96999979019165,19300
2020-01-02,5.010000228881836,5.099999904632568,4.829999923706055,4.960000038146973,4.960000038146973,7000
2020-01-03,5.0,5.059999942779541,4.949999809265137,4.949999809265137,4.949999809265137,8200
2020-01-06,4.960000038146973,5.130000114440918,4.960000038146973,5.0,5.0,1500
2020-01-07,5.0,5.0,5.0,5.0,5.0,600
2020-01-08,5.050000190734863,5.179999828338623,5.039999961853027,5.050000190734863,5.050000190734863,3700
2020-01-09,5.079999923706055,5.440000057220459,4.900000095367432,4.900000095367432,4.900000095367432,73000
2020-01-10,4.940000057220459,5.03000020980835,4.809999942779541,5.0,5.0,8300
2020-01-13,4.760000228881836,4.949999809265137,4.760000228881836,4.889999866485596,4.889999866485596,5000
2020-01-14,4.920000076293945,4.920000076293945,4.78000020980835,4.880000114440918,4.880000114440918,3300
2020-01-15,4.630000114440918,4.869999885559082,4.239999771118164,4.699999809265137,4.699999809265137,10500
2020-01-16,4.849999904632568,4.849999904632568,4.699999809265137,4.769999980926514,4.769999980926514,3600
2020-01-17,4.75,4.880000114440918,4.75,4.800000190734863,4.800000190734863,12700
2020-01-21,4.920000076293945,4.920000076293945,4.699999809265137,4.880000114440918,4.880000114440918,8200
2020-01-22,4.909999847412109,4.909999847412109,4.909999847412109,4.909999847412109,4.909999847412109,1300
2020-01-23,4.940000057220459,5.03000020980835,4.940000057220459,4.940000057220459,4.940000057220459,4700
2020-01-24,4.960000038146973,5.210000038146973,4.820000171661377,4.860000133514404,4.860000133514404,28600
2020-01-27,4.800000190734863,5.0,4.800000190734863,4.800000190734863,4.800000190734863,2600
2020-01-28,4.860000133514404,5.019999980926514,4.860000133514404,4.920000076293945,4.920000076293945,900
2020-01-29,5.079999923706055,5.170000076293945,5.0,5.090000152587891,5.090000152587891,7700
2020-01-30,4.980000019073486,5.150000095367432,4.980000019073486,5.079999923706055,5.079999923706055,2700
2020-01-31,5.050000190734863,5.050000190734863,5.0,5.0,5.0,600
2020-02-03,5.0,5.159999847412109,4.96999979019165,4.96999979019165,4.96999979019165,3600
2020-02-04,5.260000228881836,5.260000228881836,4.900000095367432,5.090000152587891,5.090000152587891,2000
2020-02-05,4.929999828338623,5.130000114440918,4.929999828338623,5.130000114440918,5.130000114440918,1700
2020-02-06,5.03000020980835,5.079999923706055,5.0,5.079999923706055,5.079999923706055,7800
2020-02-07,5.28000020980835,5.28000020980835,5.159999847412109,5.159999847412109,5.159999847412109,3200
2020-02-10,5.21999979019165,5.300000190734863,5.159999847412109,5.300000190734863,5.300000190734863,2800
2020-02-11,5.019999980926514,5.380000114440918,5.019999980926514,5.380000114440918,5.380000114440918,3000
2020-02-12,5.269999980926514,5.269999980926514,5.0,5.0,5.0,3400
2020-02-13,5.119999885559082,5.260000228881836,5.0,5.260000228881836,5.260000228881836,20300
2020-02-14,5.110000133514404,5.289999961853027,5.110000133514404,5.239999771118164,5.239999771118164,5000
2020-02-18,5.289999961853027,5.400000095367432,5.289999961853027,5.340000152587891,5.340000152587891,4000
2020-02-19,5.449999809265137,5.449999809265137,5.050000190734863,5.050000190734863,5.050000190734863,22700
2020-02-20,5.019999980926514,5.300000190734863,5.0,5.300000190734863,5.300000190734863,10100
2020-02-21,5.300000190734863,5.300000190734863,5.110000133514404,5.130000114440918,5.130000114440918,2400
2020-02-24,5.010000228881836,5.21999979019165,5.0,5.03000020980835,5.03000020980835,3700
2020-02-25,5.070000171661377,5.25,4.940000057220459,5.010000228881836,5.010000228881836,15700
2020-02-26,5.110000133514404,5.110000133514404,4.949999809265137,5.019999980926514,5.019999980926514,5600
2020-02-27,5.059999942779541,5.159999847412109,5.059999942779541,5.159999847412109,5.159999847412109,900
2020-02-28,5.150000095367432,5.28000020980835,4.909999847412109,5.269999980926514,5.269999980926514,2300
2020-03-02,5.010000228881836,5.159999847412109,4.96999979019165,5.010000228881836,5.010000228881836,21200
2020-03-03,5.070000171661377,5.230000019073486,5.039999961853027,5.090000152587891,5.090000152587891,4200
2020-03-04,5.25,5.449999809265137,4.980000019073486,5.099999904632568,5.099999904632568,28200
2020-03-05,5.0,5.329999923706055,5.0,5.099999904632568,5.099999904632568,6600
2020-03-06,5.0,5.199999809265137,4.96999979019165,4.96999979019165,4.96999979019165,11400
2020-03-09,5.150000095367432,5.199999809265137,4.900000095367432,5.090000152587891,5.090000152587891,7800
2020-03-10,5.28000020980835,5.28000020980835,4.199999809265137,4.210000038146973,4.210000038146973,28000
2020-03-11,4.199999809265137,4.570000171661377,4.130000114440918,4.130000114440918,4.130000114440918,12300
2020-03-12,2.990000009536743,3.25,2.990000009536743,3.0799999237060547,3.0799999237060547,14500
2020-03-13,3.049999952316284,3.049999952316284,2.259999990463257,2.700000047683716,2.700000047683716,13900
2020-03-16,2.0,2.0,1.75,1.9900000095367432,1.9900000095367432,113500
2020-03-17,2.109999895095825,2.140000104904175,1.9900000095367432,2.0199999809265137,2.0199999809265137,17000
2020-03-18,2.0799999237060547,5.639999866485596,2.009999990463257,5.559999942779541,5.559999942779541,119600
2020-03-19,5.150000095367432,5.199999809265137,2.740000009536743,2.75,2.75,349500
2020-03-20,2.950000047683716,3.140000104904175,2.7100000381469727,2.7100000381469727,2.7100000381469727,67400
2020-03-23,2.619999885559082,2.619999885559082,2.190000057220459,2.4000000953674316,2.4000000953674316,31000
2020-03-24,2.4000000953674316,2.700000047683716,2.299999952316284,2.4700000286102295,2.4700000286102295,30900
2020-03-25,2.5999999046325684,2.799999952316284,2.5299999713897705,2.75,2.75,32700
2020-03-26,2.799999952316284,2.9000000953674316,2.7799999713897705,2.880000114440918,2.880000114440918,27000
2020-03-27,2.799999952316284,2.799999952316284,2.5999999046325684,2.75,2.75,13100
2020-03-30,2.75,2.8399999141693115,2.5399999618530273,2.609999895095825,2.609999895095825,9900
2020-03-31,2.6500000953674316,2.759999990463257,2.549999952316284,2.640000104904175,2.640000104904175,5400
2020-04-01,2.549999952316284,2.640000104904175,2.259999990463257,2.5,2.5,29400
2020-04-02,2.509999990463257,2.509999990463257,2.309999942779541,2.4600000381469727,2.4600000381469727,8500
2020-04-03,2.4000000953674316,2.4000000953674316,2.200000047683716,2.309999942779541,2.309999942779541,12900
2020-04-06,2.2899999618530273,2.450000047683716,2.2899999618530273,2.3299999237060547,2.3299999237060547,52600
2020-04-07,2.4100000858306885,2.5299999713897705,2.4100000858306885,2.4700000286102295,2.4700000286102295,4800
2020-04-08,2.490000009536743,2.5999999046325684,2.490000009536743,2.569999933242798,2.569999933242798,27000
2020-04-09,2.619999885559082,2.6700000762939453,2.5999999046325684,2.630000114440918,2.630000114440918,5800
2020-04-13,2.6600000858306885,2.700000047683716,2.3499999046325684,2.640000104904175,2.640000104904175,10000
2020-04-14,2.75,2.9000000953674316,2.700000047683716,2.9000000953674316,2.9000000953674316,29500
2020-04-15,2.8499999046325684,2.8499999046325684,2.559999942779541,2.680000066757202,2.680000066757202,14500
2020-04-16,2.609999895095825,2.75,2.609999895095825,2.700000047683716,2.700000047683716,13600
2020-04-17,2.890000104904175,2.9800000190734863,2.799999952316284,2.8299999237060547,2.8299999237060547,28700
2020-04-20,3.0,3.25,2.9000000953674316,3.0199999809265137,3.0199999809265137,56000
2020-04-21,3.0,3.049999952316284,2.799999952316284,2.950000047683716,2.950000047683716,14400
2020-04-22,3.0199999809265137,3.0199999809265137,2.890000104904175,2.950000047683716,2.950000047683716,14500
2020-04-23,2.950000047683716,2.950000047683716,2.630000114440918,2.7899999618530273,2.7899999618530273,31800
2020-04-24,2.759999990463257,2.759999990463257,2.569999933242798,2.690000057220459,2.690000057220459,59100
2020-04-27,2.690000057220459,2.690000057220459,2.4800000190734863,2.5899999141693115,2.5899999141693115,24000
2020-04-28,2.6600000858306885,2.6700000762939453,2.450000047683716,2.6700000762939453,2.6700000762939453,27000
2020-04-29,2.7200000286102295,2.7699999809265137,2.5999999046325684,2.75,2.75,26200
2020-04-30,2.7899999618530273,2.799999952316284,2.5999999046325684,2.759999990463257,2.759999990463257,16800
2020-05-01,2.6500000953674316,2.740000009536743,2.609999895095825,2.7300000190734863,2.7300000190734863,9000
2020-05-04,2.5999999046325684,2.7300000190734863,2.559999942779541,2.5899999141693115,2.5899999141693115,16000
2020-05-05,2.700000047683716,2.75,2.619999885559082,2.75,2.75,22200
2020-05-06,2.7200000286102295,2.799999952316284,2.5999999046325684,2.799999952316284,2.799999952316284,13700
2020-05-07,2.75,2.799999952316284,2.7300000190734863,2.75,2.75,47400
2020-05-08,2.7300000190734863,2.7699999809265137,2.5999999046325684,2.680000066757202,2.680000066757202,31200
2020-05-11,2.609999895095825,2.799999952316284,2.609999895095825,2.7899999618530273,2.7899999618530273,43500
2020-05-12,2.799999952316284,2.799999952316284,2.630000114440918,2.640000104904175,2.640000104904175,18400
2020-05-13,2.7899999618530273,2.7899999618530273,2.5199999809265137,2.619999885559082,2.619999885559082,6300
2020-05-14,2.5799999237060547,2.690000057220459,2.4000000953674316,2.430000066757202,2.430000066757202,28500
2020-05-15,2.549999952316284,2.549999952316284,2.440000057220459,2.4600000381469727,2.4600000381469727,13600
2020-05-18,2.640000104904175,2.700000047683716,2.5299999713897705,2.700000047683716,2.700000047683716,18800
2020-05-19,2.6700000762939453,2.700000047683716,2.509999990463257,2.5199999809265137,2.5199999809265137,7200
2020-05-20,2.619999885559082,2.700000047683716,2.309999942779541,2.4000000953674316,2.4000000953674316,44100
2020-05-21,2.490000009536743,2.569999933242798,2.4000000953674316,2.4000000953674316,2.4000000953674316,21300
2020-05-22,2.5399999618530273,2.5399999618530273,2.390000104904175,2.4000000953674316,2.4000000953674316,13200
2020-05-26,2.4800000190734863,2.569999933242798,2.369999885559082,2.380000114440918,2.380000114440918,24200
2020-05-27,2.3399999141693115,2.640000104904175,2.3399999141693115,2.5799999237060547,2.5799999237060547,34500
2020-05-28,2.630000114440918,2.7899999618530273,2.569999933242798,2.7100000381469727,2.7100000381469727,59100
2020-05-29,2.7699999809265137,2.8499999046325684,2.690000057220459,2.7699999809265137,2.7699999809265137,90600
2020-06-01,2.819999933242798,2.819999933242798,2.5,2.7100000381469727,2.7100000381469727,32400
2020-06-02,2.6600000858306885,2.759999990463257,2.5999999046325684,2.7100000381469727,2.7100000381469727,13700
2020-06-03,2.7100000381469727,2.809999942779541,2.7100000381469727,2.759999990463257,2.759999990463257,15600
2020-06-04,2.7200000286102295,2.7899999618530273,2.5999999046325684,2.7699999809265137,2.7699999809265137,12700
2020-06-05,2.6600000858306885,2.9600000381469727,2.6600000858306885,2.880000114440918,2.880000114440918,28600
2020-06-08,2.9800000190734863,3.380000114440918,2.9200000762939453,3.009999990463257,3.009999990463257,52900
2020-06-09,2.869999885559082,3.009999990463257,2.680000066757202,2.9100000858306885,2.9100000858306885,26300
2020-06-10,2.9800000190734863,3.0199999809265137,2.869999885559082,2.9800000190734863,2.9800000190734863,38400
2020-06-11,2.799999952316284,2.990000009536743,2.5,2.7100000381469727,2.7100000381469727,67700
2020-06-12,2.6700000762939453,2.809999942779541,2.6700000762939453,2.809999942779541,2.809999942779541,11200
2020-06-15,2.9700000286102295,4.0,2.950000047683716,3.319999933242798,3.319999933242798,604200
2020-06-16,3.390000104904175,3.4000000953674316,2.990000009536743,3.0399999618530273,3.0399999618530273,529000
2020-06-17,3.200000047683716,3.2699999809265137,2.880000114440918,2.930000066757202,2.930000066757202,179400
2020-06-18,3.049999952316284,3.1500000953674316,2.940000057220459,2.9800000190734863,2.9800000190734863,123800
2020-06-19,3.049999952316284,3.1500000953674316,2.9800000190734863,2.9800000190734863,2.9800000190734863,188000
2020-06-22,3.049999952316284,3.1500000953674316,2.950000047683716,2.9600000381469727,2.9600000381469727,179300
2020-06-23,3.049999952316284,3.0899999141693115,2.950000047683716,2.950000047683716,2.950000047683716,299400
2020-06-24,3.0,3.049999952316284,2.9100000858306885,2.940000057220459,2.940000057220459,293100
2020-06-25,2.950000047683716,3.0299999713897705,2.869999885559082,2.869999885559082,2.869999885559082,82400
2020-06-26,2.8299999237060547,2.9700000286102295,2.819999933242798,2.940000057220459,2.940000057220459,75100
2020-06-29,3.0,3.0999999046325684,2.740000009536743,2.8299999237060547,2.8299999237060547,102700
2020-06-30,2.75,3.490000009536743,2.700000047683716,2.9600000381469727,2.9600000381469727,1859600
2020-07-01,2.940000057220459,3.0799999237060547,2.759999990463257,2.950000047683716,2.950000047683716,550500
2020-07-02,2.950000047683716,3.049999952316284,2.8399999141693115,2.9200000762939453,2.9200000762939453,243900
2020-07-06,3.0,3.049999952316284,2.609999895095825,2.799999952316284,2.799999952316284,496500
2020-07-07,2.75,2.7699999809265137,2.450000047683716,2.619999885559082,2.619999885559082,202900
2020-07-08,2.5999999046325684,2.6500000953674316,2.4800000190734863,2.5399999618530273,2.5399999618530273,77800
2020-07-09,2.559999942779541,2.8499999046325684,2.450000047683716,2.7899999618530273,2.7899999618530273,205500
2020-07-10,2.8399999141693115,3.0899999141693115,2.8299999237060547,2.940000057220459,2.940000057220459,373000
2020-07-13,3.0399999618530273,3.259999990463257,2.950000047683716,3.059999942779541,3.059999942779541,555400
2020-07-14,3.049999952316284,3.2799999713897705,3.0,3.0999999046325684,3.0999999046325684,241400
2020-07-15,3.140000104904175,3.3499999046325684,3.0799999237060547,3.119999885559082,3.119999885559082,422500
2020-07-16,3.240000009536743,4.25,3.1600000858306885,3.7699999809265137,3.7699999809265137,784700
2020-07-17,3.859999895095825,4.099999904632568,3.799999952316284,3.9100000858306885,3.9100000858306885,495200
2020-07-20,4.010000228881836,4.099999904632568,3.9200000762939453,4.03000020980835,4.03000020980835,312300
2020-07-21,4.03000020980835,4.090000152587891,3.5799999237060547,3.759999990463257,3.759999990463257,256200
2020-07-22,3.75,3.75,3.2100000381469727,3.25,3.25,295800
2020-07-23,3.3399999141693115,3.4100000858306885,3.009999990463257,3.049999952316284,3.049999952316284,273900
2020-07-24,3.0199999809265137,3.1600000858306885,3.009999990463257,3.009999990463257,3.009999990463257,135800
2020-07-27,3.069999933242798,3.0999999046325684,2.9100000858306885,3.0,3.0,81700
2020-07-28,3.0199999809265137,3.0999999046325684,3.0,3.059999942779541,3.059999942779541,48900
2020-07-29,3.049999952316284,3.069999933242798,2.8399999141693115,2.8399999141693115,2.8399999141693115,110500
2020-07-30,2.9000000953674316,3.069999933242798,2.869999885559082,3.009999990463257,3.009999990463257,68100
2020-07-31,3.0299999713897705,3.049999952316284,2.759999990463257,2.799999952316284,2.799999952316284,189400
2020-08-03,2.9000000953674316,2.9200000762939453,2.759999990463257,2.819999933242798,2.819999933242798,120400
2020-08-04,2.819999933242798,2.9800000190734863,2.819999933242798,2.950000047683716,2.950000047683716,96700
2020-08-05,2.950000047683716,3.0,2.8499999046325684,2.880000114440918,2.880000114440918,145100
2020-08-06,2.809999942779541,2.9100000858306885,2.799999952316284,2.799999952316284,2.799999952316284,66400
2020-08-07,2.819999933242798,2.930000066757202,2.799999952316284,2.869999885559082,2.869999885559082,51700
2020-08-10,2.8399999141693115,3.049999952316284,2.809999942779541,2.9700000286102295,2.9700000286102295,71800
2020-08-11,3.0199999809265137,3.0199999809265137,2.880000114440918,2.9200000762939453,2.9200000762939453,72900
2020-08-12,2.940000057220459,3.0199999809265137,2.8499999046325684,2.9100000858306885,2.9100000858306885,52200
2020-08-13,2.930000066757202,2.9700000286102295,2.880000114440918,2.9000000953674316,2.9000000953674316,42200
2020-08-14,2.9100000858306885,2.9100000858306885,2.8499999046325684,2.880000114440918,2.880000114440918,57400
2020-08-17,2.930000066757202,2.930000066757202,2.8299999237060547,2.859999895095825,2.859999895095825,62500
2020-08-18,2.859999895095825,2.9100000858306885,2.809999942779541,2.8399999141693115,2.8399999141693115,34600
2020-08-19,2.819999933242798,2.9000000953674316,2.7300000190734863,2.7300000190734863,2.7300000190734863,58300
2020-08-20,2.7300000190734863,2.7699999809265137,2.5999999046325684,2.5999999046325684,2.5999999046325684,143100
2020-08-21,2.6500000953674316,2.6500000953674316,2.5399999618530273,2.5799999237060547,2.5799999237060547,65400
2020-08-24,2.5999999046325684,2.640000104904175,2.509999990463257,2.559999942779541,2.559999942779541,84200
2020-08-25,2.5199999809265137,2.819999933242798,2.5199999809265137,2.6500000953674316,2.6500000953674316,117100
2020-08-26,2.640000104904175,2.740000009536743,2.5,2.509999990463257,2.509999990463257,60700
2020-08-27,2.509999990463257,2.5899999141693115,2.5,2.549999952316284,2.549999952316284,29900
2020-08-28,2.700000047683716,2.700000047683716,2.5199999809265137,2.609999895095825,2.609999895095825,84200
2020-08-31,2.6500000953674316,2.990000009536743,2.569999933242798,2.6500000953674316,2.6500000953674316,233100
2020-09-01,2.6500000953674316,2.7300000190734863,2.509999990463257,2.5199999809265137,2.5199999809265137,114400
2020-09-02,2.9100000858306885,3.0999999046325684,2.7799999713897705,2.880000114440918,2.880000114440918,518900
2020-09-03,2.9200000762939453,2.9200000762939453,2.5899999141693115,2.7699999809265137,2.7699999809265137,189900
2020-09-04,2.740000009536743,2.9800000190734863,2.7300000190734863,2.759999990463257,2.759999990463257,134300
2020-09-08,2.7699999809265137,2.9100000858306885,2.75,2.819999933242798,2.819999933242798,115100
2020-09-09,3.0,3.0899999141693115,2.8399999141693115,2.890000104904175,2.890000104904175,377300
2020-09-10,3.0299999713897705,3.0299999713897705,2.8499999046325684,2.940000057220459,2.940000057220459,148600
2020-09-11,2.930000066757202,3.0299999713897705,2.9000000953674316,2.940000057220459,2.940000057220459,104800
2020-09-14,2.950000047683716,3.059999942779541,2.9200000762939453,3.0,3.0,143500
2020-09-15,2.990000009536743,3.049999952316284,2.990000009536743,3.0299999713897705,3.0299999713897705,73700
2020-09-16,3.0399999618530273,3.059999942779541,2.9200000762939453,2.9700000286102295,2.9700000286102295,154600
2020-09-17,2.930000066757202,3.049999952316284,2.930000066757202,2.9800000190734863,2.9800000190734863,74500
2020-09-18,2.9700000286102295,3.0299999713897705,2.7899999618530273,2.859999895095825,2.859999895095825,206000
2020-09-21,2.8499999046325684,2.8499999046325684,2.75,2.7699999809265137,2.7699999809265137,64600
2020-09-22,2.759999990463257,2.8299999237060547,2.5399999618530273,2.640000104904175,2.640000104904175,107700
2020-09-23,2.619999885559082,2.640000104904175,2.4600000381469727,2.490000009536743,2.490000009536743,114900
2020-09-24,2.490000009536743,2.490000009536743,2.200000047683716,2.259999990463257,2.259999990463257,156500
2020-09-25,2.2200000286102295,2.369999885559082,2.200000047683716,2.2899999618530273,2.2899999618530273,80200
2020-09-28,2.2899999618530273,2.369999885559082,2.2100000381469727,2.25,2.25,93500
2020-09-29,2.25,2.2899999618530273,2.0899999141693115,2.0999999046325684,2.0999999046325684,166200
2020-09-30,2.0799999237060547,2.1600000858306885,2.0399999618530273,2.0399999618530273,2.0399999618530273,327600
2020-10-01,2.0799999237060547,2.0899999141693115,2.0199999809265137,2.059999942779541,2.059999942779541,137400
2020-10-02,2.0399999618530273,2.200000047683716,2.0399999618530273,2.1500000953674316,2.1500000953674316,157600
2020-10-05,2.180000066757202,2.2699999809265137,2.0999999046325684,2.180000066757202,2.180000066757202,210700
2020-10-06,2.240000009536743,2.25,2.0799999237060547,2.0899999141693115,2.0899999141693115,219000
2020-10-07,2.0999999046325684,2.190000057220459,2.0199999809265137,2.0999999046325684,2.0999999046325684,157300
2020-10-08,2.0999999046325684,2.119999885559082,2.0199999809265137,2.0399999618530273,2.0399999618530273,379600
2020-10-09,2.009999990463257,2.0999999046325684,1.940000057220459,2.0199999809265137,2.0199999809265137,256800
2020-10-12,2.0199999809265137,2.0899999141693115,2.0,2.0,2.0,515600
2020-10-13,2.009999990463257,2.0799999237060547,1.9500000476837158,2.009999990463257,2.009999990463257,478200
2020-10-14,2.0399999618530273,2.069999933242798,2.0,2.0399999618530273,2.0399999618530273,499400
2020-10-15,2.0299999713897705,2.2100000381469727,2.0199999809265137,2.0999999046325684,2.0999999046325684,2081700
2020-10-16,2.190000057220459,2.240000009536743,2.049999952316284,2.069999933242798,2.069999933242798,2077700
2020-10-19,2.190000057220459,2.190000057220459,2.0399999618530273,2.109999895095825,2.109999895095825,1750800
2020-10-20,2.0999999046325684,2.200000047683716,2.009999990463257,2.140000104904175,2.140000104904175,1806600
2020-10-21,2.0799999237060547,2.119999885559082,1.9600000381469727,2.0199999809265137,2.0199999809265137,1534900
2020-10-22,1.9700000286102295,1.9700000286102295,1.809999942779541,1.8300000429153442,1.8300000429153442,1148000
2020-10-23,1.809999942779541,1.8200000524520874,1.7200000286102295,1.7699999809265137,1.7699999809265137,755900
2020-10-26,1.7799999713897705,1.7899999618530273,1.6799999475479126,1.7200000286102295,1.7200000286102295,2960400
2020-10-27,1.7599999904632568,1.8300000429153442,1.7200000286102295,1.7699999809265137,1.7699999809265137,3590100
2020-10-28,1.75,1.7599999904632568,1.6299999952316284,1.6399999856948853,1.6399999856948853,617200
2020-10-29,1.649999976158142,1.6799999475479126,1.600000023841858,1.6699999570846558,1.6699999570846558,479800
2020-10-30,1.6699999570846558,1.6699999570846558,1.6100000143051147,1.6100000143051147,1.6100000143051147,257900
2020-11-02,1.6399999856948853,1.649999976158142,1.5800000429153442,1.649999976158142,1.649999976158142,335800
2020-11-03,1.690000057220459,1.690000057220459,1.649999976158142,1.6799999475479126,1.6799999475479126,139200
2020-11-04,1.7100000381469727,1.7699999809265137,1.649999976158142,1.7000000476837158,1.7000000476837158,268700
2020-11-05,1.7100000381469727,1.7100000381469727,1.6399999856948853,1.7000000476837158,1.7000000476837158,244600
2020-11-06,1.690000057220459,1.7200000286102295,1.649999976158142,1.6699999570846558,1.6699999570846558,381500
2020-11-09,1.7100000381469727,1.7999999523162842,1.6699999570846558,1.6799999475479126,1.6799999475479126,453800
2020-11-10,1.7000000476837158,1.7300000190734863,1.6799999475479126,1.7000000476837158,1.7000000476837158,316100
2020-11-11,1.7000000476837158,1.7300000190734863,1.6799999475479126,1.7000000476837158,1.7000000476837158,250000
2020-11-12,1.7000000476837158,1.7100000381469727,1.659999966621399,1.6799999475479126,1.6799999475479126,217900
2020-11-13,1.6799999475479126,1.7200000286102295,1.659999966621399,1.7200000286102295,1.7200000286102295,401800
2020-11-16,1.7999999523162842,1.850000023841858,1.7300000190734863,1.75,1.75,395800
2020-11-17,1.7799999713897705,1.7899999618530273,1.7400000095367432,1.7799999713897705,1.7799999713897705,275800
2020-11-18,1.7899999618530273,1.8200000524520874,1.7599999904632568,1.809999942779541,1.809999942779541,282100
2020-11-19,1.8300000429153442,1.8600000143051147,1.7699999809265137,1.809999942779541,1.809999942779541,356800
2020-11-20,1.8300000429153442,1.850000023841858,1.7899999618530273,1.809999942779541,1.809999942779541,382700
2020-11-23,1.840000033378601,1.840000033378601,1.75,1.809999942779541,1.809999942779541,579100
2020-11-24,1.8200000524520874,1.8200000524520874,1.75,1.7599999904632568,1.7599999904632568,567900
2020-11-25,1.75,1.7899999618530273,1.7300000190734863,1.7699999809265137,1.7699999809265137,465700
2020-11-27,1.7899999618530273,1.7899999618530273,1.7400000095367432,1.7599999904632568,1.7599999904632568,563400
2020-11-30,1.7699999809265137,1.840000033378601,1.7400000095367432,1.840000033378601,1.840000033378601,459500
2020-12-01,1.8899999856948853,1.8899999856948853,1.7699999809265137,1.7799999713897705,1.7799999713897705,852000
2020-12-02,1.7799999713897705,1.7899999618530273,1.7400000095367432,1.7799999713897705,1.7799999713897705,1005000
2020-12-03,1.7999999523162842,1.7999999523162842,1.7300000190734863,1.7799999713897705,1.7799999713897705,1008200
2020-12-04,1.75,1.7899999618530273,1.7300000190734863,1.75,1.75,625200
2020-12-07,1.7599999904632568,1.7799999713897705,1.7200000286102295,1.7400000095367432,1.7400000095367432,762300
2020-12-08,1.7599999904632568,1.850000023841858,1.7300000190734863,1.840000033378601,1.840000033378601,1368000
2020-12-09,1.8700000047683716,1.899999976158142,1.7599999904632568,1.809999942779541,1.809999942779541,577000
2020-12-10,1.7899999618530273,1.8799999952316284,1.7599999904632568,1.850000023841858,1.850000023841858,990500
2020-12-11,1.909999966621399,2.2899999618530273,1.8799999952316284,2.0,2.0,4625600
2020-12-14,2.049999952316284,2.109999895095825,2.0,2.059999942779541,2.059999942779541,997900
2020-12-15,2.059999942779541,2.0799999237060547,1.9800000190734863,2.049999952316284,2.049999952316284,690400
2020-12-16,2.049999952316284,2.2899999618530273,2.0299999713897705,2.240000009536743,2.240000009536743,1233300
2020-12-17,2.319999933242798,2.700000047683716,2.299999952316284,2.509999990463257,2.509999990463257,1990200
2020-12-18,2.450000047683716,2.5,2.319999933242798,2.390000104904175,2.390000104904175,665000
2020-12-21,2.309999942779541,2.490000009536743,2.130000114440918,2.4000000953674316,2.4000000953674316,669000
2020-12-22,2.440000057220459,2.5399999618530273,2.4200000762939453,2.509999990463257,2.509999990463257,318600
2020-12-23,2.5399999618530273,2.7300000190734863,2.509999990463257,2.7200000286102295,2.7200000286102295,712200
2020-12-24,2.799999952316284,2.930000066757202,2.7799999713897705,2.8499999046325684,2.8499999046325684,468100
2020-12-28,2.880000114440918,2.890000104904175,2.5799999237060547,2.609999895095825,2.609999895095825,712100
2020-12-29,2.6500000953674316,2.6500000953674316,2.069999933242798,2.3299999237060547,2.3299999237060547,1589800
2020-12-30,2.299999952316284,2.4600000381469727,2.2899999618530273,2.450000047683716,2.450000047683716,354000
