Date,Open,High,Low,Close,Adj Close,Volume
2017-10-27,27.690000534057617,28.3700008392334,27.3799991607666,28.149999618530273,28.149999618530273,954400
2017-10-30,28.06999969482422,28.899999618530273,27.489999771118164,28.040000915527344,28.040000915527344,760500
2017-10-31,28.0,29.389999389648438,27.680999755859375,28.799999237060547,28.799999237060547,436200
2017-11-01,29.049999237060547,30.979999542236328,28.270000457763672,30.3700008392334,30.3700008392334,1781300
2017-11-02,30.43000030517578,30.709999084472656,29.940000534057617,29.989999771118164,29.989999771118164,204500
2017-11-03,30.0,30.125,29.18000030517578,29.700000762939453,29.700000762939453,138400
2017-11-06,29.760000228881836,30.84000015258789,29.760000228881836,30.06999969482422,30.06999969482422,133500
2017-11-07,30.25,30.399999618530273,29.959999084472656,30.049999237060547,30.049999237060547,170900
2017-11-08,30.1299991607666,30.420000076293945,30.0,30.209999084472656,30.209999084472656,364300
2017-11-09,30.200000762939453,30.399999618530273,29.549999237060547,30.209999084472656,30.209999084472656,359600
2017-11-10,30.149999618530273,30.360000610351562,29.93000030517578,30.139999389648438,30.139999389648438,231100
2017-11-13,30.200000762939453,30.34000015258789,29.829999923706055,29.989999771118164,29.989999771118164,247100
2017-11-14,29.989999771118164,30.149999618530273,29.68000030517578,30.1200008392334,30.1200008392334,332700
2017-11-15,30.020000457763672,30.1200008392334,29.899999618530273,29.959999084472656,29.959999084472656,256700
2017-11-16,30.020000457763672,30.40999984741211,29.510000228881836,30.1299991607666,30.1299991607666,525000
2017-11-17,30.040000915527344,30.270000457763672,29.8700008392334,29.979999542236328,29.979999542236328,248800
2017-11-20,30.729999542236328,30.895000457763672,29.690000534057617,30.190000534057617,30.190000534057617,308200
2017-11-21,30.059999465942383,30.280000686645508,29.954999923706055,30.100000381469727,30.100000381469727,174700
2017-11-22,30.110000610351562,30.25,29.649999618530273,29.979999542236328,29.979999542236328,194100
2017-11-24,30.1299991607666,30.200000762939453,29.700000762939453,29.989999771118164,29.989999771118164,240000
2017-11-27,30.149999618530273,32.18000030517578,30.010000228881836,31.81999969482422,31.81999969482422,540700
2017-11-28,31.920000076293945,32.88999938964844,30.489999771118164,31.530000686645508,31.530000686645508,581400
2017-11-29,31.530000686645508,32.380001068115234,31.530000686645508,31.799999237060547,31.799999237060547,401700
2017-11-30,31.790000915527344,33.0,31.735000610351562,32.59000015258789,32.59000015258789,416800
2017-12-01,32.61000061035156,33.7400016784668,31.641000747680664,32.84000015258789,32.84000015258789,562900
2017-12-04,33.06999969482422,33.880001068115234,32.59000015258789,32.63999938964844,32.63999938964844,266200
2017-12-05,32.58000183105469,33.59000015258789,31.56999969482422,32.849998474121094,32.849998474121094,481600
2017-12-06,32.61000061035156,33.189998626708984,32.04999923706055,32.58000183105469,32.58000183105469,213900
2017-12-07,32.599998474121094,33.810001373291016,32.52000045776367,32.900001525878906,32.900001525878906,232800
2017-12-08,33.02000045776367,33.279998779296875,32.9900016784668,33.18000030517578,33.18000030517578,221000
2017-12-11,33.25,35.029998779296875,33.25,35.0,35.0,337900
2017-12-12,35.45000076293945,35.81999969482422,34.86000061035156,35.15999984741211,35.15999984741211,319300
2017-12-13,35.22999954223633,35.56999969482422,34.3650016784668,34.95000076293945,34.95000076293945,341800
2017-12-14,35.060001373291016,36.650001525878906,35.060001373291016,35.58000183105469,35.58000183105469,390600
2017-12-15,35.41999816894531,36.334999084472656,35.2400016784668,35.75,35.75,2742100
2017-12-18,36.290000915527344,37.564998626708984,35.83000183105469,37.41999816894531,37.41999816894531,286300
2017-12-19,37.40999984741211,37.845001220703125,36.935001373291016,37.310001373291016,37.310001373291016,232500
2017-12-20,37.38999938964844,39.220001220703125,37.38999938964844,38.75,38.75,703900
2017-12-21,38.7599983215332,38.970001220703125,37.619998931884766,38.5,38.5,257700
2017-12-22,38.5,39.939998626708984,38.25,39.25,39.25,572600
2017-12-26,39.119998931884766,39.849998474121094,38.90999984741211,39.68000030517578,39.68000030517578,216700
2017-12-27,39.709999084472656,40.459999084472656,39.400001525878906,39.689998626708984,39.689998626708984,278400
2017-12-28,39.880001068115234,40.58000183105469,39.63999938964844,40.470001220703125,40.470001220703125,255000
2017-12-29,40.529998779296875,40.7599983215332,40.029998779296875,40.61000061035156,40.61000061035156,255100
2018-01-02,40.54999923706055,40.54999923706055,39.54999923706055,40.27000045776367,40.27000045776367,449700
2018-01-03,40.279998779296875,40.279998779296875,39.2400016784668,39.90999984741211,39.90999984741211,371800
2018-01-04,39.900001525878906,40.040000915527344,39.47999954223633,39.59000015258789,39.59000015258789,279600
2018-01-05,39.5,39.849998474121094,38.79999923706055,38.900001525878906,38.900001525878906,261900
2018-01-08,38.88999938964844,39.244998931884766,38.04999923706055,38.90999984741211,38.90999984741211,250200
2018-01-09,39.0,39.0,37.72999954223633,37.959999084472656,37.959999084472656,216100
2018-01-10,37.90999984741211,38.13999938964844,36.349998474121094,38.06999969482422,38.06999969482422,429300
2018-01-11,38.06999969482422,40.06999969482422,37.849998474121094,39.81999969482422,39.81999969482422,148600
2018-01-12,40.099998474121094,41.36000061035156,39.58000183105469,40.91999816894531,40.91999816894531,139500
2018-01-16,40.93000030517578,41.68000030517578,40.459999084472656,41.20000076293945,41.20000076293945,600800
2018-01-17,41.5,41.71500015258789,39.040000915527344,41.040000915527344,41.040000915527344,462400
2018-01-18,41.29999923706055,42.5,41.119998931884766,42.0099983215332,42.0099983215332,252000
2018-01-19,42.13999938964844,43.79999923706055,42.104000091552734,43.130001068115234,43.130001068115234,215700
2018-01-22,43.310001373291016,43.630001068115234,42.29999923706055,42.31999969482422,42.31999969482422,131400
2018-01-23,42.630001068115234,42.630001068115234,40.84000015258789,40.97999954223633,40.97999954223633,244400
2018-01-24,41.22999954223633,41.729000091552734,39.470001220703125,39.59000015258789,39.59000015258789,254000
2018-01-25,39.59000015258789,39.994998931884766,36.779998779296875,38.150001525878906,38.150001525878906,266300
2018-01-26,38.20000076293945,39.7400016784668,37.90399932861328,38.86000061035156,38.86000061035156,144000
2018-01-29,38.869998931884766,39.349998474121094,38.20000076293945,38.349998474121094,38.349998474121094,164700
2018-01-30,38.06999969482422,38.25,36.849998474121094,37.27000045776367,37.27000045776367,182300
2018-01-31,37.91999816894531,39.5,37.279998779296875,39.119998931884766,39.119998931884766,150100
2018-02-01,39.0,39.400001525878906,37.720001220703125,39.34000015258789,39.34000015258789,177900
2018-02-02,39.18000030517578,39.650001525878906,36.79999923706055,38.0,38.0,187300
2018-02-05,37.959999084472656,38.939998626708984,37.130001068115234,38.15999984741211,38.15999984741211,259100
2018-02-06,37.7400016784668,38.40999984741211,36.88100051879883,38.08000183105469,38.08000183105469,209900
2018-02-07,38.099998474121094,38.630001068115234,37.61000061035156,37.79999923706055,37.79999923706055,147800
2018-02-08,37.900001525878906,38.130001068115234,35.5,35.619998931884766,35.619998931884766,153200
2018-02-09,36.15999984741211,36.15999984741211,33.04499816894531,35.790000915527344,35.790000915527344,327000
2018-02-12,36.150001525878906,36.68000030517578,34.54999923706055,35.09000015258789,35.09000015258789,234900
2018-02-13,35.0,35.959999084472656,34.099998474121094,34.56999969482422,34.56999969482422,200700
2018-02-14,34.33000183105469,35.9900016784668,34.189998626708984,35.29999923706055,35.29999923706055,168400
2018-02-15,35.68000030517578,36.04999923706055,34.948001861572266,35.040000915527344,35.040000915527344,191900
2018-02-16,35.08000183105469,36.040000915527344,35.08000183105469,35.970001220703125,35.970001220703125,106800
2018-02-20,35.97999954223633,36.13999938964844,35.380001068115234,35.880001068115234,35.880001068115234,99400
2018-02-21,35.83000183105469,36.81999969482422,35.470001220703125,36.119998931884766,36.119998931884766,205300
2018-02-22,36.16999816894531,36.400001525878906,35.58000183105469,35.65999984741211,35.65999984741211,65500
2018-02-23,35.77000045776367,36.459999084472656,35.310001373291016,35.5099983215332,35.5099983215332,77800
2018-02-26,35.540000915527344,35.83000183105469,34.52000045776367,34.90999984741211,34.90999984741211,123600
2018-02-27,34.900001525878906,35.50899887084961,34.7400016784668,34.95000076293945,34.95000076293945,115100
2018-02-28,34.959999084472656,35.59299850463867,34.310001373291016,34.560001373291016,34.560001373291016,102200
2018-03-01,34.54999923706055,34.810001373291016,32.619998931884766,33.86000061035156,33.86000061035156,149700
2018-03-02,33.560001373291016,35.939998626708984,32.9900016784668,35.72999954223633,35.72999954223633,156700
2018-03-05,35.56999969482422,36.529998779296875,35.10100173950195,36.43000030517578,36.43000030517578,161900
2018-03-06,36.650001525878906,36.79999923706055,35.27000045776367,35.45000076293945,35.45000076293945,204100
2018-03-07,35.290000915527344,35.439998626708984,34.189998626708984,34.88999938964844,34.88999938964844,165000
2018-03-08,35.65999984741211,36.880001068115234,33.619998931884766,34.189998626708984,34.189998626708984,202500
2018-03-09,34.5099983215332,34.85900115966797,33.48099899291992,34.11000061035156,34.11000061035156,148800
2018-03-12,33.84000015258789,34.59000015258789,33.5099983215332,34.400001525878906,34.400001525878906,197300
2018-03-13,33.599998474121094,34.04999923706055,32.86000061035156,33.79999923706055,33.79999923706055,524500
2018-03-14,33.9900016784668,34.689998626708984,33.220001220703125,33.56999969482422,33.56999969482422,608000
2018-03-15,33.70000076293945,33.79999923706055,31.850000381469727,32.060001373291016,32.060001373291016,4698200
2018-03-16,32.25,32.720001220703125,31.5,31.56999969482422,31.56999969482422,1841800
2018-03-19,31.5,33.400001525878906,31.489999771118164,32.58000183105469,32.58000183105469,3134500
2018-03-20,32.75,33.459999084472656,32.0,33.09000015258789,33.09000015258789,772000
2018-03-21,32.83000183105469,34.099998474121094,32.064998626708984,33.61000061035156,33.61000061035156,810100
2018-03-22,33.0099983215332,33.95000076293945,31.860000610351562,32.52000045776367,32.52000045776367,876200
2018-03-23,32.5,32.5,31.610000610351562,31.959999084472656,31.959999084472656,1308900
2018-03-26,32.16999816894531,32.82899856567383,31.770000457763672,32.779998779296875,32.779998779296875,527500
2018-03-27,32.72999954223633,32.959999084472656,31.864999771118164,32.02000045776367,32.02000045776367,400000
2018-03-28,32.0,32.8650016784668,31.860000610351562,32.400001525878906,32.400001525878906,349200
2018-03-29,32.40999984741211,33.060001373291016,32.06399917602539,32.310001373291016,32.310001373291016,220600
2018-04-02,32.13999938964844,32.619998931884766,31.530000686645508,31.760000228881836,31.760000228881836,411800
2018-04-03,32.040000915527344,32.61000061035156,31.96500015258789,32.36000061035156,32.36000061035156,279500
2018-04-04,31.889999389648438,33.220001220703125,31.850000381469727,33.060001373291016,33.060001373291016,360400
2018-04-05,33.060001373291016,33.25,31.5,33.0099983215332,33.0099983215332,286700
2018-04-06,32.91999816894531,33.5,32.2400016784668,32.4900016784668,32.4900016784668,202400
2018-04-09,32.63999938964844,33.400001525878906,32.40999984741211,33.040000915527344,33.040000915527344,437800
2018-04-10,33.369998931884766,33.40999984741211,32.78499984741211,33.150001525878906,33.150001525878906,479000
2018-04-11,32.91999816894531,33.560001373291016,32.06999969482422,33.16999816894531,33.16999816894531,234800
2018-04-12,33.380001068115234,33.56999969482422,32.650001525878906,33.18000030517578,33.18000030517578,173100
2018-04-13,33.310001373291016,33.310001373291016,32.15999984741211,32.599998474121094,32.599998474121094,198600
2018-04-16,32.77000045776367,33.02000045776367,32.029998779296875,32.34000015258789,32.34000015258789,235000
2018-04-17,32.5,33.0099983215332,32.029998779296875,32.40999984741211,32.40999984741211,195400
2018-04-18,32.599998474121094,32.599998474121094,31.8799991607666,32.0099983215332,32.0099983215332,361200
2018-04-19,31.8799991607666,32.540000915527344,31.190000534057617,31.6299991607666,31.6299991607666,319600
2018-04-20,31.600000381469727,31.979999542236328,31.01099967956543,31.610000610351562,31.610000610351562,271700
2018-04-23,31.65999984741211,32.05500030517578,31.389999389648438,31.540000915527344,31.540000915527344,559700
2018-04-24,31.860000610351562,32.47999954223633,31.510000228881836,31.940000534057617,31.940000534057617,246200
2018-04-25,31.940000534057617,32.099998474121094,31.6299991607666,31.950000762939453,31.950000762939453,112000
2018-04-26,32.040000915527344,32.91999816894531,32.040000915527344,32.68000030517578,32.68000030517578,163700
2018-04-27,32.91999816894531,33.099998474121094,31.979999542236328,32.88999938964844,32.88999938964844,202300
2018-04-30,32.880001068115234,33.77000045776367,32.880001068115234,33.279998779296875,33.279998779296875,413200
2018-05-01,33.119998931884766,33.63999938964844,32.709999084472656,33.439998626708984,33.439998626708984,356200
2018-05-02,33.2400016784668,33.66999816894531,33.0,33.63999938964844,33.63999938964844,275500
2018-05-03,33.4900016784668,33.779998779296875,33.0099983215332,33.150001525878906,33.150001525878906,288100
2018-05-04,32.97999954223633,33.40999984741211,31.559999465942383,32.810001373291016,32.810001373291016,241000
2018-05-07,32.970001220703125,33.220001220703125,32.25,32.33000183105469,32.33000183105469,115200
2018-05-08,32.59000015258789,33.220001220703125,32.439998626708984,32.970001220703125,32.970001220703125,184000
2018-05-09,33.16999816894531,33.25,32.599998474121094,32.93000030517578,32.93000030517578,197900
2018-05-10,32.970001220703125,33.380001068115234,32.790000915527344,33.369998931884766,33.369998931884766,242600
2018-05-11,33.369998931884766,33.79999923706055,32.75,33.04999923706055,33.04999923706055,162100
2018-05-14,33.06999969482422,33.31999969482422,32.619998931884766,33.0,33.0,198600
2018-05-15,32.0,32.29999923706055,29.545000076293945,31.969999313354492,31.969999313354492,825800
2018-05-16,32.189998626708984,34.060001373291016,31.825000762939453,33.7599983215332,33.7599983215332,665400
2018-05-17,33.5,34.81999969482422,33.130001068115234,34.61000061035156,34.61000061035156,519900
2018-05-18,34.7400016784668,35.58000183105469,34.27000045776367,35.099998474121094,35.099998474121094,461500
2018-05-21,35.2599983215332,36.099998474121094,35.2599983215332,35.88999938964844,35.88999938964844,346200
2018-05-22,35.849998474121094,36.220001220703125,35.380001068115234,35.720001220703125,35.720001220703125,310500
2018-05-23,35.65999984741211,36.209999084472656,34.959999084472656,35.97999954223633,35.97999954223633,294200
2018-05-24,36.0,36.290000915527344,35.779998779296875,36.150001525878906,36.150001525878906,328400
2018-05-25,35.970001220703125,36.5099983215332,35.599998474121094,36.29999923706055,36.29999923706055,220000
2018-05-29,35.9900016784668,36.41999816894531,35.529998779296875,36.08000183105469,36.08000183105469,316400
2018-05-30,36.209999084472656,36.5099983215332,36.0099983215332,36.119998931884766,36.119998931884766,435400
2018-05-31,36.25,36.70000076293945,35.689998626708984,36.400001525878906,36.400001525878906,623100
2018-06-01,36.61000061035156,36.70000076293945,35.95000076293945,36.56999969482422,36.56999969482422,254100
2018-06-04,36.599998474121094,37.47999954223633,36.16999816894531,37.38999938964844,37.38999938964844,368700
2018-06-05,37.6349983215332,38.22999954223633,37.4010009765625,38.09000015258789,38.09000015258789,543400
2018-06-06,38.290000915527344,38.33000183105469,37.82500076293945,37.869998931884766,37.869998931884766,271000
2018-06-07,37.849998474121094,38.65999984741211,37.505001068115234,37.97999954223633,37.97999954223633,188200
2018-06-08,37.93000030517578,38.5,37.709999084472656,37.7400016784668,37.7400016784668,290400
2018-06-11,37.75,39.0,37.599998474121094,38.970001220703125,38.970001220703125,265000
2018-06-12,38.880001068115234,39.18000030517578,38.22999954223633,38.45000076293945,38.45000076293945,328500
2018-06-13,38.38999938964844,38.65999984741211,36.981998443603516,37.20000076293945,37.20000076293945,405500
2018-06-14,37.209999084472656,37.619998931884766,36.13999938964844,36.41999816894531,36.41999816894531,351000
2018-06-15,36.38999938964844,37.02000045776367,36.38999938964844,36.97999954223633,36.97999954223633,416400
2018-06-18,36.66999816894531,38.119998931884766,36.130001068115234,38.0,38.0,319100
2018-06-19,37.93000030517578,39.130001068115234,36.22999954223633,38.91999816894531,38.91999816894531,452900
2018-06-20,38.939998626708984,39.4900016784668,36.22999954223633,38.83000183105469,38.83000183105469,376100
2018-06-21,38.61000061035156,39.303001403808594,38.13999938964844,38.86000061035156,38.86000061035156,228500
2018-06-22,38.97999954223633,39.20000076293945,37.69499969482422,38.279998779296875,38.279998779296875,1197400
2018-06-25,38.0099983215332,38.560001373291016,37.51499938964844,38.54999923706055,38.54999923706055,275800
2018-06-26,38.529998779296875,39.17499923706055,37.939998626708984,38.939998626708984,38.939998626708984,201700
2018-06-27,38.84000015258789,39.38999938964844,37.720001220703125,37.72999954223633,37.72999954223633,398200
2018-06-28,37.7400016784668,38.220001220703125,36.58000183105469,36.65999984741211,36.65999984741211,394000
2018-06-29,36.81999969482422,37.150001525878906,36.04999923706055,36.56999969482422,36.56999969482422,333100
2018-07-02,36.279998779296875,37.5,35.869998931884766,37.45000076293945,37.45000076293945,166800
2018-07-03,37.459999084472656,38.540000915527344,37.2599983215332,38.459999084472656,38.459999084472656,255200
2018-07-05,38.689998626708984,38.7599983215332,37.439998626708984,38.5099983215332,38.5099983215332,216400
2018-07-06,38.41999816894531,39.11000061035156,38.29999923706055,38.84000015258789,38.84000015258789,226000
2018-07-09,38.9900016784668,39.29999923706055,38.84000015258789,38.959999084472656,38.959999084472656,357400
2018-07-10,39.06999969482422,39.90999984741211,39.060001373291016,39.779998779296875,39.779998779296875,361000
2018-07-11,39.689998626708984,39.86000061035156,39.06999969482422,39.560001373291016,39.560001373291016,288200
2018-07-12,39.779998779296875,39.9900016784668,38.64500045776367,39.29999923706055,39.29999923706055,241600
2018-07-13,39.22999954223633,40.29999923706055,39.22999954223633,39.91999816894531,39.91999816894531,296700
2018-07-16,39.869998931884766,40.599998474121094,39.63999938964844,40.2599983215332,40.2599983215332,341500
2018-07-17,40.13999938964844,40.75,40.13999938964844,40.29999923706055,40.29999923706055,282800
2018-07-18,40.29999923706055,40.779998779296875,39.7599983215332,40.68000030517578,40.68000030517578,290800
2018-07-19,40.5,41.209999084472656,40.25,40.470001220703125,40.470001220703125,294800
2018-07-20,40.47999954223633,40.95000076293945,40.130001068115234,40.4900016784668,40.4900016784668,191600
2018-07-23,40.34000015258789,41.459999084472656,39.970001220703125,40.91999816894531,40.91999816894531,250600
2018-07-24,39.90999984741211,40.84199905395508,38.709999084472656,39.81999969482422,39.81999969482422,745000
2018-07-25,39.7400016784668,40.70000076293945,38.959999084472656,40.59000015258789,40.59000015258789,775100
2018-07-26,39.5,40.029998779296875,39.45000076293945,39.4900016784668,39.4900016784668,5896500
2018-07-27,39.5,39.75,39.13999938964844,39.29999923706055,39.29999923706055,2438300
2018-07-30,39.779998779296875,40.380001068115234,39.599998474121094,40.13999938964844,40.13999938964844,3985400
2018-07-31,40.45000076293945,40.72999954223633,39.900001525878906,40.65999984741211,40.65999984741211,927800
2018-08-01,40.45000076293945,40.849998474121094,40.2599983215332,40.650001525878906,40.650001525878906,623600
2018-08-02,39.90999984741211,41.005001068115234,39.88999938964844,40.599998474121094,40.599998474121094,691000
2018-08-03,39.90999984741211,41.209999084472656,39.90999984741211,41.029998779296875,41.029998779296875,1351300
2018-08-06,41.2400016784668,42.224998474121094,40.97999954223633,42.06999969482422,42.06999969482422,635900
2018-08-07,42.119998931884766,42.93000030517578,41.724998474121094,42.79999923706055,42.79999923706055,854200
2018-08-08,42.68000030517578,43.51499938964844,42.494998931884766,43.22999954223633,43.22999954223633,596000
2018-08-09,43.41999816894531,44.79999923706055,42.70100021362305,44.790000915527344,44.790000915527344,582200
2018-08-10,43.41999816894531,45.16999816894531,43.029998779296875,44.900001525878906,44.900001525878906,433200
2018-08-13,45.0,45.560001373291016,42.66999816894531,43.75,43.75,739800
2018-08-14,45.939998626708984,46.0,41.290000915527344,43.630001068115234,43.630001068115234,1437000
2018-08-15,43.83000183105469,43.83000183105469,39.20000076293945,40.08000183105469,40.08000183105469,2190900
2018-08-16,40.540000915527344,41.119998931884766,39.66999816894531,39.67499923706055,39.67499923706055,702100
2018-08-17,39.54999923706055,40.709999084472656,39.06999969482422,40.459999084472656,40.459999084472656,549400
2018-08-20,40.529998779296875,42.810001373291016,40.529998779296875,41.810001373291016,41.810001373291016,1339300
2018-08-21,42.150001525878906,42.93000030517578,41.435001373291016,42.630001068115234,42.630001068115234,637400
2018-08-22,42.63999938964844,43.33000183105469,42.08000183105469,42.95000076293945,42.95000076293945,630500
2018-08-23,42.939998626708984,43.88999938964844,42.220001220703125,43.31999969482422,43.31999969482422,549000
2018-08-24,43.040000915527344,43.2400016784668,42.380001068115234,42.540000915527344,42.540000915527344,358700
2018-08-27,42.5,43.650001525878906,42.2400016784668,42.970001220703125,42.970001220703125,712400
2018-08-28,43.220001220703125,43.31999969482422,42.63999938964844,42.959999084472656,42.959999084472656,480100
2018-08-29,43.0,43.27000045776367,42.2599983215332,43.099998474121094,43.099998474121094,381800
2018-08-30,43.0,43.77299880981445,42.79999923706055,43.33000183105469,43.33000183105469,210700
2018-08-31,43.16999816894531,44.36000061035156,43.07699966430664,44.25,44.25,295200
2018-09-04,44.2400016784668,45.209999084472656,43.869998931884766,44.880001068115234,44.880001068115234,478700
2018-09-05,44.65999984741211,45.79999923706055,43.90999984741211,45.540000915527344,45.540000915527344,544800
2018-09-06,45.869998931884766,46.189998626708984,44.81999969482422,45.04999923706055,45.04999923706055,261500
2018-09-07,44.93000030517578,46.630001068115234,44.93000030517578,45.720001220703125,45.720001220703125,484700
2018-09-10,45.970001220703125,46.45000076293945,45.34000015258789,45.529998779296875,45.529998779296875,219400
2018-09-11,45.279998779296875,45.709999084472656,44.56999969482422,45.119998931884766,45.119998931884766,210400
2018-09-12,45.16999816894531,45.79999923706055,44.56999969482422,44.869998931884766,44.869998931884766,236200
2018-09-13,45.119998931884766,45.65999984741211,44.77000045776367,44.88999938964844,44.88999938964844,232300
2018-09-14,44.84000015258789,45.22999954223633,44.4900016784668,44.68000030517578,44.68000030517578,454000
2018-09-17,44.599998474121094,44.650001525878906,43.2400016784668,43.40999984741211,43.40999984741211,222700
2018-09-18,43.40999984741211,43.847999572753906,43.04999923706055,43.54999923706055,43.54999923706055,502000
2018-09-19,43.400001525878906,43.86000061035156,42.70000076293945,43.15999984741211,43.15999984741211,278700
2018-09-20,43.41999816894531,44.33000183105469,42.849998474121094,43.689998626708984,43.689998626708984,278800
2018-09-21,43.72999954223633,45.11000061035156,42.63999938964844,43.34000015258789,43.34000015258789,793900
2018-09-24,42.400001525878906,44.939998626708984,41.77000045776367,43.27000045776367,43.27000045776367,436400
2018-09-25,43.34000015258789,44.04999923706055,42.59000015258789,44.0,44.0,295000
2018-09-26,44.63999938964844,44.91999816894531,43.86000061035156,44.150001525878906,44.150001525878906,313700
2018-09-27,44.13999938964844,45.150001525878906,44.0,45.099998474121094,45.099998474121094,215900
2018-09-28,44.959999084472656,46.369998931884766,44.540000915527344,45.13999938964844,45.13999938964844,499800
2018-10-01,45.369998931884766,45.540000915527344,44.029998779296875,44.5099983215332,44.5099983215332,366000
2018-10-02,44.290000915527344,44.900001525878906,43.28499984741211,43.68000030517578,43.68000030517578,658400
2018-10-03,43.93000030517578,44.869998931884766,43.3380012512207,44.84000015258789,44.84000015258789,271500
2018-10-04,45.4900016784668,45.4900016784668,43.599998474121094,44.0,44.0,852400
2018-10-05,44.06999969482422,44.36000061035156,43.5,43.849998474121094,43.849998474121094,467500
2018-10-08,43.650001525878906,44.619998931884766,42.2400016784668,42.72999954223633,42.72999954223633,353800
2018-10-09,42.58000183105469,43.4900016784668,42.09000015258789,42.439998626708984,42.439998626708984,328500
2018-10-10,42.439998626708984,43.2400016784668,39.959999084472656,40.15999984741211,40.15999984741211,673500
2018-10-11,40.459999084472656,40.76499938964844,38.599998474121094,39.93000030517578,39.93000030517578,463300
2018-10-12,40.56999969482422,42.439998626708984,40.2400016784668,42.220001220703125,42.220001220703125,556700
2018-10-15,42.02000045776367,42.779998779296875,41.5099983215332,42.18000030517578,42.18000030517578,447500
2018-10-16,42.2599983215332,42.71500015258789,41.709999084472656,42.5,42.5,303600
2018-10-17,42.5,42.5,41.20000076293945,42.40999984741211,42.40999984741211,209100
2018-10-18,42.15999984741211,42.65999984741211,41.310001373291016,41.7599983215332,41.7599983215332,414700
2018-10-19,41.75,42.93000030517578,41.36000061035156,41.56999969482422,41.56999969482422,270400
2018-10-22,41.7400016784668,42.970001220703125,41.54499816894531,42.33000183105469,42.33000183105469,237300
2018-10-23,41.650001525878906,42.560001373291016,41.06999969482422,42.20000076293945,42.20000076293945,358400
2018-10-24,42.09000015258789,42.939998626708984,41.290000915527344,41.58000183105469,41.58000183105469,490600
2018-10-25,42.09000015258789,42.7400016784668,40.2400016784668,41.029998779296875,41.029998779296875,645300
2018-10-26,40.61000061035156,41.68000030517578,38.93000030517578,41.15999984741211,41.15999984741211,378500
2018-10-29,41.5,42.119998931884766,40.84000015258789,41.31999969482422,41.31999969482422,304500
2018-10-30,41.310001373291016,42.834999084472656,41.279998779296875,42.290000915527344,42.290000915527344,366000
2018-10-31,42.7400016784668,43.189998626708984,41.34000015258789,41.43000030517578,41.43000030517578,503400
2018-11-01,41.47999954223633,43.189998626708984,41.35499954223633,42.790000915527344,42.790000915527344,378500
2018-11-02,42.869998931884766,43.63999938964844,42.45399856567383,43.220001220703125,43.220001220703125,349400
2018-11-05,43.22999954223633,44.45000076293945,42.689998626708984,44.20000076293945,44.20000076293945,378800
2018-11-06,44.060001373291016,45.02000045776367,43.86000061035156,44.529998779296875,44.529998779296875,447500
2018-11-07,44.529998779296875,45.0,43.689998626708984,44.77000045776367,44.77000045776367,447700
2018-11-08,44.880001068115234,45.880001068115234,44.63999938964844,45.0,45.0,323900
2018-11-09,45.0,45.380001068115234,43.77000045776367,43.849998474121094,43.849998474121094,253600
2018-11-12,43.86000061035156,44.79499816894531,42.04999923706055,42.4900016784668,42.4900016784668,719800
2018-11-13,43.5,43.5,38.52000045776367,41.09000015258789,41.09000015258789,856700
2018-11-14,40.27000045776367,42.67499923706055,40.27000045776367,41.779998779296875,41.779998779296875,945400
2018-11-15,39.84000015258789,40.790000915527344,39.54999923706055,40.0,40.0,4219000
2018-11-16,39.95000076293945,40.060001373291016,38.84000015258789,39.189998626708984,39.189998626708984,1321000
2018-11-19,39.18000030517578,39.599998474121094,37.02000045776367,37.209999084472656,37.209999084472656,1585900
2018-11-20,36.650001525878906,37.20000076293945,35.65999984741211,36.060001373291016,36.060001373291016,1639300
2018-11-21,36.5,37.349998474121094,35.775001525878906,36.959999084472656,36.959999084472656,3005100
2018-11-23,36.47999954223633,37.119998931884766,36.119998931884766,36.779998779296875,36.779998779296875,510200
2018-11-26,37.0099983215332,37.560001373291016,36.15999984741211,36.189998626708984,36.189998626708984,818900
2018-11-27,35.84000015258789,36.689998626708984,34.72999954223633,36.689998626708984,36.689998626708984,613600
2018-11-28,36.68000030517578,37.75,36.053001403808594,37.75,37.75,1081700
2018-11-29,37.630001068115234,37.75,36.26499938964844,37.470001220703125,37.470001220703125,889700
2018-11-30,37.2400016784668,37.349998474121094,36.040000915527344,36.77000045776367,36.77000045776367,1639700
2018-12-03,37.5,38.400001525878906,37.064998626708984,38.33000183105469,38.33000183105469,1201600
2018-12-04,38.31999969482422,38.529998779296875,36.27000045776367,36.34000015258789,36.34000015258789,603300
2018-12-06,35.83000183105469,37.53499984741211,34.310001373291016,35.52000045776367,35.52000045776367,1095700
2018-12-07,35.40999984741211,35.66999816894531,32.349998474121094,32.36000061035156,32.36000061035156,1445000
2018-12-10,32.5099983215332,34.060001373291016,31.549999237060547,31.899999618530273,31.899999618530273,1095200
2018-12-11,32.40999984741211,32.88199996948242,31.81999969482422,32.36000061035156,32.36000061035156,834600
2018-12-12,32.599998474121094,32.970001220703125,31.84000015258789,31.860000610351562,31.860000610351562,484800
2018-12-13,32.0,32.65999984741211,30.440000534057617,30.690000534057617,30.690000534057617,783300
2018-12-14,30.420000076293945,30.950000762939453,29.600000381469727,29.84000015258789,29.84000015258789,719600
2018-12-17,29.469999313354492,30.299999237060547,28.920000076293945,29.229999542236328,29.229999542236328,1218700
2018-12-18,29.670000076293945,29.670000076293945,28.579999923706055,29.06999969482422,29.06999969482422,697500
2018-12-19,29.139999389648438,29.780000686645508,28.920000076293945,29.079999923706055,29.079999923706055,1189800
2018-12-20,29.100000381469727,29.100000381469727,26.719999313354492,27.020000457763672,27.020000457763672,1188200
2018-12-21,27.40999984741211,27.959999084472656,26.1200008392334,26.40999984741211,26.40999984741211,2134100
2018-12-24,26.0,26.969999313354492,25.599000930786133,26.479999542236328,26.479999542236328,386900
2018-12-26,26.59000015258789,28.280000686645508,26.59000015258789,28.260000228881836,28.260000228881836,656700
2018-12-27,27.889999389648438,29.93000030517578,27.31999969482422,29.059999465942383,29.059999465942383,1009900
2018-12-28,29.0,29.530000686645508,28.6299991607666,28.979999542236328,28.979999542236328,898300
2018-12-31,29.25,29.25,27.889999389648438,28.170000076293945,28.170000076293945,994700
2019-01-02,27.700000762939453,28.25,27.440000534057617,27.940000534057617,27.940000534057617,509200
2019-01-03,27.639999389648438,28.860000610351562,27.110000610351562,27.190000534057617,27.190000534057617,571900
2019-01-04,27.34000015258789,28.270000457763672,27.020000457763672,27.729999542236328,27.729999542236328,765500
2019-01-07,27.790000915527344,28.68000030517578,27.790000915527344,28.6299991607666,28.6299991607666,997100
2019-01-08,28.84000015258789,29.350000381469727,28.520000457763672,29.1299991607666,29.1299991607666,829700
2019-01-09,29.059999465942383,29.799999237060547,28.950000762939453,29.56999969482422,29.56999969482422,525100
2019-01-10,29.200000762939453,29.59000015258789,28.5,29.350000381469727,29.350000381469727,783700
2019-01-11,29.350000381469727,31.450000762939453,28.889999389648438,30.920000076293945,30.920000076293945,1586400
2019-01-14,30.84000015258789,31.7810001373291,29.940000534057617,30.420000076293945,30.420000076293945,684700
2019-01-15,30.270000457763672,30.700000762939453,30.030000686645508,30.600000381469727,30.600000381469727,439500
2019-01-16,30.600000381469727,31.959999084472656,30.59000015258789,31.90999984741211,31.90999984741211,950900
2019-01-17,31.65999984741211,32.619998931884766,31.06999969482422,32.540000915527344,32.540000915527344,807800
2019-01-18,32.54999923706055,33.65999984741211,32.1150016784668,33.25,33.25,972700
2019-01-22,33.11000061035156,33.33000183105469,31.670000076293945,31.969999313354492,31.969999313354492,679700
2019-01-23,31.8799991607666,32.97999954223633,31.3700008392334,31.8700008392334,31.8700008392334,538200
2019-01-24,31.8700008392334,32.47999954223633,31.43000030517578,32.45000076293945,32.45000076293945,338700
2019-01-25,32.91999816894531,33.2400016784668,31.81999969482422,32.849998474121094,32.849998474121094,397800
2019-01-28,32.31999969482422,32.93299865722656,31.489999771118164,31.739999771118164,31.739999771118164,490100
2019-01-29,31.850000381469727,32.150001525878906,31.450000762939453,31.59000015258789,31.59000015258789,359100
2019-01-30,31.90999984741211,31.90999984741211,31.1299991607666,31.3700008392334,31.3700008392334,331700
2019-01-31,31.270000457763672,31.809999465942383,30.858999252319336,31.760000228881836,31.760000228881836,492800
2019-02-01,31.940000534057617,32.060001373291016,31.309999465942383,31.860000610351562,31.860000610351562,330500
2019-02-04,31.790000915527344,31.889999389648438,31.399999618530273,31.549999237060547,31.549999237060547,503500
2019-02-05,31.600000381469727,32.66999816894531,31.530000686645508,32.5099983215332,32.5099983215332,416200
2019-02-06,32.41999816894531,32.6349983215332,31.290000915527344,31.3799991607666,31.3799991607666,362700
2019-02-07,31.100000381469727,31.799999237060547,30.690000534057617,31.719999313354492,31.719999313354492,458100
2019-02-08,31.559999465942383,31.899999618530273,31.079999923706055,31.770000457763672,31.770000457763672,286100
2019-02-11,31.729999542236328,32.189998626708984,31.530000686645508,31.780000686645508,31.780000686645508,470500
2019-02-12,32.08000183105469,32.95000076293945,31.920000076293945,32.939998626708984,32.939998626708984,363500
2019-02-13,33.13999938964844,33.619998931884766,32.560001373291016,33.41999816894531,33.41999816894531,402600
2019-02-14,33.22999954223633,33.75,32.744998931884766,33.310001373291016,33.310001373291016,515200
2019-02-15,33.56999969482422,34.380001068115234,33.06399917602539,34.0,34.0,504400
2019-02-19,33.79999923706055,34.040000915527344,33.209999084472656,33.47999954223633,33.47999954223633,429200
2019-02-20,33.43000030517578,34.20000076293945,33.380001068115234,34.18000030517578,34.18000030517578,469400
2019-02-21,33.9900016784668,34.209999084472656,33.15999984741211,33.40999984741211,33.40999984741211,419900
2019-02-22,33.66999816894531,33.70000076293945,33.119998931884766,33.689998626708984,33.689998626708984,372000
2019-02-25,33.689998626708984,34.02199935913086,32.900001525878906,32.970001220703125,32.970001220703125,524800
2019-02-26,33.040000915527344,34.16999816894531,32.83000183105469,34.060001373291016,34.060001373291016,929500
2019-02-27,32.34000015258789,35.65999984741211,31.0,32.95000076293945,32.95000076293945,1236200
2019-02-28,32.029998779296875,33.84000015258789,31.290000915527344,33.599998474121094,33.599998474121094,1085800
2019-03-01,33.97999954223633,35.470001220703125,33.599998474121094,35.189998626708984,35.189998626708984,562300
2019-03-04,35.380001068115234,35.380001068115234,32.76499938964844,33.0099983215332,33.0099983215332,731600
2019-03-05,32.66999816894531,33.189998626708984,32.029998779296875,32.099998474121094,32.099998474121094,672800
2019-03-06,32.189998626708984,32.35499954223633,30.799999237060547,31.40999984741211,31.40999984741211,725700
2019-03-07,31.309999465942383,31.40999984741211,30.600000381469727,31.18000030517578,31.18000030517578,633400
2019-03-08,30.84000015258789,31.309999465942383,30.25,30.440000534057617,30.440000534057617,903800
2019-03-11,30.280000686645508,31.530000686645508,30.280000686645508,31.299999237060547,31.299999237060547,539900
2019-03-12,31.3799991607666,31.3799991607666,30.34000015258789,30.719999313354492,30.719999313354492,431500
2019-03-13,30.829999923706055,31.639999389648438,30.5,31.6200008392334,31.6200008392334,1028000
2019-03-14,31.579999923706055,31.885000228881836,30.8700008392334,31.09000015258789,31.09000015258789,557800
2019-03-15,30.959999084472656,30.959999084472656,29.829999923706055,30.5,30.5,1283100
2019-03-18,30.540000915527344,30.68000030517578,29.979999542236328,30.170000076293945,30.170000076293945,714200
2019-03-19,30.329999923706055,30.559999465942383,29.6299991607666,29.829999923706055,29.829999923706055,608400
2019-03-20,29.8700008392334,30.030000686645508,28.579999923706055,28.93000030517578,28.93000030517578,694200
2019-03-21,28.889999389648438,29.899999618530273,28.459999084472656,29.75,29.75,641700
2019-03-22,29.510000228881836,29.69499969482422,28.649999618530273,29.06999969482422,29.06999969482422,458100
2019-03-25,29.020000457763672,29.780000686645508,28.530000686645508,29.3799991607666,29.3799991607666,406200
2019-03-26,29.600000381469727,30.670000076293945,29.329999923706055,30.049999237060547,30.049999237060547,661200
2019-03-27,30.059999465942383,31.75,30.059999465942383,31.280000686645508,31.280000686645508,923900
2019-03-28,31.420000076293945,31.985000610351562,30.969999313354492,31.239999771118164,31.239999771118164,504800
2019-03-29,31.3799991607666,31.6299991607666,30.989999771118164,31.43000030517578,31.43000030517578,414600
2019-04-01,31.540000915527344,32.06999969482422,31.209999084472656,31.979999542236328,31.979999542236328,578700
2019-04-02,31.969999313354492,31.969999313354492,29.84000015258789,30.450000762939453,30.450000762939453,1068900
2019-04-03,30.75,30.864999771118164,29.81999969482422,30.170000076293945,30.170000076293945,652100
2019-04-04,30.309999465942383,30.90999984741211,29.854999542236328,30.510000228881836,30.510000228881836,467200
2019-04-05,30.600000381469727,30.639999389648438,30.239999771118164,30.399999618530273,30.399999618530273,511500
2019-04-08,30.31999969482422,30.469999313354492,29.75,29.93000030517578,29.93000030517578,611200
2019-04-09,29.75,29.969999313354492,29.469999313354492,29.489999771118164,29.489999771118164,423200
2019-04-10,29.489999771118164,30.514999389648438,29.389999389648438,29.579999923706055,29.579999923706055,1025400
2019-04-11,29.729999542236328,30.049999237060547,29.1299991607666,29.559999465942383,29.559999465942383,713600
2019-04-12,29.770000457763672,29.989999771118164,29.100000381469727,29.1200008392334,29.1200008392334,586300
2019-04-15,29.18000030517578,29.5,28.610000610351562,29.25,29.25,1117500
2019-04-16,29.270000457763672,29.459999084472656,28.75,29.200000762939453,29.200000762939453,470500
2019-04-17,29.290000915527344,29.565000534057617,28.360000610351562,28.6299991607666,28.6299991607666,675300
2019-04-18,28.56999969482422,28.770000457763672,27.979999542236328,28.3799991607666,28.3799991607666,827300
2019-04-22,28.260000228881836,29.040000915527344,27.90999984741211,28.549999237060547,28.549999237060547,2719200
2019-04-23,28.700000762939453,29.40999984741211,28.5,29.100000381469727,29.100000381469727,569800
2019-04-24,29.059999465942383,29.652000427246094,29.0,29.209999084472656,29.209999084472656,690100
2019-04-25,29.049999237060547,29.34000015258789,28.440000534057617,29.15999984741211,29.15999984741211,312200
2019-04-26,29.06999969482422,29.06999969482422,27.68000030517578,28.139999389648438,28.139999389648438,1527500
2019-04-29,28.260000228881836,28.545000076293945,27.399999618530273,27.780000686645508,27.780000686645508,904300
2019-04-30,27.75,27.899999618530273,26.065000534057617,27.0,27.0,1433200
2019-05-01,26.979999542236328,27.475000381469727,26.43000030517578,26.799999237060547,26.799999237060547,888000
2019-05-02,26.729999542236328,27.100000381469727,26.024999618530273,27.049999237060547,27.049999237060547,856000
2019-05-03,27.229999542236328,27.90999984741211,27.040000915527344,27.719999313354492,27.719999313354492,750800
2019-05-06,27.170000076293945,27.78499984741211,26.899999618530273,27.450000762939453,27.450000762939453,735200
2019-05-07,27.1200008392334,27.360000610351562,26.170000076293945,26.239999771118164,26.239999771118164,952600
2019-05-08,26.290000915527344,26.75,25.790000915527344,26.59000015258789,26.59000015258789,815100
2019-05-09,27.15999984741211,29.43000030517578,26.989999771118164,27.489999771118164,27.489999771118164,1553000
2019-05-10,27.209999084472656,27.559999465942383,26.459999084472656,27.459999084472656,27.459999084472656,878300
2019-05-13,26.940000534057617,27.15999984741211,26.1299991607666,26.5,26.5,902600
2019-05-14,26.59000015258789,27.260000228881836,26.549999237060547,27.200000762939453,27.200000762939453,632500
2019-05-15,26.899999618530273,27.81999969482422,26.780000686645508,27.700000762939453,27.700000762939453,1222100
2019-05-16,27.770000457763672,28.43000030517578,27.360000610351562,27.559999465942383,27.559999465942383,826300
2019-05-17,27.209999084472656,27.770000457763672,26.5,27.110000610351562,27.110000610351562,1062300
2019-05-20,26.799999237060547,27.05500030517578,26.420000076293945,26.6299991607666,26.6299991607666,610700
2019-05-21,26.760000228881836,27.584999084472656,26.459999084472656,27.459999084472656,27.459999084472656,898900
2019-05-22,27.31999969482422,28.170000076293945,27.229999542236328,27.84000015258789,27.84000015258789,581200
2019-05-23,27.559999465942383,28.469999313354492,27.280000686645508,28.34000015258789,28.34000015258789,640700
2019-05-24,28.510000228881836,29.049999237060547,27.780000686645508,28.860000610351562,28.860000610351562,1011200
2019-05-28,28.989999771118164,29.1200008392334,27.219999313354492,27.360000610351562,27.360000610351562,877600
2019-05-29,27.65999984741211,28.0,26.90999984741211,27.709999084472656,27.709999084472656,1088300
2019-05-30,27.93000030517578,28.200000762939453,27.350000381469727,27.5,27.5,747700
2019-05-31,27.260000228881836,27.719999313354492,26.90999984741211,27.229999542236328,27.229999542236328,630000
2019-06-03,27.280000686645508,27.40999984741211,25.610000610351562,25.760000228881836,25.760000228881836,1029300
2019-06-04,26.040000915527344,27.174999237060547,25.8799991607666,27.100000381469727,27.100000381469727,883200
2019-06-05,27.190000534057617,27.5,26.760000228881836,27.280000686645508,27.280000686645508,750200
2019-06-06,27.190000534057617,27.639999389648438,26.010000228881836,26.420000076293945,26.420000076293945,875200
2019-06-07,26.610000610351562,27.040000915527344,26.1200008392334,26.190000534057617,26.190000534057617,1045200
2019-06-10,26.3799991607666,27.84000015258789,26.3799991607666,27.559999465942383,27.559999465942383,846800
2019-06-11,28.889999389648438,29.790000915527344,27.969999313354492,28.479999542236328,28.479999542236328,1290000
2019-06-12,28.3799991607666,28.760000228881836,27.809999465942383,28.31999969482422,28.31999969482422,806800
2019-06-13,28.420000076293945,30.40999984741211,28.079999923706055,30.260000228881836,30.260000228881836,1057000
2019-06-14,30.25,30.479999542236328,29.5,30.040000915527344,30.040000915527344,833800
2019-06-17,30.110000610351562,30.719999313354492,29.510000228881836,30.479999542236328,30.479999542236328,882900
2019-06-18,30.75,31.040000915527344,29.9950008392334,30.809999465942383,30.809999465942383,600100
2019-06-19,30.729999542236328,31.229999542236328,30.2549991607666,30.950000762939453,30.950000762939453,1035900
2019-06-20,31.420000076293945,31.799999237060547,30.969999313354492,31.709999084472656,31.709999084472656,802800
2019-06-21,31.719999313354492,32.029998779296875,31.09000015258789,31.950000762939453,31.950000762939453,817500
2019-06-24,31.989999771118164,32.099998474121094,31.100000381469727,31.31999969482422,31.31999969482422,711200
2019-06-25,31.309999465942383,31.59000015258789,30.479999542236328,30.850000381469727,30.850000381469727,575800
2019-06-26,30.940000534057617,31.530000686645508,30.59000015258789,31.040000915527344,31.040000915527344,408200
2019-06-27,31.149999618530273,31.479999542236328,30.920000076293945,31.469999313354492,31.469999313354492,516200
2019-06-28,31.59000015258789,32.060001373291016,30.540000915527344,30.729999542236328,30.729999542236328,1904900
2019-07-01,31.15999984741211,31.700000762939453,29.56999969482422,29.809999465942383,29.809999465942383,902900
2019-07-02,29.850000381469727,30.149999618530273,29.350000381469727,29.81999969482422,29.81999969482422,603500
2019-07-03,29.989999771118164,30.190000534057617,29.350000381469727,29.969999313354492,29.969999313354492,278900
2019-07-05,29.81999969482422,30.149999618530273,29.399999618530273,30.049999237060547,30.049999237060547,386700
2019-07-08,29.969999313354492,30.780000686645508,29.645000457763672,30.6299991607666,30.6299991607666,701700
2019-07-09,30.5,30.510000228881836,29.8700008392334,30.34000015258789,30.34000015258789,539900
2019-07-10,30.489999771118164,30.93000030517578,30.1299991607666,30.809999465942383,30.809999465942383,902300
2019-07-11,31.170000076293945,31.239999771118164,30.8700008392334,31.1299991607666,31.1299991607666,387800
2019-07-12,31.450000762939453,31.760000228881836,30.860000610351562,31.420000076293945,31.420000076293945,551200
2019-07-15,31.3799991607666,31.479999542236328,30.559999465942383,30.940000534057617,30.940000534057617,748600
2019-07-16,30.959999084472656,31.530000686645508,30.639999389648438,31.440000534057617,31.440000534057617,417200
2019-07-17,31.31999969482422,31.790000915527344,31.0,31.690000534057617,31.690000534057617,610700
2019-07-18,31.6299991607666,32.27000045776367,31.360000610351562,32.04999923706055,32.04999923706055,483600
2019-07-19,31.81999969482422,32.45000076293945,31.639999389648438,31.700000762939453,31.700000762939453,554500
2019-07-22,31.75,31.860000610351562,30.920000076293945,31.25,31.25,393100
2019-07-23,31.510000228881836,31.510000228881836,30.75,31.149999618530273,31.149999618530273,435100
2019-07-24,31.040000915527344,32.33000183105469,31.0,32.099998474121094,32.099998474121094,681300
2019-07-25,32.029998779296875,32.36000061035156,31.719999313354492,32.20000076293945,32.20000076293945,451700
2019-07-26,32.36000061035156,32.38999938964844,31.649999618530273,32.34000015258789,32.34000015258789,413800
2019-07-29,32.31999969482422,32.31999969482422,31.270000457763672,31.729999542236328,31.729999542236328,705000
2019-07-30,31.479999542236328,31.559999465942383,30.78499984741211,31.190000534057617,31.190000534057617,663600
2019-07-31,31.299999237060547,32.060001373291016,30.959999084472656,31.59000015258789,31.59000015258789,747100
2019-08-01,31.59000015258789,31.59000015258789,29.549999237060547,30.3799991607666,30.3799991607666,830100
2019-08-02,30.1200008392334,30.389999389648438,29.459999084472656,29.809999465942383,29.809999465942383,622600
2019-08-05,29.239999771118164,29.549999237060547,28.290000915527344,28.969999313354492,28.969999313354492,1005100
2019-08-06,28.719999313354492,30.030000686645508,28.047000885009766,29.790000915527344,29.790000915527344,1324300
2019-08-07,30.399999618530273,32.599998474121094,29.93000030517578,31.360000610351562,31.360000610351562,1185200
2019-08-08,31.399999618530273,32.130001068115234,31.0,31.799999237060547,31.799999237060547,5653300
2019-08-09,31.829999923706055,32.20000076293945,30.989999771118164,31.25,31.25,1404200
2019-08-12,31.100000381469727,31.299999237060547,30.020000457763672,30.700000762939453,30.700000762939453,2610300
2019-08-13,30.739999771118164,31.549999237060547,29.7450008392334,30.020000457763672,30.020000457763672,1267600
2019-08-14,29.350000381469727,29.450000762939453,28.649999618530273,28.770000457763672,28.770000457763672,1516600
2019-08-15,28.5,29.56999969482422,28.5,28.780000686645508,28.780000686645508,1229800
2019-08-16,28.940000534057617,29.200000762939453,27.520000457763672,27.719999313354492,27.719999313354492,1332600
2019-08-19,28.190000534057617,28.399999618530273,27.420000076293945,27.5,27.5,1069000
2019-08-20,27.3799991607666,28.229999542236328,27.299999237060547,27.829999923706055,27.829999923706055,729100
2019-08-21,28.190000534057617,28.459999084472656,27.790000915527344,28.280000686645508,28.280000686645508,1064300
2019-08-22,28.459999084472656,29.309999465942383,28.190000534057617,28.739999771118164,28.739999771118164,1140500
2019-08-23,28.43000030517578,28.479999542236328,26.84000015258789,26.93000030517578,26.93000030517578,1451800
2019-08-26,27.290000915527344,27.389999389648438,26.799999237060547,27.260000228881836,27.260000228881836,626900
2019-08-27,27.360000610351562,27.81999969482422,26.799999237060547,26.989999771118164,26.989999771118164,707400
2019-08-28,26.940000534057617,27.81999969482422,26.8799991607666,27.709999084472656,27.709999084472656,1348900
2019-08-29,28.229999542236328,29.045000076293945,27.950000762939453,28.829999923706055,28.829999923706055,1260000
2019-08-30,29.0,29.0,27.975000381469727,28.360000610351562,28.360000610351562,1134100
2019-09-03,27.700000762939453,28.309999465942383,27.309999465942383,27.6200008392334,27.6200008392334,725300
2019-09-04,27.979999542236328,28.149999618530273,27.670000076293945,27.889999389648438,27.889999389648438,801900
2019-09-05,28.270000457763672,28.5,27.540000915527344,27.579999923706055,27.579999923706055,1314700
2019-09-06,27.75,28.110000610351562,27.209999084472656,27.239999771118164,27.239999771118164,483200
2019-09-09,27.299999237060547,28.40999984741211,27.06999969482422,27.899999618530273,27.899999618530273,1672400
2019-09-10,27.940000534057617,30.459999084472656,27.809999465942383,30.350000381469727,30.350000381469727,2324600
2019-09-11,30.549999237060547,32.29999923706055,29.81999969482422,32.220001220703125,32.220001220703125,1521300
2019-09-12,32.099998474121094,32.56999969482422,31.079999923706055,31.399999618530273,31.399999618530273,1296200
2019-09-13,31.729999542236328,32.209999084472656,30.559999465942383,30.649999618530273,30.649999618530273,854500
2019-09-16,30.440000534057617,30.729999542236328,27.719999313354492,27.770000457763672,27.770000457763672,1457500
2019-09-17,27.799999237060547,28.15999984741211,26.8799991607666,26.940000534057617,26.940000534057617,1287300
2019-09-18,26.979999542236328,27.135000228881836,26.09000015258789,26.56999969482422,26.56999969482422,1114500
2019-09-19,26.799999237060547,27.149999618530273,25.489999771118164,25.65999984741211,25.65999984741211,929900
2019-09-20,25.59000015258789,26.010000228881836,23.450000762939453,24.93000030517578,24.93000030517578,2676100
2019-09-23,24.8799991607666,25.299999237060547,24.59000015258789,24.780000686645508,24.780000686645508,948400
2019-09-24,24.940000534057617,25.094999313354492,24.40999984741211,24.729999542236328,24.729999542236328,594900
2019-09-25,24.719999313354492,25.100000381469727,24.489999771118164,24.959999084472656,24.959999084472656,592200
2019-09-26,24.940000534057617,25.06999969482422,24.110000610351562,24.149999618530273,24.149999618530273,835800
2019-09-27,24.18000030517578,24.219999313354492,23.479999542236328,23.93000030517578,23.93000030517578,1555500
2019-09-30,24.0,24.450000762939453,23.760000228881836,24.06999969482422,24.06999969482422,793100
2019-10-01,25.260000228881836,25.459999084472656,24.649999618530273,25.049999237060547,25.049999237060547,1451700
2019-10-02,24.670000076293945,24.959999084472656,23.84000015258789,24.579999923706055,24.579999923706055,1317500
2019-10-03,24.399999618530273,24.709999084472656,22.540000915527344,23.059999465942383,23.059999465942383,1706800
2019-10-04,23.219999313354492,23.959999084472656,23.020000457763672,23.915000915527344,23.915000915527344,1041200
2019-10-07,23.81999969482422,24.309999465942383,22.940000534057617,22.969999313354492,22.969999313354492,769400
2019-10-08,22.739999771118164,22.979999542236328,22.020000457763672,22.75,22.75,881700
2019-10-09,22.84000015258789,23.219999313354492,22.600000381469727,22.860000610351562,22.860000610351562,377700
2019-10-10,23.010000228881836,23.440000534057617,22.889999389648438,23.270000457763672,23.270000457763672,470600
2019-10-11,23.549999237060547,24.440000534057617,23.489999771118164,23.93000030517578,23.93000030517578,727100
2019-10-14,23.889999389648438,23.972000122070312,23.200000762939453,23.829999923706055,23.829999923706055,636000
2019-10-15,23.799999237060547,24.6200008392334,23.459999084472656,24.440000534057617,24.440000534057617,718200
2019-10-16,24.190000534057617,24.399999618530273,23.860000610351562,23.93000030517578,23.93000030517578,626200
2019-10-17,24.020000457763672,24.420000076293945,23.81999969482422,23.899999618530273,23.899999618530273,631100
2019-10-18,23.6200008392334,23.6200008392334,22.920000076293945,22.989999771118164,22.989999771118164,572400
2019-10-21,23.06999969482422,23.849000930786133,22.709999084472656,23.149999618530273,23.149999618530273,653500
2019-10-22,23.079999923706055,23.645000457763672,22.739999771118164,23.31999969482422,23.31999969482422,544500
2019-10-23,23.360000610351562,23.729999542236328,22.700000762939453,23.6299991607666,23.6299991607666,433400
2019-10-24,23.6299991607666,23.84000015258789,23.290000915527344,23.790000915527344,23.790000915527344,594300
2019-10-25,23.68000030517578,24.399999618530273,23.56999969482422,23.860000610351562,23.860000610351562,390300
2019-10-28,23.989999771118164,24.420000076293945,23.920000076293945,24.139999389648438,24.139999389648438,467000
2019-10-29,24.030000686645508,24.329999923706055,23.709999084472656,24.1200008392334,24.1200008392334,459500
2019-10-30,24.049999237060547,24.290000915527344,23.875,24.030000686645508,24.030000686645508,448800
2019-10-31,23.8799991607666,23.959999084472656,23.3700008392334,23.799999237060547,23.799999237060547,567400
2019-11-01,23.8700008392334,24.18000030517578,23.549999237060547,23.614999771118164,23.614999771118164,573300
2019-11-04,23.889999389648438,24.239999771118164,23.790000915527344,24.0049991607666,24.0049991607666,731400
2019-11-05,24.030000686645508,25.260000228881836,23.875,25.149999618530273,25.149999618530273,803000
2019-11-06,25.0,25.299999237060547,24.40999984741211,24.829999923706055,24.829999923706055,936100
2019-11-07,28.440000534057617,29.979999542236328,27.06999969482422,29.709999084472656,29.709999084472656,2684400
2019-11-08,29.799999237060547,29.895000457763672,27.540000915527344,27.75,27.75,1040100
2019-11-11,27.299999237060547,28.010000228881836,26.65999984741211,26.78499984741211,26.78499984741211,751100
2019-11-12,26.579999923706055,27.40999984741211,26.040000915527344,27.024999618530273,27.024999618530273,902700
2019-11-13,27.3700008392334,27.59000015258789,26.399999618530273,26.649999618530273,26.649999618530273,470000
2019-11-14,27.010000228881836,27.399999618530273,26.610000610351562,27.030000686645508,27.030000686645508,581100
2019-11-15,27.139999389648438,27.809999465942383,26.700000762939453,27.59000015258789,27.59000015258789,640700
2019-11-18,27.5,27.7549991607666,27.229999542236328,27.329999923706055,27.329999923706055,510300
2019-11-19,27.34000015258789,27.709999084472656,26.84000015258789,27.239999771118164,27.239999771118164,346500
2019-11-20,27.1200008392334,28.540000915527344,27.030000686645508,27.950000762939453,27.950000762939453,1123700
2019-11-21,28.0,28.93000030517578,27.825000762939453,28.450000762939453,28.450000762939453,715900
2019-11-22,28.649999618530273,29.040000915527344,28.235000610351562,28.889999389648438,28.889999389648438,631100
2019-11-25,29.100000381469727,30.040000915527344,28.790000915527344,29.829999923706055,29.829999923706055,627700
2019-11-26,29.739999771118164,30.40999984741211,29.479999542236328,30.200000762939453,30.200000762939453,692700
2019-11-27,30.139999389648438,30.479999542236328,29.920000076293945,30.329999923706055,30.329999923706055,486700
2019-11-29,30.329999923706055,30.3799991607666,29.8799991607666,30.200000762939453,30.200000762939453,356900
2019-12-02,30.209999084472656,30.549999237060547,29.959999084472656,30.239999771118164,30.239999771118164,616000
2019-12-03,29.8799991607666,30.0,29.28499984741211,29.6200008392334,29.6200008392334,535600
2019-12-04,29.75,29.920000076293945,29.299999237060547,29.920000076293945,29.920000076293945,542900
2019-12-05,30.190000534057617,30.510000228881836,30.020000457763672,30.219999313354492,30.219999313354492,500000
2019-12-06,30.579999923706055,30.860000610351562,30.450000762939453,30.739999771118164,30.739999771118164,341000
2019-12-09,30.559999465942383,30.780000686645508,30.34000015258789,30.3799991607666,30.3799991607666,431600
2019-12-10,30.360000610351562,30.59000015258789,30.020000457763672,30.100000381469727,30.100000381469727,385500
2019-12-11,30.200000762939453,30.790000915527344,29.899999618530273,30.6299991607666,30.6299991607666,458700
2019-12-12,30.420000076293945,31.899999618530273,30.239999771118164,31.760000228881836,31.760000228881836,508400
2019-12-13,31.579999923706055,31.81999969482422,31.170000076293945,31.530000686645508,31.530000686645508,519800
2019-12-16,31.979999542236328,31.979999542236328,31.3799991607666,31.59000015258789,31.59000015258789,418400
2019-12-17,31.59000015258789,32.0,31.329999923706055,31.969999313354492,31.969999313354492,410600
2019-12-18,31.850000381469727,32.689998626708984,31.670000076293945,32.56999969482422,32.56999969482422,1009400
2019-12-19,32.75,33.36000061035156,32.25,32.93000030517578,32.93000030517578,987900
2019-12-20,33.040000915527344,33.130001068115234,32.47999954223633,33.0,33.0,927300
2019-12-23,33.040000915527344,33.439998626708984,32.64500045776367,32.93000030517578,32.93000030517578,465900
2019-12-24,33.02000045776367,33.54999923706055,32.880001068115234,33.130001068115234,33.130001068115234,272200
2019-12-26,33.25,33.2599983215332,32.2599983215332,32.84000015258789,32.84000015258789,364800
2019-12-27,33.0,33.22999954223633,32.619998931884766,33.099998474121094,33.099998474121094,221000
2019-12-30,32.84000015258789,33.0,32.15999984741211,32.209999084472656,32.209999084472656,440300
2019-12-31,32.25,32.7599983215332,32.0,32.43000030517578,32.43000030517578,373000
2020-01-02,32.7599983215332,32.900001525878906,31.790000915527344,32.43000030517578,32.43000030517578,617800
2020-01-03,32.0,32.720001220703125,31.40999984741211,32.529998779296875,32.529998779296875,721100
2020-01-06,32.2400016784668,33.060001373291016,31.969999313354492,32.95000076293945,32.95000076293945,533900
2020-01-07,32.9900016784668,33.17499923706055,32.31999969482422,32.52000045776367,32.52000045776367,604200
2020-01-08,32.52000045776367,33.099998474121094,32.43000030517578,32.83000183105469,32.83000183105469,545900
2020-01-09,32.86000061035156,33.0099983215332,32.61000061035156,32.9900016784668,32.9900016784668,483600
2020-01-10,32.86000061035156,33.13999938964844,32.599998474121094,32.630001068115234,32.630001068115234,711500
2020-01-13,32.689998626708984,33.040000915527344,32.290000915527344,33.0,33.0,346100
2020-01-14,32.90999984741211,33.220001220703125,32.810001373291016,32.9900016784668,32.9900016784668,532500
2020-01-15,32.90999984741211,33.189998626708984,32.5099983215332,32.7400016784668,32.7400016784668,379100
2020-01-16,33.04999923706055,33.25,32.20000076293945,32.72999954223633,32.72999954223633,501600
2020-01-17,32.9900016784668,33.2400016784668,32.66999816894531,32.83000183105469,32.83000183105469,526000
2020-01-21,32.75,33.79999923706055,32.685001373291016,33.779998779296875,33.779998779296875,710900
2020-01-22,33.939998626708984,35.327999114990234,33.83000183105469,35.040000915527344,35.040000915527344,1052800
2020-01-23,36.5,38.5099983215332,35.45000076293945,35.56999969482422,35.56999969482422,1363200
2020-01-24,35.65999984741211,37.06999969482422,35.29999923706055,36.7599983215332,36.7599983215332,820000
2020-01-27,36.689998626708984,36.77000045776367,36.0099983215332,36.060001373291016,36.060001373291016,699200
2020-01-28,36.29999923706055,36.349998474121094,35.720001220703125,35.869998931884766,35.869998931884766,542800
2020-01-29,36.040000915527344,36.2400016784668,35.52000045776367,35.540000915527344,35.540000915527344,569800
2020-01-30,35.31999969482422,35.61000061035156,35.04999923706055,35.209999084472656,35.209999084472656,459700
2020-01-31,35.029998779296875,35.349998474121094,33.880001068115234,34.119998931884766,34.119998931884766,583300
2020-02-03,34.20000076293945,34.70000076293945,33.9900016784668,34.310001373291016,34.310001373291016,769700
2020-02-04,34.58000183105469,34.67499923706055,33.599998474121094,33.65999984741211,33.65999984741211,458800
2020-02-05,33.95000076293945,34.27000045776367,33.22999954223633,34.25,34.25,680900
2020-02-06,34.369998931884766,35.09000015258789,34.220001220703125,34.47999954223633,34.47999954223633,482900
2020-02-07,34.380001068115234,34.67499923706055,33.38999938964844,33.45000076293945,33.45000076293945,287100
2020-02-10,33.2400016784668,33.91999816894531,32.11000061035156,32.93000030517578,32.93000030517578,476500
2020-02-11,33.06999969482422,33.15999984741211,32.279998779296875,32.66999816894531,32.66999816894531,492700
2020-02-12,32.939998626708984,33.040000915527344,31.70199966430664,32.59000015258789,32.59000015258789,1322000
2020-02-13,32.619998931884766,33.45000076293945,32.45000076293945,33.09000015258789,33.09000015258789,724600
2020-02-14,33.06999969482422,33.880001068115234,32.625,33.75,33.75,765300
2020-02-18,33.68000030517578,35.47999954223633,33.65999984741211,35.41999816894531,35.41999816894531,502500
2020-02-19,35.560001373291016,36.02000045776367,35.2599983215332,35.52000045776367,35.52000045776367,410800
2020-02-20,35.43000030517578,36.220001220703125,35.349998474121094,36.099998474121094,36.099998474121094,324600
2020-02-21,36.130001068115234,36.400001525878906,35.310001373291016,35.95000076293945,35.95000076293945,468800
2020-02-24,34.70000076293945,35.18000030517578,33.79800033569336,34.470001220703125,34.470001220703125,485800
2020-02-25,34.560001373291016,34.709999084472656,33.61000061035156,33.83000183105469,33.83000183105469,674900
2020-02-26,37.4900016784668,39.880001068115234,37.209999084472656,38.599998474121094,38.599998474121094,1932500
2020-02-27,38.5099983215332,38.9119987487793,34.939998626708984,35.18000030517578,35.18000030517578,1516700
2020-02-28,34.38999938964844,35.494998931884766,33.65999984741211,34.81999969482422,34.81999969482422,1072900
2020-03-02,35.279998779296875,36.5099983215332,33.89500045776367,36.33000183105469,36.33000183105469,690200
2020-03-03,36.18000030517578,37.400001525878906,35.59000015258789,35.81999969482422,35.81999969482422,596700
2020-03-04,36.2599983215332,37.025001525878906,35.66999816894531,36.790000915527344,36.790000915527344,359500
2020-03-05,35.7599983215332,36.56999969482422,34.90999984741211,35.470001220703125,35.470001220703125,406600
2020-03-06,33.9900016784668,35.724998474121094,33.93000030517578,34.939998626708984,34.939998626708984,558900
2020-03-09,32.63999938964844,35.29999923706055,32.29999923706055,34.52000045776367,34.52000045776367,877900
2020-03-10,35.59000015258789,36.11000061035156,33.150001525878906,34.70000076293945,34.70000076293945,809500
2020-03-11,33.84000015258789,34.119998931884766,31.395000457763672,31.65999984741211,31.65999984741211,700300
2020-03-12,29.190000534057617,31.177000045776367,27.5,27.65999984741211,27.65999984741211,974100
2020-03-13,28.989999771118164,30.530000686645508,26.59000015258789,30.3700008392334,30.3700008392334,1195600
2020-03-16,24.989999771118164,28.829999923706055,23.079999923706055,23.25,23.25,1270100
2020-03-17,23.649999618530273,25.864999771118164,19.309999465942383,20.530000686645508,20.530000686645508,2235700
2020-03-18,19.010000228881836,19.540000915527344,14.914999961853027,16.670000076293945,16.670000076293945,1400900
2020-03-19,16.639999389648438,18.290000915527344,15.859999656677246,17.469999313354492,17.469999313354492,1252000
2020-03-20,17.68000030517578,18.31599998474121,13.470000267028809,14.0600004196167,14.0600004196167,1976600
2020-03-23,14.369999885559082,14.720000267028809,11.699999809265137,13.699999809265137,13.699999809265137,1230600
2020-03-24,14.380000114440918,18.18000030517578,14.270000457763672,18.09000015258789,18.09000015258789,1054500
2020-03-25,18.09000015258789,22.299999237060547,17.889999389648438,21.190000534057617,21.190000534057617,1674100
2020-03-26,21.549999237060547,22.889999389648438,21.260000228881836,22.149999618530273,22.149999618530273,1600600
2020-03-27,20.940000534057617,21.540000915527344,19.479999542236328,19.93000030517578,19.93000030517578,870100
2020-03-30,19.780000686645508,20.610000610351562,18.950000762939453,19.579999923706055,19.579999923706055,558000
2020-03-31,19.510000228881836,20.09000015258789,18.729999542236328,19.420000076293945,19.420000076293945,760100
2020-04-01,18.059999465942383,18.280000686645508,16.100000381469727,16.479999542236328,16.479999542236328,1354000
2020-04-02,16.139999389648438,17.399999618530273,15.770000457763672,16.520000457763672,16.520000457763672,562300
2020-04-03,16.440000534057617,16.75,15.369999885559082,16.670000076293945,16.670000076293945,579300
2020-04-06,17.8700008392334,19.809999465942383,17.84000015258789,18.399999618530273,18.399999618530273,1189700
2020-04-07,19.860000610351562,21.329999923706055,19.860000610351562,19.940000534057617,19.940000534057617,1836200
2020-04-08,20.610000610351562,22.239999771118164,19.739999771118164,22.0,22.0,1345900
2020-04-09,23.520000457763672,26.0,22.3799991607666,24.3700008392334,24.3700008392334,1144500
2020-04-13,24.270000457763672,24.530000686645508,23.110000610351562,24.25,24.25,677600
2020-04-14,24.899999618530273,25.670000076293945,24.3799991607666,25.079999923706055,25.079999923706055,857000
2020-04-15,23.81999969482422,25.149999618530273,23.25,24.209999084472656,24.209999084472656,855500
2020-04-16,24.06999969482422,24.56999969482422,23.200000762939453,24.030000686645508,24.030000686645508,679600
2020-04-17,25.8700008392334,26.219999313354492,24.15999984741211,24.5,24.5,708200
2020-04-20,23.59000015258789,24.450000762939453,22.950000762939453,24.190000534057617,24.190000534057617,749200
2020-04-21,23.15999984741211,24.989999771118164,23.0,23.690000534057617,23.690000534057617,548400
2020-04-22,24.270000457763672,26.165000915527344,23.790000915527344,24.329999923706055,24.329999923706055,456800
2020-04-23,24.459999084472656,25.1200008392334,24.06999969482422,24.25,24.25,535100
2020-04-24,24.469999313354492,26.049999237060547,23.90999984741211,25.670000076293945,25.670000076293945,415800
2020-04-27,25.93000030517578,28.3799991607666,25.719999313354492,28.18000030517578,28.18000030517578,651200
2020-04-28,29.079999923706055,29.674999237060547,27.260000228881836,27.6299991607666,27.6299991607666,597400
2020-04-29,28.3799991607666,29.219999313354492,27.542999267578125,28.68000030517578,28.68000030517578,1104000
2020-04-30,28.049999237060547,28.549999237060547,26.440000534057617,26.5,26.5,633700
2020-05-01,25.549999237060547,26.15999984741211,23.84000015258789,24.799999237060547,24.799999237060547,602100
2020-05-04,24.0,24.850000381469727,23.690000534057617,24.68000030517578,24.68000030517578,437100
2020-05-05,25.31999969482422,26.738000869750977,24.200000762939453,24.399999618530273,24.399999618530273,650300
2020-05-06,24.639999389648438,25.055999755859375,23.84000015258789,24.0,24.0,461600
2020-05-07,20.209999084472656,24.5049991607666,19.06999969482422,24.450000762939453,24.450000762939453,9964800
2020-05-08,24.709999084472656,27.299999237060547,24.700000762939453,26.40999984741211,26.40999984741211,11551000
2020-05-11,25.860000610351562,26.40999984741211,24.239999771118164,26.299999237060547,26.299999237060547,1440400
2020-05-12,26.6200008392334,27.719999313354492,24.469999313354492,24.520000457763672,24.520000457763672,1209900
2020-05-13,24.889999389648438,24.950000762939453,22.780000686645508,24.010000228881836,24.010000228881836,1237000
2020-05-14,23.280000686645508,24.07200050354004,22.639999389648438,23.81999969482422,23.81999969482422,1099300
2020-05-15,24.010000228881836,25.25,22.81100082397461,24.40999984741211,24.40999984741211,1009700
2020-05-18,25.989999771118164,27.079999923706055,25.639999389648438,26.360000610351562,26.360000610351562,1186100
2020-05-19,26.1299991607666,26.270000457763672,24.610000610351562,24.860000610351562,24.860000610351562,710900
2020-05-20,25.510000228881836,25.635000228881836,24.149999618530273,24.34000015258789,24.34000015258789,526400
2020-05-21,24.440000534057617,26.28499984741211,24.350000381469727,25.969999313354492,25.969999313354492,691400
2020-05-22,25.56999969482422,26.479999542236328,24.739999771118164,25.3700008392334,25.3700008392334,410900
2020-05-26,26.93000030517578,27.93000030517578,26.562000274658203,27.43000030517578,27.43000030517578,696800
2020-05-27,28.579999923706055,28.639999389648438,27.09000015258789,28.510000228881836,28.510000228881836,546500
2020-05-28,29.040000915527344,29.040000915527344,26.360000610351562,26.5,26.5,965500
2020-05-29,26.25,27.34000015258789,25.950000762939453,26.780000686645508,26.780000686645508,1764100
2020-06-01,26.739999771118164,27.260000228881836,25.739999771118164,25.790000915527344,25.790000915527344,819400
2020-06-02,26.18000030517578,27.770000457763672,26.0,27.350000381469727,27.350000381469727,860200
2020-06-03,28.020000457763672,30.389999389648438,27.75,29.93000030517578,29.93000030517578,1162100
2020-06-04,29.649999618530273,30.56999969482422,29.190000534057617,29.68000030517578,29.68000030517578,869300
2020-06-05,31.520000457763672,32.70500183105469,31.170000076293945,31.790000915527344,31.790000915527344,1090600
2020-06-08,32.56999969482422,33.79999923706055,31.184999465942383,31.760000228881836,31.760000228881836,1675700
2020-06-09,31.5,31.920000076293945,30.639999389648438,30.739999771118164,30.739999771118164,998900
2020-06-10,31.170000076293945,31.170000076293945,29.969999313354492,30.049999237060547,30.049999237060547,1164800
2020-06-11,28.510000228881836,28.850000381469727,27.239999771118164,27.540000915527344,27.540000915527344,959000
2020-06-12,28.899999618530273,28.899999618530273,27.075000762939453,28.145000457763672,28.145000457763672,809600
2020-06-15,26.719999313354492,29.149999618530273,26.639999389648438,28.06999969482422,28.06999969482422,756200
2020-06-16,30.219999313354492,30.350000381469727,28.049999237060547,29.469999313354492,29.469999313354492,713500
2020-06-17,29.610000610351562,30.25,29.149999618530273,29.920000076293945,29.920000076293945,1260400
2020-06-18,29.420000076293945,30.719999313354492,28.809999465942383,30.68000030517578,30.68000030517578,593200
2020-06-19,31.649999618530273,31.709999084472656,30.229999542236328,30.56999969482422,30.56999969482422,1205600
2020-06-22,30.31999969482422,31.950000762939453,30.170000076293945,31.549999237060547,31.549999237060547,644900
2020-06-23,32.2400016784668,32.2400016784668,31.1299991607666,31.65999984741211,31.65999984741211,542100
2020-06-24,31.09000015258789,31.5,29.7549991607666,30.440000534057617,30.440000534057617,862100
2020-06-25,29.770000457763672,30.59000015258789,29.549999237060547,30.3799991607666,30.3799991607666,1074600
2020-06-26,30.0,30.600000381469727,28.75,28.799999237060547,28.799999237060547,1642000
2020-06-29,29.31999969482422,30.56999969482422,28.700000762939453,30.31999969482422,30.31999969482422,698400
2020-06-30,30.399999618530273,30.809999465942383,29.899999618530273,30.520000457763672,30.520000457763672,665400
2020-07-01,30.530000686645508,31.530000686645508,30.440000534057617,30.68000030517578,30.68000030517578,532800
2020-07-02,31.440000534057617,31.719999313354492,30.290000915527344,30.6200008392334,30.6200008392334,455700
2020-07-06,31.6200008392334,31.850000381469727,30.040000915527344,30.350000381469727,30.350000381469727,471700
2020-07-07,30.1299991607666,30.350000381469727,29.110000610351562,29.149999618530273,29.149999618530273,526300
2020-07-08,29.149999618530273,29.84000015258789,28.600000381469727,29.510000228881836,29.510000228881836,541900
2020-07-09,29.360000610351562,29.3700008392334,27.100000381469727,27.899999618530273,27.899999618530273,1506100
2020-07-10,27.860000610351562,29.190000534057617,27.84000015258789,28.81999969482422,28.81999969482422,573900
2020-07-13,29.309999465942383,29.829999923706055,28.75,28.790000915527344,28.790000915527344,442800
2020-07-14,28.540000915527344,29.329999923706055,28.139999389648438,28.899999618530273,28.899999618530273,943300
2020-07-15,29.639999389648438,30.6299991607666,29.225000381469727,30.489999771118164,30.489999771118164,709000
2020-07-16,30.360000610351562,31.110000610351562,30.149999618530273,30.790000915527344,30.790000915527344,409400
2020-07-17,30.860000610351562,31.0,30.030000686645508,30.1299991607666,30.1299991607666,548700
2020-07-20,29.899999618530273,30.239999771118164,29.3700008392334,29.790000915527344,29.790000915527344,443200
2020-07-21,30.200000762939453,31.204999923706055,30.094999313354492,31.06999969482422,31.06999969482422,1026000
2020-07-22,30.700000762939453,32.04999923706055,30.683000564575195,31.8799991607666,31.8799991607666,402700
2020-07-23,32.060001373291016,32.79999923706055,31.625,32.029998779296875,32.029998779296875,375300
2020-07-24,31.889999389648438,32.29999923706055,31.100000381469727,31.329999923706055,31.329999923706055,307000
2020-07-27,31.299999237060547,32.310001373291016,31.049999237060547,32.290000915527344,32.290000915527344,484800
2020-07-28,31.989999771118164,32.25,31.31999969482422,31.3799991607666,31.3799991607666,262100
2020-07-29,31.649999618530273,32.314998626708984,31.170000076293945,32.150001525878906,32.150001525878906,576800
2020-07-30,31.540000915527344,31.649999618530273,30.979999542236328,31.040000915527344,31.040000915527344,466600
2020-07-31,31.079999923706055,31.989999771118164,30.68000030517578,31.989999771118164,31.989999771118164,710100
2020-08-03,31.989999771118164,33.167999267578125,30.51099967956543,32.970001220703125,32.970001220703125,610500
2020-08-04,32.9900016784668,33.88999938964844,32.31999969482422,33.66999816894531,33.66999816894531,796000
2020-08-05,34.189998626708984,34.189998626708984,33.025001525878906,33.91999816894531,33.91999816894531,821000
2020-08-06,33.0099983215332,34.81999969482422,32.75,33.25,33.25,1232100
2020-08-07,33.77000045776367,34.02000045776367,32.56999969482422,33.29999923706055,33.29999923706055,1554500
2020-08-10,33.470001220703125,35.40999984741211,33.470001220703125,35.16999816894531,35.16999816894531,967700
2020-08-11,35.0,35.95000076293945,34.75,35.20000076293945,35.20000076293945,918300
2020-08-12,35.63999938964844,36.0,35.099998474121094,35.529998779296875,35.529998779296875,1328200
2020-08-13,35.68000030517578,36.25,35.400001525878906,35.970001220703125,35.970001220703125,499000
2020-08-14,35.7599983215332,36.20000076293945,35.290000915527344,35.720001220703125,35.720001220703125,265700
2020-08-17,36.349998474121094,36.5,35.18000030517578,35.349998474121094,35.349998474121094,1217000
2020-08-18,35.11000061035156,36.04999923706055,35.040000915527344,35.68000030517578,35.68000030517578,667900
2020-08-19,35.720001220703125,36.43000030517578,35.369998931884766,36.29999923706055,36.29999923706055,430400
2020-08-20,35.720001220703125,37.0,35.720001220703125,36.7400016784668,36.7400016784668,557200
2020-08-21,36.63999938964844,37.38999938964844,36.029998779296875,36.599998474121094,36.599998474121094,899300
2020-08-24,37.06999969482422,37.349998474121094,36.2400016784668,37.279998779296875,37.279998779296875,440800
2020-08-25,37.529998779296875,37.709999084472656,36.90999984741211,37.52000045776367,37.52000045776367,416000
2020-08-26,37.5,38.349998474121094,37.34000015258789,38.22999954223633,38.22999954223633,555300
2020-08-27,38.5,38.83000183105469,38.0099983215332,38.20000076293945,38.20000076293945,374700
2020-08-28,38.52000045776367,38.56999969482422,37.09000015258789,37.189998626708984,37.189998626708984,452800
2020-08-31,37.33000183105469,37.95500183105469,36.7599983215332,37.56999969482422,37.56999969482422,940000
2020-09-01,37.40999984741211,39.84000015258789,36.880001068115234,39.65999984741211,39.65999984741211,727300
2020-09-02,39.75,39.880001068115234,38.45000076293945,39.41999816894531,39.41999816894531,734600
2020-09-03,39.529998779296875,40.0,38.279998779296875,39.220001220703125,39.220001220703125,437500
2020-09-04,39.88999938964844,40.0,38.59000015258789,39.369998931884766,39.369998931884766,414700
2020-09-08,38.65999984741211,39.790000915527344,38.400001525878906,38.41999816894531,38.41999816894531,858600
2020-09-09,38.4900016784668,38.97999954223633,37.5099983215332,38.29999923706055,38.29999923706055,575300
2020-09-10,38.869998931884766,39.790000915527344,38.2400016784668,38.27000045776367,38.27000045776367,1194200
2020-09-11,38.34000015258789,38.75,36.459999084472656,37.380001068115234,37.380001068115234,537600
2020-09-14,37.72999954223633,38.2400016784668,36.880001068115234,37.22999954223633,37.22999954223633,555000
2020-09-15,37.599998474121094,38.25,37.165000915527344,37.439998626708984,37.439998626708984,1025700
2020-09-16,37.720001220703125,38.599998474121094,36.93000030517578,38.20000076293945,38.20000076293945,396200
2020-09-17,37.59000015258789,38.5,37.189998626708984,38.45000076293945,38.45000076293945,699900
2020-09-18,39.54999923706055,39.720001220703125,37.8849983215332,38.349998474121094,38.349998474121094,1376100
2020-09-21,37.20000076293945,37.90999984741211,36.310001373291016,37.349998474121094,37.349998474121094,567900
2020-09-22,37.689998626708984,39.290000915527344,37.402000427246094,39.11000061035156,39.11000061035156,522600
2020-09-23,39.209999084472656,39.47999954223633,37.505001068115234,37.630001068115234,37.630001068115234,579100
2020-09-24,37.380001068115234,37.59000015258789,36.470001220703125,36.63999938964844,36.63999938964844,817800
2020-09-25,36.72999954223633,37.36000061035156,36.2400016784668,36.849998474121094,36.849998474121094,585000
2020-09-28,37.25,38.5,37.150001525878906,38.2400016784668,38.2400016784668,386600
2020-09-29,38.119998931884766,39.08000183105469,37.189998626708984,38.630001068115234,38.630001068115234,572200
2020-09-30,38.68000030517578,39.400001525878906,37.91999816894531,38.2400016784668,38.2400016784668,310200
2020-10-01,38.63999938964844,39.459999084472656,38.2400016784668,39.45000076293945,39.45000076293945,312000
2020-10-02,38.52000045776367,39.95399856567383,37.33700180053711,39.68000030517578,39.68000030517578,295400
2020-10-05,40.0,40.8849983215332,39.41699981689453,40.869998931884766,40.869998931884766,624800
2020-10-06,41.220001220703125,41.696998596191406,39.27000045776367,39.33000183105469,39.33000183105469,313000
2020-10-07,40.04999923706055,41.310001373291016,37.790000915527344,41.06999969482422,41.06999969482422,846300
2020-10-08,41.38999938964844,41.38999938964844,39.56999969482422,39.599998474121094,39.599998474121094,471300
2020-10-09,40.36000061035156,40.6349983215332,39.56999969482422,40.06999969482422,40.06999969482422,631500
2020-10-12,40.36000061035156,40.54999923706055,39.599998474121094,39.93000030517578,39.93000030517578,358300
2020-10-13,39.5,41.2599983215332,39.48099899291992,40.970001220703125,40.970001220703125,409900
2020-10-14,41.16999816894531,41.83000183105469,40.220001220703125,40.810001373291016,40.810001373291016,369600
2020-10-15,40.099998474121094,41.540000915527344,39.5,41.34000015258789,41.34000015258789,300000
2020-10-16,41.369998931884766,41.630001068115234,40.66999816894531,40.810001373291016,40.810001373291016,226900
2020-10-19,41.119998931884766,42.09000015258789,40.70000076293945,41.2400016784668,41.2400016784668,314600
2020-10-20,41.77000045776367,42.33000183105469,40.97999954223633,41.95000076293945,41.95000076293945,600700
2020-10-21,42.040000915527344,42.775001525878906,41.75,41.77000045776367,41.77000045776367,374400
2020-10-22,42.0,43.470001220703125,40.83000183105469,42.59000015258789,42.59000015258789,451000
2020-10-23,42.95000076293945,43.5,42.064998626708984,43.130001068115234,43.130001068115234,353200
2020-10-26,42.47999954223633,43.21500015258789,41.189998626708984,42.2400016784668,42.2400016784668,493400
2020-10-27,42.0099983215332,42.65999984741211,41.86000061035156,42.16999816894531,42.16999816894531,510900
2020-10-28,41.16999816894531,42.64500045776367,40.439998626708984,41.75,41.75,1092700
2020-10-29,41.650001525878906,42.310001373291016,40.85499954223633,41.52000045776367,41.52000045776367,390000
2020-10-30,41.4900016784668,41.814998626708984,40.0,40.33000183105469,40.33000183105469,534600
2020-11-02,40.720001220703125,42.08000183105469,40.43000030517578,41.61000061035156,41.61000061035156,445600
2020-11-03,42.25,42.810001373291016,41.63999938964844,42.5,42.5,591000
2020-11-04,41.93000030517578,43.709999084472656,41.93000030517578,43.689998626708984,43.689998626708984,864700
2020-11-05,43.79999923706055,45.20000076293945,42.349998474121094,45.20000076293945,45.20000076293945,1635300
2020-11-06,45.7599983215332,45.7599983215332,43.26499938964844,44.77000045776367,44.77000045776367,511500
2020-11-09,48.54999923706055,50.0,46.369998931884766,48.27000045776367,48.27000045776367,913000
2020-11-10,48.29999923706055,48.88999938964844,45.5,46.5,46.5,708600
2020-11-11,46.86000061035156,46.86000061035156,44.83000183105469,45.66999816894531,45.66999816894531,606800
2020-11-12,45.33000183105469,45.939998626708984,44.685001373291016,45.810001373291016,45.810001373291016,366300
2020-11-13,45.790000915527344,46.58000183105469,43.88999938964844,44.13999938964844,44.13999938964844,857100
2020-11-16,44.88999938964844,45.20000076293945,42.93000030517578,43.0,43.0,606900
2020-11-17,42.56999969482422,42.68000030517578,41.58000183105469,41.97999954223633,41.97999954223633,767000
2020-11-18,41.34000015258789,42.97999954223633,41.20000076293945,42.02000045776367,42.02000045776367,959200
2020-11-19,42.0,42.68000030517578,41.33000183105469,42.25,42.25,832100
2020-11-20,41.97999954223633,43.790000915527344,41.029998779296875,43.470001220703125,43.470001220703125,942900
2020-11-23,44.0,45.36000061035156,43.59000015258789,44.91999816894531,44.91999816894531,529300
2020-11-24,45.290000915527344,45.387001037597656,44.15999984741211,45.09000015258789,45.09000015258789,697700
2020-11-25,45.099998474121094,45.11000061035156,43.75,44.279998779296875,44.279998779296875,538900
2020-11-27,44.310001373291016,45.40999984741211,43.63999938964844,43.93000030517578,43.93000030517578,204200
2020-11-30,43.90999984741211,44.04499816894531,41.9900016784668,42.810001373291016,42.810001373291016,478900
2020-12-01,43.209999084472656,43.665000915527344,42.084999084472656,42.72999954223633,42.72999954223633,940600
2020-12-02,42.7599983215332,43.0,41.91999816894531,42.64500045776367,42.64500045776367,497200
2020-12-03,42.630001068115234,43.279998779296875,42.2400016784668,42.814998626708984,42.814998626708984,633100
2020-12-04,43.0,43.22999954223633,42.12799835205078,42.7599983215332,42.7599983215332,615300
2020-12-07,42.470001220703125,43.43000030517578,42.119998931884766,43.220001220703125,43.220001220703125,423100
2020-12-08,42.880001068115234,44.15999984741211,42.79999923706055,44.0,44.0,797600
2020-12-09,44.18000030517578,46.70000076293945,44.18000030517578,46.36000061035156,46.36000061035156,717400
2020-12-10,46.099998474121094,46.970001220703125,45.380001068115234,45.72999954223633,45.72999954223633,431900
2020-12-11,45.5,45.70000076293945,44.06999969482422,44.61000061035156,44.61000061035156,261100
2020-12-14,45.290000915527344,46.029998779296875,44.779998779296875,45.56999969482422,45.56999969482422,553200
2020-12-15,45.97999954223633,46.709999084472656,45.0,46.59000015258789,46.59000015258789,347300
2020-12-16,46.900001525878906,47.09000015258789,45.939998626708984,46.20000076293945,46.20000076293945,506400
2020-12-17,46.470001220703125,46.900001525878906,44.81999969482422,46.66999816894531,46.66999816894531,1450000
2020-12-18,46.90999984741211,47.472999572753906,45.650001525878906,45.849998474121094,45.849998474121094,974900
2020-12-21,45.040000915527344,46.45000076293945,44.77000045776367,45.9900016784668,45.9900016784668,359300
2020-12-22,45.900001525878906,47.83000183105469,45.900001525878906,47.720001220703125,47.720001220703125,547000
2020-12-23,48.04999923706055,48.650001525878906,47.27000045776367,47.72999954223633,47.72999954223633,328600
2020-12-24,47.68000030517578,47.70000076293945,46.59000015258789,47.310001373291016,47.310001373291016,146400
2020-12-28,47.79999923706055,47.79999923706055,46.41999816894531,46.529998779296875,46.529998779296875,335300
2020-12-29,46.560001373291016,46.560001373291016,45.31999969482422,45.790000915527344,45.790000915527344,215900
2020-12-30,45.7400016784668,46.86000061035156,45.5099983215332,45.86000061035156,45.86000061035156,304300
