Date,Open,High,Low,Close,Adj Close,Volume
2020-12-11,40.0,45.0,36.88999938964844,40.5,40.5,3649400
2020-12-14,40.5,41.0,36.099998474121094,40.5,40.5,453100
2020-12-15,40.7599983215332,41.183998107910156,38.56999969482422,39.54999923706055,39.54999923706055,355900
2020-12-16,39.060001373291016,40.0,37.47999954223633,38.43000030517578,38.43000030517578,354300
2020-12-17,38.880001068115234,40.349998474121094,38.880001068115234,39.939998626708984,39.939998626708984,169400
2020-12-18,40.0,49.060001373291016,38.75299835205078,47.36000061035156,47.36000061035156,258500
2020-12-21,47.36000061035156,47.36000061035156,45.0,45.040000915527344,45.040000915527344,88600
2020-12-22,45.25,46.380001068115234,40.209999084472656,40.630001068115234,40.630001068115234,118100
2020-12-23,41.099998474121094,41.900001525878906,38.0,38.66999816894531,38.66999816894531,120400
2020-12-24,38.709999084472656,40.95500183105469,38.25,40.0099983215332,40.0099983215332,139900
2020-12-28,40.70000076293945,44.22999954223633,39.06999969482422,42.970001220703125,42.970001220703125,222100
2020-12-29,43.43000030517578,43.43000030517578,39.34000015258789,41.2400016784668,41.2400016784668,161700
2020-12-30,41.560001373291016,42.689998626708984,40.029998779296875,41.63999938964844,41.63999938964844,142100
