Date,Open,High,Low,Close,Adj Close,Volume
2019-10-17,25.059999465942383,25.299999237060547,25.05299949645996,25.299999237060547,22.591352462768555,163100
2019-10-18,25.309999465942383,25.309999465942383,25.09000015258789,25.09000015258789,22.403833389282227,79400
2019-10-21,25.1200008392334,25.25,25.110000610351562,25.18000030517578,22.48419761657715,66500
2019-10-22,25.219999313354492,25.239999771118164,25.18000030517578,25.229999542236328,22.52884292602539,25000
2019-10-23,25.25,25.280000686645508,25.219999313354492,25.231000900268555,22.529741287231445,25300
2019-10-24,25.290000915527344,25.475000381469727,25.253999710083008,25.450000762939453,22.725292205810547,37300
2019-10-25,25.5,25.579999923706055,25.450000762939453,25.549999237060547,22.814584732055664,16600
2019-10-28,25.479999542236328,25.576000213623047,25.34000015258789,25.450000762939453,22.725292205810547,85500
2019-10-29,25.5,25.549999237060547,25.3700008392334,25.520000457763672,22.787799835205078,53300
2019-10-30,25.600000381469727,25.600000381469727,25.360000610351562,25.510000228881836,22.77886962890625,24100
2019-10-31,25.690000534057617,25.690000534057617,25.270000457763672,25.270000457763672,22.564563751220703,15800
2019-11-01,25.479999542236328,25.549999237060547,25.479999542236328,25.52400016784668,22.791372299194336,6000
2019-11-04,25.450000762939453,25.649999618530273,25.450000762939453,25.649999618530273,22.90388298034668,9300
2019-11-05,25.479999542236328,28.239999771118164,25.469999313354492,25.75,22.993173599243164,10100
2019-11-06,25.739999771118164,25.75,25.5,25.649999618530273,22.90388298034668,4100
2019-11-07,25.510000228881836,25.510000228881836,25.5,25.5,22.76993751525879,800
2019-11-08,25.538999557495117,25.538999557495117,25.538999557495117,25.538999557495117,22.804763793945312,600
2019-11-11,25.594999313354492,25.690000534057617,25.450000762939453,25.65999984741211,22.912809371948242,5500
2019-11-12,25.65999984741211,25.65999984741211,25.65999984741211,25.65999984741211,22.912809371948242,0
2019-11-13,25.639999389648438,25.68000030517578,25.493000030517578,25.634000778198242,22.88959503173828,8100
2019-11-14,25.610000610351562,25.636999130249023,25.520000457763672,25.520000457763672,22.787799835205078,1800
2019-11-15,25.530000686645508,25.530000686645508,25.5,25.530000686645508,22.796728134155273,1500
2019-11-18,25.450000762939453,25.59000015258789,25.450000762939453,25.59000015258789,22.850303649902344,9200
2019-11-19,25.639999389648438,25.739999771118164,25.600000381469727,25.600000381469727,22.859235763549805,4100
2019-11-20,25.649999618530273,25.75,25.600000381469727,25.75,22.993173599243164,13600
2019-11-21,25.739999771118164,25.739999771118164,25.600000381469727,25.68000030517578,22.930665969848633,34500
2019-11-22,25.65999984741211,25.670000076293945,25.600000381469727,25.670000076293945,22.921737670898438,42500
2019-11-25,25.649999618530273,25.75,25.649999618530273,25.649999618530273,22.90388298034668,12400
2019-11-26,25.70199966430664,25.780000686645508,25.658000946044922,25.780000686645508,23.019960403442383,6000
2019-11-27,26.049999237060547,26.049999237060547,26.040000915527344,26.049999237060547,23.26105308532715,6000
2019-11-29,25.799999237060547,25.950000762939453,25.799999237060547,25.950000762939453,23.17176055908203,2600
2019-12-02,25.920000076293945,25.950000762939453,25.920000076293945,25.950000762939453,23.17176055908203,1000
2019-12-03,25.93000030517578,25.93000030517578,25.93000030517578,25.93000030517578,23.15390396118164,600
2019-12-04,25.764999389648438,25.940000534057617,25.75,25.75,22.993173599243164,2200
2019-12-05,25.75,25.75,25.75,25.75,22.993173599243164,0
2019-12-06,25.899999618530273,25.899999618530273,25.85700035095215,25.85700035095215,23.088720321655273,1000
2019-12-09,25.75,25.75,25.600000381469727,25.600000381469727,22.859235763549805,1300
2019-12-10,25.791000366210938,25.791000366210938,25.74799919128418,25.74799919128418,22.99138641357422,1000
2019-12-11,25.65999984741211,25.753000259399414,25.525999069213867,25.75,22.993173599243164,4100
2019-12-12,25.75,25.75,25.75,25.75,22.993173599243164,0
2019-12-13,25.579999923706055,25.709999084472656,25.3799991607666,25.709999084472656,22.957454681396484,3300
2019-12-16,25.709999084472656,25.709999084472656,25.709999084472656,25.709999084472656,22.957454681396484,0
2019-12-17,25.950000762939453,25.96299934387207,25.454999923706055,25.711000442504883,22.958349227905273,3800
2019-12-18,25.75,25.989999771118164,25.75,25.75,22.993173599243164,16800
2019-12-19,25.961000442504883,25.989999771118164,25.75,25.75,22.993173599243164,11400
2019-12-20,25.850000381469727,25.850000381469727,25.850000381469727,25.850000381469727,23.08246612548828,2000
2019-12-23,25.6200008392334,25.649999618530273,25.600000381469727,25.600000381469727,22.859235763549805,3000
2019-12-24,25.777000427246094,25.777000427246094,25.777000427246094,25.777000427246094,23.017284393310547,400
2019-12-26,25.899999618530273,25.899999618530273,25.899999618530273,25.899999618530273,23.127113342285156,2000
2019-12-27,25.700000762939453,25.979999542236328,25.700000762939453,25.979999542236328,23.198549270629883,1800
2019-12-30,25.889999389648438,25.950000762939453,25.8799991607666,25.889999389648438,23.118183135986328,500
2019-12-31,25.850000381469727,25.850000381469727,25.75,25.75,22.993173599243164,700
2020-01-02,25.75,25.75,25.75,25.75,22.993173599243164,0
2020-01-03,25.950000762939453,25.950000762939453,25.920000076293945,25.93000030517578,23.15390396118164,600
2020-01-06,25.95800018310547,25.95800018310547,25.610000610351562,25.70400047302246,22.952098846435547,8400
2020-01-07,25.70400047302246,25.70400047302246,25.70400047302246,25.70400047302246,22.952098846435547,0
2020-01-08,25.75,25.75,25.700000762939453,25.700000762939453,22.948528289794922,1600
2020-01-09,25.690000534057617,25.940000534057617,25.690000534057617,25.940000534057617,23.162832260131836,2100
2020-01-10,25.760000228881836,25.819000244140625,25.75,25.75,22.993173599243164,1000
2020-01-13,25.75,25.75,25.75,25.75,22.993173599243164,0
2020-01-14,25.600000381469727,25.799999237060547,25.600000381469727,25.649999618530273,23.257946014404297,15700
2020-01-15,25.777999877929688,25.899999618530273,25.700000762939453,25.700000762939453,23.303281784057617,3600
2020-01-16,25.700000762939453,25.700000762939453,25.700000762939453,25.700000762939453,23.303281784057617,0
2020-01-17,25.899999618530273,25.899999618530273,25.459999084472656,25.459999084472656,23.085660934448242,34900
2020-01-21,25.600000381469727,25.709999084472656,25.5,25.520000457763672,23.14006805419922,5100
2020-01-22,25.600000381469727,25.679000854492188,25.5,25.510000228881836,23.131000518798828,5700
2020-01-23,25.510000228881836,25.826000213623047,25.5,25.80699920654297,23.400299072265625,19000
2020-01-24,25.790000915527344,25.790000915527344,25.700000762939453,25.75,23.348617553710938,10800
2020-01-27,25.75,26.0,25.75,26.0,23.575300216674805,10500
2020-01-28,25.75,25.75,25.75,25.75,23.348617553710938,2800
2020-01-29,25.799999237060547,25.799999237060547,25.75,25.760000228881836,23.357683181762695,2300
2020-01-30,25.75,25.75,25.549999237060547,25.639999389648438,23.248876571655273,6000
2020-01-31,25.639999389648438,25.639999389648438,25.639999389648438,25.639999389648438,23.248876571655273,0
2020-02-03,25.69300079345703,25.735000610351562,25.690000534057617,25.690000534057617,23.294214248657227,1700
2020-02-04,25.700000762939453,25.700000762939453,25.559999465942383,25.559999465942383,23.17633628845215,4000
2020-02-05,25.690000534057617,25.690000534057617,25.600000381469727,25.600000381469727,23.212608337402344,1100
2020-02-06,25.691999435424805,25.691999435424805,25.670000076293945,25.68000030517578,23.28514289855957,2300
2020-02-07,25.68000030517578,25.68000030517578,25.68000030517578,25.68000030517578,23.28514289855957,600
2020-02-10,25.639999389648438,25.639999389648438,25.600000381469727,25.600000381469727,23.212608337402344,3300
2020-02-11,25.69499969482422,25.697999954223633,25.600000381469727,25.600000381469727,23.212608337402344,7200
2020-02-12,25.600000381469727,25.700000762939453,25.600000381469727,25.600000381469727,23.212608337402344,2500
2020-02-13,25.679000854492188,25.679000854492188,25.679000854492188,25.679000854492188,23.28424072265625,600
2020-02-14,25.66900062561035,25.670000076293945,25.66900062561035,25.670000076293945,23.276077270507812,1200
2020-02-18,25.600000381469727,25.65999984741211,25.600000381469727,25.656999588012695,23.264291763305664,5100
2020-02-19,25.65999984741211,25.780000686645508,25.652999877929688,25.780000686645508,23.375818252563477,6000
2020-02-20,25.809999465942383,25.940000534057617,25.75,25.75,23.348617553710938,7600
2020-02-21,25.75,25.75,25.75,25.75,23.348617553710938,200
2020-02-24,25.600000381469727,25.940000534057617,25.600000381469727,25.940000534057617,23.520898818969727,500
2020-02-25,25.600000381469727,25.760000228881836,25.31999969482422,25.760000228881836,23.357683181762695,10100
2020-02-26,25.649999618530273,25.860000610351562,25.649999618530273,25.75,23.348617553710938,2700
2020-02-27,25.399999618530273,25.690000534057617,25.299999237060547,25.649999618530273,23.257946014404297,10400
2020-02-28,25.299999237060547,25.450000762939453,25.200000762939453,25.450000762939453,23.076595306396484,2700
2020-03-02,25.399999618530273,25.75,25.399999618530273,25.75,23.348617553710938,2100
2020-03-03,25.75,25.75,25.200000762939453,25.5,23.121931076049805,19100
2020-03-04,25.600000381469727,25.600000381469727,25.489999771118164,25.600000381469727,23.212608337402344,4400
2020-03-05,25.600000381469727,25.600000381469727,25.5,25.5,23.121931076049805,1200
2020-03-06,25.280000686645508,25.610000610351562,24.920000076293945,25.549999237060547,23.167266845703125,3300
2020-03-09,24.889999389648438,25.399999618530273,23.450000762939453,24.809999465942383,22.49627685546875,14500
2020-03-10,25.0,25.299999237060547,24.600000381469727,24.799999237060547,22.48720932006836,12100
2020-03-11,24.75,24.8700008392334,24.0,24.8700008392334,22.550683975219727,12800
2020-03-12,23.450000762939453,23.450000762939453,19.510000228881836,22.18000030517578,20.111547470092773,17600
2020-03-13,23.507999420166016,23.989999771118164,23.0,23.049999237060547,20.900413513183594,4400
2020-03-16,22.5,22.5,19.479999542236328,22.499000549316406,20.400798797607422,10100
2020-03-17,21.25,22.399999618530273,20.763999938964844,20.878000259399414,18.930965423583984,5400
2020-03-18,21.0,21.0,14.0600004196167,14.0600004196167,12.748798370361328,4100
2020-03-19,15.380000114440918,19.739999771118164,15.380000114440918,17.010000228881836,15.423688888549805,2400
2020-03-20,16.0,16.700000762939453,15.869999885559082,16.5,14.961250305175781,2300
2020-03-23,14.300000190734863,16.202999114990234,14.300000190734863,15.961000442504883,14.472515106201172,82100
2020-03-24,17.0,18.666000366210938,16.25,16.75,15.187934875488281,83800
2020-03-25,17.0,17.0,16.350000381469727,17.0,15.414620399475098,3800
2020-03-26,17.100000381469727,20.93199920654297,17.0,18.5,16.774734497070312,9300
2020-03-27,19.0,19.0,18.5,18.950000762939453,17.182767868041992,3700
2020-03-30,18.75,18.93400001525879,18.5,18.93400001525879,17.168258666992188,500
2020-03-31,18.899999618530273,19.0,18.020000457763672,18.25,16.548049926757812,10400
2020-04-01,18.010000228881836,19.100000381469727,18.010000228881836,18.698999404907227,16.95517921447754,2500
2020-04-02,18.780000686645508,20.01300048828125,18.780000686645508,19.5,17.68147850036621,7400
2020-04-03,19.117000579833984,19.902999877929688,19.117000579833984,19.5,17.68147850036621,3300
2020-04-06,17.549999237060547,19.81999969482422,17.549999237060547,19.299999237060547,17.500131607055664,5400
2020-04-07,20.829999923706055,21.0,19.5,19.5,17.68147850036621,1000
2020-04-08,20.899999618530273,20.899999618530273,19.299999237060547,19.643999099731445,17.81204605102539,2800
2020-04-09,20.2549991607666,21.0,20.2549991607666,21.0,19.041587829589844,8500
2020-04-13,21.0,21.440000534057617,18.56999969482422,20.645000457763672,18.719697952270508,15600
2020-04-14,20.100000381469727,21.100000381469727,20.020000457763672,20.899999618530273,19.264448165893555,4000
2020-04-15,19.889999389648438,20.5,19.889999389648438,20.0,18.434877395629883,3300
2020-04-16,20.200000762939453,20.790000915527344,19.770000457763672,20.020000457763672,18.453311920166016,3800
2020-04-17,20.77400016784668,20.77400016784668,20.0,20.739999771118164,19.116968154907227,2400
2020-04-20,20.700000762939453,22.75,20.040000915527344,22.0,20.278366088867188,6100
2020-04-21,20.350000381469727,22.5,20.350000381469727,22.5,20.73923683166504,3000
2020-04-22,22.899999618530273,22.899999618530273,21.100000381469727,22.700000762939453,20.923585891723633,2300
2020-04-23,21.43000030517578,22.399999618530273,21.100000381469727,22.059999465942383,20.33367156982422,2700
2020-04-24,22.059999465942383,22.200000762939453,22.059999465942383,22.200000762939453,20.46271324157715,900
2020-04-27,21.729999542236328,22.110000610351562,21.729999542236328,22.110000610351562,20.379756927490234,1300
2020-04-28,22.149999618530273,22.600000381469727,22.149999618530273,22.600000381469727,20.8314151763916,1100
2020-04-29,22.899999618530273,22.899999618530273,21.5,22.06999969482422,20.3428897857666,4300
2020-04-30,22.639999389648438,22.639999389648438,22.149999618530273,22.149999618530273,20.4166259765625,1400
2020-05-01,21.989999771118164,22.25,21.989999771118164,22.25,20.508800506591797,900
2020-05-04,22.18000030517578,22.18000030517578,22.18000030517578,22.18000030517578,20.44428062438965,300
2020-05-05,21.910999298095703,21.933000564575195,20.371000289916992,21.799999237060547,20.094017028808594,9700
2020-05-06,20.8700008392334,22.23200035095215,20.6299991607666,21.649999618530273,19.95575523376465,2500
2020-05-07,21.25,21.488000869750977,21.200000762939453,21.34000015258789,19.670015335083008,5300
2020-05-08,21.854999542236328,21.854999542236328,21.344999313354492,21.344999313354492,19.67462158203125,700
2020-05-11,21.06999969482422,21.200000762939453,20.1200008392334,20.700000762939453,19.080101013183594,12300
2020-05-12,20.280000686645508,20.700000762939453,18.81999969482422,20.170000076293945,18.59157371520996,8000
2020-05-13,19.459999084472656,19.889999389648438,19.399999618530273,19.889999389648438,18.333486557006836,1300
2020-05-14,19.3799991607666,20.110000610351562,19.3799991607666,20.110000610351562,18.53626823425293,4700
2020-05-15,20.25,20.25,20.25,20.25,18.665315628051758,200
2020-05-18,20.200000762939453,20.809999465942383,20.200000762939453,20.809999465942383,19.181489944458008,700
2020-05-19,20.610000610351562,21.399999618530273,20.5,21.399999618530273,19.725318908691406,15000
2020-05-20,21.410999298095703,21.410999298095703,21.399999618530273,21.399999618530273,19.725318908691406,300
2020-05-21,21.5,21.5,21.5,21.5,19.817495346069336,200
2020-05-22,21.5,21.5,21.5,21.5,19.817495346069336,0
2020-05-26,21.25,21.634000778198242,21.25,21.434999465942383,19.757577896118164,4300
2020-05-27,21.489999771118164,21.489999771118164,21.299999237060547,21.299999237060547,19.63314437866211,700
2020-05-28,22.18400001525879,22.18400001525879,22.18400001525879,22.18400001525879,20.447965621948242,200
2020-05-29,21.673999786376953,22.104000091552734,21.399999618530273,22.104000091552734,20.374225616455078,2500
2020-06-01,21.969999313354492,21.969999313354492,21.969999313354492,21.969999313354492,20.25071144104004,300
2020-06-02,22.0,22.450000762939453,21.709999084472656,22.408000946044922,20.654438018798828,4500
2020-06-03,22.360000610351562,22.360000610351562,22.360000610351562,22.360000610351562,20.61019515991211,300
2020-06-04,22.46500015258789,22.700000762939453,22.299999237060547,22.700000762939453,20.923585891723633,2200
2020-06-05,22.700000762939453,22.700000762939453,22.5,22.5,20.73923683166504,900
2020-06-08,22.690000534057617,24.434999465942383,22.610000610351562,23.799999237060547,21.9375057220459,2600
2020-06-09,23.799999237060547,23.799999237060547,23.799999237060547,23.799999237060547,21.9375057220459,0
2020-06-10,23.799999237060547,23.799999237060547,23.799999237060547,23.799999237060547,21.9375057220459,0
2020-06-11,23.010000228881836,23.010000228881836,23.0,23.0,21.200109481811523,1700
2020-06-12,22.399999618530273,22.70800018310547,22.399999618530273,22.700000762939453,20.923585891723633,800
2020-06-15,22.700000762939453,23.170000076293945,21.299999237060547,23.170000076293945,21.3568058013916,1100
2020-06-16,22.719999313354492,22.860000610351562,22.719999313354492,22.719999313354492,20.942020416259766,2300
2020-06-17,22.92300033569336,22.92300033569336,21.70800018310547,22.739999771118164,20.9604549407959,900
2020-06-18,22.75,22.75,22.350000381469727,22.69499969482422,20.918975830078125,1500
2020-06-19,22.799999237060547,22.82200050354004,22.020000457763672,22.579999923706055,20.81297492980957,5200
2020-06-22,22.0,22.399999618530273,22.0,22.399999618530273,20.647062301635742,4500
2020-06-23,22.5,22.538000106811523,22.224000930786133,22.399999618530273,20.647062301635742,5000
2020-06-24,22.670000076293945,22.670000076293945,22.43000030517578,22.43000030517578,20.67471694946289,700
2020-06-25,22.0,22.81999969482422,21.850000381469727,22.81999969482422,21.034196853637695,5500
2020-06-26,22.729999542236328,22.799999237060547,22.25,22.799999237060547,21.01576042175293,5200
2020-06-29,22.75,22.75,22.309999465942383,22.420000076293945,20.665496826171875,4100
2020-06-30,22.670000076293945,22.670000076293945,22.25,22.25,20.508800506591797,3100
2020-07-01,22.25,22.59000015258789,22.25,22.59000015258789,20.822193145751953,1300
2020-07-02,22.44499969482422,22.75,22.309999465942383,22.690000534057617,20.91436767578125,2500
2020-07-06,22.799999237060547,22.799999237060547,22.799999237060547,22.799999237060547,21.01576042175293,700
2020-07-07,22.5,22.899999618530273,22.450000762939453,22.738000869750977,20.9586124420166,3900
2020-07-08,22.75,22.889999389648438,22.649999618530273,22.889999389648438,21.09871482849121,2400
2020-07-09,22.889999389648438,22.889999389648438,22.889999389648438,22.889999389648438,21.09871482849121,0
2020-07-10,22.780000686645508,22.8799991607666,22.6299991607666,22.8799991607666,21.08949851989746,1600
2020-07-13,22.889999389648438,22.889999389648438,22.854999542236328,22.854999542236328,21.066457748413086,1200
2020-07-14,22.690000534057617,22.690000534057617,22.690000534057617,22.690000534057617,21.226428985595703,200
2020-07-15,22.639999389648438,22.711999893188477,22.639999389648438,22.709999084472656,21.245136260986328,3100
2020-07-16,22.600000381469727,22.850000381469727,22.600000381469727,22.850000381469727,21.37610626220703,1100
2020-07-17,22.860000610351562,22.989999771118164,22.850000381469727,22.989999771118164,21.5070743560791,1100
2020-07-20,22.989999771118164,23.0,22.989999771118164,22.989999771118164,21.5070743560791,1300
2020-07-21,22.809999465942383,23.28700065612793,22.809999465942383,23.28700065612793,21.78491973876953,400
2020-07-22,22.889999389648438,23.639999389648438,22.889999389648438,23.639999389648438,22.115148544311523,2100
2020-07-23,23.173999786376953,23.649999618530273,23.173999786376953,23.649999618530273,22.12450408935547,700
2020-07-24,22.989999771118164,23.399999618530273,22.889999389648438,22.90999984741211,21.432235717773438,2600
2020-07-27,22.770000457763672,22.770000457763672,22.770000457763672,22.770000457763672,21.301267623901367,1200
2020-07-28,22.920000076293945,23.239999771118164,22.920000076293945,23.239999771118164,21.740951538085938,3400
2020-07-29,23.0,23.165000915527344,23.0,23.165000915527344,21.67078971862793,1400
2020-07-30,23.165000915527344,23.165000915527344,23.165000915527344,23.165000915527344,21.67078971862793,0
2020-07-31,23.165000915527344,23.165000915527344,23.165000915527344,23.165000915527344,21.67078971862793,0
2020-08-03,23.165000915527344,23.165000915527344,23.165000915527344,23.165000915527344,21.67078971862793,0
2020-08-04,23.174999237060547,23.299999237060547,23.174999237060547,23.299999237060547,21.79707908630371,800
2020-08-05,23.059999465942383,23.299999237060547,23.059999465942383,23.299999237060547,21.79707908630371,600
2020-08-06,23.299999237060547,23.301000595092773,23.299999237060547,23.301000595092773,21.798015594482422,1400
2020-08-07,23.399999618530273,24.09000015258789,23.399999618530273,24.09000015258789,22.536121368408203,4300
2020-08-10,24.020000457763672,24.5,24.020000457763672,24.5,22.919675827026367,700
2020-08-11,24.5,24.62299919128418,23.809999465942383,23.850000381469727,22.311603546142578,8500
2020-08-12,23.850000381469727,24.100000381469727,23.700000762939453,24.100000381469727,22.54547691345215,2600
2020-08-13,23.75,23.75,23.75,23.75,22.21805191040039,1500
2020-08-14,23.75,24.100000381469727,23.75,24.0,22.451927185058594,6200
2020-08-17,24.010000228881836,24.299999237060547,23.770000457763672,24.25,22.685800552368164,3500
2020-08-18,24.219999313354492,24.25,24.200000762939453,24.25,22.685800552368164,4400
2020-08-19,24.299999237060547,24.299999237060547,23.85300064086914,24.299999237060547,22.732576370239258,3000
2020-08-20,24.38599967956543,24.96500015258789,24.299999237060547,24.579999923706055,22.994516372680664,4300
2020-08-21,24.5,24.5,24.5,24.5,22.919675827026367,600
2020-08-24,24.450000762939453,24.5,24.0,24.149999618530273,22.592252731323242,2600
2020-08-25,24.25,24.25,24.25,24.25,22.685800552368164,1000
2020-08-26,24.299999237060547,24.600000381469727,24.280000686645508,24.309999465942383,22.741928100585938,5200
2020-08-27,24.5,24.780000686645508,24.5,24.780000686645508,23.18161392211914,2000
2020-08-28,24.649999618530273,24.649999618530273,24.549999237060547,24.549999237060547,22.966449737548828,4500
2020-08-31,24.549999237060547,24.69499969482422,24.139999389648438,24.139999389648438,22.582897186279297,2400
2020-09-01,24.139999389648438,24.139999389648438,24.139999389648438,24.139999389648438,22.582897186279297,0
2020-09-02,24.5,24.520000457763672,24.149999618530273,24.149999618530273,22.592252731323242,3600
2020-09-03,24.399999618530273,24.399999618530273,24.149999618530273,24.152000427246094,22.594125747680664,3600
2020-09-04,24.34000015258789,24.350000381469727,24.219999313354492,24.229999542236328,22.667091369628906,8000
2020-09-08,24.350000381469727,24.350000381469727,24.0,24.25,22.685800552368164,6800
2020-09-09,24.350000381469727,24.350000381469727,24.299999237060547,24.299999237060547,22.732576370239258,2900
2020-09-10,24.350000381469727,24.489999771118164,24.100000381469727,24.489999771118164,22.910320281982422,2500
2020-09-11,24.450000762939453,24.450000762939453,24.139999389648438,24.440000534057617,22.86354637145996,2000
2020-09-14,24.329999923706055,24.389999389648438,23.850000381469727,24.3700008392334,22.798063278198242,3600
2020-09-15,24.3799991607666,24.3799991607666,24.299999237060547,24.299999237060547,22.732576370239258,1300
2020-09-16,24.334999084472656,24.350000381469727,24.320999145507812,24.329999923706055,22.76064109802246,3400
2020-09-17,24.079999923706055,24.34000015258789,24.079999923706055,24.34000015258789,22.769996643066406,800
2020-09-18,24.350000381469727,24.350000381469727,24.149999618530273,24.149999618530273,22.592252731323242,1100
2020-09-21,24.149999618530273,24.34000015258789,24.149999618530273,24.170000076293945,22.6109619140625,2400
2020-09-22,24.149999618530273,24.149999618530273,24.049999237060547,24.049999237060547,22.498699188232422,4100
2020-09-23,24.06999969482422,24.09000015258789,24.049999237060547,24.049999237060547,22.498699188232422,9700
2020-09-24,24.059999465942383,24.059999465942383,24.049999237060547,24.049999237060547,22.498699188232422,1000
2020-09-25,24.0,24.0,24.0,24.0,22.451927185058594,300
2020-09-28,24.06999969482422,24.149999618530273,24.007999420166016,24.135000228881836,22.57822036743164,1700
2020-09-29,24.200000762939453,24.239999771118164,24.15999984741211,24.239999771118164,22.67644691467285,155400
2020-09-30,24.290000915527344,24.591999053955078,24.280000686645508,24.280000686645508,22.7138671875,1200
2020-10-01,24.280000686645508,24.280000686645508,24.280000686645508,24.280000686645508,22.7138671875,0
2020-10-02,24.479999542236328,25.239999771118164,24.450000762939453,24.450000762939453,22.872901916503906,1300
2020-10-05,24.5,24.75,24.148000717163086,24.5,22.919675827026367,3800
2020-10-06,24.350000381469727,24.649999618530273,24.209999084472656,24.649999618530273,23.059999465942383,7700
2020-10-07,24.841999053955078,25.049999237060547,24.75,24.75,23.153549194335938,7100
2020-10-08,24.75,24.799999237060547,24.610000610351562,24.799999237060547,23.20032501220703,9000
2020-10-09,24.799999237060547,24.799999237060547,24.649999618530273,24.790000915527344,23.190969467163086,1700
2020-10-12,24.65999984741211,24.770000457763672,24.382999420166016,24.770000457763672,23.172258377075195,5300
2020-10-13,24.645999908447266,24.700000762939453,24.645999908447266,24.700000762939453,23.10677719116211,4100
2020-10-14,24.75,24.75,24.450000762939453,24.600000381469727,23.330596923828125,3700
2020-10-15,24.649999618530273,24.719999313354492,23.90999984741211,24.700000762939453,23.425437927246094,6500
2020-10-16,25.0,25.219999313354492,24.75,24.899999618530273,23.615116119384766,4500
2020-10-19,24.899999618530273,25.0,24.889999389648438,24.899999618530273,23.615116119384766,2500
2020-10-20,24.950000762939453,25.020000457763672,24.8799991607666,24.8799991607666,23.596147537231445,4300
2020-10-21,25.010000228881836,25.049999237060547,24.690000534057617,24.700000762939453,23.425437927246094,4900
2020-10-22,24.81999969482422,25.020000457763672,24.25,25.0,23.709957122802734,6700
2020-10-23,24.75,24.9950008392334,24.649999618530273,24.709999084472656,23.434919357299805,2000
2020-10-26,24.709999084472656,24.709999084472656,24.709999084472656,24.709999084472656,23.434919357299805,0
2020-10-27,24.600000381469727,25.0,24.40999984741211,24.68000030517578,23.40646743774414,3400
2020-10-28,24.479999542236328,24.649999618530273,24.40999984741211,24.649999618530273,23.378015518188477,5900
2020-10-29,24.75,24.75,24.600000381469727,24.649999618530273,23.378015518188477,2800
2020-10-30,24.75,24.75,24.5,24.600000381469727,23.330596923828125,3300
2020-11-02,24.600000381469727,24.600000381469727,24.600000381469727,24.600000381469727,23.330596923828125,0
2020-11-03,24.5,24.5,24.350000381469727,24.399999618530273,23.140918731689453,5100
2020-11-04,24.590999603271484,24.834999084472656,24.540000915527344,24.540000915527344,23.273693084716797,5200
2020-11-05,24.639999389648438,24.639999389648438,24.454999923706055,24.594999313354492,23.325855255126953,3800
2020-11-06,24.465999603271484,24.600000381469727,24.441999435424805,24.549999237060547,23.283174514770508,6400
2020-11-09,24.479999542236328,24.510000228881836,24.479999542236328,24.5,23.235755920410156,1800
2020-11-10,24.43000030517578,24.600000381469727,24.329999923706055,24.469999313354492,23.207304000854492,5600
2020-11-11,24.5,24.81999969482422,24.5,24.81999969482422,23.539243698120117,3400
2020-11-12,24.600000381469727,25.25,24.600000381469727,24.899999618530273,23.615116119384766,7900
2020-11-13,24.75,24.809999465942383,24.75,24.809999465942383,23.529760360717773,2500
2020-11-16,24.81999969482422,24.950000762939453,24.75,24.770000457763672,23.491823196411133,4700
2020-11-17,24.687000274658203,24.799999237060547,24.663000106811523,24.799999237060547,23.520275115966797,3800
2020-11-18,24.6200008392334,24.899999618530273,24.6200008392334,24.899999618530273,23.615116119384766,1100
2020-11-19,24.799999237060547,24.802000045776367,24.756999969482422,24.799999237060547,23.520275115966797,2200
2020-11-20,24.989999771118164,24.989999771118164,24.989999771118164,24.989999771118164,23.700471878051758,1000
2020-11-23,25.239999771118164,25.239999771118164,24.854000091552734,25.219999313354492,23.918603897094727,3800
2020-11-24,24.790000915527344,25.100000381469727,24.7549991607666,25.100000381469727,23.80479621887207,3100
2020-11-25,25.010000228881836,25.010000228881836,25.010000228881836,25.010000228881836,23.71944236755371,100
2020-11-27,25.100000381469727,25.100000381469727,24.954999923706055,25.100000381469727,23.80479621887207,3700
2020-11-30,25.219999313354492,25.25,25.0,25.0,23.709957122802734,3100
2020-12-01,24.860000610351562,25.024999618530273,24.81999969482422,25.0,23.709957122802734,2700
2020-12-02,25.229999542236328,25.229999542236328,25.229999542236328,25.229999542236328,23.92808723449707,700
2020-12-03,25.10099983215332,25.1299991607666,25.0,25.1299991607666,23.833248138427734,700
2020-12-04,25.077999114990234,25.077999114990234,25.010000228881836,25.010000228881836,23.71944236755371,700
2020-12-07,25.149999618530273,25.149999618530273,25.149999618530273,25.149999618530273,23.85221290588379,500
2020-12-08,25.079999923706055,25.229999542236328,25.079999923706055,25.229999542236328,23.92808723449707,1500
2020-12-09,25.229999542236328,25.229999542236328,25.229999542236328,25.229999542236328,23.92808723449707,0
2020-12-10,25.229999542236328,25.229999542236328,25.229999542236328,25.229999542236328,23.92808723449707,0
2020-12-11,25.190000534057617,25.229999542236328,25.114999771118164,25.229999542236328,23.92808723449707,1700
2020-12-14,25.149999618530273,25.149999618530273,25.0,25.115999221801758,23.819969177246094,2000
2020-12-15,25.010000228881836,25.079999923706055,24.860000610351562,25.079999923706055,23.78582763671875,3200
2020-12-16,25.030000686645508,25.190000534057617,25.030000686645508,25.190000534057617,23.890153884887695,9400
2020-12-17,25.204999923706055,25.75,25.18000030517578,25.75,24.421255111694336,69700
2020-12-18,25.510000228881836,25.510000228881836,25.312999725341797,25.40999984741211,24.098798751831055,11700
2020-12-21,25.309999465942383,25.450000762939453,25.301000595092773,25.450000762939453,24.136735916137695,1300
2020-12-22,25.239999771118164,25.5,25.209999084472656,25.5,24.184154510498047,1400
2020-12-23,25.329999923706055,25.358999252319336,25.21299934387207,25.350000381469727,24.041894912719727,1800
2020-12-24,25.299999237060547,25.309999465942383,25.299999237060547,25.309999465942383,24.00395965576172,500
2020-12-28,25.360000610351562,25.5,25.22800064086914,25.5,24.184154510498047,1700
2020-12-29,25.450000762939453,25.450000762939453,25.316999435424805,25.316999435424805,24.010597229003906,1100
2020-12-30,25.700000762939453,25.700000762939453,25.299999237060547,25.639999389648438,24.316930770874023,4100
