Date,Open,High,Low,Close,Adj Close,Volume
2017-10-11,10.443685531616211,10.665529251098633,9.837883949279785,9.837883949279785,9.837883949279785,391565
2017-10-12,9.812287330627441,10.068259239196777,9.812287330627441,9.94027328491211,9.94027328491211,106535
2017-10-13,9.982934951782227,9.982934951782227,9.897610664367676,9.897610664367676,9.897610664367676,53912
2017-10-16,9.897610664367676,9.974403381347656,9.812287330627441,9.854948997497559,9.854948997497559,59538
2017-10-17,9.846416473388672,9.846416473388672,9.641637802124023,9.650171279907227,9.650171279907227,110754
2017-10-18,9.658702850341797,9.658702850341797,9.436860084533691,9.513651847839355,9.513651847839355,73719
2017-10-19,9.470990180969238,9.513651847839355,9.428327560424805,9.470990180969238,9.470990180969238,56373
2017-10-20,9.470990180969238,9.470990180969238,9.394198417663574,9.39846420288086,9.39846420288086,86259
2017-10-23,9.402729988098145,9.598976135253906,9.385665893554688,9.598976135253906,9.598976135253906,59655
2017-10-24,9.697098731994629,9.697098731994629,9.5,9.552047729492188,9.552047729492188,22034
2017-10-25,9.526451110839844,9.539249420166016,9.412116050720215,9.412116050720215,9.412116050720215,16174
2017-10-26,9.470990180969238,9.539249420166016,9.402729988098145,9.436860084533691,9.436860084533691,25784
2017-10-27,9.5,9.530716896057129,9.470990180969238,9.513651847839355,9.513651847839355,13947
2017-10-30,9.513651847839355,9.573378562927246,9.513651847839355,9.569966316223145,9.569966316223145,5040
2017-10-31,9.59044361114502,9.67576789855957,9.568259239196777,9.67576789855957,9.67576789855957,30941
2017-11-01,9.67576789855957,9.718429565429688,9.67576789855957,9.697098731994629,9.697098731994629,31058
2017-11-02,9.641637802124023,9.641637802124023,9.641637802124023,9.641637802124023,9.641637802124023,1406
2017-11-03,9.641637802124023,9.641637802124023,9.556314468383789,9.573378562927246,9.573378562927246,25667
2017-11-06,9.598976135253906,9.641637802124023,9.539249420166016,9.539249420166016,9.539249420166016,18986
2017-11-07,9.556314468383789,9.556314468383789,9.470990180969238,9.547781944274902,9.547781944274902,14650
2017-11-08,9.556314468383789,9.59044361114502,9.470990180969238,9.556314468383789,9.556314468383789,6094
2017-11-09,9.428327560424805,9.598976135253906,9.394198417663574,9.598976135253906,9.598976135253906,11251
2017-11-10,9.598976135253906,9.598976135253906,9.505119323730469,9.512799263000488,9.512799263000488,11720
2017-11-13,9.513651847839355,9.513651847839355,9.436860084533691,9.436860084533691,9.436860084533691,4805
2017-11-14,9.475255966186523,9.505119323730469,9.453925132751465,9.504265785217285,9.504265785217285,7852
2017-11-15,9.470136642456055,9.470990180969238,9.462456703186035,9.470990180969238,9.470990180969238,9493
2017-11-16,9.470136642456055,9.470990180969238,9.419795036315918,9.424060821533203,9.424060821533203,16056
2017-11-17,9.436860084533691,9.470990180969238,9.402729988098145,9.462456703186035,9.462456703186035,16174
2017-11-20,9.436860084533691,9.462456703186035,9.436860084533691,9.45819091796875,9.45819091796875,1172
2017-11-21,9.445391654968262,9.513651847839355,9.442832946777344,9.513651847839355,9.513651847839355,21096
2017-11-22,9.410409927368164,9.513651847839355,9.410409927368164,9.513651847839355,9.513651847839355,21682
2017-11-24,9.513651847839355,9.513651847839355,9.513651847839355,9.513651847839355,9.513651847839355,0
2017-11-27,9.513651847839355,9.556314468383789,9.494880676269531,9.547781944274902,9.547781944274902,25550
2017-11-28,9.556314468383789,9.556314468383789,9.479521751403809,9.556314468383789,9.556314468383789,16525
2017-11-29,9.607508659362793,9.61604118347168,9.402729988098145,9.513651847839355,9.513651847839355,31644
2017-11-30,9.447098731994629,9.641637802124023,9.447098731994629,9.641637802124023,9.641637802124023,7970
2017-12-01,9.684300422668457,9.684300422668457,9.556314468383789,9.641637802124023,9.641637802124023,7032
2017-12-04,9.641637802124023,9.641637802124023,9.633106231689453,9.641637802124023,9.641637802124023,2461
2017-12-05,9.641637802124023,9.641637802124023,9.547781944274902,9.547781944274902,9.547781944274902,9493
2017-12-06,9.556314468383789,9.684300422668457,9.522184371948242,9.556314468383789,9.556314468383789,16877
2017-12-07,9.556314468383789,9.598976135253906,9.513651847839355,9.598976135253906,9.598976135253906,20393
2017-12-08,9.556314468383789,9.618600845336914,9.555460929870605,9.598976135253906,9.598976135253906,5860
2017-12-11,9.598976135253906,9.684300422668457,9.569112777709961,9.569112777709961,9.569112777709961,25550
2017-12-12,9.641637802124023,9.641637802124023,9.547781944274902,9.56484603881836,9.56484603881836,14767
2017-12-13,9.598976135253906,9.607508659362793,9.428327560424805,9.462456703186035,9.462456703186035,34222
2017-12-14,9.462456703186035,9.556314468383789,9.411263465881348,9.436860084533691,9.436860084533691,27425
2017-12-15,9.445391654968262,9.59044361114502,9.385665893554688,9.385665893554688,9.385665893554688,78407
2017-12-18,9.45819091796875,9.45819091796875,9.385665893554688,9.385665893554688,9.385665893554688,20862
2017-12-19,9.428327560424805,9.436860084533691,9.385665893554688,9.385665893554688,9.385665893554688,28831
2017-12-20,9.436860084533691,9.436860084533691,9.394198417663574,9.402729988098145,9.402729988098145,1641
2017-12-21,9.428327560424805,9.445391654968262,9.428327560424805,9.436860084533691,9.436860084533691,5391
2017-12-22,9.432594299316406,9.450511932373047,9.385665893554688,9.436860084533691,9.436860084533691,12892
2017-12-26,9.436860084533691,9.436860084533691,9.436860084533691,9.436860084533691,9.436860084533691,0
2017-12-27,9.436860084533691,9.436860084533691,9.436860084533691,9.436860084533691,9.436860084533691,0
2017-12-28,9.419795036315918,9.419795036315918,9.385665893554688,9.394198417663574,9.394198417663574,37270
2017-12-29,9.394198417663574,9.419795036315918,9.385665893554688,9.402729988098145,9.402729988098145,26370
2018-01-02,9.428327560424805,9.470990180969238,9.385665893554688,9.394198417663574,9.394198417663574,12658
2018-01-03,9.385665893554688,9.453925132751465,9.385665893554688,9.428327560424805,9.428327560424805,12540
2018-01-04,9.402729988098145,9.445391654968262,9.385665893554688,9.394198417663574,9.394198417663574,24495
2018-01-05,9.402729988098145,9.428327560424805,9.402729988098145,9.419795036315918,9.419795036315918,1875
2018-01-08,9.385665893554688,9.419795036315918,9.385665893554688,9.419795036315918,9.419795036315918,9610
2018-01-09,9.419795036315918,9.419795036315918,9.419795036315918,9.419795036315918,9.419795036315918,0
2018-01-10,9.402729988098145,9.402729988098145,9.394198417663574,9.402729988098145,9.402729988098145,4922
2018-01-11,9.394198417663574,9.39846420288086,9.385665893554688,9.385665893554688,9.385665893554688,25081
2018-01-12,9.402729988098145,9.402729988098145,9.385665893554688,9.391637802124023,9.391637802124023,13361
2018-01-16,9.385665893554688,9.402729988098145,9.385665893554688,9.402729988098145,9.402729988098145,43598
2018-01-17,9.402729988098145,9.402729988098145,9.385665893554688,9.402729988098145,9.402729988098145,9259
2018-01-18,9.402729988098145,9.428327560424805,9.385665893554688,9.428327560424805,9.428327560424805,6094
2018-01-19,9.428327560424805,9.428327560424805,9.428327560424805,9.428327560424805,9.428327560424805,0
2018-01-22,9.385665893554688,9.436860084533691,9.385665893554688,9.419795036315918,9.419795036315918,32699
2018-01-23,9.412116050720215,9.428327560424805,9.412116050720215,9.428327560424805,9.428327560424805,6680
2018-01-24,9.419795036315918,9.436006546020508,9.419795036315918,9.428327560424805,9.428327560424805,10314
2018-01-25,9.434300422668457,9.436860084533691,9.415529251098633,9.415529251098633,9.415529251098633,4336
2018-01-26,9.411263465881348,9.411263465881348,9.411263465881348,9.411263465881348,9.411263465881348,1289
2018-01-29,9.411263465881348,9.411263465881348,9.411263465881348,9.411263465881348,9.411263465881348,352
2018-01-30,9.394198417663574,9.411263465881348,9.385665893554688,9.411263465881348,9.411263465881348,6212
2018-01-31,9.387372016906738,9.387372016906738,9.387372016906738,9.387372016906738,9.387372016906738,1289
2018-02-01,9.411263465881348,9.436860084533691,9.403583526611328,9.436860084533691,9.436860084533691,47583
2018-02-02,9.430887222290039,9.513651847839355,9.428327560424805,9.513651847839355,9.513651847839355,28480
2018-02-05,9.394198417663574,9.505119323730469,9.394198417663574,9.400171279907227,9.400171279907227,11954
2018-02-06,9.394198417663574,9.402729988098145,9.385665893554688,9.385665893554688,9.385665893554688,2461
2018-02-07,9.385665893554688,9.394198417663574,9.30034065246582,9.30034065246582,9.30034065246582,44770
2018-02-08,9.315699577331543,9.360068321228027,9.308874130249023,9.308874130249023,9.308874130249023,30824
2018-02-09,9.308874130249023,9.359214782714844,9.30034065246582,9.317405700683594,9.317405700683594,25550
2018-02-12,9.306314468383789,9.308874130249023,9.30034065246582,9.308874130249023,9.308874130249023,18283
2018-02-13,9.321672439575195,9.360068321228027,9.313139915466309,9.360068321228027,9.360068321228027,11017
2018-02-14,9.343856811523438,9.369454383850098,9.30034065246582,9.30034065246582,9.30034065246582,12658
2018-02-15,9.178327560424805,9.2064847946167,9.172354698181152,9.2064847946167,9.2064847946167,8087
2018-02-16,9.30034065246582,9.325939178466797,9.244880676269531,9.308874130249023,9.308874130249023,4922
2018-02-20,9.180887222290039,9.283275604248047,9.172354698181152,9.172354698181152,9.172354698181152,8790
2018-02-21,9.172354698181152,9.172354698181152,9.172354698181152,9.172354698181152,9.172354698181152,0
2018-02-22,9.180887222290039,9.180887222290039,9.172354698181152,9.172354698181152,9.172354698181152,7735
2018-02-23,9.215017318725586,9.283275604248047,9.172354698181152,9.172354698181152,9.172354698181152,32347
2018-02-26,9.172354698181152,9.180887222290039,9.172354698181152,9.172354698181152,9.172354698181152,6680
2018-02-27,9.172354698181152,9.196246147155762,9.172354698181152,9.172354698181152,9.172354698181152,8790
2018-02-28,9.172354698181152,9.172354698181152,9.087031364440918,9.087031364440918,9.087031364440918,6212
2018-03-01,9.129693031311035,9.129693031311035,9.078497886657715,9.078497886657715,9.078497886657715,1055
2018-03-02,8.992321014404297,9.00170612335205,8.788395881652832,8.848122596740723,8.848122596740723,24846
2018-03-05,8.90785026550293,9.119454383850098,8.90785026550293,8.96757698059082,8.96757698059082,3750
2018-03-06,9.00170612335205,9.044368743896484,8.924915313720703,8.924915313720703,8.924915313720703,4805
2018-03-07,8.996586799621582,9.027303695678711,8.9163818359375,8.9163818359375,8.9163818359375,6798
2018-03-08,8.9163818359375,8.9163818359375,8.9163818359375,8.9163818359375,8.9163818359375,7970
2018-03-09,8.924915313720703,8.933446884155273,8.924915313720703,8.924915313720703,8.924915313720703,17697
2018-03-12,9.018771171569824,9.018771171569824,9.018771171569824,9.018771171569824,9.018771171569824,234
2018-03-13,8.9163818359375,9.027303695678711,8.9163818359375,9.027303695678711,9.027303695678711,703
2018-03-14,9.035836219787598,9.360068321228027,9.035836219787598,9.360068321228027,9.360068321228027,820
2018-03-15,9.3771333694458,9.684300422668457,9.3771333694458,9.684300422668457,9.684300422668457,32113
2018-03-16,9.607508659362793,9.67576789855957,9.607508659362793,9.67576789855957,9.67576789855957,15119
2018-03-19,9.59044361114502,9.59044361114502,9.19965934753418,9.385665893554688,9.385665893554688,21565
2018-03-20,9.325939178466797,9.470990180969238,9.30034065246582,9.470990180969238,9.470990180969238,12072
2018-03-21,9.436860084533691,9.470990180969238,9.436860084533691,9.462456703186035,9.462456703186035,7618
2018-03-22,9.3771333694458,9.56484603881836,9.3771333694458,9.56484603881836,9.56484603881836,10665
2018-03-23,9.2064847946167,9.385665893554688,9.2064847946167,9.385665893554688,9.385665893554688,1406
2018-03-26,9.385665893554688,9.385665893554688,9.385665893554688,9.385665893554688,9.385665893554688,0
2018-03-27,9.180887222290039,9.496586799621582,9.172354698181152,9.496586799621582,9.496586799621582,5508
2018-03-28,9.496586799621582,9.496586799621582,9.496586799621582,9.496586799621582,9.496586799621582,0
2018-03-29,9.496586799621582,9.496586799621582,9.496586799621582,9.496586799621582,9.496586799621582,0
2018-04-02,9.411263465881348,9.470990180969238,9.411263465881348,9.470990180969238,9.470990180969238,1289
2018-04-03,9.394198417663574,9.394198417663574,9.394198417663574,9.394198417663574,9.394198417663574,234
2018-04-04,9.422354698181152,9.422354698181152,9.385665893554688,9.385665893554688,9.385665893554688,3750
2018-04-05,9.470990180969238,9.470990180969238,9.470990180969238,9.470990180969238,9.470990180969238,14650
2018-04-06,9.403583526611328,9.403583526611328,9.385665893554688,9.399316787719727,9.399316787719727,4219
2018-04-09,9.180887222290039,9.470990180969238,9.180887222290039,9.385665893554688,9.385665893554688,6915
2018-04-10,9.385665893554688,9.385665893554688,9.385665893554688,9.385665893554688,9.385665893554688,0
2018-04-11,9.385665893554688,9.385665893554688,9.385665893554688,9.385665893554688,9.385665893554688,0
2018-04-12,9.25853157043457,9.343003273010254,9.25853157043457,9.334470748901367,9.334470748901367,5274
2018-04-13,9.189419746398926,9.189419746398926,9.173208236694336,9.173208236694336,9.173208236694336,1055
2018-04-16,9.26791763305664,9.30034065246582,9.15955638885498,9.172354698181152,9.172354698181152,9259
2018-04-17,9.3771333694458,9.385665893554688,9.245734214782715,9.29180908203125,9.29180908203125,5626
2018-04-18,9.30034065246582,9.30034065246582,9.172354698181152,9.172354698181152,9.172354698181152,7384
2018-04-19,9.172354698181152,9.172354698181152,9.172354698181152,9.172354698181152,9.172354698181152,0
2018-04-20,9.30034065246582,9.539249420166016,9.30034065246582,9.539249420166016,9.539249420166016,6094
2018-04-23,9.44965934753418,9.475255966186523,9.385665893554688,9.462456703186035,9.462456703186035,1406
2018-04-24,9.513651847839355,9.513651847839355,9.385665893554688,9.385665893554688,9.385665893554688,32113
2018-04-25,9.385665893554688,9.385665893554688,9.385665893554688,9.385665893554688,9.385665893554688,0
2018-04-26,9.385665893554688,9.385665893554688,9.368600845336914,9.368600845336914,9.368600845336914,820
2018-04-27,9.368600845336914,9.368600845336914,9.368600845336914,9.368600845336914,9.368600845336914,0
2018-04-30,9.3771333694458,9.3771333694458,9.3771333694458,9.3771333694458,9.3771333694458,6446
2018-05-01,9.3771333694458,9.3771333694458,9.3771333694458,9.3771333694458,9.3771333694458,0
2018-05-02,9.428327560424805,9.513651847839355,9.428327560424805,9.513651847839355,9.513651847839355,4336
2018-05-03,9.436860084533691,9.436860084533691,9.257678985595703,9.257678985595703,9.257678985595703,4454
2018-05-04,9.257678985595703,9.257678985595703,9.257678985595703,9.257678985595703,9.257678985595703,0
2018-05-07,9.30034065246582,9.530716896057129,9.30034065246582,9.428327560424805,9.428327560424805,14064
2018-05-08,9.357508659362793,9.385665893554688,9.357508659362793,9.385665893554688,9.385665893554688,1758
2018-05-09,9.385665893554688,9.428327560424805,9.385665893554688,9.428327560424805,9.428327560424805,3047
2018-05-10,9.266212463378906,9.368600845336914,9.266212463378906,9.325939178466797,9.325939178466797,5508
2018-05-11,9.325939178466797,9.325939178466797,9.325939178466797,9.325939178466797,9.325939178466797,0
2018-05-14,9.41894245147705,9.428327560424805,9.317405700683594,9.317405700683594,9.317405700683594,7384
2018-05-15,9.317405700683594,9.317405700683594,9.317405700683594,9.317405700683594,9.317405700683594,0
2018-05-16,9.334470748901367,9.334470748901367,9.325939178466797,9.325939178466797,9.325939178466797,1758
2018-05-17,9.30034065246582,9.30034065246582,9.30034065246582,9.30034065246582,9.30034065246582,703
2018-05-18,9.30034065246582,9.364334106445312,9.30034065246582,9.343003273010254,9.343003273010254,2344
2018-05-21,9.343003273010254,9.343003273010254,9.343003273010254,9.343003273010254,9.343003273010254,0
2018-05-22,9.35153579711914,9.424060821533203,9.347270011901855,9.424060821533203,9.424060821533203,2461
2018-05-23,9.35153579711914,9.419795036315918,9.343003273010254,9.419795036315918,9.419795036315918,26370
2018-05-24,9.419795036315918,9.419795036315918,9.419795036315918,9.419795036315918,9.419795036315918,0
2018-05-25,9.385665893554688,9.428327560424805,9.385665893554688,9.385665893554688,9.385665893554688,7618
2018-05-29,9.385665893554688,9.385665893554688,9.385665893554688,9.385665893554688,9.385665893554688,0
2018-05-30,9.394198417663574,9.428327560424805,9.385665893554688,9.394198417663574,9.394198417663574,8321
2018-05-31,9.385665893554688,9.385665893554688,9.360068321228027,9.360068321228027,9.360068321228027,4922
2018-06-01,9.411263465881348,9.411263465881348,9.3771333694458,9.394198417663574,9.394198417663574,8087
2018-06-04,9.394198417663574,9.394198417663574,9.394198417663574,9.394198417663574,9.394198417663574,234
2018-06-05,9.394198417663574,9.394198417663574,9.37457275390625,9.394198417663574,9.394198417663574,9376
2018-06-06,9.419795036315918,9.419795036315918,9.385665893554688,9.385665893554688,9.385665893554688,7384
2018-06-07,9.385665893554688,9.385665893554688,9.385665893554688,9.385665893554688,9.385665893554688,0
2018-06-08,9.392491340637207,9.394198417663574,9.385665893554688,9.385665893554688,9.385665893554688,5040
2018-06-11,9.385665893554688,9.385665893554688,9.368600845336914,9.368600845336914,9.368600845336914,14181
2018-06-12,9.385665893554688,9.394198417663574,9.385665893554688,9.394198417663574,9.394198417663574,1289
2018-06-13,9.394198417663574,9.394198417663574,9.38395881652832,9.385665893554688,9.385665893554688,1992
2018-06-14,9.394198417663574,9.394198417663574,9.368600845336914,9.394198417663574,9.394198417663574,3164
2018-06-15,9.385665893554688,9.394198417663574,9.368600845336914,9.394198417663574,9.394198417663574,1406
2018-06-18,9.394198417663574,9.394198417663574,9.360068321228027,9.360068321228027,9.360068321228027,8790
2018-06-19,9.360921859741211,9.394198417663574,9.360068321228027,9.360068321228027,9.360068321228027,1641
2018-06-20,9.394198417663574,9.462456703186035,9.3771333694458,9.411263465881348,9.411263465881348,7501
2018-06-21,9.385665893554688,9.462456703186035,9.385665893554688,9.385665893554688,9.385665893554688,13244
2018-06-22,9.462456703186035,9.462456703186035,9.411263465881348,9.411263465881348,9.411263465881348,7501
2018-06-25,9.424915313720703,9.462456703186035,9.424915313720703,9.428327560424805,9.428327560424805,1641
2018-06-26,9.3728666305542,9.385665893554688,9.3728666305542,9.383106231689453,9.383106231689453,2344
2018-06-27,9.383106231689453,9.383106231689453,9.383106231689453,9.383106231689453,9.383106231689453,0
2018-06-28,9.383106231689453,9.383106231689453,9.383106231689453,9.383106231689453,9.383106231689453,0
2018-06-29,9.462456703186035,9.462456703186035,9.462456703186035,9.462456703186035,9.462456703186035,2578
2018-07-02,9.462456703186035,9.462456703186035,9.462456703186035,9.462456703186035,9.462456703186035,1992
2018-07-03,9.462456703186035,9.462456703186035,9.462456703186035,9.462456703186035,9.462456703186035,0
2018-07-05,9.470990180969238,9.470990180969238,9.462456703186035,9.462456703186035,9.462456703186035,469
2018-07-06,9.470990180969238,9.513651847839355,9.470990180969238,9.513651847839355,9.513651847839355,1172
2018-07-09,9.496586799621582,9.496586799621582,9.496586799621582,9.496586799621582,9.496586799621582,5860
2018-07-10,9.479521751403809,9.479521751403809,9.470990180969238,9.470990180969238,9.470990180969238,3164
2018-07-11,9.470990180969238,9.470990180969238,9.402729988098145,9.462456703186035,9.462456703186035,1875
2018-07-12,9.462456703186035,9.470990180969238,9.462456703186035,9.470990180969238,9.470990180969238,234
2018-07-13,9.470990180969238,9.513651847839355,9.470990180969238,9.513651847839355,9.513651847839355,2110
2018-07-16,9.513651847839355,9.522184371948242,9.513651847839355,9.522184371948242,9.522184371948242,1406
2018-07-17,9.573378562927246,9.576791763305664,9.573378562927246,9.573378562927246,9.573378562927246,1758
2018-07-18,9.573378562927246,9.573378562927246,9.573378562927246,9.573378562927246,9.573378562927246,0
2018-07-19,9.556314468383789,9.556314468383789,9.556314468383789,9.556314468383789,9.556314468383789,6094
2018-07-20,9.556314468383789,9.56484603881836,9.556314468383789,9.56484603881836,9.56484603881836,8321
2018-07-23,9.56484603881836,9.56484603881836,9.56484603881836,9.56484603881836,9.56484603881836,0
2018-07-24,9.530716896057129,9.530716896057129,9.513651847839355,9.513651847839355,9.513651847839355,7149
2018-07-25,9.513651847839355,9.513651847839355,9.513651847839355,9.513651847839355,9.513651847839355,0
2018-07-26,9.513651847839355,9.513651847839355,9.513651847839355,9.513651847839355,9.513651847839355,0
2018-07-27,9.556314468383789,9.569112777709961,9.547781944274902,9.569112777709961,9.569112777709961,1172
2018-07-30,9.556314468383789,9.563139915466309,9.539249420166016,9.563139915466309,9.563139915466309,1875
2018-07-31,9.419795036315918,9.51791763305664,9.419795036315918,9.51791763305664,9.51791763305664,352
2018-08-01,9.569112777709961,9.569112777709961,9.569112777709961,9.569112777709961,9.569112777709961,586
2018-08-02,9.575084686279297,9.575084686279297,9.575084686279297,9.575084686279297,9.575084686279297,117
2018-08-03,9.641637802124023,9.641637802124023,9.598976135253906,9.598976135253906,9.598976135253906,352
2018-08-06,9.598976135253906,9.598976135253906,9.598976135253906,9.598976135253906,9.598976135253906,0
2018-08-07,9.61604118347168,9.61604118347168,9.61604118347168,9.61604118347168,9.61604118347168,586
2018-08-08,9.61604118347168,9.61604118347168,9.61604118347168,9.61604118347168,9.61604118347168,0
2018-08-09,9.597270011901855,9.597270011901855,9.597270011901855,9.597270011901855,9.597270011901855,469
2018-08-10,9.633106231689453,9.641637802124023,9.633106231689453,9.641637802124023,9.641637802124023,1172
2018-08-13,9.622014045715332,9.622014045715332,9.622014045715332,9.622014045715332,9.622014045715332,469
2018-08-14,9.622014045715332,9.622014045715332,9.622014045715332,9.622014045715332,9.622014045715332,0
2018-08-15,9.622014045715332,9.622014045715332,9.622014045715332,9.622014045715332,9.622014045715332,0
2018-08-16,9.597270011901855,9.597270011901855,9.597270011901855,9.597270011901855,9.597270011901855,469
2018-08-17,9.556314468383789,9.568259239196777,9.555460929870605,9.568259239196777,9.568259239196777,3282
2018-08-20,9.597270011901855,9.597270011901855,9.597270011901855,9.597270011901855,9.597270011901855,586
2018-08-21,9.607508659362793,9.607508659362793,9.607508659362793,9.607508659362793,9.607508659362793,352
2018-08-22,9.607508659362793,9.607508659362793,9.607508659362793,9.607508659362793,9.607508659362793,352
2018-08-23,9.641637802124023,9.641637802124023,9.641637802124023,9.641637802124023,9.641637802124023,938
2018-08-24,9.604096412658691,9.604096412658691,9.603241920471191,9.603241920471191,9.603241920471191,469
2018-08-27,9.62542724609375,9.62542724609375,9.598976135253906,9.598976135253906,9.598976135253906,10196
2018-08-28,9.598976135253906,9.598976135253906,9.598976135253906,9.598976135253906,9.598976135253906,0
2018-08-29,9.6228666305542,9.641637802124023,9.620306968688965,9.620306968688965,9.620306968688965,2344
2018-08-30,9.620306968688965,9.620306968688965,9.620306968688965,9.620306968688965,9.620306968688965,0
2018-08-31,9.62457275390625,9.62457275390625,9.607508659362793,9.607508659362793,9.607508659362793,2696
2018-09-04,9.563139915466309,9.563139915466309,9.526451110839844,9.526451110839844,9.526451110839844,703
2018-09-05,9.526451110839844,9.526451110839844,9.526451110839844,9.526451110839844,9.526451110839844,0
2018-09-06,9.598976135253906,9.598976135253906,9.598976135253906,9.598976135253906,9.598976135253906,234
2018-09-07,9.569112777709961,9.598976135253906,9.569112777709961,9.598976135253906,9.598976135253906,1055
2018-09-10,9.607508659362793,9.641637802124023,9.593856811523438,9.633106231689453,9.633106231689453,15353
2018-09-11,9.607508659362793,9.641637802124023,9.607508659362793,9.641637802124023,9.641637802124023,352
2018-09-12,9.658702850341797,9.658702850341797,9.658702850341797,9.658702850341797,9.658702850341797,234
2018-09-13,9.684300422668457,9.786688804626465,9.679181098937988,9.786688804626465,9.786688804626465,4571
2018-09-14,9.718429565429688,9.718429565429688,9.718429565429688,9.718429565429688,9.718429565429688,352
2018-09-17,9.726962089538574,9.726962089538574,9.726962089538574,9.726962089538574,9.726962089538574,820
2018-09-18,9.761092185974121,9.761092185974121,9.726962089538574,9.726962089538574,9.726962089538574,352
2018-09-19,9.726962089538574,9.795222282409668,9.726962089538574,9.795222282409668,9.795222282409668,469
2018-09-20,9.735494613647461,9.91467571258545,9.735494613647461,9.91467571258545,9.91467571258545,352
2018-09-21,9.778157234191895,10.05972671508789,9.778157234191895,10.05972671508789,10.05972671508789,1406
2018-09-24,10.05972671508789,10.05972671508789,10.05972671508789,10.05972671508789,10.05972671508789,0
2018-09-25,10.05972671508789,10.05972671508789,10.05972671508789,10.05972671508789,10.05972671508789,0
2018-09-26,10.05972671508789,10.05972671508789,10.05972671508789,10.05972671508789,10.05972671508789,0
2018-09-27,9.775596618652344,9.775596618652344,9.756826400756836,9.756826400756836,9.756826400756836,1875
2018-09-28,9.726962089538574,9.726962089538574,9.684300422668457,9.684300422668457,9.684300422668457,820
2018-10-01,9.684300422668457,9.684300422668457,9.684300422668457,9.684300422668457,9.684300422668457,820
2018-10-02,9.784130096435547,9.784130096435547,9.684300422668457,9.684300422668457,9.684300422668457,1172
2018-10-03,9.894198417663574,9.894198417663574,9.894198417663574,9.894198417663574,9.894198417663574,1172
2018-10-04,9.838736534118652,9.852389335632324,9.812287330627441,9.846416473388672,9.846416473388672,5977
2018-10-05,9.696246147155762,9.696246147155762,9.684300422668457,9.684300422668457,9.684300422668457,1172
2018-10-08,9.684300422668457,9.684300422668457,9.684300422668457,9.684300422668457,9.684300422668457,0
2018-10-09,9.684300422668457,9.684300422668457,9.684300422668457,9.684300422668457,9.684300422668457,234
2018-10-10,9.684300422668457,9.761092185974121,9.684300422668457,9.684300422668457,9.684300422668457,2227
2018-10-11,9.684300422668457,9.718429565429688,9.513651847839355,9.56484603881836,9.56484603881836,18986
2018-10-12,9.539249420166016,9.73208236694336,9.534982681274414,9.692832946777344,9.692832946777344,4571
2018-10-15,9.684300422668457,9.684300422668457,9.633106231689453,9.667235374450684,9.667235374450684,7735
2018-10-16,9.692832946777344,9.715869903564453,9.684300422668457,9.684300422668457,9.684300422668457,1758
2018-10-17,9.68515396118164,9.68515396118164,9.641637802124023,9.67576789855957,9.67576789855957,10314
2018-10-18,9.67576789855957,9.67576789855957,9.67576789855957,9.67576789855957,9.67576789855957,0
2018-10-19,9.598976135253906,9.598976135253906,9.598976135253906,9.598976135253906,9.598976135253906,2813
2018-10-22,9.598976135253906,9.598976135253906,9.598976135253906,9.598976135253906,9.598976135253906,703
2018-10-23,9.513651847839355,9.603241920471191,9.513651847839355,9.536688804626465,9.536688804626465,3633
2018-10-24,9.536688804626465,9.536688804626465,9.536688804626465,9.536688804626465,9.536688804626465,0
2018-10-25,9.633106231689453,9.633106231689453,9.223548889160156,9.223548889160156,9.223548889160156,25315
2018-10-26,9.470990180969238,9.470990180969238,9.428327560424805,9.428327560424805,9.428327560424805,13478
2018-10-29,9.30034065246582,9.385665893554688,9.30034065246582,9.385665893554688,9.385665893554688,7384
2018-10-30,9.385665893554688,9.445391654968262,9.385665893554688,9.436860084533691,9.436860084533691,1875
2018-10-31,9.394198417663574,9.428327560424805,9.30034065246582,9.385665893554688,9.385665893554688,9610
2018-11-01,9.343003273010254,9.343003273010254,9.343003273010254,9.343003273010254,9.343003273010254,820
2018-11-02,9.428327560424805,9.428327560424805,9.343003273010254,9.385665893554688,9.385665893554688,2930
2018-11-05,9.385665893554688,9.385665893554688,9.30034065246582,9.317405700683594,9.317405700683594,27542
2018-11-06,9.402729988098145,9.428327560424805,9.39846420288086,9.428327560424805,9.428327560424805,820
2018-11-07,9.30034065246582,9.455631256103516,9.30034065246582,9.455631256103516,9.455631256103516,5157
2018-11-08,9.30034065246582,9.308874130249023,9.30034065246582,9.30034065246582,9.30034065246582,29300
2018-11-09,9.30034065246582,9.30034065246582,9.30034065246582,9.30034065246582,9.30034065246582,117
2018-11-12,9.30034065246582,9.30034065246582,9.30034065246582,9.30034065246582,9.30034065246582,117
2018-11-13,9.317405700683594,9.327645301818848,9.30034065246582,9.30034065246582,9.30034065246582,19807
2018-11-14,9.30034065246582,9.317405700683594,9.30034065246582,9.317405700683594,9.317405700683594,1172
2018-11-15,9.30034065246582,9.30034065246582,9.30034065246582,9.30034065246582,9.30034065246582,234
2018-11-16,9.30034065246582,9.305460929870605,9.30034065246582,9.30034065246582,9.30034065246582,5391
2018-11-19,9.30034065246582,9.339590072631836,9.30034065246582,9.339590072631836,9.339590072631836,2930
2018-11-20,9.30034065246582,9.308874130249023,9.30034065246582,9.308874130249023,9.308874130249023,25315
2018-11-21,9.30034065246582,9.30034065246582,9.30034065246582,9.30034065246582,9.30034065246582,2344
2018-11-23,9.30034065246582,9.30034065246582,9.30034065246582,9.30034065246582,9.30034065246582,117
2018-11-26,9.317405700683594,9.317405700683594,9.30034065246582,9.30034065246582,9.30034065246582,7501
2018-11-27,9.30034065246582,9.30034065246582,9.30034065246582,9.30034065246582,9.30034065246582,117
2018-11-28,9.317405700683594,9.317405700683594,9.317405700683594,9.317405700683594,9.317405700683594,820
2018-11-29,9.30034065246582,9.470990180969238,9.30034065246582,9.419795036315918,9.419795036315918,2227
2018-11-30,9.385665893554688,9.428327560424805,9.30034065246582,9.30034065246582,9.30034065246582,21448
2018-12-03,9.343003273010254,9.421502113342285,9.343003273010254,9.385665893554688,9.385665893554688,6915
2018-12-04,9.362627983093262,9.402729988098145,9.355801582336426,9.37457275390625,9.37457275390625,25784
2018-12-06,9.411263465881348,9.411263465881348,9.30034065246582,9.30034065246582,9.30034065246582,1172
2018-12-07,9.308874130249023,9.428327560424805,9.30034065246582,9.428327560424805,9.428327560424805,12658
2018-12-10,9.428327560424805,9.428327560424805,9.428327560424805,9.428327560424805,9.428327560424805,117
2018-12-11,9.334470748901367,9.334470748901367,9.30034065246582,9.30034065246582,9.30034065246582,4102
2018-12-12,9.308874130249023,9.308874130249023,9.223548889160156,9.283275604248047,9.283275604248047,41137
2018-12-13,9.30034065246582,9.308874130249023,9.223548889160156,9.249147415161133,9.249147415161133,5626
2018-12-14,9.223548889160156,9.249147415161133,9.223548889160156,9.249147415161133,9.249147415161133,2344
2018-12-17,9.223548889160156,9.261092185974121,9.163823127746582,9.172354698181152,9.172354698181152,12658
2018-12-18,9.172354698181152,9.218429565429688,9.155289649963379,9.155289649963379,9.155289649963379,6798
2018-12-19,9.155289649963379,9.155289649963379,9.155289649963379,9.155289649963379,9.155289649963379,1758
2018-12-20,9.061432838439941,9.061432838439941,8.105801582336426,8.66894245147705,8.66894245147705,6329
2018-12-21,8.660409927368164,8.689419746398926,8.660409927368164,8.660409927368164,8.660409927368164,3164
2018-12-24,8.660409927368164,8.703071594238281,8.660409927368164,8.703071594238281,8.703071594238281,2578
2018-12-26,8.660409927368164,8.681740760803223,8.53242301940918,8.53242301940918,8.53242301940918,13126
2018-12-27,8.53242301940918,8.677474021911621,8.53242301940918,8.540955543518066,8.540955543518066,4219
2018-12-28,8.703071594238281,8.703071594238281,8.53242301940918,8.53242301940918,8.53242301940918,20627
2018-12-31,8.558019638061523,8.66894245147705,8.558019638061523,8.558019638061523,8.558019638061523,3399
2019-01-02,8.53242301940918,8.728669166564941,8.53242301940918,8.686006546020508,8.686006546020508,10782
2019-01-03,8.61774730682373,8.959044456481934,8.49829387664795,8.506826400756836,8.506826400756836,22268
2019-01-04,8.528157234191895,8.53242301940918,8.489761352539062,8.53242301940918,8.53242301940918,67742
2019-01-07,8.53242301940918,8.634812355041504,8.53242301940918,8.634812355041504,8.634812355041504,11720
2019-01-08,8.634812355041504,8.634812355041504,8.634812355041504,8.634812355041504,8.634812355041504,117
2019-01-09,8.66894245147705,8.792661666870117,8.626279830932617,8.64334487915039,8.64334487915039,5860
2019-01-10,8.61774730682373,8.959044456481934,8.61774730682373,8.959044456481934,8.959044456481934,5860
2019-01-11,8.61774730682373,8.61774730682373,8.61774730682373,8.61774730682373,8.61774730682373,469
2019-01-14,8.61774730682373,8.61774730682373,8.61774730682373,8.61774730682373,8.61774730682373,234
2019-01-15,8.61774730682373,8.61774730682373,8.61774730682373,8.61774730682373,8.61774730682373,117
2019-01-16,8.64334487915039,8.788395881652832,8.61774730682373,8.788395881652832,8.788395881652832,2578
2019-01-17,8.9163818359375,8.9163818359375,8.64334487915039,8.64334487915039,8.64334487915039,1641
2019-01-18,8.64334487915039,8.64334487915039,8.64334487915039,8.64334487915039,8.64334487915039,352
2019-01-22,8.771330833435059,8.771330833435059,8.771330833435059,8.771330833435059,8.771330833435059,586
2019-01-23,8.61774730682373,8.61774730682373,8.61774730682373,8.61774730682373,8.61774730682373,352
2019-01-24,8.61774730682373,8.61774730682373,8.61774730682373,8.61774730682373,8.61774730682373,117
2019-01-25,8.61774730682373,8.61774730682373,8.61774730682373,8.61774730682373,8.61774730682373,117
2019-01-28,8.639931678771973,8.639931678771973,8.626279830932617,8.626279830932617,8.626279830932617,1406
2019-01-29,8.779863357543945,8.959044456481934,8.762799263000488,8.959044456481934,8.959044456481934,35512
2019-01-30,8.959044456481934,8.97610855102539,8.959044456481934,8.96757698059082,8.96757698059082,9610
2019-01-31,9.05034065246582,9.05034065246582,9.05034065246582,9.05034065246582,9.05034065246582,352
2019-02-01,9.121159553527832,9.30034065246582,9.078497886657715,9.087031364440918,9.087031364440918,23557
2019-02-04,9.29180908203125,9.505119323730469,9.281570434570312,9.488055229187012,9.488055229187012,20744
2019-02-05,9.462456703186035,9.575939178466797,9.163823127746582,9.215017318725586,9.215017318725586,87548
2019-02-06,9.470990180969238,9.470990180969238,9.470990180969238,9.470990180969238,9.470990180969238,4688
2019-02-07,9.428327560424805,9.560580253601074,9.253413200378418,9.518771171569824,9.518771171569824,58014
2019-02-08,9.470990180969238,9.569966316223145,9.189419746398926,9.569966316223145,9.569966316223145,21916
2019-02-11,9.555460929870605,9.556314468383789,9.528157234191895,9.556314468383789,9.556314468383789,4688
2019-02-12,9.556314468383789,9.556314468383789,9.556314468383789,9.556314468383789,9.556314468383789,117
2019-02-13,9.42576789855957,9.470990180969238,9.343003273010254,9.470990180969238,9.470990180969238,15939
2019-02-14,9.479521751403809,9.505119323730469,9.223548889160156,9.223548889160156,9.223548889160156,5743
2019-02-15,9.436860084533691,9.488055229187012,9.257678985595703,9.257678985595703,9.257678985595703,2813
2019-02-19,9.257678985595703,9.257678985595703,9.257678985595703,9.257678985595703,9.257678985595703,0
2019-02-20,9.394198417663574,9.556314468383789,9.129693031311035,9.129693031311035,9.129693031311035,22502
2019-02-21,9.334470748901367,9.360068321228027,9.334470748901367,9.360068321228027,9.360068321228027,586
2019-02-22,9.17576789855957,9.17576789855957,9.17576789855957,9.17576789855957,9.17576789855957,352
2019-02-25,9.121159553527832,9.129693031311035,9.087031364440918,9.129693031311035,9.129693031311035,2461
2019-02-26,9.249147415161133,9.249147415161133,9.172354698181152,9.172354698181152,9.172354698181152,703
2019-02-27,9.129693031311035,9.323378562927246,9.052901268005371,9.052901268005371,9.052901268005371,8087
2019-02-28,9.30034065246582,9.3771333694458,9.197952270507812,9.3771333694458,9.3771333694458,3516
2019-03-01,9.3771333694458,9.3771333694458,9.3771333694458,9.3771333694458,9.3771333694458,117
2019-03-04,9.112627983093262,9.112627983093262,9.112627983093262,9.112627983093262,9.112627983093262,703
2019-03-05,9.30034065246582,9.384812355041504,9.30034065246582,9.35153579711914,9.35153579711914,1641
2019-03-06,9.360068321228027,9.384812355041504,9.283275604248047,9.326791763305664,9.326791763305664,3399
2019-03-07,9.325939178466797,9.343003273010254,9.29180908203125,9.343003273010254,9.343003273010254,9610
2019-03-08,9.343003273010254,9.343003273010254,9.343003273010254,9.343003273010254,9.343003273010254,117
2019-03-11,9.343003273010254,9.343003273010254,9.343003273010254,9.343003273010254,9.343003273010254,117
2019-03-12,9.129693031311035,9.180887222290039,9.087883949279785,9.172354698181152,9.172354698181152,4922
2019-03-13,9.180887222290039,9.239761352539062,9.172354698181152,9.22610855102539,9.22610855102539,52154
2019-03-14,9.215017318725586,9.29180908203125,9.215017318725586,9.29180908203125,9.29180908203125,2461
2019-03-15,9.29180908203125,9.29180908203125,9.249147415161133,9.249147415161133,9.249147415161133,1992
2019-03-18,9.249147415161133,9.249147415161133,9.249147415161133,9.249147415161133,9.249147415161133,117
2019-03-19,9.210750579833984,9.310580253601074,9.210750579833984,9.310580253601074,9.310580253601074,6915
2019-03-20,9.203925132751465,9.203925132751465,9.197952270507812,9.197952270507812,9.197952270507812,4102
2019-03-21,9.355801582336426,9.355801582336426,9.172354698181152,9.172354698181152,9.172354698181152,1992
2019-03-22,9.209044456481934,9.218429565429688,9.209044456481934,9.218429565429688,9.218429565429688,3399
2019-03-25,9.218429565429688,9.218429565429688,9.218429565429688,9.218429565429688,9.218429565429688,0
2019-03-26,9.218429565429688,9.218429565429688,9.218429565429688,9.218429565429688,9.218429565429688,0
2019-03-27,9.215017318725586,9.215017318725586,9.215017318725586,9.215017318725586,9.215017318725586,6212
2019-03-28,9.215017318725586,9.215017318725586,9.215017318725586,9.215017318725586,9.215017318725586,0
2019-03-29,9.163823127746582,9.215017318725586,9.158702850341797,9.172354698181152,9.172354698181152,21330
2019-04-01,9.27389144897461,9.27389144897461,9.138224601745605,9.138224601745605,9.138224601745605,6329
2019-04-02,9.30034065246582,9.30034065246582,9.30034065246582,9.30034065246582,9.30034065246582,117
2019-04-03,9.156996726989746,9.156996726989746,9.156996726989746,9.156996726989746,9.156996726989746,352
2019-04-04,9.129693031311035,9.24061393737793,9.129693031311035,9.239761352539062,9.239761352539062,5977
2019-04-05,9.145903587341309,9.145903587341309,9.145903587341309,9.145903587341309,9.145903587341309,938
2019-04-08,9.087883949279785,9.087883949279785,9.087883949279785,9.087883949279785,9.087883949279785,469
2019-04-09,9.070818901062012,9.093856811523438,9.070818901062012,9.093856811523438,9.093856811523438,2344
2019-04-10,9.069966316223145,9.069966316223145,9.069966316223145,9.069966316223145,9.069966316223145,117
2019-04-11,9.069966316223145,9.069966316223145,9.069966316223145,9.069966316223145,9.069966316223145,0
2019-04-12,9.2064847946167,9.215017318725586,9.12542724609375,9.215017318725586,9.215017318725586,14298
2019-04-15,9.23208236694336,9.23208236694336,9.215017318725586,9.215017318725586,9.215017318725586,24143
2019-04-16,9.215017318725586,9.215017318725586,9.215017318725586,9.215017318725586,9.215017318725586,117
2019-04-17,9.29180908203125,9.29180908203125,9.172354698181152,9.172354698181152,9.172354698181152,7384
2019-04-18,9.191125869750977,9.215017318725586,9.172354698181152,9.180887222290039,9.180887222290039,8321
2019-04-22,9.052901268005371,9.163823127746582,9.052901268005371,9.163823127746582,9.163823127746582,1055
2019-04-23,9.052901268005371,9.095562934875488,9.044368743896484,9.095562934875488,9.095562934875488,3399
2019-04-24,9.095562934875488,9.095562934875488,9.095562934875488,9.095562934875488,9.095562934875488,234
2019-04-25,9.099828720092773,9.099828720092773,9.078497886657715,9.078497886657715,9.078497886657715,2227
2019-04-26,9.078497886657715,9.078497886657715,9.078497886657715,9.078497886657715,9.078497886657715,0
2019-04-29,9.087031364440918,9.087031364440918,9.078497886657715,9.078497886657715,9.078497886657715,1172
2019-04-30,9.078497886657715,9.078497886657715,9.078497886657715,9.078497886657715,9.078497886657715,0
2019-05-01,9.078497886657715,9.078497886657715,9.078497886657715,9.078497886657715,9.078497886657715,0
2019-05-02,9.055460929870605,9.055460929870605,9.055460929870605,9.055460929870605,9.055460929870605,1172
2019-05-03,9.052901268005371,9.087883949279785,9.052901268005371,9.087031364440918,9.087031364440918,2578
2019-05-06,9.044368743896484,9.044368743896484,9.044368743896484,9.044368743896484,9.044368743896484,234
2019-05-07,9.044368743896484,9.044368743896484,8.83105754852295,8.83105754852295,8.83105754852295,6798
2019-05-08,8.83105754852295,8.83105754852295,8.83105754852295,8.83105754852295,8.83105754852295,0
2019-05-09,9.012799263000488,9.012799263000488,9.012799263000488,9.012799263000488,9.012799263000488,117
2019-05-10,9.012799263000488,9.012799263000488,9.012799263000488,9.012799263000488,9.012799263000488,117
2019-05-13,8.950511932373047,8.959044456481934,8.950511932373047,8.959044456481934,8.959044456481934,9610
2019-05-14,8.959044456481934,8.959044456481934,8.959044456481934,8.959044456481934,8.959044456481934,0
2019-05-15,8.959044456481934,8.959044456481934,8.959044456481934,8.959044456481934,8.959044456481934,0
2019-05-16,8.83105754852295,8.83105754852295,8.83105754852295,8.83105754852295,8.83105754852295,469
2019-05-17,8.83105754852295,8.83105754852295,8.83105754852295,8.83105754852295,8.83105754852295,0
2019-05-20,9.078497886657715,9.078497886657715,9.078497886657715,9.078497886657715,9.078497886657715,117
2019-05-21,9.078497886657715,9.078497886657715,9.078497886657715,9.078497886657715,9.078497886657715,117
2019-05-22,9.078497886657715,9.078497886657715,9.078497886657715,9.078497886657715,9.078497886657715,0
2019-05-23,9.078497886657715,9.078497886657715,9.078497886657715,9.078497886657715,9.078497886657715,117
2019-05-24,9.078497886657715,9.078497886657715,9.078497886657715,9.078497886657715,9.078497886657715,117
2019-05-28,9.078497886657715,9.078497886657715,9.078497886657715,9.078497886657715,9.078497886657715,117
2019-05-29,8.84214973449707,8.84214973449707,8.83105754852295,8.83105754852295,8.83105754852295,13244
2019-05-30,8.83105754852295,8.83105754852295,8.83105754852295,8.83105754852295,8.83105754852295,117
2019-05-31,8.83105754852295,8.83105754852295,8.83105754852295,8.83105754852295,8.83105754852295,117
2019-06-03,8.83105754852295,8.912968635559082,8.703071594238281,8.746586799621582,8.746586799621582,4219
2019-06-04,8.661263465881348,8.661263465881348,8.660409927368164,8.660409927368164,8.660409927368164,14416
2019-06-05,8.929181098937988,8.929181098937988,8.929181098937988,8.929181098937988,8.929181098937988,117
2019-06-06,8.686006546020508,8.811432838439941,8.677474021911621,8.677474021911621,8.677474021911621,1406
2019-06-07,8.694539070129395,8.711604118347168,8.660409927368164,8.711604118347168,8.711604118347168,7266
2019-06-10,8.694539070129395,8.694539070129395,8.694539070129395,8.694539070129395,8.694539070129395,234
2019-06-11,8.694539070129395,8.694539070129395,8.694539070129395,8.694539070129395,8.694539070129395,117
2019-06-12,8.66894245147705,8.686006546020508,8.66894245147705,8.686006546020508,8.686006546020508,352
2019-06-13,8.677474021911621,8.677474021911621,8.677474021911621,8.677474021911621,8.677474021911621,117
2019-06-14,8.677474021911621,8.677474021911621,8.677474021911621,8.677474021911621,8.677474021911621,117
2019-06-17,8.686006546020508,8.703071594238281,8.660409927368164,8.660409927368164,8.660409927368164,2930
2019-06-18,8.660409927368164,8.660409927368164,8.660409927368164,8.660409927368164,8.660409927368164,117
2019-06-19,8.993173599243164,8.993173599243164,8.993173599243164,8.993173599243164,8.993173599243164,234
2019-06-20,8.959044456481934,8.959044456481934,8.959044456481934,8.959044456481934,8.959044456481934,234
2019-06-21,8.686006546020508,8.873720169067383,8.686006546020508,8.865187644958496,8.865187644958496,3282
2019-06-24,8.959044456481934,8.959044456481934,8.959044456481934,8.959044456481934,8.959044456481934,117
2019-06-25,8.686006546020508,8.873720169067383,8.686006546020508,8.805460929870605,8.805460929870605,8556
2019-06-26,8.703071594238281,8.703071594238281,8.686006546020508,8.686006546020508,8.686006546020508,586
2019-06-27,8.686006546020508,8.686006546020508,7.9863481521606445,7.9863481521606445,7.9863481521606445,19338
2019-06-28,8.762799263000488,8.9163818359375,8.536688804626465,8.9163818359375,8.9163818359375,22737
2019-07-01,8.796928405761719,8.796928405761719,8.378840446472168,8.703071594238281,8.703071594238281,7032
2019-07-02,8.724403381347656,8.745734214782715,8.703071594238281,8.745734214782715,8.745734214782715,10782
2019-07-03,8.728669166564941,8.728669166564941,8.728669166564941,8.728669166564941,8.728669166564941,234
2019-07-05,8.724403381347656,8.724403381347656,8.703071594238281,8.703071594238281,8.703071594238281,1758
2019-07-08,8.754265785217285,8.818259239196777,8.686006546020508,8.689419746398926,8.689419746398926,24026
2019-07-09,8.689419746398926,8.689419746398926,8.689419746398926,8.689419746398926,8.689419746398926,117
2019-07-10,8.689419746398926,8.689419746398926,8.689419746398926,8.689419746398926,8.689419746398926,234
2019-07-11,8.729521751403809,8.873720169067383,8.686006546020508,8.686006546020508,8.686006546020508,6680
2019-07-12,8.729521751403809,8.865187644958496,8.626279830932617,8.703071594238281,8.703071594238281,19807
2019-07-15,8.703071594238281,8.703071594238281,8.464163780212402,8.660409927368164,8.660409927368164,32230
2019-07-16,8.64334487915039,8.64334487915039,8.634812355041504,8.634812355041504,8.634812355041504,7032
2019-07-17,8.66894245147705,8.66894245147705,8.639078140258789,8.660409927368164,8.660409927368164,8438
2019-07-18,8.59214973449707,8.634812355041504,8.59214973449707,8.634812355041504,8.634812355041504,2930
2019-07-19,8.640785217285156,8.640785217285156,8.404437065124512,8.61774730682373,8.61774730682373,22737
2019-07-22,8.496586799621582,8.53242301940918,8.489761352539062,8.53242301940918,8.53242301940918,4336
2019-07-23,8.455631256103516,8.626279830932617,8.455631256103516,8.626279830932617,8.626279830932617,352
2019-07-24,8.626279830932617,8.626279830932617,8.626279830932617,8.626279830932617,8.626279830932617,0
2019-07-25,8.61774730682373,8.61774730682373,8.61774730682373,8.61774730682373,8.61774730682373,117
2019-07-26,8.613480567932129,8.61774730682373,8.540955543518066,8.61774730682373,8.61774730682373,20862
2019-07-29,8.600683212280273,8.66467571258545,8.600683212280273,8.626279830932617,8.626279830932617,5508
2019-07-30,8.626279830932617,8.626279830932617,8.626279830932617,8.626279830932617,8.626279830932617,0
2019-07-31,8.660409927368164,8.694539070129395,8.540955543518066,8.540955543518066,8.540955543518066,4102
2019-08-01,8.540955543518066,8.61774730682373,8.540955543518066,8.558019638061523,8.558019638061523,12540
2019-08-02,8.561432838439941,8.593856811523438,8.558019638061523,8.558019638061523,8.558019638061523,820
2019-08-05,8.558019638061523,8.558019638061523,8.558019638061523,8.558019638061523,8.558019638061523,1172
2019-08-06,8.558019638061523,8.578497886657715,8.558019638061523,8.558019638061523,8.558019638061523,938
2019-08-07,8.489761352539062,8.626279830932617,8.489761352539062,8.530716896057129,8.530716896057129,2578
2019-08-08,8.562287330627441,8.61774730682373,8.49829387664795,8.49829387664795,8.49829387664795,19104
2019-08-09,8.575084686279297,8.575084686279297,8.575084686279297,8.575084686279297,8.575084686279297,469
2019-08-12,8.575084686279297,8.575084686279297,8.575084686279297,8.575084686279297,8.575084686279297,469
2019-08-13,8.562287330627441,8.567405700683594,8.53242301940918,8.53242301940918,8.53242301940918,1992
2019-08-14,8.535836219787598,8.549488067626953,8.063139915466309,8.472696304321289,8.472696304321289,11486
2019-08-15,8.323378562927246,8.323378562927246,8.323378562927246,8.323378562927246,8.323378562927246,234
2019-08-16,8.323378562927246,8.323378562927246,8.323378562927246,8.323378562927246,8.323378562927246,0
2019-08-19,8.020478248596191,8.020478248596191,8.020478248596191,8.020478248596191,8.020478248596191,3516
2019-08-20,8.522184371948242,8.522184371948242,8.522184371948242,8.522184371948242,8.522184371948242,586
2019-08-21,8.071672439575195,8.071672439575195,8.071672439575195,8.071672439575195,8.071672439575195,234
2019-08-22,8.063139915466309,8.447098731994629,8.063139915466309,8.447098731994629,8.447098731994629,3399
2019-08-23,8.14846420288086,8.14846420288086,8.14846420288086,8.14846420288086,8.14846420288086,2578
2019-08-26,8.14846420288086,8.14846420288086,8.14846420288086,8.14846420288086,8.14846420288086,0
2019-08-27,8.417235374450684,8.417235374450684,8.417235374450684,8.417235374450684,8.417235374450684,586
2019-08-28,8.49146842956543,8.49146842956543,8.369454383850098,8.44880485534668,8.44880485534668,3516
2019-08-29,8.344710350036621,8.447098731994629,8.344710350036621,8.447098731994629,8.447098731994629,1992
2019-08-30,8.447098731994629,8.447098731994629,8.447098731994629,8.447098731994629,8.447098731994629,0
2019-09-03,8.495734214782715,8.53242301940918,8.489761352539062,8.53242301940918,8.53242301940918,7970
2019-09-04,8.52389144897461,8.53242301940918,8.52389144897461,8.53242301940918,8.53242301940918,1992
2019-09-05,8.447098731994629,9.172354698181152,8.19965934753418,9.044368743896484,9.044368743896484,136069
2019-09-06,8.788395881652832,9.052901268005371,8.788395881652832,9.044368743896484,9.044368743896484,13009
2019-09-09,9.034130096435547,9.078497886657715,8.959044456481934,9.078497886657715,9.078497886657715,12658
2019-09-10,9.053753852844238,9.095562934875488,9.053753852844238,9.095562934875488,9.095562934875488,4571
2019-09-11,9.063993453979492,9.095562934875488,9.044368743896484,9.09214973449707,9.09214973449707,4922
2019-09-12,9.195391654968262,9.219283103942871,9.099828720092773,9.099828720092773,9.099828720092773,13126
2019-09-13,9.172354698181152,9.578497886657715,9.168088912963867,9.411263465881348,9.411263465881348,17580
2019-09-16,9.353241920471191,9.411263465881348,9.155289649963379,9.189419746398926,9.189419746398926,2696
2019-09-17,9.30034065246582,9.360068321228027,9.146758079528809,9.308874130249023,9.308874130249023,14181
2019-09-18,9.31484603881836,9.360068321228027,9.23208236694336,9.343003273010254,9.343003273010254,6212
2019-09-19,9.385665893554688,9.505119323730469,9.385665893554688,9.44965934753418,9.44965934753418,5508
2019-09-20,9.424060821533203,9.556314468383789,9.343003273010254,9.556314468383789,9.556314468383789,9962
2019-09-23,9.556314468383789,9.556314468383789,9.556314468383789,9.556314468383789,9.556314468383789,117
2019-09-24,9.470990180969238,9.470990180969238,9.385665893554688,9.419795036315918,9.419795036315918,4219
2019-09-25,9.385665893554688,9.385665893554688,9.369454383850098,9.385665893554688,9.385665893554688,7970
2019-09-26,9.402729988098145,9.453925132751465,9.402729988098145,9.430887222290039,9.430887222290039,3516
2019-09-27,9.430887222290039,9.430887222290039,9.430887222290039,9.430887222290039,9.430887222290039,117
2019-09-30,9.35153579711914,9.36774730682373,9.35153579711914,9.36774730682373,9.36774730682373,3516
2019-10-01,9.36774730682373,9.36774730682373,9.36774730682373,9.36774730682373,9.36774730682373,0
2019-10-02,9.3728666305542,9.453925132751465,9.35153579711914,9.35153579711914,9.35153579711914,8321
2019-10-03,9.354948997497559,9.354948997497559,9.35153579711914,9.35153579711914,9.35153579711914,469
2019-10-04,9.343003273010254,9.343003273010254,9.343003273010254,9.343003273010254,9.343003273010254,586
2019-10-07,9.35153579711914,9.366893768310547,9.223548889160156,9.223548889160156,9.223548889160156,14767
2019-10-08,9.23208236694336,9.23208236694336,9.23208236694336,9.23208236694336,9.23208236694336,4102
2019-10-09,9.257678985595703,9.325084686279297,9.180887222290039,9.2064847946167,9.2064847946167,17228
2019-10-10,9.146758079528809,9.215017318725586,9.146758079528809,9.172354698181152,9.172354698181152,8087
2019-10-11,9.193685531616211,9.207338333129883,9.155289649963379,9.172354698181152,9.172354698181152,6212
2019-10-14,9.178327560424805,9.178327560424805,9.178327560424805,9.178327560424805,9.178327560424805,234
2019-10-15,9.178327560424805,9.178327560424805,9.178327560424805,9.178327560424805,9.178327560424805,0
2019-10-16,9.112627983093262,9.112627983093262,9.112627983093262,9.112627983093262,9.112627983093262,1172
2019-10-17,9.215017318725586,9.215017318725586,9.18515396118164,9.18515396118164,9.18515396118164,3868
2019-10-18,9.177474021911621,9.215017318725586,9.177474021911621,9.20136547088623,9.20136547088623,11486
2019-10-21,9.20136547088623,9.20136547088623,9.20136547088623,9.20136547088623,9.20136547088623,117
2019-10-22,9.20136547088623,9.20136547088623,9.20136547088623,9.20136547088623,9.20136547088623,0
2019-10-23,9.20136547088623,9.20136547088623,9.20136547088623,9.20136547088623,9.20136547088623,0
2019-10-24,9.20136547088623,9.20136547088623,9.20136547088623,9.20136547088623,9.20136547088623,0
2019-10-25,9.20136547088623,9.20136547088623,9.20136547088623,9.20136547088623,9.20136547088623,0
2019-10-28,9.303753852844238,9.343003273010254,9.129693031311035,9.305460929870605,9.305460929870605,9259
2019-10-29,9.146758079528809,9.146758079528809,9.146758079528809,9.146758079528809,9.146758079528809,117
2019-10-30,9.146758079528809,9.23208236694336,9.146758079528809,9.215017318725586,9.215017318725586,1875
2019-10-31,9.215017318725586,9.215017318725586,9.215017318725586,9.215017318725586,9.215017318725586,117
2019-11-01,9.215017318725586,9.253413200378418,9.172354698181152,9.172354698181152,9.172354698181152,8673
2019-11-04,9.180887222290039,9.283275604248047,9.180887222290039,9.283275604248047,9.283275604248047,9728
2019-11-05,9.25853157043457,9.25853157043457,9.25853157043457,9.25853157043457,9.25853157043457,1172
2019-11-06,9.257678985595703,9.30034065246582,9.257678985595703,9.29180908203125,9.29180908203125,3399
2019-11-07,9.32423210144043,9.3771333694458,9.30034065246582,9.3771333694458,9.3771333694458,7266
2019-11-08,9.30034065246582,9.30034065246582,9.281570434570312,9.281570434570312,9.281570434570312,4688
2019-11-11,9.296928405761719,9.303753852844238,9.255119323730469,9.30034065246582,9.30034065246582,8321
2019-11-12,9.30034065246582,9.30034065246582,9.30034065246582,9.30034065246582,9.30034065246582,117
2019-11-13,9.30034065246582,9.30034065246582,9.30034065246582,9.30034065246582,9.30034065246582,0
2019-11-14,9.283275604248047,9.343003273010254,9.283275604248047,9.338736534118652,9.338736534118652,11720
2019-11-15,9.334470748901367,9.462456703186035,9.30034065246582,9.436860084533691,9.436860084533691,8790
2019-11-18,9.462456703186035,9.533275604248047,9.445391654968262,9.464163780212402,9.464163780212402,6094
2019-11-19,9.470990180969238,9.505119323730469,9.445391654968262,9.505119323730469,9.505119323730469,3282
2019-11-20,9.556314468383789,9.556314468383789,9.462456703186035,9.462456703186035,9.462456703186035,3164
2019-11-21,9.470990180969238,9.470990180969238,9.462456703186035,9.462456703186035,9.462456703186035,4922
2019-11-22,9.445391654968262,9.50938606262207,9.445391654968262,9.50938606262207,9.50938606262207,7501
2019-11-25,9.465869903564453,9.513651847839355,9.465869903564453,9.513651847839355,9.513651847839355,4219
2019-11-26,9.492321014404297,9.505119323730469,9.488055229187012,9.488055229187012,9.488055229187012,2344
2019-11-27,9.489761352539062,9.568259239196777,9.484642028808594,9.568259239196777,9.568259239196777,30824
2019-11-29,9.56484603881836,9.56484603881836,9.534130096435547,9.56484603881836,9.56484603881836,2930
2019-12-02,9.573378562927246,9.597270011901855,9.573378562927246,9.588736534118652,9.588736534118652,5743
2019-12-03,9.556314468383789,9.556314468383789,9.470990180969238,9.470990180969238,9.470990180969238,8790
2019-12-04,9.556314468383789,9.581911087036133,9.556314468383789,9.56484603881836,9.56484603881836,22971
2019-12-05,9.581911087036133,9.633106231689453,9.581911087036133,9.607508659362793,9.607508659362793,4805
2019-12-06,9.607508659362793,9.641637802124023,9.607508659362793,9.633106231689453,9.633106231689453,17932
2019-12-09,9.667235374450684,9.820818901062012,9.667235374450684,9.746586799621582,9.746586799621582,30120
2019-12-10,9.837883949279785,10.011092185974121,9.829352378845215,9.846416473388672,9.846416473388672,23088
2019-12-11,9.846416473388672,9.888224601745605,9.846416473388672,9.854948997497559,9.854948997497559,21565
2019-12-12,9.854948997497559,9.854948997497559,9.769624710083008,9.769624710083008,9.769624710083008,19104
2019-12-13,9.752559661865234,9.778157234191895,9.752559661865234,9.778157234191895,9.778157234191895,1875
2019-12-16,9.786688804626465,9.829352378845215,9.778157234191895,9.812287330627441,9.812287330627441,11954
2019-12-17,9.812287330627441,9.837883949279785,9.812287330627441,9.837883949279785,9.837883949279785,5860
2019-12-18,9.812287330627441,9.829352378845215,9.812287330627441,9.829352378845215,9.829352378845215,2344
2019-12-19,9.83532428741455,9.880545616149902,9.820818901062012,9.820818901062012,9.820818901062012,8556
2019-12-20,9.86604118347168,9.974403381347656,9.854948997497559,9.974403381347656,9.974403381347656,11954
2019-12-23,9.974403381347656,9.974403381347656,9.880545616149902,9.944539070129395,9.944539070129395,938
2019-12-24,9.944539070129395,9.944539070129395,9.944539070129395,9.944539070129395,9.944539070129395,0
2019-12-26,9.880545616149902,9.931740760803223,9.880545616149902,9.931740760803223,9.931740760803223,469
2019-12-27,9.931740760803223,9.931740760803223,9.931740760803223,9.931740760803223,9.931740760803223,0
2019-12-30,9.889078140258789,9.94027328491211,9.889078140258789,9.931740760803223,9.931740760803223,21565
2019-12-31,9.923208236694336,9.982934951782227,9.854948997497559,9.854948997497559,9.854948997497559,16408
2020-01-02,9.89334487915039,9.89334487915039,9.837883949279785,9.853241920471191,9.853241920471191,2227
2020-01-03,9.837883949279785,9.953071594238281,9.744880676269531,9.820818901062012,9.820818901062012,31410
2020-01-06,9.889078140258789,9.965869903564453,9.889078140258789,9.965869903564453,9.965869903564453,19690
2020-01-07,9.965869903564453,9.965869903564453,9.965869903564453,9.965869903564453,9.965869903564453,0
2020-01-08,9.91467571258545,9.965869903564453,9.91467571258545,9.957338333129883,9.957338333129883,6212
2020-01-09,9.94027328491211,10.153583526611328,9.94027328491211,10.153583526611328,10.153583526611328,6329
2020-01-10,10.068259239196777,10.136519432067871,10.034130096435547,10.110921859741211,10.110921859741211,11368
2020-01-13,10.110921859741211,10.494880676269531,10.110921859741211,10.290102005004883,10.290102005004883,27776
2020-01-14,10.238907814025879,10.392491340637207,10.238907814025879,10.392491340637207,10.392491340637207,22034
2020-01-15,10.334470748901367,10.358362197875977,10.310580253601074,10.32423210144043,10.32423210144043,10079
2020-01-16,10.32423210144043,10.392491340637207,10.315699577331543,10.392491340637207,10.392491340637207,29534
2020-01-17,11.0,11.100000381469727,10.729999542236328,10.75,10.75,1322600
2020-01-21,10.920000076293945,10.920000076293945,10.609999656677246,10.65999984741211,10.65999984741211,119000
2020-01-22,10.65999984741211,10.710000038146973,10.65999984741211,10.680000305175781,10.680000305175781,50200
2020-01-23,10.675999641418457,10.779999732971191,10.675999641418457,10.699999809265137,10.699999809265137,98400
2020-01-24,10.699999809265137,10.717000007629395,10.649999618530273,10.699999809265137,10.699999809265137,103100
2020-01-27,10.65999984741211,10.699999809265137,10.5600004196167,10.640000343322754,10.640000343322754,100100
2020-01-28,10.699999809265137,10.800000190734863,10.699999809265137,10.774999618530273,10.774999618530273,157200
2020-01-29,10.800000190734863,10.829999923706055,10.729999542236328,10.770000457763672,10.770000457763672,91200
2020-01-30,10.760000228881836,10.795999526977539,10.729999542236328,10.789999961853027,10.789999961853027,39000
2020-01-31,10.770000457763672,10.770000457763672,10.699999809265137,10.699999809265137,10.699999809265137,74500
2020-02-03,10.699999809265137,10.710000038146973,10.680000305175781,10.680000305175781,10.680000305175781,29800
2020-02-04,10.680000305175781,10.739999771118164,10.680000305175781,10.739999771118164,10.739999771118164,15700
2020-02-05,10.75,10.765000343322754,10.720000267028809,10.75,10.75,3200
2020-02-06,10.760000228881836,10.760000228881836,10.699999809265137,10.720000267028809,10.720000267028809,8900
2020-02-07,10.710000038146973,10.739999771118164,10.6899995803833,10.699999809265137,10.699999809265137,14400
2020-02-10,10.6899995803833,10.710000038146973,10.6899995803833,10.704999923706055,10.704999923706055,25600
2020-02-11,10.699999809265137,10.699999809265137,10.649999618530273,10.680000305175781,10.680000305175781,9200
2020-02-12,10.649999618530273,10.696000099182129,10.609999656677246,10.649999618530273,10.649999618530273,17200
2020-02-13,10.649999618530273,10.710000038146973,10.649999618530273,10.680000305175781,10.680000305175781,41100
2020-02-14,10.649999618530273,10.710000038146973,10.649999618530273,10.65999984741211,10.65999984741211,33200
2020-02-18,10.65999984741211,10.699999809265137,10.649999618530273,10.65999984741211,10.65999984741211,17200
2020-02-19,10.670000076293945,10.680000305175781,10.609999656677246,10.670000076293945,10.670000076293945,12300
2020-02-20,10.626999855041504,10.654999732971191,10.619999885559082,10.640000343322754,10.640000343322754,4800
2020-02-21,10.645000457763672,10.645000457763672,10.609999656677246,10.630000114440918,10.630000114440918,13800
2020-02-24,10.550000190734863,10.550999641418457,10.5,10.539999961853027,10.539999961853027,22000
2020-02-25,10.579999923706055,10.579999923706055,10.5,10.5,10.5,10600
2020-02-26,10.550000190734863,10.550000190734863,10.4399995803833,10.460000038146973,10.460000038146973,40700
2020-02-27,10.420000076293945,10.420000076293945,10.399999618530273,10.40999984741211,10.40999984741211,19500
2020-02-28,10.350000381469727,10.390000343322754,10.25,10.25,10.25,25300
2020-03-02,10.303999900817871,10.303999900817871,10.130000114440918,10.170000076293945,10.170000076293945,47600
2020-03-03,10.204000473022461,10.25,10.050000190734863,10.0600004196167,10.0600004196167,21700
2020-03-04,10.190999984741211,10.239999771118164,10.178999900817871,10.239999771118164,10.239999771118164,6300
2020-03-05,10.133999824523926,10.270000457763672,10.133999824523926,10.229999542236328,10.229999542236328,4500
2020-03-06,10.130000114440918,10.1899995803833,10.020000457763672,10.039999961853027,10.039999961853027,15800
2020-03-09,9.569000244140625,9.770000457763672,9.149999618530273,9.149999618530273,9.149999618530273,18300
2020-03-10,9.109999656677246,9.90999984741211,9.109999656677246,9.229999542236328,9.229999542236328,8200
2020-03-11,9.050000190734863,9.149999618530273,8.880000114440918,8.970000267028809,8.970000267028809,21200
2020-03-12,8.3100004196167,8.625,8.3100004196167,8.4399995803833,8.4399995803833,10100
2020-03-13,8.380999565124512,8.5,8.270999908447266,8.5,8.5,15700
2020-03-16,8.5,8.789999961853027,8.1899995803833,8.199999809265137,8.199999809265137,20000
2020-03-17,8.467000007629395,8.467000007629395,8.342000007629395,8.359999656677246,8.359999656677246,3200
2020-03-18,8.600000381469727,8.600000381469727,7.829999923706055,7.829999923706055,7.829999923706055,6600
2020-03-19,8.0,8.079999923706055,7.820000171661377,7.900000095367432,7.900000095367432,11600
2020-03-20,7.940000057220459,7.949999809265137,7.896999835968018,7.940000057220459,7.940000057220459,10900
2020-03-23,6.75,7.309999942779541,6.736000061035156,7.309999942779541,7.309999942779541,16200
2020-03-24,7.410999774932861,7.883999824523926,7.409999847412109,7.820000171661377,7.820000171661377,5800
2020-03-25,7.171999931335449,8.300000190734863,7.171999931335449,7.570000171661377,7.570000171661377,37600
2020-03-26,7.199999809265137,8.40999984741211,7.176000118255615,8.34000015258789,8.34000015258789,5000
2020-03-27,7.53000020980835,8.34000015258789,7.53000020980835,8.263999938964844,8.263999938964844,3600
2020-03-30,7.860000133514404,7.89900016784668,7.849999904632568,7.888999938964844,7.888999938964844,1100
2020-03-31,7.888999938964844,7.888999938964844,7.888999938964844,7.888999938964844,7.888999938964844,0
2020-04-01,7.75,7.849999904632568,7.75,7.760000228881836,7.760000228881836,3600
2020-04-02,7.760000228881836,7.929999828338623,7.619999885559082,7.659999847412109,7.659999847412109,25100
2020-04-03,7.889999866485596,7.889999866485596,7.610000133514404,7.730000019073486,7.730000019073486,10500
2020-04-06,7.630000114440918,7.690000057220459,7.619999885559082,7.650000095367432,7.650000095367432,3400
2020-04-07,7.690000057220459,7.980000019073486,7.690000057220459,7.980000019073486,7.980000019073486,13100
2020-04-08,7.958000183105469,8.170000076293945,7.900000095367432,8.170000076293945,8.170000076293945,24300
2020-04-09,8.550000190734863,8.779999732971191,8.539999961853027,8.779999732971191,8.779999732971191,2600
2020-04-13,9.010000228881836,9.010000228881836,8.600000381469727,8.600000381469727,8.600000381469727,3800
2020-04-14,8.649999618530273,8.649999618530273,8.550000190734863,8.550000190734863,8.550000190734863,11600
2020-04-15,8.592000007629395,8.592000007629395,8.550000190734863,8.59000015258789,8.59000015258789,4800
2020-04-16,8.550000190734863,8.59000015258789,8.5,8.5,8.5,14700
2020-04-17,8.59000015258789,8.770000457763672,8.5,8.770000457763672,8.770000457763672,10800
2020-04-20,8.770000457763672,8.770000457763672,8.770000457763672,8.770000457763672,8.770000457763672,200
2020-04-21,8.5,8.5,8.350000381469727,8.399999618530273,8.399999618530273,3000
2020-04-22,8.411999702453613,8.411999702453613,8.411999702453613,8.411999702453613,8.411999702453613,1400
2020-04-23,8.489999771118164,8.609999656677246,8.399999618530273,8.399999618530273,8.399999618530273,2500
2020-04-24,8.399999618530273,8.399999618530273,8.399999618530273,8.399999618530273,8.399999618530273,400
2020-04-27,8.5,8.739999771118164,8.5,8.597000122070312,8.597000122070312,4400
2020-04-28,8.520000457763672,8.73900032043457,8.479999542236328,8.479999542236328,8.479999542236328,4200
2020-04-29,8.720000267028809,8.75,8.484999656677246,8.520000457763672,8.520000457763672,18400
2020-04-30,8.489999771118164,8.545000076293945,8.460000038146973,8.460000038146973,8.460000038146973,1100
2020-05-01,8.5,8.800000190734863,8.5,8.800000190734863,8.800000190734863,30000
2020-05-04,8.760000228881836,9.140000343322754,8.75,9.039999961853027,9.039999961853027,4700
2020-05-05,9.34000015258789,9.34000015258789,9.0,9.0,9.0,6100
2020-05-06,9.010000228881836,9.350000381469727,9.010000228881836,9.010000228881836,9.010000228881836,4800
2020-05-07,9.194999694824219,9.199999809265137,8.989999771118164,8.989999771118164,8.989999771118164,5300
2020-05-08,9.130000114440918,9.210000038146973,9.050000190734863,9.100000381469727,9.100000381469727,10200
2020-05-11,9.149999618530273,9.300000190734863,9.149999618530273,9.149999618530273,9.149999618530273,6100
2020-05-12,9.15999984741211,9.220999717712402,9.149999618530273,9.149999618530273,9.149999618530273,8900
2020-05-13,9.149999618530273,9.1899995803833,9.130000114440918,9.130000114440918,9.130000114440918,12600
2020-05-14,8.800000190734863,8.899999618530273,8.718999862670898,8.718999862670898,8.718999862670898,1500
2020-05-15,8.630000114440918,8.880000114440918,8.630000114440918,8.859999656677246,8.859999656677246,1000
2020-05-18,8.802000045776367,9.010000228881836,8.710000038146973,8.710000038146973,8.710000038146973,3600
2020-05-19,9.100000381469727,9.130000114440918,9.100000381469727,9.109999656677246,9.109999656677246,1800
2020-05-20,9.09000015258789,9.09000015258789,9.09000015258789,9.09000015258789,9.09000015258789,600
2020-05-21,9.050000190734863,9.100000381469727,9.050000190734863,9.050000190734863,9.050000190734863,5500
2020-05-22,9.100000381469727,9.100000381469727,9.0600004196167,9.100000381469727,9.100000381469727,1300
2020-05-26,9.100000381469727,9.100000381469727,9.100000381469727,9.100000381469727,9.100000381469727,2200
2020-05-27,9.199999809265137,9.199999809265137,9.100000381469727,9.100000381469727,9.100000381469727,37400
2020-05-28,9.100000381469727,9.100000381469727,9.100000381469727,9.100000381469727,9.100000381469727,300
2020-05-29,9.149999618530273,9.149999618530273,9.100000381469727,9.100000381469727,9.100000381469727,3900
2020-06-01,9.050000190734863,9.09000015258789,9.050000190734863,9.09000015258789,9.09000015258789,900
2020-06-02,9.09000015258789,9.09000015258789,9.09000015258789,9.09000015258789,9.09000015258789,1500
2020-06-03,9.119999885559082,9.119999885559082,9.050000190734863,9.109999656677246,9.109999656677246,3000
2020-06-04,9.199000358581543,9.199000358581543,9.050000190734863,9.1899995803833,9.1899995803833,500
2020-06-05,9.199999809265137,9.199999809265137,9.069999694824219,9.069999694824219,9.069999694824219,3900
2020-06-08,9.154999732971191,9.199999809265137,9.154999732971191,9.180000305175781,9.180000305175781,2400
2020-06-09,9.149999618530273,9.149999618530273,9.119999885559082,9.119999885559082,9.119999885559082,7700
2020-06-10,9.119999885559082,9.149999618530273,9.119999885559082,9.135000228881836,9.135000228881836,2400
2020-06-11,9.100000381469727,9.100000381469727,9.050000190734863,9.050000190734863,9.050000190734863,3700
2020-06-12,9.050000190734863,9.09000015258789,9.050000190734863,9.07800006866455,9.07800006866455,3700
2020-06-15,8.9399995803833,9.140000343322754,8.9399995803833,9.029999732971191,9.029999732971191,800
2020-06-16,8.829999923706055,9.126999855041504,8.829999923706055,9.126999855041504,9.126999855041504,700
2020-06-17,9.020000457763672,9.119999885559082,8.984999656677246,9.119999885559082,9.119999885559082,2800
2020-06-18,9.119999885559082,9.119999885559082,9.109999656677246,9.109999656677246,9.109999656677246,700
2020-06-19,9.119999885559082,9.119999885559082,9.07699966430664,9.119999885559082,9.119999885559082,1700
2020-06-22,9.100000381469727,9.100000381469727,9.050000190734863,9.100000381469727,9.100000381469727,7600
2020-06-23,9.100000381469727,9.100000381469727,9.100000381469727,9.100000381469727,9.100000381469727,6900
2020-06-24,9.100000381469727,9.100000381469727,9.100000381469727,9.100000381469727,9.100000381469727,0
2020-06-25,8.74899959564209,9.09000015258789,8.74899959564209,9.09000015258789,9.09000015258789,2400
2020-06-26,9.100000381469727,9.100000381469727,8.623000144958496,8.8100004196167,8.8100004196167,21100
2020-06-29,8.670000076293945,8.84000015258789,8.649999618530273,8.680000305175781,8.680000305175781,8200
2020-06-30,8.619999885559082,8.71500015258789,8.600000381469727,8.600000381469727,8.600000381469727,4200
2020-07-01,8.600000381469727,8.756999969482422,8.600000381469727,8.756999969482422,8.756999969482422,500
2020-07-02,8.756999969482422,8.756999969482422,8.756999969482422,8.756999969482422,8.756999969482422,0
2020-07-06,8.612000465393066,8.642999649047852,8.600000381469727,8.640000343322754,8.640000343322754,2700
2020-07-07,8.694999694824219,8.694999694824219,8.5,8.5,8.5,9100
2020-07-08,8.628999710083008,8.664999961853027,8.5,8.5,8.5,4000
2020-07-09,8.510000228881836,8.515000343322754,8.5,8.510000228881836,8.510000228881836,1700
2020-07-10,8.510000228881836,8.520000457763672,8.510000228881836,8.520000457763672,8.520000457763672,2600
2020-07-13,8.555000305175781,8.555000305175781,8.5,8.5,8.5,2800
2020-07-14,8.5600004196167,8.597000122070312,8.5600004196167,8.597000122070312,8.597000122070312,1000
2020-07-15,8.579000473022461,8.579000473022461,8.550000190734863,8.550000190734863,8.550000190734863,800
2020-07-16,8.520000457763672,8.59000015258789,8.520000457763672,8.59000015258789,8.59000015258789,2600
2020-07-17,8.59000015258789,8.59000015258789,8.59000015258789,8.59000015258789,8.59000015258789,0
2020-07-20,8.550000190734863,8.550000190734863,8.550000190734863,8.550000190734863,8.550000190734863,100
2020-07-21,8.574999809265137,8.574999809265137,8.550000190734863,8.567000389099121,8.567000389099121,2600
2020-07-22,8.550000190734863,8.550999641418457,8.539999961853027,8.550000190734863,8.550000190734863,17500
2020-07-23,8.572999954223633,8.572999954223633,8.550000190734863,8.571000099182129,8.571000099182129,1000
2020-07-24,8.571000099182129,8.571000099182129,8.571000099182129,8.571000099182129,8.571000099182129,0
2020-07-27,8.571000099182129,8.571000099182129,8.571000099182129,8.571000099182129,8.571000099182129,0
2020-07-28,8.609999656677246,8.609999656677246,8.550000190734863,8.593999862670898,8.593999862670898,1400
2020-07-29,8.550000190734863,8.569999694824219,8.5,8.569999694824219,8.569999694824219,10000
2020-07-30,8.550000190734863,8.579999923706055,8.550000190734863,8.579999923706055,8.579999923706055,4900
2020-07-31,8.569999694824219,8.609999656677246,8.5,8.5,8.5,11000
2020-08-03,8.52400016784668,8.616999626159668,8.5,8.616999626159668,8.616999626159668,3300
2020-08-04,8.5649995803833,8.5649995803833,8.5649995803833,8.5649995803833,8.5649995803833,300
2020-08-05,8.510000228881836,8.527000427246094,8.4399995803833,8.470000267028809,8.470000267028809,14600
2020-08-06,8.5,8.543000221252441,8.5,8.5,8.5,2800
2020-08-07,8.338000297546387,8.390000343322754,8.338000297546387,8.380000114440918,8.380000114440918,11100
2020-08-10,8.350000381469727,8.350000381469727,8.25,8.279999732971191,8.279999732971191,8300
2020-08-11,8.293999671936035,8.399999618530273,8.279999732971191,8.329999923706055,8.329999923706055,16700
2020-08-12,8.329999923706055,8.329999923706055,8.25,8.25,8.25,13400
2020-08-13,8.25,8.289999961853027,8.25,8.274999618530273,8.274999618530273,21600
2020-08-14,8.279999732971191,8.279999732971191,8.25,8.260000228881836,8.260000228881836,6800
2020-08-17,8.25,8.270000457763672,8.210000038146973,8.210000038146973,8.210000038146973,8100
2020-08-18,8.279999732971191,8.279999732971191,8.199999809265137,8.239999771118164,8.239999771118164,2800
2020-08-19,8.210000038146973,8.289999961853027,8.199999809265137,8.28499984741211,8.28499984741211,31800
2020-08-20,8.350000381469727,8.350000381469727,8.149999618530273,8.149999618530273,8.149999618530273,9700
2020-08-21,8.140000343322754,8.170000076293945,8.079999923706055,8.100000381469727,8.100000381469727,6800
2020-08-24,8.050000190734863,8.149999618530273,8.050000190734863,8.10099983215332,8.10099983215332,5700
2020-08-25,8.086000442504883,8.329999923706055,8.086000442504883,8.329999923706055,8.329999923706055,20300
2020-08-26,8.182000160217285,8.329999923706055,8.109999656677246,8.109999656677246,8.109999656677246,15400
2020-08-27,8.119999885559082,8.199999809265137,8.109999656677246,8.119999885559082,8.119999885559082,9900
2020-08-28,8.100000381469727,8.15999984741211,8.100000381469727,8.15999984741211,8.15999984741211,4400
2020-08-31,8.100000381469727,8.100000381469727,8.010000228881836,8.0600004196167,8.0600004196167,18100
2020-09-01,7.860000133514404,8.015000343322754,7.860000133514404,7.889999866485596,7.889999866485596,42300
2020-09-02,7.922999858856201,7.980000019073486,7.914000034332275,7.96999979019165,7.96999979019165,11200
2020-09-03,8.0,8.119999885559082,8.0,8.07800006866455,8.07800006866455,21600
2020-09-04,8.03499984741211,8.175000190734863,8.03499984741211,8.175000190734863,8.175000190734863,33300
2020-09-08,8.239999771118164,8.4399995803833,8.180000305175781,8.430000305175781,8.430000305175781,19400
2020-09-09,8.4399995803833,9.050000190734863,8.239999771118164,9.029999732971191,9.029999732971191,41900
2020-09-10,9.130000114440918,9.130000114440918,8.925999641418457,9.029999732971191,9.029999732971191,10400
2020-09-11,8.625,9.199999809265137,8.619999885559082,9.199999809265137,9.199999809265137,13300
2020-09-14,9.199999809265137,9.470000267028809,8.878000259399414,9.470000267028809,9.470000267028809,17300
2020-09-15,9.21500015258789,9.449999809265137,9.20300006866455,9.300000190734863,9.300000190734863,8600
2020-09-16,9.300000190734863,9.449999809265137,8.942000389099121,9.390000343322754,9.390000343322754,23200
2020-09-17,9.020000457763672,9.739999771118164,8.890000343322754,9.65999984741211,9.65999984741211,15000
2020-09-18,9.28499984741211,9.65999984741211,8.975000381469727,9.140000343322754,9.140000343322754,66700
2020-09-21,9.25,9.539999961853027,8.729999542236328,9.390000343322754,9.390000343322754,5600
2020-09-22,9.600000381469727,9.640000343322754,9.539999961853027,9.539999961853027,9.539999961853027,1500
2020-09-23,9.5600004196167,9.5600004196167,9.25,9.35200023651123,9.35200023651123,5400
2020-09-24,9.303999900817871,9.420000076293945,9.25,9.420000076293945,9.420000076293945,500
2020-09-25,9.270000457763672,9.359999656677246,9.25,9.25,9.25,5600
2020-09-28,9.446999549865723,9.579999923706055,9.40999984741211,9.569999694824219,9.569999694824219,4900
2020-09-29,9.5,9.5,9.220000267028809,9.220000267028809,9.220000267028809,8700
2020-09-30,9.45300006866455,9.489999771118164,9.359999656677246,9.359999656677246,9.359999656677246,1700
2020-10-01,9.395999908447266,9.5649995803833,9.350000381469727,9.350000381469727,9.350000381469727,1700
2020-10-02,9.5600004196167,9.5600004196167,9.5600004196167,9.5600004196167,9.5600004196167,300
2020-10-05,9.430000305175781,9.550000190734863,9.260000228881836,9.470000267028809,9.470000267028809,4800
2020-10-06,9.25,9.5,9.25,9.279999732971191,9.279999732971191,5200
2020-10-07,9.4399995803833,9.5,9.25,9.5,9.5,9400
2020-10-08,9.418999671936035,9.5,9.350000381469727,9.5,9.5,2600
2020-10-09,9.420000076293945,9.489999771118164,9.413999557495117,9.489999771118164,9.489999771118164,1000
2020-10-12,9.375,9.4399995803833,9.289999961853027,9.34000015258789,9.34000015258789,5500
2020-10-13,9.36400032043457,9.395000457763672,9.34000015258789,9.34000015258789,9.34000015258789,2400
2020-10-14,9.329999923706055,9.329999923706055,9.329999923706055,9.329999923706055,9.329999923706055,1000
2020-10-15,9.324999809265137,9.399999618530273,9.270000457763672,9.35200023651123,9.35200023651123,6600
2020-10-16,9.300000190734863,9.350000381469727,9.180000305175781,9.260000228881836,9.260000228881836,24100
2020-10-19,9.25,9.350000381469727,9.199999809265137,9.289999961853027,9.289999961853027,6800
2020-10-20,9.300000190734863,9.350000381469727,9.300000190734863,9.350000381469727,9.350000381469727,800
2020-10-21,9.25,9.27400016784668,9.15999984741211,9.15999984741211,9.15999984741211,3200
2020-10-22,9.079999923706055,9.350000381469727,8.8100004196167,9.069999694824219,9.069999694824219,11800
2020-10-23,9.069999694824219,9.069999694824219,9.069999694824219,9.069999694824219,9.069999694824219,100
2020-10-26,9.34000015258789,9.34000015258789,9.220000267028809,9.220000267028809,9.220000267028809,500
2020-10-27,9.220000267028809,9.25,9.079999923706055,9.154999732971191,9.154999732971191,7600
2020-10-28,9.220000267028809,9.239999771118164,9.220000267028809,9.239999771118164,9.239999771118164,500
2020-10-29,9.069999694824219,9.140000343322754,9.041999816894531,9.095000267028809,9.095000267028809,2100
2020-10-30,9.1899995803833,9.199999809265137,9.180000305175781,9.199999809265137,9.199999809265137,13000
2020-11-02,9.149999618530273,9.149999618530273,9.074999809265137,9.149999618530273,9.149999618530273,12400
2020-11-03,9.149999618530273,9.149999618530273,9.069999694824219,9.069999694824219,9.069999694824219,7600
2020-11-04,9.095000267028809,9.095000267028809,9.010000228881836,9.0600004196167,9.0600004196167,3100
2020-11-05,9.029999732971191,9.029999732971191,8.968999862670898,8.968999862670898,8.968999862670898,700
2020-11-06,9.131999969482422,9.25,9.0600004196167,9.25,9.25,6000
2020-11-09,9.25,9.510000228881836,9.210000038146973,9.510000228881836,9.510000228881836,39200
2020-11-10,9.5600004196167,9.579999923706055,9.510000228881836,9.550000190734863,9.550000190734863,7700
2020-11-11,9.529999732971191,9.600000381469727,9.520000457763672,9.520000457763672,9.520000457763672,5100
2020-11-12,9.527999877929688,9.600000381469727,9.510000228881836,9.532999992370605,9.532999992370605,1200
2020-11-13,9.600000381469727,9.600000381469727,9.529999732971191,9.600000381469727,9.600000381469727,3600
2020-11-16,9.600000381469727,9.600000381469727,9.579999923706055,9.579999923706055,9.579999923706055,18700
2020-11-17,9.600000381469727,9.600000381469727,9.510000228881836,9.510000228881836,9.510000228881836,9000
2020-11-18,9.550999641418457,9.600000381469727,9.520000457763672,9.600000381469727,9.600000381469727,3200
2020-11-19,9.600000381469727,10.038999557495117,9.555000305175781,10.03499984741211,10.03499984741211,7900
2020-11-20,10.062000274658203,10.109999656677246,9.569999694824219,9.569999694824219,9.569999694824219,9600
2020-11-23,10.199999809265137,10.220999717712402,9.75,9.75,9.75,4600
2020-11-24,10.149999618530273,10.149999618530273,10.0,10.069999694824219,10.069999694824219,10500
2020-11-25,10.069999694824219,10.069999694824219,10.069999694824219,10.069999694824219,10.069999694824219,100
2020-11-27,10.09000015258789,10.164999961853027,10.079999923706055,10.130000114440918,10.130000114440918,900
2020-11-30,10.149999618530273,10.149999618530273,9.979999542236328,9.989999771118164,9.989999771118164,4800
2020-12-01,10.0,10.017000198364258,9.845000267028809,9.880000114440918,9.880000114440918,8600
2020-12-02,9.937999725341797,9.937999725341797,9.880000114440918,9.90999984741211,9.90999984741211,1300
2020-12-03,9.829999923706055,10.010000228881836,9.829999923706055,10.010000228881836,10.010000228881836,6400
2020-12-04,10.069999694824219,10.069999694824219,9.859999656677246,9.946999549865723,9.946999549865723,9900
2020-12-07,9.949999809265137,9.949999809265137,9.949999809265137,9.949999809265137,9.949999809265137,700
2020-12-08,9.949999809265137,9.949999809265137,9.949999809265137,9.949999809265137,9.949999809265137,2000
2020-12-09,9.939000129699707,9.939000129699707,9.859999656677246,9.859999656677246,9.859999656677246,6100
2020-12-10,9.899999618530273,9.899999618530273,9.729999542236328,9.770000457763672,9.770000457763672,4200
2020-12-11,9.739999771118164,9.779999732971191,9.699999809265137,9.770000457763672,9.770000457763672,4800
2020-12-14,9.869999885559082,9.989999771118164,9.869999885559082,9.979999542236328,9.979999542236328,700
2020-12-15,9.968999862670898,9.979999542236328,9.732000350952148,9.979999542236328,9.979999542236328,2700
2020-12-16,9.91100025177002,10.0,9.91100025177002,9.920000076293945,9.920000076293945,1100
2020-12-17,9.979999542236328,10.0,9.944999694824219,9.989999771118164,9.989999771118164,2600
2020-12-18,9.989999771118164,10.0,9.770000457763672,9.770000457763672,9.770000457763672,12900
2020-12-21,9.789999961853027,9.895000457763672,9.789999961853027,9.821000099182129,9.821000099182129,900
2020-12-22,9.979999542236328,9.979999542236328,9.850000381469727,9.850000381469727,9.850000381469727,500
2020-12-23,9.970000267028809,9.970000267028809,9.829999923706055,9.829999923706055,9.829999923706055,500
2020-12-24,9.920000076293945,9.920000076293945,9.920000076293945,9.920000076293945,9.920000076293945,300
2020-12-28,9.920000076293945,10.0,9.920000076293945,9.960000038146973,9.960000038146973,3500
2020-12-29,9.979999542236328,10.0,9.970000267028809,10.0,10.0,2400
2020-12-30,9.960000038146973,10.039999961853027,9.960000038146973,10.010000228881836,10.010000228881836,2000
