Date,Open,High,Low,Close,Adj Close,Volume
2018-03-22,24.299999237060547,24.399999618530273,24.299999237060547,24.399999618530273,18.4010066986084,800
2018-03-23,24.399999618530273,24.399999618530273,24.148000717163086,24.200000762939453,18.250179290771484,3100
2018-03-26,24.399999618530273,24.399999618530273,24.399999618530273,24.399999618530273,18.4010066986084,2100
2018-03-27,24.3700008392334,24.506000518798828,24.360000610351562,24.503000259399414,18.478683471679688,2100
2018-03-28,24.715999603271484,24.715999603271484,24.584999084472656,24.600000381469727,18.551837921142578,9500
2018-03-29,24.600000381469727,24.60300064086914,24.600000381469727,24.60300064086914,18.55409812927246,1400
2018-04-02,24.600000381469727,24.600000381469727,24.5,24.5,18.476423263549805,1400
2018-04-03,24.599000930786133,24.599000930786133,24.350000381469727,24.350000381469727,18.363300323486328,2000
2018-04-04,24.35099983215332,24.44499969482422,24.35099983215332,24.44499969482422,18.434946060180664,1700
2018-04-05,24.405000686645508,24.5,24.399999618530273,24.481000900268555,18.462093353271484,4700
2018-04-06,24.520000457763672,24.520000457763672,24.5,24.5,18.476423263549805,2200
2018-04-09,24.549999237060547,24.549999237060547,24.527000427246094,24.527000427246094,18.496784210205078,500
2018-04-10,25.0,25.0,24.351999282836914,24.549999237060547,18.51412582397461,2500
2018-04-11,24.600000381469727,25.0,24.58099937438965,24.85300064086914,18.742633819580078,5100
2018-04-12,24.958999633789062,24.958999633789062,24.958999633789062,24.958999633789062,18.822572708129883,300
2018-04-13,25.0,25.0,25.0,25.0,18.85349464416504,800
2018-04-16,24.950000762939453,25.100000381469727,24.950000762939453,25.0,18.85349464416504,1700
2018-04-17,25.0,25.0,24.950000762939453,25.0,18.85349464416504,4700
2018-04-18,24.950000762939453,25.0,24.93000030517578,25.0,18.85349464416504,5800
2018-04-19,24.959999084472656,24.959999084472656,24.93000030517578,24.93000030517578,18.800703048706055,1000
2018-04-20,24.999000549316406,25.100000381469727,24.999000549316406,25.100000381469727,18.928905487060547,2600
2018-04-23,25.0,25.0,25.0,25.0,18.85349464416504,1700
2018-04-24,25.0,25.0,25.0,25.0,18.85349464416504,0
2018-04-25,25.0,25.0,25.0,25.0,18.85349464416504,0
2018-04-26,25.100000381469727,25.100000381469727,25.020000457763672,25.020000457763672,18.868572235107422,1400
2018-04-27,25.049999237060547,25.059999465942383,25.049999237060547,25.059999465942383,18.89874267578125,400
2018-04-30,24.506000518798828,24.506000518798828,24.506000518798828,24.506000518798828,18.480947494506836,200
2018-05-01,24.506000518798828,24.506000518798828,24.506000518798828,24.506000518798828,18.480947494506836,500
2018-05-02,28.0,28.0,25.43000030517578,25.43000030517578,19.17776870727539,1300
2018-05-03,25.700000762939453,26.0,25.5,25.5,19.230558395385742,4300
2018-05-04,25.5,25.5,25.5,25.5,19.230558395385742,0
2018-05-07,27.940000534057617,27.989999771118164,26.610000610351562,26.610000610351562,20.067655563354492,1300
2018-05-08,26.549999237060547,26.549999237060547,26.5,26.5,19.984697341918945,700
2018-05-09,26.030000686645508,26.14699935913086,25.75,25.950000762939453,19.56992530822754,900
2018-05-10,25.530000686645508,25.610000610351562,25.510000228881836,25.510000228881836,19.238100051879883,3200
2018-05-11,25.610000610351562,25.635000228881836,25.600000381469727,25.600000381469727,19.30597496032715,1400
2018-05-14,25.600000381469727,25.600000381469727,25.600000381469727,25.600000381469727,19.30597496032715,0
2018-05-15,25.690000534057617,25.700000762939453,25.530000686645508,25.530000686645508,19.253185272216797,2300
2018-05-16,25.600000381469727,25.600000381469727,25.5,25.5,19.230558395385742,2800
2018-05-17,25.59000015258789,25.600000381469727,25.56999969482422,25.56999969482422,19.28335189819336,1000
2018-05-18,25.5,25.549999237060547,25.5,25.549999237060547,19.268266677856445,900
2018-05-21,27.8799991607666,27.8799991607666,25.999000549316406,25.999000549316406,19.606876373291016,1300
2018-05-22,25.70199966430664,25.70199966430664,25.600000381469727,25.600000381469727,19.30597496032715,1400
2018-05-23,25.600000381469727,25.600000381469727,25.600000381469727,25.600000381469727,19.30597496032715,0
2018-05-24,25.700000762939453,26.253000259399414,25.5,25.799999237060547,19.45680809020996,7900
2018-05-25,25.799999237060547,25.834999084472656,25.540000915527344,25.834999084472656,19.483200073242188,2100
2018-05-29,26.09000015258789,26.09000015258789,25.75,25.75,19.419097900390625,500
2018-05-30,26.37299919128418,26.37299919128418,26.37299919128418,26.37299919128418,19.888925552368164,700
2018-05-31,25.600000381469727,25.702999114990234,25.600000381469727,25.702999114990234,19.82183074951172,3900
2018-06-01,25.702999114990234,25.702999114990234,25.702999114990234,25.702999114990234,19.82183074951172,0
2018-06-04,26.010000228881836,26.100000381469727,26.010000228881836,26.100000381469727,20.127994537353516,500
2018-06-05,26.100000381469727,26.100000381469727,26.100000381469727,26.100000381469727,20.127994537353516,0
2018-06-06,26.100000381469727,26.100000381469727,26.100000381469727,26.100000381469727,20.127994537353516,0
2018-06-07,26.0,26.0,25.961000442504883,25.969999313354492,20.02773666381836,3000
2018-06-08,26.0,26.0,26.0,26.0,20.050874710083008,2600
2018-06-11,26.0,26.0,25.549999237060547,25.549999237060547,19.703840255737305,2300
2018-06-12,25.92799949645996,25.92799949645996,25.92799949645996,25.92799949645996,19.99534797668457,100
2018-06-13,25.659000396728516,25.847000122070312,25.659000396728516,25.847000122070312,19.93288230895996,500
2018-06-14,25.649999618530273,25.649999618530273,25.549999237060547,25.549999237060547,19.703840255737305,1700
2018-06-15,25.549999237060547,25.549999237060547,25.549999237060547,25.549999237060547,19.703840255737305,0
2018-06-18,25.809999465942383,25.809999465942383,25.739999771118164,25.75,19.858078002929688,500
2018-06-19,25.670000076293945,25.67300033569336,25.5,25.61400032043457,19.75319480895996,1400
2018-06-20,25.61400032043457,25.61400032043457,25.61400032043457,25.61400032043457,19.75319480895996,0
2018-06-21,25.61400032043457,25.61400032043457,25.61400032043457,25.61400032043457,19.75319480895996,0
2018-06-22,25.61400032043457,25.61400032043457,25.61400032043457,25.61400032043457,19.75319480895996,0
2018-06-25,25.649999618530273,25.709999084472656,25.559999465942383,25.586000442504883,19.73160171508789,8700
2018-06-26,25.586000442504883,25.586000442504883,25.586000442504883,25.586000442504883,19.73160171508789,0
2018-06-27,25.950000762939453,25.950000762939453,25.600000381469727,25.950000762939453,20.01231575012207,1100
2018-06-28,25.59000015258789,25.59000015258789,25.59000015258789,25.59000015258789,19.734689712524414,400
2018-06-29,25.59000015258789,25.68000030517578,25.59000015258789,25.59000015258789,19.734689712524414,1300
2018-07-02,25.868999481201172,25.868999481201172,25.711999893188477,25.711999893188477,19.828767776489258,500
2018-07-03,25.889999389648438,25.899999618530273,25.6200008392334,25.6200008392334,19.75782585144043,9800
2018-07-05,25.709999084472656,25.709999084472656,25.709999084472656,25.709999084472656,19.827226638793945,400
2018-07-06,25.75,25.979999542236328,25.75,25.860000610351562,19.942907333374023,2900
2018-07-09,25.81800079345703,25.81800079345703,25.75,25.75,19.858078002929688,900
2018-07-10,25.75,25.75,25.75,25.75,19.858078002929688,500
2018-07-11,25.788000106811523,25.788000106811523,25.649999618530273,25.72599983215332,19.83956527709961,500
2018-07-12,25.711000442504883,25.75,25.68000030517578,25.75,19.858078002929688,5000
2018-07-13,25.670000076293945,25.701000213623047,25.65999984741211,25.700000762939453,19.819517135620117,1900
2018-07-16,25.700000762939453,25.75,25.5,25.5,19.665279388427734,4700
2018-07-17,25.709999084472656,25.729999542236328,25.709999084472656,25.729999542236328,19.842655181884766,1000
2018-07-18,25.75,25.940000534057617,25.75,25.91200065612793,19.98301124572754,2500
2018-07-19,25.940000534057617,25.940000534057617,25.100000381469727,25.100000381469727,19.35680389404297,6900
2018-07-20,25.399999618530273,25.450000762939453,25.399999618530273,25.440000534057617,19.619009017944336,2000
2018-07-23,25.399999618530273,25.399999618530273,25.350000381469727,25.350000381469727,19.549602508544922,400
2018-07-24,25.25,25.399999618530273,25.219999313354492,25.399999618530273,19.58816146850586,1200
2018-07-25,25.792999267578125,25.792999267578125,25.600000381469727,25.600000381469727,19.74239730834961,1600
2018-07-26,25.399999618530273,25.399999618530273,25.350000381469727,25.350000381469727,19.549602508544922,1500
2018-07-27,25.399999618530273,25.399999618530273,25.399999618530273,25.399999618530273,19.58816146850586,200
2018-07-30,25.399999618530273,25.399999618530273,25.399999618530273,25.399999618530273,19.58816146850586,0
2018-07-31,25.690000534057617,25.719999313354492,25.650999069213867,25.650999069213867,19.78173065185547,1300
2018-08-01,25.650999069213867,25.650999069213867,25.650999069213867,25.650999069213867,19.78173065185547,0
2018-08-02,25.650999069213867,25.650999069213867,25.650999069213867,25.650999069213867,19.78173065185547,0
2018-08-03,25.93000030517578,25.93000030517578,25.93000030517578,25.93000030517578,19.99689292907715,400
2018-08-06,25.899999618530273,25.90999984741211,25.82900047302246,25.90999984741211,19.98146629333496,2200
2018-08-07,25.90999984741211,25.90999984741211,25.90999984741211,25.90999984741211,19.98146629333496,200
2018-08-08,25.90999984741211,25.90999984741211,25.90999984741211,25.90999984741211,19.98146629333496,200
2018-08-09,25.93000030517578,25.940000534057617,25.93000030517578,25.940000534057617,20.00460433959961,1800
2018-08-10,25.940000534057617,25.940000534057617,25.940000534057617,25.940000534057617,20.00460433959961,0
2018-08-13,25.940000534057617,26.670000076293945,25.899999618530273,26.670000076293945,20.567569732666016,3800
2018-08-14,26.790000915527344,26.790000915527344,26.083999633789062,26.13800048828125,20.15729522705078,1400
2018-08-15,25.549999237060547,26.0,25.549999237060547,26.0,20.050874710083008,13800
2018-08-16,26.09600067138672,26.09600067138672,26.09600067138672,26.09600067138672,20.12490463256836,400
2018-08-17,26.149999618530273,26.149999618530273,26.149999618530273,26.149999618530273,20.166547775268555,300
2018-08-20,25.799999237060547,25.799999237060547,25.799999237060547,25.799999237060547,19.89664077758789,400
2018-08-21,25.850000381469727,25.899999618530273,25.799999237060547,25.81999969482422,19.912057876586914,3200
2018-08-22,25.790000915527344,26.0,25.774999618530273,26.0,20.050874710083008,2500
2018-08-23,26.489999771118164,26.489999771118164,25.6200008392334,25.75,19.858078002929688,4300
2018-08-24,25.75,25.75,25.75,25.75,19.858078002929688,0
2018-08-27,25.979999542236328,25.979999542236328,25.979999542236328,25.979999542236328,20.035449981689453,100
2018-08-28,25.969999313354492,26.09000015258789,25.850000381469727,26.09000015258789,20.120285034179688,6500
2018-08-29,26.5,26.5,25.93000030517578,25.93899917602539,20.00383186340332,8900
2018-08-30,26.0,26.0,25.440000534057617,25.440000534057617,20.004619598388672,1900
2018-08-31,25.59000015258789,25.59000015258789,25.5,25.5,20.051799774169922,700
2018-09-04,25.643999099731445,25.643999099731445,25.579999923706055,25.579999923706055,20.114707946777344,4100
2018-09-05,25.600000381469727,25.600000381469727,25.600000381469727,25.600000381469727,20.13043212890625,200
2018-09-06,25.600000381469727,25.735000610351562,25.520000457763672,25.59000015258789,20.122570037841797,1900
2018-09-07,25.59000015258789,25.59000015258789,25.59000015258789,25.59000015258789,20.122570037841797,0
2018-09-10,25.5,25.579999923706055,25.5,25.579999923706055,20.114707946777344,4100
2018-09-11,25.523000717163086,25.549999237060547,25.450000762939453,25.450000762939453,20.012483596801758,3000
2018-09-12,25.450000762939453,25.450000762939453,25.402999877929688,25.450000762939453,20.012483596801758,3100
2018-09-13,25.40999984741211,25.597999572753906,25.350000381469727,25.350000381469727,19.933847427368164,1700
2018-09-14,25.350000381469727,25.399999618530273,25.350000381469727,25.399999618530273,19.973167419433594,800
2018-09-17,25.309999465942383,25.309999465942383,25.309999465942383,25.309999465942383,19.902395248413086,800
2018-09-18,25.398000717163086,25.402999877929688,25.3799991607666,25.402999877929688,19.975522994995117,600
2018-09-19,25.399999618530273,25.399999618530273,25.059999465942383,25.059999465942383,19.705806732177734,3400
2018-09-20,25.280000686645508,25.280000686645508,25.280000686645508,25.280000686645508,19.878803253173828,600
2018-09-21,25.246000289916992,25.246000289916992,25.15999984741211,25.15999984741211,19.784440994262695,1400
2018-09-24,25.15999984741211,25.15999984741211,25.15999984741211,25.15999984741211,19.784440994262695,0
2018-09-25,25.170000076293945,25.173999786376953,25.149999618530273,25.149999618530273,19.776578903198242,1000
2018-09-26,25.25,25.25,25.082000732421875,25.082000732421875,19.72311019897461,2600
2018-09-27,25.1200008392334,25.139999389648438,25.1200008392334,25.139999389648438,19.76871681213379,300
2018-09-28,25.149999618530273,25.149999618530273,25.142000198364258,25.142000198364258,19.770288467407227,1000
2018-10-01,25.19300079345703,25.19300079345703,25.1299991607666,25.1299991607666,19.76085090637207,800
2018-10-02,25.1299991607666,25.1299991607666,25.06999969482422,25.06999969482422,19.71367073059082,1300
2018-10-03,25.099000930786133,25.099000930786133,25.084999084472656,25.084999084472656,19.725465774536133,1100
2018-10-04,25.084999084472656,25.160999298095703,25.049999237060547,25.160999298095703,19.785232543945312,3300
2018-10-05,25.160999298095703,25.160999298095703,25.160999298095703,25.160999298095703,19.785232543945312,0
2018-10-08,25.1299991607666,25.1299991607666,25.1200008392334,25.1200008392334,19.752988815307617,300
2018-10-09,25.040000915527344,25.040000915527344,23.260000228881836,24.829999923706055,19.52495002746582,4600
2018-10-10,24.889999389648438,24.989999771118164,24.510000228881836,24.777000427246094,19.483272552490234,1100
2018-10-11,24.950000762939453,24.950000762939453,24.950000762939453,24.950000762939453,19.619312286376953,200
2018-10-12,24.5,24.656999588012695,24.5,24.649999618530273,19.38340950012207,1100
2018-10-15,24.72800064086914,24.72800064086914,24.72800064086914,24.72800064086914,19.44474220275879,300
2018-10-16,24.719999313354492,24.719999313354492,24.719999313354492,24.719999313354492,19.43844985961914,700
2018-10-17,24.54400062561035,25.040000915527344,24.5,25.0,19.658626556396484,6500
2018-10-18,24.81999969482422,24.81999969482422,24.81999969482422,24.81999969482422,19.517086029052734,100
2018-10-19,24.950000762939453,24.950000762939453,24.5,24.950000762939453,19.619312286376953,1100
2018-10-22,24.950000762939453,24.950000762939453,24.950000762939453,24.950000762939453,19.619312286376953,700
2018-10-23,24.950000762939453,24.950000762939453,24.950000762939453,24.950000762939453,19.619312286376953,1100
2018-10-24,24.950000762939453,24.950000762939453,24.950000762939453,24.950000762939453,19.619312286376953,200
2018-10-25,25.0,25.100000381469727,25.0,25.100000381469727,19.737258911132812,1300
2018-10-26,25.049999237060547,25.049999237060547,24.711000442504883,24.889999389648438,19.57213020324707,2700
2018-10-29,24.97599983215332,24.97599983215332,24.8439998626709,24.8439998626709,19.53595542907715,1300
2018-10-30,24.729999542236328,24.979999542236328,24.139999389648438,24.899999618530273,19.579992294311523,5300
2018-10-31,24.149999618530273,24.899999618530273,24.149999618530273,24.8700008392334,19.5564022064209,2500
2018-11-01,24.8799991607666,24.8799991607666,24.759000778198242,24.759000778198242,19.4691162109375,400
2018-11-02,24.209999084472656,24.889999389648438,24.209999084472656,24.889999389648438,19.57213020324707,3100
2018-11-05,24.8799991607666,24.8799991607666,24.8799991607666,24.8799991607666,19.564266204833984,400
2018-11-06,24.945999145507812,24.950000762939453,24.5,24.5,19.265453338623047,2500
2018-11-07,24.510000228881836,24.510000228881836,24.510000228881836,24.510000228881836,19.273319244384766,600
2018-11-08,24.829999923706055,24.829999923706055,24.5,24.826000213623047,19.521804809570312,900
2018-11-09,24.549999237060547,24.549999237060547,24.5,24.5,19.265453338623047,200
2018-11-12,24.81999969482422,24.899999618530273,24.770000457763672,24.899999618530273,19.579992294311523,6100
2018-11-13,25.100000381469727,25.100000381469727,25.097000122070312,25.100000381469727,19.737258911132812,1700
2018-11-14,25.100000381469727,25.100000381469727,25.100000381469727,25.100000381469727,19.737258911132812,100
2018-11-15,25.0,25.0,25.0,25.0,19.658626556396484,300
2018-11-16,25.100000381469727,25.100000381469727,24.549999237060547,24.549999237060547,19.30476951599121,800
2018-11-19,24.579999923706055,25.0,24.579999923706055,24.8700008392334,19.5564022064209,800
2018-11-20,25.600000381469727,25.600000381469727,25.59000015258789,25.59000015258789,20.122570037841797,500
2018-11-21,25.42799949645996,25.549999237060547,24.5310001373291,25.239999771118164,19.84734535217285,3000
2018-11-23,25.149999618530273,25.190000534057617,25.149999618530273,25.190000534057617,19.80803108215332,200
2018-11-26,24.950000762939453,25.586000442504883,24.950000762939453,25.586000442504883,20.11942481994629,800
2018-11-27,24.95400047302246,24.95400047302246,24.950000762939453,24.950000762939453,19.619312286376953,300
2018-11-28,25.583999633789062,25.583999633789062,24.73699951171875,25.466999053955078,20.025848388671875,2000
2018-11-29,25.0,25.0,25.0,25.0,20.052322387695312,300
2018-11-30,24.726999282836914,24.78700065612793,24.5,24.55500030517578,19.69538688659668,1100
2018-12-03,24.534000396728516,24.534000396728516,24.534000396728516,24.534000396728516,19.678544998168945,1100
2018-12-04,24.530000686645508,24.530000686645508,24.100000381469727,24.200000762939453,19.41064453125,6100
2018-12-06,23.892000198364258,23.892000198364258,23.559999465942383,23.559999465942383,18.897306442260742,500
2018-12-07,25.59000015258789,25.59000015258789,23.996999740600586,23.996999740600586,19.247817993164062,700
2018-12-10,23.799999237060547,23.799999237060547,23.700000762939453,23.75,19.04970359802246,3800
2018-12-11,24.250999450683594,24.299999237060547,24.250999450683594,24.299999237060547,19.490854263305664,900
2018-12-12,24.299999237060547,24.299999237060547,24.299999237060547,24.299999237060547,19.490854263305664,0
2018-12-13,23.670000076293945,23.670000076293945,22.549999237060547,22.549999237060547,18.087190628051758,3800
2018-12-14,23.600000381469727,23.600000381469727,23.600000381469727,23.600000381469727,18.92938995361328,300
2018-12-17,23.66900062561035,23.66900062561035,23.600000381469727,23.613000869750977,18.939817428588867,500
2018-12-18,23.613000869750977,23.613000869750977,23.613000869750977,23.613000869750977,18.939817428588867,0
2018-12-19,21.639999389648438,21.89699935913086,21.049999237060547,21.768999099731445,17.46075439453125,4500
2018-12-20,21.299999237060547,21.299999237060547,18.649999618530273,19.649999618530273,15.761122703552246,5800
2018-12-21,18.670000076293945,18.670000076293945,16.149999618530273,16.700000762939453,13.394949913024902,20000
2018-12-24,16.149999618530273,17.3700008392334,16.149999618530273,17.084999084472656,13.703754425048828,900
2018-12-26,17.5,17.709999084472656,17.5,17.65999984741211,14.164956092834473,2100
2018-12-27,17.690000534057617,18.5,17.582000732421875,17.91900062561035,14.372700691223145,12800
2018-12-28,18.209999084472656,18.75,18.209999084472656,18.700000762939453,14.999133110046387,14300
2018-12-31,19.010000228881836,19.274999618530273,19.0,19.274999618530273,15.460335731506348,3100
2019-01-02,19.274999618530273,19.274999618530273,19.274999618530273,19.274999618530273,15.460335731506348,200
2019-01-03,19.5,19.690000534057617,19.229999542236328,19.472000122070312,15.618351936340332,2800
2019-01-04,19.979999542236328,20.0,18.75,19.75,15.841329574584961,12700
2019-01-07,19.489999771118164,20.239999771118164,19.010000228881836,20.239999771118164,16.234355926513672,4200
2019-01-08,19.549999237060547,19.549999237060547,19.549999237060547,19.549999237060547,15.680913925170898,400
2019-01-09,19.503000259399414,19.75,19.503000259399414,19.75,15.841329574584961,1200
2019-01-10,19.55299949645996,20.190000534057617,19.549999237060547,20.1299991607666,16.14612579345703,2200
2019-01-11,19.200000762939453,19.309999465942383,19.200000762939453,19.239999771118164,15.43226432800293,900
2019-01-14,20.0,20.0,19.940000534057617,19.940000534057617,15.993729591369629,700
2019-01-15,19.940000534057617,19.940000534057617,19.940000534057617,19.940000534057617,15.993729591369629,200
2019-01-16,19.920000076293945,20.579999923706055,19.920000076293945,20.579999923706055,16.507070541381836,1600
2019-01-17,20.062999725341797,21.43000030517578,20.062999725341797,20.700000762939453,16.603321075439453,2900
2019-01-18,21.0,21.989999771118164,21.0,21.93400001525879,17.593101501464844,1000
2019-01-22,21.889999389648438,22.389999389648438,21.399999618530273,21.989999771118164,17.638019561767578,5400
2019-01-23,21.90999984741211,22.0,21.899999618530273,22.0,17.646039962768555,1100
2019-01-24,22.0,22.0,22.0,22.0,17.646039962768555,0
2019-01-25,22.110000610351562,22.25,22.110000610351562,22.25,17.8465633392334,500
2019-01-28,22.066999435424805,22.066999435424805,22.0,22.0,17.646039962768555,1100
2019-01-29,22.25,22.389999389648438,22.051000595092773,22.051000595092773,17.686948776245117,1500
2019-01-30,22.100000381469727,22.420000076293945,22.0,22.420000076293945,17.98291778564453,2100
2019-01-31,22.420000076293945,22.420000076293945,22.420000076293945,22.420000076293945,17.98291778564453,100
2019-02-01,22.440000534057617,22.440000534057617,22.440000534057617,22.440000534057617,17.998960494995117,700
2019-02-04,22.420000076293945,22.420000076293945,21.658000946044922,21.658000946044922,17.37172508239746,700
2019-02-05,21.610000610351562,21.610000610351562,21.610000610351562,21.610000610351562,17.333227157592773,100
2019-02-06,21.610000610351562,21.610000610351562,21.610000610351562,21.610000610351562,17.333227157592773,100
2019-02-07,22.030000686645508,22.030000686645508,22.030000686645508,22.030000686645508,17.67010498046875,300
2019-02-08,23.440000534057617,23.440000534057617,23.194000244140625,23.194000244140625,18.603736877441406,700
2019-02-11,23.34000015258789,23.34000015258789,23.299999237060547,23.34000015258789,18.720848083496094,2000
2019-02-12,23.290000915527344,23.290000915527344,23.290000915527344,23.290000915527344,18.680744171142578,100
2019-02-13,23.0,23.0,23.0,23.0,18.448129653930664,100
2019-02-14,23.0,23.0,23.0,23.0,18.448129653930664,100
2019-02-15,22.860000610351562,23.31999969482422,22.649999618530273,22.649999618530273,18.167400360107422,1900
2019-02-19,22.76300048828125,24.06100082397461,22.649999618530273,22.649999618530273,18.167400360107422,2700
2019-02-20,23.416000366210938,23.958999633789062,22.649999618530273,23.85700035095215,19.135526657104492,4500
2019-02-21,23.969999313354492,23.969999313354492,23.349000930786133,23.349000930786133,18.728063583374023,500
2019-02-22,23.100000381469727,23.479999542236328,22.986000061035156,23.479999542236328,18.8331356048584,1100
2019-02-25,23.399999618530273,23.479999542236328,23.399999618530273,23.479999542236328,18.8331356048584,2600
2019-02-26,23.479999542236328,24.739999771118164,23.128000259399414,24.700000762939453,19.811695098876953,21700
2019-02-27,24.700000762939453,24.700000762939453,24.299999237060547,24.299999237060547,19.490854263305664,6000
2019-02-28,23.216999053955078,24.08799934387207,22.510000228881836,24.086999893188477,19.725889205932617,600
2019-03-01,23.905000686645508,24.219999313354492,23.559999465942383,24.200000762939453,19.81843376159668,3200
2019-03-04,24.360000610351562,24.489999771118164,24.100000381469727,24.489999771118164,20.055919647216797,2700
2019-03-05,24.100000381469727,24.29400062561035,23.0,24.29400062561035,19.895410537719727,3500
2019-03-06,24.382999420166016,24.382999420166016,22.492000579833984,23.479999542236328,19.228790283203125,3600
2019-03-07,23.280000686645508,23.280000686645508,22.510000228881836,22.989999771118164,18.82750701904297,3300
2019-03-08,22.989999771118164,22.989999771118164,22.479999542236328,22.899999618530273,18.753807067871094,2400
2019-03-11,22.899999618530273,22.899999618530273,22.899999618530273,22.899999618530273,18.753807067871094,100
2019-03-12,22.540000915527344,22.649999618530273,22.540000915527344,22.600000381469727,18.50812339782715,2100
2019-03-13,22.600000381469727,22.600000381469727,22.600000381469727,22.600000381469727,18.50812339782715,100
2019-03-14,22.729999542236328,23.440000534057617,22.649999618530273,23.25,19.040433883666992,2400
2019-03-15,23.25,23.25,23.017000198364258,23.034000396728516,18.86354637145996,1000
2019-03-18,23.0,23.562999725341797,22.864999771118164,23.299999237060547,19.08138084411621,2300
2019-03-19,23.552000045776367,23.552000045776367,23.29800033569336,23.29800033569336,19.079744338989258,1300
2019-03-20,23.59000015258789,23.59000015258789,23.506000518798828,23.506000518798828,19.250083923339844,900
2019-03-21,23.25,23.59000015258789,23.25,23.354000091552734,19.12560272216797,2700
2019-03-22,23.59000015258789,23.59000015258789,23.25,23.25,19.040433883666992,7300
2019-03-25,23.299999237060547,24.0,23.25,23.350000381469727,19.122331619262695,11600
2019-03-26,23.0,23.25,23.0,23.25,19.040433883666992,3000
2019-03-27,23.25,23.25,23.25,23.25,19.040433883666992,100
2019-03-28,23.25,23.361000061035156,23.25,23.253999710083008,19.0437068939209,500
2019-03-29,23.5,24.0,23.5,23.985000610351562,19.64236068725586,2200
2019-04-01,24.059999465942383,24.5,23.5,24.5,20.06411361694336,8700
2019-04-02,24.3799991607666,24.5,24.3799991607666,24.5,20.06411361694336,3500
2019-04-03,24.5,24.5,24.18000030517578,24.5,20.06411361694336,4100
2019-04-04,24.5,24.5,24.420000076293945,24.489999771118164,20.055919647216797,6500
2019-04-05,24.5,24.5,24.165000915527344,24.389999389648438,19.974027633666992,9300
2019-04-08,24.5,25.135000228881836,24.3799991607666,25.025999069213867,20.494876861572266,16500
2019-04-09,24.5,24.5,24.5,24.5,20.06411361694336,1000
2019-04-10,24.899999618530273,24.899999618530273,24.899999618530273,24.899999618530273,20.391695022583008,3400
2019-04-11,24.899999618530273,24.899999618530273,23.899999618530273,24.0,19.654644012451172,6600
2019-04-12,24.459999084472656,24.621000289916992,24.459999084472656,24.549999237060547,20.10506248474121,3000
2019-04-15,24.850000381469727,24.950000762939453,24.850000381469727,24.950000762939453,20.432640075683594,2900
2019-04-16,24.950000762939453,25.0,24.75,24.790000915527344,20.30160903930664,5100
2019-04-17,24.875999450683594,25.0,24.790000915527344,24.790000915527344,20.30160903930664,1000
2019-04-18,24.715999603271484,24.790000915527344,24.66699981689453,24.76300048828125,20.279497146606445,1800
2019-04-22,24.729000091552734,25.0,24.729000091552734,24.96299934387207,20.443283081054688,5200
2019-04-23,24.632999420166016,25.145000457763672,24.632999420166016,24.920000076293945,20.408069610595703,2700
2019-04-24,24.67300033569336,25.049999237060547,24.67300033569336,25.049999237060547,20.5145320892334,1500
2019-04-25,24.895999908447266,25.29599952697754,24.895999908447266,24.950000762939453,20.432640075683594,5200
2019-04-26,24.986000061035156,25.29199981689453,24.899999618530273,24.899999618530273,20.391695022583008,4600
2019-04-29,25.049999237060547,25.25,24.87700080871582,24.910999298095703,20.400697708129883,7500
2019-04-30,24.899999618530273,24.899999618530273,24.610000610351562,24.75,20.26885223388672,6400
2019-05-01,24.674999237060547,24.899999618530273,24.674999237060547,24.899999618530273,20.391695022583008,2000
2019-05-02,24.899999618530273,24.899999618530273,24.679000854492188,24.895000457763672,20.387598037719727,3600
2019-05-03,24.899999618530273,25.700000762939453,24.899999618530273,25.5,20.883058547973633,5600
2019-05-06,25.399999618530273,25.466999053955078,25.0,25.399999618530273,20.801164627075195,7300
2019-05-07,25.235000610351562,25.41200065612793,24.969999313354492,25.09000015258789,20.547286987304688,7400
2019-05-08,24.92799949645996,25.700000762939453,24.62299919128418,25.420000076293945,20.817543029785156,5000
2019-05-09,25.200000762939453,25.263999938964844,25.055999755859375,25.263999938964844,20.689786911010742,800
2019-05-10,25.01799964904785,25.43199920654297,25.01799964904785,25.334999084472656,20.74793243408203,4400
2019-05-13,25.2549991607666,25.35099983215332,25.2549991607666,25.31100082397461,20.728281021118164,3100
2019-05-14,25.43600082397461,25.43600082397461,25.31999969482422,25.31999969482422,20.735647201538086,2700
2019-05-15,25.266000747680664,25.358999252319336,25.266000747680664,25.31999969482422,20.735647201538086,1600
2019-05-16,25.25,25.25,25.173999786376953,25.173999786376953,20.61608123779297,1800
2019-05-17,25.299999237060547,25.31999969482422,25.270999908447266,25.299999237060547,20.719266891479492,2800
2019-05-20,25.299999237060547,25.299999237060547,25.299999237060547,25.299999237060547,20.719266891479492,900
2019-05-21,25.242000579833984,25.2450008392334,24.510000228881836,25.0,20.473590850830078,7700
2019-05-22,25.0,25.450000762939453,25.0,25.450000762939453,20.84210968017578,700
2019-05-23,25.25,25.25,25.25,25.25,20.678325653076172,300
2019-05-24,25.25,25.25,25.229999542236328,25.25,20.678325653076172,2200
2019-05-28,25.5,25.700000762939453,25.020000457763672,25.700000762939453,21.04684829711914,4700
2019-05-29,25.010000228881836,25.5,25.010000228881836,25.5,20.883058547973633,1400
2019-05-30,25.25,25.25,25.170000076293945,25.25,21.091888427734375,1700
2019-05-31,25.75,25.75,25.00200080871582,25.25,21.091888427734375,2600
2019-06-03,25.0,25.135000228881836,24.634000778198242,25.135000228881836,20.99582290649414,1500
2019-06-04,25.1299991607666,25.1299991607666,25.0,25.0,20.883060455322266,5800
2019-06-05,25.75,25.75,25.75,25.75,21.509550094604492,600
2019-06-06,24.850000381469727,24.850000381469727,24.850000381469727,24.850000381469727,20.75775909423828,1100
2019-06-07,25.0,25.0,25.0,25.0,20.883060455322266,200
2019-06-10,25.0,25.0,24.64699935913086,24.840999603271484,20.750242233276367,1300
2019-06-11,25.0,25.0,24.951000213623047,24.951000213623047,20.842126846313477,1800
2019-06-12,24.979999542236328,25.0,24.965999603271484,24.969999313354492,20.85799789428711,1500
2019-06-13,24.950000762939453,24.965999603271484,24.510000228881836,24.760000228881836,20.682580947875977,6000
2019-06-14,24.93400001525879,24.950000762939453,24.510000228881836,24.510000228881836,20.473751068115234,3000
2019-06-17,25.31999969482422,25.31999969482422,24.996000289916992,24.996000289916992,20.879718780517578,1000
2019-06-18,25.100000381469727,25.100000381469727,25.100000381469727,25.100000381469727,20.966590881347656,900
2019-06-19,25.0,25.0,24.965999603271484,25.0,20.883060455322266,1400
2019-06-20,25.018999099731445,25.018999099731445,24.700000762939453,24.719999313354492,20.649168014526367,3600
2019-06-21,24.760000228881836,24.905000686645508,24.760000228881836,24.770000457763672,20.690935134887695,400
2019-06-24,24.884000778198242,24.884000778198242,24.75,24.791000366210938,20.70847511291504,3800
2019-06-25,24.799999237060547,24.9060001373291,24.75,24.75,20.674226760864258,2200
2019-06-26,24.812000274658203,24.812000274658203,24.75,24.750999450683594,20.675064086914062,8000
2019-06-27,24.989999771118164,24.989999771118164,24.75,24.886999130249023,20.788663864135742,1700
2019-06-28,24.75200080871582,24.75200080871582,24.649999618530273,24.649999618530273,20.5906925201416,7800
2019-07-01,24.836000442504883,24.93400001525879,24.65999984741211,24.65999984741211,20.59904670715332,2100
2019-07-02,24.65999984741211,24.889999389648438,24.65999984741211,24.889999389648438,20.79117202758789,3000
2019-07-03,24.780000686645508,24.795000076293945,24.673999786376953,24.795000076293945,20.711814880371094,1200
2019-07-05,24.889999389648438,24.990999221801758,24.799999237060547,24.990999221801758,20.875537872314453,1000
2019-07-08,25.049999237060547,25.100000381469727,25.03499984741211,25.100000381469727,20.966590881347656,1800
2019-07-09,25.100000381469727,25.100000381469727,25.100000381469727,25.100000381469727,20.966590881347656,0
2019-07-10,25.104000091552734,25.200000762939453,25.038000106811523,25.100000381469727,20.966590881347656,7600
2019-07-11,25.200000762939453,25.739999771118164,25.167999267578125,25.25,21.091888427734375,3100
2019-07-12,25.25,25.25,25.25,25.25,21.091888427734375,200
2019-07-15,25.125,25.125,25.125,25.125,20.987476348876953,500
2019-07-16,25.239999771118164,25.36199951171875,25.170000076293945,25.36199951171875,21.185443878173828,1100
2019-07-17,25.34000015258789,25.34000015258789,24.854999542236328,25.0,20.883060455322266,12800
2019-07-18,25.190000534057617,25.270000457763672,25.10099983215332,25.200000762939453,21.050121307373047,4900
2019-07-19,25.190000534057617,25.283000946044922,25.18400001525879,25.209999084472656,21.058473587036133,1300
2019-07-22,25.152000427246094,25.326000213623047,25.152000427246094,25.326000213623047,21.155370712280273,1800
2019-07-23,25.309999465942383,25.5,25.25,25.5,21.300718307495117,4600
2019-07-24,25.110000610351562,25.378999710083008,25.110000610351562,25.305999755859375,21.13866424560547,2000
2019-07-25,25.174999237060547,25.5,25.174999237060547,25.302000045776367,21.135324478149414,7900
2019-07-26,25.309999465942383,25.690000534057617,25.204999923706055,25.5,21.300718307495117,11000
2019-07-29,26.0,26.0,25.336000442504883,25.600000381469727,21.384252548217773,5500
2019-07-30,25.690000534057617,25.698999404907227,25.687999725341797,25.690000534057617,21.45943260192871,1000
2019-07-31,25.899999618530273,25.899999618530273,25.57900047302246,25.57900047302246,21.36670684814453,12400
2019-08-01,25.770000457763672,25.899999618530273,25.600000381469727,25.899999618530273,21.634845733642578,1700
2019-08-02,25.770000457763672,25.899999618530273,25.600000381469727,25.899999618530273,21.634845733642578,1700
2019-08-05,25.739999771118164,25.739999771118164,25.665000915527344,25.73900032043457,21.5003604888916,4800
2019-08-06,25.610000610351562,25.739999771118164,25.610000610351562,25.61199951171875,21.394275665283203,1500
2019-08-07,25.739999771118164,25.739999771118164,25.684999465942383,25.739999771118164,21.50119400024414,400
2019-08-08,25.674999237060547,25.674999237060547,25.650999069213867,25.650999069213867,21.426851272583008,700
2019-08-09,25.739999771118164,25.75,25.739999771118164,25.75,21.509550094604492,600
2019-08-12,25.75,25.75,25.739999771118164,25.75,21.509550094604492,100
2019-08-13,25.75,26.610000610351562,25.75,26.610000610351562,22.227928161621094,7900
2019-08-14,25.75,26.610000610351562,25.75,26.610000610351562,22.227928161621094,100
2019-08-15,25.75,26.610000610351562,25.75,26.610000610351562,22.227928161621094,100
2019-08-16,26.610000610351562,26.610000610351562,26.610000610351562,26.610000610351562,22.227928161621094,0
2019-08-19,25.898000717163086,26.25200080871582,25.610000610351562,26.0,21.718379974365234,2300
2019-08-20,25.871999740600586,25.871999740600586,25.610000610351562,25.610000610351562,21.392606735229492,1000
2019-08-21,26.0,26.0,25.959999084472656,25.959999084472656,21.684967041015625,700
2019-08-22,25.6200008392334,25.770000457763672,25.493999481201172,25.766000747680664,21.522916793823242,1600
2019-08-23,25.518999099731445,25.652999877929688,25.395000457763672,25.652999877929688,21.42852020263672,1100
2019-08-26,25.610000610351562,25.89299964904785,25.476999282836914,25.753999710083008,21.512889862060547,2800
2019-08-27,26.184999465942383,26.19700050354004,25.863000869750977,26.049999237060547,21.76014518737793,2100
2019-08-28,25.87299919128418,25.87299919128418,25.59000015258789,25.697999954223633,21.46611213684082,1700
2019-08-29,25.040000915527344,25.5,25.0,25.350000381469727,21.59560203552246,3700
2019-08-30,25.20199966430664,25.295000076293945,25.20199966430664,25.253000259399414,21.51296615600586,1000
2019-09-03,25.049999237060547,25.200000762939453,24.989999771118164,25.200000762939453,21.467815399169922,2700
2019-09-04,25.5,25.5,25.10700035095215,25.10700035095215,21.388587951660156,500
2019-09-05,25.450000762939453,25.469999313354492,25.22599983215332,25.22599983215332,21.489965438842773,400
2019-09-06,25.145000457763672,25.5,25.139999389648438,25.334999084472656,21.582820892333984,2400
2019-09-09,25.34000015258789,25.469999313354492,25.209999084472656,25.469999313354492,21.69782829284668,1000
2019-09-10,25.135000228881836,25.305999755859375,25.135000228881836,25.305999755859375,21.558116912841797,800
2019-09-11,25.31999969482422,25.36400032043457,25.299999237060547,25.36400032043457,21.607526779174805,800
2019-09-12,25.20199966430664,25.430999755859375,25.20199966430664,25.430999755859375,21.66460418701172,1200
2019-09-13,25.440000534057617,25.440000534057617,25.299999237060547,25.360000610351562,21.60411834716797,2500
2019-09-16,25.5,25.5,25.31999969482422,25.375999450683594,21.617746353149414,1800
2019-09-17,25.229999542236328,25.336000442504883,25.229999542236328,25.30299949645996,21.555559158325195,1100
2019-09-18,25.270000457763672,25.270000457763672,25.069000244140625,25.13599967956543,21.413293838500977,800
2019-09-19,25.280000686645508,25.332000732421875,25.200000762939453,25.200000762939453,21.467815399169922,1600
2019-09-20,25.200000762939453,25.200000762939453,25.200000762939453,25.200000762939453,21.467815399169922,100
2019-09-23,25.299999237060547,25.299999237060547,25.176000595092773,25.176000595092773,21.447372436523438,1800
2019-09-24,25.152000427246094,25.240999221801758,25.149999618530273,25.240999221801758,21.50273895263672,700
2019-09-25,25.25,25.399999618530273,25.25,25.263999938964844,21.5223388671875,4500
2019-09-26,25.395000457763672,25.5,25.395000457763672,25.5,21.723384857177734,800
2019-09-27,25.53499984741211,25.53499984741211,25.53499984741211,25.53499984741211,21.753202438354492,500
2019-09-30,25.56999969482422,25.93000030517578,25.56999969482422,25.71500015258789,21.90654182434082,1400
2019-10-01,25.5,25.5,25.040000915527344,25.5,21.723384857177734,3400
2019-10-02,25.240999221801758,25.57699966430664,25.240999221801758,25.301000595092773,21.553857803344727,1300
2019-10-03,25.350000381469727,25.90399932861328,25.100000381469727,25.90399932861328,22.067550659179688,1900
2019-10-04,25.90399932861328,25.90399932861328,25.90399932861328,25.90399932861328,22.067550659179688,0
2019-10-07,25.493000030517578,25.604000091552734,25.43000030517578,25.590999603271484,21.800907135009766,2300
2019-10-08,25.493000030517578,25.85099983215332,25.493000030517578,25.85099983215332,22.022401809692383,2100
2019-10-09,25.6200008392334,25.628999710083008,25.538999557495117,25.628999710083008,21.833280563354492,800
2019-10-10,25.96500015258789,25.96500015258789,25.96500015258789,25.96500015258789,22.119518280029297,400
2019-10-11,25.829999923706055,25.86199951171875,25.733999252319336,25.733999252319336,21.922727584838867,700
2019-10-14,25.680999755859375,25.680999755859375,25.680999755859375,25.680999755859375,21.87757682800293,400
2019-10-15,25.680999755859375,25.680999755859375,25.680999755859375,25.680999755859375,21.87757682800293,0
2019-10-16,25.680999755859375,25.680999755859375,25.680999755859375,25.680999755859375,21.87757682800293,100
2019-10-17,25.680999755859375,25.680999755859375,25.680999755859375,25.680999755859375,21.87757682800293,100
2019-10-18,25.680999755859375,25.680999755859375,25.680999755859375,25.680999755859375,21.87757682800293,0
2019-10-21,25.82200050354004,25.82200050354004,25.82200050354004,25.82200050354004,21.997697830200195,200
2019-10-22,25.700000762939453,25.700000762939453,25.200000762939453,25.399999618530273,21.638195037841797,4800
2019-10-23,25.399999618530273,25.399999618530273,25.399999618530273,25.399999618530273,21.638195037841797,200
2019-10-24,25.499000549316406,25.499000549316406,25.040000915527344,25.114999771118164,21.39540672302246,2100
2019-10-25,25.420000076293945,25.625999450683594,25.420000076293945,25.420000076293945,21.65523338317871,800
2019-10-28,25.399999618530273,25.440000534057617,25.389999389648438,25.440000534057617,21.672271728515625,1100
2019-10-29,25.34000015258789,25.350000381469727,25.34000015258789,25.350000381469727,21.59560203552246,600
2019-10-30,25.399999618530273,25.399999618530273,25.399999618530273,25.399999618530273,21.638195037841797,700
2019-10-31,25.399999618530273,25.524999618530273,25.11199951171875,25.134000778198242,21.411590576171875,5900
2019-11-01,25.273000717163086,25.58300018310547,25.273000717163086,25.58300018310547,21.794090270996094,900
2019-11-04,25.579999923706055,25.579999923706055,25.209999084472656,25.209999084472656,21.476333618164062,1100
2019-11-05,25.399999618530273,25.399999618530273,25.399999618530273,25.399999618530273,21.638195037841797,100
2019-11-06,25.381999969482422,25.381999969482422,25.381999969482422,25.381999969482422,21.622861862182617,400
2019-11-07,25.413000106811523,25.535999298095703,25.413000106811523,25.534000396728516,21.752347946166992,2400
2019-11-08,25.549999237060547,25.57200050354004,25.549999237060547,25.57200050354004,21.784725189208984,800
2019-11-11,25.334999084472656,25.334999084472656,25.334999084472656,25.334999084472656,21.582820892333984,100
2019-11-12,25.334999084472656,25.334999084472656,25.334999084472656,25.334999084472656,21.582820892333984,100
2019-11-13,25.334999084472656,25.334999084472656,25.334999084472656,25.334999084472656,21.582820892333984,0
2019-11-14,25.566999435424805,25.566999435424805,25.566999435424805,25.566999435424805,21.780460357666016,1700
2019-11-15,25.59000015258789,25.81999969482422,25.59000015258789,25.697999954223633,21.892059326171875,2300
2019-11-18,25.785999298095703,25.81999969482422,25.773000717163086,25.804000854492188,21.982362747192383,2500
2019-11-19,25.90999984741211,25.90999984741211,25.886999130249023,25.886999130249023,22.053068161010742,200
2019-11-20,25.683000564575195,25.920000076293945,25.683000564575195,25.920000076293945,22.081180572509766,800
2019-11-21,25.884000778198242,25.950000762939453,25.804000854492188,25.82200050354004,21.997697830200195,2800
2019-11-22,25.950000762939453,26.0,25.950000762939453,26.0,22.149335861206055,400
2019-11-25,25.763999938964844,26.100000381469727,25.579999923706055,26.100000381469727,22.234527587890625,4600
2019-11-26,25.799999237060547,26.05699920654297,25.75,26.000999450683594,22.150182723999023,4600
2019-11-27,25.559999465942383,26.415000915527344,25.51099967956543,25.799999237060547,22.409896850585938,3200
2019-11-29,25.809999465942383,25.90999984741211,25.761999130249023,25.761999130249023,22.37689208984375,800
2019-12-02,25.770000457763672,26.170000076293945,25.25,26.170000076293945,22.731277465820312,3400
2019-12-03,25.905000686645508,25.905000686645508,25.299999237060547,25.299999237060547,21.975595474243164,300
2019-12-04,26.489999771118164,26.489999771118164,25.34000015258789,25.93000030517578,22.52281379699707,5300
2019-12-05,25.93000030517578,25.93000030517578,25.93000030517578,25.93000030517578,22.52281379699707,0
2019-12-06,26.25,26.5,26.25,26.5,23.01791763305664,1200
2019-12-09,26.5,26.5,26.5,26.5,23.01791763305664,0
2019-12-10,26.3700008392334,26.5,25.93000030517578,26.5,23.01791763305664,7100
2019-12-11,26.5,26.5,26.5,26.5,23.01791763305664,0
2019-12-12,26.5,26.5,26.5,26.5,23.01791763305664,0
2019-12-13,26.5,26.5,26.5,26.5,23.01791763305664,0
2019-12-16,26.959999084472656,26.959999084472656,26.0,26.670000076293945,23.165576934814453,1300
2019-12-17,26.670000076293945,26.670000076293945,26.670000076293945,26.670000076293945,23.165576934814453,0
2019-12-18,28.709999084472656,28.709999084472656,26.288999557495117,26.3799991607666,22.913684844970703,1100
2019-12-19,26.180999755859375,26.510000228881836,26.180999755859375,26.510000228881836,23.026601791381836,2600
2019-12-20,26.510000228881836,26.510000228881836,26.510000228881836,26.510000228881836,23.026601791381836,0
2019-12-23,26.510000228881836,26.510000228881836,26.510000228881836,26.510000228881836,23.026601791381836,0
2019-12-24,26.510000228881836,26.510000228881836,26.510000228881836,26.510000228881836,23.026601791381836,0
2019-12-26,27.850000381469727,28.0939998626709,26.283000946044922,28.0939998626709,24.402463912963867,1000
2019-12-27,26.450000762939453,26.974000930786133,26.450000762939453,26.700000762939453,23.191635131835938,2900
2019-12-30,26.700000762939453,26.700000762939453,26.700000762939453,26.700000762939453,23.191635131835938,0
2019-12-31,26.719999313354492,27.108999252319336,26.700000762939453,27.108999252319336,23.54689598083496,5100
2020-01-02,26.68899917602539,26.68899917602539,26.110000610351562,26.59000015258789,23.096092224121094,2100
2020-01-03,26.485000610351562,26.90999984741211,26.340999603271484,26.90999984741211,23.374042510986328,4700
2020-01-06,26.2189998626709,26.5,26.2189998626709,26.5,23.01791763305664,700
2020-01-07,26.5,26.5,26.5,26.5,23.01791763305664,0
2020-01-08,26.5,26.600000381469727,26.5,26.5,23.01791763305664,800
2020-01-09,26.649999618530273,26.649999618530273,26.450000762939453,26.450000762939453,22.9744873046875,500
2020-01-10,26.5,27.420000076293945,26.5,26.75,23.23506736755371,3500
2020-01-13,26.523000717163086,26.523000717163086,25.510000228881836,26.5,23.01791763305664,8200
2020-01-14,26.5,26.5,26.257999420166016,26.5,23.01791763305664,4100
2020-01-15,26.701000213623047,27.0,26.69499969482422,27.0,23.452219009399414,3800
2020-01-16,26.704999923706055,26.704999923706055,26.704999923706055,26.704999923706055,23.195980072021484,500
2020-01-17,26.709999084472656,26.709999084472656,26.709999084472656,26.709999084472656,23.200321197509766,100
2020-01-21,26.31999969482422,26.5,26.31999969482422,26.5,23.01791763305664,1500
2020-01-22,26.3700008392334,26.687999725341797,26.299999237060547,26.687999725341797,23.181211471557617,1800
2020-01-23,26.687999725341797,26.687999725341797,26.687999725341797,26.687999725341797,23.181211471557617,0
2020-01-24,26.687999725341797,26.687999725341797,26.687999725341797,26.687999725341797,23.181211471557617,0
2020-01-27,26.687999725341797,26.687999725341797,26.687999725341797,26.687999725341797,23.181211471557617,0
2020-01-28,26.687999725341797,26.687999725341797,26.687999725341797,26.687999725341797,23.181211471557617,0
2020-01-29,26.209999084472656,26.586000442504883,26.209999084472656,26.510000228881836,23.026601791381836,1000
2020-01-30,26.530000686645508,26.700000762939453,26.530000686645508,26.700000762939453,23.191635131835938,1700
2020-01-31,26.700000762939453,26.700000762939453,26.700000762939453,26.700000762939453,23.191635131835938,0
2020-02-03,26.700000762939453,26.700000762939453,26.700000762939453,26.700000762939453,23.191635131835938,0
2020-02-04,26.700000762939453,26.700000762939453,26.700000762939453,26.700000762939453,23.191635131835938,0
2020-02-05,26.600000381469727,26.783000946044922,26.600000381469727,26.783000946044922,23.263731002807617,1700
2020-02-06,26.799999237060547,26.850000381469727,26.729999542236328,26.799999237060547,23.27849578857422,1700
2020-02-07,25.510000228881836,26.950000762939453,25.510000228881836,26.934999465942383,23.3957576751709,2900
2020-02-10,26.989999771118164,27.04800033569336,26.940000534057617,27.04800033569336,23.493911743164062,1000
2020-02-11,27.04800033569336,27.04800033569336,27.04800033569336,27.04800033569336,23.493911743164062,0
2020-02-12,27.43199920654297,27.440000534057617,25.634000778198242,27.290000915527344,23.70410919189453,4300
2020-02-13,26.729999542236328,27.489999771118164,26.729999542236328,27.323999404907227,23.733642578125,2500
2020-02-14,26.929000854492188,26.929000854492188,26.929000854492188,26.929000854492188,23.39055061340332,200
2020-02-18,27.232999801635742,27.232999801635742,27.232999801635742,27.232999801635742,23.65460205078125,300
2020-02-19,27.469999313354492,27.469999313354492,27.323999404907227,27.323999404907227,23.733642578125,2400
2020-02-20,27.350000381469727,27.469999313354492,27.350000381469727,27.469999313354492,23.86046028137207,400
2020-02-21,27.469999313354492,27.469999313354492,27.469999313354492,27.469999313354492,23.86046028137207,0
2020-02-24,27.3700008392334,27.450000762939453,27.240999221801758,27.326000213623047,23.735382080078125,900
2020-02-25,26.510000228881836,26.790000915527344,25.797000885009766,26.729999542236328,23.217695236206055,3800
2020-02-26,26.5,26.5,26.290000915527344,26.299999237060547,22.844196319580078,2300
2020-02-27,25.865999221801758,26.320999145507812,25.865999221801758,26.229999542236328,23.224931716918945,3100
2020-02-28,25.0,26.40999984741211,25.0,25.549999237060547,22.62283706665039,1300
2020-03-02,25.549999237060547,25.549999237060547,25.549999237060547,25.549999237060547,22.62283706665039,0
2020-03-03,26.84000015258789,26.84000015258789,25.75,25.899999618530273,22.9327392578125,6800
2020-03-04,26.0,26.12700080871582,25.989999771118164,26.0,23.021282196044922,6300
2020-03-05,26.20199966430664,26.20199966430664,26.20199966430664,26.20199966430664,23.20013999938965,300
2020-03-06,26.0,26.0,25.875999450683594,26.0,23.021282196044922,7600
2020-03-09,26.0,26.184999465942383,26.0,26.184999465942383,23.185087203979492,1400
2020-03-10,26.184999465942383,26.184999465942383,26.184999465942383,26.184999465942383,23.185087203979492,0
2020-03-11,26.0,26.0,26.0,26.0,23.021282196044922,400
2020-03-12,25.260000228881836,26.007999420166016,25.260000228881836,26.0,23.021282196044922,5900
2020-03-13,25.174999237060547,25.308000564575195,25.174999237060547,25.308000564575195,22.4085636138916,1400
2020-03-16,25.110000610351562,25.110000610351562,24.0,24.25,21.471773147583008,4700
2020-03-17,24.8799991607666,25.099000930786133,24.0,24.25,21.471773147583008,1900
2020-03-18,23.25,24.628999710083008,23.25,24.152000427246094,21.385000228881836,9500
2020-03-19,22.010000228881836,23.2450008392334,22.0,23.2450008392334,20.581912994384766,1700
2020-03-20,23.608999252319336,24.031999588012695,23.608999252319336,23.674999237060547,20.962650299072266,1400
2020-03-23,23.34000015258789,23.34000015258789,22.25,22.25,19.70090675354004,1300
2020-03-24,22.219999313354492,22.219999313354492,18.56999969482422,21.868999481201172,19.363555908203125,6000
2020-03-25,23.125,23.1299991607666,20.600000381469727,22.25,19.70090675354004,4200
2020-03-26,22.260000228881836,22.285999298095703,20.68000030517578,21.5,19.036828994750977,3500
2020-03-27,22.0,24.0,22.0,24.0,21.25041389465332,2300
2020-03-30,22.0,23.368000030517578,22.0,23.368000030517578,20.690820693969727,1000
2020-03-31,23.100000381469727,24.0,23.100000381469727,23.75,21.029056549072266,6900
2020-04-01,23.110000610351562,23.25,22.5,22.700000762939453,20.099353790283203,10300
2020-04-02,22.808000564575195,23.25,22.808000564575195,23.25,20.586341857910156,600
2020-04-03,22.850000381469727,23.200000762939453,22.850000381469727,23.200000762939453,20.542068481445312,5100
2020-04-06,22.219999313354492,23.059999465942383,22.219999313354492,23.059999465942383,20.418106079101562,300
2020-04-07,22.13800048828125,22.13800048828125,22.13800048828125,22.13800048828125,19.60173988342285,200
2020-04-08,22.149999618530273,22.257999420166016,22.149999618530273,22.257999420166016,19.707990646362305,400
2020-04-09,22.257999420166016,22.257999420166016,22.257999420166016,22.257999420166016,19.707990646362305,0
2020-04-13,23.0,23.0,21.7189998626709,21.7189998626709,19.23073959350586,1900
2020-04-14,22.510000228881836,22.510000228881836,21.75,21.989999771118164,19.47068977355957,6500
2020-04-15,21.700000762939453,21.700000762939453,21.700000762939453,21.700000762939453,19.213916778564453,100
2020-04-16,21.6200008392334,22.25,17.600000381469727,20.84000015258789,18.452444076538086,41200
2020-04-17,21.5,21.860000610351562,21.5,21.860000610351562,19.355587005615234,1600
2020-04-20,22.0,22.121000289916992,21.950000762939453,22.121000289916992,19.58668327331543,900
2020-04-21,22.121000289916992,22.121000289916992,22.121000289916992,22.121000289916992,19.58668327331543,0
2020-04-22,22.0,22.25,21.993000030517578,22.25,19.70090675354004,2100
2020-04-23,22.450000762939453,22.649999618530273,22.100000381469727,22.649999618530273,20.055078506469727,2900
2020-04-24,23.18400001525879,23.18400001525879,21.25,21.25,18.815471649169922,800
2020-04-27,22.496000289916992,22.496000289916992,22.44099998474121,22.44099998474121,19.87002182006836,600
2020-04-28,22.5,22.5,22.06999969482422,22.06999969482422,19.541526794433594,1100
2020-04-29,22.5,22.5,22.260000228881836,22.260000228881836,19.709762573242188,2700
2020-04-30,22.25,22.25,22.25,22.25,19.70090675354004,200
2020-05-01,22.25,22.25,22.25,22.25,19.70090675354004,0
2020-05-04,22.25,22.25,22.25,22.25,19.70090675354004,0
2020-05-05,23.639999389648438,23.639999389648438,22.75,23.25,20.586341857910156,2000
2020-05-06,23.25,23.25,23.25,23.25,20.586341857910156,0
2020-05-07,22.969999313354492,22.969999313354492,22.969999313354492,22.969999313354492,20.338415145874023,200
2020-05-08,23.0,23.31999969482422,22.96299934387207,23.0,20.3649845123291,2100
2020-05-11,23.0,24.0,23.0,24.0,21.25041389465332,5000
2020-05-12,23.989999771118164,24.0,23.854999542236328,23.854999542236328,21.122024536132812,17800
2020-05-13,24.0,24.0,23.82699966430664,23.834999084472656,21.104318618774414,2400
2020-05-14,24.0,24.0,23.75,23.899999618530273,21.1618709564209,1100
2020-05-15,23.899999618530273,23.899999618530273,23.899999618530273,23.899999618530273,21.1618709564209,0
2020-05-18,24.0,24.0,24.0,24.0,21.25041389465332,2500
2020-05-19,24.0,24.0,24.0,24.0,21.25041389465332,1100
2020-05-20,24.0,24.0,24.0,24.0,21.25041389465332,0
2020-05-21,24.0,24.0,23.952999114990234,23.952999114990234,21.208799362182617,700
2020-05-22,24.0,26.1200008392334,22.75,24.020000457763672,21.268123626708984,2500
2020-05-26,23.850000381469727,23.850000381469727,23.799999237060547,23.799999237060547,21.073328018188477,1400
2020-05-27,23.799999237060547,23.799999237060547,23.799999237060547,23.799999237060547,21.073328018188477,0
2020-05-28,24.309999465942383,24.309999465942383,24.309999465942383,24.309999465942383,21.524900436401367,200
2020-05-29,24.309999465942383,24.309999465942383,24.309999465942383,24.309999465942383,21.976913452148438,0
2020-06-01,23.652000427246094,23.652000427246094,23.652000427246094,23.652000427246094,21.382062911987305,200
2020-06-02,24.84000015258789,24.850000381469727,23.863000869750977,24.25,21.922670364379883,3300
2020-06-03,25.77199935913086,25.77199935913086,24.295000076293945,24.295000076293945,21.963354110717773,1000
2020-06-04,24.625,24.625,24.625,24.625,22.261682510375977,200
2020-06-05,24.625,24.625,24.625,24.625,22.261682510375977,0
2020-06-08,24.809999465942383,25.0,24.809999465942383,24.993000030517578,22.5943660736084,700
2020-06-09,25.0,25.149999618530273,25.0,25.10099983215332,22.691999435424805,9600
2020-06-10,24.5,25.0,22.90999984741211,25.0,22.600692749023438,13300
2020-06-11,23.059999465942383,24.0,23.040000915527344,24.0,21.696664810180664,1300
2020-06-12,24.0,24.0,24.0,24.0,21.696664810180664,0
2020-06-15,25.25,25.5,24.0,25.420000076293945,22.980384826660156,800
2020-06-16,25.389999389648438,25.389999389648438,25.389999389648438,25.389999389648438,22.95326042175293,200
2020-06-17,25.399999618530273,25.399999618530273,24.839000701904297,25.399999618530273,22.962303161621094,900
2020-06-18,25.049999237060547,25.101999282836914,25.049999237060547,25.101999282836914,22.692903518676758,600
2020-06-19,25.110000610351562,25.299999237060547,25.110000610351562,25.299999237060547,22.87190055847168,600
2020-06-22,25.5,25.549999237060547,25.299999237060547,25.489999771118164,23.043664932250977,1100
2020-06-23,25.489999771118164,25.489999771118164,25.489999771118164,25.489999771118164,23.043664932250977,0
2020-06-24,25.299999237060547,25.299999237060547,25.299999237060547,25.299999237060547,22.87190055847168,1800
2020-06-25,25.299999237060547,25.299999237060547,25.299999237060547,25.299999237060547,22.87190055847168,0
2020-06-26,25.299999237060547,25.299999237060547,25.299999237060547,25.299999237060547,22.87190055847168,0
2020-06-29,25.299999237060547,25.299999237060547,25.299999237060547,25.299999237060547,22.87190055847168,0
2020-06-30,25.299999237060547,25.299999237060547,25.299999237060547,25.299999237060547,22.87190055847168,0
2020-07-01,25.299999237060547,25.299999237060547,25.299999237060547,25.299999237060547,22.87190055847168,0
2020-07-02,25.239999771118164,25.25,25.125,25.24799919128418,22.82489013671875,8200
2020-07-06,25.010000228881836,25.020000457763672,25.0,25.020000457763672,22.618772506713867,800
2020-07-07,24.959999084472656,24.959999084472656,24.959999084472656,24.959999084472656,22.564529418945312,100
2020-07-08,25.0,25.0,25.0,25.0,22.600692749023438,400
2020-07-09,25.299999237060547,25.440000534057617,24.75,25.25,22.826698303222656,3400
2020-07-10,24.899999618530273,24.989999771118164,24.868000030517578,24.8700008392334,22.483171463012695,1100
2020-07-13,24.889999389648438,24.889999389648438,24.75,24.863000869750977,22.47684097290039,2500
2020-07-14,24.863000869750977,24.863000869750977,24.863000869750977,24.863000869750977,22.47684097290039,0
2020-07-15,24.6200008392334,24.6200008392334,24.350000381469727,24.350000381469727,22.013076782226562,300
2020-07-16,24.6200008392334,24.6200008392334,24.350000381469727,24.375,22.035675048828125,1600
2020-07-17,24.3799991607666,24.57200050354004,24.3799991607666,24.57200050354004,22.213769912719727,1000
2020-07-20,24.57200050354004,24.57200050354004,24.57200050354004,24.57200050354004,22.213769912719727,0
2020-07-21,24.700000762939453,24.700000762939453,24.700000762939453,24.700000762939453,22.329486846923828,3000
2020-07-22,24.959999084472656,24.959999084472656,24.899999618530273,24.899999618530273,22.51028823852539,1100
2020-07-23,24.899999618530273,24.899999618530273,24.899999618530273,24.899999618530273,22.51028823852539,0
2020-07-24,25.0,25.0,24.899999618530273,24.899999618530273,22.51028823852539,400
2020-07-27,22.510000228881836,24.333999633789062,22.309999465942383,24.333999633789062,21.998611450195312,5300
2020-07-28,24.399999618530273,24.889999389648438,24.399999618530273,24.889999389648438,22.50124740600586,1400
2020-07-29,24.889999389648438,24.889999389648438,24.889999389648438,24.889999389648438,22.50124740600586,300
2020-07-30,24.889999389648438,24.889999389648438,24.850000381469727,24.889999389648438,22.50124740600586,1000
2020-07-31,24.391000747680664,24.391000747680664,24.391000747680664,24.391000747680664,22.050142288208008,300
2020-08-03,24.25,24.989999771118164,24.0,24.0,21.696664810180664,1700
2020-08-04,24.149999618530273,24.149999618530273,23.75,24.06999969482422,21.759946823120117,1100
2020-08-05,24.200000762939453,24.200000762939453,23.68000030517578,23.68000030517578,21.407377243041992,500
2020-08-06,23.68000030517578,23.68000030517578,23.68000030517578,23.68000030517578,21.407377243041992,0
2020-08-07,23.68000030517578,23.68000030517578,23.68000030517578,23.68000030517578,21.407377243041992,0
2020-08-10,24.344999313354492,24.344999313354492,23.600000381469727,24.197999954223633,21.87566375732422,2800
2020-08-11,24.959999084472656,24.959999084472656,24.959999084472656,24.959999084472656,22.564529418945312,100
2020-08-12,24.959999084472656,24.979999542236328,24.959999084472656,24.979999542236328,22.582612991333008,500
2020-08-13,25.0,25.0,25.0,25.0,22.600692749023438,600
2020-08-14,25.43000030517578,25.43000030517578,25.030000686645508,25.030000686645508,22.6278133392334,300
2020-08-17,25.225000381469727,25.350000381469727,25.0,25.0,22.600692749023438,1300
2020-08-18,25.350000381469727,25.350000381469727,25.33799934387207,25.33799934387207,22.906251907348633,700
2020-08-19,25.350000381469727,25.350000381469727,25.100000381469727,25.100000381469727,22.69109535217285,3400
2020-08-20,25.100000381469727,25.100000381469727,25.0,25.0,22.600692749023438,1400
2020-08-21,25.399999618530273,25.440000534057617,25.399999618530273,25.440000534057617,22.998464584350586,300
2020-08-24,25.40999984741211,25.40999984741211,25.40999984741211,25.40999984741211,22.971343994140625,100
2020-08-25,24.299999237060547,25.450000762939453,24.299999237060547,25.450000762939453,23.007503509521484,700
2020-08-26,24.700000762939453,24.700000762939453,24.700000762939453,24.700000762939453,22.329486846923828,400
2020-08-27,25.0,25.0,24.298999786376953,24.298999786376953,21.966968536376953,400
2020-08-28,24.75,24.8700008392334,24.75,24.8700008392334,22.483171463012695,400
2020-08-31,25.5,25.5,25.0,25.0,23.064390182495117,1700
2020-09-01,24.989999771118164,24.989999771118164,24.989999771118164,24.989999771118164,23.055166244506836,400
2020-09-02,24.989999771118164,24.989999771118164,24.989999771118164,24.989999771118164,23.055166244506836,500
2020-09-03,24.969999313354492,24.975000381469727,24.950000762939453,24.951000213623047,23.019184112548828,1200
2020-09-04,24.951000213623047,24.951000213623047,24.951000213623047,24.951000213623047,23.019184112548828,0
2020-09-08,23.709999084472656,24.229999542236328,23.639999389648438,24.229999542236328,22.354007720947266,900
2020-09-09,24.350000381469727,24.68000030517578,24.350000381469727,24.492000579833984,22.595722198486328,600
2020-09-10,24.632999420166016,24.632999420166016,24.2810001373291,24.399999618530273,22.510845184326172,6400
2020-09-11,24.350000381469727,24.3700008392334,24.350000381469727,24.3700008392334,22.483169555664062,1100
2020-09-14,24.739999771118164,24.84000015258789,24.350000381469727,24.739999771118164,22.824522018432617,2000
2020-09-15,25.139999389648438,25.139999389648438,25.08099937438965,25.08099937438965,23.13912010192871,800
2020-09-16,25.09000015258789,25.09000015258789,25.09000015258789,25.09000015258789,23.147422790527344,500
2020-09-17,24.899999618530273,24.899999618530273,24.440000534057617,24.889999389648438,22.962907791137695,1400
2020-09-18,25.0,25.0,25.0,25.0,23.064390182495117,400
2020-09-21,24.989999771118164,25.0,24.940000534057617,24.940000534057617,23.0090389251709,800
2020-09-22,24.940000534057617,24.940000534057617,24.940000534057617,24.940000534057617,23.0090389251709,0
2020-09-23,24.459999084472656,24.645000457763672,24.350000381469727,24.5,22.603103637695312,2500
2020-09-24,24.75,24.75,24.75,24.75,22.83374786376953,500
2020-09-25,24.75,24.75,24.75,24.75,22.83374786376953,0
2020-09-28,24.75,24.75,24.75,24.75,22.83374786376953,0
2020-09-29,24.770000457763672,24.770000457763672,24.770000457763672,24.770000457763672,22.852197647094727,200
2020-09-30,25.0,25.0,24.690000534057617,24.690000534057617,22.778392791748047,1200
2020-10-01,24.690000534057617,24.690000534057617,24.690000534057617,24.690000534057617,22.778392791748047,0
2020-10-02,24.690000534057617,24.690000534057617,24.690000534057617,24.690000534057617,22.778392791748047,0
2020-10-05,24.520000457763672,24.520000457763672,24.5,24.5,22.603103637695312,500
2020-10-06,24.15999984741211,24.15999984741211,24.15999984741211,24.15999984741211,22.2894287109375,200
2020-10-07,24.25,24.25,24.25,24.25,22.372459411621094,200
2020-10-08,24.25,24.25,24.25,24.25,22.372459411621094,0
2020-10-09,24.25,24.25,24.25,24.25,22.372459411621094,0
2020-10-12,24.479999542236328,24.479999542236328,24.15999984741211,24.15999984741211,22.2894287109375,2600
2020-10-13,24.0,24.0,23.799999237060547,23.799999237060547,21.957300186157227,1900
2020-10-14,24.0,24.0,23.969999313354492,24.0,22.141815185546875,1300
2020-10-15,23.989999771118164,24.0,23.989999771118164,24.0,22.141815185546875,1600
2020-10-16,24.0,24.0,24.0,24.0,22.141815185546875,600
2020-10-19,23.989999771118164,23.989999771118164,23.989999771118164,23.989999771118164,22.13258934020996,100
2020-10-20,23.75,23.924999237060547,23.299999237060547,23.299999237060547,21.49601173400879,3400
2020-10-21,23.6299991607666,23.639999389648438,23.325000762939453,23.325000762939453,21.51907730102539,800
2020-10-22,23.334999084472656,23.610000610351562,23.334999084472656,23.600000381469727,21.772785186767578,1500
2020-10-23,23.600000381469727,23.600000381469727,23.600000381469727,23.600000381469727,21.772785186767578,0
2020-10-26,23.440000534057617,23.468000411987305,23.270000457763672,23.270000457763672,21.468334197998047,2700
2020-10-27,23.406999588012695,23.406999588012695,23.406999588012695,23.406999588012695,21.5947265625,500
2020-10-28,23.406999588012695,23.406999588012695,23.406999588012695,23.406999588012695,21.5947265625,0
2020-10-29,23.440000534057617,23.59000015258789,23.440000534057617,23.59000015258789,21.763559341430664,300
2020-10-30,23.5,23.5,23.5,23.5,21.680524826049805,400
2020-11-02,23.989999771118164,23.989999771118164,23.75,23.760000228881836,21.92039680480957,2900
2020-11-03,23.989999771118164,24.020000457763672,23.459999084472656,23.459999084472656,21.64362335205078,9100
2020-11-04,23.469999313354492,23.5,23.469999313354492,23.5,21.680524826049805,900
2020-11-05,23.06999969482422,23.06999969482422,23.040000915527344,23.059999465942383,21.27459144592285,1500
2020-11-06,23.1200008392334,23.399999618530273,23.1200008392334,23.360000610351562,21.551368713378906,1700
2020-11-09,23.360000610351562,23.360000610351562,23.360000610351562,23.360000610351562,21.551368713378906,0
2020-11-10,23.420000076293945,23.420000076293945,23.239999771118164,23.239999771118164,21.440658569335938,500
2020-11-11,23.25,23.290000915527344,23.25,23.25,21.44988250732422,400
2020-11-12,23.299999237060547,23.559999465942383,23.25,23.540000915527344,21.717430114746094,1700
2020-11-13,23.540000915527344,23.540000915527344,23.540000915527344,23.540000915527344,21.717430114746094,0
2020-11-16,23.600000381469727,23.709999084472656,23.600000381469727,23.709999084472656,21.874267578125,3800
2020-11-17,24.239999771118164,24.239999771118164,23.899999618530273,24.0,22.141815185546875,600
2020-11-18,24.0,24.0,23.554000854492188,23.98900032043457,22.131668090820312,1900
2020-11-19,23.969999313354492,23.969999313354492,23.32200050354004,23.32200050354004,21.51630973815918,400
2020-11-20,23.743999481201172,24.639999389648438,23.743999481201172,24.639999389648438,22.732263565063477,4100
2020-11-23,24.6299991607666,24.6299991607666,24.47800064086914,24.47800064086914,22.582807540893555,500
2020-11-24,24.6200008392334,25.0,24.43000030517578,24.43000030517578,22.538524627685547,5500
2020-11-25,25.0,25.0,24.43000030517578,24.700000762939453,22.787620544433594,900
2020-11-27,25.0,25.110000610351562,24.850000381469727,24.96500015258789,23.032102584838867,3600
2020-11-30,24.959999084472656,24.959999084472656,24.959999084472656,24.959999084472656,23.49810791015625,1600
2020-12-01,24.5,24.989999771118164,24.5,24.770000457763672,23.319236755371094,2700
2020-12-02,24.770000457763672,24.770000457763672,24.600000381469727,24.687999725341797,23.24203872680664,3500
2020-12-03,24.299999237060547,24.299999237060547,24.25,24.25,22.829692840576172,400
2020-12-04,24.5,24.5,23.549999237060547,23.59000015258789,22.208349227905273,8100
2020-12-07,23.989999771118164,24.135000228881836,23.719999313354492,24.135000228881836,22.7214298248291,900
2020-12-08,24.0,24.200000762939453,24.0,24.08300018310547,22.672473907470703,1200
2020-12-09,24.200000762939453,24.299999237060547,24.079999923706055,24.180999755859375,22.764734268188477,3300
2020-12-10,24.25,24.25,24.18000030517578,24.18000030517578,22.763792037963867,1900
2020-12-11,24.18000030517578,24.18000030517578,23.75,23.760000228881836,22.368392944335938,2700
2020-12-14,24.239999771118164,24.239999771118164,24.170000076293945,24.170000076293945,22.754377365112305,600
2020-12-15,24.25,24.489999771118164,24.200000762939453,24.489999771118164,23.05563735961914,4300
2020-12-16,24.549999237060547,24.719999313354492,24.549999237060547,24.719999313354492,23.272165298461914,1600
2020-12-17,24.0,24.0,23.125,23.125,21.770586013793945,6900
2020-12-18,23.215999603271484,23.360000610351562,22.18000030517578,23.350000381469727,21.982406616210938,3900
2020-12-21,23.459999084472656,23.459999084472656,23.459999084472656,23.459999084472656,22.085962295532227,300
2020-12-22,23.5,23.68000030517578,23.457000732421875,23.457000732421875,22.083139419555664,4500
2020-12-23,23.75,24.219999313354492,23.75,24.219999313354492,22.801448822021484,4000
2020-12-24,23.5,24.393999099731445,23.5,24.393999099731445,22.965259552001953,700
2020-12-28,24.393999099731445,24.393999099731445,24.393999099731445,24.393999099731445,22.965259552001953,0
2020-12-29,23.6200008392334,23.739999771118164,23.5,23.739999771118164,22.34956169128418,2400
2020-12-30,23.520000457763672,23.760000228881836,23.5,23.760000228881836,22.368392944335938,3400
