Date,Open,High,Low,Close,Adj Close,Volume
2018-03-28,23.0,24.399999618530273,18.65999984741211,18.65999984741211,18.65999984741211,2961600
2018-03-29,18.739999771118164,19.857999801635742,18.202999114990234,18.700000762939453,18.700000762939453,638000
2018-04-02,18.68000030517578,19.094999313354492,16.56999969482422,17.719999313354492,17.719999313354492,198700
2018-04-03,17.700000762939453,17.790000915527344,16.1200008392334,16.489999771118164,16.489999771118164,286200
2018-04-04,16.450000762939453,18.0,16.299999237060547,17.65999984741211,17.65999984741211,220600
2018-04-05,17.90999984741211,18.940000534057617,17.78499984741211,18.690000534057617,18.690000534057617,324200
2018-04-06,18.920000076293945,18.920000076293945,17.885000228881836,18.040000915527344,18.040000915527344,219800
2018-04-09,18.700000762939453,18.899999618530273,17.5,17.68000030517578,17.68000030517578,138600
2018-04-10,18.0,18.395000457763672,16.309999465942383,16.93000030517578,16.93000030517578,336700
2018-04-11,16.889999389648438,18.860000610351562,16.889999389648438,18.860000610351562,18.860000610351562,203200
2018-04-12,18.8799991607666,20.260000228881836,18.768999099731445,20.030000686645508,20.030000686645508,134200
2018-04-13,20.3799991607666,20.790000915527344,19.850000381469727,20.0,20.0,95100
2018-04-16,20.18000030517578,20.5,20.0,20.3700008392334,20.3700008392334,180300
2018-04-17,20.6299991607666,22.399999618530273,20.584999084472656,20.969999313354492,20.969999313354492,302200
2018-04-18,20.8799991607666,21.989999771118164,20.600000381469727,21.399999618530273,21.399999618530273,125100
2018-04-19,21.190000534057617,21.450000762939453,20.799999237060547,21.0,21.0,54300
2018-04-20,21.049999237060547,21.534000396728516,20.100000381469727,20.399999618530273,20.399999618530273,86800
2018-04-23,20.610000610351562,20.809999465942383,19.726999282836914,19.899999618530273,19.899999618530273,166300
2018-04-24,19.969999313354492,21.235000610351562,19.530000686645508,20.079999923706055,20.079999923706055,153300
2018-04-25,20.020000457763672,20.290000915527344,19.8799991607666,20.010000228881836,20.010000228881836,23500
2018-04-26,20.1200008392334,21.010000228881836,20.1200008392334,20.639999389648438,20.639999389648438,26900
2018-04-27,20.799999237060547,21.170000076293945,20.799999237060547,20.850000381469727,20.850000381469727,85800
2018-04-30,20.950000762939453,20.950000762939453,19.790000915527344,19.989999771118164,19.989999771118164,94200
2018-05-01,20.0,20.6299991607666,19.87299919128418,20.079999923706055,20.079999923706055,91300
2018-05-02,20.079999923706055,20.989999771118164,19.969999313354492,20.5,20.5,118300
2018-05-03,20.459999084472656,21.530000686645508,20.22100067138672,21.219999313354492,21.219999313354492,142100
2018-05-04,21.260000228881836,21.864999771118164,20.860000610351562,21.549999237060547,21.549999237060547,80000
2018-05-07,21.729999542236328,22.134000778198242,20.950000762939453,21.100000381469727,21.100000381469727,64700
2018-05-08,21.149999618530273,21.790000915527344,20.81999969482422,21.25,21.25,115300
2018-05-09,21.270000457763672,21.979999542236328,20.604999542236328,20.989999771118164,20.989999771118164,234100
2018-05-10,21.229999542236328,21.600000381469727,20.34000015258789,20.579999923706055,20.579999923706055,70800
2018-05-11,20.670000076293945,21.0,19.968000411987305,20.18000030517578,20.18000030517578,76300
2018-05-14,20.200000762939453,21.209999084472656,18.06999969482422,19.43000030517578,19.43000030517578,236400
2018-05-15,19.190000534057617,20.200000762939453,18.760000228881836,19.389999389648438,19.389999389648438,85800
2018-05-16,19.670000076293945,20.760000228881836,19.125,19.559999465942383,19.559999465942383,133600
2018-05-17,19.489999771118164,20.11400032043457,19.059999465942383,19.350000381469727,19.350000381469727,71900
2018-05-18,19.350000381469727,20.709999084472656,19.049999237060547,19.860000610351562,19.860000610351562,71400
2018-05-21,20.020000457763672,20.18000030517578,19.299999237060547,19.729999542236328,19.729999542236328,67600
2018-05-22,19.8799991607666,20.25,19.520000457763672,20.030000686645508,20.030000686645508,45900
2018-05-23,19.756999969482422,20.1299991607666,19.440000534057617,19.770000457763672,19.770000457763672,27500
2018-05-24,19.75,20.25,19.200000762939453,19.809999465942383,19.809999465942383,53500
2018-05-25,19.760000228881836,20.280000686645508,19.309999465942383,19.8700008392334,19.8700008392334,91100
2018-05-29,19.899999618530273,20.299999237060547,19.3700008392334,19.6200008392334,19.6200008392334,57700
2018-05-30,19.81999969482422,20.190000534057617,19.600000381469727,20.100000381469727,20.100000381469727,88000
2018-05-31,19.989999771118164,20.530000686645508,19.780000686645508,20.1299991607666,20.1299991607666,105100
2018-06-01,20.299999237060547,20.6200008392334,19.81999969482422,20.200000762939453,20.200000762939453,139400
2018-06-04,20.3700008392334,20.81999969482422,20.110000610351562,20.450000762939453,20.450000762939453,105700
2018-06-05,20.350000381469727,20.799999237060547,19.600000381469727,19.989999771118164,19.989999771118164,150000
2018-06-06,20.280000686645508,21.280000686645508,19.8700008392334,20.899999618530273,20.899999618530273,94600
2018-06-07,20.795000076293945,21.360000610351562,20.344999313354492,20.979999542236328,20.979999542236328,53700
2018-06-08,20.649999618530273,21.239999771118164,20.270000457763672,20.65999984741211,20.65999984741211,162000
2018-06-11,20.799999237060547,21.350000381469727,19.899999618530273,20.299999237060547,20.299999237060547,236900
2018-06-12,20.149999618530273,21.25,19.729999542236328,19.81999969482422,19.81999969482422,157800
2018-06-13,20.18000030517578,20.219999313354492,19.21500015258789,19.68000030517578,19.68000030517578,253200
2018-06-14,19.700000762939453,20.549999237060547,19.639999389648438,19.84000015258789,19.84000015258789,181900
2018-06-15,19.770000457763672,20.325000762939453,19.43000030517578,19.56999969482422,19.56999969482422,424000
2018-06-18,19.489999771118164,19.844999313354492,18.315000534057617,18.65999984741211,18.65999984741211,175700
2018-06-19,18.600000381469727,19.28499984741211,18.049999237060547,19.059999465942383,19.059999465942383,203700
2018-06-20,19.3700008392334,20.510000228881836,19.049999237060547,20.1200008392334,20.1200008392334,191100
2018-06-21,20.09000015258789,20.589000701904297,19.469999313354492,19.809999465942383,19.809999465942383,125200
2018-06-22,19.84000015258789,21.395000457763672,19.510000228881836,20.75,20.75,1336900
2018-06-25,20.8700008392334,21.030000686645508,19.649999618530273,19.850000381469727,19.850000381469727,165400
2018-06-26,19.809999465942383,20.31999969482422,19.270000457763672,19.799999237060547,19.799999237060547,121200
2018-06-27,19.90999984741211,20.350000381469727,19.610000610351562,19.899999618530273,19.899999618530273,138200
2018-06-28,19.899999618530273,20.1299991607666,19.610000610351562,19.8700008392334,19.8700008392334,86600
2018-06-29,20.030000686645508,20.639999389648438,19.56999969482422,20.399999618530273,20.399999618530273,129200
2018-07-02,20.190000534057617,21.98699951171875,19.899999618530273,20.239999771118164,20.239999771118164,187900
2018-07-03,20.290000915527344,20.709999084472656,20.059999465942383,20.239999771118164,20.239999771118164,106000
2018-07-05,20.420000076293945,20.639999389648438,20.10099983215332,20.600000381469727,20.600000381469727,82900
2018-07-06,20.549999237060547,22.06999969482422,20.43000030517578,21.399999618530273,21.399999618530273,102200
2018-07-09,21.469999313354492,22.729999542236328,21.131000518798828,22.3799991607666,22.3799991607666,85400
2018-07-10,22.389999389648438,23.51799964904785,22.389999389648438,22.489999771118164,22.489999771118164,128100
2018-07-11,22.479999542236328,22.59000015258789,20.683000564575195,20.790000915527344,20.790000915527344,193900
2018-07-12,21.139999389648438,21.739999771118164,20.780000686645508,21.739999771118164,21.739999771118164,29400
2018-07-13,21.639999389648438,21.920000076293945,21.524999618530273,21.760000228881836,21.760000228881836,60700
2018-07-16,21.799999237060547,21.950000762939453,21.110000610351562,21.610000610351562,21.610000610351562,81400
2018-07-17,21.68000030517578,21.979999542236328,21.389999389648438,21.440000534057617,21.440000534057617,57100
2018-07-18,21.450000762939453,21.450000762939453,20.59000015258789,20.860000610351562,20.860000610351562,130300
2018-07-19,20.850000381469727,21.450000762939453,20.593000411987305,21.40999984741211,21.40999984741211,52500
2018-07-20,21.389999389648438,21.75,21.290000915527344,21.489999771118164,21.489999771118164,50600
2018-07-23,21.450000762939453,21.760000228881836,21.079999923706055,21.139999389648438,21.139999389648438,42400
2018-07-24,20.889999389648438,21.594999313354492,19.829999923706055,19.979999542236328,19.979999542236328,103100
2018-07-25,20.010000228881836,20.1200008392334,19.25,19.5,19.5,35000
2018-07-26,19.510000228881836,19.885000228881836,19.149999618530273,19.329999923706055,19.329999923706055,119700
2018-07-27,19.3700008392334,19.399999618530273,17.649999618530273,18.93000030517578,18.93000030517578,190500
2018-07-30,18.770000457763672,18.97599983215332,17.371000289916992,17.6299991607666,17.6299991607666,46000
2018-07-31,17.65999984741211,19.409000396728516,17.170000076293945,17.610000610351562,17.610000610351562,97500
2018-08-01,17.610000610351562,18.510000228881836,17.209999084472656,17.56999969482422,17.56999969482422,108400
2018-08-02,17.530000686645508,18.049999237060547,16.350000381469727,17.729999542236328,17.729999542236328,76000
2018-08-03,17.729999542236328,18.219999313354492,16.649999618530273,16.75,16.75,59900
2018-08-06,16.6200008392334,17.299999237060547,15.880000114440918,16.850000381469727,16.850000381469727,142100
2018-08-07,16.850000381469727,17.350000381469727,16.399999618530273,16.600000381469727,16.600000381469727,38900
2018-08-08,16.979999542236328,17.239999771118164,16.020000457763672,16.420000076293945,16.420000076293945,32400
2018-08-09,16.5,16.670000076293945,16.132999420166016,16.3700008392334,16.3700008392334,62200
2018-08-10,16.290000915527344,16.559999465942383,15.369999885559082,15.539999961853027,15.539999961853027,69900
2018-08-13,15.630000114440918,16.322999954223633,15.220000267028809,15.670000076293945,15.670000076293945,144300
2018-08-14,15.890000343322754,17.3439998626709,15.670000076293945,16.829999923706055,16.829999923706055,148600
2018-08-15,16.850000381469727,17.260000228881836,16.0,16.600000381469727,16.600000381469727,156900
2018-08-16,16.739999771118164,17.40999984741211,16.0,17.350000381469727,17.350000381469727,87500
2018-08-17,17.260000228881836,17.540000915527344,16.059999465942383,16.190000534057617,16.190000534057617,66100
2018-08-20,16.209999084472656,16.229999542236328,15.069999694824219,15.65999984741211,15.65999984741211,112600
2018-08-21,15.65999984741211,16.829999923706055,15.520000457763672,16.6200008392334,16.6200008392334,64500
2018-08-22,16.6200008392334,16.829999923706055,16.030000686645508,16.170000076293945,16.170000076293945,76000
2018-08-23,16.170000076293945,17.3700008392334,15.859999656677246,16.959999084472656,16.959999084472656,63700
2018-08-24,16.93000030517578,17.010000228881836,15.949999809265137,16.0,16.0,63500
2018-08-27,16.020000457763672,16.25,15.489999771118164,15.619999885559082,15.619999885559082,64200
2018-08-28,15.649999618530273,16.170000076293945,15.470000267028809,15.920000076293945,15.920000076293945,40300
2018-08-29,15.890000343322754,16.270000457763672,15.720000267028809,15.9399995803833,15.9399995803833,77400
2018-08-30,15.9399995803833,16.75,15.75,16.420000076293945,16.420000076293945,164400
2018-08-31,16.3799991607666,16.889999389648438,16.049999237060547,16.649999618530273,16.649999618530273,29000
2018-09-04,16.719999313354492,16.799999237060547,16.25,16.469999313354492,16.469999313354492,39100
2018-09-05,16.440000534057617,17.09000015258789,16.030000686645508,17.059999465942383,17.059999465942383,56600
2018-09-06,17.100000381469727,17.100000381469727,15.9399995803833,15.960000038146973,15.960000038146973,77400
2018-09-07,15.850000381469727,16.469999313354492,15.850000381469727,16.350000381469727,16.350000381469727,41000
2018-09-10,16.40999984741211,18.329999923706055,16.350000381469727,17.920000076293945,17.920000076293945,153700
2018-09-11,17.709999084472656,18.3700008392334,17.489999771118164,17.829999923706055,17.829999923706055,83300
2018-09-12,17.84000015258789,19.15999984741211,17.790000915527344,18.979999542236328,18.979999542236328,107300
2018-09-13,19.100000381469727,20.639999389648438,18.809999465942383,20.020000457763672,20.020000457763672,132500
2018-09-14,20.09000015258789,21.799999237060547,19.280000686645508,20.510000228881836,20.510000228881836,59700
2018-09-17,20.440000534057617,20.440000534057617,19.579999923706055,20.010000228881836,20.010000228881836,115200
2018-09-18,20.399999618530273,21.040000915527344,19.895000457763672,20.649999618530273,20.649999618530273,59200
2018-09-19,20.790000915527344,22.0,19.809999465942383,20.3799991607666,20.3799991607666,95000
2018-09-20,20.540000915527344,20.985000610351562,19.959999084472656,20.40999984741211,20.40999984741211,33100
2018-09-21,20.440000534057617,21.56999969482422,19.8799991607666,21.56999969482422,21.56999969482422,202000
2018-09-24,21.530000686645508,22.889999389648438,21.02899932861328,22.850000381469727,22.850000381469727,79400
2018-09-25,22.889999389648438,23.219999313354492,22.110000610351562,22.709999084472656,22.709999084472656,148800
2018-09-26,22.709999084472656,22.950000762939453,22.1299991607666,22.530000686645508,22.530000686645508,137200
2018-09-27,22.649999618530273,22.969999313354492,21.510000228881836,22.56999969482422,22.56999969482422,153800
2018-09-28,22.280000686645508,23.309999465942383,22.1299991607666,22.860000610351562,22.860000610351562,71900
2018-10-01,22.860000610351562,23.469999313354492,21.5,22.219999313354492,22.219999313354492,132700
2018-10-02,22.170000076293945,22.709999084472656,21.459999084472656,21.93000030517578,21.93000030517578,195500
2018-10-03,21.93000030517578,22.350000381469727,21.149999618530273,21.959999084472656,21.959999084472656,68600
2018-10-04,21.68000030517578,22.280000686645508,21.084999084472656,21.790000915527344,21.790000915527344,115200
2018-10-05,21.889999389648438,22.299999237060547,19.860000610351562,20.540000915527344,20.540000915527344,175100
2018-10-08,20.440000534057617,23.8799991607666,19.700000762939453,20.040000915527344,20.040000915527344,107900
2018-10-09,19.959999084472656,20.479999542236328,19.256000518798828,20.079999923706055,20.079999923706055,139100
2018-10-10,20.030000686645508,20.239999771118164,19.579999923706055,19.93000030517578,19.93000030517578,169300
2018-10-11,19.850000381469727,20.399999618530273,18.979999542236328,19.8799991607666,19.8799991607666,317700
2018-10-12,20.190000534057617,20.80500030517578,19.829999923706055,19.979999542236328,19.979999542236328,139400
2018-10-15,19.93000030517578,20.200000762939453,18.0,19.799999237060547,19.799999237060547,124300
2018-10-16,19.959999084472656,20.139999389648438,19.530000686645508,20.040000915527344,20.040000915527344,216900
2018-10-17,19.979999542236328,20.450000762939453,19.700000762939453,19.90999984741211,19.90999984741211,90200
2018-10-18,19.829999923706055,20.200000762939453,19.399999618530273,20.049999237060547,20.049999237060547,66200
2018-10-19,20.049999237060547,21.1200008392334,19.854999542236328,19.93000030517578,19.93000030517578,64700
2018-10-22,19.979999542236328,20.315000534057617,19.0,19.75,19.75,152300
2018-10-23,19.469999313354492,20.0,19.280000686645508,19.43000030517578,19.43000030517578,134400
2018-10-24,19.440000534057617,19.825000762939453,19.0,19.06999969482422,19.06999969482422,156400
2018-10-25,19.1200008392334,19.559999465942383,18.415000915527344,18.899999618530273,18.899999618530273,84200
2018-10-26,18.729999542236328,19.65999984741211,18.280000686645508,19.040000915527344,19.040000915527344,80700
2018-10-29,19.18000030517578,19.80699920654297,18.469999313354492,18.90999984741211,18.90999984741211,93500
2018-10-30,19.0,19.219999313354492,18.059999465942383,18.389999389648438,18.389999389648438,97800
2018-10-31,18.6200008392334,19.954999923706055,18.364999771118164,18.81999969482422,18.81999969482422,100300
2018-11-01,18.93000030517578,20.940000534057617,18.93000030517578,20.350000381469727,20.350000381469727,120900
2018-11-02,20.43000030517578,20.540000915527344,19.65999984741211,20.100000381469727,20.100000381469727,122300
2018-11-05,20.15999984741211,20.25,19.190000534057617,19.950000762939453,19.950000762939453,38300
2018-11-06,20.100000381469727,20.701000213623047,19.65999984741211,20.200000762939453,20.200000762939453,89400
2018-11-07,20.1299991607666,20.860000610351562,19.799999237060547,20.200000762939453,20.200000762939453,83100
2018-11-08,20.139999389648438,20.45199966430664,20.020000457763672,20.270000457763672,20.270000457763672,89500
2018-11-09,20.18000030517578,20.7549991607666,19.81999969482422,20.139999389648438,20.139999389648438,96200
2018-11-12,20.100000381469727,20.389999389648438,19.920000076293945,20.0,20.0,117000
2018-11-13,20.079999923706055,20.389999389648438,19.649999618530273,19.959999084472656,19.959999084472656,88500
2018-11-14,20.350000381469727,20.399999618530273,19.670000076293945,19.920000076293945,19.920000076293945,156900
2018-11-15,19.790000915527344,20.46500015258789,19.729999542236328,20.020000457763672,20.020000457763672,104900
2018-11-16,19.809999465942383,21.065000534057617,19.709999084472656,20.5,20.5,740500
2018-11-19,20.610000610351562,20.6200008392334,18.3799991607666,19.200000762939453,19.200000762939453,83800
2018-11-20,18.979999542236328,19.540000915527344,18.3700008392334,18.399999618530273,18.399999618530273,67200
2018-11-21,18.40999984741211,19.809999465942383,18.200000762939453,19.59000015258789,19.59000015258789,92900
2018-11-23,19.309999465942383,20.829999923706055,18.934999465942383,20.190000534057617,20.190000534057617,91600
2018-11-26,20.229999542236328,20.639999389648438,19.899999618530273,20.559999465942383,20.559999465942383,213700
2018-11-27,20.450000762939453,20.690000534057617,20.100000381469727,20.31999969482422,20.31999969482422,88400
2018-11-28,20.219999313354492,22.149999618530273,20.0,22.06999969482422,22.06999969482422,116800
2018-11-29,22.100000381469727,23.59000015258789,21.600000381469727,21.93000030517578,21.93000030517578,89500
2018-11-30,21.809999465942383,22.649999618530273,21.299999237060547,21.989999771118164,21.989999771118164,168500
2018-12-03,22.329999923706055,23.829999923706055,22.19099998474121,23.520000457763672,23.520000457763672,147100
2018-12-04,22.989999771118164,25.93000030517578,22.551000595092773,23.709999084472656,23.709999084472656,251000
2018-12-06,23.549999237060547,25.579999923706055,23.229999542236328,24.510000228881836,24.510000228881836,86800
2018-12-07,24.709999084472656,25.139999389648438,23.850000381469727,24.979999542236328,24.979999542236328,135000
2018-12-10,25.18000030517578,26.450000762939453,25.030000686645508,26.299999237060547,26.299999237060547,133100
2018-12-11,26.43000030517578,26.5,24.0,24.229999542236328,24.229999542236328,158300
2018-12-12,24.420000076293945,24.8799991607666,24.219999313354492,24.489999771118164,24.489999771118164,161800
2018-12-13,24.489999771118164,25.05500030517578,23.510000228881836,23.93000030517578,23.93000030517578,136400
2018-12-14,23.81999969482422,24.770000457763672,23.600000381469727,24.280000686645508,24.280000686645508,104400
2018-12-17,24.1299991607666,24.770000457763672,23.0049991607666,23.709999084472656,23.709999084472656,143000
2018-12-18,23.729999542236328,24.594999313354492,22.777000427246094,23.450000762939453,23.450000762939453,218600
2018-12-19,23.68000030517578,23.989999771118164,22.239999771118164,22.969999313354492,22.969999313354492,208900
2018-12-20,22.780000686645508,23.31999969482422,20.5,20.709999084472656,20.709999084472656,261700
2018-12-21,20.700000762939453,21.15999984741211,19.1299991607666,19.479999542236328,19.479999542236328,1534600
2018-12-24,19.5,20.71500015258789,19.5,20.059999465942383,20.059999465942383,89200
2018-12-26,20.25,22.40999984741211,19.940000534057617,21.489999771118164,21.489999771118164,182000
2018-12-27,21.280000686645508,21.89900016784668,20.420000076293945,21.280000686645508,21.280000686645508,176600
2018-12-28,21.360000610351562,22.479999542236328,21.1200008392334,21.829999923706055,21.829999923706055,95100
2018-12-31,22.18000030517578,22.93000030517578,21.389999389648438,22.360000610351562,22.360000610351562,179200
2019-01-02,21.969999313354492,24.93000030517578,21.0,24.510000228881836,24.510000228881836,197000
2019-01-03,24.299999237060547,25.049999237060547,24.040000915527344,24.350000381469727,24.350000381469727,235000
2019-01-04,24.719999313354492,24.899999618530273,24.30500030517578,24.469999313354492,24.469999313354492,145400
2019-01-07,25.469999313354492,25.860000610351562,24.200000762939453,24.510000228881836,24.510000228881836,182700
2019-01-08,24.850000381469727,25.93400001525879,24.260000228881836,25.520000457763672,25.520000457763672,186900
2019-01-09,25.68000030517578,25.920000076293945,24.799999237060547,24.979999542236328,24.979999542236328,159600
2019-01-10,24.780000686645508,24.934999465942383,23.729999542236328,24.780000686645508,24.780000686645508,95300
2019-01-11,24.770000457763672,25.3799991607666,24.020000457763672,24.8700008392334,24.8700008392334,178200
2019-01-14,24.90999984741211,24.90999984741211,23.64699935913086,23.770000457763672,23.770000457763672,62500
2019-01-15,23.959999084472656,24.799999237060547,23.729999542236328,23.860000610351562,23.860000610351562,108400
2019-01-16,23.920000076293945,24.889999389648438,23.850000381469727,24.56999969482422,24.56999969482422,58800
2019-01-17,24.639999389648438,24.8700008392334,23.670000076293945,23.799999237060547,23.799999237060547,142800
2019-01-18,23.65999984741211,24.23900032043457,22.600000381469727,22.850000381469727,22.850000381469727,105500
2019-01-22,22.670000076293945,23.719999313354492,22.200000762939453,23.09000015258789,23.09000015258789,124200
2019-01-23,23.049999237060547,23.5,21.5,21.56999969482422,21.56999969482422,91000
2019-01-24,21.56999969482422,22.1200008392334,21.43000030517578,21.700000762939453,21.700000762939453,82300
2019-01-25,21.920000076293945,22.174999237060547,21.110000610351562,21.700000762939453,21.700000762939453,162400
2019-01-28,21.600000381469727,21.860000610351562,20.520000457763672,20.770000457763672,20.770000457763672,170000
2019-01-29,20.81999969482422,20.81999969482422,19.68000030517578,19.760000228881836,19.760000228881836,144500
2019-01-30,19.969999313354492,20.260000228881836,18.6200008392334,20.25,20.25,81100
2019-01-31,20.239999771118164,21.43000030517578,20.200000762939453,20.270000457763672,20.270000457763672,74100
2019-02-01,20.3799991607666,20.959999084472656,19.860000610351562,20.829999923706055,20.829999923706055,79200
2019-02-04,21.040000915527344,21.579999923706055,20.690000534057617,21.549999237060547,21.549999237060547,91100
2019-02-05,21.639999389648438,22.540000915527344,21.309999465942383,21.389999389648438,21.389999389648438,74700
2019-02-06,21.389999389648438,21.889999389648438,21.299999237060547,21.450000762939453,21.450000762939453,42700
2019-02-07,21.280000686645508,21.700000762939453,20.190000534057617,20.8799991607666,20.8799991607666,48500
2019-02-08,20.81999969482422,21.940000534057617,20.559999465942383,21.43000030517578,21.43000030517578,94000
2019-02-11,21.649999618530273,22.260000228881836,21.530000686645508,21.889999389648438,21.889999389648438,63500
2019-02-12,22.219999313354492,24.229999542236328,22.219999313354492,23.709999084472656,23.709999084472656,58400
2019-02-13,23.84000015258789,24.75,23.559999465942383,24.100000381469727,24.100000381469727,73800
2019-02-14,24.100000381469727,24.100000381469727,23.149999618530273,23.440000534057617,23.440000534057617,91100
2019-02-15,23.610000610351562,24.55500030517578,22.8700008392334,24.420000076293945,24.420000076293945,143600
2019-02-19,24.43000030517578,24.614999771118164,23.610000610351562,24.030000686645508,24.030000686645508,92600
2019-02-20,24.68000030517578,24.899999618530273,23.8799991607666,24.799999237060547,24.799999237060547,114600
2019-02-21,24.65999984741211,24.899999618530273,23.750999450683594,24.079999923706055,24.079999923706055,107200
2019-02-22,24.239999771118164,24.725000381469727,23.700000762939453,24.239999771118164,24.239999771118164,74200
2019-02-25,24.5,27.09000015258789,24.100000381469727,27.020000457763672,27.020000457763672,378600
2019-02-26,26.889999389648438,29.8700008392334,26.889999389648438,28.989999771118164,28.989999771118164,349000
2019-02-27,29.0,31.799999237060547,28.3799991607666,29.56999969482422,29.56999969482422,436800
2019-02-28,29.6299991607666,30.020000457763672,28.25,29.479999542236328,29.479999542236328,86200
2019-03-01,29.760000228881836,30.56999969482422,28.829999923706055,29.0,29.0,256600
2019-03-04,29.260000228881836,30.34000015258789,27.93000030517578,28.709999084472656,28.709999084472656,118900
2019-03-05,28.780000686645508,29.56999969482422,27.809999465942383,28.1299991607666,28.1299991607666,118700
2019-03-06,28.139999389648438,28.139999389648438,25.81999969482422,26.610000610351562,26.610000610351562,159000
2019-03-07,26.780000686645508,28.44499969482422,26.010000228881836,28.110000610351562,28.110000610351562,323100
2019-03-08,27.950000762939453,27.950000762939453,26.049999237060547,26.399999618530273,26.399999618530273,70400
2019-03-11,26.399999618530273,27.360000610351562,26.399999618530273,27.209999084472656,27.209999084472656,41900
2019-03-12,27.200000762939453,27.649999618530273,25.850000381469727,25.989999771118164,25.989999771118164,162500
2019-03-13,26.020000457763672,26.239999771118164,24.989999771118164,25.780000686645508,25.780000686645508,87600
2019-03-14,25.8799991607666,26.84000015258789,25.579999923706055,26.260000228881836,26.260000228881836,77500
2019-03-15,26.239999771118164,27.6200008392334,26.076000213623047,26.489999771118164,26.489999771118164,226400
2019-03-18,26.600000381469727,28.280000686645508,26.299999237060547,27.90999984741211,27.90999984741211,156700
2019-03-19,27.940000534057617,28.31999969482422,26.735000610351562,27.1200008392334,27.1200008392334,83900
2019-03-20,27.040000915527344,28.209999084472656,27.040000915527344,27.479999542236328,27.479999542236328,74000
2019-03-21,27.459999084472656,29.290000915527344,27.0,28.350000381469727,28.350000381469727,341300
2019-03-22,28.200000762939453,28.239999771118164,25.700000762939453,25.760000228881836,25.760000228881836,106500
2019-03-25,25.81999969482422,26.450000762939453,24.895000457763672,26.299999237060547,26.299999237060547,115300
2019-03-26,26.489999771118164,27.459999084472656,26.389999389648438,27.040000915527344,27.040000915527344,70800
2019-03-27,27.06999969482422,27.829999923706055,26.312000274658203,27.229999542236328,27.229999542236328,76100
2019-03-28,27.389999389648438,28.079999923706055,27.190000534057617,27.959999084472656,27.959999084472656,58000
2019-03-29,28.1200008392334,28.364999771118164,27.350000381469727,27.729999542236328,27.729999542236328,99300
2019-04-01,27.899999618530273,29.219999313354492,27.559999465942383,29.139999389648438,29.139999389648438,139800
2019-04-02,28.280000686645508,29.93000030517578,26.68000030517578,29.440000534057617,29.440000534057617,256300
2019-04-03,30.100000381469727,30.100000381469727,28.280000686645508,29.079999923706055,29.079999923706055,96800
2019-04-04,29.100000381469727,29.690000534057617,28.670000076293945,29.270000457763672,29.270000457763672,131100
2019-04-05,29.350000381469727,31.5,29.350000381469727,30.34000015258789,30.34000015258789,275500
2019-04-08,30.18000030517578,30.18000030517578,28.559999465942383,29.559999465942383,29.559999465942383,112800
2019-04-09,27.56999969482422,28.56999969482422,23.520000457763672,23.56999969482422,23.56999969482422,474100
2019-04-10,22.0,22.389999389648438,21.639999389648438,22.110000610351562,22.110000610351562,2463900
2019-04-11,22.239999771118164,22.89699935913086,21.709999084472656,22.049999237060547,22.049999237060547,791400
2019-04-12,22.5,22.674999237060547,22.0,22.389999389648438,22.389999389648438,631500
2019-04-15,22.270000457763672,22.829999923706055,22.209999084472656,22.43000030517578,22.43000030517578,674100
2019-04-16,22.989999771118164,23.299999237060547,22.5,22.770000457763672,22.770000457763672,682600
2019-04-17,22.760000228881836,23.100000381469727,21.799999237060547,22.780000686645508,22.780000686645508,512700
2019-04-18,22.610000610351562,23.110000610351562,22.020000457763672,22.15999984741211,22.15999984741211,1196400
2019-04-22,22.299999237060547,22.770000457763672,21.329999923706055,21.81999969482422,21.81999969482422,366400
2019-04-23,21.65999984741211,23.489999771118164,21.65999984741211,23.260000228881836,23.260000228881836,469200
2019-04-24,23.329999923706055,23.350000381469727,21.979999542236328,22.079999923706055,22.079999923706055,232000
2019-04-25,22.040000915527344,22.68000030517578,21.8799991607666,22.440000534057617,22.440000534057617,138300
2019-04-26,22.420000076293945,22.579999923706055,22.149999618530273,22.31999969482422,22.31999969482422,155000
2019-04-29,22.290000915527344,22.670000076293945,21.69300079345703,22.209999084472656,22.209999084472656,235100
2019-04-30,22.139999389648438,22.469999313354492,21.149999618530273,21.520000457763672,21.520000457763672,285100
2019-05-01,21.68000030517578,21.84000015258789,21.040000915527344,21.420000076293945,21.420000076293945,300500
2019-05-02,21.350000381469727,21.989999771118164,21.350000381469727,21.690000534057617,21.690000534057617,162000
2019-05-03,21.799999237060547,22.440000534057617,21.6299991607666,22.31999969482422,22.31999969482422,183400
2019-05-06,21.920000076293945,23.139999389648438,21.687999725341797,22.700000762939453,22.700000762939453,368500
2019-05-07,22.200000762939453,22.75,22.100000381469727,22.540000915527344,22.540000915527344,326800
2019-05-08,22.479999542236328,23.079999923706055,21.940000534057617,22.18000030517578,22.18000030517578,185500
2019-05-09,22.0,22.579999923706055,21.083999633789062,22.3700008392334,22.3700008392334,137400
2019-05-10,22.18000030517578,23.0,22.020000457763672,22.729999542236328,22.729999542236328,217400
2019-05-13,22.280000686645508,22.44499969482422,21.81999969482422,22.219999313354492,22.219999313354492,173600
2019-05-14,21.420000076293945,22.969999313354492,21.420000076293945,22.649999618530273,22.649999618530273,228300
2019-05-15,22.420000076293945,22.889999389648438,22.34000015258789,22.520000457763672,22.520000457763672,137400
2019-05-16,22.520000457763672,22.829999923706055,21.8799991607666,22.350000381469727,22.350000381469727,249300
2019-05-17,22.18000030517578,22.639999389648438,21.899999618530273,22.399999618530273,22.399999618530273,124900
2019-05-20,22.15999984741211,23.059999465942383,21.889999389648438,22.1299991607666,22.1299991607666,71500
2019-05-21,22.06999969482422,22.84000015258789,21.514999389648438,22.649999618530273,22.649999618530273,201200
2019-05-22,22.670000076293945,22.90999984741211,21.829999923706055,21.90999984741211,21.90999984741211,104300
2019-05-23,21.610000610351562,21.81999969482422,20.0,20.479999542236328,20.479999542236328,314800
2019-05-24,20.559999465942383,21.299999237060547,20.0,20.049999237060547,20.049999237060547,135700
2019-05-28,20.100000381469727,20.889999389648438,20.0,20.420000076293945,20.420000076293945,205700
2019-05-29,20.25,20.850000381469727,20.059999465942383,20.600000381469727,20.600000381469727,140200
2019-05-30,21.229999542236328,21.229999542236328,20.219999313354492,20.399999618530273,20.399999618530273,192700
2019-05-31,20.139999389648438,20.6200008392334,19.780000686645508,20.239999771118164,20.239999771118164,111600
2019-06-03,20.149999618530273,20.5,19.43000030517578,19.670000076293945,19.670000076293945,344200
2019-06-04,19.920000076293945,20.3799991607666,19.510000228881836,19.93000030517578,19.93000030517578,155300
2019-06-05,19.920000076293945,20.00200080871582,19.530000686645508,19.829999923706055,19.829999923706055,106600
2019-06-06,19.790000915527344,19.94099998474121,19.350000381469727,19.510000228881836,19.510000228881836,139100
2019-06-07,19.510000228881836,20.100000381469727,19.440000534057617,19.799999237060547,19.799999237060547,124800
2019-06-10,19.90999984741211,20.079999923706055,19.0,19.190000534057617,19.190000534057617,131700
2019-06-11,19.40999984741211,19.40999984741211,18.270000457763672,18.670000076293945,18.670000076293945,300800
2019-06-12,18.75,19.270000457763672,18.3700008392334,18.399999618530273,18.399999618530273,187800
2019-06-13,18.399999618530273,18.850000381469727,17.6299991607666,18.450000762939453,18.450000762939453,271500
2019-06-14,18.299999237060547,18.600000381469727,17.975000381469727,18.549999237060547,18.549999237060547,132100
2019-06-17,18.510000228881836,20.469999313354492,18.510000228881836,19.1299991607666,19.1299991607666,283300
2019-06-18,19.34000015258789,20.299999237060547,19.239999771118164,20.110000610351562,20.110000610351562,111500
2019-06-19,20.079999923706055,20.31800079345703,18.93000030517578,19.139999389648438,19.139999389648438,112300
2019-06-20,19.43000030517578,20.020000457763672,18.709999084472656,19.219999313354492,19.219999313354492,88600
2019-06-21,19.100000381469727,19.90999984741211,18.309999465942383,19.59000015258789,19.59000015258789,877400
2019-06-24,19.5,19.729999542236328,18.329999923706055,18.350000381469727,18.350000381469727,214600
2019-06-25,18.3700008392334,19.5,18.059999465942383,18.860000610351562,18.860000610351562,116800
2019-06-26,18.829999923706055,18.989999771118164,18.329999923706055,18.469999313354492,18.469999313354492,107700
2019-06-27,18.43000030517578,19.40999984741211,18.260000228881836,19.309999465942383,19.309999465942383,156000
2019-06-28,19.350000381469727,19.989999771118164,18.979999542236328,19.56999969482422,19.56999969482422,1163600
2019-07-01,19.739999771118164,20.0,18.530000686645508,18.739999771118164,18.739999771118164,273100
2019-07-02,18.760000228881836,18.940000534057617,18.413000106811523,18.690000534057617,18.690000534057617,109900
2019-07-03,18.84000015258789,18.860000610351562,18.40999984741211,18.81999969482422,18.81999969482422,76900
2019-07-05,18.700000762939453,18.989999771118164,18.01300048828125,18.219999313354492,18.219999313354492,188800
2019-07-08,18.219999313354492,18.655000686645508,17.709999084472656,18.489999771118164,18.489999771118164,155500
2019-07-09,18.31999969482422,20.649999618530273,18.31999969482422,20.510000228881836,20.510000228881836,548800
2019-07-10,20.510000228881836,20.850000381469727,19.315000534057617,19.40999984741211,19.40999984741211,192500
2019-07-11,19.450000762939453,19.93000030517578,18.670000076293945,19.25,19.25,120900
2019-07-12,19.100000381469727,19.84000015258789,18.55699920654297,19.510000228881836,19.510000228881836,125600
2019-07-15,19.559999465942383,19.610000610351562,19.0,19.600000381469727,19.600000381469727,113600
2019-07-16,19.6299991607666,20.799999237060547,19.549999237060547,20.579999923706055,20.579999923706055,147500
2019-07-17,20.610000610351562,20.709999084472656,20.155000686645508,20.540000915527344,20.540000915527344,184200
2019-07-18,20.670000076293945,21.049999237060547,20.479999542236328,20.8799991607666,20.8799991607666,164300
2019-07-19,20.899999618530273,21.360000610351562,20.530000686645508,20.799999237060547,20.799999237060547,150700
2019-07-22,20.8700008392334,22.399999618530273,20.709999084472656,22.1299991607666,22.1299991607666,247700
2019-07-23,22.170000076293945,22.354999542236328,21.895000457763672,22.059999465942383,22.059999465942383,212800
2019-07-24,22.0,22.520000457763672,21.959999084472656,22.280000686645508,22.280000686645508,169700
2019-07-25,22.3700008392334,22.5,17.670000076293945,17.799999237060547,17.799999237060547,1651000
2019-07-26,18.219999313354492,18.774999618530273,16.280000686645508,17.709999084472656,17.709999084472656,1472200
2019-07-29,17.700000762939453,18.6299991607666,17.65999984741211,18.399999618530273,18.399999618530273,293500
2019-07-30,18.290000915527344,18.989999771118164,18.020000457763672,18.690000534057617,18.690000534057617,316600
2019-07-31,18.719999313354492,18.719999313354492,17.709999084472656,17.780000686645508,17.780000686645508,272900
2019-08-01,17.709999084472656,17.780000686645508,16.729999542236328,17.549999237060547,17.549999237060547,424200
2019-08-02,17.25,17.940000534057617,16.350000381469727,16.469999313354492,16.469999313354492,303700
2019-08-05,16.219999313354492,16.56999969482422,15.489999771118164,15.920000076293945,15.920000076293945,289800
2019-08-06,16.040000915527344,16.329999923706055,15.510000228881836,15.979999542236328,15.979999542236328,310100
2019-08-07,15.789999961853027,16.889999389648438,15.449999809265137,15.680000305175781,15.680000305175781,136400
2019-08-08,15.84000015258789,15.84000015258789,15.529999732971191,15.789999961853027,15.789999961853027,220500
2019-08-09,15.470000267028809,17.25,15.0600004196167,15.800000190734863,15.800000190734863,144900
2019-08-12,15.699999809265137,15.699999809265137,14.1899995803833,14.739999771118164,14.739999771118164,257000
2019-08-13,14.710000038146973,15.609999656677246,14.420000076293945,15.25,15.25,132700
2019-08-14,14.920000076293945,15.770000457763672,14.8100004196167,15.550000190734863,15.550000190734863,225200
2019-08-15,15.550000190734863,16.014999389648438,14.949999809265137,15.75,15.75,280800
2019-08-16,15.930000305175781,17.040000915527344,15.680000305175781,16.780000686645508,16.780000686645508,252700
2019-08-19,16.989999771118164,17.729999542236328,16.469999313354492,17.59000015258789,17.59000015258789,211800
2019-08-20,17.43000030517578,17.799999237060547,17.03499984741211,17.5,17.5,238300
2019-08-21,17.639999389648438,18.079999923706055,17.389999389648438,17.950000762939453,17.950000762939453,200700
2019-08-22,18.15999984741211,18.81999969482422,17.750999450683594,18.719999313354492,18.719999313354492,254700
2019-08-23,18.719999313354492,19.309999465942383,18.389999389648438,19.110000610351562,19.110000610351562,597400
2019-08-26,19.31999969482422,19.579999923706055,18.670000076293945,18.889999389648438,18.889999389648438,220100
2019-08-27,19.049999237060547,19.149999618530273,18.315000534057617,18.540000915527344,18.540000915527344,256700
2019-08-28,18.450000762939453,19.219999313354492,18.350000381469727,19.059999465942383,19.059999465942383,190900
2019-08-29,19.219999313354492,19.43000030517578,19.0,19.299999237060547,19.299999237060547,185500
2019-08-30,19.34000015258789,19.34000015258789,18.645000457763672,18.90999984741211,18.90999984741211,75300
2019-09-03,18.75,19.40999984741211,18.309999465942383,19.0,19.0,267900
2019-09-04,19.229999542236328,19.3700008392334,18.895000457763672,19.290000915527344,19.290000915527344,160300
2019-09-05,19.5,20.1200008392334,19.0049991607666,20.079999923706055,20.079999923706055,264400
2019-09-06,20.06999969482422,20.618999481201172,19.850000381469727,20.209999084472656,20.209999084472656,221300
2019-09-09,20.299999237060547,21.31999969482422,20.190000534057617,21.059999465942383,21.059999465942383,232400
2019-09-10,21.440000534057617,24.0,21.100000381469727,21.700000762939453,21.700000762939453,538000
2019-09-11,21.65999984741211,22.360000610351562,20.847999572753906,21.229999542236328,21.229999542236328,253800
2019-09-12,21.25,21.25,20.3700008392334,20.479999542236328,20.479999542236328,110100
2019-09-13,20.34000015258789,20.84000015258789,19.510000228881836,20.600000381469727,20.600000381469727,120800
2019-09-16,20.450000762939453,21.139999389648438,20.450000762939453,20.670000076293945,20.670000076293945,96100
2019-09-17,20.6299991607666,21.770000457763672,20.594999313354492,21.559999465942383,21.559999465942383,278800
2019-09-18,21.549999237060547,21.850000381469727,20.889999389648438,21.450000762939453,21.450000762939453,223800
2019-09-19,21.510000228881836,21.799999237060547,20.239999771118164,20.399999618530273,20.399999618530273,139400
2019-09-20,20.3700008392334,21.0,20.190000534057617,20.979999542236328,20.979999542236328,464100
2019-09-23,20.969999313354492,21.270000457763672,19.389999389648438,19.56999969482422,19.56999969482422,145400
2019-09-24,19.809999465942383,19.989999771118164,18.174999237060547,18.510000228881836,18.510000228881836,150900
2019-09-25,18.520000457763672,19.420000076293945,18.239999771118164,19.309999465942383,19.309999465942383,224000
2019-09-26,19.309999465942383,19.510000228881836,18.350000381469727,18.6299991607666,18.6299991607666,170100
2019-09-27,18.579999923706055,19.09000015258789,17.78499984741211,18.059999465942383,18.059999465942383,213700
2019-09-30,18.1299991607666,18.399999618530273,17.399999618530273,18.100000381469727,18.100000381469727,157600
2019-10-01,18.059999465942383,18.3700008392334,17.059999465942383,17.200000762939453,17.200000762939453,269100
2019-10-02,17.1299991607666,17.90999984741211,16.336999893188477,17.020000457763672,17.020000457763672,142200
2019-10-03,16.969999313354492,17.239999771118164,16.424999237060547,17.190000534057617,17.190000534057617,170900
2019-10-04,17.280000686645508,18.079999923706055,16.079999923706055,16.3799991607666,16.3799991607666,151500
2019-10-07,16.270000457763672,16.299999237060547,15.59000015258789,15.59000015258789,15.59000015258789,191200
2019-10-08,15.460000038146973,15.609999656677246,14.850000381469727,14.920000076293945,14.920000076293945,192300
2019-10-09,15.0600004196167,15.170000076293945,14.029999732971191,14.199999809265137,14.199999809265137,194800
2019-10-10,14.220000267028809,14.289999961853027,13.739999771118164,14.15999984741211,14.15999984741211,228000
2019-10-11,14.390000343322754,14.5600004196167,13.829999923706055,13.850000381469727,13.850000381469727,160100
2019-10-14,13.9399995803833,14.359999656677246,13.520000457763672,13.800000190734863,13.800000190734863,303100
2019-10-15,13.84000015258789,14.680000305175781,13.600000381469727,14.289999961853027,14.289999961853027,171500
2019-10-16,14.260000228881836,14.40999984741211,13.59000015258789,13.670000076293945,13.670000076293945,122300
2019-10-17,13.720000267028809,14.109999656677246,13.152000427246094,13.390000343322754,13.390000343322754,413700
2019-10-18,13.430000305175781,13.600000381469727,12.65999984741211,13.020000457763672,13.020000457763672,340100
2019-10-21,13.0,13.880000114440918,12.720000267028809,13.649999618530273,13.649999618530273,176000
2019-10-22,13.710000038146973,13.930000305175781,13.300000190734863,13.739999771118164,13.739999771118164,108200
2019-10-23,13.710000038146973,13.859999656677246,13.079999923706055,13.1899995803833,13.1899995803833,151700
2019-10-24,13.3100004196167,13.494999885559082,12.90999984741211,13.430000305175781,13.430000305175781,118100
2019-10-25,13.420000076293945,13.845000267028809,13.119999885559082,13.229999542236328,13.229999542236328,138000
2019-10-28,13.3100004196167,13.375,12.739999771118164,12.819999694824219,12.819999694824219,303700
2019-10-29,12.84000015258789,13.399999618530273,12.350000381469727,12.970000267028809,12.970000267028809,319700
2019-10-30,13.0,13.093999862670898,12.430000305175781,12.84000015258789,12.84000015258789,423500
2019-10-31,12.819999694824219,13.449999809265137,12.59000015258789,13.130000114440918,13.130000114440918,183900
2019-11-01,13.140000343322754,13.28600025177002,12.300000190734863,12.729999542236328,12.729999542236328,373200
2019-11-04,12.710000038146973,12.949999809265137,12.460000038146973,12.600000381469727,12.600000381469727,305400
2019-11-05,12.609999656677246,12.760000228881836,12.170000076293945,12.380000114440918,12.380000114440918,145800
2019-11-06,12.369999885559082,12.505000114440918,11.6899995803833,11.779999732971191,11.779999732971191,183300
2019-11-07,11.869999885559082,12.069999694824219,11.550000190734863,11.890000343322754,11.890000343322754,179100
2019-11-08,11.869999885559082,11.890000343322754,11.260000228881836,11.449999809265137,11.449999809265137,171100
2019-11-11,11.460000038146973,11.710000038146973,11.050000190734863,11.420000076293945,11.420000076293945,152100
2019-11-12,11.430000305175781,11.720000267028809,11.229999542236328,11.470000267028809,11.470000267028809,114800
2019-11-13,11.470000267028809,12.699999809265137,11.100000381469727,12.09000015258789,12.09000015258789,250700
2019-11-14,12.09000015258789,13.545000076293945,11.920000076293945,13.329999923706055,13.329999923706055,479700
2019-11-15,13.390000343322754,13.510000228881836,12.899999618530273,13.449999809265137,13.449999809265137,209800
2019-11-18,13.479999542236328,13.710000038146973,13.279999732971191,13.670000076293945,13.670000076293945,249300
2019-11-19,13.75,14.520000457763672,13.6899995803833,14.149999618530273,14.149999618530273,669700
2019-11-20,14.130000114440918,14.619999885559082,14.039999961853027,14.420000076293945,14.420000076293945,349000
2019-11-21,14.460000038146973,14.460000038146973,13.890000343322754,14.350000381469727,14.350000381469727,193200
2019-11-22,14.369999885559082,15.100000381469727,14.3100004196167,14.930000305175781,14.930000305175781,195000
2019-11-25,15.119999885559082,15.329999923706055,14.569999694824219,15.074999809265137,15.074999809265137,188700
2019-11-26,15.140000343322754,15.619999885559082,14.819999694824219,15.25,15.25,625500
2019-11-27,15.359999656677246,15.609999656677246,14.229999542236328,15.550000190734863,15.550000190734863,162500
2019-11-29,15.550000190734863,16.375,15.399999618530273,16.0,16.0,176100
2019-12-02,16.06999969482422,17.18000030517578,15.949999809265137,17.139999389648438,17.139999389648438,415800
2019-12-03,17.889999389648438,18.635000228881836,17.101999282836914,18.31999969482422,18.31999969482422,667900
2019-12-04,18.200000762939453,18.200000762939453,17.219999313354492,17.959999084472656,17.959999084472656,281100
2019-12-05,17.979999542236328,17.979999542236328,17.1299991607666,17.770000457763672,17.770000457763672,417100
2019-12-06,17.459999084472656,18.334999084472656,17.170000076293945,18.170000076293945,18.170000076293945,349300
2019-12-09,18.290000915527344,18.6200008392334,17.450000762939453,17.56999969482422,17.56999969482422,255500
2019-12-10,17.520000457763672,18.610000610351562,17.329999923706055,18.56999969482422,18.56999969482422,272100
2019-12-11,18.59000015258789,20.579999923706055,17.65999984741211,19.920000076293945,19.920000076293945,1256300
2019-12-12,20.520000457763672,21.59000015258789,20.0,20.149999618530273,20.149999618530273,502200
2019-12-13,20.18000030517578,21.40999984741211,20.18000030517578,20.709999084472656,20.709999084472656,206100
2019-12-16,21.0,22.44499969482422,20.850000381469727,21.940000534057617,21.940000534057617,417800
2019-12-17,21.860000610351562,22.170000076293945,21.30299949645996,21.75,21.75,304900
2019-12-18,19.5,21.75,19.5,20.7549991607666,20.7549991607666,1446700
2019-12-19,20.770000457763672,21.979999542236328,20.770000457763672,21.360000610351562,21.360000610351562,1411200
2019-12-20,21.459999084472656,21.540000915527344,20.719999313354492,21.420000076293945,21.420000076293945,558500
2019-12-23,21.389999389648438,22.299999237060547,21.1200008392334,22.010000228881836,22.010000228881836,324300
2019-12-24,22.010000228881836,22.209999084472656,21.700000762939453,22.190000534057617,22.190000534057617,474300
2019-12-26,22.3700008392334,22.5,21.670000076293945,21.850000381469727,21.850000381469727,122300
2019-12-27,21.860000610351562,22.059999465942383,21.3700008392334,21.59000015258789,21.59000015258789,234700
2019-12-30,21.559999465942383,21.600000381469727,20.75,20.790000915527344,20.790000915527344,309700
2019-12-31,20.790000915527344,21.0,20.329999923706055,20.700000762939453,20.700000762939453,344100
2020-01-02,20.700000762939453,20.8700008392334,20.3799991607666,20.530000686645508,20.530000686645508,304700
2020-01-03,20.309999465942383,21.229999542236328,18.299999237060547,18.690000534057617,18.690000534057617,753200
2020-01-06,18.5,19.200000762939453,18.309999465942383,18.40999984741211,18.40999984741211,287300
2020-01-07,18.479999542236328,18.815000534057617,18.020000457763672,18.350000381469727,18.350000381469727,221400
2020-01-08,18.350000381469727,18.549999237060547,17.8700008392334,17.969999313354492,17.969999313354492,281600
2020-01-09,18.1200008392334,18.530000686645508,17.610000610351562,17.829999923706055,17.829999923706055,275100
2020-01-10,17.850000381469727,18.655000686645508,17.75,17.8700008392334,17.8700008392334,196100
2020-01-13,17.889999389648438,17.889999389648438,17.309999465942383,17.34000015258789,17.34000015258789,285700
2020-01-14,17.34000015258789,17.649999618530273,17.149999618530273,17.239999771118164,17.239999771118164,262000
2020-01-15,17.280000686645508,17.610000610351562,17.084999084472656,17.389999389648438,17.389999389648438,234300
2020-01-16,17.5,17.709999084472656,17.200000762939453,17.610000610351562,17.610000610351562,185600
2020-01-17,17.770000457763672,18.225000381469727,17.239999771118164,17.34000015258789,17.34000015258789,297100
2020-01-21,17.360000610351562,17.530000686645508,16.329999923706055,16.479999542236328,16.479999542236328,261900
2020-01-22,16.5,16.81800079345703,16.149999618530273,16.170000076293945,16.170000076293945,146200
2020-01-23,16.200000762939453,16.739999771118164,15.729999542236328,16.475000381469727,16.475000381469727,240800
2020-01-24,16.59000015258789,16.68000030517578,15.5,15.710000038146973,15.710000038146973,641500
2020-01-27,15.739999771118164,16.91699981689453,15.460000038146973,15.510000228881836,15.510000228881836,411400
2020-01-28,15.600000381469727,15.8149995803833,15.319999694824219,15.399999618530273,15.399999618530273,172000
2020-01-29,15.399999618530273,15.631999969482422,15.220000267028809,15.319999694824219,15.319999694824219,254400
2020-01-30,15.270000457763672,16.93199920654297,15.25,15.989999771118164,15.989999771118164,713400
2020-01-31,15.960000038146973,16.06999969482422,15.40999984741211,15.649999618530273,15.649999618530273,176200
2020-02-03,15.800000190734863,16.790000915527344,15.65999984741211,16.760000228881836,16.760000228881836,352100
2020-02-04,17.0,17.959999084472656,16.975000381469727,17.489999771118164,17.489999771118164,232300
2020-02-05,17.68000030517578,18.264999389648438,17.58799934387207,17.93000030517578,17.93000030517578,233100
2020-02-06,17.989999771118164,18.270000457763672,17.15999984741211,17.469999313354492,17.469999313354492,194200
2020-02-07,17.399999618530273,18.0,17.329999923706055,17.3799991607666,17.3799991607666,115400
2020-02-10,17.59000015258789,18.510000228881836,17.59000015258789,18.420000076293945,18.420000076293945,140000
2020-02-11,18.549999237060547,19.260000228881836,18.549999237060547,18.90999984741211,18.90999984741211,148200
2020-02-12,19.040000915527344,19.489999771118164,18.700000762939453,19.399999618530273,19.399999618530273,149800
2020-02-13,19.350000381469727,19.889999389648438,18.399999618530273,18.479999542236328,18.479999542236328,178200
2020-02-14,18.510000228881836,18.899999618530273,18.24799919128418,18.84000015258789,18.84000015258789,129600
2020-02-18,18.899999618530273,19.1299991607666,18.43000030517578,18.729999542236328,18.729999542236328,89200
2020-02-19,18.739999771118164,18.950000762939453,18.40999984741211,18.770000457763672,18.770000457763672,103600
2020-02-20,18.760000228881836,18.760000228881836,17.6200008392334,17.829999923706055,17.829999923706055,108200
2020-02-21,17.8700008392334,17.8700008392334,17.290000915527344,17.674999237060547,17.674999237060547,116500
2020-02-24,17.6200008392334,17.670000076293945,17.059999465942383,17.079999923706055,17.079999923706055,250700
2020-02-25,17.079999923706055,17.079999923706055,15.779999732971191,15.819999694824219,15.819999694824219,157200
2020-02-26,15.920000076293945,16.709999084472656,15.78499984741211,16.059999465942383,16.059999465942383,114500
2020-02-27,15.770000457763672,16.360000610351562,15.100000381469727,15.510000228881836,15.510000228881836,180200
2020-02-28,14.899999618530273,16.170000076293945,14.899999618530273,16.0,16.0,443700
2020-03-02,16.34000015258789,17.09000015258789,15.989999771118164,17.0,17.0,279600
2020-03-03,17.040000915527344,19.809999465942383,17.040000915527344,19.809999465942383,19.809999465942383,686400
2020-03-04,20.0,22.079999923706055,19.795000076293945,22.040000915527344,22.040000915527344,646400
2020-03-05,21.579999923706055,22.3799991607666,20.200000762939453,21.75,21.75,300900
2020-03-06,20.850000381469727,22.0,19.860000610351562,20.780000686645508,20.780000686645508,388200
2020-03-09,19.700000762939453,20.639999389648438,18.56999969482422,18.6299991607666,18.6299991607666,254700
2020-03-10,19.219999313354492,19.2450008392334,17.760000228881836,18.68000030517578,18.68000030517578,231500
2020-03-11,18.149999618530273,18.700000762939453,17.299999237060547,17.90999984741211,17.90999984741211,416200
2020-03-12,16.6200008392334,16.809999465942383,14.0,14.0600004196167,14.0600004196167,483300
2020-03-13,15.149999618530273,15.229999542236328,12.45199966430664,14.890000343322754,14.890000343322754,458700
2020-03-16,14.40999984741211,14.670000076293945,12.5,12.5,12.5,541400
2020-03-17,13.010000228881836,14.229999542236328,12.40999984741211,13.220000267028809,13.220000267028809,408600
2020-03-18,12.460000038146973,15.550000190734863,12.109999656677246,12.539999961853027,12.539999961853027,274100
2020-03-19,12.460000038146973,14.300000190734863,12.390000343322754,13.930000305175781,13.930000305175781,264100
2020-03-20,14.1899995803833,14.869999885559082,13.34000015258789,13.720000267028809,13.720000267028809,341900
2020-03-23,14.050000190734863,15.265000343322754,13.359999656677246,15.180000305175781,15.180000305175781,231400
2020-03-24,15.899999618530273,16.959999084472656,15.220000267028809,15.819999694824219,15.819999694824219,238900
2020-03-25,15.789999961853027,17.0,15.288000106811523,15.90999984741211,15.90999984741211,166600
2020-03-26,16.1200008392334,17.68000030517578,16.06999969482422,16.989999771118164,16.989999771118164,201000
2020-03-27,16.229999542236328,16.90999984741211,13.979999542236328,14.010000228881836,14.010000228881836,249000
2020-03-30,14.15999984741211,16.149999618530273,14.0,16.139999389648438,16.139999389648438,172500
2020-03-31,16.139999389648438,16.43000030517578,15.100000381469727,15.539999961853027,15.539999961853027,175200
2020-04-01,14.989999771118164,15.529999732971191,14.380000114440918,14.699999809265137,14.699999809265137,216200
2020-04-02,14.579999923706055,16.489999771118164,14.5,16.229999542236328,16.229999542236328,265700
2020-04-03,15.850000381469727,16.959999084472656,15.180000305175781,16.639999389648438,16.639999389648438,166100
2020-04-06,17.59000015258789,17.926000595092773,16.719999313354492,17.31999969482422,17.31999969482422,224700
2020-04-07,17.75,17.850000381469727,16.010000228881836,16.43000030517578,16.43000030517578,221000
2020-04-08,16.709999084472656,17.90999984741211,16.44700050354004,17.780000686645508,17.780000686645508,265000
2020-04-09,18.0,18.940000534057617,17.18000030517578,18.68000030517578,18.68000030517578,246300
2020-04-13,18.549999237060547,18.690000534057617,17.65999984741211,18.040000915527344,18.040000915527344,136800
2020-04-14,18.6200008392334,19.395000457763672,18.288000106811523,19.34000015258789,19.34000015258789,152000
2020-04-15,18.649999618530273,18.780000686645508,13.760000228881836,13.970000267028809,13.970000267028809,1087000
2020-04-16,15.609999656677246,15.75,14.0,14.220000267028809,14.220000267028809,1016700
2020-04-17,14.5,14.5,13.270000457763672,13.420000076293945,13.420000076293945,692200
2020-04-20,13.5,14.029999732971191,12.949999809265137,13.199999809265137,13.199999809265137,615200
2020-04-21,12.979999542236328,13.539999961853027,12.5,12.850000381469727,12.850000381469727,323800
2020-04-22,13.0,13.510000228881836,12.75,13.199999809265137,13.199999809265137,425000
2020-04-23,13.199999809265137,13.510000228881836,12.819999694824219,12.880000114440918,12.880000114440918,226400
2020-04-24,12.949999809265137,13.289999961853027,12.5,13.199999809265137,13.199999809265137,339800
2020-04-27,13.300000190734863,13.734999656677246,13.029999732971191,13.149999618530273,13.149999618530273,342400
2020-04-28,13.25,13.380000114440918,12.399999618530273,12.619999885559082,12.619999885559082,443700
2020-04-29,12.75,13.489999771118164,12.619999885559082,13.170000076293945,13.170000076293945,392900
2020-04-30,13.100000381469727,13.15999984741211,12.010000228881836,12.069999694824219,12.069999694824219,442900
2020-05-01,12.0,12.90999984741211,11.680000305175781,12.899999618530273,12.899999618530273,344800
2020-05-04,12.819999694824219,12.899999618530273,11.800000190734863,12.71500015258789,12.71500015258789,636300
2020-05-05,12.229999542236328,13.199999809265137,12.229999542236328,12.65999984741211,12.65999984741211,492600
2020-05-06,12.739999771118164,12.920000076293945,12.300000190734863,12.720000267028809,12.720000267028809,532800
2020-05-07,12.819999694824219,12.890000343322754,12.300000190734863,12.390000343322754,12.390000343322754,213700
2020-05-08,12.449999809265137,13.543000221252441,11.8100004196167,12.6899995803833,12.6899995803833,558600
2020-05-11,12.600000381469727,13.550000190734863,12.319999694824219,13.489999771118164,13.489999771118164,531300
2020-05-12,13.5,14.529999732971191,13.3100004196167,13.65999984741211,13.65999984741211,595800
2020-05-13,14.350000381469727,14.390000343322754,12.350000381469727,13.359999656677246,13.359999656677246,845100
2020-05-14,13.069999694824219,13.279999732971191,12.600000381469727,12.850000381469727,12.850000381469727,295600
2020-05-15,12.829999923706055,13.604000091552734,12.609999656677246,13.40999984741211,13.40999984741211,384900
2020-05-18,13.75,14.149999618530273,13.140000343322754,13.350000381469727,13.350000381469727,520400
2020-05-19,13.399999618530273,13.800000190734863,13.319999694824219,13.319999694824219,13.319999694824219,359800
2020-05-20,13.720000267028809,15.489999771118164,13.520000457763672,15.3100004196167,15.3100004196167,1051200
2020-05-21,15.369999885559082,16.0,14.880000114440918,15.59000015258789,15.59000015258789,332400
2020-05-22,15.59000015258789,15.84000015258789,15.210000038146973,15.670000076293945,15.670000076293945,208300
2020-05-26,16.06999969482422,16.65999984741211,15.753999710083008,16.21500015258789,16.21500015258789,1077100
2020-05-27,16.459999084472656,16.459999084472656,14.300000190734863,14.800000190734863,14.800000190734863,412600
2020-05-28,14.850000381469727,15.5600004196167,14.770000457763672,14.819999694824219,14.819999694824219,230200
2020-05-29,14.850000381469727,14.859999656677246,13.520000457763672,14.239999771118164,14.239999771118164,365100
2020-06-01,14.289999961853027,15.609999656677246,14.050000190734863,15.0600004196167,15.0600004196167,455800
2020-06-02,15.069999694824219,16.209999084472656,14.699999809265137,15.930000305175781,15.930000305175781,473200
2020-06-03,16.110000610351562,16.389999389648438,15.744999885559082,15.920000076293945,15.920000076293945,269900
2020-06-04,15.880000114440918,16.200000762939453,15.539999961853027,15.800000190734863,15.800000190734863,240600
2020-06-05,16.049999237060547,16.56999969482422,15.4399995803833,15.75,15.75,295800
2020-06-08,16.0,16.809999465942383,15.770000457763672,16.579999923706055,16.579999923706055,322600
2020-06-09,16.06999969482422,16.649999618530273,16.030000686645508,16.3799991607666,16.3799991607666,206200
2020-06-10,16.489999771118164,16.606000900268555,16.170000076293945,16.31999969482422,16.31999969482422,156400
2020-06-11,16.010000228881836,16.030000686645508,14.600000381469727,14.609999656677246,14.609999656677246,273300
2020-06-12,15.079999923706055,15.4350004196167,14.520000457763672,14.850000381469727,14.850000381469727,261200
2020-06-15,14.630000114440918,15.545000076293945,14.39799976348877,15.279999732971191,15.279999732971191,236700
2020-06-16,15.619999885559082,15.779999732971191,15.109999656677246,15.5,15.5,226600
2020-06-17,15.510000228881836,15.770000457763672,15.470000267028809,15.579999923706055,15.579999923706055,284300
2020-06-18,15.4399995803833,15.890000343322754,15.359999656677246,15.779999732971191,15.779999732971191,288500
2020-06-19,15.920000076293945,16.15999984741211,15.220000267028809,15.399999618530273,15.399999618530273,1062400
2020-06-22,15.4399995803833,15.520000457763672,14.760000228881836,15.5,15.5,385100
2020-06-23,15.729999542236328,16.059999465942383,15.550000190734863,15.6899995803833,15.6899995803833,436700
2020-06-24,15.649999618530273,16.059999465942383,15.449999809265137,15.579999923706055,15.579999923706055,456000
2020-06-25,15.979999542236328,16.71500015258789,15.630000114440918,16.299999237060547,16.299999237060547,691800
2020-06-26,16.190000534057617,16.649999618530273,15.479999542236328,15.569999694824219,15.569999694824219,1479000
2020-06-29,15.869999885559082,16.065000534057617,14.680000305175781,15.010000228881836,15.010000228881836,339200
2020-06-30,14.890000343322754,15.430000305175781,14.600000381469727,15.1899995803833,15.1899995803833,241600
2020-07-01,15.579999923706055,15.600000381469727,15.010000228881836,15.25,15.25,294600
2020-07-02,15.460000038146973,15.503000259399414,15.100000381469727,15.34000015258789,15.34000015258789,246100
2020-07-06,15.670000076293945,15.736000061035156,15.25,15.359999656677246,15.359999656677246,227900
2020-07-07,15.369999885559082,16.729999542236328,15.229999542236328,16.59000015258789,16.59000015258789,1057600
2020-07-08,16.604000091552734,16.8799991607666,15.329999923706055,15.579999923706055,15.579999923706055,378100
2020-07-09,15.710000038146973,15.854999542236328,15.069999694824219,15.529999732971191,15.529999732971191,193900
2020-07-10,15.40999984741211,15.609999656677246,14.779999732971191,14.850000381469727,14.850000381469727,168200
2020-07-13,15.020000457763672,15.430000305175781,14.020000457763672,14.079999923706055,14.079999923706055,186900
2020-07-14,14.0,14.34000015258789,13.550000190734863,13.9399995803833,13.9399995803833,317600
2020-07-15,14.229999542236328,14.600000381469727,13.989999771118164,14.279999732971191,14.279999732971191,364300
2020-07-16,16.299999237060547,17.34000015258789,14.770000457763672,14.850000381469727,14.850000381469727,1712500
2020-07-17,16.010000228881836,16.209999084472656,14.720000267028809,15.239999771118164,15.239999771118164,730700
2020-07-20,16.399999618530273,16.549999237060547,15.75,16.469999313354492,16.469999313354492,1396000
2020-07-21,16.790000915527344,16.8799991607666,16.309999465942383,16.479999542236328,16.479999542236328,797900
2020-07-22,16.690000534057617,16.799999237060547,16.010000228881836,16.040000915527344,16.040000915527344,785100
2020-07-23,16.31999969482422,16.3799991607666,15.119999885559082,15.300000190734863,15.300000190734863,518200
2020-07-24,15.359999656677246,15.5600004196167,14.550000190734863,14.770000457763672,14.770000457763672,585500
2020-07-27,15.5,15.503999710083008,14.670000076293945,15.029999732971191,15.029999732971191,806000
2020-07-28,15.210000038146973,15.520000457763672,14.92199993133545,15.220000267028809,15.220000267028809,594200
2020-07-29,15.300000190734863,15.4399995803833,13.75,13.880000114440918,13.880000114440918,804800
2020-07-30,14.510000228881836,14.680000305175781,13.600000381469727,13.9399995803833,13.9399995803833,447700
2020-07-31,13.899999618530273,13.899999618530273,13.050000190734863,13.149999618530273,13.149999618530273,696300
2020-08-03,13.600000381469727,14.300000190734863,13.25,14.25,14.25,658100
2020-08-04,14.130000114440918,14.239999771118164,13.460000038146973,13.699999809265137,13.699999809265137,546000
2020-08-05,13.770000457763672,13.989999771118164,12.819999694824219,13.039999961853027,13.039999961853027,595200
2020-08-06,12.680000305175781,13.140000343322754,12.329999923706055,12.510000228881836,12.510000228881836,464800
2020-08-07,12.350000381469727,12.850000381469727,12.180000305175781,12.59000015258789,12.59000015258789,430200
2020-08-10,12.5600004196167,13.048999786376953,12.5,12.640000343322754,12.640000343322754,502300
2020-08-11,12.520000457763672,12.619999885559082,10.300000190734863,11.09000015258789,11.09000015258789,1165100
2020-08-12,11.09000015258789,11.40999984741211,10.859999656677246,11.050000190734863,11.050000190734863,605500
2020-08-13,11.15999984741211,11.305000305175781,10.979999542236328,11.1899995803833,11.1899995803833,439300
2020-08-14,11.130000114440918,11.380000114440918,10.869999885559082,11.119999885559082,11.119999885559082,437100
2020-08-17,11.1899995803833,11.529999732971191,11.02400016784668,11.529999732971191,11.529999732971191,328400
2020-08-18,11.510000228881836,11.699999809265137,11.050000190734863,11.180000305175781,11.180000305175781,392100
2020-08-19,11.069999694824219,11.270000457763672,10.8100004196167,10.829999923706055,10.829999923706055,339300
2020-08-20,10.8100004196167,10.949999809265137,10.600000381469727,10.920000076293945,10.920000076293945,298200
2020-08-21,10.869999885559082,10.949999809265137,10.645000457763672,10.75,10.75,302300
2020-08-24,11.0,11.0,10.34000015258789,10.739999771118164,10.739999771118164,466400
2020-08-25,10.649999618530273,11.140000343322754,10.5,11.119999885559082,11.119999885559082,353100
2020-08-26,11.109999656677246,11.199999809265137,10.859999656677246,10.880000114440918,10.880000114440918,278500
2020-08-27,10.859999656677246,10.880000114440918,10.520000457763672,10.640000343322754,10.640000343322754,256300
2020-08-28,10.640000343322754,10.710000038146973,10.5,10.649999618530273,10.649999618530273,235700
2020-08-31,10.710000038146973,10.84000015258789,10.579999923706055,10.630000114440918,10.630000114440918,342800
2020-09-01,10.5600004196167,11.699999809265137,10.300000190734863,10.930000305175781,10.930000305175781,1444400
2020-09-02,10.970000267028809,11.039999961853027,10.4399995803833,10.550000190734863,10.550000190734863,431900
2020-09-03,10.6899995803833,10.800000190734863,9.979999542236328,10.100000381469727,10.100000381469727,463000
2020-09-04,9.9399995803833,10.0600004196167,9.1899995803833,9.9399995803833,9.9399995803833,590100
2020-09-08,9.729999542236328,10.6850004196167,9.649999618530273,10.180000305175781,10.180000305175781,392700
2020-09-09,10.180000305175781,10.498000144958496,10.0,10.25,10.25,323300
2020-09-10,10.399999618530273,10.699999809265137,10.09000015258789,10.119999885559082,10.119999885559082,297000
2020-09-11,10.119999885559082,10.239999771118164,9.829999923706055,9.989999771118164,9.989999771118164,260400
2020-09-14,10.09000015258789,10.770000457763672,10.09000015258789,10.680000305175781,10.680000305175781,499300
2020-09-15,10.760000228881836,11.0,10.5,10.635000228881836,10.635000228881836,263400
2020-09-16,10.640000343322754,11.069999694824219,10.609999656677246,10.619999885559082,10.619999885559082,239900
2020-09-17,10.510000228881836,10.75,10.34000015258789,10.5,10.5,191600
2020-09-18,10.550000190734863,11.819999694824219,10.479999542236328,11.524999618530273,11.524999618530273,1683100
2020-09-21,11.260000228881836,11.289999961853027,10.369999885559082,10.65999984741211,10.65999984741211,451600
2020-09-22,10.720000267028809,11.279999732971191,10.520000457763672,11.25,11.25,345200
2020-09-23,11.199999809265137,11.449999809265137,10.720000267028809,10.739999771118164,10.739999771118164,335100
2020-09-24,10.710000038146973,10.96500015258789,10.449999809265137,10.800000190734863,10.800000190734863,337500
2020-09-25,10.800000190734863,11.029999732971191,10.600000381469727,11.015000343322754,11.015000343322754,317600
2020-09-28,11.279999732971191,11.350000381469727,10.65999984741211,10.765000343322754,10.765000343322754,355800
2020-09-29,10.739999771118164,10.800000190734863,10.40999984741211,10.600000381469727,10.600000381469727,321900
2020-09-30,10.600000381469727,10.96500015258789,10.479999542236328,10.699999809265137,10.699999809265137,277200
2020-10-01,10.75,11.218999862670898,10.654999732971191,11.0649995803833,11.0649995803833,339000
2020-10-02,10.779999732971191,11.319999694824219,10.699999809265137,10.949999809265137,10.949999809265137,280000
2020-10-05,11.0,11.869999885559082,11.0,11.829999923706055,11.829999923706055,388900
2020-10-06,11.720000267028809,11.75100040435791,11.029999732971191,11.149999618530273,11.149999618530273,474300
2020-10-07,11.130000114440918,11.5,11.0,11.399999618530273,11.399999618530273,360600
2020-10-08,11.5600004196167,11.600000381469727,11.229999542236328,11.380000114440918,11.380000114440918,183400
2020-10-09,11.270000457763672,11.380000114440918,10.5600004196167,10.890000343322754,10.890000343322754,555000
2020-10-12,10.880000114440918,11.449999809265137,10.609999656677246,11.239999771118164,11.239999771118164,398000
2020-10-13,11.210000038146973,11.4399995803833,11.0600004196167,11.350000381469727,11.350000381469727,154100
2020-10-14,11.300000190734863,11.59000015258789,10.670000076293945,10.720000267028809,10.720000267028809,377700
2020-10-15,10.479999542236328,10.770000457763672,10.300000190734863,10.760000228881836,10.760000228881836,250300
2020-10-16,10.770000457763672,11.029999732971191,10.656000137329102,10.949999809265137,10.949999809265137,222700
2020-10-19,10.850000381469727,11.100000381469727,10.5,10.670000076293945,10.670000076293945,330100
2020-10-20,10.710000038146973,10.875,10.38700008392334,10.779999732971191,10.779999732971191,183800
2020-10-21,10.729999542236328,10.850000381469727,10.5,10.569999694824219,10.569999694824219,259100
2020-10-22,10.640000343322754,11.28499984741211,10.59000015258789,11.25,11.25,243000
2020-10-23,11.25,11.470000267028809,10.961000442504883,11.229999542236328,11.229999542236328,168500
2020-10-26,11.149999618530273,11.289999961853027,10.770000457763672,11.0,11.0,263800
2020-10-27,11.050000190734863,11.399999618530273,10.850000381469727,11.180000305175781,11.180000305175781,294300
2020-10-28,10.899999618530273,10.979999542236328,10.399999618530273,10.609999656677246,10.609999656677246,234700
2020-10-29,10.640000343322754,11.1899995803833,10.399999618530273,11.100000381469727,11.100000381469727,192200
2020-10-30,11.029999732971191,11.130000114440918,10.40999984741211,10.569999694824219,10.569999694824219,205300
2020-11-02,10.65999984741211,10.65999984741211,10.050000190734863,10.319999694824219,10.319999694824219,290800
2020-11-03,10.460000038146973,10.640000343322754,10.239999771118164,10.510000228881836,10.510000228881836,152400
2020-11-04,10.539999961853027,11.109999656677246,10.539999961853027,11.029999732971191,11.029999732971191,390500
2020-11-05,10.97700023651123,12.020000457763672,10.9399995803833,12.0,12.0,440500
2020-11-06,11.920000076293945,12.239999771118164,9.1899995803833,9.5,9.5,1541200
2020-11-09,11.76200008392334,11.76200008392334,9.725000381469727,9.869999885559082,9.869999885559082,2406100
2020-11-10,10.1899995803833,10.289999961853027,9.550000190734863,9.609999656677246,9.609999656677246,567700
2020-11-11,9.779999732971191,9.949999809265137,9.529999732971191,9.779999732971191,9.779999732971191,472700
2020-11-12,9.819999694824219,10.039999961853027,9.760000228881836,9.90999984741211,9.90999984741211,590500
2020-11-13,9.979999542236328,10.09000015258789,9.850000381469727,9.949999809265137,9.949999809265137,446900
2020-11-16,10.25,10.350000381469727,9.90999984741211,10.010000228881836,10.010000228881836,306400
2020-11-17,10.050000190734863,10.097000122070312,9.729999542236328,10.0,10.0,221900
2020-11-18,10.039999961853027,10.039999961853027,9.569999694824219,9.640000343322754,9.640000343322754,290000
2020-11-19,9.640000343322754,9.829999923706055,9.399999618530273,9.720000267028809,9.720000267028809,417900
2020-11-20,9.9399995803833,10.09000015258789,9.710000038146973,9.859999656677246,9.859999656677246,512600
2020-11-23,9.979999542236328,9.979999542236328,9.5,9.609999656677246,9.609999656677246,491600
2020-11-24,9.75,9.90999984741211,9.470000267028809,9.600000381469727,9.600000381469727,376800
2020-11-25,9.609999656677246,9.680000305175781,9.520000457763672,9.600000381469727,9.600000381469727,254700
2020-11-27,9.649999618530273,9.779999732971191,9.524999618530273,9.770000457763672,9.770000457763672,245800
2020-11-30,9.850000381469727,9.989999771118164,9.614999771118164,9.84000015258789,9.84000015258789,383800
2020-12-01,9.899999618530273,9.911999702453613,9.529999732971191,9.819999694824219,9.819999694824219,332600
2020-12-02,9.819999694824219,9.878999710083008,9.609999656677246,9.770000457763672,9.770000457763672,210200
2020-12-03,9.84000015258789,9.9399995803833,9.640000343322754,9.770000457763672,9.770000457763672,209800
2020-12-04,9.800000190734863,9.819999694824219,9.649999618530273,9.789999961853027,9.789999961853027,201800
2020-12-07,9.800000190734863,9.970999717712402,9.449999809265137,9.609999656677246,9.609999656677246,380000
2020-12-08,9.609999656677246,9.710000038146973,9.289999961853027,9.34000015258789,9.34000015258789,571900
2020-12-09,9.550000190734863,9.585000038146973,8.699999809265137,8.920000076293945,8.920000076293945,759700
2020-12-10,8.899999618530273,9.899999618530273,8.819999694824219,9.880000114440918,9.880000114440918,504900
2020-12-11,9.949999809265137,10.270000457763672,9.899999618530273,10.229999542236328,10.229999542236328,1200200
2020-12-14,11.470000267028809,14.850000381469727,11.279999732971191,11.970000267028809,11.970000267028809,11209200
2020-12-15,11.998000144958496,12.059000015258789,10.65999984741211,11.229999542236328,11.229999542236328,1280400
2020-12-16,11.539999961853027,12.145000457763672,11.0,11.489999771118164,11.489999771118164,761200
2020-12-17,11.4399995803833,11.75,11.100000381469727,11.739999771118164,11.739999771118164,625900
2020-12-18,11.75,12.869999885559082,11.670000076293945,12.34000015258789,12.34000015258789,997300
2020-12-21,12.369999885559082,12.970000267028809,11.630000114440918,12.800000190734863,12.800000190734863,772600
2020-12-22,12.869999885559082,13.539999961853027,12.699999809265137,13.289999961853027,13.289999961853027,596300
2020-12-23,13.399999618530273,13.567999839782715,12.619999885559082,12.920000076293945,12.920000076293945,541100
2020-12-24,12.90999984741211,13.0,12.399999618530273,12.649999618530273,12.649999618530273,144600
2020-12-28,12.6899995803833,12.84000015258789,12.25,12.3100004196167,12.3100004196167,385800
2020-12-29,12.279999732971191,12.4399995803833,11.09000015258789,11.550000190734863,11.550000190734863,579700
2020-12-30,11.579999923706055,12.0,11.5600004196167,11.75,11.75,312800
