Date,Open,High,Low,Close,Adj Close,Volume
2019-06-17,11.0,11.300000190734863,11.0,11.210000038146973,9.852778434753418,3200
2019-06-18,11.300000190734863,11.449999809265137,11.300000190734863,11.449999809265137,10.063720703125,1800
2019-06-19,11.600000381469727,12.0,11.600000381469727,12.0,10.547130584716797,4900
2019-06-20,12.0,12.0,11.850000381469727,11.913000106811523,10.470663070678711,3800
2019-06-21,11.942999839782715,12.0,11.942999839782715,12.0,10.547130584716797,700
2019-06-24,12.079999923706055,12.149999618530273,12.0,12.0,10.547130584716797,3100
2019-06-25,12.0,12.0,11.850000381469727,12.0,10.547130584716797,3200
2019-06-26,12.220000267028809,12.220000267028809,11.75,11.75,10.327398300170898,1500
2019-06-27,11.699999809265137,11.699999809265137,11.699999809265137,11.699999809265137,10.283452987670898,200
2019-06-28,11.800000190734863,11.800000190734863,11.800000190734863,11.800000190734863,10.371346473693848,500
2019-07-01,11.899999618530273,11.949999809265137,11.899999618530273,11.899999618530273,10.459238052368164,600
2019-07-02,11.729999542236328,11.850000381469727,11.699999809265137,11.800999641418457,10.372224807739258,800
2019-07-03,11.779999732971191,11.899999618530273,11.65999984741211,11.65999984741211,10.248294830322266,700
2019-07-05,11.65999984741211,11.65999984741211,11.65999984741211,11.65999984741211,10.248294830322266,100
2019-07-08,11.899999618530273,12.100000381469727,11.899999618530273,12.0,10.547130584716797,1700
2019-07-09,12.0,12.100000381469727,11.899999618530273,11.899999618530273,10.459238052368164,57100
2019-07-10,12.0,12.399999618530273,12.0,12.399999618530273,10.898701667785645,3500
2019-07-11,12.449999809265137,12.5,12.449999809265137,12.5,10.986594200134277,1400
2019-07-12,12.706999778747559,12.789999961853027,12.706999778747559,12.789999961853027,11.241483688354492,800
2019-07-15,12.800000190734863,13.880000114440918,12.800000190734863,13.529999732971191,11.891888618469238,12700
2019-07-16,13.779999732971191,13.779999732971191,13.350000381469727,13.350000381469727,11.733682632446289,20500
2019-07-17,13.0,13.0,12.244000434875488,12.270000457763672,10.784441947937012,10800
2019-07-18,12.199999809265137,12.300000190734863,12.0600004196167,12.300000190734863,10.810809135437012,2800
2019-07-19,12.350000381469727,12.350000381469727,12.350000381469727,12.350000381469727,10.854756355285645,300
2019-07-22,12.84000015258789,12.89900016784668,12.666000366210938,12.850000381469727,11.294219970703125,2500
2019-07-23,13.0,13.0,12.800000190734863,12.890000343322754,11.329376220703125,1200
2019-07-24,12.899999618530273,12.904999732971191,12.899999618530273,12.899999618530273,11.338165283203125,2800
2019-07-25,13.399999618530273,13.479999542236328,13.024999618530273,13.25,11.64578914642334,2600
2019-07-26,13.220000267028809,13.25,12.670000076293945,12.6899995803833,11.153590202331543,5600
2019-07-29,12.899999618530273,12.899999618530273,12.449999809265137,12.470999717712402,10.961106300354004,4400
2019-07-30,12.680000305175781,12.680000305175781,12.449999809265137,12.449999809265137,10.942647933959961,1700
2019-07-31,12.710000038146973,12.710000038146973,12.614999771118164,12.614999771118164,11.087672233581543,500
2019-08-01,12.760000228881836,12.760000228881836,12.25,12.25,10.766862869262695,2300
2019-08-02,12.050000190734863,12.5,12.050000190734863,12.270000457763672,10.784441947937012,3000
2019-08-05,12.0,12.0,11.600000381469727,11.600000381469727,10.195561408996582,3100
2019-08-06,11.619999885559082,11.6899995803833,11.619999885559082,11.6899995803833,10.274662971496582,1100
2019-08-07,11.75,11.75,11.0,11.0,9.66820240020752,6300
2019-08-08,11.119999885559082,11.119999885559082,10.899999618530273,10.899999618530273,9.58030891418457,2100
2019-08-09,11.109999656677246,11.109999656677246,10.937000274658203,10.937000274658203,9.612831115722656,800
2019-08-12,11.170000076293945,11.170000076293945,10.70300006866455,10.70300006866455,9.4071626663208,3500
2019-08-13,10.399999618530273,10.600000381469727,10.25,10.505000114440918,9.233135223388672,5000
2019-08-14,10.550000190734863,10.550000190734863,9.800000190734863,9.965999603271484,8.759391784667969,13300
2019-08-15,9.970000267028809,9.970000267028809,9.121999740600586,9.300000190734863,8.174026489257812,7300
2019-08-16,9.399999618530273,9.520000457763672,9.220000267028809,9.449999809265137,8.305866241455078,10200
2019-08-19,9.770000457763672,10.050000190734863,9.696999549865723,10.050000190734863,8.833222389221191,8600
2019-08-20,10.180000305175781,10.180000305175781,9.760000228881836,10.015000343322754,8.802459716796875,4700
2019-08-21,10.25,10.699999809265137,10.25,10.475000381469727,9.206766128540039,1800
2019-08-22,10.649999618530273,10.649999618530273,10.100000381469727,10.100000381469727,8.877168655395508,4700
2019-08-23,10.0,10.130000114440918,9.84000015258789,9.84000015258789,8.648648262023926,6200
2019-08-26,9.949999809265137,10.1850004196167,9.920000076293945,10.1850004196167,8.95187759399414,4100
2019-08-27,10.180000305175781,10.180000305175781,9.960000038146973,9.960000038146973,8.754117965698242,900
2019-08-28,9.800000190734863,9.949999809265137,9.75,9.949999809265137,8.745328903198242,4000
2019-08-29,9.989999771118164,10.0600004196167,9.829999923706055,9.829999923706055,8.639857292175293,1700
2019-08-30,10.100000381469727,10.100000381469727,9.850000381469727,9.850000381469727,8.65743637084961,1200
2019-09-03,9.930000305175781,9.930000305175781,9.699999809265137,9.699999809265137,8.52559757232666,1800
2019-09-04,9.949999809265137,10.0,9.800000190734863,9.800000190734863,8.613490104675293,500
2019-09-05,9.927000045776367,10.100000381469727,9.927000045776367,10.005999565124512,8.794548988342285,900
2019-09-06,10.187000274658203,10.220000267028809,9.850000381469727,9.850000381469727,8.65743637084961,700
2019-09-09,10.0,10.229999542236328,9.956000328063965,10.222999572753906,8.985276222229004,2300
2019-09-10,10.350000381469727,10.494999885559082,10.074999809265137,10.074999809265137,8.855195045471191,500
2019-09-11,10.25,10.399999618530273,10.25,10.25,9.009008407592773,700
2019-09-12,10.069999694824219,10.260000228881836,9.989999771118164,9.989999771118164,8.780484199523926,1400
2019-09-13,10.199999809265137,10.199999809265137,10.0,10.0,8.789276123046875,400
2019-09-16,10.206999778747559,10.210000038146973,10.039999961853027,10.039999961853027,8.824432373046875,900
2019-09-17,10.199999809265137,10.199999809265137,9.989999771118164,9.993000030517578,8.783123970031738,1300
2019-09-18,9.989999771118164,9.993000030517578,9.850000381469727,9.928000450134277,8.725994110107422,3400
2019-09-19,10.170000076293945,10.234999656677246,9.979999542236328,9.994999885559082,8.784880638122559,800
2019-09-20,9.979999542236328,9.979999542236328,9.600000381469727,9.699999809265137,8.52559757232666,2900
2019-09-23,9.609999656677246,9.710000038146973,9.609999656677246,9.710000038146973,8.534385681152344,500
2019-09-24,10.0,10.0,9.619999885559082,9.619999885559082,8.455283164978027,300
2019-09-25,9.989999771118164,9.989999771118164,9.65999984741211,9.65999984741211,8.490440368652344,300
2019-09-26,9.989999771118164,9.989999771118164,9.75,9.75,8.569543838500977,400
2019-09-27,9.82699966430664,9.899999618530273,9.649999618530273,9.649999618530273,8.481650352478027,400
2019-09-30,9.779999732971191,9.779999732971191,9.649999618530273,9.649999618530273,8.481650352478027,3200
2019-10-01,9.649999618530273,9.649999618530273,9.649999618530273,9.649999618530273,8.481650352478027,200
2019-10-02,9.649999618530273,9.649999618530273,9.300000190734863,9.532999992370605,8.378816604614258,5500
2019-10-03,9.75,9.75,9.0,9.239999771118164,8.121291160583496,4600
2019-10-04,9.239999771118164,9.397000312805176,9.220000267028809,9.369999885559082,8.235550880432129,1800
2019-10-07,9.25,10.960000038146973,9.25,10.300000190734863,9.05295467376709,5500
2019-10-08,10.300000190734863,10.300000190734863,9.979999542236328,9.987000465393066,8.777849197387695,3800
2019-10-09,10.079999923706055,10.699999809265137,9.989999771118164,10.6899995803833,9.395734786987305,2900
2019-10-10,10.6899995803833,11.255000114440918,10.637999534606934,11.163999557495117,9.812346458435059,6300
2019-10-11,11.609999656677246,11.670000076293945,11.5,11.670000076293945,10.257083892822266,5600
2019-10-14,11.5,11.5,10.90999984741211,11.369999885559082,9.993407249450684,5500
2019-10-15,11.390000343322754,11.390000343322754,10.850000381469727,10.979999542236328,9.650623321533203,2800
2019-10-16,10.899999618530273,10.899999618530273,10.652000427246094,10.699999809265137,9.404524803161621,2500
2019-10-17,10.770000457763672,10.899999618530273,10.699999809265137,10.899999618530273,9.58030891418457,700
2019-10-18,10.800000190734863,11.0,10.399999618530273,11.0,9.66820240020752,2900
2019-10-21,11.010000228881836,11.180000305175781,10.899999618530273,11.180000305175781,9.826411247253418,2500
2019-10-22,10.75,10.75,10.329999923706055,10.510000228881836,9.237529754638672,4100
2019-10-23,10.399999618530273,10.800000190734863,10.33899974822998,10.800000190734863,9.492417335510254,6000
2019-10-24,11.027000427246094,11.027000427246094,10.899999618530273,10.899999618530273,9.58030891418457,600
2019-10-25,10.75,11.350000381469727,10.399999618530273,11.350000381469727,9.975829124450684,3900
2019-10-28,10.600000381469727,10.699999809265137,10.138999938964844,10.503999710083008,9.232255935668945,18800
2019-10-29,10.5,10.5,9.949999809265137,10.199999809265137,8.96506118774414,5000
2019-10-30,10.180000305175781,10.180000305175781,9.359999656677246,10.010000228881836,8.798064231872559,16700
2019-10-31,10.010000228881836,10.010000228881836,9.300000190734863,9.600000381469727,8.437705993652344,6800
2019-11-01,9.729999542236328,10.390000343322754,9.272000312805176,10.050000190734863,8.833222389221191,13900
2019-11-04,10.0600004196167,10.0600004196167,9.380000114440918,9.380000114440918,8.244339942932129,10100
2019-11-05,9.5,9.520000457763672,9.199999809265137,9.199999809265137,8.08613395690918,10100
2019-11-06,9.25,9.25,8.649999618530273,8.812000274658203,7.745109558105469,15800
2019-11-07,8.9399995803833,8.9399995803833,8.760000228881836,8.800000190734863,7.734562873840332,6000
2019-11-08,8.6899995803833,8.972999572753906,8.65999984741211,8.65999984741211,7.611512184143066,2800
2019-11-11,8.680000305175781,8.789999961853027,8.680000305175781,8.694999694824219,7.642275333404541,1100
2019-11-12,8.6899995803833,8.84000015258789,8.619000434875488,8.699999809265137,7.646669387817383,3900
2019-11-13,8.800000190734863,8.979999542236328,8.800000190734863,8.857000350952148,7.784661293029785,2700
2019-11-14,8.979999542236328,9.180000305175781,8.979999542236328,9.180000305175781,8.06855583190918,2800
2019-11-15,9.210000038146973,9.336999893188477,9.1899995803833,9.329999923706055,8.200393676757812,2000
2019-11-18,9.199999809265137,9.199999809265137,8.8100004196167,8.980999946594238,7.893649101257324,3200
2019-11-19,9.119999885559082,9.25,8.65999984741211,9.149999618530273,8.042187690734863,11800
2019-11-20,9.15999984741211,9.399999618530273,9.149999618530273,9.333999633789062,8.203909873962402,13600
2019-11-21,9.699999809265137,10.199999809265137,9.699999809265137,10.100000381469727,8.877168655395508,10800
2019-11-22,10.0,10.0,9.5600004196167,9.699999809265137,8.52559757232666,25200
2019-11-25,9.670000076293945,9.989999771118164,9.670000076293945,9.760000228881836,8.578332901000977,3300
2019-11-26,9.960000038146973,9.960000038146973,9.380000114440918,9.40999984741211,8.270709037780762,2700
2019-11-27,9.569999694824219,9.710000038146973,9.359999656677246,9.470000267028809,8.323443412780762,1300
2019-11-29,9.600000381469727,9.661999702453613,9.600000381469727,9.661999702453613,8.492198944091797,600
2019-12-02,9.65999984741211,10.069999694824219,9.539999961853027,10.069999694824219,8.850801467895508,4800
2019-12-03,9.5,9.899999618530273,9.0,9.29699993133545,8.17138957977295,7200
2019-12-04,9.619999885559082,9.619999885559082,7.900000095367432,9.10200023651123,8.086982727050781,10000
2019-12-05,9.119999885559082,9.119999885559082,9.10099983215332,9.102999687194824,8.087872505187988,1600
2019-12-06,9.399999618530273,9.59000015258789,9.399999618530273,9.449999809265137,8.3961763381958,4000
2019-12-09,9.600000381469727,9.649999618530273,9.449999809265137,9.449999809265137,8.3961763381958,1700
2019-12-10,9.579999923706055,9.600000381469727,9.380000114440918,9.402000427246094,8.353528022766113,2400
2019-12-11,9.399999618530273,9.600000381469727,9.270000457763672,9.600000381469727,8.529449462890625,900
2019-12-12,9.279999732971191,9.420000076293945,9.279999732971191,9.40999984741211,8.360636711120605,1700
2019-12-13,9.510000228881836,9.510000228881836,9.25,9.25,8.218480110168457,4100
2019-12-16,9.329999923706055,9.550000190734863,9.329999923706055,9.378000259399414,8.332205772399902,4600
2019-12-17,9.649999618530273,10.069999694824219,9.649999618530273,10.069999694824219,8.947036743164062,9800
2019-12-18,9.800000190734863,9.810999870300293,9.399999618530273,9.810999870300293,8.716917991638184,20800
2019-12-19,9.800000190734863,11.069999694824219,9.734999656677246,10.989999771118164,9.764440536499023,27900
2019-12-20,10.550000190734863,10.723999977111816,10.300000190734863,10.6899995803833,9.497895240783691,20800
2019-12-23,10.739999771118164,11.800000190734863,10.739999771118164,11.460000038146973,10.182029724121094,9200
2019-12-24,11.460000038146973,11.539999961853027,11.460000038146973,11.539999961853027,10.253108024597168,3700
2019-12-26,11.739999771118164,11.739999771118164,11.390000343322754,11.390000343322754,10.11983585357666,2300
2019-12-27,11.050000190734863,11.050000190734863,10.677000045776367,10.90999984741211,9.69336223602295,9200
2019-12-30,10.75,10.75,10.5,10.74899959564209,9.550315856933594,8800
2019-12-31,10.569999694824219,10.899999618530273,10.569999694824219,10.89799976348877,9.682701110839844,6100
2020-01-02,10.890000343322754,10.989999771118164,10.630000114440918,10.8100004196167,9.604514122009277,10200
2020-01-03,10.890000343322754,10.890000343322754,10.619999885559082,10.73900032043457,9.541431427001953,2800
2020-01-06,10.399999618530273,10.399999618530273,10.175000190734863,10.390999794006348,9.232239723205566,10000
2020-01-07,10.300000190734863,10.699999809265137,10.109999656677246,10.399999618530273,9.240235328674316,32000
2020-01-08,10.199999809265137,10.300000190734863,9.980999946594238,10.239999771118164,9.098077774047852,29700
2020-01-09,10.199999809265137,10.550000190734863,10.1899995803833,10.329999923706055,9.1780424118042,7800
2020-01-10,10.5,10.5,10.199999809265137,10.229999542236328,9.089193344116211,6200
2020-01-13,10.050000190734863,10.104999542236328,9.850000381469727,9.899999618530273,8.795992851257324,15000
2020-01-14,9.779999732971191,9.890000343322754,9.748000144958496,9.890000343322754,8.787109375,14000
2020-01-15,9.699999809265137,9.960000038146973,9.399999618530273,9.848999977111816,8.750680923461914,38400
2020-01-16,9.850000381469727,10.199999809265137,9.800000190734863,10.010000228881836,8.893726348876953,26300
2020-01-17,10.130000114440918,10.1899995803833,9.960000038146973,10.0,8.884842872619629,71900
2020-01-21,9.899999618530273,10.399999618530273,9.670000076293945,10.399999618530273,9.240235328674316,153000
2020-01-22,9.850000381469727,9.859999656677246,9.472999572753906,9.8100004196167,8.71603012084961,75700
2020-01-23,9.420000076293945,9.420000076293945,8.949999809265137,9.0600004196167,8.049666404724121,76500
2020-01-24,9.0600004196167,9.168000221252441,8.649999618530273,8.65999984741211,7.694272994995117,24300
2020-01-27,8.399999618530273,8.539999961853027,8.315999984741211,8.517000198364258,7.5672197341918945,8100
2020-01-28,8.489999771118164,8.65999984741211,8.272000312805176,8.649999618530273,7.685389041900635,52000
2020-01-29,8.649999618530273,8.649999618530273,8.392999649047852,8.449999809265137,7.507691860198975,28800
2020-01-30,8.449999809265137,8.449999809265137,8.208000183105469,8.3149995803833,7.3877458572387695,58700
2020-01-31,8.300000190734863,8.479999542236328,8.260000228881836,8.362000465393066,7.429505825042725,7200
2020-02-03,8.300000190734863,8.5,8.25,8.390000343322754,7.454383373260498,18900
2020-02-04,8.5,8.5,8.255000114440918,8.3100004196167,7.383304119110107,13900
2020-02-05,8.199999809265137,8.470000267028809,8.199999809265137,8.399999618530273,7.4632673263549805,9500
2020-02-06,8.069999694824219,8.069999694824219,7.691999912261963,7.920000076293945,7.036795139312744,42800
2020-02-07,7.610000133514404,7.610000133514404,7.199999809265137,7.420000076293945,6.592552661895752,57700
2020-02-10,7.349999904632568,7.670000076293945,7.25,7.659999847412109,6.805789470672607,25000
2020-02-11,7.519999980926514,7.949999809265137,7.425000190734863,7.840000152587891,6.96571683883667,66900
2020-02-12,7.679999828338623,7.690000057220459,7.489999771118164,7.539999961853027,6.69917106628418,53500
2020-02-13,7.460000038146973,7.570000171661377,7.429999828338623,7.5,6.663631916046143,12900
2020-02-14,7.460000038146973,7.461999893188477,7.300000190734863,7.369999885559082,6.548128128051758,7900
2020-02-18,7.449999809265137,7.449999809265137,7.400000095367432,7.440000057220459,6.61032247543335,6200
2020-02-19,7.570000171661377,7.659999847412109,7.465000152587891,7.630000114440918,6.779135227203369,8800
2020-02-20,7.610000133514404,7.855999946594238,7.610000133514404,7.855999946594238,6.979931831359863,6900
2020-02-21,7.579999923706055,7.769999980926514,7.400000095367432,7.699999809265137,6.8413286209106445,27400
2020-02-24,7.0,7.380000114440918,6.755000114440918,7.130000114440918,6.334892272949219,42600
2020-02-25,6.949999809265137,7.0,6.760000228881836,6.800000190734863,6.041692733764648,54200
2020-02-26,6.760000228881836,6.96999979019165,6.659999847412109,6.800000190734863,6.041692733764648,52400
2020-02-27,6.53000020980835,7.239999771118164,6.409999847412109,6.849999904632568,6.086116790771484,78000
2020-02-28,6.579999923706055,6.809999942779541,6.550000190734863,6.630000114440918,5.890650272369385,51800
2020-03-02,6.599999904632568,6.730000019073486,6.46999979019165,6.650000095367432,5.908420562744141,26400
2020-03-03,6.519999980926514,6.840000152587891,6.5,6.5,5.775146961212158,42100
2020-03-04,6.400000095367432,6.5,6.309999942779541,6.474999904632568,5.752935409545898,32000
2020-03-05,6.050000190734863,6.521999835968018,5.953999996185303,6.099999904632568,5.419753551483154,81000
2020-03-06,6.0,6.130000114440918,5.849999904632568,6.059999942779541,5.384214401245117,66300
2020-03-09,5.820000171661377,5.909999847412109,5.1539998054504395,5.449999809265137,4.842238426208496,48100
2020-03-10,5.800000190734863,5.800000190734863,5.199999809265137,5.25,4.751729965209961,19300
2020-03-11,5.400000095367432,5.429999828338623,4.925000190734863,5.03000020980835,4.552609920501709,32300
2020-03-12,4.070000171661377,4.744999885559082,4.070000171661377,4.639999866485596,4.199624061584473,14100
2020-03-13,5.25,5.489999771118164,4.960000038146973,5.0,4.525457382202148,18600
2020-03-16,4.199999809265137,4.875999927520752,4.135000228881836,4.599999904632568,4.163420677185059,46800
2020-03-17,4.050000190734863,4.585999965667725,4.050000190734863,4.360000133514404,3.9461987018585205,39300
2020-03-18,4.070000171661377,4.070000171661377,3.799999952316284,3.9000000953674316,3.5298566818237305,59400
2020-03-19,3.700000047683716,3.7899999618530273,3.4000000953674316,3.7200000286102295,3.3669400215148926,87700
2020-03-20,3.7300000190734863,4.114999771118164,3.6700000762939453,4.070000171661377,3.6837222576141357,104300
2020-03-23,3.6700000762939453,3.799999952316284,3.5799999237060547,3.690000057220459,3.339787483215332,101700
2020-03-24,4.0,4.369999885559082,4.0,4.369999885559082,3.955249547958374,8100
2020-03-25,4.159999847412109,4.159999847412109,3.8499999046325684,4.039999961853027,3.656569242477417,47200
2020-03-26,4.210000038146973,5.75,4.010000228881836,5.119999885559082,4.634067535400391,100000
2020-03-27,4.610000133514404,4.675000190734863,4.099999904632568,4.449999809265137,4.027656555175781,106700
2020-03-30,4.5,4.875,4.380000114440918,4.679999828338623,4.235827445983887,39500
2020-03-31,4.889999866485596,5.199999809265137,4.889999866485596,5.070000171661377,4.588813781738281,43200
2020-04-01,5.210000038146973,5.210000038146973,5.0,5.139999866485596,4.652169704437256,15700
2020-04-02,5.110000133514404,5.150000095367432,4.796999931335449,5.125,4.638593673706055,13300
2020-04-03,5.329999923706055,5.329999923706055,4.800000190734863,4.949999809265137,4.480202674865723,5200
2020-04-06,5.110000133514404,5.5960001945495605,5.090000152587891,5.579999923706055,5.05040979385376,18500
2020-04-07,5.710000038146973,5.710000038146973,5.25,5.599999904632568,5.068511962890625,36300
2020-04-08,5.769999980926514,5.769999980926514,5.373000144958496,5.599999904632568,5.068511962890625,15800
2020-04-09,5.880000114440918,6.099999904632568,5.650000095367432,5.942999839782715,5.378957748413086,44900
2020-04-13,6.03000020980835,6.050000190734863,5.510000228881836,5.510000228881836,4.987053871154785,14400
2020-04-14,5.050000190734863,5.269999980926514,4.929999828338623,5.03000020980835,4.552609920501709,52000
2020-04-15,4.789999961853027,4.949999809265137,4.685999870300293,4.860000133514404,4.398744583129883,16300
2020-04-16,4.840000152587891,5.054999828338623,4.769999980926514,4.941999912261963,4.472961902618408,8800
2020-04-17,4.820000171661377,5.054999828338623,4.820000171661377,5.0,4.525457382202148,60300
2020-04-20,5.050000190734863,5.769999980926514,5.025000095367432,5.289999961853027,4.787933349609375,59500
2020-04-21,5.099999904632568,5.300000190734863,5.050000190734863,5.199999809265137,4.706475734710693,22100
2020-04-22,5.150000095367432,5.243000030517578,5.084000110626221,5.130000114440918,4.643118858337402,14400
2020-04-23,5.0,5.25,4.980000019073486,5.119999885559082,4.634067535400391,66600
2020-04-24,5.119999885559082,5.15500020980835,4.849999904632568,4.940000057220459,4.471151351928711,28200
2020-04-27,4.949999809265137,5.190000057220459,4.920000076293945,5.070000171661377,4.588813781738281,35100
2020-04-28,4.929999828338623,5.090000152587891,4.929999828338623,5.019999980926514,4.5435590744018555,33300
2020-04-29,5.019999980926514,5.980000019073486,4.96999979019165,5.510000228881836,4.987053871154785,161700
2020-04-30,5.21999979019165,5.489999771118164,5.150000095367432,5.300000190734863,4.7969841957092285,157300
2020-05-01,5.210000038146973,5.420000076293945,4.929999828338623,4.940000057220459,4.471151351928711,86200
2020-05-04,4.929999828338623,5.25,4.929999828338623,5.085999965667725,4.603294372558594,29300
2020-05-05,5.079999923706055,5.139999866485596,5.03000020980835,5.085000038146973,4.602390289306641,19100
2020-05-06,5.0,5.1620001792907715,4.920000076293945,5.079999923706055,4.597864151000977,4900
2020-05-07,4.880000114440918,5.03000020980835,4.789999961853027,4.920000076293945,4.453049659729004,30300
2020-05-08,4.699999809265137,4.989999771118164,4.679999828338623,4.809999942779541,4.353489875793457,42300
2020-05-11,4.610000133514404,4.75,4.519999980926514,4.659999847412109,4.21772575378418,37500
2020-05-12,4.510000228881836,4.699999809265137,4.5,4.551000118255615,4.119071006774902,27300
2020-05-13,4.610000133514404,4.699999809265137,4.420000076293945,4.421000003814697,4.00140905380249,13200
2020-05-14,4.460000038146973,4.550000190734863,4.360000133514404,4.449999809265137,4.027656555175781,32800
2020-05-15,4.46999979019165,4.599999904632568,4.329999923706055,4.599999904632568,4.163420677185059,25700
2020-05-18,4.650000095367432,4.699999809265137,4.539999961853027,4.539999961853027,4.109115123748779,23800
2020-05-19,4.639999866485596,4.699999809265137,4.349999904632568,4.389999866485596,3.97335147857666,33800
2020-05-20,4.710000038146973,4.960000038146973,4.710000038146973,4.764999866485596,4.312760353088379,47500
2020-05-21,4.670000076293945,4.989999771118164,4.670000076293945,4.989999771118164,4.516406059265137,15600
2020-05-22,4.690000057220459,4.949999809265137,4.579999923706055,4.849999904632568,4.389692783355713,45400
2020-05-26,4.510000228881836,4.829999923706055,4.510000228881836,4.75,4.299184322357178,28300
2020-05-27,4.699999809265137,4.96999979019165,4.611999988555908,4.800000190734863,4.344438552856445,45300
2020-05-28,4.389999866485596,4.730000019073486,4.389999866485596,4.639999866485596,4.199624061584473,75600
2020-05-29,4.300000190734863,4.610000133514404,4.28000020980835,4.599999904632568,4.163420677185059,54000
2020-06-01,4.5,4.699999809265137,4.401000022888184,4.650000095367432,4.208675384521484,14700
2020-06-02,4.769999980926514,4.815000057220459,4.559999942779541,4.659999847412109,4.21772575378418,36800
2020-06-03,4.849999904632568,4.849999904632568,4.599999904632568,4.679999828338623,4.235827445983887,26800
2020-06-04,4.789999961853027,4.85699987411499,4.699999809265137,4.710000038146973,4.2629804611206055,17700
2020-06-05,4.860000133514404,4.864999771118164,4.699999809265137,4.860000133514404,4.398744583129883,42700
2020-06-08,5.0,5.099999904632568,4.8520002365112305,5.019999980926514,4.5435590744018555,82400
2020-06-09,5.090000152587891,5.119999885559082,4.820000171661377,5.050000190734863,4.570711612701416,67600
2020-06-10,5.110000133514404,5.170000076293945,5.0,5.086999893188477,4.6041998863220215,21000
2020-06-11,4.800000190734863,5.050000190734863,4.559999942779541,4.559999942779541,4.127216815948486,12500
2020-06-12,4.840000152587891,4.900000095367432,4.681000232696533,4.860000133514404,4.398744583129883,18000
2020-06-15,4.550000190734863,4.800000190734863,4.449999809265137,4.71999979019165,4.272031307220459,10200
2020-06-16,4.659999847412109,4.869999885559082,4.630000114440918,4.730000019073486,4.2810821533203125,28300
2020-06-17,4.570000171661377,4.849999904632568,4.489999771118164,4.71999979019165,4.272031307220459,24500
2020-06-18,4.53000020980835,4.880000114440918,4.489999771118164,4.816999912261963,4.359825134277344,25400
2020-06-19,4.599999904632568,4.840000152587891,4.519999980926514,4.760000228881836,4.3082356452941895,24600
2020-06-22,4.610000133514404,4.730000019073486,4.568999767303467,4.670000076293945,4.226776599884033,22200
2020-06-23,4.619999885559082,4.800000190734863,4.559999942779541,4.690000057220459,4.244878768920898,68800
2020-06-24,4.650000095367432,4.829999923706055,4.650000095367432,4.659999847412109,4.21772575378418,38600
2020-06-25,4.630000114440918,4.760000228881836,4.586999893188477,4.650000095367432,4.208675384521484,41000
2020-06-26,4.53000020980835,4.71999979019165,4.5,4.559999942779541,4.127216815948486,24400
2020-06-29,4.599999904632568,4.75,4.551000118255615,4.71999979019165,4.272031307220459,10600
2020-06-30,4.849999904632568,4.849999904632568,4.579999923706055,4.619999885559082,4.181521892547607,46500
2020-07-01,4.710000038146973,5.25,4.710000038146973,5.0,4.525457382202148,34000
2020-07-02,5.0,5.210000038146973,4.699999809265137,4.699999809265137,4.253929138183594,31800
2020-07-06,4.849999904632568,5.119999885559082,4.849999904632568,4.909999847412109,4.443998336791992,29200
2020-07-07,5.099999904632568,5.170000076293945,5.010000228881836,5.03000020980835,4.552609920501709,21200
2020-07-08,5.110000133514404,5.21999979019165,4.949999809265137,4.960000038146973,4.489253520965576,25500
2020-07-09,5.110000133514404,5.179999828338623,5.010000228881836,5.070000171661377,4.588813781738281,41100
2020-07-10,5.099999904632568,5.119999885559082,4.849999904632568,4.929999828338623,4.462100028991699,22500
2020-07-13,4.869999885559082,5.119999885559082,4.75,4.75,4.299184322357178,14200
2020-07-14,4.960000038146973,5.099999904632568,4.900000095367432,5.050000190734863,4.570711612701416,37800
2020-07-15,5.25,5.25,5.019999980926514,5.239999771118164,4.742678642272949,48100
2020-07-16,5.25,5.369999885559082,5.139999866485596,5.300000190734863,4.7969841957092285,15600
2020-07-17,5.269999980926514,5.489999771118164,5.260000228881836,5.260000228881836,4.760781288146973,17700
2020-07-20,5.5,5.760000228881836,5.449999809265137,5.5,4.978002548217773,9600
2020-07-21,5.670000076293945,5.75,5.5,5.5,4.978002548217773,21500
2020-07-22,5.320000171661377,5.590000152587891,5.25,5.46999979019165,4.950849533081055,26800
2020-07-23,5.489999771118164,5.489999771118164,5.349999904632568,5.360000133514404,4.851289749145508,7900
2020-07-24,5.239999771118164,5.889999866485596,5.130000114440918,5.75,5.204275608062744,27200
2020-07-27,5.710000038146973,5.879000186920166,5.599999904632568,5.760000228881836,5.213326930999756,20500
2020-07-28,5.699999809265137,5.699999809265137,5.460000038146973,5.489999771118164,4.96895170211792,14600
2020-07-29,5.420000076293945,5.610000133514404,5.420000076293945,5.460000038146973,4.941798686981201,4500
2020-07-30,5.46999979019165,5.699999809265137,5.449999809265137,5.460000038146973,4.941798686981201,2800
2020-07-31,5.429999828338623,5.579999923706055,5.429999828338623,5.579999923706055,5.05040979385376,4300
2020-08-03,5.599999904632568,5.980000019073486,5.460000038146973,5.980000019073486,5.41244649887085,13600
2020-08-04,5.889999866485596,5.980000019073486,5.75,5.75,5.204275608062744,33300
2020-08-05,5.940000057220459,5.960000038146973,5.800000190734863,5.800000190734863,5.24953031539917,9400
2020-08-06,5.840000152587891,5.96999979019165,5.71999979019165,5.760000228881836,5.213326930999756,10600
2020-08-07,5.699999809265137,5.869999885559082,5.672999858856201,5.679999828338623,5.140919208526611,11900
2020-08-10,5.869999885559082,5.900000095367432,5.78000020980835,5.820000171661377,5.267632484436035,16100
2020-08-11,5.840000152587891,5.949999809265137,5.769000053405762,5.925000190734863,5.362667083740234,28400
2020-08-12,5.860000133514404,5.900000095367432,5.730000019073486,5.880000114440918,5.321937561035156,13000
2020-08-13,5.800000190734863,6.21999979019165,5.775000095367432,6.139999866485596,5.557260513305664,38800
2020-08-14,5.789999961853027,6.150000095367432,5.699999809265137,5.860000133514404,5.303835868835449,54800
2020-08-17,5.849999904632568,6.041999816894531,5.699999809265137,5.840000152587891,5.285734176635742,24900
2020-08-18,5.96999979019165,6.059999942779541,5.840000152587891,5.980000019073486,5.41244649887085,14800
2020-08-19,5.659999847412109,5.659999847412109,5.539999961853027,5.5970001220703125,5.065796375274658,42700
2020-08-20,5.489999771118164,5.514999866485596,5.300000190734863,5.429999828338623,4.914646148681641,26500
2020-08-21,5.289999961853027,5.449999809265137,5.224999904632568,5.449999809265137,4.932748317718506,21500
2020-08-24,5.639999866485596,5.650000095367432,5.5,5.610000133514404,5.0775628089904785,29000
2020-08-25,5.679999828338623,5.679999828338623,5.581999778747559,5.650000095367432,5.113766670227051,12800
2020-08-26,5.46999979019165,5.599999904632568,5.440000057220459,5.539999961853027,5.014206409454346,18800
2020-08-27,5.309999942779541,5.440000057220459,5.230000019073486,5.340000152587891,4.833188056945801,37900
2020-08-28,5.360000133514404,5.599999904632568,5.320000171661377,5.5,4.978002548217773,9500
2020-08-31,5.449999809265137,5.5,5.389999866485596,5.420000076293945,4.905595779418945,15000
2020-09-01,6.059999942779541,6.099999904632568,5.900000095367432,5.980000019073486,5.41244649887085,58600
2020-09-02,6.400000095367432,6.400000095367432,6.133999824523926,6.389999866485596,5.783533573150635,55600
2020-09-03,6.070000171661377,6.070000171661377,5.909999847412109,5.909999847412109,5.349090099334717,33600
2020-09-04,5.880000114440918,6.090000152587891,5.71999979019165,5.880000114440918,5.321937561035156,47000
2020-09-08,5.349999904632568,5.75,5.289999961853027,5.659999847412109,5.122817039489746,58300
2020-09-09,5.610000133514404,6.0,5.489999771118164,5.769999980926514,5.222376823425293,29000
2020-09-10,5.690000057220459,5.690000057220459,5.429999828338623,5.570000171661377,5.0413594245910645,22800
2020-09-11,5.880000114440918,5.994999885559082,5.670000076293945,5.690000057220459,5.149970054626465,21300
2020-09-14,5.849999904632568,5.929999828338623,5.829999923706055,5.860000133514404,5.303835868835449,14800
2020-09-15,5.949999809265137,5.949999809265137,5.840000152587891,5.880000114440918,5.321937561035156,4300
2020-09-16,5.800000190734863,5.949999809265137,5.699999809265137,5.872000217437744,5.314696788787842,6000
2020-09-17,5.71999979019165,5.900000095367432,5.650000095367432,5.848999977111816,5.293879985809326,14400
2020-09-18,5.760000228881836,5.849999904632568,5.630000114440918,5.710000038146973,5.168071746826172,16800
2020-09-21,5.519999980926514,5.675000190734863,5.429999828338623,5.5,4.978002548217773,7400
2020-09-22,5.610000133514404,5.610000133514404,5.460000038146973,5.460000038146973,4.941798686981201,19400
2020-09-23,5.460000038146973,5.570000171661377,5.300000190734863,5.300000190734863,4.7969841957092285,24000
2020-09-24,5.230000019073486,5.420000076293945,5.150000095367432,5.150000095367432,4.661221027374268,30200
2020-09-25,5.309999942779541,5.5,5.239999771118164,5.409999847412109,4.896544456481934,13700
2020-09-28,5.519999980926514,5.550000190734863,5.480000019073486,5.539999961853027,5.014206409454346,15200
2020-09-29,5.619999885559082,5.730000019073486,5.510000228881836,5.559999942779541,5.032308101654053,34100
2020-09-30,5.572000026702881,5.760000228881836,5.572000026702881,5.738999843597412,5.194319725036621,7200
2020-10-01,5.659999847412109,5.789000034332275,5.570000171661377,5.699999809265137,5.159021377563477,14900
2020-10-02,5.699999809265137,5.699999809265137,5.34499979019165,5.690000057220459,5.149970054626465,37200
2020-10-05,5.760000228881836,5.920000076293945,5.730000019073486,5.909999847412109,5.349090099334717,19000
2020-10-06,5.949999809265137,6.0,5.730000019073486,5.960000038146973,5.394344806671143,6900
2020-10-07,6.099999904632568,6.389999866485596,6.070000171661377,6.320000171661377,5.72017765045166,37200
2020-10-08,6.340000152587891,6.880000114440918,6.340000152587891,6.710000038146973,6.0731635093688965,47500
2020-10-09,6.789999961853027,6.800000190734863,6.498000144958496,6.550000190734863,5.928349018096924,18500
2020-10-12,6.929999828338623,7.159999847412109,6.710000038146973,6.889999866485596,6.236079692840576,22200
2020-10-13,6.659999847412109,6.75,6.420000076293945,6.625,5.996230125427246,8700
2020-10-14,6.760000228881836,7.0,6.630000114440918,6.690000057220459,6.055061340332031,18400
2020-10-15,6.820000171661377,7.03000020980835,6.617000102996826,6.849999904632568,6.19987678527832,10600
2020-10-16,7.019999980926514,7.019999980926514,6.855000019073486,6.940000057220459,6.281334400177002,14900
2020-10-19,6.920000076293945,7.329999923706055,6.829999923706055,6.920000076293945,6.263232707977295,35800
2020-10-20,6.940000057220459,7.099999904632568,6.823999881744385,6.823999881744385,6.17634391784668,8200
2020-10-21,7.03000020980835,7.039999961853027,6.849999904632568,7.0,6.335639476776123,11800
2020-10-22,7.110000133514404,7.320000171661377,7.050000190734863,7.25,6.561912536621094,28300
2020-10-23,7.15500020980835,7.349999904632568,7.15500020980835,7.179999828338623,6.498555660247803,12000
2020-10-26,7.079999923706055,7.139999866485596,6.980000019073486,7.050000190734863,6.380894184112549,6400
2020-10-27,6.980000019073486,7.0,6.730000019073486,6.809999942779541,6.163671970367432,3500
2020-10-28,6.5,6.610000133514404,6.199999809265137,6.25,5.656821250915527,13000
2020-10-29,6.429999828338623,6.710000038146973,6.289999961853027,6.5,5.88309383392334,14700
2020-10-30,6.579999923706055,6.579999923706055,6.28000020980835,6.361999988555908,5.7581915855407715,11700
2020-11-02,6.510000228881836,6.840000152587891,6.400000095367432,6.650000095367432,6.018858432769775,22000
2020-11-03,6.650000095367432,6.829999923706055,6.510000228881836,6.71999979019165,6.08221435546875,15800
2020-11-04,6.960000038146973,7.135000228881836,6.900000095367432,7.070000171661377,6.398996829986572,18400
2020-11-05,7.03000020980835,7.050000190734863,6.849999904632568,7.03000020980835,6.362792491912842,13100
2020-11-06,7.03000020980835,7.03000020980835,6.800000190734863,6.800000190734863,6.154621601104736,1200
2020-11-09,6.949999809265137,6.954999923706055,6.619999885559082,6.880000114440918,6.227029323577881,11600
2020-11-10,6.929999828338623,7.070000171661377,6.929999828338623,7.025000095367432,6.358267307281494,17300
2020-11-11,7.070000171661377,7.079999923706055,6.940000057220459,7.03000020980835,6.362792491912842,21600
2020-11-12,7.039999961853027,7.039999961853027,6.510000228881836,6.510000228881836,5.89214563369751,14100
2020-11-13,7.059999942779541,7.065000057220459,6.909999847412109,6.960000038146973,6.299436569213867,11100
2020-11-16,7.0,7.050000190734863,6.929999828338623,6.96999979019165,6.3084869384765625,22900
2020-11-17,7.179999828338623,7.215000152587891,6.900000095367432,7.010000228881836,6.344690799713135,78900
2020-11-18,7.050000190734863,7.489999771118164,7.050000190734863,7.46999979019165,6.761032581329346,24000
2020-11-19,7.25,7.480000019073486,7.239999771118164,7.449999809265137,6.7429304122924805,23800
2020-11-20,7.710000038146973,7.76200008392334,7.482999801635742,7.650000095367432,6.923949241638184,26700
2020-11-23,7.659999847412109,8.300000190734863,7.659999847412109,8.050000190734863,7.285985946655273,35700
2020-11-24,7.880000114440918,8.239999771118164,7.568999767303467,7.78000020980835,7.041611194610596,122500
2020-11-25,7.679999828338623,8.09000015258789,7.610000133514404,8.010000228881836,7.249782562255859,37800
2020-11-27,8.050000190734863,8.050000190734863,7.789999961853027,7.980000019073486,7.222629547119141,19200
2020-11-30,7.900000095367432,8.0,7.809999942779541,7.909999847412109,7.159273147583008,12600
2020-12-01,7.920000076293945,7.920000076293945,7.578000068664551,7.71999979019165,6.987305641174316,8500
2020-12-02,7.78000020980835,8.119999885559082,7.769999980926514,7.875,7.221132755279541,14100
2020-12-03,7.980000019073486,7.980000019073486,7.760000228881836,7.949999809265137,7.289905548095703,46500
2020-12-04,7.829999923706055,8.050000190734863,7.699999809265137,8.050000190734863,7.3816022872924805,53100
2020-12-07,7.900000095367432,8.0,7.849999904632568,7.880000114440918,7.225717067718506,28900
2020-12-08,7.75,8.149999618530273,7.739999771118164,7.96999979019165,7.308244228363037,34800
2020-12-09,7.820000171661377,7.889999866485596,7.5,7.659999847412109,7.023983955383301,24900
2020-12-10,7.599999904632568,8.0,7.599999904632568,7.889999866485596,7.23488712310791,99600
2020-12-11,8.149999618530273,8.449999809265137,8.039999961853027,8.289999961853027,7.601674556732178,49200
2020-12-14,8.9399995803833,8.9399995803833,8.479999542236328,8.619999885559082,7.9042744636535645,41600
2020-12-15,8.84000015258789,8.960000038146973,8.550000190734863,8.699999809265137,7.977632522583008,23800
2020-12-16,8.850000381469727,9.789999961853027,8.611000061035156,9.300000190734863,8.527813911437988,75100
2020-12-17,8.979999542236328,8.994999885559082,8.65999984741211,8.890000343322754,8.151856422424316,31300
2020-12-18,8.989999771118164,9.0600004196167,8.857999801635742,8.899999618530273,8.161025047302246,24800
2020-12-21,8.449999809265137,8.75,8.439000129699707,8.550000190734863,7.840086936950684,41900
2020-12-22,8.850000381469727,8.989999771118164,8.65999984741211,8.899999618530273,8.161025047302246,15600
2020-12-23,8.829999923706055,8.920000076293945,8.699999809265137,8.729999542236328,8.00514030456543,13300
2020-12-24,8.710000038146973,8.760000228881836,8.5600004196167,8.670000076293945,7.950123310089111,3800
2020-12-28,8.710000038146973,8.770000457763672,8.524999618530273,8.640000343322754,7.922614574432373,29800
2020-12-29,8.649999618530273,8.737000465393066,8.350000381469727,8.399999618530273,7.702541351318359,16000
2020-12-30,8.619999885559082,8.779999732971191,8.529999732971191,8.779999732971191,8.050990104675293,14300
