Date,Open,High,Low,Close,Adj Close,Volume
2020-05-18,24.81999969482422,24.850000381469727,24.649999618530273,24.799999237060547,22.8798828125,121600
2020-05-19,24.799999237060547,24.799999237060547,24.719999313354492,24.75,22.833755493164062,46500
2020-05-20,24.75,24.899999618530273,24.700000762939453,24.889999389648438,22.962915420532227,112700
2020-05-21,24.899999618530273,25.0,24.799999237060547,25.0,23.06439781188965,25500
2020-05-22,25.049999237060547,25.25,25.0,25.030000686645508,23.09207534790039,27300
2020-05-26,25.100000381469727,25.399999618530273,25.100000381469727,25.290000915527344,23.331945419311523,27900
2020-05-27,25.290000915527344,25.290000915527344,25.15999984741211,25.209999084472656,23.25813865661621,64100
2020-05-28,25.399999618530273,25.399999618530273,25.200000762939453,25.219999313354492,23.267364501953125,121600
2020-05-29,25.360000610351562,25.399999618530273,25.200000762939453,25.3700008392334,23.405750274658203,44600
2020-06-01,25.350000381469727,25.399999618530273,25.270000457763672,25.399999618530273,23.433425903320312,64900
2020-06-02,25.3700008392334,25.389999389648438,24.770000457763672,25.350000381469727,23.387298583984375,106500
2020-06-03,25.350000381469727,25.350000381469727,25.049999237060547,25.200000762939453,23.24891471862793,16900
2020-06-04,25.239999771118164,25.25,25.010000228881836,25.190000534057617,23.239688873291016,57600
2020-06-05,25.25,25.350000381469727,25.190000534057617,25.299999237060547,23.341169357299805,78100
2020-06-08,25.149999618530273,25.299999237060547,25.149999618530273,25.280000686645508,23.32271957397461,37300
2020-06-09,25.280000686645508,25.299999237060547,25.079999923706055,25.299999237060547,23.341169357299805,44800
2020-06-10,25.280000686645508,25.549999237060547,25.145000457763672,25.350000381469727,23.387298583984375,82000
2020-06-11,25.15999984741211,25.25,24.280000686645508,24.739999771118164,22.82452964782715,47200
2020-06-12,24.969999313354492,25.0,24.545000076293945,24.850000381469727,22.92601203918457,28100
2020-06-15,24.709999084472656,24.989999771118164,24.520000457763672,24.719999313354492,22.806076049804688,12600
2020-06-16,25.0,25.350000381469727,24.899999618530273,25.18000030517578,23.2304630279541,36600
2020-06-17,25.219999313354492,25.219999313354492,24.719999313354492,24.829999923706055,22.907560348510742,51700
2020-06-18,24.8700008392334,25.0,24.459999084472656,25.0,23.06439781188965,54900
2020-06-19,25.0,25.149999618530273,24.850000381469727,25.059999465942383,23.119752883911133,44400
2020-06-22,25.059999465942383,25.420000076293945,25.010000228881836,25.420000076293945,23.451879501342773,32900
2020-06-23,25.43000030517578,25.489999771118164,25.31999969482422,25.489999771118164,23.51645851135254,23400
2020-06-24,25.329999923706055,25.450000762939453,25.209999084472656,25.450000762939453,23.479557037353516,36900
2020-06-25,25.3799991607666,25.489999771118164,25.239999771118164,25.450000762939453,23.479557037353516,34500
2020-06-26,25.280000686645508,25.44499969482422,25.2549991607666,25.34000015258789,23.378074645996094,24800
2020-06-29,25.274999618530273,25.450000762939453,25.274999618530273,25.399999618530273,23.433425903320312,61100
2020-06-30,25.299999237060547,25.440000534057617,24.6200008392334,24.6200008392334,22.713821411132812,169100
2020-07-01,24.719999313354492,24.940000534057617,24.520000457763672,24.719999313354492,22.806076049804688,119300
2020-07-02,24.799999237060547,24.8700008392334,24.69499969482422,24.69499969482422,22.78301239013672,28700
2020-07-06,24.790000915527344,24.809999465942383,24.6299991607666,24.65999984741211,22.750722885131836,51900
2020-07-07,24.5,24.731000900268555,24.5,24.610000610351562,22.704593658447266,54500
2020-07-08,24.600000381469727,24.709999084472656,24.530000686645508,24.559999465942383,22.658462524414062,35500
2020-07-09,24.65999984741211,24.670000076293945,24.520000457763672,24.6200008392334,22.713821411132812,34000
2020-07-10,24.639999389648438,24.639999389648438,24.579999923706055,24.639999389648438,22.732269287109375,25300
2020-07-13,24.579999923706055,24.639999389648438,24.458999633789062,24.510000228881836,22.612333297729492,34900
2020-07-14,24.625,24.625,24.520000457763672,24.570999145507812,22.668611526489258,16000
2020-07-15,24.700000762939453,24.969999313354492,24.700000762939453,24.889999389648438,22.962915420532227,18900
2020-07-16,24.899999618530273,25.190000534057617,24.885000228881836,25.059999465942383,23.119752883911133,26000
2020-07-17,25.0,25.299999237060547,25.0,25.200000762939453,23.24891471862793,24600
2020-07-20,25.209999084472656,25.270000457763672,25.15999984741211,25.200000762939453,23.24891471862793,8000
2020-07-21,25.163999557495117,25.3799991607666,24.760000228881836,25.08799934387207,23.14558219909668,14600
2020-07-22,25.190000534057617,25.309999465942383,25.1200008392334,25.200000762939453,23.24891471862793,13000
2020-07-23,25.200000762939453,25.280000686645508,25.200000762939453,25.200000762939453,23.24891471862793,6800
2020-07-24,25.329999923706055,25.34000015258789,25.100000381469727,25.100000381469727,23.15665626525879,15000
2020-07-27,25.19099998474121,25.260000228881836,25.100000381469727,25.1200008392334,23.17510986328125,18600
2020-07-28,25.25,25.270000457763672,25.149999618530273,25.149999618530273,23.202783584594727,4200
2020-07-29,25.260000228881836,25.5,25.260000228881836,25.3700008392334,23.405750274658203,14900
2020-07-30,25.5,25.56999969482422,25.399999618530273,25.52400016784668,23.547828674316406,14900
2020-07-31,25.549999237060547,25.732999801635742,25.23699951171875,25.239999771118164,23.285816192626953,31700
2020-08-03,25.3799991607666,25.475000381469727,25.2549991607666,25.31999969482422,23.359619140625,14000
2020-08-04,25.040000915527344,25.149999618530273,24.924999237060547,25.09000015258789,23.55489730834961,17200
2020-08-05,25.1200008392334,25.280000686645508,25.09000015258789,25.239999771118164,23.69571876525879,17400
2020-08-06,25.239999771118164,25.239999771118164,25.200000762939453,25.200000762939453,23.658166885375977,5500
2020-08-07,25.200000762939453,25.219999313354492,25.1200008392334,25.200000762939453,23.658166885375977,25100
2020-08-10,25.239999771118164,25.3439998626709,25.200000762939453,25.3439998626709,23.79335594177246,12900
2020-08-11,25.34600067138672,25.420000076293945,25.34000015258789,25.34000015258789,23.789600372314453,5900
2020-08-12,25.34000015258789,25.440000534057617,25.25,25.43899917602539,23.882543563842773,23200
2020-08-13,25.35099983215332,25.399999618530273,25.340999603271484,25.399999618530273,23.845928192138672,12000
2020-08-14,25.3799991607666,25.639999389648438,25.3799991607666,25.61400032043457,24.046836853027344,16700
2020-08-17,25.75,25.989999771118164,25.700000762939453,25.979999542236328,24.39044189453125,10400
2020-08-18,25.979999542236328,25.989999771118164,25.799999237060547,25.989999771118164,24.399831771850586,24100
2020-08-19,25.860000610351562,25.989999771118164,25.749000549316406,25.950000762939453,24.36227798461914,29300
2020-08-20,25.854999542236328,25.854999542236328,25.670000076293945,25.81999969482422,24.240232467651367,29400
2020-08-21,25.799999237060547,25.850000381469727,25.75,25.850000381469727,24.268396377563477,11900
2020-08-24,25.850000381469727,25.850000381469727,25.75,25.84000015258789,24.259008407592773,37800
2020-08-25,25.799999237060547,25.889999389648438,25.75,25.889999389648438,24.30594825744629,15600
2020-08-26,25.854999542236328,26.0,25.850000381469727,25.899999618530273,24.315336227416992,20800
2020-08-27,25.760000228881836,26.1200008392334,25.760000228881836,26.0,24.40921974182129,25200
2020-08-28,26.100000381469727,26.149999618530273,26.0,26.0,24.40921974182129,6800
2020-08-31,26.079999923706055,26.459999084472656,25.860000610351562,26.350000381469727,24.737804412841797,36700
2020-09-01,26.350000381469727,26.56999969482422,26.322999954223633,26.489999771118164,24.869239807128906,16700
2020-09-02,26.59000015258789,26.600000381469727,26.209999084472656,26.315000534057617,24.70494842529297,30100
2020-09-03,26.420000076293945,26.600000381469727,26.270000457763672,26.458999633789062,24.840133666992188,20200
2020-09-04,26.270000457763672,26.520000457763672,26.270000457763672,26.5,24.878623962402344,6700
2020-09-08,26.270000457763672,26.540000915527344,26.270000457763672,26.3799991607666,24.765966415405273,10000
2020-09-09,26.399999618530273,26.44300079345703,26.100000381469727,26.15999984741211,24.559429168701172,31800
2020-09-10,26.200000762939453,26.441999435424805,26.15999984741211,26.25,24.643922805786133,8200
2020-09-11,26.25,26.25,26.15999984741211,26.219999313354492,24.61575698852539,31100
2020-09-14,26.25,26.25,26.059999465942383,26.149999618530273,24.550039291381836,35000
2020-09-15,26.149999618530273,26.239999771118164,25.860000610351562,26.06999969482422,24.474937438964844,28900
2020-09-16,26.1200008392334,26.18000030517578,25.920000076293945,26.020000457763672,24.427995681762695,58500
2020-09-17,26.020000457763672,26.18000030517578,25.898000717163086,26.18000030517578,24.578205108642578,28500
2020-09-18,26.15999984741211,26.18000030517578,25.940000534057617,26.09000015258789,24.493711471557617,17200
2020-09-21,26.0,26.25,25.899999618530273,26.191999435424805,24.589473724365234,19000
2020-09-22,26.25,26.25,26.049999237060547,26.25,24.643922805786133,11800
2020-09-23,26.200000762939453,26.25,26.069000244140625,26.100000381469727,24.50309944152832,21700
2020-09-24,26.049999237060547,26.079999923706055,25.75,26.059999465942383,24.465547561645508,14500
2020-09-25,26.100000381469727,26.25,25.90999984741211,25.924999237060547,24.33880615234375,51800
2020-09-28,26.149999618530273,26.149999618530273,25.959999084472656,25.989999771118164,24.399831771850586,38800
2020-09-29,26.100000381469727,26.100000381469727,25.899999618530273,26.049999237060547,24.456159591674805,25200
2020-09-30,25.969999313354492,27.43000030517578,25.959999084472656,27.40999984741211,25.732948303222656,263500
2020-10-01,27.110000610351562,27.190000534057617,27.020000457763672,27.139999389648438,25.479467391967773,185400
2020-10-02,26.950000762939453,27.023000717163086,26.950000762939453,27.010000228881836,25.357423782348633,42400
2020-10-05,26.700000762939453,27.020000457763672,26.700000762939453,26.850000381469727,25.207212448120117,34000
2020-10-06,26.799999237060547,27.100000381469727,26.75,27.100000381469727,25.441917419433594,16400
2020-10-07,27.010000228881836,27.469999313354492,26.989999771118164,27.469999313354492,25.789276123046875,46200
2020-10-08,27.450000762939453,27.489999771118164,27.1200008392334,27.489999771118164,25.808053970336914,19000
2020-10-09,27.920000076293945,27.920000076293945,27.25,27.3799991607666,25.70478630065918,24200
2020-10-12,27.299999237060547,27.6299991607666,27.235000610351562,27.59000015258789,25.901935577392578,17700
2020-10-13,27.454999923706055,27.600000381469727,27.309999465942383,27.600000381469727,25.911327362060547,15700
2020-10-14,27.799999237060547,27.799999237060547,27.459999084472656,27.670000076293945,25.97704315185547,11300
2020-10-15,27.559999465942383,27.559999465942383,27.399999618530273,27.5,25.81744384765625,6300
2020-10-16,27.649999618530273,27.709999084472656,27.40999984741211,27.575000762939453,25.887855529785156,12400
2020-10-19,27.450000762939453,27.625999450683594,27.440000534057617,27.579999923706055,25.892547607421875,21800
2020-10-20,27.4950008392334,27.68000030517578,27.43000030517578,27.520000457763672,25.836219787597656,26100
2020-10-21,27.420000076293945,27.649999618530273,27.280000686645508,27.280000686645508,25.610904693603516,12700
2020-10-22,27.364999771118164,27.5,27.190000534057617,27.190000534057617,25.52640724182129,53500
2020-10-23,27.079999923706055,27.200000762939453,27.049999237060547,27.170000076293945,25.507633209228516,5900
2020-10-26,27.200000762939453,27.200000762939453,26.989999771118164,27.200000762939453,25.535799026489258,14900
2020-10-27,27.09000015258789,27.200000762939453,26.850000381469727,26.940000534057617,25.291704177856445,32800
2020-10-28,26.850000381469727,27.059999465942383,26.700000762939453,26.84000015258789,25.19782257080078,30200
2020-10-29,26.959999084472656,27.100000381469727,26.90999984741211,26.93000030517578,25.282318115234375,20000
2020-10-30,26.6200008392334,27.299999237060547,26.584999084472656,27.270000457763672,25.60151481628418,28600
2020-11-02,27.149999618530273,27.5,27.0,27.450000762939453,25.770503997802734,13100
2020-11-03,26.80500030517578,27.579999923706055,26.80500030517578,27.434999465942383,25.756418228149414,8500
2020-11-04,26.989999771118164,27.3700008392334,26.579999923706055,27.100000381469727,25.854686737060547,8300
2020-11-05,27.18000030517578,27.299999237060547,27.149999618530273,27.299999237060547,26.045495986938477,5400
2020-11-06,27.299999237060547,27.299999237060547,27.1299991607666,27.25,25.997793197631836,3400
2020-11-09,27.25,27.299999237060547,27.0,27.1299991607666,25.8833065032959,26400
2020-11-10,27.200000762939453,27.299999237060547,27.100000381469727,27.270000457763672,26.016874313354492,13700
2020-11-11,27.290000915527344,27.350000381469727,27.184999465942383,27.270000457763672,26.016874313354492,11100
2020-11-12,27.270000457763672,27.350000381469727,27.100000381469727,27.200000762939453,25.950090408325195,25200
2020-11-13,27.209999084472656,27.25,27.049999237060547,27.25,25.997793197631836,24200
2020-11-16,27.209999084472656,27.5,27.010000228881836,27.309999465942383,26.055036544799805,16200
2020-11-17,27.31999969482422,27.350000381469727,27.049999237060547,27.100000381469727,25.854686737060547,248200
2020-11-18,27.170000076293945,27.25,27.04800033569336,27.09000015258789,25.84514617919922,16500
2020-11-19,27.149999618530273,27.25,27.049999237060547,27.209999084472656,25.95962905883789,13100
2020-11-20,27.059999465942383,27.25,27.0,27.149999618530273,25.902387619018555,13000
2020-11-23,27.1200008392334,27.229999542236328,27.110000610351562,27.16200065612793,25.913837432861328,13400
2020-11-24,27.211999893188477,27.25,27.0,27.09000015258789,25.84514617919922,36100
2020-11-25,27.0,27.0,26.559999465942383,26.770000457763672,25.53985023498535,12400
2020-11-27,26.76799964904785,26.989999771118164,26.76799964904785,26.989999771118164,25.749740600585938,8600
2020-11-30,26.959999084472656,27.1299991607666,26.760000228881836,27.049999237060547,25.80698013305664,16000
2020-12-01,27.0,27.200000762939453,26.799999237060547,26.959999084472656,25.721118927001953,12200
2020-12-02,27.0,27.270000457763672,27.0,27.0,25.759281158447266,8600
2020-12-03,27.239999771118164,27.239999771118164,27.0,27.149999618530273,25.902387619018555,15600
2020-12-04,27.219999313354492,27.25,27.115999221801758,27.25,25.997793197631836,6300
2020-12-07,27.270000457763672,27.309999465942383,27.25,27.30900001525879,26.054080963134766,11800
2020-12-08,27.43000030517578,27.84000015258789,27.43000030517578,27.600000381469727,26.331710815429688,13400
2020-12-09,27.75,27.75,27.579999923706055,27.68000030517578,26.40803337097168,9400
2020-12-10,27.5,27.84000015258789,27.100000381469727,27.729999542236328,26.45573616027832,9600
2020-12-11,27.239999771118164,27.850000381469727,27.231000900268555,27.84000015258789,26.56068229675293,5600
2020-12-14,27.829999923706055,27.850000381469727,27.760000228881836,27.850000381469727,26.570222854614258,8300
2020-12-15,27.850000381469727,27.933000564575195,27.690000534057617,27.899999618530273,26.617921829223633,8700
2020-12-16,27.895999908447266,27.90999984741211,27.450000762939453,27.760000228881836,26.484355926513672,11800
2020-12-17,27.860000610351562,28.200000762939453,27.614999771118164,28.062000274658203,26.77248191833496,21400
2020-12-18,27.760000228881836,28.25,27.760000228881836,28.25,26.951841354370117,7400
2020-12-21,28.170000076293945,28.18000030517578,27.6299991607666,27.6299991607666,26.360328674316406,23600
2020-12-22,28.0,28.25,27.934999465942383,28.209999084472656,26.913677215576172,20300
2020-12-23,28.299999237060547,28.299999237060547,27.76799964904785,27.8700008392334,26.589303970336914,6500
2020-12-24,28.132999420166016,28.132999420166016,27.649999618530273,27.899999618530273,26.617921829223633,10100
2020-12-28,27.81999969482422,27.950000762939453,27.780000686645508,27.850000381469727,26.570222854614258,1900
2020-12-29,27.8799991607666,28.290000915527344,27.8799991607666,28.290000915527344,26.990005493164062,5800
2020-12-30,27.895999908447266,27.895999908447266,27.895999908447266,27.895999908447266,26.61410903930664,900
