Date,Open,High,Low,Close,Adj Close,Volume
2020-09-21,24.700000762939453,24.860000610351562,24.450000762939453,24.75,22.892154693603516,71500
2020-09-22,24.799999237060547,24.8700008392334,24.75,24.8700008392334,23.003149032592773,52100
2020-09-23,24.850000381469727,24.850000381469727,24.700000762939453,24.739999771118164,22.882905960083008,40700
2020-09-24,24.739999771118164,24.75,24.66699981689453,24.700000762939453,22.84590721130371,35700
2020-09-25,24.739999771118164,24.850000381469727,24.649999618530273,24.799999237060547,22.938400268554688,37000
2020-09-28,24.850000381469727,24.850000381469727,24.75,24.790000915527344,22.929155349731445,33700
2020-09-29,24.799999237060547,24.899999618530273,24.600000381469727,24.899999618530273,23.030893325805664,23800
2020-09-30,24.8700008392334,24.93000030517578,24.850000381469727,24.90999984741211,23.040145874023438,23500
2020-10-01,24.889999389648438,25.0,24.8700008392334,24.899999618530273,23.161998748779297,29300
2020-10-02,24.899999618530273,25.0,24.850000381469727,24.850000381469727,23.115489959716797,18500
2020-10-05,25.0,25.0,24.809999465942383,24.989999771118164,23.245718002319336,39400
2020-10-06,25.0,25.0,24.75,24.8700008392334,23.134096145629883,21200
2020-10-07,24.8700008392334,24.989999771118164,24.8700008392334,24.959999084472656,23.217811584472656,3700
2020-10-08,25.0,25.049999237060547,24.950000762939453,25.0,23.255020141601562,7600
2020-10-09,25.06999969482422,25.06999969482422,24.98699951171875,25.030000686645508,23.282928466796875,5000
2020-10-12,25.049999237060547,25.079999923706055,24.979999542236328,24.979999542236328,23.236413955688477,5200
2020-10-13,25.040000915527344,25.040000915527344,24.975000381469727,24.979999542236328,23.236413955688477,5900
2020-10-14,24.969999313354492,25.0,24.950000762939453,24.979999542236328,23.236413955688477,15100
2020-10-15,24.940000534057617,25.0,24.93000030517578,25.0,23.255020141601562,24000
2020-10-16,25.0,25.06999969482422,24.979999542236328,24.979999542236328,23.236413955688477,13800
2020-10-19,25.06999969482422,25.06999969482422,24.950000762939453,24.950000762939453,23.208511352539062,3500
2020-10-20,24.950000762939453,25.030000686645508,24.950000762939453,25.0,23.255020141601562,4100
2020-10-21,25.049999237060547,25.049999237060547,24.940000534057617,24.940000534057617,23.199207305908203,6800
2020-10-22,25.0,25.0,24.920000076293945,24.979999542236328,23.236413955688477,10900
2020-10-23,25.0,25.0,24.95599937438965,25.0,23.255020141601562,14900
2020-10-26,24.959999084472656,25.0,24.915000915527344,24.989999771118164,23.245718002319336,12700
2020-10-27,24.944000244140625,24.950000762939453,24.81999969482422,24.950000762939453,23.208511352539062,12500
2020-10-28,24.940000534057617,24.940000534057617,24.610000610351562,24.68000030517578,22.957355499267578,16400
2020-10-29,24.709999084472656,24.8799991607666,24.709999084472656,24.8799991607666,23.143394470214844,7900
2020-10-30,24.860000610351562,24.8700008392334,24.610000610351562,24.760000228881836,23.031770706176758,10200
2020-11-02,24.860000610351562,24.860000610351562,24.6200008392334,24.770000457763672,23.041072845458984,2500
2020-11-03,24.770000457763672,24.8799991607666,24.770000457763672,24.81999969482422,23.087583541870117,4800
2020-11-04,24.700000762939453,24.8799991607666,24.695999145507812,24.81999969482422,23.087583541870117,7800
2020-11-05,24.700000762939453,24.899999618530273,24.690000534057617,24.899999618530273,23.161998748779297,7900
2020-11-06,24.8799991607666,24.8799991607666,24.812000274658203,24.820999145507812,23.08851432800293,2700
2020-11-09,24.899999618530273,24.950000762939453,24.889999389648438,24.950000762939453,23.208511352539062,8200
2020-11-10,25.0,25.0,24.864999771118164,24.950000762939453,23.208511352539062,7700
2020-11-11,24.885000228881836,25.0,24.885000228881836,24.93000030517578,23.18990707397461,13000
2020-11-12,24.885000228881836,24.959999084472656,24.868999481201172,24.899999618530273,23.161998748779297,12500
2020-11-13,24.959999084472656,25.25,24.959999084472656,25.170000076293945,23.41315460205078,29600
2020-11-16,25.260000228881836,25.260000228881836,25.100000381469727,25.197999954223633,23.43920135498047,16600
2020-11-17,25.110000610351562,25.200000762939453,24.989999771118164,25.09000015258789,23.3387393951416,15400
2020-11-18,25.09000015258789,25.09000015258789,24.950000762939453,25.06999969482422,23.32013511657715,36700
2020-11-19,25.040000915527344,25.229999542236328,25.030000686645508,25.229999542236328,23.46896743774414,18300
2020-11-20,25.200000762939453,25.200000762939453,25.02199935913086,25.190000534057617,23.431760787963867,900
2020-11-23,25.239999771118164,25.40999984741211,25.200000762939453,25.399999618530273,23.627099990844727,19100
2020-11-24,25.40999984741211,25.549999237060547,25.40999984741211,25.450000762939453,23.67361068725586,8300
2020-11-25,25.3799991607666,25.700000762939453,25.3799991607666,25.690000534057617,23.896860122680664,16200
2020-11-27,25.5,25.687000274658203,25.3700008392334,25.424999237060547,23.65035629272461,10100
2020-11-30,25.540000915527344,25.540000915527344,25.399999618530273,25.4950008392334,23.715471267700195,4200
2020-12-01,25.5,25.549999237060547,25.399999618530273,25.450000762939453,23.67361068725586,9500
2020-12-02,25.450000762939453,25.469999313354492,25.299999237060547,25.450000762939453,23.67361068725586,7700
2020-12-03,25.479999542236328,25.549999237060547,25.409000396728516,25.409000396728516,23.63547134399414,1600
2020-12-04,25.450000762939453,25.65999984741211,25.280000686645508,25.649999618530273,23.859649658203125,16900
2020-12-07,25.75,25.75,25.5,25.690000534057617,23.896860122680664,2900
2020-12-08,25.6299991607666,26.0,25.6200008392334,25.989999771118164,24.175918579101562,6200
2020-12-09,25.90999984741211,26.100000381469727,25.899999618530273,26.0,24.18522071838379,13400
2020-12-10,25.625,26.0,25.625,26.0,24.18522071838379,6200
2020-12-11,26.0,26.0,25.600000381469727,25.93400001525879,24.12382698059082,7900
2020-12-14,26.0,26.0,25.559999465942383,26.0,24.18522071838379,7500
2020-12-15,26.0,26.219999313354492,26.0,26.158000946044922,24.33219337463379,2400
2020-12-16,25.93000030517578,26.219999313354492,25.899999618530273,26.100000381469727,24.278242111206055,6500
2020-12-17,26.030000686645508,26.197999954223633,26.0,26.010000228881836,24.194522857666016,5900
2020-12-18,25.829999923706055,25.989999771118164,25.790000915527344,25.950000762939453,24.138710021972656,14000
2020-12-21,25.920000076293945,25.950000762939453,25.910999298095703,25.950000762939453,24.138710021972656,1900
2020-12-22,25.59000015258789,25.75,25.559999465942383,25.75,23.95267105102539,4200
2020-12-23,25.950000762939453,25.950000762939453,25.950000762939453,25.950000762939453,24.138710021972656,200
2020-12-24,25.950000762939453,25.950000762939453,25.950000762939453,25.950000762939453,24.138710021972656,0
2020-12-28,25.899999618530273,26.0,25.886999130249023,25.989999771118164,24.175918579101562,7700
2020-12-29,25.989999771118164,26.0,25.989999771118164,26.0,24.18522071838379,5700
2020-12-30,25.639999389648438,25.639999389648438,25.5,25.559999465942383,24.212692260742188,8000
