Date,Open,High,Low,Close,Adj Close,Volume
2019-07-17,10.100000381469727,10.289999961853027,9.75,9.75,9.75,500900
2019-07-18,9.8100004196167,9.899999618530273,9.600000381469727,9.75,9.75,108700
2019-07-19,9.706999778747559,9.706999778747559,9.5,9.517999649047852,9.517999649047852,60700
2019-07-22,9.539999961853027,9.588000297546387,9.199999809265137,9.199999809265137,9.199999809265137,39900
2019-07-23,9.25,9.331000328063965,8.739999771118164,9.229999542236328,9.229999542236328,130000
2019-07-24,9.020000457763672,9.199999809265137,8.95199966430664,9.140000343322754,9.140000343322754,62600
2019-07-25,9.140000343322754,9.140000343322754,9.010000228881836,9.039999961853027,9.039999961853027,29700
2019-07-26,8.899999618530273,8.944000244140625,8.850000381469727,8.90999984741211,8.90999984741211,66200
2019-07-29,8.930000305175781,8.930000305175781,8.850000381469727,8.869999885559082,8.869999885559082,22600
2019-07-30,8.859999656677246,8.996999740600586,8.859999656677246,8.979999542236328,8.979999542236328,52600
2019-07-31,8.920000076293945,9.1899995803833,8.920000076293945,9.050000190734863,9.050000190734863,14000
2019-08-01,9.050000190734863,9.119999885559082,9.0,9.09000015258789,9.09000015258789,29800
2019-08-02,9.104999542236328,9.199999809265137,9.104999542236328,9.149999618530273,9.149999618530273,9200
2019-08-05,9.175999641418457,9.229999542236328,9.149999618530273,9.149999618530273,9.149999618530273,29800
2019-08-06,9.140000343322754,9.149999618530273,9.09000015258789,9.09000015258789,9.09000015258789,2700
2019-08-07,9.140000343322754,9.149999618530273,9.09000015258789,9.09000015258789,9.09000015258789,2700
2019-08-08,8.993000030517578,9.0,8.967000007629395,8.967000007629395,8.967000007629395,900
2019-08-09,9.0,9.069999694824219,9.0,9.039999961853027,9.039999961853027,10200
2019-08-12,9.0,9.100000381469727,8.949999809265137,9.09000015258789,9.09000015258789,4100
2019-08-13,9.0,9.119999885559082,9.0,9.050000190734863,9.050000190734863,8800
2019-08-14,9.01099967956543,9.034000396728516,8.914999961853027,9.0,9.0,28500
2019-08-15,8.949999809265137,9.0,8.880000114440918,8.925000190734863,8.925000190734863,41600
2019-08-16,8.9399995803833,8.949999809265137,8.906000137329102,8.930000305175781,8.930000305175781,15200
2019-08-19,8.920000076293945,8.9399995803833,8.899999618530273,8.90999984741211,8.90999984741211,31600
2019-08-20,8.913000106811523,8.9399995803833,8.899999618530273,8.90999984741211,8.90999984741211,17100
2019-08-21,8.899999618530273,8.9399995803833,8.880000114440918,8.914999961853027,8.914999961853027,16600
2019-08-22,8.968999862670898,8.989999771118164,8.899999618530273,8.899999618530273,8.899999618530273,2800
2019-08-23,8.902999877929688,8.930000305175781,8.899999618530273,8.930000305175781,8.930000305175781,1200
2019-08-26,8.940999984741211,8.989999771118164,8.940999984741211,8.989999771118164,8.989999771118164,1500
2019-08-27,8.932000160217285,8.989999771118164,8.932000160217285,8.979999542236328,8.979999542236328,2300
2019-08-28,9.0,9.0,8.979999542236328,8.979999542236328,8.979999542236328,2000
2019-08-29,8.979999542236328,8.989999771118164,8.925000190734863,8.949999809265137,8.949999809265137,4700
2019-08-30,8.979999542236328,8.989999771118164,8.911999702453613,8.989999771118164,8.989999771118164,7800
2019-09-03,8.989999771118164,8.989999771118164,8.899999618530273,8.979999542236328,8.979999542236328,4100
2019-09-04,8.989999771118164,8.989999771118164,8.899999618530273,8.944999694824219,8.944999694824219,6400
2019-09-05,8.989999771118164,8.989999771118164,8.899999618530273,8.989999771118164,8.989999771118164,7100
2019-09-06,8.989999771118164,9.149999618530273,8.913999557495117,9.050000190734863,9.050000190734863,26200
2019-09-09,9.199999809265137,9.220000267028809,9.0,9.010000228881836,9.010000228881836,18000
2019-09-10,9.170000076293945,9.220000267028809,8.989999771118164,9.109999656677246,9.109999656677246,3100
2019-09-11,9.25,9.25,9.0,9.170000076293945,9.170000076293945,10500
2019-09-12,9.220000267028809,9.5,9.140000343322754,9.430000305175781,9.430000305175781,7200
2019-09-13,9.479999542236328,9.479999542236328,9.34000015258789,9.460000038146973,9.460000038146973,4900
2019-09-16,9.4399995803833,9.4399995803833,9.1850004196167,9.25,9.25,5900
2019-09-17,9.319999694824219,9.5,9.312000274658203,9.430000305175781,9.430000305175781,9500
2019-09-18,9.489999771118164,9.489999771118164,9.180000305175781,9.199999809265137,9.199999809265137,6100
2019-09-19,9.489999771118164,9.489999771118164,9.029999732971191,9.029999732971191,9.029999732971191,25100
2019-09-20,9.319999694824219,9.355999946594238,8.829999923706055,8.829999923706055,8.829999923706055,71600
2019-09-23,8.949999809265137,9.149999618530273,8.869999885559082,8.869999885559082,8.869999885559082,12900
2019-09-24,8.989999771118164,9.130000114440918,8.899999618530273,8.920000076293945,8.920000076293945,6900
2019-09-25,9.170000076293945,9.270000457763672,9.050000190734863,9.050000190734863,9.050000190734863,5200
2019-09-26,9.399999618530273,9.399999618530273,9.079999923706055,9.390000343322754,9.390000343322754,1500
2019-09-27,9.390000343322754,9.390000343322754,9.0600004196167,9.100000381469727,9.100000381469727,2200
2019-09-30,9.390000343322754,9.390000343322754,9.279999732971191,9.369999885559082,9.369999885559082,1600
2019-10-01,9.369999885559082,9.369999885559082,9.168000221252441,9.177000045776367,9.177000045776367,3500
2019-10-02,9.0,9.0,9.0,9.0,9.0,400
2019-10-03,9.0,9.0,9.0,9.0,9.0,200
2019-10-04,9.149999618530273,9.300000190734863,9.149999618530273,9.300000190734863,9.300000190734863,600
2019-10-07,9.289999961853027,9.289999961853027,9.029999732971191,9.029999732971191,9.029999732971191,400
2019-10-08,9.300000190734863,9.300000190734863,9.25,9.25,9.25,400
2019-10-09,9.25,9.25,9.25,9.25,9.25,100
2019-10-10,9.25,9.25,9.25,9.25,9.25,100
2019-10-11,9.25,9.25,9.25,9.25,9.25,0
2019-10-14,9.25,9.25,9.25,9.25,9.25,100
2019-10-15,9.25,9.25,9.25,9.25,9.25,100
2019-10-16,9.25,9.25,9.25,9.25,9.25,100
2019-10-17,9.194999694824219,9.25,9.149999618530273,9.149999618530273,9.149999618530273,3000
2019-10-18,9.300000190734863,9.300000190734863,9.104999542236328,9.104999542236328,9.104999542236328,3600
2019-10-21,9.149999618530273,9.149999618530273,9.010000228881836,9.050000190734863,9.050000190734863,13400
2019-10-22,9.149999618530273,9.149999618530273,8.986000061035156,8.986000061035156,8.986000061035156,4200
2019-10-23,9.279999732971191,9.279999732971191,9.010000228881836,9.010000228881836,9.010000228881836,9400
2019-10-24,9.229999542236328,9.229999542236328,9.010000228881836,9.020000457763672,9.020000457763672,1600
2019-10-25,9.199999809265137,9.199999809265137,9.079999923706055,9.088000297546387,9.088000297546387,5000
2019-10-28,9.199999809265137,9.199999809265137,9.0,9.020000457763672,9.020000457763672,3300
2019-10-29,9.199999809265137,9.199999809265137,9.0,9.010000228881836,9.010000228881836,7600
2019-10-30,9.199999809265137,9.199999809265137,9.0,9.0,9.0,2200
2019-10-31,9.149999618530273,9.149999618530273,9.149999618530273,9.149999618530273,9.149999618530273,600
2019-11-01,9.149999618530273,9.149999618530273,9.140000343322754,9.140000343322754,9.140000343322754,1600
2019-11-04,9.1899995803833,9.1899995803833,9.010000228881836,9.010000228881836,9.010000228881836,800
2019-11-05,9.170000076293945,9.170000076293945,9.069999694824219,9.069999694824219,9.069999694824219,2900
2019-11-06,9.149999618530273,9.170000076293945,9.02400016784668,9.149999618530273,9.149999618530273,13000
2019-11-07,9.180000305175781,9.1850004196167,9.149999618530273,9.168000221252441,9.168000221252441,4800
2019-11-08,9.199999809265137,9.199999809265137,9.149999618530273,9.170000076293945,9.170000076293945,1800
2019-11-11,9.199999809265137,9.199999809265137,9.149999618530273,9.15999984741211,9.15999984741211,4100
2019-11-12,9.220000267028809,9.220000267028809,9.149999618530273,9.180000305175781,9.180000305175781,2400
2019-11-13,9.109999656677246,9.199999809265137,9.109999656677246,9.199999809265137,9.199999809265137,1100
2019-11-14,9.149999618530273,9.199999809265137,9.067999839782715,9.199999809265137,9.199999809265137,1600
2019-11-15,9.199999809265137,9.199999809265137,9.149999618530273,9.149999618530273,9.149999618530273,2200
2019-11-18,9.149999618530273,9.149999618530273,9.149999618530273,9.149999618530273,9.149999618530273,200
2019-11-19,9.149999618530273,9.149999618530273,9.149999618530273,9.149999618530273,9.149999618530273,100
2019-11-20,9.1899995803833,9.1899995803833,9.050000190734863,9.050000190734863,9.050000190734863,3400
2019-11-21,9.1899995803833,9.20199966430664,9.1899995803833,9.1899995803833,9.1899995803833,5600
2019-11-22,9.1899995803833,9.1899995803833,9.1899995803833,9.1899995803833,9.1899995803833,200
2019-11-25,9.1899995803833,9.1899995803833,9.1899995803833,9.1899995803833,9.1899995803833,300
2019-11-26,9.199999809265137,9.199999809265137,9.0600004196167,9.109999656677246,9.109999656677246,7700
2019-11-27,9.199999809265137,9.199999809265137,9.079999923706055,9.079999923706055,9.079999923706055,1200
2019-11-29,9.079999923706055,9.079999923706055,9.079999923706055,9.079999923706055,9.079999923706055,0
2019-12-02,9.149999618530273,9.149999618530273,9.107999801635742,9.149999618530273,9.149999618530273,1700
2019-12-03,9.239999771118164,9.25,9.119999885559082,9.25,9.25,12000
2019-12-04,9.34000015258789,9.34000015258789,9.020000457763672,9.020000457763672,9.020000457763672,35400
2019-12-05,9.020000457763672,9.020000457763672,9.020000457763672,9.020000457763672,9.020000457763672,0
2019-12-06,9.100000381469727,9.300000190734863,9.100000381469727,9.100000381469727,9.100000381469727,26300
2019-12-09,9.265000343322754,9.265000343322754,9.109999656677246,9.239999771118164,9.239999771118164,2700
2019-12-10,9.199999809265137,9.289999961853027,9.149999618530273,9.279999732971191,9.279999732971191,18600
2019-12-11,9.15999984741211,9.350000381469727,9.15999984741211,9.350000381469727,9.350000381469727,4000
2019-12-12,9.319999694824219,9.319999694824219,9.199999809265137,9.260000228881836,9.260000228881836,5600
2019-12-13,9.267999649047852,9.350000381469727,9.199999809265137,9.350000381469727,9.350000381469727,12400
2019-12-16,9.335000038146973,9.399999618530273,9.270000457763672,9.399999618530273,9.399999618530273,11000
2019-12-17,9.348999977111816,9.449999809265137,9.348999977111816,9.4399995803833,9.4399995803833,7800
2019-12-18,9.399999618530273,9.449999809265137,9.399999618530273,9.449999809265137,9.449999809265137,4400
2019-12-19,9.399999618530273,9.5,9.399999618530273,9.479999542236328,9.479999542236328,7600
2019-12-20,9.460000038146973,9.5,9.460000038146973,9.5,9.5,4500
2019-12-23,9.5,9.5,9.5,9.5,9.5,0
2019-12-24,9.449999809265137,9.5649995803833,9.449999809265137,9.449999809265137,9.449999809265137,6800
2019-12-26,9.449999809265137,9.489999771118164,9.425000190734863,9.48900032043457,9.48900032043457,22800
2019-12-27,9.489999771118164,9.489999771118164,9.399999618530273,9.399999618530273,9.399999618530273,19700
2019-12-30,9.399999618530273,9.399999618530273,9.399999618530273,9.399999618530273,9.399999618530273,0
2019-12-31,9.529999732971191,9.529999732971191,9.399999618530273,9.420000076293945,9.420000076293945,6000
2020-01-02,9.498000144958496,9.498000144958496,9.498000144958496,9.498000144958496,9.498000144958496,1900
2020-01-03,9.5600004196167,9.5600004196167,9.449999809265137,9.449999809265137,9.449999809265137,6200
2020-01-06,9.487000465393066,9.487000465393066,9.487000465393066,9.487000465393066,9.487000465393066,1200
2020-01-07,9.487000465393066,9.487000465393066,9.487000465393066,9.487000465393066,9.487000465393066,0
2020-01-08,9.487000465393066,9.487000465393066,9.487000465393066,9.487000465393066,9.487000465393066,0
2020-01-09,9.467000007629395,9.47700023651123,9.4399995803833,9.4399995803833,9.4399995803833,3200
2020-01-10,9.4399995803833,9.4399995803833,9.4399995803833,9.4399995803833,9.4399995803833,0
2020-01-13,9.449999809265137,9.449999809265137,9.4399995803833,9.4399995803833,9.4399995803833,1000
2020-01-14,9.430000305175781,9.430000305175781,9.40999984741211,9.40999984741211,9.40999984741211,1100
2020-01-15,9.4399995803833,9.4399995803833,9.40999984741211,9.40999984741211,9.40999984741211,600
2020-01-16,9.40999984741211,9.40999984741211,9.40999984741211,9.40999984741211,9.40999984741211,0
2020-01-17,9.430000305175781,9.430000305175781,9.430000305175781,9.430000305175781,9.430000305175781,200
2020-01-21,9.489999771118164,9.5,9.489999771118164,9.5,9.5,1500
2020-01-22,9.494000434875488,9.5,9.494000434875488,9.5,9.5,1100
2020-01-23,9.5,10.369999885559082,9.5,10.369999885559082,10.369999885559082,600
2020-01-24,10.300000190734863,10.300000190734863,10.199999809265137,10.199999809265137,10.199999809265137,300
2020-01-27,10.1899995803833,10.1899995803833,9.989999771118164,9.989999771118164,9.989999771118164,300
2020-01-28,9.883999824523926,9.883999824523926,9.600000381469727,9.600000381469727,9.600000381469727,4100
2020-01-29,9.600000381469727,9.600000381469727,9.600000381469727,9.600000381469727,9.600000381469727,0
2020-01-30,9.600000381469727,9.600000381469727,9.600000381469727,9.600000381469727,9.600000381469727,0
2020-01-31,9.739999771118164,9.75,9.739999771118164,9.75,9.75,1000
2020-02-03,9.739999771118164,9.75,9.600000381469727,9.600000381469727,9.600000381469727,2600
2020-02-04,9.600000381469727,9.600000381469727,9.600000381469727,9.600000381469727,9.600000381469727,0
2020-02-05,9.600000381469727,9.600000381469727,9.600000381469727,9.600000381469727,9.600000381469727,0
2020-02-06,9.600000381469727,9.600000381469727,9.600000381469727,9.600000381469727,9.600000381469727,0
2020-02-07,9.699999809265137,9.699999809265137,9.699999809265137,9.699999809265137,9.699999809265137,3100
2020-02-10,9.677000045776367,9.677000045776367,9.677000045776367,9.677000045776367,9.677000045776367,800
2020-02-11,9.677000045776367,9.677000045776367,9.677000045776367,9.677000045776367,9.677000045776367,0
2020-02-12,9.677000045776367,9.677000045776367,9.677000045776367,9.677000045776367,9.677000045776367,0
2020-02-13,9.677000045776367,9.677000045776367,9.677000045776367,9.677000045776367,9.677000045776367,0
2020-02-14,9.677000045776367,9.677000045776367,9.677000045776367,9.677000045776367,9.677000045776367,0
2020-02-18,9.6850004196167,9.6850004196167,9.600000381469727,9.600000381469727,9.600000381469727,3100
2020-02-19,9.548999786376953,9.600000381469727,9.548999786376953,9.600000381469727,9.600000381469727,2700
2020-02-20,9.755000114440918,9.755000114440918,9.755000114440918,9.755000114440918,9.755000114440918,100
2020-02-21,9.725000381469727,9.769000053405762,9.725000381469727,9.75,9.75,7700
2020-02-24,9.800000190734863,9.800000190734863,9.800000190734863,9.800000190734863,9.800000190734863,100
2020-02-25,9.75,9.75,9.470000267028809,9.470000267028809,9.470000267028809,4700
2020-02-26,9.642999649047852,9.642999649047852,9.5,9.5,9.5,10800
2020-02-27,9.40999984741211,9.40999984741211,9.28499984741211,9.350000381469727,9.350000381469727,11200
2020-02-28,9.260000228881836,9.260000228881836,9.260000228881836,9.260000228881836,9.260000228881836,600
2020-03-02,9.260000228881836,9.260000228881836,9.260000228881836,9.260000228881836,9.260000228881836,0
2020-03-03,9.25,9.27400016784668,9.15999984741211,9.15999984741211,9.15999984741211,9200
2020-03-04,9.0,9.0,8.979999542236328,8.979999542236328,8.979999542236328,600
2020-03-05,8.84000015258789,8.84000015258789,8.800000190734863,8.8100004196167,8.8100004196167,14800
2020-03-06,8.927000045776367,8.998000144958496,8.8100004196167,8.8100004196167,8.8100004196167,13700
2020-03-09,8.789999961853027,8.789999961853027,8.5,8.5,8.5,7500
2020-03-10,8.640000343322754,8.640000343322754,8.25,8.350000381469727,8.350000381469727,6100
2020-03-11,8.289999961853027,8.289999961853027,8.289999961853027,8.289999961853027,8.289999961853027,200
2020-03-12,8.100000381469727,8.100000381469727,7.75,7.75,7.75,12200
2020-03-13,7.900000095367432,8.0,7.900000095367432,8.0,8.0,5900
2020-03-16,8.0,8.0,8.0,8.0,8.0,0
2020-03-17,7.260000228881836,7.260000228881836,7.260000228881836,7.260000228881836,7.260000228881836,300
2020-03-18,7.400000095367432,7.486999988555908,7.400000095367432,7.486999988555908,7.486999988555908,4700
2020-03-19,6.0,6.75,6.0,6.75,6.75,2200
2020-03-20,7.0,7.020999908447266,6.419000148773193,6.419000148773193,6.419000148773193,3600
2020-03-23,6.130000114440918,6.210000038146973,5.260000228881836,5.260000228881836,5.260000228881836,18200
2020-03-24,5.510000228881836,5.535999774932861,5.400000095367432,5.510000228881836,5.510000228881836,34100
2020-03-25,5.5,5.590000152587891,5.400000095367432,5.431000232696533,5.431000232696533,36800
2020-03-26,5.688000202178955,6.699999809265137,5.61899995803833,6.699999809265137,6.699999809265137,17300
2020-03-27,5.943999767303467,6.182000160217285,5.9029998779296875,5.949999809265137,5.949999809265137,4300
2020-03-30,6.0,6.0,5.849999904632568,5.849999904632568,5.849999904632568,6900
2020-03-31,6.031000137329102,6.031000137329102,6.031000137329102,6.031000137329102,6.031000137329102,400
2020-04-01,6.050000190734863,6.224999904632568,6.0,6.0,6.0,4100
2020-04-02,6.0,6.320000171661377,5.920000076293945,5.920000076293945,5.920000076293945,9100
2020-04-03,5.901000022888184,5.927000045776367,5.809999942779541,5.809999942779541,5.809999942779541,9800
2020-04-06,5.889999866485596,6.072999954223633,5.809999942779541,5.849999904632568,5.849999904632568,6700
2020-04-07,6.099999904632568,6.170000076293945,6.099999904632568,6.132999897003174,6.132999897003174,7000
2020-04-08,6.150000095367432,6.181000232696533,6.150000095367432,6.181000232696533,6.181000232696533,2000
2020-04-09,6.300000190734863,6.909999847412109,6.300000190734863,6.739999771118164,6.739999771118164,11100
2020-04-13,6.5,6.5,6.5,6.5,6.5,4100
2020-04-14,6.449999809265137,6.449999809265137,6.449999809265137,6.449999809265137,6.449999809265137,900
2020-04-15,6.380000114440918,6.380000114440918,6.25,6.25,6.25,4100
2020-04-16,6.03000020980835,6.199999809265137,5.989999771118164,5.989999771118164,5.989999771118164,3600
2020-04-17,6.1479997634887695,6.1479997634887695,5.9770002365112305,5.9770002365112305,5.9770002365112305,4800
2020-04-20,5.889999866485596,6.0,5.889999866485596,5.980000019073486,5.980000019073486,7100
2020-04-21,5.920000076293945,5.920000076293945,5.820000171661377,5.840000152587891,5.840000152587891,6200
2020-04-22,5.849999904632568,5.869999885559082,5.71999979019165,5.71999979019165,5.71999979019165,18200
2020-04-23,5.699999809265137,5.849999904632568,5.070000171661377,5.75,5.75,18700
2020-04-24,5.630000114440918,5.75,5.630000114440918,5.749000072479248,5.749000072479248,4000
2020-04-27,5.579999923706055,5.809999942779541,5.579999923706055,5.730000019073486,5.730000019073486,3100
2020-04-28,5.75,5.816999912261963,5.71999979019165,5.745999813079834,5.745999813079834,9400
2020-04-29,5.745999813079834,6.129000186920166,5.71999979019165,6.039999961853027,6.039999961853027,10900
2020-04-30,6.46999979019165,6.46999979019165,5.789999961853027,5.809999942779541,5.809999942779541,2800
2020-05-01,5.804999828338623,5.809999942779541,5.650000095367432,5.695000171661377,5.695000171661377,5400
2020-05-04,5.800000190734863,6.320000171661377,5.610000133514404,5.880000114440918,5.880000114440918,23800
2020-05-05,5.710000038146973,5.869999885559082,5.690000057220459,5.8420000076293945,5.8420000076293945,3500
2020-05-06,5.800000190734863,5.880000114440918,5.59499979019165,5.803999900817871,5.803999900817871,14600
2020-05-07,5.579999923706055,5.579999923706055,5.550000190734863,5.550000190734863,5.550000190734863,3200
2020-05-08,5.550000190734863,5.940000057220459,5.550000190734863,5.710000038146973,5.710000038146973,27100
2020-05-11,5.75,5.75,5.610000133514404,5.610000133514404,5.610000133514404,26900
2020-05-12,5.699999809265137,5.699999809265137,5.559999942779541,5.599999904632568,5.599999904632568,53800
2020-05-13,5.599999904632568,5.599999904632568,5.599999904632568,5.599999904632568,5.599999904632568,0
2020-05-14,5.611999988555908,5.611999988555908,5.519999980926514,5.550000190734863,5.550000190734863,1000
2020-05-15,5.75,5.769999980926514,5.579999923706055,5.672999858856201,5.672999858856201,4600
2020-05-18,5.699999809265137,5.78000020980835,5.6539998054504395,5.744999885559082,5.744999885559082,10800
2020-05-19,5.739999771118164,5.849999904632568,5.739999771118164,5.849999904632568,5.849999904632568,6500
2020-05-20,5.985000133514404,6.230000019073486,5.985000133514404,6.199999809265137,6.199999809265137,10100
2020-05-21,6.190000057220459,6.199999809265137,5.75,5.75,5.75,4900
2020-05-22,5.860000133514404,6.03000020980835,5.849999904632568,5.849999904632568,5.849999904632568,6100
2020-05-26,5.940000057220459,6.239999771118164,5.940000057220459,6.239999771118164,6.239999771118164,5600
2020-05-27,6.145999908447266,6.409999847412109,6.145999908447266,6.409999847412109,6.409999847412109,5000
2020-05-28,6.256999969482422,6.289999961853027,6.170000076293945,6.170000076293945,6.170000076293945,3800
2020-05-29,6.190000057220459,6.489999771118164,6.190000057220459,6.489999771118164,6.489999771118164,5300
2020-06-01,6.300000190734863,6.489999771118164,6.300000190734863,6.406000137329102,6.406000137329102,2700
2020-06-02,6.406000137329102,6.406000137329102,6.406000137329102,6.406000137329102,6.406000137329102,0
2020-06-03,6.429999828338623,6.699999809265137,6.429999828338623,6.699999809265137,6.699999809265137,5000
2020-06-04,6.624000072479248,6.849999904632568,6.590000152587891,6.840000152587891,6.840000152587891,10100
2020-06-05,6.980000019073486,7.389999866485596,6.980000019073486,7.119999885559082,7.119999885559082,20100
2020-06-08,7.291999816894531,7.380000114440918,7.192999839782715,7.349999904632568,7.349999904632568,6700
2020-06-09,7.25,7.335000038146973,7.079999923706055,7.295000076293945,7.295000076293945,1400
2020-06-10,7.125,7.179999828338623,6.900000095367432,6.942999839782715,6.942999839782715,10900
2020-06-11,6.927000045776367,6.927000045776367,6.679999828338623,6.679999828338623,6.679999828338623,600
2020-06-12,6.77400016784668,6.949999809265137,6.659999847412109,6.869999885559082,6.869999885559082,6400
2020-06-15,6.868000030517578,6.900000095367432,6.510000228881836,6.510000228881836,6.510000228881836,1900
2020-06-16,6.619999885559082,7.300000190734863,6.619999885559082,6.769999980926514,6.769999980926514,12200
2020-06-17,6.96999979019165,6.96999979019165,6.789999961853027,6.789999961853027,6.789999961853027,700
2020-06-18,6.835999965667725,6.835999965667725,6.75,6.75,6.75,3500
2020-06-19,6.813000202178955,6.813000202178955,6.644999980926514,6.800000190734863,6.800000190734863,4300
2020-06-22,6.75,6.823999881744385,6.53000020980835,6.53000020980835,6.53000020980835,4100
2020-06-23,6.519999980926514,6.59499979019165,6.400000095367432,6.400000095367432,6.400000095367432,15400
2020-06-24,6.389999866485596,6.389999866485596,6.139999866485596,6.150000095367432,6.150000095367432,2100
2020-06-25,6.118000030517578,6.21999979019165,6.099999904632568,6.21999979019165,6.21999979019165,15100
2020-06-26,6.210000038146973,6.389999866485596,6.081999778747559,6.389999866485596,6.389999866485596,5100
2020-06-29,6.199999809265137,6.264999866485596,6.110000133514404,6.110000133514404,6.110000133514404,5200
2020-06-30,6.190000057220459,6.210000038146973,6.150000095367432,6.150000095367432,6.150000095367432,3300
2020-07-01,6.184999942779541,6.184999942779541,6.184999942779541,6.184999942779541,6.184999942779541,500
2020-07-02,6.210000038146973,6.25,6.210000038146973,6.229000091552734,6.229000091552734,3300
2020-07-06,6.25,6.25,6.25,6.25,6.25,300
2020-07-07,6.25,6.300000190734863,6.25,6.269999980926514,6.269999980926514,600
2020-07-08,6.15500020980835,6.171000003814697,6.150000095367432,6.171000003814697,6.171000003814697,1100
2020-07-09,6.110000133514404,6.199999809265137,6.110000133514404,6.15500020980835,6.15500020980835,12700
2020-07-10,6.150000095367432,6.3460001945495605,6.150000095367432,6.3460001945495605,6.3460001945495605,10500
2020-07-13,6.255000114440918,6.255000114440918,6.21999979019165,6.255000114440918,6.255000114440918,1200
2020-07-14,6.271999835968018,6.271999835968018,6.271999835968018,6.271999835968018,6.271999835968018,500
2020-07-15,6.230999946594238,6.25600004196167,6.130000114440918,6.130000114440918,6.130000114440918,1400
2020-07-16,6.144999980926514,6.380000114440918,6.144999980926514,6.380000114440918,6.380000114440918,2600
2020-07-17,6.380000114440918,6.380000114440918,6.209000110626221,6.290999889373779,6.290999889373779,2800
2020-07-20,6.11899995803833,6.239999771118164,6.11899995803833,6.199999809265137,6.199999809265137,3800
2020-07-21,6.260000228881836,6.260000228881836,6.230000019073486,6.230000019073486,6.230000019073486,1100
2020-07-22,6.260000228881836,6.260000228881836,6.210000038146973,6.210000038146973,6.210000038146973,600
2020-07-23,6.159999847412109,6.210000038146973,6.159999847412109,6.210000038146973,6.210000038146973,1200
2020-07-24,6.25,6.25,6.25,6.25,6.25,5000
2020-07-27,6.202000141143799,6.264999866485596,6.184999942779541,6.25,6.25,9800
2020-07-28,6.170000076293945,6.234000205993652,6.170000076293945,6.199999809265137,6.199999809265137,900
2020-07-29,6.21999979019165,6.21999979019165,6.199999809265137,6.199999809265137,6.199999809265137,3500
2020-07-30,6.25,6.25,6.25,6.25,6.25,300
2020-07-31,6.224999904632568,6.224999904632568,6.199999809265137,6.199999809265137,6.199999809265137,300
2020-08-03,6.199999809265137,6.25,6.199999809265137,6.199999809265137,6.199999809265137,12000
2020-08-04,6.199999809265137,6.199999809265137,6.199999809265137,6.199999809265137,6.199999809265137,100
2020-08-05,6.25,6.25,6.238999843597412,6.25,6.25,700
2020-08-06,6.25,6.25,6.25,6.25,6.25,200
2020-08-07,6.199999809265137,6.210000038146973,6.139999866485596,6.195000171661377,6.195000171661377,17300
2020-08-10,6.150000095367432,6.300000190734863,6.150000095367432,6.300000190734863,6.300000190734863,800
2020-08-11,6.230000019073486,6.349999904632568,6.230000019073486,6.300000190734863,6.300000190734863,4400
2020-08-12,6.300000190734863,6.300000190734863,6.300000190734863,6.300000190734863,6.300000190734863,0
2020-08-13,6.210999965667725,6.25,6.210999965667725,6.25,6.25,10500
2020-08-14,6.25,6.25,6.239999771118164,6.239999771118164,6.239999771118164,700
2020-08-17,6.175000190734863,6.324999809265137,6.175000190734863,6.295000076293945,6.295000076293945,9700
2020-08-18,6.360000133514404,6.360000133514404,6.360000133514404,6.360000133514404,6.360000133514404,300
2020-08-19,6.360000133514404,6.360000133514404,6.360000133514404,6.360000133514404,6.360000133514404,0
2020-08-20,6.315000057220459,6.315000057220459,6.315000057220459,6.315000057220459,6.315000057220459,600
2020-08-21,6.349999904632568,6.349999904632568,6.349999904632568,6.349999904632568,6.349999904632568,1200
2020-08-24,6.349999904632568,6.349999904632568,6.349999904632568,6.349999904632568,6.349999904632568,0
2020-08-25,6.28000020980835,6.28000020980835,6.28000020980835,6.28000020980835,6.28000020980835,100
2020-08-26,6.329999923706055,6.329999923706055,6.304999828338623,6.315000057220459,6.315000057220459,4900
2020-08-27,6.289999961853027,6.320000171661377,6.289999961853027,6.306000232696533,6.306000232696533,46700
2020-08-28,6.349999904632568,6.460000038146973,6.349999904632568,6.390999794006348,6.390999794006348,19400
2020-08-31,6.34499979019165,6.34499979019165,6.34499979019165,6.34499979019165,6.34499979019165,1100
2020-09-01,6.289999961853027,6.559999942779541,6.289999961853027,6.559999942779541,6.559999942779541,2300
2020-09-02,6.36299991607666,6.400000095367432,6.349999904632568,6.400000095367432,6.400000095367432,5400
2020-09-03,6.300000190734863,6.400000095367432,6.300000190734863,6.355000019073486,6.355000019073486,8200
2020-09-04,6.389999866485596,6.510000228881836,6.389999866485596,6.422999858856201,6.422999858856201,18100
2020-09-08,6.389999866485596,6.474999904632568,6.28000020980835,6.28000020980835,6.28000020980835,18700
2020-09-09,6.389999866485596,6.400000095367432,6.230000019073486,6.329999923706055,6.329999923706055,6300
2020-09-10,6.210000038146973,6.769999980926514,6.210000038146973,6.550000190734863,6.550000190734863,16300
2020-09-11,6.53000020980835,6.684999942779541,6.5,6.5,6.5,800
2020-09-14,6.85699987411499,6.882999897003174,6.659999847412109,6.659999847412109,6.659999847412109,900
2020-09-15,6.619999885559082,6.980000019073486,6.619999885559082,6.710000038146973,6.710000038146973,4700
2020-09-16,6.901000022888184,6.901000022888184,6.550000190734863,6.679999828338623,6.679999828338623,1100
2020-09-17,6.670000076293945,6.670000076293945,6.670000076293945,6.670000076293945,6.670000076293945,300
2020-09-18,6.710000038146973,7.150000095367432,6.710000038146973,7.150000095367432,7.150000095367432,7500
2020-09-21,6.710000038146973,6.940000057220459,6.701000213623047,6.940000057220459,6.940000057220459,7900
2020-09-22,6.71999979019165,6.889999866485596,6.701000213623047,6.889999866485596,6.889999866485596,4600
2020-09-23,6.71999979019165,6.758999824523926,6.702000141143799,6.758999824523926,6.758999824523926,1700
2020-09-24,6.866000175476074,6.866000175476074,6.783999919891357,6.783999919891357,6.783999919891357,2100
2020-09-25,7.449999809265137,7.480000019073486,7.074999809265137,7.074999809265137,7.074999809265137,1300
2020-09-28,7.111999988555908,7.3520002365112305,7.0,7.3520002365112305,7.3520002365112305,11900
2020-09-29,7.3520002365112305,7.3520002365112305,7.3520002365112305,7.3520002365112305,7.3520002365112305,0
2020-09-30,7.489999771118164,7.735000133514404,7.21999979019165,7.735000133514404,7.735000133514404,9200
2020-10-01,7.610000133514404,7.610000133514404,7.610000133514404,7.610000133514404,7.610000133514404,100
2020-10-02,7.610000133514404,7.610000133514404,7.610000133514404,7.610000133514404,7.610000133514404,0
2020-10-05,7.951000213623047,8.449999809265137,7.951000213623047,8.449999809265137,8.449999809265137,500
2020-10-06,8.180000305175781,8.180000305175781,7.880000114440918,7.880000114440918,7.880000114440918,1200
2020-10-07,7.880000114440918,7.880000114440918,7.880000114440918,7.880000114440918,7.880000114440918,0
2020-10-08,7.880000114440918,7.880000114440918,7.880000114440918,7.880000114440918,7.880000114440918,2100
2020-10-09,7.918000221252441,8.210000038146973,7.918000221252441,8.210000038146973,8.210000038146973,600
2020-10-12,8.25,8.279999732971191,8.109999656677246,8.149999618530273,8.149999618530273,2600
2020-10-13,8.149999618530273,8.149999618530273,8.149999618530273,8.149999618530273,8.149999618530273,0
2020-10-14,8.137999534606934,8.137999534606934,8.137999534606934,8.137999534606934,8.137999534606934,100
2020-10-15,8.137999534606934,8.137999534606934,8.137999534606934,8.137999534606934,8.137999534606934,0
2020-10-16,8.137999534606934,8.137999534606934,8.137999534606934,8.137999534606934,8.137999534606934,0
2020-10-19,8.039999961853027,8.039999961853027,8.039999961853027,8.039999961853027,8.039999961853027,100
2020-10-20,8.0,8.043999671936035,8.0,8.043999671936035,8.043999671936035,900
2020-10-21,7.776000022888184,8.0,7.776000022888184,8.0,8.0,4400
2020-10-22,8.010000228881836,8.010000228881836,7.829999923706055,7.829999923706055,7.829999923706055,1000
2020-10-23,8.229999542236328,8.229999542236328,8.229999542236328,8.229999542236328,8.229999542236328,1100
2020-10-26,8.239999771118164,8.239999771118164,8.100000381469727,8.100000381469727,8.100000381469727,3900
2020-10-27,7.840000152587891,7.840000152587891,7.820000171661377,7.820000171661377,7.820000171661377,200
2020-10-28,7.809999942779541,8.027999877929688,7.809999942779541,8.027999877929688,8.027999877929688,200
2020-10-29,8.027999877929688,8.027999877929688,8.027999877929688,8.027999877929688,8.027999877929688,0
2020-10-30,8.027999877929688,8.027999877929688,8.027999877929688,8.027999877929688,8.027999877929688,0
2020-11-02,8.020000457763672,8.020000457763672,8.020000457763672,8.020000457763672,8.020000457763672,100
2020-11-03,8.199999809265137,8.199999809265137,8.071000099182129,8.071000099182129,8.071000099182129,800
2020-11-04,8.071000099182129,8.071000099182129,8.071000099182129,8.071000099182129,8.071000099182129,0
2020-11-05,8.140000343322754,8.140000343322754,8.140000343322754,8.140000343322754,8.140000343322754,200
2020-11-06,8.140000343322754,8.140000343322754,8.140000343322754,8.140000343322754,8.140000343322754,0
2020-11-09,8.25,8.25,8.069999694824219,8.079999923706055,8.079999923706055,1100
2020-11-10,8.239999771118164,8.25,8.119999885559082,8.119999885559082,8.119999885559082,6300
2020-11-11,8.239999771118164,8.329999923706055,8.079999923706055,8.079999923706055,8.079999923706055,8000
2020-11-12,8.350000381469727,8.40999984741211,8.170000076293945,8.170000076293945,8.170000076293945,3600
2020-11-13,8.449999809265137,8.569999694824219,8.260000228881836,8.270000457763672,8.270000457763672,4900
2020-11-16,8.652999877929688,8.958000183105469,8.652999877929688,8.958000183105469,8.958000183105469,8500
2020-11-17,8.399999618530273,8.760000228881836,8.329999923706055,8.460000038146973,8.460000038146973,4500
2020-11-18,8.779999732971191,8.970000267028809,8.779999732971191,8.8100004196167,8.8100004196167,4600
2020-11-19,8.46399974822998,9.0,8.46399974822998,8.520000457763672,8.520000457763672,6600
2020-11-20,8.520000457763672,8.600000381469727,8.520000457763672,8.600000381469727,8.600000381469727,2100
2020-11-23,8.989999771118164,8.989999771118164,8.75,8.989999771118164,8.989999771118164,2300
2020-11-24,8.989999771118164,9.152999877929688,8.989999771118164,9.109999656677246,9.109999656677246,8400
2020-11-25,9.0,9.109999656677246,9.0,9.109999656677246,9.109999656677246,5200
2020-11-27,9.15999984741211,9.350000381469727,9.149999618530273,9.350000381469727,9.350000381469727,1600
2020-11-30,9.170000076293945,9.350000381469727,9.145000457763672,9.260000228881836,9.260000228881836,8200
2020-12-01,9.260000228881836,9.260000228881836,9.260000228881836,9.260000228881836,9.260000228881836,0
2020-12-02,9.350000381469727,9.350000381469727,9.25,9.25,9.25,1100
2020-12-03,9.25,9.25,9.25,9.25,9.25,12700
2020-12-04,9.163000106811523,9.163000106811523,9.163000106811523,9.163000106811523,9.163000106811523,100
2020-12-07,9.25,9.260000228881836,9.239999771118164,9.239999771118164,9.239999771118164,4300
2020-12-08,9.149999618530273,9.25,9.0,9.239999771118164,9.239999771118164,1900
2020-12-09,9.300000190734863,9.300000190734863,9.050000190734863,9.050000190734863,9.050000190734863,3500
2020-12-10,9.029999732971191,9.27299976348877,8.979999542236328,9.0,9.0,6500
2020-12-11,9.149999618530273,9.25,9.039999961853027,9.119999885559082,9.119999885559082,7900
2020-12-14,9.029999732971191,9.21500015258789,8.949999809265137,9.21500015258789,9.21500015258789,9200
2020-12-15,9.220000267028809,9.260000228881836,9.140000343322754,9.140000343322754,9.140000343322754,2700
2020-12-16,9.279999732971191,9.279999732971191,9.050000190734863,9.050000190734863,9.050000190734863,4300
2020-12-17,9.229999542236328,9.229999542236328,8.949999809265137,9.149999618530273,9.149999618530273,3600
2020-12-18,9.199999809265137,9.199999809265137,8.960000038146973,8.960000038146973,8.960000038146973,6800
2020-12-21,9.114999771118164,9.114999771118164,8.970000267028809,9.020000457763672,9.020000457763672,3100
2020-12-22,9.010000228881836,9.010000228881836,9.0,9.0,9.0,4200
2020-12-23,9.0,9.0,8.949999809265137,8.949999809265137,8.949999809265137,800
2020-12-24,8.949999809265137,8.949999809265137,8.949999809265137,8.949999809265137,8.949999809265137,2100
2020-12-28,8.979999542236328,9.005000114440918,8.960000038146973,8.960000038146973,8.960000038146973,9300
2020-12-29,8.90999984741211,9.0,8.90999984741211,9.0,9.0,2300
2020-12-30,8.946999549865723,8.946999549865723,8.946999549865723,8.946999549865723,8.946999549865723,100
