Date,Open,High,Low,Close,Adj Close,Volume
2018-09-13,30.0,30.0,30.0,30.0,30.0,1000
2018-09-14,32.25,37.2599983215332,32.25,37.0,37.0,256800
2018-09-17,37.0,37.0,33.5,37.0,37.0,180400
2018-09-18,37.599998474121094,37.599998474121094,37.099998474121094,37.099998474121094,37.099998474121094,3100
2018-09-19,37.0,38.0,37.0,37.5,37.5,258900
2018-09-20,38.0,40.0,37.95000076293945,38.0,38.0,63300
2018-09-21,38.650001525878906,38.849998474121094,38.5,38.709999084472656,38.709999084472656,90400
2018-09-24,39.0,39.099998474121094,38.709999084472656,39.06999969482422,39.06999969482422,25800
2018-09-25,39.25,43.619998931884766,39.25,40.04999923706055,40.04999923706055,79400
2018-09-26,40.0,40.0,40.0,40.0,40.0,48600
2018-09-27,40.0,43.81999969482422,40.0,43.81999969482422,43.81999969482422,74200
2018-09-28,42.0,42.0,40.0099983215332,41.0,41.0,51800
2018-10-01,41.5,46.22999954223633,40.75,42.0,42.0,1821700
2018-10-02,42.0,45.0,42.0,43.540000915527344,43.540000915527344,2629200
2018-10-03,43.02000045776367,44.349998474121094,42.5099983215332,42.939998626708984,42.939998626708984,1672800
2018-10-04,43.5,45.65999984741211,42.560001373291016,43.65999984741211,43.65999984741211,2234200
2018-10-05,43.380001068115234,45.5,43.220001220703125,45.15999984741211,45.15999984741211,1262400
2018-10-08,45.09000015258789,47.9900016784668,42.939998626708984,46.540000915527344,46.540000915527344,1004800
2018-10-09,46.349998474121094,49.529998779296875,45.5,48.56999969482422,48.56999969482422,1827800
2018-10-10,48.54999923706055,49.91999816894531,43.970001220703125,44.209999084472656,44.209999084472656,1534500
2018-10-11,43.7599983215332,44.880001068115234,38.68000030517578,39.47999954223633,39.47999954223633,1876700
2018-10-12,45.95000076293945,46.0099983215332,39.7400016784668,39.97999954223633,39.97999954223633,1350800
2018-10-15,39.720001220703125,40.63999938964844,38.029998779296875,39.75,39.75,758200
2018-10-16,40.310001373291016,41.04999923706055,39.0,40.40999984741211,40.40999984741211,1264100
2018-10-17,40.130001068115234,40.40999984741211,38.5,38.970001220703125,38.970001220703125,658300
2018-10-18,39.0099983215332,39.540000915527344,38.22999954223633,38.34000015258789,38.34000015258789,608200
2018-10-19,38.290000915527344,38.290000915527344,36.54999923706055,37.2599983215332,37.2599983215332,746500
2018-10-22,37.0,37.79999923706055,36.33000183105469,37.599998474121094,37.599998474121094,841300
2018-10-23,36.900001525878906,38.5,35.86000061035156,37.91999816894531,37.91999816894531,650300
2018-10-24,37.790000915527344,37.790000915527344,35.7400016784668,35.9900016784668,35.9900016784668,596200
2018-10-25,36.040000915527344,37.84000015258789,33.22999954223633,35.0,35.0,826900
2018-10-26,34.29999923706055,35.119998931884766,32.7599983215332,33.22999954223633,33.22999954223633,852900
2018-10-29,33.2400016784668,33.380001068115234,31.719999313354492,31.850000381469727,31.850000381469727,899900
2018-10-30,31.469999313354492,31.670000076293945,30.540000915527344,31.600000381469727,31.600000381469727,675800
2018-10-31,32.02000045776367,34.47999954223633,31.920000076293945,34.04999923706055,34.04999923706055,927400
2018-11-01,34.220001220703125,35.72999954223633,33.41999816894531,35.709999084472656,35.709999084472656,792600
2018-11-02,35.900001525878906,36.220001220703125,34.91999816894531,35.02000045776367,35.02000045776367,807100
2018-11-05,34.779998779296875,35.97999954223633,34.279998779296875,35.130001068115234,35.130001068115234,464600
2018-11-06,24.020000457763672,25.200000762939453,22.75,24.8799991607666,24.8799991607666,9613400
2018-11-07,24.8799991607666,25.239999771118164,22.799999237060547,23.100000381469727,23.100000381469727,2447900
2018-11-08,23.09000015258789,23.290000915527344,21.010000228881836,21.170000076293945,21.170000076293945,1594500
2018-11-09,21.200000762939453,22.649999618530273,20.68000030517578,22.280000686645508,22.280000686645508,1621700
2018-11-12,22.31999969482422,22.75,21.770000457763672,21.8700008392334,21.8700008392334,1053600
2018-11-13,21.920000076293945,22.899999618530273,21.8799991607666,22.200000762939453,22.200000762939453,1298200
2018-11-14,22.329999923706055,23.09000015258789,21.8700008392334,21.950000762939453,21.950000762939453,1596900
2018-11-15,21.899999618530273,22.260000228881836,21.489999771118164,21.639999389648438,21.639999389648438,613800
2018-11-16,21.56999969482422,21.719999313354492,20.690000534057617,21.079999923706055,21.079999923706055,960100
2018-11-19,20.899999618530273,22.8700008392334,20.65999984741211,22.84000015258789,22.84000015258789,1068800
2018-11-20,22.510000228881836,23.170000076293945,22.0,23.06999969482422,23.06999969482422,810400
2018-11-21,23.389999389648438,24.110000610351562,22.190000534057617,22.899999618530273,22.899999618530273,364000
2018-11-23,22.84000015258789,23.18000030517578,22.489999771118164,22.489999771118164,22.489999771118164,93500
2018-11-26,22.68000030517578,23.420000076293945,22.020000457763672,22.56999969482422,22.56999969482422,270800
2018-11-27,22.3700008392334,23.290000915527344,22.3700008392334,22.780000686645508,22.780000686645508,454700
2018-11-28,22.559999465942383,23.65999984741211,22.1200008392334,22.540000915527344,22.540000915527344,430900
2018-11-29,22.530000686645508,23.139999389648438,22.34000015258789,22.350000381469727,22.350000381469727,548900
2018-11-30,22.68000030517578,23.639999389648438,22.229999542236328,23.290000915527344,23.290000915527344,762700
2018-12-03,23.399999618530273,24.059999465942383,22.950000762939453,23.200000762939453,23.200000762939453,604200
2018-12-04,23.079999923706055,23.360000610351562,22.34000015258789,22.40999984741211,22.40999984741211,428100
2018-12-06,21.860000610351562,23.040000915527344,21.75,22.700000762939453,22.700000762939453,422100
2018-12-07,22.56999969482422,22.969999313354492,22.100000381469727,22.489999771118164,22.489999771118164,453900
2018-12-10,22.479999542236328,22.889999389648438,21.690000534057617,22.399999618530273,22.399999618530273,549900
2018-12-11,22.770000457763672,22.770000457763672,21.940000534057617,22.149999618530273,22.149999618530273,452200
2018-12-12,22.280000686645508,22.809999465942383,21.6200008392334,22.1200008392334,22.1200008392334,444900
2018-12-13,22.100000381469727,22.31999969482422,21.75,22.110000610351562,22.110000610351562,681800
2018-12-14,22.0,23.3700008392334,22.0,22.790000915527344,22.790000915527344,743800
2018-12-17,22.729999542236328,23.059999465942383,22.040000915527344,22.809999465942383,22.809999465942383,1061400
2018-12-18,22.850000381469727,23.25,22.610000610351562,23.139999389648438,23.139999389648438,668200
2018-12-19,23.149999618530273,24.100000381469727,23.079999923706055,23.549999237060547,23.549999237060547,607700
2018-12-20,23.360000610351562,24.209999084472656,22.709999084472656,23.440000534057617,23.440000534057617,586000
2018-12-21,23.729999542236328,23.850000381469727,22.84000015258789,23.350000381469727,23.350000381469727,691500
2018-12-24,22.969999313354492,24.440000534057617,22.799999237060547,24.270000457763672,24.270000457763672,200500
2018-12-26,24.299999237060547,25.969999313354492,24.040000915527344,25.350000381469727,25.350000381469727,617000
2018-12-27,24.979999542236328,25.969999313354492,22.969999313354492,25.34000015258789,25.34000015258789,256700
2018-12-28,25.350000381469727,26.110000610351562,24.350000381469727,25.700000762939453,25.700000762939453,209700
2018-12-31,25.65999984741211,27.079999923706055,25.34000015258789,26.610000610351562,26.610000610351562,489500
2019-01-02,26.1299991607666,26.850000381469727,25.469999313354492,26.479999542236328,26.479999542236328,300200
2019-01-03,26.209999084472656,26.290000915527344,24.3700008392334,25.489999771118164,25.489999771118164,319200
2019-01-04,25.899999618530273,27.530000686645508,25.739999771118164,27.0,27.0,299100
2019-01-07,27.09000015258789,27.889999389648438,26.299999237060547,27.739999771118164,27.739999771118164,361800
2019-01-08,28.0,28.5,27.010000228881836,27.90999984741211,27.90999984741211,336000
2019-01-09,27.889999389648438,27.889999389648438,26.260000228881836,26.600000381469727,26.600000381469727,563000
2019-01-10,26.389999389648438,27.010000228881836,25.940000534057617,26.43000030517578,26.43000030517578,476000
2019-01-11,26.280000686645508,26.489999771118164,25.850000381469727,26.030000686645508,26.030000686645508,397700
2019-01-14,25.84000015258789,27.040000915527344,25.670000076293945,26.469999313354492,26.469999313354492,1052500
2019-01-15,26.6200008392334,27.969999313354492,26.549999237060547,27.68000030517578,27.68000030517578,416400
2019-01-16,27.65999984741211,28.1200008392334,27.450000762939453,27.969999313354492,27.969999313354492,303200
2019-01-17,27.850000381469727,28.979999542236328,27.799999237060547,28.260000228881836,28.260000228881836,590200
2019-01-18,28.350000381469727,28.790000915527344,27.950000762939453,28.530000686645508,28.530000686645508,658400
2019-01-22,28.3799991607666,28.59000015258789,27.649999618530273,28.170000076293945,28.170000076293945,217500
2019-01-23,28.280000686645508,29.290000915527344,28.280000686645508,29.09000015258789,29.09000015258789,337100
2019-01-24,29.040000915527344,29.270000457763672,26.139999389648438,28.329999923706055,28.329999923706055,273800
2019-01-25,28.5,28.950000762939453,28.149999618530273,28.600000381469727,28.600000381469727,254200
2019-01-28,28.350000381469727,28.899999618530273,28.100000381469727,28.700000762939453,28.700000762939453,196900
2019-01-29,28.670000076293945,29.920000076293945,28.639999389648438,29.670000076293945,29.670000076293945,253700
2019-01-30,29.729999542236328,30.0,29.290000915527344,29.360000610351562,29.360000610351562,207000
2019-01-31,29.25,30.290000915527344,29.1200008392334,29.719999313354492,29.719999313354492,251200
2019-02-01,29.709999084472656,30.239999771118164,29.3799991607666,30.040000915527344,30.040000915527344,154600
2019-02-04,29.889999389648438,30.1299991607666,28.780000686645508,29.139999389648438,29.139999389648438,216800
2019-02-05,29.149999618530273,29.770000457763672,29.149999618530273,29.40999984741211,29.40999984741211,159600
2019-02-06,29.350000381469727,29.649999618530273,28.549999237060547,28.600000381469727,28.600000381469727,163000
2019-02-07,28.510000228881836,28.93000030517578,28.40999984741211,28.690000534057617,28.690000534057617,100900
2019-02-08,28.549999237060547,28.75,27.389999389648438,27.600000381469727,27.600000381469727,165000
2019-02-11,27.610000610351562,28.0,26.610000610351562,27.010000228881836,27.010000228881836,352300
2019-02-12,27.06999969482422,28.1299991607666,27.06999969482422,27.90999984741211,27.90999984741211,147000
2019-02-13,27.979999542236328,28.420000076293945,27.75,28.010000228881836,28.010000228881836,208800
2019-02-14,27.940000534057617,29.0,27.90999984741211,28.329999923706055,28.329999923706055,443300
2019-02-15,28.690000534057617,28.979999542236328,28.270000457763672,28.469999313354492,28.469999313354492,277900
2019-02-19,28.6200008392334,28.8700008392334,28.3700008392334,28.6200008392334,28.6200008392334,263100
2019-02-20,28.360000610351562,29.0,28.260000228881836,28.860000610351562,28.860000610351562,372400
2019-02-21,28.850000381469727,29.040000915527344,28.420000076293945,28.790000915527344,28.790000915527344,160200
2019-02-22,28.950000762939453,29.219999313354492,27.959999084472656,28.899999618530273,28.899999618530273,595500
2019-02-25,29.0,29.190000534057617,28.3700008392334,28.799999237060547,28.799999237060547,283800
2019-02-26,28.739999771118164,28.75,27.770000457763672,28.170000076293945,28.170000076293945,413500
2019-02-27,29.959999084472656,33.88999938964844,29.959999084472656,31.600000381469727,31.600000381469727,769900
2019-02-28,31.290000915527344,32.290000915527344,29.959999084472656,32.0,32.0,755500
2019-03-01,32.40999984741211,36.689998626708984,31.850000381469727,35.599998474121094,35.599998474121094,749300
2019-03-04,34.79999923706055,35.380001068115234,33.79999923706055,35.27000045776367,35.27000045776367,725000
2019-03-05,35.220001220703125,36.91999816894531,35.0099983215332,35.709999084472656,35.709999084472656,547400
2019-03-06,35.65999984741211,36.5,35.41999816894531,36.279998779296875,36.279998779296875,369800
2019-03-07,36.02000045776367,36.7400016784668,35.810001373291016,36.560001373291016,36.560001373291016,181800
2019-03-08,36.349998474121094,37.209999084472656,36.0,36.119998931884766,36.119998931884766,206400
2019-03-11,36.279998779296875,36.970001220703125,35.290000915527344,36.529998779296875,36.529998779296875,310600
2019-03-12,36.650001525878906,37.619998931884766,36.540000915527344,37.06999969482422,37.06999969482422,170800
2019-03-13,37.22999954223633,37.540000915527344,35.400001525878906,35.720001220703125,35.720001220703125,530700
2019-03-14,35.79999923706055,36.7400016784668,35.459999084472656,35.79999923706055,35.79999923706055,378500
2019-03-15,35.599998474121094,36.0,33.13999938964844,35.88999938964844,35.88999938964844,1200900
2019-03-18,35.529998779296875,36.060001373291016,35.43000030517578,35.84000015258789,35.84000015258789,298500
2019-03-19,35.29999923706055,35.5,33.709999084472656,34.310001373291016,34.310001373291016,678300
2019-03-20,34.29999923706055,34.77000045776367,31.799999237060547,32.04999923706055,32.04999923706055,855800
2019-03-21,30.770000457763672,33.75,30.600000381469727,32.41999816894531,32.41999816894531,8603800
2019-03-22,31.639999389648438,33.47999954223633,31.639999389648438,32.70000076293945,32.70000076293945,1273100
2019-03-25,33.119998931884766,33.33000183105469,31.530000686645508,31.989999771118164,31.989999771118164,703800
2019-03-26,32.279998779296875,32.7400016784668,31.739999771118164,32.400001525878906,32.400001525878906,641800
2019-03-27,31.760000228881836,33.29999923706055,31.760000228881836,32.7599983215332,32.7599983215332,792900
2019-03-28,33.209999084472656,35.0,32.459999084472656,34.47999954223633,34.47999954223633,1045200
2019-03-29,34.529998779296875,34.900001525878906,33.810001373291016,34.41999816894531,34.41999816894531,574200
2019-04-01,34.75,34.779998779296875,33.88999938964844,34.310001373291016,34.310001373291016,504100
2019-04-02,34.31999969482422,34.939998626708984,33.900001525878906,34.06999969482422,34.06999969482422,338800
2019-04-03,34.06999969482422,34.540000915527344,33.400001525878906,34.060001373291016,34.060001373291016,334400
2019-04-04,34.13999938964844,34.720001220703125,33.040000915527344,33.619998931884766,33.619998931884766,655500
2019-04-05,33.7599983215332,35.68000030517578,33.7599983215332,35.5099983215332,35.5099983215332,1446100
2019-04-08,35.75,35.970001220703125,34.349998474121094,34.650001525878906,34.650001525878906,291800
2019-04-09,34.630001068115234,34.959999084472656,33.90999984741211,34.41999816894531,34.41999816894531,212500
2019-04-10,34.380001068115234,34.79999923706055,33.86000061035156,34.47999954223633,34.47999954223633,210500
2019-04-11,34.61000061035156,35.75,34.31999969482422,35.09000015258789,35.09000015258789,804900
2019-04-12,35.18000030517578,35.84000015258789,34.41999816894531,34.61000061035156,34.61000061035156,221400
2019-04-15,34.40999984741211,35.47999954223633,34.13999938964844,34.540000915527344,34.540000915527344,420300
2019-04-16,34.560001373291016,35.08000183105469,34.16999816894531,34.61000061035156,34.61000061035156,223000
2019-04-17,34.83000183105469,34.880001068115234,33.720001220703125,34.22999954223633,34.22999954223633,249300
2019-04-18,34.04999923706055,34.34000015258789,33.810001373291016,34.0099983215332,34.0099983215332,311800
2019-04-22,33.77000045776367,34.040000915527344,33.0,33.540000915527344,33.540000915527344,539800
2019-04-23,33.45000076293945,33.90999984741211,33.27000045776367,33.619998931884766,33.619998931884766,814500
2019-04-24,34.02000045776367,34.560001373291016,33.45000076293945,34.279998779296875,34.279998779296875,874100
2019-04-25,34.54999923706055,35.099998474121094,33.900001525878906,34.9900016784668,34.9900016784668,933500
2019-04-26,34.84000015258789,35.41999816894531,33.869998931884766,34.900001525878906,34.900001525878906,558500
2019-04-29,34.95000076293945,35.959999084472656,34.41999816894531,35.189998626708984,35.189998626708984,511000
2019-04-30,35.099998474121094,35.939998626708984,35.0,35.2400016784668,35.2400016784668,494800
2019-05-01,35.310001373291016,36.349998474121094,35.06999969482422,35.40999984741211,35.40999984741211,561400
2019-05-02,35.529998779296875,36.099998474121094,35.150001525878906,35.5099983215332,35.5099983215332,331700
2019-05-03,35.75,36.54999923706055,35.060001373291016,35.16999816894531,35.16999816894531,501900
2019-05-06,34.7400016784668,35.290000915527344,34.599998474121094,35.0,35.0,317500
2019-05-07,34.779998779296875,35.25,34.099998474121094,34.349998474121094,34.349998474121094,693300
2019-05-08,37.4900016784668,40.0,36.939998626708984,38.849998474121094,38.849998474121094,1763400
2019-05-09,38.52000045776367,39.27000045776367,38.0099983215332,38.45000076293945,38.45000076293945,1063600
2019-05-10,38.470001220703125,39.459999084472656,38.2400016784668,38.93000030517578,38.93000030517578,786800
2019-05-13,38.56999969482422,39.15999984741211,38.2599983215332,38.47999954223633,38.47999954223633,961700
2019-05-14,38.689998626708984,38.939998626708984,38.38999938964844,38.59000015258789,38.59000015258789,1876700
2019-05-15,38.939998626708984,41.08000183105469,38.849998474121094,40.790000915527344,40.790000915527344,1549800
2019-05-16,40.900001525878906,41.90999984741211,40.650001525878906,41.349998474121094,41.349998474121094,996300
2019-05-17,41.31999969482422,42.5099983215332,41.0099983215332,42.34000015258789,42.34000015258789,654500
2019-05-20,42.099998474121094,43.13999938964844,41.560001373291016,42.72999954223633,42.72999954223633,852200
2019-05-21,42.86000061035156,43.470001220703125,41.029998779296875,41.7400016784668,41.7400016784668,1269200
2019-05-22,41.43000030517578,42.150001525878906,41.41999816894531,41.689998626708984,41.689998626708984,779700
2019-05-23,41.58000183105469,41.83000183105469,40.47999954223633,41.68000030517578,41.68000030517578,696800
2019-05-24,41.75,42.36000061035156,40.869998931884766,41.36000061035156,41.36000061035156,679900
2019-05-28,41.54999923706055,41.7599983215332,40.369998931884766,40.90999984741211,40.90999984741211,491400
2019-05-29,40.880001068115234,41.33000183105469,40.08000183105469,40.810001373291016,40.810001373291016,484100
2019-05-30,40.83000183105469,41.36000061035156,40.709999084472656,40.95000076293945,40.95000076293945,473800
2019-05-31,40.650001525878906,40.97999954223633,39.880001068115234,40.209999084472656,40.209999084472656,627500
2019-06-03,40.119998931884766,40.36000061035156,38.939998626708984,39.02000045776367,39.02000045776367,812500
2019-06-04,39.0099983215332,40.52000045776367,38.56999969482422,39.95000076293945,39.95000076293945,672900
2019-06-05,40.11000061035156,40.630001068115234,39.689998626708984,40.540000915527344,40.540000915527344,608900
2019-06-06,40.54999923706055,41.31999969482422,39.439998626708984,40.060001373291016,40.060001373291016,618500
2019-06-07,40.310001373291016,41.04999923706055,39.58000183105469,40.38999938964844,40.38999938964844,921200
2019-06-10,40.599998474121094,42.09000015258789,40.220001220703125,41.41999816894531,41.41999816894531,1710800
2019-06-11,41.43000030517578,42.0099983215332,41.09000015258789,41.93000030517578,41.93000030517578,666200
2019-06-12,41.720001220703125,42.06999969482422,41.5099983215332,41.97999954223633,41.97999954223633,463500
2019-06-13,42.0099983215332,42.72999954223633,41.84000015258789,41.90999984741211,41.90999984741211,682600
2019-06-14,42.0099983215332,42.099998474121094,40.880001068115234,41.41999816894531,41.41999816894531,777400
2019-06-17,41.689998626708984,42.25,40.369998931884766,41.7599983215332,41.7599983215332,704200
2019-06-18,41.81999969482422,42.54999923706055,41.2400016784668,41.88999938964844,41.88999938964844,1202000
2019-06-19,41.689998626708984,42.31999969482422,41.400001525878906,41.75,41.75,686300
2019-06-20,42.0099983215332,43.040000915527344,41.61000061035156,41.83000183105469,41.83000183105469,650500
2019-06-21,41.720001220703125,43.470001220703125,41.61000061035156,42.4900016784668,42.4900016784668,1019200
2019-06-24,42.779998779296875,42.779998779296875,41.119998931884766,41.630001068115234,41.630001068115234,1040700
2019-06-25,41.61000061035156,41.939998626708984,40.41999816894531,40.720001220703125,40.720001220703125,1028100
2019-06-26,40.939998626708984,43.349998474121094,40.66999816894531,42.310001373291016,42.310001373291016,908100
2019-06-27,42.22999954223633,43.720001220703125,42.220001220703125,43.34000015258789,43.34000015258789,716500
2019-06-28,43.4900016784668,44.349998474121094,43.34000015258789,43.54999923706055,43.54999923706055,2059400
2019-07-01,43.65999984741211,44.54999923706055,43.45000076293945,43.83000183105469,43.83000183105469,458000
2019-07-02,43.939998626708984,44.77000045776367,43.63999938964844,44.650001525878906,44.650001525878906,568400
2019-07-03,44.619998931884766,44.90999984741211,44.040000915527344,44.18000030517578,44.18000030517578,193200
2019-07-05,43.93000030517578,44.41999816894531,43.11000061035156,44.33000183105469,44.33000183105469,360300
2019-07-08,44.09000015258789,44.310001373291016,43.2400016784668,43.529998779296875,43.529998779296875,543200
2019-07-09,43.310001373291016,44.20000076293945,43.0099983215332,44.11000061035156,44.11000061035156,433900
2019-07-10,44.119998931884766,44.380001068115234,43.7599983215332,44.189998626708984,44.189998626708984,347700
2019-07-11,44.209999084472656,44.4900016784668,43.619998931884766,44.0,44.0,359200
2019-07-12,44.099998474121094,46.0099983215332,44.099998474121094,45.31999969482422,45.31999969482422,478000
2019-07-15,45.529998779296875,45.970001220703125,44.97999954223633,45.220001220703125,45.220001220703125,469200
2019-07-16,45.25,46.209999084472656,45.0,45.849998474121094,45.849998474121094,452300
2019-07-17,45.939998626708984,46.06999969482422,45.08000183105469,45.599998474121094,45.599998474121094,287700
2019-07-18,45.470001220703125,46.060001373291016,45.040000915527344,45.97999954223633,45.97999954223633,779600
2019-07-19,46.0,46.84000015258789,45.709999084472656,46.04999923706055,46.04999923706055,522300
2019-07-22,46.0099983215332,46.869998931884766,45.7599983215332,46.310001373291016,46.310001373291016,350300
2019-07-23,46.31999969482422,46.36000061035156,45.04999923706055,45.54999923706055,45.54999923706055,320800
2019-07-24,45.54999923706055,45.880001068115234,44.22999954223633,44.369998931884766,44.369998931884766,869400
2019-07-25,44.34000015258789,45.86000061035156,44.11000061035156,45.7400016784668,45.7400016784668,399000
2019-07-26,45.75,46.97999954223633,45.25,46.75,46.75,901400
2019-07-29,46.689998626708984,47.54999923706055,46.34000015258789,47.310001373291016,47.310001373291016,865100
2019-07-30,47.119998931884766,47.66999816894531,46.97999954223633,47.119998931884766,47.119998931884766,372800
2019-07-31,45.83000183105469,46.9900016784668,44.810001373291016,45.63999938964844,45.63999938964844,507300
2019-08-01,45.43000030517578,46.349998474121094,45.0,45.220001220703125,45.220001220703125,608200
2019-08-02,45.279998779296875,45.33000183105469,44.150001525878906,44.52000045776367,44.52000045776367,660300
2019-08-05,43.029998779296875,44.0,41.810001373291016,42.56999969482422,42.56999969482422,748900
2019-08-06,42.849998474121094,44.529998779296875,42.41999816894531,43.31999969482422,43.31999969482422,545300
2019-08-07,42.79999923706055,44.75,42.560001373291016,43.90999984741211,43.90999984741211,489400
2019-08-08,51.959999084472656,51.959999084472656,48.540000915527344,50.459999084472656,50.459999084472656,1779300
2019-08-09,50.529998779296875,51.33000183105469,48.619998931884766,49.93000030517578,49.93000030517578,466500
2019-08-12,49.650001525878906,51.150001525878906,49.38999938964844,49.779998779296875,49.779998779296875,514000
2019-08-13,49.79999923706055,50.54999923706055,49.63999938964844,50.439998626708984,50.439998626708984,709900
2019-08-14,49.869998931884766,50.880001068115234,49.66999816894531,49.91999816894531,49.91999816894531,902200
2019-08-15,50.029998779296875,50.560001373291016,49.0099983215332,49.189998626708984,49.189998626708984,539000
2019-08-16,49.599998474121094,50.52000045776367,49.529998779296875,50.349998474121094,50.349998474121094,528500
2019-08-19,51.25,51.58000183105469,50.20000076293945,50.77000045776367,50.77000045776367,489500
2019-08-20,50.810001373291016,51.63999938964844,50.689998626708984,50.95000076293945,50.95000076293945,327300
2019-08-21,51.54999923706055,52.189998626708984,51.06999969482422,51.56999969482422,51.56999969482422,616800
2019-08-22,51.790000915527344,52.029998779296875,51.11000061035156,51.72999954223633,51.72999954223633,245200
2019-08-23,51.470001220703125,51.689998626708984,50.209999084472656,50.599998474121094,50.599998474121094,407400
2019-08-26,50.810001373291016,51.810001373291016,49.34000015258789,49.79999923706055,49.79999923706055,587500
2019-08-27,49.95000076293945,50.540000915527344,49.310001373291016,49.54999923706055,49.54999923706055,562900
2019-08-28,49.45000076293945,50.22999954223633,48.529998779296875,49.9900016784668,49.9900016784668,511000
2019-08-29,50.2400016784668,51.310001373291016,50.18000030517578,50.90999984741211,50.90999984741211,440000
2019-08-30,51.15999984741211,51.4900016784668,50.61000061035156,51.34000015258789,51.34000015258789,270000
2019-09-03,50.90999984741211,51.540000915527344,50.02000045776367,50.33000183105469,50.33000183105469,354800
2019-09-04,50.79999923706055,51.86000061035156,50.619998931884766,51.5099983215332,51.5099983215332,662400
2019-09-05,51.90999984741211,52.9900016784668,51.619998931884766,52.619998931884766,52.619998931884766,701400
2019-09-06,52.849998474121094,53.29999923706055,50.540000915527344,50.88999938964844,50.88999938964844,622300
2019-09-09,51.20000076293945,51.36000061035156,49.689998626708984,50.08000183105469,50.08000183105469,496300
2019-09-10,49.970001220703125,49.970001220703125,48.06999969482422,48.650001525878906,48.650001525878906,1052100
2019-09-11,48.97999954223633,50.599998474121094,48.22999954223633,50.45000076293945,50.45000076293945,322800
2019-09-12,50.310001373291016,51.66999816894531,50.16999816894531,51.279998779296875,51.279998779296875,305900
2019-09-13,51.52000045776367,52.11000061035156,50.970001220703125,51.45000076293945,51.45000076293945,419600
2019-09-16,51.13999938964844,51.869998931884766,50.560001373291016,50.97999954223633,50.97999954223633,228500
2019-09-17,51.0,52.619998931884766,50.810001373291016,51.560001373291016,51.560001373291016,289300
2019-09-18,51.40999984741211,52.15999984741211,51.0099983215332,51.459999084472656,51.459999084472656,178200
2019-09-19,51.40999984741211,52.790000915527344,51.40999984741211,52.189998626708984,52.189998626708984,351900
2019-09-20,52.279998779296875,52.72999954223633,51.79999923706055,52.11000061035156,52.11000061035156,476500
2019-09-23,52.11000061035156,52.529998779296875,51.36000061035156,51.540000915527344,51.540000915527344,224400
2019-09-24,51.54999923706055,52.060001373291016,51.11000061035156,51.4900016784668,51.4900016784668,528100
2019-09-25,51.34000015258789,52.2599983215332,50.72999954223633,52.02000045776367,52.02000045776367,270800
2019-09-26,51.95000076293945,52.34000015258789,50.459999084472656,51.59000015258789,51.59000015258789,288100
2019-09-27,50.63999938964844,52.689998626708984,46.52000045776367,46.97999954223633,46.97999954223633,811900
2019-09-30,46.95000076293945,49.560001373291016,46.619998931884766,48.56999969482422,48.56999969482422,432000
2019-10-01,48.630001068115234,49.4900016784668,47.959999084472656,48.220001220703125,48.220001220703125,355300
2019-10-02,47.790000915527344,48.45000076293945,47.20000076293945,47.90999984741211,47.90999984741211,229200
2019-10-03,48.0,48.70000076293945,47.529998779296875,48.689998626708984,48.689998626708984,237800
2019-10-04,48.52000045776367,50.130001068115234,48.52000045776367,49.5,49.5,223300
2019-10-07,49.63999938964844,50.25,49.220001220703125,49.81999969482422,49.81999969482422,750300
2019-10-08,49.810001373291016,50.099998474121094,49.130001068115234,49.61000061035156,49.61000061035156,217300
2019-10-09,50.060001373291016,51.34000015258789,49.790000915527344,51.040000915527344,51.040000915527344,463200
2019-10-10,50.83000183105469,51.959999084472656,50.540000915527344,51.36000061035156,51.36000061035156,443200
2019-10-11,52.06999969482422,52.58000183105469,50.650001525878906,51.16999816894531,51.16999816894531,456000
2019-10-14,51.11000061035156,51.45000076293945,50.41999816894531,50.72999954223633,50.72999954223633,454100
2019-10-15,50.650001525878906,51.810001373291016,50.11000061035156,51.4900016784668,51.4900016784668,294800
2019-10-16,51.380001068115234,51.61000061035156,50.45000076293945,51.279998779296875,51.279998779296875,337300
2019-10-17,51.65999984741211,51.9900016784668,50.709999084472656,50.77000045776367,50.77000045776367,269900
2019-10-18,50.61000061035156,51.09000015258789,49.43000030517578,50.349998474121094,50.349998474121094,337800
2019-10-21,50.45000076293945,50.79999923706055,49.869998931884766,50.18000030517578,50.18000030517578,296700
2019-10-22,50.43000030517578,50.470001220703125,47.130001068115234,47.47999954223633,47.47999954223633,556800
2019-10-23,47.36000061035156,47.4900016784668,46.0099983215332,47.04999923706055,47.04999923706055,865100
2019-10-24,47.5099983215332,47.810001373291016,47.0,47.61000061035156,47.61000061035156,361200
2019-10-25,47.61000061035156,49.220001220703125,47.61000061035156,48.060001373291016,48.060001373291016,314400
2019-10-28,48.22999954223633,49.279998779296875,47.84000015258789,48.4900016784668,48.4900016784668,216400
2019-10-29,48.0,48.650001525878906,47.369998931884766,47.5,47.5,467100
2019-10-30,47.5,48.0,46.810001373291016,47.779998779296875,47.779998779296875,341200
2019-10-31,47.869998931884766,48.5099983215332,47.470001220703125,48.22999954223633,48.22999954223633,357200
2019-11-01,48.16999816894531,49.5099983215332,47.970001220703125,48.59000015258789,48.59000015258789,411500
2019-11-04,48.77000045776367,48.77000045776367,46.43000030517578,47.15999984741211,47.15999984741211,570100
2019-11-05,45.22999954223633,46.709999084472656,43.38999938964844,43.790000915527344,43.790000915527344,1093100
2019-11-06,43.5,44.83000183105469,42.2599983215332,44.63999938964844,44.63999938964844,1267700
2019-11-07,44.66999816894531,45.880001068115234,43.220001220703125,44.25,44.25,607700
2019-11-08,44.0099983215332,45.16999816894531,43.91999816894531,44.93000030517578,44.93000030517578,851400
2019-11-11,44.68000030517578,44.7599983215332,42.65999984741211,43.130001068115234,43.130001068115234,610500
2019-11-12,43.33000183105469,43.349998474121094,42.16999816894531,42.7400016784668,42.7400016784668,585200
2019-11-13,42.880001068115234,43.83000183105469,42.61000061035156,43.150001525878906,43.150001525878906,637400
2019-11-14,43.11000061035156,43.61000061035156,42.599998474121094,43.47999954223633,43.47999954223633,305800
2019-11-15,43.65999984741211,44.310001373291016,43.5,44.2400016784668,44.2400016784668,397200
2019-11-18,44.40999984741211,44.91999816894531,44.2599983215332,44.380001068115234,44.380001068115234,428100
2019-11-19,45.61000061035156,45.75,44.58000183105469,45.63999938964844,45.63999938964844,649300
2019-11-20,45.400001525878906,46.209999084472656,45.20000076293945,45.650001525878906,45.650001525878906,1036500
2019-11-21,45.47999954223633,45.650001525878906,43.47999954223633,43.689998626708984,43.689998626708984,739500
2019-11-22,43.72999954223633,44.459999084472656,43.04999923706055,44.36000061035156,44.36000061035156,380900
2019-11-25,44.529998779296875,45.619998931884766,44.150001525878906,45.599998474121094,45.599998474121094,460400
2019-11-26,45.2400016784668,45.77000045776367,45.22999954223633,45.650001525878906,45.650001525878906,325600
2019-11-27,45.79999923706055,45.93000030517578,45.439998626708984,45.59000015258789,45.59000015258789,436200
2019-11-29,45.75,46.0,44.95000076293945,45.2599983215332,45.2599983215332,232600
2019-12-02,45.11000061035156,45.25,43.59000015258789,44.58000183105469,44.58000183105469,441100
2019-12-03,44.029998779296875,44.900001525878906,43.939998626708984,44.849998474121094,44.849998474121094,474600
2019-12-04,44.86000061035156,45.5099983215332,44.86000061035156,45.099998474121094,45.099998474121094,355800
2019-12-05,45.34000015258789,45.9900016784668,44.81999969482422,45.31999969482422,45.31999969482422,747100
2019-12-06,45.56999969482422,46.25,44.72999954223633,45.970001220703125,45.970001220703125,1025300
2019-12-09,45.91999816894531,46.15999984741211,43.470001220703125,43.61000061035156,43.61000061035156,743400
2019-12-10,43.560001373291016,45.70000076293945,43.09000015258789,45.43000030517578,45.43000030517578,1058500
2019-12-11,46.18000030517578,47.779998779296875,46.029998779296875,47.310001373291016,47.310001373291016,720400
2019-12-12,47.06999969482422,47.54999923706055,45.20000076293945,45.79999923706055,45.79999923706055,761600
2019-12-13,45.56999969482422,47.349998474121094,45.29999923706055,47.13999938964844,47.13999938964844,602600
2019-12-16,47.220001220703125,47.529998779296875,45.45000076293945,45.61000061035156,45.61000061035156,456300
2019-12-17,45.7400016784668,45.959999084472656,44.75,45.619998931884766,45.619998931884766,377100
2019-12-18,45.5099983215332,45.7400016784668,44.599998474121094,45.2599983215332,45.2599983215332,406900
2019-12-19,45.41999816894531,46.279998779296875,45.04999923706055,46.029998779296875,46.029998779296875,492800
2019-12-20,46.40999984741211,47.41999816894531,45.849998474121094,47.060001373291016,47.060001373291016,788500
2019-12-23,47.150001525878906,47.349998474121094,46.540000915527344,47.06999969482422,47.06999969482422,368100
2019-12-24,46.86000061035156,47.630001068115234,46.560001373291016,47.40999984741211,47.40999984741211,150300
2019-12-26,47.349998474121094,47.380001068115234,45.849998474121094,47.0,47.0,359800
2019-12-27,47.18000030517578,47.720001220703125,46.7400016784668,47.25,47.25,254800
2019-12-30,47.279998779296875,48.599998474121094,45.90999984741211,46.93000030517578,46.93000030517578,174100
2019-12-31,46.599998474121094,47.59000015258789,46.599998474121094,47.41999816894531,47.41999816894531,300000
2020-01-02,47.400001525878906,47.91999816894531,46.58000183105469,47.369998931884766,47.369998931884766,348900
2020-01-03,46.849998474121094,47.599998474121094,46.59000015258789,47.33000183105469,47.33000183105469,240200
2020-01-06,47.11000061035156,48.439998626708984,46.47999954223633,48.369998931884766,48.369998931884766,271300
2020-01-07,48.540000915527344,48.84000015258789,47.400001525878906,47.45000076293945,47.45000076293945,370100
2020-01-08,47.56999969482422,48.04999923706055,47.13999938964844,47.31999969482422,47.31999969482422,353400
2020-01-09,47.650001525878906,47.869998931884766,46.970001220703125,47.08000183105469,47.08000183105469,323900
2020-01-10,47.29999923706055,47.47999954223633,46.59000015258789,46.7400016784668,46.7400016784668,475400
2020-01-13,46.970001220703125,47.349998474121094,46.34000015258789,47.0,47.0,483000
2020-01-14,47.0,47.779998779296875,46.5,47.70000076293945,47.70000076293945,404300
2020-01-15,47.79999923706055,49.13999938964844,47.540000915527344,47.81999969482422,47.81999969482422,303400
2020-01-16,47.84000015258789,48.36000061035156,47.599998474121094,48.29999923706055,48.29999923706055,257400
2020-01-17,48.29999923706055,48.310001373291016,47.880001068115234,48.09000015258789,48.09000015258789,190800
2020-01-21,48.0,48.290000915527344,47.810001373291016,48.09000015258789,48.09000015258789,218800
2020-01-22,48.22999954223633,48.349998474121094,45.84000015258789,46.06999969482422,46.06999969482422,467600
2020-01-23,45.83000183105469,46.220001220703125,45.09000015258789,45.290000915527344,45.290000915527344,550600
2020-01-24,45.439998626708984,45.61000061035156,44.22999954223633,44.709999084472656,44.709999084472656,486100
2020-01-27,43.599998474121094,45.09000015258789,43.56999969482422,44.06999969482422,44.06999969482422,406200
2020-01-28,44.220001220703125,44.650001525878906,43.7400016784668,44.0099983215332,44.0099983215332,365300
2020-01-29,44.08000183105469,44.20000076293945,43.16999816894531,43.349998474121094,43.349998474121094,413200
2020-01-30,43.02000045776367,43.61000061035156,42.70000076293945,43.54999923706055,43.54999923706055,382400
2020-01-31,43.43000030517578,43.720001220703125,42.0099983215332,42.58000183105469,42.58000183105469,409700
2020-02-03,42.81999969482422,43.31999969482422,42.68000030517578,43.2599983215332,43.2599983215332,444200
2020-02-04,43.66999816894531,44.25,43.33000183105469,43.56999969482422,43.56999969482422,569100
2020-02-05,43.970001220703125,44.27000045776367,42.5,43.13999938964844,43.13999938964844,581000
2020-02-06,43.22999954223633,43.77000045776367,42.9900016784668,43.029998779296875,43.029998779296875,395200
2020-02-07,42.66999816894531,43.29999923706055,42.119998931884766,42.349998474121094,42.349998474121094,336900
2020-02-10,42.130001068115234,43.09000015258789,42.02000045776367,43.0,43.0,424000
2020-02-11,43.150001525878906,44.459999084472656,42.900001525878906,43.15999984741211,43.15999984741211,351800
2020-02-12,43.2400016784668,44.310001373291016,42.77000045776367,44.0,44.0,604300
2020-02-13,43.86000061035156,44.22999954223633,43.189998626708984,43.790000915527344,43.790000915527344,507100
2020-02-14,43.900001525878906,44.0,42.790000915527344,43.77000045776367,43.77000045776367,641600
2020-02-18,43.599998474121094,45.11000061035156,43.38999938964844,44.970001220703125,44.970001220703125,856900
2020-02-19,45.20000076293945,45.77000045776367,44.54999923706055,45.56999969482422,45.56999969482422,815400
2020-02-20,45.63999938964844,46.72999954223633,45.630001068115234,46.529998779296875,46.529998779296875,444600
2020-02-21,46.5099983215332,46.95000076293945,45.72999954223633,46.70000076293945,46.70000076293945,490100
2020-02-24,45.290000915527344,46.130001068115234,44.650001525878906,45.58000183105469,45.58000183105469,531900
2020-02-25,45.65999984741211,45.91999816894531,44.20000076293945,44.5,44.5,761600
2020-02-26,44.060001373291016,48.15999984741211,44.060001373291016,45.810001373291016,45.810001373291016,1273600
2020-02-27,44.720001220703125,45.86000061035156,43.189998626708984,43.54999923706055,43.54999923706055,942800
2020-02-28,42.52000045776367,44.040000915527344,41.22999954223633,42.400001525878906,42.400001525878906,976800
2020-03-02,42.56999969482422,45.02000045776367,42.27000045776367,44.91999816894531,44.91999816894531,581000
2020-03-03,45.0099983215332,46.36000061035156,43.880001068115234,44.779998779296875,44.779998779296875,530400
2020-03-04,45.45000076293945,46.06999969482422,44.5,45.790000915527344,45.790000915527344,563400
2020-03-05,44.810001373291016,45.34000015258789,42.630001068115234,43.060001373291016,43.060001373291016,521900
2020-03-06,41.59000015258789,43.36000061035156,41.099998474121094,43.310001373291016,43.310001373291016,482700
2020-03-09,39.93000030517578,41.45000076293945,38.540000915527344,38.970001220703125,38.970001220703125,746500
2020-03-10,39.90999984741211,40.13999938964844,38.09000015258789,40.04999923706055,40.04999923706055,1046000
2020-03-11,39.130001068115234,40.83000183105469,36.79999923706055,37.720001220703125,37.720001220703125,514700
2020-03-12,35.0099983215332,37.93000030517578,34.25,36.540000915527344,36.540000915527344,3088800
2020-03-13,37.79999923706055,39.689998626708984,35.72999954223633,37.20000076293945,37.20000076293945,1135800
2020-03-16,34.95000076293945,38.15999984741211,33.20000076293945,36.599998474121094,36.599998474121094,1231700
2020-03-17,37.15999984741211,38.040000915527344,34.5099983215332,35.02000045776367,35.02000045776367,1404200
2020-03-18,33.20000076293945,34.31999969482422,31.420000076293945,33.310001373291016,33.310001373291016,728000
2020-03-19,33.08000183105469,38.060001373291016,31.110000610351562,34.91999816894531,34.91999816894531,879800
2020-03-20,34.939998626708984,41.150001525878906,33.189998626708984,33.7599983215332,33.7599983215332,1066600
2020-03-23,34.349998474121094,34.380001068115234,30.8700008392334,31.899999618530273,31.899999618530273,446000
2020-03-24,32.9900016784668,35.61000061035156,32.380001068115234,34.38999938964844,34.38999938964844,581800
2020-03-25,34.5099983215332,36.31999969482422,33.16999816894531,35.0,35.0,949400
2020-03-26,34.59000015258789,36.56999969482422,34.59000015258789,35.4900016784668,35.4900016784668,902400
2020-03-27,34.79999923706055,36.29999923706055,34.540000915527344,35.560001373291016,35.560001373291016,402800
2020-03-30,36.04999923706055,36.5,33.91999816894531,35.380001068115234,35.380001068115234,777000
2020-03-31,35.150001525878906,37.279998779296875,34.22999954223633,34.779998779296875,34.779998779296875,824500
2020-04-01,33.86000061035156,34.97999954223633,32.31999969482422,32.75,32.75,641700
2020-04-02,32.56999969482422,33.369998931884766,31.59000015258789,32.2400016784668,32.2400016784668,1024000
2020-04-03,32.150001525878906,33.72999954223633,30.059999465942383,30.5,30.5,898200
2020-04-06,30.940000534057617,32.95000076293945,30.940000534057617,31.90999984741211,31.90999984741211,1599000
2020-04-07,32.689998626708984,34.79999923706055,31.989999771118164,32.279998779296875,32.279998779296875,1239000
2020-04-08,32.810001373291016,34.75,32.31999969482422,34.369998931884766,34.369998931884766,884000
2020-04-09,34.88999938964844,36.369998931884766,34.0099983215332,36.18000030517578,36.18000030517578,842900
2020-04-13,36.04999923706055,36.61000061035156,35.22999954223633,35.86000061035156,35.86000061035156,946500
2020-04-14,36.63999938964844,37.5099983215332,36.2400016784668,37.11000061035156,37.11000061035156,524800
2020-04-15,36.400001525878906,37.0,34.52000045776367,34.720001220703125,34.720001220703125,777200
2020-04-16,34.66999816894531,35.11000061035156,33.130001068115234,33.63999938964844,33.63999938964844,1305200
2020-04-17,34.599998474121094,35.88999938964844,33.540000915527344,35.540000915527344,35.540000915527344,497000
2020-04-20,35.150001525878906,36.29999923706055,34.13999938964844,35.0099983215332,35.0099983215332,546500
2020-04-21,34.7599983215332,35.349998474121094,33.720001220703125,34.810001373291016,34.810001373291016,377500
2020-04-22,35.060001373291016,35.970001220703125,34.470001220703125,35.34000015258789,35.34000015258789,334400
2020-04-23,35.900001525878906,36.70000076293945,34.90999984741211,35.939998626708984,35.939998626708984,500000
2020-04-24,35.93000030517578,36.130001068115234,35.45000076293945,35.849998474121094,35.849998474121094,514300
2020-04-27,36.36000061035156,37.689998626708984,36.040000915527344,37.43000030517578,37.43000030517578,399300
2020-04-28,38.06999969482422,38.279998779296875,36.33000183105469,37.47999954223633,37.47999954223633,349200
2020-04-29,38.220001220703125,39.459999084472656,37.72999954223633,39.0,39.0,408600
2020-04-30,39.36000061035156,39.36000061035156,37.5099983215332,38.709999084472656,38.709999084472656,409700
2020-05-01,38.220001220703125,38.4900016784668,37.369998931884766,37.779998779296875,37.779998779296875,314300
2020-05-04,37.18000030517578,38.540000915527344,37.09000015258789,38.4900016784668,38.4900016784668,481900
2020-05-05,37.81999969482422,40.040000915527344,37.810001373291016,39.66999816894531,39.66999816894531,549800
2020-05-06,38.4900016784668,42.72999954223633,38.4900016784668,40.560001373291016,40.560001373291016,798900
2020-05-07,42.290000915527344,42.97999954223633,40.880001068115234,41.84000015258789,41.84000015258789,602500
2020-05-08,42.459999084472656,42.79999923706055,41.529998779296875,42.22999954223633,42.22999954223633,363100
2020-05-11,41.93000030517578,42.869998931884766,41.189998626708984,42.119998931884766,42.119998931884766,1413200
2020-05-12,42.38999938964844,43.0,41.38999938964844,42.15999984741211,42.15999984741211,617800
2020-05-13,42.0,42.66999816894531,40.689998626708984,41.31999969482422,41.31999969482422,437500
2020-05-14,40.560001373291016,41.72999954223633,39.70000076293945,41.650001525878906,41.650001525878906,376900
2020-05-15,41.27000045776367,42.560001373291016,41.27000045776367,42.34000015258789,42.34000015258789,331300
2020-05-18,42.9900016784668,44.220001220703125,42.20000076293945,43.220001220703125,43.220001220703125,545700
2020-05-19,43.33000183105469,43.790000915527344,42.869998931884766,43.08000183105469,43.08000183105469,625500
2020-05-20,43.93000030517578,44.279998779296875,43.20000076293945,43.709999084472656,43.709999084472656,1257600
2020-05-21,44.09000015258789,44.4900016784668,43.52000045776367,43.59000015258789,43.59000015258789,346400
2020-05-22,43.45000076293945,43.7400016784668,42.88999938964844,43.310001373291016,43.310001373291016,1326700
2020-05-26,45.0,45.2400016784668,44.189998626708984,44.61000061035156,44.61000061035156,505000
2020-05-27,45.13999938964844,45.2400016784668,43.72999954223633,44.68000030517578,44.68000030517578,885300
2020-05-28,45.029998779296875,46.40999984741211,44.189998626708984,45.7599983215332,45.7599983215332,477100
2020-05-29,45.47999954223633,45.79999923706055,44.310001373291016,45.650001525878906,45.650001525878906,1276200
2020-06-01,45.97999954223633,46.68000030517578,45.29999923706055,46.31999969482422,46.31999969482422,330500
2020-06-02,46.529998779296875,46.900001525878906,45.83000183105469,45.95000076293945,45.95000076293945,493700
2020-06-03,46.13999938964844,46.66999816894531,45.40999984741211,45.619998931884766,45.619998931884766,591700
2020-06-04,45.52000045776367,45.79999923706055,43.06999969482422,43.31999969482422,43.31999969482422,728700
2020-06-05,44.16999816894531,45.630001068115234,43.79999923706055,44.630001068115234,44.630001068115234,581900
2020-06-08,44.900001525878906,45.72999954223633,44.25,45.13999938964844,45.13999938964844,315900
2020-06-09,44.619998931884766,45.70000076293945,44.2599983215332,45.290000915527344,45.290000915527344,286200
2020-06-10,45.939998626708984,46.20000076293945,44.54999923706055,44.880001068115234,44.880001068115234,443100
2020-06-11,44.13999938964844,44.2400016784668,42.279998779296875,42.41999816894531,42.41999816894531,417800
2020-06-12,43.25,44.25,42.7599983215332,43.83000183105469,43.83000183105469,404800
2020-06-15,42.880001068115234,44.72999954223633,42.43000030517578,44.470001220703125,44.470001220703125,1085300
2020-06-16,45.790000915527344,46.47999954223633,45.2599983215332,45.75,45.75,501200
2020-06-17,46.0,46.33000183105469,45.349998474121094,45.560001373291016,45.560001373291016,540000
2020-06-18,45.20000076293945,46.290000915527344,44.93000030517578,45.29999923706055,45.29999923706055,367400
2020-06-19,45.68000030517578,46.060001373291016,44.29999923706055,44.58000183105469,44.58000183105469,498000
2020-06-22,44.41999816894531,44.560001373291016,43.68000030517578,43.90999984741211,43.90999984741211,320800
2020-06-23,44.20000076293945,45.33000183105469,43.72999954223633,45.06999969482422,45.06999969482422,559400
2020-06-24,44.810001373291016,45.150001525878906,43.9900016784668,44.95000076293945,44.95000076293945,616100
2020-06-25,44.7599983215332,45.119998931884766,44.40999984741211,45.060001373291016,45.060001373291016,366500
2020-06-26,44.72999954223633,45.130001068115234,44.189998626708984,44.52000045776367,44.52000045776367,799500
2020-06-29,44.779998779296875,45.18000030517578,44.04999923706055,45.06999969482422,45.06999969482422,307600
2020-06-30,44.81999969482422,45.279998779296875,44.15999984741211,44.33000183105469,44.33000183105469,486700
2020-07-01,44.59000015258789,45.11000061035156,43.33000183105469,43.880001068115234,43.880001068115234,1522000
2020-07-02,44.40999984741211,44.68000030517578,42.630001068115234,42.88999938964844,42.88999938964844,421000
2020-07-06,43.349998474121094,43.86000061035156,42.790000915527344,42.9900016784668,42.9900016784668,632900
2020-07-07,42.65999984741211,43.34000015258789,42.0099983215332,42.11000061035156,42.11000061035156,477100
2020-07-08,42.61000061035156,43.689998626708984,42.0099983215332,43.0099983215332,43.0099983215332,715400
2020-07-09,43.290000915527344,44.279998779296875,42.849998474121094,44.22999954223633,44.22999954223633,813100
2020-07-10,44.33000183105469,46.099998474121094,44.0099983215332,46.0099983215332,46.0099983215332,743100
2020-07-13,46.33000183105469,46.810001373291016,44.41999816894531,44.59000015258789,44.59000015258789,573300
2020-07-14,44.380001068115234,45.060001373291016,43.880001068115234,44.970001220703125,44.970001220703125,821600
2020-07-15,45.41999816894531,46.290000915527344,45.34000015258789,45.5099983215332,45.5099983215332,330200
2020-07-16,45.459999084472656,46.02000045776367,44.900001525878906,44.97999954223633,44.97999954223633,313500
2020-07-17,45.130001068115234,45.95000076293945,44.599998474121094,45.650001525878906,45.650001525878906,459200
2020-07-20,45.88999938964844,46.02000045776367,45.15999984741211,45.5,45.5,530200
2020-07-21,46.0,46.83000183105469,44.650001525878906,44.81999969482422,44.81999969482422,270700
2020-07-22,44.83000183105469,45.189998626708984,44.58000183105469,45.02000045776367,45.02000045776367,283200
2020-07-23,45.08000183105469,45.599998474121094,43.779998779296875,43.9900016784668,43.9900016784668,360500
2020-07-24,43.88999938964844,44.439998626708984,41.81999969482422,42.0,42.0,993700
2020-07-27,42.02000045776367,42.849998474121094,41.5099983215332,42.209999084472656,42.209999084472656,382500
2020-07-28,42.36000061035156,42.90999984741211,41.61000061035156,41.66999816894531,41.66999816894531,258000
2020-07-29,41.939998626708984,42.5,40.880001068115234,41.040000915527344,41.040000915527344,867300
2020-07-30,40.7599983215332,41.22999954223633,39.86000061035156,40.70000076293945,40.70000076293945,550500
2020-07-31,40.93000030517578,42.369998931884766,40.540000915527344,42.0,42.0,816600
2020-08-03,42.0,43.11000061035156,41.47999954223633,42.5,42.5,816700
2020-08-04,42.63999938964844,43.400001525878906,42.130001068115234,42.25,42.25,545700
2020-08-05,41.869998931884766,42.40999984741211,40.70000076293945,40.7400016784668,40.7400016784668,758400
2020-08-06,41.52000045776367,45.33000183105469,40.81999969482422,45.220001220703125,45.220001220703125,1314800
2020-08-07,44.77000045776367,45.380001068115234,43.09000015258789,44.189998626708984,44.189998626708984,622500
2020-08-10,44.45000076293945,45.130001068115234,43.70000076293945,43.849998474121094,43.849998474121094,1000200
2020-08-11,44.0099983215332,45.40999984741211,43.88999938964844,45.220001220703125,45.220001220703125,468700
2020-08-12,45.619998931884766,45.970001220703125,43.7400016784668,43.97999954223633,43.97999954223633,589800
2020-08-13,43.810001373291016,44.31999969482422,42.439998626708984,42.75,42.75,566200
2020-08-14,42.0,42.810001373291016,41.90999984741211,42.790000915527344,42.790000915527344,342500
2020-08-17,42.83000183105469,43.9900016784668,42.33000183105469,43.279998779296875,43.279998779296875,617800
2020-08-18,43.25,43.939998626708984,42.439998626708984,42.619998931884766,42.619998931884766,303200
2020-08-19,42.880001068115234,43.31999969482422,42.11000061035156,42.790000915527344,42.790000915527344,607200
2020-08-20,42.560001373291016,42.77000045776367,41.400001525878906,41.540000915527344,41.540000915527344,312900
2020-08-21,41.52000045776367,41.61000061035156,40.380001068115234,40.47999954223633,40.47999954223633,388900
2020-08-24,41.619998931884766,41.68000030517578,40.220001220703125,41.529998779296875,41.529998779296875,462200
2020-08-25,41.59000015258789,41.70000076293945,40.79999923706055,41.52000045776367,41.52000045776367,424700
2020-08-26,41.599998474121094,41.650001525878906,41.0,41.16999816894531,41.16999816894531,254000
2020-08-27,41.439998626708984,42.09000015258789,41.11000061035156,41.97999954223633,41.97999954223633,446400
2020-08-28,42.09000015258789,43.369998931884766,41.849998474121094,42.959999084472656,42.959999084472656,549500
2020-08-31,42.849998474121094,43.97999954223633,42.560001373291016,43.56999969482422,43.56999969482422,809300
2020-09-01,43.33000183105469,44.689998626708984,42.7400016784668,44.65999984741211,44.65999984741211,482700
2020-09-02,44.83000183105469,45.90999984741211,44.7599983215332,45.529998779296875,45.529998779296875,640300
2020-09-03,46.15999984741211,46.15999984741211,44.15999984741211,44.529998779296875,44.529998779296875,622300
2020-09-04,44.619998931884766,45.0099983215332,42.119998931884766,42.290000915527344,42.290000915527344,582200
2020-09-08,41.720001220703125,42.58000183105469,40.84000015258789,41.0,41.0,490200
2020-09-09,41.400001525878906,42.209999084472656,41.08000183105469,41.29999923706055,41.29999923706055,490100
2020-09-10,41.310001373291016,41.970001220703125,40.61000061035156,40.720001220703125,40.720001220703125,663100
2020-09-11,40.84000015258789,41.25,40.61000061035156,41.0,41.0,782000
2020-09-14,41.22999954223633,42.959999084472656,40.86000061035156,42.709999084472656,42.709999084472656,473600
2020-09-15,42.61000061035156,42.97999954223633,41.060001373291016,42.619998931884766,42.619998931884766,736400
2020-09-16,42.70000076293945,43.43000030517578,42.38999938964844,43.029998779296875,43.029998779296875,677800
2020-09-17,42.779998779296875,42.779998779296875,41.61000061035156,41.93000030517578,41.93000030517578,636100
2020-09-18,41.849998474121094,42.27000045776367,41.040000915527344,41.900001525878906,41.900001525878906,1081700
2020-09-21,41.27000045776367,42.529998779296875,40.75,42.459999084472656,42.459999084472656,546700
2020-09-22,42.709999084472656,42.79999923706055,41.15999984741211,41.90999984741211,41.90999984741211,391400
2020-09-23,42.040000915527344,42.290000915527344,40.0,40.529998779296875,40.529998779296875,498900
2020-09-24,40.40999984741211,40.40999984741211,39.41999816894531,39.459999084472656,39.459999084472656,567900
2020-09-25,39.459999084472656,41.5,39.29999923706055,39.56999969482422,39.56999969482422,368800
2020-09-28,40.18000030517578,40.220001220703125,39.599998474121094,39.619998931884766,39.619998931884766,368400
2020-09-29,39.790000915527344,41.27000045776367,39.02000045776367,39.08000183105469,39.08000183105469,713500
2020-09-30,38.5,39.29999923706055,38.459999084472656,38.90999984741211,38.90999984741211,1646200
2020-10-01,38.63999938964844,41.08000183105469,38.63999938964844,41.04999923706055,41.04999923706055,1151000
2020-10-02,40.59000015258789,41.68000030517578,39.380001068115234,41.36000061035156,41.36000061035156,414400
2020-10-05,41.52000045776367,42.099998474121094,41.04999923706055,41.59000015258789,41.59000015258789,330100
2020-10-06,41.599998474121094,42.45000076293945,41.31999969482422,41.63999938964844,41.63999938964844,308700
2020-10-07,42.04999923706055,42.439998626708984,40.63999938964844,41.2400016784668,41.2400016784668,425000
2020-10-08,41.66999816894531,42.33000183105469,41.08000183105469,41.900001525878906,41.900001525878906,561400
2020-10-09,42.040000915527344,42.220001220703125,41.279998779296875,42.130001068115234,42.130001068115234,141200
2020-10-12,42.119998931884766,42.880001068115234,41.709999084472656,42.279998779296875,42.279998779296875,349300
2020-10-13,42.34000015258789,43.0099983215332,42.150001525878906,42.439998626708984,42.439998626708984,406500
2020-10-14,42.33000183105469,43.150001525878906,41.75,42.41999816894531,42.41999816894531,251800
2020-10-15,42.06999969482422,42.689998626708984,41.15999984741211,42.5,42.5,153300
2020-10-16,42.29999923706055,42.900001525878906,42.040000915527344,42.060001373291016,42.060001373291016,281100
2020-10-19,42.40999984741211,42.65999984741211,40.84000015258789,41.099998474121094,41.099998474121094,326900
2020-10-20,41.54999923706055,42.2599983215332,40.939998626708984,41.400001525878906,41.400001525878906,658200
2020-10-21,41.5,41.9900016784668,41.209999084472656,41.84000015258789,41.84000015258789,384300
2020-10-22,41.65999984741211,41.939998626708984,40.58000183105469,41.29999923706055,41.29999923706055,652600
2020-10-23,41.20000076293945,42.040000915527344,40.7400016784668,41.2599983215332,41.2599983215332,481500
2020-10-26,40.81999969482422,41.86000061035156,40.63999938964844,41.5,41.5,607300
2020-10-27,41.56999969482422,41.939998626708984,40.790000915527344,41.0,41.0,729500
2020-10-28,40.20000076293945,40.650001525878906,39.29999923706055,39.939998626708984,39.939998626708984,511700
2020-10-29,39.93000030517578,40.09000015258789,38.77000045776367,39.27000045776367,39.27000045776367,647500
2020-10-30,39.2599983215332,40.0,38.869998931884766,39.619998931884766,39.619998931884766,524600
2020-11-02,39.97999954223633,42.29999923706055,39.97999954223633,42.29999923706055,42.29999923706055,571700
2020-11-03,42.5099983215332,44.220001220703125,42.209999084472656,44.0,44.0,859000
2020-11-04,44.38999938964844,45.66999816894531,44.15999984741211,44.54999923706055,44.54999923706055,662500
2020-11-05,43.709999084472656,46.18000030517578,43.119998931884766,45.7599983215332,45.7599983215332,870500
2020-11-06,45.2599983215332,46.380001068115234,44.16999816894531,45.91999816894531,45.91999816894531,791300
2020-11-09,48.09000015258789,49.470001220703125,47.36000061035156,47.97999954223633,47.97999954223633,879100
2020-11-10,48.04999923706055,49.06999969482422,47.18000030517578,48.40999984741211,48.40999984741211,587800
2020-11-11,48.540000915527344,48.70000076293945,46.27000045776367,46.380001068115234,46.380001068115234,525000
2020-11-12,46.36000061035156,47.27000045776367,45.7400016784668,46.150001525878906,46.150001525878906,319400
2020-11-13,46.709999084472656,47.560001373291016,46.15999984741211,46.38999938964844,46.38999938964844,329700
2020-11-16,47.060001373291016,47.9900016784668,46.630001068115234,47.08000183105469,47.08000183105469,695300
2020-11-17,47.0,47.54999923706055,46.33000183105469,47.08000183105469,47.08000183105469,893400
2020-11-18,47.33000183105469,47.33000183105469,45.869998931884766,45.939998626708984,45.939998626708984,349600
2020-11-19,46.119998931884766,46.72999954223633,45.529998779296875,46.029998779296875,46.029998779296875,516200
2020-11-20,46.0,46.31999969482422,45.459999084472656,46.209999084472656,46.209999084472656,571800
2020-11-23,46.779998779296875,46.84000015258789,45.72999954223633,46.13999938964844,46.13999938964844,585800
2020-11-24,46.400001525878906,46.849998474121094,45.70000076293945,45.93000030517578,45.93000030517578,384600
2020-11-25,46.349998474121094,47.349998474121094,45.150001525878906,46.709999084472656,46.709999084472656,425200
2020-11-27,46.9900016784668,47.9900016784668,46.970001220703125,47.59000015258789,47.59000015258789,157500
2020-11-30,47.29999923706055,47.81999969482422,46.130001068115234,47.34000015258789,47.34000015258789,537600
2020-12-01,47.33000183105469,47.869998931884766,46.56999969482422,47.31999969482422,47.31999969482422,567500
2020-12-02,47.15999984741211,47.9900016784668,46.4900016784668,47.43000030517578,47.43000030517578,571400
2020-12-03,47.59000015258789,48.099998474121094,46.869998931884766,47.58000183105469,47.58000183105469,265600
2020-12-04,47.880001068115234,48.59000015258789,47.59000015258789,48.02000045776367,48.02000045776367,414900
2020-12-07,48.09000015258789,48.470001220703125,45.790000915527344,48.2400016784668,48.2400016784668,412000
2020-12-08,47.790000915527344,49.06999969482422,47.59000015258789,48.790000915527344,48.790000915527344,309900
2020-12-09,49.2400016784668,50.34000015258789,48.900001525878906,50.13999938964844,50.13999938964844,445600
2020-12-10,49.75,50.599998474121094,49.619998931884766,50.56999969482422,50.56999969482422,173000
2020-12-11,50.599998474121094,51.08000183105469,49.2599983215332,49.970001220703125,49.970001220703125,463900
2020-12-14,50.5099983215332,50.88999938964844,49.470001220703125,49.54999923706055,49.54999923706055,284400
2020-12-15,49.56999969482422,50.18000030517578,49.25,49.97999954223633,49.97999954223633,263800
2020-12-16,50.43000030517578,50.4900016784668,49.619998931884766,50.13999938964844,50.13999938964844,289100
2020-12-17,50.36000061035156,50.86000061035156,49.91999816894531,50.720001220703125,50.720001220703125,358800
2020-12-18,50.95000076293945,51.66999816894531,49.790000915527344,50.9900016784668,50.9900016784668,565200
2020-12-21,49.970001220703125,50.7400016784668,49.68000030517578,50.040000915527344,50.040000915527344,278200
2020-12-22,49.9900016784668,50.61000061035156,49.119998931884766,50.279998779296875,50.279998779296875,153200
2020-12-23,50.16999816894531,50.70000076293945,50.16999816894531,50.439998626708984,50.439998626708984,149100
2020-12-24,50.4900016784668,50.779998779296875,50.040000915527344,50.54999923706055,50.54999923706055,62800
2020-12-28,50.47999954223633,51.15999984741211,50.040000915527344,50.18000030517578,50.18000030517578,188500
2020-12-29,50.11000061035156,50.5099983215332,49.08000183105469,49.31999969482422,49.31999969482422,185000
2020-12-30,49.279998779296875,50.65999984741211,49.279998779296875,49.79999923706055,49.79999923706055,199600
