Date,Open,High,Low,Close,Adj Close,Volume
2018-03-27,14.399999618530273,14.699999809265137,12.779999732971191,13.0,12.395953178405762,4113800
2018-03-28,12.899999618530273,13.220000267028809,12.520000457763672,13.029999732971191,12.424559593200684,694200
2018-03-29,13.039999961853027,13.100000381469727,12.279999732971191,12.75,12.157569885253906,695300
2018-04-02,12.720000267028809,12.970000267028809,12.5,12.90999984741211,12.310135841369629,102800
2018-04-03,12.899999618530273,13.0,12.760000228881836,12.949999809265137,12.34827709197998,139500
2018-04-04,12.84000015258789,13.0,12.680000305175781,12.899999618530273,12.300599098205566,154500
2018-04-05,12.899999618530273,13.050000190734863,12.5,12.569999694824219,11.985933303833008,248200
2018-04-06,12.489999771118164,12.710000038146973,12.260000228881836,12.680000305175781,12.090822219848633,151000
2018-04-09,12.680000305175781,12.680000305175781,11.819999694824219,12.279999732971191,11.709407806396484,215500
2018-04-10,12.479999542236328,12.479999542236328,11.880000114440918,12.010000228881836,11.451953887939453,190600
2018-04-11,11.90999984741211,12.15999984741211,11.729999542236328,11.970000267028809,11.413812637329102,180300
2018-04-12,11.899999618530273,11.9399995803833,11.25,11.390000343322754,10.860761642456055,167100
2018-04-13,11.229999542236328,11.279999732971191,10.75,11.020000457763672,10.507954597473145,329700
2018-04-16,10.930000305175781,11.850000381469727,10.835000038146973,10.979999542236328,10.469812393188477,125500
2018-04-17,10.880000114440918,12.449999809265137,10.880000114440918,12.319999694824219,11.747549057006836,86700
2018-04-18,12.329999923706055,12.449999809265137,11.649999618530273,11.970000267028809,11.413812637329102,51500
2018-04-19,11.90999984741211,12.09000015258789,11.869999885559082,11.90999984741211,11.356599807739258,40100
2018-04-20,11.90999984741211,11.90999984741211,10.800000190734863,10.8100004196167,10.30771255493164,103300
2018-04-23,10.819999694824219,11.555999755859375,10.819999694824219,10.90999984741211,10.403064727783203,263100
2018-04-24,10.989999771118164,11.600000381469727,10.949999809265137,11.479999542236328,10.946579933166504,279500
2018-04-25,11.399999618530273,12.100000381469727,11.220000267028809,12.100000381469727,11.537772178649902,56200
2018-04-26,12.010000228881836,12.180000305175781,10.960000038146973,11.319999694824219,10.794014930725098,450800
2018-04-27,11.123000144958496,11.5,11.060999870300293,11.449999809265137,10.917974472045898,11500
2018-04-30,11.449999809265137,11.449999809265137,10.949999809265137,11.0,10.488883972167969,186600
2018-05-01,11.079999923706055,11.449999809265137,11.079999923706055,11.449999809265137,10.917974472045898,22300
2018-05-02,11.239999771118164,11.25,11.01099967956543,11.050000190734863,10.53656005859375,45500
2018-05-03,11.050000190734863,11.170000076293945,11.0,11.010000228881836,10.498418807983398,122200
2018-05-04,11.029999732971191,11.670000076293945,11.0,11.520000457763672,10.984722137451172,126600
2018-05-07,11.649999618530273,11.930000305175781,11.4399995803833,11.859999656677246,11.30892276763916,132400
2018-05-08,11.890000343322754,12.220000267028809,11.854999542236328,12.109999656677246,11.547307014465332,243100
2018-05-09,12.369999885559082,13.25,12.0600004196167,13.25,12.634336471557617,149100
2018-05-10,13.3100004196167,13.449999809265137,12.720000267028809,13.010000228881836,12.405488967895508,96900
2018-05-11,13.039999961853027,13.649999618530273,13.0,13.489999771118164,12.863184928894043,67600
2018-05-14,13.449999809265137,13.600000381469727,13.0649995803833,13.229999542236328,12.615265846252441,215300
2018-05-15,13.255000114440918,13.699999809265137,13.255000114440918,13.539999961853027,12.91086196899414,166900
2018-05-16,13.460000038146973,14.6899995803833,13.234999656677246,14.369999885559082,13.702296257019043,398500
2018-05-17,14.649999618530273,15.800000190734863,14.390000343322754,15.479999542236328,14.760719299316406,1034700
2018-05-18,15.739999771118164,16.5,15.675000190734863,16.329999923706055,15.571224212646484,338200
2018-05-21,16.399999618530273,17.8700008392334,16.399999618530273,17.110000610351562,16.31498146057129,374700
2018-05-22,17.350000381469727,17.799999237060547,17.01099967956543,17.25,16.448476791381836,206100
2018-05-23,17.190000534057617,17.299999237060547,16.8799991607666,17.0,16.210092544555664,215400
2018-05-24,16.8799991607666,17.299999237060547,16.56999969482422,16.739999771118164,15.962173461914062,312000
2018-05-25,16.709999084472656,17.09000015258789,16.610000610351562,17.030000686645508,16.238698959350586,99700
2018-05-29,17.059999465942383,17.09000015258789,16.639999389648438,17.030000686645508,16.238698959350586,282400
2018-05-30,17.040000915527344,18.239999771118164,16.940000534057617,18.020000457763672,17.18269920349121,308700
2018-05-31,18.0,19.1299991607666,17.809999465942383,18.719999313354492,17.85017204284668,617300
2018-06-01,19.299999237060547,21.15999984741211,18.75,20.829999923706055,19.862131118774414,807800
2018-06-04,21.09000015258789,21.09000015258789,18.770000457763672,20.770000457763672,19.80491828918457,402200
2018-06-05,20.690000534057617,21.9060001373291,20.059999465942383,20.889999389648438,19.919343948364258,313300
2018-06-06,20.850000381469727,22.889999389648438,20.559999465942383,22.200000762939453,21.168474197387695,337900
2018-06-07,22.15999984741211,23.290000915527344,21.790000915527344,22.0,20.977767944335938,361400
2018-06-08,21.8799991607666,22.729999542236328,21.854999542236328,22.56999969482422,21.521282196044922,103100
2018-06-11,22.5,24.389999389648438,22.5,23.739999771118164,22.636917114257812,252500
2018-06-12,23.6200008392334,25.100000381469727,23.559999465942383,24.309999465942383,23.18043327331543,262100
2018-06-13,24.209999084472656,24.30699920654297,20.559999465942383,21.600000381469727,20.59635353088379,304400
2018-06-14,21.440000534057617,22.47800064086914,21.440000534057617,21.809999465942383,20.796594619750977,197100
2018-06-15,21.75,21.75,17.770000457763672,18.020000457763672,17.18269920349121,558500
2018-06-18,18.020000457763672,20.43000030517578,18.0,20.100000381469727,19.166051864624023,398200
2018-06-19,19.920000076293945,20.670000076293945,18.5,20.479999542236328,19.52839469909668,210500
2018-06-20,20.799999237060547,21.360000610351562,20.51099967956543,21.190000534057617,20.20540428161621,173900
2018-06-21,21.25,21.41200065612793,19.360000610351562,20.299999237060547,19.35675621032715,134100
2018-06-22,20.100000381469727,20.260000228881836,18.690000534057617,18.81999969482422,17.945526123046875,102100
2018-06-25,18.670000076293945,18.780000686645508,18.190000534057617,18.399999618530273,17.545042037963867,96300
2018-06-26,18.5,20.280000686645508,18.290000915527344,19.979999542236328,19.051626205444336,78100
2018-06-27,20.010000228881836,20.010000228881836,18.049999237060547,18.079999923706055,17.239912033081055,88600
2018-06-28,17.690000534057617,18.68000030517578,17.05500030517578,18.100000381469727,17.258981704711914,129100
2018-06-29,17.780000686645508,19.049999237060547,17.780000686645508,18.09000015258789,17.249446868896484,70000
2018-07-02,18.0,18.450000762939453,17.31999969482422,18.350000381469727,17.497365951538086,49900
2018-07-03,18.049999237060547,18.389999389648438,17.81999969482422,17.889999389648438,17.058738708496094,84000
2018-07-05,17.90999984741211,18.06999969482422,16.530000686645508,17.06999969482422,16.276840209960938,148100
2018-07-06,16.809999465942383,18.520000457763672,16.809999465942383,18.290000915527344,17.440153121948242,59800
2018-07-09,18.3700008392334,19.260000228881836,17.93000030517578,18.780000686645508,17.907384872436523,80400
2018-07-10,18.760000228881836,18.770000457763672,18.100000381469727,18.420000076293945,17.564111709594727,43800
2018-07-11,18.190000534057617,18.329999923706055,17.260000228881836,17.809999465942383,16.982454299926758,103100
2018-07-12,17.81999969482422,18.809999465942383,17.71500015258789,17.969999313354492,17.135021209716797,138700
2018-07-13,17.899999618530273,18.1299991607666,17.780000686645508,18.059999465942383,17.22083854675293,24000
2018-07-16,18.420000076293945,18.889999389648438,17.540000915527344,18.0,17.16362762451172,54800
2018-07-17,17.81999969482422,17.90999984741211,17.260000228881836,17.360000610351562,16.553367614746094,53400
2018-07-18,17.290000915527344,17.40999984741211,17.020000457763672,17.139999389648438,16.34358787536621,24200
2018-07-19,17.149999618530273,17.739999771118164,17.128999710083008,17.219999313354492,16.419870376586914,54600
2018-07-20,17.260000228881836,17.90999984741211,17.260000228881836,17.489999771118164,16.677324295043945,31000
2018-07-23,17.600000381469727,17.600000381469727,17.25,17.3799991607666,16.57243537902832,23100
2018-07-24,17.350000381469727,17.381999969482422,16.280000686645508,16.389999389648438,15.628435134887695,60100
2018-07-25,16.389999389648438,16.84000015258789,16.389999389648438,16.690000534057617,15.914497375488281,25400
2018-07-26,16.829999923706055,17.0,16.538999557495117,16.799999237060547,16.019386291503906,24600
2018-07-27,16.860000610351562,16.979999542236328,16.1299991607666,16.59000015258789,15.819144248962402,48900
2018-07-30,16.530000686645508,16.530000686645508,15.550000190734863,16.170000076293945,15.418658256530762,51100
2018-07-31,16.739999771118164,16.850000381469727,16.100000381469727,16.799999237060547,16.019386291503906,27700
2018-08-01,16.729999542236328,16.850000381469727,16.405000686645508,16.65999984741211,15.88589096069336,22000
2018-08-02,16.350000381469727,16.350000381469727,14.300000190734863,15.0,14.303023338317871,264200
2018-08-03,14.979999542236328,15.09000015258789,14.645000457763672,15.0,14.303023338317871,24200
2018-08-06,14.779999732971191,14.984999656677246,14.180000305175781,14.640000343322754,13.95975112915039,149400
2018-08-07,14.680000305175781,15.5,14.399999618530273,15.010000228881836,14.3125581741333,55100
2018-08-08,15.279999732971191,16.190000534057617,14.8100004196167,15.15999984741211,14.455588340759277,65500
2018-08-09,15.09000015258789,16.399999618530273,15.0649995803833,16.139999389648438,15.390052795410156,18300
2018-08-10,16.239999771118164,16.239999771118164,15.279999732971191,15.699999809265137,14.970497131347656,117900
2018-08-13,15.9399995803833,15.979999542236328,15.425000190734863,15.84000015258789,15.103992462158203,34600
2018-08-14,15.819999694824219,16.09000015258789,15.529999732971191,15.970000267028809,15.227952003479004,45100
2018-08-15,15.75,15.795999526977539,14.0,14.130000114440918,13.473447799682617,300300
2018-08-16,14.0600004196167,15.050000190734863,14.0600004196167,14.649999618530273,13.969285011291504,63500
2018-08-17,14.579999923706055,14.65999984741211,14.029999732971191,14.569999694824219,13.8930025100708,18100
2018-08-20,14.65999984741211,14.75,14.0,14.09000015258789,13.435306549072266,97100
2018-08-21,14.281000137329102,14.40999984741211,14.029999732971191,14.119999885559082,13.463912010192871,68200
2018-08-22,14.149999618530273,14.710000038146973,14.0,14.149999618530273,13.492518424987793,244400
2018-08-23,14.220000267028809,14.694999694824219,13.5,13.739999771118164,13.101568222045898,308200
2018-08-24,13.75,13.859999656677246,12.5,12.989999771118164,12.386418342590332,390300
2018-08-27,13.25,13.329999923706055,12.680000305175781,12.779999732971191,12.186175346374512,113000
2018-08-28,12.75,12.75,11.899999618530273,12.09000015258789,11.528236389160156,203300
2018-08-29,12.300000190734863,12.380000114440918,12.069999694824219,12.279999732971191,11.709407806396484,210400
2018-08-30,12.300000190734863,12.598999977111816,12.109999656677246,12.380000114440918,11.80476188659668,153500
2018-08-31,12.1899995803833,12.380000114440918,11.649999618530273,12.0,11.442419052124023,120900
2018-09-04,11.859999656677246,11.960000038146973,11.34000015258789,11.449999809265137,10.917974472045898,122900
2018-09-05,11.420000076293945,11.420000076293945,11.0,11.130000114440918,10.61284351348877,159700
2018-09-06,11.470000267028809,11.550000190734863,10.84000015258789,11.279999732971191,10.755873680114746,162800
2018-09-07,11.010000228881836,11.399999618530273,11.0,11.300000190734863,10.774944305419922,64000
2018-09-10,11.5,11.5,10.6899995803833,10.739999771118164,10.24096393585205,244100
2018-09-11,10.779999732971191,10.789999961853027,10.270000457763672,10.550000190734863,10.059792518615723,107800
2018-09-12,10.470000267028809,10.699999809265137,10.390000343322754,10.5,10.012115478515625,255800
2018-09-13,10.510000228881836,10.819999694824219,10.350000381469727,10.5,10.012115478515625,375700
2018-09-14,10.460000038146973,11.15999984741211,10.460000038146973,11.09000015258789,10.574702262878418,648400
2018-09-17,11.079999923706055,12.744999885559082,11.0600004196167,12.300000190734863,11.72847843170166,262400
2018-09-18,12.149999618530273,12.479999542236328,11.600000381469727,11.600000381469727,11.061004638671875,118700
2018-09-19,12.029999732971191,13.244999885559082,11.729999542236328,12.859999656677246,12.262457847595215,386100
2018-09-20,12.890000343322754,13.5,12.59000015258789,13.5,12.872720718383789,93200
2018-09-21,13.359999656677246,13.65999984741211,12.84000015258789,13.010000228881836,12.405488967895508,142000
2018-09-24,12.6899995803833,13.369999885559082,12.350000381469727,13.210000038146973,12.596195220947266,137800
2018-09-25,13.180000305175781,13.274999618530273,12.619999885559082,13.0,12.395953178405762,75300
2018-09-26,12.880000114440918,13.229999542236328,12.680000305175781,12.890000343322754,12.291064262390137,67200
2018-09-27,12.899999618530273,13.0600004196167,12.779999732971191,12.949999809265137,12.34827709197998,49300
2018-09-28,12.930000305175781,13.069999694824219,12.489999771118164,12.699999809265137,12.109891891479492,109900
2018-10-01,12.729999542236328,13.180000305175781,12.640000343322754,13.029999732971191,12.424559593200684,101300
2018-10-02,12.930000305175781,13.029999732971191,12.420000076293945,12.649999618530273,12.062215805053711,115900
2018-10-03,12.75,12.869999885559082,12.649999618530273,12.699999809265137,12.109891891479492,69600
2018-10-04,12.649999618530273,12.800000190734863,12.369999885559082,12.550000190734863,11.966863632202148,45300
2018-10-05,12.430000305175781,12.609999656677246,12.0,12.0,11.442419052124023,56000
2018-10-08,12.0,12.0,11.28499984741211,11.489999771118164,10.95611572265625,33900
2018-10-09,11.430000305175781,11.470000267028809,10.800000190734863,11.100000381469727,10.584237098693848,203300
2018-10-10,11.100000381469727,11.899999618530273,10.970000267028809,11.710000038146973,11.165892601013184,206600
2018-10-11,11.6899995803833,11.989999771118164,11.369999885559082,11.649999618530273,11.108680725097656,92000
2018-10-12,11.800000190734863,12.149999618530273,11.680000305175781,11.739999771118164,11.194499015808105,115000
2018-10-15,11.680000305175781,11.970000267028809,11.479999542236328,11.760000228881836,11.213570594787598,31000
2018-10-16,11.899999618530273,12.4399995803833,11.67300033569336,12.399999618530273,11.823832511901855,51300
2018-10-17,12.170000076293945,12.470000267028809,12.050000190734863,12.229999542236328,11.661731719970703,48000
2018-10-18,12.229999542236328,12.609999656677246,12.0,12.300000190734863,11.72847843170166,74400
2018-10-19,12.300000190734863,12.65999984741211,11.899999618530273,12.569999694824219,11.985933303833008,82800
2018-10-22,12.720000267028809,12.899999618530273,11.800000190734863,12.0,11.442419052124023,53200
2018-10-23,11.8100004196167,11.880000114440918,11.0,11.15999984741211,10.641448974609375,218400
2018-10-24,11.029999732971191,11.100000381469727,10.010000228881836,10.020000457763672,9.55441951751709,131400
2018-10-25,10.050000190734863,10.319999694824219,9.8100004196167,10.0,9.535348892211914,131600
2018-10-26,10.149999618530273,10.470000267028809,9.770000457763672,10.210000038146973,9.735590934753418,241600
2018-10-29,10.329999923706055,10.739999771118164,9.899999618530273,9.979999542236328,9.516277313232422,161600
2018-10-30,10.0,10.0,9.5,9.699999809265137,9.249287605285645,61000
2018-10-31,9.779999732971191,10.210000038146973,9.779999732971191,10.050000190734863,9.583025932312012,43800
2018-11-01,10.050000190734863,11.279999732971191,9.8100004196167,11.109999656677246,10.593771934509277,129300
2018-11-02,11.229999542236328,11.739999771118164,11.119999885559082,11.510000228881836,10.975186347961426,111300
2018-11-05,11.300000190734863,11.569999694824219,11.020999908447266,11.539999961853027,11.003791809082031,105500
2018-11-06,11.5600004196167,12.25,11.350000381469727,12.140000343322754,11.575913429260254,49400
2018-11-07,12.130000114440918,12.850000381469727,11.609999656677246,12.850000381469727,12.252923011779785,92100
2018-11-08,12.859999656677246,13.199999809265137,12.600000381469727,12.75,12.157569885253906,110900
2018-11-09,12.640000343322754,12.670000076293945,12.109999656677246,12.510000228881836,11.92872142791748,31600
2018-11-12,12.539999961853027,12.600000381469727,12.234000205993652,12.550000190734863,11.966863632202148,81600
2018-11-13,12.550000190734863,12.550000190734863,12.300000190734863,12.5,11.919185638427734,36300
2018-11-14,12.460000038146973,12.619999885559082,12.199999809265137,12.5,11.919185638427734,46600
2018-11-15,12.288999557495117,12.640000343322754,12.288999557495117,12.460000038146973,11.881044387817383,57800
2018-11-16,12.300000190734863,12.739999771118164,12.100000381469727,12.319999694824219,11.747549057006836,72600
2018-11-19,13.0,13.5,12.390000343322754,12.84000015258789,12.243388175964355,137100
2018-11-20,12.65999984741211,12.699999809265137,11.668000221252441,12.199999809265137,11.633125305175781,223500
2018-11-21,12.25,13.0,11.90999984741211,12.550000190734863,11.966863632202148,74900
2018-11-23,12.430000305175781,12.6899995803833,12.0600004196167,12.069999694824219,11.50916576385498,14900
2018-11-26,12.25,12.800000190734863,12.050000190734863,12.649999618530273,12.062215805053711,32800
2018-11-27,12.539999961853027,12.9399995803833,12.463000297546387,12.880000114440918,12.281529426574707,20400
2018-11-28,12.824000358581543,13.930000305175781,12.824000358581543,13.819999694824219,13.177851676940918,73800
2018-11-29,13.800000190734863,14.399999618530273,13.800000190734863,14.119999885559082,13.463912010192871,139300
2018-11-30,13.720000267028809,14.130000114440918,13.710000038146973,14.0,13.349488258361816,55700
2018-12-03,14.4399995803833,15.800000190734863,14.4399995803833,15.510000228881836,14.789326667785645,251900
2018-12-04,15.520000457763672,15.520000457763672,14.600000381469727,15.4399995803833,14.722578048706055,88900
2018-12-06,14.800000190734863,15.380000114440918,14.600000381469727,14.829999923706055,14.140922546386719,129400
2018-12-07,14.899999618530273,15.15999984741211,14.449999809265137,14.75,14.064640045166016,111300
2018-12-10,14.510000228881836,14.960000038146973,14.340999603271484,14.579999923706055,13.902538299560547,124900
2018-12-11,15.0,15.390000343322754,14.675000190734863,14.920000076293945,14.226739883422852,83700
2018-12-12,15.069999694824219,15.164999961853027,14.850000381469727,14.960000038146973,14.26488208770752,75400
2018-12-13,15.170000076293945,15.170000076293945,14.180000305175781,14.180000305175781,13.521123886108398,35600
2018-12-14,14.15999984741211,14.420000076293945,14.0,14.270000457763672,13.606943130493164,40000
2018-12-17,14.270000457763672,14.449999809265137,13.765000343322754,13.800000190734863,13.158781051635742,19900
2018-12-18,13.949999809265137,14.300000190734863,13.729999542236328,13.960000038146973,13.311347007751465,48400
2018-12-19,13.619999885559082,13.619999885559082,13.0,13.0600004196167,12.453165054321289,74700
2018-12-20,12.989999771118164,13.229999542236328,12.869999885559082,12.949999809265137,12.34827709197998,78600
2018-12-21,13.079999923706055,13.180000305175781,12.800000190734863,12.890000343322754,12.291064262390137,30400
2018-12-24,12.800000190734863,12.989999771118164,12.800000190734863,12.9350004196167,12.33397388458252,8200
2018-12-26,12.800000190734863,13.279999732971191,12.800000190734863,12.979999542236328,12.37688159942627,88800
2018-12-27,12.90999984741211,13.270000457763672,12.899999618530273,13.0,12.395953178405762,24100
2018-12-28,13.020000457763672,13.260000228881836,12.805000305175781,12.920000076293945,12.319670677185059,45200
2018-12-31,12.930000305175781,13.25,12.90999984741211,12.989999771118164,12.386418342590332,27500
2019-01-02,12.859999656677246,12.859999656677246,11.970000267028809,12.539999961853027,11.957326889038086,79200
2019-01-03,12.479999542236328,12.600000381469727,11.8100004196167,12.050000190734863,11.490095138549805,30800
2019-01-04,11.704000473022461,12.5,11.704000473022461,12.25,11.680802345275879,65000
2019-01-07,12.359999656677246,13.25,11.979999542236328,13.0,12.395953178405762,56800
2019-01-08,13.069999694824219,13.15999984741211,12.369999885559082,12.850000381469727,12.252923011779785,51100
2019-01-09,13.020000457763672,13.640000343322754,12.545000076293945,12.800000190734863,12.205246925354004,116400
2019-01-10,12.8100004196167,13.109999656677246,12.630000114440918,12.630000114440918,12.043146133422852,20300
2019-01-11,12.569999694824219,12.890000343322754,12.279999732971191,12.739999771118164,12.14803409576416,60500
2019-01-14,12.75,12.949999809265137,12.399999618530273,12.579999923706055,11.995468139648438,80300
2019-01-15,12.649999618530273,12.760000228881836,12.479999542236328,12.649999618530273,12.062215805053711,22900
2019-01-16,12.729999542236328,13.0,12.640000343322754,12.989999771118164,12.386418342590332,23500
2019-01-17,12.970000267028809,13.0,12.4399995803833,12.59000015258789,12.0050048828125,17600
2019-01-18,12.800000190734863,13.0,12.470000267028809,12.9399995803833,12.338740348815918,59900
2019-01-22,12.899999618530273,13.119999885559082,12.5,12.5,11.919185638427734,90700
2019-01-23,12.4399995803833,12.65999984741211,11.6899995803833,11.90999984741211,11.356599807739258,91500
2019-01-24,12.130000114440918,12.300000190734863,11.90999984741211,11.949999809265137,11.394742012023926,20200
2019-01-25,12.15999984741211,12.420000076293945,11.90999984741211,12.140000343322754,11.575913429260254,16900
2019-01-28,12.300000190734863,12.369999885559082,11.979999542236328,12.119999885559082,11.556842803955078,7500
2019-01-29,12.050000190734863,12.050000190734863,11.4399995803833,11.520000457763672,10.984722137451172,73700
2019-01-30,11.529999732971191,11.550000190734863,10.73900032043457,11.289999961853027,10.765408515930176,88600
2019-01-31,11.220000267028809,11.779999732971191,11.03499984741211,11.40999984741211,10.87983226776123,60100
2019-02-01,11.510000228881836,12.270000457763672,11.510000228881836,12.010000228881836,11.451953887939453,90400
2019-02-04,12.192000389099121,12.229999542236328,11.76200008392334,11.949999809265137,11.394742012023926,19300
2019-02-05,11.729999542236328,12.229999542236328,11.579999923706055,11.949999809265137,11.6881685256958,38400
2019-02-06,11.979999542236328,12.010000228881836,11.399999618530273,11.40999984741211,11.15999984741211,22900
2019-02-07,11.399999618530273,11.609999656677246,11.25,11.380000114440918,11.130657196044922,12900
2019-02-08,11.380000114440918,11.569999694824219,11.079999923706055,11.350000381469727,11.101314544677734,30700
2019-02-11,11.430000305175781,11.779999732971191,11.430000305175781,11.710000038146973,11.453426361083984,5400
2019-02-12,11.899999618530273,12.239999771118164,11.300000190734863,11.430000305175781,11.179561614990234,91300
2019-02-13,11.170000076293945,12.069999694824219,11.109999656677246,11.65999984741211,11.404521942138672,43600
2019-02-14,11.805000305175781,11.9399995803833,11.550000190734863,11.569999694824219,11.31649398803711,55600
2019-02-15,11.4399995803833,11.765000343322754,11.020000457763672,11.109999656677246,10.866572380065918,52500
2019-02-19,11.0,11.850000381469727,10.8100004196167,11.510000228881836,11.257808685302734,106000
2019-02-20,11.600000381469727,12.029999732971191,11.505000114440918,11.829999923706055,11.570796966552734,68300
2019-02-21,11.819999694824219,12.0600004196167,11.430000305175781,11.770000457763672,11.512112617492676,56700
2019-02-22,11.920000076293945,12.5600004196167,11.609999656677246,11.960000038146973,11.697949409484863,63500
2019-02-25,12.220000267028809,12.789999961853027,12.15999984741211,12.220000267028809,11.952252388000488,233200
2019-02-26,12.239999771118164,12.420000076293945,11.710000038146973,11.880000114440918,11.619702339172363,153200
2019-02-27,11.869999885559082,12.050000190734863,11.279999732971191,11.6899995803833,11.43386459350586,146600
2019-02-28,11.720000267028809,12.364999771118164,11.390000343322754,11.970000267028809,11.707730293273926,302700
2019-03-01,11.760000228881836,12.399999618530273,11.170000076293945,12.100000381469727,11.834881782531738,256500
2019-03-04,12.079999923706055,12.229999542236328,11.199999809265137,11.5,11.248027801513672,193300
2019-03-05,11.59000015258789,12.100000381469727,11.399999618530273,11.979999542236328,11.717510223388672,117200
2019-03-06,11.970000267028809,13.0,11.925000190734863,12.479999542236328,12.206555366516113,352200
2019-03-07,12.350000381469727,12.739999771118164,12.151000022888184,12.5,12.226117134094238,147000
2019-03-08,12.399999618530273,12.6899995803833,12.180000305175781,12.5,12.226117134094238,84900
2019-03-11,12.5,13.180000305175781,12.319999694824219,12.859999656677246,12.578228950500488,65700
2019-03-12,12.640000343322754,12.84000015258789,12.220000267028809,12.270000457763672,12.001157760620117,55200
2019-03-13,12.300000190734863,12.949999809265137,12.300000190734863,12.800000190734863,12.51954460144043,26200
2019-03-14,12.899999618530273,13.399999618530273,12.399999618530273,12.770000457763672,12.490201950073242,234300
2019-03-15,13.100000381469727,13.390000343322754,12.859999656677246,13.220000267028809,12.930341720581055,168800
2019-03-18,13.270000457763672,13.550000190734863,12.670000076293945,13.34000015258789,13.047712326049805,257900
2019-03-19,13.34000015258789,13.979999542236328,13.281999588012695,13.84000015258789,13.536757469177246,114600
2019-03-20,13.859999656677246,13.880000114440918,13.5,13.65999984741211,13.360700607299805,54600
2019-03-21,13.619999885559082,13.890000343322754,13.522000312805176,13.619999885559082,13.321577072143555,19300
2019-03-22,13.420000076293945,13.489999771118164,13.116999626159668,13.430000305175781,13.135741233825684,44300
2019-03-25,13.470000267028809,13.470000267028809,12.829999923706055,13.170000076293945,12.881437301635742,28500
2019-03-26,13.229999542236328,13.350000381469727,12.65999984741211,13.0,12.71516227722168,74200
2019-03-27,13.029999732971191,13.170000076293945,12.5,13.0,12.71516227722168,43800
2019-03-28,13.020000457763672,13.279999732971191,12.949999809265137,13.079999923706055,12.79340934753418,25200
2019-03-29,13.15999984741211,13.899999618530273,13.010000228881836,13.829999923706055,13.526976585388184,62000
2019-04-01,14.0,14.930000305175781,13.829999923706055,14.520000457763672,14.201858520507812,205200
2019-04-02,14.619999885559082,14.619999885559082,14.230999946594238,14.470000267028809,14.1529541015625,25500
2019-04-03,14.619999885559082,14.899999618530273,14.380000114440918,14.649999618530273,14.329009056091309,52600
2019-04-04,14.670000076293945,14.770000457763672,14.329999923706055,14.5,14.182295799255371,25400
2019-04-05,14.569999694824219,14.895000457763672,14.369999885559082,14.5,14.182295799255371,36500
2019-04-08,14.470000267028809,14.890000343322754,14.329999923706055,14.800000190734863,14.475723266601562,33000
2019-04-09,14.859999656677246,14.960000038146973,14.329999923706055,14.699999809265137,14.377913475036621,48100
2019-04-10,14.649999618530273,14.84000015258789,14.300000190734863,14.380000114440918,14.064925193786621,31000
2019-04-11,14.279999732971191,14.420000076293945,14.0,14.279999732971191,13.967116355895996,16000
2019-04-12,14.399999618530273,14.789999961853027,14.154000282287598,14.710000038146973,14.3876953125,86000
2019-04-15,14.75,15.789999961853027,14.210000038146973,14.600000381469727,14.280105590820312,95400
2019-04-16,14.600000381469727,15.25,14.600000381469727,14.899999618530273,14.573531150817871,65200
2019-04-17,14.930000305175781,15.289999961853027,14.258999824523926,14.579999923706055,14.260542869567871,34600
2019-04-18,14.579999923706055,15.010000228881836,14.470000267028809,14.819999694824219,14.495284080505371,139400
2019-04-22,14.479999542236328,14.963000297546387,14.229999542236328,14.470000267028809,14.1529541015625,49300
2019-04-23,14.510000228881836,15.789999961853027,14.510000228881836,15.579999923706055,15.238632202148438,108000
2019-04-24,15.789999961853027,15.789999961853027,15.0,15.170000076293945,14.837615966796875,40700
2019-04-25,15.0,15.024999618530273,14.699999809265137,14.9399995803833,14.612654685974121,26900
2019-04-26,14.760000228881836,15.0,14.760000228881836,14.960000038146973,14.632217407226562,28800
2019-04-29,14.90999984741211,15.303999900817871,14.755000114440918,14.979999542236328,14.651778221130371,35200
2019-04-30,14.970000267028809,15.770000457763672,14.829999923706055,15.520000457763672,15.179947853088379,33900
2019-05-01,15.569999694824219,15.9350004196167,15.194999694824219,15.930000305175781,15.580964088439941,23900
2019-05-02,15.600000381469727,15.989999771118164,15.199999809265137,15.420000076293945,15.082138061523438,62900
2019-05-03,15.569999694824219,15.569999694824219,14.392999649047852,14.699999809265137,14.377913475036621,41000
2019-05-06,14.369999885559082,14.720000267028809,13.5,14.550000190734863,14.231201171875,95000
2019-05-07,14.319999694824219,14.319999694824219,13.524999618530273,13.600000381469727,13.302016258239746,68300
2019-05-08,13.569999694824219,13.789999961853027,13.295000076293945,13.489999771118164,13.194425582885742,53100
2019-05-09,13.34000015258789,13.579999923706055,13.079999923706055,13.229999542236328,12.940122604370117,109400
2019-05-10,13.140000343322754,13.734999656677246,13.140000343322754,13.649999618530273,13.350919723510742,11600
2019-05-13,13.380000114440918,13.699999809265137,13.100000381469727,13.210000038146973,12.920560836791992,54900
2019-05-14,13.34000015258789,13.434000015258789,13.079999923706055,13.119999885559082,12.83253288269043,17500
2019-05-15,13.100000381469727,13.729999542236328,13.100000381469727,13.270000457763672,12.979247093200684,33900
2019-05-16,13.489999771118164,13.75,13.3100004196167,13.75,13.448729515075684,12500
2019-05-17,13.529999732971191,13.529999732971191,13.100000381469727,13.300000190734863,13.008588790893555,33400
2019-05-20,13.100000381469727,13.359999656677246,12.760000228881836,12.930000305175781,12.646696090698242,72300
2019-05-21,13.039999961853027,13.380000114440918,12.8100004196167,13.359999656677246,13.06727409362793,71900
2019-05-22,13.25,13.510000228881836,13.109999656677246,13.300000190734863,13.008588790893555,31300
2019-05-23,13.300000190734863,13.300000190734863,12.510000228881836,12.75,12.470640182495117,101600
2019-05-24,13.0,13.5,12.704999923706055,13.460000038146973,13.165082931518555,68100
2019-05-28,13.539999961853027,13.550000190734863,12.300000190734863,12.789999961853027,12.509763717651367,93700
2019-05-29,12.630000114440918,12.789999961853027,12.0,12.1899995803833,11.9229097366333,70300
2019-05-30,12.1899995803833,12.1899995803833,11.720000267028809,11.960000038146973,11.697949409484863,106700
2019-05-31,11.90999984741211,12.029999732971191,11.550000190734863,11.800000190734863,11.541455268859863,32900
2019-06-03,11.84000015258789,12.109999656677246,11.359999656677246,11.739999771118164,11.482769012451172,31100
2019-06-04,11.710000038146973,12.229999542236328,11.460000038146973,11.979999542236328,11.717510223388672,50700
2019-06-05,11.960000038146973,11.960000038146973,11.402999877929688,11.520000457763672,11.267590522766113,47000
2019-06-06,11.5,11.550000190734863,11.0,11.170000076293945,10.92525863647461,74800
2019-06-07,11.220000267028809,11.59000015258789,11.0,11.270000457763672,11.023067474365234,67500
2019-06-10,11.420000076293945,11.699999809265137,11.420000076293945,11.489999771118164,11.23824691772461,24600
2019-06-11,11.720000267028809,11.90999984741211,11.199999809265137,11.619999885559082,11.365398406982422,46800
2019-06-12,11.5600004196167,11.699999809265137,11.279999732971191,11.460000038146973,11.208904266357422,22700
2019-06-13,11.166000366210938,11.5600004196167,11.166000366210938,11.449999809265137,11.19912338256836,17000
2019-06-14,11.399999618530273,11.609999656677246,10.880000114440918,11.279999732971191,11.032848358154297,76900
2019-06-17,11.260000228881836,12.430000305175781,10.914999961853027,12.15999984741211,11.893567085266113,114800
2019-06-18,12.119999885559082,12.670000076293945,12.079999923706055,12.510000228881836,12.235898971557617,259700
2019-06-19,12.550000190734863,12.550000190734863,11.9399995803833,12.3100004196167,12.040281295776367,81900
2019-06-20,12.5,12.789999961853027,12.199999809265137,12.609999656677246,12.333706855773926,36600
2019-06-21,12.550000190734863,12.649999618530273,12.274999618530273,12.529999732971191,12.255459785461426,61500
2019-06-24,12.279999732971191,12.649999618530273,12.279999732971191,12.539999961853027,12.265240669250488,26800
2019-06-25,12.529999732971191,12.619999885559082,11.829999923706055,12.130000114440918,11.864224433898926,79900
2019-06-26,12.239999771118164,12.880000114440918,12.239999771118164,12.880000114440918,12.59779167175293,44700
2019-06-27,12.930000305175781,12.949999809265137,12.520000457763672,12.819999694824219,12.539105415344238,44600
2019-06-28,12.949999809265137,13.0,12.220000267028809,13.0,12.71516227722168,53500
2019-07-01,13.25,13.5,13.029999732971191,13.350000381469727,13.057494163513184,25200
2019-07-02,13.319999694824219,13.989999771118164,13.300999641418457,13.350000381469727,13.057494163513184,38500
2019-07-03,13.34000015258789,13.59000015258789,13.069999694824219,13.239999771118164,12.94990348815918,87400
2019-07-05,12.850000381469727,13.260000228881836,12.770000457763672,13.109999656677246,12.822751998901367,13500
2019-07-08,13.109999656677246,13.109999656677246,12.5,12.550000190734863,12.275022506713867,4700
2019-07-09,12.5,12.739999771118164,12.199999809265137,12.59000015258789,12.314146041870117,68300
2019-07-10,12.699999809265137,12.979999542236328,12.5,12.640000343322754,12.36305046081543,49300
2019-07-11,12.270000457763672,12.588000297546387,12.130000114440918,12.4399995803833,12.167431831359863,16900
2019-07-12,12.449999809265137,12.640000343322754,12.420000076293945,12.640000343322754,12.36305046081543,11800
2019-07-15,12.649999618530273,12.649999618530273,12.5,12.609999656677246,12.333706855773926,4600
2019-07-16,12.65999984741211,12.84000015258789,12.329999923706055,12.569999694824219,12.294583320617676,18300
2019-07-17,12.34000015258789,12.539999961853027,12.149999618530273,12.210000038146973,11.942471504211426,24000
2019-07-18,12.149999618530273,12.199999809265137,12.0,12.15999984741211,11.893567085266113,24800
2019-07-19,12.149999618530273,12.489999771118164,12.149999618530273,12.390000343322754,12.118528366088867,18300
2019-07-22,12.289999961853027,12.5,12.140000343322754,12.199999809265137,11.932690620422363,44800
2019-07-23,12.390000343322754,12.550000190734863,12.119999885559082,12.119999885559082,11.854443550109863,38100
2019-07-24,12.149999618530273,12.520000457763672,12.149999618530273,12.279999732971191,12.010937690734863,12100
2019-07-25,12.229999542236328,12.4399995803833,11.800000190734863,11.880000114440918,11.619702339172363,42700
2019-07-26,11.720000267028809,12.029999732971191,11.630000114440918,11.729999542236328,11.47298812866211,31400
2019-07-29,11.75,11.960000038146973,11.649999618530273,11.649999618530273,11.39474105834961,25500
2019-07-30,11.8100004196167,11.869999885559082,11.5,11.5,11.248027801513672,30800
2019-07-31,11.539999961853027,11.979999542236328,11.0,11.350000381469727,11.101314544677734,198400
2019-08-01,11.350000381469727,11.600000381469727,11.039999961853027,11.350000381469727,11.101314544677734,52500
2019-08-02,11.460000038146973,11.460000038146973,10.65999984741211,10.760000228881836,10.524242401123047,64000
2019-08-05,10.649999618530273,10.84000015258789,10.25,10.5,10.269938468933105,60900
2019-08-06,10.6899995803833,10.739999771118164,10.329999923706055,10.399999618530273,10.17212963104248,46900
2019-08-07,10.329999923706055,10.640000343322754,10.329999923706055,10.4399995803833,10.21125316619873,30700
2019-08-08,10.520000457763672,10.6899995803833,10.34000015258789,10.670000076293945,10.436213493347168,14400
2019-08-09,10.630000114440918,10.970000267028809,10.5,10.65999984741211,10.426432609558105,8600
2019-08-12,10.65999984741211,10.850000381469727,10.460000038146973,10.800000190734863,10.563365936279297,15300
2019-08-13,10.529999732971191,11.0,10.460000038146973,10.569999694824219,10.338404655456543,40300
2019-08-14,10.288999557495117,10.390000343322754,10.013999938964844,10.180000305175781,9.956950187683105,34300
2019-08-15,10.180000305175781,10.529999732971191,10.180000305175781,10.25,10.025416374206543,15700
2019-08-16,10.760000228881836,11.5,10.385000228881836,10.970000267028809,10.72964096069336,68700
2019-08-19,11.329999923706055,11.880000114440918,11.329999923706055,11.779999732971191,11.521892547607422,40800
2019-08-20,11.880000114440918,11.880000114440918,11.336999893188477,11.59000015258789,11.336055755615234,20400
2019-08-21,11.630000114440918,11.739999771118164,11.149999618530273,11.489999771118164,11.23824691772461,22700
2019-08-22,11.270000457763672,11.65999984741211,10.829999923706055,10.968999862670898,10.728662490844727,21800
2019-08-23,10.760000228881836,10.956000328063965,10.510000228881836,10.600000381469727,10.367748260498047,21800
2019-08-26,10.699999809265137,10.848999977111816,10.5,10.510000228881836,10.279719352722168,16200
2019-08-27,10.5,10.710000038146973,10.25,10.40999984741211,10.181910514831543,15500
2019-08-28,10.572999954223633,10.779999732971191,10.420000076293945,10.449999809265137,10.221034049987793,23400
2019-08-29,10.550000190734863,10.729999542236328,10.3100004196167,10.449999809265137,10.221034049987793,41000
2019-08-30,10.5,10.725000381469727,10.324000358581543,10.329999923706055,10.103663444519043,22700
2019-09-03,10.399999618530273,10.670000076293945,10.300000190734863,10.300000190734863,10.074320793151855,17900
2019-09-04,10.430000305175781,10.630000114440918,10.399999618530273,10.5,10.269938468933105,21100
2019-09-05,10.479999542236328,10.630000114440918,10.3100004196167,10.479999542236328,10.25037670135498,61200
2019-09-06,10.350000381469727,10.619999885559082,10.300000190734863,10.40999984741211,10.181910514831543,51500
2019-09-09,10.40999984741211,10.65999984741211,10.350000381469727,10.520000457763672,10.289501190185547,66300
2019-09-10,10.640000343322754,11.15999984741211,10.5600004196167,11.0600004196167,10.817668914794922,35900
2019-09-11,11.180000305175781,11.199999809265137,10.979999542236328,11.020000457763672,10.778545379638672,34500
2019-09-12,11.029999732971191,11.470000267028809,10.899999618530273,11.25,11.00350570678711,41000
2019-09-13,11.5,11.539999961853027,11.170000076293945,11.25,11.00350570678711,61000
2019-09-16,11.210000038146973,11.279999732971191,10.649999618530273,10.920000076293945,10.680736541748047,93400
2019-09-17,10.859999656677246,11.109999656677246,10.850000381469727,11.039999961853027,10.798107147216797,42200
2019-09-18,11.029999732971191,11.350000381469727,11.010000228881836,11.180000305175781,10.935039520263672,41800
2019-09-19,11.180000305175781,11.460000038146973,11.180000305175781,11.25,11.00350570678711,38000
2019-09-20,11.300000190734863,11.399999618530273,10.970000267028809,11.039999961853027,10.798107147216797,23900
2019-09-23,10.890000343322754,11.109999656677246,10.890000343322754,11.010000228881836,10.76876449584961,33700
2019-09-24,10.9399995803833,11.149999618530273,10.720000267028809,10.850000381469727,10.61227035522461,58700
2019-09-25,10.859999656677246,10.979999542236328,10.600000381469727,10.859999656677246,10.622050285339355,32100
2019-09-26,10.880000114440918,10.970000267028809,10.609999656677246,10.880000114440918,10.641613006591797,34100
2019-09-27,10.859999656677246,11.130000114440918,10.0600004196167,10.069999694824219,9.849359512329102,43200
2019-09-30,10.220000267028809,10.260000228881836,9.760000228881836,10.0,9.78089427947998,49500
2019-10-01,10.109999656677246,10.279999732971191,9.609999656677246,10.279999732971191,10.05475902557373,47300
2019-10-02,10.069999694824219,10.329999923706055,9.760000228881836,9.84000015258789,9.62440013885498,22100
2019-10-03,9.960000038146973,10.25,9.380000114440918,10.25,10.025416374206543,48000
2019-10-04,10.1899995803833,10.680000305175781,10.1899995803833,10.369999885559082,10.142786979675293,18500
2019-10-07,10.390000343322754,10.550000190734863,10.300000190734863,10.329999923706055,10.103663444519043,2200
2019-10-08,10.25,10.430000305175781,10.079999923706055,10.079999923706055,9.85914134979248,9700
2019-10-09,10.130000114440918,10.470000267028809,10.130000114440918,10.390000343322754,10.162348747253418,9800
2019-10-10,10.579999923706055,10.579999923706055,10.100000381469727,10.25,10.025416374206543,69800
2019-10-11,10.260000228881836,10.649999618530273,10.239999771118164,10.279999732971191,10.05475902557373,37300
2019-10-14,10.3100004196167,10.579999923706055,10.3100004196167,10.3100004196167,10.084101676940918,1800
2019-10-15,10.449999809265137,10.949999809265137,10.449999809265137,10.949999809265137,10.710078239440918,12100
2019-10-16,11.020000457763672,11.020000457763672,9.979999542236328,10.149999618530273,9.927606582641602,45000
2019-10-17,10.1899995803833,10.699999809265137,10.1899995803833,10.649999618530273,10.416651725769043,20100
2019-10-18,10.520000457763672,10.520000457763672,10.09000015258789,10.15999984741211,9.93738842010498,18700
2019-10-21,10.180000305175781,10.5,10.180000305175781,10.25,10.025416374206543,9200
2019-10-22,10.5,10.5,10.350000381469727,10.350000381469727,10.123225212097168,5400
2019-10-23,10.350000381469727,10.359999656677246,9.960000038146973,9.960000038146973,9.74177074432373,17000
2019-10-24,10.25,10.289999961853027,9.970000267028809,10.25,10.025416374206543,22000
2019-10-25,10.25,10.25,9.9399995803833,10.09000015258789,9.868922233581543,14300
2019-10-28,10.199999809265137,10.609999656677246,10.199999809265137,10.609999656677246,10.377528190612793,11500
2019-10-29,10.609999656677246,10.609999656677246,10.199999809265137,10.199999809265137,9.97651195526123,13300
2019-10-30,10.199999809265137,10.420000076293945,10.039999961853027,10.239999771118164,10.01563549041748,6900
2019-10-31,10.460000038146973,10.460000038146973,10.050000190734863,10.210000038146973,9.986292839050293,12200
2019-11-01,10.3100004196167,10.880000114440918,10.1899995803833,10.529999732971191,10.299281120300293,29000
2019-11-04,10.579999923706055,10.96500015258789,10.5,10.869999885559082,10.631831169128418,8100
2019-11-05,10.779999732971191,10.960000038146973,10.649999618530273,10.960000038146973,10.719860076904297,5300
2019-11-06,10.84000015258789,10.899999618530273,10.640000343322754,10.760000228881836,10.524242401123047,19700
2019-11-07,10.880000114440918,11.109999656677246,10.859999656677246,11.029999732971191,10.788325309753418,7500
2019-11-08,11.0,11.125,10.890000343322754,10.994999885559082,10.754093170166016,14700
2019-11-11,10.899999618530273,11.5,10.899999618530273,11.5,11.248027801513672,13500
2019-11-12,11.015000343322754,11.210000038146973,11.0,11.010000228881836,10.76876449584961,4100
2019-11-13,10.899999618530273,11.28499984741211,10.899999618530273,11.270000457763672,11.023067474365234,21700
2019-11-14,11.029999732971191,11.670000076293945,11.0,11.470000267028809,11.218685150146484,114100
2019-11-15,11.34000015258789,11.425000190734863,11.050000190734863,11.25,11.00350570678711,19100
2019-11-18,11.369999885559082,11.369999885559082,11.100000381469727,11.109999656677246,10.866572380065918,28100
2019-11-19,11.130000114440918,11.321999549865723,11.100000381469727,11.3100004196167,11.062191009521484,11200
2019-11-20,11.100000381469727,11.199999809265137,10.833000183105469,11.100000381469727,10.856792449951172,27400
2019-11-21,11.09000015258789,11.229999542236328,11.010000228881836,11.229999542236328,10.983942985534668,99000
2019-11-22,11.5,11.5,11.015000343322754,11.09000015258789,10.84701156616211,61200
2019-11-25,11.100000381469727,11.26099967956543,10.869999885559082,11.180000305175781,10.935039520263672,33700
2019-11-26,11.149999618530273,11.149999618530273,10.949999809265137,10.989999771118164,10.749201774597168,27100
2019-11-27,10.989999771118164,11.003999710083008,10.279999732971191,10.399999618530273,10.17212963104248,62800
2019-11-29,10.25,10.390000343322754,9.979999542236328,10.109999656677246,9.888483047485352,118600
2019-12-02,10.15999984741211,10.600000381469727,10.149999618530273,10.399999618530273,10.17212963104248,23500
2019-12-03,10.390000343322754,11.4399995803833,10.390000343322754,11.0,10.758983612060547,50500
2019-12-04,11.210000038146973,11.366999626159668,11.0,11.079999923706055,10.837230682373047,51100
2019-12-05,11.0,11.251999855041504,10.819999694824219,10.9399995803833,10.700297355651855,62600
2019-12-06,11.300000190734863,11.6899995803833,11.053999900817871,11.649999618530273,11.39474105834961,22200
2019-12-09,11.65999984741211,11.748000144958496,11.454999923706055,11.520000457763672,11.267590522766113,18900
2019-12-10,11.5,11.5,11.350000381469727,11.399999618530273,11.150218963623047,35900
2019-12-11,11.399999618530273,11.529999732971191,11.199999809265137,11.380000114440918,11.130657196044922,30000
2019-12-12,11.399999618530273,11.399999618530273,11.017000198364258,11.199999809265137,10.954601287841797,26500
2019-12-13,11.274999618530273,11.470000267028809,10.97599983215332,11.069999694824219,10.827448844909668,27700
2019-12-16,11.0,11.300000190734863,11.0,11.100000381469727,10.856792449951172,7300
2019-12-17,11.079999923706055,11.3100004196167,10.895000457763672,11.029999732971191,10.788325309753418,30600
2019-12-18,11.020000457763672,11.390000343322754,10.890000343322754,10.890000343322754,10.65139389038086,41000
2019-12-19,10.800000190734863,11.161999702453613,10.420000076293945,10.649999618530273,10.416651725769043,64200
2019-12-20,10.699999809265137,11.489999771118164,10.699999809265137,11.40999984741211,11.15999984741211,30600
2019-12-23,11.399999618530273,11.600000381469727,11.210000038146973,11.359999656677246,11.359999656677246,18800
2019-12-24,11.34000015258789,11.607000350952148,11.34000015258789,11.59000015258789,11.59000015258789,9500
2019-12-26,11.640000343322754,12.479999542236328,11.609999656677246,12.479999542236328,12.479999542236328,26200
2019-12-27,12.5,13.465999603271484,12.489999771118164,13.010000228881836,13.010000228881836,89600
2019-12-30,13.050000190734863,13.050000190734863,11.819999694824219,11.899999618530273,11.899999618530273,145600
2019-12-31,12.0,12.760000228881836,10.460000038146973,11.0,11.0,878100
2020-01-02,11.100000381469727,13.149999618530273,11.100000381469727,13.0,13.0,429300
2020-01-03,12.770000457763672,13.100000381469727,12.550000190734863,12.979999542236328,12.979999542236328,137700
2020-01-06,12.949999809265137,13.24899959564209,12.649999618530273,12.949999809265137,12.949999809265137,158000
2020-01-07,13.0,13.109999656677246,12.720000267028809,12.770000457763672,12.770000457763672,138300
2020-01-08,12.899999618530273,13.0,12.729999542236328,12.75,12.75,98400
2020-01-09,12.869999885559082,12.989999771118164,12.588000297546387,12.600000381469727,12.600000381469727,259100
2020-01-10,12.619999885559082,13.100000381469727,12.619999885559082,13.010000228881836,13.010000228881836,78600
2020-01-13,13.029999732971191,13.5,13.020000457763672,13.380000114440918,13.380000114440918,100200
2020-01-14,13.3100004196167,13.470000267028809,12.960000038146973,13.289999961853027,13.289999961853027,55400
2020-01-15,13.289999961853027,13.289999961853027,12.880000114440918,13.100000381469727,13.100000381469727,131300
2020-01-16,13.100000381469727,13.5,12.9399995803833,13.5,13.5,114900
2020-01-17,13.470000267028809,13.682000160217285,13.399999618530273,13.600000381469727,13.600000381469727,127800
2020-01-21,13.210000038146973,13.210000038146973,12.569999694824219,12.899999618530273,12.899999618530273,162600
2020-01-22,13.020000457763672,13.300000190734863,13.0,13.210000038146973,13.210000038146973,218200
2020-01-23,13.100000381469727,13.1899995803833,12.531000137329102,12.699999809265137,12.699999809265137,169900
2020-01-24,12.699999809265137,12.84000015258789,12.100000381469727,12.279999732971191,12.279999732971191,138900
2020-01-27,11.079999923706055,12.210000038146973,10.550000190734863,12.010000228881836,12.010000228881836,140900
2020-01-28,12.140000343322754,12.1899995803833,11.890000343322754,12.050000190734863,12.050000190734863,81800
2020-01-29,12.149999618530273,12.220000267028809,12.0,12.069999694824219,12.069999694824219,77200
2020-01-30,11.90999984741211,12.178000450134277,11.565999984741211,12.020000457763672,12.020000457763672,143800
2020-01-31,11.960000038146973,12.121999740600586,11.329999923706055,11.5,11.5,190300
2020-02-03,11.489999771118164,11.739999771118164,11.479999542236328,11.539999961853027,11.539999961853027,163300
2020-02-04,11.640000343322754,12.199999809265137,11.569999694824219,12.140000343322754,12.140000343322754,124300
2020-02-05,12.15999984741211,12.289999961853027,11.609999656677246,11.770000457763672,11.770000457763672,112300
2020-02-06,11.800000190734863,11.989999771118164,11.699999809265137,11.90999984741211,11.90999984741211,108500
2020-02-07,11.850000381469727,11.989999771118164,11.534000396728516,11.65999984741211,11.65999984741211,113600
2020-02-10,11.550000190734863,11.869999885559082,11.524999618530273,11.6899995803833,11.6899995803833,150200
2020-02-11,11.670000076293945,12.470000267028809,11.670000076293945,12.4399995803833,12.4399995803833,141600
2020-02-12,12.5,12.920000076293945,12.140000343322754,12.199999809265137,12.199999809265137,196300
2020-02-13,11.84000015258789,12.380000114440918,11.84000015258789,12.029999732971191,12.029999732971191,82000
2020-02-14,12.0,12.199999809265137,11.8100004196167,11.84000015258789,11.84000015258789,102800
2020-02-18,11.9399995803833,11.9399995803833,11.020000457763672,11.149999618530273,11.149999618530273,93500
2020-02-19,11.350000381469727,12.079999923706055,11.130000114440918,12.0,12.0,152400
2020-02-20,11.880000114440918,12.329999923706055,11.819999694824219,12.300000190734863,12.300000190734863,146300
2020-02-21,12.130000114440918,12.430000305175781,11.869999885559082,11.90999984741211,11.90999984741211,162700
2020-02-24,11.630000114440918,11.970000267028809,11.336999893188477,11.760000228881836,11.760000228881836,189400
2020-02-25,11.75,11.949999809265137,11.670000076293945,11.800000190734863,11.800000190734863,155100
2020-02-26,11.90999984741211,12.029999732971191,11.359999656677246,11.649999618530273,11.649999618530273,166100
2020-02-27,11.670000076293945,11.890000343322754,11.510000228881836,11.550000190734863,11.550000190734863,161300
2020-02-28,11.510000228881836,11.59000015258789,11.220000267028809,11.510000228881836,11.510000228881836,178600
2020-03-02,11.539999961853027,11.6899995803833,11.300000190734863,11.4399995803833,11.4399995803833,159200
2020-03-03,11.430000305175781,11.710000038146973,11.3100004196167,11.59000015258789,11.59000015258789,141800
2020-03-04,11.649999618530273,11.859999656677246,11.460000038146973,11.859999656677246,11.859999656677246,155400
2020-03-05,11.65999984741211,12.027000427246094,11.5600004196167,11.979999542236328,11.979999542236328,211700
2020-03-06,11.90999984741211,12.119999885559082,11.760000228881836,12.069999694824219,12.069999694824219,144000
2020-03-09,11.800000190734863,12.100000381469727,11.619999885559082,11.899999618530273,11.899999618530273,204700
2020-03-10,11.899999618530273,12.300000190734863,11.699999809265137,12.020000457763672,12.020000457763672,140000
2020-03-11,11.930000305175781,12.300000190734863,11.800000190734863,12.1899995803833,12.1899995803833,190300
2020-03-12,11.8100004196167,11.8100004196167,11.0,11.630000114440918,11.630000114440918,181500
2020-03-13,11.600000381469727,11.6899995803833,11.239999771118164,11.550000190734863,11.550000190734863,166400
2020-03-16,11.149999618530273,11.520000457763672,10.609999656677246,11.270000457763672,11.270000457763672,171300
2020-03-17,11.25,11.680000305175781,11.010000228881836,11.359999656677246,11.359999656677246,157200
2020-03-18,11.210000038146973,11.210000038146973,9.789999961853027,10.539999961853027,10.539999961853027,162600
2020-03-19,10.5,11.369999885559082,10.460000038146973,11.199999809265137,11.199999809265137,202600
2020-03-20,11.5,12.430000305175781,11.199999809265137,11.229999542236328,11.229999542236328,183100
2020-03-23,11.130000114440918,11.220000267028809,10.600000381469727,10.920000076293945,10.920000076293945,88400
2020-03-24,11.15999984741211,11.539999961853027,10.800000190734863,11.239999771118164,11.239999771118164,120500
2020-03-25,11.239999771118164,11.680000305175781,11.0,11.130000114440918,11.130000114440918,94500
2020-03-26,11.170000076293945,11.345999717712402,10.649999618530273,11.140000343322754,11.140000343322754,62800
2020-03-27,10.880000114440918,11.050000190734863,10.609999656677246,10.710000038146973,10.710000038146973,84400
2020-03-30,10.770000457763672,11.159000396728516,10.484000205993652,10.989999771118164,10.989999771118164,48300
2020-03-31,10.960000038146973,11.260000228881836,10.779999732971191,10.970000267028809,10.970000267028809,84000
2020-04-01,10.649999618530273,11.050000190734863,10.539999961853027,10.789999961853027,10.789999961853027,91600
2020-04-02,10.859999656677246,11.220000267028809,10.140000343322754,10.619999885559082,10.619999885559082,63500
2020-04-03,10.789999961853027,10.807000160217285,10.229999542236328,10.229999542236328,10.229999542236328,90800
2020-04-06,10.649999618530273,10.90999984741211,10.359999656677246,10.720000267028809,10.720000267028809,68000
2020-04-07,10.930000305175781,10.949999809265137,10.399999618530273,10.489999771118164,10.489999771118164,82200
2020-04-08,10.59000015258789,10.59000015258789,10.270000457763672,10.390000343322754,10.390000343322754,54600
2020-04-09,10.449999809265137,10.640000343322754,10.404999732971191,10.569999694824219,10.569999694824219,51000
2020-04-13,10.600000381469727,10.600000381469727,10.40999984741211,10.40999984741211,10.40999984741211,92700
2020-04-14,10.609999656677246,11.079999923706055,10.609999656677246,10.960000038146973,10.960000038146973,97600
2020-04-15,10.979999542236328,11.199999809265137,10.859999656677246,11.050000190734863,11.050000190734863,114700
2020-04-16,11.0600004196167,11.460000038146973,10.979999542236328,11.350000381469727,11.350000381469727,127100
2020-04-17,11.149999618530273,11.880000114440918,11.149999618530273,11.760000228881836,11.760000228881836,76700
2020-04-20,11.699999809265137,12.25,11.649999618530273,12.09000015258789,12.09000015258789,80500
2020-04-21,11.989999771118164,12.5,11.654999732971191,12.210000038146973,12.210000038146973,85200
2020-04-22,12.430000305175781,13.0,12.15999984741211,12.84000015258789,12.84000015258789,98900
2020-04-23,12.6899995803833,12.869999885559082,12.300000190734863,12.350000381469727,12.350000381469727,87300
2020-04-24,12.550000190734863,12.579999923706055,12.079999923706055,12.270000457763672,12.270000457763672,53600
2020-04-27,12.289999961853027,12.600000381469727,11.9399995803833,12.1899995803833,12.1899995803833,49200
2020-04-28,12.329999923706055,12.569999694824219,12.15999984741211,12.329999923706055,12.329999923706055,60200
2020-04-29,12.5,12.770000457763672,12.100000381469727,12.470000267028809,12.470000267028809,90500
2020-04-30,12.5,12.699999809265137,12.010000228881836,12.4399995803833,12.4399995803833,100000
2020-05-01,12.329999923706055,12.699999809265137,12.079999923706055,12.619999885559082,12.619999885559082,63300
2020-05-04,12.739999771118164,12.930000305175781,12.399999618530273,12.600000381469727,12.600000381469727,105900
2020-05-05,12.600000381469727,12.65999984741211,12.399999618530273,12.5,12.5,70200
2020-05-06,12.539999961853027,12.699999809265137,12.3100004196167,12.5600004196167,12.5600004196167,55300
2020-05-07,12.699999809265137,12.699999809265137,12.369999885559082,12.6899995803833,12.6899995803833,59700
2020-05-08,12.6899995803833,13.5,12.600000381469727,13.0,13.0,130300
2020-05-11,12.710000038146973,13.0,12.329999923706055,12.8100004196167,12.8100004196167,65900
2020-05-12,12.90999984741211,13.069999694824219,12.420000076293945,12.4399995803833,12.4399995803833,89300
2020-05-13,12.4399995803833,12.850000381469727,12.25,12.789999961853027,12.789999961853027,58900
2020-05-14,12.539999961853027,13.199999809265137,12.253999710083008,13.140000343322754,13.140000343322754,79700
2020-05-15,12.880000114440918,13.489999771118164,12.859999656677246,13.069999694824219,13.069999694824219,87500
2020-05-18,13.069999694824219,13.279999732971191,12.270000457763672,12.430000305175781,12.430000305175781,80400
2020-05-19,12.5,13.300000190734863,12.369999885559082,12.380000114440918,12.380000114440918,83400
2020-05-20,12.449999809265137,12.645000457763672,11.899999618530273,11.979999542236328,11.979999542236328,54400
2020-05-21,11.970000267028809,12.130000114440918,11.880000114440918,11.920000076293945,11.920000076293945,59800
2020-05-22,11.819999694824219,11.869999885559082,11.359999656677246,11.539999961853027,11.539999961853027,59500
2020-05-26,11.829999923706055,12.0,11.680000305175781,11.779999732971191,11.779999732971191,66800
2020-05-27,11.949999809265137,12.100000381469727,11.850000381469727,12.020000457763672,12.020000457763672,87600
2020-05-28,12.0,12.079999923706055,11.649999618530273,11.729999542236328,11.729999542236328,75300
2020-05-29,12.899999618530273,13.6899995803833,12.210000038146973,13.270000457763672,13.270000457763672,624900
2020-06-01,13.600000381469727,14.970000267028809,13.3100004196167,14.449999809265137,14.449999809265137,319400
2020-06-02,14.699999809265137,15.170000076293945,13.520000457763672,13.880000114440918,13.880000114440918,210600
2020-06-03,13.979999542236328,14.970000267028809,13.779999732971191,14.600000381469727,14.600000381469727,152200
2020-06-04,14.5,14.640999794006348,13.529999732971191,14.020000457763672,14.020000457763672,177700
2020-06-05,14.390000343322754,14.65999984741211,13.100000381469727,13.119999885559082,13.119999885559082,190900
2020-06-08,13.130000114440918,14.239999771118164,13.130000114440918,14.1899995803833,14.1899995803833,100000
2020-06-09,14.149999618530273,14.298999786376953,13.75,13.850000381469727,13.850000381469727,82200
2020-06-10,13.84000015258789,13.925000190734863,13.529999732971191,13.710000038146973,13.710000038146973,89800
2020-06-11,13.550000190734863,13.819999694824219,13.239999771118164,13.359999656677246,13.359999656677246,104700
2020-06-12,13.3100004196167,13.817999839782715,13.3100004196167,13.420000076293945,13.420000076293945,75600
2020-06-15,13.399999618530273,14.329000473022461,13.399999618530273,14.0,14.0,113600
2020-06-16,14.270000457763672,14.489999771118164,13.9399995803833,14.020000457763672,14.020000457763672,87400
2020-06-17,14.020000457763672,14.510000228881836,14.0,14.329999923706055,14.329999923706055,78400
2020-06-18,14.350000381469727,14.539999961853027,14.300000190734863,14.359999656677246,14.359999656677246,101900
2020-06-19,14.359999656677246,14.5,14.359999656677246,14.420000076293945,14.420000076293945,94000
2020-06-22,14.479999542236328,14.5,13.899999618530273,14.1899995803833,14.1899995803833,77700
2020-06-23,14.229999542236328,14.253999710083008,14.050000190734863,14.140000343322754,14.140000343322754,60900
2020-06-24,14.130000114440918,14.130000114440918,13.510000228881836,13.640000343322754,13.640000343322754,66800
2020-06-25,13.479999542236328,13.800000190734863,13.199999809265137,13.369999885559082,13.369999885559082,75800
2020-06-26,13.34000015258789,13.5,13.0600004196167,13.229999542236328,13.229999542236328,71500
2020-06-29,13.25,13.300000190734863,13.050000190734863,13.239999771118164,13.239999771118164,96100
2020-06-30,13.260000228881836,13.640000343322754,13.260000228881836,13.479999542236328,13.479999542236328,74200
2020-07-01,13.449999809265137,13.739999771118164,13.34000015258789,13.649999618530273,13.649999618530273,66900
2020-07-02,13.789999961853027,13.949999809265137,13.529999732971191,13.569999694824219,13.569999694824219,80300
2020-07-06,13.880000114440918,14.5,13.859999656677246,14.399999618530273,14.399999618530273,106500
2020-07-07,14.399999618530273,14.5,13.800000190734863,13.850000381469727,13.850000381469727,70100
2020-07-08,13.960000038146973,14.09000015258789,13.600000381469727,13.640000343322754,13.640000343322754,62800
2020-07-09,13.6899995803833,13.979999542236328,13.520000457763672,13.720000267028809,13.720000267028809,68900
2020-07-10,13.739999771118164,13.880000114440918,13.210000038146973,13.319999694824219,13.319999694824219,55300
2020-07-13,13.199999809265137,13.65999984741211,13.149999618530273,13.329999923706055,13.329999923706055,47700
2020-07-14,13.149999618530273,13.399999618530273,12.899999618530273,13.300000190734863,13.300000190734863,75600
2020-07-15,13.220000267028809,13.6899995803833,13.220000267028809,13.460000038146973,13.460000038146973,36600
2020-07-16,13.270000457763672,13.460000038146973,13.220000267028809,13.279999732971191,13.279999732971191,35700
2020-07-17,13.289999961853027,13.649999618530273,13.25,13.510000228881836,13.510000228881836,34100
2020-07-20,13.699999809265137,14.069999694824219,13.609999656677246,13.850000381469727,13.850000381469727,116000
2020-07-21,14.100000381469727,14.100000381469727,13.579999923706055,13.729999542236328,13.729999542236328,62400
2020-07-22,13.649999618530273,13.649999618530273,13.199999809265137,13.359999656677246,13.359999656677246,101600
2020-07-23,13.350000381469727,13.479999542236328,13.039999961853027,13.140000343322754,13.140000343322754,24600
2020-07-24,13.020000457763672,13.130000114440918,12.779999732971191,12.869999885559082,12.869999885559082,37800
2020-07-27,12.8100004196167,12.989999771118164,12.5,12.710000038146973,12.710000038146973,78000
2020-07-28,12.779999732971191,12.779999732971191,12.0,12.170000076293945,12.170000076293945,107300
2020-07-29,12.25,12.720000267028809,12.109999656677246,12.630000114440918,12.630000114440918,129000
2020-07-30,12.479999542236328,12.739999771118164,12.359999656677246,12.59000015258789,12.59000015258789,115400
2020-07-31,12.59000015258789,13.0600004196167,12.5,12.930000305175781,12.930000305175781,165000
2020-08-03,12.930000305175781,13.470000267028809,12.5600004196167,12.880000114440918,12.880000114440918,164200
2020-08-04,12.6899995803833,13.039999961853027,12.520000457763672,12.949999809265137,12.949999809265137,130200
2020-08-05,12.920000076293945,13.220000267028809,12.829999923706055,13.109999656677246,13.109999656677246,142900
2020-08-06,13.09000015258789,13.232000350952148,12.585000038146973,12.760000228881836,12.760000228881836,126000
2020-08-07,12.569999694824219,12.670000076293945,12.050000190734863,12.109999656677246,12.109999656677246,111300
2020-08-10,12.140000343322754,12.479999542236328,12.020000457763672,12.260000228881836,12.260000228881836,144700
2020-08-11,12.270000457763672,13.220000267028809,12.210000038146973,12.920000076293945,12.920000076293945,196900
2020-08-12,12.949999809265137,13.270000457763672,12.609999656677246,13.100000381469727,13.100000381469727,182300
2020-08-13,13.109999656677246,13.109999656677246,12.5600004196167,12.710000038146973,12.710000038146973,278000
2020-08-14,12.550000190734863,12.850000381469727,12.0600004196167,12.350000381469727,12.350000381469727,122800
2020-08-17,12.229999542236328,12.630000114440918,12.15999984741211,12.430000305175781,12.430000305175781,145800
2020-08-18,12.3100004196167,12.670000076293945,12.260000228881836,12.529999732971191,12.529999732971191,170900
2020-08-19,12.529999732971191,13.0,12.5,12.899999618530273,12.899999618530273,159100
2020-08-20,12.829999923706055,13.020000457763672,12.770000457763672,12.949999809265137,12.949999809265137,154400
2020-08-21,13.020000457763672,13.140000343322754,12.829999923706055,13.050000190734863,13.050000190734863,188300
2020-08-24,13.050000190734863,13.170000076293945,12.850000381469727,12.930000305175781,12.930000305175781,214000
2020-08-25,12.930000305175781,13.100000381469727,12.880000114440918,13.050000190734863,13.050000190734863,164300
2020-08-26,13.020000457763672,13.0600004196167,12.789999961853027,12.960000038146973,12.960000038146973,184300
2020-08-27,13.029999732971191,13.539999961853027,12.890000343322754,13.539999961853027,13.539999961853027,287700
2020-08-28,13.600000381469727,14.319999694824219,13.600000381469727,14.170000076293945,14.170000076293945,158300
2020-08-31,14.25,14.350000381469727,13.930000305175781,13.979999542236328,13.979999542236328,50700
2020-09-01,14.0,14.0,13.270000457763672,13.319999694824219,13.319999694824219,57500
2020-09-02,13.359999656677246,13.539999961853027,13.190999984741211,13.489999771118164,13.489999771118164,37300
2020-09-03,13.300000190734863,13.34000015258789,13.0600004196167,13.170000076293945,13.170000076293945,22900
2020-09-04,13.050000190734863,13.3100004196167,12.928000450134277,13.25,13.25,39300
2020-09-08,13.050000190734863,13.15999984741211,12.720000267028809,12.850000381469727,12.850000381469727,24100
2020-09-09,13.0,13.810999870300293,13.0,13.609999656677246,13.609999656677246,70500
2020-09-10,13.84000015258789,13.84000015258789,13.109999656677246,13.180000305175781,13.180000305175781,47500
2020-09-11,13.109999656677246,13.279999732971191,12.90999984741211,13.039999961853027,13.039999961853027,22500
2020-09-14,13.039999961853027,13.17300033569336,12.880000114440918,12.960000038146973,12.960000038146973,27200
2020-09-15,13.0,13.109999656677246,12.84000015258789,13.0,13.0,62900
2020-09-16,12.890000343322754,13.119999885559082,12.880000114440918,13.0,13.0,18800
2020-09-17,12.850000381469727,13.430000305175781,12.850000381469727,13.100000381469727,13.100000381469727,20300
2020-09-18,13.100000381469727,13.199999809265137,12.930000305175781,13.0,13.0,9400
2020-09-21,12.859999656677246,13.032999992370605,12.5,12.670000076293945,12.670000076293945,28100
2020-09-22,12.8100004196167,12.970000267028809,12.6899995803833,12.84000015258789,12.84000015258789,14900
2020-09-23,12.970000267028809,13.279999732971191,12.649999618530273,12.899999618530273,12.899999618530273,20700
2020-09-24,12.850000381469727,12.880000114440918,12.350000381469727,12.539999961853027,12.539999961853027,28600
2020-09-25,12.9399995803833,14.0,12.920000076293945,13.779999732971191,13.779999732971191,69700
2020-09-28,14.229999542236328,14.395000457763672,13.770000457763672,13.84000015258789,13.84000015258789,47800
2020-09-29,14.199999809265137,14.199999809265137,13.539999961853027,13.770000457763672,13.770000457763672,30700
2020-09-30,13.569999694824219,13.770000457763672,13.3100004196167,13.59000015258789,13.59000015258789,25800
2020-10-01,13.670000076293945,13.670000076293945,13.380000114440918,13.520000457763672,13.520000457763672,24000
2020-10-02,13.880000114440918,13.880000114440918,13.350000381469727,13.59000015258789,13.59000015258789,13700
2020-10-05,13.979999542236328,14.069999694824219,13.5,14.050000190734863,14.050000190734863,20000
2020-10-06,14.100000381469727,14.100000381469727,13.635000228881836,13.829999923706055,13.829999923706055,17200
2020-10-07,13.979999542236328,14.180000305175781,13.571999549865723,13.59000015258789,13.59000015258789,11200
2020-10-08,13.789999961853027,13.960000038146973,13.100000381469727,13.449999809265137,13.449999809265137,12500
2020-10-09,13.350000381469727,13.819999694824219,13.25,13.819999694824219,13.819999694824219,15500
2020-10-12,14.069999694824219,14.199999809265137,13.789999961853027,14.069999694824219,14.069999694824219,34800
2020-10-13,13.930000305175781,13.970000267028809,13.289999961853027,13.390000343322754,13.390000343322754,19600
2020-10-14,13.25,13.710000038146973,13.100000381469727,13.100000381469727,13.100000381469727,19000
2020-10-15,13.050000190734863,13.350000381469727,13.0,13.239999771118164,13.239999771118164,15400
2020-10-16,13.170000076293945,14.140000343322754,13.170000076293945,13.800000190734863,13.800000190734863,15300
2020-10-19,13.989999771118164,13.989999771118164,13.010000228881836,13.25,13.25,7800
2020-10-20,13.470000267028809,13.6899995803833,13.130000114440918,13.5600004196167,13.5600004196167,11300
2020-10-21,13.640000343322754,13.890000343322754,13.270000457763672,13.800000190734863,13.800000190734863,12600
2020-10-22,13.600000381469727,13.90999984741211,13.369999885559082,13.489999771118164,13.489999771118164,37500
2020-10-23,13.510000228881836,13.920000076293945,13.5,13.609999656677246,13.609999656677246,27900
2020-10-26,13.5,13.729999542236328,13.300000190734863,13.579999923706055,13.579999923706055,9600
2020-10-27,13.529999732971191,13.84000015258789,13.5,13.579999923706055,13.579999923706055,15700
2020-10-28,13.539999961853027,13.600000381469727,13.100000381469727,13.600000381469727,13.600000381469727,31600
2020-10-29,13.5,13.82800006866455,13.380000114440918,13.420000076293945,13.420000076293945,14600
2020-10-30,13.359999656677246,13.399999618530273,13.180000305175781,13.260000228881836,13.260000228881836,40700
2020-11-02,13.260000228881836,13.425000190734863,13.079999923706055,13.079999923706055,13.079999923706055,16400
2020-11-03,13.140000343322754,13.319999694824219,12.760000228881836,12.789999961853027,12.789999961853027,17600
2020-11-04,12.960000038146973,13.199999809265137,12.850000381469727,12.9399995803833,12.9399995803833,11300
2020-11-05,12.979999542236328,13.420000076293945,12.930000305175781,12.9399995803833,12.9399995803833,15000
2020-11-06,12.869999885559082,13.300000190734863,12.75,12.75,12.75,21000
2020-11-09,12.960000038146973,13.600000381469727,12.859999656677246,12.859999656677246,12.859999656677246,47000
2020-11-10,13.09000015258789,13.5,12.869999885559082,13.5,13.5,26300
2020-11-11,13.489999771118164,13.5,13.199999809265137,13.25,13.25,15700
2020-11-12,13.0,13.5,12.899999618530273,13.25,13.25,24500
2020-11-13,13.0,13.25,12.932999610900879,13.140000343322754,13.140000343322754,9500
2020-11-16,13.260000228881836,13.260000228881836,13.015000343322754,13.100000381469727,13.100000381469727,14600
2020-11-17,13.0,13.59000015258789,12.960000038146973,13.59000015258789,13.59000015258789,30300
2020-11-18,13.600000381469727,13.800000190734863,13.5,13.6899995803833,13.6899995803833,49600
2020-11-19,13.640000343322754,13.6899995803833,13.5,13.520000457763672,13.520000457763672,9700
2020-11-20,13.5,13.741000175476074,13.09000015258789,13.180000305175781,13.180000305175781,50500
2020-11-23,13.420000076293945,13.574999809265137,12.890000343322754,13.010000228881836,13.010000228881836,37300
2020-11-24,13.170000076293945,13.300000190734863,12.850000381469727,13.029999732971191,13.029999732971191,19500
2020-11-25,12.890000343322754,12.930000305175781,12.449999809265137,12.449999809265137,12.449999809265137,67500
2020-11-27,12.449999809265137,12.869999885559082,12.350000381469727,12.649999618530273,12.649999618530273,26000
2020-11-30,12.449999809265137,12.449999809265137,11.760000228881836,11.880000114440918,11.880000114440918,82500
2020-12-01,11.9399995803833,12.5600004196167,11.9399995803833,12.25,12.25,69600
2020-12-02,12.100000381469727,12.454999923706055,11.880000114440918,12.050000190734863,12.050000190734863,47100
2020-12-03,11.979999542236328,12.460000038146973,11.890000343322754,12.350000381469727,12.350000381469727,86600
2020-12-04,12.489999771118164,13.289999961853027,12.300000190734863,13.130000114440918,13.130000114440918,79100
2020-12-07,13.199999809265137,13.220000267028809,12.529999732971191,12.979999542236328,12.979999542236328,49400
2020-12-08,12.850000381469727,12.930000305175781,12.59000015258789,12.609999656677246,12.609999656677246,23600
2020-12-09,12.670000076293945,12.850000381469727,12.289999961853027,12.850000381469727,12.850000381469727,54400
2020-12-10,12.454999923706055,12.789999961853027,12.350000381469727,12.579999923706055,12.579999923706055,19600
2020-12-11,12.649999618530273,12.729999542236328,12.300000190734863,12.630000114440918,12.630000114440918,31500
2020-12-14,12.630000114440918,12.970000267028809,12.3100004196167,12.760000228881836,12.760000228881836,51100
2020-12-15,12.65999984741211,13.029999732971191,12.65999984741211,12.890000343322754,12.890000343322754,29700
2020-12-16,13.029999732971191,13.25,12.9399995803833,13.140000343322754,13.140000343322754,23000
2020-12-17,13.079999923706055,13.130000114440918,12.899999618530273,12.989999771118164,12.989999771118164,53200
2020-12-18,13.09000015258789,13.25,13.0,13.100000381469727,13.100000381469727,24900
2020-12-21,13.050000190734863,13.100000381469727,12.60099983215332,13.010000228881836,13.010000228881836,22200
2020-12-22,12.920000076293945,13.050000190734863,12.510000228881836,12.869999885559082,12.869999885559082,22400
2020-12-23,12.989999771118164,12.989999771118164,12.720000267028809,12.869999885559082,12.869999885559082,11200
2020-12-24,12.800000190734863,13.25,12.75,13.010000228881836,13.010000228881836,14700
2020-12-28,12.960000038146973,13.430000305175781,12.899999618530273,13.0,13.0,30700
2020-12-29,13.039999961853027,13.34000015258789,13.010000228881836,13.25,13.25,10300
2020-12-30,13.25,13.399999618530273,13.010000228881836,13.350000381469727,13.350000381469727,19400
