Date,Open,High,Low,Close,Adj Close,Volume
2020-10-22,15.0,15.65999984741211,13.5600004196167,15.0,14.085366249084473,2383100
2020-10-23,14.649999618530273,15.0,14.0,14.899999618530273,13.991462707519531,465200
2020-10-26,14.800000190734863,14.989999771118164,14.5,14.699999809265137,13.803658485412598,110400
2020-10-27,14.649999618530273,15.048999786376953,14.649999618530273,15.0,14.085366249084473,231500
2020-10-28,14.75,15.130000114440918,14.539999961853027,15.0,14.085366249084473,157800
2020-10-29,14.850000381469727,15.0,14.75,14.800000190734863,13.897561073303223,140900
2020-10-30,14.65999984741211,14.979999542236328,14.65999984741211,14.75,13.85060977935791,90400
2020-11-02,14.779999732971191,14.920000076293945,14.270000457763672,14.630000114440918,13.737926483154297,147500
2020-11-03,14.699999809265137,15.399999618530273,14.609999656677246,14.75,13.85060977935791,533400
2020-11-04,14.949999809265137,15.479999542236328,14.710000038146973,14.859999656677246,13.953902244567871,159100
2020-11-05,14.729999542236328,15.289999961853027,14.6899995803833,15.210000038146973,14.282561302185059,60300
2020-11-06,15.149999618530273,15.199999809265137,14.760000228881836,15.119999885559082,14.19804859161377,27900
2020-11-09,15.149999618530273,15.354999542236328,14.779999732971191,15.0,14.085366249084473,70000
2020-11-10,14.989999771118164,15.069999694824219,14.5600004196167,14.949999809265137,14.038414001464844,28700
2020-11-11,14.899999618530273,14.899999618530273,14.652000427246094,14.75,13.85060977935791,29700
2020-11-12,14.600000381469727,14.75,13.890000343322754,14.729999542236328,13.831829071044922,31600
2020-11-13,14.470000267028809,14.75,14.350000381469727,14.75,13.85060977935791,75400
2020-11-16,14.5,14.899999618530273,14.5,14.710000038146973,13.813048362731934,63700
2020-11-17,14.710000038146973,14.710000038146973,14.279999732971191,14.4399995803833,13.5595121383667,100300
2020-11-18,14.399999618530273,14.550000190734863,14.069999694824219,14.329999923706055,13.456219673156738,148700
2020-11-19,14.239999771118164,14.4399995803833,13.130000114440918,13.9399995803833,13.089999198913574,158800
2020-11-20,13.75,13.994999885559082,13.529999732971191,13.9399995803833,13.089999198913574,121800
2020-11-23,13.960000038146973,15.380000114440918,13.5,14.800000190734863,13.897561073303223,294800
2020-11-24,14.829999923706055,15.0,14.260000228881836,14.489999771118164,13.606463432312012,150600
2020-11-25,14.550000190734863,14.850000381469727,14.170000076293945,14.399999618530273,13.521950721740723,74000
2020-11-27,14.399999618530273,14.579999923706055,14.170000076293945,14.579999923706055,13.690975189208984,19000
2020-11-30,14.680000305175781,15.100000381469727,14.25,14.4399995803833,13.5595121383667,61600
2020-12-01,14.289999961853027,15.220000267028809,14.289999961853027,14.90999984741211,14.000853538513184,197600
2020-12-02,14.819999694824219,15.390000343322754,14.65999984741211,14.859999656677246,13.953902244567871,164200
2020-12-03,15.399999618530273,15.399999618530273,14.829999923706055,15.039999961853027,14.122926712036133,50800
2020-12-04,14.930000305175781,15.210000038146973,14.800000190734863,15.109999656677246,14.188657760620117,22800
2020-12-07,15.109999656677246,15.555000305175781,14.819999694824219,15.489999771118164,14.545487403869629,90500
2020-12-08,15.40999984741211,15.510000228881836,14.8100004196167,15.289999961853027,14.357683181762695,71600
2020-12-09,15.050000190734863,15.170000076293945,14.829999923706055,15.109999656677246,14.188657760620117,61900
2020-12-10,15.199999809265137,15.220000267028809,14.890000343322754,15.15999984741211,14.235610008239746,36800
2020-12-11,14.930000305175781,15.460000038146973,14.930000305175781,15.460000038146973,14.517316818237305,36000
2020-12-14,15.600000381469727,15.699999809265137,15.170000076293945,15.25,14.320121765136719,66200
2020-12-15,15.270000457763672,15.569999694824219,15.003000259399414,15.390000343322754,14.45158576965332,77500
2020-12-16,15.550000190734863,15.550000190734863,15.010000228881836,15.449999809265137,14.507926940917969,101800
2020-12-17,15.609999656677246,16.739999771118164,15.255999565124512,16.479999542236328,15.47512149810791,283900
2020-12-18,16.719999313354492,16.739999771118164,14.680000305175781,15.390000343322754,14.45158576965332,335800
2020-12-21,15.460000038146973,16.17300033569336,15.22599983215332,15.890000343322754,14.921097755432129,127000
2020-12-22,15.859999656677246,16.40999984741211,15.75,16.40999984741211,15.409390449523926,115700
2020-12-23,16.25,17.177000045776367,16.110000610351562,16.950000762939453,15.916463851928711,80100
2020-12-24,16.829999923706055,17.25,16.79800033569336,16.889999389648438,15.860121726989746,22500
2020-12-28,16.790000915527344,17.399999618530273,16.770999908447266,17.079999923706055,16.038536071777344,60000
2020-12-29,17.0,17.260000228881836,16.413999557495117,17.260000228881836,16.207561492919922,43600
2020-12-30,17.360000610351562,17.600000381469727,16.993000030517578,17.600000381469727,16.52682876586914,30100
