Date,Open,High,Low,Close,Adj Close,Volume
2017-07-20,45.0,47.099998474121094,45.0,45.0,45.0,760
2017-07-21,45.0,45.0,30.0,34.95000076293945,34.95000076293945,1093
2017-07-24,40.5,46.724998474121094,37.5,43.650001525878906,43.650001525878906,473
2017-07-25,44.849998474121094,44.849998474121094,43.650001525878906,44.400001525878906,44.400001525878906,367
2017-07-26,44.400001525878906,44.400001525878906,42.0,44.25,44.25,193
2017-07-27,44.400001525878906,44.400001525878906,43.04999923706055,44.400001525878906,44.400001525878906,93
2017-07-28,44.54999923706055,44.54999923706055,43.724998474121094,44.25,44.25,287
2017-07-31,44.099998474121094,44.099998474121094,35.189998626708984,37.88999938964844,37.88999938964844,587
2017-08-01,37.5,38.25,36.0,37.349998474121094,37.349998474121094,133
2017-08-02,37.349998474121094,37.349998474121094,31.350000381469727,33.75,33.75,147
2017-08-03,34.5,34.5,33.75,34.5,34.5,467
2017-08-04,36.150001525878906,37.5,36.150001525878906,37.5,37.5,20
2017-08-07,42.75,42.75,34.04999923706055,38.70000076293945,38.70000076293945,73
2017-08-08,40.5,41.54999923706055,40.5,41.54999923706055,41.54999923706055,160
2017-08-09,41.54999923706055,41.54999923706055,33.0,39.599998474121094,39.599998474121094,433
2017-08-10,35.474998474121094,36.0,35.474998474121094,36.0,36.0,27
2017-08-11,33.900001525878906,33.900001525878906,33.900001525878906,33.900001525878906,33.900001525878906,67
2017-08-14,38.849998474121094,39.45000076293945,37.04999923706055,39.45000076293945,39.45000076293945,120
2017-08-15,39.45000076293945,39.45000076293945,35.849998474121094,39.45000076293945,39.45000076293945,40
2017-08-16,36.345001220703125,39.75,36.345001220703125,37.5,37.5,113
2017-08-17,36.0,38.625,30.0,37.5,37.5,160
2017-08-18,37.5,37.5,32.70000076293945,35.90999984741211,35.90999984741211,40
2017-08-21,32.25,35.14500045776367,32.25,35.14500045776367,35.14500045776367,27
2017-08-22,32.25,34.5,32.25,34.275001525878906,34.275001525878906,60
2017-08-23,34.275001525878906,34.275001525878906,34.275001525878906,34.275001525878906,34.275001525878906,0
2017-08-24,35.099998474121094,39.0,35.099998474121094,39.0,39.0,47
2017-08-25,39.75,39.75,39.75,39.75,39.75,7
2017-08-28,39.75,39.75,39.75,39.75,39.75,0
2017-08-29,39.75,39.75,39.75,39.75,39.75,0
2017-08-30,33.0,33.0,32.25,32.25,32.25,193
2017-08-31,33.0,36.75,30.75,30.75,30.75,93
2017-09-01,39.0,39.0,31.5,31.5,31.5,67
2017-09-05,36.64500045776367,40.5,36.0,40.5,40.5,120
2017-09-06,37.5,37.5,37.5,37.5,37.5,7
2017-09-07,36.150001525878906,36.150001525878906,36.150001525878906,36.150001525878906,36.150001525878906,20
2017-09-08,36.75,37.349998474121094,36.75,37.349998474121094,37.349998474121094,100
2017-09-11,36.93000030517578,36.93000030517578,31.875,35.25,35.25,353
2017-09-12,35.400001525878906,35.400001525878906,35.400001525878906,35.400001525878906,35.400001525878906,13
2017-09-13,35.400001525878906,35.400001525878906,35.400001525878906,35.400001525878906,35.400001525878906,0
2017-09-14,33.75,34.5,33.75,34.5,34.5,167
2017-09-15,34.5,34.5,34.5,34.5,34.5,0
2017-09-18,35.70000076293945,37.125,34.51499938964844,34.51499938964844,34.51499938964844,87
2017-09-19,34.51499938964844,34.51499938964844,34.51499938964844,34.51499938964844,34.51499938964844,0
2017-09-20,35.20500183105469,35.20500183105469,34.650001525878906,34.650001525878906,34.650001525878906,113
2017-09-21,37.04999923706055,37.04999923706055,35.25,35.25,35.25,33
2017-09-22,35.25,35.25,35.25,35.25,35.25,0
2017-09-25,36.150001525878906,36.150001525878906,33.75,33.75,33.75,153
2017-09-26,33.75,33.75,33.75,33.75,33.75,0
2017-09-27,33.75,33.75,33.75,33.75,33.75,0
2017-09-28,34.5,37.04999923706055,34.5,36.0,36.0,373
2017-09-29,36.0,37.04999923706055,36.0,37.04999923706055,37.04999923706055,13
2017-10-02,39.75,39.75,37.5,37.5,37.5,1013
2017-10-03,37.5,37.79999923706055,36.0,37.04999923706055,37.04999923706055,193
2017-10-04,36.0,36.29999923706055,33.0,36.29999923706055,36.29999923706055,527
2017-10-05,36.29999923706055,36.29999923706055,36.29999923706055,36.29999923706055,36.29999923706055,0
2017-10-06,35.099998474121094,36.29999923706055,35.099998474121094,36.29999923706055,36.29999923706055,80
2017-10-09,35.70000076293945,36.29999923706055,35.70000076293945,36.29999923706055,36.29999923706055,67
2017-10-10,36.0,36.0,36.0,36.0,36.0,20
2017-10-11,33.0,33.0,33.0,33.0,33.0,67
2017-10-12,33.0,33.0,33.0,33.0,33.0,0
2017-10-13,34.5,35.54999923706055,33.900001525878906,35.54999923706055,35.54999923706055,120
2017-10-16,35.54999923706055,35.54999923706055,35.54999923706055,35.54999923706055,35.54999923706055,0
2017-10-17,34.5,34.5,33.75,33.75,33.75,20
2017-10-18,35.849998474121094,35.849998474121094,35.25,35.25,35.25,47
2017-10-19,34.5,34.5,34.5,34.5,34.5,13
2017-10-20,38.25,38.25,34.79999923706055,36.75,36.75,173
2017-10-23,35.654998779296875,36.0,34.5,36.0,36.0,73
2017-10-24,34.5,34.5,34.349998474121094,34.349998474121094,34.349998474121094,173
2017-10-25,34.349998474121094,34.349998474121094,34.349998474121094,34.349998474121094,34.349998474121094,67
2017-10-26,34.04999923706055,34.5,34.04999923706055,34.5,34.5,53
2017-10-27,38.25,38.25,34.5,34.5,34.5,40
2017-10-30,38.25,38.25,33.0,35.25,35.25,147
2017-10-31,34.349998474121094,34.349998474121094,34.349998474121094,34.349998474121094,34.349998474121094,100
2017-11-01,33.525001525878906,33.525001525878906,33.0,33.0,33.0,153
2017-11-02,33.0,33.0,30.0,30.0,30.0,400
2017-11-03,28.5,28.5,22.5,23.53499984741211,23.53499984741211,213
2017-11-06,26.25,26.25,12.0,16.5,16.5,1067
2017-11-07,16.5,16.5,11.265000343322754,16.5,16.5,547
2017-11-08,16.5,18.0,12.75,12.75,12.75,953
2017-11-09,13.5,15.75,13.5,15.149999618530273,15.149999618530273,633
2017-11-10,16.5,16.649999618530273,14.850000381469727,14.850000381469727,14.850000381469727,540
2017-11-13,13.199999809265137,14.819999694824219,12.09000015258789,12.75,12.75,1060
2017-11-14,14.25,14.25,14.25,14.25,14.25,200
2017-11-15,14.25,14.25,14.25,14.25,14.25,0
2017-11-16,14.25,14.25,14.25,14.25,14.25,0
2017-11-17,19.350000381469727,19.350000381469727,19.350000381469727,19.350000381469727,19.350000381469727,7
2017-11-20,19.350000381469727,19.350000381469727,18.899999618530273,18.899999618530273,18.899999618530273,60
2017-11-21,19.049999237060547,19.049999237060547,19.049999237060547,19.049999237060547,19.049999237060547,27
2017-11-22,18.75,18.75,18.389999389648438,18.450000762939453,18.450000762939453,47
2017-11-24,15.614999771118164,18.0,15.614999771118164,18.0,18.0,20
2017-11-27,16.5,16.5,12.75,12.75,12.75,267
2017-11-28,13.5,15.0,13.5,15.0,15.0,240
2017-11-29,13.649999618530273,16.5,13.649999618530273,15.75,15.75,160
2017-11-30,16.200000762939453,16.200000762939453,14.3100004196167,14.3100004196167,14.3100004196167,60
2017-12-01,14.3100004196167,14.3100004196167,14.3100004196167,14.3100004196167,14.3100004196167,0
2017-12-04,16.094999313354492,16.5,12.75,12.75,12.75,193
2017-12-05,12.75,12.75,12.75,12.75,12.75,40
2017-12-06,12.75,12.75,12.75,12.75,12.75,0
2017-12-07,13.5,16.5,12.75,13.649999618530273,13.649999618530273,1127
2017-12-08,17.100000381469727,17.100000381469727,15.449999809265137,15.449999809265137,15.449999809265137,160
2017-12-11,15.0,15.0,15.0,15.0,15.0,7
2017-12-12,15.09000015258789,15.300000190734863,15.0,15.0,15.0,193
2017-12-13,15.0,15.0,15.0,15.0,15.0,13
2017-12-14,15.0,15.0,13.5,13.5,13.5,27
2017-12-15,13.5,13.5,13.5,13.5,13.5,67
2017-12-18,13.5,14.25,11.25,14.25,14.25,453
2017-12-19,15.0,17.100000381469727,15.0,16.200000762939453,16.200000762939453,960
2017-12-20,15.0,16.200000762939453,12.75,12.75,12.75,620
2017-12-21,12.75,12.75,12.75,12.75,12.75,460
2017-12-22,12.0,15.0,11.25,11.25,11.25,547
2017-12-26,13.199999809265137,18.75,13.199999809265137,15.0,15.0,1153
2017-12-27,15.0,15.0,15.0,15.0,15.0,47
2017-12-28,15.0,19.649999618530273,11.279999732971191,11.279999732971191,11.279999732971191,313
2017-12-29,13.949999809265137,13.949999809265137,13.949999809265137,13.949999809265137,13.949999809265137,40
2018-01-02,14.760000228881836,16.5,14.760000228881836,16.5,16.5,380
2018-01-03,18.0,19.5,13.050000190734863,13.050000190734863,13.050000190734863,767
2018-01-04,16.5,16.5,13.050000190734863,13.050000190734863,13.050000190734863,807
2018-01-05,13.5,13.5,13.5,13.5,13.5,53
2018-01-08,11.25,12.0,11.25,12.0,12.0,60
2018-01-09,12.0,16.5,12.0,16.5,16.5,240
2018-01-10,16.350000381469727,16.799999237060547,13.5,16.350000381469727,16.350000381469727,773
2018-01-11,16.350000381469727,16.5,15.720000267028809,15.75,15.75,153
2018-01-12,16.875,16.875,15.75,15.75,15.75,880
2018-01-16,15.75,15.75,15.75,15.75,15.75,0
2018-01-17,16.649999618530273,18.0,16.049999237060547,16.049999237060547,16.049999237060547,807
2018-01-18,16.5,16.5,11.25,11.324999809265137,11.324999809265137,587
2018-01-19,12.75,15.449999809265137,11.324999809265137,15.0,15.0,327
2018-01-22,15.149999618530273,18.0,15.149999618530273,16.350000381469727,16.350000381469727,127
2018-01-23,15.0,15.0,14.850000381469727,15.0,15.0,113
2018-01-24,12.149999618530273,14.25,12.149999618530273,14.25,14.25,40
2018-01-25,12.149999618530273,14.25,12.149999618530273,14.100000381469727,14.100000381469727,220
2018-01-26,14.100000381469727,14.100000381469727,11.25,14.100000381469727,14.100000381469727,520
2018-01-29,14.100000381469727,15.75,14.100000381469727,15.600000381469727,15.600000381469727,100
2018-01-30,15.449999809265137,15.449999809265137,11.279999732971191,15.300000190734863,15.300000190734863,80
2018-01-31,15.0,15.0,13.5,13.5,13.5,427
2018-02-01,12.0,14.850000381469727,12.0,13.5,13.5,133
2018-02-02,13.5,13.5,13.5,13.5,13.5,147
2018-02-05,13.5,13.5,13.5,13.5,13.5,40
2018-02-06,13.5,13.5,11.25,13.5,13.5,287
2018-02-07,11.640000343322754,11.640000343322754,11.25,11.475000381469727,11.475000381469727,180
2018-02-08,12.0,12.0,12.0,12.0,12.0,20
2018-02-09,11.25,15.0,11.25,14.25,14.25,113
2018-02-12,14.25,14.25,14.25,14.25,14.25,0
2018-02-13,14.25,14.25,14.25,14.25,14.25,0
2018-02-14,11.609999656677246,14.25,11.609999656677246,14.25,14.25,113
2018-02-15,12.300000190734863,12.300000190734863,12.300000190734863,12.300000190734863,12.300000190734863,27
2018-02-16,13.5,13.949999809265137,12.75,13.949999809265137,13.949999809265137,213
2018-02-20,11.25,15.0,11.25,11.25,11.25,333
2018-02-21,11.25,11.25,11.25,11.25,11.25,0
2018-02-22,11.25,11.25,11.25,11.25,11.25,0
2018-02-23,11.25,11.25,11.25,11.25,11.25,0
2018-02-26,11.25,11.25,11.25,11.25,11.25,0
2018-02-27,11.25,11.25,11.25,11.25,11.25,7
2018-02-28,11.25,11.25,11.25,11.25,11.25,33
2018-03-01,11.25,13.949999809265137,11.25,13.949999809265137,13.949999809265137,80
2018-03-02,11.25,11.25,11.25,11.25,11.25,133
2018-03-05,10.5,10.5,10.5,10.5,10.5,67
2018-03-06,13.949999809265137,13.949999809265137,13.949999809265137,13.949999809265137,13.949999809265137,167
2018-03-07,10.5,15.0,10.5,11.25,11.25,847
2018-03-08,12.75,12.75,12.0,12.0,12.0,160
2018-03-09,14.399999618530273,14.399999618530273,14.399999618530273,14.399999618530273,14.399999618530273,7
2018-03-12,12.0,12.0,12.0,12.0,12.0,93
2018-03-13,12.0,12.0,12.0,12.0,12.0,0
2018-03-14,12.75,12.75,12.75,12.75,12.75,20
2018-03-15,13.125,13.5,12.0,12.0,12.0,253
2018-03-16,14.25,14.25,13.125,13.125,13.125,100
2018-03-19,13.125,13.125,13.125,13.125,13.125,0
2018-03-20,14.25,14.399999618530273,14.25,14.399999618530273,14.399999618530273,1033
2018-03-21,14.399999618530273,14.399999618530273,13.050000190734863,14.25,14.25,313
2018-03-22,14.25,14.25,14.055000305175781,14.055000305175781,14.055000305175781,20
2018-03-23,14.25,14.25,14.100000381469727,14.100000381469727,14.100000381469727,313
2018-03-26,13.199999809265137,14.100000381469727,12.0,13.949999809265137,13.949999809265137,427
2018-03-27,13.949999809265137,13.949999809265137,13.949999809265137,13.949999809265137,13.949999809265137,33
2018-03-28,13.5,13.5,12.0,13.5,13.5,120
2018-03-29,13.350000381469727,13.5,13.350000381469727,13.5,13.5,33
2018-04-02,13.949999809265137,13.949999809265137,13.5,13.5,13.5,27
2018-04-03,13.5,13.5,12.0,12.0,12.0,180
2018-04-04,11.699999809265137,11.699999809265137,11.399999618530273,11.399999618530273,11.399999618530273,33
2018-04-05,11.699999809265137,11.699999809265137,10.949999809265137,10.949999809265137,10.949999809265137,920
2018-04-06,11.100000381469727,11.100000381469727,10.800000190734863,10.800000190734863,10.800000190734863,447
2018-04-09,10.800000190734863,10.800000190734863,10.199999809265137,10.5,10.5,380
2018-04-10,10.199999809265137,10.199999809265137,9.0,9.0,9.0,253
2018-04-11,9.0,9.0,7.46999979019165,8.25,8.25,1007
2018-04-12,8.25,9.0,7.650000095367432,9.0,9.0,1753
2018-04-13,9.0,9.0,7.650000095367432,7.650000095367432,7.650000095367432,640
2018-04-16,9.0,9.0,8.550000190734863,8.550000190734863,8.550000190734863,2467
2018-04-17,9.0,9.0,7.349999904632568,7.5,7.5,1960
2018-04-18,7.5,7.5,4.349999904632568,4.349999904632568,4.349999904632568,4153
2018-04-19,4.800000190734863,4.800000190734863,3.0,3.75,3.75,21407
2018-04-20,3.75,3.75,2.2049999237060547,2.700000047683716,2.700000047683716,27340
2018-04-23,3.0,7.724999904632568,2.549999952316284,6.974999904632568,6.974999904632568,31000
2018-04-24,7.5,7.949999809265137,6.75,7.199999809265137,7.199999809265137,2053
2018-04-25,7.5,8.850000381469727,6.75,8.699999809265137,8.699999809265137,2120
2018-04-26,8.699999809265137,8.699999809265137,6.0,6.0,6.0,1133
2018-04-27,8.399999618530273,8.399999618530273,6.150000095367432,6.150000095367432,6.150000095367432,240
2018-04-30,6.0,8.850000381469727,6.0,7.650000095367432,7.650000095367432,2520
2018-05-01,8.399999618530273,8.850000381469727,8.399999618530273,8.850000381469727,8.850000381469727,653
2018-05-02,9.0,9.0,7.5,8.25,8.25,1587
2018-05-03,6.074999809265137,8.25,6.074999809265137,8.25,8.25,407
2018-05-04,6.074999809265137,8.25,6.074999809265137,8.25,8.25,773
2018-05-07,8.25,8.25,8.25,8.25,8.25,520
2018-05-08,7.920000076293945,7.920000076293945,6.014999866485596,6.014999866485596,6.014999866485596,440
2018-05-09,6.195000171661377,7.724999904632568,6.195000171661377,7.5,7.5,3640
2018-05-10,7.5,7.5,6.764999866485596,6.764999866485596,6.764999866485596,400
2018-05-11,7.800000190734863,7.800000190734863,6.0,6.75,6.75,3560
2018-05-14,6.300000190734863,7.5,5.744999885559082,7.199999809265137,7.199999809265137,6987
2018-05-15,8.175000190734863,9.375,7.5,8.25,8.25,6813
2018-05-16,7.800000190734863,9.0,6.315000057220459,8.550000190734863,8.550000190734863,633
2018-05-17,9.0,9.0,7.965000152587891,7.965000152587891,7.965000152587891,1607
2018-05-18,9.0,18.75,8.399999618530273,16.31999969482422,16.31999969482422,6367
2018-05-21,17.25,20.25,12.600000381469727,16.5,16.5,6087
2018-05-22,16.5,16.5,12.0,15.0,15.0,2720
2018-05-23,15.75,16.5,13.5,15.0,15.0,2573
2018-05-24,16.5,16.5,15.0,15.149999618530273,15.149999618530273,927
2018-05-25,15.0,16.200000762939453,14.444999694824219,16.200000762939453,16.200000762939453,1280
2018-05-29,16.5,16.5,10.199999809265137,13.574999809265137,13.574999809265137,1153
2018-05-30,15.0,15.0,13.574999809265137,14.550000190734863,14.550000190734863,767
2018-05-31,10.5,14.850000381469727,10.5,14.850000381469727,14.850000381469727,167
2018-06-01,14.25,14.25,12.0,13.350000381469727,13.350000381469727,713
2018-06-04,14.850000381469727,14.850000381469727,9.899999618530273,12.0,12.0,393
2018-06-05,13.350000381469727,14.550000190734863,12.0,14.550000190734863,14.550000190734863,280
2018-06-06,14.324999809265137,14.550000190734863,13.800000190734863,13.800000190734863,13.800000190734863,713
2018-06-07,13.5,14.399999618530273,12.449999809265137,13.154999732971191,13.154999732971191,420
2018-06-08,14.100000381469727,14.100000381469727,12.675000190734863,13.5,13.5,880
2018-06-11,13.5,13.5,12.75,13.5,13.5,447
2018-06-12,13.8149995803833,13.9350004196167,12.75,13.350000381469727,13.350000381469727,947
2018-06-13,13.350000381469727,13.350000381469727,12.0,12.0,12.0,580
2018-06-14,12.449999809265137,13.5,12.300000190734863,13.5,13.5,320
2018-06-15,13.5,13.5,12.0,13.5,13.5,133
2018-06-18,13.5,14.024999618530273,13.050000190734863,14.024999618530273,14.024999618530273,927
2018-06-19,13.5,13.649999618530273,12.0,12.0,12.0,940
2018-06-20,12.539999961853027,13.574999809265137,12.0,12.0,12.0,207
2018-06-21,12.0,14.550000190734863,12.0,14.399999618530273,14.399999618530273,2033
2018-06-22,14.399999618530273,15.0,13.800000190734863,13.800000190734863,13.800000190734863,2340
2018-06-25,12.074999809265137,12.149999618530273,12.074999809265137,12.149999618530273,12.149999618530273,20
2018-06-26,12.149999618530273,12.149999618530273,12.149999618530273,12.149999618530273,12.149999618530273,0
2018-06-27,12.300000190734863,12.449999809265137,12.300000190734863,12.449999809265137,12.449999809265137,73
2018-06-28,13.5,13.800000190734863,13.109999656677246,13.800000190734863,13.800000190734863,1613
2018-06-29,13.949999809265137,13.949999809265137,12.75,12.75,12.75,727
2018-07-02,12.75,12.824999809265137,10.949999809265137,10.949999809265137,10.949999809265137,1920
2018-07-03,12.0,12.0,11.25,11.25,11.25,593
2018-07-05,11.25,11.25,10.199999809265137,10.5,10.5,1953
2018-07-06,10.5,10.5,9.449999809265137,10.5,10.5,1793
2018-07-09,9.449999809265137,10.5,9.449999809265137,9.765000343322754,9.765000343322754,827
2018-07-10,9.449999809265137,10.5,9.449999809265137,10.5,10.5,1840
2018-07-11,10.5,10.949999809265137,10.40999984741211,10.949999809265137,10.949999809265137,2360
2018-07-12,9.600000381469727,10.5,9.449999809265137,10.5,10.5,667
2018-07-13,9.75,10.5,9.300000190734863,9.449999809265137,9.449999809265137,2180
2018-07-16,10.5,11.25,10.050000190734863,10.199999809265137,10.199999809265137,987
2018-07-17,10.5,11.100000381469727,9.765000343322754,9.765000343322754,9.765000343322754,3953
2018-07-18,10.125,11.100000381469727,10.050000190734863,11.100000381469727,11.100000381469727,3307
2018-07-19,11.25,12.0,10.5,12.0,12.0,4707
2018-07-20,10.800000190734863,12.75,10.800000190734863,12.75,12.75,2107
2018-07-23,13.5,13.5,12.75,12.75,12.75,973
2018-07-24,12.75,13.5,12.600000381469727,13.350000381469727,13.350000381469727,2147
2018-07-25,13.5,13.5,12.824999809265137,13.5,13.5,1687
2018-07-26,13.5,13.5,9.75,12.675000190734863,12.675000190734863,673
2018-07-27,12.675000190734863,12.675000190734863,12.675000190734863,12.675000190734863,12.675000190734863,0
2018-07-30,12.149999618530273,12.795000076293945,11.25,12.0,12.0,953
2018-07-31,11.550000190734863,12.300000190734863,11.550000190734863,12.149999618530273,12.149999618530273,473
2018-08-01,13.5,13.5,12.149999618530273,13.199999809265137,13.199999809265137,93
2018-08-02,10.800000190734863,12.75,10.800000190734863,12.75,12.75,567
2018-08-03,12.75,12.75,11.550000190734863,11.550000190734863,11.550000190734863,547
2018-08-06,11.25,12.375,11.25,11.399999618530273,11.399999618530273,113
2018-08-07,12.0,12.0,10.5,10.5,10.5,2047
2018-08-08,10.199999809265137,10.199999809265137,9.779999732971191,9.779999732971191,9.779999732971191,667
2018-08-09,9.779999732971191,11.220000267028809,9.779999732971191,9.779999732971191,9.779999732971191,620
2018-08-10,11.220000267028809,11.220000267028809,11.220000267028809,11.220000267028809,11.220000267028809,13
2018-08-13,10.5,11.220000267028809,10.470000267028809,10.5,10.5,1480
2018-08-14,10.5,10.5,10.244999885559082,10.5,10.5,913
2018-08-15,10.350000381469727,10.350000381469727,9.75,9.75,9.75,280
2018-08-16,9.75,10.649999618530273,9.75,10.5,10.5,480
2018-08-17,10.5,10.5600004196167,10.350000381469727,10.5,10.5,307
2018-08-20,11.25,11.25,9.75,9.75,9.75,453
2018-08-21,11.25,11.25,10.125,10.125,10.125,173
2018-08-22,9.75,11.25,9.449999809265137,10.5,10.5,1020
2018-08-23,11.699999809265137,12.0,9.75,10.199999809265137,10.199999809265137,1120
2018-08-24,10.199999809265137,10.350000381469727,10.199999809265137,10.199999809265137,10.199999809265137,800
2018-08-27,10.649999618530273,10.649999618530273,9.899999618530273,9.899999618530273,9.899999618530273,340
2018-08-28,10.050000190734863,10.5,9.899999618530273,10.350000381469727,10.350000381469727,607
2018-08-29,12.0,12.0,9.75,9.75,9.75,580
2018-08-30,9.944999694824219,10.425000190734863,9.75,9.75,9.75,153
2018-08-31,10.199999809265137,12.600000381469727,9.300000190734863,9.600000381469727,9.600000381469727,1093
2018-09-04,9.300000190734863,9.300000190734863,8.640000343322754,8.640000343322754,8.640000343322754,287
2018-09-05,9.404999732971191,10.050000190734863,9.404999732971191,9.734999656677246,9.734999656677246,60
2018-09-06,9.75,10.364999771118164,9.75,9.75,9.75,373
2018-09-07,10.5,10.5,8.699999809265137,8.699999809265137,8.699999809265137,660
2018-09-10,9.600000381469727,9.75,7.5,9.75,9.75,2247
2018-09-11,10.5,10.5,8.279999732971191,9.0,9.0,1300
2018-09-12,9.210000038146973,10.21500015258789,9.0,9.0,9.0,1553
2018-09-13,8.984999656677246,10.5,8.984999656677246,9.899999618530273,9.899999618530273,1607
2018-09-14,13.649999618530273,13.649999618530273,9.300000190734863,10.470000267028809,10.470000267028809,567
2018-09-17,9.765000343322754,13.5,9.0,9.149999618530273,9.149999618530273,887
2018-09-18,9.0,9.75,9.0,9.300000190734863,9.300000190734863,573
2018-09-19,9.65999984741211,11.550000190734863,9.539999961853027,10.515000343322754,10.515000343322754,2527
2018-09-20,11.25,11.25,10.260000228881836,10.5,10.5,967
2018-09-21,11.25,11.25,10.800000190734863,10.9350004196167,10.9350004196167,2593
2018-09-24,11.25,11.25,10.199999809265137,10.5,10.5,1073
2018-09-25,11.100000381469727,11.25,10.170000076293945,11.25,11.25,1947
2018-09-26,11.25,11.25,10.649999618530273,11.25,11.25,920
2018-09-27,11.25,11.25,10.199999809265137,11.100000381469727,11.100000381469727,633
2018-09-28,9.0,10.21500015258789,9.0,10.21500015258789,10.21500015258789,1140
2018-10-01,10.5,10.5,9.149999618530273,9.449999809265137,9.449999809265137,480
2018-10-02,10.949999809265137,10.949999809265137,9.75,9.75,9.75,193
2018-10-03,9.75,9.75,9.75,9.75,9.75,33
2018-10-04,10.425000190734863,10.5,9.930000305175781,9.930000305175781,9.930000305175781,180
2018-10-05,9.899999618530273,10.350000381469727,9.899999618530273,10.350000381469727,10.350000381469727,220
2018-10-08,9.524999618530273,10.350000381469727,9.029999732971191,9.029999732971191,9.029999732971191,413
2018-10-09,9.75,9.75,9.734999656677246,9.75,9.75,1187
2018-10-10,9.75,9.75,9.75,9.75,9.75,13
2018-10-11,9.75,9.75,9.239999771118164,9.239999771118164,9.239999771118164,107
2018-10-12,9.75,9.75,9.149999618530273,9.555000305175781,9.555000305175781,287
2018-10-15,9.300000190734863,9.479999542236328,9.300000190734863,9.479999542236328,9.479999542236328,533
2018-10-16,9.180000305175781,10.050000190734863,9.180000305175781,10.050000190734863,10.050000190734863,493
2018-10-17,9.944999694824219,9.944999694824219,9.149999618530273,9.300000190734863,9.300000190734863,233
2018-10-18,9.600000381469727,9.600000381469727,9.239999771118164,9.239999771118164,9.239999771118164,660
2018-10-19,9.239999771118164,9.239999771118164,9.239999771118164,9.239999771118164,9.239999771118164,0
2018-10-22,9.074999809265137,9.074999809265137,9.074999809265137,9.074999809265137,9.074999809265137,27
2018-10-23,9.149999618530273,10.050000190734863,9.149999618530273,9.149999618530273,9.149999618530273,527
2018-10-24,9.0,10.050000190734863,6.449999809265137,7.965000152587891,7.965000152587891,1620
2018-10-25,8.984999656677246,10.050000190734863,6.900000095367432,10.050000190734863,10.050000190734863,1160
2018-10-26,10.050000190734863,10.199999809265137,7.199999809265137,8.595000267028809,8.595000267028809,693
2018-10-29,9.75,9.75,8.699999809265137,8.699999809265137,8.699999809265137,320
2018-10-30,8.699999809265137,9.675000190734863,8.34000015258789,9.675000190734863,9.675000190734863,980
2018-10-31,9.899999618530273,9.899999618530273,9.75,9.899999618530273,9.899999618530273,73
2018-11-01,9.75,10.050000190734863,8.895000457763672,10.050000190734863,10.050000190734863,367
2018-11-02,9.045000076293945,9.600000381469727,9.0,9.600000381469727,9.600000381469727,487
2018-11-05,10.199999809265137,10.350000381469727,9.09000015258789,9.09000015258789,9.09000015258789,547
2018-11-06,9.09000015258789,9.09000015258789,9.09000015258789,9.09000015258789,9.09000015258789,0
2018-11-07,10.350000381469727,10.350000381469727,9.75,9.8100004196167,9.8100004196167,553
2018-11-08,7.965000152587891,9.899999618530273,7.965000152587891,9.75,9.75,633
2018-11-09,9.149999618530273,9.149999618530273,9.149999618530273,9.149999618530273,9.149999618530273,40
2018-11-12,9.75,9.75,9.75,9.75,9.75,240
2018-11-13,9.75,9.75,9.75,9.75,9.75,7
2018-11-14,9.75,9.75,9.569999694824219,9.600000381469727,9.600000381469727,260
2018-11-15,9.75,9.899999618530273,9.75,9.75,9.75,500
2018-11-16,9.75,9.75,9.225000381469727,9.225000381469727,9.225000381469727,200
2018-11-19,9.28499984741211,9.28499984741211,9.225000381469727,9.225000381469727,9.225000381469727,100
2018-11-20,9.225000381469727,9.359999656677246,9.225000381469727,9.225000381469727,9.225000381469727,480
2018-11-21,9.149999618530273,9.149999618530273,9.149999618530273,9.149999618530273,9.149999618530273,273
2018-11-23,9.149999618530273,10.199999809265137,9.149999618530273,10.199999809265137,10.199999809265137,433
2018-11-26,9.149999618530273,11.53499984741211,9.149999618530273,10.229999542236328,10.229999542236328,3187
2018-11-27,8.444999694824219,10.5,8.444999694824219,9.854999542236328,9.854999542236328,567
2018-11-28,10.800000190734863,13.050000190734863,10.800000190734863,12.0,12.0,2040
2018-11-29,12.0,12.899999618530273,12.0,12.899999618530273,12.899999618530273,1487
2018-11-30,13.5,13.649999618530273,12.899999618530273,13.5,13.5,680
2018-12-03,14.609999656677246,14.609999656677246,12.149999618530273,13.4399995803833,13.4399995803833,2793
2018-12-04,13.5,14.25,11.100000381469727,14.25,14.25,1987
2018-12-06,12.75,12.75,11.25,12.720000267028809,12.720000267028809,953
2018-12-07,12.65999984741211,12.720000267028809,11.234999656677246,12.569999694824219,12.569999694824219,227
2018-12-10,12.449999809265137,12.449999809265137,7.829999923706055,11.850000381469727,11.850000381469727,4127
2018-12-11,11.850000381469727,12.300000190734863,9.765000343322754,12.300000190734863,12.300000190734863,67
2018-12-12,12.300000190734863,12.75,9.0,12.524999618530273,12.524999618530273,1687
2018-12-13,12.675000190734863,12.675000190734863,12.510000228881836,12.510000228881836,12.510000228881836,53
2018-12-14,12.510000228881836,12.510000228881836,12.510000228881836,12.510000228881836,12.510000228881836,0
2018-12-17,9.899999618530273,12.149999618530273,9.899999618530273,10.199999809265137,10.199999809265137,1180
2018-12-18,12.300000190734863,12.300000190734863,11.670000076293945,11.670000076293945,11.670000076293945,87
2018-12-19,11.670000076293945,11.670000076293945,11.670000076293945,11.670000076293945,11.670000076293945,7
2018-12-20,11.460000038146973,11.460000038146973,11.460000038146973,11.460000038146973,11.460000038146973,7
2018-12-21,10.350000381469727,10.350000381469727,10.199999809265137,10.199999809265137,10.199999809265137,80
2018-12-24,10.199999809265137,11.25,9.899999618530273,11.25,11.25,533
2018-12-26,11.25,11.25,11.25,11.25,11.25,73
2018-12-27,11.100000381469727,11.100000381469727,11.039999961853027,11.039999961853027,11.039999961853027,60
2018-12-28,10.5,11.100000381469727,10.5,11.100000381469727,11.100000381469727,127
2018-12-31,10.96500015258789,11.100000381469727,9.899999618530273,11.100000381469727,11.100000381469727,220
2019-01-02,10.949999809265137,10.949999809265137,9.074999809265137,9.074999809265137,9.074999809265137,3647
2019-01-03,9.074999809265137,9.899999618530273,9.074999809265137,9.899999618530273,9.899999618530273,1140
2019-01-04,9.899999618530273,9.899999618530273,9.225000381469727,9.225000381469727,9.225000381469727,153
2019-01-07,9.75,9.75,9.600000381469727,9.600000381469727,9.600000381469727,53
2019-01-08,9.600000381469727,9.600000381469727,9.494999885559082,9.494999885559082,9.494999885559082,40
2019-01-09,9.225000381469727,9.600000381469727,9.225000381469727,9.600000381469727,9.600000381469727,900
2019-01-10,9.824999809265137,9.899999618530273,9.824999809265137,9.899999618530273,9.899999618530273,153
2019-01-11,9.75,9.75,9.300000190734863,9.75,9.75,260
2019-01-14,9.899999618530273,11.25,9.899999618530273,10.574999809265137,10.574999809265137,1513
2019-01-15,10.305000305175781,10.800000190734863,9.75,9.84000015258789,9.84000015258789,400
2019-01-16,10.5,10.5,10.5,10.5,10.5,273
2019-01-17,10.5,10.5,10.5,10.5,10.5,7
2019-01-18,9.75,9.75,9.75,9.75,9.75,47
2019-01-22,9.524999618530273,10.5,9.0,10.5,10.5,4600
2019-01-23,10.050000190734863,10.425000190734863,9.149999618530273,10.425000190734863,10.425000190734863,120
2019-01-24,10.350000381469727,10.949999809265137,7.650000095367432,10.229999542236328,10.229999542236328,1167
2019-01-25,9.045000076293945,10.199999809265137,9.045000076293945,10.199999809265137,10.199999809265137,327
2019-01-28,10.199999809265137,10.199999809265137,10.199999809265137,10.199999809265137,10.199999809265137,7
2019-01-29,9.149999618530273,9.75,9.149999618530273,9.600000381469727,9.600000381469727,60
2019-01-30,9.75,9.75,9.300000190734863,9.300000190734863,9.300000190734863,27
2019-01-31,9.300000190734863,9.4350004196167,9.300000190734863,9.4350004196167,9.4350004196167,347
2019-02-01,9.300000190734863,9.765000343322754,8.699999809265137,9.75,9.75,1333
2019-02-04,9.75,9.75,9.75,9.75,9.75,20
2019-02-05,8.444999694824219,9.149999618530273,8.444999694824219,9.149999618530273,9.149999618530273,347
2019-02-06,8.550000190734863,9.149999618530273,8.550000190734863,9.149999618530273,9.149999618530273,67
2019-02-07,8.550000190734863,8.550000190734863,8.399999618530273,8.399999618530273,8.399999618530273,133
2019-02-08,8.399999618530273,8.399999618530273,8.399999618530273,8.399999618530273,8.399999618530273,33
2019-02-11,8.399999618530273,9.0,8.399999618530273,9.0,9.0,33
2019-02-12,9.0,9.0,9.0,9.0,9.0,40
2019-02-13,9.0,9.0,8.399999618530273,8.399999618530273,8.399999618530273,73
2019-02-14,9.0,9.300000190734863,9.0,9.029999732971191,9.029999732971191,273
2019-02-15,9.149999618530273,9.300000190734863,9.149999618530273,9.300000190734863,9.300000190734863,693
2019-02-19,8.399999618530273,9.675000190734863,8.399999618530273,9.300000190734863,9.300000190734863,700
2019-02-20,9.074999809265137,9.28499984741211,6.014999866485596,7.800000190734863,7.800000190734863,4040
2019-02-21,7.949999809265137,7.949999809265137,7.425000190734863,7.724999904632568,7.724999904632568,427
2019-02-22,7.949999809265137,8.475000381469727,7.949999809265137,8.399999618530273,8.399999618530273,540
2019-02-25,7.800000190734863,8.100000381469727,7.050000190734863,8.100000381469727,8.100000381469727,2040
2019-02-26,7.949999809265137,7.949999809265137,7.949999809265137,7.949999809265137,7.949999809265137,40
2019-02-27,7.875,7.875,7.875,7.875,7.875,40
2019-02-28,8.550000190734863,8.550000190734863,7.320000171661377,8.550000190734863,8.550000190734863,1447
2019-03-01,8.625,8.625,7.800000190734863,7.800000190734863,7.800000190734863,127
2019-03-04,7.800000190734863,8.25,7.320000171661377,8.25,8.25,647
2019-03-05,8.399999618530273,9.0,8.220000267028809,8.850000381469727,8.850000381469727,587
2019-03-06,8.15999984741211,9.0,7.5,9.0,9.0,540
2019-03-07,8.550000190734863,9.0,8.550000190734863,8.774999618530273,8.774999618530273,467
2019-03-08,7.664999961853027,8.970000267028809,7.650000095367432,8.970000267028809,8.970000267028809,380
2019-03-11,9.0,9.0,9.0,9.0,9.0,53
2019-03-12,8.850000381469727,8.850000381469727,7.800000190734863,8.850000381469727,8.850000381469727,33
2019-03-13,7.650000095367432,8.90999984741211,5.309999942779541,7.710000038146973,7.710000038146973,5020
2019-03-14,7.800000190734863,8.550000190734863,7.800000190734863,7.920000076293945,7.920000076293945,1540
2019-03-15,8.324999809265137,8.550000190734863,8.100000381469727,8.25,8.25,233
2019-03-18,8.25,8.25,7.949999809265137,8.204999923706055,8.204999923706055,227
2019-03-19,7.949999809265137,7.949999809265137,7.5,7.5,7.5,1293
2019-03-20,8.220000267028809,8.220000267028809,7.875,7.949999809265137,7.949999809265137,313
2019-03-21,7.949999809265137,8.399999618530273,7.949999809265137,7.949999809265137,7.949999809265137,387
2019-03-22,5.474999904632568,8.324999809265137,5.474999904632568,7.860000133514404,7.860000133514404,433
2019-03-25,8.550000190734863,8.550000190734863,7.5,7.815000057220459,7.815000057220459,207
2019-03-26,7.349999904632568,8.25,7.349999904632568,8.25,8.25,1387
2019-03-27,6.960000038146973,8.550000190734863,6.764999866485596,8.550000190734863,8.550000190734863,453
2019-03-28,8.550000190734863,8.550000190734863,8.475000381469727,8.550000190734863,8.550000190734863,133
2019-03-29,8.550000190734863,8.550000190734863,8.489999771118164,8.489999771118164,8.489999771118164,20
2019-04-01,8.550000190734863,9.300000190734863,7.304999828338623,9.300000190734863,9.300000190734863,807
2019-04-02,8.850000381469727,8.850000381469727,8.550000190734863,8.550000190734863,8.550000190734863,20
2019-04-03,8.399999618530273,8.399999618530273,8.399999618530273,8.399999618530273,8.399999618530273,7
2019-04-04,6.809999942779541,6.900000095367432,6.809999942779541,6.900000095367432,6.900000095367432,180
2019-04-05,6.75,8.399999618530273,6.75,7.994999885559082,7.994999885559082,73
2019-04-08,6.764999866485596,8.970000267028809,6.764999866485596,8.3100004196167,8.3100004196167,320
2019-04-09,8.850000381469727,8.850000381469727,8.850000381469727,8.850000381469727,8.850000381469727,33
2019-04-10,7.889999866485596,7.889999866485596,7.5,7.5,7.5,287
2019-04-11,7.5,7.5,7.5,7.5,7.5,260
2019-04-12,7.650000095367432,8.25,6.869999885559082,8.25,8.25,2007
2019-04-15,8.550000190734863,8.850000381469727,7.949999809265137,8.850000381469727,8.850000381469727,827
2019-04-16,7.635000228881836,7.635000228881836,7.635000228881836,7.635000228881836,7.635000228881836,33
2019-04-17,7.125,9.074999809265137,7.125,7.46999979019165,7.46999979019165,573
2019-04-18,8.25,8.25,7.050000190734863,7.934999942779541,7.934999942779541,340
2019-04-22,7.019999980926514,7.5,7.019999980926514,7.5,7.5,340
2019-04-23,7.199999809265137,7.320000171661377,7.199999809265137,7.320000171661377,7.320000171661377,67
2019-04-24,7.199999809265137,7.5,6.75,7.5,7.5,1053
2019-04-25,7.5,7.5,6.764999866485596,7.5,7.5,1927
2019-04-26,7.349999904632568,7.485000133514404,5.96999979019165,6.75,6.75,4433
2019-04-29,6.75,6.75,6.75,6.75,6.75,0
2019-04-30,5.550000190734863,6.75,3.9600000381469727,5.519999980926514,5.519999980926514,1620
2019-05-01,6.0,6.75,4.5,6.75,6.75,1980
2019-05-02,7.5,8.25,6.34499979019165,6.34499979019165,6.34499979019165,5100
2019-05-03,7.5,8.25,6.75,8.25,8.25,4420
2019-05-06,8.399999618530273,8.399999618530273,8.25,8.25,8.25,2180
2019-05-07,7.199999809265137,7.5,6.75,7.199999809265137,7.199999809265137,2313
2019-05-08,7.275000095367432,7.349999904632568,7.199999809265137,7.260000228881836,7.260000228881836,1627
2019-05-09,7.199999809265137,7.5,7.199999809265137,7.349999904632568,7.349999904632568,533
2019-05-10,7.349999904632568,7.485000133514404,7.199999809265137,7.199999809265137,7.199999809265137,720
2019-05-13,4.650000095367432,7.199999809265137,4.650000095367432,7.199999809265137,7.199999809265137,967
2019-05-14,7.199999809265137,7.199999809265137,6.0,6.0,6.0,93
2019-05-15,6.900000095367432,6.900000095367432,6.900000095367432,6.900000095367432,6.900000095367432,40
2019-05-16,7.199999809265137,7.199999809265137,6.0,6.300000190734863,6.300000190734863,253
2019-05-17,6.300000190734863,6.75,6.300000190734863,6.75,6.75,1213
2019-05-20,6.300000190734863,7.199999809265137,6.300000190734863,7.199999809265137,7.199999809265137,147
2019-05-21,6.75,6.75,6.300000190734863,6.300000190734863,6.300000190734863,200
2019-05-22,6.900000095367432,6.900000095367432,6.71999979019165,6.75,6.75,2673
2019-05-23,6.75,7.5,6.75,7.320000171661377,7.320000171661377,827
2019-05-24,7.050000190734863,7.5,6.900000095367432,7.050000190734863,7.050000190734863,2953
2019-05-28,7.199999809265137,7.800000190734863,7.050000190734863,7.349999904632568,7.349999904632568,1573
2019-05-29,6.75,7.364999771118164,6.75,7.199999809265137,7.199999809265137,227
2019-05-30,7.199999809265137,7.199999809265137,7.050000190734863,7.050000190734863,7.050000190734863,373
2019-05-31,7.949999809265137,7.949999809265137,7.695000171661377,7.695000171661377,7.695000171661377,933
2019-06-03,8.100000381469727,8.100000381469727,5.925000190734863,5.925000190734863,5.925000190734863,813
2019-06-04,6.300000190734863,7.425000190734863,6.300000190734863,7.005000114440918,7.005000114440918,647
2019-06-05,6.0,7.199999809265137,6.0,6.75,6.75,300
2019-06-06,7.425000190734863,8.6850004196167,7.425000190734863,8.25,8.25,5880
2019-06-07,8.100000381469727,9.300000190734863,8.100000381469727,9.300000190734863,9.300000190734863,4480
2019-06-10,9.300000190734863,9.300000190734863,6.795000076293945,8.399999618530273,8.399999618530273,5667
2019-06-11,8.579999923706055,9.300000190734863,7.5,7.5,7.5,4473
2019-06-12,7.5,8.024999618530273,7.5,8.024999618530273,8.024999618530273,3920
2019-06-13,7.5,9.300000190734863,6.300000190734863,9.300000190734863,9.300000190734863,4200
2019-06-14,9.600000381469727,9.600000381469727,8.25,8.850000381469727,8.850000381469727,60
2019-06-17,9.75,9.75,7.800000190734863,9.0,9.0,533
2019-06-18,8.25,9.449999809265137,8.25,9.0,9.0,333
2019-06-19,8.25,8.550000190734863,8.25,8.550000190734863,8.550000190734863,407
2019-06-20,7.5,9.524999618530273,7.5,8.595000267028809,8.595000267028809,1113
2019-06-21,8.100000381469727,9.300000190734863,8.100000381469727,9.0,9.0,520
2019-06-24,8.1899995803833,8.699999809265137,8.1899995803833,8.699999809265137,8.699999809265137,813
2019-06-25,9.600000381469727,9.600000381469727,9.149999618530273,9.600000381469727,9.600000381469727,3047
2019-06-26,9.824999809265137,9.824999809265137,8.699999809265137,9.149999618530273,9.149999618530273,887
2019-06-27,9.149999618530273,9.149999618530273,9.149999618530273,9.149999618530273,9.149999618530273,167
2019-06-28,9.300000190734863,9.300000190734863,8.850000381469727,8.850000381469727,8.850000381469727,3000
2019-07-01,8.850000381469727,8.850000381469727,8.850000381469727,8.850000381469727,8.850000381469727,0
2019-07-02,8.850000381469727,9.149999618530273,7.5,7.5,7.5,1713
2019-07-03,8.850000381469727,8.850000381469727,8.850000381469727,8.850000381469727,8.850000381469727,73
2019-07-05,8.699999809265137,8.699999809265137,7.5,7.5,7.5,113
2019-07-08,7.980000019073486,8.699999809265137,7.949999809265137,8.699999809265137,8.699999809265137,187
2019-07-09,7.650000095367432,8.954999923706055,7.650000095367432,8.699999809265137,8.699999809265137,847
2019-07-10,7.5,8.100000381469727,7.5,8.100000381469727,8.100000381469727,640
2019-07-11,7.949999809265137,8.699999809265137,7.5,7.5,7.5,200
2019-07-12,7.800000190734863,8.699999809265137,7.800000190734863,8.550000190734863,8.550000190734863,1360
2019-07-15,7.5,8.399999618530273,7.5,7.5,7.5,4040
2019-07-16,7.5,7.724999904632568,6.900000095367432,7.5,7.5,960
2019-07-17,6.0,7.5,5.59499979019165,7.5,7.5,3640
2019-07-18,7.5,7.5,6.75,6.75,6.75,1133
2019-07-19,7.199999809265137,7.199999809265137,6.75,6.75,6.75,320
2019-07-22,7.949999809265137,7.949999809265137,7.050000190734863,7.050000190734863,7.050000190734863,440
2019-07-23,7.949999809265137,7.949999809265137,6.75,7.800000190734863,7.800000190734863,1580
2019-07-24,7.800000190734863,7.800000190734863,6.599999904632568,7.800000190734863,7.800000190734863,2547
2019-07-25,7.800000190734863,8.520000457763672,6.599999904632568,6.659999847412109,6.659999847412109,1620
2019-07-26,6.824999809265137,7.949999809265137,6.824999809265137,7.949999809265137,7.949999809265137,253
2019-07-29,7.739999771118164,7.739999771118164,6.300000190734863,6.40500020980835,6.40500020980835,307
2019-07-30,7.739999771118164,7.949999809265137,7.739999771118164,7.949999809265137,7.949999809265137,167
2019-07-31,7.545000076293945,7.949999809265137,7.545000076293945,7.934999942779541,7.934999942779541,187
2019-08-01,7.920000076293945,7.949999809265137,6.75,7.949999809265137,7.949999809265137,353
2019-08-02,8.100000381469727,8.25,6.449999809265137,8.25,8.25,600
2019-08-05,8.399999618530273,8.399999618530273,6.449999809265137,8.399999618530273,8.399999618530273,2133
2019-08-06,6.449999809265137,7.949999809265137,6.449999809265137,6.449999809265137,6.449999809265137,240
2019-08-07,6.75,7.949999809265137,6.75,7.650000095367432,7.650000095367432,93
2019-08-08,6.449999809265137,7.650000095367432,6.449999809265137,7.650000095367432,7.650000095367432,2500
2019-08-09,8.699999809265137,8.699999809265137,6.329999923706055,7.394999980926514,7.394999980926514,1100
2019-08-12,6.449999809265137,7.800000190734863,6.150000095367432,7.485000133514404,7.485000133514404,600
2019-08-13,6.300000190734863,7.349999904632568,6.014999866485596,7.349999904632568,7.349999904632568,160
2019-08-14,7.304999828338623,7.304999828338623,5.699999809265137,7.199999809265137,7.199999809265137,147
2019-08-15,7.199999809265137,7.199999809265137,7.199999809265137,7.199999809265137,7.199999809265137,40
2019-08-16,7.199999809265137,7.199999809265137,7.199999809265137,7.199999809265137,7.199999809265137,0
2019-08-19,7.199999809265137,7.199999809265137,5.789999961853027,5.789999961853027,5.789999961853027,1420
2019-08-20,7.320000171661377,7.320000171661377,7.320000171661377,7.320000171661377,7.320000171661377,100
2019-08-21,6.150000095367432,6.150000095367432,5.775000095367432,5.925000190734863,5.925000190734863,540
2019-08-22,5.639999866485596,6.900000095367432,5.579999923706055,6.71999979019165,6.71999979019165,160
2019-08-23,6.585000038146973,6.585000038146973,5.715000152587891,5.849999904632568,5.849999904632568,733
2019-08-26,6.224999904632568,6.585000038146973,5.849999904632568,6.585000038146973,6.585000038146973,993
2019-08-27,6.599999904632568,6.974999904632568,5.849999904632568,5.849999904632568,5.849999904632568,87
2019-08-28,5.849999904632568,5.849999904632568,5.849999904632568,5.849999904632568,5.849999904632568,0
2019-08-29,5.579999923706055,6.75,5.579999923706055,6.75,6.75,347
2019-08-30,5.880000114440918,5.880000114440918,5.880000114440918,5.880000114440918,5.880000114440918,53
2019-09-03,5.849999904632568,5.849999904632568,4.650000095367432,4.650000095367432,4.650000095367432,160
2019-09-04,5.25,6.599999904632568,4.724999904632568,5.25,5.25,553
2019-09-05,6.449999809265137,6.824999809265137,6.014999866485596,6.824999809265137,6.824999809265137,1700
2019-09-06,7.5,8.25,5.400000095367432,6.300000190734863,6.300000190734863,8147
2019-09-09,5.474999904632568,7.5,5.474999904632568,6.0,6.0,153
2019-09-10,7.5,8.25,5.550000190734863,8.25,8.25,1240
2019-09-11,6.150000095367432,6.150000095367432,5.550000190734863,5.550000190734863,5.550000190734863,3300
2019-09-12,5.849999904632568,6.389999866485596,5.849999904632568,6.389999866485596,6.389999866485596,40
2019-09-13,6.570000171661377,6.570000171661377,5.760000228881836,5.849999904632568,5.849999904632568,787
2019-09-16,6.630000114440918,6.75,6.630000114440918,6.75,6.75,493
2019-09-17,6.75,6.75,6.480000019073486,6.480000019073486,6.480000019073486,73
2019-09-18,6.599999904632568,6.630000114440918,5.849999904632568,5.849999904632568,5.849999904632568,400
2019-09-19,6.675000190734863,6.75,6.0,6.0,6.0,387
2019-09-20,6.75,7.485000133514404,6.75,7.485000133514404,7.485000133514404,133
2019-09-23,7.485000133514404,7.485000133514404,6.150000095367432,6.150000095367432,6.150000095367432,133
2019-09-24,6.150000095367432,6.150000095367432,6.150000095367432,6.150000095367432,6.150000095367432,7
2019-09-25,6.599999904632568,6.75,6.539999961853027,6.539999961853027,6.539999961853027,1140
2019-09-26,7.199999809265137,8.100000381469727,6.0,7.90500020980835,7.90500020980835,1440
2019-09-27,8.234999656677246,8.234999656677246,7.5,8.234999656677246,8.234999656677246,147
2019-09-30,8.25,9.600000381469727,6.0,9.600000381469727,9.600000381469727,4787
2019-10-01,9.300000190734863,10.454999923706055,6.150000095367432,9.899999618530273,9.899999618530273,4853
2019-10-02,9.585000038146973,10.050000190734863,8.399999618530273,10.050000190734863,10.050000190734863,2687
2019-10-03,9.0,9.75,7.5,9.449999809265137,9.449999809265137,2407
2019-10-04,9.75,11.25,9.75,10.5,10.5,3293
2019-10-07,11.25,12.899999618530273,10.649999618530273,11.520000457763672,11.520000457763672,4287
2019-10-08,12.149999618530273,15.75,11.399999618530273,14.699999809265137,14.699999809265137,4760
2019-10-09,14.654999732971191,15.0,10.649999618530273,10.649999618530273,10.649999618530273,5333
2019-10-10,10.649999618530273,12.0,9.75,11.25,11.25,5433
2019-10-11,11.234999656677246,12.75,10.050000190734863,12.0,12.0,6980
2019-10-14,9.75,11.175000190734863,9.75,10.050000190734863,10.050000190734863,520
2019-10-15,10.350000381469727,10.350000381469727,9.300000190734863,9.75,9.75,1147
2019-10-16,9.4350004196167,9.524999618530273,7.815000057220459,9.28499984741211,9.28499984741211,3300
2019-10-17,7.875,9.300000190734863,7.800000190734863,9.300000190734863,9.300000190734863,1473
2019-10-18,12.300000190734863,12.300000190734863,7.440000057220459,7.5,7.5,1667
2019-10-21,7.09499979019165,8.25,6.300000190734863,7.050000190734863,7.050000190734863,2547
2019-10-22,8.175000190734863,8.175000190734863,6.224999904632568,8.100000381469727,8.100000381469727,2727
2019-10-23,7.5,7.5,6.300000190734863,7.454999923706055,7.454999923706055,580
2019-10-24,6.795000076293945,7.125,5.550000190734863,6.0,6.0,5187
2019-10-25,6.300000190734863,6.75,5.699999809265137,6.735000133514404,6.735000133514404,1753
2019-10-28,6.0,6.614999771118164,5.699999809265137,5.849999904632568,5.849999904632568,7987
2019-10-29,6.300000190734863,6.300000190734863,5.25,5.25,5.25,10720
2019-10-30,6.0,6.0,5.25,5.400000095367432,5.400000095367432,4253
2019-10-31,5.400000095367432,6.599999904632568,4.664999961853027,6.599999904632568,6.599999904632568,2273
2019-11-01,5.699999809265137,5.699999809265137,4.5,4.650000095367432,4.650000095367432,2580
2019-11-04,5.324999809265137,5.474999904632568,4.5,4.800000190734863,4.800000190734863,5780
2019-11-05,4.5,5.235000133514404,4.5,4.800000190734863,4.800000190734863,2667
2019-11-06,4.635000228881836,4.650000095367432,4.46999979019165,4.5,4.5,3087
2019-11-07,4.5,5.099999904632568,3.944999933242798,4.5,4.5,6967
2019-11-08,4.5,4.800000190734863,3.944999933242798,4.485000133514404,4.485000133514404,3893
2019-11-11,4.5,4.5,4.349999904632568,4.349999904632568,4.349999904632568,493
2019-11-12,4.349999904632568,4.800000190734863,3.0,3.75,3.75,6733
2019-11-13,4.050000190734863,4.050000190734863,3.1500000953674316,3.450000047683716,3.450000047683716,3193
2019-11-14,3.75,4.5,3.450000047683716,4.5,4.5,3467
2019-11-15,4.800000190734863,5.099999904632568,4.5,5.025000095367432,5.025000095367432,1333
2019-11-18,5.099999904632568,5.849999904632568,5.099999904632568,5.849999904632568,5.849999904632568,273
2019-11-19,6.75,6.75,6.045000076293945,6.449999809265137,6.449999809265137,433
2019-11-20,4.800000190734863,6.75,4.800000190734863,4.949999809265137,4.949999809265137,1340
2019-11-21,4.889999866485596,6.045000076293945,3.9000000953674316,4.125,4.125,2833
2019-11-22,4.5,4.5,4.5,4.5,4.5,1493
2019-11-25,4.920000076293945,5.550000190734863,4.650000095367432,5.534999847412109,5.534999847412109,607
2019-11-26,4.829999923706055,5.400000095367432,4.829999923706055,5.400000095367432,5.400000095367432,660
2019-11-27,5.400000095367432,5.550000190734863,4.994999885559082,5.550000190734863,5.550000190734863,393
2019-11-29,5.550000190734863,5.550000190734863,5.550000190734863,5.550000190734863,5.550000190734863,0
2019-12-02,5.400000095367432,5.699999809265137,4.125,4.125,4.125,460
2019-12-03,4.199999809265137,4.199999809265137,4.125,4.125,4.125,333
2019-12-04,4.199999809265137,4.5,4.199999809265137,4.199999809265137,4.199999809265137,807
2019-12-05,4.199999809265137,4.394999980926514,4.199999809265137,4.394999980926514,4.394999980926514,247
2019-12-06,3.75,4.875,3.75,4.5,4.5,440
2019-12-09,4.5,4.5,4.5,4.5,4.5,20
2019-12-10,4.5,4.5,4.5,4.5,4.5,0
2019-12-11,5.309999942779541,5.309999942779541,5.309999942779541,5.309999942779541,5.309999942779541,20
2019-12-12,5.369999885559082,5.369999885559082,3.5999999046325684,3.674999952316284,3.674999952316284,1060
2019-12-13,4.5,4.5,4.230000019073486,4.5,4.5,320
2019-12-16,4.5,5.099999904632568,3.75,5.099999904632568,5.099999904632568,1407
2019-12-17,3.7950000762939453,4.800000190734863,3.7950000762939453,4.5,4.5,1227
2019-12-18,4.275000095367432,5.099999904632568,4.050000190734863,4.5,4.5,1060
2019-12-19,4.5,5.099999904632568,3.9000000953674316,5.099999904632568,5.099999904632568,1967
2019-12-20,5.099999904632568,5.099999904632568,4.514999866485596,5.099999904632568,5.099999904632568,407
2019-12-23,5.175000190734863,5.849999904632568,3.9000000953674316,5.849999904632568,5.849999904632568,680
2019-12-24,4.050000190734863,5.25,4.050000190734863,4.800000190734863,4.800000190734863,120
2019-12-26,5.699999809265137,5.699999809265137,4.440000057220459,4.574999809265137,4.574999809265137,80
2019-12-27,5.699999809265137,6.224999904632568,4.574999809265137,4.650000095367432,4.650000095367432,887
2019-12-30,4.650000095367432,5.25,4.619999885559082,5.25,5.25,500
2019-12-31,4.650000095367432,6.449999809265137,4.199999809265137,4.199999809265137,4.199999809265137,1500
2020-01-02,6.300000190734863,6.300000190734863,4.050000190734863,4.050000190734863,4.050000190734863,113
2020-01-03,4.199999809265137,4.199999809265137,4.199999809265137,4.199999809265137,4.199999809265137,13
2020-01-06,6.449999809265137,6.449999809265137,6.449999809265137,6.449999809265137,6.449999809265137,7
2020-01-07,5.775000095367432,5.775000095367432,4.5,4.800000190734863,4.800000190734863,1453
2020-01-08,4.800000190734863,4.800000190734863,4.800000190734863,4.800000190734863,4.800000190734863,67
2020-01-09,4.199999809265137,4.199999809265137,4.199999809265137,4.199999809265137,4.199999809265137,107
2020-01-10,3.9749999046325684,5.550000190734863,3.9749999046325684,4.199999809265137,4.199999809265137,1007
2020-01-13,5.699999809265137,5.699999809265137,4.5,4.800000190734863,4.800000190734863,773
2020-01-14,4.800000190734863,6.449999809265137,4.275000095367432,5.699999809265137,5.699999809265137,500
2020-01-15,4.364999771118164,4.364999771118164,4.364999771118164,4.364999771118164,4.364999771118164,13
2020-01-16,4.349999904632568,5.699999809265137,4.349999904632568,5.550000190734863,5.550000190734863,793
2020-01-17,5.699999809265137,5.849999904632568,5.25,5.849999904632568,5.849999904632568,640
2020-01-21,5.849999904632568,6.0,5.400000095367432,6.0,6.0,140
2020-01-22,6.0,6.0,4.514999866485596,6.0,6.0,1367
2020-01-23,4.650000095367432,6.0,4.545000076293945,6.0,6.0,2447
2020-01-24,6.0,6.0,6.0,6.0,6.0,0
2020-01-27,5.849999904632568,6.375,5.054999828338623,5.085000038146973,5.085000038146973,3693
2020-01-28,6.150000095367432,6.150000095367432,6.150000095367432,6.150000095367432,6.150000095367432,700
2020-01-29,5.0,6.0,4.579999923706055,6.0,6.0,1000
2020-01-30,5.75,6.0,5.75,6.0,6.0,700
2020-01-31,5.619999885559082,6.0,5.5,6.0,6.0,2600
2020-02-03,6.0,6.0,6.0,6.0,6.0,0
2020-02-04,5.820000171661377,5.820000171661377,5.820000171661377,5.820000171661377,5.820000171661377,0
2020-02-05,4.309999942779541,5.809999942779541,4.309999942779541,5.809999942779541,5.809999942779541,600
2020-02-06,5.809999942779541,5.809999942779541,5.809999942779541,5.809999942779541,5.809999942779541,0
2020-02-07,4.559999942779541,5.480000019073486,4.559999942779541,5.099999904632568,5.099999904632568,6000
2020-02-10,5.114999771118164,5.114999771118164,4.480000019073486,5.079999923706055,5.079999923706055,1300
2020-02-11,4.550000190734863,5.050000190734863,4.550000190734863,5.050000190734863,5.050000190734863,300
2020-02-12,4.880000114440918,4.880000114440918,4.75,4.75,4.75,800
2020-02-13,4.699999809265137,4.699999809265137,4.0,4.699999809265137,4.699999809265137,2800
2020-02-14,4.050000190734863,5.25,3.0,5.179999828338623,5.179999828338623,4700
2020-02-18,3.799999952316284,5.0,3.799999952316284,4.824999809265137,4.824999809265137,2000
2020-02-19,5.099999904632568,5.099999904632568,3.884000062942505,5.050000190734863,5.050000190734863,2300
2020-02-20,5.699999809265137,6.480000019073486,4.480000019073486,6.480000019073486,6.480000019073486,6800
2020-02-21,5.5,5.5,5.0,5.5,5.5,5300
2020-02-24,5.25,5.900000095367432,5.0,5.699999809265137,5.699999809265137,1100
2020-02-25,5.840000152587891,6.0,5.840000152587891,6.0,6.0,500
2020-02-26,5.940000057220459,6.0,4.340000152587891,5.650000095367432,5.650000095367432,4800
2020-02-27,5.579999923706055,5.599999904632568,5.300000190734863,5.300000190734863,5.300000190734863,3300
2020-02-28,5.590000152587891,5.590000152587891,5.099999904632568,5.550000190734863,5.550000190734863,2700
2020-03-02,4.764999866485596,5.550000190734863,4.764999866485596,5.550000190734863,5.550000190734863,600
2020-03-03,5.550000190734863,5.550000190734863,5.550000190734863,5.550000190734863,5.550000190734863,200
2020-03-04,5.550000190734863,5.550000190734863,5.550000190734863,5.550000190734863,5.550000190734863,0
2020-03-05,5.550000190734863,5.550000190734863,5.550000190734863,5.550000190734863,5.550000190734863,0
2020-03-06,5.550000190734863,5.550000190734863,5.550000190734863,5.550000190734863,5.550000190734863,0
2020-03-09,5.5,5.5,5.010000228881836,5.010000228881836,5.010000228881836,2400
2020-03-10,5.300000190734863,5.300000190734863,5.300000190734863,5.300000190734863,5.300000190734863,400
2020-03-11,4.25,5.489999771118164,4.0,5.489999771118164,5.489999771118164,2600
2020-03-12,5.489999771118164,5.489999771118164,5.489999771118164,5.489999771118164,5.489999771118164,0
2020-03-13,4.300000190734863,4.300000190734863,4.300000190734863,4.300000190734863,4.300000190734863,1000
2020-03-16,3.740000009536743,3.75,3.740000009536743,3.75,3.75,1900
2020-03-17,3.75,3.75,3.75,3.75,3.75,200
2020-03-18,3.75,3.75,3.700000047683716,3.700000047683716,3.700000047683716,500
2020-03-19,3.6600000858306885,3.6600000858306885,3.6600000858306885,3.6600000858306885,3.6600000858306885,200
2020-03-20,3.3550000190734863,3.6700000762939453,3.200000047683716,3.549999952316284,3.549999952316284,3900
2020-03-23,3.25,3.25,2.569999933242798,2.630000114440918,2.630000114440918,2500
2020-03-24,3.25,3.25,3.25,3.25,3.25,700
2020-03-25,3.0,3.25,3.0,3.25,3.25,900
2020-03-26,3.746999979019165,3.746999979019165,3.746999979019165,3.746999979019165,3.746999979019165,300
2020-03-27,3.25,3.25,3.25,3.25,3.25,100
2020-03-30,3.259999990463257,3.259999990463257,3.259999990463257,3.259999990463257,3.259999990463257,300
2020-03-31,3.740000009536743,3.740000009536743,3.7300000190734863,3.7300000190734863,3.7300000190734863,500
2020-04-01,3.7300000190734863,4.0,3.7300000190734863,4.0,4.0,3800
2020-04-02,3.75,4.0,3.2699999809265137,3.4000000953674316,3.4000000953674316,2300
2020-04-03,3.4000000953674316,3.4000000953674316,3.4000000953674316,3.4000000953674316,3.4000000953674316,0
2020-04-06,3.4000000953674316,3.4000000953674316,3.4000000953674316,3.4000000953674316,3.4000000953674316,300
2020-04-07,3.3499999046325684,3.9000000953674316,3.3499999046325684,3.9000000953674316,3.9000000953674316,1600
2020-04-08,3.799999952316284,3.799999952316284,3.799999952316284,3.799999952316284,3.799999952316284,500
2020-04-09,3.799999952316284,3.799999952316284,3.799999952316284,3.799999952316284,3.799999952316284,0
2020-04-13,3.5,3.5,3.4000000953674316,3.4000000953674316,3.4000000953674316,2200
2020-04-14,3.0,3.0,2.4000000953674316,2.8499999046325684,2.8499999046325684,264600
2020-04-15,2.8399999141693115,3.009999990463257,2.6500000953674316,2.950000047683716,2.950000047683716,101400
2020-04-16,3.0,3.869999885559082,2.799999952316284,3.3499999046325684,3.3499999046325684,622400
2020-04-17,3.690000057220459,3.690000057220459,3.359999895095825,3.4100000858306885,3.4100000858306885,195400
2020-04-20,3.700000047683716,4.099999904632568,3.1600000858306885,3.4000000953674316,3.4000000953674316,489900
2020-04-21,3.5,3.5360000133514404,2.9100000858306885,3.200000047683716,3.200000047683716,171600
2020-04-22,3.3499999046325684,3.3499999046325684,3.1480000019073486,3.259999990463257,3.259999990463257,83600
2020-04-23,3.2899999618530273,3.3399999141693115,3.009999990463257,3.2679998874664307,3.2679998874664307,111900
2020-04-24,3.390000104904175,3.5,3.25,3.3299999237060547,3.3299999237060547,176800
2020-04-27,3.5399999618530273,3.549999952316284,3.3399999141693115,3.490000009536743,3.490000009536743,143800
2020-04-28,3.490000009536743,3.490000009536743,3.0799999237060547,3.2899999618530273,3.2899999618530273,119500
2020-04-29,3.25,3.490000009536743,3.130000114440918,3.359999895095825,3.359999895095825,121300
2020-04-30,3.4100000858306885,3.4100000858306885,3.200000047683716,3.259999990463257,3.259999990463257,86200
2020-05-01,3.309999942779541,3.7019999027252197,3.309999942779541,3.619999885559082,3.619999885559082,285200
2020-05-04,3.740000009536743,4.130000114440918,3.621000051498413,3.8499999046325684,3.8499999046325684,471100
2020-05-05,3.9600000381469727,4.099999904632568,3.7100000381469727,3.7699999809265137,3.7699999809265137,190900
2020-05-06,3.819999933242798,3.990000009536743,3.609999895095825,3.799999952316284,3.799999952316284,139300
2020-05-07,4.099999904632568,4.739999771118164,3.9000000953674316,4.11899995803833,4.11899995803833,1023900
2020-05-08,4.230000019073486,4.579999923706055,4.011000156402588,4.150000095367432,4.150000095367432,557100
2020-05-11,4.300000190734863,4.400000095367432,3.6500000953674316,3.9200000762939453,3.9200000762939453,386900
2020-05-12,3.880000114440918,4.349999904632568,3.8499999046325684,4.130000114440918,4.130000114440918,332200
2020-05-13,4.5,6.519999980926514,4.409999847412109,5.090000152587891,5.090000152587891,5150200
2020-05-14,5.050000190734863,5.300000190734863,4.349999904632568,4.730000019073486,4.730000019073486,721100
2020-05-15,4.809999942779541,5.054999828338623,4.5,4.760000228881836,4.760000228881836,419200
2020-05-18,5.300000190734863,5.400000095367432,4.75,5.010000228881836,5.010000228881836,694000
2020-05-19,5.0,5.050000190734863,4.699999809265137,4.699999809265137,4.699999809265137,406000
2020-05-20,4.75,4.900000095367432,4.28000020980835,4.5,4.5,551800
2020-05-21,4.409999847412109,4.449999809265137,4.110000133514404,4.28000020980835,4.28000020980835,342100
2020-05-22,4.199999809265137,4.400000095367432,3.859999895095825,4.079999923706055,4.079999923706055,427300
2020-05-26,4.579999923706055,4.590000152587891,4.179999828338623,4.25,4.25,348300
2020-05-27,4.449999809265137,4.449999809265137,3.934999942779541,4.25,4.25,257500
2020-05-28,4.199999809265137,6.0,4.150000095367432,5.420000076293945,5.420000076293945,3350300
2020-05-29,5.25,9.75,5.23199987411499,8.850000381469727,8.850000381469727,10276400
2020-06-01,8.0,8.600000381469727,7.25,7.900000095367432,7.900000095367432,2951700
2020-06-02,7.800000190734863,8.0,7.019999980926514,7.199999809265137,7.199999809265137,1224500
2020-06-03,7.25,8.970000267028809,7.179999828338623,7.900000095367432,7.900000095367432,3408100
2020-06-04,8.039999961853027,8.600000381469727,7.5,7.840000152587891,7.840000152587891,1225400
2020-06-05,8.069999694824219,8.100000381469727,6.53000020980835,6.659999847412109,6.659999847412109,1374500
2020-06-08,6.619999885559082,6.75,6.019999980926514,6.519999980926514,6.519999980926514,811300
2020-06-09,6.369999885559082,7.170000076293945,6.349999904632568,6.75,6.75,922400
2020-06-10,6.769999980926514,6.949999809265137,6.159999847412109,6.329999923706055,6.329999923706055,717700
2020-06-11,5.809999942779541,6.25,5.449999809265137,5.449999809265137,5.449999809265137,781000
2020-06-12,5.820000171661377,6.050000190734863,5.559999942779541,5.75,5.75,329700
2020-06-15,5.539999961853027,6.960000038146973,5.320000171661377,6.46999979019165,6.46999979019165,938000
2020-06-16,6.71999979019165,7.0,6.239999771118164,6.900000095367432,6.900000095367432,473000
2020-06-17,6.800000190734863,7.440000057220459,6.46999979019165,6.590000152587891,6.590000152587891,767800
2020-06-18,6.849999904632568,7.150000095367432,6.670000076293945,7.019999980926514,7.019999980926514,499700
2020-06-19,7.159999847412109,7.760000228881836,6.75,6.75,6.75,927800
2020-06-22,6.96999979019165,7.093999862670898,6.269999980926514,6.480000019073486,6.480000019073486,391300
2020-06-23,6.489999771118164,6.829999923706055,6.289999961853027,6.619999885559082,6.619999885559082,354400
2020-06-24,6.449999809265137,6.579999923706055,6.309999942779541,6.349999904632568,6.349999904632568,228400
2020-06-25,6.28000020980835,6.369999885559082,6.050000190734863,6.25,6.25,238700
2020-06-26,6.210000038146973,6.489999771118164,6.110000133514404,6.449999809265137,6.449999809265137,253400
2020-06-29,6.5,6.650000095367432,6.199999809265137,6.320000171661377,6.320000171661377,327300
2020-06-30,6.46999979019165,7.079999923706055,6.269999980926514,7.0,7.0,497600
2020-07-01,7.199999809265137,7.210000038146973,6.579999923706055,6.71999979019165,6.71999979019165,245900
2020-07-02,6.71999979019165,6.900000095367432,6.320000171661377,6.429999828338623,6.429999828338623,212400
2020-07-06,6.489999771118164,6.8520002365112305,6.25,6.349999904632568,6.349999904632568,254900
2020-07-07,8.100000381469727,8.199999809265137,6.110000133514404,6.239999771118164,6.239999771118164,2484900
2020-07-08,6.239999771118164,6.46999979019165,6.110000133514404,6.440000057220459,6.440000057220459,368200
2020-07-09,6.489999771118164,6.690000057220459,6.159999847412109,6.449999809265137,6.449999809265137,261300
2020-07-10,6.429999828338623,6.429999828338623,5.889999866485596,6.119999885559082,6.119999885559082,508700
2020-07-13,6.159999847412109,6.25,5.800000190734863,5.869999885559082,5.869999885559082,282400
2020-07-14,5.880000114440918,5.98799991607666,5.510000228881836,5.880000114440918,5.880000114440918,139000
2020-07-15,5.989999771118164,6.230000019073486,5.840000152587891,5.96999979019165,5.96999979019165,164400
2020-07-16,6.099999904632568,6.46999979019165,5.849999904632568,6.119999885559082,6.119999885559082,412500
2020-07-17,6.199999809265137,6.2179999351501465,5.800000190734863,5.940000057220459,5.940000057220459,324100
2020-07-20,5.949999809265137,6.0,5.570000171661377,5.869999885559082,5.869999885559082,190900
2020-07-21,5.909999847412109,6.550000190734863,5.78000020980835,6.289999961853027,6.289999961853027,750100
2020-07-22,6.300000190734863,6.300000190734863,5.75,5.789999961853027,5.789999961853027,534300
2020-07-23,6.0,6.0,5.644999980926514,5.75,5.75,259800
2020-07-24,5.650000095367432,5.809999942779541,5.599999904632568,5.75,5.75,118100
2020-07-27,5.849999904632568,5.869999885559082,5.619999885559082,5.789999961853027,5.789999961853027,147900
2020-07-28,5.659999847412109,5.770999908447266,5.599999904632568,5.710000038146973,5.710000038146973,178400
2020-07-29,5.670000076293945,5.940000057220459,5.579999923706055,5.920000076293945,5.920000076293945,283200
2020-07-30,5.920000076293945,6.119999885559082,5.699999809265137,6.0,6.0,183800
2020-07-31,6.389999866485596,6.489999771118164,5.679999828338623,5.849999904632568,5.849999904632568,757100
2020-08-03,5.75,5.920000076293945,5.610000133514404,5.840000152587891,5.840000152587891,285500
2020-08-04,5.789999961853027,5.849999904632568,5.650000095367432,5.710000038146973,5.710000038146973,131900
2020-08-05,5.739999771118164,5.889999866485596,5.519999980926514,5.559999942779541,5.559999942779541,237200
2020-08-06,5.579999923706055,5.610000133514404,5.320000171661377,5.559999942779541,5.559999942779541,150200
2020-08-07,5.550000190734863,5.550000190734863,5.300000190734863,5.400000095367432,5.400000095367432,149200
2020-08-10,5.420000076293945,5.420000076293945,5.110000133514404,5.289999961853027,5.289999961853027,155500
2020-08-11,5.300000190734863,5.650000095367432,5.170000076293945,5.539999961853027,5.539999961853027,254800
2020-08-12,5.53000020980835,5.599999904632568,5.119999885559082,5.329999923706055,5.329999923706055,103300
2020-08-13,5.349999904632568,5.690000057220459,5.28000020980835,5.599999904632568,5.599999904632568,226900
2020-08-14,5.480000019073486,5.550000190734863,5.264999866485596,5.480000019073486,5.480000019073486,114600
2020-08-17,5.599999904632568,5.650000095367432,5.429999828338623,5.610000133514404,5.610000133514404,157000
2020-08-18,5.539999961853027,5.829999923706055,5.369999885559082,5.820000171661377,5.820000171661377,112300
2020-08-19,5.800000190734863,6.139999866485596,5.650000095367432,5.699999809265137,5.699999809265137,715100
2020-08-20,6.0,6.199999809265137,5.909999847412109,5.985000133514404,5.985000133514404,502200
2020-08-21,5.889999866485596,5.9710001945495605,5.230000019073486,5.309999942779541,5.309999942779541,486600
2020-08-24,5.28000020980835,5.389999866485596,5.199999809265137,5.300000190734863,5.300000190734863,154900
2020-08-25,5.300000190734863,5.697999954223633,5.269999980926514,5.380000114440918,5.380000114440918,623300
2020-08-26,5.5,5.650000095367432,5.239999771118164,5.389999866485596,5.389999866485596,479800
2020-08-27,5.289999961853027,5.300000190734863,5.059999942779541,5.130000114440918,5.130000114440918,375200
2020-08-28,5.130000114440918,5.170000076293945,4.849999904632568,4.920000076293945,4.920000076293945,343900
2020-08-31,4.989999771118164,5.150000095367432,4.480000019073486,4.53000020980835,4.53000020980835,455200
2020-09-01,4.5,4.920000076293945,4.5,4.71999979019165,4.71999979019165,283900
2020-09-02,4.800000190734863,5.099999904632568,4.389999866485596,4.71999979019165,4.71999979019165,505200
2020-09-03,4.639999866485596,4.679999828338623,4.269999980926514,4.389999866485596,4.389999866485596,499600
2020-09-04,4.449999809265137,4.449999809265137,4.0,4.300000190734863,4.300000190734863,429900
2020-09-08,4.210000038146973,4.230000019073486,3.799999952316284,3.869999885559082,3.869999885559082,359000
2020-09-09,4.019999980926514,4.389999866485596,3.9079999923706055,4.25,4.25,750500
2020-09-10,4.400000095367432,4.420000076293945,3.9100000858306885,4.019999980926514,4.019999980926514,448500
2020-09-11,4.050000190734863,4.210000038146973,3.9100000858306885,4.130000114440918,4.130000114440918,169400
2020-09-14,4.099999904632568,4.269999980926514,3.9600000381469727,4.239999771118164,4.239999771118164,225300
2020-09-15,4.150000095367432,4.199999809265137,4.019999980926514,4.059999942779541,4.059999942779541,101700
2020-09-16,4.03000020980835,4.031000137329102,3.8299999237060547,3.9100000858306885,3.9100000858306885,243000
2020-09-17,4.260000228881836,4.559999942779541,4.099999904632568,4.5,4.5,1773700
2020-09-18,4.369999885559082,4.420000076293945,4.03000020980835,4.179999828338623,4.179999828338623,570900
2020-09-21,4.150000095367432,4.179999828338623,3.9700000286102295,4.099999904632568,4.099999904632568,242200
2020-09-22,4.079999923706055,4.300000190734863,4.03000020980835,4.159999847412109,4.159999847412109,280000
2020-09-23,4.179999828338623,4.179999828338623,3.690000057220459,3.950000047683716,3.950000047683716,362200
2020-09-24,3.8399999141693115,3.890000104904175,3.5899999141693115,3.6600000858306885,3.6600000858306885,326200
2020-09-25,3.680000066757202,4.0,3.549999952316284,3.890000104904175,3.890000104904175,192400
2020-09-28,3.940000057220459,4.119999885559082,3.7699999809265137,3.869999885559082,3.869999885559082,289600
2020-09-29,3.930000066757202,3.9649999141693115,3.7699999809265137,3.8499999046325684,3.8499999046325684,130200
2020-09-30,3.880000114440918,3.9000000953674316,3.755000114440918,3.869999885559082,3.869999885559082,123700
2020-10-01,4.0,4.21999979019165,4.0,4.210000038146973,4.210000038146973,286600
2020-10-02,4.090000152587891,4.289999961853027,3.930000066757202,4.25,4.25,214800
2020-10-05,4.28000020980835,4.400000095367432,4.019999980926514,4.349999904632568,4.349999904632568,243100
2020-10-06,4.300000190734863,4.769999980926514,4.275000095367432,4.46999979019165,4.46999979019165,348500
2020-10-07,4.639999866485596,4.900000095367432,4.5,4.619999885559082,4.619999885559082,367500
2020-10-08,4.820000171661377,4.88100004196167,4.349999904632568,4.599999904632568,4.599999904632568,354000
2020-10-09,4.550000190734863,4.900000095367432,4.260000228881836,4.690000057220459,4.690000057220459,358400
2020-10-12,4.760000228881836,4.900000095367432,4.510000228881836,4.690000057220459,4.690000057220459,198600
2020-10-13,4.71999979019165,4.800000190734863,4.449999809265137,4.789999961853027,4.789999961853027,278400
2020-10-14,4.849999904632568,4.949999809265137,4.570000171661377,4.710000038146973,4.710000038146973,218100
2020-10-15,4.699999809265137,4.760000228881836,4.309999942779541,4.510000228881836,4.510000228881836,225900
2020-10-16,4.5,5.429999828338623,4.401000022888184,5.260000228881836,5.260000228881836,451500
2020-10-19,5.400000095367432,5.699999809265137,5.179999828338623,5.429999828338623,5.429999828338623,440000
2020-10-20,5.349999904632568,5.434999942779541,5.199999809265137,5.289999961853027,5.289999961853027,188800
2020-10-21,5.260000228881836,5.380000114440918,4.760000228881836,4.840000152587891,4.840000152587891,200000
2020-10-22,4.889999866485596,5.239999771118164,4.610000133514404,4.789999961853027,4.789999961853027,292600
2020-10-23,4.849999904632568,5.0,4.559999942779541,4.599999904632568,4.599999904632568,226500
2020-10-26,4.849999904632568,4.960000038146973,4.46999979019165,4.800000190734863,4.800000190734863,791200
2020-10-27,4.71999979019165,4.77400016784668,4.599999904632568,4.650000095367432,4.650000095367432,152700
2020-10-28,4.599999904632568,4.929999828338623,4.420000076293945,4.570000171661377,4.570000171661377,323100
2020-10-29,4.570000171661377,4.659999847412109,4.329999923706055,4.360000133514404,4.360000133514404,106900
2020-10-30,4.309999942779541,4.570000171661377,4.050000190734863,4.300000190734863,4.300000190734863,192200
2020-11-02,4.349999904632568,4.363999843597412,4.199999809265137,4.21999979019165,4.21999979019165,88300
2020-11-03,4.25,4.489999771118164,4.224999904632568,4.360000133514404,4.360000133514404,129000
2020-11-04,4.420000076293945,4.5,4.21999979019165,4.329999923706055,4.329999923706055,82500
2020-11-05,4.349999904632568,4.670000076293945,4.25,4.539999961853027,4.539999961853027,153700
2020-11-06,4.550000190734863,4.550000190734863,4.300000190734863,4.440000057220459,4.440000057220459,49700
2020-11-09,4.679999828338623,4.679999828338623,4.25,4.289999961853027,4.289999961853027,94700
2020-11-10,4.400000095367432,4.5,4.21999979019165,4.28000020980835,4.28000020980835,71800
2020-11-11,4.409999847412109,4.429999828338623,4.210000038146973,4.255000114440918,4.255000114440918,71500
2020-11-12,4.389999866485596,4.389999866485596,4.119999885559082,4.150000095367432,4.150000095367432,104200
2020-11-13,4.28000020980835,4.46999979019165,4.190000057220459,4.429999828338623,4.429999828338623,117100
2020-11-16,4.599999904632568,4.639999866485596,4.429999828338623,4.559999942779541,4.559999942779541,123600
2020-11-17,4.5,4.5,4.099999904632568,4.223999977111816,4.223999977111816,316200
2020-11-18,4.21999979019165,4.5,4.130000114440918,4.230000019073486,4.230000019073486,429900
2020-11-19,4.230000019073486,4.300000190734863,4.114999771118164,4.159999847412109,4.159999847412109,253800
2020-11-20,4.150000095367432,4.300000190734863,3.950000047683716,4.269999980926514,4.269999980926514,414200
2020-11-23,4.25,4.25,4.03000020980835,4.090000152587891,4.090000152587891,262700
2020-11-24,4.110000133514404,4.230000019073486,3.990000009536743,4.079999923706055,4.079999923706055,293500
2020-11-25,4.070000171661377,4.119999885559082,3.9800000190734863,4.070000171661377,4.070000171661377,97400
2020-11-27,4.139999866485596,4.730000019073486,4.070000171661377,4.590000152587891,4.590000152587891,745400
2020-11-30,4.699999809265137,4.800000190734863,4.150000095367432,4.329999923706055,4.329999923706055,333300
2020-12-01,4.420000076293945,4.619999885559082,4.289999961853027,4.409999847412109,4.409999847412109,153200
2020-12-02,4.400000095367432,4.590000152587891,4.199999809265137,4.590000152587891,4.590000152587891,184100
2020-12-03,4.550000190734863,4.820000171661377,4.289999961853027,4.820000171661377,4.820000171661377,286000
2020-12-04,4.820000171661377,5.199999809265137,4.696000099182129,5.099999904632568,5.099999904632568,345100
2020-12-07,5.170000076293945,5.199999809265137,4.75,4.949999809265137,4.949999809265137,162000
2020-12-08,4.949999809265137,4.949999809265137,4.659999847412109,4.769999980926514,4.769999980926514,177600
2020-12-09,4.800000190734863,5.53000020980835,4.78000020980835,5.389999866485596,5.389999866485596,1147800
2020-12-10,5.440000057220459,5.809999942779541,5.329999923706055,5.75,5.75,572300
2020-12-11,5.800000190734863,5.800000190734863,5.400000095367432,5.519999980926514,5.519999980926514,269000
2020-12-14,5.599999904632568,5.642000198364258,5.120999813079834,5.340000152587891,5.340000152587891,175300
2020-12-15,5.75,6.510000228881836,5.5,6.25,6.25,1063500
2020-12-16,6.650000095367432,6.849999904632568,5.809999942779541,6.070000171661377,6.070000171661377,1018700
2020-12-17,6.0,6.210000038146973,5.789999961853027,5.960000038146973,5.960000038146973,619000
2020-12-18,5.909999847412109,6.730000019073486,5.909999847412109,6.53000020980835,6.53000020980835,700700
2020-12-21,6.159999847412109,7.099999904632568,6.099999904632568,7.039999961853027,7.039999961853027,595300
2020-12-22,7.059999942779541,7.070000171661377,6.400000095367432,6.650000095367432,6.650000095367432,353700
2020-12-23,6.789999961853027,7.300000190734863,6.400000095367432,7.170000076293945,7.170000076293945,553900
2020-12-24,7.110000133514404,7.300000190734863,6.849999904632568,7.21999979019165,7.21999979019165,334500
2020-12-28,7.320000171661377,7.47599983215332,6.800000190734863,7.010000228881836,7.010000228881836,305300
2020-12-29,7.0,7.090000152587891,6.550000190734863,6.920000076293945,6.920000076293945,194600
2020-12-30,7.0,7.099999904632568,6.610000133514404,6.699999809265137,6.699999809265137,226600
