Date,Open,High,Low,Close,Adj Close,Volume
2019-09-26,25.299999237060547,25.299999237060547,25.100000381469727,25.25,22.234399795532227,938200
2019-09-27,25.25,25.700000762939453,25.200000762939453,25.65999984741211,22.595430374145508,160700
2019-09-30,25.75,25.75,25.5,25.75,22.6746826171875,43400
2019-10-01,25.700000762939453,25.75,25.600000381469727,25.68000030517578,22.6130428314209,39000
2019-10-02,25.5,25.700000762939453,25.5,25.600000381469727,22.54259490966797,193100
2019-10-03,25.700000762939453,26.0,25.600000381469727,26.0,22.89482879638672,331700
2019-10-04,25.75,25.812000274658203,25.600000381469727,25.799999237060547,22.718706130981445,65400
2019-10-07,25.93000030517578,25.93000030517578,25.665000915527344,25.84000015258789,22.753934860229492,56100
2019-10-08,25.8799991607666,25.8799991607666,25.75,25.822999954223633,22.738962173461914,26800
2019-10-09,25.84000015258789,25.979999542236328,25.75,25.979999542236328,22.877216339111328,51700
2019-10-10,25.90999984741211,26.049999237060547,25.809999465942383,26.0,22.89482879638672,44700
2019-10-11,25.860000610351562,25.989999771118164,25.68000030517578,25.899999618530273,22.8067684173584,26000
2019-10-14,25.989999771118164,26.5,25.85300064086914,26.350000381469727,23.20302963256836,77400
2019-10-15,26.489999771118164,26.489999771118164,26.06999969482422,26.3700008392334,23.22063636779785,23200
2019-10-16,26.329999923706055,26.5,26.200000762939453,26.32900047302246,23.18453598022461,21700
2019-10-17,26.34000015258789,26.34000015258789,26.190000534057617,26.200000762939453,23.07094383239746,14700
2019-10-18,26.200000762939453,26.433000564575195,26.190000534057617,26.299999237060547,23.158994674682617,15400
2019-10-21,26.350000381469727,26.5,26.13800048828125,26.350000381469727,23.317392349243164,12500
2019-10-22,26.5,26.5,26.190000534057617,26.219999313354492,23.202356338500977,14100
2019-10-23,27.489999771118164,27.489999771118164,26.25,26.423999786376953,23.382877349853516,16500
2019-10-24,26.31999969482422,26.450000762939453,26.299999237060547,26.399999618530273,23.36164093017578,13800
2019-10-25,27.520000457763672,27.520000457763672,26.299999237060547,26.479999542236328,23.432432174682617,10600
2019-10-28,26.360000610351562,26.496999740600586,26.200000762939453,26.219999313354492,23.202356338500977,13400
2019-10-29,26.25,26.299999237060547,26.100000381469727,26.100000381469727,23.096166610717773,12500
2019-10-30,26.110000610351562,26.34000015258789,26.100000381469727,26.25,23.22890281677246,13900
2019-10-31,26.309999465942383,26.399999618530273,26.25,26.25,23.22890281677246,9600
2019-11-01,26.384000778198242,26.43600082397461,26.378999710083008,26.429000854492188,23.38730239868164,2200
2019-11-04,26.395999908447266,26.395999908447266,26.299999237060547,26.375999450683594,23.340394973754883,1300
2019-11-05,26.350000381469727,26.350000381469727,26.0,26.049999237060547,23.051921844482422,11600
2019-11-06,26.200000762939453,26.299999237060547,26.059999465942383,26.079999923706055,23.078472137451172,3700
2019-11-07,26.100000381469727,26.149999618530273,25.950000762939453,26.100000381469727,23.096166610717773,24200
2019-11-08,26.200000762939453,26.260000228881836,26.049999237060547,26.100000381469727,23.096166610717773,11600
2019-11-11,26.18199920654297,26.200000762939453,26.100000381469727,26.100000381469727,23.096166610717773,2700
2019-11-12,26.389999389648438,26.389999389648438,26.121000289916992,26.18000030517578,23.166961669921875,4100
2019-11-13,26.357999801635742,26.357999801635742,26.149999618530273,26.21500015258789,23.19792938232422,5400
2019-11-14,26.201000213623047,26.34000015258789,26.201000213623047,26.214000701904297,23.19704818725586,7600
2019-11-15,26.290000915527344,26.290000915527344,26.231000900268555,26.259000778198242,23.236865997314453,1100
2019-11-18,26.2549991607666,26.350000381469727,26.183000564575195,26.350000381469727,23.440587997436523,4300
2019-11-19,26.22800064086914,26.389999389648438,26.219999313354492,26.219999313354492,23.324935913085938,6600
2019-11-20,26.25,26.389999389648438,26.059999465942383,26.288999557495117,23.386320114135742,16900
2019-11-21,26.389999389648438,26.389999389648438,26.211000442504883,26.2450008392334,23.347177505493164,3300
2019-11-22,26.079999923706055,26.389999389648438,26.040000915527344,26.124000549316406,23.239540100097656,3400
2019-11-25,26.299999237060547,26.299999237060547,26.149999618530273,26.149999618530273,23.262666702270508,6300
2019-11-26,26.16900062561035,26.299999237060547,26.149999618530273,26.208999633789062,23.315155029296875,3200
2019-11-27,26.239999771118164,26.239999771118164,26.239999771118164,26.239999771118164,23.342729568481445,400
2019-11-29,26.200000762939453,26.239999771118164,26.180999755859375,26.180999755859375,23.290239334106445,1300
2019-12-02,26.174999237060547,26.239999771118164,26.174999237060547,26.239999771118164,23.342729568481445,1400
2019-12-03,26.149999618530273,26.149999618530273,26.059999465942383,26.136999130249023,23.251102447509766,8500
2019-12-04,26.049999237060547,26.239999771118164,26.049999237060547,26.049999237060547,23.173709869384766,12300
2019-12-05,26.049999237060547,26.100000381469727,25.540000915527344,26.100000381469727,23.218183517456055,25800
2019-12-06,26.020000457763672,26.149999618530273,25.93400001525879,26.058000564575195,23.180822372436523,14000
2019-12-09,26.170000076293945,26.18000030517578,26.04599952697754,26.04599952697754,23.170150756835938,2200
2019-12-10,26.010000228881836,26.054000854492188,25.81999969482422,25.989999771118164,23.120332717895508,6200
2019-12-11,26.0,26.0,26.0,26.0,23.129228591918945,700
2019-12-12,26.1299991607666,26.187999725341797,26.0,26.149999618530273,23.262666702270508,35700
2019-12-13,26.17799949645996,26.190000534057617,26.149999618530273,26.15999984741211,23.271556854248047,1500
2019-12-16,26.229999542236328,26.239999771118164,26.145999908447266,26.145999908447266,23.25910758972168,8200
2019-12-17,26.200000762939453,26.209999084472656,26.15999984741211,26.209999084472656,23.3160343170166,1400
2019-12-18,26.243999481201172,26.3799991607666,26.229999542236328,26.229999542236328,23.457340240478516,3000
2019-12-19,26.1560001373291,26.3799991607666,26.100000381469727,26.3799991607666,23.59148406982422,1700
2019-12-20,26.139999389648438,26.350000381469727,26.139999389648438,26.207000732421875,23.43677520751953,1900
2019-12-23,26.100000381469727,26.3799991607666,26.075000762939453,26.3799991607666,23.59148406982422,6500
2019-12-24,26.27400016784668,26.27400016784668,26.19099998474121,26.19099998474121,23.42245864868164,500
2019-12-26,26.389999389648438,26.420000076293945,26.229999542236328,26.305999755859375,23.525306701660156,25800
2019-12-27,26.299999237060547,26.559999465942383,26.21299934387207,26.305999755859375,23.525306701660156,2400
2019-12-30,26.20800018310547,26.3799991607666,26.150999069213867,26.150999069213867,23.386688232421875,3100
2019-12-31,26.31800079345703,26.389999389648438,26.31800079345703,26.389999389648438,23.600425720214844,2300
2020-01-02,26.350000381469727,26.357999801635742,26.180999755859375,26.357999801635742,23.571805953979492,1300
2020-01-03,26.149999618530273,26.389999389648438,26.149999618530273,26.229000091552734,23.456443786621094,6200
2020-01-06,26.850000381469727,26.850000381469727,26.190000534057617,26.190000534057617,23.421567916870117,5300
2020-01-07,26.649999618530273,26.649999618530273,26.26300048828125,26.523000717163086,23.719369888305664,7900
2020-01-08,26.459999084472656,26.75,26.40999984741211,26.649999618530273,23.83294105529785,21000
2020-01-09,26.507999420166016,26.63800048828125,26.507999420166016,26.516000747680664,23.71311378479004,1000
2020-01-10,26.448999404907227,26.780000686645508,26.31999969482422,26.780000686645508,23.949199676513672,17500
2020-01-13,26.780000686645508,26.81999969482422,26.649999618530273,26.81999969482422,23.984970092773438,7600
2020-01-14,26.829999923706055,26.829999923706055,26.56999969482422,26.635000228881836,23.81952667236328,8000
2020-01-15,26.850000381469727,26.850000381469727,26.649999618530273,26.84000015258789,24.002859115600586,4200
2020-01-16,26.549999237060547,26.829999923706055,26.34000015258789,26.829999923706055,23.993911743164062,3900
2020-01-17,26.84000015258789,27.110000610351562,26.697999954223633,26.913000106811523,24.06814193725586,18000
2020-01-21,26.799999237060547,27.0,26.799999237060547,26.850000381469727,24.011802673339844,3400
2020-01-22,27.020000457763672,27.020000457763672,26.850000381469727,26.856000900268555,24.017166137695312,2800
2020-01-23,26.989999771118164,26.989999771118164,26.829999923706055,26.915000915527344,24.19425392150879,16700
2020-01-24,26.799999237060547,26.812000274658203,26.71500015258789,26.812000274658203,24.101665496826172,4500
2020-01-27,26.860000610351562,26.899999618530273,26.639999389648438,26.899999618530273,24.18077278137207,3400
2020-01-28,26.90999984741211,26.969999313354492,26.8799991607666,26.93000030517578,24.207733154296875,2800
2020-01-29,26.979999542236328,27.073999404907227,26.959999084472656,27.073999404907227,24.337181091308594,3400
2020-01-30,26.899999618530273,27.136999130249023,26.899999618530273,27.090999603271484,24.352462768554688,4300
2020-01-31,27.270000457763672,27.280000686645508,26.93000030517578,26.981000900268555,24.253583908081055,3800
2020-02-03,27.073999404907227,27.229000091552734,27.00200080871582,27.229000091552734,24.476512908935547,2600
2020-02-04,27.165000915527344,27.198999404907227,27.06999969482422,27.17300033569336,24.426172256469727,12200
2020-02-05,27.18000030517578,27.18000030517578,26.700000762939453,26.700000762939453,24.000988006591797,1600
2020-02-06,27.200000762939453,27.200000762939453,26.700000762939453,26.76300048828125,24.057621002197266,9600
2020-02-07,27.0,27.0,26.6299991607666,26.94700050354004,24.2230224609375,1400
2020-02-10,27.149999618530273,27.149999618530273,26.979999542236328,27.0,24.270658493041992,3800
2020-02-11,27.041000366210938,27.190000534057617,26.850000381469727,27.190000534057617,24.441455841064453,2500
2020-02-12,26.799999237060547,26.854999542236328,26.639999389648438,26.750999450683594,24.046831130981445,7500
2020-02-13,26.784000396728516,27.190000534057617,26.784000396728516,27.190000534057617,24.441455841064453,2700
2020-02-14,27.190000534057617,27.239999771118164,26.672000885009766,26.79599952697754,24.087284088134766,10100
2020-02-18,26.940000534057617,27.149999618530273,26.940000534057617,27.0,24.39630126953125,3200
2020-02-19,27.0,27.149999618530273,26.850000381469727,27.149999618530273,24.53183937072754,8200
2020-02-20,27.066999435424805,27.489999771118164,26.753999710083008,27.246000289916992,24.618579864501953,6800
2020-02-21,26.75,27.200000762939453,26.739999771118164,27.049999237060547,24.441482543945312,4100
2020-02-24,26.700000762939453,27.209999084472656,26.700000762939453,26.865999221801758,24.275224685668945,5500
2020-02-25,26.739999771118164,27.05500030517578,26.649999618530273,26.761999130249023,24.181251525878906,8500
2020-02-26,26.719999313354492,26.75,26.25,26.5,23.944520950317383,6900
2020-02-27,26.375,26.49799919128418,26.25,26.49799919128418,23.942710876464844,3900
2020-02-28,26.25,26.25,25.76799964904785,26.0,23.49273681640625,13500
2020-03-02,26.139999389648438,26.5310001373291,25.8700008392334,26.299999237060547,23.763805389404297,11200
2020-03-03,26.1560001373291,26.1560001373291,26.024999618530273,26.070999145507812,23.5568904876709,2900
2020-03-04,26.100000381469727,26.829999923706055,25.95800018310547,26.66699981689453,24.09541130065918,10100
2020-03-05,26.670000076293945,26.670000076293945,26.049999237060547,26.108999252319336,23.591222763061523,6500
2020-03-06,26.059999465942383,26.090999603271484,25.809999465942383,25.8799991607666,23.38431167602539,31200
2020-03-09,25.709999084472656,25.947999954223633,25.56999969482422,25.700000762939453,23.221664428710938,7000
2020-03-10,26.167999267578125,26.167999267578125,25.549999237060547,25.7549991607666,23.2713623046875,15800
2020-03-11,25.700000762939453,26.5,24.920000076293945,25.299999237060547,22.860239028930664,17000
2020-03-12,25.059999465942383,25.059999465942383,23.8799991607666,23.981000900268555,21.668432235717773,23600
2020-03-13,24.600000381469727,24.989999771118164,23.0,23.0,20.782039642333984,8400
2020-03-16,22.459999084472656,22.459999084472656,18.260000228881836,20.360000610351562,18.396617889404297,9700
2020-03-17,21.139999389648438,21.711000442504883,20.389999389648438,21.200000762939453,19.15561294555664,11000
2020-03-18,17.600000381469727,18.25,10.642999649047852,11.869999885559082,10.725337028503418,24700
2020-03-19,11.25,16.756000518798828,10.562999725341797,16.100000381469727,14.718541145324707,13500
2020-03-20,18.799999237060547,20.0,18.790000915527344,18.871999740600586,17.2526912689209,7200
2020-03-23,14.420000076293945,19.25,14.420000076293945,19.25,17.59825897216797,6600
2020-03-24,17.329999923706055,21.0,17.329999923706055,20.040000915527344,18.32046890258789,22000
2020-03-25,19.700000762939453,21.0,19.5,20.290000915527344,18.54901885986328,23100
2020-03-26,20.5,21.42099952697754,19.100000381469727,19.256999969482422,17.604658126831055,13400
2020-03-27,20.989999771118164,21.0,19.850000381469727,19.850000381469727,18.146774291992188,8400
2020-03-30,20.586000442504883,21.0,19.0,19.0,17.369705200195312,17600
2020-03-31,18.75,19.680999755859375,17.8700008392334,17.8700008392334,16.336668014526367,6900
2020-04-01,17.799999237060547,18.5,17.299999237060547,17.899999618530273,16.364091873168945,14400
2020-04-02,18.5,19.93000030517578,18.489999771118164,18.691999435424805,17.088132858276367,5000
2020-04-03,19.0,19.0,17.04400062561035,18.058000564575195,16.508535385131836,3600
2020-04-06,18.007999420166016,18.5,17.450000762939453,17.600000381469727,16.08983039855957,13700
2020-04-07,17.1200008392334,19.746000289916992,17.1200008392334,17.600000381469727,16.08983039855957,7100
2020-04-08,19.0,19.0,17.18000030517578,18.66200065612793,17.060707092285156,4000
2020-04-09,19.5,20.43000030517578,18.299999237060547,18.899999618530273,17.278289794921875,6600
2020-04-13,20.0,20.0,19.0,19.19099998474121,17.544321060180664,5000
2020-04-14,19.950000762939453,20.899999618530273,19.674999237060547,19.674999237060547,17.98678970336914,8400
2020-04-15,19.200000762939453,20.280000686645508,18.350000381469727,19.149999618530273,17.5068359375,4600
2020-04-16,19.459999084472656,20.1200008392334,19.399999618530273,19.399999618530273,17.735382080078125,5300
2020-04-17,20.25,20.75,20.25,20.489999771118164,18.731853485107422,17200
2020-04-20,20.5,20.670000076293945,20.047000885009766,20.047000885009766,18.32686996459961,4900
2020-04-21,19.2450008392334,20.139999389648438,19.2450008392334,20.0,18.28390121459961,1800
2020-04-22,19.927000045776367,20.0,19.149999618530273,19.549999237060547,17.872514724731445,6600
2020-04-23,20.0,20.81999969482422,19.059999465942383,20.149999618530273,18.551986694335938,25000
2020-04-24,20.149999618530273,20.149999618530273,19.219999313354492,19.56399917602539,18.0124568939209,11000
2020-04-27,19.59000015258789,19.899999618530273,19.59000015258789,19.899999618530273,18.321809768676758,11000
2020-04-28,20.149999618530273,20.559999465942383,19.86199951171875,20.559999465942383,18.929471969604492,20800
2020-04-29,20.700000762939453,22.740999221801758,20.700000762939453,21.93000030517578,20.190824508666992,27400
2020-04-30,21.93000030517578,22.700000762939453,21.0,21.0,19.334579467773438,3800
2020-05-01,21.280000686645508,21.816999435424805,20.399999618530273,20.700000762939453,19.058368682861328,6300
2020-05-04,20.700000762939453,22.0,20.209999084472656,20.3799991607666,18.76374626159668,17300
2020-05-05,21.040000915527344,21.040000915527344,20.100000381469727,20.100000381469727,18.50595474243164,44900
2020-05-06,20.09000015258789,21.649999618530273,20.030000686645508,20.889999389648438,19.23330307006836,21700
2020-05-07,21.190000534057617,21.989999771118164,20.899999618530273,21.56999969482422,19.859373092651367,12200
2020-05-08,21.40999984741211,21.40999984741211,21.2810001373291,21.3799991607666,19.68444061279297,15400
2020-05-11,21.25,21.399999618530273,20.09000015258789,20.110000610351562,18.515159606933594,22000
2020-05-12,20.489999771118164,20.924999237060547,20.0,20.0,18.41388511657715,20800
2020-05-13,20.476999282836914,20.989999771118164,20.0,20.54599952697754,18.91657829284668,14000
2020-05-14,20.200000762939453,20.854999542236328,20.079999923706055,20.5,18.874229431152344,19100
2020-05-15,20.350000381469727,20.940000534057617,20.06999969482422,20.79800033569336,19.148597717285156,18500
2020-05-18,21.0,21.950000762939453,20.809999465942383,21.290000915527344,19.732511520385742,32900
2020-05-19,21.5,21.709999084472656,21.5,21.5,19.92714500427246,2000
2020-05-20,21.360000610351562,21.799999237060547,21.08300018310547,21.391000747680664,19.826120376586914,10500
2020-05-21,21.065000534057617,21.325000762939453,21.0,21.010000228881836,19.47298812866211,3500
2020-05-22,21.007999420166016,21.549999237060547,21.007999420166016,21.549999237060547,19.973487854003906,4900
2020-05-26,21.68000030517578,22.200000762939453,21.600000381469727,21.700000762939453,20.112512588500977,32500
2020-05-27,22.170000076293945,22.719999313354492,22.100000381469727,22.43000030517578,20.78911018371582,6300
2020-05-28,22.450000762939453,22.649999618530273,22.2549991607666,22.347999572753906,20.713111877441406,3800
2020-05-29,22.5,22.639999389648438,22.350000381469727,22.639999389648438,20.98374366760254,8500
2020-06-01,22.729999542236328,23.290000915527344,22.5,22.920000076293945,21.243263244628906,11500
2020-06-02,22.799999237060547,23.44499969482422,22.799999237060547,23.06999969482422,21.382291793823242,8300
2020-06-03,23.3799991607666,24.270000457763672,23.3439998626709,23.75,22.01254653930664,8900
2020-06-04,23.780000686645508,24.5,23.780000686645508,23.84000015258789,22.09596061706543,7100
2020-06-05,24.263999938964844,24.5,24.149999618530273,24.5,22.70767593383789,2900
2020-06-08,24.670000076293945,24.690000534057617,24.200000762939453,24.5,22.70767593383789,5400
2020-06-09,24.200000762939453,24.531999588012695,24.155000686645508,24.219999313354492,22.44816017150879,23800
2020-06-10,24.219999313354492,24.454999923706055,24.219999313354492,24.454999923706055,22.665969848632812,5500
2020-06-11,24.219999313354492,24.690000534057617,23.850000381469727,24.0,22.244253158569336,7600
2020-06-12,24.040000915527344,24.190000534057617,23.899999618530273,23.899999618530273,22.151569366455078,3800
2020-06-15,23.81999969482422,23.900999069213867,23.479999542236328,23.899999618530273,22.151569366455078,3400
2020-06-16,23.899999618530273,24.68000030517578,23.229999542236328,23.5,21.780834197998047,17200
2020-06-17,23.600000381469727,24.399999618530273,23.566999435424805,23.75,22.01254653930664,22900
2020-06-18,23.625,23.799999237060547,23.5,23.5,21.908132553100586,7400
2020-06-19,23.5,23.610000610351562,23.5,23.549999237060547,21.954744338989258,4200
2020-06-22,23.510000228881836,23.600000381469727,23.5,23.549999237060547,21.954744338989258,4900
2020-06-23,23.579999923706055,23.579999923706055,23.450000762939453,23.5,21.908132553100586,14200
2020-06-24,23.299999237060547,23.450000762939453,23.25,23.25,21.675065994262695,2700
2020-06-25,23.190000534057617,23.600000381469727,23.190000534057617,23.600000381469727,22.001358032226562,4100
2020-06-26,23.566999435424805,23.566999435424805,23.299999237060547,23.424999237060547,21.838207244873047,1100
2020-06-29,23.489999771118164,23.489999771118164,23.09000015258789,23.200000762939453,21.62845230102539,29100
2020-06-30,23.219999313354492,23.299999237060547,23.200000762939453,23.200000762939453,21.62845230102539,900
2020-07-01,23.149999618530273,23.450000762939453,22.899999618530273,22.950000762939453,21.395387649536133,9400
2020-07-02,23.21500015258789,23.219999313354492,22.950000762939453,22.950000762939453,21.395387649536133,6400
2020-07-06,23.09000015258789,23.09000015258789,22.75,22.899999618530273,21.34877586364746,10700
2020-07-07,22.68000030517578,23.030000686645508,21.010000228881836,22.25,20.7428035736084,21200
2020-07-08,22.575000762939453,22.899999618530273,22.40999984741211,22.450000762939453,20.929256439208984,4600
2020-07-09,22.575000762939453,22.687000274658203,22.299999237060547,22.299999237060547,20.789419174194336,3300
2020-07-10,22.239999771118164,22.5,22.239999771118164,22.274999618530273,20.766111373901367,5800
2020-07-13,22.40999984741211,22.40999984741211,22.200000762939453,22.200000762939453,20.696189880371094,9800
2020-07-14,22.06999969482422,22.3799991607666,22.06999969482422,22.125,20.626272201538086,8700
2020-07-15,22.25,22.510000228881836,22.0,22.0,20.509740829467773,14300
2020-07-16,22.040000915527344,22.3700008392334,22.0,22.270000457763672,20.761451721191406,5300
2020-07-17,22.229999542236328,23.0,22.209999084472656,22.549999237060547,21.022480010986328,11300
2020-07-20,22.75,22.83799934387207,22.405000686645508,22.549999237060547,21.022480010986328,19200
2020-07-21,22.760000228881836,22.78499984741211,22.469999313354492,22.485000610351562,20.96188735961914,15000
2020-07-22,22.649999618530273,22.815000534057617,22.542999267578125,22.729999542236328,21.190288543701172,22100
2020-07-23,22.610000610351562,23.0,22.600000381469727,22.88800048828125,21.467926025390625,29500
2020-07-24,22.65999984741211,23.450000762939453,22.65999984741211,23.0,21.572975158691406,8800
2020-07-27,23.100000381469727,23.399999618530273,23.049999237060547,23.049999237060547,21.619876861572266,37000
2020-07-28,23.049999237060547,23.34000015258789,23.049999237060547,23.309999465942383,21.863739013671875,15100
2020-07-29,23.489999771118164,23.489999771118164,23.170000076293945,23.260000228881836,21.816843032836914,16400
2020-07-30,23.229999542236328,24.024999618530273,23.229999542236328,23.850000381469727,22.3702392578125,22100
2020-07-31,23.825000762939453,24.211999893188477,23.479999542236328,24.211999893188477,22.709781646728516,10600
2020-08-03,24.389999389648438,24.469999313354492,24.350000381469727,24.469999313354492,22.951770782470703,14700
2020-08-04,24.5,24.576000213623047,24.489999771118164,24.5,22.979907989501953,10100
2020-08-05,24.510000228881836,24.799999237060547,24.5,24.6299991607666,23.10184097290039,14300
2020-08-06,24.600000381469727,24.729999542236328,24.600000381469727,24.719999313354492,23.18625831604004,11200
2020-08-07,24.69499969482422,25.149999618530273,24.69499969482422,25.0,23.448888778686523,5400
2020-08-10,24.899999618530273,25.149999618530273,24.899999618530273,25.010000228881836,23.458267211914062,16100
2020-08-11,24.959999084472656,25.040000915527344,24.950000762939453,25.030000686645508,23.477027893066406,15200
2020-08-12,25.0,25.049999237060547,25.0,25.0,23.448888778686523,12600
2020-08-13,25.0,25.209999084472656,25.0,25.209999084472656,23.645856857299805,21500
2020-08-14,25.072999954223633,25.19099998474121,25.0,25.149999618530273,23.589580535888672,8700
2020-08-17,25.229999542236328,25.229999542236328,25.19499969482422,25.200000762939453,23.636478424072266,48000
2020-08-18,25.139999389648438,25.197999954223633,25.059999465942383,25.1299991607666,23.570819854736328,2600
2020-08-19,25.0,25.25,25.0,25.25,23.68337631225586,20500
2020-08-20,25.351999282836914,25.65999984741211,25.299999237060547,25.549999237060547,23.964763641357422,15200
2020-08-21,25.399999618530273,25.799999237060547,25.399999618530273,25.725000381469727,24.259939193725586,6700
2020-08-24,25.700000762939453,25.864999771118164,25.690000534057617,25.850000381469727,24.377817153930664,15900
2020-08-25,25.549999237060547,25.850000381469727,25.549999237060547,25.579999923706055,24.123193740844727,6600
2020-08-26,25.3799991607666,25.3799991607666,25.139999389648438,25.139999389648438,23.708251953125,1200
2020-08-27,25.1200008392334,25.850000381469727,25.110000610351562,25.850000381469727,24.377817153930664,13000
2020-08-28,25.440000534057617,25.46500015258789,25.176000595092773,25.18000030517578,23.745975494384766,1200
2020-08-31,25.30699920654297,25.354999542236328,25.06999969482422,25.125,23.694108963012695,3100
2020-09-01,25.222999572753906,25.222999572753906,25.0,25.1200008392334,23.68939208984375,6100
2020-09-02,25.1200008392334,25.190000534057617,25.100000381469727,25.100000381469727,23.670528411865234,5600
2020-09-03,24.559999465942383,25.075000762939453,23.965999603271484,24.979999542236328,23.55736541748047,7000
2020-09-04,24.979999542236328,24.979999542236328,24.25,24.25,22.868938446044922,15100
2020-09-08,24.71500015258789,24.71500015258789,24.23200035095215,24.325000762939453,22.93967056274414,6600
2020-09-09,24.5,24.850000381469727,24.5,24.700000762939453,23.293310165405273,17700
2020-09-10,24.985000610351562,25.040000915527344,24.804000854492188,25.040000915527344,23.613948822021484,2500
2020-09-11,25.149999618530273,25.385000228881836,25.09000015258789,25.152999877929688,23.72051239013672,19200
2020-09-14,25.149999618530273,25.440000534057617,25.149999618530273,25.249000549316406,23.811044692993164,8900
2020-09-15,25.25,25.375999450683594,25.25,25.350000381469727,23.906295776367188,12100
2020-09-16,25.450000762939453,25.534000396728516,25.3700008392334,25.496999740600586,24.044921875,8000
2020-09-17,25.450000762939453,25.555999755859375,25.450000762939453,25.469999313354492,24.019460678100586,11200
2020-09-18,25.114999771118164,25.5,25.114999771118164,25.292999267578125,23.8525390625,3200
2020-09-21,24.780000686645508,25.2189998626709,24.760000228881836,24.94499969482422,23.52435874938965,9100
2020-09-22,25.0,25.0,24.899999618530273,24.899999618530273,23.612552642822266,3900
2020-09-23,24.983999252319336,25.264999389648438,24.510000228881836,24.929000854492188,23.640050888061523,8500
2020-09-24,24.618000030517578,24.832000732421875,24.618000030517578,24.71299934387207,23.435216903686523,1700
2020-09-25,24.809999465942383,24.860000610351562,24.809999465942383,24.850000381469727,23.56513214111328,8500
2020-09-28,24.864999771118164,25.187000274658203,24.864999771118164,24.950000762939453,23.659963607788086,12800
2020-09-29,25.0,25.15999984741211,24.940000534057617,25.0,23.707380294799805,13500
2020-09-30,25.100000381469727,25.336000442504883,25.0,25.31999969482422,24.010835647583008,19700
2020-10-01,25.399999618530273,25.399999618530273,25.010000228881836,25.011999130249023,23.718759536743164,18600
2020-10-02,25.0,25.059999465942383,25.0,25.04599952697754,23.750999450683594,2500
2020-10-05,25.0,25.049999237060547,25.0,25.0,23.707380294799805,11400
2020-10-06,25.049999237060547,25.100000381469727,25.0,25.0,23.707380294799805,22300
2020-10-07,25.049999237060547,25.274999618530273,25.049999237060547,25.049999237060547,23.75479507446289,9900
2020-10-08,25.145000457763672,25.290000915527344,25.049999237060547,25.09000015258789,23.792728424072266,3300
2020-10-09,25.18000030517578,25.200000762939453,25.079999923706055,25.079999923706055,23.78324317932129,2000
2020-10-12,25.100000381469727,25.15999984741211,25.059999465942383,25.059999465942383,23.764278411865234,13500
2020-10-13,25.100000381469727,25.13800048828125,25.100000381469727,25.100000381469727,23.80220603942871,4500
2020-10-14,25.15999984741211,25.299999237060547,25.149999618530273,25.149999618530273,23.84962272644043,2600
2020-10-15,25.049999237060547,25.25,24.899999618530273,25.100000381469727,23.80220603942871,8700
2020-10-16,25.200000762939453,25.29800033569336,24.969999313354492,24.989999771118164,23.697895050048828,9500
2020-10-19,25.1200008392334,25.15999984741211,25.104999542236328,25.1299991607666,23.83065414428711,6500
2020-10-20,25.149999618530273,25.25,25.1299991607666,25.200000762939453,23.89704132080078,12500
2020-10-21,25.200000762939453,25.25,25.149999618530273,25.200000762939453,23.89704132080078,6700
2020-10-22,24.84000015258789,25.18000030517578,24.84000015258789,25.15999984741211,23.990482330322266,3200
2020-10-23,25.079999923706055,25.200000762939453,24.989999771118164,25.18000030517578,24.009552001953125,8500
2020-10-26,25.239999771118164,25.239999771118164,25.020000457763672,25.100000381469727,23.933271408081055,4000
2020-10-27,25.190000534057617,25.222999572753906,25.049999237060547,25.200000762939453,24.028623580932617,18400
2020-10-28,25.309999465942383,25.312999725341797,24.93000030517578,25.239999771118164,24.066762924194336,13600
2020-10-29,25.070999145507812,25.100000381469727,24.989999771118164,25.020000457763672,23.856990814208984,7600
2020-10-30,25.049999237060547,25.114999771118164,24.75,24.899999618530273,23.742568969726562,10200
2020-11-02,25.40999984741211,25.40999984741211,24.65999984741211,24.8700008392334,23.71396255493164,7600
2020-11-03,24.989999771118164,25.389999389648438,24.88800048828125,25.177000045776367,24.00669288635254,4500
2020-11-04,24.799999237060547,24.940000534057617,24.600000381469727,24.809999465942383,23.65675163269043,9000
2020-11-05,24.84000015258789,25.110000610351562,24.79199981689453,25.09000015258789,23.923738479614258,4600
2020-11-06,25.0,25.059999465942383,25.0,25.049999237060547,23.885595321655273,3500
2020-11-09,25.170000076293945,25.170000076293945,24.920000076293945,25.1200008392334,23.952342987060547,6400
2020-11-10,25.135000228881836,25.149999618530273,25.100000381469727,25.149999618530273,23.980947494506836,7100
2020-11-11,25.288999557495117,25.288999557495117,25.1200008392334,25.149999618530273,23.980947494506836,5100
2020-11-12,25.29599952697754,25.34000015258789,25.049999237060547,25.049999237060547,23.885595321655273,8400
2020-11-13,25.06999969482422,25.110000610351562,24.972000122070312,24.972000122070312,23.811220169067383,15100
2020-11-16,25.079999923706055,25.950000762939453,25.079999923706055,25.950000762939453,24.743762969970703,21800
2020-11-17,25.5,28.8700008392334,25.200000762939453,28.8700008392334,27.528032302856445,19100
2020-11-18,26.5,26.860000610351562,25.389999389648438,26.59000015258789,25.35401153564453,19400
2020-11-19,26.149999618530273,27.5,25.440000534057617,27.4950008392334,26.353717803955078,9300
2020-11-20,27.34000015258789,27.34000015258789,25.6299991607666,27.0,25.8792667388916,60300
2020-11-23,26.989999771118164,27.239999771118164,26.200000762939453,26.969999313354492,25.850507736206055,64200
2020-11-24,26.989999771118164,26.989999771118164,26.582000732421875,26.770000457763672,25.658815383911133,3100
2020-11-25,26.31999969482422,26.950000762939453,26.030000686645508,26.93000030517578,25.812171936035156,22600
2020-11-27,26.549999237060547,26.81999969482422,26.399999618530273,26.584999084472656,25.481489181518555,5300
2020-11-30,26.5,26.579999923706055,25.559999465942383,25.950000762939453,24.87285041809082,36200
2020-12-01,25.950000762939453,25.989999771118164,25.90999984741211,25.989999771118164,24.91118812561035,2400
2020-12-02,25.913000106811523,26.1200008392334,25.75,25.75,24.68115234375,1500
2020-12-03,25.860000610351562,25.899999618530273,25.65999984741211,25.700000762939453,24.633230209350586,6600
2020-12-04,25.799999237060547,25.8799991607666,25.65999984741211,25.65999984741211,24.594884872436523,5000
2020-12-07,25.65999984741211,25.670000076293945,25.43000030517578,25.579999923706055,24.518203735351562,4300
2020-12-08,25.503999710083008,25.860000610351562,25.503999710083008,25.600000381469727,24.537376403808594,3300
2020-12-09,25.719999313354492,25.940000534057617,25.68000030517578,25.940000534057617,24.863262176513672,7400
2020-12-10,25.850000381469727,25.850000381469727,25.649999618530273,25.649999618530273,24.585298538208008,1600
2020-12-11,25.739999771118164,25.739999771118164,25.739999771118164,25.739999771118164,24.67156410217285,200
2020-12-14,25.649999618530273,25.704999923706055,25.600000381469727,25.649999618530273,24.585298538208008,16000
2020-12-15,25.690000534057617,25.809999465942383,25.540000915527344,25.760000228881836,24.69073486328125,98100
2020-12-16,25.799999237060547,25.799999237060547,25.56999969482422,25.6200008392334,24.556547164916992,48200
2020-12-17,25.610000610351562,25.72800064086914,25.610000610351562,25.610000610351562,24.54696273803711,1100
2020-12-18,25.610000610351562,25.631000518798828,25.469999313354492,25.510000228881836,24.45111083984375,19600
2020-12-21,25.510000228881836,25.579999923706055,25.399999618530273,25.399999618530273,24.34567642211914,5800
2020-12-22,25.5,25.5,25.239999771118164,25.290000915527344,24.372663497924805,2300
2020-12-23,25.290000915527344,25.399999618530273,25.2549991607666,25.31999969482422,24.401573181152344,1600
2020-12-24,25.270000457763672,25.49799919128418,25.06999969482422,25.1299991607666,24.218463897705078,7100
2020-12-28,25.207000732421875,25.209999084472656,24.68000030517578,25.15999984741211,24.247377395629883,31100
2020-12-29,25.200000762939453,25.299999237060547,25.200000762939453,25.209999084472656,24.295564651489258,24300
2020-12-30,25.25,25.420000076293945,25.25,25.299999237060547,24.382299423217773,6300
