Date,Open,High,Low,Close,Adj Close,Volume
2018-09-28,15.199999809265137,15.739999771118164,13.5,14.239999771118164,14.239999771118164,1452600
2018-10-01,14.5,14.5,13.069999694824219,13.449999809265137,13.449999809265137,263400
2018-10-02,13.5,15.050000190734863,12.5,12.550000190734863,12.550000190734863,244700
2018-10-03,12.609999656677246,13.260000228881836,12.489999771118164,12.550000190734863,12.550000190734863,157700
2018-10-04,12.5,13.34000015258789,12.260000228881836,12.329999923706055,12.329999923706055,105100
2018-10-05,12.399999618530273,13.0600004196167,12.010000228881836,12.369999885559082,12.369999885559082,112300
2018-10-08,12.5600004196167,12.600000381469727,11.760000228881836,11.949999809265137,11.949999809265137,142600
2018-10-09,12.100000381469727,12.100000381469727,11.510000228881836,11.609999656677246,11.609999656677246,194000
2018-10-10,11.609999656677246,12.010000228881836,11.5,11.649999618530273,11.649999618530273,99700
2018-10-11,11.949999809265137,12.699999809265137,11.670000076293945,12.279999732971191,12.279999732971191,104500
2018-10-12,12.3100004196167,13.0,12.25,12.449999809265137,12.449999809265137,185900
2018-10-15,12.5,13.199999809265137,12.1899995803833,12.199999809265137,12.199999809265137,229600
2018-10-16,12.279999732971191,13.0,11.220000267028809,12.5,12.5,260100
2018-10-17,12.5,13.149999618530273,12.180000305175781,12.989999771118164,12.989999771118164,168000
2018-10-18,13.100000381469727,15.5,12.960000038146973,15.489999771118164,15.489999771118164,165700
2018-10-19,15.359999656677246,15.720000267028809,14.40999984741211,15.010000228881836,15.010000228881836,202000
2018-10-22,14.920000076293945,16.0,14.5,15.170000076293945,15.170000076293945,136900
2018-10-23,14.850000381469727,16.790000915527344,14.050000190734863,15.289999961853027,15.289999961853027,607300
2018-10-24,15.34000015258789,16.06999969482422,14.199999809265137,14.859999656677246,14.859999656677246,155400
2018-10-25,15.100000381469727,16.020000457763672,15.0,15.880000114440918,15.880000114440918,108400
2018-10-26,15.710000038146973,17.5,15.699999809265137,16.829999923706055,16.829999923706055,169800
2018-10-29,17.06999969482422,17.75,16.25,16.579999923706055,16.579999923706055,156100
2018-10-30,16.489999771118164,17.0,16.239999771118164,16.459999084472656,16.459999084472656,68800
2018-10-31,16.56999969482422,17.489999771118164,16.56999969482422,17.010000228881836,17.010000228881836,57300
2018-11-01,17.1299991607666,20.149999618530273,16.899999618530273,19.040000915527344,19.040000915527344,146700
2018-11-02,19.0,20.0,19.0,19.170000076293945,19.170000076293945,87400
2018-11-05,19.190000534057617,21.5,19.190000534057617,20.979999542236328,20.979999542236328,90100
2018-11-06,20.959999084472656,23.1299991607666,20.809999465942383,22.579999923706055,22.579999923706055,124700
2018-11-07,22.600000381469727,24.899999618530273,22.350000381469727,24.469999313354492,24.469999313354492,131900
2018-11-08,24.739999771118164,27.079999923706055,23.200000762939453,25.809999465942383,25.809999465942383,169100
2018-11-09,25.8799991607666,27.729999542236328,23.56999969482422,23.600000381469727,23.600000381469727,209800
2018-11-12,23.200000762939453,23.25,20.170000076293945,20.84000015258789,20.84000015258789,180700
2018-11-13,20.84000015258789,22.270000457763672,20.610000610351562,20.860000610351562,20.860000610351562,219700
2018-11-14,20.799999237060547,21.739999771118164,19.739999771118164,19.989999771118164,19.989999771118164,91600
2018-11-15,19.860000610351562,22.600000381469727,19.459999084472656,20.290000915527344,20.290000915527344,56500
2018-11-16,20.1200008392334,23.5,19.809999465942383,23.0,23.0,168000
2018-11-19,22.799999237060547,24.229999542236328,22.239999771118164,23.700000762939453,23.700000762939453,155000
2018-11-20,23.469999313354492,23.889999389648438,21.829999923706055,21.93000030517578,21.93000030517578,92700
2018-11-21,21.739999771118164,22.40999984741211,21.690000534057617,22.059999465942383,22.059999465942383,57000
2018-11-23,21.81999969482422,23.729999542236328,21.809999465942383,22.739999771118164,22.739999771118164,62500
2018-11-26,22.959999084472656,24.5,22.8799991607666,23.700000762939453,23.700000762939453,182700
2018-11-27,23.760000228881836,24.219999313354492,23.110000610351562,23.280000686645508,23.280000686645508,193700
2018-11-28,23.1299991607666,24.760000228881836,23.1299991607666,24.360000610351562,24.360000610351562,115100
2018-11-29,24.139999389648438,26.75,23.229999542236328,25.239999771118164,25.239999771118164,169200
2018-11-30,25.15999984741211,28.25,24.420000076293945,28.040000915527344,28.040000915527344,193600
2018-12-03,28.600000381469727,29.59000015258789,28.25,28.90999984741211,28.90999984741211,195600
2018-12-04,29.280000686645508,30.3799991607666,28.469999313354492,30.229999542236328,30.229999542236328,106200
2018-12-06,30.40999984741211,31.540000915527344,30.0,31.100000381469727,31.100000381469727,138800
2018-12-07,31.389999389648438,32.900001525878906,28.1299991607666,29.459999084472656,29.459999084472656,173600
2018-12-10,29.670000076293945,29.670000076293945,24.3700008392334,26.110000610351562,26.110000610351562,192900
2018-12-11,26.360000610351562,26.360000610351562,24.600000381469727,25.18000030517578,25.18000030517578,150100
2018-12-12,25.399999618530273,25.600000381469727,24.170000076293945,24.649999618530273,24.649999618530273,126700
2018-12-13,24.649999618530273,27.280000686645508,23.809999465942383,24.280000686645508,24.280000686645508,111900
2018-12-14,24.25,24.700000762939453,22.0,22.18000030517578,22.18000030517578,223200
2018-12-17,22.040000915527344,23.899999618530273,19.920000076293945,20.610000610351562,20.610000610351562,177000
2018-12-18,20.610000610351562,21.5,19.219999313354492,19.530000686645508,19.530000686645508,129200
2018-12-19,19.709999084472656,20.170000076293945,17.260000228881836,17.709999084472656,17.709999084472656,186800
2018-12-20,17.280000686645508,17.280000686645508,13.010000228881836,14.699999809265137,14.699999809265137,328900
2018-12-21,17.40999984741211,17.65999984741211,13.0,15.010000228881836,15.010000228881836,1131000
2018-12-24,15.100000381469727,15.420000076293945,14.020000457763672,14.260000228881836,14.260000228881836,82900
2018-12-26,14.40999984741211,16.520000457763672,14.40999984741211,16.290000915527344,16.290000915527344,199500
2018-12-27,16.5,16.739999771118164,14.630000114440918,15.760000228881836,15.760000228881836,163100
2018-12-28,15.789999961853027,15.970000267028809,15.09000015258789,15.609999656677246,15.609999656677246,118500
2018-12-31,15.800000190734863,16.0,14.260000228881836,15.449999809265137,15.449999809265137,105300
2019-01-02,15.119999885559082,16.950000762939453,15.0,16.290000915527344,16.290000915527344,232800
2019-01-03,16.18000030517578,17.75,15.5600004196167,17.049999237060547,17.049999237060547,269300
2019-01-04,17.450000762939453,18.0,16.56999969482422,17.969999313354492,17.969999313354492,145400
2019-01-07,18.239999771118164,19.520000457763672,18.049999237060547,18.489999771118164,18.489999771118164,170400
2019-01-08,18.600000381469727,19.190000534057617,16.270000457763672,16.440000534057617,16.440000534057617,82100
2019-01-09,16.25,17.420000076293945,15.399999618530273,17.229999542236328,17.229999542236328,125800
2019-01-10,17.149999618530273,19.139999389648438,15.75,17.81999969482422,17.81999969482422,223800
2019-01-11,17.729999542236328,19.360000610351562,17.729999542236328,18.719999313354492,18.719999313354492,178300
2019-01-14,18.5,19.200000762939453,17.81999969482422,18.959999084472656,18.959999084472656,150100
2019-01-15,19.139999389648438,19.5,16.600000381469727,16.610000610351562,16.610000610351562,117300
2019-01-16,16.709999084472656,17.5,15.649999618530273,16.18000030517578,16.18000030517578,121900
2019-01-17,16.209999084472656,16.799999237060547,15.399999618530273,15.770000457763672,15.770000457763672,116300
2019-01-18,15.779999732971191,16.3799991607666,15.479999542236328,15.600000381469727,15.600000381469727,43000
2019-01-22,15.479999542236328,15.989999771118164,14.399999618530273,14.579999923706055,14.579999923706055,82200
2019-01-23,16.040000915527344,16.040000915527344,13.0,13.0600004196167,13.0600004196167,154000
2019-01-24,13.170000076293945,14.59000015258789,13.050000190734863,13.850000381469727,13.850000381469727,120500
2019-01-25,13.920000076293945,14.739999771118164,13.170000076293945,14.180000305175781,14.180000305175781,104900
2019-01-28,13.899999618530273,14.739999771118164,13.619999885559082,13.869999885559082,13.869999885559082,99000
2019-01-29,13.90999984741211,14.149999618530273,13.5,13.65999984741211,13.65999984741211,51600
2019-01-30,13.800000190734863,13.890000343322754,12.300000190734863,12.729999542236328,12.729999542236328,109500
2019-01-31,12.699999809265137,13.399999618530273,12.649999618530273,12.800000190734863,12.800000190734863,101100
2019-02-01,12.829999923706055,13.199999809265137,11.630000114440918,12.680000305175781,12.680000305175781,227200
2019-02-04,12.789999961853027,13.6899995803833,12.449999809265137,13.569999694824219,13.569999694824219,166200
2019-02-05,13.699999809265137,13.699999809265137,12.720000267028809,13.119999885559082,13.119999885559082,46700
2019-02-06,13.199999809265137,14.670000076293945,13.1899995803833,13.539999961853027,13.539999961853027,527400
2019-02-07,13.420000076293945,13.680000305175781,12.729999542236328,13.239999771118164,13.239999771118164,57200
2019-02-08,13.140000343322754,13.479999542236328,12.59000015258789,12.880000114440918,12.880000114440918,60700
2019-02-11,12.90999984741211,13.149999618530273,12.710000038146973,12.859999656677246,12.859999656677246,106500
2019-02-12,12.970000267028809,13.640000343322754,12.569999694824219,12.6899995803833,12.6899995803833,189500
2019-02-13,12.729999542236328,13.220000267028809,12.020000457763672,12.020000457763672,12.020000457763672,63900
2019-02-14,12.149999618530273,12.369999885559082,10.890000343322754,11.260000228881836,11.260000228881836,190800
2019-02-15,11.319999694824219,12.380000114440918,11.020000457763672,11.619999885559082,11.619999885559082,118100
2019-02-19,11.600000381469727,12.239999771118164,11.59000015258789,11.649999618530273,11.649999618530273,76700
2019-02-20,11.670000076293945,12.300000190734863,11.670000076293945,12.079999923706055,12.079999923706055,45700
2019-02-21,12.199999809265137,12.369999885559082,11.800000190734863,11.989999771118164,11.989999771118164,54800
2019-02-22,12.069999694824219,13.180000305175781,12.020000457763672,12.569999694824219,12.569999694824219,98900
2019-02-25,12.699999809265137,12.949999809265137,12.149999618530273,12.34000015258789,12.34000015258789,70800
2019-02-26,12.369999885559082,13.300000190734863,11.930000305175781,12.989999771118164,12.989999771118164,99500
2019-02-27,12.9399995803833,13.289999961853027,12.550000190734863,12.899999618530273,12.899999618530273,61100
2019-02-28,13.079999923706055,13.079999923706055,12.100000381469727,12.859999656677246,12.859999656677246,206600
2019-03-01,12.899999618530273,13.25,12.859999656677246,13.100000381469727,13.100000381469727,39100
2019-03-04,13.210000038146973,14.020000457763672,12.75,13.09000015258789,13.09000015258789,103400
2019-03-05,13.0,13.100000381469727,11.75,12.029999732971191,12.029999732971191,102400
2019-03-06,12.100000381469727,12.199999809265137,11.010000228881836,11.640000343322754,11.640000343322754,94200
2019-03-07,12.600000381469727,12.880000114440918,11.520000457763672,11.609999656677246,11.609999656677246,50500
2019-03-08,11.600000381469727,11.859999656677246,10.8100004196167,10.930000305175781,10.930000305175781,95300
2019-03-11,11.0,11.260000228881836,10.550000190734863,10.619999885559082,10.619999885559082,40700
2019-03-12,10.75,11.020000457763672,10.5,10.510000228881836,10.510000228881836,87200
2019-03-13,10.640000343322754,10.84000015258789,10.289999961853027,10.739999771118164,10.739999771118164,57500
2019-03-14,10.729999542236328,10.920000076293945,9.65999984741211,9.970000267028809,9.970000267028809,91700
2019-03-15,10.130000114440918,10.600000381469727,9.779999732971191,10.149999618530273,10.149999618530273,135100
2019-03-18,10.5,13.4399995803833,10.5,13.34000015258789,13.34000015258789,350400
2019-03-19,13.569999694824219,14.15999984741211,11.800000190734863,11.920000076293945,11.920000076293945,276800
2019-03-20,11.819999694824219,12.100000381469727,11.260000228881836,11.699999809265137,11.699999809265137,111200
2019-03-21,11.510000228881836,12.119999885559082,11.0,11.449999809265137,11.449999809265137,120700
2019-03-22,11.350000381469727,11.720000267028809,11.0600004196167,11.449999809265137,11.449999809265137,131800
2019-03-25,11.4399995803833,11.449999809265137,9.779999732971191,10.930000305175781,10.930000305175781,201800
2019-03-26,11.279999732971191,11.640000343322754,10.970000267028809,11.5,11.5,55500
2019-03-27,11.739999771118164,12.460000038146973,11.5600004196167,11.890000343322754,11.890000343322754,143100
2019-03-28,11.960000038146973,12.84000015258789,11.600000381469727,12.539999961853027,12.539999961853027,118400
2019-03-29,13.0,13.84000015258789,12.680000305175781,13.300000190734863,13.300000190734863,345900
2019-04-01,13.479999542236328,14.90999984741211,12.770000457763672,13.460000038146973,13.460000038146973,916500
2019-04-02,13.460000038146973,14.979999542236328,13.140000343322754,14.739999771118164,14.739999771118164,213100
2019-04-03,14.949999809265137,15.470000267028809,14.100000381469727,14.430000305175781,14.430000305175781,138200
2019-04-04,14.510000228881836,15.40999984741211,14.130000114440918,15.170000076293945,15.170000076293945,118700
2019-04-05,15.15999984741211,15.9399995803833,14.920000076293945,15.699999809265137,15.699999809265137,95100
2019-04-08,15.6899995803833,15.699999809265137,14.649999618530273,15.520000457763672,15.520000457763672,112700
2019-04-09,15.510000228881836,15.640000343322754,14.09000015258789,14.34000015258789,14.34000015258789,143500
2019-04-10,14.40999984741211,14.850000381469727,13.890000343322754,14.600000381469727,14.600000381469727,100600
2019-04-11,14.579999923706055,14.579999923706055,13.119999885559082,14.3100004196167,14.3100004196167,175600
2019-04-12,14.399999618530273,15.239999771118164,14.3100004196167,14.859999656677246,14.859999656677246,62000
2019-04-15,14.859999656677246,14.930000305175781,13.539999961853027,13.789999961853027,13.789999961853027,46400
2019-04-16,13.84000015258789,15.140000343322754,13.5,14.65999984741211,14.65999984741211,81100
2019-04-17,14.0,14.649999618530273,13.510000228881836,13.899999618530273,13.899999618530273,109100
2019-04-18,13.880000114440918,14.270000457763672,13.600000381469727,13.739999771118164,13.739999771118164,42100
2019-04-22,14.0600004196167,14.729999542236328,13.9399995803833,14.550000190734863,14.550000190734863,63500
2019-04-23,13.630000114440918,13.640000343322754,12.5600004196167,12.949999809265137,12.949999809265137,242400
2019-04-24,12.850000381469727,12.850000381469727,12.109999656677246,12.300000190734863,12.300000190734863,179600
2019-04-25,10.800000190734863,11.0,10.539999961853027,10.710000038146973,10.710000038146973,1957900
2019-04-26,10.760000228881836,11.050000190734863,10.75,10.789999961853027,10.789999961853027,581900
2019-04-29,10.729999542236328,11.079999923706055,10.619999885559082,10.949999809265137,10.949999809265137,403400
2019-04-30,10.9399995803833,10.970000267028809,10.359999656677246,10.510000228881836,10.510000228881836,260100
2019-05-01,10.520000457763672,10.8100004196167,10.0,10.680000305175781,10.680000305175781,417900
2019-05-02,10.550000190734863,11.050000190734863,10.329999923706055,10.75,10.75,259900
2019-05-03,10.899999618530273,11.369999885559082,10.529999732971191,10.75,10.75,767100
2019-05-06,10.399999618530273,11.239999771118164,10.25,11.199999809265137,11.199999809265137,243900
2019-05-07,11.029999732971191,11.270000457763672,10.619999885559082,10.6899995803833,10.6899995803833,133400
2019-05-08,10.680000305175781,11.609999656677246,10.619999885559082,11.25,11.25,272600
2019-05-09,11.300000190734863,11.430000305175781,10.890000343322754,11.239999771118164,11.239999771118164,177600
2019-05-10,11.180000305175781,11.399999618530273,10.899999618530273,11.239999771118164,11.239999771118164,177500
2019-05-13,11.0,11.09000015258789,10.6899995803833,11.020000457763672,11.020000457763672,200500
2019-05-14,11.109999656677246,11.199999809265137,10.649999618530273,11.140000343322754,11.140000343322754,517600
2019-05-15,11.130000114440918,11.1899995803833,10.770000457763672,11.039999961853027,11.039999961853027,288000
2019-05-16,10.960000038146973,11.199999809265137,10.40999984741211,10.75,10.75,315200
2019-05-17,10.710000038146973,11.270000457763672,10.710000038146973,11.180000305175781,11.180000305175781,174300
2019-05-20,11.109999656677246,11.300000190734863,10.789999961853027,10.960000038146973,10.960000038146973,212000
2019-05-21,11.039999961853027,11.109999656677246,10.569999694824219,10.819999694824219,10.819999694824219,234600
2019-05-22,10.819999694824219,10.890000343322754,10.100000381469727,10.40999984741211,10.40999984741211,251100
2019-05-23,10.210000038146973,10.25,9.569999694824219,9.979999542236328,9.979999542236328,342400
2019-05-24,10.100000381469727,10.609999656677246,10.0600004196167,10.479999542236328,10.479999542236328,163300
2019-05-28,10.550000190734863,10.800000190734863,10.40999984741211,10.600000381469727,10.600000381469727,239700
2019-05-29,10.359999656677246,10.770000457763672,9.520000457763672,9.789999961853027,9.789999961853027,228100
2019-05-30,9.859999656677246,9.9399995803833,9.359999656677246,9.65999984741211,9.65999984741211,166900
2019-05-31,9.520000457763672,9.609999656677246,8.949999809265137,9.3100004196167,9.3100004196167,156000
2019-06-03,9.319999694824219,9.430000305175781,8.800000190734863,9.199999809265137,9.199999809265137,171800
2019-06-04,9.319999694824219,9.489999771118164,8.75,9.350000381469727,9.350000381469727,147300
2019-06-05,9.350000381469727,9.550000190734863,9.039999961853027,9.229999542236328,9.229999542236328,151400
2019-06-06,9.229999542236328,9.5,8.8100004196167,9.270000457763672,9.270000457763672,145800
2019-06-07,9.289999961853027,9.789999961853027,9.09000015258789,9.670000076293945,9.670000076293945,118900
2019-06-10,9.729999542236328,9.829999923706055,9.390000343322754,9.729999542236328,9.729999542236328,186600
2019-06-11,9.800000190734863,9.850000381469727,9.329999923706055,9.670000076293945,9.670000076293945,109200
2019-06-12,9.619999885559082,9.930000305175781,9.34000015258789,9.649999618530273,9.649999618530273,139700
2019-06-13,9.770000457763672,10.119999885559082,9.369999885559082,9.970000267028809,9.970000267028809,127700
2019-06-14,9.9399995803833,10.109999656677246,9.779999732971191,9.829999923706055,9.829999923706055,102800
2019-06-17,9.829999923706055,10.40999984741211,9.760000228881836,10.300000190734863,10.300000190734863,161600
2019-06-18,10.630000114440918,11.0,10.34000015258789,10.920000076293945,10.920000076293945,110600
2019-06-19,10.949999809265137,11.010000228881836,10.649999618530273,10.859999656677246,10.859999656677246,120500
2019-06-20,10.949999809265137,11.010000228881836,10.300000190734863,10.479999542236328,10.479999542236328,119700
2019-06-21,10.40999984741211,10.920000076293945,10.25,10.770000457763672,10.770000457763672,130900
2019-06-24,10.75,10.84000015258789,9.630000114440918,9.75,9.75,174800
2019-06-25,9.779999732971191,10.4399995803833,9.520000457763672,9.819999694824219,9.819999694824219,102400
2019-06-26,9.989999771118164,10.239999771118164,9.75,9.970000267028809,9.970000267028809,90500
2019-06-27,10.0,10.34000015258789,9.8100004196167,9.989999771118164,9.989999771118164,109500
2019-06-28,10.039999961853027,11.4399995803833,10.020000457763672,11.140000343322754,11.140000343322754,2460900
2019-07-01,11.15999984741211,11.359999656677246,10.949999809265137,11.260000228881836,11.260000228881836,247900
2019-07-02,11.260000228881836,11.449999809265137,11.100000381469727,11.25,11.25,106700
2019-07-03,11.319999694824219,11.460000038146973,11.020000457763672,11.300000190734863,11.300000190734863,85300
2019-07-05,11.300000190734863,11.739999771118164,11.119999885559082,11.479999542236328,11.479999542236328,110100
2019-07-08,11.460000038146973,11.729999542236328,10.979999542236328,11.260000228881836,11.260000228881836,161900
2019-07-09,11.130000114440918,11.789999961853027,11.020000457763672,11.4399995803833,11.4399995803833,126600
2019-07-10,11.510000228881836,12.289999961853027,11.5,12.149999618530273,12.149999618530273,144200
2019-07-11,12.109999656677246,12.449999809265137,11.520000457763672,12.279999732971191,12.279999732971191,165900
2019-07-12,12.25,12.59000015258789,11.029999732971191,11.119999885559082,11.119999885559082,339000
2019-07-15,11.140000343322754,11.289999961853027,10.869999885559082,11.050000190734863,11.050000190734863,87900
2019-07-16,11.100000381469727,11.100000381469727,10.3100004196167,10.449999809265137,10.449999809265137,143000
2019-07-17,10.449999809265137,10.850000381469727,10.199999809265137,10.420000076293945,10.420000076293945,149400
2019-07-18,10.449999809265137,10.460000038146973,9.84000015258789,10.3100004196167,10.3100004196167,103800
2019-07-19,10.15999984741211,10.65999984741211,10.010000228881836,10.119999885559082,10.119999885559082,75800
2019-07-22,10.069999694824219,10.239999771118164,9.829999923706055,10.199999809265137,10.199999809265137,63800
2019-07-23,10.25,10.25,9.8100004196167,9.920000076293945,9.920000076293945,63000
2019-07-24,9.899999618530273,10.1899995803833,9.609999656677246,9.8100004196167,9.8100004196167,106900
2019-07-25,9.899999618530273,10.630000114440918,9.670000076293945,10.420000076293945,10.420000076293945,156100
2019-07-26,10.960000038146973,11.390000343322754,10.420000076293945,10.550000190734863,10.550000190734863,125800
2019-07-29,10.600000381469727,11.270000457763672,10.289999961853027,10.579999923706055,10.579999923706055,117000
2019-07-30,10.420000076293945,11.0,10.319999694824219,10.6899995803833,10.6899995803833,93200
2019-07-31,10.720000267028809,11.180000305175781,10.5,10.5,10.5,149100
2019-08-01,10.399999618530273,11.050000190734863,10.180000305175781,10.65999984741211,10.65999984741211,111400
2019-08-02,10.529999732971191,10.649999618530273,9.399999618530273,9.510000228881836,9.510000228881836,138000
2019-08-05,9.289999961853027,9.609999656677246,9.050000190734863,9.0600004196167,9.0600004196167,78700
2019-08-06,9.09000015258789,9.5600004196167,8.899999618530273,9.369999885559082,9.369999885559082,153600
2019-08-07,9.300000190734863,9.960000038146973,9.300000190734863,9.710000038146973,9.710000038146973,55100
2019-08-08,9.8100004196167,10.399999618530273,9.670000076293945,10.180000305175781,10.180000305175781,130400
2019-08-09,10.210000038146973,10.600000381469727,9.960000038146973,10.010000228881836,10.010000228881836,96500
2019-08-12,9.8100004196167,10.130000114440918,9.430000305175781,9.569999694824219,9.569999694824219,167300
2019-08-13,9.300000190734863,9.869999885559082,9.289999961853027,9.359999656677246,9.359999656677246,107400
2019-08-14,9.300000190734863,9.800000190734863,9.0,9.670000076293945,9.670000076293945,143100
2019-08-15,9.649999618530273,9.970000267028809,8.989999771118164,9.039999961853027,9.039999961853027,218600
2019-08-16,9.149999618530273,9.899999618530273,9.09000015258789,9.789999961853027,9.789999961853027,134800
2019-08-19,9.920000076293945,10.399999618530273,9.680000305175781,9.850000381469727,9.850000381469727,138100
2019-08-20,9.850000381469727,10.399999618530273,9.760000228881836,10.279999732971191,10.279999732971191,132000
2019-08-21,10.479999542236328,10.920000076293945,10.270000457763672,10.770000457763672,10.770000457763672,146400
2019-08-22,10.789999961853027,10.989999771118164,10.010000228881836,10.050000190734863,10.050000190734863,126000
2019-08-23,9.90999984741211,10.229999542236328,9.100000381469727,9.449999809265137,9.449999809265137,267800
2019-08-26,9.529999732971191,9.770000457763672,9.170000076293945,9.4399995803833,9.4399995803833,53800
2019-08-27,9.489999771118164,9.699999809265137,9.119999885559082,9.180000305175781,9.180000305175781,117800
2019-08-28,9.579999923706055,9.960000038146973,9.109999656677246,9.5,9.5,88400
2019-08-29,9.619999885559082,10.25,9.619999885559082,10.199999809265137,10.199999809265137,75900
2019-08-30,10.229999542236328,10.25,9.760000228881836,10.119999885559082,10.119999885559082,60000
2019-09-03,10.029999732971191,10.640000343322754,9.850000381469727,9.899999618530273,9.899999618530273,130000
2019-09-04,10.029999732971191,10.239999771118164,9.430000305175781,9.800000190734863,9.800000190734863,105200
2019-09-05,9.920000076293945,10.350000381469727,9.5,9.600000381469727,9.600000381469727,231300
2019-09-06,9.649999618530273,9.899999618530273,9.5,9.770000457763672,9.770000457763672,366500
2019-09-09,9.800000190734863,10.350000381469727,9.600000381469727,9.90999984741211,9.90999984741211,152700
2019-09-10,9.930000305175781,10.6899995803833,9.899999618530273,10.510000228881836,10.510000228881836,235400
2019-09-11,10.630000114440918,11.130000114440918,10.350000381469727,10.949999809265137,10.949999809265137,201500
2019-09-12,11.0,11.039999961853027,10.15999984741211,10.199999809265137,10.199999809265137,106100
2019-09-13,10.3100004196167,10.350000381469727,9.779999732971191,9.819999694824219,9.819999694824219,88800
2019-09-16,9.760000228881836,10.199999809265137,9.739999771118164,9.84000015258789,9.84000015258789,54700
2019-09-17,9.760000228881836,10.010000228881836,9.34000015258789,9.899999618530273,9.899999618530273,62300
2019-09-18,9.890000343322754,9.890000343322754,9.430000305175781,9.770000457763672,9.770000457763672,61900
2019-09-19,9.819999694824219,10.210000038146973,9.680000305175781,9.760000228881836,9.760000228881836,90500
2019-09-20,9.760000228881836,9.850000381469727,9.460000038146973,9.670000076293945,9.670000076293945,110100
2019-09-23,9.539999961853027,9.729999542236328,9.380000114440918,9.449999809265137,9.449999809265137,71300
2019-09-24,9.470000267028809,9.470000267028809,9.0,9.130000114440918,9.130000114440918,172900
2019-09-25,9.130000114440918,9.350000381469727,8.920000076293945,9.239999771118164,9.239999771118164,74400
2019-09-26,9.15999984741211,9.350000381469727,8.569999694824219,8.949999809265137,8.949999809265137,150500
2019-09-27,9.029999732971191,9.069999694824219,8.289999961853027,8.449999809265137,8.449999809265137,99100
2019-09-30,8.569999694824219,8.699999809265137,8.25,8.640000343322754,8.640000343322754,125900
2019-10-01,8.579999923706055,9.0600004196167,8.300000190734863,8.4399995803833,8.4399995803833,110600
2019-10-02,8.40999984741211,8.739999771118164,8.270000457763672,8.65999984741211,8.65999984741211,57600
2019-10-03,8.65999984741211,8.880000114440918,8.510000228881836,8.680000305175781,8.680000305175781,100100
2019-10-04,8.770000457763672,8.869999885559082,8.399999618530273,8.569999694824219,8.569999694824219,164300
2019-10-07,8.539999961853027,8.899999618530273,8.449999809265137,8.529999732971191,8.529999732971191,38200
2019-10-08,8.40999984741211,8.550000190734863,8.350000381469727,8.460000038146973,8.460000038146973,106600
2019-10-09,8.510000228881836,8.989999771118164,8.4399995803833,8.84000015258789,8.84000015258789,71900
2019-10-10,8.8100004196167,9.0,8.5600004196167,8.819999694824219,8.819999694824219,93000
2019-10-11,8.989999771118164,9.649999618530273,8.470000267028809,8.609999656677246,8.609999656677246,170400
2019-10-14,8.520000457763672,8.9399995803833,8.479999542236328,8.569999694824219,8.569999694824219,31800
2019-10-15,8.550000190734863,8.979999542236328,8.520000457763672,8.569999694824219,8.569999694824219,137000
2019-10-16,8.420000076293945,8.850000381469727,8.350000381469727,8.449999809265137,8.449999809265137,76900
2019-10-17,8.529999732971191,8.789999961853027,8.300000190734863,8.34000015258789,8.34000015258789,192900
2019-10-18,8.300000190734863,8.489999771118164,7.800000190734863,7.809999942779541,7.809999942779541,177900
2019-10-21,7.940000057220459,8.329999923706055,7.710000038146973,8.270000457763672,8.270000457763672,83500
2019-10-22,8.300000190734863,8.460000038146973,7.730000019073486,7.849999904632568,7.849999904632568,108400
2019-10-23,7.920000076293945,7.929999828338623,7.210000038146973,7.349999904632568,7.349999904632568,145700
2019-10-24,7.46999979019165,7.550000190734863,7.090000152587891,7.309999942779541,7.309999942779541,52900
2019-10-25,7.300000190734863,7.849999904632568,7.099999904632568,7.710000038146973,7.710000038146973,86700
2019-10-28,7.760000228881836,7.78000020980835,7.010000228881836,7.070000171661377,7.070000171661377,134700
2019-10-29,7.099999904632568,7.460000038146973,7.0,7.159999847412109,7.159999847412109,122100
2019-10-30,7.170000076293945,7.730000019073486,7.130000114440918,7.659999847412109,7.659999847412109,83600
2019-10-31,7.670000076293945,8.609999656677246,7.519999980926514,8.109999656677246,8.109999656677246,106500
2019-11-01,8.0600004196167,8.449999809265137,7.769999980926514,7.96999979019165,7.96999979019165,163200
2019-11-04,8.0,8.069999694824219,7.650000095367432,7.889999866485596,7.889999866485596,79000
2019-11-05,7.909999847412109,8.010000228881836,7.710000038146973,7.949999809265137,7.949999809265137,88600
2019-11-06,8.010000228881836,8.229999542236328,7.599999904632568,7.699999809265137,7.699999809265137,81500
2019-11-07,7.760000228881836,8.069999694824219,7.610000133514404,7.909999847412109,7.909999847412109,110100
2019-11-08,7.889999866485596,8.1899995803833,7.730000019073486,7.800000190734863,7.800000190734863,56800
2019-11-11,7.679999828338623,7.769999980926514,7.320000171661377,7.480000019073486,7.480000019073486,103400
2019-11-12,7.019999980926514,8.0,7.019999980926514,7.349999904632568,7.349999904632568,108700
2019-11-13,7.210000038146973,7.380000114440918,7.0,7.139999866485596,7.139999866485596,62600
2019-11-14,7.050000190734863,7.420000076293945,7.019999980926514,7.139999866485596,7.139999866485596,66400
2019-11-15,7.190000057220459,7.420000076293945,7.0,7.340000152587891,7.340000152587891,73100
2019-11-18,7.269999980926514,7.360000133514404,7.03000020980835,7.289999961853027,7.289999961853027,76100
2019-11-19,7.210000038146973,8.079999923706055,7.210000038146973,7.940000057220459,7.940000057220459,232700
2019-11-20,7.900000095367432,8.399999618530273,7.860000133514404,8.260000228881836,8.260000228881836,170100
2019-11-21,8.289999961853027,9.0,8.020000457763672,8.899999618530273,8.899999618530273,190700
2019-11-22,8.930000305175781,9.039999961853027,8.079999923706055,8.399999618530273,8.399999618530273,96600
2019-11-25,8.4399995803833,9.010000228881836,8.359999656677246,9.0,9.0,93400
2019-11-26,8.8100004196167,9.130000114440918,8.489999771118164,8.520000457763672,8.520000457763672,90300
2019-11-27,8.699999809265137,8.760000228881836,8.529999732971191,8.710000038146973,8.710000038146973,63700
2019-11-29,8.6899995803833,8.989999771118164,8.649999618530273,8.710000038146973,8.710000038146973,48800
2019-12-02,8.609999656677246,8.680000305175781,7.820000171661377,8.619999885559082,8.619999885559082,143900
2019-12-03,8.4399995803833,8.850000381469727,8.170000076293945,8.710000038146973,8.710000038146973,62500
2019-12-04,8.680000305175781,8.729999542236328,8.380000114440918,8.40999984741211,8.40999984741211,152400
2019-12-05,8.520000457763672,8.699999809265137,7.949999809265137,8.420000076293945,8.420000076293945,145900
2019-12-06,8.489999771118164,9.15999984741211,8.449999809265137,9.09000015258789,9.09000015258789,242900
2019-12-09,9.079999923706055,9.579999923706055,9.010000228881836,9.210000038146973,9.210000038146973,122800
2019-12-10,9.149999618530273,10.90999984741211,9.149999618530273,10.869999885559082,10.869999885559082,312700
2019-12-11,11.149999618530273,12.960000038146973,11.149999618530273,11.609999656677246,11.609999656677246,600200
2019-12-12,11.15999984741211,11.390000343322754,9.329999923706055,10.289999961853027,10.289999961853027,563700
2019-12-13,10.149999618530273,10.1899995803833,9.020000457763672,9.239999771118164,9.239999771118164,212600
2019-12-16,9.199999809265137,9.369999885559082,8.130000114440918,8.15999984741211,8.15999984741211,330500
2019-12-17,8.180000305175781,8.449999809265137,7.599999904632568,8.0,8.0,181000
2019-12-18,7.929999828338623,8.109999656677246,7.610000133514404,7.900000095367432,7.900000095367432,133500
2019-12-19,7.920000076293945,7.940000057220459,7.400000095367432,7.590000152587891,7.590000152587891,87100
2019-12-20,7.619999885559082,7.929999828338623,7.519999980926514,7.75,7.75,682700
2019-12-23,7.789999961853027,8.819999694824219,7.559999942779541,8.619999885559082,8.619999885559082,266000
2019-12-24,8.579999923706055,9.100000381469727,8.479999542236328,9.09000015258789,9.09000015258789,213500
2019-12-26,9.25,9.329999923706055,8.75,8.850000381469727,8.850000381469727,178900
2019-12-27,8.970000267028809,8.970000267028809,8.359999656677246,8.460000038146973,8.460000038146973,92300
2019-12-30,8.449999809265137,8.680000305175781,8.140000343322754,8.4399995803833,8.4399995803833,101200
2019-12-31,8.470000267028809,9.029999732971191,8.390000343322754,8.970000267028809,8.970000267028809,226700
2020-01-02,9.0600004196167,9.0600004196167,8.020000457763672,8.130000114440918,8.130000114440918,139500
2020-01-03,8.029999732971191,8.239999771118164,7.800000190734863,7.809999942779541,7.809999942779541,92700
2020-01-06,7.71999979019165,7.989999771118164,7.510000228881836,7.760000228881836,7.760000228881836,120600
2020-01-07,7.78000020980835,7.840000152587891,7.559999942779541,7.800000190734863,7.800000190734863,77300
2020-01-08,7.809999942779541,7.980000019073486,7.670000076293945,7.769999980926514,7.769999980926514,96800
2020-01-09,7.840000152587891,9.119999885559082,7.840000152587891,8.949999809265137,8.949999809265137,147900
2020-01-10,9.010000228881836,9.380000114440918,8.670000076293945,8.979999542236328,8.979999542236328,150600
2020-01-13,8.859999656677246,8.979999542236328,8.5,8.890000343322754,8.890000343322754,396500
2020-01-14,9.0600004196167,10.989999771118164,8.880000114440918,10.449999809265137,10.449999809265137,651600
2020-01-15,10.479999542236328,11.449999809265137,10.210000038146973,11.300000190734863,11.300000190734863,383200
2020-01-16,11.350000381469727,12.199999809265137,10.359999656677246,10.75,10.75,372100
2020-01-17,10.819999694824219,11.65999984741211,10.8100004196167,11.229999542236328,11.229999542236328,168300
2020-01-21,11.199999809265137,11.239999771118164,10.65999984741211,10.789999961853027,10.789999961853027,139600
2020-01-22,10.819999694824219,11.489999771118164,10.15999984741211,10.319999694824219,10.319999694824219,136400
2020-01-23,10.319999694824219,10.40999984741211,9.819999694824219,10.0600004196167,10.0600004196167,80600
2020-01-24,10.15999984741211,10.180000305175781,9.380000114440918,9.680000305175781,9.680000305175781,88300
2020-01-27,9.470000267028809,9.59000015258789,9.140000343322754,9.210000038146973,9.210000038146973,132700
2020-01-28,9.319999694824219,9.619999885559082,9.0600004196167,9.390000343322754,9.390000343322754,75900
2020-01-29,9.4399995803833,9.819999694824219,9.319999694824219,9.470000267028809,9.470000267028809,70600
2020-01-30,9.470000267028809,9.739999771118164,9.029999732971191,9.6899995803833,9.6899995803833,164900
2020-01-31,9.619999885559082,9.720000267028809,8.779999732971191,8.859999656677246,8.859999656677246,215000
2020-02-03,8.850000381469727,8.989999771118164,8.40999984741211,8.479999542236328,8.479999542236328,136400
2020-02-04,8.609999656677246,8.989999771118164,8.569999694824219,8.760000228881836,8.760000228881836,140300
2020-02-05,8.930000305175781,9.319999694824219,8.760000228881836,9.210000038146973,9.210000038146973,187200
2020-02-06,9.380000114440918,9.770000457763672,8.949999809265137,9.609999656677246,9.609999656677246,50200
2020-02-07,9.5600004196167,9.84000015258789,8.979999542236328,9.119999885559082,9.119999885559082,91300
2020-02-10,9.229999542236328,9.75,9.050000190734863,9.649999618530273,9.649999618530273,43200
2020-02-11,9.739999771118164,9.84000015258789,9.199999809265137,9.300000190734863,9.300000190734863,80900
2020-02-12,9.399999618530273,9.65999984741211,8.6899995803833,9.369999885559082,9.369999885559082,122000
2020-02-13,9.390000343322754,9.5,9.020000457763672,9.3100004196167,9.3100004196167,63000
2020-02-14,9.319999694824219,9.59000015258789,9.119999885559082,9.470000267028809,9.470000267028809,78300
2020-02-18,9.40999984741211,10.399999618530273,9.380000114440918,10.069999694824219,10.069999694824219,120200
2020-02-19,10.140000343322754,10.380000114440918,9.920000076293945,10.260000228881836,10.260000228881836,94900
2020-02-20,10.020000457763672,10.5,9.90999984741211,10.399999618530273,10.399999618530273,69400
2020-02-21,10.430000305175781,10.520000457763672,10.020000457763672,10.449999809265137,10.449999809265137,89300
2020-02-24,10.029999732971191,10.069999694824219,9.220000267028809,9.229999542236328,9.229999542236328,72200
2020-02-25,9.289999961853027,9.680000305175781,8.420000076293945,8.90999984741211,8.90999984741211,117400
2020-02-26,8.960000038146973,9.5,8.640000343322754,8.890000343322754,8.890000343322754,97300
2020-02-27,8.670000076293945,9.119999885559082,8.119999885559082,8.470000267028809,8.470000267028809,149600
2020-02-28,8.039999961853027,8.739999771118164,8.0,8.399999618530273,8.399999618530273,288200
2020-03-02,8.359999656677246,8.760000228881836,8.149999618530273,8.6899995803833,8.6899995803833,95300
2020-03-03,8.729999542236328,9.170000076293945,8.5,8.75,8.75,144100
2020-03-04,8.90999984741211,9.300000190734863,8.8100004196167,9.170000076293945,9.170000076293945,55400
2020-03-05,8.970000267028809,9.5,8.199999809265137,8.479999542236328,8.479999542236328,145300
2020-03-06,8.029999732971191,8.3100004196167,7.71999979019165,7.869999885559082,7.869999885559082,137400
2020-03-09,7.510000228881836,8.029999732971191,7.010000228881836,7.019999980926514,7.019999980926514,180400
2020-03-10,7.409999847412109,7.460000038146973,6.920000076293945,7.039999961853027,7.039999961853027,217200
2020-03-11,7.0,7.360000133514404,6.539999961853027,6.670000076293945,6.670000076293945,247400
2020-03-12,6.400000095367432,6.449999809265137,5.599999904632568,5.639999866485596,5.639999866485596,340800
2020-03-13,6.03000020980835,6.21999979019165,5.599999904632568,6.190000057220459,6.190000057220459,230800
2020-03-16,6.230000019073486,6.260000228881836,5.650000095367432,5.650000095367432,5.650000095367432,181000
2020-03-17,5.820000171661377,6.610000133514404,5.639999866485596,6.159999847412109,6.159999847412109,206600
2020-03-18,5.789999961853027,6.159999847412109,5.440000057220459,5.46999979019165,5.46999979019165,177300
2020-03-19,5.449999809265137,6.46999979019165,5.449999809265137,6.269999980926514,6.269999980926514,195100
2020-03-20,6.340000152587891,6.550000190734863,5.579999923706055,5.670000076293945,5.670000076293945,266600
2020-03-23,6.03000020980835,6.210000038146973,5.53000020980835,5.659999847412109,5.659999847412109,134100
2020-03-24,5.769999980926514,6.349999904632568,5.730000019073486,6.130000114440918,6.130000114440918,166900
2020-03-25,6.340000152587891,6.989999771118164,6.059999942779541,6.239999771118164,6.239999771118164,114000
2020-03-26,6.309999942779541,6.429999828338623,5.769999980926514,6.099999904632568,6.099999904632568,238600
2020-03-27,5.889999866485596,5.920000076293945,5.460000038146973,5.46999979019165,5.46999979019165,98800
2020-03-30,5.46999979019165,5.78000020980835,5.429999828338623,5.71999979019165,5.71999979019165,112800
2020-03-31,5.679999828338623,5.829999923706055,5.420000076293945,5.820000171661377,5.820000171661377,217200
2020-04-01,5.570000171661377,5.909999847412109,5.449999809265137,5.690000057220459,5.690000057220459,180100
2020-04-02,5.690000057220459,6.289999961853027,5.679999828338623,6.260000228881836,6.260000228881836,161400
2020-04-03,6.28000020980835,6.480000019073486,5.679999828338623,6.099999904632568,6.099999904632568,163500
2020-04-06,6.289999961853027,6.699999809265137,6.21999979019165,6.650000095367432,6.650000095367432,137900
2020-04-07,6.75,6.800000190734863,6.070000171661377,6.179999828338623,6.179999828338623,141700
2020-04-08,6.340000152587891,6.809999942779541,6.059999942779541,6.71999979019165,6.71999979019165,186900
2020-04-09,6.860000133514404,7.210000038146973,6.510000228881836,6.75,6.75,143000
2020-04-13,6.710000038146973,6.909999847412109,6.25,6.630000114440918,6.630000114440918,84600
2020-04-14,6.71999979019165,6.869999885559082,6.420000076293945,6.739999771118164,6.739999771118164,53200
2020-04-15,6.480000019073486,7.199999809265137,6.320000171661377,6.670000076293945,6.670000076293945,119400
2020-04-16,6.670000076293945,7.300000190734863,6.639999866485596,7.25,7.25,203000
2020-04-17,7.46999979019165,7.809999942779541,7.28000020980835,7.659999847412109,7.659999847412109,133500
2020-04-20,7.449999809265137,8.09000015258789,7.449999809265137,7.659999847412109,7.659999847412109,74900
2020-04-21,7.510000228881836,7.880000114440918,7.409999847412109,7.75,7.75,70500
2020-04-22,7.889999866485596,7.889999866485596,7.28000020980835,7.360000133514404,7.360000133514404,78900
2020-04-23,7.360000133514404,7.590000152587891,7.110000133514404,7.159999847412109,7.159999847412109,93500
2020-04-24,7.170000076293945,7.46999979019165,6.940000057220459,7.440000057220459,7.440000057220459,98600
2020-04-27,7.519999980926514,7.789999961853027,7.380000114440918,7.610000133514404,7.610000133514404,60200
2020-04-28,7.860000133514404,8.109999656677246,7.409999847412109,7.989999771118164,7.989999771118164,264000
2020-04-29,8.239999771118164,8.329999923706055,7.869999885559082,8.170000076293945,8.170000076293945,98400
2020-04-30,8.0,8.0,6.940000057220459,7.010000228881836,7.010000228881836,106500
2020-05-01,6.78000020980835,6.909999847412109,6.210000038146973,6.309999942779541,6.309999942779541,182900
2020-05-04,6.300000190734863,6.809999942779541,6.199999809265137,6.53000020980835,6.53000020980835,82000
2020-05-05,6.670000076293945,7.340000152587891,6.539999961853027,6.760000228881836,6.760000228881836,94100
2020-05-06,6.789999961853027,6.989999771118164,6.260000228881836,6.550000190734863,6.550000190734863,219500
2020-05-07,6.619999885559082,7.139999866485596,6.519999980926514,6.75,6.75,267400
2020-05-08,6.949999809265137,7.010000228881836,6.300000190734863,6.460000038146973,6.460000038146973,244200
2020-05-11,6.400000095367432,6.909999847412109,6.309999942779541,6.630000114440918,6.630000114440918,368800
2020-05-12,6.739999771118164,6.980000019073486,6.559999942779541,6.659999847412109,6.659999847412109,259700
2020-05-13,6.639999866485596,6.679999828338623,6.21999979019165,6.400000095367432,6.400000095367432,210500
2020-05-14,6.360000133514404,6.440000057220459,6.059999942779541,6.28000020980835,6.28000020980835,242500
2020-05-15,6.300000190734863,6.650000095367432,6.239999771118164,6.590000152587891,6.590000152587891,158700
2020-05-18,6.760000228881836,6.949999809265137,6.599999904632568,6.71999979019165,6.71999979019165,158000
2020-05-19,6.650000095367432,6.900000095367432,6.53000020980835,6.599999904632568,6.599999904632568,89800
2020-05-20,6.739999771118164,7.010000228881836,6.599999904632568,6.989999771118164,6.989999771118164,112200
2020-05-21,6.989999771118164,7.050000190734863,6.369999885559082,6.400000095367432,6.400000095367432,170700
2020-05-22,6.449999809265137,7.110000133514404,6.349999904632568,6.730000019073486,6.730000019073486,343100
2020-05-26,7.019999980926514,7.099999904632568,6.449999809265137,6.510000228881836,6.510000228881836,196400
2020-05-27,6.699999809265137,6.889999866485596,6.320000171661377,6.550000190734863,6.550000190734863,170500
2020-05-28,6.710000038146973,6.78000020980835,6.5,6.570000171661377,6.570000171661377,110500
2020-05-29,6.539999961853027,6.679999828338623,6.28000020980835,6.460000038146973,6.460000038146973,115600
2020-06-01,6.400000095367432,6.5,6.199999809265137,6.269999980926514,6.269999980926514,291100
2020-06-02,6.309999942779541,6.480000019073486,6.130000114440918,6.28000020980835,6.28000020980835,324200
2020-06-03,6.360000133514404,6.46999979019165,6.199999809265137,6.289999961853027,6.289999961853027,346900
2020-06-04,6.309999942779541,6.699999809265137,6.309999942779541,6.53000020980835,6.53000020980835,370300
2020-06-05,6.730000019073486,6.880000114440918,6.389999866485596,6.730000019073486,6.730000019073486,350500
2020-06-08,6.789999961853027,6.960000038146973,6.610000133514404,6.889999866485596,6.889999866485596,277100
2020-06-09,7.170000076293945,7.170000076293945,6.619999885559082,6.849999904632568,6.849999904632568,353000
2020-06-10,6.840000152587891,7.099999904632568,6.820000171661377,6.940000057220459,6.940000057220459,335100
2020-06-11,6.820000171661377,6.820000171661377,6.309999942779541,6.349999904632568,6.349999904632568,367300
2020-06-12,6.570000171661377,6.730000019073486,6.25,6.349999904632568,6.349999904632568,234600
2020-06-15,6.289999961853027,6.389999866485596,6.050000190734863,6.289999961853027,6.289999961853027,305500
2020-06-16,6.440000057220459,6.75,6.349999904632568,6.699999809265137,6.699999809265137,246500
2020-06-17,6.699999809265137,6.710000038146973,6.449999809265137,6.579999923706055,6.579999923706055,171000
2020-06-18,6.510000228881836,6.869999885559082,6.510000228881836,6.659999847412109,6.659999847412109,202700
2020-06-19,6.730000019073486,6.980000019073486,6.630000114440918,6.650000095367432,6.650000095367432,472500
2020-06-22,6.610000133514404,6.940000057220459,6.5,6.539999961853027,6.539999961853027,341600
2020-06-23,6.610000133514404,6.75,6.510000228881836,6.570000171661377,6.570000171661377,411600
2020-06-24,6.650000095367432,7.079999923706055,6.53000020980835,6.840000152587891,6.840000152587891,473600
2020-06-25,6.820000171661377,7.139999866485596,6.820000171661377,6.909999847412109,6.909999847412109,607600
2020-06-26,6.849999904632568,7.059999942779541,6.619999885559082,6.820000171661377,6.820000171661377,1154700
2020-06-29,6.940000057220459,6.980000019073486,6.519999980926514,6.679999828338623,6.679999828338623,264300
2020-06-30,6.659999847412109,6.760000228881836,6.46999979019165,6.639999866485596,6.639999866485596,220400
2020-07-01,6.699999809265137,6.710000038146973,6.5,6.550000190734863,6.550000190734863,283400
2020-07-02,6.659999847412109,6.690000057220459,6.510000228881836,6.579999923706055,6.579999923706055,227000
2020-07-06,6.71999979019165,6.769999980926514,6.619999885559082,6.690000057220459,6.690000057220459,556300
2020-07-07,6.659999847412109,6.760000228881836,6.289999961853027,6.329999923706055,6.329999923706055,725600
2020-07-08,6.360000133514404,6.46999979019165,6.230000019073486,6.289999961853027,6.289999961853027,813500
2020-07-09,6.480000019073486,7.190000057220459,6.329999923706055,7.099999904632568,7.099999904632568,1537400
2020-07-10,7.139999866485596,8.149999618530273,6.679999828338623,8.09000015258789,8.09000015258789,1790300
2020-07-13,5.360000133514404,5.400000095367432,3.9200000762939453,4.019999980926514,4.019999980926514,11377500
2020-07-14,3.7200000286102295,4.110000133514404,3.5999999046325684,3.890000104904175,3.890000104904175,3773100
2020-07-15,3.9100000858306885,3.9700000286102295,3.75,3.880000114440918,3.880000114440918,1529600
2020-07-16,3.8399999141693115,3.890000104904175,3.7100000381469727,3.7899999618530273,3.7899999618530273,1131800
2020-07-17,3.740000009536743,3.930000066757202,3.7300000190734863,3.799999952316284,3.799999952316284,928800
2020-07-20,3.8499999046325684,3.9200000762939453,3.759999990463257,3.859999895095825,3.859999895095825,726300
2020-07-21,3.8499999046325684,3.869999885559082,3.6500000953674316,3.690000057220459,3.690000057220459,1143500
2020-07-22,3.6700000762939453,3.7100000381469727,3.5,3.5199999809265137,3.5199999809265137,1037900
2020-07-23,3.549999952316284,3.7899999618530273,3.5199999809265137,3.5899999141693115,3.5899999141693115,792200
2020-07-24,3.5899999141693115,3.6500000953674316,3.4600000381469727,3.6500000953674316,3.6500000953674316,828800
2020-07-27,3.609999895095825,3.7100000381469727,3.5899999141693115,3.630000114440918,3.630000114440918,395400
2020-07-28,3.5999999046325684,3.7699999809265137,3.5,3.559999942779541,3.559999942779541,494800
2020-07-29,3.549999952316284,3.559999942779541,3.3399999141693115,3.4000000953674316,3.4000000953674316,853000
2020-07-30,3.380000114440918,3.4200000762939453,3.25,3.319999933242798,3.319999933242798,766200
2020-07-31,3.309999942779541,3.380000114440918,3.180000066757202,3.2100000381469727,3.2100000381469727,627800
2020-08-03,3.2300000190734863,3.4000000953674316,3.180000066757202,3.3299999237060547,3.3299999237060547,499700
2020-08-04,3.3399999141693115,3.380000114440918,3.2300000190734863,3.2899999618530273,3.2899999618530273,417900
2020-08-05,3.259999990463257,3.630000114440918,3.259999990463257,3.450000047683716,3.450000047683716,854900
2020-08-06,3.490000009536743,3.680000066757202,3.390000104904175,3.559999942779541,3.559999942779541,463500
2020-08-07,3.6700000762939453,3.819999933242798,3.569999933242798,3.680000066757202,3.680000066757202,973500
2020-08-10,3.759999990463257,3.7899999618530273,3.6500000953674316,3.700000047683716,3.700000047683716,500800
2020-08-11,3.759999990463257,3.799999952316284,3.549999952316284,3.5899999141693115,3.5899999141693115,558400
2020-08-12,3.619999885559082,3.7200000286102295,3.5199999809265137,3.5899999141693115,3.5899999141693115,326800
2020-08-13,3.5799999237060547,3.680000066757202,3.549999952316284,3.6500000953674316,3.6500000953674316,240500
2020-08-14,3.6500000953674316,3.6700000762939453,3.5199999809265137,3.5399999618530273,3.5399999618530273,244400
2020-08-17,3.509999990463257,3.5799999237060547,3.3399999141693115,3.380000114440918,3.380000114440918,895700
2020-08-18,3.4200000762939453,3.549999952316284,3.380000114440918,3.5199999809265137,3.5199999809265137,395900
2020-08-19,3.5199999809265137,3.559999942779541,3.380000114440918,3.430000066757202,3.430000066757202,359600
2020-08-20,3.4000000953674316,3.5,3.359999895095825,3.450000047683716,3.450000047683716,419500
2020-08-21,3.4200000762939453,3.440000057220459,3.259999990463257,3.299999952316284,3.299999952316284,318400
2020-08-24,3.3499999046325684,3.3499999046325684,3.1700000762939453,3.25,3.25,328100
2020-08-25,3.2799999713897705,3.3299999237060547,3.2200000286102295,3.2699999809265137,3.2699999809265137,224700
2020-08-26,3.2799999713897705,3.309999942779541,3.200000047683716,3.2300000190734863,3.2300000190734863,165300
2020-08-27,3.25,3.2699999809265137,3.1600000858306885,3.200000047683716,3.200000047683716,209200
2020-08-28,3.2100000381469727,3.4000000953674316,3.200000047683716,3.299999952316284,3.299999952316284,327600
2020-08-31,3.3399999141693115,3.390000104904175,3.2699999809265137,3.309999942779541,3.309999942779541,332200
2020-09-01,3.299999952316284,3.3399999141693115,3.1700000762939453,3.2100000381469727,3.2100000381469727,272100
2020-09-02,3.2200000286102295,3.2300000190734863,3.059999942779541,3.140000104904175,3.140000104904175,388400
2020-09-03,3.119999885559082,3.180000066757202,2.990000009536743,3.0199999809265137,3.0199999809265137,342500
2020-09-04,3.0399999618530273,3.059999942779541,2.7799999713897705,2.869999885559082,2.869999885559082,558500
2020-09-08,2.8499999046325684,3.119999885559082,2.8499999046325684,3.0399999618530273,3.0399999618530273,417900
2020-09-09,3.0799999237060547,3.2200000286102295,3.049999952316284,3.1500000953674316,3.1500000953674316,148200
2020-09-10,3.119999885559082,3.380000114440918,2.990000009536743,3.069999933242798,3.069999933242798,1146600
2020-09-11,3.0399999618530273,3.109999895095825,2.9700000286102295,3.069999933242798,3.069999933242798,255300
2020-09-14,3.130000114440918,3.319999933242798,3.0999999046325684,3.2699999809265137,3.2699999809265137,654000
2020-09-15,3.309999942779541,3.430000066757202,3.1700000762939453,3.180000066757202,3.180000066757202,930900
2020-09-16,3.2100000381469727,3.380000114440918,3.1700000762939453,3.2799999713897705,3.2799999713897705,410900
2020-09-17,3.190000057220459,3.3499999046325684,3.1700000762939453,3.3299999237060547,3.3299999237060547,249800
2020-09-18,3.3499999046325684,3.3499999046325684,3.1700000762939453,3.299999952316284,3.299999952316284,326000
2020-09-21,3.259999990463257,3.259999990463257,3.0,3.009999990463257,3.009999990463257,372200
2020-09-22,3.049999952316284,3.049999952316284,2.9200000762939453,2.950000047683716,2.950000047683716,264100
2020-09-23,2.950000047683716,2.9700000286102295,2.759999990463257,2.7799999713897705,2.7799999713897705,362700
2020-09-24,2.890000104904175,2.890000104904175,2.700000047683716,2.740000009536743,2.740000009536743,297700
2020-09-25,2.7200000286102295,2.8399999141693115,2.7200000286102295,2.759999990463257,2.759999990463257,170900
2020-09-28,2.7699999809265137,2.809999942779541,2.630000114440918,2.630000114440918,2.630000114440918,387300
2020-09-29,2.680000066757202,2.7200000286102295,2.630000114440918,2.6500000953674316,2.6500000953674316,307800
2020-09-30,2.6600000858306885,2.740000009536743,2.640000104904175,2.6500000953674316,2.6500000953674316,226500
2020-10-01,2.6700000762939453,2.75,2.5999999046325684,2.690000057220459,2.690000057220459,394400
2020-10-02,2.6700000762939453,2.7899999618530273,2.640000104904175,2.6600000858306885,2.6600000858306885,562100
2020-10-05,2.690000057220459,2.8299999237060547,2.690000057220459,2.7899999618530273,2.7899999618530273,444700
2020-10-06,2.799999952316284,2.950000047683716,2.7799999713897705,2.859999895095825,2.859999895095825,321000
2020-10-07,2.859999895095825,2.9800000190734863,2.8399999141693115,2.950000047683716,2.950000047683716,346300
2020-10-08,2.9700000286102295,3.069999933242798,2.950000047683716,3.0199999809265137,3.0199999809265137,134600
2020-10-09,3.059999942779541,3.0899999141693115,2.9800000190734863,3.0,3.0,176800
2020-10-12,3.009999990463257,3.009999990463257,2.950000047683716,2.9800000190734863,2.9800000190734863,87300
2020-10-13,2.9600000381469727,3.049999952316284,2.8399999141693115,3.0199999809265137,3.0199999809265137,202800
2020-10-14,3.0399999618530273,3.0999999046325684,2.9700000286102295,2.990000009536743,2.990000009536743,142400
2020-10-15,2.9800000190734863,3.0199999809265137,2.9100000858306885,3.0199999809265137,3.0199999809265137,238000
2020-10-16,3.0,3.0999999046325684,2.9600000381469727,2.9800000190734863,2.9800000190734863,148900
2020-10-19,3.009999990463257,3.0199999809265137,2.9000000953674316,2.950000047683716,2.950000047683716,192400
2020-10-20,2.940000057220459,2.990000009536743,2.859999895095825,2.9000000953674316,2.9000000953674316,115000
2020-10-21,2.9000000953674316,2.940000057220459,2.809999942779541,2.8499999046325684,2.8499999046325684,170800
2020-10-22,2.859999895095825,2.9600000381469727,2.8399999141693115,2.950000047683716,2.950000047683716,86900
2020-10-23,2.940000057220459,3.0199999809265137,2.9000000953674316,3.009999990463257,3.009999990463257,135000
2020-10-26,3.049999952316284,3.049999952316284,2.8499999046325684,2.940000057220459,2.940000057220459,183800
2020-10-27,2.9100000858306885,3.0,2.9000000953674316,2.9600000381469727,2.9600000381469727,319600
2020-10-28,2.9100000858306885,2.9100000858306885,2.75,2.75,2.75,134500
2020-10-29,2.7300000190734863,2.9100000858306885,2.6600000858306885,2.7799999713897705,2.7799999713897705,102000
2020-10-30,2.7699999809265137,2.809999942779541,2.6600000858306885,2.7300000190734863,2.7300000190734863,145000
2020-11-02,2.75,2.7799999713897705,2.6700000762939453,2.7200000286102295,2.7200000286102295,111900
2020-11-03,2.7699999809265137,2.809999942779541,2.6500000953674316,2.7699999809265137,2.7699999809265137,156600
2020-11-04,2.7300000190734863,2.859999895095825,2.630000114440918,2.6700000762939453,2.6700000762939453,235600
2020-11-05,2.700000047683716,2.7100000381469727,2.5399999618530273,2.569999933242798,2.569999933242798,208900
2020-11-06,2.569999933242798,2.690000057220459,2.5399999618530273,2.569999933242798,2.569999933242798,136200
2020-11-09,2.609999895095825,2.8399999141693115,2.5999999046325684,2.619999885559082,2.619999885559082,216200
2020-11-10,2.6700000762939453,2.7300000190734863,2.549999952316284,2.690000057220459,2.690000057220459,133100
2020-11-11,2.700000047683716,2.7300000190734863,2.619999885559082,2.7200000286102295,2.7200000286102295,107000
2020-11-12,2.7100000381469727,2.740000009536743,2.640000104904175,2.700000047683716,2.700000047683716,114100
2020-11-13,2.700000047683716,2.819999933242798,2.6700000762939453,2.7699999809265137,2.7699999809265137,131100
2020-11-16,2.869999885559082,2.9000000953674316,2.759999990463257,2.869999885559082,2.869999885559082,144400
2020-11-17,2.8499999046325684,2.8499999046325684,2.619999885559082,2.690000057220459,2.690000057220459,349800
2020-11-18,2.75,2.869999885559082,2.700000047683716,2.7699999809265137,2.7699999809265137,221100
2020-11-19,2.759999990463257,2.8399999141693115,2.680000066757202,2.7200000286102295,2.7200000286102295,136100
2020-11-20,2.690000057220459,2.8399999141693115,2.630000114440918,2.809999942779541,2.809999942779541,168900
2020-11-23,2.8299999237060547,3.200000047683716,2.799999952316284,3.0999999046325684,3.0999999046325684,1002000
2020-11-24,3.059999942779541,3.200000047683716,2.9800000190734863,3.0,3.0,370200
2020-11-25,2.9800000190734863,3.4600000381469727,2.9600000381469727,3.390000104904175,3.390000104904175,879400
2020-11-27,3.369999885559082,3.4600000381469727,3.180000066757202,3.2699999809265137,3.2699999809265137,357700
2020-11-30,3.309999942779541,3.3399999141693115,3.0399999618530273,3.049999952316284,3.049999952316284,694700
2020-12-01,3.0899999141693115,3.2300000190734863,2.9800000190734863,3.0,3.0,259400
2020-12-02,2.9800000190734863,3.049999952316284,2.869999885559082,2.9600000381469727,2.9600000381469727,257000
2020-12-03,3.0,3.0799999237060547,2.930000066757202,2.9700000286102295,2.9700000286102295,200700
2020-12-04,2.940000057220459,3.0299999713897705,2.9200000762939453,3.0,3.0,201300
2020-12-07,2.9600000381469727,3.119999885559082,2.9600000381469727,3.009999990463257,3.009999990463257,157200
2020-12-08,3.0,3.069999933242798,2.9600000381469727,3.049999952316284,3.049999952316284,148000
2020-12-09,3.0799999237060547,3.0999999046325684,2.859999895095825,2.9200000762939453,2.9200000762939453,229600
2020-12-10,3.069999933242798,3.069999933242798,2.9000000953674316,2.990000009536743,2.990000009536743,99300
2020-12-11,3.0,3.0399999618530273,2.950000047683716,3.009999990463257,3.009999990463257,245800
2020-12-14,3.009999990463257,3.1500000953674316,2.9700000286102295,3.049999952316284,3.049999952316284,261500
2020-12-15,3.049999952316284,3.119999885559082,3.0,3.0999999046325684,3.0999999046325684,197800
2020-12-16,3.0799999237060547,3.130000114440918,2.990000009536743,3.069999933242798,3.069999933242798,224300
2020-12-17,3.0399999618530273,3.130000114440918,3.0,3.0899999141693115,3.0899999141693115,254500
2020-12-18,3.130000114440918,3.4700000286102295,3.119999885559082,3.450000047683716,3.450000047683716,1144400
2020-12-21,3.369999885559082,3.430000066757202,3.2100000381469727,3.380000114440918,3.380000114440918,289700
2020-12-22,3.380000114440918,3.4000000953674316,3.25,3.3399999141693115,3.3399999141693115,165200
2020-12-23,3.75,4.269999980926514,3.640000104904175,4.159999847412109,4.159999847412109,2545600
2020-12-24,4.119999885559082,4.440000057220459,3.859999895095825,4.21999979019165,4.21999979019165,617100
2020-12-28,4.210000038146973,4.210000038146973,3.680000066757202,3.700000047683716,3.700000047683716,523900
2020-12-29,3.75,3.9000000953674316,3.700000047683716,3.809999942779541,3.809999942779541,351700
2020-12-30,3.7799999713897705,4.480000019073486,3.7699999809265137,4.090000152587891,4.090000152587891,930900
