Date,Open,High,Low,Close,Adj Close,Volume
2020-03-25,15.359999656677246,15.359999656677246,15.359999656677246,15.359999656677246,15.359999656677246,250
2020-03-26,15.359999656677246,15.359999656677246,15.359999656677246,15.359999656677246,15.359999656677246,0
2020-03-27,17.992000579833984,18.760000228881836,17.992000579833984,17.992000579833984,17.992000579833984,750
2020-03-30,17.992000579833984,17.992000579833984,17.992000579833984,17.992000579833984,17.992000579833984,0
2020-03-31,17.992000579833984,17.992000579833984,17.992000579833984,17.992000579833984,17.992000579833984,0
2020-04-01,17.992000579833984,17.992000579833984,17.992000579833984,17.992000579833984,17.992000579833984,0
2020-04-02,17.992000579833984,17.992000579833984,17.992000579833984,17.992000579833984,17.992000579833984,0
2020-04-03,17.992000579833984,17.992000579833984,17.992000579833984,17.992000579833984,17.992000579833984,0
2020-04-06,16.799999237060547,16.799999237060547,16.799999237060547,16.799999237060547,16.799999237060547,300
2020-04-07,14.859999656677246,14.859999656677246,14.859999656677246,14.859999656677246,14.859999656677246,350
2020-04-08,14.859999656677246,14.859999656677246,14.859999656677246,14.859999656677246,14.859999656677246,0
2020-04-09,18.676000595092773,40.0,18.219999313354492,19.899999618530273,19.899999618530273,429800
2020-04-13,21.200000762939453,22.600000381469727,18.0,20.5,20.5,11200
2020-04-14,19.6200008392334,20.0,19.440000534057617,20.0,20.0,28150
2020-04-15,19.979999542236328,19.979999542236328,19.299999237060547,19.940000534057617,19.940000534057617,1850
2020-04-16,20.200000762939453,20.540000915527344,19.899999618530273,20.209999084472656,20.209999084472656,281600
2020-04-17,19.540000915527344,20.0,19.420000076293945,20.0,20.0,200400
2020-04-20,19.479999542236328,20.0,19.31999969482422,19.670000076293945,19.670000076293945,5500
2020-04-21,19.365999221801758,19.65999984741211,19.040000915527344,19.040000915527344,19.040000915527344,3500
2020-04-22,19.56999969482422,19.56999969482422,16.959999084472656,18.09000015258789,18.09000015258789,2500
2020-04-23,19.110000610351562,19.209999084472656,18.895999908447266,18.895999908447266,18.895999908447266,7550
2020-04-24,18.940000534057617,19.3799991607666,18.8799991607666,19.3799991607666,19.3799991607666,5150
2020-04-27,19.399999618530273,19.479999542236328,19.1200008392334,19.479999542236328,19.479999542236328,4550
2020-04-28,19.690000534057617,19.940000534057617,19.690000534057617,19.940000534057617,19.940000534057617,3650
2020-04-29,19.940000534057617,20.440000534057617,19.926000595092773,20.399999618530273,20.399999618530273,232400
2020-04-30,20.15999984741211,21.799999237060547,20.139999389648438,21.399999618530273,21.399999618530273,293100
2020-05-01,20.739999771118164,20.777999877929688,19.579999923706055,19.90999984741211,19.90999984741211,8700
2020-05-04,19.700000762939453,20.260000228881836,19.600000381469727,20.260000228881836,20.260000228881836,10150
2020-05-05,19.899999618530273,20.360000610351562,19.881999969482422,20.360000610351562,20.360000610351562,3250
2020-05-06,20.31999969482422,20.420000076293945,20.0,20.399999618530273,20.399999618530273,4050
2020-05-07,20.700000762939453,21.299999237060547,20.600000381469727,21.200000762939453,21.200000762939453,15100
2020-05-08,21.399999618530273,21.479999542236328,21.15999984741211,21.420000076293945,21.420000076293945,28900
2020-05-11,21.399999618530273,21.959999084472656,21.280000686645508,21.899999618530273,21.899999618530273,10200
2020-05-12,21.54599952697754,21.6200008392334,21.200000762939453,21.420000076293945,21.420000076293945,7750
2020-05-13,21.389999389648438,21.600000381469727,21.100000381469727,21.520000457763672,21.520000457763672,10100
2020-05-14,20.59600067138672,20.649999618530273,20.3799991607666,20.399999618530273,20.399999618530273,13650
2020-05-15,21.139999389648438,21.15999984741211,20.760000228881836,20.780000686645508,20.780000686645508,6750
2020-05-18,21.219999313354492,21.360000610351562,21.020000457763672,21.260000228881836,21.260000228881836,25850
2020-05-19,20.979999542236328,21.059999465942383,20.299999237060547,20.799999237060547,20.799999237060547,3900
2020-05-20,20.850000381469727,21.239999771118164,20.809999465942383,21.139999389648438,21.139999389648438,853600
2020-05-21,21.31999969482422,21.360000610351562,20.989999771118164,21.200000762939453,21.200000762939453,110600
2020-05-22,21.559999465942383,21.700000762939453,21.440000534057617,21.549999237060547,21.549999237060547,7200
2020-05-26,21.280000686645508,21.540000915527344,21.200000762939453,21.540000915527344,21.540000915527344,8600
2020-05-27,20.81999969482422,21.139999389648438,20.780000686645508,21.139999389648438,21.139999389648438,17850
2020-05-28,21.15999984741211,21.559999465942383,21.15999984741211,21.459999084472656,21.459999084472656,4600
2020-05-29,21.84000015258789,21.979999542236328,21.399999618530273,21.979999542236328,21.979999542236328,14900
2020-06-01,21.790000915527344,21.790000915527344,21.3799991607666,21.68000030517578,21.68000030517578,11750
2020-06-02,22.139999389648438,22.5,22.139999389648438,22.479999542236328,22.479999542236328,4850
2020-06-03,22.540000915527344,22.860000610351562,22.540000915527344,22.600000381469727,22.600000381469727,19950
2020-06-04,22.540000915527344,22.780000686645508,22.5,22.5,22.5,272650
2020-06-05,22.559999465942383,23.040000915527344,22.079999923706055,23.040000915527344,23.040000915527344,18300
2020-06-08,21.790000915527344,22.100000381469727,21.700000762939453,21.920000076293945,21.920000076293945,26700
2020-06-09,21.84000015258789,22.6200008392334,21.84000015258789,22.420000076293945,22.420000076293945,13100
2020-06-10,23.059999465942383,23.059999465942383,18.100000381469727,20.0,20.0,93050
2020-06-11,19.200000762939453,19.200000762939453,18.5,18.600000381469727,18.600000381469727,42800
2020-06-12,19.040000915527344,19.139999389648438,17.8799991607666,18.610000610351562,18.610000610351562,72000
2020-06-15,18.149999618530273,18.5,18.0,18.47800064086914,18.47800064086914,83650
2020-06-16,19.040000915527344,19.3799991607666,18.979999542236328,19.219999313354492,19.219999313354492,28700
2020-06-17,19.600000381469727,19.760000228881836,19.399999618530273,19.739999771118164,19.739999771118164,661900
2020-06-18,19.299999237060547,19.3799991607666,19.079999923706055,19.190000534057617,19.190000534057617,19450
2020-06-19,19.260000228881836,19.440000534057617,19.0,19.440000534057617,19.440000534057617,32000
2020-06-22,19.3799991607666,19.799999237060547,19.309999465942383,19.780000686645508,19.780000686645508,21700
2020-06-23,19.799999237060547,20.81999969482422,19.799999237060547,20.760000228881836,20.760000228881836,34000
2020-06-24,20.31999969482422,20.6200008392334,19.940000534057617,20.3700008392334,20.3700008392334,12500
2020-06-25,20.15999984741211,20.540000915527344,20.15999984741211,20.540000915527344,20.540000915527344,19850
2020-06-26,20.739999771118164,20.899999618530273,20.360000610351562,20.70599937438965,20.70599937438965,24750
2020-06-29,21.100000381469727,21.100000381469727,20.719999313354492,21.100000381469727,21.100000381469727,22200
2020-06-30,20.739999771118164,21.200000762939453,20.600000381469727,20.950000762939453,20.950000762939453,11400
2020-07-01,21.1200008392334,21.1200008392334,20.760000228881836,21.0,21.0,8250
2020-07-02,21.040000915527344,21.1200008392334,20.979999542236328,21.06999969482422,21.06999969482422,7700
2020-07-06,21.719999313354492,22.219999313354492,21.601999282836914,22.219999313354492,22.219999313354492,10700
2020-07-07,21.775999069213867,22.0,21.5,21.5,21.5,15650
2020-07-08,21.610000610351562,21.639999389648438,21.3799991607666,21.479999542236328,21.479999542236328,12600
2020-07-09,21.459999084472656,21.6200008392334,21.04199981689453,21.395999908447266,21.395999908447266,8700
2020-07-10,21.299999237060547,21.520000457763672,21.139999389648438,21.195999145507812,21.195999145507812,21400
2020-07-13,21.139999389648438,21.559999465942383,20.739999771118164,20.739999771118164,20.739999771118164,32500
2020-07-14,20.68000030517578,21.020000457763672,20.540000915527344,20.81999969482422,20.81999969482422,14400
2020-07-15,21.100000381469727,21.15999984741211,20.6200008392334,20.875999450683594,20.875999450683594,43500
2020-07-16,20.75,20.899999618530273,20.5,20.84000015258789,20.84000015258789,57300
2020-07-17,20.95800018310547,21.15999984741211,20.90999984741211,21.139999389648438,21.139999389648438,13300
2020-07-20,21.149999618530273,21.31999969482422,21.020000457763672,21.079999923706055,21.079999923706055,12100
2020-07-21,21.579999923706055,21.719999313354492,21.200000762939453,21.350000381469727,21.350000381469727,25000
2020-07-22,21.43000030517578,21.639999389648438,21.15999984741211,21.15999984741211,21.15999984741211,16450
2020-07-23,21.378000259399414,21.540000915527344,20.780000686645508,20.979999542236328,20.979999542236328,17800
2020-07-24,20.700000762939453,21.139999389648438,20.600000381469727,20.84000015258789,20.84000015258789,32150
2020-07-27,21.34000015258789,21.559999465942383,21.1200008392334,21.40999984741211,21.40999984741211,18400
2020-07-28,21.5,21.760000228881836,21.3700008392334,21.3700008392334,21.3700008392334,9250
2020-07-29,21.68000030517578,21.81999969482422,21.5,21.719999313354492,21.719999313354492,32550
2020-07-30,21.31999969482422,21.540000915527344,21.1200008392334,21.540000915527344,21.540000915527344,14000
2020-07-31,21.739999771118164,21.959999084472656,21.34000015258789,21.81399917602539,21.81399917602539,9300
2020-08-03,22.15999984741211,22.459999084472656,22.1200008392334,22.440000534057617,22.440000534057617,13200
2020-08-04,22.260000228881836,22.31999969482422,22.0,22.149999618530273,22.149999618530273,14100
2020-08-05,22.360000610351562,22.81999969482422,22.360000610351562,22.81999969482422,22.81999969482422,12050
2020-08-06,22.68000030517578,23.020000457763672,22.6200008392334,22.889999389648438,22.889999389648438,17300
2020-08-07,22.81999969482422,23.139999389648438,22.65999984741211,22.690000534057617,22.690000534057617,19400
2020-08-10,22.579999923706055,22.719999313354492,22.260000228881836,22.3799991607666,22.3799991607666,12150
2020-08-11,22.600000381469727,22.760000228881836,22.059999465942383,22.059999465942383,22.059999465942383,11800
2020-08-12,23.3799991607666,23.559999465942383,23.260000228881836,23.260000228881836,23.260000228881836,9100
2020-08-13,23.639999389648438,23.8799991607666,23.299999237060547,23.799999237060547,23.799999237060547,11450
2020-08-14,23.579999923706055,23.579999923706055,23.260000228881836,23.420000076293945,23.420000076293945,10650
2020-08-17,23.399999618530273,24.0,23.399999618530273,23.59000015258789,23.59000015258789,11250
2020-08-18,23.780000686645508,24.040000915527344,23.68000030517578,23.959999084472656,23.959999084472656,23200
2020-08-19,23.600000381469727,23.899999618530273,23.5,23.649999618530273,23.649999618530273,44350
2020-08-20,23.18000030517578,23.459999084472656,23.18000030517578,23.459999084472656,23.459999084472656,6100
2020-08-21,23.200000762939453,23.260000228881836,23.079999923706055,23.1200008392334,23.1200008392334,14550
2020-08-24,23.34000015258789,23.34000015258789,22.719999313354492,23.049999237060547,23.049999237060547,11350
2020-08-25,22.799999237060547,22.8799991607666,22.719999313354492,22.760000228881836,22.760000228881836,10000
2020-08-26,22.760000228881836,23.059999465942383,22.760000228881836,22.979999542236328,22.979999542236328,6450
2020-08-27,22.979999542236328,22.979999542236328,22.200000762939453,22.600000381469727,22.600000381469727,32800
2020-08-28,22.600000381469727,22.600000381469727,22.239999771118164,22.600000381469727,22.600000381469727,9800
2020-08-31,22.3799991607666,22.5,22.100000381469727,22.479999542236328,22.479999542236328,10350
2020-09-01,22.209999084472656,22.579999923706055,22.190000534057617,22.399999618530273,22.399999618530273,6950
2020-09-02,22.190000534057617,22.299999237060547,22.040000915527344,22.100000381469727,22.100000381469727,9500
2020-09-03,21.940000534057617,22.0,21.142000198364258,21.54599952697754,21.54599952697754,13300
2020-09-04,21.31999969482422,21.31999969482422,20.639999389648438,21.15999984741211,21.15999984741211,22150
2020-09-08,21.020000457763672,21.68000030517578,21.0,21.577999114990234,21.577999114990234,11400
2020-09-09,21.5,21.760000228881836,21.3799991607666,21.459999084472656,21.459999084472656,16400
2020-09-10,21.639999389648438,21.68000030517578,21.1200008392334,21.459999084472656,21.459999084472656,17450
2020-09-11,21.31999969482422,21.420000076293945,20.940000534057617,21.170000076293945,21.170000076293945,35200
2020-09-14,21.618000030517578,21.618000030517578,21.31999969482422,21.600000381469727,21.600000381469727,12000
2020-09-15,21.70599937438965,21.8799991607666,21.479999542236328,21.59000015258789,21.59000015258789,12550
2020-09-16,21.600000381469727,21.753999710083008,21.18000030517578,21.260000228881836,21.260000228881836,41600
2020-09-17,21.18000030517578,21.65999984741211,20.8799991607666,21.31999969482422,21.31999969482422,13600
2020-09-18,21.65999984741211,21.860000610351562,21.520000457763672,21.770000457763672,21.770000457763672,14800
2020-09-21,21.520000457763672,21.959999084472656,21.399999618530273,21.920000076293945,21.920000076293945,12750
2020-09-22,22.440000534057617,22.799999237060547,22.149999618530273,22.285999298095703,22.285999298095703,7500
2020-09-23,22.479999542236328,22.479999542236328,21.799999237060547,22.18000030517578,22.18000030517578,11450
2020-09-24,21.959999084472656,22.34000015258789,21.84000015258789,22.215999603271484,22.215999603271484,7450
2020-09-25,21.841999053955078,22.139999389648438,21.841999053955078,21.92799949645996,21.92799949645996,8950
2020-09-28,22.31999969482422,22.5,22.079999923706055,22.479999542236328,22.479999542236328,6950
2020-09-29,22.40999984741211,22.540000915527344,22.34000015258789,22.540000915527344,22.540000915527344,11200
2020-09-30,22.329999923706055,22.520000457763672,22.152000427246094,22.280000686645508,22.280000686645508,13950
2020-10-01,22.219999313354492,22.719999313354492,22.18000030517578,22.559999465942383,22.559999465942383,36350
2020-10-02,22.420000076293945,22.700000762939453,22.3700008392334,22.65999984741211,22.65999984741211,599750
2020-10-05,22.5,22.700000762939453,22.459999084472656,22.56999969482422,22.56999969482422,9350
2020-10-06,22.59000015258789,22.719999313354492,22.124000549316406,22.124000549316406,22.124000549316406,7800
2020-10-07,22.540000915527344,22.639999389648438,22.360000610351562,22.579999923706055,22.579999923706055,11750
2020-10-08,22.540000915527344,22.600000381469727,22.329999923706055,22.399999618530273,22.399999618530273,9600
2020-10-09,22.582000732421875,23.040000915527344,22.582000732421875,23.040000915527344,23.040000915527344,20500
2020-10-12,23.020000457763672,23.459999084472656,23.0,23.365999221801758,23.365999221801758,6850
2020-10-13,23.219999313354492,23.219999313354492,22.8799991607666,22.989999771118164,22.989999771118164,8000
2020-10-14,24.209999084472656,24.940000534057617,24.149999618530273,24.836000442504883,24.836000442504883,12950
2020-10-15,24.676000595092773,25.5,24.559999465942383,25.040000915527344,25.040000915527344,10700
2020-10-16,25.496000289916992,25.959999084472656,25.496000289916992,25.805999755859375,25.805999755859375,246350
2020-10-19,25.920000076293945,26.0,25.31999969482422,25.719999313354492,25.719999313354492,33400
2020-10-20,25.31999969482422,26.0,25.1200008392334,25.799999237060547,25.799999237060547,550500
2020-10-21,25.100000381469727,25.1200008392334,24.579999923706055,24.75,24.75,26000
2020-10-22,24.459999084472656,24.81999969482422,24.1200008392334,24.729999542236328,24.729999542236328,45650
2020-10-23,24.020000457763672,24.239999771118164,23.81999969482422,24.100000381469727,24.100000381469727,14600
2020-10-26,23.68000030517578,23.68000030517578,22.940000534057617,23.200000762939453,23.200000762939453,16350
2020-10-27,23.360000610351562,23.760000228881836,23.299999237060547,23.6200008392334,23.6200008392334,129100
2020-10-28,22.899999618530273,23.06999969482422,22.700000762939453,22.719999313354492,22.719999313354492,16550
2020-10-29,22.947999954223633,23.040000915527344,22.559999465942383,22.917999267578125,22.917999267578125,21250
2020-10-30,22.600000381469727,22.700000762939453,22.040000915527344,22.040000915527344,22.040000915527344,21350
2020-11-02,22.770000457763672,22.8799991607666,22.260000228881836,22.6200008392334,22.6200008392334,17050
2020-11-03,22.5,22.979999542236328,22.5,22.979999542236328,22.979999542236328,27600
2020-11-04,23.100000381469727,23.6200008392334,22.989999771118164,23.5,23.5,16100
2020-11-05,24.260000228881836,24.5,24.100000381469727,24.3700008392334,24.3700008392334,15100
2020-11-06,24.239999771118164,24.399999618530273,24.020000457763672,24.299999237060547,24.299999237060547,21450
2020-11-09,22.040000915527344,22.200000762939453,21.5,21.979999542236328,21.979999542236328,42250
2020-11-10,21.979999542236328,22.079999923706055,21.3799991607666,21.65999984741211,21.65999984741211,20900
2020-11-11,21.940000534057617,22.399999618530273,21.8799991607666,22.270000457763672,22.270000457763672,30350
2020-11-12,22.280000686645508,22.393999099731445,22.0,22.0,22.0,16700
2020-11-13,22.239999771118164,22.5,22.040000915527344,22.5,22.5,17950
2020-11-16,21.579999923706055,22.020000457763672,21.239999771118164,21.6560001373291,21.6560001373291,25550
2020-11-17,21.520000457763672,22.0,21.3799991607666,21.75,21.75,35200
2020-11-18,21.399999618530273,21.600000381469727,21.239999771118164,21.43000030517578,21.43000030517578,26450
2020-11-19,21.139999389648438,21.5,21.020000457763672,21.356000900268555,21.356000900268555,40000
2020-11-20,21.479999542236328,21.68000030517578,21.239999771118164,21.459999084472656,21.459999084472656,31950
2020-11-23,21.079999923706055,21.260000228881836,20.559999465942383,20.969999313354492,20.969999313354492,31250
2020-11-24,20.459999084472656,20.84000015258789,20.459999084472656,20.760000228881836,20.760000228881836,38900
2020-11-25,20.670000076293945,21.0,20.579999923706055,21.0,21.0,24300
2020-11-27,20.959999084472656,20.979999542236328,20.739999771118164,20.979999542236328,20.979999542236328,17150
2020-11-30,21.18000030517578,21.459999084472656,21.007999420166016,21.280000686645508,21.280000686645508,16050
2020-12-01,21.489999771118164,21.760000228881836,21.34000015258789,21.360000610351562,21.360000610351562,35700
2020-12-02,21.600000381469727,21.6200008392334,21.260000228881836,21.260000228881836,21.260000228881836,21350
2020-12-03,21.079999923706055,21.5,20.799999237060547,21.299999237060547,21.299999237060547,51800
2020-12-04,20.799999237060547,20.920000076293945,20.479999542236328,20.899999618530273,20.899999618530273,47900
2020-12-07,20.65999984741211,20.719999313354492,20.18000030517578,20.31999969482422,20.31999969482422,46900
2020-12-08,20.15999984741211,20.31999969482422,20.0,20.18600082397461,20.18600082397461,36350
2020-12-09,20.875999450683594,21.899999618530273,20.84000015258789,21.639999389648438,21.639999389648438,39950
2020-12-10,21.260000228881836,21.260000228881836,20.540000915527344,20.8700008392334,20.8700008392334,21800
2020-12-11,20.899999618530273,21.1200008392334,20.780000686645508,21.079999923706055,21.079999923706055,151000
2020-12-14,21.1200008392334,21.34000015258789,20.979999542236328,21.260000228881836,21.260000228881836,28500
2020-12-15,21.1200008392334,21.280000686645508,20.940000534057617,21.280000686645508,21.280000686645508,31300
2020-12-16,20.90999984741211,21.079999923706055,20.719999313354492,20.93000030517578,20.93000030517578,36300
2020-12-17,21.139999389648438,21.31999969482422,20.920000076293945,21.270000457763672,21.270000457763672,23850
2020-12-18,21.200000762939453,21.68000030517578,21.200000762939453,21.555999755859375,21.555999755859375,36450
2020-12-21,21.6200008392334,21.920000076293945,21.440000534057617,21.860000610351562,21.860000610351562,43150
2020-12-22,21.719999313354492,21.979999542236328,21.68000030517578,21.979999542236328,21.979999542236328,35350
2020-12-23,21.799999237060547,21.920000076293945,21.479999542236328,21.649999618530273,21.649999618530273,26300
2020-12-24,21.920000076293945,22.139999389648438,21.540000915527344,22.100000381469727,22.100000381469727,18900
2020-12-28,22.440000534057617,22.719999313354492,22.360000610351562,22.59000015258789,22.59000015258789,35050
2020-12-29,22.420000076293945,22.600000381469727,21.899999618530273,22.299999237060547,22.299999237060547,18250
2020-12-30,22.350000381469727,22.719999313354492,22.18000030517578,22.700000762939453,22.700000762939453,25050
