Date,Open,High,Low,Close,Adj Close,Volume
2018-04-27,12.0,17.540000915527344,10.779999732971191,15.75,15.322425842285156,2305400
2018-04-30,15.25,15.5,14.0,14.800000190734863,14.398215293884277,205300
2018-05-01,14.710000038146973,15.760000228881836,14.510000228881836,15.010000228881836,14.60251522064209,78000
2018-05-02,15.020000457763672,15.5,14.350000381469727,14.949999809265137,14.544142723083496,70300
2018-05-03,15.050000190734863,15.899999618530273,14.779999732971191,15.380000114440918,14.962470054626465,268300
2018-05-04,15.140000343322754,15.545000076293945,15.0,15.350000381469727,14.933284759521484,89700
2018-05-07,15.520000457763672,15.930000305175781,15.350000381469727,15.829999923706055,15.400253295898438,60500
2018-05-08,16.010000228881836,17.700000762939453,15.392999649047852,16.649999618530273,16.1979923248291,213600
2018-05-09,16.559999465942383,17.06999969482422,16.46299934387207,16.829999923706055,16.373106002807617,149800
2018-05-10,17.290000915527344,17.290000915527344,16.850000381469727,16.93000030517578,16.47039222717285,82700
2018-05-11,16.979999542236328,17.0,16.3799991607666,16.829999923706055,16.373106002807617,55200
2018-05-14,16.75,16.78499984741211,13.220000267028809,16.56999969482422,16.12016487121582,104800
2018-05-15,16.399999618530273,16.5,15.989999771118164,16.469999313354492,16.022878646850586,20800
2018-05-16,16.399999618530273,16.559999465942383,16.030000686645508,16.25,15.80885124206543,71600
2018-05-17,16.219999313354492,16.34000015258789,14.899999618530273,15.600000381469727,15.176497459411621,125700
2018-05-18,15.720000267028809,16.309999465942383,15.300000190734863,16.200000762939453,15.760210037231445,77000
2018-05-21,16.399999618530273,17.5,15.40999984741211,16.200000762939453,15.760210037231445,80400
2018-05-22,16.299999237060547,16.56999969482422,15.449999809265137,16.09000015258789,15.65319538116455,158200
2018-05-23,16.079999923706055,16.975000381469727,16.079999923706055,16.450000762939453,16.003421783447266,113400
2018-05-24,16.6200008392334,16.809999465942383,16.170000076293945,16.479999542236328,16.03260612487793,107300
2018-05-25,16.850000381469727,16.850000381469727,16.351999282836914,16.40999984741211,15.964508056640625,137700
2018-05-29,16.989999771118164,16.989999771118164,16.149999618530273,16.43000030517578,15.983963966369629,113900
2018-05-30,16.559999465942383,16.75,16.329999923706055,16.540000915527344,16.090980529785156,111400
2018-05-31,16.459999084472656,16.549999237060547,16.0,16.149999618530273,15.711565971374512,78100
2018-06-01,16.469999313354492,16.52400016784668,16.110000610351562,16.229999542236328,15.78939437866211,100600
2018-06-04,16.399999618530273,16.479999542236328,16.011999130249023,16.200000762939453,15.760210037231445,108300
2018-06-05,16.3700008392334,17.700000762939453,16.075000762939453,17.399999618530273,16.927631378173828,272300
2018-06-06,17.549999237060547,17.940000534057617,16.729999542236328,17.110000610351562,16.645503997802734,146600
2018-06-07,17.25,18.989999771118164,16.969999313354492,18.739999771118164,18.231252670288086,386500
2018-06-08,18.790000915527344,19.850000381469727,18.290000915527344,19.5,18.970623016357422,292300
2018-06-11,19.5,21.889999389648438,19.209999084472656,21.139999389648438,20.566099166870117,243800
2018-06-12,21.459999084472656,23.3799991607666,21.459999084472656,22.84000015258789,22.21994972229004,354300
2018-06-13,23.0,23.0,21.920000076293945,22.270000457763672,21.665422439575195,225300
2018-06-14,22.639999389648438,25.0,22.0,24.079999923706055,23.426286697387695,373500
2018-06-15,24.1200008392334,24.489999771118164,23.25,23.770000457763672,23.12470245361328,434100
2018-06-18,23.780000686645508,25.5,23.246999740600586,25.43000030517578,24.739635467529297,277500
2018-06-19,25.40999984741211,27.290000915527344,24.75,27.139999389648438,26.403213500976562,314800
2018-06-20,26.200000762939453,27.084999084472656,24.740999221801758,26.600000381469727,25.87787437438965,260600
2018-06-21,26.479999542236328,27.84000015258789,25.549999237060547,26.079999923706055,25.371992111206055,279900
2018-06-22,26.06999969482422,26.940000534057617,25.479999542236328,26.219999313354492,25.508188247680664,1386600
2018-06-25,25.8700008392334,27.93000030517578,25.770000457763672,26.920000076293945,26.18918800354004,257700
2018-06-26,27.0,28.709999084472656,26.309999465942383,28.200000762939453,27.434438705444336,267100
2018-06-27,28.239999771118164,28.319000244140625,26.389999389648438,26.5,25.780588150024414,166100
2018-06-28,26.479999542236328,27.110000610351562,25.829999923706055,26.049999237060547,25.342805862426758,138000
2018-06-29,26.170000076293945,26.170000076293945,24.729999542236328,24.959999084472656,24.282394409179688,131500
2018-07-02,25.1299991607666,25.69499969482422,23.690000534057617,23.760000228881836,23.114973068237305,161300
2018-07-03,23.84000015258789,24.545000076293945,23.33300018310547,23.940000534057617,23.29008674621582,134000
2018-07-05,24.0,24.979999542236328,23.93000030517578,24.65999984741211,23.990541458129883,102700
2018-07-06,24.670000076293945,25.530000686645508,24.56999969482422,24.969999313354492,24.292123794555664,141900
2018-07-09,25.010000228881836,26.65999984741211,25.010000228881836,26.610000610351562,25.887603759765625,138500
2018-07-10,26.559999465942383,27.239999771118164,24.75,24.950000762939453,24.272668838500977,108700
2018-07-11,24.860000610351562,25.530000686645508,24.621999740600586,24.989999771118164,24.311580657958984,42100
2018-07-12,25.030000686645508,26.940000534057617,24.959999084472656,26.700000762939453,25.975160598754883,94300
2018-07-13,26.719999313354492,26.770999908447266,25.770000457763672,26.059999465942383,25.3525333404541,57900
2018-07-16,26.34000015258789,26.469999313354492,25.0,25.84000015258789,25.138505935668945,91000
2018-07-17,25.790000915527344,28.309999465942383,25.790000915527344,28.239999771118164,27.473350524902344,232600
2018-07-18,28.25,28.25,27.18000030517578,27.709999084472656,26.957738876342773,126800
2018-07-19,27.6299991607666,29.729999542236328,27.1299991607666,29.079999923706055,28.29054832458496,188600
2018-07-20,29.020000457763672,29.57900047302246,26.68000030517578,26.920000076293945,26.18918800354004,320000
2018-07-23,26.989999771118164,27.559999465942383,26.18000030517578,26.56999969482422,25.84868812561035,56700
2018-07-24,26.729999542236328,27.2549991607666,26.065000534057617,26.40999984741211,25.693031311035156,151300
2018-07-25,26.31999969482422,28.0,26.28700065612793,27.8700008392334,27.11339569091797,134500
2018-07-26,27.829999923706055,28.719999313354492,27.010000228881836,27.6200008392334,26.87018394470215,77200
2018-07-27,27.709999084472656,28.420000076293945,26.604999542236328,26.860000610351562,26.130817413330078,66100
2018-07-30,27.040000915527344,29.18000030517578,26.350000381469727,26.719999313354492,25.99461555480957,78500
2018-07-31,26.790000915527344,27.940000534057617,26.770000457763672,27.170000076293945,26.43239974975586,111700
2018-08-01,27.1299991607666,28.479999542236328,26.520000457763672,27.1299991607666,26.393484115600586,174600
2018-08-02,27.079999923706055,29.270000457763672,27.0,27.770000457763672,27.016111373901367,159300
2018-08-03,27.770000457763672,28.509000778198242,27.049999237060547,27.68000030517578,26.92855453491211,86800
2018-08-06,27.610000610351562,28.77899932861328,27.299999237060547,27.360000610351562,26.61724281311035,85700
2018-08-07,27.510000228881836,28.010000228881836,27.18000030517578,27.309999465942383,26.5685977935791,62400
2018-08-08,27.3700008392334,27.75,26.34000015258789,26.479999542236328,25.76112937927246,136900
2018-08-09,26.5,26.5,24.00200080871582,26.010000228881836,25.303890228271484,272800
2018-08-10,25.799999237060547,27.75,25.674999237060547,27.25,26.51022720336914,58800
2018-08-13,27.1299991607666,27.854999542236328,26.0,26.43000030517578,25.71249008178711,43600
2018-08-14,26.5,26.999000549316406,25.650999069213867,26.239999771118164,25.527647018432617,74700
2018-08-15,26.18000030517578,27.280000686645508,25.670000076293945,27.170000076293945,26.43239974975586,41900
2018-08-16,27.350000381469727,28.993000030517578,26.510000228881836,26.850000381469727,26.12108612060547,180600
2018-08-17,26.690000534057617,27.760000228881836,26.420000076293945,26.610000610351562,25.887603759765625,67600
2018-08-20,26.729999542236328,27.756000518798828,26.399999618530273,27.100000381469727,26.364301681518555,39800
2018-08-21,27.15999984741211,27.899999618530273,26.312000274658203,27.100000381469727,26.364301681518555,56200
2018-08-22,26.979999542236328,27.479999542236328,26.43000030517578,26.68000030517578,25.95570182800293,50600
2018-08-23,26.6299991607666,26.989999771118164,26.200000762939453,26.700000762939453,25.975160598754883,72300
2018-08-24,26.760000228881836,26.760000228881836,26.0,26.459999084472656,25.741674423217773,52100
2018-08-27,26.510000228881836,27.440000534057617,26.059999465942383,26.59000015258789,25.868144989013672,86700
2018-08-28,27.0,27.735000610351562,26.549999237060547,27.299999237060547,26.558870315551758,57100
2018-08-29,27.299999237060547,29.979999542236328,26.940000534057617,29.920000076293945,29.107744216918945,144600
2018-08-30,29.760000228881836,32.01599884033203,28.5,28.81999969482422,28.03760528564453,299400
2018-08-31,28.700000762939453,31.459999084472656,28.700000762939453,31.020000457763672,30.177881240844727,93600
2018-09-04,31.079999923706055,33.97999954223633,30.860000610351562,33.75,32.83376693725586,192800
2018-09-05,33.31399917602539,34.119998931884766,31.825000762939453,32.13999938964844,31.26747703552246,132200
2018-09-06,32.13999938964844,32.33300018310547,30.1299991607666,30.309999465942383,29.48715591430664,65600
2018-09-07,30.1299991607666,32.63999938964844,30.05299949645996,31.56999969482422,30.712949752807617,311700
2018-09-10,31.790000915527344,34.04999923706055,31.190000534057617,33.599998474121094,32.68783950805664,133000
2018-09-11,33.560001373291016,35.68000030517578,32.98099899291992,35.36000061035156,34.400062561035156,165700
2018-09-12,35.400001525878906,38.18000030517578,34.79999923706055,35.439998626708984,34.47788619995117,232700
2018-09-13,35.560001373291016,36.790000915527344,35.2599983215332,35.81999969482422,34.847572326660156,126400
2018-09-14,36.06999969482422,37.599998474121094,36.0099983215332,36.43000030517578,35.44101333618164,84400
2018-09-17,36.81999969482422,37.18000030517578,35.25,35.68000030517578,34.71137237548828,88300
2018-09-18,35.34000015258789,36.84000015258789,35.0099983215332,35.599998474121094,34.633544921875,140100
2018-09-19,35.689998626708984,36.409000396728516,34.72999954223633,35.25,34.29304885864258,73400
2018-09-20,35.54999923706055,36.349998474121094,34.220001220703125,35.0099983215332,34.05956268310547,108800
2018-09-21,34.97999954223633,36.09000015258789,34.97999954223633,35.5,34.536258697509766,127900
2018-09-24,35.540000915527344,35.939998626708984,33.56999969482422,33.84000015258789,32.92132568359375,168100
2018-09-25,33.880001068115234,34.54999923706055,30.739999771118164,32.130001068115234,31.257747650146484,178800
2018-09-26,32.119998931884766,32.810001373291016,30.639999389648438,30.770000457763672,29.934667587280273,94900
2018-09-27,30.770000457763672,33.2599983215332,30.770000457763672,33.08000183105469,32.18196105957031,116300
2018-09-28,33.11000061035156,33.97999954223633,32.68000030517578,33.869998931884766,32.95050811767578,64600
2018-10-01,34.0,34.0,31.575000762939453,31.920000076293945,31.053447723388672,87300
2018-10-02,31.799999237060547,33.11000061035156,30.0,30.920000076293945,30.080596923828125,107700
2018-10-03,30.959999084472656,30.959999084472656,28.309999465942383,28.610000610351562,27.83330726623535,135900
2018-10-04,28.770000457763672,29.540000915527344,28.0,28.940000534057617,28.154348373413086,149100
2018-10-05,29.510000228881836,30.0,28.9950008392334,29.540000915527344,28.738059997558594,98200
2018-10-08,29.540000915527344,29.719999313354492,28.399999618530273,29.09000015258789,28.300275802612305,88000
2018-10-09,29.059999465942383,29.829999923706055,28.700000762939453,28.979999542236328,28.193262100219727,111800
2018-10-10,28.899999618530273,29.81999969482422,27.930999755859375,28.530000686645508,27.75547981262207,60600
2018-10-11,28.56999969482422,29.46500015258789,28.040000915527344,28.309999465942383,27.541452407836914,126500
2018-10-12,28.65999984741211,29.39299964904785,27.350000381469727,27.540000915527344,26.792356491088867,46500
2018-10-15,27.5,28.399999618530273,26.0,26.350000381469727,25.634660720825195,78200
2018-10-16,26.059999465942383,28.34000015258789,24.850000381469727,26.40999984741211,25.693031311035156,175900
2018-10-17,26.219999313354492,28.34000015258789,25.795000076293945,28.299999237060547,27.531721115112305,101400
2018-10-18,28.110000610351562,28.465999603271484,27.709999084472656,28.15999984741211,27.395523071289062,68400
2018-10-19,28.1200008392334,28.84000015258789,27.899999618530273,28.639999389648438,27.862491607666016,79500
2018-10-22,28.700000762939453,29.989999771118164,28.18000030517578,28.68000030517578,27.90140724182129,80500
2018-10-23,28.389999389648438,29.735000610351562,27.270000457763672,29.3799991607666,28.582401275634766,182000
2018-10-24,29.440000534057617,33.67499923706055,29.156999588012695,30.579999923706055,29.749826431274414,340800
2018-10-25,30.780000686645508,33.63999938964844,30.139999389648438,33.22999954223633,32.327884674072266,196500
2018-10-26,32.84000015258789,33.474998474121094,29.479999542236328,31.09000015258789,30.245981216430664,294900
2018-10-29,31.260000228881836,33.4900016784668,30.65999984741211,31.8799991607666,31.01453399658203,52500
2018-10-30,31.790000915527344,35.86000061035156,31.235000610351562,35.25,34.29304885864258,286000
2018-10-31,35.470001220703125,35.619998931884766,33.755001068115234,34.279998779296875,33.3493766784668,121700
2018-11-01,34.650001525878906,35.459999084472656,33.5,35.40999984741211,34.44870376586914,153900
2018-11-02,35.599998474121094,36.47999954223633,34.0,36.16999816894531,35.18806838989258,99500
2018-11-05,35.779998779296875,37.77000045776367,35.558998107910156,36.0,35.02268600463867,147700
2018-11-06,35.25,36.06999969482422,30.094999313354492,31.954999923706055,31.08749771118164,492000
2018-11-07,31.56999969482422,32.255001068115234,30.711000442504883,31.709999084472656,30.849149703979492,207500
2018-11-08,31.579999923706055,31.84000015258789,29.079999923706055,29.149999618530273,28.3586483001709,353500
2018-11-09,28.989999771118164,29.3799991607666,26.670000076293945,28.31999969482422,27.551179885864258,217600
2018-11-12,28.040000915527344,28.040000915527344,26.770000457763672,27.0,26.267013549804688,128000
2018-11-13,26.899999618530273,27.149999618530273,25.360000610351562,25.940000534057617,25.23579216003418,211800
2018-11-14,25.989999771118164,27.18400001525879,24.739999771118164,24.850000381469727,24.175382614135742,220800
2018-11-15,24.690000534057617,25.31999969482422,21.985000610351562,22.3700008392334,21.762710571289062,378800
2018-11-16,21.969999313354492,22.760000228881836,20.489999771118164,21.959999084472656,21.36383819580078,485600
2018-11-19,22.34000015258789,23.68000030517578,21.899999618530273,23.670000076293945,23.027416229248047,186200
2018-11-20,23.149999618530273,24.780000686645508,22.357999801635742,24.31999969482422,23.659770965576172,225300
2018-11-21,24.06999969482422,25.094999313354492,23.75,24.030000686645508,23.377643585205078,85300
2018-11-23,23.969999313354492,25.06999969482422,23.969999313354492,24.3799991607666,23.718141555786133,36900
2018-11-26,24.56999969482422,25.149999618530273,24.06999969482422,24.920000076293945,24.24348258972168,134200
2018-11-27,24.600000381469727,24.899999618530273,23.809999465942383,23.950000762939453,23.299816131591797,53100
2018-11-28,23.850000381469727,25.799999237060547,23.700000762939453,25.299999237060547,24.6131649017334,127600
2018-11-29,25.399999618530273,27.360000610351562,25.1299991607666,26.540000915527344,25.819501876831055,130600
2018-11-30,26.68000030517578,26.8799991607666,25.170000076293945,25.420000076293945,24.729907989501953,150500
2018-12-03,26.270000457763672,26.549999237060547,25.219999313354492,26.420000076293945,25.702760696411133,91100
2018-12-04,25.90999984741211,26.268999099731445,24.844999313354492,25.450000762939453,24.75909423828125,147000
2018-12-06,25.239999771118164,26.690000534057617,24.959999084472656,26.520000457763672,25.800046920776367,200300
2018-12-07,26.43000030517578,26.520000457763672,25.503000259399414,26.489999771118164,25.77086067199707,61900
2018-12-10,26.65999984741211,27.190000534057617,26.399999618530273,26.940000534057617,26.208642959594727,153600
2018-12-11,27.0,27.079999923706055,26.635000228881836,26.950000762939453,26.218374252319336,134900
2018-12-12,27.0,27.05500030517578,26.0,26.579999923706055,25.858417510986328,198400
2018-12-13,26.489999771118164,28.0,26.489999771118164,27.43000030517578,26.685340881347656,260200
2018-12-14,27.079999923706055,27.489999771118164,26.15999984741211,27.389999389648438,26.646427154541016,207500
2018-12-17,27.389999389648438,27.770000457763672,26.229999542236328,26.479999542236328,25.76112937927246,265800
2018-12-18,26.31999969482422,27.309999465942383,24.700000762939453,25.489999771118164,24.798006057739258,221800
2018-12-19,25.3799991607666,26.52199935913086,25.299999237060547,26.010000228881836,25.303890228271484,146900
2018-12-20,25.899999618530273,27.0,24.889999389648438,25.639999389648438,24.943933486938477,173200
2018-12-21,25.59000015258789,26.56999969482422,23.43000030517578,23.700000762939453,23.056604385375977,256400
2018-12-24,23.31999969482422,24.329999923706055,23.18000030517578,23.280000686645508,22.64800453186035,50600
2018-12-26,23.559999465942383,25.770000457763672,23.485000610351562,25.360000610351562,24.671537399291992,145400
2018-12-27,24.959999084472656,26.920000076293945,24.06999969482422,26.729999542236328,26.004344940185547,121200
2018-12-28,26.489999771118164,27.030000686645508,25.81999969482422,26.899999618530273,26.169729232788086,189100
2018-12-31,27.0,27.0,25.81999969482422,26.290000915527344,25.576290130615234,120800
2019-01-02,25.579999923706055,25.579999923706055,24.190000534057617,25.040000915527344,24.360225677490234,211900
2019-01-03,24.84000015258789,26.149999618530273,24.25,24.969999313354492,24.292123794555664,300900
2019-01-04,25.229999542236328,27.09000015258789,25.0049991607666,26.940000534057617,26.208642959594727,143800
2019-01-07,26.440000534057617,27.719999313354492,25.81999969482422,27.25,26.51022720336914,171100
2019-01-08,27.260000228881836,27.459999084472656,26.559999465942383,27.290000915527344,26.549142837524414,186800
2019-01-09,27.299999237060547,27.950000762939453,27.209999084472656,27.700000762939453,26.94801139831543,182300
2019-01-10,27.56999969482422,29.469999313354492,26.75,29.100000381469727,28.31000518798828,259100
2019-01-11,28.549999237060547,29.309999465942383,26.655000686645508,28.510000228881836,27.736021041870117,185700
2019-01-14,28.0,28.209999084472656,27.135000228881836,27.43000030517578,26.685340881347656,61800
2019-01-15,27.510000228881836,28.093000411987305,26.924999237060547,27.299999237060547,26.558870315551758,102600
2019-01-16,27.309999465942383,28.1200008392334,26.959999084472656,28.079999923706055,27.31769561767578,94600
2019-01-17,27.979999542236328,28.790000915527344,27.5,28.18000030517578,27.414979934692383,78300
2019-01-18,28.040000915527344,29.0,27.562000274658203,28.670000076293945,27.891677856445312,139300
2019-01-22,28.6200008392334,28.639999389648438,26.040000915527344,26.469999313354492,25.751401901245117,186000
2019-01-23,26.639999389648438,28.170000076293945,25.68000030517578,26.639999389648438,25.91678810119629,69200
2019-01-24,26.700000762939453,27.229000091552734,26.014999389648438,26.90999984741211,26.17945671081543,44400
2019-01-25,27.100000381469727,28.209999084472656,27.100000381469727,27.670000076293945,26.918825149536133,162800
2019-01-28,27.59000015258789,28.25,26.649999618530273,27.93000030517578,27.17176628112793,51800
2019-01-29,28.06999969482422,28.149999618530273,27.020000457763672,27.860000610351562,27.103668212890625,40000
2019-01-30,28.110000610351562,28.31999969482422,26.8700008392334,28.239999771118164,27.473350524902344,86200
2019-01-31,28.3700008392334,28.979999542236328,27.25,28.739999771118164,27.95977783203125,78200
2019-02-01,28.770000457763672,28.780000686645508,27.639999389648438,28.329999923706055,27.5609073638916,103300
2019-02-04,28.290000915527344,28.600000381469727,27.75,28.270000457763672,27.50253677368164,75700
2019-02-05,28.270000457763672,28.81999969482422,27.940000534057617,28.459999084472656,27.687379837036133,107200
2019-02-06,28.350000381469727,28.549999237060547,27.959999084472656,28.290000915527344,27.521995544433594,74700
2019-02-07,28.200000762939453,28.59000015258789,27.839000701904297,28.25,27.48307991027832,43800
2019-02-08,28.25,28.829999923706055,27.3799991607666,27.5,26.753440856933594,70400
2019-02-11,27.510000228881836,27.510000228881836,26.34000015258789,26.5,25.780588150024414,109400
2019-02-12,26.670000076293945,28.389999389648438,26.450000762939453,27.75,26.996654510498047,214200
2019-02-13,27.979999542236328,28.8799991607666,27.1200008392334,28.56999969482422,27.79439353942871,49900
2019-02-14,28.440000534057617,31.309999465942383,28.440000534057617,31.19499969482422,30.348129272460938,204900
2019-02-15,31.399999618530273,33.150001525878906,30.84000015258789,32.709999084472656,31.821998596191406,160600
2019-02-19,32.75,33.70000076293945,30.40999984741211,32.369998931884766,31.49123191833496,147300
2019-02-20,32.380001068115234,33.54999923706055,32.11800003051758,33.20000076293945,32.298702239990234,43700
2019-02-21,33.2400016784668,34.0099983215332,33.11000061035156,33.7400016784668,32.82404327392578,108700
2019-02-22,34.0,34.0,33.02000045776367,33.41999816894531,32.51272201538086,63900
2019-02-25,33.400001525878906,33.72999954223633,31.160999298095703,31.90999984741211,31.043720245361328,84000
2019-02-26,31.899999618530273,32.494998931884766,31.0,32.150001525878906,31.277206420898438,48300
2019-02-27,31.989999771118164,33.130001068115234,31.989999771118164,33.02000045776367,32.12358856201172,163200
2019-02-28,33.04999923706055,33.52000045776367,31.219999313354492,31.549999237060547,30.693490982055664,129800
2019-03-01,31.649999618530273,31.665000915527344,29.739999771118164,30.420000076293945,29.59416961669922,111700
2019-03-04,30.43000030517578,30.489999771118164,28.530000686645508,28.860000610351562,28.076520919799805,117900
2019-03-05,28.959999084472656,29.209999084472656,28.68000030517578,29.059999465942383,28.271089553833008,146000
2019-03-06,29.010000228881836,29.040000915527344,28.280000686645508,29.020000457763672,28.232177734375,104500
2019-03-07,29.010000228881836,29.190000534057617,28.3799991607666,28.440000534057617,27.667922973632812,87200
2019-03-08,27.5,27.503999710083008,26.1299991607666,26.81999969482422,26.091899871826172,238900
2019-03-11,26.809999465942383,28.299999237060547,26.809999465942383,27.780000686645508,27.025840759277344,162600
2019-03-12,27.920000076293945,28.079999923706055,27.0,27.239999771118164,26.500499725341797,137100
2019-03-13,27.31999969482422,27.618999481201172,25.8799991607666,25.93000030517578,25.226062774658203,200100
2019-03-14,25.93000030517578,26.0,24.049999237060547,24.799999237060547,24.126737594604492,310500
2019-03-15,24.459999084472656,27.229999542236328,24.150999069213867,27.040000915527344,26.748136520385742,349300
2019-03-18,26.889999389648438,27.915000915527344,26.290000915527344,27.6200008392334,27.321876525878906,187100
2019-03-19,27.760000228881836,29.219999313354492,27.155000686645508,29.0,28.686979293823242,133200
2019-03-20,29.010000228881836,30.190000534057617,28.43000030517578,28.520000457763672,28.212162017822266,322400
2019-03-21,28.389999389648438,29.040000915527344,27.510000228881836,28.959999084472656,28.647411346435547,76300
2019-03-22,28.68000030517578,28.825000762939453,27.639999389648438,28.43000030517578,28.123132705688477,59100
2019-03-25,28.360000610351562,28.920000076293945,27.940000534057617,28.6299991607666,28.320972442626953,72100
2019-03-26,28.770000457763672,29.209999084472656,28.290000915527344,29.010000228881836,28.69687271118164,167300
2019-03-27,29.0,29.739999771118164,28.0,29.530000686645508,29.211259841918945,124700
2019-03-28,29.520000457763672,30.18000030517578,28.735000610351562,29.440000534057617,29.122230529785156,91300
2019-03-29,29.479999542236328,29.670000076293945,27.030000686645508,27.8799991607666,27.57906723022461,260500
2019-04-01,27.989999771118164,27.989999771118164,26.18000030517578,27.540000915527344,27.242738723754883,151900
2019-04-02,27.420000076293945,27.729999542236328,25.81999969482422,25.93000030517578,25.650117874145508,110200
2019-04-03,26.010000228881836,28.100000381469727,26.010000228881836,28.0,27.697772979736328,75300
2019-04-04,28.010000228881836,28.149999618530273,27.170000076293945,27.719999313354492,27.420795440673828,46000
2019-04-05,27.729999542236328,29.209999084472656,27.510000228881836,29.0,28.686979293823242,370600
2019-04-08,29.0,29.0,27.68000030517578,28.049999237060547,27.74723243713379,71400
2019-04-09,27.860000610351562,29.709999084472656,27.860000610351562,29.350000381469727,29.033203125,308000
2019-04-10,29.479999542236328,30.34000015258789,29.020000457763672,29.860000610351562,29.537696838378906,188500
2019-04-11,29.760000228881836,29.760000228881836,28.780000686645508,29.309999465942383,28.993633270263672,100100
2019-04-12,29.670000076293945,29.829999923706055,28.860000610351562,29.020000457763672,28.706764221191406,106200
2019-04-15,28.989999771118164,30.290000915527344,28.770000457763672,29.350000381469727,29.033203125,153200
2019-04-16,29.350000381469727,29.489999771118164,28.690000534057617,28.8700008392334,28.55838394165039,67200
2019-04-17,28.979999542236328,29.549999237060547,28.290000915527344,28.350000381469727,28.043996810913086,89800
2019-04-18,28.350000381469727,28.43000030517578,26.950000762939453,27.0,26.708566665649414,61100
2019-04-22,26.799999237060547,27.3700008392334,25.739999771118164,26.030000686645508,25.749038696289062,75800
2019-04-23,25.940000534057617,26.18000030517578,25.75,25.979999542236328,25.69957733154297,81700
2019-04-24,26.020000457763672,28.649999618530273,26.020000457763672,27.610000610351562,27.311983108520508,147000
2019-04-25,27.5,28.65999984741211,27.049999237060547,27.540000915527344,27.242738723754883,79900
2019-04-26,27.579999923706055,27.940000534057617,27.100000381469727,27.34000015258789,27.044897079467773,146700
2019-04-29,27.43000030517578,29.969999313354492,27.43000030517578,29.690000534057617,29.369531631469727,132200
2019-04-30,29.520000457763672,30.5,29.110000610351562,30.469999313354492,30.141111373901367,89100
2019-05-01,30.469999313354492,30.469999313354492,29.190000534057617,29.959999084472656,29.636615753173828,73700
2019-05-02,29.760000228881836,31.450000762939453,29.729999542236328,30.709999084472656,30.378520965576172,206800
2019-05-03,31.5,35.0,29.3799991607666,34.939998626708984,34.562862396240234,406200
2019-05-06,34.400001525878906,35.4900016784668,33.310001373291016,34.72999954223633,34.35512924194336,246400
2019-05-07,33.689998626708984,34.84000015258789,33.16999816894531,33.45000076293945,33.08894729614258,247300
2019-05-08,33.20000076293945,33.43000030517578,31.56999969482422,32.630001068115234,32.27779769897461,79700
2019-05-09,32.369998931884766,32.91999816894531,31.610000610351562,31.940000534057617,31.595247268676758,88400
2019-05-10,31.829999923706055,33.29100036621094,31.729999542236328,33.11000061035156,32.75261688232422,58500
2019-05-13,32.459999084472656,33.15999984741211,31.709999084472656,32.90999984741211,32.55477523803711,106200
2019-05-14,33.11000061035156,35.880001068115234,32.42499923706055,35.53499984741211,35.15144348144531,188600
2019-05-15,35.02000045776367,36.0,34.380001068115234,35.290000915527344,34.909088134765625,155800
2019-05-16,35.56999969482422,37.0,34.941001892089844,36.95000076293945,36.551170349121094,143500
2019-05-17,36.380001068115234,40.900001525878906,36.380001068115234,40.0,39.5682487487793,355600
2019-05-20,39.72999954223633,41.36000061035156,39.290000915527344,40.09000015258789,39.65727615356445,422100
2019-05-21,40.20000076293945,41.720001220703125,38.904998779296875,40.08000183105469,39.64738464355469,267600
2019-05-22,39.41999816894531,39.775001525878906,37.66999816894531,38.060001373291016,37.64918899536133,289700
2019-05-23,37.47999954223633,37.79499816894531,35.08599853515625,36.869998931884766,36.47203063964844,554800
2019-05-24,37.209999084472656,38.689998626708984,35.880001068115234,36.33000183105469,35.937862396240234,325600
2019-05-28,36.22999954223633,36.54999923706055,35.66999816894531,35.939998626708984,35.55207061767578,246500
2019-05-29,36.02000045776367,36.68000030517578,35.54999923706055,36.63999938964844,36.24451446533203,321400
2019-05-30,36.72999954223633,37.45000076293945,35.88999938964844,36.189998626708984,35.79936981201172,158500
2019-05-31,35.86000061035156,37.13999938964844,35.47999954223633,36.630001068115234,36.234622955322266,318500
2019-06-03,36.540000915527344,36.540000915527344,34.2599983215332,35.08000183105469,34.70135498046875,284800
2019-06-04,35.290000915527344,35.45500183105469,33.47999954223633,35.22999954223633,34.849735260009766,446700
2019-06-05,35.25,37.630001068115234,34.63999938964844,37.310001373291016,36.907283782958984,251500
2019-06-06,37.310001373291016,39.7400016784668,36.790000915527344,36.900001525878906,36.501708984375,233700
2019-06-07,36.959999084472656,39.43000030517578,36.900001525878906,39.09000015258789,38.66807174682617,108700
2019-06-10,39.369998931884766,40.93000030517578,39.09000015258789,39.91999816894531,39.48910903930664,152700
2019-06-11,40.09000015258789,40.72999954223633,38.375,39.38999938964844,38.9648323059082,73900
2019-06-12,39.369998931884766,40.79999923706055,39.369998931884766,39.439998626708984,39.01428985595703,70700
2019-06-13,39.5,40.349998474121094,38.720001220703125,38.95000076293945,38.52958297729492,113500
2019-06-14,38.97999954223633,41.279998779296875,38.60200119018555,40.939998626708984,40.49810028076172,128700
2019-06-17,41.060001373291016,41.88999938964844,39.720001220703125,41.150001525878906,40.70583724975586,185000
2019-06-18,41.54999923706055,41.54999923706055,40.09000015258789,41.0099983215332,40.567344665527344,151400
2019-06-19,41.06999969482422,42.9900016784668,40.22999954223633,42.7599983215332,42.29845428466797,107900
2019-06-20,42.880001068115234,45.79999923706055,42.577999114990234,44.02000045776367,43.544857025146484,243300
2019-06-21,43.689998626708984,44.970001220703125,42.986000061035156,44.27000045776367,43.79216003417969,130400
2019-06-24,44.209999084472656,44.38999938964844,43.41999816894531,43.83000183105469,43.356910705566406,281700
2019-06-25,43.86000061035156,44.290000915527344,43.650001525878906,44.0,43.52507400512695,116300
2019-06-26,44.0,45.18000030517578,43.54999923706055,44.91999816894531,44.43513870239258,187200
2019-06-27,45.40999984741211,47.31999969482422,44.52000045776367,47.130001068115234,46.62128829956055,138400
2019-06-28,47.2599983215332,48.599998474121094,46.650001525878906,47.79999923706055,47.284053802490234,779300
2019-07-01,48.7400016784668,50.0,46.27000045776367,48.189998626708984,47.66984558105469,520100
2019-07-02,48.84000015258789,49.599998474121094,48.2599983215332,49.15999984741211,48.62937545776367,198300
2019-07-03,49.40999984741211,51.470001220703125,49.0,49.90999984741211,49.371280670166016,79100
2019-07-05,49.08000183105469,49.86399841308594,47.439998626708984,49.13999938964844,48.60959243774414,190000
2019-07-08,48.810001373291016,49.16999816894531,47.65999984741211,48.58000183105469,48.05563735961914,272500
2019-07-09,48.209999084472656,49.06999969482422,46.77000045776367,47.060001373291016,46.55204391479492,219500
2019-07-10,46.93000030517578,47.72999954223633,45.4900016784668,47.27000045776367,46.7597770690918,215800
2019-07-11,47.15999984741211,47.95000076293945,45.45000076293945,46.369998931884766,45.86949157714844,157100
2019-07-12,46.310001373291016,46.400001525878906,44.119998931884766,46.0,45.50348663330078,225600
2019-07-15,46.25,46.36000061035156,45.040000915527344,45.84000015258789,45.345211029052734,184800
2019-07-16,46.0,46.060001373291016,44.970001220703125,45.52000045776367,45.02866744995117,143700
2019-07-17,45.4900016784668,46.0,44.61000061035156,44.68000030517578,44.19773483276367,159100
2019-07-18,44.75,44.75,43.029998779296875,44.0,43.52507400512695,263500
2019-07-19,44.130001068115234,45.400001525878906,43.65999984741211,44.369998931884766,43.89107894897461,128200
2019-07-22,44.66999816894531,46.095001220703125,44.189998626708984,45.060001373291016,44.573631286621094,178700
2019-07-23,45.189998626708984,46.400001525878906,44.40599822998047,46.310001373291016,45.81013870239258,139700
2019-07-24,46.20000076293945,46.7400016784668,45.27000045776367,46.33000183105469,45.829925537109375,91300
2019-07-25,46.400001525878906,47.439998626708984,46.0,46.939998626708984,46.4333381652832,159700
2019-07-26,47.310001373291016,47.4900016784668,45.599998474121094,46.349998474121094,45.84970474243164,142700
2019-07-29,46.310001373291016,46.68000030517578,45.52000045776367,46.0,45.50348663330078,73200
2019-07-30,45.70000076293945,45.959999084472656,44.189998626708984,45.290000915527344,44.801151275634766,101200
2019-07-31,45.40999984741211,46.790000915527344,44.75,45.0099983215332,44.524169921875,135700
2019-08-01,44.75,46.040000915527344,44.04999923706055,45.02000045776367,44.53406524658203,152200
2019-08-02,43.33000183105469,43.720001220703125,40.0,43.36000061035156,42.89198303222656,403000
2019-08-05,42.58000183105469,44.224998474121094,42.0099983215332,43.83000183105469,43.356910705566406,225300
2019-08-06,44.2400016784668,45.04999923706055,42.68000030517578,43.86000061035156,43.3865852355957,120000
2019-08-07,43.459999084472656,43.939998626708984,42.060001373291016,43.47999954223633,43.010684967041016,124600
2019-08-08,43.84000015258789,46.130001068115234,43.0099983215332,45.90999984741211,45.41445541381836,217100
2019-08-09,45.95000076293945,46.79999923706055,45.5099983215332,46.20000076293945,45.70132827758789,127800
2019-08-12,45.959999084472656,46.529998779296875,44.33000183105469,44.93000030517578,44.44503402709961,98500
2019-08-13,44.900001525878906,46.40599822998047,43.959999084472656,44.880001068115234,44.39557647705078,138900
2019-08-14,44.220001220703125,44.959999084472656,43.16999816894531,44.09000015258789,43.61410140991211,105500
2019-08-15,44.04999923706055,44.63999938964844,43.11000061035156,43.470001220703125,43.00079345703125,96100
2019-08-16,43.5,43.5,42.66999816894531,43.5,43.03046798706055,109000
2019-08-19,44.25,44.529998779296875,43.15999984741211,43.33000183105469,42.8623046875,60800
2019-08-20,43.20000076293945,44.31999969482422,43.0099983215332,43.380001068115234,42.911766052246094,126700
2019-08-21,43.59000015258789,44.11000061035156,43.0099983215332,43.400001525878906,42.931549072265625,83600
2019-08-22,43.40999984741211,44.9900016784668,42.88999938964844,43.68000030517578,43.208526611328125,80300
2019-08-23,43.369998931884766,44.632999420166016,43.15599822998047,43.81999969482422,43.347015380859375,84500
2019-08-26,44.150001525878906,46.38999938964844,43.95000076293945,46.2599983215332,45.760677337646484,121500
2019-08-27,47.38999938964844,48.41999816894531,46.66999816894531,47.959999084472656,47.44232940673828,157300
2019-08-28,47.7400016784668,48.22999954223633,45.790000915527344,46.08000183105469,45.58262252807617,73200
2019-08-29,46.599998474121094,46.880001068115234,45.779998779296875,46.439998626708984,45.93873596191406,62000
2019-08-30,46.68000030517578,47.130001068115234,46.16999816894531,46.2400016784668,45.74089431762695,82900
2019-09-03,45.97999954223633,46.67499923706055,45.52000045776367,46.29999923706055,45.80024719238281,82400
2019-09-04,46.790000915527344,47.529998779296875,45.91600036621094,45.970001220703125,45.47380828857422,104800
2019-09-05,46.540000915527344,47.459999084472656,45.505001068115234,46.61000061035156,46.106903076171875,94400
2019-09-06,46.91999816894531,49.310001373291016,46.5099983215332,47.400001525878906,46.88837432861328,132200
2019-09-09,47.4900016784668,48.13999938964844,44.018001556396484,45.599998474121094,45.1077995300293,169900
2019-09-10,45.38999938964844,45.88999938964844,43.16999816894531,43.36000061035156,42.89198303222656,158200
2019-09-11,43.900001525878906,45.400001525878906,43.15999984741211,44.68000030517578,44.19773483276367,159300
2019-09-12,44.86000061035156,47.4900016784668,44.584999084472656,46.58000183105469,46.07722473144531,217300
2019-09-13,46.689998626708984,47.7599983215332,46.150001525878906,46.4900016784668,45.988197326660156,204000
2019-09-16,46.38999938964844,46.38999938964844,43.44499969482422,43.650001525878906,43.17885208129883,184500
2019-09-17,44.09000015258789,45.91899871826172,43.56999969482422,44.02000045776367,43.544857025146484,178200
2019-09-18,45.2400016784668,45.7599983215332,43.150001525878906,44.959999084472656,44.474708557128906,208500
2019-09-19,45.0099983215332,47.79999923706055,45.0099983215332,46.4900016784668,45.988197326660156,382200
2019-09-20,46.720001220703125,49.97999954223633,45.959999084472656,49.189998626708984,48.65904998779297,395200
2019-09-23,49.18000030517578,49.880001068115234,48.310001373291016,49.279998779296875,48.74808120727539,329500
2019-09-24,49.70000076293945,49.84000015258789,48.25,48.369998931884766,47.847904205322266,213400
2019-09-25,48.65999984741211,49.939998626708984,47.41999816894531,48.400001525878906,47.87758255004883,237400
2019-09-26,48.08000183105469,49.75,47.97999954223633,48.970001220703125,48.441429138183594,132000
2019-09-27,49.099998474121094,51.97999954223633,47.72999954223633,48.7599983215332,48.23369216918945,322800
2019-09-30,49.130001068115234,50.5099983215332,48.560001373291016,49.349998474121094,48.817325592041016,265800
2019-10-01,49.650001525878906,50.29999923706055,43.84000015258789,44.619998931884766,44.13837814331055,519100
2019-10-02,44.0,44.630001068115234,40.0,43.29999923706055,42.83262634277344,686000
2019-10-03,43.09000015258789,44.55500030517578,42.849998474121094,43.7400016784668,43.267879486083984,249700
2019-10-04,44.040000915527344,46.689998626708984,44.040000915527344,46.220001220703125,45.72111129760742,168300
2019-10-07,46.060001373291016,47.22999954223633,45.349998474121094,46.7400016784668,46.23550033569336,159700
2019-10-08,46.38999938964844,46.599998474121094,45.060001373291016,45.90999984741211,45.41445541381836,164100
2019-10-09,46.369998931884766,46.91999816894531,45.35499954223633,46.2599983215332,45.760677337646484,96900
2019-10-10,46.040000915527344,47.38999938964844,45.709999084472656,46.400001525878906,45.899169921875,85200
2019-10-11,46.97999954223633,47.59000015258789,46.16999816894531,47.04999923706055,46.542152404785156,75500
2019-10-14,47.20000076293945,47.88999938964844,46.81999969482422,47.400001525878906,46.88837432861328,44400
2019-10-15,47.47999954223633,48.6349983215332,46.310001373291016,48.18000030517578,47.65995407104492,82100
2019-10-16,47.86000061035156,48.375,46.79999923706055,47.779998779296875,47.2642707824707,77500
2019-10-17,48.09000015258789,48.70500183105469,47.369998931884766,48.29999923706055,47.77865982055664,91800
2019-10-18,47.939998626708984,48.9900016784668,47.33000183105469,48.25,47.72919845581055,115700
2019-10-21,48.779998779296875,49.47999954223633,47.099998474121094,49.220001220703125,48.68872833251953,103700
2019-10-22,49.0,49.880001068115234,48.584999084472656,49.09000015258789,48.56013107299805,83100
2019-10-23,49.060001373291016,49.66999816894531,48.310001373291016,49.27000045776367,48.738189697265625,108700
2019-10-24,49.36000061035156,49.540000915527344,48.849998474121094,49.4900016784668,48.955814361572266,112400
2019-10-25,49.279998779296875,50.2400016784668,48.189998626708984,48.93000030517578,48.401859283447266,118300
2019-10-28,49.15999984741211,49.875,48.209999084472656,49.5,48.96570587158203,103800
2019-10-29,49.5099983215332,50.04999923706055,47.2599983215332,48.349998474121094,47.82811737060547,355800
2019-10-30,48.439998626708984,50.154998779296875,48.439998626708984,49.95000076293945,49.410850524902344,125900
2019-10-31,49.709999084472656,51.310001373291016,48.92499923706055,51.18000030517578,50.6275749206543,173300
2019-11-01,47.040000915527344,47.5,41.060001373291016,44.93000030517578,44.44503402709961,1214000
2019-11-04,44.72999954223633,44.900001525878906,41.790000915527344,42.5099983215332,42.05115509033203,795300
2019-11-05,42.16999816894531,44.016998291015625,41.02000045776367,42.709999084472656,42.24899673461914,500200
2019-11-06,42.7599983215332,43.9900016784668,42.29999923706055,43.79999923706055,43.327232360839844,252100
2019-11-07,43.790000915527344,43.810001373291016,42.75,43.29999923706055,42.83262634277344,154600
2019-11-08,43.08000183105469,43.41999816894531,42.220001220703125,42.959999084472656,42.49629592895508,324400
2019-11-11,43.04999923706055,44.81999969482422,42.61000061035156,43.97999954223633,43.505287170410156,295100
2019-11-12,44.209999084472656,44.5,43.0,43.56999969482422,43.09971237182617,145300
2019-11-13,43.72999954223633,45.2400016784668,43.41999816894531,44.72999954223633,44.2471923828125,258500
2019-11-14,44.65999984741211,45.01499938964844,43.79999923706055,44.61000061035156,44.12849044799805,116800
2019-11-15,44.75,44.75,42.58000183105469,43.40999984741211,42.94144058227539,185600
2019-11-18,44.5099983215332,44.9900016784668,43.25299835205078,44.68000030517578,44.19773483276367,248100
2019-11-19,44.720001220703125,45.310001373291016,43.814998626708984,44.720001220703125,44.237300872802734,264600
2019-11-20,44.790000915527344,45.959999084472656,44.720001220703125,45.380001068115234,44.89017868041992,206000
2019-11-21,45.31999969482422,45.4900016784668,43.560001373291016,43.83000183105469,43.356910705566406,155100
2019-11-22,44.16999816894531,45.93000030517578,43.39500045776367,45.189998626708984,44.70222473144531,182500
2019-11-25,45.529998779296875,46.56999969482422,44.79999923706055,44.88999938964844,44.40546417236328,223900
2019-11-26,44.900001525878906,46.31100082397461,44.099998474121094,44.54999923706055,44.06913375854492,300500
2019-11-27,44.59000015258789,44.70000076293945,41.09000015258789,41.29999923706055,40.85421371459961,270400
2019-11-29,39.400001525878906,41.119998931884766,39.04999923706055,40.52000045776367,40.08263397216797,226400
2019-12-02,40.5099983215332,40.5099983215332,38.08000183105469,40.08000183105469,39.64738464355469,615500
2019-12-03,40.04999923706055,40.880001068115234,38.27000045776367,39.619998931884766,39.19234848022461,231500
2019-12-04,39.779998779296875,40.81999969482422,39.349998474121094,40.130001068115234,39.69684600830078,272400
2019-12-05,40.09000015258789,40.5,39.5,40.0,39.5682487487793,316300
2019-12-06,40.27000045776367,41.279998779296875,39.75,39.79999923706055,39.37040710449219,182600
2019-12-09,39.7599983215332,40.529998779296875,39.540000915527344,39.880001068115234,39.44954299926758,211200
2019-12-10,39.869998931884766,40.42499923706055,38.334999084472656,39.060001373291016,38.638397216796875,240300
2019-12-11,38.959999084472656,39.66999816894531,38.20000076293945,39.38999938964844,38.9648323059082,151200
2019-12-12,39.4900016784668,40.099998474121094,38.90999984741211,39.189998626708984,38.766990661621094,91600
2019-12-13,39.060001373291016,40.09000015258789,38.85499954223633,39.97999954223633,39.5484619140625,100200
2019-12-16,39.91999816894531,41.540000915527344,39.66999816894531,40.779998779296875,40.33982849121094,151200
2019-12-17,41.43000030517578,43.5,41.029998779296875,42.0099983215332,41.556549072265625,209100
2019-12-18,41.88999938964844,42.83000183105469,40.97999954223633,42.470001220703125,42.01158905029297,262200
2019-12-19,42.34000015258789,43.630001068115234,41.56700134277344,43.529998779296875,43.06014633178711,118300
2019-12-20,43.790000915527344,44.040000915527344,41.54999923706055,42.31999969482422,41.86320495605469,168200
2019-12-23,42.43000030517578,43.35499954223633,42.040000915527344,42.38999938964844,41.93244934082031,92700
2019-12-24,42.25,43.290000915527344,42.0,43.150001525878906,42.68424987792969,144300
2019-12-26,43.36000061035156,43.58599853515625,40.650001525878906,41.41999816894531,40.97291946411133,162500
2019-12-27,41.77000045776367,42.63999938964844,40.70000076293945,42.130001068115234,41.67525863647461,138100
2019-12-30,42.189998626708984,42.709999084472656,41.20000076293945,42.33000183105469,41.87310028076172,90900
2019-12-31,41.9900016784668,43.040000915527344,41.400001525878906,42.400001525878906,41.942344665527344,142200
2020-01-02,42.619998931884766,44.25,42.18000030517578,44.13999938964844,43.66355895996094,194000
2020-01-03,43.75,44.54999923706055,43.209999084472656,44.36000061035156,43.881187438964844,140400
2020-01-06,43.810001373291016,45.68000030517578,43.810001373291016,45.040000915527344,44.55384826660156,142800
2020-01-07,44.75,45.27000045776367,44.064998626708984,44.59000015258789,44.10870361328125,95700
2020-01-08,44.40999984741211,44.7599983215332,43.20000076293945,44.650001525878906,44.16805648803711,193700
2020-01-09,44.93000030517578,45.20000076293945,43.81999969482422,44.279998779296875,43.80204772949219,97500
2020-01-10,44.290000915527344,44.7239990234375,43.36000061035156,44.439998626708984,43.960323333740234,197300
2020-01-13,44.5099983215332,45.06999969482422,44.0,44.150001525878906,43.67345428466797,204000
2020-01-14,43.970001220703125,44.91999816894531,43.970001220703125,44.560001373291016,44.07902908325195,143600
2020-01-15,44.439998626708984,45.5099983215332,44.25600051879883,45.18000030517578,44.69233703613281,88800
2020-01-16,45.619998931884766,45.93000030517578,44.93000030517578,45.70000076293945,45.206722259521484,128400
2020-01-17,45.790000915527344,46.09000015258789,45.40999984741211,45.88999938964844,45.39467239379883,117700
2020-01-21,45.720001220703125,47.18000030517578,45.720001220703125,46.13999938964844,45.641971588134766,118000
2020-01-22,46.5,46.619998931884766,45.79499816894531,46.029998779296875,45.53316116333008,100900
2020-01-23,46.099998474121094,46.630001068115234,45.724998474121094,46.150001525878906,45.6518669128418,154000
2020-01-24,46.08000183105469,46.77000045776367,45.22999954223633,45.400001525878906,44.90996170043945,131200
2020-01-27,44.459999084472656,49.349998474121094,44.0,48.90999984741211,48.382076263427734,375500
2020-01-28,49.209999084472656,51.93000030517578,48.77000045776367,50.93000030517578,50.380271911621094,293100
2020-01-29,51.209999084472656,52.72999954223633,51.029998779296875,52.22999954223633,51.66624069213867,167600
2020-01-30,51.58000183105469,53.630001068115234,51.40299987792969,52.439998626708984,51.87397003173828,135700
2020-01-31,51.9900016784668,53.41999816894531,51.14899826049805,52.18000030517578,51.61677932739258,89100
2020-02-03,52.06999969482422,52.63999938964844,49.150001525878906,49.83000183105469,49.292144775390625,255100
2020-02-04,50.5099983215332,52.380001068115234,50.5099983215332,51.93000030517578,51.369476318359375,111900
2020-02-05,52.40999984741211,52.40999984741211,50.060001373291016,51.18000030517578,50.6275749206543,74800
2020-02-06,51.459999084472656,52.47999954223633,50.91999816894531,51.88999938964844,51.32991027832031,75700
2020-02-07,51.79999923706055,52.93000030517578,51.439998626708984,52.400001525878906,51.834407806396484,117400
2020-02-10,52.630001068115234,56.279998779296875,52.2400016784668,54.400001525878906,53.81281661987305,121900
2020-02-11,54.79999923706055,55.099998474121094,53.34000015258789,53.66999816894531,53.090694427490234,102100
2020-02-12,53.939998626708984,54.22999954223633,52.209999084472656,54.119998931884766,53.53583908081055,94300
2020-02-13,53.77000045776367,56.90999984741211,53.43000030517578,55.7599983215332,55.15813446044922,194600
2020-02-14,55.88999938964844,55.900001525878906,53.70000076293945,55.349998474121094,54.752559661865234,92800
2020-02-18,55.18000030517578,55.95000076293945,53.540000915527344,54.83000183105469,54.23817825317383,113200
2020-02-19,54.77000045776367,55.84000015258789,53.79999923706055,54.90999984741211,54.31731033325195,107700
2020-02-20,54.7400016784668,55.34000015258789,53.915000915527344,55.18000030517578,54.58439636230469,89200
2020-02-21,54.9900016784668,55.470001220703125,53.810001373291016,55.2400016784668,54.64375305175781,82700
2020-02-24,53.970001220703125,56.53499984741211,53.869998931884766,55.91999816894531,55.316410064697266,95000
2020-02-25,56.56999969482422,58.040000915527344,55.11000061035156,55.869998931884766,55.26694869995117,147800
2020-02-26,55.880001068115234,57.09000015258789,55.0,55.6349983215332,55.03448486328125,107900
2020-02-27,55.130001068115234,57.47999954223633,54.36000061035156,55.349998474121094,54.752559661865234,162900
2020-02-28,54.36000061035156,56.22999954223633,52.09000015258789,54.2400016784668,53.654544830322266,217900
2020-03-02,54.27000045776367,59.060001373291016,53.20500183105469,58.72999954223633,58.0960807800293,303900
2020-03-03,58.65999984741211,59.95500183105469,56.31999969482422,57.40999984741211,56.79032897949219,94800
2020-03-04,58.310001373291016,63.06999969482422,57.994998931884766,62.400001525878906,61.72646713256836,250800
2020-03-05,59.52000045776367,60.9900016784668,58.349998474121094,60.380001068115234,59.728271484375,254200
2020-03-06,59.52000045776367,61.685001373291016,58.0,60.630001068115234,59.9755744934082,140500
2020-03-09,57.9900016784668,59.380001068115234,48.222999572753906,48.380001068115234,47.85779571533203,382900
2020-03-10,49.650001525878906,50.0,46.09000015258789,47.880001068115234,47.36319351196289,488100
2020-03-11,47.02000045776367,47.650001525878906,44.0099983215332,45.08000183105469,44.59341812133789,286400
2020-03-12,42.4900016784668,42.79999923706055,38.52000045776367,39.5099983215332,39.083534240722656,417700
2020-03-13,42.27000045776367,46.04999923706055,38.5099983215332,45.86000061035156,45.36499786376953,313500
2020-03-16,38.63999938964844,43.08000183105469,38.63999938964844,42.2400016784668,41.78407287597656,227800
2020-03-17,42.86000061035156,47.68000030517578,42.86000061035156,47.380001068115234,46.86859130859375,336300
2020-03-18,45.220001220703125,45.41999816894531,40.970001220703125,42.900001525878906,42.436946868896484,200400
2020-03-19,43.25,47.400001525878906,41.5,45.95000076293945,45.45402526855469,238300
2020-03-20,46.310001373291016,47.529998779296875,43.02000045776367,45.0,44.514278411865234,268100
2020-03-23,44.959999084472656,45.91999816894531,38.79399871826172,42.43000030517578,41.97201919555664,377600
2020-03-24,44.04999923706055,45.869998931884766,42.25,43.810001373291016,43.33712387084961,216300
2020-03-25,43.68000030517578,45.72999954223633,43.3849983215332,44.630001068115234,44.14827346801758,171000
2020-03-26,45.0099983215332,49.56999969482422,42.38999938964844,47.900001525878906,47.38297653198242,244800
2020-03-27,46.849998474121094,49.0,44.59000015258789,45.83000183105469,45.335323333740234,328400
2020-03-30,46.290000915527344,46.630001068115234,43.65999984741211,45.70000076293945,45.206722259521484,210200
2020-03-31,45.470001220703125,47.36000061035156,43.790000915527344,44.630001068115234,44.14827346801758,255700
2020-04-01,42.900001525878906,44.98500061035156,40.54999923706055,40.880001068115234,40.438751220703125,184900
2020-04-02,40.61000061035156,42.0,38.5260009765625,41.540000915527344,41.09162521362305,159500
2020-04-03,41.0099983215332,41.89699935913086,38.279998779296875,39.150001525878906,38.72742462158203,217800
2020-04-06,40.08000183105469,41.650001525878906,39.15999984741211,40.060001373291016,39.627601623535156,165900
2020-04-07,41.189998626708984,42.35300064086914,38.58000183105469,39.25,38.82634353637695,251000
2020-04-08,39.41999816894531,39.47999954223633,37.2599983215332,38.84000015258789,38.42076873779297,427700
2020-04-09,39.630001068115234,43.029998779296875,38.91699981689453,41.97999954223633,41.52687454223633,348000
2020-04-13,41.5099983215332,42.23099899291992,40.029998779296875,41.439998626708984,40.99270248413086,210000
2020-04-14,42.36000061035156,44.36000061035156,41.650001525878906,43.560001373291016,43.08982467651367,427900
2020-04-15,42.72999954223633,43.875,41.02000045776367,41.59000015258789,41.14108657836914,233600
2020-04-16,41.54999923706055,41.720001220703125,39.209999084472656,41.41999816894531,40.97291946411133,198400
2020-04-17,41.75,43.27000045776367,41.040000915527344,43.040000915527344,42.575435638427734,276600
2020-04-20,42.349998474121094,44.529998779296875,42.060001373291016,43.72999954223633,43.25798797607422,183200
2020-04-21,42.650001525878906,44.564998626708984,42.0,43.630001068115234,43.1590690612793,228900
2020-04-22,44.2599983215332,45.720001220703125,42.959999084472656,44.939998626708984,44.454925537109375,115000
2020-04-23,45.04999923706055,50.560001373291016,44.95000076293945,48.290000915527344,47.768768310546875,303700
2020-04-24,48.54999923706055,50.23400115966797,47.61000061035156,50.08000183105469,49.53944778442383,164700
2020-04-27,50.709999084472656,55.189998626708984,49.65999984741211,51.5,50.94411849975586,291000
2020-04-28,52.0,54.65999984741211,50.880001068115234,53.9900016784668,53.40724563598633,236300
2020-04-29,55.0,57.93000030517578,53.904998779296875,57.4900016784668,56.86946487426758,317500
2020-04-30,56.70000076293945,57.41999816894531,54.36000061035156,56.13999938964844,55.534034729003906,241200
2020-05-01,56.13999938964844,60.185001373291016,54.130001068115234,57.459999084472656,56.839786529541016,357500
2020-05-04,57.58000183105469,60.02000045776367,55.5099983215332,56.209999084472656,55.60327911376953,185400
2020-05-05,56.22999954223633,58.65999984741211,53.92499923706055,58.2400016784668,57.61137008666992,293900
2020-05-06,58.369998931884766,59.209999084472656,56.27000045776367,56.54999923706055,55.93960952758789,370300
2020-05-07,57.869998931884766,59.85599899291992,57.0,58.59000015258789,57.95759201049805,180600
2020-05-08,59.79999923706055,62.349998474121094,59.27000045776367,61.5,60.836181640625,203100
2020-05-11,60.31999969482422,62.65999984741211,59.810001373291016,60.75,60.094276428222656,155500
2020-05-12,60.880001068115234,61.11000061035156,58.779998779296875,59.33000183105469,58.689605712890625,161700
2020-05-13,59.22999954223633,60.48500061035156,55.54999923706055,56.77000045776367,56.1572380065918,369900
2020-05-14,55.849998474121094,57.779998779296875,55.06999969482422,56.58000183105469,55.96928787231445,153100
2020-05-15,56.25,58.68000030517578,56.0,58.209999084472656,57.58169174194336,142400
2020-05-18,59.5,60.959999084472656,58.2599983215332,59.2400016784668,58.60057830810547,215200
2020-05-19,59.4900016784668,59.56999969482422,57.720001220703125,57.810001373291016,57.186012268066406,129300
2020-05-20,58.88999938964844,59.625,57.709999084472656,58.439998626708984,57.809207916259766,114400
2020-05-21,58.75,60.189998626708984,58.529998779296875,60.0099983215332,59.36226272583008,134400
2020-05-22,59.779998779296875,60.970001220703125,59.630001068115234,60.040000915527344,59.39194107055664,112900
2020-05-26,60.869998931884766,60.869998931884766,58.369998931884766,58.93000030517578,58.293922424316406,87000
2020-05-27,59.599998474121094,61.4900016784668,58.77000045776367,61.20000076293945,60.53942108154297,143600
2020-05-28,61.4900016784668,61.630001068115234,58.66999816894531,59.470001220703125,58.828094482421875,175300
2020-05-29,59.13999938964844,60.310001373291016,58.630001068115234,59.95000076293945,59.302913665771484,96700
2020-06-01,60.0099983215332,60.119998931884766,58.875,59.599998474121094,58.956687927246094,135600
2020-06-02,59.83000183105469,61.540000915527344,59.59000015258789,61.470001220703125,60.8065071105957,160100
2020-06-03,62.060001373291016,66.93000030517578,62.060001373291016,66.0,65.28760528564453,250000
2020-06-04,65.81999969482422,68.80999755859375,64.33999633789062,68.66999816894531,67.92878723144531,264900
2020-06-05,71.23999786376953,72.75,68.7300033569336,69.94000244140625,69.1850814819336,321900
2020-06-08,70.5199966430664,70.5199966430664,66.7699966430664,68.52999877929688,67.79029846191406,314600
2020-06-09,66.4000015258789,71.98999786376953,66.4000015258789,69.52999877929688,68.77950286865234,167000
2020-06-10,69.95999908447266,69.95999908447266,67.63500213623047,67.83999633789062,67.10774230957031,130100
2020-06-11,66.05000305175781,68.0999984741211,65.6500015258789,66.37000274658203,65.65361785888672,202000
2020-06-12,68.13999938964844,68.62999725341797,62.75,64.1500015258789,63.45758056640625,199100
2020-06-15,62.849998474121094,68.87999725341797,62.849998474121094,67.62999725341797,66.90000915527344,157000
2020-06-16,70.45999908447266,72.02999877929688,68.8499984741211,72.02999877929688,71.25251770019531,192600
2020-06-17,72.81999969482422,73.91000366210938,70.2300033569336,70.54000091552734,69.77860260009766,144700
2020-06-18,69.97000122070312,73.80000305175781,69.97000122070312,72.86000061035156,72.07356262207031,163100
2020-06-19,73.5999984741211,74.13999938964844,72.01000213623047,72.29000091552734,71.50971984863281,264100
2020-06-22,72.55999755859375,72.55999755859375,69.33000183105469,71.95999908447266,71.18327331542969,229800
2020-06-23,72.75,74.12999725341797,71.08000183105469,73.66999816894531,72.87481689453125,229100
2020-06-24,73.02999877929688,75.80000305175781,72.56999969482422,74.66000366210938,73.85414123535156,174500
2020-06-25,74.0199966430664,75.51000213623047,73.30699920654297,73.9000015258789,73.10234069824219,103900
2020-06-26,73.44999694824219,75.94999694824219,72.91000366210938,73.02999877929688,72.24172973632812,665300
2020-06-29,74.38999938964844,74.38999938964844,71.61499786376953,72.72000122070312,71.93507385253906,139000
2020-06-30,72.3499984741211,76.30999755859375,72.3499984741211,75.16000366210938,74.34873962402344,116600
2020-07-01,74.88999938964844,76.66999816894531,74.83000183105469,75.55999755859375,74.74441528320312,183200
2020-07-02,76.27999877929688,77.66999816894531,75.1500015258789,75.56999969482422,74.75431060791016,101800
2020-07-06,76.23999786376953,79.80999755859375,75.22000122070312,77.86000061035156,77.01959228515625,213900
2020-07-07,77.41999816894531,79.47000122070312,75.38999938964844,76.30000305175781,75.47643280029297,209300
2020-07-08,76.63999938964844,82.36000061035156,75.6500015258789,82.31999969482422,81.43144989013672,146900
2020-07-09,82.1500015258789,82.1500015258789,78.33000183105469,79.7300033569336,78.86941528320312,259900
2020-07-10,80.31999969482422,82.61000061035156,79.2509994506836,81.91000366210938,81.02588653564453,86700
2020-07-13,83.37000274658203,87.55000305175781,81.59100341796875,83.04000091552734,82.14368438720703,223200
2020-07-14,83.04000091552734,83.23999786376953,79.87000274658203,81.48999786376953,80.61041259765625,231200
2020-07-15,83.0,83.5,81.91000366210938,82.80000305175781,81.9062728881836,99100
2020-07-16,82.26000213623047,83.62999725341797,81.5199966430664,82.66000366210938,81.76778411865234,144500
2020-07-17,82.72000122070312,83.80999755859375,81.83999633789062,83.19999694824219,82.30195617675781,92100
2020-07-20,83.2300033569336,85.31999969482422,81.63999938964844,82.79000091552734,81.8963851928711,154600
2020-07-21,83.0999984741211,84.19999694824219,80.70999908447266,81.0,80.12570190429688,107400
2020-07-22,80.91000366210938,81.48500061035156,79.49199676513672,81.02999877929688,80.15538024902344,90100
2020-07-23,80.91999816894531,83.95999908447266,80.23500061035156,81.75,80.86760711669922,74400
2020-07-24,81.38999938964844,83.80999755859375,80.11000061035156,83.26000213623047,82.36131286621094,119100
2020-07-27,83.36000061035156,85.19999694824219,82.05000305175781,84.55000305175781,83.63739013671875,113700
2020-07-28,83.91000366210938,85.12000274658203,83.01000213623047,83.81999969482422,82.9152603149414,103200
2020-07-29,84.62999725341797,85.95999908447266,84.01000213623047,84.91000366210938,83.99349975585938,64000
2020-07-30,83.47000122070312,84.65899658203125,82.91999816894531,83.88999938964844,82.98450469970703,129700
2020-07-31,96.5999984741211,105.9800033569336,93.04000091552734,103.33000183105469,102.21467590332031,740600
2020-08-03,103.83999633789062,110.87999725341797,102.91999816894531,107.3499984741211,106.1912841796875,281800
2020-08-04,107.33999633789062,108.9000015258789,104.25,106.1500015258789,105.00424194335938,254200
2020-08-05,107.01000213623047,109.47000122070312,105.25,109.16000366210938,107.98175048828125,173000
2020-08-06,107.86000061035156,108.38999938964844,106.08000183105469,106.44999694824219,105.30099487304688,129100
2020-08-07,105.52999877929688,107.0,104.5999984741211,105.66999816894531,105.66999816894531,123300
2020-08-10,105.97000122070312,106.58999633789062,103.02999877929688,104.66999816894531,104.66999816894531,168800
2020-08-11,104.47000122070312,104.47000122070312,93.87000274658203,94.70999908447266,94.70999908447266,333600
2020-08-12,95.69999694824219,102.33000183105469,95.48600006103516,100.05000305175781,100.05000305175781,141900
2020-08-13,100.5,102.11799621582031,98.36000061035156,100.51000213623047,100.51000213623047,119700
2020-08-14,98.26000213623047,101.19000244140625,96.45999908447266,97.26000213623047,97.26000213623047,96600
2020-08-17,97.52999877929688,98.66999816894531,96.30000305175781,97.4000015258789,97.4000015258789,100300
2020-08-18,97.4800033569336,100.80000305175781,97.11000061035156,98.43000030517578,98.43000030517578,87900
2020-08-19,98.05999755859375,101.63999938964844,97.27999877929688,100.04000091552734,100.04000091552734,107600
2020-08-20,99.54000091552734,102.04499816894531,98.22000122070312,99.68000030517578,99.68000030517578,134700
2020-08-21,99.83999633789062,99.83999633789062,95.37000274658203,95.69999694824219,95.69999694824219,114100
2020-08-24,97.08000183105469,98.9800033569336,92.81999969482422,94.73999786376953,94.73999786376953,130400
2020-08-25,95.0199966430664,97.13999938964844,94.87999725341797,96.87000274658203,96.87000274658203,76900
2020-08-26,97.23999786376953,99.6050033569336,95.80999755859375,97.62999725341797,97.62999725341797,114700
2020-08-27,98.61000061035156,98.61000061035156,97.0999984741211,97.80999755859375,97.80999755859375,66100
2020-08-28,98.52999877929688,101.77999877929688,98.2300033569336,100.93000030517578,100.93000030517578,89600
2020-08-31,100.33999633789062,103.44999694824219,99.28099822998047,102.76000213623047,102.76000213623047,102800
2020-09-01,103.37000274658203,111.11000061035156,103.01000213623047,110.81999969482422,110.81999969482422,156600
2020-09-02,111.45999908447266,115.11000061035156,108.0999984741211,112.5,112.5,244400
2020-09-03,112.72000122070312,113.0,105.44000244140625,106.30999755859375,106.30999755859375,175500
2020-09-04,107.41999816894531,112.69499969482422,98.70999908447266,101.18000030517578,101.18000030517578,163300
2020-09-08,102.30000305175781,102.94499969482422,97.22000122070312,97.76000213623047,97.76000213623047,194300
2020-09-09,99.5,100.88999938964844,99.23999786376953,99.69999694824219,99.69999694824219,128200
2020-09-10,99.20999908447266,101.33000183105469,97.88999938964844,98.77999877929688,98.77999877929688,166900
2020-09-11,99.1500015258789,100.08000183105469,97.62000274658203,98.8499984741211,98.8499984741211,89700
2020-09-14,100.47000122070312,100.61000061035156,86.8499984741211,90.87999725341797,90.87999725341797,458200
2020-09-15,91.11000061035156,92.37999725341797,86.01000213623047,86.41000366210938,86.41000366210938,312200
2020-09-16,86.3499984741211,86.3499984741211,80.80000305175781,81.61000061035156,81.61000061035156,415200
2020-09-17,80.94000244140625,82.9800033569336,79.62000274658203,79.9800033569336,79.9800033569336,184200
2020-09-18,80.5999984741211,82.25,78.5,78.58999633789062,78.58999633789062,303200
2020-09-21,78.2300033569336,81.6500015258789,77.5199966430664,81.5999984741211,81.5999984741211,259400
2020-09-22,82.30000305175781,84.4000015258789,80.69999694824219,84.08000183105469,84.08000183105469,193700
2020-09-23,83.36000061035156,85.54000091552734,79.86499786376953,80.2699966430664,80.2699966430664,125500
2020-09-24,80.1500015258789,80.69000244140625,77.63999938964844,77.94999694824219,77.94999694824219,122300
2020-09-25,77.01000213623047,81.76000213623047,76.75,81.27999877929688,81.27999877929688,100900
2020-09-28,82.12999725341797,84.29000091552734,81.30000305175781,83.55000305175781,83.55000305175781,79400
2020-09-29,83.62999725341797,86.08999633789062,83.04000091552734,85.19999694824219,85.19999694824219,65000
2020-09-30,85.30999755859375,88.79000091552734,85.30999755859375,86.58999633789062,86.58999633789062,103900
2020-10-01,86.72000122070312,87.73999786376953,81.48999786376953,82.83999633789062,82.83999633789062,218100
2020-10-02,81.23999786376953,84.05500030517578,80.05999755859375,81.45999908447266,81.45999908447266,99200
2020-10-05,82.2699966430664,86.5199966430664,82.01000213623047,86.2300033569336,86.2300033569336,161700
2020-10-06,86.81999969482422,88.36000061035156,85.30999755859375,87.05999755859375,87.05999755859375,239600
2020-10-07,87.5199966430664,89.80999755859375,86.69000244140625,89.37000274658203,89.37000274658203,185100
2020-10-08,89.94999694824219,90.16999816894531,88.61000061035156,89.8499984741211,89.8499984741211,185500
2020-10-09,90.55000305175781,94.0,89.12999725341797,93.70999908447266,93.70999908447266,132200
2020-10-12,94.94999694824219,97.87000274658203,93.73999786376953,96.8499984741211,96.8499984741211,228600
2020-10-13,96.05000305175781,98.12999725341797,95.62999725341797,96.5999984741211,96.5999984741211,75000
2020-10-14,97.08000183105469,100.0199966430664,95.80999755859375,99.69000244140625,99.69000244140625,225100
2020-10-15,97.95999908447266,104.93000030517578,96.33499908447266,103.66999816894531,103.66999816894531,224900
2020-10-16,103.06999969482422,108.19000244140625,103.06999969482422,108.02999877929688,108.02999877929688,162900
2020-10-19,109.0199966430664,113.41000366210938,106.19000244140625,107.81999969482422,107.81999969482422,443200
2020-10-20,106.97000122070312,108.68499755859375,103.01000213623047,104.11000061035156,104.11000061035156,65800
2020-10-21,104.51000213623047,105.55999755859375,102.83000183105469,105.22000122070312,105.22000122070312,77300
2020-10-22,105.01000213623047,108.0,104.35299682617188,106.54000091552734,106.54000091552734,102900
2020-10-23,107.80999755859375,109.12000274658203,107.55999755859375,108.87000274658203,108.87000274658203,87600
2020-10-26,108.54000091552734,110.58000183105469,107.48999786376953,109.9000015258789,109.9000015258789,96500
2020-10-27,110.1500015258789,112.80999755859375,110.1500015258789,111.6500015258789,111.6500015258789,107800
2020-10-28,109.91999816894531,110.31999969482422,106.37999725341797,107.0,107.0,143900
2020-10-29,107.91999816894531,108.45999908447266,105.41000366210938,107.02999877929688,107.02999877929688,207100
2020-10-30,109.0,124.83999633789062,109.0,122.54000091552734,122.54000091552734,566400
2020-11-02,122.12000274658203,128.91000366210938,119.37300109863281,126.25,126.25,205900
2020-11-03,127.0,127.0,116.68000030517578,123.63999938964844,123.63999938964844,188000
2020-11-04,124.44999694824219,127.94000244140625,123.61000061035156,123.75,123.75,138800
2020-11-05,124.94999694824219,126.7300033569336,123.43499755859375,124.19000244140625,124.19000244140625,106100
2020-11-06,123.19999694824219,126.51000213623047,121.0,121.8499984741211,121.8499984741211,202900
2020-11-09,124.3499984741211,125.33000183105469,115.44000244140625,115.69999694824219,115.69999694824219,162000
2020-11-10,115.95999908447266,117.30000305175781,110.26000213623047,113.58999633789062,113.58999633789062,143400
2020-11-11,114.19999694824219,115.58999633789062,110.23500061035156,113.30000305175781,113.30000305175781,122400
2020-11-12,113.80999755859375,120.66999816894531,113.01000213623047,118.66999816894531,118.66999816894531,89200
2020-11-13,119.75,123.33000183105469,119.0999984741211,122.55000305175781,122.55000305175781,62900
2020-11-16,123.19999694824219,125.0,122.77999877929688,124.18000030517578,124.18000030517578,112200
2020-11-17,124.83000183105469,125.0,119.29000091552734,121.68000030517578,121.68000030517578,164800
2020-11-18,121.54000091552734,124.0999984741211,118.83999633789062,122.7699966430664,122.7699966430664,83100
2020-11-19,123.04000091552734,131.63999938964844,123.04000091552734,130.64999389648438,130.64999389648438,155500
2020-11-20,128.5399932861328,129.80999755859375,124.08999633789062,124.56999969482422,124.56999969482422,110400
2020-11-23,125.58999633789062,126.55000305175781,123.05999755859375,123.27999877929688,123.27999877929688,118600
2020-11-24,123.36000061035156,124.68499755859375,116.58999633789062,116.80000305175781,116.80000305175781,156100
2020-11-25,116.80000305175781,120.93000030517578,116.19000244140625,120.1500015258789,120.1500015258789,111600
2020-11-27,120.30000305175781,123.3499984741211,120.30000305175781,122.83999633789062,122.83999633789062,49800
2020-11-30,123.0,125.45999908447266,121.29000091552734,123.11000061035156,123.11000061035156,154500
2020-12-01,123.22000122070312,123.22000122070312,115.66500091552734,119.41999816894531,119.41999816894531,163300
2020-12-02,120.0,124.31900024414062,118.2699966430664,119.62000274658203,119.62000274658203,132300
2020-12-03,120.13999938964844,121.68499755859375,114.62000274658203,114.87999725341797,114.87999725341797,100900
2020-12-04,114.37999725341797,115.91000366210938,111.41999816894531,113.05000305175781,113.05000305175781,111100
2020-12-07,113.81999969482422,117.71499633789062,108.7300033569336,112.83000183105469,112.83000183105469,192900
2020-12-08,112.05999755859375,122.6500015258789,112.05999755859375,122.47000122070312,122.47000122070312,129900
2020-12-09,122.88999938964844,123.33000183105469,111.71499633789062,114.04000091552734,114.04000091552734,116900
2020-12-10,113.33000183105469,114.06500244140625,110.54000091552734,113.22000122070312,113.22000122070312,146700
2020-12-11,113.4800033569336,118.58999633789062,113.26000213623047,117.63999938964844,117.63999938964844,107100
2020-12-14,119.12000274658203,124.7699966430664,119.12000274658203,121.55000305175781,121.55000305175781,144600
2020-12-15,122.0,123.93000030517578,120.56500244140625,123.45999908447266,123.45999908447266,129100
2020-12-16,123.58000183105469,131.69000244140625,122.99199676513672,123.7300033569336,123.7300033569336,253000
2020-12-17,123.08000183105469,129.1199951171875,120.71800231933594,128.5500030517578,128.5500030517578,145200
2020-12-18,132.5500030517578,134.52000427246094,128.41000366210938,128.97000122070312,128.97000122070312,302400
2020-12-21,128.63999938964844,130.6300048828125,122.76399993896484,130.22999572753906,130.22999572753906,157800
2020-12-22,130.35000610351562,131.47999572753906,125.8499984741211,127.0999984741211,127.0999984741211,145500
2020-12-23,126.69999694824219,128.72000122070312,123.25,125.94999694824219,125.94999694824219,78200
2020-12-24,125.6500015258789,125.68000030517578,121.12999725341797,124.19000244140625,124.19000244140625,44700
2020-12-28,125.6500015258789,129.3300018310547,119.43000030517578,123.61000061035156,123.61000061035156,172100
2020-12-29,125.0,126.0,119.05000305175781,124.55000305175781,124.55000305175781,121500
2020-12-30,125.47000122070312,129.39999389648438,120.91000366210938,122.7300033569336,122.7300033569336,140800
