Date,Open,High,Low,Close,Adj Close,Volume
2019-10-11,16.200000762939453,16.350000381469727,15.520000457763672,15.539999961853027,14.599156379699707,3754600
2019-10-14,15.600000381469727,15.859999656677246,15.270000457763672,15.5,14.561577796936035,419200
2019-10-15,15.550000190734863,15.729999542236328,15.5,15.600000381469727,14.655525207519531,317700
2019-10-16,15.520000457763672,15.819999694824219,15.520000457763672,15.800000190734863,14.843416213989258,144200
2019-10-17,15.850000381469727,15.9399995803833,15.649999618530273,15.850000381469727,14.890387535095215,140900
2019-10-18,15.829999923706055,16.09000015258789,15.65999984741211,15.859999656677246,14.899784088134766,177000
2019-10-21,15.970000267028809,16.027000427246094,15.789999961853027,15.84000015258789,14.880993843078613,71800
2019-10-22,15.859999656677246,16.0,15.829999923706055,15.970000267028809,15.00312328338623,107500
2019-10-23,15.949999809265137,16.399999618530273,15.949999809265137,16.139999389648438,15.162830352783203,60800
2019-10-24,16.110000610351562,16.149999618530273,16.0,16.0,15.031307220458984,20300
2019-10-25,16.010000228881836,16.260000228881836,15.979999542236328,16.110000610351562,15.13464641571045,29700
2019-10-28,16.18000030517578,16.399999618530273,16.0049991607666,16.299999237060547,15.31314468383789,29400
2019-10-29,16.25,16.34000015258789,15.949999809265137,16.18000030517578,15.200409889221191,353300
2019-10-30,16.110000610351562,16.309999465942383,16.06999969482422,16.079999923706055,15.106464385986328,25100
2019-10-31,16.06999969482422,16.110000610351562,15.770000457763672,16.030000686645508,15.059492111206055,77400
2019-11-01,16.0,16.170000076293945,15.949999809265137,15.970000267028809,15.00312328338623,173200
2019-11-04,16.190000534057617,16.190000534057617,15.90999984741211,16.059999465942383,15.08767318725586,54100
2019-11-05,15.739999771118164,16.200000762939453,15.739999771118164,16.15999984741211,15.181619644165039,121100
2019-11-06,16.200000762939453,16.25,16.139999389648438,16.25,15.2661714553833,108800
2019-11-07,16.309999465942383,17.0049991607666,16.299999237060547,16.860000610351562,15.839241027832031,307900
2019-11-08,16.75,17.1299991607666,16.690000534057617,17.079999923706055,16.045921325683594,68500
2019-11-11,16.950000762939453,17.0,16.540000915527344,16.920000076293945,15.895606994628906,189800
2019-11-12,16.780000686645508,16.899999618530273,16.649999618530273,16.889999389648438,15.867422103881836,75600
2019-11-13,16.799999237060547,17.0,16.670000076293945,16.950000762939453,15.923791885375977,145100
2019-11-14,16.899999618530273,16.899999618530273,16.674999237060547,16.899999618530273,15.876818656921387,130900
2019-11-15,17.010000228881836,17.524999618530273,16.719999313354492,17.299999237060547,16.252599716186523,209600
2019-11-18,17.260000228881836,17.299999237060547,17.0,17.290000915527344,16.243206024169922,108200
2019-11-19,17.18000030517578,17.59000015258789,16.437999725341797,17.440000534057617,16.384124755859375,53500
2019-11-20,17.389999389648438,17.6299991607666,17.139999389648438,17.270000457763672,16.22441864013672,76400
2019-11-21,17.290000915527344,17.43000030517578,16.940000534057617,17.270000457763672,16.22441864013672,45100
2019-11-22,17.299999237060547,17.459999084472656,16.81999969482422,17.3700008392334,16.318363189697266,25100
2019-11-25,17.25,17.520000457763672,16.649999618530273,17.440000534057617,16.384124755859375,53800
2019-11-26,17.299999237060547,17.65999984741211,16.950000762939453,17.600000381469727,16.534439086914062,69900
2019-11-27,17.639999389648438,17.860000610351562,17.440000534057617,17.700000762939453,16.628385543823242,27300
2019-11-29,17.8799991607666,17.8799991607666,17.040000915527344,17.799999237060547,16.72233009338379,17000
2019-12-02,17.889999389648438,17.969999313354492,17.1200008392334,17.5,16.440492630004883,81000
2019-12-03,19.06999969482422,19.06999969482422,16.549999237060547,16.889999389648438,15.867422103881836,157100
2019-12-04,16.940000534057617,17.43000030517578,16.940000534057617,17.34000015258789,16.290180206298828,102200
2019-12-05,17.469999313354492,17.600000381469727,16.940000534057617,17.260000228881836,16.21502113342285,68500
2019-12-06,17.100000381469727,17.579999923706055,16.959999084472656,17.530000686645508,16.468677520751953,103200
2019-12-09,17.530000686645508,17.68000030517578,17.190000534057617,17.3700008392334,16.318363189697266,141900
2019-12-10,17.399999618530273,17.649999618530273,17.059999465942383,17.559999465942383,16.496862411499023,162700
2019-12-11,17.600000381469727,17.729999542236328,17.3799991607666,17.719999313354492,16.647171020507812,119800
2019-12-12,17.729999542236328,17.93000030517578,17.2189998626709,17.459999084472656,16.402915954589844,88300
2019-12-13,17.489999771118164,17.665000915527344,17.260000228881836,17.399999618530273,16.346546173095703,142500
2019-12-16,17.559999465942383,18.100000381469727,17.559999465942383,17.844999313354492,16.764604568481445,247800
2019-12-17,17.969999313354492,18.8799991607666,17.8700008392334,18.09000015258789,16.994773864746094,227200
2019-12-18,18.1299991607666,18.329999923706055,18.014999389648438,18.170000076293945,17.069927215576172,224300
2019-12-19,18.200000762939453,18.200000762939453,17.889999389648438,17.959999084472656,16.87264060974121,266700
2019-12-20,17.989999771118164,18.649999618530273,17.799999237060547,18.0,16.91022300720215,1494600
2019-12-23,18.1200008392334,18.1299991607666,17.950000762939453,18.049999237060547,16.957195281982422,82700
2019-12-24,18.079999923706055,18.219999313354492,17.969999313354492,18.15999984741211,17.06053352355957,46900
2019-12-26,18.219999313354492,18.40999984741211,17.950000762939453,18.31999969482422,17.210844039916992,47100
2019-12-27,18.459999084472656,18.96500015258789,18.059999465942383,18.75,17.61481285095215,72100
2019-12-30,18.799999237060547,18.979999542236328,18.524999618530273,18.93000030517578,17.783918380737305,54700
2019-12-31,18.860000610351562,19.09000015258789,18.6200008392334,18.989999771118164,17.840282440185547,52000
2020-01-02,19.0,19.200000762939453,18.81999969482422,19.149999618530273,17.990596771240234,30900
2020-01-03,19.100000381469727,19.329999923706055,18.729999542236328,19.200000762939453,18.03757095336914,78500
2020-01-06,19.1299991607666,19.40999984741211,19.0,19.100000381469727,17.94362449645996,132200
2020-01-07,19.020000457763672,19.18000030517578,18.489999771118164,18.799999237060547,17.66178321838379,65400
2020-01-08,18.760000228881836,18.88800048828125,18.415000915527344,18.719999313354492,17.58662986755371,48000
2020-01-09,18.729999542236328,19.06999969482422,18.43000030517578,18.93000030517578,17.783918380737305,45100
2020-01-10,18.889999389648438,19.020000457763672,18.389999389648438,18.610000610351562,17.48328971862793,58900
2020-01-13,18.579999923706055,19.09000015258789,18.350000381469727,18.8700008392334,17.727548599243164,62900
2020-01-14,18.850000381469727,19.100000381469727,18.350000381469727,18.729999542236328,17.596023559570312,76900
2020-01-15,18.729999542236328,18.940000534057617,18.511999130249023,18.93000030517578,17.783918380737305,119200
2020-01-16,19.040000915527344,19.1299991607666,18.799999237060547,18.979999542236328,17.830888748168945,117300
2020-01-17,19.1200008392334,20.325000762939453,18.975000381469727,19.049999237060547,17.896650314331055,103800
2020-01-21,19.110000610351562,19.110000610351562,18.860000610351562,18.899999618530273,17.7557315826416,55700
2020-01-22,18.93000030517578,19.0,18.690000534057617,18.719999313354492,17.58662986755371,63100
2020-01-23,18.709999084472656,18.989999771118164,18.555999755859375,18.989999771118164,17.840282440185547,48200
2020-01-24,18.989999771118164,18.989999771118164,18.829999923706055,18.889999389648438,17.746335983276367,14900
2020-01-27,18.639999389648438,19.1299991607666,18.19499969482422,19.100000381469727,17.94362449645996,86800
2020-01-28,19.170000076293945,19.170000076293945,18.1299991607666,19.030000686645508,17.87786293029785,21700
2020-01-29,19.110000610351562,19.149999618530273,18.493999481201172,19.030000686645508,17.87786293029785,35200
2020-01-30,18.950000762939453,19.049999237060547,18.700000762939453,19.040000915527344,17.887256622314453,33300
2020-01-31,19.579999923706055,20.709999084472656,18.624000549316406,19.329999923706055,18.159696578979492,76400
2020-02-03,19.469999313354492,19.549999237060547,19.190000534057617,19.510000228881836,18.328800201416016,48600
2020-02-04,19.5,19.5,19.049999237060547,19.43000030517578,18.253643035888672,40200
2020-02-05,19.610000610351562,20.520000457763672,19.440000534057617,19.940000534057617,18.73276710510254,71700
2020-02-06,19.969999313354492,20.392000198364258,19.020000457763672,19.020000457763672,17.868467330932617,27500
2020-02-07,18.8700008392334,19.594999313354492,17.889999389648438,18.440000534057617,17.461288452148438,84300
2020-02-10,18.3799991607666,19.110000610351562,17.989999771118164,18.700000762939453,17.707487106323242,40700
2020-02-11,18.790000915527344,19.395000457763672,18.2450008392334,18.549999237060547,17.565448760986328,34000
2020-02-12,18.6200008392334,18.959999084472656,18.5,18.56999969482422,17.58439064025879,30600
2020-02-13,18.510000228881836,19.489999771118164,18.40999984741211,18.5,17.518102645874023,37500
2020-02-14,18.450000762939453,18.84000015258789,18.010000228881836,18.219999313354492,17.252965927124023,41600
2020-02-18,18.329999923706055,18.625,18.030000686645508,18.200000762939453,17.23402976989746,21500
2020-02-19,18.360000610351562,18.479999542236328,18.020000457763672,18.049999237060547,17.09198760986328,41100
2020-02-20,18.020000457763672,18.239999771118164,17.950000762939453,18.110000610351562,17.148801803588867,29000
2020-02-21,18.149999618530273,18.219999313354492,17.389999389648438,18.010000228881836,17.05411148071289,23300
2020-02-24,17.639999389648438,18.200000762939453,17.200000762939453,17.59000015258789,16.656402587890625,25200
2020-02-25,17.68000030517578,17.68000030517578,17.100000381469727,17.270000457763672,16.353389739990234,52400
2020-02-26,17.27899932861328,17.56999969482422,17.1200008392334,17.18000030517578,16.268163681030273,22800
2020-02-27,17.110000610351562,17.43000030517578,16.729999542236328,16.75,15.86098575592041,29500
2020-02-28,16.350000381469727,17.27199935913086,14.6899995803833,15.479999542236328,14.658390998840332,67600
2020-03-02,15.630000114440918,16.110000610351562,15.630000114440918,16.110000610351562,15.25495433807373,33000
2020-03-03,16.059999465942383,16.469999313354492,14.949999809265137,14.979999542236328,14.184929847717285,143600
2020-03-04,15.210000038146973,15.210000038146973,14.670000076293945,14.960000038146973,14.165989875793457,124200
2020-03-05,14.90999984741211,15.0,13.949999809265137,14.210000038146973,13.455798149108887,64800
2020-03-06,13.680000305175781,14.447999954223633,13.295000076293945,14.399999618530273,13.635712623596191,44600
2020-03-09,13.390000343322754,14.0600004196167,13.25,13.279999732971191,12.57515811920166,37000
2020-03-10,13.699999809265137,13.850000381469727,12.899999618530273,13.670000076293945,12.944458961486816,69900
2020-03-11,13.15999984741211,13.579999923706055,13.119999885559082,13.149999618530273,12.452056884765625,42700
2020-03-12,12.329999923706055,12.800000190734863,11.949999809265137,12.239999771118164,11.59035587310791,51700
2020-03-13,13.020000457763672,13.765000343322754,12.0,12.5,11.836557388305664,88300
2020-03-16,11.789999961853027,12.460000038146973,11.420000076293945,11.420000076293945,10.813878059387207,56300
2020-03-17,11.770000457763672,14.470000267028809,11.479999542236328,13.0,12.310018539428711,86800
2020-03-18,12.119999885559082,12.71500015258789,11.380000114440918,11.579999923706055,10.965386390686035,41500
2020-03-19,11.40999984741211,13.020000457763672,11.25,13.020000457763672,12.328958511352539,65400
2020-03-20,12.8100004196167,12.8100004196167,11.220000267028809,11.649999618530273,11.031670570373535,61000
2020-03-23,11.869999885559082,12.59000015258789,9.109999656677246,9.109999656677246,8.626482963562012,126100
2020-03-24,9.5,11.869999885559082,9.5,10.899999618530273,10.321477890014648,74800
2020-03-25,10.739999771118164,11.399999618530273,10.5600004196167,10.869999885559082,10.293068885803223,142300
2020-03-26,10.800000190734863,11.3100004196167,10.604999542236328,11.0600004196167,10.47298526763916,323400
2020-03-27,10.770000457763672,11.135000228881836,10.25,10.25,9.705977439880371,118000
2020-03-30,10.359999656677246,10.543999671936035,10.079999923706055,10.40999984741211,9.857483863830566,21800
2020-03-31,10.390000343322754,10.529999732971191,10.010000228881836,10.529999732971191,9.971115112304688,117200
2020-04-01,10.555000305175781,10.59000015258789,9.3100004196167,9.550000190734863,9.043129920959473,61900
2020-04-02,9.4399995803833,9.949999809265137,9.4399995803833,9.619999885559082,9.109414100646973,51300
2020-04-03,9.5,10.329999923706055,9.359999656677246,9.970000267028809,9.440838813781738,37600
2020-04-06,10.199999809265137,10.875,9.819999694824219,10.300000190734863,9.753323554992676,187500
2020-04-07,10.859999656677246,11.989999771118164,10.34000015258789,11.260000228881836,10.662370681762695,135300
2020-04-08,11.3100004196167,11.829999923706055,10.869999885559082,11.75,11.126363754272461,34200
2020-04-09,11.9399995803833,13.289999961853027,11.84000015258789,13.0,12.310018539428711,63300
2020-04-13,12.84000015258789,12.84000015258789,11.5600004196167,11.84000015258789,11.211586952209473,21900
2020-04-14,12.25,12.479999542236328,11.5,11.5,10.889633178710938,19500
2020-04-15,11.170000076293945,11.67300033569336,10.529999732971191,10.600000381469727,10.037400245666504,34900
2020-04-16,10.619999885559082,10.902000427246094,9.779999732971191,10.15999984741211,9.620753288269043,68300
2020-04-17,10.670000076293945,11.515000343322754,10.40999984741211,10.800000190734863,10.226785659790039,30100
2020-04-20,10.739999771118164,10.739999771118164,10.350000381469727,10.5600004196167,9.999524116516113,41900
2020-04-21,10.100000381469727,10.609999656677246,9.989999771118164,10.59000015258789,10.027931213378906,40800
2020-04-22,10.619999885559082,11.25,10.5,10.6899995803833,10.122623443603516,28400
2020-04-23,10.609999656677246,10.6899995803833,10.1899995803833,10.350000381469727,9.800670623779297,39900
2020-04-24,10.390000343322754,10.760000228881836,10.199999809265137,10.510000228881836,9.952178001403809,111400
2020-04-27,10.520000457763672,11.432000160217285,10.5,10.880000114440918,10.302539825439453,127200
2020-04-28,11.199999809265137,11.595000267028809,10.8149995803833,11.029999732971191,10.444576263427734,140400
2020-04-29,11.34000015258789,12.420000076293945,11.0,11.84000015258789,11.211586952209473,96700
2020-04-30,11.399999618530273,12.140000343322754,11.029999732971191,11.649999618530273,11.031670570373535,64000
2020-05-01,11.0,12.199999809265137,10.680000305175781,11.4399995803833,10.832816123962402,77100
2020-05-04,11.539999961853027,11.930999755859375,11.100000381469727,11.100000381469727,10.510862350463867,41000
2020-05-05,11.050000190734863,11.510000228881836,10.972000122070312,11.100000381469727,10.510862350463867,41300
2020-05-06,11.420000076293945,11.420000076293945,10.75,10.779999732971191,10.207846641540527,278000
2020-05-07,10.779999732971191,11.050000190734863,10.71500015258789,10.899999618530273,10.321477890014648,75600
2020-05-08,11.180000305175781,11.729999542236328,10.954999923706055,11.4399995803833,10.832816123962402,53900
2020-05-11,11.130000114440918,11.289999961853027,10.890000343322754,11.0,10.554560661315918,69200
2020-05-12,11.1899995803833,11.1899995803833,10.579999923706055,10.59000015258789,10.161163330078125,45100
2020-05-13,10.510000228881836,11.0600004196167,10.010000228881836,10.5,10.074807167053223,51400
2020-05-14,10.430000305175781,10.59000015258789,9.789999961853027,10.449999809265137,10.02683162689209,56800
2020-05-15,10.680000305175781,11.25,10.399999618530273,10.90999984741211,10.468205451965332,58100
2020-05-18,11.449999809265137,12.449999809265137,11.449999809265137,12.100000381469727,11.610016822814941,118300
2020-05-19,12.09000015258789,12.170000076293945,11.819999694824219,11.869999885559082,11.38932991027832,29600
2020-05-20,12.0,12.550000190734863,11.845000267028809,12.109999656677246,11.619610786437988,68900
2020-05-21,12.199999809265137,12.364999771118164,12.0,12.069999694824219,11.581230163574219,29900
2020-05-22,12.109999656677246,12.489999771118164,11.90999984741211,11.979999542236328,11.49487590789795,94900
2020-05-26,12.640000343322754,12.989999771118164,12.390000343322754,12.710000038146973,12.195314407348633,54000
2020-05-27,12.949999809265137,13.52299976348877,12.880000114440918,13.229999542236328,12.694256782531738,113600
2020-05-28,13.510000228881836,13.512999534606934,13.180000305175781,13.229999542236328,12.694256782531738,156100
2020-05-29,13.119999885559082,13.199999809265137,12.614999771118164,12.720000267028809,12.204909324645996,49700
2020-06-01,12.859999656677246,13.204999923706055,12.583000183105469,12.859999656677246,12.339239120483398,29400
2020-06-02,12.970000267028809,13.1899995803833,12.770000457763672,13.119999885559082,12.58871078491211,25500
2020-06-03,13.25,13.654999732971191,13.1850004196167,13.399999618530273,12.857373237609863,51800
2020-06-04,13.4399995803833,13.680000305175781,13.25,13.4399995803833,12.895751953125,23500
2020-06-05,14.0,14.760000228881836,13.739999771118164,14.699999809265137,14.104730606079102,63000
2020-06-08,15.15999984741211,15.15999984741211,14.619999885559082,14.699999809265137,14.104730606079102,57800
2020-06-09,14.640000343322754,14.90999984741211,13.72700023651123,14.670000076293945,14.075944900512695,26000
2020-06-10,14.59000015258789,14.744999885559082,13.970000267028809,14.079999923706055,13.50983715057373,19300
2020-06-11,13.640000343322754,14.0,12.819999694824219,13.15999984741211,12.627092361450195,41400
2020-06-12,13.59000015258789,13.59000015258789,12.670000076293945,13.170000076293945,12.636686325073242,36700
2020-06-15,12.6899995803833,13.699999809265137,12.640999794006348,13.600000381469727,13.049275398254395,21600
2020-06-16,13.859999656677246,13.899999618530273,13.395000457763672,13.699999809265137,13.145224571228027,23700
2020-06-17,13.949999809265137,13.949999809265137,13.125,13.210000038146973,12.675067901611328,15800
2020-06-18,13.0600004196167,13.59000015258789,13.0600004196167,13.300000190734863,12.761422157287598,16700
2020-06-19,13.300000190734863,13.479999542236328,12.930000305175781,13.130000114440918,12.598306655883789,89600
2020-06-22,12.979999542236328,13.34000015258789,12.9399995803833,13.039999961853027,12.51195240020752,29900
2020-06-23,13.15999984741211,13.359999656677246,12.960000038146973,13.0,12.473570823669434,39700
2020-06-24,12.869999885559082,12.869999885559082,12.619999885559082,12.710000038146973,12.195314407348633,25400
2020-06-25,12.699999809265137,13.09000015258789,12.699999809265137,12.899999618530273,12.377620697021484,38300
2020-06-26,12.760000228881836,13.100000381469727,12.100000381469727,12.359999656677246,11.85948657989502,159600
2020-06-29,12.5,13.100000381469727,12.414999961853027,12.720000267028809,12.204909324645996,43500
2020-06-30,12.649999618530273,13.4399995803833,12.649999618530273,13.329999923706055,12.790207862854004,45600
2020-07-01,13.329999923706055,13.329999923706055,12.550000190734863,12.569999694824219,12.060983657836914,20100
2020-07-02,12.789999961853027,12.899999618530273,12.510000228881836,12.510000228881836,12.003413200378418,12500
2020-07-06,12.800000190734863,12.9399995803833,12.375,12.800000190734863,12.281670570373535,45900
2020-07-07,12.640000343322754,12.899999618530273,12.140000343322754,12.199999809265137,11.705965995788574,32700
2020-07-08,12.25,13.039999961853027,12.020000457763672,12.1899995803833,11.696371078491211,47800
2020-07-09,12.15999984741211,13.220000267028809,11.449999809265137,11.449999809265137,10.98633861541748,58200
2020-07-10,11.569999694824219,12.899999618530273,11.569999694824219,11.84000015258789,11.36054515838623,42300
2020-07-13,12.140000343322754,12.140000343322754,11.652000427246094,11.8100004196167,11.33176040649414,54200
2020-07-14,11.899999618530273,11.940999984741211,11.649999618530273,11.770000457763672,11.293380737304688,19200
2020-07-15,12.079999923706055,12.399999618530273,11.850000381469727,12.265000343322754,11.76833438873291,66400
2020-07-16,12.25,12.390000343322754,11.869999885559082,12.350000381469727,11.849892616271973,107400
2020-07-17,12.180000305175781,12.399999618530273,12.15999984741211,12.25,11.753941535949707,79700
2020-07-20,12.279999732971191,12.319999694824219,12.029999732971191,12.220000267028809,11.725157737731934,37200
2020-07-21,12.329999923706055,12.630000114440918,12.289999961853027,12.630000114440918,12.11855411529541,86700
2020-07-22,12.630000114440918,12.739999771118164,12.170000076293945,12.279999732971191,11.782727241516113,94800
2020-07-23,12.34000015258789,12.449000358581543,12.199999809265137,12.260000228881836,11.763537406921387,35500
2020-07-24,12.369999885559082,12.489999771118164,12.170000076293945,12.229999542236328,11.73475170135498,31600
2020-07-27,12.390000343322754,12.600000381469727,12.15999984741211,12.34000015258789,11.84029769897461,38500
2020-07-28,12.170000076293945,12.5,12.0600004196167,12.430000305175781,11.926653861999512,63800
2020-07-29,12.350000381469727,12.489999771118164,12.260000228881836,12.34000015258789,11.84029769897461,49300
2020-07-30,12.199999809265137,12.399999618530273,12.199999809265137,12.239999771118164,11.744346618652344,34100
2020-07-31,12.220000267028809,12.512999534606934,11.970000267028809,12.020000457763672,11.533255577087402,53800
2020-08-03,12.119999885559082,12.6899995803833,12.020000457763672,12.59000015258789,12.080174446105957,71700
2020-08-04,12.84000015258789,13.418000221252441,12.350000381469727,12.5,11.993819236755371,57800
2020-08-05,12.6899995803833,12.8100004196167,12.510000228881836,12.8100004196167,12.291264533996582,30600
2020-08-06,12.899999618530273,12.899999618530273,12.4399995803833,12.739999771118164,12.224099159240723,37300
2020-08-07,12.819999694824219,13.399999618530273,12.739999771118164,13.350000381469727,12.80939769744873,68000
2020-08-10,13.3100004196167,13.430000305175781,13.020000457763672,13.34000015258789,12.945255279541016,44700
2020-08-11,13.479999542236328,13.5,13.210000038146973,13.210000038146973,12.81910228729248,33200
2020-08-12,13.510000228881836,13.5649995803833,13.25,13.399999618530273,13.00347900390625,23900
2020-08-13,13.289999961853027,13.460000038146973,13.050000190734863,13.170000076293945,12.780285835266113,21300
2020-08-14,13.229999542236328,13.6899995803833,13.229999542236328,13.399999618530273,13.00347900390625,42200
2020-08-17,13.390000343322754,13.390000343322754,12.949999809265137,13.029999732971191,12.644428253173828,20300
2020-08-18,13.029999732971191,13.180000305175781,12.579999923706055,12.649999618530273,12.275672912597656,22500
2020-08-19,12.630000114440918,12.809000015258789,12.5600004196167,12.579999923706055,12.207744598388672,18200
2020-08-20,12.40999984741211,12.699999809265137,12.40999984741211,12.619999885559082,12.246560096740723,17700
2020-08-21,12.630000114440918,12.659000396728516,12.350000381469727,12.380000114440918,12.013662338256836,19000
2020-08-24,12.640000343322754,12.640000343322754,12.293000221252441,12.430000305175781,12.06218433380127,25300
2020-08-25,12.359999656677246,12.850000381469727,12.25,12.25,11.8875093460083,26400
2020-08-26,12.609999656677246,12.699999809265137,12.130000114440918,12.149999618530273,11.7904691696167,16400
2020-08-27,12.420000076293945,12.420000076293945,12.260000228881836,12.300000190734863,11.936030387878418,17100
2020-08-28,12.319999694824219,12.34000015258789,12.170000076293945,12.25,11.8875093460083,14100
2020-08-31,12.25,12.281000137329102,11.850000381469727,11.850000381469727,11.499345779418945,40600
2020-09-01,11.8100004196167,12.050000190734863,11.600000381469727,11.770000457763672,11.421713829040527,39200
2020-09-02,11.829999923706055,12.039999961853027,11.720000267028809,11.9399995803833,11.58668327331543,15000
2020-09-03,12.119999885559082,12.25,11.609999656677246,11.670000076293945,11.324671745300293,35700
2020-09-04,12.199999809265137,12.319999694824219,11.930000305175781,12.239999771118164,11.87780475616455,55300
2020-09-08,12.069999694824219,12.239999771118164,11.979999542236328,12.1899995803833,11.82928466796875,72100
2020-09-09,12.329999923706055,12.329999923706055,12.100000381469727,12.149999618530273,11.7904691696167,71000
2020-09-10,12.175000190734863,12.175000190734863,12.0600004196167,12.09000015258789,11.732244491577148,43200
2020-09-11,12.109999656677246,12.1899995803833,12.0600004196167,12.09000015258789,11.732244491577148,46200
2020-09-14,12.220000267028809,12.220000267028809,12.079999923706055,12.140000343322754,11.78076457977295,43100
2020-09-15,12.206999778747559,12.206999778747559,12.079999923706055,12.079999923706055,11.722540855407715,18700
2020-09-16,12.260000228881836,12.260000228881836,12.079999923706055,12.130000114440918,11.7710599899292,61600
2020-09-17,12.109999656677246,12.140000343322754,12.029999732971191,12.0600004196167,11.703131675720215,37700
2020-09-18,12.430000305175781,12.430000305175781,11.760000228881836,11.859999656677246,11.509049415588379,97300
2020-09-21,11.84000015258789,11.989999771118164,11.65999984741211,11.65999984741211,11.314969062805176,46700
2020-09-22,11.760000228881836,11.819000244140625,11.600000381469727,11.800000190734863,11.450826644897461,81400
2020-09-23,11.760000228881836,11.850000381469727,11.210000038146973,11.210000038146973,10.878284454345703,49000
2020-09-24,11.21500015258789,11.25,11.109999656677246,11.119999885559082,10.790946960449219,34700
2020-09-25,11.010000228881836,11.199999809265137,11.010000228881836,11.010000228881836,10.684202194213867,30000
2020-09-28,11.15999984741211,11.40999984741211,11.15999984741211,11.329999923706055,10.994732856750488,29200
2020-09-29,11.380000114440918,11.449999809265137,11.270000457763672,11.420000076293945,11.082070350646973,45400
2020-09-30,11.5600004196167,11.869999885559082,11.220000267028809,11.220000267028809,10.887988090515137,21400
2020-10-01,11.270000457763672,11.319999694824219,11.180000305175781,11.229999542236328,10.897692680358887,27200
2020-10-02,11.279999732971191,11.600000381469727,11.279999732971191,11.550000190734863,11.208223342895508,29900
2020-10-05,11.510000228881836,11.899999618530273,11.510000228881836,11.899999618530273,11.547865867614746,32200
2020-10-06,11.989999771118164,12.199999809265137,11.850000381469727,11.850000381469727,11.499345779418945,148600
2020-10-07,12.07800006866455,12.229999542236328,11.800000190734863,12.09000015258789,11.732244491577148,28700
2020-10-08,12.199999809265137,12.199999809265137,12.039999961853027,12.09000015258789,11.732244491577148,105700
2020-10-09,12.199999809265137,12.380000114440918,12.0,12.100000381469727,11.741948127746582,82400
2020-10-12,12.0,12.630000114440918,11.989999771118164,12.600000381469727,12.227151870727539,87800
2020-10-13,12.489999771118164,12.489999771118164,12.055000305175781,12.369999885559082,12.003958702087402,17800
2020-10-14,12.520000457763672,12.520000457763672,12.010000228881836,12.180000305175781,11.819581031799316,30700
2020-10-15,12.015000343322754,12.4399995803833,12.015000343322754,12.329999923706055,11.965142250061035,23600
2020-10-16,12.279999732971191,12.399999618530273,12.279999732971191,12.369999885559082,12.003958702087402,21000
2020-10-19,12.399999618530273,12.420000076293945,12.329999923706055,12.329999923706055,11.965142250061035,30900
2020-10-20,12.4399995803833,12.5,12.399999618530273,12.449999809265137,12.08159065246582,112600
2020-10-21,12.53499984741211,12.569999694824219,12.460000038146973,12.529999732971191,12.159222602844238,31200
2020-10-22,12.529999732971191,12.800000190734863,12.529999732971191,12.75,12.372714042663574,113200
2020-10-23,12.899999618530273,13.0,12.720000267028809,12.90999984741211,12.527978897094727,104000
2020-10-26,13.0,13.0,12.760000228881836,12.869999885559082,12.489163398742676,31900
2020-10-27,12.869999885559082,12.880000114440918,12.710000038146973,12.710000038146973,12.333898544311523,25300
2020-10-28,12.59000015258789,12.59000015258789,12.0600004196167,12.15999984741211,11.800172805786133,36000
2020-10-29,12.100000381469727,12.529999732971191,11.970000267028809,12.359999656677246,11.994255065917969,20100
2020-10-30,12.520000457763672,12.539999961853027,12.289999961853027,12.34000015258789,11.974845886230469,19200
2020-11-02,12.529999732971191,12.529999732971191,12.329999923706055,12.460000038146973,12.091294288635254,16200
2020-11-03,12.489999771118164,12.699999809265137,12.1899995803833,12.380000114440918,12.013662338256836,95500
2020-11-04,12.300000190734863,12.430000305175781,12.050000190734863,12.119999885559082,11.761356353759766,18200
2020-11-05,12.15999984741211,12.649999618530273,12.119999885559082,12.539999961853027,12.168928146362305,112500
2020-11-06,12.5600004196167,12.739999771118164,12.260000228881836,12.279999732971191,12.060890197753906,52900
2020-11-09,13.09000015258789,13.710000038146973,12.767000198364258,13.579999923706055,13.33769416809082,111300
2020-11-10,13.6899995803833,13.779999732971191,13.510000228881836,13.710000038146973,13.465374946594238,34100
2020-11-11,13.6899995803833,13.779999732971191,13.42199993133545,13.710000038146973,13.465374946594238,25700
2020-11-12,13.710000038146973,13.710000038146973,13.069999694824219,13.15999984741211,12.925189018249512,61300
2020-11-13,13.140000343322754,13.680000305175781,13.140000343322754,13.529999732971191,13.288586616516113,21200
2020-11-16,13.739999771118164,13.9399995803833,13.670000076293945,13.850000381469727,13.602877616882324,47600
2020-11-17,13.819999694824219,13.819999694824219,13.53499984741211,13.65999984741211,13.416267395019531,22500
2020-11-18,13.649999618530273,13.875,13.520000457763672,13.550000190734863,13.30823040008545,35100
2020-11-19,13.550000190734863,13.550000190734863,13.119999885559082,13.25,13.013582229614258,26600
2020-11-20,13.079999923706055,13.5,13.079999923706055,13.5,13.259121894836426,43200
2020-11-23,13.59000015258789,13.630000114440918,13.25,13.420000076293945,13.180549621582031,33400
2020-11-24,13.59000015258789,13.9399995803833,13.520000457763672,13.899999618530273,13.651984214782715,49000
2020-11-25,13.4350004196167,14.149999618530273,13.4350004196167,14.039999961853027,13.7894868850708,42000
2020-11-27,14.050000190734863,14.050000190734863,13.75,14.050000190734863,13.799308776855469,15500
2020-11-30,14.0,14.119999885559082,13.819999694824219,13.979999542236328,13.730557441711426,76500
2020-12-01,14.100000381469727,14.170000076293945,13.859999656677246,13.9399995803833,13.69127082824707,33700
2020-12-02,14.010000228881836,14.170000076293945,13.949000358581543,14.050000190734863,13.799308776855469,42900
2020-12-03,14.119999885559082,14.449999809265137,13.984999656677246,14.449999809265137,14.192171096801758,90700
2020-12-04,14.579999923706055,14.949999809265137,14.414999961853027,14.930000305175781,14.663607597351074,56700
2020-12-07,14.65999984741211,14.9399995803833,14.619999885559082,14.800000190734863,14.535926818847656,40900
2020-12-08,14.859999656677246,15.300000190734863,14.770000457763672,15.119999885559082,14.85021686553955,116400
2020-12-09,15.25,15.8100004196167,15.0,15.020000457763672,14.752001762390137,37100
2020-12-10,15.0,15.479999542236328,14.8100004196167,15.289999961853027,15.017183303833008,58800
2020-12-11,15.239999771118164,15.40999984741211,14.916999816894531,15.3100004196167,15.03682804107666,43500
2020-12-14,15.390000343322754,15.470000267028809,15.164999961853027,15.289999961853027,15.017183303833008,83100
2020-12-15,15.329999923706055,15.545000076293945,14.821999549865723,15.4399995803833,15.164506912231445,34700
2020-12-16,15.484000205993652,15.619999885559082,15.380000114440918,15.430000305175781,15.154685974121094,36000
2020-12-17,15.470000267028809,15.5600004196167,15.289999961853027,15.479999542236328,15.2037935256958,44900
2020-12-18,15.569999694824219,15.949999809265137,14.880000114440918,15.359999656677246,15.08593463897705,379300
2020-12-21,15.350000381469727,15.4399995803833,15.010000228881836,15.3100004196167,15.03682804107666,42100
2020-12-22,15.319999694824219,15.368000030517578,15.109999656677246,15.149999618530273,14.879681587219238,34700
2020-12-23,15.25,15.319999694824219,15.074999809265137,15.229999542236328,14.958253860473633,50600
2020-12-24,15.359999656677246,15.359999656677246,14.970000267028809,15.100000381469727,14.830574035644531,13500
2020-12-28,15.239999771118164,15.5600004196167,15.130000114440918,15.350000381469727,15.0761137008667,35500
2020-12-29,15.399999618530273,15.399999618530273,15.119999885559082,15.210000038146973,14.938611030578613,40000
2020-12-30,15.229999542236328,15.399999618530273,15.210000038146973,15.289999961853027,15.017183303833008,13500
