Date,Open,High,Low,Close,Adj Close,Volume
2018-05-04,24.81999969482422,24.8799991607666,24.6200008392334,24.868999481201172,21.206613540649414,99600
2018-05-07,24.940000534057617,24.940000534057617,24.81999969482422,24.889999389648438,21.22452163696289,36800
2018-05-08,24.899999618530273,24.899999618530273,24.799999237060547,24.799999237060547,21.147777557373047,12000
2018-05-09,24.850000381469727,24.8700008392334,24.799999237060547,24.8700008392334,21.20746612548828,14700
2018-05-10,24.850000381469727,24.850000381469727,24.65999984741211,24.75,21.105138778686523,16400
2018-05-11,24.81999969482422,24.84000015258789,24.75,24.79599952697754,21.144363403320312,19400
2018-05-14,24.799999237060547,24.84000015258789,24.719999313354492,24.760000228881836,21.113664627075195,29500
2018-05-15,24.719999313354492,24.719999313354492,24.309999465942383,24.584999084472656,20.964435577392578,34900
2018-05-16,24.579999923706055,24.59000015258789,24.459999084472656,24.5,20.89195442199707,7200
2018-05-17,24.600000381469727,24.600000381469727,24.360000610351562,24.5,20.89195442199707,28600
2018-05-18,24.479999542236328,24.579999923706055,24.479999542236328,24.549999237060547,20.93459129333496,3900
2018-05-21,24.579999923706055,24.579999923706055,24.360000610351562,24.56999969482422,20.95164680480957,10600
2018-05-22,24.549999237060547,24.549999237060547,24.299999237060547,24.299999237060547,20.72140884399414,7900
2018-05-23,24.450000762939453,24.540000915527344,24.350000381469727,24.520000457763672,20.909013748168945,9300
2018-05-24,24.549999237060547,24.600000381469727,24.540000915527344,24.600000381469727,20.977230072021484,14200
2018-05-25,24.690000534057617,24.75,24.600000381469727,24.60099983215332,20.97808074951172,25900
2018-05-29,24.5,24.68000030517578,24.493999481201172,24.670000076293945,21.03692054748535,8100
2018-05-30,24.940000534057617,24.940000534057617,24.829999923706055,24.84000015258789,21.181886672973633,4500
2018-05-31,24.84000015258789,24.84000015258789,24.809999465942383,24.84000015258789,21.181886672973633,8600
2018-06-01,24.700000762939453,24.709999084472656,24.68000030517578,24.68000030517578,21.04545021057129,4200
2018-06-04,24.690000534057617,24.790000915527344,24.68000030517578,24.68000030517578,21.04545021057129,5700
2018-06-05,24.700000762939453,24.700000762939453,24.440000534057617,24.469999313354492,20.866376876831055,22400
2018-06-06,24.6200008392334,24.850000381469727,24.579999923706055,24.808000564575195,21.15460205078125,18800
2018-06-07,24.639999389648438,24.850000381469727,24.549999237060547,24.549999237060547,20.93459129333496,32300
2018-06-08,24.709999084472656,24.736000061035156,24.520000457763672,24.520000457763672,20.909013748168945,13300
2018-06-11,24.639999389648438,24.639999389648438,24.399999618530273,24.5,20.89195442199707,14300
2018-06-12,24.549999237060547,24.559999465942383,24.399999618530273,24.489999771118164,20.883426666259766,12900
2018-06-13,24.5,24.64900016784668,24.43000030517578,24.492000579833984,20.885135650634766,5500
2018-06-14,24.5,24.719999313354492,24.5,24.65999984741211,21.028396606445312,4400
2018-06-15,24.670000076293945,24.80900001525879,24.670000076293945,24.75,21.105138778686523,7800
2018-06-18,24.743000030517578,24.780000686645508,24.579999923706055,24.59000015258789,20.96870231628418,7000
2018-06-19,24.59000015258789,24.700000762939453,24.59000015258789,24.700000762939453,21.062503814697266,3300
2018-06-20,24.670000076293945,24.670000076293945,24.625,24.649999618530273,21.019865036010742,2300
2018-06-21,24.649999618530273,24.81999969482422,24.549999237060547,24.81999969482422,21.164831161499023,4100
2018-06-22,24.81999969482422,24.81999969482422,24.5,24.549999237060547,20.93459129333496,11500
2018-06-25,24.489999771118164,24.540000915527344,24.489999771118164,24.5,20.89195442199707,8500
2018-06-26,24.5,24.549999237060547,24.454999923706055,24.454999923706055,20.85358428955078,2300
2018-06-27,24.530000686645508,24.600000381469727,24.5,24.59000015258789,20.96870231628418,11800
2018-06-28,24.639999389648438,24.780000686645508,24.6200008392334,24.780000686645508,21.130720138549805,3800
2018-06-29,24.798999786376953,24.950000762939453,24.791000366210938,24.829999923706055,21.17336082458496,9000
2018-07-02,24.93000030517578,24.93000030517578,24.89699935913086,24.89699935913086,21.230491638183594,5800
2018-07-03,24.920000076293945,24.920000076293945,24.889999389648438,24.889999389648438,21.22452163696289,2300
2018-07-05,24.889999389648438,24.90999984741211,24.889999389648438,24.90999984741211,21.241579055786133,6700
2018-07-06,24.8799991607666,24.920000076293945,24.8799991607666,24.920000076293945,21.250104904174805,4000
2018-07-09,24.93000030517578,24.950000762939453,24.860000610351562,24.860000610351562,21.198942184448242,4500
2018-07-10,24.84000015258789,24.84000015258789,24.84000015258789,24.84000015258789,21.181886672973633,500
2018-07-11,24.93000030517578,25.170000076293945,24.860000610351562,25.0,21.318321228027344,14400
2018-07-12,24.799999237060547,25.020000457763672,24.790000915527344,25.010000228881836,21.623523712158203,14000
2018-07-13,25.020000457763672,25.020000457763672,24.90999984741211,24.989999771118164,21.60623550415039,4100
2018-07-16,25.020000457763672,25.020000457763672,24.899999618530273,25.020000457763672,21.632169723510742,4700
2018-07-17,24.799999237060547,24.799999237060547,24.479999542236328,24.639999389648438,21.30362319946289,23400
2018-07-18,24.639999389648438,24.719999313354492,24.639999389648438,24.65999984741211,21.320919036865234,4300
2018-07-19,24.65999984741211,24.989999771118164,24.65999984741211,24.989999771118164,21.60623550415039,5100
2018-07-20,24.940000534057617,25.0,24.8700008392334,25.0,21.614877700805664,3100
2018-07-23,24.843000411987305,25.0,24.809999465942383,25.0,21.614877700805664,6800
2018-07-24,24.83099937438965,24.83099937438965,24.700000762939453,24.81999969482422,21.459251403808594,3300
2018-07-25,24.9689998626709,24.9689998626709,24.756000518798828,24.856000900268555,21.490375518798828,3400
2018-07-26,24.700000762939453,24.836000442504883,24.700000762939453,24.75,21.39872932434082,1400
2018-07-27,24.809999465942383,24.809999465942383,24.75,24.80900001525879,21.449739456176758,1900
2018-07-30,24.899999618530273,24.969999313354492,24.86400032043457,24.969999313354492,21.588939666748047,2700
2018-07-31,24.856000900268555,24.979999542236328,24.770000457763672,24.799999237060547,21.44196128845215,7700
2018-08-01,24.770000457763672,24.770000457763672,24.450000762939453,24.569000244140625,21.242237091064453,26900
2018-08-02,24.770000457763672,24.770000457763672,24.450000762939453,24.450000762939453,21.139352798461914,6800
2018-08-03,24.469999313354492,24.549999237060547,24.399999618530273,24.5,21.182579040527344,7200
2018-08-06,24.540000915527344,24.579999923706055,24.450000762939453,24.5,21.182579040527344,7300
2018-08-07,24.260000228881836,24.530000686645508,24.260000228881836,24.530000686645508,21.208518981933594,14100
2018-08-08,24.459999084472656,24.670000076293945,24.459999084472656,24.670000076293945,21.329561233520508,8100
2018-08-09,24.54599952697754,24.8700008392334,24.54599952697754,24.8700008392334,21.502479553222656,8800
2018-08-10,24.639999389648438,24.739999771118164,24.459999084472656,24.459999084472656,21.147998809814453,18300
2018-08-13,24.670000076293945,24.670000076293945,24.420000076293945,24.450000762939453,21.139352798461914,14600
2018-08-14,24.450000762939453,24.56800079345703,24.450000762939453,24.479999542236328,21.165287017822266,15600
2018-08-15,24.469999313354492,24.47100067138672,24.290000915527344,24.350000381469727,21.052892684936523,20800
2018-08-16,24.399999618530273,24.610000610351562,24.399999618530273,24.549999237060547,21.22580909729004,24900
2018-08-17,24.780000686645508,24.850000381469727,24.540000915527344,24.540000915527344,21.2171688079834,22800
2018-08-20,24.600000381469727,24.760000228881836,24.479999542236328,24.479999542236328,21.165287017822266,18200
2018-08-21,24.551000595092773,24.979999542236328,24.5,24.979999542236328,21.597585678100586,21900
2018-08-22,24.719999313354492,24.899999618530273,24.6299991607666,24.65999984741211,21.320919036865234,36400
2018-08-23,24.75,24.799999237060547,24.75,24.770000457763672,21.416019439697266,5300
2018-08-24,24.739999771118164,24.959999084472656,24.719999313354492,24.959999084472656,21.580293655395508,16700
2018-08-27,24.760000228881836,24.899999618530273,24.75,24.889999389648438,21.519771575927734,10300
2018-08-28,24.889999389648438,24.899999618530273,24.850000381469727,24.889999389648438,21.519771575927734,14300
2018-08-29,24.899999618530273,24.950000762939453,24.898000717163086,24.950000762939453,21.57164764404297,10600
2018-08-30,24.950000762939453,24.950000762939453,24.68000030517578,24.68000030517578,21.33820915222168,16300
2018-08-31,24.690000534057617,24.850000381469727,24.690000534057617,24.850000381469727,21.485191345214844,12400
2018-09-04,24.746999740600586,24.850000381469727,24.670000076293945,24.84000015258789,21.476543426513672,6000
2018-09-05,24.649999618530273,24.850000381469727,24.649999618530273,24.850000381469727,21.485191345214844,24400
2018-09-06,24.899999618530273,24.899999618530273,24.75,24.799999237060547,21.44196128845215,22700
2018-09-07,24.750999450683594,24.809999465942383,24.750999450683594,24.790000915527344,21.43331527709961,19300
2018-09-10,24.899999618530273,24.899999618530273,24.709999084472656,24.780000686645508,21.424665451049805,10300
2018-09-11,24.799999237060547,24.850000381469727,24.5,24.700000762939453,21.355501174926758,59200
2018-09-12,24.68000030517578,24.85700035095215,24.650999069213867,24.829999923706055,21.467899322509766,21100
2018-09-13,24.829999923706055,24.84000015258789,24.65999984741211,24.68000030517578,21.33820915222168,28500
2018-09-14,24.799999237060547,24.850000381469727,24.68000030517578,24.850000381469727,21.485191345214844,9300
2018-09-17,24.709999084472656,24.8799991607666,24.709999084472656,24.850000381469727,21.485191345214844,7800
2018-09-18,24.719999313354492,24.770000457763672,24.575000762939453,24.700000762939453,21.355501174926758,30900
2018-09-19,24.84000015258789,24.84000015258789,24.809999465942383,24.84000015258789,21.476543426513672,1600
2018-09-20,24.81599998474121,24.839000701904297,24.68000030517578,24.700000762939453,21.355501174926758,11500
2018-09-21,24.760000228881836,24.799999237060547,24.649999618530273,24.649999618530273,21.31226921081543,14000
2018-09-24,24.649999618530273,24.84000015258789,24.56999969482422,24.56999969482422,21.243101119995117,15500
2018-09-25,24.690000534057617,24.700000762939453,24.600000381469727,24.600000381469727,21.269041061401367,17700
2018-09-26,24.600000381469727,24.780000686645508,24.579999923706055,24.579999923706055,21.251747131347656,19200
2018-09-27,24.559999465942383,24.719999313354492,24.399999618530273,24.399999618530273,21.09612464904785,30600
2018-09-28,24.399999618530273,24.489999771118164,24.15999984741211,24.200000762939453,20.92320442199707,27900
2018-10-01,24.389999389648438,24.399999618530273,24.149999618530273,24.27899932861328,20.99150276184082,11400
2018-10-02,24.149999618530273,24.200000762939453,23.850000381469727,24.200000762939453,20.92320442199707,16100
2018-10-03,24.18000030517578,24.59000015258789,24.18000030517578,24.59000015258789,21.260395050048828,8200
2018-10-04,24.56999969482422,24.56999969482422,24.1299991607666,24.1299991607666,20.862680435180664,11900
2018-10-05,24.378000259399414,24.469999313354492,24.378000259399414,24.448999404907227,21.138486862182617,2800
2018-10-08,24.5,24.540000915527344,24.350000381469727,24.350000381469727,21.052892684936523,4700
2018-10-09,24.540000915527344,24.540000915527344,24.290000915527344,24.299999237060547,21.009660720825195,8700
2018-10-10,24.298999786376953,24.530000686645508,24.298999786376953,24.510000228881836,21.191225051879883,7800
2018-10-11,24.399999618530273,24.510000228881836,24.350000381469727,24.440000534057617,21.130704879760742,16300
2018-10-12,24.270000457763672,24.349000930786133,24.010000228881836,24.010000228881836,21.04132080078125,4300
2018-10-15,24.360000610351562,24.360000610351562,24.25,24.25,21.25164222717285,1000
2018-10-16,24.25,24.489999771118164,24.25,24.399999618530273,21.383098602294922,6900
2018-10-17,24.3799991607666,24.5,24.06999969482422,24.06999969482422,21.093900680541992,1500
2018-10-18,24.079999923706055,24.399999618530273,24.079999923706055,24.242000579833984,21.244632720947266,1200
2018-10-19,24.350000381469727,24.459999084472656,24.259000778198242,24.440000534057617,21.41815185546875,17600
2018-10-22,24.5,24.5,24.219999313354492,24.469999313354492,21.444442749023438,14100
2018-10-23,24.350000381469727,24.399999618530273,24.29199981689453,24.399999618530273,21.383098602294922,1000
2018-10-24,24.420000076293945,24.43000030517578,24.40999984741211,24.429000854492188,21.408512115478516,1400
2018-10-25,24.43400001525879,24.450000762939453,24.209999084472656,24.246999740600586,21.24901008605957,7300
2018-10-26,24.200000762939453,24.440000534057617,24.200000762939453,24.440000534057617,21.41815185546875,3200
2018-10-29,24.5,24.5,24.410999298095703,24.410999298095703,21.39273452758789,1300
2018-10-30,24.56999969482422,24.56999969482422,24.450000762939453,24.479999542236328,21.453201293945312,5100
2018-10-31,24.339000701904297,24.56999969482422,24.339000701904297,24.549999237060547,21.51454734802246,5600
2018-11-01,24.559999465942383,24.6200008392334,24.299999237060547,24.559999465942383,21.523313522338867,13200
2018-11-02,24.299999237060547,24.489999771118164,24.100000381469727,24.489999771118164,21.46196746826172,9300
2018-11-05,24.250999450683594,24.489999771118164,24.250999450683594,24.489999771118164,21.46196746826172,10500
2018-11-06,24.472999572753906,24.472999572753906,24.100000381469727,24.18000030517578,21.190298080444336,31800
2018-11-07,24.25,24.25,24.1299991607666,24.149999618530273,21.164005279541016,3200
2018-11-08,24.100000381469727,24.139999389648438,24.100000381469727,24.100000381469727,21.120189666748047,1100
2018-11-09,24.170000076293945,24.23200035095215,23.979999542236328,24.23200035095215,21.235868453979492,1300
2018-11-12,24.18000030517578,24.200000762939453,24.16200065612793,24.16200065612793,21.174524307250977,700
2018-11-13,24.010000228881836,24.209999084472656,24.010000228881836,24.104000091552734,21.123695373535156,3900
2018-11-14,24.139999389648438,24.139999389648438,23.93000030517578,23.93000030517578,20.971210479736328,4200
2018-11-15,23.93000030517578,23.93000030517578,23.649999618530273,23.68000030517578,20.752120971679688,7200
2018-11-16,23.700000762939453,23.850000381469727,23.55500030517578,23.690000534057617,20.76088523864746,11700
2018-11-19,23.75,23.76300048828125,23.520000457763672,23.700000762939453,20.7696475982666,4400
2018-11-20,23.700000762939453,23.829999923706055,23.299999237060547,23.299999237060547,20.419105529785156,10400
2018-11-21,23.399999618530273,23.399999618530273,23.270000457763672,23.288000106811523,20.40859031677246,7800
2018-11-23,23.200000762939453,23.200000762939453,23.0,23.18899917602539,20.321826934814453,3900
2018-11-26,23.200000762939453,23.399999618530273,22.860000610351562,23.309999465942383,20.427867889404297,11900
2018-11-27,23.350000381469727,23.399999618530273,23.25,23.25,20.375286102294922,18200
2018-11-28,23.350000381469727,23.579999923706055,22.920000076293945,23.200000762939453,20.33146858215332,29300
2018-11-29,23.28499984741211,23.700000762939453,23.28499984741211,23.600000381469727,20.68201446533203,12000
2018-11-30,23.513999938964844,23.677000045776367,23.513999938964844,23.677000045776367,20.749488830566406,3700
2018-12-03,23.700000762939453,23.700000762939453,23.450000762939453,23.549999237060547,20.63819122314453,4700
2018-12-04,23.549999237060547,23.698999404907227,23.31999969482422,23.698999404907227,20.768770217895508,6100
2018-12-06,23.850000381469727,23.850000381469727,23.533000946044922,23.780000686645508,20.839754104614258,5500
2018-12-07,23.75,24.139999389648438,23.520999908447266,23.520999908447266,20.612781524658203,2100
2018-12-10,23.469999313354492,23.469999313354492,23.229999542236328,23.299999237060547,20.419105529785156,18600
2018-12-11,23.299999237060547,23.850000381469727,23.299999237060547,23.399999618530273,20.50674057006836,12300
2018-12-12,23.770000457763672,24.02899932861328,23.75,23.989999771118164,21.023788452148438,17100
2018-12-13,24.170000076293945,24.18000030517578,23.530000686645508,23.600000381469727,20.68201446533203,7800
2018-12-14,23.600000381469727,24.124000549316406,23.600000381469727,24.0,21.03255271911621,2300
2018-12-17,24.0,24.0,23.75,23.899999618530273,20.944917678833008,8700
2018-12-18,23.600000381469727,23.899999618530273,23.489999771118164,23.889999389648438,20.936155319213867,18700
2018-12-19,23.899999618530273,23.899999618530273,23.790000915527344,23.857999801635742,20.908109664916992,4400
2018-12-20,23.889999389648438,24.0,22.059999465942383,23.0,20.156198501586914,36600
2018-12-21,22.770000457763672,23.389999389648438,20.850000381469727,23.389999389648438,20.497974395751953,41200
2018-12-24,23.600000381469727,23.600000381469727,23.600000381469727,23.600000381469727,20.68201446533203,300
2018-12-26,23.489999771118164,24.149999618530273,23.459999084472656,24.149999618530273,21.164005279541016,18600
2018-12-27,24.049999237060547,24.049999237060547,23.600000381469727,23.990999221801758,21.024667739868164,9200
2018-12-28,24.093000411987305,24.093000411987305,23.969999313354492,24.0,21.03255271911621,1900
2018-12-31,24.097999572753906,24.097999572753906,24.003000259399414,24.049999237060547,21.076372146606445,3900
2019-01-02,24.100000381469727,24.139999389648438,23.899999618530273,23.899999618530273,20.944917678833008,2200
2019-01-03,23.920000076293945,24.139999389648438,23.90999984741211,23.940000534057617,20.9799747467041,4000
2019-01-04,24.149999618530273,24.149999618530273,24.110000610351562,24.110000610351562,21.12895393371582,3700
2019-01-07,24.299999237060547,24.299999237060547,24.08099937438965,24.299999237060547,21.295459747314453,2200
2019-01-08,24.350000381469727,24.350000381469727,24.180999755859375,24.350000381469727,21.339279174804688,11900
2019-01-09,24.350000381469727,24.350000381469727,24.209999084472656,24.23200035095215,21.235868453979492,1800
2019-01-10,24.239999771118164,24.389999389648438,24.239999771118164,24.349000930786133,21.33839988708496,10000
2019-01-11,24.326000213623047,24.34000015258789,24.100000381469727,24.183000564575195,21.19292640686035,9000
2019-01-14,24.100000381469727,24.350000381469727,23.996999740600586,24.0,21.321744918823242,5800
2019-01-15,24.34000015258789,24.34000015258789,23.92099952697754,24.049999237060547,21.366167068481445,4700
2019-01-16,23.799999237060547,24.25,23.799999237060547,23.860000610351562,21.197370529174805,7600
2019-01-17,24.25,24.25,23.850000381469727,23.898000717163086,21.231128692626953,4100
2019-01-18,24.200000762939453,24.25,24.03499984741211,24.03499984741211,21.352842330932617,1700
2019-01-22,24.200000762939453,24.200000762939453,24.020000457763672,24.020000457763672,21.339513778686523,4200
2019-01-23,24.139999389648438,24.149999618530273,23.850000381469727,24.149999618530273,21.455005645751953,2900
2019-01-24,24.149999618530273,24.239999771118164,23.908000946044922,24.155000686645508,21.459449768066406,6800
2019-01-25,24.132999420166016,24.350000381469727,24.132999420166016,24.350000381469727,21.632688522338867,3700
2019-01-28,24.5,24.5,23.899999618530273,24.097999572753906,21.4088077545166,6900
2019-01-29,24.1200008392334,24.450000762939453,24.100000381469727,24.398000717163086,21.67533302307129,9300
2019-01-30,24.239999771118164,24.450000762939453,24.084999084472656,24.450000762939453,21.72153091430664,11600
2019-01-31,24.450000762939453,24.600000381469727,24.149999618530273,24.350000381469727,21.632688522338867,10600
2019-02-01,24.5,24.527999877929688,24.200000762939453,24.200000762939453,21.499425888061523,7800
2019-02-04,24.5,24.5,24.149999618530273,24.149999618530273,21.455005645751953,9100
2019-02-05,24.399999618530273,24.399999618530273,24.100000381469727,24.200000762939453,21.499425888061523,9500
2019-02-06,24.299999237060547,24.600000381469727,24.200000762939453,24.5,21.765949249267578,9600
2019-02-07,24.600000381469727,24.600000381469727,23.899999618530273,24.079999923706055,21.392818450927734,20100
2019-02-08,24.100000381469727,24.100000381469727,23.93000030517578,23.93000030517578,21.259559631347656,5000
2019-02-11,24.290000915527344,24.290000915527344,24.06999969482422,24.06999969482422,21.383935928344727,3000
2019-02-12,24.270000457763672,24.40999984741211,23.860000610351562,24.40999984741211,21.685993194580078,8600
2019-02-13,24.280000686645508,24.549999237060547,24.280000686645508,24.5,21.765949249267578,4700
2019-02-14,24.600000381469727,24.75,24.399999618530273,24.450000762939453,21.72153091430664,11500
2019-02-15,24.399999618530273,24.700000762939453,24.399999618530273,24.690000534057617,21.93474578857422,7400
2019-02-19,24.700000762939453,24.700000762939453,24.600000381469727,24.600000381469727,21.85479164123535,4200
2019-02-20,24.549999237060547,24.75,24.5,24.5,21.765949249267578,10100
2019-02-21,24.399999618530273,24.700000762939453,24.399999618530273,24.600000381469727,21.85479164123535,5200
2019-02-22,24.43000030517578,24.729999542236328,24.43000030517578,24.649999618530273,21.899208068847656,10000
2019-02-25,24.739999771118164,24.899999618530273,24.650999069213867,24.700000762939453,21.943634033203125,10200
2019-02-26,24.899999618530273,24.969999313354492,24.399999618530273,24.489999771118164,21.757062911987305,13400
2019-02-27,24.56999969482422,24.753000259399414,24.43899917602539,24.600000381469727,21.85479164123535,10100
2019-02-28,24.600000381469727,24.700000762939453,24.548999786376953,24.700000762939453,21.943634033203125,3300
2019-03-01,24.700000762939453,24.950000762939453,24.700000762939453,24.899999618530273,22.121309280395508,1200
2019-03-04,24.850000381469727,24.850000381469727,24.489999771118164,24.549999237060547,21.810367584228516,12000
2019-03-05,24.75,24.899999618530273,24.68000030517578,24.700000762939453,21.943634033203125,4000
2019-03-06,24.72800064086914,24.899999618530273,24.700000762939453,24.899999618530273,22.121309280395508,2200
2019-03-07,24.75,24.899999618530273,24.5,24.5,21.765949249267578,14900
2019-03-08,24.600000381469727,24.75,24.451000213623047,24.75,21.988052368164062,3700
2019-03-11,24.780000686645508,24.780000686645508,24.700000762939453,24.760000228881836,21.996932983398438,5900
2019-03-12,24.520000457763672,24.774999618530273,24.450000762939453,24.5,21.765949249267578,30800
2019-03-13,24.5,24.5,24.350000381469727,24.450000762939453,21.72153091430664,29200
2019-03-14,24.5,24.760000228881836,24.3700008392334,24.3700008392334,21.65045928955078,11600
2019-03-15,24.48200035095215,24.649999618530273,24.479999542236328,24.489999771118164,21.757062911987305,1600
2019-03-18,24.600000381469727,24.729999542236328,24.600000381469727,24.729999542236328,21.97028350830078,4700
2019-03-19,24.68000030517578,24.68000030517578,24.3700008392334,24.459999084472656,21.73041343688965,10700
2019-03-20,24.469999313354492,24.610000610351562,24.469999313354492,24.610000610351562,21.86367416381836,8700
2019-03-21,24.700000762939453,24.700000762939453,24.5,24.5,21.765949249267578,7300
2019-03-22,24.520000457763672,24.559999465942383,24.520000457763672,24.559999465942383,21.81925392150879,7900
2019-03-25,24.549999237060547,24.579999923706055,24.450000762939453,24.450000762939453,21.72153091430664,7400
2019-03-26,24.540000915527344,24.600000381469727,24.459999084472656,24.600000381469727,21.85479164123535,5200
2019-03-27,24.600000381469727,24.690000534057617,24.549999237060547,24.690000534057617,21.93474578857422,16700
2019-03-28,24.649999618530273,24.649999618530273,24.507999420166016,24.586000442504883,21.84235382080078,15400
2019-03-29,24.649999618530273,24.899999618530273,24.600000381469727,24.87700080871582,22.10087776184082,9800
2019-04-01,24.899999618530273,24.93000030517578,24.683000564575195,24.702999114990234,21.946292877197266,3500
2019-04-02,24.600000381469727,24.75,24.56999969482422,24.700000762939453,21.943634033203125,16200
2019-04-03,24.610000610351562,24.920000076293945,24.600000381469727,24.75,21.988052368164062,5300
2019-04-04,24.65999984741211,24.749000549316406,24.649999618530273,24.65999984741211,21.90809440612793,1200
2019-04-05,24.899999618530273,24.920000076293945,24.809999465942383,24.89900016784668,22.120424270629883,4100
2019-04-08,24.68000030517578,24.899999618530273,24.68000030517578,24.8799991607666,22.10354232788086,6800
2019-04-09,24.950000762939453,24.950000762939453,24.899999618530273,24.950000762939453,22.16573143005371,4100
2019-04-10,24.729999542236328,25.1200008392334,24.729999542236328,24.989999771118164,22.201271057128906,9000
2019-04-11,25.079999923706055,25.100000381469727,25.0049991607666,25.0049991607666,22.214597702026367,5400
2019-04-12,24.8799991607666,25.1200008392334,24.809999465942383,25.059999465942383,22.55937385559082,9600
2019-04-15,24.950000762939453,24.950000762939453,24.950000762939453,24.950000762939453,22.46035385131836,100
2019-04-16,24.899999618530273,25.100000381469727,24.600000381469727,24.700000762939453,22.235301971435547,25500
2019-04-17,24.56999969482422,24.75,24.299999237060547,24.600000381469727,22.145278930664062,15800
2019-04-18,24.60099983215332,24.719999313354492,24.58799934387207,24.719999313354492,22.2533016204834,8200
2019-04-22,24.690000534057617,24.815000534057617,24.549999237060547,24.729999542236328,22.262306213378906,12100
2019-04-23,24.850000381469727,24.93000030517578,24.805999755859375,24.93000030517578,22.442350387573242,3600
2019-04-24,24.790000915527344,24.952999114990234,24.68000030517578,24.8700008392334,22.388336181640625,18100
2019-04-25,24.8700008392334,24.8700008392334,24.8700008392334,24.8700008392334,22.388336181640625,0
2019-04-26,24.969999313354492,24.969999313354492,24.704999923706055,24.844999313354492,22.365827560424805,12800
2019-04-29,24.780000686645508,24.850000381469727,24.780000686645508,24.850000381469727,22.370332717895508,1700
2019-04-30,25.010000228881836,25.010000228881836,24.82200050354004,24.972999572753906,22.48105812072754,11700
2019-05-01,24.979999542236328,25.030000686645508,24.850000381469727,24.950000762939453,22.46035385131836,8600
2019-05-02,24.850000381469727,25.100000381469727,24.850000381469727,25.079999923706055,22.57737922668457,2400
2019-05-03,25.100000381469727,25.100000381469727,24.945999145507812,25.0,22.505361557006836,2500
2019-05-06,24.950000762939453,25.0,24.920000076293945,24.920000076293945,22.433345794677734,4700
2019-05-07,24.899999618530273,25.1200008392334,24.850000381469727,24.950000762939453,22.46035385131836,12900
2019-05-08,24.959999084472656,25.0,24.860000610351562,25.0,22.505361557006836,4700
2019-05-09,24.90999984741211,25.0,24.799999237060547,24.799999237060547,22.325321197509766,8400
2019-05-10,24.8799991607666,24.940000534057617,24.8799991607666,24.92799949645996,22.4405460357666,3200
2019-05-13,24.8799991607666,24.969999313354492,24.8799991607666,24.950000762939453,22.46035385131836,3500
2019-05-14,25.04199981689453,25.200000762939453,25.04199981689453,25.100000381469727,22.595386505126953,4100
2019-05-15,25.200000762939453,25.200000762939453,24.950000762939453,25.030000686645508,22.532373428344727,7700
2019-05-16,24.950000762939453,25.030000686645508,24.899999618530273,24.94300079345703,22.454051971435547,5500
2019-05-17,25.030000686645508,25.65999984741211,25.0,25.13800048828125,22.629592895507812,4300
2019-05-20,25.139999389648438,25.190000534057617,24.8799991607666,24.96500015258789,22.473857879638672,6600
2019-05-21,24.989999771118164,25.040000915527344,24.969999313354492,25.0,22.505361557006836,3600
2019-05-22,25.040000915527344,25.049999237060547,24.899999618530273,25.049999237060547,22.550373077392578,3300
2019-05-23,25.040000915527344,25.08099937438965,25.040000915527344,25.08099937438965,22.57828140258789,500
2019-05-24,25.149999618530273,25.149999618530273,24.950000762939453,25.0,22.505361557006836,2800
2019-05-28,25.059999465942383,25.25,24.850000381469727,24.969999313354492,22.478357315063477,7100
2019-05-29,24.8700008392334,25.170000076293945,24.8700008392334,25.0,22.505361557006836,1600
2019-05-30,25.049999237060547,25.149999618530273,25.0,25.149999618530273,22.640396118164062,3500
2019-05-31,24.93000030517578,25.049999237060547,24.700000762939453,24.850000381469727,22.370332717895508,15300
2019-06-03,24.82699966430664,24.850000381469727,24.34000015258789,24.649999618530273,22.190288543701172,34100
2019-06-04,24.631000518798828,24.850000381469727,24.600000381469727,24.799999237060547,22.325321197509766,2900
2019-06-05,24.700000762939453,24.850000381469727,24.700000762939453,24.75,22.280311584472656,4300
2019-06-06,24.899999618530273,24.899999618530273,24.799999237060547,24.799999237060547,22.325321197509766,4500
2019-06-07,24.899999618530273,24.899999618530273,24.850000381469727,24.850000381469727,22.370332717895508,900
2019-06-10,24.899999618530273,25.0,24.6200008392334,24.90999984741211,22.424346923828125,4600
2019-06-11,24.899999618530273,25.0,24.899999618530273,24.969999313354492,22.478357315063477,7500
2019-06-12,25.0,25.0,24.850000381469727,24.9950008392334,22.50086212158203,6500
2019-06-13,25.0,25.290000915527344,25.0,25.040000915527344,22.541372299194336,3700
2019-06-14,25.100000381469727,25.100000381469727,24.8799991607666,25.0,22.505361557006836,4900
2019-06-17,25.0,25.0,24.979999542236328,25.0,22.505361557006836,4400
2019-06-18,25.049999237060547,25.09000015258789,24.90999984741211,24.975000381469727,22.482858657836914,14000
2019-06-19,25.0,25.0,24.899999618530273,24.950000762939453,22.46035385131836,9400
2019-06-20,25.010000228881836,25.010000228881836,24.899999618530273,25.0,22.505361557006836,16200
2019-06-21,24.799999237060547,25.0,24.799999237060547,24.969999313354492,22.478357315063477,5300
2019-06-24,24.93000030517578,25.0,24.93000030517578,24.979999542236328,22.48735809326172,6500
2019-06-25,25.040000915527344,25.040000915527344,24.75,24.989999771118164,22.49636459350586,8100
2019-06-26,24.989999771118164,25.25,24.700000762939453,24.950000762939453,22.46035385131836,30900
2019-06-27,24.8700008392334,25.003000259399414,24.690000534057617,24.920000076293945,22.433345794677734,17700
2019-06-28,24.950000762939453,25.1200008392334,24.809999465942383,25.0,22.505361557006836,6000
2019-07-01,25.010000228881836,25.020000457763672,24.989999771118164,24.989999771118164,22.49636459350586,6500
2019-07-02,25.0,25.0,24.9689998626709,25.0,22.505361557006836,5100
2019-07-03,25.0,25.0,25.0,25.0,22.505361557006836,0
2019-07-05,25.0,25.010000228881836,25.0,25.010000228881836,22.51436424255371,1600
2019-07-08,25.0,25.25,24.993999481201172,25.049999237060547,22.550373077392578,6000
2019-07-09,25.0,25.450000762939453,25.0,25.200000762939453,22.685407638549805,3900
2019-07-10,25.399999618530273,25.399999618530273,25.149999618530273,25.260000228881836,22.73941993713379,5600
2019-07-11,25.170000076293945,25.3700008392334,25.149999618530273,25.216999053955078,22.70071029663086,7900
2019-07-12,25.0,25.0,24.790000915527344,24.90999984741211,22.719865798950195,6800
2019-07-15,24.924999237060547,25.0,24.75,24.899999618530273,22.71074104309082,5800
2019-07-16,25.0,25.049999237060547,24.93000030517578,25.0,22.801952362060547,4300
2019-07-17,24.979999542236328,25.100000381469727,24.85300064086914,25.100000381469727,22.893159866333008,5600
2019-07-18,25.100000381469727,25.469999313354492,25.100000381469727,25.25,23.02996826171875,9900
2019-07-19,25.013999938964844,25.149999618530273,25.013999938964844,25.12299919128418,22.91413688659668,1200
2019-07-22,25.030000686645508,25.1200008392334,25.030000686645508,25.09000015258789,22.884037017822266,1100
2019-07-23,25.09000015258789,25.09000015258789,25.09000015258789,25.09000015258789,22.884037017822266,400
2019-07-24,25.100000381469727,25.1200008392334,25.076000213623047,25.100000381469727,22.893159866333008,2400
2019-07-25,25.100000381469727,25.100000381469727,24.961999893188477,24.961999893188477,22.767292022705078,5100
2019-07-26,24.954999923706055,25.049999237060547,24.951000213623047,25.0,22.801952362060547,2500
2019-07-29,25.018999099731445,25.049999237060547,25.018999099731445,25.049999237060547,22.84755516052246,5500
2019-07-30,25.049999237060547,25.229999542236328,25.049999237060547,25.149999618530273,22.93876075744629,8800
2019-07-31,25.350000381469727,25.5,25.121999740600586,25.5,23.25798988342285,1300
2019-08-01,25.5,25.549999237060547,25.18000030517578,25.3799991607666,23.148540496826172,2600
2019-08-02,25.059999465942383,25.600000381469727,25.059999465942383,25.549999237060547,23.303592681884766,1200
2019-08-05,25.549999237060547,25.549999237060547,25.510000228881836,25.510000228881836,23.26711082458496,1100
2019-08-06,25.479999542236328,25.479999542236328,25.3799991607666,25.450000762939453,23.212387084960938,500
2019-08-07,25.479999542236328,25.479999542236328,25.275999069213867,25.275999069213867,23.05368423461914,500
2019-08-08,25.479999542236328,25.520000457763672,25.31999969482422,25.520000457763672,23.27623176574707,3900
2019-08-09,25.030000686645508,25.299999237060547,25.010000228881836,25.299999237060547,23.075572967529297,7600
2019-08-12,25.350000381469727,25.3700008392334,25.350000381469727,25.350000381469727,23.12117576599121,1400
2019-08-13,25.5,25.600000381469727,25.350000381469727,25.600000381469727,23.349197387695312,800
2019-08-14,25.90999984741211,25.90999984741211,25.48699951171875,25.48699951171875,23.246129989624023,500
2019-08-15,25.413999557495117,25.549999237060547,25.399999618530273,25.549999237060547,23.303592681884766,1400
2019-08-16,25.399999618530273,25.399999618530273,25.3700008392334,25.3700008392334,23.139421463012695,1800
2019-08-19,25.579999923706055,25.579999923706055,25.56999969482422,25.56999969482422,23.321834564208984,800
2019-08-20,25.343000411987305,25.3799991607666,25.343000411987305,25.3799991607666,23.148540496826172,1500
2019-08-21,25.360000610351562,25.360000610351562,25.149999618530273,25.270000457763672,23.048213958740234,2200
2019-08-22,25.43000030517578,25.489999771118164,25.43000030517578,25.43899917602539,23.202354431152344,1200
2019-08-23,25.299999237060547,25.5,25.20199966430664,25.20199966430664,22.986190795898438,500
2019-08-26,25.209999084472656,25.40999984741211,25.149999618530273,25.350000381469727,23.12117576599121,8700
2019-08-27,25.402000427246094,26.43000030517578,25.38800048828125,25.8799991607666,23.604581832885742,6800
2019-08-28,25.8799991607666,25.8799991607666,25.8799991607666,25.8799991607666,23.604581832885742,0
2019-08-29,25.799999237060547,26.010000228881836,25.799999237060547,26.010000228881836,23.7231502532959,2500
2019-08-30,25.8799991607666,25.920000076293945,25.829999923706055,25.920000076293945,23.641061782836914,3600
2019-09-03,25.920000076293945,25.920000076293945,25.920000076293945,25.920000076293945,23.641061782836914,200
2019-09-04,25.799999237060547,26.0,25.520000457763672,25.520000457763672,23.27623176574707,7000
2019-09-05,25.540000915527344,25.979999542236328,25.5,25.639999389648438,23.385679244995117,4500
2019-09-06,25.631999969482422,25.695999145507812,25.631999969482422,25.639999389648438,23.385679244995117,3100
2019-09-09,25.579999923706055,25.93199920654297,25.350000381469727,25.350000381469727,23.12117576599121,10100
2019-09-10,25.437000274658203,25.600000381469727,25.350000381469727,25.420000076293945,23.18502426147461,5300
2019-09-11,25.760000228881836,25.760000228881836,25.149999618530273,25.48699951171875,23.246129989624023,14300
2019-09-12,25.440000534057617,25.5,25.260000228881836,25.389999389648438,23.15765953063965,6500
2019-09-13,25.309999465942383,25.320999145507812,25.309999465942383,25.31999969482422,23.093814849853516,1100
2019-09-16,25.31999969482422,25.31999969482422,25.31999969482422,25.31999969482422,23.093814849853516,0
2019-09-17,25.527000427246094,25.549999237060547,25.527000427246094,25.549999237060547,23.303592681884766,600
2019-09-18,25.600000381469727,25.649999618530273,25.350000381469727,25.649999618530273,23.394800186157227,3200
2019-09-19,25.530000686645508,25.530000686645508,25.367000579833984,25.5,23.25798988342285,5800
2019-09-20,25.3700008392334,25.860000610351562,25.200000762939453,25.349000930786133,23.120267868041992,13800
2019-09-23,25.239999771118164,25.3799991607666,25.239999771118164,25.3799991607666,23.148540496826172,4900
2019-09-24,25.309999465942383,25.309999465942383,25.020000457763672,25.049999237060547,22.84755516052246,19000
2019-09-25,25.190000534057617,25.3799991607666,25.049999237060547,25.049999237060547,22.84755516052246,18800
2019-09-26,25.149999618530273,25.290000915527344,25.106000900268555,25.163000106811523,22.950618743896484,14900
2019-09-27,25.209999084472656,25.298999786376953,25.200000762939453,25.200000762939453,22.9843692779541,2600
2019-09-30,25.280000686645508,25.299999237060547,25.200000762939453,25.229999542236328,23.011730194091797,3200
2019-10-01,25.231000900268555,25.770000457763672,25.229999542236328,25.479999542236328,23.239749908447266,1800
2019-10-02,25.239999771118164,25.312000274658203,25.200000762939453,25.312000274658203,23.086519241333008,2400
2019-10-03,25.32699966430664,25.32699966430664,25.214000701904297,25.214000701904297,22.99713706970215,500
2019-10-04,25.261999130249023,25.399999618530273,25.209999084472656,25.3799991607666,23.148540496826172,1400
2019-10-07,25.260000228881836,25.5,25.260000228881836,25.5,23.25798988342285,8100
2019-10-08,25.5,25.6200008392334,25.5,25.6200008392334,23.367441177368164,400
2019-10-09,25.6200008392334,25.6200008392334,25.44099998474121,25.530000686645508,23.28535270690918,500
2019-10-10,25.702999114990234,25.790000915527344,25.700000762939453,25.700000762939453,23.440404891967773,1400
2019-10-11,25.780000686645508,25.780000686645508,25.219999313354492,25.239999771118164,23.31845474243164,3200
2019-10-14,25.10300064086914,25.18899917602539,25.10300064086914,25.18899917602539,23.271337509155273,1100
2019-10-15,25.483999252319336,25.729000091552734,25.389999389648438,25.729000091552734,23.770227432250977,2200
2019-10-16,25.399999618530273,26.0,25.399999618530273,25.885000228881836,23.914350509643555,9900
2019-10-17,25.75,26.0,25.75,25.75,23.78962516784668,7200
2019-10-18,25.75,25.860000610351562,25.68199920654297,25.68199920654297,23.726804733276367,11000
2019-10-21,25.927000045776367,25.927000045776367,25.450000762939453,25.5,23.55866050720215,2400
2019-10-22,25.450000762939453,25.631000518798828,25.350000381469727,25.399999618530273,23.46627426147461,16500
2019-10-23,25.360000610351562,25.40999984741211,25.28499984741211,25.389999389648438,23.457035064697266,2400
2019-10-24,25.33799934387207,25.3799991607666,25.33799934387207,25.3799991607666,23.447797775268555,1200
2019-10-25,25.339000701904297,25.3799991607666,25.25,25.3700008392334,23.438560485839844,2800
2019-10-28,25.350000381469727,25.399999618530273,25.31999969482422,25.399999618530273,23.46627426147461,4000
2019-10-29,25.399999618530273,25.399999618530273,25.309999465942383,25.399999618530273,23.46627426147461,8000
2019-10-30,25.399999618530273,25.399999618530273,25.3700008392334,25.399999618530273,23.46627426147461,20900
2019-10-31,25.489999771118164,25.489999771118164,25.299999237060547,25.40999984741211,23.47551155090332,8300
2019-11-01,25.43000030517578,25.43000030517578,25.365999221801758,25.43000030517578,23.49399185180664,3800
2019-11-04,25.450000762939453,25.469999313354492,25.424999237060547,25.42799949645996,23.492141723632812,26200
2019-11-05,25.56999969482422,25.56999969482422,25.454999923706055,25.459999084472656,23.521705627441406,1800
2019-11-06,25.5,25.530000686645508,25.5,25.511999130249023,23.569747924804688,7400
2019-11-07,25.488000869750977,25.5,25.450000762939453,25.5,23.55866050720215,800
2019-11-08,25.5,25.5,25.450000762939453,25.489999771118164,23.549421310424805,1900
2019-11-11,25.45599937438965,25.45599937438965,25.45599937438965,25.45599937438965,23.518009185791016,300
2019-11-12,25.437000274658203,25.437000274658203,25.399999618530273,25.399999618530273,23.46627426147461,900
2019-11-13,25.26300048828125,25.530000686645508,25.26300048828125,25.479000091552734,23.53925895690918,9500
2019-11-14,25.538999557495117,25.538999557495117,25.399999618530273,25.5,23.55866050720215,1600
2019-11-15,25.600000381469727,25.600000381469727,25.283000946044922,25.485000610351562,23.544803619384766,2100
2019-11-18,25.329999923706055,25.549999237060547,25.329999923706055,25.549999237060547,23.604854583740234,5300
2019-11-19,25.780000686645508,25.81999969482422,25.558000564575195,25.81999969482422,23.854299545288086,2200
2019-11-20,25.649999618530273,25.684999465942383,25.649999618530273,25.684999465942383,23.729578018188477,700
2019-11-21,25.739999771118164,25.739999771118164,25.600000381469727,25.71500015258789,23.757295608520508,3300
2019-11-22,25.600000381469727,25.639999389648438,25.530000686645508,25.569000244140625,23.622407913208008,1800
2019-11-25,25.549999237060547,25.549999237060547,25.426000595092773,25.426000595092773,23.490293502807617,400
2019-11-26,25.280000686645508,25.457000732421875,25.0,25.200000762939453,23.281503677368164,14700
2019-11-27,25.170000076293945,25.540000915527344,25.170000076293945,25.25,23.32769203186035,32000
2019-11-29,25.540000915527344,25.549999237060547,25.444000244140625,25.444000244140625,23.506925582885742,1500
2019-12-02,25.351999282836914,25.422000885009766,25.351999282836914,25.416000366210938,23.48105812072754,900
2019-12-03,25.540000915527344,25.549999237060547,25.270000457763672,25.31999969482422,23.392362594604492,4900
2019-12-04,25.25,25.549999237060547,25.25,25.32200050354004,23.39421272277832,8900
2019-12-05,25.299999237060547,25.48900032043457,25.29800033569336,25.48900032043457,23.548500061035156,5000
2019-12-06,25.39900016784668,25.427000045776367,25.39900016784668,25.427000045776367,23.491220474243164,1000
2019-12-09,25.549999237060547,25.549999237060547,25.549999237060547,25.549999237060547,23.604854583740234,1500
2019-12-10,25.531999588012695,25.600000381469727,25.531999588012695,25.600000381469727,23.65104866027832,400
2019-12-11,25.65999984741211,25.700000762939453,25.360000610351562,25.700000762939453,23.74343490600586,3300
2019-12-12,25.600000381469727,26.290000915527344,25.40999984741211,25.40999984741211,23.47551155090332,4600
2019-12-13,25.40999984741211,25.979999542236328,25.399999618530273,25.979999542236328,24.002119064331055,2800
2019-12-16,25.670000076293945,25.940000534057617,25.459999084472656,25.940000534057617,23.965164184570312,5300
2019-12-17,25.469999313354492,25.93000030517578,25.469999313354492,25.670000076293945,23.71571922302246,1200
2019-12-18,25.6299991607666,25.691999435424805,25.610000610351562,25.610000610351562,23.66028594970703,2300
2019-12-19,25.520000457763672,25.600000381469727,25.450000762939453,25.5939998626709,23.645503997802734,4300
2019-12-20,25.64900016784668,25.80500030517578,25.64900016784668,25.700000762939453,23.74343490600586,5100
2019-12-23,25.530000686645508,25.809999465942383,25.530000686645508,25.767000198364258,23.805335998535156,4100
2019-12-24,25.549999237060547,25.93000030517578,25.549999237060547,25.93000030517578,23.95592498779297,1000
2019-12-26,25.78499984741211,25.93000030517578,25.78499984741211,25.93000030517578,23.95592498779297,3200
2019-12-27,25.90999984741211,25.920000076293945,25.83300018310547,25.84000015258789,23.872777938842773,2000
2019-12-30,25.920000076293945,25.920000076293945,25.850000381469727,25.850000381469727,23.88201332092285,40400
2019-12-31,25.850000381469727,25.850000381469727,25.80699920654297,25.80699920654297,23.842287063598633,1000
2020-01-02,25.70199966430664,25.70199966430664,25.70199966430664,25.70199966430664,23.745283126831055,300
2020-01-03,25.76099967956543,25.899999618530273,25.65999984741211,25.719999313354492,23.761911392211914,6700
2020-01-06,25.719999313354492,25.8799991607666,25.709999084472656,25.82900047302246,23.86261558532715,1300
2020-01-07,25.8799991607666,26.038000106811523,25.8799991607666,26.038000106811523,24.055702209472656,1000
2020-01-08,25.920000076293945,26.100000381469727,25.90999984741211,25.979999542236328,24.002119064331055,3400
2020-01-09,25.899999618530273,26.18000030517578,25.899999618530273,26.06999969482422,24.08526611328125,3200
2020-01-10,26.079999923706055,26.100000381469727,25.954999923706055,25.96299934387207,23.98641014099121,2900
2020-01-13,25.959999084472656,26.135000228881836,25.920000076293945,26.135000228881836,24.14531898498535,4100
2020-01-14,25.8799991607666,25.979999542236328,25.610000610351562,25.979999542236328,24.307178497314453,4400
2020-01-15,25.6200008392334,25.950000762939453,25.6200008392334,25.81999969482422,24.157480239868164,1400
2020-01-16,25.847000122070312,25.920000076293945,25.6200008392334,25.75,24.09198760986328,4600
2020-01-17,25.799999237060547,25.799999237060547,25.700000762939453,25.71500015258789,24.05924415588379,5800
2020-01-21,25.690000534057617,25.700000762939453,25.649999618530273,25.674999237060547,24.02181625366211,1300
2020-01-22,25.649999618530273,25.649999618530273,25.62299919128418,25.649999618530273,23.99842643737793,4500
2020-01-23,25.649999618530273,25.829999923706055,25.559999465942383,25.680999755859375,24.02743148803711,5200
2020-01-24,25.714000701904297,25.714000701904297,25.600000381469727,25.6200008392334,23.970359802246094,2200
2020-01-27,25.639999389648438,25.780000686645508,25.639999389648438,25.780000686645508,24.12005615234375,1900
2020-01-28,25.989999771118164,26.010000228881836,25.809999465942383,26.0,24.325891494750977,5300
2020-01-29,25.989999771118164,25.989999771118164,25.65999984741211,25.809999465942383,24.14812469482422,10100
2020-01-30,25.65999984741211,25.719999313354492,25.649999618530273,25.649999618530273,23.99842643737793,3200
2020-01-31,25.700000762939453,25.85099983215332,25.700000762939453,25.709999084472656,24.054563522338867,6500
2020-02-03,25.867000579833984,25.889999389648438,25.709999084472656,25.889999389648438,24.222972869873047,1700
2020-02-04,26.100000381469727,26.200000762939453,25.760000228881836,25.979999542236328,24.307178497314453,10400
2020-02-05,25.950000762939453,25.950000762939453,25.770000457763672,25.820999145507812,24.158414840698242,1600
2020-02-06,25.950000762939453,25.950000762939453,25.860000610351562,25.950000762939453,24.279111862182617,3400
2020-02-07,25.780000686645508,25.8700008392334,25.770000457763672,25.8700008392334,24.20426368713379,1500
2020-02-10,25.899999618530273,26.079999923706055,25.89900016784668,25.899999618530273,24.232330322265625,36000
2020-02-11,25.850000381469727,26.25,25.829999923706055,26.25,24.55979347229004,3200
2020-02-12,25.950000762939453,26.170000076293945,25.950000762939453,25.989999771118164,24.31653594970703,11200
2020-02-13,25.93000030517578,26.1200008392334,25.899999618530273,26.100000381469727,24.419452667236328,4700
2020-02-14,25.81999969482422,26.08300018310547,25.81999969482422,26.0310001373291,24.354896545410156,1700
2020-02-18,25.81999969482422,26.020000457763672,25.81999969482422,25.979999542236328,24.307178497314453,2500
2020-02-19,26.07699966430664,26.138999938964844,25.979999542236328,25.990999221801758,24.317468643188477,1500
2020-02-20,25.91200065612793,26.06999969482422,25.799999237060547,26.040000915527344,24.36331558227539,4800
2020-02-21,25.93000030517578,26.079999923706055,25.799999237060547,26.06999969482422,24.391382217407227,8800
2020-02-24,26.06999969482422,26.06999969482422,25.790000915527344,25.979000091552734,24.306241989135742,6300
2020-02-25,25.75,26.25,25.75,26.239999771118164,24.550439834594727,16600
2020-02-26,26.239999771118164,26.239999771118164,25.75,26.049999237060547,24.372671127319336,4300
2020-02-27,26.0,26.010000228881836,25.649999618530273,25.829999923706055,24.166837692260742,6200
2020-02-28,25.649999618530273,25.829999923706055,25.31999969482422,25.399999618530273,23.764524459838867,9500
2020-03-02,25.309999465942383,25.844999313354492,25.309999465942383,25.844999313354492,24.180871963500977,1900
2020-03-03,25.56999969482422,25.90999984741211,25.56999969482422,25.90999984741211,24.24168586730957,1400
2020-03-04,25.89699935913086,27.360000610351562,25.625,27.200000762939453,25.448627471923828,42400
2020-03-05,26.709999084472656,26.875,26.440000534057617,26.450000762939453,24.746919631958008,39500
2020-03-06,26.149999618530273,26.780000686645508,26.100000381469727,26.31999969482422,24.625286102294922,26900
2020-03-09,26.0,26.035999298095703,25.440000534057617,25.549999237060547,23.904865264892578,15200
2020-03-10,25.65999984741211,26.149999618530273,25.299999237060547,26.149999618530273,24.466230392456055,6000
2020-03-11,26.200000762939453,26.200000762939453,25.549999237060547,26.149999618530273,24.466230392456055,8900
2020-03-12,26.149999618530273,26.149999618530273,24.75,25.149999618530273,23.530622482299805,30800
2020-03-13,25.0,25.31999969482422,23.799999237060547,25.0,23.390281677246094,11200
2020-03-16,24.0,24.0,22.59000015258789,22.829999923706055,21.360004425048828,7500
2020-03-17,22.600000381469727,24.700000762939453,22.600000381469727,23.059999465942383,21.5751953125,13100
2020-03-18,22.600000381469727,22.84000015258789,19.8799991607666,19.8799991607666,18.599950790405273,24300
2020-03-19,19.5,21.09000015258789,18.350000381469727,21.09000015258789,19.732040405273438,6600
2020-03-20,19.812999725341797,22.8799991607666,19.812999725341797,22.0,20.58344841003418,9100
2020-03-23,20.260000228881836,20.260000228881836,18.43000030517578,18.459999084472656,17.271381378173828,6700
2020-03-24,19.0,23.479999542236328,19.0,21.8700008392334,20.461816787719727,6000
2020-03-25,21.860000610351562,22.90999984741211,20.90999984741211,20.90999984741211,19.563631057739258,7000
2020-03-26,22.0,23.840999603271484,21.895000457763672,22.5,21.051252365112305,5700
2020-03-27,23.0,23.1299991607666,22.163000106811523,23.030000686645508,21.54712677001953,3100
2020-03-30,22.190000534057617,23.649999618530273,22.190000534057617,23.649999618530273,22.127206802368164,3000
2020-03-31,23.468000411987305,24.5,23.0,24.5,22.922473907470703,3000
2020-04-01,22.049999237060547,22.450000762939453,21.950000762939453,22.149999618530273,20.723787307739258,4900
2020-04-02,22.049999237060547,23.5,22.049999237060547,22.299999237060547,20.864126205444336,3000
2020-04-03,22.059999465942383,22.940000534057617,22.059999465942383,22.899999618530273,21.425495147705078,5700
2020-04-06,23.0,23.5,23.0,23.0,21.519058227539062,2600
2020-04-07,23.98699951171875,24.0,22.3700008392334,22.3700008392334,20.929622650146484,3800
2020-04-08,22.73200035095215,22.940000534057617,22.5,22.73900032043457,21.274864196777344,9400
2020-04-09,23.100000381469727,23.59000015258789,22.899999618530273,23.59000015258789,22.071067810058594,5900
2020-04-13,22.899999618530273,22.899999618530273,22.58799934387207,22.739999771118164,21.275798797607422,800
2020-04-14,22.690000534057617,24.0,22.690000534057617,23.0,21.8339900970459,4500
2020-04-15,23.100000381469727,23.75,23.100000381469727,23.75,22.54596710205078,2300
2020-04-16,23.100000381469727,23.34000015258789,23.100000381469727,23.301000595092773,22.119731903076172,3000
2020-04-17,23.0,23.34000015258789,22.950000762939453,23.299999237060547,22.1187801361084,7000
2020-04-20,23.34000015258789,23.34000015258789,22.780000686645508,22.799999237060547,21.644128799438477,3500
2020-04-21,22.399999618530273,23.34000015258789,22.399999618530273,22.781999588012695,21.627042770385742,2100
2020-04-22,22.59000015258789,23.200000762939453,22.5,22.75,21.596662521362305,11800
2020-04-23,22.41699981689453,23.020000457763672,22.41699981689453,23.020000457763672,21.852975845336914,2000
2020-04-24,22.66200065612793,22.889999389648438,22.66200065612793,22.8799991607666,21.72007179260254,800
2020-04-27,23.299999237060547,23.299999237060547,22.902999877929688,23.016000747680664,21.849180221557617,3000
2020-04-28,23.229999542236328,23.5,23.04199981689453,23.35300064086914,22.16909408569336,7800
2020-04-29,23.700000762939453,23.75,23.524999618530273,23.64699935913086,22.44818878173828,2500
2020-04-30,23.75,23.770000457763672,23.299999237060547,23.700000762939453,22.498502731323242,5400
2020-05-01,23.25,23.423999786376953,23.25,23.423999786376953,22.236494064331055,3600
2020-05-04,23.399999618530273,23.402000427246094,23.25,23.402000427246094,22.21561050415039,1900
2020-05-05,23.591999053955078,24.0,23.399999618530273,23.799999237060547,22.59343147277832,11900
2020-05-06,23.799999237060547,23.799999237060547,23.6560001373291,23.739999771118164,22.536474227905273,3300
2020-05-07,23.700000762939453,24.0,23.652999877929688,24.0,22.78329086303711,4100
2020-05-08,24.25,24.5,23.92300033569336,24.5,23.257946014404297,6500
2020-05-11,24.700000762939453,24.700000762939453,24.700000762939453,24.700000762939453,23.44780731201172,400
2020-05-12,23.850000381469727,24.5,23.684999465942383,24.399999618530273,23.163013458251953,3400
2020-05-13,24.010000228881836,24.559999465942383,23.399999618530273,24.322999954223633,23.089920043945312,6300
2020-05-14,23.760000228881836,23.760000228881836,23.594999313354492,23.594999313354492,22.39882469177246,1300
2020-05-15,23.899999618530273,23.940000534057617,23.200000762939453,23.200000762939453,22.02385139465332,3200
2020-05-18,23.540000915527344,24.0,23.149999618530273,24.0,22.78329086303711,5100
2020-05-19,24.17799949645996,24.549999237060547,23.5939998626709,23.5939998626709,22.39787483215332,3200
2020-05-20,23.979999542236328,24.5,23.739999771118164,24.5,23.257946014404297,1800
2020-05-21,24.5,24.5,24.290000915527344,24.5,23.257946014404297,2600
2020-05-22,24.450000762939453,25.0,24.450000762939453,24.850000381469727,23.59020233154297,8000
2020-05-26,24.802000045776367,24.850000381469727,24.292999267578125,24.292999267578125,23.061439514160156,1300
2020-05-27,24.790000915527344,24.899999618530273,24.790000915527344,24.799999237060547,23.542736053466797,1400
2020-05-28,24.799999237060547,24.90999984741211,24.799999237060547,24.849000930786133,23.589252471923828,3700
2020-05-29,24.799999237060547,25.059999465942383,24.780000686645508,25.0,23.73259735107422,10900
2020-06-01,24.8799991607666,25.8799991607666,24.8799991607666,25.299999237060547,24.01738739013672,3600
2020-06-02,25.260000228881836,25.349000930786133,25.0,25.0,23.73259735107422,2800
2020-06-03,24.93400001525879,24.989999771118164,24.520999908447266,24.989999771118164,23.723102569580078,5400
2020-06-04,24.899999618530273,24.899999618530273,24.652999877929688,24.8799991607666,23.618680953979492,3800
2020-06-05,25.09000015258789,25.149999618530273,24.6200008392334,25.149999618530273,23.874990463256836,4500
2020-06-08,25.190000534057617,25.25,25.0,25.0,23.73259735107422,3000
2020-06-09,24.770000457763672,24.799999237060547,24.770000457763672,24.799999237060547,23.542736053466797,500
2020-06-10,25.0,25.0,24.729999542236328,24.8799991607666,23.618680953979492,2600
2020-06-11,24.559999465942383,24.8700008392334,24.110000610351562,24.110000610351562,22.887718200683594,9400
2020-06-12,24.43000030517578,25.0,24.43000030517578,24.899999618530273,23.637666702270508,2600
2020-06-15,24.562000274658203,24.562000274658203,24.110000610351562,24.110000610351562,22.887718200683594,500
2020-06-16,24.739999771118164,25.25,24.309999465942383,25.25,23.96992301940918,2500
2020-06-17,25.0,25.190000534057617,25.0,25.0,23.73259735107422,2900
2020-06-18,24.959999084472656,25.25,24.959999084472656,25.0,23.73259735107422,3900
2020-06-19,24.520000457763672,24.989999771118164,24.520000457763672,24.740999221801758,23.486726760864258,6500
2020-06-22,24.969999313354492,24.989999771118164,24.399999618530273,24.950000762939453,23.68513298034668,5800
2020-06-23,24.43000030517578,25.0,24.43000030517578,24.666000366210938,23.415531158447266,3800
2020-06-24,24.520000457763672,24.989999771118164,24.260000228881836,24.701000213623047,23.448755264282227,4300
2020-06-25,24.850000381469727,24.850000381469727,24.850000381469727,24.850000381469727,23.59020233154297,600
2020-06-26,24.600000381469727,24.799999237060547,24.399999618530273,24.799999237060547,23.542736053466797,2400
2020-06-29,24.739999771118164,25.25,24.638999938964844,24.899999618530273,23.637666702270508,4500
2020-06-30,24.549999237060547,24.950000762939453,24.540000915527344,24.950000762939453,23.68513298034668,1500
2020-07-01,24.559999465942383,24.899999618530273,24.559999465942383,24.899999618530273,23.637666702270508,2300
2020-07-02,24.799999237060547,24.899999618530273,24.799999237060547,24.899999618530273,23.637666702270508,2400
2020-07-06,24.799999237060547,24.799999237060547,24.799999237060547,24.799999237060547,23.542736053466797,400
2020-07-07,24.760000228881836,24.899999618530273,24.75,24.899999618530273,23.637666702270508,3200
2020-07-08,24.75,24.75,24.260000228881836,24.399999618530273,23.163013458251953,3100
2020-07-09,24.81399917602539,24.81399917602539,24.5,24.600000381469727,23.352874755859375,1000
2020-07-10,24.850000381469727,24.899999618530273,24.299999237060547,24.899999618530273,23.637666702270508,4100
2020-07-13,24.610000610351562,24.899999618530273,24.600000381469727,24.8700008392334,23.609188079833984,2700
2020-07-14,24.270000457763672,24.700000762939453,24.270000457763672,24.43000030517578,23.50144386291504,700
2020-07-15,24.399999618530273,24.600000381469727,24.399999618530273,24.600000381469727,23.66498374938965,600
2020-07-16,24.559999465942383,24.600000381469727,24.5,24.600000381469727,23.66498374938965,600
2020-07-17,24.448999404907227,24.850000381469727,24.399999618530273,24.850000381469727,23.905481338500977,2500
2020-07-20,24.799999237060547,24.899999618530273,24.799999237060547,24.899999618530273,23.95357894897461,2300
2020-07-21,24.875,24.975000381469727,24.799999237060547,24.975000381469727,24.02573013305664,10300
2020-07-22,24.850000381469727,24.850000381469727,24.149999618530273,24.656999588012695,23.719816207885742,15200
2020-07-23,24.65999984741211,24.75,24.5,24.700000762939453,23.761184692382812,5800
2020-07-24,24.5,24.719999313354492,24.450000762939453,24.450000762939453,23.520687103271484,10300
2020-07-27,24.510000228881836,25.0,24.5,25.0,24.049779891967773,3800
2020-07-28,24.989999771118164,25.0,24.709999084472656,25.0,24.049779891967773,1600
2020-07-29,25.0,25.0,25.0,25.0,24.049779891967773,800
2020-07-30,25.0,25.0,24.75,24.81999969482422,23.87662124633789,8600
2020-07-31,24.81999969482422,25.0,24.81999969482422,25.0,24.049779891967773,5300
2020-08-03,25.0,25.0,24.920000076293945,24.999000549316406,24.048818588256836,20700
2020-08-04,24.829999923706055,25.0,24.829999923706055,25.0,24.049779891967773,19800
2020-08-05,25.0,25.0,24.93400001525879,25.0,24.049779891967773,33600
2020-08-06,24.950000762939453,25.25,24.950000762939453,25.25,24.2902774810791,5500
2020-08-07,24.989999771118164,25.299999237060547,24.989999771118164,25.299999237060547,24.338376998901367,10800
2020-08-10,25.299999237060547,25.299999237060547,25.149999618530273,25.149999618530273,24.194076538085938,1200
2020-08-11,25.299999237060547,25.299999237060547,25.299999237060547,25.299999237060547,24.338376998901367,1100
2020-08-12,25.010000228881836,25.299999237060547,25.0,25.270000457763672,24.30951690673828,9000
2020-08-13,25.299999237060547,25.729999542236328,25.299999237060547,25.729999542236328,24.75203514099121,3100
2020-08-14,25.510000228881836,26.594999313354492,25.510000228881836,26.06999969482422,25.079111099243164,8000
2020-08-17,26.030000686645508,26.600000381469727,25.860000610351562,26.450000762939453,25.44466781616211,6500
2020-08-18,25.84000015258789,26.125,25.84000015258789,26.0,25.011770248413086,2300
2020-08-19,26.270000457763672,26.270000457763672,26.135000228881836,26.270000457763672,25.271509170532227,1000
2020-08-20,26.010000228881836,26.06999969482422,25.639999389648438,25.639999389648438,24.665454864501953,5700
2020-08-21,25.670000076293945,25.950000762939453,25.48699951171875,25.950000762939453,24.963674545288086,3600
2020-08-24,25.940000534057617,25.940000534057617,25.440000534057617,25.600000381469727,24.626976013183594,5100
2020-08-25,25.545000076293945,25.545000076293945,25.450000762939453,25.450000762939453,24.482677459716797,2400
2020-08-26,25.426000595092773,25.5,25.25,25.25,24.2902774810791,8500
2020-08-27,25.399999618530273,25.6299991607666,25.1299991607666,25.43899917602539,24.47209358215332,2600
2020-08-28,25.420000076293945,25.739999771118164,25.31999969482422,25.729999542236328,24.75203514099121,8100
2020-08-31,25.329999923706055,26.799999237060547,25.31999969482422,25.860000610351562,24.877092361450195,19100
2020-09-01,25.8799991607666,26.100000381469727,25.8799991607666,25.8799991607666,24.896331787109375,2000
2020-09-02,25.940000534057617,25.940000534057617,25.73900032043457,25.73900032043457,24.760690689086914,1000
2020-09-03,25.579999923706055,25.579999923706055,25.040000915527344,25.1299991607666,24.17483901977539,6300
2020-09-04,25.10099983215332,25.469999313354492,25.10099983215332,25.170000076293945,24.213319778442383,2700
2020-09-08,25.170000076293945,25.350000381469727,25.024999618530273,25.024999618530273,24.073829650878906,3600
2020-09-09,25.31100082397461,25.56800079345703,25.110000610351562,25.56800079345703,24.59619140625,2700
2020-09-10,25.56999969482422,25.56999969482422,25.56999969482422,25.56999969482422,24.598114013671875,300
2020-09-11,25.309999465942383,25.510000228881836,25.149999618530273,25.260000228881836,24.299898147583008,4400
2020-09-14,25.540000915527344,25.540000915527344,25.540000915527344,25.540000915527344,24.569255828857422,2000
2020-09-15,25.600000381469727,25.725000381469727,25.25,25.725000381469727,24.747224807739258,4800
2020-09-16,26.139999389648438,26.229999542236328,25.486000061035156,25.899999618530273,24.915571212768555,3200
2020-09-17,25.889999389648438,25.889999389648438,25.510000228881836,25.520000457763672,24.550016403198242,900
2020-09-18,25.610000610351562,25.760000228881836,25.610000610351562,25.760000228881836,24.780893325805664,800
2020-09-21,25.600000381469727,25.899999618530273,25.45199966430664,25.719999313354492,24.742412567138672,4200
2020-09-22,25.469999313354492,25.899999618530273,25.469999313354492,25.899999618530273,24.915571212768555,1300
2020-09-23,25.56999969482422,25.729999542236328,25.31999969482422,25.459999084472656,24.492294311523438,5500
2020-09-24,25.389999389648438,25.670000076293945,25.18000030517578,25.670000076293945,24.69431495666504,4100
2020-09-25,25.5,25.899999618530273,25.5,25.600000381469727,24.626976013183594,1900
2020-09-28,25.670000076293945,26.06999969482422,25.43000030517578,25.725000381469727,24.747224807739258,2000
2020-09-29,25.670000076293945,25.700000762939453,25.670000076293945,25.700000762939453,24.723175048828125,800
2020-09-30,25.75,25.75,25.459999084472656,25.459999084472656,24.492294311523438,2500
2020-10-01,25.290000915527344,25.5,25.290000915527344,25.5,24.53077507019043,9600
2020-10-02,25.489999771118164,25.6200008392334,25.489999771118164,25.510000228881836,24.540395736694336,1400
2020-10-05,25.43000030517578,25.6200008392334,25.43000030517578,25.575000762939453,24.602924346923828,11000
2020-10-06,25.594999313354492,25.6200008392334,25.5,25.549999237060547,24.578874588012695,1700
2020-10-07,25.3700008392334,25.559999465942383,25.3700008392334,25.420000076293945,24.45381736755371,2200
2020-10-08,25.440000534057617,25.59000015258789,25.440000534057617,25.479999542236328,24.511537551879883,1800
2020-10-09,25.549999237060547,25.719999313354492,25.469999313354492,25.68000030517578,24.703933715820312,4900
2020-10-12,25.530000686645508,25.840999603271484,25.5,25.840999603271484,24.858814239501953,5900
2020-10-13,25.809999465942383,26.0,25.600000381469727,25.6299991607666,24.655834197998047,2000
2020-10-14,25.600000381469727,25.600000381469727,25.209999084472656,25.290000915527344,24.644142150878906,4400
2020-10-15,25.290000915527344,25.5,25.290000915527344,25.5,24.848777770996094,3600
2020-10-16,25.3799991607666,25.790000915527344,25.280000686645508,25.790000915527344,25.131372451782227,12800
2020-10-19,25.670000076293945,25.670000076293945,25.34000015258789,25.34000015258789,24.69286346435547,5100
2020-10-20,25.350000381469727,25.518999099731445,25.350000381469727,25.360000610351562,24.71235466003418,3800
2020-10-21,25.3700008392334,25.3700008392334,25.190000534057617,25.350000381469727,24.702608108520508,6300
2020-10-22,25.25,25.329999923706055,25.239999771118164,25.305999755859375,24.659730911254883,2900
2020-10-23,25.34000015258789,25.350000381469727,25.25,25.350000381469727,24.702608108520508,4600
2020-10-26,25.349000930786133,25.43000030517578,25.334999084472656,25.43000030517578,24.78056526184082,900
2020-10-27,25.270000457763672,25.437999725341797,25.25,25.299999237060547,24.65388298034668,2200
2020-10-28,25.239999771118164,25.299999237060547,25.229999542236328,25.299999237060547,24.65388298034668,3500
2020-10-29,25.28499984741211,25.399999618530273,25.28499984741211,25.399999618530273,24.75132942199707,2300
2020-10-30,25.399999618530273,25.399999618530273,25.270000457763672,25.350000381469727,24.702608108520508,1600
2020-11-02,25.399999618530273,25.399999618530273,25.25,25.260000228881836,24.614906311035156,2700
2020-11-03,25.3700008392334,25.3700008392334,25.111000061035156,25.239999771118164,24.595417022705078,3700
2020-11-04,25.347999572753906,25.719999313354492,25.329999923706055,25.5,24.848777770996094,2400
2020-11-05,25.43000030517578,25.450000762939453,25.43000030517578,25.450000762939453,24.80005645751953,1300
2020-11-06,25.469999313354492,25.469999313354492,25.284000396728516,25.284000396728516,24.638294219970703,6700
2020-11-09,25.420000076293945,25.54800033569336,25.259000778198242,25.479999542236328,24.829288482666016,9400
2020-11-10,25.31999969482422,25.4689998626709,25.31999969482422,25.420000076293945,24.77082061767578,8100
2020-11-11,25.420000076293945,25.420000076293945,25.389999389648438,25.41900062561035,24.769845962524414,1300
2020-11-12,25.31999969482422,25.479999542236328,25.31999969482422,25.450000762939453,24.80005645751953,9000
2020-11-13,25.5,25.639999389648438,25.3700008392334,25.639999389648438,24.98520278930664,8400
2020-11-16,25.59000015258789,26.229999542236328,25.59000015258789,25.969999313354492,25.306774139404297,15800
2020-11-17,26.190000534057617,26.475000381469727,26.139999389648438,26.149999618530273,25.482177734375,4600
2020-11-18,26.360000610351562,26.360000610351562,25.6200008392334,25.8700008392334,25.20932960510254,14100
2020-11-19,25.889999389648438,26.25,25.716999053955078,26.25,25.57962417602539,3600
2020-11-20,26.25,26.25,25.719999313354492,26.25,25.57962417602539,2500
2020-11-23,26.25,26.25,25.891000747680664,25.9950008392334,25.33113670349121,2600
2020-11-24,26.25,26.25,25.670000076293945,25.68000030517578,25.024179458618164,5900
2020-11-25,25.559999465942383,25.75,25.559999465942383,25.579999923706055,24.926733016967773,3700
2020-11-27,25.6200008392334,25.729999542236328,25.579999923706055,25.649999618530273,24.994945526123047,900
2020-11-30,25.790000915527344,25.790000915527344,25.34000015258789,25.34000015258789,24.69286346435547,6000
2020-12-01,25.520000457763672,25.809999465942383,25.399999618530273,25.56999969482422,24.916990280151367,18500
2020-12-02,25.510000228881836,25.649999618530273,25.469999313354492,25.649999618530273,24.994945526123047,3200
2020-12-03,25.649999618530273,25.649999618530273,25.549999237060547,25.549999237060547,24.897499084472656,1500
2020-12-04,25.530000686645508,25.610000610351562,25.530000686645508,25.549999237060547,24.897499084472656,2300
2020-12-07,25.520000457763672,25.65999984741211,25.420000076293945,25.479999542236328,24.829288482666016,2500
2020-12-08,25.530000686645508,25.639999389648438,25.459999084472656,25.639999389648438,24.98520278930664,11300
2020-12-09,25.489999771118164,25.510000228881836,25.489999771118164,25.5,24.848777770996094,1000
2020-12-10,25.700000762939453,25.700000762939453,25.450000762939453,25.479999542236328,24.829288482666016,4200
2020-12-11,25.479999542236328,25.59000015258789,25.469999313354492,25.540000915527344,24.88775634765625,3100
2020-12-14,25.589000701904297,25.589000701904297,25.450000762939453,25.510000228881836,24.858522415161133,2500
2020-12-15,25.469999313354492,25.520000457763672,25.424999237060547,25.520000457763672,24.868267059326172,4200
2020-12-16,25.389999389648438,25.549999237060547,25.389999389648438,25.440000534057617,24.79030990600586,8200
2020-12-17,25.540000915527344,25.540000915527344,25.420000076293945,25.520000457763672,24.868267059326172,5000
2020-12-18,25.450000762939453,25.59000015258789,25.440000534057617,25.520000457763672,24.868267059326172,7300
2020-12-21,25.520000457763672,25.6200008392334,25.520000457763672,25.565000534057617,24.91211700439453,2800
2020-12-22,25.59000015258789,25.59000015258789,25.43000030517578,25.459999084472656,24.809797286987305,2300
2020-12-23,25.559999465942383,25.559999465942383,25.43000030517578,25.43000030517578,24.78056526184082,2900
2020-12-24,25.479999542236328,25.485000610351562,25.40999984741211,25.40999984741211,24.761075973510742,3400
2020-12-28,25.5,25.52899932861328,25.420000076293945,25.43000030517578,24.78056526184082,4200
2020-12-29,25.469999313354492,25.486000061035156,25.399999618530273,25.399999618530273,24.75132942199707,4700
2020-12-30,25.34000015258789,25.450000762939453,25.34000015258789,25.399999618530273,24.75132942199707,1600
