Date,Open,High,Low,Close,Adj Close,Volume
2019-01-23,22.399999618530273,22.399999618530273,20.440000534057617,21.040000915527344,21.040000915527344,401400
2019-01-24,21.15999984741211,21.200000762939453,20.040000915527344,20.600000381469727,20.600000381469727,385600
2019-01-25,20.600000381469727,20.760000228881836,19.639999389648438,20.479999542236328,20.479999542236328,631500
2019-01-28,20.68000030517578,21.1200008392334,20.040000915527344,21.079999923706055,21.079999923706055,530775
2019-01-29,21.360000610351562,21.68000030517578,20.399999618530273,20.920000076293945,20.920000076293945,394925
2019-01-30,21.079999923706055,21.520000457763672,20.719999313354492,21.200000762939453,21.200000762939453,354300
2019-01-31,21.399999618530273,22.799999237060547,21.104000091552734,22.639999389648438,22.639999389648438,576050
2019-02-01,23.200000762939453,23.639999389648438,22.600000381469727,22.600000381469727,22.600000381469727,1024225
2019-02-04,23.559999465942383,24.200000762939453,22.799999237060547,23.799999237060547,23.799999237060547,1134075
2019-02-05,24.200000762939453,24.239999771118164,22.0,22.600000381469727,22.600000381469727,792250
2019-02-06,22.200000762939453,22.399999618530273,20.479999542236328,21.15999984741211,21.15999984741211,690200
2019-02-07,20.520000457763672,22.0,20.347999572753906,21.84000015258789,21.84000015258789,566450
2019-02-08,22.31999969482422,22.31999969482422,21.200000762939453,21.31999969482422,21.31999969482422,265350
2019-02-11,21.600000381469727,21.600000381469727,20.15999984741211,20.520000457763672,20.520000457763672,403600
2019-02-12,20.079999923706055,21.920000076293945,19.920000076293945,21.920000076293945,21.920000076293945,568650
2019-02-13,22.1200008392334,22.479999542236328,21.520000457763672,21.920000076293945,21.920000076293945,367950
2019-02-14,21.8799991607666,21.8799991607666,21.239999771118164,21.760000228881836,21.760000228881836,216600
2019-02-15,22.15999984741211,22.43600082397461,21.643999099731445,22.31999969482422,22.31999969482422,343975
2019-02-19,22.760000228881836,22.799999237060547,22.083999633789062,22.799999237060547,22.799999237060547,500550
2019-02-20,23.079999923706055,24.0,22.8799991607666,24.0,24.0,923200
2019-02-21,24.200000762939453,24.600000381469727,23.15999984741211,23.639999389648438,23.639999389648438,964975
2019-02-22,24.040000915527344,24.040000915527344,22.920000076293945,23.600000381469727,23.600000381469727,592125
2019-02-25,23.479999542236328,23.520000457763672,22.360000610351562,22.719999313354492,22.719999313354492,677600
2019-02-26,22.440000534057617,23.31999969482422,22.200000762939453,22.639999389648438,22.639999389648438,1035800
2019-02-27,22.440000534057617,22.639999389648438,22.0,22.479999542236328,22.479999542236328,576275
2019-02-28,22.520000457763672,22.799999237060547,22.399999618530273,22.799999237060547,22.799999237060547,290075
2019-03-01,22.799999237060547,22.920000076293945,22.399999618530273,22.68000030517578,22.68000030517578,287425
2019-03-04,22.399999618530273,22.399999618530273,21.399999618530273,22.200000762939453,22.200000762939453,459150
2019-03-05,21.920000076293945,22.079999923706055,21.600000381469727,21.84000015258789,21.84000015258789,389025
2019-03-06,21.719999313354492,22.079999923706055,21.468000411987305,21.84000015258789,21.84000015258789,276650
2019-03-07,21.959999084472656,21.959999084472656,20.799999237060547,21.040000915527344,21.040000915527344,322225
2019-03-08,20.600000381469727,21.760000228881836,20.399999618530273,21.68000030517578,21.68000030517578,313125
2019-03-11,21.799999237060547,22.200000762939453,21.600000381469727,22.200000762939453,22.200000762939453,262300
2019-03-12,22.399999618530273,22.84000015258789,22.040000915527344,22.31999969482422,22.31999969482422,379000
2019-03-13,23.0,24.0,22.719999313354492,23.799999237060547,23.799999237060547,955450
2019-03-14,25.200000762939453,25.239999771118164,24.18000030517578,24.399999618530273,24.399999618530273,1564125
2019-03-15,24.719999313354492,24.73200035095215,24.200000762939453,24.440000534057617,24.440000534057617,995850
2019-03-18,24.799999237060547,26.920000076293945,24.600000381469727,26.920000076293945,26.920000076293945,1928375
2019-03-19,28.399999618530273,29.31999969482422,27.200000762939453,27.760000228881836,27.760000228881836,3354725
2019-03-20,27.799999237060547,27.799999237060547,26.479999542236328,26.8799991607666,26.8799991607666,1249850
2019-03-21,26.920000076293945,27.360000610351562,26.15999984741211,27.15999984741211,27.15999984741211,894925
2019-03-22,27.200000762939453,27.200000762939453,25.1200008392334,25.479999542236328,25.479999542236328,1189575
2019-03-25,25.520000457763672,25.719999313354492,24.280000686645508,25.040000915527344,25.040000915527344,1029950
2019-03-26,25.68000030517578,27.15999984741211,25.440000534057617,27.15999984741211,27.15999984741211,1622075
2019-03-27,27.15999984741211,27.520000457763672,24.8799991607666,25.520000457763672,25.520000457763672,1360650
2019-03-28,25.719999313354492,26.079999923706055,24.8799991607666,25.959999084472656,25.959999084472656,996375
2019-03-29,26.200000762939453,26.65999984741211,25.959999084472656,26.520000457763672,26.520000457763672,815875
2019-04-01,27.31999969482422,27.31999969482422,26.559999465942383,27.1200008392334,27.1200008392334,784775
2019-04-02,26.959999084472656,27.200000762939453,26.200000762939453,26.719999313354492,26.719999313354492,570625
2019-04-03,26.719999313354492,27.040000915527344,26.200000762939453,26.399999618530273,26.399999618530273,596950
2019-04-04,26.600000381469727,26.639999389648438,25.799999237060547,26.280000686645508,26.280000686645508,441825
2019-04-05,26.520000457763672,26.639999389648438,26.200000762939453,26.520000457763672,26.520000457763672,445350
2019-04-08,26.799999237060547,26.799999237060547,26.079999923706055,26.399999618530273,26.399999618530273,373900
2019-04-09,26.079999923706055,26.079999923706055,25.0,25.280000686645508,25.280000686645508,624800
2019-04-10,25.31999969482422,25.84000015258789,25.079999923706055,25.84000015258789,25.84000015258789,338550
2019-04-11,25.84000015258789,25.959999084472656,24.68000030517578,24.799999237060547,24.799999237060547,654125
2019-04-12,25.15999984741211,25.31999969482422,24.920000076293945,25.200000762939453,25.200000762939453,393850
2019-04-15,25.31999969482422,25.31999969482422,23.760000228881836,23.959999084472656,23.959999084472656,953800
2019-04-16,23.959999084472656,24.639999389648438,23.520000457763672,23.799999237060547,23.799999237060547,619950
2019-04-17,25.079999923706055,26.68000030517578,24.31999969482422,26.600000381469727,26.600000381469727,2500000
2019-04-18,27.600000381469727,28.0,26.1200008392334,27.040000915527344,27.040000915527344,2661250
2019-04-22,27.479999542236328,28.5,27.040000915527344,28.360000610351562,28.360000610351562,2424850
2019-04-23,28.15999984741211,28.200000762939453,27.520000457763672,28.0,28.0,1290725
2019-04-24,28.0,28.559999465942383,27.600000381469727,28.520000457763672,28.520000457763672,1280750
2019-04-25,28.68000030517578,28.959999084472656,28.360000610351562,28.68000030517578,28.68000030517578,1093900
2019-04-26,29.040000915527344,31.239999771118164,28.892000198364258,31.239999771118164,31.239999771118164,3483475
2019-04-29,32.279998779296875,33.599998474121094,31.799999237060547,33.119998931884766,33.119998931884766,3569625
2019-04-30,33.119998931884766,33.119998931884766,31.040000915527344,31.280000686645508,31.280000686645508,2774375
2019-05-01,31.760000228881836,32.63999938964844,31.1200008392334,31.31999969482422,31.31999969482422,1841250
2019-05-02,31.719999313354492,31.84000015258789,29.0,29.84000015258789,29.84000015258789,2379175
2019-05-03,30.399999618530273,31.280000686645508,30.280000686645508,30.920000076293945,30.920000076293945,1196575
2019-05-06,29.479999542236328,31.200000762939453,29.0,31.040000915527344,31.040000915527344,1112475
2019-05-07,30.68000030517578,30.799999237060547,29.360000610351562,29.920000076293945,29.920000076293945,1301900
2019-05-08,30.0,30.399999618530273,29.600000381469727,30.239999771118164,30.239999771118164,742300
2019-05-09,30.280000686645508,30.395999908447266,29.0,29.479999542236328,29.479999542236328,824775
2019-05-10,29.200000762939453,29.639999389648438,28.399999618530273,28.399999618530273,28.399999618530273,1458450
2019-05-13,27.84000015258789,28.0,26.139999389648438,26.31999969482422,26.31999969482422,1420550
2019-05-14,27.15999984741211,27.760000228881836,27.1200008392334,27.559999465942383,27.559999465942383,1044250
2019-05-15,27.600000381469727,29.0,26.920000076293945,28.920000076293945,28.920000076293945,1271875
2019-05-16,29.31999969482422,29.600000381469727,28.408000946044922,28.600000381469727,28.600000381469727,1035500
2019-05-17,28.760000228881836,28.760000228881836,27.15999984741211,27.520000457763672,27.520000457763672,973150
2019-05-20,27.719999313354492,28.0,26.600000381469727,27.68000030517578,27.68000030517578,560950
2019-05-21,27.719999313354492,28.200000762939453,27.719999313354492,27.959999084472656,27.959999084472656,619450
2019-05-22,28.0,28.360000610351562,27.239999771118164,27.559999465942383,27.559999465942383,773000
2019-05-23,27.360000610351562,27.360000610351562,26.079999923706055,26.600000381469727,26.600000381469727,919875
2019-05-24,27.0,27.63599967956543,26.84000015258789,27.040000915527344,27.040000915527344,748700
2019-05-28,28.200000762939453,28.760000228881836,27.719999313354492,28.15999984741211,28.15999984741211,1236275
2019-05-29,28.1200008392334,28.15999984741211,27.079999923706055,27.600000381469727,27.600000381469727,768325
2019-05-30,28.1200008392334,28.1200008392334,26.58799934387207,26.84000015258789,26.84000015258789,680100
2019-05-31,26.15999984741211,26.68000030517578,25.1200008392334,25.68000030517578,25.68000030517578,1048750
2019-06-03,25.719999313354492,26.31999969482422,24.799999237060547,25.1200008392334,25.1200008392334,994575
2019-06-04,25.520000457763672,25.959999084472656,25.079999923706055,25.8799991607666,25.8799991607666,869100
2019-06-05,26.799999237060547,26.799999237060547,25.1200008392334,25.200000762939453,25.200000762939453,806850
2019-06-06,25.440000534057617,25.479999542236328,24.559999465942383,25.1200008392334,25.1200008392334,589100
2019-06-07,25.0,26.079999923706055,24.600000381469727,25.719999313354492,25.719999313354492,811575
2019-06-10,26.479999542236328,26.600000381469727,26.0,26.520000457763672,26.520000457763672,733900
2019-06-11,27.0,27.200000762939453,25.959999084472656,26.559999465942383,26.559999465942383,812950
2019-06-12,26.399999618530273,26.520000457763672,25.440000534057617,25.799999237060547,25.799999237060547,929150
2019-06-13,24.719999313354492,24.799999237060547,23.239999771118164,23.600000381469727,23.600000381469727,2421150
2019-06-14,23.31999969482422,23.360000610351562,22.040000915527344,22.440000534057617,22.440000534057617,1551400
2019-06-17,22.520000457763672,22.719999313354492,21.600000381469727,22.040000915527344,22.040000915527344,1448950
2019-06-18,22.079999923706055,22.479999542236328,21.719999313354492,22.200000762939453,22.200000762939453,920025
2019-06-19,22.520000457763672,23.15999984741211,22.079999923706055,23.040000915527344,23.040000915527344,814400
2019-06-20,23.559999465942383,23.719999313354492,23.040000915527344,23.31999969482422,23.31999969482422,802650
2019-06-21,22.719999313354492,22.799999237060547,21.959999084472656,22.360000610351562,22.360000610351562,665525
2019-06-24,22.479999542236328,22.479999542236328,21.239999771118164,21.440000534057617,21.440000534057617,1340175
2019-06-25,20.8799991607666,21.239999771118164,20.399999618530273,20.520000457763672,20.520000457763672,1011850
2019-06-26,20.479999542236328,20.908000946044922,20.1200008392334,20.200000762939453,20.200000762939453,987350
2019-06-27,20.280000686645508,21.799999237060547,20.200000762939453,21.68000030517578,21.68000030517578,987175
2019-06-28,21.84000015258789,22.15999984741211,21.0,21.280000686645508,21.280000686645508,630875
2019-07-01,21.719999313354492,21.84000015258789,21.200000762939453,21.520000457763672,21.520000457763672,465650
2019-07-02,21.31999969482422,21.520000457763672,20.600000381469727,20.719999313354492,20.719999313354492,527700
2019-07-03,20.639999389648438,21.15999984741211,20.479999542236328,21.15999984741211,21.15999984741211,451025
2019-07-05,21.079999923706055,21.200000762939453,20.639999389648438,20.799999237060547,20.799999237060547,356200
2019-07-08,20.639999389648438,20.760000228881836,20.200000762939453,20.31999969482422,20.31999969482422,628875
2019-07-09,20.1200008392334,20.799999237060547,19.799999237060547,20.760000228881836,20.760000228881836,810550
2019-07-10,20.760000228881836,21.0,20.1200008392334,20.399999618530273,20.399999618530273,445675
2019-07-11,20.799999237060547,20.799999237060547,20.280000686645508,20.600000381469727,20.600000381469727,542425
2019-07-12,20.600000381469727,20.600000381469727,19.200000762939453,19.399999618530273,19.399999618530273,1454275
2019-07-15,19.559999465942383,20.399999618530273,19.15999984741211,20.200000762939453,20.200000762939453,749400
2019-07-16,20.559999465942383,20.600000381469727,20.040000915527344,20.1200008392334,20.1200008392334,1116175
2019-07-17,20.15999984741211,20.479999542236328,20.1200008392334,20.399999618530273,20.399999618530273,541025
2019-07-18,20.31999969482422,20.31999969482422,19.399999618530273,20.0,20.0,574000
2019-07-19,20.079999923706055,20.079999923706055,19.600000381469727,19.639999389648438,19.639999389648438,462400
2019-07-22,19.639999389648438,19.760000228881836,18.639999389648438,18.84000015258789,18.84000015258789,738275
2019-07-23,18.799999237060547,18.799999237060547,17.65999984741211,18.040000915527344,18.040000915527344,1163200
2019-07-24,17.84000015258789,17.8799991607666,17.0,17.079999923706055,17.079999923706055,1199050
2019-07-25,17.0,17.920000076293945,16.200000762939453,16.399999618530273,16.399999618530273,1153750
2019-07-26,16.200000762939453,16.68000030517578,15.920000076293945,15.960000038146973,15.960000038146973,1637525
2019-07-29,15.920000076293945,17.639999389648438,14.920000076293945,17.440000534057617,17.440000534057617,2501350
2019-07-30,17.31999969482422,17.760000228881836,16.479999542236328,16.799999237060547,16.799999237060547,1383200
2019-07-31,16.84000015258789,17.399999618530273,16.520000457763672,17.040000915527344,17.040000915527344,825500
2019-08-01,17.040000915527344,17.1200008392334,15.760000228881836,16.280000686645508,16.280000686645508,866500
2019-08-02,16.8799991607666,17.799999237060547,16.719999313354492,17.559999465942383,17.559999465942383,1146100
2019-08-05,17.1200008392334,17.15999984741211,16.479999542236328,16.760000228881836,16.760000228881836,625075
2019-08-06,17.399999618530273,17.959999084472656,17.079999923706055,17.639999389648438,17.639999389648438,987225
2019-08-07,17.399999618530273,17.520000457763672,17.040000915527344,17.479999542236328,17.479999542236328,528600
2019-08-08,18.040000915527344,18.399999618530273,17.639999389648438,18.239999771118164,18.239999771118164,862325
2019-08-09,18.239999771118164,19.0,17.399999618530273,18.84000015258789,18.84000015258789,1867575
2019-08-12,18.479999542236328,19.040000915527344,17.84000015258789,18.34000015258789,18.34000015258789,852375
2019-08-13,18.600000381469727,19.799999237060547,18.399999618530273,19.760000228881836,19.760000228881836,961875
2019-08-14,19.15999984741211,19.600000381469727,18.239999771118164,18.360000610351562,18.360000610351562,1074575
2019-08-15,17.920000076293945,17.959999084472656,16.600000381469727,17.1200008392334,17.1200008392334,894225
2019-08-16,17.399999618530273,18.399999618530273,17.280000686645508,17.760000228881836,17.760000228881836,918375
2019-08-19,18.200000762939453,18.31999969482422,17.1200008392334,17.280000686645508,17.280000686645508,755775
2019-08-20,17.280000686645508,17.440000534057617,16.760000228881836,16.920000076293945,16.920000076293945,589650
2019-08-21,17.0,17.079999923706055,16.399999618530273,16.520000457763672,16.520000457763672,568275
2019-08-22,16.440000534057617,16.719999313354492,15.859999656677246,15.920000076293945,15.920000076293945,789275
2019-08-23,15.800000190734863,16.719999313354492,15.680000305175781,16.040000915527344,16.040000915527344,670550
2019-08-26,16.239999771118164,16.31999969482422,15.680000305175781,16.200000762939453,16.200000762939453,596700
2019-08-27,16.399999618530273,16.399999618530273,15.079999923706055,15.399999618530273,15.399999618530273,706175
2019-08-28,15.199999809265137,16.15999984741211,14.819999694824219,15.800000190734863,15.800000190734863,590075
2019-08-29,15.920000076293945,16.1200008392334,15.479999542236328,15.760000228881836,15.760000228881836,484100
2019-08-30,15.800000190734863,16.1200008392334,15.720000267028809,16.079999923706055,16.079999923706055,372975
2019-09-03,16.15999984741211,16.719999313354492,15.84000015258789,16.68000030517578,16.68000030517578,656900
2019-09-04,16.920000076293945,17.200000762939453,16.440000534057617,17.1200008392334,17.1200008392334,566050
2019-09-05,17.15999984741211,18.31999969482422,17.15999984741211,18.040000915527344,18.040000915527344,855600
2019-09-06,18.239999771118164,18.8799991607666,17.799999237060547,18.440000534057617,18.440000534057617,915875
2019-09-09,19.0,19.0,17.600000381469727,17.600000381469727,17.600000381469727,638650
2019-09-10,17.719999313354492,18.15999984741211,17.239999771118164,17.68000030517578,17.68000030517578,608150
2019-09-11,17.799999237060547,17.916000366210938,17.040000915527344,17.239999771118164,17.239999771118164,845050
2019-09-12,16.84000015258789,17.200000762939453,16.639999389648438,16.68000030517578,16.68000030517578,564225
2019-09-13,16.8799991607666,17.1200008392334,16.600000381469727,16.920000076293945,16.920000076293945,517500
2019-09-16,17.1200008392334,17.31999969482422,16.84000015258789,17.0,17.0,509550
2019-09-17,17.040000915527344,17.1200008392334,16.079999923706055,16.280000686645508,16.280000686645508,694875
2019-09-18,16.200000762939453,16.600000381469727,16.0,16.440000534057617,16.440000534057617,545775
2019-09-19,16.479999542236328,16.520000457763672,15.640000343322754,15.760000228881836,15.760000228881836,750850
2019-09-20,16.0,17.719999313354492,15.760000228881836,17.440000534057617,17.440000534057617,1874800
2019-09-23,17.600000381469727,18.479999542236328,17.511999130249023,17.600000381469727,17.600000381469727,1305275
2019-09-24,17.760000228881836,17.760000228881836,16.34000015258789,16.639999389648438,16.639999389648438,1261625
2019-09-25,16.600000381469727,16.84000015258789,15.920000076293945,16.600000381469727,16.600000381469727,868775
2019-09-26,16.8799991607666,17.0,16.239999771118164,16.479999542236328,16.479999542236328,627625
2019-09-27,16.479999542236328,17.360000610351562,16.31999969482422,16.760000228881836,16.760000228881836,808300
2019-09-30,16.8799991607666,16.95199966430664,15.680000305175781,15.84000015258789,15.84000015258789,1351300
2019-10-01,15.84000015258789,16.040000915527344,14.680000305175781,15.319999694824219,15.319999694824219,966125
2019-10-02,14.84000015258789,15.5600004196167,14.079999923706055,15.079999923706055,15.079999923706055,1238575
2019-10-03,15.0,15.920000076293945,14.699999809265137,15.84000015258789,15.84000015258789,790475
2019-10-04,16.0,16.559999465942383,15.84000015258789,16.239999771118164,16.239999771118164,880000
2019-10-07,15.600000381469727,15.699999809265137,15.15999984741211,15.199999809265137,15.199999809265137,1205925
2019-10-08,14.800000190734863,14.880000114440918,14.239999771118164,14.800000190734863,14.800000190734863,913275
2019-10-09,14.640000343322754,15.15999984741211,14.539999961853027,14.720000267028809,14.720000267028809,718700
2019-10-10,11.920000076293945,12.319999694824219,10.84000015258789,11.399999618530273,11.399999618530273,3073775
2019-10-11,11.039999961853027,11.520000457763672,10.100000381469727,10.119999885559082,10.119999885559082,1893025
2019-10-14,9.640000343322754,9.760000228881836,9.119999885559082,9.4399995803833,9.4399995803833,1391150
2019-10-15,9.4399995803833,10.880000114440918,9.279999732971191,10.239999771118164,10.239999771118164,1770850
2019-10-16,10.520000457763672,10.600000381469727,9.720000267028809,9.880000114440918,9.880000114440918,1049225
2019-10-17,10.399999618530273,11.84000015258789,10.0,11.5600004196167,11.5600004196167,2081950
2019-10-18,12.0,12.039999961853027,10.720000267028809,10.960000038146973,10.960000038146973,1140150
2019-10-21,10.380000114440918,10.920000076293945,10.279999732971191,10.720000267028809,10.720000267028809,1276850
2019-10-22,10.5600004196167,10.800000190734863,10.239999771118164,10.359999656677246,10.359999656677246,666950
2019-10-23,10.119999885559082,11.4399995803833,9.800000190734863,10.760000228881836,10.760000228881836,2235850
2019-10-24,11.0,11.079999923706055,9.960000038146973,10.079999923706055,10.079999923706055,1528825
2019-10-25,9.760000228881836,9.880000114440918,9.199999809265137,9.520000457763672,9.520000457763672,1543575
2019-10-28,9.4399995803833,9.880000114440918,9.279999732971191,9.279999732971191,9.279999732971191,1043050
2019-10-29,8.5600004196167,9.199999809265137,8.319999694824219,9.0,9.0,1569300
2019-10-30,8.760000228881836,9.359999656677246,8.600000381469727,9.039999961853027,9.039999961853027,804825
2019-10-31,8.960000038146973,8.996000289916992,8.4399995803833,8.600000381469727,8.600000381469727,1190200
2019-11-01,8.399999618530273,9.0,8.319999694824219,8.760000228881836,8.760000228881836,748525
2019-11-04,8.600000381469727,8.760000228881836,8.248000144958496,8.279999732971191,8.279999732971191,925925
2019-11-05,8.119999885559082,8.520000457763672,8.0,8.239999771118164,8.239999771118164,1160625
2019-11-06,8.119999885559082,8.920000076293945,8.039999961853027,8.640000343322754,8.640000343322754,1195725
2019-11-07,8.800000190734863,9.0,8.5600004196167,8.84000015258789,8.84000015258789,762000
2019-11-08,8.880000114440918,9.600000381469727,8.84000015258789,9.399999618530273,9.399999618530273,1430125
2019-11-11,9.239999771118164,9.279999732971191,8.4399995803833,8.479999542236328,8.479999542236328,1144375
2019-11-12,8.479999542236328,9.03600025177002,8.399999618530273,8.479999542236328,8.479999542236328,888050
2019-11-13,8.479999542236328,8.5600004196167,7.920000076293945,7.960000038146973,7.960000038146973,1335575
2019-11-14,7.71999979019165,7.760000228881836,7.199999809265137,7.559999942779541,7.559999942779541,1525250
2019-11-15,7.159999847412109,7.519999980926514,7.039999961853027,7.159999847412109,7.159999847412109,917325
2019-11-18,6.920000076293945,7.159999847412109,6.360000133514404,6.360000133514404,6.360000133514404,1592075
2019-11-19,6.320000171661377,7.400000095367432,6.239999771118164,7.28000020980835,7.28000020980835,1215300
2019-11-20,7.400000095367432,8.359999656677246,7.400000095367432,7.599999904632568,7.599999904632568,2138850
2019-11-21,8.079999923706055,10.800000190734863,7.800000190734863,10.15999984741211,10.15999984741211,5727925
2019-11-22,10.152000427246094,10.152000427246094,8.319999694824219,8.600000381469727,8.600000381469727,2910000
2019-11-25,8.760000228881836,9.5600004196167,8.720000267028809,8.760000228881836,8.760000228881836,1562175
2019-11-26,8.520000457763672,8.640000343322754,7.960000038146973,8.119999885559082,8.119999885559082,1827900
2019-11-27,8.199999809265137,8.479999542236328,8.079999923706055,8.399999618530273,8.399999618530273,1259900
2019-11-29,8.600000381469727,8.680000305175781,8.319999694824219,8.640000343322754,8.640000343322754,596300
2019-12-02,8.5600004196167,8.880000114440918,8.359999656677246,8.520000457763672,8.520000457763672,823925
2019-12-03,8.4399995803833,8.84000015258789,8.239999771118164,8.640000343322754,8.640000343322754,1024675
2019-12-04,8.760000228881836,8.776000022888184,8.359999656677246,8.520000457763672,8.520000457763672,679225
2019-12-05,8.600000381469727,8.640000343322754,8.0,8.239999771118164,8.239999771118164,1368425
2019-12-06,8.239999771118164,8.479999542236328,8.119999885559082,8.359999656677246,8.359999656677246,982725
2019-12-09,8.4399995803833,9.15999984741211,8.399999618530273,9.15999984741211,9.15999984741211,1095425
2019-12-10,9.0,9.199999809265137,8.640000343322754,8.760000228881836,8.760000228881836,834850
2019-12-11,8.760000228881836,8.960000038146973,8.479999542236328,8.760000228881836,8.760000228881836,744425
2019-12-12,8.680000305175781,8.960000038146973,8.5600004196167,8.920000076293945,8.920000076293945,959800
2019-12-13,8.880000114440918,9.199999809265137,8.720000267028809,8.960000038146973,8.960000038146973,1146975
2019-12-16,8.319999694824219,8.960000038146973,8.319999694824219,8.680000305175781,8.680000305175781,1133500
2019-12-17,8.520000457763672,8.920000076293945,8.319999694824219,8.359999656677246,8.359999656677246,995125
2019-12-18,8.359999656677246,8.4399995803833,7.679999828338623,7.71999979019165,7.71999979019165,1092775
2019-12-19,7.71999979019165,8.359999656677246,7.599999904632568,8.079999923706055,8.079999923706055,1001450
2019-12-20,8.039999961853027,8.15999984741211,7.880000114440918,8.079999923706055,8.079999923706055,601600
2019-12-23,7.960000038146973,8.119999885559082,7.639999866485596,7.639999866485596,7.639999866485596,737025
2019-12-24,7.639999866485596,7.840000152587891,7.519999980926514,7.840000152587891,7.840000152587891,383075
2019-12-26,6.519999980926514,6.599999904632568,5.920000076293945,6.119999885559082,6.119999885559082,4150325
2019-12-27,6.360000133514404,6.679999828338623,6.199999809265137,6.400000095367432,6.400000095367432,2213425
2019-12-30,6.400000095367432,6.420000076293945,6.119999885559082,6.119999885559082,6.119999885559082,1371475
2019-12-31,6.119999885559082,6.639999866485596,6.0,6.360000133514404,6.360000133514404,2732725
2020-01-02,6.599999904632568,6.71999979019165,6.239999771118164,6.559999942779541,6.559999942779541,2557250
2020-01-03,6.599999904632568,6.71999979019165,6.239999771118164,6.28000020980835,6.28000020980835,1624900
2020-01-06,6.239999771118164,6.28000020980835,5.880000114440918,5.880000114440918,5.880000114440918,1615250
2020-01-07,5.920000076293945,5.960000038146973,5.480000019073486,5.480000019073486,5.480000019073486,1593025
2020-01-08,5.400000095367432,5.679999828338623,5.0,5.559999942779541,5.559999942779541,2452725
2020-01-09,5.480000019073486,6.199999809265137,5.320000171661377,5.880000114440918,5.880000114440918,2178875
2020-01-10,5.960000038146973,5.960000038146973,5.360000133514404,5.360000133514404,5.360000133514404,1322075
2020-01-13,5.400000095367432,6.119999885559082,5.360000133514404,6.119999885559082,6.119999885559082,2063900
2020-01-14,6.039999961853027,6.559999942779541,5.78000020980835,6.360000133514404,6.360000133514404,2464400
2020-01-15,6.599999904632568,7.880000114440918,6.480000019073486,7.400000095367432,7.400000095367432,3513150
2020-01-16,7.71999979019165,8.15999984741211,6.960000038146973,7.119999885559082,7.119999885559082,2866700
2020-01-17,6.679999828338623,7.0,6.28000020980835,6.480000019073486,6.480000019073486,2677875
2020-01-21,6.440000057220459,6.440000057220459,5.960000038146973,5.960000038146973,5.960000038146973,1742525
2020-01-22,6.159999847412109,6.159999847412109,5.639999866485596,5.71999979019165,5.71999979019165,2312725
2020-01-23,5.760000228881836,6.039999961853027,5.599999904632568,6.0,6.0,1832125
2020-01-24,6.039999961853027,6.039999961853027,5.519999980926514,5.639999866485596,5.639999866485596,1505500
2020-01-27,5.480000019073486,5.599999904632568,5.320000171661377,5.320000171661377,5.320000171661377,1066550
2020-01-28,5.199999809265137,5.360000133514404,5.0,5.28000020980835,5.28000020980835,1929075
2020-01-29,5.360000133514404,5.360000133514404,5.079999923706055,5.079999923706055,5.079999923706055,735200
2020-01-30,5.079999923706055,5.199999809265137,4.960000038146973,5.079999923706055,5.079999923706055,1099100
2020-01-31,5.079999923706055,5.119999885559082,4.960000038146973,5.0,5.0,590025
2020-02-03,5.0,5.239999771118164,4.960000038146973,5.119999885559082,5.119999885559082,790175
2020-02-04,5.199999809265137,5.599999904632568,5.159999847412109,5.440000057220459,5.440000057220459,1129975
2020-02-05,5.480000019073486,5.559999942779541,5.320000171661377,5.360000133514404,5.360000133514404,655550
2020-02-06,5.320000171661377,5.559999942779541,5.239999771118164,5.28000020980835,5.28000020980835,595850
2020-02-07,5.159999847412109,5.239999771118164,4.960000038146973,5.079999923706055,5.079999923706055,794600
2020-02-10,5.119999885559082,5.159999847412109,4.880000114440918,5.079999923706055,5.079999923706055,640775
2020-02-11,5.0,5.380000114440918,4.940000057220459,5.119999885559082,5.119999885559082,726425
2020-02-12,5.119999885559082,5.320000171661377,4.980000019073486,5.0,5.0,667475
2020-02-13,5.079999923706055,5.239999771118164,4.960000038146973,5.079999923706055,5.079999923706055,551175
2020-02-14,5.199999809265137,6.079999923706055,5.079999923706055,6.079999923706055,6.079999923706055,6597175
2020-02-18,5.920000076293945,6.0,5.599999904632568,5.880000114440918,5.880000114440918,1707075
2020-02-19,5.880000114440918,6.119999885559082,5.679999828338623,5.760000228881836,5.760000228881836,806875
2020-02-20,5.679999828338623,6.039999961853027,5.679999828338623,5.760000228881836,5.760000228881836,772250
2020-02-21,5.760000228881836,5.840000152587891,5.599999904632568,5.639999866485596,5.639999866485596,501725
2020-02-24,5.360000133514404,5.480000019073486,5.199999809265137,5.239999771118164,5.239999771118164,1050550
2020-02-25,5.28000020980835,5.440000057220459,4.960000038146973,5.039999961853027,5.039999961853027,605900
2020-02-26,5.079999923706055,5.28000020980835,4.940000057220459,4.960000038146973,4.960000038146973,693725
2020-02-27,4.880000114440918,4.920000076293945,4.440000057220459,4.71999979019165,4.71999979019165,841375
2020-02-28,4.480000019073486,4.519999980926514,4.199999809265137,4.360000133514404,4.360000133514404,823750
2020-03-02,4.440000057220459,4.639999866485596,4.360000133514404,4.440000057220459,4.440000057220459,438575
2020-03-03,4.599999904632568,4.840000152587891,4.360000133514404,4.480000019073486,4.480000019073486,845950
2020-03-04,4.559999942779541,5.079999923706055,4.559999942779541,4.920000076293945,4.920000076293945,554850
2020-03-05,4.800000190734863,4.920000076293945,4.639999866485596,4.800000190734863,4.800000190734863,327575
2020-03-06,4.639999866485596,4.71999979019165,4.320000171661377,4.360000133514404,4.360000133514404,653825
2020-03-09,3.7200000286102295,4.0,3.559999942779541,3.75600004196167,3.75600004196167,816600
2020-03-10,3.9600000381469727,4.079999923706055,3.799999952316284,3.9040000438690186,3.9040000438690186,505475
2020-03-11,3.7799999713897705,3.880000114440918,3.631999969482422,3.752000093460083,3.752000093460083,626025
2020-03-12,3.240000009536743,3.240000009536743,2.4800000190734863,2.9519999027252197,2.9519999027252197,786200
2020-03-13,3.240000009536743,3.388000011444092,2.9200000762939453,3.115999937057495,3.115999937057495,488525
2020-03-16,2.799999952316284,3.115999937057495,2.759999990463257,3.0799999237060547,3.0799999237060547,665450
2020-03-17,2.1600000858306885,2.200000047683716,1.7999999523162842,1.7999999523162842,1.7999999523162842,1787150
2020-03-18,1.7999999523162842,1.8079999685287476,1.3839999437332153,1.4559999704360962,1.4559999704360962,1250225
2020-03-19,1.559999942779541,2.640000104904175,1.472000002861023,2.140000104904175,2.140000104904175,1911675
2020-03-20,2.559999942779541,3.200000047683716,2.431999921798706,2.611999988555908,2.611999988555908,1908100
2020-03-23,2.7320001125335693,2.7960000038146973,2.2200000286102295,2.5239999294281006,2.5239999294281006,1033800
2020-03-24,2.635999917984009,2.759999990463257,2.5199999809265137,2.6760001182556152,2.6760001182556152,594400
2020-03-25,2.7200000286102295,3.3239998817443848,2.680000066757202,2.944000005722046,2.944000005722046,1007575
2020-03-26,3.2360000610351562,4.559999942779541,3.200000047683716,4.159999847412109,4.159999847412109,2598775
2020-03-27,4.480000019073486,4.920000076293945,4.0,4.360000133514404,4.360000133514404,2238750
2020-03-30,3.7200000286102295,3.9600000381469727,3.0799999237060547,3.1600000858306885,3.1600000858306885,1969600
2020-03-31,3.200000047683716,3.691999912261963,2.9200000762939453,3.3480000495910645,3.3480000495910645,960100
2020-04-01,3.1600000858306885,3.319999933242798,2.6679999828338623,2.74399995803833,2.74399995803833,1181750
2020-04-02,2.799999952316284,3.0999999046325684,2.799999952316284,2.8919999599456787,2.8919999599456787,976625
2020-04-03,2.9200000762939453,2.9600000381469727,2.563999891281128,2.700000047683716,2.700000047683716,669625
2020-04-06,2.9200000762939453,3.052000045776367,2.687999963760376,2.7679998874664307,2.7679998874664307,880500
2020-04-07,2.9600000381469727,3.0239999294281006,2.7200000286102295,2.759999990463257,2.759999990463257,801825
2020-04-08,2.119999885559082,2.2799999713897705,1.940000057220459,2.072000026702881,2.072000026702881,9487150
2020-04-09,2.1600000858306885,2.1600000858306885,2.003999948501587,2.0320000648498535,2.0320000648498535,3015100
2020-04-13,2.063999891281128,2.063999891281128,1.8680000305175781,1.9320000410079956,1.9320000410079956,2060400
2020-04-14,1.972000002861023,2.0399999618530273,1.9199999570846558,1.9880000352859497,1.9880000352859497,1544525
2020-04-15,2.1600000858306885,2.187999963760376,1.9040000438690186,2.01200008392334,2.01200008392334,3835375
2020-04-16,2.059999942779541,2.059999942779541,1.9199999570846558,1.944000005722046,1.944000005722046,1406725
2020-04-17,2.0199999809265137,2.0199999809265137,1.9320000410079956,1.968000054359436,1.968000054359436,1464325
2020-04-20,1.9880000352859497,2.0,1.8919999599456787,1.9559999704360962,1.9559999704360962,1403900
2020-04-21,1.9320000410079956,1.9479999542236328,1.8799999952316284,1.8919999599456787,1.8919999599456787,862775
2020-04-22,1.9199999570846558,1.9600000381469727,1.8480000495910645,1.8799999952316284,1.8799999952316284,1033350
2020-04-23,1.871999979019165,1.899999976158142,1.8559999465942383,1.8960000276565552,1.8960000276565552,933475
2020-04-24,1.8680000305175781,1.9600000381469727,1.8240000009536743,1.9279999732971191,1.9279999732971191,1320650
2020-04-27,2.0,2.200000047683716,1.940000057220459,2.140000104904175,2.140000104904175,2633075
2020-04-28,2.240000009536743,2.2960000038146973,2.0399999618530273,2.115999937057495,2.115999937057495,1387325
2020-04-29,2.0799999237060547,2.196000099182129,2.007999897003174,2.068000078201294,2.068000078201294,1512150
2020-04-30,2.063999891281128,2.072000026702881,1.9600000381469727,2.059999942779541,2.059999942779541,1306500
2020-05-01,2.0199999809265137,2.0199999809265137,1.9199999570846558,1.9800000190734863,1.9800000190734863,941400
2020-05-04,1.9759999513626099,2.0999999046325684,1.9520000219345093,2.0799999237060547,2.0799999237060547,1201450
2020-05-05,2.119999885559082,2.119999885559082,2.0,2.0280001163482666,2.0280001163482666,706475
2020-05-06,2.0399999618530273,2.063999891281128,1.9759999513626099,1.9880000352859497,1.9880000352859497,436325
2020-05-07,2.0,2.0799999237060547,1.9800000190734863,2.052000045776367,2.052000045776367,607975
2020-05-08,2.0799999237060547,2.0799999237060547,1.9119999408721924,1.9600000381469727,1.9600000381469727,878700
2020-05-11,2.0,2.0199999809265137,1.8839999437332153,1.996000051498413,1.996000051498413,1169850
2020-05-12,1.9600000381469727,2.0160000324249268,1.9199999570846558,1.9240000247955322,1.9240000247955322,713325
2020-05-13,1.9199999570846558,1.9279999732971191,1.7200000286102295,1.7920000553131104,1.7920000553131104,1122175
2020-05-14,1.7200000286102295,1.7999999523162842,1.600000023841858,1.7480000257492065,1.7480000257492065,932325
2020-05-15,1.840000033378601,2.1559998989105225,1.8200000524520874,2.124000072479248,2.124000072479248,3495225
2020-05-18,2.5199999809265137,3.559999942779541,2.2839999198913574,3.0,3.0,12420850
2020-05-19,2.4000000953674316,2.4560000896453857,2.003999948501587,2.119999885559082,2.119999885559082,11337125
2020-05-20,2.119999885559082,2.119999885559082,1.9199999570846558,1.9559999704360962,1.9559999704360962,5062150
2020-05-21,2.0399999618530273,2.119999885559082,1.9600000381469727,2.0759999752044678,2.0759999752044678,6592625
2020-05-22,2.0999999046325684,2.5999999046325684,2.0,2.51200008392334,2.51200008392334,18597575
2020-05-26,2.819999933242798,3.0799999237060547,2.6440000534057617,2.7760000228881836,2.7760000228881836,10220150
2020-05-27,2.880000114440918,2.884000062942505,2.440000057220459,2.7039999961853027,2.7039999961853027,5485750
2020-05-28,2.700000047683716,2.936000108718872,2.559999942779541,2.7239999771118164,2.7239999771118164,4893475
2020-05-29,2.5239999294281006,2.640000104904175,2.440000057220459,2.5320000648498535,2.5320000648498535,3001000
2020-06-01,2.9800000190734863,3.01200008392334,2.684000015258789,2.759999990463257,2.759999990463257,7858700
2020-06-02,2.828000068664551,2.828000068664551,2.5999999046325684,2.619999885559082,2.619999885559082,5959975
2020-06-03,2.752000093460083,2.7839999198913574,2.631999969482422,2.7639999389648438,2.7639999389648438,7767825
2020-06-04,2.799999952316284,3.0799999237060547,2.799999952316284,2.9200000762939453,2.9200000762939453,9803650
2020-06-05,3.059999942779541,3.319999933242798,2.931999921798706,3.2279999256134033,3.2279999256134033,7227525
2020-06-08,3.5959999561309814,4.760000228881836,3.440000057220459,4.760000228881836,4.760000228881836,22506825
2020-06-09,4.840000152587891,5.159999847412109,4.199999809265137,4.360000133514404,4.360000133514404,13501350
2020-06-10,4.519999980926514,4.599999904632568,4.0,4.039999961853027,4.039999961853027,7689900
2020-06-11,4.679999828338623,4.760000228881836,3.559999942779541,3.7880001068115234,3.7880001068115234,18543975
2020-06-12,4.239999771118164,4.320000171661377,3.799999952316284,4.079999923706055,4.079999923706055,6447225
2020-06-15,3.759999990463257,4.0,3.680000066757202,3.9200000762939453,3.9200000762939453,4812825
2020-06-16,4.039999961853027,4.079999923706055,3.7039999961853027,3.740000009536743,3.740000009536743,4762600
2020-06-17,3.4800000190734863,3.4800000190734863,3.240000009536743,3.2920000553131104,3.2920000553131104,6042225
2020-06-18,3.3399999141693115,3.388000011444092,3.0799999237060547,3.128000020980835,3.128000020980835,4753850
2020-06-19,3.119999885559082,3.119999885559082,2.931999921798706,3.0160000324249268,3.0160000324249268,4239000
2020-06-22,2.9560000896453857,3.0,2.8480000495910645,2.9519999027252197,2.9519999027252197,2909300
2020-06-23,2.98799991607666,3.440000057220459,2.9800000190734863,3.124000072479248,3.124000072479248,5804600
2020-06-24,3.0,3.059999942779541,2.8559999465942383,2.9839999675750732,2.9839999675750732,2893525
2020-06-25,2.9719998836517334,2.996000051498413,2.880000114440918,2.9240000247955322,2.9240000247955322,1520700
2020-06-26,2.9200000762939453,2.927999973297119,2.7200000286102295,2.7679998874664307,2.7679998874664307,2173100
2020-06-29,2.828000068664551,2.996000051498413,2.628000020980835,2.940000057220459,2.940000057220459,2894775
2020-06-30,2.940000057220459,2.9800000190734863,2.880000114440918,2.9560000896453857,2.9560000896453857,1578325
2020-07-01,3.0,3.2799999713897705,2.9200000762939453,2.9600000381469727,2.9600000381469727,2640325
2020-07-02,3.01200008392334,3.0360000133514404,2.859999895095825,2.8919999599456787,2.8919999599456787,1667500
2020-07-06,2.940000057220459,2.9519999027252197,2.8399999141693115,2.8399999141693115,2.8399999141693115,1858825
2020-07-07,2.808000087738037,2.9200000762939453,2.799999952316284,2.803999900817871,2.803999900817871,1162250
2020-07-08,2.8399999141693115,2.859999895095825,2.7239999771118164,2.7760000228881836,2.7760000228881836,1303750
2020-07-09,3.0,3.0360000133514404,2.8440001010894775,2.940000057220459,2.940000057220459,3978300
2020-07-10,3.0199999809265137,3.0399999618530273,2.8919999599456787,3.0,3.0,3103400
2020-07-13,3.0799999237060547,3.2799999713897705,2.880000114440918,2.9079999923706055,2.9079999923706055,4813750
2020-07-14,2.9600000381469727,2.9839999675750732,2.799999952316284,2.9079999923706055,2.9079999923706055,1703950
2020-07-15,2.9800000190734863,3.0399999618530273,2.9200000762939453,3.0,3.0,1973075
2020-07-16,3.0,3.0,2.8919999599456787,2.9800000190734863,2.9800000190734863,1178025
2020-07-17,2.9600000381469727,3.0199999809265137,2.880000114440918,2.9000000953674316,2.9000000953674316,1568400
2020-07-20,2.880000114440918,2.940000057220459,2.812000036239624,2.8919999599456787,2.8919999599456787,1516825
2020-07-21,2.8399999141693115,2.9600000381469727,2.8399999141693115,2.927999973297119,2.927999973297119,1374725
2020-07-22,2.9600000381469727,2.9600000381469727,2.8519999980926514,2.868000030517578,2.868000030517578,1303550
2020-07-23,2.880000114440918,2.8959999084472656,2.828000068664551,2.8359999656677246,2.8359999656677246,1487875
2020-07-24,2.859999895095825,2.859999895095825,2.7639999389648438,2.828000068664551,2.828000068664551,1280525
2020-07-27,2.8399999141693115,2.859999895095825,2.759999990463257,2.799999952316284,2.799999952316284,1337100
2020-07-28,2.759999990463257,2.9600000381469727,2.747999906539917,2.8959999084472656,2.8959999084472656,3478800
2020-07-29,2.880000114440918,2.880000114440918,2.75600004196167,2.819999933242798,2.819999933242798,2111550
2020-07-30,2.799999952316284,2.799999952316284,2.640000104904175,2.752000093460083,2.752000093460083,1909650
2020-07-31,2.740000009536743,2.759999990463257,2.680000066757202,2.700000047683716,2.700000047683716,1243550
2020-08-03,2.752000093460083,3.0,2.5999999046325684,2.8959999084472656,2.8959999084472656,3682675
2020-08-04,2.868000030517578,2.9200000762939453,2.759999990463257,2.9159998893737793,2.9159998893737793,2458650
2020-08-05,2.880000114440918,2.880000114440918,2.7799999713897705,2.812000036239624,2.812000036239624,1475850
2020-08-06,2.799999952316284,2.803999900817871,2.7200000286102295,2.7880001068115234,2.7880001068115234,1371975
2020-08-07,2.759999990463257,2.7720000743865967,2.7200000286102295,2.75600004196167,2.75600004196167,1038350
2020-08-10,2.8320000171661377,2.9079999923706055,2.75600004196167,2.868000030517578,2.868000030517578,2513825
2020-08-11,2.864000082015991,2.9000000953674316,2.759999990463257,2.819999933242798,2.819999933242798,1638450
2020-08-12,2.799999952316284,2.875999927520752,2.7799999713897705,2.8480000495910645,2.8480000495910645,1939775
2020-08-13,2.8440001010894775,3.319999933242798,2.8399999141693115,3.240000009536743,3.240000009536743,12884400
2020-08-14,3.115999937057495,3.2760000228881836,3.0160000324249268,3.1600000858306885,3.1600000858306885,4851025
2020-08-17,3.1600000858306885,3.184000015258789,3.007999897003174,3.0160000324249268,3.0160000324249268,2420625
2020-08-18,3.068000078201294,3.072000026702881,2.9200000762939453,2.9519999027252197,2.9519999027252197,1898375
2020-08-19,2.940000057220459,2.9839999675750732,2.880000114440918,2.888000011444092,2.888000011444092,1290975
2020-08-20,2.9079999923706055,2.9079999923706055,2.799999952316284,2.8320000171661377,2.8320000171661377,1280950
2020-08-21,2.7920000553131104,2.8399999141693115,2.7799999713897705,2.812000036239624,2.812000036239624,1097275
2020-08-24,2.8399999141693115,2.880000114440918,2.752000093460083,2.7920000553131104,2.7920000553131104,1734750
2020-08-25,2.8239998817443848,2.880000114440918,2.7799999713897705,2.871999979019165,2.871999979019165,2049775
2020-08-26,2.884000062942505,2.9000000953674316,2.799999952316284,2.815999984741211,2.815999984741211,1139025
2020-08-27,2.828000068664551,2.8320000171661377,2.7720000743865967,2.799999952316284,2.799999952316284,1013800
2020-08-28,2.799999952316284,2.875999927520752,2.7799999713897705,2.868000030517578,2.868000030517578,997700
2020-08-31,2.927999973297119,2.927999973297119,2.799999952316284,2.875999927520752,2.875999927520752,1645425
2020-09-01,2.8519999980926514,2.859999895095825,2.7799999713897705,2.799999952316284,2.799999952316284,1572600
2020-09-02,2.7960000038146973,2.815999984741211,2.740000009536743,2.759999990463257,2.759999990463257,1539850
2020-09-03,2.747999906539917,2.812000036239624,2.680000066757202,2.700000047683716,2.700000047683716,1512975
2020-09-04,2.700000047683716,2.7200000286102295,2.4200000762939453,2.7200000286102295,2.7200000286102295,1690450
2020-09-08,2.799999952316284,2.799999952316284,2.640000104904175,2.752000093460083,2.752000093460083,1651900
2020-09-09,2.759999990463257,2.819999933242798,2.7039999961853027,2.815999984741211,2.815999984741211,1469700
2020-09-10,2.8399999141693115,2.880000114440918,2.799999952316284,2.8399999141693115,2.8399999141693115,1105975
2020-09-11,2.8559999465942383,2.8559999465942383,2.7079999446868896,2.759999990463257,2.759999990463257,1126650
2020-09-14,2.759999990463257,2.828000068664551,2.759999990463257,2.799999952316284,2.799999952316284,916750
2020-09-15,2.8399999141693115,3.0,2.799999952316284,2.9600000381469727,2.9600000381469727,2705600
2020-09-16,3.0,3.0399999618530273,2.940000057220459,3.0,3.0,1915025
2020-09-17,2.9200000762939453,3.0399999618530273,2.880000114440918,3.0399999618530273,3.0399999618530273,1149975
2020-09-18,3.0280001163482666,3.119999885559082,2.996000051498413,3.0959999561309814,3.0959999561309814,1714875
2020-09-21,2.9600000381469727,3.0,2.799999952316284,2.8359999656677246,2.8359999656677246,1223950
2020-09-22,2.8320000171661377,2.8959999084472656,2.8239998817443848,2.8519999980926514,2.8519999980926514,839475
2020-09-23,2.812000036239624,2.819999933242798,2.640000104904175,2.6679999828338623,2.6679999828338623,2053700
2020-09-24,2.6440000534057617,2.6760001182556152,2.5199999809265137,2.5799999237060547,2.5799999237060547,1409225
2020-09-25,2.5799999237060547,2.640000104904175,2.5320000648498535,2.631999969482422,2.631999969482422,982100
2020-09-28,2.640000104904175,2.6480000019073486,2.572000026702881,2.628000020980835,2.628000020980835,752875
2020-09-29,2.5999999046325684,2.680000066757202,2.559999942779541,2.6080000400543213,2.6080000400543213,1083600
2020-09-30,2.559999942779541,2.671999931335449,2.559999942779541,2.635999917984009,2.635999917984009,741450
2020-10-01,2.640000104904175,2.6600000858306885,2.5320000648498535,2.5999999046325684,2.5999999046325684,1114550
2020-10-02,2.5199999809265137,2.6040000915527344,2.5199999809265137,2.6040000915527344,2.6040000915527344,833625
2020-10-05,2.624000072479248,2.7760000228881836,2.619999885559082,2.759999990463257,2.759999990463257,1834250
2020-10-06,2.759999990463257,2.8359999656677246,2.640000104904175,2.6519999504089355,2.6519999504089355,992400
2020-10-07,2.680000066757202,2.8399999141693115,2.680000066757202,2.7679998874664307,2.7679998874664307,1452475
2020-10-08,2.799999952316284,3.059999942779541,2.799999952316284,3.0,3.0,3415100
2020-10-09,3.1600000858306885,3.200000047683716,3.01200008392334,3.052000045776367,3.052000045776367,2709675
2020-10-12,3.0799999237060547,3.4000000953674316,3.0399999618530273,3.2079999446868896,3.2079999446868896,3825075
2020-10-13,3.187999963760376,3.200000047683716,3.052000045776367,3.0880000591278076,3.0880000591278076,1280875
2020-10-14,3.1040000915527344,3.140000104904175,2.9800000190734863,3.0320000648498535,3.0320000648498535,1181550
2020-10-15,2.9200000762939453,2.9600000381469727,2.868000030517578,2.9240000247955322,2.9240000247955322,786000
2020-10-16,2.9600000381469727,3.007999897003174,2.9040000438690186,2.9839999675750732,2.9839999675750732,853675
2020-10-19,3.0,3.140000104904175,2.940000057220459,3.1040000915527344,3.1040000915527344,2524525
2020-10-20,3.140000104904175,3.140000104904175,3.007999897003174,3.072000026702881,3.072000026702881,1032875
2020-10-21,3.0399999618530273,3.184000015258789,3.0320000648498535,3.0439999103546143,3.0439999103546143,1118900
2020-10-22,3.0799999237060547,3.0999999046325684,3.003999948501587,3.0160000324249268,3.0160000324249268,862150
2020-10-23,3.0,3.115999937057495,3.0,3.0759999752044678,3.0759999752044678,839150
2020-10-26,3.072000026702881,3.0759999752044678,2.8239998817443848,2.8399999141693115,2.8399999141693115,1577225
2020-10-27,2.884000062942505,2.9760000705718994,2.815999984741211,2.8320000171661377,2.8320000171661377,724575
2020-10-28,2.803999900817871,2.98799991607666,2.799999952316284,2.9040000438690186,2.9040000438690186,1167475
2020-10-29,2.9200000762939453,2.9200000762939453,2.8239998817443848,2.875999927520752,2.875999927520752,1457275
2020-10-30,2.359999895095825,2.5999999046325684,2.319999933242798,2.431999921798706,2.431999921798706,5338800
2020-11-02,2.4600000381469727,2.628000020980835,2.440000057220459,2.5920000076293945,2.5920000076293945,2674750
2020-11-03,2.7200000286102295,2.7200000286102295,2.5239999294281006,2.563999891281128,2.563999891281128,1791875
2020-11-04,2.5999999046325684,2.5999999046325684,2.4600000381469727,2.4800000190734863,2.4800000190734863,1729850
2020-11-05,2.640000104904175,2.9600000381469727,2.6040000915527344,2.9040000438690186,2.9040000438690186,5735350
2020-11-06,3.196000099182129,4.079999923706055,3.1640000343322754,3.5840001106262207,3.5840001106262207,23535500
2020-11-09,4.360000133514404,4.360000133514404,3.200000047683716,3.319999933242798,3.319999933242798,14077050
2020-11-10,3.1600000858306885,3.2279999256134033,2.940000057220459,3.119999885559082,3.119999885559082,4666750
2020-11-11,2.9839999675750732,3.2200000286102295,2.9639999866485596,3.115999937057495,3.115999937057495,3517450
2020-11-12,3.01200008392334,3.2079999446868896,2.940000057220459,2.9639999866485596,2.9639999866485596,2756200
2020-11-13,3.0,3.055999994277954,2.936000108718872,3.0,3.0,5701175
2020-11-16,3.0399999618530273,3.0759999752044678,2.931999921798706,2.9679999351501465,2.9679999351501465,1714950
2020-11-17,2.940000057220459,3.063999891281128,2.931999921798706,3.0239999294281006,3.0239999294281006,1894075
2020-11-18,3.0,3.052000045776367,2.880000114440918,2.9000000953674316,2.9000000953674316,1863625
2020-11-19,2.940000057220459,2.947999954223633,2.8440001010894775,2.884000062942505,2.884000062942505,1663650
2020-11-20,2.9040000438690186,2.927999973297119,2.819999933242798,2.871999979019165,2.871999979019165,2154425
2020-11-23,2.871999979019165,2.936000108718872,2.8399999141693115,2.9079999923706055,2.9079999923706055,2336800
2020-11-24,2.9079999923706055,2.9079999923706055,2.9079999923706055,2.9079999923706055,2.9079999923706055,919925
2020-11-25,3.140000104904175,3.2119998931884766,3.059999942779541,3.1600000858306885,3.1600000858306885,2073350
2020-11-27,3.200000047683716,3.496000051498413,3.1440000534057617,3.4600000381469727,3.4600000381469727,3518225
2020-11-30,3.864000082015991,4.519999980926514,3.5199999809265137,4.480000019073486,4.480000019073486,28075475
2020-12-01,5.28000020980835,5.320000171661377,4.0,4.28000020980835,4.28000020980835,35049900
2020-12-02,4.360000133514404,4.679999828338623,4.199999809265137,4.679999828338623,4.679999828338623,17629325
2020-12-03,4.559999942779541,4.760000228881836,4.440000057220459,4.679999828338623,4.679999828338623,13222150
2020-12-04,4.599999904632568,4.639999866485596,4.239999771118164,4.320000171661377,4.320000171661377,19137875
2020-12-07,4.079999923706055,4.236000061035156,3.799999952316284,4.039999961853027,4.039999961853027,8667375
2020-12-08,3.9240000247955322,4.199999809265137,3.9119999408721924,4.119999885559082,4.119999885559082,3706825
2020-12-09,4.119999885559082,4.159999847412109,3.7799999713897705,3.9200000762939453,3.9200000762939453,3644550
2020-12-10,3.9119999408721924,4.079999923706055,3.7799999713897705,4.0,4.0,2500575
2020-12-11,4.0,4.079999923706055,3.9600000381469727,4.0,4.0,2444650
2020-12-14,4.400000095367432,4.400000095367432,4.039999961853027,4.039999961853027,4.039999961853027,6012200
2020-12-15,4.199999809265137,4.440000057220459,4.079999923706055,4.360000133514404,4.360000133514404,6119575
2020-12-16,4.480000019073486,4.519999980926514,4.320000171661377,4.360000133514404,4.360000133514404,5213550
2020-12-17,4.320000171661377,4.400000095367432,4.199999809265137,4.199999809265137,4.199999809265137,2991850
2020-12-18,4.199999809265137,4.239999771118164,4.159999847412109,4.199999809265137,4.199999809265137,2356800
2020-12-21,4.039999961853027,4.159999847412109,4.0,4.0,4.0,2638075
2020-12-22,4.159999847412109,4.159999847412109,4.039999961853027,4.079999923706055,4.079999923706055,4061650
2020-12-23,3.859999895095825,4.329999923706055,3.8499999046325684,4.230000019073486,4.230000019073486,5766000
2020-12-24,4.269999980926514,4.289999961853027,3.990000009536743,4.059999942779541,4.059999942779541,2883200
2020-12-28,4.159999847412109,4.289999961853027,3.950000047683716,4.03000020980835,4.03000020980835,3680000
2020-12-29,4.03000020980835,4.093999862670898,3.75,3.799999952316284,3.799999952316284,3913200
2020-12-30,3.7300000190734863,3.940000057220459,3.680000066757202,3.8499999046325684,3.8499999046325684,2799100
