Date,Open,High,Low,Close,Adj Close,Volume
2017-09-07,9.75,9.789999961853027,9.75,9.779999732971191,9.779999732971191,530700
2017-09-08,9.800000190734863,9.800000190734863,9.800000190734863,9.800000190734863,9.800000190734863,100
2017-09-11,9.800000190734863,9.800000190734863,9.779999732971191,9.779999732971191,9.779999732971191,5300
2017-09-12,9.779999732971191,10.109999656677246,9.770000457763672,9.819999694824219,9.819999694824219,119400
2017-09-13,9.819999694824219,9.949999809265137,9.819999694824219,9.899999618530273,9.899999618530273,21100
2017-09-14,9.890000343322754,9.949999809265137,9.779999732971191,9.779999732971191,9.779999732971191,3500
2017-09-15,9.779999732971191,9.779999732971191,9.779999732971191,9.779999732971191,9.779999732971191,0
2017-09-18,9.779999732971191,9.789999961853027,9.779999732971191,9.779999732971191,9.779999732971191,3600
2017-09-19,9.779999732971191,9.829999923706055,9.779999732971191,9.779999732971191,9.779999732971191,1200
2017-09-20,9.8100004196167,9.8100004196167,9.8100004196167,9.8100004196167,9.8100004196167,15000
2017-09-21,9.8100004196167,9.8100004196167,9.795000076293945,9.8100004196167,9.8100004196167,5700
2017-09-22,9.779999732971191,9.802000045776367,9.779999732971191,9.800000190734863,9.800000190734863,8800
2017-09-25,9.800000190734863,9.84000015258789,9.789999961853027,9.800000190734863,9.800000190734863,59800
2017-09-26,9.789999961853027,9.789999961853027,9.789999961853027,9.789999961853027,9.789999961853027,500
2017-09-27,9.789999961853027,9.8100004196167,9.779999732971191,9.8100004196167,9.8100004196167,36300
2017-09-28,9.829999923706055,10.019000053405762,9.8149995803833,9.819999694824219,9.819999694824219,61600
2017-09-29,9.819999694824219,9.819999694824219,9.819999694824219,9.819999694824219,9.819999694824219,0
2017-10-02,9.8100004196167,9.850000381469727,9.8100004196167,9.833000183105469,9.833000183105469,9300
2017-10-03,9.829999923706055,9.84000015258789,9.8100004196167,9.8100004196167,9.8100004196167,3100
2017-10-04,9.8100004196167,9.84000015258789,9.8100004196167,9.812000274658203,9.812000274658203,17400
2017-10-05,9.800000190734863,9.800000190734863,9.800000190734863,9.800000190734863,9.800000190734863,50000
2017-10-06,9.800000190734863,9.819999694824219,9.800000190734863,9.819999694824219,9.819999694824219,600
2017-10-09,9.819999694824219,9.819999694824219,9.8100004196167,9.8100004196167,9.8100004196167,800
2017-10-10,9.829999923706055,9.84000015258789,9.8100004196167,9.8100004196167,9.8100004196167,6400
2017-10-11,9.8100004196167,9.8100004196167,9.8100004196167,9.8100004196167,9.8100004196167,0
2017-10-12,9.819999694824219,9.819999694824219,9.760000228881836,9.789999961853027,9.789999961853027,400
2017-10-13,9.789999961853027,9.789999961853027,9.789999961853027,9.789999961853027,9.789999961853027,0
2017-10-16,9.802000045776367,9.802000045776367,9.802000045776367,9.802000045776367,9.802000045776367,1000
2017-10-17,9.800000190734863,9.800999641418457,9.800000190734863,9.800000190734863,9.800000190734863,21500
2017-10-18,9.800000190734863,9.829999923706055,9.800000190734863,9.819999694824219,9.819999694824219,35700
2017-10-19,9.819999694824219,9.819999694824219,9.819000244140625,9.819999694824219,9.819999694824219,39600
2017-10-20,9.829999923706055,9.829999923706055,9.829999923706055,9.829999923706055,9.829999923706055,100
2017-10-23,9.829999923706055,9.829999923706055,9.829999923706055,9.829999923706055,9.829999923706055,0
2017-10-24,9.800000190734863,9.800000190734863,9.800000190734863,9.800000190734863,9.800000190734863,1900
2017-10-25,9.75,9.8100004196167,9.75,9.8100004196167,9.8100004196167,19700
2017-10-26,9.819999694824219,9.958000183105469,9.819999694824219,9.949999809265137,9.949999809265137,9400
2017-10-27,9.819999694824219,9.819999694824219,9.8100004196167,9.8100004196167,9.8100004196167,4100
2017-10-30,9.800000190734863,9.821000099182129,9.779999732971191,9.8100004196167,9.8100004196167,351000
2017-10-31,9.8100004196167,9.8100004196167,9.8100004196167,9.8100004196167,9.8100004196167,0
2017-11-01,9.8100004196167,9.8100004196167,9.8100004196167,9.8100004196167,9.8100004196167,0
2017-11-02,9.8100004196167,9.8100004196167,9.8100004196167,9.8100004196167,9.8100004196167,0
2017-11-03,9.8100004196167,9.8100004196167,9.8100004196167,9.8100004196167,9.8100004196167,0
2017-11-06,9.829999923706055,9.829999923706055,9.800000190734863,9.800000190734863,9.800000190734863,4700
2017-11-07,9.800000190734863,9.8100004196167,9.798999786376953,9.800000190734863,9.800000190734863,26800
2017-11-08,9.8100004196167,9.8100004196167,9.8100004196167,9.8100004196167,9.8100004196167,200
2017-11-09,9.800000190734863,9.800000190734863,9.800000190734863,9.800000190734863,9.800000190734863,9000
2017-11-10,9.79800033569336,9.800000190734863,9.788000106811523,9.800000190734863,9.800000190734863,9100
2017-11-13,9.8100004196167,9.8100004196167,9.8100004196167,9.8100004196167,9.8100004196167,1500
2017-11-14,9.8100004196167,9.8100004196167,9.789999961853027,9.8100004196167,9.8100004196167,1100
2017-11-15,9.8100004196167,10.0,9.8100004196167,10.0,10.0,10100
2017-11-16,9.949999809265137,9.949999809265137,9.899999618530273,9.899999618530273,9.899999618530273,1000
2017-11-17,9.899999618530273,9.899999618530273,9.899999618530273,9.899999618530273,9.899999618530273,0
2017-11-20,9.899999618530273,9.899999618530273,9.899999618530273,9.899999618530273,9.899999618530273,0
2017-11-21,15.0,15.0,15.0,15.0,15.0,100
2017-11-22,12.0,12.0,9.800000190734863,9.890000343322754,9.890000343322754,92100
2017-11-24,9.890000343322754,9.890000343322754,9.890000343322754,9.890000343322754,9.890000343322754,0
2017-11-27,9.800000190734863,9.819999694824219,9.800000190734863,9.800000190734863,9.800000190734863,3200
2017-11-28,9.800000190734863,9.800000190734863,9.800000190734863,9.800000190734863,9.800000190734863,1000
2017-11-29,9.800000190734863,9.800000190734863,9.800000190734863,9.800000190734863,9.800000190734863,0
2017-11-30,9.8100004196167,9.8100004196167,9.800000190734863,9.800000190734863,9.800000190734863,2600
2017-12-01,9.779999732971191,9.779999732971191,9.779999732971191,9.779999732971191,9.779999732971191,800
2017-12-04,9.829999923706055,9.854000091552734,9.75,9.760000228881836,9.760000228881836,10400
2017-12-05,9.777000427246094,9.812000274658203,9.75,9.765000343322754,9.765000343322754,19400
2017-12-06,9.760000228881836,9.760000228881836,9.75,9.75,9.75,200
2017-12-07,9.779999732971191,9.819999694824219,9.75,9.800000190734863,9.800000190734863,19800
2017-12-08,9.8100004196167,9.8100004196167,9.800000190734863,9.800000190734863,9.800000190734863,400
2017-12-11,9.8100004196167,9.8100004196167,9.8100004196167,9.8100004196167,9.8100004196167,1100
2017-12-12,9.829999923706055,9.829999923706055,9.819999694824219,9.819999694824219,9.819999694824219,2200
2017-12-13,9.850000381469727,9.90999984741211,9.850000381469727,9.899999618530273,9.899999618530273,2700
2017-12-14,9.899999618530273,9.899999618530273,9.899999618530273,9.899999618530273,9.899999618530273,0
2017-12-15,9.850000381469727,9.880000114440918,9.8149995803833,9.8149995803833,9.8149995803833,27000
2017-12-18,9.8149995803833,9.8149995803833,9.8149995803833,9.8149995803833,9.8149995803833,0
2017-12-19,9.8149995803833,9.8149995803833,9.8149995803833,9.8149995803833,9.8149995803833,0
2017-12-20,9.8100004196167,9.8100004196167,9.8100004196167,9.8100004196167,9.8100004196167,500
2017-12-21,9.989999771118164,10.0,9.989999771118164,10.0,10.0,3300
2017-12-22,10.0,10.0,10.0,10.0,10.0,0
2017-12-26,10.0,10.0,10.0,10.0,10.0,0
2017-12-27,10.0,10.0,10.0,10.0,10.0,0
2017-12-28,9.899999618530273,9.899999618530273,9.871999740600586,9.871999740600586,9.871999740600586,2600
2017-12-29,9.859999656677246,9.859999656677246,9.859999656677246,9.859999656677246,9.859999656677246,100
2018-01-02,9.859999656677246,9.859999656677246,9.859999656677246,9.859999656677246,9.859999656677246,0
2018-01-03,9.859999656677246,9.859999656677246,9.859999656677246,9.859999656677246,9.859999656677246,0
2018-01-04,9.859999656677246,9.859999656677246,9.859999656677246,9.859999656677246,9.859999656677246,0
2018-01-05,9.859999656677246,9.859999656677246,9.859999656677246,9.859999656677246,9.859999656677246,0
2018-01-08,9.859999656677246,9.859999656677246,9.859999656677246,9.859999656677246,9.859999656677246,0
2018-01-09,9.859999656677246,9.859999656677246,9.819999694824219,9.819999694824219,9.819999694824219,216100
2018-01-10,9.819999694824219,9.819999694824219,9.819999694824219,9.819999694824219,9.819999694824219,0
2018-01-11,9.819999694824219,9.819999694824219,9.819999694824219,9.819999694824219,9.819999694824219,0
2018-01-12,9.819999694824219,9.819999694824219,9.819999694824219,9.819999694824219,9.819999694824219,0
2018-01-16,9.8100004196167,9.8100004196167,9.8100004196167,9.8100004196167,9.8100004196167,700
2018-01-17,9.8100004196167,9.8100004196167,9.8100004196167,9.8100004196167,9.8100004196167,0
2018-01-18,9.8100004196167,9.8100004196167,9.8100004196167,9.8100004196167,9.8100004196167,0
2018-01-19,9.8100004196167,9.8100004196167,9.8100004196167,9.8100004196167,9.8100004196167,0
2018-01-22,9.859999656677246,9.859999656677246,9.859999656677246,9.859999656677246,9.859999656677246,100
2018-01-23,9.859999656677246,9.859999656677246,9.859999656677246,9.859999656677246,9.859999656677246,0
2018-01-24,9.859999656677246,9.859999656677246,9.859999656677246,9.859999656677246,9.859999656677246,0
2018-01-25,9.859999656677246,9.859999656677246,9.859999656677246,9.859999656677246,9.859999656677246,100
2018-01-26,9.859999656677246,9.859999656677246,9.859999656677246,9.859999656677246,9.859999656677246,0
2018-01-29,9.859999656677246,9.859999656677246,9.859999656677246,9.859999656677246,9.859999656677246,0
2018-01-30,9.84000015258789,9.850000381469727,9.84000015258789,9.840999603271484,9.840999603271484,500
2018-01-31,9.840999603271484,9.840999603271484,9.840999603271484,9.840999603271484,9.840999603271484,0
2018-02-01,9.979999542236328,9.979999542236328,9.819999694824219,9.819999694824219,9.819999694824219,5800
2018-02-02,9.84000015258789,10.0,9.84000015258789,9.979999542236328,9.979999542236328,210400
2018-02-05,9.979999542236328,9.979999542236328,9.979999542236328,9.979999542236328,9.979999542236328,0
2018-02-06,9.986000061035156,9.986000061035156,9.982000350952148,9.982000350952148,9.982000350952148,600
2018-02-07,9.982000350952148,9.982000350952148,9.982000350952148,9.982000350952148,9.982000350952148,0
2018-02-08,9.892000198364258,9.892000198364258,9.892000198364258,9.892000198364258,9.892000198364258,600
2018-02-09,9.84000015258789,9.899999618530273,9.819999694824219,9.819999694824219,9.819999694824219,180000
2018-02-12,9.875,9.875,9.875,9.875,9.875,500
2018-02-13,9.90999984741211,9.90999984741211,9.90999984741211,9.90999984741211,9.90999984741211,1500
2018-02-14,9.9399995803833,9.9399995803833,9.9399995803833,9.9399995803833,9.9399995803833,100
2018-02-15,9.930000305175781,10.0,9.930000305175781,9.970000267028809,9.970000267028809,16300
2018-02-16,9.920000076293945,9.920000076293945,9.90999984741211,9.920000076293945,9.920000076293945,600
2018-02-20,9.920000076293945,9.920000076293945,9.920000076293945,9.920000076293945,9.920000076293945,0
2018-02-21,9.920000076293945,9.920000076293945,9.920000076293945,9.920000076293945,9.920000076293945,0
2018-02-22,9.920000076293945,9.920000076293945,9.90999984741211,9.90999984741211,9.90999984741211,600
2018-02-23,9.90999984741211,9.90999984741211,9.90999984741211,9.90999984741211,9.90999984741211,0
2018-02-26,9.90999984741211,9.90999984741211,9.90999984741211,9.90999984741211,9.90999984741211,0
2018-02-27,9.90999984741211,9.90999984741211,9.90999984741211,9.90999984741211,9.90999984741211,0
2018-02-28,9.90999984741211,9.90999984741211,9.90999984741211,9.90999984741211,9.90999984741211,0
2018-03-01,9.9399995803833,9.9399995803833,9.939000129699707,9.9399995803833,9.9399995803833,4000
2018-03-02,9.819999694824219,9.960000038146973,9.800000190734863,9.949999809265137,9.949999809265137,7800
2018-03-05,9.949999809265137,9.949999809265137,9.949999809265137,9.949999809265137,9.949999809265137,0
2018-03-06,9.949999809265137,9.949999809265137,9.949999809265137,9.949999809265137,9.949999809265137,100
2018-03-07,9.960000038146973,9.960000038146973,9.960000038146973,9.960000038146973,9.960000038146973,300
2018-03-08,9.960000038146973,9.960000038146973,9.960000038146973,9.960000038146973,9.960000038146973,0
2018-03-09,9.960000038146973,9.960000038146973,9.960000038146973,9.960000038146973,9.960000038146973,0
2018-03-12,9.960000038146973,9.960000038146973,9.960000038146973,9.960000038146973,9.960000038146973,0
2018-03-13,9.960000038146973,9.960000038146973,9.960000038146973,9.960000038146973,9.960000038146973,0
2018-03-14,9.9399995803833,9.949999809265137,9.9399995803833,9.949999809265137,9.949999809265137,4200
2018-03-15,9.960000038146973,10.0,9.949999809265137,9.949999809265137,9.949999809265137,4300
2018-03-16,9.960000038146973,9.960000038146973,9.960000038146973,9.960000038146973,9.960000038146973,100
2018-03-19,9.979999542236328,9.979999542236328,9.979999542236328,9.979999542236328,9.979999542236328,4100
2018-03-20,9.979999542236328,9.979999542236328,9.979999542236328,9.979999542236328,9.979999542236328,0
2018-03-21,9.979999542236328,9.979999542236328,9.979999542236328,9.979999542236328,9.979999542236328,0
2018-03-22,9.979999542236328,9.979999542236328,9.979999542236328,9.979999542236328,9.979999542236328,0
2018-03-23,9.979999542236328,9.979999542236328,9.979999542236328,9.979999542236328,9.979999542236328,0
2018-03-26,9.979999542236328,9.979999542236328,9.979999542236328,9.979999542236328,9.979999542236328,0
2018-03-27,9.979999542236328,9.979999542236328,9.979999542236328,9.979999542236328,9.979999542236328,0
2018-03-28,9.970000267028809,9.979999542236328,9.970000267028809,9.979999542236328,9.979999542236328,4600
2018-03-29,9.970000267028809,9.970000267028809,9.920000076293945,9.920000076293945,9.920000076293945,2000
2018-04-02,10.010000228881836,10.010000228881836,9.989999771118164,10.010000228881836,10.010000228881836,17400
2018-04-03,10.0600004196167,10.0600004196167,10.029999732971191,10.029999732971191,10.029999732971191,2500
2018-04-04,10.029999732971191,10.029999732971191,10.029999732971191,10.029999732971191,10.029999732971191,0
2018-04-05,10.029999732971191,10.029999732971191,10.020000457763672,10.020000457763672,10.020000457763672,1200
2018-04-06,10.020000457763672,10.020000457763672,10.020000457763672,10.020000457763672,10.020000457763672,0
2018-04-09,10.010000228881836,10.010000228881836,10.010000228881836,10.010000228881836,10.010000228881836,400
2018-04-10,10.010000228881836,10.050000190734863,10.010000228881836,10.050000190734863,10.050000190734863,24400
2018-04-11,10.079999923706055,10.079999923706055,10.039999961853027,10.050000190734863,10.050000190734863,400
2018-04-12,10.050000190734863,10.050000190734863,10.050000190734863,10.050000190734863,10.050000190734863,0
2018-04-13,10.050000190734863,10.050000190734863,10.050000190734863,10.050000190734863,10.050000190734863,2300
2018-04-16,10.050000190734863,10.050000190734863,10.050000190734863,10.050000190734863,10.050000190734863,0
2018-04-17,10.050000190734863,10.050000190734863,10.050000190734863,10.050000190734863,10.050000190734863,0
2018-04-18,10.050000190734863,10.050000190734863,10.050000190734863,10.050000190734863,10.050000190734863,0
2018-04-19,10.050000190734863,10.050000190734863,10.050000190734863,10.050000190734863,10.050000190734863,0
2018-04-20,10.050000190734863,10.050000190734863,10.050000190734863,10.050000190734863,10.050000190734863,6100
2018-04-23,10.050000190734863,10.050000190734863,10.050000190734863,10.050000190734863,10.050000190734863,0
2018-04-24,10.050000190734863,10.050000190734863,10.050000190734863,10.050000190734863,10.050000190734863,0
2018-04-25,10.050000190734863,10.050000190734863,10.050000190734863,10.050000190734863,10.050000190734863,1000
2018-04-26,10.0600004196167,10.079999923706055,10.0600004196167,10.079999923706055,10.079999923706055,1400
2018-04-27,10.079999923706055,10.079999923706055,10.079999923706055,10.079999923706055,10.079999923706055,100
2018-04-30,10.079999923706055,10.079999923706055,10.079999923706055,10.079999923706055,10.079999923706055,0
2018-05-01,10.079999923706055,10.079999923706055,10.079999923706055,10.079999923706055,10.079999923706055,0
2018-05-02,10.079999923706055,10.079999923706055,10.079999923706055,10.079999923706055,10.079999923706055,0
2018-05-03,10.09000015258789,10.09000015258789,10.09000015258789,10.09000015258789,10.09000015258789,100
2018-05-04,10.0600004196167,10.0600004196167,10.050999641418457,10.050999641418457,10.050999641418457,1600
2018-05-07,10.050000190734863,10.055999755859375,10.050000190734863,10.055999755859375,10.055999755859375,1900
2018-05-08,10.055999755859375,10.055999755859375,10.055999755859375,10.055999755859375,10.055999755859375,0
2018-05-09,10.071999549865723,10.071999549865723,10.0600004196167,10.069000244140625,10.069000244140625,600
2018-05-10,10.069000244140625,10.069000244140625,10.069000244140625,10.069000244140625,10.069000244140625,0
2018-05-11,10.069000244140625,10.069000244140625,10.069000244140625,10.069000244140625,10.069000244140625,0
2018-05-14,10.050000190734863,10.050000190734863,10.050000190734863,10.050000190734863,10.050000190734863,1000
2018-05-15,10.050000190734863,10.050000190734863,10.050000190734863,10.050000190734863,10.050000190734863,24100
2018-05-16,10.069999694824219,10.100000381469727,10.010000228881836,10.020000457763672,10.020000457763672,8000
2018-05-17,10.020000457763672,10.020000457763672,10.020000457763672,10.020000457763672,10.020000457763672,0
2018-05-18,10.020000457763672,10.020000457763672,10.020000457763672,10.020000457763672,10.020000457763672,0
2018-05-21,10.020000457763672,10.020000457763672,10.020000457763672,10.020000457763672,10.020000457763672,0
2018-05-22,10.069999694824219,10.069999694824219,10.069999694824219,10.069999694824219,10.069999694824219,300
2018-05-23,10.069999694824219,10.069999694824219,10.069999694824219,10.069999694824219,10.069999694824219,0
2018-05-24,10.069999694824219,10.069999694824219,10.069999694824219,10.069999694824219,10.069999694824219,0
2018-05-25,10.069999694824219,10.069999694824219,10.069999694824219,10.069999694824219,10.069999694824219,0
2018-05-29,10.079999923706055,10.100000381469727,10.079999923706055,10.100000381469727,10.100000381469727,1200
2018-05-30,10.100000381469727,10.100000381469727,10.100000381469727,10.100000381469727,10.100000381469727,0
2018-05-31,10.100000381469727,10.100000381469727,10.100000381469727,10.100000381469727,10.100000381469727,0
2018-06-01,10.100000381469727,10.100000381469727,10.100000381469727,10.100000381469727,10.100000381469727,1100
2018-06-04,10.0,10.130000114440918,10.0,10.039999961853027,10.039999961853027,43400
2018-06-05,10.020000457763672,10.050000190734863,10.020000457763672,10.039999961853027,10.039999961853027,15800
2018-06-06,10.039999961853027,10.039999961853027,10.039999961853027,10.039999961853027,10.039999961853027,0
2018-06-07,10.050000190734863,10.050000190734863,10.050000190734863,10.050000190734863,10.050000190734863,100
2018-06-08,10.050000190734863,10.050000190734863,10.050000190734863,10.050000190734863,10.050000190734863,0
2018-06-11,10.130000114440918,10.149999618530273,10.119999885559082,10.119999885559082,10.119999885559082,12100
2018-06-12,10.119999885559082,10.119999885559082,10.119999885559082,10.119999885559082,10.119999885559082,0
2018-06-13,10.119999885559082,10.119999885559082,10.119999885559082,10.119999885559082,10.119999885559082,0
2018-06-14,10.119999885559082,10.119999885559082,10.119999885559082,10.119999885559082,10.119999885559082,0
2018-06-15,10.130000114440918,10.130000114440918,10.130000114440918,10.130000114440918,10.130000114440918,1800
2018-06-18,10.130000114440918,10.130000114440918,10.119999885559082,10.119999885559082,10.119999885559082,5100
2018-06-19,10.130000114440918,10.130000114440918,10.130000114440918,10.130000114440918,10.130000114440918,8400
2018-06-20,10.130000114440918,10.130000114440918,10.130000114440918,10.130000114440918,10.130000114440918,0
2018-06-21,10.130000114440918,10.130000114440918,10.130000114440918,10.130000114440918,10.130000114440918,0
2018-06-22,10.147000312805176,10.149999618530273,10.147000312805176,10.149999618530273,10.149999618530273,200
2018-06-25,10.149999618530273,10.149999618530273,10.149999618530273,10.149999618530273,10.149999618530273,0
2018-06-26,10.149999618530273,10.149999618530273,10.149999618530273,10.149999618530273,10.149999618530273,0
2018-06-27,10.149999618530273,10.149999618530273,10.149999618530273,10.149999618530273,10.149999618530273,0
2018-06-28,10.149999618530273,10.149999618530273,10.149999618530273,10.149999618530273,10.149999618530273,0
2018-06-29,10.149999618530273,10.149999618530273,10.149999618530273,10.149999618530273,10.149999618530273,0
2018-07-02,10.149999618530273,10.149999618530273,10.149999618530273,10.149999618530273,10.149999618530273,0
2018-07-03,10.180000305175781,10.180000305175781,10.180000305175781,10.180000305175781,10.180000305175781,200
2018-07-05,10.180000305175781,10.180000305175781,10.180000305175781,10.180000305175781,10.180000305175781,0
2018-07-06,10.050000190734863,10.050000190734863,10.050000190734863,10.050000190734863,10.050000190734863,300
2018-07-09,10.050000190734863,10.050000190734863,10.050000190734863,10.050000190734863,10.050000190734863,400
2018-07-10,10.053000450134277,10.0600004196167,10.053000450134277,10.053000450134277,10.053000450134277,300
2018-07-11,10.180000305175781,10.180000305175781,10.180000305175781,10.180000305175781,10.180000305175781,500
2018-07-12,10.180000305175781,10.180000305175781,10.149999618530273,10.170000076293945,10.170000076293945,28100
2018-07-13,10.170000076293945,10.170000076293945,10.170000076293945,10.170000076293945,10.170000076293945,0
2018-07-16,10.0,10.0,10.0,10.0,10.0,500
2018-07-17,10.300000190734863,10.375,10.093000411987305,10.270999908447266,10.270999908447266,50700
2018-07-18,10.289999961853027,10.300000190734863,10.109999656677246,10.239999771118164,10.239999771118164,34300
2018-07-19,10.289999961853027,10.289999961853027,10.199999809265137,10.20300006866455,10.20300006866455,11800
2018-07-20,10.300000190734863,10.300000190734863,10.21500015258789,10.260000228881836,10.260000228881836,56200
2018-07-23,10.24899959564209,10.279999732971191,10.194999694824219,10.270000457763672,10.270000457763672,15200
2018-07-24,10.239999771118164,10.289999961853027,10.239999771118164,10.260000228881836,10.260000228881836,19000
2018-07-25,10.229999542236328,10.289999961853027,10.201000213623047,10.279000282287598,10.279000282287598,14900
2018-07-26,10.289999961853027,10.289999961853027,10.210000038146973,10.25,10.25,14900
2018-07-27,10.260000228881836,10.380000114440918,10.25,10.279999732971191,10.279999732971191,14900
2018-07-30,10.3100004196167,10.3100004196167,10.265000343322754,10.27400016784668,10.27400016784668,23800
2018-07-31,10.300000190734863,10.300000190734863,10.260000228881836,10.27400016784668,10.27400016784668,7000
2018-08-01,10.300000190734863,10.350000381469727,10.279999732971191,10.300000190734863,10.300000190734863,31400
2018-08-02,10.300000190734863,10.347999572753906,10.25,10.25,10.25,20300
2018-08-03,10.300000190734863,10.300000190734863,10.23799991607666,10.25,10.25,7000
2018-08-06,10.319999694824219,10.319999694824219,10.270000457763672,10.300000190734863,10.300000190734863,10400
2018-08-07,10.269000053405762,10.319999694824219,10.199999809265137,10.300000190734863,10.300000190734863,15500
2018-08-08,10.5600004196167,10.5600004196167,10.199999809265137,10.25,10.25,34300
2018-08-09,10.510000228881836,10.529999732971191,10.359999656677246,10.359999656677246,10.359999656677246,10900
2018-08-10,10.600000381469727,10.630000114440918,10.369999885559082,10.4350004196167,10.4350004196167,12200
2018-08-13,10.59000015258789,12.03499984741211,10.477999687194824,11.960000038146973,11.960000038146973,44600
2018-08-14,12.140000343322754,14.239999771118164,12.010000228881836,13.5,13.5,169000
2018-08-15,13.279999732971191,14.300000190734863,12.11400032043457,13.5,13.5,111400
2018-08-16,13.489999771118164,13.59000015258789,13.0,13.005000114440918,13.005000114440918,16700
2018-08-17,12.670000076293945,12.824999809265137,11.0,11.979999542236328,11.979999542236328,130200
2018-08-20,12.0,12.890000343322754,11.300000190734863,11.699999809265137,11.699999809265137,51700
2018-08-21,11.699999809265137,12.680000305175781,11.699999809265137,12.4399995803833,12.4399995803833,18700
2018-08-22,12.5,13.199999809265137,12.449999809265137,13.149999618530273,13.149999618530273,29700
2018-08-23,13.0,15.4399995803833,13.0,15.199999809265137,15.199999809265137,167000
2018-08-24,14.489999771118164,15.0,13.5,13.696999549865723,13.696999549865723,124500
2018-08-27,14.0,14.281999588012695,12.510000228881836,13.149999618530273,13.149999618530273,44600
2018-08-28,13.130000114440918,13.779999732971191,13.0,13.210000038146973,13.210000038146973,17100
2018-08-29,13.239999771118164,13.479999542236328,13.0,13.180000305175781,13.180000305175781,12800
2018-08-30,13.0600004196167,13.300000190734863,12.979999542236328,13.199999809265137,13.199999809265137,40800
2018-08-31,13.020000457763672,13.552000045776367,13.0,13.399999618530273,13.399999618530273,28400
2018-09-04,13.5,14.95199966430664,13.468999862670898,14.899999618530273,14.899999618530273,38200
2018-09-05,15.25,15.694999694824219,14.300999641418457,14.829999923706055,14.829999923706055,93300
2018-09-06,14.489999771118164,15.0,14.399999618530273,14.649999618530273,14.649999618530273,38600
2018-09-07,14.399999618530273,14.670000076293945,14.010000228881836,14.329999923706055,14.329999923706055,47800
2018-09-10,14.449999809265137,14.5,13.760000228881836,13.855999946594238,13.855999946594238,42300
2018-09-11,14.0,15.0,13.758999824523926,14.920000076293945,14.920000076293945,65000
2018-09-12,14.979999542236328,15.255000114440918,14.600000381469727,15.0,15.0,27400
2018-09-13,15.170000076293945,15.170000076293945,14.0,14.859999656677246,14.859999656677246,35600
2018-09-14,14.90999984741211,14.90999984741211,14.569999694824219,14.600000381469727,14.600000381469727,22900
2018-09-17,14.300000190734863,14.699999809265137,14.149999618530273,14.649999618530273,14.649999618530273,33000
2018-09-18,14.401000022888184,14.699999809265137,14.199999809265137,14.5,14.5,37500
2018-09-19,14.329999923706055,14.699999809265137,14.029999732971191,14.619999885559082,14.619999885559082,84600
2018-09-20,14.779999732971191,14.779999732971191,13.949999809265137,14.600000381469727,14.600000381469727,83800
2018-09-21,14.800000190734863,14.800000190734863,14.029999732971191,14.670000076293945,14.670000076293945,92400
2018-09-24,14.670000076293945,14.670000076293945,14.25100040435791,14.600000381469727,14.600000381469727,48100
2018-09-25,14.489999771118164,15.180000305175781,14.300000190734863,15.050000190734863,15.050000190734863,113500
2018-09-26,14.90999984741211,15.5,14.8100004196167,15.09000015258789,15.09000015258789,20600
2018-09-27,14.930000305175781,15.222000122070312,14.899999618530273,15.15999984741211,15.15999984741211,5100
2018-09-28,15.170000076293945,15.170000076293945,14.906999588012695,15.100000381469727,15.100000381469727,3300
2018-10-01,14.65999984741211,14.960000038146973,14.65999984741211,14.949999809265137,14.949999809265137,1800
2018-10-02,15.029999732971191,15.069999694824219,14.600000381469727,15.069999694824219,15.069999694824219,5300
2018-10-03,14.670000076293945,15.0,14.670000076293945,15.0,15.0,2500
2018-10-04,14.949999809265137,15.0,14.800000190734863,15.0,15.0,8100
2018-10-05,14.640000343322754,14.8100004196167,14.35099983215332,14.699999809265137,14.699999809265137,7900
2018-10-08,14.699999809265137,14.699999809265137,14.359999656677246,14.600000381469727,14.600000381469727,2400
2018-10-09,14.699999809265137,14.699999809265137,14.361000061035156,14.680000305175781,14.680000305175781,2200
2018-10-10,14.699999809265137,14.699999809265137,14.350000381469727,14.350000381469727,14.350000381469727,10100
2018-10-11,14.350000381469727,14.699999809265137,14.239999771118164,14.670000076293945,14.670000076293945,10900
2018-10-12,14.670000076293945,14.670000076293945,14.3100004196167,14.600000381469727,14.600000381469727,2900
2018-10-15,14.25,14.600000381469727,14.204000473022461,14.300000190734863,14.300000190734863,3700
2018-10-16,14.600000381469727,14.600000381469727,14.600000381469727,14.600000381469727,14.600000381469727,200
2018-10-17,14.199999809265137,14.274999618530273,14.149999618530273,14.15999984741211,14.15999984741211,1400
2018-10-18,14.149999618530273,14.300000190734863,14.100000381469727,14.300000190734863,14.300000190734863,5000
2018-10-19,14.5,14.5,14.5,14.5,14.5,300
2018-10-22,14.184000015258789,14.265999794006348,14.100000381469727,14.199999809265137,14.199999809265137,2400
2018-10-23,14.210000038146973,14.210000038146973,14.100000381469727,14.100000381469727,14.100000381469727,1300
2018-10-24,13.994000434875488,14.0,13.5,13.850000381469727,13.850000381469727,5200
2018-10-25,13.899999618530273,14.15999984741211,13.675000190734863,13.675000190734863,13.675000190734863,7500
2018-10-26,13.75,13.899999618530273,13.5,13.899999618530273,13.899999618530273,17200
2018-10-29,13.567999839782715,13.699999809265137,13.5,13.5,13.5,3600
2018-10-30,13.5,13.5,11.850000381469727,12.710000038146973,12.710000038146973,37500
2018-10-31,12.729999542236328,13.244999885559082,12.720000267028809,12.75,12.75,1900
2018-11-01,12.699999809265137,12.84000015258789,12.253000259399414,12.390000343322754,12.390000343322754,7000
2018-11-02,12.649999618530273,12.699999809265137,11.960000038146973,12.342000007629395,12.342000007629395,5000
2018-11-05,12.300000190734863,12.470000267028809,12.277000427246094,12.470000267028809,12.470000267028809,2000
2018-11-06,12.1899995803833,12.199999809265137,12.0,12.069999694824219,12.069999694824219,4300
2018-11-07,12.465999603271484,12.465999603271484,11.800000190734863,11.949999809265137,11.949999809265137,5500
2018-11-08,11.5,11.989999771118164,10.25,11.989999771118164,11.989999771118164,33000
2018-11-09,11.989999771118164,12.300000190734863,11.989999771118164,12.300000190734863,12.300000190734863,10800
2018-11-12,12.418000221252441,12.979999542236328,11.878000259399414,12.642999649047852,12.642999649047852,10100
2018-11-13,12.989999771118164,12.989999771118164,12.449999809265137,12.630000114440918,12.630000114440918,7300
2018-11-14,12.5,12.649999618530273,12.0,12.329999923706055,12.329999923706055,4500
2018-11-15,11.5600004196167,12.642000198364258,11.5600004196167,12.128000259399414,12.128000259399414,5400
2018-11-16,11.803000450134277,12.11400032043457,11.800000190734863,12.11400032043457,12.11400032043457,2800
2018-11-19,12.0,12.989999771118164,11.5,11.930000305175781,11.930000305175781,27000
2018-11-20,11.989999771118164,12.489999771118164,11.890000343322754,12.204999923706055,12.204999923706055,22800
2018-11-21,12.100000381469727,12.390000343322754,11.84000015258789,11.84000015258789,11.84000015258789,5400
2018-11-23,11.770000457763672,11.850000381469727,11.383999824523926,11.383999824523926,11.383999824523926,1100
2018-11-26,11.600000381469727,12.800000190734863,11.595000267028809,12.5,12.5,7500
2018-11-27,12.4399995803833,13.180000305175781,12.4399995803833,12.84000015258789,12.84000015258789,7400
2018-11-28,12.619999885559082,13.14900016784668,12.050000190734863,12.399999618530273,12.399999618530273,9000
2018-11-29,12.390000343322754,12.930000305175781,12.100000381469727,12.199999809265137,12.199999809265137,1600
2018-11-30,12.25,12.949999809265137,12.149999618530273,12.949999809265137,12.949999809265137,3500
2018-12-03,12.562999725341797,12.71500015258789,12.180000305175781,12.180000305175781,12.180000305175781,16300
2018-12-04,12.210000038146973,12.6899995803833,11.791999816894531,12.640000343322754,12.640000343322754,11200
2018-12-06,12.600000381469727,12.800000190734863,12.289999961853027,12.800000190734863,12.800000190734863,10400
2018-12-07,12.609999656677246,13.5,12.5,12.520000457763672,12.520000457763672,7100
2018-12-10,12.25,12.630000114440918,12.130000114440918,12.220000267028809,12.220000267028809,10700
2018-12-11,12.460000038146973,12.557999610900879,11.880000114440918,12.239999771118164,12.239999771118164,13000
2018-12-12,12.109999656677246,12.475000381469727,11.699999809265137,12.0,12.0,12000
2018-12-13,12.050000190734863,12.1899995803833,11.880000114440918,12.100000381469727,12.100000381469727,3400
2018-12-14,12.039999961853027,12.234999656677246,12.039999961853027,12.114999771118164,12.114999771118164,3800
2018-12-17,12.25,14.59000015258789,12.12399959564209,14.489999771118164,14.489999771118164,49900
2018-12-18,14.100000381469727,14.680000305175781,12.6899995803833,14.680000305175781,14.680000305175781,41400
2018-12-19,14.210000038146973,15.0,13.628999710083008,15.0,15.0,48300
2018-12-20,14.699999809265137,15.0,14.069999694824219,15.0,15.0,35600
2018-12-21,14.199999809265137,14.979999542236328,14.180000305175781,14.180000305175781,14.180000305175781,23800
2018-12-24,14.470000267028809,14.470000267028809,14.274999618530273,14.470000267028809,14.470000267028809,1600
2018-12-26,14.5,14.5,13.979999542236328,14.5,14.5,2000
2018-12-27,14.770000457763672,14.770000457763672,13.880000114440918,13.880000114440918,13.880000114440918,1400
2018-12-28,13.279999732971191,13.699999809265137,13.234999656677246,13.470000267028809,13.470000267028809,6400
2018-12-31,13.3100004196167,13.4399995803833,13.300000190734863,13.300000190734863,13.300000190734863,2000
2019-01-02,13.300000190734863,13.699999809265137,13.25,13.579999923706055,13.579999923706055,8400
2019-01-03,13.3100004196167,13.710000038146973,12.710000038146973,13.710000038146973,13.710000038146973,2900
2019-01-04,13.010000228881836,13.010000228881836,12.699999809265137,12.800000190734863,12.800000190734863,2500
2019-01-07,13.09000015258789,13.871000289916992,12.720000267028809,12.989999771118164,12.989999771118164,6300
2019-01-08,12.979999542236328,13.369999885559082,12.300000190734863,12.329999923706055,12.329999923706055,28400
2019-01-09,12.329999923706055,13.390000343322754,12.0600004196167,12.770000457763672,12.770000457763672,7300
2019-01-10,12.479999542236328,13.199999809265137,12.479999542236328,13.1899995803833,13.1899995803833,1100
2019-01-11,12.510000228881836,12.979999542236328,12.510000228881836,12.979999542236328,12.979999542236328,800
2019-01-14,12.789999961853027,12.789999961853027,12.789999961853027,12.789999961853027,12.789999961853027,200
2019-01-15,12.779999732971191,13.5,12.5,13.140000343322754,13.140000343322754,3200
2019-01-16,13.074999809265137,13.140000343322754,13.0,13.140000343322754,13.140000343322754,2800
2019-01-17,13.317999839782715,13.5,13.0,13.0,13.0,5100
2019-01-18,13.029999732971191,13.390000343322754,13.0,13.380000114440918,13.380000114440918,6200
2019-01-22,13.0,13.380000114440918,12.699999809265137,13.350000381469727,13.350000381469727,8600
2019-01-23,13.119999885559082,13.380000114440918,13.0649995803833,13.380000114440918,13.380000114440918,1400
2019-01-24,13.380000114440918,13.380000114440918,13.0,13.380000114440918,13.380000114440918,3900
2019-01-25,13.359999656677246,13.380000114440918,13.0,13.359999656677246,13.359999656677246,3900
2019-01-28,13.0600004196167,13.380000114440918,13.0,13.300000190734863,13.300000190734863,7100
2019-01-29,13.375,13.600000381469727,13.100000381469727,13.569999694824219,13.569999694824219,5100
2019-01-30,13.300000190734863,13.300000190734863,12.930000305175781,12.930000305175781,12.930000305175781,800
2019-01-31,13.140000343322754,13.600000381469727,12.776000022888184,13.300000190734863,13.300000190734863,7400
2019-02-01,13.300000190734863,13.300000190734863,13.300000190734863,13.300000190734863,13.300000190734863,200
2019-02-04,13.300000190734863,13.300000190734863,12.729999542236328,12.779999732971191,12.779999732971191,11100
2019-02-05,12.789999961853027,13.239999771118164,12.789999961853027,12.899999618530273,12.899999618530273,4600
2019-02-06,13.600000381469727,13.600000381469727,13.399999618530273,13.399999618530273,13.399999618530273,1400
2019-02-07,13.5,13.5,12.279999732971191,12.895000457763672,12.895000457763672,1900
2019-02-08,12.890000343322754,13.279999732971191,12.836000442504883,13.15999984741211,13.15999984741211,6900
2019-02-11,13.079999923706055,13.399999618530273,13.079999923706055,13.100000381469727,13.100000381469727,6800
2019-02-12,13.279999732971191,13.395000457763672,13.010000228881836,13.385000228881836,13.385000228881836,2200
2019-02-13,13.550000190734863,13.550000190734863,13.107000350952148,13.5,13.5,2200
2019-02-14,13.5,13.5,13.17300033569336,13.210000038146973,13.210000038146973,2400
2019-02-15,13.100000381469727,13.5,12.890000343322754,13.130000114440918,13.130000114440918,2600
2019-02-19,13.199999809265137,13.199999809265137,13.199999809265137,13.199999809265137,13.199999809265137,200
2019-02-20,13.25,13.5,13.069999694824219,13.109999656677246,13.109999656677246,10000
2019-02-21,13.119999885559082,13.5,12.89799976348877,13.5,13.5,3200
2019-02-22,13.539999961853027,13.539999961853027,13.399999618530273,13.399999618530273,13.399999618530273,1300
2019-02-25,13.300000190734863,13.489999771118164,13.0600004196167,13.0600004196167,13.0600004196167,2800
2019-02-26,13.199999809265137,13.199999809265137,13.0600004196167,13.0600004196167,13.0600004196167,4400
2019-02-27,13.119999885559082,13.489999771118164,13.119999885559082,13.470000267028809,13.470000267028809,1300
2019-02-28,13.199999809265137,13.460000038146973,13.199999809265137,13.460000038146973,13.460000038146973,1000
2019-03-01,13.199999809265137,13.244999885559082,13.0600004196167,13.0600004196167,13.0600004196167,2500
2019-03-04,13.135000228881836,13.399999618530273,13.069999694824219,13.069999694824219,13.069999694824219,700
2019-03-05,13.289999961853027,13.289999961853027,13.0,13.100000381469727,13.100000381469727,6100
2019-03-06,13.105999946594238,13.199999809265137,13.010000228881836,13.010000228881836,13.010000228881836,2700
2019-03-07,13.0,13.479999542236328,13.0,13.380000114440918,13.380000114440918,4000
2019-03-08,13.194999694824219,13.194999694824219,13.194999694824219,13.194999694824219,13.194999694824219,300
2019-03-11,13.029999732971191,13.029999732971191,13.029999732971191,13.029999732971191,13.029999732971191,100
2019-03-12,13.029999732971191,13.390000343322754,13.029999732971191,13.390000343322754,13.390000343322754,1600
2019-03-13,13.119999885559082,13.1899995803833,13.050000190734863,13.1899995803833,13.1899995803833,4400
2019-03-14,13.100000381469727,13.100000381469727,13.020000457763672,13.029999732971191,13.029999732971191,2300
2019-03-15,13.229999542236328,13.229999542236328,13.029999732971191,13.029999732971191,13.029999732971191,3500
2019-03-18,13.02299976348877,13.135000228881836,13.02299976348877,13.135000228881836,13.135000228881836,700
2019-03-19,13.135000228881836,13.135000228881836,13.135000228881836,13.135000228881836,13.135000228881836,200
2019-03-20,13.34000015258789,13.34000015258789,13.34000015258789,13.34000015258789,13.34000015258789,200
2019-03-21,13.300000190734863,13.300000190734863,13.039999961853027,13.039999961853027,13.039999961853027,1200
2019-03-22,13.300000190734863,13.300000190734863,13.0,13.0,13.0,2000
2019-03-25,13.100000381469727,13.279999732971191,13.100000381469727,13.279999732971191,13.279999732971191,1500
2019-03-26,13.25,13.729999542236328,13.25,13.569999694824219,13.569999694824219,13100
2019-03-27,13.649999618530273,13.720000267028809,13.020000457763672,13.630000114440918,13.630000114440918,5600
2019-03-28,13.600000381469727,13.600000381469727,13.529999732971191,13.550000190734863,13.550000190734863,400
2019-03-29,13.239999771118164,13.369999885559082,13.239999771118164,13.25,13.25,1700
2019-04-01,13.25,13.25,13.029999732971191,13.149999618530273,13.149999618530273,7100
2019-04-02,13.081999778747559,13.140000343322754,13.010000228881836,13.130000114440918,13.130000114440918,5700
2019-04-03,13.140000343322754,13.140000343322754,13.140000343322754,13.140000343322754,13.140000343322754,1300
2019-04-04,13.40999984741211,13.430000305175781,13.076000213623047,13.300000190734863,13.300000190734863,2800
2019-04-05,13.289999961853027,13.289999961853027,13.09000015258789,13.09000015258789,13.09000015258789,300
2019-04-08,13.210000038146973,13.430000305175781,13.210000038146973,13.399999618530273,13.399999618530273,2100
2019-04-09,13.100000381469727,13.449999809265137,13.100000381469727,13.449999809265137,13.449999809265137,4700
2019-04-10,13.399999618530273,13.399999618530273,13.199999809265137,13.300000190734863,13.300000190734863,4700
2019-04-11,13.390000343322754,13.399999618530273,13.300000190734863,13.399999618530273,13.399999618530273,1500
2019-04-12,13.151000022888184,13.4399995803833,13.151000022888184,13.4399995803833,13.4399995803833,2200
2019-04-15,13.4399995803833,13.449999809265137,13.199999809265137,13.199999809265137,13.199999809265137,2100
2019-04-16,13.204999923706055,13.380000114440918,13.16100025177002,13.369999885559082,13.369999885559082,7700
2019-04-17,13.265000343322754,13.350000381469727,13.149999618530273,13.149999618530273,13.149999618530273,3900
2019-04-18,13.270000457763672,13.300000190734863,13.270000457763672,13.300000190734863,13.300000190734863,1700
2019-04-22,13.350000381469727,13.350000381469727,13.25,13.25,13.25,1800
2019-04-23,13.25,13.25,13.25,13.25,13.25,100
2019-04-24,13.020000457763672,13.300000190734863,13.020000457763672,13.130000114440918,13.130000114440918,2000
2019-04-25,13.130000114440918,13.170000076293945,13.010000228881836,13.010000228881836,13.010000228881836,1900
2019-04-26,13.086000442504883,13.5,13.086000442504883,13.460000038146973,13.460000038146973,2300
2019-04-29,13.079999923706055,13.350000381469727,13.0600004196167,13.0600004196167,13.0600004196167,2700
2019-04-30,13.279999732971191,13.279999732971191,13.069999694824219,13.180000305175781,13.180000305175781,2800
2019-05-01,13.279999732971191,13.350000381469727,13.010000228881836,13.180000305175781,13.180000305175781,11200
2019-05-02,13.140000343322754,13.229999542236328,13.010000228881836,13.0649995803833,13.0649995803833,3600
2019-05-03,13.010000228881836,13.010000228881836,12.5600004196167,12.649999618530273,12.649999618530273,2700
2019-05-06,13.25,13.25,12.321999549865723,12.989999771118164,12.989999771118164,2900
2019-05-07,12.4399995803833,12.850000381469727,12.369999885559082,12.850000381469727,12.850000381469727,2500
2019-05-08,13.0,13.279999732971191,12.850000381469727,13.020000457763672,13.020000457763672,3900
2019-05-09,12.800000190734863,13.449999809265137,12.666999816894531,13.449999809265137,13.449999809265137,9600
2019-05-10,12.381999969482422,13.5,12.381999969482422,13.5,13.5,1800
2019-05-13,13.5,13.75,13.40999984741211,13.40999984741211,13.40999984741211,1400
2019-05-14,13.699999809265137,13.75,13.199999809265137,13.75,13.75,5100
2019-05-15,13.399999618530273,13.75,13.399999618530273,13.75,13.75,6000
2019-05-16,13.175999641418457,13.850000381469727,13.175999641418457,13.84000015258789,13.84000015258789,6000
2019-05-17,13.850000381469727,13.890000343322754,13.359999656677246,13.890000343322754,13.890000343322754,3500
2019-05-20,13.635000228881836,13.890000343322754,13.635000228881836,13.890000343322754,13.890000343322754,2900
2019-05-21,13.8100004196167,14.409000396728516,13.486000061035156,14.260000228881836,14.260000228881836,29600
2019-05-22,14.210000038146973,14.430999755859375,13.600000381469727,14.300000190734863,14.300000190734863,21700
2019-05-23,14.319999694824219,15.100000381469727,13.668000221252441,15.0,15.0,71100
2019-05-24,14.930000305175781,14.989999771118164,14.460000038146973,14.989999771118164,14.989999771118164,4800
2019-05-28,14.84000015258789,15.350000381469727,14.479999542236328,15.100000381469727,15.100000381469727,6600
2019-05-29,15.0,15.350000381469727,14.434000015258789,14.989999771118164,14.989999771118164,14000
2019-05-30,13.760000228881836,15.34000015258789,13.760000228881836,15.34000015258789,15.34000015258789,5600
2019-05-31,15.289999961853027,15.289999961853027,14.595000267028809,15.020000457763672,15.020000457763672,6200
2019-06-03,15.0,15.5,14.515000343322754,15.5,15.5,8900
2019-06-04,15.5,15.75,14.944999694824219,15.34000015258789,15.34000015258789,9200
2019-06-05,15.720000267028809,20.0,14.699999809265137,18.989999771118164,18.989999771118164,9200
2019-06-06,18.0,18.0,15.34000015258789,17.0,17.0,17600
2019-06-07,16.600000381469727,17.0,16.3700008392334,16.950000762939453,16.950000762939453,9100
2019-06-10,16.75,18.0,16.503000259399414,17.100000381469727,17.100000381469727,30900
2019-06-11,17.200000762939453,17.8700008392334,17.145000457763672,17.799999237060547,17.799999237060547,19200
2019-06-12,17.770000457763672,19.600000381469727,17.399999618530273,18.5,18.5,25900
2019-06-13,18.75,19.889999389648438,18.05900001525879,19.889999389648438,19.889999389648438,23000
2019-06-14,20.0,22.5,19.239999771118164,22.0,22.0,23800
2019-06-17,22.100000381469727,22.899999618530273,19.389999389648438,20.399999618530273,20.399999618530273,34400
2019-06-18,21.399999618530273,21.899999618530273,20.950000762939453,21.09000015258789,21.09000015258789,39600
2019-06-19,21.079999923706055,21.4950008392334,18.399999618530273,20.5,20.5,20000
2019-06-20,19.799999237060547,20.209999084472656,19.0,19.770000457763672,19.770000457763672,25600
2019-06-21,19.90999984741211,21.450000762939453,19.600000381469727,21.010000228881836,21.010000228881836,48000
2019-06-24,21.5,24.920000076293945,20.92300033569336,24.020000457763672,24.020000457763672,28500
2019-06-25,25.489999771118164,26.899999618530273,25.22100067138672,25.270000457763672,25.270000457763672,30900
2019-06-26,25.670000076293945,34.58000183105469,23.43000030517578,32.20000076293945,32.20000076293945,26600
2019-06-27,32.25,35.0,28.507999420166016,33.869998931884766,33.869998931884766,57100
2019-06-28,35.0,35.0,28.249000549316406,34.810001373291016,34.810001373291016,798300
2019-07-01,33.0,33.400001525878906,26.700000762939453,27.450000762939453,27.450000762939453,146800
2019-07-02,27.450000762939453,27.84000015258789,24.0,24.049999237060547,24.049999237060547,55900
2019-07-03,24.0,24.489999771118164,18.799999237060547,18.799999237060547,18.799999237060547,87700
2019-07-05,18.799999237060547,20.14299964904785,18.201000213623047,19.780000686645508,19.780000686645508,42400
2019-07-08,19.5,19.5,18.239999771118164,18.649999618530273,18.649999618530273,67400
2019-07-09,18.649999618530273,18.649999618530273,17.520000457763672,18.110000610351562,18.110000610351562,78900
2019-07-10,18.200000762939453,18.209999084472656,17.530000686645508,18.0,18.0,20000
2019-07-11,18.0,18.864999771118164,17.90999984741211,18.729999542236328,18.729999542236328,16600
2019-07-12,18.540000915527344,19.389999389648438,18.030000686645508,18.809999465942383,18.809999465942383,24400
2019-07-15,18.850000381469727,19.479999542236328,18.65999984741211,19.25,19.25,13600
2019-07-16,19.200000762939453,19.739999771118164,19.0,19.399999618530273,19.399999618530273,8200
2019-07-17,19.5,19.739999771118164,19.1299991607666,19.399999618530273,19.399999618530273,11600
2019-07-18,19.5,21.0,19.275999069213867,20.170000076293945,20.170000076293945,10200
2019-07-19,19.6299991607666,21.43000030517578,19.329999923706055,21.309999465942383,21.309999465942383,16000
2019-07-22,21.979999542236328,23.530000686645508,20.81999969482422,23.459999084472656,23.459999084472656,13300
2019-07-23,24.0,24.0,21.76099967956543,22.899999618530273,22.899999618530273,13200
2019-07-24,22.979999542236328,23.190000534057617,21.665000915527344,22.90999984741211,22.90999984741211,11500
2019-07-25,22.8700008392334,23.81999969482422,22.8700008392334,23.200000762939453,23.200000762939453,14900
2019-07-26,23.0,23.25,22.864999771118164,23.190000534057617,23.190000534057617,11300
2019-07-29,23.149999618530273,23.149999618530273,22.799999237060547,22.799999237060547,22.799999237060547,6000
2019-07-30,22.75,23.350000381469727,22.30900001525879,22.559999465942383,22.559999465942383,14500
2019-07-31,22.540000915527344,22.989999771118164,22.139999389648438,22.65999984741211,22.65999984741211,11700
2019-08-01,22.969999313354492,23.0,22.11400032043457,22.510000228881836,22.510000228881836,5800
2019-08-02,22.530000686645508,23.0,20.399999618530273,21.520000457763672,21.520000457763672,22900
2019-08-05,21.469999313354492,21.469999313354492,19.959999084472656,20.0,20.0,10700
2019-08-06,20.0,20.924999237060547,20.0,20.5,20.5,13100
2019-08-07,20.56999969482422,20.56999969482422,19.854999542236328,20.0,20.0,6800
2019-08-08,20.114999771118164,20.530000686645508,20.0,20.0,20.0,9800
2019-08-09,20.0,20.26300048828125,20.0,20.0,20.0,3500
2019-08-12,20.055999755859375,20.200000762939453,20.0,20.010000228881836,20.010000228881836,3000
2019-08-13,20.0,20.739999771118164,19.989999771118164,20.739999771118164,20.739999771118164,10200
2019-08-14,20.610000610351562,20.760000228881836,19.110000610351562,19.40999984741211,19.40999984741211,8700
2019-08-15,19.0,19.920000076293945,18.110000610351562,19.489999771118164,19.489999771118164,17200
2019-08-16,19.549999237060547,21.315000534057617,19.0,20.90999984741211,20.90999984741211,25300
2019-08-19,20.989999771118164,22.719999313354492,20.899999618530273,21.399999618530273,21.399999618530273,11400
2019-08-20,21.31999969482422,21.56999969482422,19.1200008392334,20.010000228881836,20.010000228881836,27800
2019-08-21,20.100000381469727,20.5,19.469999313354492,19.90999984741211,19.90999984741211,16000
2019-08-22,19.889999389648438,19.90999984741211,19.889999389648438,19.90999984741211,19.90999984741211,2900
2019-08-23,19.1299991607666,19.829999923706055,18.549999237060547,18.790000915527344,18.790000915527344,4100
2019-08-26,18.510000228881836,19.399999618530273,18.121999740600586,18.899999618530273,18.899999618530273,3600
2019-08-27,18.65999984741211,19.989999771118164,18.65999984741211,19.68000030517578,19.68000030517578,1600
2019-08-28,19.549999237060547,19.549999237060547,18.260000228881836,18.889999389648438,18.889999389648438,8200
2019-08-29,19.010000228881836,19.399999618530273,18.799999237060547,19.100000381469727,19.100000381469727,9300
2019-08-30,19.15999984741211,19.790000915527344,18.8700008392334,19.3799991607666,19.3799991607666,4500
2019-09-03,19.875,19.875,18.549999237060547,18.549999237060547,18.549999237060547,2700
2019-09-04,19.139999389648438,19.600000381469727,18.809999465942383,19.489999771118164,19.489999771118164,2000
2019-09-05,19.09000015258789,19.100000381469727,18.600000381469727,18.700000762939453,18.700000762939453,9800
2019-09-06,19.1299991607666,19.1299991607666,18.329999923706055,18.510000228881836,18.510000228881836,8500
2019-09-09,18.809999465942383,18.809999465942383,18.450000762939453,18.579999923706055,18.579999923706055,6200
2019-09-10,18.829999923706055,18.829999923706055,18.049999237060547,18.520000457763672,18.520000457763672,9000
2019-09-11,18.75,19.0,18.0,18.850000381469727,18.850000381469727,9900
2019-09-12,18.860000610351562,19.0,18.25,18.399999618530273,18.399999618530273,8800
2019-09-13,18.719999313354492,18.950000762939453,18.343000411987305,18.459999084472656,18.459999084472656,7200
2019-09-16,18.44099998474121,18.959999084472656,18.3799991607666,18.489999771118164,18.489999771118164,4000
2019-09-17,18.389999389648438,18.56999969482422,18.260000228881836,18.260000228881836,18.260000228881836,6600
2019-09-18,18.729999542236328,18.729999542236328,17.770000457763672,18.0,18.0,18900
2019-09-19,18.290000915527344,18.350000381469727,18.100000381469727,18.110000610351562,18.110000610351562,8300
2019-09-20,18.010000228881836,18.40999984741211,17.790000915527344,17.790000915527344,17.790000915527344,47900
2019-09-23,18.0,18.200000762939453,17.399999618530273,17.719999313354492,17.719999313354492,9100
2019-09-24,17.690000534057617,17.829999923706055,17.5,17.5,17.5,9100
2019-09-25,17.656999588012695,17.670000076293945,17.559999465942383,17.65999984741211,17.65999984741211,3500
2019-09-26,17.450000762939453,18.0,17.420000076293945,17.440000534057617,17.440000534057617,7900
2019-09-27,17.25,18.030000686645508,17.25,17.34000015258789,17.34000015258789,6900
2019-09-30,16.799999237060547,17.46299934387207,16.690000534057617,17.049999237060547,17.049999237060547,4800
2019-10-01,17.0,17.0,16.479999542236328,16.479999542236328,16.479999542236328,2100
2019-10-02,16.5,16.709999084472656,16.399999618530273,16.520000457763672,16.520000457763672,5000
2019-10-03,16.979999542236328,17.010000228881836,16.979999542236328,17.010000228881836,17.010000228881836,900
2019-10-04,16.584999084472656,17.1299991607666,16.260000228881836,17.020000457763672,17.020000457763672,8700
2019-10-07,17.190000534057617,18.020000457763672,16.469999313354492,17.209999084472656,17.209999084472656,43800
2019-10-08,17.510000228881836,17.510000228881836,16.799999237060547,16.799999237060547,16.799999237060547,2600
2019-10-09,17.09000015258789,17.399999618530273,16.65999984741211,17.149999618530273,17.149999618530273,5400
2019-10-10,17.239999771118164,17.649999618530273,16.739999771118164,16.850000381469727,16.850000381469727,4000
2019-10-11,17.139999389648438,17.200000762939453,16.809999465942383,16.850000381469727,16.850000381469727,3800
2019-10-14,16.989999771118164,17.100000381469727,16.799999237060547,17.100000381469727,17.100000381469727,3000
2019-10-15,17.25,17.739999771118164,16.90999984741211,17.1299991607666,17.1299991607666,5600
2019-10-16,17.40999984741211,17.420000076293945,17.40999984741211,17.420000076293945,17.420000076293945,1400
2019-10-17,17.610000610351562,17.899999618530273,16.924999237060547,17.84000015258789,17.84000015258789,10100
2019-10-18,17.670000076293945,17.940000534057617,17.165000915527344,17.31999969482422,17.31999969482422,17800
2019-10-21,17.56999969482422,18.489999771118164,17.56999969482422,18.489999771118164,18.489999771118164,2000
2019-10-22,18.360000610351562,18.579999923706055,18.049999237060547,18.049999237060547,18.049999237060547,5100
2019-10-23,18.309999465942383,19.010000228881836,18.309999465942383,18.5,18.5,12400
2019-10-24,18.65999984741211,18.65999984741211,18.295000076293945,18.489999771118164,18.489999771118164,2600
2019-10-25,18.489999771118164,19.100000381469727,18.059999465942383,19.100000381469727,19.100000381469727,8600
2019-10-28,19.190000534057617,19.190000534057617,18.514999389648438,18.559999465942383,18.559999465942383,3600
2019-10-29,18.489999771118164,19.239999771118164,18.350000381469727,19.239999771118164,19.239999771118164,2300
2019-10-30,19.260000228881836,19.260000228881836,18.440000534057617,19.110000610351562,19.110000610351562,10400
2019-10-31,18.915000915527344,19.43000030517578,18.510000228881836,19.43000030517578,19.43000030517578,3800
2019-11-01,19.489999771118164,19.489999771118164,18.5049991607666,18.8799991607666,18.8799991607666,8900
2019-11-04,18.799999237060547,19.489999771118164,18.440000534057617,18.799999237060547,18.799999237060547,14700
2019-11-05,19.059999465942383,19.809999465942383,18.5,19.809999465942383,19.809999465942383,22200
2019-11-06,19.81999969482422,19.850000381469727,18.579999923706055,19.1299991607666,19.1299991607666,32000
2019-11-07,19.5,19.5,18.75,19.149999618530273,19.149999618530273,22800
2019-11-08,19.200000762939453,19.799999237060547,18.77199935913086,19.329999923706055,19.329999923706055,32200
2019-11-11,19.59000015258789,19.989999771118164,18.290000915527344,18.5,18.5,38900
2019-11-12,18.68000030517578,19.5,18.59000015258789,19.489999771118164,19.489999771118164,32900
2019-11-13,19.09000015258789,19.5,18.899999618530273,19.43000030517578,19.43000030517578,49600
2019-11-14,19.3799991607666,19.75,19.139999389648438,19.3799991607666,19.3799991607666,40700
2019-11-15,19.149999618530273,19.75,19.110000610351562,19.299999237060547,19.299999237060547,38300
2019-11-18,19.6299991607666,19.69300079345703,18.850000381469727,19.25,19.25,17500
2019-11-19,19.049999237060547,20.68000030517578,19.0,19.350000381469727,19.350000381469727,51900
2019-11-20,19.68000030517578,19.774999618530273,19.079999923706055,19.25,19.25,46700
2019-11-21,19.299999237060547,19.299999237060547,18.829999923706055,19.1200008392334,19.1200008392334,22800
2019-11-22,19.239999771118164,19.25,19.049999237060547,19.049999237060547,19.049999237060547,22500
2019-11-25,19.010000228881836,21.399999618530273,18.75,21.1200008392334,21.1200008392334,375100
2019-11-26,21.549999237060547,24.950000762939453,21.549999237060547,23.5,23.5,478200
2019-11-27,23.84000015258789,26.399999618530273,23.299999237060547,25.84000015258789,25.84000015258789,452900
2019-11-29,25.790000915527344,27.649999618530273,25.575000762939453,27.0,27.0,1254400
2019-12-02,27.25,27.969999313354492,20.749000549316406,23.0,23.0,248300
2019-12-03,21.979999542236328,24.809999465942383,20.94499969482422,23.84000015258789,23.84000015258789,162000
2019-12-04,23.399999618530273,23.6299991607666,22.43000030517578,22.5,22.5,195900
2019-12-05,21.969999313354492,22.510000228881836,21.799999237060547,22.200000762939453,22.200000762939453,123300
2019-12-06,22.219999313354492,23.6200008392334,22.219999313354492,23.579999923706055,23.579999923706055,92200
2019-12-09,23.299999237060547,24.43000030517578,22.770000457763672,22.8700008392334,22.8700008392334,96100
2019-12-10,22.59000015258789,23.6299991607666,21.540000915527344,21.770000457763672,21.770000457763672,120700
2019-12-11,21.690000534057617,22.670000076293945,21.329999923706055,22.489999771118164,22.489999771118164,41700
2019-12-12,22.25,23.5,21.850000381469727,23.0,23.0,61300
2019-12-13,22.81999969482422,23.5,22.610000610351562,22.989999771118164,22.989999771118164,135900
2019-12-16,23.18000030517578,23.5,22.790000915527344,23.0,23.0,231900
2019-12-17,22.450000762939453,23.1200008392334,22.059999465942383,22.600000381469727,22.600000381469727,202100
2019-12-18,22.719999313354492,22.905000686645508,21.801000595092773,22.110000610351562,22.110000610351562,167900
2019-12-19,22.079999923706055,22.81999969482422,21.860000610351562,22.0,22.0,207600
2019-12-20,22.079999923706055,22.420000076293945,20.8799991607666,21.270000457763672,21.270000457763672,303100
2019-12-23,21.200000762939453,21.71500015258789,20.6299991607666,20.950000762939453,20.950000762939453,54300
2019-12-24,20.780000686645508,21.45800018310547,20.5,20.690000534057617,20.690000534057617,18800
2019-12-26,20.610000610351562,20.84000015258789,19.75,20.360000610351562,20.360000610351562,54600
2019-12-27,20.209999084472656,20.347999572753906,19.760000228881836,19.829999923706055,19.829999923706055,27400
2019-12-30,19.81999969482422,19.860000610351562,18.440000534057617,19.399999618530273,19.399999618530273,46600
2019-12-31,19.329999923706055,19.75,19.260000228881836,19.5,19.5,51500
2020-01-02,19.579999923706055,19.729999542236328,18.850000381469727,19.5,19.5,49500
2020-01-03,19.280000686645508,19.7189998626709,18.700000762939453,18.84000015258789,18.84000015258789,59900
2020-01-06,18.735000610351562,19.299999237060547,18.735000610351562,18.950000762939453,18.950000762939453,69300
2020-01-07,18.6200008392334,19.75,18.6200008392334,19.15999984741211,19.15999984741211,60000
2020-01-08,18.969999313354492,19.559999465942383,18.187999725341797,18.709999084472656,18.709999084472656,51600
2020-01-09,18.850000381469727,19.360000610351562,18.440000534057617,18.6200008392334,18.6200008392334,31000
2020-01-10,18.5,18.700000762939453,17.799999237060547,18.209999084472656,18.209999084472656,34900
2020-01-13,18.059999465942383,18.485000610351562,17.239999771118164,17.459999084472656,17.459999084472656,61500
2020-01-14,17.239999771118164,17.469999313354492,16.56999969482422,16.75,16.75,71000
2020-01-15,16.65999984741211,17.479999542236328,16.25,16.889999389648438,16.889999389648438,74900
2020-01-16,16.8700008392334,16.972999572753906,16.399999618530273,16.729999542236328,16.729999542236328,42300
2020-01-17,16.639999389648438,16.731000900268555,16.082000732421875,16.489999771118164,16.489999771118164,39500
2020-01-21,17.989999771118164,17.989999771118164,16.110000610351562,16.40999984741211,16.40999984741211,71900
2020-01-22,16.649999618530273,16.916000366210938,16.190000534057617,16.6299991607666,16.6299991607666,26000
2020-01-23,16.56999969482422,16.959999084472656,16.399999618530273,16.68000030517578,16.68000030517578,31500
2020-01-24,16.469999313354492,17.540000915527344,16.149999618530273,16.670000076293945,16.670000076293945,39300
2020-01-27,16.510000228881836,17.420000076293945,16.343000411987305,16.670000076293945,16.670000076293945,32900
2020-01-28,16.520000457763672,17.920000076293945,16.5,17.200000762939453,17.200000762939453,21000
2020-01-29,17.329999923706055,17.329999923706055,16.95800018310547,17.15999984741211,17.15999984741211,8100
2020-01-30,17.059999465942383,17.579999923706055,17.059999465942383,17.190000534057617,17.190000534057617,27900
2020-01-31,17.260000228881836,17.670000076293945,17.030000686645508,17.399999618530273,17.399999618530273,35000
2020-02-03,17.479999542236328,18.0,17.149999618530273,17.260000228881836,17.260000228881836,37200
2020-02-04,17.15999984741211,18.084999084472656,17.084999084472656,17.229999542236328,17.229999542236328,34800
2020-02-05,17.31999969482422,18.149999618530273,17.299999237060547,17.600000381469727,17.600000381469727,18200
2020-02-06,17.700000762939453,17.94700050354004,17.288999557495117,17.469999313354492,17.469999313354492,19400
2020-02-07,17.579999923706055,17.899999618530273,17.200000762939453,17.540000915527344,17.540000915527344,30300
2020-02-10,17.700000762939453,17.700000762939453,17.149999618530273,17.459999084472656,17.459999084472656,10100
2020-02-11,17.360000610351562,17.579999923706055,17.219999313354492,17.579999923706055,17.579999923706055,14900
2020-02-12,17.75,18.489999771118164,17.357999801635742,18.0,18.0,31500
2020-02-13,17.920000076293945,18.670000076293945,17.56999969482422,18.18000030517578,18.18000030517578,14700
2020-02-14,18.270000457763672,18.809999465942383,17.739999771118164,18.40999984741211,18.40999984741211,17600
2020-02-18,18.450000762939453,19.06999969482422,18.0,19.06999969482422,19.06999969482422,19300
2020-02-19,19.239999771118164,19.46500015258789,18.579999923706055,19.100000381469727,19.100000381469727,22000
2020-02-20,19.170000076293945,19.5,18.639999389648438,18.889999389648438,18.889999389648438,14600
2020-02-21,18.950000762939453,19.600000381469727,18.639999389648438,18.8799991607666,18.8799991607666,25500
2020-02-24,18.389999389648438,19.239999771118164,18.1299991607666,18.219999313354492,18.219999313354492,26000
2020-02-25,18.59600067138672,18.709999084472656,17.06999969482422,17.959999084472656,17.959999084472656,12800
2020-02-26,18.299999237060547,20.638999938964844,18.03700065612793,19.56999969482422,19.56999969482422,57400
2020-02-27,19.219999313354492,20.2450008392334,18.850000381469727,19.510000228881836,19.510000228881836,83200
2020-02-28,19.520000457763672,19.975000381469727,16.940000534057617,17.90999984741211,17.90999984741211,97700
2020-03-02,18.200000762939453,19.760000228881836,16.81999969482422,19.18000030517578,19.18000030517578,104800
2020-03-03,19.079999923706055,19.899999618530273,17.829999923706055,18.1200008392334,18.1200008392334,133100
2020-03-04,18.43000030517578,18.989999771118164,17.760000228881836,18.0,18.0,75300
2020-03-05,17.68000030517578,18.899999618530273,17.3799991607666,18.760000228881836,18.760000228881836,91900
2020-03-06,18.34000015258789,19.299999237060547,18.145999908447266,18.75,18.75,72200
2020-03-09,18.1200008392334,19.139999389648438,17.3799991607666,18.719999313354492,18.719999313354492,53800
2020-03-10,18.889999389648438,19.489999771118164,16.166000366210938,16.5,16.5,176200
2020-03-11,16.25,16.850000381469727,15.390000343322754,15.989999771118164,15.989999771118164,63200
2020-03-12,14.020000457763672,14.562000274658203,10.270000457763672,10.4399995803833,10.4399995803833,153300
2020-03-13,10.609999656677246,11.180000305175781,9.569999694824219,10.899999618530273,10.899999618530273,189700
2020-03-16,9.680000305175781,9.6899995803833,7.5,7.820000171661377,7.820000171661377,144900
2020-03-17,8.010000228881836,10.0,8.010000228881836,9.300000190734863,9.300000190734863,169800
2020-03-18,9.09000015258789,9.829999923706055,8.420000076293945,8.680000305175781,8.680000305175781,88100
2020-03-19,8.84000015258789,12.0,8.59000015258789,11.300000190734863,11.300000190734863,243500
2020-03-20,11.15999984741211,15.390000343322754,10.640000343322754,12.319999694824219,12.319999694824219,1860700
2020-03-23,11.130000114440918,11.489999771118164,9.720000267028809,9.800000190734863,9.800000190734863,405300
2020-03-24,10.170000076293945,10.5600004196167,9.09000015258789,9.65999984741211,9.65999984741211,236400
2020-03-25,9.109999656677246,9.600000381469727,8.510000228881836,9.039999961853027,9.039999961853027,253800
2020-03-26,9.010000228881836,9.600000381469727,8.774999618530273,9.15999984741211,9.15999984741211,209200
2020-03-27,8.989999771118164,9.0,8.0,8.0,8.0,198500
2020-03-30,8.020000457763672,8.789999961853027,8.020000457763672,8.300000190734863,8.300000190734863,141000
2020-03-31,8.300000190734863,8.4399995803833,7.630000114440918,8.390000343322754,8.390000343322754,252400
2020-04-01,7.769999980926514,8.206000328063965,7.0,7.090000152587891,7.090000152587891,356200
2020-04-02,7.090000152587891,7.300000190734863,6.5,6.730000019073486,6.730000019073486,175200
2020-04-03,6.679999828338623,6.880000114440918,6.050000190734863,6.070000171661377,6.070000171661377,187400
2020-04-06,6.389999866485596,6.5,5.849999904632568,5.900000095367432,5.900000095367432,189700
2020-04-07,6.0,6.183000087738037,5.309999942779541,5.46999979019165,5.46999979019165,348800
2020-04-08,5.699999809265137,5.699999809265137,5.039999961853027,5.360000133514404,5.360000133514404,333200
2020-04-09,5.329999923706055,6.0,5.150000095367432,5.789999961853027,5.789999961853027,293300
2020-04-13,5.860000133514404,6.380000114440918,5.5,6.360000133514404,6.360000133514404,265000
2020-04-14,6.610000133514404,7.159999847412109,6.260000228881836,7.090000152587891,7.090000152587891,319000
2020-04-15,7.150000095367432,7.46999979019165,6.360000133514404,6.840000152587891,6.840000152587891,226800
2020-04-16,6.840000152587891,6.860000133514404,6.110000133514404,6.289999961853027,6.289999961853027,246100
2020-04-17,6.510000228881836,6.809999942779541,6.300000190734863,6.309999942779541,6.309999942779541,190800
2020-04-20,6.420000076293945,6.599999904632568,6.099999904632568,6.309999942779541,6.309999942779541,251700
2020-04-21,6.159999847412109,6.380000114440918,6.0,6.260000228881836,6.260000228881836,178700
2020-04-22,6.369999885559082,6.690000057220459,6.210000038146973,6.579999923706055,6.579999923706055,187000
2020-04-23,6.559999942779541,7.0,6.380000114440918,6.639999866485596,6.639999866485596,321600
2020-04-24,6.650000095367432,6.980000019073486,6.599999904632568,6.880000114440918,6.880000114440918,199200
2020-04-27,6.940000057220459,7.869999885559082,6.934999942779541,7.789999961853027,7.789999961853027,349400
2020-04-28,8.029999732971191,8.479999542236328,8.010000228881836,8.300000190734863,8.300000190734863,196000
2020-04-29,8.600000381469727,9.149999618530273,8.319999694824219,8.850000381469727,8.850000381469727,329000
2020-04-30,8.649999618530273,8.789999961853027,7.869999885559082,8.130000114440918,8.130000114440918,247100
2020-05-01,7.940000057220459,8.010000228881836,7.519999980926514,7.639999866485596,7.639999866485596,142800
2020-05-04,7.590000152587891,7.789999961853027,6.75,7.550000190734863,7.550000190734863,285000
2020-05-05,7.619999885559082,7.980000019073486,7.21999979019165,7.230000019073486,7.230000019073486,152500
2020-05-06,7.289999961853027,7.461999893188477,6.880000114440918,6.940000057220459,6.940000057220459,204800
2020-05-07,7.0,7.380000114440918,6.960000038146973,7.210000038146973,7.210000038146973,154400
2020-05-08,7.320000171661377,7.539999961853027,7.204999923706055,7.320000171661377,7.320000171661377,148100
2020-05-11,7.199999809265137,7.28000020980835,6.929999828338623,7.03000020980835,7.03000020980835,193900
2020-05-12,7.03000020980835,7.139999866485596,6.619999885559082,6.670000076293945,6.670000076293945,198000
2020-05-13,6.619999885559082,6.710000038146973,6.010000228881836,6.239999771118164,6.239999771118164,216000
2020-05-14,6.090000152587891,6.440000057220459,5.570000171661377,6.400000095367432,6.400000095367432,189900
2020-05-15,6.460000038146973,6.710000038146973,6.199999809265137,6.599999904632568,6.599999904632568,111500
2020-05-18,6.960000038146973,7.150000095367432,6.369999885559082,6.670000076293945,6.670000076293945,283800
2020-05-19,6.619999885559082,6.900000095367432,6.409999847412109,6.800000190734863,6.800000190734863,149600
2020-05-20,6.900000095367432,6.914999961853027,6.53000020980835,6.650000095367432,6.650000095367432,164400
2020-05-21,6.599999904632568,6.75,6.380000114440918,6.389999866485596,6.389999866485596,167200
2020-05-22,6.539999961853027,6.659999847412109,6.0,6.619999885559082,6.619999885559082,268700
2020-05-26,7.039999961853027,7.239999771118164,6.650000095367432,6.829999923706055,6.829999923706055,397000
2020-05-27,6.920000076293945,7.199999809265137,6.75,7.199999809265137,7.199999809265137,241600
2020-05-28,7.260000228881836,8.199999809265137,7.019999980926514,7.320000171661377,7.320000171661377,323600
2020-05-29,7.329999923706055,7.506999969482422,6.900000095367432,7.159999847412109,7.159999847412109,256900
2020-06-01,7.110000133514404,7.15500020980835,6.599999904632568,7.0,7.0,254200
2020-06-02,6.989999771118164,7.039999961853027,6.670000076293945,6.900000095367432,6.900000095367432,204900
2020-06-03,7.070000171661377,7.145999908447266,6.809999942779541,6.880000114440918,6.880000114440918,257100
2020-06-04,6.820000171661377,7.139999866485596,6.610000133514404,7.110000133514404,7.110000133514404,418300
2020-06-05,7.25,7.650000095367432,7.179999828338623,7.5,7.5,587700
2020-06-08,7.909999847412109,10.729999542236328,7.829999923706055,10.229999542236328,10.229999542236328,1337900
2020-06-09,9.710000038146973,9.970000267028809,8.59000015258789,8.6899995803833,8.6899995803833,600700
2020-06-10,8.489999771118164,9.5600004196167,8.390000343322754,9.039999961853027,9.039999961853027,443000
2020-06-11,8.399999618530273,8.779999732971191,7.5,7.510000228881836,7.510000228881836,484000
2020-06-12,8.220000267028809,8.239999771118164,7.550000190734863,7.739999771118164,7.739999771118164,334900
2020-06-15,7.599999904632568,8.300000190734863,7.539999961853027,8.0600004196167,8.0600004196167,289700
2020-06-16,8.5,8.779999732971191,7.889999866485596,8.25,8.25,480800
2020-06-17,8.270000457763672,8.270000457763672,7.659999847412109,7.860000133514404,7.860000133514404,336200
2020-06-18,7.849999904632568,8.289999961853027,7.739999771118164,8.029999732971191,8.029999732971191,264300
2020-06-19,8.270000457763672,8.40999984741211,7.946000099182129,8.210000038146973,8.210000038146973,574800
2020-06-22,8.100000381469727,8.40999984741211,7.929999828338623,8.3100004196167,8.3100004196167,400600
2020-06-23,8.40999984741211,8.880000114440918,8.350000381469727,8.65999984741211,8.65999984741211,407900
2020-06-24,8.479999542236328,8.6899995803833,8.149999618530273,8.600000381469727,8.600000381469727,360800
2020-06-25,8.489999771118164,9.289999961853027,8.359999656677246,8.489999771118164,8.489999771118164,623900
2020-06-26,8.390000343322754,8.550000190734863,7.75,8.010000228881836,8.010000228881836,2352200
2020-06-29,8.0,8.800000190734863,7.960000038146973,8.789999961853027,8.789999961853027,267000
2020-06-30,8.449999809265137,9.069999694824219,8.361000061035156,9.050000190734863,9.050000190734863,279600
2020-07-01,8.800000190734863,9.25,8.449999809265137,8.899999618530273,8.899999618530273,472100
2020-07-02,9.0,9.40999984741211,8.710000038146973,8.920000076293945,8.920000076293945,283900
2020-07-06,9.279999732971191,9.5,8.949999809265137,9.34000015258789,9.34000015258789,567300
2020-07-07,9.479999542236328,9.5,8.510000228881836,8.579999923706055,8.579999923706055,457800
2020-07-08,8.529999732971191,8.979999542236328,8.5,8.720000267028809,8.720000267028809,274600
2020-07-09,8.729999542236328,8.850000381469727,8.449999809265137,8.510000228881836,8.510000228881836,294800
2020-07-10,8.550000190734863,9.0,8.489999771118164,8.970000267028809,8.970000267028809,249400
2020-07-13,8.989999771118164,9.109999656677246,8.680000305175781,8.720000267028809,8.720000267028809,238000
2020-07-14,8.739999771118164,8.930000305175781,8.565999984741211,8.720000267028809,8.720000267028809,208700
2020-07-15,8.970000267028809,9.1899995803833,8.84000015258789,9.010000228881836,9.010000228881836,215700
2020-07-16,8.930000305175781,9.140000343322754,8.670000076293945,8.739999771118164,8.739999771118164,209400
2020-07-17,8.720000267028809,8.920000076293945,8.550000190734863,8.649999618530273,8.649999618530273,159900
2020-07-20,8.699999809265137,8.9399995803833,8.520000457763672,8.819999694824219,8.819999694824219,146700
2020-07-21,8.930000305175781,9.15999984741211,8.880000114440918,8.989999771118164,8.989999771118164,128400
2020-07-22,8.880000114440918,9.029999732971191,8.779999732971191,8.859999656677246,8.859999656677246,95600
2020-07-23,8.899999618530273,8.975000381469727,8.720000267028809,8.880000114440918,8.880000114440918,91100
2020-07-24,8.8100004196167,8.960000038146973,8.710000038146973,8.760000228881836,8.760000228881836,66400
2020-07-27,8.75,8.9399995803833,8.600000381469727,8.829999923706055,8.829999923706055,193300
2020-07-28,8.760000228881836,8.890000343322754,8.65999984741211,8.800000190734863,8.800000190734863,95200
2020-07-29,8.850000381469727,8.979999542236328,8.699999809265137,8.850000381469727,8.850000381469727,150700
2020-07-30,8.84000015258789,8.930000305175781,8.569999694824219,8.859999656677246,8.859999656677246,108100
2020-07-31,8.779999732971191,8.920000076293945,8.699999809265137,8.859999656677246,8.859999656677246,114800
2020-08-03,8.800000190734863,8.899999618530273,8.569999694824219,8.640000343322754,8.640000343322754,171500
2020-08-04,8.609999656677246,8.84000015258789,8.59000015258789,8.819999694824219,8.819999694824219,179800
2020-08-05,8.890000343322754,9.050000190734863,8.810999870300293,9.0,9.0,158000
2020-08-06,9.010000228881836,9.079999923706055,8.859999656677246,8.960000038146973,8.960000038146973,67600
2020-08-07,8.890000343322754,9.09000015258789,8.850000381469727,9.039999961853027,9.039999961853027,154300
2020-08-10,9.069999694824219,9.5,8.949999809265137,9.100000381469727,9.100000381469727,267500
2020-08-11,9.15999984741211,9.75,9.003000259399414,9.529999732971191,9.529999732971191,307100
2020-08-12,9.65999984741211,9.699999809265137,9.15999984741211,9.204999923706055,9.204999923706055,147400
2020-08-13,9.119999885559082,9.279999732971191,8.800000190734863,8.899999618530273,8.899999618530273,91200
2020-08-14,8.789999961853027,9.215999603271484,8.619999885559082,8.899999618530273,8.899999618530273,170800
2020-08-17,8.920000076293945,8.920000076293945,8.640000343322754,8.739999771118164,8.739999771118164,116200
2020-08-18,8.819999694824219,8.819999694824219,8.579999923706055,8.65999984741211,8.65999984741211,121800
2020-08-19,8.6899995803833,9.050000190734863,8.63599967956543,8.949999809265137,8.949999809265137,212900
2020-08-20,8.84000015258789,8.9350004196167,8.699999809265137,8.75,8.75,91700
2020-08-21,8.859999656677246,8.859999656677246,8.180000305175781,8.289999961853027,8.289999961853027,339100
2020-08-24,8.420000076293945,8.45199966430664,7.914999961853027,8.319999694824219,8.319999694824219,201500
2020-08-25,8.350000381469727,8.350000381469727,8.0600004196167,8.279999732971191,8.279999732971191,52100
2020-08-26,8.239999771118164,8.3100004196167,8.0,8.109999656677246,8.109999656677246,127100
2020-08-27,8.149999618530273,8.34000015258789,8.0,8.25,8.25,128100
2020-08-28,8.300000190734863,8.350000381469727,8.130000114440918,8.350000381469727,8.350000381469727,87900
2020-08-31,8.289999961853027,8.289999961853027,7.849999904632568,7.940000057220459,7.940000057220459,189500
2020-09-01,7.860000133514404,7.973999977111816,7.619999885559082,7.739999771118164,7.739999771118164,198500
2020-09-02,7.690000057220459,7.75,7.190000057220459,7.369999885559082,7.369999885559082,259800
2020-09-03,7.369999885559082,7.860000133514404,7.210000038146973,7.269999980926514,7.269999980926514,183500
2020-09-04,7.420000076293945,7.730000019073486,6.920000076293945,7.159999847412109,7.159999847412109,238500
2020-09-08,7.139999866485596,7.190000057220459,6.920000076293945,7.0,7.0,198400
2020-09-09,7.070000171661377,7.139999866485596,6.840000152587891,6.920000076293945,6.920000076293945,196000
2020-09-10,6.920000076293945,7.184999942779541,6.909999847412109,6.96999979019165,6.96999979019165,253800
2020-09-11,7.010000228881836,7.010000228881836,6.630000114440918,6.75,6.75,210300
2020-09-14,6.789999961853027,7.090000152587891,6.760000228881836,6.980000019073486,6.980000019073486,159200
2020-09-15,7.0,7.179999828338623,6.860000133514404,6.929999828338623,6.929999828338623,115500
2020-09-16,6.929999828338623,7.170000076293945,6.849999904632568,7.059999942779541,7.059999942779541,114600
2020-09-17,7.019999980926514,7.269999980926514,6.900000095367432,7.190000057220459,7.190000057220459,98800
2020-09-18,7.300000190734863,7.300000190734863,6.809999942779541,7.070000171661377,7.070000171661377,313300
2020-09-21,6.940000057220459,6.940000057220459,6.519999980926514,6.579999923706055,6.579999923706055,290600
2020-09-22,6.630000114440918,6.685999870300293,6.190000057220459,6.380000114440918,6.380000114440918,232700
2020-09-23,6.349999904632568,6.550000190734863,6.019999980926514,6.059999942779541,6.059999942779541,208800
2020-09-24,6.150000095367432,6.289999961853027,6.0,6.110000133514404,6.110000133514404,179900
2020-09-25,6.059999942779541,6.369999885559082,6.059999942779541,6.329999923706055,6.329999923706055,94600
2020-09-28,6.380000114440918,6.5,6.340000152587891,6.429999828338623,6.429999828338623,171300
2020-09-29,6.429999828338623,6.610000133514404,6.340000152587891,6.539999961853027,6.539999961853027,93200
2020-09-30,6.550000190734863,6.78000020980835,6.548999786376953,6.610000133514404,6.610000133514404,125500
2020-10-01,6.630000114440918,6.829999923706055,6.603000164031982,6.800000190734863,6.800000190734863,107000
2020-10-02,6.559999942779541,7.03000020980835,6.510000228881836,6.960000038146973,6.960000038146973,144000
2020-10-05,7.0,7.189000129699707,6.909999847412109,6.929999828338623,6.929999828338623,82800
2020-10-06,7.010000228881836,7.199999809265137,6.885000228881836,6.96999979019165,6.96999979019165,120800
2020-10-07,7.079999923706055,7.199999809265137,6.909999847412109,7.190000057220459,7.190000057220459,107200
2020-10-08,7.260000228881836,7.570000171661377,7.181000232696533,7.289999961853027,7.289999961853027,103000
2020-10-09,7.349999904632568,7.409999847412109,7.079999923706055,7.230000019073486,7.230000019073486,73300
2020-10-12,7.300000190734863,7.599999904632568,7.244999885559082,7.5,7.5,111300
2020-10-13,7.420000076293945,7.460000038146973,7.21999979019165,7.389999866485596,7.389999866485596,65300
2020-10-14,7.360000133514404,7.690000057220459,7.324999809265137,7.460000038146973,7.460000038146973,107000
2020-10-15,7.519999980926514,7.639999866485596,7.269999980926514,7.5,7.5,72400
2020-10-16,7.46999979019165,7.650000095367432,7.449999809265137,7.474999904632568,7.474999904632568,48700
2020-10-19,7.539999961853027,7.639999866485596,7.489999771118164,7.53000020980835,7.53000020980835,46500
2020-10-20,7.599999904632568,7.75,7.499000072479248,7.539999961853027,7.539999961853027,57000
2020-10-21,7.570000171661377,7.739999771118164,7.420000076293945,7.559999942779541,7.559999942779541,43700
2020-10-22,7.599999904632568,7.769999980926514,7.560999870300293,7.710000038146973,7.710000038146973,80500
2020-10-23,7.590000152587891,7.75,7.510000228881836,7.590000152587891,7.590000152587891,63200
2020-10-26,7.510000228881836,7.579999923706055,7.230000019073486,7.28000020980835,7.28000020980835,123500
2020-10-27,7.239999771118164,7.335000038146973,6.860000133514404,6.880000114440918,6.880000114440918,82300
2020-10-28,6.739999771118164,6.789000034332275,6.300000190734863,6.380000114440918,6.380000114440918,215900
2020-10-29,6.340000152587891,6.639999866485596,6.25,6.619999885559082,6.619999885559082,118200
2020-10-30,6.570000171661377,6.704999923706055,6.425000190734863,6.590000152587891,6.590000152587891,180000
2020-11-02,6.619999885559082,6.78000020980835,6.619999885559082,6.75,6.75,50900
2020-11-03,6.860000133514404,7.099999904632568,6.7129998207092285,6.960000038146973,6.960000038146973,125500
2020-11-04,6.929999828338623,6.940000057220459,6.710000038146973,6.75,6.75,60000
2020-11-05,6.730000019073486,6.989999771118164,6.730000019073486,6.940000057220459,6.940000057220459,53200
2020-11-06,6.929999828338623,7.0,6.78000020980835,6.800000190734863,6.800000190734863,48400
2020-11-09,7.309999942779541,8.25,7.230999946594238,7.949999809265137,7.949999809265137,299200
2020-11-10,8.100000381469727,8.100000381469727,7.039999961853027,7.184999942779541,7.184999942779541,334300
2020-11-11,7.170000076293945,7.300000190734863,6.909999847412109,7.099999904632568,7.099999904632568,110200
2020-11-12,7.019999980926514,7.110000133514404,6.920000076293945,6.989999771118164,6.989999771118164,129400
2020-11-13,7.03000020980835,7.139999866485596,6.840000152587891,7.03000020980835,7.03000020980835,58100
2020-11-16,7.190000057220459,7.559999942779541,7.190000057220459,7.349999904632568,7.349999904632568,181600
2020-11-17,7.239999771118164,7.5,7.139999866485596,7.170000076293945,7.170000076293945,55300
2020-11-18,7.28000020980835,7.599999904632568,7.2230000495910645,7.389999866485596,7.389999866485596,193000
2020-11-19,7.409999847412109,7.789999961853027,7.315000057220459,7.71999979019165,7.71999979019165,151000
2020-11-20,7.590000152587891,7.849999904632568,7.5,7.804999828338623,7.804999828338623,134600
2020-11-23,7.829999923706055,7.989999771118164,7.75,7.769999980926514,7.769999980926514,186600
2020-11-24,7.980000019073486,8.25,7.929999828338623,8.149999618530273,8.149999618530273,230200
2020-11-25,8.119999885559082,8.25,7.980000019073486,8.140000343322754,8.140000343322754,63800
2020-11-27,8.180000305175781,8.180000305175781,7.989999771118164,8.0600004196167,8.0600004196167,23400
2020-11-30,7.989999771118164,7.989999771118164,7.715000152587891,7.769999980926514,7.769999980926514,216000
2020-12-01,7.800000190734863,7.800000190734863,7.550000190734863,7.630000114440918,7.630000114440918,98800
2020-12-02,7.650000095367432,7.71999979019165,7.449999809265137,7.539999961853027,7.539999961853027,79200
2020-12-03,7.539999961853027,7.849999904632568,7.429999828338623,7.579999923706055,7.579999923706055,58700
2020-12-04,7.659999847412109,8.489999771118164,7.659999847412109,8.420000076293945,8.420000076293945,212700
2020-12-07,8.449999809265137,8.699999809265137,8.25,8.449999809265137,8.449999809265137,130800
2020-12-08,8.34000015258789,8.699999809265137,8.109999656677246,8.609999656677246,8.609999656677246,132300
2020-12-09,8.65999984741211,8.760000228881836,8.34000015258789,8.550000190734863,8.550000190734863,104100
2020-12-10,8.539999961853027,8.59000015258789,8.270000457763672,8.399999618530273,8.399999618530273,48400
2020-12-11,8.329999923706055,8.4399995803833,8.119999885559082,8.140000343322754,8.140000343322754,44900
2020-12-14,8.25,8.279999732971191,7.789999961853027,7.829999923706055,7.829999923706055,117900
2020-12-15,7.869999885559082,8.59000015258789,7.800000190734863,8.300000190734863,8.300000190734863,130200
2020-12-16,8.300000190734863,8.359999656677246,7.989999771118164,8.109999656677246,8.109999656677246,90800
2020-12-17,8.079999923706055,8.180000305175781,7.989999771118164,8.0600004196167,8.0600004196167,79600
2020-12-18,8.140000343322754,8.199999809265137,7.949999809265137,8.039999961853027,8.039999961853027,233100
2020-12-21,7.820000171661377,8.239999771118164,7.699999809265137,8.210000038146973,8.210000038146973,122400
2020-12-22,8.199999809265137,8.5,7.985000133514404,8.350000381469727,8.350000381469727,89000
2020-12-23,8.399999618530273,8.539999961853027,8.100000381469727,8.119999885559082,8.119999885559082,59200
2020-12-24,8.210000038146973,8.289999961853027,7.800000190734863,7.880000114440918,7.880000114440918,65100
2020-12-28,7.989999771118164,8.3100004196167,7.909999847412109,7.980000019073486,7.980000019073486,62400
2020-12-29,8.020000457763672,8.020000457763672,7.650000095367432,7.824999809265137,7.824999809265137,95200
2020-12-30,7.809999942779541,7.940000057220459,7.659999847412109,7.659999847412109,7.659999847412109,118300
