Date,Open,High,Low,Close,Adj Close,Volume
2020-08-04,11.40999984741211,11.8100004196167,11.3100004196167,11.399999618530273,11.399999618530273,255100
2020-08-05,11.75,12.5,11.5,12.149999618530273,12.149999618530273,119000
2020-08-06,12.125,12.5,11.899999618530273,12.390000343322754,12.390000343322754,73900
2020-08-07,12.350000381469727,12.350000381469727,11.819999694824219,11.899999618530273,11.899999618530273,32000
2020-08-10,11.829999923706055,12.0,11.680000305175781,11.680000305175781,11.680000305175781,15400
2020-08-11,11.6850004196167,11.96500015258789,11.260000228881836,11.460000038146973,11.460000038146973,22800
2020-08-12,11.699999809265137,11.699999809265137,11.274999618530273,11.489999771118164,11.489999771118164,17400
2020-08-13,11.25,11.354999542236328,11.25,11.260000228881836,11.260000228881836,32000
2020-08-14,11.260000228881836,11.406999588012695,11.260000228881836,11.399999618530273,11.399999618530273,18000
2020-08-17,11.5,11.5,11.260000228881836,11.449999809265137,11.449999809265137,14900
2020-08-18,11.489999771118164,11.600000381469727,11.270000457763672,11.5,11.5,63200
2020-08-19,11.789999961853027,11.789999961853027,10.829999923706055,10.84000015258789,10.84000015258789,14100
2020-08-20,11.210000038146973,11.550000190734863,11.199999809265137,11.239999771118164,11.239999771118164,15300
2020-08-21,11.25,11.25,11.140000343322754,11.25,11.25,2100
2020-08-24,11.220000267028809,11.229999542236328,11.140000343322754,11.199999809265137,11.199999809265137,5600
2020-08-25,10.960000038146973,11.600000381469727,10.829999923706055,11.0,11.0,338700
2020-08-26,11.0,11.170000076293945,11.0,11.050000190734863,11.050000190734863,18900
2020-08-27,11.25,11.25,11.0,11.0,11.0,22100
2020-08-28,11.0,11.15999984741211,11.0,11.15999984741211,11.15999984741211,7600
2020-08-31,11.449999809265137,11.449999809265137,11.0,11.199999809265137,11.199999809265137,30100
2020-09-01,11.005000114440918,11.506999969482422,11.0,11.100000381469727,11.100000381469727,41300
2020-09-02,11.0,11.149999618530273,11.0,11.050000190734863,11.050000190734863,12600
2020-09-03,11.050000190734863,11.319999694824219,11.0,11.100000381469727,11.100000381469727,10100
2020-09-04,11.149999618530273,11.5,11.100000381469727,11.149999618530273,11.149999618530273,31100
2020-09-08,11.109999656677246,11.199999809265137,11.109999656677246,11.199999809265137,11.199999809265137,6500
2020-09-09,11.199999809265137,11.25,11.149999618530273,11.25,11.25,10600
2020-09-10,11.149999618530273,11.350000381469727,11.079999923706055,11.079999923706055,11.079999923706055,32100
2020-09-11,11.100000381469727,11.454999923706055,11.100000381469727,11.100000381469727,11.100000381469727,4800
2020-09-14,11.40999984741211,11.40999984741211,11.020000457763672,11.079999923706055,11.079999923706055,12500
2020-09-15,11.149999618530273,11.260000228881836,11.119999885559082,11.149999618530273,11.149999618530273,15100
2020-09-16,11.239999771118164,11.779999732971191,11.0,11.0,11.0,10400
2020-09-17,11.029999732971191,11.164999961853027,11.029999732971191,11.100000381469727,11.100000381469727,25000
2020-09-18,11.109999656677246,11.220000267028809,11.0,11.100000381469727,11.100000381469727,10300
2020-09-21,11.100000381469727,11.1899995803833,11.100000381469727,11.100000381469727,11.100000381469727,10200
2020-09-22,11.199999809265137,11.229999542236328,11.010000228881836,11.100000381469727,11.100000381469727,9800
2020-09-23,11.100000381469727,11.100000381469727,10.850000381469727,10.920000076293945,10.920000076293945,5800
2020-09-24,10.829999923706055,11.119999885559082,10.829999923706055,10.859999656677246,10.859999656677246,14600
2020-09-25,11.199999809265137,11.225000381469727,10.949999809265137,11.050000190734863,11.050000190734863,1800
2020-09-28,10.989999771118164,11.0,10.949999809265137,10.949999809265137,10.949999809265137,7900
2020-09-29,11.0,11.0,10.829999923706055,10.920000076293945,10.920000076293945,9700
2020-09-30,10.850000381469727,11.149999618530273,10.829999923706055,11.0,11.0,37400
2020-10-01,10.949999809265137,11.149999618530273,10.880000114440918,11.010000228881836,11.010000228881836,16900
2020-10-02,11.079999923706055,11.09000015258789,10.760000228881836,11.079999923706055,11.079999923706055,57500
2020-10-05,10.8100004196167,11.140000343322754,10.8100004196167,11.140000343322754,11.140000343322754,9700
2020-10-06,11.09000015258789,11.09000015258789,10.819999694824219,11.050000190734863,11.050000190734863,19200
2020-10-07,11.039999961853027,11.095999717712402,10.989999771118164,11.039999961853027,11.039999961853027,28000
2020-10-08,11.0,11.050000190734863,10.90999984741211,11.010000228881836,11.010000228881836,54600
2020-10-09,11.0,11.065999984741211,10.960000038146973,10.960000038146973,10.960000038146973,29400
2020-10-12,11.0,11.149999618530273,11.0,11.0,11.0,21400
2020-10-13,11.130000114440918,11.300000190734863,10.949999809265137,10.949999809265137,10.949999809265137,7700
2020-10-14,11.0,11.102999687194824,11.0,11.0,11.0,7100
2020-10-15,11.050000190734863,11.050000190734863,11.050000190734863,11.050000190734863,11.050000190734863,3200
2020-10-16,11.0,11.149999618530273,11.0,11.010000228881836,11.010000228881836,34000
2020-10-19,11.010000228881836,11.220000267028809,11.010000228881836,11.220000267028809,11.220000267028809,400
2020-10-20,11.09000015258789,11.100000381469727,11.057999610900879,11.069999694824219,11.069999694824219,8500
2020-10-21,11.100000381469727,11.300000190734863,10.960000038146973,10.960000038146973,10.960000038146973,10800
2020-10-22,10.979999542236328,11.300000190734863,10.979999542236328,11.0,11.0,32300
2020-10-23,10.949999809265137,10.949999809265137,10.779999732971191,10.949999809265137,10.949999809265137,16800
2020-10-26,10.800000190734863,10.949999809265137,10.800000190734863,10.949999809265137,10.949999809265137,2600
2020-10-27,11.005000114440918,11.204999923706055,10.850000381469727,11.050000190734863,11.050000190734863,50800
2020-10-28,11.111000061035156,11.289999961853027,10.850000381469727,11.0,11.0,3200
2020-10-29,11.065999984741211,11.065999984741211,10.899999618530273,10.899999618530273,10.899999618530273,2900
2020-10-30,10.90999984741211,10.994999885559082,10.890000343322754,10.994999885559082,10.994999885559082,35200
2020-11-02,11.0,11.295000076293945,11.0,11.145000457763672,11.145000457763672,7400
2020-11-03,10.899999618530273,10.949999809265137,10.85099983215332,10.85099983215332,10.85099983215332,14700
2020-11-04,10.890000343322754,11.234999656677246,10.489999771118164,10.609999656677246,10.609999656677246,19800
2020-11-05,11.0,11.0,10.90999984741211,11.0,11.0,1200
2020-11-06,11.0,11.0,10.899999618530273,10.899999618530273,10.899999618530273,1200
2020-11-09,11.0,11.220000267028809,10.949999809265137,11.024999618530273,11.024999618530273,11200
2020-11-10,11.1899995803833,11.1899995803833,10.970000267028809,11.005000114440918,11.005000114440918,3400
2020-11-11,11.0,11.0,10.954999923706055,11.0,11.0,7000
2020-11-12,11.0,11.029999732971191,10.90999984741211,10.944999694824219,10.944999694824219,12200
2020-11-13,11.024999618530273,11.100000381469727,10.949999809265137,11.0,11.0,20100
2020-11-16,11.069999694824219,11.069999694824219,10.979999542236328,10.979999542236328,10.979999542236328,3600
2020-11-17,11.0,11.270000457763672,11.0,11.119999885559082,11.119999885559082,57300
2020-11-18,11.369999885559082,11.369999885559082,11.227999687194824,11.23799991607666,11.23799991607666,1700
2020-11-19,11.390000343322754,11.934000015258789,11.208999633789062,11.600000381469727,11.600000381469727,41900
2020-11-20,11.5,12.289999961853027,11.5,11.630000114440918,11.630000114440918,13300
2020-11-23,11.75,11.755000114440918,11.729999542236328,11.75,11.75,6200
2020-11-24,11.949999809265137,11.949999809265137,11.399999618530273,11.449999809265137,11.449999809265137,33000
2020-11-25,11.630000114440918,11.704999923706055,11.550000190734863,11.59000015258789,11.59000015258789,5700
2020-11-27,11.717000007629395,11.717000007629395,11.5,11.5,11.5,4800
2020-11-30,11.600000381469727,11.710000038146973,11.300000190734863,11.649999618530273,11.649999618530273,6800
2020-12-01,11.449999809265137,11.649999618530273,11.449999809265137,11.645000457763672,11.645000457763672,15900
2020-12-02,11.739999771118164,11.739999771118164,11.5,11.670999526977539,11.670999526977539,11300
2020-12-03,11.5,11.699999809265137,11.5,11.699999809265137,11.699999809265137,3500
2020-12-04,11.109999656677246,11.798999786376953,11.109999656677246,11.699999809265137,11.699999809265137,2500
2020-12-07,11.75,11.75,11.567999839782715,11.75,11.75,18100
2020-12-08,11.869000434875488,11.869999885559082,11.772000312805176,11.800000190734863,11.800000190734863,5100
2020-12-09,11.699999809265137,12.199999809265137,11.119999885559082,11.760000228881836,11.760000228881836,75800
2020-12-10,11.949999809265137,12.5,11.949999809265137,12.385000228881836,12.385000228881836,13900
2020-12-11,12.329000473022461,12.399999618530273,12.109999656677246,12.199999809265137,12.199999809265137,26200
2020-12-14,12.199999809265137,12.199999809265137,11.970000267028809,12.0,12.0,36200
2020-12-15,12.0,12.0,11.8100004196167,11.949999809265137,11.949999809265137,26600
2020-12-16,11.800000190734863,11.899999618530273,11.635000228881836,11.850000381469727,11.850000381469727,10300
2020-12-17,11.800000190734863,11.800000190734863,11.699999809265137,11.800000190734863,11.800000190734863,3100
2020-12-18,11.661999702453613,11.960000038146973,11.661999702453613,11.960000038146973,11.960000038146973,24500
2020-12-21,11.890000343322754,11.895000457763672,11.75,11.75,11.75,2900
2020-12-22,11.899999618530273,11.899999618530273,11.75,11.75,11.75,15200
2020-12-23,11.800000190734863,11.819999694824219,11.5,11.520000457763672,11.520000457763672,16700
2020-12-24,12.0,12.0,11.800000190734863,11.800000190734863,11.800000190734863,18400
2020-12-28,11.800000190734863,11.887999534606934,11.670000076293945,11.779999732971191,11.779999732971191,39700
2020-12-29,11.789999961853027,12.75,11.789999961853027,12.34000015258789,12.34000015258789,10500
2020-12-30,12.34000015258789,13.0,12.34000015258789,13.0,13.0,57300
