Date,Open,High,Low,Close,Adj Close,Volume
2019-12-09,24.81999969482422,24.81999969482422,24.520000457763672,24.799999237060547,21.53456687927246,104300
2019-12-10,24.75,24.75,24.59000015258789,24.75,21.491151809692383,26400
2019-12-11,24.700000762939453,24.952999114990234,24.600000381469727,24.780000686645508,21.51719856262207,103600
2019-12-12,24.899999618530273,25.149999618530273,24.790000915527344,24.809999465942383,21.54324722290039,72900
2019-12-13,24.920000076293945,24.920000076293945,24.75,24.75,21.491151809692383,53800
2019-12-16,24.81999969482422,24.850000381469727,24.75,24.75,21.491151809692383,45800
2019-12-17,24.770000457763672,24.799999237060547,24.649999618530273,24.68000030517578,21.43036460876465,98400
2019-12-18,24.739999771118164,24.799999237060547,24.709999084472656,24.729999542236328,21.47378158569336,43800
2019-12-19,24.75,24.875,24.75,24.780000686645508,21.51719856262207,30100
2019-12-20,24.854000091552734,25.0,24.799999237060547,24.889999389648438,21.612712860107422,32900
2019-12-23,24.979999542236328,25.149999618530273,24.93000030517578,25.117000579833984,21.809825897216797,25700
2019-12-24,25.149999618530273,25.149999618530273,25.0,25.049999237060547,21.751649856567383,18200
2019-12-26,25.040000915527344,25.110000610351562,25.040000915527344,25.072999954223633,21.771617889404297,27800
2019-12-27,25.09000015258789,25.1299991607666,25.030000686645508,25.030000686645508,21.734281539916992,16000
2019-12-30,25.030000686645508,25.264999389648438,25.030000686645508,25.110000610351562,21.803749084472656,17900
2019-12-31,25.100000381469727,25.25,25.100000381469727,25.1299991607666,21.82111358642578,19300
2020-01-02,25.299999237060547,25.420000076293945,25.170000076293945,25.420000076293945,22.146074295043945,11400
2020-01-03,25.600000381469727,25.799999237060547,25.420000076293945,25.739999771118164,22.424861907958984,21600
2020-01-06,25.65999984741211,25.719999313354492,25.6299991607666,25.672000885009766,22.365619659423828,11300
2020-01-07,25.700000762939453,25.729999542236328,25.600000381469727,25.707000732421875,22.39611053466797,8200
2020-01-08,25.645000457763672,25.690000534057617,25.420000076293945,25.518999099731445,22.232324600219727,18400
2020-01-09,25.538999557495117,25.639999389648438,25.538999557495117,25.625,22.32467269897461,9400
2020-01-10,25.6299991607666,25.6299991607666,25.614999771118164,25.614999771118164,22.315961837768555,2200
2020-01-13,25.6200008392334,25.899999618530273,25.549999237060547,25.86199951171875,22.531147003173828,15900
2020-01-14,25.700000762939453,25.93000030517578,25.597999572753906,25.649999618530273,22.346450805664062,13100
2020-01-15,26.25,26.25,25.68000030517578,25.770000457763672,22.45099639892578,12000
2020-01-16,26.016000747680664,26.138999938964844,25.913000106811523,26.055999755859375,22.700162887573242,6100
2020-01-17,26.049999237060547,26.1560001373291,25.809999465942383,25.8799991607666,22.546831130981445,2900
2020-01-21,25.84000015258789,25.8799991607666,25.799999237060547,25.856000900268555,22.525920867919922,5800
2020-01-22,25.865999221801758,26.200000762939453,25.72599983215332,26.010000228881836,22.660085678100586,17300
2020-01-23,25.82699966430664,25.899999618530273,25.520000457763672,25.899999618530273,22.564254760742188,14000
2020-01-24,25.724000930786133,25.84000015258789,25.724000930786133,25.790000915527344,22.468421936035156,3800
2020-01-27,25.724000930786133,25.780000686645508,25.510000228881836,25.780000686645508,22.4597110748291,4000
2020-01-28,25.75,25.780000686645508,25.549999237060547,25.70599937438965,22.395238876342773,8300
2020-01-29,25.66900062561035,25.777999877929688,25.6299991607666,25.68000030517578,22.372587203979492,6400
2020-01-30,25.780000686645508,25.799999237060547,25.600000381469727,25.65999984741211,22.35516357421875,6900
2020-01-31,25.799999237060547,25.799999237060547,25.700000762939453,25.700000762939453,22.390012741088867,2900
2020-02-03,25.780000686645508,25.799999237060547,25.780000686645508,25.799999237060547,22.477130889892578,3100
2020-02-04,25.8799991607666,26.040000915527344,25.643999099731445,25.700000762939453,22.390012741088867,4000
2020-02-05,25.700000762939453,25.948999404907227,25.700000762939453,25.709999084472656,22.398723602294922,7900
2020-02-06,25.91699981689453,26.0,25.861000061035156,25.861000061035156,22.5302791595459,1300
2020-02-07,25.961000442504883,26.291000366210938,25.93899917602539,26.030000686645508,22.677509307861328,7900
2020-02-10,26.200000762939453,26.395000457763672,25.850000381469727,25.957000732421875,22.613914489746094,13100
2020-02-11,25.94300079345703,26.25,25.860000610351562,26.049999237060547,22.694934844970703,3600
2020-02-12,26.100000381469727,26.100000381469727,25.899999618530273,25.99799919128418,22.64963150024414,10000
2020-02-13,25.940000534057617,25.940000534057617,25.940000534057617,25.940000534057617,22.599103927612305,200
2020-02-14,25.889999389648438,26.149999618530273,25.850000381469727,25.950000762939453,22.607812881469727,7300
2020-02-18,25.950000762939453,25.950000762939453,25.90999984741211,25.90999984741211,22.572965621948242,2900
2020-02-19,25.850000381469727,26.198999404907227,25.850000381469727,26.198999404907227,22.824743270874023,7500
2020-02-20,26.277999877929688,26.277999877929688,26.0,26.19499969482422,22.821258544921875,4500
2020-02-21,26.09000015258789,26.09000015258789,26.06399917602539,26.06399917602539,22.70713233947754,200
2020-02-24,26.0,26.156999588012695,26.0,26.0,22.65137481689453,2600
2020-02-25,25.8799991607666,26.11199951171875,25.8799991607666,25.97599983215332,22.630464553833008,4500
2020-02-26,25.96500015258789,26.18000030517578,25.700000762939453,25.700000762939453,22.390012741088867,9100
2020-02-27,24.959999084472656,25.937999725341797,24.959999084472656,25.75,22.43357276916504,5300
2020-02-28,25.5,25.5,25.399999618530273,25.5,22.215768814086914,3600
2020-03-02,25.299999237060547,25.700000762939453,25.299999237060547,25.559999465942383,22.268043518066406,4400
2020-03-03,25.600000381469727,25.600000381469727,25.399999618530273,25.55900001525879,22.267173767089844,1700
2020-03-04,25.520000457763672,25.8799991607666,25.520000457763672,25.75,22.43357276916504,3500
2020-03-05,25.75,25.847999572753906,25.510000228881836,25.510000228881836,22.224483489990234,22100
2020-03-06,25.200000762939453,25.631999969482422,25.200000762939453,25.274999618530273,22.01974868774414,5900
2020-03-09,25.280000686645508,25.333999633789062,24.600000381469727,24.6200008392334,21.44911003112793,13200
2020-03-10,25.030000686645508,25.106000900268555,24.27400016784668,24.424999237060547,21.279224395751953,6400
2020-03-11,24.9689998626709,25.054000854492188,24.549999237060547,24.589000701904297,21.422101974487305,8600
2020-03-12,24.299999237060547,24.299999237060547,22.225000381469727,22.225000381469727,19.362571716308594,2300
2020-03-13,21.799999237060547,22.25,21.799999237060547,21.964000701904297,19.13518714904785,5000
2020-03-16,21.75,21.75,19.899999618530273,21.0,18.29534339904785,3000
2020-03-17,21.010000228881836,21.600000381469727,21.0,21.600000381469727,18.818065643310547,3300
2020-03-18,21.010000228881836,21.010000228881836,10.5,11.789999961853027,10.271527290344238,9200
2020-03-19,7.760000228881836,12.239999771118164,7.760000228881836,11.619999885559082,10.123422622680664,25800
2020-03-20,10.954000473022461,12.0,9.923999786376953,11.579999923706055,10.088573455810547,14100
2020-03-23,10.5,11.170000076293945,10.5,10.842000007629395,9.445623397827148,5200
2020-03-24,11.199999809265137,12.0,11.199999809265137,12.0,10.45448112487793,2600
2020-03-25,16.597999572753906,16.628000259399414,16.299999237060547,16.472999572753906,14.351387977600098,9100
2020-03-26,18.0,22.0,17.239999771118164,19.899999618530273,17.33701515197754,11700
2020-03-27,20.0,20.0,19.343000411987305,19.41200065612793,16.911865234375,1600
2020-03-30,15.800000190734863,17.149999618530273,15.800000190734863,16.719999313354492,14.566575050354004,1400
2020-03-31,17.933000564575195,17.933000564575195,17.049999237060547,17.049999237060547,14.854074478149414,2100
2020-04-01,17.0,17.0,16.799999237060547,17.0,14.810514450073242,3800
2020-04-02,16.56399917602539,16.790000915527344,16.5,16.75,14.877127647399902,1200
2020-04-03,15.413000106811523,15.847999572753906,15.413000106811523,15.847999572753906,14.075983047485352,400
2020-04-06,15.437999725341797,16.020000457763672,15.437999725341797,16.020000457763672,14.228752136230469,300
2020-04-07,16.049999237060547,17.0,16.049999237060547,16.649999618530273,14.788310050964355,7300
2020-04-08,16.989999771118164,18.299999237060547,16.4689998626709,17.94499969482422,15.938509941101074,15700
2020-04-09,17.881000518798828,19.200000762939453,17.549999237060547,19.170000076293945,17.026540756225586,9000
2020-04-13,19.06800079345703,19.06999969482422,18.458999633789062,18.700000762939453,16.609092712402344,1600
2020-04-14,19.200000762939453,20.0,19.10700035095215,19.649999618530273,17.452869415283203,7100
2020-04-15,20.0,20.0,18.482999801635742,18.5,16.431455612182617,2700
2020-04-16,19.81599998474121,19.81599998474121,19.81599998474121,19.81599998474121,17.60030746459961,300
2020-04-17,20.0,20.0,20.0,20.0,17.76373291015625,500
2020-04-20,19.489999771118164,20.489999771118164,19.358999252319336,19.358999252319336,17.194406509399414,5100
2020-04-21,19.358999252319336,19.358999252319336,19.358999252319336,19.358999252319336,17.194406509399414,0
2020-04-22,18.73200035095215,19.200000762939453,17.989999771118164,18.0,15.9873628616333,4300
2020-04-23,18.049999237060547,18.049999237060547,17.889999389648438,17.889999389648438,15.88966178894043,1500
2020-04-24,18.010000228881836,18.652000427246094,18.010000228881836,18.652000427246094,16.56645965576172,1300
2020-04-27,19.0,19.5,19.0,19.5,17.319643020629883,1800
2020-04-28,19.5,19.5,19.5,19.5,17.319643020629883,0
2020-04-29,20.006999969482422,20.950000762939453,19.530000686645508,20.950000762939453,18.607515335083008,5900
2020-04-30,21.899999618530273,22.312999725341797,20.639999389648438,21.441999435424805,19.04450225830078,4700
2020-05-01,20.739999771118164,20.739999771118164,19.850000381469727,20.0,17.76373291015625,2200
2020-05-04,19.270000457763672,19.5,18.709999084472656,19.20599937438965,17.058515548706055,4300
2020-05-05,20.75,20.75,19.600000381469727,19.600000381469727,17.40846061706543,200
2020-05-06,19.0049991607666,19.5,18.652000427246094,18.75,16.65350341796875,10700
2020-05-07,18.75,19.200000762939453,18.207000732421875,19.100000381469727,16.964366912841797,3200
2020-05-08,19.599000930786133,19.72599983215332,19.100000381469727,19.100000381469727,16.964366912841797,5600
2020-05-11,19.100000381469727,19.100000381469727,18.301000595092773,18.409000396728516,16.350631713867188,2900
2020-05-12,18.420000076293945,18.420000076293945,17.0049991607666,17.450000762939453,15.498861312866211,5400
2020-05-13,17.25,17.25,16.709999084472656,16.75,14.877127647399902,2500
2020-05-14,15.885000228881836,15.885000228881836,15.885000228881836,15.885000228881836,14.108846664428711,200
2020-05-15,16.5,19.65999984741211,16.42099952697754,18.950000762939453,16.831138610839844,2600
2020-05-18,18.049999237060547,19.514999389648438,17.891000747680664,17.891000747680664,15.890549659729004,2200
2020-05-19,18.204999923706055,18.770000457763672,18.204999923706055,18.770000457763672,16.6712646484375,1500
2020-05-20,18.0,18.507999420166016,17.54800033569336,18.507999420166016,16.43855857849121,1600
2020-05-21,18.959999084472656,19.0,18.540000915527344,18.72100067138672,16.627744674682617,4000
2020-05-22,18.5,18.5,18.018999099731445,18.018999099731445,16.004236221313477,800
2020-05-26,18.290000915527344,18.889999389648438,17.610000610351562,18.09000015258789,16.067298889160156,3400
2020-05-27,18.25,18.5,18.198999404907227,18.42300033569336,16.36306381225586,5800
2020-05-28,18.5,18.5,17.924999237060547,18.409000396728516,16.350631713867188,6700
2020-05-29,17.53499984741211,18.5,17.53499984741211,18.225000381469727,16.187204360961914,8500
2020-06-01,17.670000076293945,18.375,16.56999969482422,17.649999618530273,15.676497459411621,5500
2020-06-02,17.270000457763672,18.25,17.270000457763672,18.0,15.9873628616333,4500
2020-06-03,18.07900047302246,18.489999771118164,17.510000228881836,18.489999771118164,16.422571182250977,3900
2020-06-04,18.152000427246094,18.621999740600586,18.152000427246094,18.5,16.431455612182617,13900
2020-06-05,18.825000762939453,23.190000534057617,18.5,22.0,19.54010772705078,38400
2020-06-08,22.0,22.0,21.010000228881836,21.610000610351562,19.19371795654297,5300
2020-06-09,20.93000030517578,21.049999237060547,19.510000228881836,20.079999923706055,17.83479118347168,6800
2020-06-10,20.079999923706055,20.863000869750977,19.510000228881836,19.944000244140625,17.713998794555664,9400
2020-06-11,20.756999969482422,20.756999969482422,19.447999954223633,20.350000381469727,18.074600219726562,3700
2020-06-12,20.350000381469727,20.350000381469727,20.350000381469727,20.350000381469727,18.074600219726562,300
2020-06-15,21.25,21.479999542236328,21.200000762939453,21.479999542236328,19.0782527923584,1300
2020-06-16,21.5,21.5,20.100000381469727,20.5,18.207828521728516,2900
2020-06-17,21.399999618530273,21.399999618530273,20.100000381469727,20.799999237060547,18.47428321838379,3500
2020-06-18,20.989999771118164,21.450000762939453,20.989999771118164,21.450000762939453,19.051607131958008,3700
2020-06-19,21.450000762939453,21.450000762939453,21.450000762939453,21.450000762939453,19.051607131958008,1000
2020-06-22,21.5,21.5,21.0,21.274999618530273,18.89617156982422,7000
2020-06-23,21.27899932861328,21.27899932861328,21.0,21.14900016784668,18.78426170349121,2600
2020-06-24,19.67099952697754,21.600000381469727,19.67099952697754,20.549999237060547,18.252239227294922,3700
2020-06-25,20.989999771118164,21.0,20.5,20.510000228881836,18.216711044311523,2100
2020-06-26,21.690000534057617,21.75,21.690000534057617,21.75,19.318063735961914,500
2020-06-29,20.510000228881836,20.75,18.459999084472656,20.75,18.429874420166016,18300
2020-06-30,20.549999237060547,20.690000534057617,20.1200008392334,20.280000686645508,18.012428283691406,3900
2020-07-01,19.940000534057617,20.049999237060547,19.5,19.551000595092773,17.768802642822266,5000
2020-07-02,19.551000595092773,19.551000595092773,19.551000595092773,19.551000595092773,17.768802642822266,0
2020-07-06,21.030000686645508,21.040000915527344,19.46500015258789,19.46500015258789,17.69063949584961,700
2020-07-07,19.75,20.65999984741211,19.75,20.649999618530273,18.767620086669922,3400
2020-07-08,19.600000381469727,19.600000381469727,19.485000610351562,19.485000610351562,17.708818435668945,1800
2020-07-09,19.0,19.62700080871582,19.0,19.62700080871582,17.837871551513672,1900
2020-07-10,19.726999282836914,19.726999282836914,19.360000610351562,19.399999618530273,17.63156509399414,600
2020-07-13,19.2450008392334,19.3799991607666,19.2450008392334,19.3799991607666,17.613388061523438,700
2020-07-14,19.3799991607666,19.75,19.3799991607666,19.75,17.94965934753418,400
2020-07-15,19.461000442504883,19.461000442504883,19.459999084472656,19.459999084472656,17.686094284057617,1500
2020-07-16,19.950000762939453,19.950000762939453,19.40999984741211,19.40999984741211,17.640653610229492,500
2020-07-17,19.25,19.75,19.25,19.75,17.94965934753418,1600
2020-07-20,19.799999237060547,19.799999237060547,19.75,19.75,17.94965934753418,400
2020-07-21,19.600000381469727,19.600000381469727,19.600000381469727,19.600000381469727,17.813335418701172,600
2020-07-22,20.641000747680664,20.641000747680664,19.75,20.149999618530273,18.31319808959961,1800
2020-07-23,20.149999618530273,20.739999771118164,20.149999618530273,20.729999542236328,18.8403263092041,1000
2020-07-24,20.729999542236328,20.729999542236328,20.729999542236328,20.729999542236328,18.8403263092041,0
2020-07-27,20.586999893188477,20.586999893188477,20.586999893188477,20.586999893188477,18.710363388061523,400
2020-07-28,20.586999893188477,20.586999893188477,20.586999893188477,20.586999893188477,18.710363388061523,0
2020-07-29,20.739999771118164,20.739999771118164,20.739999771118164,20.739999771118164,18.849414825439453,900
2020-07-30,20.700000762939453,20.700000762939453,20.700000762939453,20.700000762939453,18.813064575195312,600
2020-07-31,20.56100082397461,20.989999771118164,20.56100082397461,20.989999771118164,19.076627731323242,800
2020-08-03,21.200000762939453,21.200000762939453,21.200000762939453,21.200000762939453,19.267484664916992,200
2020-08-04,21.7450008392334,21.7450008392334,21.25,21.25,19.312925338745117,1500
2020-08-05,21.75,21.75,20.760000228881836,20.760000228881836,18.867591857910156,2900
2020-08-06,20.549999237060547,20.549999237060547,20.549999237060547,20.549999237060547,18.67673683166504,200
2020-08-07,20.399999618530273,21.729999542236328,20.399999618530273,20.600000381469727,18.722177505493164,3000
2020-08-10,21.003999710083008,21.75,20.600000381469727,21.649999618530273,19.676464080810547,2400
2020-08-11,21.719999313354492,22.0,21.610000610351562,21.610000610351562,19.64011001586914,2000
2020-08-12,21.75,22.31999969482422,21.104000091552734,21.5,19.540136337280273,5900
2020-08-13,21.850000381469727,22.70599937438965,21.850000381469727,22.649999618530273,20.585308074951172,2800
2020-08-14,22.799999237060547,22.799999237060547,21.200000762939453,21.399999618530273,19.44925308227539,26900
2020-08-17,21.989999771118164,21.989999771118164,21.299999237060547,21.399999618530273,19.44925308227539,4700
2020-08-18,21.679000854492188,22.450000762939453,21.200000762939453,21.25,19.312925338745117,10800
2020-08-19,21.805999755859375,21.959999084472656,21.309999465942383,21.350000381469727,19.403810501098633,13100
2020-08-20,21.350000381469727,22.0,21.350000381469727,22.0,19.99456024169922,1100
2020-08-21,21.81999969482422,22.166000366210938,21.059999465942383,21.25,19.312925338745117,3800
2020-08-24,21.25,21.75,21.191999435424805,21.75,19.767349243164062,2200
2020-08-25,21.729999542236328,21.75,21.52899932861328,21.700000762939453,19.721906661987305,6800
2020-08-26,21.690000534057617,21.799999237060547,21.209999084472656,21.209999084472656,19.27657127380371,3400
2020-08-27,21.690000534057617,21.850000381469727,21.690000534057617,21.850000381469727,19.858232498168945,1100
2020-08-28,21.649999618530273,21.649999618530273,21.489999771118164,21.610000610351562,19.64011001586914,3200
2020-08-31,21.3700008392334,21.790000915527344,21.350000381469727,21.790000915527344,19.803701400756836,1300
2020-09-01,21.700000762939453,21.950000762939453,21.700000762939453,21.950000762939453,19.949115753173828,500
2020-09-02,21.950000762939453,21.950000762939453,21.950000762939453,21.950000762939453,19.949115753173828,0
2020-09-03,21.3700008392334,21.905000686645508,20.860000610351562,20.860000610351562,18.958478927612305,3600
2020-09-04,21.350000381469727,21.700000762939453,20.610000610351562,20.610000610351562,18.73126792907715,1800
2020-09-08,20.729999542236328,21.5,20.729999542236328,21.299999237060547,19.358367919921875,3300
2020-09-09,20.610000610351562,21.0,20.610000610351562,21.0,19.085718154907227,82600
2020-09-10,21.75,21.75,21.75,21.75,19.767349243164062,300
2020-09-11,21.899999618530273,21.899999618530273,21.79599952697754,21.79599952697754,19.809154510498047,2300
2020-09-14,21.200000762939453,21.30500030517578,21.0,21.0,19.085718154907227,2000
2020-09-15,21.020000457763672,22.479999542236328,21.020000457763672,22.479999542236328,20.430805206298828,1300
2020-09-16,22.479999542236328,22.479999542236328,22.479999542236328,22.479999542236328,20.430805206298828,0
2020-09-17,22.479999542236328,22.479999542236328,22.479999542236328,22.479999542236328,20.430805206298828,0
2020-09-18,21.75,21.989999771118164,21.75,21.989999771118164,19.985469818115234,1000
2020-09-21,21.049999237060547,21.5,21.049999237060547,21.5,19.540136337280273,600
2020-09-22,21.940000534057617,21.940000534057617,21.610000610351562,21.68000030517578,19.7037296295166,2000
2020-09-23,21.929000854492188,21.929000854492188,21.0,21.0,19.085718154907227,4200
2020-09-24,21.100000381469727,21.56399917602539,21.049999237060547,21.200000762939453,19.267484664916992,5500
2020-09-25,21.5,21.5,21.5,21.5,19.540136337280273,500
2020-09-28,21.200000762939453,21.799999237060547,21.0,21.75,19.767349243164062,4200
2020-09-29,21.309999465942383,21.464000701904297,21.299999237060547,21.299999237060547,19.358367919921875,900
2020-09-30,22.0,22.690000534057617,22.0,22.690000534057617,20.621660232543945,5100
2020-10-01,22.290000915527344,22.34000015258789,22.290000915527344,22.34000015258789,20.303565979003906,1200
2020-10-02,22.170000076293945,22.628000259399414,21.749000549316406,21.75,20.18379783630371,7100
2020-10-05,21.360000610351562,21.75,21.0,21.75,20.18379783630371,3100
2020-10-06,21.75,22.799999237060547,21.75,22.100000381469727,20.508594512939453,4900
2020-10-07,22.110000610351562,22.55500030517578,21.81999969482422,22.5,20.879791259765625,3000
2020-10-08,22.225000381469727,22.4950008392334,22.225000381469727,22.4950008392334,20.875150680541992,1000
2020-10-09,22.229999542236328,22.5,21.899999618530273,22.5,20.879791259765625,3500
2020-10-12,22.173999786376953,22.479999542236328,22.139999389648438,22.139999389648438,20.545713424682617,600
2020-10-13,22.100000381469727,23.0,21.729999542236328,21.739999771118164,20.174518585205078,10600
2020-10-14,22.190000534057617,22.829999923706055,21.924999237060547,22.299999237060547,20.69419288635254,15200
2020-10-15,22.590999603271484,22.65999984741211,22.299999237060547,22.299999237060547,20.69419288635254,1500
2020-10-16,22.75,22.875,22.75,22.75,21.11178970336914,3500
2020-10-19,22.770000457763672,22.770000457763672,22.360000610351562,22.75,21.11178970336914,4500
2020-10-20,23.125,23.125,22.75,22.97100067138672,21.31687355041504,1200
2020-10-21,22.450000762939453,23.0,22.450000762939453,22.579999923706055,20.954029083251953,3400
2020-10-22,22.260000228881836,22.260000228881836,22.260000228881836,22.260000228881836,20.657072067260742,1700
2020-10-23,22.5,22.799999237060547,22.5,22.799999237060547,21.158187866210938,1700
2020-10-26,22.299999237060547,22.299999237060547,21.899999618530273,22.15999984741211,20.564273834228516,3500
2020-10-27,22.030000686645508,22.040000915527344,21.860000610351562,21.860000610351562,20.285879135131836,3900
2020-10-28,21.799999237060547,21.799999237060547,21.299999237060547,21.299999237060547,19.766202926635742,4600
2020-10-29,20.530000686645508,21.476999282836914,20.530000686645508,20.8799991607666,19.37644386291504,3500
2020-10-30,21.7450008392334,21.875,20.799999237060547,20.81999969482422,19.320768356323242,9400
2020-11-02,21.75,21.75,20.799999237060547,20.90999984741211,19.404285430908203,3700
2020-11-03,21.857999801635742,21.857999801635742,20.922000885009766,20.93000030517578,19.42284393310547,2700
2020-11-04,21.687999725341797,22.0,21.0,21.0,19.48780632019043,3800
2020-11-05,21.0,22.0,21.0,21.559999465942383,20.00748062133789,6200
2020-11-06,21.440000534057617,21.440000534057617,21.0,21.030000686645508,19.515644073486328,6200
2020-11-09,21.709999084472656,21.969999313354492,21.40999984741211,21.420000076293945,19.877561569213867,3000
2020-11-10,21.549999237060547,22.31999969482422,21.299999237060547,21.649999618530273,20.09099769592285,4500
2020-11-11,21.90999984741211,22.700000762939453,21.299999237060547,21.75,20.18379783630371,1700
2020-11-12,21.93000030517578,22.565000534057617,21.83300018310547,22.0,20.415796279907227,2100
2020-11-13,22.18000030517578,22.18000030517578,21.75,21.75,20.18379783630371,6300
2020-11-16,21.850000381469727,22.0,21.75,21.75,20.18379783630371,3600
2020-11-17,22.0,22.040000915527344,21.799999237060547,22.0,20.415796279907227,7300
2020-11-18,21.920000076293945,22.225000381469727,21.920000076293945,22.225000381469727,20.624595642089844,5500
2020-11-19,22.229999542236328,22.229999542236328,21.940000534057617,21.940000534057617,20.36011505126953,12500
2020-11-20,22.0,22.239999771118164,21.975000381469727,22.239999771118164,20.638511657714844,23800
2020-11-23,22.479999542236328,22.5,22.25,22.361000061035156,20.75079917907715,4100
2020-11-24,22.450000762939453,22.450000762939453,22.309999465942383,22.309999465942383,20.703472137451172,700
2020-11-25,22.459999084472656,22.5,22.325000762939453,22.5,20.879791259765625,900
2020-11-27,22.43000030517578,22.43000030517578,22.274999618530273,22.34000015258789,20.731313705444336,1200
2020-11-30,22.399999618530273,22.40999984741211,22.295000076293945,22.3799991607666,20.768430709838867,3200
2020-12-01,22.350000381469727,22.549999237060547,22.2810001373291,22.28499984741211,20.68027114868164,8200
2020-12-02,22.389999389648438,22.649999618530273,22.219999313354492,22.649999618530273,21.01898956298828,11500
2020-12-03,22.700000762939453,22.75,22.5,22.5,20.879791259765625,18000
2020-12-04,22.5,22.684999465942383,22.450000762939453,22.450000762939453,20.833393096923828,3400
2020-12-07,22.3799991607666,22.399999618530273,22.100000381469727,22.100000381469727,20.508594512939453,20000
2020-12-08,22.3799991607666,22.485000610351562,21.799999237060547,22.048999786376953,20.461267471313477,27400
2020-12-09,22.094999313354492,22.530000686645508,22.094999313354492,22.2549991607666,20.652433395385742,10700
2020-12-10,22.459999084472656,22.5,22.0,22.0,20.415796279907227,5200
2020-12-11,22.3799991607666,22.5,21.850000381469727,22.43000030517578,20.814830780029297,3200
2020-12-14,22.399999618530273,22.399999618530273,22.0,22.239999771118164,20.638511657714844,18100
2020-12-15,22.200000762939453,22.399999618530273,22.125,22.399999618530273,20.786989212036133,11200
2020-12-16,22.5,22.690000534057617,22.25,22.5,20.879791259765625,7100
2020-12-17,22.375,22.75,22.375,22.75,21.11178970336914,3400
2020-12-18,22.600000381469727,22.75,22.190000534057617,22.190000534057617,20.59211540222168,31400
2020-12-21,22.110000610351562,22.384000778198242,22.110000610351562,22.15999984741211,20.564273834228516,9100
2020-12-22,22.375,22.5,22.274999618530273,22.469999313354492,20.851951599121094,6300
2020-12-23,22.350000381469727,22.90999984741211,22.33099937438965,22.90999984741211,21.260269165039062,9300
2020-12-24,23.0,23.0,22.91900062561035,23.0,21.343786239624023,4800
2020-12-28,23.0,23.25,22.944000244140625,23.25,21.57578468322754,11900
2020-12-29,23.020000457763672,23.239999771118164,23.020000457763672,23.239999771118164,21.566505432128906,1700
2020-12-30,23.229999542236328,23.479999542236328,23.18000030517578,23.459999084472656,21.770660400390625,11800
