Date,Open,High,Low,Close,Adj Close,Volume
2020-02-12,10.649999618530273,10.829999923706055,9.600000381469727,10.0,10.0,2222300
2020-02-13,10.350000381469727,10.75,9.949999809265137,10.5,10.5,622800
2020-02-14,10.65999984741211,10.819999694824219,10.5,10.600000381469727,10.600000381469727,580500
2020-02-18,10.699999809265137,10.979999542236328,10.270000457763672,10.5,10.5,247100
2020-02-19,10.5,10.550000190734863,10.199999809265137,10.470000267028809,10.470000267028809,126600
2020-02-20,10.5,10.640000343322754,10.329999923706055,10.529999732971191,10.529999732971191,129600
2020-02-21,10.539999961853027,10.859000205993652,10.350000381469727,10.710000038146973,10.710000038146973,500100
2020-02-24,10.520000457763672,10.579999923706055,10.359999656677246,10.470000267028809,10.470000267028809,124700
2020-02-25,10.520000457763672,10.619999885559082,10.5,10.59000015258789,10.59000015258789,138600
2020-02-26,10.5600004196167,12.970999717712402,10.539999961853027,12.350000381469727,12.350000381469727,473400
2020-02-27,12.600000381469727,13.5,11.595999717712402,12.079999923706055,12.079999923706055,353200
2020-02-28,12.210000038146973,12.899999618530273,11.59000015258789,12.6899995803833,12.6899995803833,107900
2020-03-02,13.0,14.789999961853027,12.550000190734863,14.489999771118164,14.489999771118164,139100
2020-03-03,14.800000190734863,14.800000190734863,13.390000343322754,13.390000343322754,13.390000343322754,160400
2020-03-04,13.710000038146973,14.029999732971191,11.949999809265137,12.279999732971191,12.279999732971191,211600
2020-03-05,12.539999961853027,13.029999732971191,10.550000190734863,10.859999656677246,10.859999656677246,235000
2020-03-06,10.699999809265137,11.329999923706055,10.5,10.920000076293945,10.920000076293945,86400
2020-03-09,10.199999809265137,10.479999542236328,9.039999961853027,9.8100004196167,9.8100004196167,104000
2020-03-10,10.010000228881836,10.380000114440918,9.859999656677246,9.90999984741211,9.90999984741211,51300
2020-03-11,9.850000381469727,10.050000190734863,9.510000228881836,9.539999961853027,9.539999961853027,53500
2020-03-12,9.0,9.0,7.46999979019165,7.760000228881836,7.760000228881836,234400
2020-03-13,8.199999809265137,8.789999961853027,7.699999809265137,8.260000228881836,8.260000228881836,69800
2020-03-16,7.420000076293945,7.420000076293945,6.420000076293945,7.010000228881836,7.010000228881836,59900
2020-03-17,7.300000190734863,8.09000015258789,7.300000190734863,8.09000015258789,8.09000015258789,28700
2020-03-18,7.989999771118164,8.25,7.429999828338623,8.25,8.25,30300
2020-03-19,8.15999984741211,9.369999885559082,8.15999984741211,9.25,9.25,14600
2020-03-20,9.140000343322754,9.239999771118164,8.5,8.869999885559082,8.869999885559082,3900
2020-03-23,9.149999618530273,9.180000305175781,8.600000381469727,8.760000228881836,8.760000228881836,24800
2020-03-24,9.149999618530273,9.300000190734863,8.899999618530273,8.930000305175781,8.930000305175781,12400
2020-03-25,9.199999809265137,9.579999923706055,8.880000114440918,9.5600004196167,9.5600004196167,19000
2020-03-26,9.510000228881836,9.600000381469727,9.149999618530273,9.399999618530273,9.399999618530273,30100
2020-03-27,9.029999732971191,9.029999732971191,8.449999809265137,8.800000190734863,8.800000190734863,11900
2020-03-30,8.779999732971191,8.87600040435791,8.520000457763672,8.520000457763672,8.520000457763672,12200
2020-03-31,8.470000267028809,8.520000457763672,8.0,8.050000190734863,8.050000190734863,15500
2020-04-01,7.510000228881836,7.76200008392334,7.5,7.5,7.5,21900
2020-04-02,7.0,7.0,6.510000228881836,6.989999771118164,6.989999771118164,113900
2020-04-03,6.789999961853027,6.789999961853027,6.300000190734863,6.349999904632568,6.349999904632568,52400
2020-04-06,6.349999904632568,6.440000057220459,5.940000057220459,6.0,6.0,75100
2020-04-07,6.0,6.164999961853027,5.949999809265137,5.989999771118164,5.989999771118164,54000
2020-04-08,5.869999885559082,6.03000020980835,5.480000019073486,5.639999866485596,5.639999866485596,70700
2020-04-09,5.630000114440918,5.630000114440918,5.269999980926514,5.449999809265137,5.449999809265137,64500
2020-04-13,5.989999771118164,5.989999771118164,4.829999923706055,5.170000076293945,5.170000076293945,87000
2020-04-14,5.170000076293945,5.170000076293945,4.929999828338623,5.03000020980835,5.03000020980835,52400
2020-04-15,5.28000020980835,5.599999904632568,5.050000190734863,5.480000019073486,5.480000019073486,152800
2020-04-16,6.03000020980835,6.880000114440918,5.900000095367432,6.400000095367432,6.400000095367432,280800
2020-04-17,6.75,6.75,6.190000057220459,6.366000175476074,6.366000175476074,110500
2020-04-20,6.099999904632568,6.579999923706055,5.908999919891357,6.510000228881836,6.510000228881836,175000
2020-04-21,6.389999866485596,7.309999942779541,6.050000190734863,7.289999961853027,7.289999961853027,116900
2020-04-22,7.289999961853027,7.670000076293945,6.785999774932861,7.550000190734863,7.550000190734863,56900
2020-04-23,7.409999847412109,7.550000190734863,7.099999904632568,7.550000190734863,7.550000190734863,28400
2020-04-24,7.329999923706055,7.869999885559082,7.188000202178955,7.869999885559082,7.869999885559082,31900
2020-04-27,7.78000020980835,7.889999866485596,7.599999904632568,7.889999866485596,7.889999866485596,51400
2020-04-28,7.670000076293945,7.809999942779541,7.5,7.809999942779541,7.809999942779541,24300
2020-04-29,7.690000057220459,7.849999904632568,7.570000171661377,7.809999942779541,7.809999942779541,25400
2020-04-30,7.690000057220459,7.800000190734863,7.510000228881836,7.590000152587891,7.590000152587891,12300
2020-05-01,7.380000114440918,7.639999866485596,7.25,7.25,7.25,16200
2020-05-04,7.203999996185303,7.336999893188477,7.150000095367432,7.150000095367432,7.150000095367432,22100
2020-05-05,7.199999809265137,7.460000038146973,7.199999809265137,7.329999923706055,7.329999923706055,3500
2020-05-06,7.130000114440918,7.28000020980835,7.0,7.03000020980835,7.03000020980835,22300
2020-05-07,7.0,7.03000020980835,6.989999771118164,7.03000020980835,7.03000020980835,11600
2020-05-08,7.289999961853027,7.300000190734863,6.900000095367432,7.25,7.25,11200
2020-05-11,7.28000020980835,7.400000095367432,6.909999847412109,7.099999904632568,7.099999904632568,19100
2020-05-12,7.099999904632568,7.099999904632568,6.900000095367432,6.900000095367432,6.900000095367432,21800
2020-05-13,7.0,7.0,6.25,6.590000152587891,6.590000152587891,52400
2020-05-14,6.619999885559082,6.619999885559082,6.25,6.260000228881836,6.260000228881836,14100
2020-05-15,6.25600004196167,6.389999866485596,6.25,6.309999942779541,6.309999942779541,4300
2020-05-18,6.320000171661377,6.699999809265137,6.320000171661377,6.699999809265137,6.699999809265137,2000
2020-05-19,7.0,7.0,6.059999942779541,6.099999904632568,6.099999904632568,18800
2020-05-20,6.110000133514404,6.539999961853027,6.110000133514404,6.539999961853027,6.539999961853027,5100
2020-05-21,6.409999847412109,6.409999847412109,6.0,6.0,6.0,19500
2020-05-22,6.0,6.041999816894531,5.75,5.809999942779541,5.809999942779541,30600
2020-05-26,5.75,5.909999847412109,5.75,5.829999923706055,5.829999923706055,9400
2020-05-27,5.820000171661377,5.820000171661377,5.760000228881836,5.809999942779541,5.809999942779541,8000
2020-05-28,5.820000171661377,6.0,5.75,5.900000095367432,5.900000095367432,16400
2020-05-29,6.0,6.230000019073486,5.75,5.980000019073486,5.980000019073486,44000
2020-06-01,5.829999923706055,6.099999904632568,5.829999923706055,6.0,6.0,16700
2020-06-02,6.010000228881836,6.179999828338623,5.900000095367432,6.03000020980835,6.03000020980835,47500
2020-06-03,6.0,6.449999809265137,5.760000228881836,6.320000171661377,6.320000171661377,47700
2020-06-04,6.650000095367432,7.190000057220459,6.360000133514404,7.190000057220459,7.190000057220459,22900
2020-06-05,7.429999828338623,7.710000038146973,7.340000152587891,7.599999904632568,7.599999904632568,35900
2020-06-08,7.760000228881836,7.789999961853027,7.400000095367432,7.5,7.5,48400
2020-06-09,7.5,7.599999904632568,7.300000190734863,7.400000095367432,7.400000095367432,33100
2020-06-10,7.309999942779541,7.510000228881836,7.010000228881836,7.400000095367432,7.400000095367432,40200
2020-06-11,7.300000190734863,7.300000190734863,6.355000019073486,7.099999904632568,7.099999904632568,24700
2020-06-12,7.239999771118164,7.239999771118164,6.604000091552734,7.099999904632568,7.099999904632568,8800
2020-06-15,6.585000038146973,7.090000152587891,6.070000171661377,7.0,7.0,16400
2020-06-16,7.599999904632568,7.599999904632568,7.03000020980835,7.489999771118164,7.489999771118164,11000
2020-06-17,7.239999771118164,7.239999771118164,7.059999942779541,7.239999771118164,7.239999771118164,9100
2020-06-18,7.0,7.190000057220459,6.90500020980835,7.050000190734863,7.050000190734863,8200
2020-06-19,7.050000190734863,7.309999942779541,7.050000190734863,7.150000095367432,7.150000095367432,7000
2020-06-22,7.28000020980835,7.369999885559082,7.215000152587891,7.300000190734863,7.300000190734863,5900
2020-06-23,7.380000114440918,7.53000020980835,7.380000114440918,7.53000020980835,7.53000020980835,38900
2020-06-24,7.579999923706055,7.760000228881836,7.239999771118164,7.489999771118164,7.489999771118164,18900
2020-06-25,7.260000228881836,7.599999904632568,7.260000228881836,7.599999904632568,7.599999904632568,16500
2020-06-26,7.355000019073486,7.650000095367432,7.239999771118164,7.25,7.25,21000
2020-06-29,7.239999771118164,7.5,7.210000038146973,7.400000095367432,7.400000095367432,9600
2020-06-30,7.409999847412109,7.710000038146973,7.179999828338623,7.710000038146973,7.710000038146973,11600
2020-07-01,7.699999809265137,7.699999809265137,7.239999771118164,7.550000190734863,7.550000190734863,12900
2020-07-02,7.400000095367432,7.539999961853027,7.349999904632568,7.539999961853027,7.539999961853027,14400
2020-07-06,7.599999904632568,8.4399995803833,7.554999828338623,8.34000015258789,8.34000015258789,62600
2020-07-07,8.800000190734863,9.0,8.199999809265137,8.199999809265137,8.199999809265137,72800
2020-07-08,8.380000114440918,10.359999656677246,8.380000114440918,9.619999885559082,9.619999885559082,132600
2020-07-09,9.630000114440918,10.329999923706055,9.510000228881836,9.890000343322754,9.890000343322754,43600
2020-07-10,10.0,10.300000190734863,9.5,9.5,9.5,40700
2020-07-13,9.699999809265137,9.899999618530273,9.050000190734863,9.180000305175781,9.180000305175781,25000
2020-07-14,8.890000343322754,9.385000228881836,8.880000114440918,9.010000228881836,9.010000228881836,15000
2020-07-15,9.0,9.09000015258789,8.680000305175781,9.050000190734863,9.050000190734863,7600
2020-07-16,8.850000381469727,9.899999618530273,8.720000267028809,9.069999694824219,9.069999694824219,22900
2020-07-17,9.199999809265137,9.5,9.0600004196167,9.489999771118164,9.489999771118164,24500
2020-07-20,9.479999542236328,9.630000114440918,9.0,9.470000267028809,9.470000267028809,19200
2020-07-21,9.479999542236328,10.300000190734863,9.329999923706055,9.699999809265137,9.699999809265137,44700
2020-07-22,9.5,9.579999923706055,9.039999961853027,9.25,9.25,38700
2020-07-23,9.239999771118164,9.619999885559082,9.020000457763672,9.140000343322754,9.140000343322754,19800
2020-07-24,9.09000015258789,9.149999618530273,9.0,9.0,9.0,8900
2020-07-27,9.013999938964844,9.210000038146973,8.970000267028809,9.079999923706055,9.079999923706055,13100
2020-07-28,9.010000228881836,9.300000190734863,9.0,9.0600004196167,9.0600004196167,14100
2020-07-29,9.130999565124512,9.40999984741211,9.119999885559082,9.170000076293945,9.170000076293945,11100
2020-07-30,9.220000267028809,9.220000267028809,9.0,9.0,9.0,14000
2020-07-31,9.225000381469727,9.225000381469727,9.0,9.0,9.0,7800
2020-08-03,9.039999961853027,9.467000007629395,8.90999984741211,9.170000076293945,9.170000076293945,37800
2020-08-04,9.489999771118164,9.520000457763672,9.069999694824219,9.069999694824219,9.069999694824219,6600
2020-08-05,9.510000228881836,9.510000228881836,8.800000190734863,8.899999618530273,8.899999618530273,19200
2020-08-06,8.829999923706055,8.930000305175781,8.739999771118164,8.8100004196167,8.8100004196167,37300
2020-08-07,8.6899995803833,9.170000076293945,8.5,9.170000076293945,9.170000076293945,33000
2020-08-10,9.0,9.0,8.770000457763672,8.899999618530273,8.899999618530273,14500
2020-08-11,8.949999809265137,8.949999809265137,8.829999923706055,8.869999885559082,8.869999885559082,21100
2020-08-12,8.829999923706055,8.890000343322754,8.520000457763672,8.630000114440918,8.630000114440918,14000
2020-08-13,8.510000228881836,8.649999618530273,8.510000228881836,8.59000015258789,8.59000015258789,7400
2020-08-14,8.600000381469727,8.604000091552734,8.5600004196167,8.600000381469727,8.600000381469727,7900
2020-08-17,8.5,8.680000305175781,8.5,8.640000343322754,8.640000343322754,26400
2020-08-18,8.760000228881836,9.25,8.569999694824219,9.0,9.0,16100
2020-08-19,9.0,9.199999809265137,8.979999542236328,8.989999771118164,8.989999771118164,9900
2020-08-20,8.989999771118164,9.289999961853027,8.821999549865723,9.140000343322754,9.140000343322754,20000
2020-08-21,8.84000015258789,9.050000190734863,8.84000015258789,9.0,9.0,9200
2020-08-24,8.770000457763672,8.9399995803833,8.0600004196167,8.885000228881836,8.885000228881836,37300
2020-08-25,8.75,8.979999542236328,8.5,8.899999618530273,8.899999618530273,29700
2020-08-26,8.75,8.843999862670898,8.699999809265137,8.725000381469727,8.725000381469727,5100
2020-08-27,8.723999977111816,8.723999977111816,8.510000228881836,8.630000114440918,8.630000114440918,7300
2020-08-28,8.619999885559082,8.699999809265137,8.529999732971191,8.664999961853027,8.664999961853027,7900
2020-08-31,8.510000228881836,8.600000381469727,8.430000305175781,8.520000457763672,8.520000457763672,28300
2020-09-01,8.520000457763672,8.569999694824219,8.375,8.508999824523926,8.508999824523926,10900
2020-09-02,8.399999618530273,8.520000457763672,8.399999618530273,8.5,8.5,7700
2020-09-03,8.331000328063965,8.5,8.199999809265137,8.470000267028809,8.470000267028809,4900
2020-09-04,8.470000267028809,8.470000267028809,8.470000267028809,8.470000267028809,8.470000267028809,0
2020-09-08,8.470000267028809,8.550000190734863,8.449999809265137,8.510000228881836,8.510000228881836,18200
2020-09-09,8.517000198364258,8.553999900817871,8.366999626159668,8.489999771118164,8.489999771118164,10000
2020-09-10,8.5,8.569999694824219,8.489999771118164,8.569999694824219,8.569999694824219,27400
2020-09-11,8.520000457763672,8.649999618530273,8.520000457763672,8.59000015258789,8.59000015258789,10700
2020-09-14,8.649999618530273,8.699999809265137,8.420000076293945,8.579999923706055,8.579999923706055,5600
2020-09-15,8.720000267028809,8.720000267028809,8.53499984741211,8.600000381469727,8.600000381469727,10000
2020-09-16,8.649999618530273,8.699999809265137,8.649999618530273,8.65999984741211,8.65999984741211,11900
2020-09-17,8.649999618530273,8.699999809265137,8.649999618530273,8.699999809265137,8.699999809265137,900
2020-09-18,7.929999828338623,8.529999732971191,7.929999828338623,8.520000457763672,8.520000457763672,1500
2020-09-21,8.34000015258789,8.390000343322754,8.25,8.362000465393066,8.362000465393066,4800
2020-09-22,8.496999740600586,8.5,8.300000190734863,8.34000015258789,8.34000015258789,5800
2020-09-23,7.5,8.279999732971191,7.5,8.119999885559082,8.119999885559082,3300
2020-09-24,7.760000228881836,7.929999828338623,7.630000114440918,7.929999828338623,7.929999828338623,700
2020-09-25,7.610000133514404,8.194000244140625,7.610000133514404,8.145999908447266,8.145999908447266,3500
2020-09-28,7.883999824523926,8.116999626159668,7.78000020980835,8.116999626159668,8.116999626159668,10900
2020-09-29,8.0,8.0,8.0,8.0,8.0,400
2020-09-30,8.140000343322754,8.199999809265137,8.100000381469727,8.140000343322754,8.140000343322754,63900
2020-10-01,8.140000343322754,8.140000343322754,8.140000343322754,8.140000343322754,8.140000343322754,0
2020-10-02,8.140000343322754,8.140000343322754,8.140000343322754,8.140000343322754,8.140000343322754,0
2020-10-05,8.829999923706055,9.119999885559082,7.929999828338623,7.929999828338623,7.929999828338623,14300
2020-10-06,7.929999828338623,7.929999828338623,7.929999828338623,7.929999828338623,7.929999828338623,700
2020-10-07,7.929999828338623,7.929999828338623,7.929999828338623,7.929999828338623,7.929999828338623,0
2020-10-08,8.03499984741211,8.03499984741211,8.03499984741211,8.03499984741211,8.03499984741211,400
2020-10-09,7.880000114440918,7.880000114440918,7.880000114440918,7.880000114440918,7.880000114440918,1300
2020-10-12,7.880000114440918,7.880000114440918,7.880000114440918,7.880000114440918,7.880000114440918,0
2020-10-13,7.920000076293945,7.920000076293945,7.800000190734863,7.800000190734863,7.800000190734863,400
2020-10-14,8.0,8.0,7.454999923706055,7.795000076293945,7.795000076293945,1404800
2020-10-15,7.922999858856201,7.922999858856201,7.710000038146973,7.710000038146973,7.710000038146973,1700
2020-10-16,7.730000019073486,7.730000019073486,7.5,7.64900016784668,7.64900016784668,900
2020-10-19,7.64900016784668,7.64900016784668,7.64900016784668,7.64900016784668,7.64900016784668,100
2020-10-20,7.64900016784668,7.64900016784668,7.64900016784668,7.64900016784668,7.64900016784668,500
2020-10-21,7.660999774932861,8.100000381469727,7.309999942779541,7.329999923706055,7.329999923706055,3200
2020-10-22,7.369999885559082,7.369999885559082,7.369999885559082,7.369999885559082,7.369999885559082,400
2020-10-23,7.611999988555908,7.650000095367432,6.519999980926514,7.570000171661377,7.570000171661377,7600
2020-10-26,7.359000205993652,7.550000190734863,7.260000228881836,7.389999866485596,7.389999866485596,2000
2020-10-27,7.5,7.886000156402588,7.5,7.699999809265137,7.699999809265137,17100
2020-10-28,7.690000057220459,7.864999771118164,7.599999904632568,7.650000095367432,7.650000095367432,11000
2020-10-29,7.599999904632568,7.599999904632568,6.920000076293945,7.190000057220459,7.190000057220459,11100
2020-10-30,7.0,7.050000190734863,7.0,7.0,7.0,1400
2020-11-02,7.494999885559082,7.5,7.449999809265137,7.449999809265137,7.449999809265137,1300
2020-11-03,7.289999961853027,7.289999961853027,7.28000020980835,7.28000020980835,7.28000020980835,800
2020-11-04,7.7870001792907715,7.7870001792907715,7.650000095367432,7.650000095367432,7.650000095367432,1200
2020-11-05,7.414999961853027,7.414999961853027,7.389999866485596,7.389999866485596,7.389999866485596,1300
2020-11-06,7.343999862670898,7.5,7.340000152587891,7.5,7.5,1700
2020-11-09,7.489999771118164,7.489999771118164,7.21999979019165,7.21999979019165,7.21999979019165,3200
2020-11-10,7.15500020980835,7.679999828338623,7.110000133514404,7.679999828338623,7.679999828338623,1700
2020-11-11,7.545000076293945,7.545000076293945,7.545000076293945,7.545000076293945,7.545000076293945,300
2020-11-12,7.369999885559082,7.369999885559082,7.369999885559082,7.369999885559082,7.369999885559082,400
2020-11-13,7.400000095367432,7.400000095367432,7.389999866485596,7.389999866485596,7.389999866485596,800
2020-11-16,7.389999866485596,7.389999866485596,7.389999866485596,7.389999866485596,7.389999866485596,500
2020-11-17,7.929999828338623,7.929999828338623,7.389999866485596,7.389999866485596,7.389999866485596,14500
2020-11-18,7.349999904632568,7.994999885559082,7.329999923706055,7.699999809265137,7.699999809265137,24100
2020-11-19,7.699999809265137,7.699999809265137,7.349999904632568,7.599999904632568,7.599999904632568,22900
2020-11-20,7.389999866485596,7.5,7.083000183105469,7.349999904632568,7.349999904632568,27700
2020-11-23,7.300000190734863,7.5,7.099999904632568,7.360000133514404,7.360000133514404,30900
2020-11-24,7.230000019073486,7.485000133514404,7.150000095367432,7.480000019073486,7.480000019073486,33400
2020-11-25,7.21999979019165,7.659999847412109,7.21999979019165,7.659999847412109,7.659999847412109,31200
2020-11-27,7.510000228881836,8.210000038146973,7.230000019073486,8.109999656677246,8.109999656677246,71700
2020-11-30,8.050000190734863,8.050000190734863,7.340000152587891,7.340000152587891,7.340000152587891,34800
2020-12-01,7.400000095367432,7.630000114440918,7.25,7.460000038146973,7.460000038146973,37000
2020-12-02,7.25,7.5,7.25,7.309999942779541,7.309999942779541,31700
2020-12-03,7.361000061035156,7.559999942779541,7.300000190734863,7.300000190734863,7.300000190734863,44400
2020-12-04,7.860000133514404,7.926000118255615,7.320000171661377,7.579999923706055,7.579999923706055,37500
2020-12-07,7.389999866485596,7.480000019073486,7.25,7.480000019073486,7.480000019073486,20000
2020-12-08,7.559999942779541,7.559999942779541,7.0,7.190000057220459,7.190000057220459,32500
2020-12-09,7.309999942779541,7.309999942779541,7.03000020980835,7.28000020980835,7.28000020980835,34100
2020-12-10,7.230000019073486,7.230000019073486,6.960000038146973,7.190000057220459,7.190000057220459,54400
2020-12-11,7.199999809265137,7.199999809265137,6.980000019073486,7.15500020980835,7.15500020980835,31600
2020-12-14,7.099999904632568,7.349999904632568,6.889999866485596,7.25,7.25,33900
2020-12-15,7.019999980926514,7.46999979019165,7.0,7.260000228881836,7.260000228881836,35800
2020-12-16,7.170000076293945,7.400000095367432,7.119999885559082,7.400000095367432,7.400000095367432,40500
2020-12-17,7.400000095367432,7.579999923706055,7.25,7.320000171661377,7.320000171661377,48600
2020-12-18,7.639999866485596,7.639999866485596,6.949999809265137,7.130000114440918,7.130000114440918,130300
2020-12-21,7.130000114440918,7.159999847412109,7.0,7.070000171661377,7.070000171661377,66600
2020-12-22,7.079999923706055,7.150000095367432,6.960000038146973,7.050000190734863,7.050000190734863,16200
2020-12-23,7.050000190734863,7.050000190734863,6.900000095367432,6.949999809265137,6.949999809265137,32200
2020-12-24,6.889999866485596,7.144999980926514,6.860000133514404,7.144999980926514,7.144999980926514,19900
2020-12-28,7.019999980926514,7.03000020980835,6.960000038146973,6.960000038146973,6.960000038146973,36700
2020-12-29,6.940000057220459,7.1529998779296875,6.920000076293945,7.1529998779296875,7.1529998779296875,44400
2020-12-30,7.070000171661377,7.320000171661377,7.0,7.0,7.0,47800
