Date,Open,High,Low,Close,Adj Close,Volume
2020-10-12,10.0,10.0,10.0,10.0,10.0,152
2020-10-13,10.020000457763672,10.100000381469727,10.0,10.0,10.0,7184
2020-10-14,10.0,10.0,9.829999923706055,9.857199668884277,9.857199668884277,1566
2020-10-15,9.859999656677246,9.989999771118164,9.75,9.934000015258789,9.934000015258789,604533
2020-10-16,9.979999542236328,10.024999618530273,9.850000381469727,10.0,10.0,55650
2020-10-19,10.420000076293945,10.420000076293945,9.880000114440918,9.899999618530273,9.899999618530273,17562
2020-10-20,10.029999732971191,10.050000190734863,9.850000381469727,9.979999542236328,9.979999542236328,5561
2020-10-21,9.979900360107422,9.979900360107422,9.899999618530273,9.899999618530273,9.899999618530273,1696
2020-10-22,10.0,10.04990005493164,9.850000381469727,9.850000381469727,9.850000381469727,1965
2020-10-23,9.710000038146973,9.850000381469727,9.710000038146973,9.850000381469727,9.850000381469727,2512
2020-10-26,9.890000343322754,9.890000343322754,9.850000381469727,9.850000381469727,9.850000381469727,407
2020-10-27,9.899999618530273,9.899999618530273,9.871600151062012,9.899999618530273,9.899999618530273,7261
2020-10-28,9.880000114440918,9.880000114440918,9.699999809265137,9.75,9.75,6328
2020-10-29,9.805000305175781,9.805000305175781,9.805000305175781,9.805000305175781,9.805000305175781,1121
2020-10-30,9.75,9.750800132751465,9.75,9.75,9.75,951
2020-11-02,9.890000343322754,9.890000343322754,9.75,9.75,9.75,27526
2020-11-03,9.850000381469727,9.850000381469727,9.779999732971191,9.789999961853027,9.789999961853027,250515
2020-11-04,9.789999961853027,9.812299728393555,9.770000457763672,9.770000457763672,9.770000457763672,1303
2020-11-05,9.3149995803833,9.829999923706055,9.3149995803833,9.753999710083008,9.753999710083008,4000
2020-11-06,9.779999732971191,9.779999732971191,9.28499984741211,9.739999771118164,9.739999771118164,9709
2020-11-09,10.0,10.0,9.649999618530273,9.770000457763672,9.770000457763672,91134
2020-11-10,9.680000305175781,9.8100004196167,9.680000305175781,9.8100004196167,9.8100004196167,1459
2020-11-11,9.755000114440918,9.800000190734863,9.750100135803223,9.750100135803223,9.750100135803223,550
2020-11-12,9.819999694824219,9.84000015258789,9.770000457763672,9.770000457763672,9.770000457763672,1923
2020-11-13,9.739999771118164,9.84000015258789,9.739999771118164,9.84000015258789,9.84000015258789,3136
2020-11-16,9.920000076293945,9.920000076293945,9.800000190734863,9.880000114440918,9.880000114440918,2079
2020-11-17,9.899999618530273,9.979999542236328,9.890000343322754,9.960000038146973,9.960000038146973,256365
2020-11-18,9.890000343322754,9.890000343322754,9.800000190734863,9.890000343322754,9.890000343322754,2857
2020-11-19,9.869999885559082,9.989999771118164,9.869999885559082,9.920000076293945,9.920000076293945,5416
2020-11-20,9.850000381469727,9.970000267028809,9.850000381469727,9.970000267028809,9.970000267028809,2155
2020-11-23,10.020000457763672,10.020000457763672,9.859999656677246,9.899999618530273,9.899999618530273,1213
2020-11-24,9.885000228881836,10.199999809265137,9.885000228881836,9.949999809265137,9.949999809265137,183985
2020-11-25,9.949999809265137,10.28499984741211,9.949999809265137,9.949999809265137,9.949999809265137,480831
2020-11-27,10.0600004196167,10.100000381469727,9.970000267028809,10.100000381469727,10.100000381469727,35361
2020-11-30,10.020000457763672,10.880000114440918,9.949999809265137,10.25,10.25,120858
2020-12-01,10.180000305175781,10.229999542236328,9.949999809265137,10.199999809265137,10.199999809265137,114460
2020-12-02,10.050000190734863,10.260000228881836,10.046600341796875,10.199999809265137,10.199999809265137,1132115
2020-12-03,10.25,10.25,10.09000015258789,10.109999656677246,10.109999656677246,13724
2020-12-04,10.029999732971191,10.1899995803833,10.029999732971191,10.149999618530273,10.149999618530273,116408
2020-12-07,10.199999809265137,10.25,10.029999732971191,10.15999984741211,10.15999984741211,62389
2020-12-08,10.079999923706055,10.210000038146973,10.0600004196167,10.130000114440918,10.130000114440918,23302
2020-12-09,10.25,10.25,10.029999732971191,10.220000267028809,10.220000267028809,56254
2020-12-10,10.25,10.720000267028809,10.199999809265137,10.300000190734863,10.300000190734863,1372836
2020-12-11,10.479999542236328,10.760000228881836,10.350000381469727,10.449999809265137,10.449999809265137,46830
2020-12-14,10.699999809265137,10.699999809265137,10.279999732971191,10.329999923706055,10.329999923706055,74627
2020-12-15,10.270000457763672,10.390000343322754,10.220000267028809,10.25,10.25,11692
2020-12-16,10.229999542236328,10.449999809265137,10.229999542236328,10.399999618530273,10.399999618530273,55643
2020-12-17,10.399999618530273,10.430000305175781,10.350000381469727,10.40999984741211,10.40999984741211,26288
2020-12-18,10.3100004196167,10.448200225830078,10.3100004196167,10.40999984741211,10.40999984741211,418537
2020-12-21,10.3100004196167,10.430000305175781,10.300000190734863,10.3100004196167,10.3100004196167,24749
2020-12-22,10.350000381469727,10.359999656677246,10.220000267028809,10.25,10.25,96569
2020-12-23,10.25,10.359999656677246,10.234999656677246,10.289999961853027,10.289999961853027,67372
2020-12-24,10.390000343322754,10.390000343322754,10.289999961853027,10.350000381469727,10.350000381469727,20368
2020-12-28,10.390000343322754,10.569999694824219,10.274999618530273,10.420000076293945,10.420000076293945,172777
2020-12-29,10.529999732971191,10.529999732971191,10.1899995803833,10.229999542236328,10.229999542236328,107428
2020-12-30,10.220000267028809,10.295000076293945,10.170000076293945,10.210000038146973,10.210000038146973,83788
