Date,Open,High,Low,Close,Adj Close,Volume
2019-05-23,14.0,16.898000717163086,10.199999809265137,11.1899995803833,11.1899995803833,1718600
2019-05-24,11.199999809265137,11.800000190734863,10.819999694824219,11.25,11.25,313000
2019-05-28,11.25,11.649999618530273,10.640000343322754,11.390000343322754,11.390000343322754,174000
2019-05-29,11.579999923706055,11.949999809265137,10.890999794006348,11.949999809265137,11.949999809265137,151300
2019-05-30,11.949999809265137,12.069999694824219,11.199999809265137,11.539999961853027,11.539999961853027,120000
2019-05-31,11.359999656677246,12.109999656677246,11.199999809265137,11.869999885559082,11.869999885559082,73900
2019-06-03,12.069999694824219,12.630000114440918,11.40999984741211,11.600000381469727,11.600000381469727,141700
2019-06-04,11.5,12.050000190734863,11.5,11.859999656677246,11.859999656677246,60300
2019-06-05,11.600000381469727,11.890000343322754,11.510000228881836,11.699999809265137,11.699999809265137,34000
2019-06-06,11.715999603271484,11.890000343322754,11.446999549865723,11.479999542236328,11.479999542236328,35500
2019-06-07,11.59000015258789,11.59000015258789,9.100000381469727,10.520000457763672,10.520000457763672,254000
2019-06-10,10.539999961853027,11.210000038146973,9.609999656677246,10.760000228881836,10.760000228881836,133100
2019-06-11,10.819999694824219,11.229999542236328,9.8100004196167,11.119999885559082,11.119999885559082,30300
2019-06-12,11.0,11.729999542236328,10.654999732971191,10.789999961853027,10.789999961853027,64800
2019-06-13,10.739999771118164,11.0,10.51099967956543,10.649999618530273,10.649999618530273,20400
2019-06-14,10.619999885559082,10.930000305175781,9.850000381469727,10.819999694824219,10.819999694824219,42400
2019-06-17,10.819999694824219,11.399999618530273,10.687000274658203,10.920000076293945,10.920000076293945,61500
2019-06-18,10.989999771118164,11.130000114440918,10.864999771118164,10.899999618530273,10.899999618530273,31300
2019-06-19,10.803999900817871,11.079999923706055,10.010000228881836,10.739999771118164,10.739999771118164,15600
2019-06-20,10.4399995803833,10.779999732971191,9.958000183105469,10.470000267028809,10.470000267028809,73900
2019-06-21,10.380000114440918,11.059000015258789,9.520000457763672,9.579999923706055,9.579999923706055,72700
2019-06-24,9.5,10.609999656677246,9.03499984741211,9.970000267028809,9.970000267028809,48100
2019-06-25,10.0,10.66100025177002,9.600000381469727,9.869999885559082,9.869999885559082,25100
2019-06-26,9.899999618530273,10.350000381469727,9.8100004196167,9.8100004196167,9.8100004196167,9400
2019-06-27,9.899999618530273,10.180000305175781,9.822999954223633,10.0600004196167,10.0600004196167,9100
2019-06-28,10.079999923706055,10.36299991607666,9.611000061035156,9.960000038146973,9.960000038146973,38500
2019-07-01,10.079999923706055,10.307999610900879,8.960000038146973,9.600000381469727,9.600000381469727,49400
2019-07-02,9.609999656677246,9.710000038146973,8.75,9.100000381469727,9.100000381469727,36700
2019-07-03,9.100000381469727,9.416000366210938,8.619999885559082,8.619999885559082,8.619999885559082,26300
2019-07-05,8.699999809265137,9.119999885559082,8.0,8.010000228881836,8.010000228881836,66200
2019-07-08,8.0600004196167,8.460000038146973,7.949999809265137,8.149999618530273,8.149999618530273,43300
2019-07-09,8.109999656677246,8.182999610900879,7.610000133514404,7.880000114440918,7.880000114440918,41300
2019-07-10,7.880000114440918,8.390000343322754,7.710000038146973,7.769999980926514,7.769999980926514,33100
2019-07-11,7.800000190734863,8.319999694824219,7.800000190734863,8.039999961853027,8.039999961853027,34200
2019-07-12,8.109999656677246,8.75,8.053000450134277,8.600000381469727,8.600000381469727,38700
2019-07-15,8.699999809265137,8.800000190734863,8.029999732971191,8.289999961853027,8.289999961853027,19200
2019-07-16,8.1899995803833,8.470000267028809,8.0,8.020000457763672,8.020000457763672,15900
2019-07-17,8.039999961853027,8.199999809265137,7.71999979019165,7.96999979019165,7.96999979019165,12300
2019-07-18,7.710000038146973,8.199999809265137,7.710000038146973,7.829999923706055,7.829999923706055,18900
2019-07-19,7.880000114440918,8.715999603271484,7.300000190734863,7.829999923706055,7.829999923706055,28400
2019-07-22,7.849999904632568,8.25,6.809999942779541,7.210000038146973,7.210000038146973,23400
2019-07-23,7.25,7.802999973297119,6.690000057220459,6.820000171661377,6.820000171661377,27900
2019-07-24,6.699999809265137,7.313000202178955,6.699999809265137,6.800000190734863,6.800000190734863,19500
2019-07-25,6.809999942779541,7.019999980926514,6.677999973297119,6.71999979019165,6.71999979019165,12500
2019-07-26,7.0,7.0,6.699999809265137,6.769999980926514,6.769999980926514,13400
2019-07-29,6.949999809265137,7.170000076293945,6.800000190734863,7.119999885559082,7.119999885559082,18200
2019-07-30,7.070000171661377,7.199999809265137,6.803999900817871,6.900000095367432,6.900000095367432,9900
2019-07-31,6.820000171661377,7.199999809265137,6.820000171661377,7.110000133514404,7.110000133514404,13400
2019-08-01,6.854000091552734,8.0,6.854000091552734,7.070000171661377,7.070000171661377,5300
2019-08-02,7.309999942779541,7.309999942779541,6.699999809265137,6.809999942779541,6.809999942779541,9100
2019-08-05,6.71999979019165,7.010000228881836,6.699999809265137,6.699999809265137,6.699999809265137,10500
2019-08-06,6.710000038146973,6.98799991607666,6.710000038146973,6.849999904632568,6.849999904632568,3400
2019-08-07,6.699999809265137,6.76800012588501,6.550000190734863,6.739999771118164,6.739999771118164,6100
2019-08-08,6.789999961853027,6.880000114440918,6.559999942779541,6.769999980926514,6.769999980926514,12300
2019-08-09,6.624000072479248,6.788000106811523,6.603000164031982,6.78000020980835,6.78000020980835,4000
2019-08-12,6.751999855041504,7.0,6.650000095367432,6.949999809265137,6.949999809265137,10300
2019-08-13,6.900000095367432,7.489999771118164,6.599999904632568,7.190000057220459,7.190000057220459,10600
2019-08-14,6.590000152587891,7.199999809265137,6.590000152587891,7.019999980926514,7.019999980926514,14200
2019-08-15,7.019999980926514,7.099999904632568,6.630000114440918,7.0,7.0,14900
2019-08-16,6.940000057220459,7.099999904632568,6.659999847412109,6.679999828338623,6.679999828338623,3500
2019-08-19,6.699999809265137,6.800000190734863,6.123000144958496,6.639999866485596,6.639999866485596,36800
2019-08-20,6.443999767303467,6.670000076293945,6.429999828338623,6.619999885559082,6.619999885559082,1600
2019-08-21,6.599999904632568,6.664999961853027,6.445000171661377,6.53000020980835,6.53000020980835,6100
2019-08-22,6.539999961853027,6.6579999923706055,6.309999942779541,6.309999942779541,6.309999942779541,24300
2019-08-23,6.369999885559082,6.369999885559082,5.420000076293945,6.360000133514404,6.360000133514404,22000
2019-08-26,6.320000171661377,6.34499979019165,5.590000152587891,6.199999809265137,6.199999809265137,12400
2019-08-27,6.090000152587891,6.289999961853027,5.909999847412109,6.25,6.25,8400
2019-08-28,6.170000076293945,6.295000076293945,5.9039998054504395,6.059999942779541,6.059999942779541,10400
2019-08-29,6.114999771118164,6.985000133514404,5.954999923706055,6.690000057220459,6.690000057220459,16200
2019-08-30,6.860000133514404,6.860000133514404,6.301000118255615,6.800000190734863,6.800000190734863,6700
2019-09-03,6.550000190734863,7.050000190734863,6.320000171661377,6.46999979019165,6.46999979019165,22500
2019-09-04,7.71999979019165,7.96999979019165,6.5,6.75,6.75,13000
2019-09-05,6.929999828338623,6.929999828338623,6.583000183105469,6.920000076293945,6.920000076293945,5600
2019-09-06,6.920000076293945,7.25,6.900000095367432,6.909999847412109,6.909999847412109,4500
2019-09-09,7.079999923706055,7.269999980926514,7.010000228881836,7.099999904632568,7.099999904632568,4500
2019-09-10,7.989999771118164,7.989999771118164,7.429999828338623,7.800000190734863,7.800000190734863,33000
2019-09-11,7.900000095367432,8.479999542236328,7.809999942779541,8.109999656677246,8.109999656677246,53800
2019-09-12,8.270000457763672,8.270000457763672,7.510000228881836,7.96999979019165,7.96999979019165,20500
2019-09-13,7.75,8.170000076293945,7.269999980926514,7.789999961853027,7.789999961853027,17600
2019-09-16,7.800000190734863,9.949999809265137,7.619999885559082,9.789999961853027,9.789999961853027,59300
2019-09-17,9.800000190734863,10.147000312805176,9.092000007629395,9.550000190734863,9.550000190734863,62900
2019-09-18,9.569999694824219,11.869999885559082,9.569999694824219,10.90999984741211,10.90999984741211,67900
2019-09-19,11.09000015258789,11.1899995803833,10.140000343322754,10.140000343322754,10.140000343322754,77600
2019-09-20,9.800000190734863,11.027999877929688,8.928000450134277,9.020000457763672,9.020000457763672,97800
2019-09-23,9.100000381469727,9.800000190734863,8.84000015258789,9.119999885559082,9.119999885559082,36000
2019-09-24,9.119999885559082,10.496999740600586,8.75,9.149999618530273,9.149999618530273,48800
2019-09-25,9.079999923706055,9.199999809265137,8.630000114440918,8.8100004196167,8.8100004196167,29800
2019-09-26,9.289999961853027,10.38599967956543,9.196000099182129,9.699999809265137,9.699999809265137,55700
2019-09-27,9.779999732971191,9.947999954223633,9.039999961853027,9.170000076293945,9.170000076293945,80900
2019-09-30,9.109999656677246,9.199999809265137,8.8100004196167,9.0,9.0,27700
2019-10-01,8.9399995803833,9.449999809265137,8.817000389099121,9.079999923706055,9.079999923706055,19600
2019-10-02,8.779999732971191,8.779999732971191,7.760000228881836,7.849999904632568,7.849999904632568,22100
2019-10-03,8.199999809265137,8.390000343322754,7.5,7.699999809265137,7.699999809265137,18000
2019-10-04,7.599999904632568,8.100000381469727,7.599999904632568,7.809999942779541,7.809999942779541,22900
2019-10-07,7.809999942779541,7.820000171661377,7.510000228881836,7.510000228881836,7.510000228881836,12000
2019-10-08,7.53000020980835,7.670000076293945,7.010000228881836,7.429999828338623,7.429999828338623,11800
2019-10-09,7.599999904632568,7.599999904632568,7.0,7.010000228881836,7.010000228881836,59800
2019-10-10,7.03000020980835,7.130000114440918,6.123000144958496,6.909999847412109,6.909999847412109,67200
2019-10-11,7.025000095367432,7.650000095367432,6.690000057220459,7.389999866485596,7.389999866485596,81400
2019-10-14,7.179999828338623,7.679999828338623,6.650000095367432,7.150000095367432,7.150000095367432,46900
2019-10-15,7.050000190734863,7.428999900817871,6.5,6.5,6.5,50600
2019-10-16,6.550000190734863,6.949999809265137,6.059999942779541,6.400000095367432,6.400000095367432,52500
2019-10-17,6.449999809265137,6.5,5.619999885559082,5.909999847412109,5.909999847412109,126800
2019-10-18,5.949999809265137,6.249000072479248,4.889999866485596,5.340000152587891,5.340000152587891,117000
2019-10-21,5.659999847412109,6.659999847412109,5.659999847412109,5.900000095367432,5.900000095367432,173800
2019-10-22,5.860000133514404,6.050000190734863,5.699999809265137,5.699999809265137,5.699999809265137,64800
2019-10-23,5.677999973297119,5.980000019073486,5.659999847412109,5.679999828338623,5.679999828338623,84200
2019-10-24,5.699999809265137,5.818999767303467,5.659999847412109,5.659999847412109,5.659999847412109,14000
2019-10-25,5.894000053405762,6.050000190734863,5.570000171661377,5.570000171661377,5.570000171661377,10600
2019-10-28,5.855000019073486,5.980000019073486,5.579999923706055,5.670000076293945,5.670000076293945,44900
2019-10-29,5.730000019073486,6.0,5.699999809265137,5.929999828338623,5.929999828338623,67100
2019-10-30,5.929999828338623,6.170000076293945,5.71999979019165,5.974999904632568,5.974999904632568,17500
2019-10-31,5.886000156402588,6.0,5.670000076293945,5.670000076293945,5.670000076293945,23500
2019-11-01,6.050000190734863,6.190000057220459,5.739999771118164,6.119999885559082,6.119999885559082,63700
2019-11-04,6.050000190734863,6.079999923706055,5.699999809265137,5.920000076293945,5.920000076293945,57000
2019-11-05,5.989999771118164,6.090000152587891,5.714000225067139,5.929999828338623,5.929999828338623,68700
2019-11-06,5.831999778747559,6.039999961853027,5.776000022888184,5.809999942779541,5.809999942779541,40600
2019-11-07,5.880000114440918,5.954999923706055,5.550000190734863,5.739999771118164,5.739999771118164,30100
2019-11-08,5.809999942779541,6.034999847412109,5.760000228881836,5.789999961853027,5.789999961853027,9900
2019-11-11,5.943999767303467,6.090000152587891,5.71999979019165,5.739999771118164,5.739999771118164,44200
2019-11-12,5.809999942779541,6.050000190734863,5.730000019073486,5.764999866485596,5.764999866485596,30700
2019-11-13,5.860000133514404,8.869999885559082,5.860000133514404,8.5,8.5,245000
2019-11-14,8.220000267028809,8.5,7.539999961853027,8.100000381469727,8.100000381469727,62300
2019-11-15,8.369999885559082,8.449999809265137,7.760000228881836,7.809999942779541,7.809999942779541,30200
2019-11-18,7.769999980926514,7.769999980926514,7.300000190734863,7.53000020980835,7.53000020980835,87100
2019-11-19,7.739999771118164,8.364999771118164,7.622000217437744,8.199999809265137,8.199999809265137,75500
2019-11-20,7.849999904632568,8.199999809265137,6.739999771118164,6.78000020980835,6.78000020980835,64800
2019-11-21,6.710000038146973,7.150000095367432,6.710000038146973,6.849999904632568,6.849999904632568,30400
2019-11-22,6.800000190734863,7.431000232696533,6.800000190734863,7.150000095367432,7.150000095367432,16400
2019-11-25,7.3520002365112305,7.440000057220459,7.132999897003174,7.440000057220459,7.440000057220459,27800
2019-11-26,7.400000095367432,7.559999942779541,7.0,7.349999904632568,7.349999904632568,58100
2019-11-27,7.380000114440918,7.59499979019165,7.179999828338623,7.460000038146973,7.460000038146973,10800
2019-11-29,7.429999828338623,7.75,7.349999904632568,7.650000095367432,7.650000095367432,7500
2019-12-02,7.800000190734863,8.399999618530273,7.599999904632568,8.399999618530273,8.399999618530273,85800
2019-12-03,8.300000190734863,8.300000190734863,8.149999618530273,8.239999771118164,8.239999771118164,12000
2019-12-04,8.199999809265137,8.199999809265137,7.190999984741211,7.5,7.5,93800
2019-12-05,7.650000095367432,7.900000095367432,7.400000095367432,7.889999866485596,7.889999866485596,21700
2019-12-06,7.800000190734863,7.960000038146973,7.550000190734863,7.699999809265137,7.699999809265137,14500
2019-12-09,7.668000221252441,7.840000152587891,7.449999809265137,7.480000019073486,7.480000019073486,30600
2019-12-10,7.5,7.800000190734863,7.5,7.699999809265137,7.699999809265137,13400
2019-12-11,7.699999809265137,7.800000190734863,7.480000019073486,7.800000190734863,7.800000190734863,25400
2019-12-12,7.800000190734863,7.800000190734863,7.552000045776367,7.75,7.75,13200
2019-12-13,7.75,7.75,7.170000076293945,7.46999979019165,7.46999979019165,100300
2019-12-16,7.460000038146973,7.5,7.050000190734863,7.099999904632568,7.099999904632568,42200
2019-12-17,7.079999923706055,7.590000152587891,7.079999923706055,7.360000133514404,7.360000133514404,37300
2019-12-18,7.110000133514404,7.329999923706055,7.110000133514404,7.110000133514404,7.110000133514404,27400
2019-12-19,7.28000020980835,8.5,7.21999979019165,8.130000114440918,8.130000114440918,83700
2019-12-20,8.1899995803833,9.140000343322754,8.149999618530273,9.09000015258789,9.09000015258789,83400
2019-12-23,9.100000381469727,9.303000450134277,8.5,8.789999961853027,8.789999961853027,38800
2019-12-24,8.75,8.75,8.5600004196167,8.75,8.75,7100
2019-12-26,8.75,9.098999977111816,8.75,9.020000457763672,9.020000457763672,8800
2019-12-27,8.899999618530273,8.963000297546387,8.449999809265137,8.5,8.5,31400
2019-12-30,8.479999542236328,8.53499984741211,7.75,7.889999866485596,7.889999866485596,59200
2019-12-31,7.880000114440918,8.029999732971191,7.239999771118164,7.5,7.5,40700
2020-01-02,7.179999828338623,9.199999809265137,7.010000228881836,9.140000343322754,9.140000343322754,65200
2020-01-03,9.130000114440918,9.130000114440918,8.130000114440918,8.630000114440918,8.630000114440918,55400
2020-01-06,8.880000114440918,9.01099967956543,8.5,8.960000038146973,8.960000038146973,21300
2020-01-07,8.970000267028809,9.932000160217285,8.4399995803833,8.949999809265137,8.949999809265137,63100
2020-01-08,8.899999618530273,9.145000457763672,8.359999656677246,8.460000038146973,8.460000038146973,24600
2020-01-09,8.229999542236328,8.760000228881836,8.140000343322754,8.619999885559082,8.619999885559082,36600
2020-01-10,8.869999885559082,10.0,8.869999885559082,9.270000457763672,9.270000457763672,65100
2020-01-13,9.175999641418457,10.960000038146973,9.175999641418457,10.010000228881836,10.010000228881836,42000
2020-01-14,10.210000038146973,10.90999984741211,9.699999809265137,10.229999542236328,10.229999542236328,69700
2020-01-15,10.25,11.300000190734863,9.593000411987305,10.579999923706055,10.579999923706055,102500
2020-01-16,10.850000381469727,10.96399974822998,9.550000190734863,10.039999961853027,10.039999961853027,68500
2020-01-17,10.039999961853027,10.25,9.680000305175781,10.029999732971191,10.029999732971191,75200
2020-01-21,9.899999618530273,10.199999809265137,9.699999809265137,9.699999809265137,9.699999809265137,35700
2020-01-22,9.8100004196167,10.109999656677246,9.430000305175781,9.430000305175781,9.430000305175781,49500
2020-01-23,9.390000343322754,9.390000343322754,8.395000457763672,9.300000190734863,9.300000190734863,39300
2020-01-24,8.989999771118164,9.289999961853027,8.899999618530273,9.050000190734863,9.050000190734863,14200
2020-01-27,9.09000015258789,9.09000015258789,8.350000381469727,8.800000190734863,8.800000190734863,30500
2020-01-28,9.0,9.055000305175781,8.819999694824219,9.050000190734863,9.050000190734863,6400
2020-01-29,9.149999618530273,9.170000076293945,8.420000076293945,8.5,8.5,211600
2020-01-30,8.479999542236328,8.890000343322754,8.420000076293945,8.600000381469727,8.600000381469727,39300
2020-01-31,8.600000381469727,8.84000015258789,8.5,8.550000190734863,8.550000190734863,12500
2020-02-03,8.550000190734863,9.0600004196167,8.550000190734863,9.0600004196167,9.0600004196167,32100
2020-02-04,9.079999923706055,9.25,8.319999694824219,8.710000038146973,8.710000038146973,42500
2020-02-05,9.020000457763672,9.100000381469727,8.1899995803833,8.600000381469727,8.600000381469727,51800
2020-02-06,8.600000381469727,8.600000381469727,8.180000305175781,8.180000305175781,8.180000305175781,15800
2020-02-07,8.210000038146973,8.5,6.400000095367432,7.190000057220459,7.190000057220459,107800
2020-02-10,7.119999885559082,7.5,6.670000076293945,6.730000019073486,6.730000019073486,88400
2020-02-11,6.449999809265137,6.929999828338623,6.449999809265137,6.730000019073486,6.730000019073486,37400
2020-02-12,6.599999904632568,6.949999809265137,6.599999904632568,6.820000171661377,6.820000171661377,34600
2020-02-13,6.699999809265137,7.38700008392334,6.550000190734863,7.03000020980835,7.03000020980835,42400
2020-02-14,7.119999885559082,7.119999885559082,6.789999961853027,6.789999961853027,6.789999961853027,20600
2020-02-18,6.860000133514404,7.010000228881836,6.699999809265137,6.710000038146973,6.710000038146973,49900
2020-02-19,6.78000020980835,6.949999809265137,6.570000171661377,6.820000171661377,6.820000171661377,28300
2020-02-20,6.849999904632568,7.0,6.789999961853027,6.96999979019165,6.96999979019165,24100
2020-02-21,7.0,7.099999904632568,6.800000190734863,6.920000076293945,6.920000076293945,36200
2020-02-24,6.710000038146973,7.0,6.699999809265137,7.0,7.0,9500
2020-02-25,6.949999809265137,7.014999866485596,6.699999809265137,6.900000095367432,6.900000095367432,16200
2020-02-26,6.929999828338623,7.239999771118164,6.8429999351501465,7.239999771118164,7.239999771118164,21200
2020-02-27,7.079999923706055,7.150000095367432,6.801000118255615,6.96999979019165,6.96999979019165,21900
2020-02-28,6.829999923706055,7.0,6.800000190734863,7.0,7.0,27800
2020-03-02,6.909999847412109,7.185999870300293,6.900000095367432,6.960000038146973,6.960000038146973,24200
2020-03-03,7.0,7.059999942779541,6.989999771118164,7.059999942779541,7.059999942779541,12000
2020-03-04,7.070000171661377,7.199999809265137,7.050000190734863,7.099999904632568,7.099999904632568,24700
2020-03-05,7.03000020980835,7.199999809265137,6.949999809265137,6.949999809265137,6.949999809265137,16100
2020-03-06,6.964000225067139,7.230000019073486,6.920000076293945,7.0,7.0,14800
2020-03-09,6.900000095367432,6.940000057220459,6.699999809265137,6.929999828338623,6.929999828338623,58900
2020-03-10,7.059999942779541,7.080999851226807,5.886000156402588,6.085000038146973,6.085000038146973,65800
2020-03-11,5.929999828338623,6.190000057220459,4.53000020980835,4.849999904632568,4.849999904632568,60100
2020-03-12,4.559999942779541,4.982999801635742,3.309999942779541,4.110000133514404,4.110000133514404,56200
2020-03-13,4.5,4.5,3.8499999046325684,4.03000020980835,4.03000020980835,66300
2020-03-16,3.9000000953674316,3.9000000953674316,3.309999942779541,3.3299999237060547,3.3299999237060547,43200
2020-03-17,3.4000000953674316,4.105000019073486,2.950000047683716,3.0299999713897705,3.0299999713897705,118400
2020-03-18,4.0,4.440000057220459,3.119999885559082,3.140000104904175,3.140000104904175,165800
2020-03-19,3.5,3.5299999713897705,3.312000036239624,3.3499999046325684,3.3499999046325684,105000
2020-03-20,3.4000000953674316,3.869999885559082,3.3499999046325684,3.7100000381469727,3.7100000381469727,66000
2020-03-23,3.5999999046325684,3.9700000286102295,3.5,3.680000066757202,3.680000066757202,43500
2020-03-24,3.690000057220459,4.380000114440918,3.200000047683716,4.119999885559082,4.119999885559082,125400
2020-03-25,4.179999828338623,4.340000152587891,4.050000190734863,4.179999828338623,4.179999828338623,44500
2020-03-26,4.150000095367432,4.801000118255615,4.150000095367432,4.659999847412109,4.659999847412109,77600
2020-03-27,4.579999923706055,4.579999923706055,4.050000190734863,4.230000019073486,4.230000019073486,28800
2020-03-30,4.360000133514404,4.420000076293945,3.9700000286102295,4.150000095367432,4.150000095367432,68600
2020-03-31,4.170000076293945,4.316999912261963,3.9100000858306885,4.119999885559082,4.119999885559082,21900
2020-04-01,4.019999980926514,4.019999980926514,3.5899999141693115,3.75,3.75,55600
2020-04-02,3.7200000286102295,3.990000009536743,3.680000066757202,3.809999942779541,3.809999942779541,32700
2020-04-03,3.819999933242798,3.9000000953674316,3.440000057220459,3.5899999141693115,3.5899999141693115,21300
2020-04-06,3.9000000953674316,3.990000009536743,3.809999942779541,3.819999933242798,3.819999933242798,62800
2020-04-07,3.8499999046325684,4.205999851226807,3.765000104904175,4.050000190734863,4.050000190734863,57900
2020-04-08,4.099999904632568,4.809000015258789,4.007999897003174,4.489999771118164,4.489999771118164,53800
2020-04-09,4.5,4.639999866485596,4.360000133514404,4.449999809265137,4.449999809265137,46600
2020-04-13,4.429999828338623,4.599999904632568,4.329999923706055,4.420000076293945,4.420000076293945,35600
2020-04-14,4.539999961853027,4.605999946594238,4.429999828338623,4.510000228881836,4.510000228881836,32800
2020-04-15,4.53000020980835,4.53000020980835,4.099999904632568,4.199999809265137,4.199999809265137,25700
2020-04-16,4.25,4.489999771118164,4.25,4.28000020980835,4.28000020980835,10200
2020-04-17,4.519999980926514,4.639999866485596,4.360000133514404,4.5,4.5,34300
2020-04-20,4.53000020980835,4.760000228881836,4.5,4.559999942779541,4.559999942779541,40800
2020-04-21,4.570000171661377,4.769999980926514,4.389999866485596,4.650000095367432,4.650000095367432,56700
2020-04-22,4.739999771118164,4.940000057220459,4.629000186920166,4.739999771118164,4.739999771118164,21900
2020-04-23,4.840000152587891,5.179999828338623,4.742000102996826,5.179999828338623,5.179999828338623,42500
2020-04-24,5.199999809265137,5.199999809265137,4.929999828338623,5.090000152587891,5.090000152587891,36200
2020-04-27,5.260000228881836,5.409999847412109,5.050000190734863,5.25,5.25,34000
2020-04-28,5.400000095367432,5.71999979019165,5.269999980926514,5.570000171661377,5.570000171661377,15600
2020-04-29,5.9079999923706055,6.329999923706055,5.800000190734863,5.889999866485596,5.889999866485596,29200
2020-04-30,5.769999980926514,5.869999885559082,5.5,5.550000190734863,5.550000190734863,20600
2020-05-01,5.630000114440918,6.099999904632568,5.0,5.260000228881836,5.260000228881836,24000
2020-05-04,5.199999809265137,6.190000057220459,5.080999851226807,5.610000133514404,5.610000133514404,36000
2020-05-05,5.78000020980835,6.889999866485596,5.760000228881836,6.429999828338623,6.429999828338623,87900
2020-05-06,6.400000095367432,6.400000095367432,5.880000114440918,6.289999961853027,6.289999961853027,27100
2020-05-07,6.25,6.400000095367432,6.0,6.130000114440918,6.130000114440918,35700
2020-05-08,6.199999809265137,6.989999771118164,6.199999809265137,6.860000133514404,6.860000133514404,35800
2020-05-11,6.920000076293945,8.109999656677246,6.920000076293945,7.869999885559082,7.869999885559082,89200
2020-05-12,8.109999656677246,8.300000190734863,7.510000228881836,7.610000133514404,7.610000133514404,59200
2020-05-13,7.650000095367432,7.690000057220459,6.074999809265137,7.130000114440918,7.130000114440918,100700
2020-05-14,6.809999942779541,7.125,6.519999980926514,7.010000228881836,7.010000228881836,21100
2020-05-15,6.739999771118164,8.281999588012695,6.550000190734863,7.820000171661377,7.820000171661377,58200
2020-05-18,8.100000381469727,8.479999542236328,7.349999904632568,7.349999904632568,7.349999904632568,52000
2020-05-19,7.349999904632568,8.449999809265137,7.349999904632568,7.764999866485596,7.764999866485596,72700
2020-05-20,7.760000228881836,7.800000190734863,7.400000095367432,7.550000190734863,7.550000190734863,40300
2020-05-21,7.360000133514404,7.650000095367432,7.079999923706055,7.28000020980835,7.28000020980835,19500
2020-05-22,7.340000152587891,7.340000152587891,6.909999847412109,6.989999771118164,6.989999771118164,28700
2020-05-26,7.5,7.760000228881836,7.079999923706055,7.190000057220459,7.190000057220459,27400
2020-05-27,7.590000152587891,7.860000133514404,7.110000133514404,7.664999961853027,7.664999961853027,69700
2020-05-28,7.860000133514404,9.5,7.706999778747559,9.399999618530273,9.399999618530273,145500
2020-05-29,9.5,9.800000190734863,8.399999618530273,9.789999961853027,9.789999961853027,70500
2020-06-01,9.699999809265137,10.880000114440918,9.234999656677246,10.229999542236328,10.229999542236328,104700
2020-06-02,10.0600004196167,10.194999694824219,7.964000225067139,8.989999771118164,8.989999771118164,276000
2020-06-03,8.729999542236328,9.395000457763672,8.470000267028809,8.770000457763672,8.770000457763672,150700
2020-06-04,8.720000267028809,9.010000228881836,8.399999618530273,8.75,8.75,48100
2020-06-05,8.75,9.984999656677246,7.679999828338623,8.039999961853027,8.039999961853027,189900
2020-06-08,8.25,9.270000457763672,8.199999809265137,8.859999656677246,8.859999656677246,130800
2020-06-09,8.960000038146973,9.460000038146973,8.5,8.699999809265137,8.699999809265137,78900
2020-06-10,8.890000343322754,9.399999618530273,8.310999870300293,8.5600004196167,8.5600004196167,95500
2020-06-11,8.3100004196167,8.531000137329102,7.199999809265137,7.449999809265137,7.449999809265137,115500
2020-06-12,7.320000171661377,8.119999885559082,7.320000171661377,7.900000095367432,7.900000095367432,68300
2020-06-15,8.09000015258789,9.050000190734863,8.050000190734863,8.949999809265137,8.949999809265137,74300
2020-06-16,14.5600004196167,15.449999809265137,11.210000038146973,12.84000015258789,12.84000015258789,1757800
2020-06-17,13.170000076293945,19.969999313354492,13.079999923706055,18.56999969482422,18.56999969482422,1681700
2020-06-18,15.859999656677246,16.204999923706055,13.970000267028809,14.255000114440918,14.255000114440918,3374900
2020-06-19,14.0,14.899999618530273,13.970000267028809,14.699999809265137,14.699999809265137,657700
2020-06-22,14.489999771118164,14.527999877929688,13.354999542236328,14.100000381469727,14.100000381469727,413600
2020-06-23,14.229999542236328,14.699999809265137,14.069999694824219,14.229999542236328,14.229999542236328,258100
2020-06-24,14.25,14.600000381469727,13.760000228881836,14.489999771118164,14.489999771118164,202500
2020-06-25,14.5,15.699999809265137,14.0,14.6899995803833,14.6899995803833,415900
2020-06-26,14.470000267028809,15.1899995803833,13.84000015258789,14.420000076293945,14.420000076293945,1668300
2020-06-29,14.239999771118164,14.680000305175781,13.010000228881836,13.25,13.25,389500
2020-06-30,13.100000381469727,14.430000305175781,13.100000381469727,14.210000038146973,14.210000038146973,521100
2020-07-01,14.260000228881836,14.399999618530273,13.140000343322754,13.34000015258789,13.34000015258789,249300
2020-07-02,13.529999732971191,14.1899995803833,13.079999923706055,13.729999542236328,13.729999542236328,466500
2020-07-06,13.869999885559082,14.729999542236328,13.3100004196167,14.460000038146973,14.460000038146973,246200
2020-07-07,14.40999984741211,14.850000381469727,13.390000343322754,13.520000457763672,13.520000457763672,223600
2020-07-08,13.520000457763672,14.1899995803833,13.329999923706055,13.789999961853027,13.789999961853027,207900
2020-07-09,13.739999771118164,14.420000076293945,13.09000015258789,13.350000381469727,13.350000381469727,217800
2020-07-10,13.239999771118164,13.720000267028809,12.779999732971191,13.34000015258789,13.34000015258789,370500
2020-07-13,14.899999618530273,14.899999618530273,13.300000190734863,14.170000076293945,14.170000076293945,449700
2020-07-14,14.289999961853027,14.75,12.539999961853027,13.359999656677246,13.359999656677246,423500
2020-07-15,13.350000381469727,14.25,13.350000381469727,14.199999809265137,14.199999809265137,254600
2020-07-16,13.779999732971191,14.149999618530273,13.350000381469727,13.699999809265137,13.699999809265137,163400
2020-07-17,14.069999694824219,14.119999885559082,13.270000457763672,13.720000267028809,13.720000267028809,175700
2020-07-20,13.65999984741211,14.0,12.951000213623047,13.069999694824219,13.069999694824219,217300
2020-07-21,13.15999984741211,13.600000381469727,12.90999984741211,13.09000015258789,13.09000015258789,240100
2020-07-22,13.130000114440918,13.9399995803833,13.029999732971191,13.319999694824219,13.319999694824219,129100
2020-07-23,13.300000190734863,13.460000038146973,12.100000381469727,12.479999542236328,12.479999542236328,167500
2020-07-24,12.430000305175781,12.649999618530273,11.789999961853027,11.899999618530273,11.899999618530273,126000
2020-07-27,12.0,12.350000381469727,11.380000114440918,11.920000076293945,11.920000076293945,130400
2020-07-28,11.949999809265137,12.75,11.949999809265137,12.300000190734863,12.300000190734863,113300
2020-07-29,12.300000190734863,12.819999694824219,12.199999809265137,12.319999694824219,12.319999694824219,211900
2020-07-30,12.25,12.390000343322754,11.0,11.300000190734863,11.300000190734863,261100
2020-07-31,11.319999694824219,12.704999923706055,10.899999618530273,12.609999656677246,12.609999656677246,222200
2020-08-03,12.489999771118164,12.489999771118164,11.319999694824219,11.5,11.5,192500
2020-08-04,12.09000015258789,12.300000190734863,11.449999809265137,11.569999694824219,11.569999694824219,120500
2020-08-05,11.84000015258789,12.050000190734863,11.550000190734863,11.6899995803833,11.6899995803833,92000
2020-08-06,11.670000076293945,12.085000038146973,11.460000038146973,11.789999961853027,11.789999961853027,89800
2020-08-07,11.609999656677246,12.949999809265137,11.609999656677246,12.510000228881836,12.510000228881836,124600
2020-08-10,12.420000076293945,12.890000343322754,12.119999885559082,12.289999961853027,12.289999961853027,89800
2020-08-11,12.380000114440918,12.380000114440918,11.670000076293945,11.729999542236328,11.729999542236328,145900
2020-08-12,11.619999885559082,11.925000190734863,11.300000190734863,11.529999732971191,11.529999732971191,226600
2020-08-13,11.630000114440918,11.989999771118164,11.244999885559082,11.59000015258789,11.59000015258789,169700
2020-08-14,11.5,11.859999656677246,11.3100004196167,11.75,11.75,125600
2020-08-17,11.850000381469727,11.9399995803833,11.319999694824219,11.529999732971191,11.529999732971191,217900
2020-08-18,11.65999984741211,11.760000228881836,11.25,11.510000228881836,11.510000228881836,261800
2020-08-19,11.420000076293945,11.619999885559082,11.369999885559082,11.40999984741211,11.40999984741211,559200
2020-08-20,11.369999885559082,11.579999923706055,11.100000381469727,11.270000457763672,11.270000457763672,159400
2020-08-21,11.199999809265137,11.350000381469727,11.0,11.220000267028809,11.220000267028809,94300
2020-08-24,11.270000457763672,11.600000381469727,11.079999923706055,11.5,11.5,166000
2020-08-25,11.489999771118164,11.670000076293945,11.319999694824219,11.649999618530273,11.649999618530273,95500
2020-08-26,11.649999618530273,12.119999885559082,11.529999732971191,11.670000076293945,11.670000076293945,89900
2020-08-27,11.720000267028809,11.720000267028809,11.479999542236328,11.649999618530273,11.649999618530273,61400
2020-08-28,11.699999809265137,11.789999961853027,11.579999923706055,11.65999984741211,11.65999984741211,70900
2020-08-31,11.600000381469727,12.449999809265137,11.5,12.100000381469727,12.100000381469727,169800
2020-09-01,12.449999809265137,12.449999809265137,11.973999977111816,12.0600004196167,12.0600004196167,139000
2020-09-02,12.119999885559082,12.960000038146973,12.010000228881836,12.949999809265137,12.949999809265137,183500
2020-09-03,12.920000076293945,12.9399995803833,11.510000228881836,11.619999885559082,11.619999885559082,164800
2020-09-04,11.819999694824219,12.039999961853027,11.15999984741211,11.720000267028809,11.720000267028809,213700
2020-09-08,11.890000343322754,12.720000267028809,11.529999732971191,12.170000076293945,12.170000076293945,133700
2020-09-09,11.979999542236328,12.970000267028809,11.579999923706055,12.550000190734863,12.550000190734863,118100
2020-09-10,12.15999984741211,12.782999992370605,12.15999984741211,12.40999984741211,12.40999984741211,162000
2020-09-11,12.5,12.760000228881836,11.925000190734863,12.289999961853027,12.289999961853027,97700
2020-09-14,12.4399995803833,12.960000038146973,12.300000190734863,12.569999694824219,12.569999694824219,119700
2020-09-15,12.680000305175781,13.109999656677246,12.579999923706055,12.789999961853027,12.789999961853027,87200
2020-09-16,12.829999923706055,13.59000015258789,12.8100004196167,13.09000015258789,13.09000015258789,112400
2020-09-17,13.09000015258789,13.739999771118164,12.8100004196167,13.3100004196167,13.3100004196167,126400
2020-09-18,13.420000076293945,14.029999732971191,13.0600004196167,13.170000076293945,13.170000076293945,756300
2020-09-21,12.890000343322754,13.0600004196167,11.586999893188477,12.170000076293945,12.170000076293945,170500
2020-09-22,12.229999542236328,12.350000381469727,11.538999557495117,11.760000228881836,11.760000228881836,168600
2020-09-23,11.800000190734863,12.270000457763672,11.510000228881836,11.84000015258789,11.84000015258789,98500
2020-09-24,12.260000228881836,12.406000137329102,11.585000038146973,11.8100004196167,11.8100004196167,131100
2020-09-25,11.6899995803833,11.86400032043457,11.199999809265137,11.630000114440918,11.630000114440918,106000
2020-09-28,11.6899995803833,12.460000038146973,11.510000228881836,12.1899995803833,12.1899995803833,50300
2020-09-29,12.239999771118164,12.239999771118164,11.220000267028809,11.819999694824219,11.819999694824219,65900
2020-09-30,11.699999809265137,12.930000305175781,11.692999839782715,12.5600004196167,12.5600004196167,127300
2020-10-01,12.649999618530273,13.0,12.1850004196167,13.0,13.0,117100
2020-10-02,12.729999542236328,13.100000381469727,12.538999557495117,12.979999542236328,12.979999542236328,134400
2020-10-05,13.180000305175781,13.180000305175781,12.369999885559082,12.890000343322754,12.890000343322754,149200
2020-10-06,12.930000305175781,13.289999961853027,12.699999809265137,13.079999923706055,13.079999923706055,78500
2020-10-07,13.619999885559082,14.319999694824219,13.329999923706055,14.180000305175781,14.180000305175781,155700
2020-10-08,14.3100004196167,14.600000381469727,13.260000228881836,14.069999694824219,14.069999694824219,82900
2020-10-09,14.09000015258789,14.260000228881836,13.795000076293945,14.079999923706055,14.079999923706055,81400
2020-10-12,14.210000038146973,14.53499984741211,13.619999885559082,14.0,14.0,67800
2020-10-13,13.829999923706055,14.069000244140625,13.390000343322754,13.869999885559082,13.869999885559082,50600
2020-10-14,13.859999656677246,14.270000457763672,13.390000343322754,13.59000015258789,13.59000015258789,45600
2020-10-15,13.539999961853027,13.539999961853027,12.819999694824219,13.229999542236328,13.229999542236328,96500
2020-10-16,13.15999984741211,13.949999809265137,12.920000076293945,13.399999618530273,13.399999618530273,79400
2020-10-19,13.430000305175781,13.710000038146973,12.869999885559082,13.109999656677246,13.109999656677246,86000
2020-10-20,13.100000381469727,13.180000305175781,12.399999618530273,12.710000038146973,12.710000038146973,77300
2020-10-21,12.6899995803833,13.079999923706055,12.475000381469727,12.9399995803833,12.9399995803833,93500
2020-10-22,12.960000038146973,13.670000076293945,12.949999809265137,13.654999732971191,13.654999732971191,255600
2020-10-23,13.84000015258789,13.84000015258789,12.34000015258789,12.770000457763672,12.770000457763672,1443900
2020-10-26,12.510000228881836,12.770000457763672,12.3100004196167,12.399999618530273,12.399999618530273,70900
2020-10-27,12.399999618530273,12.600000381469727,12.289999961853027,12.460000038146973,12.460000038146973,57700
2020-10-28,12.119999885559082,12.470000267028809,12.119999885559082,12.350000381469727,12.350000381469727,98000
2020-10-29,12.300000190734863,12.420000076293945,12.199999809265137,12.350000381469727,12.350000381469727,327700
2020-10-30,12.210000038146973,12.4399995803833,12.010000228881836,12.170000076293945,12.170000076293945,663500
2020-11-02,12.34000015258789,12.569999694824219,12.0649995803833,12.4399995803833,12.4399995803833,74800
2020-11-03,12.65999984741211,13.319999694824219,12.515000343322754,13.229999542236328,13.229999542236328,67400
2020-11-04,13.239999771118164,13.75,12.5,13.180000305175781,13.180000305175781,117400
2020-11-05,13.520000457763672,13.930000305175781,12.970000267028809,13.850000381469727,13.850000381469727,50900
2020-11-06,13.75,13.75,13.1899995803833,13.25,13.25,39300
2020-11-09,13.779999732971191,14.0,13.0600004196167,13.760000228881836,13.760000228881836,105900
2020-11-10,13.75,14.380000114440918,13.430000305175781,14.199999809265137,14.199999809265137,57200
2020-11-11,14.15999984741211,14.225000381469727,12.930000305175781,13.029999732971191,13.029999732971191,930800
2020-11-12,12.970000267028809,13.670000076293945,12.600000381469727,12.84000015258789,12.84000015258789,151000
2020-11-13,13.140000343322754,13.630000114440918,12.600000381469727,13.359999656677246,13.359999656677246,144400
2020-11-16,13.569999694824219,13.569999694824219,13.029999732971191,13.479999542236328,13.479999542236328,129800
2020-11-17,13.369999885559082,14.109999656677246,12.920000076293945,13.850000381469727,13.850000381469727,156000
2020-11-18,14.0,14.239999771118164,13.130000114440918,13.1899995803833,13.1899995803833,104000
2020-11-19,13.079999923706055,13.489999771118164,12.649999618530273,12.84000015258789,12.84000015258789,119300
2020-11-20,12.819999694824219,12.84000015258789,12.279999732971191,12.520000457763672,12.520000457763672,283100
2020-11-23,12.550000190734863,12.770000457763672,12.289999961853027,12.65999984741211,12.65999984741211,221900
2020-11-24,12.890000343322754,13.369999885559082,12.819999694824219,13.149999618530273,13.149999618530273,85900
2020-11-25,13.149999618530273,13.670000076293945,13.010000228881836,13.359999656677246,13.359999656677246,82600
2020-11-27,13.510000228881836,13.710000038146973,13.5,13.5600004196167,13.5600004196167,38500
2020-11-30,13.65999984741211,14.050000190734863,13.241999626159668,13.9399995803833,13.9399995803833,112900
2020-12-01,13.989999771118164,14.050000190734863,13.34000015258789,13.369999885559082,13.369999885559082,98100
2020-12-02,13.369999885559082,13.77299976348877,13.241000175476074,13.619999885559082,13.619999885559082,71500
2020-12-03,13.729999542236328,14.40999984741211,13.5,14.289999961853027,14.289999961853027,136500
2020-12-04,14.420000076293945,16.149999618530273,14.239999771118164,15.600000381469727,15.600000381469727,213900
2020-12-07,15.819999694824219,17.850000381469727,15.300000190734863,16.8799991607666,16.8799991607666,496400
2020-12-08,16.809999465942383,18.1200008392334,16.809999465942383,17.520000457763672,17.520000457763672,384100
2020-12-09,17.739999771118164,17.8799991607666,16.018999099731445,16.239999771118164,16.239999771118164,182800
2020-12-10,15.630000114440918,16.420000076293945,15.350000381469727,16.399999618530273,16.399999618530273,64600
2020-12-11,15.399999618530273,15.694999694824219,13.75,14.239999771118164,14.239999771118164,403300
2020-12-14,14.949999809265137,14.949999809265137,13.779999732971191,13.920000076293945,13.920000076293945,274700
2020-12-15,13.960000038146973,14.649999618530273,13.850000381469727,14.520000457763672,14.520000457763672,161600
2020-12-16,14.489999771118164,14.859999656677246,14.010000228881836,14.1899995803833,14.1899995803833,115400
2020-12-17,14.130000114440918,14.130000114440918,12.770000457763672,13.399999618530273,13.399999618530273,258400
2020-12-18,13.420000076293945,14.0,12.880000114440918,13.0600004196167,13.0600004196167,576600
2020-12-21,12.770000457763672,13.4399995803833,12.729999542236328,13.149999618530273,13.149999618530273,164900
2020-12-22,13.180000305175781,13.510000228881836,12.694999694824219,13.4399995803833,13.4399995803833,182100
2020-12-23,13.760000228881836,13.869999885559082,12.789999961853027,13.119999885559082,13.119999885559082,207800
2020-12-24,13.229999542236328,13.289999961853027,12.800000190734863,12.899999618530273,12.899999618530273,56100
2020-12-28,13.180000305175781,13.180000305175781,12.605999946594238,12.779999732971191,12.779999732971191,196200
2020-12-29,12.930000305175781,12.930000305175781,12.399999618530273,12.65999984741211,12.65999984741211,139800
2020-12-30,12.680000305175781,13.1899995803833,12.579999923706055,12.75,12.75,94000
