Date,Open,High,Low,Close,Adj Close,Volume
2019-07-01,15.399999618530273,15.399999618530273,15.274999618530273,15.399999618530273,15.399999618530273,12300
2019-07-02,15.399999618530273,15.399999618530273,15.399999618530273,15.399999618530273,15.399999618530273,400
2019-07-03,15.5,15.5,15.5,15.5,15.5,200
2019-07-05,15.449999809265137,15.449999809265137,15.449999809265137,15.449999809265137,15.449999809265137,200
2019-07-08,15.5,15.5,15.5,15.5,15.5,1000
2019-07-09,15.449999809265137,15.600000381469727,15.449999809265137,15.600000381469727,15.600000381469727,31100
2019-07-10,16.0,17.0,16.0,16.829999923706055,16.829999923706055,1800
2019-07-11,16.469999313354492,16.5,16.010000228881836,16.5,16.5,14400
2019-07-12,16.5,19.0,16.5,17.229999542236328,17.229999542236328,46800
2019-07-15,17.350000381469727,17.399999618530273,17.049999237060547,17.350000381469727,17.350000381469727,5600
2019-07-16,17.31999969482422,17.350000381469727,17.299999237060547,17.299999237060547,17.299999237060547,3500
2019-07-17,17.049999237060547,17.200000762939453,17.0,17.0,17.0,4500
2019-07-18,16.450000762939453,16.510000228881836,15.75,16.5,16.5,1819900
2019-07-19,16.739999771118164,16.844999313354492,16.239999771118164,16.299999237060547,16.299999237060547,970200
2019-07-22,16.440000534057617,16.600000381469727,16.118999481201172,16.25,16.25,81100
2019-07-23,16.32900047302246,16.5,16.25,16.350000381469727,16.350000381469727,104700
2019-07-24,16.260000228881836,16.440000534057617,15.5,15.720000267028809,15.720000267028809,36100
2019-07-25,15.8100004196167,15.8100004196167,15.140000343322754,15.619999885559082,15.619999885559082,44300
2019-07-26,15.430000305175781,15.430000305175781,14.649999618530273,14.739999771118164,14.739999771118164,77000
2019-07-29,14.84000015258789,14.850000381469727,13.800000190734863,14.25,14.25,61200
2019-07-30,14.359999656677246,14.899999618530273,14.069999694824219,14.5,14.5,109200
2019-07-31,14.699999809265137,15.039999961853027,14.479999542236328,14.960000038146973,14.960000038146973,10600
2019-08-01,15.329999923706055,15.59000015258789,14.0,14.989999771118164,14.989999771118164,34700
2019-08-02,15.569999694824219,15.579999923706055,14.479999542236328,14.75,14.75,34800
2019-08-05,14.579999923706055,14.585000038146973,13.930000305175781,14.0,14.0,113800
2019-08-06,14.109999656677246,14.399999618530273,13.401000022888184,13.850000381469727,13.850000381469727,122200
2019-08-07,13.859999656677246,14.0,13.520000457763672,13.800000190734863,13.800000190734863,217600
2019-08-08,13.869999885559082,15.380000114440918,12.869999885559082,13.0,13.0,203800
2019-08-09,12.979999542236328,13.378000259399414,12.725000381469727,12.869999885559082,12.869999885559082,99500
2019-08-12,14.119999885559082,15.390000343322754,13.199999809265137,13.25,13.25,742200
2019-08-13,13.380000114440918,13.899999618530273,13.069999694824219,13.100000381469727,13.100000381469727,532800
2019-08-14,13.262999534606934,13.585000038146973,13.029999732971191,13.460000038146973,13.460000038146973,586600
2019-08-15,13.949999809265137,14.680000305175781,13.279999732971191,13.390000343322754,13.390000343322754,374700
2019-08-16,13.319999694824219,13.489999771118164,13.119999885559082,13.25,13.25,604100
2019-08-19,13.399999618530273,13.718999862670898,13.109999656677246,13.149999618530273,13.149999618530273,463500
2019-08-20,13.289999961853027,13.430000305175781,13.149999618530273,13.25,13.25,410400
2019-08-21,13.25,13.25,12.899999618530273,12.970000267028809,12.970000267028809,176800
2019-08-22,13.270000457763672,13.270000457763672,12.930000305175781,12.970000267028809,12.970000267028809,675600
2019-08-23,12.979999542236328,13.380000114440918,12.930000305175781,13.069999694824219,13.069999694824219,354200
2019-08-26,13.069999694824219,13.449999809265137,12.930000305175781,13.210000038146973,13.210000038146973,178000
2019-08-27,13.15999984741211,13.470000267028809,13.0,13.100000381469727,13.100000381469727,264300
2019-08-28,13.069999694824219,13.680000305175781,13.069999694824219,13.239999771118164,13.239999771118164,338200
2019-08-29,13.199999809265137,13.819999694824219,13.100000381469727,13.720000267028809,13.720000267028809,332500
2019-08-30,13.640000343322754,13.930000305175781,13.460000038146973,13.800000190734863,13.800000190734863,140400
2019-09-03,13.779999732971191,13.9399995803833,13.609999656677246,13.90999984741211,13.90999984741211,298100
2019-09-04,13.949999809265137,14.194999694824219,13.609999656677246,13.979999542236328,13.979999542236328,348600
2019-09-05,14.069999694824219,14.279999732971191,13.510000228881836,13.859999656677246,13.859999656677246,316300
2019-09-06,13.899999618530273,14.0,13.5600004196167,13.930000305175781,13.930000305175781,311100
2019-09-09,14.020000457763672,14.670000076293945,13.710000038146973,13.930000305175781,13.930000305175781,470700
2019-09-10,13.890000343322754,14.25100040435791,13.8100004196167,14.039999961853027,14.039999961853027,241500
2019-09-11,14.010000228881836,14.579999923706055,14.0,14.510000228881836,14.510000228881836,504500
2019-09-12,14.40999984741211,15.039999961853027,14.175000190734863,14.430000305175781,14.430000305175781,535900
2019-09-13,14.449999809265137,15.319999694824219,14.140000343322754,14.460000038146973,14.460000038146973,439900
2019-09-16,14.359999656677246,14.800000190734863,13.930000305175781,14.210000038146973,14.210000038146973,398500
2019-09-17,14.1899995803833,15.069999694824219,14.1899995803833,14.65999984741211,14.65999984741211,349000
2019-09-18,14.65999984741211,15.229999542236328,14.510000228881836,14.829999923706055,14.829999923706055,793200
2019-09-19,14.819999694824219,15.085000038146973,14.553000450134277,14.90999984741211,14.90999984741211,802200
2019-09-20,14.949999809265137,15.420000076293945,14.729999542236328,14.770000457763672,14.770000457763672,2410200
2019-09-23,14.770000457763672,15.069999694824219,13.869999885559082,13.949999809265137,13.949999809265137,543700
2019-09-24,14.050000190734863,14.345999717712402,13.75,14.210000038146973,14.210000038146973,545800
2019-09-25,14.199999809265137,15.229999542236328,14.199999809265137,14.960000038146973,14.960000038146973,635100
2019-09-26,14.979999542236328,15.079999923706055,14.420000076293945,14.619999885559082,14.619999885559082,118300
2019-09-27,14.59000015258789,14.960000038146973,14.430000305175781,14.649999618530273,14.649999618530273,146800
2019-09-30,14.649999618530273,15.130000114440918,14.630000114440918,15.0,15.0,199500
2019-10-01,15.020000457763672,15.260000228881836,14.880000114440918,14.979999542236328,14.979999542236328,393800
2019-10-02,14.899999618530273,15.65999984741211,14.890000343322754,15.300000190734863,15.300000190734863,576900
2019-10-03,15.319999694824219,15.770000457763672,15.09000015258789,15.529999732971191,15.529999732971191,340400
2019-10-04,15.649999618530273,16.009000778198242,15.260000228881836,15.380000114440918,15.380000114440918,601100
2019-10-07,15.380000114440918,15.520000457763672,14.720000267028809,14.920000076293945,14.920000076293945,221200
2019-10-08,14.770000457763672,14.979999542236328,14.460000038146973,14.539999961853027,14.539999961853027,132700
2019-10-09,14.539999961853027,14.979999542236328,14.25,14.539999961853027,14.539999961853027,114100
2019-10-10,14.5,15.0,14.404000282287598,14.739999771118164,14.739999771118164,101300
2019-10-11,14.760000228881836,15.140000343322754,14.569999694824219,14.869999885559082,14.869999885559082,61000
2019-10-14,14.819999694824219,15.0,14.420000076293945,14.789999961853027,14.789999961853027,72900
2019-10-15,14.619999885559082,14.9399995803833,14.279999732971191,14.289999961853027,14.289999961853027,146600
2019-10-16,14.289999961853027,14.670000076293945,14.260000228881836,14.350000381469727,14.350000381469727,116200
2019-10-17,14.4399995803833,14.708999633789062,14.25,14.5,14.5,161000
2019-10-18,14.6899995803833,14.710000038146973,14.289999961853027,14.5,14.5,130800
2019-10-21,14.5,14.699999809265137,14.359999656677246,14.6899995803833,14.6899995803833,127900
2019-10-22,14.6899995803833,14.850000381469727,14.569999694824219,14.670000076293945,14.670000076293945,213600
2019-10-23,14.5600004196167,14.819999694824219,14.390000343322754,14.539999961853027,14.539999961853027,80700
2019-10-24,14.619999885559082,14.649999618530273,14.3100004196167,14.4399995803833,14.4399995803833,243400
2019-10-25,14.380000114440918,14.5,14.244999885559082,14.319999694824219,14.319999694824219,119700
2019-10-28,14.380000114440918,14.5,14.149999618530273,14.34000015258789,14.34000015258789,108100
2019-10-29,14.319999694824219,14.680000305175781,14.15999984741211,14.390000343322754,14.390000343322754,232900
2019-10-30,14.460000038146973,14.630000114440918,14.140000343322754,14.279999732971191,14.279999732971191,202600
2019-10-31,14.279999732971191,14.40999984741211,14.229999542236328,14.34000015258789,14.34000015258789,180900
2019-11-01,14.40999984741211,15.0,14.295000076293945,14.960000038146973,14.960000038146973,218400
2019-11-04,15.25,15.3100004196167,14.75,14.760000228881836,14.760000228881836,423400
2019-11-05,14.979999542236328,15.050000190734863,14.760000228881836,14.84000015258789,14.84000015258789,315700
2019-11-06,14.770000457763672,15.0,14.550000190734863,14.8100004196167,14.8100004196167,148100
2019-11-07,14.930000305175781,15.109999656677246,14.300000190734863,14.800000190734863,14.800000190734863,819200
2019-11-08,15.0,15.25,14.753999710083008,15.140000343322754,15.140000343322754,777700
2019-11-11,15.220000267028809,16.079999923706055,15.039999961853027,16.040000915527344,16.040000915527344,423400
2019-11-12,16.0,16.579999923706055,15.649999618530273,16.3700008392334,16.3700008392334,502300
2019-11-13,16.110000610351562,16.360000610351562,15.75,15.869999885559082,15.869999885559082,383600
2019-11-14,15.829999923706055,16.049999237060547,15.625,15.770000457763672,15.770000457763672,154100
2019-11-15,15.850000381469727,15.979999542236328,15.234999656677246,15.600000381469727,15.600000381469727,271900
2019-11-18,15.579999923706055,15.800000190734863,15.140000343322754,15.420000076293945,15.420000076293945,127900
2019-11-19,15.390000343322754,15.600000381469727,15.28499984741211,15.329999923706055,15.329999923706055,129700
2019-11-20,15.260000228881836,15.449999809265137,14.960000038146973,15.149999618530273,15.149999618530273,321000
2019-11-21,15.039999961853027,15.289999961853027,14.8149995803833,15.109999656677246,15.109999656677246,368800
2019-11-22,15.300000190734863,15.300000190734863,14.979999542236328,15.149999618530273,15.149999618530273,140000
2019-11-25,15.170000076293945,15.4399995803833,15.039999961853027,15.300000190734863,15.300000190734863,228200
2019-11-26,15.270000457763672,15.305000305175781,14.829999923706055,14.90999984741211,14.90999984741211,935500
2019-11-27,15.010000228881836,15.598999977111816,15.0,15.510000228881836,15.510000228881836,276600
2019-11-29,15.510000228881836,15.550000190734863,15.229999542236328,15.390000343322754,15.390000343322754,62400
2019-12-02,15.270000457763672,15.600000381469727,15.260000228881836,15.470000267028809,15.470000267028809,186200
2019-12-03,15.399999618530273,15.770000457763672,15.3100004196167,15.359999656677246,15.359999656677246,128600
2019-12-04,15.399999618530273,15.515000343322754,15.020000457763672,15.1899995803833,15.1899995803833,208700
2019-12-05,15.40999984741211,15.40999984741211,14.779999732971191,14.819999694824219,14.819999694824219,180900
2019-12-06,14.880000114440918,14.989999771118164,14.5600004196167,14.579999923706055,14.579999923706055,283300
2019-12-09,14.550000190734863,14.989999771118164,14.449999809265137,14.550000190734863,14.550000190734863,341500
2019-12-10,14.5600004196167,14.786999702453613,14.244999885559082,14.5,14.5,222400
2019-12-11,14.520000457763672,14.779999732971191,14.289999961853027,14.770000457763672,14.770000457763672,205000
2019-12-12,14.649999618530273,14.880000114440918,14.510000228881836,14.5600004196167,14.5600004196167,282500
2019-12-13,15.920000076293945,16.639999389648438,15.46500015258789,15.640000343322754,15.640000343322754,1848500
2019-12-16,15.779999732971191,16.239999771118164,15.449999809265137,15.979999542236328,15.979999542236328,472800
2019-12-17,15.979999542236328,16.200000762939453,15.649999618530273,15.710000038146973,15.710000038146973,235100
2019-12-18,15.729999542236328,15.930000305175781,15.399999618530273,15.699999809265137,15.699999809265137,298300
2019-12-19,15.829999923706055,15.84000015258789,15.489999771118164,15.65999984741211,15.65999984741211,426900
2019-12-20,15.6899995803833,15.880000114440918,15.5600004196167,15.75,15.75,406000
2019-12-23,15.869999885559082,16.34000015258789,15.803000450134277,16.290000915527344,16.290000915527344,282100
2019-12-24,16.290000915527344,16.5,16.024999618530273,16.5,16.5,48500
2019-12-26,16.5,16.649999618530273,16.139999389648438,16.280000686645508,16.280000686645508,68400
2019-12-27,16.350000381469727,16.639999389648438,15.90999984741211,16.010000228881836,16.010000228881836,161300
2019-12-30,15.890000343322754,16.1299991607666,15.609999656677246,16.059999465942383,16.059999465942383,136100
2019-12-31,16.049999237060547,16.950000762939453,16.003000259399414,16.899999618530273,16.899999618530273,203500
2020-01-02,16.969999313354492,16.969999313354492,16.15999984741211,16.559999465942383,16.559999465942383,300400
2020-01-03,16.600000381469727,16.729999542236328,16.110000610351562,16.610000610351562,16.610000610351562,270800
2020-01-06,16.540000915527344,16.8700008392334,16.229999542236328,16.84000015258789,16.84000015258789,499600
2020-01-07,16.969999313354492,17.329999923706055,16.860000610351562,17.270000457763672,17.270000457763672,986100
2020-01-08,17.350000381469727,17.489999771118164,16.899999618530273,16.969999313354492,16.969999313354492,464900
2020-01-09,17.25,17.43000030517578,17.139999389648438,17.280000686645508,17.280000686645508,242600
2020-01-10,17.389999389648438,17.579999923706055,17.200000762939453,17.31999969482422,17.31999969482422,717700
2020-01-13,17.3700008392334,17.450000762939453,17.05500030517578,17.139999389648438,17.139999389648438,242100
2020-01-14,17.15999984741211,17.315000534057617,16.8799991607666,17.100000381469727,17.100000381469727,501100
2020-01-15,17.100000381469727,17.649999618530273,17.0,17.56999969482422,17.56999969482422,584000
2020-01-16,17.639999389648438,17.65999984741211,17.354000091552734,17.56999969482422,17.56999969482422,387900
2020-01-17,17.579999923706055,18.34000015258789,17.579999923706055,17.989999771118164,17.989999771118164,327700
2020-01-21,18.200000762939453,18.275999069213867,17.860000610351562,17.959999084472656,17.959999084472656,309300
2020-01-22,18.1299991607666,18.350000381469727,17.98699951171875,18.219999313354492,18.219999313354492,623300
2020-01-23,18.18000030517578,18.3799991607666,17.65999984741211,17.899999618530273,17.899999618530273,394200
2020-01-24,17.889999389648438,18.079999923706055,17.663999557495117,17.860000610351562,17.860000610351562,144300
2020-01-27,17.81999969482422,18.030000686645508,17.73200035095215,17.84000015258789,17.84000015258789,707800
2020-01-28,19.690000534057617,19.690000534057617,17.665000915527344,18.149999618530273,18.149999618530273,411900
2020-01-29,18.170000076293945,18.270000457763672,17.889999389648438,18.149999618530273,18.149999618530273,366500
2020-01-30,18.100000381469727,18.190000534057617,17.709999084472656,18.0,18.0,266000
2020-01-31,18.010000228881836,18.100000381469727,17.520000457763672,17.68000030517578,17.68000030517578,473700
2020-02-03,17.700000762939453,17.895999908447266,17.469999313354492,17.860000610351562,17.860000610351562,402500
2020-02-04,17.940000534057617,18.25,17.809999465942383,18.06999969482422,18.06999969482422,257700
2020-02-05,18.170000076293945,18.417999267578125,17.850000381469727,17.969999313354492,17.969999313354492,321100
2020-02-06,17.969999313354492,18.270000457763672,17.920000076293945,18.139999389648438,18.139999389648438,143000
2020-02-07,18.139999389648438,18.239999771118164,17.81999969482422,18.0,18.0,412900
2020-02-10,18.110000610351562,18.121999740600586,17.56999969482422,17.690000534057617,17.690000534057617,141900
2020-02-11,17.760000228881836,17.979999542236328,17.59000015258789,17.610000610351562,17.610000610351562,106600
2020-02-12,17.6200008392334,17.8700008392334,17.6200008392334,17.700000762939453,17.700000762939453,185300
2020-02-13,17.760000228881836,18.1299991607666,17.59000015258789,17.989999771118164,17.989999771118164,215100
2020-02-14,18.0,18.125,17.75,17.90999984741211,17.90999984741211,172300
2020-02-18,17.959999084472656,18.049999237060547,17.600000381469727,17.899999618530273,17.899999618530273,265800
2020-02-19,18.290000915527344,18.309999465942383,17.75,17.850000381469727,17.850000381469727,375700
2020-02-20,17.8700008392334,18.020000457763672,17.81999969482422,17.8799991607666,17.8799991607666,320600
2020-02-21,17.8799991607666,18.06999969482422,17.760000228881836,17.81999969482422,17.81999969482422,310100
2020-02-24,17.600000381469727,17.920000076293945,16.84000015258789,17.309999465942383,17.309999465942383,227700
2020-02-25,17.40999984741211,17.40999984741211,16.3799991607666,16.799999237060547,16.799999237060547,388100
2020-02-26,16.8700008392334,16.8700008392334,15.479999542236328,15.930000305175781,15.930000305175781,886000
2020-02-27,15.430000305175781,17.815000534057617,14.779999732971191,14.960000038146973,14.960000038146973,529900
2020-02-28,15.989999771118164,15.989999771118164,14.15999984741211,15.109999656677246,15.109999656677246,1157000
2020-03-02,15.029999732971191,15.149999618530273,14.34000015258789,15.0,15.0,910300
2020-03-03,15.130000114440918,15.130000114440918,14.524999618530273,14.720000267028809,14.720000267028809,409200
2020-03-04,14.829999923706055,14.86400032043457,14.180000305175781,14.399999618530273,14.399999618530273,367100
2020-03-05,14.119999885559082,14.130999565124512,13.199999809265137,13.350000381469727,13.350000381469727,581800
2020-03-06,13.289999961853027,13.84000015258789,12.75,12.760000228881836,12.760000228881836,562100
2020-03-09,11.890000343322754,12.071000099182129,11.140000343322754,11.430000305175781,11.430000305175781,933500
2020-03-10,11.90999984741211,11.90999984741211,10.710000038146973,11.069999694824219,11.069999694824219,889200
2020-03-11,10.979999542236328,11.130000114440918,10.390000343322754,10.640000343322754,10.640000343322754,711400
2020-03-12,9.869999885559082,10.470000267028809,7.510000228881836,8.289999961853027,8.289999961853027,1240200
2020-03-13,8.579999923706055,11.079999923706055,8.15999984741211,10.390000343322754,10.390000343322754,1011700
2020-03-16,8.979999542236328,9.3100004196167,7.570000171661377,7.610000133514404,7.610000133514404,747200
2020-03-17,7.900000095367432,8.9399995803833,7.349999904632568,7.449999809265137,7.449999809265137,797100
2020-03-18,7.119999885559082,7.449999809265137,5.864999771118164,6.380000114440918,6.380000114440918,792300
2020-03-19,6.289999961853027,7.349999904632568,6.28000020980835,7.010000228881836,7.010000228881836,625300
2020-03-20,7.050000190734863,8.489999771118164,6.900000095367432,8.270000457763672,8.270000457763672,1302000
2020-03-23,8.100000381469727,8.289999961853027,7.420000076293945,8.289999961853027,8.289999961853027,570000
2020-03-24,8.970000267028809,9.229999542236328,8.710000038146973,9.020000457763672,9.020000457763672,507100
2020-03-25,9.199999809265137,9.5,7.739999771118164,7.929999828338623,7.929999828338623,1067400
2020-03-26,8.319999694824219,8.65999984741211,7.260000228881836,7.510000228881836,7.510000228881836,781400
2020-03-27,7.510000228881836,7.604000091552734,6.760000228881836,6.949999809265137,6.949999809265137,900300
2020-03-30,7.0,7.570000171661377,6.599999904632568,7.110000133514404,7.110000133514404,1116800
2020-03-31,7.179999828338623,7.465000152587891,6.96999979019165,7.309999942779541,7.309999942779541,669600
2020-04-01,6.670000076293945,6.670000076293945,6.0,6.340000152587891,6.340000152587891,1606400
2020-04-02,6.380000114440918,6.639999866485596,5.409999847412109,5.5,5.5,1224500
2020-04-03,5.5,5.679999828338623,4.309999942779541,4.869999885559082,4.869999885559082,1025800
2020-04-06,5.110000133514404,5.329999923706055,4.75,4.789999961853027,4.789999961853027,650200
2020-04-07,5.039999961853027,6.21999979019165,5.039999961853027,5.710000038146973,5.710000038146973,1293700
2020-04-08,5.739999771118164,6.690000057220459,5.710000038146973,6.53000020980835,6.53000020980835,871600
2020-04-09,6.849999904632568,7.699999809265137,6.849999904632568,7.690000057220459,7.690000057220459,1333900
2020-04-13,7.699999809265137,7.795000076293945,6.460000038146973,7.210000038146973,7.210000038146973,687900
2020-04-14,7.389999866485596,8.800000190734863,7.269999980926514,7.480000019073486,7.480000019073486,727200
2020-04-15,7.28000020980835,7.429999828338623,6.820000171661377,7.300000190734863,7.300000190734863,585100
2020-04-16,7.460000038146973,7.5,6.889999866485596,7.0,7.0,633200
2020-04-17,7.179999828338623,7.489999771118164,7.010000228881836,7.340000152587891,7.340000152587891,539800
2020-04-20,7.0,7.445000171661377,6.900000095367432,7.070000171661377,7.070000171661377,365600
2020-04-21,7.010000228881836,7.079999923706055,6.110000133514404,6.260000228881836,6.260000228881836,724000
2020-04-22,6.760000228881836,6.96999979019165,6.190000057220459,6.224999904632568,6.224999904632568,516400
2020-04-23,6.300000190734863,6.409999847412109,5.940000057220459,6.139999866485596,6.139999866485596,810300
2020-04-24,6.139999866485596,6.210000038146973,5.610000133514404,5.650000095367432,5.650000095367432,758900
2020-04-27,5.889999866485596,7.400000095367432,5.769999980926514,6.900000095367432,6.900000095367432,1519800
2020-04-28,7.389999866485596,7.699999809265137,6.710000038146973,7.170000076293945,7.170000076293945,1009900
2020-04-29,7.5,7.679999828338623,7.300000190734863,7.630000114440918,7.630000114440918,961300
2020-04-30,7.5,7.5,6.929999828338623,7.019999980926514,7.019999980926514,1452800
2020-05-01,6.880000114440918,7.070000171661377,6.510000228881836,6.739999771118164,6.739999771118164,1328400
2020-05-04,6.570000171661377,6.909999847412109,6.34499979019165,6.570000171661377,6.570000171661377,1347100
2020-05-05,6.710000038146973,7.130000114440918,6.489999771118164,6.610000133514404,6.610000133514404,903200
2020-05-06,6.690000057220459,7.050000190734863,6.480000019073486,6.619999885559082,6.619999885559082,724800
2020-05-07,6.699999809265137,7.260000228881836,6.699999809265137,7.0,7.0,834500
2020-05-08,7.130000114440918,8.0,6.980000019073486,7.0,7.0,1416900
2020-05-11,6.96999979019165,7.070000171661377,6.199999809265137,6.599999904632568,6.599999904632568,1356900
2020-05-12,6.71999979019165,6.96999979019165,6.360000133514404,6.400000095367432,6.400000095367432,623500
2020-05-13,6.349999904632568,6.369999885559082,5.760000228881836,6.070000171661377,6.070000171661377,806400
2020-05-14,5.869999885559082,6.769999980926514,5.869999885559082,6.679999828338623,6.679999828338623,1122700
2020-05-15,6.630000114440918,7.090000152587891,6.340000152587891,6.730000019073486,6.730000019073486,651700
2020-05-18,7.03000020980835,7.599999904632568,6.949999809265137,7.150000095367432,7.150000095367432,741100
2020-05-19,7.170000076293945,7.409999847412109,6.800000190734863,7.0,7.0,470300
2020-05-20,7.139999866485596,7.409999847412109,6.980000019073486,7.050000190734863,7.050000190734863,433600
2020-05-21,7.170000076293945,7.380000114440918,6.900000095367432,7.25,7.25,591500
2020-05-22,7.340000152587891,7.360000133514404,6.900000095367432,7.019999980926514,7.019999980926514,375900
2020-05-26,7.429999828338623,8.449999809265137,7.349999904632568,8.329999923706055,8.329999923706055,1291100
2020-05-27,8.729999542236328,9.149999618530273,8.270000457763672,9.0600004196167,9.0600004196167,936200
2020-05-28,9.140000343322754,9.15999984741211,8.050000190734863,8.125,8.125,774400
2020-05-29,8.020000457763672,8.789999961853027,8.020000457763672,8.699999809265137,8.699999809265137,878500
2020-06-01,8.670000076293945,8.930000305175781,8.399999618530273,8.550000190734863,8.550000190734863,608800
2020-06-02,8.579999923706055,8.930000305175781,8.579999923706055,8.710000038146973,8.710000038146973,528700
2020-06-03,8.899999618530273,9.979999542236328,8.859999656677246,9.829999923706055,9.829999923706055,1338400
2020-06-04,9.850000381469727,9.979999542236328,9.460000038146973,9.5600004196167,9.5600004196167,1071000
2020-06-05,10.0,12.34000015258789,9.954999923706055,10.609999656677246,10.609999656677246,3232400
2020-06-08,10.760000228881836,11.630000114440918,10.710000038146973,11.600000381469727,11.600000381469727,1527000
2020-06-09,11.25,11.34000015258789,10.470000267028809,10.569999694824219,10.569999694824219,925900
2020-06-10,10.470000267028809,10.607000350952148,9.869999885559082,9.949999809265137,9.949999809265137,996000
2020-06-11,9.300000190734863,9.39900016784668,8.6899995803833,8.819999694824219,8.819999694824219,746800
2020-06-12,9.649999618530273,10.079999923706055,9.149999618530273,9.329999923706055,9.329999923706055,981100
2020-06-15,8.829999923706055,9.970000267028809,8.779999732971191,9.9399995803833,9.9399995803833,1414300
2020-06-16,10.630000114440918,10.989999771118164,9.380000114440918,9.520000457763672,9.520000457763672,968400
2020-06-17,9.510000228881836,9.875,9.229999542236328,9.649999618530273,9.649999618530273,629900
2020-06-18,9.510000228881836,9.880000114440918,9.289999961853027,9.399999618530273,9.399999618530273,504700
2020-06-19,9.510000228881836,9.949999809265137,9.369999885559082,9.569999694824219,9.569999694824219,991800
2020-06-22,9.569999694824219,9.739999771118164,9.0600004196167,9.15999984741211,9.15999984741211,686700
2020-06-23,9.279999732971191,9.989999771118164,9.229999542236328,9.930000305175781,9.930000305175781,1054000
2020-06-24,9.920000076293945,10.199999809265137,9.34000015258789,9.6899995803833,9.6899995803833,1286900
2020-06-25,9.640000343322754,10.229999542236328,9.420999526977539,9.829999923706055,9.829999923706055,984600
2020-06-26,9.699999809265137,9.779999732971191,8.84000015258789,9.020000457763672,9.020000457763672,7988800
2020-06-29,9.1899995803833,9.229000091552734,8.345000267028809,8.449999809265137,8.449999809265137,811700
2020-06-30,8.75,9.069999694824219,8.319999694824219,8.350000381469727,8.350000381469727,1195000
2020-07-01,8.0,8.369999885559082,7.679999828338623,7.889999866485596,7.889999866485596,1688100
2020-07-02,7.96999979019165,8.229999542236328,7.099999904632568,7.139999866485596,7.139999866485596,1373900
2020-07-06,7.380000114440918,8.050000190734863,6.25,7.119999885559082,7.119999885559082,2108300
2020-07-07,7.019999980926514,7.199999809265137,6.619999885559082,7.099999904632568,7.099999904632568,1173800
2020-07-08,7.099999904632568,7.199999809265137,6.829999923706055,7.099999904632568,7.099999904632568,1166700
2020-07-09,7.099999904632568,7.099999904632568,6.611999988555908,6.800000190734863,6.800000190734863,1380500
2020-07-10,6.679999828338623,6.829999923706055,6.449999809265137,6.650000095367432,6.650000095367432,1381400
2020-07-13,6.75,7.070000171661377,6.619999885559082,6.820000171661377,6.820000171661377,994300
2020-07-14,6.800000190734863,7.090000152587891,6.630000114440918,7.059999942779541,7.059999942779541,1330800
2020-07-15,7.25,7.420000076293945,7.099999904632568,7.199999809265137,7.199999809265137,1571000
2020-07-16,7.400000095367432,8.800000190734863,7.130000114440918,8.630000114440918,8.630000114440918,3967900
2020-07-17,8.550000190734863,9.109999656677246,8.369999885559082,8.859999656677246,8.859999656677246,1578800
2020-07-20,8.819999694824219,8.989999771118164,8.569999694824219,8.680000305175781,8.680000305175781,939400
2020-07-21,8.149999618530273,8.720000267028809,7.96999979019165,8.130000114440918,8.130000114440918,1275400
2020-07-22,8.039999961853027,8.869999885559082,7.989999771118164,8.5,8.5,890000
2020-07-23,8.350000381469727,8.890000343322754,8.350000381469727,8.649999618530273,8.649999618530273,505900
2020-07-24,8.800000190734863,8.829999923706055,8.149999618530273,8.279999732971191,8.279999732971191,538800
2020-07-27,8.289999961853027,8.420000076293945,7.889999866485596,8.270000457763672,8.270000457763672,685700
2020-07-28,8.210000038146973,8.458000183105469,8.050000190734863,8.329999923706055,8.329999923706055,413300
2020-07-29,8.350000381469727,8.460000038146973,8.0600004196167,8.119999885559082,8.119999885559082,367200
2020-07-30,8.100000381469727,8.489999771118164,8.029999732971191,8.420000076293945,8.420000076293945,564400
2020-07-31,8.350000381469727,8.479999542236328,8.0,8.359999656677246,8.359999656677246,559900
2020-08-03,8.420000076293945,9.09000015258789,8.350000381469727,8.9399995803833,8.9399995803833,1352600
2020-08-04,8.920000076293945,9.3149995803833,8.899999618530273,9.119999885559082,9.119999885559082,709500
2020-08-05,9.289999961853027,9.289999961853027,8.5,8.600000381469727,8.600000381469727,733500
2020-08-06,8.470000267028809,8.479999542236328,7.599999904632568,8.079999923706055,8.079999923706055,2531900
2020-08-07,8.210000038146973,8.239999771118164,7.909999847412109,8.039999961853027,8.039999961853027,945800
2020-08-10,8.079999923706055,8.949999809265137,8.050000190734863,8.84000015258789,8.84000015258789,1172000
2020-08-11,8.850000381469727,9.9399995803833,8.850000381469727,9.649999618530273,9.649999618530273,1343600
2020-08-12,9.770000457763672,9.899999618530273,9.3100004196167,9.4399995803833,9.4399995803833,463700
2020-08-13,9.380000114440918,9.609999656677246,8.979999542236328,9.050000190734863,9.050000190734863,372700
2020-08-14,9.0,9.289999961853027,8.914999961853027,8.979999542236328,8.979999542236328,396600
2020-08-17,8.960000038146973,9.130000114440918,8.75,9.050000190734863,9.050000190734863,331900
2020-08-18,9.010000228881836,9.109999656677246,8.859999656677246,8.949999809265137,8.949999809265137,194700
2020-08-19,8.9399995803833,9.3100004196167,8.9399995803833,9.199999809265137,9.199999809265137,291200
2020-08-20,9.020000457763672,9.119999885559082,8.625,8.649999618530273,8.649999618530273,321400
2020-08-21,8.579999923706055,8.579999923706055,7.960000038146973,8.15999984741211,8.15999984741211,821500
2020-08-24,8.210000038146973,8.880000114440918,7.989999771118164,8.75,8.75,658700
2020-08-25,8.6899995803833,9.180000305175781,8.609999656677246,9.15999984741211,9.15999984741211,482200
2020-08-26,9.149999618530273,9.449999809265137,9.149999618530273,9.3100004196167,9.3100004196167,256200
2020-08-27,9.319999694824219,9.649999618530273,9.071000099182129,9.210000038146973,9.210000038146973,325300
2020-08-28,9.210000038146973,9.359999656677246,8.84000015258789,9.119999885559082,9.119999885559082,305600
2020-08-31,9.0600004196167,9.300000190734863,8.920000076293945,9.220000267028809,9.220000267028809,264700
2020-09-01,9.109999656677246,9.239999771118164,8.9399995803833,9.130000114440918,9.130000114440918,239100
2020-09-02,9.100000381469727,9.390000343322754,8.989999771118164,9.149999618530273,9.149999618530273,371600
2020-09-03,9.210000038146973,9.539999961853027,8.880000114440918,8.920000076293945,8.920000076293945,447400
2020-09-04,9.119999885559082,9.279999732971191,8.930000305175781,9.199999809265137,9.199999809265137,263700
2020-09-08,9.020000457763672,10.239999771118164,8.75,9.130000114440918,9.130000114440918,1845800
2020-09-09,9.130000114440918,9.520000457763672,8.6899995803833,9.239999771118164,9.239999771118164,845700
2020-09-10,9.25,9.625,9.100000381469727,9.180000305175781,9.180000305175781,370000
2020-09-11,9.170000076293945,9.1899995803833,8.84000015258789,9.010000228881836,9.010000228881836,216600
2020-09-14,9.109999656677246,9.25,9.0600004196167,9.199999809265137,9.199999809265137,406100
2020-09-15,9.25,9.260000228881836,8.899999618530273,8.930000305175781,8.930000305175781,211400
2020-09-16,8.979999542236328,9.4399995803833,8.75,9.289999961853027,9.289999961853027,498600
2020-09-17,9.119999885559082,9.329999923706055,9.020000457763672,9.289999961853027,9.289999961853027,644400
2020-09-18,9.430000305175781,9.430000305175781,8.729999542236328,9.119999885559082,9.119999885559082,1045200
2020-09-21,8.960000038146973,8.960000038146973,8.550000190734863,8.850000381469727,8.850000381469727,527300
2020-09-22,8.869999885559082,8.989999771118164,7.809999942779541,8.109999656677246,8.109999656677246,1302700
2020-09-23,8.050000190734863,8.239999771118164,7.480000019073486,7.630000114440918,7.630000114440918,752700
2020-09-24,7.630000114440918,7.880000114440918,7.409999847412109,7.789999961853027,7.789999961853027,597700
2020-09-25,7.699999809265137,8.0,7.625,7.929999828338623,7.929999828338623,213700
2020-09-28,8.109999656677246,8.890000343322754,8.015000343322754,8.789999961853027,8.789999961853027,1018000
2020-09-29,8.800000190734863,8.960000038146973,8.5600004196167,8.779999732971191,8.779999732971191,875200
2020-09-30,8.720000267028809,9.09000015258789,8.039999961853027,8.119999885559082,8.119999885559082,613600
2020-10-01,8.260000228881836,8.47700023651123,7.985000133514404,8.130000114440918,8.130000114440918,513100
2020-10-02,7.929999828338623,8.319999694824219,7.809999942779541,8.1899995803833,8.1899995803833,428900
2020-10-05,8.220000267028809,8.300000190734863,7.940000057220459,8.199999809265137,8.199999809265137,466900
2020-10-06,8.34000015258789,8.399999618530273,7.985000133514404,8.010000228881836,8.010000228881836,498600
2020-10-07,8.170000076293945,8.220000267028809,7.989999771118164,8.1899995803833,8.1899995803833,786200
2020-10-08,8.199999809265137,8.359999656677246,8.109999656677246,8.199999809265137,8.199999809265137,830200
2020-10-09,8.199999809265137,8.300000190734863,8.050000190734863,8.130000114440918,8.130000114440918,416700
2020-10-12,8.180000305175781,8.40999984741211,8.010000228881836,8.359999656677246,8.359999656677246,394300
2020-10-13,8.3100004196167,8.362000465393066,7.909999847412109,8.0,8.0,821700
2020-10-14,8.069999694824219,8.09000015258789,7.840000152587891,7.929999828338623,7.929999828338623,787600
2020-10-15,7.889999866485596,7.960000038146973,7.710000038146973,7.929999828338623,7.929999828338623,471900
2020-10-16,7.929999828338623,8.180000305175781,7.829999923706055,8.100000381469727,8.100000381469727,743100
2020-10-19,8.119999885559082,8.166000366210938,7.829999923706055,7.849999904632568,7.849999904632568,655400
2020-10-20,7.96999979019165,8.0600004196167,7.809999942779541,7.909999847412109,7.909999847412109,627300
2020-10-21,7.909999847412109,7.940000057220459,7.739999771118164,7.789999961853027,7.789999961853027,466800
2020-10-22,7.869999885559082,8.529999732971191,7.78000020980835,8.34000015258789,8.34000015258789,681700
2020-10-23,8.489999771118164,9.109999656677246,8.241999626159668,8.850000381469727,8.850000381469727,1812200
2020-10-26,8.710000038146973,8.8100004196167,8.03499984741211,8.359999656677246,8.359999656677246,546000
2020-10-27,8.3100004196167,8.800000190734863,8.170000076293945,8.680000305175781,8.680000305175781,479400
2020-10-28,8.430000305175781,8.487000465393066,8.119999885559082,8.3100004196167,8.3100004196167,401600
2020-10-29,8.270000457763672,8.640000343322754,8.0600004196167,8.520000457763672,8.520000457763672,332300
2020-10-30,8.520000457763672,8.670000076293945,8.029999732971191,8.220000267028809,8.220000267028809,338800
2020-11-02,8.350000381469727,8.739999771118164,8.15999984741211,8.649999618530273,8.649999618530273,467500
2020-11-03,8.829999923706055,9.039999961853027,8.670000076293945,8.789999961853027,8.789999961853027,808000
2020-11-04,8.779999732971191,8.869999885559082,8.289999961853027,8.430000305175781,8.430000305175781,304500
2020-11-05,8.5,9.079999923706055,8.5,8.989999771118164,8.989999771118164,575300
2020-11-06,9.0,9.210000038146973,8.850000381469727,8.869999885559082,8.869999885559082,517500
2020-11-09,9.699999809265137,10.829999923706055,9.550000190734863,10.210000038146973,10.210000038146973,1136100
2020-11-10,10.210000038146973,10.489999771118164,9.3100004196167,9.720000267028809,9.720000267028809,1080800
2020-11-11,9.829999923706055,10.555000305175781,9.710000038146973,10.199999809265137,10.199999809265137,765400
2020-11-12,10.09000015258789,10.4399995803833,9.704999923706055,9.829999923706055,9.829999923706055,666400
2020-11-13,9.949999809265137,10.25,9.670000076293945,10.130000114440918,10.130000114440918,661600
2020-11-16,10.399999618530273,10.8100004196167,10.125,10.399999618530273,10.399999618530273,1178600
2020-11-17,10.289999961853027,10.539999961853027,10.109999656677246,10.350000381469727,10.350000381469727,451700
2020-11-18,10.5,10.5,10.140000343322754,10.15999984741211,10.15999984741211,526100
2020-11-19,10.149999618530273,10.319999694824219,9.670000076293945,9.84000015258789,9.84000015258789,803400
2020-11-20,10.25,10.850000381469727,10.020000457763672,10.789999961853027,10.789999961853027,1420900
2020-11-23,10.979999542236328,12.4399995803833,10.970000267028809,11.869999885559082,11.869999885559082,1623600
2020-11-24,11.904999732971191,12.460000038146973,11.529999732971191,11.829999923706055,11.829999923706055,1238900
2020-11-25,11.699999809265137,12.109999656677246,11.050000190734863,12.050000190734863,12.050000190734863,940400
2020-11-27,12.050000190734863,13.170000076293945,12.050000190734863,12.470000267028809,12.470000267028809,839800
2020-11-30,12.479999542236328,12.520000457763672,11.569999694824219,11.954999923706055,11.954999923706055,938100
2020-12-01,12.0600004196167,12.40999984741211,11.899999618530273,11.960000038146973,11.960000038146973,820000
2020-12-02,11.850000381469727,12.40999984741211,11.760000228881836,12.199999809265137,12.199999809265137,640400
2020-12-03,12.25,12.640000343322754,12.119999885559082,12.279999732971191,12.279999732971191,660500
2020-12-04,12.300000190734863,12.59000015258789,12.145000457763672,12.359999656677246,12.359999656677246,374000
2020-12-07,12.329999923706055,12.789999961853027,11.949999809265137,12.579999923706055,12.579999923706055,508400
2020-12-08,12.399999618530273,12.84000015258789,12.210000038146973,12.510000228881836,12.510000228881836,544700
2020-12-09,12.65999984741211,12.920000076293945,12.289999961853027,12.369999885559082,12.369999885559082,652500
2020-12-10,12.270000457763672,12.779999732971191,12.140000343322754,12.5,12.5,487500
2020-12-11,12.270000457763672,12.479999542236328,12.119999885559082,12.270000457763672,12.270000457763672,435400
2020-12-14,12.369999885559082,12.899999618530273,11.9399995803833,12.399999618530273,12.399999618530273,1743900
2020-12-15,12.5,12.539999961853027,12.260000228881836,12.449999809265137,12.449999809265137,903400
2020-12-16,12.470000267028809,12.5600004196167,12.15999984741211,12.399999618530273,12.399999618530273,722800
2020-12-17,12.119999885559082,12.729999542236328,12.119999885559082,12.649999618530273,12.649999618530273,1211700
2020-12-18,12.279999732971191,12.569999694824219,11.920000076293945,12.449999809265137,12.449999809265137,2044200
2020-12-21,12.34000015258789,12.34000015258789,11.729999542236328,12.0,12.0,1414900
2020-12-22,12.039999961853027,12.25,11.819999694824219,12.15999984741211,12.15999984741211,1040600
2020-12-23,12.289999961853027,12.630000114440918,11.829999923706055,11.989999771118164,11.989999771118164,1334600
2020-12-24,12.029999732971191,12.149999618530273,11.789999961853027,12.149999618530273,12.149999618530273,311600
2020-12-28,12.1899995803833,13.003999710083008,12.140000343322754,12.8100004196167,12.8100004196167,1067200
2020-12-29,12.949999809265137,12.949999809265137,12.569999694824219,12.78499984741211,12.78499984741211,655900
2020-12-30,12.829999923706055,13.100000381469727,12.619999885559082,12.850000381469727,12.850000381469727,384200
