Date,Open,High,Low,Close,Adj Close,Volume
2018-06-21,17.700000762939453,19.5,16.360000610351562,18.350000381469727,18.350000381469727,5136700
2018-06-22,18.719999313354492,18.799999237060547,16.850000381469727,17.25,17.25,628800
2018-06-25,17.25,17.25,15.109999656677246,15.819999694824219,15.819999694824219,641300
2018-06-26,16.329999923706055,16.420000076293945,15.260000228881836,15.510000228881836,15.510000228881836,251300
2018-06-27,15.520000457763672,15.65999984741211,14.25,14.520000457763672,14.520000457763672,495000
2018-06-28,14.75,15.0,13.789999961853027,14.75,14.75,421200
2018-06-29,14.90999984741211,16.989999771118164,14.90999984741211,15.220000267028809,15.220000267028809,393200
2018-07-02,15.479999542236328,15.760000228881836,14.75,15.09000015258789,15.09000015258789,86300
2018-07-03,15.069999694824219,15.1899995803833,14.640000343322754,15.039999961853027,15.039999961853027,95400
2018-07-05,14.949999809265137,15.59000015258789,14.420000076293945,15.390000343322754,15.390000343322754,56300
2018-07-06,15.390000343322754,15.729999542236328,15.0,15.600000381469727,15.600000381469727,86100
2018-07-09,16.06999969482422,16.6299991607666,15.600000381469727,16.139999389648438,16.139999389648438,159600
2018-07-10,16.079999923706055,16.299999237060547,15.800000190734863,16.100000381469727,16.100000381469727,50500
2018-07-11,15.899999618530273,17.079999923706055,15.819999694824219,16.940000534057617,16.940000534057617,104400
2018-07-12,17.1299991607666,17.450000762939453,16.700000762939453,16.760000228881836,16.760000228881836,94300
2018-07-13,16.770000457763672,17.350000381469727,16.6200008392334,16.6299991607666,16.6299991607666,56100
2018-07-16,16.530000686645508,17.190000534057617,15.84000015258789,16.75,16.75,166200
2018-07-17,16.75,17.219999313354492,16.399999618530273,16.75,16.75,69700
2018-07-18,16.68000030517578,16.75,16.290000915527344,16.420000076293945,16.420000076293945,35500
2018-07-19,16.549999237060547,16.860000610351562,16.1299991607666,16.260000228881836,16.260000228881836,19500
2018-07-20,16.3700008392334,16.850000381469727,16.260000228881836,16.68000030517578,16.68000030517578,80600
2018-07-23,16.610000610351562,16.790000915527344,16.270000457763672,16.479999542236328,16.479999542236328,27800
2018-07-24,16.579999923706055,16.579999923706055,15.010000228881836,16.1200008392334,16.1200008392334,99000
2018-07-25,15.979999542236328,16.31999969482422,15.600000381469727,16.100000381469727,16.100000381469727,73000
2018-07-26,16.049999237060547,16.56999969482422,15.84000015258789,16.31999969482422,16.31999969482422,69100
2018-07-27,16.25,16.469999313354492,15.210000038146973,15.720000267028809,15.720000267028809,90700
2018-07-30,15.819999694824219,15.979999542236328,14.5,14.970000267028809,14.970000267028809,60400
2018-07-31,14.899999618530273,16.209999084472656,14.899999618530273,15.3100004196167,15.3100004196167,97100
2018-08-01,15.199999809265137,16.1200008392334,15.0,15.010000228881836,15.010000228881836,58400
2018-08-02,15.0,15.899999618530273,15.0,15.25,15.25,209100
2018-08-03,15.25,15.319999694824219,15.069999694824219,15.069999694824219,15.069999694824219,41300
2018-08-06,15.25,15.489999771118164,15.079999923706055,15.319999694824219,15.319999694824219,53900
2018-08-07,15.119999885559082,15.3100004196167,14.850000381469727,14.949999809265137,14.949999809265137,53600
2018-08-08,15.130000114440918,15.699999809265137,14.880000114440918,15.199999809265137,15.199999809265137,58000
2018-08-09,15.100000381469727,15.390000343322754,14.5,14.800000190734863,14.800000190734863,132100
2018-08-10,16.860000610351562,16.860000610351562,14.800000190734863,15.25,15.25,411300
2018-08-13,15.229999542236328,16.0,15.229999542236328,15.5,15.5,151100
2018-08-14,15.59000015258789,16.299999237060547,15.5600004196167,15.9399995803833,15.9399995803833,273300
2018-08-15,16.0,16.0,15.270000457763672,15.489999771118164,15.489999771118164,138500
2018-08-16,15.569999694824219,16.0,15.489999771118164,15.970000267028809,15.970000267028809,50000
2018-08-17,15.850000381469727,16.209999084472656,15.149999618530273,15.819999694824219,15.819999694824219,165100
2018-08-20,15.949999809265137,16.18000030517578,15.550000190734863,15.989999771118164,15.989999771118164,115900
2018-08-21,16.030000686645508,17.639999389648438,15.539999961853027,17.049999237060547,17.049999237060547,393000
2018-08-22,17.06999969482422,18.850000381469727,16.84000015258789,18.15999984741211,18.15999984741211,391600
2018-08-23,18.280000686645508,18.5,17.110000610351562,18.149999618530273,18.149999618530273,161200
2018-08-24,18.15999984741211,19.5,17.760000228881836,18.770000457763672,18.770000457763672,313300
2018-08-27,18.950000762939453,19.479999542236328,18.059999465942383,18.149999618530273,18.149999618530273,166000
2018-08-28,18.309999465942383,18.549999237060547,17.65999984741211,18.149999618530273,18.149999618530273,68600
2018-08-29,18.290000915527344,18.5,17.649999618530273,18.239999771118164,18.239999771118164,132000
2018-08-30,18.059999465942383,19.420000076293945,17.690000534057617,18.440000534057617,18.440000534057617,165200
2018-08-31,18.440000534057617,18.989999771118164,18.34000015258789,18.6200008392334,18.6200008392334,50000
2018-09-04,18.709999084472656,19.200000762939453,18.700000762939453,18.920000076293945,18.920000076293945,318200
2018-09-05,19.149999618530273,20.6299991607666,17.690000534057617,19.079999923706055,19.079999923706055,639900
2018-09-06,19.190000534057617,20.450000762939453,19.0,19.940000534057617,19.940000534057617,314700
2018-09-07,19.989999771118164,20.34000015258789,19.049999237060547,19.760000228881836,19.760000228881836,179800
2018-09-10,19.770000457763672,20.440000534057617,18.989999771118164,19.469999313354492,19.469999313354492,179400
2018-09-11,19.559999465942383,21.530000686645508,19.020000457763672,20.889999389648438,20.889999389648438,313600
2018-09-12,21.0,21.25,20.049999237060547,21.010000228881836,21.010000228881836,311400
2018-09-13,21.079999923706055,21.950000762939453,20.899999618530273,21.790000915527344,21.790000915527344,172200
2018-09-14,21.989999771118164,23.31999969482422,21.700000762939453,22.729999542236328,22.729999542236328,374800
2018-09-17,22.889999389648438,23.989999771118164,22.510000228881836,22.799999237060547,22.799999237060547,332300
2018-09-18,22.719999313354492,23.579999923706055,21.780000686645508,21.93000030517578,21.93000030517578,226600
2018-09-19,21.829999923706055,22.799999237060547,21.149999618530273,22.190000534057617,22.190000534057617,186600
2018-09-20,22.43000030517578,23.1299991607666,22.079999923706055,22.469999313354492,22.469999313354492,215800
2018-09-21,22.700000762939453,23.0,21.8799991607666,22.360000610351562,22.360000610351562,1038300
2018-09-24,22.25,22.610000610351562,21.899999618530273,22.209999084472656,22.209999084472656,117900
2018-09-25,22.1299991607666,23.049999237060547,21.809999465942383,22.760000228881836,22.760000228881836,150800
2018-09-26,22.889999389648438,23.309999465942383,22.079999923706055,22.260000228881836,22.260000228881836,128400
2018-09-27,22.399999618530273,22.739999771118164,22.0,22.68000030517578,22.68000030517578,77800
2018-09-28,22.56999969482422,23.06999969482422,22.15999984741211,22.979999542236328,22.979999542236328,218900
2018-10-01,22.989999771118164,25.5,22.989999771118164,23.770000457763672,23.770000457763672,562200
2018-10-02,23.93000030517578,24.84000015258789,23.149999618530273,24.389999389648438,24.389999389648438,178500
2018-10-03,24.770000457763672,24.770000457763672,23.549999237060547,23.90999984741211,23.90999984741211,109300
2018-10-04,23.84000015258789,24.010000228881836,23.0,23.34000015258789,23.34000015258789,86600
2018-10-05,23.350000381469727,24.020000457763672,19.579999923706055,21.059999465942383,21.059999465942383,386300
2018-10-08,20.959999084472656,21.440000534057617,20.579999923706055,21.18000030517578,21.18000030517578,139900
2018-10-09,21.059999465942383,22.270000457763672,20.68000030517578,20.700000762939453,20.700000762939453,81100
2018-10-10,20.479999542236328,20.520000457763672,19.329999923706055,19.8799991607666,19.8799991607666,245800
2018-10-11,19.639999389648438,19.690000534057617,19.059999465942383,19.190000534057617,19.190000534057617,165300
2018-10-12,19.479999542236328,20.540000915527344,19.360000610351562,20.440000534057617,20.440000534057617,89200
2018-10-15,20.459999084472656,20.979999542236328,19.420000076293945,19.6200008392334,19.6200008392334,116000
2018-10-16,19.649999618530273,21.09000015258789,19.31999969482422,20.989999771118164,20.989999771118164,70800
2018-10-17,20.920000076293945,21.15999984741211,20.170000076293945,20.860000610351562,20.860000610351562,156800
2018-10-18,20.799999237060547,21.149999618530273,20.1299991607666,20.520000457763672,20.520000457763672,109100
2018-10-19,20.540000915527344,21.0,20.170000076293945,20.700000762939453,20.700000762939453,45700
2018-10-22,20.950000762939453,21.90999984741211,20.3700008392334,21.770000457763672,21.770000457763672,74800
2018-10-23,21.329999923706055,21.700000762939453,20.81999969482422,21.190000534057617,21.190000534057617,144400
2018-10-24,21.110000610351562,22.0,20.440000534057617,20.639999389648438,20.639999389648438,287800
2018-10-25,20.829999923706055,21.440000534057617,20.600000381469727,21.100000381469727,21.100000381469727,177300
2018-10-26,21.09000015258789,21.270000457763672,20.309999465942383,21.049999237060547,21.049999237060547,158500
2018-10-29,21.639999389648438,21.670000076293945,20.600000381469727,20.90999984741211,20.90999984741211,178000
2018-10-30,20.829999923706055,21.579999923706055,19.5,21.479999542236328,21.479999542236328,126500
2018-10-31,21.760000228881836,22.0,20.780000686645508,21.489999771118164,21.489999771118164,78100
2018-11-01,21.5,21.670000076293945,20.59000015258789,21.459999084472656,21.459999084472656,52200
2018-11-02,21.520000457763672,21.950000762939453,20.889999389648438,21.239999771118164,21.239999771118164,44100
2018-11-05,21.299999237060547,21.639999389648438,20.6200008392334,21.0,21.0,48200
2018-11-06,20.93000030517578,21.15999984741211,19.84000015258789,19.989999771118164,19.989999771118164,81700
2018-11-07,20.110000610351562,20.780000686645508,19.360000610351562,19.850000381469727,19.850000381469727,85700
2018-11-08,19.700000762939453,20.219999313354492,19.229999542236328,20.149999618530273,20.149999618530273,117500
2018-11-09,20.190000534057617,20.510000228881836,19.6200008392334,20.010000228881836,20.010000228881836,125000
2018-11-12,19.950000762939453,20.25,19.700000762939453,19.770000457763672,19.770000457763672,92200
2018-11-13,19.989999771118164,20.18000030517578,18.469999313354492,18.700000762939453,18.700000762939453,114200
2018-11-14,18.90999984741211,19.040000915527344,18.139999389648438,18.559999465942383,18.559999465942383,70500
2018-11-15,18.280000686645508,19.110000610351562,17.530000686645508,18.59000015258789,18.59000015258789,47600
2018-11-16,18.350000381469727,19.079999923706055,17.780000686645508,19.0,19.0,87600
2018-11-19,18.719999313354492,18.920000076293945,18.110000610351562,18.489999771118164,18.489999771118164,91200
2018-11-20,18.139999389648438,18.450000762939453,17.8799991607666,18.010000228881836,18.010000228881836,47200
2018-11-21,18.190000534057617,18.489999771118164,17.649999618530273,18.030000686645508,18.030000686645508,42200
2018-11-23,17.739999771118164,18.40999984741211,17.739999771118164,18.1299991607666,18.1299991607666,16900
2018-11-26,18.540000915527344,18.540000915527344,17.770000457763672,18.110000610351562,18.110000610351562,43700
2018-11-27,17.8700008392334,18.309999465942383,17.139999389648438,18.0,18.0,65600
2018-11-28,18.15999984741211,19.799999237060547,18.010000228881836,19.3799991607666,19.3799991607666,81700
2018-11-29,19.0,20.260000228881836,18.530000686645508,20.06999969482422,20.06999969482422,107800
2018-11-30,20.100000381469727,22.899999618530273,19.75,22.530000686645508,22.530000686645508,114400
2018-12-03,22.729999542236328,22.889999389648438,22.100000381469727,22.84000015258789,22.84000015258789,64100
2018-12-04,22.780000686645508,23.100000381469727,21.489999771118164,21.670000076293945,21.670000076293945,85500
2018-12-06,21.219999313354492,22.06999969482422,20.610000610351562,21.18000030517578,21.18000030517578,123700
2018-12-07,22.600000381469727,22.600000381469727,20.520000457763672,20.940000534057617,20.940000534057617,128600
2018-12-10,20.899999618530273,21.719999313354492,20.389999389648438,21.40999984741211,21.40999984741211,94400
2018-12-11,21.989999771118164,22.010000228881836,21.350000381469727,22.0,22.0,100300
2018-12-12,22.40999984741211,22.670000076293945,21.799999237060547,22.100000381469727,22.100000381469727,33400
2018-12-13,22.280000686645508,22.280000686645508,21.329999923706055,21.65999984741211,21.65999984741211,31600
2018-12-14,21.59000015258789,21.8700008392334,21.399999618530273,21.5,21.5,29300
2018-12-17,21.3700008392334,21.799999237060547,20.760000228881836,20.959999084472656,20.959999084472656,80800
2018-12-18,21.40999984741211,23.190000534057617,21.0,23.049999237060547,23.049999237060547,104100
2018-12-19,23.040000915527344,24.010000228881836,22.290000915527344,23.0,23.0,164600
2018-12-20,22.790000915527344,23.459999084472656,21.0,22.670000076293945,22.670000076293945,151600
2018-12-21,22.75,22.75,20.940000534057617,20.959999084472656,20.959999084472656,138400
2018-12-24,20.950000762939453,21.68000030517578,20.950000762939453,21.059999465942383,21.059999465942383,40400
2018-12-26,21.25,22.25,20.5,22.209999084472656,22.209999084472656,95100
2018-12-27,21.489999771118164,22.729999542236328,21.489999771118164,22.489999771118164,22.489999771118164,37100
2018-12-28,22.690000534057617,23.079999923706055,21.59000015258789,22.950000762939453,22.950000762939453,87300
2018-12-31,22.979999542236328,24.110000610351562,22.1299991607666,24.100000381469727,24.100000381469727,106300
2019-01-02,24.09000015258789,25.0,22.270000457763672,24.649999618530273,24.649999618530273,92000
2019-01-03,24.8700008392334,24.8700008392334,22.489999771118164,22.600000381469727,22.600000381469727,124400
2019-01-04,22.81999969482422,24.440000534057617,22.81999969482422,23.549999237060547,23.549999237060547,100900
2019-01-07,23.5,26.600000381469727,23.3700008392334,26.59000015258789,26.59000015258789,256800
2019-01-08,26.510000228881836,27.09000015258789,25.450000762939453,26.239999771118164,26.239999771118164,201800
2019-01-09,26.299999237060547,26.6200008392334,24.90999984741211,25.239999771118164,25.239999771118164,137900
2019-01-10,25.040000915527344,26.0,24.579999923706055,25.170000076293945,25.170000076293945,69300
2019-01-11,25.139999389648438,26.0,23.139999389648438,24.360000610351562,24.360000610351562,147600
2019-01-14,23.8799991607666,25.469999313354492,23.8799991607666,24.079999923706055,24.079999923706055,55800
2019-01-15,24.110000610351562,25.75,24.100000381469727,25.020000457763672,25.020000457763672,58100
2019-01-16,25.09000015258789,25.5,24.200000762939453,24.389999389648438,24.389999389648438,64700
2019-01-17,24.389999389648438,24.68000030517578,23.56999969482422,23.739999771118164,23.739999771118164,78100
2019-01-18,23.850000381469727,24.329999923706055,23.360000610351562,24.0,24.0,118700
2019-01-22,23.780000686645508,23.799999237060547,22.93000030517578,23.06999969482422,23.06999969482422,51700
2019-01-23,23.15999984741211,23.6200008392334,22.530000686645508,22.639999389648438,22.639999389648438,48300
2019-01-24,22.850000381469727,24.040000915527344,22.809999465942383,23.850000381469727,23.850000381469727,27500
2019-01-25,23.8700008392334,24.489999771118164,23.3799991607666,24.329999923706055,24.329999923706055,30900
2019-01-28,24.329999923706055,24.479999542236328,23.459999084472656,24.010000228881836,24.010000228881836,20300
2019-01-29,24.1200008392334,24.1200008392334,23.280000686645508,23.40999984741211,23.40999984741211,45900
2019-01-30,23.559999465942383,24.989999771118164,23.1299991607666,24.469999313354492,24.469999313354492,100300
2019-01-31,24.479999542236328,25.450000762939453,23.549999237060547,24.729999542236328,24.729999542236328,97400
2019-02-01,24.700000762939453,25.450000762939453,24.649999618530273,25.209999084472656,25.209999084472656,62800
2019-02-04,25.309999465942383,25.799999237060547,24.440000534057617,24.649999618530273,24.649999618530273,75500
2019-02-05,24.68000030517578,25.479999542236328,24.420000076293945,24.790000915527344,24.790000915527344,114800
2019-02-06,24.739999771118164,25.360000610351562,22.8799991607666,24.139999389648438,24.139999389648438,103300
2019-02-07,24.110000610351562,24.90999984741211,22.989999771118164,24.709999084472656,24.709999084472656,91900
2019-02-08,24.440000534057617,25.049999237060547,24.299999237060547,24.760000228881836,24.760000228881836,109600
2019-02-11,24.899999618530273,25.040000915527344,24.170000076293945,24.739999771118164,24.739999771118164,49700
2019-02-12,24.709999084472656,24.899999618530273,24.260000228881836,24.600000381469727,24.600000381469727,120600
2019-02-13,24.75,25.969999313354492,24.170000076293945,25.25,25.25,161800
2019-02-14,23.5,24.920000076293945,23.200000762939453,23.68000030517578,23.68000030517578,412400
2019-02-15,23.68000030517578,24.350000381469727,23.3700008392334,23.670000076293945,23.670000076293945,158100
2019-02-19,23.600000381469727,24.3700008392334,21.110000610351562,21.649999618530273,21.649999618530273,232500
2019-02-20,21.670000076293945,21.799999237060547,21.260000228881836,21.360000610351562,21.360000610351562,175200
2019-02-21,21.3700008392334,22.100000381469727,20.40999984741211,21.84000015258789,21.84000015258789,199800
2019-02-22,22.1200008392334,22.780000686645508,21.309999465942383,22.040000915527344,22.040000915527344,226700
2019-02-25,22.100000381469727,22.770000457763672,21.299999237060547,21.399999618530273,21.399999618530273,147300
2019-02-26,21.350000381469727,21.8700008392334,21.020000457763672,21.229999542236328,21.229999542236328,188900
2019-02-27,21.219999313354492,22.34000015258789,21.049999237060547,21.760000228881836,21.760000228881836,59500
2019-02-28,21.899999618530273,22.200000762939453,20.899999618530273,21.040000915527344,21.040000915527344,81100
2019-03-01,21.3799991607666,21.639999389648438,20.899999618530273,21.079999923706055,21.079999923706055,96500
2019-03-04,21.40999984741211,22.440000534057617,21.100000381469727,22.09000015258789,22.09000015258789,95000
2019-03-05,21.90999984741211,22.43000030517578,21.190000534057617,21.209999084472656,21.209999084472656,77800
2019-03-06,21.219999313354492,22.440000534057617,20.520000457763672,21.920000076293945,21.920000076293945,176100
2019-03-07,22.200000762939453,22.489999771118164,21.479999542236328,21.989999771118164,21.989999771118164,55800
2019-03-08,21.860000610351562,22.5,21.799999237060547,22.3700008392334,22.3700008392334,63100
2019-03-11,22.18000030517578,22.709999084472656,21.940000534057617,22.270000457763672,22.270000457763672,71700
2019-03-12,22.260000228881836,22.420000076293945,21.559999465942383,21.969999313354492,21.969999313354492,58500
2019-03-13,22.06999969482422,22.5,21.600000381469727,21.68000030517578,21.68000030517578,63900
2019-03-14,21.790000915527344,22.290000915527344,21.559999465942383,21.899999618530273,21.899999618530273,53500
2019-03-15,21.90999984741211,22.299999237060547,21.56999969482422,22.0,22.0,196100
2019-03-18,22.0,22.770000457763672,21.729999542236328,22.309999465942383,22.309999465942383,64100
2019-03-19,22.280000686645508,22.90999984741211,21.729999542236328,22.1200008392334,22.1200008392334,85000
2019-03-20,22.059999465942383,23.100000381469727,21.940000534057617,22.6200008392334,22.6200008392334,104300
2019-03-21,22.6200008392334,23.219999313354492,22.459999084472656,23.170000076293945,23.170000076293945,49100
2019-03-22,23.0,23.0,22.3700008392334,22.450000762939453,22.450000762939453,52500
2019-03-25,22.389999389648438,22.719999313354492,21.940000534057617,22.3799991607666,22.3799991607666,28600
2019-03-26,22.469999313354492,22.520000457763672,21.25,21.889999389648438,21.889999389648438,46200
2019-03-27,21.709999084472656,22.6299991607666,21.420000076293945,22.309999465942383,22.309999465942383,72800
2019-03-28,22.329999923706055,22.6299991607666,21.770000457763672,22.59000015258789,22.59000015258789,63700
2019-03-29,22.579999923706055,24.030000686645508,22.299999237060547,24.020000457763672,24.020000457763672,138500
2019-04-01,24.020000457763672,24.020000457763672,22.149999618530273,22.489999771118164,22.489999771118164,109600
2019-04-02,22.530000686645508,22.860000610351562,22.15999984741211,22.510000228881836,22.510000228881836,65100
2019-04-03,22.600000381469727,23.149999618530273,22.270000457763672,22.59000015258789,22.59000015258789,45400
2019-04-04,22.5,23.639999389648438,22.299999237060547,23.1299991607666,23.1299991607666,51400
2019-04-05,23.389999389648438,24.1299991607666,23.329999923706055,24.040000915527344,24.040000915527344,65200
2019-04-08,24.049999237060547,24.65999984741211,23.18000030517578,24.43000030517578,24.43000030517578,59500
2019-04-09,24.440000534057617,24.950000762939453,24.200000762939453,24.760000228881836,24.760000228881836,56000
2019-04-10,24.84000015258789,24.979999542236328,24.290000915527344,24.469999313354492,24.469999313354492,42900
2019-04-11,24.6299991607666,24.6299991607666,23.8700008392334,24.200000762939453,24.200000762939453,22700
2019-04-12,24.420000076293945,24.739999771118164,23.979999542236328,24.389999389648438,24.389999389648438,33900
2019-04-15,24.469999313354492,24.68000030517578,23.84000015258789,24.0,24.0,14000
2019-04-16,24.0,24.600000381469727,23.809999465942383,23.889999389648438,23.889999389648438,32000
2019-04-17,23.81999969482422,24.610000610351562,23.489999771118164,24.010000228881836,24.010000228881836,87400
2019-04-18,23.889999389648438,24.149999618530273,23.06999969482422,23.690000534057617,23.690000534057617,48500
2019-04-22,23.479999542236328,25.020000457763672,23.280000686645508,24.65999984741211,24.65999984741211,88700
2019-04-23,24.6200008392334,24.979999542236328,23.969999313354492,24.700000762939453,24.700000762939453,48900
2019-04-24,24.780000686645508,24.8700008392334,24.15999984741211,24.3700008392334,24.3700008392334,26800
2019-04-25,24.280000686645508,24.280000686645508,23.209999084472656,23.6200008392334,23.6200008392334,28000
2019-04-26,23.6200008392334,24.729999542236328,23.239999771118164,24.510000228881836,24.510000228881836,35400
2019-04-29,24.5,24.809999465942383,24.06999969482422,24.6200008392334,24.6200008392334,27300
2019-04-30,24.639999389648438,24.639999389648438,24.0,24.139999389648438,24.139999389648438,54100
2019-05-01,24.110000610351562,24.43000030517578,23.579999923706055,23.719999313354492,23.719999313354492,41900
2019-05-02,23.540000915527344,24.100000381469727,23.389999389648438,24.040000915527344,24.040000915527344,45100
2019-05-03,24.219999313354492,24.479999542236328,24.1200008392334,24.309999465942383,24.309999465942383,26200
2019-05-06,23.850000381469727,24.889999389648438,23.850000381469727,24.739999771118164,24.739999771118164,41200
2019-05-07,24.520000457763672,24.600000381469727,24.40999984741211,24.520000457763672,24.520000457763672,24500
2019-05-08,24.559999465942383,24.799999237060547,24.329999923706055,24.399999618530273,24.399999618530273,35500
2019-05-09,24.389999389648438,24.420000076293945,23.799999237060547,24.190000534057617,24.190000534057617,29000
2019-05-10,24.049999237060547,24.219999313354492,23.8799991607666,24.15999984741211,24.15999984741211,27100
2019-05-13,23.770000457763672,24.190000534057617,23.010000228881836,23.260000228881836,23.260000228881836,51300
2019-05-14,23.729999542236328,24.709999084472656,23.6299991607666,23.790000915527344,23.790000915527344,117700
2019-05-15,23.829999923706055,24.1200008392334,23.6200008392334,23.719999313354492,23.719999313354492,42000
2019-05-16,23.739999771118164,23.899999618530273,23.280000686645508,23.469999313354492,23.469999313354492,52900
2019-05-17,23.25,24.459999084472656,23.110000610351562,24.299999237060547,24.299999237060547,92300
2019-05-20,24.100000381469727,26.239999771118164,23.829999923706055,25.15999984741211,25.15999984741211,173400
2019-05-21,25.520000457763672,27.040000915527344,24.239999771118164,25.010000228881836,25.010000228881836,241700
2019-05-22,24.959999084472656,25.649999618530273,23.809999465942383,25.450000762939453,25.450000762939453,89400
2019-05-23,25.549999237060547,25.780000686645508,25.06999969482422,25.709999084472656,25.709999084472656,86200
2019-05-24,25.84000015258789,26.3700008392334,25.049999237060547,26.010000228881836,26.010000228881836,34200
2019-05-28,26.309999465942383,27.8799991607666,26.010000228881836,26.540000915527344,26.540000915527344,154000
2019-05-29,26.450000762939453,26.709999084472656,25.5,26.020000457763672,26.020000457763672,98900
2019-05-30,26.100000381469727,26.530000686645508,25.729999542236328,26.0,26.0,55100
2019-05-31,25.729999542236328,25.959999084472656,24.010000228881836,25.56999969482422,25.56999969482422,93100
2019-06-03,25.709999084472656,26.75,24.219999313354492,24.65999984741211,24.65999984741211,94800
2019-06-04,23.459999084472656,23.84000015258789,22.219999313354492,23.309999465942383,23.309999465942383,299300
2019-06-05,23.209999084472656,24.229999542236328,22.90999984741211,23.920000076293945,23.920000076293945,177900
2019-06-06,24.399999618530273,24.690000534057617,22.299999237060547,22.8799991607666,22.8799991607666,2642000
2019-06-07,22.799999237060547,23.600000381469727,22.440000534057617,23.209999084472656,23.209999084472656,482100
2019-06-10,23.5,24.260000228881836,23.34000015258789,23.56999969482422,23.56999969482422,281100
2019-06-11,23.81999969482422,24.0,22.649999618530273,23.530000686645508,23.530000686645508,206600
2019-06-12,23.520000457763672,23.790000915527344,23.059999465942383,23.3799991607666,23.3799991607666,155700
2019-06-13,24.079999923706055,24.799999237060547,23.8799991607666,24.440000534057617,24.440000534057617,391900
2019-06-14,24.34000015258789,25.040000915527344,24.18000030517578,24.770000457763672,24.770000457763672,216400
2019-06-17,24.799999237060547,25.65999984741211,24.170000076293945,25.049999237060547,25.049999237060547,165300
2019-06-18,25.049999237060547,25.68000030517578,24.81999969482422,25.59000015258789,25.59000015258789,241200
2019-06-19,25.510000228881836,26.489999771118164,24.889999389648438,26.360000610351562,26.360000610351562,243500
2019-06-20,26.200000762939453,27.079999923706055,26.200000762939453,26.84000015258789,26.84000015258789,177200
2019-06-21,26.68000030517578,26.979999542236328,26.520000457763672,26.959999084472656,26.959999084472656,253400
2019-06-24,27.25,27.559999465942383,25.700000762939453,27.440000534057617,27.440000534057617,180400
2019-06-25,27.420000076293945,29.0,27.40999984741211,28.5,28.5,224500
2019-06-26,28.59000015258789,28.719999313354492,27.93000030517578,28.25,28.25,170400
2019-06-27,28.25,29.450000762939453,28.100000381469727,29.020000457763672,29.020000457763672,264600
2019-06-28,29.09000015258789,29.850000381469727,28.709999084472656,29.450000762939453,29.450000762939453,526300
2019-07-01,29.739999771118164,31.450000762939453,29.170000076293945,30.030000686645508,30.030000686645508,407400
2019-07-02,29.84000015258789,30.280000686645508,29.200000762939453,29.75,29.75,143400
2019-07-03,29.899999618530273,30.149999618530273,29.65999984741211,29.93000030517578,29.93000030517578,86300
2019-07-05,29.790000915527344,29.790000915527344,28.860000610351562,29.15999984741211,29.15999984741211,116700
2019-07-08,29.139999389648438,29.940000534057617,28.549999237060547,29.389999389648438,29.389999389648438,165200
2019-07-09,29.149999618530273,29.790000915527344,28.809999465942383,28.950000762939453,28.950000762939453,183000
2019-07-10,29.040000915527344,29.209999084472656,28.40999984741211,28.90999984741211,28.90999984741211,223900
2019-07-11,29.239999771118164,29.5,28.790000915527344,28.969999313354492,28.969999313354492,201400
2019-07-12,28.860000610351562,29.100000381469727,28.010000228881836,28.270000457763672,28.270000457763672,156000
2019-07-15,28.25,28.959999084472656,28.200000762939453,28.639999389648438,28.639999389648438,265600
2019-07-16,28.579999923706055,29.15999984741211,28.440000534057617,28.700000762939453,28.700000762939453,172800
2019-07-17,28.829999923706055,28.959999084472656,28.15999984741211,28.200000762939453,28.200000762939453,199900
2019-07-18,28.1299991607666,28.399999618530273,27.75,28.100000381469727,28.100000381469727,146900
2019-07-19,28.030000686645508,28.520000457763672,27.610000610351562,27.719999313354492,27.719999313354492,80500
2019-07-22,27.68000030517578,27.979999542236328,27.100000381469727,27.290000915527344,27.290000915527344,88400
2019-07-23,27.440000534057617,27.90999984741211,27.0,27.690000534057617,27.690000534057617,109600
2019-07-24,27.59000015258789,28.43000030517578,27.59000015258789,28.149999618530273,28.149999618530273,143300
2019-07-25,28.09000015258789,28.489999771118164,27.649999618530273,27.940000534057617,27.940000534057617,99400
2019-07-26,28.110000610351562,29.18000030517578,27.829999923706055,28.510000228881836,28.510000228881836,174300
2019-07-29,28.6299991607666,29.239999771118164,28.420000076293945,29.020000457763672,29.020000457763672,108500
2019-07-30,28.959999084472656,29.139999389648438,28.540000915527344,28.81999969482422,28.81999969482422,66500
2019-07-31,28.950000762939453,29.219999313354492,28.350000381469727,28.56999969482422,28.56999969482422,121500
2019-08-01,28.559999465942383,28.989999771118164,28.040000915527344,28.15999984741211,28.15999984741211,80100
2019-08-02,28.010000228881836,28.25,27.299999237060547,27.989999771118164,27.989999771118164,133300
2019-08-05,27.459999084472656,27.739999771118164,25.75,26.030000686645508,26.030000686645508,142300
2019-08-06,26.420000076293945,27.100000381469727,26.079999923706055,26.950000762939453,26.950000762939453,325200
2019-08-07,26.709999084472656,27.790000915527344,26.610000610351562,27.559999465942383,27.559999465942383,65100
2019-08-08,27.760000228881836,28.940000534057617,27.760000228881836,28.719999313354492,28.719999313354492,334300
2019-08-09,26.110000610351562,26.969999313354492,23.020000457763672,23.770000457763672,23.770000457763672,407300
2019-08-12,24.0,24.0,20.770000457763672,21.530000686645508,21.530000686645508,400400
2019-08-13,21.5,21.719999313354492,20.290000915527344,21.43000030517578,21.43000030517578,342500
2019-08-14,21.510000228881836,22.540000915527344,20.959999084472656,22.09000015258789,22.09000015258789,484300
2019-08-15,22.1200008392334,22.799999237060547,21.56999969482422,22.559999465942383,22.559999465942383,216600
2019-08-16,22.59000015258789,22.889999389648438,22.260000228881836,22.809999465942383,22.809999465942383,180800
2019-08-19,22.93000030517578,23.700000762939453,22.920000076293945,23.350000381469727,23.350000381469727,146800
2019-08-20,23.15999984741211,24.0,23.040000915527344,23.850000381469727,23.850000381469727,479900
2019-08-21,24.0,24.280000686645508,23.030000686645508,23.299999237060547,23.299999237060547,187500
2019-08-22,23.31999969482422,24.15999984741211,22.489999771118164,23.190000534057617,23.190000534057617,120900
2019-08-23,23.209999084472656,23.209999084472656,22.059999465942383,22.190000534057617,22.190000534057617,312100
2019-08-26,22.469999313354492,22.84000015258789,21.459999084472656,22.549999237060547,22.549999237060547,258400
2019-08-27,22.549999237060547,23.200000762939453,21.850000381469727,22.399999618530273,22.399999618530273,162500
2019-08-28,22.31999969482422,22.670000076293945,21.860000610351562,22.200000762939453,22.200000762939453,141400
2019-08-29,22.420000076293945,22.850000381469727,22.1200008392334,22.770000457763672,22.770000457763672,130200
2019-08-30,22.920000076293945,22.920000076293945,21.600000381469727,22.6200008392334,22.6200008392334,236900
2019-09-03,22.600000381469727,22.920000076293945,21.540000915527344,21.65999984741211,21.65999984741211,174300
2019-09-04,21.899999618530273,22.239999771118164,21.18000030517578,21.610000610351562,21.610000610351562,280100
2019-09-05,21.8700008392334,23.18000030517578,21.5,23.100000381469727,23.100000381469727,171200
2019-09-06,23.170000076293945,23.450000762939453,22.040000915527344,22.190000534057617,22.190000534057617,137200
2019-09-09,22.309999465942383,23.3799991607666,21.139999389648438,21.25,21.25,180800
2019-09-10,21.270000457763672,21.270000457763672,19.690000534057617,20.020000457763672,20.020000457763672,283900
2019-09-11,20.0,20.139999389648438,19.34000015258789,19.84000015258789,19.84000015258789,190300
2019-09-12,19.940000534057617,20.719999313354492,19.3700008392334,20.540000915527344,20.540000915527344,190800
2019-09-13,20.579999923706055,20.729999542236328,20.170000076293945,20.450000762939453,20.450000762939453,132500
2019-09-16,20.450000762939453,21.040000915527344,20.450000762939453,20.56999969482422,20.56999969482422,154600
2019-09-17,20.6299991607666,21.010000228881836,20.1299991607666,20.770000457763672,20.770000457763672,93800
2019-09-18,20.709999084472656,20.709999084472656,20.209999084472656,20.600000381469727,20.600000381469727,242400
2019-09-19,20.530000686645508,20.969999313354492,20.270000457763672,20.719999313354492,20.719999313354492,176000
2019-09-20,20.719999313354492,21.170000076293945,20.540000915527344,20.6299991607666,20.6299991607666,797700
2019-09-23,20.65999984741211,21.010000228881836,20.43000030517578,20.469999313354492,20.469999313354492,184400
2019-09-24,20.530000686645508,20.59000015258789,19.719999313354492,19.989999771118164,19.989999771118164,138000
2019-09-25,19.93000030517578,20.329999923706055,19.290000915527344,20.200000762939453,20.200000762939453,101800
2019-09-26,20.040000915527344,20.200000762939453,19.530000686645508,19.739999771118164,19.739999771118164,133600
2019-09-27,21.190000534057617,21.399999618530273,19.399999618530273,19.709999084472656,19.709999084472656,239800
2019-09-30,19.770000457763672,20.5,19.700000762939453,20.1200008392334,20.1200008392334,276800
2019-10-01,20.229999542236328,20.229999542236328,19.360000610351562,19.549999237060547,19.549999237060547,152200
2019-10-02,19.350000381469727,19.510000228881836,18.8799991607666,19.18000030517578,19.18000030517578,151500
2019-10-03,19.079999923706055,19.450000762939453,18.649999618530273,19.40999984741211,19.40999984741211,129800
2019-10-04,19.5,19.950000762939453,19.34000015258789,19.81999969482422,19.81999969482422,148300
2019-10-07,19.59000015258789,19.850000381469727,19.59000015258789,19.709999084472656,19.709999084472656,99300
2019-10-08,19.450000762939453,19.549999237060547,19.1299991607666,19.350000381469727,19.350000381469727,101100
2019-10-09,19.5,19.950000762939453,19.280000686645508,19.75,19.75,105700
2019-10-10,19.739999771118164,20.079999923706055,19.649999618530273,20.010000228881836,20.010000228881836,108000
2019-10-11,20.280000686645508,20.860000610351562,20.059999465942383,20.299999237060547,20.299999237060547,154500
2019-10-14,20.209999084472656,20.420000076293945,19.760000228881836,20.200000762939453,20.200000762939453,92300
2019-10-15,20.18000030517578,20.5,19.889999389648438,20.360000610351562,20.360000610351562,120800
2019-10-16,20.280000686645508,20.389999389648438,19.850000381469727,19.959999084472656,19.959999084472656,136300
2019-10-17,20.020000457763672,20.139999389648438,19.6299991607666,19.770000457763672,19.770000457763672,93900
2019-10-18,19.6200008392334,19.950000762939453,19.549999237060547,19.6299991607666,19.6299991607666,169400
2019-10-21,19.790000915527344,19.8700008392334,19.579999923706055,19.729999542236328,19.729999542236328,103100
2019-10-22,19.84000015258789,20.309999465942383,19.579999923706055,19.670000076293945,19.670000076293945,96400
2019-10-23,19.610000610351562,20.549999237060547,19.610000610351562,20.049999237060547,20.049999237060547,87300
2019-10-24,20.190000534057617,20.950000762939453,19.75,20.860000610351562,20.860000610351562,133000
2019-10-25,20.709999084472656,20.760000228881836,19.690000534057617,19.760000228881836,19.760000228881836,100800
2019-10-28,20.0,20.950000762939453,19.8700008392334,20.329999923706055,20.329999923706055,95100
2019-10-29,20.3799991607666,21.190000534057617,20.09000015258789,21.040000915527344,21.040000915527344,117000
2019-10-30,21.0,21.100000381469727,20.09000015258789,20.799999237060547,20.799999237060547,140300
2019-10-31,20.8799991607666,21.059999465942383,20.209999084472656,20.450000762939453,20.450000762939453,91700
2019-11-01,20.5,20.68000030517578,20.209999084472656,20.639999389648438,20.639999389648438,80900
2019-11-04,20.84000015258789,21.290000915527344,20.469999313354492,21.09000015258789,21.09000015258789,115200
2019-11-05,21.260000228881836,21.389999389648438,20.770000457763672,20.8700008392334,20.8700008392334,95800
2019-11-06,20.770000457763672,21.190000534057617,20.399999618530273,20.90999984741211,20.90999984741211,78200
2019-11-07,21.010000228881836,21.15999984741211,20.360000610351562,20.540000915527344,20.540000915527344,75700
2019-11-08,20.360000610351562,20.8799991607666,19.829999923706055,20.81999969482422,20.81999969482422,134700
2019-11-11,20.690000534057617,21.260000228881836,20.469999313354492,21.079999923706055,21.079999923706055,68800
2019-11-12,21.100000381469727,21.670000076293945,20.75,21.600000381469727,21.600000381469727,111400
2019-11-13,21.469999313354492,21.93000030517578,21.190000534057617,21.719999313354492,21.719999313354492,115700
2019-11-14,21.709999084472656,22.790000915527344,21.639999389648438,22.389999389648438,22.389999389648438,132600
2019-11-15,22.549999237060547,22.549999237060547,21.899999618530273,22.079999923706055,22.079999923706055,102400
2019-11-18,22.100000381469727,22.219999313354492,21.34000015258789,21.75,21.75,269400
2019-11-19,21.809999465942383,22.979999542236328,21.649999618530273,22.790000915527344,22.790000915527344,106700
2019-11-20,22.579999923706055,23.489999771118164,22.440000534057617,22.809999465942383,22.809999465942383,157600
2019-11-21,22.8700008392334,23.280000686645508,22.030000686645508,22.299999237060547,22.299999237060547,141900
2019-11-22,25.350000381469727,26.329999923706055,23.549999237060547,26.1299991607666,26.1299991607666,368200
2019-11-25,26.020000457763672,27.81999969482422,26.020000457763672,27.0,27.0,447500
2019-11-26,26.93000030517578,27.59000015258789,26.40999984741211,26.90999984741211,26.90999984741211,149900
2019-11-27,26.959999084472656,27.360000610351562,26.3700008392334,26.950000762939453,26.950000762939453,159300
2019-11-29,26.969999313354492,27.489999771118164,26.760000228881836,27.31999969482422,27.31999969482422,112000
2019-12-02,27.329999923706055,27.350000381469727,26.510000228881836,27.209999084472656,27.209999084472656,141300
2019-12-03,26.8799991607666,27.559999465942383,26.729999542236328,27.510000228881836,27.510000228881836,161200
2019-12-04,27.479999542236328,28.25,27.25,28.110000610351562,28.110000610351562,128700
2019-12-05,28.059999465942383,28.3799991607666,27.940000534057617,28.18000030517578,28.18000030517578,118500
2019-12-06,28.399999618530273,28.579999923706055,28.15999984741211,28.239999771118164,28.239999771118164,145600
2019-12-09,28.239999771118164,28.239999771118164,27.34000015258789,28.09000015258789,28.09000015258789,128100
2019-12-10,27.93000030517578,28.100000381469727,27.299999237060547,27.56999969482422,27.56999969482422,120400
2019-12-11,27.790000915527344,28.280000686645508,27.270000457763672,28.0,28.0,85400
2019-12-12,28.0,28.329999923706055,27.40999984741211,27.969999313354492,27.969999313354492,88200
2019-12-13,27.780000686645508,28.75,27.780000686645508,28.489999771118164,28.489999771118164,129500
2019-12-16,28.520000457763672,28.860000610351562,28.1299991607666,28.479999542236328,28.479999542236328,125700
2019-12-17,28.299999237060547,28.850000381469727,28.209999084472656,28.65999984741211,28.65999984741211,248700
2019-12-18,28.719999313354492,29.030000686645508,28.450000762939453,28.950000762939453,28.950000762939453,138300
2019-12-19,28.8700008392334,29.1200008392334,28.350000381469727,29.059999465942383,29.059999465942383,119600
2019-12-20,29.030000686645508,29.479999542236328,28.93000030517578,29.360000610351562,29.360000610351562,262700
2019-12-23,29.329999923706055,29.329999923706055,28.260000228881836,28.399999618530273,28.399999618530273,113300
2019-12-24,28.3700008392334,28.5,27.459999084472656,28.030000686645508,28.030000686645508,72300
2019-12-26,27.950000762939453,28.610000610351562,27.809999465942383,28.43000030517578,28.43000030517578,84200
2019-12-27,28.540000915527344,28.579999923706055,27.889999389648438,28.299999237060547,28.299999237060547,56500
2019-12-30,28.170000076293945,28.170000076293945,27.0,27.299999237060547,27.299999237060547,260200
2019-12-31,27.270000457763672,28.510000228881836,27.260000228881836,28.25,28.25,184900
2020-01-02,28.40999984741211,29.68000030517578,28.229999542236328,29.309999465942383,29.309999465942383,110100
2020-01-03,28.889999389648438,29.469999313354492,28.549999237060547,28.979999542236328,28.979999542236328,115500
2020-01-06,28.950000762939453,29.34000015258789,28.459999084472656,29.239999771118164,29.239999771118164,66000
2020-01-07,29.1299991607666,29.510000228881836,28.809999465942383,29.1299991607666,29.1299991607666,76900
2020-01-08,29.260000228881836,29.809999465942383,29.1299991607666,29.299999237060547,29.299999237060547,123800
2020-01-09,29.549999237060547,30.700000762939453,29.399999618530273,30.020000457763672,30.020000457763672,209500
2020-01-10,30.09000015258789,30.31999969482422,29.75,30.09000015258789,30.09000015258789,107500
2020-01-13,30.1299991607666,30.799999237060547,30.1299991607666,30.690000534057617,30.690000534057617,86900
2020-01-14,30.639999389648438,31.040000915527344,30.299999237060547,30.799999237060547,30.799999237060547,193500
2020-01-15,30.799999237060547,31.459999084472656,30.780000686645508,31.0,31.0,123200
2020-01-16,31.200000762939453,31.459999084472656,31.0,31.399999618530273,31.399999618530273,152400
2020-01-17,31.68000030517578,31.90999984741211,31.280000686645508,31.799999237060547,31.799999237060547,98800
2020-01-21,31.530000686645508,32.29999923706055,31.530000686645508,32.209999084472656,32.209999084472656,96300
2020-01-22,32.34000015258789,33.06999969482422,32.33000183105469,33.06999969482422,33.06999969482422,197500
2020-01-23,32.810001373291016,34.189998626708984,32.63999938964844,33.47999954223633,33.47999954223633,138600
2020-01-24,33.650001525878906,33.88999938964844,31.219999313354492,32.16999816894531,32.16999816894531,134000
2020-01-27,31.309999465942383,31.829999923706055,30.860000610351562,31.479999542236328,31.479999542236328,75400
2020-01-28,31.6200008392334,32.7400016784668,31.489999771118164,32.189998626708984,32.189998626708984,71700
2020-01-29,32.43000030517578,32.689998626708984,32.0099983215332,32.20000076293945,32.20000076293945,76700
2020-01-30,32.13999938964844,32.970001220703125,32.0,32.38999938964844,32.38999938964844,85100
2020-01-31,32.22999954223633,32.880001068115234,31.899999618530273,32.290000915527344,32.290000915527344,128100
2020-02-03,32.33000183105469,33.75,32.33000183105469,33.5099983215332,33.5099983215332,156300
2020-02-04,33.959999084472656,34.939998626708984,33.709999084472656,34.779998779296875,34.779998779296875,81000
2020-02-05,34.81999969482422,35.119998931884766,34.41999816894531,34.97999954223633,34.97999954223633,184000
2020-02-06,35.099998474121094,35.650001525878906,34.709999084472656,35.599998474121094,35.599998474121094,161700
2020-02-07,35.56999969482422,36.5,35.43000030517578,36.27000045776367,36.27000045776367,118000
2020-02-10,36.439998626708984,37.849998474121094,35.36000061035156,36.150001525878906,36.150001525878906,169100
2020-02-11,34.59000015258789,35.88999938964844,30.770000457763672,35.209999084472656,35.209999084472656,344500
2020-02-12,34.150001525878906,34.150001525878906,30.510000228881836,31.440000534057617,31.440000534057617,1247400
2020-02-13,31.219999313354492,33.0099983215332,30.75,32.25,32.25,1241900
2020-02-14,32.400001525878906,32.63999938964844,31.809999465942383,31.8700008392334,31.8700008392334,167100
2020-02-18,31.8700008392334,32.45000076293945,31.700000762939453,31.899999618530273,31.899999618530273,116400
2020-02-19,31.969999313354492,33.119998931884766,31.75,32.720001220703125,32.720001220703125,224500
2020-02-20,32.70000076293945,33.56999969482422,32.400001525878906,32.88999938964844,32.88999938964844,142400
2020-02-21,32.88999938964844,32.95000076293945,30.90999984741211,31.549999237060547,31.549999237060547,173200
2020-02-24,30.34000015258789,31.8700008392334,30.15999984741211,31.450000762939453,31.450000762939453,165400
2020-02-25,31.700000762939453,31.700000762939453,30.18000030517578,30.770000457763672,30.770000457763672,102700
2020-02-26,31.020000457763672,31.540000915527344,30.31999969482422,30.5,30.5,115600
2020-02-27,29.81999969482422,30.299999237060547,28.15999984741211,28.3700008392334,28.3700008392334,200900
2020-02-28,29.709999084472656,30.0,28.260000228881836,28.979999542236328,28.979999542236328,333800
2020-03-02,29.229999542236328,29.889999389648438,28.399999618530273,29.049999237060547,29.049999237060547,127100
2020-03-03,29.040000915527344,29.559999465942383,27.959999084472656,28.5,28.5,244400
2020-03-04,28.93000030517578,29.0,27.5,28.610000610351562,28.610000610351562,136300
2020-03-05,27.950000762939453,28.399999618530273,26.670000076293945,26.829999923706055,26.829999923706055,116900
2020-03-06,26.0,26.34000015258789,25.639999389648438,26.149999618530273,26.149999618530273,394400
2020-03-09,24.700000762939453,25.559999465942383,24.010000228881836,25.209999084472656,25.209999084472656,236600
2020-03-10,26.0,26.56999969482422,25.440000534057617,25.8700008392334,25.8700008392334,253400
2020-03-11,25.719999313354492,26.100000381469727,24.68000030517578,25.229999542236328,25.229999542236328,344700
2020-03-12,23.68000030517578,23.68000030517578,21.860000610351562,22.360000610351562,22.360000610351562,353500
2020-03-13,23.280000686645508,25.309999465942383,22.219999313354492,24.899999618530273,24.899999618530273,293000
2020-03-16,22.899999618530273,22.989999771118164,20.350000381469727,20.6200008392334,20.6200008392334,318100
2020-03-17,20.90999984741211,21.530000686645508,19.889999389648438,20.760000228881836,20.760000228881836,280700
2020-03-18,19.479999542236328,20.43000030517578,14.039999961853027,14.050000190734863,14.050000190734863,285800
2020-03-19,14.0,14.949999809265137,13.010000228881836,14.779999732971191,14.779999732971191,638000
2020-03-20,14.869999885559082,15.890000343322754,13.09000015258789,14.479999542236328,14.479999542236328,302600
2020-03-23,14.890000343322754,15.850000381469727,13.510000228881836,14.0,14.0,373400
2020-03-24,15.050000190734863,16.31999969482422,14.039999961853027,14.510000228881836,14.510000228881836,568000
2020-03-25,14.449999809265137,16.84000015258789,14.050000190734863,16.510000228881836,16.510000228881836,290700
2020-03-26,16.540000915527344,20.1299991607666,16.540000915527344,18.899999618530273,18.899999618530273,363700
2020-03-27,17.959999084472656,20.8799991607666,17.100000381469727,19.829999923706055,19.829999923706055,351600
2020-03-30,20.020000457763672,20.940000534057617,18.579999923706055,20.549999237060547,20.549999237060547,330800
2020-03-31,20.329999923706055,21.139999389648438,18.389999389648438,19.09000015258789,19.09000015258789,364500
2020-04-01,18.170000076293945,18.799999237060547,17.040000915527344,17.40999984741211,17.40999984741211,295300
2020-04-02,17.200000762939453,18.489999771118164,16.68000030517578,18.110000610351562,18.110000610351562,373200
2020-04-03,18.1200008392334,18.18000030517578,16.829999923706055,16.950000762939453,16.950000762939453,170300
2020-04-06,17.610000610351562,19.440000534057617,17.510000228881836,19.229999542236328,19.229999542236328,154300
2020-04-07,19.889999389648438,20.299999237060547,19.450000762939453,19.989999771118164,19.989999771118164,281000
2020-04-08,20.209999084472656,20.829999923706055,19.209999084472656,20.59000015258789,20.59000015258789,224200
2020-04-09,20.8799991607666,22.479999542236328,20.40999984741211,21.360000610351562,21.360000610351562,225400
2020-04-13,21.18000030517578,21.260000228881836,19.139999389648438,19.260000228881836,19.260000228881836,109900
2020-04-14,19.75,20.170000076293945,19.06999969482422,19.440000534057617,19.440000534057617,63000
2020-04-15,18.75,19.700000762939453,18.360000610351562,19.059999465942383,19.059999465942383,219100
2020-04-16,19.219999313354492,19.239999771118164,18.639999389648438,19.0,19.0,156000
2020-04-17,19.6299991607666,20.450000762939453,19.420000076293945,19.850000381469727,19.850000381469727,207200
2020-04-20,19.5,20.399999618530273,18.579999923706055,19.770000457763672,19.770000457763672,215400
2020-04-21,19.25,19.639999389648438,18.299999237060547,19.0,19.0,197500
2020-04-22,19.34000015258789,20.020000457763672,19.239999771118164,19.920000076293945,19.920000076293945,91800
2020-04-23,19.920000076293945,20.690000534057617,19.729999542236328,19.979999542236328,19.979999542236328,149900
2020-04-24,20.09000015258789,21.0,19.81999969482422,20.850000381469727,20.850000381469727,177600
2020-04-27,21.209999084472656,22.3799991607666,20.860000610351562,22.149999618530273,22.149999618530273,105500
2020-04-28,22.600000381469727,23.459999084472656,22.139999389648438,22.93000030517578,22.93000030517578,159500
2020-04-29,23.600000381469727,25.06999969482422,23.270000457763672,24.950000762939453,24.950000762939453,183900
2020-04-30,25.1200008392334,25.1200008392334,23.020000457763672,23.239999771118164,23.239999771118164,182800
2020-05-01,22.6299991607666,23.459999084472656,21.729999542236328,23.06999969482422,23.06999969482422,174400
2020-05-04,23.25,23.25,21.329999923706055,21.719999313354492,21.719999313354492,178300
2020-05-05,22.8799991607666,24.299999237060547,21.350000381469727,22.940000534057617,22.940000534057617,267500
2020-05-06,22.940000534057617,23.579999923706055,22.010000228881836,22.579999923706055,22.579999923706055,236700
2020-05-07,23.389999389648438,24.0,22.510000228881836,23.25,23.25,343300
2020-05-08,24.170000076293945,24.969999313354492,22.65999984741211,24.729999542236328,24.729999542236328,415100
2020-05-11,22.770000457763672,26.280000686645508,22.260000228881836,25.719999313354492,25.719999313354492,272400
2020-05-12,25.979999542236328,26.0,24.889999389648438,25.0,25.0,248700
2020-05-13,24.920000076293945,25.829999923706055,24.65999984741211,25.0,25.0,346800
2020-05-14,25.0,25.079999923706055,24.299999237060547,24.770000457763672,24.770000457763672,209400
2020-05-15,24.520000457763672,25.969999313354492,24.43000030517578,25.809999465942383,25.809999465942383,136700
2020-05-18,26.6200008392334,28.5,26.360000610351562,27.709999084472656,27.709999084472656,118900
2020-05-19,27.65999984741211,29.260000228881836,26.329999923706055,28.850000381469727,28.850000381469727,220900
2020-05-20,29.280000686645508,30.260000228881836,27.93000030517578,28.350000381469727,28.350000381469727,225900
2020-05-21,28.31999969482422,28.889999389648438,27.010000228881836,27.360000610351562,27.360000610351562,114900
2020-05-22,27.420000076293945,28.06999969482422,27.15999984741211,27.6200008392334,27.6200008392334,83800
2020-05-26,28.709999084472656,28.739999771118164,27.860000610351562,28.399999618530273,28.399999618530273,70100
2020-05-27,28.700000762939453,29.649999618530273,27.190000534057617,29.520000457763672,29.520000457763672,106400
2020-05-28,29.899999618530273,29.899999618530273,28.06999969482422,28.8799991607666,28.8799991607666,108100
2020-05-29,28.719999313354492,29.200000762939453,28.15999984741211,28.860000610351562,28.860000610351562,69700
2020-06-01,29.049999237060547,30.229999542236328,27.93000030517578,29.040000915527344,29.040000915527344,282600
2020-06-02,29.34000015258789,30.479999542236328,29.079999923706055,29.920000076293945,29.920000076293945,102200
2020-06-03,30.360000610351562,30.459999084472656,28.8799991607666,29.25,29.25,149100
2020-06-04,28.950000762939453,29.959999084472656,28.6200008392334,29.260000228881836,29.260000228881836,88800
2020-06-05,30.0,31.329999923706055,29.690000534057617,30.90999984741211,30.90999984741211,221500
2020-06-08,30.690000534057617,32.099998474121094,30.690000534057617,31.670000076293945,31.670000076293945,100500
2020-06-09,31.299999237060547,32.0,30.81999969482422,31.489999771118164,31.489999771118164,70300
2020-06-10,31.360000610351562,31.790000915527344,30.440000534057617,31.09000015258789,31.09000015258789,66600
2020-06-11,30.100000381469727,30.260000228881836,28.0,28.030000686645508,28.030000686645508,143000
2020-06-12,28.75,29.25,27.139999389648438,28.09000015258789,28.09000015258789,106600
2020-06-15,27.270000457763672,29.639999389648438,27.270000457763672,28.899999618530273,28.899999618530273,79600
2020-06-16,30.0,30.59000015258789,29.25,30.3700008392334,30.3700008392334,93500
2020-06-17,30.389999389648438,30.639999389648438,29.75,30.260000228881836,30.260000228881836,116200
2020-06-18,27.389999389648438,30.229999542236328,27.389999389648438,29.6299991607666,29.6299991607666,222600
2020-06-19,30.649999618530273,30.729999542236328,29.729999542236328,30.06999969482422,30.06999969482422,235900
2020-06-22,30.06999969482422,30.3700008392334,29.350000381469727,29.690000534057617,29.690000534057617,114600
2020-06-23,29.790000915527344,30.719999313354492,29.450000762939453,30.600000381469727,30.600000381469727,196000
2020-06-24,29.979999542236328,30.739999771118164,28.239999771118164,28.5,28.5,90000
2020-06-25,28.100000381469727,30.489999771118164,28.100000381469727,30.399999618530273,30.399999618530273,197500
2020-06-26,30.100000381469727,30.610000610351562,29.260000228881836,29.360000610351562,29.360000610351562,259900
2020-06-29,29.68000030517578,30.540000915527344,28.700000762939453,29.8799991607666,29.8799991607666,123800
2020-06-30,29.81999969482422,30.31999969482422,29.56999969482422,30.25,30.25,119400
2020-07-01,29.790000915527344,30.610000610351562,29.600000381469727,29.989999771118164,29.989999771118164,102300
2020-07-02,30.219999313354492,30.43000030517578,29.309999465942383,29.59000015258789,29.59000015258789,168700
2020-07-06,30.0,32.9900016784668,29.399999618530273,29.969999313354492,29.969999313354492,483800
2020-07-07,29.809999465942383,29.81999969482422,27.15999984741211,28.459999084472656,28.459999084472656,262600
2020-07-08,28.559999465942383,28.790000915527344,27.809999465942383,28.270000457763672,28.270000457763672,90600
2020-07-09,28.280000686645508,28.530000686645508,26.950000762939453,27.209999084472656,27.209999084472656,80400
2020-07-10,27.059999465942383,27.899999618530273,26.799999237060547,27.3700008392334,27.3700008392334,91500
2020-07-13,27.540000915527344,28.049999237060547,26.719999313354492,26.790000915527344,26.790000915527344,90400
2020-07-14,26.670000076293945,27.440000534057617,26.649999618530273,27.360000610351562,27.360000610351562,58100
2020-07-15,27.969999313354492,28.850000381469727,27.90999984741211,28.540000915527344,28.540000915527344,88600
2020-07-16,28.31999969482422,28.399999618530273,27.510000228881836,27.65999984741211,27.65999984741211,61100
2020-07-17,27.59000015258789,27.760000228881836,26.84000015258789,27.510000228881836,27.510000228881836,110700
2020-07-20,27.420000076293945,28.510000228881836,27.25,28.40999984741211,28.40999984741211,49300
2020-07-21,28.780000686645508,28.969999313354492,28.139999389648438,28.25,28.25,105200
2020-07-22,28.170000076293945,28.719999313354492,28.170000076293945,28.219999313354492,28.219999313354492,39400
2020-07-23,28.010000228881836,28.299999237060547,27.010000228881836,27.440000534057617,27.440000534057617,71900
2020-07-24,27.270000457763672,27.559999465942383,26.489999771118164,26.709999084472656,26.709999084472656,97800
2020-07-27,26.770000457763672,27.1200008392334,26.329999923706055,26.709999084472656,26.709999084472656,62900
2020-07-28,26.790000915527344,26.920000076293945,26.450000762939453,26.639999389648438,26.639999389648438,41200
2020-07-29,26.6200008392334,27.09000015258789,26.309999465942383,26.350000381469727,26.350000381469727,132400
2020-07-30,26.010000228881836,26.25,25.479999542236328,25.510000228881836,25.510000228881836,244700
2020-07-31,25.579999923706055,25.860000610351562,22.899999618530273,24.18000030517578,24.18000030517578,344700
2020-08-03,24.25,25.040000915527344,23.899999618530273,24.469999313354492,24.469999313354492,165300
2020-08-04,24.260000228881836,25.200000762939453,23.809999465942383,24.90999984741211,24.90999984741211,196500
2020-08-05,24.989999771118164,26.139999389648438,24.989999771118164,25.690000534057617,25.690000534057617,105600
2020-08-06,25.399999618530273,26.34000015258789,25.31999969482422,25.84000015258789,25.84000015258789,132500
2020-08-07,25.829999923706055,26.540000915527344,25.09000015258789,26.030000686645508,26.030000686645508,111100
2020-08-10,26.299999237060547,26.5,24.889999389648438,25.049999237060547,25.049999237060547,137600
2020-08-11,29.969999313354492,29.969999313354492,26.979999542236328,28.860000610351562,28.860000610351562,301900
2020-08-12,29.549999237060547,29.549999237060547,27.829999923706055,28.209999084472656,28.209999084472656,138900
2020-08-13,27.799999237060547,28.729999542236328,27.799999237060547,28.5,28.5,139900
2020-08-14,28.329999923706055,28.84000015258789,28.100000381469727,28.75,28.75,81800
2020-08-17,29.030000686645508,29.450000762939453,28.579999923706055,28.84000015258789,28.84000015258789,55500
2020-08-18,28.969999313354492,28.969999313354492,28.31999969482422,28.530000686645508,28.530000686645508,53900
2020-08-19,28.610000610351562,29.350000381469727,27.860000610351562,28.559999465942383,28.559999465942383,73600
2020-08-20,28.309999465942383,29.06999969482422,28.309999465942383,28.729999542236328,28.729999542236328,182500
2020-08-21,28.360000610351562,28.709999084472656,27.889999389648438,28.510000228881836,28.510000228881836,171000
2020-08-24,28.649999618530273,28.729999542236328,27.989999771118164,28.489999771118164,28.489999771118164,171200
2020-08-25,28.31999969482422,30.170000076293945,28.260000228881836,29.219999313354492,29.219999313354492,294600
2020-08-26,29.079999923706055,29.110000610351562,27.93000030517578,28.700000762939453,28.700000762939453,164000
2020-08-27,28.799999237060547,29.360000610351562,27.770000457763672,28.040000915527344,28.040000915527344,116600
2020-08-28,28.09000015258789,28.420000076293945,27.40999984741211,28.079999923706055,28.079999923706055,98000
2020-08-31,27.959999084472656,28.860000610351562,27.850000381469727,27.889999389648438,27.889999389648438,110700
2020-09-01,27.790000915527344,28.649999618530273,27.520000457763672,28.280000686645508,28.280000686645508,81700
2020-09-02,28.510000228881836,28.510000228881836,27.690000534057617,28.209999084472656,28.209999084472656,91800
2020-09-03,28.209999084472656,28.209999084472656,27.100000381469727,27.280000686645508,27.280000686645508,137800
2020-09-04,27.6299991607666,27.6299991607666,25.950000762939453,26.350000381469727,26.350000381469727,74900
2020-09-08,25.90999984741211,26.959999084472656,25.700000762939453,26.360000610351562,26.360000610351562,121200
2020-09-09,26.6299991607666,27.149999618530273,26.40999984741211,26.850000381469727,26.850000381469727,89700
2020-09-10,25.8799991607666,26.079999923706055,24.5,25.43000030517578,25.43000030517578,413800
2020-09-11,24.479999542236328,24.639999389648438,23.030000686645508,23.899999618530273,23.899999618530273,1510700
2020-09-14,24.1299991607666,24.81999969482422,23.579999923706055,24.280000686645508,24.280000686645508,375300
2020-09-15,24.670000076293945,24.8700008392334,23.760000228881836,24.399999618530273,24.399999618530273,205100
2020-09-16,24.260000228881836,24.610000610351562,23.799999237060547,23.81999969482422,23.81999969482422,409800
2020-09-17,23.5,23.760000228881836,23.020000457763672,23.209999084472656,23.209999084472656,137100
2020-09-18,23.43000030517578,23.43000030517578,22.770000457763672,22.809999465942383,22.809999465942383,346500
2020-09-21,22.31999969482422,24.0,22.15999984741211,23.559999465942383,23.559999465942383,273300
2020-09-22,23.739999771118164,23.739999771118164,22.489999771118164,23.010000228881836,23.010000228881836,258200
2020-09-23,24.020000457763672,25.8799991607666,23.950000762939453,25.0,25.0,475300
2020-09-24,24.969999313354492,25.18000030517578,24.0,24.309999465942383,24.309999465942383,324700
2020-09-25,24.209999084472656,25.06999969482422,24.200000762939453,24.8700008392334,24.8700008392334,167800
2020-09-28,25.1200008392334,25.450000762939453,24.81999969482422,25.190000534057617,25.190000534057617,141600
2020-09-29,24.8799991607666,25.459999084472656,24.850000381469727,25.030000686645508,25.030000686645508,230900
2020-09-30,25.100000381469727,25.90999984741211,24.799999237060547,25.25,25.25,222100
2020-10-01,25.170000076293945,25.989999771118164,24.979999542236328,25.760000228881836,25.760000228881836,212700
2020-10-02,25.239999771118164,25.649999618530273,24.010000228881836,25.43000030517578,25.43000030517578,89500
2020-10-05,25.59000015258789,25.709999084472656,25.079999923706055,25.56999969482422,25.56999969482422,153700
2020-10-06,25.770000457763672,26.8799991607666,25.479999542236328,25.799999237060547,25.799999237060547,145100
2020-10-07,26.06999969482422,26.440000534057617,25.739999771118164,26.229999542236328,26.229999542236328,92200
2020-10-08,26.479999542236328,26.5,25.40999984741211,25.8799991607666,25.8799991607666,144100
2020-10-09,26.040000915527344,26.18000030517578,25.280000686645508,25.809999465942383,25.809999465942383,110100
2020-10-12,25.770000457763672,26.489999771118164,25.729999542236328,26.170000076293945,26.170000076293945,72800
2020-10-13,27.15999984741211,27.360000610351562,26.18000030517578,26.299999237060547,26.299999237060547,232200
2020-10-14,26.200000762939453,27.030000686645508,25.239999771118164,25.549999237060547,25.549999237060547,166800
2020-10-15,25.049999237060547,25.399999618530273,24.65999984741211,24.81999969482422,24.81999969482422,100700
2020-10-16,24.690000534057617,25.479999542236328,24.68000030517578,25.020000457763672,25.020000457763672,130100
2020-10-19,25.43000030517578,25.639999389648438,24.809999465942383,25.100000381469727,25.100000381469727,84800
2020-10-20,25.25,25.579999923706055,24.700000762939453,24.790000915527344,24.790000915527344,76200
2020-10-21,24.700000762939453,25.1299991607666,24.5,24.719999313354492,24.719999313354492,81700
2020-10-22,24.940000534057617,25.0,24.389999389648438,24.93000030517578,24.93000030517578,67100
2020-10-23,25.059999465942383,25.649999618530273,24.700000762939453,25.43000030517578,25.43000030517578,333300
2020-10-26,25.489999771118164,25.489999771118164,23.469999313354492,23.530000686645508,23.530000686645508,112100
2020-10-27,23.469999313354492,23.770000457763672,23.0,23.06999969482422,23.06999969482422,107100
2020-10-28,22.59000015258789,22.889999389648438,21.43000030517578,21.450000762939453,21.450000762939453,338400
2020-10-29,21.280000686645508,21.799999237060547,20.979999542236328,21.209999084472656,21.209999084472656,260000
2020-10-30,21.229999542236328,21.489999771118164,20.25,20.6299991607666,20.6299991607666,274300
2020-11-02,20.850000381469727,21.5,20.850000381469727,21.049999237060547,21.049999237060547,117200
2020-11-03,21.3700008392334,22.049999237060547,21.299999237060547,21.93000030517578,21.93000030517578,201500
2020-11-04,21.989999771118164,23.389999389648438,21.690000534057617,23.239999771118164,23.239999771118164,124400
2020-11-05,23.510000228881836,23.93000030517578,22.540000915527344,22.860000610351562,22.860000610351562,260400
2020-11-06,22.920000076293945,23.670000076293945,22.200000762939453,23.040000915527344,23.040000915527344,142900
2020-11-09,23.690000534057617,24.989999771118164,23.690000534057617,24.600000381469727,24.600000381469727,158900
2020-11-10,24.68000030517578,25.3799991607666,24.010000228881836,25.049999237060547,25.049999237060547,170700
2020-11-11,25.100000381469727,25.280000686645508,23.6299991607666,24.579999923706055,24.579999923706055,107700
2020-11-12,24.31999969482422,24.540000915527344,23.43000030517578,23.65999984741211,23.65999984741211,163100
2020-11-13,23.90999984741211,25.170000076293945,23.90999984741211,24.899999618530273,24.899999618530273,240000
2020-11-16,25.3700008392334,25.510000228881836,24.190000534057617,24.860000610351562,24.860000610351562,154300
2020-11-17,24.520000457763672,25.670000076293945,24.170000076293945,25.309999465942383,25.309999465942383,162300
2020-11-18,25.34000015258789,25.860000610351562,24.65999984741211,24.790000915527344,24.790000915527344,197400
2020-11-19,24.770000457763672,25.43000030517578,24.510000228881836,24.600000381469727,24.600000381469727,398000
2020-11-20,24.270000457763672,26.420000076293945,23.920000076293945,24.799999237060547,24.799999237060547,635400
2020-11-23,25.059999465942383,26.479999542236328,25.059999465942383,26.299999237060547,26.299999237060547,331900
2020-11-24,26.530000686645508,28.459999084472656,26.40999984741211,27.649999618530273,27.649999618530273,274900
2020-11-25,28.040000915527344,28.040000915527344,26.950000762939453,27.5,27.5,336600
2020-11-27,27.860000610351562,28.110000610351562,27.450000762939453,27.8799991607666,27.8799991607666,58300
2020-11-30,27.809999465942383,28.469999313354492,27.170000076293945,27.899999618530273,27.899999618530273,229600
2020-12-01,28.280000686645508,28.93000030517578,27.520000457763672,27.760000228881836,27.760000228881836,159500
2020-12-02,27.469999313354492,28.1200008392334,26.90999984741211,27.940000534057617,27.940000534057617,213700
2020-12-03,28.030000686645508,28.579999923706055,27.639999389648438,27.899999618530273,27.899999618530273,79900
2020-12-04,28.329999923706055,30.549999237060547,28.329999923706055,29.65999984741211,29.65999984741211,259900
2020-12-07,29.469999313354492,30.540000915527344,28.459999084472656,28.969999313354492,28.969999313354492,200100
2020-12-08,28.610000610351562,29.360000610351562,28.43000030517578,28.899999618530273,28.899999618530273,163100
2020-12-09,29.09000015258789,30.219999313354492,28.920000076293945,29.18000030517578,29.18000030517578,108100
2020-12-10,28.920000076293945,29.75,28.920000076293945,29.43000030517578,29.43000030517578,100500
2020-12-11,28.600000381469727,29.940000534057617,28.030000686645508,29.700000762939453,29.700000762939453,225700
2020-12-14,30.0,30.25,28.139999389648438,28.3700008392334,28.3700008392334,202500
2020-12-15,28.889999389648438,29.770000457763672,28.610000610351562,29.59000015258789,29.59000015258789,195800
2020-12-16,30.350000381469727,31.260000228881836,30.170000076293945,30.68000030517578,30.68000030517578,261800
2020-12-17,30.959999084472656,31.600000381469727,30.709999084472656,31.43000030517578,31.43000030517578,288500
2020-12-18,31.579999923706055,32.79999923706055,31.399999618530273,32.529998779296875,32.529998779296875,1119700
2020-12-21,32.0,32.81999969482422,31.709999084472656,32.77000045776367,32.77000045776367,257400
2020-12-22,32.95000076293945,33.2400016784668,32.33000183105469,32.810001373291016,32.810001373291016,166600
2020-12-23,33.04999923706055,33.15999984741211,32.11000061035156,32.810001373291016,32.810001373291016,176000
2020-12-24,32.77000045776367,32.91999816894531,32.369998931884766,32.849998474121094,32.849998474121094,68700
2020-12-28,33.20000076293945,33.4900016784668,32.790000915527344,33.08000183105469,33.08000183105469,176200
2020-12-29,33.2599983215332,33.2599983215332,32.279998779296875,32.54999923706055,32.54999923706055,149100
2020-12-30,32.7400016784668,33.40999984741211,32.5099983215332,33.369998931884766,33.369998931884766,86700
