Date,Open,High,Low,Close,Adj Close,Volume
2020-12-23,10.670000076293945,11.800000190734863,9.3100004196167,9.899999618530273,9.899999618530273,4494800
2020-12-24,10.100000381469727,11.199999809265137,9.5,9.800000190734863,9.800000190734863,1845300
2020-12-28,9.550000190734863,9.880000114440918,8.609999656677246,9.34000015258789,9.34000015258789,615600
2020-12-29,9.100000381469727,9.300000190734863,7.289999961853027,7.599999904632568,7.599999904632568,665800
2020-12-30,7.679999828338623,8.161999702453613,7.159999847412109,7.159999847412109,7.159999847412109,718400
