Date,Open,High,Low,Close,Adj Close,Volume
2017-03-27,9.699999809265137,9.699999809265137,9.699999809265137,9.699999809265137,9.699999809265137,400
2017-03-28,9.75,9.75,9.699999809265137,9.75,9.75,24900
2017-03-29,9.75,9.75,9.75,9.75,9.75,0
2017-03-30,9.789999961853027,9.789999961853027,9.789999961853027,9.789999961853027,9.789999961853027,500
2017-03-31,11.75,11.75,9.829999923706055,9.850000381469727,9.850000381469727,1600
2017-04-03,9.850000381469727,9.850000381469727,9.850000381469727,9.850000381469727,9.850000381469727,0
2017-04-04,9.850000381469727,9.850000381469727,9.850000381469727,9.850000381469727,9.850000381469727,0
2017-04-05,9.850000381469727,9.850000381469727,9.850000381469727,9.850000381469727,9.850000381469727,300
2017-04-06,9.850000381469727,9.850000381469727,9.850000381469727,9.850000381469727,9.850000381469727,0
2017-04-07,9.850000381469727,9.850000381469727,9.800000190734863,9.800000190734863,9.800000190734863,500
2017-04-10,9.800000190734863,9.800000190734863,9.800000190734863,9.800000190734863,9.800000190734863,0
2017-04-11,9.800000190734863,9.800000190734863,9.800000190734863,9.800000190734863,9.800000190734863,0
2017-04-12,9.800000190734863,9.800000190734863,9.800000190734863,9.800000190734863,9.800000190734863,0
2017-04-13,9.800000190734863,9.800000190734863,9.800000190734863,9.800000190734863,9.800000190734863,0
2017-04-17,9.800000190734863,9.800000190734863,9.800000190734863,9.800000190734863,9.800000190734863,0
2017-04-18,9.850000381469727,9.949999809265137,9.850000381469727,9.949999809265137,9.949999809265137,25200
2017-04-19,9.949999809265137,9.949999809265137,9.949999809265137,9.949999809265137,9.949999809265137,0
2017-04-20,9.895000457763672,9.895000457763672,9.895000457763672,9.895000457763672,9.895000457763672,200
2017-04-21,9.895000457763672,9.895000457763672,9.895000457763672,9.895000457763672,9.895000457763672,0
2017-04-24,9.850000381469727,9.850000381469727,9.850000381469727,9.850000381469727,9.850000381469727,700
2017-04-25,9.850000381469727,9.850000381469727,9.829999923706055,9.850000381469727,9.850000381469727,30300
2017-04-26,9.850000381469727,9.850000381469727,9.850000381469727,9.850000381469727,9.850000381469727,0
2017-04-27,9.84000015258789,9.84000015258789,9.84000015258789,9.84000015258789,9.84000015258789,200
2017-04-28,9.84000015258789,9.84000015258789,9.84000015258789,9.84000015258789,9.84000015258789,0
2017-05-01,9.800000190734863,9.800000190734863,9.800000190734863,9.800000190734863,9.800000190734863,137500
2017-05-02,9.72700023651123,9.72700023651123,9.72700023651123,9.72700023651123,9.72700023651123,200
2017-05-03,9.72700023651123,9.72700023651123,9.72700023651123,9.72700023651123,9.72700023651123,0
2017-05-04,9.72700023651123,9.72700023651123,9.72700023651123,9.72700023651123,9.72700023651123,0
2017-05-05,9.770000457763672,9.770000457763672,9.770000457763672,9.770000457763672,9.770000457763672,200
2017-05-08,9.75,9.800000190734863,9.75,9.770000457763672,9.770000457763672,27300
2017-05-09,9.770000457763672,9.770000457763672,9.770000457763672,9.770000457763672,9.770000457763672,0
2017-05-10,9.770000457763672,9.770000457763672,9.770000457763672,9.770000457763672,9.770000457763672,0
2017-05-11,9.770000457763672,9.770000457763672,9.770000457763672,9.770000457763672,9.770000457763672,0
2017-05-12,9.779999732971191,9.779999732971191,9.75,9.75,9.75,1200
2017-05-15,9.75,9.75,9.75,9.75,9.75,0
2017-05-16,9.760000228881836,9.760000228881836,9.75,9.75,9.75,1000500
2017-05-17,9.75,9.75,9.75,9.75,9.75,0
2017-05-18,9.75,9.75,9.75,9.75,9.75,0
2017-05-19,9.75,9.75,9.75,9.75,9.75,0
2017-05-22,9.75,9.75,9.75,9.75,9.75,0
2017-05-23,9.75,9.75,9.75,9.75,9.75,0
2017-05-24,9.75,9.75,9.75,9.75,9.75,0
2017-05-25,9.75,9.75,9.75,9.75,9.75,0
2017-05-26,9.75,9.75,9.75,9.75,9.75,0
2017-05-30,9.760000228881836,9.859999656677246,9.75,9.850000381469727,9.850000381469727,3700
2017-05-31,9.850000381469727,9.850000381469727,9.850000381469727,9.850000381469727,9.850000381469727,100
2017-06-01,9.859999656677246,9.859999656677246,9.850000381469727,9.850000381469727,9.850000381469727,125800
2017-06-02,9.850000381469727,9.850000381469727,9.850000381469727,9.850000381469727,9.850000381469727,0
2017-06-05,9.8100004196167,9.850000381469727,9.779999732971191,9.779999732971191,9.779999732971191,20000
2017-06-06,9.850000381469727,9.850000381469727,9.850000381469727,9.850000381469727,9.850000381469727,1400
2017-06-07,9.850000381469727,9.850000381469727,9.850000381469727,9.850000381469727,9.850000381469727,0
2017-06-08,9.850000381469727,9.850000381469727,9.850000381469727,9.850000381469727,9.850000381469727,0
2017-06-09,9.779999732971191,9.800000190734863,9.779999732971191,9.800000190734863,9.800000190734863,300
2017-06-12,9.800000190734863,9.800000190734863,9.800000190734863,9.800000190734863,9.800000190734863,0
2017-06-13,9.779999732971191,9.800000190734863,9.779999732971191,9.800000190734863,9.800000190734863,1300
2017-06-14,9.800000190734863,9.800000190734863,9.800000190734863,9.800000190734863,9.800000190734863,0
2017-06-15,9.8100004196167,9.8100004196167,9.800000190734863,9.800000190734863,9.800000190734863,260100
2017-06-16,9.800000190734863,9.800000190734863,9.800000190734863,9.800000190734863,9.800000190734863,0
2017-06-19,9.800000190734863,9.800000190734863,9.800000190734863,9.800000190734863,9.800000190734863,10000
2017-06-20,9.850000381469727,9.850000381469727,9.800000190734863,9.819999694824219,9.819999694824219,152000
2017-06-21,9.850000381469727,9.850000381469727,9.8100004196167,9.8100004196167,9.8100004196167,12200
2017-06-22,9.829999923706055,9.829999923706055,9.819999694824219,9.819999694824219,9.819999694824219,10100
2017-06-23,9.8100004196167,9.8100004196167,9.800000190734863,9.800000190734863,9.800000190734863,69700
2017-06-26,9.8100004196167,9.8100004196167,9.800000190734863,9.800000190734863,9.800000190734863,54800
2017-06-27,9.800000190734863,9.800000190734863,9.800000190734863,9.800000190734863,9.800000190734863,110000
2017-06-28,9.800000190734863,9.800000190734863,9.800000190734863,9.800000190734863,9.800000190734863,50000
2017-06-29,9.789999961853027,9.789999961853027,9.789999961853027,9.789999961853027,9.789999961853027,400
2017-06-30,9.789999961853027,9.800000190734863,9.779999732971191,9.800000190734863,9.800000190734863,250600
2017-07-03,9.789999961853027,9.789999961853027,9.779999732971191,9.779999732971191,9.779999732971191,15700
2017-07-05,9.8149995803833,9.8149995803833,9.795000076293945,9.795000076293945,9.795000076293945,400
2017-07-06,9.795000076293945,9.795000076293945,9.795000076293945,9.795000076293945,9.795000076293945,0
2017-07-07,9.819999694824219,9.84000015258789,9.789999961853027,9.789999961853027,9.789999961853027,5100
2017-07-10,9.789999961853027,9.789999961853027,9.789999961853027,9.789999961853027,9.789999961853027,0
2017-07-11,9.789999961853027,9.789999961853027,9.789999961853027,9.789999961853027,9.789999961853027,0
2017-07-12,9.779999732971191,9.800000190734863,9.770000457763672,9.770000457763672,9.770000457763672,9900
2017-07-13,9.779999732971191,9.779999732971191,9.779999732971191,9.779999732971191,9.779999732971191,37900
2017-07-14,9.779999732971191,9.829999923706055,9.75,9.829999923706055,9.829999923706055,120100
2017-07-17,9.829999923706055,9.829999923706055,9.829999923706055,9.829999923706055,9.829999923706055,0
2017-07-18,9.84000015258789,9.84000015258789,9.779999732971191,9.779999732971191,9.779999732971191,600
2017-07-19,9.800000190734863,9.8100004196167,9.800000190734863,9.800000190734863,9.800000190734863,10900
2017-07-20,9.800000190734863,9.800000190734863,9.800000190734863,9.800000190734863,9.800000190734863,0
2017-07-21,9.779999732971191,9.779999732971191,9.779999732971191,9.779999732971191,9.779999732971191,100
2017-07-24,9.779999732971191,9.779999732971191,9.779999732971191,9.779999732971191,9.779999732971191,0
2017-07-25,9.779999732971191,9.779999732971191,9.779999732971191,9.779999732971191,9.779999732971191,0
2017-07-26,9.800000190734863,9.800000190734863,9.779999732971191,9.779999732971191,9.779999732971191,15000
2017-07-27,9.75,9.779999732971191,9.75,9.779999732971191,9.779999732971191,1300
2017-07-28,9.779999732971191,9.779999732971191,9.779999732971191,9.779999732971191,9.779999732971191,500
2017-07-31,9.789999961853027,9.789999961853027,9.789999961853027,9.789999961853027,9.789999961853027,200
2017-08-01,9.779999732971191,9.779999732971191,9.779999732971191,9.779999732971191,9.779999732971191,1100
2017-08-02,9.770000457763672,9.770000457763672,9.770000457763672,9.770000457763672,9.770000457763672,1000
2017-08-03,9.760000228881836,9.760000228881836,9.760000228881836,9.760000228881836,9.760000228881836,1000
2017-08-04,9.75,9.769000053405762,9.75,9.769000053405762,9.769000053405762,1200
2017-08-07,9.769000053405762,9.769000053405762,9.769000053405762,9.769000053405762,9.769000053405762,0
2017-08-08,9.760000228881836,9.760000228881836,9.760000228881836,9.760000228881836,9.760000228881836,1000
2017-08-09,9.75,9.760000228881836,9.75,9.758999824523926,9.758999824523926,4600
2017-08-10,9.760000228881836,9.800000190734863,9.75,9.800000190734863,9.800000190734863,1400
2017-08-11,9.770000457763672,9.819999694824219,9.75,9.819999694824219,9.819999694824219,15600
2017-08-14,9.819999694824219,9.819999694824219,9.819999694824219,9.819999694824219,9.819999694824219,0
2017-08-15,9.789999961853027,9.800000190734863,9.789999961853027,9.800000190734863,9.800000190734863,700
2017-08-16,9.770000457763672,9.770000457763672,9.720000267028809,9.720000267028809,9.720000267028809,11300
2017-08-17,9.720000267028809,9.720000267028809,9.720000267028809,9.720000267028809,9.720000267028809,0
2017-08-18,9.720000267028809,9.720000267028809,9.720000267028809,9.720000267028809,9.720000267028809,0
2017-08-21,9.720000267028809,9.720000267028809,9.720000267028809,9.720000267028809,9.720000267028809,0
2017-08-22,9.720000267028809,9.720000267028809,9.720000267028809,9.720000267028809,9.720000267028809,0
2017-08-23,9.720000267028809,9.720000267028809,9.720000267028809,9.720000267028809,9.720000267028809,0
2017-08-24,9.760000228881836,9.760000228881836,9.760000228881836,9.760000228881836,9.760000228881836,100
2017-08-25,9.850000381469727,9.850000381469727,9.829999923706055,9.829999923706055,9.829999923706055,2300
2017-08-28,9.829999923706055,9.829999923706055,9.829999923706055,9.829999923706055,9.829999923706055,0
2017-08-29,9.829999923706055,9.829999923706055,9.829999923706055,9.829999923706055,9.829999923706055,0
2017-08-30,9.829999923706055,9.829999923706055,9.829999923706055,9.829999923706055,9.829999923706055,0
2017-08-31,9.779999732971191,9.779999732971191,9.779999732971191,9.779999732971191,9.779999732971191,1000
2017-09-01,9.779999732971191,9.782999992370605,9.779999732971191,9.781000137329102,9.781000137329102,900
2017-09-05,9.781000137329102,9.781000137329102,9.781000137329102,9.781000137329102,9.781000137329102,0
2017-09-06,9.789999961853027,9.789999961853027,9.779999732971191,9.779999732971191,9.779999732971191,10400
2017-09-07,9.779999732971191,9.779999732971191,9.779999732971191,9.779999732971191,9.779999732971191,0
2017-09-08,9.779999732971191,9.779999732971191,9.779999732971191,9.779999732971191,9.779999732971191,0
2017-09-11,9.779999732971191,9.779999732971191,9.779999732971191,9.779999732971191,9.779999732971191,100
2017-09-12,9.779999732971191,9.779999732971191,9.779999732971191,9.779999732971191,9.779999732971191,0
2017-09-13,9.75,9.765000343322754,9.75,9.75,9.75,2500
2017-09-14,9.829999923706055,9.829999923706055,9.829999923706055,9.829999923706055,9.829999923706055,200
2017-09-15,9.739999771118164,9.800000190734863,9.699999809265137,9.795000076293945,9.795000076293945,109500
2017-09-18,9.850000381469727,9.850000381469727,9.850000381469727,9.850000381469727,9.850000381469727,100
2017-09-19,9.850000381469727,9.850000381469727,9.850000381469727,9.850000381469727,9.850000381469727,0
2017-09-20,9.800000190734863,9.8100004196167,9.75,9.800000190734863,9.800000190734863,23000
2017-09-21,9.800000190734863,9.800000190734863,9.800000190734863,9.800000190734863,9.800000190734863,0
2017-09-22,9.800000190734863,9.800000190734863,9.800000190734863,9.800000190734863,9.800000190734863,0
2017-09-25,9.800000190734863,9.800000190734863,9.800000190734863,9.800000190734863,9.800000190734863,0
2017-09-26,9.800000190734863,9.800000190734863,9.800000190734863,9.800000190734863,9.800000190734863,0
2017-09-27,9.800000190734863,9.800000190734863,9.800000190734863,9.800000190734863,9.800000190734863,0
2017-09-28,9.84000015258789,9.84000015258789,9.84000015258789,9.84000015258789,9.84000015258789,600
2017-09-29,11.760000228881836,11.760000228881836,9.800000190734863,9.800000190734863,9.800000190734863,5200
2017-10-02,9.869999885559082,9.970000267028809,9.869999885559082,9.949999809265137,9.949999809265137,1700
2017-10-03,9.949999809265137,9.949999809265137,9.949999809265137,9.949999809265137,9.949999809265137,0
2017-10-04,9.83899974822998,9.83899974822998,9.824999809265137,9.824999809265137,9.824999809265137,500
2017-10-05,9.810999870300293,9.810999870300293,9.810999870300293,9.810999870300293,9.810999870300293,100
2017-10-06,9.810999870300293,9.810999870300293,9.810999870300293,9.810999870300293,9.810999870300293,0
2017-10-09,9.810999870300293,9.810999870300293,9.810999870300293,9.810999870300293,9.810999870300293,0
2017-10-10,9.845000267028809,9.845000267028809,9.845000267028809,9.845000267028809,9.845000267028809,500
2017-10-11,9.789999961853027,9.789999961853027,9.789999961853027,9.789999961853027,9.789999961853027,300
2017-10-12,9.789999961853027,9.789999961853027,9.789999961853027,9.789999961853027,9.789999961853027,0
2017-10-13,9.789999961853027,9.789999961853027,9.789999961853027,9.789999961853027,9.789999961853027,0
2017-10-16,9.789999961853027,9.789999961853027,9.789999961853027,9.789999961853027,9.789999961853027,0
2017-10-17,9.800000190734863,9.8100004196167,9.800000190734863,9.8100004196167,9.8100004196167,147500
2017-10-18,9.789999961853027,9.789999961853027,9.789999961853027,9.789999961853027,9.789999961853027,1000
2017-10-19,9.789999961853027,9.789999961853027,9.789999961853027,9.789999961853027,9.789999961853027,300
2017-10-20,9.800000190734863,9.800000190734863,9.800000190734863,9.800000190734863,9.800000190734863,1000
2017-10-23,9.720000267028809,9.819999694824219,9.720000267028809,9.800000190734863,9.800000190734863,52800
2017-10-24,9.779999732971191,9.819999694824219,9.75,9.819999694824219,9.819999694824219,221000
2017-10-25,9.760000228881836,9.8100004196167,9.75,9.75,9.75,18200
2017-10-26,9.74899959564209,9.75,9.720000267028809,9.739999771118164,9.739999771118164,36000
2017-10-27,9.739999771118164,9.739999771118164,9.739999771118164,9.739999771118164,9.739999771118164,0
2017-10-30,9.739999771118164,9.739999771118164,9.739999771118164,9.739999771118164,9.739999771118164,0
2017-10-31,9.699999809265137,9.75,9.699999809265137,9.75,9.75,600
2017-11-01,9.779999732971191,9.789999961853027,9.779999732971191,9.789999961853027,9.789999961853027,200
2017-11-02,9.789999961853027,9.789999961853027,9.789999961853027,9.789999961853027,9.789999961853027,0
2017-11-03,9.789999961853027,9.789999961853027,9.789999961853027,9.789999961853027,9.789999961853027,0
2017-11-06,9.789999961853027,9.789999961853027,9.789999961853027,9.789999961853027,9.789999961853027,0
2017-11-07,9.75,9.779999732971191,9.75,9.779999732971191,9.779999732971191,1200
2017-11-08,9.779999732971191,9.779999732971191,9.779999732971191,9.779999732971191,9.779999732971191,0
2017-11-09,9.789999961853027,9.789999961853027,9.789999961853027,9.789999961853027,9.789999961853027,100
2017-11-10,9.789999961853027,9.789999961853027,9.789999961853027,9.789999961853027,9.789999961853027,2000
2017-11-13,9.789999961853027,9.789999961853027,9.789999961853027,9.789999961853027,9.789999961853027,0
2017-11-14,9.789999961853027,9.789999961853027,9.789999961853027,9.789999961853027,9.789999961853027,0
2017-11-15,9.789999961853027,9.789999961853027,9.789999961853027,9.789999961853027,9.789999961853027,0
2017-11-16,9.789999961853027,9.789999961853027,9.789999961853027,9.789999961853027,9.789999961853027,2500
2017-11-17,9.746999740600586,9.805999755859375,9.729999542236328,9.805999755859375,9.805999755859375,335900
2017-11-20,9.805999755859375,9.805999755859375,9.805999755859375,9.805999755859375,9.805999755859375,0
2017-11-21,9.739999771118164,9.770000457763672,9.739999771118164,9.770000457763672,9.770000457763672,4300
2017-11-22,9.760000228881836,9.760000228881836,9.760000228881836,9.760000228881836,9.760000228881836,500
2017-11-24,9.720000267028809,9.770000457763672,9.720000267028809,9.760000228881836,9.760000228881836,6500
2017-11-27,9.760000228881836,9.760000228881836,9.760000228881836,9.760000228881836,9.760000228881836,0
2017-11-28,9.729999542236328,9.75,9.729999542236328,9.75,9.75,43600
2017-11-29,9.770000457763672,9.770000457763672,9.760000228881836,9.770000457763672,9.770000457763672,8600
2017-11-30,9.746999740600586,9.75,9.741999626159668,9.75,9.75,2400
2017-12-01,9.729999542236328,9.770000457763672,9.720000267028809,9.739999771118164,9.739999771118164,8500
2017-12-04,9.760000228881836,9.770000457763672,9.760000228881836,9.770000457763672,9.770000457763672,600
2017-12-05,9.789999961853027,9.789999961853027,9.760000228881836,9.789999961853027,9.789999961853027,4800
2017-12-06,9.789999961853027,9.789999961853027,9.75,9.779999732971191,9.779999732971191,1806300
2017-12-07,9.789999961853027,9.789999961853027,9.779999732971191,9.779999732971191,9.779999732971191,7000
2017-12-08,9.779999732971191,9.779999732971191,9.779999732971191,9.779999732971191,9.779999732971191,0
2017-12-11,9.779999732971191,9.779999732971191,9.779999732971191,9.779999732971191,9.779999732971191,100
2017-12-12,9.779999732971191,9.779999732971191,9.779999732971191,9.779999732971191,9.779999732971191,0
2017-12-13,9.779999732971191,9.779999732971191,9.779999732971191,9.779999732971191,9.779999732971191,0
2017-12-14,9.779999732971191,9.779999732971191,9.779999732971191,9.779999732971191,9.779999732971191,0
2017-12-15,9.760000228881836,9.770000457763672,9.720000267028809,9.770000457763672,9.770000457763672,2100
2017-12-18,9.756999969482422,9.800000190734863,9.756999969482422,9.800000190734863,9.800000190734863,63000
2017-12-19,9.8100004196167,9.819999694824219,9.800000190734863,9.800000190734863,9.800000190734863,28800
2017-12-20,9.949999809265137,9.960000038146973,9.899999618530273,9.899999618530273,9.899999618530273,1204000
2017-12-21,9.916000366210938,9.920000076293945,9.899999618530273,9.90999984741211,9.90999984741211,89200
2017-12-22,9.930000305175781,9.930000305175781,9.90999984741211,9.90999984741211,9.90999984741211,15400
2017-12-26,9.899999618530273,9.899999618530273,9.890000343322754,9.899999618530273,9.899999618530273,18600
2017-12-27,9.899999618530273,9.930000305175781,9.890000343322754,9.890000343322754,9.890000343322754,179700
2017-12-28,9.920000076293945,9.930000305175781,9.890000343322754,9.920000076293945,9.920000076293945,900
2017-12-29,9.899999618530273,9.923999786376953,9.899999618530273,9.920000076293945,9.920000076293945,900
2018-01-02,9.90999984741211,9.949999809265137,9.890000343322754,9.939000129699707,9.939000129699707,24600
2018-01-03,9.930000305175781,9.960000038146973,9.930000305175781,9.949999809265137,9.949999809265137,40100
2018-01-04,9.920000076293945,9.949999809265137,9.920000076293945,9.949999809265137,9.949999809265137,1900
2018-01-05,9.890999794006348,9.949999809265137,9.850000381469727,9.920999526977539,9.920999526977539,7800
2018-01-08,9.949999809265137,9.949999809265137,9.925000190734863,9.925000190734863,9.925000190734863,10100
2018-01-09,9.949999809265137,9.949999809265137,9.949999809265137,9.949999809265137,9.949999809265137,2400
2018-01-10,9.949999809265137,9.949999809265137,9.949999809265137,9.949999809265137,9.949999809265137,0
2018-01-11,9.949999809265137,9.949999809265137,9.895000457763672,9.90999984741211,9.90999984741211,39300
2018-01-12,9.90999984741211,9.90999984741211,9.899999618530273,9.899999618530273,9.899999618530273,6200
2018-01-16,9.91100025177002,9.920000076293945,9.90999984741211,9.920000076293945,9.920000076293945,3000
2018-01-17,9.930000305175781,9.9399995803833,9.928000450134277,9.928000450134277,9.928000450134277,26700
2018-01-18,9.920000076293945,9.930000305175781,9.899999618530273,9.930000305175781,9.930000305175781,90800
2018-01-19,9.9399995803833,9.9399995803833,9.90999984741211,9.90999984741211,9.90999984741211,1200
2018-01-22,9.920000076293945,9.949999809265137,9.890000343322754,9.949999809265137,9.949999809265137,27300
2018-01-23,9.930000305175781,9.930000305175781,9.90999984741211,9.930000305175781,9.930000305175781,26600
2018-01-24,9.9399995803833,9.949999809265137,9.930000305175781,9.949999809265137,9.949999809265137,600
2018-01-25,9.949999809265137,9.949999809265137,9.899999618530273,9.930000305175781,9.930000305175781,73300
2018-01-26,9.9399995803833,9.949999809265137,9.90999984741211,9.920000076293945,9.920000076293945,12900
2018-01-29,9.90999984741211,9.90999984741211,9.880000114440918,9.899999618530273,9.899999618530273,6700
2018-01-30,9.9399995803833,9.9399995803833,9.9399995803833,9.9399995803833,9.9399995803833,500
2018-01-31,9.899999618530273,9.904999732971191,9.899999618530273,9.904999732971191,9.904999732971191,51300
2018-02-01,9.899999618530273,9.899999618530273,9.899999618530273,9.899999618530273,9.899999618530273,2000
2018-02-02,9.9399995803833,9.949999809265137,9.899999618530273,9.899999618530273,9.899999618530273,5500
2018-02-05,9.899999618530273,9.899999618530273,9.899999618530273,9.899999618530273,9.899999618530273,0
2018-02-06,9.899999618530273,9.949999809265137,9.899999618530273,9.920000076293945,9.920000076293945,75500
2018-02-07,9.920000076293945,9.920000076293945,9.920000076293945,9.920000076293945,9.920000076293945,0
2018-02-08,9.920000076293945,9.920000076293945,9.920000076293945,9.920000076293945,9.920000076293945,0
2018-02-09,9.880000114440918,9.930000305175781,9.880000114440918,9.920000076293945,9.920000076293945,37500
2018-02-12,9.920000076293945,9.920000076293945,9.920000076293945,9.920000076293945,9.920000076293945,2500
2018-02-13,9.920000076293945,9.920000076293945,9.920000076293945,9.920000076293945,9.920000076293945,0
2018-02-14,9.920000076293945,9.920000076293945,9.920000076293945,9.920000076293945,9.920000076293945,0
2018-02-15,9.899999618530273,9.899999618530273,9.880000114440918,9.899999618530273,9.899999618530273,13200
2018-02-16,9.880000114440918,9.880000114440918,9.880000114440918,9.880000114440918,9.880000114440918,7300
2018-02-20,9.880000114440918,9.880000114440918,9.880000114440918,9.880000114440918,9.880000114440918,0
2018-02-21,9.899999618530273,9.930000305175781,9.899999618530273,9.899999618530273,9.899999618530273,5800
2018-02-22,9.899999618530273,9.899999618530273,9.880000114440918,9.880000114440918,9.880000114440918,4200
2018-02-23,9.899999618530273,9.949999809265137,9.899999618530273,9.949999809265137,9.949999809265137,21700
2018-02-26,9.899999618530273,9.899999618530273,9.899999618530273,9.899999618530273,9.899999618530273,51700
2018-02-27,9.925000190734863,9.9399995803833,9.90999984741211,9.90999984741211,9.90999984741211,1200
2018-02-28,9.9399995803833,9.949999809265137,9.9399995803833,9.949999809265137,9.949999809265137,2100
2018-03-01,9.949999809265137,9.960000038146973,9.949999809265137,9.949999809265137,9.949999809265137,1000
2018-03-02,9.949999809265137,9.949999809265137,9.949999809265137,9.949999809265137,9.949999809265137,0
2018-03-05,9.949999809265137,9.949999809265137,9.949999809265137,9.949999809265137,9.949999809265137,1100
2018-03-06,9.949999809265137,9.949999809265137,9.935999870300293,9.935999870300293,9.935999870300293,600
2018-03-07,9.9399995803833,9.9399995803833,9.899999618530273,9.925999641418457,9.925999641418457,2000
2018-03-08,9.925999641418457,9.925999641418457,9.925999641418457,9.925999641418457,9.925999641418457,0
2018-03-09,9.920000076293945,9.949999809265137,9.920000076293945,9.949999809265137,9.949999809265137,576900
2018-03-12,9.949999809265137,9.949999809265137,9.930000305175781,9.930000305175781,9.930000305175781,67400
2018-03-13,9.930000305175781,9.949999809265137,9.930000305175781,9.949999809265137,9.949999809265137,84600
2018-03-14,9.949999809265137,9.949999809265137,9.949999809265137,9.949999809265137,9.949999809265137,0
2018-03-15,9.949999809265137,9.949999809265137,9.9399995803833,9.9399995803833,9.9399995803833,1300
2018-03-16,9.9399995803833,9.9399995803833,9.9399995803833,9.9399995803833,9.9399995803833,0
2018-03-19,9.9399995803833,9.9399995803833,9.9399995803833,9.9399995803833,9.9399995803833,0
2018-03-20,9.949999809265137,9.949999809265137,9.949999809265137,9.949999809265137,9.949999809265137,100
2018-03-21,9.930000305175781,9.930000305175781,9.930000305175781,9.930000305175781,9.930000305175781,500
2018-03-22,9.930000305175781,9.930000305175781,9.930000305175781,9.930000305175781,9.930000305175781,0
2018-03-23,9.935999870300293,9.935999870300293,9.935999870300293,9.935999870300293,9.935999870300293,4500
2018-03-26,9.930000305175781,9.960000038146973,9.930000305175781,9.949999809265137,9.949999809265137,138900
2018-03-27,9.949999809265137,9.949999809265137,9.9399995803833,9.9399995803833,9.9399995803833,287500
2018-03-28,9.9399995803833,9.9399995803833,9.930000305175781,9.930000305175781,9.930000305175781,28100
2018-03-29,9.9399995803833,9.9399995803833,9.9399995803833,9.9399995803833,9.9399995803833,100
2018-04-02,9.949999809265137,9.96500015258789,9.949999809265137,9.960000038146973,9.960000038146973,496200
2018-04-03,9.960000038146973,9.960000038146973,9.960000038146973,9.960000038146973,9.960000038146973,0
2018-04-04,9.949999809265137,9.96500015258789,9.9399995803833,9.960000038146973,9.960000038146973,278000
2018-04-05,9.949999809265137,9.96500015258789,9.949999809265137,9.96500015258789,9.96500015258789,520200
2018-04-06,9.960000038146973,9.960000038146973,9.9399995803833,9.949999809265137,9.949999809265137,106800
2018-04-09,9.970000267028809,9.970000267028809,9.970000267028809,9.970000267028809,9.970000267028809,100
2018-04-10,9.970000267028809,9.970000267028809,9.970000267028809,9.970000267028809,9.970000267028809,500
2018-04-11,9.960000038146973,9.960000038146973,9.960000038146973,9.960000038146973,9.960000038146973,4900
2018-04-12,9.975000381469727,9.975000381469727,9.975000381469727,9.975000381469727,9.975000381469727,250000
2018-04-13,9.989999771118164,10.0,9.989999771118164,10.0,10.0,200
2018-04-16,9.96500015258789,9.989999771118164,9.96500015258789,9.989999771118164,9.989999771118164,1100
2018-04-17,9.979999542236328,10.0,9.979999542236328,10.0,10.0,65100
2018-04-18,10.0,10.0,10.0,10.0,10.0,0
2018-04-19,9.96399974822998,9.96399974822998,9.96399974822998,9.96399974822998,9.96399974822998,2600
2018-04-20,10.0,10.0,10.0,10.0,10.0,1100
2018-04-23,9.960000038146973,10.0,9.960000038146973,10.0,10.0,63500
2018-04-24,10.0,10.0,10.0,10.0,10.0,0
2018-04-25,9.961000442504883,10.0,9.960000038146973,10.0,10.0,1200
2018-04-26,9.949999809265137,9.949999809265137,9.949999809265137,9.949999809265137,9.949999809265137,300
2018-04-27,9.949999809265137,9.949999809265137,9.949999809265137,9.949999809265137,9.949999809265137,0
2018-04-30,9.970000267028809,9.970000267028809,9.960000038146973,9.960000038146973,9.960000038146973,900
2018-05-01,9.960000038146973,9.960000038146973,9.960000038146973,9.960000038146973,9.960000038146973,0
2018-05-02,9.960000038146973,9.989999771118164,9.960000038146973,9.960000038146973,9.960000038146973,800
2018-05-03,9.960000038146973,9.961000442504883,9.949999809265137,9.949999809265137,9.949999809265137,33000
2018-05-04,9.9399995803833,9.949999809265137,9.9399995803833,9.949999809265137,9.949999809265137,300
2018-05-07,9.949999809265137,10.0,9.949999809265137,9.979999542236328,9.979999542236328,79800
2018-05-08,9.970000267028809,10.0,9.970000267028809,9.979999542236328,9.979999542236328,71000
2018-05-09,9.989999771118164,9.989999771118164,9.970000267028809,9.970000267028809,9.970000267028809,600
2018-05-10,9.970000267028809,9.970000267028809,9.970000267028809,9.970000267028809,9.970000267028809,218100
2018-05-11,9.970000267028809,9.970000267028809,9.970000267028809,9.970000267028809,9.970000267028809,0
2018-05-14,9.970000267028809,9.970000267028809,9.970000267028809,9.970000267028809,9.970000267028809,0
2018-05-15,9.9399995803833,10.0,9.930000305175781,9.970000267028809,9.970000267028809,203000
2018-05-16,9.970000267028809,9.970000267028809,9.970000267028809,9.970000267028809,9.970000267028809,0
2018-05-17,9.970000267028809,9.970000267028809,9.970000267028809,9.970000267028809,9.970000267028809,0
2018-05-18,9.970000267028809,9.970000267028809,9.970000267028809,9.970000267028809,9.970000267028809,0
2018-05-21,9.979999542236328,9.989999771118164,9.967000007629395,9.967000007629395,9.967000007629395,1400
2018-05-22,9.967000007629395,9.967000007629395,9.967000007629395,9.967000007629395,9.967000007629395,0
2018-05-23,9.930000305175781,9.989999771118164,9.930000305175781,9.970000267028809,9.970000267028809,800
2018-05-24,9.970000267028809,9.970000267028809,9.970000267028809,9.970000267028809,9.970000267028809,0
2018-05-25,9.970000267028809,9.970000267028809,9.970000267028809,9.970000267028809,9.970000267028809,0
2018-05-29,9.970000267028809,9.970000267028809,9.970000267028809,9.970000267028809,9.970000267028809,0
2018-05-30,9.960000038146973,9.960000038146973,9.960000038146973,9.960000038146973,9.960000038146973,100
2018-05-31,9.960000038146973,9.960000038146973,9.930000305175781,9.930000305175781,9.930000305175781,273500
2018-06-01,9.960000038146973,9.960000038146973,9.949999809265137,9.949999809265137,9.949999809265137,131700
2018-06-04,9.960000038146973,10.010000228881836,9.960000038146973,10.010000228881836,10.010000228881836,95000
2018-06-05,9.970000267028809,10.0,9.960000038146973,10.0,10.0,9100
2018-06-06,9.979999542236328,10.0,9.979999542236328,9.979999542236328,9.979999542236328,298200
2018-06-07,10.050000190734863,10.050000190734863,9.979999542236328,9.989999771118164,9.989999771118164,319600
2018-06-08,10.010000228881836,10.010000228881836,9.970000267028809,10.010000228881836,10.010000228881836,2800
2018-06-11,10.010000228881836,10.010000228881836,9.979999542236328,10.0,10.0,3800
2018-06-12,9.989999771118164,10.0,9.989999771118164,10.0,10.0,2900
2018-06-13,10.0,10.0,10.0,10.0,10.0,110200
2018-06-14,10.0,10.015000343322754,10.0,10.0,10.0,92400
2018-06-15,10.0,10.010000228881836,10.0,10.0,10.0,2300
2018-06-18,10.0,10.0,10.0,10.0,10.0,0
2018-06-19,10.010000228881836,10.010000228881836,9.982999801635742,9.989999771118164,9.989999771118164,9500
2018-06-20,9.979999542236328,10.010000228881836,9.979999542236328,10.0,10.0,14400
2018-06-21,10.010000228881836,10.010000228881836,9.970000267028809,10.010000228881836,10.010000228881836,12400
2018-06-22,9.979999542236328,10.010000228881836,9.970000267028809,10.010000228881836,10.010000228881836,19200
2018-06-25,9.979999542236328,10.0,9.979999542236328,9.989999771118164,9.989999771118164,77300
2018-06-26,9.979999542236328,9.989999771118164,9.960000038146973,9.979999542236328,9.979999542236328,556100
2018-06-27,9.979999542236328,9.979999542236328,9.979999542236328,9.979999542236328,9.979999542236328,0
2018-06-28,9.980999946594238,10.020000457763672,9.949999809265137,10.010000228881836,10.010000228881836,603900
2018-06-29,10.010000228881836,10.050000190734863,10.0,10.0,10.0,7707000
2018-07-02,10.050000190734863,10.050000190734863,10.010000228881836,10.026000022888184,10.026000022888184,23100
2018-07-03,10.029999732971191,10.050000190734863,10.0,10.0,10.0,23400
2018-07-05,10.039999961853027,10.039999961853027,10.017999649047852,10.017999649047852,10.017999649047852,3500
2018-07-06,10.0,10.008999824523926,9.979999542236328,10.0,10.0,113200
2018-07-09,10.024999618530273,10.029999732971191,10.010000228881836,10.010000228881836,10.010000228881836,30400
2018-07-10,10.01099967956543,10.029999732971191,10.010000228881836,10.022000312805176,10.022000312805176,314000
2018-07-11,10.029999732971191,10.029999732971191,10.0,10.0,10.0,700
2018-07-12,10.020000457763672,10.029999732971191,10.020000457763672,10.020000457763672,10.020000457763672,13500
2018-07-13,10.020000457763672,10.029999732971191,10.010000228881836,10.029999732971191,10.029999732971191,6900
2018-07-16,10.029999732971191,10.029999732971191,10.029999732971191,10.029999732971191,10.029999732971191,0
2018-07-17,10.027000427246094,10.0600004196167,10.010000228881836,10.010000228881836,10.010000228881836,2800
2018-07-18,10.100000381469727,10.100000381469727,10.0,10.039999961853027,10.039999961853027,2096700
2018-07-19,10.079999923706055,11.989999771118164,9.960000038146973,10.029999732971191,10.029999732971191,2611000
2018-07-20,10.100000381469727,10.135000228881836,9.99899959564209,10.039999961853027,10.039999961853027,22200
2018-07-23,10.149999618530273,10.387999534606934,9.880999565124512,10.09000015258789,10.09000015258789,221500
2018-07-24,10.09000015258789,10.09000015258789,9.899999618530273,9.899999618530273,9.899999618530273,153000
2018-07-25,9.91100025177002,10.020000457763672,9.75,9.850000381469727,9.850000381469727,50100
2018-07-26,9.920000076293945,9.994999885559082,9.649999618530273,9.90999984741211,9.90999984741211,443800
2018-07-27,9.899999618530273,10.0,9.119000434875488,10.0,10.0,34500
2018-07-30,10.0,10.9399995803833,9.819999694824219,9.829999923706055,9.829999923706055,114500
2018-07-31,9.819999694824219,9.975000381469727,9.75,9.899999618530273,9.899999618530273,44500
2018-08-01,9.630000114440918,9.8100004196167,9.510000228881836,9.75,9.75,193300
2018-08-02,9.75,9.760000228881836,9.510000228881836,9.680000305175781,9.680000305175781,6300
2018-08-03,9.75,9.75,9.5,9.739999771118164,9.739999771118164,7500
2018-08-06,9.722999572753906,9.722999572753906,9.625,9.6899995803833,9.6899995803833,1600
2018-08-07,9.670000076293945,9.729999542236328,9.659000396728516,9.729999542236328,9.729999542236328,5600
2018-08-08,9.75,9.75,9.5,9.5,9.5,221100
2018-08-09,9.5,9.649999618530273,9.40999984741211,9.40999984741211,9.40999984741211,93600
2018-08-10,9.34000015258789,10.494999885559082,9.255000114440918,9.84000015258789,9.84000015258789,452800
2018-08-13,9.899999618530273,10.045000076293945,9.84000015258789,9.869999885559082,9.869999885559082,12800
2018-08-14,9.899999618530273,9.989999771118164,9.800000190734863,9.800000190734863,9.800000190734863,66900
2018-08-15,9.800000190734863,9.819999694824219,9.663999557495117,9.680000305175781,9.680000305175781,2200
2018-08-16,9.720000267028809,9.890000343322754,9.600000381469727,9.600000381469727,9.600000381469727,1400
2018-08-17,9.670000076293945,9.670000076293945,9.432000160217285,9.670000076293945,9.670000076293945,1700
2018-08-20,9.760000228881836,9.760000228881836,9.25,9.760000228881836,9.760000228881836,3700
2018-08-21,9.739999771118164,10.050000190734863,9.399999618530273,9.739999771118164,9.739999771118164,54600
2018-08-22,9.729999542236328,9.729999542236328,9.430000305175781,9.430000305175781,9.430000305175781,600
2018-08-23,9.420000076293945,9.649999618530273,9.40999984741211,9.40999984741211,9.40999984741211,4700
2018-08-24,9.600000381469727,9.760000228881836,9.529999732971191,9.529999732971191,9.529999732971191,6600
2018-08-27,9.739999771118164,10.0,9.0600004196167,9.970000267028809,9.970000267028809,141900
2018-08-28,9.899999618530273,9.899999618530273,9.5,9.600000381469727,9.600000381469727,20200
2018-08-29,9.710000038146973,9.800000190734863,9.699999809265137,9.800000190734863,9.800000190734863,4300
2018-08-30,9.609999656677246,9.729999542236328,9.5,9.5,9.5,4100
2018-08-31,9.5,9.800000190734863,9.3149995803833,9.800000190734863,9.800000190734863,20400
2018-09-04,9.930000305175781,9.979999542236328,9.845999717712402,9.960000038146973,9.960000038146973,409900
2018-09-05,9.960000038146973,9.960000038146973,9.84000015258789,9.84000015258789,9.84000015258789,36400
2018-09-06,9.829999923706055,10.029999732971191,9.65999984741211,9.65999984741211,9.65999984741211,41500
2018-09-07,10.010000228881836,10.029999732971191,9.899999618530273,9.989999771118164,9.989999771118164,172100
2018-09-10,10.029999732971191,10.029999732971191,9.949999809265137,10.029999732971191,10.029999732971191,170700
2018-09-11,10.0,10.600000381469727,10.0,10.4399995803833,10.4399995803833,120200
2018-09-12,10.5,10.848999977111816,10.423999786376953,10.510000228881836,10.510000228881836,156200
2018-09-13,10.529999732971191,10.600000381469727,10.489999771118164,10.5,10.5,139000
2018-09-14,10.489999771118164,10.630000114440918,10.470000267028809,10.5600004196167,10.5600004196167,69100
2018-09-17,10.5600004196167,10.920000076293945,10.484999656677246,10.760000228881836,10.760000228881836,52000
2018-09-18,10.90999984741211,11.579999923706055,10.75,11.149999618530273,11.149999618530273,175400
2018-09-19,11.079999923706055,11.4399995803833,10.949999809265137,11.0,11.0,100200
2018-09-20,11.050000190734863,11.5,11.050000190734863,11.329999923706055,11.329999923706055,270500
2018-09-21,11.40999984741211,11.630000114440918,11.0,11.170000076293945,11.170000076293945,362600
2018-09-24,11.180000305175781,11.220000267028809,10.949999809265137,11.0,11.0,170300
2018-09-25,11.010000228881836,11.470000267028809,11.010000228881836,11.029999732971191,11.029999732971191,125800
2018-09-26,11.069999694824219,11.470000267028809,11.069999694824219,11.359999656677246,11.359999656677246,45200
2018-09-27,11.420000076293945,11.5,11.199999809265137,11.479999542236328,11.479999542236328,49300
2018-09-28,11.489999771118164,12.020000457763672,11.25,12.020000457763672,12.020000457763672,92400
2018-10-01,12.079999923706055,12.079999923706055,11.5600004196167,11.729999542236328,11.729999542236328,26300
2018-10-02,11.699999809265137,12.0,11.694999694824219,11.880000114440918,11.880000114440918,459800
2018-10-03,11.949999809265137,12.369999885559082,11.842000007629395,12.1899995803833,12.1899995803833,243100
2018-10-04,12.130000114440918,12.170000076293945,11.960000038146973,12.100000381469727,12.100000381469727,243200
2018-10-05,12.180000305175781,13.199999809265137,12.109999656677246,12.4399995803833,12.4399995803833,296000
2018-10-08,12.399999618530273,12.729999542236328,12.399999618530273,12.479999542236328,12.479999542236328,139300
2018-10-09,12.569999694824219,12.845999717712402,12.119999885559082,12.5,12.5,144500
2018-10-10,12.460000038146973,12.479999542236328,11.800000190734863,12.260000228881836,12.260000228881836,151000
2018-10-11,12.199999809265137,12.25,11.789999961853027,12.180000305175781,12.180000305175781,204900
2018-10-12,12.489999771118164,12.649999618530273,12.354999542236328,12.460000038146973,12.460000038146973,118900
2018-10-15,12.40999984741211,12.59000015258789,12.25,12.449999809265137,12.449999809265137,53400
2018-10-16,12.380000114440918,12.699999809265137,12.369999885559082,12.670000076293945,12.670000076293945,39900
2018-10-17,12.640000343322754,12.640000343322754,12.270000457763672,12.579999923706055,12.579999923706055,8600
2018-10-18,12.649999618530273,12.649999618530273,12.260000228881836,12.399999618530273,12.399999618530273,26000
2018-10-19,12.5,12.5,12.1899995803833,12.210000038146973,12.210000038146973,32600
2018-10-22,12.199999809265137,12.303000450134277,12.100000381469727,12.170000076293945,12.170000076293945,41800
2018-10-23,12.095999717712402,12.149999618530273,11.9399995803833,12.010000228881836,12.010000228881836,33500
2018-10-24,12.020000457763672,12.15999984741211,11.600000381469727,11.850000381469727,11.850000381469727,81100
2018-10-25,11.850000381469727,12.243000030517578,11.850000381469727,12.010000228881836,12.010000228881836,49700
2018-10-26,12.0,12.239999771118164,11.800000190734863,11.899999618530273,11.899999618530273,9800
2018-10-29,12.050000190734863,12.050000190734863,11.199999809265137,11.960000038146973,11.960000038146973,69700
2018-10-30,12.0,12.0,11.729999542236328,11.729999542236328,11.729999542236328,24200
2018-10-31,11.930000305175781,12.489999771118164,11.890000343322754,12.09000015258789,12.09000015258789,46200
2018-11-01,12.199999809265137,12.399999618530273,12.024999618530273,12.3100004196167,12.3100004196167,38800
2018-11-02,12.399999618530273,12.479999542236328,11.949999809265137,11.949999809265137,11.949999809265137,37000
2018-11-05,12.0,12.329999923706055,12.0,12.109999656677246,12.109999656677246,31900
2018-11-06,12.109999656677246,12.220000267028809,12.010000228881836,12.199999809265137,12.199999809265137,22800
2018-11-07,12.270000457763672,12.479999542236328,12.0,12.149999618530273,12.149999618530273,50600
2018-11-08,11.609999656677246,12.234999656677246,11.609999656677246,12.029999732971191,12.029999732971191,38700
2018-11-09,12.100000381469727,13.378000259399414,12.100000381469727,12.59000015258789,12.59000015258789,189500
2018-11-12,12.59000015258789,12.84000015258789,12.329999923706055,12.5,12.5,33600
2018-11-13,12.600000381469727,12.600000381469727,12.449999809265137,12.5,12.5,25900
2018-11-14,12.5,13.039999961853027,12.5,12.729999542236328,12.729999542236328,131500
2018-11-15,12.699999809265137,12.699999809265137,12.399999618530273,12.510000228881836,12.510000228881836,37700
2018-11-16,12.399999618530273,12.520000457763672,12.079999923706055,12.25,12.25,52800
2018-11-19,12.260000228881836,12.489999771118164,12.1899995803833,12.210000038146973,12.210000038146973,29200
2018-11-20,12.149999618530273,12.211000442504883,11.0,11.260000228881836,11.260000228881836,46500
2018-11-21,11.140000343322754,12.260000228881836,10.800000190734863,12.039999961853027,12.039999961853027,36100
2018-11-23,11.770000457763672,12.425000190734863,11.569999694824219,11.739999771118164,11.739999771118164,9000
2018-11-26,11.760000228881836,12.744999885559082,10.975000381469727,11.890000343322754,11.890000343322754,22400
2018-11-27,11.890000343322754,12.520000457763672,11.579999923706055,12.0,12.0,12100
2018-11-28,12.1899995803833,12.239999771118164,11.970000267028809,12.239999771118164,12.239999771118164,3900
2018-11-29,12.3100004196167,12.350000381469727,11.8100004196167,12.149999618530273,12.149999618530273,9300
2018-11-30,12.3100004196167,12.3100004196167,12.119999885559082,12.119999885559082,12.119999885559082,18100
2018-12-03,12.430000305175781,12.5,12.1899995803833,12.479999542236328,12.479999542236328,17300
2018-12-04,12.149999618530273,12.399999618530273,11.699999809265137,12.199999809265137,12.199999809265137,16400
2018-12-06,11.930000305175781,12.270000457763672,11.84000015258789,12.069999694824219,12.069999694824219,16000
2018-12-07,12.069999694824219,12.1899995803833,11.539999961853027,11.670000076293945,11.670000076293945,10000
2018-12-10,11.505000114440918,11.854999542236328,11.25,11.59000015258789,11.59000015258789,9500
2018-12-11,11.75,12.15999984741211,11.4399995803833,11.460000038146973,11.460000038146973,9000
2018-12-12,11.829999923706055,12.0,11.550000190734863,11.800000190734863,11.800000190734863,6100
2018-12-13,11.680000305175781,11.680000305175781,11.390000343322754,11.680000305175781,11.680000305175781,1200
2018-12-14,11.470000267028809,11.619999885559082,11.0,11.430000305175781,11.430000305175781,25600
2018-12-17,11.399999618530273,11.399999618530273,10.8100004196167,11.239999771118164,11.239999771118164,89700
2018-12-18,11.239999771118164,11.600000381469727,10.899999618530273,11.0600004196167,11.0600004196167,24500
2018-12-19,11.0600004196167,12.350000381469727,10.970000267028809,11.130000114440918,11.130000114440918,98100
2018-12-20,11.109999656677246,11.166000366210938,10.880000114440918,11.100000381469727,11.100000381469727,28100
2018-12-21,11.350000381469727,11.829999923706055,11.180000305175781,11.329999923706055,11.329999923706055,572500
2018-12-24,11.109999656677246,11.430000305175781,11.050000190734863,11.069999694824219,11.069999694824219,5400
2018-12-26,11.069999694824219,11.710000038146973,11.069999694824219,11.489999771118164,11.489999771118164,17300
2018-12-27,11.399999618530273,11.75,11.050000190734863,11.529999732971191,11.529999732971191,104300
2018-12-28,11.630000114440918,12.069999694824219,10.960000038146973,12.020000457763672,12.020000457763672,113600
2018-12-31,12.100000381469727,12.25,11.710000038146973,11.960000038146973,11.960000038146973,61300
2019-01-02,11.90999984741211,12.220000267028809,11.680000305175781,11.960000038146973,11.960000038146973,53400
2019-01-03,11.859999656677246,11.989999771118164,11.25,11.920000076293945,11.920000076293945,16200
2019-01-04,12.15999984741211,12.359999656677246,11.8100004196167,12.010000228881836,12.010000228881836,47100
2019-01-07,11.989999771118164,12.25,11.600000381469727,11.850000381469727,11.850000381469727,65300
2019-01-08,11.899999618530273,12.199999809265137,11.75,12.100000381469727,12.100000381469727,130100
2019-01-09,12.0,12.199999809265137,11.970000267028809,12.050000190734863,12.050000190734863,35200
2019-01-10,11.979999542236328,12.079999923706055,11.875,11.880000114440918,11.880000114440918,181900
2019-01-11,11.859999656677246,12.149999618530273,11.75,11.869999885559082,11.869999885559082,132900
2019-01-14,12.194999694824219,12.194999694824219,11.670000076293945,11.890000343322754,11.890000343322754,17600
2019-01-15,11.470000267028809,11.970000267028809,11.40999984741211,11.800000190734863,11.800000190734863,14900
2019-01-16,11.800000190734863,12.199999809265137,11.520000457763672,11.8100004196167,11.8100004196167,6200
2019-01-17,11.800000190734863,12.197999954223633,11.430000305175781,11.649999618530273,11.649999618530273,13500
2019-01-18,11.770000457763672,12.010000228881836,11.510000228881836,11.739999771118164,11.739999771118164,21600
2019-01-22,11.6899995803833,12.0,11.539999961853027,11.600000381469727,11.600000381469727,45500
2019-01-23,11.793000221252441,11.793000221252441,11.550000190734863,11.75,11.75,10000
2019-01-24,11.710000038146973,11.710000038146973,11.319999694824219,11.5,11.5,212700
2019-01-25,11.569999694824219,11.595000267028809,11.199999809265137,11.399999618530273,11.399999618530273,43900
2019-01-28,11.3100004196167,11.770000457763672,11.300000190734863,11.550000190734863,11.550000190734863,39300
2019-01-29,11.59000015258789,11.800000190734863,11.390000343322754,11.390000343322754,11.390000343322754,7800
2019-01-30,11.430000305175781,11.510000228881836,10.989999771118164,11.399999618530273,11.399999618530273,30700
2019-01-31,11.399999618530273,12.010000228881836,11.399999618530273,11.5,11.5,110200
2019-02-01,11.470000267028809,11.680000305175781,11.319999694824219,11.359999656677246,11.359999656677246,39700
2019-02-04,11.539999961853027,11.890000343322754,11.369999885559082,11.489999771118164,11.489999771118164,194300
2019-02-05,11.609999656677246,11.979999542236328,11.359999656677246,11.359999656677246,11.359999656677246,209700
2019-02-06,11.239999771118164,11.59000015258789,11.239999771118164,11.399999618530273,11.399999618530273,44700
2019-02-07,11.220000267028809,11.395000457763672,11.100000381469727,11.350000381469727,11.350000381469727,21400
2019-02-08,11.199999809265137,11.579999923706055,11.199999809265137,11.5,11.5,27300
2019-02-11,11.876999855041504,11.890000343322754,11.09000015258789,11.470000267028809,11.470000267028809,27400
2019-02-12,11.539999961853027,11.670000076293945,11.270000457763672,11.359999656677246,11.359999656677246,9600
2019-02-13,11.600000381469727,11.670000076293945,11.319999694824219,11.449999809265137,11.449999809265137,25000
2019-02-14,11.399999618530273,11.550000190734863,11.319999694824219,11.319999694824219,11.319999694824219,28800
2019-02-15,11.40999984741211,11.979999542236328,11.354999542236328,11.449999809265137,11.449999809265137,35000
2019-02-19,11.4399995803833,11.59000015258789,11.324999809265137,11.5,11.5,49300
2019-02-20,11.489999771118164,11.5,11.0,11.09000015258789,11.09000015258789,77600
2019-02-21,11.09000015258789,11.204999923706055,10.819999694824219,10.960000038146973,10.960000038146973,85200
2019-02-22,10.989999771118164,11.350000381469727,10.880000114440918,11.25,11.25,22300
2019-02-25,11.289999961853027,11.350000381469727,11.010000228881836,11.140000343322754,11.140000343322754,23600
2019-02-26,11.239999771118164,11.350000381469727,11.069999694824219,11.100000381469727,11.100000381469727,18000
2019-02-27,11.029999732971191,11.039999961853027,10.829999923706055,10.899999618530273,10.899999618530273,19500
2019-02-28,10.90999984741211,11.03499984741211,10.329999923706055,10.329999923706055,10.329999923706055,194600
2019-03-01,10.489999771118164,11.0,10.3100004196167,11.0,11.0,18300
2019-03-04,11.0,11.0,10.65999984741211,10.779999732971191,10.779999732971191,105900
2019-03-05,10.770000457763672,10.970000267028809,10.600000381469727,10.880000114440918,10.880000114440918,10000
2019-03-06,10.619999885559082,10.989999771118164,10.489999771118164,10.850000381469727,10.850000381469727,29200
2019-03-07,10.850000381469727,10.979999542236328,10.800000190734863,10.869999885559082,10.869999885559082,12100
2019-03-08,10.505000114440918,10.859999656677246,10.5,10.84000015258789,10.84000015258789,11600
2019-03-11,10.869999885559082,10.869999885559082,10.649999618530273,10.765000343322754,10.765000343322754,101700
2019-03-12,10.800000190734863,11.130000114440918,10.779999732971191,11.050000190734863,11.050000190734863,166700
2019-03-13,11.289999961853027,11.649999618530273,10.505000114440918,11.4399995803833,11.4399995803833,203800
2019-03-14,11.430000305175781,11.430000305175781,10.680000305175781,10.680000305175781,10.680000305175781,205600
2019-03-15,10.680000305175781,11.420000076293945,10.680000305175781,11.010000228881836,11.010000228881836,83000
2019-03-18,11.0,11.039999961853027,10.510000228881836,10.510000228881836,10.510000228881836,93200
2019-03-19,10.520000457763672,11.140000343322754,10.520000457763672,10.779999732971191,10.779999732971191,44700
2019-03-20,10.729999542236328,10.9399995803833,10.479999542236328,10.479999542236328,10.479999542236328,12300
2019-03-21,10.4399995803833,10.979999542236328,10.4399995803833,10.850000381469727,10.850000381469727,18900
2019-03-22,10.779999732971191,10.989999771118164,10.649999618530273,10.819999694824219,10.819999694824219,10300
2019-03-25,10.649999618530273,10.979999542236328,10.649999618530273,10.9399995803833,10.9399995803833,65300
2019-03-26,10.930000305175781,10.9399995803833,10.649999618530273,10.850000381469727,10.850000381469727,20500
2019-03-27,10.84000015258789,11.0,10.539999961853027,10.9399995803833,10.9399995803833,45000
2019-03-28,10.930000305175781,11.010000228881836,10.720000267028809,10.869999885559082,10.869999885559082,124000
2019-03-29,10.920000076293945,11.75,10.510000228881836,11.65999984741211,11.65999984741211,273700
2019-04-01,11.739999771118164,11.899999618530273,11.029999732971191,11.720000267028809,11.720000267028809,57300
2019-04-02,11.75,11.970000267028809,11.399999618530273,11.760000228881836,11.760000228881836,122200
2019-04-03,11.829999923706055,12.319999694824219,11.399999618530273,11.699999809265137,11.699999809265137,146300
2019-04-04,11.699999809265137,11.880000114440918,11.420000076293945,11.600000381469727,11.600000381469727,42700
2019-04-05,11.649999618530273,11.75,11.380000114440918,11.489999771118164,11.489999771118164,27000
2019-04-08,11.5,11.770000457763672,11.449999809265137,11.600000381469727,11.600000381469727,23600
2019-04-09,11.5,11.699999809265137,11.5,11.59000015258789,11.59000015258789,29400
2019-04-10,11.569999694824219,11.699999809265137,11.289999961853027,11.5600004196167,11.5600004196167,74400
2019-04-11,11.5,11.640000343322754,11.470000267028809,11.630000114440918,11.630000114440918,10200
2019-04-12,11.65999984741211,12.479999542236328,11.649999618530273,11.930000305175781,11.930000305175781,169200
2019-04-15,12.0600004196167,12.239999771118164,11.619999885559082,12.130000114440918,12.130000114440918,123500
2019-04-16,12.09000015258789,12.180000305175781,11.520000457763672,11.899999618530273,11.899999618530273,472400
2019-04-17,11.960000038146973,12.130000114440918,11.619999885559082,11.850000381469727,11.850000381469727,286900
2019-04-18,11.890000343322754,12.0,11.720000267028809,11.90999984741211,11.90999984741211,35200
2019-04-22,11.850000381469727,12.079999923706055,11.770000457763672,11.989999771118164,11.989999771118164,97100
2019-04-23,12.0,12.03499984741211,11.680000305175781,11.850000381469727,11.850000381469727,266900
2019-04-24,11.84000015258789,12.0,11.649999618530273,11.829999923706055,11.829999923706055,384300
2019-04-25,11.850000381469727,12.109999656677246,11.6899995803833,11.989999771118164,11.989999771118164,77300
2019-04-26,12.0,12.260000228881836,11.510000228881836,12.0600004196167,12.0600004196167,81200
2019-04-29,12.050000190734863,12.4399995803833,11.90999984741211,12.229999542236328,12.229999542236328,37000
2019-04-30,12.210000038146973,12.475000381469727,11.569999694824219,12.069999694824219,12.069999694824219,48100
2019-05-01,12.119999885559082,12.210000038146973,12.069999694824219,12.119999885559082,12.119999885559082,51100
2019-05-02,12.079999923706055,12.329999923706055,11.869999885559082,12.170000076293945,12.170000076293945,58900
2019-05-03,12.239999771118164,12.430000305175781,12.010000228881836,12.130000114440918,12.130000114440918,76400
2019-05-06,12.050000190734863,12.345000267028809,12.010000228881836,12.180000305175781,12.180000305175781,125400
2019-05-07,12.079999923706055,12.25,11.670000076293945,12.0,12.0,70800
2019-05-08,11.960000038146973,12.010000228881836,11.024999618530273,11.770000457763672,11.770000457763672,66200
2019-05-09,11.800000190734863,12.0600004196167,11.609999656677246,11.899999618530273,11.899999618530273,46700
2019-05-10,11.899999618530273,12.204999923706055,11.800000190734863,12.029999732971191,12.029999732971191,87400
2019-05-13,11.899999618530273,12.199999809265137,11.569999694824219,11.930000305175781,11.930000305175781,153500
2019-05-14,11.970000267028809,12.010000228881836,11.635000228881836,11.930000305175781,11.930000305175781,72000
2019-05-15,11.989999771118164,12.369999885559082,11.0,12.130000114440918,12.130000114440918,230000
2019-05-16,11.170000076293945,12.390000343322754,11.170000076293945,11.899999618530273,11.899999618530273,364900
2019-05-17,11.899999618530273,12.300000190734863,11.8149995803833,12.220000267028809,12.220000267028809,144500
2019-05-20,12.220000267028809,12.579999923706055,12.199999809265137,12.4399995803833,12.4399995803833,219400
2019-05-21,12.5600004196167,13.609999656677246,12.449999809265137,13.210000038146973,13.210000038146973,222800
2019-05-22,13.270000457763672,13.539999961853027,13.25,13.470000267028809,13.470000267028809,136000
2019-05-23,13.449999809265137,13.5,13.140000343322754,13.380000114440918,13.380000114440918,50000
2019-05-24,13.4399995803833,13.812000274658203,13.079999923706055,13.619999885559082,13.619999885559082,60400
2019-05-28,13.789999961853027,14.149999618530273,13.5,13.739999771118164,13.739999771118164,76500
2019-05-29,13.6899995803833,13.75,13.354999542236328,13.619999885559082,13.619999885559082,74500
2019-05-30,13.600000381469727,13.90999984741211,13.5,13.75,13.75,63700
2019-05-31,13.710000038146973,13.800000190734863,13.361000061035156,13.569999694824219,13.569999694824219,55000
2019-06-03,13.699999809265137,13.789999961853027,13.414999961853027,13.600000381469727,13.600000381469727,81500
2019-06-04,13.720000267028809,13.949999809265137,13.194999694824219,13.850000381469727,13.850000381469727,105500
2019-06-05,13.90999984741211,14.0,13.59000015258789,13.819999694824219,13.819999694824219,97100
2019-06-06,13.84000015258789,14.039999961853027,13.6899995803833,13.789999961853027,13.789999961853027,123000
2019-06-07,13.770000457763672,14.100000381469727,13.529999732971191,13.829999923706055,13.829999923706055,97600
2019-06-10,13.899999618530273,14.0,13.600000381469727,13.819999694824219,13.819999694824219,80800
2019-06-11,13.920000076293945,14.029999732971191,13.5600004196167,13.75,13.75,71300
2019-06-12,13.824999809265137,13.84000015258789,13.60099983215332,13.75,13.75,156000
2019-06-13,13.800000190734863,14.050000190734863,13.699999809265137,13.930000305175781,13.930000305175781,113100
2019-06-14,13.9399995803833,14.095000267028809,13.664999961853027,13.75,13.75,52200
2019-06-17,13.65999984741211,13.970000267028809,13.470000267028809,13.960000038146973,13.960000038146973,76700
2019-06-18,14.069999694824219,14.5600004196167,13.970000267028809,14.199999809265137,14.199999809265137,170100
2019-06-19,14.210000038146973,14.319999694824219,13.904999732971191,14.149999618530273,14.149999618530273,137100
2019-06-20,14.25,14.600000381469727,14.199999809265137,14.470000267028809,14.470000267028809,224700
2019-06-21,14.798999786376953,15.109999656677246,14.289999961853027,14.869999885559082,14.869999885559082,149900
2019-06-24,14.899999618530273,15.050000190734863,14.5600004196167,14.859999656677246,14.859999656677246,225300
2019-06-25,14.829999923706055,14.829999923706055,14.180000305175781,14.399999618530273,14.399999618530273,161300
2019-06-26,14.329999923706055,14.479999542236328,14.0,14.140000343322754,14.140000343322754,206500
2019-06-27,13.800000190734863,14.274999618530273,13.800000190734863,14.15999984741211,14.15999984741211,162000
2019-06-28,14.239999771118164,14.460000038146973,13.960000038146973,14.100000381469727,14.100000381469727,1797600
2019-07-01,14.100000381469727,14.789999961853027,14.04699993133545,14.649999618530273,14.649999618530273,347300
2019-07-02,14.600000381469727,14.720000267028809,14.460000038146973,14.600000381469727,14.600000381469727,125300
2019-07-03,14.6899995803833,14.6899995803833,14.399999618530273,14.619999885559082,14.619999885559082,27000
2019-07-05,14.239999771118164,14.600000381469727,14.239999771118164,14.520000457763672,14.520000457763672,51400
2019-07-08,14.520000457763672,14.550000190734863,14.39799976348877,14.479999542236328,14.479999542236328,125000
2019-07-09,14.5,14.680000305175781,14.390000343322754,14.569999694824219,14.569999694824219,200400
2019-07-10,14.579999923706055,14.65999984741211,14.260000228881836,14.300000190734863,14.300000190734863,121000
2019-07-11,14.255000114440918,14.5,14.029999732971191,14.390000343322754,14.390000343322754,103300
2019-07-12,14.399999618530273,14.640000343322754,14.25,14.430000305175781,14.430000305175781,229200
2019-07-15,14.40999984741211,14.65999984741211,14.180000305175781,14.420000076293945,14.420000076293945,120500
2019-07-16,14.489999771118164,14.5,14.279999732971191,14.4399995803833,14.4399995803833,122700
2019-07-17,14.550000190734863,14.555000305175781,14.270000457763672,14.279999732971191,14.279999732971191,84700
2019-07-18,14.300000190734863,14.420000076293945,14.15999984741211,14.3100004196167,14.3100004196167,64700
2019-07-19,14.279999732971191,14.279999732971191,14.020000457763672,14.09000015258789,14.09000015258789,129300
2019-07-22,14.020000457763672,14.300000190734863,13.920000076293945,14.079999923706055,14.079999923706055,88000
2019-07-23,13.989999771118164,14.140000343322754,13.8100004196167,14.119999885559082,14.119999885559082,166300
2019-07-24,14.069999694824219,14.359999656677246,13.949999809265137,14.329999923706055,14.329999923706055,72800
2019-07-25,14.0600004196167,14.289999961853027,13.979999542236328,14.100000381469727,14.100000381469727,145400
2019-07-26,14.109999656677246,14.319999694824219,13.979999542236328,14.069999694824219,14.069999694824219,58100
2019-07-29,14.109999656677246,14.1899995803833,13.890000343322754,14.079999923706055,14.079999923706055,65900
2019-07-30,13.880000114440918,14.130000114440918,13.52400016784668,13.850000381469727,13.850000381469727,148500
2019-07-31,14.3100004196167,14.329999923706055,13.84000015258789,13.84000015258789,13.84000015258789,66400
2019-08-01,13.84000015258789,14.347000122070312,13.75,13.84000015258789,13.84000015258789,252900
2019-08-02,13.819999694824219,13.914999961853027,13.510000228881836,13.6899995803833,13.6899995803833,85500
2019-08-05,13.520000457763672,13.609999656677246,13.260000228881836,13.40999984741211,13.40999984741211,147900
2019-08-06,13.420000076293945,13.630000114440918,13.319999694824219,13.380000114440918,13.380000114440918,106800
2019-08-07,13.279999732971191,13.569999694824219,13.100000381469727,13.380000114440918,13.380000114440918,76200
2019-08-08,13.449999809265137,14.100000381469727,13.449999809265137,13.979999542236328,13.979999542236328,172000
2019-08-09,14.75,14.75,13.758999824523926,14.430000305175781,14.430000305175781,122700
2019-08-12,14.399999618530273,14.399999618530273,14.09000015258789,14.380000114440918,14.380000114440918,86400
2019-08-13,14.390000343322754,14.649999618530273,14.119999885559082,14.489999771118164,14.489999771118164,253600
2019-08-14,14.430000305175781,14.430000305175781,13.930000305175781,14.15999984741211,14.15999984741211,60000
2019-08-15,14.15999984741211,14.640999794006348,13.960000038146973,14.109999656677246,14.109999656677246,50800
2019-08-16,14.1899995803833,14.430000305175781,14.0,14.300000190734863,14.300000190734863,190700
2019-08-19,14.430000305175781,14.699999809265137,14.359999656677246,14.5,14.5,238000
2019-08-20,14.5600004196167,14.680000305175781,14.34000015258789,14.40999984741211,14.40999984741211,41500
2019-08-21,14.5,14.5,14.0,14.149999618530273,14.149999618530273,118800
2019-08-22,14.100000381469727,14.199999809265137,13.819999694824219,13.970000267028809,13.970000267028809,28900
2019-08-23,13.800000190734863,13.989999771118164,13.420000076293945,13.579999923706055,13.579999923706055,62500
2019-08-26,13.229999542236328,13.600000381469727,13.0,13.529999732971191,13.529999732971191,119400
2019-08-27,13.850000381469727,14.100000381469727,13.649999618530273,13.850000381469727,13.850000381469727,188600
2019-08-28,13.800000190734863,14.100000381469727,13.430000305175781,13.619999885559082,13.619999885559082,84600
2019-08-29,13.5600004196167,13.640000343322754,13.020000457763672,13.09000015258789,13.09000015258789,90800
2019-08-30,13.229999542236328,13.300000190734863,12.869999885559082,13.039999961853027,13.039999961853027,63200
2019-09-03,12.989999771118164,13.020000457763672,12.579999923706055,12.970000267028809,12.970000267028809,83700
2019-09-04,13.270000457763672,13.656999588012695,12.930000305175781,13.479999542236328,13.479999542236328,276500
2019-09-05,13.579999923706055,14.350000381469727,13.050000190734863,14.199999809265137,14.199999809265137,283400
2019-09-06,14.210000038146973,14.449999809265137,13.949999809265137,14.149999618530273,14.149999618530273,204900
2019-09-09,14.140000343322754,14.5600004196167,13.270000457763672,13.600000381469727,13.600000381469727,426000
2019-09-10,11.949999809265137,12.630000114440918,11.5,12.479999542236328,12.479999542236328,703900
2019-09-11,12.5,13.020000457763672,12.199999809265137,13.0,13.0,463800
2019-09-12,14.0,14.449999809265137,13.489999771118164,14.0,14.0,2660900
2019-09-13,14.0,14.050000190734863,13.644000053405762,13.90999984741211,13.90999984741211,427700
2019-09-16,13.800000190734863,13.949999809265137,13.600000381469727,13.859999656677246,13.859999656677246,251800
2019-09-17,13.800000190734863,14.0,13.75,13.949999809265137,13.949999809265137,361600
2019-09-18,13.859999656677246,13.890000343322754,13.550000190734863,13.739999771118164,13.739999771118164,239900
2019-09-19,13.720000267028809,14.050000190734863,13.600000381469727,13.779999732971191,13.779999732971191,205700
2019-09-20,13.770000457763672,13.979999542236328,13.569999694824219,13.859999656677246,13.859999656677246,491200
2019-09-23,13.800000190734863,14.539999961853027,13.800000190734863,14.460000038146973,14.460000038146973,809300
2019-09-24,14.529999732971191,14.880000114440918,14.079999923706055,14.15999984741211,14.15999984741211,308400
2019-09-25,14.09000015258789,14.260000228881836,13.9399995803833,14.010000228881836,14.010000228881836,290800
2019-09-26,14.010000228881836,14.270000457763672,13.880000114440918,13.989999771118164,13.989999771118164,235000
2019-09-27,14.039999961853027,14.274999618530273,13.84000015258789,14.100000381469727,14.100000381469727,559100
2019-09-30,14.109999656677246,14.390000343322754,13.550000190734863,13.739999771118164,13.739999771118164,139300
2019-10-01,13.760000228881836,13.90999984741211,13.199999809265137,13.520000457763672,13.520000457763672,317500
2019-10-02,13.4399995803833,13.529999732971191,13.140000343322754,13.1899995803833,13.1899995803833,151400
2019-10-03,13.199999809265137,13.199999809265137,12.791999816894531,13.09000015258789,13.09000015258789,176400
2019-10-04,13.149999618530273,13.6899995803833,13.119999885559082,13.529999732971191,13.529999732971191,280100
2019-10-07,13.40999984741211,13.75,13.369999885559082,13.720000267028809,13.720000267028809,133300
2019-10-08,13.600000381469727,13.670000076293945,13.329999923706055,13.59000015258789,13.59000015258789,176900
2019-10-09,13.619999885559082,13.619999885559082,12.930000305175781,13.5,13.5,284300
2019-10-10,13.539999961853027,13.680000305175781,13.319999694824219,13.555000305175781,13.555000305175781,136100
2019-10-11,13.6899995803833,13.989999771118164,13.619999885559082,13.75,13.75,154900
2019-10-14,13.710000038146973,14.020000457763672,13.710000038146973,14.0,14.0,62800
2019-10-15,14.029999732971191,14.529999732971191,13.890000343322754,14.4399995803833,14.4399995803833,96500
2019-10-16,14.319999694824219,14.609999656677246,14.270000457763672,14.520000457763672,14.520000457763672,75700
2019-10-17,14.609999656677246,14.850000381469727,14.489999771118164,14.600000381469727,14.600000381469727,131400
2019-10-18,14.460000038146973,14.800000190734863,14.119999885559082,14.1899995803833,14.1899995803833,84800
2019-10-21,14.239999771118164,14.630000114440918,14.130000114440918,14.569999694824219,14.569999694824219,129700
2019-10-22,14.699999809265137,14.84000015258789,14.470000267028809,14.760000228881836,14.760000228881836,126800
2019-10-23,14.65999984741211,15.0,14.649999618530273,14.829999923706055,14.829999923706055,175100
2019-10-24,14.829999923706055,14.989999771118164,14.585000038146973,14.779999732971191,14.779999732971191,108200
2019-10-25,14.729999542236328,15.029999732971191,14.5,14.539999961853027,14.539999961853027,130200
2019-10-28,14.579999923706055,14.699999809265137,14.380000114440918,14.630000114440918,14.630000114440918,214700
2019-10-29,14.640000343322754,15.239999771118164,14.600000381469727,15.109999656677246,15.109999656677246,128800
2019-10-30,15.100000381469727,15.640000343322754,15.100000381469727,15.399999618530273,15.399999618530273,120100
2019-10-31,15.3100004196167,15.670000076293945,15.220000267028809,15.319999694824219,15.319999694824219,106400
2019-11-01,15.399999618530273,15.859999656677246,15.069999694824219,15.420000076293945,15.420000076293945,115900
2019-11-04,15.460000038146973,15.925000190734863,15.260000228881836,15.760000228881836,15.760000228881836,162100
2019-11-05,15.720000267028809,15.930000305175781,14.899999618530273,15.029999732971191,15.029999732971191,118200
2019-11-06,15.0,15.539999961853027,14.850000381469727,15.15999984741211,15.15999984741211,87400
2019-11-07,15.34000015258789,15.369999885559082,15.0,15.170000076293945,15.170000076293945,73000
2019-11-08,15.140000343322754,15.529999732971191,15.071000099182129,15.25,15.25,105600
2019-11-11,15.100000381469727,15.489999771118164,15.09000015258789,15.210000038146973,15.210000038146973,100900
2019-11-12,16.100000381469727,16.100000381469727,13.170000076293945,13.789999961853027,13.789999961853027,936300
2019-11-13,13.930000305175781,14.324999809265137,13.8100004196167,13.970000267028809,13.970000267028809,341900
2019-11-14,13.84000015258789,13.90999984741211,13.175000190734863,13.34000015258789,13.34000015258789,272700
2019-11-15,13.489999771118164,13.720999717712402,13.015000343322754,13.170000076293945,13.170000076293945,243400
2019-11-18,13.180000305175781,13.550000190734863,13.010000228881836,13.520000457763672,13.520000457763672,222500
2019-11-19,13.5,13.949999809265137,13.5,13.680000305175781,13.680000305175781,205800
2019-11-20,13.649999618530273,13.979999542236328,13.319999694824219,13.470000267028809,13.470000267028809,203400
2019-11-21,13.819999694824219,13.819999694824219,12.90999984741211,13.199999809265137,13.199999809265137,190700
2019-11-22,13.279999732971191,13.34000015258789,12.5600004196167,12.805000305175781,12.805000305175781,181800
2019-11-25,12.960000038146973,13.34000015258789,12.960000038146973,13.109999656677246,13.109999656677246,553100
2019-11-26,13.1899995803833,13.359999656677246,12.979999542236328,13.09000015258789,13.09000015258789,553400
2019-11-27,13.119999885559082,13.890000343322754,13.050000190734863,13.579999923706055,13.579999923706055,169700
2019-11-29,13.529999732971191,13.84000015258789,13.529999732971191,13.59000015258789,13.59000015258789,59100
2019-12-02,13.5,13.65999984741211,13.180000305175781,13.579999923706055,13.579999923706055,162300
2019-12-03,13.510000228881836,13.510000228881836,12.9399995803833,13.180000305175781,13.180000305175781,151400
2019-12-04,13.239999771118164,13.4399995803833,12.960000038146973,12.96500015258789,12.96500015258789,153700
2019-12-05,13.010000228881836,13.100000381469727,12.779999732971191,12.8100004196167,12.8100004196167,181700
2019-12-06,12.880000114440918,13.050000190734863,12.460000038146973,12.6899995803833,12.6899995803833,301000
2019-12-09,12.699999809265137,13.020000457763672,12.666000366210938,12.84000015258789,12.84000015258789,111300
2019-12-10,12.859999656677246,12.90999984741211,12.5600004196167,12.6899995803833,12.6899995803833,110600
2019-12-11,12.680000305175781,12.770000457763672,12.34000015258789,12.539999961853027,12.539999961853027,233800
2019-12-12,12.649999618530273,13.09000015258789,12.260000228881836,13.020000457763672,13.020000457763672,620200
2019-12-13,13.0600004196167,13.239999771118164,12.760000228881836,12.84000015258789,12.84000015258789,200100
2019-12-16,12.789999961853027,13.321999549865723,12.359999656677246,12.4399995803833,12.4399995803833,226400
2019-12-17,12.550000190734863,12.569999694824219,12.300000190734863,12.479999542236328,12.479999542236328,150700
2019-12-18,12.5,12.555000305175781,12.140000343322754,12.21500015258789,12.21500015258789,156100
2019-12-19,12.220000267028809,12.359999656677246,11.75,11.829999923706055,11.829999923706055,145900
2019-12-20,11.850000381469727,11.859999656677246,11.5,11.770000457763672,11.770000457763672,825500
2019-12-23,11.789999961853027,12.25,11.760000228881836,12.050000190734863,12.050000190734863,124000
2019-12-24,12.0600004196167,12.210000038146973,11.800000190734863,11.930000305175781,11.930000305175781,74200
2019-12-26,11.920000076293945,12.300000190734863,11.920000076293945,12.149999618530273,12.149999618530273,119400
2019-12-27,12.100000381469727,12.229999542236328,11.9399995803833,11.989999771118164,11.989999771118164,191100
2019-12-30,11.979999542236328,12.010000228881836,11.829999923706055,11.890000343322754,11.890000343322754,329800
2019-12-31,11.859999656677246,12.260000228881836,11.829999923706055,12.039999961853027,12.039999961853027,290900
2020-01-02,12.140000343322754,12.329999923706055,11.949999809265137,12.300000190734863,12.300000190734863,205200
2020-01-03,12.119999885559082,12.300000190734863,11.899999618530273,12.069999694824219,12.069999694824219,83400
2020-01-06,11.989999771118164,12.149999618530273,11.821999549865723,11.979999542236328,11.979999542236328,89500
2020-01-07,11.949999809265137,12.069999694824219,11.699999809265137,11.8100004196167,11.8100004196167,391500
2020-01-08,11.760000228881836,11.9399995803833,11.75,11.800000190734863,11.800000190734863,157800
2020-01-09,11.739999771118164,12.15999984741211,11.739999771118164,12.020000457763672,12.020000457763672,240100
2020-01-10,12.039999961853027,12.40999984741211,11.90999984741211,12.350000381469727,12.350000381469727,272400
2020-01-13,12.34000015258789,12.8100004196167,12.34000015258789,12.449999809265137,12.449999809265137,222700
2020-01-14,12.449999809265137,12.59000015258789,12.350000381469727,12.510000228881836,12.510000228881836,123900
2020-01-15,12.5,12.72700023651123,12.220000267028809,12.289999961853027,12.289999961853027,97700
2020-01-16,12.039999961853027,12.359999656677246,11.739999771118164,12.300000190734863,12.300000190734863,712400
2020-01-17,12.40999984741211,12.699999809265137,12.140000343322754,12.260000228881836,12.260000228881836,639200
2020-01-21,12.300000190734863,12.569999694824219,12.100000381469727,12.234999656677246,12.234999656677246,722700
2020-01-22,12.350000381469727,12.520000457763672,12.170000076293945,12.399999618530273,12.399999618530273,380500
2020-01-23,12.470000267028809,12.510000228881836,11.989999771118164,12.100000381469727,12.100000381469727,426600
2020-01-24,12.079999923706055,12.220000267028809,11.859999656677246,11.949999809265137,11.949999809265137,184500
2020-01-27,11.829999923706055,11.920000076293945,11.5,11.529999732971191,11.529999732971191,179000
2020-01-28,11.59000015258789,11.59000015258789,10.949999809265137,10.979999542236328,10.979999542236328,208700
2020-01-29,10.220000267028809,10.9399995803833,10.109999656677246,10.869999885559082,10.869999885559082,153400
2020-01-30,10.829999923706055,11.0600004196167,10.65999984741211,10.859999656677246,10.859999656677246,357400
2020-01-31,10.859999656677246,10.869999885559082,10.4399995803833,10.579999923706055,10.579999923706055,469300
2020-02-03,10.640000343322754,10.739999771118164,10.470000267028809,10.710000038146973,10.710000038146973,235500
2020-02-04,10.829999923706055,11.380000114440918,10.800000190734863,11.119999885559082,11.119999885559082,271700
2020-02-05,11.229999542236328,12.038000106811523,11.100000381469727,11.369999885559082,11.369999885559082,135900
2020-02-06,11.5,11.8100004196167,11.449999809265137,11.579999923706055,11.579999923706055,301700
2020-02-07,11.569999694824219,11.760000228881836,11.199999809265137,11.3100004196167,11.3100004196167,228200
2020-02-10,11.289999961853027,11.300000190734863,11.020000457763672,11.109999656677246,11.109999656677246,216200
2020-02-11,11.109999656677246,11.289999961853027,11.029999732971191,11.104999542236328,11.104999542236328,196800
2020-02-12,11.199999809265137,11.319999694824219,11.050000190734863,11.069999694824219,11.069999694824219,134200
2020-02-13,11.010000228881836,11.210000038146973,10.949999809265137,11.149999618530273,11.149999618530273,136200
2020-02-14,11.149999618530273,11.1899995803833,10.869999885559082,10.9399995803833,10.9399995803833,130700
2020-02-18,11.0,11.0,10.600000381469727,10.739999771118164,10.739999771118164,111600
2020-02-19,10.770000457763672,11.140000343322754,10.710000038146973,10.989999771118164,10.989999771118164,145700
2020-02-20,10.989999771118164,11.170000076293945,10.819999694824219,11.09000015258789,11.09000015258789,205600
2020-02-21,11.09000015258789,11.119999885559082,10.930000305175781,11.020000457763672,11.020000457763672,67400
2020-02-24,10.6899995803833,10.850000381469727,10.460000038146973,10.739999771118164,10.739999771118164,96200
2020-02-25,10.779999732971191,10.815999984741211,10.300000190734863,10.390000343322754,10.390000343322754,224300
2020-02-26,10.470000267028809,10.699999809265137,9.760000228881836,10.015000343322754,10.015000343322754,203600
2020-02-27,9.8100004196167,9.979999542236328,9.289999961853027,9.71500015258789,9.71500015258789,269000
2020-02-28,9.489999771118164,9.720000267028809,9.140000343322754,9.420000076293945,9.420000076293945,299600
2020-03-02,9.449999809265137,9.649999618530273,9.119999885559082,9.640000343322754,9.640000343322754,170400
2020-03-03,9.6899995803833,9.970000267028809,9.529999732971191,9.619999885559082,9.619999885559082,212900
2020-03-04,9.729999542236328,10.130000114440918,9.680000305175781,10.069999694824219,10.069999694824219,75500
2020-03-05,9.890000343322754,10.029999732971191,9.75,9.930000305175781,9.930000305175781,173000
2020-03-06,9.739999771118164,9.899999618530273,9.4399995803833,9.789999961853027,9.789999961853027,145700
2020-03-09,8.850000381469727,9.489999771118164,8.779999732971191,9.180000305175781,9.180000305175781,327500
2020-03-10,7.710000038146973,9.34000015258789,7.510000228881836,9.300000190734863,9.300000190734863,764600
2020-03-11,8.960000038146973,9.454999923706055,8.694999694824219,9.119999885559082,9.119999885559082,461900
2020-03-12,8.65999984741211,9.100000381469727,8.239999771118164,8.489999771118164,8.489999771118164,578900
2020-03-13,8.890000343322754,9.1899995803833,8.1899995803833,8.930000305175781,8.930000305175781,315300
2020-03-16,8.050000190734863,8.359999656677246,7.0,8.210000038146973,8.210000038146973,325200
2020-03-17,8.390000343322754,8.520000457763672,7.889999866485596,8.170000076293945,8.170000076293945,206000
2020-03-18,7.829999923706055,7.829999923706055,6.619999885559082,7.159999847412109,7.159999847412109,310100
2020-03-19,7.190000057220459,8.460000038146973,6.460000038146973,8.220000267028809,8.220000267028809,121000
2020-03-20,8.199999809265137,8.531999588012695,7.599999904632568,8.0,8.0,370600
2020-03-23,8.039999961853027,8.069999694824219,7.159999847412109,7.75,7.75,135600
2020-03-24,7.800000190734863,8.5,7.71999979019165,8.020000457763672,8.020000457763672,144000
2020-03-25,8.029999732971191,9.010000228881836,7.920000076293945,8.6899995803833,8.6899995803833,213900
2020-03-26,8.729999542236328,9.8100004196167,8.729999542236328,9.579999923706055,9.579999923706055,115200
2020-03-27,9.289999961853027,9.800000190734863,8.84000015258789,8.989999771118164,8.989999771118164,170800
2020-03-30,8.84000015258789,9.40999984741211,8.734999656677246,9.100000381469727,9.100000381469727,98400
2020-03-31,9.079999923706055,9.390000343322754,8.829999923706055,9.130000114440918,9.130000114440918,133900
2020-04-01,8.850000381469727,9.100000381469727,8.199999809265137,8.399999618530273,8.399999618530273,117700
2020-04-02,8.479999542236328,9.0,8.0,8.270000457763672,8.270000457763672,290300
2020-04-03,8.270000457763672,8.489999771118164,7.289999961853027,7.889999866485596,7.889999866485596,113600
2020-04-06,8.100000381469727,8.770000457763672,7.90500020980835,8.569999694824219,8.569999694824219,173400
2020-04-07,8.720000267028809,8.829999923706055,6.849999904632568,7.610000133514404,7.610000133514404,198600
2020-04-08,7.599999904632568,8.300000190734863,7.599999904632568,8.079999923706055,8.079999923706055,159100
2020-04-09,8.079999923706055,8.649999618530273,8.079999923706055,8.300000190734863,8.300000190734863,120100
2020-04-13,8.25,8.75,7.869999885559082,8.100000381469727,8.100000381469727,51100
2020-04-14,8.270000457763672,8.680000305175781,8.199999809265137,8.619999885559082,8.619999885559082,87000
2020-04-15,8.390000343322754,8.449999809265137,7.690000057220459,8.210000038146973,8.210000038146973,67600
2020-04-16,8.239999771118164,8.3100004196167,7.510000228881836,7.739999771118164,7.739999771118164,103600
2020-04-17,8.0,8.529999732971191,7.949999809265137,8.25,8.25,100600
2020-04-20,8.109999656677246,8.25,7.650000095367432,7.909999847412109,7.909999847412109,44400
2020-04-21,7.699999809265137,8.220000267028809,7.630000114440918,7.670000076293945,7.670000076293945,78700
2020-04-22,7.840000152587891,8.0600004196167,7.670000076293945,7.809999942779541,7.809999942779541,80500
2020-04-23,7.809999942779541,8.130000114440918,7.670000076293945,7.739999771118164,7.739999771118164,98400
2020-04-24,7.800000190734863,7.815000057220459,7.440000057220459,7.570000171661377,7.570000171661377,66400
2020-04-27,7.679999828338623,7.889999866485596,7.447000026702881,7.829999923706055,7.829999923706055,56100
2020-04-28,7.900000095367432,8.670000076293945,7.880000114440918,8.460000038146973,8.460000038146973,180000
2020-04-29,8.729999542236328,9.0600004196167,8.460000038146973,8.90999984741211,8.90999984741211,372600
2020-04-30,8.8100004196167,8.899999618530273,8.0,8.079999923706055,8.079999923706055,103000
2020-05-01,8.630000114440918,11.383999824523926,8.630000114440918,10.0,10.0,1047600
2020-05-04,10.079999923706055,10.149999618530273,9.0,9.529999732971191,9.529999732971191,192600
2020-05-05,9.460000038146973,10.246000289916992,9.359999656677246,9.649999618530273,9.649999618530273,500500
2020-05-06,9.880000114440918,10.199999809265137,9.609999656677246,9.869999885559082,9.869999885559082,186600
2020-05-07,10.0600004196167,10.329999923706055,9.859999656677246,9.90999984741211,9.90999984741211,118900
2020-05-08,9.989999771118164,10.319999694824219,9.779000282287598,10.079999923706055,10.079999923706055,85500
2020-05-11,9.899999618530273,10.25,9.8100004196167,9.890000343322754,9.890000343322754,115000
2020-05-12,9.829999923706055,9.899999618530273,8.930000305175781,9.050000190734863,9.050000190734863,106900
2020-05-13,8.930000305175781,9.239999771118164,8.729999542236328,8.979999542236328,8.979999542236328,111300
2020-05-14,8.649999618530273,9.40999984741211,8.5,9.170000076293945,9.170000076293945,146100
2020-05-15,9.229999542236328,10.119999885559082,8.989999771118164,10.020000457763672,10.020000457763672,217800
2020-05-18,10.149999618530273,10.850000381469727,10.109999656677246,10.729999542236328,10.729999542236328,128400
2020-05-19,10.619999885559082,11.0,10.449999809265137,10.479999542236328,10.479999542236328,89500
2020-05-20,10.609999656677246,11.140000343322754,10.609999656677246,11.039999961853027,11.039999961853027,93000
2020-05-21,11.0,11.149999618530273,10.460000038146973,10.539999961853027,10.539999961853027,56900
2020-05-22,10.609999656677246,10.664999961853027,10.100000381469727,10.59000015258789,10.59000015258789,49400
2020-05-26,11.029999732971191,11.399999618530273,10.920000076293945,11.0,11.0,115600
2020-05-27,11.220000267028809,11.649999618530273,10.9399995803833,11.550000190734863,11.550000190734863,120100
2020-05-28,11.670000076293945,11.739999771118164,11.199999809265137,11.229999542236328,11.229999542236328,82000
2020-05-29,11.130000114440918,11.439000129699707,10.989999771118164,11.029999732971191,11.029999732971191,118300
2020-06-01,11.079999923706055,11.4399995803833,11.029999732971191,11.180000305175781,11.180000305175781,94900
2020-06-02,11.220000267028809,12.140000343322754,11.220000267028809,11.84000015258789,11.84000015258789,243000
2020-06-03,12.140000343322754,12.199999809265137,11.710000038146973,11.850000381469727,11.850000381469727,206300
2020-06-04,11.739999771118164,12.239999771118164,11.489999771118164,11.859999656677246,11.859999656677246,122400
2020-06-05,12.109999656677246,12.989999771118164,12.109999656677246,12.449999809265137,12.449999809265137,132200
2020-06-08,12.800000190734863,13.170000076293945,12.539999961853027,12.880000114440918,12.880000114440918,163400
2020-06-09,12.729999542236328,12.880000114440918,12.359999656677246,12.470000267028809,12.470000267028809,89900
2020-06-10,12.420000076293945,13.3100004196167,12.199999809265137,12.800000190734863,12.800000190734863,149000
2020-06-11,12.369999885559082,12.390000343322754,11.680000305175781,12.279999732971191,12.279999732971191,169200
2020-06-12,12.630000114440918,12.760000228881836,11.859999656677246,12.109999656677246,12.109999656677246,156700
2020-06-15,11.760000228881836,12.425000190734863,11.760000228881836,12.239999771118164,12.239999771118164,242200
2020-06-16,12.640000343322754,12.6899995803833,12.074999809265137,12.270000457763672,12.270000457763672,79300
2020-06-17,12.329999923706055,12.380000114440918,11.800000190734863,11.859999656677246,11.859999656677246,70600
2020-06-18,11.75,12.039999961853027,11.609999656677246,11.890000343322754,11.890000343322754,70200
2020-06-19,12.039999961853027,12.109999656677246,11.75,11.90999984741211,11.90999984741211,163400
2020-06-22,11.880000114440918,12.114999771118164,11.8100004196167,11.899999618530273,11.899999618530273,74400
2020-06-23,12.010000228881836,12.100000381469727,11.21399974822998,12.020000457763672,12.020000457763672,66700
2020-06-24,11.899999618530273,12.010000228881836,11.510000228881836,11.579999923706055,11.579999923706055,140100
2020-06-25,11.550000190734863,12.079999923706055,11.550000190734863,11.9399995803833,11.9399995803833,121400
2020-06-26,11.819999694824219,12.5,11.75,12.449999809265137,12.449999809265137,595000
2020-06-29,12.579999923706055,12.630000114440918,11.930000305175781,12.140000343322754,12.140000343322754,111900
2020-06-30,12.1899995803833,12.859999656677246,12.039999961853027,12.460000038146973,12.460000038146973,148600
2020-07-01,12.569999694824219,12.760000228881836,12.119999885559082,12.40999984741211,12.40999984741211,108000
2020-07-02,12.520000457763672,12.890000343322754,12.265000343322754,12.399999618530273,12.399999618530273,94800
2020-07-06,12.59000015258789,12.850000381469727,12.199999809265137,12.489999771118164,12.489999771118164,117600
2020-07-07,12.529999732971191,12.675000190734863,12.390999794006348,12.399999618530273,12.399999618530273,94500
2020-07-08,12.430000305175781,12.670000076293945,12.300000190734863,12.550000190734863,12.550000190734863,65100
2020-07-09,12.520000457763672,12.699999809265137,12.430000305175781,12.520000457763672,12.520000457763672,269600
2020-07-10,12.569999694824219,12.850000381469727,12.359999656677246,12.84000015258789,12.84000015258789,99500
2020-07-13,12.850000381469727,13.329999923706055,12.420000076293945,12.470000267028809,12.470000267028809,107300
2020-07-14,12.5,12.59000015258789,12.289999961853027,12.5600004196167,12.5600004196167,55800
2020-07-15,12.770000457763672,13.350000381469727,12.729999542236328,13.319999694824219,13.319999694824219,119000
2020-07-16,13.319999694824219,13.390000343322754,13.0,13.220000267028809,13.220000267028809,145800
2020-07-17,13.15999984741211,13.260000228881836,13.0,13.199999809265137,13.199999809265137,65600
2020-07-20,13.25,13.40999984741211,13.149999618530273,13.300000190734863,13.300000190734863,104600
2020-07-21,13.4399995803833,13.737000465393066,13.079999923706055,13.520000457763672,13.520000457763672,110200
2020-07-22,13.489999771118164,13.82800006866455,13.430000305175781,13.699999809265137,13.699999809265137,79600
2020-07-23,13.630000114440918,13.930000305175781,13.510000228881836,13.649999618530273,13.649999618530273,51500
2020-07-24,13.699999809265137,13.699999809265137,13.239999771118164,13.350000381469727,13.350000381469727,48500
2020-07-27,13.350000381469727,13.6899995803833,13.100000381469727,13.279999732971191,13.279999732971191,56100
2020-07-28,13.3100004196167,13.5,13.260000228881836,13.270000457763672,13.270000457763672,69400
2020-07-29,13.279999732971191,13.579999923706055,13.154999732971191,13.274999618530273,13.274999618530273,184600
2020-07-30,13.170000076293945,13.640000343322754,13.085000038146973,13.390000343322754,13.390000343322754,56300
2020-07-31,13.449999809265137,13.539999961853027,13.15999984741211,13.479999542236328,13.479999542236328,96000
2020-08-03,13.619999885559082,14.130000114440918,13.569999694824219,13.979999542236328,13.979999542236328,62200
2020-08-04,13.850000381469727,14.4399995803833,13.140000343322754,14.199999809265137,14.199999809265137,132500
2020-08-05,15.5,17.413999557495117,15.399999618530273,16.540000915527344,16.540000915527344,384200
2020-08-06,16.700000762939453,16.950000762939453,16.5,16.760000228881836,16.760000228881836,169900
2020-08-07,16.600000381469727,17.875,16.520000457763672,17.59000015258789,17.59000015258789,216200
2020-08-10,17.780000686645508,18.079999923706055,17.290000915527344,17.399999618530273,17.399999618530273,185400
2020-08-11,17.5,17.5,16.799999237060547,16.940000534057617,16.940000534057617,210100
2020-08-12,17.1299991607666,17.200000762939453,16.8799991607666,16.969999313354492,16.969999313354492,228700
2020-08-13,16.84000015258789,16.93000030517578,16.565000534057617,16.6299991607666,16.6299991607666,193500
2020-08-14,16.5,18.25,16.010000228881836,18.1299991607666,18.1299991607666,1096900
2020-08-17,18.479999542236328,18.479999542236328,17.25,17.670000076293945,17.670000076293945,489000
2020-08-18,18.100000381469727,18.690000534057617,17.735000610351562,17.790000915527344,17.790000915527344,273600
2020-08-19,17.700000762939453,18.0,17.40999984741211,17.639999389648438,17.639999389648438,207000
2020-08-20,17.459999084472656,18.229999542236328,17.440000534057617,18.010000228881836,18.010000228881836,220900
2020-08-21,17.889999389648438,18.389999389648438,17.760000228881836,18.239999771118164,18.239999771118164,286000
2020-08-24,18.600000381469727,18.6299991607666,17.260000228881836,17.40999984741211,17.40999984741211,172900
2020-08-25,17.3799991607666,17.850000381469727,17.3799991607666,17.795000076293945,17.795000076293945,111800
2020-08-26,17.59000015258789,17.65999984741211,17.06999969482422,17.209999084472656,17.209999084472656,83300
2020-08-27,17.219999313354492,17.399999618530273,17.049999237060547,17.200000762939453,17.200000762939453,68600
2020-08-28,17.3799991607666,17.40999984741211,17.1299991607666,17.290000915527344,17.290000915527344,153600
2020-08-31,17.329999923706055,17.329999923706055,16.59000015258789,16.920000076293945,16.920000076293945,330000
2020-09-01,16.719999313354492,17.299999237060547,16.540000915527344,16.989999771118164,16.989999771118164,303200
2020-09-02,17.219999313354492,17.399999618530273,16.860000610351562,17.350000381469727,17.350000381469727,222600
2020-09-03,17.290000915527344,17.3799991607666,16.149999618530273,16.219999313354492,16.219999313354492,199200
2020-09-04,16.459999084472656,16.799999237060547,16.09000015258789,16.56999969482422,16.56999969482422,196100
2020-09-08,16.139999389648438,16.8700008392334,16.139999389648438,16.579999923706055,16.579999923706055,295500
2020-09-09,16.850000381469727,17.020000457763672,16.399999618530273,16.93000030517578,16.93000030517578,486600
2020-09-10,17.059999465942383,17.260000228881836,16.375,16.549999237060547,16.549999237060547,265300
2020-09-11,16.530000686645508,16.976999282836914,16.469999313354492,16.540000915527344,16.540000915527344,408800
2020-09-14,16.700000762939453,18.360000610351562,16.67799949645996,16.709999084472656,16.709999084472656,1500100
2020-09-15,16.770000457763672,17.559999465942383,14.66100025177002,15.09000015258789,15.09000015258789,1276900
2020-09-16,15.210000038146973,15.53499984741211,14.800000190734863,15.149999618530273,15.149999618530273,386700
2020-09-17,15.069999694824219,15.579999923706055,14.869999885559082,15.140000343322754,15.140000343322754,509800
2020-09-18,15.270000457763672,15.595000267028809,14.845000267028809,14.979999542236328,14.979999542236328,1581400
2020-09-21,14.770000457763672,15.020000457763672,14.375,14.949999809265137,14.949999809265137,439300
2020-09-22,15.0,15.369999885559082,14.9350004196167,15.329999923706055,15.329999923706055,218700
2020-09-23,15.270000457763672,15.479999542236328,14.720000267028809,14.880000114440918,14.880000114440918,313200
2020-09-24,14.899999618530273,15.180000305175781,14.619999885559082,14.800000190734863,14.800000190734863,189000
2020-09-25,14.770000457763672,15.130000114440918,14.640000343322754,15.0,15.0,170800
2020-09-28,15.039999961853027,15.454999923706055,15.039999961853027,15.40999984741211,15.40999984741211,152100
2020-09-29,15.4399995803833,15.989999771118164,15.229999542236328,15.8149995803833,15.8149995803833,323500
2020-09-30,14.510000228881836,14.720000267028809,13.680000305175781,14.364999771118164,14.364999771118164,1035200
2020-10-01,14.0,14.670000076293945,13.850000381469727,13.9399995803833,13.9399995803833,2584200
2020-10-02,13.850000381469727,14.359999656677246,13.600000381469727,14.15999984741211,14.15999984741211,476800
2020-10-05,14.229999542236328,14.600000381469727,14.135000228881836,14.489999771118164,14.489999771118164,195800
2020-10-06,14.520000457763672,14.649999618530273,13.949999809265137,14.029999732971191,14.029999732971191,773300
2020-10-07,14.210000038146973,14.4399995803833,13.9399995803833,14.114999771118164,14.114999771118164,401800
2020-10-08,14.210000038146973,14.359999656677246,14.149999618530273,14.229999542236328,14.229999542236328,215600
2020-10-09,14.399999618530273,14.444999694824219,13.960000038146973,14.1899995803833,14.1899995803833,392200
2020-10-12,14.210000038146973,14.5,14.100000381469727,14.34000015258789,14.34000015258789,175600
2020-10-13,14.279999732971191,14.850000381469727,14.031000137329102,14.609999656677246,14.609999656677246,350500
2020-10-14,14.619999885559082,15.020000457763672,14.350000381469727,14.90999984741211,14.90999984741211,268800
2020-10-15,14.34000015258789,15.085000038146973,14.34000015258789,14.930000305175781,14.930000305175781,225600
2020-10-16,14.890000343322754,15.25,14.805000305175781,15.020000457763672,15.020000457763672,261700
2020-10-19,15.1899995803833,15.420000076293945,15.050000190734863,15.109999656677246,15.109999656677246,257600
2020-10-20,15.270000457763672,15.670000076293945,15.069999694824219,15.399999618530273,15.399999618530273,187700
2020-10-21,15.449999809265137,15.829999923706055,15.25,15.5600004196167,15.5600004196167,355800
2020-10-22,15.529999732971191,15.894000053405762,14.829999923706055,14.989999771118164,14.989999771118164,167400
2020-10-23,15.149999618530273,15.4399995803833,14.930000305175781,15.25,15.25,159700
2020-10-26,15.149999618530273,15.210000038146973,14.40999984741211,14.569999694824219,14.569999694824219,236300
2020-10-27,14.305000305175781,14.829999923706055,14.119999885559082,14.489999771118164,14.489999771118164,156800
2020-10-28,14.319999694824219,14.329999923706055,13.960000038146973,14.130000114440918,14.130000114440918,145200
2020-10-29,14.180000305175781,14.609999656677246,14.100000381469727,14.539999961853027,14.539999961853027,271000
2020-10-30,14.539999961853027,14.600000381469727,13.699999809265137,13.90999984741211,13.90999984741211,227500
2020-11-02,13.9399995803833,14.329999923706055,13.75,14.050000190734863,14.050000190734863,199900
2020-11-03,14.260000228881836,15.130000114440918,14.010000228881836,15.0600004196167,15.0600004196167,361400
2020-11-04,14.710000038146973,16.059999465942383,13.920999526977539,15.65999984741211,15.65999984741211,383200
2020-11-05,15.819999694824219,16.5,15.5600004196167,15.6899995803833,15.6899995803833,361400
2020-11-06,15.729999542236328,16.075000762939453,15.539999961853027,15.970000267028809,15.970000267028809,236300
2020-11-09,15.960000038146973,16.854999542236328,15.680000305175781,16.3700008392334,16.3700008392334,315600
2020-11-10,16.450000762939453,16.510000228881836,15.979999542236328,16.010000228881836,16.010000228881836,250800
2020-11-11,16.15999984741211,16.399999618530273,15.970000267028809,16.25,16.25,96000
2020-11-12,15.949999809265137,16.200000762939453,15.770000457763672,15.899999618530273,15.899999618530273,118000
2020-11-13,16.239999771118164,16.31999969482422,15.960000038146973,16.059999465942383,16.059999465942383,187500
2020-11-16,16.395000457763672,16.395000457763672,16.010000228881836,16.09000015258789,16.09000015258789,126200
2020-11-17,16.0,16.079999923706055,15.649999618530273,15.859999656677246,15.859999656677246,160700
2020-11-18,15.949999809265137,16.190000534057617,15.619999885559082,15.680000305175781,15.680000305175781,210000
2020-11-19,15.760000228881836,15.949999809265137,15.609999656677246,15.890000343322754,15.890000343322754,121500
2020-11-20,15.75,16.049999237060547,15.5,15.779999732971191,15.779999732971191,134200
2020-11-23,15.90999984741211,16.114999771118164,15.90999984741211,16.049999237060547,16.049999237060547,431400
2020-11-24,16.190000534057617,16.871000289916992,16.020000457763672,16.170000076293945,16.170000076293945,262500
2020-11-25,16.1299991607666,16.25,15.899999618530273,16.020000457763672,16.020000457763672,127600
2020-11-27,16.110000610351562,16.139999389648438,15.720000267028809,16.0,16.0,92900
2020-11-30,15.930000305175781,16.020000457763672,15.670000076293945,15.739999771118164,15.739999771118164,235200
2020-12-01,15.850000381469727,16.290000915527344,15.73799991607666,15.885000228881836,15.885000228881836,253600
2020-12-02,15.539999961853027,16.040000915527344,15.539999961853027,15.819999694824219,15.819999694824219,309700
2020-12-03,15.84000015258789,15.970000267028809,15.5,15.5,15.5,162000
2020-12-04,15.600000381469727,15.90999984741211,15.4399995803833,15.600000381469727,15.600000381469727,173200
2020-12-07,15.5600004196167,16.149999618530273,15.5,16.049999237060547,16.049999237060547,176400
2020-12-08,15.920000076293945,16.479999542236328,15.770000457763672,16.43000030517578,16.43000030517578,124000
2020-12-09,16.530000686645508,16.6200008392334,16.104999542236328,16.31999969482422,16.31999969482422,171100
2020-12-10,16.18000030517578,16.739999771118164,15.979999542236328,16.610000610351562,16.610000610351562,126100
2020-12-11,16.489999771118164,16.799999237060547,16.360000610351562,16.719999313354492,16.719999313354492,130000
2020-12-14,16.75,17.25,16.510000228881836,16.6200008392334,16.6200008392334,125600
2020-12-15,16.6200008392334,16.7549991607666,16.309999465942383,16.719999313354492,16.719999313354492,167000
2020-12-16,16.729999542236328,17.0,16.729999542236328,16.780000686645508,16.780000686645508,162400
2020-12-17,16.899999618530273,17.200000762939453,16.799999237060547,16.8700008392334,16.8700008392334,171700
2020-12-18,16.950000762939453,17.200000762939453,16.3799991607666,16.440000534057617,16.440000534057617,1018200
2020-12-21,16.084999084472656,16.75,15.920000076293945,16.100000381469727,16.100000381469727,137700
2020-12-22,16.100000381469727,16.200000762939453,15.619999885559082,15.720000267028809,15.720000267028809,122100
2020-12-23,15.8100004196167,15.850000381469727,15.520000457763672,15.579999923706055,15.579999923706055,150300
2020-12-24,16.15999984741211,16.15999984741211,15.510000228881836,15.850000381469727,15.850000381469727,43800
2020-12-28,15.9399995803833,15.9399995803833,15.630000114440918,15.65999984741211,15.65999984741211,79200
2020-12-29,15.699999809265137,15.829999923706055,15.5,15.680000305175781,15.680000305175781,100300
2020-12-30,15.670000076293945,15.899999618530273,15.65999984741211,15.680000305175781,15.680000305175781,134700
