Date,Open,High,Low,Close,Adj Close,Volume
2017-05-12,21.25,21.299999237060547,20.270000457763672,21.100000381469727,16.67574691772461,10933700
2017-05-15,21.010000228881836,22.299999237060547,21.010000228881836,22.020000457763672,17.4028377532959,3487300
2017-05-16,22.190000534057617,22.40999984741211,22.049999237060547,22.100000381469727,17.466062545776367,1289300
2017-05-17,22.149999618530273,22.510000228881836,21.670000076293945,22.100000381469727,17.466062545776367,1583700
2017-05-18,22.190000534057617,23.6299991607666,21.979999542236328,22.5,17.782188415527344,4075200
2017-05-19,22.559999465942383,23.489999771118164,22.31999969482422,22.719999313354492,17.9560604095459,1248600
2017-05-22,22.799999237060547,23.09000015258789,22.520000457763672,22.889999389648438,18.09041404724121,383100
2017-05-23,22.989999771118164,23.610000610351562,22.649999618530273,23.450000762939453,18.532991409301758,704000
2017-05-24,23.540000915527344,23.593000411987305,23.010000228881836,23.350000381469727,18.453962326049805,408800
2017-05-25,23.420000076293945,23.81999969482422,22.309999465942383,22.510000228881836,17.790090560913086,1080700
2017-05-26,22.549999237060547,23.239999771118164,22.354999542236328,23.030000686645508,18.201061248779297,721100
2017-05-30,23.0,23.290000915527344,22.59000015258789,22.950000762939453,18.137836456298828,843100
2017-05-31,22.969999313354492,23.18000030517578,22.670000076293945,22.93000030517578,18.122028350830078,484400
2017-06-01,22.90999984741211,23.434999465942383,22.809999465942383,22.93000030517578,18.122028350830078,486400
2017-06-02,22.889999389648438,23.100000381469727,22.600000381469727,22.649999618530273,17.90073585510254,546600
2017-06-05,22.610000610351562,22.90999984741211,21.920000076293945,22.6299991607666,17.884933471679688,422200
2017-06-06,21.829999923706055,22.709999084472656,21.829999923706055,22.290000915527344,17.616226196289062,1089500
2017-06-07,22.399999618530273,22.790000915527344,21.56999969482422,21.760000228881836,17.511606216430664,733500
2017-06-08,21.75,21.93000030517578,21.610000610351562,21.649999618530273,17.423080444335938,432600
2017-06-09,21.68000030517578,22.81999969482422,21.68000030517578,22.489999771118164,18.099079132080078,565900
2017-06-12,22.459999084472656,23.579999923706055,21.889999389648438,23.030000686645508,18.53365135192871,826200
2017-06-13,22.989999771118164,24.239999771118164,22.799999237060547,23.489999771118164,18.90384292602539,927300
2017-06-14,23.56999969482422,23.709999084472656,22.549999237060547,23.25,18.71070098876953,1988500
2017-06-15,23.079999923706055,24.549999237060547,22.770000457763672,22.989999771118164,18.501461029052734,1510300
2017-06-16,23.0,24.0,23.0,23.920000076293945,19.24989128112793,2465600
2017-06-19,24.059999465942383,24.209999084472656,23.540000915527344,23.920000076293945,19.24989128112793,460200
2017-06-20,23.719999313354492,23.719999313354492,22.209999084472656,22.6200008392334,18.20370101928711,1043700
2017-06-21,22.540000915527344,22.7450008392334,20.6299991607666,20.719999313354492,16.674652099609375,1275400
2017-06-22,20.719999313354492,21.06999969482422,19.90999984741211,21.059999465942383,16.948266983032227,1321900
2017-06-23,21.030000686645508,21.104999542236328,20.239999771118164,20.469999313354492,16.473459243774414,3690400
2017-06-26,20.420000076293945,21.049999237060547,20.079999923706055,20.5,16.497608184814453,790800
2017-06-27,20.559999465942383,21.6299991607666,20.420000076293945,21.290000915527344,17.133365631103516,1029100
2017-06-28,21.280000686645508,21.639999389648438,21.139999389648438,21.270000457763672,17.117271423339844,737600
2017-06-29,21.329999923706055,21.540000915527344,21.040000915527344,21.43000030517578,17.246030807495117,796200
2017-06-30,21.540000915527344,21.739999771118164,21.239999771118164,21.610000610351562,17.390892028808594,250800
2017-07-03,21.75,22.399999618530273,21.389999389648438,22.34000015258789,17.97836685180664,396500
2017-07-05,22.3799991607666,22.40999984741211,21.760000228881836,21.81999969482422,17.55988883972168,765800
2017-07-06,21.610000610351562,21.610000610351562,20.895000457763672,20.969999313354492,16.875843048095703,1184400
2017-07-07,20.989999771118164,21.219999313354492,20.579999923706055,20.670000076293945,16.634414672851562,953900
2017-07-10,20.6299991607666,21.479999542236328,20.549999237060547,21.34000015258789,17.173603057861328,826900
2017-07-11,21.229999542236328,21.799999237060547,21.020000457763672,21.729999542236328,17.48746109008789,656100
2017-07-12,21.780000686645508,22.34000015258789,21.729999542236328,22.1299991607666,17.80936622619629,1091800
2017-07-13,22.110000610351562,22.260000228881836,21.860000610351562,22.059999465942383,17.75303077697754,1577700
2017-07-14,22.1299991607666,22.290000915527344,21.989999771118164,22.079999923706055,17.769128799438477,211300
2017-07-17,22.059999465942383,23.1200008392334,21.92300033569336,22.969999313354492,18.485363006591797,1357100
2017-07-18,22.829999923706055,23.209999084472656,22.809999465942383,23.040000915527344,18.54170036315918,962700
2017-07-19,23.030000686645508,23.420000076293945,23.0,23.420000076293945,18.847505569458008,742400
2017-07-20,23.40999984741211,23.6200008392334,23.0,23.549999237060547,18.952123641967773,454400
2017-07-21,23.440000534057617,23.690000534057617,22.81999969482422,23.010000228881836,18.51755714416504,1163200
2017-07-24,22.93000030517578,23.149999618530273,22.709999084472656,23.139999389648438,18.622173309326172,724400
2017-07-25,23.280000686645508,23.559999465942383,22.989999771118164,23.450000762939453,18.87164878845215,1832300
2017-07-26,23.600000381469727,23.600000381469727,22.639999389648438,22.81999969482422,18.364646911621094,781200
2017-07-27,22.809999465942383,23.25,22.7450008392334,23.229999542236328,18.694602966308594,314200
2017-07-28,23.079999923706055,23.219999313354492,22.8799991607666,23.09000015258789,18.58193588256836,260800
2017-07-31,23.229999542236328,23.229999542236328,22.90999984741211,22.959999084472656,18.477317810058594,536900
2017-08-01,23.0,23.0,22.389999389648438,22.5,18.10712432861328,998200
2017-08-02,22.5,23.1299991607666,22.5,23.020000457763672,18.525598526000977,1444100
2017-08-03,23.829999923706055,23.996999740600586,22.959999084472656,23.260000228881836,18.718746185302734,2650300
2017-08-04,23.459999084472656,24.079999923706055,23.290000915527344,24.06999969482422,19.370603561401367,809600
2017-08-07,24.09000015258789,24.34000015258789,23.739999771118164,24.040000915527344,19.346458435058594,1039100
2017-08-08,24.059999465942383,24.290000915527344,23.729999542236328,24.1299991607666,19.418888092041016,626700
2017-08-09,24.040000915527344,24.06399917602539,23.479999542236328,23.600000381469727,18.99236488342285,296800
2017-08-10,23.389999389648438,23.389999389648438,22.520000457763672,22.65999984741211,18.23588752746582,1247900
2017-08-11,22.280000686645508,22.90999984741211,22.280000686645508,22.68000030517578,18.251985549926758,605300
2017-08-14,22.889999389648438,23.190000534057617,22.15999984741211,22.59000015258789,18.17955780029297,970300
2017-08-15,22.690000534057617,22.799999237060547,22.549999237060547,22.690000534057617,18.26003074645996,1061900
2017-08-16,22.799999237060547,22.8700008392334,22.59000015258789,22.75,18.308317184448242,536300
2017-08-17,22.600000381469727,22.809999465942383,21.979999542236328,22.0,17.704744338989258,417900
2017-08-18,21.90999984741211,22.18000030517578,21.760000228881836,21.969999313354492,17.68060302734375,506400
2017-08-21,22.65999984741211,22.899999618530273,22.135000228881836,22.389999389648438,18.018604278564453,714000
2017-08-22,22.520000457763672,22.850000381469727,22.399999618530273,22.780000686645508,18.332462310791016,245100
2017-08-23,22.579999923706055,23.065000534057617,22.579999923706055,22.959999084472656,18.477317810058594,612400
2017-08-24,22.979999542236328,22.979999542236328,22.635000228881836,22.700000762939453,18.26807975769043,230300
2017-08-25,22.81999969482422,23.040000915527344,22.709999084472656,22.979999542236328,18.493412017822266,572300
2017-08-28,23.06999969482422,23.06999969482422,22.7450008392334,22.950000762939453,18.46927261352539,355200
2017-08-29,22.809999465942383,23.18000030517578,22.68000030517578,23.059999465942383,18.55779457092285,262200
2017-08-30,22.950000762939453,23.309999465942383,22.889999389648438,23.299999237060547,18.750934600830078,368500
2017-08-31,23.469999313354492,23.829999923706055,23.290000915527344,23.489999771118164,18.90384292602539,382200
2017-09-01,23.700000762939453,23.950000762939453,23.670000076293945,23.700000762939453,19.07284164428711,465500
2017-09-05,23.780000686645508,23.8700008392334,22.940000534057617,23.1200008392334,18.6060791015625,450300
2017-09-06,23.31999969482422,23.489999771118164,22.920000076293945,23.350000381469727,18.791173934936523,400600
2017-09-07,23.43000030517578,23.68000030517578,23.18000030517578,23.610000610351562,19.37378692626953,247300
2017-09-08,23.530000686645508,23.93000030517578,23.5,23.760000228881836,19.496870040893555,404100
2017-09-11,23.950000762939453,24.399999618530273,23.84000015258789,23.889999389648438,19.60354232788086,386700
2017-09-12,24.059999465942383,25.049999237060547,23.8700008392334,24.530000686645508,20.12871551513672,655500
2017-09-13,24.579999923706055,24.799999237060547,24.520000457763672,24.670000076293945,20.243593215942383,331100
2017-09-14,24.68000030517578,25.06999969482422,24.56999969482422,24.969999313354492,20.489763259887695,480400
2017-09-15,25.0,25.15999984741211,24.760000228881836,25.09000015258789,20.588237762451172,517200
2017-09-18,25.170000076293945,26.0,25.170000076293945,25.780000686645508,21.154428482055664,703900
2017-09-19,25.889999389648438,26.18000030517578,25.579999923706055,25.81999969482422,21.187255859375,421300
2017-09-20,25.860000610351562,26.040000915527344,25.6299991607666,25.979999542236328,21.318546295166016,561000
2017-09-21,26.030000686645508,26.09000015258789,25.780000686645508,25.850000381469727,21.211870193481445,432800
2017-09-22,25.8799991607666,26.299999237060547,25.700000762939453,26.280000686645508,21.564722061157227,269600
2017-09-25,26.31999969482422,26.655000686645508,26.260000228881836,26.399999618530273,21.663188934326172,485600
2017-09-26,26.510000228881836,26.739999771118164,26.200000762939453,26.309999465942383,21.589336395263672,660800
2017-09-27,26.399999618530273,27.079999923706055,26.209999084472656,27.06999969482422,22.212974548339844,557800
2017-09-28,27.049999237060547,27.489999771118164,27.049999237060547,27.329999923706055,22.42632484436035,694400
2017-09-29,27.420000076293945,27.649999618530273,27.329999923706055,27.520000457763672,22.582233428955078,298400
2017-10-02,27.459999084472656,27.84000015258789,27.219999313354492,27.549999237060547,22.606849670410156,473700
2017-10-03,27.950000762939453,27.950000762939453,27.56999969482422,27.6299991607666,22.672494888305664,400200
2017-10-04,27.5,27.600000381469727,26.809999465942383,26.889999389648438,22.065269470214844,665700
2017-10-05,26.920000076293945,27.170000076293945,26.739999771118164,26.790000915527344,21.98321533203125,417900
2017-10-06,26.610000610351562,26.84000015258789,26.5,26.600000381469727,21.827299118041992,414100
2017-10-09,26.600000381469727,26.850000381469727,26.226999282836914,26.780000686645508,21.97500991821289,372900
2017-10-10,26.850000381469727,27.290000915527344,26.780000686645508,26.899999618530273,22.07347297668457,257500
2017-10-11,26.8799991607666,26.989999771118164,26.770000457763672,26.860000610351562,22.0406551361084,273900
2017-10-12,26.700000762939453,26.979999542236328,26.600000381469727,26.889999389648438,22.065269470214844,269600
2017-10-13,27.110000610351562,27.260000228881836,26.530000686645508,26.959999084472656,22.122713088989258,379600
2017-10-16,27.0,27.100000381469727,26.81999969482422,26.920000076293945,22.089885711669922,399200
2017-10-17,26.899999618530273,27.219999313354492,26.780000686645508,26.989999771118164,22.147327423095703,545300
2017-10-18,26.920000076293945,27.309999465942383,26.610000610351562,26.75,21.95038604736328,566400
2017-10-19,26.469999313354492,26.65999984741211,26.100000381469727,26.360000610351562,21.63036346435547,495500
2017-10-20,26.489999771118164,26.809999465942383,26.399999618530273,26.579999923706055,21.81089210510254,796300
2017-10-23,26.579999923706055,26.68000030517578,26.200000762939453,26.420000076293945,21.679597854614258,467500
2017-10-24,26.530000686645508,26.75,26.420000076293945,26.600000381469727,21.827299118041992,608200
2017-10-25,26.440000534057617,26.770000457763672,26.270000457763672,26.6200008392334,21.843717575073242,527600
2017-10-26,28.479999542236328,29.469999313354492,27.59000015258789,29.100000381469727,23.878740310668945,2409000
2017-10-27,30.059999465942383,30.65999984741211,29.149999618530273,30.420000076293945,24.961902618408203,1434000
2017-10-30,30.43000030517578,30.43000030517578,28.799999237060547,29.1200008392334,23.89515495300293,1344900
2017-10-31,29.1299991607666,29.510000228881836,28.799999237060547,28.850000381469727,23.67359733581543,647600
2017-11-01,29.15999984741211,29.200000762939453,28.8700008392334,28.940000534057617,23.747447967529297,837500
2017-11-02,28.889999389648438,29.489999771118164,28.829999923706055,29.309999465942383,24.051063537597656,738300
2017-11-03,29.360000610351562,29.360000610351562,28.18000030517578,28.579999923706055,23.452043533325195,924900
2017-11-06,28.549999237060547,28.549999237060547,27.93000030517578,27.959999084472656,22.943286895751953,659100
2017-11-07,28.049999237060547,28.209999084472656,27.799999237060547,28.0,22.97610855102539,568300
2017-11-08,28.0,28.579999923706055,27.850000381469727,28.06999969482422,23.033546447753906,838500
2017-11-09,27.8799991607666,28.209999084472656,27.399999618530273,28.139999389648438,23.09099006652832,1080000
2017-11-10,28.209999084472656,28.84000015258789,28.18000030517578,28.760000228881836,23.599742889404297,792600
2017-11-13,28.56999969482422,29.510000228881836,28.100000381469727,29.40999984741211,24.133119583129883,883300
2017-11-14,28.559999465942383,28.8799991607666,28.170000076293945,28.65999984741211,23.517690658569336,1090100
2017-11-15,28.290000915527344,28.690000534057617,27.530000686645508,27.540000915527344,22.59864616394043,870400
2017-11-16,27.8799991607666,29.110000610351562,27.610000610351562,28.889999389648438,23.706418991088867,7596800
2017-11-17,29.0,30.229999542236328,28.719999313354492,30.049999237060547,24.658288955688477,2588000
2017-11-20,30.209999084472656,30.940000534057617,29.809999465942383,30.56999969482422,25.084985733032227,2904300
2017-11-21,30.809999465942383,31.089000701904297,30.219999313354492,30.729999542236328,25.216279983520508,1687000
2017-11-22,31.049999237060547,31.8799991607666,30.80500030517578,30.979999542236328,25.421422958374023,1223000
2017-11-24,31.1299991607666,31.514999389648438,30.989999771118164,31.139999389648438,25.55271339416504,391800
2017-11-27,31.329999923706055,31.579999923706055,31.219999313354492,31.459999084472656,25.815296173095703,1307800
2017-11-28,31.59000015258789,31.700000762939453,31.1200008392334,31.229999542236328,25.626564025878906,965700
2017-11-29,31.110000610351562,31.579999923706055,31.030000686645508,31.149999618530273,25.56092071533203,892800
2017-11-30,31.440000534057617,32.5099983215332,31.389999389648438,32.40999984741211,26.594844818115234,2112800
2017-12-01,32.54999923706055,32.75,31.56999969482422,32.08000183105469,26.32405662536621,2144300
2017-12-04,32.439998626708984,32.75,31.270000457763672,31.450000762939453,25.807092666625977,785800
2017-12-05,31.579999923706055,31.75,31.100000381469727,31.15999984741211,25.56912612915039,630900
2017-12-06,31.020000457763672,31.549999237060547,31.000999450683594,31.469999313354492,25.823505401611328,463600
2017-12-07,31.65999984741211,32.22999954223633,31.639999389648438,32.18000030517578,26.789182662963867,845800
2017-12-08,32.400001525878906,32.5,31.8700008392334,32.33000183105469,26.91405487060547,637600
2017-12-11,32.349998474121094,32.5,31.959999084472656,32.029998779296875,26.664306640625,331100
2017-12-12,32.04999923706055,32.215999603271484,31.65999984741211,31.68000030517578,26.372941970825195,435100
2017-12-13,31.729999542236328,31.940000534057617,31.610000610351562,31.829999923706055,26.497814178466797,1003100
2017-12-14,31.829999923706055,31.989999771118164,31.65999984741211,31.690000534057617,26.381267547607422,467500
2017-12-15,31.959999084472656,32.900001525878906,31.899999618530273,32.61000061035156,27.14715003967285,1606700
2017-12-18,32.79999923706055,33.56999969482422,32.79999923706055,33.380001068115234,27.788158416748047,947600
2017-12-19,33.369998931884766,33.619998931884766,33.15999984741211,33.290000915527344,27.713233947753906,977500
2017-12-20,33.400001525878906,34.150001525878906,33.040000915527344,34.0099983215332,28.31261444091797,645000
2017-12-21,34.11000061035156,34.560001373291016,33.862998962402344,34.43000030517578,28.662260055541992,333700
2017-12-22,34.43000030517578,34.625,34.02000045776367,34.20000076293945,28.47079086303711,323400
2017-12-26,34.439998626708984,34.439998626708984,33.810001373291016,34.029998779296875,28.329265594482422,148700
2017-12-27,34.08000183105469,34.31999969482422,33.97999954223633,34.11000061035156,28.39586639404297,311200
2017-12-28,34.2599983215332,34.2599983215332,33.630001068115234,33.970001220703125,28.279325485229492,282500
2017-12-29,34.11000061035156,34.439998626708984,33.91999816894531,33.93000030517578,28.246017456054688,442300
2018-01-02,34.189998626708984,34.27000045776367,33.40999984741211,33.709999084472656,28.062875747680664,814700
2018-01-03,33.709999084472656,34.06999969482422,33.52000045776367,33.90999984741211,28.2293701171875,806600
2018-01-04,34.06999969482422,34.61000061035156,34.0,34.06999969482422,28.362567901611328,488400
2018-01-05,33.75,34.790000915527344,33.75,34.54999923706055,28.762157440185547,416900
2018-01-08,34.63999938964844,35.15999984741211,34.5099983215332,34.90999984741211,29.06184959411621,573600
2018-01-09,35.09000015258789,35.40999984741211,34.959999084472656,35.09000015258789,29.211692810058594,418800
2018-01-10,34.959999084472656,35.29999923706055,34.290000915527344,34.45000076293945,28.67890739440918,424900
2018-01-11,34.70000076293945,34.93000030517578,34.564998626708984,34.88999938964844,29.045202255249023,248100
2018-01-12,35.0,35.040000915527344,34.54999923706055,34.560001373291016,28.77048110961914,542100
2018-01-16,34.79999923706055,36.08000183105469,34.79999923706055,35.099998474121094,29.220016479492188,974600
2018-01-17,35.36000061035156,35.65999984741211,34.86000061035156,34.959999084472656,29.103471755981445,868400
2018-01-18,34.95000076293945,35.290000915527344,34.599998474121094,35.20000076293945,29.303268432617188,443100
2018-01-19,35.0099983215332,35.95000076293945,35.0099983215332,35.91999816894531,29.902645111083984,518500
2018-01-22,35.900001525878906,36.2400016784668,35.630001068115234,36.189998626708984,30.12742042541504,660400
2018-01-23,37.59000015258789,38.0,36.369998931884766,36.689998626708984,30.54366111755371,927900
2018-01-24,36.83000183105469,36.999000549316406,36.18000030517578,36.27000045776367,30.19402313232422,435900
2018-01-25,36.40999984741211,36.4900016784668,35.52000045776367,35.939998626708984,29.919301986694336,660400
2018-01-26,36.20000076293945,36.349998474121094,35.75,36.279998779296875,30.20234489440918,229500
2018-01-29,36.119998931884766,36.41999816894531,35.81999969482422,36.2400016784668,30.169044494628906,414500
2018-01-30,36.150001525878906,36.150001525878906,34.45000076293945,35.470001220703125,29.528034210205078,795800
2018-01-31,35.75,35.790000915527344,34.505001068115234,34.58000183105469,28.787134170532227,756200
2018-02-01,35.099998474121094,35.27000045776367,33.970001220703125,35.040000915527344,29.17007064819336,680900
2018-02-02,34.619998931884766,34.63100051879883,34.029998779296875,34.16999816894531,28.445812225341797,637000
2018-02-05,33.83000183105469,34.880001068115234,32.56999969482422,33.5099983215332,27.89637565612793,827500
2018-02-06,32.88999938964844,33.81999969482422,32.619998931884766,33.38999938964844,27.796483993530273,633800
2018-02-07,33.27000045776367,33.869998931884766,32.77000045776367,32.810001373291016,27.313644409179688,790800
2018-02-08,32.7400016784668,33.06999969482422,31.549999237060547,31.56999969482422,26.281370162963867,873000
2018-02-09,31.969999313354492,32.18000030517578,30.469999313354492,31.75,26.431217193603516,1100500
2018-02-12,31.889999389648438,33.040000915527344,31.81999969482422,32.70000076293945,27.222070693969727,658100
2018-02-13,32.369998931884766,33.33000183105469,31.899999618530273,33.08000183105469,27.53841209411621,875300
2018-02-14,32.7599983215332,33.630001068115234,32.30099868774414,33.5099983215332,27.89637565612793,727700
2018-02-15,33.7400016784668,34.599998474121094,33.18000030517578,34.529998779296875,28.745508193969727,1298200
2018-02-16,34.5099983215332,34.5099983215332,31.969999313354492,32.849998474121094,27.346940994262695,2623800
2018-02-20,32.58000183105469,33.45000076293945,31.729999542236328,31.729999542236328,26.41456413269043,1042900
2018-02-21,31.75,32.349998474121094,30.979999542236328,31.780000686645508,26.456188201904297,1865800
2018-02-22,31.760000228881836,32.5099983215332,31.760000228881836,32.060001373291016,26.68928337097168,588500
2018-02-23,32.099998474121094,32.91999816894531,31.940000534057617,32.880001068115234,27.371919631958008,500700
2018-02-26,32.95000076293945,33.2400016784668,32.529998779296875,33.0,27.471813201904297,478600
2018-02-27,33.06999969482422,33.290000915527344,32.63999938964844,32.68000030517578,27.205419540405273,461600
2018-02-28,32.900001525878906,33.20500183105469,32.0099983215332,32.0099983215332,26.647659301757812,644900
2018-03-01,32.029998779296875,32.09000015258789,30.75,30.889999389648438,25.715280532836914,936600
2018-03-02,30.670000076293945,31.940000534057617,30.3700008392334,31.799999237060547,26.472837448120117,675200
2018-03-05,31.6200008392334,32.130001068115234,31.100000381469727,32.040000915527344,26.67263412475586,592500
2018-03-06,32.099998474121094,32.369998931884766,31.770000457763672,31.809999465942383,26.481163024902344,877300
2018-03-07,31.389999389648438,32.04499816894531,31.389999389648438,31.81999969482422,26.489484786987305,638800
2018-03-08,31.799999237060547,32.650001525878906,31.799999237060547,32.369998931884766,27.333906173706055,533300
2018-03-09,32.58000183105469,33.22999954223633,32.5099983215332,33.0,27.865894317626953,814800
2018-03-12,32.95000076293945,33.33000183105469,32.5,32.63999938964844,27.561904907226562,485300
2018-03-13,32.70000076293945,32.849998474121094,32.400001525878906,32.529998779296875,27.469017028808594,381100
2018-03-14,32.7599983215332,33.02000045776367,32.59000015258789,32.959999084472656,27.832117080688477,428900
2018-03-15,32.959999084472656,33.119998931884766,32.58000183105469,32.65999984741211,27.57879066467285,579400
2018-03-16,32.619998931884766,33.349998474121094,32.540000915527344,32.959999084472656,27.832117080688477,997400
2018-03-19,32.79999923706055,32.79999923706055,32.13999938964844,32.709999084472656,27.621009826660156,309100
2018-03-20,31.719999313354492,32.95000076293945,31.719999313354492,32.54999923706055,27.485902786254883,611000
2018-03-21,32.599998474121094,33.255001068115234,32.31999969482422,33.130001068115234,27.97566795349121,502800
2018-03-22,32.75,32.88999938964844,31.1299991607666,31.209999084472656,26.35437774658203,908000
2018-03-23,31.329999923706055,31.75,30.309999465942383,30.31999969482422,25.60284423828125,1004900
2018-03-26,30.760000228881836,30.764999389648438,29.979999542236328,30.729999542236328,25.949058532714844,674800
2018-03-27,30.739999771118164,31.270000457763672,30.1299991607666,30.399999618530273,25.670400619506836,489200
2018-03-28,30.649999618530273,31.2450008392334,29.93000030517578,30.049999237060547,25.374853134155273,739600
2018-03-29,30.110000610351562,31.010000228881836,29.959999084472656,30.68000030517578,25.906837463378906,665400
2018-04-02,30.3799991607666,30.424999237060547,28.969999313354492,29.1299991607666,24.59798240661621,923000
2018-04-03,29.40999984741211,29.729999542236328,29.1200008392334,29.729999542236328,25.10463523864746,583600
2018-04-04,29.139999389648438,29.8799991607666,29.139999389648438,29.790000915527344,25.155305862426758,291900
2018-04-05,29.889999389648438,31.31999969482422,29.739999771118164,30.809999465942383,26.016613006591797,1149700
2018-04-06,30.420000076293945,30.493000030517578,29.360000610351562,29.829999923706055,25.189077377319336,847400
2018-04-09,30.219999313354492,30.40999984741211,29.360000610351562,29.360000610351562,24.792203903198242,459500
2018-04-10,29.829999923706055,30.959999084472656,29.549999237060547,30.889999389648438,26.084163665771484,738300
2018-04-11,30.510000228881836,31.299999237060547,30.260000228881836,31.0,26.177053451538086,733900
2018-04-12,31.100000381469727,31.69499969482422,30.920000076293945,31.549999237060547,26.641481399536133,644300
2018-04-13,31.670000076293945,31.93000030517578,31.329999923706055,31.6200008392334,26.700593948364258,469900
2018-04-16,32.0099983215332,32.310001373291016,31.55500030517578,32.040000915527344,27.05525016784668,685200
2018-04-17,32.15999984741211,32.439998626708984,32.11000061035156,32.290000915527344,27.266355514526367,408800
2018-04-18,32.45000076293945,32.970001220703125,32.15999984741211,32.66999816894531,27.58723258972168,557600
2018-04-19,32.5099983215332,32.84000015258789,32.20800018310547,32.529998779296875,27.469017028808594,409700
2018-04-20,32.59000015258789,32.7599983215332,31.90999984741211,32.16999816894531,27.16502571105957,477100
2018-04-23,31.56999969482422,32.279998779296875,31.520000457763672,31.780000686645508,26.8356990814209,492100
2018-04-24,32.09000015258789,32.39099884033203,30.950000762939453,31.229999542236328,26.371267318725586,1029300
2018-04-25,31.270000457763672,31.75,30.905000686645508,31.68000030517578,26.751258850097656,616500
2018-04-26,31.739999771118164,31.78499984741211,30.799999237060547,30.860000610351562,26.058835983276367,1026000
2018-04-27,32.70000076293945,33.15999984741211,31.639999389648438,31.84000015258789,26.886363983154297,3195500
2018-04-30,31.84000015258789,32.275001525878906,31.385000228881836,31.6299991607666,26.70903778076172,1283800
2018-05-01,30.3799991607666,31.475000381469727,30.1299991607666,31.15999984741211,26.312158584594727,1656600
2018-05-02,31.149999618530273,31.899999618530273,30.940000534057617,31.399999618530273,26.51481819152832,1200700
2018-05-03,31.350000381469727,32.29999923706055,31.0,31.68000030517578,26.751258850097656,12585800
2018-05-04,31.600000381469727,32.439998626708984,31.5,32.06999969482422,27.080583572387695,2271200
2018-05-07,32.22999954223633,32.970001220703125,31.959999084472656,32.04999923706055,27.063692092895508,3971800
2018-05-08,32.04999923706055,32.41999816894531,31.440000534057617,31.510000228881836,26.607707977294922,2357100
2018-05-09,31.81999969482422,32.310001373291016,31.5,32.04999923706055,27.063692092895508,2248000
2018-05-10,32.209999084472656,33.650001525878906,32.09000015258789,33.470001220703125,28.262773513793945,2354900
2018-05-11,33.470001220703125,33.7599983215332,33.060001373291016,33.439998626708984,28.237438201904297,1448400
2018-05-14,33.650001525878906,33.72999954223633,33.40999984741211,33.459999084472656,28.254331588745117,1517900
2018-05-15,33.2599983215332,33.849998474121094,33.13999938964844,33.630001068115234,28.39788246154785,1185200
2018-05-16,33.66999816894531,33.9900016784668,33.4900016784668,33.75,28.49921226501465,1358100
2018-05-17,33.689998626708984,34.75,33.5260009765625,34.29999923706055,28.96363639831543,1633500
2018-05-18,34.11000061035156,34.80500030517578,33.689998626708984,34.459999084472656,29.098745346069336,1356500
2018-05-21,34.689998626708984,35.27000045776367,34.38999938964844,34.41999816894531,29.064973831176758,759800
2018-05-22,34.40999984741211,35.279998779296875,34.12099838256836,34.40999984741211,29.05652618408203,1534900
2018-05-23,34.189998626708984,34.81999969482422,33.83000183105469,34.27000045776367,28.938312530517578,941000
2018-05-24,33.97999954223633,34.22999954223633,33.70000076293945,33.86000061035156,28.59209632873535,665400
2018-05-25,33.650001525878906,33.650001525878906,32.5099983215332,32.880001068115234,27.76456642150879,993000
2018-05-29,32.41999816894531,32.779998779296875,32.13999938964844,32.61000061035156,27.53657341003418,897400
2018-05-30,32.849998474121094,33.709999084472656,32.83000183105469,33.38999938964844,28.195220947265625,820900
2018-05-31,33.290000915527344,33.38999938964844,32.529998779296875,32.869998931884766,27.756118774414062,1066400
2018-06-01,33.0,33.415000915527344,32.290000915527344,32.34000015258789,27.308576583862305,672500
2018-06-04,32.4900016784668,32.630001068115234,32.209999084472656,32.5,27.44368553161621,975600
2018-06-05,32.4900016784668,32.619998931884766,31.479999542236328,32.380001068115234,27.34235382080078,1661000
2018-06-06,32.529998779296875,32.869998931884766,31.959999084472656,32.81999969482422,27.713899612426758,1053400
2018-06-07,32.97999954223633,33.47999954223633,32.810001373291016,33.11000061035156,28.347455978393555,858800
2018-06-08,33.0,33.060001373291016,31.760000228881836,31.84000015258789,27.2601318359375,1388100
2018-06-11,31.229999542236328,31.639999389648438,29.65399932861328,29.829999923706055,25.539249420166016,3923100
2018-06-12,29.8799991607666,30.43000030517578,29.110000610351562,29.450000762939453,25.213911056518555,2215200
2018-06-13,29.559999465942383,30.100000381469727,29.239999771118164,29.389999389648438,25.162540435791016,1699800
2018-06-14,29.799999237060547,30.290000915527344,29.540000915527344,30.059999465942383,25.736169815063477,1934900
2018-06-15,30.110000610351562,30.479999542236328,29.43000030517578,29.68000030517578,25.41082763671875,1388000
2018-06-18,29.3700008392334,30.06999969482422,29.299999237060547,29.979999542236328,25.66767692565918,1309500
2018-06-19,29.610000610351562,29.65999984741211,29.31999969482422,29.469999313354492,25.231035232543945,1129500
2018-06-20,29.65999984741211,29.757999420166016,28.204999923706055,28.239999771118164,24.177959442138672,2044200
2018-06-21,28.030000686645508,28.34000015258789,27.469999313354492,27.920000076293945,23.903987884521484,1984500
2018-06-22,28.600000381469727,29.299999237060547,28.364999771118164,28.829999923706055,24.683094024658203,3038700
2018-06-25,27.809999465942383,28.735000610351562,27.75,28.299999237060547,24.229326248168945,2100900
2018-06-26,28.31999969482422,29.229999542236328,28.31999969482422,29.030000686645508,24.854324340820312,1953200
2018-06-27,29.209999084472656,29.809999465942383,28.979999542236328,29.260000228881836,25.05124282836914,1885700
2018-06-28,28.93000030517578,29.549999237060547,28.559999465942383,29.3700008392334,25.14542007446289,1634200
2018-06-29,29.399999618530273,30.229999542236328,29.329999923706055,29.389999389648438,25.162540435791016,2230500
2018-07-02,28.969999313354492,29.15999984741211,28.399999618530273,28.559999465942383,24.451927185058594,1625000
2018-07-03,28.760000228881836,28.90999984741211,28.510000228881836,28.729999542236328,24.597476959228516,592800
2018-07-05,28.950000762939453,29.065000534057617,28.540000915527344,28.790000915527344,24.648847579956055,1614100
2018-07-06,28.719999313354492,28.719999313354492,28.239999771118164,28.360000610351562,24.280698776245117,1053800
2018-07-09,28.3700008392334,29.559999465942383,28.360000610351562,29.520000457763672,25.273839950561523,2222200
2018-07-10,29.420000076293945,29.68000030517578,29.010000228881836,29.270000457763672,25.05980110168457,1211200
2018-07-11,28.899999618530273,29.0,28.6200008392334,28.829999923706055,24.683094024658203,1313900
2018-07-12,28.979999542236328,28.979999542236328,27.461000442504883,27.989999771118164,23.96391487121582,2447700
2018-07-13,28.049999237060547,28.75,28.010000228881836,28.18000030517578,24.126588821411133,1189500
2018-07-16,27.920000076293945,28.510000228881836,27.90999984741211,28.110000610351562,24.06665802001953,1221800
2018-07-17,28.09000015258789,28.43000030517578,27.850000381469727,28.079999923706055,24.040971755981445,1281800
2018-07-18,28.09000015258789,28.18000030517578,27.670000076293945,27.799999237060547,23.801246643066406,897000
2018-07-19,27.579999923706055,28.190000534057617,27.469999313354492,28.190000534057617,24.135150909423828,507700
2018-07-20,28.040000915527344,28.200000762939453,27.81999969482422,27.829999923706055,23.826932907104492,647700
2018-07-23,27.81999969482422,27.829999923706055,27.149999618530273,27.15999984741211,23.253305435180664,706900
2018-07-24,27.290000915527344,27.329999923706055,26.639999389648438,26.690000534057617,22.850910186767578,1087500
2018-07-25,26.610000610351562,26.790000915527344,26.260000228881836,26.479999542236328,22.671112060546875,1570100
2018-07-26,26.520000457763672,27.149999618530273,26.469999313354492,26.6299991607666,22.79953956604004,2625600
2018-07-27,26.920000076293945,27.15999984741211,26.360000610351562,27.100000381469727,23.20193862915039,1992800
2018-07-30,27.290000915527344,28.049999237060547,27.290000915527344,27.31999969482422,23.390291213989258,2493500
2018-07-31,27.479999542236328,28.719999313354492,27.479999542236328,28.610000610351562,24.494739532470703,2492400
2018-08-01,28.610000610351562,28.7450008392334,27.3700008392334,27.670000076293945,23.6899471282959,2417400
2018-08-02,27.65999984741211,28.639999389648438,27.110000610351562,27.729999542236328,23.741315841674805,2705600
2018-08-03,28.0,28.709999084472656,27.860000610351562,28.469999313354492,24.374874114990234,1655700
2018-08-06,28.5,29.329999923706055,28.190000534057617,29.15999984741211,24.965627670288086,1427400
2018-08-07,29.459999084472656,29.84000015258789,29.190000534057617,29.489999771118164,25.248159408569336,881600
2018-08-08,29.469999313354492,29.600000381469727,29.100000381469727,29.280000686645508,25.0683650970459,870100
2018-08-09,29.209999084472656,29.65999984741211,28.709999084472656,28.770000457763672,24.631723403930664,1436700
2018-08-10,28.700000762939453,29.100000381469727,28.610000610351562,28.860000610351562,24.708776473999023,1093100
2018-08-13,28.799999237060547,28.950000762939453,28.3439998626709,28.489999771118164,24.392000198364258,583900
2018-08-14,28.59000015258789,28.75,28.139999389648438,28.18000030517578,24.126588821411133,657300
2018-08-15,28.0,28.0,26.920000076293945,27.030000686645508,23.142005920410156,785800
2018-08-16,26.920000076293945,27.604999542236328,26.920000076293945,27.3700008392334,23.433101654052734,881800
2018-08-17,27.440000534057617,27.989999771118164,27.18000030517578,27.940000534057617,23.921110153198242,1229500
2018-08-20,28.149999618530273,28.59000015258789,28.0049991607666,28.309999465942383,24.23788833618164,849600
2018-08-21,28.329999923706055,28.59000015258789,28.020000457763672,28.219999313354492,24.16083526611328,483600
2018-08-22,28.170000076293945,28.270000457763672,27.780000686645508,27.950000762939453,23.929670333862305,965000
2018-08-23,27.93000030517578,27.959999084472656,27.290000915527344,27.34000015258789,23.407413482666016,739900
2018-08-24,27.3799991607666,27.670000076293945,27.25,27.510000228881836,23.552961349487305,1129000
2018-08-27,27.6200008392334,28.3799991607666,27.479999542236328,28.25,24.1865177154541,1200300
2018-08-28,28.25,28.579999923706055,28.09000015258789,28.270000457763672,24.203643798828125,822400
2018-08-29,28.40999984741211,28.860000610351562,28.299999237060547,28.760000228881836,24.623157501220703,777600
2018-08-30,28.700000762939453,28.860000610351562,27.940000534057617,28.079999923706055,24.040971755981445,631500
2018-08-31,27.979999542236328,28.18000030517578,27.809999465942383,27.959999084472656,23.938232421875,453100
2018-09-04,27.959999084472656,27.959999084472656,27.280000686645508,27.350000381469727,23.415977478027344,609400
2018-09-05,27.219999313354492,27.389999389648438,26.81999969482422,26.989999771118164,23.107757568359375,1445300
2018-09-06,26.760000228881836,26.760000228881836,24.75,24.93000030517578,21.771596908569336,4134900
2018-09-07,24.59000015258789,25.299999237060547,24.350000381469727,24.979999542236328,21.815258026123047,2984600
2018-09-10,25.100000381469727,25.860000610351562,25.100000381469727,25.639999389648438,22.391645431518555,1543900
2018-09-11,25.559999465942383,26.329999923706055,25.270000457763672,26.18000030517578,22.86323356628418,1637200
2018-09-12,26.360000610351562,26.6200008392334,26.1200008392334,26.59000015258789,23.221288681030273,1961600
2018-09-13,26.739999771118164,28.28499984741211,26.739999771118164,27.84000015258789,24.312925338745117,3199200
2018-09-14,27.799999237060547,28.889999389648438,27.709999084472656,28.6200008392334,24.994108200073242,2025900
2018-09-17,28.729999542236328,29.610000610351562,28.610000610351562,28.719999313354492,25.081438064575195,1449900
2018-09-18,28.729999542236328,29.280000686645508,28.709999084472656,29.270000457763672,25.561758041381836,979600
2018-09-19,29.219999313354492,29.6299991607666,28.979999542236328,29.100000381469727,25.413293838500977,785700
2018-09-20,29.299999237060547,29.540000915527344,29.065000534057617,29.3799991607666,25.657819747924805,1086600
2018-09-21,29.479999542236328,29.565000534057617,29.149999618530273,29.3799991607666,25.657819747924805,3654800
2018-09-24,29.459999084472656,29.684999465942383,28.8799991607666,29.540000915527344,25.79755210876465,1476200
2018-09-25,29.68000030517578,29.690000534057617,29.040000915527344,29.1200008392334,25.430763244628906,1162500
2018-09-26,28.8799991607666,29.170000076293945,28.440000534057617,28.469999313354492,24.863109588623047,1365900
2018-09-27,29.059999465942383,29.059999465942383,27.739999771118164,28.040000915527344,24.48758888244629,1694000
2018-09-28,27.920000076293945,28.3700008392334,27.84000015258789,28.34000015258789,24.74958038330078,1010600
2018-10-01,28.489999771118164,28.610000610351562,27.959999084472656,28.010000228881836,24.461389541625977,1846300
2018-10-02,28.030000686645508,28.209999084472656,27.790000915527344,28.079999923706055,24.522518157958984,2083900
2018-10-03,28.25,28.28700065612793,27.920000076293945,28.0,24.452651977539062,2164400
2018-10-04,28.0,28.15999984741211,27.56999969482422,27.770000457763672,24.251794815063477,720100
2018-10-05,27.690000534057617,28.020000457763672,27.020000457763672,27.450000762939453,23.972333908081055,677600
2018-10-08,27.25,27.420000076293945,26.780000686645508,27.059999465942383,23.631742477416992,776700
2018-10-09,26.90999984741211,27.43000030517578,26.889999389648438,27.260000228881836,23.806406021118164,1381700
2018-10-10,27.329999923706055,27.329999923706055,26.139999389648438,26.190000534057617,22.871967315673828,1231200
2018-10-11,25.489999771118164,26.65999984741211,25.489999771118164,25.600000381469727,22.356714248657227,1182100
2018-10-12,26.670000076293945,26.670000076293945,25.350000381469727,25.760000228881836,22.496442794799805,1084400
2018-10-15,25.690000534057617,26.34000015258789,25.200000762939453,26.049999237060547,22.74970054626465,1411700
2018-10-16,26.260000228881836,27.190000534057617,26.1299991607666,27.149999618530273,23.710342407226562,801600
2018-10-17,26.969999313354492,27.030000686645508,26.309999465942383,26.889999389648438,23.483280181884766,811100
2018-10-18,26.260000228881836,26.790000915527344,25.834999084472656,26.030000686645508,22.732234954833984,929000
2018-10-19,26.049999237060547,26.149999618530273,25.360000610351562,25.5,22.269380569458008,1219800
2018-10-22,25.520000457763672,25.6299991607666,25.040000915527344,25.18000030517578,21.98992347717285,1517300
2018-10-23,24.600000381469727,25.219999313354492,24.184999465942383,24.920000076293945,21.762863159179688,1455600
2018-10-24,25.010000228881836,25.149999618530273,23.329999923706055,23.3700008392334,20.40923500061035,2160700
2018-10-25,23.649999618530273,24.8799991607666,23.489999771118164,24.559999465942383,21.44847297668457,2835900
2018-10-26,25.469999313354492,26.790000915527344,24.799999237060547,26.110000610351562,22.802099227905273,3224300
2018-10-29,26.579999923706055,26.950000762939453,25.209999084472656,25.579999923706055,22.33924674987793,1412500
2018-10-30,25.510000228881836,26.670000076293945,25.510000228881836,26.59000015258789,23.221288681030273,1086600
2018-10-31,27.25,27.600000381469727,26.940000534057617,27.059999465942383,23.631742477416992,1257900
2018-11-01,26.40999984741211,26.415000915527344,25.75,25.799999237060547,22.531373977661133,10006200
2018-11-02,25.989999771118164,26.360000610351562,25.799999237060547,25.850000381469727,22.575040817260742,2608500
2018-11-05,26.0,26.719999313354492,25.799999237060547,26.520000457763672,23.160158157348633,4353000
2018-11-06,26.489999771118164,27.5049991607666,26.209999084472656,27.389999389648438,23.91993522644043,1999400
2018-11-07,27.600000381469727,28.559999465942383,27.40999984741211,27.940000534057617,24.400257110595703,2013500
2018-11-08,27.65999984741211,28.25,27.0,27.110000610351562,23.6754093170166,3269700
2018-11-09,28.020000457763672,28.020000457763672,26.329999923706055,26.549999237060547,23.186357498168945,3314900
2018-11-12,26.610000610351562,26.809999465942383,26.18000030517578,26.309999465942383,22.976762771606445,1157400
2018-11-13,26.270000457763672,26.489999771118164,25.4950008392334,25.530000686645508,22.295581817626953,1295800
2018-11-14,25.719999313354492,25.790000915527344,25.0,25.219999313354492,22.02485466003418,1320600
2018-11-15,25.0,25.989999771118164,24.5,25.969999313354492,22.67983627319336,1383100
2018-11-16,25.959999084472656,26.020000457763672,25.43000030517578,25.489999771118164,22.260648727416992,933000
2018-11-19,25.270000457763672,25.295000076293945,24.424999237060547,24.440000534057617,21.343673706054688,1895700
2018-11-20,24.0,24.65999984741211,23.56999969482422,24.25,21.177745819091797,1062000
2018-11-21,24.600000381469727,25.170000076293945,24.533000946044922,24.75,21.614398956298828,953800
2018-11-23,24.299999237060547,24.459999084472656,24.09000015258789,24.18000030517578,21.116615295410156,253700
2018-11-26,24.479999542236328,25.280000686645508,24.450000762939453,24.959999084472656,21.797794342041016,1373100
2018-11-27,24.760000228881836,25.040000915527344,24.43000030517578,24.440000534057617,21.343673706054688,1250800
2018-11-28,24.469999313354492,25.510000228881836,24.46500015258789,25.34000015258789,22.12965202331543,1316000
2018-11-29,25.309999465942383,25.510000228881836,24.469999313354492,25.34000015258789,22.12965202331543,2197700
2018-11-30,25.200000762939453,25.610000610351562,24.68000030517578,24.75,21.614398956298828,1081900
2018-12-03,25.40999984741211,26.03499984741211,25.229999542236328,25.3700008392334,22.155853271484375,1090100
2018-12-04,25.260000228881836,25.3700008392334,23.15999984741211,23.280000686645508,20.330636978149414,1732900
2018-12-06,22.020000457763672,22.899999618530273,21.420000076293945,22.899999618530273,20.464685440063477,3272100
2018-12-07,23.040000915527344,23.700000762939453,22.200000762939453,22.299999237060547,19.928489685058594,1572900
2018-12-10,22.079999923706055,22.270000457763672,21.68000030517578,22.079999923706055,19.73188591003418,2086100
2018-12-11,22.5,22.610000610351562,21.520000457763672,21.579999923706055,19.28506088256836,1080300
2018-12-12,22.020000457763672,22.399999618530273,21.65999984741211,21.84000015258789,19.517412185668945,2509700
2018-12-13,21.93000030517578,22.25,21.030000686645508,21.350000381469727,19.079519271850586,1715200
2018-12-14,21.030000686645508,21.450000762939453,20.920000076293945,21.219999313354492,18.96334457397461,1356100
2018-12-17,20.969999313354492,21.170000076293945,20.260000228881836,20.5,18.319915771484375,1188700
2018-12-18,20.799999237060547,21.2450008392334,20.56999969482422,20.600000381469727,18.409276962280273,1623000
2018-12-19,20.0,20.739999771118164,19.520000457763672,19.729999542236328,17.63180160522461,1658500
2018-12-20,19.6200008392334,19.799999237060547,18.8799991607666,19.200000762939453,17.15816307067871,1294800
2018-12-21,19.260000228881836,20.100000381469727,19.219999313354492,19.860000610351562,17.747976303100586,3130600
2018-12-24,19.549999237060547,19.790000915527344,18.920000076293945,18.920000076293945,16.90793800354004,687800
2018-12-26,18.899999618530273,20.239999771118164,18.701000213623047,20.219999313354492,18.06968879699707,981500
2018-12-27,19.459999084472656,20.389999389648438,19.459999084472656,20.389999389648438,18.22161102294922,917300
2018-12-28,20.59000015258789,20.739999771118164,20.135000228881836,20.3799991607666,18.21267318725586,1394400
2018-12-31,20.56999969482422,20.64699935913086,20.09000015258789,20.450000762939453,18.27523422241211,907100
2019-01-02,20.020000457763672,21.020000457763672,19.700000762939453,21.0,18.766742706298828,1602200
2019-01-03,20.809999465942383,21.1200008392334,20.100000381469727,20.579999923706055,18.391407012939453,1246300
2019-01-04,21.0,21.260000228881836,20.6299991607666,20.940000534057617,18.713123321533203,2041900
2019-01-07,21.139999389648438,22.040000915527344,20.84000015258789,21.610000610351562,19.311872482299805,2296100
2019-01-08,21.940000534057617,22.34000015258789,21.56999969482422,21.860000610351562,19.53528594970703,1387600
2019-01-09,22.149999618530273,22.719999313354492,21.979999542236328,22.3799991607666,19.999982833862305,1224000
2019-01-10,22.100000381469727,22.584999084472656,22.020000457763672,22.489999771118164,20.098283767700195,1007700
2019-01-11,22.280000686645508,22.739999771118164,22.170000076293945,22.709999084472656,20.294889450073242,679600
2019-01-14,22.489999771118164,22.5,21.959999084472656,22.0,19.6603946685791,1200200
2019-01-15,22.100000381469727,22.290000915527344,21.760000228881836,21.920000076293945,19.58890151977539,1721100
2019-01-16,21.850000381469727,22.25,21.790000915527344,21.84000015258789,19.517412185668945,1185000
2019-01-17,21.700000762939453,22.334999084472656,21.670000076293945,22.229999542236328,19.865936279296875,840100
2019-01-18,22.420000076293945,23.260000228881836,22.139999389648438,23.219999313354492,20.750652313232422,2099500
2019-01-22,22.649999618530273,23.094999313354492,22.51799964904785,22.780000686645508,20.35744857788086,2240500
2019-01-23,22.899999618530273,23.15999984741211,22.170000076293945,22.43000030517578,20.044666290283203,1039900
2019-01-24,22.479999542236328,22.920000076293945,22.381000518798828,22.649999618530273,20.241270065307617,745100
2019-01-25,22.889999389648438,24.280000686645508,22.850000381469727,24.18000030517578,21.608562469482422,2219800
2019-01-28,23.829999923706055,24.05500030517578,23.520000457763672,23.969999313354492,21.420894622802734,1828500
2019-01-29,24.190000534057617,24.889999389648438,24.079999923706055,24.440000534057617,21.840909957885742,2079300
2019-01-30,24.84000015258789,24.979999542236328,24.25,24.6299991607666,22.010705947875977,1604100
2019-01-31,24.68000030517578,25.059999465942383,24.354999542236328,24.670000076293945,22.04645347595215,1637300
2019-02-01,24.790000915527344,25.059999465942383,24.375,24.790000915527344,22.1536922454834,1231200
2019-02-04,24.719999313354492,25.010000228881836,24.459999084472656,24.899999618530273,22.251991271972656,1009400
2019-02-05,24.899999618530273,25.219999313354492,24.84000015258789,25.040000915527344,22.37710952758789,953300
2019-02-06,24.950000762939453,25.350000381469727,24.8799991607666,25.149999618530273,22.475406646728516,1146600
2019-02-07,24.889999389648438,25.139999389648438,24.34000015258789,24.920000076293945,22.269866943359375,1801500
2019-02-08,24.739999771118164,24.790000915527344,23.950000762939453,24.3700008392334,21.778356552124023,1073400
2019-02-11,24.360000610351562,24.579999923706055,24.209999084472656,24.43000030517578,21.83197593688965,1284400
2019-02-12,24.770000457763672,25.010000228881836,24.600000381469727,24.6299991607666,22.010705947875977,1457100
2019-02-13,24.8700008392334,25.510000228881836,24.8700008392334,25.299999237060547,22.609451293945312,2274500
2019-02-14,25.18000030517578,25.690000534057617,25.100000381469727,25.360000610351562,22.663074493408203,1654300
2019-02-15,25.610000610351562,26.159000396728516,25.593000411987305,26.110000610351562,23.333314895629883,1428200
2019-02-19,25.950000762939453,26.985000610351562,25.100000381469727,25.920000076293945,23.16351890563965,2895800
2019-02-20,26.690000534057617,27.190000534057617,26.360000610351562,26.56999969482422,23.744394302368164,2435700
2019-02-21,26.649999618530273,27.1299991607666,26.530000686645508,27.049999237060547,24.173351287841797,1459000
2019-02-22,27.079999923706055,27.290000915527344,26.670000076293945,26.739999771118164,23.896316528320312,1350500
2019-02-25,26.84000015258789,27.149999618530273,26.729999542236328,27.059999465942383,24.18228530883789,1709700
2019-02-26,26.950000762939453,27.014999389648438,26.579999923706055,26.65999984741211,23.824825286865234,1396600
2019-02-27,26.65999984741211,26.850000381469727,26.43000030517578,26.649999618530273,23.815887451171875,973800
2019-02-28,26.610000610351562,26.93000030517578,26.290000915527344,26.850000381469727,23.994619369506836,1331300
2019-03-01,26.959999084472656,27.549999237060547,26.799999237060547,27.34000015258789,24.43250846862793,1068600
2019-03-04,27.459999084472656,27.6200008392334,26.8799991607666,26.979999542236328,24.11079216003418,1085700
2019-03-05,26.989999771118164,27.139999389648438,26.829999923706055,26.940000534057617,24.075048446655273,864700
2019-03-06,26.81999969482422,27.010000228881836,26.239999771118164,26.309999465942383,23.512046813964844,973000
2019-03-07,26.25,26.309999465942383,25.780000686645508,26.09000015258789,23.794771194458008,1670600
2019-03-08,25.540000915527344,26.2549991607666,25.540000915527344,26.200000762939453,23.895095825195312,1119300
2019-03-11,26.260000228881836,27.139999389648438,26.260000228881836,27.1200008392334,24.734161376953125,1513900
2019-03-12,27.149999618530273,27.239999771118164,26.899999618530273,27.059999465942383,24.6794376373291,1379400
2019-03-13,27.299999237060547,27.860000610351562,27.18000030517578,27.719999313354492,25.281375885009766,1656600
2019-03-14,27.59000015258789,27.8799991607666,26.84000015258789,27.0,24.624719619750977,1734300
2019-03-15,27.0,28.010000228881836,26.940000534057617,27.90999984741211,25.454662322998047,2031600
2019-03-18,28.0,28.260000228881836,27.600000381469727,28.200000762939453,25.719148635864258,1505900
2019-03-19,28.100000381469727,28.299999237060547,27.59000015258789,27.739999771118164,25.299617767333984,2120300
2019-03-20,27.56999969482422,28.15999984741211,27.299999237060547,27.81999969482422,25.37257957458496,1631000
2019-03-21,27.75,28.100000381469727,27.68000030517578,27.989999771118164,25.527624130249023,1205500
2019-03-22,27.84000015258789,27.84000015258789,26.65999984741211,26.760000228881836,24.40583038330078,1126800
2019-03-25,26.770000457763672,27.209999084472656,26.559999465942383,27.100000381469727,24.71592140197754,1198800
2019-03-26,27.3799991607666,27.614999771118164,27.079999923706055,27.329999923706055,24.925687789916992,859500
2019-03-27,27.260000228881836,27.5,26.84000015258789,27.049999237060547,24.670318603515625,1057500
2019-03-28,27.030000686645508,27.510000228881836,26.969999313354492,27.260000228881836,24.86184310913086,1026400
2019-03-29,27.5,27.889999389648438,27.469999313354492,27.809999465942383,25.36345863342285,1581300
2019-04-01,28.0,28.3700008392334,27.790000915527344,27.959999084472656,25.500263214111328,863900
2019-04-02,28.0,28.100000381469727,27.670000076293945,27.829999923706055,25.381698608398438,501100
2019-04-03,27.899999618530273,28.149999618530273,27.844999313354492,27.989999771118164,25.527624130249023,1215800
2019-04-04,27.959999084472656,28.18000030517578,27.950000762939453,28.040000915527344,25.573226928710938,553700
2019-04-05,28.200000762939453,28.260000228881836,28.040000915527344,28.260000228881836,25.77387046813965,804900
2019-04-08,28.1299991607666,28.3700008392334,27.940000534057617,28.329999923706055,25.837711334228516,634400
2019-04-09,28.149999618530273,28.149999618530273,27.719999313354492,27.84000015258789,25.390817642211914,899100
2019-04-10,27.959999084472656,28.15999984741211,27.725000381469727,28.010000228881836,25.545866012573242,633100
2019-04-11,28.0,28.299999237060547,27.899999618530273,28.239999771118164,25.755630493164062,937100
2019-04-12,28.5,28.5,27.549999237060547,27.729999542236328,25.290494918823242,1878200
2019-04-15,27.729999542236328,28.010000228881836,27.225000381469727,27.270000457763672,24.8709659576416,1444600
2019-04-16,27.540000915527344,27.760000228881836,27.360000610351562,27.420000076293945,25.007768630981445,1259200
2019-04-17,27.649999618530273,27.809999465942383,26.860000610351562,26.889999389648438,24.52439308166504,1152900
2019-04-18,27.0,27.209999084472656,26.770000457763672,27.079999923706055,24.69767951965332,1302600
2019-04-22,27.399999618530273,27.6299991607666,27.049999237060547,27.31999969482422,24.916566848754883,1219200
2019-04-23,27.31999969482422,27.954999923706055,27.290000915527344,27.799999237060547,25.354339599609375,1073200
2019-04-24,27.959999084472656,28.350000381469727,27.790000915527344,27.81999969482422,25.37257957458496,1470000
2019-04-25,27.219999313354492,27.90999984741211,27.219999313354492,27.780000686645508,25.33609962463379,1544000
2019-04-26,27.760000228881836,28.06999969482422,27.469999313354492,28.049999237060547,25.58234405517578,2633300
2019-04-29,31.0,33.16999816894531,31.0,32.54999923706055,29.68646240234375,9869800
2019-04-30,32.459999084472656,34.650001525878906,32.04999923706055,33.75,30.780899047851562,7293300
2019-05-01,33.869998931884766,34.90999984741211,33.779998779296875,34.61000061035156,31.56524085998535,4704000
2019-05-02,33.959999084472656,36.15999984741211,33.91999816894531,34.970001220703125,31.893571853637695,4847200
2019-05-03,35.13999938964844,35.43000030517578,34.47999954223633,34.70000076293945,31.64731788635254,2637600
2019-05-06,33.58000183105469,34.709999084472656,32.650001525878906,34.099998474121094,31.100107192993164,2183700
2019-05-07,33.5099983215332,34.119998931884766,33.209999084472656,33.9900016784668,30.999784469604492,1875300
2019-05-08,33.88999938964844,33.9900016784668,33.189998626708984,33.31999969482422,30.388721466064453,1438000
2019-05-09,33.040000915527344,33.81999969482422,32.54999923706055,33.43000030517578,30.48904800415039,2166400
2019-05-10,33.189998626708984,34.310001373291016,33.0,34.310001373291016,31.29163360595703,1306200
2019-05-13,33.459999084472656,33.849998474121094,33.290000915527344,33.779998779296875,30.808258056640625,1666500
2019-05-14,33.869998931884766,34.58000183105469,33.869998931884766,34.459999084472656,31.42843246459961,1693700
2019-05-15,34.08000183105469,35.59000015258789,33.724998474121094,35.2599983215332,32.15805435180664,2176400
2019-05-16,35.18000030517578,35.439998626708984,34.869998931884766,35.060001373291016,31.97565460205078,1766300
2019-05-17,34.72999954223633,35.72999954223633,34.584999084472656,34.72999954223633,31.674686431884766,2737600
2019-05-20,34.290000915527344,35.34000015258789,34.18000030517578,35.150001525878906,32.05773162841797,2102400
2019-05-21,35.2400016784668,36.11000061035156,35.20000076293945,35.88999938964844,32.73263168334961,1724500
2019-05-22,35.61000061035156,36.220001220703125,35.441001892089844,35.66999816894531,32.531986236572266,1741500
2019-05-23,35.290000915527344,35.29999923706055,34.38999938964844,34.900001525878906,31.829727172851562,1589600
2019-05-24,35.369998931884766,35.560001373291016,35.189998626708984,35.27000045776367,32.167179107666016,1278300
2019-05-28,35.279998779296875,35.59000015258789,35.11000061035156,35.29999923706055,32.19453430175781,915800
2019-05-29,35.13999938964844,35.2400016784668,34.7599983215332,34.939998626708984,31.866207122802734,1451600
2019-05-30,34.970001220703125,35.22999954223633,34.6349983215332,34.720001220703125,31.66556167602539,1268000
2019-05-31,34.130001068115234,34.58000183105469,33.58000183105469,33.970001220703125,30.98154640197754,1659700
2019-06-03,33.959999084472656,34.790000915527344,33.650001525878906,33.7599983215332,30.790016174316406,2627200
2019-06-04,34.33000183105469,34.4900016784668,33.93000030517578,34.189998626708984,31.18218421936035,1209000
2019-06-05,34.279998779296875,34.52000045776367,33.4900016784668,33.599998474121094,30.644092559814453,1733600
2019-06-06,33.470001220703125,33.814998626708984,33.02000045776367,33.79999923706055,31.320541381835938,1541400
2019-06-07,34.0,34.08000183105469,33.40999984741211,33.630001068115234,31.163015365600586,1039400
2019-06-10,33.77000045776367,34.310001373291016,33.650001525878906,34.040000915527344,31.542936325073242,822300
2019-06-11,34.34000015258789,34.56999969482422,33.720001220703125,33.75,31.274213790893555,1238800
2019-06-12,33.65999984741211,33.83000183105469,32.959999084472656,33.09000015258789,30.662628173828125,1105000
2019-06-13,33.13999938964844,33.5099983215332,33.13999938964844,33.47999954223633,31.024017333984375,821900
2019-06-14,33.56999969482422,33.56999969482422,32.869998931884766,33.41999816894531,30.968416213989258,789600
2019-06-17,33.43000030517578,33.755001068115234,33.29999923706055,33.59000015258789,31.125944137573242,922600
2019-06-18,33.81999969482422,34.68000030517578,33.61000061035156,34.59000015258789,32.052589416503906,1159900
2019-06-19,34.75,34.97999954223633,34.529998779296875,34.81999969482422,32.26572036743164,762300
2019-06-20,35.0,35.400001525878906,34.630001068115234,34.88999938964844,32.33058547973633,1491100
2019-06-21,34.790000915527344,34.790000915527344,34.0,34.099998474121094,31.59853744506836,1622100
2019-06-24,34.13999938964844,34.36000061035156,33.709999084472656,33.77000045776367,31.292743682861328,750500
2019-06-25,33.72999954223633,34.209999084472656,33.529998779296875,33.849998474121094,31.366872787475586,742900
2019-06-26,33.869998931884766,34.2400016784668,33.47999954223633,33.70000076293945,31.227880477905273,727200
2019-06-27,33.779998779296875,34.099998474121094,33.73500061035156,33.900001525878906,31.413209915161133,1081500
2019-06-28,34.02000045776367,34.720001220703125,33.90999984741211,34.599998474121094,32.06185531616211,1481600
2019-07-01,35.04999923706055,35.38600158691406,34.52000045776367,34.83000183105469,32.274986267089844,681100
2019-07-02,34.779998779296875,34.970001220703125,34.0,34.4900016784668,31.95992660522461,993100
2019-07-03,34.560001373291016,34.939998626708984,34.220001220703125,34.599998474121094,32.06185531616211,593300
2019-07-05,34.290000915527344,34.80500030517578,34.189998626708984,34.4900016784668,31.95992660522461,2283100
2019-07-08,34.45000076293945,35.0,33.790000915527344,34.099998474121094,31.59853744506836,965200
2019-07-09,33.7599983215332,34.11000061035156,32.9900016784668,33.04999923706055,30.625558853149414,1793600
2019-07-10,33.040000915527344,33.37799835205078,32.43000030517578,33.060001373291016,30.63482666015625,1624300
2019-07-11,32.9900016784668,33.25699996948242,31.860000610351562,32.290000915527344,29.92131233215332,3126100
2019-07-12,32.349998474121094,33.40999984741211,32.29999923706055,33.2599983215332,30.820154190063477,790900
2019-07-15,33.18000030517578,33.41999816894531,32.45000076293945,32.5,30.115907669067383,981600
2019-07-16,32.380001068115234,33.540000915527344,32.380001068115234,33.36000061035156,30.91282081604004,1347400
2019-07-17,33.36000061035156,33.560001373291016,32.90999984741211,32.93000030517578,30.514366149902344,1634400
2019-07-18,32.849998474121094,33.07500076293945,32.70000076293945,32.779998779296875,30.3753662109375,656800
2019-07-19,32.91999816894531,33.54999923706055,32.79999923706055,33.529998779296875,31.070348739624023,1115400
2019-07-22,33.45000076293945,33.880001068115234,33.400001525878906,33.45000076293945,30.996217727661133,795000
2019-07-23,33.65999984741211,33.88999938964844,33.34000015258789,33.849998474121094,31.366872787475586,729500
2019-07-24,33.65999984741211,34.189998626708984,33.599998474121094,34.0099983215332,31.515134811401367,756600
2019-07-25,34.0,34.04999923706055,33.189998626708984,33.5,31.04254913330078,907400
2019-07-26,33.5099983215332,33.70000076293945,32.81999969482422,33.099998474121094,30.671890258789062,1161400
2019-07-29,33.099998474121094,33.36000061035156,32.2400016784668,32.290000915527344,29.92131233215332,1293000
2019-07-30,32.08000183105469,33.22999954223633,32.0,33.20000076293945,30.764558792114258,1658500
2019-07-31,33.06999969482422,33.599998474121094,32.79999923706055,32.970001220703125,30.551429748535156,2816100
2019-08-01,31.25,32.810001373291016,30.450000762939453,31.209999084472656,28.920536041259766,4026300
2019-08-02,30.959999084472656,31.84000015258789,30.790000915527344,31.049999237060547,28.77227210998535,2714800
2019-08-05,30.06999969482422,30.43000030517578,29.799999237060547,30.18000030517578,27.966094970703125,4331700
2019-08-06,30.5,31.06999969482422,30.329999923706055,30.889999389648438,28.62401008605957,1379000
2019-08-07,30.360000610351562,30.850000381469727,29.954999923706055,30.690000534057617,28.438682556152344,1517500
2019-08-08,31.219999313354492,31.579999923706055,30.700000762939453,30.950000762939453,28.679611206054688,1339300
2019-08-09,30.950000762939453,31.024999618530273,30.229999542236328,30.40999984741211,28.179222106933594,942900
2019-08-12,30.149999618530273,30.510000228881836,30.010000228881836,30.200000762939453,27.984628677368164,815000
2019-08-13,29.979999542236328,30.950000762939453,29.8799991607666,30.56999969482422,28.327484130859375,1505000
2019-08-14,29.959999084472656,30.190000534057617,29.280000686645508,29.389999389648438,27.234045028686523,1727200
2019-08-15,29.489999771118164,29.68000030517578,29.219999313354492,29.440000534057617,27.280380249023438,1107200
2019-08-16,29.559999465942383,30.079999923706055,29.3799991607666,29.979999542236328,27.780765533447266,1195300
2019-08-19,30.450000762939453,30.639999389648438,29.940000534057617,30.25,28.030960083007812,1265800
2019-08-20,30.139999389648438,30.350000381469727,29.510000228881836,29.75,27.567636489868164,686800
2019-08-21,30.149999618530273,30.149999618530273,29.3799991607666,29.59000015258789,27.419376373291016,867700
2019-08-22,29.739999771118164,29.899999618530273,29.43000030517578,29.489999771118164,27.326711654663086,449100
2019-08-23,29.209999084472656,29.329999923706055,28.09000015258789,28.229999542236328,26.15913963317871,1473200
2019-08-26,28.510000228881836,28.700000762939453,27.93000030517578,28.219999313354492,26.149873733520508,1084200
2019-08-27,28.420000076293945,28.579999923706055,27.649999618530273,27.729999542236328,25.695817947387695,858000
2019-08-28,27.780000686645508,28.3799991607666,27.6200008392334,28.010000228881836,25.955280303955078,1493100
2019-08-29,28.34000015258789,28.670000076293945,28.200000762939453,28.489999771118164,26.400066375732422,721200
2019-08-30,28.709999084472656,28.860000610351562,28.440000534057617,28.68000030517578,26.576128005981445,830500
2019-09-03,28.290000915527344,28.479999542236328,27.440000534057617,27.459999084472656,25.445621490478516,1171100
2019-09-04,27.6299991607666,27.725000381469727,26.329999923706055,26.770000457763672,24.806241989135742,3811000
2019-09-05,27.059999465942383,28.579999923706055,27.024999618530273,28.260000228881836,26.71586799621582,2558300
2019-09-06,28.09000015258789,28.6200008392334,27.559999465942383,28.15999984741211,26.62133026123047,1343500
2019-09-09,28.420000076293945,29.010000228881836,28.235000610351562,28.770000457763672,27.198001861572266,1693200
2019-09-10,28.84000015258789,30.424999237060547,28.6299991607666,30.3700008392334,28.7105770111084,1973400
2019-09-11,30.399999618530273,30.489999771118164,29.739999771118164,30.219999313354492,28.568771362304688,1663100
2019-09-12,29.989999771118164,31.0,29.670000076293945,30.739999771118164,29.060359954833984,1434400
2019-09-13,30.940000534057617,31.479999542236328,30.940000534057617,31.229999542236328,29.52358627319336,1281800
2019-09-16,31.229999542236328,32.119998931884766,31.100000381469727,31.850000381469727,30.109710693359375,2385300
2019-09-17,31.559999465942383,31.709999084472656,30.844999313354492,31.059999465942383,29.36287498474121,1184500
2019-09-18,30.959999084472656,30.969999313354492,30.40999984741211,30.75,29.069812774658203,1016000
2019-09-19,30.729999542236328,30.760000228881836,29.989999771118164,30.030000686645508,28.3891544342041,1087700
2019-09-20,30.049999237060547,30.06999969482422,29.43600082397461,29.5,27.888113021850586,1424500
2019-09-23,29.270000457763672,29.5,28.8799991607666,29.299999237060547,27.699039459228516,1317200
2019-09-24,29.290000915527344,29.399999618530273,28.579999923706055,28.93000030517578,27.349258422851562,983600
2019-09-25,28.790000915527344,29.3700008392334,28.360000610351562,29.309999465942383,27.70849609375,597700
2019-09-26,29.15999984741211,29.389999389648438,28.81999969482422,29.18000030517578,27.58559799194336,1192300
2019-09-27,29.280000686645508,29.540000915527344,28.579999923706055,28.68000030517578,27.112918853759766,935000
2019-09-30,28.729999542236328,28.729999542236328,28.1200008392334,28.290000915527344,26.744230270385742,1756300
2019-10-01,28.43000030517578,28.579999923706055,26.719999313354492,27.059999465942383,25.58143424987793,1882800
2019-10-02,26.760000228881836,27.229999542236328,26.489999771118164,27.1200008392334,25.638158798217773,1861300
2019-10-03,26.889999389648438,28.030000686645508,26.889999389648438,27.829999923706055,26.309362411499023,1514600
2019-10-04,27.81999969482422,28.239999771118164,27.6200008392334,28.219999313354492,26.67805290222168,972200
2019-10-07,28.030000686645508,28.059999465942383,27.56999969482422,27.56999969482422,26.063568115234375,1024900
2019-10-08,27.190000534057617,27.329999923706055,26.709999084472656,27.010000228881836,25.53416633605957,2736800
2019-10-09,27.290000915527344,27.459999084472656,27.030000686645508,27.329999923706055,25.83668327331543,604300
2019-10-10,27.389999389648438,28.209999084472656,27.149999618530273,28.1299991607666,26.59296989440918,1474100
2019-10-11,28.440000534057617,29.940000534057617,28.424999237060547,29.56999969482422,27.954288482666016,2271800
2019-10-14,29.270000457763672,29.530000686645508,28.979999542236328,29.06999969482422,27.481609344482422,826000
2019-10-15,29.079999923706055,29.75,28.920000076293945,29.389999389648438,27.784122467041016,1417400
2019-10-16,29.399999618530273,29.860000610351562,29.280000686645508,29.450000762939453,27.84084701538086,831600
2019-10-17,29.68000030517578,29.899999618530273,29.06999969482422,29.65999984741211,28.039369583129883,1189500
2019-10-18,29.6299991607666,31.110000610351562,29.520000457763672,30.850000381469727,29.164348602294922,2546200
2019-10-21,31.0,31.729999542236328,30.899999618530273,31.110000610351562,29.410144805908203,2451900
2019-10-22,31.25,32.439998626708984,30.639999389648438,31.979999542236328,30.23260498046875,4127700
2019-10-23,31.8799991607666,32.72999954223633,31.165000915527344,32.560001373291016,30.78091812133789,3299000
2019-10-24,32.560001373291016,32.790000915527344,31.940000534057617,32.2599983215332,30.497304916381836,1517200
2019-10-25,32.310001373291016,32.939998626708984,32.099998474121094,32.790000915527344,30.99834632873535,3739200
2019-10-28,33.0,33.290000915527344,32.31999969482422,32.31999969482422,30.554027557373047,2321800
2019-10-29,31.8799991607666,33.310001373291016,30.850000381469727,33.02000045776367,31.21578025817871,4255100
2019-10-30,32.810001373291016,32.95000076293945,31.309999465942383,32.11000061035156,30.355501174926758,2745900
2019-10-31,31.139999389648438,31.854999542236328,31.09000015258789,31.829999923706055,30.090801239013672,1643700
2019-11-01,32.119998931884766,32.849998474121094,31.8799991607666,32.849998474121094,31.055068969726562,1306400
2019-11-04,33.20000076293945,33.665000915527344,33.060001373291016,33.439998626708984,31.61283302307129,2329600
2019-11-05,33.540000915527344,33.79999923706055,32.599998474121094,32.63999938964844,30.856544494628906,1165900
2019-11-06,32.47999954223633,32.970001220703125,32.33000183105469,32.72999954223633,30.941625595092773,691600
2019-11-07,33.06999969482422,33.66999816894531,33.029998779296875,33.2400016784668,31.42376136779785,1027700
2019-11-08,33.209999084472656,33.755001068115234,32.81999969482422,33.72999954223633,31.886987686157227,893700
2019-11-11,33.38999938964844,33.880001068115234,33.27000045776367,33.81999969482422,31.97206687927246,841200
2019-11-12,33.779998779296875,34.0099983215332,33.58000183105469,33.630001068115234,31.792451858520508,849800
2019-11-13,33.2599983215332,33.47999954223633,32.86000061035156,33.380001068115234,31.55611228942871,666300
2019-11-14,33.279998779296875,33.38999938964844,32.880001068115234,33.0,31.19687271118164,876400
2019-11-15,33.209999084472656,33.77000045776367,33.150001525878906,33.650001525878906,31.811359405517578,833500
2019-11-18,33.58000183105469,33.790000915527344,33.189998626708984,33.7400016784668,31.896438598632812,806800
2019-11-19,33.849998474121094,34.209999084472656,33.52000045776367,33.65999984741211,31.820812225341797,2363500
2019-11-20,33.560001373291016,34.08000183105469,33.34000015258789,33.58000183105469,31.74518394470215,766700
2019-11-21,33.59000015258789,33.59000015258789,33.060001373291016,33.20000076293945,31.385944366455078,976700
2019-11-22,33.310001373291016,33.709999084472656,33.150001525878906,33.65999984741211,31.820812225341797,573200
2019-11-25,33.66999816894531,34.13999938964844,33.38999938964844,33.95000076293945,32.094966888427734,1081100
2019-11-26,33.91999816894531,34.0,33.36000061035156,33.939998626708984,32.08551025390625,963400
2019-11-27,33.959999084472656,34.22999954223633,33.58000183105469,34.119998931884766,32.25567626953125,815600
2019-11-29,34.08000183105469,34.29999923706055,33.849998474121094,33.869998931884766,32.01933288574219,383700
2019-12-02,34.0099983215332,34.25,33.540000915527344,33.540000915527344,31.707366943359375,952000
2019-12-03,33.09000015258789,33.400001525878906,32.880001068115234,33.27000045776367,31.452117919921875,642300
2019-12-04,33.439998626708984,33.86000061035156,33.310001373291016,33.380001068115234,31.55611228942871,890200
2019-12-05,33.5099983215332,33.849998474121094,33.33000183105469,33.52000045776367,32.19972229003906,672800
2019-12-06,33.779998779296875,34.130001068115234,33.7599983215332,34.09000015258789,32.74727249145508,530700
2019-12-09,33.97999954223633,34.09000015258789,33.790000915527344,33.849998474121094,32.5167236328125,618100
2019-12-10,33.04999923706055,33.77000045776367,33.04999923706055,33.439998626708984,32.12287139892578,1121400
2019-12-11,33.849998474121094,34.41999816894531,33.75,34.290000915527344,32.93939208984375,699300
2019-12-12,34.2400016784668,35.06999969482422,34.18000030517578,35.02000045776367,33.64064025878906,1253200
2019-12-13,34.93000030517578,35.88999938964844,34.93000030517578,35.540000915527344,34.140159606933594,2092700
2019-12-16,35.83000183105469,36.189998626708984,35.5099983215332,36.18000030517578,34.75495147705078,1340300
2019-12-17,36.220001220703125,36.369998931884766,35.72999954223633,36.08000183105469,34.65888977050781,1779500
2019-12-18,36.209999084472656,36.65999984741211,35.83000183105469,36.15999984741211,34.73573684692383,1757500
2019-12-19,36.4900016784668,36.84000015258789,36.209999084472656,36.4900016784668,35.05274200439453,816000
2019-12-20,36.54999923706055,37.040000915527344,36.34000015258789,36.63999938964844,35.19683074951172,1967500
2019-12-23,36.72999954223633,37.04999923706055,36.349998474121094,36.880001068115234,35.4273796081543,749600
2019-12-24,37.0,37.2400016784668,36.709999084472656,36.779998779296875,35.33131408691406,268500
2019-12-26,36.880001068115234,37.15999984741211,36.709999084472656,36.95000076293945,35.49462127685547,494400
2019-12-27,37.0,37.130001068115234,36.91999816894531,36.95000076293945,35.49462127685547,714300
2019-12-30,36.970001220703125,36.9900016784668,36.40999984741211,36.4900016784668,35.05274200439453,1058400
2019-12-31,36.459999084472656,36.959999084472656,36.2599983215332,36.68000030517578,35.23525619506836,1035500
2020-01-02,36.880001068115234,37.029998779296875,36.40999984741211,36.880001068115234,35.4273796081543,917100
2020-01-03,36.5099983215332,36.84000015258789,36.290000915527344,36.720001220703125,35.273681640625,694500
2020-01-06,36.5,36.599998474121094,36.11000061035156,36.279998779296875,34.85100555419922,807300
2020-01-07,36.16999816894531,36.400001525878906,35.904998779296875,36.0099983215332,34.591644287109375,839500
2020-01-08,36.06999969482422,36.529998779296875,35.68000030517578,35.75,34.34188461303711,1131700
2020-01-09,35.970001220703125,36.060001373291016,35.595001220703125,35.79999923706055,34.389915466308594,648800
2020-01-10,35.72999954223633,35.880001068115234,34.869998931884766,35.13999938964844,33.75591278076172,985700
2020-01-13,35.290000915527344,35.54999923706055,35.130001068115234,35.439998626708984,34.04409408569336,508800
2020-01-14,35.349998474121094,35.525001525878906,34.77799987792969,34.93000030517578,33.55418395996094,911100
2020-01-15,34.86000061035156,35.13999938964844,34.26499938964844,34.5,33.14112091064453,2567000
2020-01-16,34.7400016784668,35.2599983215332,34.7400016784668,35.11000061035156,33.72709274291992,762400
2020-01-17,35.20000076293945,35.724998474121094,34.970001220703125,35.47999954223633,34.08251953125,578900
2020-01-21,35.099998474121094,35.459999084472656,34.54999923706055,34.560001373291016,33.19875717163086,1096400
2020-01-22,34.790000915527344,34.97999954223633,34.470001220703125,34.5,33.14112091064453,443600
2020-01-23,34.16999816894531,35.060001373291016,33.93000030517578,34.869998931884766,33.496543884277344,884200
2020-01-24,34.900001525878906,34.900001525878906,34.27000045776367,34.65999984741211,33.29481887817383,773800
2020-01-27,34.060001373291016,35.34000015258789,33.93000030517578,34.52000045776367,33.16033172607422,1406200
2020-01-28,34.70000076293945,35.77000045776367,34.599998474121094,35.58000183105469,34.17858123779297,1319400
2020-01-29,35.75,36.34000015258789,35.470001220703125,36.099998474121094,34.6781005859375,906400
2020-01-30,35.79999923706055,36.529998779296875,35.599998474121094,36.209999084472656,34.78376388549805,740500
2020-01-31,35.88999938964844,36.09000015258789,35.095001220703125,35.310001373291016,33.91921615600586,936000
2020-02-03,35.56999969482422,36.43000030517578,35.38999938964844,35.77000045776367,34.36109924316406,583700
2020-02-04,36.5099983215332,37.220001220703125,36.30500030517578,36.560001373291016,35.1199836730957,1085500
2020-02-05,37.08000183105469,37.08000183105469,36.470001220703125,36.75,35.30249786376953,842200
2020-02-06,36.790000915527344,37.08000183105469,36.29999923706055,37.02000045776367,35.56186294555664,1152000
2020-02-07,37.209999084472656,37.619998931884766,36.630001068115234,37.09000015258789,35.62910461425781,2812100
2020-02-10,36.959999084472656,37.58000183105469,36.86000061035156,37.560001373291016,36.080596923828125,1764600
2020-02-11,37.79999923706055,38.209999084472656,37.540000915527344,37.7400016784668,36.253501892089844,1272000
2020-02-12,38.0,38.880001068115234,37.959999084472656,38.47999954223633,36.96435546875,1770800
2020-02-13,38.279998779296875,38.56999969482422,37.459999084472656,37.54999923706055,36.070987701416016,1065200
2020-02-14,37.650001525878906,37.709999084472656,36.7400016784668,36.83000183105469,35.37934875488281,2220300
2020-02-18,36.470001220703125,37.91999816894531,36.150001525878906,37.54999923706055,36.070987701416016,3619600
2020-02-19,37.70000076293945,38.209999084472656,37.209999084472656,37.65999984741211,36.17665481567383,1948400
2020-02-20,37.45000076293945,38.689998626708984,37.369998931884766,38.650001525878906,37.127662658691406,1834100
2020-02-21,38.380001068115234,38.959999084472656,38.279998779296875,38.61000061035156,37.089237213134766,2869900
2020-02-24,37.279998779296875,37.41999816894531,36.560001373291016,36.560001373291016,35.1199836730957,2042300
2020-02-25,36.83000183105469,36.88999938964844,35.400001525878906,35.72999954223633,34.322669982910156,3193200
2020-02-26,36.06999969482422,36.29499816894531,35.45000076293945,35.75,34.34188461303711,2791500
2020-02-27,34.599998474121094,35.61000061035156,33.59000015258789,33.61000061035156,32.28617858886719,3235300
2020-02-28,32.91999816894531,33.59000015258789,31.049999237060547,32.790000915527344,31.498476028442383,9109500
2020-03-02,33.060001373291016,34.75,32.58000183105469,32.79999923706055,31.508079528808594,38314900
2020-03-03,32.599998474121094,32.900001525878906,30.670000076293945,31.700000762939453,30.451406478881836,18033500
2020-03-04,31.81999969482422,32.0,29.790000915527344,30.950000762939453,29.730947494506836,25202700
2020-03-05,29.90999984741211,30.139999389648438,26.780000686645508,26.829999923706055,25.773223876953125,15758700
2020-03-06,25.350000381469727,28.790000915527344,24.68000030517578,27.790000915527344,26.69541358947754,17039700
2020-03-09,25.549999237060547,26.15999984741211,22.8700008392334,23.329999923706055,22.411083221435547,11306200
2020-03-10,24.25,24.510000228881836,21.860000610351562,23.860000610351562,22.920207977294922,10318500
2020-03-11,23.18000030517578,24.139999389648438,22.459999084472656,23.489999771118164,22.56477928161621,10683700
2020-03-12,20.969999313354492,22.829999923706055,19.889999389648438,21.34000015258789,20.972665786743164,10578900
2020-03-13,22.440000534057617,23.559999465942383,20.204999923706055,23.0,22.60409164428711,8556200
2020-03-16,20.34000015258789,22.040000915527344,19.690000534057617,21.25,20.884214401245117,6441600
2020-03-17,21.5,22.610000610351562,20.75,21.540000915527344,21.16922378540039,7718300
2020-03-18,19.829999923706055,20.40999984741211,17.010000228881836,19.219999313354492,18.889158248901367,8292600
2020-03-19,18.90999984741211,22.350000381469727,18.81999969482422,20.010000228881836,19.665559768676758,5737500
2020-03-20,20.219999313354492,21.389999389648438,19.3700008392334,19.610000610351562,19.272445678710938,5900000
2020-03-23,19.489999771118164,20.209999084472656,18.280000686645508,19.5,19.164339065551758,6477500
2020-03-24,20.59000015258789,22.56999969482422,19.790000915527344,22.40999984741211,22.024248123168945,4696900
2020-03-25,22.700000762939453,25.229999542236328,21.520000457763672,23.280000686645508,22.8792724609375,5175600
2020-03-26,22.59000015258789,24.1299991607666,22.530000686645508,23.40999984741211,23.007034301757812,5518500
2020-03-27,22.3799991607666,23.059999465942383,21.690000534057617,22.6299991607666,22.240459442138672,4304400
2020-03-30,22.739999771118164,23.93000030517578,22.18000030517578,23.75,23.3411808013916,3760200
2020-03-31,23.530000686645508,25.139999389648438,23.530000686645508,24.799999237060547,24.373106002807617,6458500
2020-04-01,23.940000534057617,25.100000381469727,23.600000381469727,23.790000915527344,23.3804931640625,7902900
2020-04-02,23.530000686645508,24.690000534057617,22.59000015258789,23.040000915527344,22.643404006958008,6383200
2020-04-03,23.049999237060547,23.889999389648438,22.56999969482422,23.489999771118164,23.085657119750977,3826800
2020-04-06,24.649999618530273,26.040000915527344,24.549999237060547,25.43000030517578,24.992263793945312,5045100
2020-04-07,26.459999084472656,26.81999969482422,24.635000228881836,24.81999969482422,24.392763137817383,4253100
2020-04-08,24.899999618530273,25.850000381469727,24.424999237060547,25.700000762939453,25.25761604309082,3268900
2020-04-09,26.149999618530273,27.510000228881836,25.8700008392334,26.5,26.04384422302246,3299800
2020-04-13,26.479999542236328,26.940000534057617,25.6299991607666,26.219999313354492,25.76866340637207,3164100
2020-04-14,26.8799991607666,27.459999084472656,26.100000381469727,26.350000381469727,25.896427154541016,2551400
2020-04-15,25.520000457763672,25.56999969482422,24.149999618530273,24.360000610351562,23.94068145751953,2597100
2020-04-16,24.190000534057617,24.780000686645508,23.209999084472656,24.600000381469727,24.176549911499023,3761900
2020-04-17,25.40999984741211,26.989999771118164,25.309999465942383,26.809999465942383,26.348508834838867,3811400
2020-04-20,26.25,27.121999740600586,25.6299991607666,26.43000030517578,25.97504997253418,4002900
2020-04-21,25.700000762939453,26.540000915527344,25.600000381469727,26.3799991607666,25.9259090423584,3174100
2020-04-22,26.809999465942383,27.100000381469727,25.950000762939453,26.81999969482422,26.358335494995117,2641900
2020-04-23,27.0,28.09000015258789,26.829999923706055,27.360000610351562,26.889041900634766,2991100
2020-04-24,27.6299991607666,28.100000381469727,27.239999771118164,27.81999969482422,27.341123580932617,3126100
2020-04-27,28.079999923706055,29.43000030517578,27.860000610351562,28.770000457763672,28.274770736694336,3505500
2020-04-28,29.389999389648438,30.0,28.729999542236328,29.270000457763672,28.766164779663086,2800800
2020-04-29,30.0,30.479999542236328,29.71500015258789,30.31999969482422,29.7980899810791,2132600
2020-04-30,29.90999984741211,29.950000762939453,28.8700008392334,29.079999923706055,28.57943344116211,2507200
2020-05-01,28.649999618530273,28.7549991607666,27.610000610351562,28.1299991607666,27.64578628540039,1507800
2020-05-04,27.75,27.760000228881836,26.780000686645508,27.3700008392334,26.89887046813965,1763500
2020-05-05,27.510000228881836,28.3799991607666,27.510000228881836,27.59000015258789,27.115081787109375,2074000
2020-05-06,27.739999771118164,27.790000915527344,27.09000015258789,27.280000686645508,26.8104190826416,1515600
2020-05-07,27.739999771118164,28.264999389648438,27.579999923706055,27.68000030517578,27.203533172607422,1705700
2020-05-08,28.209999084472656,29.194000244140625,27.950000762939453,29.170000076293945,28.667884826660156,1869500
2020-05-11,28.889999389648438,29.329999923706055,28.149999618530273,29.09000015258789,28.589262008666992,2878100
2020-05-12,27.510000228881836,29.399999618530273,27.399999618530273,27.459999084472656,26.987319946289062,5602100
2020-05-13,27.030000686645508,27.059999465942383,25.368000030517578,25.920000076293945,25.47382926940918,4952200
2020-05-14,25.420000076293945,27.139999389648438,24.809999465942383,26.709999084472656,26.250228881835938,3223900
2020-05-15,26.440000534057617,26.8799991607666,26.219999313354492,26.420000076293945,25.965221405029297,3029200
2020-05-18,27.309999465942383,28.959999084472656,27.309999465942383,28.700000762939453,28.205976486206055,2445800
2020-05-19,28.520000457763672,29.1200008392334,28.079999923706055,28.479999542236328,27.989761352539062,4322000
2020-05-20,28.8700008392334,29.65999984741211,28.684999465942383,29.020000457763672,28.52046775817871,2766600
2020-05-21,28.950000762939453,29.40999984741211,28.649999618530273,29.40999984741211,28.90375328063965,2218200
2020-05-22,29.459999084472656,29.459999084472656,28.43000030517578,28.540000915527344,28.048730850219727,2312000
2020-05-26,29.5,30.850000381469727,29.290000915527344,30.40999984741211,29.886539459228516,3931800
2020-05-27,31.010000228881836,31.690000534057617,29.899999618530273,30.0,29.483598709106445,3437200
2020-05-28,28.0,29.3700008392334,27.93000030517578,28.75,28.255115509033203,6700100
2020-05-29,28.559999465942383,28.68000030517578,27.75,28.200000762939453,27.714582443237305,5718600
2020-06-01,28.190000534057617,28.885000228881836,27.71500015258789,28.760000228881836,28.264942169189453,2916700
2020-06-02,29.040000915527344,29.350000381469727,28.59000015258789,28.850000381469727,28.3533935546875,2427800
2020-06-03,29.329999923706055,30.860000610351562,29.1200008392334,30.790000915527344,30.260000228881836,3020200
2020-06-04,30.6299991607666,31.280000686645508,30.43000030517578,30.68000030517578,30.68000030517578,3246100
2020-06-05,32.08000183105469,33.970001220703125,32.0,33.2400016784668,33.2400016784668,6281700
2020-06-08,34.849998474121094,35.099998474121094,33.41999816894531,35.029998779296875,35.029998779296875,6190800
2020-06-09,34.310001373291016,34.4900016784668,33.0099983215332,33.09000015258789,33.09000015258789,3333300
2020-06-10,32.93000030517578,33.275001525878906,32.560001373291016,32.779998779296875,32.779998779296875,3277800
2020-06-11,31.260000228881836,31.530000686645508,30.65999984741211,30.75,30.75,5547600
2020-06-12,31.969999313354492,32.15999984741211,30.520000457763672,31.219999313354492,31.219999313354492,3081900
2020-06-15,30.040000915527344,31.219999313354492,29.59000015258789,31.020000457763672,31.020000457763672,4265500
2020-06-16,32.63999938964844,33.06999969482422,31.1200008392334,31.3700008392334,31.3700008392334,4575600
2020-06-17,30.5,30.959999084472656,29.479999542236328,29.549999237060547,29.549999237060547,11689000
2020-06-18,29.40999984741211,30.260000228881836,29.31999969482422,29.3799991607666,29.3799991607666,5166200
2020-06-19,29.829999923706055,29.850000381469727,28.790000915527344,28.809999465942383,28.809999465942383,6945900
2020-06-22,28.610000610351562,29.450000762939453,28.43000030517578,29.170000076293945,29.170000076293945,4126000
2020-06-23,29.510000228881836,29.639999389648438,28.860000610351562,28.979999542236328,28.979999542236328,4871200
2020-06-24,28.690000534057617,28.690000534057617,26.719999313354492,27.5,27.5,10711200
2020-06-25,27.360000610351562,27.68000030517578,26.809999465942383,27.56999969482422,27.56999969482422,6608200
2020-06-26,27.510000228881836,27.770000457763672,27.079999923706055,27.229999542236328,27.229999542236328,9657300
2020-06-29,27.489999771118164,28.299999237060547,27.270000457763672,28.110000610351562,28.110000610351562,3721700
2020-06-30,27.90999984741211,28.3700008392334,27.549999237060547,28.1200008392334,28.1200008392334,3384400
2020-07-01,28.18000030517578,28.649999618530273,27.90999984741211,28.040000915527344,28.040000915527344,3287100
2020-07-02,28.610000610351562,29.219999313354492,28.350000381469727,28.459999084472656,28.459999084472656,3861400
2020-07-06,28.920000076293945,29.399999618530273,28.614999771118164,29.309999465942383,29.309999465942383,2797600
2020-07-07,29.110000610351562,29.139999389648438,28.06999969482422,28.100000381469727,28.100000381469727,2380700
2020-07-08,28.079999923706055,28.40999984741211,27.719999313354492,28.1200008392334,28.1200008392334,2630400
2020-07-09,28.0,28.110000610351562,27.15999984741211,27.860000610351562,27.860000610351562,2904900
2020-07-10,27.81999969482422,28.40999984741211,27.780000686645508,28.309999465942383,28.309999465942383,3594500
2020-07-13,28.549999237060547,29.309999465942383,28.399999618530273,28.6299991607666,28.6299991607666,3655000
2020-07-14,28.68000030517578,29.760000228881836,28.43000030517578,29.729999542236328,29.729999542236328,3045400
2020-07-15,30.170000076293945,31.049999237060547,30.170000076293945,30.959999084472656,30.959999084472656,3462000
2020-07-16,30.889999389648438,31.31999969482422,30.450000762939453,30.68000030517578,30.68000030517578,2676800
2020-07-17,30.809999465942383,31.139999389648438,30.40999984741211,30.649999618530273,30.649999618530273,2905600
2020-07-20,30.610000610351562,31.3799991607666,30.40999984741211,31.299999237060547,31.299999237060547,3138600
2020-07-21,31.5,32.0,31.399999618530273,31.649999618530273,31.649999618530273,3143700
2020-07-22,31.719999313354492,32.150001525878906,31.510000228881836,31.899999618530273,31.899999618530273,2453500
2020-07-23,31.799999237060547,32.11000061035156,31.40999984741211,31.6299991607666,31.6299991607666,2109800
2020-07-24,31.68000030517578,31.790000915527344,31.280000686645508,31.600000381469727,31.600000381469727,2427600
2020-07-27,31.780000686645508,31.954999923706055,31.420000076293945,31.81999969482422,31.81999969482422,1862200
2020-07-28,31.8700008392334,31.969999313354492,31.18000030517578,31.350000381469727,31.350000381469727,3074800
2020-07-29,31.6299991607666,32.15999984741211,31.399999618530273,32.15999984741211,32.15999984741211,1957800
2020-07-30,31.670000076293945,31.90999984741211,31.239999771118164,31.809999465942383,31.809999465942383,1930000
2020-07-31,31.65999984741211,32.08000183105469,31.010000228881836,31.59000015258789,31.59000015258789,2658200
2020-08-03,31.84000015258789,32.65999984741211,31.649999618530273,32.630001068115234,32.630001068115234,2969600
2020-08-04,32.939998626708984,33.5099983215332,32.09000015258789,32.650001525878906,32.650001525878906,5173500
2020-08-05,32.939998626708984,33.599998474121094,32.78499984741211,32.900001525878906,32.900001525878906,2362900
2020-08-06,32.84000015258789,33.185001373291016,32.540000915527344,33.040000915527344,33.040000915527344,1847800
2020-08-07,32.939998626708984,33.91999816894531,32.7599983215332,33.900001525878906,33.900001525878906,2916200
2020-08-10,33.959999084472656,35.040000915527344,33.810001373291016,35.029998779296875,35.029998779296875,3477500
2020-08-11,35.36000061035156,36.24300003051758,35.36000061035156,35.86000061035156,35.86000061035156,3626000
2020-08-12,36.06999969482422,36.189998626708984,35.380001068115234,35.61000061035156,35.61000061035156,1977300
2020-08-13,35.369998931884766,35.459999084472656,35.04499816894531,35.119998931884766,35.119998931884766,1710000
2020-08-14,34.849998474121094,35.599998474121094,34.52000045776367,35.400001525878906,35.400001525878906,1572700
2020-08-17,35.45000076293945,35.540000915527344,34.68000030517578,34.810001373291016,34.810001373291016,1595500
2020-08-18,34.72999954223633,35.0099983215332,34.599998474121094,34.619998931884766,34.619998931884766,1917900
2020-08-19,34.68000030517578,34.97999954223633,34.29999923706055,34.43000030517578,34.43000030517578,1363000
2020-08-20,34.0,34.70000076293945,33.83000183105469,34.630001068115234,34.630001068115234,1647600
2020-08-21,34.599998474121094,34.91999816894531,34.43000030517578,34.709999084472656,34.709999084472656,1364700
2020-08-24,34.939998626708984,35.45000076293945,34.709999084472656,35.439998626708984,35.439998626708984,1304500
2020-08-25,35.560001373291016,35.63999938964844,34.939998626708984,35.2400016784668,35.2400016784668,1303300
2020-08-26,35.16999816894531,35.38999938964844,34.88999938964844,35.15999984741211,35.15999984741211,1202800
2020-08-27,35.38999938964844,35.505001068115234,35.08000183105469,35.290000915527344,35.290000915527344,1421600
2020-08-28,35.38999938964844,35.84000015258789,35.20500183105469,35.7599983215332,35.7599983215332,2421100
2020-08-31,35.84000015258789,35.84000015258789,35.060001373291016,35.060001373291016,35.060001373291016,1779900
2020-09-01,34.91999816894531,36.22999954223633,34.599998474121094,36.209999084472656,36.209999084472656,1895400
2020-09-02,36.2599983215332,36.35499954223633,35.68000030517578,36.099998474121094,36.099998474121094,2314700
2020-09-03,36.099998474121094,36.34000015258789,35.029998779296875,35.38999938964844,35.38999938964844,2030600
2020-09-04,35.88999938964844,36.20000076293945,35.189998626708984,35.310001373291016,35.310001373291016,2199100
2020-09-08,35.06999969482422,35.11000061035156,34.04999923706055,34.470001220703125,34.470001220703125,3055700
2020-09-09,34.86000061035156,35.66999816894531,34.65999984741211,35.41999816894531,35.41999816894531,2028000
2020-09-10,35.41999816894531,35.762001037597656,34.959999084472656,35.029998779296875,35.029998779296875,2172200
2020-09-11,35.22999954223633,36.10499954223633,35.029998779296875,35.97999954223633,35.97999954223633,2233100
2020-09-14,36.0099983215332,36.38999938964844,35.81999969482422,36.31999969482422,36.31999969482422,1947400
2020-09-15,36.369998931884766,36.599998474121094,35.9900016784668,36.33000183105469,36.33000183105469,1992800
2020-09-16,36.560001373291016,37.38999938964844,36.459999084472656,36.93000030517578,36.93000030517578,2970600
2020-09-17,36.5,37.630001068115234,36.099998474121094,37.189998626708984,37.189998626708984,3151600
2020-09-18,37.060001373291016,37.34000015258789,35.81999969482422,35.900001525878906,35.900001525878906,8420100
2020-09-21,35.13999938964844,35.439998626708984,34.02000045776367,34.65999984741211,34.65999984741211,2536000
2020-09-22,34.529998779296875,35.20500183105469,34.47999954223633,35.099998474121094,35.099998474121094,2757000
2020-09-23,35.22999954223633,35.7869987487793,35.0099983215332,35.029998779296875,35.029998779296875,2097200
2020-09-24,35.189998626708984,35.970001220703125,34.20000076293945,35.369998931884766,35.369998931884766,2025200
2020-09-25,35.040000915527344,35.6150016784668,34.84000015258789,35.369998931884766,35.369998931884766,1787200
2020-09-28,36.029998779296875,36.77000045776367,35.880001068115234,36.04999923706055,36.04999923706055,2406100
2020-09-29,36.18000030517578,36.54999923706055,35.66999816894531,35.869998931884766,35.869998931884766,1470000
2020-09-30,35.90999984741211,36.42499923706055,35.209999084472656,35.599998474121094,35.599998474121094,2069400
2020-10-01,35.88999938964844,36.09000015258789,35.130001068115234,35.56999969482422,35.56999969482422,1420800
2020-10-02,34.9900016784668,36.58000183105469,34.86000061035156,36.08000183105469,36.08000183105469,1920700
2020-10-05,36.59000015258789,37.11000061035156,36.45000076293945,36.90999984741211,36.90999984741211,2247500
2020-10-06,37.0099983215332,37.43000030517578,36.380001068115234,36.45000076293945,36.45000076293945,2281000
2020-10-07,36.91999816894531,37.150001525878906,36.439998626708984,36.65999984741211,36.65999984741211,4214800
2020-10-08,36.900001525878906,37.310001373291016,36.4900016784668,37.22999954223633,37.22999954223633,2165800
2020-10-09,37.58000183105469,37.779998779296875,37.099998474121094,37.130001068115234,37.130001068115234,1914900
2020-10-12,37.29999923706055,37.40999984741211,36.904998779296875,37.209999084472656,37.209999084472656,2034800
2020-10-13,37.09000015258789,37.63999938964844,37.060001373291016,37.529998779296875,37.529998779296875,2597600
2020-10-14,37.56999969482422,38.099998474121094,37.29999923706055,37.369998931884766,37.369998931884766,2631900
2020-10-15,36.560001373291016,37.150001525878906,36.310001373291016,37.06999969482422,37.06999969482422,2636400
2020-10-16,37.459999084472656,37.97999954223633,37.20500183105469,37.220001220703125,37.220001220703125,1611800
2020-10-19,37.15999984741211,37.459999084472656,36.52000045776367,36.599998474121094,36.599998474121094,2084100
2020-10-20,36.939998626708984,37.79399871826172,36.935001373291016,37.2400016784668,37.2400016784668,1932800
2020-10-21,37.279998779296875,37.90999984741211,37.244998931884766,37.2599983215332,37.2599983215332,1648900
2020-10-22,37.16999816894531,38.04499816894531,37.06999969482422,37.93000030517578,37.93000030517578,1392500
2020-10-23,38.18000030517578,38.380001068115234,37.459999084472656,38.27000045776367,38.27000045776367,1827400
2020-10-26,37.75,37.75,36.025001525878906,36.560001373291016,36.560001373291016,2390300
2020-10-27,36.5,36.79999923706055,35.939998626708984,36.099998474121094,36.099998474121094,1882000
2020-10-28,35.349998474121094,35.900001525878906,35.150001525878906,35.2400016784668,35.2400016784668,1918000
2020-10-29,35.060001373291016,35.459999084472656,34.689998626708984,35.08000183105469,35.08000183105469,1865300
2020-10-30,34.95000076293945,35.279998779296875,34.369998931884766,34.939998626708984,34.939998626708984,2369300
2020-11-02,35.560001373291016,36.130001068115234,35.36000061035156,35.97999954223633,35.97999954223633,2145500
2020-11-03,36.31999969482422,38.9900016784668,36.040000915527344,38.75,38.75,3722000
2020-11-04,38.689998626708984,38.720001220703125,37.0,38.06999969482422,38.06999969482422,3710900
2020-11-05,38.56999969482422,40.209999084472656,38.15999984741211,39.79999923706055,39.79999923706055,2432600
2020-11-06,39.66999816894531,40.46500015258789,39.64500045776367,40.25,40.25,1899000
2020-11-09,42.0099983215332,45.529998779296875,42.0099983215332,42.779998779296875,42.779998779296875,4984900
2020-11-10,42.5,43.85499954223633,42.470001220703125,42.75,42.75,3268400
2020-11-11,43.150001525878906,43.16999816894531,42.20000076293945,42.61000061035156,42.61000061035156,1440600
2020-11-12,42.150001525878906,42.869998931884766,42.02000045776367,42.5,42.5,1609700
2020-11-13,42.97999954223633,43.77000045776367,42.52000045776367,42.7599983215332,42.7599983215332,2822900
2020-11-16,43.61000061035156,45.0,43.22999954223633,44.9900016784668,44.9900016784668,3257500
2020-11-17,44.560001373291016,44.970001220703125,43.75,44.63999938964844,44.63999938964844,1725200
2020-11-18,44.970001220703125,44.9900016784668,43.88999938964844,43.90999984741211,43.90999984741211,1458700
2020-11-19,43.709999084472656,44.310001373291016,43.43000030517578,44.20000076293945,44.20000076293945,1525800
2020-11-20,44.27000045776367,44.45000076293945,43.909000396728516,44.2599983215332,44.2599983215332,1433400
2020-11-23,44.790000915527344,45.08000183105469,44.459999084472656,44.47999954223633,44.47999954223633,1773800
2020-11-24,45.290000915527344,45.58000183105469,44.939998626708984,45.470001220703125,45.470001220703125,2076300
2020-11-25,45.33000183105469,45.33000183105469,44.72999954223633,44.810001373291016,44.810001373291016,1006400
2020-11-27,45.189998626708984,45.189998626708984,44.630001068115234,44.79999923706055,44.79999923706055,594900
2020-11-30,44.58000183105469,44.88999938964844,44.029998779296875,44.27000045776367,44.27000045776367,2517300
2020-12-01,45.029998779296875,45.63999938964844,44.7599983215332,44.79999923706055,44.79999923706055,2909300
2020-12-02,44.439998626708984,44.900001525878906,44.02399826049805,44.33000183105469,44.33000183105469,1760500
2020-12-03,44.209999084472656,44.97999954223633,44.0099983215332,44.459999084472656,44.459999084472656,1720600
2020-12-04,44.79999923706055,45.45000076293945,44.79999923706055,45.189998626708984,45.189998626708984,1578800
2020-12-07,45.099998474121094,45.25,44.16999816894531,44.33000183105469,44.33000183105469,1992700
2020-12-08,44.040000915527344,44.58000183105469,44.0099983215332,44.540000915527344,44.540000915527344,2148800
2020-12-09,44.79999923706055,45.08000183105469,44.66999816894531,44.9900016784668,44.9900016784668,2161900
2020-12-10,44.709999084472656,44.93000030517578,44.43000030517578,44.790000915527344,44.790000915527344,2208200
2020-12-11,44.29999923706055,44.630001068115234,44.08000183105469,44.31999969482422,44.31999969482422,2631600
2020-12-14,45.25,45.459999084472656,43.75,43.86000061035156,43.86000061035156,2269800
2020-12-15,44.5,44.93000030517578,43.8650016784668,44.7599983215332,44.7599983215332,1716700
2020-12-16,44.83000183105469,44.85499954223633,43.83000183105469,44.31999969482422,44.31999969482422,1526500
2020-12-17,44.439998626708984,45.57500076293945,43.959999084472656,45.439998626708984,45.439998626708984,2312200
2020-12-18,45.540000915527344,45.88999938964844,44.900001525878906,45.220001220703125,45.220001220703125,5238800
2020-12-21,44.279998779296875,45.70000076293945,44.0099983215332,45.65999984741211,45.65999984741211,1579300
2020-12-22,45.810001373291016,45.97999954223633,45.5,45.560001373291016,45.560001373291016,1523400
2020-12-23,45.779998779296875,45.9900016784668,45.33000183105469,45.7599983215332,45.7599983215332,859600
2020-12-24,45.779998779296875,46.040000915527344,45.189998626708984,46.029998779296875,46.029998779296875,609700
2020-12-28,46.290000915527344,46.82099914550781,45.04999923706055,45.099998474121094,45.099998474121094,1106000
2020-12-29,45.189998626708984,45.43000030517578,44.150001525878906,44.47999954223633,44.47999954223633,1010300
2020-12-30,44.5,45.380001068115234,44.5,45.2400016784668,45.2400016784668,1439800
