Date,Open,High,Low,Close,Adj Close,Volume
2020-10-30,9.649999618530273,9.649999618530273,9.649999618530273,9.649999618530273,9.649999618530273,2000
2020-11-02,9.649999618530273,9.649999618530273,9.649999618530273,9.649999618530273,9.649999618530273,0
2020-11-03,9.649999618530273,9.649999618530273,9.649999618530273,9.649999618530273,9.649999618530273,0
2020-11-04,9.649999618530273,9.649999618530273,9.649999618530273,9.649999618530273,9.649999618530273,0
2020-11-05,9.649999618530273,9.649999618530273,9.649999618530273,9.649999618530273,9.649999618530273,0
2020-11-06,9.899999618530273,9.899999618530273,9.899999618530273,9.899999618530273,9.899999618530273,371
2020-11-09,9.670000076293945,9.670000076293945,9.670000076293945,9.670000076293945,9.670000076293945,557
2020-11-10,9.670000076293945,9.670000076293945,9.670000076293945,9.670000076293945,9.670000076293945,0
2020-11-11,9.699999809265137,9.819999694824219,9.699999809265137,9.800200462341309,9.800200462341309,57623
2020-11-12,9.989999771118164,9.989999771118164,9.989999771118164,9.989999771118164,9.989999771118164,1116
2020-11-13,9.989999771118164,9.989999771118164,9.989999771118164,9.989999771118164,9.989999771118164,0
2020-11-16,9.6899995803833,9.710000038146973,9.688899993896484,9.699999809265137,9.699999809265137,285499
2020-11-17,9.829999923706055,9.829999923706055,9.720000267028809,9.720000267028809,9.720000267028809,2228
2020-11-18,9.710000038146973,9.729999542236328,9.710000038146973,9.710000038146973,9.710000038146973,402606
2020-11-19,9.710000038146973,9.710000038146973,9.710000038146973,9.710000038146973,9.710000038146973,0
2020-11-20,9.760000228881836,9.829999923706055,9.75,9.819999694824219,9.819999694824219,186154
2020-11-23,9.819999694824219,9.979999542236328,9.819999694824219,9.819999694824219,9.819999694824219,33475
2020-11-24,9.897000312805176,9.916899681091309,9.897000312805176,9.916899681091309,9.916899681091309,204
2020-11-25,9.819999694824219,9.869999885559082,9.819999694824219,9.869999885559082,9.869999885559082,35810
2020-11-27,9.869999885559082,9.902799606323242,9.869999885559082,9.902799606323242,9.902799606323242,4359
2020-11-30,9.869999885559082,9.989999771118164,9.869999885559082,9.979999542236328,9.979999542236328,49142
2020-12-01,9.9350004196167,9.9350004196167,9.899900436401367,9.899999618530273,9.899999618530273,51550
2020-12-02,9.954999923706055,10.460000038146973,9.890000343322754,9.899999618530273,9.899999618530273,115545
2020-12-03,9.899999618530273,9.899999618530273,9.899999618530273,9.899999618530273,9.899999618530273,0
2020-12-04,9.960000038146973,9.989999771118164,9.920000076293945,9.979999542236328,9.979999542236328,46127
2020-12-07,10.0,10.079999923706055,9.979999542236328,10.027199745178223,10.027199745178223,2601
2020-12-08,10.020000457763672,10.020000457763672,9.970000267028809,9.970000267028809,9.970000267028809,24615
2020-12-09,9.970000267028809,10.015000343322754,9.970000267028809,9.989999771118164,9.989999771118164,348510
2020-12-10,10.0,10.010000228881836,9.989999771118164,9.989999771118164,9.989999771118164,27987
2020-12-11,10.020000457763672,10.050000190734863,9.989999771118164,10.029999732971191,10.029999732971191,16737
2020-12-14,10.020000457763672,10.17650032043457,9.899999618530273,9.96500015258789,9.96500015258789,7102
2020-12-15,10.029999732971191,10.039999961853027,10.010000228881836,10.029999732971191,10.029999732971191,2738
2020-12-16,10.0,10.0600004196167,10.0,10.039999961853027,10.039999961853027,9457
2020-12-17,10.050000190734863,10.050000190734863,10.0,10.0,10.0,55507
2020-12-18,10.010000228881836,10.029999732971191,9.949999809265137,10.0,10.0,32995
2020-12-21,10.0,10.0,10.0,10.0,10.0,0
2020-12-22,10.069999694824219,10.09000015258789,10.0,10.0,10.0,39393
2020-12-23,11.25,11.25,10.100000381469727,10.15999984741211,10.15999984741211,75489
2020-12-24,10.1899995803833,10.210000038146973,10.0,10.085000038146973,10.085000038146973,38595
2020-12-28,10.149999618530273,10.199999809265137,9.960000038146973,10.010000228881836,10.010000228881836,46443
2020-12-29,10.010000228881836,10.109999656677246,9.989999771118164,10.020000457763672,10.020000457763672,205871
2020-12-30,10.029999732971191,10.109999656677246,10.029999732971191,10.100000381469727,10.100000381469727,13197
