Date,Open,High,Low,Close,Adj Close,Volume
2020-10-30,6.5,6.900000095367432,5.900000095367432,6.0,6.0,134400
2020-11-02,6.010000228881836,6.400000095367432,5.400000095367432,5.400000095367432,5.400000095367432,192300
2020-11-03,5.429999828338623,5.900000095367432,4.900000095367432,4.900000095367432,4.900000095367432,69000
2020-11-04,5.389999866485596,7.0,4.0,4.070000171661377,4.070000171661377,116300
2020-11-05,4.0,5.074999809265137,3.7300000190734863,4.079999923706055,4.079999923706055,147100
2020-11-06,4.244999885559082,4.960000038146973,4.0,4.260000228881836,4.260000228881836,152200
2020-11-09,4.650000095367432,4.880000114440918,4.269999980926514,4.340000152587891,4.340000152587891,49400
2020-11-10,4.25,4.309999942779541,3.799999952316284,3.943000078201294,3.943000078201294,33000
2020-11-11,4.079999923706055,4.079999923706055,3.809999942779541,3.947000026702881,3.947000026702881,22500
2020-11-12,3.9000000953674316,4.050000190734863,3.9000000953674316,3.9800000190734863,3.9800000190734863,11300
2020-11-13,3.940000057220459,3.990000009536743,3.8499999046325684,3.934999942779541,3.934999942779541,20300
2020-11-16,3.990000009536743,4.329999923706055,3.9600000381469727,4.190000057220459,4.190000057220459,40200
2020-11-17,4.5,5.420000076293945,4.250999927520752,4.800000190734863,4.800000190734863,120900
2020-11-18,4.800000190734863,4.800000190734863,4.400000095367432,4.420000076293945,4.420000076293945,27500
2020-11-19,4.480000019073486,4.800000190734863,4.420000076293945,4.489999771118164,4.489999771118164,24100
2020-11-20,4.460000038146973,4.519999980926514,4.039999961853027,4.369999885559082,4.369999885559082,20600
2020-11-23,4.400000095367432,4.599999904632568,4.045000076293945,4.235000133514404,4.235000133514404,26600
2020-11-24,4.5,4.659999847412109,4.21999979019165,4.449999809265137,4.449999809265137,75700
2020-11-25,4.539999961853027,4.539999961853027,4.177000045776367,4.199999809265137,4.199999809265137,36400
2020-11-27,4.260000228881836,4.771999835968018,4.184000015258789,4.550000190734863,4.550000190734863,48600
2020-11-30,4.75,5.860000133514404,4.550000190734863,5.199999809265137,5.199999809265137,211600
2020-12-01,5.289999961853027,5.289999961853027,4.550000190734863,4.590000152587891,4.590000152587891,56700
2020-12-02,4.46999979019165,4.800000190734863,4.260000228881836,4.630000114440918,4.630000114440918,15600
2020-12-03,4.78000020980835,5.565999984741211,4.550000190734863,5.090000152587891,5.090000152587891,136200
2020-12-04,5.179999828338623,5.699999809265137,4.909999847412109,5.159999847412109,5.159999847412109,197100
2020-12-07,5.03000020980835,5.070000171661377,4.2789998054504395,4.585999965667725,4.585999965667725,69200
2020-12-08,4.53000020980835,4.800000190734863,4.0,4.329999923706055,4.329999923706055,34700
2020-12-09,4.420000076293945,4.849999904632568,4.0,4.039999961853027,4.039999961853027,52100
2020-12-10,4.2129998207092285,4.25,3.9000000953674316,3.950000047683716,3.950000047683716,45100
2020-12-11,4.0,4.199999809265137,3.950000047683716,4.010000228881836,4.010000228881836,14200
2020-12-14,4.019999980926514,4.489999771118164,4.019999980926514,4.449999809265137,4.449999809265137,65500
2020-12-15,4.46999979019165,4.579999923706055,4.260000228881836,4.46999979019165,4.46999979019165,33300
2020-12-16,4.5,5.400000095367432,4.46999979019165,5.289999961853027,5.289999961853027,239500
2020-12-17,5.400000095367432,8.350000381469727,5.289999961853027,6.090000152587891,6.090000152587891,7980500
2020-12-18,6.75,6.889999866485596,5.340000152587891,6.510000228881836,6.510000228881836,1056900
2020-12-21,5.920000076293945,6.409999847412109,5.599999904632568,6.119999885559082,6.119999885559082,383100
2020-12-22,6.75,6.789999961853027,5.679999828338623,5.989999771118164,5.989999771118164,703100
2020-12-23,5.800000190734863,5.949999809265137,5.449999809265137,5.599999904632568,5.599999904632568,261200
2020-12-24,5.539999961853027,5.590000152587891,4.619999885559082,5.059999942779541,5.059999942779541,343200
2020-12-28,5.300000190734863,5.989999771118164,5.199999809265137,5.28000020980835,5.28000020980835,387300
2020-12-29,5.269999980926514,5.419000148773193,5.0,5.099999904632568,5.099999904632568,92800
2020-12-30,5.230000019073486,5.610000133514404,5.046000003814697,5.130000114440918,5.130000114440918,92200
