Date,Open,High,Low,Close,Adj Close,Volume
2018-02-26,9.600000381469727,9.619999885559082,9.600000381469727,9.619999885559082,9.619999885559082,41200
2018-02-27,9.600000381469727,9.619999885559082,9.600000381469727,9.619999885559082,9.619999885559082,33400
2018-02-28,9.619999885559082,9.619999885559082,9.579999923706055,9.579999923706055,9.579999923706055,2400
2018-03-01,9.579999923706055,9.579999923706055,9.579999923706055,9.579999923706055,9.579999923706055,0
2018-03-02,9.579999923706055,9.579999923706055,9.579999923706055,9.579999923706055,9.579999923706055,0
2018-03-05,9.579999923706055,9.579999923706055,9.579999923706055,9.579999923706055,9.579999923706055,0
2018-03-06,9.579999923706055,9.579999923706055,9.579999923706055,9.579999923706055,9.579999923706055,0
2018-03-07,9.579999923706055,9.579999923706055,9.579999923706055,9.579999923706055,9.579999923706055,0
2018-03-08,9.579999923706055,9.579999923706055,9.579999923706055,9.579999923706055,9.579999923706055,0
2018-03-09,9.579999923706055,9.579999923706055,9.579999923706055,9.579999923706055,9.579999923706055,0
2018-03-12,9.579999923706055,9.579999923706055,9.579999923706055,9.579999923706055,9.579999923706055,0
2018-03-13,9.579999923706055,9.579999923706055,9.579999923706055,9.579999923706055,9.579999923706055,0
2018-03-14,9.579999923706055,9.579999923706055,9.579999923706055,9.579999923706055,9.579999923706055,0
2018-03-15,9.579999923706055,9.579999923706055,9.579999923706055,9.579999923706055,9.579999923706055,0
2018-03-16,9.579999923706055,9.579999923706055,9.579999923706055,9.579999923706055,9.579999923706055,0
2018-03-19,9.579999923706055,9.579999923706055,9.579999923706055,9.579999923706055,9.579999923706055,0
2018-03-20,9.579999923706055,9.579999923706055,9.579999923706055,9.579999923706055,9.579999923706055,0
2018-03-21,9.619999885559082,9.619999885559082,9.619999885559082,9.619999885559082,9.619999885559082,17700
2018-03-22,9.600000381469727,9.600000381469727,9.600000381469727,9.600000381469727,9.600000381469727,210000
2018-03-23,9.600000381469727,9.600000381469727,9.600000381469727,9.600000381469727,9.600000381469727,0
2018-03-26,9.600000381469727,9.631999969482422,9.59000015258789,9.600000381469727,9.600000381469727,66300
2018-03-27,9.600000381469727,9.684000015258789,9.59000015258789,9.600000381469727,9.600000381469727,57100
2018-03-28,9.600000381469727,9.600000381469727,9.579999923706055,9.579999923706055,9.579999923706055,800
2018-03-29,9.579999923706055,9.579999923706055,9.579999923706055,9.579999923706055,9.579999923706055,0
2018-04-02,9.600000381469727,9.600000381469727,9.600000381469727,9.600000381469727,9.600000381469727,50400
2018-04-03,9.600000381469727,9.600000381469727,9.600000381469727,9.600000381469727,9.600000381469727,0
2018-04-04,9.600000381469727,9.600000381469727,9.600000381469727,9.600000381469727,9.600000381469727,400
2018-04-05,9.59000015258789,9.59000015258789,9.579999923706055,9.579999923706055,9.579999923706055,19600
2018-04-06,9.579999923706055,9.579999923706055,9.579999923706055,9.579999923706055,9.579999923706055,100
2018-04-09,9.579999923706055,9.579999923706055,9.579999923706055,9.579999923706055,9.579999923706055,0
2018-04-10,9.5600004196167,9.579999923706055,9.17300033569336,9.579999923706055,9.579999923706055,20000
2018-04-11,9.579999923706055,9.579999923706055,9.579999923706055,9.579999923706055,9.579999923706055,0
2018-04-12,9.579999923706055,9.579999923706055,9.579999923706055,9.579999923706055,9.579999923706055,0
2018-04-13,9.5,9.5,9.5,9.5,9.5,100
2018-04-16,9.9399995803833,9.949999809265137,9.614999771118164,9.75,9.75,13300
2018-04-17,9.75,9.75,9.699999809265137,9.699999809265137,9.699999809265137,6300
2018-04-18,9.699999809265137,9.699999809265137,9.699999809265137,9.699999809265137,9.699999809265137,0
2018-04-19,9.699999809265137,9.699999809265137,9.699999809265137,9.699999809265137,9.699999809265137,200
2018-04-20,9.699999809265137,9.699999809265137,9.699999809265137,9.699999809265137,9.699999809265137,0
2018-04-23,9.699999809265137,9.699999809265137,9.699999809265137,9.699999809265137,9.699999809265137,0
2018-04-24,9.600000381469727,9.949999809265137,9.600000381469727,9.949999809265137,9.949999809265137,1600
2018-04-25,9.949999809265137,9.949999809265137,9.949999809265137,9.949999809265137,9.949999809265137,0
2018-04-26,9.949999809265137,9.949999809265137,9.699999809265137,9.699999809265137,9.699999809265137,1900
2018-04-27,9.699999809265137,9.699999809265137,9.699999809265137,9.699999809265137,9.699999809265137,0
2018-04-30,9.699999809265137,9.699999809265137,9.699999809265137,9.699999809265137,9.699999809265137,0
2018-05-01,9.699999809265137,9.699999809265137,9.699999809265137,9.699999809265137,9.699999809265137,0
2018-05-02,9.699999809265137,9.699999809265137,9.699999809265137,9.699999809265137,9.699999809265137,0
2018-05-03,9.699999809265137,9.699999809265137,9.699999809265137,9.699999809265137,9.699999809265137,0
2018-05-04,9.699999809265137,9.699999809265137,9.699999809265137,9.699999809265137,9.699999809265137,0
2018-05-07,9.699999809265137,9.699999809265137,9.699999809265137,9.699999809265137,9.699999809265137,0
2018-05-08,9.699999809265137,9.699999809265137,9.699999809265137,9.699999809265137,9.699999809265137,0
2018-05-09,9.699999809265137,9.699999809265137,9.699999809265137,9.699999809265137,9.699999809265137,59200
2018-05-10,9.699999809265137,9.699999809265137,9.699999809265137,9.699999809265137,9.699999809265137,0
2018-05-11,9.699999809265137,9.78600025177002,9.609999656677246,9.609999656677246,9.609999656677246,117700
2018-05-14,9.619999885559082,9.619999885559082,9.609999656677246,9.609999656677246,9.609999656677246,5300
2018-05-15,9.649999618530273,9.699999809265137,9.619999885559082,9.699999809265137,9.699999809265137,355100
2018-05-16,9.699999809265137,9.699999809265137,9.619999885559082,9.65999984741211,9.65999984741211,77100
2018-05-17,9.65999984741211,9.65999984741211,9.65999984741211,9.65999984741211,9.65999984741211,0
2018-05-18,9.649999618530273,9.9399995803833,9.649999618530273,9.699999809265137,9.699999809265137,35100
2018-05-21,9.699999809265137,9.699999809265137,9.699999809265137,9.699999809265137,9.699999809265137,0
2018-05-22,9.699999809265137,9.699999809265137,9.699999809265137,9.699999809265137,9.699999809265137,0
2018-05-23,9.699999809265137,9.699999809265137,9.699999809265137,9.699999809265137,9.699999809265137,100
2018-05-24,9.699999809265137,9.699999809265137,9.699999809265137,9.699999809265137,9.699999809265137,0
2018-05-25,9.699999809265137,9.699999809265137,9.699999809265137,9.699999809265137,9.699999809265137,0
2018-05-29,9.930000305175781,9.949999809265137,9.930000305175781,9.949999809265137,9.949999809265137,1100
2018-05-30,9.9399995803833,9.9399995803833,9.649999618530273,9.75,9.75,22300
2018-05-31,9.699999809265137,9.739999771118164,9.699999809265137,9.739999771118164,9.739999771118164,5000
2018-06-01,9.739999771118164,9.739999771118164,9.739999771118164,9.739999771118164,9.739999771118164,0
2018-06-04,9.739999771118164,9.739999771118164,9.739999771118164,9.739999771118164,9.739999771118164,0
2018-06-05,9.913000106811523,9.913000106811523,9.75,9.779999732971191,9.779999732971191,10400
2018-06-06,9.649999618530273,9.75,9.649999618530273,9.75,9.75,62000
2018-06-07,9.75,9.75,9.75,9.75,9.75,0
2018-06-08,9.75,9.75,9.75,9.75,9.75,0
2018-06-11,9.75,9.75,9.75,9.75,9.75,0
2018-06-12,9.75,9.75,9.75,9.75,9.75,0
2018-06-13,9.78499984741211,9.800000190734863,9.710000038146973,9.710000038146973,9.710000038146973,14000
2018-06-14,9.710000038146973,9.710000038146973,9.710000038146973,9.710000038146973,9.710000038146973,0
2018-06-15,9.710000038146973,9.710000038146973,9.710000038146973,9.710000038146973,9.710000038146973,0
2018-06-18,9.710000038146973,9.710000038146973,9.710000038146973,9.710000038146973,9.710000038146973,0
2018-06-19,9.739999771118164,9.739999771118164,9.739999771118164,9.739999771118164,9.739999771118164,100
2018-06-20,9.791000366210938,9.791000366210938,9.75,9.760000228881836,9.760000228881836,1100
2018-06-21,9.760000228881836,9.760000228881836,9.760000228881836,9.760000228881836,9.760000228881836,0
2018-06-22,9.760000228881836,9.760000228881836,9.760000228881836,9.760000228881836,9.760000228881836,0
2018-06-25,9.75,9.75,9.75,9.75,9.75,200
2018-06-26,9.75,9.75,9.75,9.75,9.75,0
2018-06-27,9.699999809265137,9.729999542236328,9.699999809265137,9.729999542236328,9.729999542236328,2000
2018-06-28,9.729999542236328,9.729999542236328,9.729999542236328,9.729999542236328,9.729999542236328,0
2018-06-29,9.760000228881836,9.760000228881836,9.760000228881836,9.760000228881836,9.760000228881836,100
2018-07-02,9.760000228881836,9.760000228881836,9.760000228881836,9.760000228881836,9.760000228881836,0
2018-07-03,9.75,11.800000190734863,9.75,9.75,9.75,2800
2018-07-05,9.770000457763672,9.770000457763672,9.75,9.75,9.75,1400
2018-07-06,9.75,9.75,9.75,9.75,9.75,0
2018-07-09,9.75,9.75,9.75,9.75,9.75,1000
2018-07-10,9.75,9.75,9.75,9.75,9.75,0
2018-07-11,9.75,9.75,9.75,9.75,9.75,0
2018-07-12,9.75,9.75,9.75,9.75,9.75,1000
2018-07-13,9.899999618530273,9.899999618530273,9.899999618530273,9.899999618530273,9.899999618530273,1000
2018-07-16,9.899999618530273,9.899999618530273,9.899999618530273,9.899999618530273,9.899999618530273,0
2018-07-17,9.899999618530273,9.899999618530273,9.899999618530273,9.899999618530273,9.899999618530273,2900
2018-07-18,9.899999618530273,9.899999618530273,9.899999618530273,9.899999618530273,9.899999618530273,0
2018-07-19,9.899999618530273,9.899999618530273,9.899999618530273,9.899999618530273,9.899999618530273,0
2018-07-20,9.899999618530273,9.899999618530273,9.899999618530273,9.899999618530273,9.899999618530273,0
2018-07-23,9.899999618530273,9.899999618530273,9.899999618530273,9.899999618530273,9.899999618530273,0
2018-07-24,9.857000350952148,9.875,9.857000350952148,9.875,9.875,1500
2018-07-25,9.84000015258789,10.0,9.84000015258789,10.0,10.0,1100
2018-07-26,10.0,10.0,10.0,10.0,10.0,0
2018-07-27,9.800000190734863,9.800000190734863,9.800000190734863,9.800000190734863,9.800000190734863,700
2018-07-30,10.199999809265137,10.199999809265137,10.199999809265137,10.199999809265137,10.199999809265137,300
2018-07-31,10.199999809265137,10.199999809265137,10.199999809265137,10.199999809265137,10.199999809265137,0
2018-08-01,10.199999809265137,10.199999809265137,10.199999809265137,10.199999809265137,10.199999809265137,0
2018-08-02,10.199999809265137,10.199999809265137,10.199999809265137,10.199999809265137,10.199999809265137,0
2018-08-03,10.199999809265137,10.199999809265137,10.199999809265137,10.199999809265137,10.199999809265137,0
2018-08-06,10.199999809265137,10.199999809265137,10.199999809265137,10.199999809265137,10.199999809265137,0
2018-08-07,10.199999809265137,10.199999809265137,10.199999809265137,10.199999809265137,10.199999809265137,0
2018-08-08,10.199999809265137,10.199999809265137,10.199999809265137,10.199999809265137,10.199999809265137,0
2018-08-09,10.199999809265137,10.199999809265137,10.199999809265137,10.199999809265137,10.199999809265137,0
2018-08-10,9.850000381469727,9.850000381469727,9.850000381469727,9.850000381469727,9.850000381469727,600
2018-08-13,9.859999656677246,9.859999656677246,9.75,9.850000381469727,9.850000381469727,40300
2018-08-14,10.029999732971191,10.029999732971191,10.029999732971191,10.029999732971191,10.029999732971191,200
2018-08-15,9.859999656677246,9.928999900817871,9.859999656677246,9.928999900817871,9.928999900817871,200
2018-08-16,9.928999900817871,9.928999900817871,9.928999900817871,9.928999900817871,9.928999900817871,0
2018-08-17,10.199999809265137,10.199999809265137,10.199999809265137,10.199999809265137,10.199999809265137,100
2018-08-20,10.199999809265137,10.199999809265137,10.199999809265137,10.199999809265137,10.199999809265137,0
2018-08-21,10.199999809265137,10.199999809265137,10.199999809265137,10.199999809265137,10.199999809265137,400
2018-08-22,10.199999809265137,10.199999809265137,10.199999809265137,10.199999809265137,10.199999809265137,0
2018-08-23,10.1899995803833,10.1899995803833,9.960000038146973,10.100000381469727,10.100000381469727,5700
2018-08-24,10.100000381469727,10.100000381469727,10.050000190734863,10.09000015258789,10.09000015258789,5000
2018-08-27,10.09000015258789,10.09000015258789,10.09000015258789,10.09000015258789,10.09000015258789,0
2018-08-28,10.09000015258789,10.09000015258789,10.09000015258789,10.09000015258789,10.09000015258789,0
2018-08-29,10.09000015258789,10.09000015258789,10.09000015258789,10.09000015258789,10.09000015258789,0
2018-08-30,10.050000190734863,10.050000190734863,9.965999603271484,9.965999603271484,9.965999603271484,4100
2018-08-31,9.965999603271484,9.965999603271484,9.965999603271484,9.965999603271484,9.965999603271484,0
2018-09-04,9.965999603271484,9.965999603271484,9.965999603271484,9.965999603271484,9.965999603271484,0
2018-09-05,9.850000381469727,10.039999961853027,9.850000381469727,10.039999961853027,10.039999961853027,38700
2018-09-06,10.039999961853027,10.111000061035156,10.039999961853027,10.100000381469727,10.100000381469727,50700
2018-09-07,10.100000381469727,10.100000381469727,10.100000381469727,10.100000381469727,10.100000381469727,0
2018-09-10,10.199999809265137,10.199999809265137,10.130000114440918,10.130000114440918,10.130000114440918,1100
2018-09-11,10.100000381469727,10.100000381469727,10.100000381469727,10.100000381469727,10.100000381469727,202100
2018-09-12,10.100000381469727,10.100000381469727,10.050000190734863,10.100000381469727,10.100000381469727,446100
2018-09-13,10.100000381469727,10.100000381469727,10.100000381469727,10.100000381469727,10.100000381469727,0
2018-09-14,10.100000381469727,10.100000381469727,10.100000381469727,10.100000381469727,10.100000381469727,0
2018-09-17,10.100000381469727,10.100000381469727,10.100000381469727,10.100000381469727,10.100000381469727,61300
2018-09-18,10.149999618530273,10.149999618530273,10.149999618530273,10.149999618530273,10.149999618530273,2800
2018-09-19,10.138999938964844,10.149999618530273,10.100000381469727,10.149999618530273,10.149999618530273,35300
2018-09-20,10.149999618530273,10.199999809265137,10.149999618530273,10.199999809265137,10.199999809265137,120600
2018-09-21,10.199999809265137,10.199999809265137,10.199999809265137,10.199999809265137,10.199999809265137,0
2018-09-24,10.5,10.5,10.220000267028809,10.25,10.25,161600
2018-09-25,10.25,10.25,10.25,10.25,10.25,0
2018-09-26,10.199999809265137,10.199999809265137,10.199999809265137,10.199999809265137,10.199999809265137,11200
2018-09-27,10.199999809265137,10.199999809265137,10.199999809265137,10.199999809265137,10.199999809265137,100000
2018-09-28,10.199999809265137,10.20300006866455,10.1899995803833,10.199999809265137,10.199999809265137,238000
2018-10-01,10.199999809265137,10.199999809265137,10.175000190734863,10.199999809265137,10.199999809265137,133700
2018-10-02,10.260000228881836,10.260000228881836,10.15999984741211,10.260000228881836,10.260000228881836,3700
2018-10-03,10.199999809265137,10.25,10.199999809265137,10.25,10.25,10200
2018-10-04,10.319000244140625,10.319000244140625,10.260000228881836,10.260000228881836,10.260000228881836,2000
2018-10-05,10.260000228881836,10.260000228881836,10.255000114440918,10.255000114440918,10.255000114440918,1200
2018-10-08,10.3100004196167,10.359999656677246,10.3100004196167,10.350000381469727,10.350000381469727,65700
2018-10-09,10.34000015258789,10.803999900817871,10.34000015258789,10.569999694824219,10.569999694824219,40600
2018-10-10,10.548999786376953,10.548999786376953,10.420999526977539,10.5,10.5,20100
2018-10-11,10.850000381469727,10.850000381469727,10.300000190734863,10.34000015258789,10.34000015258789,341900
2018-10-12,10.420000076293945,10.449999809265137,10.319999694824219,10.347000122070312,10.347000122070312,85500
2018-10-15,10.539999961853027,10.539999961853027,10.220999717712402,10.3100004196167,10.3100004196167,238900
2018-10-16,10.40999984741211,10.451000213623047,10.130999565124512,10.229999542236328,10.229999542236328,90400
2018-10-17,10.350000381469727,10.45300006866455,10.180000305175781,10.25,10.25,712800
2018-10-18,10.229999542236328,10.420000076293945,10.140000343322754,10.25,10.25,55700
2018-10-19,10.109999656677246,10.210000038146973,10.109999656677246,10.15999984741211,10.15999984741211,3900
2018-10-22,10.15999984741211,10.170000076293945,10.149999618530273,10.170000076293945,10.170000076293945,43800
2018-10-23,10.149999618530273,10.199999809265137,10.109999656677246,10.130000114440918,10.130000114440918,22600
2018-10-24,10.15999984741211,10.279999732971191,10.15999984741211,10.15999984741211,10.15999984741211,49500
2018-10-25,10.300000190734863,10.359999656677246,10.15999984741211,10.15999984741211,10.15999984741211,25700
2018-10-26,10.199999809265137,10.199999809265137,10.178999900817871,10.185999870300293,10.185999870300293,22900
2018-10-29,10.210000038146973,10.210000038146973,10.119999885559082,10.130000114440918,10.130000114440918,32200
2018-10-30,10.149999618530273,10.149999618530273,10.149999618530273,10.149999618530273,10.149999618530273,1900
2018-10-31,10.133999824523926,10.135000228881836,10.119000434875488,10.121000289916992,10.121000289916992,15000
2018-11-01,10.109999656677246,10.116999626159668,10.109999656677246,10.116999626159668,10.116999626159668,2300
2018-11-02,10.142000198364258,10.149999618530273,10.109999656677246,10.109999656677246,10.109999656677246,1200
2018-11-05,10.15999984741211,10.15999984741211,10.050000190734863,10.119999885559082,10.119999885559082,10400
2018-11-06,10.010000228881836,10.100000381469727,10.0,10.100000381469727,10.100000381469727,259200
2018-11-07,10.109999656677246,10.144000053405762,10.029999732971191,10.100000381469727,10.100000381469727,18400
2018-11-08,10.100000381469727,10.100000381469727,10.0649995803833,10.0649995803833,10.0649995803833,900
2018-11-09,10.140000343322754,10.140000343322754,10.140000343322754,10.140000343322754,10.140000343322754,1000
2018-11-12,10.09000015258789,10.09000015258789,10.09000015258789,10.09000015258789,10.09000015258789,200
2018-11-13,10.100000381469727,10.100000381469727,9.9399995803833,9.9399995803833,9.9399995803833,2200
2018-11-14,10.0,10.069999694824219,10.0,10.020000457763672,10.020000457763672,30800
2018-11-15,10.031999588012695,10.031999588012695,10.031999588012695,10.031999588012695,10.031999588012695,30100
2018-11-16,10.069999694824219,10.069999694824219,10.039999961853027,10.039999961853027,10.039999961853027,1400
2018-11-19,10.09000015258789,10.09000015258789,9.960000038146973,9.972999572753906,9.972999572753906,4500
2018-11-20,10.050000190734863,10.050000190734863,9.960000038146973,9.960000038146973,9.960000038146973,24100
2018-11-21,10.003000259399414,10.003000259399414,10.0,10.0,10.0,1300
2018-11-23,10.0,10.0,10.0,10.0,10.0,100
2018-11-26,10.119999885559082,10.119999885559082,9.996000289916992,9.996000289916992,9.996000289916992,900
2018-11-27,9.989999771118164,10.0,9.989999771118164,10.0,10.0,3200
2018-11-28,10.0,10.039999961853027,10.0,10.039999961853027,10.039999961853027,4900
2018-11-29,10.100000381469727,10.109999656677246,10.100000381469727,10.109999656677246,10.109999656677246,1000
2018-11-30,10.050000190734863,10.100000381469727,10.0,10.100000381469727,10.100000381469727,63600
2018-12-03,9.970000267028809,10.100000381469727,9.949999809265137,10.100000381469727,10.100000381469727,27200
2018-12-04,10.029999732971191,10.079999923706055,10.029999732971191,10.050000190734863,10.050000190734863,3900
2018-12-06,10.050000190734863,10.079999923706055,9.960000038146973,10.079999923706055,10.079999923706055,7600
2018-12-07,10.0,10.079999923706055,9.414999961853027,10.039999961853027,10.039999961853027,3600
2018-12-10,10.050000190734863,10.0600004196167,10.050000190734863,10.0600004196167,10.0600004196167,700
2018-12-11,10.079999923706055,10.079999923706055,10.015000343322754,10.020000457763672,10.020000457763672,50600
2018-12-12,10.052000045776367,10.100000381469727,10.052000045776367,10.100000381469727,10.100000381469727,8900
2018-12-13,10.069999694824219,10.119999885559082,10.0,10.100000381469727,10.100000381469727,51500
2018-12-14,10.130000114440918,10.130000114440918,10.069999694824219,10.072999954223633,10.072999954223633,15200
2018-12-17,10.072999954223633,10.100000381469727,10.0,10.050000190734863,10.050000190734863,22400
2018-12-18,10.100000381469727,10.100000381469727,10.050000190734863,10.050000190734863,10.050000190734863,3400
2018-12-19,10.050000190734863,10.100000381469727,10.010000228881836,10.076000213623047,10.076000213623047,39400
2018-12-20,10.100000381469727,10.100000381469727,10.02400016784668,10.079999923706055,10.079999923706055,46100
2018-12-21,10.069999694824219,10.09000015258789,10.039999961853027,10.079999923706055,10.079999923706055,33700
2018-12-24,10.109999656677246,10.119999885559082,10.069999694824219,10.119999885559082,10.119999885559082,1400
2018-12-26,10.109999656677246,10.130000114440918,10.079999923706055,10.130000114440918,10.130000114440918,5700
2018-12-27,10.109999656677246,10.130000114440918,10.0600004196167,10.130000114440918,10.130000114440918,4300
2018-12-28,10.020000457763672,10.140000343322754,10.010000228881836,10.08899974822998,10.08899974822998,12000
2018-12-31,9.550000190734863,10.100000381469727,9.550000190734863,10.09000015258789,10.09000015258789,8600
2019-01-02,10.085000038146973,10.100000381469727,10.085000038146973,10.100000381469727,10.100000381469727,5300
2019-01-03,10.03499984741211,10.130000114440918,10.03499984741211,10.100000381469727,10.100000381469727,1500
2019-01-04,10.100000381469727,10.100000381469727,10.081999778747559,10.100000381469727,10.100000381469727,25900
2019-01-07,10.140000343322754,10.140000343322754,10.064000129699707,10.100000381469727,10.100000381469727,2900
2019-01-08,10.079999923706055,10.140000343322754,10.079999923706055,10.130000114440918,10.130000114440918,473500
2019-01-09,10.010000228881836,10.130000114440918,10.010000228881836,10.130000114440918,10.130000114440918,3100
2019-01-10,10.0600004196167,10.130000114440918,10.0600004196167,10.09000015258789,10.09000015258789,1600
2019-01-11,10.09000015258789,10.130999565124512,10.09000015258789,10.111000061035156,10.111000061035156,500
2019-01-14,10.300000190734863,10.300000190734863,10.010000228881836,10.079999923706055,10.079999923706055,7700
2019-01-15,10.300000190734863,10.300000190734863,10.010000228881836,10.069999694824219,10.069999694824219,11300
2019-01-16,10.020000457763672,10.069999694824219,10.010000228881836,10.050000190734863,10.050000190734863,15300
2019-01-17,10.039999961853027,10.039999961853027,10.039999961853027,10.039999961853027,10.039999961853027,800
2019-01-18,10.059000015258789,10.0600004196167,10.057000160217285,10.057000160217285,10.057000160217285,2900
2019-01-22,10.15999984741211,10.15999984741211,10.0600004196167,10.0600004196167,10.0600004196167,20100
2019-01-23,10.300000190734863,10.300000190734863,10.093999862670898,10.149999618530273,10.149999618530273,375400
2019-01-24,10.1899995803833,10.1899995803833,10.069999694824219,10.149999618530273,10.149999618530273,79700
2019-01-25,10.170000076293945,10.170000076293945,10.109999656677246,10.15999984741211,10.15999984741211,92900
2019-01-28,10.180000305175781,10.180000305175781,10.140000343322754,10.140000343322754,10.140000343322754,46300
2019-01-29,10.170000076293945,10.170000076293945,10.121000289916992,10.140000343322754,10.140000343322754,36500
2019-01-30,10.180000305175781,10.180000305175781,10.095000267028809,10.095000267028809,10.095000267028809,31200
2019-01-31,10.109999656677246,10.149999618530273,10.100000381469727,10.140000343322754,10.140000343322754,28500
2019-02-01,10.149999618530273,10.170000076293945,10.100000381469727,10.140000343322754,10.140000343322754,16800
2019-02-04,10.180000305175781,10.180000305175781,10.12600040435791,10.140000343322754,10.140000343322754,28000
2019-02-05,10.149999618530273,10.170000076293945,10.140000343322754,10.145000457763672,10.145000457763672,12800
2019-02-06,10.149999618530273,10.149999618530273,10.119999885559082,10.125,10.125,11400
2019-02-07,10.15999984741211,10.15999984741211,10.100000381469727,10.109999656677246,10.109999656677246,13400
2019-02-08,10.170000076293945,10.170000076293945,10.119999885559082,10.140000343322754,10.140000343322754,52400
2019-02-11,10.170000076293945,10.170000076293945,10.140000343322754,10.149999618530273,10.149999618530273,32400
2019-02-12,10.149999618530273,10.149999618530273,10.130000114440918,10.140000343322754,10.140000343322754,17200
2019-02-13,10.15999984741211,10.15999984741211,10.09000015258789,10.100000381469727,10.100000381469727,33600
2019-02-14,10.140000343322754,10.140000343322754,10.100000381469727,10.111000061035156,10.111000061035156,17500
2019-02-15,10.149999618530273,10.15999984741211,10.133999824523926,10.149999618530273,10.149999618530273,16500
2019-02-19,10.15999984741211,10.15999984741211,10.119999885559082,10.138999938964844,10.138999938964844,26500
2019-02-20,10.180000305175781,10.180000305175781,10.130000114440918,10.133000373840332,10.133000373840332,58100
2019-02-21,10.15999984741211,10.15999984741211,10.100000381469727,10.138999938964844,10.138999938964844,29200
2019-02-22,10.149999618530273,10.15999984741211,10.119999885559082,10.140000343322754,10.140000343322754,13100
2019-02-25,10.140000343322754,10.170000076293945,10.130000114440918,10.145000457763672,10.145000457763672,10200
2019-02-26,10.149999618530273,10.149999618530273,10.119999885559082,10.125,10.125,7500
2019-02-27,10.140000343322754,10.140000343322754,10.079999923706055,10.092000007629395,10.092000007629395,13100
2019-02-28,10.109999656677246,10.119999885559082,10.062999725341797,10.100000381469727,10.100000381469727,8600
2019-03-01,10.130000114440918,10.130000114440918,10.0600004196167,10.10200023651123,10.10200023651123,9300
2019-03-04,10.140000343322754,10.140000343322754,10.095000267028809,10.100000381469727,10.100000381469727,10300
2019-03-05,10.140000343322754,10.140000343322754,10.09000015258789,10.104999542236328,10.104999542236328,3800
2019-03-06,10.130000114440918,10.130000114440918,10.100000381469727,10.109999656677246,10.109999656677246,6000
2019-03-07,10.114999771118164,10.170000076293945,10.079999923706055,10.140000343322754,10.140000343322754,139800
2019-03-08,10.149999618530273,10.149999618530273,10.079999923706055,10.138999938964844,10.138999938964844,64900
2019-03-11,10.140000343322754,10.149999618530273,10.119999885559082,10.130000114440918,10.130000114440918,33000
2019-03-12,10.149999618530273,10.149999618530273,10.119000434875488,10.149999618530273,10.149999618530273,8800
2019-03-13,10.149999618530273,10.149999618530273,10.130000114440918,10.140000343322754,10.140000343322754,9700
2019-03-14,10.140000343322754,10.149999618530273,10.109999656677246,10.130000114440918,10.130000114440918,8800
2019-03-15,10.119999885559082,10.149999618530273,10.100000381469727,10.149999618530273,10.149999618530273,14400
2019-03-18,10.149999618530273,10.149999618530273,10.119999885559082,10.149999618530273,10.149999618530273,18900
2019-03-19,10.130000114440918,10.149999618530273,10.100000381469727,10.149999618530273,10.149999618530273,6700
2019-03-20,10.149999618530273,10.149999618530273,10.029999732971191,10.079999923706055,10.079999923706055,16000
2019-03-21,10.100000381469727,10.149999618530273,10.100000381469727,10.149999618530273,10.149999618530273,41100
2019-03-22,10.149999618530273,10.149999618530273,10.079999923706055,10.145000457763672,10.145000457763672,112600
2019-03-25,10.149999618530273,10.149999618530273,10.100000381469727,10.109999656677246,10.109999656677246,10300
2019-03-26,10.100000381469727,10.149999618530273,10.010000228881836,10.149999618530273,10.149999618530273,138500
2019-03-27,10.180000305175781,10.199999809265137,10.050000190734863,10.149999618530273,10.149999618530273,166300
2019-03-28,10.130000114440918,10.154999732971191,10.100000381469727,10.149999618530273,10.149999618530273,33200
2019-03-29,10.130000114440918,10.130000114440918,10.020000457763672,10.097000122070312,10.097000122070312,50600
2019-04-01,10.140000343322754,10.140000343322754,10.050000190734863,10.067000389099121,10.067000389099121,45100
2019-04-02,10.050000190734863,10.109999656677246,10.020000457763672,10.07800006866455,10.07800006866455,34400
2019-04-03,10.079999923706055,10.119999885559082,10.074999809265137,10.100000381469727,10.100000381469727,36100
2019-04-04,10.140000343322754,10.140000343322754,10.050000190734863,10.100000381469727,10.100000381469727,28000
2019-04-05,10.100000381469727,10.149999618530273,10.100000381469727,10.135000228881836,10.135000228881836,11700
2019-04-08,10.119999885559082,10.149999618530273,10.100000381469727,10.130999565124512,10.130999565124512,12600
2019-04-09,10.100000381469727,10.130000114440918,10.041999816894531,10.100000381469727,10.100000381469727,11100
2019-04-10,10.100000381469727,10.119999885559082,10.100000381469727,10.109999656677246,10.109999656677246,98800
2019-04-11,10.130000114440918,10.130000114440918,10.109999656677246,10.119999885559082,10.119999885559082,16800
2019-04-12,10.109999656677246,10.130000114440918,10.109999656677246,10.111000061035156,10.111000061035156,5900
2019-04-15,10.119999885559082,10.119999885559082,10.031000137329102,10.112000465393066,10.112000465393066,28600
2019-04-16,10.130000114440918,10.130000114440918,10.100000381469727,10.119999885559082,10.119999885559082,3700
2019-04-17,10.100000381469727,10.119999885559082,10.100000381469727,10.119999885559082,10.119999885559082,28500
2019-04-18,10.114999771118164,10.149999618530273,10.109999656677246,10.119999885559082,10.119999885559082,23900
2019-04-22,10.149999618530273,10.15999984741211,10.140000343322754,10.157999992370605,10.157999992370605,149600
2019-04-23,10.199999809265137,10.220000267028809,10.140000343322754,10.173999786376953,10.173999786376953,369600
2019-04-24,10.210000038146973,10.220000267028809,10.178999900817871,10.180000305175781,10.180000305175781,29700
2019-04-25,10.149999618530273,10.210000038146973,10.149999618530273,10.180000305175781,10.180000305175781,10400
2019-04-26,10.175000190734863,10.210000038146973,10.159000396728516,10.210000038146973,10.210000038146973,7900
2019-04-29,10.15999984741211,10.199999809265137,10.15999984741211,10.15999984741211,10.15999984741211,26000
2019-04-30,10.149999618530273,10.196000099182129,10.149999618530273,10.164999961853027,10.164999961853027,27300
2019-05-01,10.192000389099121,10.199999809265137,10.15999984741211,10.15999984741211,10.15999984741211,32000
2019-05-02,10.17199993133545,10.1899995803833,10.15999984741211,10.178999900817871,10.178999900817871,7800
2019-05-03,10.199999809265137,10.208999633789062,10.180000305175781,10.187000274658203,10.187000274658203,43400
2019-05-06,10.1899995803833,10.199999809265137,10.15999984741211,10.170000076293945,10.170000076293945,19200
2019-05-07,10.199999809265137,10.199999809265137,10.170000076293945,10.1899995803833,10.1899995803833,24600
2019-05-08,10.199999809265137,10.199999809265137,10.180000305175781,10.1899995803833,10.1899995803833,18600
2019-05-09,10.1899995803833,10.199999809265137,10.15999984741211,10.170000076293945,10.170000076293945,20900
2019-05-10,10.170000076293945,10.1899995803833,10.170000076293945,10.1850004196167,10.1850004196167,8300
2019-05-13,10.1899995803833,10.199999809265137,10.180000305175781,10.185999870300293,10.185999870300293,28700
2019-05-14,10.1899995803833,10.199999809265137,10.1899995803833,10.196999549865723,10.196999549865723,22500
2019-05-15,10.1899995803833,10.210000038146973,10.1899995803833,10.1899995803833,10.1899995803833,173400
2019-05-16,10.180000305175781,10.220000267028809,10.180000305175781,10.220000267028809,10.220000267028809,17700
2019-05-17,10.289999961853027,10.289999961853027,10.210000038146973,10.220000267028809,10.220000267028809,7700
2019-05-20,10.260000228881836,10.260000228881836,10.218000411987305,10.229999542236328,10.229999542236328,11200
2019-05-21,10.210000038146973,10.229999542236328,10.170000076293945,10.211999893188477,10.211999893188477,14600
2019-05-22,10.210000038146973,10.217000007629395,10.170000076293945,10.170000076293945,10.170000076293945,18600
2019-05-23,10.199999809265137,10.210000038146973,10.170000076293945,10.196999549865723,10.196999549865723,10000
2019-05-24,10.220000267028809,10.220000267028809,10.199999809265137,10.210000038146973,10.210000038146973,4700
2019-05-28,10.229999542236328,10.229999542236328,10.170000076293945,10.180000305175781,10.180000305175781,99400
2019-05-29,10.170000076293945,10.210000038146973,10.170000076293945,10.210000038146973,10.210000038146973,18600
2019-05-30,10.173999786376953,10.208999633789062,10.170000076293945,10.1899995803833,10.1899995803833,11600
2019-05-31,10.1899995803833,10.210000038146973,10.170000076293945,10.199999809265137,10.199999809265137,41400
2019-06-03,10.210000038146973,10.210000038146973,10.170000076293945,10.189000129699707,10.189000129699707,13800
2019-06-04,10.210000038146973,10.220000267028809,10.199999809265137,10.220000267028809,10.220000267028809,24700
2019-06-05,10.220000267028809,10.300999641418457,10.204000473022461,10.300000190734863,10.300000190734863,30500
2019-06-06,10.289999961853027,10.289999961853027,10.199999809265137,10.210000038146973,10.210000038146973,23200
2019-06-07,10.25,10.260000228881836,10.210000038146973,10.220000267028809,10.220000267028809,13300
2019-06-10,10.25,10.25,10.170000076293945,10.170000076293945,10.170000076293945,19600
2019-06-11,10.199999809265137,10.199999809265137,10.15999984741211,10.175000190734863,10.175000190734863,45000
2019-06-12,10.170000076293945,10.199999809265137,10.130000114440918,10.1899995803833,10.1899995803833,7900
2019-06-13,10.199999809265137,10.229999542236328,10.15999984741211,10.185999870300293,10.185999870300293,9500
2019-06-14,10.239999771118164,10.5,10.1899995803833,10.5,10.5,12200
2019-06-17,10.59000015258789,14.729999542236328,10.59000015258789,11.989999771118164,11.989999771118164,194300
2019-06-18,12.880000114440918,19.469999313354492,11.100000381469727,14.85200023651123,14.85200023651123,120300
2019-06-19,20.700000762939453,50.31999969482422,20.0,49.79999923706055,49.79999923706055,3364500
2019-06-20,65.0,72.6500015258789,33.0,36.54999923706055,36.54999923706055,3811600
2019-06-21,31.399999618530273,37.374000549316406,26.799999237060547,27.049999237060547,27.049999237060547,1754000
2019-06-24,27.309999465942383,27.790000915527344,21.66200065612793,23.239999771118164,23.239999771118164,839200
2019-06-25,21.190000534057617,26.0,21.18000030517578,23.200000762939453,23.200000762939453,882400
2019-06-26,23.399999618530273,23.399999618530273,20.5,20.559999465942383,20.559999465942383,540400
2019-06-27,20.0,24.219999313354492,20.0,21.700000762939453,21.700000762939453,599000
2019-06-28,22.850000381469727,24.0,21.0,21.600000381469727,21.600000381469727,370800
2019-07-01,21.799999237060547,22.399999618530273,19.049999237060547,19.25,19.25,467100
2019-07-02,20.5,20.84000015258789,18.100000381469727,18.280000686645508,18.280000686645508,318700
2019-07-03,18.059999465942383,18.299999237060547,15.0,15.010000228881836,15.010000228881836,547900
2019-07-05,15.010000228881836,15.050000190734863,13.800000190734863,14.319999694824219,14.319999694824219,385900
2019-07-08,14.5,15.739999771118164,13.371000289916992,15.104999542236328,15.104999542236328,719300
2019-07-09,15.079999923706055,15.640000343322754,14.550000190734863,14.880000114440918,14.880000114440918,362100
2019-07-10,14.890000343322754,15.1899995803833,13.949999809265137,14.479999542236328,14.479999542236328,311100
2019-07-11,14.510000228881836,14.529999732971191,13.640000343322754,14.100000381469727,14.100000381469727,202000
2019-07-12,14.1899995803833,14.739999771118164,13.149999618530273,13.789999961853027,13.789999961853027,544600
2019-07-15,13.869999885559082,14.579999923706055,13.199999809265137,13.460000038146973,13.460000038146973,498400
2019-07-16,13.5,13.5,12.800000190734863,12.890000343322754,12.890000343322754,281600
2019-07-17,12.829999923706055,14.0,12.699999809265137,13.699999809265137,13.699999809265137,558200
2019-07-18,12.449999809265137,14.5,12.302000045776367,12.9399995803833,12.9399995803833,1108800
2019-07-19,12.649999618530273,13.1899995803833,12.5,12.880000114440918,12.880000114440918,161200
2019-07-22,12.619999885559082,12.85200023651123,12.510000228881836,12.5600004196167,12.5600004196167,98000
2019-07-23,12.5,13.170000076293945,12.25,13.050000190734863,13.050000190734863,146400
2019-07-24,13.039999961853027,14.0,13.0,13.670000076293945,13.670000076293945,250700
2019-07-25,13.40999984741211,13.699999809265137,11.380000114440918,11.510000228881836,11.510000228881836,455000
2019-07-26,11.34000015258789,12.199999809265137,11.300000190734863,11.369999885559082,11.369999885559082,123100
2019-07-29,11.359999656677246,11.739999771118164,11.359999656677246,11.550000190734863,11.550000190734863,54500
2019-07-30,11.550000190734863,11.739999771118164,11.449999809265137,11.640000343322754,11.640000343322754,36300
2019-07-31,11.59000015258789,11.600000381469727,10.630000114440918,10.8100004196167,10.8100004196167,102500
2019-08-01,10.899999618530273,11.060999870300293,8.890000343322754,9.199999809265137,9.199999809265137,286000
2019-08-02,9.569999694824219,9.949999809265137,9.350000381469727,9.899999618530273,9.899999618530273,79300
2019-08-05,9.760000228881836,9.920000076293945,9.5,9.920000076293945,9.920000076293945,45000
2019-08-06,9.989999771118164,10.100000381469727,9.574999809265137,9.880000114440918,9.880000114440918,61800
2019-08-07,9.880000114440918,9.95199966430664,9.619999885559082,9.779999732971191,9.779999732971191,60500
2019-08-08,9.960000038146973,10.149999618530273,9.649999618530273,9.90999984741211,9.90999984741211,73800
2019-08-09,10.0,10.149999618530273,9.600000381469727,10.020000457763672,10.020000457763672,69800
2019-08-12,10.050000190734863,10.050000190734863,9.536999702453613,9.850000381469727,9.850000381469727,31500
2019-08-13,9.850000381469727,9.979999542236328,9.651000022888184,9.899999618530273,9.899999618530273,18100
2019-08-14,10.020000457763672,10.050000190734863,9.517000198364258,9.75,9.75,106500
2019-08-15,9.760000228881836,9.850000381469727,9.0,9.119999885559082,9.119999885559082,78600
2019-08-16,9.010000228881836,9.362000465393066,8.60200023651123,8.609999656677246,8.609999656677246,69400
2019-08-19,8.630000114440918,8.960000038146973,8.510000228881836,8.619999885559082,8.619999885559082,83500
2019-08-20,8.649999618530273,9.496999740600586,8.649999618530273,9.279999732971191,9.279999732971191,66200
2019-08-21,9.470000267028809,9.484000205993652,9.100000381469727,9.479999542236328,9.479999542236328,38400
2019-08-22,9.479999542236328,9.479999542236328,8.649999618530273,8.6899995803833,8.6899995803833,69200
2019-08-23,8.75,9.170000076293945,8.649999618530273,8.699999809265137,8.699999809265137,36400
2019-08-26,8.770000457763672,8.989999771118164,8.649999618530273,8.800000190734863,8.800000190734863,23800
2019-08-27,8.829999923706055,10.149999618530273,8.79699993133545,9.260000228881836,9.260000228881836,197700
2019-08-28,8.779999732971191,9.25,8.779999732971191,9.140000343322754,9.140000343322754,34500
2019-08-29,9.199999809265137,9.543999671936035,8.75,8.920000076293945,8.920000076293945,23700
2019-08-30,8.970000267028809,8.98900032043457,8.430000305175781,8.430000305175781,8.430000305175781,46100
2019-09-03,8.449999809265137,8.515000343322754,7.900000095367432,8.329999923706055,8.329999923706055,55100
2019-09-04,8.390000343322754,8.40999984741211,7.840000152587891,8.100000381469727,8.100000381469727,28800
2019-09-05,8.170999526977539,8.170999526977539,7.235000133514404,7.360000133514404,7.360000133514404,92500
2019-09-06,7.630000114440918,7.900000095367432,7.5,7.800000190734863,7.800000190734863,61400
2019-09-09,7.909999847412109,8.258000373840332,7.839000225067139,8.239999771118164,8.239999771118164,43100
2019-09-10,8.539999961853027,8.869999885559082,8.199999809265137,8.569999694824219,8.569999694824219,77500
2019-09-11,8.819999694824219,8.819999694824219,8.319999694824219,8.65999984741211,8.65999984741211,40500
2019-09-12,8.609999656677246,8.805000305175781,8.449999809265137,8.65999984741211,8.65999984741211,24300
2019-09-13,8.6899995803833,8.75,8.479999542236328,8.520000457763672,8.520000457763672,18900
2019-09-16,8.720000267028809,8.720000267028809,8.074000358581543,8.5,8.5,28600
2019-09-17,8.600000381469727,8.800000190734863,8.527999877929688,8.789999961853027,8.789999961853027,51300
2019-09-18,8.859999656677246,8.970000267028809,8.583999633789062,8.600000381469727,8.600000381469727,57100
2019-09-19,8.699999809265137,8.979999542236328,8.460000038146973,8.550000190734863,8.550000190734863,100600
2019-09-20,8.710000038146973,9.399999618530273,8.5,8.5,8.5,192900
2019-09-23,8.609999656677246,8.960000038146973,7.800000190734863,7.989999771118164,7.989999771118164,180800
2019-09-24,8.4399995803833,8.4399995803833,7.699999809265137,7.710000038146973,7.710000038146973,185500
2019-09-25,7.699999809265137,7.860000133514404,6.920000076293945,7.079999923706055,7.079999923706055,74300
2019-09-26,7.179999828338623,7.46999979019165,6.96999979019165,7.130000114440918,7.130000114440918,34600
2019-09-27,7.03000020980835,7.03000020980835,6.235000133514404,6.5,6.5,78300
2019-09-30,6.440000057220459,6.440000057220459,5.829999923706055,5.929999828338623,5.929999828338623,101400
2019-10-01,6.039999961853027,6.099999904632568,5.699999809265137,5.739999771118164,5.739999771118164,70100
2019-10-02,5.909999847412109,6.039999961853027,5.480000019073486,6.019999980926514,6.019999980926514,59000
2019-10-03,6.059999942779541,6.5370001792907715,5.760000228881836,6.400000095367432,6.400000095367432,46000
2019-10-04,6.46999979019165,6.619999885559082,6.328000068664551,6.460000038146973,6.460000038146973,23100
2019-10-07,6.449999809265137,6.5329999923706055,6.105000019073486,6.230000019073486,6.230000019073486,62400
2019-10-08,6.289999961853027,6.289999961853027,5.989999771118164,6.0,6.0,26500
2019-10-09,6.019999980926514,6.050000190734863,5.739999771118164,5.739999771118164,5.739999771118164,37800
2019-10-10,5.800000190734863,5.849999904632568,5.400000095367432,5.550000190734863,5.550000190734863,69300
2019-10-11,5.559999942779541,5.829999923706055,5.559999942779541,5.71999979019165,5.71999979019165,35200
2019-10-14,5.639999866485596,5.695000171661377,5.460000038146973,5.5,5.5,30600
2019-10-15,5.440000057220459,5.889999866485596,5.440000057220459,5.739999771118164,5.739999771118164,32600
2019-10-16,5.670000076293945,5.980000019073486,5.489999771118164,5.53000020980835,5.53000020980835,33300
2019-10-17,5.650000095367432,5.809999942779541,5.150000095367432,5.789999961853027,5.789999961853027,39200
2019-10-18,5.78000020980835,5.78000020980835,5.599999904632568,5.650000095367432,5.650000095367432,16300
2019-10-21,5.699999809265137,5.758999824523926,5.360000133514404,5.440000057220459,5.440000057220459,24500
2019-10-22,5.449999809265137,5.849999904632568,5.409999847412109,5.590000152587891,5.590000152587891,30600
2019-10-23,5.579999923706055,5.800000190734863,5.579999923706055,5.659999847412109,5.659999847412109,19100
2019-10-24,5.75,5.9039998054504395,5.650000095367432,5.670000076293945,5.670000076293945,15600
2019-10-25,5.650000095367432,5.710000038146973,5.190000057220459,5.210000038146973,5.210000038146973,43200
2019-10-28,5.230000019073486,5.489999771118164,5.150000095367432,5.199999809265137,5.199999809265137,29300
2019-10-29,5.199999809265137,5.199999809265137,4.800000190734863,5.059999942779541,5.059999942779541,42000
2019-10-30,5.059999942779541,5.193999767303467,4.980000019073486,5.0,5.0,16800
2019-10-31,5.0,5.122000217437744,4.900000095367432,4.900000095367432,4.900000095367432,12300
2019-11-01,4.889999866485596,5.054999828338623,4.800000190734863,4.860000133514404,4.860000133514404,20100
2019-11-04,5.010000228881836,5.010000228881836,4.765999794006348,4.820000171661377,4.820000171661377,15000
2019-11-05,4.760000228881836,4.8429999351501465,4.510000228881836,4.590000152587891,4.590000152587891,53400
2019-11-06,4.489999771118164,4.5,4.150000095367432,4.150000095367432,4.150000095367432,79800
2019-11-07,4.150000095367432,4.320000171661377,4.059999942779541,4.21999979019165,4.21999979019165,35100
2019-11-08,4.440000057220459,4.440000057220459,4.0,4.239999771118164,4.239999771118164,223800
2019-11-11,4.389999866485596,4.409999847412109,3.990000009536743,4.139999866485596,4.139999866485596,51000
2019-11-12,4.130000114440918,4.190000057220459,3.8499999046325684,3.9000000953674316,3.9000000953674316,51300
2019-11-13,3.990000009536743,4.119999885559082,3.5999999046325684,3.5999999046325684,3.5999999046325684,66500
2019-11-14,3.7100000381469727,3.880000114440918,3.1600000858306885,3.799999952316284,3.799999952316284,98600
2019-11-15,4.0,6.849999904632568,4.0,5.939000129699707,5.939000129699707,2783100
2019-11-18,6.190000057220459,6.190000057220459,4.900000095367432,5.210000038146973,5.210000038146973,427700
2019-11-19,5.010000228881836,5.136000156402588,4.550000190734863,5.03000020980835,5.03000020980835,156600
2019-11-20,4.980000019073486,5.14900016784668,4.670000076293945,4.75,4.75,83600
2019-11-21,4.820000171661377,5.75,4.760000228881836,5.349999904632568,5.349999904632568,226700
2019-11-22,5.610000133514404,7.699999809265137,5.460000038146973,7.239999771118164,7.239999771118164,636900
2019-11-25,6.96999979019165,7.239999771118164,6.050000190734863,6.129000186920166,6.129000186920166,327900
2019-11-26,6.349999904632568,9.5,6.139999866485596,7.760000228881836,7.760000228881836,2499400
2019-11-27,7.5,8.300000190734863,7.099999904632568,7.46999979019165,7.46999979019165,451600
2019-11-29,7.829999923706055,7.829999923706055,7.183000087738037,7.460000038146973,7.460000038146973,56300
2019-12-02,7.5,9.510000228881836,7.440000057220459,9.0600004196167,9.0600004196167,897500
2019-12-03,9.1899995803833,12.5,8.319999694824219,12.5,12.5,1718000
2019-12-04,12.100000381469727,13.5,11.199999809265137,11.640000343322754,11.640000343322754,1001900
2019-12-05,10.949999809265137,11.213000297546387,10.01200008392334,10.539999961853027,10.539999961853027,368200
2019-12-06,10.5,11.630000114440918,10.100000381469727,10.380000114440918,10.380000114440918,233500
2019-12-09,10.399999618530273,12.34000015258789,10.399999618530273,11.789999961853027,11.789999961853027,360800
2019-12-10,11.640000343322754,12.9399995803833,11.600000381469727,11.600000381469727,11.600000381469727,378500
2019-12-11,11.510000228881836,12.75,11.010000228881836,12.0,12.0,230400
2019-12-12,12.0,12.899999618530273,11.699999809265137,12.430000305175781,12.430000305175781,190100
2019-12-13,12.270000457763672,12.710000038146973,11.609999656677246,11.680000305175781,11.680000305175781,142900
2019-12-16,11.609999656677246,11.899999618530273,10.8100004196167,10.960000038146973,10.960000038146973,182100
2019-12-17,10.930000305175781,12.015000343322754,10.5,11.0,11.0,234800
2019-12-18,11.0,12.350000381469727,10.670000076293945,11.15999984741211,11.15999984741211,413500
2019-12-19,11.4399995803833,11.449999809265137,10.789999961853027,10.789999961853027,10.789999961853027,156900
2019-12-20,11.239999771118164,11.289999961853027,10.279999732971191,10.300000190734863,10.300000190734863,225800
2019-12-23,10.420000076293945,10.5,8.380000114440918,8.399999618530273,8.399999618530273,448300
2019-12-24,8.510000228881836,8.649999618530273,7.550000190734863,7.880000114440918,7.880000114440918,207200
2019-12-26,8.0,8.979999542236328,7.800000190734863,8.789999961853027,8.789999961853027,219700
2019-12-27,8.850000381469727,9.37399959564209,8.0,8.289999961853027,8.289999961853027,282300
2019-12-30,8.220000267028809,8.539999961853027,7.860000133514404,8.069999694824219,8.069999694824219,118500
2019-12-31,8.010000228881836,8.595000267028809,7.570000171661377,8.430000305175781,8.430000305175781,229400
2020-01-02,8.529999732971191,8.859999656677246,8.152000427246094,8.470000267028809,8.470000267028809,177000
2020-01-03,8.369999885559082,8.470000267028809,8.0,8.279999732971191,8.279999732971191,85100
2020-01-06,8.0,8.300000190734863,7.809999942779541,7.920000076293945,7.920000076293945,109000
2020-01-07,7.949999809265137,8.029999732971191,7.599999904632568,7.599999904632568,7.599999904632568,82500
2020-01-08,7.599999904632568,7.7789998054504395,7.039999961853027,7.150000095367432,7.150000095367432,173000
2020-01-09,7.139999866485596,7.5,6.78000020980835,7.449999809265137,7.449999809265137,132900
2020-01-10,7.510000228881836,7.739999771118164,7.050000190734863,7.090000152587891,7.090000152587891,133000
2020-01-13,7.099999904632568,7.400000095367432,6.854000091552734,7.099999904632568,7.099999904632568,123800
2020-01-14,7.159999847412109,7.360000133514404,6.880000114440918,7.239999771118164,7.239999771118164,188700
2020-01-15,7.21999979019165,9.390000343322754,7.159999847412109,9.0,9.0,630400
2020-01-16,9.25,9.642000198364258,8.520000457763672,8.609999656677246,8.609999656677246,247800
2020-01-17,8.65999984741211,9.100000381469727,8.520000457763672,8.84000015258789,8.84000015258789,151600
2020-01-21,9.069999694824219,9.069999694824219,7.849999904632568,8.100000381469727,8.100000381469727,112900
2020-01-22,8.100000381469727,8.6899995803833,8.020999908447266,8.520000457763672,8.520000457763672,92700
2020-01-23,8.670000076293945,9.83899974822998,8.517000198364258,9.350000381469727,9.350000381469727,321900
2020-01-24,9.430000305175781,9.430000305175781,8.59000015258789,8.779999732971191,8.779999732971191,148100
2020-01-27,8.5,8.899999618530273,8.399999618530273,8.40999984741211,8.40999984741211,60500
2020-01-28,8.600000381469727,8.789999961853027,8.260000228881836,8.600000381469727,8.600000381469727,73500
2020-01-29,8.779999732971191,8.779999732971191,8.210000038146973,8.359999656677246,8.359999656677246,46800
2020-01-30,8.3100004196167,8.4399995803833,7.699999809265137,7.860000133514404,7.860000133514404,116800
2020-01-31,7.800000190734863,8.149999618530273,7.699999809265137,8.119999885559082,8.119999885559082,42300
2020-02-03,8.119999885559082,8.390000343322754,7.763999938964844,7.789999961853027,7.789999961853027,66900
2020-02-04,7.800000190734863,8.01200008392334,7.599999904632568,7.75,7.75,73900
2020-02-05,8.020000457763672,8.0600004196167,7.75,7.849999904632568,7.849999904632568,51000
2020-02-06,7.860000133514404,7.869999885559082,7.309999942779541,7.320000171661377,7.320000171661377,57800
2020-02-07,7.389999866485596,7.876999855041504,7.300000190734863,7.650000095367432,7.650000095367432,57100
2020-02-10,7.800000190734863,8.149999618530273,7.75,7.849999904632568,7.849999904632568,62600
2020-02-11,7.880000114440918,8.050000190734863,7.679999828338623,7.880000114440918,7.880000114440918,44600
2020-02-12,7.880000114440918,8.399999618530273,7.679999828338623,8.289999961853027,8.289999961853027,211600
2020-02-13,7.0,7.429999828338623,6.300000190734863,7.059999942779541,7.059999942779541,250700
2020-02-14,7.130000114440918,7.480000019073486,6.829999923706055,7.090000152587891,7.090000152587891,184000
2020-02-18,7.050000190734863,7.105999946594238,6.807000160217285,6.880000114440918,6.880000114440918,63600
2020-02-19,6.860000133514404,7.0,6.5,6.960000038146973,6.960000038146973,85400
2020-02-20,6.960000038146973,7.25,6.830999851226807,7.059999942779541,7.059999942779541,76300
2020-02-21,7.139999866485596,7.449999809265137,6.870999813079834,7.28000020980835,7.28000020980835,77000
2020-02-24,7.159999847412109,7.230000019073486,6.559999942779541,7.119999885559082,7.119999885559082,89300
2020-02-25,7.239999771118164,7.869999885559082,7.239999771118164,7.670000076293945,7.670000076293945,164100
2020-02-26,7.650000095367432,7.989999771118164,7.550000190734863,7.889999866485596,7.889999866485596,82500
2020-02-27,7.889999866485596,7.889999866485596,7.099999904632568,7.269999980926514,7.269999980926514,100900
2020-02-28,7.010000228881836,7.644999980926514,6.599999904632568,7.590000152587891,7.590000152587891,105600
2020-03-02,7.599999904632568,8.350000381469727,7.510000228881836,8.270000457763672,8.270000457763672,116300
2020-03-03,8.369999885559082,8.430000305175781,7.25,7.360000133514404,7.360000133514404,111000
2020-03-04,7.28000020980835,7.960000038146973,7.28000020980835,7.599999904632568,7.599999904632568,37100
2020-03-05,7.610000133514404,7.88100004196167,7.25,7.449999809265137,7.449999809265137,25600
2020-03-06,7.329999923706055,7.329999923706055,6.909999847412109,6.909999847412109,6.909999847412109,39600
2020-03-09,6.869999885559082,6.869999885559082,4.420000076293945,4.46999979019165,4.46999979019165,216800
2020-03-10,5.0,5.309999942779541,4.75,4.900000095367432,4.900000095367432,112600
2020-03-11,5.800000190734863,6.46999979019165,5.599999904632568,6.119999885559082,6.119999885559082,189600
2020-03-12,5.800000190734863,5.929999828338623,5.059999942779541,5.079999923706055,5.079999923706055,93400
2020-03-13,5.480000019073486,5.480000019073486,4.900000095367432,5.070000171661377,5.070000171661377,91400
2020-03-16,4.809999942779541,4.820000171661377,4.019999980926514,4.159999847412109,4.159999847412109,68400
2020-03-17,4.380000114440918,4.7230000495910645,4.360000133514404,4.699999809265137,4.699999809265137,68500
2020-03-18,4.5,4.599999904632568,3.75,4.0,4.0,76300
2020-03-19,4.090000152587891,4.690000057220459,3.7799999713897705,4.360000133514404,4.360000133514404,51300
2020-03-20,4.610000133514404,4.71999979019165,4.03000020980835,4.03000020980835,4.03000020980835,92500
2020-03-23,3.9700000286102295,4.079999923706055,3.740000009536743,4.070000171661377,4.070000171661377,86800
2020-03-24,4.340000152587891,4.639999866485596,4.150000095367432,4.260000228881836,4.260000228881836,134000
2020-03-25,4.179999828338623,5.480000019073486,4.010000228881836,5.039999961853027,5.039999961853027,156600
2020-03-26,5.289999961853027,6.429999828338623,5.248000144958496,5.96999979019165,5.96999979019165,204400
2020-03-27,5.619999885559082,5.679999828338623,5.010000228881836,5.349999904632568,5.349999904632568,129600
2020-03-30,5.130000114440918,5.320000171661377,4.900000095367432,5.019999980926514,5.019999980926514,66900
2020-03-31,5.0,5.515999794006348,4.800000190734863,5.119999885559082,5.119999885559082,34500
2020-04-01,5.0,6.070000171661377,4.800000190734863,5.420000076293945,5.420000076293945,202900
2020-04-02,5.96999979019165,5.96999979019165,5.300000190734863,5.460000038146973,5.460000038146973,55700
2020-04-03,5.489999771118164,5.829999923706055,5.289999961853027,5.349999904632568,5.349999904632568,35200
2020-04-06,5.769999980926514,6.340000152587891,5.754000186920166,6.150000095367432,6.150000095367432,116400
2020-04-07,6.519999980926514,6.699999809265137,6.25,6.349999904632568,6.349999904632568,92100
2020-04-08,6.5,7.099999904632568,6.369999885559082,7.099999904632568,7.099999904632568,124500
2020-04-09,7.179999828338623,7.599999904632568,6.914000034332275,7.239999771118164,7.239999771118164,82000
2020-04-13,7.670000076293945,8.09000015258789,7.376999855041504,7.96999979019165,7.96999979019165,104300
2020-04-14,8.199999809265137,8.350000381469727,7.949999809265137,8.069999694824219,8.069999694824219,84000
2020-04-15,8.0,8.1899995803833,7.570000171661377,7.760000228881836,7.760000228881836,98300
2020-04-16,7.940000057220459,7.980000019073486,7.5,7.699999809265137,7.699999809265137,43200
2020-04-17,7.889999866485596,8.0,7.511000156402588,7.860000133514404,7.860000133514404,47100
2020-04-20,7.900000095367432,8.829999923706055,6.860000133514404,7.210000038146973,7.210000038146973,227400
2020-04-21,6.909999847412109,7.739999771118164,6.909999847412109,7.480000019073486,7.480000019073486,54200
2020-04-22,7.699999809265137,7.900000095367432,7.586999893188477,7.730000019073486,7.730000019073486,48300
2020-04-23,7.889999866485596,8.369999885559082,7.739999771118164,8.220000267028809,8.220000267028809,70000
2020-04-24,8.300000190734863,8.699999809265137,8.220000267028809,8.239999771118164,8.239999771118164,66200
2020-04-27,8.800000190734863,9.220000267028809,8.520000457763672,9.0,9.0,159700
2020-04-28,9.199999809265137,9.420999526977539,8.850000381469727,9.050000190734863,9.050000190734863,93700
2020-04-29,9.4399995803833,9.4399995803833,8.5,8.84000015258789,8.84000015258789,124500
2020-04-30,8.75,8.75,8.210000038146973,8.350000381469727,8.350000381469727,62800
2020-05-01,8.079999923706055,8.079999923706055,6.800000190734863,7.289999961853027,7.289999961853027,257400
2020-05-04,7.050000190734863,7.389999866485596,6.849999904632568,7.210000038146973,7.210000038146973,70400
2020-05-05,7.369999885559082,7.400000095367432,7.110000133514404,7.199999809265137,7.199999809265137,64500
2020-05-06,7.179999828338623,7.519999980926514,7.150000095367432,7.5,7.5,64900
2020-05-07,7.400000095367432,7.989999771118164,7.400000095367432,7.78000020980835,7.78000020980835,44300
2020-05-08,7.980000019073486,8.329999923706055,7.800000190734863,7.869999885559082,7.869999885559082,116700
2020-05-11,7.869999885559082,8.0,7.5,7.739999771118164,7.739999771118164,55300
2020-05-12,7.900000095367432,8.1899995803833,7.409999847412109,7.449999809265137,7.449999809265137,104400
2020-05-13,7.400000095367432,7.46999979019165,7.0,7.429999828338623,7.429999828338623,62500
2020-05-14,7.050000190734863,7.400000095367432,6.809999942779541,7.070000171661377,7.070000171661377,61800
2020-05-15,6.960000038146973,7.300000190734863,6.800000190734863,7.28000020980835,7.28000020980835,31100
2020-05-18,7.5,7.71999979019165,7.245999813079834,7.449999809265137,7.449999809265137,110100
2020-05-19,7.519999980926514,7.96999979019165,7.519999980926514,7.940000057220459,7.940000057220459,64900
2020-05-20,8.0,8.199999809265137,7.861000061035156,8.069999694824219,8.069999694824219,31100
2020-05-21,8.020000457763672,8.168000221252441,7.659999847412109,8.010000228881836,8.010000228881836,64000
2020-05-22,7.880000114440918,9.4399995803833,7.7729997634887695,8.970000267028809,8.970000267028809,440700
2020-05-26,9.300000190734863,10.654999732971191,9.015999794006348,10.0600004196167,10.0600004196167,420700
2020-05-27,10.359999656677246,11.0,10.069999694824219,10.329999923706055,10.329999923706055,136200
2020-05-28,10.180000305175781,11.0,10.045000076293945,10.350000381469727,10.350000381469727,162200
2020-05-29,9.920000076293945,9.989999771118164,9.0,9.279999732971191,9.279999732971191,169000
2020-06-01,9.119999885559082,9.928999900817871,9.050000190734863,9.710000038146973,9.710000038146973,80500
2020-06-02,9.619999885559082,9.619999885559082,9.180000305175781,9.329999923706055,9.329999923706055,42100
2020-06-03,9.380000114440918,9.609999656677246,9.170000076293945,9.300000190734863,9.300000190734863,30800
2020-06-04,9.239999771118164,9.5,8.979999542236328,9.229999542236328,9.229999542236328,67300
2020-06-05,9.399999618530273,9.40999984741211,8.880000114440918,9.15999984741211,9.15999984741211,55100
2020-06-08,9.319999694824219,11.489999771118164,9.21500015258789,10.84000015258789,10.84000015258789,414400
2020-06-09,10.770000457763672,10.789999961853027,10.109999656677246,10.279999732971191,10.279999732971191,183900
2020-06-10,10.359999656677246,10.800000190734863,9.850000381469727,10.800000190734863,10.800000190734863,118200
2020-06-11,10.600000381469727,10.600000381469727,9.836999893188477,10.0,10.0,132800
2020-06-12,10.260000228881836,11.0,10.069999694824219,10.65999984741211,10.65999984741211,128600
2020-06-15,10.039999961853027,11.220000267028809,10.039999961853027,11.0600004196167,11.0600004196167,178100
2020-06-16,10.90999984741211,11.199999809265137,10.0,10.739999771118164,10.739999771118164,237800
2020-06-17,10.65999984741211,10.78499984741211,9.75,9.819999694824219,9.819999694824219,130700
2020-06-18,9.710000038146973,9.753000259399414,8.5600004196167,9.0,9.0,240200
2020-06-19,9.180000305175781,9.449999809265137,8.989999771118164,9.039999961853027,9.039999961853027,151600
2020-06-22,9.210000038146973,9.479999542236328,8.5,8.550000190734863,8.550000190734863,236100
2020-06-23,9.479999542236328,9.5,7.909999847412109,8.100000381469727,8.100000381469727,244700
2020-06-24,8.100000381469727,8.25,7.71999979019165,8.140000343322754,8.140000343322754,164500
2020-06-25,8.25,9.680000305175781,7.830999851226807,9.350000381469727,9.350000381469727,306500
2020-06-26,9.399999618530273,9.850000381469727,8.800000190734863,8.90999984741211,8.90999984741211,971600
2020-06-29,8.899999618530273,8.949999809265137,8.5,8.920000076293945,8.920000076293945,108000
2020-06-30,8.859999656677246,8.90999984741211,8.619999885559082,8.800000190734863,8.800000190734863,70400
2020-07-01,8.770000457763672,8.949999809265137,8.25,8.640000343322754,8.640000343322754,95400
2020-07-02,8.529999732971191,8.579999923706055,7.920000076293945,8.210000038146973,8.210000038146973,119000
2020-07-06,8.569999694824219,8.569999694824219,8.109999656677246,8.220000267028809,8.220000267028809,67400
2020-07-07,8.149999618530273,8.15999984741211,7.590000152587891,7.650000095367432,7.650000095367432,104200
2020-07-08,7.590000152587891,7.96999979019165,7.309999942779541,7.429999828338623,7.429999828338623,109900
2020-07-09,7.28000020980835,7.650000095367432,7.070000171661377,7.269999980926514,7.269999980926514,173700
2020-07-10,7.210000038146973,7.659999847412109,7.099999904632568,7.510000228881836,7.510000228881836,83100
2020-07-13,7.510000228881836,7.789999961853027,7.119999885559082,7.159999847412109,7.159999847412109,138700
2020-07-14,7.110000133514404,7.199999809265137,6.800000190734863,7.0,7.0,66500
2020-07-15,7.579999923706055,7.599999904632568,7.059999942779541,7.420000076293945,7.420000076293945,82300
2020-07-16,7.320000171661377,7.340000152587891,7.099999904632568,7.150000095367432,7.150000095367432,53600
2020-07-17,7.110000133514404,7.257999897003174,6.800000190734863,6.949999809265137,6.949999809265137,75500
2020-07-20,6.900000095367432,6.928999900817871,6.679999828338623,6.769999980926514,6.769999980926514,74000
2020-07-21,6.789999961853027,6.900000095367432,6.510000228881836,6.590000152587891,6.590000152587891,107100
2020-07-22,6.590000152587891,6.76200008392334,6.050000190734863,6.300000190734863,6.300000190734863,168600
2020-07-23,6.25,6.789999961853027,6.210000038146973,6.21999979019165,6.21999979019165,209100
2020-07-24,6.150000095367432,6.519999980926514,6.050000190734863,6.389999866485596,6.389999866485596,46000
2020-07-27,6.360000133514404,6.451000213623047,6.079999923706055,6.340000152587891,6.340000152587891,64300
2020-07-28,6.25,6.900000095367432,6.199999809265137,6.630000114440918,6.630000114440918,132300
2020-07-29,6.659999847412109,6.769999980926514,6.309999942779541,6.429999828338623,6.429999828338623,44600
2020-07-30,6.349999904632568,6.480000019073486,6.159999847412109,6.320000171661377,6.320000171661377,34800
2020-07-31,6.309999942779541,6.559999942779541,6.255000114440918,6.53000020980835,6.53000020980835,30300
2020-08-03,6.510000228881836,6.710000038146973,6.480000019073486,6.699999809265137,6.699999809265137,39000
2020-08-04,6.699999809265137,6.800000190734863,6.630000114440918,6.679999828338623,6.679999828338623,43200
2020-08-05,6.699999809265137,6.764999866485596,6.510000228881836,6.619999885559082,6.619999885559082,32300
2020-08-06,6.590000152587891,6.869999885559082,6.429999828338623,6.659999847412109,6.659999847412109,54400
2020-08-07,6.650000095367432,6.84499979019165,6.53000020980835,6.550000190734863,6.550000190734863,30300
2020-08-10,6.559999942779541,6.675000190734863,6.449999809265137,6.5,6.5,28700
2020-08-11,6.53000020980835,6.599999904632568,6.179999828338623,6.210000038146973,6.210000038146973,39300
2020-08-12,6.210000038146973,6.380000114440918,5.929999828338623,6.050000190734863,6.050000190734863,61500
2020-08-13,6.010000228881836,6.210000038146973,5.829999923706055,5.829999923706055,5.829999923706055,33300
2020-08-14,5.849999904632568,6.0,5.690000057220459,5.829999923706055,5.829999923706055,66100
2020-08-17,5.769999980926514,5.794000148773193,5.599999904632568,5.630000114440918,5.630000114440918,66500
2020-08-18,5.639999866485596,6.360000133514404,5.639999866485596,6.199999809265137,6.199999809265137,88600
2020-08-19,6.130000114440918,6.5,5.909999847412109,6.429999828338623,6.429999828338623,58100
2020-08-20,6.449999809265137,8.069999694824219,6.0,6.199999809265137,6.199999809265137,1041100
2020-08-21,6.25,6.308000087738037,5.900000095367432,5.929999828338623,5.929999828338623,90400
2020-08-24,5.920000076293945,6.105000019073486,5.809999942779541,5.929999828338623,5.929999828338623,36800
2020-08-25,5.940000057220459,6.130000114440918,5.849999904632568,6.0,6.0,50300
2020-08-26,6.0,6.389999866485596,5.840000152587891,6.170000076293945,6.170000076293945,137300
2020-08-27,6.159999847412109,6.199999809265137,6.0,6.019999980926514,6.019999980926514,38000
2020-08-28,6.0,6.25,6.0,6.199999809265137,6.199999809265137,68400
2020-08-31,6.5,6.510000228881836,6.010000228881836,6.050000190734863,6.050000190734863,199100
2020-09-01,6.079999923706055,6.409999847412109,5.349999904632568,5.630000114440918,5.630000114440918,194900
2020-09-02,5.5,5.929999828338623,5.119999885559082,5.139999866485596,5.139999866485596,219700
2020-09-03,5.130000114440918,5.139999866485596,4.840000152587891,4.880000114440918,4.880000114440918,78600
2020-09-04,4.940000057220459,4.980000019073486,4.639999866485596,4.710000038146973,4.710000038146973,99200
2020-09-08,4.699999809265137,4.75,4.559999942779541,4.610000133514404,4.610000133514404,90900
2020-09-09,4.659999847412109,4.75,4.630000114440918,4.690000057220459,4.690000057220459,62100
2020-09-10,4.699999809265137,4.699999809265137,4.570000171661377,4.610000133514404,4.610000133514404,50000
2020-09-11,4.610000133514404,4.699999809265137,4.557000160217285,4.650000095367432,4.650000095367432,37300
2020-09-14,4.630000114440918,4.699999809265137,4.510000228881836,4.570000171661377,4.570000171661377,61400
2020-09-15,4.550000190734863,4.630000114440918,4.369999885559082,4.409999847412109,4.409999847412109,60000
2020-09-16,4.46999979019165,4.610000133514404,4.360000133514404,4.489999771118164,4.489999771118164,293200
2020-09-17,4.460000038146973,4.489999771118164,4.199999809265137,4.409999847412109,4.409999847412109,196300
2020-09-18,4.340000152587891,4.389999866485596,4.119999885559082,4.21999979019165,4.21999979019165,189000
2020-09-21,4.21999979019165,4.2210001945495605,4.010000228881836,4.059999942779541,4.059999942779541,101100
2020-09-22,4.03000020980835,4.139999866485596,3.9800000190734863,4.03000020980835,4.03000020980835,164700
2020-09-23,4.210000038146973,4.26200008392334,3.819999933242798,3.869999885559082,3.869999885559082,101400
2020-09-24,3.869999885559082,3.9170000553131104,3.4700000286102295,3.640000104904175,3.640000104904175,153800
2020-09-25,3.640000104904175,3.890000104904175,3.569999933242798,3.5999999046325684,3.5999999046325684,89000
2020-09-28,3.5999999046325684,3.619999885559082,3.5399999618530273,3.569999933242798,3.569999933242798,97600
2020-09-29,3.569999933242798,3.755000114440918,3.4100000858306885,3.7200000286102295,3.7200000286102295,99500
2020-09-30,3.740000009536743,3.819999933242798,3.5199999809265137,3.640000104904175,3.640000104904175,90700
2020-10-01,3.799999952316284,4.579999923706055,3.680000066757202,3.9600000381469727,3.9600000381469727,764400
2020-10-02,3.950000047683716,4.010000228881836,3.8499999046325684,3.9600000381469727,3.9600000381469727,192800
2020-10-05,4.059999942779541,4.065000057220459,3.880000114440918,3.9700000286102295,3.9700000286102295,111000
2020-10-06,4.059999942779541,4.127999782562256,3.9200000762939453,3.940000057220459,3.940000057220459,108700
2020-10-07,3.930000066757202,4.349999904632568,3.8499999046325684,3.990000009536743,3.990000009536743,489800
2020-10-08,4.070000171661377,4.210000038146973,3.990000009536743,3.994999885559082,3.994999885559082,251800
2020-10-09,4.159999847412109,4.590000152587891,4.099999904632568,4.400000095367432,4.400000095367432,822800
2020-10-12,4.53000020980835,4.699999809265137,4.199999809265137,4.670000076293945,4.670000076293945,432800
2020-10-13,4.699999809265137,4.980000019073486,4.500999927520752,4.829999923706055,4.829999923706055,402000
2020-10-14,4.829999923706055,4.889999866485596,4.559999942779541,4.670000076293945,4.670000076293945,108000
2020-10-15,4.510000228881836,4.570000171661377,4.269999980926514,4.460000038146973,4.460000038146973,201900
2020-10-16,4.46999979019165,4.579999923706055,4.300000190734863,4.429999828338623,4.429999828338623,152700
2020-10-19,4.420000076293945,4.48199987411499,3.9800000190734863,4.019999980926514,4.019999980926514,246500
2020-10-20,4.059999942779541,4.099999904632568,3.5329999923706055,3.7200000286102295,3.7200000286102295,447300
2020-10-21,3.7200000286102295,3.7799999713897705,3.5199999809265137,3.690000057220459,3.690000057220459,232100
2020-10-22,3.690000057220459,3.7100000381469727,3.5299999713897705,3.6500000953674316,3.6500000953674316,185600
2020-10-23,3.7200000286102295,3.930000066757202,3.6500000953674316,3.7699999809265137,3.7699999809265137,207000
2020-10-26,3.7699999809265137,3.799999952316284,3.2799999713897705,3.450000047683716,3.450000047683716,426300
2020-10-27,3.430000066757202,3.450000047683716,2.7899999618530273,2.930000066757202,2.930000066757202,1416400
2020-10-28,2.3499999046325684,2.4600000381469727,2.1700000762939453,2.4000000953674316,2.4000000953674316,2565200
2020-10-29,2.299999952316284,2.4000000953674316,2.2799999713897705,2.3499999046325684,2.3499999046325684,355800
2020-10-30,2.3499999046325684,2.4600000381469727,2.319999933242798,2.380000114440918,2.380000114440918,312000
2020-11-02,2.380000114440918,2.5139999389648438,2.319999933242798,2.4600000381469727,2.4600000381469727,592900
2020-11-03,2.5199999809265137,2.5299999713897705,2.3399999141693115,2.390000104904175,2.390000104904175,455900
2020-11-04,2.4000000953674316,2.5,2.2799999713897705,2.4200000762939453,2.4200000762939453,265300
2020-11-05,2.5999999046325684,3.1500000953674316,2.5199999809265137,3.0999999046325684,3.0999999046325684,3947700
2020-11-06,3.4200000762939453,4.880000114440918,3.25,4.110000133514404,4.110000133514404,25972000
2020-11-09,4.769999980926514,4.860000133514404,3.5799999237060547,4.329999923706055,4.329999923706055,10906700
2020-11-10,3.7200000286102295,4.28000020980835,3.5999999046325684,3.630000114440918,3.630000114440918,2927900
2020-11-11,3.5,3.549999952316284,3.069999933242798,3.130000114440918,3.130000114440918,4375500
2020-11-12,3.0,3.119999885559082,2.700000047683716,2.799999952316284,2.799999952316284,2217500
2020-11-13,2.859999895095825,3.115000009536743,2.740000009536743,2.890000104904175,2.890000104904175,1501200
2020-11-16,2.880000114440918,3.0399999618530273,2.7699999809265137,2.9100000858306885,2.9100000858306885,929000
2020-11-17,2.8299999237060547,2.9600000381469727,2.759999990463257,2.8399999141693115,2.8399999141693115,1207800
2020-11-18,2.859999895095825,2.950000047683716,2.7100000381469727,2.75,2.75,800000
2020-11-19,2.75,2.819999933242798,2.549999952316284,2.75,2.75,1304700
2020-11-20,2.75,3.299999952316284,2.700000047683716,3.1600000858306885,3.1600000858306885,2804200
2020-11-23,3.2799999713897705,3.700000047683716,3.1500000953674316,3.5799999237060547,3.5799999237060547,2689700
2020-11-24,3.8399999141693115,4.090000152587891,3.4000000953674316,3.680000066757202,3.680000066757202,3374100
2020-11-25,3.4700000286102295,3.799999952316284,3.3499999046325684,3.450000047683716,3.450000047683716,1163300
2020-11-27,3.5,3.990000009536743,3.3499999046325684,3.9000000953674316,3.9000000953674316,2470400
2020-11-30,4.190000057220459,4.420000076293945,3.6700000762939453,4.289999961853027,4.289999961853027,4791800
2020-12-01,4.380000114440918,4.389999866485596,3.7100000381469727,3.7100000381469727,3.7100000381469727,2055600
2020-12-02,3.753999948501587,4.300000190734863,3.7100000381469727,4.050000190734863,4.050000190734863,3059500
2020-12-03,4.039999961853027,4.230000019073486,3.865000009536743,4.019999980926514,4.019999980926514,1185700
2020-12-04,4.050000190734863,4.349999904632568,3.75,3.819999933242798,3.819999933242798,3058800
2020-12-07,3.75,3.799999952316284,3.4100000858306885,3.559999942779541,3.559999942779541,1325100
2020-12-08,3.5,3.7899999618530273,3.4800000190734863,3.6600000858306885,3.6600000858306885,731200
2020-12-09,3.7300000190734863,3.7699999809265137,3.3499999046325684,3.4800000190734863,3.4800000190734863,870200
2020-12-10,3.430000066757202,4.320000171661377,3.369999885559082,3.7799999713897705,3.7799999713897705,2566900
2020-12-11,3.7699999809265137,3.7899999618530273,3.4100000858306885,3.5,3.5,821100
2020-12-14,3.5199999809265137,3.630000114440918,3.440000057220459,3.5299999713897705,3.5299999713897705,466700
2020-12-15,3.559999942779541,3.75,3.450000047683716,3.6600000858306885,3.6600000858306885,973900
2020-12-16,3.740000009536743,3.890000104904175,3.6600000858306885,3.7799999713897705,3.7799999713897705,662000
2020-12-17,3.7699999809265137,3.9600000381469727,3.7200000286102295,3.859999895095825,3.859999895095825,583000
2020-12-18,3.869999885559082,3.9800000190734863,3.6500000953674316,3.75,3.75,1868500
2020-12-21,3.6700000762939453,3.9000000953674316,3.569999933242798,3.8299999237060547,3.8299999237060547,570900
2020-12-22,3.9000000953674316,4.0,3.700000047683716,3.8499999046325684,3.8499999046325684,617100
2020-12-23,3.890000104904175,4.059999942779541,3.750999927520752,3.8299999237060547,3.8299999237060547,848800
2020-12-24,3.859999895095825,3.8940000534057617,3.5799999237060547,3.5999999046325684,3.5999999046325684,369900
2020-12-28,3.7300000190734863,3.740000009536743,3.4100000858306885,3.509999990463257,3.509999990463257,629600
2020-12-29,3.5799999237060547,3.61899995803833,3.309999942779541,3.4100000858306885,3.4100000858306885,449400
2020-12-30,3.4200000762939453,3.4509999752044678,3.259999990463257,3.3399999141693115,3.3399999141693115,870900
