Date,Open,High,Low,Close,Adj Close,Volume
2017-09-20,10.5,11.3100004196167,10.260000228881836,10.640000343322754,10.640000343322754,456500
2017-09-21,10.550000190734863,10.862000465393066,10.199999809265137,10.25,10.25,70800
2017-09-22,10.229999542236328,10.279999732971191,10.0,10.0600004196167,10.0600004196167,168800
2017-09-25,10.180000305175781,10.1899995803833,9.420000076293945,9.75,9.75,76500
2017-09-26,9.859999656677246,10.079999923706055,9.850000381469727,9.850000381469727,9.850000381469727,18600
2017-09-27,10.899999618530273,10.899999618530273,10.0,10.048999786376953,10.048999786376953,9400
2017-09-28,10.390000343322754,10.390000343322754,9.869999885559082,10.079999923706055,10.079999923706055,17600
2017-09-29,9.819999694824219,10.130000114440918,9.819999694824219,9.970000267028809,9.970000267028809,14300
2017-10-02,10.0,10.0,9.918999671936035,9.979999542236328,9.979999542236328,18700
2017-10-03,9.970000267028809,9.979999542236328,9.850000381469727,9.90999984741211,9.90999984741211,61000
2017-10-04,9.890000343322754,9.932000160217285,9.800000190734863,9.899999618530273,9.899999618530273,6600
2017-10-05,9.819999694824219,10.0600004196167,9.800000190734863,10.0600004196167,10.0600004196167,17800
2017-10-06,10.0600004196167,10.079999923706055,9.901000022888184,9.940999984741211,9.940999984741211,8600
2017-10-09,10.02299976348877,10.02299976348877,9.949999809265137,9.949999809265137,9.949999809265137,8800
2017-10-10,10.09000015258789,10.390000343322754,9.949999809265137,10.0600004196167,10.0600004196167,34300
2017-10-11,10.027000427246094,10.109999656677246,10.02400016784668,10.100000381469727,10.100000381469727,5600
2017-10-12,10.0,10.010000228881836,9.989999771118164,10.010000228881836,10.010000228881836,2100
2017-10-13,10.109999656677246,10.109999656677246,10.0,10.0,10.0,4300
2017-10-16,9.960000038146973,9.979999542236328,9.520000457763672,9.5600004196167,9.5600004196167,17600
2017-10-17,9.550000190734863,9.989999771118164,9.54699993133545,9.710000038146973,9.710000038146973,27400
2017-10-18,9.829999923706055,11.979999542236328,9.829999923706055,11.1899995803833,11.1899995803833,164400
2017-10-19,11.050000190734863,11.220000267028809,10.300000190734863,10.65999984741211,10.65999984741211,61400
2017-10-20,10.760000228881836,10.76200008392334,9.770000457763672,9.989999771118164,9.989999771118164,51500
2017-10-23,9.890000343322754,10.119999885559082,9.010000228881836,9.3100004196167,9.3100004196167,39800
2017-10-24,9.220000267028809,9.960000038146973,9.100000381469727,9.670000076293945,9.670000076293945,27600
2017-10-25,9.5,10.48900032043457,9.5,10.100000381469727,10.100000381469727,47000
2017-10-26,10.1899995803833,10.420000076293945,9.548999786376953,9.699999809265137,9.699999809265137,25700
2017-10-27,9.510000228881836,10.1899995803833,9.288000106811523,10.039999961853027,10.039999961853027,36600
2017-10-30,9.84000015258789,9.920000076293945,9.156000137329102,9.510000228881836,9.510000228881836,21000
2017-10-31,9.449999809265137,9.899999618530273,9.16100025177002,9.899999618530273,9.899999618530273,12700
2017-11-01,9.348999977111816,10.0,9.348999977111816,9.550000190734863,9.550000190734863,16000
2017-11-02,9.607999801635742,9.859999656677246,9.5,9.5600004196167,9.5600004196167,16600
2017-11-03,9.460000038146973,9.729999542236328,9.380000114440918,9.725000381469727,9.725000381469727,8200
2017-11-06,9.550000190734863,10.100000381469727,9.420000076293945,9.869999885559082,9.869999885559082,19500
2017-11-07,9.600000381469727,10.100000381469727,9.468000411987305,9.829999923706055,9.829999923706055,27000
2017-11-08,10.010000228881836,10.149999618530273,9.880999565124512,10.069999694824219,10.069999694824219,5100
2017-11-09,10.065999984741211,10.130000114440918,9.85099983215332,10.130000114440918,10.130000114440918,2400
2017-11-10,10.050000190734863,10.180000305175781,9.87399959564209,10.180000305175781,10.180000305175781,11300
2017-11-13,10.449000358581543,11.15999984741211,10.437000274658203,10.564000129699707,10.564000129699707,46700
2017-11-14,11.0,11.199999809265137,10.5,10.789999961853027,10.789999961853027,9400
2017-11-15,10.670000076293945,10.789999961853027,10.0,10.399999618530273,10.399999618530273,17800
2017-11-16,10.34000015258789,10.710000038146973,9.109999656677246,10.710000038146973,10.710000038146973,23400
2017-11-17,10.539999961853027,10.90999984741211,9.920000076293945,10.369999885559082,10.369999885559082,12000
2017-11-20,10.260000228881836,10.4399995803833,9.779999732971191,10.430000305175781,10.430000305175781,6500
2017-11-21,10.210000038146973,10.699999809265137,10.0,10.489999771118164,10.489999771118164,11900
2017-11-22,10.270000457763672,10.5,10.170000076293945,10.5,10.5,10200
2017-11-24,10.291000366210938,10.5,10.111000061035156,10.5,10.5,2000
2017-11-27,10.5,10.600000381469727,10.380000114440918,10.5,10.5,5700
2017-11-28,10.5,10.744999885559082,10.100000381469727,10.5,10.5,26400
2017-11-29,10.479999542236328,10.5,10.180000305175781,10.1899995803833,10.1899995803833,2900
2017-11-30,10.470000267028809,10.520000457763672,10.357000350952148,10.5,10.5,15100
2017-12-01,10.489999771118164,10.520000457763672,10.211999893188477,10.520000457763672,10.520000457763672,3400
2017-12-04,10.520000457763672,10.520000457763672,10.170000076293945,10.5,10.5,5700
2017-12-05,10.5,10.569999694824219,10.4399995803833,10.5,10.5,4000
2017-12-06,10.5,10.619999885559082,10.359999656677246,10.359999656677246,10.359999656677246,8300
2017-12-07,10.489999771118164,10.630000114440918,10.399999618530273,10.40999984741211,10.40999984741211,6000
2017-12-08,10.5,10.630000114440918,10.210000038146973,10.210000038146973,10.210000038146973,4700
2017-12-11,10.489999771118164,10.670000076293945,10.300000190734863,10.670000076293945,10.670000076293945,21600
2017-12-12,10.489999771118164,10.630000114440918,10.4399995803833,10.619999885559082,10.619999885559082,15700
2017-12-13,10.630000114440918,11.128000259399414,10.390000343322754,10.600000381469727,10.600000381469727,78300
2017-12-14,11.039999961853027,11.039999961853027,10.329999923706055,10.329999923706055,10.329999923706055,34400
2017-12-15,10.449999809265137,10.779999732971191,9.550000190734863,9.5600004196167,9.5600004196167,40300
2017-12-18,9.899999618530273,10.0,9.130000114440918,9.130000114440918,9.130000114440918,18900
2017-12-19,9.109999656677246,9.529999732971191,8.029999732971191,8.1899995803833,8.1899995803833,31700
2017-12-20,8.350000381469727,9.039999961853027,8.350000381469727,8.850000381469727,8.850000381469727,12400
2017-12-21,8.651000022888184,9.25,8.651000022888184,9.25,9.25,4400
2017-12-22,9.260000228881836,9.260000228881836,8.989999771118164,9.020000457763672,9.020000457763672,3400
2017-12-26,8.680000305175781,8.998000144958496,8.619999885559082,8.800000190734863,8.800000190734863,10600
2017-12-27,8.829999923706055,9.119999885559082,8.649999618530273,8.949999809265137,8.949999809265137,4800
2017-12-28,9.039999961853027,10.253999710083008,8.9399995803833,9.90999984741211,9.90999984741211,85500
2017-12-29,9.970000267028809,10.520000457763672,9.300000190734863,10.520000457763672,10.520000457763672,20700
2018-01-02,10.0,10.989999771118164,9.180000305175781,9.180000305175781,9.180000305175781,72300
2018-01-03,9.489999771118164,10.609999656677246,9.470000267028809,10.609999656677246,10.609999656677246,79200
2018-01-04,10.4399995803833,10.994000434875488,10.114999771118164,10.520000457763672,10.520000457763672,25000
2018-01-05,10.619999885559082,10.960000038146973,10.229999542236328,10.34000015258789,10.34000015258789,9400
2018-01-08,10.850000381469727,11.710000038146973,9.90999984741211,10.609999656677246,10.609999656677246,10800
2018-01-09,9.869999885559082,10.875,9.529000282287598,10.199999809265137,10.199999809265137,58100
2018-01-10,10.420000076293945,10.890000343322754,10.050000190734863,10.0600004196167,10.0600004196167,7800
2018-01-11,10.119999885559082,10.734999656677246,10.119999885559082,10.5,10.5,15000
2018-01-12,10.069999694824219,10.234999656677246,10.050000190734863,10.050000190734863,10.050000190734863,5700
2018-01-16,10.09000015258789,10.09000015258789,9.543000221252441,9.869999885559082,9.869999885559082,13000
2018-01-17,10.0,10.0,9.550000190734863,9.640000343322754,9.640000343322754,6900
2018-01-18,9.539999961853027,9.779999732971191,9.10099983215332,9.779999732971191,9.779999732971191,10000
2018-01-19,9.680000305175781,10.800000190734863,9.529999732971191,10.25,10.25,4800
2018-01-22,10.25,11.0,9.850000381469727,9.960000038146973,9.960000038146973,19400
2018-01-23,9.960000038146973,9.960000038146973,9.75,9.75,9.75,1100
2018-01-24,9.609999656677246,9.609999656677246,9.550000190734863,9.579999923706055,9.579999923706055,3400
2018-01-25,9.6899995803833,9.927000045776367,9.550000190734863,9.550000190734863,9.550000190734863,5300
2018-01-26,9.817000389099121,10.479999542236328,9.765000343322754,10.050000190734863,10.050000190734863,7900
2018-01-29,10.279999732971191,10.543000221252441,9.699999809265137,9.699999809265137,9.699999809265137,29900
2018-01-30,9.866999626159668,10.039999961853027,9.59000015258789,10.039999961853027,10.039999961853027,5900
2018-01-31,9.670000076293945,9.979999542236328,9.550000190734863,9.979999542236328,9.979999542236328,1100
2018-02-01,9.930000305175781,9.979999542236328,9.5600004196167,9.6899995803833,9.6899995803833,6400
2018-02-02,9.760000228881836,9.760000228881836,9.449999809265137,9.529999732971191,9.529999732971191,5200
2018-02-05,9.420000076293945,9.420000076293945,8.800999641418457,8.850000381469727,8.850000381469727,10300
2018-02-06,9.029999732971191,9.241999626159668,9.029999732971191,9.241999626159668,9.241999626159668,700
2018-02-07,9.90999984741211,9.960000038146973,9.49899959564209,9.65999984741211,9.65999984741211,4800
2018-02-08,9.510000228881836,9.510000228881836,9.100000381469727,9.489999771118164,9.489999771118164,3300
2018-02-09,9.246000289916992,9.59000015258789,9.199999809265137,9.59000015258789,9.59000015258789,3100
2018-02-12,9.279999732971191,9.279999732971191,8.70300006866455,8.90999984741211,8.90999984741211,5800
2018-02-13,9.300000190734863,9.732000350952148,8.84000015258789,9.303000450134277,9.303000450134277,2200
2018-02-14,9.326000213623047,9.326000213623047,8.979999542236328,9.039999961853027,9.039999961853027,3400
2018-02-15,9.753000259399414,9.789999961853027,8.670000076293945,8.8100004196167,8.8100004196167,3100
2018-02-16,8.670000076293945,8.770000457763672,8.619999885559082,8.619999885559082,8.619999885559082,10100
2018-02-20,8.949999809265137,8.949999809265137,8.609999656677246,8.609999656677246,8.609999656677246,900
2018-02-21,8.642999649047852,9.199999809265137,8.642999649047852,8.670000076293945,8.670000076293945,4000
2018-02-22,8.680000305175781,9.140000343322754,8.680000305175781,9.140000343322754,9.140000343322754,2600
2018-02-23,8.670000076293945,8.949999809265137,8.670000076293945,8.949999809265137,8.949999809265137,1600
2018-02-26,9.0,9.800000190734863,9.0,9.800000190734863,9.800000190734863,16300
2018-02-27,9.399999618530273,10.210000038146973,9.399999618530273,10.199999809265137,10.199999809265137,58100
2018-02-28,10.0,10.079999923706055,10.0,10.079999923706055,10.079999923706055,24400
2018-03-01,9.951000213623047,9.951000213623047,9.899999618530273,9.90999984741211,9.90999984741211,3200
2018-03-02,9.901000022888184,9.95300006866455,9.899999618530273,9.930000305175781,9.930000305175781,8300
2018-03-05,10.010000228881836,10.010000228881836,9.225000381469727,9.260000228881836,9.260000228881836,7300
2018-03-06,9.684000015258789,10.149999618530273,9.649999618530273,9.829999923706055,9.829999923706055,5600
2018-03-07,10.0,10.109999656677246,9.869999885559082,9.869999885559082,9.869999885559082,1800
2018-03-08,9.989999771118164,9.989999771118164,9.989999771118164,9.989999771118164,9.989999771118164,300
2018-03-09,9.880000114440918,9.979999542236328,9.350000381469727,9.6899995803833,9.6899995803833,11800
2018-03-12,9.600000381469727,9.800000190734863,9.600000381469727,9.800000190734863,9.800000190734863,1100
2018-03-13,10.25,10.574999809265137,10.180000305175781,10.25,10.25,19100
2018-03-14,10.710000038146973,10.899999618530273,10.687999725341797,10.899999618530273,10.899999618530273,9100
2018-03-15,10.892999649047852,11.0,10.850000381469727,11.0,11.0,9400
2018-03-16,10.890000343322754,12.0,10.890000343322754,11.739999771118164,11.739999771118164,3700
2018-03-19,11.880000114440918,11.880000114440918,10.699999809265137,11.0,11.0,61600
2018-03-20,10.949999809265137,10.949999809265137,10.550000190734863,10.850000381469727,10.850000381469727,16500
2018-03-21,10.569999694824219,10.699999809265137,10.119999885559082,10.399999618530273,10.399999618530273,19900
2018-03-22,10.289999961853027,10.600000381469727,10.100000381469727,10.600000381469727,10.600000381469727,30300
2018-03-23,10.467000007629395,10.619999885559082,10.09000015258789,10.239999771118164,10.239999771118164,48700
2018-03-26,10.220000267028809,10.220000267028809,9.920000076293945,9.920000076293945,9.920000076293945,53000
2018-03-27,9.913999557495117,10.0,9.75,9.8100004196167,9.8100004196167,17600
2018-03-28,9.989999771118164,10.25,9.8100004196167,9.869999885559082,9.869999885559082,22600
2018-03-29,9.8100004196167,10.149999618530273,9.8100004196167,10.09000015258789,10.09000015258789,5100
2018-04-02,10.140000343322754,10.140000343322754,9.649999618530273,9.65999984741211,9.65999984741211,8800
2018-04-03,9.779999732971191,10.0,9.609999656677246,9.630000114440918,9.630000114440918,6800
2018-04-04,9.6899995803833,10.0,9.6899995803833,9.989999771118164,9.989999771118164,26000
2018-04-05,10.050000190734863,10.050000190734863,9.79699993133545,10.020000457763672,10.020000457763672,8000
2018-04-06,9.920000076293945,9.920000076293945,9.640000343322754,9.890000343322754,9.890000343322754,7000
2018-04-09,9.760000228881836,9.970000267028809,9.760000228881836,9.800000190734863,9.800000190734863,800
2018-04-10,9.869999885559082,11.0,9.869999885559082,10.0600004196167,10.0600004196167,22200
2018-04-11,10.170000076293945,10.170000076293945,9.880000114440918,9.970000267028809,9.970000267028809,6700
2018-04-12,10.100000381469727,10.100000381469727,9.774999618530273,9.84000015258789,9.84000015258789,18100
2018-04-13,9.84000015258789,9.84000015258789,9.84000015258789,9.84000015258789,9.84000015258789,0
2018-04-16,9.930000305175781,10.300000190734863,9.930000305175781,10.0,10.0,5100
2018-04-17,10.149999618530273,10.25,10.0,10.029999732971191,10.029999732971191,22200
2018-04-18,10.930000305175781,11.010000228881836,10.069999694824219,10.079999923706055,10.079999923706055,5600
2018-04-19,11.010000228881836,11.039999961853027,10.40999984741211,10.40999984741211,10.40999984741211,2400
2018-04-20,10.319999694824219,10.489999771118164,10.0,10.100000381469727,10.100000381469727,8200
2018-04-23,10.180000305175781,10.1899995803833,8.989999771118164,8.989999771118164,8.989999771118164,27700
2018-04-24,9.260000228881836,9.300999641418457,8.90999984741211,9.100000381469727,9.100000381469727,15900
2018-04-25,9.039999961853027,9.350000381469727,9.0,9.199999809265137,9.199999809265137,4200
2018-04-26,9.5,10.069999694824219,9.479999542236328,9.600000381469727,9.600000381469727,23500
2018-04-27,9.9399995803833,10.390000343322754,9.626999855041504,9.720000267028809,9.720000267028809,18500
2018-04-30,9.800000190734863,10.0,9.609999656677246,9.609999656677246,9.609999656677246,3100
2018-05-01,9.635000228881836,9.880000114440918,9.5,9.5,9.5,17200
2018-05-02,9.600000381469727,9.600000381469727,9.600000381469727,9.600000381469727,9.600000381469727,300
2018-05-03,9.819999694824219,10.170000076293945,9.800000190734863,10.149999618530273,10.149999618530273,3900
2018-05-04,9.520999908447266,10.109999656677246,9.520999908447266,10.079999923706055,10.079999923706055,900
2018-05-07,10.300000190734863,10.399999618530273,10.300000190734863,10.350000381469727,10.350000381469727,1500
2018-05-08,10.430000305175781,10.680000305175781,10.0,10.09000015258789,10.09000015258789,29600
2018-05-09,10.649999618530273,10.649999618530273,10.0,10.0,10.0,40300
2018-05-10,10.079999923706055,10.300000190734863,10.0600004196167,10.25,10.25,116200
2018-05-11,10.399999618530273,10.958000183105469,10.100000381469727,10.100000381469727,10.100000381469727,20700
2018-05-14,10.289999961853027,10.491000175476074,10.0,10.100000381469727,10.100000381469727,20100
2018-05-15,9.977999687194824,10.482999801635742,9.899999618530273,10.222000122070312,10.222000122070312,15500
2018-05-16,10.130000114440918,10.65999984741211,10.095000267028809,10.65999984741211,10.65999984741211,9600
2018-05-17,10.949999809265137,11.199999809265137,10.6899995803833,10.800000190734863,10.800000190734863,39600
2018-05-18,11.199999809265137,11.199999809265137,10.8100004196167,11.0,11.0,64400
2018-05-21,11.199999809265137,11.199999809265137,10.715999603271484,10.75,10.75,25700
2018-05-22,10.760000228881836,10.899999618530273,10.479999542236328,10.5,10.5,13400
2018-05-23,10.532999992370605,10.640000343322754,10.25,10.25,10.25,7500
2018-05-24,10.970000267028809,10.970000267028809,10.109999656677246,10.180000305175781,10.180000305175781,28400
2018-05-25,10.229999542236328,10.5,10.15999984741211,10.3100004196167,10.3100004196167,77300
2018-05-29,10.5,10.670000076293945,10.289999961853027,10.300000190734863,10.300000190734863,52900
2018-05-30,10.399999618530273,10.465999603271484,10.109999656677246,10.199999809265137,10.199999809265137,24200
2018-05-31,10.350000381469727,10.399999618530273,10.199999809265137,10.289999961853027,10.289999961853027,14500
2018-06-01,10.5,10.5,10.0,10.300000190734863,10.300000190734863,226800
2018-06-04,10.958000183105469,10.979999542236328,10.3100004196167,10.585000038146973,10.585000038146973,27600
2018-06-05,10.729999542236328,11.369999885559082,10.649999618530273,11.0,11.0,101300
2018-06-06,11.270000457763672,12.600000381469727,11.0600004196167,12.449999809265137,12.449999809265137,177300
2018-06-07,12.539999961853027,13.003999710083008,12.0,12.680000305175781,12.680000305175781,93400
2018-06-08,12.720000267028809,13.989999771118164,12.319999694824219,13.8100004196167,13.8100004196167,162800
2018-06-11,13.960000038146973,14.720000267028809,13.960000038146973,14.6899995803833,14.6899995803833,119500
2018-06-12,14.59000015258789,14.960000038146973,12.899999618530273,13.829999923706055,13.829999923706055,63700
2018-06-13,13.760000228881836,14.1899995803833,13.25,13.899999618530273,13.899999618530273,46400
2018-06-14,14.081999778747559,14.300000190734863,13.949999809265137,14.229999542236328,14.229999542236328,16100
2018-06-15,14.039999961853027,14.670000076293945,13.600000381469727,14.199999809265137,14.199999809265137,113200
2018-06-18,14.0,14.399999618530273,13.800000190734863,14.390000343322754,14.390000343322754,14900
2018-06-19,14.456999778747559,14.729999542236328,14.270000457763672,14.699999809265137,14.699999809265137,43100
2018-06-20,14.649999618530273,15.99899959564209,14.199999809265137,15.260000228881836,15.260000228881836,30700
2018-06-21,15.359999656677246,15.640999794006348,13.65999984741211,14.039999961853027,14.039999961853027,95600
2018-06-22,14.4399995803833,15.140000343322754,14.142999649047852,14.970000267028809,14.970000267028809,21700
2018-06-25,15.020000457763672,15.505000114440918,14.460000038146973,14.520000457763672,14.520000457763672,139500
2018-06-26,14.520000457763672,15.524999618530273,14.449999809265137,14.520000457763672,14.520000457763672,42400
2018-06-27,14.630000114440918,15.130000114440918,13.75,13.75,13.75,22100
2018-06-28,14.0,15.350000381469727,14.0,14.420000076293945,14.420000076293945,58700
2018-06-29,14.350000381469727,15.053999900817871,14.350000381469727,14.869999885559082,14.869999885559082,8200
2018-07-02,14.699999809265137,14.949999809265137,14.279999732971191,14.430000305175781,14.430000305175781,11600
2018-07-03,14.359999656677246,14.83899974822998,14.359999656677246,14.520000457763672,14.520000457763672,6500
2018-07-05,14.8100004196167,14.880000114440918,14.579000473022461,14.6899995803833,14.6899995803833,5600
2018-07-06,14.649999618530273,15.069999694824219,14.649999618530273,15.069999694824219,15.069999694824219,15100
2018-07-09,14.8100004196167,15.350000381469727,14.531000137329102,15.0600004196167,15.0600004196167,3900
2018-07-10,16.1200008392334,16.36199951171875,15.75,15.8100004196167,15.8100004196167,46200
2018-07-11,15.8100004196167,17.038000106811523,15.71399974822998,16.6299991607666,16.6299991607666,48200
2018-07-12,16.950000762939453,17.75,16.655000686645508,17.059999465942383,17.059999465942383,69100
2018-07-13,17.15999984741211,17.385000228881836,17.100000381469727,17.1299991607666,17.1299991607666,31300
2018-07-16,17.40999984741211,17.98900032043457,17.139999389648438,17.5,17.5,70300
2018-07-17,17.770000457763672,17.924999237060547,17.5,17.84000015258789,17.84000015258789,58000
2018-07-18,17.93000030517578,18.40999984741211,17.422000885009766,18.40999984741211,18.40999984741211,77800
2018-07-19,18.25,19.25,17.410999298095703,18.0,18.0,89000
2018-07-20,17.770000457763672,18.530000686645508,17.770000457763672,18.329999923706055,18.329999923706055,41000
2018-07-23,18.31999969482422,18.719999313354492,18.0,18.459999084472656,18.459999084472656,22500
2018-07-24,19.049999237060547,19.100000381469727,17.201000213623047,17.899999618530273,17.899999618530273,81600
2018-07-25,17.899999618530273,18.420000076293945,17.110000610351562,17.299999237060547,17.299999237060547,27100
2018-07-26,17.440000534057617,17.59000015258789,16.6299991607666,17.079999923706055,17.079999923706055,39700
2018-07-27,17.25,17.389999389648438,16.549999237060547,16.549999237060547,16.549999237060547,17800
2018-07-30,16.969999313354492,17.29400062561035,15.600000381469727,15.625,15.625,50100
2018-07-31,17.360000610351562,17.360000610351562,16.045000076293945,16.450000762939453,16.450000762939453,15500
2018-08-01,16.59000015258789,16.649999618530273,15.390000343322754,16.649999618530273,16.649999618530273,5300
2018-08-02,15.720000267028809,17.149999618530273,15.510000228881836,15.930000305175781,15.930000305175781,6800
2018-08-03,15.890000343322754,16.399999618530273,15.779999732971191,15.779999732971191,15.779999732971191,11500
2018-08-06,15.880000114440918,16.98699951171875,15.710000038146973,16.020000457763672,16.020000457763672,29500
2018-08-07,16.440000534057617,16.610000610351562,16.010000228881836,16.200000762939453,16.200000762939453,19400
2018-08-08,16.399999618530273,17.25,15.6899995803833,15.84000015258789,15.84000015258789,48100
2018-08-09,15.850000381469727,16.485000610351562,15.65999984741211,16.010000228881836,16.010000228881836,31800
2018-08-10,16.239999771118164,16.299999237060547,15.579999923706055,16.010000228881836,16.010000228881836,18600
2018-08-13,16.06800079345703,16.25,15.729999542236328,15.920999526977539,15.920999526977539,32800
2018-08-14,16.288999557495117,16.299999237060547,15.550000190734863,16.0,16.0,45100
2018-08-15,15.829999923706055,16.1200008392334,14.680000305175781,16.1200008392334,16.1200008392334,27900
2018-08-16,16.020000457763672,16.06999969482422,15.04699993133545,15.430000305175781,15.430000305175781,49500
2018-08-17,16.790000915527344,17.46500015258789,15.960000038146973,16.260000228881836,16.260000228881836,28700
2018-08-20,16.079999923706055,16.540000915527344,16.079999923706055,16.5,16.5,6700
2018-08-21,16.229999542236328,16.739999771118164,15.670000076293945,16.200000762939453,16.200000762939453,16700
2018-08-22,16.110000610351562,16.719999313354492,15.98799991607666,16.275999069213867,16.275999069213867,16600
2018-08-23,16.854999542236328,16.98699951171875,16.219999313354492,16.639999389648438,16.639999389648438,66900
2018-08-24,16.530000686645508,17.106000900268555,16.413000106811523,16.729999542236328,16.729999542236328,63200
2018-08-27,16.510000228881836,16.99799919128418,15.942000389099121,16.59000015258789,16.59000015258789,71700
2018-08-28,16.5,16.989999771118164,16.40999984741211,16.809999465942383,16.809999465942383,91500
2018-08-29,16.81999969482422,17.101999282836914,15.15999984741211,16.530000686645508,16.530000686645508,72000
2018-08-30,16.3700008392334,16.719999313354492,16.170000076293945,16.520000457763672,16.520000457763672,26100
2018-08-31,16.3799991607666,16.63599967956543,16.149999618530273,16.440000534057617,16.440000534057617,8400
2018-09-04,16.479999542236328,16.84000015258789,16.149999618530273,16.600000381469727,16.600000381469727,42000
2018-09-05,16.510000228881836,16.75,15.861000061035156,16.75,16.75,37200
2018-09-06,16.75,17.489999771118164,16.75,17.280000686645508,17.280000686645508,45800
2018-09-07,17.309999465942383,18.889999389648438,16.91200065612793,18.850000381469727,18.850000381469727,53700
2018-09-10,18.940000534057617,20.0,18.5,19.790000915527344,19.790000915527344,46000
2018-09-11,19.989999771118164,21.170000076293945,19.68000030517578,21.0,21.0,140200
2018-09-12,20.959999084472656,21.0,17.700000762939453,17.90999984741211,17.90999984741211,130000
2018-09-13,18.260000228881836,19.479999542236328,16.75,17.829999923706055,17.829999923706055,37300
2018-09-14,17.709999084472656,19.0,16.549999237060547,16.670000076293945,16.670000076293945,10500
2018-09-17,16.610000610351562,17.100000381469727,15.0,15.729999542236328,15.729999542236328,90900
2018-09-18,15.680000305175781,16.579999923706055,15.449999809265137,15.9399995803833,15.9399995803833,35700
2018-09-19,15.9399995803833,17.18000030517578,15.9399995803833,16.520000457763672,16.520000457763672,28900
2018-09-20,17.229999542236328,18.3700008392334,16.31999969482422,17.0,17.0,20200
2018-09-21,17.209999084472656,18.239999771118164,16.30699920654297,16.8799991607666,16.8799991607666,52700
2018-09-24,17.989999771118164,18.0,17.139999389648438,17.649999618530273,17.649999618530273,79900
2018-09-25,17.690000534057617,18.780000686645508,17.239999771118164,18.059999465942383,18.059999465942383,63000
2018-09-26,18.09000015258789,18.44700050354004,17.650999069213867,17.875,17.875,53700
2018-09-27,17.829999923706055,17.93000030517578,16.559999465942383,17.93000030517578,17.93000030517578,48300
2018-09-28,17.93000030517578,17.93000030517578,16.799999237060547,17.579999923706055,17.579999923706055,15800
2018-10-01,17.690000534057617,18.094999313354492,17.0,17.010000228881836,17.010000228881836,34500
2018-10-02,17.149999618530273,17.8700008392334,16.030000686645508,17.8700008392334,17.8700008392334,33600
2018-10-03,17.65999984741211,17.844999313354492,16.100000381469727,16.399999618530273,16.399999618530273,32000
2018-10-04,16.399999618530273,17.479999542236328,15.5,16.25,16.25,67000
2018-10-05,16.25,16.72599983215332,15.789999961853027,15.800000190734863,15.800000190734863,7500
2018-10-08,15.859999656677246,16.3799991607666,15.09000015258789,15.510000228881836,15.510000228881836,9100
2018-10-09,15.399999618530273,15.569999694824219,15.050000190734863,15.170000076293945,15.170000076293945,18300
2018-10-10,15.383000373840332,15.8100004196167,15.0,15.029999732971191,15.029999732971191,75600
2018-10-11,15.0,15.510000228881836,14.300000190734863,15.5,15.5,24900
2018-10-12,14.699999809265137,16.434999465942383,14.699999809265137,16.139999389648438,16.139999389648438,2600
2018-10-15,20.329999923706055,21.895000457763672,18.0,20.0,20.0,588300
2018-10-16,20.389999389648438,24.729999542236328,19.40999984741211,24.729999542236328,24.729999542236328,215900
2018-10-17,24.889999389648438,24.889999389648438,21.209999084472656,21.40999984741211,21.40999984741211,135700
2018-10-18,20.3799991607666,21.899999618530273,19.7549991607666,20.65999984741211,20.65999984741211,289700
2018-10-19,21.709999084472656,22.920000076293945,21.1299991607666,22.690000534057617,22.690000534057617,977400
2018-10-22,22.59000015258789,22.59000015258789,20.60300064086914,21.1200008392334,21.1200008392334,215700
2018-10-23,21.469999313354492,21.625999450683594,20.219999313354492,21.209999084472656,21.209999084472656,124500
2018-10-24,21.010000228881836,22.29599952697754,20.114999771118164,20.329999923706055,20.329999923706055,72500
2018-10-25,20.329999923706055,20.59000015258789,19.549999237060547,19.860000610351562,19.860000610351562,47000
2018-10-26,19.729999542236328,19.8799991607666,19.0,19.309999465942383,19.309999465942383,41600
2018-10-29,19.43000030517578,19.43000030517578,18.0,18.760000228881836,18.760000228881836,107900
2018-10-30,18.920000076293945,20.09000015258789,18.003999710083008,19.719999313354492,19.719999313354492,63400
2018-10-31,19.8799991607666,21.299999237060547,19.719999313354492,20.610000610351562,20.610000610351562,50200
2018-11-01,20.65999984741211,23.979999542236328,20.65999984741211,23.5,23.5,129800
2018-11-02,23.40999984741211,24.260000228881836,22.030000686645508,22.670000076293945,22.670000076293945,138300
2018-11-05,21.25,23.5,21.25,22.229999542236328,22.229999542236328,39300
2018-11-06,22.229999542236328,22.690000534057617,21.59000015258789,21.600000381469727,21.600000381469727,44500
2018-11-07,21.719999313354492,23.420000076293945,21.3700008392334,21.739999771118164,21.739999771118164,42800
2018-11-08,21.350000381469727,21.760000228881836,20.799999237060547,20.850000381469727,20.850000381469727,27700
2018-11-09,21.010000228881836,22.479000091552734,20.5,22.34000015258789,22.34000015258789,56200
2018-11-12,22.399999618530273,23.04199981689453,21.600000381469727,21.600000381469727,21.600000381469727,39800
2018-11-13,21.610000610351562,22.989999771118164,20.15999984741211,20.459999084472656,20.459999084472656,37200
2018-11-14,20.549999237060547,21.959999084472656,20.549999237060547,21.709999084472656,21.709999084472656,63500
2018-11-15,21.790000915527344,21.950000762939453,21.040000915527344,21.68000030517578,21.68000030517578,37500
2018-11-16,21.65999984741211,22.65999984741211,20.510000228881836,20.709999084472656,20.709999084472656,53700
2018-11-19,21.049999237060547,22.070999145507812,20.5,20.670000076293945,20.670000076293945,59500
2018-11-20,20.520000457763672,21.14900016784668,20.5,20.610000610351562,20.610000610351562,44500
2018-11-21,20.559999465942383,20.923999786376953,20.540000915527344,20.6200008392334,20.6200008392334,25600
2018-11-23,20.5,21.21299934387207,20.5,20.989999771118164,20.989999771118164,12700
2018-11-26,21.079999923706055,21.822999954223633,20.549999237060547,20.549999237060547,20.549999237060547,32900
2018-11-27,20.520000457763672,21.59000015258789,18.760000228881836,21.450000762939453,21.450000762939453,143300
2018-11-28,21.59000015258789,24.469999313354492,21.59000015258789,23.799999237060547,23.799999237060547,108400
2018-11-29,23.5,23.797000885009766,20.65999984741211,23.440000534057617,23.440000534057617,67600
2018-11-30,23.65999984741211,25.3799991607666,22.829999923706055,25.3799991607666,25.3799991607666,47400
2018-12-03,26.399999618530273,28.75,24.15399932861328,24.959999084472656,24.959999084472656,75900
2018-12-04,24.8799991607666,27.5,22.350000381469727,23.889999389648438,23.889999389648438,74300
2018-12-06,23.639999389648438,27.170000076293945,23.34000015258789,23.469999313354492,23.469999313354492,49600
2018-12-07,23.440000534057617,24.309999465942383,22.520000457763672,23.489999771118164,23.489999771118164,52700
2018-12-10,23.719999313354492,24.510000228881836,22.459999084472656,23.43000030517578,23.43000030517578,24400
2018-12-11,23.90999984741211,24.440000534057617,22.440000534057617,23.290000915527344,23.290000915527344,21700
2018-12-12,23.989999771118164,24.34000015258789,22.950000762939453,23.790000915527344,23.790000915527344,26000
2018-12-13,23.90999984741211,25.299999237060547,22.94499969482422,24.889999389648438,24.889999389648438,22900
2018-12-14,24.700000762939453,25.309999465942383,23.551000595092773,24.760000228881836,24.760000228881836,48400
2018-12-17,24.639999389648438,25.219999313354492,23.510000228881836,23.510000228881836,23.510000228881836,30100
2018-12-18,23.610000610351562,24.8439998626709,20.360000610351562,22.899999618530273,22.899999618530273,68400
2018-12-19,23.270000457763672,23.75,21.510000228881836,22.459999084472656,22.459999084472656,34300
2018-12-20,22.75,22.75,19.690000534057617,20.979999542236328,20.979999542236328,39400
2018-12-21,20.850000381469727,23.209999084472656,17.76799964904785,20.34000015258789,20.34000015258789,115500
2018-12-24,20.010000228881836,21.209999084472656,20.010000228881836,20.75,20.75,20100
2018-12-26,20.829999923706055,22.049999237060547,16.81999969482422,20.6299991607666,20.6299991607666,79200
2018-12-27,20.360000610351562,20.860000610351562,18.780000686645508,20.360000610351562,20.360000610351562,35500
2018-12-28,20.549999237060547,21.690000534057617,19.809999465942383,20.690000534057617,20.690000534057617,56000
2018-12-31,20.84000015258789,22.920000076293945,20.100000381469727,20.780000686645508,20.780000686645508,117400
2019-01-02,20.420000076293945,23.200000762939453,20.420000076293945,22.84000015258789,22.84000015258789,52500
2019-01-03,22.479999542236328,22.860000610351562,21.670000076293945,22.59000015258789,22.59000015258789,34300
2019-01-04,22.75,25.989999771118164,22.75,25.3700008392334,25.3700008392334,42100
2019-01-07,25.520000457763672,27.30900001525879,25.450000762939453,25.780000686645508,25.780000686645508,31700
2019-01-08,25.829999923706055,28.0,25.3700008392334,27.049999237060547,27.049999237060547,35100
2019-01-09,27.149999618530273,27.889999389648438,26.05500030517578,26.170000076293945,26.170000076293945,40800
2019-01-10,26.020000457763672,27.75,24.0,26.690000534057617,26.690000534057617,39900
2019-01-11,26.170000076293945,27.15999984741211,25.520000457763672,26.110000610351562,26.110000610351562,30300
2019-01-14,26.360000610351562,27.149999618530273,24.68000030517578,25.06999969482422,25.06999969482422,19400
2019-01-15,25.100000381469727,25.75,24.350000381469727,25.270000457763672,25.270000457763672,47400
2019-01-16,24.979999542236328,25.43000030517578,23.489999771118164,24.0,24.0,41400
2019-01-17,23.920000076293945,24.775999069213867,23.020000457763672,23.020000457763672,23.020000457763672,35900
2019-01-18,23.0,24.079999923706055,23.0,23.270000457763672,23.270000457763672,29500
2019-01-22,23.1200008392334,23.5,22.0,22.1299991607666,22.1299991607666,36700
2019-01-23,22.600000381469727,23.610000610351562,22.0,22.559999465942383,22.559999465942383,24100
2019-01-24,22.579999923706055,24.15999984741211,21.229999542236328,23.290000915527344,23.290000915527344,121400
2019-01-25,23.329999923706055,23.799999237060547,22.84000015258789,23.170000076293945,23.170000076293945,24500
2019-01-28,23.049999237060547,24.253999710083008,22.5,22.5,22.5,46100
2019-01-29,22.469999313354492,22.670000076293945,20.59000015258789,22.110000610351562,22.110000610351562,24800
2019-01-30,22.1200008392334,22.989999771118164,21.040000915527344,22.854999542236328,22.854999542236328,35200
2019-01-31,23.010000228881836,23.485000610351562,22.65999984741211,23.1200008392334,23.1200008392334,40200
2019-02-01,23.25,24.350000381469727,23.25,23.489999771118164,23.489999771118164,57200
2019-02-04,23.520000457763672,24.040000915527344,23.459999084472656,23.459999084472656,23.459999084472656,31600
2019-02-05,23.6299991607666,24.472999572753906,23.170000076293945,23.290000915527344,23.290000915527344,16100
2019-02-06,23.299999237060547,23.6200008392334,23.059999465942383,23.5,23.5,24900
2019-02-07,23.329999923706055,24.3700008392334,22.190000534057617,22.700000762939453,22.700000762939453,20500
2019-02-08,22.729999542236328,24.440000534057617,21.33099937438965,23.1299991607666,23.1299991607666,36400
2019-02-11,23.110000610351562,23.510000228881836,22.15999984741211,22.270000457763672,22.270000457763672,19400
2019-02-12,22.43000030517578,22.958999633789062,22.100000381469727,22.15999984741211,22.15999984741211,55100
2019-02-13,22.219999313354492,23.209999084472656,21.079999923706055,22.399999618530273,22.399999618530273,54600
2019-02-14,22.309999465942383,22.450000762939453,21.506999969482422,22.270000457763672,22.270000457763672,65400
2019-02-15,22.309999465942383,23.450000762939453,21.899999618530273,22.989999771118164,22.989999771118164,36400
2019-02-19,22.950000762939453,23.0,22.360000610351562,22.799999237060547,22.799999237060547,26900
2019-02-20,22.790000915527344,23.0,22.440000534057617,22.6299991607666,22.6299991607666,26100
2019-02-21,22.989999771118164,22.989999771118164,22.219999313354492,22.329999923706055,22.329999923706055,23600
2019-02-22,22.40999984741211,23.11199951171875,21.899999618530273,22.56999969482422,22.56999969482422,61000
2019-02-25,22.75,23.1200008392334,21.96500015258789,22.649999618530273,22.649999618530273,85800
2019-02-26,22.65999984741211,23.6299991607666,22.239999771118164,22.854999542236328,22.854999542236328,69100
2019-02-27,22.93000030517578,23.649999618530273,22.729999542236328,23.299999237060547,23.299999237060547,64500
2019-02-28,23.270000457763672,23.700000762939453,22.09000015258789,22.360000610351562,22.360000610351562,43400
2019-03-01,22.98900032043457,22.98900032043457,21.700000762939453,22.75,22.75,42900
2019-03-04,22.829999923706055,23.094999313354492,21.799999237060547,22.0,22.0,75400
2019-03-05,21.899999618530273,22.700000762939453,21.899999618530273,22.600000381469727,22.600000381469727,57800
2019-03-06,22.780000686645508,24.0,21.899999618530273,23.75,23.75,103600
2019-03-07,23.979999542236328,24.200000762939453,23.010000228881836,23.290000915527344,23.290000915527344,71600
2019-03-08,23.280000686645508,23.3439998626709,21.600000381469727,22.170000076293945,22.170000076293945,71000
2019-03-11,22.270000457763672,22.788999557495117,19.989999771118164,20.709999084472656,20.709999084472656,185100
2019-03-12,20.709999084472656,22.0,18.864999771118164,21.049999237060547,21.049999237060547,123200
2019-03-13,21.399999618530273,21.399999618530273,19.600000381469727,19.860000610351562,19.860000610351562,121100
2019-03-14,19.780000686645508,20.059999465942383,18.5,19.860000610351562,19.860000610351562,142700
2019-03-15,19.8700008392334,21.84000015258789,19.8700008392334,21.100000381469727,21.100000381469727,115700
2019-03-18,20.969999313354492,21.764999389648438,20.30500030517578,21.290000915527344,21.290000915527344,64400
2019-03-19,21.600000381469727,22.200000762939453,20.579999923706055,22.190000534057617,22.190000534057617,67900
2019-03-20,22.18000030517578,22.5,21.6200008392334,22.149999618530273,22.149999618530273,55200
2019-03-21,22.079999923706055,24.100000381469727,21.809999465942383,24.0,24.0,138500
2019-03-22,24.010000228881836,25.149999618530273,23.48900032043457,25.020000457763672,25.020000457763672,114400
2019-03-25,25.020000457763672,27.65999984741211,24.893999099731445,27.34000015258789,27.34000015258789,180100
2019-03-26,27.989999771118164,29.1299991607666,26.260000228881836,27.309999465942383,27.309999465942383,172300
2019-03-27,27.5,29.0,25.649999618530273,28.540000915527344,28.540000915527344,104700
2019-03-28,28.549999237060547,29.950000762939453,28.40999984741211,29.90999984741211,29.90999984741211,94400
2019-03-29,30.049999237060547,33.119998931884766,26.899999618530273,32.900001525878906,32.900001525878906,277300
2019-04-01,33.0,33.880001068115234,30.709999084472656,33.0,33.0,128800
2019-04-02,33.0,33.709999084472656,31.420000076293945,31.690000534057617,31.690000534057617,143900
2019-04-03,31.68000030517578,33.599998474121094,31.3799991607666,33.29999923706055,33.29999923706055,64600
2019-04-04,33.310001373291016,35.2599983215332,33.02000045776367,34.72999954223633,34.72999954223633,117100
2019-04-05,35.0,36.88999938964844,33.84400177001953,34.45000076293945,34.45000076293945,153600
2019-04-08,34.439998626708984,34.9900016784668,32.70800018310547,33.11000061035156,33.11000061035156,62600
2019-04-09,33.099998474121094,33.48500061035156,31.049999237060547,31.510000228881836,31.510000228881836,65800
2019-04-10,31.290000915527344,32.61000061035156,31.200000762939453,31.969999313354492,31.969999313354492,31800
2019-04-11,32.279998779296875,32.53099822998047,31.579999923706055,32.22999954223633,32.22999954223633,23800
2019-04-12,32.47999954223633,32.47999954223633,31.5,31.969999313354492,31.969999313354492,89800
2019-04-15,31.90999984741211,31.90999984741211,30.1200008392334,30.65999984741211,30.65999984741211,106600
2019-04-16,30.700000762939453,31.600000381469727,30.079999923706055,30.760000228881836,30.760000228881836,155500
2019-04-17,30.950000762939453,31.0,29.40999984741211,30.5,30.5,75200
2019-04-18,30.399999618530273,31.469999313354492,29.795000076293945,31.34000015258789,31.34000015258789,66800
2019-04-22,31.260000228881836,32.42300033569336,30.459999084472656,32.31999969482422,32.31999969482422,110800
2019-04-23,32.29999923706055,34.20000076293945,32.25,33.75,33.75,117100
2019-04-24,33.83000183105469,34.619998931884766,32.900001525878906,33.060001373291016,33.060001373291016,44500
2019-04-25,33.0,33.58000183105469,32.584999084472656,32.790000915527344,32.790000915527344,62500
2019-04-26,33.84299850463867,33.84299850463867,32.650001525878906,33.0,33.0,164700
2019-04-29,33.369998931884766,33.369998931884766,31.6299991607666,32.810001373291016,32.810001373291016,116700
2019-04-30,32.970001220703125,33.0,31.90999984741211,32.75,32.75,104500
2019-05-01,32.75,33.3650016784668,32.150001525878906,32.380001068115234,32.380001068115234,57400
2019-05-02,32.334999084472656,32.5,31.360000610351562,31.75,31.75,56700
2019-05-03,31.739999771118164,32.9900016784668,31.31999969482422,31.3700008392334,31.3700008392334,82000
2019-05-06,31.049999237060547,31.969999313354492,30.889999389648438,31.56999969482422,31.56999969482422,127000
2019-05-07,31.690000534057617,32.900001525878906,30.799999237060547,32.18000030517578,32.18000030517578,89900
2019-05-08,32.040000915527344,32.77000045776367,31.65999984741211,32.220001220703125,32.220001220703125,162900
2019-05-09,31.860000610351562,33.599998474121094,31.290000915527344,33.099998474121094,33.099998474121094,90400
2019-05-10,32.68000030517578,36.0,32.5,35.939998626708984,35.939998626708984,102800
2019-05-13,35.68000030517578,36.470001220703125,35.13100051879883,35.720001220703125,35.720001220703125,69200
2019-05-14,35.779998779296875,38.95000076293945,35.779998779296875,36.2599983215332,36.2599983215332,215700
2019-05-15,35.9900016784668,37.0,34.220001220703125,35.0,35.0,68800
2019-05-16,35.0099983215332,35.20000076293945,33.56999969482422,33.709999084472656,33.709999084472656,61900
2019-05-17,33.61000061035156,34.2599983215332,32.790000915527344,33.34000015258789,33.34000015258789,53000
2019-05-20,33.18000030517578,33.20000076293945,32.0099983215332,32.18000030517578,32.18000030517578,50400
2019-05-21,32.31999969482422,32.61399841308594,31.510000228881836,32.470001220703125,32.470001220703125,50900
2019-05-22,32.20000076293945,33.0,31.559999465942383,32.29999923706055,32.29999923706055,88000
2019-05-23,32.060001373291016,32.380001068115234,30.299999237060547,32.0,32.0,44100
2019-05-24,32.150001525878906,35.189998626708984,31.34000015258789,32.439998626708984,32.439998626708984,130200
2019-05-28,32.52000045776367,32.779998779296875,31.639999389648438,32.22999954223633,32.22999954223633,144400
2019-05-29,31.729999542236328,33.119998931884766,30.674999237060547,31.56999969482422,31.56999969482422,72800
2019-05-30,32.68000030517578,32.849998474121094,31.125,32.0,32.0,72700
2019-05-31,31.719999313354492,31.920000076293945,30.479999542236328,31.420000076293945,31.420000076293945,56000
2019-06-03,31.440000534057617,32.36000061035156,30.56999969482422,31.760000228881836,31.760000228881836,50300
2019-06-04,31.65999984741211,31.68000030517578,30.690000534057617,31.170000076293945,31.170000076293945,81200
2019-06-05,31.360000610351562,32.125,30.3799991607666,31.729999542236328,31.729999542236328,132300
2019-06-06,31.5,32.150001525878906,30.90999984741211,31.440000534057617,31.440000534057617,145300
2019-06-07,31.280000686645508,31.829999923706055,30.670000076293945,31.520000457763672,31.520000457763672,136400
2019-06-10,31.84000015258789,32.369998931884766,31.059999465942383,32.0,32.0,84600
2019-06-11,32.59000015258789,32.880001068115234,30.395000457763672,31.68000030517578,31.68000030517578,125600
2019-06-12,31.336000442504883,33.279998779296875,31.26799964904785,32.08000183105469,32.08000183105469,181200
2019-06-13,32.47999954223633,32.47999954223633,30.559999465942383,30.6299991607666,30.6299991607666,59700
2019-06-14,31.64699935913086,31.64699935913086,22.020000457763672,27.200000762939453,27.200000762939453,361900
2019-06-17,26.709999084472656,28.75,26.5,28.700000762939453,28.700000762939453,144600
2019-06-18,28.600000381469727,28.88599967956543,28.040000915527344,28.489999771118164,28.489999771118164,73900
2019-06-19,28.440000534057617,28.959999084472656,27.739999771118164,28.8700008392334,28.8700008392334,52800
2019-06-20,29.219999313354492,29.280000686645508,28.290000915527344,28.920000076293945,28.920000076293945,88200
2019-06-21,29.0,29.584999084472656,28.440000534057617,29.149999618530273,29.149999618530273,53200
2019-06-24,37.83000183105469,43.5,35.5,41.20000076293945,41.20000076293945,1438000
2019-06-25,44.400001525878906,46.900001525878906,40.0,40.310001373291016,40.310001373291016,1917200
2019-06-26,40.099998474121094,42.0,38.18000030517578,39.400001525878906,39.400001525878906,611000
2019-06-27,39.15999984741211,40.0,37.290000915527344,38.0099983215332,38.0099983215332,527000
2019-06-28,38.31999969482422,41.25,38.099998474121094,40.27000045776367,40.27000045776367,1283200
2019-07-01,40.72999954223633,44.95000076293945,40.14500045776367,44.40999984741211,44.40999984741211,416300
2019-07-02,44.279998779296875,45.709999084472656,43.06999969482422,44.150001525878906,44.150001525878906,235900
2019-07-03,43.81999969482422,45.59000015258789,42.0,45.18000030517578,45.18000030517578,150300
2019-07-05,45.029998779296875,48.310001373291016,43.599998474121094,44.70000076293945,44.70000076293945,406900
2019-07-08,44.439998626708984,45.150001525878906,41.81999969482422,42.279998779296875,42.279998779296875,171500
2019-07-09,42.08000183105469,43.290000915527344,40.810001373291016,42.65999984741211,42.65999984741211,152500
2019-07-10,42.220001220703125,45.47999954223633,41.900001525878906,44.31999969482422,44.31999969482422,168700
2019-07-11,44.349998474121094,46.13999938964844,43.58000183105469,45.22999954223633,45.22999954223633,187200
2019-07-12,45.0,47.07699966430664,44.16999816894531,47.0,47.0,147400
2019-07-15,47.0,47.93199920654297,46.262001037597656,47.650001525878906,47.650001525878906,219000
2019-07-16,47.63999938964844,48.83000183105469,46.27000045776367,47.66999816894531,47.66999816894531,202700
2019-07-17,47.97999954223633,48.84000015258789,47.51499938964844,48.61000061035156,48.61000061035156,118300
2019-07-18,48.540000915527344,49.86000061035156,45.040000915527344,48.349998474121094,48.349998474121094,196800
2019-07-19,48.31999969482422,50.400001525878906,47.77000045776367,49.40999984741211,49.40999984741211,210300
2019-07-22,49.54999923706055,51.400001525878906,48.650001525878906,51.29999923706055,51.29999923706055,147800
2019-07-23,51.459999084472656,51.66999816894531,48.279998779296875,48.880001068115234,48.880001068115234,284200
2019-07-24,48.75,49.31999969482422,46.720001220703125,48.2400016784668,48.2400016784668,272500
2019-07-25,48.16999816894531,49.060001373291016,47.23400115966797,48.20000076293945,48.20000076293945,223300
2019-07-26,48.279998779296875,49.38999938964844,46.0,46.470001220703125,46.470001220703125,144100
2019-07-29,46.45000076293945,50.22999954223633,46.209999084472656,49.84000015258789,49.84000015258789,189400
2019-07-30,49.849998474121094,50.290000915527344,46.709999084472656,47.59000015258789,47.59000015258789,133100
2019-07-31,47.952999114990234,48.88999938964844,47.13999938964844,48.0099983215332,48.0099983215332,116600
2019-08-01,48.0099983215332,49.672000885009766,47.15999984741211,47.790000915527344,47.790000915527344,111700
2019-08-02,47.7400016784668,47.9900016784668,45.45000076293945,45.810001373291016,45.810001373291016,125900
2019-08-05,43.790000915527344,44.9900016784668,41.310001373291016,42.7599983215332,42.7599983215332,149000
2019-08-06,44.34000015258789,44.75,42.27000045776367,44.0,44.0,132800
2019-08-07,43.0,44.29999923706055,42.0,42.47999954223633,42.47999954223633,204800
2019-08-08,42.619998931884766,44.79999923706055,41.5,43.56999969482422,43.56999969482422,114900
2019-08-09,43.369998931884766,45.0,42.0,44.29999923706055,44.29999923706055,161700
2019-08-12,44.470001220703125,44.96500015258789,42.93000030517578,43.599998474121094,43.599998474121094,66800
2019-08-13,43.470001220703125,44.25299835205078,42.0,42.4900016784668,42.4900016784668,142700
2019-08-14,41.959999084472656,42.459999084472656,40.83000183105469,41.79999923706055,41.79999923706055,115600
2019-08-15,41.959999084472656,42.60300064086914,40.189998626708984,41.18000030517578,41.18000030517578,106000
2019-08-16,41.470001220703125,43.02000045776367,40.220001220703125,42.65999984741211,42.65999984741211,103100
2019-08-19,43.7599983215332,45.970001220703125,42.80500030517578,44.65999984741211,44.65999984741211,90900
2019-08-20,44.66999816894531,45.86000061035156,43.83000183105469,44.0099983215332,44.0099983215332,86500
2019-08-21,44.470001220703125,44.98099899291992,42.83000183105469,43.279998779296875,43.279998779296875,107200
2019-08-22,43.10900115966797,43.54499816894531,41.029998779296875,41.119998931884766,41.119998931884766,58600
2019-08-23,41.0,43.154998779296875,39.369998931884766,40.529998779296875,40.529998779296875,76100
2019-08-26,41.0099983215332,42.630001068115234,40.459999084472656,41.84000015258789,41.84000015258789,104000
2019-08-27,42.380001068115234,43.95000076293945,41.529998779296875,43.689998626708984,43.689998626708984,105900
2019-08-28,44.15999984741211,46.63999938964844,43.59000015258789,46.209999084472656,46.209999084472656,124400
2019-08-29,46.31999969482422,48.040000915527344,45.93000030517578,46.58000183105469,46.58000183105469,137700
2019-08-30,46.97999954223633,46.97999954223633,43.04999923706055,45.0,45.0,169800
2019-09-03,44.83000183105469,46.5,41.02000045776367,41.47999954223633,41.47999954223633,127800
2019-09-04,41.540000915527344,43.22999954223633,41.13999938964844,42.97999954223633,42.97999954223633,237200
2019-09-05,43.41999816894531,46.0,42.630001068115234,45.27000045776367,45.27000045776367,184300
2019-09-06,45.41999816894531,46.439998626708984,42.529998779296875,42.720001220703125,42.720001220703125,169300
2019-09-09,42.880001068115234,43.790000915527344,40.75,41.31999969482422,41.31999969482422,169700
2019-09-10,41.060001373291016,46.41999816894531,40.18000030517578,45.959999084472656,45.959999084472656,233900
2019-09-11,45.81999969482422,47.939998626708984,44.487998962402344,47.77000045776367,47.77000045776367,191300
2019-09-12,47.779998779296875,48.154998779296875,43.91999816894531,44.45000076293945,44.45000076293945,182300
2019-09-13,44.61000061035156,46.4900016784668,43.972999572753906,45.02000045776367,45.02000045776367,147000
2019-09-16,44.790000915527344,45.63999938964844,43.29999923706055,44.150001525878906,44.150001525878906,130600
2019-09-17,44.119998931884766,45.36000061035156,43.47999954223633,44.97999954223633,44.97999954223633,120300
2019-09-18,44.900001525878906,47.189998626708984,44.25,46.959999084472656,46.959999084472656,146300
2019-09-19,47.36000061035156,48.93000030517578,47.099998474121094,48.5099983215332,48.5099983215332,103900
2019-09-20,48.470001220703125,49.41999816894531,47.02000045776367,48.97999954223633,48.97999954223633,881600
2019-09-23,49.06999969482422,49.56999969482422,46.380001068115234,46.7599983215332,46.7599983215332,144400
2019-09-24,46.900001525878906,47.32600021362305,41.2599983215332,41.599998474121094,41.599998474121094,278700
2019-09-25,41.56999969482422,42.790000915527344,39.04199981689453,41.4900016784668,41.4900016784668,188600
2019-09-26,42.77000045776367,43.59000015258789,39.8849983215332,40.97999954223633,40.97999954223633,226300
2019-09-27,41.16999816894531,41.31999969482422,35.189998626708984,35.400001525878906,35.400001525878906,296100
2019-09-30,35.599998474121094,35.821998596191406,33.619998931884766,34.724998474121094,34.724998474121094,246900
2019-10-01,34.380001068115234,35.900001525878906,32.25,33.16999816894531,33.16999816894531,206500
2019-10-02,32.849998474121094,35.2400016784668,31.889999389648438,34.849998474121094,34.849998474121094,135500
2019-10-03,34.540000915527344,37.16999816894531,34.2400016784668,36.63999938964844,36.63999938964844,159300
2019-10-04,36.72999954223633,38.2400016784668,36.361000061035156,37.560001373291016,37.560001373291016,148700
2019-10-07,37.9900016784668,39.9900016784668,37.84000015258789,38.41999816894531,38.41999816894531,154100
2019-10-08,38.09000015258789,38.09000015258789,36.709999084472656,37.27000045776367,37.27000045776367,134700
2019-10-09,37.689998626708984,38.27000045776367,35.630001068115234,35.97999954223633,35.97999954223633,137600
2019-10-10,35.869998931884766,36.400001525878906,34.66999816894531,36.189998626708984,36.189998626708984,129300
2019-10-11,36.869998931884766,38.31999969482422,36.65999984741211,37.40999984741211,37.40999984741211,139200
2019-10-14,37.34000015258789,37.68000030517578,35.310001373291016,35.91999816894531,35.91999816894531,72700
2019-10-15,36.029998779296875,38.709999084472656,35.75,38.650001525878906,38.650001525878906,131800
2019-10-16,38.75,40.5989990234375,38.18000030517578,39.93000030517578,39.93000030517578,153700
2019-10-17,40.150001525878906,41.2400016784668,37.31999969482422,37.75,37.75,154400
2019-10-18,37.5,38.220001220703125,35.119998931884766,36.06999969482422,36.06999969482422,108000
2019-10-21,36.27000045776367,37.584999084472656,36.099998474121094,36.83000183105469,36.83000183105469,63700
2019-10-22,36.91999816894531,37.986000061035156,35.779998779296875,36.90999984741211,36.90999984741211,182400
2019-10-23,36.90999984741211,40.41999816894531,36.369998931884766,39.150001525878906,39.150001525878906,170700
2019-10-24,39.5,39.5,37.0,38.22999954223633,38.22999954223633,203500
2019-10-25,38.20000076293945,38.939998626708984,37.41999816894531,38.13999938964844,38.13999938964844,130200
2019-10-28,38.75,41.39500045776367,38.06999969482422,41.2400016784668,41.2400016784668,76100
2019-10-29,41.5,44.400001525878906,40.40999984741211,40.880001068115234,40.880001068115234,167300
2019-10-30,41.08000183105469,41.61000061035156,39.25,39.439998626708984,39.439998626708984,105700
2019-10-31,39.689998626708984,41.38999938964844,38.77299880981445,41.06999969482422,41.06999969482422,129100
2019-11-01,41.40999984741211,42.51499938964844,39.689998626708984,42.34000015258789,42.34000015258789,131100
2019-11-04,42.22999954223633,44.183998107910156,39.5,43.68000030517578,43.68000030517578,198800
2019-11-05,44.27000045776367,44.27000045776367,41.18000030517578,43.029998779296875,43.029998779296875,135500
2019-11-06,42.849998474121094,44.82500076293945,42.52000045776367,43.25,43.25,108100
2019-11-07,44.06999969482422,44.5,41.540000915527344,41.88999938964844,41.88999938964844,96300
2019-11-08,41.869998931884766,43.20000076293945,41.65999984741211,42.560001373291016,42.560001373291016,112500
2019-11-11,42.189998626708984,46.970001220703125,41.959999084472656,46.40999984741211,46.40999984741211,189000
2019-11-12,46.56999969482422,48.694000244140625,46.38999938964844,46.93000030517578,46.93000030517578,148900
2019-11-13,46.599998474121094,52.52000045776367,45.900001525878906,51.34000015258789,51.34000015258789,326500
2019-11-14,50.81999969482422,53.13999938964844,50.20000076293945,51.06999969482422,51.06999969482422,124200
2019-11-15,51.11000061035156,51.63999938964844,49.15999984741211,51.560001373291016,51.560001373291016,137500
2019-11-18,51.880001068115234,54.66899871826172,50.82400131225586,53.0099983215332,53.0099983215332,159200
2019-11-19,53.15999984741211,54.86000061035156,52.5099983215332,53.91999816894531,53.91999816894531,143300
2019-11-20,53.630001068115234,56.34000015258789,50.66999816894531,51.93000030517578,51.93000030517578,233300
2019-11-21,51.959999084472656,52.849998474121094,50.720001220703125,51.209999084472656,51.209999084472656,134600
2019-11-22,51.47999954223633,55.349998474121094,51.31100082397461,54.43000030517578,54.43000030517578,178500
2019-11-25,55.5099983215332,58.349998474121094,55.099998474121094,56.959999084472656,56.959999084472656,228400
2019-11-26,57.0099983215332,58.970001220703125,53.86000061035156,54.77000045776367,54.77000045776367,192900
2019-11-27,55.0099983215332,58.90999984741211,54.069000244140625,57.9900016784668,57.9900016784668,148700
2019-11-29,59.290000915527344,59.45000076293945,55.959999084472656,56.5099983215332,56.5099983215332,92300
2019-12-02,56.70000076293945,63.5099983215332,56.70000076293945,61.540000915527344,61.540000915527344,275600
2019-12-03,61.189998626708984,62.61000061035156,57.650001525878906,59.599998474121094,59.599998474121094,163400
2019-12-04,60.36000061035156,65.9000015258789,59.08000183105469,60.75,60.75,278800
2019-12-05,61.08000183105469,62.83000183105469,59.099998474121094,59.91999816894531,59.91999816894531,110600
2019-12-06,60.279998779296875,62.86000061035156,58.91999816894531,62.63999938964844,62.63999938964844,81600
2019-12-09,64.55000305175781,66.5,61.42499923706055,62.68000030517578,62.68000030517578,215400
2019-12-10,62.52000045776367,64.69200134277344,61.941001892089844,63.09000015258789,63.09000015258789,203300
2019-12-11,63.29999923706055,64.77999877929688,61.18000030517578,61.95000076293945,61.95000076293945,124500
2019-12-12,62.09000015258789,64.37000274658203,61.111000061035156,64.2300033569336,64.2300033569336,135800
2019-12-13,64.05999755859375,65.45999908447266,62.07500076293945,65.2300033569336,65.2300033569336,114600
2019-12-16,65.79000091552734,65.9800033569336,62.400001525878906,63.119998931884766,63.119998931884766,142500
2019-12-17,63.150001525878906,63.59000015258789,59.02000045776367,60.720001220703125,60.720001220703125,170700
2019-12-18,60.689998626708984,63.869998931884766,58.87900161743164,62.849998474121094,62.849998474121094,161500
2019-12-19,62.45000076293945,63.74599838256836,55.349998474121094,56.08000183105469,56.08000183105469,250200
2019-12-20,55.900001525878906,59.09000015258789,54.5,57.27000045776367,57.27000045776367,210300
2019-12-23,57.31999969482422,59.20100021362305,56.209999084472656,58.54999923706055,58.54999923706055,92300
2019-12-24,58.560001373291016,63.439998626708984,57.38999938964844,61.63999938964844,61.63999938964844,80900
2019-12-26,62.36000061035156,62.75,60.630001068115234,62.209999084472656,62.209999084472656,70500
2019-12-27,62.459999084472656,62.459999084472656,58.7599983215332,60.150001525878906,60.150001525878906,197200
2019-12-30,60.2599983215332,60.63999938964844,55.91999816894531,57.630001068115234,57.630001068115234,204900
2019-12-31,57.38999938964844,57.869998931884766,54.6349983215332,55.380001068115234,55.380001068115234,253200
2020-01-02,55.63999938964844,57.2400016784668,52.51900100708008,56.9900016784668,56.9900016784668,244700
2020-01-03,56.45000076293945,60.36000061035156,55.09000015258789,59.650001525878906,59.650001525878906,151800
2020-01-06,58.810001373291016,59.630001068115234,57.130001068115234,58.18000030517578,58.18000030517578,130300
2020-01-07,58.20000076293945,58.63999938964844,52.56999969482422,54.880001068115234,54.880001068115234,223700
2020-01-08,54.790000915527344,54.790000915527344,50.13999938964844,51.630001068115234,51.630001068115234,196400
2020-01-09,51.869998931884766,53.349998474121094,51.119998931884766,51.630001068115234,51.630001068115234,89900
2020-01-10,51.70000076293945,54.0,49.77000045776367,50.16999816894531,50.16999816894531,153600
2020-01-13,50.209999084472656,50.400001525878906,45.61000061035156,47.22999954223633,47.22999954223633,243300
2020-01-14,47.220001220703125,48.86000061035156,45.220001220703125,47.060001373291016,47.060001373291016,261100
2020-01-15,47.0,49.2400016784668,47.0,48.84000015258789,48.84000015258789,122900
2020-01-16,49.20000076293945,52.52000045776367,48.70899963378906,52.2599983215332,52.2599983215332,119400
2020-01-17,52.599998474121094,53.43000030517578,50.77000045776367,51.83000183105469,51.83000183105469,162800
2020-01-21,51.7400016784668,55.22999954223633,50.54999923706055,54.40999984741211,54.40999984741211,146700
2020-01-22,54.68000030517578,58.08000183105469,54.16699981689453,56.84000015258789,56.84000015258789,335300
2020-01-23,56.54999923706055,57.3489990234375,55.0,56.029998779296875,56.029998779296875,562700
2020-01-24,56.27000045776367,56.82500076293945,54.75,56.02000045776367,56.02000045776367,134100
2020-01-27,54.68000030517578,58.95000076293945,54.13800048828125,57.7599983215332,57.7599983215332,109900
2020-01-28,58.16999816894531,59.439998626708984,57.13999938964844,58.150001525878906,58.150001525878906,119000
2020-01-29,58.720001220703125,59.45399856567383,55.04499816894531,55.560001373291016,55.560001373291016,122000
2020-01-30,54.88999938964844,57.45000076293945,52.415000915527344,52.810001373291016,52.810001373291016,101000
2020-01-31,52.47999954223633,53.97999954223633,51.52000045776367,52.2599983215332,52.2599983215332,106400
2020-02-03,52.56999969482422,54.84000015258789,52.04999923706055,54.63999938964844,54.63999938964844,107200
2020-02-04,55.43000030517578,58.79999923706055,55.43000030517578,58.5,58.5,116100
2020-02-05,59.2400016784668,61.803001403808594,56.540000915527344,58.91999816894531,58.91999816894531,81000
2020-02-06,59.11000061035156,59.472999572753906,57.59000015258789,58.900001525878906,58.900001525878906,108600
2020-02-07,58.15999984741211,59.529998779296875,57.310001373291016,58.59000015258789,58.59000015258789,43300
2020-02-10,58.41999816894531,60.09000015258789,58.29999923706055,59.5099983215332,59.5099983215332,152700
2020-02-11,60.029998779296875,64.19999694824219,60.029998779296875,63.43000030517578,63.43000030517578,190400
2020-02-12,64.22000122070312,65.84500122070312,62.970001220703125,65.63999938964844,65.63999938964844,101400
2020-02-13,65.2300033569336,66.8499984741211,64.44999694824219,64.51000213623047,64.51000213623047,106400
2020-02-14,64.63999938964844,65.4800033569336,62.58000183105469,64.3499984741211,64.3499984741211,144300
2020-02-18,64.04000091552734,64.30999755859375,61.86000061035156,62.209999084472656,62.209999084472656,73300
2020-02-19,62.34000015258789,63.54999923706055,62.0099983215332,62.70000076293945,62.70000076293945,103000
2020-02-20,62.45000076293945,63.5099983215332,59.459999084472656,60.650001525878906,60.650001525878906,84500
2020-02-21,60.439998626708984,61.5,58.5,59.279998779296875,59.279998779296875,84300
2020-02-24,56.90999984741211,58.779998779296875,55.540000915527344,58.029998779296875,58.029998779296875,80200
2020-02-25,57.54999923706055,58.040000915527344,52.31999969482422,53.400001525878906,53.400001525878906,147300
2020-02-26,53.54999923706055,56.11000061035156,53.33000183105469,55.0,55.0,65000
2020-02-27,53.849998474121094,53.95500183105469,50.02000045776367,52.5,52.5,202000
2020-02-28,50.349998474121094,53.45000076293945,48.88999938964844,53.45000076293945,53.45000076293945,140500
2020-03-02,53.81999969482422,58.4900016784668,52.84000015258789,58.349998474121094,58.349998474121094,130100
2020-03-03,58.45000076293945,58.869998931884766,55.0,55.90999984741211,55.90999984741211,117500
2020-03-04,57.59000015258789,57.72999954223633,56.04999923706055,57.150001525878906,57.150001525878906,163000
2020-03-05,55.81999969482422,60.86000061035156,55.40999984741211,59.5,59.5,233000
2020-03-06,58.2400016784668,59.43000030517578,52.79999923706055,53.4900016784668,53.4900016784668,181300
2020-03-09,48.88999938964844,56.84299850463867,46.59000015258789,50.2599983215332,50.2599983215332,151600
2020-03-10,52.90999984741211,54.0,49.0,53.9900016784668,53.9900016784668,115400
2020-03-11,53.45000076293945,53.45000076293945,47.80400085449219,49.91999816894531,49.91999816894531,161600
2020-03-12,46.54999923706055,46.54999923706055,37.33000183105469,38.5,38.5,241600
2020-03-13,41.79999923706055,44.95000076293945,36.90999984741211,44.209999084472656,44.209999084472656,504900
2020-03-16,38.84000015258789,40.9900016784668,38.0,38.27000045776367,38.27000045776367,234600
2020-03-17,38.83000183105469,42.2140007019043,37.16699981689453,41.060001373291016,41.060001373291016,185400
2020-03-18,38.25,41.0,33.084999084472656,35.02000045776367,35.02000045776367,138400
2020-03-19,35.13999938964844,39.880001068115234,34.04999923706055,39.25,39.25,239700
2020-03-20,39.709999084472656,43.19499969482422,38.31999969482422,38.83000183105469,38.83000183105469,147600
2020-03-23,39.599998474121094,39.875,34.61000061035156,36.02000045776367,36.02000045776367,118800
2020-03-24,38.15999984741211,40.189998626708984,37.4900016784668,38.880001068115234,38.880001068115234,134700
2020-03-25,38.90999984741211,39.689998626708984,37.25,37.70000076293945,37.70000076293945,115400
2020-03-26,37.90999984741211,41.3849983215332,37.75,40.5,40.5,155200
2020-03-27,39.04999923706055,40.439998626708984,38.0099983215332,38.5,38.5,89900
2020-03-30,38.84000015258789,40.189998626708984,38.08000183105469,39.900001525878906,39.900001525878906,124900
2020-03-31,39.91999816894531,43.560001373291016,38.810001373291016,43.2400016784668,43.2400016784668,378100
2020-04-01,41.7599983215332,41.7599983215332,37.797000885009766,38.529998779296875,38.529998779296875,204300
2020-04-02,38.41999816894531,40.56999969482422,37.834999084472656,39.58000183105469,39.58000183105469,211900
2020-04-03,39.470001220703125,40.30500030517578,35.33000183105469,37.029998779296875,37.029998779296875,70300
2020-04-06,38.63999938964844,39.279998779296875,37.994998931884766,39.02000045776367,39.02000045776367,115400
2020-04-07,40.33000183105469,41.540000915527344,39.0099983215332,40.43000030517578,40.43000030517578,170900
2020-04-08,41.22999954223633,44.0,39.39400100708008,42.02000045776367,42.02000045776367,165800
2020-04-09,43.16999816894531,45.9900016784668,41.426998138427734,44.220001220703125,44.220001220703125,213000
2020-04-13,44.08000183105469,44.08000183105469,40.099998474121094,43.099998474121094,43.099998474121094,68100
2020-04-14,43.43000030517578,46.25,43.43000030517578,46.2400016784668,46.2400016784668,200100
2020-04-15,44.52000045776367,45.88999938964844,41.900001525878906,45.150001525878906,45.150001525878906,202500
2020-04-16,44.9900016784668,46.41400146484375,42.02000045776367,44.81999969482422,44.81999969482422,110800
2020-04-17,45.869998931884766,46.560001373291016,44.150001525878906,45.709999084472656,45.709999084472656,246000
2020-04-20,44.7599983215332,46.334999084472656,44.04999923706055,45.279998779296875,45.279998779296875,188200
2020-04-21,44.349998474121094,48.290000915527344,42.69499969482422,47.130001068115234,47.130001068115234,276500
2020-04-22,48.59000015258789,51.040000915527344,46.5,49.70000076293945,49.70000076293945,222400
2020-04-23,49.599998474121094,51.869998931884766,47.869998931884766,49.59000015258789,49.59000015258789,91500
2020-04-24,49.7400016784668,50.39799880981445,47.939998626708984,48.869998931884766,48.869998931884766,144500
2020-04-27,49.470001220703125,51.790000915527344,49.41999816894531,50.20000076293945,50.20000076293945,76600
2020-04-28,51.349998474121094,51.349998474121094,48.55500030517578,49.709999084472656,49.709999084472656,96600
2020-04-29,51.369998931884766,51.59000015258789,49.29999923706055,49.86000061035156,49.86000061035156,96000
2020-04-30,49.22999954223633,50.599998474121094,46.90999984741211,47.189998626708984,47.189998626708984,162800
2020-05-01,46.900001525878906,48.04999923706055,43.58599853515625,46.310001373291016,46.310001373291016,122600
2020-05-04,45.369998931884766,50.0,43.9379997253418,49.79999923706055,49.79999923706055,150100
2020-05-05,50.7599983215332,54.380001068115234,50.09000015258789,52.63999938964844,52.63999938964844,194900
2020-05-06,52.650001525878906,56.29999923706055,50.369998931884766,54.40999984741211,54.40999984741211,216100
2020-05-07,55.04999923706055,57.0,53.0099983215332,56.040000915527344,56.040000915527344,83200
2020-05-08,56.59000015258789,59.369998931884766,56.59000015258789,58.02000045776367,58.02000045776367,114500
2020-05-11,57.40999984741211,60.970001220703125,55.244998931884766,60.0,60.0,188400
2020-05-12,60.0,61.86000061035156,58.5099983215332,59.040000915527344,59.040000915527344,174000
2020-05-13,58.900001525878906,59.76599884033203,54.95000076293945,56.630001068115234,56.630001068115234,134800
2020-05-14,56.40999984741211,59.939998626708984,52.54999923706055,59.11000061035156,59.11000061035156,175900
2020-05-15,58.439998626708984,59.68000030517578,57.2400016784668,59.20000076293945,59.20000076293945,133100
2020-05-18,60.0,60.790000915527344,55.349998474121094,56.54999923706055,56.54999923706055,151400
2020-05-19,55.29999923706055,55.70000076293945,52.58000183105469,53.189998626708984,53.189998626708984,1344500
2020-05-20,54.349998474121094,55.650001525878906,53.22999954223633,55.0,55.0,437300
2020-05-21,55.099998474121094,55.46799850463867,52.91999816894531,54.0,54.0,198500
2020-05-22,54.209999084472656,55.119998931884766,52.09000015258789,53.0,53.0,218500
2020-05-26,54.65999984741211,54.65999984741211,51.150001525878906,51.66999816894531,51.66999816894531,194000
2020-05-27,52.27000045776367,53.18000030517578,48.7599983215332,48.9900016784668,48.9900016784668,273200
2020-05-28,49.31999969482422,51.66999816894531,47.779998779296875,50.369998931884766,50.369998931884766,242500
2020-05-29,50.369998931884766,51.88999938964844,47.2599983215332,51.40999984741211,51.40999984741211,223600
2020-06-01,51.34000015258789,51.5,49.279998779296875,49.38999938964844,49.38999938964844,123900
2020-06-02,49.68000030517578,50.744998931884766,47.4900016784668,48.630001068115234,48.630001068115234,106600
2020-06-03,48.77000045776367,50.30500030517578,47.54999923706055,48.04999923706055,48.04999923706055,113500
2020-06-04,49.790000915527344,50.27000045776367,48.0099983215332,48.5,48.5,167200
2020-06-05,49.560001373291016,50.2400016784668,46.630001068115234,47.31999969482422,47.31999969482422,177500
2020-06-08,47.86000061035156,48.27000045776367,46.400001525878906,46.959999084472656,46.959999084472656,103200
2020-06-09,46.040000915527344,46.720001220703125,44.65999984741211,45.470001220703125,45.470001220703125,143400
2020-06-10,45.650001525878906,48.290000915527344,45.650001525878906,47.779998779296875,47.779998779296875,118400
2020-06-11,47.0099983215332,47.0099983215332,43.21500015258789,43.369998931884766,43.369998931884766,150300
2020-06-12,45.02000045776367,47.709999084472656,43.18000030517578,44.970001220703125,44.970001220703125,124800
2020-06-15,43.650001525878906,45.810001373291016,40.5,45.470001220703125,45.470001220703125,340600
2020-06-16,46.52000045776367,51.34000015258789,45.79999923706055,50.4900016784668,50.4900016784668,236800
2020-06-17,50.7599983215332,51.2599983215332,45.470001220703125,45.70000076293945,45.70000076293945,167300
2020-06-18,45.2400016784668,46.68000030517578,45.0099983215332,45.310001373291016,45.310001373291016,69300
2020-06-19,45.77000045776367,47.0,43.939998626708984,44.220001220703125,44.220001220703125,495500
2020-06-22,44.45000076293945,44.97999954223633,43.55400085449219,44.68000030517578,44.68000030517578,185600
2020-06-23,45.209999084472656,45.66999816894531,44.630001068115234,45.08000183105469,45.08000183105469,295900
2020-06-24,44.70000076293945,45.619998931884766,42.33000183105469,42.880001068115234,42.880001068115234,106500
2020-06-25,43.029998779296875,44.099998474121094,42.2599983215332,42.560001373291016,42.560001373291016,123300
2020-06-26,42.84000015258789,43.209999084472656,41.77000045776367,42.599998474121094,42.599998474121094,649200
2020-06-29,42.790000915527344,44.220001220703125,40.9900016784668,41.29999923706055,41.29999923706055,233600
2020-06-30,41.040000915527344,41.599998474121094,40.505001068115234,41.41999816894531,41.41999816894531,135500
2020-07-01,41.41999816894531,45.97999954223633,41.150001525878906,45.47999954223633,45.47999954223633,212400
2020-07-02,45.810001373291016,46.72999954223633,44.38999938964844,44.75,44.75,113300
2020-07-06,45.41999816894531,45.5099983215332,42.63999938964844,43.0,43.0,157700
2020-07-07,43.0,43.439998626708984,41.31999969482422,41.63999938964844,41.63999938964844,174900
2020-07-08,41.849998474121094,43.54999923706055,41.849998474121094,43.11000061035156,43.11000061035156,85200
2020-07-09,43.31999969482422,43.31999969482422,42.21500015258789,42.43000030517578,42.43000030517578,116300
2020-07-10,42.13999938964844,42.630001068115234,40.349998474121094,40.939998626708984,40.939998626708984,162300
2020-07-13,41.2400016784668,41.86399841308594,37.68000030517578,37.7599983215332,37.7599983215332,169000
2020-07-14,37.75,40.279998779296875,37.75,40.11000061035156,40.11000061035156,134700
2020-07-15,40.77000045776367,43.279998779296875,40.119998931884766,42.13999938964844,42.13999938964844,131300
2020-07-16,41.93000030517578,41.939998626708984,40.0,40.95000076293945,40.95000076293945,66500
2020-07-17,40.79999923706055,42.02000045776367,40.4900016784668,41.22999954223633,41.22999954223633,111200
2020-07-20,41.040000915527344,43.0,40.599998474121094,42.83000183105469,42.83000183105469,107400
2020-07-21,43.11000061035156,43.11000061035156,40.529998779296875,40.68000030517578,40.68000030517578,115800
2020-07-22,40.529998779296875,42.310001373291016,40.36000061035156,41.77000045776367,41.77000045776367,96700
2020-07-23,41.619998931884766,42.27000045776367,40.85599899291992,41.220001220703125,41.220001220703125,73000
2020-07-24,40.939998626708984,42.619998931884766,40.36000061035156,41.97999954223633,41.97999954223633,85600
2020-07-27,42.220001220703125,44.75,41.380001068115234,44.290000915527344,44.290000915527344,112400
2020-07-28,44.04999923706055,44.41999816894531,42.279998779296875,42.81999969482422,42.81999969482422,73400
2020-07-29,42.709999084472656,42.709999084472656,40.91999816894531,41.380001068115234,41.380001068115234,111500
2020-07-30,40.869998931884766,42.7599983215332,40.869998931884766,42.709999084472656,42.709999084472656,80100
2020-07-31,42.709999084472656,43.0,39.810001373291016,41.290000915527344,41.290000915527344,128900
2020-08-03,41.77000045776367,42.38999938964844,40.66999816894531,40.88999938964844,40.88999938964844,412400
2020-08-04,40.88999938964844,42.560001373291016,39.540000915527344,41.959999084472656,41.959999084472656,170800
2020-08-05,42.41999816894531,42.650001525878906,39.90999984741211,40.47999954223633,40.47999954223633,194700
2020-08-06,40.47999954223633,40.90999984741211,39.393001556396484,39.91999816894531,39.91999816894531,82100
2020-08-07,40.0,40.88999938964844,39.5,39.90999984741211,39.90999984741211,80800
2020-08-10,40.11000061035156,42.52000045776367,39.6349983215332,41.18000030517578,41.18000030517578,165500
2020-08-11,41.0,42.560001373291016,40.0,40.119998931884766,40.119998931884766,149700
2020-08-12,40.41999816894531,41.880001068115234,40.099998474121094,41.209999084472656,41.209999084472656,135400
2020-08-13,41.15999984741211,42.25,40.83000183105469,42.25,42.25,44000
2020-08-14,41.90999984741211,42.9900016784668,41.400001525878906,42.599998474121094,42.599998474121094,141000
2020-08-17,42.79999923706055,44.97999954223633,42.04100036621094,44.810001373291016,44.810001373291016,109300
2020-08-18,45.040000915527344,46.400001525878906,44.09000015258789,44.849998474121094,44.849998474121094,195700
2020-08-19,46.5,48.0,45.060001373291016,47.72999954223633,47.72999954223633,230800
2020-08-20,47.72999954223633,48.150001525878906,44.7599983215332,47.5,47.5,146800
2020-08-21,47.130001068115234,47.56999969482422,44.65999984741211,47.04999923706055,47.04999923706055,140000
2020-08-24,47.130001068115234,47.130001068115234,45.65999984741211,46.20000076293945,46.20000076293945,143300
2020-08-25,46.06999969482422,48.040000915527344,45.400001525878906,47.70000076293945,47.70000076293945,106300
2020-08-26,47.869998931884766,48.47999954223633,46.88999938964844,47.400001525878906,47.400001525878906,77200
2020-08-27,47.29999923706055,47.29999923706055,44.810001373291016,45.70000076293945,45.70000076293945,99200
2020-08-28,45.689998626708984,47.54999923706055,45.38999938964844,46.88999938964844,46.88999938964844,148100
2020-08-31,46.66999816894531,48.47999954223633,46.25,47.810001373291016,47.810001373291016,113600
2020-09-01,47.7599983215332,48.79999923706055,46.505001068115234,48.15999984741211,48.15999984741211,121500
2020-09-02,48.2400016784668,48.58000183105469,46.810001373291016,47.880001068115234,47.880001068115234,80900
2020-09-03,47.540000915527344,47.56999969482422,43.95000076293945,44.439998626708984,44.439998626708984,136700
2020-09-04,44.439998626708984,44.61000061035156,40.77000045776367,42.38999938964844,42.38999938964844,116500
2020-09-08,41.599998474121094,45.06999969482422,41.029998779296875,43.5,43.5,94600
2020-09-09,43.5,45.34000015258789,43.5,44.560001373291016,44.560001373291016,78300
2020-09-10,45.11000061035156,46.209999084472656,44.13999938964844,44.13999938964844,44.13999938964844,72400
2020-09-11,45.064998626708984,45.5,42.96500015258789,43.58000183105469,43.58000183105469,78800
2020-09-14,44.22999954223633,47.220001220703125,44.22999954223633,47.02000045776367,47.02000045776367,132100
2020-09-15,47.540000915527344,47.65999984741211,45.75,46.209999084472656,46.209999084472656,90500
2020-09-16,46.040000915527344,47.31999969482422,45.63999938964844,46.20000076293945,46.20000076293945,103800
2020-09-17,45.33000183105469,47.720001220703125,45.33000183105469,46.25,46.25,98800
2020-09-18,48.0099983215332,48.65999984741211,47.22999954223633,48.4900016784668,48.4900016784668,597100
2020-09-21,47.45000076293945,47.45000076293945,44.04999923706055,44.27000045776367,44.27000045776367,141200
2020-09-22,44.380001068115234,44.380001068115234,41.290000915527344,43.290000915527344,43.290000915527344,111000
2020-09-23,43.52000045776367,43.619998931884766,41.16999816894531,41.27000045776367,41.27000045776367,85000
2020-09-24,41.040000915527344,42.02000045776367,40.22999954223633,41.779998779296875,41.779998779296875,116300
2020-09-25,41.75,42.810001373291016,40.369998931884766,41.38999938964844,41.38999938964844,94700
2020-09-28,41.70000076293945,42.529998779296875,40.650001525878906,40.79999923706055,40.79999923706055,219000
2020-09-29,40.88999938964844,42.38999938964844,40.7599983215332,42.18000030517578,42.18000030517578,105800
2020-09-30,42.220001220703125,43.65999984741211,41.595001220703125,43.04999923706055,43.04999923706055,73700
2020-10-01,43.47999954223633,44.05500030517578,42.77000045776367,43.75,43.75,101500
2020-10-02,43.16999816894531,44.040000915527344,42.415000915527344,43.15999984741211,43.15999984741211,132300
2020-10-05,43.4900016784668,46.59000015258789,42.60499954223633,46.279998779296875,46.279998779296875,135300
2020-10-06,46.59000015258789,48.09000015258789,45.0,46.560001373291016,46.560001373291016,80900
2020-10-07,47.2400016784668,48.95000076293945,47.099998474121094,47.9900016784668,47.9900016784668,101700
2020-10-08,48.65999984741211,49.150001525878906,47.58000183105469,48.130001068115234,48.130001068115234,67500
2020-10-09,49.189998626708984,50.97999954223633,48.5,50.70000076293945,50.70000076293945,86800
2020-10-12,50.810001373291016,52.029998779296875,49.779998779296875,51.849998474121094,51.849998474121094,77300
2020-10-13,51.849998474121094,52.20500183105469,49.22999954223633,50.970001220703125,50.970001220703125,65700
2020-10-14,51.04999923706055,51.04999923706055,49.77000045776367,50.060001373291016,50.060001373291016,57000
2020-10-15,49.83000183105469,51.27000045776367,49.0099983215332,51.08000183105469,51.08000183105469,53300
2020-10-16,50.95000076293945,52.39500045776367,50.66999816894531,51.619998931884766,51.619998931884766,59500
2020-10-19,51.130001068115234,51.80500030517578,48.060001373291016,48.849998474121094,48.849998474121094,263000
2020-10-20,49.20000076293945,49.63999938964844,44.790000915527344,46.630001068115234,46.630001068115234,164000
2020-10-21,46.529998779296875,47.790000915527344,44.869998931884766,45.349998474121094,45.349998474121094,109400
2020-10-22,45.52000045776367,47.4900016784668,43.75,47.29999923706055,47.29999923706055,131900
2020-10-23,46.68000030517578,48.33000183105469,45.31999969482422,48.150001525878906,48.150001525878906,87800
2020-10-26,47.560001373291016,48.290000915527344,45.68000030517578,45.90999984741211,45.90999984741211,173800
2020-10-27,45.959999084472656,48.95000076293945,45.939998626708984,48.68000030517578,48.68000030517578,84600
2020-10-28,47.47999954223633,48.900001525878906,45.650001525878906,45.84000015258789,45.84000015258789,110900
2020-10-29,45.689998626708984,45.959999084472656,44.349998474121094,45.31999969482422,45.31999969482422,132600
2020-10-30,45.31999969482422,45.810001373291016,42.83000183105469,42.9900016784668,42.9900016784668,94400
2020-11-02,43.529998779296875,43.77000045776367,41.939998626708984,43.040000915527344,43.040000915527344,103600
2020-11-03,43.689998626708984,43.7400016784668,42.404998779296875,42.75,42.75,99000
2020-11-04,43.18000030517578,46.560001373291016,43.130001068115234,45.90999984741211,45.90999984741211,219800
2020-11-05,46.400001525878906,46.400001525878906,42.90999984741211,43.43000030517578,43.43000030517578,218500
2020-11-06,43.380001068115234,44.09299850463867,40.040000915527344,40.63999938964844,40.63999938964844,212400
2020-11-09,42.13999938964844,45.25,41.599998474121094,41.900001525878906,41.900001525878906,231100
2020-11-10,43.0,43.0,40.65999984741211,41.68000030517578,41.68000030517578,259500
2020-11-11,41.91999816894531,42.68000030517578,41.119998931884766,41.95000076293945,41.95000076293945,160000
2020-11-12,41.95000076293945,42.84000015258789,41.25,41.5,41.5,191000
2020-11-13,41.7599983215332,42.4900016784668,40.810001373291016,41.880001068115234,41.880001068115234,232400
2020-11-16,42.400001525878906,42.849998474121094,40.5,41.209999084472656,41.209999084472656,211000
2020-11-17,41.75,42.41600036621094,40.810001373291016,41.91999816894531,41.91999816894531,93300
2020-11-18,42.2400016784668,42.939998626708984,41.33000183105469,41.4900016784668,41.4900016784668,107400
2020-11-19,41.650001525878906,42.709999084472656,40.720001220703125,42.41999816894531,42.41999816894531,284500
2020-11-20,42.029998779296875,42.540000915527344,41.584999084472656,42.220001220703125,42.220001220703125,84300
2020-11-23,42.619998931884766,44.97999954223633,42.15999984741211,44.220001220703125,44.220001220703125,183000
2020-11-24,44.86000061035156,47.29499816894531,44.0,46.97999954223633,46.97999954223633,183300
2020-11-25,46.95000076293945,47.9109992980957,45.05699920654297,46.2599983215332,46.2599983215332,75700
2020-11-27,46.029998779296875,48.9900016784668,45.099998474121094,48.86000061035156,48.86000061035156,69100
2020-11-30,58.31999969482422,58.31999969482422,51.709999084472656,54.939998626708984,54.939998626708984,505200
2020-12-01,55.459999084472656,55.459999084472656,49.72999954223633,52.04999923706055,52.04999923706055,175300
2020-12-02,51.56999969482422,55.16999816894531,51.16999816894531,53.63999938964844,53.63999938964844,93900
2020-12-03,52.459999084472656,54.7599983215332,52.459999084472656,53.650001525878906,53.650001525878906,59600
2020-12-04,54.02000045776367,56.84000015258789,53.970001220703125,56.540000915527344,56.540000915527344,72700
2020-12-07,57.18000030517578,58.47999954223633,56.20000076293945,56.470001220703125,56.470001220703125,146500
2020-12-08,56.0099983215332,56.380001068115234,52.52000045776367,55.43000030517578,55.43000030517578,149600
2020-12-09,56.34000015258789,56.349998474121094,53.349998474121094,54.880001068115234,54.880001068115234,109800
2020-12-10,54.810001373291016,57.060001373291016,54.202999114990234,56.72999954223633,56.72999954223633,107900
2020-12-11,56.599998474121094,60.18000030517578,56.43000030517578,58.380001068115234,58.380001068115234,241600
2020-12-14,58.790000915527344,62.95000076293945,58.029998779296875,58.400001525878906,58.400001525878906,455900
2020-12-15,59.279998779296875,60.5,57.26499938964844,60.09000015258789,60.09000015258789,81500
2020-12-16,59.599998474121094,62.40999984741211,59.279998779296875,59.540000915527344,59.540000915527344,110500
2020-12-17,59.47999954223633,61.5,59.06999969482422,61.380001068115234,61.380001068115234,177700
2020-12-18,61.5,62.06999969482422,58.15999984741211,58.599998474121094,58.599998474121094,480400
2020-12-21,57.0099983215332,59.779998779296875,56.834999084472656,59.099998474121094,59.099998474121094,139700
2020-12-22,59.349998474121094,62.90999984741211,58.540000915527344,60.7400016784668,60.7400016784668,208100
2020-12-23,60.779998779296875,61.369998931884766,59.959999084472656,60.599998474121094,60.599998474121094,74300
2020-12-24,60.529998779296875,62.0,59.994998931884766,60.54999923706055,60.54999923706055,35400
2020-12-28,61.09000015258789,62.119998931884766,58.6150016784668,59.38999938964844,59.38999938964844,99900
2020-12-29,59.400001525878906,60.11000061035156,56.52000045776367,57.27000045776367,57.27000045776367,71600
2020-12-30,57.27000045776367,60.900001525878906,57.27000045776367,60.40999984741211,60.40999984741211,61900
