Date,Open,High,Low,Close,Adj Close,Volume
2019-05-28,36.5,38.5,36.25,36.279998779296875,33.56370162963867,2722100
2019-05-29,35.5099983215332,35.779998779296875,31.860000610351562,32.970001220703125,30.501522064208984,5732700
2019-05-30,32.689998626708984,32.849998474121094,30.825000762939453,31.149999618530273,28.81778907775879,3916800
2019-05-31,29.760000228881836,30.125,28.15999984741211,29.299999237060547,27.10629653930664,5210500
2019-06-03,28.329999923706055,29.739999771118164,28.25,29.049999237060547,26.87501335144043,2642000
2019-06-04,28.8799991607666,30.799999237060547,28.760000228881836,30.75,28.447734832763672,1991100
2019-06-05,30.950000762939453,32.779998779296875,30.735000610351562,31.3799991607666,29.030567169189453,1386500
2019-06-06,29.75,31.350000381469727,29.059999465942383,30.5,28.216453552246094,1440700
2019-06-07,30.440000534057617,31.989999771118164,28.350000381469727,28.420000076293945,26.29218101501465,970700
2019-06-10,29.110000610351562,31.25,29.079999923706055,30.420000076293945,28.14244270324707,961100
2019-06-11,30.68000030517578,31.0,27.799999237060547,28.280000686645508,26.16266632080078,968400
2019-06-12,28.219999313354492,29.139999389648438,27.15999984741211,27.15999984741211,25.12652015686035,1130300
2019-06-13,27.84000015258789,28.969999313354492,27.3799991607666,28.829999923706055,26.671485900878906,1133200
2019-06-14,28.649999618530273,29.315000534057617,28.2450008392334,28.299999237060547,26.181167602539062,890400
2019-06-17,28.420000076293945,29.184999465942383,27.3700008392334,27.940000534057617,25.848121643066406,1009800
2019-06-18,28.1299991607666,28.290000915527344,26.270000457763672,27.3700008392334,25.320798873901367,1366500
2019-06-19,27.600000381469727,28.4689998626709,27.040000915527344,27.3799991607666,25.330045700073242,1322400
2019-06-20,27.469999313354492,27.889999389648438,26.540000915527344,27.75,25.672348022460938,951800
2019-06-21,27.65999984741211,28.517000198364258,26.790000915527344,27.510000228881836,25.450315475463867,1249900
2019-06-24,27.5,28.225000381469727,27.475000381469727,27.68000030517578,25.60759162902832,1298600
2019-06-25,27.510000228881836,27.75,25.780000686645508,26.1299991607666,24.173633575439453,864500
2019-06-26,26.0,27.540000915527344,25.8700008392334,26.670000076293945,24.673208236694336,1226800
2019-06-27,27.110000610351562,28.90999984741211,26.760000228881836,28.3700008392334,26.245927810668945,1106400
2019-06-28,27.959999084472656,28.43000030517578,27.3799991607666,28.020000457763672,25.922134399414062,5471500
2019-07-01,28.3799991607666,29.690000534057617,27.709999084472656,29.329999923706055,27.134052276611328,996600
2019-07-02,29.389999389648438,29.774999618530273,28.479999542236328,29.170000076293945,26.98603057861328,684800
2019-07-03,29.219999313354492,29.959999084472656,28.941999435424805,29.360000610351562,27.16180419921875,253100
2019-07-05,29.34000015258789,30.040000915527344,29.1299991607666,29.829999923706055,27.596616744995117,241600
2019-07-08,29.700000762939453,30.81999969482422,29.489999771118164,30.799999237060547,28.49399185180664,717600
2019-07-09,30.959999084472656,31.690000534057617,30.729999542236328,30.989999771118164,28.66976547241211,976900
2019-07-10,30.59000015258789,32.46900177001953,29.84000015258789,32.29999923706055,29.88168716430664,937200
2019-07-11,32.439998626708984,33.560001373291016,32.290000915527344,33.459999084472656,30.954835891723633,652200
2019-07-12,33.68000030517578,34.22999954223633,33.349998474121094,33.5,30.99184226989746,528400
2019-07-15,33.54999923706055,34.15999984741211,31.350000381469727,31.770000457763672,29.39137077331543,548600
2019-07-16,31.59000015258789,32.189998626708984,31.454999923706055,32.02000045776367,29.622652053833008,521200
2019-07-17,31.6200008392334,31.836000442504883,30.5,30.600000381469727,28.30896759033203,519900
2019-07-18,30.3700008392334,30.78499984741211,28.84000015258789,29.329999923706055,27.134052276611328,637500
2019-07-19,29.280000686645508,29.850000381469727,28.670000076293945,29.489999771118164,27.282072067260742,1390500
2019-07-22,29.450000762939453,31.219999313354492,29.100000381469727,30.549999237060547,28.26270866394043,823300
2019-07-23,30.81999969482422,31.780000686645508,30.621000289916992,31.0,28.679018020629883,509100
2019-07-24,31.299999237060547,33.0,30.68000030517578,31.540000915527344,29.1785888671875,941600
2019-07-25,31.18000030517578,31.989999771118164,29.28499984741211,30.0,27.753887176513672,768500
2019-07-26,30.110000610351562,30.489999771118164,29.170000076293945,29.920000076293945,27.67987823486328,824400
2019-07-29,30.0,31.049999237060547,30.0,31.040000915527344,28.716022491455078,497200
2019-07-30,30.760000228881836,31.3700008392334,30.100000381469727,30.969999313354492,28.651260375976562,284100
2019-07-31,30.920000076293945,31.299999237060547,29.040000915527344,29.329999923706055,27.134052276611328,1419000
2019-08-01,30.15999984741211,30.649999618530273,28.780000686645508,29.15999984741211,26.976778030395508,1223600
2019-08-02,29.18000030517578,30.399999618530273,28.94099998474121,30.06999969482422,27.818645477294922,521700
2019-08-05,29.989999771118164,30.0,28.200000762939453,28.469999313354492,26.33843994140625,979500
2019-08-06,28.959999084472656,29.559999465942383,28.110000610351562,29.229999542236328,27.04153823852539,1443200
2019-08-07,28.770000457763672,29.760000228881836,28.75,29.600000381469727,27.383840560913086,743600
2019-08-08,31.0,34.720001220703125,30.68000030517578,33.81999969482422,31.287883758544922,2089700
2019-08-09,33.83000183105469,34.849998474121094,33.11000061035156,34.34000015258789,31.76894760131836,551800
2019-08-12,33.900001525878906,33.939998626708984,32.13999938964844,32.2599983215332,29.844680786132812,773300
2019-08-13,32.2400016784668,33.4379997253418,31.469999313354492,32.29999923706055,29.88168716430664,669200
2019-08-14,31.510000228881836,31.709999084472656,30.709999084472656,30.739999771118164,28.43848419189453,1108300
2019-08-15,30.709999084472656,31.389999389648438,28.68000030517578,30.110000610351562,27.855655670166016,1263600
2019-08-16,30.530000686645508,32.7400016784668,30.440000534057617,32.52000045776367,30.08521270751953,430500
2019-08-19,32.869998931884766,33.220001220703125,31.40999984741211,31.84000015258789,29.45612907409668,494900
2019-08-20,31.299999237060547,32.8650016784668,31.010000228881836,32.279998779296875,29.86318588256836,362300
2019-08-21,32.560001373291016,33.650001525878906,32.02000045776367,33.5,30.99184226989746,649600
2019-08-22,33.58000183105469,33.81999969482422,32.83000183105469,33.099998474121094,30.621788024902344,447300
2019-08-23,32.939998626708984,32.939998626708984,31.229999542236328,32.20000076293945,29.789175033569336,569100
2019-08-26,32.56999969482422,33.66999816894531,32.28200149536133,33.630001068115234,31.112110137939453,305300
2019-08-27,33.619998931884766,34.099998474121094,32.20500183105469,32.91999816894531,30.455263137817383,854400
2019-08-28,32.689998626708984,34.04999923706055,32.65999984741211,33.34000015258789,30.843822479248047,309000
2019-08-29,33.58000183105469,34.59000015258789,33.2869987487793,33.900001525878906,31.361896514892578,402700
2019-08-30,33.959999084472656,34.63999938964844,33.7400016784668,34.2400016784668,31.67643928527832,425800
2019-09-03,34.27000045776367,35.29999923706055,33.7599983215332,34.22999954223633,31.66718292236328,399600
2019-09-04,34.34000015258789,35.08599853515625,34.189998626708984,34.43000030517578,31.852216720581055,702000
2019-09-05,35.150001525878906,35.6150016784668,34.7599983215332,35.38999938964844,32.740333557128906,571100
2019-09-06,35.75,36.099998474121094,34.91999816894531,35.970001220703125,33.276920318603516,528500
2019-09-09,35.79999923706055,35.90999984741211,34.5,35.459999084472656,33.32389831542969,886400
2019-09-10,35.290000915527344,35.95000076293945,34.34000015258789,34.689998626708984,32.60028839111328,636800
2019-09-11,34.88999938964844,36.31999969482422,34.099998474121094,36.029998779296875,33.85955810546875,467700
2019-09-12,36.029998779296875,36.27000045776367,35.13999938964844,36.0,33.83137130737305,598500
2019-09-13,36.16999816894531,36.400001525878906,34.869998931884766,35.47999954223633,33.34269714355469,620900
2019-09-16,34.939998626708984,35.43000030517578,33.650001525878906,34.59000015258789,32.506309509277344,553100
2019-09-17,34.31999969482422,34.43000030517578,33.3849983215332,34.0,31.95185089111328,494300
2019-09-18,34.0,34.52000045776367,33.52000045776367,34.27000045776367,32.20558547973633,682200
2019-09-19,34.369998931884766,35.220001220703125,34.290000915527344,34.75,32.656673431396484,538400
2019-09-20,34.900001525878906,35.19599914550781,33.590999603271484,33.849998474121094,31.810888290405273,907400
2019-09-23,33.7400016784668,35.87799835205078,33.63999938964844,35.540000915527344,33.39908218383789,511300
2019-09-24,35.75,35.93299865722656,34.2400016784668,34.41999816894531,32.34654998779297,557500
2019-09-25,34.2400016784668,35.25,33.869998931884766,33.97999954223633,31.93305778503418,407800
2019-09-26,33.77000045776367,34.88999938964844,33.16999816894531,34.29999923706055,32.23377990722656,400700
2019-09-27,34.40999984741211,34.86000061035156,33.95000076293945,34.52000045776367,32.440528869628906,331300
2019-09-30,34.65999984741211,35.970001220703125,34.400001525878906,35.099998474121094,32.985591888427734,728700
2019-10-01,35.130001068115234,35.810001373291016,34.599998474121094,34.779998779296875,32.68486022949219,615600
2019-10-02,34.41999816894531,34.7599983215332,33.88600158691406,34.150001525878906,32.09281921386719,361600
2019-10-03,34.04999923706055,35.099998474121094,33.439998626708984,34.79999923706055,32.70366287231445,338300
2019-10-04,34.7400016784668,35.290000915527344,33.45000076293945,34.11000061035156,32.05522537231445,695800
2019-10-07,34.0,34.79999923706055,33.5,34.47999954223633,32.40293502807617,549900
2019-10-08,34.11000061035156,35.099998474121094,33.70000076293945,34.650001525878906,32.56269836425781,521800
2019-10-09,34.91999816894531,35.18000030517578,34.16999816894531,34.650001525878906,32.56269836425781,632500
2019-10-10,34.77000045776367,35.779998779296875,34.349998474121094,34.40999984741211,32.337154388427734,404200
2019-10-11,34.869998931884766,37.18000030517578,34.869998931884766,36.70000076293945,34.48920440673828,1139400
2019-10-14,36.47999954223633,37.20000076293945,35.95000076293945,36.91999816894531,34.695953369140625,671200
2019-10-15,36.959999084472656,38.16999816894531,36.52000045776367,37.810001373291016,35.5323371887207,974300
2019-10-16,37.56999969482422,38.61000061035156,37.56999969482422,38.34000015258789,36.03041458129883,648000
2019-10-17,38.4900016784668,39.25,38.09000015258789,38.470001220703125,36.15258026123047,461300
2019-10-18,38.09000015258789,38.61000061035156,37.36000061035156,38.25,35.945831298828125,433100
2019-10-21,38.880001068115234,39.79999923706055,38.720001220703125,39.09000015258789,36.7352294921875,836000
2019-10-22,38.90999984741211,40.310001373291016,38.5,40.13999938964844,37.72197723388672,674100
2019-10-23,40.16999816894531,40.70500183105469,39.54999923706055,40.25,37.82535171508789,896500
2019-10-24,40.09000015258789,40.20000076293945,38.439998626708984,39.34000015258789,36.97016906738281,625500
2019-10-25,39.04999923706055,40.25,37.959999084472656,40.16999816894531,37.75016784667969,796200
2019-10-28,40.400001525878906,40.939998626708984,39.54999923706055,39.560001373291016,37.176918029785156,718400
2019-10-29,39.52000045776367,40.56999969482422,39.167999267578125,39.86000061035156,37.45884323120117,964100
2019-10-30,39.95000076293945,40.90999984741211,39.279998779296875,39.380001068115234,37.00776672363281,1080500
2019-10-31,39.5,40.869998931884766,37.52000045776367,38.0,35.71089172363281,9300200
2019-11-01,38.439998626708984,39.22999954223633,37.15999984741211,38.0,35.71089172363281,739100
2019-11-04,38.27000045776367,39.189998626708984,37.939998626708984,38.400001525878906,36.086795806884766,1133400
2019-11-05,38.400001525878906,39.6150016784668,38.400001525878906,39.33000183105469,36.96076965332031,1244100
2019-11-06,39.220001220703125,39.220001220703125,38.119998931884766,38.2400016784668,35.93643569946289,1033800
2019-11-07,38.22999954223633,38.810001373291016,34.25,35.0099983215332,32.901004791259766,2010800
2019-11-08,35.20000076293945,36.40999984741211,34.72999954223633,36.0099983215332,33.84077072143555,847000
2019-11-11,35.97999954223633,36.560001373291016,35.75,36.150001525878906,33.97233963012695,734600
2019-11-12,36.0,36.779998779296875,35.34000015258789,36.06999969482422,33.897159576416016,786000
2019-11-13,35.619998931884766,37.029998779296875,35.54999923706055,36.5,34.30125427246094,598200
2019-11-14,36.41999816894531,36.73500061035156,35.939998626708984,36.0099983215332,33.84077072143555,488400
2019-11-15,36.13999938964844,36.51499938964844,35.900001525878906,36.029998779296875,33.85955810546875,409400
2019-11-18,36.040000915527344,36.040000915527344,34.439998626708984,35.459999084472656,33.32389831542969,644700
2019-11-19,35.34000015258789,35.880001068115234,34.904998779296875,35.470001220703125,33.33330154418945,652800
2019-11-20,35.27000045776367,35.53499984741211,34.380001068115234,35.150001525878906,33.03257751464844,912800
2019-11-21,35.0099983215332,35.380001068115234,34.79100036621094,35.0,32.8916130065918,660500
2019-11-22,35.43000030517578,35.779998779296875,35.11000061035156,35.52000045776367,33.380287170410156,581600
2019-11-25,35.81999969482422,36.29999923706055,35.52000045776367,36.02000045776367,33.85016632080078,594700
2019-11-26,36.060001373291016,36.33000183105469,35.8650016784668,35.880001068115234,33.718605041503906,545700
2019-11-27,36.130001068115234,36.27000045776367,35.77000045776367,36.029998779296875,33.85955810546875,296500
2019-11-29,35.810001373291016,36.189998626708984,35.54999923706055,35.849998474121094,33.69040298461914,262700
2019-12-02,35.77000045776367,36.99399948120117,35.2400016784668,36.619998931884766,34.414024353027344,815500
2019-12-03,36.40999984741211,37.029998779296875,36.38999938964844,36.810001373291016,34.59257888793945,719500
2019-12-04,36.86000061035156,37.97999954223633,36.86000061035156,37.52000045776367,35.25980758666992,534400
2019-12-05,37.529998779296875,38.61600112915039,37.529998779296875,38.56999969482422,36.24655532836914,399400
2019-12-06,38.970001220703125,39.85900115966797,38.34000015258789,38.459999084472656,36.14318084716797,511200
2019-12-09,37.900001525878906,38.54999923706055,37.119998931884766,38.20000076293945,36.42927932739258,497000
2019-12-10,38.2599983215332,38.619998931884766,37.849998474121094,38.279998779296875,36.50556564331055,332100
2019-12-11,38.130001068115234,38.900001525878906,37.84000015258789,38.400001525878906,36.6200065612793,386200
2019-12-12,38.58000183105469,39.709999084472656,38.40999984741211,39.220001220703125,37.40199661254883,485300
2019-12-13,39.459999084472656,39.4900016784668,38.5099983215332,38.970001220703125,37.16358184814453,460600
2019-12-16,39.36000061035156,39.72999954223633,38.689998626708984,38.709999084472656,36.91563034057617,501000
2019-12-17,38.720001220703125,39.23699951171875,38.5989990234375,38.9900016784668,37.182655334472656,556200
2019-12-18,39.40999984741211,40.400001525878906,39.099998474121094,40.2599983215332,38.3937873840332,677300
2019-12-19,40.09000015258789,40.84000015258789,40.08000183105469,40.220001220703125,38.35564422607422,701900
2019-12-20,40.540000915527344,41.04499816894531,40.38999938964844,40.7599983215332,38.87060546875,2200700
2019-12-23,40.959999084472656,42.06999969482422,40.66999816894531,41.689998626708984,39.75749969482422,430300
2019-12-24,41.689998626708984,41.959999084472656,41.36000061035156,41.5,39.57630920410156,163400
2019-12-26,41.86000061035156,42.70399856567383,41.7400016784668,42.29999923706055,40.3392219543457,477000
2019-12-27,42.400001525878906,42.790000915527344,42.189998626708984,42.4900016784668,40.52042007446289,374900
2019-12-30,42.45000076293945,42.709999084472656,41.849998474121094,42.2400016784668,40.282005310058594,422800
2019-12-31,42.04999923706055,42.54999923706055,41.88999938964844,41.9900016784668,40.04359817504883,897700
2020-01-02,42.439998626708984,42.880001068115234,41.27000045776367,41.689998626708984,39.75749969482422,448600
2020-01-03,41.0,42.80500030517578,40.9900016784668,42.790000915527344,40.80651092529297,564200
2020-01-06,42.0,42.72999954223633,41.400001525878906,42.2599983215332,40.30107879638672,370300
2020-01-07,42.189998626708984,43.23500061035156,41.9900016784668,42.689998626708984,40.711143493652344,356300
2020-01-08,42.61000061035156,43.09700012207031,42.02000045776367,42.779998779296875,40.79697036743164,359400
2020-01-09,42.52000045776367,42.71500015258789,41.880001068115234,42.040000915527344,40.09128189086914,421100
2020-01-10,42.220001220703125,42.310001373291016,40.720001220703125,40.869998931884766,38.97550582885742,471600
2020-01-13,41.0,41.84000015258789,40.731998443603516,41.68000030517578,39.74795913696289,456200
2020-01-14,41.560001373291016,42.279998779296875,41.13999938964844,41.20000076293945,39.29021453857422,340600
2020-01-15,41.150001525878906,41.709999084472656,40.66999816894531,40.7599983215332,38.87060546875,499000
2020-01-16,41.119998931884766,41.970001220703125,41.005001068115234,41.95000076293945,40.00544738769531,408100
2020-01-17,42.2400016784668,42.25,41.400001525878906,41.72999954223633,39.79563903808594,311800
2020-01-21,41.68000030517578,42.4900016784668,41.33000183105469,41.619998931884766,39.69074249267578,395800
2020-01-22,41.599998474121094,41.91999816894531,41.099998474121094,41.47999954223633,39.55723571777344,314100
2020-01-23,41.13999938964844,42.06999969482422,40.279998779296875,41.9900016784668,40.04359817504883,511200
2020-01-24,42.61000061035156,42.72999954223633,41.25,41.90999984741211,39.967308044433594,309300
2020-01-27,41.0,41.459999084472656,40.5099983215332,40.90999984741211,39.01365661621094,551600
2020-01-28,41.02000045776367,41.207000732421875,39.31999969482422,39.79999923706055,37.95510482788086,422700
2020-01-29,39.869998931884766,41.060001373291016,39.84299850463867,40.56999969482422,38.68941879272461,471100
2020-01-30,40.36000061035156,40.529998779296875,39.43000030517578,40.15999984741211,38.298423767089844,489800
2020-01-31,40.099998474121094,40.099998474121094,37.709999084472656,38.13999938964844,36.37205505371094,2287100
2020-02-03,38.13999938964844,39.06999969482422,37.790000915527344,38.54999923706055,36.7630500793457,440600
2020-02-04,39.209999084472656,39.70000076293945,38.79999923706055,39.290000915527344,37.468753814697266,475600
2020-02-05,39.90999984741211,40.939998626708984,39.459999084472656,40.290000915527344,38.42239761352539,402500
2020-02-06,40.38999938964844,40.880001068115234,40.0099983215332,40.58000183105469,38.698951721191406,416300
2020-02-07,40.459999084472656,40.459999084472656,39.060001373291016,39.290000915527344,37.468753814697266,289900
2020-02-10,39.189998626708984,39.33000183105469,38.779998779296875,38.849998474121094,37.04914093017578,289000
2020-02-11,39.150001525878906,39.63999938964844,38.45000076293945,38.65999984741211,36.867950439453125,341600
2020-02-12,39.099998474121094,40.130001068115234,38.95000076293945,39.34000015258789,37.51643371582031,469900
2020-02-13,39.31999969482422,40.9900016784668,38.540000915527344,40.90999984741211,39.01365661621094,798700
2020-02-14,41.0,42.25,40.5,41.869998931884766,39.92915344238281,533500
2020-02-18,40.5,40.900001525878906,38.29999923706055,38.959999084472656,37.15404510498047,1576500
2020-02-19,38.93000030517578,39.97999954223633,38.11000061035156,39.18000030517578,37.36384963989258,637900
2020-02-20,39.209999084472656,39.810001373291016,37.900001525878906,39.0099983215332,37.201725006103516,500300
2020-02-21,38.93000030517578,39.676998138427734,38.459999084472656,38.779998779296875,36.98238754272461,552200
2020-02-24,37.61000061035156,38.119998931884766,36.5099983215332,37.77000045776367,36.01921081542969,494600
2020-02-25,37.83000183105469,37.926998138427734,35.18000030517578,35.470001220703125,33.825828552246094,684100
2020-02-26,35.790000915527344,36.85300064086914,35.08000183105469,35.5099983215332,33.86396789550781,493500
2020-02-27,34.880001068115234,35.6349983215332,33.0,34.0099983215332,32.43349838256836,692000
2020-02-28,32.7599983215332,33.84000015258789,32.2400016784668,33.7400016784668,32.1760139465332,882500
2020-03-02,33.849998474121094,34.27000045776367,31.90999984741211,34.2599983215332,32.67190933227539,930400
2020-03-03,34.40999984741211,35.97999954223633,33.529998779296875,33.779998779296875,32.21416091918945,714800
2020-03-04,33.93000030517578,34.59000015258789,33.02000045776367,34.54999923706055,32.94847106933594,539700
2020-03-05,34.5,35.5099983215332,31.600000381469727,32.52000045776367,31.0125675201416,1106200
2020-03-06,31.34000015258789,34.2599983215332,31.0,33.41999816894531,31.8708438873291,1183100
2020-03-09,31.84000015258789,32.33000183105469,29.709999084472656,30.110000610351562,29.203628540039062,1018400
2020-03-10,31.280000686645508,32.31999969482422,30.06999969482422,32.2599983215332,31.28890609741211,877700
2020-03-11,30.950000762939453,31.610000610351562,29.040000915527344,29.530000686645508,28.641088485717773,668700
2020-03-12,27.299999237060547,28.665000915527344,25.989999771118164,26.670000076293945,25.86717987060547,1032200
2020-03-13,28.440000534057617,28.600000381469727,25.059999465942383,27.670000076293945,26.83707618713379,931900
2020-03-16,24.059999465942383,27.59000015258789,24.010000228881836,26.459999084472656,25.66349983215332,1011400
2020-03-17,27.049999237060547,30.899999618530273,25.56999969482422,29.729999542236328,28.835065841674805,890100
2020-03-18,27.489999771118164,29.559999465942383,26.479999542236328,29.420000076293945,28.534399032592773,722500
2020-03-19,29.1299991607666,30.760000228881836,26.781999588012695,29.559999465942383,28.670181274414062,590600
2020-03-20,29.940000534057617,31.110000610351562,25.260000228881836,26.459999084472656,25.66349983215332,1056600
2020-03-23,26.0,26.0,22.25,23.81999969482422,23.102968215942383,1396800
2020-03-24,24.81999969482422,26.143999099731445,24.389999389648438,25.850000381469727,25.071863174438477,1002300
2020-03-25,23.969999313354492,25.809999465942383,23.06999969482422,23.829999923706055,23.112667083740234,1220600
2020-03-26,23.850000381469727,24.950000762939453,22.6200008392334,22.899999618530273,22.210664749145508,1117000
2020-03-27,22.06999969482422,22.31999969482422,18.920000076293945,20.299999237060547,19.688926696777344,1984700
2020-03-30,19.989999771118164,20.440000534057617,18.81999969482422,19.75,19.155485153198242,1209900
2020-03-31,19.579999923706055,20.649999618530273,19.1200008392334,19.170000076293945,18.592945098876953,962500
2020-04-01,18.0,18.34000015258789,14.635000228881836,15.510000228881836,15.04311752319336,2679700
2020-04-02,15.470000267028809,16.2549991607666,15.100000381469727,15.579999923706055,15.111010551452637,2313000
2020-04-03,15.399999618530273,15.75,12.904999732971191,13.800000190734863,13.384592056274414,2167700
2020-04-06,14.109999656677246,15.449999809265137,14.109999656677246,15.079999923706055,14.626062393188477,1300900
2020-04-07,16.25,17.309999465942383,15.84000015258789,15.960000038146973,15.479572296142578,1488900
2020-04-08,16.459999084472656,18.729999542236328,16.100000381469727,17.780000686645508,17.24478530883789,1602400
2020-04-09,18.68000030517578,22.43000030517578,18.424999237060547,20.290000915527344,19.679229736328125,2689300
2020-04-13,20.299999237060547,21.170000076293945,19.290000915527344,20.0,19.397958755493164,1184600
2020-04-14,20.540000915527344,21.440000534057617,19.899999618530273,21.299999237060547,20.65882682800293,1244700
2020-04-15,20.0,20.239999771118164,18.190000534057617,18.40999984741211,17.85582160949707,1737800
2020-04-16,18.18000030517578,18.559999465942383,17.200000762939453,17.559999465942383,17.031410217285156,1289000
2020-04-17,18.489999771118164,20.739999771118164,18.270000457763672,19.8799991607666,19.281574249267578,1269800
2020-04-20,19.280000686645508,20.31999969482422,18.559999465942383,18.950000762939453,18.379568099975586,895800
2020-04-21,18.030000686645508,19.360000610351562,17.969999313354492,18.149999618530273,17.603649139404297,1263900
2020-04-22,18.190000534057617,18.860000610351562,17.790000915527344,18.479999542236328,17.92371368408203,618700
2020-04-23,18.559999465942383,19.350000381469727,17.790000915527344,18.540000915527344,17.981908798217773,1227100
2020-04-24,18.610000610351562,19.81999969482422,18.610000610351562,19.579999923706055,18.9906005859375,946900
2020-04-27,19.940000534057617,21.270000457763672,19.940000534057617,20.850000381469727,20.22237205505371,946200
2020-04-28,21.59000015258789,21.899999618530273,20.260000228881836,21.31999969482422,20.67822265625,1040800
2020-04-29,21.610000610351562,22.479999542236328,20.510000228881836,21.139999389648438,20.503644943237305,1329600
2020-04-30,20.969999313354492,20.969999313354492,18.670000076293945,19.40999984741211,18.825719833374023,4893400
2020-05-01,19.209999084472656,19.81999969482422,18.28499984741211,19.610000610351562,19.019699096679688,917300
2020-05-04,18.950000762939453,19.110000610351562,18.049999237060547,18.530000686645508,17.972209930419922,760900
2020-05-05,19.219999313354492,20.139999389648438,18.729999542236328,19.219999313354492,18.64143943786621,813900
2020-05-06,18.770000457763672,19.93000030517578,18.65999984741211,19.65999984741211,19.068193435668945,831400
2020-05-07,18.389999389648438,19.420000076293945,17.5,18.68000030517578,18.117694854736328,3944800
2020-05-08,19.3700008392334,19.8799991607666,17.25,18.059999465942383,17.516355514526367,2260500
2020-05-11,17.579999923706055,17.81999969482422,16.25,16.579999923706055,16.080909729003906,1441200
2020-05-12,16.610000610351562,17.020000457763672,15.510000228881836,15.569999694824219,15.101310729980469,1237200
2020-05-13,15.510000228881836,15.510000228881836,14.010000228881836,14.369999885559082,13.937434196472168,1159800
2020-05-14,14.199999809265137,15.3100004196167,13.899999618530273,15.069999694824219,14.616362571716309,1582500
2020-05-15,14.819999694824219,14.850000381469727,13.529999732971191,13.84000015258789,13.423389434814453,1934600
2020-05-18,15.0,15.84000015258789,14.760000228881836,15.729999542236328,15.256494522094727,1513900
2020-05-19,15.5,15.5,14.15999984741211,14.199999809265137,13.772551536560059,1111100
2020-05-20,14.479999542236328,15.9399995803833,14.0,14.25,13.821044921875,3134900
2020-05-21,14.210000038146973,14.968999862670898,13.920000076293945,14.529999732971191,14.09261703491211,1232800
2020-05-22,14.619999885559082,14.649999618530273,13.694000244140625,14.039999961853027,13.617368698120117,1147000
2020-05-26,14.619999885559082,15.329999923706055,14.180000305175781,15.0,14.548470497131348,1720100
2020-05-27,15.65999984741211,16.31999969482422,15.380000114440918,15.90999984741211,15.431077003479004,2880400
2020-05-28,15.90999984741211,15.972999572753906,14.819999694824219,15.010000228881836,14.558168411254883,1865200
2020-05-29,15.0,15.119999885559082,14.0600004196167,14.619999885559082,14.17990779876709,15833400
2020-06-01,14.8100004196167,16.579999923706055,14.739999771118164,16.440000534057617,15.945122718811035,2514400
2020-06-02,16.469999313354492,17.09000015258789,16.149999618530273,17.040000915527344,16.527061462402344,1095100
2020-06-03,18.329999923706055,19.8799991607666,18.139999389648438,19.0,18.428062438964844,3012200
2020-06-04,18.829999923706055,20.280000686645508,18.440000534057617,20.239999771118164,19.630733489990234,1825000
2020-06-05,22.1299991607666,23.440000534057617,21.360000610351562,22.84000015258789,22.152469635009766,2728100
2020-06-08,23.530000686645508,24.165000915527344,21.59000015258789,22.440000534057617,21.764511108398438,1530700
2020-06-09,21.479999542236328,21.78499984741211,20.690000534057617,21.040000915527344,20.406652450561523,878100
2020-06-10,20.510000228881836,20.850000381469727,19.290000915527344,19.670000076293945,19.07789421081543,1115300
2020-06-11,18.0,19.600000381469727,17.760000228881836,18.719999313354492,18.156490325927734,1036400
2020-06-12,19.709999084472656,19.959999084472656,18.200000762939453,18.940000534057617,18.3698673248291,1023200
2020-06-15,17.90999984741211,19.65999984741211,17.610000610351562,19.329999923706055,18.748126983642578,750100
2020-06-16,20.65999984741211,20.889999389648438,18.899999618530273,19.3799991607666,18.796621322631836,820800
2020-06-17,19.219999313354492,19.32699966430664,17.650999069213867,17.959999084472656,17.419368743896484,1213900
2020-06-18,17.520000457763672,18.100000381469727,17.06999969482422,17.850000381469727,17.312679290771484,692100
2020-06-19,18.110000610351562,18.889999389648438,17.719999313354492,18.440000534057617,17.884920120239258,2009300
2020-06-22,17.989999771118164,18.479999542236328,17.610000610351562,18.309999465942383,17.758832931518555,943000
2020-06-23,18.469999313354492,18.8700008392334,18.110000610351562,18.59000015258789,18.03040313720703,797500
2020-06-24,18.1200008392334,18.389999389648438,17.1299991607666,17.190000534057617,16.67254638671875,1155700
2020-06-25,17.18000030517578,17.850000381469727,16.780000686645508,17.239999771118164,16.721040725708008,643900
2020-06-26,17.100000381469727,17.729999542236328,16.399999618530273,16.510000228881836,16.013015747070312,1722400
2020-06-29,16.889999389648438,17.780000686645508,16.5,17.68000030517578,17.147796630859375,1003000
2020-06-30,17.68000030517578,17.950000762939453,17.309999465942383,17.809999465942383,17.273883819580078,645800
2020-07-01,17.600000381469727,18.344999313354492,17.1299991607666,17.360000610351562,16.83742904663086,633000
2020-07-02,18.09000015258789,18.31999969482422,17.219999313354492,17.299999237060547,16.77923583984375,566500
2020-07-06,17.770000457763672,18.0,17.40999984741211,17.479999542236328,16.95381736755371,630200
2020-07-07,17.149999618530273,17.3700008392334,16.729999542236328,16.899999618530273,16.391277313232422,511700
2020-07-08,16.65999984741211,17.059999465942383,16.149999618530273,16.559999465942383,16.061508178710938,755700
2020-07-09,16.31999969482422,16.434999465942383,15.170000076293945,15.479999542236328,15.014019966125488,989800
2020-07-10,15.4399995803833,16.200000762939453,15.289999961853027,16.100000381469727,15.615358352661133,665100
2020-07-13,16.280000686645508,16.5049991607666,15.619999885559082,16.239999771118164,15.751143455505371,632000
2020-07-14,16.280000686645508,16.65999984741211,15.720000267028809,16.06999969482422,15.586259841918945,487900
2020-07-15,16.690000534057617,17.670000076293945,16.600000381469727,17.389999389648438,16.86652374267578,903100
2020-07-16,17.059999465942383,17.81399917602539,17.049999237060547,17.709999084472656,17.176891326904297,494900
2020-07-17,17.690000534057617,18.148000717163086,17.10300064086914,17.170000076293945,16.653148651123047,558700
2020-07-20,16.979999542236328,17.100000381469727,16.200000762939453,16.34000015258789,15.84813404083252,620600
2020-07-21,16.700000762939453,17.670000076293945,16.510000228881836,17.420000076293945,16.89562225341797,573100
2020-07-22,17.059999465942383,17.479999542236328,16.8700008392334,17.290000915527344,16.76953887939453,435300
2020-07-23,17.299999237060547,17.979999542236328,17.170000076293945,17.649999618530273,17.11870002746582,392200
2020-07-24,17.68000030517578,18.0,17.43000030517578,17.65999984741211,17.128398895263672,428700
2020-07-27,19.25,20.079999923706055,19.010000228881836,19.6299991607666,19.039094924926758,2746000
2020-07-28,19.25,20.5,19.25,20.030000686645508,19.427059173583984,1316200
2020-07-29,19.950000762939453,20.5049991607666,19.280000686645508,20.049999237060547,19.446453094482422,781700
2020-07-30,19.489999771118164,20.1200008392334,19.219999313354492,19.290000915527344,18.709331512451172,656500
2020-07-31,19.18000030517578,19.299999237060547,18.68000030517578,19.15999984741211,18.5832462310791,696200
2020-08-03,19.399999618530273,19.68000030517578,18.90999984741211,19.530000686645508,18.942106246948242,588200
2020-08-04,19.450000762939453,19.93000030517578,19.190000534057617,19.90999984741211,19.3106689453125,465700
2020-08-05,20.100000381469727,21.260000228881836,20.0,21.260000228881836,20.620031356811523,1155600
2020-08-06,22.31999969482422,23.1299991607666,18.979999542236328,20.1299991607666,19.524045944213867,1883800
2020-08-07,19.8700008392334,20.899999618530273,19.520000457763672,20.81999969482422,20.19327735900879,757700
2020-08-10,20.959999084472656,22.75,20.8700008392334,22.110000610351562,21.44444465637207,1003800
2020-08-11,22.690000534057617,23.219999313354492,21.969999313354492,22.110000610351562,21.44444465637207,699000
2020-08-12,22.309999465942383,22.434999465942383,21.31999969482422,21.8700008392334,21.211668014526367,522600
2020-08-13,21.709999084472656,22.030000686645508,21.389999389648438,21.719999313354492,21.06618309020996,380500
2020-08-14,21.510000228881836,22.3700008392334,21.270000457763672,22.239999771118164,21.570531845092773,291000
2020-08-17,22.040000915527344,22.451000213623047,21.719999313354492,22.06999969482422,21.405649185180664,389900
2020-08-18,21.884000778198242,22.19499969482422,21.420000076293945,22.0,21.33775520324707,898000
2020-08-19,21.989999771118164,22.209999084472656,21.450000762939453,21.8799991607666,21.22136688232422,619800
2020-08-20,21.56999969482422,22.420000076293945,21.075000762939453,21.690000534057617,21.03708839416504,641700
2020-08-21,21.540000915527344,21.969999313354492,20.969999313354492,21.1200008392334,20.48424530029297,510700
2020-08-24,21.25,22.209999084472656,20.799999237060547,22.1299991607666,21.463842391967773,325200
2020-08-25,22.25,22.850000381469727,21.989999771118164,22.239999771118164,21.570531845092773,339900
2020-08-26,22.15999984741211,22.584999084472656,21.75,21.860000610351562,21.20197105407715,301500
2020-08-27,22.030000686645508,22.959999084472656,22.0,22.829999923706055,22.142770767211914,373300
2020-08-28,23.139999389648438,23.219999313354492,22.280000686645508,22.950000762939453,22.259159088134766,338500
2020-08-31,22.639999389648438,22.850000381469727,21.979999542236328,22.100000381469727,21.43474578857422,393100
2020-09-01,21.899999618530273,22.59000015258789,21.530000686645508,22.209999084472656,21.541433334350586,348100
2020-09-02,22.299999237060547,23.309999465942383,22.299999237060547,23.1299991607666,22.433740615844727,340400
2020-09-03,23.25,23.916000366210938,22.860000610351562,23.110000610351562,22.41434097290039,423600
2020-09-04,23.40999984741211,24.260000228881836,22.93000030517578,24.170000076293945,23.442432403564453,758200
2020-09-08,23.760000228881836,24.290000915527344,23.549999237060547,23.81999969482422,23.102968215942383,700900
2020-09-09,23.84000015258789,24.760000228881836,23.385000228881836,24.610000610351562,23.869190216064453,560000
2020-09-10,24.75,25.6299991607666,24.739999771118164,24.920000076293945,24.16985511779785,641400
2020-09-11,25.1299991607666,25.5,24.65999984741211,24.959999084472656,24.20865249633789,429300
2020-09-14,25.25,26.219999313354492,25.0,25.940000534057617,25.15915298461914,433100
2020-09-15,26.15999984741211,26.360000610351562,25.15999984741211,25.190000534057617,24.431730270385742,393100
2020-09-16,25.440000534057617,25.600000381469727,24.799999237060547,24.950000762939453,24.198955535888672,511600
2020-09-17,24.729999542236328,25.079999923706055,24.25,24.469999313354492,23.733402252197266,475900
2020-09-18,24.469999313354492,24.469999313354492,23.0,23.360000610351562,22.656816482543945,1204600
2020-09-21,22.68000030517578,22.739999771118164,21.93000030517578,22.190000534057617,21.522037506103516,706100
2020-09-22,22.450000762939453,22.600000381469727,21.65999984741211,22.059999465942383,21.39594841003418,369300
2020-09-23,22.280000686645508,23.190000534057617,22.15999984741211,22.399999618530273,21.72571563720703,606800
2020-09-24,22.5,23.18000030517578,21.829999923706055,22.770000457763672,22.084577560424805,446800
2020-09-25,22.420000076293945,23.145000457763672,22.420000076293945,23.030000686645508,22.336750030517578,297000
2020-09-28,23.479999542236328,24.100000381469727,23.34000015258789,23.65999984741211,22.947784423828125,283600
2020-09-29,24.229999542236328,24.920000076293945,23.43000030517578,23.600000381469727,22.88959503173828,636100
2020-09-30,23.559999465942383,24.549999237060547,23.549999237060547,24.200000762939453,23.471532821655273,886900
2020-10-01,24.25,25.219999313354492,23.950000762939453,24.75,24.004976272583008,432400
2020-10-02,24.020000457763672,25.40999984741211,24.020000457763672,25.31999969482422,24.557815551757812,378100
2020-10-05,25.530000686645508,26.139999389648438,25.450000762939453,26.09000015258789,25.304637908935547,243300
2020-10-06,26.399999618530273,26.610000610351562,25.18000030517578,25.200000762939453,24.441429138183594,466500
2020-10-07,27.079999923706055,28.27899932861328,26.75,27.110000610351562,26.293933868408203,1165100
2020-10-08,27.399999618530273,27.90999984741211,26.790000915527344,26.979999542236328,26.1678466796875,392900
2020-10-09,27.100000381469727,27.65999984741211,26.600000381469727,27.489999771118164,26.66249656677246,391200
2020-10-12,27.440000534057617,27.940000534057617,26.940000534057617,27.309999465942383,26.487913131713867,437700
2020-10-13,27.34000015258789,28.260000228881836,27.200000762939453,27.65999984741211,26.827377319335938,513700
2020-10-14,27.530000686645508,28.25,27.280000686645508,27.579999923706055,26.749786376953125,358100
2020-10-15,27.06999969482422,28.950000762939453,26.780000686645508,28.639999389648438,27.77787971496582,540600
2020-10-16,28.729999542236328,29.469999313354492,28.229999542236328,28.719999313354492,27.855470657348633,413400
2020-10-19,28.75,30.190000534057617,28.73699951171875,29.989999771118164,29.087238311767578,738600
2020-10-20,30.020000457763672,30.850000381469727,29.80500030517578,30.5,29.58188819885254,462600
2020-10-21,30.360000610351562,31.389999389648438,30.09000015258789,31.190000534057617,30.251117706298828,528400
2020-10-22,31.389999389648438,32.380001068115234,31.03499984741211,32.16999816894531,31.201616287231445,643800
2020-10-23,32.16999816894531,33.189998626708984,32.16999816894531,32.599998474121094,31.618675231933594,761800
2020-10-26,33.790000915527344,33.9900016784668,31.579999923706055,31.959999084472656,30.997940063476562,1253300
2020-10-27,32.34000015258789,33.5,31.309999465942383,32.540000915527344,31.560482025146484,840600
2020-10-28,31.5,32.08000183105469,30.8700008392334,31.25,30.309310913085938,920000
2020-10-29,33.25,36.0,32.51499938964844,34.75,33.70395278930664,2102000
2020-10-30,35.0,35.67599868774414,32.61000061035156,32.900001525878906,31.909645080566406,837900
2020-11-02,33.43000030517578,35.970001220703125,33.369998931884766,34.970001220703125,33.91733169555664,1070600
2020-11-03,35.439998626708984,36.06999969482422,34.0890007019043,35.75,34.67385482788086,509300
2020-11-04,34.619998931884766,35.66999816894531,34.04999923706055,34.41999816894531,33.383888244628906,624500
2020-11-05,34.66999816894531,35.125,34.060001373291016,34.22999954223633,33.199607849121094,442700
2020-11-06,34.5,34.709999084472656,33.06999969482422,33.63999938964844,32.62736892700195,556300
2020-11-09,35.9900016784668,37.83000183105469,34.41999816894531,35.33000183105469,34.26649856567383,1090300
2020-11-10,35.959999084472656,36.97999954223633,35.5099983215332,36.06999969482422,34.984222412109375,412300
2020-11-11,36.529998779296875,36.599998474121094,35.40999984741211,35.84000015258789,34.76114273071289,345200
2020-11-12,35.79999923706055,36.18000030517578,35.099998474121094,35.43000030517578,34.363487243652344,551600
2020-11-13,36.02000045776367,38.15999984741211,35.9900016784668,38.0,36.85612487792969,392700
2020-11-16,38.97999954223633,39.97999954223633,38.099998474121094,39.7599983215332,38.563148498535156,453300
2020-11-17,39.06999969482422,41.33000183105469,38.93000030517578,40.68000030517578,39.455448150634766,580600
2020-11-18,40.79999923706055,42.400001525878906,40.52000045776367,41.20000076293945,39.95979309082031,546400
2020-11-19,40.72999954223633,42.34000015258789,39.66999816894531,42.25,40.97819137573242,538900
2020-11-20,41.880001068115234,43.06999969482422,41.880001068115234,42.18000030517578,40.91029739379883,470700
2020-11-23,42.9900016784668,44.380001068115234,42.33000183105469,43.5,42.19055938720703,582300
2020-11-24,44.369998931884766,44.880001068115234,43.209999084472656,43.97999954223633,42.65611267089844,485000
2020-11-25,43.220001220703125,43.939998626708984,43.0,43.400001525878906,42.09357452392578,343000
2020-11-27,43.40999984741211,43.7599983215332,42.564998626708984,43.18000030517578,41.88019561767578,136700
2020-11-30,43.380001068115234,43.525001525878906,41.47800064086914,41.66999816894531,40.4156494140625,436800
2020-12-01,42.56999969482422,42.86000061035156,41.939998626708984,42.279998779296875,41.00728988647461,264800
2020-12-02,41.88999938964844,42.720001220703125,40.54999923706055,42.529998779296875,41.24976348876953,319400
2020-12-03,42.9900016784668,44.52000045776367,42.31999969482422,43.45000076293945,42.14206314086914,304400
2020-12-04,43.7400016784668,45.0,43.13999938964844,44.86000061035156,43.50962448120117,294000
2020-12-07,44.7599983215332,45.20000076293945,43.93000030517578,44.90999984741211,43.5581169128418,296100
2020-12-08,44.310001373291016,46.25,44.29999923706055,46.04999923706055,44.66380310058594,404800
2020-12-09,45.70000076293945,47.13999938964844,45.459999084472656,46.09000015258789,45.094295501708984,532900
2020-12-10,43.90999984741211,45.7599983215332,42.7400016784668,45.61000061035156,44.62466812133789,702500
2020-12-11,45.099998474121094,45.650001525878906,42.84000015258789,43.75,42.80484390258789,521400
2020-12-14,44.630001068115234,45.29999923706055,41.90999984741211,41.970001220703125,41.06330108642578,493300
2020-12-15,42.369998931884766,43.529998779296875,41.599998474121094,42.9900016784668,42.0612678527832,315100
2020-12-16,43.25,43.25,41.75299835205078,42.43000030517578,41.51336669921875,395200
2020-12-17,42.75,42.94499969482422,41.02000045776367,42.0099983215332,41.10243606567383,405200
2020-12-18,42.29999923706055,42.560001373291016,41.66999816894531,41.75,40.848052978515625,1745500
2020-12-21,41.22999954223633,41.72999954223633,40.209999084472656,40.88999938964844,40.00663375854492,375100
2020-12-22,40.91999816894531,41.630001068115234,39.709999084472656,41.2599983215332,40.36863708496094,304400
2020-12-23,41.59000015258789,42.18000030517578,41.27000045776367,42.040000915527344,41.13179016113281,200600
2020-12-24,42.540000915527344,42.540000915527344,41.290000915527344,41.529998779296875,40.6328010559082,80300
2020-12-28,41.790000915527344,41.9900016784668,41.040000915527344,41.189998626708984,40.30015182495117,1471500
2020-12-29,41.189998626708984,41.404998779296875,39.91999816894531,41.029998779296875,40.14360427856445,1819700
2020-12-30,41.880001068115234,42.720001220703125,40.599998474121094,41.11000061035156,40.221885681152344,320200
