Date,Open,High,Low,Close,Adj Close,Volume
2017-11-06,9.680000305175781,9.680000305175781,9.630000114440918,9.630000114440918,9.630000114440918,32600
2017-11-07,9.630000114440918,9.630000114440918,9.630000114440918,9.630000114440918,9.630000114440918,0
2017-11-08,9.600000381469727,9.649999618530273,9.600000381469727,9.649999618530273,9.649999618530273,7000
2017-11-09,9.609999656677246,9.609999656677246,9.609999656677246,9.609999656677246,9.609999656677246,340600
2017-11-10,9.619999885559082,9.619999885559082,9.600000381469727,9.600000381469727,9.600000381469727,748300
2017-11-13,9.609999656677246,9.609999656677246,9.600000381469727,9.600000381469727,9.600000381469727,129500
2017-11-14,9.600000381469727,9.600000381469727,9.600000381469727,9.600000381469727,9.600000381469727,0
2017-11-15,9.609999656677246,9.609999656677246,9.609999656677246,9.609999656677246,9.609999656677246,20000
2017-11-16,9.609999656677246,9.609999656677246,9.609999656677246,9.609999656677246,9.609999656677246,5000
2017-11-17,9.609999656677246,9.609999656677246,9.609999656677246,9.609999656677246,9.609999656677246,30000
2017-11-20,9.609999656677246,9.609999656677246,9.609999656677246,9.609999656677246,9.609999656677246,6300
2017-11-21,9.649999618530273,9.649999618530273,9.649999618530273,9.649999618530273,9.649999618530273,600
2017-11-22,9.649999618530273,9.649999618530273,9.649999618530273,9.649999618530273,9.649999618530273,0
2017-11-24,9.649999618530273,9.649999618530273,9.649999618530273,9.649999618530273,9.649999618530273,0
2017-11-27,9.649999618530273,9.649999618530273,9.649999618530273,9.649999618530273,9.649999618530273,0
2017-11-28,9.649999618530273,9.649999618530273,9.649999618530273,9.649999618530273,9.649999618530273,0
2017-11-29,9.649999618530273,9.649999618530273,9.649999618530273,9.649999618530273,9.649999618530273,0
2017-11-30,9.619999885559082,9.649999618530273,9.619999885559082,9.649999618530273,9.649999618530273,300
2017-12-01,9.649999618530273,9.649999618530273,9.649999618530273,9.649999618530273,9.649999618530273,0
2017-12-04,9.600000381469727,9.649999618530273,9.600000381469727,9.649999618530273,9.649999618530273,16900
2017-12-05,9.635000228881836,9.649999618530273,9.619000434875488,9.649999618530273,9.649999618530273,2200
2017-12-06,9.649999618530273,9.649999618530273,9.630000114440918,9.630000114440918,9.630000114440918,756400
2017-12-07,9.630000114440918,9.630000114440918,9.630000114440918,9.630000114440918,9.630000114440918,620000
2017-12-08,9.65999984741211,9.65999984741211,9.65999984741211,9.65999984741211,9.65999984741211,200
2017-12-11,9.609999656677246,9.65999984741211,9.59000015258789,9.619999885559082,9.619999885559082,24400
2017-12-12,9.619999885559082,9.619999885559082,9.619999885559082,9.619999885559082,9.619999885559082,0
2017-12-13,9.619999885559082,9.619999885559082,9.600000381469727,9.600000381469727,9.600000381469727,17100
2017-12-14,9.600000381469727,9.600000381469727,9.600000381469727,9.600000381469727,9.600000381469727,0
2017-12-15,9.649999618530273,9.649999618530273,9.619999885559082,9.649999618530273,9.649999618530273,35900
2017-12-18,9.649999618530273,9.649999618530273,9.649999618530273,9.649999618530273,9.649999618530273,0
2017-12-19,9.619999885559082,9.630000114440918,9.600000381469727,9.609999656677246,9.609999656677246,20700
2017-12-20,9.619999885559082,9.619999885559082,9.619999885559082,9.619999885559082,9.619999885559082,16300
2017-12-21,9.630000114440918,9.630000114440918,9.619999885559082,9.619999885559082,9.619999885559082,5400
2017-12-22,9.619999885559082,9.619999885559082,9.619999885559082,9.619999885559082,9.619999885559082,0
2017-12-26,9.619999885559082,9.619999885559082,9.619999885559082,9.619999885559082,9.619999885559082,0
2017-12-27,9.649999618530273,9.649999618530273,9.59000015258789,9.59000015258789,9.59000015258789,1900
2017-12-28,9.59000015258789,9.59000015258789,9.59000015258789,9.59000015258789,9.59000015258789,0
2017-12-29,9.619999885559082,9.649999618530273,9.619999885559082,9.649999618530273,9.649999618530273,5300
2018-01-02,9.630000114440918,9.670000076293945,9.630000114440918,9.630000114440918,9.630000114440918,251200
2018-01-03,9.630000114440918,9.630000114440918,9.630000114440918,9.630000114440918,9.630000114440918,87500
2018-01-04,9.670000076293945,9.670000076293945,9.630000114440918,9.630000114440918,9.630000114440918,51600
2018-01-05,9.670000076293945,9.670000076293945,9.670000076293945,9.670000076293945,9.670000076293945,1800
2018-01-08,9.670000076293945,9.670000076293945,9.630000114440918,9.649999618530273,9.649999618530273,110800
2018-01-09,9.640000343322754,9.640000343322754,9.640000343322754,9.640000343322754,9.640000343322754,600
2018-01-10,9.649999618530273,9.670000076293945,9.640000343322754,9.640000343322754,9.640000343322754,153300
2018-01-11,9.670000076293945,9.670000076293945,9.630000114440918,9.65999984741211,9.65999984741211,1490200
2018-01-12,9.670000076293945,9.670000076293945,9.619999885559082,9.65999984741211,9.65999984741211,101000
2018-01-16,9.649999618530273,9.649999618530273,9.649999618530273,9.649999618530273,9.649999618530273,300
2018-01-17,9.670000076293945,9.670000076293945,9.649999618530273,9.649999618530273,9.649999618530273,30600
2018-01-18,9.649999618530273,9.649999618530273,9.649999618530273,9.649999618530273,9.649999618530273,600
2018-01-19,9.670000076293945,9.680000305175781,9.65999984741211,9.65999984741211,9.65999984741211,27700
2018-01-22,9.670000076293945,9.670000076293945,9.670000076293945,9.670000076293945,9.670000076293945,3600
2018-01-23,9.670000076293945,9.670000076293945,9.670000076293945,9.670000076293945,9.670000076293945,14100
2018-01-24,9.65999984741211,9.65999984741211,9.65999984741211,9.65999984741211,9.65999984741211,200
2018-01-25,9.630000114440918,9.630000114440918,9.619999885559082,9.619999885559082,9.619999885559082,87000
2018-01-26,9.640000343322754,9.640000343322754,9.640000343322754,9.640000343322754,9.640000343322754,9200
2018-01-29,9.640000343322754,9.640000343322754,9.63700008392334,9.640000343322754,9.640000343322754,49900
2018-01-30,9.640000343322754,9.640000343322754,9.640000343322754,9.640000343322754,9.640000343322754,24000
2018-01-31,9.640000343322754,9.640000343322754,9.640000343322754,9.640000343322754,9.640000343322754,260300
2018-02-01,9.670000076293945,9.680000305175781,9.670000076293945,9.680000305175781,9.680000305175781,15500
2018-02-02,9.680000305175781,9.6899995803833,9.670000076293945,9.6899995803833,9.6899995803833,87700
2018-02-05,9.6899995803833,9.710000038146973,9.6899995803833,9.710000038146973,9.710000038146973,218200
2018-02-06,9.699999809265137,9.720000267028809,9.684000015258789,9.699999809265137,9.699999809265137,1073600
2018-02-07,9.710000038146973,9.710000038146973,9.6899995803833,9.6899995803833,9.6899995803833,162000
2018-02-08,9.699999809265137,9.699999809265137,9.699999809265137,9.699999809265137,9.699999809265137,100
2018-02-09,9.680000305175781,9.6899995803833,9.649999618530273,9.6899995803833,9.6899995803833,6400
2018-02-12,9.699999809265137,9.699999809265137,9.649999618530273,9.649999618530273,9.649999618530273,1500
2018-02-13,9.649999618530273,9.649999618530273,9.649999618530273,9.649999618530273,9.649999618530273,0
2018-02-14,9.699999809265137,9.699999809265137,9.689000129699707,9.699999809265137,9.699999809265137,42700
2018-02-15,9.699999809265137,9.739999771118164,9.699999809265137,9.729999542236328,9.729999542236328,487800
2018-02-16,9.710000038146973,9.729999542236328,9.699999809265137,9.729999542236328,9.729999542236328,6300
2018-02-20,9.710000038146973,9.729999542236328,9.710000038146973,9.729999542236328,9.729999542236328,3000
2018-02-21,9.720000267028809,9.729999542236328,9.710000038146973,9.729999542236328,9.729999542236328,17300
2018-02-22,9.739999771118164,9.739999771118164,9.739999771118164,9.739999771118164,9.739999771118164,300
2018-02-23,9.739999771118164,9.739999771118164,9.739999771118164,9.739999771118164,9.739999771118164,0
2018-02-26,9.720000267028809,9.75,9.720000267028809,9.75,9.75,926200
2018-02-27,9.739999771118164,9.779999732971191,9.649999618530273,9.760000228881836,9.760000228881836,10800
2018-02-28,9.779999732971191,9.779999732971191,9.710000038146973,9.760000228881836,9.760000228881836,800
2018-03-01,9.779999732971191,9.779999732971191,9.75,9.75,9.75,500
2018-03-02,9.708000183105469,9.770000457763672,9.708000183105469,9.770000457763672,9.770000457763672,2900
2018-03-05,9.770000457763672,9.770000457763672,9.770000457763672,9.770000457763672,9.770000457763672,0
2018-03-06,9.779999732971191,9.779999732971191,9.75,9.75,9.75,1300
2018-03-07,9.729999542236328,9.770000457763672,9.729999542236328,9.770000457763672,9.770000457763672,520600
2018-03-08,9.770000457763672,9.779999732971191,9.770000457763672,9.770000457763672,9.770000457763672,15700
2018-03-09,9.699999809265137,9.699999809265137,9.699999809265137,9.699999809265137,9.699999809265137,200000
2018-03-12,9.699999809265137,9.699999809265137,9.699999809265137,9.699999809265137,9.699999809265137,0
2018-03-13,9.770000457763672,9.789999961853027,9.770000457763672,9.789999961853027,9.789999961853027,1400
2018-03-14,9.789999961853027,9.789999961853027,9.789999961853027,9.789999961853027,9.789999961853027,0
2018-03-15,9.6899995803833,9.789999961853027,9.680000305175781,9.789999961853027,9.789999961853027,105100
2018-03-16,9.789999961853027,9.789999961853027,9.789999961853027,9.789999961853027,9.789999961853027,0
2018-03-19,9.699999809265137,9.770000457763672,9.699999809265137,9.760000228881836,9.760000228881836,72300
2018-03-20,9.789999961853027,9.789999961853027,9.760000228881836,9.789999961853027,9.789999961853027,1000
2018-03-21,9.789999961853027,9.789999961853027,9.789999961853027,9.789999961853027,9.789999961853027,0
2018-03-22,9.649999618530273,9.779999732971191,9.649999618530273,9.779999732971191,9.779999732971191,2100
2018-03-23,9.779999732971191,9.779999732971191,9.779999732971191,9.779999732971191,9.779999732971191,0
2018-03-26,9.800000190734863,9.800000190734863,9.720000267028809,9.75,9.75,251900
2018-03-27,9.770000457763672,9.800000190734863,9.729999542236328,9.779999732971191,9.779999732971191,320400
2018-03-28,9.779999732971191,9.779999732971191,9.779999732971191,9.779999732971191,9.779999732971191,0
2018-03-29,9.800000190734863,9.800000190734863,9.729999542236328,9.739999771118164,9.739999771118164,1000
2018-04-02,9.739999771118164,9.739999771118164,9.739999771118164,9.739999771118164,9.739999771118164,0
2018-04-03,9.819999694824219,9.819999694824219,9.739999771118164,9.75,9.75,2800
2018-04-04,9.699999809265137,9.699999809265137,9.699999809265137,9.699999809265137,9.699999809265137,3900
2018-04-05,9.819999694824219,9.819999694824219,9.699999809265137,9.699999809265137,9.699999809265137,5300
2018-04-06,9.699999809265137,9.789999961853027,9.699999809265137,9.789999961853027,9.789999961853027,2300
2018-04-09,9.789999961853027,9.789999961853027,9.789999961853027,9.789999961853027,9.789999961853027,0
2018-04-10,9.789999961853027,9.789999961853027,9.789999961853027,9.789999961853027,9.789999961853027,0
2018-04-11,9.699999809265137,9.800000190734863,9.699999809265137,9.800000190734863,9.800000190734863,400
2018-04-12,9.75,9.75,9.710000038146973,9.739999771118164,9.739999771118164,79600
2018-04-13,9.770000457763672,9.8100004196167,9.75,9.8100004196167,9.8100004196167,400
2018-04-16,9.819999694824219,9.819999694824219,9.770000457763672,9.770000457763672,9.770000457763672,5700
2018-04-17,9.770000457763672,9.770000457763672,9.770000457763672,9.770000457763672,9.770000457763672,0
2018-04-18,9.770000457763672,9.770000457763672,9.770000457763672,9.770000457763672,9.770000457763672,0
2018-04-19,9.770000457763672,9.770000457763672,9.770000457763672,9.770000457763672,9.770000457763672,0
2018-04-20,9.770000457763672,9.770000457763672,9.770000457763672,9.770000457763672,9.770000457763672,0
2018-04-23,9.770000457763672,9.770000457763672,9.770000457763672,9.770000457763672,9.770000457763672,0
2018-04-24,9.770000457763672,9.770000457763672,9.770000457763672,9.770000457763672,9.770000457763672,0
2018-04-25,9.720000267028809,9.720000267028809,9.720000267028809,9.720000267028809,9.720000267028809,1400
2018-04-26,9.720000267028809,9.720000267028809,9.720000267028809,9.720000267028809,9.720000267028809,0
2018-04-27,9.720000267028809,9.720000267028809,9.720000267028809,9.720000267028809,9.720000267028809,0
2018-04-30,9.75,9.75,9.75,9.75,9.75,77300
2018-05-01,9.75,9.75,9.75,9.75,9.75,0
2018-05-02,9.75,9.75,9.75,9.75,9.75,0
2018-05-03,9.75,9.75,9.75,9.75,9.75,0
2018-05-04,9.75,9.75,9.75,9.75,9.75,0
2018-05-07,9.720999717712402,9.720999717712402,9.720000267028809,9.720000267028809,9.720000267028809,200
2018-05-08,9.739999771118164,9.779999732971191,9.720000267028809,9.739999771118164,9.739999771118164,150200
2018-05-09,9.739999771118164,9.779999732971191,9.739999771118164,9.779999732971191,9.779999732971191,103800
2018-05-10,9.739999771118164,9.739999771118164,9.739999771118164,9.739999771118164,9.739999771118164,100000
2018-05-11,9.739999771118164,9.739999771118164,9.739999771118164,9.739999771118164,9.739999771118164,0
2018-05-14,9.779999732971191,9.789999961853027,9.779999732971191,9.789999961853027,9.789999961853027,800
2018-05-15,9.739999771118164,9.739999771118164,9.739999771118164,9.739999771118164,9.739999771118164,178600
2018-05-16,9.789999961853027,9.789999961853027,9.779999732971191,9.78499984741211,9.78499984741211,4000
2018-05-17,9.78499984741211,9.78499984741211,9.78499984741211,9.78499984741211,9.78499984741211,0
2018-05-18,9.78499984741211,9.78499984741211,9.78499984741211,9.78499984741211,9.78499984741211,0
2018-05-21,9.78499984741211,9.78499984741211,9.78499984741211,9.78499984741211,9.78499984741211,0
2018-05-22,9.779999732971191,9.819999694824219,9.779999732971191,9.800000190734863,9.800000190734863,18100
2018-05-23,9.800000190734863,9.800000190734863,9.800000190734863,9.800000190734863,9.800000190734863,0
2018-05-24,9.829999923706055,9.869999885559082,9.800000190734863,9.84000015258789,9.84000015258789,317400
2018-05-25,9.859999656677246,9.859999656677246,9.829999923706055,9.829999923706055,9.829999923706055,19200
2018-05-29,9.829999923706055,9.829999923706055,9.819999694824219,9.819999694824219,9.819999694824219,45900
2018-05-30,9.819999694824219,9.819999694824219,9.819999694824219,9.819999694824219,9.819999694824219,600
2018-05-31,9.829999923706055,9.836000442504883,9.819999694824219,9.819999694824219,9.819999694824219,22300
2018-06-01,9.859999656677246,9.859999656677246,9.829999923706055,9.850000381469727,9.850000381469727,26600
2018-06-04,9.850000381469727,9.850000381469727,9.850000381469727,9.850000381469727,9.850000381469727,0
2018-06-05,9.850000381469727,9.850000381469727,9.850000381469727,9.850000381469727,9.850000381469727,0
2018-06-06,9.850000381469727,9.850000381469727,9.850000381469727,9.850000381469727,9.850000381469727,100
2018-06-07,9.850000381469727,9.850000381469727,9.850000381469727,9.850000381469727,9.850000381469727,0
2018-06-08,9.850000381469727,9.850000381469727,9.850000381469727,9.850000381469727,9.850000381469727,0
2018-06-11,9.869999885559082,9.890000343322754,9.850000381469727,9.890000343322754,9.890000343322754,107200
2018-06-12,9.899999618530273,9.899999618530273,9.875,9.899999618530273,9.899999618530273,5500
2018-06-13,9.899999618530273,9.899999618530273,9.869999885559082,9.869999885559082,9.869999885559082,4300
2018-06-14,9.899999618530273,9.899999618530273,9.890000343322754,9.890000343322754,9.890000343322754,265600
2018-06-15,9.859999656677246,9.899999618530273,9.859999656677246,9.899999618530273,9.899999618530273,201500
2018-06-18,9.890000343322754,9.899999618530273,9.890000343322754,9.899999618530273,9.899999618530273,500
2018-06-19,9.890000343322754,9.899999618530273,9.890000343322754,9.899999618530273,9.899999618530273,700
2018-06-20,9.90999984741211,9.90999984741211,9.899999618530273,9.90999984741211,9.90999984741211,1900
2018-06-21,9.890000343322754,9.920000076293945,9.890000343322754,9.920000076293945,9.920000076293945,3400
2018-06-22,9.890000343322754,9.920000076293945,9.890000343322754,9.920000076293945,9.920000076293945,2200
2018-06-25,9.880000114440918,9.890000343322754,9.859999656677246,9.890000343322754,9.890000343322754,30500
2018-06-26,9.859999656677246,9.890000343322754,9.850000381469727,9.890000343322754,9.890000343322754,19900
2018-06-27,9.890000343322754,9.890000343322754,9.890000343322754,9.890000343322754,9.890000343322754,300
2018-06-28,9.869999885559082,9.869999885559082,9.869999885559082,9.869999885559082,9.869999885559082,11600
2018-06-29,9.859999656677246,9.890000343322754,9.850000381469727,9.890000343322754,9.890000343322754,35900
2018-07-02,9.890000343322754,9.890000343322754,9.890000343322754,9.890000343322754,9.890000343322754,0
2018-07-03,9.890000343322754,9.890000343322754,9.850000381469727,9.890000343322754,9.890000343322754,53200
2018-07-05,9.890000343322754,9.890000343322754,9.890000343322754,9.890000343322754,9.890000343322754,700
2018-07-06,9.869999885559082,9.880000114440918,9.869999885559082,9.880000114440918,9.880000114440918,3000
2018-07-09,9.880000114440918,9.880000114440918,9.880000114440918,9.880000114440918,9.880000114440918,0
2018-07-10,9.880000114440918,9.880000114440918,9.880000114440918,9.880000114440918,9.880000114440918,0
2018-07-11,9.880000114440918,9.880000114440918,9.880000114440918,9.880000114440918,9.880000114440918,0
2018-07-12,9.880000114440918,9.880000114440918,9.880000114440918,9.880000114440918,9.880000114440918,0
2018-07-13,9.880000114440918,9.880000114440918,9.880000114440918,9.880000114440918,9.880000114440918,0
2018-07-16,9.880000114440918,9.880000114440918,9.880000114440918,9.880000114440918,9.880000114440918,0
2018-07-17,9.880000114440918,9.880000114440918,9.880000114440918,9.880000114440918,9.880000114440918,100
2018-07-18,9.875,9.880000114440918,9.875,9.880000114440918,9.880000114440918,29100
2018-07-19,9.880000114440918,9.880000114440918,9.880000114440918,9.880000114440918,9.880000114440918,13000
2018-07-20,9.859999656677246,9.899999618530273,9.859999656677246,9.899999618530273,9.899999618530273,175000
2018-07-23,9.899999618530273,9.899999618530273,9.895000457763672,9.895000457763672,9.895000457763672,6100
2018-07-24,9.890000343322754,11.0,9.890000343322754,10.09000015258789,10.09000015258789,16600
2018-07-25,9.949999809265137,10.069999694824219,9.949999809265137,10.029999732971191,10.029999732971191,16600
2018-07-26,10.029999732971191,10.029999732971191,9.949999809265137,9.949999809265137,9.949999809265137,755500
2018-07-27,9.949999809265137,9.949999809265137,9.949999809265137,9.949999809265137,9.949999809265137,8500
2018-07-30,9.989999771118164,9.989999771118164,9.949999809265137,9.949999809265137,9.949999809265137,6800
2018-07-31,9.949999809265137,9.954999923706055,9.930000305175781,9.949999809265137,9.949999809265137,351100
2018-08-01,9.960000038146973,9.960000038146973,9.960000038146973,9.960000038146973,9.960000038146973,4600
2018-08-02,9.949999809265137,9.970000267028809,9.949999809265137,9.949999809265137,9.949999809265137,5300
2018-08-03,10.015000343322754,10.015000343322754,9.949999809265137,9.949999809265137,9.949999809265137,20900
2018-08-06,9.960000038146973,9.96500015258789,9.930000305175781,9.949999809265137,9.949999809265137,182300
2018-08-07,9.949999809265137,9.960000038146973,9.9399995803833,9.9399995803833,9.9399995803833,22600
2018-08-08,9.9399995803833,9.9399995803833,9.9399995803833,9.9399995803833,9.9399995803833,1200
2018-08-09,9.949999809265137,9.949999809265137,9.9399995803833,9.9399995803833,9.9399995803833,1100
2018-08-10,9.9399995803833,9.9399995803833,9.920000076293945,9.9399995803833,9.9399995803833,1500
2018-08-13,9.930000305175781,9.930000305175781,9.850000381469727,9.930000305175781,9.930000305175781,9000
2018-08-14,9.899999618530273,9.970000267028809,9.899999618530273,9.970000267028809,9.970000267028809,1100
2018-08-15,9.970000267028809,9.970000267028809,9.970000267028809,9.970000267028809,9.970000267028809,0
2018-08-16,9.970000267028809,9.970000267028809,9.970000267028809,9.970000267028809,9.970000267028809,0
2018-08-17,9.970000267028809,9.970000267028809,9.970000267028809,9.970000267028809,9.970000267028809,100
2018-08-20,9.970000267028809,9.970000267028809,9.960000038146973,9.960000038146973,9.960000038146973,2100
2018-08-21,9.960000038146973,9.960000038146973,9.960000038146973,9.960000038146973,9.960000038146973,0
2018-08-22,9.960000038146973,9.960000038146973,9.960000038146973,9.960000038146973,9.960000038146973,0
2018-08-23,9.979999542236328,9.979999542236328,9.949999809265137,9.949999809265137,9.949999809265137,13500
2018-08-24,9.970000267028809,9.970000267028809,9.970000267028809,9.970000267028809,9.970000267028809,500
2018-08-27,9.970000267028809,9.970000267028809,9.970000267028809,9.970000267028809,9.970000267028809,900
2018-08-28,9.970000267028809,9.970000267028809,9.970000267028809,9.970000267028809,9.970000267028809,0
2018-08-29,9.970000267028809,9.970000267028809,9.970000267028809,9.970000267028809,9.970000267028809,0
2018-08-30,9.970000267028809,9.993000030517578,9.970000267028809,9.989999771118164,9.989999771118164,6500
2018-08-31,9.989999771118164,9.989999771118164,9.989999771118164,9.989999771118164,9.989999771118164,2000
2018-09-04,9.989999771118164,10.0,9.989999771118164,9.989999771118164,9.989999771118164,28900
2018-09-05,9.989999771118164,9.989999771118164,9.989999771118164,9.989999771118164,9.989999771118164,25200
2018-09-06,9.989999771118164,9.989999771118164,9.989999771118164,9.989999771118164,9.989999771118164,0
2018-09-07,9.989999771118164,9.989999771118164,9.989999771118164,9.989999771118164,9.989999771118164,0
2018-09-10,10.069999694824219,10.069999694824219,10.069999694824219,10.069999694824219,10.069999694824219,500
2018-09-11,10.020000457763672,10.069999694824219,10.0,10.050000190734863,10.050000190734863,5600
2018-09-12,10.0,10.050000190734863,9.904999732971191,10.050000190734863,10.050000190734863,7000
2018-09-13,10.050000190734863,10.050000190734863,10.050000190734863,10.050000190734863,10.050000190734863,1000
2018-09-14,10.029999732971191,10.029999732971191,10.029999732971191,10.029999732971191,10.029999732971191,900
2018-09-17,9.920000076293945,10.050000190734863,9.920000076293945,10.050000190734863,10.050000190734863,200
2018-09-18,9.989999771118164,10.050000190734863,9.989999771118164,10.039999961853027,10.039999961853027,1200
2018-09-19,10.069999694824219,11.0,10.069999694824219,11.0,11.0,3800
2018-09-20,10.050000190734863,10.050000190734863,10.029999732971191,10.050000190734863,10.050000190734863,2900
2018-09-21,10.079999923706055,10.079999923706055,9.90999984741211,9.90999984741211,9.90999984741211,3500
2018-09-24,10.010000228881836,10.229999542236328,9.899999618530273,9.949999809265137,9.949999809265137,7200
2018-09-25,10.100000381469727,10.890000343322754,9.949999809265137,9.949999809265137,9.949999809265137,1200
2018-09-26,10.079999923706055,10.079999923706055,10.069999694824219,10.069999694824219,10.069999694824219,200
2018-09-27,10.050000190734863,10.050000190734863,10.029999732971191,10.050000190734863,10.050000190734863,3300
2018-09-28,10.0600004196167,10.079999923706055,10.0600004196167,10.079999923706055,10.079999923706055,700
2018-10-01,10.079999923706055,10.079999923706055,10.079999923706055,10.079999923706055,10.079999923706055,0
2018-10-02,10.079999923706055,10.079999923706055,10.079999923706055,10.079999923706055,10.079999923706055,0
2018-10-03,10.050000190734863,10.100000381469727,9.920000076293945,10.100000381469727,10.100000381469727,155900
2018-10-04,10.069999694824219,10.100000381469727,10.069999694824219,10.100000381469727,10.100000381469727,253300
2018-10-05,10.100000381469727,10.100000381469727,10.100000381469727,10.100000381469727,10.100000381469727,0
2018-10-08,10.100000381469727,10.100000381469727,10.100000381469727,10.100000381469727,10.100000381469727,0
2018-10-09,10.100000381469727,10.100000381469727,10.100000381469727,10.100000381469727,10.100000381469727,0
2018-10-10,10.069999694824219,10.069999694824219,10.039999961853027,10.069999694824219,10.069999694824219,94800
2018-10-11,10.069999694824219,10.069999694824219,10.069999694824219,10.069999694824219,10.069999694824219,4900
2018-10-12,10.050000190734863,10.069999694824219,10.050000190734863,10.069999694824219,10.069999694824219,400
2018-10-15,10.069999694824219,10.069999694824219,10.050000190734863,10.050000190734863,10.050000190734863,2400
2018-10-16,10.100000381469727,10.100000381469727,10.050000190734863,10.069999694824219,10.069999694824219,500
2018-10-17,10.050000190734863,10.085000038146973,10.050000190734863,10.050000190734863,10.050000190734863,1500
2018-10-18,10.039999961853027,10.079999923706055,10.039999961853027,10.079999923706055,10.079999923706055,157500
2018-10-19,10.079999923706055,10.088000297546387,10.0600004196167,10.079999923706055,10.079999923706055,9500
2018-10-22,10.079999923706055,10.079999923706055,10.079999923706055,10.079999923706055,10.079999923706055,6800
2018-10-23,10.079999923706055,10.079999923706055,10.079999923706055,10.079999923706055,10.079999923706055,0
2018-10-24,10.0600004196167,10.0600004196167,10.0600004196167,10.0600004196167,10.0600004196167,1500
2018-10-25,10.079999923706055,10.100000381469727,10.069999694824219,10.079999923706055,10.079999923706055,12200
2018-10-26,10.069999694824219,10.079999923706055,10.069999694824219,10.079999923706055,10.079999923706055,2200
2018-10-29,10.050000190734863,10.050000190734863,10.029999732971191,10.029999732971191,10.029999732971191,27300
2018-10-30,10.029999732971191,10.029999732971191,10.029999732971191,10.029999732971191,10.029999732971191,5600
2018-10-31,10.079999923706055,10.079999923706055,9.989999771118164,10.029999732971191,10.029999732971191,1444000
2018-11-01,10.050000190734863,10.069999694824219,10.050000190734863,10.069999694824219,10.069999694824219,200
2018-11-02,10.069999694824219,10.069999694824219,10.069999694824219,10.069999694824219,10.069999694824219,0
2018-11-05,10.069999694824219,10.069999694824219,10.069999694824219,10.069999694824219,10.069999694824219,0
2018-11-06,10.069999694824219,10.09000015258789,10.069999694824219,10.09000015258789,10.09000015258789,200
2018-11-07,10.069999694824219,10.079999923706055,10.050000190734863,10.053000450134277,10.053000450134277,2329800
2018-11-08,10.0600004196167,10.079999923706055,10.050000190734863,10.069999694824219,10.069999694824219,79600
2018-11-09,10.0600004196167,10.069999694824219,10.0600004196167,10.069999694824219,10.069999694824219,139100
2018-11-12,10.04699993133545,10.100000381469727,10.039999961853027,10.039999961853027,10.039999961853027,230600
2018-11-13,10.039999961853027,10.050000190734863,9.899999618530273,9.899999618530273,9.899999618530273,4200
2018-11-14,10.100000381469727,10.100000381469727,10.100000381469727,10.100000381469727,10.100000381469727,1300
2018-11-15,10.069999694824219,10.069999694824219,10.069999694824219,10.069999694824219,10.069999694824219,60200
2018-11-16,10.0600004196167,10.069999694824219,10.0600004196167,10.069999694824219,10.069999694824219,4300
2018-11-19,10.069999694824219,10.069999694824219,10.069999694824219,10.069999694824219,10.069999694824219,0
2018-11-20,10.069999694824219,10.069999694824219,10.069999694824219,10.069999694824219,10.069999694824219,0
2018-11-21,10.069999694824219,10.069999694824219,10.0600004196167,10.0600004196167,10.0600004196167,10200
2018-11-23,10.0600004196167,10.0600004196167,10.0600004196167,10.0600004196167,10.0600004196167,0
2018-11-26,10.071000099182129,10.071000099182129,9.899999618530273,9.899999618530273,9.899999618530273,33100
2018-11-27,10.0600004196167,10.069999694824219,10.0600004196167,10.069999694824219,10.069999694824219,15600
2018-11-28,10.100000381469727,10.100000381469727,10.0600004196167,10.0600004196167,10.0600004196167,1200
2018-11-29,10.100000381469727,10.100000381469727,10.079999923706055,10.079999923706055,10.079999923706055,2300
2018-11-30,10.109999656677246,10.109999656677246,10.09000015258789,10.100000381469727,10.100000381469727,3200
2018-12-03,10.0600004196167,10.119999885559082,10.050000190734863,10.079999923706055,10.079999923706055,67100
2018-12-04,10.079999923706055,10.079999923706055,10.079999923706055,10.079999923706055,10.079999923706055,100
2018-12-06,10.079999923706055,10.079999923706055,10.079999923706055,10.079999923706055,10.079999923706055,0
2018-12-07,10.079999923706055,10.079999923706055,10.079999923706055,10.079999923706055,10.079999923706055,0
2018-12-10,10.020000457763672,10.0600004196167,10.020000457763672,10.0600004196167,10.0600004196167,4500
2018-12-11,10.0649995803833,10.0649995803833,10.0649995803833,10.0649995803833,10.0649995803833,100
2018-12-12,10.119999885559082,10.119999885559082,10.0600004196167,10.0600004196167,10.0600004196167,247100
2018-12-13,10.053000450134277,10.14799976348877,10.053000450134277,10.14799976348877,10.14799976348877,1300
2018-12-14,10.09000015258789,10.149999618530273,10.069999694824219,10.130000114440918,10.130000114440918,68700
2018-12-17,10.100000381469727,10.109999656677246,10.029999732971191,10.109999656677246,10.109999656677246,108200
2018-12-18,10.079999923706055,10.109999656677246,10.069999694824219,10.100000381469727,10.100000381469727,126800
2018-12-19,10.119999885559082,10.119999885559082,10.079999923706055,10.079999923706055,10.079999923706055,1600
2018-12-20,10.100000381469727,10.140000343322754,10.050000190734863,10.140000343322754,10.140000343322754,25500
2018-12-21,10.133000373840332,10.140000343322754,9.850000381469727,9.970000267028809,9.970000267028809,58000
2018-12-24,10.149999618530273,10.149999618530273,10.050000190734863,10.050000190734863,10.050000190734863,700
2018-12-26,10.140000343322754,10.140000343322754,10.050000190734863,10.050000190734863,10.050000190734863,300
2018-12-27,10.119999885559082,10.140000343322754,10.050000190734863,10.109999656677246,10.109999656677246,241800
2018-12-28,10.109999656677246,10.109999656677246,10.109999656677246,10.109999656677246,10.109999656677246,65000
2018-12-31,10.130000114440918,10.130000114440918,10.0600004196167,10.100000381469727,10.100000381469727,13200
2019-01-02,10.125,10.140000343322754,10.119999885559082,10.135000228881836,10.135000228881836,5600
2019-01-03,10.130000114440918,10.170000076293945,10.130000114440918,10.149999618530273,10.149999618530273,208400
2019-01-04,10.130000114440918,10.149999618530273,10.109999656677246,10.149999618530273,10.149999618530273,2400
2019-01-07,10.109999656677246,10.109999656677246,10.109999656677246,10.109999656677246,10.109999656677246,100
2019-01-08,10.109999656677246,10.119999885559082,10.109999656677246,10.119999885559082,10.119999885559082,7200
2019-01-09,10.130000114440918,10.180000305175781,10.109999656677246,10.180000305175781,10.180000305175781,22500
2019-01-10,10.109999656677246,10.109999656677246,10.109999656677246,10.109999656677246,10.109999656677246,200
2019-01-11,10.180000305175781,10.1899995803833,10.109999656677246,10.109999656677246,10.109999656677246,10600
2019-01-14,10.119999885559082,10.199999809265137,10.119999885559082,10.130000114440918,10.130000114440918,1200
2019-01-15,10.180000305175781,10.199999809265137,10.180000305175781,10.199999809265137,10.199999809265137,800
2019-01-16,10.199999809265137,10.210000038146973,10.154999732971191,10.170000076293945,10.170000076293945,11700
2019-01-17,10.199999809265137,10.199999809265137,10.199999809265137,10.199999809265137,10.199999809265137,1200
2019-01-18,10.199999809265137,10.199999809265137,10.199999809265137,10.199999809265137,10.199999809265137,100
2019-01-22,10.170000076293945,10.220000267028809,10.170000076293945,10.220000267028809,10.220000267028809,251400
2019-01-23,10.220000267028809,10.220000267028809,10.220000267028809,10.220000267028809,10.220000267028809,250000
2019-01-24,10.229999542236328,10.229999542236328,10.229999542236328,10.229999542236328,10.229999542236328,100
2019-01-25,10.229999542236328,10.229999542236328,10.229999542236328,10.229999542236328,10.229999542236328,5000
2019-01-28,10.229999542236328,10.229999542236328,10.225000381469727,10.225000381469727,10.225000381469727,375200
2019-01-29,10.225000381469727,10.225000381469727,10.225000381469727,10.225000381469727,10.225000381469727,0
2019-01-30,10.229999542236328,10.229999542236328,10.220000267028809,10.220000267028809,10.220000267028809,25100
2019-01-31,10.220000267028809,10.229999542236328,10.220000267028809,10.220000267028809,10.220000267028809,136600
2019-02-01,10.229999542236328,10.25,10.220000267028809,10.229999542236328,10.229999542236328,129800
2019-02-04,10.270000457763672,10.270000457763672,10.220000267028809,10.220000267028809,10.220000267028809,400
2019-02-05,10.220000267028809,10.220000267028809,10.220000267028809,10.220000267028809,10.220000267028809,0
2019-02-06,10.25,10.279999732971191,10.25,10.279999732971191,10.279999732971191,9700
2019-02-07,10.279999732971191,10.279999732971191,10.279999732971191,10.279999732971191,10.279999732971191,0
2019-02-08,10.279999732971191,10.279999732971191,10.279999732971191,10.279999732971191,10.279999732971191,100
2019-02-11,10.262999534606934,10.270000457763672,10.25,10.251999855041504,10.251999855041504,2300
2019-02-12,10.270000457763672,10.270000457763672,10.244999885559082,10.244999885559082,10.244999885559082,2800
2019-02-13,10.244999885559082,10.244999885559082,10.244999885559082,10.244999885559082,10.244999885559082,0
2019-02-14,10.244999885559082,10.244999885559082,10.244999885559082,10.244999885559082,10.244999885559082,0
2019-02-15,10.270000457763672,10.270000457763672,10.260000228881836,10.270000457763672,10.270000457763672,11500
2019-02-19,10.260000228881836,10.260000228881836,10.260000228881836,10.260000228881836,10.260000228881836,500
2019-02-20,10.239999771118164,10.25,10.239999771118164,10.244999885559082,10.244999885559082,11400
2019-02-21,10.244999885559082,10.244999885559082,10.244999885559082,10.244999885559082,10.244999885559082,100
2019-02-22,10.244999885559082,10.244999885559082,10.244999885559082,10.244999885559082,10.244999885559082,0
2019-02-25,10.244999885559082,10.244999885559082,10.244999885559082,10.244999885559082,10.244999885559082,0
2019-02-26,10.239999771118164,10.239999771118164,10.239999771118164,10.239999771118164,10.239999771118164,25000
2019-02-27,10.239999771118164,10.239999771118164,10.239999771118164,10.239999771118164,10.239999771118164,1000
2019-02-28,10.239999771118164,10.239999771118164,10.239999771118164,10.239999771118164,10.239999771118164,100
2019-03-01,10.239999771118164,10.239999771118164,10.239999771118164,10.239999771118164,10.239999771118164,100
2019-03-04,10.239999771118164,10.239999771118164,10.239999771118164,10.239999771118164,10.239999771118164,100
2019-03-05,10.239999771118164,10.239999771118164,10.239999771118164,10.239999771118164,10.239999771118164,100
2019-03-06,10.239999771118164,10.239999771118164,10.239999771118164,10.239999771118164,10.239999771118164,0
2019-03-07,10.239999771118164,10.239999771118164,10.239999771118164,10.239999771118164,10.239999771118164,0
2019-03-08,10.239999771118164,10.239999771118164,10.239999771118164,10.239999771118164,10.239999771118164,0
2019-03-11,10.279999732971191,10.289999961853027,10.239999771118164,10.289999961853027,10.289999961853027,5000
2019-03-12,10.289999961853027,10.289999961853027,10.239999771118164,10.289999961853027,10.289999961853027,4200
2019-03-13,10.239999771118164,10.300000190734863,10.239999771118164,10.300000190734863,10.300000190734863,4100
2019-03-14,10.300000190734863,10.3100004196167,10.289999961853027,10.3100004196167,10.3100004196167,253600
2019-03-15,10.319999694824219,10.34000015258789,10.300000190734863,10.34000015258789,10.34000015258789,18400
2019-03-18,10.34000015258789,10.34000015258789,10.34000015258789,10.34000015258789,10.34000015258789,100
2019-03-19,10.34000015258789,10.34000015258789,10.279999732971191,10.279999732971191,10.279999732971191,5600
2019-03-20,10.279999732971191,10.279999732971191,10.279999732971191,10.279999732971191,10.279999732971191,75900
2019-03-21,10.284000396728516,10.289999961853027,10.279999732971191,10.279999732971191,10.279999732971191,31000
2019-03-22,10.279999732971191,10.300000190734863,10.279999732971191,10.300000190734863,10.300000190734863,35400
2019-03-25,10.315999984741211,10.329999923706055,10.289999961853027,10.329999923706055,10.329999923706055,3000
2019-03-26,10.300000190734863,10.329999923706055,10.279999732971191,10.329999923706055,10.329999923706055,14500
2019-03-27,10.25,10.25,7.650000095367432,7.659999847412109,7.659999847412109,26500
2019-03-28,7.96999979019165,8.741999626159668,7.75,7.760000228881836,7.760000228881836,3500
2019-03-29,7.144999980926514,7.800000190734863,7.050000190734863,7.183000087738037,7.183000087738037,16300
2019-04-01,9.010000228881836,10.380000114440918,9.010000228881836,10.34000015258789,10.34000015258789,50900
2019-04-02,10.350000381469727,10.350000381469727,10.300000190734863,10.324999809265137,10.324999809265137,658300
2019-04-03,10.350000381469727,10.350000381469727,10.3100004196167,10.324999809265137,10.324999809265137,122500
2019-04-04,10.329999923706055,10.329999923706055,10.319999694824219,10.319999694824219,10.319999694824219,28300
2019-04-05,10.34000015258789,10.359999656677246,10.319999694824219,10.319999694824219,10.319999694824219,26300
2019-04-08,10.335000038146973,10.34000015258789,10.319999694824219,10.319999694824219,10.319999694824219,227800
2019-04-09,10.319999694824219,10.324999809265137,10.319999694824219,10.322999954223633,10.322999954223633,131300
2019-04-10,10.319999694824219,10.34000015258789,10.3100004196167,10.319999694824219,10.319999694824219,224700
2019-04-11,10.319999694824219,10.321999549865723,10.3100004196167,10.3100004196167,10.3100004196167,31100
2019-04-12,10.3100004196167,10.312000274658203,10.300000190734863,10.3100004196167,10.3100004196167,17800
2019-04-15,10.319999694824219,10.319999694824219,10.3100004196167,10.3100004196167,10.3100004196167,53500
2019-04-16,10.3100004196167,10.329999923706055,10.300000190734863,10.3100004196167,10.3100004196167,119900
2019-04-17,10.300000190734863,10.399999618530273,9.86400032043457,10.399999618530273,10.399999618530273,86900
2019-04-18,10.312999725341797,10.399999618530273,10.3100004196167,10.364999771118164,10.364999771118164,28900
2019-04-22,10.300000190734863,10.300000190734863,9.149999618530273,9.149999618530273,9.149999618530273,7500
2019-04-23,9.0,9.029999732971191,8.199999809265137,8.390000343322754,8.390000343322754,15700
2019-04-24,8.413999557495117,9.100000381469727,8.413999557495117,8.510000228881836,8.510000228881836,3400
2019-04-25,8.619999885559082,8.619999885559082,8.579999923706055,8.579999923706055,8.579999923706055,3200
2019-04-26,8.609999656677246,8.960000038146973,8.569999694824219,8.779999732971191,8.779999732971191,10700
2019-04-29,8.960000038146973,9.625,8.729999542236328,8.729999542236328,8.729999542236328,9600
2019-04-30,8.300000190734863,8.300000190734863,4.565000057220459,4.989999771118164,4.989999771118164,507800
2019-05-01,3.6500000953674316,3.6500000953674316,2.75,2.809999942779541,2.809999942779541,708600
2019-05-02,3.190000057220459,3.190000057220459,2.75,2.8350000381469727,2.8350000381469727,122400
2019-05-03,2.7799999713897705,3.999000072479248,2.5999999046325684,3.359999895095825,3.359999895095825,1347300
2019-05-06,3.2200000286102295,4.199999809265137,3.0899999141693115,3.700000047683716,3.700000047683716,1414000
2019-05-07,3.509999990463257,3.690000057220459,3.25,3.440000057220459,3.440000057220459,270100
2019-05-08,3.430000066757202,3.5799999237060547,3.010999917984009,3.1600000858306885,3.1600000858306885,369100
2019-05-09,3.0899999141693115,3.0899999141693115,2.740000009536743,2.940000057220459,2.940000057220459,188700
2019-05-10,2.8589999675750732,3.299999952316284,2.799999952316284,3.2899999618530273,3.2899999618530273,331000
2019-05-13,3.25,3.2899999618530273,3.0209999084472656,3.190000057220459,3.190000057220459,143700
2019-05-14,3.200000047683716,3.25,2.9200000762939453,3.25,3.25,140800
2019-05-15,3.299999952316284,3.299999952316284,3.059999942779541,3.190000057220459,3.190000057220459,124000
2019-05-16,3.130000114440918,3.200000047683716,3.049999952316284,3.0799999237060547,3.0799999237060547,121100
2019-05-17,3.0820000171661377,3.140000104904175,2.75,2.8399999141693115,2.8399999141693115,151600
2019-05-20,2.8399999141693115,2.9800000190734863,2.75,2.75,2.75,84000
2019-05-21,2.690000057220459,3.200000047683716,2.299999952316284,3.200000047683716,3.200000047683716,297100
2019-05-22,2.890000104904175,2.890000104904175,2.609999895095825,2.700000047683716,2.700000047683716,93100
2019-05-23,2.569999933242798,3.0,2.549999952316284,2.740000009536743,2.740000009536743,62800
2019-05-24,2.869999885559082,2.9100000858306885,2.4000000953674316,2.7100000381469727,2.7100000381469727,88400
2019-05-28,2.694999933242798,2.940000057220459,2.680000066757202,2.690000057220459,2.690000057220459,26100
2019-05-29,2.75,3.1500000953674316,2.549999952316284,2.8499999046325684,2.8499999046325684,399100
2019-05-30,2.819999933242798,2.930000066757202,2.5199999809265137,2.5299999713897705,2.5299999713897705,89300
2019-05-31,2.5299999713897705,2.5799999237060547,2.4000000953674316,2.4000000953674316,2.4000000953674316,87600
2019-06-03,2.380000114440918,2.3940000534057617,2.049999952316284,2.1600000858306885,2.1600000858306885,169000
2019-06-04,2.200000047683716,2.430000066757202,2.1600000858306885,2.2100000381469727,2.2100000381469727,128100
2019-06-05,2.319999933242798,2.4149999618530273,2.0999999046325684,2.240000009536743,2.240000009536743,45900
2019-06-06,2.121999979019165,2.200000047683716,2.0,2.124000072479248,2.124000072479248,70500
2019-06-07,2.0999999046325684,2.3389999866485596,2.0980000495910645,2.0999999046325684,2.0999999046325684,39000
2019-06-10,2.0999999046325684,2.2100000381469727,2.0420000553131104,2.1500000953674316,2.1500000953674316,38700
2019-06-11,2.180000066757202,2.180000066757202,2.059999942779541,2.0799999237060547,2.0799999237060547,85700
2019-06-12,2.299999952316284,2.299999952316284,2.009999990463257,2.009999990463257,2.009999990463257,53100
2019-06-13,2.0199999809265137,2.109999895095825,2.010999917984009,2.0399999618530273,2.0399999618530273,29400
2019-06-14,2.0299999713897705,2.2300000190734863,2.0,2.197999954223633,2.197999954223633,29700
2019-06-17,2.1760001182556152,2.180000066757202,2.1040000915527344,2.1040000915527344,2.1040000915527344,23100
2019-06-18,2.200000047683716,2.309999942779541,2.200000047683716,2.200000047683716,2.200000047683716,53100
2019-06-19,2.299999952316284,2.628000020980835,2.200000047683716,2.4000000953674316,2.4000000953674316,177600
2019-06-20,2.4809999465942383,2.4809999465942383,2.200000047683716,2.200000047683716,2.200000047683716,71500
2019-06-21,2.4200000762939453,2.4200000762939453,2.200000047683716,2.2300000190734863,2.2300000190734863,101800
2019-06-24,2.299999952316284,2.3299999237060547,2.200000047683716,2.2320001125335693,2.2320001125335693,30100
2019-06-25,2.2100000381469727,2.3499999046325684,2.119999885559082,2.1500000953674316,2.1500000953674316,60000
2019-06-26,2.2200000286102295,2.2839999198913574,2.130000114440918,2.180000066757202,2.180000066757202,128400
2019-06-27,2.180000066757202,2.187999963760376,2.0169999599456787,2.059999942779541,2.059999942779541,82600
2019-06-28,2.130000114440918,2.260999917984009,2.1029999256134033,2.200000047683716,2.200000047683716,56600
2019-07-01,2.259999990463257,2.2709999084472656,2.069999933242798,2.119999885559082,2.119999885559082,72200
2019-07-02,2.1700000762939453,2.2060000896453857,2.009999990463257,2.009999990463257,2.009999990463257,65000
2019-07-03,2.0999999046325684,2.1500000953674316,2.0199999809265137,2.049999952316284,2.049999952316284,25400
2019-07-05,2.049999952316284,2.0989999771118164,1.9500000476837158,2.0199999809265137,2.0199999809265137,81400
2019-07-08,2.009999990463257,2.0339999198913574,1.9500000476837158,2.009999990463257,2.009999990463257,23000
2019-07-09,2.0199999809265137,2.049999952316284,1.9600000381469727,1.9800000190734863,1.9800000190734863,44100
2019-07-10,1.9800000190734863,2.0,1.88100004196167,1.9500000476837158,1.9500000476837158,40300
2019-07-11,1.9529999494552612,1.9600000381469727,1.7899999618530273,1.8300000429153442,1.8300000429153442,93500
2019-07-12,1.809999942779541,1.875,1.7200000286102295,1.7400000095367432,1.7400000095367432,50000
2019-07-15,1.7799999713897705,1.8480000495910645,1.7009999752044678,1.7999999523162842,1.7999999523162842,18800
2019-07-16,1.840000033378601,1.840000033378601,1.600000023841858,1.6399999856948853,1.6399999856948853,45800
2019-07-17,1.75,1.7690000534057617,1.649999976158142,1.659999966621399,1.659999966621399,20400
2019-07-18,1.659999966621399,1.6699999570846558,1.4199999570846558,1.4630000591278076,1.4630000591278076,109000
2019-07-19,1.4700000286102295,1.649999976158142,1.409999966621399,1.5049999952316284,1.5049999952316284,80500
2019-07-22,1.5099999904632568,1.5399999618530273,1.4500000476837158,1.4700000286102295,1.4700000286102295,36700
2019-07-23,1.4800000190734863,1.7899999618530273,1.3700000047683716,1.7200000286102295,1.7200000286102295,298300
2019-07-24,1.7200000286102295,1.7200000286102295,1.4500000476837158,1.4900000095367432,1.4900000095367432,87400
2019-07-25,1.4900000095367432,1.559999942779541,1.4900000095367432,1.5,1.5,34200
2019-07-26,1.5499999523162842,1.5499999523162842,1.4800000190734863,1.5199999809265137,1.5199999809265137,25100
2019-07-29,1.4900000095367432,1.5299999713897705,1.4800000190734863,1.4869999885559082,1.4869999885559082,29300
2019-07-30,1.4900000095367432,1.5299999713897705,1.4550000429153442,1.5149999856948853,1.5149999856948853,24700
2019-07-31,1.4900000095367432,1.7999999523162842,1.4900000095367432,1.6399999856948853,1.6399999856948853,90800
2019-08-01,1.6690000295639038,1.7200000286102295,1.600000023841858,1.6299999952316284,1.6299999952316284,24200
2019-08-02,1.600000023841858,1.7200000286102295,1.600000023841858,1.649999976158142,1.649999976158142,19700
2019-08-05,1.6399999856948853,1.6449999809265137,1.600000023841858,1.600000023841858,1.600000023841858,8900
2019-08-06,1.6200000047683716,1.6749999523162842,1.4700000286102295,1.559999942779541,1.559999942779541,34700
2019-08-07,1.5360000133514404,1.5700000524520874,1.4589999914169312,1.5299999713897705,1.5299999713897705,52400
2019-08-08,1.4830000400543213,1.590000033378601,1.4830000400543213,1.5,1.5,15800
2019-08-09,1.4600000381469727,1.5230000019073486,1.371999979019165,1.399999976158142,1.399999976158142,40500
2019-08-12,1.3799999952316284,1.4700000286102295,1.059999942779541,1.2799999713897705,1.2799999713897705,55300
2019-08-13,1.2899999618530273,1.4700000286102295,1.2899999618530273,1.3700000047683716,1.3700000047683716,25100
2019-08-14,1.3799999952316284,1.3899999856948853,1.2599999904632568,1.3899999856948853,1.3899999856948853,14200
2019-08-15,1.409999966621399,1.88100004196167,1.340000033378601,1.88100004196167,1.88100004196167,76800
2019-08-16,1.8799999952316284,1.9900000095367432,1.7999999523162842,1.8600000143051147,1.8600000143051147,40500
2019-08-19,1.715000033378601,1.7999999523162842,1.600000023841858,1.7999999523162842,1.7999999523162842,48700
2019-08-20,1.7100000381469727,1.9249999523162842,1.7100000381469727,1.850000023841858,1.850000023841858,26100
2019-08-21,1.9110000133514404,1.9110000133514404,1.7699999809265137,1.8320000171661377,1.8320000171661377,12700
2019-08-22,1.7100000381469727,1.940000057220459,1.7100000381469727,1.7999999523162842,1.7999999523162842,51900
2019-08-23,1.690000057220459,1.843999981880188,1.690000057220459,1.809999942779541,1.809999942779541,23000
2019-08-26,1.899999976158142,1.899999976158142,1.75,1.75,1.75,1200
2019-08-27,1.7699999809265137,2.109999895095825,1.7699999809265137,1.9739999771118164,1.9739999771118164,61400
2019-08-28,1.9900000095367432,2.0,1.940000057220459,1.9800000190734863,1.9800000190734863,24300
2019-08-29,1.9900000095367432,2.069999933242798,1.8799999952316284,1.899999976158142,1.899999976158142,26200
2019-08-30,1.9600000381469727,2.0450000762939453,1.809999942779541,1.8600000143051147,1.8600000143051147,16700
2019-09-03,1.840000033378601,1.8799999952316284,1.7999999523162842,1.8799999952316284,1.8799999952316284,11100
2019-09-04,1.9199999570846558,1.9819999933242798,1.8289999961853027,1.8300000429153442,1.8300000429153442,5200
2019-09-05,1.8860000371932983,1.909999966621399,1.7999999523162842,1.7999999523162842,1.7999999523162842,3900
2019-09-06,1.809000015258789,1.9210000038146973,1.7999999523162842,1.8799999952316284,1.8799999952316284,22200
2019-09-09,1.899999976158142,1.9800000190734863,1.8899999856948853,1.9600000381469727,1.9600000381469727,9400
2019-09-10,1.9900000095367432,2.309999942779541,1.940000057220459,2.0299999713897705,2.0299999713897705,64100
2019-09-11,2.0399999618530273,2.2119998931884766,1.9700000286102295,2.0209999084472656,2.0209999084472656,23600
2019-09-12,2.0,2.0880000591278076,1.9500000476837158,1.9500000476837158,1.9500000476837158,52600
2019-09-13,1.9500000476837158,1.9500000476837158,1.9199999570846558,1.9500000476837158,1.9500000476837158,3500
2019-09-16,1.9299999475479126,2.0799999237060547,1.9290000200271606,1.9600000381469727,1.9600000381469727,16400
2019-09-17,2.140000104904175,2.140000104904175,2.0199999809265137,2.0299999713897705,2.0299999713897705,12100
2019-09-18,2.0,2.0299999713897705,1.9049999713897705,1.9500000476837158,1.9500000476837158,10200
2019-09-19,2.059999942779541,2.0899999141693115,1.899999976158142,2.059999942779541,2.059999942779541,38000
2019-09-20,2.069999933242798,2.25,2.069999933242798,2.140000104904175,2.140000104904175,94500
2019-09-23,2.190000057220459,2.25,2.069999933242798,2.1600000858306885,2.1600000858306885,30500
2019-09-24,2.140000104904175,2.1649999618530273,2.0,2.009999990463257,2.009999990463257,29700
2019-09-25,2.119999885559082,2.1679999828338623,1.899999976158142,1.9299999475479126,1.9299999475479126,31800
2019-09-26,1.9299999475479126,2.0,1.8600000143051147,1.9199999570846558,1.9199999570846558,23800
2019-09-27,1.9140000343322754,1.9600000381469727,1.7100000381469727,1.74399995803833,1.74399995803833,21700
2019-09-30,1.7109999656677246,1.8300000429153442,1.7109999656677246,1.7999999523162842,1.7999999523162842,5400
2019-10-01,1.7740000486373901,1.7999999523162842,1.7200000286102295,1.7999999523162842,1.7999999523162842,12600
2019-10-02,1.7699999809265137,1.7699999809265137,1.590000033378601,1.600000023841858,1.600000023841858,25000
2019-10-03,1.6200000047683716,1.7400000095367432,1.6200000047683716,1.6299999952316284,1.6299999952316284,19000
2019-10-04,2.009999990463257,2.009999990463257,1.7100000381469727,1.7599999904632568,1.7599999904632568,10200
2019-10-07,1.809000015258789,1.809000015258789,1.75,1.75,1.75,6800
2019-10-08,1.7899999618530273,1.7899999618530273,1.5800000429153442,1.6200000047683716,1.6200000047683716,36200
2019-10-09,1.6200000047683716,1.6200000047683716,1.6200000047683716,1.6200000047683716,1.6200000047683716,100
2019-10-10,1.6799999475479126,1.6799999475479126,1.6299999952316284,1.6399999856948853,1.6399999856948853,6800
2019-10-11,1.7089999914169312,1.7089999914169312,1.6399999856948853,1.656000018119812,1.656000018119812,1300
2019-10-14,1.659999966621399,1.7200000286102295,1.5880000591278076,1.7200000286102295,1.7200000286102295,11800
2019-10-15,1.6150000095367432,1.6799999475479126,1.6150000095367432,1.659999966621399,1.659999966621399,5300
2019-10-16,1.6200000047683716,1.809999942779541,1.5499999523162842,1.7400000095367432,1.7400000095367432,91600
2019-10-17,1.7799999713897705,1.8700000047683716,1.75,1.75,1.75,10100
2019-10-18,1.7899999618530273,1.7899999618530273,1.6299999952316284,1.6299999952316284,1.6299999952316284,36200
2019-10-21,1.7300000190734863,1.7300000190734863,1.600000023841858,1.6699999570846558,1.6699999570846558,5900
2019-10-22,1.6130000352859497,1.6299999952316284,1.590000033378601,1.6299999952316284,1.6299999952316284,6100
2019-10-23,1.715000033378601,1.715000033378601,1.6890000104904175,1.6890000104904175,1.6890000104904175,1600
2019-10-24,1.7400000095367432,1.784999966621399,1.7200000286102295,1.7300000190734863,1.7300000190734863,11500
2019-10-25,1.7300000190734863,1.7300000190734863,1.7300000190734863,1.7300000190734863,1.7300000190734863,600
2019-10-28,1.6519999504089355,1.6720000505447388,1.5099999904632568,1.5099999904632568,1.5099999904632568,6500
2019-10-29,1.5299999713897705,1.7100000381469727,1.5,1.5700000524520874,1.5700000524520874,13000
2019-10-30,1.5950000286102295,1.6399999856948853,1.5479999780654907,1.6399999856948853,1.6399999856948853,1700
2019-10-31,1.6399999856948853,1.6399999856948853,1.3200000524520874,1.399999976158142,1.399999976158142,31200
2019-11-01,1.399999976158142,1.5499999523162842,1.399999976158142,1.5190000534057617,1.5190000534057617,7600
2019-11-04,1.600000023841858,1.600000023841858,1.475000023841858,1.5499999523162842,1.5499999523162842,3600
2019-11-05,1.5709999799728394,1.5709999799728394,1.5099999904632568,1.5099999904632568,1.5099999904632568,3300
2019-11-06,1.5199999809265137,1.590000033378601,1.3899999856948853,1.3899999856948853,1.3899999856948853,10800
2019-11-07,1.4800000190734863,1.5499999523162842,1.409999966621399,1.409999966621399,1.409999966621399,10500
2019-11-08,1.5,1.5,1.4600000381469727,1.4700000286102295,1.4700000286102295,8300
2019-11-11,1.4329999685287476,1.4889999628067017,1.3669999837875366,1.4889999628067017,1.4889999628067017,5300
2019-11-12,1.5,1.5,1.3799999952316284,1.4900000095367432,1.4900000095367432,4800
2019-11-13,1.4229999780654907,1.5,1.4229999780654907,1.437000036239624,1.437000036239624,30700
2019-11-14,1.4900000095367432,1.4900000095367432,1.440000057220459,1.440000057220459,1.440000057220459,3400
2019-11-15,1.468000054359436,1.5,1.4199999570846558,1.465999960899353,1.465999960899353,3600
2019-11-18,1.4600000381469727,1.4600000381469727,1.3300000429153442,1.440000057220459,1.440000057220459,8000
2019-11-19,1.4199999570846558,1.4839999675750732,1.3650000095367432,1.4839999675750732,1.4839999675750732,4900
2019-11-20,1.4500000476837158,1.6449999809265137,1.3630000352859497,1.5,1.5,24100
2019-11-21,1.600000023841858,1.649999976158142,1.5099999904632568,1.5499999523162842,1.5499999523162842,8500
2019-11-22,1.4299999475479126,1.5499999523162842,1.3899999856948853,1.399999976158142,1.399999976158142,45400
2019-11-25,1.440000057220459,1.4600000381469727,1.350000023841858,1.399999976158142,1.399999976158142,18500
2019-11-26,1.5,1.600000023841858,1.3669999837875366,1.5399999618530273,1.5399999618530273,51300
2019-11-27,1.5800000429153442,1.5800000429153442,1.3899999856948853,1.399999976158142,1.399999976158142,44800
2019-11-29,1.4500000476837158,1.5,1.406000018119812,1.434999942779541,1.434999942779541,3100
2019-12-02,1.3700000047683716,1.440000057220459,1.3600000143051147,1.434999942779541,1.434999942779541,8200
2019-12-03,1.3600000143051147,1.4160000085830688,1.3600000143051147,1.3700000047683716,1.3700000047683716,3100
2019-12-04,1.340000033378601,1.409999966621399,1.340000033378601,1.3600000143051147,1.3600000143051147,11800
2019-12-05,1.340000033378601,1.3899999856948853,1.25600004196167,1.274999976158142,1.274999976158142,12500
2019-12-06,1.309999942779541,1.3170000314712524,1.309999942779541,1.3170000314712524,1.3170000314712524,400
2019-12-09,1.3170000314712524,1.3170000314712524,1.3170000314712524,1.3170000314712524,1.3170000314712524,0
2019-12-10,1.309999942779541,1.3890000581741333,1.190000057220459,1.315000057220459,1.315000057220459,25900
2019-12-11,1.2599999904632568,1.2699999809265137,1.0839999914169312,1.2200000286102295,1.2200000286102295,6700
2019-12-12,1.2200000286102295,1.277999997138977,1.159999966621399,1.159999966621399,1.159999966621399,9200
2019-12-13,1.2999999523162842,1.3359999656677246,1.2000000476837158,1.2000000476837158,1.2000000476837158,13200
2019-12-16,1.190000057220459,1.340000033378601,1.0800000429153442,1.1480000019073486,1.1480000019073486,20500
2019-12-17,1.190000057220459,2.0899999141693115,1.149999976158142,1.2200000286102295,1.2200000286102295,984900
2019-12-18,1.350000023841858,1.4800000190734863,1.1950000524520874,1.2799999713897705,1.2799999713897705,120100
2019-12-19,1.4700000286102295,1.4700000286102295,1.2100000381469727,1.309999942779541,1.309999942779541,72000
2019-12-20,1.350000023841858,1.440000057220459,1.309999942779541,1.3300000429153442,1.3300000429153442,104400
2019-12-23,1.3300000429153442,1.399999976158142,1.3300000429153442,1.350000023841858,1.350000023841858,25800
2019-12-24,1.2999999523162842,1.3509999513626099,1.2699999809265137,1.3329999446868896,1.3329999446868896,14100
2019-12-26,1.3309999704360962,1.371000051498413,1.2799999713897705,1.3200000524520874,1.3200000524520874,31800
2019-12-27,1.309999942779541,1.3220000267028809,1.2999999523162842,1.2999999523162842,1.2999999523162842,5200
2019-12-30,1.3899999856948853,1.7799999713897705,1.3899999856948853,1.5700000524520874,1.5700000524520874,231200
2019-12-31,1.649999976158142,1.899999976158142,1.649999976158142,1.8700000047683716,1.8700000047683716,194600
2020-01-02,1.8799999952316284,1.8799999952316284,1.25,1.350000023841858,1.350000023841858,582900
2020-01-03,1.3899999856948853,1.3899999856948853,1.2999999523162842,1.3179999589920044,1.3179999589920044,78100
2020-01-06,1.3300000429153442,1.3370000123977661,1.2999999523162842,1.2999999523162842,1.2999999523162842,48600
2020-01-07,1.3070000410079956,1.3229999542236328,1.2400000095367432,1.25,1.25,36000
2020-01-08,1.2860000133514404,1.3739999532699585,1.2100000381469727,1.25,1.25,71900
2020-01-09,1.2599999904632568,1.2990000247955322,1.2300000190734863,1.25,1.25,35700
2020-01-10,1.2649999856948853,1.309999942779541,1.25,1.2999999523162842,1.2999999523162842,14500
2020-01-13,1.2699999809265137,1.340000033378601,1.2400000095367432,1.2599999904632568,1.2599999904632568,21300
2020-01-14,1.2960000038146973,1.2999999523162842,1.2630000114440918,1.2699999809265137,1.2699999809265137,16500
2020-01-15,1.309999942779541,1.309999942779541,1.25,1.2699999809265137,1.2699999809265137,23700
2020-01-16,1.2799999713897705,1.2799999713897705,1.2599999904632568,1.2640000581741333,1.2640000581741333,5600
2020-01-17,1.2400000095367432,1.2669999599456787,1.2400000095367432,1.2400000095367432,1.2400000095367432,17800
2020-01-21,1.2400000095367432,1.2799999713897705,1.1799999475479126,1.2000000476837158,1.2000000476837158,73300
2020-01-22,1.2000000476837158,1.2400000095367432,1.159999966621399,1.1699999570846558,1.1699999570846558,39600
2020-01-23,1.1799999475479126,1.2300000190734863,1.1799999475479126,1.2100000381469727,1.2100000381469727,13600
2020-01-24,1.187999963760376,1.2300000190734863,1.187999963760376,1.190000057220459,1.190000057220459,5600
2020-01-27,1.1549999713897705,1.1720000505447388,1.1299999952316284,1.149999976158142,1.149999976158142,14400
2020-01-28,1.1610000133514404,1.2000000476837158,1.149999976158142,1.1799999475479126,1.1799999475479126,15300
2020-01-29,1.1699999570846558,1.2200000286102295,1.149999976158142,1.149999976158142,1.149999976158142,12300
2020-01-30,1.1729999780654907,1.2000000476837158,1.1299999952316284,1.1399999856948853,1.1399999856948853,11200
2020-01-31,1.190000057220459,1.190000057220459,1.1399999856948853,1.1399999856948853,1.1399999856948853,12600
2020-02-03,1.100000023841858,1.2039999961853027,1.100000023841858,1.1399999856948853,1.1399999856948853,12100
2020-02-04,1.1549999713897705,1.184999942779541,1.0700000524520874,1.0700000524520874,1.0700000524520874,38700
2020-02-05,1.1549999713897705,1.1699999570846558,1.100000023841858,1.1699999570846558,1.1699999570846558,44800
2020-02-06,1.190000057220459,1.190000057220459,1.149999976158142,1.1699999570846558,1.1699999570846558,6000
2020-02-07,1.1510000228881836,1.1799999475479126,1.1299999952316284,1.1360000371932983,1.1360000371932983,5600
2020-02-10,1.1510000228881836,1.1510000228881836,1.1510000228881836,1.1510000228881836,1.1510000228881836,1400
2020-02-11,1.1299999952316284,1.1699999570846558,1.1269999742507935,1.1269999742507935,1.1269999742507935,4700
2020-02-12,1.1100000143051147,1.1299999952316284,1.0499999523162842,1.0499999523162842,1.0499999523162842,39400
2020-02-13,1.1519999504089355,1.1519999504089355,1.0700000524520874,1.1180000305175781,1.1180000305175781,11100
2020-02-14,1.152999997138977,1.152999997138977,1.1200000047683716,1.1200000047683716,1.1200000047683716,1200
2020-02-18,1.1699999570846558,1.1759999990463257,1.100000023841858,1.149999976158142,1.149999976158142,6100
2020-02-19,1.149999976158142,1.1699999570846558,1.100000023841858,1.1699999570846558,1.1699999570846558,36400
2020-02-20,1.1230000257492065,1.1299999952316284,1.1100000143051147,1.1299999952316284,1.1299999952316284,2600
2020-02-21,1.090000033378601,1.1799999475479126,1.0800000429153442,1.1410000324249268,1.1410000324249268,21000
2020-02-24,1.1699999570846558,1.1699999570846558,1.0800000429153442,1.090999960899353,1.090999960899353,9700
2020-02-25,1.1030000448226929,1.149999976158142,1.0670000314712524,1.0700000524520874,1.0700000524520874,9700
2020-02-26,1.100000023841858,1.1699999570846558,1.0499999523162842,1.0499999523162842,1.0499999523162842,16500
2020-02-27,1.0499999523162842,1.059999942779541,1.0499999523162842,1.0499999523162842,1.0499999523162842,10900
2020-02-28,1.0099999904632568,1.1299999952316284,1.0,1.0499999523162842,1.0499999523162842,22900
2020-03-02,1.0329999923706055,1.100000023841858,1.0219999551773071,1.0679999589920044,1.0679999589920044,24200
2020-03-03,1.0800000429153442,1.0800000429153442,1.0399999618530273,1.059999942779541,1.059999942779541,3200
2020-03-04,1.0440000295639038,1.1100000143051147,1.0440000295639038,1.1100000143051147,1.1100000143051147,11500
2020-03-05,1.065999984741211,1.1069999933242798,1.065999984741211,1.0950000286102295,1.0950000286102295,6000
2020-03-06,1.1100000143051147,1.1200000047683716,1.0540000200271606,1.0789999961853027,1.0789999961853027,8800
2020-03-09,1.0099999904632568,1.0499999523162842,0.9049999713897705,0.9200000166893005,0.9200000166893005,30500
2020-03-10,1.0800000429153442,1.1100000143051147,0.9599999785423279,0.9599999785423279,0.9599999785423279,46500
2020-03-11,0.9800000190734863,0.9890000224113464,0.8769999742507935,0.949999988079071,0.949999988079071,11600
2020-03-12,0.8999999761581421,0.8999999761581421,0.6299999952316284,0.800000011920929,0.800000011920929,39100
2020-03-13,0.8149999976158142,0.9290000200271606,0.75,0.796999990940094,0.796999990940094,11000
2020-03-16,0.652999997138977,0.7289999723434448,0.5299999713897705,0.6790000200271606,0.6790000200271606,25600
2020-03-17,0.5600000023841858,0.6990000009536743,0.5289999842643738,0.550000011920929,0.550000011920929,47300
2020-03-18,0.6510000228881836,0.6510000228881836,0.48100000619888306,0.48100000619888306,0.48100000619888306,17000
2020-03-19,0.4699999988079071,0.5680000185966492,0.4099999964237213,0.5550000071525574,0.5550000071525574,41300
2020-03-20,0.6200000047683716,0.7699999809265137,0.6200000047683716,0.75,0.75,46100
2020-03-23,0.75,0.75,0.6740000247955322,0.6740000247955322,0.6740000247955322,2600
2020-03-24,0.8700000047683716,0.9779999852180481,0.7450000047683716,0.8999999761581421,0.8999999761581421,9300
2020-03-25,0.8999999761581421,0.8999999761581421,0.800000011920929,0.8949999809265137,0.8949999809265137,16500
2020-03-26,0.8949999809265137,0.949999988079071,0.8849999904632568,0.9359999895095825,0.9359999895095825,14300
2020-03-27,0.8539999723434448,0.8999999761581421,0.75,0.8799999952316284,0.8799999952316284,4100
2020-03-30,0.8899999856948853,0.9200000166893005,0.75,0.8600000143051147,0.8600000143051147,6400
2020-03-31,0.8600000143051147,0.8790000081062317,0.8600000143051147,0.8600000143051147,0.8600000143051147,22700
2020-04-01,0.7799999713897705,0.9010000228881836,0.7799999713897705,0.8899999856948853,0.8899999856948853,2100
2020-04-02,0.8830000162124634,0.8859999775886536,0.8830000162124634,0.8859999775886536,0.8859999775886536,1400
2020-04-03,0.8399999737739563,0.8799999952316284,0.8299999833106995,0.8299999833106995,0.8299999833106995,3900
2020-04-06,0.8500000238418579,0.9950000047683716,0.8240000009536743,0.9700000286102295,0.9700000286102295,38600
2020-04-07,1.0149999856948853,1.0499999523162842,0.9399999976158142,1.0,1.0,8900
2020-04-08,0.9100000262260437,1.00600004196167,0.9020000100135803,0.9950000047683716,0.9950000047683716,6800
2020-04-09,1.0800000429153442,1.0800000429153442,0.9800000190734863,1.0199999809265137,1.0199999809265137,8800
2020-04-13,1.0499999523162842,1.0499999523162842,0.9390000104904175,0.9509999752044678,0.9509999752044678,3900
2020-04-14,0.9409999847412109,1.0750000476837158,0.9399999976158142,1.0499999523162842,1.0499999523162842,12900
2020-04-15,1.0499999523162842,1.0499999523162842,0.9520000219345093,0.9580000042915344,0.9580000042915344,14800
2020-04-16,0.9580000042915344,1.0399999618530273,0.949999988079071,0.9629999995231628,0.9629999995231628,5600
2020-04-17,0.9599999785423279,1.0299999713897705,0.9549999833106995,0.9549999833106995,0.9549999833106995,4300
2020-04-20,0.949999988079071,1.0,0.949999988079071,0.949999988079071,0.949999988079071,14700
2020-04-21,0.949999988079071,0.949999988079071,0.9100000262260437,0.9100000262260437,0.9100000262260437,5400
2020-04-22,1.0,1.0299999713897705,0.800000011920929,0.8560000061988831,0.8560000061988831,14000
2020-04-23,0.9200000166893005,0.9229999780654907,0.800000011920929,0.8999999761581421,0.8999999761581421,4800
2020-04-24,0.7670000195503235,0.8999999761581421,0.7670000195503235,0.8799999952316284,0.8799999952316284,4100
2020-04-27,0.871999979019165,0.871999979019165,0.7799999713897705,0.8299999833106995,0.8299999833106995,20100
2020-04-28,0.8339999914169312,0.9440000057220459,0.8299999833106995,0.8299999833106995,0.8299999833106995,12700
2020-04-29,0.9110000133514404,0.9110000133514404,0.75,0.8790000081062317,0.8790000081062317,8400
2020-04-30,0.8980000019073486,1.3600000143051147,0.8980000019073486,1.0399999618530273,1.0399999618530273,532300
2020-05-01,0.9879999756813049,1.0399999618530273,0.8999999761581421,0.9049999713897705,0.9049999713897705,89100
2020-05-04,0.949999988079071,0.9520000219345093,0.8140000104904175,0.890999972820282,0.890999972820282,84400
2020-05-05,0.9259999990463257,1.149999976158142,0.8999999761581421,1.0099999904632568,1.0099999904632568,1003500
2020-05-06,0.9340000152587891,0.9950000047683716,0.8999999761581421,0.9210000038146973,0.9210000038146973,127800
2020-05-07,1.0700000524520874,1.090000033378601,0.949999988079071,1.0049999952316284,1.0049999952316284,270300
2020-05-08,1.0,1.034999966621399,0.949999988079071,1.0,1.0,84700
2020-05-11,0.9900000095367432,1.0399999618530273,0.949999988079071,1.0399999618530273,1.0399999618530273,122600
2020-05-12,1.149999976158142,1.2000000476837158,1.100000023841858,1.1100000143051147,1.1100000143051147,278800
2020-05-13,1.1699999570846558,1.1699999570846558,0.9900000095367432,0.9990000128746033,0.9990000128746033,64600
2020-05-14,1.0299999713897705,1.0299999713897705,0.9449999928474426,0.972000002861023,0.972000002861023,68500
2020-05-15,0.9300000071525574,0.9300000071525574,0.75,0.8119999766349792,0.8119999766349792,190800
2020-05-18,0.7369999885559082,0.8550000190734863,0.7369999885559082,0.8040000200271606,0.8040000200271606,97500
2020-05-19,0.8500000238418579,0.8500000238418579,0.7699999809265137,0.796999990940094,0.796999990940094,34800
2020-05-20,0.7799999713897705,0.9900000095367432,0.7509999871253967,0.8849999904632568,0.8849999904632568,512700
2020-05-21,0.9819999933242798,0.9819999933242798,0.8500000238418579,0.8600000143051147,0.8600000143051147,74100
2020-05-22,0.8399999737739563,0.8999999761581421,0.8169999718666077,0.8399999737739563,0.8399999737739563,35400
2020-05-26,0.8379999995231628,0.8799999952316284,0.8009999990463257,0.8259999752044678,0.8259999752044678,37300
2020-05-27,0.8299999833106995,0.8989999890327454,0.8299999833106995,0.8399999737739563,0.8399999737739563,34800
2020-05-28,0.8299999833106995,0.8809999823570251,0.7760000228881836,0.8199999928474426,0.8199999928474426,55900
2020-05-29,0.8299999833106995,0.8420000076293945,0.7620000243186951,0.7900000214576721,0.7900000214576721,29100
2020-06-01,0.7900000214576721,0.8330000042915344,0.7900000214576721,0.7950000166893005,0.7950000166893005,16400
2020-06-02,0.800000011920929,0.8740000128746033,0.800000011920929,0.8259999752044678,0.8259999752044678,26100
2020-06-03,0.800000011920929,0.8270000219345093,0.7699999809265137,0.7900000214576721,0.7900000214576721,27500
2020-06-04,0.8090000152587891,0.8600000143051147,0.7799999713897705,0.8500000238418579,0.8500000238418579,40500
2020-06-05,0.8500000238418579,0.8799999952316284,0.8209999799728394,0.8500000238418579,0.8500000238418579,29200
2020-06-08,0.8500000238418579,0.8999999761581421,0.8199999928474426,0.878000020980835,0.878000020980835,32200
2020-06-09,0.8799999952316284,1.1699999570846558,0.8799999952316284,1.0099999904632568,1.0099999904632568,629500
2020-06-10,1.0800000429153442,1.2899999618530273,0.9900000095367432,1.090000033378601,1.090000033378601,546000
2020-06-11,1.0099999904632568,1.0099999904632568,0.8320000171661377,0.8999999761581421,0.8999999761581421,94600
2020-06-12,1.0700000524520874,1.2799999713897705,0.8999999761581421,0.9700000286102295,0.9700000286102295,652700
2020-06-15,0.8899999856948853,1.0,0.8309999704360962,0.8899999856948853,0.8899999856948853,89100
2020-06-16,0.9110000133514404,1.0,0.890999972820282,0.9850000143051147,0.9850000143051147,62500
2020-06-17,0.9800000190734863,0.9850000143051147,0.9100000262260437,0.9100000262260437,0.9100000262260437,52100
2020-06-18,0.8899999856948853,0.949999988079071,0.8899999856948853,0.8999999761581421,0.8999999761581421,26200
2020-06-19,0.8899999856948853,0.949999988079071,0.8539999723434448,0.8700000047683716,0.8700000047683716,38800
2020-06-22,0.8999999761581421,0.8999999761581421,0.8299999833106995,0.8500000238418579,0.8500000238418579,36200
2020-06-23,0.8600000143051147,0.8730000257492065,0.8130000233650208,0.8600000143051147,0.8600000143051147,30300
2020-06-24,0.8299999833106995,0.8799999952316284,0.8080000281333923,0.8199999928474426,0.8199999928474426,15800
2020-06-25,0.8119999766349792,0.8610000014305115,0.7699999809265137,0.7799999713897705,0.7799999713897705,61000
2020-06-26,0.8059999942779541,0.8399999737739563,0.7689999938011169,0.7950000166893005,0.7950000166893005,28900
2020-06-29,0.7749999761581421,0.8799999952316284,0.7749999761581421,0.8690000176429749,0.8690000176429749,223200
2020-06-30,0.9100000262260437,0.9100000262260437,0.800000011920929,0.8600000143051147,0.8600000143051147,138300
2020-07-01,0.8579999804496765,0.8799999952316284,0.8199999928474426,0.8500000238418579,0.8500000238418579,32700
2020-07-02,0.824999988079071,0.8709999918937683,0.7799999713897705,0.8069999814033508,0.8069999814033508,40700
2020-07-06,0.800000011920929,0.8399999737739563,0.7900000214576721,0.8119999766349792,0.8119999766349792,40200
2020-07-07,0.8220000267028809,0.9900000095367432,0.8220000267028809,0.9430000185966492,0.9430000185966492,329000
2020-07-08,0.9200000166893005,1.2799999713897705,0.9100000262260437,1.0609999895095825,1.0609999895095825,2896600
2020-07-09,0.9800000190734863,0.9900000095367432,0.8550000190734863,0.8550000190734863,0.8550000190734863,275500
2020-07-10,0.8880000114440918,0.9200000166893005,0.8339999914169312,0.8339999914169312,0.8339999914169312,89400
2020-07-13,0.824999988079071,0.8500000238418579,0.8050000071525574,0.8059999942779541,0.8059999942779541,62100
2020-07-14,0.800000011920929,0.8399999737739563,0.7799999713897705,0.8360000252723694,0.8360000252723694,72900
2020-07-15,0.8600000143051147,0.8740000128746033,0.8100000023841858,0.8299999833106995,0.8299999833106995,35900
2020-07-16,0.7900000214576721,0.8799999952316284,0.7900000214576721,0.8399999737739563,0.8399999737739563,36000
2020-07-17,0.8349999785423279,0.8500000238418579,0.8149999976158142,0.8429999947547913,0.8429999947547913,14200
2020-07-20,0.8199999928474426,0.8560000061988831,0.8199999928474426,0.8429999947547913,0.8429999947547913,18200
2020-07-21,0.8999999761581421,0.8999999761581421,0.8209999799728394,0.8650000095367432,0.8650000095367432,118300
2020-07-22,0.9100000262260437,0.9900000095367432,0.8709999918937683,0.9559999704360962,0.9559999704360962,137300
2020-07-23,0.9620000123977661,0.9620000123977661,0.8999999761581421,0.9200000166893005,0.9200000166893005,73400
2020-07-24,0.8799999952316284,0.9660000205039978,0.8500000238418579,0.9210000038146973,0.9210000038146973,22300
2020-07-27,0.9100000262260437,0.9480000138282776,0.9100000262260437,0.9399999976158142,0.9399999976158142,10100
2020-07-28,0.9340000152587891,0.9649999737739563,0.9100000262260437,0.9200000166893005,0.9200000166893005,41900
2020-07-29,0.9110000133514404,1.3200000524520874,0.9110000133514404,1.0800000429153442,1.0800000429153442,944400
2020-07-30,1.0800000429153442,1.2799999713897705,0.9599999785423279,1.0800000429153442,1.0800000429153442,667500
2020-07-31,1.1100000143051147,1.13100004196167,0.9850000143051147,1.003999948501587,1.003999948501587,220500
2020-08-03,1.0399999618530273,1.0549999475479126,0.9620000123977661,1.0199999809265137,1.0199999809265137,52200
2020-08-04,1.0,1.0299999713897705,0.9700000286102295,1.0190000534057617,1.0190000534057617,48800
2020-08-05,1.0199999809265137,1.0499999523162842,0.9750000238418579,1.034999966621399,1.034999966621399,70300
2020-08-06,1.0199999809265137,1.0800000429153442,1.0099999904632568,1.0299999713897705,1.0299999713897705,122300
2020-08-07,1.0399999618530273,1.0700000524520874,1.0,1.0099999904632568,1.0099999904632568,47400
2020-08-10,1.0399999618530273,1.059999942779541,0.9599999785423279,1.0499999523162842,1.0499999523162842,65500
2020-08-11,1.0299999713897705,1.0499999523162842,1.0099999904632568,1.0299999713897705,1.0299999713897705,38800
2020-08-12,1.0299999713897705,1.0499999523162842,1.0099999904632568,1.0299999713897705,1.0299999713897705,20200
2020-08-13,1.0099999904632568,1.0750000476837158,0.9520000219345093,1.0,1.0,124200
2020-08-14,1.0,1.0399999618530273,0.9419999718666077,0.9890000224113464,0.9890000224113464,47500
2020-08-17,0.9800000190734863,0.9900000095367432,0.8799999952316284,0.9269999861717224,0.9269999861717224,92000
2020-08-18,0.949999988079071,0.9549999833106995,0.8999999761581421,0.8999999761581421,0.8999999761581421,36400
2020-08-19,0.8999999761581421,0.9459999799728394,0.8799999952316284,0.9200000166893005,0.9200000166893005,22500
2020-08-20,0.949999988079071,0.949999988079071,0.8759999871253967,0.9350000023841858,0.9350000023841858,18900
2020-08-21,0.9350000023841858,0.9350000023841858,0.8999999761581421,0.9300000071525574,0.9300000071525574,3800
2020-08-24,1.0,1.0,0.9020000100135803,0.9129999876022339,0.9129999876022339,24400
2020-08-25,0.9139999747276306,0.9139999747276306,0.8600000143051147,0.9100000262260437,0.9100000262260437,18300
2020-08-26,0.8899999856948853,0.9100000262260437,0.8799999952316284,0.8970000147819519,0.8970000147819519,207200
2020-08-27,0.550000011920929,0.6800000071525574,0.5400000214576721,0.6499999761581421,0.6499999761581421,741200
2020-08-28,0.6800000071525574,0.6899999976158142,0.5400000214576721,0.5899999737739563,0.5899999737739563,270900
2020-08-31,0.6200000047683716,0.6200000047683716,0.5519999861717224,0.5680000185966492,0.5680000185966492,93900
2020-09-01,0.5609999895095825,0.5680000185966492,0.5099999904632568,0.5529999732971191,0.5529999732971191,87200
2020-09-02,0.5400000214576721,0.550000011920929,0.5049999952316284,0.5249999761581421,0.5249999761581421,130200
2020-09-03,0.5199999809265137,0.5479999780654907,0.47600001096725464,0.5199999809265137,0.5199999809265137,85200
2020-09-04,0.5040000081062317,0.5149999856948853,0.4000000059604645,0.44200000166893005,0.44200000166893005,109000
2020-09-08,0.4350000023841858,0.4350000023841858,0.4090000092983246,0.41200000047683716,0.41200000047683716,41400
2020-09-09,0.42500001192092896,0.7860000133514404,0.42500001192092896,0.515999972820282,0.515999972820282,2891700
2020-09-10,0.47200000286102295,0.5130000114440918,0.46799999475479126,0.5,0.5,392900
2020-09-11,0.5090000033378601,0.6000000238418579,0.49000000953674316,0.5299999713897705,0.5299999713897705,233700
2020-09-14,0.4909999966621399,0.5239999890327454,0.49000000953674316,0.503000020980835,0.503000020980835,48100
2020-09-15,0.4749999940395355,0.5059999823570251,0.4749999940395355,0.4749999940395355,0.4749999940395355,44900
2020-09-16,0.5180000066757202,0.5180000066757202,0.44999998807907104,0.48100000619888306,0.48100000619888306,62400
2020-09-17,0.48100000619888306,0.48100000619888306,0.44999998807907104,0.4699999988079071,0.4699999988079071,27600
2020-09-18,0.4749999940395355,0.5249999761581421,0.46000000834465027,0.46000000834465027,0.46000000834465027,270100
2020-09-21,0.4650000035762787,0.4749999940395355,0.41999998688697815,0.4580000042915344,0.4580000042915344,88000
2020-09-22,0.4580000042915344,0.5189999938011169,0.4410000145435333,0.4650000035762787,0.4650000035762787,103000
2020-09-23,0.4819999933242798,0.49799999594688416,0.4300000071525574,0.4480000138282776,0.4480000138282776,195800
2020-09-24,0.4490000009536743,0.5690000057220459,0.4300000071525574,0.5690000057220459,0.5690000057220459,177000
2020-09-25,0.550000011920929,0.5600000023841858,0.5099999904632568,0.5559999942779541,0.5559999942779541,75700
2020-09-28,0.5260000228881836,0.5600000023841858,0.5220000147819519,0.5550000071525574,0.5550000071525574,20200
2020-09-29,0.5440000295639038,0.5899999737739563,0.5249999761581421,0.5899999737739563,0.5899999737739563,54600
2020-09-30,0.597000002861023,0.6000000238418579,0.5519999861717224,0.5699999928474426,0.5699999928474426,24700
2020-10-01,0.5619999766349792,0.5799999833106995,0.5,0.5519999861717224,0.5519999861717224,34700
2020-10-02,0.5199999809265137,0.5680000185966492,0.5199999809265137,0.5440000295639038,0.5440000295639038,9200
2020-10-05,0.5450000166893005,0.5450000166893005,0.5,0.5090000033378601,0.5090000033378601,29400
2020-10-06,0.5,0.5360000133514404,0.47999998927116394,0.5139999985694885,0.5139999985694885,25100
2020-10-07,0.5139999985694885,0.5139999985694885,0.5,0.5,0.5,30400
2020-10-08,0.5249999761581421,0.5400000214576721,0.5099999904632568,0.5299999713897705,0.5299999713897705,16000
2020-10-09,0.550000011920929,0.550000011920929,0.5289999842643738,0.531000018119812,0.531000018119812,35400
2020-10-12,0.531000018119812,0.550000011920929,0.531000018119812,0.5410000085830688,0.5410000085830688,27000
2020-10-13,0.5270000100135803,0.5479999780654907,0.5249999761581421,0.5400000214576721,0.5400000214576721,19000
2020-10-14,0.5360000133514404,2.190000057220459,0.5360000133514404,1.9800000190734863,1.9800000190734863,60394900
2020-10-15,1.3300000429153442,1.4900000095367432,1.159999966621399,1.3300000429153442,1.3300000429153442,6285600
2020-10-16,1.3700000047683716,4.5,1.2799999713897705,2.069999933242798,2.069999933242798,55134700
2020-10-19,3.299999952316284,13.399999618530273,2.75,8.149999618530273,8.149999618530273,235290500
2020-10-20,6.0,6.980000019073486,4.300000190734863,4.75,4.75,17911700
2020-10-21,4.260000228881836,5.989999771118164,3.450000047683716,4.610000133514404,4.610000133514404,11361400
2020-10-22,4.400000095367432,5.139999866485596,4.150000095367432,4.739999771118164,4.739999771118164,4723100
2020-10-23,4.690000057220459,6.289999961853027,4.565999984741211,4.949999809265137,4.949999809265137,11774000
2020-10-26,4.760000228881836,4.929999828338623,4.28000020980835,4.559999942779541,4.559999942779541,1163200
2020-10-27,4.460000038146973,5.510000228881836,4.449999809265137,4.730000019073486,4.730000019073486,4364400
2020-10-28,4.619999885559082,4.670000076293945,4.309999942779541,4.460000038146973,4.460000038146973,843400
2020-10-29,4.46999979019165,4.550000190734863,3.690000057220459,3.75,3.75,1816000
2020-10-30,3.819999933242798,3.880000114440918,3.319999933242798,3.430000066757202,3.430000066757202,873600
2020-11-02,3.630000114440918,3.640000104904175,3.0799999237060547,3.180000066757202,3.180000066757202,1443200
2020-11-03,3.180000066757202,3.3299999237060547,3.069999933242798,3.130000114440918,3.130000114440918,1057300
2020-11-04,3.1500000953674316,3.2799999713897705,2.759999990463257,2.7699999809265137,2.7699999809265137,1185000
2020-11-05,5.039999961853027,5.050000190734863,3.5299999713897705,3.7699999809265137,3.7699999809265137,45590600
2020-11-06,3.890000104904175,4.269999980926514,3.5799999237060547,3.6500000953674316,3.6500000953674316,4835300
2020-11-09,3.7799999713897705,3.7899999618530273,3.4100000858306885,3.5299999713897705,3.5299999713897705,1183900
2020-11-10,3.3499999046325684,3.390000104904175,3.0,3.0199999809265137,3.0199999809265137,1068300
2020-11-11,2.9700000286102295,3.119999885559082,2.9000000953674316,2.9800000190734863,2.9800000190734863,793100
2020-11-12,2.9200000762939453,3.450000047683716,2.8499999046325684,3.1700000762939453,3.1700000762939453,2117700
2020-11-13,3.299999952316284,3.450000047683716,3.0199999809265137,3.109999895095825,3.109999895095825,1527200
2020-11-16,3.049999952316284,3.1700000762939453,2.9700000286102295,3.069999933242798,3.069999933242798,673600
2020-11-17,2.9800000190734863,3.2200000286102295,2.9600000381469727,3.0199999809265137,3.0199999809265137,886500
2020-11-18,3.009999990463257,3.059999942779541,2.9600000381469727,3.009999990463257,3.009999990463257,373700
2020-11-19,2.930000066757202,3.0999999046325684,2.890000104904175,3.009999990463257,3.009999990463257,836500
2020-11-20,3.6500000953674316,7.460000038146973,3.5999999046325684,6.059999942779541,6.059999942779541,135796400
2020-11-23,8.460000038146973,10.1899995803833,8.270000457763672,9.489999771118164,9.489999771118164,88094100
2020-11-24,7.849999904632568,7.96999979019165,6.679999828338623,7.239999771118164,7.239999771118164,8992800
2020-11-25,6.96999979019165,8.819999694824219,6.769999980926514,7.489999771118164,7.489999771118164,9203300
2020-11-27,7.699999809265137,7.840000152587891,7.050000190734863,7.480000019073486,7.480000019073486,1788800
2020-11-30,7.170000076293945,7.300000190734863,6.320000171661377,6.489999771118164,6.489999771118164,1912600
2020-12-01,7.010000228881836,8.600000381469727,6.849999904632568,7.03000020980835,7.03000020980835,14956700
2020-12-02,7.050000190734863,7.070000171661377,6.309999942779541,6.730000019073486,6.730000019073486,1487800
2020-12-03,6.800000190734863,6.949999809265137,6.489999771118164,6.559999942779541,6.559999942779541,1095500
2020-12-04,6.559999942779541,6.579999923706055,4.820000171661377,4.900000095367432,4.900000095367432,5614800
2020-12-07,5.25,5.25,4.300000190734863,4.349999904632568,4.349999904632568,4291000
2020-12-08,4.550000190734863,4.640999794006348,4.349999904632568,4.400000095367432,4.400000095367432,3348100
2020-12-09,4.409999847412109,4.949999809265137,3.950000047683716,3.990000009536743,3.990000009536743,6017300
2020-12-10,3.859999895095825,4.099999904632568,3.759999990463257,3.930000066757202,3.930000066757202,1591600
2020-12-11,3.9000000953674316,4.179999828338623,3.8399999141693115,4.03000020980835,4.03000020980835,2031800
2020-12-14,4.150000095367432,4.320000171661377,3.9100000858306885,4.079999923706055,4.079999923706055,1585300
2020-12-15,4.110000133514404,4.139999866485596,3.9100000858306885,4.090000152587891,4.090000152587891,1266800
2020-12-16,3.990000009536743,4.050000190734863,3.9000000953674316,4.03000020980835,4.03000020980835,914400
2020-12-17,4.0,4.349999904632568,3.950000047683716,4.139999866485596,4.139999866485596,2390600
2020-12-18,4.25,5.25,4.139999866485596,4.670000076293945,4.670000076293945,10174900
2020-12-21,4.460000038146973,4.670000076293945,4.28000020980835,4.480000019073486,4.480000019073486,2116600
2020-12-22,4.46999979019165,4.699999809265137,4.179999828338623,4.309999942779541,4.309999942779541,2309300
2020-12-23,4.380000114440918,4.39300012588501,4.150000095367432,4.269999980926514,4.269999980926514,1055900
2020-12-24,4.269999980926514,4.269999980926514,3.819999933242798,3.9100000858306885,3.9100000858306885,1658200
2020-12-28,4.059999942779541,4.168000221252441,3.9000000953674316,3.9700000286102295,3.9700000286102295,1487400
2020-12-29,4.039999961853027,4.065000057220459,3.6500000953674316,3.7699999809265137,3.7699999809265137,1393100
2020-12-30,3.799999952316284,4.0,3.5999999046325684,3.990000009536743,3.990000009536743,1522300
