Date,Open,High,Low,Close,Adj Close,Volume
2020-10-19,25.010000228881836,25.139999389648438,23.25,23.989999771118164,22.835052490234375,569300
2020-10-20,24.100000381469727,24.399999618530273,24.010000228881836,24.149999618530273,22.987346649169922,248600
2020-10-21,24.200000762939453,24.459999084472656,24.15999984741211,24.30699920654297,23.13678741455078,135700
2020-10-22,24.1200008392334,24.389999389648438,24.1200008392334,24.34000015258789,23.16819953918457,67000
2020-10-23,24.399999618530273,24.549999237060547,24.350000381469727,24.540000915527344,23.35857582092285,75700
2020-10-26,24.530000686645508,24.56999969482422,24.299999237060547,24.40999984741211,23.353788375854492,107100
2020-10-27,24.469999313354492,24.489999771118164,24.309999465942383,24.40999984741211,23.353788375854492,123200
2020-10-28,24.299999237060547,24.388999938964844,24.0,24.079999923706055,23.038066864013672,83600
2020-10-29,24.079999923706055,24.290000915527344,24.079999923706055,24.239999771118164,23.191143035888672,64200
2020-10-30,24.260000228881836,24.979999542236328,24.0,24.979999542236328,23.89912223815918,702200
2020-11-02,24.899999618530273,24.899999618530273,24.600000381469727,24.75,23.679073333740234,78200
2020-11-03,24.780000686645508,24.78499984741211,24.559999465942383,24.700000762939453,23.631240844726562,45700
2020-11-04,24.700000762939453,24.760000228881836,24.420000076293945,24.600000381469727,23.535568237304688,56700
2020-11-05,24.610000610351562,24.649999618530273,24.43000030517578,24.559999465942383,23.49729347229004,46100
2020-11-06,24.613000869750977,24.613000869750977,24.360000610351562,24.459999084472656,23.401622772216797,29100
2020-11-09,24.600000381469727,24.600000381469727,24.149999618530273,24.290000915527344,23.238981246948242,106700
2020-11-10,24.299999237060547,24.347999572753906,24.15999984741211,24.270000457763672,23.219844818115234,61800
2020-11-11,24.274999618530273,24.309999465942383,24.200000762939453,24.229999542236328,23.181577682495117,92300
2020-11-12,24.239999771118164,24.270000457763672,24.149999618530273,24.18000030517578,23.13374137878418,20300
2020-11-13,24.239999771118164,24.290000915527344,24.149999618530273,24.280000686645508,23.229412078857422,50500
2020-11-16,24.389999389648438,24.45599937438965,24.209999084472656,24.34000015258789,23.28681755065918,150800
2020-11-17,24.360000610351562,24.510000228881836,24.280000686645508,24.360000610351562,23.30595588684082,57400
2020-11-18,24.459999084472656,24.459999084472656,24.34000015258789,24.350000381469727,23.29638671875,119600
2020-11-19,24.469999313354492,24.739999771118164,24.42799949645996,24.739999771118164,23.669506072998047,215500
2020-11-20,24.799999237060547,24.899999618530273,24.75,24.809999465942383,23.736480712890625,95400
2020-11-23,24.899999618530273,24.979999542236328,24.760000228881836,24.790000915527344,23.71734619140625,72300
2020-11-24,24.829999923706055,24.989999771118164,24.709999084472656,24.989999771118164,24.02985954284668,52300
2020-11-25,25.0,25.0,24.81999969482422,24.989999771118164,24.02985954284668,27500
2020-11-27,25.0,25.0,24.850000381469727,24.90999984741211,23.952932357788086,26600
2020-11-30,24.940000534057617,24.940000534057617,24.75,24.81999969482422,23.866390228271484,37900
2020-12-01,24.899999618530273,24.979999542236328,24.7450008392334,24.770000457763672,23.818309783935547,43100
2020-12-02,24.81599998474121,24.937000274658203,24.770000457763672,24.799999237060547,23.847158432006836,37600
2020-12-03,24.8700008392334,24.959999084472656,24.834999084472656,24.871999740600586,23.91639518737793,18700
2020-12-04,24.969999313354492,24.969999313354492,24.729999542236328,24.729999542236328,23.779848098754883,76500
2020-12-07,24.773000717163086,24.889999389648438,24.719999313354492,24.729999542236328,23.779848098754883,54100
2020-12-08,24.799999237060547,24.834999084472656,24.6200008392334,24.65999984741211,23.712539672851562,73500
2020-12-09,24.75,24.770000457763672,24.440000534057617,24.5,23.558685302734375,82500
2020-12-10,24.510000228881836,24.639999389648438,24.399999618530273,24.40999984741211,23.472145080566406,102700
2020-12-11,24.489999771118164,24.610000610351562,24.459999084472656,24.59000015258789,23.645225524902344,106900
2020-12-14,24.75,24.969999313354492,24.65999984741211,24.809999465942383,23.856775283813477,169600
2020-12-15,24.889999389648438,24.959999084472656,24.795000076293945,24.8700008392334,23.914472579956055,80200
2020-12-16,24.920000076293945,24.969999313354492,24.850000381469727,24.889999389648438,23.933700561523438,62400
2020-12-17,24.90999984741211,24.979999542236328,24.8700008392334,24.959999084472656,24.001007080078125,62400
2020-12-18,24.959999084472656,24.979999542236328,24.780000686645508,24.81999969482422,23.866390228271484,48000
2020-12-21,24.889999389648438,24.989999771118164,24.850000381469727,24.8799991607666,23.924083709716797,71500
2020-12-22,24.979999542236328,24.979999542236328,24.860000610351562,24.8700008392334,23.914472579956055,39500
2020-12-23,24.899999618530273,24.989999771118164,24.700000762939453,24.875,24.04010581970215,45300
2020-12-24,24.889999389648438,24.920000076293945,24.809999465942383,24.860000610351562,24.025611877441406,19500
2020-12-28,25.0,25.139999389648438,24.850000381469727,24.899999618530273,24.064268112182617,74800
2020-12-29,24.989999771118164,25.07699966430664,24.850000381469727,24.950000762939453,24.112592697143555,55500
2020-12-30,24.950000762939453,25.05500030517578,24.8799991607666,24.954999923706055,24.117422103881836,63400
