Date,Open,High,Low,Close,Adj Close,Volume
2018-03-20,10.979999542236328,10.979999542236328,10.199999809265137,10.699999809265137,10.699999809265137,36900
2018-03-21,10.949999809265137,10.949999809265137,10.25,10.800000190734863,10.800000190734863,25400
2018-03-22,10.449999809265137,10.789999961853027,10.25100040435791,10.5,10.5,1100
2018-03-23,10.347000122070312,10.5,10.199999809265137,10.399999618530273,10.399999618530273,17300
2018-03-26,10.399999618530273,10.399999618530273,10.050000190734863,10.069999694824219,10.069999694824219,14700
2018-03-27,10.25,10.399999618530273,9.899999618530273,10.050000190734863,10.050000190734863,6800
2018-03-28,10.100000381469727,10.100000381469727,10.100000381469727,10.100000381469727,10.100000381469727,100
2018-03-29,9.970000267028809,10.050000190734863,9.461000442504883,10.050000190734863,10.050000190734863,12700
2018-04-02,9.899999618530273,10.0,9.899999618530273,10.0,10.0,23200
2018-04-03,10.0600004196167,10.0600004196167,9.84000015258789,9.989999771118164,9.989999771118164,7200
2018-04-04,9.84000015258789,9.960000038146973,9.84000015258789,9.960000038146973,9.960000038146973,3300
2018-04-05,10.006999969482422,10.019000053405762,9.960000038146973,9.970000267028809,9.970000267028809,17600
2018-04-06,9.970000267028809,9.998000144958496,9.869999885559082,9.869999885559082,9.869999885559082,7700
2018-04-09,9.930000305175781,9.939000129699707,9.5,9.800000190734863,9.800000190734863,22100
2018-04-10,10.0,10.3100004196167,9.979999542236328,10.300000190734863,10.300000190734863,69800
2018-04-11,10.300000190734863,10.600000381469727,10.199999809265137,10.449999809265137,10.449999809265137,43900
2018-04-12,10.5,10.5,10.3100004196167,10.350000381469727,10.350000381469727,49800
2018-04-13,10.350000381469727,10.350000381469727,10.149999618530273,10.236000061035156,10.236000061035156,6600
2018-04-16,10.300000190734863,10.300000190734863,9.949999809265137,9.949999809265137,9.949999809265137,13400
2018-04-17,10.0,10.039999961853027,9.949999809265137,10.0,10.0,8000
2018-04-18,10.079999923706055,10.079999923706055,9.850000381469727,10.019000053405762,10.019000053405762,7000
2018-04-19,10.020999908447266,10.020999908447266,9.411999702453613,9.60200023651123,9.60200023651123,44500
2018-04-20,9.270000457763672,9.699000358581543,9.239999771118164,9.4399995803833,9.4399995803833,43200
2018-04-23,9.25,9.699999809265137,9.083000183105469,9.5,9.5,17600
2018-04-24,9.600000381469727,9.600000381469727,9.324999809265137,9.404999732971191,9.404999732971191,900
2018-04-25,9.449999809265137,9.449999809265137,9.199999809265137,9.350000381469727,9.350000381469727,4600
2018-04-26,9.371999740600586,9.399999618530273,9.199999809265137,9.25,9.25,27000
2018-04-27,9.449999809265137,10.029999732971191,9.199999809265137,9.5,9.5,62900
2018-04-30,9.600000381469727,10.010000228881836,9.600000381469727,9.9399995803833,9.9399995803833,49100
2018-05-01,9.98900032043457,10.0,9.75,9.899999618530273,9.899999618530273,41800
2018-05-02,9.939000129699707,10.0,9.899999618530273,9.899999618530273,9.899999618530273,17600
2018-05-03,9.920000076293945,9.989999771118164,9.859999656677246,9.859999656677246,9.859999656677246,15500
2018-05-04,9.859999656677246,9.859999656677246,9.699999809265137,9.72700023651123,9.72700023651123,21800
2018-05-07,9.75,9.75,9.350000381469727,9.446999549865723,9.446999549865723,44500
2018-05-08,9.545000076293945,9.545000076293945,9.199999809265137,9.222000122070312,9.222000122070312,43700
2018-05-09,9.149999618530273,9.34000015258789,8.640000343322754,9.0,9.0,31600
2018-05-10,9.0,9.230999946594238,8.819999694824219,8.899999618530273,8.899999618530273,29900
2018-05-11,9.100000381469727,9.180000305175781,8.890000343322754,8.899999618530273,8.899999618530273,14900
2018-05-14,8.960000038146973,8.960000038146973,8.609999656677246,8.739999771118164,8.739999771118164,22800
2018-05-15,8.680000305175781,8.9399995803833,8.65999984741211,8.779999732971191,8.779999732971191,15100
2018-05-16,8.770000457763672,8.770000457763672,8.539999961853027,8.539999961853027,8.539999961853027,14900
2018-05-17,8.75,8.75,8.579999923706055,8.699999809265137,8.699999809265137,35600
2018-05-18,8.729999542236328,8.729999542236328,8.279999732971191,8.3100004196167,8.3100004196167,23100
2018-05-21,8.666999816894531,8.920000076293945,8.50100040435791,8.859999656677246,8.859999656677246,9700
2018-05-22,8.800000190734863,9.619999885559082,8.65999984741211,9.463000297546387,9.463000297546387,43300
2018-05-23,9.4399995803833,9.4399995803833,8.949999809265137,9.300000190734863,9.300000190734863,18900
2018-05-24,9.199999809265137,9.4399995803833,8.890000343322754,9.199999809265137,9.199999809265137,25500
2018-05-25,9.319999694824219,9.390000343322754,9.029999732971191,9.029999732971191,9.029999732971191,12900
2018-05-29,9.180000305175781,9.399999618530273,9.010000228881836,9.229999542236328,9.229999542236328,3200
2018-05-30,9.15999984741211,9.25,9.149999618530273,9.25,9.25,6200
2018-05-31,9.300000190734863,9.300000190734863,8.979999542236328,8.989999771118164,8.989999771118164,35600
2018-06-01,9.039999961853027,9.039999961853027,8.420000076293945,8.789999961853027,8.789999961853027,45100
2018-06-04,8.899999618530273,9.289999961853027,8.880000114440918,8.989999771118164,8.989999771118164,20200
2018-06-05,9.0,9.0,8.770999908447266,8.890000343322754,8.890000343322754,61400
2018-06-06,8.949999809265137,8.979999542236328,8.829999923706055,8.829999923706055,8.829999923706055,57500
2018-06-07,8.869999885559082,8.869999885559082,8.729999542236328,8.75,8.75,12700
2018-06-08,8.75,8.770000457763672,8.619999885559082,8.65999984741211,8.65999984741211,16300
2018-06-11,8.75,8.949999809265137,8.75,8.880000114440918,8.880000114440918,53100
2018-06-12,8.949999809265137,8.979999542236328,8.710000038146973,8.710000038146973,8.710000038146973,17400
2018-06-13,8.779999732971191,8.824999809265137,8.5,8.5,8.5,26000
2018-06-14,8.600000381469727,8.619999885559082,8.1899995803833,8.1899995803833,8.1899995803833,64900
2018-06-15,8.199999809265137,8.489999771118164,7.599999904632568,7.610000133514404,7.610000133514404,68400
2018-06-18,7.940000057220459,8.0,7.25,7.269999980926514,7.269999980926514,88800
2018-06-19,7.289999961853027,7.966000080108643,7.289999961853027,7.429999828338623,7.429999828338623,35800
2018-06-20,7.510000228881836,8.5,7.510000228881836,8.470000267028809,8.470000267028809,28300
2018-06-21,8.350000381469727,8.489999771118164,8.029999732971191,8.210000038146973,8.210000038146973,22800
2018-06-22,8.079999923706055,8.739999771118164,8.079999923706055,8.729999542236328,8.729999542236328,36700
2018-06-25,8.739999771118164,8.739999771118164,7.940000057220459,8.40999984741211,8.40999984741211,26600
2018-06-26,8.34000015258789,8.59000015258789,8.100000381469727,8.59000015258789,8.59000015258789,20000
2018-06-27,8.600000381469727,8.600000381469727,8.300000190734863,8.3100004196167,8.3100004196167,15800
2018-06-28,8.369999885559082,8.630000114440918,8.331999778747559,8.59000015258789,8.59000015258789,11600
2018-06-29,8.539999961853027,8.9399995803833,8.45199966430664,8.890000343322754,8.890000343322754,20800
2018-07-02,8.770000457763672,8.9399995803833,8.5,8.510000228881836,8.510000228881836,15200
2018-07-03,8.600000381469727,8.760000228881836,8.600000381469727,8.760000228881836,8.760000228881836,1300
2018-07-05,8.800000190734863,8.8100004196167,8.579999923706055,8.649999618530273,8.649999618530273,13100
2018-07-06,8.739999771118164,8.75,8.720000267028809,8.75,8.75,1800
2018-07-09,8.850000381469727,8.930000305175781,8.541999816894531,8.930000305175781,8.930000305175781,19800
2018-07-10,8.949999809265137,8.949999809265137,8.710000038146973,8.899999618530273,8.899999618530273,9100
2018-07-11,8.819999694824219,9.510000228881836,8.630000114440918,9.220000267028809,9.220000267028809,49400
2018-07-12,9.229999542236328,9.449999809265137,9.15999984741211,9.34000015258789,9.34000015258789,4200
2018-07-13,9.420000076293945,9.420000076293945,9.305000305175781,9.369999885559082,9.369999885559082,3400
2018-07-16,9.256999969482422,9.289999961853027,9.125,9.199999809265137,9.199999809265137,11600
2018-07-17,9.029999732971191,9.4399995803833,9.029999732971191,9.324999809265137,9.324999809265137,13900
2018-07-18,9.420000076293945,9.420000076293945,9.050000190734863,9.229999542236328,9.229999542236328,2500
2018-07-19,9.15999984741211,9.265000343322754,9.15999984741211,9.265000343322754,9.265000343322754,900
2018-07-20,9.25,9.25,9.079999923706055,9.199999809265137,9.199999809265137,9100
2018-07-23,9.130000114440918,9.130000114440918,8.84000015258789,9.069999694824219,9.069999694824219,9500
2018-07-24,9.119999885559082,9.119999885559082,8.760000228881836,8.937000274658203,8.937000274658203,14000
2018-07-25,8.949999809265137,8.949999809265137,8.770000457763672,8.800000190734863,8.800000190734863,35200
2018-07-26,8.800000190734863,9.329999923706055,8.800000190734863,9.069999694824219,9.069999694824219,3700
2018-07-27,9.069999694824219,9.069999694824219,9.069999694824219,9.069999694824219,9.069999694824219,0
2018-07-30,9.140000343322754,9.140000343322754,8.899999618530273,8.920000076293945,8.920000076293945,3000
2018-07-31,8.928000450134277,8.989999771118164,8.859999656677246,8.949999809265137,8.949999809265137,3500
2018-08-01,8.90999984741211,8.90999984741211,8.800000190734863,8.819999694824219,8.819999694824219,5800
2018-08-02,8.760000228881836,8.899999618530273,8.5,8.899999618530273,8.899999618530273,30100
2018-08-03,8.829999923706055,9.0,8.829999923706055,9.0,9.0,400
2018-08-06,8.829999923706055,9.0,8.710000038146973,9.0,9.0,4100
2018-08-07,9.0,9.0,9.0,9.0,9.0,0
2018-08-08,8.699999809265137,8.987000465393066,8.600000381469727,8.609999656677246,8.609999656677246,7200
2018-08-09,8.45300006866455,8.684000015258789,8.300000190734863,8.303000450134277,8.303000450134277,8700
2018-08-10,8.350000381469727,8.350000381469727,7.810999870300293,7.916999816894531,7.916999816894531,7000
2018-08-13,8.140000343322754,8.609999656677246,8.0,8.609999656677246,8.609999656677246,13800
2018-08-14,8.550000190734863,8.619999885559082,8.260000228881836,8.270000457763672,8.270000457763672,6900
2018-08-15,8.380000114440918,8.380000114440918,7.860000133514404,7.860000133514404,7.860000133514404,200
2018-08-16,8.119999885559082,8.430000305175781,8.020000457763672,8.25,8.25,8500
2018-08-17,8.25,8.4399995803833,8.008999824523926,8.399999618530273,8.399999618530273,30700
2018-08-20,8.229999542236328,8.229999542236328,7.650000095367432,7.900000095367432,7.900000095367432,10600
2018-08-21,8.041999816894531,8.041999816894531,7.864999771118164,8.010000228881836,8.010000228881836,26500
2018-08-22,7.809999942779541,7.809999942779541,7.800000190734863,7.800000190734863,7.800000190734863,600
2018-08-23,7.880000114440918,7.900000095367432,7.715000152587891,7.900000095367432,7.900000095367432,5700
2018-08-24,7.966000080108643,8.0,7.949999809265137,8.0,8.0,1300
2018-08-27,8.020000457763672,8.020000457763672,7.800000190734863,7.960000038146973,7.960000038146973,7900
2018-08-28,7.9029998779296875,7.908999919891357,7.78000020980835,7.800000190734863,7.800000190734863,3900
2018-08-29,7.78000020980835,7.800000190734863,7.760000228881836,7.789999961853027,7.789999961853027,6400
2018-08-30,7.78000020980835,7.800000190734863,7.77400016784668,7.783999919891357,7.783999919891357,5000
2018-08-31,7.809999942779541,7.809999942779541,7.571000099182129,7.739999771118164,7.739999771118164,21300
2018-09-04,7.739999771118164,7.739999771118164,7.699999809265137,7.699999809265137,7.699999809265137,4200
2018-09-05,7.710000038146973,7.789999961853027,7.650000095367432,7.789999961853027,7.789999961853027,3300
2018-09-06,7.689000129699707,7.689000129699707,7.5,7.539999961853027,7.539999961853027,5500
2018-09-07,7.550000190734863,7.650000095367432,7.550000190734863,7.650000095367432,7.650000095367432,1600
2018-09-10,7.650000095367432,8.479999542236328,7.510000228881836,8.220000267028809,8.220000267028809,36500
2018-09-11,8.010000228881836,8.449999809265137,7.820000171661377,8.0,8.0,27800
2018-09-12,8.350000381469727,8.359999656677246,7.840000152587891,8.180000305175781,8.180000305175781,19300
2018-09-13,8.039999961853027,8.199999809265137,7.619999885559082,8.180000305175781,8.180000305175781,21300
2018-09-14,7.989999771118164,8.5,7.980000019073486,8.5,8.5,18400
2018-09-17,8.239999771118164,8.479999542236328,7.900000095367432,8.100000381469727,8.100000381469727,20300
2018-09-18,8.039999961853027,8.49899959564209,8.0,8.024999618530273,8.024999618530273,22300
2018-09-19,8.050000190734863,8.100000381469727,7.920000076293945,8.100000381469727,8.100000381469727,16800
2018-09-20,8.0,8.109999656677246,7.849999904632568,8.0,8.0,98900
2018-09-21,8.15999984741211,8.15999984741211,7.139999866485596,7.199999809265137,7.199999809265137,25600
2018-09-24,7.320000171661377,7.800000190734863,7.159999847412109,7.800000190734863,7.800000190734863,26700
2018-09-25,7.480000019073486,7.78000020980835,7.480000019073486,7.539999961853027,7.539999961853027,2100
2018-09-26,7.650000095367432,7.730000019073486,7.5,7.5,7.5,4400
2018-09-27,7.510000228881836,7.630000114440918,7.429999828338623,7.449999809265137,7.449999809265137,5900
2018-09-28,7.519999980926514,7.630000114440918,7.5,7.550000190734863,7.550000190734863,2500
2018-10-01,7.550000190734863,7.659999847412109,7.429999828338623,7.659999847412109,7.659999847412109,4400
2018-10-02,7.599999904632568,7.599999904632568,7.429999828338623,7.429999828338623,7.429999828338623,2800
2018-10-03,7.440000057220459,7.590000152587891,7.429999828338623,7.590000152587891,7.590000152587891,1000
2018-10-04,7.53000020980835,7.53000020980835,6.979000091552734,7.179999828338623,7.179999828338623,13600
2018-10-05,7.210000038146973,7.210000038146973,7.0,7.190000057220459,7.190000057220459,2900
2018-10-08,7.224999904632568,7.224999904632568,7.019999980926514,7.150000095367432,7.150000095367432,1400
2018-10-09,7.230000019073486,7.230000019073486,7.019999980926514,7.019999980926514,7.019999980926514,1500
2018-10-10,7.019999980926514,7.068999767303467,6.989999771118164,6.989999771118164,6.989999771118164,5900
2018-10-11,7.2170000076293945,7.230000019073486,6.619999885559082,6.860000133514404,6.860000133514404,15300
2018-10-12,6.960000038146973,7.099999904632568,6.860000133514404,7.090000152587891,7.090000152587891,4000
2018-10-15,6.985000133514404,7.0,6.860000133514404,6.860000133514404,6.860000133514404,2800
2018-10-16,6.906000137329102,6.909999847412109,6.860000133514404,6.860000133514404,6.860000133514404,2200
2018-10-17,6.860000133514404,7.03000020980835,6.860000133514404,6.90500020980835,6.90500020980835,2500
2018-10-18,6.998000144958496,7.0,6.860000133514404,6.9120001792907715,6.9120001792907715,3700
2018-10-19,6.949999809265137,6.949999809265137,6.860000133514404,6.860000133514404,6.860000133514404,2100
2018-10-22,6.929999828338623,7.0,6.860000133514404,7.0,7.0,4200
2018-10-23,6.979000091552734,7.0,6.945000171661377,6.949999809265137,6.949999809265137,2600
2018-10-24,6.918000221252441,6.934999942779541,6.739999771118164,6.739999771118164,6.739999771118164,2400
2018-10-25,6.659999847412109,6.670000076293945,6.400000095367432,6.400000095367432,6.400000095367432,18800
2018-10-26,6.5,6.550000190734863,6.0,6.019999980926514,6.019999980926514,34700
2018-10-29,6.170000076293945,6.199999809265137,6.119999885559082,6.119999885559082,6.119999885559082,3100
2018-10-30,6.010000228881836,6.150000095367432,5.71999979019165,6.065999984741211,6.065999984741211,14300
2018-10-31,6.0,6.170000076293945,6.0,6.170000076293945,6.170000076293945,4300
2018-11-01,6.144000053405762,6.144000053405762,6.144000053405762,6.144000053405762,6.144000053405762,200
2018-11-02,6.199999809265137,6.199999809265137,5.900000095367432,5.949999809265137,5.949999809265137,11200
2018-11-05,5.668000221252441,5.900000095367432,5.668000221252441,5.75,5.75,4700
2018-11-06,5.900000095367432,5.900000095367432,5.760000228881836,5.760000228881836,5.760000228881836,1400
2018-11-07,5.849999904632568,5.909999847412109,5.800000190734863,5.800000190734863,5.800000190734863,4700
2018-11-08,5.5,5.5,4.800000190734863,4.811999797821045,4.811999797821045,32800
2018-11-09,4.949999809265137,5.150000095367432,4.410999774932861,4.9679999351501465,4.9679999351501465,31100
2018-11-12,5.0,5.659999847412109,5.0,5.440000057220459,5.440000057220459,57600
2018-11-13,5.53000020980835,5.53000020980835,5.320000171661377,5.5,5.5,13400
2018-11-14,5.5,5.5,5.150000095367432,5.150000095367432,5.150000095367432,26800
2018-11-15,5.090000152587891,5.360000133514404,5.050000190734863,5.360000133514404,5.360000133514404,5200
2018-11-16,5.099999904632568,5.159999847412109,4.949999809265137,4.949999809265137,4.949999809265137,23500
2018-11-19,4.900000095367432,5.300000190734863,4.630000114440918,5.300000190734863,5.300000190734863,58600
2018-11-20,5.099999904632568,5.150000095367432,4.539999961853027,5.150000095367432,5.150000095367432,28300
2018-11-21,5.340000152587891,5.340000152587891,4.995999813079834,5.130000114440918,5.130000114440918,12000
2018-11-23,5.039999961853027,5.257999897003174,4.849999904632568,4.849999904632568,4.849999904632568,14900
2018-11-26,4.889999866485596,5.199999809265137,4.889999866485596,5.130000114440918,5.130000114440918,3400
2018-11-27,5.059999942779541,5.099999904632568,5.059999942779541,5.099999904632568,5.099999904632568,400
2018-11-28,5.034999847412109,5.71999979019165,5.034999847412109,5.610000133514404,5.610000133514404,9800
2018-11-29,5.710000038146973,5.710000038146973,5.120999813079834,5.480000019073486,5.480000019073486,2500
2018-11-30,5.324999809265137,5.769999980926514,5.289999961853027,5.289999961853027,5.289999961853027,8100
2018-12-03,5.429999828338623,5.578000068664551,5.400000095367432,5.539999961853027,5.539999961853027,7900
2018-12-04,5.159999847412109,5.5229997634887695,5.145999908447266,5.5229997634887695,5.5229997634887695,1600
2018-12-06,5.400000095367432,5.400000095367432,5.239999771118164,5.239999771118164,5.239999771118164,1000
2018-12-07,5.28000020980835,5.5,5.0,5.5,5.5,2100
2018-12-10,5.5,5.86899995803833,5.14900016784668,5.445000171661377,5.445000171661377,26300
2018-12-11,5.380000114440918,5.599999904632568,5.235000133514404,5.235000133514404,5.235000133514404,8200
2018-12-12,5.0320000648498535,5.25,5.0320000648498535,5.139999866485596,5.139999866485596,800
2018-12-13,5.150000095367432,5.260000228881836,5.150000095367432,5.260000228881836,5.260000228881836,94400
2018-12-14,5.489999771118164,6.0,5.385000228881836,5.809999942779541,5.809999942779541,107400
2018-12-17,5.880000114440918,5.889999866485596,5.25,5.285999774932861,5.285999774932861,7300
2018-12-18,5.400000095367432,5.400000095367432,4.949999809265137,5.210000038146973,5.210000038146973,6900
2018-12-19,5.21999979019165,5.21999979019165,4.820000171661377,4.929999828338623,4.929999828338623,2400
2018-12-20,5.039999961853027,5.039999961853027,4.572000026702881,4.670000076293945,4.670000076293945,5900
2018-12-21,4.800000190734863,4.961999893188477,4.557000160217285,4.961999893188477,4.961999893188477,30700
2018-12-24,4.699999809265137,5.090000152587891,4.699999809265137,5.090000152587891,5.090000152587891,15900
2018-12-26,5.110000133514404,5.110000133514404,5.010000228881836,5.050000190734863,5.050000190734863,3000
2018-12-27,5.335000038146973,5.335000038146973,5.335000038146973,5.335000038146973,5.335000038146973,600
2018-12-28,5.21999979019165,5.75,5.199999809265137,5.269999980926514,5.269999980926514,17800
2018-12-31,5.550000190734863,5.800000190734863,5.269999980926514,5.400000095367432,5.400000095367432,17500
2019-01-02,5.519999980926514,5.980000019073486,5.431000232696533,5.980000019073486,5.980000019073486,5500
2019-01-03,5.960000038146973,5.960000038146973,5.5980000495910645,5.75,5.75,3700
2019-01-04,5.78000020980835,5.78000020980835,5.670000076293945,5.695000171661377,5.695000171661377,600
2019-01-07,5.849999904632568,6.190000057220459,5.849999904632568,6.130000114440918,6.130000114440918,3000
2019-01-08,6.019999980926514,6.599999904632568,6.0,6.360000133514404,6.360000133514404,1300
2019-01-09,6.78000020980835,6.959000110626221,6.289999961853027,6.320000171661377,6.320000171661377,2100
2019-01-10,6.632999897003174,6.632999897003174,6.4679999351501465,6.4679999351501465,6.4679999351501465,1700
2019-01-11,6.489999771118164,6.750999927520752,6.255000114440918,6.260000228881836,6.260000228881836,2000
2019-01-14,6.489999771118164,6.559999942779541,6.340000152587891,6.389999866485596,6.389999866485596,15300
2019-01-15,6.369999885559082,6.550000190734863,6.369999885559082,6.510000228881836,6.510000228881836,3700
2019-01-16,6.5,6.510000228881836,6.5,6.5,6.5,5900
2019-01-17,6.460000038146973,6.510000228881836,6.449999809265137,6.449999809265137,6.449999809265137,11700
2019-01-18,6.420000076293945,7.010000228881836,6.420000076293945,6.849999904632568,6.849999904632568,27400
2019-01-22,6.929999828338623,6.929999828338623,6.5,6.5,6.5,17700
2019-01-23,6.5,6.940000057220459,6.449999809265137,6.75,6.75,8400
2019-01-24,6.630000114440918,6.849999904632568,6.489999771118164,6.78000020980835,6.78000020980835,2500
2019-01-25,6.739999771118164,6.739999771118164,6.110000133514404,6.110000133514404,6.110000133514404,2500
2019-01-28,6.0,6.420000076293945,6.0,6.420000076293945,6.420000076293945,1900
2019-01-29,6.420000076293945,7.03000020980835,6.420000076293945,6.460000038146973,6.460000038146973,8800
2019-01-30,6.5,6.534999847412109,6.050000190734863,6.25,6.25,4400
2019-01-31,6.329999923706055,6.550000190734863,6.150000095367432,6.150000095367432,6.150000095367432,3800
2019-02-01,6.150000095367432,6.150000095367432,6.150000095367432,6.150000095367432,6.150000095367432,100
2019-02-04,6.150000095367432,6.150000095367432,6.150000095367432,6.150000095367432,6.150000095367432,0
2019-02-05,6.25,6.53000020980835,6.25,6.53000020980835,6.53000020980835,1200
2019-02-06,6.53000020980835,6.53000020980835,6.53000020980835,6.53000020980835,6.53000020980835,100
2019-02-07,6.326000213623047,6.326000213623047,6.210000038146973,6.210000038146973,6.210000038146973,2300
2019-02-08,6.519999980926514,6.519999980926514,6.21999979019165,6.21999979019165,6.21999979019165,400
2019-02-11,6.260000228881836,6.519999980926514,6.260000228881836,6.489999771118164,6.489999771118164,1300
2019-02-12,6.489999771118164,6.489999771118164,6.448999881744385,6.46999979019165,6.46999979019165,1200
2019-02-13,6.440000057220459,6.449999809265137,6.400000095367432,6.400000095367432,6.400000095367432,4000
2019-02-14,6.5,6.5,6.230000019073486,6.25,6.25,3000
2019-02-15,6.389999866485596,6.800000190734863,6.210000038146973,6.210000038146973,6.210000038146973,6600
2019-02-19,6.5970001220703125,6.789999961853027,6.3379998207092285,6.3379998207092285,6.3379998207092285,2100
2019-02-20,6.440000057220459,6.449999809265137,6.150000095367432,6.150000095367432,6.150000095367432,9100
2019-02-21,6.416999816894531,6.510000228881836,6.150000095367432,6.150000095367432,6.150000095367432,3000
2019-02-22,6.28000020980835,6.28000020980835,6.28000020980835,6.28000020980835,6.28000020980835,200
2019-02-25,6.034999847412109,6.244999885559082,6.034999847412109,6.244999885559082,6.244999885559082,900
2019-02-26,6.269999980926514,6.269999980926514,6.269999980926514,6.269999980926514,6.269999980926514,400
2019-02-27,5.992000102996826,5.992000102996826,5.809999942779541,5.809999942779541,5.809999942779541,700
2019-02-28,5.900000095367432,5.940000057220459,5.789999961853027,5.800000190734863,5.800000190734863,9500
2019-03-01,5.489999771118164,5.949999809265137,5.489999771118164,5.940000057220459,5.940000057220459,8000
2019-03-04,5.550000190734863,5.869999885559082,5.420000076293945,5.420000076293945,5.420000076293945,5900
2019-03-05,5.420000076293945,5.730000019073486,5.360000133514404,5.710000038146973,5.710000038146973,5400
2019-03-06,5.659999847412109,5.659999847412109,5.159999847412109,5.579999923706055,5.579999923706055,3700
2019-03-07,5.199999809265137,5.599999904632568,5.099999904632568,5.599999904632568,5.599999904632568,11500
2019-03-08,5.25,5.75,5.25,5.739999771118164,5.739999771118164,9100
2019-03-11,5.429999828338623,5.670000076293945,5.409999847412109,5.559999942779541,5.559999942779541,5200
2019-03-12,5.559999942779541,5.559999942779541,5.559999942779541,5.559999942779541,5.559999942779541,0
2019-03-13,5.5,5.5,5.48799991607666,5.48799991607666,5.48799991607666,300
2019-03-14,5.552999973297119,5.559999942779541,5.552999973297119,5.559999942779541,5.559999942779541,700
2019-03-15,5.6020002365112305,5.75,5.599999904632568,5.699999809265137,5.699999809265137,18900
2019-03-18,5.679999828338623,5.900000095367432,5.663000106811523,5.690000057220459,5.690000057220459,22200
2019-03-19,5.683000087738037,5.683000087738037,5.546999931335449,5.550000190734863,5.550000190734863,6700
2019-03-20,5.488999843597412,5.5,5.413000106811523,5.440000057220459,5.440000057220459,2100
2019-03-21,5.400000095367432,5.5,5.159999847412109,5.210000038146973,5.210000038146973,23500
2019-03-22,5.179999828338623,5.190000057220459,5.010000228881836,5.019999980926514,5.019999980926514,9900
2019-03-25,5.0,5.0,4.519999980926514,4.550000190734863,4.550000190734863,29600
2019-03-26,4.75,4.75,4.389999866485596,4.559999942779541,4.559999942779541,37000
2019-03-27,4.550000190734863,4.610000133514404,4.5,4.5,4.5,5200
2019-03-28,4.739999771118164,4.739999771118164,4.739999771118164,4.739999771118164,4.739999771118164,100
2019-03-29,4.739999771118164,4.739999771118164,4.739999771118164,4.739999771118164,4.739999771118164,100
2019-04-01,4.632999897003174,4.632999897003174,4.599999904632568,4.599999904632568,4.599999904632568,2800
2019-04-02,4.572999954223633,4.650000095367432,4.304999828338623,4.650000095367432,4.650000095367432,21400
2019-04-03,4.650000095367432,4.75,4.586999893188477,4.650000095367432,4.650000095367432,29700
2019-04-04,4.559999942779541,4.650000095367432,4.559999942779541,4.598999977111816,4.598999977111816,3200
2019-04-05,4.550000190734863,4.599999904632568,4.550000190734863,4.572999954223633,4.572999954223633,5000
2019-04-08,4.551000118255615,4.551000118255615,4.449999809265137,4.550000190734863,4.550000190734863,1700
2019-04-09,4.5370001792907715,4.539999961853027,4.5,4.5269999504089355,4.5269999504089355,13700
2019-04-10,4.510000228881836,4.550000190734863,4.460000038146973,4.5,4.5,26100
2019-04-11,4.510000228881836,4.510000228881836,4.130000114440918,4.429999828338623,4.429999828338623,35600
2019-04-12,4.429999828338623,4.626999855041504,4.420000076293945,4.420000076293945,4.420000076293945,20700
2019-04-15,4.46999979019165,4.599999904632568,4.432000160217285,4.590000152587891,4.590000152587891,9600
2019-04-16,4.625999927520752,4.625999927520752,4.519999980926514,4.519999980926514,4.519999980926514,3300
2019-04-17,4.577000141143799,4.800000190734863,4.557000160217285,4.650000095367432,4.650000095367432,12300
2019-04-18,4.710000038146973,4.710000038146973,4.519999980926514,4.519999980926514,4.519999980926514,7400
2019-04-22,4.5,4.650000095367432,4.5,4.650000095367432,4.650000095367432,10000
2019-04-23,4.673999786376953,4.8470001220703125,4.539999961853027,4.8470001220703125,4.8470001220703125,10600
2019-04-24,4.71999979019165,5.099999904632568,4.658999919891357,4.949999809265137,4.949999809265137,48600
2019-04-25,4.849999904632568,4.900000095367432,4.8460001945495605,4.849999904632568,4.849999904632568,1200
2019-04-26,4.739999771118164,4.849999904632568,4.623000144958496,4.849999904632568,4.849999904632568,38200
2019-04-29,4.760000228881836,4.960000038146973,4.646999835968018,4.829999923706055,4.829999923706055,24300
2019-04-30,4.650000095367432,4.739999771118164,4.5,4.579999923706055,4.579999923706055,8600
2019-05-01,4.650000095367432,4.699999809265137,4.650000095367432,4.698999881744385,4.698999881744385,7800
2019-05-02,4.730000019073486,4.730000019073486,4.550000190734863,4.599999904632568,4.599999904632568,11100
2019-05-03,4.770999908447266,4.770999908447266,4.770999908447266,4.770999908447266,4.770999908447266,500
2019-05-06,4.570000171661377,5.40500020980835,4.53000020980835,4.690000057220459,4.690000057220459,58100
2019-05-07,4.849999904632568,5.039999961853027,4.7220001220703125,4.949999809265137,4.949999809265137,12800
2019-05-08,4.75,4.98199987411499,4.610000133514404,4.800000190734863,4.800000190734863,32500
2019-05-09,4.610000133514404,4.610000133514404,4.519999980926514,4.53000020980835,4.53000020980835,31700
2019-05-10,4.53000020980835,4.53000020980835,4.53000020980835,4.53000020980835,4.53000020980835,100
2019-05-13,4.599999904632568,4.699999809265137,4.5,4.550000190734863,4.550000190734863,36000
2019-05-14,4.5,4.820000171661377,4.210000038146973,4.494999885559082,4.494999885559082,31200
2019-05-15,4.75,5.026000022888184,4.369999885559082,4.960000038146973,4.960000038146973,1600
2019-05-16,4.699999809265137,5.639999866485596,4.699999809265137,5.639999866485596,5.639999866485596,8700
2019-05-17,5.639999866485596,5.639999866485596,5.639999866485596,5.639999866485596,5.639999866485596,0
2019-05-20,5.599999904632568,5.639999866485596,5.329999923706055,5.639999866485596,5.639999866485596,3200
2019-05-21,5.639999866485596,5.639999866485596,4.880000114440918,5.4070000648498535,5.4070000648498535,10300
2019-05-22,5.099999904632568,5.119999885559082,5.099999904632568,5.119999885559082,5.119999885559082,500
2019-05-23,5.400000095367432,5.550000190734863,4.949999809265137,5.300000190734863,5.300000190734863,8100
2019-05-24,5.300000190734863,5.320000171661377,5.179999828338623,5.199999809265137,5.199999809265137,4500
2019-05-28,5.159999847412109,5.210000038146973,4.994999885559082,4.994999885559082,4.994999885559082,2700
2019-05-29,5.079999923706055,5.199999809265137,4.809999942779541,4.960000038146973,4.960000038146973,3700
2019-05-30,4.75,5.0,4.75,4.909999847412109,4.909999847412109,3200
2019-05-31,5.0,5.260000228881836,5.0,5.260000228881836,5.260000228881836,1700
2019-06-03,5.156000137329102,5.156000137329102,5.156000137329102,5.156000137329102,5.156000137329102,400
2019-06-04,5.189000129699707,5.190000057220459,5.054999828338623,5.054999828338623,5.054999828338623,600
2019-06-05,5.054999828338623,5.054999828338623,5.054999828338623,5.054999828338623,5.054999828338623,100
2019-06-06,5.054999828338623,5.054999828338623,5.054999828338623,5.054999828338623,5.054999828338623,100
2019-06-07,5.184999942779541,5.184999942779541,5.184999942779541,5.184999942779541,5.184999942779541,500
2019-06-10,5.184999942779541,5.184999942779541,5.184999942779541,5.184999942779541,5.184999942779541,100
2019-06-11,5.110000133514404,5.110000133514404,5.110000133514404,5.110000133514404,5.110000133514404,100
2019-06-12,5.199999809265137,5.199999809265137,5.010000228881836,5.050000190734863,5.050000190734863,1200
2019-06-13,5.0,5.0,4.360000133514404,5.0,5.0,20700
2019-06-14,4.860000133514404,5.25,4.860000133514404,5.25,5.25,15100
2019-06-17,5.039999961853027,5.28000020980835,4.900000095367432,5.130000114440918,5.130000114440918,8700
2019-06-18,4.900000095367432,5.026000022888184,4.550000190734863,4.948999881744385,4.948999881744385,17000
2019-06-19,4.619999885559082,5.050000190734863,4.599999904632568,4.889999866485596,4.889999866485596,3600
2019-06-20,4.699999809265137,4.840000152587891,4.539999961853027,4.730000019073486,4.730000019073486,8700
2019-06-21,4.619999885559082,4.960000038146973,4.559999942779541,4.960000038146973,4.960000038146973,6200
2019-06-24,4.619999885559082,5.0329999923706055,4.5,4.71999979019165,4.71999979019165,12200
2019-06-25,5.0269999504089355,5.5,4.889999866485596,5.349999904632568,5.349999904632568,16300
2019-06-26,4.940999984741211,4.940999984741211,4.940999984741211,4.940999984741211,4.940999984741211,500
2019-06-27,5.14300012588501,5.14300012588501,5.021999835968018,5.021999835968018,5.021999835968018,900
2019-06-28,5.300000190734863,5.46999979019165,4.900000095367432,5.0,5.0,6900
2019-07-01,5.389999866485596,5.400000095367432,5.349999904632568,5.400000095367432,5.400000095367432,6900
2019-07-02,5.159999847412109,5.159999847412109,5.159999847412109,5.159999847412109,5.159999847412109,100
2019-07-03,5.159999847412109,5.159999847412109,5.159999847412109,5.159999847412109,5.159999847412109,0
2019-07-05,5.159999847412109,5.159999847412109,5.159999847412109,5.159999847412109,5.159999847412109,200
2019-07-08,5.039999961853027,5.051000118255615,4.75,5.039999961853027,5.039999961853027,16700
2019-07-09,5.050000190734863,5.050000190734863,5.0,5.050000190734863,5.050000190734863,4000
2019-07-10,5.0,5.46999979019165,5.0,5.289999961853027,5.289999961853027,16100
2019-07-11,5.199999809265137,5.300000190734863,5.179999828338623,5.300000190734863,5.300000190734863,1600
2019-07-12,5.25,5.25,5.25,5.25,5.25,500
2019-07-15,5.25,5.25,5.0,5.0,5.0,1200
2019-07-16,5.25,5.25,5.039999961853027,5.039999961853027,5.039999961853027,300
2019-07-17,4.949999809265137,4.949999809265137,4.949999809265137,4.949999809265137,4.949999809265137,300
2019-07-18,4.949999809265137,4.949999809265137,4.949999809265137,4.949999809265137,4.949999809265137,0
2019-07-19,5.025000095367432,5.131999969482422,5.025000095367432,5.131999969482422,5.131999969482422,2100
2019-07-22,5.119999885559082,5.119999885559082,5.050000190734863,5.050000190734863,5.050000190734863,400
2019-07-23,5.150000095367432,5.25,5.050000190734863,5.050000190734863,5.050000190734863,1900
2019-07-24,5.050000190734863,5.050000190734863,5.050000190734863,5.050000190734863,5.050000190734863,0
2019-07-25,5.050000190734863,5.050000190734863,5.050000190734863,5.050000190734863,5.050000190734863,100
2019-07-26,5.25,5.25,5.25,5.25,5.25,4000
2019-07-29,5.150000095367432,5.150000095367432,4.989999771118164,4.989999771118164,4.989999771118164,2500
2019-07-30,5.119999885559082,5.130000114440918,5.050000190734863,5.050000190734863,5.050000190734863,2800
2019-07-31,5.050000190734863,5.150000095367432,5.0,5.050000190734863,5.050000190734863,9800
2019-08-01,5.090000152587891,5.110000133514404,5.050000190734863,5.050000190734863,5.050000190734863,4600
2019-08-02,5.239999771118164,5.239999771118164,5.144999980926514,5.21999979019165,5.21999979019165,900
2019-08-05,5.239999771118164,5.239999771118164,5.144999980926514,5.21999979019165,5.21999979019165,100
2019-08-06,5.150000095367432,5.150000095367432,4.630000114440918,4.900000095367432,4.900000095367432,1100
2019-08-07,4.560999870300293,5.019999980926514,4.560999870300293,5.019999980926514,5.019999980926514,1000
2019-08-08,4.560999870300293,5.019999980926514,4.560999870300293,5.019999980926514,5.019999980926514,100
2019-08-09,4.619999885559082,4.619999885559082,4.619999885559082,4.619999885559082,4.619999885559082,100
2019-08-12,4.710000038146973,4.710000038146973,4.369999885559082,4.369999885559082,4.369999885559082,1600
2019-08-13,4.452000141143799,4.840000152587891,4.452000141143799,4.814000129699707,4.814000129699707,2000
2019-08-14,4.670000076293945,4.670000076293945,4.519999980926514,4.519999980926514,4.519999980926514,800
2019-08-15,4.670000076293945,4.670000076293945,4.519999980926514,4.519999980926514,4.519999980926514,800
2019-08-16,4.52400016784668,4.52400016784668,4.52400016784668,4.52400016784668,4.52400016784668,600
2019-08-19,4.598999977111816,4.599999904632568,4.5,4.5,4.5,8400
2019-08-20,4.5,4.598999977111816,4.5,4.590000152587891,4.590000152587891,5900
2019-08-21,4.5,4.599999904632568,4.5,4.599999904632568,4.599999904632568,14800
2019-08-22,4.599999904632568,4.599999904632568,4.599999904632568,4.599999904632568,4.599999904632568,0
2019-08-23,4.670000076293945,4.679999828338623,4.659999847412109,4.659999847412109,4.659999847412109,7400
2019-08-26,4.690000057220459,4.960000038146973,4.546999931335449,4.739999771118164,4.739999771118164,2200
2019-08-27,4.739999771118164,4.739999771118164,4.739999771118164,4.739999771118164,4.739999771118164,0
2019-08-28,4.739999771118164,4.739999771118164,4.739999771118164,4.739999771118164,4.739999771118164,0
2019-08-29,4.75,4.876999855041504,4.75,4.876999855041504,4.876999855041504,11400
2019-08-30,4.5229997634887695,4.75,4.5229997634887695,4.75,4.75,5600
2019-09-03,4.75,4.75,4.75,4.75,4.75,0
2019-09-04,4.5329999923706055,4.568999767303467,4.5329999923706055,4.559999942779541,4.559999942779541,3300
2019-09-05,4.651000022888184,4.651000022888184,4.539999961853027,4.619999885559082,4.619999885559082,1900
2019-09-06,4.550000190734863,4.550000190734863,4.550000190734863,4.550000190734863,4.550000190734863,200
2019-09-09,4.550000190734863,4.650000095367432,4.519999980926514,4.519999980926514,4.519999980926514,1800
2019-09-10,4.559999942779541,4.75,4.510000228881836,4.739999771118164,4.739999771118164,20800
2019-09-11,4.559999942779541,4.599999904632568,4.510000228881836,4.510000228881836,4.510000228881836,1600
2019-09-12,4.510000228881836,4.599999904632568,4.5,4.519999980926514,4.519999980926514,10900
2019-09-13,4.519999980926514,4.611000061035156,4.510000228881836,4.559999942779541,4.559999942779541,3600
2019-09-16,4.5,4.619999885559082,4.460000038146973,4.5,4.5,18600
2019-09-17,4.460000038146973,4.513000011444092,4.21999979019165,4.5,4.5,3300
2019-09-18,4.519999980926514,4.550000190734863,4.260000228881836,4.5,4.5,4200
2019-09-19,4.519999980926514,4.659999847412109,4.230000019073486,4.5,4.5,5500
2019-09-20,4.300000190734863,4.590000152587891,4.25,4.590000152587891,4.590000152587891,13400
2019-09-23,4.460000038146973,4.510000228881836,4.300000190734863,4.510000228881836,4.510000228881836,4900
2019-09-24,4.310999870300293,4.880000114440918,4.310999870300293,4.880000114440918,4.880000114440918,4000
2019-09-25,4.699999809265137,4.800000190734863,4.489999771118164,4.800000190734863,4.800000190734863,7500
2019-09-26,4.800000190734863,4.800000190734863,4.800000190734863,4.800000190734863,4.800000190734863,100
2019-09-27,4.650000095367432,4.650000095367432,4.650000095367432,4.650000095367432,4.650000095367432,400
2019-09-30,4.804999828338623,4.889999866485596,4.320000171661377,4.760000228881836,4.760000228881836,12900
2019-10-01,4.760000228881836,4.760000228881836,4.760000228881836,4.760000228881836,4.760000228881836,100
2019-10-02,4.525000095367432,4.960000038146973,4.525000095367432,4.570000171661377,4.570000171661377,4800
2019-10-03,4.679999828338623,5.0,4.559999942779541,4.980000019073486,4.980000019073486,8100
2019-10-04,4.860000133514404,5.0,4.53000020980835,4.849999904632568,4.849999904632568,22600
2019-10-07,4.900000095367432,4.900000095367432,4.630000114440918,4.630000114440918,4.630000114440918,4000
2019-10-08,4.630000114440918,4.630000114440918,4.630000114440918,4.630000114440918,4.630000114440918,100
2019-10-09,4.5,4.730000019073486,4.5,4.730000019073486,4.730000019073486,3500
2019-10-10,4.610000133514404,4.690000057220459,4.349999904632568,4.349999904632568,4.349999904632568,7700
2019-10-11,4.579999923706055,4.75,4.369999885559082,4.599999904632568,4.599999904632568,10600
2019-10-14,4.599999904632568,4.599999904632568,4.599999904632568,4.599999904632568,4.599999904632568,100
2019-10-15,4.599999904632568,4.599999904632568,4.599999904632568,4.599999904632568,4.599999904632568,100
2019-10-16,4.53000020980835,4.53000020980835,4.53000020980835,4.53000020980835,4.53000020980835,700
2019-10-17,4.599999904632568,4.599999904632568,4.449999809265137,4.449999809265137,4.449999809265137,1000
2019-10-18,4.449999809265137,4.449999809265137,4.449999809265137,4.449999809265137,4.449999809265137,0
2019-10-21,4.449999809265137,4.449999809265137,4.449999809265137,4.449999809265137,4.449999809265137,100
2019-10-22,4.449999809265137,4.449999809265137,4.449999809265137,4.449999809265137,4.449999809265137,100
2019-10-23,4.373000144958496,4.422999858856201,4.36299991607666,4.36299991607666,4.36299991607666,500
2019-10-24,4.320000171661377,4.320000171661377,4.320000171661377,4.320000171661377,4.320000171661377,200
2019-10-25,4.329999923706055,4.349999904632568,4.179999828338623,4.199999809265137,4.199999809265137,12800
2019-10-28,4.050000190734863,4.050000190734863,4.050000190734863,4.050000190734863,4.050000190734863,300
2019-10-29,4.050000190734863,4.230000019073486,4.0229997634887695,4.230000019073486,4.230000019073486,2900
2019-10-30,4.179999828338623,4.179999828338623,4.019999980926514,4.039999961853027,4.039999961853027,1700
2019-10-31,3.9760000705718994,3.990000009536743,3.5980000495910645,3.9600000381469727,3.9600000381469727,11100
2019-11-01,3.950000047683716,3.950000047683716,3.9079999923706055,3.950000047683716,3.950000047683716,2400
2019-11-04,3.950000047683716,3.950000047683716,3.7300000190734863,3.890000104904175,3.890000104904175,13800
2019-11-05,3.819000005722046,3.819000005722046,3.7230000495910645,3.7230000495910645,3.7230000495910645,3400
2019-11-06,4.0,4.0,3.819999933242798,3.819999933242798,3.819999933242798,2300
2019-11-07,3.700000047683716,4.369999885559082,3.700000047683716,4.369999885559082,4.369999885559082,41400
2019-11-08,4.261000156402588,4.369999885559082,4.260000228881836,4.369999885559082,4.369999885559082,600
2019-11-11,4.369999885559082,4.484000205993652,4.260000228881836,4.380000114440918,4.380000114440918,12200
2019-11-12,4.480000019073486,4.71999979019165,4.429999828338623,4.71999979019165,4.71999979019165,10500
2019-11-13,4.739999771118164,4.75,4.5,4.639999866485596,4.639999866485596,27900
2019-11-14,4.71999979019165,4.71999979019165,4.420000076293945,4.53000020980835,4.53000020980835,3400
2019-11-15,4.699999809265137,4.699999809265137,4.46999979019165,4.614999771118164,4.614999771118164,700
2019-11-18,4.5,4.5970001220703125,4.5,4.565000057220459,4.565000057220459,1800
2019-11-19,4.579999923706055,4.599999904632568,4.510000228881836,4.599999904632568,4.599999904632568,1800
2019-11-20,4.519999980926514,4.590000152587891,4.5,4.5,4.5,3200
2019-11-21,4.510000228881836,4.510000228881836,4.510000228881836,4.510000228881836,4.510000228881836,700
2019-11-22,4.5329999923706055,4.5329999923706055,4.300000190734863,4.300000190734863,4.300000190734863,9900
2019-11-25,4.25,4.360000133514404,4.25,4.360000133514404,4.360000133514404,1000
2019-11-26,4.400000095367432,4.400000095367432,4.400000095367432,4.400000095367432,4.400000095367432,500
2019-11-27,4.269999980926514,4.320000171661377,4.199999809265137,4.199999809265137,4.199999809265137,3700
2019-11-29,4.349999904632568,4.349999904632568,4.159999847412109,4.159999847412109,4.159999847412109,600
2019-12-02,4.150000095367432,4.269999980926514,3.869999885559082,4.21999979019165,4.21999979019165,7200
2019-12-03,4.031000137329102,4.110000133514404,4.031000137329102,4.110000133514404,4.110000133514404,1600
2019-12-04,4.053999900817871,4.210000038146973,4.0,4.0,4.0,5400
2019-12-05,4.110000133514404,4.190000057220459,4.03000020980835,4.03000020980835,4.03000020980835,2700
2019-12-06,4.039999961853027,4.150000095367432,3.8499999046325684,3.9000000953674316,3.9000000953674316,21300
2019-12-09,3.9700000286102295,4.5,3.9700000286102295,4.260000228881836,4.260000228881836,7200
2019-12-10,4.300000190734863,4.300000190734863,4.300000190734863,4.300000190734863,4.300000190734863,300
2019-12-11,4.10699987411499,4.2270002365112305,4.099999904632568,4.099999904632568,4.099999904632568,1500
2019-12-12,4.090000152587891,4.295000076293945,4.019999980926514,4.019999980926514,4.019999980926514,6700
2019-12-13,4.03000020980835,4.03000020980835,3.8299999237060547,3.9000000953674316,3.9000000953674316,16200
2019-12-16,3.9000000953674316,4.599999904632568,3.9000000953674316,4.579999923706055,4.579999923706055,144900
2019-12-17,4.059999942779541,4.7129998207092285,3.7200000286102295,4.420000076293945,4.420000076293945,6200
2019-12-18,4.420000076293945,4.420000076293945,4.420000076293945,4.420000076293945,4.420000076293945,0
2019-12-19,4.340000152587891,4.739999771118164,4.340000152587891,4.409999847412109,4.409999847412109,4400
2019-12-20,4.409999847412109,4.610000133514404,4.230000019073486,4.599999904632568,4.599999904632568,10200
2019-12-23,4.71999979019165,4.71999979019165,4.340000152587891,4.449999809265137,4.449999809265137,8000
2019-12-24,4.494999885559082,4.504000186920166,4.367000102996826,4.367000102996826,4.367000102996826,1200
2019-12-26,4.230000019073486,4.291999816894531,4.230000019073486,4.291999816894531,4.291999816894531,200
2019-12-27,4.670000076293945,4.670000076293945,4.21999979019165,4.349999904632568,4.349999904632568,4300
2019-12-30,4.599999904632568,4.599999904632568,4.309999942779541,4.445000171661377,4.445000171661377,1200
2019-12-31,4.21999979019165,4.21999979019165,4.099999904632568,4.099999904632568,4.099999904632568,500
2020-01-02,4.300000190734863,4.309999942779541,4.239999771118164,4.250999927520752,4.250999927520752,2100
2020-01-03,4.329999923706055,4.329999923706055,4.059999942779541,4.139999866485596,4.139999866485596,6600
2020-01-06,4.159999847412109,4.159999847412109,4.159999847412109,4.159999847412109,4.159999847412109,200
2020-01-07,4.150000095367432,4.21999979019165,4.130000114440918,4.175000190734863,4.175000190734863,4500
2020-01-08,4.269999980926514,4.28000020980835,4.269999980926514,4.28000020980835,4.28000020980835,700
2020-01-09,4.28000020980835,4.28000020980835,4.28000020980835,4.28000020980835,4.28000020980835,0
2020-01-10,4.254000186920166,4.289000034332275,4.254000186920166,4.289000034332275,4.289000034332275,300
2020-01-13,4.25,4.329999923706055,4.25,4.309999942779541,4.309999942779541,1200
2020-01-14,4.329999923706055,4.489999771118164,4.329999923706055,4.400000095367432,4.400000095367432,6100
2020-01-15,4.343999862670898,4.440000057220459,4.239999771118164,4.25,4.25,19400
2020-01-16,4.25,4.25,4.25,4.25,4.25,0
2020-01-17,4.150000095367432,4.5,4.150000095367432,4.435999870300293,4.435999870300293,15700
2020-01-21,4.5,4.5,4.349999904632568,4.394999980926514,4.394999980926514,6600
2020-01-22,4.440000057220459,4.489999771118164,4.330999851226807,4.440000057220459,4.440000057220459,3400
2020-01-23,4.388000011444092,4.388000011444092,4.388000011444092,4.388000011444092,4.388000011444092,600
2020-01-24,4.5,4.670000076293945,4.5,4.670000076293945,4.670000076293945,3400
2020-01-27,4.5,4.5,4.130000114440918,4.130000114440918,4.130000114440918,29400
2020-01-28,4.25,4.376999855041504,4.25,4.376999855041504,4.376999855041504,2100
2020-01-29,4.309999942779541,4.309999942779541,4.247000217437744,4.25,4.25,3600
2020-01-30,4.25,4.329999923706055,4.150000095367432,4.239999771118164,4.239999771118164,12200
2020-01-31,4.195000171661377,4.195000171661377,4.150000095367432,4.186999797821045,4.186999797821045,500
2020-02-03,4.150000095367432,4.260000228881836,4.150000095367432,4.150000095367432,4.150000095367432,2300
2020-02-04,4.150000095367432,4.189000129699707,4.150000095367432,4.179999828338623,4.179999828338623,3200
2020-02-05,4.150000095367432,4.197999954223633,4.099999904632568,4.130000114440918,4.130000114440918,14900
2020-02-06,4.178999900817871,4.178999900817871,4.150000095367432,4.150000095367432,4.150000095367432,3100
2020-02-07,4.150000095367432,4.195000171661377,4.150000095367432,4.150000095367432,4.150000095367432,2400
2020-02-10,4.159999847412109,4.183000087738037,4.150000095367432,4.179999828338623,4.179999828338623,2100
2020-02-11,4.179999828338623,4.199999809265137,4.179999828338623,4.199999809265137,4.199999809265137,13400
2020-02-12,4.199999809265137,4.25600004196167,4.199999809265137,4.244999885559082,4.244999885559082,7400
2020-02-13,4.230000019073486,4.230000019073486,4.199999809265137,4.199999809265137,4.199999809265137,4400
2020-02-14,4.210000038146973,4.329999923706055,4.210000038146973,4.210000038146973,4.210000038146973,11600
2020-02-18,4.210999965667725,4.269999980926514,4.210999965667725,4.243000030517578,4.243000030517578,12400
2020-02-19,4.199999809265137,4.210000038146973,4.179999828338623,4.179999828338623,4.179999828338623,2500
2020-02-20,4.25,4.25,4.199999809265137,4.199999809265137,4.199999809265137,7700
2020-02-21,4.210000038146973,4.228000164031982,4.210000038146973,4.21999979019165,4.21999979019165,4400
2020-02-24,4.199999809265137,4.2170000076293945,4.199999809265137,4.199999809265137,4.199999809265137,5300
2020-02-25,4.230000019073486,4.242000102996826,4.199999809265137,4.199999809265137,4.199999809265137,3100
2020-02-26,4.199999809265137,4.230000019073486,4.1529998779296875,4.199999809265137,4.199999809265137,15000
2020-02-27,4.199999809265137,4.230000019073486,3.9800000190734863,3.9800000190734863,3.9800000190734863,14000
2020-02-28,3.809999942779541,4.0,3.809999942779541,3.9600000381469727,3.9600000381469727,3600
2020-03-02,3.9600000381469727,3.9600000381469727,3.9600000381469727,3.9600000381469727,3.9600000381469727,0
2020-03-03,3.859999895095825,4.02400016784668,3.8499999046325684,3.880000114440918,3.880000114440918,7900
2020-03-04,3.880000114440918,3.880000114440918,3.880000114440918,3.880000114440918,3.880000114440918,0
2020-03-05,3.953000068664551,3.953000068664551,3.953000068664551,3.953000068664551,3.953000068664551,1100
2020-03-06,3.799999952316284,3.930000066757202,3.759999990463257,3.759999990463257,3.759999990463257,4600
2020-03-09,3.700000047683716,3.809999942779541,3.5,3.559999942779541,3.559999942779541,8300
2020-03-10,3.5799999237060547,3.678999900817871,3.5799999237060547,3.609999895095825,3.609999895095825,6200
2020-03-11,3.5999999046325684,3.5999999046325684,3.3499999046325684,3.3499999046325684,3.3499999046325684,5800
2020-03-12,3.3499999046325684,3.367000102996826,3.190000057220459,3.2039999961853027,3.2039999961853027,18400
2020-03-13,3.453000068664551,3.453000068664551,3.260999917984009,3.2909998893737793,3.2909998893737793,5500
2020-03-16,3.069999933242798,3.069999933242798,2.6500000953674316,2.6500000953674316,2.6500000953674316,6400
2020-03-17,2.8499999046325684,2.875,2.6440000534057617,2.8389999866485596,2.8389999866485596,10300
2020-03-18,2.799999952316284,2.799999952316284,2.700000047683716,2.700000047683716,2.700000047683716,3100
2020-03-19,2.630000114440918,2.690000057220459,2.4769999980926514,2.5239999294281006,2.5239999294281006,13900
2020-03-20,2.569999933242798,2.569999933242798,2.0,2.119999885559082,2.119999885559082,26800
2020-03-23,2.0,2.009999990463257,1.7419999837875366,1.8200000524520874,1.8200000524520874,28300
2020-03-24,2.0,2.5,1.9600000381469727,2.4700000286102295,2.4700000286102295,47900
2020-03-25,2.5,2.5,2.2070000171661377,2.2300000190734863,2.2300000190734863,4800
2020-03-26,2.2200000286102295,2.4800000190734863,2.0299999713897705,2.0399999618530273,2.0399999618530273,26400
2020-03-27,1.9900000095367432,2.200000047683716,1.9900000095367432,2.0,2.0,11300
2020-03-30,2.2300000190734863,2.2300000190734863,2.119999885559082,2.1600000858306885,2.1600000858306885,4500
2020-03-31,2.049999952316284,2.2899999618530273,2.049999952316284,2.059999942779541,2.059999942779541,6800
2020-04-01,1.899999976158142,2.0,1.8569999933242798,1.940000057220459,1.940000057220459,13300
2020-04-02,1.9500000476837158,2.2100000381469727,1.9500000476837158,1.9600000381469727,1.9600000381469727,1300
2020-04-03,1.940000057220459,1.940000057220459,1.5499999523162842,1.690000057220459,1.690000057220459,32500
2020-04-06,1.7920000553131104,2.066999912261963,1.7640000581741333,1.809999942779541,1.809999942779541,8900
2020-04-07,1.9500000476837158,2.2909998893737793,1.9500000476837158,2.2899999618530273,2.2899999618530273,21200
2020-04-08,2.369999885559082,2.369999885559082,2.1500000953674316,2.1500000953674316,2.1500000953674316,4700
2020-04-09,2.2920000553131104,2.3940000534057617,2.2920000553131104,2.380000114440918,2.380000114440918,5500
2020-04-13,2.2799999713897705,2.313999891281128,2.2799999713897705,2.313999891281128,2.313999891281128,1100
2020-04-14,2.380000114440918,2.5899999141693115,2.380000114440918,2.4000000953674316,2.4000000953674316,6100
2020-04-15,2.4100000858306885,2.440000057220459,2.4000000953674316,2.440000057220459,2.440000057220459,700
2020-04-16,2.359999895095825,2.380000114440918,2.359999895095825,2.359999895095825,2.359999895095825,2400
2020-04-17,2.3399999141693115,2.3399999141693115,2.299999952316284,2.299999952316284,2.299999952316284,500
2020-04-20,2.3499999046325684,2.3499999046325684,2.130000114440918,2.130000114440918,2.130000114440918,1300
2020-04-21,2.0799999237060547,2.240000009536743,2.0799999237060547,2.2200000286102295,2.2200000286102295,1900
2020-04-22,2.384999990463257,2.4820001125335693,2.369999885559082,2.369999885559082,2.369999885559082,1500
2020-04-23,2.309999942779541,2.490000009536743,2.25,2.25,2.25,2800
2020-04-24,2.509999990463257,2.509999990463257,2.299999952316284,2.299999952316284,2.299999952316284,2500
2020-04-27,2.4000000953674316,2.6700000762939453,2.4000000953674316,2.6700000762939453,2.6700000762939453,6400
2020-04-28,2.950000047683716,2.950000047683716,2.759999990463257,2.759999990463257,2.759999990463257,5800
2020-04-29,2.9700000286102295,3.809999942779541,2.9700000286102295,3.5230000019073486,3.5230000019073486,21300
2020-04-30,3.5,3.509999990463257,3.049999952316284,3.2739999294281006,3.2739999294281006,42600
2020-05-01,3.240000009536743,3.25,2.990000009536743,2.990000009536743,2.990000009536743,9400
2020-05-04,3.0,3.299999952316284,3.0,3.1649999618530273,3.1649999618530273,5100
2020-05-05,3.299999952316284,3.299999952316284,3.200000047683716,3.200000047683716,3.200000047683716,4600
2020-05-06,3.200000047683716,3.200000047683716,3.200000047683716,3.200000047683716,3.200000047683716,0
2020-05-07,3.1549999713897705,3.5,3.119999885559082,3.316999912261963,3.316999912261963,34900
2020-05-08,3.6500000953674316,4.210000038146973,3.6500000953674316,3.950000047683716,3.950000047683716,44800
2020-05-11,3.950000047683716,4.679999828338623,3.8480000495910645,4.400000095367432,4.400000095367432,60300
2020-05-12,4.510000228881836,4.510000228881836,4.0,4.150000095367432,4.150000095367432,33900
2020-05-13,4.090000152587891,4.090000152587891,3.5,3.6700000762939453,3.6700000762939453,21000
2020-05-14,3.549999952316284,3.950000047683716,3.549999952316284,3.75,3.75,5900
2020-05-15,4.130000114440918,4.130000114440918,3.940000057220459,4.0,4.0,3500
2020-05-18,4.0,4.699999809265137,4.0,4.300000190734863,4.300000190734863,72100
2020-05-19,4.489999771118164,4.489999771118164,4.300000190734863,4.380000114440918,4.380000114440918,11800
2020-05-20,4.400000095367432,5.199999809265137,4.400000095367432,5.090000152587891,5.090000152587891,36900
2020-05-21,5.090000152587891,5.855000019073486,5.045000076293945,5.809999942779541,5.809999942779541,146400
2020-05-22,5.820000171661377,6.0,5.525000095367432,5.949999809265137,5.949999809265137,72300
2020-05-26,5.949999809265137,6.741000175476074,5.949999809265137,6.429999828338623,6.429999828338623,95600
2020-05-27,6.5,7.239999771118164,6.199999809265137,7.119999885559082,7.119999885559082,121100
2020-05-28,7.099999904632568,7.099999904632568,6.199999809265137,6.5,6.5,41500
2020-05-29,6.260000228881836,6.9730000495910645,5.75,6.079999923706055,6.079999923706055,70400
2020-06-01,6.0,6.449999809265137,6.0,6.300000190734863,6.300000190734863,40900
2020-06-02,6.610000133514404,6.610000133514404,6.010000228881836,6.099999904632568,6.099999904632568,25600
2020-06-03,6.0,6.400000095367432,5.949999809265137,6.25,6.25,53000
2020-06-04,6.369999885559082,6.369999885559082,5.920000076293945,5.96999979019165,5.96999979019165,29000
2020-06-05,6.210000038146973,6.679999828338623,5.96999979019165,6.400000095367432,6.400000095367432,102000
2020-06-08,6.5,7.199999809265137,6.489999771118164,7.159999847412109,7.159999847412109,180900
2020-06-09,6.75,7.179999828338623,6.699999809265137,7.059999942779541,7.059999942779541,39400
2020-06-10,7.590000152587891,9.053000450134277,7.110000133514404,8.539999961853027,8.539999961853027,347500
2020-06-11,8.75,8.75,7.5,7.5,7.5,104700
2020-06-12,7.869999885559082,8.199999809265137,7.75,7.960999965667725,7.960999965667725,113600
2020-06-15,7.599999904632568,8.130000114440918,7.425000190734863,8.069999694824219,8.069999694824219,67300
2020-06-16,8.109999656677246,8.420000076293945,7.909999847412109,8.119999885559082,8.119999885559082,71600
2020-06-17,8.100000381469727,8.274999618530273,7.690000057220459,7.90500020980835,7.90500020980835,19800
2020-06-18,7.809999942779541,7.949999809265137,7.239999771118164,7.949999809265137,7.949999809265137,27000
2020-06-19,8.0,8.0,7.760000228881836,7.860000133514404,7.860000133514404,22800
2020-06-22,7.849999904632568,8.0,7.610000133514404,7.869999885559082,7.869999885559082,44400
2020-06-23,7.989999771118164,8.204000473022461,7.909999847412109,7.909999847412109,7.909999847412109,62200
2020-06-24,7.900000095367432,7.900000095367432,7.190000057220459,7.539999961853027,7.539999961853027,37800
2020-06-25,7.46999979019165,7.590000152587891,7.125999927520752,7.510000228881836,7.510000228881836,52100
2020-06-26,7.449999809265137,7.704999923706055,7.079999923706055,7.659999847412109,7.659999847412109,34300
2020-06-29,7.610000133514404,7.610000133514404,7.230000019073486,7.389999866485596,7.389999866485596,38400
2020-06-30,7.300000190734863,8.850000381469727,7.139999866485596,8.710000038146973,8.710000038146973,231800
2020-07-01,8.399999618530273,8.649999618530273,8.020000457763672,8.100000381469727,8.100000381469727,51700
2020-07-02,8.350000381469727,8.649999618530273,8.25,8.510000228881836,8.510000228881836,30000
2020-07-06,9.0,9.0,8.550000190734863,8.6899995803833,8.6899995803833,31400
2020-07-07,8.520000457763672,8.595999717712402,8.149999618530273,8.399999618530273,8.399999618530273,24500
2020-07-08,8.390000343322754,8.6899995803833,8.0,8.619999885559082,8.619999885559082,51900
2020-07-09,8.729999542236328,8.800000190734863,8.199999809265137,8.420000076293945,8.420000076293945,8700
2020-07-10,8.1899995803833,10.069999694824219,8.0,9.960000038146973,9.960000038146973,531200
2020-07-13,10.300000190734863,11.0,9.949999809265137,10.600000381469727,10.600000381469727,400600
2020-07-14,10.359999656677246,10.850000381469727,9.979999542236328,10.350000381469727,10.350000381469727,145300
2020-07-15,10.649999618530273,10.699999809265137,10.279999732971191,10.359999656677246,10.359999656677246,76600
2020-07-16,10.489999771118164,10.489999771118164,9.487000465393066,9.8100004196167,9.8100004196167,77700
2020-07-17,9.9399995803833,10.859999656677246,9.850000381469727,10.75,10.75,614700
2020-07-20,10.979999542236328,11.34000015258789,10.420000076293945,10.520000457763672,10.520000457763672,259600
2020-07-21,10.520000457763672,11.350000381469727,10.520000457763672,11.09000015258789,11.09000015258789,303300
2020-07-22,11.199999809265137,11.949999809265137,11.199999809265137,11.819999694824219,11.819999694824219,453400
2020-07-23,12.0,12.079999923706055,11.279999732971191,11.5,11.5,239800
2020-07-24,11.649999618530273,12.149999618530273,11.40999984741211,12.149999618530273,12.149999618530273,167500
2020-07-27,12.65999984741211,13.399999618530273,12.350000381469727,13.329999923706055,13.329999923706055,533600
2020-07-28,13.399999618530273,13.899999618530273,13.199999809265137,13.510000228881836,13.510000228881836,328700
2020-07-29,13.449999809265137,13.760000228881836,11.949999809265137,13.289999961853027,13.289999961853027,259000
2020-07-30,13.0,13.4399995803833,12.0,12.15999984741211,12.15999984741211,305000
2020-07-31,12.390000343322754,13.350000381469727,12.390000343322754,12.800000190734863,12.800000190734863,321400
2020-08-03,13.0,14.15999984741211,12.925000190734863,13.619999885559082,13.619999885559082,322000
2020-08-04,13.760000228881836,13.89900016784668,12.720000267028809,12.989999771118164,12.989999771118164,143900
2020-08-05,13.100000381469727,13.65999984741211,13.100000381469727,13.420000076293945,13.420000076293945,93700
2020-08-06,13.420000076293945,13.630000114440918,12.59000015258789,12.65999984741211,12.65999984741211,114400
2020-08-07,12.699999809265137,13.210000038146973,12.579999923706055,12.949999809265137,12.949999809265137,115700
2020-08-10,14.0,15.196999549865723,13.800000190734863,14.380000114440918,14.380000114440918,499700
2020-08-11,14.75,14.9399995803833,14.020000457763672,14.100000381469727,14.100000381469727,182300
2020-08-12,14.229999542236328,15.279999732971191,14.229999542236328,14.680000305175781,14.680000305175781,184200
2020-08-13,15.670000076293945,15.739999771118164,14.89900016784668,15.319999694824219,15.319999694824219,268700
2020-08-14,15.930000305175781,16.260000228881836,14.819999694824219,14.970000267028809,14.970000267028809,272000
2020-08-17,16.020000457763672,16.09000015258789,15.119999885559082,15.550000190734863,15.550000190734863,374300
2020-08-18,15.989999771118164,15.989999771118164,14.25,15.0,15.0,257000
2020-08-19,14.930000305175781,15.0,14.310999870300293,14.640000343322754,14.640000343322754,154200
2020-08-20,14.470000267028809,14.640000343322754,13.699999809265137,13.720000267028809,13.720000267028809,342400
2020-08-21,13.600000381469727,13.649999618530273,12.260000228881836,12.770000457763672,12.770000457763672,376300
2020-08-24,12.9399995803833,13.265000343322754,11.329999923706055,12.0,12.0,218100
2020-08-25,12.039999961853027,13.029999732971191,12.039999961853027,12.59000015258789,12.59000015258789,284700
2020-08-26,12.359999656677246,12.970000267028809,12.149999618530273,12.779999732971191,12.779999732971191,138900
2020-08-27,12.779999732971191,12.819999694824219,12.220000267028809,12.229999542236328,12.229999542236328,75300
2020-08-28,12.319999694824219,12.779999732971191,12.199000358581543,12.279999732971191,12.279999732971191,57400
2020-08-31,12.199999809265137,12.34000015258789,10.460000038146973,10.880000114440918,10.880000114440918,345700
2020-09-01,10.880000114440918,12.220000267028809,10.5,12.010000228881836,12.010000228881836,216100
2020-09-02,12.640000343322754,14.289999961853027,12.510000228881836,13.600000381469727,13.600000381469727,486100
2020-09-03,13.449999809265137,13.581999778747559,12.050000190734863,12.4399995803833,12.4399995803833,139000
2020-09-04,12.680000305175781,13.069999694824219,12.039999961853027,12.960000038146973,12.960000038146973,138700
2020-09-08,12.850000381469727,13.680000305175781,12.510000228881836,13.09000015258789,13.09000015258789,159000
2020-09-09,13.140000343322754,13.670000076293945,12.9399995803833,13.630000114440918,13.630000114440918,134000
2020-09-10,13.680000305175781,13.989999771118164,13.359999656677246,13.520000457763672,13.520000457763672,99000
2020-09-11,13.550000190734863,14.079999923706055,13.1899995803833,13.390000343322754,13.390000343322754,69700
2020-09-14,13.529999732971191,14.09000015258789,13.4399995803833,13.739999771118164,13.739999771118164,125900
2020-09-15,13.949999809265137,13.979999542236328,13.319999694824219,13.4399995803833,13.4399995803833,61500
2020-09-16,13.609999656677246,13.789999961853027,12.8100004196167,13.170000076293945,13.170000076293945,152100
2020-09-17,13.050000190734863,13.420999526977539,12.819999694824219,13.300000190734863,13.300000190734863,63900
2020-09-18,13.260000228881836,13.579999923706055,12.829999923706055,13.180000305175781,13.180000305175781,160700
2020-09-21,12.8100004196167,12.930000305175781,12.5,12.90999984741211,12.90999984741211,110100
2020-09-22,13.029999732971191,13.300000190734863,12.90999984741211,13.170000076293945,13.170000076293945,88900
2020-09-23,13.020000457763672,13.020000457763672,12.710000038146973,12.75,12.75,57800
2020-09-24,12.710000038146973,12.710000038146973,11.850000381469727,11.960000038146973,11.960000038146973,72900
2020-09-25,11.960000038146973,11.960000038146973,11.510000228881836,11.789999961853027,11.789999961853027,89100
2020-09-28,12.0,12.470000267028809,11.800000190734863,12.0600004196167,12.0600004196167,58600
2020-09-29,12.0600004196167,12.4399995803833,11.781999588012695,11.800000190734863,11.800000190734863,36200
2020-09-30,11.9399995803833,13.15999984741211,11.800999641418457,12.680000305175781,12.680000305175781,77300
2020-10-01,12.75,12.90999984741211,12.270000457763672,12.699999809265137,12.699999809265137,69300
2020-10-02,12.359999656677246,12.520000457763672,12.199000358581543,12.460000038146973,12.460000038146973,48500
2020-10-05,12.75,12.819999694824219,12.225000381469727,12.65999984741211,12.65999984741211,80300
2020-10-06,12.899999618530273,13.829999923706055,12.75,13.260000228881836,13.260000228881836,175400
2020-10-07,13.59000015258789,14.25,13.41100025177002,14.0,14.0,134100
2020-10-08,14.300000190734863,14.420000076293945,13.800000190734863,14.15999984741211,14.15999984741211,132900
2020-10-09,14.40999984741211,14.40999984741211,13.220000267028809,13.779999732971191,13.779999732971191,97200
2020-10-12,14.0,15.59000015258789,13.449999809265137,15.34000015258789,15.34000015258789,316900
2020-10-13,15.479999542236328,17.15999984741211,15.479999542236328,16.799999237060547,16.799999237060547,376000
2020-10-14,14.800000190734863,15.850000381469727,14.0,15.279999732971191,15.279999732971191,973900
2020-10-15,14.899999618530273,15.119999885559082,14.09000015258789,14.1899995803833,14.1899995803833,619400
2020-10-16,16.010000228881836,17.690000534057617,14.890000343322754,17.190000534057617,17.190000534057617,1345700
2020-10-19,17.8700008392334,18.886999130249023,16.450000762939453,17.010000228881836,17.010000228881836,858600
2020-10-20,17.100000381469727,17.579999923706055,16.469999313354492,16.6200008392334,16.6200008392334,281300
2020-10-21,16.469999313354492,16.799999237060547,15.0,15.289999961853027,15.289999961853027,357200
2020-10-22,14.890000343322754,15.800000190734863,14.890000343322754,15.569999694824219,15.569999694824219,139700
2020-10-23,15.710000038146973,15.710000038146973,15.029999732971191,15.220000267028809,15.220000267028809,72300
2020-10-26,15.020000457763672,15.020000457763672,13.729999542236328,14.529999732971191,14.529999732971191,292000
2020-10-27,14.40999984741211,15.079999923706055,14.0,14.109999656677246,14.109999656677246,131300
2020-10-28,13.680000305175781,14.5,13.5,14.34000015258789,14.34000015258789,158800
2020-10-29,14.5600004196167,14.960000038146973,14.369999885559082,14.479999542236328,14.479999542236328,107000
2020-10-30,14.350000381469727,14.600000381469727,13.329999923706055,13.880000114440918,13.880000114440918,124800
2020-11-02,14.079999923706055,15.149999618530273,14.069999694824219,14.069999694824219,14.069999694824219,202300
2020-11-03,14.300000190734863,15.399999618530273,14.170000076293945,15.399999618530273,15.399999618530273,122700
2020-11-04,14.899999618530273,15.710000038146973,13.899999618530273,15.550000190734863,15.550000190734863,261500
2020-11-05,15.989999771118164,16.639999389648438,15.869000434875488,16.459999084472656,16.459999084472656,223200
2020-11-06,16.5,16.799999237060547,15.289999961853027,15.75,15.75,137300
2020-11-09,16.059999465942383,16.450000762939453,13.289999961853027,13.4399995803833,13.4399995803833,329800
2020-11-10,13.399999618530273,14.449999809265137,13.399999618530273,14.010000228881836,14.010000228881836,157000
2020-11-11,14.020000457763672,14.36299991607666,13.84000015258789,14.229999542236328,14.229999542236328,123900
2020-11-12,14.100000381469727,14.968999862670898,14.0,14.3100004196167,14.3100004196167,76500
2020-11-13,14.5,14.9399995803833,14.489999771118164,14.710000038146973,14.710000038146973,104100
2020-11-16,15.119999885559082,15.489999771118164,14.800000190734863,15.09000015258789,15.09000015258789,123900
2020-11-17,15.100000381469727,15.244999885559082,14.65999984741211,15.140000343322754,15.140000343322754,74500
2020-11-18,15.140000343322754,15.25,14.760000228881836,14.8100004196167,14.8100004196167,61100
2020-11-19,14.789999961853027,14.789999961853027,13.760000228881836,14.09000015258789,14.09000015258789,151400
2020-11-20,13.989999771118164,14.182999610900879,12.670000076293945,13.569999694824219,13.569999694824219,325100
2020-11-23,13.399999618530273,14.5,13.0600004196167,14.149999618530273,14.149999618530273,167400
2020-11-24,14.069999694824219,14.600000381469727,13.760000228881836,14.520000457763672,14.520000457763672,113600
2020-11-25,15.539999961853027,15.9399995803833,15.100000381469727,15.300000190734863,15.300000190734863,184400
2020-11-27,15.550000190734863,16.59000015258789,15.550000190734863,16.030000686645508,16.030000686645508,154300
2020-11-30,16.709999084472656,16.850000381469727,16.049999237060547,16.5,16.5,211100
2020-12-01,16.520000457763672,17.530000686645508,16.520000457763672,16.610000610351562,16.610000610351562,136800
2020-12-02,16.5,17.18000030517578,15.800000190734863,16.25,16.25,82300
2020-12-03,16.350000381469727,16.43000030517578,15.6899995803833,15.729999542236328,15.729999542236328,72900
2020-12-04,16.049999237060547,16.68000030517578,15.75,16.280000686645508,16.280000686645508,55200
2020-12-07,16.350000381469727,16.575000762939453,14.800000190734863,15.289999961853027,15.289999961853027,139300
2020-12-08,15.279999732971191,15.279999732971191,14.255000114440918,14.569999694824219,14.569999694824219,152900
2020-12-09,14.949999809265137,14.960000038146973,13.819999694824219,14.220000267028809,14.220000267028809,206300
2020-12-10,13.949999809265137,14.28600025177002,13.8100004196167,14.25,14.25,77700
2020-12-11,14.100000381469727,14.979999542236328,14.100000381469727,14.859999656677246,14.859999656677246,109200
2020-12-14,15.4399995803833,15.960000038146973,14.8100004196167,14.90999984741211,14.90999984741211,137400
2020-12-15,15.130000114440918,15.25,14.5,14.800000190734863,14.800000190734863,187000
2020-12-16,14.960000038146973,15.25,14.5,14.619999885559082,14.619999885559082,79800
2020-12-17,14.569999694824219,15.170000076293945,14.010000228881836,14.75,14.75,134300
2020-12-18,14.890000343322754,15.069999694824219,14.1899995803833,14.649999618530273,14.649999618530273,109900
2020-12-21,14.25,14.739999771118164,14.109999656677246,14.239999771118164,14.239999771118164,184200
2020-12-22,14.539999961853027,15.5,14.239999771118164,15.329999923706055,15.329999923706055,192100
2020-12-23,15.380000114440918,16.690000534057617,15.3100004196167,15.800000190734863,15.800000190734863,244200
2020-12-24,15.960000038146973,16.06999969482422,15.34000015258789,15.550000190734863,15.550000190734863,69700
2020-12-28,15.800000190734863,16.530000686645508,15.40999984741211,15.739999771118164,15.739999771118164,180700
2020-12-29,15.800000190734863,16.040000915527344,15.0,15.90999984741211,15.90999984741211,76900
2020-12-30,15.979999542236328,16.25,15.100000381469727,15.989999771118164,15.989999771118164,60200
