Date,Open,High,Low,Close,Adj Close,Volume
2020-11-20,9.979999542236328,10.140000343322754,9.960000038146973,10.045000076293945,10.045000076293945,488680
2020-11-23,10.100000381469727,10.479999542236328,10.050000190734863,10.239999771118164,10.239999771118164,73953
2020-11-24,10.25,10.25,10.09000015258789,10.149999618530273,10.149999618530273,51430
2020-11-25,10.149999618530273,10.1899995803833,10.100000381469727,10.149999618530273,10.149999618530273,6967
2020-11-27,10.166799545288086,10.166799545288086,10.09000015258789,10.123000144958496,10.123000144958496,97040
2020-11-30,10.1899995803833,10.199999809265137,10.098999977111816,10.16189956665039,10.16189956665039,39280
2020-12-01,10.154999732971191,10.154999732971191,10.119999885559082,10.119999885559082,10.119999885559082,3141
2020-12-02,10.149999618530273,10.192000389099121,10.119999885559082,10.180000305175781,10.180000305175781,11011
2020-12-03,10.180000305175781,10.1899995803833,10.140000343322754,10.18179988861084,10.18179988861084,3071
2020-12-04,10.110300064086914,10.180000305175781,10.110300064086914,10.15999984741211,10.15999984741211,5852
2020-12-07,10.199999809265137,10.54990005493164,10.161800384521484,10.380000114440918,10.380000114440918,63645
2020-12-08,10.449999809265137,11.160599708557129,10.449999809265137,10.520000457763672,10.520000457763672,14183
2020-12-09,11.0,11.0,10.430000305175781,10.449999809265137,10.449999809265137,16487
2020-12-10,10.970000267028809,10.970000267028809,10.550000190734863,10.739999771118164,10.739999771118164,5567
2020-12-11,10.680000305175781,10.680000305175781,10.449999809265137,10.489999771118164,10.489999771118164,15532
2020-12-14,10.510000228881836,10.59000015258789,10.460000038146973,10.479999542236328,10.479999542236328,35325
2020-12-15,10.4399995803833,10.4399995803833,10.4399995803833,10.4399995803833,10.4399995803833,463
2020-12-16,10.424099922180176,10.433899879455566,10.3100004196167,10.319999694824219,10.319999694824219,4343
2020-12-17,10.416600227355957,10.489999771118164,10.345999717712402,10.470000267028809,10.470000267028809,3895
2020-12-18,10.45009994506836,10.899999618530273,10.45009994506836,10.579999923706055,10.579999923706055,11491
2020-12-21,10.647600173950195,10.789999961853027,10.455300331115723,10.77910041809082,10.77910041809082,16776
2020-12-22,10.890000343322754,10.989999771118164,10.600000381469727,10.73799991607666,10.73799991607666,15120
2020-12-23,10.440500259399414,10.670000076293945,10.399999618530273,10.539999961853027,10.539999961853027,18190
2020-12-24,10.54069995880127,10.579999923706055,10.54069995880127,10.569999694824219,10.569999694824219,4818
2020-12-28,10.649999618530273,10.649999618530273,10.430000305175781,10.449999809265137,10.449999809265137,49945
2020-12-29,10.600000381469727,10.619999885559082,10.449999809265137,10.460000038146973,10.460000038146973,6663
2020-12-30,10.5,10.824999809265137,10.5,10.550000190734863,10.550000190734863,6401
