Date,Open,High,Low,Close,Adj Close,Volume
2017-12-21,1.1799999475479126,1.4880000352859497,1.0149999856948853,1.0700000524520874,1.0700000524520874,2232300
2017-12-22,1.090000033378601,1.600000023841858,1.0750000476837158,1.4199999570846558,1.4199999570846558,3746100
2017-12-26,14.010000228881836,15.899999618530273,13.720000267028809,14.390000343322754,14.390000343322754,1642400
2017-12-27,14.5,14.850000381469727,13.3100004196167,13.529999732971191,13.529999732971191,450200
2017-12-28,13.470000267028809,13.64900016784668,12.5600004196167,12.630000114440918,12.630000114440918,359900
2017-12-29,12.630000114440918,14.300000190734863,12.5,13.899999618530273,13.899999618530273,581800
2018-01-02,14.140000343322754,17.700000762939453,14.0,17.290000915527344,17.290000915527344,4460900
2018-01-03,18.290000915527344,18.290000915527344,15.119999885559082,15.390000343322754,15.390000343322754,1419800
2018-01-04,15.609999656677246,15.692999839782715,14.399999618530273,14.739999771118164,14.739999771118164,990100
2018-01-05,14.5,15.420000076293945,14.109999656677246,14.640000343322754,14.640000343322754,970000
2018-01-08,15.850000381469727,15.850000381469727,14.210000038146973,14.329999923706055,14.329999923706055,691800
2018-01-09,14.609999656677246,15.180000305175781,14.359999656677246,14.9399995803833,14.9399995803833,299500
2018-01-10,14.819999694824219,14.819999694824219,14.359999656677246,14.5,14.5,247300
2018-01-11,14.510000228881836,14.90999984741211,14.119999885559082,14.170000076293945,14.170000076293945,599100
2018-01-12,14.180000305175781,14.4399995803833,13.510000228881836,13.890000343322754,13.890000343322754,508800
2018-01-16,15.0,15.0,13.979999542236328,14.279999732971191,14.279999732971191,1122500
2018-01-17,14.470000267028809,14.513999938964844,14.0600004196167,14.25,14.25,235200
2018-01-18,14.25,14.680000305175781,14.199999809265137,14.4399995803833,14.4399995803833,162300
2018-01-19,14.600000381469727,14.600000381469727,14.279999732971191,14.5,14.5,197000
2018-01-22,14.4399995803833,14.689000129699707,14.100000381469727,14.149999618530273,14.149999618530273,194500
2018-01-23,14.239999771118164,15.979999542236328,14.199999809265137,15.529999732971191,15.529999732971191,925200
2018-01-24,15.779999732971191,16.3799991607666,15.420000076293945,15.989999771118164,15.989999771118164,1156100
2018-01-25,16.0,16.5,15.640000343322754,16.420000076293945,16.420000076293945,654400
2018-01-26,16.559999465942383,17.200000762939453,15.90999984741211,16.469999313354492,16.469999313354492,459400
2018-01-29,16.459999084472656,16.93000030517578,15.989999771118164,16.18000030517578,16.18000030517578,233800
2018-01-30,16.170000076293945,16.170000076293945,15.630000114440918,15.8100004196167,15.8100004196167,282900
2018-01-31,15.960000038146973,16.489999771118164,15.5,15.829999923706055,15.829999923706055,238100
2018-02-01,15.800000190734863,16.0,15.449999809265137,15.869999885559082,15.869999885559082,243000
2018-02-02,15.739999771118164,15.817999839782715,14.6899995803833,14.800000190734863,14.800000190734863,398300
2018-02-05,14.5,14.600000381469727,13.899999618530273,13.989999771118164,13.989999771118164,421900
2018-02-06,13.5,15.350000381469727,13.5,13.949999809265137,13.949999809265137,446100
2018-02-07,14.0,14.920000076293945,14.0,14.399999618530273,14.399999618530273,272400
2018-02-08,14.479999542236328,14.779999732971191,14.010000228881836,14.09000015258789,14.09000015258789,257600
2018-02-09,14.0,14.109999656677246,13.510000228881836,13.609999656677246,13.609999656677246,273200
2018-02-12,14.0,14.470000267028809,14.0,14.149999618530273,14.149999618530273,125100
2018-02-13,14.079999923706055,14.654999732971191,13.649999618530273,14.600000381469727,14.600000381469727,47700
2018-02-14,14.829999923706055,14.989999771118164,14.5600004196167,14.880000114440918,14.880000114440918,112000
2018-02-15,15.119999885559082,15.1899995803833,14.890000343322754,15.0,15.0,80900
2018-02-16,14.899999618530273,15.130000114440918,14.880000114440918,15.130000114440918,15.130000114440918,19000
2018-02-20,14.890000343322754,15.470000267028809,14.880000114440918,15.279999732971191,15.279999732971191,18800
2018-02-21,15.329999923706055,15.949999809265137,15.300000190734863,15.399999618530273,15.399999618530273,73100
2018-02-22,15.359999656677246,15.520000457763672,15.020000457763672,15.149999618530273,15.149999618530273,46200
2018-02-23,15.220000267028809,15.619999885559082,15.100000381469727,15.579999923706055,15.579999923706055,117100
2018-02-26,15.619999885559082,15.949999809265137,15.395000457763672,15.59000015258789,15.59000015258789,21400
2018-02-27,15.59000015258789,15.600000381469727,14.861000061035156,15.069999694824219,15.069999694824219,85500
2018-02-28,15.0600004196167,15.170000076293945,14.300000190734863,14.819999694824219,14.819999694824219,64300
2018-03-01,14.819999694824219,14.819999694824219,14.199999809265137,14.399999618530273,14.399999618530273,121700
2018-03-02,14.399999618530273,14.890000343322754,14.199999809265137,14.890000343322754,14.890000343322754,145400
2018-03-05,14.329999923706055,15.34000015258789,14.222999572753906,15.229999542236328,15.229999542236328,112500
2018-03-06,15.430000305175781,15.65999984741211,14.600000381469727,15.579999923706055,15.579999923706055,59800
2018-03-07,15.4399995803833,15.630000114440918,15.220000267028809,15.350000381469727,15.350000381469727,46200
2018-03-08,15.489999771118164,16.399999618530273,15.489999771118164,16.0,16.0,221900
2018-03-09,16.200000762939453,19.329999923706055,16.030000686645508,19.09000015258789,19.09000015258789,897900
2018-03-12,18.5,20.0,18.049999237060547,18.84000015258789,18.84000015258789,1224600
2018-03-13,18.989999771118164,18.989999771118164,17.299999237060547,17.639999389648438,17.639999389648438,716700
2018-03-14,17.540000915527344,17.809999465942383,16.829999923706055,17.110000610351562,17.110000610351562,412900
2018-03-15,17.049999237060547,18.600000381469727,16.110000610351562,16.43000030517578,16.43000030517578,618300
2018-03-16,16.56999969482422,17.409000396728516,15.920000076293945,17.329999923706055,17.329999923706055,524100
2018-03-19,17.979999542236328,18.43000030517578,17.5,18.25,18.25,1155000
2018-03-20,18.0,18.0,15.289999961853027,15.979999542236328,15.979999542236328,1461300
2018-03-21,16.020000457763672,16.059999465942383,15.25,15.720000267028809,15.720000267028809,416300
2018-03-22,15.75,16.139999389648438,14.680000305175781,14.699999809265137,14.699999809265137,450900
2018-03-23,14.670000076293945,14.680000305175781,14.15999984741211,14.199999809265137,14.199999809265137,303900
2018-03-26,14.760000228881836,14.916000366210938,14.5,14.630000114440918,14.630000114440918,233800
2018-03-27,14.789999961853027,14.880000114440918,14.260000228881836,14.670000076293945,14.670000076293945,224500
2018-03-28,14.510000228881836,14.710000038146973,14.350000381469727,14.59000015258789,14.59000015258789,203300
2018-03-29,14.600000381469727,14.6899995803833,14.385000228881836,14.5,14.5,361700
2018-04-02,14.380000114440918,14.59000015258789,12.600000381469727,13.319999694824219,13.319999694824219,840900
2018-04-03,13.449999809265137,13.640000343322754,13.029999732971191,13.039999961853027,13.039999961853027,96400
2018-04-04,12.850000381469727,13.0,12.210000038146973,12.9399995803833,12.9399995803833,429600
2018-04-05,13.079999923706055,13.289999961853027,12.600000381469727,12.649999618530273,12.649999618530273,135500
2018-04-06,12.4399995803833,12.666000366210938,11.979999542236328,12.029999732971191,12.029999732971191,214400
2018-04-09,12.180000305175781,13.444999694824219,12.029999732971191,13.0600004196167,13.0600004196167,346200
2018-04-10,13.380000114440918,13.760000228881836,13.140000343322754,13.319999694824219,13.319999694824219,171900
2018-04-11,13.229999542236328,13.949999809265137,13.0,13.739999771118164,13.739999771118164,121500
2018-04-12,13.699999809265137,14.043999671936035,13.199999809265137,13.34000015258789,13.34000015258789,190100
2018-04-13,13.399999618530273,13.803000450134277,13.199999809265137,13.279999732971191,13.279999732971191,79300
2018-04-16,13.359999656677246,13.859999656677246,13.244999885559082,13.579999923706055,13.579999923706055,241100
2018-04-17,13.579999923706055,14.199999809265137,13.40999984741211,13.800000190734863,13.800000190734863,325200
2018-04-18,15.180000305175781,16.239999771118164,14.489999771118164,16.079999923706055,16.079999923706055,1584900
2018-04-19,16.420000076293945,16.56999969482422,15.880000114440918,16.479999542236328,16.479999542236328,846500
2018-04-20,16.56999969482422,16.59000015258789,15.149999618530273,15.420000076293945,15.420000076293945,352600
2018-04-23,15.640000343322754,16.25,15.420000076293945,16.229999542236328,16.229999542236328,198700
2018-04-24,16.350000381469727,16.799999237060547,15.529999732971191,15.760000228881836,15.760000228881836,307500
2018-04-25,16.0,16.0,15.050000190734863,15.5600004196167,15.5600004196167,133300
2018-04-26,15.579999923706055,16.139999389648438,15.489999771118164,15.619999885559082,15.619999885559082,117000
2018-04-27,15.970000267028809,16.639999389648438,15.904999732971191,16.459999084472656,16.459999084472656,243200
2018-04-30,16.760000228881836,16.760000228881836,16.149999618530273,16.329999923706055,16.329999923706055,105500
2018-05-01,16.459999084472656,16.65999984741211,16.350000381469727,16.5,16.5,79900
2018-05-02,16.700000762939453,17.600000381469727,16.600000381469727,17.100000381469727,17.100000381469727,608300
2018-05-03,17.200000762939453,17.479999542236328,15.630000114440918,15.890000343322754,15.890000343322754,599800
2018-05-04,15.899999618530273,16.700000762939453,15.579999923706055,16.5,16.5,305100
2018-05-07,17.06999969482422,17.350000381469727,16.780000686645508,17.030000686645508,17.030000686645508,256400
2018-05-08,17.360000610351562,17.360000610351562,17.040000915527344,17.239999771118164,17.239999771118164,214700
2018-05-09,17.25,17.5,16.68899917602539,16.709999084472656,16.709999084472656,170400
2018-05-10,16.950000762939453,17.0,16.5,17.0,17.0,238400
2018-05-11,17.0,17.3700008392334,16.739999771118164,16.770000457763672,16.770000457763672,126100
2018-05-14,17.0,17.0,16.299999237060547,16.350000381469727,16.350000381469727,161300
2018-05-15,16.489999771118164,16.729999542236328,16.299999237060547,16.729999542236328,16.729999542236328,149000
2018-05-16,16.860000610351562,17.049999237060547,16.420000076293945,16.969999313354492,16.969999313354492,458500
2018-05-17,16.959999084472656,17.049999237060547,16.329999923706055,16.690000534057617,16.690000534057617,272300
2018-05-18,16.770000457763672,18.34000015258789,16.760000228881836,18.229999542236328,18.229999542236328,1182000
2018-05-21,17.229999542236328,18.211000442504883,16.3700008392334,16.809999465942383,16.809999465942383,777100
2018-05-22,16.8799991607666,17.25,16.75,16.790000915527344,16.790000915527344,287900
2018-05-23,17.020000457763672,17.020000457763672,16.540000915527344,16.579999923706055,16.579999923706055,379500
2018-05-24,16.600000381469727,16.701000213623047,14.5,14.869999885559082,14.869999885559082,704700
2018-05-25,14.880000114440918,15.109999656677246,14.680000305175781,15.039999961853027,15.039999961853027,233600
2018-05-29,14.869999885559082,15.010000228881836,14.079999923706055,14.430000305175781,14.430000305175781,294900
2018-05-30,14.510000228881836,14.600000381469727,14.029999732971191,14.319999694824219,14.319999694824219,239100
2018-05-31,14.300000190734863,15.760000228881836,14.274999618530273,15.619999885559082,15.619999885559082,421100
2018-06-01,15.670000076293945,16.020000457763672,15.0600004196167,15.0600004196167,15.0600004196167,255700
2018-06-04,15.170000076293945,15.680000305175781,14.819999694824219,15.609999656677246,15.609999656677246,453900
2018-06-05,15.8100004196167,15.8100004196167,15.029999732971191,15.420000076293945,15.420000076293945,141600
2018-06-06,15.4399995803833,15.524999618530273,14.5600004196167,14.619999885559082,14.619999885559082,234500
2018-06-07,14.420000076293945,15.210000038146973,14.359999656677246,14.9399995803833,14.9399995803833,203100
2018-06-08,14.800000190734863,15.970000267028809,14.710000038146973,15.9399995803833,15.9399995803833,327000
2018-06-11,15.930000305175781,15.949999809265137,15.279999732971191,15.619999885559082,15.619999885559082,187100
2018-06-12,15.510000228881836,16.0,15.449999809265137,15.90999984741211,15.90999984741211,371400
2018-06-13,16.020000457763672,16.799999237060547,15.180000305175781,15.470000267028809,15.470000267028809,1192400
2018-06-14,15.399999618530273,15.979999542236328,14.90999984741211,15.529999732971191,15.529999732971191,500800
2018-06-15,15.579999923706055,16.5,14.819999694824219,16.43000030517578,16.43000030517578,460200
2018-06-18,16.639999389648438,17.170000076293945,16.18899917602539,17.09000015258789,17.09000015258789,362500
2018-06-19,16.84000015258789,17.389999389648438,15.529999732971191,15.680000305175781,15.680000305175781,545800
2018-06-20,15.899999618530273,16.09000015258789,15.050000190734863,15.0600004196167,15.0600004196167,329100
2018-06-21,15.180000305175781,15.600000381469727,14.949999809265137,15.029999732971191,15.029999732971191,169200
2018-06-22,15.0,15.100000381469727,14.770000457763672,14.920000076293945,14.920000076293945,252800
2018-06-25,14.800000190734863,14.949999809265137,14.369999885559082,14.4399995803833,14.4399995803833,283500
2018-06-26,14.180000305175781,14.399999618530273,13.989999771118164,14.229999542236328,14.229999542236328,410500
2018-06-27,14.100000381469727,14.300000190734863,12.65999984741211,12.899999618530273,12.899999618530273,676100
2018-06-28,12.75,13.005000114440918,12.149999618530273,12.149999618530273,12.149999618530273,434700
2018-06-29,12.300000190734863,12.5,12.1899995803833,12.25,12.25,327500
2018-07-02,12.210000038146973,12.40999984741211,12.010000228881836,12.210000038146973,12.210000038146973,183200
2018-07-03,12.25,12.699999809265137,12.149999618530273,12.170000076293945,12.170000076293945,114500
2018-07-05,12.25,12.656999588012695,12.130000114440918,12.489999771118164,12.489999771118164,246600
2018-07-06,12.5600004196167,12.795000076293945,12.199999809265137,12.420000076293945,12.420000076293945,348400
2018-07-09,12.420000076293945,12.479999542236328,11.067000389099121,11.890000343322754,11.890000343322754,784700
2018-07-10,11.960000038146973,12.25,11.569999694824219,11.65999984741211,11.65999984741211,428700
2018-07-11,11.40999984741211,11.779999732971191,10.850000381469727,10.960000038146973,10.960000038146973,860500
2018-07-12,11.149999618530273,12.220000267028809,11.149999618530273,11.84000015258789,11.84000015258789,490200
2018-07-13,11.850000381469727,12.057000160217285,10.880000114440918,11.029999732971191,11.029999732971191,436100
2018-07-16,11.210000038146973,11.420000076293945,11.029999732971191,11.289999961853027,11.289999961853027,220500
2018-07-17,11.25,11.460000038146973,11.0,11.1899995803833,11.1899995803833,268800
2018-07-18,11.430000305175781,11.649999618530273,11.15999984741211,11.5,11.5,310900
2018-07-19,11.119999885559082,11.350000381469727,10.720000267028809,10.880000114440918,10.880000114440918,484900
2018-07-20,10.880000114440918,10.920000076293945,10.199999809265137,10.300000190734863,10.300000190734863,438800
2018-07-23,10.279999732971191,11.800000190734863,10.140000343322754,11.449999809265137,11.449999809265137,588000
2018-07-24,11.670000076293945,12.359999656677246,11.5,11.619999885559082,11.619999885559082,513800
2018-07-25,12.0,12.6899995803833,12.0,12.670000076293945,12.670000076293945,626700
2018-07-26,12.6899995803833,13.130000114440918,12.26099967956543,12.529999732971191,12.529999732971191,354300
2018-07-27,12.529999732971191,13.0,12.529999732971191,12.84000015258789,12.84000015258789,212800
2018-07-30,12.779999732971191,12.930999755859375,12.01099967956543,12.289999961853027,12.289999961853027,375300
2018-07-31,12.430000305175781,12.930000305175781,12.211000442504883,12.75,12.75,176300
2018-08-01,12.5,12.760000228881836,12.09000015258789,12.229999542236328,12.229999542236328,198800
2018-08-02,12.0600004196167,12.199999809265137,12.0,12.199999809265137,12.199999809265137,331300
2018-08-03,12.25,12.75,12.100000381469727,12.25,12.25,477500
2018-08-06,12.350000381469727,12.479999542236328,12.149999618530273,12.40999984741211,12.40999984741211,268100
2018-08-07,12.479999542236328,12.899999618530273,12.15999984741211,12.770000457763672,12.770000457763672,300500
2018-08-08,12.710000038146973,12.800000190734863,12.279999732971191,12.520000457763672,12.520000457763672,198900
2018-08-09,12.479999542236328,12.880000114440918,12.399999618530273,12.720000267028809,12.720000267028809,256500
2018-08-10,12.699999809265137,12.699999809265137,12.3100004196167,12.4399995803833,12.4399995803833,160800
2018-08-13,12.399999618530273,12.420000076293945,10.449999809265137,10.579999923706055,10.579999923706055,746100
2018-08-14,10.600000381469727,10.850000381469727,9.550000190734863,10.420000076293945,10.420000076293945,923200
2018-08-15,10.180000305175781,10.380000114440918,9.630000114440918,9.979999542236328,9.979999542236328,347400
2018-08-16,10.050000190734863,10.22700023651123,9.850000381469727,10.0,10.0,213100
2018-08-17,10.079999923706055,11.180000305175781,9.930000305175781,11.100000381469727,11.100000381469727,253900
2018-08-20,11.199999809265137,11.630000114440918,10.699999809265137,11.25,11.25,370300
2018-08-21,11.579999923706055,11.579999923706055,10.800000190734863,10.989999771118164,10.989999771118164,319900
2018-08-22,11.119999885559082,11.289999961853027,11.039999961853027,11.15999984741211,11.15999984741211,440000
2018-08-23,12.739999771118164,14.229999542236328,12.399999618530273,12.84000015258789,12.84000015258789,4840200
2018-08-24,13.130000114440918,13.199999809265137,12.420000076293945,13.0,13.0,1014600
2018-08-27,12.720000267028809,12.800000190734863,11.829999923706055,11.850000381469727,11.850000381469727,686800
2018-08-28,11.600000381469727,12.378999710083008,11.300000190734863,12.1899995803833,12.1899995803833,472200
2018-08-29,12.15999984741211,12.770000457763672,12.029999732971191,12.539999961853027,12.539999961853027,377200
2018-08-30,12.329999923706055,12.479999542236328,12.0,12.010000228881836,12.010000228881836,260800
2018-08-31,11.899999618530273,11.970000267028809,11.699999809265137,11.859999656677246,11.859999656677246,214800
2018-09-04,11.609999656677246,11.680000305175781,11.550999641418457,11.600000381469727,11.600000381469727,254000
2018-09-05,11.489999771118164,11.5,11.079999923706055,11.119999885559082,11.119999885559082,486700
2018-09-06,11.0,11.21500015258789,10.5,10.640000343322754,10.640000343322754,274200
2018-09-07,10.539999961853027,10.789999961853027,10.109999656677246,10.119999885559082,10.119999885559082,382500
2018-09-10,10.020000457763672,10.20300006866455,9.619999885559082,9.8100004196167,9.8100004196167,362200
2018-09-11,9.819999694824219,10.380000114440918,9.699999809265137,10.3100004196167,10.3100004196167,156800
2018-09-12,10.239999771118164,10.5,9.960000038146973,10.5,10.5,291600
2018-09-13,10.300000190734863,10.300000190734863,10.0649995803833,10.1899995803833,10.1899995803833,729700
2018-09-14,10.199999809265137,10.300000190734863,9.680000305175781,9.90999984741211,9.90999984741211,564100
2018-09-17,9.880000114440918,10.199999809265137,9.869999885559082,9.949999809265137,9.949999809265137,162900
2018-09-18,9.989999771118164,10.050000190734863,9.949999809265137,9.979999542236328,9.979999542236328,179400
2018-09-19,10.0,10.15999984741211,9.949999809265137,10.149999618530273,10.149999618530273,287200
2018-09-20,10.180000305175781,10.279999732971191,9.859999656677246,10.050000190734863,10.050000190734863,779400
2018-09-21,10.199999809265137,10.449999809265137,10.069999694824219,10.369999885559082,10.369999885559082,1834600
2018-09-24,10.180000305175781,10.5,9.960000038146973,10.430000305175781,10.430000305175781,627300
2018-09-25,10.300000190734863,10.390000343322754,10.069999694824219,10.119999885559082,10.119999885559082,156300
2018-09-26,10.050000190734863,10.1899995803833,9.960000038146973,10.0600004196167,10.0600004196167,448000
2018-09-27,10.100000381469727,10.130000114440918,9.989999771118164,10.010000228881836,10.010000228881836,477200
2018-09-28,9.979999542236328,10.199999809265137,9.920000076293945,9.930000305175781,9.930000305175781,278500
2018-10-01,10.079999923706055,10.130000114440918,9.800000190734863,9.850000381469727,9.850000381469727,99500
2018-10-02,9.880000114440918,9.90999984741211,9.111000061035156,9.520000457763672,9.520000457763672,501600
2018-10-03,9.550000190734863,9.789999961853027,9.369999885559082,9.579999923706055,9.579999923706055,245300
2018-10-04,9.5,9.579999923706055,9.295000076293945,9.430000305175781,9.430000305175781,484300
2018-10-05,9.399999618530273,9.949999809265137,9.399999618530273,9.770000457763672,9.770000457763672,210600
2018-10-08,9.630000114440918,9.989999771118164,9.5,9.880000114440918,9.880000114440918,201300
2018-10-09,9.84000015258789,10.199999809265137,9.84000015258789,10.100000381469727,10.100000381469727,172500
2018-10-10,10.100000381469727,10.109999656677246,9.770000457763672,9.8100004196167,9.8100004196167,231100
2018-10-11,9.609999656677246,9.8100004196167,9.460000038146973,9.579999923706055,9.579999923706055,126700
2018-10-12,9.680000305175781,9.90999984741211,9.210000038146973,9.289999961853027,9.289999961853027,407300
2018-10-15,9.260000228881836,9.630000114440918,9.149999618530273,9.420000076293945,9.420000076293945,173700
2018-10-16,9.399999618530273,9.890000343322754,9.319999694824219,9.829999923706055,9.829999923706055,169200
2018-10-17,9.829999923706055,9.869999885559082,9.449999809265137,9.779999732971191,9.779999732971191,190400
2018-10-18,9.65999984741211,9.753000259399414,9.350000381469727,9.369999885559082,9.369999885559082,252800
2018-10-19,9.380000114440918,9.75,9.380000114440918,9.470000267028809,9.470000267028809,136000
2018-10-22,9.800000190734863,10.399999618530273,9.75,10.289999961853027,10.289999961853027,333600
2018-10-23,9.710000038146973,9.850000381469727,9.399999618530273,9.75,9.75,512100
2018-10-24,9.720000267028809,9.720000267028809,9.489999771118164,9.550000190734863,9.550000190734863,187300
2018-10-25,9.579999923706055,10.020000457763672,9.5600004196167,9.949999809265137,9.949999809265137,123100
2018-10-26,9.890000343322754,9.979999542236328,9.430000305175781,9.489999771118164,9.489999771118164,500500
2018-10-29,9.600000381469727,9.760000228881836,9.130000114440918,9.279999732971191,9.279999732971191,546400
2018-10-30,9.300000190734863,9.461000442504883,9.170000076293945,9.380000114440918,9.380000114440918,97700
2018-10-31,9.399999618530273,9.819999694824219,9.34000015258789,9.779999732971191,9.779999732971191,236300
2018-11-01,9.75,10.6899995803833,9.649999618530273,10.550000190734863,10.550000190734863,491500
2018-11-02,10.59000015258789,10.880000114440918,10.0,10.0,10.0,609200
2018-11-05,10.100000381469727,10.380000114440918,9.899999618530273,10.180000305175781,10.180000305175781,230200
2018-11-06,10.180000305175781,10.210000038146973,9.470000267028809,9.609999656677246,9.609999656677246,649000
2018-11-07,9.65999984741211,10.199999809265137,9.645000457763672,10.010000228881836,10.010000228881836,411100
2018-11-08,9.949999809265137,9.949999809265137,9.380000114440918,9.569999694824219,9.569999694824219,220900
2018-11-09,9.609999656677246,9.869999885559082,9.40999984741211,9.680000305175781,9.680000305175781,186400
2018-11-12,9.729999542236328,10.062999725341797,9.710000038146973,9.869999885559082,9.869999885559082,207800
2018-11-13,9.899999618530273,10.270000457763672,9.770000457763672,10.170000076293945,10.170000076293945,554500
2018-11-14,10.920000076293945,11.079999923706055,9.600000381469727,10.300000190734863,10.300000190734863,1691900
2018-11-15,10.140000343322754,10.15999984741211,9.90999984741211,10.050000190734863,10.050000190734863,448800
2018-11-16,9.920000076293945,10.050000190734863,9.869999885559082,10.050000190734863,10.050000190734863,277400
2018-11-19,10.0,10.0,9.760000228881836,9.899999618530273,9.899999618530273,301500
2018-11-20,9.649999618530273,9.899999618530273,9.449999809265137,9.550000190734863,9.550000190734863,364700
2018-11-21,9.600000381469727,10.0,9.600000381469727,9.65999984741211,9.65999984741211,359400
2018-11-23,9.65999984741211,10.0,9.59000015258789,9.869999885559082,9.869999885559082,279800
2018-11-26,10.0,10.020000457763672,9.600000381469727,9.619999885559082,9.619999885559082,240000
2018-11-27,9.550000190734863,9.729999542236328,9.460000038146973,9.529999732971191,9.529999732971191,272000
2018-11-28,9.619999885559082,9.739999771118164,9.529999732971191,9.649999618530273,9.649999618530273,155900
2018-11-29,9.65999984741211,9.6899995803833,9.15999984741211,9.329999923706055,9.329999923706055,367200
2018-11-30,9.3100004196167,9.550000190734863,9.270000457763672,9.510000228881836,9.510000228881836,86900
2018-12-03,9.520000457763672,9.859999656677246,9.359999656677246,9.630000114440918,9.630000114440918,282000
2018-12-04,9.460000038146973,9.600000381469727,9.25,9.260000228881836,9.260000228881836,216800
2018-12-06,9.100000381469727,9.239999771118164,8.5600004196167,8.869999885559082,8.869999885559082,479700
2018-12-07,8.829999923706055,8.829999923706055,8.0600004196167,8.09000015258789,8.09000015258789,500800
2018-12-10,7.989999771118164,7.989999771118164,7.300000190734863,7.53000020980835,7.53000020980835,892200
2018-12-11,7.539999961853027,7.599999904632568,6.480000019073486,6.619999885559082,6.619999885559082,914700
2018-12-12,7.119999885559082,8.5,7.039999961853027,8.350000381469727,8.350000381469727,1329100
2018-12-13,8.399999618530273,8.800000190734863,8.199999809265137,8.329999923706055,8.329999923706055,967800
2018-12-14,8.180000305175781,8.6899995803833,8.100000381469727,8.640000343322754,8.640000343322754,454000
2018-12-17,8.59000015258789,8.699999809265137,7.96999979019165,8.119999885559082,8.119999885559082,418000
2018-12-18,8.180000305175781,8.40999984741211,8.0,8.3100004196167,8.3100004196167,271600
2018-12-19,8.199999809265137,8.34000015258789,8.069999694824219,8.100000381469727,8.100000381469727,195900
2018-12-20,8.050000190734863,8.130000114440918,7.559999942779541,7.679999828338623,7.679999828338623,164300
2018-12-21,7.639999866485596,7.9079999923706055,7.525000095367432,7.78000020980835,7.78000020980835,301800
2018-12-24,7.559999942779541,7.63100004196167,7.329999923706055,7.409999847412109,7.409999847412109,145500
2018-12-26,7.25,7.699999809265137,7.019999980926514,7.679999828338623,7.679999828338623,183500
2018-12-27,7.519999980926514,7.75,7.300000190734863,7.730000019073486,7.730000019073486,181300
2018-12-28,7.630000114440918,7.789999961853027,7.260000228881836,7.739999771118164,7.739999771118164,255700
2018-12-31,7.650000095367432,7.900000095367432,7.170000076293945,7.25,7.25,206300
2019-01-02,7.150000095367432,7.5,7.050000190734863,7.420000076293945,7.420000076293945,143900
2019-01-03,7.300000190734863,7.900000095367432,7.269999980926514,7.619999885559082,7.619999885559082,243500
2019-01-04,7.739999771118164,8.239999771118164,7.7220001220703125,8.180000305175781,8.180000305175781,514800
2019-01-07,8.199999809265137,8.550000190734863,8.199999809265137,8.489999771118164,8.489999771118164,171300
2019-01-08,8.569999694824219,8.65999984741211,8.279999732971191,8.59000015258789,8.59000015258789,85000
2019-01-09,8.6899995803833,8.979999542236328,8.609999656677246,8.819999694824219,8.819999694824219,203500
2019-01-10,8.800000190734863,8.949999809265137,8.708000183105469,8.949999809265137,8.949999809265137,67200
2019-01-11,8.920000076293945,8.970000267028809,8.65999984741211,8.960000038146973,8.960000038146973,119500
2019-01-14,8.8100004196167,8.880000114440918,8.630000114440918,8.75,8.75,66700
2019-01-15,8.699999809265137,9.020000457763672,8.649999618530273,8.960000038146973,8.960000038146973,163600
2019-01-16,8.989999771118164,9.300000190734863,8.989999771118164,9.199999809265137,9.199999809265137,161200
2019-01-17,9.100000381469727,9.390000343322754,9.100000381469727,9.350000381469727,9.350000381469727,80200
2019-01-18,9.460000038146973,9.460000038146973,9.223999977111816,9.329999923706055,9.329999923706055,155600
2019-01-22,9.220000267028809,9.779999732971191,9.1899995803833,9.4399995803833,9.4399995803833,540600
2019-01-23,9.460000038146973,9.649999618530273,8.800000190734863,9.029999732971191,9.029999732971191,341000
2019-01-24,9.029999732971191,9.15999984741211,8.979999542236328,9.0600004196167,9.0600004196167,112600
2019-01-25,9.069999694824219,9.5,9.069999694824219,9.3100004196167,9.3100004196167,305100
2019-01-28,9.279999732971191,9.510000228881836,9.279999732971191,9.460000038146973,9.460000038146973,233900
2019-01-29,9.460000038146973,9.670000076293945,9.40999984741211,9.569999694824219,9.569999694824219,241400
2019-01-30,9.649999618530273,9.649999618530273,9.380000114440918,9.4399995803833,9.4399995803833,136000
2019-01-31,9.5,9.789999961853027,9.395000457763672,9.779999732971191,9.779999732971191,210600
2019-02-01,9.75,9.859999656677246,9.6899995803833,9.850000381469727,9.850000381469727,148000
2019-02-04,9.819999694824219,10.119999885559082,9.630000114440918,10.109999656677246,10.109999656677246,177200
2019-02-05,10.1899995803833,10.239999771118164,10.0,10.149999618530273,10.149999618530273,247500
2019-02-06,10.149999618530273,10.15999984741211,9.859999656677246,10.039999961853027,10.039999961853027,151600
2019-02-07,10.029999732971191,10.239999771118164,9.885000228881836,10.100000381469727,10.100000381469727,164500
2019-02-08,10.039999961853027,10.109999656677246,9.949999809265137,10.010000228881836,10.010000228881836,157100
2019-02-11,10.140000343322754,10.15999984741211,9.970000267028809,10.0,10.0,558300
2019-02-12,10.119999885559082,10.119999885559082,9.96500015258789,10.0,10.0,465700
2019-02-13,10.010000228881836,10.350000381469727,9.960000038146973,10.1899995803833,10.1899995803833,932100
2019-02-14,10.119999885559082,10.140000343322754,9.920000076293945,10.050000190734863,10.050000190734863,448400
2019-02-15,10.100000381469727,10.119999885559082,10.020000457763672,10.039999961853027,10.039999961853027,548300
2019-02-19,10.050000190734863,10.260000228881836,9.970000267028809,10.050000190734863,10.050000190734863,1138600
2019-02-20,10.109999656677246,10.350000381469727,10.029999732971191,10.279999732971191,10.279999732971191,641200
2019-02-21,10.3100004196167,10.5,10.210000038146973,10.3100004196167,10.3100004196167,696200
2019-02-22,10.300000190734863,11.630000114440918,10.279999732971191,11.479999542236328,11.479999542236328,764700
2019-02-25,12.300000190734863,12.819999694824219,12.029999732971191,12.100000381469727,12.100000381469727,965500
2019-02-26,12.0,12.140000343322754,11.850000381469727,11.960000038146973,11.960000038146973,311400
2019-02-27,11.899999618530273,12.140000343322754,11.630000114440918,12.039999961853027,12.039999961853027,348600
2019-02-28,12.039999961853027,12.076000213623047,11.529999732971191,11.649999618530273,11.649999618530273,286600
2019-03-01,11.859999656677246,12.199999809265137,11.720000267028809,12.149999618530273,12.149999618530273,315000
2019-03-04,12.020000457763672,12.4399995803833,11.859999656677246,12.109999656677246,12.109999656677246,449300
2019-03-05,12.069999694824219,12.119999885559082,11.720000267028809,11.880000114440918,11.880000114440918,315400
2019-03-06,11.890000343322754,12.050000190734863,11.670000076293945,11.699999809265137,11.699999809265137,282500
2019-03-07,11.699999809265137,11.699999809265137,11.109999656677246,11.149999618530273,11.149999618530273,565300
2019-03-08,11.369999885559082,11.369999885559082,10.770000457763672,11.0600004196167,11.0600004196167,622500
2019-03-11,11.15999984741211,11.359999656677246,11.029999732971191,11.199999809265137,11.199999809265137,447400
2019-03-12,11.3100004196167,11.380000114440918,10.899999618530273,11.229999542236328,11.229999542236328,597500
2019-03-13,11.25,11.281000137329102,11.0600004196167,11.149999618530273,11.149999618530273,889600
2019-03-14,11.970000267028809,12.0,10.319999694824219,10.390000343322754,10.390000343322754,1919900
2019-03-15,10.510000228881836,10.614999771118164,10.390000343322754,10.529999732971191,10.529999732971191,2349400
2019-03-18,10.399999618530273,10.505000114440918,10.0,10.489999771118164,10.489999771118164,4795600
2019-03-19,10.479999542236328,11.520999908447266,10.279999732971191,11.420000076293945,11.420000076293945,3073600
2019-03-20,11.430000305175781,11.430000305175781,10.625,10.789999961853027,10.789999961853027,1775900
2019-03-21,10.75,11.380000114440918,10.699999809265137,11.300000190734863,11.300000190734863,1383900
2019-03-22,11.15999984741211,11.289999961853027,10.550000190734863,10.75,10.75,1031900
2019-03-25,10.699999809265137,11.430000305175781,10.520000457763672,11.260000228881836,11.260000228881836,987300
2019-03-26,11.270000457763672,11.270000457763672,10.770000457763672,11.020000457763672,11.020000457763672,578100
2019-03-27,11.050000190734863,11.1899995803833,10.670000076293945,10.770000457763672,10.770000457763672,794400
2019-03-28,10.369999885559082,10.760000228881836,9.710000038146973,10.430000305175781,10.430000305175781,1935900
2019-03-29,10.430000305175781,10.5,9.449999809265137,10.5,10.5,1650900
2019-04-01,10.710000038146973,11.289999961853027,10.649999618530273,11.109999656677246,11.109999656677246,748000
2019-04-02,11.180000305175781,12.130000114440918,11.114999771118164,11.9399995803833,11.9399995803833,1084200
2019-04-03,12.210000038146973,12.770000457763672,11.850000381469727,11.920000076293945,11.920000076293945,819800
2019-04-04,11.869999885559082,12.59000015258789,11.84000015258789,12.460000038146973,12.460000038146973,777400
2019-04-05,12.579999923706055,13.199999809265137,12.579999923706055,13.0600004196167,13.0600004196167,2132600
2019-04-08,12.789999961853027,14.520000457763672,12.758999824523926,14.279999732971191,14.279999732971191,1592500
2019-04-09,14.319999694824219,14.65999984741211,13.989999771118164,14.109999656677246,14.109999656677246,1277100
2019-04-10,14.079999923706055,14.140000343322754,13.329999923706055,13.59000015258789,13.59000015258789,1080900
2019-04-11,13.579999923706055,13.890000343322754,13.470000267028809,13.729999542236328,13.729999542236328,551900
2019-04-12,14.0,14.579999923706055,13.859999656677246,14.0,14.0,1113600
2019-04-15,13.979999542236328,13.979999542236328,13.039999961853027,13.260000228881836,13.260000228881836,830200
2019-04-16,13.5600004196167,13.859999656677246,13.399999618530273,13.640000343322754,13.640000343322754,902300
2019-04-17,13.8100004196167,14.029999732971191,13.739999771118164,13.84000015258789,13.84000015258789,1416600
2019-04-18,14.0,14.5,13.770000457763672,14.430000305175781,14.430000305175781,1127500
2019-04-22,14.079999923706055,14.079999923706055,13.25,13.329999923706055,13.329999923706055,2083700
2019-04-23,13.479999542236328,13.539999961853027,13.260000228881836,13.449999809265137,13.449999809265137,1170600
2019-04-24,13.449999809265137,13.609999656677246,12.819999694824219,13.449999809265137,13.449999809265137,1828600
2019-04-25,13.34000015258789,13.385000228881836,12.880000114440918,13.100000381469727,13.100000381469727,1420800
2019-04-26,13.100000381469727,13.569999694824219,12.949999809265137,13.489999771118164,13.489999771118164,1770100
2019-04-29,13.59000015258789,13.760000228881836,13.270000457763672,13.59000015258789,13.59000015258789,3989500
2019-04-30,13.529999732971191,13.609999656677246,12.869999885559082,12.899999618530273,12.899999618530273,2161700
2019-05-01,12.970000267028809,13.149999618530273,12.890000343322754,12.899999618530273,12.899999618530273,1244100
2019-05-02,12.930000305175781,13.520000457763672,12.880000114440918,13.5,13.5,1908600
2019-05-03,13.539999961853027,14.619999885559082,13.319999694824219,14.5,14.5,3351600
2019-05-06,13.470000267028809,14.029999732971191,13.25,13.800000190734863,13.800000190734863,1429900
2019-05-07,13.600000381469727,13.789999961853027,13.319999694824219,13.420000076293945,13.420000076293945,1230800
2019-05-08,13.289999961853027,13.5600004196167,12.380000114440918,13.109999656677246,13.109999656677246,1595400
2019-05-09,12.829999923706055,12.899999618530273,12.300000190734863,12.460000038146973,12.460000038146973,917100
2019-05-10,12.850000381469727,13.140999794006348,12.630000114440918,12.970000267028809,12.970000267028809,696600
2019-05-13,12.569999694824219,12.64799976348877,12.140000343322754,12.449999809265137,12.449999809265137,810100
2019-05-14,12.720000267028809,13.149999618530273,12.550000190734863,13.09000015258789,13.09000015258789,867000
2019-05-15,13.100000381469727,13.239999771118164,12.895000457763672,12.989999771118164,12.989999771118164,624500
2019-05-16,13.0,13.859999656677246,13.0,13.680000305175781,13.680000305175781,1295000
2019-05-17,13.600000381469727,13.760000228881836,12.765999794006348,12.989999771118164,12.989999771118164,2254300
2019-05-20,12.6899995803833,12.729999542236328,11.800000190734863,11.800000190734863,11.800000190734863,1704900
2019-05-21,11.869999885559082,12.489999771118164,11.869999885559082,12.279999732971191,12.279999732971191,1046800
2019-05-22,12.199999809265137,12.6899995803833,12.0,12.529999732971191,12.529999732971191,1247900
2019-05-23,12.25,12.28499984741211,11.90999984741211,12.0600004196167,12.0600004196167,1225900
2019-05-24,12.140000343322754,12.470000267028809,12.109999656677246,12.329999923706055,12.329999923706055,927400
2019-05-28,12.289999961853027,12.600000381469727,12.180000305175781,12.279999732971191,12.279999732971191,5039200
2019-05-29,12.25,12.260000228881836,11.800000190734863,11.949999809265137,11.949999809265137,935800
2019-05-30,11.970000267028809,12.069999694824219,11.539999961853027,11.579999923706055,11.579999923706055,485500
2019-05-31,11.4399995803833,11.5600004196167,11.270000457763672,11.300000190734863,11.300000190734863,815700
2019-06-03,11.319999694824219,11.550000190734863,11.130000114440918,11.229999542236328,11.229999542236328,905700
2019-06-04,11.279999732971191,11.779999732971191,11.279999732971191,11.699999809265137,11.699999809265137,1315300
2019-06-05,11.779999732971191,11.970000267028809,10.920000076293945,11.069999694824219,11.069999694824219,981000
2019-06-06,11.100000381469727,11.21500015258789,10.619999885559082,10.779999732971191,10.779999732971191,1102000
2019-06-07,10.84000015258789,11.010000228881836,10.600000381469727,10.65999984741211,10.65999984741211,759400
2019-06-10,10.859999656677246,11.140000343322754,10.84000015258789,11.109999656677246,11.109999656677246,701600
2019-06-11,11.25,11.550000190734863,11.09000015258789,11.369999885559082,11.369999885559082,673400
2019-06-12,11.40999984741211,11.789999961853027,11.260000228881836,11.420000076293945,11.420000076293945,899700
2019-06-13,11.5600004196167,11.600000381469727,11.109999656677246,11.270000457763672,11.270000457763672,491300
2019-06-14,11.260000228881836,11.260000228881836,10.800000190734863,10.9399995803833,10.9399995803833,1152800
2019-06-17,10.989999771118164,11.229999542236328,10.850000381469727,10.899999618530273,10.899999618530273,828000
2019-06-18,10.960000038146973,11.4399995803833,10.859999656677246,11.40999984741211,11.40999984741211,853800
2019-06-19,11.470000267028809,11.729999542236328,11.380000114440918,11.5,11.5,697000
2019-06-20,11.65999984741211,11.989999771118164,11.619999885559082,11.960000038146973,11.960000038146973,827500
2019-06-21,11.90999984741211,11.965999603271484,11.34000015258789,11.760000228881836,11.760000228881836,666900
2019-06-24,11.760000228881836,12.279999732971191,11.760000228881836,11.899999618530273,11.899999618530273,1249200
2019-06-25,11.800000190734863,11.829999923706055,11.130000114440918,11.25,11.25,1436200
2019-06-26,11.3100004196167,11.550000190734863,11.239999771118164,11.350000381469727,11.350000381469727,1526500
2019-06-27,11.420000076293945,11.649999618530273,11.359999656677246,11.630000114440918,11.630000114440918,1169000
2019-06-28,11.569999694824219,11.680000305175781,11.010000228881836,11.15999984741211,11.15999984741211,836000
2019-07-01,11.779999732971191,11.9399995803833,11.65999984741211,11.699999809265137,11.699999809265137,1254900
2019-07-02,11.770000457763672,11.930000305175781,11.619999885559082,11.859999656677246,11.859999656677246,955200
2019-07-03,11.789999961853027,12.170000076293945,11.600000381469727,12.029999732971191,12.029999732971191,632200
2019-07-05,11.970000267028809,12.039999961853027,11.510000228881836,11.920000076293945,11.920000076293945,420300
2019-07-08,11.880000114440918,11.904999732971191,11.619999885559082,11.779999732971191,11.779999732971191,637500
2019-07-09,11.640000343322754,12.130000114440918,11.640000343322754,11.9399995803833,11.9399995803833,753600
2019-07-10,11.9399995803833,12.140000343322754,11.630000114440918,11.970000267028809,11.970000267028809,1018200
2019-07-11,12.020000457763672,12.079999923706055,11.829999923706055,11.949999809265137,11.949999809265137,483200
2019-07-12,12.0,12.0,11.569999694824219,11.59000015258789,11.59000015258789,375200
2019-07-15,11.649999618530273,12.010000228881836,11.649999618530273,12.0,12.0,906000
2019-07-16,12.170000076293945,12.170000076293945,11.420000076293945,11.5600004196167,11.5600004196167,816200
2019-07-17,11.600000381469727,11.680000305175781,11.154999732971191,11.350000381469727,11.350000381469727,509000
2019-07-18,11.25,11.4350004196167,11.15999984741211,11.3100004196167,11.3100004196167,489700
2019-07-19,11.399999618530273,11.600000381469727,11.319999694824219,11.34000015258789,11.34000015258789,666700
2019-07-22,11.34000015258789,11.369999885559082,10.829999923706055,10.960000038146973,10.960000038146973,854200
2019-07-23,11.0,11.366999626159668,10.989999771118164,11.260000228881836,11.260000228881836,616300
2019-07-24,11.289999961853027,11.369999885559082,10.899999618530273,11.020000457763672,11.020000457763672,493300
2019-07-25,11.069999694824219,11.130000114440918,10.635000228881836,10.649999618530273,10.649999618530273,523700
2019-07-26,10.739999771118164,11.024999618530273,10.649999618530273,10.779999732971191,10.779999732971191,630900
2019-07-29,10.789999961853027,10.899999618530273,10.670000076293945,10.710000038146973,10.710000038146973,308500
2019-07-30,10.699999809265137,10.74899959564209,10.600000381469727,10.609999656677246,10.609999656677246,360200
2019-07-31,10.710000038146973,10.829999923706055,10.479999542236328,10.600000381469727,10.600000381469727,368000
2019-08-01,10.630000114440918,11.010000228881836,10.399999618530273,10.4399995803833,10.4399995803833,550300
2019-08-02,10.4399995803833,10.960000038146973,10.210000038146973,10.399999618530273,10.399999618530273,407300
2019-08-05,10.130000114440918,10.279999732971191,9.609999656677246,10.079999923706055,10.079999923706055,825300
2019-08-06,10.1899995803833,10.229999542236328,10.050000190734863,10.180000305175781,10.180000305175781,350700
2019-08-07,10.050000190734863,10.1899995803833,9.779999732971191,10.079999923706055,10.079999923706055,398700
2019-08-08,10.199999809265137,10.90999984741211,10.199999809265137,10.699999809265137,10.699999809265137,1092000
2019-08-09,10.680000305175781,10.960000038146973,10.130000114440918,10.260000228881836,10.260000228881836,580600
2019-08-12,10.109999656677246,10.15999984741211,9.902999877929688,10.100000381469727,10.100000381469727,395600
2019-08-13,10.079999923706055,10.789999961853027,10.079999923706055,10.270000457763672,10.270000457763672,511500
2019-08-14,10.100000381469727,10.295000076293945,9.770000457763672,9.979999542236328,9.979999542236328,571900
2019-08-15,10.069999694824219,10.4399995803833,9.960000038146973,10.180000305175781,10.180000305175781,474600
2019-08-16,10.350000381469727,10.819999694824219,10.25,10.670000076293945,10.670000076293945,588500
2019-08-19,10.930000305175781,11.020000457763672,10.380000114440918,10.430000305175781,10.430000305175781,606200
2019-08-20,10.520000457763672,10.574999809265137,10.210000038146973,10.34000015258789,10.34000015258789,313100
2019-08-21,10.350000381469727,10.789999961853027,10.350000381469727,10.739999771118164,10.739999771118164,735600
2019-08-22,10.710000038146973,10.710000038146973,9.989999771118164,10.029999732971191,10.029999732971191,392800
2019-08-23,10.100000381469727,10.390000343322754,10.0,10.029999732971191,10.029999732971191,602900
2019-08-26,10.130000114440918,10.329999923706055,9.880000114440918,10.109999656677246,10.109999656677246,565000
2019-08-27,10.199999809265137,10.220000267028809,9.920000076293945,10.039999961853027,10.039999961853027,821000
2019-08-28,9.949999809265137,10.390000343322754,9.914999961853027,10.359999656677246,10.359999656677246,641200
2019-08-29,10.470000267028809,10.579999923706055,9.779999732971191,9.829999923706055,9.829999923706055,757600
2019-08-30,10.0,10.3100004196167,9.930000305175781,10.25,10.25,1659800
2019-09-03,10.300000190734863,10.829999923706055,10.149999618530273,10.649999618530273,10.649999618530273,1784200
2019-09-04,10.729999542236328,11.288999557495117,10.729999542236328,11.079999923706055,11.079999923706055,3637200
2019-09-05,11.300000190734863,11.380000114440918,10.75,11.079999923706055,11.079999923706055,1149900
2019-09-06,11.050000190734863,11.5,11.050000190734863,11.380000114440918,11.380000114440918,2318200
2019-09-09,11.399999618530273,11.4399995803833,11.0600004196167,11.270000457763672,11.270000457763672,1294300
2019-09-10,11.050000190734863,11.489999771118164,10.904999732971191,11.470000267028809,11.470000267028809,1323800
2019-09-11,11.479999542236328,11.550000190734863,11.0600004196167,11.1899995803833,11.1899995803833,1330900
2019-09-12,11.289999961853027,11.84000015258789,11.210000038146973,11.789999961853027,11.789999961853027,1491800
2019-09-13,11.800000190734863,12.0,11.3100004196167,11.4399995803833,11.4399995803833,2314000
2019-09-16,11.329999923706055,11.5600004196167,11.319999694824219,11.449999809265137,11.449999809265137,1120300
2019-09-17,11.4399995803833,11.699999809265137,11.319999694824219,11.40999984741211,11.40999984741211,1060100
2019-09-18,11.420000076293945,11.449999809265137,11.029999732971191,11.239999771118164,11.239999771118164,811700
2019-09-19,11.289999961853027,11.579999923706055,11.277000427246094,11.369999885559082,11.369999885559082,1522400
2019-09-20,11.390000343322754,11.460000038146973,10.859999656677246,10.859999656677246,10.859999656677246,3497600
2019-09-23,10.960000038146973,11.180000305175781,10.835000038146973,11.15999984741211,11.15999984741211,1460400
2019-09-24,11.149999618530273,11.239999771118164,10.359999656677246,10.380000114440918,10.380000114440918,863200
2019-09-25,10.359999656677246,10.562000274658203,10.229999542236328,10.420000076293945,10.420000076293945,934600
2019-09-26,10.420000076293945,10.550000190734863,10.199999809265137,10.25,10.25,1113600
2019-09-27,10.260000228881836,10.34000015258789,9.84000015258789,9.949999809265137,9.949999809265137,978200
2019-09-30,10.069999694824219,10.069999694824219,9.84000015258789,10.029999732971191,10.029999732971191,692400
2019-10-01,10.050000190734863,10.0600004196167,9.149999618530273,9.270000457763672,9.270000457763672,1513600
2019-10-02,9.09000015258789,9.399999618530273,8.949999809265137,8.970000267028809,8.970000267028809,1314900
2019-10-03,8.979999542236328,9.119999885559082,8.720000267028809,9.050000190734863,9.050000190734863,1098300
2019-10-04,9.010000228881836,9.079999923706055,8.75,8.819999694824219,8.819999694824219,896700
2019-10-07,8.729999542236328,8.979999542236328,8.579000473022461,8.640000343322754,8.640000343322754,1213600
2019-10-08,8.600000381469727,8.760000228881836,8.430000305175781,8.5600004196167,8.5600004196167,1372000
2019-10-09,8.779999732971191,9.029999732971191,8.729999542236328,9.0,9.0,830800
2019-10-10,9.239999771118164,9.390000343322754,9.01099967956543,9.239999771118164,9.239999771118164,922500
2019-10-11,9.390000343322754,9.829999923706055,9.390000343322754,9.550000190734863,9.550000190734863,1044700
2019-10-14,9.550000190734863,9.859999656677246,9.40999984741211,9.739999771118164,9.739999771118164,703600
2019-10-15,9.75,10.1899995803833,9.710000038146973,10.050000190734863,10.050000190734863,977000
2019-10-16,10.0600004196167,10.270000457763672,9.90999984741211,10.149999618530273,10.149999618530273,691700
2019-10-17,10.260000228881836,10.75,10.170000076293945,10.729999542236328,10.729999542236328,1199900
2019-10-18,10.739999771118164,10.812999725341797,10.420000076293945,10.630000114440918,10.630000114440918,1043800
2019-10-21,10.399999618530273,10.710000038146973,10.140000343322754,10.649999618530273,10.649999618530273,1089000
2019-10-22,10.680000305175781,10.949999809265137,10.680000305175781,10.819999694824219,10.819999694824219,840400
2019-10-23,10.789999961853027,11.140000343322754,10.789999961853027,11.079999923706055,11.079999923706055,764700
2019-10-24,11.149999618530273,11.270000457763672,10.829999923706055,11.079999923706055,11.079999923706055,622100
2019-10-25,11.09000015258789,11.1899995803833,10.960000038146973,11.0,11.0,457700
2019-10-28,11.119999885559082,11.579999923706055,11.119999885559082,11.5600004196167,11.5600004196167,569700
2019-10-29,11.569999694824219,11.699999809265137,11.40999984741211,11.520000457763672,11.520000457763672,763400
2019-10-30,11.5,11.59000015258789,11.369999885559082,11.569999694824219,11.569999694824219,555700
2019-10-31,11.600000381469727,11.605999946594238,11.109999656677246,11.34000015258789,11.34000015258789,691600
2019-11-01,11.579999923706055,11.789999961853027,11.010000228881836,11.609999656677246,11.609999656677246,742400
2019-11-04,11.760000228881836,11.989999771118164,11.600000381469727,11.970000267028809,11.970000267028809,636500
2019-11-05,12.0,12.119999885559082,11.819999694824219,11.9399995803833,11.9399995803833,937100
2019-11-06,11.960000038146973,12.050000190734863,11.779999732971191,11.84000015258789,11.84000015258789,389700
2019-11-07,11.899999618530273,12.020000457763672,11.680000305175781,11.819999694824219,11.819999694824219,623000
2019-11-08,11.800000190734863,12.050000190734863,11.65999984741211,12.050000190734863,12.050000190734863,503300
2019-11-11,11.859999656677246,12.5,11.859999656677246,12.470000267028809,12.470000267028809,952800
2019-11-12,12.550000190734863,12.640000343322754,12.40999984741211,12.5,12.5,815700
2019-11-13,12.489999771118164,12.59000015258789,12.40999984741211,12.510000228881836,12.510000228881836,704300
2019-11-14,12.539999961853027,12.630000114440918,12.329999923706055,12.479999542236328,12.479999542236328,1005200
2019-11-15,12.460000038146973,12.569999694824219,12.399999618530273,12.5,12.5,1706500
2019-11-18,12.850000381469727,13.130000114440918,12.369999885559082,12.989999771118164,12.989999771118164,4695800
2019-11-19,13.199999809265137,13.199999809265137,12.770000457763672,12.920000076293945,12.920000076293945,1626700
2019-11-20,12.5,12.52299976348877,11.510000228881836,11.949999809265137,11.949999809265137,2961000
2019-11-21,11.680000305175781,11.901000022888184,11.579999923706055,11.609999656677246,11.609999656677246,1320100
2019-11-22,11.75,11.979999542236328,11.460000038146973,11.520000457763672,11.520000457763672,1047300
2019-11-25,11.609999656677246,12.0,11.609999656677246,11.880000114440918,11.880000114440918,691500
2019-11-26,11.899999618530273,11.949999809265137,11.760000228881836,11.9399995803833,11.9399995803833,531600
2019-11-27,11.90999984741211,11.989999771118164,11.710000038146973,11.979999542236328,11.979999542236328,624300
2019-11-29,11.930000305175781,11.930000305175781,11.609999656677246,11.90999984741211,11.90999984741211,321400
2019-12-02,11.949999809265137,12.100000381469727,11.75,11.869999885559082,11.869999885559082,528700
2019-12-03,11.670000076293945,11.890000343322754,11.585000038146973,11.84000015258789,11.84000015258789,887800
2019-12-04,11.920000076293945,11.979999542236328,11.649999618530273,11.699999809265137,11.699999809265137,604500
2019-12-05,11.6899995803833,11.859999656677246,11.65999984741211,11.710000038146973,11.710000038146973,462700
2019-12-06,11.850000381469727,11.899999618530273,11.640000343322754,11.869999885559082,11.869999885559082,563700
2019-12-09,11.899999618530273,11.989999771118164,11.524999618530273,11.550000190734863,11.550000190734863,900000
2019-12-10,11.5600004196167,11.704999923706055,11.430000305175781,11.460000038146973,11.460000038146973,682700
2019-12-11,11.460000038146973,11.460000038146973,11.039999961853027,11.130000114440918,11.130000114440918,1842800
2019-12-12,11.130000114440918,11.600000381469727,10.539999961853027,11.569999694824219,11.569999694824219,3269100
2019-12-13,11.59000015258789,11.8100004196167,11.470000267028809,11.8100004196167,11.8100004196167,2516800
2019-12-16,11.8100004196167,12.0,11.75,11.930000305175781,11.930000305175781,1081200
2019-12-17,12.0,12.359999656677246,11.90999984741211,12.329999923706055,12.329999923706055,2387500
2019-12-18,12.279999732971191,12.920000076293945,12.279999732971191,12.869999885559082,12.869999885559082,3004600
2019-12-19,12.729999542236328,12.880000114440918,12.369999885559082,12.489999771118164,12.489999771118164,1141800
2019-12-20,12.569999694824219,12.949999809265137,12.545000076293945,12.819999694824219,12.819999694824219,1795800
2019-12-23,12.819999694824219,12.9399995803833,12.640000343322754,12.770000457763672,12.770000457763672,1613600
2019-12-24,12.819999694824219,12.984999656677246,12.819999694824219,12.84000015258789,12.84000015258789,1310000
2019-12-26,12.930000305175781,13.050000190734863,12.8100004196167,13.0,13.0,1475400
2019-12-27,13.0,13.15999984741211,12.819999694824219,13.079999923706055,13.079999923706055,1354700
2019-12-30,13.069999694824219,13.979999542236328,12.869999885559082,13.9399995803833,13.9399995803833,3633200
2019-12-31,13.949999809265137,14.180000305175781,13.829999923706055,13.890000343322754,13.890000343322754,2182800
2020-01-02,14.0,15.300000190734863,13.998000144958496,15.199999809265137,15.199999809265137,2773600
2020-01-03,14.640000343322754,15.25,14.420000076293945,15.15999984741211,15.15999984741211,1565900
2020-01-06,15.149999618530273,15.149999618530273,14.479999542236328,14.630000114440918,14.630000114440918,2033100
2020-01-07,14.699999809265137,15.119999885559082,14.600000381469727,14.970000267028809,14.970000267028809,2098000
2020-01-08,14.789999961853027,15.109999656677246,14.5600004196167,15.010000228881836,15.010000228881836,2060700
2020-01-09,15.140000343322754,15.770000457763672,15.140000343322754,15.289999961853027,15.289999961853027,2127900
2020-01-10,15.430000305175781,15.489999771118164,14.479999542236328,14.579999923706055,14.579999923706055,1987700
2020-01-13,14.760000228881836,15.039999961853027,14.649999618530273,14.770000457763672,14.770000457763672,1216300
2020-01-14,14.739999771118164,14.760000228881836,13.949999809265137,14.0,14.0,1947300
2020-01-15,14.069999694824219,14.199999809265137,13.829999923706055,13.970000267028809,13.970000267028809,2609100
2020-01-16,14.100000381469727,14.380000114440918,14.069999694824219,14.260000228881836,14.260000228881836,2217400
2020-01-17,14.199999809265137,14.380000114440918,14.100000381469727,14.350000381469727,14.350000381469727,1386800
2020-01-21,14.199999809265137,14.680000305175781,14.140000343322754,14.619999885559082,14.619999885559082,1872900
2020-01-22,15.369999885559082,16.93000030517578,15.069999694824219,16.636999130249023,16.636999130249023,6022600
2020-01-23,16.43000030517578,16.450000762939453,15.630000114440918,16.06999969482422,16.06999969482422,4843600
2020-01-24,16.110000610351562,16.125999450683594,14.630000114440918,15.020000457763672,15.020000457763672,2580500
2020-01-27,13.979999542236328,14.336000442504883,12.100000381469727,13.960000038146973,13.960000038146973,3273800
2020-01-28,14.130000114440918,14.40999984741211,13.90999984741211,14.359999656677246,14.359999656677246,1455500
2020-01-29,14.430000305175781,14.520000457763672,14.0,14.020000457763672,14.020000457763672,1118100
2020-01-30,13.670000076293945,14.029999732971191,13.390000343322754,13.59000015258789,13.59000015258789,1388200
2020-01-31,13.510000228881836,13.699999809265137,13.09000015258789,13.300000190734863,13.300000190734863,1470100
2020-02-03,13.279999732971191,13.539999961853027,13.170000076293945,13.34000015258789,13.34000015258789,1790300
2020-02-04,13.789999961853027,14.399999618530273,13.788999557495117,14.050000190734863,14.050000190734863,2427400
2020-02-05,14.350000381469727,14.399999618530273,13.109999656677246,13.289999961853027,13.289999961853027,1749500
2020-02-06,13.539999961853027,13.64900016784668,13.109999656677246,13.369999885559082,13.369999885559082,1567800
2020-02-07,13.399999618530273,13.625,13.305000305175781,13.390000343322754,13.390000343322754,1623300
2020-02-10,13.260000228881836,13.625,12.770000457763672,13.359999656677246,13.359999656677246,2188500
2020-02-11,13.399999618530273,13.539999961853027,13.199999809265137,13.329999923706055,13.329999923706055,1237200
2020-02-12,13.5600004196167,14.079999923706055,13.489999771118164,13.770000457763672,13.770000457763672,1378800
2020-02-13,13.699999809265137,13.800000190734863,13.270000457763672,13.510000228881836,13.510000228881836,1160400
2020-02-14,13.699999809265137,13.960000038146973,13.32800006866455,13.420000076293945,13.420000076293945,895200
2020-02-18,13.399999618530273,13.449999809265137,12.920000076293945,13.09000015258789,13.09000015258789,1589100
2020-02-19,13.09000015258789,13.180000305175781,12.850000381469727,13.069999694824219,13.069999694824219,1444400
2020-02-20,13.069999694824219,13.460000038146973,13.0,13.220000267028809,13.220000267028809,1433300
2020-02-21,13.170000076293945,13.210000038146973,12.630000114440918,12.710000038146973,12.710000038146973,1425300
2020-02-24,12.270000457763672,12.350000381469727,11.800000190734863,12.069999694824219,12.069999694824219,2564300
2020-02-25,12.1899995803833,12.585000038146973,11.90999984741211,12.020000457763672,12.020000457763672,1392100
2020-02-26,12.09000015258789,12.265000343322754,11.869999885559082,11.979999542236328,11.979999542236328,976900
2020-02-27,11.800000190734863,12.050000190734863,11.550000190734863,11.699999809265137,11.699999809265137,1287300
2020-02-28,11.329999923706055,11.6899995803833,11.09000015258789,11.640000343322754,11.640000343322754,1587000
2020-03-02,11.729999542236328,11.791000366210938,10.949999809265137,11.239999771118164,11.239999771118164,1883500
2020-03-03,11.300000190734863,11.46500015258789,10.710000038146973,10.869999885559082,10.869999885559082,1618700
2020-03-04,11.0,11.170000076293945,10.930000305175781,11.079999923706055,11.079999923706055,1681200
2020-03-05,10.9399995803833,11.109999656677246,10.720000267028809,10.970000267028809,10.970000267028809,939800
2020-03-06,10.59000015258789,10.800000190734863,10.149999618530273,10.399999618530273,10.399999618530273,1497800
2020-03-09,9.819999694824219,9.899999618530273,9.020000457763672,9.470000267028809,9.470000267028809,2528400
2020-03-10,10.109999656677246,10.130000114440918,9.5,9.890000343322754,9.890000343322754,3112300
2020-03-11,9.65999984741211,10.039999961853027,9.449999809265137,9.699999809265137,9.699999809265137,1673300
2020-03-12,9.390000343322754,9.835000038146973,8.710000038146973,8.989999771118164,8.989999771118164,2900400
2020-03-13,9.199999809265137,9.619999885559082,9.039999961853027,9.539999961853027,9.539999961853027,1372500
2020-03-16,8.760000228881836,8.920000076293945,8.25,8.710000038146973,8.710000038146973,1248900
2020-03-17,8.800000190734863,9.135000228881836,8.394000053405762,8.75,8.75,2298900
2020-03-18,8.5,9.140000343322754,8.100000381469727,8.760000228881836,8.760000228881836,2090300
2020-03-19,8.600000381469727,8.920000076293945,8.119999885559082,8.5,8.5,1092900
2020-03-20,8.569999694824219,9.130000114440918,8.430000305175781,8.760000228881836,8.760000228881836,2021800
2020-03-23,8.739999771118164,8.779999732971191,7.920000076293945,8.119999885559082,8.119999885559082,2075100
2020-03-24,8.600000381469727,10.300000190734863,8.579999923706055,9.270000457763672,9.270000457763672,3870400
2020-03-25,9.739999771118164,10.579999923706055,9.345000267028809,10.4399995803833,10.4399995803833,2089800
2020-03-26,10.140000343322754,11.140000343322754,9.930000305175781,11.109999656677246,11.109999656677246,1882100
2020-03-27,10.680000305175781,10.680000305175781,9.989999771118164,10.050000190734863,10.050000190734863,1610300
2020-03-30,9.960000038146973,10.0,8.5,8.569999694824219,8.569999694824219,2788700
2020-03-31,8.710000038146973,9.055000305175781,8.640000343322754,8.869999885559082,8.869999885559082,1233400
2020-04-01,8.720000267028809,8.800000190734863,8.260000228881836,8.5600004196167,8.5600004196167,1193300
2020-04-02,8.46500015258789,8.46500015258789,8.119999885559082,8.34000015258789,8.34000015258789,1837900
2020-04-03,8.220000267028809,8.5,8.149999618530273,8.5,8.5,1402600
2020-04-06,8.760000228881836,8.869999885559082,8.359999656677246,8.529999732971191,8.529999732971191,1929000
2020-04-07,8.859999656677246,9.270000457763672,8.800000190734863,9.050000190734863,9.050000190734863,1634100
2020-04-08,9.199999809265137,9.25,8.819999694824219,8.890000343322754,8.890000343322754,980900
2020-04-09,8.90999984741211,9.220000267028809,8.520000457763672,8.6899995803833,8.6899995803833,2030600
2020-04-13,8.75,8.779999732971191,8.460000038146973,8.649999618530273,8.649999618530273,831300
2020-04-14,8.760000228881836,9.199999809265137,8.699999809265137,8.930000305175781,8.930000305175781,836000
2020-04-15,8.729999542236328,8.8100004196167,8.520000457763672,8.569999694824219,8.569999694824219,810300
2020-04-16,8.75,8.75,8.470000267028809,8.59000015258789,8.59000015258789,964300
2020-04-17,8.819999694824219,8.869999885559082,8.5,8.5,8.5,1132500
2020-04-20,8.5,8.59000015258789,8.241000175476074,8.279999732971191,8.279999732971191,757800
2020-04-21,8.220000267028809,8.220000267028809,7.599999904632568,8.109999656677246,8.109999656677246,1591600
2020-04-22,8.319999694824219,8.359999656677246,7.769999980926514,8.079999923706055,8.079999923706055,1146000
2020-04-23,8.079999923706055,8.279999732971191,8.010000228881836,8.100000381469727,8.100000381469727,731500
2020-04-24,8.180000305175781,8.180000305175781,7.789999961853027,7.949999809265137,7.949999809265137,547300
2020-04-27,8.069999694824219,8.354999542236328,8.010000228881836,8.270000457763672,8.270000457763672,769500
2020-04-28,8.479999542236328,8.510000228881836,8.1899995803833,8.319999694824219,8.319999694824219,1226900
2020-04-29,8.390000343322754,8.680000305175781,8.375,8.680000305175781,8.680000305175781,783500
2020-04-30,8.630000114440918,8.6899995803833,8.274999618530273,8.430000305175781,8.430000305175781,626700
2020-05-01,8.3100004196167,8.3100004196167,7.610000133514404,7.639999866485596,7.639999866485596,1258700
2020-05-04,7.619999885559082,7.679999828338623,7.21999979019165,7.369999885559082,7.369999885559082,1199600
2020-05-05,7.5,7.599999904632568,7.090000152587891,7.110000133514404,7.110000133514404,910500
2020-05-06,7.199999809265137,7.25,6.980000019073486,7.0,7.0,1306100
2020-05-07,7.039999961853027,7.380000114440918,7.03000020980835,7.230000019073486,7.230000019073486,1722500
2020-05-08,7.380000114440918,7.849999904632568,7.361999988555908,7.690000057220459,7.690000057220459,1244800
2020-05-11,7.760000228881836,9.0600004196167,7.760000228881836,9.0,9.0,2241100
2020-05-12,9.029999732971191,9.135000228881836,8.800000190734863,9.020000457763672,9.020000457763672,1451500
2020-05-13,9.239999771118164,9.270000457763672,8.119999885559082,8.220000267028809,8.220000267028809,1590000
2020-05-14,8.079999923706055,8.319999694824219,7.849999904632568,8.279999732971191,8.279999732971191,919700
2020-05-15,8.109999656677246,8.380000114440918,8.069999694824219,8.239999771118164,8.239999771118164,753700
2020-05-18,8.369999885559082,9.210000038146973,8.369999885559082,9.149999618530273,9.149999618530273,1269500
2020-05-19,9.300000190734863,9.640000343322754,9.239999771118164,9.460000038146973,9.460000038146973,1667800
2020-05-20,9.5,10.215999603271484,9.020000457763672,9.1899995803833,9.1899995803833,1670300
2020-05-21,9.0600004196167,9.079999923706055,8.550000190734863,8.569999694824219,8.569999694824219,996500
2020-05-22,8.5,8.5600004196167,7.820000171661377,7.860000133514404,7.860000133514404,3194400
2020-05-26,8.220000267028809,8.619999885559082,8.109999656677246,8.300000190734863,8.300000190734863,1073500
2020-05-27,8.449999809265137,8.734999656677246,8.140000343322754,8.229999542236328,8.229999542236328,1013600
2020-05-28,8.300000190734863,8.345000267028809,7.889999866485596,7.920000076293945,7.920000076293945,1250000
2020-05-29,8.039999961853027,8.15999984741211,7.770999908447266,8.149999618530273,8.149999618530273,763200
2020-06-01,8.149999618530273,8.59000015258789,8.130000114440918,8.539999961853027,8.539999961853027,592500
2020-06-02,8.59000015258789,8.59000015258789,8.109999656677246,8.180000305175781,8.180000305175781,1504800
2020-06-03,8.140000343322754,8.600000381469727,8.140000343322754,8.40999984741211,8.40999984741211,1611900
2020-06-04,9.0,9.039999961853027,7.690000057220459,8.09000015258789,8.09000015258789,3920500
2020-06-05,8.329999923706055,9.0600004196167,8.329999923706055,9.0,9.0,4057600
2020-06-08,9.029999732971191,9.390000343322754,8.819999694824219,8.880000114440918,8.880000114440918,2078600
2020-06-09,9.029999732971191,9.170000076293945,8.449999809265137,9.09000015258789,9.09000015258789,3875500
2020-06-10,9.380000114440918,9.984999656677246,9.149999618530273,9.4399995803833,9.4399995803833,5050700
2020-06-11,9.140000343322754,9.229999542236328,8.800000190734863,8.90999984741211,8.90999984741211,2416900
2020-06-12,9.390000343322754,9.40999984741211,8.899999618530273,9.170000076293945,9.170000076293945,3166000
2020-06-15,8.949999809265137,10.300000190734863,8.859999656677246,10.270000457763672,10.270000457763672,3086300
2020-06-16,10.770000457763672,10.970000267028809,10.279999732971191,10.760000228881836,10.760000228881836,3206700
2020-06-17,10.760000228881836,11.5,10.699999809265137,11.289999961853027,11.289999961853027,4419100
2020-06-18,11.199999809265137,11.5,11.109999656677246,11.199999809265137,11.199999809265137,1877200
2020-06-19,11.59000015258789,12.039999961853027,11.40999984741211,11.470000267028809,11.470000267028809,4468500
2020-06-22,11.600000381469727,11.619999885559082,10.720000267028809,11.279999732971191,11.279999732971191,2442200
2020-06-23,11.289999961853027,11.595000267028809,11.149999618530273,11.489999771118164,11.489999771118164,1125500
2020-06-24,11.260000228881836,11.335000038146973,10.8149995803833,10.9399995803833,10.9399995803833,1088200
2020-06-25,10.859999656677246,11.229999542236328,10.800000190734863,11.220000267028809,11.220000267028809,1593800
2020-06-26,11.180000305175781,11.180000305175781,10.479999542236328,10.510000228881836,10.510000228881836,1085600
2020-06-29,10.449999809265137,10.880000114440918,10.300000190734863,10.630000114440918,10.630000114440918,1012700
2020-06-30,10.630000114440918,10.729999542236328,10.510000228881836,10.640000343322754,10.640000343322754,1008900
2020-07-01,10.619999885559082,10.899999618530273,10.460000038146973,10.5,10.5,634100
2020-07-02,10.760000228881836,11.829999923706055,10.699999809265137,11.59000015258789,11.59000015258789,2176500
2020-07-06,12.180000305175781,12.515000343322754,11.859999656677246,12.5,12.5,2916400
2020-07-07,12.270000457763672,12.479999542236328,12.0,12.039999961853027,12.039999961853027,729500
2020-07-08,12.220000267028809,13.09000015258789,12.130000114440918,13.0,13.0,2198900
2020-07-09,13.229999542236328,13.4399995803833,12.75,13.270000457763672,13.270000457763672,1557000
2020-07-10,12.75,12.979999542236328,12.045000076293945,12.220000267028809,12.220000267028809,1532600
2020-07-13,12.510000228881836,12.88599967956543,12.180000305175781,12.199999809265137,12.199999809265137,1068600
2020-07-14,12.069999694824219,12.20300006866455,11.300000190734863,11.350000381469727,11.350000381469727,1230900
2020-07-15,11.545000076293945,11.710000038146973,11.270000457763672,11.399999618530273,11.399999618530273,857800
2020-07-16,10.979999542236328,11.050000190734863,10.600000381469727,10.729999542236328,10.729999542236328,1649500
2020-07-17,11.15999984741211,11.25,10.470000267028809,10.59000015258789,10.59000015258789,1117000
2020-07-20,10.819999694824219,11.399999618530273,10.715999603271484,11.069999694824219,11.069999694824219,1358600
2020-07-21,11.579999923706055,11.663000106811523,11.279999732971191,11.359999656677246,11.359999656677246,1045300
2020-07-22,11.100000381469727,11.14900016784668,10.399999618530273,10.640000343322754,10.640000343322754,2166500
2020-07-23,10.449999809265137,10.539999961853027,8.59000015258789,8.989999771118164,8.989999771118164,11950300
2020-07-24,9.25,9.260000228881836,8.279000282287598,8.600000381469727,8.600000381469727,3544800
2020-07-27,8.65999984741211,8.739999771118164,8.399999618530273,8.529999732971191,8.529999732971191,1499900
2020-07-28,8.649999618530273,9.100000381469727,8.619999885559082,8.699999809265137,8.699999809265137,1370600
2020-07-29,8.739999771118164,8.859999656677246,8.324999809265137,8.390000343322754,8.390000343322754,1591800
2020-07-30,8.5,8.5649995803833,8.149999618530273,8.1899995803833,8.1899995803833,1377600
2020-07-31,8.229999542236328,8.619999885559082,8.140000343322754,8.510000228881836,8.510000228881836,812100
2020-08-03,8.609999656677246,8.789999961853027,8.380000114440918,8.539999961853027,8.539999961853027,1538600
2020-08-04,8.510000228881836,8.800000190734863,8.470000267028809,8.520000457763672,8.520000457763672,1394800
2020-08-05,8.600000381469727,8.850000381469727,8.539999961853027,8.729999542236328,8.729999542236328,1114500
2020-08-06,8.770000457763672,8.829999923706055,8.319999694824219,8.729999542236328,8.729999542236328,1949200
2020-08-07,8.5,8.640000343322754,8.260000228881836,8.510000228881836,8.510000228881836,1111500
2020-08-10,8.605999946594238,8.654999732971191,8.449999809265137,8.529999732971191,8.529999732971191,901200
2020-08-11,8.699999809265137,8.96500015258789,8.390000343322754,8.640000343322754,8.640000343322754,1395600
2020-08-12,8.739999771118164,8.979999542236328,8.649999618530273,8.979999542236328,8.979999542236328,889200
2020-08-13,9.180000305175781,9.1899995803833,8.65999984741211,8.800000190734863,8.800000190734863,1170800
2020-08-14,8.8100004196167,8.8100004196167,8.40999984741211,8.430000305175781,8.430000305175781,1263000
2020-08-17,8.5,8.6899995803833,8.380000114440918,8.640000343322754,8.640000343322754,1464000
2020-08-18,8.699999809265137,8.979999542236328,8.149999618530273,8.180000305175781,8.180000305175781,2230900
2020-08-19,8.1899995803833,8.25,7.53000020980835,7.869999885559082,7.869999885559082,3123000
2020-08-20,7.619999885559082,8.789999961853027,7.619999885559082,8.699999809265137,8.699999809265137,5251900
2020-08-21,8.609999656677246,9.140000343322754,8.600000381469727,8.710000038146973,8.710000038146973,3242600
2020-08-24,8.930000305175781,8.960000038146973,8.300000190734863,8.510000228881836,8.510000228881836,2188300
2020-08-25,8.510000228881836,8.630000114440918,7.949999809265137,8.039999961853027,8.039999961853027,5447700
2020-08-26,8.0,8.34000015258789,7.909999847412109,7.940000057220459,7.940000057220459,1543000
2020-08-27,7.909999847412109,8.220000267028809,7.909999847412109,7.960000038146973,7.960000038146973,1554100
2020-08-28,7.96999979019165,8.0,7.739999771118164,7.769999980926514,7.769999980926514,1485100
2020-08-31,7.78000020980835,8.010000228881836,7.449999809265137,7.809999942779541,7.809999942779541,4158800
2020-09-01,7.800000190734863,7.800000190734863,7.53000020980835,7.730000019073486,7.730000019073486,3298000
2020-09-02,7.900000095367432,7.900000095367432,7.269999980926514,7.349999904632568,7.349999904632568,2884800
2020-09-03,7.239999771118164,7.260000228881836,6.627999782562256,6.96999979019165,6.96999979019165,2439900
2020-09-04,7.039999961853027,7.23799991607666,6.599999904632568,7.119999885559082,7.119999885559082,1613200
2020-09-08,6.849999904632568,7.489999771118164,6.849999904632568,7.28000020980835,7.28000020980835,1419800
2020-09-09,7.300000190734863,7.334000110626221,6.929999828338623,6.960000038146973,6.960000038146973,1204100
2020-09-10,6.980000019073486,7.002999782562256,6.449999809265137,6.539999961853027,6.539999961853027,1682900
2020-09-11,6.630000114440918,6.989999771118164,6.630000114440918,6.809999942779541,6.809999942779541,1002900
2020-09-14,7.099999904632568,8.024999618530273,6.960000038146973,7.860000133514404,7.860000133514404,2909900
2020-09-15,7.659999847412109,8.09000015258789,7.440000057220459,7.78000020980835,7.78000020980835,2550100
2020-09-16,7.670000076293945,7.730000019073486,6.949999809265137,7.010000228881836,7.010000228881836,4409600
2020-09-17,6.949999809265137,7.139999866485596,6.860000133514404,6.900000095367432,6.900000095367432,2142500
2020-09-18,6.96999979019165,6.989999771118164,6.679999828338623,6.840000152587891,6.840000152587891,1766500
2020-09-21,6.769999980926514,6.875999927520752,6.579999923706055,6.860000133514404,6.860000133514404,1381600
2020-09-22,6.71999979019165,7.03000020980835,6.639999866485596,6.769999980926514,6.769999980926514,1245400
2020-09-23,6.800000190734863,6.869999885559082,6.53000020980835,6.550000190734863,6.550000190734863,955900
2020-09-24,6.590000152587891,6.590000152587891,6.130000114440918,6.519999980926514,6.519999980926514,1652300
2020-09-25,6.369999885559082,6.480000019073486,6.349999904632568,6.409999847412109,6.409999847412109,620500
2020-09-28,6.5,6.590000152587891,6.199999809265137,6.25,6.25,1616000
2020-09-29,6.239999771118164,6.28000020980835,6.039999961853027,6.099999904632568,6.099999904632568,1391900
2020-09-30,6.119999885559082,6.9019999504089355,6.119999885559082,6.849999904632568,6.849999904632568,3024300
2020-10-01,6.78000020980835,6.840000152587891,6.465000152587891,6.539999961853027,6.539999961853027,1597400
2020-10-02,6.320000171661377,6.860000133514404,6.300000190734863,6.559999942779541,6.559999942779541,1289300
2020-10-05,6.559999942779541,6.739999771118164,6.400000095367432,6.679999828338623,6.679999828338623,1145500
2020-10-06,6.599999904632568,6.920000076293945,6.53000020980835,6.760000228881836,6.760000228881836,1029100
2020-10-07,6.800000190734863,6.889999866485596,6.630000114440918,6.739999771118164,6.739999771118164,799200
2020-10-08,6.840000152587891,6.889999866485596,6.659999847412109,6.78000020980835,6.78000020980835,588500
2020-10-09,6.75,6.980000019073486,6.671000003814697,6.96999979019165,6.96999979019165,761800
2020-10-12,7.079999923706055,7.329999923706055,7.0,7.170000076293945,7.170000076293945,1609200
2020-10-13,7.190000057220459,7.199999809265137,6.920000076293945,7.039999961853027,7.039999961853027,896000
2020-10-14,7.119999885559082,7.139999866485596,6.664999961853027,6.900000095367432,6.900000095367432,1177000
2020-10-15,6.760000228881836,6.869999885559082,6.644999980926514,6.679999828338623,6.679999828338623,547600
2020-10-16,6.849999904632568,7.159999847412109,6.769999980926514,7.110000133514404,7.110000133514404,1499300
2020-10-19,7.070000171661377,7.389999866485596,6.960000038146973,7.179999828338623,7.179999828338623,614000
2020-10-20,7.230000019073486,7.599999904632568,7.230000019073486,7.5,7.5,805100
2020-10-21,7.539999961853027,7.789999961853027,7.440000057220459,7.570000171661377,7.570000171661377,751100
2020-10-22,7.599999904632568,7.864999771118164,7.46999979019165,7.849999904632568,7.849999904632568,771600
2020-10-23,7.889999866485596,7.889999866485596,7.659999847412109,7.820000171661377,7.820000171661377,365800
2020-10-26,7.71999979019165,7.7769999504089355,7.400000095367432,7.5,7.5,573100
2020-10-27,7.400000095367432,7.730000019073486,7.300000190734863,7.639999866485596,7.639999866485596,531200
2020-10-28,7.440000057220459,7.769999980926514,7.340000152587891,7.659999847412109,7.659999847412109,736800
2020-10-29,7.769999980926514,8.75,7.659999847412109,8.59000015258789,8.59000015258789,2673300
2020-10-30,8.510000228881836,8.699999809265137,8.130000114440918,8.239999771118164,8.239999771118164,1100600
2020-11-02,8.670000076293945,8.670000076293945,7.329999923706055,7.409999847412109,7.409999847412109,2945300
2020-11-03,7.019999980926514,7.224999904632568,6.449999809265137,7.130000114440918,7.130000114440918,3000100
2020-11-04,7.210000038146973,7.480000019073486,6.880000114440918,6.949999809265137,6.949999809265137,1654200
2020-11-05,7.179999828338623,7.239999771118164,6.679999828338623,7.119999885559082,7.119999885559082,2584200
2020-11-06,7.170000076293945,7.940000057220459,6.949999809265137,7.730000019073486,7.730000019073486,1730900
2020-11-09,8.0,8.239999771118164,7.519999980926514,8.0,8.0,1427400
2020-11-10,7.920000076293945,8.0,7.460000038146973,7.5,7.5,1457900
2020-11-11,7.610000133514404,7.8429999351501465,7.460000038146973,7.699999809265137,7.699999809265137,624800
2020-11-12,7.710000038146973,8.0,7.579999923706055,7.710000038146973,7.710000038146973,786100
2020-11-13,7.809999942779541,8.170000076293945,7.78000020980835,8.079999923706055,8.079999923706055,821600
2020-11-16,8.270000457763672,8.270000457763672,7.710000038146973,7.809999942779541,7.809999942779541,996800
2020-11-17,7.789999961853027,8.039999961853027,7.679999828338623,7.849999904632568,7.849999904632568,459800
2020-11-18,7.840000152587891,8.039999961853027,7.650000095367432,7.679999828338623,7.679999828338623,1033800
2020-11-19,7.679999828338623,7.929999828338623,7.665999889373779,7.820000171661377,7.820000171661377,438900
2020-11-20,7.900000095367432,8.390000343322754,7.800000190734863,7.889999866485596,7.889999866485596,1203200
2020-11-23,8.0,8.390000343322754,7.909999847412109,8.300000190734863,8.300000190734863,2127100
2020-11-24,8.229999542236328,8.329999923706055,7.164999961853027,7.269999980926514,7.269999980926514,4967400
2020-11-25,7.400000095367432,7.409999847412109,6.96999979019165,7.059999942779541,7.059999942779541,2752800
2020-11-27,7.150000095367432,7.579999923706055,7.099999904632568,7.420000076293945,7.420000076293945,1650100
2020-11-30,7.570000171661377,7.599999904632568,7.190000057220459,7.46999979019165,7.46999979019165,3955900
2020-12-01,7.449999809265137,7.5,7.239999771118164,7.269999980926514,7.269999980926514,1084900
2020-12-02,7.210000038146973,7.329999923706055,7.050000190734863,7.269999980926514,7.269999980926514,654800
2020-12-03,7.28000020980835,7.317999839782715,7.070000171661377,7.079999923706055,7.079999923706055,1168800
2020-12-04,7.199999809265137,7.199999809265137,6.53000020980835,6.579999923706055,6.579999923706055,4476100
2020-12-07,6.659999847412109,6.8379998207092285,6.630000114440918,6.71999979019165,6.71999979019165,1951800
2020-12-08,6.75,6.829999923706055,6.599999904632568,6.699999809265137,6.699999809265137,1005700
2020-12-09,6.679999828338623,6.739999771118164,6.349999904632568,6.510000228881836,6.510000228881836,2119600
2020-12-10,6.449999809265137,6.489999771118164,6.300000190734863,6.460000038146973,6.460000038146973,1130400
2020-12-11,6.510000228881836,7.130000114440918,6.510000228881836,6.880000114440918,6.880000114440918,2655600
2020-12-14,7.019999980926514,7.199999809265137,6.630000114440918,6.670000076293945,6.670000076293945,1514900
2020-12-15,6.699999809265137,6.75,6.519999980926514,6.639999866485596,6.639999866485596,1617900
2020-12-16,6.590000152587891,6.650000095367432,6.519999980926514,6.599999904632568,6.599999904632568,1017700
2020-12-17,6.619999885559082,6.670000076293945,6.480000019073486,6.519999980926514,6.519999980926514,1908900
2020-12-18,6.550000190734863,6.659999847412109,6.510000228881836,6.539999961853027,6.539999961853027,1468400
2020-12-21,6.510000228881836,6.53000020980835,6.28000020980835,6.300000190734863,6.300000190734863,1643400
2020-12-22,6.449999809265137,6.590000152587891,6.340000152587891,6.440000057220459,6.440000057220459,1503800
2020-12-23,6.489999771118164,6.789999961853027,6.429999828338623,6.739999771118164,6.739999771118164,2096400
2020-12-24,6.760000228881836,6.829999923706055,6.570000171661377,6.590000152587891,6.590000152587891,883100
2020-12-28,6.539999961853027,6.579999923706055,6.170000076293945,6.210000038146973,6.210000038146973,3069800
2020-12-29,6.300000190734863,6.420000076293945,6.114999771118164,6.190000057220459,6.190000057220459,2298000
2020-12-30,6.21999979019165,6.760000228881836,6.21999979019165,6.739999771118164,6.739999771118164,3646100
