Date,Open,High,Low,Close,Adj Close,Volume
2020-12-08,10.5,10.5,10.21560001373291,10.399999618530273,10.399999618530273,1839
2020-12-09,10.010000228881836,10.010000228881836,9.960000038146973,9.960000038146973,9.960000038146973,1342
2020-12-10,10.100000381469727,10.100000381469727,9.749899864196777,9.899999618530273,9.899999618530273,40218
2020-12-11,9.878999710083008,9.920000076293945,9.850000381469727,9.918999671936035,9.918999671936035,24838
2020-12-14,10.0,10.061200141906738,9.859999656677246,10.0,10.0,31340
2020-12-15,10.0,10.075699806213379,9.899999618530273,10.024999618530273,10.024999618530273,129174
2020-12-16,9.920000076293945,10.100000381469727,9.899999618530273,10.0,10.0,265865
2020-12-17,10.010000228881836,10.020000457763672,10.0,10.0,10.0,238895
2020-12-18,10.09000015258789,10.09000015258789,10.0,10.0,10.0,3265
2020-12-21,9.989999771118164,10.109999656677246,9.989999771118164,10.0,10.0,81235
2020-12-22,10.050000190734863,10.055000305175781,10.0,10.050000190734863,10.050000190734863,69778
2020-12-23,10.100000381469727,10.119999885559082,10.0,10.050000190734863,10.050000190734863,17041
2020-12-24,10.100000381469727,10.279999732971191,10.0,10.100000381469727,10.100000381469727,41219
2020-12-28,10.380000114440918,10.399999618530273,10.050000190734863,10.199999809265137,10.199999809265137,122501
2020-12-29,10.199999809265137,10.25,10.09000015258789,10.25,10.25,64936
2020-12-30,10.130000114440918,10.425000190734863,10.130000114440918,10.140000343322754,10.140000343322754,268383
