Date,Open,High,Low,Close,Adj Close,Volume
2017-10-27,17.0,17.290000915527344,16.270000457763672,16.799999237060547,15.998028755187988,2722100
2017-10-30,16.700000762939453,17.989999771118164,16.579999923706055,17.100000381469727,16.283706665039062,412600
2017-10-31,17.18000030517578,17.575000762939453,17.00200080871582,17.15999984741211,16.340845108032227,160100
2017-11-01,17.260000228881836,17.575000762939453,17.010000228881836,17.40999984741211,16.57891082763672,51700
2017-11-02,17.649999618530273,18.5,17.434999465942383,17.989999771118164,17.131221771240234,138100
2017-11-03,19.15999984741211,19.15999984741211,17.649999618530273,17.770000457763672,16.921728134155273,50100
2017-11-06,18.6200008392334,18.75,17.649999618530273,18.059999465942383,17.1978816986084,65500
2017-11-07,18.0,18.110000610351562,17.649999618530273,17.850000381469727,16.99791145324707,78500
2017-11-08,17.75,17.989999771118164,17.700000762939453,17.940000534057617,17.0836124420166,35100
2017-11-09,17.829999923706055,17.829999923706055,17.549999237060547,17.649999618530273,16.807453155517578,52500
2017-11-10,17.600000381469727,17.700000762939453,17.5,17.510000228881836,16.674137115478516,77700
2017-11-13,17.5,17.649999618530273,17.25,17.56999969482422,16.731273651123047,92100
2017-11-14,17.309999465942383,17.739999771118164,17.309999465942383,17.690000534057617,16.845544815063477,53200
2017-11-15,17.40999984741211,17.719999313354492,17.309999465942383,17.549999237060547,16.71222686767578,64800
2017-11-16,17.549999237060547,17.739999771118164,17.360000610351562,17.530000686645508,16.69318389892578,31600
2017-11-17,17.420000076293945,17.68000030517578,17.420000076293945,17.6299991607666,16.78840446472168,39900
2017-11-20,17.649999618530273,17.68000030517578,17.441999435424805,17.68000030517578,16.836021423339844,36000
2017-11-21,17.68000030517578,17.899999618530273,17.450000762939453,17.540000915527344,16.70270347595215,113300
2017-11-22,17.450000762939453,17.847000122070312,17.450000762939453,17.649999618530273,16.807453155517578,50200
2017-11-24,17.510000228881836,17.8799991607666,17.510000228881836,17.770000457763672,16.921728134155273,12500
2017-11-27,17.850000381469727,17.850000381469727,17.65999984741211,17.809999465942383,16.95981788635254,48600
2017-11-28,17.700000762939453,17.850000381469727,17.649999618530273,17.75,16.902681350708008,42200
2017-11-29,17.649999618530273,17.979999542236328,17.649999618530273,17.81999969482422,16.96933937072754,183100
2017-11-30,17.920000076293945,18.649999618530273,17.75,18.329999923706055,17.454994201660156,119100
2017-12-01,18.5,18.908000946044922,18.110000610351562,18.75,17.85494613647461,95100
2017-12-04,18.899999618530273,20.350000381469727,18.44099998474121,19.010000228881836,18.10253143310547,158900
2017-12-05,19.06999969482422,19.6200008392334,19.06999969482422,19.309999465942383,18.38821029663086,187400
2017-12-06,19.219999313354492,19.799999237060547,18.979999542236328,19.6299991607666,18.692935943603516,76500
2017-12-07,19.739999771118164,20.200000762939453,19.05500030517578,20.0,19.04527473449707,247100
2017-12-08,20.25,20.788999557495117,19.6200008392334,20.06999969482422,19.1119327545166,307000
2017-12-11,20.059999465942383,21.969999313354492,18.510000228881836,20.950000762939453,19.949926376342773,154900
2017-12-12,21.0,21.100000381469727,20.610000610351562,20.969999313354492,19.968969345092773,81600
2017-12-13,20.969999313354492,20.969999313354492,20.15999984741211,20.649999618530273,19.66424560546875,91800
2017-12-14,20.600000381469727,21.0,20.600000381469727,20.790000915527344,19.845617294311523,124100
2017-12-15,20.5,20.649999618530273,20.09000015258789,20.149999618530273,19.234683990478516,924300
2017-12-18,20.209999084472656,20.299999237060547,19.729999542236328,19.809999465942383,18.910131454467773,99600
2017-12-19,19.790000915527344,20.049999237060547,19.790000915527344,19.950000762939453,19.043771743774414,69500
2017-12-20,19.989999771118164,20.474000930786133,19.81999969482422,20.139999389648438,19.225141525268555,55000
2017-12-21,20.100000381469727,20.399999618530273,20.059999465942383,20.270000457763672,19.34923553466797,89200
2017-12-22,20.25,20.25,19.31999969482422,19.780000686645508,18.881494522094727,490900
2017-12-26,19.739999771118164,20.0,19.739999771118164,19.850000381469727,18.94831657409668,44800
2017-12-27,19.729999542236328,20.0,19.690000534057617,19.75,18.85285758972168,46700
2017-12-28,19.700000762939453,20.0,19.3799991607666,19.75,18.85285758972168,63200
2017-12-29,19.75,19.84000015258789,19.6299991607666,19.68000030517578,18.786039352416992,18500
2018-01-02,19.770000457763672,20.06999969482422,19.600000381469727,19.959999084472656,19.053316116333008,84400
2018-01-03,19.850000381469727,19.950000762939453,19.549999237060547,19.6200008392334,18.728763580322266,42100
2018-01-04,19.6299991607666,19.861000061035156,19.600000381469727,19.639999389648438,18.747854232788086,27000
2018-01-05,19.66900062561035,19.850000381469727,19.600000381469727,19.68000030517578,18.786039352416992,37000
2018-01-08,19.700000762939453,20.420000076293945,19.68000030517578,20.31999969482422,19.396961212158203,51300
2018-01-09,20.309999465942383,20.309999465942383,19.760000228881836,19.760000228881836,18.862403869628906,41200
2018-01-10,19.709999084472656,20.165000915527344,19.709999084472656,20.010000228881836,19.101045608520508,57600
2018-01-11,19.969999313354492,20.225000381469727,19.8700008392334,20.030000686645508,19.120136260986328,49500
2018-01-12,20.020000457763672,21.200000762939453,19.920000076293945,21.139999389648438,20.17971420288086,230100
2018-01-16,21.280000686645508,21.68000030517578,20.670000076293945,21.450000762939453,20.475631713867188,68900
2018-01-17,21.510000228881836,21.790000915527344,21.010000228881836,21.25,20.284719467163086,35800
2018-01-18,21.299999237060547,21.600000381469727,20.8799991607666,21.34000015258789,20.370630264282227,33800
2018-01-19,21.309999465942383,21.8700008392334,20.385000228881836,21.68000030517578,20.695186614990234,97900
2018-01-22,21.96500015258789,22.0,21.46500015258789,21.700000762939453,20.714275360107422,17900
2018-01-23,21.75,21.99799919128418,21.469999313354492,21.84000015258789,20.847919464111328,21600
2018-01-24,21.770000457763672,21.959999084472656,20.760000228881836,20.899999618530273,19.95062255859375,50600
2018-01-25,21.3700008392334,21.799999237060547,20.450000762939453,20.6299991607666,19.692882537841797,31500
2018-01-26,20.6200008392334,20.790000915527344,20.049999237060547,20.43000030517578,19.501968383789062,11800
2018-01-29,20.450000762939453,21.25,20.450000762939453,21.06999969482422,20.112897872924805,15900
2018-01-30,20.899999618530273,21.1299991607666,20.110000610351562,20.40999984741211,19.48287582397461,26500
2018-01-31,20.5,20.610000610351562,20.280000686645508,20.299999237060547,19.37786865234375,11700
2018-02-01,20.5,21.450000762939453,20.399999618530273,21.40999984741211,20.437450408935547,33800
2018-02-02,21.260000228881836,21.6299991607666,20.34000015258789,20.600000381469727,19.66424560546875,41200
2018-02-05,20.315000534057617,20.6299991607666,20.020000457763672,20.040000915527344,19.129682540893555,48100
2018-02-06,19.90999984741211,20.489999771118164,19.90999984741211,20.399999618530273,19.473329544067383,22900
2018-02-07,20.34000015258789,20.65999984741211,20.094999313354492,20.360000610351562,19.43514633178711,23000
2018-02-08,20.360000610351562,20.6200008392334,19.989999771118164,19.989999771118164,19.081954956054688,76200
2018-02-09,20.579999923706055,20.579999923706055,19.989999771118164,20.020000457763672,19.110591888427734,33300
2018-02-12,20.329999923706055,20.538999557495117,19.989999771118164,20.100000381469727,19.18695640563965,21100
2018-02-13,19.989999771118164,20.1299991607666,19.989999771118164,20.06999969482422,19.158321380615234,31700
2018-02-14,19.989999771118164,20.5,19.989999771118164,20.5,19.568788528442383,27300
2018-02-15,20.579999923706055,20.579999923706055,20.270000457763672,20.549999237060547,19.616512298583984,12300
2018-02-16,20.360000610351562,20.90999984741211,20.360000610351562,20.850000381469727,19.902891159057617,14800
2018-02-20,20.610000610351562,20.909000396728516,20.204999923706055,20.65999984741211,19.721525192260742,14700
2018-02-21,20.670000076293945,20.940000534057617,20.549999237060547,20.790000915527344,19.845617294311523,10300
2018-02-22,20.889999389648438,20.889999389648438,20.170000076293945,20.3799991607666,19.454235076904297,16100
2018-02-23,20.489999771118164,20.690000534057617,20.280000686645508,20.639999389648438,19.702428817749023,10100
2018-02-26,20.6200008392334,20.770000457763672,20.459999084472656,20.739999771118164,19.797887802124023,10000
2018-02-27,20.639999389648438,20.65999984741211,20.43000030517578,20.510000228881836,19.578332901000977,10000
2018-02-28,20.59000015258789,20.84000015258789,20.450000762939453,20.5,19.568788528442383,17600
2018-03-01,20.6200008392334,21.5,20.389999389648438,21.270000457763672,20.30381202697754,23800
2018-03-02,21.110000610351562,21.549999237060547,20.610000610351562,21.549999237060547,20.571088790893555,33000
2018-03-05,21.3799991607666,22.950000762939453,21.30299949645996,22.65999984741211,21.63066864013672,112100
2018-03-06,22.729999542236328,22.899999618530273,22.25,22.459999084472656,21.439754486083984,99300
2018-03-07,22.450000762939453,22.75,22.049999237060547,22.280000686645508,21.267932891845703,79800
2018-03-08,22.360000610351562,22.56999969482422,22.229999542236328,22.299999237060547,21.287023544311523,30400
2018-03-09,22.469999313354492,22.600000381469727,22.110000610351562,22.489999771118164,21.468393325805664,173400
2018-03-12,22.479999542236328,22.549999237060547,22.049999237060547,22.139999389648438,21.134294509887695,45800
2018-03-13,22.149999618530273,22.48200035095215,21.899999618530273,22.229999542236328,21.220203399658203,74700
2018-03-14,22.139999389648438,22.59000015258789,21.87299919128418,22.25,21.296772003173828,66500
2018-03-15,22.299999237060547,22.700000762939453,21.972000122070312,22.56999969482422,21.603065490722656,61200
2018-03-16,22.549999237060547,22.700000762939453,22.25,22.610000610351562,21.641353607177734,78000
2018-03-19,22.549999237060547,22.700000762939453,22.170000076293945,22.549999237060547,21.583921432495117,72300
2018-03-20,22.59000015258789,22.700000762939453,22.239999771118164,22.40999984741211,21.449922561645508,62200
2018-03-21,22.420000076293945,22.739999771118164,22.40999984741211,22.6299991607666,21.660497665405273,45800
2018-03-22,22.469999313354492,23.038999557495117,22.084999084472656,22.729999542236328,21.75621223449707,344000
2018-03-23,22.81999969482422,23.764999389648438,22.3700008392334,22.399999618530273,21.440351486206055,71300
2018-03-26,22.579999923706055,23.260000228881836,22.309999465942383,22.989999771118164,22.00507164001465,43500
2018-03-27,22.969999313354492,23.149999618530273,22.350000381469727,22.68000030517578,21.708356857299805,26500
2018-03-28,22.6200008392334,22.719999313354492,22.100000381469727,22.3799991607666,21.421205520629883,18700
2018-03-29,22.075000762939453,22.600000381469727,21.5,21.5,20.578908920288086,39000
2018-04-02,21.530000686645508,22.09000015258789,21.530000686645508,21.739999771118164,20.80862808227539,36300
2018-04-03,21.850000381469727,21.899999618530273,21.31999969482422,21.479999542236328,20.559764862060547,65800
2018-04-04,21.280000686645508,21.700000762939453,21.100000381469727,21.110000610351562,20.20561408996582,19400
2018-04-05,21.18000030517578,21.25,20.670000076293945,20.799999237060547,19.90889549255371,17900
2018-04-06,20.75,21.84000015258789,20.75,21.389999389648438,20.473615646362305,58700
2018-04-09,21.579999923706055,21.579999923706055,20.190000534057617,20.280000686645508,19.411176681518555,86300
2018-04-10,20.520000457763672,20.520000457763672,19.969999313354492,20.209999084472656,19.344173431396484,33700
2018-04-11,20.079999923706055,20.6299991607666,20.079999923706055,20.5,19.621747970581055,17000
2018-04-12,20.520000457763672,21.170000076293945,20.520000457763672,20.920000076293945,20.023759841918945,23000
2018-04-13,20.979999542236328,20.979999542236328,20.229999542236328,20.5,19.621747970581055,20800
2018-04-16,20.5,21.125,20.5,20.639999389648438,19.755752563476562,30300
2018-04-17,20.760000228881836,21.049999237060547,20.489999771118164,20.84000015258789,19.94718360900879,22300
2018-04-18,20.90999984741211,21.56999969482422,20.90999984741211,21.399999618530273,20.483186721801758,14900
2018-04-19,21.290000915527344,21.399999618530273,20.940000534057617,21.079999923706055,20.17690086364746,17900
2018-04-20,20.959999084472656,21.43000030517578,20.549999237060547,20.739999771118164,19.85146713256836,14900
2018-04-23,20.8700008392334,21.183000564575195,20.559999465942383,20.889999389648438,19.995038986206055,10600
2018-04-24,20.979999542236328,21.200000762939453,20.600000381469727,20.989999771118164,20.09075927734375,13900
2018-04-25,21.0,21.559999465942383,20.75,21.43000030517578,20.511905670166016,40500
2018-04-26,21.450000762939453,21.56999969482422,21.110000610351562,21.34000015258789,20.42576026916504,9900
2018-04-27,21.3799991607666,21.475000381469727,20.549999237060547,20.875,19.980684280395508,41400
2018-04-30,21.139999389648438,21.549999237060547,20.920000076293945,21.3799991607666,20.464048385620117,32700
2018-05-01,21.540000915527344,22.510000228881836,21.15999984741211,22.25,21.296772003173828,165400
2018-05-02,22.299999237060547,23.399999618530273,22.219999313354492,23.200000762939453,22.206079483032227,25800
2018-05-03,23.270000457763672,23.270000457763672,21.940000534057617,22.059999465942383,21.114917755126953,159400
2018-05-04,22.059999465942383,23.110000610351562,22.049999237060547,22.920000076293945,21.938072204589844,15400
2018-05-07,23.110000610351562,23.149999618530273,22.920000076293945,23.030000686645508,22.043359756469727,28700
2018-05-08,22.200000762939453,23.149999618530273,22.200000762939453,22.950000762939453,21.96678924560547,49800
2018-05-09,23.079999923706055,23.100000381469727,22.42099952697754,22.940000534057617,21.957218170166016,51400
2018-05-10,23.0,23.15999984741211,22.81999969482422,23.0,22.0146427154541,65600
2018-05-11,23.059999465942383,23.059999465942383,22.809999465942383,22.969999313354492,21.985929489135742,44400
2018-05-14,23.09000015258789,23.299999237060547,23.0,23.15999984741211,22.16779327392578,55900
2018-05-15,23.18000030517578,23.670000076293945,23.1299991607666,23.639999389648438,22.627225875854492,40200
2018-05-16,23.649999618530273,24.739999771118164,23.649999618530273,24.469999313354492,23.421667098999023,56400
2018-05-17,24.440000534057617,25.325000762939453,24.25,25.18000030517578,24.10124969482422,81100
2018-05-18,25.25,25.364999771118164,24.8799991607666,24.989999771118164,23.91939353942871,89900
2018-05-21,25.139999389648438,25.270000457763672,24.670000076293945,24.989999771118164,23.91939353942871,74700
2018-05-22,24.920000076293945,25.139999389648438,24.75,24.979999542236328,23.909822463989258,65800
2018-05-23,25.0,25.719999313354492,24.8799991607666,25.190000534057617,24.110822677612305,61500
2018-05-24,25.290000915527344,26.040000915527344,24.68000030517578,25.799999237060547,24.69468879699707,42300
2018-05-25,25.8700008392334,26.469999313354492,25.844999313354492,26.399999618530273,25.268985748291016,49600
2018-05-29,26.299999237060547,26.420000076293945,25.707000732421875,25.940000534057617,24.828691482543945,53400
2018-05-30,26.200000762939453,26.34000015258789,25.809999465942383,25.979999542236328,24.866981506347656,85100
2018-05-31,26.059999465942383,26.18000030517578,25.459999084472656,25.510000228881836,24.417112350463867,183900
2018-06-01,25.6299991607666,26.299999237060547,25.530000686645508,26.260000228881836,25.13498306274414,107200
2018-06-04,26.3700008392334,27.829999923706055,26.3700008392334,27.3700008392334,26.197425842285156,151200
2018-06-05,27.399999618530273,27.90999984741211,27.170000076293945,27.68000030517578,26.4941463470459,89500
2018-06-06,27.81999969482422,28.989999771118164,27.190000534057617,27.950000762939453,26.752578735351562,112500
2018-06-07,27.889999389648438,28.30500030517578,27.600000381469727,27.799999237060547,26.609006881713867,89900
2018-06-08,27.8700008392334,28.299999237060547,27.450000762939453,27.950000762939453,26.752578735351562,110700
2018-06-11,28.06999969482422,28.299999237060547,27.773000717163086,28.049999237060547,26.848295211791992,210900
2018-06-12,28.190000534057617,29.149999618530273,27.850000381469727,28.600000381469727,27.37473487854004,165300
2018-06-13,28.510000228881836,28.743999481201172,27.850000381469727,27.8700008392334,26.676006317138672,132400
2018-06-14,28.040000915527344,28.209999084472656,27.454999923706055,27.8799991607666,26.743148803710938,167400
2018-06-15,27.860000610351562,28.200000762939453,27.780000686645508,27.81999969482422,26.68560218811035,213100
2018-06-18,27.799999237060547,28.440000534057617,27.795000076293945,28.34000015258789,27.184396743774414,158500
2018-06-19,28.200000762939453,28.75,28.200000762939453,28.450000762939453,27.28990936279297,138100
2018-06-20,28.649999618530273,29.059999465942383,28.530000686645508,28.850000381469727,27.673603057861328,132600
2018-06-21,28.799999237060547,28.84000015258789,28.200000762939453,28.239999771118164,27.088470458984375,184600
2018-06-22,28.360000610351562,28.850000381469727,27.81999969482422,28.219999313354492,27.06928825378418,1286700
2018-06-25,28.030000686645508,28.825000762939453,27.649999618530273,28.75,27.57767677307129,98300
2018-06-26,28.780000686645508,28.799999237060547,28.149999618530273,28.31999969482422,27.16521453857422,89300
2018-06-27,28.3700008392334,28.84000015258789,27.530000686645508,27.600000381469727,26.474571228027344,188300
2018-06-28,27.75,28.309999465942383,27.18000030517578,28.280000686645508,27.12684440612793,86800
2018-06-29,28.360000610351562,28.665000915527344,28.200000762939453,28.530000686645508,27.366649627685547,89200
2018-07-02,28.40999984741211,28.5,27.760000228881836,28.260000228881836,27.10765838623047,95000
2018-07-03,28.079999923706055,28.8700008392334,27.790000915527344,27.940000534057617,26.800703048706055,73400
2018-07-05,28.170000076293945,28.489999771118164,28.040000915527344,28.459999084472656,27.29949951171875,67800
2018-07-06,28.43000030517578,28.829999923706055,28.43000030517578,28.709999084472656,27.539304733276367,61500
2018-07-09,28.770000457763672,28.93000030517578,28.520000457763672,28.829999923706055,27.654415130615234,86900
2018-07-10,28.829999923706055,28.93000030517578,28.145000457763672,28.280000686645508,27.12684440612793,40900
2018-07-11,27.75,28.239999771118164,27.6299991607666,27.670000076293945,26.54171371459961,99500
2018-07-12,27.709999084472656,27.709999084472656,26.709999084472656,27.219999313354492,26.110065460205078,77100
2018-07-13,27.170000076293945,27.290000915527344,26.8700008392334,27.049999237060547,25.946990966796875,40500
2018-07-16,27.100000381469727,27.450000762939453,26.719999313354492,27.43000030517578,26.311500549316406,61100
2018-07-17,27.450000762939453,27.709999084472656,27.270000457763672,27.389999389648438,26.27313232421875,52400
2018-07-18,27.309999465942383,27.549999237060547,27.225000381469727,27.469999313354492,26.349868774414062,34200
2018-07-19,27.420000076293945,27.559999465942383,27.260000228881836,27.5,26.37864875793457,25300
2018-07-20,27.510000228881836,28.09000015258789,27.510000228881836,27.84000015258789,26.704788208007812,32700
2018-07-23,27.850000381469727,28.299999237060547,27.610000610351562,28.15999984741211,27.01173210144043,22600
2018-07-24,28.309999465942383,28.68000030517578,28.110000610351562,28.549999237060547,27.38582992553711,56900
2018-07-25,28.31999969482422,28.709999084472656,28.149999618530273,28.559999465942383,27.39542579650879,45100
2018-07-26,28.479999542236328,28.889999389648438,28.31999969482422,28.600000381469727,27.433795928955078,34900
2018-07-27,28.649999618530273,28.850000381469727,26.75,26.799999237060547,25.707189559936523,79600
2018-07-30,26.700000762939453,27.170000076293945,26.290000915527344,26.450000762939453,25.371461868286133,39100
2018-07-31,25.520000457763672,26.299999237060547,22.299999237060547,24.510000228881836,23.510568618774414,314800
2018-08-01,24.389999389648438,25.440000534057617,24.389999389648438,25.100000381469727,24.07651138305664,102500
2018-08-02,24.889999389648438,25.6200008392334,24.889999389648438,25.479999542236328,24.441015243530273,39900
2018-08-03,25.450000762939453,26.079999923706055,25.18000030517578,26.010000228881836,24.949405670166016,74500
2018-08-06,26.010000228881836,26.200000762939453,25.549999237060547,25.799999237060547,24.747966766357422,50600
2018-08-07,26.010000228881836,26.010000228881836,24.56999969482422,25.190000534057617,24.162841796875,86800
2018-08-08,25.190000534057617,25.270000457763672,25.010000228881836,25.149999618530273,24.124473571777344,34800
2018-08-09,25.110000610351562,25.3700008392334,25.110000610351562,25.360000610351562,24.325910568237305,20100
2018-08-10,25.209999084472656,25.790000915527344,25.135000228881836,25.600000381469727,24.556121826171875,66000
2018-08-13,25.649999618530273,25.809999465942383,25.360000610351562,25.719999313354492,24.67123031616211,24800
2018-08-14,25.860000610351562,26.520000457763672,25.700000762939453,26.170000076293945,25.10287857055664,85500
2018-08-15,26.100000381469727,26.239999771118164,25.690000534057617,25.760000228881836,24.709598541259766,33300
2018-08-16,25.959999084472656,26.399999618530273,25.959999084472656,26.34000015258789,25.265949249267578,26500
2018-08-17,26.25,26.940000534057617,26.25,26.770000457763672,25.678417205810547,31400
2018-08-20,26.8799991607666,27.0,26.200000762939453,26.530000686645508,25.44820213317871,20100
2018-08-21,26.530000686645508,26.989999771118164,26.469999313354492,26.65999984741211,25.572900772094727,15000
2018-08-22,26.610000610351562,26.790000915527344,26.43000030517578,26.639999389648438,25.5537166595459,24100
2018-08-23,26.549999237060547,26.809999465942383,26.540000915527344,26.6200008392334,25.534534454345703,25500
2018-08-24,26.649999618530273,26.940000534057617,25.90999984741211,26.56999969482422,25.486568450927734,51900
2018-08-27,26.940000534057617,26.940000534057617,25.979999542236328,26.280000686645508,25.208393096923828,26400
2018-08-28,26.360000610351562,26.420000076293945,25.899999618530273,26.059999465942383,24.997364044189453,19700
2018-08-29,26.079999923706055,26.079999923706055,25.559999465942383,25.760000228881836,24.709598541259766,37200
2018-08-30,25.799999237060547,26.15999984741211,25.559999465942383,25.8799991607666,24.824705123901367,35700
2018-08-31,25.780000686645508,26.5,25.780000686645508,26.110000610351562,25.045326232910156,25100
2018-09-04,26.010000228881836,26.229999542236328,25.774999618530273,26.170000076293945,25.10287857055664,54900
2018-09-05,26.200000762939453,27.139999389648438,26.0,26.8799991607666,25.7839298248291,58100
2018-09-06,26.899999618530273,26.899999618530273,26.59000015258789,26.719999313354492,25.630451202392578,16400
2018-09-07,26.559999465942383,27.3700008392334,26.559999465942383,27.149999618530273,26.042919158935547,43000
2018-09-10,27.25,28.56999969482422,26.25200080871582,27.709999084472656,26.5800838470459,75200
2018-09-11,27.68000030517578,28.309999465942383,27.3799991607666,27.920000076293945,26.781517028808594,52400
2018-09-12,27.75,27.770000457763672,27.420000076293945,27.65999984741211,26.532123565673828,56900
2018-09-13,27.75,27.979999542236328,27.40999984741211,27.770000457763672,26.69554328918457,42400
2018-09-14,27.81999969482422,28.43000030517578,27.545000076293945,27.719999313354492,26.647476196289062,50000
2018-09-17,27.84000015258789,28.209999084472656,27.114999771118164,28.170000076293945,27.080068588256836,59300
2018-09-18,28.229999542236328,28.229999542236328,27.639999389648438,27.959999084472656,26.878192901611328,77900
2018-09-19,27.920000076293945,28.15999984741211,27.639999389648438,27.959999084472656,26.878192901611328,100100
2018-09-20,28.0,28.209999084472656,27.889999389648438,28.0,26.91664695739746,94600
2018-09-21,27.940000534057617,28.229999542236328,26.1200008392334,26.75,25.715009689331055,438300
2018-09-24,26.770000457763672,27.010000228881836,26.155000686645508,26.6200008392334,25.590042114257812,63300
2018-09-25,26.3700008392334,26.899999618530273,26.030000686645508,26.1299991607666,25.118999481201172,33500
2018-09-26,26.100000381469727,26.625,25.5,25.540000915527344,24.55182647705078,34600
2018-09-27,25.969999313354492,25.969999313354492,24.93000030517578,25.389999389648438,24.407629013061523,24700
2018-09-28,25.260000228881836,25.791000366210938,24.93000030517578,25.420000076293945,24.436471939086914,39100
2018-10-01,25.600000381469727,25.90999984741211,24.899999618530273,25.100000381469727,24.12885284423828,33400
2018-10-02,25.1200008392334,25.76799964904785,24.1200008392334,24.489999771118164,23.542451858520508,46900
2018-10-03,24.5,24.829999923706055,24.270000457763672,24.440000534057617,23.494386672973633,43500
2018-10-04,24.440000534057617,24.719999313354492,24.350000381469727,24.40999984741211,23.46554946899414,19300
2018-10-05,24.520000457763672,24.774999618530273,24.09000015258789,24.329999923706055,23.38864517211914,40000
2018-10-08,24.329999923706055,24.93000030517578,24.280000686645508,24.75,23.792394638061523,33300
2018-10-09,24.739999771118164,24.920000076293945,24.6200008392334,24.809999465942383,23.85007095336914,42100
2018-10-10,24.709999084472656,25.100000381469727,24.510000228881836,24.6200008392334,23.667423248291016,34200
2018-10-11,24.56999969482422,25.06999969482422,24.049999237060547,24.299999237060547,23.35980224609375,28000
2018-10-12,24.579999923706055,24.639999389648438,23.040000915527344,23.139999389648438,22.244686126708984,75300
2018-10-15,23.209999084472656,23.559999465942383,22.700000762939453,22.93000030517578,22.042816162109375,29900
2018-10-16,22.950000762939453,23.950000762939453,22.87299919128418,23.8700008392334,22.946441650390625,22100
2018-10-17,23.799999237060547,23.799999237060547,23.219999313354492,23.43000030517578,22.523468017578125,19700
2018-10-18,23.270000457763672,23.954999923706055,22.75,22.8700008392334,21.98513412475586,18300
2018-10-19,22.850000381469727,23.520999908447266,21.600000381469727,22.0,21.148794174194336,32300
2018-10-22,21.559999465942383,23.329999923706055,21.559999465942383,22.969999313354492,22.08126449584961,21200
2018-10-23,22.700000762939453,23.290000915527344,22.010000228881836,22.579999923706055,21.706350326538086,7700
2018-10-24,22.649999618530273,22.950000762939453,22.280000686645508,22.290000915527344,21.42757225036621,43900
2018-10-25,23.05500030517578,23.170000076293945,22.6299991607666,22.68000030517578,21.8024845123291,14400
2018-10-26,22.40999984741211,23.079999923706055,22.000999450683594,22.790000915527344,21.908226013183594,25200
2018-10-29,22.969999313354492,22.969999313354492,22.020000457763672,22.15999984741211,21.302600860595703,22900
2018-10-30,22.229999542236328,22.75,21.68000030517578,22.18000030517578,21.32183074951172,47600
2018-10-31,22.93000030517578,23.170000076293945,22.43000030517578,23.0,22.1101016998291,65100
2018-11-01,22.940000534057617,23.040000915527344,22.020000457763672,22.110000610351562,21.25453758239746,34000
2018-11-02,22.100000381469727,22.93000030517578,22.049999237060547,22.209999084472656,21.350671768188477,20200
2018-11-05,22.110000610351562,22.934999465942383,22.110000610351562,22.75,21.869773864746094,14800
2018-11-06,22.700000762939453,23.100000381469727,22.700000762939453,23.06999969482422,22.177391052246094,28300
2018-11-07,23.040000915527344,23.858999252319336,22.780000686645508,23.40999984741211,22.504241943359375,11200
2018-11-08,23.290000915527344,23.34000015258789,22.19499969482422,23.270000457763672,22.36965560913086,10100
2018-11-09,23.399999618530273,23.399999618530273,22.40999984741211,22.959999084472656,22.071651458740234,25900
2018-11-12,22.959999084472656,23.350000381469727,22.59000015258789,23.1200008392334,22.225460052490234,14900
2018-11-13,23.139999389648438,23.364999771118164,22.739999771118164,22.850000381469727,21.965906143188477,12400
2018-11-14,23.09000015258789,23.299999237060547,21.691999435424805,23.270000457763672,22.36965560913086,11800
2018-11-15,22.899999618530273,25.43000030517578,22.899999618530273,24.6200008392334,23.667423248291016,22000
2018-11-16,24.579999923706055,24.655000686645508,23.719999313354492,24.139999389648438,23.20599365234375,42300
2018-11-19,24.0,24.149999618530273,23.350000381469727,24.010000228881836,23.081026077270508,19400
2018-11-20,23.920000076293945,24.0,23.420000076293945,23.420000076293945,22.513851165771484,8400
2018-11-21,23.81999969482422,24.0,23.242000579833984,23.81999969482422,22.898378372192383,18300
2018-11-23,23.610000610351562,24.149999618530273,23.280000686645508,24.0,23.0714111328125,6100
2018-11-26,24.0,24.0,21.889999389648438,22.780000686645508,21.898618698120117,46100
2018-11-27,22.639999389648438,23.219999313354492,22.26099967956543,22.8799991607666,21.9947452545166,15100
2018-11-28,23.239999771118164,23.739999771118164,22.6299991607666,23.450000762939453,22.542694091796875,26200
2018-11-29,23.649999618530273,23.950000762939453,22.969999313354492,23.56999969482422,22.658048629760742,20000
2018-11-30,23.770000457763672,23.899999618530273,23.420000076293945,23.889999389648438,22.965669631958008,25900
2018-12-03,23.899999618530273,23.899999618530273,23.06999969482422,23.3700008392334,22.46578598022461,13100
2018-12-04,23.299999237060547,23.299999237060547,21.229999542236328,21.850000381469727,21.004594802856445,45600
2018-12-06,21.719999313354492,22.0,21.399999618530273,21.600000381469727,20.76426887512207,25000
2018-12-07,21.690000534057617,21.75,20.780000686645508,20.979999542236328,20.168258666992188,45400
2018-12-10,20.219999313354492,21.0,19.350000381469727,19.850000381469727,19.081979751586914,57300
2018-12-11,20.0,21.299999237060547,20.0,20.649999618530273,19.851028442382812,45300
2018-12-12,20.84000015258789,21.670000076293945,20.049999237060547,21.329999923706055,20.504714965820312,33300
2018-12-13,21.469999313354492,21.469999313354492,20.450000762939453,20.979999542236328,20.22515106201172,27000
2018-12-14,20.8799991607666,21.0,20.492000579833984,21.0,20.24443244934082,13800
2018-12-17,21.0,21.0,20.398000717163086,20.850000381469727,20.09982681274414,40000
2018-12-18,20.8799991607666,20.8799991607666,19.881000518798828,20.299999237060547,19.56961441040039,83400
2018-12-19,20.440000534057617,20.5,19.625,19.739999771118164,19.029767990112305,18100
2018-12-20,19.81999969482422,19.81999969482422,19.200000762939453,19.520000457763672,18.817684173583984,22100
2018-12-21,19.3799991607666,19.399999618530273,18.950000762939453,19.239999771118164,18.54775619506836,112700
2018-12-24,19.149999618530273,19.239999771118164,18.950000762939453,18.989999771118164,18.306751251220703,8100
2018-12-26,19.1299991607666,19.639999389648438,18.850000381469727,19.610000610351562,18.90443992614746,57700
2018-12-27,19.360000610351562,19.700000762939453,19.270000457763672,19.639999389648438,18.93336296081543,54500
2018-12-28,19.84600067138672,20.469999313354492,19.239999771118164,20.34000015258789,19.608179092407227,27400
2018-12-31,20.489999771118164,20.489999771118164,19.739999771118164,19.959999084472656,19.24184799194336,40200
2019-01-02,19.799999237060547,20.326000213623047,19.75,20.079999923706055,19.357532501220703,18800
2019-01-03,20.0,20.364999771118164,20.0,20.18000030517578,19.453935623168945,22600
2019-01-04,20.510000228881836,21.1299991607666,20.3799991607666,20.979999542236328,20.22515106201172,22000
2019-01-07,21.1299991607666,21.6200008392334,20.65999984741211,21.6200008392334,20.84212303161621,25000
2019-01-08,21.639999389648438,21.700000762939453,21.389999389648438,21.520000457763672,20.7457218170166,32400
2019-01-09,21.559999465942383,21.850000381469727,21.399999618530273,21.59000015258789,20.813199996948242,16300
2019-01-10,21.290000915527344,21.290000915527344,20.459999084472656,20.75,20.00342559814453,30700
2019-01-11,20.5,20.920000076293945,20.299999237060547,20.8700008392334,20.119112014770508,177000
2019-01-14,20.889999389648438,21.7549991607666,20.889999389648438,21.360000610351562,20.59147834777832,20100
2019-01-15,21.34000015258789,21.729999542236328,21.34000015258789,21.6299991607666,20.851762771606445,12100
2019-01-16,21.639999389648438,22.049999237060547,21.309999465942383,21.610000610351562,20.832481384277344,27900
2019-01-17,21.530000686645508,21.770000457763672,21.299999237060547,21.469999313354492,20.697519302368164,62400
2019-01-18,21.459999084472656,21.579999923706055,21.389999389648438,21.459999084472656,20.68787956237793,37400
2019-01-22,21.350000381469727,21.65999984741211,21.059999465942383,21.329999923706055,20.56255531311035,89300
2019-01-23,21.3799991607666,21.510000228881836,21.139999389648438,21.239999771118164,20.475797653198242,20300
2019-01-24,21.200000762939453,21.469999313354492,20.950000762939453,21.110000610351562,20.350473403930664,15600
2019-01-25,21.170000076293945,21.290000915527344,20.899999618530273,21.219999313354492,20.45651626586914,17100
2019-01-28,21.049999237060547,21.350000381469727,21.0,21.149999618530273,20.389034271240234,12800
2019-01-29,21.239999771118164,21.270000457763672,21.100000381469727,21.190000534057617,20.427597045898438,11800
2019-01-30,21.209999084472656,21.209999084472656,20.959999084472656,21.209999084472656,20.446876525878906,16000
2019-01-31,20.889999389648438,21.0,19.079999923706055,19.56999969482422,18.865880966186523,69700
2019-02-01,19.59000015258789,19.84000015258789,19.53499984741211,19.559999465942383,18.85624122619629,16100
2019-02-04,19.559999465942383,19.959999084472656,19.375999450683594,19.860000610351562,19.145444869995117,18500
2019-02-05,19.989999771118164,19.989999771118164,19.65999984741211,19.780000686645508,19.068326950073242,35100
2019-02-06,19.770000457763672,19.809999465942383,19.75,19.799999237060547,19.087604522705078,24700
2019-02-07,19.829999923706055,19.8700008392334,19.670000076293945,19.760000228881836,19.04904556274414,10200
2019-02-08,19.5,19.799999237060547,19.469999313354492,19.65999984741211,18.95264434814453,10600
2019-02-11,19.700000762939453,19.75,19.60300064086914,19.65999984741211,18.95264434814453,10100
2019-02-12,19.75,19.940000534057617,19.6299991607666,19.940000534057617,19.222572326660156,35800
2019-02-13,20.93000030517578,20.93000030517578,19.90999984741211,20.09000015258789,19.367172241210938,57200
2019-02-14,19.969999313354492,20.139999389648438,19.8799991607666,20.010000228881836,19.29005241394043,23000
2019-02-15,20.1200008392334,21.56999969482422,20.1200008392334,21.329999923706055,20.56255531311035,27500
2019-02-19,21.63800048828125,21.969999313354492,21.579999923706055,21.75,20.967449188232422,35400
2019-02-20,21.739999771118164,22.190000534057617,21.530000686645508,21.84000015258789,21.054208755493164,226900
2019-02-21,21.950000762939453,22.079999923706055,21.739999771118164,21.75,20.967449188232422,18000
2019-02-22,21.760000228881836,21.96500015258789,21.540000915527344,21.719999313354492,20.93852424621582,16900
2019-02-25,21.950000762939453,22.040000915527344,21.5,21.5,20.726442337036133,13000
2019-02-26,21.540000915527344,22.049999237060547,21.059999465942383,21.059999465942383,20.302270889282227,12600
2019-02-27,20.940000534057617,21.204999923706055,20.170000076293945,20.760000228881836,20.0130672454834,17100
2019-02-28,20.993000030517578,21.079999923706055,20.799999237060547,20.850000381469727,20.09982681274414,10800
2019-03-01,20.979999542236328,20.979999542236328,20.375,20.540000915527344,19.800981521606445,5800
2019-03-04,20.420000076293945,20.639999389648438,20.420000076293945,20.5,19.762420654296875,10600
2019-03-05,20.56999969482422,20.610000610351562,20.2450008392334,20.530000686645508,19.79134178161621,34700
2019-03-06,20.489999771118164,20.540000915527344,20.299999237060547,20.299999237060547,19.56961441040039,29800
2019-03-07,19.899999618530273,20.291000366210938,19.899999618530273,19.940000534057617,19.222572326660156,27600
2019-03-08,19.8700008392334,20.3700008392334,19.513999938964844,19.950000762939453,19.232206344604492,11400
2019-03-11,19.950000762939453,20.5,19.950000762939453,20.479999542236328,19.743139266967773,10300
2019-03-12,20.489999771118164,20.56999969482422,19.899999618530273,20.239999771118164,19.51177406311035,13600
2019-03-13,20.25,20.709999084472656,20.25,20.299999237060547,19.56961441040039,8900
2019-03-14,20.290000915527344,20.489999771118164,20.100000381469727,20.239999771118164,19.57929039001465,6100
2019-03-15,20.149999618530273,20.489999771118164,20.100000381469727,20.299999237060547,19.637331008911133,107600
2019-03-18,20.309999465942383,21.139999389648438,20.309999465942383,20.850000381469727,20.169376373291016,17000
2019-03-19,20.920000076293945,21.0,20.860000610351562,20.8799991607666,20.19839859008789,18200
2019-03-20,20.65999984741211,20.940000534057617,19.8799991607666,20.559999465942383,19.88884162902832,16100
2019-03-21,20.139999389648438,20.639999389648438,19.889999389648438,20.06999969482422,19.414840698242188,10400
2019-03-22,19.920000076293945,20.225000381469727,18.93000030517578,18.950000762939453,18.33139991760254,47100
2019-03-25,19.09000015258789,21.0,19.010000228881836,20.049999237060547,19.395490646362305,17800
2019-03-26,20.18000030517578,20.930999755859375,20.18000030517578,20.6299991607666,19.95655632019043,16500
2019-03-27,20.709999084472656,21.139999389648438,20.68000030517578,21.0,20.31447982788086,42600
2019-03-28,21.0,21.639999389648438,20.709999084472656,21.579999923706055,20.875545501708984,14500
2019-03-29,21.6299991607666,21.780000686645508,21.350000381469727,21.5,20.798158645629883,35500
2019-04-01,21.799999237060547,21.950000762939453,21.670000076293945,21.670000076293945,20.96260643005371,22400
2019-04-02,21.3700008392334,21.934999465942383,21.3700008392334,21.899999618530273,21.18509864807129,16700
2019-04-03,22.100000381469727,22.290000915527344,21.520000457763672,22.149999618530273,21.426939010620117,36300
2019-04-04,22.149999618530273,22.25,21.950000762939453,22.149999618530273,21.426939010620117,40300
2019-04-05,22.149999618530273,22.440000534057617,22.149999618530273,22.309999465942383,21.58171844482422,21700
2019-04-08,22.200000762939453,22.68000030517578,22.200000762939453,22.510000228881836,21.775188446044922,15300
2019-04-09,22.489999771118164,22.711999893188477,21.924999237060547,22.18000030517578,21.455961227416992,23200
2019-04-10,21.93000030517578,22.780000686645508,21.93000030517578,22.639999389648438,21.900943756103516,13000
2019-04-11,22.639999389648438,22.780000686645508,22.610000610351562,22.649999618530273,21.91061782836914,20100
2019-04-12,22.639999389648438,22.809999465942383,22.510000228881836,22.639999389648438,21.900943756103516,40200
2019-04-15,22.625,22.969999313354492,22.625,22.729999542236328,21.98800277709961,14100
2019-04-16,22.8700008392334,23.889999389648438,22.530000686645508,23.110000610351562,22.35560417175293,34800
2019-04-17,23.170000076293945,23.600000381469727,23.030000686645508,23.149999618530273,22.39429473876953,13200
2019-04-18,23.010000228881836,23.790000915527344,23.010000228881836,23.780000686645508,23.00372886657715,17900
2019-04-22,23.43000030517578,23.809999465942383,23.40999984741211,23.809999465942383,23.032751083374023,15100
2019-04-23,23.829999923706055,24.399999618530273,23.829999923706055,24.3799991607666,23.584142684936523,16500
2019-04-24,24.31999969482422,24.68000030517578,23.8799991607666,24.40999984741211,23.613162994384766,45500
2019-04-25,24.389999389648438,24.614999771118164,23.979999542236328,23.979999542236328,23.197202682495117,11600
2019-04-26,24.030000686645508,24.149999618530273,23.829999923706055,23.8799991607666,23.100465774536133,14700
2019-04-29,23.959999084472656,24.790000915527344,23.959999084472656,24.790000915527344,23.98076057434082,16400
2019-04-30,24.469999313354492,24.760000228881836,24.139999389648438,24.18000030517578,23.390674591064453,24500
2019-05-01,23.739999771118164,23.739999771118164,21.690000534057617,22.3799991607666,21.649431228637695,22300
2019-05-02,23.219999313354492,23.219999313354492,22.329999923706055,22.360000610351562,21.630084991455078,14800
2019-05-03,22.479999542236328,23.5,22.479999542236328,22.90999984741211,22.162128448486328,36000
2019-05-06,22.34000015258789,22.65999984741211,22.31999969482422,22.530000686645508,21.794532775878906,28900
2019-05-07,22.280000686645508,22.46500015258789,21.739999771118164,22.149999618530273,21.426939010620117,25500
2019-05-08,22.209999084472656,23.229999542236328,22.209999084472656,22.510000228881836,21.775188446044922,14800
2019-05-09,22.260000228881836,22.684999465942383,22.0,22.010000228881836,21.291513442993164,12300
2019-05-10,22.0,22.0,21.610000610351562,21.899999618530273,21.18509864807129,6600
2019-05-13,21.399999618530273,22.399999618530273,21.399999618530273,21.649999618530273,20.943262100219727,41600
2019-05-14,21.739999771118164,22.1299991607666,21.43000030517578,21.940000534057617,21.223796844482422,26500
2019-05-15,21.709999084472656,22.6200008392334,21.709999084472656,22.020000457763672,21.301183700561523,21900
2019-05-16,22.040000915527344,22.055999755859375,21.700000762939453,21.889999389648438,21.175426483154297,4900
2019-05-17,21.739999771118164,21.790000915527344,21.399999618530273,21.420000076293945,20.72076988220215,10200
2019-05-20,21.219999313354492,21.540000915527344,20.719999313354492,20.899999618530273,20.217742919921875,15200
2019-05-21,20.950000762939453,22.260000228881836,20.950000762939453,21.799999237060547,21.08836555480957,25000
2019-05-22,21.809999465942383,21.899999618530273,21.43000030517578,21.700000762939453,20.99163055419922,10300
2019-05-23,21.510000228881836,21.649999618530273,21.0,21.149999618530273,20.459585189819336,12100
2019-05-24,21.270000457763672,21.670000076293945,21.190000534057617,21.649999618530273,20.943262100219727,11800
2019-05-28,21.56999969482422,21.56999969482422,20.229999542236328,20.280000686645508,19.617982864379883,22500
2019-05-29,20.299999237060547,20.489999771118164,19.579999923706055,19.579999923706055,18.940834045410156,15400
2019-05-30,19.709999084472656,19.860000610351562,17.559999465942383,17.969999313354492,17.383386611938477,56000
2019-05-31,17.950000762939453,18.80500030517578,16.76300048828125,18.200000762939453,17.60588264465332,33600
2019-06-03,18.219999313354492,19.118000030517578,18.100000381469727,18.280000686645508,17.683271408081055,29300
2019-06-04,18.690000534057617,19.239999771118164,18.270000457763672,18.950000762939453,18.33139991760254,27700
2019-06-05,19.239999771118164,19.3799991607666,17.889999389648438,18.079999923706055,17.489797592163086,18000
2019-06-06,17.959999084472656,18.235000610351562,17.635000228881836,17.90999984741211,17.325349807739258,56600
2019-06-07,17.959999084472656,18.389999389648438,17.579999923706055,17.979999542236328,17.393062591552734,48500
2019-06-10,17.829999923706055,18.295000076293945,16.920000076293945,17.079999923706055,16.522443771362305,57700
2019-06-11,17.049999237060547,17.639999389648438,16.65999984741211,16.920000076293945,16.367666244506836,63300
2019-06-12,16.93000030517578,16.99799919128418,16.389999389648438,16.56999969482422,16.02909278869629,63900
2019-06-13,16.610000610351562,16.770000457763672,16.309999465942383,16.540000915527344,16.067951202392578,45200
2019-06-14,16.549999237060547,16.75,16.5,16.579999923706055,16.106809616088867,80100
2019-06-17,16.579999923706055,16.579999923706055,16.190000534057617,16.229999542236328,15.766798973083496,58500
2019-06-18,16.229999542236328,16.75,16.1200008392334,16.459999084472656,15.990233421325684,43800
2019-06-19,16.399999618530273,16.639999389648438,16.25,16.360000610351562,15.893089294433594,48600
2019-06-20,16.5,16.540000915527344,16.15999984741211,16.520000457763672,16.04852294921875,52100
2019-06-21,16.360000610351562,16.8799991607666,16.174999237060547,16.8799991607666,16.398244857788086,154400
2019-06-24,16.8799991607666,17.1299991607666,16.200000762939453,16.260000228881836,15.795940399169922,85300
2019-06-25,16.399999618530273,16.399999618530273,15.470000267028809,15.640000343322754,15.193636894226074,67700
2019-06-26,15.829999923706055,16.59000015258789,15.484999656677246,16.229999542236328,15.766798973083496,69300
2019-06-27,16.309999465942383,16.8700008392334,16.309999465942383,16.860000610351562,16.378820419311523,84700
2019-06-28,16.8700008392334,17.139999389648438,16.5,17.030000686645508,16.54396629333496,750400
2019-07-01,17.200000762939453,17.899999618530273,17.040000915527344,17.229999542236328,16.738256454467773,40900
2019-07-02,17.360000610351562,17.450000762939453,16.440000534057617,16.579999923706055,16.106809616088867,36300
2019-07-03,16.700000762939453,16.989999771118164,16.700000762939453,16.739999771118164,16.262243270874023,16300
2019-07-05,16.75,17.290000915527344,16.75,17.09000015258789,16.60225486755371,19400
2019-07-08,17.139999389648438,17.190000534057617,16.719999313354492,17.1200008392334,16.631397247314453,31300
2019-07-09,17.149999618530273,17.229999542236328,16.5049991607666,16.889999389648438,16.407960891723633,29000
2019-07-10,16.950000762939453,17.290000915527344,16.65999984741211,16.8700008392334,16.388530731201172,38300
2019-07-11,17.149999618530273,17.149999618530273,16.520000457763672,16.790000915527344,16.310813903808594,30500
2019-07-12,16.799999237060547,17.15999984741211,16.65999984741211,16.799999237060547,16.32052993774414,40100
2019-07-15,16.850000381469727,17.0,16.68000030517578,16.850000381469727,16.36910057067871,40700
2019-07-16,16.8700008392334,17.110000610351562,16.702999114990234,16.850000381469727,16.36910057067871,48900
2019-07-17,16.770000457763672,17.1200008392334,16.770000457763672,16.850000381469727,16.36910057067871,31700
2019-07-18,16.81999969482422,17.110000610351562,16.770000457763672,16.8799991607666,16.398244857788086,14400
2019-07-19,16.8799991607666,16.959999084472656,16.81999969482422,16.81999969482422,16.3399600982666,18200
2019-07-22,16.829999923706055,17.229999542236328,16.799999237060547,17.15999984741211,16.67025375366211,22200
2019-07-23,17.170000076293945,17.31999969482422,16.788000106811523,16.850000381469727,16.36910057067871,39400
2019-07-24,17.0,17.084999084472656,16.8799991607666,16.950000762939453,16.46625328063965,48100
2019-07-25,16.959999084472656,17.190000534057617,16.825000762939453,16.8700008392334,16.388530731201172,87800
2019-07-26,17.09000015258789,17.264999389648438,16.84000015258789,17.030000686645508,16.54396629333496,71100
2019-07-29,17.040000915527344,17.450000762939453,16.65999984741211,16.81999969482422,16.3399600982666,55900
2019-07-30,16.799999237060547,17.479999542236328,16.799999237060547,17.420000076293945,16.922834396362305,105500
2019-07-31,17.639999389648438,18.469999313354492,17.424999237060547,17.889999389648438,17.379423141479492,91700
2019-08-01,17.950000762939453,18.899999618530273,17.93000030517578,17.969999313354492,17.45713996887207,82300
2019-08-02,17.93000030517578,17.950000762939453,17.290000915527344,17.90999984741211,17.398853302001953,44600
2019-08-05,17.610000610351562,18.020000457763672,17.059999465942383,17.440000534057617,16.942262649536133,42900
2019-08-06,17.100000381469727,17.81999969482422,17.100000381469727,17.40999984741211,16.913118362426758,35000
2019-08-07,17.200000762939453,17.700000762939453,17.09000015258789,17.3700008392334,16.8742618560791,36600
2019-08-08,17.639999389648438,18.09000015258789,17.510000228881836,17.829999923706055,17.321134567260742,56500
2019-08-09,17.829999923706055,17.989999771118164,17.3799991607666,17.440000534057617,16.942262649536133,47300
2019-08-12,17.290000915527344,17.579999923706055,17.229999542236328,17.469999313354492,16.97140884399414,37000
2019-08-13,18.770000457763672,18.770000457763672,16.774999618530273,17.239999771118164,16.747974395751953,59300
2019-08-14,16.55500030517578,16.809999465942383,15.819999694824219,15.970000267028809,15.514219284057617,41500
2019-08-15,15.979999542236328,16.799999237060547,15.84000015258789,15.90999984741211,15.45592975616455,23000
2019-08-16,16.0,16.145000457763672,15.15999984741211,15.390000343322754,14.95077133178711,46700
2019-08-19,15.739999771118164,15.9399995803833,15.25,15.489999771118164,15.047917366027832,48200
2019-08-20,15.4399995803833,15.899999618530273,14.640000343322754,15.739999771118164,15.290782928466797,26500
2019-08-21,15.6899995803833,16.360000610351562,15.6899995803833,16.229999542236328,15.766798973083496,23300
2019-08-22,16.260000228881836,16.829999923706055,15.640000343322754,15.640000343322754,15.193636894226074,42300
2019-08-23,15.5600004196167,16.200000762939453,15.092000007629395,15.1899995803833,14.756479263305664,21700
2019-08-26,15.149999618530273,15.8100004196167,15.083999633789062,15.510000228881836,15.06734561920166,31600
2019-08-27,15.53499984741211,15.53499984741211,14.9399995803833,15.220000267028809,14.785622596740723,47400
2019-08-28,15.364999771118164,15.84000015258789,14.890000343322754,15.649999618530273,15.203350067138672,33700
2019-08-29,15.640000343322754,16.84000015258789,14.979999542236328,15.989999771118164,15.533646583557129,35900
2019-08-30,16.020000457763672,16.639999389648438,15.6899995803833,15.859999656677246,15.407357215881348,23900
2019-09-03,16.051000595092773,16.059999465942383,15.350000381469727,15.489999771118164,15.047917366027832,47400
2019-09-04,15.720000267028809,16.014999389648438,15.319999694824219,15.5600004196167,15.115921020507812,67000
2019-09-05,15.84000015258789,16.3700008392334,15.789999961853027,16.170000076293945,15.708507537841797,55200
2019-09-06,16.520000457763672,16.520000457763672,15.899999618530273,15.920000076293945,15.465644836425781,18300
2019-09-09,15.960000038146973,16.75,15.960000038146973,16.56999969482422,16.097095489501953,28800
2019-09-10,16.559999465942383,17.155000686645508,16.309999465942383,16.399999618530273,15.931947708129883,61300
2019-09-11,16.440000534057617,17.219999313354492,16.420000076293945,17.139999389648438,16.65082550048828,85200
2019-09-12,16.969999313354492,17.030000686645508,15.890000343322754,16.1299991607666,15.733908653259277,221800
2019-09-13,16.31999969482422,17.09000015258789,16.25,16.84000015258789,16.426475524902344,48500
2019-09-16,17.020000457763672,17.799999237060547,16.489999771118164,17.290000915527344,16.865421295166016,44800
2019-09-17,17.5,17.5,17.06999969482422,17.079999923706055,16.660579681396484,25800
2019-09-18,17.09000015258789,17.989999771118164,16.545000076293945,17.040000915527344,16.621562957763672,27000
2019-09-19,17.09000015258789,17.219999313354492,16.459999084472656,16.59000015258789,16.182613372802734,54800
2019-09-20,16.559999465942383,16.780000686645508,16.030000686645508,16.110000610351562,15.714400291442871,207100
2019-09-23,16.170000076293945,16.760000228881836,16.170000076293945,16.670000076293945,16.260648727416992,45700
2019-09-24,16.84000015258789,16.84000015258789,16.200000762939453,16.399999618530273,15.99728012084961,66900
2019-09-25,16.400999069213867,16.8799991607666,16.1299991607666,16.610000610351562,16.20212173461914,63400
2019-09-26,16.559999465942383,16.719999313354492,16.5,16.649999618530273,16.241140365600586,27600
2019-09-27,16.65999984741211,16.84000015258789,16.5,16.600000381469727,16.192367553710938,20900
2019-09-30,16.635000228881836,16.729999542236328,16.5,16.540000915527344,16.13384246826172,40600
2019-10-01,16.459999084472656,17.006999969482422,16.100000381469727,16.1299991607666,15.733908653259277,50400
2019-10-02,15.979999542236328,16.18000030517578,15.380000114440918,15.84000015258789,15.451030731201172,29800
2019-10-03,15.770000457763672,16.399999618530273,15.300000190734863,15.84000015258789,15.451030731201172,19300
2019-10-04,15.84000015258789,15.930000305175781,15.5,15.899999618530273,15.509556770324707,22700
2019-10-07,15.829999923706055,16.079999923706055,15.710000038146973,15.819999694824219,15.431520462036133,16100
2019-10-08,15.899999618530273,15.899999618530273,15.420000076293945,15.550000190734863,15.16815185546875,25600
2019-10-09,15.649999618530273,15.920000076293945,15.335000038146973,15.420000076293945,15.041343688964844,38400
2019-10-10,15.489999771118164,16.030000686645508,15.256999969482422,15.779999732971191,15.392504692077637,18500
2019-10-11,16.139999389648438,16.260000228881836,15.800000190734863,15.920000076293945,15.529065132141113,36800
2019-10-14,15.75,16.219999313354492,15.588000297546387,15.859999656677246,15.470539093017578,28600
2019-10-15,15.899999618530273,16.39299964904785,15.850000381469727,15.979999542236328,15.587593078613281,39400
2019-10-16,16.170000076293945,16.200000762939453,15.819999694824219,15.899999618530273,15.509556770324707,24500
2019-10-17,15.989999771118164,16.059999465942383,15.75,15.920000076293945,15.529065132141113,25200
2019-10-18,15.800000190734863,16.250999450683594,15.720000267028809,15.869999885559082,15.480293273925781,44500
2019-10-21,16.010000228881836,16.309999465942383,15.649999618530273,16.229999542236328,15.831454277038574,44900
2019-10-22,16.020000457763672,16.389999389648438,15.84000015258789,16.139999389648438,15.743663787841797,46900
2019-10-23,16.079999923706055,16.600000381469727,16.079999923706055,16.34000015258789,15.938752174377441,38600
2019-10-24,15.960000038146973,16.3799991607666,15.960000038146973,16.170000076293945,15.772924423217773,39500
2019-10-25,16.09000015258789,16.635000228881836,16.030000686645508,16.5,16.09482192993164,12200
2019-10-28,16.75,16.81399917602539,16.309999465942383,16.510000228881836,16.10457992553711,17300
2019-10-29,16.520000457763672,16.940000534057617,16.399999618530273,16.459999084472656,16.055805206298828,20700
2019-10-30,16.5,16.5,15.899999618530273,16.010000228881836,15.61685562133789,33300
2019-10-31,16.280000686645508,16.635000228881836,15.899999618530273,16.329999923706055,15.928997993469238,133000
2019-11-01,16.950000762939453,17.0,16.639999389648438,16.809999465942383,16.39720916748047,27700
2019-11-04,16.84000015258789,18.139999389648438,16.84000015258789,17.799999237060547,17.362899780273438,60600
2019-11-05,17.209999084472656,17.791000366210938,17.200000762939453,17.399999618530273,16.972721099853516,106100
2019-11-06,17.34000015258789,17.34000015258789,16.889999389648438,17.0,16.582544326782227,26500
2019-11-07,17.139999389648438,17.514999389648438,17.024999618530273,17.43000030517578,17.00198745727539,50800
2019-11-08,17.68000030517578,18.139999389648438,17.31999969482422,17.43000030517578,17.00198745727539,192500
2019-11-11,17.329999923706055,17.790000915527344,17.030000686645508,17.489999771118164,17.060510635375977,115700
2019-11-12,17.489999771118164,17.940000534057617,17.299999237060547,17.469999313354492,17.041004180908203,78700
2019-11-13,17.329999923706055,18.0,17.25,17.559999465942383,17.128793716430664,285500
2019-11-14,17.56999969482422,17.81999969482422,17.437999725341797,17.579999923706055,17.14830207824707,78600
2019-11-15,17.600000381469727,18.299999237060547,17.600000381469727,18.149999618530273,17.70430564880371,162500
2019-11-18,17.968000411987305,18.075000762939453,17.5,17.90999984741211,17.47020149230957,43500
2019-11-19,17.70800018310547,18.40999984741211,17.70800018310547,18.260000228881836,17.811603546142578,43100
2019-11-20,18.239999771118164,18.440000534057617,17.690000534057617,17.889999389648438,17.45069122314453,94600
2019-11-21,17.700000762939453,18.350000381469727,17.43000030517578,18.1299991607666,17.684797286987305,74000
2019-11-22,17.899999618530273,18.149999618530273,17.75,17.93000030517578,17.489707946777344,72000
2019-11-25,18.020000457763672,18.780000686645508,18.020000457763672,18.530000686645508,18.074975967407227,103000
2019-11-26,18.520000457763672,18.700000762939453,18.049999237060547,18.18000030517578,17.73356819152832,31900
2019-11-27,18.280000686645508,18.530000686645508,18.06800079345703,18.209999084472656,17.76283073425293,37800
2019-11-29,18.100000381469727,18.25,17.56999969482422,17.979999542236328,17.53847885131836,58100
2019-12-02,17.989999771118164,18.170000076293945,17.6299991607666,17.790000915527344,17.3531436920166,46100
2019-12-03,17.399999618530273,17.81999969482422,17.299999237060547,17.790000915527344,17.3531436920166,60100
2019-12-04,17.8700008392334,18.200000762939453,17.729999542236328,17.8799991607666,17.44093132019043,21600
2019-12-05,17.90999984741211,18.049999237060547,17.81999969482422,17.959999084472656,17.518970489501953,48600
2019-12-06,18.1299991607666,18.3700008392334,17.8799991607666,18.18000030517578,17.73356819152832,47000
2019-12-09,18.1299991607666,18.59000015258789,18.010000228881836,18.280000686645508,17.831113815307617,48100
2019-12-10,18.329999923706055,18.43000030517578,18.020000457763672,18.260000228881836,17.811603546142578,48100
2019-12-11,18.270000457763672,18.450000762939453,18.0,18.399999618530273,17.948163986206055,58900
2019-12-12,18.299999237060547,18.829999923706055,18.1200008392334,18.739999771118164,18.349624633789062,45300
2019-12-13,18.774999618530273,18.920000076293945,18.40999984741211,18.729999542236328,18.339834213256836,63100
2019-12-16,18.889999389648438,19.260000228881836,18.799999237060547,18.940000534057617,18.545459747314453,54600
2019-12-17,18.989999771118164,19.100000381469727,18.719999313354492,19.079999923706055,18.68254280090332,47100
2019-12-18,19.149999618530273,19.639999389648438,19.110000610351562,19.59000015258789,19.181917190551758,56700
2019-12-19,19.479999542236328,19.829999923706055,19.479999542236328,19.549999237060547,19.14275360107422,36200
2019-12-20,19.68000030517578,19.899999618530273,19.440000534057617,19.84000015258789,19.42671012878418,203000
2019-12-23,19.8700008392334,19.899999618530273,19.5,19.649999618530273,19.24066734313965,29000
2019-12-24,19.469999313354492,19.709999084472656,19.469999313354492,19.579999923706055,19.17212677001953,10300
2019-12-26,19.600000381469727,19.760000228881836,19.170000076293945,19.5,19.093791961669922,24100
2019-12-27,19.549999237060547,19.549999237060547,19.183000564575195,19.420000076293945,19.015460968017578,52300
2019-12-30,19.3700008392334,19.729999542236328,19.239999771118164,19.649999618530273,19.24066734313965,21500
2019-12-31,19.549999237060547,19.815000534057617,18.739999771118164,19.709999084472656,19.299419403076172,39400
2020-01-02,19.81999969482422,19.84000015258789,19.190000534057617,19.360000610351562,18.956708908081055,57200
2020-01-03,19.43000030517578,19.790000915527344,19.224000930786133,19.729999542236328,19.31900405883789,22900
2020-01-06,19.540000915527344,19.8799991607666,19.424999237060547,19.610000610351562,19.201501846313477,40200
2020-01-07,19.450000762939453,19.799999237060547,18.631000518798828,19.56999969482422,19.162336349487305,29800
2020-01-08,19.540000915527344,19.729999542236328,19.270000457763672,19.639999389648438,19.230878829956055,23000
2020-01-09,19.68000030517578,19.8799991607666,19.399999618530273,19.81999969482422,19.40713119506836,21900
2020-01-10,19.790000915527344,19.979999542236328,19.40999984741211,19.549999237060547,19.14275360107422,29300
2020-01-13,19.549999237060547,19.979999542236328,19.389999389648438,19.770000457763672,19.358169555664062,17900
2020-01-14,19.719999313354492,20.139999389648438,19.600000381469727,19.920000076293945,19.50504493713379,62400
2020-01-15,19.90999984741211,20.1299991607666,19.56999969482422,19.790000915527344,19.37775230407715,23000
2020-01-16,19.940000534057617,20.079999923706055,18.360000610351562,19.110000610351562,18.711917877197266,62400
2020-01-17,19.110000610351562,19.34000015258789,19.084999084472656,19.1299991607666,18.73150062561035,22100
2020-01-21,19.139999389648438,19.360000610351562,18.809999465942383,19.110000610351562,18.711917877197266,24200
2020-01-22,19.149999618530273,19.270000457763672,19.040000915527344,19.040000915527344,18.643375396728516,8700
2020-01-23,19.020000457763672,19.049999237060547,18.510000228881836,18.8799991607666,18.486709594726562,15300
2020-01-24,18.920000076293945,18.920000076293945,18.40999984741211,18.549999237060547,18.1635799407959,20600
2020-01-27,18.25,18.65999984741211,18.148000717163086,18.549999237060547,18.1635799407959,19400
2020-01-28,18.770000457763672,18.889999389648438,18.479999542236328,18.59000015258789,18.202749252319336,14100
2020-01-29,18.594999313354492,18.594999313354492,17.690000534057617,17.93000030517578,17.556499481201172,20100
2020-01-30,17.84000015258789,18.1200008392334,17.610000610351562,17.920000076293945,17.54670524597168,17900
2020-01-31,18.860000610351562,19.81999969482422,18.579999923706055,19.68000030517578,19.270042419433594,55000
2020-02-03,19.75,20.683000564575195,18.989999771118164,19.969999313354492,19.55400276184082,31400
2020-02-04,20.170000076293945,20.31999969482422,19.354999542236328,20.0,19.5833797454834,59400
2020-02-05,20.100000381469727,20.790000915527344,19.90999984741211,20.739999771118164,20.30796241760254,61600
2020-02-06,20.760000228881836,20.760000228881836,20.389999389648438,20.489999771118164,20.063169479370117,21700
2020-02-07,20.450000762939453,20.899999618530273,20.364999771118164,20.81999969482422,20.386295318603516,43500
2020-02-10,20.84000015258789,21.360000610351562,20.790000915527344,21.34000015258789,20.895463943481445,41100
2020-02-11,21.440000534057617,21.6299991607666,21.209999084472656,21.440000534057617,20.993383407592773,27000
2020-02-12,21.510000228881836,21.6299991607666,21.31999969482422,21.600000381469727,21.15005111694336,16200
2020-02-13,21.579999923706055,21.899999618530273,20.510000228881836,21.290000915527344,20.846506118774414,41300
2020-02-14,21.489999771118164,21.760000228881836,20.565000534057617,21.1200008392334,20.68004608154297,23600
2020-02-18,21.110000610351562,21.503000259399414,20.524999618530273,20.860000610351562,20.425464630126953,16800
2020-02-19,20.6299991607666,21.149999618530273,20.6299991607666,20.959999084472656,20.523380279541016,13500
2020-02-20,20.920000076293945,21.579999923706055,20.829999923706055,21.3700008392334,20.92483901977539,35500
2020-02-21,21.3700008392334,21.3700008392334,20.829999923706055,20.989999771118164,20.552757263183594,32400
2020-02-24,20.65999984741211,20.920000076293945,20.520000457763672,20.739999771118164,20.30796241760254,23900
2020-02-25,20.809999465942383,20.809999465942383,19.639999389648438,19.799999237060547,19.387544631958008,49100
2020-02-26,19.850000381469727,20.6200008392334,19.579999923706055,19.860000610351562,19.446292877197266,13500
2020-02-27,19.510000228881836,20.12299919128418,18.08099937438965,19.09000015258789,18.692333221435547,20100
2020-02-28,18.739999771118164,19.16200065612793,17.5,18.020000457763672,17.644624710083008,46100
2020-03-02,18.18000030517578,18.8700008392334,17.59000015258789,18.8700008392334,18.476917266845703,36600
2020-03-03,18.809999465942383,18.809999465942383,17.84000015258789,18.280000686645508,17.899208068847656,19400
2020-03-04,18.360000610351562,18.59000015258789,17.969999313354492,18.479999542236328,18.095041275024414,20400
2020-03-05,18.040000915527344,18.690000534057617,17.67799949645996,18.329999923706055,17.948165893554688,32300
2020-03-06,17.920000076293945,18.290000915527344,17.312999725341797,18.0,17.625041961669922,24400
2020-03-09,17.0,17.05500030517578,16.299999237060547,16.5,16.156286239624023,68500
2020-03-10,17.010000228881836,17.100000381469727,16.06999969482422,16.93000030517578,16.577329635620117,56000
2020-03-11,16.5,16.790000915527344,15.710000038146973,15.970000267028809,15.637328147888184,26300
2020-03-12,15.229999542236328,15.6899995803833,14.0,14.239999771118164,14.013564109802246,38800
2020-03-13,14.899999618530273,16.1299991607666,14.876999855041504,16.049999237060547,15.794782638549805,59100
2020-03-16,14.619999885559082,16.040000915527344,14.619999885559082,15.0,14.761480331420898,62300
2020-03-17,15.192000389099121,18.170000076293945,14.319999694824219,18.170000076293945,17.88106918334961,56000
2020-03-18,16.850000381469727,17.899999618530273,13.010000228881836,13.649999618530273,13.432947158813477,43600
2020-03-19,13.5600004196167,16.059999465942383,13.5600004196167,14.979999542236328,14.741798400878906,51200
2020-03-20,14.880000114440918,15.079999923706055,13.529999732971191,14.239999771118164,14.013564109802246,94300
2020-03-23,14.289999961853027,15.4399995803833,13.050000190734863,13.319999694824219,13.108194351196289,37400
2020-03-24,14.15999984741211,14.447999954223633,13.289999961853027,13.710000038146973,13.491991996765137,48000
2020-03-25,13.739999771118164,13.850000381469727,12.369999885559082,13.199999809265137,12.990102767944336,49900
2020-03-26,13.399999618530273,15.069999694824219,13.350000381469727,15.020000457763672,14.78116226196289,38500
2020-03-27,14.270000457763672,14.529999732971191,13.859999656677246,14.229999542236328,14.00372314453125,40400
2020-03-30,14.770000457763672,15.258000373840332,14.100000381469727,14.84000015258789,14.604023933410645,39700
2020-03-31,14.859999656677246,15.420000076293945,14.385000228881836,15.180000305175781,14.938617706298828,39200
2020-04-01,15.130999565124512,15.130999565124512,13.510000228881836,13.739999771118164,13.521514892578125,73600
2020-04-02,13.720000267028809,14.359999656677246,13.239999771118164,13.670000076293945,13.452628135681152,27500
2020-04-03,13.604999542236328,14.109999656677246,12.649999618530273,13.579999923706055,13.364059448242188,30900
2020-04-06,13.989999771118164,14.869999885559082,13.970000267028809,14.40999984741211,14.180861473083496,53200
2020-04-07,15.100000381469727,15.600000381469727,13.8100004196167,14.220000267028809,13.99388313293457,34200
2020-04-08,14.6899995803833,15.630000114440918,14.220000267028809,14.4399995803833,14.210384368896484,24300
2020-04-09,14.989999771118164,15.649999618530273,14.800000190734863,15.449999809265137,15.204323768615723,25100
2020-04-13,15.260000228881836,15.260000228881836,14.164999961853027,14.329999923706055,14.102133750915527,30800
2020-04-14,14.6899995803833,14.850000381469727,13.640000343322754,13.699999809265137,13.48215103149414,34100
2020-04-15,13.829999923706055,14.0,12.829999923706055,13.0,12.793282508850098,55700
2020-04-16,13.010000228881836,13.760000228881836,12.699999809265137,13.739999771118164,13.521514892578125,53800
2020-04-17,13.890000343322754,14.640000343322754,13.539999961853027,14.640000343322754,14.407204627990723,44500
2020-04-20,14.65999984741211,14.65999984741211,13.869999885559082,14.149999618530273,13.924995422363281,13700
2020-04-21,13.579999923706055,13.947999954223633,13.479999542236328,13.510000228881836,13.295172691345215,15000
2020-04-22,13.75,13.850000381469727,13.319999694824219,13.520000457763672,13.305013656616211,25300
2020-04-23,13.510000228881836,13.869999885559082,13.210000038146973,13.600000381469727,13.38374137878418,19900
2020-04-24,14.0,14.670000076293945,13.84000015258789,14.34000015258789,14.11197566986084,32600
2020-04-27,14.699999809265137,15.859999656677246,14.40999984741211,15.350000381469727,15.105916023254395,29600
2020-04-28,15.930000305175781,15.949999809265137,15.109999656677246,15.539999961853027,15.292893409729004,31600
2020-04-29,15.960000038146973,17.354999542236328,15.869999885559082,16.709999084472656,16.444286346435547,44900
2020-04-30,16.079999923706055,16.56999969482422,15.229999542236328,15.399999618530273,15.155117988586426,27100
2020-05-01,14.9399995803833,15.284000396728516,14.5,14.9399995803833,14.702433586120605,29700
2020-05-04,14.649999618530273,15.3100004196167,14.470000267028809,15.279999732971191,15.037026405334473,23600
2020-05-05,15.5,15.5,14.569999694824219,14.569999694824219,14.33831787109375,23100
2020-05-06,14.720000267028809,14.9399995803833,14.25,14.3100004196167,14.082451820373535,21700
2020-05-07,14.680000305175781,14.770000457763672,14.260000228881836,14.4399995803833,14.210384368896484,18200
2020-05-08,14.859999656677246,15.289999961853027,14.729999542236328,14.920000076293945,14.682753562927246,30800
2020-05-11,14.640000343322754,15.135000228881836,14.399999618530273,14.829999923706055,14.594182968139648,52100
2020-05-12,14.850000381469727,15.359999656677246,14.699999809265137,14.779999732971191,14.544978141784668,44500
2020-05-13,14.630000114440918,15.062999725341797,13.829999923706055,14.25,14.023406028747559,34100
2020-05-14,13.869999885559082,14.739999771118164,13.380000114440918,14.640000343322754,14.407204627990723,41500
2020-05-15,14.550000190734863,14.59000015258789,14.039999961853027,14.510000228881836,14.279272079467773,33500
2020-05-18,15.0,15.6899995803833,14.630000114440918,15.510000228881836,15.2633695602417,41200
2020-05-19,15.350000381469727,15.8100004196167,15.069999694824219,15.270000457763672,15.027186393737793,26900
2020-05-20,15.649999618530273,16.325000762939453,15.520000457763672,15.989999771118164,15.735737800598145,25000
2020-05-21,16.059999465942383,16.549999237060547,15.800000190734863,16.030000686645508,15.775102615356445,23300
2020-05-22,16.18000030517578,17.030000686645508,16.040000915527344,17.030000686645508,16.759199142456055,30500
2020-05-26,17.809999465942383,18.8700008392334,17.610000610351562,18.2549991607666,17.9647216796875,62900
2020-05-27,18.780000686645508,19.0,18.110000610351562,18.549999237060547,18.255027770996094,55000
2020-05-28,18.940000534057617,18.940000534057617,17.190000534057617,17.190000534057617,16.916658401489258,36100
2020-05-29,17.1200008392334,17.655000686645508,16.860000610351562,17.079999923706055,16.80840492248535,37400
2020-06-01,17.299999237060547,17.299999237060547,16.1299991607666,16.25,15.991602897644043,54600
2020-06-02,16.260000228881836,16.8799991607666,15.994999885559082,16.790000915527344,16.52301597595215,45100
2020-06-03,17.100000381469727,17.514999389648438,16.90999984741211,17.40999984741211,17.133155822753906,25300
2020-06-04,17.149999618530273,18.239999771118164,17.149999618530273,18.18000030517578,17.890914916992188,31500
2020-06-05,18.950000762939453,19.799999237060547,18.459999084472656,19.350000381469727,19.042308807373047,44500
2020-06-08,20.139999389648438,20.2549991607666,18.350000381469727,18.84000015258789,18.54041862487793,53000
2020-06-09,18.799999237060547,19.100000381469727,18.3799991607666,18.579999923706055,18.2845516204834,37100
2020-06-10,18.59000015258789,18.59000015258789,17.360000610351562,17.670000076293945,17.389022827148438,42900
2020-06-11,17.030000686645508,17.3700008392334,15.975000381469727,16.25,15.991602897644043,61600
2020-06-12,16.93000030517578,17.719999313354492,15.760000228881836,16.520000457763672,16.33774185180664,39300
2020-06-15,15.890000343322754,16.549999237060547,14.829999923706055,16.219999313354492,16.04104995727539,37800
2020-06-16,16.950000762939453,16.989999771118164,15.960000038146973,16.549999237060547,16.36741065979004,53100
2020-06-17,16.75,18.389999389648438,16.75,17.420000076293945,17.227813720703125,61900
2020-06-18,17.190000534057617,17.760000228881836,17.049999237060547,17.610000610351562,17.41571617126465,52500
2020-06-19,17.799999237060547,17.799999237060547,17.139999389648438,17.579999923706055,17.38604736328125,76400
2020-06-22,17.299999237060547,17.739999771118164,17.225000381469727,17.670000076293945,17.475055694580078,30800
2020-06-23,17.889999389648438,18.1200008392334,17.6299991607666,18.049999237060547,17.850862503051758,35400
2020-06-24,17.809999465942383,18.235000610351562,17.110000610351562,17.280000686645508,17.089357376098633,30500
2020-06-25,17.389999389648438,17.860000610351562,17.110000610351562,17.489999771118164,17.297040939331055,25600
2020-06-26,17.479999542236328,17.479999542236328,16.479999542236328,16.709999084472656,16.525646209716797,76200
2020-06-29,16.729999542236328,17.979999542236328,15.829999923706055,17.790000915527344,17.593730926513672,72700
2020-06-30,17.899999618530273,18.6299991607666,17.65999984741211,18.489999771118164,18.286006927490234,60600
2020-07-01,18.43000030517578,18.43000030517578,17.81999969482422,17.920000076293945,17.72229766845703,39300
2020-07-02,18.3799991607666,19.239999771118164,17.670000076293945,17.729999542236328,17.534393310546875,17100
2020-07-06,18.1200008392334,18.1200008392334,17.219999313354492,17.3700008392334,17.178363800048828,18000
2020-07-07,17.110000610351562,17.110000610351562,16.299999237060547,16.3700008392334,16.18939781188965,23200
2020-07-08,16.459999084472656,16.600000381469727,16.075000762939453,16.399999618530273,16.219066619873047,16800
2020-07-09,16.559999465942383,16.770000457763672,15.729999542236328,15.930000305175781,15.754251480102539,27300
2020-07-10,16.100000381469727,16.540000915527344,15.890000343322754,16.540000915527344,16.35752296447754,15300
2020-07-13,16.760000228881836,16.78499984741211,16.149999618530273,16.360000610351562,16.179508209228516,22100
2020-07-14,16.450000762939453,16.469999313354492,16.229999542236328,16.389999389648438,16.209177017211914,18800
2020-07-15,16.850000381469727,17.260000228881836,16.59000015258789,16.93000030517578,16.74321937561035,41800
2020-07-16,16.93000030517578,17.187999725341797,16.489999771118164,16.649999618530273,16.46630859375,16100
2020-07-17,16.549999237060547,16.920000076293945,16.25,16.719999313354492,16.535533905029297,15500
2020-07-20,16.56999969482422,16.8799991607666,15.604999542236328,16.530000686645508,16.347631454467773,15000
2020-07-21,16.65999984741211,17.229999542236328,16.65999984741211,17.170000076293945,16.980573654174805,28100
2020-07-22,17.229999542236328,17.450000762939453,16.469999313354492,16.68000030517578,16.4959774017334,22200
2020-07-23,16.610000610351562,17.15999984741211,16.610000610351562,17.059999465942383,16.871784210205078,11000
2020-07-24,17.094999313354492,17.3799991607666,16.90999984741211,17.219999313354492,17.030019760131836,24900
2020-07-27,17.110000610351562,17.350000381469727,16.6200008392334,17.239999771118164,17.04979705810547,24900
2020-07-28,17.040000915527344,17.299999237060547,16.950000762939453,17.149999618530273,16.960790634155273,40700
2020-07-29,17.950000762939453,19.280000686645508,17.645000457763672,18.959999084472656,18.75082015991211,64000
2020-07-30,18.940000534057617,19.239999771118164,18.34000015258789,19.1299991607666,18.9189453125,42000
2020-07-31,19.229999542236328,19.229999542236328,18.139999389648438,18.43000030517578,18.226669311523438,28400
2020-08-03,18.760000228881836,19.0,18.709999084472656,18.8700008392334,18.661815643310547,21800
2020-08-04,18.670000076293945,18.979999542236328,18.420000076293945,18.860000610351562,18.651927947998047,27100
2020-08-05,18.920000076293945,19.0,18.690000534057617,18.940000534057617,18.73104476928711,24900
2020-08-06,18.81999969482422,18.979999542236328,18.75,18.979999542236328,18.77060317993164,20500
2020-08-07,18.899999618530273,19.75,18.860000610351562,19.690000534057617,19.472768783569336,29000
2020-08-10,19.75,19.770000457763672,19.554000854492188,19.729999542236328,19.512327194213867,62300
2020-08-11,19.770000457763672,20.0,19.238000869750977,19.3700008392334,19.156299591064453,56900
2020-08-12,19.670000076293945,19.959999084472656,19.329999923706055,19.889999389648438,19.670560836791992,32300
2020-08-13,19.889999389648438,19.940000534057617,19.6299991607666,19.670000076293945,19.452987670898438,26500
2020-08-14,19.670000076293945,20.219999313354492,19.520000457763672,20.219999313354492,19.99692153930664,47800
2020-08-17,20.219999313354492,20.219999313354492,19.549999237060547,19.8799991607666,19.66067123413086,28900
2020-08-18,19.6299991607666,19.6299991607666,19.2549991607666,19.40999984741211,19.19585609436035,22500
2020-08-19,19.540000915527344,19.6200008392334,19.040000915527344,19.489999771118164,19.27497673034668,16300
2020-08-20,19.200000762939453,19.469999313354492,19.0,19.40999984741211,19.19585609436035,21800
2020-08-21,19.389999389648438,19.389999389648438,18.670000076293945,19.09000015258789,18.8793888092041,42800
2020-08-24,19.09000015258789,20.100000381469727,19.09000015258789,20.100000381469727,19.87824821472168,27700
2020-08-25,20.200000762939453,20.655000686645508,19.8700008392334,20.34000015258789,20.115596771240234,150900
2020-08-26,20.489999771118164,20.549999237060547,19.969999313354492,20.209999084472656,19.987030029296875,66500
2020-08-27,20.360000610351562,20.600000381469727,20.010000228881836,20.299999237060547,20.07603645324707,87200
2020-08-28,20.5,20.5,20.15999984741211,20.459999084472656,20.234272003173828,46200
2020-08-31,20.690000534057617,20.739999771118164,20.3799991607666,20.3799991607666,20.155155181884766,66100
2020-09-01,20.3700008392334,20.760000228881836,20.149999618530273,20.559999465942383,20.33316993713379,65100
2020-09-02,20.450000762939453,20.729999542236328,20.079999923706055,20.5,20.273832321166992,64600
2020-09-03,20.549999237060547,20.719999313354492,20.3700008392334,20.530000686645508,20.30350112915039,18000
2020-09-04,20.770000457763672,20.770000457763672,20.219999313354492,20.6299991607666,20.40239715576172,21300
2020-09-08,20.3700008392334,20.3700008392334,19.510000228881836,19.790000915527344,19.571666717529297,57500
2020-09-09,20.0,20.489999771118164,19.694000244140625,20.270000457763672,20.046369552612305,28300
2020-09-10,20.420000076293945,20.420000076293945,19.704999923706055,19.90999984741211,19.69034194946289,24700
2020-09-11,19.90999984741211,20.149999618530273,19.665000915527344,20.059999465942383,19.838687896728516,53100
2020-09-14,20.15999984741211,20.75,20.059999465942383,20.530000686645508,20.384796142578125,41700
2020-09-15,20.68000030517578,20.68000030517578,20.3799991607666,20.5,20.355009078979492,29800
2020-09-16,20.56999969482422,21.149999618530273,20.56999969482422,21.010000228881836,20.861400604248047,33700
2020-09-17,20.780000686645508,21.079999923706055,20.770000457763672,21.049999237060547,20.9011173248291,35900
2020-09-18,21.18000030517578,21.489999771118164,20.760000228881836,21.469999313354492,21.31814956665039,129300
2020-09-21,21.290000915527344,21.290000915527344,20.6299991607666,20.700000762939453,20.55359649658203,96400
2020-09-22,20.729999542236328,20.729999542236328,19.5,19.670000076293945,19.5308780670166,41200
2020-09-23,19.729999542236328,20.06999969482422,18.979999542236328,19.059999465942383,18.92519187927246,37900
2020-09-24,19.040000915527344,20.0,18.81999969482422,19.6299991607666,19.491159439086914,39400
2020-09-25,19.459999084472656,19.68000030517578,19.25,19.40999984741211,19.272716522216797,28200
2020-09-28,19.600000381469727,20.174999237060547,19.600000381469727,19.989999771118164,19.848615646362305,16400
2020-09-29,20.09000015258789,20.40999984741211,19.690000534057617,19.799999237060547,19.65995979309082,15400
2020-09-30,19.739999771118164,20.360000610351562,19.579999923706055,19.709999084472656,19.57059669494629,24100
2020-10-01,19.8700008392334,20.540000915527344,19.520000457763672,19.969999313354492,19.82875633239746,46900
2020-10-02,19.709999084472656,20.268999099731445,19.610000610351562,20.06999969482422,19.928050994873047,48500
2020-10-05,20.385000228881836,20.864999771118164,20.059999465942383,20.75,20.603239059448242,29900
2020-10-06,20.75,21.450000762939453,20.440000534057617,20.90999984741211,20.762109756469727,36500
2020-10-07,21.100000381469727,21.100000381469727,20.479999542236328,20.649999618530273,20.503948211669922,34700
2020-10-08,20.709999084472656,20.780000686645508,20.149999618530273,20.600000381469727,20.454301834106445,44000
2020-10-09,20.8799991607666,21.1200008392334,20.270000457763672,20.889999389648438,20.742250442504883,46200
2020-10-12,20.950000762939453,21.469999313354492,20.950000762939453,21.25,21.09970474243164,81700
2020-10-13,21.1299991607666,21.420000076293945,21.100000381469727,21.280000686645508,21.12949562072754,36900
2020-10-14,21.399999618530273,21.489999771118164,21.100000381469727,21.149999618530273,21.000411987304688,36500
2020-10-15,21.079999923706055,21.3799991607666,20.739999771118164,21.3799991607666,21.228782653808594,28200
2020-10-16,21.280000686645508,21.649999618530273,20.90999984741211,21.530000686645508,21.37772560119629,24900
2020-10-19,21.729999542236328,21.979999542236328,21.55500030517578,21.690000534057617,21.53659439086914,36200
2020-10-20,21.899999618530273,22.104999542236328,21.829999923706055,21.8700008392334,21.71531867980957,56600
2020-10-21,21.889999389648438,22.100000381469727,21.889999389648438,22.049999237060547,21.894044876098633,11900
2020-10-22,22.356000900268555,23.25,22.149999618530273,22.719999313354492,22.55930519104004,62800
2020-10-23,24.094999313354492,24.094999313354492,23.0,23.239999771118164,23.07563018798828,27500
2020-10-26,22.68000030517578,22.719999313354492,21.886999130249023,22.450000762939453,22.291217803955078,49500
2020-10-27,22.270000457763672,22.270000457763672,21.31999969482422,21.610000610351562,21.457157135009766,42600
2020-10-28,20.90999984741211,21.329999923706055,20.850000381469727,21.15999984741211,21.010339736938477,25300
2020-10-29,21.549999237060547,22.790000915527344,21.447999954223633,21.65999984741211,21.506805419921875,61400
2020-10-30,21.700000762939453,22.420000076293945,21.0,21.579999923706055,21.427370071411133,51300
2020-11-02,21.81999969482422,22.440000534057617,21.81999969482422,22.299999237060547,22.14227867126465,41200
2020-11-03,22.6299991607666,23.579999923706055,22.450000762939453,22.75,22.589094161987305,61800
2020-11-04,22.579999923706055,22.729999542236328,21.799999237060547,22.0,21.84440040588379,47600
2020-11-05,22.200000762939453,22.459999084472656,21.84000015258789,22.0,21.84440040588379,68700
2020-11-06,21.81999969482422,21.950000762939453,21.059999465942383,21.110000610351562,20.960695266723633,40800
2020-11-09,23.469999313354492,23.959999084472656,22.579999923706055,23.049999237060547,22.886972427368164,117800
2020-11-10,23.329999923706055,24.760000228881836,23.110000610351562,24.65999984741211,24.485586166381836,98000
2020-11-11,25.045000076293945,25.045000076293945,23.040000915527344,24.579999923706055,24.406152725219727,66500
2020-11-12,24.479999542236328,24.760000228881836,23.93000030517578,24.709999084472656,24.535232543945312,106800
2020-11-13,24.700000762939453,25.56999969482422,24.01799964904785,25.329999923706055,25.150846481323242,175200
2020-11-16,25.989999771118164,27.799999237060547,25.780000686645508,27.420000076293945,27.22606658935547,94400
2020-11-17,27.260000228881836,28.68000030517578,26.899999618530273,28.149999618530273,27.95090103149414,122600
2020-11-18,28.700000762939453,28.875,27.059999465942383,27.110000610351562,26.918258666992188,65400
2020-11-19,27.049999237060547,27.375,26.31999969482422,27.1299991607666,26.9381160736084,86300
2020-11-20,26.690000534057617,27.360000610351562,25.59000015258789,26.959999084472656,26.769319534301758,76100
2020-11-23,27.09000015258789,27.384000778198242,26.329999923706055,26.719999313354492,26.531015396118164,65700
2020-11-24,26.770000457763672,27.440000534057617,26.357999801635742,27.43000030517578,27.235994338989258,237100
2020-11-25,27.43000030517578,28.270000457763672,26.760000228881836,27.31999969482422,27.126771926879883,113600
2020-11-27,27.350000381469727,27.350000381469727,26.719999313354492,27.350000381469727,27.15656089782715,25300
2020-11-30,27.6299991607666,27.8439998626709,26.459999084472656,26.639999389648438,26.451581954956055,54200
2020-12-01,26.239999771118164,27.135000228881836,25.809999465942383,26.920000076293945,26.72960090637207,52800
2020-12-02,27.170000076293945,27.200000762939453,26.440000534057617,26.6299991607666,26.441652297973633,33600
2020-12-03,27.280000686645508,27.280000686645508,26.420000076293945,26.549999237060547,26.362218856811523,104600
2020-12-04,26.8799991607666,27.200000762939453,26.719999313354492,26.829999923706055,26.64023780822754,62200
2020-12-07,27.1299991607666,28.549999237060547,26.68000030517578,27.139999389648438,26.948043823242188,90600
2020-12-08,27.0,27.329999923706055,26.739999771118164,27.329999923706055,27.136701583862305,41200
2020-12-09,27.399999618530273,27.844999313354492,27.290000915527344,27.75,27.55373191833496,57100
2020-12-10,27.979999542236328,28.43000030517578,27.360000610351562,28.350000381469727,28.14948844909668,40000
2020-12-11,27.065000534057617,28.8799991607666,27.065000534057617,28.40999984741211,28.209064483642578,42100
2020-12-14,28.469999313354492,28.594999313354492,27.799999237060547,27.850000381469727,27.73111343383789,49200
2020-12-15,28.1299991607666,29.200000762939453,27.864999771118164,29.049999237060547,28.925989151000977,40700
2020-12-16,29.239999771118164,29.450000762939453,28.325000762939453,28.940000534057617,28.81645965576172,37500
2020-12-17,29.270000457763672,29.6299991607666,29.020000457763672,29.5,29.374069213867188,53200
2020-12-18,29.450000762939453,30.844999313354492,28.010000228881836,28.639999389648438,28.51774024963379,115500
2020-12-21,28.649999618530273,28.909000396728516,27.860000610351562,28.389999389648438,28.268808364868164,80300
2020-12-22,27.875,28.350000381469727,27.559999465942383,27.969999313354492,27.85059928894043,54000
2020-12-23,29.100000381469727,29.100000381469727,27.700000762939453,28.1200008392334,27.999961853027344,37100
2020-12-24,29.69499969482422,29.969999313354492,27.780000686645508,27.81999969482422,27.70124053955078,24200
2020-12-28,28.06999969482422,29.0,27.610000610351562,27.860000610351562,27.741069793701172,44200
2020-12-29,28.3799991607666,28.3799991607666,27.049999237060547,27.469999313354492,27.352733612060547,58500
2020-12-30,27.299999237060547,28.079999923706055,27.299999237060547,27.5,27.382606506347656,90000
