Date,Open,High,Low,Close,Adj Close,Volume
2020-01-06,1.100000023841858,1.9199999570846558,1.100000023841858,1.9199999570846558,1.9199999570846558,900
2020-01-07,4.039999961853027,17.0,4.039999961853027,9.5,9.5,40900
2020-01-08,10.449999809265137,14.829999923706055,9.239999771118164,9.520000457763672,9.520000457763672,25200
2020-01-09,7.900000095367432,8.899999618530273,7.050000190734863,7.650000095367432,7.650000095367432,5400
2020-01-10,7.260000228881836,7.260000228881836,5.888000011444092,5.888000011444092,5.888000011444092,13000
2020-01-13,5.139999866485596,5.139999866485596,4.730000019073486,4.75,4.75,11000
2020-01-14,4.010000228881836,5.119999885559082,4.010000228881836,4.699999809265137,4.699999809265137,10500
2020-01-15,4.710000038146973,5.010000228881836,4.380000114440918,4.74399995803833,4.74399995803833,4000
2020-01-16,4.25,4.599999904632568,4.25,4.5,4.5,2700
2020-01-17,4.099999904632568,4.699999809265137,4.099999904632568,4.550000190734863,4.550000190734863,9100
2020-01-21,4.150000095367432,4.5,3.5,4.380000114440918,4.380000114440918,37300
2020-01-22,4.199999809265137,4.949999809265137,4.199999809265137,4.464000225067139,4.464000225067139,10000
2020-01-23,4.349999904632568,4.900000095367432,4.349999904632568,4.360000133514404,4.360000133514404,4700
2020-01-24,4.400000095367432,6.449999809265137,4.400000095367432,5.900000095367432,5.900000095367432,47300
2020-01-27,5.800000190734863,6.110000133514404,5.230000019073486,5.260000228881836,5.260000228881836,11800
2020-01-28,5.099999904632568,5.940000057220459,5.039999961853027,5.400000095367432,5.400000095367432,5300
2020-01-29,5.25,6.820000171661377,5.25,6.820000171661377,6.820000171661377,80700
2020-01-30,7.210000038146973,7.309999942779541,6.170000076293945,7.0,7.0,13200
2020-01-31,6.900000095367432,7.349999904632568,6.010000228881836,7.2270002365112305,7.2270002365112305,14200
2020-02-03,6.920000076293945,7.610000133514404,6.340000152587891,7.210000038146973,7.210000038146973,4200
2020-02-04,6.800000190734863,6.920000076293945,6.360000133514404,6.409999847412109,6.409999847412109,2400
2020-02-05,6.420000076293945,7.000999927520752,6.420000076293945,6.590000152587891,6.590000152587891,13500
2020-02-06,6.650000095367432,7.0,6.599999904632568,6.800000190734863,6.800000190734863,14000
2020-02-07,6.949999809265137,7.0,6.800000190734863,6.889999866485596,6.889999866485596,4300
2020-02-10,6.875,7.050000190734863,6.5,7.0,7.0,10700
2020-02-11,7.019999980926514,7.050000190734863,7.019999980926514,7.050000190734863,7.050000190734863,1200
2020-02-12,7.190000057220459,7.480000019073486,6.510000228881836,7.0,7.0,10100
2020-02-13,6.900000095367432,6.980000019073486,6.5,6.980000019073486,6.980000019073486,1400
2020-02-14,6.630000114440918,7.0,6.630000114440918,7.0,7.0,1000
2020-02-18,7.050000190734863,7.050000190734863,6.610000133514404,6.610000133514404,6.610000133514404,700
2020-02-19,6.699999809265137,6.849999904632568,6.53000020980835,6.849999904632568,6.849999904632568,1400
2020-02-20,6.599999904632568,6.800000190734863,6.550000190734863,6.630000114440918,6.630000114440918,2400
2020-02-21,6.599999904632568,6.619999885559082,5.940000057220459,6.610000133514404,6.610000133514404,3600
2020-02-24,6.449999809265137,6.71999979019165,6.119999885559082,6.64900016784668,6.64900016784668,3300
2020-02-25,6.599999904632568,6.599999904632568,6.0,6.25,6.25,5400
2020-02-26,6.199999809265137,6.239999771118164,6.0,6.239999771118164,6.239999771118164,900
2020-02-27,6.0,6.190000057220459,5.500999927520752,6.179999828338623,6.179999828338623,2800
2020-02-28,6.079999923706055,6.75,5.75,6.75,6.75,13000
2020-03-02,6.289999961853027,6.5,6.150000095367432,6.150000095367432,6.150000095367432,5900
2020-03-03,5.900000095367432,5.949999809265137,5.699999809265137,5.849999904632568,5.849999904632568,11600
2020-03-04,5.559999942779541,5.75,5.559999942779541,5.559999942779541,5.559999942779541,2300
2020-03-05,5.75,6.0,5.579999923706055,5.909999847412109,5.909999847412109,1300
2020-03-06,5.75,5.75,5.5,5.739999771118164,5.739999771118164,1500
2020-03-09,5.75,5.75,4.75,5.5,5.5,700
2020-03-10,5.289999961853027,5.730000019073486,5.289999961853027,5.5,5.5,600
2020-03-11,5.079999923706055,5.230000019073486,4.610000133514404,5.230000019073486,5.230000019073486,1300
2020-03-12,5.230000019073486,5.420000076293945,4.920000076293945,5.360000133514404,5.360000133514404,26200
2020-03-13,5.360000133514404,5.360000133514404,5.360000133514404,5.360000133514404,5.360000133514404,0
2020-03-16,5.0,5.0,4.820000171661377,4.820000171661377,4.820000171661377,700
2020-03-17,4.900000095367432,5.0,4.5,4.75,4.75,33900
2020-03-18,4.28000020980835,4.460000038146973,3.4000000953674316,4.0,4.0,12500
2020-03-19,3.359999895095825,3.690000057220459,3.3499999046325684,3.5,3.5,900
2020-03-20,3.4000000953674316,3.5,3.25,3.4200000762939453,3.4200000762939453,6700
2020-03-23,3.190000057220459,3.680000066757202,3.1500000953674316,3.1500000953674316,3.1500000953674316,6000
2020-03-24,3.009999990463257,3.5799999237060547,3.009999990463257,3.5799999237060547,3.5799999237060547,14800
2020-03-25,3.0299999713897705,3.8299999237060547,3.0299999713897705,3.5,3.5,4000
2020-03-26,3.5899999141693115,4.0,3.5,4.0,4.0,2600
2020-03-27,4.0,4.0,4.0,4.0,4.0,0
2020-03-30,3.5,3.8499999046325684,3.1600000858306885,3.299999952316284,3.299999952316284,2200
2020-03-31,3.4000000953674316,4.239999771118164,3.369999885559082,4.239999771118164,4.239999771118164,6400
2020-04-01,4.0,4.0,3.8959999084472656,3.9000000953674316,3.9000000953674316,2400
2020-04-02,3.5,3.799999952316284,3.5,3.799999952316284,3.799999952316284,800
2020-04-03,3.5439999103546143,4.0,3.5439999103546143,4.0,4.0,1400
2020-04-06,3.549999952316284,3.75,3.369999885559082,3.5999999046325684,3.5999999046325684,4500
2020-04-07,3.309999942779541,3.700000047683716,3.309999942779541,3.5999999046325684,3.5999999046325684,1200
2020-04-08,3.700000047683716,3.700000047683716,3.6500000953674316,3.6700000762939453,3.6700000762939453,1200
2020-04-09,3.6500000953674316,3.700000047683716,3.5,3.6700000762939453,3.6700000762939453,1600
2020-04-13,3.3499999046325684,3.640000104904175,3.3499999046325684,3.640000104904175,3.640000104904175,800
2020-04-14,3.369999885559082,3.369999885559082,3.319999933242798,3.319999933242798,3.319999933242798,1000
2020-04-15,3.5,3.700000047683716,3.3499999046325684,3.5250000953674316,3.5250000953674316,14500
2020-04-16,3.299999952316284,3.5999999046325684,3.2850000858306885,3.559999942779541,3.559999942779541,1500
2020-04-17,3.200000047683716,3.5999999046325684,3.1500000953674316,3.549999952316284,3.549999952316284,2500
2020-04-20,3.4000000953674316,3.450000047683716,3.2899999618530273,3.4100000858306885,3.4100000858306885,1200
2020-04-21,3.299999952316284,3.4000000953674316,3.2699999809265137,3.4000000953674316,3.4000000953674316,1100
2020-04-22,3.309999942779541,3.5999999046325684,3.309999942779541,3.5999999046325684,3.5999999046325684,2600
2020-04-23,3.2699999809265137,3.5999999046325684,3.259999990463257,3.450000047683716,3.450000047683716,3300
2020-04-24,3.4600000381469727,3.75,3.4600000381469727,3.75,3.75,500
2020-04-27,3.7699999809265137,4.349999904632568,3.4600000381469727,3.5999999046325684,3.5999999046325684,11000
2020-04-28,3.4000000953674316,3.6500000953674316,3.4000000953674316,3.6500000953674316,3.6500000953674316,1100
2020-04-29,3.6500000953674316,3.6500000953674316,3.6500000953674316,3.6500000953674316,3.6500000953674316,500
2020-04-30,3.490000009536743,3.75,3.490000009536743,3.75,3.75,1500
2020-05-01,3.5,3.75,3.4200000762939453,3.75,3.75,1000
2020-05-04,3.3499999046325684,3.549999952316284,3.3499999046325684,3.3499999046325684,3.3499999046325684,1200
2020-05-05,3.309999942779541,3.380000114440918,3.259999990463257,3.259999990463257,3.259999990463257,1200
2020-05-06,3.259999990463257,3.259999990463257,3.259999990463257,3.259999990463257,3.259999990463257,0
2020-05-07,3.4200000762939453,3.4200000762939453,3.259999990463257,3.259999990463257,3.259999990463257,500
2020-05-08,3.5,3.75,3.259999990463257,3.75,3.75,3100
2020-05-11,3.8399999141693115,5.980000019073486,3.8399999141693115,5.599999904632568,5.599999904632568,139700
2020-05-12,6.269999980926514,6.400000095367432,5.139999866485596,5.139999866485596,5.139999866485596,39400
2020-05-13,5.199999809265137,5.710000038146973,5.0,5.5,5.5,29100
2020-05-14,5.179999828338623,5.5,4.699999809265137,5.03000020980835,5.03000020980835,14900
2020-05-15,4.849999904632568,5.050000190734863,4.559999942779541,5.0,5.0,2400
2020-05-18,5.090000152587891,5.5,4.75,5.150000095367432,5.150000095367432,4200
2020-05-19,5.010000228881836,5.150000095367432,5.010000228881836,5.050000190734863,5.050000190734863,2800
2020-05-20,5.050000190734863,5.5,4.550000190734863,4.769999980926514,4.769999980926514,5200
2020-05-21,4.949999809265137,5.480000019073486,4.949999809265137,5.400000095367432,5.400000095367432,12400
2020-05-22,5.400000095367432,5.400000095367432,5.400000095367432,5.400000095367432,5.400000095367432,0
2020-05-26,4.900000095367432,4.920000076293945,4.550000190734863,4.800000190734863,4.800000190734863,2900
2020-05-27,4.639999866485596,4.639999866485596,4.5,4.5,4.5,1000
2020-05-28,4.257999897003174,4.480000019073486,3.950000047683716,4.0,4.0,5700
2020-05-29,3.759999990463257,4.25,3.5999999046325684,4.25,4.25,12100
2020-06-01,3.9700000286102295,4.920000076293945,3.6600000858306885,4.159999847412109,4.159999847412109,22600
2020-06-02,3.880000114440918,4.800000190734863,3.880000114440918,4.389999866485596,4.389999866485596,4900
2020-06-03,4.239999771118164,4.690000057220459,4.239999771118164,4.690000057220459,4.690000057220459,1800
2020-06-04,4.269999980926514,4.309999942779541,4.269999980926514,4.309999942779541,4.309999942779541,1000
2020-06-05,4.21999979019165,4.21999979019165,4.21999979019165,4.21999979019165,4.21999979019165,400
2020-06-08,4.0,4.579999923706055,4.0,4.334000110626221,4.334000110626221,10200
2020-06-09,4.010000228881836,4.275000095367432,4.0,4.0,4.0,4000
2020-06-10,3.8499999046325684,4.050000190734863,3.8299999237060547,4.050000190734863,4.050000190734863,1800
2020-06-11,3.819999933242798,4.019999980926514,3.809999942779541,4.0,4.0,2000
2020-06-12,4.010000228881836,4.21999979019165,3.8299999237060547,3.997999906539917,3.997999906539917,2600
2020-06-15,4.300000190734863,4.679999828338623,4.300000190734863,4.400000095367432,4.400000095367432,4600
2020-06-16,4.820000171661377,7.449999809265137,4.659999847412109,6.650000095367432,6.650000095367432,605600
2020-06-17,7.519999980926514,8.460000038146973,6.150000095367432,7.050000190734863,7.050000190734863,520800
2020-06-18,6.900000095367432,7.409999847412109,6.510000228881836,6.989999771118164,6.989999771118164,95100
2020-06-19,7.650000095367432,8.880000114440918,6.400000095367432,6.949999809265137,6.949999809265137,453800
2020-06-22,7.0,7.008999824523926,5.639999866485596,6.070000171661377,6.070000171661377,75000
2020-06-23,6.199999809265137,6.295000076293945,5.0,5.75,5.75,144500
2020-06-24,5.809999942779541,7.980000019073486,5.659999847412109,6.360000133514404,6.360000133514404,339500
2020-06-25,6.25,6.699999809265137,5.800000190734863,6.5,6.5,90400
2020-06-26,6.170000076293945,6.25,5.190000057220459,5.539999961853027,5.539999961853027,65300
2020-06-29,5.5,5.800000190734863,5.130000114440918,5.260000228881836,5.260000228881836,34300
2020-06-30,5.630000114440918,5.630000114440918,5.170000076293945,5.210000038146973,5.210000038146973,24700
2020-07-01,5.449999809265137,5.449999809265137,5.050000190734863,5.210000038146973,5.210000038146973,16700
2020-07-02,5.349999904632568,5.349999904632568,4.400000095367432,4.809999942779541,4.809999942779541,76800
2020-07-06,5.019999980926514,5.349999904632568,4.809999942779541,4.960000038146973,4.960000038146973,30100
2020-07-07,5.110000133514404,5.466000080108643,4.909999847412109,5.349999904632568,5.349999904632568,28300
2020-07-08,5.0,5.75,5.0,5.25,5.25,35300
2020-07-09,5.170000076293945,5.5,4.5,4.840000152587891,4.840000152587891,55000
2020-07-10,4.869999885559082,5.360000133514404,4.670000076293945,4.75,4.75,29200
2020-07-13,4.960000038146973,5.119999885559082,4.4730000495910645,4.5,4.5,30600
2020-07-14,4.6529998779296875,4.989999771118164,4.309999942779541,4.510000228881836,4.510000228881836,18200
2020-07-15,4.614999771118164,5.519999980926514,4.454999923706055,5.090000152587891,5.090000152587891,145600
2020-07-16,5.159999847412109,5.716000080108643,5.001999855041504,5.670000076293945,5.670000076293945,60600
2020-07-17,5.670000076293945,6.210000038146973,5.559999942779541,5.710000038146973,5.710000038146973,44800
2020-07-20,5.800000190734863,5.800000190734863,5.059999942779541,5.245999813079834,5.245999813079834,36900
2020-07-21,5.324999809265137,5.449999809265137,5.010000228881836,5.059999942779541,5.059999942779541,19300
2020-07-22,5.25,5.289999961853027,5.079999923706055,5.150000095367432,5.150000095367432,17900
2020-07-23,5.199999809265137,5.289999961853027,4.769999980926514,4.949999809265137,4.949999809265137,24200
2020-07-24,4.900000095367432,4.929999828338623,4.75,4.869999885559082,4.869999885559082,19400
2020-07-27,4.820000171661377,5.440000057220459,4.800000190734863,5.150000095367432,5.150000095367432,59500
2020-07-28,5.010000228881836,5.190000057220459,4.949999809265137,5.099999904632568,5.099999904632568,11300
2020-07-29,5.099999904632568,7.0,5.099999904632568,5.110000133514404,5.110000133514404,345100
2020-07-30,5.050000190734863,5.090000152587891,4.760000228881836,4.849999904632568,4.849999904632568,47900
2020-07-31,5.090000152587891,5.130000114440918,4.849999904632568,4.940000057220459,4.940000057220459,29300
2020-08-03,4.949999809265137,5.389999866485596,4.690000057220459,5.24399995803833,5.24399995803833,57900
2020-08-04,5.25,5.449999809265137,5.199999809265137,5.314000129699707,5.314000129699707,14800
2020-08-05,5.320000171661377,7.0,5.184999942779541,7.0,7.0,335600
2020-08-06,6.21999979019165,6.815000057220459,5.849999904632568,6.070000171661377,6.070000171661377,135700
2020-08-07,5.75,5.920000076293945,5.210000038146973,5.269999980926514,5.269999980926514,55600
2020-08-10,5.289999961853027,5.699999809265137,5.210000038146973,5.460000038146973,5.460000038146973,47600
2020-08-11,5.480000019073486,6.21999979019165,5.420000076293945,5.519999980926514,5.519999980926514,80000
2020-08-12,5.599999904632568,6.099999904632568,5.53000020980835,6.039999961853027,6.039999961853027,56000
2020-08-13,6.300000190734863,6.559999942779541,5.940000057220459,6.110000133514404,6.110000133514404,70500
2020-08-14,5.892000198364258,5.892000198364258,5.25,5.409999847412109,5.409999847412109,105200
2020-08-17,5.309999942779541,5.46999979019165,5.159999847412109,5.170000076293945,5.170000076293945,50500
2020-08-18,5.239999771118164,5.289999961853027,5.050000190734863,5.050000190734863,5.050000190734863,40700
2020-08-19,5.010000228881836,5.446000099182129,5.0,5.050000190734863,5.050000190734863,103400
2020-08-20,5.011000156402588,5.070000171661377,4.510000228881836,4.577000141143799,4.577000141143799,58100
2020-08-21,4.699999809265137,4.7170000076293945,4.010000228881836,4.559999942779541,4.559999942779541,135400
2020-08-24,4.539999961853027,5.010000228881836,4.130000114440918,4.21999979019165,4.21999979019165,161700
2020-08-25,4.239999771118164,4.25,3.7149999141693115,3.8299999237060547,3.8299999237060547,58300
2020-08-26,3.940000057220459,3.940000057220459,3.319999933242798,3.430000066757202,3.430000066757202,145400
2020-08-27,3.5799999237060547,3.7300000190734863,3.380000114440918,3.450000047683716,3.450000047683716,34700
2020-08-28,3.4700000286102295,3.7300000190734863,3.36899995803833,3.549999952316284,3.549999952316284,26500
2020-08-31,3.509999990463257,3.8299999237060547,3.5,3.640000104904175,3.640000104904175,78800
2020-09-01,3.6500000953674316,3.700000047683716,3.5,3.549999952316284,3.549999952316284,12800
2020-09-02,3.753000020980835,5.199999809265137,3.5490000247955322,3.8499999046325684,3.8499999046325684,2286400
2020-09-03,3.5999999046325684,3.7200000286102295,3.390000104904175,3.6600000858306885,3.6600000858306885,114600
2020-09-04,3.440000057220459,3.5390000343322754,3.259999990463257,3.359999895095825,3.359999895095825,39700
2020-09-08,3.200000047683716,3.4100000858306885,2.9600000381469727,3.0399999618530273,3.0399999618530273,76200
2020-09-09,3.0899999141693115,3.2899999618530273,3.059999942779541,3.2300000190734863,3.2300000190734863,76700
2020-09-10,3.2100000381469727,3.4000000953674316,3.0799999237060547,3.140000104904175,3.140000104904175,76500
2020-09-11,3.140000104904175,3.2200000286102295,3.0399999618530273,3.130000114440918,3.130000114440918,38400
2020-09-14,3.130000114440918,3.140000104904175,3.059999942779541,3.0850000381469727,3.0850000381469727,17000
2020-09-15,3.0799999237060547,3.4000000953674316,3.0799999237060547,3.309999942779541,3.309999942779541,25700
2020-09-16,3.2799999713897705,3.4040000438690186,3.1700000762939453,3.2300000190734863,3.2300000190734863,10800
2020-09-17,3.2300000190734863,3.2690000534057617,3.130000114440918,3.130000114440918,3.130000114440918,6300
2020-09-18,3.190000057220459,3.2699999809265137,3.109999895095825,3.140000104904175,3.140000104904175,17400
2020-09-21,3.1700000762939453,3.240000009536743,3.062999963760376,3.134999990463257,3.134999990463257,7300
2020-09-22,3.190000057220459,3.2300000190734863,2.687000036239624,2.869999885559082,2.869999885559082,62100
2020-09-23,2.9800000190734863,2.990000009536743,2.509999990463257,2.640000104904175,2.640000104904175,35400
2020-09-24,2.680000066757202,2.680000066757202,2.2950000762939453,2.2950000762939453,2.2950000762939453,52000
2020-09-25,2.440000057220459,2.8310000896453857,2.2699999809265137,2.5799999237060547,2.5799999237060547,78300
2020-09-28,2.75,3.178999900817871,2.490000009536743,2.7300000190734863,2.7300000190734863,105900
2020-09-29,2.7100000381469727,2.7100000381469727,2.5,2.5199999809265137,2.5199999809265137,16900
2020-09-30,2.5199999809265137,2.640000104904175,2.369999885559082,2.630000114440918,2.630000114440918,35700
2020-10-01,2.700000047683716,2.9049999713897705,2.6500000953674316,2.740000009536743,2.740000009536743,25700
2020-10-02,2.8499999046325684,3.180000066757202,2.7100000381469727,2.9100000858306885,2.9100000858306885,54000
2020-10-05,2.9000000953674316,2.9000000953674316,2.6600000858306885,2.8399999141693115,2.8399999141693115,16400
2020-10-06,2.809999942779541,2.9000000953674316,2.75,2.759999990463257,2.759999990463257,10400
2020-10-07,2.8499999046325684,3.109999895095825,2.759999990463257,2.9700000286102295,2.9700000286102295,81800
2020-10-08,3.0,3.0,2.859999895095825,2.9800000190734863,2.9800000190734863,24300
2020-10-09,2.9660000801086426,3.200000047683716,2.931999921798706,2.9800000190734863,2.9800000190734863,29900
2020-10-12,3.0799999237060547,3.0899999141693115,2.7300000190734863,3.0199999809265137,3.0199999809265137,40700
2020-10-13,3.0,3.0299999713897705,2.9000000953674316,2.9000000953674316,2.9000000953674316,15400
2020-10-14,3.0399999618530273,3.25,2.9700000286102295,3.140000104904175,3.140000104904175,59500
2020-10-15,3.0799999237060547,3.1700000762939453,2.9000000953674316,3.1700000762939453,3.1700000762939453,40900
2020-10-16,3.1459999084472656,3.1459999084472656,2.990000009536743,2.990000009536743,2.990000009536743,7100
2020-10-19,3.049999952316284,3.049999952316284,2.809999942779541,2.869999885559082,2.869999885559082,15500
2020-10-20,2.950000047683716,3.130000114440918,2.950000047683716,3.0199999809265137,3.0199999809265137,19100
2020-10-21,3.0899999141693115,3.180000066757202,2.9600000381469727,3.0999999046325684,3.0999999046325684,31400
2020-10-22,3.1419999599456787,3.440000057220459,3.0999999046325684,3.2899999618530273,3.2899999618530273,37800
2020-10-23,3.2799999713897705,3.3299999237060547,3.009999990463257,3.0799999237060547,3.0799999237060547,26300
2020-10-26,3.065000057220459,3.0999999046325684,2.7799999713897705,2.8499999046325684,2.8499999046325684,22800
2020-10-27,2.8499999046325684,3.009000062942505,2.7799999713897705,2.8299999237060547,2.8299999237060547,4200
2020-10-28,2.859999895095825,2.859999895095825,2.4100000858306885,2.430000066757202,2.430000066757202,43100
2020-10-29,2.5850000381469727,2.75,2.440000057220459,2.4600000381469727,2.4600000381469727,20900
2020-10-30,2.7100000381469727,2.9000000953674316,2.5179998874664307,2.6600000858306885,2.6600000858306885,71200
2020-11-02,2.759999990463257,2.759999990463257,2.619999885559082,2.700000047683716,2.700000047683716,6800
2020-11-03,2.7699999809265137,2.9200000762939453,2.7699999809265137,2.819999933242798,2.819999933242798,12800
2020-11-04,2.819999933242798,2.990000009536743,2.75,2.890000104904175,2.890000104904175,11100
2020-11-05,2.890000104904175,2.930000066757202,2.7300000190734863,2.7899999618530273,2.7899999618530273,13700
2020-11-06,2.8299999237060547,2.8399999141693115,2.640000104904175,2.6700000762939453,2.6700000762939453,5400
2020-11-09,2.6600000858306885,2.7899999618530273,2.4800000190734863,2.5199999809265137,2.5199999809265137,23300
2020-11-10,2.6500000953674316,2.700000047683716,2.559999942779541,2.619999885559082,2.619999885559082,6200
2020-11-11,2.5999999046325684,2.7100000381469727,2.5799999237060547,2.700000047683716,2.700000047683716,5700
2020-11-12,2.6500000953674316,2.7200000286102295,2.5999999046325684,2.690000057220459,2.690000057220459,8300
2020-11-13,2.609999895095825,2.690000057220459,2.5399999618530273,2.690000057220459,2.690000057220459,11900
2020-11-16,2.680000066757202,2.7200000286102295,2.609999895095825,2.6700000762939453,2.6700000762939453,9000
2020-11-17,2.6600000858306885,2.691999912261963,2.569999933242798,2.640000104904175,2.640000104904175,8700
2020-11-18,2.740000009536743,2.740000009536743,2.5199999809265137,2.5999999046325684,2.5999999046325684,22800
2020-11-19,2.6600000858306885,2.690000057220459,2.549999952316284,2.549999952316284,2.549999952316284,13200
2020-11-20,2.6500000953674316,2.6600000858306885,2.549999952316284,2.569999933242798,2.569999933242798,10900
2020-11-23,2.700000047683716,2.700000047683716,2.450000047683716,2.509999990463257,2.509999990463257,25500
2020-11-24,2.5799999237060547,2.5999999046325684,2.4800000190734863,2.5199999809265137,2.5199999809265137,24300
2020-11-25,2.5,2.5399999618530273,2.440000057220459,2.509999990463257,2.509999990463257,8800
2020-11-27,2.549999952316284,2.640000104904175,2.438999891281128,2.5,2.5,23600
2020-11-30,2.4200000762939453,2.5899999141693115,2.4100000858306885,2.5,2.5,9100
2020-12-01,2.4800000190734863,2.5,2.4100000858306885,2.5,2.5,19500
2020-12-02,2.3499999046325684,2.490000009536743,2.265000104904175,2.4600000381469727,2.4600000381469727,40500
2020-12-03,2.359999895095825,2.490000009536743,2.359999895095825,2.390000104904175,2.390000104904175,22900
2020-12-04,2.390000104904175,2.690000057220459,2.385999917984009,2.4600000381469727,2.4600000381469727,51700
2020-12-07,2.5799999237060547,2.5999999046325684,2.4600000381469727,2.4700000286102295,2.4700000286102295,17200
2020-12-08,2.5,2.5,2.4200000762939453,2.440000057220459,2.440000057220459,5700
2020-12-09,2.4200000762939453,2.4839999675750732,2.4000000953674316,2.4100000858306885,2.4100000858306885,18500
2020-12-10,2.509999990463257,2.509999990463257,2.4100000858306885,2.450000047683716,2.450000047683716,8100
2020-12-11,2.440000057220459,2.5199999809265137,2.4000000953674316,2.4600000381469727,2.4600000381469727,8300
2020-12-14,2.549999952316284,2.740000009536743,2.4549999237060547,2.740000009536743,2.740000009536743,61500
2020-12-15,2.619999885559082,2.7200000286102295,2.5399999618530273,2.619999885559082,2.619999885559082,22700
2020-12-16,2.700000047683716,3.799999952316284,2.700000047683716,3.5999999046325684,3.5999999046325684,382200
2020-12-17,2.8499999046325684,3.1500000953674316,2.759999990463257,2.859999895095825,2.859999895095825,319700
2020-12-18,2.809999942779541,2.9790000915527344,2.609999895095825,2.609999895095825,2.609999895095825,93400
2020-12-21,2.7300000190734863,2.7300000190734863,2.4600000381469727,2.509999990463257,2.509999990463257,35800
2020-12-22,2.5799999237060547,2.5799999237060547,2.5,2.5,2.5,17000
2020-12-23,2.430000066757202,2.569999933242798,2.4200000762939453,2.490000009536743,2.490000009536743,44700
2020-12-24,2.490000009536743,2.8410000801086426,2.48799991607666,2.7300000190734863,2.7300000190734863,90000
2020-12-28,2.640000104904175,2.9800000190734863,2.549999952316284,2.7699999809265137,2.7699999809265137,121600
2020-12-29,2.9800000190734863,3.569999933242798,2.880000114440918,3.190000057220459,3.190000057220459,547100
2020-12-30,2.9800000190734863,3.015000104904175,2.549999952316284,2.7200000286102295,2.7200000286102295,228500
