Date,Open,High,Low,Close,Adj Close,Volume
2020-07-23,16.5,22.90999984741211,16.40999984741211,22.0,22.0,5042000
2020-07-24,20.059999465942383,24.690000534057617,19.709999084472656,22.389999389648438,22.389999389648438,1023800
2020-07-27,22.389999389648438,22.700000762939453,21.75,21.75,21.75,340200
2020-07-28,21.149999618530273,22.229999542236328,20.0,21.479999542236328,21.479999542236328,268100
2020-07-29,21.280000686645508,23.260000228881836,20.93000030517578,22.280000686645508,22.280000686645508,321000
2020-07-30,21.739999771118164,22.75,21.040000915527344,22.219999313354492,22.219999313354492,280100
2020-07-31,22.530000686645508,22.6200008392334,21.18000030517578,21.75,21.75,150800
2020-08-03,21.780000686645508,24.8700008392334,21.75,23.989999771118164,23.989999771118164,270700
2020-08-04,24.209999084472656,24.5,23.389999389648438,24.3700008392334,24.3700008392334,323000
2020-08-05,24.5,25.920000076293945,23.860000610351562,24.059999465942383,24.059999465942383,241300
2020-08-06,24.020000457763672,25.0,23.219999313354492,25.0,25.0,141800
2020-08-07,24.6299991607666,24.850000381469727,23.110000610351562,23.25,23.25,166700
2020-08-10,23.260000228881836,23.299999237060547,21.959999084472656,22.799999237060547,22.799999237060547,188400
2020-08-11,22.579999923706055,22.979999542236328,21.959999084472656,22.459999084472656,22.459999084472656,64800
2020-08-12,22.420000076293945,24.670000076293945,22.110000610351562,23.700000762939453,23.700000762939453,120100
2020-08-13,23.860000610351562,25.0,22.825000762939453,24.739999771118164,24.739999771118164,212400
2020-08-14,24.399999618530273,26.0,23.780000686645508,25.719999313354492,25.719999313354492,195400
2020-08-17,25.610000610351562,25.610000610351562,23.809999465942383,23.809999465942383,23.809999465942383,176300
2020-08-18,23.8799991607666,26.486000061035156,23.260000228881836,26.040000915527344,26.040000915527344,294500
2020-08-19,26.25,26.700000762939453,25.389999389648438,25.6200008392334,25.6200008392334,176800
2020-08-20,24.959999084472656,26.93199920654297,24.860000610351562,25.170000076293945,25.170000076293945,173600
2020-08-21,25.329999923706055,26.479999542236328,25.18000030517578,26.139999389648438,26.139999389648438,122400
2020-08-24,26.139999389648438,26.920000076293945,24.040000915527344,25.239999771118164,25.239999771118164,215000
2020-08-25,24.670000076293945,26.219999313354492,24.344999313354492,26.219999313354492,26.219999313354492,130000
2020-08-26,26.200000762939453,27.510000228881836,25.354999542236328,27.510000228881836,27.510000228881836,55800
2020-08-27,27.399999618530273,27.75,26.010000228881836,27.079999923706055,27.079999923706055,115300
2020-08-28,27.079999923706055,29.1200008392334,26.8700008392334,28.799999237060547,28.799999237060547,172600
2020-08-31,29.420000076293945,29.899999618530273,28.020000457763672,28.190000534057617,28.190000534057617,192700
2020-09-01,26.600000381469727,28.540000915527344,26.579999923706055,28.200000762939453,28.200000762939453,227400
2020-09-02,27.8799991607666,33.10300064086914,27.770000457763672,31.420000076293945,31.420000076293945,283400
2020-09-03,31.059999465942383,31.059999465942383,28.299999237060547,29.219999313354492,29.219999313354492,256400
2020-09-04,29.15999984741211,29.59000015258789,28.450000762939453,28.940000534057617,28.940000534057617,184300
2020-09-08,28.510000228881836,31.209999084472656,28.510000228881836,30.639999389648438,30.639999389648438,189200
2020-09-09,30.479999542236328,31.75,28.829999923706055,29.0,29.0,231600
2020-09-10,29.110000610351562,30.969999313354492,28.600000381469727,30.049999237060547,30.049999237060547,138500
2020-09-11,29.84000015258789,30.34000015258789,28.610000610351562,29.06999969482422,29.06999969482422,195600
2020-09-14,29.0,30.610000610351562,28.799999237060547,29.59000015258789,29.59000015258789,197800
2020-09-15,29.3700008392334,29.475000381469727,26.959999084472656,26.979999542236328,26.979999542236328,142400
2020-09-16,27.229999542236328,27.93000030517578,26.719999313354492,26.75,26.75,331300
2020-09-17,26.079999923706055,27.100000381469727,25.219999313354492,25.700000762939453,25.700000762939453,299400
2020-09-18,25.3799991607666,26.6299991607666,24.299999237060547,24.450000762939453,24.450000762939453,1854100
2020-09-21,23.809999465942383,24.290000915527344,22.360000610351562,22.3700008392334,22.3700008392334,323400
2020-09-22,22.75,24.5,22.399999618530273,24.1200008392334,24.1200008392334,378800
2020-09-23,23.940000534057617,24.68000030517578,23.420000076293945,23.540000915527344,23.540000915527344,231200
2020-09-24,23.209999084472656,24.139999389648438,23.139999389648438,23.90999984741211,23.90999984741211,173700
2020-09-25,23.760000228881836,24.40999984741211,23.43000030517578,24.18000030517578,24.18000030517578,136700
2020-09-28,24.280000686645508,24.8700008392334,23.954999923706055,24.65999984741211,24.65999984741211,103400
2020-09-29,24.459999084472656,25.0,23.950000762939453,24.690000534057617,24.690000534057617,72900
2020-09-30,24.979999542236328,25.15999984741211,23.415000915527344,23.81999969482422,23.81999969482422,114700
2020-10-01,23.940000534057617,24.56999969482422,23.309999465942383,24.540000915527344,24.540000915527344,91900
2020-10-02,24.0,24.459999084472656,23.440000534057617,23.959999084472656,23.959999084472656,81500
2020-10-05,24.15999984741211,24.5,23.979999542236328,24.350000381469727,24.350000381469727,54100
2020-10-06,24.25,24.56999969482422,22.889999389648438,23.260000228881836,23.260000228881836,160500
2020-10-07,23.670000076293945,23.899999618530273,23.020000457763672,23.309999465942383,23.309999465942383,160700
2020-10-08,23.389999389648438,23.614999771118164,23.06999969482422,23.1200008392334,23.1200008392334,101300
2020-10-09,23.100000381469727,23.540000915527344,22.65999984741211,23.3700008392334,23.3700008392334,80000
2020-10-12,23.40999984741211,23.579999923706055,22.43000030517578,22.469999313354492,22.469999313354492,65600
2020-10-13,22.649999618530273,24.65999984741211,21.979999542236328,24.479999542236328,24.479999542236328,175300
2020-10-14,24.399999618530273,24.760000228881836,23.450000762939453,24.239999771118164,24.239999771118164,76500
2020-10-15,23.940000534057617,25.639999389648438,23.56999969482422,25.34000015258789,25.34000015258789,73400
2020-10-16,25.190000534057617,27.079999923706055,25.030000686645508,26.520000457763672,26.520000457763672,95400
2020-10-19,26.75,27.125,26.0,26.049999237060547,26.049999237060547,59900
2020-10-20,26.469999313354492,26.700000762939453,26.079999923706055,26.549999237060547,26.549999237060547,45500
2020-10-21,26.860000610351562,29.09000015258789,26.485000610351562,28.31999969482422,28.31999969482422,166400
2020-10-22,28.610000610351562,28.75,27.81999969482422,28.040000915527344,28.040000915527344,99800
2020-10-23,28.290000915527344,28.899999618530273,27.139999389648438,27.670000076293945,27.670000076293945,98100
2020-10-26,27.209999084472656,27.690000534057617,25.899999618530273,26.100000381469727,26.100000381469727,36300
2020-10-27,25.979999542236328,26.1299991607666,25.5,25.8700008392334,25.8700008392334,58800
2020-10-28,24.979999542236328,26.950000762939453,24.93000030517578,26.770000457763672,26.770000457763672,106400
2020-10-29,26.639999389648438,26.950000762939453,25.549999237060547,26.790000915527344,26.790000915527344,57000
2020-10-30,26.56999969482422,27.540000915527344,25.8700008392334,27.030000686645508,27.030000686645508,60500
2020-11-02,27.329999923706055,27.68000030517578,26.239999771118164,26.600000381469727,26.600000381469727,52600
2020-11-03,27.049999237060547,27.920000076293945,26.760000228881836,27.780000686645508,27.780000686645508,62600
2020-11-04,27.959999084472656,28.329999923706055,26.972000122070312,27.600000381469727,27.600000381469727,26600
2020-11-05,27.81999969482422,30.399999618530273,27.81999969482422,29.799999237060547,29.799999237060547,99300
2020-11-06,30.1200008392334,30.209999084472656,28.09000015258789,28.350000381469727,28.350000381469727,48900
2020-11-09,29.549999237060547,30.389999389648438,28.0,28.56999969482422,28.56999969482422,69400
2020-11-10,28.56999969482422,30.200000762939453,28.56999969482422,29.530000686645508,29.530000686645508,75400
2020-11-11,30.3700008392334,31.729999542236328,30.3700008392334,31.09000015258789,31.09000015258789,160100
2020-11-12,31.229999542236328,31.652000427246094,29.809999465942383,30.0,30.0,75900
2020-11-13,30.25,31.34000015258789,29.899999618530273,30.93000030517578,30.93000030517578,186300
2020-11-16,31.479999542236328,33.880001068115234,31.479999542236328,33.09000015258789,33.09000015258789,132700
2020-11-17,32.790000915527344,35.09700012207031,32.599998474121094,34.709999084472656,34.709999084472656,79900
2020-11-18,34.810001373291016,35.88800048828125,34.310001373291016,34.380001068115234,34.380001068115234,83200
2020-11-19,34.16999816894531,34.81999969482422,33.6349983215332,34.619998931884766,34.619998931884766,52600
2020-11-20,34.439998626708984,35.060001373291016,33.29999923706055,33.66999816894531,33.66999816894531,56200
2020-11-23,32.439998626708984,32.439998626708984,28.5939998626709,29.93000030517578,29.93000030517578,647100
2020-11-24,29.90999984741211,29.93000030517578,27.34600067138672,27.809999465942383,27.809999465942383,677300
2020-11-25,28.799999237060547,30.170000076293945,27.520000457763672,29.579999923706055,29.579999923706055,2151700
2020-11-27,29.25,30.0,27.979999542236328,28.440000534057617,28.440000534057617,189600
2020-11-30,29.75,29.885000228881836,27.209999084472656,27.389999389648438,27.389999389648438,554100
2020-12-01,27.5,32.310001373291016,26.889999389648438,29.780000686645508,29.780000686645508,999300
2020-12-02,29.34000015258789,29.34000015258789,27.25,27.68000030517578,27.68000030517578,311800
2020-12-03,27.670000076293945,27.950000762939453,26.170000076293945,27.649999618530273,27.649999618530273,494800
2020-12-04,27.93000030517578,28.989999771118164,27.399999618530273,28.229999542236328,28.229999542236328,188500
2020-12-07,28.149999618530273,29.469999313354492,27.559999465942383,28.56999969482422,28.56999969482422,352700
2020-12-08,28.3700008392334,29.110000610351562,27.295000076293945,28.829999923706055,28.829999923706055,268600
2020-12-09,28.889999389648438,29.920000076293945,28.440000534057617,28.790000915527344,28.790000915527344,165100
2020-12-10,28.65999984741211,29.024999618530273,28.020000457763672,28.75,28.75,146100
2020-12-11,28.850000381469727,29.579999923706055,28.530000686645508,28.889999389648438,28.889999389648438,114300
2020-12-14,29.110000610351562,29.540000915527344,28.18000030517578,28.229999542236328,28.229999542236328,250900
2020-12-15,28.540000915527344,28.540000915527344,27.399999618530273,28.18000030517578,28.18000030517578,187700
2020-12-16,28.639999389648438,29.329999923706055,28.360000610351562,28.81999969482422,28.81999969482422,161000
2020-12-17,29.309999465942383,31.290000915527344,28.739999771118164,30.299999237060547,30.299999237060547,340000
2020-12-18,30.399999618530273,31.979999542236328,30.0,31.700000762939453,31.700000762939453,777400
2020-12-21,31.010000228881836,31.969999313354492,30.049999237060547,31.850000381469727,31.850000381469727,376700
2020-12-22,32.02000045776367,32.2400016784668,30.96500015258789,31.510000228881836,31.510000228881836,273100
2020-12-23,31.65999984741211,32.880001068115234,30.780000686645508,32.20000076293945,32.20000076293945,134200
2020-12-24,32.439998626708984,32.5,31.90999984741211,32.099998474121094,32.099998474121094,83700
2020-12-28,32.209999084472656,32.47999954223633,31.760000228881836,31.950000762939453,31.950000762939453,182600
2020-12-29,32.029998779296875,32.15999984741211,30.459999084472656,31.360000610351562,31.360000610351562,138200
2020-12-30,31.56999969482422,32.040000915527344,30.93000030517578,31.260000228881836,31.260000228881836,68600
