Date,Open,High,Low,Close,Adj Close,Volume
2018-08-10,12.0,12.0,11.5,11.75,11.75,2519800
2018-08-13,11.75,11.930000305175781,11.050000190734863,11.5,11.5,430200
2018-08-14,11.5,11.75,11.079999923706055,11.649999618530273,11.649999618530273,400700
2018-08-15,11.59000015258789,11.699999809265137,11.5,11.640000343322754,11.640000343322754,294600
2018-08-16,11.550000190734863,11.800000190734863,11.510000228881836,11.699999809265137,11.699999809265137,266400
2018-08-17,11.6899995803833,11.789999961853027,11.170000076293945,11.739999771118164,11.739999771118164,296300
2018-08-20,11.850000381469727,12.229999542236328,11.699999809265137,12.170000076293945,12.170000076293945,341900
2018-08-21,12.170000076293945,12.5,12.100000381469727,12.329999923706055,12.329999923706055,455600
2018-08-22,12.25,12.550000190734863,12.100000381469727,12.4399995803833,12.4399995803833,343600
2018-08-23,12.5,12.539999961853027,12.260000228881836,12.5,12.5,214400
2018-08-24,12.489999771118164,12.930000305175781,12.350000381469727,12.5600004196167,12.5600004196167,327400
2018-08-27,12.399999618530273,12.600000381469727,12.25,12.5600004196167,12.5600004196167,257600
2018-08-28,12.649999618530273,13.5,12.550000190734863,12.970000267028809,12.970000267028809,396700
2018-08-29,12.960000038146973,13.050000190734863,12.75,12.84000015258789,12.84000015258789,109900
2018-08-30,12.859999656677246,13.75,12.8100004196167,13.6899995803833,13.6899995803833,321400
2018-08-31,13.75,13.960000038146973,13.390000343322754,13.789999961853027,13.789999961853027,242000
2018-09-04,14.079999923706055,16.239999771118164,14.0,15.819999694824219,15.819999694824219,777300
2018-09-05,16.290000915527344,16.40999984741211,15.199999809265137,15.850000381469727,15.850000381469727,724700
2018-09-06,15.90999984741211,16.1200008392334,14.010000228881836,15.649999618530273,15.649999618530273,401200
2018-09-07,15.619999885559082,16.049999237060547,15.0,15.850000381469727,15.850000381469727,292000
2018-09-10,15.84000015258789,16.0,15.40999984741211,15.649999618530273,15.649999618530273,222100
2018-09-11,15.630000114440918,15.949999809265137,15.039999961853027,15.289999961853027,15.289999961853027,308900
2018-09-12,15.039999961853027,15.390000343322754,14.5,14.649999618530273,14.649999618530273,326700
2018-09-13,14.420000076293945,15.34000015258789,14.050000190734863,15.3100004196167,15.3100004196167,428600
2018-09-14,15.25,15.899999618530273,14.930000305175781,15.600000381469727,15.600000381469727,334900
2018-09-17,15.550000190734863,15.6899995803833,14.710000038146973,14.84000015258789,14.84000015258789,177900
2018-09-18,14.75,15.300000190734863,14.75,14.890000343322754,14.890000343322754,227900
2018-09-19,14.9399995803833,15.15999984741211,14.4399995803833,14.449999809265137,14.449999809265137,153500
2018-09-20,14.260000228881836,15.140000343322754,13.0,13.5600004196167,13.5600004196167,369800
2018-09-21,13.449999809265137,13.9399995803833,13.449999809265137,13.8100004196167,13.8100004196167,1436800
2018-09-24,13.720000267028809,13.720000267028809,13.199999809265137,13.399999618530273,13.399999618530273,246300
2018-09-25,13.300000190734863,13.390000343322754,12.550000190734863,12.569999694824219,12.569999694824219,278700
2018-09-26,12.520000457763672,13.670000076293945,12.199999809265137,13.609999656677246,13.609999656677246,390200
2018-09-27,13.59000015258789,13.720000267028809,13.180000305175781,13.359999656677246,13.359999656677246,135200
2018-09-28,13.329999923706055,13.970000267028809,13.300000190734863,13.859999656677246,13.859999656677246,127700
2018-10-01,13.899999618530273,14.149999618530273,12.979999542236328,13.210000038146973,13.210000038146973,210000
2018-10-02,13.180000305175781,13.869999885559082,12.8100004196167,13.65999984741211,13.65999984741211,158200
2018-10-03,13.699999809265137,13.970000267028809,13.09000015258789,13.899999618530273,13.899999618530273,112200
2018-10-04,13.789999961853027,13.90999984741211,13.279999732971191,13.329999923706055,13.329999923706055,78400
2018-10-05,13.3100004196167,13.3100004196167,12.949999809265137,12.989999771118164,12.989999771118164,106900
2018-10-08,12.979999542236328,13.300000190734863,12.649999618530273,13.210000038146973,13.210000038146973,267300
2018-10-09,13.210000038146973,13.449999809265137,12.739999771118164,13.069999694824219,13.069999694824219,103000
2018-10-10,13.0600004196167,13.5600004196167,12.600000381469727,13.25,13.25,134000
2018-10-11,13.100000381469727,13.25,12.390000343322754,12.619999885559082,12.619999885559082,147000
2018-10-12,12.770000457763672,13.449999809265137,12.619999885559082,13.390000343322754,13.390000343322754,113400
2018-10-15,13.359999656677246,13.649999618530273,13.0,13.649999618530273,13.649999618530273,83100
2018-10-16,13.680000305175781,14.149999618530273,13.029999732971191,14.079999923706055,14.079999923706055,94200
2018-10-17,14.039999961853027,14.25,13.289999961853027,14.1899995803833,14.1899995803833,90200
2018-10-18,14.09000015258789,14.149999618530273,13.470000267028809,13.600000381469727,13.600000381469727,100400
2018-10-19,13.609999656677246,13.930000305175781,13.609999656677246,13.859999656677246,13.859999656677246,97400
2018-10-22,13.90999984741211,14.220000267028809,13.899999618530273,14.0600004196167,14.0600004196167,175800
2018-10-23,13.890000343322754,14.039999961853027,13.300000190734863,13.649999618530273,13.649999618530273,73600
2018-10-24,13.619999885559082,13.760000228881836,13.359999656677246,13.630000114440918,13.630000114440918,78100
2018-10-25,13.520000457763672,13.890000343322754,13.239999771118164,13.789999961853027,13.789999961853027,104400
2018-10-26,13.670000076293945,13.779999732971191,13.380000114440918,13.470000267028809,13.470000267028809,91300
2018-10-29,13.600000381469727,13.819999694824219,12.920000076293945,12.989999771118164,12.989999771118164,79800
2018-10-30,12.920000076293945,13.75,12.920000076293945,13.59000015258789,13.59000015258789,123200
2018-10-31,13.739999771118164,14.470000267028809,13.739999771118164,14.449999809265137,14.449999809265137,206600
2018-11-01,14.470000267028809,14.5,14.050000190734863,14.119999885559082,14.119999885559082,99800
2018-11-02,14.15999984741211,14.350000381469727,13.550000190734863,13.630000114440918,13.630000114440918,82200
2018-11-05,13.630000114440918,14.050000190734863,13.630000114440918,13.899999618530273,13.899999618530273,144400
2018-11-06,13.789999961853027,14.010000228881836,13.609999656677246,13.729999542236328,13.729999542236328,50000
2018-11-07,13.850000381469727,14.25,13.800000190734863,14.109999656677246,14.109999656677246,65100
2018-11-08,14.100000381469727,15.949999809265137,14.100000381469727,15.119999885559082,15.119999885559082,444500
2018-11-09,15.0,15.369999885559082,14.199999809265137,14.460000038146973,14.460000038146973,148900
2018-11-12,14.529999732971191,14.699999809265137,14.149999618530273,14.329999923706055,14.329999923706055,119100
2018-11-13,14.4399995803833,15.079999923706055,14.300000190734863,14.550000190734863,14.550000190734863,138400
2018-11-14,14.649999618530273,14.899999618530273,14.520000457763672,14.779999732971191,14.779999732971191,125300
2018-11-15,14.640000343322754,15.270000457763672,14.640000343322754,15.140000343322754,15.140000343322754,121500
2018-11-16,15.029999732971191,15.220000267028809,14.449999809265137,14.5600004196167,14.5600004196167,91200
2018-11-19,14.5600004196167,14.5600004196167,12.100000381469727,13.010000228881836,13.010000228881836,565900
2018-11-20,12.949999809265137,13.550000190734863,12.75,13.170000076293945,13.170000076293945,207400
2018-11-21,13.229999542236328,13.75,13.220000267028809,13.649999618530273,13.649999618530273,78200
2018-11-23,13.539999961853027,13.949999809265137,13.039999961853027,13.9399995803833,13.9399995803833,33200
2018-11-26,14.0,14.329999923706055,13.329999923706055,13.40999984741211,13.40999984741211,125900
2018-11-27,13.399999618530273,13.789999961853027,12.65999984741211,12.829999923706055,12.829999923706055,79400
2018-11-28,13.039999961853027,13.59000015258789,12.380000114440918,12.460000038146973,12.460000038146973,153400
2018-11-29,12.430000305175781,13.180000305175781,11.569999694824219,11.829999923706055,11.829999923706055,182400
2018-11-30,11.829999923706055,12.210000038146973,11.630000114440918,12.079999923706055,12.079999923706055,240300
2018-12-03,12.279999732971191,12.279999732971191,11.850000381469727,12.0,12.0,321000
2018-12-04,12.84000015258789,12.949999809265137,10.390000343322754,10.630000114440918,10.630000114440918,483800
2018-12-06,10.529999732971191,11.84000015258789,10.420000076293945,11.6899995803833,11.6899995803833,191500
2018-12-07,11.6899995803833,12.279999732971191,11.579999923706055,11.890000343322754,11.890000343322754,151700
2018-12-10,11.850000381469727,12.039999961853027,11.350000381469727,11.699999809265137,11.699999809265137,105900
2018-12-11,11.829999923706055,12.050000190734863,11.420000076293945,11.510000228881836,11.510000228881836,52100
2018-12-12,11.609999656677246,12.0600004196167,11.369999885559082,11.880000114440918,11.880000114440918,227300
2018-12-13,11.880000114440918,11.899999618530273,10.0,10.229999542236328,10.229999542236328,251000
2018-12-14,10.109999656677246,10.600000381469727,9.949999809265137,10.100000381469727,10.100000381469727,119900
2018-12-17,10.050000190734863,10.729999542236328,9.680000305175781,9.949999809265137,9.949999809265137,181000
2018-12-18,9.970000267028809,10.0,8.65999984741211,9.140000343322754,9.140000343322754,467200
2018-12-19,9.09000015258789,9.25,7.75,7.900000095367432,7.900000095367432,505700
2018-12-20,7.900000095367432,8.0,6.789999961853027,7.320000171661377,7.320000171661377,506900
2018-12-21,7.340000152587891,7.789999961853027,6.840000152587891,6.860000133514404,6.860000133514404,371000
2018-12-24,6.710000038146973,7.119999885559082,6.670000076293945,6.800000190734863,6.800000190734863,176200
2018-12-26,6.829999923706055,7.260000228881836,6.599999904632568,6.75,6.75,252100
2018-12-27,6.639999866485596,7.050000190734863,6.360000133514404,6.559999942779541,6.559999942779541,262200
2018-12-28,6.599999904632568,7.230000019073486,6.599999904632568,7.03000020980835,7.03000020980835,230500
2018-12-31,7.090000152587891,7.760000228881836,7.019999980926514,7.710000038146973,7.710000038146973,239400
2019-01-02,7.510000228881836,8.109999656677246,7.03000020980835,7.699999809265137,7.699999809265137,260100
2019-01-03,7.630000114440918,7.630000114440918,6.900000095367432,7.21999979019165,7.21999979019165,318000
2019-01-04,7.320000171661377,7.639999866485596,7.210000038146973,7.329999923706055,7.329999923706055,263200
2019-01-07,7.25,7.880000114440918,7.170000076293945,7.769999980926514,7.769999980926514,299700
2019-01-08,7.800000190734863,8.119999885559082,7.510000228881836,7.889999866485596,7.889999866485596,216700
2019-01-09,8.020000457763672,8.260000228881836,7.679999828338623,7.929999828338623,7.929999828338623,208500
2019-01-10,7.760000228881836,7.800000190734863,7.420000076293945,7.659999847412109,7.659999847412109,213100
2019-01-11,7.630000114440918,7.929999828338623,7.599999904632568,7.75,7.75,250100
2019-01-14,7.670000076293945,8.140000343322754,7.53000020980835,8.050000190734863,8.050000190734863,186600
2019-01-15,8.039999961853027,8.390000343322754,7.949999809265137,8.1899995803833,8.1899995803833,142500
2019-01-16,8.270000457763672,8.579999923706055,8.170000076293945,8.270000457763672,8.270000457763672,140900
2019-01-17,8.270000457763672,8.600000381469727,8.220000267028809,8.550000190734863,8.550000190734863,141900
2019-01-18,8.5600004196167,8.949999809265137,8.40999984741211,8.649999618530273,8.649999618530273,144700
2019-01-22,8.729999542236328,9.100000381469727,8.649999618530273,8.720000267028809,8.720000267028809,249800
2019-01-23,8.760000228881836,8.9399995803833,8.25,8.420000076293945,8.420000076293945,173500
2019-01-24,8.510000228881836,8.680000305175781,8.25,8.479999542236328,8.479999542236328,185800
2019-01-25,8.550000190734863,8.890000343322754,8.359999656677246,8.739999771118164,8.739999771118164,162600
2019-01-28,8.789999961853027,9.239999771118164,8.670000076293945,9.039999961853027,9.039999961853027,144100
2019-01-29,9.109999656677246,9.369999885559082,8.699999809265137,8.819999694824219,8.819999694824219,153200
2019-01-30,8.899999618530273,9.359999656677246,8.850000381469727,9.25,9.25,105900
2019-01-31,9.279999732971191,9.369999885559082,8.649999618530273,8.75,8.75,107800
2019-02-01,8.369999885559082,8.75,8.279999732971191,8.729999542236328,8.729999542236328,208200
2019-02-04,8.779999732971191,9.279999732971191,8.729999542236328,9.010000228881836,9.010000228881836,201200
2019-02-05,9.460000038146973,9.90999984741211,7.869999885559082,8.579999923706055,8.579999923706055,719900
2019-02-06,8.4399995803833,8.989999771118164,8.4399995803833,8.649999618530273,8.649999618530273,421600
2019-02-07,8.649999618530273,8.979999542236328,8.550000190734863,8.729999542236328,8.729999542236328,299900
2019-02-08,8.699999809265137,8.9399995803833,8.649999618530273,8.800000190734863,8.800000190734863,209800
2019-02-11,8.8100004196167,9.210000038146973,8.710000038146973,8.800000190734863,8.800000190734863,184500
2019-02-12,8.880000114440918,9.149999618530273,8.869999885559082,9.109999656677246,9.109999656677246,222300
2019-02-13,9.149999618530273,9.1899995803833,8.8100004196167,8.960000038146973,8.960000038146973,155100
2019-02-14,9.029999732971191,9.680000305175781,9.010000228881836,9.520000457763672,9.520000457763672,404900
2019-02-15,9.550000190734863,9.720000267028809,9.220000267028809,9.390000343322754,9.390000343322754,309000
2019-02-19,9.399999618530273,9.720000267028809,9.390000343322754,9.680000305175781,9.680000305175781,266900
2019-02-20,9.630000114440918,9.800000190734863,9.3100004196167,9.329999923706055,9.329999923706055,179600
2019-02-21,9.369999885559082,9.899999618530273,9.210000038146973,9.800000190734863,9.800000190734863,268600
2019-02-22,9.779999732971191,10.100000381469727,9.699999809265137,10.029999732971191,10.029999732971191,190800
2019-02-25,10.09000015258789,10.630000114440918,9.449999809265137,9.710000038146973,9.710000038146973,318600
2019-02-26,9.699999809265137,10.600000381469727,9.579999923706055,10.210000038146973,10.210000038146973,337900
2019-02-27,10.180000305175781,10.34000015258789,9.9399995803833,10.050000190734863,10.050000190734863,94300
2019-02-28,10.0600004196167,10.260000228881836,9.800000190734863,10.069999694824219,10.069999694824219,157500
2019-03-01,10.09000015258789,10.34000015258789,9.539999961853027,9.850000381469727,9.850000381469727,162300
2019-03-04,9.880000114440918,9.930000305175781,9.5,9.720000267028809,9.720000267028809,243900
2019-03-05,9.770000457763672,9.819999694824219,9.359999656677246,9.529999732971191,9.529999732971191,155900
2019-03-06,9.539999961853027,9.75,9.199999809265137,9.40999984741211,9.40999984741211,362000
2019-03-07,9.399999618530273,9.720000267028809,9.210000038146973,9.59000015258789,9.59000015258789,206900
2019-03-08,9.550000190734863,9.720000267028809,9.289999961853027,9.619999885559082,9.619999885559082,201000
2019-03-11,9.619999885559082,9.710000038146973,9.350000381469727,9.40999984741211,9.40999984741211,174200
2019-03-12,9.430000305175781,9.449999809265137,8.949999809265137,9.34000015258789,9.34000015258789,209200
2019-03-13,9.369999885559082,9.550000190734863,9.029999732971191,9.460000038146973,9.460000038146973,255100
2019-03-14,9.470000267028809,9.5600004196167,9.239999771118164,9.520000457763672,9.520000457763672,188000
2019-03-15,9.520000457763672,9.5600004196167,9.140000343322754,9.40999984741211,9.40999984741211,353400
2019-03-18,9.40999984741211,9.40999984741211,9.220000267028809,9.34000015258789,9.34000015258789,183200
2019-03-19,9.380000114440918,9.430000305175781,9.199999809265137,9.359999656677246,9.359999656677246,189000
2019-03-20,9.369999885559082,9.369999885559082,9.0,9.15999984741211,9.15999984741211,125900
2019-03-21,9.149999618530273,9.210000038146973,8.510000228881836,8.739999771118164,8.739999771118164,280600
2019-03-22,8.729999542236328,8.729999542236328,8.229999542236328,8.5,8.5,298200
2019-03-25,8.5,8.5,7.96999979019165,8.279999732971191,8.279999732971191,178800
2019-03-26,8.390000343322754,8.40999984741211,8.020000457763672,8.130000114440918,8.130000114440918,225800
2019-03-27,8.170000076293945,8.489999771118164,8.149999618530273,8.390000343322754,8.390000343322754,202900
2019-03-28,8.40999984741211,8.479999542236328,8.180000305175781,8.399999618530273,8.399999618530273,166000
2019-03-29,8.449999809265137,8.510000228881836,8.149999618530273,8.34000015258789,8.34000015258789,176500
2019-04-01,8.430000305175781,8.729999542236328,8.40999984741211,8.640000343322754,8.640000343322754,141900
2019-04-02,8.710000038146973,8.800000190734863,8.460000038146973,8.59000015258789,8.59000015258789,90100
2019-04-03,8.65999984741211,8.880000114440918,8.649999618530273,8.710000038146973,8.710000038146973,76900
2019-04-04,8.720000267028809,8.800000190734863,8.529999732971191,8.569999694824219,8.569999694824219,101200
2019-04-05,8.640000343322754,8.699999809265137,8.350000381469727,8.399999618530273,8.399999618530273,121000
2019-04-08,8.359999656677246,8.359999656677246,8.010000228881836,8.270000457763672,8.270000457763672,226300
2019-04-09,8.25,8.399999618530273,8.130000114440918,8.15999984741211,8.15999984741211,99600
2019-04-10,8.270000457763672,8.350000381469727,8.0600004196167,8.34000015258789,8.34000015258789,153900
2019-04-11,8.329999923706055,8.470000267028809,8.199999809265137,8.460000038146973,8.460000038146973,127100
2019-04-12,8.489999771118164,9.069999694824219,8.329999923706055,8.479999542236328,8.479999542236328,238500
2019-04-15,8.4399995803833,8.520000457763672,8.0600004196167,8.100000381469727,8.100000381469727,93900
2019-04-16,8.149999618530273,8.289999961853027,8.029999732971191,8.050000190734863,8.050000190734863,86000
2019-04-17,8.130000114440918,8.390000343322754,8.069999694824219,8.279999732971191,8.279999732971191,88300
2019-04-18,8.229999542236328,8.65999984741211,8.220000267028809,8.470000267028809,8.470000267028809,116000
2019-04-22,8.470000267028809,8.75,8.34000015258789,8.619999885559082,8.619999885559082,114600
2019-04-23,8.609999656677246,8.770000457763672,8.550000190734863,8.670000076293945,8.670000076293945,135700
2019-04-24,8.6899995803833,8.869999885559082,8.670000076293945,8.789999961853027,8.789999961853027,121800
2019-04-25,8.800000190734863,8.829999923706055,8.609999656677246,8.729999542236328,8.729999542236328,74500
2019-04-26,8.819999694824219,8.859999656677246,8.649999618530273,8.75,8.75,108600
2019-04-29,8.819999694824219,9.119999885559082,8.75,9.100000381469727,9.100000381469727,89900
2019-04-30,8.949999809265137,9.199999809265137,8.949999809265137,9.140000343322754,9.140000343322754,135400
2019-05-01,9.170000076293945,9.170000076293945,8.949999809265137,9.029999732971191,9.029999732971191,95900
2019-05-02,9.029999732971191,9.149999618530273,8.770000457763672,9.140000343322754,9.140000343322754,95700
2019-05-03,9.079999923706055,9.300000190734863,9.079999923706055,9.289999961853027,9.289999961853027,98600
2019-05-06,9.109999656677246,9.369999885559082,8.979999542236328,9.300000190734863,9.300000190734863,79000
2019-05-07,9.170000076293945,9.289999961853027,9.020000457763672,9.15999984741211,9.15999984741211,119700
2019-05-08,9.079999923706055,9.329999923706055,9.079999923706055,9.170000076293945,9.170000076293945,111900
2019-05-09,9.100000381469727,9.369999885559082,8.979999542236328,9.34000015258789,9.34000015258789,402900
2019-05-10,9.270000457763672,9.449999809265137,8.949999809265137,9.199999809265137,9.199999809265137,828500
2019-05-13,9.079999923706055,9.380000114440918,8.65999984741211,8.8100004196167,8.8100004196167,254200
2019-05-14,8.819999694824219,9.09000015258789,8.710000038146973,8.970000267028809,8.970000267028809,178000
2019-05-15,8.960000038146973,9.130000114440918,8.869999885559082,9.020000457763672,9.020000457763672,105800
2019-05-16,9.050000190734863,9.09000015258789,8.670000076293945,8.899999618530273,8.899999618530273,106800
2019-05-17,8.800000190734863,9.0600004196167,8.770000457763672,8.850000381469727,8.850000381469727,88800
2019-05-20,8.829999923706055,8.920000076293945,8.75,8.819999694824219,8.819999694824219,74200
2019-05-21,8.819999694824219,9.0600004196167,8.779999732971191,9.0,9.0,125800
2019-05-22,8.930000305175781,9.079999923706055,8.789999961853027,8.880000114440918,8.880000114440918,131000
2019-05-23,8.8100004196167,9.069999694824219,8.770000457763672,8.960000038146973,8.960000038146973,129800
2019-05-24,8.979999542236328,9.180000305175781,8.890000343322754,9.079999923706055,9.079999923706055,150400
2019-05-28,9.079999923706055,9.180000305175781,9.0,9.100000381469727,9.100000381469727,141000
2019-05-29,9.09000015258789,9.180000305175781,8.90999984741211,9.109999656677246,9.109999656677246,186700
2019-05-30,9.069999694824219,9.300000190734863,8.9399995803833,9.260000228881836,9.260000228881836,196600
2019-05-31,9.170000076293945,9.300000190734863,8.989999771118164,9.119999885559082,9.119999885559082,213800
2019-06-03,9.0600004196167,9.130000114440918,8.619999885559082,9.0,9.0,202900
2019-06-04,9.09000015258789,9.119999885559082,8.760000228881836,8.869999885559082,8.869999885559082,165300
2019-06-05,9.149999618530273,9.369999885559082,9.09000015258789,9.300000190734863,9.300000190734863,947900
2019-06-06,9.369999885559082,9.609999656677246,9.3100004196167,9.539999961853027,9.539999961853027,347700
2019-06-07,9.649999618530273,10.180000305175781,9.649999618530273,10.149999618530273,10.149999618530273,531900
2019-06-10,10.260000228881836,10.75,10.260000228881836,10.449999809265137,10.449999809265137,320100
2019-06-11,10.59000015258789,10.699999809265137,10.100000381469727,10.319999694824219,10.319999694824219,270700
2019-06-12,10.25,10.449999809265137,10.25,10.359999656677246,10.359999656677246,286300
2019-06-13,10.380000114440918,10.920000076293945,10.380000114440918,10.619999885559082,10.619999885559082,343800
2019-06-14,10.6899995803833,11.079999923706055,10.670000076293945,10.850000381469727,10.850000381469727,642400
2019-06-17,10.970000267028809,11.079999923706055,10.539999961853027,10.600000381469727,10.600000381469727,296700
2019-06-18,10.710000038146973,10.9399995803833,10.380000114440918,10.59000015258789,10.59000015258789,264700
2019-06-19,10.649999618530273,10.84000015258789,10.569999694824219,10.670000076293945,10.670000076293945,322900
2019-06-20,10.8100004196167,10.979999542236328,10.5600004196167,10.869999885559082,10.869999885559082,247300
2019-06-21,10.8100004196167,11.050000190734863,10.640000343322754,10.65999984741211,10.65999984741211,315000
2019-06-24,10.65999984741211,10.710000038146973,10.119999885559082,10.140000343322754,10.140000343322754,199900
2019-06-25,10.130000114440918,10.579999923706055,9.569999694824219,9.600000381469727,9.600000381469727,337800
2019-06-26,9.600000381469727,9.989999771118164,9.180000305175781,9.329999923706055,9.329999923706055,467600
2019-06-27,9.369999885559082,9.640000343322754,9.180000305175781,9.1899995803833,9.1899995803833,328200
2019-06-28,9.25,9.510000228881836,8.930000305175781,9.140000343322754,9.140000343322754,1477900
2019-07-01,9.229999542236328,9.6899995803833,9.180000305175781,9.520000457763672,9.520000457763672,440500
2019-07-02,9.539999961853027,9.75,9.3100004196167,9.380000114440918,9.380000114440918,180000
2019-07-03,9.430000305175781,9.739999771118164,9.40999984741211,9.470000267028809,9.470000267028809,87200
2019-07-05,9.4399995803833,9.75,9.40999984741211,9.640000343322754,9.640000343322754,170500
2019-07-08,9.640000343322754,9.649999618530273,9.399999618530273,9.529999732971191,9.529999732971191,230300
2019-07-09,9.529999732971191,9.630000114440918,9.3100004196167,9.470000267028809,9.470000267028809,172800
2019-07-10,9.529999732971191,9.59000015258789,9.40999984741211,9.529999732971191,9.529999732971191,199200
2019-07-11,9.5600004196167,9.59000015258789,9.359999656677246,9.40999984741211,9.40999984741211,111800
2019-07-12,9.619999885559082,10.100000381469727,9.600000381469727,9.880000114440918,9.880000114440918,311500
2019-07-15,9.979999542236328,10.020000457763672,9.8100004196167,9.890000343322754,9.890000343322754,296100
2019-07-16,9.960000038146973,10.239999771118164,9.960000038146973,10.15999984741211,10.15999984741211,303000
2019-07-17,10.229999542236328,10.350000381469727,10.119999885559082,10.140000343322754,10.140000343322754,246800
2019-07-18,10.1899995803833,10.34000015258789,10.140000343322754,10.229999542236328,10.229999542236328,157500
2019-07-19,10.239999771118164,10.430000305175781,10.050000190734863,10.09000015258789,10.09000015258789,268700
2019-07-22,10.119999885559082,10.350000381469727,10.109999656677246,10.140000343322754,10.140000343322754,265200
2019-07-23,10.170000076293945,10.449999809265137,10.15999984741211,10.449999809265137,10.449999809265137,252100
2019-07-24,10.449999809265137,10.869999885559082,10.449999809265137,10.770000457763672,10.770000457763672,331600
2019-07-25,10.779999732971191,10.850000381469727,10.270000457763672,10.359999656677246,10.359999656677246,203900
2019-07-26,10.359999656677246,10.449999809265137,10.079999923706055,10.140000343322754,10.140000343322754,193100
2019-07-29,10.140000343322754,10.140000343322754,9.859999656677246,10.119999885559082,10.119999885559082,262300
2019-07-30,10.029999732971191,10.329999923706055,9.960000038146973,10.319999694824219,10.319999694824219,257900
2019-07-31,10.350000381469727,10.65999984741211,10.220000267028809,10.239999771118164,10.239999771118164,310800
2019-08-01,10.210000038146973,10.350000381469727,9.760000228881836,9.8100004196167,9.8100004196167,177600
2019-08-02,9.699999809265137,9.770000457763672,9.130000114440918,9.460000038146973,9.460000038146973,253900
2019-08-05,9.319999694824219,9.34000015258789,8.800000190734863,9.130000114440918,9.130000114440918,267600
2019-08-06,9.220000267028809,9.40999984741211,9.050000190734863,9.350000381469727,9.350000381469727,193500
2019-08-07,9.329999923706055,9.720000267028809,9.199999809265137,9.600000381469727,9.600000381469727,170300
2019-08-08,9.65999984741211,9.970000267028809,9.649999618530273,9.770000457763672,9.770000457763672,180400
2019-08-09,9.0,9.100000381469727,5.349999904632568,6.619999885559082,6.619999885559082,3117700
2019-08-12,6.610000133514404,6.739999771118164,5.789999961853027,5.840000152587891,5.840000152587891,748500
2019-08-13,5.900000095367432,6.25,5.900000095367432,6.139999866485596,6.139999866485596,609000
2019-08-14,6.25,6.349999904632568,5.849999904632568,6.190000057220459,6.190000057220459,637800
2019-08-15,6.239999771118164,6.360000133514404,5.730000019073486,5.829999923706055,5.829999923706055,369500
2019-08-16,5.889999866485596,6.210000038146973,5.760000228881836,6.139999866485596,6.139999866485596,416700
2019-08-19,6.260000228881836,6.559999942779541,6.21999979019165,6.480000019073486,6.480000019073486,376300
2019-08-20,6.5,6.539999961853027,6.190000057220459,6.260000228881836,6.260000228881836,410700
2019-08-21,6.300000190734863,6.590000152587891,6.199999809265137,6.25,6.25,251600
2019-08-22,6.25,6.289999961853027,6.050000190734863,6.059999942779541,6.059999942779541,182200
2019-08-23,6.050000190734863,6.119999885559082,5.960000038146973,6.010000228881836,6.010000228881836,378800
2019-08-26,6.099999904632568,6.699999809265137,6.090000152587891,6.460000038146973,6.460000038146973,428200
2019-08-27,6.480000019073486,6.570000171661377,6.289999961853027,6.329999923706055,6.329999923706055,445700
2019-08-28,6.289999961853027,6.579999923706055,6.260000228881836,6.389999866485596,6.389999866485596,289200
2019-08-29,6.460000038146973,6.800000190734863,6.420000076293945,6.71999979019165,6.71999979019165,466100
2019-08-30,6.699999809265137,6.769999980926514,6.449999809265137,6.460000038146973,6.460000038146973,1076500
2019-09-03,6.360000133514404,6.579999923706055,6.199999809265137,6.460000038146973,6.460000038146973,345300
2019-09-04,6.420000076293945,6.610000133514404,6.420000076293945,6.559999942779541,6.559999942779541,294100
2019-09-05,6.650000095367432,6.739999771118164,6.340000152587891,6.650000095367432,6.650000095367432,648500
2019-09-06,6.650000095367432,6.75,6.409999847412109,6.489999771118164,6.489999771118164,418700
2019-09-09,6.519999980926514,7.070000171661377,6.489999771118164,7.010000228881836,7.010000228881836,349900
2019-09-10,7.099999904632568,7.460000038146973,7.039999961853027,7.269999980926514,7.269999980926514,406700
2019-09-11,7.28000020980835,7.650000095367432,7.25,7.519999980926514,7.519999980926514,276800
2019-09-12,7.519999980926514,7.710000038146973,7.389999866485596,7.53000020980835,7.53000020980835,315300
2019-09-13,7.619999885559082,8.100000381469727,7.619999885559082,7.789999961853027,7.789999961853027,394000
2019-09-16,7.630000114440918,7.820000171661377,7.400000095367432,7.550000190734863,7.550000190734863,216300
2019-09-17,7.5,7.5,7.199999809265137,7.409999847412109,7.409999847412109,263100
2019-09-18,7.400000095367432,7.429999828338623,7.099999904632568,7.289999961853027,7.289999961853027,187000
2019-09-19,7.28000020980835,7.440000057220459,7.150000095367432,7.239999771118164,7.239999771118164,194900
2019-09-20,7.269999980926514,7.579999923706055,7.230000019073486,7.46999979019165,7.46999979019165,400000
2019-09-23,7.46999979019165,7.539999961853027,7.210000038146973,7.409999847412109,7.409999847412109,196500
2019-09-24,7.389999866485596,7.46999979019165,7.130000114440918,7.170000076293945,7.170000076293945,262900
2019-09-25,7.179999828338623,7.320000171661377,7.119999885559082,7.260000228881836,7.260000228881836,137800
2019-09-26,7.269999980926514,7.269999980926514,6.800000190734863,6.880000114440918,6.880000114440918,190800
2019-09-27,6.900000095367432,7.179999828338623,6.78000020980835,6.809999942779541,6.809999942779541,195400
2019-09-30,6.840000152587891,6.869999885559082,6.429999828338623,6.75,6.75,272600
2019-10-01,6.78000020980835,6.849999904632568,6.409999847412109,6.489999771118164,6.489999771118164,224900
2019-10-02,6.46999979019165,6.570000171661377,5.960000038146973,6.309999942779541,6.309999942779541,356400
2019-10-03,6.239999771118164,6.320000171661377,5.980000019073486,6.25,6.25,355300
2019-10-04,6.239999771118164,6.489999771118164,6.239999771118164,6.349999904632568,6.349999904632568,245400
2019-10-07,6.340000152587891,6.690000057220459,6.260000228881836,6.5,6.5,117900
2019-10-08,6.420000076293945,6.679999828338623,6.360000133514404,6.5,6.5,160600
2019-10-09,6.539999961853027,6.599999904632568,6.21999979019165,6.380000114440918,6.380000114440918,147200
2019-10-10,6.349999904632568,6.429999828338623,6.260000228881836,6.340000152587891,6.340000152587891,133200
2019-10-11,6.409999847412109,6.590000152587891,6.409999847412109,6.429999828338623,6.429999828338623,168300
2019-10-14,6.429999828338623,7.050000190734863,6.349999904632568,7.03000020980835,7.03000020980835,224100
2019-10-15,7.079999923706055,7.440000057220459,7.050000190734863,7.409999847412109,7.409999847412109,660600
2019-10-16,7.460000038146973,7.940000057220459,7.190000057220459,7.230000019073486,7.230000019073486,338300
2019-10-17,7.28000020980835,7.349999904632568,7.170000076293945,7.269999980926514,7.269999980926514,101400
2019-10-18,7.199999809265137,7.380000114440918,7.010000228881836,7.050000190734863,7.050000190734863,125000
2019-10-21,7.159999847412109,7.380000114440918,7.090000152587891,7.329999923706055,7.329999923706055,321900
2019-10-22,7.25,7.849999904632568,7.210000038146973,7.710000038146973,7.710000038146973,419300
2019-10-23,7.699999809265137,7.769999980926514,7.320000171661377,7.460000038146973,7.460000038146973,235300
2019-10-24,7.519999980926514,7.730000019073486,7.440000057220459,7.460000038146973,7.460000038146973,366700
2019-10-25,7.400000095367432,7.800000190734863,7.400000095367432,7.679999828338623,7.679999828338623,280100
2019-10-28,7.71999979019165,7.840000152587891,7.679999828338623,7.739999771118164,7.739999771118164,193700
2019-10-29,7.71999979019165,7.96999979019165,7.489999771118164,7.75,7.75,256400
2019-10-30,7.71999979019165,7.809999942779541,7.630000114440918,7.769999980926514,7.769999980926514,151200
2019-10-31,7.730000019073486,7.869999885559082,7.510000228881836,7.619999885559082,7.619999885559082,150400
2019-11-01,7.650000095367432,7.809999942779541,7.519999980926514,7.639999866485596,7.639999866485596,141800
2019-11-04,7.760000228881836,7.760000228881836,7.5,7.550000190734863,7.550000190734863,257300
2019-11-05,7.570000171661377,7.710000038146973,7.260000228881836,7.329999923706055,7.329999923706055,266200
2019-11-06,7.320000171661377,7.409999847412109,7.110000133514404,7.349999904632568,7.349999904632568,228900
2019-11-07,7.360000133514404,7.639999866485596,7.360000133514404,7.599999904632568,7.599999904632568,185100
2019-11-08,7.670000076293945,7.670000076293945,7.389999866485596,7.429999828338623,7.429999828338623,222000
2019-11-11,7.429999828338623,7.460000038146973,7.25,7.300000190734863,7.300000190734863,226200
2019-11-12,7.320000171661377,7.329999923706055,7.019999980926514,7.110000133514404,7.110000133514404,110700
2019-11-13,7.0,7.079999923706055,6.940000057220459,7.019999980926514,7.019999980926514,131200
2019-11-14,7.019999980926514,7.139999866485596,6.989999771118164,7.059999942779541,7.059999942779541,126400
2019-11-15,7.110000133514404,7.340000152587891,7.110000133514404,7.190000057220459,7.190000057220459,150900
2019-11-18,7.199999809265137,7.199999809265137,7.050000190734863,7.099999904632568,7.099999904632568,189800
2019-11-19,7.199999809265137,7.25,7.039999961853027,7.090000152587891,7.090000152587891,201700
2019-11-20,7.070000171661377,7.170000076293945,6.920000076293945,7.090000152587891,7.090000152587891,217800
2019-11-21,7.099999904632568,7.170000076293945,6.949999809265137,6.96999979019165,6.96999979019165,203900
2019-11-22,7.0,7.099999904632568,6.920000076293945,7.059999942779541,7.059999942779541,182900
2019-11-25,7.070000171661377,7.329999923706055,7.019999980926514,7.110000133514404,7.110000133514404,256800
2019-11-26,7.110000133514404,7.28000020980835,7.090000152587891,7.159999847412109,7.159999847412109,171900
2019-11-27,7.110000133514404,7.239999771118164,7.110000133514404,7.150000095367432,7.150000095367432,188800
2019-11-29,7.110000133514404,7.320000171661377,7.059999942779541,7.269999980926514,7.269999980926514,116500
2019-12-02,7.309999942779541,7.429999828338623,6.960000038146973,7.0,7.0,268100
2019-12-03,7.010000228881836,8.229999542236328,6.949999809265137,8.09000015258789,8.09000015258789,1524900
2019-12-04,8.149999618530273,8.6899995803833,8.149999618530273,8.430000305175781,8.430000305175781,767000
2019-12-05,8.399999618530273,8.75,8.319999694824219,8.729999542236328,8.729999542236328,501100
2019-12-06,8.75,8.920000076293945,8.6899995803833,8.890000343322754,8.890000343322754,483000
2019-12-09,8.800000190734863,9.25,8.800000190734863,9.109999656677246,9.109999656677246,594200
2019-12-10,9.029999732971191,9.15999984741211,8.970000267028809,9.069999694824219,9.069999694824219,509700
2019-12-11,9.029999732971191,9.300000190734863,8.9399995803833,9.260000228881836,9.260000228881836,677200
2019-12-12,9.300000190734863,9.5,8.720000267028809,8.829999923706055,8.829999923706055,1556600
2019-12-13,8.84000015258789,9.039999961853027,8.710000038146973,8.859999656677246,8.859999656677246,489000
2019-12-16,8.970000267028809,9.050000190734863,8.6899995803833,8.75,8.75,466600
2019-12-17,8.819999694824219,8.880000114440918,8.479999542236328,8.8100004196167,8.8100004196167,1285100
2019-12-18,8.859999656677246,9.020000457763672,8.680000305175781,8.760000228881836,8.760000228881836,424900
2019-12-19,8.859999656677246,9.020000457763672,8.710000038146973,8.979999542236328,8.979999542236328,548300
2019-12-20,9.0,9.0,8.819999694824219,8.979999542236328,8.979999542236328,725000
2019-12-23,9.0,9.609999656677246,8.989999771118164,9.399999618530273,9.399999618530273,696700
2019-12-24,9.430000305175781,9.640000343322754,9.229999542236328,9.520000457763672,9.520000457763672,186300
2019-12-26,9.5,9.649999618530273,9.350000381469727,9.40999984741211,9.40999984741211,216800
2019-12-27,9.430000305175781,9.430000305175781,8.989999771118164,9.140000343322754,9.140000343322754,296000
2019-12-30,9.09000015258789,9.149999618530273,8.869999885559082,8.949999809265137,8.949999809265137,272300
2019-12-31,8.899999618530273,9.140000343322754,8.899999618530273,8.9399995803833,8.9399995803833,241100
2020-01-02,8.960000038146973,9.100000381469727,8.779999732971191,8.84000015258789,8.84000015258789,248100
2020-01-03,8.75,8.850000381469727,8.529999732971191,8.6899995803833,8.6899995803833,281500
2020-01-06,8.5600004196167,8.760000228881836,8.520000457763672,8.5600004196167,8.5600004196167,233100
2020-01-07,8.5600004196167,8.670000076293945,8.520000457763672,8.579999923706055,8.579999923706055,172400
2020-01-08,8.550000190734863,8.899999618530273,8.529999732971191,8.6899995803833,8.6899995803833,276500
2020-01-09,8.729999542236328,8.9399995803833,8.720000267028809,8.789999961853027,8.789999961853027,161600
2020-01-10,8.779999732971191,8.789999961853027,8.579999923706055,8.640000343322754,8.640000343322754,161600
2020-01-13,8.649999618530273,8.779999732971191,8.5600004196167,8.699999809265137,8.699999809265137,217300
2020-01-14,8.680000305175781,9.079999923706055,8.680000305175781,8.869999885559082,8.869999885559082,303300
2020-01-15,8.899999618530273,9.079999923706055,8.850000381469727,8.960000038146973,8.960000038146973,181400
2020-01-16,9.010000228881836,9.460000038146973,9.010000228881836,9.359999656677246,9.359999656677246,247300
2020-01-17,9.4399995803833,9.489999771118164,9.15999984741211,9.270000457763672,9.270000457763672,215500
2020-01-21,9.300000190734863,9.300000190734863,8.960000038146973,9.069999694824219,9.069999694824219,200900
2020-01-22,9.09000015258789,9.100000381469727,8.979999542236328,9.0,9.0,138700
2020-01-23,9.100000381469727,9.399999618530273,8.819999694824219,9.369999885559082,9.369999885559082,187900
2020-01-24,9.399999618530273,9.399999618530273,9.069999694824219,9.210000038146973,9.210000038146973,115400
2020-01-27,9.0,9.029999732971191,8.6899995803833,8.710000038146973,8.710000038146973,356300
2020-01-28,8.739999771118164,8.859999656677246,8.430000305175781,8.640000343322754,8.640000343322754,219600
2020-01-29,8.699999809265137,8.890000343322754,8.449999809265137,8.600000381469727,8.600000381469727,134300
2020-01-30,8.520000457763672,8.699999809265137,8.420000076293945,8.65999984741211,8.65999984741211,155400
2020-01-31,8.619999885559082,8.770000457763672,8.449999809265137,8.539999961853027,8.539999961853027,416900
2020-02-03,8.600000381469727,8.720000267028809,8.109999656677246,8.289999961853027,8.289999961853027,203300
2020-02-04,8.40999984741211,8.449999809265137,8.170000076293945,8.239999771118164,8.239999771118164,203900
2020-02-05,8.329999923706055,8.489999771118164,8.260000228881836,8.350000381469727,8.350000381469727,162300
2020-02-06,8.430000305175781,8.5,8.170000076293945,8.25,8.25,154300
2020-02-07,8.199999809265137,8.25,7.599999904632568,7.809999942779541,7.809999942779541,284800
2020-02-10,7.809999942779541,7.940000057220459,7.53000020980835,7.909999847412109,7.909999847412109,261200
2020-02-11,7.949999809265137,8.579999923706055,7.369999885559082,8.460000038146973,8.460000038146973,612700
2020-02-12,8.510000228881836,8.640000343322754,8.289999961853027,8.350000381469727,8.350000381469727,172000
2020-02-13,8.300000190734863,8.3100004196167,7.989999771118164,8.09000015258789,8.09000015258789,108300
2020-02-14,8.09000015258789,8.149999618530273,7.860000133514404,7.940000057220459,7.940000057220459,190800
2020-02-18,7.949999809265137,8.020000457763672,7.550000190734863,7.690000057220459,7.690000057220459,190800
2020-02-19,7.739999771118164,7.769999980926514,7.570000171661377,7.610000133514404,7.610000133514404,142200
2020-02-20,7.610000133514404,7.909999847412109,7.550000190734863,7.769999980926514,7.769999980926514,278100
2020-02-21,7.699999809265137,7.800000190734863,7.599999904632568,7.679999828338623,7.679999828338623,293300
2020-02-24,7.380000114440918,7.440000057220459,7.110000133514404,7.239999771118164,7.239999771118164,292100
2020-02-25,7.25,7.25,6.679999828338623,6.699999809265137,6.699999809265137,430800
2020-02-26,6.75,6.820000171661377,6.260000228881836,6.300000190734863,6.300000190734863,237800
2020-02-27,6.139999866485596,6.380000114440918,5.849999904632568,5.900000095367432,5.900000095367432,519200
2020-02-28,5.75,5.949999809265137,5.659999847412109,5.769999980926514,5.769999980926514,329400
2020-03-02,5.869999885559082,6.130000114440918,5.699999809265137,5.949999809265137,5.949999809265137,399200
2020-03-03,5.929999828338623,6.179999828338623,5.650000095367432,5.809999942779541,5.809999942779541,307500
2020-03-04,5.900000095367432,6.079999923706055,5.650000095367432,6.059999942779541,6.059999942779541,369200
2020-03-05,5.869999885559082,5.900000095367432,5.199999809265137,5.340000152587891,5.340000152587891,606500
2020-03-06,5.110000133514404,5.769999980926514,5.0,5.760000228881836,5.760000228881836,533900
2020-03-09,5.269999980926514,5.5,5.019999980926514,5.190000057220459,5.190000057220459,418800
2020-03-10,5.440000057220459,5.590000152587891,4.800000190734863,5.429999828338623,5.429999828338623,605000
2020-03-11,5.309999942779541,5.349999904632568,4.46999979019165,4.53000020980835,4.53000020980835,379800
2020-03-12,4.139999866485596,4.400000095367432,3.630000114440918,3.7300000190734863,3.7300000190734863,781400
2020-03-13,4.010000228881836,4.949999809265137,3.4600000381469727,4.71999979019165,4.71999979019165,1491100
2020-03-16,3.9200000762939453,4.099999904632568,3.5299999713897705,3.7200000286102295,3.7200000286102295,890100
2020-03-17,3.7200000286102295,4.46999979019165,3.200000047683716,3.4000000953674316,3.4000000953674316,955300
2020-03-18,3.390000104904175,3.549999952316284,2.390000104904175,2.890000104904175,2.890000104904175,793200
2020-03-19,2.799999952316284,3.2100000381469727,2.319999933242798,2.700000047683716,2.700000047683716,1023800
2020-03-20,2.869999885559082,3.700000047683716,2.869999885559082,3.130000114440918,3.130000114440918,1417200
2020-03-23,3.190000057220459,3.359999895095825,2.7100000381469727,3.0199999809265137,3.0199999809265137,846900
2020-03-24,3.3499999046325684,3.569999933242798,3.1700000762939453,3.430000066757202,3.430000066757202,853700
2020-03-25,3.7899999618530273,3.859999895095825,3.0,3.240000009536743,3.240000009536743,1692100
2020-03-26,3.549999952316284,4.989999771118164,3.25,4.090000152587891,4.090000152587891,1268600
2020-03-27,4.090000152587891,4.210000038146973,3.5,3.940000057220459,3.940000057220459,831900
2020-03-30,3.7300000190734863,3.7300000190734863,2.9600000381469727,3.109999895095825,3.109999895095825,1419400
2020-03-31,3.180000066757202,3.369999885559082,3.0,3.2899999618530273,3.2899999618530273,844900
2020-04-01,3.0199999809265137,3.2100000381469727,2.9000000953674316,3.0299999713897705,3.0299999713897705,513500
2020-04-02,3.009999990463257,3.109999895095825,2.5,2.5199999809265137,2.5199999809265137,951400
2020-04-03,2.5,2.549999952316284,2.049999952316284,2.130000114440918,2.130000114440918,1148400
2020-04-06,2.259999990463257,2.5299999713897705,2.0999999046325684,2.5199999809265137,2.5199999809265137,1978400
2020-04-07,3.0999999046325684,3.8399999141693115,2.6500000953674316,2.740000009536743,2.740000009536743,1565500
2020-04-08,2.8499999046325684,3.25,2.759999990463257,3.25,3.25,807100
2020-04-09,3.450000047683716,4.099999904632568,3.380000114440918,3.9800000190734863,3.9800000190734863,1130000
2020-04-13,4.059999942779541,4.179999828338623,3.2899999618530273,3.859999895095825,3.859999895095825,723500
2020-04-14,4.070000171661377,4.400000095367432,3.869999885559082,4.159999847412109,4.159999847412109,983900
2020-04-15,3.940000057220459,4.380000114440918,3.75,4.079999923706055,4.079999923706055,1109000
2020-04-16,3.950000047683716,3.9600000381469727,3.4000000953674316,3.430000066757202,3.430000066757202,1002200
2020-04-17,3.7799999713897705,3.799999952316284,3.25,3.2899999618530273,3.2899999618530273,1056500
2020-04-20,3.299999952316284,3.4200000762939453,2.869999885559082,3.0399999618530273,3.0399999618530273,803300
2020-04-21,3.0,3.2699999809265137,2.950000047683716,3.2100000381469727,3.2100000381469727,472200
2020-04-22,3.2699999809265137,3.319999933242798,2.7899999618530273,2.930000066757202,2.930000066757202,968300
2020-04-23,2.950000047683716,3.2100000381469727,2.930000066757202,3.0,3.0,505100
2020-04-24,3.0799999237060547,3.0999999046325684,2.7699999809265137,2.859999895095825,2.859999895095825,763500
2020-04-27,2.930000066757202,3.130000114440918,2.7799999713897705,3.069999933242798,3.069999933242798,627500
2020-04-28,3.130000114440918,3.700000047683716,3.119999885559082,3.630000114440918,3.630000114440918,1172000
2020-04-29,3.799999952316284,4.650000095367432,3.799999952316284,4.099999904632568,4.099999904632568,1652400
2020-04-30,3.809999942779541,4.639999866485596,3.75,4.550000190734863,4.550000190734863,1163100
2020-05-01,4.210000038146973,4.349999904632568,3.9700000286102295,4.150000095367432,4.150000095367432,563400
2020-05-04,4.0,4.179999828338623,3.619999885559082,3.990000009536743,3.990000009536743,564300
2020-05-05,4.199999809265137,4.230000019073486,3.8499999046325684,3.869999885559082,3.869999885559082,377400
2020-05-06,3.869999885559082,3.9800000190734863,3.5,3.549999952316284,3.549999952316284,631400
2020-05-07,3.630000114440918,3.859999895095825,3.5199999809265137,3.690000057220459,3.690000057220459,480600
2020-05-08,3.809999942779541,4.150000095367432,3.799999952316284,4.010000228881836,4.010000228881836,588800
2020-05-11,3.799999952316284,4.190000057220459,3.609999895095825,4.059999942779541,4.059999942779541,879000
2020-05-12,4.070000171661377,4.440000057220459,3.740000009536743,3.740000009536743,3.740000009536743,742500
2020-05-13,3.740000009536743,3.890000104904175,3.5,3.630000114440918,3.630000114440918,503400
2020-05-14,3.5299999713897705,3.640000104904175,3.25,3.3299999237060547,3.3299999237060547,689100
2020-05-15,3.2699999809265137,3.309999942779541,3.0,3.130000114440918,3.130000114440918,1612800
2020-05-18,3.4100000858306885,3.640000104904175,3.1500000953674316,3.200000047683716,3.200000047683716,1847900
2020-05-19,3.200000047683716,3.3299999237060547,3.0,3.1500000953674316,3.1500000953674316,1074400
2020-05-20,3.240000009536743,3.6700000762939453,3.2100000381469727,3.569999933242798,3.569999933242798,1251400
2020-05-21,3.5999999046325684,3.7899999618530273,3.5399999618530273,3.569999933242798,3.569999933242798,937800
2020-05-22,3.640000104904175,3.7200000286102295,3.4000000953674316,3.5,3.5,615300
2020-05-26,3.6600000858306885,4.0,3.619999885559082,3.740000009536743,3.740000009536743,933700
2020-05-27,4.099999904632568,4.230000019073486,3.609999895095825,3.700000047683716,3.700000047683716,2239000
2020-05-28,3.690000057220459,3.75,3.4000000953674316,3.4100000858306885,3.4100000858306885,1365600
2020-05-29,3.4000000953674316,3.4100000858306885,3.130000114440918,3.25,3.25,971500
2020-06-01,3.259999990463257,3.5,3.2300000190734863,3.3499999046325684,3.3499999046325684,1042400
2020-06-02,3.4200000762939453,3.6600000858306885,3.3299999237060547,3.380000114440918,3.380000114440918,1359200
2020-06-03,3.4700000286102295,4.0,3.4600000381469727,3.619999885559082,3.619999885559082,1679900
2020-06-04,3.990000009536743,4.5,3.890000104904175,3.890000104904175,3.890000104904175,3793700
2020-06-05,4.519999980926514,5.210000038146973,4.260000228881836,4.309999942779541,4.309999942779541,4051100
2020-06-08,5.0,5.070000171661377,4.570000171661377,4.789999961853027,4.789999961853027,4086100
2020-06-09,4.699999809265137,4.75,4.309999942779541,4.429999828338623,4.429999828338623,1860300
2020-06-10,4.300000190734863,4.300000190734863,3.700000047683716,3.819999933242798,3.819999933242798,2423600
2020-06-11,3.359999895095825,3.809999942779541,3.0799999237060547,3.0899999141693115,3.0899999141693115,2433300
2020-06-12,3.609999895095825,3.6700000762939453,3.140000104904175,3.5899999141693115,3.5899999141693115,4295800
2020-06-15,3.319999933242798,3.740000009536743,3.2799999713897705,3.5999999046325684,3.5999999046325684,1315700
2020-06-16,3.930000066757202,3.9700000286102295,3.549999952316284,3.7799999713897705,3.7799999713897705,1354200
2020-06-17,3.700000047683716,3.8399999141693115,3.5,3.75,3.75,1031100
2020-06-18,3.630000114440918,3.890000104904175,3.5799999237060547,3.690000057220459,3.690000057220459,593100
2020-06-19,3.799999952316284,3.819999933242798,3.4200000762939453,3.5799999237060547,3.5799999237060547,1055700
2020-06-22,3.5,3.5299999713897705,3.3399999141693115,3.5199999809265137,3.5199999809265137,884700
2020-06-23,3.5999999046325684,3.640000104904175,3.4100000858306885,3.5399999618530273,3.5399999618530273,604900
2020-06-24,3.450000047683716,3.4700000286102295,3.309999942779541,3.3299999237060547,3.3299999237060547,881700
2020-06-25,3.3399999141693115,3.440000057220459,3.1600000858306885,3.430000066757202,3.430000066757202,782600
2020-06-26,3.369999885559082,3.4100000858306885,3.2300000190734863,3.4100000858306885,3.4100000858306885,1182900
2020-06-29,3.440000057220459,3.549999952316284,3.2300000190734863,3.490000009536743,3.490000009536743,994200
2020-06-30,3.450000047683716,3.5299999713897705,3.359999895095825,3.440000057220459,3.440000057220459,542100
2020-07-01,3.4600000381469727,3.6700000762939453,3.2699999809265137,3.3299999237060547,3.3299999237060547,846800
2020-07-02,3.4700000286102295,3.5199999809265137,3.259999990463257,3.299999952316284,3.299999952316284,614200
2020-07-06,3.4200000762939453,3.440000057220459,3.2100000381469727,3.359999895095825,3.359999895095825,656300
2020-07-07,3.3299999237060547,3.3299999237060547,3.200000047683716,3.2300000190734863,3.2300000190734863,635000
2020-07-08,3.200000047683716,3.2899999618530273,3.0899999141693115,3.2200000286102295,3.2200000286102295,958800
2020-07-09,3.200000047683716,3.200000047683716,2.990000009536743,3.069999933242798,3.069999933242798,638200
2020-07-10,3.059999942779541,3.259999990463257,3.009999990463257,3.2100000381469727,3.2100000381469727,408700
2020-07-13,3.5299999713897705,3.740000009536743,3.3299999237060547,3.509999990463257,3.509999990463257,2316700
2020-07-14,3.4800000190734863,3.5,3.2300000190734863,3.3299999237060547,3.3299999237060547,1036800
2020-07-15,3.5399999618530273,3.5799999237060547,3.309999942779541,3.549999952316284,3.549999952316284,1524500
2020-07-16,3.390000104904175,3.5999999046325684,3.369999885559082,3.559999942779541,3.559999942779541,1142400
2020-07-17,3.5399999618530273,3.5999999046325684,3.4100000858306885,3.4700000286102295,3.4700000286102295,592400
2020-07-20,3.450000047683716,3.4800000190734863,3.259999990463257,3.3499999046325684,3.3499999046325684,677200
2020-07-21,3.380000114440918,3.430000066757202,3.2699999809265137,3.2899999618530273,3.2899999618530273,751900
2020-07-22,3.299999952316284,3.430000066757202,3.25,3.2899999618530273,3.2899999618530273,482200
2020-07-23,3.3399999141693115,3.4700000286102295,3.2300000190734863,3.4000000953674316,3.4000000953674316,729900
2020-07-24,3.3499999046325684,3.4000000953674316,3.299999952316284,3.359999895095825,3.359999895095825,261900
2020-07-27,3.3499999046325684,3.4200000762939453,3.130000114440918,3.2200000286102295,3.2200000286102295,693600
2020-07-28,3.25,3.2899999618530273,3.1700000762939453,3.2300000190734863,3.2300000190734863,419400
2020-07-29,3.259999990463257,3.2699999809265137,3.140000104904175,3.200000047683716,3.200000047683716,458100
2020-07-30,3.1500000953674316,3.2300000190734863,3.109999895095825,3.180000066757202,3.180000066757202,408600
2020-07-31,3.1600000858306885,3.190000057220459,3.0199999809265137,3.0999999046325684,3.0999999046325684,658600
2020-08-03,3.059999942779541,3.130000114440918,2.950000047683716,3.0399999618530273,3.0399999618530273,571300
2020-08-04,3.049999952316284,3.240000009536743,3.0,3.180000066757202,3.180000066757202,557200
2020-08-05,3.25,3.2699999809265137,3.130000114440918,3.2100000381469727,3.2100000381469727,446900
2020-08-06,3.2100000381469727,3.309999942779541,3.180000066757202,3.2200000286102295,3.2200000286102295,440400
2020-08-07,3.2200000286102295,3.4000000953674316,3.140000104904175,3.2699999809265137,3.2699999809265137,577100
2020-08-10,3.3499999046325684,3.5899999141693115,3.319999933242798,3.490000009536743,3.490000009536743,1057400
2020-08-11,3.930000066757202,4.0,3.5999999046325684,3.7100000381469727,3.7100000381469727,2888600
2020-08-12,3.890000104904175,4.070000171661377,3.7200000286102295,3.9100000858306885,3.9100000858306885,1168500
2020-08-13,3.859999895095825,4.039999961853027,3.8399999141693115,3.869999885559082,3.869999885559082,774600
2020-08-14,3.8299999237060547,4.039999961853027,3.809999942779541,3.950000047683716,3.950000047683716,696500
2020-08-17,3.990000009536743,3.990000009536743,3.7200000286102295,3.759999990463257,3.759999990463257,640200
2020-08-18,3.7799999713897705,3.869999885559082,3.700000047683716,3.7200000286102295,3.7200000286102295,559300
2020-08-19,3.7300000190734863,3.890000104904175,3.7300000190734863,3.7799999713897705,3.7799999713897705,309300
2020-08-20,3.740000009536743,3.819999933242798,3.630000114440918,3.690000057220459,3.690000057220459,386400
2020-08-21,3.630000114440918,3.7300000190734863,3.5999999046325684,3.5999999046325684,3.5999999046325684,326800
2020-08-24,3.6600000858306885,3.7300000190734863,3.559999942779541,3.6700000762939453,3.6700000762939453,419300
2020-08-25,3.7300000190734863,3.8299999237060547,3.630000114440918,3.6700000762939453,3.6700000762939453,373200
2020-08-26,3.6500000953674316,3.7300000190734863,3.509999990463257,3.5299999713897705,3.5299999713897705,366200
2020-08-27,3.559999942779541,3.740000009536743,3.559999942779541,3.6600000858306885,3.6600000858306885,331000
2020-08-28,3.6700000762939453,3.869999885559082,3.6700000762939453,3.819999933242798,3.819999933242798,476300
2020-08-31,3.8499999046325684,3.859999895095825,3.640000104904175,3.6600000858306885,3.6600000858306885,344200
2020-09-01,3.640000104904175,3.799999952316284,3.5999999046325684,3.6500000953674316,3.6500000953674316,357700
2020-09-02,3.6500000953674316,3.690000057220459,3.509999990463257,3.6700000762939453,3.6700000762939453,485300
2020-09-03,3.6500000953674316,3.809999942779541,3.5199999809265137,3.559999942779541,3.559999942779541,438100
2020-09-04,3.6700000762939453,3.680000066757202,3.440000057220459,3.5299999713897705,3.5299999713897705,497100
2020-09-08,3.5,3.5899999141693115,3.4000000953674316,3.4800000190734863,3.4800000190734863,737400
2020-09-09,3.5299999713897705,3.549999952316284,3.299999952316284,3.4000000953674316,3.4000000953674316,454500
2020-09-10,3.4000000953674316,3.450000047683716,3.3299999237060547,3.390000104904175,3.390000104904175,277200
2020-09-11,3.4100000858306885,3.4100000858306885,3.2200000286102295,3.2699999809265137,3.2699999809265137,353200
2020-09-14,3.2899999618530273,3.3499999046325684,3.2300000190734863,3.3399999141693115,3.3399999141693115,197500
2020-09-15,3.3399999141693115,3.450000047683716,3.299999952316284,3.430000066757202,3.430000066757202,317800
2020-09-16,3.440000057220459,3.549999952316284,3.3499999046325684,3.4800000190734863,3.4800000190734863,347600
2020-09-17,3.440000057220459,3.5299999713897705,3.4000000953674316,3.4200000762939453,3.4200000762939453,183100
2020-09-18,3.390000104904175,3.4200000762939453,3.2899999618530273,3.319999933242798,3.319999933242798,486000
2020-09-21,3.25,3.259999990463257,3.0799999237060547,3.1500000953674316,3.1500000953674316,482700
2020-09-22,3.1500000953674316,3.2200000286102295,3.0299999713897705,3.119999885559082,3.119999885559082,539700
2020-09-23,3.140000104904175,3.2300000190734863,2.990000009536743,3.009999990463257,3.009999990463257,569000
2020-09-24,3.0299999713897705,3.0399999618530273,2.799999952316284,2.9200000762939453,2.9200000762939453,414100
2020-09-25,2.930000066757202,3.009999990463257,2.9200000762939453,2.9600000381469727,2.9600000381469727,360400
2020-09-28,3.0799999237060547,3.140000104904175,3.0,3.069999933242798,3.069999933242798,315900
2020-09-29,3.0799999237060547,3.0799999237060547,2.9000000953674316,2.940000057220459,2.940000057220459,421600
2020-09-30,2.9600000381469727,3.069999933242798,2.9000000953674316,2.950000047683716,2.950000047683716,310200
2020-10-01,2.950000047683716,3.049999952316284,2.9100000858306885,2.950000047683716,2.950000047683716,270900
2020-10-02,2.8499999046325684,3.069999933242798,2.809999942779541,3.0299999713897705,3.0299999713897705,513100
2020-10-05,3.0799999237060547,3.140000104904175,3.0,3.0799999237060547,3.0799999237060547,274500
2020-10-06,3.0999999046325684,3.1600000858306885,2.9800000190734863,2.990000009536743,2.990000009536743,411500
2020-10-07,3.109999895095825,3.109999895095825,2.9700000286102295,3.0199999809265137,3.0199999809265137,235200
2020-10-08,3.0999999046325684,3.390000104904175,3.049999952316284,3.380000114440918,3.380000114440918,1335400
2020-10-09,3.4200000762939453,3.990000009536743,3.4000000953674316,3.7799999713897705,3.7799999713897705,2457000
2020-10-12,3.75,3.75,3.5299999713897705,3.640000104904175,3.640000104904175,843800
2020-10-13,3.5999999046325684,3.6500000953674316,3.3399999141693115,3.359999895095825,3.359999895095825,1058500
2020-10-14,3.359999895095825,3.559999942779541,3.359999895095825,3.5199999809265137,3.5199999809265137,831300
2020-10-15,3.4700000286102295,3.509999990463257,3.359999895095825,3.509999990463257,3.509999990463257,349000
2020-10-16,3.569999933242798,3.5799999237060547,3.4000000953674316,3.430000066757202,3.430000066757202,643000
2020-10-19,3.5,3.549999952316284,3.390000104904175,3.4000000953674316,3.4000000953674316,495600
2020-10-20,3.4800000190734863,3.509999990463257,3.380000114440918,3.4800000190734863,3.4800000190734863,567000
2020-10-21,3.4800000190734863,3.5199999809265137,3.4200000762939453,3.440000057220459,3.440000057220459,237800
2020-10-22,3.4200000762939453,3.5799999237060547,3.4100000858306885,3.559999942779541,3.559999942779541,479000
2020-10-23,3.569999933242798,3.700000047683716,3.549999952316284,3.690000057220459,3.690000057220459,350400
2020-10-26,3.5899999141693115,3.609999895095825,3.450000047683716,3.4800000190734863,3.4800000190734863,334700
2020-10-27,3.5,3.559999942779541,3.4100000858306885,3.4200000762939453,3.4200000762939453,431900
2020-10-28,3.380000114440918,3.380000114440918,3.1700000762939453,3.200000047683716,3.200000047683716,550100
2020-10-29,3.190000057220459,3.2699999809265137,3.109999895095825,3.200000047683716,3.200000047683716,941600
2020-10-30,3.180000066757202,3.259999990463257,3.119999885559082,3.1600000858306885,3.1600000858306885,323200
2020-11-02,3.1700000762939453,3.2699999809265137,3.140000104904175,3.25,3.25,272600
2020-11-03,3.309999942779541,3.4600000381469727,3.25,3.450000047683716,3.450000047683716,447100
2020-11-04,3.4000000953674316,3.4600000381469727,3.2899999618530273,3.299999952316284,3.299999952316284,207000
2020-11-05,3.3299999237060547,3.4200000762939453,3.309999942779541,3.359999895095825,3.359999895095825,248000
2020-11-06,3.380000114440918,3.440000057220459,3.25,3.4200000762939453,3.4200000762939453,256300
2020-11-09,3.799999952316284,4.099999904632568,3.5999999046325684,3.7799999713897705,3.7799999713897705,2033200
2020-11-10,3.75,4.539999961853027,3.7300000190734863,4.300000190734863,4.300000190734863,2659600
2020-11-11,4.260000228881836,4.349999904632568,3.940000057220459,4.059999942779541,4.059999942779541,1449800
2020-11-12,4.0,4.25,3.950000047683716,4.0,4.0,1250200
2020-11-13,4.010000228881836,4.400000095367432,4.010000228881836,4.329999923706055,4.329999923706055,1007900
2020-11-16,4.53000020980835,5.099999904632568,4.460000038146973,4.739999771118164,4.739999771118164,2287400
2020-11-17,4.679999828338623,5.289999961853027,4.670000076293945,5.03000020980835,5.03000020980835,965400
2020-11-18,5.139999866485596,5.289999961853027,4.860000133514404,4.920000076293945,4.920000076293945,1134900
2020-11-19,4.949999809265137,5.050000190734863,4.929999828338623,5.010000228881836,5.010000228881836,494400
2020-11-20,4.949999809265137,5.019999980926514,4.920000076293945,4.980000019073486,4.980000019073486,495300
2020-11-23,5.110000133514404,5.510000228881836,4.989999771118164,5.480000019073486,5.480000019073486,1520900
2020-11-24,5.840000152587891,6.269999980926514,5.800000190734863,6.150000095367432,6.150000095367432,2095300
2020-11-25,6.849999904632568,7.0,6.070000171661377,6.239999771118164,6.239999771118164,1982700
2020-11-27,6.510000228881836,6.75,6.269999980926514,6.679999828338623,6.679999828338623,1267600
2020-11-30,6.860000133514404,6.940000057220459,6.21999979019165,6.380000114440918,6.380000114440918,1261800
2020-12-01,6.699999809265137,7.090000152587891,6.590000152587891,6.730000019073486,6.730000019073486,2393600
2020-12-02,6.820000171661377,7.159999847412109,6.550000190734863,7.159999847412109,7.159999847412109,1446200
2020-12-03,7.53000020980835,7.769999980926514,7.329999923706055,7.630000114440918,7.630000114440918,1944000
2020-12-04,7.739999771118164,7.989999771118164,7.559999942779541,7.730000019073486,7.730000019073486,1629300
2020-12-07,7.860000133514404,7.949999809265137,7.610000133514404,7.710000038146973,7.710000038146973,1204700
2020-12-08,7.619999885559082,7.71999979019165,7.21999979019165,7.630000114440918,7.630000114440918,1595200
2020-12-09,7.550000190734863,7.849999904632568,7.050000190734863,7.230000019073486,7.230000019073486,1901500
2020-12-10,7.0,7.429999828338623,6.980000019073486,7.360000133514404,7.360000133514404,1551900
2020-12-11,7.329999923706055,7.400000095367432,6.920000076293945,7.079999923706055,7.079999923706055,1157100
2020-12-14,7.25,7.25,6.639999866485596,6.75,6.75,1072700
2020-12-15,6.909999847412109,7.070000171661377,6.670000076293945,6.96999979019165,6.96999979019165,812400
2020-12-16,6.900000095367432,7.010000228881836,6.820000171661377,6.860000133514404,6.860000133514404,595500
2020-12-17,6.820000171661377,6.940000057220459,6.599999904632568,6.840000152587891,6.840000152587891,861500
2020-12-18,6.829999923706055,6.829999923706055,6.550000190734863,6.570000171661377,6.570000171661377,740600
2020-12-21,6.349999904632568,6.559999942779541,6.230000019073486,6.46999979019165,6.46999979019165,837200
2020-12-22,6.5,6.559999942779541,6.190000057220459,6.199999809265137,6.199999809265137,720800
2020-12-23,6.25,6.630000114440918,6.25,6.400000095367432,6.400000095367432,610800
2020-12-24,6.489999771118164,6.590000152587891,6.230000019073486,6.289999961853027,6.289999961853027,442600
2020-12-28,6.449999809265137,6.550000190734863,6.21999979019165,6.230000019073486,6.230000019073486,603200
2020-12-29,6.289999961853027,6.5,6.150000095367432,6.179999828338623,6.179999828338623,606200
2020-12-30,6.179999828338623,6.420000076293945,6.130000114440918,6.400000095367432,6.400000095367432,626500
