Date,Open,High,Low,Close,Adj Close,Volume
2019-07-18,13.0,13.619999885559082,12.720000267028809,13.210000038146973,13.210000038146973,1474300
2019-07-19,14.0,14.0,13.0,13.5,13.5,176800
2019-07-22,13.579999923706055,14.0,13.484000205993652,13.9399995803833,13.9399995803833,109800
2019-07-23,14.0,14.689000129699707,13.75,14.010000228881836,14.010000228881836,121300
2019-07-24,14.140000343322754,14.449999809265137,13.850000381469727,14.0,14.0,65200
2019-07-25,14.119999885559082,14.15999984741211,13.569999694824219,13.779999732971191,13.779999732971191,50500
2019-07-26,13.989999771118164,14.0,13.39799976348877,13.5600004196167,13.5600004196167,71700
2019-07-29,13.510000228881836,13.869999885559082,13.020000457763672,13.59000015258789,13.59000015258789,122300
2019-07-30,13.600000381469727,13.75,13.329999923706055,13.5,13.5,33100
2019-07-31,13.520000457763672,13.680000305175781,13.020000457763672,13.510000228881836,13.510000228881836,41900
2019-08-01,13.529999732971191,14.130000114440918,13.149999618530273,13.630000114440918,13.630000114440918,35700
2019-08-02,13.609999656677246,13.960000038146973,13.40999984741211,13.819999694824219,13.819999694824219,38200
2019-08-05,13.680000305175781,13.850000381469727,13.0,13.289999961853027,13.289999961853027,33000
2019-08-06,13.229999542236328,13.9350004196167,12.050000190734863,13.8100004196167,13.8100004196167,66400
2019-08-07,13.930000305175781,14.800000190734863,12.529999732971191,13.710000038146973,13.710000038146973,106200
2019-08-08,14.5,15.460000038146973,14.479999542236328,14.649999618530273,14.649999618530273,121300
2019-08-09,15.0,15.104000091552734,14.170000076293945,14.770000457763672,14.770000457763672,82000
2019-08-12,15.130000114440918,15.5,14.699999809265137,14.744999885559082,14.744999885559082,100100
2019-08-13,14.699999809265137,15.026000022888184,14.520999908447266,14.529999732971191,14.529999732971191,36900
2019-08-14,14.520000457763672,14.83899974822998,12.600000381469727,14.09000015258789,14.09000015258789,90300
2019-08-15,14.220000267028809,14.468000411987305,13.319999694824219,13.449999809265137,13.449999809265137,30000
2019-08-16,13.399999618530273,13.869999885559082,12.800000190734863,13.050000190734863,13.050000190734863,46300
2019-08-19,13.1899995803833,13.649999618530273,12.899999618530273,13.1899995803833,13.1899995803833,49000
2019-08-20,13.180000305175781,13.649999618530273,12.880999565124512,13.449999809265137,13.449999809265137,56900
2019-08-21,13.484999656677246,14.40999984741211,13.479999542236328,14.140000343322754,14.140000343322754,44200
2019-08-22,14.109999656677246,14.34000015258789,13.899999618530273,14.229999542236328,14.229999542236328,39800
2019-08-23,14.100000381469727,14.338000297546387,13.779999732971191,14.180000305175781,14.180000305175781,23100
2019-08-26,14.09000015258789,14.34000015258789,12.899999618530273,14.039999961853027,14.039999961853027,36300
2019-08-27,14.0,14.319999694824219,13.5600004196167,14.149999618530273,14.149999618530273,44500
2019-08-28,13.760000228881836,14.210000038146973,13.4399995803833,13.529999732971191,13.529999732971191,49700
2019-08-29,13.329999923706055,13.710000038146973,12.069999694824219,12.880000114440918,12.880000114440918,42900
2019-08-30,12.529999732971191,12.949999809265137,12.119999885559082,12.6899995803833,12.6899995803833,15100
2019-09-03,12.510000228881836,12.848999977111816,9.880000114440918,10.0600004196167,10.0600004196167,78300
2019-09-04,9.90999984741211,10.199999809265137,9.520000457763672,10.0,10.0,54100
2019-09-05,10.017999649047852,10.760000228881836,9.25,10.729999542236328,10.729999542236328,40400
2019-09-06,10.779999732971191,12.100000381469727,10.274999618530273,10.84000015258789,10.84000015258789,102300
2019-09-09,11.020000457763672,11.515000343322754,9.960000038146973,10.34000015258789,10.34000015258789,36400
2019-09-10,11.220000267028809,11.255000114440918,9.90999984741211,10.180000305175781,10.180000305175781,44100
2019-09-11,10.390000343322754,10.420000076293945,9.753999710083008,9.859999656677246,9.859999656677246,22600
2019-09-12,9.8100004196167,10.345000267028809,9.751999855041504,9.880000114440918,9.880000114440918,18000
2019-09-13,10.539999961853027,10.770000457763672,9.850000381469727,10.020000457763672,10.020000457763672,11500
2019-09-16,10.0600004196167,10.25,9.329999923706055,9.449999809265137,9.449999809265137,74800
2019-09-17,9.449999809265137,10.449999809265137,9.25,9.359999656677246,9.359999656677246,50300
2019-09-18,9.430000305175781,9.996999740600586,9.039999961853027,9.3100004196167,9.3100004196167,39900
2019-09-19,9.390000343322754,9.739999771118164,9.100000381469727,9.15999984741211,9.15999984741211,32400
2019-09-20,9.149999618530273,10.255000114440918,9.079999923706055,9.25,9.25,216400
2019-09-23,9.3100004196167,10.420000076293945,9.220000267028809,9.859999656677246,9.859999656677246,50300
2019-09-24,9.789999961853027,10.0,9.210000038146973,9.520000457763672,9.520000457763672,46900
2019-09-25,9.539999961853027,10.210000038146973,9.350000381469727,10.0,10.0,28300
2019-09-26,9.880000114440918,9.970000267028809,9.550000190734863,9.609999656677246,9.609999656677246,18200
2019-09-27,9.770000457763672,9.904999732971191,9.4399995803833,9.6899995803833,9.6899995803833,11500
2019-09-30,9.739999771118164,10.1899995803833,9.362000465393066,10.0600004196167,10.0600004196167,30300
2019-10-01,9.989999771118164,10.25,9.649999618530273,10.09000015258789,10.09000015258789,9800
2019-10-02,10.010000228881836,10.640000343322754,9.260000228881836,10.1899995803833,10.1899995803833,28200
2019-10-03,10.380000114440918,10.850000381469727,9.529999732971191,10.760000228881836,10.760000228881836,11500
2019-10-04,10.859999656677246,10.859999656677246,10.109999656677246,10.489999771118164,10.489999771118164,18400
2019-10-07,10.390000343322754,10.390000343322754,9.789999961853027,9.890000343322754,9.890000343322754,8200
2019-10-08,9.779999732971191,10.130000114440918,9.449999809265137,9.84000015258789,9.84000015258789,13800
2019-10-09,9.565999984741211,10.449999809265137,9.449999809265137,9.600000381469727,9.600000381469727,15700
2019-10-10,9.529999732971191,9.829999923706055,9.34000015258789,9.430000305175781,9.430000305175781,16700
2019-10-11,9.40999984741211,9.40999984741211,8.850000381469727,8.850000381469727,8.850000381469727,26500
2019-10-14,8.819999694824219,9.149999618530273,8.789999961853027,8.880000114440918,8.880000114440918,8900
2019-10-15,8.880000114440918,9.220000267028809,8.5,8.710000038146973,8.710000038146973,46400
2019-10-16,8.720000267028809,8.930999755859375,8.354999542236328,8.489999771118164,8.489999771118164,7500
2019-10-17,8.479999542236328,8.786999702453613,7.650000095367432,7.980000019073486,7.980000019073486,33200
2019-10-18,8.039999961853027,8.262999534606934,7.650000095367432,7.96999979019165,7.96999979019165,23600
2019-10-21,8.050000190734863,8.154999732971191,7.650000095367432,7.820000171661377,7.820000171661377,32100
2019-10-22,8.368000030517578,8.368000030517578,7.355000019073486,7.429999828338623,7.429999828338623,14400
2019-10-23,7.449999809265137,8.199999809265137,7.449999809265137,7.840000152587891,7.840000152587891,8800
2019-10-24,7.909999847412109,7.909999847412109,7.550000190734863,7.699999809265137,7.699999809265137,4600
2019-10-25,7.630000114440918,7.71999979019165,7.440000057220459,7.53000020980835,7.53000020980835,19300
2019-10-28,7.550000190734863,7.699999809265137,7.329999923706055,7.489999771118164,7.489999771118164,54800
2019-10-29,7.409999847412109,7.599999904632568,7.400000095367432,7.420000076293945,7.420000076293945,14700
2019-10-30,7.5,7.53000020980835,7.329999923706055,7.420000076293945,7.420000076293945,8800
2019-10-31,7.340000152587891,7.340000152587891,7.099999904632568,7.179999828338623,7.179999828338623,136300
2019-11-01,7.300000190734863,7.630000114440918,7.179999828338623,7.360000133514404,7.360000133514404,8100
2019-11-04,7.3979997634887695,7.440000057220459,7.26200008392334,7.329999923706055,7.329999923706055,4500
2019-11-05,7.389999866485596,7.389999866485596,7.050000190734863,7.190000057220459,7.190000057220459,12200
2019-11-06,7.199999809265137,7.400000095367432,7.070000171661377,7.079999923706055,7.079999923706055,7900
2019-11-07,7.139999866485596,7.196000099182129,6.800000190734863,6.880000114440918,6.880000114440918,26100
2019-11-08,6.820000171661377,7.190000057220459,6.820000171661377,7.070000171661377,7.070000171661377,15400
2019-11-11,7.0,7.389999866485596,7.0,7.340000152587891,7.340000152587891,32600
2019-11-12,7.3420000076293945,7.485000133514404,7.150000095367432,7.360000133514404,7.360000133514404,14700
2019-11-13,7.170000076293945,7.510000228881836,7.170000076293945,7.5,7.5,153500
2019-11-14,7.559000015258789,7.599999904632568,7.010000228881836,7.190000057220459,7.190000057220459,59100
2019-11-15,7.369999885559082,7.630000114440918,7.179999828338623,7.409999847412109,7.409999847412109,57700
2019-11-18,7.510000228881836,7.619999885559082,7.260000228881836,7.480000019073486,7.480000019073486,21700
2019-11-19,7.610000133514404,7.849999904632568,7.239999771118164,7.400000095367432,7.400000095367432,80100
2019-11-20,7.329999923706055,7.59499979019165,6.513000011444092,6.840000152587891,6.840000152587891,86100
2019-11-21,7.019999980926514,7.460000038146973,6.619999885559082,7.204999923706055,7.204999923706055,24200
2019-11-22,7.171999931335449,7.570000171661377,6.929999828338623,7.079999923706055,7.079999923706055,51500
2019-11-25,7.099999904632568,7.300000190734863,6.900000095367432,6.949999809265137,6.949999809265137,19800
2019-11-26,6.980000019073486,7.099999904632568,6.909999847412109,7.099999904632568,7.099999904632568,49000
2019-11-27,7.090000152587891,7.539999961853027,7.010000228881836,7.420000076293945,7.420000076293945,42000
2019-11-29,7.5,7.5,7.110000133514404,7.210000038146973,7.210000038146973,10800
2019-12-02,7.309999942779541,7.690000057220459,7.309999942779541,7.690000057220459,7.690000057220459,53100
2019-12-03,7.570000171661377,8.420000076293945,7.510000228881836,8.180000305175781,8.180000305175781,115200
2019-12-04,8.109999656677246,8.4399995803833,7.920000076293945,8.170000076293945,8.170000076293945,92500
2019-12-05,8.489999771118164,8.5,8.229999542236328,8.40999984741211,8.40999984741211,72800
2019-12-06,8.435999870300293,8.869999885559082,8.0,8.680000305175781,8.680000305175781,336400
2019-12-09,8.75,9.84000015258789,8.739999771118164,9.649999618530273,9.649999618530273,52500
2019-12-10,9.800000190734863,9.829999923706055,9.050000190734863,9.569999694824219,9.569999694824219,70300
2019-12-11,9.640000343322754,9.640000343322754,9.15999984741211,9.170000076293945,9.170000076293945,19300
2019-12-12,9.152999877929688,9.234999656677246,8.319999694824219,8.399999618530273,8.399999618530273,63900
2019-12-13,8.449999809265137,8.760000228881836,8.15999984741211,8.1899995803833,8.1899995803833,34200
2019-12-16,11.399999618530273,22.43000030517578,11.220000267028809,17.280000686645508,17.280000686645508,8442800
2019-12-17,17.34000015258789,18.030000686645508,15.699999809265137,16.489999771118164,16.489999771118164,846100
2019-12-18,16.75,27.280000686645508,16.75,23.760000228881836,23.760000228881836,3927900
2019-12-19,23.219999313354492,28.309999465942383,22.110000610351562,23.989999771118164,23.989999771118164,1789900
2019-12-20,23.6200008392334,24.59000015258789,22.0,23.56999969482422,23.56999969482422,527300
2019-12-23,23.290000915527344,24.959999084472656,22.31999969482422,23.81999969482422,23.81999969482422,201800
2019-12-24,23.399999618530273,24.0,22.5,23.399999618530273,23.399999618530273,63500
2019-12-26,23.43000030517578,26.020000457763672,23.1560001373291,25.18000030517578,25.18000030517578,178300
2019-12-27,25.25,26.25,25.2450008392334,25.899999618530273,25.899999618530273,237800
2019-12-30,25.270000457763672,26.006999969482422,23.34000015258789,24.950000762939453,24.950000762939453,134400
2019-12-31,25.0,25.0,23.5,24.520000457763672,24.520000457763672,76100
2020-01-02,24.360000610351562,24.5,23.510000228881836,23.790000915527344,23.790000915527344,88300
2020-01-03,23.649999618530273,23.649999618530273,22.780000686645508,23.030000686645508,23.030000686645508,87400
2020-01-06,23.0,23.110000610351562,22.774999618530273,22.950000762939453,22.950000762939453,60000
2020-01-07,22.40999984741211,23.472000122070312,21.0,22.649999618530273,22.649999618530273,113600
2020-01-08,21.780000686645508,22.440000534057617,20.250999450683594,20.989999771118164,20.989999771118164,240800
2020-01-09,20.700000762939453,21.5,19.549999237060547,19.850000381469727,19.850000381469727,1382600
2020-01-10,19.950000762939453,20.049999237060547,18.770000457763672,19.239999771118164,19.239999771118164,278700
2020-01-13,19.06999969482422,19.209999084472656,18.75,18.969999313354492,18.969999313354492,161400
2020-01-14,19.100000381469727,19.100000381469727,17.06999969482422,18.0,18.0,256500
2020-01-15,17.93000030517578,18.940000534057617,17.82900047302246,18.739999771118164,18.739999771118164,106700
2020-01-16,18.899999618530273,22.263999938964844,18.746999740600586,21.579999923706055,21.579999923706055,314400
2020-01-17,21.579999923706055,22.239999771118164,19.829999923706055,20.229999542236328,20.229999542236328,236600
2020-01-21,20.329999923706055,21.420000076293945,17.68000030517578,19.219999313354492,19.219999313354492,172900
2020-01-22,19.3700008392334,19.947999954223633,19.0,19.209999084472656,19.209999084472656,50300
2020-01-23,18.68000030517578,19.969999313354492,18.360000610351562,19.260000228881836,19.260000228881836,98200
2020-01-24,19.34000015258789,19.399999618530273,17.489999771118164,17.540000915527344,17.540000915527344,63100
2020-01-27,17.110000610351562,17.56999969482422,16.59000015258789,17.170000076293945,17.170000076293945,58400
2020-01-28,17.200000762939453,18.440000534057617,17.200000762939453,18.09000015258789,18.09000015258789,115100
2020-01-29,18.09000015258789,18.899999618530273,17.8700008392334,18.010000228881836,18.010000228881836,143300
2020-01-30,17.850000381469727,18.079999923706055,16.670000076293945,16.8700008392334,16.8700008392334,130900
2020-01-31,16.809999465942383,17.4060001373291,15.699999809265137,15.725000381469727,15.725000381469727,116700
2020-02-03,15.819999694824219,16.312000274658203,15.350000381469727,15.40999984741211,15.40999984741211,118000
2020-02-04,15.5600004196167,16.34000015258789,15.470000267028809,16.31999969482422,16.31999969482422,97500
2020-02-05,16.350000381469727,18.389999389648438,15.539999961853027,17.56999969482422,17.56999969482422,146500
2020-02-06,17.729999542236328,17.822999954223633,16.209999084472656,16.329999923706055,16.329999923706055,61300
2020-02-07,16.149999618530273,16.200000762939453,15.149999618530273,16.079999923706055,16.079999923706055,87600
2020-02-10,16.0,16.899999618530273,16.0,16.530000686645508,16.530000686645508,75200
2020-02-11,16.579999923706055,17.3700008392334,16.030000686645508,17.190000534057617,17.190000534057617,98600
2020-02-12,17.329999923706055,17.3799991607666,16.3700008392334,16.399999618530273,16.399999618530273,79900
2020-02-13,16.31999969482422,17.479999542236328,15.90999984741211,17.059999465942383,17.059999465942383,87400
2020-02-14,17.110000610351562,17.940000534057617,16.68000030517578,16.899999618530273,16.899999618530273,67700
2020-02-18,16.770000457763672,17.25,16.770000457763672,17.229999542236328,17.229999542236328,44400
2020-02-19,17.34000015258789,18.309999465942383,17.1299991607666,18.09000015258789,18.09000015258789,73200
2020-02-20,18.079999923706055,18.209999084472656,16.579999923706055,17.030000686645508,17.030000686645508,61600
2020-02-21,17.18000030517578,17.59000015258789,16.604999542236328,16.6200008392334,16.6200008392334,48500
2020-02-24,16.139999389648438,19.729999542236328,15.859999656677246,18.450000762939453,18.450000762939453,127800
2020-02-25,18.59000015258789,19.187000274658203,16.3700008392334,17.010000228881836,17.010000228881836,108100
2020-02-26,17.040000915527344,18.90999984741211,16.530000686645508,16.540000915527344,16.540000915527344,125200
2020-02-27,16.170000076293945,16.4950008392334,15.3100004196167,15.789999961853027,15.789999961853027,80400
2020-02-28,15.210000038146973,16.799999237060547,14.529999732971191,16.559999465942383,16.559999465942383,128500
2020-03-02,16.639999389648438,16.639999389648438,15.720000267028809,16.40999984741211,16.40999984741211,103500
2020-03-03,16.3799991607666,17.639999389648438,15.539999961853027,16.850000381469727,16.850000381469727,45400
2020-03-04,17.139999389648438,17.155000686645508,16.15999984741211,16.8799991607666,16.8799991607666,51900
2020-03-05,16.56999969482422,16.68000030517578,15.831000328063965,16.170000076293945,16.170000076293945,29300
2020-03-06,15.3100004196167,16.479999542236328,15.289999961853027,16.059999465942383,16.059999465942383,47600
2020-03-09,13.850000381469727,14.989999771118164,12.84000015258789,12.989999771118164,12.989999771118164,80200
2020-03-10,13.350000381469727,13.779999732971191,11.550000190734863,12.90999984741211,12.90999984741211,137400
2020-03-11,12.579999923706055,13.489999771118164,11.579999923706055,11.729999542236328,11.729999542236328,54000
2020-03-12,10.899999618530273,11.300000190734863,9.670000076293945,10.90999984741211,10.90999984741211,102000
2020-03-13,11.0,12.960000038146973,11.0,12.680000305175781,12.680000305175781,91400
2020-03-16,12.039999961853027,12.039999961853027,10.34000015258789,10.399999618530273,10.399999618530273,109600
2020-03-17,10.529999732971191,11.0,10.0,10.5,10.5,76900
2020-03-18,10.319999694824219,11.5,9.210000038146973,9.380000114440918,9.380000114440918,103500
2020-03-19,9.180000305175781,12.0,9.140000343322754,10.800000190734863,10.800000190734863,93700
2020-03-20,11.149999618530273,12.380000114440918,10.859999656677246,11.34000015258789,11.34000015258789,308800
2020-03-23,11.399999618530273,11.5600004196167,10.140000343322754,10.890000343322754,10.890000343322754,61300
2020-03-24,12.130000114440918,12.569999694824219,11.430000305175781,12.390000343322754,12.390000343322754,48900
2020-03-25,12.449999809265137,13.170000076293945,11.869999885559082,12.430000305175781,12.430000305175781,56700
2020-03-26,12.5600004196167,14.0,12.5600004196167,13.989999771118164,13.989999771118164,40500
2020-03-27,13.510000228881836,13.8100004196167,12.6899995803833,13.600000381469727,13.600000381469727,56600
2020-03-30,13.670000076293945,14.0,13.109999656677246,13.989999771118164,13.989999771118164,31500
2020-03-31,13.949999809265137,14.399999618530273,13.09000015258789,14.0,14.0,63900
2020-04-01,13.369999885559082,13.699999809265137,11.460000038146973,11.510000228881836,11.510000228881836,66800
2020-04-02,11.5,13.0600004196167,11.5,13.039999961853027,13.039999961853027,27600
2020-04-03,13.180000305175781,13.8100004196167,12.119999885559082,12.680000305175781,12.680000305175781,23800
2020-04-06,13.510000228881836,13.890000343322754,12.59000015258789,13.430000305175781,13.430000305175781,31200
2020-04-07,13.619999885559082,13.819999694824219,12.550000190734863,13.300000190734863,13.300000190734863,39100
2020-04-08,13.75,14.420000076293945,13.0649995803833,14.09000015258789,14.09000015258789,26400
2020-04-09,14.510000228881836,14.75,13.664999961853027,14.75,14.75,31300
2020-04-13,14.970000267028809,15.010000228881836,14.375,14.5,14.5,33900
2020-04-14,14.649999618530273,15.0600004196167,14.055999755859375,14.779999732971191,14.779999732971191,39100
2020-04-15,14.180000305175781,14.979999542236328,14.180000305175781,14.739999771118164,14.739999771118164,48600
2020-04-16,15.069999694824219,15.069999694824219,13.600000381469727,13.90999984741211,13.90999984741211,39900
2020-04-17,14.399999618530273,14.949999809265137,13.930000305175781,14.739999771118164,14.739999771118164,30500
2020-04-20,14.819999694824219,15.890000343322754,14.40999984741211,15.024999618530273,15.024999618530273,33600
2020-04-21,14.829999923706055,15.789999961853027,14.579999923706055,14.75,14.75,21400
2020-04-22,14.880000114440918,14.880000114440918,14.1899995803833,14.359999656677246,14.359999656677246,20800
2020-04-23,14.970000267028809,15.40999984741211,14.050000190734863,14.539999961853027,14.539999961853027,31800
2020-04-24,14.8100004196167,15.5,14.319999694824219,15.40999984741211,15.40999984741211,20300
2020-04-27,15.5,16.389999389648438,15.211000442504883,16.040000915527344,16.040000915527344,45500
2020-04-28,16.440000534057617,16.850000381469727,16.0,16.260000228881836,16.260000228881836,41200
2020-04-29,16.989999771118164,17.260000228881836,16.06999969482422,17.15999984741211,17.15999984741211,51900
2020-04-30,16.84000015258789,17.059999465942383,16.1200008392334,16.899999618530273,16.899999618530273,34200
2020-05-01,16.799999237060547,18.0,15.760000228881836,17.81999969482422,17.81999969482422,128600
2020-05-04,17.5,18.299999237060547,15.994000434875488,16.270000457763672,16.270000457763672,149100
2020-05-05,16.84000015258789,17.25,16.75,16.969999313354492,16.969999313354492,17200
2020-05-06,16.940000534057617,17.649999618530273,16.639999389648438,16.700000762939453,16.700000762939453,23000
2020-05-07,17.1200008392334,17.940000534057617,16.959999084472656,17.3700008392334,17.3700008392334,18000
2020-05-08,17.3799991607666,17.700000762939453,16.719999313354492,16.719999313354492,16.719999313354492,19700
2020-05-11,16.540000915527344,18.979999542236328,16.239999771118164,18.229999542236328,18.229999542236328,50100
2020-05-12,18.610000610351562,19.0,17.729999542236328,17.729999542236328,17.729999542236328,68100
2020-05-13,17.690000534057617,17.950000762939453,16.0,16.65999984741211,16.65999984741211,54700
2020-05-14,16.18000030517578,16.670000076293945,16.0,16.40999984741211,16.40999984741211,19400
2020-05-15,16.450000762939453,17.459999084472656,16.209999084472656,17.229999542236328,17.229999542236328,11000
2020-05-18,18.31999969482422,18.31999969482422,15.744999885559082,15.9399995803833,15.9399995803833,226000
2020-05-19,16.100000381469727,16.979999542236328,15.779999732971191,15.920000076293945,15.920000076293945,34100
2020-05-20,16.350000381469727,17.270000457763672,16.350000381469727,17.170000076293945,17.170000076293945,181300
2020-05-21,17.3799991607666,17.5,17.0,17.1299991607666,17.1299991607666,98100
2020-05-22,17.15999984741211,17.229999542236328,16.292999267578125,17.229999542236328,17.229999542236328,44700
2020-05-26,17.93000030517578,17.93000030517578,16.43000030517578,16.649999618530273,16.649999618530273,136100
2020-05-27,16.65999984741211,17.149999618530273,16.56999969482422,16.850000381469727,16.850000381469727,38700
2020-05-28,17.1200008392334,17.31999969482422,16.600000381469727,16.739999771118164,16.739999771118164,151300
2020-05-29,16.950000762939453,17.170000076293945,16.530000686645508,16.850000381469727,16.850000381469727,147400
2020-06-01,16.850000381469727,17.06999969482422,16.270000457763672,16.270000457763672,16.270000457763672,89800
2020-06-02,16.25,16.989999771118164,15.989999771118164,16.040000915527344,16.040000915527344,121700
2020-06-03,16.290000915527344,16.6200008392334,15.239999771118164,15.270000457763672,15.270000457763672,79600
2020-06-04,15.319999694824219,17.670000076293945,14.9399995803833,17.25,17.25,721200
2020-06-05,17.510000228881836,19.649999618530273,15.970000267028809,18.5,18.5,198300
2020-06-08,18.5,19.079999923706055,18.399999618530273,18.959999084472656,18.959999084472656,140200
2020-06-09,18.940000534057617,19.309999465942383,18.600000381469727,18.799999237060547,18.799999237060547,60500
2020-06-10,18.799999237060547,19.09000015258789,17.139999389648438,18.459999084472656,18.459999084472656,90400
2020-06-11,17.81999969482422,17.950000762939453,16.5,16.709999084472656,16.709999084472656,84500
2020-06-12,17.25,18.149999618530273,16.459999084472656,17.649999618530273,17.649999618530273,59800
2020-06-15,17.15999984741211,18.43000030517578,17.15999984741211,17.610000610351562,17.610000610351562,108300
2020-06-16,18.239999771118164,19.56999969482422,18.239999771118164,19.0,19.0,87300
2020-06-17,19.450000762939453,19.540000915527344,18.510000228881836,18.709999084472656,18.709999084472656,111800
2020-06-18,18.979999542236328,19.530000686645508,17.264999389648438,18.149999618530273,18.149999618530273,132400
2020-06-19,18.329999923706055,19.979999542236328,18.219999313354492,19.649999618530273,19.649999618530273,165200
2020-06-22,19.790000915527344,20.190000534057617,19.520000457763672,20.030000686645508,20.030000686645508,142400
2020-06-23,20.520000457763672,21.100000381469727,20.149999618530273,20.969999313354492,20.969999313354492,127500
2020-06-24,20.549999237060547,20.950000762939453,19.450000762939453,20.530000686645508,20.530000686645508,50300
2020-06-25,22.209999084472656,22.209999084472656,19.702999114990234,20.799999237060547,20.799999237060547,67600
2020-06-26,20.56999969482422,20.56999969482422,19.770000457763672,20.18000030517578,20.18000030517578,241600
2020-06-29,20.690000534057617,20.690000534057617,19.020000457763672,19.280000686645508,19.280000686645508,74300
2020-06-30,19.270000457763672,20.385000228881836,19.0,19.459999084472656,19.459999084472656,64900
2020-07-01,19.520000457763672,20.149999618530273,19.0,19.8799991607666,19.8799991607666,92100
2020-07-02,20.280000686645508,21.290000915527344,20.030000686645508,20.149999618530273,20.149999618530273,47300
2020-07-06,20.459999084472656,20.8799991607666,19.700000762939453,20.200000762939453,20.200000762939453,36900
2020-07-07,19.979999542236328,20.790000915527344,19.40999984741211,19.459999084472656,19.459999084472656,39400
2020-07-08,19.309999465942383,20.06999969482422,19.06999969482422,19.6200008392334,19.6200008392334,34400
2020-07-09,19.75,20.389999389648438,18.6299991607666,19.670000076293945,19.670000076293945,54100
2020-07-10,19.510000228881836,19.889999389648438,18.760000228881836,19.030000686645508,19.030000686645508,22300
2020-07-13,19.809999465942383,19.899999618530273,18.5,18.6200008392334,18.6200008392334,57200
2020-07-14,18.790000915527344,19.139999389648438,17.833999633789062,18.950000762939453,18.950000762939453,34800
2020-07-15,19.40999984741211,20.139999389648438,19.139999389648438,19.25,19.25,48800
2020-07-16,19.25,20.440000534057617,18.920000076293945,20.1299991607666,20.1299991607666,46900
2020-07-17,20.25,21.100000381469727,19.959999084472656,20.170000076293945,20.170000076293945,52300
2020-07-20,20.290000915527344,20.850000381469727,20.1200008392334,20.829999923706055,20.829999923706055,22600
2020-07-21,20.93000030517578,22.009000778198242,20.6299991607666,20.860000610351562,20.860000610351562,53900
2020-07-22,21.3799991607666,21.3799991607666,20.110000610351562,20.110000610351562,20.110000610351562,39200
2020-07-23,20.280000686645508,22.290000915527344,20.280000686645508,21.170000076293945,21.170000076293945,55000
2020-07-24,20.899999618530273,22.0,20.329999923706055,20.700000762939453,20.700000762939453,36800
2020-07-27,20.690000534057617,21.100000381469727,18.59000015258789,19.350000381469727,19.350000381469727,71800
2020-07-28,19.31999969482422,19.729999542236328,18.6299991607666,19.3799991607666,19.3799991607666,29300
2020-07-29,19.729999542236328,20.739999771118164,19.15999984741211,20.260000228881836,20.260000228881836,40000
2020-07-30,19.850000381469727,21.6200008392334,19.281999588012695,21.3799991607666,21.3799991607666,65500
2020-07-31,22.40999984741211,22.549999237060547,21.540000915527344,22.079999923706055,22.079999923706055,69200
2020-08-03,24.790000915527344,24.790000915527344,22.290000915527344,22.489999771118164,22.489999771118164,199800
2020-08-04,22.75,23.25,22.229999542236328,22.59000015258789,22.59000015258789,45300
2020-08-05,22.639999389648438,22.790000915527344,21.40999984741211,22.3700008392334,22.3700008392334,57400
2020-08-06,22.75,24.489999771118164,21.829999923706055,23.510000228881836,23.510000228881836,62100
2020-08-07,25.6299991607666,26.520000457763672,24.5,25.280000686645508,25.280000686645508,216200
2020-08-10,25.059999465942383,27.25,25.0,26.59000015258789,26.59000015258789,113800
2020-08-11,26.65999984741211,27.43000030517578,25.420000076293945,25.790000915527344,25.790000915527344,120100
2020-08-12,25.68000030517578,26.229999542236328,22.989999771118164,24.8799991607666,24.8799991607666,106400
2020-08-13,24.690000534057617,24.825000762939453,23.530000686645508,24.360000610351562,24.360000610351562,53000
2020-08-14,24.079999923706055,24.399999618530273,23.329999923706055,24.170000076293945,24.170000076293945,40700
2020-08-17,24.15999984741211,24.8799991607666,23.674999237060547,24.5,24.5,32200
2020-08-18,24.5,24.510000228881836,23.809999465942383,24.43000030517578,24.43000030517578,28600
2020-08-19,24.43000030517578,25.350000381469727,23.670000076293945,24.350000381469727,24.350000381469727,47000
2020-08-20,24.3700008392334,24.799999237060547,23.711999893188477,24.34000015258789,24.34000015258789,68600
2020-08-21,24.18000030517578,24.25,23.820999145507812,24.25,24.25,33900
2020-08-24,24.040000915527344,24.399999618530273,22.68000030517578,23.450000762939453,23.450000762939453,85500
2020-08-25,23.56999969482422,24.56999969482422,23.364999771118164,24.190000534057617,24.190000534057617,40500
2020-08-26,24.209999084472656,24.209999084472656,23.600000381469727,24.020000457763672,24.020000457763672,32900
2020-08-27,23.860000610351562,24.1299991607666,22.450000762939453,23.59000015258789,23.59000015258789,88600
2020-08-28,23.56999969482422,24.25,23.0,24.040000915527344,24.040000915527344,34300
2020-08-31,24.0,26.780000686645508,23.84000015258789,25.959999084472656,25.959999084472656,125400
2020-09-01,26.989999771118164,26.989999771118164,23.40999984741211,23.889999389648438,23.889999389648438,121200
2020-09-02,24.040000915527344,24.040000915527344,21.610000610351562,21.969999313354492,21.969999313354492,55100
2020-09-03,22.010000228881836,22.489999771118164,20.280000686645508,20.459999084472656,20.459999084472656,40000
2020-09-04,20.649999618530273,21.84000015258789,20.280000686645508,21.40999984741211,21.40999984741211,63300
2020-09-08,20.899999618530273,22.479999542236328,19.610000610351562,19.649999618530273,19.649999618530273,363000
2020-09-09,20.899999618530273,21.5,19.600000381469727,19.690000534057617,19.690000534057617,158700
2020-09-10,19.81999969482422,20.525999069213867,19.239999771118164,19.540000915527344,19.540000915527344,76200
2020-09-11,19.700000762939453,20.3799991607666,18.139999389648438,18.969999313354492,18.969999313354492,53000
2020-09-14,19.290000915527344,21.09000015258789,19.290000915527344,21.079999923706055,21.079999923706055,62900
2020-09-15,21.18000030517578,22.344999313354492,20.010000228881836,21.139999389648438,21.139999389648438,57800
2020-09-16,21.09000015258789,21.59000015258789,20.65999984741211,21.329999923706055,21.329999923706055,46900
2020-09-17,20.969999313354492,21.683000564575195,20.969999313354492,21.450000762939453,21.450000762939453,37100
2020-09-18,21.559999465942383,21.96500015258789,19.670000076293945,19.739999771118164,19.739999771118164,208500
2020-09-21,20.049999237060547,20.399999618530273,18.829999923706055,19.600000381469727,19.600000381469727,78600
2020-09-22,19.65999984741211,19.770000457763672,18.854999542236328,19.65999984741211,19.65999984741211,30700
2020-09-23,19.549999237060547,19.610000610351562,18.229999542236328,18.399999618530273,18.399999618530273,44600
2020-09-24,18.270000457763672,19.18000030517578,18.239999771118164,18.950000762939453,18.950000762939453,46600
2020-09-25,18.809999465942383,19.489999771118164,18.639999389648438,18.959999084472656,18.959999084472656,36300
2020-09-28,19.059999465942383,19.6200008392334,18.540000915527344,18.639999389648438,18.639999389648438,57400
2020-09-29,18.600000381469727,19.825000762939453,18.459999084472656,19.360000610351562,19.360000610351562,73400
2020-09-30,19.540000915527344,19.829999923706055,18.719999313354492,19.270000457763672,19.270000457763672,51700
2020-10-01,19.1200008392334,20.719999313354492,19.1200008392334,20.5,20.5,83000
2020-10-02,19.454999923706055,20.90999984741211,18.959999084472656,19.25,19.25,67400
2020-10-05,19.309999465942383,19.55500030517578,18.860000610351562,19.100000381469727,19.100000381469727,38200
2020-10-06,19.010000228881836,19.329999923706055,18.520000457763672,18.639999389648438,18.639999389648438,54300
2020-10-07,18.790000915527344,20.05500030517578,18.790000915527344,19.239999771118164,19.239999771118164,27300
2020-10-08,19.309999465942383,20.469999313354492,19.309999465942383,19.989999771118164,19.989999771118164,65400
2020-10-09,20.0,20.309999465942383,19.5,19.84000015258789,19.84000015258789,28900
2020-10-12,19.93000030517578,19.93000030517578,19.440000534057617,19.68000030517578,19.68000030517578,27800
2020-10-13,19.68000030517578,20.0,19.559999465942383,19.860000610351562,19.860000610351562,11300
2020-10-14,19.899999618530273,20.149999618530273,19.40999984741211,19.780000686645508,19.780000686645508,50500
2020-10-15,20.25,20.75,19.709999084472656,20.440000534057617,20.440000534057617,92100
2020-10-16,20.780000686645508,21.010000228881836,20.260000228881836,20.40999984741211,20.40999984741211,67700
2020-10-19,20.59000015258789,20.600000381469727,19.059999465942383,19.25,19.25,56600
2020-10-20,19.389999389648438,19.709999084472656,17.56999969482422,18.229999542236328,18.229999542236328,108200
2020-10-21,18.270000457763672,18.270000457763672,17.670000076293945,17.760000228881836,17.760000228881836,29500
2020-10-22,18.110000610351562,18.8700008392334,17.760000228881836,18.399999618530273,18.399999618530273,32400
2020-10-23,18.6200008392334,18.725000381469727,17.799999237060547,18.059999465942383,18.059999465942383,24000
2020-10-26,17.799999237060547,18.06999969482422,16.84000015258789,17.139999389648438,17.139999389648438,70000
2020-10-27,17.290000915527344,18.110000610351562,16.950000762939453,17.59000015258789,17.59000015258789,22700
2020-10-28,17.25,17.6200008392334,16.190000534057617,16.610000610351562,16.610000610351562,79100
2020-10-29,16.780000686645508,16.780000686645508,15.880000114440918,16.1299991607666,16.1299991607666,66000
2020-10-30,16.100000381469727,16.6299991607666,15.220000267028809,15.75,15.75,87500
2020-11-02,15.75,16.719999313354492,15.350000381469727,16.469999313354492,16.469999313354492,66200
2020-11-03,16.489999771118164,17.299999237060547,16.0,17.209999084472656,17.209999084472656,53000
2020-11-04,17.450000762939453,18.399999618530273,17.25,18.020000457763672,18.020000457763672,56600
2020-11-05,18.489999771118164,18.489999771118164,17.59000015258789,17.899999618530273,17.899999618530273,38600
2020-11-06,18.309999465942383,18.309999465942383,17.459999084472656,17.920000076293945,17.920000076293945,42700
2020-11-09,18.219999313354492,19.200000762939453,17.770000457763672,18.329999923706055,18.329999923706055,47600
2020-11-10,18.3799991607666,18.514999389648438,17.420000076293945,17.959999084472656,17.959999084472656,48300
2020-11-11,17.940000534057617,18.059999465942383,16.954999923706055,17.200000762939453,17.200000762939453,52300
2020-11-12,18.049999237060547,18.549999237060547,17.559999465942383,18.100000381469727,18.100000381469727,61100
2020-11-13,19.700000762939453,20.34000015258789,18.719999313354492,19.190000534057617,19.190000534057617,120700
2020-11-16,19.610000610351562,20.200000762939453,19.479999542236328,20.190000534057617,20.190000534057617,86900
2020-11-17,20.190000534057617,20.309999465942383,19.610000610351562,20.110000610351562,20.110000610351562,47300
2020-11-18,19.799999237060547,19.799999237060547,18.579999923706055,18.65999984741211,18.65999984741211,54700
2020-11-19,18.729999542236328,19.639999389648438,18.639999389648438,19.020000457763672,19.020000457763672,55300
2020-11-20,18.770000457763672,20.209999084472656,18.520000457763672,20.030000686645508,20.030000686645508,65300
2020-11-23,20.329999923706055,21.299999237060547,19.05299949645996,20.479999542236328,20.479999542236328,93400
2020-11-24,20.1200008392334,21.950000762939453,20.1200008392334,21.6299991607666,21.6299991607666,61200
2020-11-25,21.700000762939453,22.290000915527344,21.329999923706055,21.739999771118164,21.739999771118164,46700
2020-11-27,21.860000610351562,22.579999923706055,21.829999923706055,22.25,22.25,25300
2020-11-30,22.59000015258789,23.979999542236328,22.450000762939453,23.450000762939453,23.450000762939453,67700
2020-12-01,23.979999542236328,24.84000015258789,23.260000228881836,23.8700008392334,23.8700008392334,68300
2020-12-02,23.989999771118164,24.31999969482422,23.187999725341797,23.899999618530273,23.899999618530273,39700
2020-12-03,24.1200008392334,24.489999771118164,23.200000762939453,24.15999984741211,24.15999984741211,59400
2020-12-04,24.100000381469727,24.68000030517578,23.56999969482422,24.0,24.0,98500
2020-12-07,23.989999771118164,25.799999237060547,23.229999542236328,23.75,23.75,119700
2020-12-08,23.18000030517578,24.579999923706055,23.18000030517578,23.860000610351562,23.860000610351562,132000
2020-12-09,23.809999465942383,24.35099983215332,22.905000686645508,24.020000457763672,24.020000457763672,50400
2020-12-10,25.3799991607666,26.309999465942383,24.73699951171875,24.93000030517578,24.93000030517578,166800
2020-12-11,24.59000015258789,25.780000686645508,23.940000534057617,25.450000762939453,25.450000762939453,106800
2020-12-14,24.559999465942383,25.100000381469727,22.899999618530273,24.0,24.0,181300
2020-12-15,18.850000381469727,19.450000762939453,18.5,18.540000915527344,18.540000915527344,2319500
2020-12-16,18.809999465942383,19.25,17.770000457763672,17.950000762939453,17.950000762939453,753000
2020-12-17,18.200000762939453,18.479999542236328,17.299999237060547,17.850000381469727,17.850000381469727,532000
2020-12-18,17.899999618530273,18.280000686645508,17.329999923706055,17.450000762939453,17.450000762939453,532700
2020-12-21,17.260000228881836,18.739999771118164,17.100000381469727,18.469999313354492,18.469999313354492,285500
2020-12-22,18.43000030517578,19.020000457763672,18.0,18.600000381469727,18.600000381469727,203500
2020-12-23,18.75,19.010000228881836,18.020000457763672,18.600000381469727,18.600000381469727,188200
2020-12-24,18.8700008392334,19.0,18.209999084472656,18.25,18.25,108400
2020-12-28,18.5,18.6299991607666,17.610000610351562,17.760000228881836,17.760000228881836,252500
2020-12-29,19.038000106811523,19.700000762939453,18.621999740600586,19.540000915527344,19.540000915527344,452600
2020-12-30,19.639999389648438,19.90999984741211,18.1200008392334,18.200000762939453,18.200000762939453,383200
