Date,Open,High,Low,Close,Adj Close,Volume
2019-05-09,15.609999656677246,16.420000076293945,15.09000015258789,15.369999885559082,15.369999885559082,984000
2019-05-10,15.300000190734863,18.229999542236328,15.100000381469727,18.0,18.0,247800
2019-05-13,18.290000915527344,18.709999084472656,17.0,18.450000762939453,18.450000762939453,170300
2019-05-14,18.25,18.729999542236328,17.649999618530273,18.549999237060547,18.549999237060547,69100
2019-05-15,18.549999237060547,19.09000015258789,17.785999298095703,18.639999389648438,18.639999389648438,82300
2019-05-16,18.719999313354492,19.670000076293945,17.8700008392334,19.010000228881836,19.010000228881836,100500
2019-05-17,18.600000381469727,19.510000228881836,17.56999969482422,18.709999084472656,18.709999084472656,88100
2019-05-20,18.700000762939453,19.59000015258789,18.399999618530273,19.049999237060547,19.049999237060547,45700
2019-05-21,19.238000869750977,19.8799991607666,19.09600067138672,19.399999618530273,19.399999618530273,56900
2019-05-22,19.889999389648438,20.549999237060547,18.809999465942383,20.5,20.5,130700
2019-05-23,20.079999923706055,20.184999465942383,19.489999771118164,19.639999389648438,19.639999389648438,37400
2019-05-24,19.649999618530273,20.799999237060547,19.6200008392334,19.860000610351562,19.860000610351562,11600
2019-05-28,19.969999313354492,21.799999237060547,19.969999313354492,21.40999984741211,21.40999984741211,80000
2019-05-29,21.40999984741211,22.1299991607666,20.472999572753906,21.0,21.0,64100
2019-05-30,20.920000076293945,21.959999084472656,20.610000610351562,21.15999984741211,21.15999984741211,50500
2019-05-31,21.5,21.59600067138672,20.510000228881836,20.700000762939453,20.700000762939453,32100
2019-06-03,20.68000030517578,20.90999984741211,19.76300048828125,20.010000228881836,20.010000228881836,27100
2019-06-04,20.440000534057617,21.7189998626709,20.187999725341797,20.399999618530273,20.399999618530273,31300
2019-06-05,20.649999618530273,21.389999389648438,20.34000015258789,20.540000915527344,20.540000915527344,21400
2019-06-06,20.459999084472656,20.8700008392334,19.75,19.84000015258789,19.84000015258789,57400
2019-06-07,20.0,20.2549991607666,19.90999984741211,19.979999542236328,19.979999542236328,27000
2019-06-10,20.0,20.0,18.420000076293945,18.770000457763672,18.770000457763672,53600
2019-06-11,18.950000762939453,20.31599998474121,18.655000686645508,18.75,18.75,42000
2019-06-12,19.579999923706055,20.18000030517578,18.350000381469727,19.290000915527344,19.290000915527344,38100
2019-06-13,19.954999923706055,21.25,19.68000030517578,21.25,21.25,32500
2019-06-14,21.25,25.5,20.5,20.719999313354492,20.719999313354492,47500
2019-06-17,20.780000686645508,22.458999633789062,20.75,22.190000534057617,22.190000534057617,30300
2019-06-18,22.219999313354492,23.989999771118164,22.219999313354492,23.219999313354492,23.219999313354492,16700
2019-06-19,23.600000381469727,24.81999969482422,22.729999542236328,24.239999771118164,24.239999771118164,27800
2019-06-20,24.479999542236328,24.889999389648438,24.0,24.0,24.0,14100
2019-06-21,24.0,24.8799991607666,22.200000762939453,22.520000457763672,22.520000457763672,35600
2019-06-24,21.93000030517578,23.329999923706055,21.375999450683594,22.170000076293945,22.170000076293945,32300
2019-06-25,23.399999618530273,23.399999618530273,21.540000915527344,22.25,22.25,18400
2019-06-26,22.219999313354492,23.00200080871582,21.829999923706055,22.459999084472656,22.459999084472656,15400
2019-06-27,23.5,23.68000030517578,22.25,23.149999618530273,23.149999618530273,19900
2019-06-28,23.5,27.950000762939453,22.90999984741211,27.149999618530273,27.149999618530273,63400
2019-07-01,27.729999542236328,27.729999542236328,23.75,25.959999084472656,25.959999084472656,33300
2019-07-02,24.389999389648438,25.40999984741211,22.43000030517578,23.1299991607666,23.1299991607666,32500
2019-07-03,23.5,24.43000030517578,20.3700008392334,21.0,21.0,18900
2019-07-05,21.0,22.87299919128418,20.139999389648438,22.469999313354492,22.469999313354492,19500
2019-07-08,22.350000381469727,22.350000381469727,19.670000076293945,19.889999389648438,19.889999389648438,24800
2019-07-09,19.920000076293945,22.299999237060547,19.920000076293945,21.510000228881836,21.510000228881836,16900
2019-07-10,21.510000228881836,21.510000228881836,20.09000015258789,20.09000015258789,20.09000015258789,7600
2019-07-11,20.3799991607666,21.459999084472656,20.3799991607666,21.459999084472656,21.459999084472656,1300
2019-07-12,21.299999237060547,21.299999237060547,19.0,19.06999969482422,19.06999969482422,23100
2019-07-15,20.110000610351562,20.110000610351562,19.011999130249023,19.690000534057617,19.690000534057617,10200
2019-07-16,19.68000030517578,20.280000686645508,19.280000686645508,19.3700008392334,19.3700008392334,4600
2019-07-17,19.989999771118164,19.989999771118164,19.25,19.399999618530273,19.399999618530273,2000
2019-07-18,19.299999237060547,19.299999237060547,19.114999771118164,19.139999389648438,19.139999389648438,800
2019-07-19,20.399999618530273,20.399999618530273,19.450000762939453,19.450000762939453,19.450000762939453,3000
2019-07-22,19.459999084472656,20.399999618530273,19.459999084472656,19.5,19.5,11100
2019-07-23,20.049999237060547,20.34000015258789,19.34000015258789,19.934999465942383,19.934999465942383,18000
2019-07-24,19.850000381469727,20.600000381469727,19.469999313354492,19.6200008392334,19.6200008392334,23400
2019-07-25,19.214000701904297,19.510000228881836,17.31999969482422,17.31999969482422,17.31999969482422,13900
2019-07-26,17.399999618530273,18.549999237060547,15.100000381469727,17.530000686645508,17.530000686645508,8300
2019-07-29,17.530000686645508,17.972000122070312,17.530000686645508,17.972000122070312,17.972000122070312,500
2019-07-30,17.899999618530273,18.0,15.899999618530273,15.949999809265137,15.949999809265137,76600
2019-07-31,17.549999237060547,17.549999237060547,16.0,16.200000762939453,16.200000762939453,12800
2019-08-01,16.75,16.75,16.04599952697754,16.170000076293945,16.170000076293945,2300
2019-08-02,16.299999237060547,17.0,15.98900032043457,16.299999237060547,16.299999237060547,6900
2019-08-05,15.670000076293945,15.670000076293945,15.670000076293945,15.670000076293945,15.670000076293945,200
2019-08-06,15.199999809265137,16.520000457763672,15.199999809265137,16.364999771118164,16.364999771118164,11800
2019-08-07,15.819999694824219,16.211000442504883,15.329999923706055,16.0,16.0,6600
2019-08-08,16.422000885009766,16.422000885009766,15.869999885559082,15.869999885559082,15.869999885559082,800
2019-08-09,15.699999809265137,16.350000381469727,15.279999732971191,16.0,16.0,31000
2019-08-12,15.760000228881836,16.381999969482422,15.699000358581543,16.0,16.0,13700
2019-08-13,16.010000228881836,17.055999755859375,16.010000228881836,16.799999237060547,16.799999237060547,7800
2019-08-14,16.799999237060547,18.040000915527344,16.799999237060547,17.25,17.25,1000
2019-08-15,18.239999771118164,18.329999923706055,17.325000762939453,18.010000228881836,18.010000228881836,12400
2019-08-16,18.219999313354492,18.78499984741211,17.5,17.579999923706055,17.579999923706055,9500
2019-08-19,18.790000915527344,18.850000381469727,17.527999877929688,17.799999237060547,17.799999237060547,2200
2019-08-20,17.969999313354492,19.325000762939453,17.969999313354492,18.520000457763672,18.520000457763672,3700
2019-08-21,18.17099952697754,19.0,18.17099952697754,19.0,19.0,4000
2019-08-22,19.030000686645508,19.040000915527344,18.170000076293945,19.0,19.0,14200
2019-08-23,18.43000030517578,20.229999542236328,18.041000366210938,20.229999542236328,20.229999542236328,6200
2019-08-26,20.15999984741211,23.850000381469727,18.639999389648438,23.56999969482422,23.56999969482422,8200
2019-08-27,24.010000228881836,24.010000228881836,22.899999618530273,23.469999313354492,23.469999313354492,12100
2019-08-28,23.3700008392334,23.469999313354492,22.040000915527344,22.079999923706055,22.079999923706055,149100
2019-08-29,22.360000610351562,22.979999542236328,22.360000610351562,22.850000381469727,22.850000381469727,1700
2019-08-30,23.0,24.0,21.5,22.600000381469727,22.600000381469727,7900
2019-09-03,22.190000534057617,23.5,22.190000534057617,23.135000228881836,23.135000228881836,3300
2019-09-04,23.010000228881836,23.399999618530273,22.600000381469727,23.200000762939453,23.200000762939453,8600
2019-09-05,22.799999237060547,23.44499969482422,22.378000259399414,23.110000610351562,23.110000610351562,7400
2019-09-06,23.0,23.239999771118164,21.899999618530273,22.43000030517578,22.43000030517578,12500
2019-09-09,22.049999237060547,22.719999313354492,21.260000228881836,22.450000762939453,22.450000762939453,4500
2019-09-10,22.54800033569336,22.54800033569336,22.54800033569336,22.54800033569336,22.54800033569336,700
2019-09-11,22.559999465942383,22.610000610351562,21.760000228881836,22.295000076293945,22.295000076293945,4500
2019-09-12,22.079999923706055,22.3700008392334,21.677000045776367,22.100000381469727,22.100000381469727,4500
2019-09-13,21.81999969482422,22.350000381469727,20.239999771118164,22.260000228881836,22.260000228881836,7800
2019-09-16,22.0,22.0,21.280000686645508,21.280000686645508,21.280000686645508,600
2019-09-17,21.280000686645508,21.280000686645508,21.280000686645508,21.280000686645508,21.280000686645508,100
2019-09-18,21.829999923706055,21.829999923706055,21.040000915527344,21.040000915527344,21.040000915527344,1200
2019-09-19,21.156999588012695,21.15999984741211,20.299999237060547,20.299999237060547,20.299999237060547,2700
2019-09-20,22.066999435424805,22.066999435424805,20.0,20.0,20.0,1700
2019-09-23,20.149999618530273,20.261999130249023,19.049999237060547,19.3799991607666,19.3799991607666,7300
2019-09-24,20.5,20.520000457763672,18.610000610351562,18.610000610351562,18.610000610351562,3700
2019-09-25,18.75,19.0,18.299999237060547,18.790000915527344,18.790000915527344,2300
2019-09-26,18.5,18.575000762939453,16.510000228881836,16.799999237060547,16.799999237060547,14100
2019-09-27,17.110000610351562,18.979999542236328,17.110000610351562,18.899999618530273,18.899999618530273,3400
2019-09-30,18.799999237060547,19.23900032043457,18.406999588012695,18.649999618530273,18.649999618530273,2000
2019-10-01,17.950000762939453,18.219999313354492,17.149999618530273,18.219999313354492,18.219999313354492,11800
2019-10-02,18.5,18.549999237060547,18.010000228881836,18.260000228881836,18.260000228881836,1200
2019-10-03,18.25,18.889999389648438,17.75,18.889999389648438,18.889999389648438,6100
2019-10-04,18.850000381469727,19.476999282836914,18.22100067138672,18.3700008392334,18.3700008392334,3400
2019-10-07,18.229999542236328,18.625999450683594,17.780000686645508,18.260000228881836,18.260000228881836,4200
2019-10-08,18.200000762939453,18.200000762939453,17.399999618530273,17.565000534057617,17.565000534057617,1200
2019-10-09,17.940000534057617,17.969999313354492,17.020000457763672,17.100000381469727,17.100000381469727,7000
2019-10-10,16.716999053955078,17.329999923706055,15.770000457763672,16.200000762939453,16.200000762939453,17900
2019-10-11,16.440000534057617,18.389999389648438,16.440000534057617,17.56999969482422,17.56999969482422,6700
2019-10-14,17.690000534057617,19.125999450683594,17.690000534057617,18.2549991607666,18.2549991607666,1600
2019-10-15,18.780000686645508,18.780000686645508,18.0,18.290000915527344,18.290000915527344,7800
2019-10-16,18.399999618530273,19.0,18.201000213623047,18.889999389648438,18.889999389648438,5300
2019-10-17,18.979999542236328,18.979999542236328,18.84000015258789,18.950000762939453,18.950000762939453,2800
2019-10-18,18.8799991607666,20.989999771118164,18.8799991607666,20.989999771118164,20.989999771118164,1500
2019-10-21,20.65999984741211,22.375,19.375999450683594,21.899999618530273,21.899999618530273,3000
2019-10-22,21.739999771118164,21.739999771118164,19.989999771118164,21.25,21.25,5900
2019-10-23,21.25,21.25,21.25,21.25,21.25,100
2019-10-24,21.149999618530273,21.530000686645508,19.670000076293945,21.0,21.0,4700
2019-10-25,20.889999389648438,21.0,19.65999984741211,20.5,20.5,3100
2019-10-28,20.479999542236328,21.0,19.56999969482422,19.56999969482422,19.56999969482422,6900
2019-10-29,18.510000228881836,20.200000762939453,18.510000228881836,19.260000228881836,19.260000228881836,1600
2019-10-30,19.538999557495117,19.538999557495117,18.40999984741211,18.604000091552734,18.604000091552734,3400
2019-10-31,19.139999389648438,19.139999389648438,19.139999389648438,19.139999389648438,19.139999389648438,500
2019-11-01,18.46500015258789,19.739999771118164,18.399999618530273,19.700000762939453,19.700000762939453,3700
2019-11-04,20.0,20.399999618530273,19.375,20.399999618530273,20.399999618530273,11900
2019-11-05,20.309999465942383,20.309999465942383,19.1299991607666,19.75,19.75,5200
2019-11-06,20.0,20.0,19.020000457763672,19.049999237060547,19.049999237060547,3500
2019-11-07,19.049999237060547,19.049999237060547,19.049999237060547,19.049999237060547,19.049999237060547,700
2019-11-08,19.09000015258789,19.139999389648438,17.579999923706055,17.579999923706055,17.579999923706055,6400
2019-11-11,18.240999221801758,18.240999221801758,17.850000381469727,17.850000381469727,17.850000381469727,1000
2019-11-12,17.719999313354492,17.989999771118164,17.0,17.783000946044922,17.783000946044922,3700
2019-11-13,17.533000946044922,17.86400032043457,17.530000686645508,17.530000686645508,17.530000686645508,800
2019-11-14,18.0,18.0,17.010000228881836,17.030000686645508,17.030000686645508,6500
2019-11-15,17.719999313354492,17.719999313354492,16.40999984741211,17.65999984741211,17.65999984741211,5100
2019-11-18,17.577999114990234,17.577999114990234,17.577999114990234,17.577999114990234,17.577999114990234,500
2019-11-19,17.760000228881836,18.0,17.06999969482422,17.579999923706055,17.579999923706055,9000
2019-11-20,17.0,18.6200008392334,16.399999618530273,18.6200008392334,18.6200008392334,6900
2019-11-21,18.2450008392334,18.940000534057617,16.540000915527344,16.809999465942383,16.809999465942383,8400
2019-11-22,16.760000228881836,17.979999542236328,16.760000228881836,17.892000198364258,17.892000198364258,2100
2019-11-25,17.889999389648438,17.889999389648438,17.81999969482422,17.81999969482422,17.81999969482422,1400
2019-11-26,17.860000610351562,18.0,16.6299991607666,17.010000228881836,17.010000228881836,45400
2019-11-27,17.700000762939453,18.25,17.0,17.09000015258789,17.09000015258789,37600
2019-11-29,17.06999969482422,17.524999618530273,16.5,16.8700008392334,16.8700008392334,22200
2019-12-02,17.0,17.1299991607666,16.899999618530273,17.0,17.0,7800
2019-12-03,16.610000610351562,17.0,15.550000190734863,16.75,16.75,4000
2019-12-04,16.850000381469727,17.229999542236328,16.079999923706055,16.700000762939453,16.700000762939453,6100
2019-12-05,16.649999618530273,17.1200008392334,16.280000686645508,16.280000686645508,16.280000686645508,3400
2019-12-06,16.3700008392334,17.229999542236328,16.350000381469727,16.739999771118164,16.739999771118164,4600
2019-12-09,16.940000534057617,16.950000762939453,16.549999237060547,16.8700008392334,16.8700008392334,11700
2019-12-10,16.700000762939453,16.722999572753906,16.5,16.719999313354492,16.719999313354492,2300
2019-12-11,16.770000457763672,16.770000457763672,16.198999404907227,16.201000213623047,16.201000213623047,1900
2019-12-12,16.225000381469727,16.65999984741211,15.925000190734863,16.56999969482422,16.56999969482422,3100
2019-12-13,16.049999237060547,16.56999969482422,16.049999237060547,16.5,16.5,2400
2019-12-16,16.260000228881836,16.489999771118164,15.904999732971191,16.100000381469727,16.100000381469727,6800
2019-12-17,16.0,16.0,15.529999732971191,15.819999694824219,15.819999694824219,78700
2019-12-18,15.930000305175781,15.930000305175781,14.649999618530273,15.430000305175781,15.430000305175781,23000
2019-12-19,15.600000381469727,15.600000381469727,15.140000343322754,15.40999984741211,15.40999984741211,29600
2019-12-20,15.380000114440918,16.059999465942383,15.3100004196167,15.600000381469727,15.600000381469727,14000
2019-12-23,15.739999771118164,16.1200008392334,15.5,15.5,15.5,2100
2019-12-24,15.61299991607666,16.13800048828125,15.529999732971191,15.600000381469727,15.600000381469727,16300
2019-12-26,15.770000457763672,16.170000076293945,15.319999694824219,15.46500015258789,15.46500015258789,14200
2019-12-27,15.649999618530273,16.339000701904297,12.359999656677246,15.399999618530273,15.399999618530273,159600
2019-12-30,15.350000381469727,16.288999557495117,15.350000381469727,15.529999732971191,15.529999732971191,19200
2019-12-31,15.600000381469727,16.299999237060547,15.270000457763672,16.010000228881836,16.010000228881836,79100
2020-01-02,16.149999618530273,16.25,15.710000038146973,15.850000381469727,15.850000381469727,16800
2020-01-03,15.890000343322754,17.5,15.640000343322754,17.5,17.5,21300
2020-01-06,17.260000228881836,17.75,17.0,17.0,17.0,17400
2020-01-07,17.329999923706055,17.329999923706055,15.895000457763672,16.399999618530273,16.399999618530273,10200
2020-01-08,16.12299919128418,17.540000915527344,15.41100025177002,17.094999313354492,17.094999313354492,16600
2020-01-09,16.59000015258789,17.0,16.5,16.88800048828125,16.88800048828125,18400
2020-01-10,17.030000686645508,17.030000686645508,16.200000762939453,16.5,16.5,10700
2020-01-13,16.399999618530273,16.899999618530273,16.016000747680664,16.899999618530273,16.899999618530273,288300
2020-01-14,17.25,18.010000228881836,16.5,17.84000015258789,17.84000015258789,90100
2020-01-15,17.950000762939453,18.649999618530273,17.93000030517578,18.0,18.0,44800
2020-01-16,18.0,18.959999084472656,17.649999618530273,18.59000015258789,18.59000015258789,42500
2020-01-17,18.600000381469727,18.849000930786133,18.110000610351562,18.469999313354492,18.469999313354492,10100
2020-01-21,18.520000457763672,19.809999465942383,18.0,19.809999465942383,19.809999465942383,71400
2020-01-22,19.719999313354492,21.950000762939453,18.719999313354492,21.690000534057617,21.690000534057617,82400
2020-01-23,21.5,21.5,19.729999542236328,21.479999542236328,21.479999542236328,41600
2020-01-24,21.270000457763672,21.40999984741211,19.850000381469727,21.329999923706055,21.329999923706055,49500
2020-01-27,20.649999618530273,21.5,20.209999084472656,21.360000610351562,21.360000610351562,17900
2020-01-28,21.309999465942383,21.5,20.600000381469727,21.5,21.5,16700
2020-01-29,21.200000762939453,22.5,20.575000762939453,21.8700008392334,21.8700008392334,27100
2020-01-30,21.56999969482422,22.5,20.700000762939453,22.0,22.0,40600
2020-01-31,21.62700080871582,22.200000762939453,21.250999450683594,22.049999237060547,22.049999237060547,6700
2020-02-03,18.520000457763672,21.959999084472656,18.510000228881836,21.860000610351562,21.860000610351562,31300
2020-02-04,22.0,22.0,20.510000228881836,21.239999771118164,21.239999771118164,13100
2020-02-05,21.260000228881836,23.2450008392334,20.704999923706055,22.5,22.5,63200
2020-02-06,22.489999771118164,22.489999771118164,21.600000381469727,21.959999084472656,21.959999084472656,3700
2020-02-07,21.639999389648438,21.729999542236328,21.010000228881836,21.450000762939453,21.450000762939453,75600
2020-02-10,21.690000534057617,21.996999740600586,21.31999969482422,21.729999542236328,21.729999542236328,37900
2020-02-11,21.520000457763672,21.850000381469727,21.520000457763672,21.729999542236328,21.729999542236328,309100
2020-02-12,21.81999969482422,21.829999923706055,20.299999237060547,21.020000457763672,21.020000457763672,165700
2020-02-13,20.8799991607666,21.440000534057617,20.0,20.100000381469727,20.100000381469727,18200
2020-02-14,20.155000686645508,21.3700008392334,20.155000686645508,20.979999542236328,20.979999542236328,46000
2020-02-18,20.969999313354492,21.43000030517578,20.5,21.200000762939453,21.200000762939453,28900
2020-02-19,21.020000457763672,21.34000015258789,20.690000534057617,20.940000534057617,20.940000534057617,78700
2020-02-20,21.0,21.18000030517578,20.690000534057617,20.899999618530273,20.899999618530273,16800
2020-02-21,20.950000762939453,21.43000030517578,20.423999786376953,21.43000030517578,21.43000030517578,113200
2020-02-24,21.010000228881836,21.010000228881836,20.0,20.510000228881836,20.510000228881836,74400
2020-02-25,20.540000915527344,21.030000686645508,19.6299991607666,19.93000030517578,19.93000030517578,83000
2020-02-26,20.128000259399414,20.149999618530273,19.850000381469727,19.850000381469727,19.850000381469727,17100
2020-02-27,19.649999618530273,20.15999984741211,18.420000076293945,19.6200008392334,19.6200008392334,42800
2020-02-28,18.847000122070312,19.559999465942383,18.636999130249023,19.0,19.0,57000
2020-03-02,19.239999771118164,19.239999771118164,17.920000076293945,18.780000686645508,18.780000686645508,108000
2020-03-03,18.920000076293945,19.325000762939453,17.440000534057617,18.0,18.0,56100
2020-03-04,18.31999969482422,19.329999923706055,18.149999618530273,18.5,18.5,307000
2020-03-05,18.31999969482422,18.489999771118164,17.920000076293945,18.389999389648438,18.389999389648438,23900
2020-03-06,19.75,20.719999313354492,19.079999923706055,20.520000457763672,20.520000457763672,163200
2020-03-09,20.290000915527344,20.75,19.280000686645508,19.75,19.75,87400
2020-03-10,20.43000030517578,20.71500015258789,19.329999923706055,19.899999618530273,19.899999618530273,146100
2020-03-11,19.760000228881836,20.711999893188477,19.540000915527344,19.989999771118164,19.989999771118164,33000
2020-03-12,19.459999084472656,19.600000381469727,17.100000381469727,17.219999313354492,17.219999313354492,62000
2020-03-13,17.43000030517578,18.725000381469727,14.539999961853027,15.710000038146973,15.710000038146973,54500
2020-03-16,14.880000114440918,15.720000267028809,12.25,12.90999984741211,12.90999984741211,112100
2020-03-17,12.8100004196167,13.920000076293945,11.331000328063965,12.649999618530273,12.649999618530273,119900
2020-03-18,12.300000190734863,14.359999656677246,9.574999809265137,12.529999732971191,12.529999732971191,105900
2020-03-19,12.449999809265137,13.319999694824219,10.5,12.970000267028809,12.970000267028809,104300
2020-03-20,13.279999732971191,16.979999542236328,11.25,12.020000457763672,12.020000457763672,203000
2020-03-23,11.9399995803833,14.489999771118164,11.640000343322754,14.0,14.0,365900
2020-03-24,3.3499999046325684,3.5,1.690000057220459,1.7000000476837158,1.7000000476837158,8438500
2020-03-25,2.4000000953674316,2.4000000953674316,1.850000023841858,1.9500000476837158,1.9500000476837158,7462200
2020-03-26,2.1500000953674316,2.1500000953674316,1.9500000476837158,2.059999942779541,2.059999942779541,3331500
2020-03-27,2.069999933242798,2.0769999027252197,1.8899999856948853,1.9800000190734863,1.9800000190734863,2303500
2020-03-30,1.9500000476837158,1.965000033378601,1.809999942779541,1.8700000047683716,1.8700000047683716,1729500
2020-03-31,1.840000033378601,1.9600000381469727,1.75,1.840000033378601,1.840000033378601,1299200
2020-04-01,1.7999999523162842,1.8600000143051147,1.7200000286102295,1.7899999618530273,1.7899999618530273,879000
2020-04-02,1.809999942779541,1.8279999494552612,1.7100000381469727,1.7799999713897705,1.7799999713897705,756300
2020-04-03,1.7799999713897705,1.7899999618530273,1.7100000381469727,1.7699999809265137,1.7699999809265137,543800
2020-04-06,1.7999999523162842,2.25,1.75,2.109999895095825,2.109999895095825,2930300
2020-04-07,2.0899999141693115,2.0999999046325684,1.899999976158142,1.899999976158142,1.899999976158142,2155700
2020-04-08,1.9600000381469727,1.9900000095367432,1.8899999856948853,1.9500000476837158,1.9500000476837158,1090400
2020-04-09,1.9800000190734863,2.5,1.9299999475479126,2.390000104904175,2.390000104904175,4096400
2020-04-13,2.450000047683716,2.940000057220459,2.4100000858306885,2.700000047683716,2.700000047683716,5966100
2020-04-14,2.690000057220459,2.7799999713897705,2.380000114440918,2.609999895095825,2.609999895095825,2169700
2020-04-15,2.4100000858306885,2.549999952316284,2.3499999046325684,2.5,2.5,1020900
2020-04-16,2.430000066757202,2.5,2.25,2.3299999237060547,2.3299999237060547,958900
2020-04-17,2.380000114440918,2.5899999141693115,2.2899999618530273,2.4200000762939453,2.4200000762939453,1115500
2020-04-20,2.4100000858306885,2.4679999351501465,2.2899999618530273,2.299999952316284,2.299999952316284,893100
2020-04-21,2.2200000286102295,2.2699999809265137,2.049999952316284,2.190000057220459,2.190000057220459,913200
2020-04-22,2.2100000381469727,2.3299999237060547,2.190000057220459,2.255000114440918,2.255000114440918,551000
2020-04-23,2.259999990463257,2.3499999046325684,2.240000009536743,2.25,2.25,410800
2020-04-24,2.259999990463257,2.3399999141693115,2.1700000762939453,2.259999990463257,2.259999990463257,503100
2020-04-27,2.2799999713897705,2.450000047683716,2.2699999809265137,2.369999885559082,2.369999885559082,613200
2020-04-28,2.450000047683716,2.490000009536743,2.3499999046325684,2.4200000762939453,2.4200000762939453,426700
2020-04-29,2.4600000381469727,2.7200000286102295,2.4100000858306885,2.630000114440918,2.630000114440918,1302500
2020-04-30,2.7100000381469727,3.0799999237060547,2.4800000190734863,3.009999990463257,3.009999990463257,2621100
2020-05-01,3.0199999809265137,4.389999866485596,3.0,3.9700000286102295,3.9700000286102295,28820000
2020-05-04,3.6500000953674316,3.700000047683716,3.0999999046325684,3.3499999046325684,3.3499999046325684,4320300
2020-05-05,3.25,3.640000104904175,3.2200000286102295,3.369999885559082,3.369999885559082,2165500
2020-05-06,3.4200000762939453,3.4800000190734863,3.0,3.1600000858306885,3.1600000858306885,1161800
2020-05-07,3.2100000381469727,3.25,3.049999952316284,3.1600000858306885,3.1600000858306885,805200
2020-05-08,3.1700000762939453,3.380000114440918,3.130000114440918,3.3499999046325684,3.3499999046325684,669000
2020-05-11,3.309999942779541,3.740000009536743,3.200000047683716,3.450000047683716,3.450000047683716,1398500
2020-05-12,3.509999990463257,3.640000104904175,3.240000009536743,3.299999952316284,3.299999952316284,958100
2020-05-13,3.299999952316284,3.3450000286102295,2.9100000858306885,3.1500000953674316,3.1500000953674316,1101500
2020-05-14,3.240000009536743,3.25,2.950000047683716,3.130000114440918,3.130000114440918,614200
2020-05-15,3.0899999141693115,3.2799999713897705,3.065000057220459,3.1600000858306885,3.1600000858306885,649800
2020-05-18,3.25,3.440000057220459,3.2200000286102295,3.390000104904175,3.390000104904175,934100
2020-05-19,3.390000104904175,3.4000000953674316,3.259999990463257,3.299999952316284,3.299999952316284,427400
2020-05-20,3.299999952316284,3.5799999237060547,3.2799999713897705,3.4700000286102295,3.4700000286102295,726600
2020-05-21,3.4800000190734863,3.5199999809265137,3.309999942779541,3.430000066757202,3.430000066757202,454500
2020-05-22,3.369999885559082,3.4130001068115234,3.2799999713897705,3.309999942779541,3.309999942779541,383300
2020-05-26,3.450000047683716,3.5399999618530273,3.25,3.4000000953674316,3.4000000953674316,790100
2020-05-27,3.4000000953674316,3.4600000381469727,3.0799999237060547,3.259999990463257,3.259999990463257,657200
2020-05-28,3.319999933242798,3.380000114440918,3.119999885559082,3.190000057220459,3.190000057220459,635000
2020-05-29,3.2200000286102295,3.259999990463257,3.109999895095825,3.1600000858306885,3.1600000858306885,360000
2020-06-01,3.240000009536743,3.440000057220459,3.1500000953674316,3.440000057220459,3.440000057220459,665200
2020-06-02,3.450000047683716,4.050000190734863,3.440000057220459,3.6500000953674316,3.6500000953674316,2949000
2020-06-03,3.740000009536743,3.75,3.3499999046325684,3.5199999809265137,3.5199999809265137,1214300
2020-06-04,3.5,3.640000104904175,3.4200000762939453,3.5799999237060547,3.5799999237060547,664700
2020-06-05,3.700000047683716,3.9000000953674316,3.5369999408721924,3.740000009536743,3.740000009536743,1044800
2020-06-08,3.930000066757202,4.670000076293945,3.9260001182556152,4.28000020980835,4.28000020980835,3282800
2020-06-09,4.460000038146973,7.139999866485596,4.451000213623047,4.559999942779541,4.559999942779541,13502100
2020-06-10,4.900000095367432,5.199999809265137,4.40500020980835,4.5,4.5,2155200
2020-06-11,4.099999904632568,4.385000228881836,3.869999885559082,3.9100000858306885,3.9100000858306885,1523900
2020-06-12,4.349999904632568,4.400000095367432,3.940000057220459,4.079999923706055,4.079999923706055,909000
2020-06-15,3.940000057220459,4.309000015258789,3.7200000286102295,4.239999771118164,4.239999771118164,856900
2020-06-16,4.460000038146973,4.5,4.050000190734863,4.239999771118164,4.239999771118164,753100
2020-06-17,4.190000057220459,4.239999771118164,3.9800000190734863,4.079999923706055,4.079999923706055,503000
2020-06-18,3.9800000190734863,4.449999809265137,3.930000066757202,4.40500020980835,4.40500020980835,651800
2020-06-19,4.349999904632568,4.5,4.21999979019165,4.349999904632568,4.349999904632568,496100
2020-06-22,4.210000038146973,4.349999904632568,4.119999885559082,4.190000057220459,4.190000057220459,447300
2020-06-23,4.210000038146973,4.449999809265137,4.139999866485596,4.179999828338623,4.179999828338623,453800
2020-06-24,4.190000057220459,4.199999809265137,3.9000000953674316,4.139999866485596,4.139999866485596,663400
2020-06-25,4.090000152587891,4.190000057220459,3.999000072479248,4.0,4.0,406100
2020-06-26,4.019999980926514,4.079999923706055,3.799999952316284,3.8499999046325684,3.8499999046325684,789000
2020-06-29,3.890000104904175,4.130000114440918,3.799999952316284,3.8299999237060547,3.8299999237060547,487900
2020-06-30,3.890000104904175,3.9600000381469727,3.740000009536743,3.7799999713897705,3.7799999713897705,373400
2020-07-01,3.7899999618530273,3.9100000858306885,3.700000047683716,3.7699999809265137,3.7699999809265137,327800
2020-07-02,3.7799999713897705,3.9100000858306885,3.6600000858306885,3.7200000286102295,3.7200000286102295,276500
2020-07-06,3.690000057220459,3.9100000858306885,3.5799999237060547,3.869999885559082,3.869999885559082,358400
2020-07-07,3.859999895095825,3.878000020980835,3.700000047683716,3.799999952316284,3.799999952316284,200000
2020-07-08,3.7200000286102295,3.890000104904175,3.6640000343322754,3.890000104904175,3.890000104904175,198500
2020-07-09,3.890000104904175,3.890000104904175,3.6500000953674316,3.759999990463257,3.759999990463257,140500
2020-07-10,3.7300000190734863,3.799999952316284,3.619999885559082,3.690000057220459,3.690000057220459,786700
2020-07-13,3.680000066757202,3.7200000286102295,3.490000009536743,3.5199999809265137,3.5199999809265137,404100
2020-07-14,3.440000057220459,3.4700000286102295,3.180000066757202,3.3399999141693115,3.3399999141693115,498900
2020-07-15,3.380000114440918,3.4800000190734863,3.2100000381469727,3.4600000381469727,3.4600000381469727,399900
2020-07-16,3.4200000762939453,3.509999990463257,3.3499999046325684,3.440000057220459,3.440000057220459,158900
2020-07-17,3.490000009536743,3.7200000286102295,3.450000047683716,3.549999952316284,3.549999952316284,300900
2020-07-20,3.440000057220459,3.490000009536743,3.2799999713897705,3.3499999046325684,3.3499999046325684,521000
2020-07-21,3.4000000953674316,3.549999952316284,3.3399999141693115,3.4100000858306885,3.4100000858306885,244300
2020-07-22,3.4000000953674316,3.4700000286102295,3.309999942779541,3.3399999141693115,3.3399999141693115,149100
2020-07-23,7.760000228881836,9.989999771118164,6.449999809265137,8.90999984741211,8.90999984741211,224641000
2020-07-24,9.0,11.404000282287598,7.579999923706055,8.279999732971191,8.279999732971191,53343700
2020-07-27,7.989999771118164,8.9399995803833,7.809999942779541,8.430000305175781,8.430000305175781,5704600
2020-07-28,8.180000305175781,8.5,7.75,8.010000228881836,8.010000228881836,2465600
2020-07-29,8.0600004196167,8.949999809265137,7.800000190734863,8.75,8.75,3927200
2020-07-30,8.539999961853027,8.770000457763672,8.4399995803833,8.65999984741211,8.65999984741211,1590600
2020-07-31,8.449999809265137,8.859999656677246,8.239999771118164,8.699999809265137,8.699999809265137,1489800
2020-08-03,8.789999961853027,9.5,8.640000343322754,9.430000305175781,9.430000305175781,1440600
2020-08-04,9.430000305175781,9.859999656677246,9.180000305175781,9.359999656677246,9.359999656677246,1243900
2020-08-05,9.359999656677246,9.59000015258789,8.819999694824219,8.960000038146973,8.960000038146973,595300
2020-08-06,8.989999771118164,9.079999923706055,8.699999809265137,8.800000190734863,8.800000190734863,464800
2020-08-07,8.800000190734863,9.979999542236328,8.699999809265137,9.800000190734863,9.800000190734863,1668100
2020-08-10,9.899999618530273,10.449999809265137,9.25,9.479999542236328,9.479999542236328,1216700
2020-08-11,9.479999542236328,9.649999618530273,8.770000457763672,8.899999618530273,8.899999618530273,901700
2020-08-12,8.920000076293945,9.300000190734863,8.170000076293945,8.800000190734863,8.800000190734863,756500
2020-08-13,8.819999694824219,9.0,8.5,8.739999771118164,8.739999771118164,632300
2020-08-14,8.739999771118164,8.850000381469727,8.489999771118164,8.550000190734863,8.550000190734863,644400
2020-08-17,8.5,9.0,8.289999961853027,8.930000305175781,8.930000305175781,514400
2020-08-18,8.729999542236328,8.899999618530273,7.900000095367432,8.029999732971191,8.029999732971191,798700
2020-08-19,8.069999694824219,8.649999618530273,8.069999694824219,8.470000267028809,8.470000267028809,293400
2020-08-20,8.170000076293945,8.359999656677246,7.860000133514404,7.96999979019165,7.96999979019165,1013200
2020-08-21,7.860000133514404,8.1899995803833,7.519999980926514,7.760000228881836,7.760000228881836,799400
2020-08-24,7.679999828338623,8.020000457763672,7.510000228881836,7.710000038146973,7.710000038146973,595800
2020-08-25,7.650000095367432,8.239999771118164,7.619999885559082,7.96999979019165,7.96999979019165,452000
2020-08-26,7.960000038146973,8.079999923706055,7.699999809265137,7.71999979019165,7.71999979019165,362500
2020-08-27,7.739999771118164,7.860000133514404,7.670000076293945,7.730000019073486,7.730000019073486,550400
2020-08-28,7.699999809265137,7.820000171661377,7.579999923706055,7.71999979019165,7.71999979019165,180100
2020-08-31,7.610000133514404,7.860000133514404,7.610000133514404,7.739999771118164,7.739999771118164,197100
2020-09-01,7.690000057220459,8.399999618530273,7.639999866485596,8.199999809265137,8.199999809265137,400500
2020-09-02,8.130000114440918,8.380000114440918,7.929999828338623,8.109999656677246,8.109999656677246,471100
2020-09-03,8.029999732971191,8.460000038146973,7.630000114440918,7.710000038146973,7.710000038146973,284300
2020-09-04,7.78000020980835,7.900000095367432,7.369999885559082,7.75,7.75,275500
2020-09-08,7.650000095367432,7.909999847412109,7.5,7.730000019073486,7.730000019073486,128900
2020-09-09,7.699999809265137,8.079999923706055,7.699999809265137,7.860000133514404,7.860000133514404,216300
2020-09-10,7.849999904632568,8.270000457763672,7.849999904632568,8.15999984741211,8.15999984741211,137700
2020-09-11,8.140000343322754,8.289999961853027,7.724999904632568,7.809999942779541,7.809999942779541,153200
2020-09-14,7.900000095367432,8.241999626159668,7.900000095367432,8.140000343322754,8.140000343322754,113500
2020-09-15,8.100000381469727,8.220000267028809,8.010000228881836,8.140000343322754,8.140000343322754,54700
2020-09-16,8.039999961853027,8.899999618530273,8.039999961853027,8.550000190734863,8.550000190734863,279000
2020-09-17,8.479999542236328,8.739999771118164,8.300000190734863,8.630000114440918,8.630000114440918,96800
2020-09-18,8.600000381469727,8.899999618530273,8.430000305175781,8.880000114440918,8.880000114440918,252200
2020-09-21,8.5,8.619999885559082,7.769999980926514,7.900000095367432,7.900000095367432,332900
2020-09-22,7.889999866485596,7.986999988555908,7.78000020980835,7.949999809265137,7.949999809265137,114200
2020-09-23,7.949999809265137,7.989999771118164,7.5,7.710000038146973,7.710000038146973,139600
2020-09-24,7.559999942779541,7.71999979019165,7.070000171661377,7.260000228881836,7.260000228881836,182000
2020-09-25,7.239999771118164,7.690000057220459,7.210000038146973,7.610000133514404,7.610000133514404,102300
2020-09-28,7.690000057220459,7.71999979019165,7.5,7.510000228881836,7.510000228881836,81900
2020-09-29,7.519999980926514,7.715000152587891,7.295000076293945,7.550000190734863,7.550000190734863,100900
2020-09-30,7.650000095367432,7.690000057220459,7.25,7.320000171661377,7.320000171661377,90900
2020-10-01,7.349999904632568,7.4120001792907715,7.076000213623047,7.099999904632568,7.099999904632568,130300
2020-10-02,6.940000057220459,7.0,6.625,6.769999980926514,6.769999980926514,220100
2020-10-05,7.119999885559082,7.251999855041504,6.820000171661377,6.920000076293945,6.920000076293945,145200
2020-10-06,6.96999979019165,7.03000020980835,6.659999847412109,6.710000038146973,6.710000038146973,167300
2020-10-07,6.800000190734863,7.239999771118164,6.710000038146973,7.090000152587891,7.090000152587891,121300
2020-10-08,7.130000114440918,7.489999771118164,6.861000061035156,7.28000020980835,7.28000020980835,74400
2020-10-09,7.369999885559082,7.449999809265137,7.0,7.110000133514404,7.110000133514404,39300
2020-10-12,7.110000133514404,7.75,7.0,7.46999979019165,7.46999979019165,161100
2020-10-13,7.46999979019165,7.5,7.159999847412109,7.190000057220459,7.190000057220459,82400
2020-10-14,7.190000057220459,7.21999979019165,6.989999771118164,7.070000171661377,7.070000171661377,88100
2020-10-15,6.980000019073486,7.309999942779541,6.809999942779541,7.130000114440918,7.130000114440918,101100
2020-10-16,7.139999866485596,7.25,7.03000020980835,7.139999866485596,7.139999866485596,40300
2020-10-19,7.079999923706055,7.389999866485596,7.079999923706055,7.150000095367432,7.150000095367432,62300
2020-10-20,7.199999809265137,7.269999980926514,6.96999979019165,7.03000020980835,7.03000020980835,67500
2020-10-21,7.010000228881836,7.099999904632568,6.699999809265137,6.909999847412109,6.909999847412109,65200
2020-10-22,6.900000095367432,7.0329999923706055,6.806000232696533,7.0,7.0,78700
2020-10-23,6.5,6.5,5.840000152587891,6.0,6.0,1367200
2020-10-26,6.010000228881836,6.090000152587891,5.369999885559082,5.570000171661377,5.570000171661377,457100
2020-10-27,5.559999942779541,6.050000190734863,5.320000171661377,5.679999828338623,5.679999828338623,216400
2020-10-28,5.590000152587891,5.679999828338623,5.389999866485596,5.570000171661377,5.570000171661377,149800
2020-10-29,5.53000020980835,5.75,5.460000038146973,5.730000019073486,5.730000019073486,685400
2020-10-30,5.71999979019165,5.808000087738037,5.559999942779541,5.760000228881836,5.760000228881836,153600
2020-11-02,5.820000171661377,6.0,5.65500020980835,5.800000190734863,5.800000190734863,132600
2020-11-03,5.809999942779541,6.130000114440918,5.809999942779541,6.050000190734863,6.050000190734863,94100
2020-11-04,6.039999961853027,6.255000114440918,6.010000228881836,6.110000133514404,6.110000133514404,109100
2020-11-05,6.210000038146973,6.5,6.031000137329102,6.480000019073486,6.480000019073486,103400
2020-11-06,6.5,6.5,6.159999847412109,6.400000095367432,6.400000095367432,83600
2020-11-09,6.519999980926514,6.820000171661377,6.110000133514404,6.150000095367432,6.150000095367432,165600
2020-11-10,6.21999979019165,6.300000190734863,6.059999942779541,6.21999979019165,6.21999979019165,59500
2020-11-11,6.309999942779541,6.434999942779541,6.059999942779541,6.429999828338623,6.429999828338623,86100
2020-11-12,6.420000076293945,6.4770002365112305,6.130000114440918,6.199999809265137,6.199999809265137,89400
2020-11-13,6.199999809265137,6.460000038146973,6.179999828338623,6.340000152587891,6.340000152587891,147600
2020-11-16,6.5,6.599999904632568,6.21999979019165,6.579999923706055,6.579999923706055,95100
2020-11-17,6.53000020980835,6.650000095367432,6.502999782562256,6.559999942779541,6.559999942779541,53600
2020-11-18,6.570000171661377,6.730000019073486,6.5,6.570000171661377,6.570000171661377,84500
2020-11-19,6.579999923706055,6.690000057220459,6.309999942779541,6.519999980926514,6.519999980926514,71900
2020-11-20,6.449999809265137,6.710000038146973,6.429999828338623,6.710000038146973,6.710000038146973,82500
2020-11-23,6.570000171661377,6.690000057220459,6.480000019073486,6.510000228881836,6.510000228881836,64300
2020-11-24,6.539999961853027,6.710000038146973,6.519999980926514,6.679999828338623,6.679999828338623,121700
2020-11-25,6.679999828338623,6.699999809265137,6.520999908447266,6.650000095367432,6.650000095367432,48300
2020-11-27,6.619999885559082,6.767000198364258,6.559999942779541,6.579999923706055,6.579999923706055,51200
2020-11-30,6.570000171661377,6.75,6.570000171661377,6.699999809265137,6.699999809265137,108900
2020-12-01,6.659999847412109,6.949999809265137,6.400000095367432,6.5,6.5,200400
2020-12-02,6.5,6.78000020980835,6.429999828338623,6.639999866485596,6.639999866485596,76500
2020-12-03,6.639999866485596,6.809999942779541,6.510000228881836,6.699999809265137,6.699999809265137,71900
2020-12-04,6.670000076293945,6.949999809265137,6.519999980926514,6.840000152587891,6.840000152587891,78100
2020-12-07,6.840000152587891,7.0,6.760000228881836,6.849999904632568,6.849999904632568,72000
2020-12-08,6.829999923706055,7.75,6.699999809265137,7.400000095367432,7.400000095367432,229300
2020-12-09,7.369999885559082,7.710000038146973,7.059999942779541,7.170000076293945,7.170000076293945,116600
2020-12-10,7.190000057220459,7.75,7.170000076293945,7.659999847412109,7.659999847412109,99300
2020-12-11,7.71999979019165,7.96999979019165,7.329999923706055,7.429999828338623,7.429999828338623,101800
2020-12-14,7.53000020980835,7.650000095367432,7.28000020980835,7.480000019073486,7.480000019073486,48100
2020-12-15,7.53000020980835,7.650000095367432,7.099999904632568,7.329999923706055,7.329999923706055,67300
2020-12-16,7.320000171661377,7.349999904632568,6.659999847412109,6.75,6.75,162800
2020-12-17,6.769999980926514,7.099999904632568,6.599999904632568,6.75,6.75,418800
2020-12-18,6.840000152587891,6.949999809265137,6.64900016784668,6.860000133514404,6.860000133514404,111000
2020-12-21,6.789999961853027,7.039999961853027,6.639999866485596,6.840000152587891,6.840000152587891,72800
2020-12-22,6.829999923706055,7.0,6.784999847412109,6.929999828338623,6.929999828338623,38300
2020-12-23,6.900000095367432,7.0,6.730000019073486,6.880000114440918,6.880000114440918,88400
2020-12-24,6.880000114440918,7.050000190734863,6.809999942779541,6.909999847412109,6.909999847412109,19300
2020-12-28,6.900000095367432,7.0,6.730000019073486,6.739999771118164,6.739999771118164,288600
2020-12-29,6.75,6.849999904632568,6.679999828338623,6.710000038146973,6.710000038146973,50300
2020-12-30,6.659999847412109,6.900000095367432,6.639999866485596,6.820000171661377,6.820000171661377,73300
