Date,Open,High,Low,Close,Adj Close,Volume
2020-12-15,10.449999809265137,10.6899995803833,10.420000076293945,10.600000381469727,10.600000381469727,3360500
2020-12-16,10.9399995803833,10.9399995803833,10.0,10.420000076293945,10.420000076293945,1030000
2020-12-17,10.579999923706055,10.579999923706055,10.420000076293945,10.449999809265137,10.449999809265137,516100
2020-12-18,10.579999923706055,10.59000015258789,10.5,10.539999961853027,10.539999961853027,383400
2020-12-21,10.579999923706055,10.784000396728516,10.539999961853027,10.75,10.75,157200
2020-12-22,10.75,10.914999961853027,10.510000228881836,10.550000190734863,10.550000190734863,490800
2020-12-23,10.619999885559082,10.800000190734863,10.595000267028809,10.729999542236328,10.729999542236328,363500
2020-12-24,10.890000343322754,10.890000343322754,10.670000076293945,10.75,10.75,196800
2020-12-28,10.75,11.180000305175781,10.609999656677246,10.699999809265137,10.699999809265137,440800
2020-12-29,10.699999809265137,11.0,10.680000305175781,10.949999809265137,10.949999809265137,299100
2020-12-30,10.800000190734863,10.949999809265137,10.75,10.850000381469727,10.850000381469727,148400
