Date,Open,High,Low,Close,Adj Close,Volume
2017-06-05,9.449999809265137,9.510000228881836,9.390000343322754,9.510000228881836,9.510000228881836,10400
2017-06-06,9.53499984741211,9.550000190734863,9.53499984741211,9.550000190734863,9.550000190734863,1100
2017-06-07,9.5,9.619999885559082,9.479999542236328,9.479999542236328,9.479999542236328,27600
2017-06-08,9.489999771118164,9.489999771118164,9.479999542236328,9.479999542236328,9.479999542236328,13700
2017-06-09,9.484999656677246,9.5,9.470000267028809,9.479999542236328,9.479999542236328,26500
2017-06-12,9.510000228881836,9.520000457763672,9.510000228881836,9.520000457763672,9.520000457763672,1100
2017-06-13,9.520000457763672,9.550000190734863,9.510000228881836,9.550000190734863,9.550000190734863,48800
2017-06-14,9.534000396728516,9.534000396728516,9.520000457763672,9.520000457763672,9.520000457763672,8400
2017-06-15,9.520000457763672,9.539999961853027,9.5,9.5,9.5,49000
2017-06-16,9.5,9.510000228881836,9.5,9.5,9.5,26700
2017-06-19,9.520000457763672,9.520000457763672,9.510000228881836,9.520000457763672,9.520000457763672,644800
2017-06-20,9.520000457763672,9.539999961853027,9.5,9.539999961853027,9.539999961853027,25300
2017-06-21,9.529999732971191,9.529999732971191,9.529999732971191,9.529999732971191,9.529999732971191,60000
2017-06-22,9.510000228881836,9.569999694824219,9.510000228881836,9.529999732971191,9.529999732971191,18800
2017-06-23,9.550000190734863,9.600000381469727,9.529999732971191,9.550000190734863,9.550000190734863,213200
2017-06-26,9.539999961853027,9.541000366210938,9.539999961853027,9.541000366210938,9.541000366210938,500
2017-06-27,9.569999694824219,9.569999694824219,9.550000190734863,9.550000190734863,9.550000190734863,10000
2017-06-28,9.550000190734863,9.550000190734863,9.550000190734863,9.550000190734863,9.550000190734863,0
2017-06-29,9.539999961853027,9.5600004196167,9.510000228881836,9.550000190734863,9.550000190734863,1074900
2017-06-30,9.520000457763672,9.550000190734863,9.520000457763672,9.550000190734863,9.550000190734863,200
2017-07-03,9.539999961853027,9.539999961853027,9.529999732971191,9.529999732971191,9.529999732971191,45300
2017-07-05,9.539999961853027,9.539999961853027,9.539999961853027,9.539999961853027,9.539999961853027,500
2017-07-06,9.539999961853027,9.550000190734863,9.539999961853027,9.550000190734863,9.550000190734863,10900
2017-07-07,9.550000190734863,9.550000190734863,9.529999732971191,9.529999732971191,9.529999732971191,400
2017-07-10,9.600000381469727,9.600000381469727,9.510000228881836,9.520000457763672,9.520000457763672,120500
2017-07-11,9.520000457763672,9.5600004196167,9.520000457763672,9.5600004196167,9.5600004196167,593100
2017-07-12,9.569999694824219,9.569999694824219,9.5600004196167,9.560999870300293,9.560999870300293,1700
2017-07-13,9.560999870300293,9.560999870300293,9.560999870300293,9.560999870300293,9.560999870300293,0
2017-07-14,9.560999870300293,9.560999870300293,9.560999870300293,9.560999870300293,9.560999870300293,0
2017-07-17,9.5600004196167,9.649999618530273,9.510000228881836,9.600000381469727,9.600000381469727,16400
2017-07-18,9.600000381469727,9.600000381469727,9.550000190734863,9.550000190734863,9.550000190734863,15400
2017-07-19,9.579999923706055,9.579999923706055,9.539999961853027,9.5600004196167,9.5600004196167,11300
2017-07-20,9.569999694824219,9.569999694824219,9.560999870300293,9.569999694824219,9.569999694824219,4400
2017-07-21,9.550000190734863,9.59000015258789,9.550000190734863,9.59000015258789,9.59000015258789,5700
2017-07-24,9.579999923706055,9.579999923706055,9.550000190734863,9.550000190734863,9.550000190734863,200
2017-07-25,9.579999923706055,9.579999923706055,9.579999923706055,9.579999923706055,9.579999923706055,1000
2017-07-26,9.579999923706055,9.579999923706055,9.579999923706055,9.579999923706055,9.579999923706055,0
2017-07-27,9.600000381469727,9.600000381469727,9.550000190734863,9.59000015258789,9.59000015258789,106800
2017-07-28,9.59000015258789,9.59000015258789,9.59000015258789,9.59000015258789,9.59000015258789,0
2017-07-31,9.579999923706055,9.579999923706055,9.579999923706055,9.579999923706055,9.579999923706055,800
2017-08-01,9.579999923706055,9.579999923706055,9.579999923706055,9.579999923706055,9.579999923706055,0
2017-08-02,9.550000190734863,9.609999656677246,9.550000190734863,9.609999656677246,9.609999656677246,1300
2017-08-03,9.5600004196167,9.649999618530273,9.550000190734863,9.649999618530273,9.649999618530273,7100
2017-08-04,9.569999694824219,9.630000114440918,9.569999694824219,9.59000015258789,9.59000015258789,3800
2017-08-07,9.59000015258789,9.59000015258789,9.59000015258789,9.59000015258789,9.59000015258789,0
2017-08-08,9.59000015258789,9.59000015258789,9.59000015258789,9.59000015258789,9.59000015258789,0
2017-08-09,9.600000381469727,9.600000381469727,9.600000381469727,9.600000381469727,9.600000381469727,1500
2017-08-10,9.59000015258789,9.64900016784668,9.550000190734863,9.569999694824219,9.569999694824219,214000
2017-08-11,9.569999694824219,9.579999923706055,9.550000190734863,9.579999923706055,9.579999923706055,70800
2017-08-14,9.569999694824219,9.579999923706055,9.569999694824219,9.569999694824219,9.569999694824219,47200
2017-08-15,9.569999694824219,9.579999923706055,9.569999694824219,9.579999923706055,9.579999923706055,65000
2017-08-16,9.600000381469727,9.600000381469727,9.600000381469727,9.600000381469727,9.600000381469727,900
2017-08-17,9.579999923706055,9.579999923706055,9.539999961853027,9.539999961853027,9.539999961853027,106300
2017-08-18,9.5600004196167,9.59000015258789,9.550000190734863,9.5600004196167,9.5600004196167,55200
2017-08-21,9.569999694824219,9.569999694824219,9.569999694824219,9.569999694824219,9.569999694824219,10000
2017-08-22,9.579999923706055,9.579999923706055,9.569999694824219,9.569999694824219,9.569999694824219,4500
2017-08-23,9.579999923706055,9.579999923706055,9.569999694824219,9.579999923706055,9.579999923706055,11000
2017-08-24,9.59000015258789,9.600000381469727,9.579999923706055,9.579999923706055,9.579999923706055,10700
2017-08-25,9.579999923706055,9.609999656677246,9.579999923706055,9.579999923706055,9.579999923706055,10800
2017-08-28,9.569999694824219,9.59000015258789,9.569999694824219,9.59000015258789,9.59000015258789,21300
2017-08-29,9.59000015258789,9.609999656677246,9.569999694824219,9.579999923706055,9.579999923706055,5300
2017-08-30,9.600000381469727,9.600000381469727,9.600000381469727,9.600000381469727,9.600000381469727,200
2017-08-31,9.600000381469727,9.609999656677246,9.579999923706055,9.579999923706055,9.579999923706055,6900
2017-09-01,9.579999923706055,9.607999801635742,9.579999923706055,9.579999923706055,9.579999923706055,3100
2017-09-05,9.579999923706055,9.579999923706055,9.579999923706055,9.579999923706055,9.579999923706055,100
2017-09-06,9.579999923706055,9.579999923706055,9.579999923706055,9.579999923706055,9.579999923706055,2000
2017-09-07,9.579999923706055,9.600000381469727,9.579999923706055,9.59000015258789,9.59000015258789,17200
2017-09-08,9.619999885559082,9.619999885559082,9.619999885559082,9.619999885559082,9.619999885559082,10100
2017-09-11,9.619999885559082,9.619999885559082,9.619999885559082,9.619999885559082,9.619999885559082,0
2017-09-12,9.619999885559082,9.619999885559082,9.619999885559082,9.619999885559082,9.619999885559082,0
2017-09-13,9.619999885559082,9.619999885559082,9.619999885559082,9.619999885559082,9.619999885559082,0
2017-09-14,9.619999885559082,9.623000144958496,9.579999923706055,9.600000381469727,9.600000381469727,4500
2017-09-15,9.579999923706055,9.579999923706055,9.579999923706055,9.579999923706055,9.579999923706055,200
2017-09-18,9.579999923706055,9.600000381469727,9.550000190734863,9.600000381469727,9.600000381469727,5700
2017-09-19,9.59000015258789,9.59000015258789,9.59000015258789,9.59000015258789,9.59000015258789,400
2017-09-20,9.647000312805176,9.64900016784668,9.600000381469727,9.600000381469727,9.600000381469727,8500
2017-09-21,9.59000015258789,9.682000160217285,9.539999961853027,9.670000076293945,9.670000076293945,7800
2017-09-22,9.670000076293945,9.670000076293945,9.670000076293945,9.670000076293945,9.670000076293945,0
2017-09-25,9.579999923706055,9.65999984741211,9.579999923706055,9.600000381469727,9.600000381469727,6900
2017-09-26,9.630000114440918,9.630000114440918,9.609999656677246,9.609999656677246,9.609999656677246,1200
2017-09-27,9.621000289916992,9.625,9.621000289916992,9.625,9.625,400
2017-09-28,9.625,9.625,9.625,9.625,9.625,0
2017-09-29,9.619999885559082,9.619999885559082,9.619999885559082,9.619999885559082,9.619999885559082,200
2017-10-02,9.649999618530273,9.649999618530273,9.609999656677246,9.619999885559082,9.619999885559082,1800
2017-10-03,9.611000061035156,9.611000061035156,9.609999656677246,9.609999656677246,9.609999656677246,900
2017-10-04,9.609999656677246,9.609999656677246,9.609999656677246,9.609999656677246,9.609999656677246,0
2017-10-05,9.640000343322754,9.640000343322754,9.640000343322754,9.640000343322754,9.640000343322754,100
2017-10-06,9.640000343322754,9.640000343322754,9.640000343322754,9.640000343322754,9.640000343322754,0
2017-10-09,9.680000305175781,9.6899995803833,9.680000305175781,9.6899995803833,9.6899995803833,6000
2017-10-10,9.720000267028809,9.720000267028809,9.6899995803833,9.6899995803833,9.6899995803833,400
2017-10-11,9.6899995803833,9.6899995803833,9.6899995803833,9.6899995803833,9.6899995803833,0
2017-10-12,9.6899995803833,9.6899995803833,9.6899995803833,9.6899995803833,9.6899995803833,100
2017-10-13,9.6899995803833,9.6899995803833,9.6899995803833,9.6899995803833,9.6899995803833,500
2017-10-16,9.6899995803833,9.6899995803833,9.6899995803833,9.6899995803833,9.6899995803833,0
2017-10-17,9.6899995803833,9.6899995803833,9.6899995803833,9.6899995803833,9.6899995803833,0
2017-10-18,9.739999771118164,9.739999771118164,9.720000267028809,9.720000267028809,9.720000267028809,1000
2017-10-19,9.720000267028809,9.720000267028809,9.720000267028809,9.720000267028809,9.720000267028809,0
2017-10-20,9.739999771118164,9.739999771118164,9.739999771118164,9.739999771118164,9.739999771118164,600
2017-10-23,9.739999771118164,9.739999771118164,9.739999771118164,9.739999771118164,9.739999771118164,0
2017-10-24,9.739999771118164,9.789999961853027,9.739999771118164,9.789999961853027,9.789999961853027,5800
2017-10-25,9.789999961853027,9.789999961853027,9.789999961853027,9.789999961853027,9.789999961853027,0
2017-10-26,9.6899995803833,9.779999732971191,9.609999656677246,9.779999732971191,9.779999732971191,5100
2017-10-27,9.779999732971191,9.779999732971191,9.779999732971191,9.779999732971191,9.779999732971191,0
2017-10-30,9.779999732971191,9.779999732971191,9.779999732971191,9.779999732971191,9.779999732971191,0
2017-10-31,9.779999732971191,9.779999732971191,9.779999732971191,9.779999732971191,9.779999732971191,0
2017-11-01,9.729999542236328,9.770000457763672,9.729999542236328,9.770000457763672,9.770000457763672,108500
2017-11-02,9.75,9.75,9.75,9.75,9.75,300
2017-11-03,9.75,9.75,9.75,9.75,9.75,0
2017-11-06,9.75,9.75,9.75,9.75,9.75,0
2017-11-07,9.800000190734863,9.800000190734863,9.800000190734863,9.800000190734863,9.800000190734863,700
2017-11-08,9.729999542236328,9.800000190734863,9.729999542236328,9.800000190734863,9.800000190734863,17200
2017-11-09,9.800000190734863,9.800000190734863,9.800000190734863,9.800000190734863,9.800000190734863,0
2017-11-10,9.739999771118164,9.789999961853027,9.6899995803833,9.789999961853027,9.789999961853027,1400
2017-11-13,9.899999618530273,9.970000267028809,9.850000381469727,9.949999809265137,9.949999809265137,55400
2017-11-14,9.880000114440918,9.949999809265137,9.850000381469727,9.899999618530273,9.899999618530273,411500
2017-11-15,9.939000129699707,9.939000129699707,9.899999618530273,9.899999618530273,9.899999618530273,502500
2017-11-16,9.850000381469727,9.949999809265137,9.850000381469727,9.899999618530273,9.899999618530273,566000
2017-11-17,9.90999984741211,9.934000015258789,9.899999618530273,9.934000015258789,9.934000015258789,475900
2017-11-20,9.949000358581543,9.949000358581543,9.510000228881836,9.930000305175781,9.930000305175781,82200
2017-11-21,9.8100004196167,9.899999618530273,9.760000228881836,9.899999618530273,9.899999618530273,64600
2017-11-22,9.850000381469727,9.949999809265137,9.850000381469727,9.930000305175781,9.930000305175781,15100
2017-11-24,9.949999809265137,9.949999809265137,9.904000282287598,9.904000282287598,9.904000282287598,700
2017-11-27,9.989999771118164,9.989999771118164,9.850000381469727,9.899999618530273,9.899999618530273,1200
2017-11-28,9.930000305175781,9.930000305175781,9.850000381469727,9.88700008392334,9.88700008392334,13000
2017-11-29,9.850000381469727,9.899999618530273,9.850000381469727,9.869999885559082,9.869999885559082,6100
2017-11-30,9.899999618530273,9.899999618530273,9.850000381469727,9.869999885559082,9.869999885559082,905400
2017-12-01,9.869999885559082,9.930000305175781,9.869999885559082,9.869999885559082,9.869999885559082,9300
2017-12-04,9.850000381469727,9.949999809265137,9.850000381469727,9.930000305175781,9.930000305175781,16300
2017-12-05,9.911999702453613,9.949999809265137,9.911999702453613,9.949999809265137,9.949999809265137,3400
2017-12-06,9.850000381469727,9.949999809265137,9.850000381469727,9.9399995803833,9.9399995803833,63700
2017-12-07,9.9399995803833,9.949999809265137,9.880000114440918,9.880000114440918,9.880000114440918,302500
2017-12-08,9.949999809265137,9.949999809265137,9.90999984741211,9.90999984741211,9.90999984741211,50200
2017-12-11,9.9399995803833,9.9399995803833,9.90999984741211,9.9399995803833,9.9399995803833,600
2017-12-12,9.9399995803833,9.949999809265137,9.930000305175781,9.9399995803833,9.9399995803833,800
2017-12-13,9.9399995803833,9.949999809265137,9.90999984741211,9.9399995803833,9.9399995803833,4300
2017-12-14,9.899999618530273,9.930000305175781,9.899999618530273,9.930000305175781,9.930000305175781,1500
2017-12-15,9.920000076293945,9.949999809265137,9.90999984741211,9.9399995803833,9.9399995803833,44000
2017-12-18,9.9399995803833,9.949999809265137,9.899999618530273,9.9399995803833,9.9399995803833,29800
2017-12-19,9.9399995803833,9.9399995803833,9.899999618530273,9.90999984741211,9.90999984741211,30800
2017-12-20,9.949999809265137,9.949999809265137,9.899999618530273,9.920000076293945,9.920000076293945,1700
2017-12-21,9.920000076293945,9.9399995803833,9.899999618530273,9.899999618530273,9.899999618530273,2500
2017-12-22,9.899999618530273,9.9399995803833,9.899999618530273,9.9399995803833,9.9399995803833,1900
2017-12-26,9.930000305175781,9.9399995803833,9.90999984741211,9.90999984741211,9.90999984741211,34200
2017-12-27,9.920000076293945,9.920000076293945,9.920000076293945,9.920000076293945,9.920000076293945,2000
2017-12-28,9.90999984741211,9.930000305175781,9.90999984741211,9.920000076293945,9.920000076293945,1800
2017-12-29,9.949999809265137,9.949999809265137,9.949999809265137,9.949999809265137,9.949999809265137,600
2018-01-02,9.949999809265137,9.960000038146973,9.920000076293945,9.960000038146973,9.960000038146973,24900
2018-01-03,9.90999984741211,9.970000267028809,9.90999984741211,9.960000038146973,9.960000038146973,65900
2018-01-04,9.949999809265137,9.949999809265137,9.949999809265137,9.949999809265137,9.949999809265137,1200
2018-01-05,9.960000038146973,9.970000267028809,9.890000343322754,9.899999618530273,9.899999618530273,29900
2018-01-08,9.954000473022461,9.961000442504883,9.954000473022461,9.960000038146973,9.960000038146973,10200
2018-01-09,9.944999694824219,9.944999694824219,9.944999694824219,9.944999694824219,9.944999694824219,800
2018-01-10,9.9350004196167,9.970000267028809,9.90999984741211,9.940999984741211,9.940999984741211,4200
2018-01-11,9.960000038146973,9.960000038146973,9.960000038146973,9.960000038146973,9.960000038146973,200
2018-01-12,9.970000267028809,9.970000267028809,9.930000305175781,9.949999809265137,9.949999809265137,800
2018-01-16,9.960000038146973,9.960000038146973,9.960000038146973,9.960000038146973,9.960000038146973,300
2018-01-17,9.970000267028809,9.970000267028809,9.9350004196167,9.9350004196167,9.9350004196167,200
2018-01-18,9.9350004196167,9.9350004196167,9.9350004196167,9.9350004196167,9.9350004196167,0
2018-01-19,9.9399995803833,9.9399995803833,9.9399995803833,9.9399995803833,9.9399995803833,1000
2018-01-22,9.9399995803833,9.9399995803833,9.9399995803833,9.9399995803833,9.9399995803833,0
2018-01-23,9.9399995803833,9.9399995803833,9.920000076293945,9.920000076293945,9.920000076293945,3500
2018-01-24,9.949999809265137,9.949999809265137,9.949999809265137,9.949999809265137,9.949999809265137,100
2018-01-25,9.970000267028809,9.970000267028809,9.9399995803833,9.949999809265137,9.949999809265137,8800
2018-01-26,9.9399995803833,9.946000099182129,9.9399995803833,9.946000099182129,9.946000099182129,1200
2018-01-29,9.954999923706055,9.958999633789062,9.925000190734863,9.9399995803833,9.9399995803833,9500
2018-01-30,9.899999618530273,9.970000267028809,9.899999618530273,9.949999809265137,9.949999809265137,72200
2018-01-31,9.979999542236328,9.979999542236328,9.90999984741211,9.979999542236328,9.979999542236328,3100
2018-02-01,9.949999809265137,9.979999542236328,9.9399995803833,9.949999809265137,9.949999809265137,24000
2018-02-02,9.949999809265137,9.949999809265137,9.949999809265137,9.949999809265137,9.949999809265137,0
2018-02-05,9.979999542236328,9.979999542236328,9.899999618530273,9.9399995803833,9.9399995803833,31200
2018-02-06,9.920000076293945,9.920000076293945,9.920000076293945,9.920000076293945,9.920000076293945,1000
2018-02-07,9.920000076293945,9.930000305175781,9.920000076293945,9.930000305175781,9.930000305175781,400
2018-02-08,9.930000305175781,9.930000305175781,9.930000305175781,9.930000305175781,9.930000305175781,0
2018-02-09,9.920000076293945,9.9399995803833,9.920000076293945,9.9399995803833,9.9399995803833,5700
2018-02-12,9.9399995803833,9.9399995803833,9.9399995803833,9.9399995803833,9.9399995803833,0
2018-02-13,9.925999641418457,9.925999641418457,9.925999641418457,9.925999641418457,9.925999641418457,4000
2018-02-14,9.899999618530273,9.9399995803833,9.569999694824219,9.930000305175781,9.930000305175781,324300
2018-02-15,9.930000305175781,9.9350004196167,9.920000076293945,9.930000305175781,9.930000305175781,2300
2018-02-16,9.937000274658203,9.949999809265137,9.928999900817871,9.9350004196167,9.9350004196167,14200
2018-02-20,9.9350004196167,9.9350004196167,9.9350004196167,9.9350004196167,9.9350004196167,0
2018-02-21,9.930000305175781,9.930000305175781,9.920000076293945,9.920000076293945,9.920000076293945,4500
2018-02-22,9.930000305175781,9.930000305175781,9.920000076293945,9.930000305175781,9.930000305175781,108900
2018-02-23,9.930000305175781,9.930000305175781,9.930000305175781,9.930000305175781,9.930000305175781,0
2018-02-26,9.920000076293945,9.920000076293945,9.920000076293945,9.920000076293945,9.920000076293945,2500
2018-02-27,9.920000076293945,9.920000076293945,9.920000076293945,9.920000076293945,9.920000076293945,200
2018-02-28,9.930000305175781,9.9399995803833,9.930000305175781,9.930000305175781,9.930000305175781,100500
2018-03-01,9.930999755859375,9.930999755859375,9.920000076293945,9.930000305175781,9.930000305175781,2800
2018-03-02,9.930000305175781,9.930000305175781,9.920000076293945,9.920000076293945,9.920000076293945,365000
2018-03-05,9.930000305175781,9.930000305175781,9.899999618530273,9.899999618530273,9.899999618530273,1000
2018-03-06,9.930000305175781,9.944999694824219,9.899999618530273,9.930000305175781,9.930000305175781,15200
2018-03-07,9.920000076293945,9.949999809265137,9.920000076293945,9.949999809265137,9.949999809265137,32100
2018-03-08,9.970000267028809,9.970000267028809,9.949999809265137,9.949999809265137,9.949999809265137,23500
2018-03-09,9.949999809265137,9.949999809265137,9.949999809265137,9.949999809265137,9.949999809265137,1000
2018-03-12,9.949999809265137,9.949999809265137,9.949999809265137,9.949999809265137,9.949999809265137,0
2018-03-13,9.899999618530273,9.930000305175781,9.875,9.930000305175781,9.930000305175781,194900
2018-03-14,9.90999984741211,9.949999809265137,9.890000343322754,9.920000076293945,9.920000076293945,164900
2018-03-15,9.920000076293945,9.920000076293945,9.920000076293945,9.920000076293945,9.920000076293945,0
2018-03-16,9.930000305175781,9.949999809265137,9.920000076293945,9.949999809265137,9.949999809265137,800
2018-03-19,9.930000305175781,9.930000305175781,9.90999984741211,9.920000076293945,9.920000076293945,108600
2018-03-20,9.920000076293945,9.920000076293945,9.920000076293945,9.920000076293945,9.920000076293945,0
2018-03-21,9.920000076293945,9.920000076293945,9.920000076293945,9.920000076293945,9.920000076293945,0
2018-03-22,9.949999809265137,9.949999809265137,9.920000076293945,9.920000076293945,9.920000076293945,101000
2018-03-23,9.960000038146973,9.960000038146973,9.960000038146973,9.960000038146973,9.960000038146973,200
2018-03-26,9.960000038146973,9.960000038146973,9.960000038146973,9.960000038146973,9.960000038146973,0
2018-03-27,9.930000305175781,9.930000305175781,9.930000305175781,9.930000305175781,9.930000305175781,1100
2018-03-28,9.920999526977539,9.930000305175781,9.920000076293945,9.920000076293945,9.920000076293945,24700
2018-03-29,9.930999755859375,9.930999755859375,9.930000305175781,9.930000305175781,9.930000305175781,3100
2018-04-02,9.9399995803833,9.9399995803833,9.9399995803833,9.9399995803833,9.9399995803833,200
2018-04-03,9.9399995803833,9.970000267028809,9.9399995803833,9.949999809265137,9.949999809265137,299600
2018-04-04,9.949999809265137,9.949999809265137,9.949999809265137,9.949999809265137,9.949999809265137,0
2018-04-05,10.0,10.020000457763672,10.0,10.020000457763672,10.020000457763672,868300
2018-04-06,10.029999732971191,10.029999732971191,10.015000343322754,10.020000457763672,10.020000457763672,394300
2018-04-09,10.350000381469727,10.350000381469727,10.039999961853027,10.039999961853027,10.039999961853027,37200
2018-04-10,10.029999732971191,10.029999732971191,10.029999732971191,10.029999732971191,10.029999732971191,400
2018-04-11,10.020000457763672,10.029999732971191,9.989999771118164,9.989999771118164,9.989999771118164,50400
2018-04-12,10.020000457763672,10.039999961853027,10.010000228881836,10.020000457763672,10.020000457763672,297200
2018-04-13,10.029999732971191,10.039999961853027,10.029999732971191,10.039999961853027,10.039999961853027,35600
2018-04-16,10.039999961853027,10.069999694824219,10.020000457763672,10.029999732971191,10.029999732971191,819700
2018-04-17,10.039999961853027,10.09000015258789,10.039999961853027,10.050000190734863,10.050000190734863,503700
2018-04-18,10.0600004196167,10.09000015258789,10.050000190734863,10.09000015258789,10.09000015258789,163300
2018-04-19,10.067000389099121,10.069999694824219,10.039999961853027,10.039999961853027,10.039999961853027,10500
2018-04-20,10.029999732971191,10.069999694824219,10.029999732971191,10.0600004196167,10.0600004196167,27100
2018-04-23,10.069999694824219,10.069999694824219,10.038000106811523,10.039999961853027,10.039999961853027,70400
2018-04-24,10.039999961853027,10.039999961853027,10.029999732971191,10.029999732971191,10.029999732971191,13200
2018-04-25,10.020000457763672,10.09000015258789,10.020000457763672,10.039999961853027,10.039999961853027,26000
2018-04-26,10.0,10.069999694824219,10.0,10.039999961853027,10.039999961853027,5100
2018-04-27,10.0,10.09000015258789,10.0,10.09000015258789,10.09000015258789,107000
2018-04-30,10.020000457763672,10.09000015258789,10.0,10.0600004196167,10.0600004196167,2800
2018-05-01,10.0600004196167,10.0600004196167,10.0600004196167,10.0600004196167,10.0600004196167,400
2018-05-02,10.09000015258789,10.09000015258789,10.050000190734863,10.0600004196167,10.0600004196167,19400
2018-05-03,10.020000457763672,10.100000381469727,10.020000457763672,10.079999923706055,10.079999923706055,509200
2018-05-04,10.039999961853027,10.09000015258789,10.039999961853027,10.079999923706055,10.079999923706055,9200
2018-05-07,10.09000015258789,10.09000015258789,10.079999923706055,10.09000015258789,10.09000015258789,410800
2018-05-08,10.09000015258789,10.09000015258789,10.0600004196167,10.09000015258789,10.09000015258789,28500
2018-05-09,10.09000015258789,10.09000015258789,10.079000473022461,10.079999923706055,10.079999923706055,21500
2018-05-10,10.100000381469727,10.100000381469727,10.079999923706055,10.079999923706055,10.079999923706055,54400
2018-05-11,10.100000381469727,10.100000381469727,10.085000038146973,10.085000038146973,10.085000038146973,8800
2018-05-14,10.088000297546387,10.09000015258789,10.050000190734863,10.0600004196167,10.0600004196167,79900
2018-05-15,10.008999824523926,10.600000381469727,9.970000267028809,10.0600004196167,10.0600004196167,55100
2018-05-16,10.100000381469727,10.699999809265137,10.039999961853027,10.069999694824219,10.069999694824219,1380000
2018-05-17,10.140000343322754,10.420000076293945,10.079999923706055,10.130000114440918,10.130000114440918,3081600
2018-05-18,10.199999809265137,10.199999809265137,10.09000015258789,10.130000114440918,10.130000114440918,1631400
2018-05-21,10.119999885559082,10.300000190734863,10.039999961853027,10.15999984741211,10.15999984741211,531500
2018-05-22,10.220000267028809,10.220000267028809,9.920999526977539,10.079999923706055,10.079999923706055,405500
2018-05-23,10.0600004196167,10.100000381469727,10.050000190734863,10.050000190734863,10.050000190734863,42800
2018-05-24,10.069999694824219,10.199999809265137,10.069999694824219,10.100000381469727,10.100000381469727,1011700
2018-05-25,10.050000190734863,10.109999656677246,9.979999542236328,10.010000228881836,10.010000228881836,604400
2018-05-29,10.050000190734863,10.050000190734863,9.970000267028809,9.970000267028809,9.970000267028809,3200
2018-05-30,10.010000228881836,11.329999923706055,10.010000228881836,10.1899995803833,10.1899995803833,17800
2018-05-31,10.25,10.289999961853027,10.1899995803833,10.1899995803833,10.1899995803833,6400
2018-06-01,10.152000427246094,10.199999809265137,10.152000427246094,10.199999809265137,10.199999809265137,700
2018-06-04,10.182999610900879,10.182999610900879,10.100000381469727,10.100000381469727,10.100000381469727,101600
2018-06-05,10.010000228881836,10.010000228881836,10.010000228881836,10.010000228881836,10.010000228881836,300
2018-06-06,10.1899995803833,10.199999809265137,10.1850004196167,10.1850004196167,10.1850004196167,4000
2018-06-07,10.199999809265137,10.300000190734863,10.130000114440918,10.255000114440918,10.255000114440918,71200
2018-06-08,10.260000228881836,10.260000228881836,10.199999809265137,10.229999542236328,10.229999542236328,25900
2018-06-11,10.3100004196167,10.729999542236328,10.26099967956543,10.489999771118164,10.489999771118164,57300
2018-06-12,10.5,10.920000076293945,10.300999641418457,10.390000343322754,10.390000343322754,15100
2018-06-13,10.390000343322754,10.59000015258789,10.300000190734863,10.59000015258789,10.59000015258789,52300
2018-06-14,10.529999732971191,10.529999732971191,10.350000381469727,10.350000381469727,10.350000381469727,56200
2018-06-15,10.420000076293945,10.479999542236328,10.350000381469727,10.350000381469727,10.350000381469727,5300
2018-06-18,10.300000190734863,10.399999618530273,10.300000190734863,10.3100004196167,10.3100004196167,29500
2018-06-19,10.470000267028809,10.59000015258789,10.25,10.59000015258789,10.59000015258789,14100
2018-06-20,10.350000381469727,10.350000381469727,10.350000381469727,10.350000381469727,10.350000381469727,100
2018-06-21,10.25,10.390000343322754,10.239999771118164,10.390000343322754,10.390000343322754,10800
2018-06-22,10.640000343322754,10.640000343322754,10.3100004196167,10.59000015258789,10.59000015258789,5800
2018-06-25,10.5600004196167,10.678999900817871,10.350000381469727,10.579999923706055,10.579999923706055,6000
2018-06-26,10.5,10.579999923706055,10.010000228881836,10.479999542236328,10.479999542236328,9700
2018-06-27,10.510000228881836,10.510000228881836,10.359999656677246,10.359999656677246,10.359999656677246,5400
2018-06-28,10.350000381469727,10.5,10.220000267028809,10.5,10.5,2400
2018-06-29,10.350000381469727,10.468000411987305,10.350000381469727,10.350000381469727,10.350000381469727,400
2018-07-02,10.300000190734863,10.470000267028809,10.300000190734863,10.470000267028809,10.470000267028809,6800
2018-07-03,10.470000267028809,10.5,10.425000190734863,10.425000190734863,10.425000190734863,10500
2018-07-05,10.600000381469727,10.619999885559082,10.5,10.59000015258789,10.59000015258789,7300
2018-07-06,10.5,10.59000015258789,10.475000381469727,10.59000015258789,10.59000015258789,11600
2018-07-09,10.524999618530273,10.600000381469727,10.520000457763672,10.520000457763672,10.520000457763672,6400
2018-07-10,10.600000381469727,10.600000381469727,10.600000381469727,10.600000381469727,10.600000381469727,1100
2018-07-11,10.899999618530273,10.899999618530273,10.529999732971191,10.600000381469727,10.600000381469727,3900
2018-07-12,10.63700008392334,10.869999885559082,10.609999656677246,10.609999656677246,10.609999656677246,7400
2018-07-13,10.6899995803833,10.970000267028809,10.6899995803833,10.970000267028809,10.970000267028809,200
2018-07-16,10.979999542236328,11.140000343322754,10.630000114440918,10.630000114440918,10.630000114440918,38100
2018-07-17,10.970000267028809,10.970000267028809,10.710000038146973,10.869999885559082,10.869999885559082,3000
2018-07-18,10.869999885559082,10.869999885559082,10.789999961853027,10.789999961853027,10.789999961853027,800
2018-07-19,10.619999885559082,10.8149995803833,10.619999885559082,10.800000190734863,10.800000190734863,700
2018-07-20,10.899999618530273,10.899999618530273,10.899999618530273,10.899999618530273,10.899999618530273,5500
2018-07-23,10.800000190734863,10.920000076293945,10.800000190734863,10.850000381469727,10.850000381469727,3400
2018-07-24,10.850000381469727,11.0,10.838000297546387,10.869999885559082,10.869999885559082,18000
2018-07-25,11.0,11.149999618530273,11.0,11.149999618530273,11.149999618530273,35600
2018-07-26,11.149999618530273,11.199999809265137,11.149999618530273,11.199999809265137,11.199999809265137,1700
2018-07-27,11.199999809265137,11.199999809265137,11.149999618530273,11.157999992370605,11.157999992370605,15100
2018-07-30,11.199999809265137,11.199999809265137,11.199999809265137,11.199999809265137,11.199999809265137,200
2018-07-31,11.220000267028809,11.729999542236328,10.970000267028809,10.970000267028809,10.970000267028809,12400
2018-08-01,11.09000015258789,11.4350004196167,11.09000015258789,11.40999984741211,11.40999984741211,2100
2018-08-02,11.40999984741211,11.40999984741211,11.40999984741211,11.40999984741211,11.40999984741211,0
2018-08-03,11.366000175476074,11.366000175476074,11.25,11.25,11.25,400
2018-08-06,11.390000343322754,11.399999618530273,11.199999809265137,11.199999809265137,11.199999809265137,600
2018-08-07,11.380000114440918,11.524999618530273,11.260000228881836,11.399999618530273,11.399999618530273,17200
2018-08-08,11.3100004196167,11.3100004196167,11.300000190734863,11.300000190734863,11.300000190734863,1100
2018-08-09,11.166000366210938,11.166000366210938,11.069999694824219,11.100000381469727,11.100000381469727,8400
2018-08-10,11.149999618530273,11.399999618530273,11.050000190734863,11.210000038146973,11.210000038146973,63500
2018-08-13,11.109999656677246,11.109999656677246,10.74899959564209,10.949999809265137,10.949999809265137,11900
2018-08-14,11.0,11.0,11.0,11.0,11.0,200
2018-08-15,10.220000267028809,10.899999618530273,10.220000267028809,10.899999618530273,10.899999618530273,11700
2018-08-16,11.1899995803833,11.1899995803833,11.1899995803833,11.1899995803833,11.1899995803833,400
2018-08-17,11.1899995803833,11.1899995803833,11.1899995803833,11.1899995803833,11.1899995803833,200
2018-08-20,11.270000457763672,11.270000457763672,11.149999618530273,11.149999618530273,11.149999618530273,700
2018-08-21,11.039999961853027,11.039999961853027,11.039999961853027,11.039999961853027,11.039999961853027,100
2018-08-22,11.199999809265137,11.199999809265137,11.199999809265137,11.199999809265137,11.199999809265137,600
2018-08-23,11.1899995803833,11.25,10.569999694824219,11.0,11.0,7100
2018-08-24,11.010000228881836,11.010000228881836,10.99899959564209,10.99899959564209,10.99899959564209,200
2018-08-27,11.217000007629395,11.217000007629395,11.217000007629395,11.217000007629395,11.217000007629395,300
2018-08-28,11.227999687194824,11.227999687194824,11.100000381469727,11.119999885559082,11.119999885559082,4500
2018-08-29,10.965999603271484,10.965999603271484,10.965999603271484,10.965999603271484,10.965999603271484,1000
2018-08-30,10.960000038146973,11.0,10.960000038146973,10.960000038146973,10.960000038146973,9600
2018-08-31,11.0,11.0,10.960000038146973,10.960000038146973,10.960000038146973,900
2018-09-04,11.0,11.0,10.800000190734863,10.850000381469727,10.850000381469727,31500
2018-09-05,10.529999732971191,10.850000381469727,10.5,10.850000381469727,10.850000381469727,80800
2018-09-06,10.850000381469727,10.850000381469727,10.850000381469727,10.850000381469727,10.850000381469727,300
2018-09-07,10.850000381469727,10.850000381469727,10.850000381469727,10.850000381469727,10.850000381469727,0
2018-09-10,10.800000190734863,12.020000457763672,10.800000190734863,12.020000457763672,12.020000457763672,123900
2018-09-11,11.0,14.380000114440918,11.0,13.0,13.0,137600
2018-09-12,13.100000381469727,13.180000305175781,12.609999656677246,12.779999732971191,12.779999732971191,99000
2018-09-13,13.0,14.0,12.84000015258789,13.600000381469727,13.600000381469727,109000
2018-09-14,13.600000381469727,13.899999618530273,12.819999694824219,13.600000381469727,13.600000381469727,185400
2018-09-17,13.850000381469727,13.96500015258789,13.300000190734863,13.5,13.5,134300
2018-09-18,13.569999694824219,14.21500015258789,13.380000114440918,13.569999694824219,13.569999694824219,108700
2018-09-19,13.104999542236328,13.600000381469727,13.029999732971191,13.029999732971191,13.029999732971191,125000
2018-09-20,13.079999923706055,13.5,12.65999984741211,12.739999771118164,12.739999771118164,202800
2018-09-21,12.539999961853027,12.649999618530273,11.789999961853027,12.15999984741211,12.15999984741211,363600
2018-09-24,12.239999771118164,12.399999618530273,12.0,12.0,12.0,237300
2018-09-25,12.079999923706055,12.239999771118164,11.649999618530273,11.6899995803833,11.6899995803833,173500
2018-09-26,11.630000114440918,11.9399995803833,11.623000144958496,11.75,11.75,43800
2018-09-27,11.670000076293945,11.75,11.609999656677246,11.699999809265137,11.699999809265137,55600
2018-09-28,11.670000076293945,11.970000267028809,11.5600004196167,11.619999885559082,11.619999885559082,37700
2018-10-01,11.699999809265137,12.0,11.449999809265137,11.5,11.5,78300
2018-10-02,11.4399995803833,11.920000076293945,11.359999656677246,11.5,11.5,56800
2018-10-03,11.75,11.75,11.329999923706055,11.329999923706055,11.329999923706055,47800
2018-10-04,11.34000015258789,11.899999618530273,10.800000190734863,11.130000114440918,11.130000114440918,145600
2018-10-05,11.050000190734863,11.100000381469727,10.899999618530273,10.899999618530273,10.899999618530273,50300
2018-10-08,10.899999618530273,10.899999618530273,10.489999771118164,10.710000038146973,10.710000038146973,72600
2018-10-09,10.699999809265137,10.859999656677246,10.0,10.350000381469727,10.350000381469727,264700
2018-10-10,10.539999961853027,11.329999923706055,10.15999984741211,10.270000457763672,10.270000457763672,196600
2018-10-11,10.1899995803833,10.699999809265137,9.949999809265137,10.0,10.0,125900
2018-10-12,10.100000381469727,10.449999809265137,10.0,10.3100004196167,10.3100004196167,50100
2018-10-15,9.970000267028809,10.4399995803833,9.970000267028809,10.199999809265137,10.199999809265137,67800
2018-10-16,10.25,10.550000190734863,10.020000457763672,10.149999618530273,10.149999618530273,81600
2018-10-17,10.15999984741211,10.489999771118164,10.055999755859375,10.479999542236328,10.479999542236328,25400
2018-10-18,10.529999732971191,10.569999694824219,10.15999984741211,10.329999923706055,10.329999923706055,183600
2018-10-19,10.300000190734863,10.770000457763672,10.180000305175781,10.489999771118164,10.489999771118164,93700
2018-10-22,10.489999771118164,10.5600004196167,10.218000411987305,10.5,10.5,12200
2018-10-23,10.59000015258789,10.729999542236328,10.279999732971191,10.5600004196167,10.5600004196167,61000
2018-10-24,10.649999618530273,11.279999732971191,10.260000228881836,10.300000190734863,10.300000190734863,29600
2018-10-25,10.390000343322754,10.890000343322754,10.350000381469727,10.390000343322754,10.390000343322754,21300
2018-10-26,10.425000190734863,10.460000038146973,9.979999542236328,10.199999809265137,10.199999809265137,14200
2018-10-29,10.359999656677246,10.380000114440918,9.930000305175781,10.100000381469727,10.100000381469727,23900
2018-10-30,10.039999961853027,10.407999992370605,9.90999984741211,9.90999984741211,9.90999984741211,37200
2018-10-31,10.0,10.890000343322754,9.819999694824219,10.300000190734863,10.300000190734863,45500
2018-11-01,10.40999984741211,10.75,10.069999694824219,10.470000267028809,10.470000267028809,28900
2018-11-02,10.59000015258789,10.59000015258789,10.274999618530273,10.460000038146973,10.460000038146973,124000
2018-11-05,10.569999694824219,10.618000030517578,10.15999984741211,10.430000305175781,10.430000305175781,7800
2018-11-06,10.34000015258789,10.380000114440918,10.100000381469727,10.199999809265137,10.199999809265137,11300
2018-11-07,10.34000015258789,10.899999618530273,9.800000190734863,10.199999809265137,10.199999809265137,41800
2018-11-08,10.149999618530273,10.4399995803833,9.869999885559082,10.300000190734863,10.300000190734863,11400
2018-11-09,10.359999656677246,10.760000228881836,9.960000038146973,10.529999732971191,10.529999732971191,28800
2018-11-12,10.5,10.510000228881836,9.949999809265137,9.949999809265137,9.949999809265137,24000
2018-11-13,10.0,10.4399995803833,10.0,10.300000190734863,10.300000190734863,15000
2018-11-14,10.4399995803833,10.59000015258789,9.75,9.9399995803833,9.9399995803833,54500
2018-11-15,9.899999618530273,10.270000457763672,9.460000038146973,9.949999809265137,9.949999809265137,35000
2018-11-16,9.800000190734863,9.9350004196167,9.3100004196167,9.779999732971191,9.779999732971191,33300
2018-11-19,9.90999984741211,10.109999656677246,9.050000190734863,9.5,9.5,59100
2018-11-20,9.324999809265137,9.324999809265137,8.520000457763672,8.770000457763672,8.770000457763672,107000
2018-11-21,8.729999542236328,8.949999809265137,8.289999961853027,8.550000190734863,8.550000190734863,19800
2018-11-23,8.40999984741211,8.694000244140625,8.40999984741211,8.5,8.5,10100
2018-11-26,8.300000190734863,8.819999694824219,8.300000190734863,8.5600004196167,8.5600004196167,27900
2018-11-27,8.880000114440918,8.880000114440918,8.260000228881836,8.699999809265137,8.699999809265137,27900
2018-11-28,8.850000381469727,9.229999542236328,8.329999923706055,8.760000228881836,8.760000228881836,48400
2018-11-29,8.800000190734863,9.199999809265137,8.350000381469727,8.920000076293945,8.920000076293945,22600
2018-11-30,8.829999923706055,9.539999961853027,8.654999732971191,9.399999618530273,9.399999618530273,15600
2018-12-03,9.34000015258789,9.859999656677246,8.520000457763672,8.529999732971191,8.529999732971191,81500
2018-12-04,8.550000190734863,9.0,8.550000190734863,8.729999542236328,8.729999542236328,74000
2018-12-06,8.569999694824219,9.550000190734863,8.149999618530273,8.600000381469727,8.600000381469727,29800
2018-12-07,8.65999984741211,8.979999542236328,8.300000190734863,8.75,8.75,18800
2018-12-10,8.399999618530273,8.649999618530273,8.399999618530273,8.510000228881836,8.510000228881836,197700
2018-12-11,8.569999694824219,8.84000015258789,7.985000133514404,8.300000190734863,8.300000190734863,7400
2018-12-12,8.300000190734863,8.850000381469727,8.300000190734863,8.800000190734863,8.800000190734863,71800
2018-12-13,8.420000076293945,8.800000190734863,8.3100004196167,8.579999923706055,8.579999923706055,95600
2018-12-14,8.59000015258789,8.800000190734863,8.460000038146973,8.680000305175781,8.680000305175781,38900
2018-12-17,8.699999809265137,8.779999732971191,8.5,8.569999694824219,8.569999694824219,18600
2018-12-18,8.5,8.75,8.25,8.449999809265137,8.449999809265137,18200
2018-12-19,8.520000457763672,8.619999885559082,8.100000381469727,8.460000038146973,8.460000038146973,66600
2018-12-20,8.34000015258789,8.630000114440918,8.281000137329102,8.420000076293945,8.420000076293945,261800
2018-12-21,8.399999618530273,8.5,7.78000020980835,8.5,8.5,81700
2018-12-24,8.369999885559082,8.449999809265137,7.510000228881836,8.319999694824219,8.319999694824219,39600
2018-12-26,8.350000381469727,8.5,8.180000305175781,8.5,8.5,2400
2018-12-27,8.5,8.6899995803833,8.350000381469727,8.630000114440918,8.630000114440918,120600
2018-12-28,8.600000381469727,8.760000228881836,8.520000457763672,8.760000228881836,8.760000228881836,73500
2018-12-31,8.720000267028809,8.739999771118164,8.359999656677246,8.65999984741211,8.65999984741211,11200
2019-01-02,8.529999732971191,8.800000190734863,8.1899995803833,8.699999809265137,8.699999809265137,19200
2019-01-03,8.600000381469727,8.850000381469727,8.510000228881836,8.680000305175781,8.680000305175781,54500
2019-01-04,8.609999656677246,8.75,8.59000015258789,8.699999809265137,8.699999809265137,331900
2019-01-07,8.6899995803833,8.720000267028809,8.680000305175781,8.699999809265137,8.699999809265137,105000
2019-01-08,8.729999542236328,8.729999542236328,8.444999694824219,8.670000076293945,8.670000076293945,45100
2019-01-09,8.5,8.720000267028809,8.5,8.6899995803833,8.6899995803833,28100
2019-01-10,8.666999816894531,8.699999809265137,8.359999656677246,8.609999656677246,8.609999656677246,47100
2019-01-11,8.6899995803833,8.699999809265137,8.300000190734863,8.399999618530273,8.399999618530273,14600
2019-01-14,8.420000076293945,8.6899995803833,8.420000076293945,8.539999961853027,8.539999961853027,11100
2019-01-15,8.5,8.649999618530273,8.420000076293945,8.649999618530273,8.649999618530273,2000
2019-01-16,8.579999923706055,8.579999923706055,8.289999961853027,8.399999618530273,8.399999618530273,5500
2019-01-17,8.350000381469727,8.670000076293945,8.350000381469727,8.65999984741211,8.65999984741211,7200
2019-01-18,8.640000343322754,8.640000343322754,8.020000457763672,8.270000457763672,8.270000457763672,41800
2019-01-22,8.199999809265137,8.234999656677246,7.679999828338623,7.900000095367432,7.900000095367432,60000
2019-01-23,7.820000171661377,8.100000381469727,7.420000076293945,7.949999809265137,7.949999809265137,48800
2019-01-24,7.75,8.069999694824219,7.75,8.0,8.0,16800
2019-01-25,8.079999923706055,8.079999923706055,7.760000228881836,8.010000228881836,8.010000228881836,14400
2019-01-28,8.069999694824219,8.114999771118164,7.849999904632568,7.849999904632568,7.849999904632568,26100
2019-01-29,7.869999885559082,8.229999542236328,7.869999885559082,8.229999542236328,8.229999542236328,2400
2019-01-30,7.869999885559082,7.940000057220459,7.760000228881836,7.809999942779541,7.809999942779541,20800
2019-01-31,7.809999942779541,7.994999885559082,7.75,7.989999771118164,7.989999771118164,7200
2019-02-01,7.650000095367432,8.1899995803833,7.650000095367432,8.0,8.0,306300
2019-02-04,7.880000114440918,8.239999771118164,7.869999885559082,8.029999732971191,8.029999732971191,8600
2019-02-05,8.010000228881836,8.0600004196167,8.010000228881836,8.010000228881836,8.010000228881836,13800
2019-02-06,8.239999771118164,8.25,8.0600004196167,8.170000076293945,8.170000076293945,29800
2019-02-07,8.0600004196167,8.225000381469727,8.010000228881836,8.130000114440918,8.130000114440918,5600
2019-02-08,8.125,8.164999961853027,8.020000457763672,8.0600004196167,8.0600004196167,36900
2019-02-11,8.100000381469727,8.180000305175781,8.100000381469727,8.100000381469727,8.100000381469727,26400
2019-02-12,8.21500015258789,8.25,8.109999656677246,8.140000343322754,8.140000343322754,25400
2019-02-13,8.180000305175781,8.430000305175781,8.119999885559082,8.279999732971191,8.279999732971191,59600
2019-02-14,8.34000015258789,8.5,8.199999809265137,8.449999809265137,8.449999809265137,39600
2019-02-15,8.399999618530273,8.5,8.289999961853027,8.34000015258789,8.34000015258789,124600
2019-02-19,8.520000457763672,8.748000144958496,8.40999984741211,8.449999809265137,8.449999809265137,24800
2019-02-20,8.460000038146973,8.630000114440918,8.399999618530273,8.539999961853027,8.539999961853027,76800
2019-02-21,9.0,9.0,8.569999694824219,8.649999618530273,8.649999618530273,37700
2019-02-22,8.84000015258789,9.0,8.539999961853027,8.760000228881836,8.760000228881836,46600
2019-02-25,9.0,9.020000457763672,8.3100004196167,8.59000015258789,8.59000015258789,63200
2019-02-26,8.489999771118164,8.529999732971191,8.359999656677246,8.399999618530273,8.399999618530273,31900
2019-02-27,8.40999984741211,8.710000038146973,8.079999923706055,8.630000114440918,8.630000114440918,66300
2019-02-28,8.807999610900879,8.829999923706055,8.449999809265137,8.600000381469727,8.600000381469727,25300
2019-03-01,8.670000076293945,8.829999923706055,8.600000381469727,8.75,8.75,40900
2019-03-04,8.850000381469727,8.930000305175781,8.75,8.800000190734863,8.800000190734863,62600
2019-03-05,8.760000228881836,9.0,8.680000305175781,8.800000190734863,8.800000190734863,61300
2019-03-06,8.670000076293945,8.800000190734863,8.475000381469727,8.800000190734863,8.800000190734863,31900
2019-03-07,8.720000267028809,8.819999694824219,8.170999526977539,8.760000228881836,8.760000228881836,83700
2019-03-08,8.770000457763672,8.800000190734863,8.609999656677246,8.760000228881836,8.760000228881836,618200
2019-03-11,8.770000457763672,8.989999771118164,8.630000114440918,8.899999618530273,8.899999618530273,55200
2019-03-12,8.90999984741211,9.46500015258789,8.90999984741211,9.3100004196167,9.3100004196167,268700
2019-03-13,9.449999809265137,9.630000114440918,9.3100004196167,9.569999694824219,9.569999694824219,135100
2019-03-14,9.600000381469727,9.770000457763672,9.329999923706055,9.729999542236328,9.729999542236328,135000
2019-03-15,9.739999771118164,10.050000190734863,9.359999656677246,10.050000190734863,10.050000190734863,91600
2019-03-18,10.149999618530273,10.420000076293945,9.930000305175781,10.359999656677246,10.359999656677246,167700
2019-03-19,10.319999694824219,10.550000190734863,9.800000190734863,10.479999542236328,10.479999542236328,362900
2019-03-20,10.539999961853027,10.687999725341797,10.069999694824219,10.5600004196167,10.5600004196167,105000
2019-03-21,10.609999656677246,10.739999771118164,10.010000228881836,10.729999542236328,10.729999542236328,42200
2019-03-22,10.729999542236328,10.729999542236328,10.40999984741211,10.59000015258789,10.59000015258789,23200
2019-03-25,10.550000190734863,10.779999732971191,10.083999633789062,10.600000381469727,10.600000381469727,48600
2019-03-26,10.649999618530273,10.75,10.329999923706055,10.460000038146973,10.460000038146973,152700
2019-03-27,10.460000038146973,10.470000267028809,10.050000190734863,10.329999923706055,10.329999923706055,42900
2019-03-28,10.5,10.569999694824219,10.300000190734863,10.40999984741211,10.40999984741211,79700
2019-03-29,10.520000457763672,10.550000190734863,10.34000015258789,10.449999809265137,10.449999809265137,31500
2019-04-01,10.600000381469727,10.600000381469727,10.1899995803833,10.270000457763672,10.270000457763672,49800
2019-04-02,10.289999961853027,10.34000015258789,10.010000228881836,10.229999542236328,10.229999542236328,62400
2019-04-03,10.319999694824219,10.319999694824219,10.0,10.010000228881836,10.010000228881836,33700
2019-04-04,10.130000114440918,10.140000343322754,9.930000305175781,10.039999961853027,10.039999961853027,34500
2019-04-05,10.170000076293945,10.300000190734863,9.739999771118164,10.25,10.25,52700
2019-04-08,10.25,10.300000190734863,10.119999885559082,10.229999542236328,10.229999542236328,79200
2019-04-09,10.220000267028809,10.5600004196167,10.050000190734863,10.25,10.25,150200
2019-04-10,10.239999771118164,10.279999732971191,10.050000190734863,10.170000076293945,10.170000076293945,140400
2019-04-11,10.253000259399414,10.253000259399414,10.0,10.050000190734863,10.050000190734863,415400
2019-04-12,10.1899995803833,10.34000015258789,10.0,10.329999923706055,10.329999923706055,268600
2019-04-15,10.329999923706055,10.550000190734863,10.199999809265137,10.5,10.5,203500
2019-04-16,10.550000190734863,10.550000190734863,10.460000038146973,10.479999542236328,10.479999542236328,137600
2019-04-17,10.600000381469727,10.800000190734863,10.449999809265137,10.550000190734863,10.550000190734863,402600
2019-04-18,10.59000015258789,10.75,10.359999656677246,10.40999984741211,10.40999984741211,150800
2019-04-22,10.479999542236328,10.699999809265137,10.34000015258789,10.529999732971191,10.529999732971191,240300
2019-04-23,10.520000457763672,10.619999885559082,10.470000267028809,10.5,10.5,216300
2019-04-24,10.59000015258789,10.779999732971191,10.449999809265137,10.680000305175781,10.680000305175781,234800
2019-04-25,10.739999771118164,10.800000190734863,10.460000038146973,10.600000381469727,10.600000381469727,231800
2019-04-26,10.699999809265137,10.75,10.350000381469727,10.59000015258789,10.59000015258789,101900
2019-04-29,10.510000228881836,10.630000114440918,10.479999542236328,10.579999923706055,10.579999923706055,78000
2019-04-30,10.59000015258789,10.699999809265137,10.359999656677246,10.569999694824219,10.569999694824219,106500
2019-05-01,10.569999694824219,10.699999809265137,10.510000228881836,10.5600004196167,10.5600004196167,126700
2019-05-02,10.529999732971191,10.640000343322754,10.479999542236328,10.59000015258789,10.59000015258789,125500
2019-05-03,10.640000343322754,10.670000076293945,10.550000190734863,10.619999885559082,10.619999885559082,202100
2019-05-06,10.600000381469727,10.65999984741211,10.529999732971191,10.550000190734863,10.550000190734863,132200
2019-05-07,10.539999961853027,10.569999694824219,10.350000381469727,10.449999809265137,10.449999809265137,230600
2019-05-08,10.390000343322754,10.425000190734863,9.800000190734863,10.010000228881836,10.010000228881836,113200
2019-05-09,9.859999656677246,10.199999809265137,9.539999961853027,9.770000457763672,9.770000457763672,124000
2019-05-10,9.819999694824219,9.850000381469727,9.489999771118164,9.550000190734863,9.550000190734863,111500
2019-05-13,9.229999542236328,9.5,9.039999961853027,9.430000305175781,9.430000305175781,103400
2019-05-14,9.40999984741211,9.550000190734863,9.359999656677246,9.4399995803833,9.4399995803833,135400
2019-05-15,9.300000190734863,9.449999809265137,9.029999732971191,9.4399995803833,9.4399995803833,127700
2019-05-16,9.380000114440918,9.600000381469727,9.25,9.539999961853027,9.539999961853027,338200
2019-05-17,9.520000457763672,9.800000190734863,9.5,9.6899995803833,9.6899995803833,177900
2019-05-20,9.6899995803833,10.239999771118164,9.680000305175781,10.0600004196167,10.0600004196167,216300
2019-05-21,10.119999885559082,10.300000190734863,10.119999885559082,10.220000267028809,10.220000267028809,302100
2019-05-22,10.149999618530273,10.15999984741211,9.720000267028809,9.920000076293945,9.920000076293945,131700
2019-05-23,9.800000190734863,9.800000190734863,9.130000114440918,9.329999923706055,9.329999923706055,134900
2019-05-24,9.369999885559082,9.569999694824219,8.710000038146973,8.90999984741211,8.90999984741211,195400
2019-05-28,8.880000114440918,9.020000457763672,8.489999771118164,8.729999542236328,8.729999542236328,165800
2019-05-29,8.569999694824219,9.119999885559082,8.119999885559082,9.010000228881836,9.010000228881836,88300
2019-05-30,9.020000457763672,9.300000190734863,8.869999885559082,9.039999961853027,9.039999961853027,114800
2019-05-31,8.949999809265137,9.335000038146973,8.729999542236328,9.029999732971191,9.029999732971191,94700
2019-06-03,9.010000228881836,9.539999961853027,8.899999618530273,9.020000457763672,9.020000457763672,105700
2019-06-04,9.140000343322754,9.229999542236328,8.699999809265137,8.90999984741211,8.90999984741211,229900
2019-06-05,8.979999542236328,9.029999732971191,8.550000190734863,8.699999809265137,8.699999809265137,125200
2019-06-06,8.699999809265137,8.890000343322754,8.640000343322754,8.770000457763672,8.770000457763672,100000
2019-06-07,8.800000190734863,9.100000381469727,8.800000190734863,9.020000457763672,9.020000457763672,115600
2019-06-10,9.09000015258789,9.289999961853027,8.420000076293945,8.520000457763672,8.520000457763672,320200
2019-06-11,8.260000228881836,8.585000038146973,8.100000381469727,8.199999809265137,8.199999809265137,148800
2019-06-12,8.1899995803833,8.229999542236328,7.849999904632568,7.960000038146973,7.960000038146973,251300
2019-06-13,7.920000076293945,8.045000076293945,7.690000057220459,7.900000095367432,7.900000095367432,158600
2019-06-14,7.960000038146973,7.960000038146973,7.550000190734863,7.639999866485596,7.639999866485596,192300
2019-06-17,7.614999771118164,7.949999809265137,7.449999809265137,7.730000019073486,7.730000019073486,181400
2019-06-18,7.739999771118164,8.109999656677246,7.630000114440918,7.739999771118164,7.739999771118164,125700
2019-06-19,7.739999771118164,8.359999656677246,7.559999942779541,8.319999694824219,8.319999694824219,209200
2019-06-20,8.40999984741211,8.699999809265137,8.220000267028809,8.699999809265137,8.699999809265137,322200
2019-06-21,8.515000343322754,8.649999618530273,8.329999923706055,8.520000457763672,8.520000457763672,259200
2019-06-24,8.569999694824219,8.800000190734863,8.489999771118164,8.770000457763672,8.770000457763672,263500
2019-06-25,8.739999771118164,8.739999771118164,8.479999542236328,8.720000267028809,8.720000267028809,282100
2019-06-26,8.720000267028809,8.755000114440918,8.470000267028809,8.520000457763672,8.520000457763672,112900
2019-06-27,8.550000190734863,8.699999809265137,8.470000267028809,8.569999694824219,8.569999694824219,116000
2019-06-28,8.600000381469727,8.9399995803833,8.4399995803833,8.699999809265137,8.699999809265137,3225200
2019-07-01,8.699999809265137,8.824999809265137,8.430000305175781,8.5,8.5,385200
2019-07-02,8.5,8.5,8.220000267028809,8.420000076293945,8.420000076293945,138400
2019-07-03,8.5,8.550000190734863,8.449999809265137,8.5,8.5,67000
2019-07-05,8.420000076293945,8.449999809265137,8.0600004196167,8.289999961853027,8.289999961853027,86900
2019-07-08,8.329999923706055,8.449999809265137,8.050000190734863,8.279999732971191,8.279999732971191,73200
2019-07-09,8.279999732971191,8.420000076293945,8.1899995803833,8.289999961853027,8.289999961853027,128900
2019-07-10,8.34000015258789,8.460000038146973,8.3149995803833,8.4399995803833,8.4399995803833,124800
2019-07-11,8.40999984741211,8.645000457763672,8.40999984741211,8.489999771118164,8.489999771118164,129100
2019-07-12,8.479999542236328,8.609999656677246,8.199999809265137,8.380000114440918,8.380000114440918,80800
2019-07-15,8.510000228881836,8.510000228881836,8.039999961853027,8.079999923706055,8.079999923706055,109600
2019-07-16,8.039999961853027,8.3100004196167,7.940000057220459,8.119999885559082,8.119999885559082,169900
2019-07-17,8.109999656677246,8.279999732971191,8.050000190734863,8.079999923706055,8.079999923706055,90900
2019-07-18,8.100000381469727,8.149999618530273,8.020000457763672,8.09000015258789,8.09000015258789,82300
2019-07-19,8.079999923706055,8.260000228881836,8.079999923706055,8.149999618530273,8.149999618530273,115000
2019-07-22,8.09000015258789,8.329999923706055,8.010000228881836,8.09000015258789,8.09000015258789,87300
2019-07-23,8.140000343322754,8.260000228881836,8.010000228881836,8.260000228881836,8.260000228881836,86600
2019-07-24,8.279999732971191,8.460000038146973,8.234999656677246,8.279999732971191,8.279999732971191,141000
2019-07-25,8.34000015258789,8.34000015258789,8.0600004196167,8.100000381469727,8.100000381469727,56300
2019-07-26,8.069999694824219,8.260000228881836,8.069999694824219,8.149999618530273,8.149999618530273,77600
2019-07-29,8.100000381469727,8.109999656677246,7.739999771118164,7.849999904632568,7.849999904632568,127000
2019-07-30,7.760000228881836,8.069999694824219,7.5,8.029999732971191,8.029999732971191,92900
2019-07-31,8.029999732971191,8.25,8.0,8.0,8.0,183900
2019-08-01,8.0,8.289999961853027,8.0,8.149999618530273,8.149999618530273,219000
2019-08-02,8.100000381469727,8.529999732971191,8.100000381469727,8.380000114440918,8.380000114440918,270800
2019-08-05,8.270000457763672,8.399999618530273,7.699999809265137,8.0600004196167,8.0600004196167,249200
2019-08-06,8.069999694824219,8.239999771118164,7.769999980926514,8.020000457763672,8.020000457763672,99000
2019-08-07,7.849999904632568,8.15999984741211,7.78000020980835,7.96999979019165,7.96999979019165,135900
2019-08-08,7.960000038146973,8.399999618530273,7.78000020980835,8.029999732971191,8.029999732971191,131000
2019-08-09,8.039999961853027,8.130000114440918,7.809999942779541,8.09000015258789,8.09000015258789,244200
2019-08-12,8.069999694824219,8.069999694824219,7.630000114440918,7.900000095367432,7.900000095367432,66900
2019-08-13,7.949999809265137,7.989999771118164,7.630000114440918,7.909999847412109,7.909999847412109,180800
2019-08-14,7.789999961853027,7.789999961853027,7.329999923706055,7.599999904632568,7.599999904632568,212600
2019-08-15,7.489999771118164,7.650000095367432,7.449999809265137,7.510000228881836,7.510000228881836,174500
2019-08-16,7.579999923706055,7.769999980926514,7.460000038146973,7.670000076293945,7.670000076293945,141200
2019-08-19,7.769999980926514,7.885000228881836,7.71999979019165,7.869999885559082,7.869999885559082,62900
2019-08-20,7.840000152587891,7.869999885559082,7.679999828338623,7.820000171661377,7.820000171661377,66200
2019-08-21,7.869999885559082,7.869999885559082,7.710000038146973,7.78000020980835,7.78000020980835,77000
2019-08-22,7.75,7.840000152587891,7.5,7.539999961853027,7.539999961853027,108300
2019-08-23,7.5,7.650000095367432,7.25,7.300000190734863,7.300000190734863,148000
2019-08-26,7.400000095367432,7.610000133514404,7.320000171661377,7.579999923706055,7.579999923706055,86300
2019-08-27,7.650000095367432,7.710000038146973,7.400000095367432,7.519999980926514,7.519999980926514,61200
2019-08-28,7.570000171661377,7.739999771118164,7.514999866485596,7.619999885559082,7.619999885559082,53100
2019-08-29,7.710000038146973,7.789999961853027,7.610000133514404,7.760000228881836,7.760000228881836,67100
2019-08-30,7.809999942779541,7.809999942779541,7.590000152587891,7.659999847412109,7.659999847412109,52800
2019-09-03,7.599999904632568,7.71999979019165,7.5,7.71999979019165,7.71999979019165,138800
2019-09-04,7.75,7.800000190734863,7.579999923706055,7.789999961853027,7.789999961853027,481700
2019-09-05,7.800000190734863,7.800000190734863,7.659999847412109,7.690000057220459,7.690000057220459,118900
2019-09-06,7.71999979019165,7.75,7.590000152587891,7.630000114440918,7.630000114440918,103600
2019-09-09,7.699999809265137,7.730000019073486,7.590000152587891,7.599999904632568,7.599999904632568,366400
2019-09-10,7.659999847412109,7.690000057220459,7.570000171661377,7.659999847412109,7.659999847412109,157600
2019-09-11,7.679999828338623,7.75,7.590000152587891,7.699999809265137,7.699999809265137,218900
2019-09-12,7.739999771118164,7.75,7.599999904632568,7.699999809265137,7.699999809265137,205900
2019-09-13,7.699999809265137,7.78000020980835,7.659999847412109,7.699999809265137,7.699999809265137,186800
2019-09-16,7.920000076293945,8.100000381469727,7.699999809265137,7.730000019073486,7.730000019073486,404400
2019-09-17,7.699999809265137,7.699999809265137,7.28000020980835,7.429999828338623,7.429999828338623,133300
2019-09-18,7.429999828338623,7.434999942779541,6.949999809265137,7.110000133514404,7.110000133514404,215600
2019-09-19,7.130000114440918,7.179999828338623,6.829999923706055,6.949999809265137,6.949999809265137,219300
2019-09-20,6.949999809265137,7.09499979019165,6.679999828338623,6.75,6.75,295800
2019-09-23,6.75,6.800000190734863,6.630000114440918,6.690000057220459,6.690000057220459,123700
2019-09-24,6.690000057220459,6.690999984741211,6.429999828338623,6.489999771118164,6.489999771118164,184100
2019-09-25,6.46999979019165,6.679999828338623,6.269999980926514,6.599999904632568,6.599999904632568,543800
2019-09-26,6.639999866485596,6.699999809265137,6.599999904632568,6.679999828338623,6.679999828338623,741000
2019-09-27,6.690000057220459,6.730000019073486,6.630000114440918,6.659999847412109,6.659999847412109,540400
2019-09-30,6.619999885559082,6.71999979019165,6.610000133514404,6.679999828338623,6.679999828338623,231900
2019-10-01,6.699999809265137,6.699999809265137,6.360000133514404,6.510000228881836,6.510000228881836,209200
2019-10-02,6.449999809265137,6.539999961853027,6.28000020980835,6.400000095367432,6.400000095367432,113900
2019-10-03,6.389999866485596,6.489999771118164,6.375,6.440000057220459,6.440000057220459,115800
2019-10-04,6.440000057220459,6.679999828338623,6.425000190734863,6.46999979019165,6.46999979019165,136100
2019-10-07,6.480000019073486,6.480000019073486,6.230000019073486,6.329999923706055,6.329999923706055,65500
2019-10-08,6.300000190734863,6.300000190734863,6.019999980926514,6.139999866485596,6.139999866485596,122000
2019-10-09,6.159999847412109,6.199999809265137,5.980000019073486,6.099999904632568,6.099999904632568,87600
2019-10-10,6.079999923706055,6.150000095367432,5.980000019073486,6.119999885559082,6.119999885559082,436000
2019-10-11,6.099999904632568,6.480000019073486,6.090000152587891,6.429999828338623,6.429999828338623,346200
2019-10-14,6.400000095367432,6.400000095367432,6.170000076293945,6.269999980926514,6.269999980926514,277700
2019-10-15,6.239999771118164,6.480000019073486,6.210000038146973,6.239999771118164,6.239999771118164,145400
2019-10-16,6.230000019073486,6.28000020980835,5.929999828338623,5.980000019073486,5.980000019073486,166000
2019-10-17,6.010000228881836,6.199999809265137,5.980000019073486,6.039999961853027,6.039999961853027,226300
2019-10-18,6.039999961853027,6.420000076293945,6.039999961853027,6.340000152587891,6.340000152587891,406300
2019-10-21,6.360000133514404,6.429999828338623,6.28000020980835,6.409999847412109,6.409999847412109,331400
2019-10-22,6.420000076293945,6.619999885559082,6.389999866485596,6.599999904632568,6.599999904632568,263200
2019-10-23,6.550000190734863,6.670000076293945,6.5,6.630000114440918,6.630000114440918,117800
2019-10-24,6.650000095367432,6.860000133514404,6.520999908447266,6.829999923706055,6.829999923706055,342500
2019-10-25,6.829999923706055,7.150000095367432,6.789999961853027,6.96999979019165,6.96999979019165,284100
2019-10-28,6.989999771118164,7.054999828338623,6.570000171661377,6.650000095367432,6.650000095367432,109200
2019-10-29,6.570000171661377,6.670000076293945,6.550000190734863,6.639999866485596,6.639999866485596,142300
2019-10-30,6.639999866485596,6.869999885559082,6.519999980926514,6.849999904632568,6.849999904632568,262700
2019-10-31,6.840000152587891,6.940000057220459,6.630000114440918,6.909999847412109,6.909999847412109,250900
2019-11-01,6.96999979019165,7.099999904632568,6.71999979019165,6.989999771118164,6.989999771118164,156300
2019-11-04,7.039999961853027,7.25,7.03000020980835,7.230000019073486,7.230000019073486,129800
2019-11-05,7.25,7.610000133514404,7.190000057220459,7.309999942779541,7.309999942779541,208300
2019-11-06,7.059999942779541,7.789999961853027,7.039999961853027,7.295000076293945,7.295000076293945,451200
2019-11-07,7.360000133514404,7.460000038146973,7.190000057220459,7.429999828338623,7.429999828338623,352200
2019-11-08,7.409999847412109,7.420000076293945,7.170000076293945,7.380000114440918,7.380000114440918,610900
2019-11-11,7.329999923706055,7.525000095367432,7.25,7.380000114440918,7.380000114440918,78600
2019-11-12,7.239999771118164,7.639999866485596,7.199999809265137,7.59499979019165,7.59499979019165,256900
2019-11-13,7.599999904632568,7.760000228881836,7.420000076293945,7.699999809265137,7.699999809265137,161900
2019-11-14,7.730000019073486,7.78000020980835,7.579999923706055,7.599999904632568,7.599999904632568,141600
2019-11-15,7.639999866485596,7.639999866485596,7.460000038146973,7.610000133514404,7.610000133514404,96000
2019-11-18,7.599999904632568,7.800000190734863,7.53000020980835,7.75,7.75,210900
2019-11-19,7.739999771118164,7.840000152587891,7.690000057220459,7.75,7.75,219400
2019-11-20,7.78000020980835,7.989999771118164,7.75,7.949999809265137,7.949999809265137,152400
2019-11-21,7.909999847412109,7.96999979019165,7.849999904632568,7.90500020980835,7.90500020980835,123100
2019-11-22,7.940000057220459,8.029999732971191,7.900000095367432,8.0,8.0,92300
2019-11-25,7.989999771118164,8.380000114440918,7.96999979019165,8.354999542236328,8.354999542236328,223000
2019-11-26,8.350000381469727,8.65999984741211,8.09000015258789,8.609999656677246,8.609999656677246,342200
2019-11-27,8.649999618530273,9.039999961853027,8.359999656677246,8.899999618530273,8.899999618530273,223800
2019-11-29,8.880000114440918,9.210000038146973,8.880000114440918,9.149999618530273,9.149999618530273,197900
2019-12-02,9.100000381469727,9.270000457763672,8.949999809265137,9.170000076293945,9.170000076293945,290400
2019-12-03,9.050000190734863,9.359999656677246,8.949999809265137,9.199999809265137,9.199999809265137,460200
2019-12-04,9.210000038146973,9.420000076293945,9.210000038146973,9.385000228881836,9.385000228881836,281200
2019-12-05,9.359999656677246,9.4399995803833,9.350000381469727,9.380000114440918,9.380000114440918,146900
2019-12-06,9.420000076293945,9.529999732971191,9.289999961853027,9.4399995803833,9.4399995803833,170200
2019-12-09,9.4399995803833,9.479999542236328,9.140000343322754,9.229999542236328,9.229999542236328,210900
2019-12-10,9.210000038146973,9.329999923706055,8.800000190734863,8.880000114440918,8.880000114440918,165800
2019-12-11,8.890000343322754,9.050000190734863,8.5,8.654999732971191,8.654999732971191,163800
2019-12-12,8.640000343322754,8.970000267028809,8.40999984741211,8.930000305175781,8.930000305175781,165400
2019-12-13,8.920000076293945,9.119999885559082,8.899999618530273,9.069999694824219,9.069999694824219,194700
2019-12-16,9.069999694824219,9.069999694824219,8.800000190734863,8.920000076293945,8.920000076293945,385300
2019-12-17,8.920000076293945,9.029999732971191,8.779999732971191,8.970000267028809,8.970000267028809,188200
2019-12-18,9.0,9.0,8.75,8.829999923706055,8.829999923706055,349200
2019-12-19,8.90999984741211,9.0600004196167,8.720000267028809,8.800000190734863,8.800000190734863,193300
2019-12-20,8.800000190734863,9.0,8.609999656677246,8.890000343322754,8.890000343322754,292800
2019-12-23,8.920000076293945,8.979999542236328,8.6899995803833,8.9399995803833,8.9399995803833,315400
2019-12-24,8.9399995803833,9.25,8.8100004196167,9.109999656677246,9.109999656677246,78600
2019-12-26,9.149999618530273,9.279999732971191,8.899999618530273,9.25,9.25,73100
2019-12-27,9.229999542236328,9.289999961853027,9.0600004196167,9.130000114440918,9.130000114440918,93000
2019-12-30,9.130000114440918,9.300000190734863,9.109999656677246,9.149999618530273,9.149999618530273,88900
2019-12-31,9.119999885559082,9.279999732971191,9.010000228881836,9.119999885559082,9.119999885559082,135300
2020-01-02,9.170000076293945,9.220000267028809,8.720000267028809,8.920000076293945,8.920000076293945,133100
2020-01-03,8.899999618530273,8.944999694824219,8.720000267028809,8.819999694824219,8.819999694824219,144000
2020-01-06,8.779999732971191,9.029999732971191,8.779999732971191,8.954999923706055,8.954999923706055,211700
2020-01-07,8.930000305175781,9.0,8.600000381469727,8.859999656677246,8.859999656677246,126700
2020-01-08,8.9399995803833,8.9399995803833,8.699999809265137,8.819999694824219,8.819999694824219,332000
2020-01-09,8.800000190734863,9.010000228881836,8.760000228881836,8.970000267028809,8.970000267028809,88800
2020-01-10,8.920000076293945,8.920000076293945,8.789999961853027,8.859999656677246,8.859999656677246,166400
2020-01-13,9.069999694824219,9.220000267028809,8.90999984741211,9.1899995803833,9.1899995803833,484100
2020-01-14,9.15999984741211,9.359999656677246,9.0600004196167,9.170000076293945,9.170000076293945,126500
2020-01-15,9.140000343322754,9.279999732971191,8.829999923706055,8.9399995803833,8.9399995803833,145500
2020-01-16,9.020000457763672,9.170000076293945,8.829999923706055,8.890000343322754,8.890000343322754,455100
2020-01-17,8.920000076293945,8.920000076293945,8.479999542236328,8.670000076293945,8.670000076293945,364000
2020-01-21,8.65999984741211,8.65999984741211,8.239999771118164,8.270000457763672,8.270000457763672,160000
2020-01-22,8.260000228881836,8.3100004196167,7.96999979019165,7.994999885559082,7.994999885559082,375000
2020-01-23,8.069999694824219,8.069999694824219,7.590000152587891,7.699999809265137,7.699999809265137,151800
2020-01-24,7.730000019073486,7.730000019073486,7.349999904632568,7.460000038146973,7.460000038146973,128600
2020-01-27,7.340000152587891,7.389999866485596,7.150000095367432,7.199999809265137,7.199999809265137,151100
2020-01-28,7.21999979019165,7.269999980926514,7.090000152587891,7.110000133514404,7.110000133514404,126400
2020-01-29,7.139999866485596,7.150000095367432,6.869999885559082,6.909999847412109,6.909999847412109,142800
2020-01-30,6.929999828338623,6.980000019073486,6.820000171661377,6.880000114440918,6.880000114440918,172800
2020-01-31,6.820000171661377,6.989999771118164,6.480000019073486,6.590000152587891,6.590000152587891,282200
2020-02-03,6.590000152587891,6.590000152587891,6.369999885559082,6.559999942779541,6.559999942779541,123400
2020-02-04,6.630000114440918,6.769999980926514,6.539999961853027,6.614999771118164,6.614999771118164,118900
2020-02-05,6.650000095367432,7.050000190734863,6.579999923706055,7.019999980926514,7.019999980926514,145800
2020-02-06,7.03000020980835,7.130000114440918,6.900000095367432,7.0,7.0,117800
2020-02-07,6.920000076293945,7.150000095367432,6.909999847412109,7.099999904632568,7.099999904632568,91000
2020-02-10,7.179999828338623,7.440000057220459,7.059999942779541,7.110000133514404,7.110000133514404,82200
2020-02-11,7.230000019073486,7.230000019073486,6.989999771118164,7.090000152587891,7.090000152587891,68200
2020-02-12,7.159999847412109,7.449999809265137,7.139999866485596,7.420000076293945,7.420000076293945,66600
2020-02-13,7.409999847412109,7.989999771118164,7.400000095367432,7.980000019073486,7.980000019073486,187600
2020-02-14,8.069999694824219,8.100000381469727,7.809999942779541,7.96999979019165,7.96999979019165,103300
2020-02-18,7.909999847412109,8.029999732971191,7.739999771118164,7.885000228881836,7.885000228881836,88100
2020-02-19,7.909999847412109,8.039999961853027,7.860000133514404,8.010000228881836,8.010000228881836,145900
2020-02-20,8.029999732971191,8.149999618530273,7.960000038146973,8.130000114440918,8.130000114440918,73500
2020-02-21,8.09000015258789,8.279999732971191,7.989999771118164,8.260000228881836,8.260000228881836,136600
2020-02-24,7.980000019073486,8.020000457763672,7.690000057220459,7.960000038146973,7.960000038146973,263600
2020-02-25,7.960000038146973,8.15999984741211,7.739999771118164,7.880000114440918,7.880000114440918,500000
2020-02-26,7.650000095367432,8.199999809265137,7.650000095367432,8.079999923706055,8.079999923706055,405200
2020-02-27,7.980000019073486,8.130000114440918,7.849999904632568,7.960000038146973,7.960000038146973,758400
2020-02-28,7.829999923706055,8.3100004196167,7.389999866485596,8.3100004196167,8.3100004196167,759700
2020-03-02,8.329999923706055,8.359999656677246,7.75,8.154999732971191,8.154999732971191,901700
2020-03-03,8.140000343322754,8.279999732971191,7.860000133514404,8.0600004196167,8.0600004196167,248200
2020-03-04,8.25,8.25,7.664999961853027,7.940000057220459,7.940000057220459,138900
2020-03-05,7.880000114440918,7.989999771118164,7.630000114440918,7.960000038146973,7.960000038146973,315300
2020-03-06,7.789999961853027,7.949999809265137,7.210000038146973,7.550000190734863,7.550000190734863,424300
2020-03-09,7.25,7.599999904632568,6.369999885559082,6.739999771118164,6.739999771118164,695200
2020-03-10,7.010000228881836,7.224999904632568,6.479000091552734,6.940000057220459,6.940000057220459,392400
2020-03-11,6.820000171661377,6.869999885559082,6.369999885559082,6.510000228881836,6.510000228881836,330900
2020-03-12,6.239999771118164,6.389999866485596,5.53000020980835,5.559999942779541,5.559999942779541,207400
2020-03-13,5.730000019073486,5.730000019073486,5.090000152587891,5.480000019073486,5.480000019073486,599800
2020-03-16,5.349999904632568,5.349999904632568,4.525000095367432,4.760000228881836,4.760000228881836,366000
2020-03-17,4.789999961853027,6.409999847412109,4.511000156402588,5.900000095367432,5.900000095367432,303700
2020-03-18,5.659999847412109,6.840000152587891,5.349999904632568,5.739999771118164,5.739999771118164,589600
2020-03-19,5.800000190734863,5.929999828338623,5.070000171661377,5.730000019073486,5.730000019073486,246200
2020-03-20,5.809999942779541,6.409999847412109,5.360000133514404,5.909999847412109,5.909999847412109,395500
2020-03-23,6.110000133514404,6.190000057220459,4.889999866485596,5.159999847412109,5.159999847412109,153200
2020-03-24,5.369999885559082,5.909999847412109,5.139999866485596,5.380000114440918,5.380000114440918,211500
2020-03-25,5.380000114440918,5.389999866485596,4.809999942779541,4.949999809265137,4.949999809265137,198200
2020-03-26,5.0,5.110000133514404,4.429999828338623,4.840000152587891,4.840000152587891,226000
2020-03-27,4.760000228881836,4.880000114440918,4.210000038146973,4.300000190734863,4.300000190734863,134200
2020-03-30,4.25,4.5,4.039999961853027,4.489999771118164,4.489999771118164,177200
2020-03-31,4.550000190734863,5.230000019073486,4.449999809265137,5.079999923706055,5.079999923706055,269600
2020-04-01,4.86299991607666,5.210000038146973,4.735000133514404,4.78000020980835,4.78000020980835,149900
2020-04-02,4.849999904632568,5.179999828338623,4.510000228881836,4.730000019073486,4.730000019073486,347400
2020-04-03,4.760000228881836,4.820000171661377,4.414999961853027,4.710000038146973,4.710000038146973,236000
2020-04-06,4.860000133514404,5.2230000495910645,4.605000019073486,5.039999961853027,5.039999961853027,206800
2020-04-07,5.130000114440918,5.248000144958496,4.699999809265137,4.900000095367432,4.900000095367432,265000
2020-04-08,5.019999980926514,5.179999828338623,4.710000038146973,5.079999923706055,5.079999923706055,188900
2020-04-09,5.190000057220459,5.400000095367432,4.909999847412109,5.110000133514404,5.110000133514404,186400
2020-04-13,5.039999961853027,5.389999866485596,4.800000190734863,4.980000019073486,4.980000019073486,123500
2020-04-14,5.03000020980835,5.260000228881836,4.460000038146973,4.659999847412109,4.659999847412109,242100
2020-04-15,4.559999942779541,4.650000095367432,4.329999923706055,4.440000057220459,4.440000057220459,125500
2020-04-16,4.449999809265137,4.510000228881836,4.059999942779541,4.28000020980835,4.28000020980835,418800
2020-04-17,4.360000133514404,4.760000228881836,4.25,4.710000038146973,4.710000038146973,195800
2020-04-20,4.510000228881836,4.800000190734863,4.260000228881836,4.400000095367432,4.400000095367432,255000
2020-04-21,4.260000228881836,4.389999866485596,4.050000190734863,4.110000133514404,4.110000133514404,258400
2020-04-22,4.25,4.449999809265137,4.039999961853027,4.320000171661377,4.320000171661377,226200
2020-04-23,4.380000114440918,6.105999946594238,4.300000190734863,5.800000190734863,5.800000190734863,506000
2020-04-24,6.019999980926514,6.320000171661377,4.875,5.170000076293945,5.170000076293945,537700
2020-04-27,5.170000076293945,5.170000076293945,4.869999885559082,4.980000019073486,4.980000019073486,250700
2020-04-28,4.949999809265137,5.034999847412109,4.789999961853027,4.880000114440918,4.880000114440918,105800
2020-04-29,5.070000171661377,5.130000114440918,4.909999847412109,5.110000133514404,5.110000133514404,361700
2020-04-30,5.150000095367432,5.21999979019165,4.71999979019165,5.110000133514404,5.110000133514404,208800
2020-05-01,4.960000038146973,5.03000020980835,4.72599983215332,4.989999771118164,4.989999771118164,141800
2020-05-04,4.920000076293945,5.099999904632568,4.800000190734863,5.010000228881836,5.010000228881836,121300
2020-05-05,5.150000095367432,5.170000076293945,4.849999904632568,4.889999866485596,4.889999866485596,197800
2020-05-06,5.150000095367432,5.388000011444092,4.614999771118164,4.840000152587891,4.840000152587891,199100
2020-05-07,4.920000076293945,5.110000133514404,4.78000020980835,4.900000095367432,4.900000095367432,146600
2020-05-08,4.960000038146973,5.296999931335449,4.960000038146973,5.099999904632568,5.099999904632568,427300
2020-05-11,5.059999942779541,5.090000152587891,4.71999979019165,4.889999866485596,4.889999866485596,169800
2020-05-12,4.889999866485596,4.949999809265137,4.599999904632568,4.690000057220459,4.690000057220459,125500
2020-05-13,4.659999847412109,4.710000038146973,4.480000019073486,4.650000095367432,4.650000095367432,118300
2020-05-14,4.559999942779541,4.559999942779541,4.210000038146973,4.409999847412109,4.409999847412109,213700
2020-05-15,4.449999809265137,4.449999809265137,4.28000020980835,4.289999961853027,4.289999961853027,110400
2020-05-18,4.5,4.800000190734863,4.309999942779541,4.71999979019165,4.71999979019165,650800
2020-05-19,4.710000038146973,5.03000020980835,4.559999942779541,4.599999904632568,4.599999904632568,339700
2020-05-20,4.710000038146973,5.329999923706055,4.710000038146973,5.289999961853027,5.289999961853027,181800
2020-05-21,5.400000095367432,5.710000038146973,5.320000171661377,5.489999771118164,5.489999771118164,120000
2020-05-22,5.539999961853027,5.605000019073486,5.230000019073486,5.380000114440918,5.380000114440918,97400
2020-05-26,5.599999904632568,5.869999885559082,5.480000019073486,5.630000114440918,5.630000114440918,116000
2020-05-27,5.710000038146973,5.829999923706055,5.324999809265137,5.78000020980835,5.78000020980835,136300
2020-05-28,5.909999847412109,5.980000019073486,5.670000076293945,5.789999961853027,5.789999961853027,121300
2020-05-29,5.75,5.860000133514404,5.380000114440918,5.679999828338623,5.679999828338623,96700
2020-06-01,5.739999771118164,5.75,5.349999904632568,5.369999885559082,5.369999885559082,96700
2020-06-02,5.400000095367432,5.730999946594238,5.400000095367432,5.639999866485596,5.639999866485596,135400
2020-06-03,5.829999923706055,5.960000038146973,5.6539998054504395,5.829999923706055,5.829999923706055,104900
2020-06-04,5.739999771118164,6.070000171661377,5.570000171661377,5.889999866485596,5.889999866485596,196300
2020-06-05,6.130000114440918,6.619999885559082,6.0,6.599999904632568,6.599999904632568,340600
2020-06-08,6.739999771118164,7.139999866485596,6.610000133514404,7.079999923706055,7.079999923706055,313400
2020-06-09,6.800000190734863,7.059999942779541,6.659999847412109,6.929999828338623,6.929999828338623,170300
2020-06-10,6.849999904632568,6.849999904632568,6.429999828338623,6.599999904632568,6.599999904632568,143700
2020-06-11,6.190000057220459,6.300000190734863,5.900000095367432,6.119999885559082,6.119999885559082,129500
2020-06-12,6.440000057220459,6.480000019073486,5.809999942779541,5.929999828338623,5.929999828338623,175800
2020-06-15,5.710000038146973,6.079999923706055,5.559999942779541,5.900000095367432,5.900000095367432,153400
2020-06-16,6.099999904632568,6.429999828338623,5.940000057220459,6.329999923706055,6.329999923706055,142100
2020-06-17,6.260000228881836,6.260000228881836,5.96999979019165,6.019999980926514,6.019999980926514,103800
2020-06-18,6.0,6.170000076293945,6.0,6.070000171661377,6.070000171661377,79200
2020-06-19,6.429999828338623,6.429999828338623,6.010000228881836,6.070000171661377,6.070000171661377,206400
2020-06-22,6.059999942779541,6.059999942779541,5.579999923706055,5.860000133514404,5.860000133514404,98100
2020-06-23,5.920000076293945,5.989999771118164,5.760000228881836,5.875,5.875,95300
2020-06-24,5.78000020980835,5.849999904632568,5.610000133514404,5.755000114440918,5.755000114440918,159200
2020-06-25,5.699999809265137,5.730000019073486,5.360000133514404,5.514999866485596,5.514999866485596,243700
2020-06-26,5.400000095367432,6.360000133514404,5.329999923706055,6.28000020980835,6.28000020980835,636500
2020-06-29,6.21999979019165,6.75,6.21999979019165,6.75,6.75,268500
2020-06-30,6.599999904632568,7.050000190734863,6.557000160217285,6.880000114440918,6.880000114440918,259300
2020-07-01,6.860000133514404,6.860000133514404,6.309999942779541,6.769999980926514,6.769999980926514,285600
2020-07-02,6.860000133514404,6.949999809265137,6.690000057220459,6.829999923706055,6.829999923706055,340200
2020-07-06,6.889999866485596,7.170000076293945,6.769999980926514,6.800000190734863,6.800000190734863,343200
2020-07-07,6.650000095367432,6.960000038146973,6.590000152587891,6.860000133514404,6.860000133514404,231000
2020-07-08,6.860000133514404,6.949999809265137,6.489999771118164,6.590000152587891,6.590000152587891,224000
2020-07-09,6.519999980926514,6.550000190734863,6.079999923706055,6.239999771118164,6.239999771118164,167400
2020-07-10,6.25,6.489999771118164,6.070000171661377,6.420000076293945,6.420000076293945,196100
2020-07-13,6.429999828338623,6.559999942779541,6.269999980926514,6.329999923706055,6.329999923706055,180000
2020-07-14,6.349999904632568,6.429999828338623,6.090000152587891,6.380000114440918,6.380000114440918,191400
2020-07-15,6.510000228881836,6.769999980926514,6.480000019073486,6.610000133514404,6.610000133514404,168700
2020-07-16,6.579999923706055,6.59499979019165,6.409999847412109,6.449999809265137,6.449999809265137,194000
2020-07-17,6.360000133514404,6.480000019073486,6.260000228881836,6.260000228881836,6.260000228881836,108600
2020-07-20,6.119999885559082,6.329999923706055,6.03000020980835,6.179999828338623,6.179999828338623,120000
2020-07-21,6.320000171661377,6.679999828338623,6.320000171661377,6.545000076293945,6.545000076293945,441500
2020-07-22,6.510000228881836,6.889999866485596,6.349999904632568,6.730000019073486,6.730000019073486,141100
2020-07-23,6.679999828338623,6.940000057220459,6.611999988555908,6.75,6.75,125000
2020-07-24,6.800000190734863,6.900000095367432,6.610000133514404,6.625,6.625,95500
2020-07-27,6.619999885559082,6.75,6.550000190734863,6.590000152587891,6.590000152587891,151500
2020-07-28,6.510000228881836,6.670000076293945,6.204999923706055,6.369999885559082,6.369999885559082,222300
2020-07-29,6.389999866485596,6.639999866485596,6.320000171661377,6.53000020980835,6.53000020980835,64300
2020-07-30,6.389999866485596,6.590000152587891,6.269999980926514,6.449999809265137,6.449999809265137,37300
2020-07-31,6.380000114440918,6.75,6.340000152587891,6.690000057220459,6.690000057220459,148100
2020-08-03,6.699999809265137,7.099999904632568,6.699999809265137,6.96999979019165,6.96999979019165,117900
2020-08-04,7.099999904632568,7.389999866485596,7.019999980926514,7.25,7.25,387000
2020-08-05,7.230000019073486,7.409999847412109,7.199999809265137,7.360000133514404,7.360000133514404,301500
2020-08-06,7.46999979019165,7.599999904632568,7.260000228881836,7.559999942779541,7.559999942779541,300500
2020-08-07,7.550000190734863,7.599999904632568,7.440000057220459,7.5,7.5,163500
2020-08-10,7.489999771118164,7.730000019073486,7.489999771118164,7.670000076293945,7.670000076293945,204300
2020-08-11,7.900000095367432,8.350000381469727,7.820000171661377,8.289999961853027,8.289999961853027,621100
2020-08-12,8.350000381469727,8.390000343322754,7.980000019073486,8.380000114440918,8.380000114440918,171400
2020-08-13,8.390000343322754,8.460000038146973,8.229999542236328,8.34000015258789,8.34000015258789,191700
2020-08-14,8.279999732971191,8.489999771118164,8.260000228881836,8.460000038146973,8.460000038146973,101500
2020-08-17,8.470000267028809,8.569999694824219,8.350000381469727,8.449999809265137,8.449999809265137,217300
2020-08-18,8.359999656677246,8.404999732971191,8.145999908447266,8.295000076293945,8.295000076293945,144600
2020-08-19,8.319999694824219,8.4399995803833,8.085000038146973,8.15999984741211,8.15999984741211,113700
2020-08-20,8.100000381469727,8.300000190734863,7.929999828338623,8.119999885559082,8.119999885559082,278900
2020-08-21,8.1899995803833,8.1899995803833,7.800000190734863,7.96999979019165,7.96999979019165,182100
2020-08-24,8.0,8.229999542236328,7.760000228881836,8.100000381469727,8.100000381469727,228200
2020-08-25,8.140000343322754,8.1899995803833,7.909999847412109,7.96999979019165,7.96999979019165,171300
2020-08-26,7.949999809265137,7.960000038146973,7.019999980926514,7.300000190734863,7.300000190734863,235100
2020-08-27,7.28000020980835,7.28000020980835,7.019999980926514,7.199999809265137,7.199999809265137,201700
2020-08-28,7.25,7.329999923706055,7.170000076293945,7.260000228881836,7.260000228881836,115900
2020-08-31,7.269999980926514,7.710000038146973,7.139999866485596,7.539999961853027,7.539999961853027,233000
2020-09-01,7.5,7.670000076293945,7.369999885559082,7.599999904632568,7.599999904632568,156100
2020-09-02,7.559999942779541,7.760000228881836,7.460000038146973,7.710000038146973,7.710000038146973,179900
2020-09-03,7.71999979019165,7.889999866485596,7.489999771118164,7.579999923706055,7.579999923706055,225100
2020-09-04,7.599999904632568,7.599999904632568,7.150000095367432,7.199999809265137,7.199999809265137,298300
2020-09-08,7.119999885559082,7.130000114440918,6.699999809265137,6.800000190734863,6.800000190734863,140900
2020-09-09,6.900000095367432,7.190000057220459,6.840000152587891,7.039999961853027,7.039999961853027,84400
2020-09-10,7.010000228881836,7.010000228881836,6.699999809265137,6.710000038146973,6.710000038146973,69100
2020-09-11,6.75,6.809999942779541,6.59499979019165,6.760000228881836,6.760000228881836,64600
2020-09-14,6.800000190734863,7.050000190734863,6.630000114440918,6.809999942779541,6.809999942779541,164300
2020-09-15,6.889999866485596,7.050000190734863,6.849999904632568,6.900000095367432,6.900000095367432,67700
2020-09-16,6.989999771118164,7.199999809265137,6.920000076293945,7.119999885559082,7.119999885559082,85500
2020-09-17,7.0,7.389999866485596,6.940000057220459,7.28000020980835,7.28000020980835,151200
2020-09-18,7.349999904632568,7.440000057220459,7.03000020980835,7.150000095367432,7.150000095367432,132600
2020-09-21,7.019999980926514,7.050000190734863,6.539999961853027,6.849999904632568,6.849999904632568,161700
2020-09-22,6.909999847412109,7.019999980926514,6.840000152587891,6.860000133514404,6.860000133514404,89100
2020-09-23,6.809999942779541,7.079999923706055,6.619999885559082,6.630000114440918,6.630000114440918,218300
2020-09-24,6.570000171661377,6.650000095367432,6.429999828338623,6.539999961853027,6.539999961853027,107400
2020-09-25,6.46999979019165,6.539999961853027,6.28000020980835,6.460000038146973,6.460000038146973,101800
2020-09-28,6.550000190734863,7.050000190734863,6.260000228881836,6.630000114440918,6.630000114440918,103900
2020-09-29,6.610000133514404,6.610000133514404,6.324999809265137,6.420000076293945,6.420000076293945,55000
2020-09-30,6.440000057220459,6.534999847412109,6.21999979019165,6.380000114440918,6.380000114440918,170500
2020-10-01,6.309999942779541,6.375,6.099999904632568,6.199999809265137,6.199999809265137,152600
2020-10-02,6.099999904632568,6.489999771118164,5.929999828338623,6.369999885559082,6.369999885559082,136400
2020-10-05,6.400000095367432,6.710000038146973,6.199999809265137,6.639999866485596,6.639999866485596,64700
2020-10-06,6.739999771118164,6.929999828338623,6.630000114440918,6.730000019073486,6.730000019073486,122800
2020-10-07,6.900000095367432,6.949999809265137,6.659999847412109,6.940000057220459,6.940000057220459,52900
2020-10-08,6.980000019073486,7.599999904632568,6.900000095367432,7.489999771118164,7.489999771118164,168900
2020-10-09,7.570000171661377,7.570000171661377,7.179999828338623,7.289999961853027,7.289999961853027,46000
2020-10-12,7.340000152587891,7.340000152587891,7.09499979019165,7.230000019073486,7.230000019073486,49700
2020-10-13,7.190000057220459,7.670000076293945,7.164999961853027,7.630000114440918,7.630000114440918,121400
2020-10-14,7.699999809265137,7.800000190734863,7.389999866485596,7.460000038146973,7.460000038146973,120000
2020-10-15,7.400000095367432,7.675000190734863,7.199999809265137,7.570000171661377,7.570000171661377,97400
2020-10-16,7.510000228881836,7.75,7.420000076293945,7.550000190734863,7.550000190734863,77900
2020-10-19,7.679999828338623,7.800000190734863,7.53000020980835,7.670000076293945,7.670000076293945,108600
2020-10-20,7.760000228881836,7.914999961853027,7.660999774932861,7.889999866485596,7.889999866485596,82500
2020-10-21,7.829999923706055,8.170000076293945,7.75,7.889999866485596,7.889999866485596,169200
2020-10-22,7.949999809265137,8.079999923706055,7.699999809265137,8.039999961853027,8.039999961853027,167400
2020-10-23,8.109999656677246,8.170000076293945,7.800000190734863,7.880000114440918,7.880000114440918,313900
2020-10-26,7.739999771118164,7.880000114440918,7.510000228881836,7.800000190734863,7.800000190734863,90700
2020-10-27,7.809999942779541,8.15999984741211,7.659999847412109,8.0600004196167,8.0600004196167,191100
2020-10-28,8.0600004196167,8.199999809265137,7.519999980926514,7.96999979019165,7.96999979019165,381500
2020-10-29,7.840000152587891,8.149999618530273,7.71999979019165,7.920000076293945,7.920000076293945,125200
2020-10-30,7.800000190734863,7.929999828338623,7.28000020980835,7.400000095367432,7.400000095367432,381400
2020-11-02,7.5,7.5,7.300000190734863,7.369999885559082,7.369999885559082,110600
2020-11-03,7.400000095367432,7.699999809265137,7.269999980926514,7.440000057220459,7.440000057220459,91400
2020-11-04,7.369999885559082,7.406000137329102,6.860000133514404,6.940000057220459,6.940000057220459,189900
2020-11-05,6.889999866485596,7.150000095367432,6.539000034332275,6.789999961853027,6.789999961853027,77700
2020-11-06,6.789999961853027,6.795000076293945,6.480000019073486,6.590000152587891,6.590000152587891,65100
2020-11-09,7.150000095367432,7.53000020980835,7.019999980926514,7.369999885559082,7.369999885559082,177700
2020-11-10,7.400000095367432,7.670000076293945,7.110000133514404,7.340000152587891,7.340000152587891,109800
2020-11-11,7.380000114440918,7.400000095367432,7.019999980926514,7.239999771118164,7.239999771118164,158600
2020-11-12,7.150000095367432,7.159999847412109,6.829999923706055,6.949999809265137,6.949999809265137,78300
2020-11-13,6.989999771118164,7.099999904632568,6.809999942779541,6.960000038146973,6.960000038146973,82100
2020-11-16,7.110000133514404,7.650000095367432,7.065999984741211,7.599999904632568,7.599999904632568,105400
2020-11-17,7.579999923706055,7.90500020980835,7.449999809265137,7.820000171661377,7.820000171661377,155000
2020-11-18,7.920000076293945,8.75,7.860000133514404,8.6899995803833,8.6899995803833,647600
2020-11-19,8.479999542236328,8.649999618530273,8.25,8.319999694824219,8.319999694824219,144300
2020-11-20,8.220000267028809,8.399999618530273,8.0600004196167,8.3100004196167,8.3100004196167,154500
2020-11-23,8.390000343322754,9.079999923706055,8.3100004196167,9.069999694824219,9.069999694824219,325700
2020-11-24,9.050000190734863,9.149999618530273,8.779999732971191,8.9399995803833,8.9399995803833,315200
2020-11-25,8.869999885559082,9.100000381469727,8.6899995803833,9.020000457763672,9.020000457763672,145600
2020-11-27,9.0,9.0,8.663000106811523,8.859999656677246,8.859999656677246,29800
2020-11-30,8.720000267028809,8.880000114440918,8.649999618530273,8.739999771118164,8.739999771118164,165000
2020-12-01,8.90999984741211,9.149999618530273,8.835000038146973,9.079999923706055,9.079999923706055,160800
2020-12-02,9.09000015258789,9.449999809265137,9.09000015258789,9.220000267028809,9.220000267028809,270500
2020-12-03,9.270000457763672,9.449999809265137,9.140000343322754,9.300000190734863,9.300000190734863,143300
2020-12-04,9.380000114440918,9.640000343322754,9.199999809265137,9.59000015258789,9.59000015258789,387400
2020-12-07,9.5,9.729999542236328,9.34000015258789,9.550000190734863,9.550000190734863,302700
2020-12-08,9.510000228881836,9.75,9.510000228881836,9.75,9.75,163300
2020-12-09,9.75,9.75,9.390000343322754,9.630000114440918,9.630000114440918,119000
2020-12-10,9.600000381469727,9.960000038146973,9.550000190734863,9.649999618530273,9.649999618530273,221100
2020-12-11,9.640000343322754,9.739999771118164,9.350000381469727,9.65999984741211,9.65999984741211,222300
2020-12-14,9.720000267028809,9.789999961853027,9.529999732971191,9.569999694824219,9.569999694824219,202100
2020-12-15,9.649999618530273,9.819999694824219,9.619999885559082,9.800000190734863,9.800000190734863,85000
2020-12-16,9.729999542236328,9.899999618530273,9.520000457763672,9.609999656677246,9.609999656677246,91800
2020-12-17,9.619999885559082,9.989999771118164,9.609999656677246,9.729999542236328,9.729999542236328,77400
2020-12-18,9.529999732971191,9.899999618530273,9.529999732971191,9.680000305175781,9.680000305175781,197500
2020-12-21,9.529999732971191,9.680000305175781,9.329999923706055,9.510000228881836,9.510000228881836,107200
2020-12-22,9.510000228881836,9.84000015258789,9.279999732971191,9.460000038146973,9.460000038146973,69000
2020-12-23,9.539999961853027,9.760000228881836,9.350000381469727,9.600000381469727,9.600000381469727,54500
2020-12-24,9.699999809265137,9.75,9.494999885559082,9.539999961853027,9.539999961853027,40900
2020-12-28,9.529999732971191,9.770000457763672,9.369999885559082,9.569999694824219,9.569999694824219,91100
2020-12-29,9.569999694824219,9.65999984741211,9.279999732971191,9.619999885559082,9.619999885559082,99200
2020-12-30,9.619999885559082,9.899999618530273,9.619999885559082,9.899999618530273,9.899999618530273,115500
