Date,Open,High,Low,Close,Adj Close,Volume
2017-07-28,7.320000171661377,9.800000190734863,7.320000171661377,8.930000305175781,8.930000305175781,156200
2017-07-31,9.029999732971191,9.149999618530273,8.5,8.65999984741211,8.65999984741211,65800
2017-08-01,8.5,8.649999618530273,7.849999904632568,7.849999904632568,7.849999904632568,65500
2017-08-02,7.900000095367432,8.279999732971191,7.400000095367432,8.0,8.0,79300
2017-08-03,8.09000015258789,10.680000305175781,8.050000190734863,10.569000244140625,10.569000244140625,119600
2017-08-04,10.5,10.569999694824219,8.729999542236328,9.010000228881836,9.010000228881836,78600
2017-08-07,9.369999885559082,9.880000114440918,8.619999885559082,9.880000114440918,9.880000114440918,54200
2017-08-08,10.0,10.17199993133545,9.027999877929688,9.199999809265137,9.199999809265137,36200
2017-08-09,9.1899995803833,9.770000457763672,8.529999732971191,9.770000457763672,9.770000457763672,58800
2017-08-10,9.949999809265137,9.949999809265137,8.770000457763672,8.880000114440918,8.880000114440918,65300
2017-08-11,8.699999809265137,8.899999618530273,7.599999904632568,8.899999618530273,8.899999618530273,57700
2017-08-14,8.199999809265137,10.0,8.199999809265137,9.699999809265137,9.699999809265137,59700
2017-08-15,9.199999809265137,9.699999809265137,8.710000038146973,9.300000190734863,9.300000190734863,62000
2017-08-16,8.710000038146973,9.600000381469727,8.710000038146973,9.1899995803833,9.1899995803833,33200
2017-08-17,9.300000190734863,11.600000381469727,9.053999900817871,11.0,11.0,208500
2017-08-18,10.949999809265137,11.0,10.130000114440918,10.789999961853027,10.789999961853027,80000
2017-08-21,10.300000190734863,11.550000190734863,10.050000190734863,11.359999656677246,11.359999656677246,84400
2017-08-22,11.359999656677246,11.798999786376953,11.149999618530273,11.270000457763672,11.270000457763672,68800
2017-08-23,11.229999542236328,11.430000305175781,10.567000389099121,10.949999809265137,10.949999809265137,64000
2017-08-24,11.0,11.359999656677246,9.850000381469727,10.029999732971191,10.029999732971191,131700
2017-08-25,10.399999618530273,10.399999618530273,9.550000190734863,9.760000228881836,9.760000228881836,183100
2017-08-28,9.819999694824219,9.989999771118164,9.670000076293945,9.789999961853027,9.789999961853027,97800
2017-08-29,9.65999984741211,9.710000038146973,8.930000305175781,9.199999809265137,9.199999809265137,68800
2017-08-30,9.1899995803833,9.199999809265137,8.819999694824219,9.100000381469727,9.100000381469727,40500
2017-08-31,9.100000381469727,9.100000381469727,8.819999694824219,8.850000381469727,8.850000381469727,29500
2017-09-01,9.0,9.020000457763672,8.5600004196167,8.710000038146973,8.710000038146973,32600
2017-09-05,8.710000038146973,8.710000038146973,8.359999656677246,8.569999694824219,8.569999694824219,11400
2017-09-06,8.527000427246094,8.595999717712402,8.029999732971191,8.25,8.25,58600
2017-09-07,8.100000381469727,8.25,7.730000019073486,8.050000190734863,8.050000190734863,63300
2017-09-08,8.100000381469727,8.140000343322754,7.800000190734863,8.029999732971191,8.029999732971191,82500
2017-09-11,8.069999694824219,8.970000267028809,7.809999942779541,8.970000267028809,8.970000267028809,50900
2017-09-12,8.949999809265137,9.819000244140625,8.529999732971191,9.210000038146973,9.210000038146973,117800
2017-09-13,9.600000381469727,9.600000381469727,8.819999694824219,8.819999694824219,8.819999694824219,42400
2017-09-14,8.800000190734863,8.800000190734863,8.199999809265137,8.260000228881836,8.260000228881836,101700
2017-09-15,8.350000381469727,8.470000267028809,7.900000095367432,8.270000457763672,8.270000457763672,101600
2017-09-18,8.270000457763672,8.5600004196167,8.100000381469727,8.390000343322754,8.390000343322754,116700
2017-09-19,8.300000190734863,8.75,8.140000343322754,8.59000015258789,8.59000015258789,83200
2017-09-20,8.5600004196167,9.800000190734863,8.270000457763672,9.609999656677246,9.609999656677246,270100
2017-09-21,9.869999885559082,10.979999542236328,9.5,9.5,9.5,320700
2017-09-22,9.449999809265137,10.010000228881836,8.550000190734863,8.630000114440918,8.630000114440918,155900
2017-09-25,8.609999656677246,8.718999862670898,8.100000381469727,8.699999809265137,8.699999809265137,336000
2017-09-26,8.600000381469727,8.65999984741211,8.109999656677246,8.300000190734863,8.300000190734863,361700
2017-09-27,8.380000114440918,9.15999984741211,8.119999885559082,9.109999656677246,9.109999656677246,318600
2017-09-28,9.180000305175781,9.600000381469727,8.859999656677246,8.899999618530273,8.899999618530273,340200
2017-09-29,9.0,9.199999809265137,8.619999885559082,8.619999885559082,8.619999885559082,193600
2017-10-02,8.600000381469727,8.739999771118164,8.279999732971191,8.550000190734863,8.550000190734863,179000
2017-10-03,8.5,8.5,8.300000190734863,8.430000305175781,8.430000305175781,163300
2017-10-04,8.510000228881836,8.770000457763672,8.329999923706055,8.649999618530273,8.649999618530273,174200
2017-10-05,8.710000038146973,9.25,8.319999694824219,8.470000267028809,8.470000267028809,231400
2017-10-06,8.619999885559082,8.760000228881836,8.510000228881836,8.539999961853027,8.539999961853027,158600
2017-10-09,8.520000457763672,8.630000114440918,8.430000305175781,8.569999694824219,8.569999694824219,147600
2017-10-10,8.5600004196167,8.890000343322754,8.5,8.770000457763672,8.770000457763672,128000
2017-10-11,8.600000381469727,9.270000457763672,8.5600004196167,8.979999542236328,8.979999542236328,212500
2017-10-12,8.970000267028809,9.579999923706055,8.880000114440918,9.470000267028809,9.470000267028809,144900
2017-10-13,9.699999809265137,9.899999618530273,9.192000389099121,9.539999961853027,9.539999961853027,130600
2017-10-16,9.430000305175781,9.779999732971191,8.75,9.130000114440918,9.130000114440918,118800
2017-10-17,8.979999542236328,9.329999923706055,8.859999656677246,9.15999984741211,9.15999984741211,87700
2017-10-18,9.079999923706055,9.579999923706055,9.0600004196167,9.420000076293945,9.420000076293945,166800
2017-10-19,9.300000190734863,9.637999534606934,9.020000457763672,9.460000038146973,9.460000038146973,80800
2017-10-20,9.369999885559082,10.5,9.199999809265137,10.300000190734863,10.300000190734863,172400
2017-10-23,10.359999656677246,10.680000305175781,9.569999694824219,9.770000457763672,9.770000457763672,107900
2017-10-24,9.600000381469727,9.970000267028809,9.390000343322754,9.600000381469727,9.600000381469727,59000
2017-10-25,9.569999694824219,10.270000457763672,9.460000038146973,10.220000267028809,10.220000267028809,53000
2017-10-26,9.8100004196167,11.449999809265137,9.8100004196167,11.25,11.25,61100
2017-10-27,11.248000144958496,13.949999809265137,11.0,13.619999885559082,13.619999885559082,195800
2017-10-30,13.619999885559082,14.479999542236328,12.789999961853027,14.239999771118164,14.239999771118164,118400
2017-10-31,14.020000457763672,14.869999885559082,13.600000381469727,13.600000381469727,13.600000381469727,91700
2017-11-01,13.670000076293945,14.960000038146973,13.670000076293945,14.359999656677246,14.359999656677246,129700
2017-11-02,14.199999809265137,15.279999732971191,13.451000213623047,14.5,14.5,155900
2017-11-03,14.75,15.74899959564209,14.329999923706055,15.569999694824219,15.569999694824219,106100
2017-11-06,15.800000190734863,16.25,15.0,15.1899995803833,15.1899995803833,77400
2017-11-07,14.920000076293945,15.65999984741211,12.220000267028809,12.220000267028809,12.220000267028809,167500
2017-11-08,12.039999961853027,13.149999618530273,11.600000381469727,12.520000457763672,12.520000457763672,143300
2017-11-09,12.8100004196167,14.220000267028809,12.392000198364258,13.539999961853027,13.539999961853027,182600
2017-11-10,13.779999732971191,14.121000289916992,12.550000190734863,12.789999961853027,12.789999961853027,113100
2017-11-13,12.890000343322754,14.220000267028809,12.670000076293945,13.930000305175781,13.930000305175781,130000
2017-11-14,14.149999618530273,15.010000228881836,12.770000457763672,12.770000457763672,12.770000457763672,216000
2017-11-15,12.800000190734863,14.380000114440918,12.640000343322754,12.640000343322754,12.640000343322754,166400
2017-11-16,12.760000228881836,13.319999694824219,12.5,12.760000228881836,12.760000228881836,71200
2017-11-17,13.0,13.149999618530273,10.649999618530273,10.649999618530273,10.649999618530273,57700
2017-11-20,10.550000190734863,11.350000381469727,10.329999923706055,10.859999656677246,10.859999656677246,114700
2017-11-21,10.720000267028809,10.720000267028809,9.680000305175781,9.90999984741211,9.90999984741211,162300
2017-11-22,10.050000190734863,10.1899995803833,9.600000381469727,9.779999732971191,9.779999732971191,81600
2017-11-24,9.609999656677246,9.850000381469727,9.529999732971191,9.739999771118164,9.739999771118164,54600
2017-11-27,9.600000381469727,9.680000305175781,8.65999984741211,8.680000305175781,8.680000305175781,147900
2017-11-28,8.720000267028809,9.960000038146973,8.600000381469727,9.960000038146973,9.960000038146973,158100
2017-11-29,10.050000190734863,10.760000228881836,9.010000228881836,9.329999923706055,9.329999923706055,162000
2017-11-30,9.15999984741211,9.34000015258789,8.899999618530273,9.09000015258789,9.09000015258789,120900
2017-12-01,9.1899995803833,9.84000015258789,8.899999618530273,9.619999885559082,9.619999885559082,129100
2017-12-04,9.819999694824219,10.640000343322754,9.699999809265137,10.390000343322754,10.390000343322754,121500
2017-12-05,10.210000038146973,10.350000381469727,9.5,9.899999618530273,9.899999618530273,146800
2017-12-06,9.770000457763672,11.319999694824219,9.770000457763672,11.319999694824219,11.319999694824219,172900
2017-12-07,10.90999984741211,12.199999809265137,10.90999984741211,11.779999732971191,11.779999732971191,219200
2017-12-08,11.649999618530273,12.699999809265137,11.479999542236328,12.140000343322754,12.140000343322754,199100
2017-12-11,12.0,12.699999809265137,11.75,12.0600004196167,12.0600004196167,197900
2017-12-12,12.109999656677246,13.329999923706055,12.109999656677246,13.149999618530273,13.149999618530273,443500
2017-12-13,13.199999809265137,14.100000381469727,12.069999694824219,12.199999809265137,12.199999809265137,450100
2017-12-14,12.40999984741211,13.369999885559082,10.220000267028809,10.529999732971191,10.529999732971191,325100
2017-12-15,10.630000114440918,10.630000114440918,8.630000114440918,8.770000457763672,8.770000457763672,391100
2017-12-18,8.84000015258789,9.65999984741211,7.860000133514404,9.359999656677246,9.359999656677246,561300
2017-12-19,9.359999656677246,9.930000305175781,8.718000411987305,9.609999656677246,9.609999656677246,367500
2017-12-20,9.529999732971191,9.770000457763672,9.140000343322754,9.579999923706055,9.579999923706055,324200
2017-12-21,9.460000038146973,9.729999542236328,8.571000099182129,8.8100004196167,8.8100004196167,239500
2017-12-22,8.789999961853027,8.881999969482422,8.430000305175781,8.579999923706055,8.579999923706055,118900
2017-12-26,8.75,9.029999732971191,8.552000045776367,9.029999732971191,9.029999732971191,39400
2017-12-27,9.050000190734863,9.84000015258789,9.050000190734863,9.84000015258789,9.84000015258789,76300
2017-12-28,9.789999961853027,10.220000267028809,9.300000190734863,10.119999885559082,10.119999885559082,234100
2017-12-29,10.010000228881836,10.039999961853027,9.149999618530273,9.390000343322754,9.390000343322754,267500
2018-01-02,9.329999923706055,9.5,8.899999618530273,9.100000381469727,9.100000381469727,135600
2018-01-03,8.960000038146973,9.333999633789062,8.899999618530273,9.220000267028809,9.220000267028809,125400
2018-01-04,9.039999961853027,9.539999961853027,8.65999984741211,9.510000228881836,9.510000228881836,151400
2018-01-05,9.649999618530273,11.779999732971191,9.229999542236328,11.289999961853027,11.289999961853027,257600
2018-01-08,11.25,11.289999961853027,10.319999694824219,10.649999618530273,10.649999618530273,144100
2018-01-09,11.220000267028809,11.800000190734863,10.649999618530273,11.65999984741211,11.65999984741211,157800
2018-01-10,11.75,12.420000076293945,11.640000343322754,12.170000076293945,12.170000076293945,102800
2018-01-11,12.329999923706055,13.5,12.0,13.5,13.5,85300
2018-01-12,13.880000114440918,13.979999542236328,12.229999542236328,13.0,13.0,176700
2018-01-16,13.470000267028809,16.56999969482422,13.470000267028809,15.800000190734863,15.800000190734863,329900
2018-01-17,20.600000381469727,21.0,11.819999694824219,11.989999771118164,11.989999771118164,878500
2018-01-18,11.989999771118164,11.989999771118164,10.109999656677246,10.65999984741211,10.65999984741211,514400
2018-01-19,10.8100004196167,11.649999618530273,10.418999671936035,11.149999618530273,11.149999618530273,242800
2018-01-22,11.350000381469727,11.350000381469727,10.630000114440918,11.09000015258789,11.09000015258789,60800
2018-01-23,10.539999961853027,10.949999809265137,10.220000267028809,10.399999618530273,10.399999618530273,41200
2018-01-24,10.630000114440918,11.489999771118164,10.5,11.430000305175781,11.430000305175781,36600
2018-01-25,11.430000305175781,12.399999618530273,11.430000305175781,11.899999618530273,11.899999618530273,87900
2018-01-26,11.84000015258789,11.84000015258789,10.850000381469727,11.220000267028809,11.220000267028809,19600
2018-01-29,11.300000190734863,11.300000190734863,10.5,10.630000114440918,10.630000114440918,21800
2018-01-30,10.331000328063965,10.800000190734863,10.300000190734863,10.420000076293945,10.420000076293945,9500
2018-01-31,10.5,11.199999809265137,10.5,10.850000381469727,10.850000381469727,38700
2018-02-01,10.8100004196167,11.619999885559082,10.329999923706055,10.4399995803833,10.4399995803833,34400
2018-02-02,10.630000114440918,11.489999771118164,10.119999885559082,11.130000114440918,11.130000114440918,22300
2018-02-05,11.149999618530273,12.039999961853027,10.9399995803833,11.800000190734863,11.800000190734863,78500
2018-02-06,11.899999618530273,12.90999984741211,11.032999992370605,12.310999870300293,12.310999870300293,72500
2018-02-07,12.180000305175781,13.6899995803833,12.180000305175781,12.970000267028809,12.970000267028809,45600
2018-02-08,12.779999732971191,13.460000038146973,12.100000381469727,12.40999984741211,12.40999984741211,73800
2018-02-09,12.720000267028809,13.449999809265137,12.600000381469727,12.970000267028809,12.970000267028809,51100
2018-02-12,13.229999542236328,13.600000381469727,12.260000228881836,12.380000114440918,12.380000114440918,43300
2018-02-13,12.550000190734863,13.085000038146973,11.5,11.539999961853027,11.539999961853027,50300
2018-02-14,12.510000228881836,13.312999725341797,11.949999809265137,12.619999885559082,12.619999885559082,36500
2018-02-15,12.829999923706055,12.899999618530273,12.289999961853027,12.520000457763672,12.520000457763672,29700
2018-02-16,12.90999984741211,12.989999771118164,12.399999618530273,12.40999984741211,12.40999984741211,18200
2018-02-20,12.399999618530273,12.890000343322754,12.0600004196167,12.4399995803833,12.4399995803833,36100
2018-02-21,12.399999618530273,12.399999618530273,11.34000015258789,11.449999809265137,11.449999809265137,40000
2018-02-22,11.5,12.300000190734863,11.399999618530273,12.1899995803833,12.1899995803833,115700
2018-02-23,12.0,13.100000381469727,11.84000015258789,12.859999656677246,12.859999656677246,99900
2018-02-26,12.899999618530273,12.930000305175781,12.25,12.380000114440918,12.380000114440918,124000
2018-02-27,12.5,12.9399995803833,12.300000190734863,12.710000038146973,12.710000038146973,119500
2018-02-28,12.699999809265137,12.800000190734863,12.09000015258789,12.800000190734863,12.800000190734863,170300
2018-03-01,12.75,13.850000381469727,12.75,13.359999656677246,13.359999656677246,124000
2018-03-02,13.399999618530273,13.75,12.649999618530273,13.5,13.5,155700
2018-03-05,13.199999809265137,13.600000381469727,12.770000457763672,13.319999694824219,13.319999694824219,133900
2018-03-06,13.09000015258789,13.09000015258789,12.380000114440918,12.75,12.75,178600
2018-03-07,12.729999542236328,13.880000114440918,12.510000228881836,13.859999656677246,13.859999656677246,199700
2018-03-08,13.699999809265137,15.5,13.34000015258789,15.5,15.5,177400
2018-03-09,15.34000015258789,16.200000762939453,14.800000190734863,15.350000381469727,15.350000381469727,117000
2018-03-12,15.25,15.899999618530273,14.630000114440918,15.380000114440918,15.380000114440918,122700
2018-03-13,15.479999542236328,16.81999969482422,15.199999809265137,16.389999389648438,16.389999389648438,183800
2018-03-14,16.959999084472656,16.959999084472656,16.049999237060547,16.309999465942383,16.309999465942383,131400
2018-03-15,16.450000762939453,17.219999313354492,16.149999618530273,17.149999618530273,17.149999618530273,143200
2018-03-16,17.149999618530273,17.729999542236328,16.850000381469727,17.40999984741211,17.40999984741211,166000
2018-03-19,17.329999923706055,18.860000610351562,17.329999923706055,18.209999084472656,18.209999084472656,132000
2018-03-20,18.0,19.649999618530273,17.989999771118164,19.200000762939453,19.200000762939453,206000
2018-03-21,19.139999389648438,19.399999618530273,18.049999237060547,18.850000381469727,18.850000381469727,166600
2018-03-22,18.899999618530273,19.360000610351562,18.139999389648438,18.139999389648438,18.139999389648438,164100
2018-03-23,18.030000686645508,19.440000534057617,18.030000686645508,19.1200008392334,19.1200008392334,244900
2018-03-26,19.309999465942383,20.350000381469727,19.309999465942383,20.149999618530273,20.149999618530273,326600
2018-03-27,20.010000228881836,21.5,20.010000228881836,20.860000610351562,20.860000610351562,303500
2018-03-28,20.799999237060547,21.239999771118164,20.049999237060547,20.329999923706055,20.329999923706055,284000
2018-03-29,20.149999618530273,21.110000610351562,20.100000381469727,20.700000762939453,20.700000762939453,286000
2018-04-02,20.5,21.899999618530273,20.5,21.479999542236328,21.479999542236328,311000
2018-04-03,21.530000686645508,22.479999542236328,20.450000762939453,20.520000457763672,20.520000457763672,290400
2018-04-04,20.530000686645508,23.15999984741211,19.5,22.899999618530273,22.899999618530273,314400
2018-04-05,22.8799991607666,24.43000030517578,22.8799991607666,24.0,24.0,294200
2018-04-06,24.1200008392334,24.9950008392334,23.18000030517578,23.790000915527344,23.790000915527344,234100
2018-04-09,24.40999984741211,24.770000457763672,23.540000915527344,24.170000076293945,24.170000076293945,275100
2018-04-10,24.399999618530273,27.8700008392334,24.399999618530273,25.889999389648438,25.889999389648438,970800
2018-04-11,25.799999237060547,27.579999923706055,25.600000381469727,26.780000686645508,26.780000686645508,694900
2018-04-12,26.799999237060547,28.200000762939453,16.25,16.5,16.5,1140300
2018-04-13,16.5,17.479999542236328,15.079999923706055,15.270000457763672,15.270000457763672,179100
2018-04-16,15.430000305175781,16.350000381469727,14.109999656677246,14.430000305175781,14.430000305175781,142100
2018-04-17,14.729999542236328,15.15999984741211,14.300000190734863,14.649999618530273,14.649999618530273,197100
2018-04-18,14.699999809265137,14.989999771118164,14.15999984741211,14.359999656677246,14.359999656677246,260400
2018-04-19,14.180000305175781,15.050000190734863,14.180000305175781,14.5,14.5,198300
2018-04-20,14.520000457763672,14.600000381469727,13.510000228881836,13.880000114440918,13.880000114440918,197800
2018-04-23,13.789999961853027,14.3100004196167,12.871000289916992,13.279999732971191,13.279999732971191,199800
2018-04-24,13.210000038146973,13.65999984741211,12.100000381469727,12.3100004196167,12.3100004196167,170900
2018-04-25,12.300000190734863,12.550000190734863,11.890000343322754,12.460000038146973,12.460000038146973,118800
2018-04-26,12.390000343322754,12.579999923706055,11.75,11.859999656677246,11.859999656677246,275800
2018-04-27,11.779999732971191,11.880000114440918,11.170000076293945,11.729999542236328,11.729999542236328,283300
2018-04-30,11.699999809265137,11.729999542236328,11.199999809265137,11.630000114440918,11.630000114440918,227100
2018-05-01,11.550000190734863,13.40999984741211,11.470000267028809,13.020000457763672,13.020000457763672,195700
2018-05-02,13.130000114440918,14.149999618530273,12.59000015258789,13.930000305175781,13.930000305175781,184700
2018-05-03,13.989999771118164,15.489999771118164,13.970000267028809,15.489999771118164,15.489999771118164,173700
2018-05-04,15.579999923706055,17.020000457763672,12.529999732971191,12.800000190734863,12.800000190734863,509500
2018-05-07,12.829999923706055,13.390000343322754,12.5,12.600000381469727,12.600000381469727,75200
2018-05-08,12.609999656677246,12.609999656677246,11.960000038146973,12.460000038146973,12.460000038146973,83800
2018-05-09,12.5,12.994999885559082,12.25,12.920000076293945,12.920000076293945,80900
2018-05-10,13.0,14.1899995803833,13.0,13.390000343322754,13.390000343322754,176100
2018-05-11,13.279999732971191,13.279999732971191,12.180000305175781,12.420000076293945,12.420000076293945,132700
2018-05-14,12.449999809265137,12.869999885559082,11.930000305175781,12.210000038146973,12.210000038146973,96200
2018-05-15,12.1899995803833,12.859999656677246,12.017999649047852,12.859999656677246,12.859999656677246,133100
2018-05-16,12.75,13.0,12.300000190734863,12.390000343322754,12.390000343322754,138400
2018-05-17,12.4399995803833,12.789999961853027,12.199999809265137,12.640000343322754,12.640000343322754,91800
2018-05-18,12.710000038146973,12.710000038146973,12.279999732971191,12.420000076293945,12.420000076293945,128200
2018-05-21,12.350000381469727,12.510000228881836,12.25,12.300000190734863,12.300000190734863,82800
2018-05-22,12.300000190734863,12.390000343322754,11.399999618530273,11.510000228881836,11.510000228881836,158800
2018-05-23,11.489999771118164,11.949999809265137,11.329999923706055,11.930000305175781,11.930000305175781,118900
2018-05-24,11.859999656677246,12.729999542236328,11.579999923706055,12.579999923706055,12.579999923706055,147500
2018-05-25,12.84000015258789,13.170000076293945,12.140000343322754,12.899999618530273,12.899999618530273,162200
2018-05-29,12.869999885559082,15.149999618530273,12.869999885559082,14.890000343322754,14.890000343322754,176200
2018-05-30,14.760000228881836,16.0,14.300000190734863,15.9399995803833,15.9399995803833,87100
2018-05-31,15.920000076293945,15.920000076293945,14.800000190734863,15.149999618530273,15.149999618530273,88900
2018-06-01,15.138999938964844,15.5,14.149999618530273,14.789999961853027,14.789999961853027,83500
2018-06-04,14.899999618530273,14.899999618530273,13.149999618530273,13.829999923706055,13.829999923706055,154900
2018-06-05,13.770000457763672,14.859999656677246,13.630000114440918,14.699999809265137,14.699999809265137,103000
2018-06-06,14.399999618530273,14.880000114440918,13.779999732971191,14.880000114440918,14.880000114440918,88200
2018-06-07,14.75,16.219999313354492,14.100000381469727,15.449999809265137,15.449999809265137,122700
2018-06-08,15.199999809265137,15.899999618530273,14.970000267028809,15.59000015258789,15.59000015258789,101200
2018-06-11,15.600000381469727,15.600000381469727,14.369999885559082,14.720000267028809,14.720000267028809,110000
2018-06-12,14.399999618530273,14.829999923706055,13.989999771118164,14.75,14.75,116900
2018-06-13,14.6899995803833,15.069999694824219,14.239999771118164,15.0600004196167,15.0600004196167,121200
2018-06-14,14.850000381469727,15.899999618530273,14.699999809265137,15.619999885559082,15.619999885559082,90500
2018-06-15,15.729999542236328,17.979999542236328,15.5600004196167,17.979999542236328,17.979999542236328,161300
2018-06-18,17.920000076293945,19.700000762939453,15.26099967956543,18.760000228881836,18.760000228881836,174500
2018-06-19,18.790000915527344,18.790000915527344,17.0,17.59000015258789,17.59000015258789,106200
2018-06-20,17.40999984741211,19.089000701904297,16.709999084472656,19.010000228881836,19.010000228881836,103100
2018-06-21,18.920000076293945,19.40999984741211,17.801000595092773,18.09000015258789,18.09000015258789,78700
2018-06-22,17.920000076293945,19.469999313354492,17.280000686645508,18.219999313354492,18.219999313354492,116800
2018-06-25,18.09000015258789,19.0,17.639999389648438,18.3799991607666,18.3799991607666,151400
2018-06-26,18.299999237060547,19.65999984741211,18.25,19.65999984741211,19.65999984741211,111300
2018-06-27,19.799999237060547,22.0,19.329999923706055,20.790000915527344,20.790000915527344,135800
2018-06-28,20.649999618530273,22.100000381469727,19.799999237060547,21.360000610351562,21.360000610351562,149100
2018-06-29,21.399999618530273,24.5,21.290000915527344,23.889999389648438,23.889999389648438,118800
2018-07-02,23.799999237060547,23.8799991607666,17.75,20.68000030517578,20.68000030517578,173900
2018-07-03,20.600000381469727,20.600000381469727,18.760000228881836,19.65999984741211,19.65999984741211,55800
2018-07-05,19.100000381469727,20.1200008392334,18.81999969482422,19.149999618530273,19.149999618530273,127800
2018-07-06,19.0,19.68000030517578,18.3700008392334,18.780000686645508,18.780000686645508,59600
2018-07-09,18.610000610351562,19.31999969482422,17.649999618530273,18.850000381469727,18.850000381469727,76400
2018-07-10,19.149999618530273,21.190000534057617,19.149999618530273,19.920000076293945,19.920000076293945,87300
2018-07-11,20.06999969482422,21.996999740600586,18.729999542236328,20.309999465942383,20.309999465942383,103000
2018-07-12,20.450000762939453,21.989999771118164,20.100000381469727,21.489999771118164,21.489999771118164,139400
2018-07-13,21.43000030517578,24.690000534057617,20.329999923706055,22.3799991607666,22.3799991607666,216700
2018-07-16,22.299999237060547,24.979999542236328,21.639999389648438,23.1200008392334,23.1200008392334,200300
2018-07-17,23.399999618530273,24.048999786376953,19.615999221801758,20.489999771118164,20.489999771118164,91700
2018-07-18,20.700000762939453,21.229999542236328,19.65999984741211,19.799999237060547,19.799999237060547,34800
2018-07-19,20.1299991607666,20.25,18.450000762939453,19.290000915527344,19.290000915527344,59100
2018-07-20,19.139999389648438,19.799999237060547,18.6299991607666,18.729999542236328,18.729999542236328,32700
2018-07-23,18.530000686645508,19.860000610351562,18.530000686645508,19.209999084472656,19.209999084472656,25200
2018-07-24,19.43000030517578,20.68000030517578,18.559999465942383,18.559999465942383,18.559999465942383,65100
2018-07-25,18.780000686645508,19.469999313354492,18.75,19.280000686645508,19.280000686645508,16900
2018-07-26,18.950000762939453,20.399999618530273,18.809999465942383,19.260000228881836,19.260000228881836,33600
2018-07-27,19.399999618530273,19.729999542236328,18.040000915527344,18.190000534057617,18.190000534057617,21100
2018-07-30,18.059999465942383,18.290000915527344,16.739999771118164,16.93000030517578,16.93000030517578,54900
2018-07-31,17.350000381469727,17.549999237060547,16.700000762939453,16.81999969482422,16.81999969482422,22600
2018-08-01,17.149999618530273,17.68000030517578,17.030000686645508,17.15999984741211,17.15999984741211,11400
2018-08-02,17.25,17.75,17.209999084472656,17.399999618530273,17.399999618530273,40200
2018-08-03,17.25,17.865999221801758,16.524999618530273,17.170000076293945,17.170000076293945,26000
2018-08-06,17.18000030517578,18.270000457763672,17.100000381469727,17.90999984741211,17.90999984741211,28200
2018-08-07,18.0,18.93000030517578,17.200000762939453,17.6200008392334,17.6200008392334,23600
2018-08-08,17.25,21.110000610351562,17.25,21.030000686645508,21.030000686645508,82800
2018-08-09,20.739999771118164,22.3799991607666,19.6299991607666,21.6200008392334,21.6200008392334,114700
2018-08-10,21.450000762939453,22.840999603271484,21.450000762939453,22.040000915527344,22.040000915527344,152800
2018-08-13,21.829999923706055,22.700000762939453,21.280000686645508,21.510000228881836,21.510000228881836,160900
2018-08-14,21.600000381469727,22.8799991607666,21.299999237060547,22.360000610351562,22.360000610351562,164200
2018-08-15,22.299999237060547,24.0,21.280000686645508,23.780000686645508,23.780000686645508,219800
2018-08-16,23.780000686645508,26.43000030517578,23.746000289916992,25.059999465942383,25.059999465942383,282100
2018-08-17,24.549999237060547,28.3799991607666,24.549999237060547,27.5,27.5,202600
2018-08-20,27.84000015258789,29.3799991607666,27.489999771118164,28.860000610351562,28.860000610351562,213500
2018-08-21,28.68000030517578,29.690000534057617,8.61299991607666,9.260000228881836,9.260000228881836,3300800
2018-08-22,11.699999809265137,13.25,9.5,11.829999923706055,11.829999923706055,6836100
2018-08-23,12.109999656677246,12.880000114440918,11.510000228881836,11.800000190734863,11.800000190734863,1569500
2018-08-24,11.59000015258789,11.729999542236328,11.0,11.149999618530273,11.149999618530273,397800
2018-08-27,11.300000190734863,11.470000267028809,10.5,10.699999809265137,10.699999809265137,316000
2018-08-28,10.729999542236328,11.350000381469727,10.199999809265137,11.3100004196167,11.3100004196167,192300
2018-08-29,11.229999542236328,11.319999694824219,10.800000190734863,11.050000190734863,11.050000190734863,139400
2018-08-30,11.180000305175781,11.300000190734863,10.329999923706055,10.529999732971191,10.529999732971191,187100
2018-08-31,10.550000190734863,10.720000267028809,10.26099967956543,10.59000015258789,10.59000015258789,57000
2018-09-04,10.631999969482422,11.300000190734863,10.579999923706055,11.079999923706055,11.079999923706055,116000
2018-09-05,11.180000305175781,11.289999961853027,10.564000129699707,10.84000015258789,10.84000015258789,110000
2018-09-06,10.800000190734863,11.02299976348877,10.579999923706055,10.579999923706055,10.579999923706055,40100
2018-09-07,10.640000343322754,10.869999885559082,10.621000289916992,10.680000305175781,10.680000305175781,39700
2018-09-10,10.75,11.789999961853027,10.600000381469727,11.369999885559082,11.369999885559082,117400
2018-09-11,11.479999542236328,12.1899995803833,11.0,11.109999656677246,11.109999656677246,218000
2018-09-12,11.25,11.354999542236328,10.75,11.09000015258789,11.09000015258789,105800
2018-09-13,11.079999923706055,11.600000381469727,11.079999923706055,11.3100004196167,11.3100004196167,84600
2018-09-14,11.390000343322754,11.63599967956543,11.314000129699707,11.569999694824219,11.569999694824219,90600
2018-09-17,13.319999694824219,13.699999809265137,9.859999656677246,10.220000267028809,10.220000267028809,1259700
2018-09-18,10.399999618530273,10.789999961853027,10.079999923706055,10.649999618530273,10.649999618530273,103000
2018-09-19,10.399999618530273,10.640000343322754,10.100000381469727,10.25,10.25,89500
2018-09-20,10.220000267028809,10.300000190734863,10.0,10.130000114440918,10.130000114440918,128600
2018-09-21,10.199999809265137,10.364999771118164,9.680000305175781,10.010000228881836,10.010000228881836,124400
2018-09-24,10.039999961853027,10.109999656677246,9.859999656677246,9.960000038146973,9.960000038146973,33600
2018-09-25,10.0,10.0,9.390000343322754,9.779999732971191,9.779999732971191,107400
2018-09-26,9.65999984741211,9.756999969482422,9.399999618530273,9.460000038146973,9.460000038146973,37700
2018-09-27,9.460000038146973,9.59000015258789,9.399999618530273,9.460000038146973,9.460000038146973,26800
2018-09-28,9.430000305175781,9.4399995803833,9.050000190734863,9.100000381469727,9.100000381469727,71100
2018-10-01,9.40999984741211,9.925000190734863,9.229999542236328,9.449999809265137,9.449999809265137,58400
2018-10-02,9.59000015258789,9.776000022888184,9.579999923706055,9.65999984741211,9.65999984741211,24200
2018-10-03,9.739999771118164,10.149999618530273,9.59000015258789,10.069999694824219,10.069999694824219,41600
2018-10-04,10.180000305175781,10.229999542236328,9.779999732971191,10.010000228881836,10.010000228881836,27800
2018-10-05,9.899999618530273,10.25,9.600000381469727,9.65999984741211,9.65999984741211,32200
2018-10-08,9.420000076293945,9.527000427246094,9.0600004196167,9.279999732971191,9.279999732971191,38700
2018-10-09,9.25,9.25,8.5,8.59000015258789,8.59000015258789,69000
2018-10-10,8.630000114440918,8.630000114440918,7.699999809265137,7.900000095367432,7.900000095367432,88900
2018-10-11,7.860000133514404,8.350000381469727,7.5,7.980000019073486,7.980000019073486,39100
2018-10-12,8.140000343322754,10.37600040435791,7.699999809265137,8.069999694824219,8.069999694824219,246900
2018-10-15,8.109999656677246,8.399999618530273,7.880000114440918,8.350000381469727,8.350000381469727,62500
2018-10-16,8.630000114440918,8.984999656677246,8.380000114440918,8.84000015258789,8.84000015258789,70500
2018-10-17,8.572999954223633,8.779999732971191,8.420000076293945,8.67300033569336,8.67300033569336,10600
2018-10-18,8.649999618530273,9.850000381469727,8.319999694824219,8.369999885559082,8.369999885559082,57500
2018-10-19,8.949000358581543,9.0,8.619999885559082,8.741999626159668,8.741999626159668,25700
2018-10-22,8.800000190734863,8.956000328063965,8.550000190734863,8.550000190734863,8.550000190734863,8700
2018-10-23,8.550000190734863,8.593000411987305,8.270000457763672,8.413999557495117,8.413999557495117,23400
2018-10-24,8.539999961853027,8.930000305175781,8.5,8.75,8.75,25700
2018-10-25,8.491999626159668,8.75,8.460000038146973,8.729999542236328,8.729999542236328,14300
2018-10-26,8.880000114440918,8.880000114440918,8.270000457763672,8.380000114440918,8.380000114440918,23000
2018-10-29,8.51200008392334,8.770000457763672,8.15999984741211,8.34000015258789,8.34000015258789,18700
2018-10-30,8.25,8.333000183105469,8.0,8.029999732971191,8.029999732971191,31000
2018-10-31,8.180000305175781,8.640000343322754,7.789999961853027,7.869999885559082,7.869999885559082,30200
2018-11-01,7.880000114440918,8.989999771118164,7.820000171661377,8.779999732971191,8.779999732971191,98600
2018-11-02,9.109999656677246,9.399999618530273,8.529999732971191,8.746000289916992,8.746000289916992,38000
2018-11-05,8.649999618530273,9.166000366210938,8.619999885559082,8.800000190734863,8.800000190734863,8300
2018-11-06,9.109999656677246,9.289999961853027,8.720000267028809,9.270000457763672,9.270000457763672,33000
2018-11-07,9.4399995803833,9.789999961853027,9.270000457763672,9.789999961853027,9.789999961853027,48500
2018-11-08,9.529999732971191,9.880000114440918,9.0600004196167,9.319999694824219,9.319999694824219,24500
2018-11-09,9.210000038146973,9.479999542236328,8.65999984741211,8.75,8.75,34500
2018-11-12,8.819999694824219,8.819999694824219,8.085000038146973,8.239999771118164,8.239999771118164,24500
2018-11-13,8.25,8.696000099182129,8.25,8.430000305175781,8.430000305175781,29700
2018-11-14,8.489999771118164,8.631999969482422,8.079999923706055,8.430000305175781,8.430000305175781,64700
2018-11-15,8.579999923706055,8.84000015258789,8.119999885559082,8.119999885559082,8.119999885559082,44700
2018-11-16,8.449999809265137,8.529999732971191,8.199999809265137,8.229999542236328,8.229999542236328,6600
2018-11-19,8.34000015258789,8.34000015258789,8.210000038146973,8.210000038146973,8.210000038146973,7200
2018-11-20,8.329999923706055,8.350000381469727,8.00100040435791,8.149999618530273,8.149999618530273,19600
2018-11-21,8.149999618530273,8.569999694824219,8.039999961853027,8.390000343322754,8.390000343322754,21000
2018-11-23,8.380000114440918,8.579999923706055,8.26099967956543,8.539999961853027,8.539999961853027,16100
2018-11-26,8.539999961853027,8.789999961853027,8.489999771118164,8.649999618530273,8.649999618530273,8200
2018-11-27,8.729999542236328,8.729999542236328,8.390000343322754,8.539999961853027,8.539999961853027,4600
2018-11-28,8.640000343322754,8.989999771118164,8.229999542236328,8.989999771118164,8.989999771118164,49200
2018-11-29,9.0,9.130000114440918,8.649999618530273,8.859999656677246,8.859999656677246,21100
2018-11-30,8.779999732971191,9.25,8.279999732971191,8.539999961853027,8.539999961853027,17900
2018-12-03,8.800000190734863,9.239999771118164,8.399999618530273,8.479999542236328,8.479999542236328,45900
2018-12-04,8.5,8.720000267028809,8.329999923706055,8.350000381469727,8.350000381469727,19500
2018-12-06,8.449999809265137,8.569999694824219,8.229999542236328,8.359999656677246,8.359999656677246,34000
2018-12-07,8.25,8.680000305175781,7.980000019073486,8.180000305175781,8.180000305175781,16900
2018-12-10,8.170000076293945,8.300000190734863,8.03499984741211,8.069999694824219,8.069999694824219,7400
2018-12-11,8.199999809265137,8.211000442504883,8.010000228881836,8.010000228881836,8.010000228881836,15400
2018-12-12,8.020000457763672,8.135000228881836,7.730000019073486,7.730000019073486,7.730000019073486,23500
2018-12-13,7.889999866485596,8.100000381469727,7.802000045776367,7.820000171661377,7.820000171661377,12000
2018-12-14,7.800000190734863,7.96999979019165,7.75,7.804999828338623,7.804999828338623,13800
2018-12-17,7.739999771118164,7.932000160217285,7.260000228881836,7.519999980926514,7.519999980926514,37100
2018-12-18,7.699999809265137,7.78000020980835,7.570000171661377,7.570000171661377,7.570000171661377,7600
2018-12-19,7.599999904632568,7.599999904632568,6.800000190734863,7.0,7.0,71500
2018-12-20,6.949999809265137,7.015999794006348,6.309999942779541,6.590000152587891,6.590000152587891,24800
2018-12-21,6.650000095367432,6.650000095367432,5.949999809265137,5.949999809265137,5.949999809265137,130500
2018-12-24,5.849999904632568,5.920000076293945,5.260000228881836,5.53000020980835,5.53000020980835,94700
2018-12-26,5.550000190734863,6.300000190734863,5.550000190734863,5.900000095367432,5.900000095367432,55800
2018-12-27,5.900000095367432,5.900000095367432,5.320000171661377,5.489999771118164,5.489999771118164,30400
2018-12-28,5.760000228881836,5.809999942779541,5.489999771118164,5.559999942779541,5.559999942779541,16300
2018-12-31,5.409999847412109,5.920000076293945,5.409999847412109,5.599999904632568,5.599999904632568,15000
2019-01-02,5.53000020980835,5.53000020980835,5.260000228881836,5.400000095367432,5.400000095367432,32200
2019-01-03,5.289999961853027,5.480000019073486,5.010000228881836,5.059999942779541,5.059999942779541,37000
2019-01-04,5.139999866485596,5.909999847412109,5.139999866485596,5.800000190734863,5.800000190734863,39900
2019-01-07,5.610000133514404,6.164000034332275,5.610000133514404,6.039999961853027,6.039999961853027,16100
2019-01-08,6.230000019073486,6.300000190734863,5.619999885559082,5.670000076293945,5.670000076293945,24400
2019-01-09,6.0,6.179999828338623,5.869999885559082,5.869999885559082,5.869999885559082,19300
2019-01-10,5.809999942779541,5.954999923706055,5.679999828338623,5.710000038146973,5.710000038146973,16100
2019-01-11,5.71999979019165,6.081999778747559,5.699999809265137,5.880000114440918,5.880000114440918,13400
2019-01-14,5.889999866485596,6.2129998207092285,5.889999866485596,6.079999923706055,6.079999923706055,7300
2019-01-15,6.079999923706055,6.360000133514404,6.060999870300293,6.079999923706055,6.079999923706055,2000
2019-01-16,6.190000057220459,6.190000057220459,5.920000076293945,6.0,6.0,8700
2019-01-17,5.949999809265137,6.465000152587891,5.869999885559082,6.369999885559082,6.369999885559082,15300
2019-01-18,6.460000038146973,6.482999801635742,5.880000114440918,5.920000076293945,5.920000076293945,17100
2019-01-22,6.150000095367432,6.269999980926514,5.900000095367432,6.269999980926514,6.269999980926514,3200
2019-01-23,6.179999828338623,6.179999828338623,6.110000133514404,6.110000133514404,6.110000133514404,400
2019-01-24,6.179999828338623,6.363999843597412,6.0,6.110000133514404,6.110000133514404,7500
2019-01-25,6.300000190734863,6.360000133514404,6.110000133514404,6.349999904632568,6.349999904632568,3700
2019-01-28,6.159999847412109,6.239999771118164,6.0,6.0,6.0,17100
2019-01-29,6.0,6.28000020980835,6.0,6.050000190734863,6.050000190734863,3300
2019-01-30,6.139999866485596,6.289999961853027,5.940000057220459,6.070000171661377,6.070000171661377,16000
2019-01-31,6.050000190734863,6.150000095367432,5.940000057220459,5.949999809265137,5.949999809265137,6900
2019-02-01,6.090000152587891,6.21999979019165,5.920000076293945,6.21999979019165,6.21999979019165,13500
2019-02-04,6.2779998779296875,6.28000020980835,6.03000020980835,6.039999961853027,6.039999961853027,11500
2019-02-05,6.090000152587891,6.090000152587891,5.931000232696533,6.019999980926514,6.019999980926514,10900
2019-02-06,6.019000053405762,6.239999771118164,6.019000053405762,6.170000076293945,6.170000076293945,12500
2019-02-07,6.185999870300293,6.185999870300293,6.0,6.139999866485596,6.139999866485596,3000
2019-02-08,6.070000171661377,6.25,6.019999980926514,6.070000171661377,6.070000171661377,10400
2019-02-11,6.159999847412109,6.38700008392334,6.159999847412109,6.340000152587891,6.340000152587891,14200
2019-02-12,6.5,7.0,6.309999942779541,6.5,6.5,74100
2019-02-13,6.539999961853027,6.949999809265137,6.239999771118164,6.480000019073486,6.480000019073486,7600
2019-02-14,6.323999881744385,6.323999881744385,6.323999881744385,6.323999881744385,6.323999881744385,1100
2019-02-15,6.2789998054504395,6.380000114440918,6.171000003814697,6.317999839782715,6.317999839782715,12100
2019-02-19,6.230000019073486,6.480000019073486,6.130000114440918,6.369999885559082,6.369999885559082,7600
2019-02-20,6.5,6.619999885559082,6.489999771118164,6.574999809265137,6.574999809265137,2700
2019-02-21,6.513999938964844,6.632999897003174,6.46999979019165,6.46999979019165,6.46999979019165,2400
2019-02-22,6.599999904632568,6.800000190734863,6.567999839782715,6.730000019073486,6.730000019073486,8900
2019-02-25,6.820000171661377,7.25,6.74399995803833,7.25,7.25,29700
2019-02-26,7.25,7.25,6.619999885559082,6.739999771118164,6.739999771118164,21000
2019-02-27,6.690000057220459,6.989999771118164,6.590000152587891,6.590000152587891,6.590000152587891,6100
2019-02-28,7.130000114440918,7.130000114440918,6.730000019073486,6.760000228881836,6.760000228881836,3200
2019-03-01,6.796000003814697,7.010000228881836,6.796000003814697,6.980000019073486,6.980000019073486,2100
2019-03-04,7.019999980926514,7.505000114440918,7.0,7.5,7.5,21000
2019-03-05,7.599999904632568,8.100000381469727,7.25,7.349999904632568,7.349999904632568,103600
2019-03-06,7.300000190734863,7.300000190734863,6.593999862670898,6.789999961853027,6.789999961853027,24600
2019-03-07,6.789999961853027,6.789999961853027,6.28000020980835,6.429999828338623,6.429999828338623,10000
2019-03-08,6.329999923706055,6.429999828338623,6.199999809265137,6.429999828338623,6.429999828338623,2100
2019-03-11,6.550000190734863,6.820000171661377,6.550000190734863,6.75,6.75,1600
2019-03-12,6.739999771118164,6.739999771118164,6.5,6.559999942779541,6.559999942779541,2000
2019-03-13,6.53000020980835,6.860000133514404,6.260000228881836,6.75,6.75,54800
2019-03-14,6.989999771118164,7.539999961853027,6.110000133514404,7.03000020980835,7.03000020980835,62300
2019-03-15,7.085000038146973,7.489999771118164,6.78000020980835,7.329999923706055,7.329999923706055,81700
2019-03-18,7.429999828338623,7.800000190734863,7.289999961853027,7.570000171661377,7.570000171661377,29600
2019-03-19,7.489999771118164,7.800000190734863,7.489999771118164,7.75,7.75,15900
2019-03-20,7.710000038146973,7.710000038146973,7.28000020980835,7.579999923706055,7.579999923706055,3400
2019-03-21,7.449999809265137,7.539999961853027,7.315999984741211,7.53000020980835,7.53000020980835,6100
2019-03-22,7.339000225067139,7.489999771118164,7.050000190734863,7.210000038146973,7.210000038146973,255400
2019-03-25,7.300000190734863,7.590000152587891,7.300000190734863,7.590000152587891,7.590000152587891,173600
2019-03-26,7.599999904632568,7.739999771118164,7.300000190734863,7.429999828338623,7.429999828338623,17700
2019-03-27,7.21999979019165,7.5,7.210000038146973,7.5,7.5,7100
2019-03-28,7.590000152587891,7.590000152587891,7.110000133514404,7.150000095367432,7.150000095367432,95700
2019-03-29,7.380000114440918,7.400000095367432,7.195000171661377,7.269999980926514,7.269999980926514,52700
2019-04-01,7.349999904632568,7.650000095367432,7.349999904632568,7.510000228881836,7.510000228881836,120400
2019-04-02,7.599999904632568,7.75,7.449999809265137,7.650000095367432,7.650000095367432,8400
2019-04-03,7.71999979019165,7.980000019073486,7.440000057220459,7.650000095367432,7.650000095367432,23000
2019-04-04,7.71999979019165,7.880000114440918,7.510000228881836,7.75,7.75,24800
2019-04-05,7.560999870300293,7.710000038146973,7.46999979019165,7.650000095367432,7.650000095367432,35300
2019-04-08,7.53000020980835,7.650000095367432,7.380000114440918,7.619999885559082,7.619999885559082,88000
2019-04-09,7.519999980926514,7.75,7.440000057220459,7.75,7.75,37400
2019-04-10,7.840000152587891,7.840000152587891,7.5,7.639999866485596,7.639999866485596,128600
2019-04-11,7.4730000495910645,7.840000152587891,7.4730000495910645,7.739999771118164,7.739999771118164,10600
2019-04-12,7.791999816894531,7.791999816894531,7.610000133514404,7.730000019073486,7.730000019073486,7700
2019-04-15,7.71999979019165,7.71999979019165,7.599999904632568,7.699999809265137,7.699999809265137,5800
2019-04-16,7.769999980926514,7.769999980926514,7.639999866485596,7.679999828338623,7.679999828338623,4300
2019-04-17,7.650000095367432,7.690000057220459,7.230000019073486,7.650000095367432,7.650000095367432,11600
2019-04-18,7.110000133514404,7.679999828338623,7.110000133514404,7.610000133514404,7.610000133514404,15800
2019-04-22,7.03000020980835,7.880000114440918,7.03000020980835,7.800000190734863,7.800000190734863,93800
2019-04-23,7.650000095367432,8.020000457763672,7.642000198364258,7.869999885559082,7.869999885559082,63700
2019-04-24,7.820000171661377,7.960000038146973,7.809999942779541,7.900000095367432,7.900000095367432,10900
2019-04-25,7.900000095367432,8.029999732971191,7.889999866485596,8.010000228881836,8.010000228881836,15000
2019-04-26,8.010000228881836,8.300000190734863,8.010000228881836,8.130000114440918,8.130000114440918,5200
2019-04-29,8.100000381469727,8.289999961853027,8.100000381469727,8.270000457763672,8.270000457763672,4900
2019-04-30,8.300000190734863,9.100000381469727,7.480000019073486,7.619999885559082,7.619999885559082,172600
2019-05-01,7.745999813079834,7.820000171661377,7.639999866485596,7.800000190734863,7.800000190734863,15000
2019-05-02,7.613999843597412,7.71999979019165,7.355000019073486,7.389999866485596,7.389999866485596,31900
2019-05-03,7.300000190734863,7.579999923706055,7.300000190734863,7.570000171661377,7.570000171661377,13600
2019-05-06,7.369999885559082,7.389999866485596,7.081999778747559,7.389999866485596,7.389999866485596,34200
2019-05-07,7.400000095367432,7.739999771118164,7.320000171661377,7.570000171661377,7.570000171661377,525300
2019-05-08,7.659999847412109,7.820000171661377,7.610000133514404,7.619999885559082,7.619999885559082,13700
2019-05-09,7.519999980926514,7.699999809265137,7.441999912261963,7.659999847412109,7.659999847412109,49100
2019-05-10,7.7179999351501465,7.7179999351501465,7.510000228881836,7.559999942779541,7.559999942779541,4200
2019-05-13,7.409999847412109,7.513000011444092,7.203000068664551,7.429999828338623,7.429999828338623,10900
2019-05-14,7.449999809265137,7.449999809265137,7.199999809265137,7.199999809265137,7.199999809265137,7200
2019-05-15,7.184000015258789,7.184000015258789,6.730000019073486,6.788000106811523,6.788000106811523,70000
2019-05-16,6.78000020980835,6.78000020980835,6.090000152587891,6.5929999351501465,6.5929999351501465,81300
2019-05-17,6.504000186920166,6.590000152587891,6.039999961853027,6.25,6.25,22300
2019-05-20,6.230999946594238,6.340000152587891,6.230999946594238,6.289999961853027,6.289999961853027,15000
2019-05-21,6.329999923706055,6.36899995803833,6.309000015258789,6.36899995803833,6.36899995803833,2200
2019-05-22,6.300000190734863,6.449999809265137,6.290999889373779,6.449999809265137,6.449999809265137,1200
2019-05-23,6.309999942779541,6.340000152587891,6.25,6.309999942779541,6.309999942779541,3800
2019-05-24,6.300000190734863,6.300000190734863,6.25,6.300000190734863,6.300000190734863,900
2019-05-28,6.300000190734863,6.3429999351501465,6.230999946594238,6.269999980926514,6.269999980926514,4100
2019-05-29,6.25,6.269999980926514,6.0,6.0,6.0,109200
2019-05-30,6.050000190734863,6.139999866485596,5.900000095367432,5.900000095367432,5.900000095367432,61000
2019-05-31,5.8520002365112305,5.880000114440918,5.710000038146973,5.730000019073486,5.730000019073486,17500
2019-06-03,5.760000228881836,5.829999923706055,5.5,5.565000057220459,5.565000057220459,7700
2019-06-04,5.53000020980835,5.71999979019165,5.329999923706055,5.502999782562256,5.502999782562256,26300
2019-06-05,5.460000038146973,5.51200008392334,5.179999828338623,5.179999828338623,5.179999828338623,18900
2019-06-06,5.309000015258789,5.349999904632568,5.21999979019165,5.260000228881836,5.260000228881836,3900
2019-06-07,5.539999961853027,5.539999961853027,5.269999980926514,5.269999980926514,5.269999980926514,200
2019-06-10,5.380000114440918,5.449999809265137,5.159999847412109,5.179999828338623,5.179999828338623,4800
2019-06-11,5.216000080108643,5.216000080108643,5.216000080108643,5.216000080108643,5.216000080108643,500
2019-06-12,5.261000156402588,5.261000156402588,5.176000118255615,5.238999843597412,5.238999843597412,1000
2019-06-13,5.176000118255615,5.230000019073486,5.176000118255615,5.190999984741211,5.190999984741211,1400
2019-06-14,5.28000020980835,5.28000020980835,5.28000020980835,5.28000020980835,5.28000020980835,1100
2019-06-17,5.176000118255615,5.176000118255615,5.176000118255615,5.176000118255615,5.176000118255615,500
2019-06-18,5.25,5.25,5.159999847412109,5.25,5.25,3400
2019-06-19,5.295000076293945,5.440000057220459,5.289999961853027,5.400000095367432,5.400000095367432,6000
2019-06-20,5.409999847412109,5.409999847412109,5.409999847412109,5.409999847412109,5.409999847412109,800
2019-06-21,5.570000171661377,5.570000171661377,5.400000095367432,5.409999847412109,5.409999847412109,5500
2019-06-24,5.460000038146973,5.699999809265137,5.369999885559082,5.489999771118164,5.489999771118164,4100
2019-06-25,5.650000095367432,5.650000095367432,5.320000171661377,5.599999904632568,5.599999904632568,2700
2019-06-26,5.400000095367432,5.550000190734863,5.400000095367432,5.485000133514404,5.485000133514404,500
2019-06-27,5.550000190734863,5.590000152587891,5.440000057220459,5.583000183105469,5.583000183105469,12600
2019-06-28,5.4730000495910645,5.550000190734863,5.25,5.5,5.5,7200
2019-07-01,5.618000030517578,5.7270002365112305,5.590000152587891,5.71999979019165,5.71999979019165,5400
2019-07-02,5.619999885559082,5.789999961853027,5.559999942779541,5.7769999504089355,5.7769999504089355,56000
2019-07-03,5.519999980926514,5.679999828338623,5.510000228881836,5.679999828338623,5.679999828338623,1000
2019-07-05,5.539999961853027,5.684999942779541,5.389999866485596,5.400000095367432,5.400000095367432,5500
2019-07-08,5.285999774932861,5.440000057220459,5.269999980926514,5.380000114440918,5.380000114440918,1200
2019-07-09,5.369999885559082,5.429999828338623,5.369999885559082,5.420000076293945,5.420000076293945,1000
2019-07-10,5.380000114440918,6.119999885559082,5.26200008392334,5.75,5.75,114600
2019-07-11,5.559999942779541,6.159999847412109,5.559999942779541,5.900000095367432,5.900000095367432,29500
2019-07-12,5.849999904632568,6.480000019073486,5.630000114440918,6.340000152587891,6.340000152587891,216600
2019-07-15,6.409999847412109,6.409999847412109,6.170000076293945,6.389999866485596,6.389999866485596,14900
2019-07-16,6.210000038146973,6.210000038146973,6.119999885559082,6.119999885559082,6.119999885559082,700
2019-07-17,6.110000133514404,6.400000095367432,5.820000171661377,6.230000019073486,6.230000019073486,4900
2019-07-18,6.190000057220459,6.230000019073486,5.888999938964844,6.159999847412109,6.159999847412109,3600
2019-07-19,6.019999980926514,6.110000133514404,6.010000228881836,6.070000171661377,6.070000171661377,4400
2019-07-22,6.0,6.039999961853027,5.860000133514404,6.0,6.0,4500
2019-07-23,6.0,6.099999904632568,5.889999866485596,6.050000190734863,6.050000190734863,21100
2019-07-24,6.03000020980835,6.070000171661377,5.985000133514404,6.039999961853027,6.039999961853027,29500
2019-07-25,6.159999847412109,6.159999847412109,6.0,6.050000190734863,6.050000190734863,2400
2019-07-26,6.010000228881836,6.025000095367432,5.889999866485596,5.894999980926514,5.894999980926514,1100
2019-07-29,5.960000038146973,5.960000038146973,5.599999904632568,5.599999904632568,5.599999904632568,7300
2019-07-30,5.639999866485596,5.900000095367432,5.639999866485596,5.860000133514404,5.860000133514404,2000
2019-07-31,5.900000095367432,5.900000095367432,5.824999809265137,5.824999809265137,5.824999809265137,300
2019-08-01,5.550000190734863,5.550000190734863,5.550000190734863,5.550000190734863,5.550000190734863,100
2019-08-02,5.376999855041504,5.559999942779541,5.376999855041504,5.559999942779541,5.559999942779541,1100
2019-08-05,5.550000190734863,5.900000095367432,5.550000190734863,5.65500020980835,5.65500020980835,6700
2019-08-06,5.440000057220459,5.579999923706055,5.440000057220459,5.579999923706055,5.579999923706055,200
2019-08-07,5.400000095367432,5.579999923706055,5.400000095367432,5.570000171661377,5.570000171661377,600
2019-08-08,5.604000091552734,5.639999866485596,5.603000164031982,5.639999866485596,5.639999866485596,900
2019-08-09,5.604000091552734,5.639999866485596,5.603000164031982,5.639999866485596,5.639999866485596,300
2019-08-12,5.604000091552734,5.639999866485596,5.603000164031982,5.639999866485596,5.639999866485596,100
2019-08-13,5.869999885559082,6.949999809265137,5.869999885559082,6.900000095367432,6.900000095367432,17500
2019-08-14,5.760000228881836,6.420000076293945,5.760000228881836,6.400000095367432,6.400000095367432,3600
2019-08-15,6.349999904632568,6.349999904632568,5.900000095367432,6.0960001945495605,6.0960001945495605,800
2019-08-16,6.03000020980835,6.03000020980835,6.03000020980835,6.03000020980835,6.03000020980835,800
2019-08-19,6.03000020980835,6.449999809265137,6.03000020980835,6.300000190734863,6.300000190734863,9200
2019-08-20,6.331999778747559,6.331999778747559,6.300000190734863,6.330999851226807,6.330999851226807,600
2019-08-21,6.400000095367432,6.449999809265137,6.400000095367432,6.420000076293945,6.420000076293945,6100
2019-08-22,6.289999961853027,6.400000095367432,6.289999961853027,6.400000095367432,6.400000095367432,4600
2019-08-23,6.21999979019165,6.349999904632568,6.21999979019165,6.349999904632568,6.349999904632568,4500
2019-08-26,5.947000026702881,6.199999809265137,5.947000026702881,6.099999904632568,6.099999904632568,2100
2019-08-27,6.0,6.260000228881836,6.0,6.199999809265137,6.199999809265137,4400
2019-08-28,6.2769999504089355,6.349999904632568,6.079999923706055,6.340000152587891,6.340000152587891,3300
2019-08-29,6.300000190734863,6.300000190734863,6.0,6.199999809265137,6.199999809265137,3100
2019-08-30,6.019999980926514,6.070000171661377,5.929999828338623,6.070000171661377,6.070000171661377,800
2019-09-03,5.920000076293945,6.199999809265137,5.920000076293945,6.199999809265137,6.199999809265137,2000
2019-09-04,6.2230000495910645,6.2230000495910645,5.64900016784668,6.070000171661377,6.070000171661377,4400
2019-09-05,5.96999979019165,6.150000095367432,5.96999979019165,6.079999923706055,6.079999923706055,1700
2019-09-06,6.079999923706055,6.079999923706055,6.079999923706055,6.079999923706055,6.079999923706055,0
2019-09-09,6.150000095367432,6.150000095367432,5.900000095367432,6.130000114440918,6.130000114440918,2100
2019-09-10,6.021999835968018,6.420000076293945,6.021999835968018,6.275000095367432,6.275000095367432,1900
2019-09-11,6.235000133514404,6.289999961853027,6.235000133514404,6.289999961853027,6.289999961853027,1400
2019-09-12,6.449999809265137,6.449999809265137,6.224999904632568,6.224999904632568,6.224999904632568,300
2019-09-13,6.110000133514404,6.110000133514404,6.0,6.0,6.0,2200
2019-09-16,6.002999782562256,6.269999980926514,6.002999782562256,6.269999980926514,6.269999980926514,500
2019-09-17,6.039999961853027,6.255000114440918,6.03000020980835,6.199999809265137,6.199999809265137,1900
2019-09-18,6.03000020980835,6.179999828338623,6.0,6.179999828338623,6.179999828338623,5400
2019-09-19,6.179999828338623,6.21999979019165,6.179999828338623,6.21999979019165,6.21999979019165,300
2019-09-20,6.269999980926514,6.360000133514404,6.079999923706055,6.320000171661377,6.320000171661377,1300
2019-09-23,6.110000133514404,6.170000076293945,6.110000133514404,6.170000076293945,6.170000076293945,1200
2019-09-24,6.199999809265137,6.329999923706055,6.170000076293945,6.329999923706055,6.329999923706055,600
2019-09-25,6.329999923706055,6.329999923706055,6.329999923706055,6.329999923706055,6.329999923706055,300
2019-09-26,6.320000171661377,6.340000152587891,6.269999980926514,6.269999980926514,6.269999980926514,1100
2019-09-27,6.320000171661377,6.449999809265137,6.271999835968018,6.271999835968018,6.271999835968018,2400
2019-09-30,6.271999835968018,6.271999835968018,6.271999835968018,6.271999835968018,6.271999835968018,100
2019-10-01,6.210000038146973,6.295000076293945,6.150000095367432,6.175000190734863,6.175000190734863,4000
2019-10-02,6.169000148773193,6.169000148773193,6.139999866485596,6.139999866485596,6.139999866485596,1000
2019-10-03,6.076000213623047,6.076000213623047,6.076000213623047,6.076000213623047,6.076000213623047,200
2019-10-04,6.0229997634887695,6.139999866485596,6.0229997634887695,6.110000133514404,6.110000133514404,1500
2019-10-07,6.039999961853027,6.269999980926514,6.039999961853027,6.239999771118164,6.239999771118164,1700
2019-10-08,6.239999771118164,6.239999771118164,6.079999923706055,6.090000152587891,6.090000152587891,700
2019-10-09,6.199999809265137,6.199999809265137,6.0,6.199999809265137,6.199999809265137,3900
2019-10-10,6.099999904632568,6.380000114440918,6.050000190734863,6.380000114440918,6.380000114440918,19100
2019-10-11,6.360000133514404,6.440000057220459,6.283999919891357,6.283999919891357,6.283999919891357,900
2019-10-14,6.179999828338623,6.21999979019165,6.150000095367432,6.21999979019165,6.21999979019165,1300
2019-10-15,6.349999904632568,6.420000076293945,6.230000019073486,6.25,6.25,1900
2019-10-16,6.171999931335449,6.25,6.171999931335449,6.21999979019165,6.21999979019165,7100
2019-10-17,6.329999923706055,6.329999923706055,6.179999828338623,6.267000198364258,6.267000198364258,700
2019-10-18,6.179999828338623,6.260000228881836,6.179999828338623,6.260000228881836,6.260000228881836,700
2019-10-21,6.260000228881836,6.260000228881836,6.260000228881836,6.260000228881836,6.260000228881836,0
2019-10-22,6.260000228881836,6.420000076293945,6.199999809265137,6.295000076293945,6.295000076293945,84800
2019-10-23,6.324999809265137,6.324999809265137,6.324999809265137,6.324999809265137,6.324999809265137,200
2019-10-24,6.322999954223633,6.349999904632568,6.300000190734863,6.349999904632568,6.349999904632568,700
2019-10-25,6.429999828338623,6.429999828338623,6.429999828338623,6.429999828338623,6.429999828338623,1200
2019-10-28,6.400000095367432,6.449999809265137,6.380000114440918,6.440000057220459,6.440000057220459,5700
2019-10-29,6.420000076293945,6.449999809265137,6.230999946594238,6.449999809265137,6.449999809265137,3900
2019-10-30,6.300000190734863,6.34499979019165,6.260000228881836,6.321000099182129,6.321000099182129,3600
2019-10-31,6.440000057220459,6.440000057220459,6.28000020980835,6.28000020980835,6.28000020980835,1700
2019-11-01,6.264999866485596,6.283999919891357,6.264999866485596,6.283999919891357,6.283999919891357,1100
2019-11-04,6.269999980926514,6.449999809265137,6.269999980926514,6.340000152587891,6.340000152587891,3100
2019-11-05,6.300000190734863,6.300000190734863,6.224999904632568,6.260000228881836,6.260000228881836,2500
2019-11-06,6.260000228881836,6.260000228881836,6.260000228881836,6.260000228881836,6.260000228881836,100
2019-11-07,6.230000019073486,6.230000019073486,6.159999847412109,6.190000057220459,6.190000057220459,2000
2019-11-08,6.002999782562256,6.050000190734863,5.880000114440918,5.880000114440918,5.880000114440918,6500
2019-11-11,5.934999942779541,5.934999942779541,5.934999942779541,5.934999942779541,5.934999942779541,300
2019-11-12,5.820000171661377,5.997000217437744,5.789999961853027,5.989999771118164,5.989999771118164,2900
2019-11-13,5.900000095367432,5.960999965667725,5.86299991607666,5.86299991607666,5.86299991607666,1300
2019-11-14,5.85699987411499,6.0,5.800000190734863,5.989999771118164,5.989999771118164,1000
2019-11-15,5.829999923706055,5.840000152587891,5.800000190734863,5.833000183105469,5.833000183105469,1200
2019-11-18,5.793000221252441,5.820000171661377,5.789999961853027,5.789999961853027,5.789999961853027,2100
2019-11-19,5.980000019073486,5.980000019073486,5.980000019073486,5.980000019073486,5.980000019073486,1300
2019-11-20,5.940000057220459,5.949999809265137,5.820000171661377,5.820000171661377,5.820000171661377,8800
2019-11-21,5.855999946594238,5.855999946594238,5.630000114440918,5.630000114440918,5.630000114440918,1300
2019-11-22,5.829999923706055,5.829999923706055,5.78000020980835,5.78000020980835,5.78000020980835,200
2019-11-25,5.980000019073486,5.980000019073486,5.949999809265137,5.949999809265137,5.949999809265137,800
2019-11-26,5.849999904632568,5.885000228881836,5.599999904632568,5.699999809265137,5.699999809265137,3600
2019-11-27,5.670000076293945,5.78000020980835,5.619999885559082,5.619999885559082,5.619999885559082,1900
2019-11-29,5.619999885559082,5.619999885559082,5.619999885559082,5.619999885559082,5.619999885559082,0
2019-12-02,5.519999980926514,5.747000217437744,5.400000095367432,5.400000095367432,5.400000095367432,21400
2019-12-03,5.389999866485596,5.519999980926514,5.050000190734863,5.199999809265137,5.199999809265137,5300
2019-12-04,5.389999866485596,5.389999866485596,4.75,4.831999778747559,4.831999778747559,41900
2019-12-05,4.800000190734863,4.800000190734863,3.6600000858306885,3.859999895095825,3.859999895095825,55900
2019-12-06,3.859999895095825,4.150000095367432,3.859999895095825,4.041999816894531,4.041999816894531,17000
2019-12-09,4.110000133514404,4.380000114440918,4.110000133514404,4.25,4.25,11700
2019-12-10,4.25,4.386000156402588,4.114999771118164,4.355999946594238,4.355999946594238,4700
2019-12-11,4.136000156402588,4.215000152587891,4.136000156402588,4.150000095367432,4.150000095367432,2200
2019-12-12,4.01800012588501,4.300000190734863,4.0,4.204999923706055,4.204999923706055,4700
2019-12-13,4.210000038146973,4.210000038146973,3.75,4.098999977111816,4.098999977111816,11900
2019-12-16,4.179999828338623,5.400000095367432,4.179999828338623,4.369999885559082,4.369999885559082,33700
2019-12-17,4.392000198364258,4.4019999504089355,4.309999942779541,4.309999942779541,4.309999942779541,13200
2019-12-18,4.309999942779541,4.309999942779541,4.309999942779541,4.309999942779541,4.309999942779541,0
2019-12-19,4.0289998054504395,4.150000095367432,4.0289998054504395,4.145999908447266,4.145999908447266,3700
2019-12-20,3.996000051498413,4.070000171661377,3.996000051498413,4.070000171661377,4.070000171661377,9300
2019-12-23,3.990000009536743,3.990000009536743,3.0,3.369999885559082,3.369999885559082,47400
2019-12-24,3.490000009536743,3.5899999141693115,3.380000114440918,3.380000114440918,3.380000114440918,18700
2019-12-26,3.486999988555908,3.486999988555908,3.3550000190734863,3.440000057220459,3.440000057220459,7400
2019-12-27,3.3559999465942383,3.4000000953674316,3.299999952316284,3.4000000953674316,3.4000000953674316,8600
2019-12-30,3.4100000858306885,3.427000045776367,3.200000047683716,3.2249999046325684,3.2249999046325684,12300
2019-12-31,3.180000066757202,3.3410000801086426,3.049999952316284,3.0999999046325684,3.0999999046325684,4200
2020-01-02,3.190000057220459,3.3399999141693115,3.13100004196167,3.13100004196167,3.13100004196167,5900
2020-01-03,3.240000009536743,3.240000009536743,3.131999969482422,3.1740000247955322,3.1740000247955322,1900
2020-01-06,3.1700000762939453,3.2269999980926514,3.1700000762939453,3.2269999980926514,3.2269999980926514,2000
2020-01-07,3.359999895095825,3.380000114440918,3.180000066757202,3.319999933242798,3.319999933242798,29600
2020-01-08,3.3499999046325684,5.099999904632568,3.3499999046325684,3.8959999084472656,3.8959999084472656,873500
2020-01-09,3.680000066757202,3.8499999046325684,3.5,3.819999933242798,3.819999933242798,73700
2020-01-10,3.9570000171661377,4.25,3.8299999237060547,4.099999904632568,4.099999904632568,37800
2020-01-13,4.010000228881836,4.110000133514404,3.930000066757202,3.930000066757202,3.930000066757202,21100
2020-01-14,3.890000104904175,3.9800000190734863,3.880000114440918,3.880000114440918,3.880000114440918,12300
2020-01-15,3.8499999046325684,4.110000133514404,3.8499999046325684,3.9800000190734863,3.9800000190734863,11600
2020-01-16,4.043000221252441,4.25,4.03000020980835,4.144000053405762,4.144000053405762,13500
2020-01-17,4.050000190734863,4.289999961853027,4.0,4.050000190734863,4.050000190734863,16700
2020-01-21,4.139999866485596,4.210000038146973,3.859999895095825,4.010000228881836,4.010000228881836,16900
2020-01-22,3.9200000762939453,4.190000057220459,3.9200000762939453,4.159999847412109,4.159999847412109,1400
2020-01-23,4.159999847412109,4.159999847412109,4.159999847412109,4.159999847412109,4.159999847412109,0
2020-01-24,3.9119999408721924,4.179999828338623,3.9100000858306885,3.934999942779541,3.934999942779541,3900
2020-01-27,3.8499999046325684,3.937999963760376,3.640000104904175,3.880000114440918,3.880000114440918,308800
2020-01-28,3.990000009536743,4.0,3.7899999618530273,3.815000057220459,3.815000057220459,231200
2020-01-29,3.9000000953674316,3.9000000953674316,3.690000057220459,3.7899999618530273,3.7899999618530273,8400
2020-01-30,3.805000066757202,3.9800000190734863,3.619999885559082,3.7300000190734863,3.7300000190734863,2200
2020-01-31,3.890000104904175,3.890000104904175,3.569999933242798,3.7899999618530273,3.7899999618530273,9000
2020-02-03,3.5199999809265137,3.680000066757202,3.5199999809265137,3.5899999141693115,3.5899999141693115,24400
2020-02-04,3.759999990463257,3.7899999618530273,3.6500000953674316,3.700000047683716,3.700000047683716,5500
2020-02-05,3.5999999046325684,3.6600000858306885,3.509999990463257,3.559999942779541,3.559999942779541,10200
2020-02-06,3.609999895095825,3.680000066757202,3.5799999237060547,3.640000104904175,3.640000104904175,3200
2020-02-07,3.6500000953674316,3.700000047683716,3.609999895095825,3.700000047683716,3.700000047683716,2400
2020-02-10,3.700000047683716,3.700000047683716,3.700000047683716,3.700000047683716,3.700000047683716,0
2020-02-11,3.700000047683716,3.700000047683716,3.700000047683716,3.700000047683716,3.700000047683716,0
2020-02-12,3.5799999237060547,3.880000114440918,3.5309998989105225,3.7799999713897705,3.7799999713897705,8800
2020-02-13,3.5899999141693115,3.7809998989105225,3.5899999141693115,3.7699999809265137,3.7699999809265137,6500
2020-02-14,3.5829999446868896,3.75,3.5829999446868896,3.690000057220459,3.690000057220459,2100
2020-02-18,3.5999999046325684,3.5999999046325684,3.5299999713897705,3.569999933242798,3.569999933242798,4600
2020-02-19,3.5439999103546143,3.6700000762939453,3.5299999713897705,3.6700000762939453,3.6700000762939453,2700
2020-02-20,3.6740000247955322,3.6740000247955322,3.609999895095825,3.6700000762939453,3.6700000762939453,2100
2020-02-21,3.5999999046325684,3.630000114440918,3.5799999237060547,3.630000114440918,3.630000114440918,2500
2020-02-24,3.5299999713897705,3.680000066757202,3.5299999713897705,3.6700000762939453,3.6700000762939453,5400
2020-02-25,3.552999973297119,3.619999885559082,3.552999973297119,3.5799999237060547,3.5799999237060547,1400
2020-02-26,3.640000104904175,3.640000104904175,3.5299999713897705,3.5299999713897705,3.5299999713897705,2000
2020-02-27,3.5299999713897705,3.5999999046325684,3.299999952316284,3.380000114440918,3.380000114440918,16400
2020-02-28,3.4200000762939453,3.450000047683716,3.2669999599456787,3.2909998893737793,3.2909998893737793,13400
2020-03-02,3.4000000953674316,3.4000000953674316,3.0299999713897705,3.069999933242798,3.069999933242798,9400
2020-03-03,3.1010000705718994,3.130000114440918,3.002000093460083,3.002000093460083,3.002000093460083,4000
2020-03-04,2.950000047683716,3.1519999504089355,2.950000047683716,3.1519999504089355,3.1519999504089355,14900
2020-03-05,3.117000102996826,3.121000051498413,3.109999895095825,3.121000051498413,3.121000051498413,400
2020-03-06,2.9700000286102295,2.9700000286102295,2.0999999046325684,2.0999999046325684,2.0999999046325684,48400
2020-03-09,2.2799999713897705,2.506999969482422,2.240000009536743,2.3299999237060547,2.3299999237060547,11600
2020-03-10,2.359999895095825,2.359999895095825,2.3499999046325684,2.3499999046325684,2.3499999046325684,4400
2020-03-11,2.2699999809265137,2.2699999809265137,2.174999952316284,2.200000047683716,2.200000047683716,24600
2020-03-12,2.0799999237060547,2.1080000400543213,2.0799999237060547,2.1080000400543213,2.1080000400543213,1300
2020-03-13,2.0799999237060547,2.2200000286102295,2.059999942779541,2.2100000381469727,2.2100000381469727,7800
2020-03-16,2.059999942779541,2.369999885559082,2.059999942779541,2.25,2.25,15300
2020-03-17,2.2899999618530273,2.2899999618530273,2.0799999237060547,2.200000047683716,2.200000047683716,13300
2020-03-18,2.2200000286102295,2.2660000324249268,2.059999942779541,2.059999942779541,2.059999942779541,4700
2020-03-19,2.059999942779541,2.0920000076293945,2.0,2.0,2.0,4100
2020-03-20,1.9700000286102295,1.9700000286102295,1.8650000095367432,1.8650000095367432,1.8650000095367432,3600
2020-03-23,1.840000033378601,1.8700000047683716,1.350000023841858,1.399999976158142,1.399999976158142,18300
2020-03-24,1.3200000524520874,1.9900000095367432,1.3200000524520874,1.8049999475479126,1.8049999475479126,34300
2020-03-25,1.899999976158142,2.1500000953674316,1.746000051498413,1.875,1.875,13200
2020-03-26,1.909999966621399,2.3399999141693115,1.909999966621399,2.1700000762939453,2.1700000762939453,17500
2020-03-27,2.200000047683716,2.25,2.0999999046325684,2.1459999084472656,2.1459999084472656,2100
2020-03-30,2.190000057220459,2.240000009536743,2.125999927520752,2.240000009536743,2.240000009536743,1100
2020-03-31,2.1500000953674316,3.0799999237060547,2.1500000953674316,2.180000066757202,2.180000066757202,38700
2020-04-01,2.2300000190734863,2.240999937057495,2.0,2.0,2.0,3500
2020-04-02,2.200000047683716,2.200000047683716,2.200000047683716,2.200000047683716,2.200000047683716,700
2020-04-03,2.2200000286102295,2.4149999618530273,2.0999999046325684,2.0999999046325684,2.0999999046325684,3800
2020-04-06,2.119999885559082,2.2899999618530273,2.119999885559082,2.2899999618530273,2.2899999618530273,3700
2020-04-07,2.440000057220459,2.4700000286102295,2.180000066757202,2.3499999046325684,2.3499999046325684,3700
2020-04-08,2.2899999618530273,2.2899999618530273,2.2699999809265137,2.2699999809265137,2.2699999809265137,500
2020-04-09,2.187999963760376,2.303999900817871,2.1610000133514404,2.303999900817871,2.303999900817871,1100
2020-04-13,2.309999942779541,2.309999942779541,2.1500000953674316,2.1659998893737793,2.1659998893737793,1000
2020-04-14,2.180000066757202,2.5950000286102295,2.180000066757202,2.190000057220459,2.190000057220459,28100
2020-04-15,2.2100000381469727,2.3399999141693115,2.187000036239624,2.3399999141693115,2.3399999141693115,3100
2020-04-16,2.3399999141693115,2.3399999141693115,2.3399999141693115,2.3399999141693115,2.3399999141693115,400
2020-04-17,2.3399999141693115,2.3399999141693115,2.3399999141693115,2.3399999141693115,2.3399999141693115,0
2020-04-20,2.4000000953674316,2.4000000953674316,2.303999900817871,2.303999900817871,2.303999900817871,3300
2020-04-21,2.430000066757202,2.430000066757202,2.3580000400543213,2.4000000953674316,2.4000000953674316,4500
2020-04-22,2.5339999198913574,2.559999942779541,2.5299999713897705,2.549999952316284,2.549999952316284,1900
2020-04-23,2.319999933242798,2.430000066757202,2.319999933242798,2.390000104904175,2.390000104904175,3300
2020-04-24,2.390000104904175,2.390000104904175,2.2699999809265137,2.2709999084472656,2.2709999084472656,3200
2020-04-27,2.2799999713897705,2.2799999713897705,2.200000047683716,2.2699999809265137,2.2699999809265137,4300
2020-04-28,2.1600000858306885,2.1600000858306885,2.1600000858306885,2.1600000858306885,2.1600000858306885,600
2020-04-29,2.257999897003174,2.257999897003174,2.257999897003174,2.257999897003174,2.257999897003174,800
2020-04-30,2.380000114440918,2.380000114440918,2.3299999237060547,2.3499999046325684,2.3499999046325684,2200
2020-05-01,2.2200000286102295,2.2200000286102295,2.2200000286102295,2.2200000286102295,2.2200000286102295,200
2020-05-04,2.140000104904175,2.2170000076293945,2.140000104904175,2.2100000381469727,2.2100000381469727,5000
2020-05-05,2.3399999141693115,2.3399999141693115,2.2799999713897705,2.2799999713897705,2.2799999713897705,1800
2020-05-06,2.2200000286102295,2.2699999809265137,2.2100000381469727,2.2699999809265137,2.2699999809265137,2800
2020-05-07,2.2769999504089355,2.2769999504089355,2.2300000190734863,2.2300000190734863,2.2300000190734863,1100
2020-05-08,2.2799999713897705,2.2799999713897705,2.140000104904175,2.2109999656677246,2.2109999656677246,7700
2020-05-11,2.1500000953674316,2.1600000858306885,2.119999885559082,2.119999885559082,2.119999885559082,3300
2020-05-12,2.7899999618530273,2.7899999618530273,2.4600000381469727,2.5429999828338623,2.5429999828338623,27100
2020-05-13,2.5799999237060547,2.690000057220459,2.549999952316284,2.549999952316284,2.549999952316284,3900
2020-05-14,2.5299999713897705,2.559999942779541,2.4100000858306885,2.559999942779541,2.559999942779541,9100
2020-05-15,2.6700000762939453,2.6700000762939453,2.4660000801086426,2.4660000801086426,2.4660000801086426,3200
2020-05-18,2.4700000286102295,2.5139999389648438,2.4700000286102295,2.5,2.5,5200
2020-05-19,2.6500000953674316,2.700000047683716,2.635999917984009,2.700000047683716,2.700000047683716,600
2020-05-20,2.5199999809265137,2.5899999141693115,2.5199999809265137,2.549999952316284,2.549999952316284,1200
2020-05-21,2.5199999809265137,2.625,2.5199999809265137,2.5899999141693115,2.5899999141693115,4100
2020-05-22,2.559999942779541,2.5999999046325684,2.5299999713897705,2.5899999141693115,2.5899999141693115,7300
2020-05-26,2.5899999141693115,2.6579999923706055,2.5199999809265137,2.5299999713897705,2.5299999713897705,8500
2020-05-27,2.5199999809265137,2.5199999809265137,2.4600000381469727,2.4800000190734863,2.4800000190734863,3700
2020-05-28,2.490000009536743,2.680000066757202,2.4800000190734863,2.5299999713897705,2.5299999713897705,6200
2020-05-29,2.490000009536743,2.5299999713897705,2.4800000190734863,2.4800000190734863,2.4800000190734863,2100
2020-06-01,2.430000066757202,2.559999942779541,2.4200000762939453,2.549999952316284,2.549999952316284,7500
2020-06-02,2.5139999389648438,2.549999952316284,2.5139999389648438,2.549999952316284,2.549999952316284,2900
2020-06-03,2.509999990463257,2.549999952316284,2.509999990463257,2.5199999809265137,2.5199999809265137,1500
2020-06-04,2.5,2.5,2.490000009536743,2.490000009536743,2.490000009536743,700
2020-06-05,2.4700000286102295,2.5299999713897705,2.4700000286102295,2.5250000953674316,2.5250000953674316,7000
2020-06-08,2.559999942779541,2.5999999046325684,2.4700000286102295,2.578000068664551,2.578000068664551,12800
2020-06-09,2.569999933242798,2.569999933242798,2.5299999713897705,2.5399999618530273,2.5399999618530273,1700
2020-06-10,2.5199999809265137,3.0899999141693115,2.509999990463257,2.6600000858306885,2.6600000858306885,42300
2020-06-11,2.7039999961853027,2.7699999809265137,2.569999933242798,2.6010000705718994,2.6010000705718994,5200
2020-06-12,2.609999895095825,3.240000009536743,2.5999999046325684,3.140000104904175,3.140000104904175,33600
2020-06-15,3.0399999618530273,3.140000104904175,2.630000114440918,2.7200000286102295,2.7200000286102295,36600
2020-06-16,2.9100000858306885,3.369999885559082,2.8399999141693115,3.2739999294281006,3.2739999294281006,57900
2020-06-17,3.119999885559082,3.2899999618530273,3.119999885559082,3.190000057220459,3.190000057220459,5100
2020-06-18,3.1600000858306885,4.170000076293945,3.1500000953674316,4.139999866485596,4.139999866485596,191200
2020-06-19,4.239999771118164,4.489999771118164,3.700000047683716,4.46999979019165,4.46999979019165,63300
2020-06-22,4.289999961853027,4.5,4.139999866485596,4.460000038146973,4.460000038146973,19000
2020-06-23,4.130000114440918,4.659999847412109,4.130000114440918,4.389999866485596,4.389999866485596,19100
2020-06-24,4.0,4.579999923706055,3.740000009536743,4.559999942779541,4.559999942779541,54900
2020-06-25,4.550000190734863,4.559999942779541,4.099999904632568,4.389999866485596,4.389999866485596,4000
2020-06-26,4.389999866485596,4.5,4.079999923706055,4.5,4.5,19400
2020-06-29,4.414999961853027,4.460000038146973,4.03000020980835,4.03000020980835,4.03000020980835,20900
2020-06-30,4.159999847412109,4.159999847412109,3.5799999237060547,3.6570000648498535,3.6570000648498535,8200
2020-07-01,3.950000047683716,4.139999866485596,3.8410000801086426,3.950000047683716,3.950000047683716,4500
2020-07-02,3.819999933242798,3.940000057220459,3.759999990463257,3.869999885559082,3.869999885559082,6200
2020-07-06,3.880000114440918,3.880000114440918,3.744999885559082,3.744999885559082,3.744999885559082,1400
2020-07-07,3.630000114440918,3.630000114440918,3.509999990463257,3.509999990463257,3.509999990463257,8500
2020-07-08,3.6500000953674316,3.799999952316284,3.5899999141693115,3.700000047683716,3.700000047683716,2000
2020-07-09,3.5199999809265137,3.6500000953674316,3.5199999809265137,3.6500000953674316,3.6500000953674316,600
2020-07-10,3.5299999713897705,3.6670000553131104,3.369999885559082,3.5799999237060547,3.5799999237060547,6900
2020-07-13,3.7200000286102295,3.7200000286102295,3.119999885559082,3.180000066757202,3.180000066757202,7900
2020-07-14,3.0799999237060547,3.2300000190734863,3.059999942779541,3.069999933242798,3.069999933242798,4700
2020-07-15,3.0,3.6700000762939453,3.0,3.390000104904175,3.390000104904175,34600
2020-07-16,3.880000114440918,3.9700000286102295,3.4200000762939453,3.86899995803833,3.86899995803833,29500
2020-07-17,3.799999952316284,3.859999895095825,3.4200000762939453,3.8299999237060547,3.8299999237060547,10800
2020-07-20,3.7899999618530273,4.170000076293945,3.7899999618530273,3.9700000286102295,3.9700000286102295,12400
2020-07-21,3.890000104904175,4.126999855041504,3.890000104904175,3.9800000190734863,3.9800000190734863,4000
2020-07-22,3.9649999141693115,4.019999980926514,3.5,3.5230000019073486,3.5230000019073486,15000
2020-07-23,3.490000009536743,3.8269999027252197,3.430000066757202,3.6600000858306885,3.6600000858306885,11500
2020-07-24,3.450000047683716,3.450000047683716,3.2119998931884766,3.3369998931884766,3.3369998931884766,3700
2020-07-27,3.4700000286102295,3.4700000286102295,3.2200000286102295,3.2799999713897705,3.2799999713897705,4400
2020-07-28,3.430000066757202,3.569999933242798,3.138000011444092,3.450000047683716,3.450000047683716,3100
2020-07-29,3.509999990463257,3.549999952316284,3.319999933242798,3.4200000762939453,3.4200000762939453,3600
2020-07-30,3.359999895095825,3.359999895095825,3.049999952316284,3.296999931335449,3.296999931335449,7000
2020-07-31,3.3499999046325684,3.3499999046325684,3.1700000762939453,3.1700000762939453,3.1700000762939453,700
2020-08-03,3.1700000762939453,3.4600000381469727,3.119999885559082,3.440000057220459,3.440000057220459,7600
2020-08-04,3.450000047683716,3.490000009536743,3.2200000286102295,3.430000066757202,3.430000066757202,7700
2020-08-05,3.430000066757202,3.640000104904175,3.380000114440918,3.609999895095825,3.609999895095825,8800
2020-08-06,3.75,3.809999942779541,3.609999895095825,3.7899999618530273,3.7899999618530273,8700
2020-08-07,3.615000009536743,3.7699999809265137,3.299999952316284,3.740000009536743,3.740000009536743,16200
2020-08-10,3.7899999618530273,3.9700000286102295,3.5299999713897705,3.930000066757202,3.930000066757202,12600
2020-08-11,3.8299999237060547,3.9700000286102295,3.759999990463257,3.9200000762939453,3.9200000762939453,3000
2020-08-12,4.099999904632568,4.099999904632568,3.700000047683716,3.8499999046325684,3.8499999046325684,4800
2020-08-13,3.9700000286102295,3.9800000190734863,3.680000066757202,3.9800000190734863,3.9800000190734863,2900
2020-08-14,3.8970000743865967,3.9170000553131104,3.6600000858306885,3.880000114440918,3.880000114440918,5200
2020-08-17,3.9200000762939453,3.9200000762939453,3.7100000381469727,3.8970000743865967,3.8970000743865967,3700
2020-08-18,3.9000000953674316,3.9700000286102295,3.799999952316284,3.9100000858306885,3.9100000858306885,7300
2020-08-19,3.9100000858306885,3.9100000858306885,3.9100000858306885,3.9100000858306885,3.9100000858306885,500
2020-08-20,3.819999933242798,3.8910000324249268,3.799999952316284,3.8010001182556152,3.8010001182556152,8400
2020-08-21,3.9000000953674316,3.9000000953674316,3.819999933242798,3.819999933242798,3.819999933242798,400
2020-08-24,3.822999954223633,3.822999954223633,3.6700000762939453,3.755000114440918,3.755000114440918,3700
2020-08-25,3.5799999237060547,3.796999931335449,3.5789999961853027,3.7899999618530273,3.7899999618530273,4400
2020-08-26,3.809999942779541,3.809999942779541,3.7899999618530273,3.7899999618530273,3.7899999618530273,600
2020-08-27,3.7799999713897705,3.7799999713897705,3.640000104904175,3.7769999504089355,3.7769999504089355,600
2020-08-28,3.75,3.75,3.678999900817871,3.740000009536743,3.740000009536743,1000
2020-08-31,3.7699999809265137,3.9000000953674316,3.752000093460083,3.7699999809265137,3.7699999809265137,1900
2020-09-01,3.5899999141693115,3.7699999809265137,3.549999952316284,3.7699999809265137,3.7699999809265137,5900
2020-09-02,3.7699999809265137,3.7699999809265137,3.7699999809265137,3.7699999809265137,3.7699999809265137,0
2020-09-03,3.799999952316284,3.799999952316284,3.4800000190734863,3.740000009536743,3.740000009536743,1900
2020-09-04,3.680000066757202,3.680000066757202,3.5,3.677000045776367,3.677000045776367,1300
2020-09-08,3.677000045776367,3.677000045776367,3.677000045776367,3.677000045776367,3.677000045776367,0
2020-09-09,3.677000045776367,3.677000045776367,3.677000045776367,3.677000045776367,3.677000045776367,0
2020-09-10,3.3399999141693115,3.5999999046325684,3.3399999141693115,3.5999999046325684,3.5999999046325684,1400
2020-09-11,3.5999999046325684,3.799999952316284,3.490000009536743,3.609999895095825,3.609999895095825,2100
2020-09-14,3.609999895095825,3.609999895095825,3.609999895095825,3.609999895095825,3.609999895095825,0
2020-09-15,3.609999895095825,3.609999895095825,3.609999895095825,3.609999895095825,3.609999895095825,0
2020-09-16,3.609999895095825,3.609999895095825,3.609999895095825,3.609999895095825,3.609999895095825,0
2020-09-17,3.382999897003174,3.5999999046325684,3.382999897003174,3.5999999046325684,3.5999999046325684,1700
2020-09-18,3.4719998836517334,3.7799999713897705,3.4719998836517334,3.7799999713897705,3.7799999713897705,2800
2020-09-21,3.759999990463257,3.7899999618530273,3.759999990463257,3.7899999618530273,3.7899999618530273,1300
2020-09-22,3.6700000762939453,3.680000066757202,3.6700000762939453,3.680000066757202,3.680000066757202,500
2020-09-23,3.440000057220459,3.4600000381469727,3.438999891281128,3.438999891281128,3.438999891281128,400
2020-09-24,3.4800000190734863,3.700000047683716,3.299999952316284,3.700000047683716,3.700000047683716,1800
2020-09-25,3.6579999923706055,3.6730000972747803,3.4260001182556152,3.444000005722046,3.444000005722046,4900
2020-09-28,3.4700000286102295,3.6500000953674316,3.4700000286102295,3.6500000953674316,3.6500000953674316,1400
2020-09-29,3.240000009536743,3.240000009536743,3.240000009536743,3.240000009536743,3.240000009536743,400
2020-09-30,3.4100000858306885,3.5950000286102295,3.309999942779541,3.490000009536743,3.490000009536743,4200
2020-10-01,3.2799999713897705,3.380000114440918,3.2799999713897705,3.380000114440918,3.380000114440918,700
2020-10-02,3.4200000762939453,3.4700000286102295,3.259999990463257,3.4700000286102295,3.4700000286102295,2400
2020-10-05,3.450000047683716,3.499000072479248,3.450000047683716,3.4790000915527344,3.4790000915527344,1600
2020-10-06,3.450000047683716,3.5,3.450000047683716,3.5,3.5,1900
2020-10-07,3.5,3.5,3.4600000381469727,3.4600000381469727,3.4600000381469727,5100
2020-10-08,3.5,3.5399999618530273,3.497999906539917,3.5399999618530273,3.5399999618530273,7100
2020-10-09,3.5,3.5,3.4830000400543213,3.490000009536743,3.490000009536743,2500
2020-10-12,3.450000047683716,3.5,3.450000047683716,3.484999895095825,3.484999895095825,3000
2020-10-13,3.490000009536743,3.5199999809265137,3.490000009536743,3.5,3.5,14700
2020-10-14,3.5,3.5399999618530273,3.4700000286102295,3.4700000286102295,3.4700000286102295,12100
2020-10-15,3.5199999809265137,3.5999999046325684,3.5199999809265137,3.5999999046325684,3.5999999046325684,600
2020-10-16,3.5999999046325684,3.5999999046325684,3.5999999046325684,3.5999999046325684,3.5999999046325684,200
2020-10-19,3.5399999618530273,3.5399999618530273,3.5299999713897705,3.5299999713897705,3.5299999713897705,1300
2020-10-20,3.5799999237060547,3.5799999237060547,3.5399999618530273,3.5399999618530273,3.5399999618530273,1300
2020-10-21,3.5199999809265137,3.940000057220459,3.5,3.5399999618530273,3.5399999618530273,35600
2020-10-22,3.5299999713897705,3.634999990463257,3.5,3.559999942779541,3.559999942779541,3400
2020-10-23,3.687000036239624,3.690000057220459,3.619999885559082,3.680000066757202,3.680000066757202,10900
2020-10-26,3.6500000953674316,3.6500000953674316,3.559999942779541,3.5799999237060547,3.5799999237060547,1200
2020-10-27,3.6500000953674316,3.6600000858306885,3.559999942779541,3.569999933242798,3.569999933242798,4400
2020-10-28,3.6600000858306885,3.6600000858306885,3.5850000381469727,3.640000104904175,3.640000104904175,900
2020-10-29,3.640000104904175,3.640000104904175,3.640000104904175,3.640000104904175,3.640000104904175,0
2020-10-30,3.615000009536743,3.640000104904175,3.615000009536743,3.640000104904175,3.640000104904175,1500
2020-11-02,3.5899999141693115,3.5999999046325684,3.5799999237060547,3.5999999046325684,3.5999999046325684,1700
2020-11-03,3.549999952316284,3.5999999046325684,3.5199999809265137,3.5799999237060547,3.5799999237060547,3000
2020-11-04,3.509999990463257,3.509999990463257,3.4200000762939453,3.4200000762939453,3.4200000762939453,14400
2020-11-05,3.4000000953674316,3.490000009536743,3.4000000953674316,3.4200000762939453,3.4200000762939453,2200
2020-11-06,3.4200000762939453,3.513000011444092,3.4200000762939453,3.513000011444092,3.513000011444092,1300
2020-11-09,3.5,3.559999942779541,3.5,3.555000066757202,3.555000066757202,1000
2020-11-10,3.5799999237060547,3.5899999141693115,3.4200000762939453,3.4200000762939453,3.4200000762939453,1800
2020-11-11,3.510999917984009,3.510999917984009,3.4200000762939453,3.450000047683716,3.450000047683716,4400
2020-11-12,3.450000047683716,3.549999952316284,3.450000047683716,3.5199999809265137,3.5199999809265137,2600
2020-11-13,3.5250000953674316,3.5899999141693115,3.4600000381469727,3.5899999141693115,3.5899999141693115,1900
2020-11-16,3.569999933242798,3.569999933242798,3.4700000286102295,3.5,3.5,2100
2020-11-17,3.4600000381469727,3.5,3.4600000381469727,3.4800000190734863,3.4800000190734863,5000
2020-11-18,3.48799991607666,3.5,3.4800000190734863,3.5,3.5,4700
2020-11-19,3.4800000190734863,3.509999990463257,3.4800000190734863,3.509999990463257,3.509999990463257,900
2020-11-20,3.5,3.5399999618530273,3.3499999046325684,3.5,3.5,13800
2020-11-23,3.5,3.5329999923706055,3.493000030517578,3.5329999923706055,3.5329999923706055,14800
2020-11-24,3.5299999713897705,3.619999885559082,3.5299999713897705,3.5299999713897705,3.5299999713897705,34600
2020-11-25,3.5299999713897705,3.609999895095825,3.490000009536743,3.5299999713897705,3.5299999713897705,11200
2020-11-27,3.509999990463257,3.5299999713897705,3.509999990463257,3.5299999713897705,3.5299999713897705,4000
2020-11-30,3.5199999809265137,3.5209999084472656,3.450000047683716,3.4860000610351562,3.4860000610351562,10500
2020-12-01,3.4700000286102295,3.5,3.4700000286102295,3.5,3.5,3500
2020-12-02,3.4800000190734863,3.559999942779541,3.4700000286102295,3.5299999713897705,3.5299999713897705,14800
2020-12-03,3.569999933242798,3.5799999237060547,3.4800000190734863,3.5299999713897705,3.5299999713897705,15600
2020-12-04,3.509999990463257,3.5299999713897705,3.484999895095825,3.5299999713897705,3.5299999713897705,3600
2020-12-07,3.450000047683716,3.5899999141693115,3.450000047683716,3.5399999618530273,3.5399999618530273,13500
2020-12-08,3.5199999809265137,3.549999952316284,3.5199999809265137,3.549999952316284,3.549999952316284,36000
2020-12-09,3.549999952316284,3.549999952316284,3.5199999809265137,3.5299999713897705,3.5299999713897705,14100
2020-12-10,3.5290000438690186,3.5299999713897705,3.5,3.5299999713897705,3.5299999713897705,10200
2020-12-11,3.5199999809265137,3.5199999809265137,3.5,3.5,3.5,1200
2020-12-14,3.490999937057495,3.5,3.4700000286102295,3.4800000190734863,3.4800000190734863,3400
2020-12-15,3.4800000190734863,3.490000009536743,3.450000047683716,3.450000047683716,3.450000047683716,2100
2020-12-16,3.450000047683716,3.490000009536743,3.450000047683716,3.4570000171661377,3.4570000171661377,1200
2020-12-17,3.450000047683716,3.4600000381469727,3.440000057220459,3.4600000381469727,3.4600000381469727,6400
2020-12-18,3.4700000286102295,3.490000009536743,3.4700000286102295,3.490000009536743,3.490000009536743,16000
2020-12-21,3.490000009536743,3.5799999237060547,3.490000009536743,3.5,3.5,26000
2020-12-22,3.5,3.5,3.4200000762939453,3.490000009536743,3.490000009536743,9800
2020-12-23,3.4649999141693115,3.4800000190734863,3.450000047683716,3.4800000190734863,3.4800000190734863,13500
2020-12-24,3.490000009536743,3.490000009536743,3.309999942779541,3.3499999046325684,3.3499999046325684,8500
2020-12-28,3.3499999046325684,3.5999999046325684,3.3389999866485596,3.490000009536743,3.490000009536743,53600
2020-12-29,3.440000057220459,3.440000057220459,3.299999952316284,3.3299999237060547,3.3299999237060547,8100
2020-12-30,3.259999990463257,3.4600000381469727,3.259999990463257,3.380000114440918,3.380000114440918,4300
