Date,Open,High,Low,Close,Adj Close,Volume
2019-01-31,13.25,13.779999732971191,12.899999618530273,13.069999694824219,12.937578201293945,4047000
2019-02-01,13.5,14.0,13.4399995803833,13.949999809265137,13.808661460876465,984800
2019-02-04,13.960000038146973,14.050000190734863,13.8100004196167,13.989999771118164,13.848255157470703,289200
2019-02-05,14.0,14.119999885559082,13.850000381469727,13.979999542236328,13.838357925415039,533100
2019-02-06,14.050000190734863,14.050000190734863,13.850000381469727,14.0,13.858154296875,407300
2019-02-07,14.079999923706055,14.09000015258789,13.899999618530273,14.0600004196167,13.917546272277832,400600
2019-02-08,13.960000038146973,14.255999565124512,13.949999809265137,14.0,13.858154296875,230100
2019-02-11,14.229999542236328,14.229999542236328,14.010000228881836,14.09000015258789,13.947242736816406,212500
2019-02-12,14.029999732971191,14.199999809265137,13.949999809265137,14.069999694824219,13.927445411682129,124600
2019-02-13,14.109999656677246,14.140000343322754,13.619999885559082,14.0,13.858154296875,90300
2019-02-14,14.039999961853027,14.0600004196167,13.949999809265137,14.0,13.858154296875,46600
2019-02-15,14.020000457763672,14.079999923706055,13.989999771118164,14.010000228881836,13.868053436279297,164300
2019-02-19,14.020000457763672,14.079999923706055,14.0,14.0,13.858154296875,106000
2019-02-20,14.0,14.069999694824219,13.899999618530273,14.069999694824219,13.927445411682129,291800
2019-02-21,14.09000015258789,14.100000381469727,13.949999809265137,14.020000457763672,13.877952575683594,91000
2019-02-22,14.050000190734863,14.050000190734863,14.0,14.0,13.858154296875,81900
2019-02-25,14.050000190734863,14.649999618530273,13.899999618530273,14.0,13.858154296875,403900
2019-02-26,14.039999961853027,14.84000015258789,14.020999908447266,14.619999885559082,14.47187328338623,252000
2019-02-27,14.59000015258789,15.829999923706055,14.28499984741211,15.640000343322754,15.48154067993164,244600
2019-02-28,15.600000381469727,16.0,15.0,15.420000076293945,15.26376724243164,203900
2019-03-01,15.569999694824219,16.049999237060547,15.350000381469727,15.90999984741211,15.74880313873291,110900
2019-03-04,15.949999809265137,16.106000900268555,14.15999984741211,14.75,14.600555419921875,408300
2019-03-05,14.75,14.75,14.40999984741211,14.649999618530273,14.501568794250488,200200
2019-03-06,14.649999618530273,14.704999923706055,14.196999549865723,14.510000228881836,14.362987518310547,231100
2019-03-07,14.5,14.699999809265137,14.319999694824219,14.529999732971191,14.382783889770508,149300
2019-03-08,14.65999984741211,14.699999809265137,14.270000457763672,14.279999732971191,14.135318756103516,123500
2019-03-11,14.350000381469727,14.387999534606934,12.5,12.760000228881836,12.630719184875488,551500
2019-03-12,12.819999694824219,13.010000228881836,12.0600004196167,12.470000267028809,12.343657493591309,268000
2019-03-13,12.510000228881836,12.510000228881836,11.75,11.989999771118164,11.86851978302002,297800
2019-03-14,11.949999809265137,11.949999809265137,10.399999618530273,11.069999694824219,10.957840919494629,686900
2019-03-15,11.010000228881836,11.119999885559082,9.930000305175781,10.279999732971191,10.1758451461792,423500
2019-03-18,10.279999732971191,11.550000190734863,10.279999732971191,11.25,11.136016845703125,714400
2019-03-19,11.199999809265137,11.545000076293945,11.010000228881836,11.229999542236328,11.116219520568848,532300
2019-03-20,11.1899995803833,11.529999732971191,10.65999984741211,10.890000343322754,10.77966594696045,326800
2019-03-21,10.9399995803833,11.220000267028809,10.645000457763672,10.859999656677246,10.749968528747559,179900
2019-03-22,10.789999961853027,10.850000381469727,10.050000190734863,10.15999984741211,10.057061195373535,201900
2019-03-25,10.199999809265137,10.427000045776367,9.5600004196167,9.850000381469727,9.750202178955078,115000
2019-03-26,9.850000381469727,10.180000305175781,9.609999656677246,9.729999542236328,9.631417274475098,46200
2019-03-27,9.779999732971191,9.920000076293945,8.899999618530273,9.510000228881836,9.413646697998047,221100
2019-03-28,9.449999809265137,10.392000198364258,9.34000015258789,9.90999984741211,9.809595108032227,1543100
2019-03-29,10.239999771118164,11.930000305175781,9.550000190734863,11.680000305175781,11.561661720275879,575300
2019-04-01,11.75,12.039999961853027,10.720000267028809,11.130000114440918,11.017232894897461,236500
2019-04-02,11.229999542236328,11.75,11.100000381469727,11.40999984741211,11.29439640045166,99200
2019-04-03,11.65999984741211,12.300000190734863,11.369999885559082,12.260000228881836,12.135785102844238,155700
2019-04-04,12.220000267028809,12.710000038146973,12.052000045776367,12.180000305175781,12.056594848632812,112100
2019-04-05,12.1899995803833,12.670000076293945,12.0,12.649999618530273,12.521832466125488,86900
2019-04-08,12.760000228881836,12.890000343322754,12.149999618530273,12.350000381469727,12.224872589111328,79800
2019-04-09,12.279999732971191,13.109000205993652,11.8100004196167,11.930000305175781,11.809127807617188,114300
2019-04-10,11.970000267028809,12.25,11.680000305175781,11.800000190734863,11.680444717407227,69000
2019-04-11,11.8100004196167,12.324999809265137,11.279999732971191,11.40999984741211,11.29439640045166,208200
2019-04-12,11.470000267028809,11.65999984741211,10.609999656677246,10.970000267028809,10.858854293823242,82100
2019-04-15,11.0,11.180000305175781,10.5,10.760000228881836,10.650981903076172,89400
2019-04-16,10.789999961853027,11.350000381469727,10.630000114440918,11.100000381469727,10.98753833770752,55000
2019-04-17,11.15999984741211,11.180000305175781,10.90999984741211,11.050000190734863,10.938043594360352,22500
2019-04-18,11.0,11.109999656677246,10.699999809265137,10.770000457763672,10.660881042480469,62500
2019-04-22,11.149999618530273,12.0600004196167,10.6899995803833,12.029999732971191,11.908113479614258,313300
2019-04-23,12.229999542236328,13.25,12.050000190734863,12.6899995803833,12.561427116394043,199200
2019-04-24,12.699999809265137,12.868000030517578,11.920000076293945,12.029999732971191,11.908113479614258,66200
2019-04-25,11.960000038146973,12.210000038146973,11.770000457763672,12.020000457763672,11.89821720123291,32400
2019-04-26,11.979999542236328,12.170000076293945,11.489999771118164,11.84000015258789,11.720040321350098,86200
2019-04-29,12.010000228881836,13.199999809265137,11.520000457763672,12.789999961853027,12.66041374206543,102400
2019-04-30,12.789999961853027,12.949000358581543,12.010000228881836,12.5600004196167,12.432744979858398,71200
2019-05-01,12.5600004196167,12.880000114440918,12.15999984741211,12.739999771118164,12.610919952392578,27200
2019-05-02,12.760000228881836,12.916999816894531,12.5,12.710000038146973,12.58122444152832,45600
2019-05-03,12.779999732971191,12.979999542236328,12.609999656677246,12.899999618530273,12.76930046081543,63700
2019-05-06,12.819999694824219,12.899999618530273,12.420000076293945,12.649999618530273,12.521832466125488,47600
2019-05-07,12.819999694824219,12.821999549865723,12.15999984741211,12.180000305175781,12.056594848632812,55200
2019-05-08,12.319999694824219,12.319999694824219,11.369999885559082,12.09000015258789,11.967507362365723,71800
2019-05-09,12.020000457763672,13.1850004196167,11.5600004196167,12.289999961853027,12.165480613708496,118300
2019-05-10,12.210000038146973,12.369999885559082,11.569999694824219,11.869999885559082,11.749735832214355,47500
2019-05-13,11.770000457763672,11.869999885559082,11.039999961853027,11.109999656677246,10.9974365234375,86800
2019-05-14,11.15999984741211,11.399999618530273,10.84000015258789,11.34000015258789,11.225106239318848,113900
2019-05-15,11.5,12.152999877929688,11.350000381469727,11.649999618530273,11.531964302062988,207200
2019-05-16,11.880000114440918,11.880000114440918,10.970000267028809,11.329999923706055,11.21520709991455,124600
2019-05-17,11.5,12.279999732971191,11.5,12.100000381469727,11.977404594421387,113600
2019-05-20,12.100000381469727,13.0600004196167,12.069999694824219,13.020000457763672,12.888084411621094,325300
2019-05-21,13.199999809265137,13.501999855041504,12.5,12.970000267028809,12.838591575622559,83000
2019-05-22,12.65999984741211,13.0600004196167,11.5,12.859999656677246,12.729704856872559,51400
2019-05-23,12.770000457763672,13.380000114440918,12.600000381469727,13.380000114440918,13.24443531036377,157800
2019-05-24,12.979999542236328,13.510000228881836,12.854999542236328,13.220000267028809,13.086057662963867,111300
2019-05-28,13.300000190734863,13.470000267028809,12.623000144958496,12.90999984741211,12.77919864654541,86100
2019-05-29,12.930000305175781,13.0,12.220000267028809,12.25,12.125885009765625,59400
2019-05-30,12.25,12.300000190734863,11.5,11.770000457763672,11.650750160217285,66800
2019-05-31,11.779999732971191,11.779999732971191,10.850000381469727,10.880000114440918,10.769765853881836,188100
2019-06-03,10.90999984741211,11.225000381469727,9.600000381469727,10.100000381469727,9.997668266296387,351700
2019-06-04,10.1899995803833,10.6899995803833,9.779999732971191,10.380000114440918,10.274831771850586,185500
2019-06-05,10.390000343322754,10.65999984741211,10.0,10.5,10.393617630004883,164500
2019-06-06,10.399999618530273,10.630000114440918,9.930000305175781,10.489999771118164,10.38371753692627,126700
2019-06-07,10.510000228881836,10.5600004196167,9.760000228881836,10.25,10.146148681640625,120100
2019-06-10,10.300000190734863,10.300000190734863,9.850000381469727,10.0,9.898680686950684,136000
2019-06-11,10.069999694824219,10.079999923706055,9.34000015258789,9.649999618530273,9.552227973937988,153700
2019-06-12,9.65999984741211,10.260000228881836,9.5,9.6899995803833,9.591822624206543,162000
2019-06-13,9.720000267028809,10.1899995803833,9.720000267028809,10.020000457763672,9.918479919433594,148600
2019-06-14,10.069999694824219,10.5,9.8100004196167,10.180000305175781,10.076858520507812,130900
2019-06-17,10.180000305175781,10.390000343322754,9.800000190734863,10.220000267028809,10.116453170776367,74000
2019-06-18,10.350000381469727,10.40999984741211,10.029999732971191,10.34000015258789,10.235237121582031,128400
2019-06-19,10.359999656677246,10.399999618530273,10.010000228881836,10.130000114440918,10.027365684509277,112600
2019-06-20,10.220000267028809,10.350000381469727,10.0,10.0600004196167,9.958075523376465,59800
2019-06-21,10.100000381469727,10.850000381469727,10.010000228881836,10.550000190734863,10.443110466003418,149500
2019-06-24,10.59000015258789,10.819999694824219,10.359999656677246,10.600000381469727,10.492603302001953,101200
2019-06-25,10.699999809265137,11.130000114440918,10.430000305175781,10.859999656677246,10.749968528747559,120300
2019-06-26,10.930000305175781,11.149999618530273,10.850000381469727,11.050000190734863,10.938043594360352,86300
2019-06-27,11.079999923706055,11.100000381469727,10.704999923706055,10.920000076293945,10.80936050415039,74600
2019-06-28,10.90999984741211,11.84000015258789,10.90999984741211,11.710000038146973,11.591357231140137,108600
2019-07-01,11.800000190734863,11.989999771118164,11.130000114440918,11.869999885559082,11.749735832214355,111300
2019-07-02,11.569999694824219,11.84000015258789,11.109999656677246,11.369999885559082,11.254800796508789,227400
2019-07-03,11.40999984741211,11.880000114440918,11.279999732971191,11.84000015258789,11.720040321350098,41600
2019-07-05,11.779999732971191,11.970000267028809,11.279999732971191,11.420000076293945,11.304293632507324,43600
2019-07-08,11.449999809265137,11.720000267028809,11.149999618530273,11.609999656677246,11.492369651794434,39200
2019-07-09,11.649999618530273,11.720000267028809,11.359999656677246,11.619999885559082,11.502267837524414,42500
2019-07-10,11.619999885559082,12.140000343322754,11.399999618530273,11.899999618530273,11.779430389404297,58200
2019-07-11,11.8100004196167,11.840999603271484,11.460000038146973,11.600000381469727,11.482471466064453,42200
2019-07-12,11.720000267028809,11.9399995803833,11.470000267028809,11.699999809265137,11.58145809173584,37500
2019-07-15,11.729999542236328,11.850000381469727,11.46500015258789,11.699999809265137,11.58145809173584,24200
2019-07-16,11.644000053405762,12.09000015258789,11.644000053405762,11.779999732971191,11.660648345947266,45300
2019-07-17,11.770000457763672,12.039999961853027,11.484999656677246,11.899999618530273,11.779430389404297,112100
2019-07-18,12.069999694824219,12.680000305175781,11.699999809265137,12.390000343322754,12.2644681930542,361300
2019-07-19,12.430000305175781,12.600000381469727,12.319999694824219,12.449999809265137,12.323859214782715,39000
2019-07-22,12.420000076293945,12.65999984741211,12.3100004196167,12.510000228881836,12.383251190185547,66500
2019-07-23,12.550000190734863,12.699999809265137,12.3100004196167,12.680000305175781,12.551528930664062,56400
2019-07-24,12.65999984741211,12.65999984741211,12.303999900817871,12.59000015258789,12.462440490722656,103700
2019-07-25,12.5600004196167,12.6899995803833,12.329999923706055,12.449999809265137,12.323859214782715,68500
2019-07-26,12.460000038146973,12.479999542236328,12.210000038146973,12.260000228881836,12.135785102844238,134900
2019-07-29,12.180000305175781,12.220000267028809,11.510000228881836,11.75,11.630951881408691,95100
2019-07-30,11.75,12.449999809265137,11.75,12.3100004196167,12.18527889251709,189200
2019-07-31,12.359999656677246,12.399999618530273,11.739999771118164,11.880000114440918,11.759634017944336,91400
2019-08-01,11.9399995803833,12.279999732971191,11.5,11.640000343322754,11.522067070007324,161900
2019-08-02,11.75,12.0600004196167,11.510000228881836,11.729999542236328,11.611153602600098,38300
2019-08-05,11.539999961853027,11.800000190734863,11.5,11.729999542236328,11.611153602600098,68700
2019-08-06,11.90999984741211,12.020000457763672,11.489999771118164,11.520000457763672,11.403281211853027,245800
2019-08-07,11.279999732971191,11.65999984741211,11.050000190734863,11.640000343322754,11.522067070007324,92900
2019-08-08,11.989999771118164,12.640000343322754,11.930000305175781,12.619999885559082,12.49213695526123,256400
2019-08-09,12.869999885559082,12.869999885559082,12.109999656677246,12.149999618530273,12.026898384094238,135000
2019-08-12,12.25,13.085000038146973,11.850000381469727,12.880000114440918,12.749502182006836,413400
2019-08-13,12.270000457763672,13.960000038146973,12.270000457763672,13.899999618530273,13.759167671203613,275600
2019-08-14,13.720000267028809,14.5600004196167,13.550000190734863,14.229999542236328,14.085824012756348,1515600
2019-08-15,14.25,15.149999618530273,14.25,15.100000381469727,14.94701099395752,191200
2019-08-16,15.180000305175781,15.550000190734863,14.779999732971191,15.510000228881836,15.352855682373047,427600
2019-08-19,15.579999923706055,16.541000366210938,15.569999694824219,16.399999618530273,16.23383903503418,488000
2019-08-20,16.540000915527344,16.59000015258789,16.209999084472656,16.360000610351562,16.194242477416992,120200
2019-08-21,16.690000534057617,16.700000762939453,16.06999969482422,16.299999237060547,16.134851455688477,108700
2019-08-22,16.3700008392334,16.399999618530273,14.513999938964844,15.15999984741211,15.006402015686035,241200
2019-08-23,15.210000038146973,15.460000038146973,14.630000114440918,14.779999732971191,14.63025188446045,100900
2019-08-26,14.850000381469727,15.300000190734863,14.270000457763672,15.050000190734863,14.897517204284668,92900
2019-08-27,15.109999656677246,15.489999771118164,14.732999801635742,15.15999984741211,15.006402015686035,64700
2019-08-28,15.109999656677246,15.670000076293945,15.029999732971191,15.449999809265137,15.293463706970215,116300
2019-08-29,15.529999732971191,16.239999771118164,15.399999618530273,16.049999237060547,15.887383460998535,156000
2019-08-30,16.139999389648438,16.25,15.994999885559082,16.030000686645508,15.86758804321289,110100
2019-09-03,15.5600004196167,15.989999771118164,15.109999656677246,15.220000267028809,15.065793991088867,71800
2019-09-04,15.40999984741211,15.850000381469727,15.295000076293945,15.59000015258789,15.432045936584473,40200
2019-09-05,15.699999809265137,16.139999389648438,15.699999809265137,15.90999984741211,15.74880313873291,60500
2019-09-06,15.8100004196167,16.06999969482422,15.25,15.859999656677246,15.699309349060059,34900
2019-09-09,15.9399995803833,16.3799991607666,15.9399995803833,16.110000610351562,15.946778297424316,68000
2019-09-10,16.06999969482422,16.21500015258789,15.430000305175781,15.619999885559082,15.46174144744873,70400
2019-09-11,15.649999618530273,16.170000076293945,15.649999618530273,15.670000076293945,15.511235237121582,70100
2019-09-12,15.84000015258789,16.200000762939453,15.529999732971191,15.920000076293945,15.75870132446289,67400
2019-09-13,15.930000305175781,16.399999618530273,15.930000305175781,16.149999618530273,15.986370086669922,123300
2019-09-16,16.239999771118164,16.40999984741211,15.710000038146973,16.3700008392334,16.20414161682129,112800
2019-09-17,16.360000610351562,18.299999237060547,16.079999923706055,17.75,17.570159912109375,187300
2019-09-18,17.360000610351562,18.579999923706055,17.360000610351562,18.290000915527344,18.104692459106445,226300
2019-09-19,18.459999084472656,19.15999984741211,17.940000534057617,18.889999389648438,18.698610305786133,181100
2019-09-20,18.799999237060547,19.176000595092773,18.264999389648438,18.899999618530273,18.70850944519043,179100
2019-09-23,18.75,19.299999237060547,18.680999755859375,19.0,18.8074951171875,76500
2019-09-24,19.049999237060547,19.5,17.450000762939453,18.34000015258789,18.15418243408203,148700
2019-09-25,18.31999969482422,18.959999084472656,17.441999435424805,18.420000076293945,18.233373641967773,169600
2019-09-26,18.5,18.59000015258789,17.559999465942383,18.079999923706055,17.896818161010742,111800
2019-09-27,18.100000381469727,18.100000381469727,17.0,17.600000381469727,17.421680450439453,67500
2019-09-30,18.020000457763672,18.139999389648438,17.65999984741211,18.030000686645508,17.847322463989258,26700
2019-10-01,18.049999237060547,18.200000762939453,17.260000228881836,17.489999771118164,17.312793731689453,44100
2019-10-02,17.530000686645508,18.09600067138672,16.799999237060547,17.75,17.570159912109375,82700
2019-10-03,17.709999084472656,18.149999618530273,17.25,17.959999084472656,17.778034210205078,48200
2019-10-04,18.1200008392334,19.3799991607666,18.020000457763672,18.93000030517578,18.738203048706055,66100
2019-10-07,18.950000762939453,19.270000457763672,18.600000381469727,18.790000915527344,18.59962272644043,38600
2019-10-08,18.68000030517578,18.68000030517578,17.850000381469727,17.969999313354492,17.787931442260742,28200
2019-10-09,18.020000457763672,18.15999984741211,17.760000228881836,18.06999969482422,17.886919021606445,22700
2019-10-10,18.06999969482422,18.309999465942383,17.520000457763672,17.969999313354492,17.787931442260742,23500
2019-10-11,18.059999465942383,18.059999465942383,17.040000915527344,17.3700008392334,17.19400978088379,57900
2019-10-14,17.5,18.010000228881836,17.25,17.959999084472656,17.778034210205078,38300
2019-10-15,17.959999084472656,18.049999237060547,17.610000610351562,17.6200008392334,17.441478729248047,28200
2019-10-16,17.600000381469727,17.799999237060547,17.239999771118164,17.440000534057617,17.2632999420166,31300
2019-10-17,17.530000686645508,17.989999771118164,17.25,17.780000686645508,17.599857330322266,32100
2019-10-18,17.739999771118164,17.959999084472656,17.469999313354492,17.549999237060547,17.3721866607666,21600
2019-10-21,17.6200008392334,17.979999542236328,17.329999923706055,17.450000762939453,17.2731990814209,23500
2019-10-22,17.59000015258789,17.780000686645508,17.3700008392334,17.530000686645508,17.35239028930664,36500
2019-10-23,17.459999084472656,17.65999984741211,17.0,17.219999313354492,17.045530319213867,52600
2019-10-24,17.239999771118164,17.389999389648438,17.030000686645508,17.209999084472656,17.035633087158203,26200
2019-10-25,17.15999984741211,17.389999389648438,17.059999465942383,17.149999618530273,16.976238250732422,34000
2019-10-28,17.219999313354492,17.5,16.93000030517578,17.1299991607666,16.95644187927246,108500
2019-10-29,17.010000228881836,17.219999313354492,16.5049991607666,17.049999237060547,16.87725257873535,74100
2019-10-30,17.049999237060547,17.469999313354492,16.850000381469727,17.1299991607666,16.95644187927246,63000
2019-10-31,17.1299991607666,17.350000381469727,16.78499984741211,17.239999771118164,17.06532859802246,58300
2019-11-01,17.280000686645508,17.5,16.829999923706055,16.8700008392334,16.699077606201172,98000
2019-11-04,16.969999313354492,17.940000534057617,16.81999969482422,17.670000076293945,17.4909725189209,56200
2019-11-05,17.809999465942383,17.809999465942383,17.325000762939453,17.5,17.32269287109375,65200
2019-11-06,17.600000381469727,17.780000686645508,17.219999313354492,17.3799991607666,17.203908920288086,64100
2019-11-07,17.43000030517578,17.610000610351562,17.079999923706055,17.270000457763672,17.09502410888672,57500
2019-11-08,17.2549991607666,17.420000076293945,16.450000762939453,16.65999984741211,16.49120330810547,212900
2019-11-11,16.709999084472656,16.989999771118164,15.819999694824219,15.869999885559082,15.709207534790039,112700
2019-11-12,15.229999542236328,16.884000778198242,13.779000282287598,15.979999542236328,15.818094253540039,116100
2019-11-13,15.899999618530273,16.1200008392334,15.390000343322754,15.859999656677246,15.699309349060059,291600
2019-11-14,15.729999542236328,15.90999984741211,15.199999809265137,15.430000305175781,15.273666381835938,203100
2019-11-15,15.789999961853027,15.906999588012695,15.220000267028809,15.520000457763672,15.362754821777344,105800
2019-11-18,15.380000114440918,15.640000343322754,15.130000114440918,15.359999656677246,15.204375267028809,73500
2019-11-19,15.430000305175781,15.729999542236328,15.185999870300293,15.390000343322754,15.2340726852417,53000
2019-11-20,15.420000076293945,15.479999542236328,15.039999961853027,15.329999923706055,15.17467975616455,55700
2019-11-21,15.380000114440918,15.550000190734863,15.020000457763672,15.279999732971191,15.125185012817383,58500
2019-11-22,15.3100004196167,15.53499984741211,15.170000076293945,15.380000114440918,15.224172592163086,45500
2019-11-25,15.390000343322754,16.0,15.289999961853027,15.470000267028809,15.313261985778809,58800
2019-11-26,15.4399995803833,15.571000099182129,15.010000228881836,15.039999961853027,14.887617111206055,76400
2019-11-27,15.039999961853027,15.40999984741211,14.609999656677246,14.989999771118164,14.83812427520752,47100
2019-11-29,14.989999771118164,15.010000228881836,14.279999732971191,14.970000267028809,14.818326950073242,36700
2019-12-02,14.859999656677246,14.859999656677246,13.715999603271484,14.359999656677246,14.214506149291992,144400
2019-12-03,14.210000038146973,15.859999656677246,13.850000381469727,15.329999923706055,15.17467975616455,258100
2019-12-04,15.380000114440918,16.489999771118164,15.289999961853027,15.699999809265137,15.540931701660156,139300
2019-12-05,15.640000343322754,16.510000228881836,15.619999885559082,16.229999542236328,16.06555938720703,400000
2019-12-06,16.700000762939453,16.90999984741211,16.299999237060547,16.6200008392334,16.451610565185547,251000
2019-12-09,16.719999313354492,16.75,16.329999923706055,16.6299991607666,16.46150779724121,115700
2019-12-10,16.6200008392334,16.690000534057617,16.3700008392334,16.540000915527344,16.372419357299805,101600
2019-12-11,16.6200008392334,16.768999099731445,16.024999618530273,16.270000457763672,16.105154037475586,85700
2019-12-12,16.290000915527344,16.530000686645508,16.18000030517578,16.270000457763672,16.105154037475586,41000
2019-12-13,16.34000015258789,16.459999084472656,16.030000686645508,16.290000915527344,16.12495231628418,43900
2019-12-16,16.469999313354492,16.5049991607666,16.31999969482422,16.450000762939453,16.28333282470703,50100
2019-12-17,16.479999542236328,16.68000030517578,16.170000076293945,16.260000228881836,16.095256805419922,61300
2019-12-18,16.1200008392334,16.399999618530273,16.0,16.0,15.837891578674316,88500
2019-12-19,16.040000915527344,16.329999923706055,15.720000267028809,16.15999984741211,15.996269226074219,69100
2019-12-20,16.329999923706055,16.329999923706055,15.9399995803833,16.079999923706055,15.917080879211426,59900
2019-12-23,16.1200008392334,16.190000534057617,15.9399995803833,16.079999923706055,15.917080879211426,28500
2019-12-24,16.059999465942383,16.139999389648438,15.600000381469727,15.899999618530273,15.738903999328613,46100
2019-12-26,16.149999618530273,16.200000762939453,15.890000343322754,16.139999389648438,15.976470947265625,56100
2019-12-27,16.190000534057617,16.229999542236328,15.930000305175781,16.09000015258789,15.926979064941406,43000
2019-12-30,16.110000610351562,16.18000030517578,15.829999923706055,16.149999618530273,15.986370086669922,66500
2019-12-31,16.239999771118164,16.239999771118164,15.609999656677246,15.670000076293945,15.511235237121582,50000
2020-01-02,15.84000015258789,15.84000015258789,14.75,14.789999961853027,14.640151023864746,134400
2020-01-03,14.8100004196167,15.088000297546387,14.460000038146973,14.470000267028809,14.323392868041992,94700
2020-01-06,14.520000457763672,14.781000137329102,14.140000343322754,14.739999771118164,14.590656280517578,66600
2020-01-07,14.699999809265137,15.430000305175781,14.600000381469727,15.350000381469727,15.194477081298828,58800
2020-01-08,15.25,15.59000015258789,15.029999732971191,15.510000228881836,15.352855682373047,68800
2020-01-09,15.720000267028809,16.100000381469727,15.619999885559082,15.859999656677246,15.699309349060059,92500
2020-01-10,15.920000076293945,15.920000076293945,15.015000343322754,15.369999885559082,15.214274406433105,80400
2020-01-13,15.449999809265137,15.75,15.149999618530273,15.5600004196167,15.402350425720215,59700
2020-01-14,15.569999694824219,15.979999542236328,15.350000381469727,15.609999656677246,15.451842308044434,62400
2020-01-15,15.569999694824219,15.64900016784668,15.029999732971191,15.329999923706055,15.17467975616455,77500
2020-01-16,15.399999618530273,15.710000038146973,15.109999656677246,15.359999656677246,15.204375267028809,76400
2020-01-17,15.4399995803833,15.710000038146973,15.260000228881836,15.619999885559082,15.46174144744873,42600
2020-01-21,15.510000228881836,15.649999618530273,15.100000381469727,15.180000305175781,15.026199340820312,85700
2020-01-22,15.109999656677246,15.390000343322754,14.710000038146973,14.9399995803833,14.788630485534668,100100
2020-01-23,14.899999618530273,15.069999694824219,14.630000114440918,14.800000190734863,14.650049209594727,51100
2020-01-24,14.789999961853027,15.199999809265137,14.630000114440918,15.010000228881836,14.857922554016113,54400
2020-01-27,14.800000190734863,15.069999694824219,14.800000190734863,15.020000457763672,14.86782169342041,43400
2020-01-28,15.0600004196167,15.604999542236328,15.0600004196167,15.420000076293945,15.26376724243164,76400
2020-01-29,15.470000267028809,15.550000190734863,15.145000457763672,15.199999809265137,15.04599666595459,125900
2020-01-30,15.140000343322754,15.260000228881836,14.710000038146973,15.050000190734863,14.897517204284668,101900
2020-01-31,15.0,15.199999809265137,14.720000267028809,15.050000190734863,14.897517204284668,83500
2020-02-03,15.220000267028809,15.510000228881836,14.930000305175781,15.460000038146973,15.303362846374512,78100
2020-02-04,15.609999656677246,16.059999465942383,15.609999656677246,15.699999809265137,15.540931701660156,86100
2020-02-05,15.789999961853027,15.989999771118164,15.630000114440918,15.850000381469727,15.689411163330078,46200
2020-02-06,15.979999542236328,16.040000915527344,15.520000457763672,16.030000686645508,15.86758804321289,139300
2020-02-07,16.100000381469727,16.3700008392334,15.789999961853027,16.1299991607666,15.966573715209961,277400
2020-02-10,15.979999542236328,16.299999237060547,15.899999618530273,16.1299991607666,15.966573715209961,218100
2020-02-11,16.200000762939453,16.549999237060547,16.100000381469727,16.540000915527344,16.372419357299805,44000
2020-02-12,16.579999923706055,16.966999053955078,16.56999969482422,16.610000610351562,16.44171142578125,33500
2020-02-13,16.559999465942383,16.638999938964844,16.010000228881836,16.34000015258789,16.17444610595703,49500
2020-02-14,16.329999923706055,16.85099983215332,15.770000457763672,16.100000381469727,15.93687915802002,34500
2020-02-18,16.25,16.860000610351562,16.040000915527344,16.5,16.332826614379883,93900
2020-02-19,16.5,16.75,16.309999465942383,16.399999618530273,16.23383903503418,92600
2020-02-20,16.40999984741211,16.510000228881836,15.850000381469727,16.049999237060547,15.887383460998535,36100
2020-02-21,15.970000267028809,16.360000610351562,15.890000343322754,16.280000686645508,16.115053176879883,45900
2020-02-24,16.09000015258789,16.170000076293945,15.75,15.970000267028809,15.808195114135742,83300
2020-02-25,16.010000228881836,16.010000228881836,15.446000099182129,15.84000015258789,15.679512977600098,115600
2020-02-26,15.670000076293945,16.31999969482422,15.555000305175781,15.729999542236328,15.570625305175781,94700
2020-02-27,15.489999771118164,15.52400016784668,14.25,14.3100004196167,14.165014266967773,123100
2020-02-28,14.1899995803833,14.260000228881836,13.460000038146973,14.050000190734863,13.907649040222168,131700
2020-03-02,14.420000076293945,14.609999656677246,13.819999694824219,14.270000457763672,14.125420570373535,91700
2020-03-03,14.430000305175781,14.84000015258789,13.59000015258789,14.069999694824219,13.927445411682129,103500
2020-03-04,16.0,16.0,14.239999771118164,15.3100004196167,15.154882431030273,239600
2020-03-05,15.0,15.470000267028809,14.800000190734863,15.449999809265137,15.293463706970215,62100
2020-03-06,15.630000114440918,15.630000114440918,14.630000114440918,15.199999809265137,15.04599666595459,182700
2020-03-09,14.510000228881836,14.652999877929688,13.479999542236328,13.489999771118164,13.35332202911377,350400
2020-03-10,13.930000305175781,14.031999588012695,10.739999771118164,11.609999656677246,11.492369651794434,417100
2020-03-11,11.430000305175781,12.6899995803833,11.020000457763672,11.020000457763672,10.908348083496094,225400
2020-03-12,10.119999885559082,11.029999732971191,9.880000114440918,10.510000228881836,10.403515815734863,301700
2020-03-13,10.979999542236328,11.029999732971191,10.279999732971191,10.6899995803833,10.581689834594727,85200
2020-03-16,9.960000038146973,10.520000457763672,8.420000076293945,9.550000190734863,9.453241348266602,127900
2020-03-17,9.420000076293945,10.065999984741211,8.817999839782715,9.75,9.651215553283691,157400
2020-03-18,8.829999923706055,9.600000381469727,8.760000228881836,9.300000190734863,9.205775260925293,143700
2020-03-19,9.270000457763672,9.710000038146973,8.510000228881836,9.489999771118164,9.393848419189453,117500
2020-03-20,9.579999923706055,9.668000221252441,8.319999694824219,8.710000038146973,8.621750831604004,175500
2020-03-23,8.75,8.75,7.010000228881836,8.020000457763672,7.938743591308594,102300
2020-03-24,8.399999618530273,9.803999900817871,8.350000381469727,8.930000305175781,8.839524269104004,64000
2020-03-25,9.039999961853027,11.005000114440918,8.510000228881836,9.619999885559082,9.52253246307373,125900
2020-03-26,9.699999809265137,11.989999771118164,9.609999656677246,10.460000038146973,10.354022026062012,128700
2020-03-27,10.630000114440918,10.895000457763672,10.020000457763672,10.329999923706055,10.22533893585205,45000
2020-03-30,10.449999809265137,11.109999656677246,10.029999732971191,10.220000267028809,10.116453170776367,39800
2020-03-31,10.180000305175781,10.180000305175781,9.270000457763672,9.789999961853027,9.690810203552246,88600
2020-04-01,9.680000305175781,9.710000038146973,8.300000190734863,8.729999542236328,8.641548156738281,136300
2020-04-02,8.630000114440918,9.25,8.630000114440918,8.890000343322754,8.799928665161133,73200
2020-04-03,8.949999809265137,9.800000190734863,8.600000381469727,9.029999732971191,8.938509941101074,41100
2020-04-06,9.3100004196167,9.920000076293945,9.3100004196167,9.699999809265137,9.601720809936523,113500
2020-04-07,10.069999694824219,10.5,9.510000228881836,9.880000114440918,9.779898643493652,49700
2020-04-08,10.149999618530273,10.770000457763672,10.0,10.680000305175781,10.571791648864746,46600
2020-04-09,10.90999984741211,12.970000267028809,10.706000328063965,11.899999618530273,11.779430389404297,167700
2020-04-13,11.890000343322754,12.899999618530273,10.65999984741211,10.960000038146973,10.848956108093262,133600
2020-04-14,11.260000228881836,12.085000038146973,11.0,11.34000015258789,11.225106239318848,96300
2020-04-15,10.850000381469727,11.289999961853027,10.119999885559082,11.149999618530273,11.037030220031738,54500
2020-04-16,11.0,11.3100004196167,10.701000213623047,11.239999771118164,11.126118659973145,42900
2020-04-17,11.479999542236328,12.029999732971191,11.300000190734863,11.760000228881836,11.640850067138672,44100
2020-04-20,11.630000114440918,12.03499984741211,10.850000381469727,11.369999885559082,11.254800796508789,102500
2020-04-21,11.020000457763672,11.369999885559082,10.859999656677246,11.050000190734863,10.938043594360352,31100
2020-04-22,11.59000015258789,11.670000076293945,11.199999809265137,11.220000267028809,11.106321334838867,25300
2020-04-23,11.5600004196167,12.0,11.258999824523926,11.510000228881836,11.393383026123047,36700
2020-04-24,11.920000076293945,12.970000267028809,11.625,12.859999656677246,12.729704856872559,108400
2020-04-27,13.0,13.25,12.15999984741211,12.829999923706055,12.7000093460083,71800
2020-04-28,12.850000381469727,13.0600004196167,11.960000038146973,12.1899995803833,12.066493034362793,83200
2020-04-29,12.579999923706055,13.359999656677246,12.130000114440918,12.739999771118164,12.610919952392578,90500
2020-04-30,12.970000267028809,13.380000114440918,12.244000434875488,12.930000305175781,12.798995971679688,59900
2020-05-01,12.949999809265137,13.854999542236328,11.6899995803833,12.25,12.125885009765625,108700
2020-05-04,11.649999618530273,12.949000358581543,11.569999694824219,12.600000381469727,12.472339630126953,53000
2020-05-05,12.770000457763672,12.970000267028809,12.199999809265137,12.829999923706055,12.7000093460083,66300
2020-05-06,12.75,12.75,11.53499984741211,12.579999923706055,12.45254135131836,119800
2020-05-07,12.600000381469727,13.0,12.119999885559082,12.880000114440918,12.749502182006836,38600
2020-05-08,12.899999618530273,13.460000038146973,12.840999603271484,13.289999961853027,13.155348777770996,37500
2020-05-11,13.289999961853027,13.829999923706055,12.819999694824219,13.479999542236328,13.343421936035156,38900
2020-05-12,13.800000190734863,14.710000038146973,13.539999961853027,13.65999984741211,13.521599769592285,75700
2020-05-13,13.680000305175781,13.770000457763672,12.380000114440918,12.84000015258789,12.709907531738281,42800
2020-05-14,12.869999885559082,13.395999908447266,12.319999694824219,12.710000038146973,12.58122444152832,45900
2020-05-15,12.699999809265137,13.09000015258789,12.640000343322754,12.890000343322754,12.759401321411133,35800
2020-05-18,13.149999618530273,14.300000190734863,13.119999885559082,13.5,13.363221168518066,116100
2020-05-19,13.710000038146973,14.46500015258789,13.710000038146973,14.0,13.858154296875,45100
2020-05-20,14.390000343322754,15.239999771118164,14.074999809265137,14.350000381469727,14.204609870910645,88800
2020-05-21,14.390000343322754,15.069999694824219,13.890000343322754,13.989999771118164,13.848255157470703,39500
2020-05-22,13.9399995803833,14.375,13.359999656677246,13.869999885559082,13.729471206665039,48100
2020-05-26,14.40999984741211,14.40999984741211,13.729999542236328,13.84000015258789,13.699775695800781,32200
2020-05-27,14.0,14.475000381469727,13.5,13.65999984741211,13.521599769592285,38100
2020-05-28,13.75,13.979999542236328,13.319999694824219,13.5,13.363221168518066,46200
2020-05-29,13.40999984741211,13.949999809265137,13.25,13.869999885559082,13.729471206665039,126900
2020-06-01,13.880000114440918,14.699999809265137,13.574999809265137,14.069999694824219,13.927445411682129,66600
2020-06-02,13.829999923706055,14.489999771118164,12.600000381469727,14.0,13.858154296875,38800
2020-06-03,14.0,14.0,13.699999809265137,13.699999809265137,13.56119441986084,42500
2020-06-04,13.520000457763672,14.289999961853027,13.0,13.989999771118164,13.848255157470703,148400
2020-06-05,14.489999771118164,14.489999771118164,13.039999961853027,14.180000305175781,14.036332130432129,182200
2020-06-08,14.359999656677246,14.699999809265137,14.09000015258789,14.270000457763672,14.125420570373535,193700
2020-06-09,14.3100004196167,14.3100004196167,13.670000076293945,14.039999961853027,13.897749900817871,73100
2020-06-10,13.9399995803833,13.989999771118164,13.260000228881836,13.4399995803833,13.303829193115234,103600
2020-06-11,13.109999656677246,13.329999923706055,11.800000190734863,13.020000457763672,12.888084411621094,248200
2020-06-12,13.260000228881836,13.350000381469727,12.319999694824219,12.899999618530273,12.76930046081543,45100
2020-06-15,12.699999809265137,13.300000190734863,12.5600004196167,13.0,12.868288040161133,72700
2020-06-16,13.470000267028809,13.470000267028809,12.680000305175781,12.779999732971191,12.650514602661133,115100
2020-06-17,13.470000267028809,13.470000267028809,12.15999984741211,12.239999771118164,12.115986824035645,208700
2020-06-18,12.079999923706055,13.050000190734863,12.0,12.970000267028809,12.838591575622559,134600
2020-06-19,13.1899995803833,13.319999694824219,12.720000267028809,13.0,12.868288040161133,109600
2020-06-22,12.720000267028809,13.260000228881836,12.720000267028809,13.0,12.868288040161133,40800
2020-06-23,13.050000190734863,13.050000190734863,12.510000228881836,12.569999694824219,12.442642211914062,35600
2020-06-24,12.170000076293945,12.630000114440918,11.475000381469727,12.369999885559082,12.244669914245605,88100
2020-06-25,12.380000114440918,12.649999618530273,12.180000305175781,12.399999618530273,12.274364471435547,28500
2020-06-26,12.399999618530273,12.489999771118164,12.109999656677246,12.149999618530273,12.026898384094238,24500
2020-06-29,12.170000076293945,12.460000038146973,11.824000358581543,12.449999809265137,12.323859214782715,579600
2020-06-30,12.380000114440918,13.020000457763672,12.140000343322754,12.960000038146973,12.828692436218262,38800
2020-07-01,13.079999923706055,13.079999923706055,12.395000457763672,12.789999961853027,12.66041374206543,23000
2020-07-02,12.970000267028809,13.126999855041504,12.300000190734863,12.649999618530273,12.521832466125488,462500
2020-07-06,12.859999656677246,13.699999809265137,12.859999656677246,13.0,12.868288040161133,147800
2020-07-07,14.0,16.209999084472656,13.949999809265137,15.65999984741211,15.501336097717285,697300
2020-07-08,15.819999694824219,18.371000289916992,15.668000221252441,17.420000076293945,17.243501663208008,503000
2020-07-09,17.6299991607666,18.110000610351562,16.600000381469727,17.239999771118164,17.06532859802246,135100
2020-07-10,17.190000534057617,17.979999542236328,17.040000915527344,17.56999969482422,17.391983032226562,181100
2020-07-13,17.790000915527344,18.299999237060547,17.600000381469727,17.93000030517578,17.748336791992188,182200
2020-07-14,18.059999465942383,18.5,17.844999313354492,18.0,17.817628860473633,224700
2020-07-15,18.170000076293945,18.59000015258789,17.649999618530273,17.790000915527344,17.609756469726562,186100
2020-07-16,17.979999542236328,18.850000381469727,17.649999618530273,18.56999969482422,18.381853103637695,392600
2020-07-17,18.719999313354492,19.350000381469727,18.572999954223633,19.030000686645508,18.83719253540039,138600
2020-07-20,19.110000610351562,20.25,18.81999969482422,19.010000228881836,18.817394256591797,249900
2020-07-21,19.190000534057617,20.040000915527344,18.670000076293945,19.25,19.054962158203125,167000
2020-07-22,19.579999923706055,19.780000686645508,18.80299949645996,19.420000076293945,19.22323989868164,250700
2020-07-23,19.450000762939453,20.225000381469727,19.200000762939453,20.06999969482422,19.866653442382812,276000
2020-07-24,20.0,20.809999465942383,19.81999969482422,20.200000762939453,19.995336532592773,163000
2020-07-27,20.15999984741211,20.649999618530273,19.55500030517578,19.65999984741211,19.4608097076416,95400
2020-07-28,19.809999465942383,21.309999465942383,19.68000030517578,20.56999969482422,20.361589431762695,135700
2020-07-29,20.6299991607666,21.950000762939453,20.389999389648438,21.770000457763672,21.54943084716797,150200
2020-07-30,21.709999084472656,21.709999084472656,21.170000076293945,21.25,21.034698486328125,104200
2020-07-31,21.239999771118164,22.049999237060547,20.84000015258789,21.600000381469727,21.381155014038086,115300
2020-08-03,20.979999542236328,21.209999084472656,18.155000686645508,20.65999984741211,20.4506778717041,366800
2020-08-04,20.530000686645508,24.600000381469727,20.530000686645508,23.360000610351562,23.123323440551758,947800
2020-08-05,24.020000457763672,26.709999084472656,24.020000457763672,26.0,25.736576080322266,554600
2020-08-06,25.979999542236328,26.079999923706055,24.84000015258789,25.190000534057617,24.93478012084961,240300
2020-08-07,25.510000228881836,25.84000015258789,24.510000228881836,24.829999923706055,24.578428268432617,336500
2020-08-10,24.81999969482422,26.43000030517578,24.6299991607666,25.5,25.241640090942383,179100
2020-08-11,26.3700008392334,26.38800048828125,25.1200008392334,25.93000030517578,25.66728401184082,202600
2020-08-12,25.969999313354492,26.40999984741211,24.639999389648438,24.950000762939453,24.69721221923828,181900
2020-08-13,24.989999771118164,26.3700008392334,24.510000228881836,26.1200008392334,25.85536003112793,148300
2020-08-14,26.0,27.40999984741211,25.510000228881836,27.030000686645508,26.75613784790039,299000
2020-08-17,26.940000534057617,29.3799991607666,26.790000915527344,26.940000534057617,26.667049407958984,284100
2020-08-18,26.799999237060547,26.920000076293945,25.479999542236328,26.09000015258789,25.82566261291504,185600
2020-08-19,26.0,26.81999969482422,25.34000015258789,26.280000686645508,26.01374053955078,257000
2020-08-20,26.200000762939453,26.399999618530273,25.739999771118164,26.06999969482422,25.805864334106445,336600
2020-08-21,26.09000015258789,26.5,25.600000381469727,25.770000457763672,25.50890350341797,358500
2020-08-24,25.889999389648438,27.329999923706055,25.829999923706055,27.010000228881836,26.73634147644043,170500
2020-08-25,27.09000015258789,27.31999969482422,26.5,27.049999237060547,26.77593421936035,92100
2020-08-26,27.739999771118164,27.770000457763672,26.760000228881836,27.510000228881836,27.23127555847168,210500
2020-08-27,27.3799991607666,29.110000610351562,26.743000030517578,27.549999237060547,27.270870208740234,291700
2020-08-28,27.5,28.350000381469727,27.295000076293945,27.600000381469727,27.320362091064453,301200
2020-08-31,27.610000610351562,28.790000915527344,26.700000762939453,26.770000457763672,26.49877166748047,106800
2020-09-01,26.68000030517578,27.520000457763672,26.229999542236328,27.510000228881836,27.23127555847168,211700
2020-09-02,27.399999618530273,29.18000030517578,26.350000381469727,28.829999923706055,28.53790283203125,270400
2020-09-03,28.739999771118164,29.229999542236328,27.440000534057617,28.25,28.061111450195312,325800
2020-09-04,28.729999542236328,29.014999389648438,27.299999237060547,28.739999771118164,28.547834396362305,259900
2020-09-08,29.25,32.40999984741211,29.0049991607666,31.889999389648438,31.676773071289062,1208200
2020-09-09,32.470001220703125,35.89500045776367,32.470001220703125,35.56999969482422,35.3321647644043,1175100
2020-09-10,36.060001373291016,39.09199905395508,36.060001373291016,37.290000915527344,37.04066848754883,1012400
2020-09-11,36.09000015258789,37.060001373291016,30.799999237060547,31.75,31.537708282470703,1614700
2020-09-14,31.8799991607666,33.56999969482422,31.59000015258789,32.5,32.282691955566406,990300
2020-09-15,32.220001220703125,33.150001525878906,31.399999618530273,31.399999618530273,31.190048217773438,960800
2020-09-16,31.459999084472656,34.97999954223633,31.459999084472656,34.33000183105469,34.100460052490234,1892600
2020-09-17,33.849998474121094,34.970001220703125,32.880001068115234,34.36000061035156,34.1302604675293,1573100
2020-09-18,34.0099983215332,36.79999923706055,33.902000427246094,36.5,36.25594711303711,2322600
2020-09-21,35.619998931884766,37.68000030517578,34.630001068115234,37.58000183105469,37.32872772216797,1523700
2020-09-22,37.900001525878906,37.97999954223633,35.630001068115234,37.11000061035156,36.86186981201172,1497800
2020-09-23,36.790000915527344,37.334999084472656,35.560001373291016,35.779998779296875,35.5407600402832,528800
2020-09-24,35.630001068115234,37.619998931884766,34.35300064086914,37.52000045776367,37.26913070678711,378700
2020-09-25,37.52000045776367,39.0,37.52000045776367,38.90999984741211,38.64983367919922,376900
2020-09-28,39.040000915527344,40.900001525878906,38.79999923706055,40.7400016784668,40.46759796142578,311500
2020-09-29,41.34000015258789,44.040000915527344,40.5099983215332,43.310001373291016,43.020416259765625,706600
2020-09-30,43.209999084472656,44.560001373291016,43.209999084472656,44.0099983215332,43.71573257446289,458900
2020-10-01,44.29999923706055,44.599998474121094,42.7400016784668,43.84000015258789,43.546871185302734,521300
2020-10-02,43.130001068115234,46.400001525878906,42.66999816894531,45.880001068115234,45.57322692871094,449000
2020-10-05,46.290000915527344,47.93000030517578,46.119998931884766,47.36000061035156,47.0433349609375,481300
2020-10-06,47.599998474121094,47.849998474121094,44.52000045776367,45.619998931884766,45.31496810913086,473900
2020-10-07,46.310001373291016,50.220001220703125,46.04999923706055,48.279998779296875,47.95718002319336,808500
2020-10-08,48.41999816894531,48.994998931884766,45.869998931884766,46.540000915527344,46.22882080078125,318400
2020-10-09,46.90999984741211,47.749000549316406,45.86000061035156,46.41999816894531,46.109619140625,289100
2020-10-12,46.52000045776367,47.290000915527344,45.75,46.220001220703125,45.91095733642578,174900
2020-10-13,46.0,50.22999954223633,45.900001525878906,49.88999938964844,49.55641555786133,504000
2020-10-14,50.869998931884766,51.34000015258789,49.41999816894531,51.220001220703125,50.87752914428711,742200
2020-10-15,51.0,51.79999923706055,49.22999954223633,49.959999084472656,49.625946044921875,566500
2020-10-16,49.93000030517578,51.439998626708984,49.5,49.70000076293945,49.36769104003906,485600
2020-10-19,49.75,52.16999816894531,48.849998474121094,50.810001373291016,50.47026824951172,344000
2020-10-20,50.810001373291016,52.220001220703125,49.290000915527344,51.86000061035156,51.51324462890625,215800
2020-10-21,52.56999969482422,54.91999816894531,51.09000015258789,51.279998779296875,50.9371223449707,330000
2020-10-22,51.02000045776367,54.29999923706055,51.00899887084961,53.63999938964844,53.281341552734375,251400
2020-10-23,53.68000030517578,53.68000030517578,49.45000076293945,50.59000015258789,50.251739501953125,228200
2020-10-26,49.70000076293945,51.290000915527344,49.25,49.650001525878906,49.318023681640625,307200
2020-10-27,49.90999984741211,50.630001068115234,48.27000045776367,49.15999984741211,48.831298828125,296500
2020-10-28,47.08000183105469,47.22999954223633,43.5,44.529998779296875,44.23225784301758,871000
2020-10-29,35.7400016784668,40.310001373291016,35.7400016784668,38.45000076293945,38.19291305541992,1663800
2020-10-30,36.65999984741211,37.58000183105469,35.5,36.130001068115234,35.88842010498047,835800
2020-11-02,36.47999954223633,37.22999954223633,35.709999084472656,36.47999954223633,36.236080169677734,554600
2020-11-03,36.75,37.25,36.13999938964844,36.380001068115234,36.13675308227539,384600
2020-11-04,36.36000061035156,37.025001525878906,35.5,36.279998779296875,36.03741455078125,552600
2020-11-05,36.72999954223633,38.099998474121094,35.939998626708984,37.68000030517578,37.428062438964844,620500
2020-11-06,38.314998626708984,39.029998779296875,36.83000183105469,37.20000076293945,36.95126724243164,618300
2020-11-09,37.90999984741211,38.91999816894531,33.91999816894531,35.20000076293945,34.96464157104492,694700
2020-11-10,35.08000183105469,35.86000061035156,33.33000183105469,35.040000915527344,34.80570983886719,466600
2020-11-11,35.47999954223633,35.880001068115234,34.02000045776367,35.34000015258789,35.10370635986328,319500
2020-11-12,35.90999984741211,36.415000915527344,34.5,34.66999816894531,34.43818283081055,292300
2020-11-13,35.08000183105469,36.849998474121094,34.7400016784668,34.7599983215332,34.527584075927734,244500
2020-11-16,35.11000061035156,37.36399841308594,34.505001068115234,37.29999923706055,37.050601959228516,235900
2020-11-17,37.470001220703125,38.41400146484375,36.380001068115234,37.630001068115234,37.378395080566406,251200
2020-11-18,38.2400016784668,38.70500183105469,37.529998779296875,37.68000030517578,37.428062438964844,221600
2020-11-19,37.70000076293945,38.869998931884766,37.25,38.779998779296875,38.52070236206055,243500
2020-11-20,38.880001068115234,40.0,38.400001525878906,38.900001525878906,38.6399040222168,281700
2020-11-23,39.29999923706055,42.189998626708984,39.15999984741211,42.0,41.719173431396484,290800
2020-11-24,42.66999816894531,43.68000030517578,41.3849983215332,41.75,41.47084426879883,312000
2020-11-25,41.56999969482422,44.13999938964844,39.79999923706055,43.75,43.45747375488281,307700
2020-11-27,46.8650016784668,47.20000076293945,44.900001525878906,45.97999954223633,45.67256164550781,354300
2020-11-30,47.0,47.02000045776367,42.25,43.11000061035156,42.82175064086914,493700
2020-12-01,45.130001068115234,45.13999938964844,41.4900016784668,42.349998474121094,42.16463851928711,336900
2020-12-02,42.0,43.150001525878906,40.9900016784668,42.65999984741211,42.47328186035156,266800
2020-12-03,42.970001220703125,45.810001373291016,42.970001220703125,43.52000045776367,43.32951736450195,233100
2020-12-04,43.560001373291016,46.79999923706055,43.560001373291016,46.11000061035156,45.90818405151367,437100
2020-12-07,45.869998931884766,47.31999969482422,45.38999938964844,46.13999938964844,45.938053131103516,343200
2020-12-08,46.209999084472656,49.130001068115234,45.81999969482422,49.0,48.7855339050293,448200
2020-12-09,49.70000076293945,50.61000061035156,48.36000061035156,49.29999923706055,49.08422088623047,374900
2020-12-10,48.88999938964844,51.959999084472656,48.38999938964844,51.84000015258789,51.613101959228516,339600
2020-12-11,51.45000076293945,52.869998931884766,50.77000045776367,52.5,52.27021408081055,239100
2020-12-14,52.88999938964844,53.88999938964844,52.35100173950195,53.63999938964844,53.40522384643555,344500
2020-12-15,52.68000030517578,57.13999938964844,52.68000030517578,56.720001220703125,56.471744537353516,476400
2020-12-16,52.34000015258789,52.564998626708984,47.529998779296875,47.790000915527344,47.580833435058594,3520700
2020-12-17,48.849998474121094,52.959999084472656,48.849998474121094,52.18000030517578,51.95161819458008,1148400
2020-12-18,52.220001220703125,53.290000915527344,51.15999984741211,51.52000045776367,51.29450225830078,1183800
2020-12-21,51.0,53.084999084472656,50.27000045776367,52.02000045776367,51.79231643676758,387400
2020-12-22,52.02000045776367,54.11000061035156,51.32500076293945,53.540000915527344,53.3056640625,474200
2020-12-23,53.900001525878906,56.20000076293945,53.560001373291016,54.38999938964844,54.151939392089844,404700
2020-12-24,54.720001220703125,57.13999938964844,54.470001220703125,57.0,56.750518798828125,251900
2020-12-28,58.31999969482422,60.41999816894531,53.619998931884766,54.619998931884766,54.38093566894531,532900
2020-12-29,54.630001068115234,55.494998931884766,51.540000915527344,52.900001525878906,52.66846466064453,331200
2020-12-30,53.2400016784668,55.29999923706055,53.040000915527344,54.56999969482422,54.331153869628906,290800
