Date,Open,High,Low,Close,Adj Close,Volume
2019-09-17,15.0,16.68000030517578,15.0,15.289999961853027,13.755859375,1592500
2019-09-18,15.322999954223633,15.5,15.229999542236328,15.449999809265137,13.899807929992676,169200
2019-09-19,15.59000015258789,15.729999542236328,15.40999984741211,15.602999687194824,14.037454605102539,132100
2019-09-20,15.649999618530273,15.760000228881836,15.460000038146973,15.460000038146973,13.90880012512207,37000
2019-09-23,15.5,15.550000190734863,15.460000038146973,15.470000267028809,13.917798042297363,54300
2019-09-24,15.5,15.720000267028809,15.399999618530273,15.670000076293945,14.097731590270996,102900
2019-09-25,15.670000076293945,15.6899995803833,15.529999732971191,15.649999618530273,14.079736709594727,87600
2019-09-26,15.6899995803833,15.890000343322754,15.640000343322754,15.829999923706055,14.241677284240723,87600
2019-09-27,15.890000343322754,16.0,15.850000381469727,15.960000038146973,14.358634948730469,72200
2019-09-30,15.899999618530273,16.0,15.760000228881836,15.800000190734863,14.214688301086426,70000
2019-10-01,15.880000114440918,15.9399995803833,15.807000160217285,15.899999618530273,14.304654121398926,39700
2019-10-02,15.880000114440918,16.0,15.843000411987305,16.0,14.394621849060059,52000
2019-10-03,15.9399995803833,16.0,15.770000457763672,15.890000343322754,14.295656204223633,45000
2019-10-04,15.899999618530273,16.0,15.822999954223633,15.890000343322754,14.295656204223633,14400
2019-10-07,15.890000343322754,15.942000389099121,15.670000076293945,15.699999809265137,14.12472152709961,41300
2019-10-08,15.789999961853027,15.9399995803833,15.699999809265137,15.9399995803833,14.340639114379883,22500
2019-10-09,15.989999771118164,16.18000030517578,15.800000190734863,16.0,14.394621849060059,27400
2019-10-10,15.95300006866455,15.95300006866455,15.699999809265137,15.8100004196167,14.223684310913086,46100
2019-10-11,15.949999809265137,15.989999771118164,15.699999809265137,15.949999809265137,14.34963607788086,44600
2019-10-14,15.949999809265137,15.949999809265137,15.732000350952148,15.9399995803833,14.340639114379883,12900
2019-10-15,15.9399995803833,16.030000686645508,15.90999984741211,15.954999923706055,14.354135513305664,10600
2019-10-16,15.984000205993652,16.040000915527344,15.899999618530273,15.920000076293945,14.322649002075195,24900
2019-10-17,15.569999694824219,15.569999694824219,15.15999984741211,15.25,13.71987247467041,288500
2019-10-18,15.380000114440918,15.390000343322754,15.25,15.300000190734863,13.76485538482666,85100
2019-10-21,15.289999961853027,15.289999961853027,15.069999694824219,15.149999618530273,13.629905700683594,135400
2019-10-22,15.1899995803833,15.289999961853027,15.119999885559082,15.149999618530273,13.629905700683594,117800
2019-10-23,15.1899995803833,15.229999542236328,15.079999923706055,15.149999618530273,13.629905700683594,106700
2019-10-24,15.1899995803833,15.1899995803833,15.029999732971191,15.029999732971191,13.52194595336914,74200
2019-10-25,15.069999694824219,15.199999809265137,15.020000457763672,15.100000381469727,13.584924697875977,59600
2019-10-28,15.109999656677246,15.140000343322754,15.029999732971191,15.0600004196167,13.548937797546387,73200
2019-10-29,15.100000381469727,15.279999732971191,15.045999526977539,15.220000267028809,13.69288444519043,82600
2019-10-30,15.15999984741211,15.34000015258789,15.15999984741211,15.319999694824219,13.782848358154297,108700
2019-10-31,15.300000190734863,15.390000343322754,15.1899995803833,15.390000343322754,13.845827102661133,66600
2019-11-01,15.300000190734863,15.329999923706055,15.199999809265137,15.300000190734863,13.76485538482666,104100
2019-11-04,15.289999961853027,15.34000015258789,15.270000457763672,15.289999961853027,13.755859375,48200
2019-11-05,15.289999961853027,15.289999961853027,15.210000038146973,15.25,13.71987247467041,94700
2019-11-06,15.270000457763672,15.420000076293945,15.260000228881836,15.390000343322754,13.845827102661133,103400
2019-11-07,15.399999618530273,15.550000190734863,15.369999885559082,15.380000114440918,13.83682632446289,86400
2019-11-08,15.329999923706055,15.53600025177002,15.210000038146973,15.220000267028809,13.69288444519043,71000
2019-11-11,15.229999542236328,15.456000328063965,15.210000038146973,15.345999717712402,13.80623722076416,57700
2019-11-12,15.34000015258789,15.34000015258789,15.029999732971191,15.149999618530273,13.629905700683594,268800
2019-11-13,15.180000305175781,15.300000190734863,15.149999618530273,15.180000305175781,13.656899452209473,85400
2019-11-14,15.180000305175781,15.399999618530273,15.180000305175781,15.329999923706055,13.850240707397461,64700
2019-11-15,15.300000190734863,15.550000190734863,15.300000190734863,15.5,14.003828048706055,149300
2019-11-18,15.279999732971191,15.5,15.279999732971191,15.399999618530273,13.913480758666992,152200
2019-11-19,15.380000114440918,15.470000267028809,15.180000305175781,15.350000381469727,13.868310928344727,160200
2019-11-20,15.390000343322754,15.5,15.270000457763672,15.5,14.003828048706055,86700
2019-11-21,15.420000076293945,15.5,15.279999732971191,15.420000076293945,13.931549072265625,66700
2019-11-22,15.34000015258789,15.5,15.25,15.390000343322754,13.904447555541992,64200
2019-11-25,15.3100004196167,15.489999771118164,15.220000267028809,15.270000457763672,13.796031951904297,146300
2019-11-26,15.390000343322754,15.479999542236328,15.279999732971191,15.390000343322754,13.904447555541992,141900
2019-11-27,15.329999923706055,15.449999809265137,15.25,15.3100004196167,13.832169532775879,129100
2019-11-29,15.3100004196167,15.3100004196167,15.25,15.289999961853027,13.814099311828613,15900
2019-12-02,15.3100004196167,15.387999534606934,15.270000457763672,15.279999732971191,13.80506420135498,51500
2019-12-03,15.369999885559082,15.5,15.25,15.4399995803833,13.949621200561523,138300
2019-12-04,15.369999885559082,15.480999946594238,15.369999885559082,15.449999809265137,13.958657264709473,65600
2019-12-05,15.5,15.5,15.315999984741211,15.449999809265137,13.958657264709473,89500
2019-12-06,15.369999885559082,15.5,15.300000190734863,15.34000015258789,13.859273910522461,71300
2019-12-09,15.350000381469727,15.4399995803833,15.350000381469727,15.359999656677246,13.87734317779541,37400
2019-12-10,15.399999618530273,15.449999809265137,15.350000381469727,15.392000198364258,13.906253814697266,73200
2019-12-11,15.380000114440918,15.5,15.380000114440918,15.4399995803833,13.949621200561523,77800
2019-12-12,15.489999771118164,15.5,15.369999885559082,15.40999984741211,13.980467796325684,36500
2019-12-13,15.399999618530273,15.550000190734863,15.399999618530273,15.550000190734863,14.107479095458984,98600
2019-12-16,15.550000190734863,15.550000190734863,15.350000381469727,15.350000381469727,13.926033973693848,42700
2019-12-17,15.449999809265137,15.449999809265137,15.350000381469727,15.449999809265137,14.016757011413574,72800
2019-12-18,15.449999809265137,15.449999809265137,15.369999885559082,15.420000076293945,13.989540100097656,45500
2019-12-19,15.479999542236328,15.520000457763672,15.383999824523926,15.4399995803833,14.007683753967285,121700
2019-12-20,15.399999618530273,15.489999771118164,15.390000343322754,15.489999771118164,14.053049087524414,32300
2019-12-23,15.40999984741211,15.45199966430664,15.369999885559082,15.40999984741211,13.980467796325684,67500
2019-12-24,15.460000038146973,15.460000038146973,15.369999885559082,15.399999618530273,13.971393585205078,15700
2019-12-26,15.399999618530273,15.399999618530273,15.300000190734863,15.329999923706055,13.90788745880127,95700
2019-12-27,15.380000114440918,15.449999809265137,15.25,15.300000190734863,13.8806734085083,79100
2019-12-30,15.350000381469727,15.359999656677246,15.279999732971191,15.279999732971191,13.862524032592773,56100
2019-12-31,15.359999656677246,15.489999771118164,15.279999732971191,15.489999771118164,14.053049087524414,94500
2020-01-02,15.460000038146973,15.5,15.369999885559082,15.5,14.062118530273438,34400
2020-01-03,15.5,15.539999961853027,15.40999984741211,15.5,14.062118530273438,144900
2020-01-06,15.569999694824219,15.949999809265137,15.569999694824219,15.920000076293945,14.443157196044922,117400
2020-01-07,15.930000305175781,15.930000305175781,15.699999809265137,15.739999771118164,14.279855728149414,117600
2020-01-08,15.65999984741211,15.907999992370605,15.5,15.520000457763672,14.0802640914917,135200
2020-01-09,15.550000190734863,15.694999694824219,15.520000457763672,15.609999656677246,14.161913871765137,135800
2020-01-10,15.789999961853027,15.869999885559082,15.557000160217285,15.630000114440918,14.18005657196045,87200
2020-01-13,15.619999885559082,15.699999809265137,15.470000267028809,15.529999732971191,14.089334487915039,127000
2020-01-14,15.5,15.600000381469727,15.369999885559082,15.470000267028809,14.092977523803711,205300
2020-01-15,15.470000267028809,15.579999923706055,15.430000305175781,15.470000267028809,14.092977523803711,84900
2020-01-16,15.539999961853027,15.569999694824219,15.4399995803833,15.529999732971191,14.147635459899902,84600
2020-01-17,15.470000267028809,15.59000015258789,15.470000267028809,15.569999694824219,14.184080123901367,60400
2020-01-21,15.710000038146973,15.739999771118164,15.5,15.600000381469727,14.211409568786621,103200
2020-01-22,15.569999694824219,15.670000076293945,15.449999809265137,15.569999694824219,14.184080123901367,426500
2020-01-23,15.569999694824219,15.619999885559082,15.5,15.529999732971191,14.147635459899902,73700
2020-01-24,15.529999732971191,15.59000015258789,15.520000457763672,15.520000457763672,14.138526916503906,120500
2020-01-27,15.630000114440918,15.640000343322754,15.545000076293945,15.59000015258789,14.202298164367676,70300
2020-01-28,15.619999885559082,15.649999618530273,15.550000190734863,15.600000381469727,14.211409568786621,137800
2020-01-29,15.640000343322754,15.640000343322754,15.569999694824219,15.59000015258789,14.202298164367676,142700
2020-01-30,15.630000114440918,15.630000114440918,15.579999923706055,15.59000015258789,14.202298164367676,48500
2020-01-31,15.640000343322754,15.649999618530273,15.600000381469727,15.630000114440918,14.238737106323242,62100
2020-02-03,15.630000114440918,15.699999809265137,15.626999855041504,15.6899995803833,14.2933988571167,89100
2020-02-04,15.6899995803833,15.6899995803833,15.630000114440918,15.6899995803833,14.2933988571167,68000
2020-02-05,15.699999809265137,15.699999809265137,15.600000381469727,15.640000343322754,14.247848510742188,87800
2020-02-06,15.630000114440918,15.699999809265137,15.609999656677246,15.699999809265137,14.302506446838379,62200
2020-02-07,15.6899995803833,15.8100004196167,15.6899995803833,15.800000190734863,14.393606185913086,77200
2020-02-10,15.760000228881836,15.819999694824219,15.699999809265137,15.819999694824219,14.411825180053711,75700
2020-02-11,15.829999923706055,15.829999923706055,15.680000305175781,15.720000267028809,14.32072639465332,67800
2020-02-12,15.720000267028809,15.770000457763672,15.699999809265137,15.75,14.348055839538574,88300
2020-02-13,15.6899995803833,15.75,15.670000076293945,15.710000038146973,14.37000846862793,72600
2020-02-14,15.6899995803833,15.75,15.6899995803833,15.720000267028809,14.379156112670898,46100
2020-02-18,15.729999542236328,15.789999961853027,15.600000381469727,15.649999618530273,14.31512451171875,155000
2020-02-19,15.649999618530273,15.699999809265137,15.600000381469727,15.670000076293945,14.333422660827637,157900
2020-02-20,15.729999542236328,15.779999732971191,15.678999900817871,15.779999732971191,14.434039115905762,118300
2020-02-21,15.789999961853027,15.819999694824219,15.729999542236328,15.75,14.406596183776855,117700
2020-02-24,15.779999732971191,15.880000114440918,15.6899995803833,15.760000228881836,14.415742874145508,224000
2020-02-25,15.760000228881836,15.819999694824219,15.40999984741211,15.529999732971191,14.205360412597656,434900
2020-02-26,15.609999656677246,15.630000114440918,15.40999984741211,15.4399995803833,14.123039245605469,244700
2020-02-27,15.430000305175781,15.520000457763672,15.1899995803833,15.300000190734863,13.994978904724121,276700
2020-02-28,15.279999732971191,15.380000114440918,15.109999656677246,15.300000190734863,13.994978904724121,262400
2020-03-02,15.4399995803833,15.84000015258789,15.380000114440918,15.75,14.406596183776855,256900
2020-03-03,15.859999656677246,15.960000038146973,15.609999656677246,15.800000190734863,14.452332496643066,208100
2020-03-04,15.739999771118164,15.800000190734863,15.619999885559082,15.770000457763672,14.424890518188477,120200
2020-03-05,15.699999809265137,15.789999961853027,15.630000114440918,15.65999984741211,14.324272155761719,105300
2020-03-06,15.670000076293945,15.670000076293945,15.369999885559082,15.569999694824219,14.241951942443848,125200
2020-03-09,15.380000114440918,15.680000305175781,15.25,15.319999694824219,14.013273239135742,289900
2020-03-10,15.34000015258789,15.960000038146973,15.109999656677246,15.170000076293945,13.876065254211426,391800
2020-03-11,15.140000343322754,15.25,14.930000305175781,15.029999732971191,13.748008728027344,369200
2020-03-12,14.640000343322754,14.649999618530273,13.029999732971191,13.649999618530273,12.539111137390137,471800
2020-03-13,14.0,14.3100004196167,13.029999732971191,13.399999618530273,12.309455871582031,350500
2020-03-16,12.0,12.739999771118164,11.42199993133545,12.140000343322754,11.15200138092041,351800
2020-03-17,12.399999618530273,12.729999542236328,11.40999984741211,11.920000076293945,10.949902534484863,273500
2020-03-18,11.050000190734863,11.5,9.220000267028809,11.0,10.104778289794922,315800
2020-03-19,10.75,11.720000267028809,9.890000343322754,11.010000228881836,10.11396312713623,421300
2020-03-20,11.0,11.390999794006348,10.529999732971191,10.579999923706055,9.71895980834961,363100
2020-03-23,10.270000457763672,10.5,9.109999656677246,9.119999885559082,8.377779006958008,419800
2020-03-24,9.670000076293945,11.100000381469727,9.569999694824219,10.899999618530273,10.01291275024414,299400
2020-03-25,10.609999656677246,12.664999961853027,10.609999656677246,12.649999618530273,11.62049388885498,471000
2020-03-26,12.319999694824219,13.729999542236328,12.130000114440918,13.4399995803833,12.34620189666748,322300
2020-03-27,13.390000343322754,13.489999771118164,12.260000228881836,13.449999809265137,12.355387687683105,205900
2020-03-30,13.220000267028809,13.640000343322754,13.170000076293945,13.640000343322754,12.529924392700195,176000
2020-03-31,13.59000015258789,13.890000343322754,12.949999809265137,12.949999809265137,11.896078109741211,299000
2020-04-01,12.9399995803833,12.979999542236328,11.9399995803833,12.3100004196167,11.308165550231934,146500
2020-04-02,12.100000381469727,12.270000457763672,11.75,11.859999656677246,10.894787788391113,142400
2020-04-03,11.859999656677246,12.100000381469727,11.5,11.6899995803833,10.738621711730957,97600
2020-04-06,11.6899995803833,12.0,10.760000228881836,11.350000381469727,10.42629337310791,254600
2020-04-07,11.369999885559082,11.399999618530273,11.0,11.0,10.104778289794922,209500
2020-04-08,11.09000015258789,11.420000076293945,10.84000015258789,11.210000038146973,10.297688484191895,268100
2020-04-09,11.449999809265137,12.279999732971191,11.3100004196167,11.329999923706055,10.407922744750977,331600
2020-04-13,11.350000381469727,11.569999694824219,11.050000190734863,11.5,10.564085960388184,136200
2020-04-14,11.75,12.300000190734863,11.579999923706055,11.949999809265137,11.028289794921875,232500
2020-04-15,12.0,12.100000381469727,11.510000228881836,11.649999618530273,10.75142765045166,205900
2020-04-16,11.699999809265137,11.75,11.1899995803833,11.300000190734863,10.428423881530762,246100
2020-04-17,11.460000038146973,11.75,11.300000190734863,11.550000190734863,10.659141540527344,111300
2020-04-20,11.539999961853027,11.550000190734863,11.281000137329102,11.420000076293945,10.539167404174805,80000
2020-04-21,11.300000190734863,11.5,11.25,11.300000190734863,10.428423881530762,91300
2020-04-22,11.5,11.5,11.100000381469727,11.15999984741211,10.299221992492676,109000
2020-04-23,11.15999984741211,11.23900032043457,10.970000267028809,10.989999771118164,10.142334938049316,116400
2020-04-24,10.960000038146973,11.390000343322754,10.510000228881836,10.680000305175781,9.856243133544922,232500
2020-04-27,10.5,10.65999984741211,10.449999809265137,10.600000381469727,9.782414436340332,203800
2020-04-28,10.710000038146973,11.112000465393066,10.65999984741211,10.770000457763672,9.939305305480957,173200
2020-04-29,10.680000305175781,11.210000038146973,10.680000305175781,10.979999542236328,10.133105278015137,181100
2020-04-30,10.960000038146973,11.229999542236328,10.65999984741211,11.069999694824219,10.216164588928223,168900
2020-05-01,11.220000267028809,11.300000190734863,11.0600004196167,11.300000190734863,10.428423881530762,102300
2020-05-04,11.130000114440918,11.380000114440918,10.850000381469727,11.199999809265137,10.336137771606445,99000
2020-05-05,11.25,11.25,11.0600004196167,11.149999618530273,10.289994239807129,75700
2020-05-06,11.09000015258789,11.239999771118164,10.930000305175781,11.100000381469727,10.243849754333496,96300
2020-05-07,11.170000076293945,11.229999542236328,10.699999809265137,10.760000228881836,9.930074691772461,356900
2020-05-08,10.949999809265137,10.960000038146973,10.770999908447266,10.850000381469727,10.013131141662598,129000
2020-05-11,10.739999771118164,10.949999809265137,10.739999771118164,10.930000305175781,10.086963653564453,84400
2020-05-12,10.930000305175781,10.949999809265137,10.779999732971191,10.850000381469727,10.013131141662598,132000
2020-05-13,10.850000381469727,10.899999618530273,10.520000457763672,10.699999809265137,9.874702453613281,137800
2020-05-14,10.59000015258789,10.720000267028809,10.385000228881836,10.720000267028809,9.942405700683594,72400
2020-05-15,10.789999961853027,10.789999961853027,10.567999839782715,10.760000228881836,9.979504585266113,67200
2020-05-18,10.8100004196167,10.8100004196167,10.529999732971191,10.609999656677246,9.840385437011719,105600
2020-05-19,10.5600004196167,10.670000076293945,10.460000038146973,10.529999732971191,9.766189575195312,158900
2020-05-20,10.550000190734863,10.949999809265137,10.550000190734863,10.949999809265137,10.155723571777344,81100
2020-05-21,10.859999656677246,11.029999732971191,10.800000190734863,10.949999809265137,10.155723571777344,94900
2020-05-22,10.949999809265137,11.029999732971191,10.845000267028809,10.850000381469727,10.06297492980957,97200
2020-05-26,10.989999771118164,11.1899995803833,10.937000274658203,11.15999984741211,10.35049057006836,96800
2020-05-27,11.15999984741211,11.390000343322754,11.15999984741211,11.390000343322754,10.56380844116211,178800
2020-05-28,11.449999809265137,11.630000114440918,11.260000228881836,11.470000267028809,10.638004302978516,133800
2020-05-29,11.520000457763672,11.789999961853027,11.520000457763672,11.75,10.897693634033203,123300
2020-06-01,11.850000381469727,12.0,11.710000038146973,11.899999618530273,11.036813735961914,82300
2020-06-02,11.970000267028809,11.970000267028809,11.649999618530273,11.729999542236328,10.879145622253418,76200
2020-06-03,11.729999542236328,11.90999984741211,11.61299991607666,11.729999542236328,10.879145622253418,63700
2020-06-04,11.609999656677246,11.800000190734863,11.550000190734863,11.65999984741211,10.81421947479248,125200
2020-06-05,11.680000305175781,11.79699993133545,11.479999542236328,11.739999771118164,10.888420104980469,253600
2020-06-08,11.859999656677246,11.989999771118164,11.739999771118164,11.829999923706055,10.971891403198242,122800
2020-06-09,11.789999961853027,12.008000373840332,11.619999885559082,11.670000076293945,10.823495864868164,168500
2020-06-10,11.680000305175781,11.930000305175781,11.680000305175781,11.859999656677246,10.999714851379395,172700
2020-06-11,11.779999732971191,11.930000305175781,11.6899995803833,11.739999771118164,10.888420104980469,134900
2020-06-12,11.819999694824219,11.850000381469727,11.649999618530273,11.8100004196167,11.003016471862793,41200
2020-06-15,11.710000038146973,12.0,11.699999809265137,11.71500015258789,10.914505958557129,86900
2020-06-16,11.800000190734863,11.918999671936035,11.739999771118164,11.739999771118164,10.937797546386719,61800
2020-06-17,11.800000190734863,11.9399995803833,11.520000457763672,11.649999618530273,10.853946685791016,176800
2020-06-18,11.65999984741211,11.819999694824219,11.550000190734863,11.739999771118164,10.937797546386719,119700
2020-06-19,11.670000076293945,11.765000343322754,11.600000381469727,11.609999656677246,10.816681861877441,126600
2020-06-22,11.609999656677246,11.880000114440918,11.609999656677246,11.720000267028809,10.91916561126709,122800
2020-06-23,11.729999542236328,11.890000343322754,11.699999809265137,11.829999923706055,11.021648406982422,125800
2020-06-24,11.75,11.800000190734863,11.560999870300293,11.729999542236328,10.92848014831543,113100
2020-06-25,11.680000305175781,11.869999885559082,11.680000305175781,11.850000381469727,11.040283203125,117400
2020-06-26,11.75,11.850000381469727,11.75,11.8100004196167,11.003016471862793,63200
2020-06-29,11.789999961853027,11.894000053405762,11.75,11.815999984741211,11.00860595703125,69300
2020-06-30,11.789999961853027,11.989999771118164,11.789999961853027,11.880000114440918,11.068230628967285,129300
2020-07-01,11.949999809265137,11.949999809265137,11.850000381469727,11.949999809265137,11.133447647094727,82900
2020-07-02,11.960000038146973,12.470000267028809,11.960000038146973,12.079999923706055,11.254565238952637,505500
2020-07-06,12.109999656677246,12.5600004196167,12.109999656677246,12.5600004196167,11.701766967773438,106000
2020-07-07,12.539999961853027,12.800000190734863,12.399999618530273,12.800000190734863,11.925366401672363,183900
2020-07-08,12.90999984741211,12.90999984741211,12.720000267028809,12.779999732971191,11.906733512878418,191800
2020-07-09,12.729999542236328,12.869999885559082,12.729999542236328,12.869999885559082,11.990583419799805,62100
2020-07-10,12.899999618530273,13.140000343322754,12.75,13.039999961853027,12.148969650268555,119100
2020-07-13,13.039999961853027,13.039999961853027,12.869999885559082,12.960000038146973,12.074435234069824,86500
2020-07-14,12.949999809265137,13.039999961853027,12.729999542236328,12.819999694824219,12.001416206359863,99600
2020-07-15,12.819999694824219,12.875,12.430000305175781,12.699999809265137,11.889077186584473,135200
2020-07-16,12.649999618530273,12.777000427246094,12.649999618530273,12.720000267028809,11.907800674438477,147600
2020-07-17,12.670000076293945,12.829999923706055,12.670000076293945,12.829999923706055,12.01077651977539,43000
2020-07-20,12.859999656677246,12.979999542236328,12.760000228881836,12.979999542236328,12.151198387145996,108300
2020-07-21,12.970000267028809,13.029999732971191,12.90999984741211,12.960000038146973,12.132477760314941,93600
2020-07-22,12.9399995803833,13.005000114440918,12.850000381469727,12.899999618530273,12.076306343078613,165300
2020-07-23,12.899999618530273,12.968999862670898,12.699999809265137,12.84000015258789,12.02013874053955,85600
2020-07-24,12.899999618530273,12.920000076293945,12.789999961853027,12.885000228881836,12.062263488769531,84500
2020-07-27,12.859999656677246,12.989999771118164,12.8100004196167,12.90999984741211,12.08566665649414,115200
2020-07-28,12.949999809265137,13.050000190734863,12.90999984741211,13.029999732971191,12.198006629943848,98500
2020-07-29,12.979999542236328,13.0600004196167,12.920000076293945,13.029999732971191,12.198006629943848,211500
2020-07-30,13.050000190734863,13.050000190734863,12.819999694824219,12.930000305175781,12.104392051696777,175600
2020-07-31,12.930000305175781,12.989999771118164,12.819999694824219,12.869999885559082,12.048221588134766,113300
2020-08-03,12.920000076293945,13.039999961853027,12.859999656677246,12.930000305175781,12.104392051696777,76000
2020-08-04,12.90999984741211,13.130000114440918,12.90999984741211,13.114999771118164,12.277580261230469,113400
2020-08-05,13.029999732971191,13.130000114440918,13.029999732971191,13.050000190734863,12.216729164123535,117700
2020-08-06,13.039999961853027,13.15999984741211,13.010000228881836,13.15999984741211,12.319703102111816,69300
2020-08-07,13.100000381469727,13.192000389099121,13.079999923706055,13.149999618530273,12.310342788696289,67500
2020-08-10,13.149999618530273,13.319000244140625,13.137999534606934,13.270000457763672,12.42268180847168,106500
2020-08-11,13.329999923706055,13.493000030517578,13.220000267028809,13.289999961853027,12.44140338897705,78000
2020-08-12,13.289999961853027,13.289999961853027,13.100000381469727,13.180000305175781,12.338428497314453,80000
2020-08-13,13.199999809265137,13.260000228881836,12.880000114440918,13.039999961853027,12.265063285827637,141500
2020-08-14,13.109999656677246,13.109999656677246,12.989999771118164,13.029999732971191,12.255659103393555,65200
2020-08-17,12.989999771118164,13.020000457763672,12.739999771118164,12.880000114440918,12.114572525024414,252000
2020-08-18,12.920000076293945,13.020000457763672,12.84000015258789,13.020000457763672,12.246253967285156,112600
2020-08-19,12.949999809265137,13.020000457763672,12.946000099182129,12.970000267028809,12.199224472045898,76300
2020-08-20,13.020000457763672,13.020000457763672,12.890000343322754,12.899999618530273,12.133383750915527,78200
2020-08-21,12.989999771118164,12.989999771118164,12.720000267028809,12.899999618530273,12.133383750915527,140600
2020-08-24,12.899999618530273,12.899999618530273,12.770000457763672,12.880000114440918,12.114572525024414,109200
2020-08-25,12.890000343322754,12.960000038146973,12.800000190734863,12.850000381469727,12.086353302001953,164700
2020-08-26,12.84000015258789,12.989999771118164,12.800000190734863,12.869999885559082,12.105165481567383,156600
2020-08-27,12.859999656677246,12.949999809265137,12.699999809265137,12.770000457763672,12.011110305786133,99200
2020-08-28,12.720000267028809,12.829999923706055,12.699999809265137,12.75,11.99229907989502,89300
2020-08-31,12.770000457763672,12.970000267028809,12.649999618530273,12.970000267028809,12.199224472045898,50600
2020-09-01,12.970000267028809,12.979999542236328,12.890000343322754,12.920000076293945,12.152194023132324,88900
2020-09-02,12.979999542236328,12.979999542236328,12.90999984741211,12.930000305175781,12.161602020263672,53500
2020-09-03,12.930000305175781,13.010000228881836,12.835000038146973,12.920000076293945,12.152194023132324,138000
2020-09-04,12.960000038146973,12.960000038146973,12.779999732971191,12.90999984741211,12.142786979675293,49100
2020-09-08,12.960000038146973,12.960000038146973,12.720000267028809,12.8100004196167,12.048731803894043,58600
2020-09-09,12.90999984741211,12.90999984741211,12.680000305175781,12.850000381469727,12.086353302001953,94300
2020-09-10,12.899999618530273,12.986000061035156,12.850000381469727,12.9399995803833,12.171006202697754,39400
2020-09-11,12.890000343322754,13.029999732971191,12.890000343322754,13.029999732971191,12.255659103393555,73000
2020-09-14,12.920000076293945,12.970000267028809,12.800000190734863,12.890000343322754,12.181943893432617,38400
2020-09-15,12.890000343322754,12.920000076293945,12.779999732971191,12.84000015258789,12.134690284729004,78900
2020-09-16,12.829999923706055,12.890000343322754,12.65999984741211,12.789999961853027,12.087435722351074,113200
2020-09-17,12.800000190734863,12.800000190734863,12.460000038146973,12.460000038146973,11.77556324005127,241800
2020-09-18,12.460000038146973,12.53600025177002,12.289999961853027,12.4399995803833,11.756659507751465,143800
2020-09-21,12.350000381469727,12.460000038146973,12.260000228881836,12.390000343322754,11.7094087600708,163800
2020-09-22,12.399999618530273,12.4399995803833,12.335000038146973,12.390000343322754,11.7094087600708,84300
2020-09-23,12.399999618530273,12.539999961853027,11.729999542236328,12.15999984741211,11.492042541503906,132200
2020-09-24,12.149999618530273,12.289999961853027,12.100000381469727,12.119999885559082,11.454238891601562,130800
2020-09-25,12.149999618530273,12.260000228881836,12.149999618530273,12.1899995803833,11.520392417907715,86500
2020-09-28,12.199999809265137,12.5,12.199999809265137,12.40999984741211,11.728309631347656,130600
2020-09-29,12.350000381469727,12.510000228881836,12.239999771118164,12.470000267028809,11.785014152526855,60500
2020-09-30,12.420000076293945,12.600000381469727,12.34000015258789,12.600000381469727,11.907872200012207,49600
2020-10-01,12.59000015258789,12.729999542236328,12.430000305175781,12.720000267028809,12.021279335021973,84500
2020-10-02,12.569999694824219,12.779999732971191,12.529999732971191,12.744999885559082,12.044906616210938,66200
2020-10-05,12.65999984741211,12.699999809265137,12.600000381469727,12.600000381469727,11.907872200012207,57200
2020-10-06,12.630000114440918,12.699999809265137,12.579999923706055,12.640000343322754,11.945674896240234,58200
2020-10-07,12.649999618530273,12.670000076293945,12.5,12.510000228881836,11.822816848754883,147700
2020-10-08,12.510000228881836,12.600000381469727,12.3100004196167,12.3100004196167,11.633803367614746,131400
2020-10-09,12.34000015258789,12.413000106811523,12.3100004196167,12.350000381469727,11.671605110168457,75600
2020-10-12,12.430000305175781,12.449999809265137,12.270000457763672,12.300000190734863,11.624351501464844,100900
2020-10-13,12.329999923706055,12.350000381469727,12.22599983215332,12.34000015258789,11.662154197692871,79500
2020-10-14,12.239999771118164,12.279999732971191,12.149999618530273,12.25,11.63555908203125,87500
2020-10-15,12.1899995803833,12.350000381469727,12.050000190734863,12.1899995803833,11.578568458557129,137500
2020-10-16,12.180000305175781,12.199999809265137,12.050000190734863,12.0600004196167,11.45508861541748,154000
2020-10-19,12.100000381469727,12.225000381469727,12.010000228881836,12.1899995803833,11.578568458557129,286900
2020-10-20,12.15999984741211,12.260000228881836,12.100000381469727,12.220000267028809,11.607063293457031,91200
2020-10-21,12.289999961853027,12.3100004196167,12.199999809265137,12.289999961853027,11.673552513122559,128200
2020-10-22,12.229999542236328,12.300000190734863,12.199999809265137,12.220000267028809,11.607063293457031,88700
2020-10-23,12.15999984741211,12.199999809265137,12.069999694824219,12.109999656677246,11.502579689025879,146000
2020-10-26,12.079999923706055,12.100000381469727,11.819999694824219,11.890000343322754,11.29361629486084,251100
2020-10-27,11.899999618530273,11.970000267028809,11.739999771118164,11.739999771118164,11.151139259338379,296700
2020-10-28,11.600000381469727,11.729999542236328,11.600000381469727,11.630000114440918,11.04665756225586,287800
2020-10-29,11.670000076293945,11.720000267028809,11.619999885559082,11.630000114440918,11.04665756225586,165900
2020-10-30,11.619999885559082,11.729999542236328,11.5600004196167,11.680000305175781,11.094148635864258,233900
2020-11-02,11.8100004196167,11.859999656677246,11.670000076293945,11.800000190734863,11.208130836486816,161600
2020-11-03,11.779999732971191,11.90999984741211,11.779999732971191,11.880000114440918,11.284117698669434,102900
2020-11-04,11.930000305175781,12.1899995803833,11.90999984741211,12.1899995803833,11.578568458557129,93900
2020-11-05,12.239999771118164,12.25,12.09000015258789,12.229999542236328,11.616560935974121,141300
2020-11-06,12.229999542236328,12.279999732971191,12.170000076293945,12.229999542236328,11.616560935974121,65900
2020-11-09,12.270000457763672,12.329999923706055,12.199999809265137,12.279999732971191,11.664052963256836,200300
2020-11-10,12.277999877929688,12.319999694824219,12.199999809265137,12.319999694824219,11.702047348022461,87500
2020-11-11,12.279999732971191,12.430000305175781,12.260000228881836,12.390000343322754,11.768535614013672,145800
2020-11-12,12.3100004196167,12.4399995803833,12.199999809265137,12.260000228881836,11.703622817993164,147000
2020-11-13,12.239999771118164,12.380000114440918,12.1899995803833,12.220000267028809,11.665438652038574,512100
2020-11-16,12.229999542236328,12.293999671936035,12.187999725341797,12.210000038146973,11.655892372131348,159600
2020-11-17,12.260000228881836,12.270000457763672,12.149999618530273,12.199999809265137,11.646344184875488,173000
2020-11-18,12.1899995803833,12.260000228881836,12.180000305175781,12.199999809265137,11.646344184875488,219300
2020-11-19,12.25,12.390000343322754,12.229999542236328,12.380000114440918,11.8181791305542,309500
2020-11-20,12.350000381469727,12.449999809265137,12.300000190734863,12.449999809265137,11.885001182556152,269600
2020-11-23,12.5,12.59000015258789,12.470000267028809,12.5600004196167,11.990006446838379,216400
2020-11-24,12.579999923706055,12.65999984741211,12.510000228881836,12.600000381469727,12.028193473815918,296000
2020-11-25,12.550000190734863,12.630000114440918,12.4399995803833,12.569999694824219,11.999552726745605,165400
2020-11-27,12.579999923706055,12.609999656677246,12.5600004196167,12.59000015258789,12.018646240234375,124200
2020-11-30,12.640000343322754,12.720000267028809,12.550000190734863,12.720000267028809,12.14274787902832,272800
2020-12-01,12.789999961853027,12.899999618530273,12.65999984741211,12.890000343322754,12.305032730102539,341400
2020-12-02,12.9399995803833,12.960000038146973,12.699999809265137,12.819999694824219,12.23820972442627,289600
2020-12-03,12.800000190734863,12.899999618530273,12.75,12.829999923706055,12.24775505065918,303600
2020-12-04,12.789999961853027,13.079999923706055,12.75,12.869999885559082,12.28593921661377,305900
2020-12-07,12.859999656677246,13.09000015258789,12.859999656677246,12.899999618530273,12.314579010009766,306800
2020-12-08,12.949999809265137,13.100000381469727,12.850000381469727,12.979999542236328,12.390947341918945,308300
2020-12-09,13.0,13.100000381469727,12.90999984741211,12.930000305175781,12.343217849731445,376700
2020-12-10,12.890000343322754,13.020000457763672,12.800000190734863,13.0,12.410039901733398,458500
2020-12-11,13.0,13.050000190734863,12.90999984741211,13.010000228881836,12.419586181640625,241300
2020-12-14,12.920000076293945,13.0,12.84000015258789,12.869999885559082,12.344769477844238,348000
2020-12-15,12.869999885559082,12.979999542236328,12.819999694824219,12.899999618530273,12.37354564666748,466600
2020-12-16,12.880000114440918,12.949999809265137,12.84000015258789,12.90999984741211,12.383138656616211,624100
2020-12-17,12.890000343322754,12.90999984741211,12.779999732971191,12.800000190734863,12.27762508392334,454500
2020-12-18,12.789999961853027,12.869999885559082,12.710000038146973,12.819999694824219,12.2968111038208,538800
2020-12-21,12.739999771118164,12.819999694824219,12.720000267028809,12.779999732971191,12.258442878723145,705500
2020-12-22,12.770000457763672,12.833000183105469,12.729999542236328,12.760000228881836,12.239258766174316,523200
2020-12-23,12.75,12.779999732971191,12.729999542236328,12.770000457763672,12.248852729797363,411600
2020-12-24,12.789999961853027,12.819999694824219,12.739999771118164,12.770000457763672,12.248852729797363,312100
2020-12-28,12.779999732971191,12.819999694824219,12.720000267028809,12.75,12.229667663574219,950300
2020-12-29,12.75,12.819999694824219,12.640000343322754,12.789999961853027,12.268035888671875,865200
2020-12-30,12.800000190734863,12.890000343322754,12.760000228881836,12.880000114440918,12.354362487792969,506600
