Date,Open,High,Low,Close,Adj Close,Volume
2017-03-16,14.100000381469727,15.0,14.0,14.75,14.75,1748600
2017-03-17,14.899999618530273,14.899999618530273,14.3100004196167,14.449999809265137,14.449999809265137,132900
2017-03-20,14.729999542236328,14.729999542236328,14.25,14.489999771118164,14.489999771118164,159600
2017-03-21,14.550000190734863,14.649999618530273,14.399999618530273,14.399999618530273,14.399999618530273,93000
2017-03-22,14.449999809265137,14.670000076293945,14.300000190734863,14.510000228881836,14.510000228881836,180300
2017-03-23,14.510000228881836,14.600000381469727,14.359999656677246,14.390000343322754,14.390000343322754,129600
2017-03-24,14.329999923706055,14.550000190734863,14.319999694824219,14.40999984741211,14.40999984741211,113600
2017-03-27,14.329000473022461,14.539999961853027,14.329000473022461,14.529999732971191,14.529999732971191,59000
2017-03-28,14.510000228881836,14.59000015258789,14.420000076293945,14.529999732971191,14.529999732971191,56300
2017-03-29,14.460000038146973,14.59000015258789,14.399999618530273,14.520000457763672,14.520000457763672,53400
2017-03-30,14.520000457763672,14.75,14.5,14.6899995803833,14.6899995803833,164100
2017-03-31,14.75,14.930000305175781,14.680000305175781,14.930000305175781,14.930000305175781,104100
2017-04-03,14.84000015258789,15.75,14.819999694824219,15.25,15.25,62900
2017-04-04,15.489999771118164,15.699999809265137,15.100000381469727,15.359999656677246,15.359999656677246,46900
2017-04-05,15.420000076293945,15.489999771118164,15.15999984741211,15.34000015258789,15.34000015258789,25700
2017-04-06,15.390000343322754,15.399999618530273,15.22700023651123,15.279999732971191,15.279999732971191,32900
2017-04-07,15.45199966430664,15.45199966430664,15.199999809265137,15.399999618530273,15.399999618530273,19300
2017-04-10,15.300000190734863,15.699999809265137,15.289999961853027,15.6899995803833,15.6899995803833,19300
2017-04-11,15.600000381469727,16.299999237060547,15.600000381469727,15.930000305175781,15.930000305175781,64800
2017-04-12,15.989999771118164,15.989999771118164,15.399999618530273,15.470000267028809,15.470000267028809,17900
2017-04-13,15.449999809265137,15.75,15.260000228881836,15.739999771118164,15.739999771118164,26500
2017-04-17,15.75,15.75,15.5,15.699999809265137,15.699999809265137,22800
2017-04-18,15.75,16.0,15.0,15.819999694824219,15.819999694824219,43100
2017-04-19,15.989999771118164,15.989999771118164,15.520000457763672,15.529999732971191,15.529999732971191,8400
2017-04-20,15.850000381469727,15.850000381469727,15.130000114440918,15.34000015258789,15.34000015258789,37300
2017-04-21,15.350000381469727,15.649999618530273,15.350000381469727,15.59000015258789,15.59000015258789,54100
2017-04-24,15.649999618530273,15.649999618530273,15.449999809265137,15.640000343322754,15.640000343322754,10800
2017-04-25,15.649999618530273,15.989999771118164,15.593999862670898,15.90999984741211,15.90999984741211,22600
2017-04-26,15.869999885559082,16.040000915527344,15.359999656677246,15.579999923706055,15.579999923706055,14000
2017-04-27,15.600000381469727,15.880000114440918,15.430000305175781,15.770000457763672,15.770000457763672,33300
2017-04-28,15.779999732971191,15.890000343322754,15.604999542236328,15.710000038146973,15.710000038146973,11200
2017-05-01,15.604000091552734,15.779999732971191,15.5,15.550000190734863,15.550000190734863,8100
2017-05-02,15.5,15.710000038146973,15.399999618530273,15.399999618530273,15.399999618530273,4000
2017-05-03,15.6899995803833,15.729999542236328,15.399999618530273,15.729999542236328,15.729999542236328,6700
2017-05-04,15.520000457763672,15.75,15.069999694824219,15.579999923706055,15.579999923706055,37100
2017-05-05,15.720000267028809,15.75,15.569999694824219,15.720000267028809,15.720000267028809,6900
2017-05-08,15.729999542236328,15.95300006866455,15.319999694824219,15.819999694824219,15.819999694824219,14400
2017-05-09,15.760000228881836,16.0,15.62399959564209,16.0,16.0,21500
2017-05-10,15.729999542236328,15.904999732971191,15.710000038146973,15.75,15.75,13000
2017-05-11,15.569999694824219,16.290000915527344,15.5,16.049999237060547,16.049999237060547,29500
2017-05-12,16.049999237060547,16.049999237060547,15.699999809265137,15.850000381469727,15.850000381469727,10800
2017-05-15,15.75,16.049999237060547,15.75,15.960000038146973,15.960000038146973,14500
2017-05-16,16.030000686645508,16.25,16.0,16.239999771118164,16.239999771118164,35700
2017-05-17,16.209999084472656,16.209999084472656,15.920000076293945,15.989999771118164,15.989999771118164,19000
2017-05-18,15.989999771118164,16.170000076293945,15.90999984741211,16.170000076293945,16.170000076293945,32500
2017-05-19,16.280000686645508,16.350000381469727,16.059999465942383,16.350000381469727,16.350000381469727,20900
2017-05-22,16.34000015258789,16.829999923706055,16.170000076293945,16.649999618530273,16.649999618530273,10800
2017-05-23,16.670000076293945,16.790000915527344,16.549999237060547,16.559999465942383,16.559999465942383,16200
2017-05-24,16.68000030517578,16.860000610351562,16.350000381469727,16.510000228881836,16.510000228881836,45200
2017-05-25,16.889999389648438,16.899999618530273,16.68000030517578,16.770000457763672,16.770000457763672,39300
2017-05-26,16.770000457763672,17.049999237060547,16.655000686645508,16.969999313354492,16.969999313354492,43700
2017-05-30,17.020000457763672,17.399999618530273,16.969999313354492,17.260000228881836,17.260000228881836,171500
2017-05-31,17.229999542236328,17.450000762939453,16.950000762939453,17.450000762939453,17.450000762939453,37000
2017-06-01,17.489999771118164,18.790000915527344,17.469999313354492,18.5,18.5,73900
2017-06-02,18.350000381469727,18.399999618530273,17.43000030517578,18.229999542236328,18.229999542236328,35500
2017-06-05,18.190000534057617,18.5,17.959999084472656,18.5,18.5,89900
2017-06-06,18.5,18.670000076293945,18.260000228881836,18.670000076293945,18.670000076293945,83400
2017-06-07,18.549999237060547,18.739999771118164,18.0,18.729999542236328,18.729999542236328,89600
2017-06-08,18.790000915527344,18.799999237060547,18.31999969482422,18.510000228881836,18.510000228881836,37100
2017-06-09,18.5,18.520000457763672,17.889999389648438,18.440000534057617,18.440000534057617,33200
2017-06-12,18.5,18.799999237060547,18.1299991607666,18.43000030517578,18.43000030517578,68900
2017-06-13,18.5,18.600000381469727,18.149999618530273,18.469999313354492,18.469999313354492,214700
2017-06-14,18.25,18.5,17.989999771118164,18.450000762939453,18.450000762939453,75100
2017-06-15,18.440000534057617,18.649999618530273,18.19499969482422,18.469999313354492,18.469999313354492,106300
2017-06-16,18.489999771118164,18.56999969482422,17.979999542236328,18.329999923706055,18.329999923706055,599300
2017-06-19,18.059999465942383,18.5,18.040000915527344,18.1200008392334,18.1200008392334,222600
2017-06-20,18.010000228881836,18.1299991607666,17.549999237060547,17.579999923706055,17.579999923706055,154400
2017-06-21,17.59000015258789,18.0,17.520000457763672,17.959999084472656,17.959999084472656,40200
2017-06-22,17.989999771118164,17.989999771118164,17.25,17.309999465942383,17.309999465942383,54000
2017-06-23,17.200000762939453,17.239999771118164,16.579999923706055,17.149999618530273,17.149999618530273,1231800
2017-06-26,17.0,17.860000610351562,16.829999923706055,17.790000915527344,17.790000915527344,54400
2017-06-27,17.68000030517578,18.059999465942383,17.68000030517578,18.0,18.0,45300
2017-06-28,17.655000686645508,18.190000534057617,17.520000457763672,18.0,18.0,39400
2017-06-29,17.8799991607666,18.0,17.520000457763672,17.979999542236328,17.979999542236328,18100
2017-06-30,17.863000869750977,18.1200008392334,17.43000030517578,17.8799991607666,17.8799991607666,16000
2017-07-03,17.770000457763672,17.989999771118164,17.56999969482422,17.809999465942383,17.809999465942383,17000
2017-07-05,17.68000030517578,17.860000610351562,17.344999313354492,17.799999237060547,17.799999237060547,10100
2017-07-06,17.6299991607666,17.809999465942383,17.420000076293945,17.6200008392334,17.6200008392334,12700
2017-07-07,17.489999771118164,17.989999771118164,17.469999313354492,17.93000030517578,17.93000030517578,12900
2017-07-10,17.809999465942383,18.040000915527344,17.649999618530273,17.940000534057617,17.940000534057617,71100
2017-07-11,17.950000762939453,18.0,17.860000610351562,17.920000076293945,17.920000076293945,10300
2017-07-12,17.610000610351562,18.139999389648438,17.610000610351562,17.989999771118164,17.989999771118164,34600
2017-07-13,17.950000762939453,18.0,17.290000915527344,17.6200008392334,17.6200008392334,17400
2017-07-14,17.65999984741211,17.920000076293945,17.1299991607666,17.280000686645508,17.280000686645508,9900
2017-07-17,17.270000457763672,17.510000228881836,17.100000381469727,17.3700008392334,17.3700008392334,25200
2017-07-18,17.190000534057617,17.969999313354492,17.190000534057617,17.719999313354492,17.719999313354492,15100
2017-07-19,17.309999465942383,18.049999237060547,17.309999465942383,17.969999313354492,17.969999313354492,24000
2017-07-20,17.93000030517578,18.149999618530273,17.825000762939453,18.0,18.0,30500
2017-07-21,18.149999618530273,18.200000762939453,17.93000030517578,17.969999313354492,17.969999313354492,15300
2017-07-24,17.989999771118164,18.059999465942383,17.899999618530273,17.959999084472656,17.959999084472656,12800
2017-07-25,17.93000030517578,18.09000015258789,17.93000030517578,17.989999771118164,17.989999771118164,21600
2017-07-26,18.040000915527344,18.040000915527344,17.940000534057617,17.940000534057617,17.940000534057617,2700
2017-07-27,17.969999313354492,17.969999313354492,17.8700008392334,17.8700008392334,17.8700008392334,6700
2017-07-28,17.850000381469727,18.0,17.850000381469727,17.989999771118164,17.989999771118164,14600
2017-07-31,17.600000381469727,18.059999465942383,17.600000381469727,17.979999542236328,17.979999542236328,6600
2017-08-01,18.0,18.18000030517578,17.549999237060547,18.0,18.0,36700
2017-08-02,17.600000381469727,17.964000701904297,17.600000381469727,17.780000686645508,17.780000686645508,4900
2017-08-03,17.75,17.770000457763672,17.600000381469727,17.709999084472656,17.709999084472656,4900
2017-08-04,17.98900032043457,17.98900032043457,17.729999542236328,17.969999313354492,17.969999313354492,7700
2017-08-07,17.780000686645508,18.0,17.770000457763672,18.0,18.0,23300
2017-08-08,17.889999389648438,18.0,17.75,17.93000030517578,17.93000030517578,10200
2017-08-09,17.84000015258789,17.920000076293945,17.719999313354492,17.75,17.75,7400
2017-08-10,17.770000457763672,17.770000457763672,17.459999084472656,17.649999618530273,17.649999618530273,16200
2017-08-11,17.700000762939453,17.729999542236328,17.399999618530273,17.420000076293945,17.420000076293945,8400
2017-08-14,17.868999481201172,17.868999481201172,16.959999084472656,17.139999389648438,17.139999389648438,23500
2017-08-15,16.989999771118164,16.989999771118164,16.34000015258789,16.389999389648438,16.389999389648438,22000
2017-08-16,16.389999389648438,16.604000091552734,16.010000228881836,16.059999465942383,16.059999465942383,16900
2017-08-17,16.0,16.1200008392334,15.899999618530273,15.979999542236328,15.979999542236328,30500
2017-08-18,15.8100004196167,16.389999389648438,15.8100004196167,16.309999465942383,16.309999465942383,24900
2017-08-21,16.209999084472656,16.3700008392334,16.040000915527344,16.260000228881836,16.260000228881836,18400
2017-08-22,16.149999618530273,16.25,16.149999618530273,16.219999313354492,16.219999313354492,4400
2017-08-23,16.100000381469727,16.239999771118164,16.100000381469727,16.209999084472656,16.209999084472656,7500
2017-08-24,16.200000762939453,16.25,16.15999984741211,16.18000030517578,16.18000030517578,7300
2017-08-25,16.100000381469727,16.200000762939453,16.010000228881836,16.1200008392334,16.1200008392334,14300
2017-08-28,16.1299991607666,16.1299991607666,16.010000228881836,16.010000228881836,16.010000228881836,11000
2017-08-29,16.0049991607666,16.1299991607666,16.0049991607666,16.079999923706055,16.079999923706055,9400
2017-08-30,16.1299991607666,16.329999923706055,16.075000762939453,16.200000762939453,16.200000762939453,9000
2017-08-31,16.360000610351562,16.790000915527344,16.209999084472656,16.510000228881836,16.510000228881836,17600
2017-09-01,16.399999618530273,16.399999618530273,16.190000534057617,16.329999923706055,16.329999923706055,8600
2017-09-05,16.360000610351562,16.489999771118164,16.25,16.299999237060547,16.299999237060547,39700
2017-09-06,16.290000915527344,16.40999984741211,16.290000915527344,16.399999618530273,16.399999618530273,13700
2017-09-07,16.524999618530273,16.93000030517578,16.31999969482422,16.799999237060547,16.799999237060547,31800
2017-09-08,16.65999984741211,16.700000762939453,16.5,16.510000228881836,16.510000228881836,19200
2017-09-11,16.399999618530273,16.65999984741211,16.290000915527344,16.3799991607666,16.3799991607666,22700
2017-09-12,16.350000381469727,16.780000686645508,16.350000381469727,16.579999923706055,16.579999923706055,14100
2017-09-13,16.40999984741211,16.889999389648438,16.239999771118164,16.760000228881836,16.760000228881836,59800
2017-09-14,16.600000381469727,17.584999084472656,16.549999237060547,17.360000610351562,17.360000610351562,129900
2017-09-15,17.479999542236328,17.610000610351562,17.18000030517578,17.399999618530273,17.399999618530273,144100
2017-09-18,17.059999465942383,17.579999923706055,17.059999465942383,17.3700008392334,17.3700008392334,70100
2017-09-19,17.329999923706055,17.790000915527344,17.299999237060547,17.559999465942383,17.559999465942383,58500
2017-09-20,17.520000457763672,17.75,17.329999923706055,17.3700008392334,17.3700008392334,44800
2017-09-21,17.360000610351562,17.559999465942383,17.360000610351562,17.399999618530273,17.399999618530273,40100
2017-09-22,17.260000228881836,17.31999969482422,17.219999313354492,17.299999237060547,17.299999237060547,34500
2017-09-25,17.219999313354492,17.56999969482422,17.219999313354492,17.540000915527344,17.540000915527344,6300
2017-09-26,17.579999923706055,17.84000015258789,17.579999923706055,17.790000915527344,17.790000915527344,14600
2017-09-27,17.850000381469727,18.200000762939453,17.850000381469727,18.020000457763672,18.020000457763672,40300
2017-09-28,17.65999984741211,18.110000610351562,17.6299991607666,18.0,18.0,14000
2017-09-29,17.940000534057617,18.170000076293945,17.790000915527344,17.899999618530273,17.899999618530273,16100
2017-10-02,17.860000610351562,18.1200008392334,17.860000610351562,18.010000228881836,18.010000228881836,14400
2017-10-03,18.079999923706055,18.100000381469727,17.989999771118164,18.0,18.0,8800
2017-10-04,17.950000762939453,18.100000381469727,17.950000762939453,18.0,18.0,8600
2017-10-05,18.09000015258789,18.100000381469727,17.989999771118164,18.049999237060547,18.049999237060547,7800
2017-10-06,18.100000381469727,18.100000381469727,17.920000076293945,17.989999771118164,17.989999771118164,9900
2017-10-09,18.030000686645508,18.139999389648438,18.030000686645508,18.059999465942383,18.059999465942383,4900
2017-10-10,18.100000381469727,18.510000228881836,18.09000015258789,18.350000381469727,18.350000381469727,51100
2017-10-11,18.420000076293945,18.420000076293945,17.469999313354492,18.270000457763672,18.270000457763672,20600
2017-10-12,18.229999542236328,18.540000915527344,18.010000228881836,18.209999084472656,18.209999084472656,24300
2017-10-13,18.200000762939453,18.31999969482422,18.079999923706055,18.18000030517578,18.18000030517578,45300
2017-10-16,18.200000762939453,18.350000381469727,18.15999984741211,18.280000686645508,18.280000686645508,30400
2017-10-17,18.270000457763672,18.350000381469727,18.145000457763672,18.25,18.25,15700
2017-10-18,18.270000457763672,18.329999923706055,18.170000076293945,18.25,18.25,7700
2017-10-19,18.030000686645508,18.219999313354492,17.90999984741211,18.190000534057617,18.190000534057617,49900
2017-10-20,18.290000915527344,18.614999771118164,18.0,18.1299991607666,18.1299991607666,61700
2017-10-23,17.576000213623047,18.0,17.576000213623047,17.8700008392334,17.8700008392334,4800
2017-10-24,17.639999389648438,18.030000686645508,17.639999389648438,17.899999618530273,17.899999618530273,6000
2017-10-25,17.700000762939453,17.860000610351562,17.649999618530273,17.739999771118164,17.739999771118164,4500
2017-10-26,17.809999465942383,17.809999465942383,17.600000381469727,17.799999237060547,17.799999237060547,8700
2017-10-27,17.799999237060547,17.940000534057617,17.632999420166016,17.850000381469727,17.850000381469727,16100
2017-10-30,17.799999237060547,17.799999237060547,17.510000228881836,17.649999618530273,17.649999618530273,14100
2017-10-31,17.65999984741211,18.0,17.65999984741211,17.889999389648438,17.889999389648438,18500
2017-11-01,17.940000534057617,17.940000534057617,17.69499969482422,17.860000610351562,17.860000610351562,9500
2017-11-02,17.889999389648438,17.899999618530273,17.809999465942383,17.8700008392334,17.8700008392334,7500
2017-11-03,17.760000228881836,17.8799991607666,17.760000228881836,17.81999969482422,17.81999969482422,9700
2017-11-06,17.950000762939453,17.950000762939453,17.739999771118164,17.790000915527344,17.790000915527344,1900
2017-11-07,17.489999771118164,17.68899917602539,17.299999237060547,17.309999465942383,17.309999465942383,4300
2017-11-08,17.260000228881836,17.3700008392334,16.719999313354492,17.010000228881836,17.010000228881836,19000
2017-11-09,17.0,17.1200008392334,16.969999313354492,17.09000015258789,17.09000015258789,2900
2017-11-10,17.649999618530273,17.649999618530273,17.1200008392334,17.1200008392334,17.1200008392334,1100
2017-11-13,16.719999313354492,17.239999771118164,16.09000015258789,17.0,17.0,59900
2017-11-14,17.100000381469727,17.100000381469727,16.829999923706055,16.899999618530273,16.899999618530273,7200
2017-11-15,17.09000015258789,17.09000015258789,16.875,16.899999618530273,16.899999618530273,6200
2017-11-16,17.200000762939453,17.65999984741211,17.200000762939453,17.479999542236328,17.479999542236328,5600
2017-11-17,17.389999389648438,17.860000610351562,16.809999465942383,17.360000610351562,17.360000610351562,8000
2017-11-20,17.149999618530273,17.59000015258789,17.149999618530273,17.479999542236328,17.479999542236328,7400
2017-11-21,17.5,17.5,17.440000534057617,17.450000762939453,17.450000762939453,14300
2017-11-22,17.5,17.5,17.299999237060547,17.299999237060547,17.299999237060547,7700
2017-11-24,17.399999618530273,17.399999618530273,17.139999389648438,17.389999389648438,17.389999389648438,1900
2017-11-27,17.239999771118164,17.350000381469727,17.239999771118164,17.350000381469727,17.350000381469727,1900
2017-11-28,17.219999313354492,17.5,17.209999084472656,17.5,17.5,10000
2017-11-29,17.5,17.639999389648438,17.219999313354492,17.6200008392334,17.6200008392334,12200
2017-11-30,17.68000030517578,17.68000030517578,17.540000915527344,17.559999465942383,17.559999465942383,8000
2017-12-01,17.270000457763672,17.469999313354492,17.06999969482422,17.309999465942383,17.309999465942383,3400
2017-12-04,17.479999542236328,17.65999984741211,17.190000534057617,17.450000762939453,17.450000762939453,4000
2017-12-05,17.219999313354492,17.25,16.940000534057617,16.989999771118164,16.989999771118164,10400
2017-12-06,17.41699981689453,17.41699981689453,16.920000076293945,17.06999969482422,17.06999969482422,5900
2017-12-07,17.040000915527344,17.1200008392334,16.899999618530273,16.959999084472656,16.959999084472656,11200
2017-12-08,17.06999969482422,17.06999969482422,16.75,16.790000915527344,16.790000915527344,9700
2017-12-11,17.0,17.0,16.729999542236328,16.729999542236328,16.729999542236328,2400
2017-12-12,16.860000610351562,17.18000030517578,16.860000610351562,17.110000610351562,17.110000610351562,6200
2017-12-13,17.281999588012695,17.281999588012695,17.15999984741211,17.170000076293945,17.170000076293945,4700
2017-12-14,17.15999984741211,17.239999771118164,16.709999084472656,16.729999542236328,16.729999542236328,4700
2017-12-15,16.670000076293945,17.510000228881836,16.670000076293945,17.3799991607666,17.3799991607666,57500
2017-12-18,17.3700008392334,17.430999755859375,17.219999313354492,17.420000076293945,17.420000076293945,10000
2017-12-19,17.40999984741211,17.40999984741211,17.18000030517578,17.18000030517578,17.18000030517578,4000
2017-12-20,16.950000762939453,17.34000015258789,16.827999114990234,17.209999084472656,17.209999084472656,12100
2017-12-21,17.25,17.25,17.125,17.200000762939453,17.200000762939453,4900
2017-12-22,17.1200008392334,17.18000030517578,16.850000381469727,16.850000381469727,16.850000381469727,4200
2017-12-26,16.84000015258789,17.06999969482422,16.610000610351562,16.809999465942383,16.809999465942383,7100
2017-12-27,16.59000015258789,17.06999969482422,16.510000228881836,16.989999771118164,16.989999771118164,6500
2017-12-28,16.81999969482422,17.299999237060547,16.81999969482422,17.15999984741211,17.15999984741211,9100
2017-12-29,17.260000228881836,17.34000015258789,16.780000686645508,16.979999542236328,16.979999542236328,21400
2018-01-02,17.079999923706055,17.094999313354492,16.739999771118164,16.739999771118164,16.739999771118164,6400
2018-01-03,16.700000762939453,16.790000915527344,16.690000534057617,16.700000762939453,16.700000762939453,5400
2018-01-04,16.770000457763672,16.770000457763672,16.5,16.549999237060547,16.549999237060547,1700
2018-01-05,16.479999542236328,16.579999923706055,16.3700008392334,16.579999923706055,16.579999923706055,5000
2018-01-08,16.479999542236328,16.510000228881836,16.43000030517578,16.43000030517578,16.43000030517578,10700
2018-01-09,16.420000076293945,16.5,16.260000228881836,16.260000228881836,16.260000228881836,3700
2018-01-10,16.489999771118164,16.489999771118164,16.299999237060547,16.469999313354492,16.469999313354492,1500
2018-01-11,16.5,16.780000686645508,16.5,16.649999618530273,16.649999618530273,11700
2018-01-12,16.889999389648438,16.889999389648438,16.670000076293945,16.799999237060547,16.799999237060547,8400
2018-01-16,16.940000534057617,17.100000381469727,16.829999923706055,16.850000381469727,16.850000381469727,2400
2018-01-17,17.0,17.0,16.920000076293945,17.0,17.0,6500
2018-01-18,16.940000534057617,17.030000686645508,16.90999984741211,17.0,17.0,3200
2018-01-19,16.889999389648438,17.084999084472656,16.889999389648438,16.959999084472656,16.959999084472656,13200
2018-01-22,16.729999542236328,16.940000534057617,16.691999435424805,16.799999237060547,16.799999237060547,12100
2018-01-23,16.770000457763672,16.825000762939453,16.770000457763672,16.799999237060547,16.799999237060547,2900
2018-01-24,16.850000381469727,16.850000381469727,16.600000381469727,16.6200008392334,16.6200008392334,1800
2018-01-25,16.739999771118164,16.739999771118164,16.65999984741211,16.739999771118164,16.739999771118164,2100
2018-01-26,16.639999389648438,16.739999771118164,16.6200008392334,16.719999313354492,16.719999313354492,10000
2018-01-29,16.600000381469727,16.799999237060547,16.600000381469727,16.729999542236328,16.729999542236328,12000
2018-01-30,16.709999084472656,16.719999313354492,16.579999923706055,16.639999389648438,16.639999389648438,5300
2018-01-31,16.649999618530273,16.84000015258789,16.610000610351562,16.6200008392334,16.6200008392334,3100
2018-02-01,16.729999542236328,16.850000381469727,16.549999237060547,16.760000228881836,16.760000228881836,48700
2018-02-02,16.739999771118164,16.829999923706055,16.350000381469727,16.3799991607666,16.3799991607666,23000
2018-02-05,16.110000610351562,16.190000534057617,15.949999809265137,15.960000038146973,15.960000038146973,9200
2018-02-06,15.720000267028809,16.1299991607666,15.720000267028809,16.110000610351562,16.110000610351562,18600
2018-02-07,16.010000228881836,16.280000686645508,16.010000228881836,16.100000381469727,16.100000381469727,9100
2018-02-08,16.1299991607666,16.219999313354492,15.829999923706055,15.850000381469727,15.850000381469727,16200
2018-02-09,16.020000457763672,16.360000610351562,16.020000457763672,16.110000610351562,16.110000610351562,7300
2018-02-12,16.1299991607666,16.270000457763672,16.110000610351562,16.270000457763672,16.270000457763672,19700
2018-02-13,16.100000381469727,16.209999084472656,16.100000381469727,16.18000030517578,16.18000030517578,3800
2018-02-14,16.079999923706055,16.260000228881836,16.059999465942383,16.25,16.25,5700
2018-02-15,16.260000228881836,16.299999237060547,16.06999969482422,16.06999969482422,16.06999969482422,3000
2018-02-16,16.010000228881836,16.290000915527344,16.010000228881836,16.270000457763672,16.270000457763672,4100
2018-02-20,16.15999984741211,16.290000915527344,16.059999465942383,16.059999465942383,16.059999465942383,5900
2018-02-21,16.149999618530273,16.149999618530273,16.149999618530273,16.149999618530273,16.149999618530273,1300
2018-02-22,16.149999618530273,16.18000030517578,16.139999389648438,16.15999984741211,16.15999984741211,3900
2018-02-23,16.290000915527344,16.56999969482422,16.200000762939453,16.479999542236328,16.479999542236328,32300
2018-02-26,16.420000076293945,16.850000381469727,16.420000076293945,16.68000030517578,16.68000030517578,14600
2018-02-27,16.65999984741211,16.65999984741211,16.65999984741211,16.65999984741211,16.65999984741211,1600
2018-02-28,16.530000686645508,16.6200008392334,16.110000610351562,16.110000610351562,16.110000610351562,8600
2018-03-01,16.1299991607666,16.368999481201172,16.06999969482422,16.25,16.25,2500
2018-03-02,16.364999771118164,16.440000534057617,16.18000030517578,16.440000534057617,16.440000534057617,3500
2018-03-05,16.219999313354492,16.450000762939453,16.219999313354492,16.43000030517578,16.43000030517578,5800
2018-03-06,17.25,17.25,16.8799991607666,16.989999771118164,16.989999771118164,5300
2018-03-07,16.950000762939453,17.225000381469727,16.950000762939453,16.950000762939453,16.950000762939453,9000
2018-03-08,17.270000457763672,17.899999618530273,17.232999801635742,17.739999771118164,17.739999771118164,49900
2018-03-09,17.8799991607666,17.8799991607666,17.26099967956543,17.56999969482422,17.56999969482422,55600
2018-03-12,17.510000228881836,17.520000457763672,17.429000854492188,17.450000762939453,17.450000762939453,10100
2018-03-13,17.420000076293945,17.489999771118164,17.360000610351562,17.420000076293945,17.420000076293945,4000
2018-03-14,17.09000015258789,17.43000030517578,17.09000015258789,17.34000015258789,17.34000015258789,6900
2018-03-15,17.350000381469727,17.350000381469727,17.049999237060547,17.139999389648438,17.139999389648438,10400
2018-03-16,17.079999923706055,17.25,17.079999923706055,17.239999771118164,17.239999771118164,32200
2018-03-19,17.049999237060547,17.200000762939453,16.950000762939453,17.010000228881836,17.010000228881836,10800
2018-03-20,17.030000686645508,17.030000686645508,16.860000610351562,16.8700008392334,16.8700008392334,4500
2018-03-21,16.920000076293945,17.190000534057617,16.920000076293945,17.079999923706055,17.079999923706055,3600
2018-03-22,17.190000534057617,17.190000534057617,16.75,16.75,16.75,10300
2018-03-23,16.6299991607666,16.950000762939453,16.5,16.520000457763672,16.520000457763672,19500
2018-03-26,16.780000686645508,16.780000686645508,16.520000457763672,16.649999618530273,16.649999618530273,15800
2018-03-27,16.799999237060547,16.799999237060547,16.510000228881836,16.510000228881836,16.510000228881836,7100
2018-03-28,16.5,16.780000686645508,16.5,16.770000457763672,16.770000457763672,9000
2018-03-29,16.75,16.75,16.540000915527344,16.700000762939453,16.700000762939453,11300
2018-04-02,16.594999313354492,16.610000610351562,16.399999618530273,16.479999542236328,16.479999542236328,15800
2018-04-03,16.440000534057617,16.610000610351562,16.350000381469727,16.350000381469727,16.350000381469727,9900
2018-04-04,16.440000534057617,16.579999923706055,16.440000534057617,16.489999771118164,16.489999771118164,7700
2018-04-05,16.709999084472656,16.709999084472656,16.399999618530273,16.440000534057617,16.440000534057617,8100
2018-04-06,16.3799991607666,16.485000610351562,16.25,16.270000457763672,16.270000457763672,10400
2018-04-09,16.40999984741211,16.469999313354492,16.260000228881836,16.299999237060547,16.299999237060547,2800
2018-04-10,16.399999618530273,16.399999618530273,16.329999923706055,16.3799991607666,16.3799991607666,5300
2018-04-11,16.3799991607666,16.389999389648438,16.260000228881836,16.34000015258789,16.34000015258789,4000
2018-04-12,16.389999389648438,16.389999389648438,16.280000686645508,16.280000686645508,16.280000686645508,5600
2018-04-13,16.368999481201172,16.399999618530273,16.240999221801758,16.399999618530273,16.399999618530273,2700
2018-04-16,16.3799991607666,16.479999542236328,16.3799991607666,16.420000076293945,16.420000076293945,10800
2018-04-17,16.440000534057617,16.450000762939453,16.3700008392334,16.420000076293945,16.420000076293945,9600
2018-04-18,16.3799991607666,16.450000762939453,16.3799991607666,16.43000030517578,16.43000030517578,9100
2018-04-19,16.440000534057617,16.450000762939453,16.360000610351562,16.3700008392334,16.3700008392334,8000
2018-04-20,16.309999465942383,16.40999984741211,16.309999465942383,16.40999984741211,16.40999984741211,6400
2018-04-23,16.420000076293945,16.420000076293945,16.25,16.420000076293945,16.420000076293945,102900
2018-04-24,16.420000076293945,16.420000076293945,16.350000381469727,16.399999618530273,16.399999618530273,8400
2018-04-25,16.399999618530273,16.399999618530273,16.350000381469727,16.350000381469727,16.350000381469727,5900
2018-04-26,16.34000015258789,16.399999618530273,16.34000015258789,16.3700008392334,16.3700008392334,6700
2018-04-27,16.389999389648438,16.399999618530273,16.364999771118164,16.3700008392334,16.3700008392334,2900
2018-04-30,16.399999618530273,16.399999618530273,16.350000381469727,16.350000381469727,16.350000381469727,4400
2018-05-01,16.229999542236328,16.399999618530273,16.229999542236328,16.389999389648438,16.389999389648438,4500
2018-05-02,16.399999618530273,16.399999618530273,16.329999923706055,16.329999923706055,16.329999923706055,4300
2018-05-03,16.214000701904297,16.31999969482422,16.149999618530273,16.299999237060547,16.299999237060547,3300
2018-05-04,16.170000076293945,16.53499984741211,16.170000076293945,16.489999771118164,16.489999771118164,14400
2018-05-07,16.108999252319336,16.5,16.108999252319336,16.309999465942383,16.309999465942383,11600
2018-05-08,16.3700008392334,16.5,16.31999969482422,16.3700008392334,16.3700008392334,5600
2018-05-09,16.5,16.5,16.420000076293945,16.459999084472656,16.459999084472656,12500
2018-05-10,16.100000381469727,16.5,16.100000381469727,16.43000030517578,16.43000030517578,14400
2018-05-11,16.5,16.5,16.420000076293945,16.440000534057617,16.440000534057617,9100
2018-05-14,16.440000534057617,16.440000534057617,16.350000381469727,16.360000610351562,16.360000610351562,4000
2018-05-15,16.360000610351562,16.3700008392334,16.280000686645508,16.350000381469727,16.350000381469727,10000
2018-05-16,16.43000030517578,16.450000762939453,16.34000015258789,16.440000534057617,16.440000534057617,26200
2018-05-17,16.450000762939453,16.450000762939453,16.399999618530273,16.420000076293945,16.420000076293945,9200
2018-05-18,16.450000762939453,16.5,16.389999389648438,16.389999389648438,16.389999389648438,9200
2018-05-21,16.399999618530273,16.440000534057617,16.3700008392334,16.3700008392334,16.3700008392334,21200
2018-05-22,16.40999984741211,16.40999984741211,16.25,16.25,16.25,5200
2018-05-23,16.309999465942383,16.469999313354492,16.309999465942383,16.459999084472656,16.459999084472656,3200
2018-05-24,16.417999267578125,16.549999237060547,16.329999923706055,16.450000762939453,16.450000762939453,20200
2018-05-25,16.499000549316406,16.5,16.389999389648438,16.440000534057617,16.440000534057617,7200
2018-05-29,16.440000534057617,16.510000228881836,16.360000610351562,16.43000030517578,16.43000030517578,8100
2018-05-30,16.489999771118164,16.5,16.450000762939453,16.450000762939453,16.450000762939453,24400
2018-05-31,16.489999771118164,16.489999771118164,16.270000457763672,16.34000015258789,16.34000015258789,8400
2018-06-01,16.368000030517578,16.510000228881836,16.350000381469727,16.469999313354492,16.469999313354492,122900
2018-06-04,16.56999969482422,16.56999969482422,16.440000534057617,16.485000610351562,16.485000610351562,31900
2018-06-05,16.489999771118164,16.579999923706055,16.450000762939453,16.579999923706055,16.579999923706055,254800
2018-06-06,16.59000015258789,16.600000381469727,16.479999542236328,16.56999969482422,16.56999969482422,17000
2018-06-07,16.559999465942383,16.989999771118164,16.549999237060547,16.8700008392334,16.8700008392334,22900
2018-06-08,16.770000457763672,16.790000915527344,16.68000030517578,16.739999771118164,16.739999771118164,15700
2018-06-11,16.700000762939453,16.7549991607666,16.5,16.530000686645508,16.530000686645508,41300
2018-06-12,16.690000534057617,16.690000534057617,16.399999618530273,16.540000915527344,16.540000915527344,69900
2018-06-13,16.6200008392334,16.709999084472656,16.540000915527344,16.559999465942383,16.559999465942383,15000
2018-06-14,16.530000686645508,16.559999465942383,16.420000076293945,16.559999465942383,16.559999465942383,8900
2018-06-15,16.479999542236328,16.8799991607666,16.479999542236328,16.8799991607666,16.8799991607666,52700
2018-06-18,16.729999542236328,16.729999542236328,16.420000076293945,16.709999084472656,16.709999084472656,11600
2018-06-19,16.6200008392334,16.799999237060547,16.6200008392334,16.780000686645508,16.780000686645508,14700
2018-06-20,16.739999771118164,16.84000015258789,16.739999771118164,16.809999465942383,16.809999465942383,9900
2018-06-21,16.729999542236328,16.799999237060547,16.729999542236328,16.780000686645508,16.780000686645508,7200
2018-06-22,16.719999313354492,16.84000015258789,16.719999313354492,16.81999969482422,16.81999969482422,78400
2018-06-25,16.799999237060547,16.850000381469727,16.760000228881836,16.829999923706055,16.829999923706055,28500
2018-06-26,16.860000610351562,16.860000610351562,16.790000915527344,16.809999465942383,16.809999465942383,9000
2018-06-27,16.850000381469727,16.850000381469727,16.75,16.760000228881836,16.760000228881836,8500
2018-06-28,16.860000610351562,16.860000610351562,16.75,16.809999465942383,16.809999465942383,9600
2018-06-29,16.780000686645508,16.989999771118164,16.726999282836914,16.950000762939453,16.950000762939453,16700
2018-07-02,16.950000762939453,17.049999237060547,16.950000762939453,17.030000686645508,17.030000686645508,19700
2018-07-03,17.040000915527344,17.049999237060547,16.979999542236328,17.0,17.0,6400
2018-07-05,17.0,17.049999237060547,16.969999313354492,16.969999313354492,16.969999313354492,8600
2018-07-06,16.68000030517578,17.0,16.670000076293945,16.899999618530273,16.899999618530273,7200
2018-07-09,16.729999542236328,16.760000228881836,16.399999618530273,16.479999542236328,16.479999542236328,20400
2018-07-10,16.719999313354492,16.719999313354492,16.299999237060547,16.43000030517578,16.43000030517578,5700
2018-07-11,16.450000762939453,16.489999771118164,16.405000686645508,16.420000076293945,16.420000076293945,5900
2018-07-12,16.450000762939453,16.469999313354492,16.3799991607666,16.450000762939453,16.450000762939453,4600
2018-07-13,16.615999221801758,16.770000457763672,16.450000762939453,16.469999313354492,16.469999313354492,7700
2018-07-16,16.382999420166016,16.5,16.3799991607666,16.5,16.5,11200
2018-07-17,16.510000228881836,16.510000228881836,16.450000762939453,16.479999542236328,16.479999542236328,4400
2018-07-18,16.469999313354492,16.5,16.399999618530273,16.450000762939453,16.450000762939453,9300
2018-07-19,16.479999542236328,16.5,16.3799991607666,16.479999542236328,16.479999542236328,19000
2018-07-20,16.420000076293945,16.6200008392334,16.420000076293945,16.510000228881836,16.510000228881836,10300
2018-07-23,16.459999084472656,16.600000381469727,16.393999099731445,16.549999237060547,16.549999237060547,8200
2018-07-24,16.559999465942383,16.559999465942383,16.440000534057617,16.5,16.5,16700
2018-07-25,16.510000228881836,16.540000915527344,16.440000534057617,16.530000686645508,16.530000686645508,2800
2018-07-26,16.540000915527344,16.889999389648438,16.450000762939453,16.81999969482422,16.81999969482422,8200
2018-07-27,16.790000915527344,16.790000915527344,16.56999969482422,16.56999969482422,16.56999969482422,3500
2018-07-30,16.549999237060547,16.709999084472656,16.549999237060547,16.600000381469727,16.600000381469727,9500
2018-07-31,16.600000381469727,16.75,16.600000381469727,16.719999313354492,16.719999313354492,8900
2018-08-01,16.6200008392334,16.700000762939453,16.399999618530273,16.670000076293945,16.670000076293945,20700
2018-08-02,16.6200008392334,16.700000762939453,16.399999618530273,16.700000762939453,16.700000762939453,3900
2018-08-03,16.709999084472656,16.709999084472656,16.530000686645508,16.530000686645508,16.530000686645508,4400
2018-08-06,16.790000915527344,16.8700008392334,16.59000015258789,16.8700008392334,16.8700008392334,6500
2018-08-07,16.65999984741211,16.878999710083008,16.65999984741211,16.719999313354492,16.719999313354492,5100
2018-08-08,16.839000701904297,16.839000701904297,16.459999084472656,16.639999389648438,16.639999389648438,3400
2018-08-09,16.774999618530273,16.788999557495117,16.530000686645508,16.770000457763672,16.770000457763672,4200
2018-08-10,16.65999984741211,16.670000076293945,16.65999984741211,16.670000076293945,16.670000076293945,700
2018-08-13,16.649999618530273,16.8700008392334,16.649999618530273,16.790000915527344,16.790000915527344,3800
2018-08-14,16.645000457763672,16.738000869750977,16.5,16.719999313354492,16.719999313354492,3900
2018-08-15,16.40999984741211,16.610000610351562,16.40999984741211,16.450000762939453,16.450000762939453,2500
2018-08-16,16.489999771118164,16.5,16.450000762939453,16.5,16.5,3400
2018-08-17,16.450000762939453,16.700000762939453,16.450000762939453,16.6200008392334,16.6200008392334,6000
2018-08-20,16.670000076293945,16.700000762939453,16.56999969482422,16.6299991607666,16.6299991607666,4900
2018-08-21,16.600000381469727,16.850000381469727,16.600000381469727,16.700000762939453,16.700000762939453,6700
2018-08-22,16.709999084472656,16.850000381469727,16.707000732421875,16.81999969482422,16.81999969482422,6300
2018-08-23,16.829999923706055,16.84000015258789,16.709999084472656,16.84000015258789,16.84000015258789,2100
2018-08-24,16.83799934387207,16.8700008392334,16.709999084472656,16.81999969482422,16.81999969482422,6500
2018-08-27,16.809999465942383,16.809999465942383,16.75,16.75,16.75,6300
2018-08-28,16.81999969482422,16.81999969482422,16.709999084472656,16.709999084472656,16.709999084472656,21500
2018-08-29,16.719999313354492,16.850000381469727,16.719999313354492,16.780000686645508,16.780000686645508,2100
2018-08-30,16.860000610351562,16.860000610351562,16.799999237060547,16.799999237060547,16.799999237060547,3700
2018-08-31,16.860000610351562,16.999000549316406,16.790000915527344,16.8799991607666,16.8799991607666,2600
2018-09-04,16.809999465942383,16.8799991607666,16.774999618530273,16.81999969482422,16.81999969482422,9600
2018-09-05,16.809999465942383,16.850000381469727,16.799999237060547,16.799999237060547,16.799999237060547,1900
2018-09-06,16.81999969482422,16.989999771118164,16.81999969482422,16.950000762939453,16.950000762939453,2600
2018-09-07,16.920000076293945,16.920000076293945,16.850000381469727,16.850000381469727,16.850000381469727,5700
2018-09-10,16.84000015258789,16.8799991607666,16.84000015258789,16.8799991607666,16.8799991607666,2500
2018-09-11,16.704999923706055,16.850000381469727,16.649999618530273,16.75,16.75,5300
2018-09-12,16.75,16.860000610351562,16.75,16.84000015258789,16.84000015258789,8800
2018-09-13,16.84000015258789,16.899999618530273,16.75,16.75,16.75,7000
2018-09-14,16.889999389648438,16.889999389648438,16.75,16.75,16.75,5200
2018-09-17,16.850000381469727,16.8799991607666,16.75,16.760000228881836,16.760000228881836,3700
2018-09-18,16.850000381469727,16.850000381469727,16.760000228881836,16.760000228881836,16.760000228881836,3300
2018-09-19,16.75,16.8700008392334,16.649999618530273,16.75,16.75,7300
2018-09-20,16.81999969482422,16.84000015258789,16.790000915527344,16.829999923706055,16.829999923706055,2300
2018-09-21,16.770000457763672,17.110000610351562,16.75,17.110000610351562,17.110000610351562,59100
2018-09-24,16.940000534057617,17.100000381469727,16.75,16.809999465942383,16.809999465942383,5500
2018-09-25,16.80500030517578,16.8700008392334,16.75,16.770000457763672,16.770000457763672,4700
2018-09-26,16.860000610351562,16.899999618530273,16.799999237060547,16.899999618530273,16.899999618530273,4200
2018-09-27,16.926000595092773,16.969999313354492,16.799999237060547,16.799999237060547,16.799999237060547,3200
2018-09-28,16.75,16.969999313354492,16.75,16.8700008392334,16.8700008392334,7400
2018-10-01,16.850000381469727,16.899999618530273,16.84000015258789,16.8700008392334,16.8700008392334,6500
2018-10-02,16.850000381469727,17.190000534057617,16.850000381469727,17.1299991607666,17.1299991607666,13500
2018-10-03,17.100000381469727,17.100000381469727,16.940000534057617,17.040000915527344,17.040000915527344,3600
2018-10-04,16.979999542236328,17.152000427246094,16.889999389648438,16.899999618530273,16.899999618530273,13100
2018-10-05,16.899999618530273,17.020000457763672,16.899999618530273,16.899999618530273,16.899999618530273,3200
2018-10-08,17.079999923706055,17.219999313354492,17.040000915527344,17.209999084472656,17.209999084472656,10600
2018-10-09,17.239999771118164,17.239999771118164,17.09000015258789,17.09000015258789,17.09000015258789,16900
2018-10-10,17.170000076293945,17.219999313354492,16.860000610351562,16.860000610351562,16.860000610351562,6900
2018-10-11,16.860000610351562,16.860000610351562,16.739999771118164,16.75,16.75,6200
2018-10-12,16.860000610351562,16.979999542236328,16.700000762939453,16.860000610351562,16.860000610351562,20600
2018-10-15,16.860000610351562,16.940000534057617,16.760000228881836,16.860000610351562,16.860000610351562,5000
2018-10-16,16.75,16.889999389648438,16.75,16.81999969482422,16.81999969482422,4800
2018-10-17,16.760000228881836,16.860000610351562,16.75,16.760000228881836,16.760000228881836,3900
2018-10-18,16.760000228881836,16.760000228881836,16.399999618530273,16.43000030517578,16.43000030517578,19900
2018-10-19,16.329999923706055,16.610000610351562,16.329999923706055,16.389999389648438,16.389999389648438,26000
2018-10-22,16.381000518798828,16.402000427246094,16.010000228881836,16.270000457763672,16.270000457763672,34200
2018-10-23,16.270000457763672,16.31999969482422,16.155000686645508,16.18000030517578,16.18000030517578,10500
2018-10-24,16.18000030517578,16.18000030517578,16.0,16.049999237060547,16.049999237060547,20800
2018-10-25,15.100000381469727,15.850000381469727,15.100000381469727,15.699999809265137,15.699999809265137,24300
2018-10-26,15.199999809265137,16.139999389648438,15.130000114440918,15.489999771118164,15.489999771118164,12900
2018-10-29,15.449999809265137,15.539999961853027,15.350000381469727,15.369999885559082,15.369999885559082,12700
2018-10-30,15.229999542236328,15.470000267028809,15.199999809265137,15.4399995803833,15.4399995803833,18800
2018-10-31,15.680000305175781,15.6899995803833,15.550000190734863,15.640000343322754,15.640000343322754,8100
2018-11-01,15.579999923706055,15.760000228881836,15.579999923706055,15.739999771118164,15.739999771118164,8100
2018-11-02,15.710000038146973,15.75,15.600000381469727,15.600000381469727,15.600000381469727,8800
2018-11-05,15.59000015258789,15.65999984741211,15.350000381469727,15.350000381469727,15.350000381469727,7600
2018-11-06,15.729999542236328,15.729999542236328,15.25,15.25,15.25,29400
2018-11-07,15.25,15.430000305175781,15.25,15.380000114440918,15.380000114440918,20300
2018-11-08,15.25,15.6899995803833,15.25,15.40999984741211,15.40999984741211,20200
2018-11-09,15.279999732971191,15.699999809265137,15.279999732971191,15.350000381469727,15.350000381469727,21400
2018-11-12,15.300000190734863,15.489999771118164,15.300000190734863,15.350000381469727,15.350000381469727,19000
2018-11-13,15.289999961853027,15.75,15.25,15.329999923706055,15.329999923706055,11200
2018-11-14,15.5,16.020000457763672,15.470000267028809,15.59000015258789,15.59000015258789,78900
2018-11-15,15.550000190734863,15.949999809265137,15.380000114440918,15.399999618530273,15.399999618530273,16700
2018-11-16,15.399999618530273,15.710000038146973,15.399999618530273,15.5600004196167,15.5600004196167,15400
2018-11-19,15.630000114440918,15.649999618530273,15.359999656677246,15.479999542236328,15.479999542236328,8200
2018-11-20,15.470000267028809,15.680000305175781,15.25,15.3100004196167,15.3100004196167,8500
2018-11-21,15.489999771118164,15.699999809265137,15.489999771118164,15.65999984741211,15.65999984741211,21600
2018-11-23,15.699999809265137,15.84000015258789,15.600000381469727,15.800000190734863,15.800000190734863,14100
2018-11-26,15.864999771118164,16.09000015258789,15.699999809265137,15.770000457763672,15.770000457763672,9500
2018-11-27,15.552000045776367,15.640000343322754,15.489999771118164,15.520000457763672,15.520000457763672,156400
2018-11-28,15.760000228881836,16.040000915527344,15.65999984741211,15.890000343322754,15.890000343322754,169300
2018-11-29,15.779999732971191,16.149999618530273,15.779999732971191,15.930000305175781,15.930000305175781,12900
2018-11-30,16.059999465942383,16.110000610351562,15.8100004196167,15.829999923706055,15.829999923706055,11700
2018-12-03,15.890000343322754,16.079999923706055,15.8100004196167,16.079999923706055,16.079999923706055,8400
2018-12-04,15.960000038146973,16.079999923706055,15.520000457763672,15.520000457763672,15.520000457763672,13600
2018-12-06,15.420000076293945,16.049999237060547,15.420000076293945,15.739999771118164,15.739999771118164,19300
2018-12-07,15.90999984741211,16.18000030517578,15.65999984741211,15.850000381469727,15.850000381469727,12800
2018-12-10,15.920000076293945,15.920000076293945,15.5600004196167,15.789999961853027,15.789999961853027,6100
2018-12-11,15.90999984741211,16.0,15.6899995803833,15.880000114440918,15.880000114440918,16100
2018-12-12,15.899999618530273,16.0,15.630000114440918,15.869999885559082,15.869999885559082,21000
2018-12-13,15.819999694824219,15.979999542236328,15.260000228881836,15.90999984741211,15.90999984741211,10000
2018-12-14,15.9399995803833,16.110000610351562,15.729999542236328,15.949999809265137,15.949999809265137,17800
2018-12-17,15.989999771118164,15.989999771118164,14.369999885559082,15.449999809265137,15.449999809265137,41600
2018-12-18,15.470000267028809,15.640000343322754,15.020000457763672,15.449999809265137,15.449999809265137,11000
2018-12-19,15.59000015258789,15.899999618530273,15.100000381469727,15.640000343322754,15.640000343322754,18500
2018-12-20,15.619999885559082,15.680000305175781,15.010000228881836,15.289999961853027,15.289999961853027,12600
2018-12-21,15.239999771118164,15.710000038146973,14.833000183105469,15.119999885559082,15.119999885559082,37000
2018-12-24,15.170000076293945,15.399999618530273,15.140000343322754,15.140000343322754,15.140000343322754,2200
2018-12-26,15.0,15.449999809265137,15.0,15.279999732971191,15.279999732971191,15500
2018-12-27,15.180000305175781,16.18000030517578,14.970000267028809,15.869999885559082,15.869999885559082,10300
2018-12-28,15.8100004196167,16.329999923706055,15.611000061035156,16.200000762939453,16.200000762939453,10100
2018-12-31,15.8100004196167,16.0,15.579999923706055,15.729999542236328,15.729999542236328,14500
2019-01-02,15.65999984741211,15.767000198364258,15.399999618530273,15.699999809265137,15.699999809265137,64400
2019-01-03,15.720000267028809,15.979999542236328,15.449999809265137,15.979999542236328,15.979999542236328,13800
2019-01-04,16.06999969482422,16.18000030517578,15.875,16.0,16.0,12100
2019-01-07,16.0,16.0,15.630000114440918,15.75,15.75,5800
2019-01-08,15.9399995803833,15.960000038146973,15.8100004196167,15.8100004196167,15.8100004196167,2600
2019-01-09,16.0,16.0,15.631999969482422,15.880000114440918,15.880000114440918,7300
2019-01-10,15.770000457763672,16.0,15.670000076293945,15.9399995803833,15.9399995803833,7800
2019-01-11,15.829999923706055,15.829999923706055,15.359999656677246,15.600000381469727,15.600000381469727,5500
2019-01-14,15.630000114440918,15.835000038146973,15.449999809265137,15.800000190734863,15.800000190734863,5100
2019-01-15,15.789999961853027,15.920000076293945,15.5,15.699999809265137,15.699999809265137,13200
2019-01-16,15.779999732971191,15.779999732971191,15.460000038146973,15.460000038146973,15.460000038146973,11600
2019-01-17,15.420000076293945,15.680000305175781,15.40999984741211,15.40999984741211,15.40999984741211,5200
2019-01-18,15.399999618530273,15.640000343322754,15.399999618530273,15.489999771118164,15.489999771118164,4900
2019-01-22,15.529999732971191,15.609999656677246,15.15999984741211,15.170000076293945,15.170000076293945,10400
2019-01-23,15.329999923706055,15.449999809265137,15.1899995803833,15.1899995803833,15.1899995803833,4200
2019-01-24,15.25,15.25,15.175999641418457,15.229999542236328,15.229999542236328,5400
2019-01-25,15.420000076293945,15.430000305175781,15.093999862670898,15.25,15.25,5700
2019-01-28,15.0600004196167,15.15999984741211,15.0,15.0,15.0,6200
2019-01-29,15.0,15.170000076293945,15.0,15.0,15.0,4900
2019-01-30,15.045999526977539,15.119999885559082,15.029999732971191,15.119999885559082,15.119999885559082,8100
2019-01-31,15.039999961853027,15.140000343322754,15.0,15.0,15.0,9500
2019-02-01,15.01099967956543,15.140000343322754,14.850000381469727,14.850000381469727,14.850000381469727,3100
2019-02-04,14.789999961853027,14.90999984741211,14.789999961853027,14.899999618530273,14.899999618530273,2200
2019-02-05,14.850000381469727,15.069999694824219,14.800000190734863,14.960000038146973,14.960000038146973,11000
2019-02-06,15.010000228881836,15.010000228881836,14.829999923706055,14.90999984741211,14.90999984741211,1300
2019-02-07,14.913000106811523,14.97700023651123,14.829999923706055,14.829999923706055,14.829999923706055,4900
2019-02-08,14.899999618530273,14.949999809265137,14.8100004196167,14.850000381469727,14.850000381469727,2300
2019-02-11,14.829999923706055,14.829999923706055,14.829999923706055,14.829999923706055,14.829999923706055,1600
2019-02-12,14.760000228881836,15.130000114440918,14.760000228881836,15.130000114440918,15.130000114440918,5300
2019-02-13,15.079999923706055,15.140000343322754,14.967000007629395,15.140000343322754,15.140000343322754,1400
2019-02-14,15.390000343322754,15.399999618530273,15.0,15.0,15.0,7900
2019-02-15,15.079999923706055,15.800000190734863,15.0,15.0,15.0,6500
2019-02-19,15.25,15.300000190734863,15.0,15.260000228881836,15.260000228881836,8600
2019-02-20,15.479999542236328,15.479999542236328,15.199999809265137,15.199999809265137,15.199999809265137,5500
2019-02-21,15.199999809265137,15.199999809265137,15.199999809265137,15.199999809265137,15.199999809265137,1800
2019-02-22,15.399999618530273,15.449999809265137,15.399999618530273,15.399999618530273,15.399999618530273,3600
2019-02-25,15.399999618530273,15.399999618530273,15.039999961853027,15.039999961853027,15.039999961853027,5600
2019-02-26,15.140000343322754,15.170000076293945,15.050000190734863,15.050000190734863,15.050000190734863,2700
2019-02-27,15.159000396728516,15.159000396728516,15.010000228881836,15.109999656677246,15.109999656677246,1400
2019-02-28,15.09000015258789,15.100000381469727,15.09000015258789,15.09000015258789,15.09000015258789,4400
2019-03-01,15.229999542236328,15.239999771118164,15.050000190734863,15.210000038146973,15.210000038146973,1300
2019-03-04,15.020000457763672,15.25,15.020000457763672,15.109999656677246,15.109999656677246,2400
2019-03-05,15.010000228881836,15.010000228881836,15.010000228881836,15.010000228881836,15.010000228881836,1000
2019-03-06,15.149999618530273,15.199999809265137,15.010000228881836,15.020000457763672,15.020000457763672,4700
2019-03-07,15.170000076293945,15.210000038146973,15.119999885559082,15.119999885559082,15.119999885559082,5200
2019-03-08,15.140000343322754,15.1899995803833,15.020000457763672,15.029999732971191,15.029999732971191,18700
2019-03-11,15.069999694824219,15.510000228881836,15.0,15.300000190734863,15.300000190734863,18700
2019-03-12,15.350000381469727,15.699999809265137,15.272000312805176,15.479999542236328,15.479999542236328,9600
2019-03-13,15.5,15.5,15.130000114440918,15.130000114440918,15.130000114440918,9700
2019-03-14,15.470000267028809,16.733999252319336,15.470000267028809,16.09000015258789,16.09000015258789,12000
2019-03-15,16.040000915527344,16.540000915527344,15.880000114440918,16.540000915527344,16.540000915527344,93200
2019-03-18,16.350000381469727,16.639999389648438,16.010000228881836,16.639999389648438,16.639999389648438,9800
2019-03-19,16.409000396728516,16.59000015258789,16.31999969482422,16.5,16.5,3500
2019-03-20,16.239999771118164,16.5,16.239999771118164,16.329999923706055,16.329999923706055,8900
2019-03-21,16.540000915527344,16.600000381469727,16.239999771118164,16.239999771118164,16.239999771118164,7200
2019-03-22,16.020000457763672,16.020000457763672,15.760000228881836,15.760000228881836,15.760000228881836,8700
2019-03-25,16.082000732421875,16.082000732421875,16.06999969482422,16.06999969482422,16.06999969482422,1700
2019-03-26,16.549999237060547,16.549999237060547,16.290000915527344,16.290000915527344,16.290000915527344,1900
2019-03-27,16.190000534057617,16.190000534057617,16.030000686645508,16.030000686645508,16.030000686645508,7400
2019-03-28,16.25,16.25,16.030000686645508,16.25,16.25,5200
2019-03-29,16.31999969482422,16.31999969482422,15.90999984741211,16.0,16.0,41600
2019-04-01,16.0,16.40999984741211,15.970000267028809,16.190000534057617,16.190000534057617,19700
2019-04-02,16.260000228881836,16.43000030517578,16.06999969482422,16.420000076293945,16.420000076293945,18700
2019-04-03,16.459999084472656,16.459999084472656,16.059999465942383,16.200000762939453,16.200000762939453,17700
2019-04-04,16.264999389648438,16.395999908447266,16.059999465942383,16.299999237060547,16.299999237060547,13500
2019-04-05,16.149999618530273,16.299999237060547,16.049999237060547,16.229999542236328,16.229999542236328,22300
2019-04-08,16.190000534057617,16.2810001373291,16.020000457763672,16.020000457763672,16.020000457763672,5700
2019-04-09,16.260000228881836,16.260000228881836,16.010000228881836,16.010000228881836,16.010000228881836,3200
2019-04-10,15.9399995803833,16.239999771118164,15.91100025177002,16.059999465942383,16.059999465942383,6700
2019-04-11,16.139999389648438,16.260000228881836,16.030000686645508,16.030000686645508,16.030000686645508,2700
2019-04-12,16.149999618530273,16.229999542236328,15.979999542236328,16.040000915527344,16.040000915527344,4000
2019-04-15,16.0,16.195999145507812,16.0,16.010000228881836,16.010000228881836,21000
2019-04-16,16.25,16.25,16.059999465942383,16.059999465942383,16.059999465942383,3200
2019-04-17,16.0,16.219999313354492,16.0,16.040000915527344,16.040000915527344,4700
2019-04-18,16.020000457763672,16.06999969482422,16.010000228881836,16.06999969482422,16.06999969482422,4000
2019-04-22,16.09000015258789,16.100000381469727,16.020000457763672,16.020000457763672,16.020000457763672,1300
2019-04-23,16.003000259399414,16.18000030517578,16.0,16.18000030517578,16.18000030517578,2600
2019-04-24,16.1299991607666,16.170000076293945,16.010000228881836,16.010000228881836,16.010000228881836,3000
2019-04-25,16.0,16.167999267578125,16.0,16.020000457763672,16.020000457763672,3400
2019-04-26,16.100000381469727,16.18000030517578,16.100000381469727,16.18000030517578,16.18000030517578,2000
2019-04-29,16.110000610351562,16.229999542236328,16.010000228881836,16.190000534057617,16.190000534057617,4600
2019-04-30,16.010000228881836,16.15999984741211,16.010000228881836,16.030000686645508,16.030000686645508,9300
2019-05-01,16.077999114990234,16.158000946044922,16.03499984741211,16.049999237060547,16.049999237060547,3600
2019-05-02,16.209999084472656,16.299999237060547,16.010000228881836,16.079999923706055,16.079999923706055,41700
2019-05-03,16.15999984741211,16.40999984741211,16.1200008392334,16.229999542236328,16.229999542236328,5500
2019-05-06,16.25,16.399999618530273,16.110000610351562,16.280000686645508,16.280000686645508,8200
2019-05-07,16.27199935913086,16.389999389648438,16.010000228881836,16.010000228881836,16.010000228881836,4900
2019-05-08,16.135000228881836,16.200000762939453,16.059999465942383,16.059999465942383,16.059999465942383,23900
2019-05-09,16.1200008392334,16.989999771118164,16.1200008392334,16.989999771118164,16.989999771118164,17600
2019-05-10,16.979999542236328,17.18000030517578,16.79400062561035,17.15999984741211,17.15999984741211,25400
2019-05-13,17.079999923706055,18.1200008392334,17.059999465942383,17.329999923706055,17.329999923706055,16700
2019-05-14,17.06999969482422,18.239999771118164,17.06999969482422,17.459999084472656,17.459999084472656,11400
2019-05-15,17.350000381469727,17.979999542236328,17.350000381469727,17.920000076293945,17.920000076293945,3200
2019-05-16,18.280000686645508,18.280000686645508,17.520000457763672,17.950000762939453,17.950000762939453,8400
2019-05-17,17.899999618530273,17.899999618530273,17.299999237060547,17.56999969482422,17.56999969482422,5700
2019-05-20,17.600000381469727,18.190000534057617,17.209999084472656,18.0,18.0,3100
2019-05-21,18.049999237060547,18.049999237060547,17.239999771118164,17.420000076293945,17.420000076293945,7800
2019-05-22,17.375999450683594,17.839000701904297,17.375999450683594,17.690000534057617,17.690000534057617,6200
2019-05-23,17.56100082397461,17.59000015258789,16.760000228881836,16.90999984741211,16.90999984741211,44100
2019-05-24,17.079999923706055,17.479999542236328,17.030000686645508,17.170000076293945,17.170000076293945,4600
2019-05-28,17.15999984741211,17.309999465942383,16.860000610351562,16.860000610351562,16.860000610351562,6400
2019-05-29,17.049999237060547,17.260000228881836,16.895000457763672,17.09000015258789,17.09000015258789,5800
2019-05-30,17.100000381469727,17.200000762939453,17.049999237060547,17.200000762939453,17.200000762939453,4600
2019-05-31,17.15999984741211,17.15999984741211,16.93000030517578,16.940000534057617,16.940000534057617,10800
2019-06-03,16.940000534057617,17.049999237060547,16.770000457763672,17.049999237060547,17.049999237060547,7400
2019-06-04,17.06999969482422,17.389999389648438,17.06999969482422,17.290000915527344,17.290000915527344,8600
2019-06-05,17.31999969482422,17.690000534057617,17.31999969482422,17.40999984741211,17.40999984741211,14100
2019-06-06,17.15999984741211,17.389999389648438,17.110000610351562,17.389999389648438,17.389999389648438,3300
2019-06-07,17.600000381469727,17.68000030517578,17.25,17.600000381469727,17.600000381469727,115700
2019-06-10,17.790000915527344,18.350000381469727,17.719999313354492,18.0,18.0,10600
2019-06-11,18.079999923706055,18.229999542236328,17.899999618530273,18.139999389648438,18.139999389648438,10900
2019-06-12,17.75,18.700000762939453,17.75,18.549999237060547,18.549999237060547,12500
2019-06-13,18.874000549316406,18.874000549316406,18.229999542236328,18.489999771118164,18.489999771118164,15800
2019-06-14,18.329999923706055,18.700000762939453,18.15999984741211,18.700000762939453,18.700000762939453,8200
2019-06-17,19.639999389648438,19.639999389648438,18.350000381469727,18.739999771118164,18.739999771118164,8300
2019-06-18,18.770000457763672,18.770000457763672,18.399999618530273,18.540000915527344,18.540000915527344,3500
2019-06-19,18.219999313354492,18.639999389648438,17.865999221801758,18.0,18.0,8500
2019-06-20,18.010000228881836,18.184999465942383,17.604999542236328,17.729999542236328,17.729999542236328,13100
2019-06-21,17.559999465942383,18.420000076293945,17.25,17.729999542236328,17.729999542236328,40200
2019-06-24,17.420000076293945,17.8700008392334,17.209999084472656,17.860000610351562,17.860000610351562,7700
2019-06-25,18.0,18.25,18.0,18.190000534057617,18.190000534057617,4700
2019-06-26,18.049999237060547,18.049999237060547,17.6299991607666,17.790000915527344,17.790000915527344,4500
2019-06-27,17.868000030517578,18.309999465942383,17.459999084472656,18.309999465942383,18.309999465942383,16800
2019-06-28,18.170000076293945,18.350000381469727,17.610000610351562,17.610000610351562,17.610000610351562,62000
2019-07-01,17.979999542236328,17.979999542236328,17.5,17.670000076293945,17.670000076293945,7300
2019-07-02,17.420000076293945,18.104999542236328,17.420000076293945,18.0,18.0,2200
2019-07-03,18.079999923706055,18.110000610351562,17.81999969482422,17.889999389648438,17.889999389648438,3700
2019-07-05,18.079999923706055,18.204999923706055,17.809999465942383,17.93000030517578,17.93000030517578,7400
2019-07-08,17.582000732421875,18.200000762939453,17.582000732421875,17.719999313354492,17.719999313354492,3800
2019-07-09,17.915000915527344,17.915000915527344,17.915000915527344,17.915000915527344,17.915000915527344,700
2019-07-10,17.75,18.200000762939453,17.700000762939453,18.190000534057617,18.190000534057617,4400
2019-07-11,17.989999771118164,18.0,17.760000228881836,17.989999771118164,17.989999771118164,5100
2019-07-12,17.989999771118164,17.989999771118164,17.34000015258789,17.34000015258789,17.34000015258789,42800
2019-07-15,17.190000534057617,17.209999084472656,16.979999542236328,17.030000686645508,17.030000686645508,4100
2019-07-16,17.031999588012695,17.139999389648438,17.010000228881836,17.100000381469727,17.100000381469727,6500
2019-07-17,17.049999237060547,17.049999237060547,16.549999237060547,16.639999389648438,16.639999389648438,10300
2019-07-18,16.969999313354492,16.969999313354492,16.709999084472656,16.889999389648438,16.889999389648438,6600
2019-07-19,16.760000228881836,16.989999771118164,16.65999984741211,16.65999984741211,16.65999984741211,16700
2019-07-22,16.799999237060547,17.020000457763672,16.56999969482422,16.739999771118164,16.739999771118164,2500
2019-07-23,16.739999771118164,17.100000381469727,16.459999084472656,16.459999084472656,16.459999084472656,8100
2019-07-24,17.003999710083008,17.010000228881836,16.5,16.770000457763672,16.770000457763672,3600
2019-07-25,16.510000228881836,16.989999771118164,16.510000228881836,16.610000610351562,16.610000610351562,3800
2019-07-26,16.670000076293945,17.040000915527344,16.6200008392334,16.6200008392334,16.6200008392334,6900
2019-07-29,16.610000610351562,17.17799949645996,16.610000610351562,16.739999771118164,16.739999771118164,9100
2019-07-30,16.780000686645508,17.239999771118164,16.760000228881836,17.110000610351562,17.110000610351562,14800
2019-07-31,17.209999084472656,17.47599983215332,16.809999465942383,16.809999465942383,16.809999465942383,15500
2019-08-01,17.209999084472656,17.25,16.90999984741211,16.90999984741211,16.90999984741211,7400
2019-08-02,16.850000381469727,17.239999771118164,16.760000228881836,16.899999618530273,16.899999618530273,8100
2019-08-05,16.700000762939453,16.700000762939453,16.280000686645508,16.420000076293945,16.420000076293945,9500
2019-08-06,16.68000030517578,16.68000030517578,16.520000457763672,16.520000457763672,16.520000457763672,2800
2019-08-07,16.610000610351562,16.8799991607666,16.530000686645508,16.6200008392334,16.6200008392334,3900
2019-08-08,16.889999389648438,17.170000076293945,16.770000457763672,16.770000457763672,16.770000457763672,7900
2019-08-09,16.770000457763672,16.899999618530273,16.729999542236328,16.799999237060547,16.799999237060547,5100
2019-08-12,16.600000381469727,16.799999237060547,16.5,16.540000915527344,16.540000915527344,6200
2019-08-13,16.579999923706055,16.8700008392334,16.579999923706055,16.8700008392334,16.8700008392334,1700
2019-08-14,16.625,16.625,16.350000381469727,16.510000228881836,16.510000228881836,7600
2019-08-15,16.40999984741211,16.792999267578125,16.40999984741211,16.5,16.5,1800
2019-08-16,16.520000457763672,16.860000610351562,16.520000457763672,16.780000686645508,16.780000686645508,4700
2019-08-19,17.040000915527344,17.040000915527344,16.790000915527344,16.940000534057617,16.940000534057617,3000
2019-08-20,16.510000228881836,16.790000915527344,16.510000228881836,16.790000915527344,16.790000915527344,1600
2019-08-21,16.610000610351562,16.6200008392334,16.559999465942383,16.6200008392334,16.6200008392334,5800
2019-08-22,16.610000610351562,16.610000610351562,16.40999984741211,16.40999984741211,16.40999984741211,3300
2019-08-23,16.270000457763672,16.343000411987305,16.06999969482422,16.239999771118164,16.239999771118164,8700
2019-08-26,16.700000762939453,16.700000762939453,16.424999237060547,16.59000015258789,16.59000015258789,3900
2019-08-27,16.524999618530273,16.770000457763672,16.239999771118164,16.770000457763672,16.770000457763672,10800
2019-08-28,17.700000762939453,17.700000762939453,16.759000778198242,16.889999389648438,16.889999389648438,4600
2019-08-29,16.950000762939453,17.1299991607666,16.399999618530273,17.0,17.0,4200
2019-08-30,16.799999237060547,16.799999237060547,16.799999237060547,16.799999237060547,16.799999237060547,1600
2019-09-03,16.81100082397461,16.979999542236328,16.59000015258789,16.75,16.75,4700
2019-09-04,16.8799991607666,16.8799991607666,16.850000381469727,16.850000381469727,16.850000381469727,1500
2019-09-05,17.024999618530273,17.024999618530273,16.579999923706055,16.950000762939453,16.950000762939453,4200
2019-09-06,16.790000915527344,16.899999618530273,16.75,16.770000457763672,16.770000457763672,4100
2019-09-09,16.770000457763672,16.93000030517578,16.549999237060547,16.829999923706055,16.829999923706055,3700
2019-09-10,16.719999313354492,17.020000457763672,16.719999313354492,16.899999618530273,16.899999618530273,3200
2019-09-11,17.030000686645508,17.183000564575195,16.850000381469727,17.100000381469727,17.100000381469727,15800
2019-09-12,17.149999618530273,17.149999618530273,16.84000015258789,17.040000915527344,17.040000915527344,8400
2019-09-13,17.139999389648438,17.149999618530273,16.850000381469727,16.850000381469727,16.850000381469727,11300
2019-09-16,16.700000762939453,17.1299991607666,16.559999465942383,16.899999618530273,16.899999618530273,10400
2019-09-17,17.0,17.079999923706055,16.709999084472656,16.770000457763672,16.770000457763672,10900
2019-09-18,16.860000610351562,17.06999969482422,16.829999923706055,16.84000015258789,16.84000015258789,11800
2019-09-19,16.93000030517578,16.98200035095215,16.530000686645508,16.530000686645508,16.530000686645508,10300
2019-09-20,16.479999542236328,16.899999618530273,16.450000762939453,16.719999313354492,16.719999313354492,41500
2019-09-23,16.709999084472656,17.149999618530273,16.709999084472656,17.09000015258789,17.09000015258789,8900
2019-09-24,17.139999389648438,17.270000457763672,16.850000381469727,16.959999084472656,16.959999084472656,11500
2019-09-25,17.059999465942383,17.25,16.989999771118164,17.059999465942383,17.059999465942383,4000
2019-09-26,17.219999313354492,17.219999313354492,17.09000015258789,17.09000015258789,17.09000015258789,7800
2019-09-27,17.200000762939453,17.3799991607666,17.040000915527344,17.040000915527344,17.040000915527344,4200
2019-09-30,17.040000915527344,17.350000381469727,17.040000915527344,17.139999389648438,17.139999389648438,8200
2019-10-01,17.15999984741211,17.299999237060547,17.15999984741211,17.18000030517578,17.18000030517578,3500
2019-10-02,17.125999450683594,17.25,17.0,17.030000686645508,17.030000686645508,6900
2019-10-03,17.0,17.15999984741211,16.979999542236328,17.100000381469727,17.100000381469727,1100
2019-10-04,17.100000381469727,17.299999237060547,17.100000381469727,17.299999237060547,17.299999237060547,9900
2019-10-07,17.299999237060547,17.40999984741211,17.280000686645508,17.31999969482422,17.31999969482422,12800
2019-10-08,17.299999237060547,17.385000228881836,17.25,17.25,17.25,3800
2019-10-09,17.3799991607666,17.549999237060547,17.200000762939453,17.549999237060547,17.549999237060547,14400
2019-10-10,17.530000686645508,17.530000686645508,17.34000015258789,17.40999984741211,17.40999984741211,4200
2019-10-11,17.40999984741211,17.739999771118164,17.40999984741211,17.579999923706055,17.579999923706055,7200
2019-10-14,17.37700080871582,17.649999618530273,17.25,17.549999237060547,17.549999237060547,6500
2019-10-15,17.700000762939453,17.940000534057617,17.6200008392334,17.799999237060547,17.799999237060547,11600
2019-10-16,17.899999618530273,17.90999984741211,17.510000228881836,17.799999237060547,17.799999237060547,5500
2019-10-17,17.700000762939453,17.889999389648438,17.5,17.8799991607666,17.8799991607666,7200
2019-10-18,17.75,17.760000228881836,17.65999984741211,17.65999984741211,17.65999984741211,8000
2019-10-21,17.75,17.889999389648438,17.65999984741211,17.8700008392334,17.8700008392334,7600
2019-10-22,17.450000762939453,17.8700008392334,17.450000762939453,17.649999618530273,17.649999618530273,1700
2019-10-23,17.709999084472656,17.739999771118164,17.559999465942383,17.559999465942383,17.559999465942383,2800
2019-10-24,17.56999969482422,17.700000762939453,17.559999465942383,17.6299991607666,17.6299991607666,2100
2019-10-25,17.420000076293945,17.520000457763672,17.389999389648438,17.389999389648438,17.389999389648438,2500
2019-10-28,17.440000534057617,17.440000534057617,17.350000381469727,17.350000381469727,17.350000381469727,1600
2019-10-29,17.510000228881836,17.719999313354492,17.280000686645508,17.31999969482422,17.31999969482422,3800
2019-10-30,17.520000457763672,17.520000457763672,17.256999969482422,17.360000610351562,17.360000610351562,3500
2019-10-31,17.350000381469727,17.510000228881836,17.200000762939453,17.5,17.5,4700
2019-11-01,17.3799991607666,17.959999084472656,17.329999923706055,17.959999084472656,17.959999084472656,6100
2019-11-04,17.790000915527344,18.200000762939453,17.700000762939453,18.200000762939453,18.200000762939453,12300
2019-11-05,18.31999969482422,18.31999969482422,17.829999923706055,17.940000534057617,17.940000534057617,4500
2019-11-06,17.860000610351562,18.030000686645508,17.860000610351562,17.899999618530273,17.899999618530273,2800
2019-11-07,17.969999313354492,17.969999313354492,17.34000015258789,17.3799991607666,17.3799991607666,13400
2019-11-08,17.360000610351562,17.450000762939453,17.200000762939453,17.299999237060547,17.299999237060547,15000
2019-11-11,17.290000915527344,17.299999237060547,17.200000762939453,17.200000762939453,17.200000762939453,10600
2019-11-12,17.25,17.25,17.172000885009766,17.239999771118164,17.239999771118164,9500
2019-11-13,17.200000762939453,17.235000610351562,17.149999618530273,17.209999084472656,17.209999084472656,1800
2019-11-14,17.18000030517578,17.200000762939453,17.0,17.200000762939453,17.200000762939453,5500
2019-11-15,17.260000228881836,17.329999923706055,16.799999237060547,16.920000076293945,16.920000076293945,8900
2019-11-18,16.989999771118164,16.989999771118164,16.594999313354492,16.600000381469727,16.600000381469727,8800
2019-11-19,16.5,16.889999389648438,16.5,16.81999969482422,16.81999969482422,12000
2019-11-20,16.52400016784668,17.1299991607666,16.520000457763672,16.540000915527344,16.540000915527344,16200
2019-11-21,16.709999084472656,16.8700008392334,16.280000686645508,16.350000381469727,16.350000381469727,5000
2019-11-22,16.290000915527344,16.290000915527344,16.290000915527344,16.290000915527344,16.290000915527344,900
2019-11-25,16.399999618530273,16.850000381469727,16.25,16.729999542236328,16.729999542236328,11800
2019-11-26,16.690000534057617,16.690000534057617,16.3799991607666,16.6299991607666,16.6299991607666,5800
2019-11-27,16.59000015258789,16.59000015258789,16.59000015258789,16.59000015258789,16.59000015258789,1200
2019-11-29,16.360000610351562,16.739999771118164,16.360000610351562,16.739999771118164,16.739999771118164,2200
2019-12-02,16.329999923706055,16.530000686645508,16.329999923706055,16.34000015258789,16.34000015258789,4100
2019-12-03,16.260000228881836,16.329999923706055,16.25,16.25,16.25,3500
2019-12-04,16.280000686645508,16.40999984741211,16.25,16.25,16.25,12000
2019-12-05,16.3700008392334,16.690000534057617,16.280000686645508,16.350000381469727,16.350000381469727,3000
2019-12-06,16.5,16.719999313354492,16.309999465942383,16.65999984741211,16.65999984741211,24100
2019-12-09,16.40999984741211,16.610000610351562,16.260000228881836,16.549999237060547,16.549999237060547,5500
2019-12-10,16.520000457763672,16.850000381469727,16.520000457763672,16.850000381469727,16.850000381469727,2400
2019-12-11,16.770000457763672,17.170000076293945,16.739999771118164,17.170000076293945,17.170000076293945,13100
2019-12-12,16.84000015258789,17.389999389648438,16.84000015258789,17.09000015258789,17.09000015258789,13500
2019-12-13,17.309999465942383,17.34000015258789,16.920000076293945,16.920000076293945,16.920000076293945,7800
2019-12-16,17.368000030517578,17.368000030517578,16.850000381469727,17.040000915527344,17.040000915527344,13600
2019-12-17,16.93400001525879,17.25,16.670000076293945,17.0,17.0,8000
2019-12-18,16.295000076293945,17.604999542236328,16.295000076293945,17.530000686645508,17.530000686645508,9800
2019-12-19,17.43000030517578,17.43000030517578,17.030000686645508,17.030000686645508,17.030000686645508,6700
2019-12-20,17.100000381469727,17.170000076293945,16.850000381469727,17.170000076293945,17.170000076293945,31100
2019-12-23,17.040000915527344,17.040000915527344,16.5,16.520000457763672,16.520000457763672,4900
2019-12-24,16.649999618530273,16.899999618530273,16.399999618530273,16.5,16.5,2100
2019-12-26,16.445999145507812,16.75,16.445999145507812,16.739999771118164,16.739999771118164,5100
2019-12-27,16.739999771118164,17.440000534057617,16.700000762939453,17.329999923706055,17.329999923706055,13600
2019-12-30,17.0,17.0,16.739999771118164,16.799999237060547,16.799999237060547,4200
2019-12-31,17.0,17.334999084472656,17.0,17.200000762939453,17.200000762939453,8900
2020-01-02,16.861000061035156,17.290000915527344,16.861000061035156,16.93000030517578,16.93000030517578,2600
2020-01-03,16.940000534057617,16.940000534057617,16.56999969482422,16.579999923706055,16.579999923706055,8500
2020-01-06,16.59000015258789,16.860000610351562,16.260000228881836,16.270000457763672,16.270000457763672,9900
2020-01-07,16.440000534057617,16.440000534057617,16.25,16.25,16.25,6300
2020-01-08,16.18000030517578,16.18000030517578,16.049999237060547,16.110000610351562,16.110000610351562,13300
2020-01-09,16.010000228881836,16.722999572753906,16.010000228881836,16.149999618530273,16.149999618530273,6000
2020-01-10,16.290000915527344,16.3799991607666,16.040000915527344,16.040000915527344,16.040000915527344,7800
2020-01-13,16.309999465942383,16.479999542236328,16.100000381469727,16.170000076293945,16.170000076293945,11200
2020-01-14,16.030000686645508,16.110000610351562,15.430000305175781,15.569999694824219,15.569999694824219,20600
2020-01-15,15.680000305175781,16.1200008392334,15.430000305175781,15.6899995803833,15.6899995803833,31100
2020-01-16,15.630000114440918,16.110000610351562,15.630000114440918,16.020000457763672,16.020000457763672,8900
2020-01-17,16.18000030517578,16.18000030517578,15.800000190734863,15.979999542236328,15.979999542236328,5900
2020-01-21,15.875,15.989999771118164,15.732999801635742,15.899999618530273,15.899999618530273,7500
2020-01-22,15.918999671936035,15.918999671936035,15.65999984741211,15.670000076293945,15.670000076293945,2700
2020-01-23,15.619999885559082,16.045000076293945,15.5600004196167,15.5600004196167,15.5600004196167,5400
2020-01-24,15.649999618530273,15.9399995803833,15.600000381469727,15.630000114440918,15.630000114440918,3200
2020-01-27,15.609999656677246,15.800000190734863,15.579999923706055,15.579999923706055,15.579999923706055,8200
2020-01-28,15.539999961853027,15.720000267028809,15.529999732971191,15.720000267028809,15.720000267028809,3900
2020-01-29,15.5,15.59000015258789,15.5,15.59000015258789,15.59000015258789,1900
2020-01-30,15.505999565124512,15.770000457763672,15.505999565124512,15.770000457763672,15.770000457763672,9600
2020-01-31,15.600000381469727,15.600000381469727,15.350000381469727,15.350000381469727,15.350000381469727,5800
2020-02-03,15.5,15.630000114440918,15.420000076293945,15.420000076293945,15.420000076293945,6200
2020-02-04,15.550000190734863,15.550000190734863,15.270000457763672,15.300000190734863,15.300000190734863,6200
2020-02-05,15.4399995803833,15.597000122070312,15.260000228881836,15.510000228881836,15.510000228881836,7500
2020-02-06,15.520000457763672,15.640000343322754,15.5,15.5,15.5,7500
2020-02-07,15.5,15.680000305175781,15.300000190734863,15.300000190734863,15.300000190734863,15300
2020-02-10,15.289999961853027,15.550000190734863,15.220000267028809,15.260000228881836,15.260000228881836,4000
2020-02-11,15.489999771118164,15.489999771118164,15.199999809265137,15.199999809265137,15.199999809265137,1500
2020-02-12,15.399999618530273,15.51099967956543,15.25,15.25,15.25,2900
2020-02-13,15.369999885559082,15.399999618530273,15.288000106811523,15.359999656677246,15.359999656677246,2500
2020-02-14,15.199999809265137,15.260000228881836,15.140000343322754,15.199999809265137,15.199999809265137,8800
2020-02-18,15.637999534606934,15.637999534606934,15.09000015258789,15.09000015258789,15.09000015258789,5500
2020-02-19,15.27299976348877,15.27299976348877,14.899999618530273,14.899999618530273,14.899999618530273,40000
2020-02-20,14.899999618530273,14.989999771118164,14.850000381469727,14.930000305175781,14.930000305175781,4900
2020-02-21,14.989999771118164,15.010000228881836,14.859999656677246,14.859999656677246,14.859999656677246,10100
2020-02-24,14.899999618530273,14.9350004196167,14.61400032043457,14.65999984741211,14.65999984741211,7800
2020-02-25,14.699999809265137,14.699999809265137,14.40999984741211,14.479999542236328,14.479999542236328,40000
2020-02-26,14.5,14.5,14.369999885559082,14.460000038146973,14.460000038146973,10300
2020-02-27,14.399999618530273,14.5,14.199999809265137,14.25,14.25,88800
2020-02-28,14.232999801635742,14.430000305175781,14.010000228881836,14.119999885559082,14.119999885559082,38300
2020-03-02,14.260000228881836,14.260000228881836,14.079999923706055,14.260000228881836,14.260000228881836,5700
2020-03-03,14.140000343322754,14.569999694824219,14.119999885559082,14.550000190734863,14.550000190734863,58900
2020-03-04,14.40999984741211,14.579999923706055,14.260000228881836,14.569999694824219,14.569999694824219,49700
2020-03-05,14.369999885559082,14.369999885559082,13.60099983215332,13.960000038146973,13.960000038146973,66000
2020-03-06,13.720000267028809,14.5,13.720000267028809,14.399999618530273,14.399999618530273,98500
2020-03-09,14.010000228881836,14.010000228881836,13.399999618530273,13.640000343322754,13.640000343322754,34300
2020-03-10,13.960000038146973,14.329999923706055,13.010000228881836,14.0,14.0,33500
2020-03-11,13.8100004196167,14.180000305175781,13.5,13.5600004196167,13.5600004196167,19700
2020-03-12,13.050000190734863,13.96500015258789,13.0,13.0,13.0,34000
2020-03-13,13.539999961853027,14.890000343322754,13.539999961853027,14.880000114440918,14.880000114440918,86200
2020-03-16,13.109999656677246,14.1899995803833,12.640000343322754,13.75,13.75,43700
2020-03-17,12.85200023651123,14.5600004196167,12.85200023651123,13.600000381469727,13.600000381469727,69800
2020-03-18,13.010000228881836,14.0,12.029999732971191,12.220000267028809,12.220000267028809,51200
2020-03-19,11.920000076293945,12.539999961853027,10.449999809265137,11.050000190734863,11.050000190734863,107900
2020-03-20,11.039999961853027,11.36299991607666,10.149999618530273,10.329999923706055,10.329999923706055,179600
2020-03-23,10.40999984741211,11.529999732971191,10.25,10.84000015258789,10.84000015258789,87700
2020-03-24,11.789999961853027,13.5,11.789999961853027,12.25,12.25,62500
2020-03-25,12.140000343322754,12.140000343322754,10.760000228881836,11.260000228881836,11.260000228881836,42000
2020-03-26,11.15999984741211,11.9399995803833,11.15999984741211,11.9399995803833,11.9399995803833,53400
2020-03-27,11.539999961853027,12.579999923706055,11.539999961853027,11.569999694824219,11.569999694824219,23200
2020-03-30,12.869999885559082,12.869999885559082,12.100000381469727,12.550000190734863,12.550000190734863,29400
2020-03-31,12.34000015258789,13.5600004196167,12.25,13.5600004196167,13.5600004196167,49500
2020-04-01,13.5,13.609999656677246,11.940999984741211,11.989999771118164,11.989999771118164,57300
2020-04-02,12.1899995803833,13.1899995803833,11.180000305175781,11.510000228881836,11.510000228881836,67500
2020-04-03,11.229999542236328,12.350000381469727,10.949999809265137,11.229999542236328,11.229999542236328,65300
2020-04-06,11.710000038146973,12.279999732971191,11.579999923706055,12.010000228881836,12.010000228881836,69600
2020-04-07,12.100000381469727,12.729999542236328,11.510000228881836,11.65999984741211,11.65999984741211,40100
2020-04-08,11.890000343322754,12.260000228881836,11.510000228881836,11.699999809265137,11.699999809265137,47700
2020-04-09,12.15999984741211,12.710000038146973,11.5,12.220000267028809,12.220000267028809,56900
2020-04-13,12.09000015258789,12.210000038146973,11.539999961853027,12.050000190734863,12.050000190734863,53000
2020-04-14,12.4399995803833,13.274999618530273,12.25,12.84000015258789,12.84000015258789,31000
2020-04-15,12.239999771118164,12.869999885559082,12.239999771118164,12.380000114440918,12.380000114440918,38200
2020-04-16,12.34000015258789,12.34000015258789,11.949999809265137,12.079999923706055,12.079999923706055,42300
2020-04-17,12.350000381469727,12.729999542236328,11.9399995803833,12.0,12.0,46800
2020-04-20,11.90999984741211,12.800000190734863,11.90999984741211,12.220000267028809,12.220000267028809,33800
2020-04-21,11.90999984741211,12.390000343322754,11.800000190734863,12.0600004196167,12.0600004196167,35100
2020-04-22,12.09000015258789,12.350000381469727,11.75,11.829999923706055,11.829999923706055,21600
2020-04-23,11.75,12.1899995803833,11.6899995803833,11.819999694824219,11.819999694824219,30300
2020-04-24,11.739999771118164,11.960000038146973,11.739999771118164,11.770000457763672,11.770000457763672,27700
2020-04-27,11.770000457763672,12.6899995803833,11.770000457763672,12.039999961853027,12.039999961853027,40100
2020-04-28,12.430000305175781,13.609999656677246,12.34000015258789,13.40999984741211,13.40999984741211,31600
2020-04-29,13.84000015258789,14.59000015258789,13.5600004196167,13.600000381469727,13.600000381469727,51800
2020-04-30,13.229999542236328,14.175000190734863,13.220000267028809,13.510000228881836,13.510000228881836,23700
2020-05-01,13.210000038146973,13.210000038146973,12.359999656677246,12.670000076293945,12.670000076293945,21800
2020-05-04,13.024999618530273,13.024999618530273,12.65999984741211,12.779999732971191,12.779999732971191,15800
2020-05-05,13.229999542236328,13.229999542236328,12.199999809265137,12.390000343322754,12.390000343322754,17600
2020-05-06,12.350000381469727,13.420000076293945,12.350000381469727,13.0600004196167,13.0600004196167,25600
2020-05-07,13.380000114440918,13.770000457763672,12.880000114440918,13.670000076293945,13.670000076293945,19100
2020-05-08,14.069999694824219,14.300000190734863,13.859999656677246,13.859999656677246,13.859999656677246,14600
2020-05-11,13.670000076293945,14.59000015258789,13.020000457763672,14.359999656677246,14.359999656677246,22300
2020-05-12,14.170000076293945,14.180000305175781,13.399999618530273,13.430000305175781,13.430000305175781,17300
2020-05-13,13.289999961853027,13.289999961853027,12.40999984741211,12.920000076293945,12.920000076293945,32700
2020-05-14,12.489999771118164,12.489999771118164,11.869999885559082,12.3100004196167,12.3100004196167,30400
2020-05-15,12.359999656677246,12.40999984741211,11.890000343322754,12.40999984741211,12.40999984741211,10400
2020-05-18,12.779999732971191,13.65999984741211,12.779999732971191,13.65999984741211,13.65999984741211,22100
2020-05-19,13.430000305175781,13.84000015258789,12.619999885559082,12.720000267028809,12.720000267028809,11600
2020-05-20,13.119999885559082,13.539999961853027,12.819999694824219,13.539999961853027,13.539999961853027,13600
2020-05-21,13.399999618530273,14.0,13.140000343322754,13.5600004196167,13.5600004196167,13600
2020-05-22,13.729999542236328,14.0649995803833,13.640000343322754,13.789999961853027,13.789999961853027,15200
2020-05-26,14.34000015258789,14.84000015258789,14.020000457763672,14.4399995803833,14.4399995803833,23500
2020-05-27,14.760000228881836,14.850000381469727,14.0,14.279999732971191,14.279999732971191,17100
2020-05-28,14.579999923706055,14.579999923706055,14.220000267028809,14.260000228881836,14.260000228881836,17400
2020-05-29,14.119999885559082,14.989999771118164,14.119999885559082,14.989999771118164,14.989999771118164,31900
2020-06-01,14.989999771118164,14.989999771118164,14.0,14.350000381469727,14.350000381469727,38900
2020-06-02,14.279999732971191,14.470000267028809,14.0,14.029999732971191,14.029999732971191,7400
2020-06-03,14.380000114440918,14.789999961853027,14.265000343322754,14.600000381469727,14.600000381469727,14300
2020-06-04,14.430000305175781,15.489999771118164,14.390000343322754,15.489999771118164,15.489999771118164,94800
2020-06-05,15.789999961853027,15.930000305175781,15.399999618530273,15.779999732971191,15.779999732971191,42500
2020-06-08,16.020000457763672,16.020000457763672,15.1899995803833,15.84000015258789,15.84000015258789,65400
2020-06-09,15.520000457763672,15.520000457763672,15.109999656677246,15.34000015258789,15.34000015258789,27500
2020-06-10,15.210000038146973,15.6899995803833,15.210000038146973,15.600000381469727,15.600000381469727,46300
2020-06-11,15.069999694824219,15.404999732971191,14.789999961853027,15.260000228881836,15.260000228881836,48800
2020-06-12,15.84000015258789,15.84000015258789,15.180000305175781,15.739999771118164,15.739999771118164,43700
2020-06-15,15.3100004196167,15.699999809265137,14.199999809265137,15.229999542236328,15.229999542236328,29300
2020-06-16,15.65999984741211,15.765000343322754,14.864999771118164,15.270000457763672,15.270000457763672,21300
2020-06-17,14.984999656677246,14.989999771118164,14.555999755859375,14.75,14.75,12200
2020-06-18,14.59000015258789,14.59000015258789,14.119999885559082,14.34000015258789,14.34000015258789,11100
2020-06-19,14.399999618530273,14.630000114440918,14.050000190734863,14.630000114440918,14.630000114440918,42400
2020-06-22,14.359999656677246,15.4399995803833,14.359999656677246,15.420000076293945,15.420000076293945,38200
2020-06-23,15.670000076293945,15.670000076293945,15.199999809265137,15.279999732971191,15.279999732971191,42300
2020-06-24,15.039999961853027,15.039999961853027,14.430000305175781,14.5,14.5,40500
2020-06-25,14.430000305175781,14.949999809265137,14.260000228881836,14.90999984741211,14.90999984741211,24100
2020-06-26,14.75,14.994999885559082,14.369999885559082,14.970000267028809,14.970000267028809,93200
2020-06-29,15.600000381469727,16.0,14.380000114440918,14.739999771118164,14.739999771118164,141100
2020-06-30,14.890000343322754,15.170000076293945,14.75,14.770000457763672,14.770000457763672,29300
2020-07-01,14.800000190734863,15.239999771118164,14.800000190734863,15.119999885559082,15.119999885559082,24500
2020-07-02,15.329999923706055,15.329999923706055,15.050000190734863,15.119999885559082,15.119999885559082,4700
2020-07-06,15.430000305175781,15.59000015258789,15.1899995803833,15.470000267028809,15.470000267028809,21500
2020-07-07,15.279999732971191,15.369999885559082,14.670000076293945,14.729999542236328,14.729999542236328,22000
2020-07-08,14.819999694824219,15.170000076293945,14.210000038146973,15.039999961853027,15.039999961853027,24600
2020-07-09,14.979999542236328,15.079999923706055,14.029999732971191,14.40999984741211,14.40999984741211,24700
2020-07-10,14.680000305175781,15.550000190734863,14.680000305175781,15.489999771118164,15.489999771118164,17900
2020-07-13,15.569999694824219,15.579999923706055,15.020000457763672,15.079999923706055,15.079999923706055,12100
2020-07-14,15.239999771118164,15.6899995803833,15.125,15.539999961853027,15.539999961853027,31300
2020-07-15,15.699999809265137,15.989999771118164,15.680000305175781,15.760000228881836,15.760000228881836,31200
2020-07-16,15.619999885559082,15.859999656677246,15.5600004196167,15.75,15.75,25900
2020-07-17,15.670000076293945,16.18000030517578,15.229999542236328,15.649999618530273,15.649999618530273,40000
2020-07-20,15.640000343322754,16.0049991607666,15.640000343322754,15.970000267028809,15.970000267028809,20300
2020-07-21,16.15999984741211,16.389999389648438,15.75,16.049999237060547,16.049999237060547,37800
2020-07-22,15.920000076293945,16.25,15.75,16.190000534057617,16.190000534057617,29100
2020-07-23,16.030000686645508,16.290000915527344,15.899999618530273,16.06999969482422,16.06999969482422,19400
2020-07-24,15.899999618530273,16.239999771118164,15.899999618530273,15.920000076293945,15.920000076293945,14300
2020-07-27,15.930000305175781,16.229999542236328,15.930000305175781,16.229999542236328,16.229999542236328,4200
2020-07-28,16.15999984741211,16.360000610351562,15.949999809265137,16.079999923706055,16.079999923706055,18300
2020-07-29,16.200000762939453,16.440000534057617,16.05500030517578,16.290000915527344,16.290000915527344,21600
2020-07-30,16.079999923706055,16.790000915527344,16.079999923706055,16.260000228881836,16.260000228881836,17900
2020-07-31,16.3799991607666,16.700000762939453,16.219999313354492,16.479999542236328,16.479999542236328,22000
2020-08-03,16.68000030517578,16.68000030517578,15.84000015258789,16.010000228881836,16.010000228881836,19100
2020-08-04,15.850000381469727,16.459999084472656,15.850000381469727,16.459999084472656,16.459999084472656,10500
2020-08-05,16.6299991607666,16.6299991607666,16.040000915527344,16.049999237060547,16.049999237060547,17800
2020-08-06,16.34000015258789,16.81599998474121,16.174999237060547,16.690000534057617,16.690000534057617,25200
2020-08-07,16.649999618530273,16.860000610351562,16.5,16.850000381469727,16.850000381469727,33100
2020-08-10,16.940000534057617,17.0,16.8700008392334,16.8700008392334,16.8700008392334,20400
2020-08-11,17.049999237060547,17.139999389648438,16.850000381469727,16.920000076293945,16.920000076293945,23200
2020-08-12,16.969999313354492,17.049999237060547,16.920000076293945,17.049999237060547,17.049999237060547,13300
2020-08-13,16.959999084472656,17.06999969482422,16.510000228881836,16.81999969482422,16.81999969482422,4000
2020-08-14,16.8799991607666,17.040000915527344,16.65999984741211,17.040000915527344,17.040000915527344,3900
2020-08-17,17.040000915527344,17.040000915527344,16.889999389648438,16.959999084472656,16.959999084472656,11200
2020-08-18,16.809999465942383,16.950000762939453,16.809999465942383,16.950000762939453,16.950000762939453,5700
2020-08-19,16.979999542236328,17.149999618530273,16.81999969482422,16.8799991607666,16.8799991607666,10600
2020-08-20,16.790000915527344,16.989999771118164,16.790000915527344,16.850000381469727,16.850000381469727,21500
2020-08-21,16.920000076293945,16.954999923706055,16.799999237060547,16.93000030517578,16.93000030517578,13900
2020-08-24,17.110000610351562,17.110000610351562,16.760000228881836,16.889999389648438,16.889999389648438,9600
2020-08-25,17.0,17.0,16.780000686645508,16.81999969482422,16.81999969482422,7100
2020-08-26,16.75,16.75,16.100000381469727,16.100000381469727,16.100000381469727,23700
2020-08-27,16.3700008392334,16.954999923706055,16.030000686645508,16.329999923706055,16.329999923706055,8100
2020-08-28,16.5,16.5,15.890000343322754,15.890000343322754,15.890000343322754,9700
2020-08-31,16.09000015258789,16.850000381469727,15.8100004196167,16.31999969482422,16.31999969482422,26300
2020-09-01,16.420000076293945,16.700000762939453,16.34000015258789,16.34000015258789,16.34000015258789,10000
2020-09-02,16.34000015258789,16.770000457763672,16.07699966430664,16.68000030517578,16.68000030517578,29800
2020-09-03,16.56999969482422,16.975000381469727,16.46500015258789,16.850000381469727,16.850000381469727,21100
2020-09-04,17.0,17.049999237060547,16.485000610351562,16.799999237060547,16.799999237060547,13000
2020-09-08,16.040000915527344,16.405000686645508,16.030000686645508,16.25,16.25,18400
2020-09-09,16.229999542236328,16.3799991607666,15.649999618530273,15.760000228881836,15.760000228881836,36400
2020-09-10,15.970000267028809,16.3799991607666,15.819999694824219,15.989999771118164,15.989999771118164,21900
2020-09-11,16.049999237060547,16.049999237060547,15.640000343322754,15.829999923706055,15.829999923706055,12700
2020-09-14,15.9399995803833,15.9399995803833,15.600000381469727,15.6899995803833,15.6899995803833,15100
2020-09-15,15.880000114440918,16.110000610351562,15.829999923706055,15.979999542236328,15.979999542236328,14900
2020-09-16,15.960000038146973,16.1299991607666,15.609999656677246,15.760000228881836,15.760000228881836,19200
2020-09-17,15.760000228881836,16.030000686645508,15.569999694824219,15.800000190734863,15.800000190734863,11700
2020-09-18,15.979999542236328,16.09000015258789,15.529999732971191,15.899999618530273,15.899999618530273,101400
2020-09-21,15.609999656677246,15.880000114440918,14.600000381469727,14.6899995803833,14.6899995803833,21100
2020-09-22,14.65999984741211,14.960000038146973,14.600000381469727,14.739999771118164,14.739999771118164,20800
2020-09-23,14.699999809265137,15.989999771118164,14.619999885559082,14.720000267028809,14.720000267028809,31900
2020-09-24,14.800000190734863,15.760000228881836,14.6850004196167,15.550000190734863,15.550000190734863,18000
2020-09-25,15.420000076293945,16.31999969482422,15.420000076293945,16.010000228881836,16.010000228881836,11300
2020-09-28,16.100000381469727,17.09000015258789,15.649999618530273,16.469999313354492,16.469999313354492,9200
2020-09-29,16.309999465942383,16.649999618530273,16.309999465942383,16.649999618530273,16.649999618530273,9000
2020-09-30,16.757999420166016,17.100000381469727,16.719999313354492,16.889999389648438,16.889999389648438,12500
2020-10-01,16.899999618530273,16.920000076293945,16.354999542236328,16.43000030517578,16.43000030517578,22100
2020-10-02,16.299999237060547,16.829999923706055,16.139999389648438,16.3799991607666,16.3799991607666,10100
2020-10-05,15.994999885559082,16.719999313354492,15.859999656677246,16.719999313354492,16.719999313354492,10300
2020-10-06,16.850000381469727,17.020000457763672,16.510000228881836,16.510000228881836,16.510000228881836,13500
2020-10-07,16.924999237060547,16.979999542236328,16.700000762939453,16.979999542236328,16.979999542236328,18600
2020-10-08,16.989999771118164,17.0,16.700000762939453,16.829999923706055,16.829999923706055,8400
2020-10-09,16.440000534057617,17.100000381469727,16.420000076293945,17.100000381469727,17.100000381469727,18300
2020-10-12,16.979999542236328,17.049999237060547,16.950000762939453,17.0,17.0,16000
2020-10-13,16.860000610351562,17.014999389648438,16.690000534057617,16.690000534057617,16.690000534057617,4300
2020-10-14,16.850000381469727,17.0,16.274999618530273,16.450000762939453,16.450000762939453,5400
2020-10-15,16.510000228881836,17.0,16.510000228881836,17.0,17.0,4500
2020-10-16,16.790000915527344,16.979999542236328,15.800000190734863,16.770000457763672,16.770000457763672,9500
2020-10-19,16.799999237060547,17.0,16.709999084472656,16.709999084472656,16.709999084472656,13100
2020-10-20,16.6200008392334,16.719999313354492,16.5,16.639999389648438,16.639999389648438,13500
2020-10-21,16.889999389648438,16.889999389648438,16.299999237060547,16.5,16.5,9000
2020-10-22,16.674999237060547,16.709999084472656,16.459999084472656,16.459999084472656,16.459999084472656,14200
2020-10-23,16.625,16.75,16.360000610351562,16.360000610351562,16.360000610351562,8100
2020-10-26,16.43000030517578,16.549999237060547,16.209999084472656,16.350000381469727,16.350000381469727,4800
2020-10-27,16.649999618530273,16.649999618530273,16.5049991607666,16.559999465942383,16.559999465942383,10900
2020-10-28,16.864999771118164,16.864999771118164,16.2549991607666,16.420000076293945,16.420000076293945,6100
2020-10-29,16.34000015258789,16.8700008392334,16.1200008392334,16.8700008392334,16.8700008392334,9900
2020-10-30,16.610000610351562,16.899999618530273,16.610000610351562,16.709999084472656,16.709999084472656,10500
2020-11-02,16.950000762939453,17.049999237060547,16.709999084472656,16.709999084472656,16.709999084472656,12700
2020-11-03,16.780000686645508,17.030000686645508,16.600000381469727,17.030000686645508,17.030000686645508,18300
2020-11-04,17.030000686645508,17.030000686645508,16.489999771118164,16.489999771118164,16.489999771118164,2000
2020-11-05,16.579999923706055,16.889999389648438,16.360000610351562,16.600000381469727,16.600000381469727,9900
2020-11-06,16.711000442504883,16.711000442504883,16.325000762939453,16.510000228881836,16.510000228881836,10700
2020-11-09,17.040000915527344,17.229999542236328,16.375,16.649999618530273,16.649999618530273,23900
2020-11-10,16.799999237060547,18.0,16.799999237060547,17.600000381469727,17.600000381469727,26200
2020-11-11,17.600000381469727,17.829999923706055,17.600000381469727,17.700000762939453,17.700000762939453,7400
2020-11-12,17.700000762939453,17.709999084472656,17.395000457763672,17.399999618530273,17.399999618530273,4100
2020-11-13,17.450000762939453,17.559999465942383,17.100000381469727,17.100000381469727,17.100000381469727,10400
2020-11-16,17.469999313354492,17.860000610351562,17.469999313354492,17.860000610351562,17.860000610351562,8900
2020-11-17,17.81999969482422,17.950000762939453,17.780000686645508,17.799999237060547,17.799999237060547,6200
2020-11-18,17.809999465942383,17.809999465942383,17.43000030517578,17.43000030517578,17.43000030517578,6700
2020-11-19,17.43000030517578,17.43000030517578,17.1299991607666,17.309999465942383,17.309999465942383,4000
2020-11-20,17.1200008392334,17.34000015258789,16.674999237060547,17.34000015258789,17.34000015258789,10300
2020-11-23,17.309999465942383,17.670000076293945,17.299999237060547,17.440000534057617,17.440000534057617,6400
2020-11-24,17.739999771118164,18.0,17.469999313354492,17.59000015258789,17.59000015258789,17800
2020-11-25,17.336000442504883,18.09000015258789,17.020000457763672,17.639999389648438,17.639999389648438,6100
2020-11-27,17.389999389648438,17.700000762939453,17.290000915527344,17.700000762939453,17.700000762939453,2900
2020-11-30,17.56999969482422,17.610000610351562,17.0,17.100000381469727,17.100000381469727,7600
2020-12-01,16.43000030517578,17.290000915527344,16.43000030517578,16.950000762939453,16.950000762939453,11900
2020-12-02,16.534000396728516,16.56999969482422,16.489999771118164,16.489999771118164,16.489999771118164,3200
2020-12-03,16.479999542236328,17.399999618530273,16.479999542236328,16.549999237060547,16.549999237060547,6600
2020-12-04,17.200000762939453,17.399999618530273,16.839000701904297,17.3799991607666,17.3799991607666,4900
2020-12-07,17.15999984741211,17.334999084472656,16.860000610351562,16.860000610351562,16.860000610351562,5900
2020-12-08,17.020000457763672,17.3700008392334,17.020000457763672,17.239999771118164,17.239999771118164,6100
2020-12-09,17.280000686645508,17.530000686645508,17.13800048828125,17.15999984741211,17.15999984741211,9900
2020-12-10,17.170000076293945,17.5,17.09000015258789,17.5,17.5,3900
2020-12-11,17.43000030517578,17.639999389648438,17.315000534057617,17.639999389648438,17.639999389648438,5300
2020-12-14,17.56999969482422,17.889999389648438,17.450000762939453,17.450000762939453,17.450000762939453,7300
2020-12-15,17.690000534057617,18.139999389648438,17.68000030517578,17.979999542236328,17.979999542236328,12000
2020-12-16,18.170000076293945,18.170000076293945,17.549999237060547,17.549999237060547,17.549999237060547,7800
2020-12-17,17.84600067138672,18.040000915527344,17.84600067138672,18.040000915527344,18.040000915527344,3100
2020-12-18,18.1200008392334,18.1200008392334,17.079999923706055,17.079999923706055,17.079999923706055,42800
2020-12-21,17.360000610351562,17.360000610351562,16.93000030517578,17.18000030517578,17.18000030517578,6300
2020-12-22,17.290000915527344,17.34000015258789,16.690000534057617,16.729999542236328,16.729999542236328,7700
2020-12-23,17.0,17.132999420166016,17.0,17.020000457763672,17.020000457763672,3700
2020-12-24,16.760000228881836,16.760000228881836,16.71500015258789,16.729999542236328,16.729999542236328,1800
2020-12-28,16.809999465942383,17.10300064086914,16.809999465942383,16.809999465942383,16.809999465942383,3500
2020-12-29,16.899999618530273,16.940000534057617,16.719999313354492,16.799999237060547,16.799999237060547,6200
2020-12-30,16.559999465942383,16.700000762939453,16.299999237060547,16.399999618530273,16.399999618530273,13400
