Date,Open,High,Low,Close,Adj Close,Volume
2019-07-25,11.050000190734863,11.640000343322754,10.510000228881836,11.25,11.25,4530800
2019-07-26,11.350000381469727,11.779999732971191,11.119999885559082,11.4399995803833,11.4399995803833,1166300
2019-07-29,11.289999961853027,11.649999618530273,10.979999542236328,11.199999809265137,11.199999809265137,325000
2019-07-30,11.149999618530273,11.399999618530273,10.989999771118164,11.350000381469727,11.350000381469727,513800
2019-07-31,11.359999656677246,11.414999961853027,11.012999534606934,11.25,11.25,264200
2019-08-01,11.300000190734863,11.75,11.029999732971191,11.390000343322754,11.390000343322754,872400
2019-08-02,11.380000114440918,11.59000015258789,11.15999984741211,11.520000457763672,11.520000457763672,174500
2019-08-05,11.449999809265137,11.5,10.609999656677246,10.8100004196167,10.8100004196167,373100
2019-08-06,10.819999694824219,11.300000190734863,10.819999694824219,10.989999771118164,10.989999771118164,109900
2019-08-07,10.949999809265137,11.390000343322754,10.5649995803833,11.039999961853027,11.039999961853027,272500
2019-08-08,11.130000114440918,11.399999618530273,11.093999862670898,11.3100004196167,11.3100004196167,347900
2019-08-09,11.029999732971191,11.949999809265137,11.0,11.75,11.75,323900
2019-08-12,11.699999809265137,11.770000457763672,11.220000267028809,11.739999771118164,11.739999771118164,542500
2019-08-13,11.729999542236328,11.949999809265137,11.729999542236328,11.920000076293945,11.920000076293945,138000
2019-08-14,11.90999984741211,12.0,11.550000190734863,11.869999885559082,11.869999885559082,805300
2019-08-15,11.979999542236328,11.979999542236328,10.699999809265137,11.069999694824219,11.069999694824219,361500
2019-08-16,10.890000343322754,11.470000267028809,10.710000038146973,11.039999961853027,11.039999961853027,392000
2019-08-19,11.470000267028809,11.975000381469727,11.050000190734863,11.210000038146973,11.210000038146973,287600
2019-08-20,11.510000228881836,11.760000228881836,10.0,10.359999656677246,10.359999656677246,485800
2019-08-21,10.449999809265137,10.460000038146973,9.850000381469727,10.15999984741211,10.15999984741211,243600
2019-08-22,10.09000015258789,10.258000373840332,9.380000114440918,9.4399995803833,9.4399995803833,369900
2019-08-23,9.420000076293945,9.699999809265137,8.5600004196167,8.65999984741211,8.65999984741211,318700
2019-08-26,8.640000343322754,8.710000038146973,8.010000228881836,8.670000076293945,8.670000076293945,379600
2019-08-27,8.609999656677246,9.239999771118164,8.300000190734863,9.149999618530273,9.149999618530273,391800
2019-08-28,9.1899995803833,10.59000015258789,9.079999923706055,10.15999984741211,10.15999984741211,506100
2019-08-29,10.300000190734863,10.5,9.550000190734863,10.319999694824219,10.319999694824219,260000
2019-08-30,10.260000228881836,10.65999984741211,10.130000114440918,10.5600004196167,10.5600004196167,74900
2019-09-03,10.569999694824219,11.220000267028809,10.553000450134277,10.760000228881836,10.760000228881836,402800
2019-09-04,10.859999656677246,11.0,10.609999656677246,10.829999923706055,10.829999923706055,229300
2019-09-05,10.930000305175781,11.319999694824219,10.529999732971191,11.010000228881836,11.010000228881836,231700
2019-09-06,10.949999809265137,11.880000114440918,10.90999984741211,11.520000457763672,11.520000457763672,191500
2019-09-09,11.529999732971191,11.529999732971191,10.510000228881836,10.680000305175781,10.680000305175781,331100
2019-09-10,10.649999618530273,10.869999885559082,10.180000305175781,10.34000015258789,10.34000015258789,179100
2019-09-11,10.279999732971191,10.75,10.09000015258789,10.3100004196167,10.3100004196167,218000
2019-09-12,10.359999656677246,10.550000190734863,9.880000114440918,10.15999984741211,10.15999984741211,104500
2019-09-13,10.180000305175781,10.34000015258789,10.100000381469727,10.260000228881836,10.260000228881836,111000
2019-09-16,10.25,10.470000267028809,10.15999984741211,10.279999732971191,10.279999732971191,162000
2019-09-17,10.1899995803833,10.699999809265137,10.010000228881836,10.4399995803833,10.4399995803833,138900
2019-09-18,10.510000228881836,10.649999618530273,10.329999923706055,10.460000038146973,10.460000038146973,369700
2019-09-19,10.40999984741211,10.5600004196167,10.329999923706055,10.359999656677246,10.359999656677246,356900
2019-09-20,10.420000076293945,10.5600004196167,10.3100004196167,10.420000076293945,10.420000076293945,1706100
2019-09-23,10.5,11.25,10.449999809265137,11.010000228881836,11.010000228881836,248200
2019-09-24,11.029999732971191,11.779999732971191,10.90999984741211,11.59000015258789,11.59000015258789,402200
2019-09-25,11.65999984741211,12.279999732971191,11.65999984741211,12.029999732971191,12.029999732971191,477400
2019-09-26,12.010000228881836,12.109999656677246,11.59000015258789,11.649999618530273,11.649999618530273,389900
2019-09-27,11.649999618530273,11.649999618530273,10.50100040435791,10.800000190734863,10.800000190734863,1823200
2019-09-30,10.880000114440918,10.960000038146973,10.609999656677246,10.75,10.75,313300
2019-10-01,10.800000190734863,10.800000190734863,10.149999618530273,10.199999809265137,10.199999809265137,159600
2019-10-02,10.109999656677246,10.319999694824219,9.829999923706055,10.050000190734863,10.050000190734863,193200
2019-10-03,10.050000190734863,10.09000015258789,9.779999732971191,9.850000381469727,9.850000381469727,262900
2019-10-04,9.84000015258789,9.928000450134277,9.479999542236328,9.579999923706055,9.579999923706055,157600
2019-10-07,9.699999809265137,9.850000381469727,9.420000076293945,9.779999732971191,9.779999732971191,118000
2019-10-08,9.6899995803833,9.6899995803833,9.449999809265137,9.630000114440918,9.630000114440918,92900
2019-10-09,9.670000076293945,9.670000076293945,9.3100004196167,9.4399995803833,9.4399995803833,119000
2019-10-10,9.420000076293945,10.050000190734863,9.3100004196167,10.0,10.0,218100
2019-10-11,10.069999694824219,10.300000190734863,9.920000076293945,10.15999984741211,10.15999984741211,222600
2019-10-14,10.100000381469727,10.220000267028809,10.010000228881836,10.09000015258789,10.09000015258789,121600
2019-10-15,10.170000076293945,10.270000457763672,9.970000267028809,10.039999961853027,10.039999961853027,177400
2019-10-16,10.029999732971191,10.329999923706055,10.029999732971191,10.229999542236328,10.229999542236328,179000
2019-10-17,10.25,10.680000305175781,10.25,10.630000114440918,10.630000114440918,299900
2019-10-18,10.600000381469727,10.789999961853027,10.550000190734863,10.699999809265137,10.699999809265137,105700
2019-10-21,10.729999542236328,11.180000305175781,10.6899995803833,10.9399995803833,10.9399995803833,158200
2019-10-22,10.970000267028809,11.140000343322754,10.510000228881836,10.630000114440918,10.630000114440918,114300
2019-10-23,10.600000381469727,10.630000114440918,10.380000114440918,10.510000228881836,10.510000228881836,94300
2019-10-24,10.420000076293945,10.755000114440918,10.149999618530273,10.550000190734863,10.550000190734863,191600
2019-10-25,10.479999542236328,10.90999984741211,10.479999542236328,10.8100004196167,10.8100004196167,170300
2019-10-28,10.949999809265137,11.3100004196167,10.829999923706055,10.970000267028809,10.970000267028809,296300
2019-10-29,10.960000038146973,11.069999694824219,10.789999961853027,11.050000190734863,11.050000190734863,146400
2019-10-30,11.029999732971191,11.119999885559082,10.869999885559082,10.989999771118164,10.989999771118164,121000
2019-10-31,11.479999542236328,11.5,10.489999771118164,10.619999885559082,10.619999885559082,198800
2019-11-01,10.619999885559082,11.100000381469727,10.569999694824219,11.0600004196167,11.0600004196167,333300
2019-11-04,11.210000038146973,11.569999694824219,11.039999961853027,11.140000343322754,11.140000343322754,175200
2019-11-05,11.119999885559082,11.350000381469727,10.899999618530273,10.9399995803833,10.9399995803833,513400
2019-11-06,10.84000015258789,10.949999809265137,10.199999809265137,10.369999885559082,10.369999885559082,105900
2019-11-07,10.420000076293945,10.479999542236328,9.654999732971191,9.850000381469727,9.850000381469727,150400
2019-11-08,9.829999923706055,9.970000267028809,9.609999656677246,9.680000305175781,9.680000305175781,125200
2019-11-11,9.649999618530273,10.239999771118164,9.619999885559082,10.170000076293945,10.170000076293945,323200
2019-11-12,10.270000457763672,11.069999694824219,10.270000457763672,10.569999694824219,10.569999694824219,276700
2019-11-13,10.510000228881836,10.579999923706055,9.609999656677246,9.890000343322754,9.890000343322754,278300
2019-11-14,9.920000076293945,10.75,9.819999694824219,10.600000381469727,10.600000381469727,245200
2019-11-15,10.670000076293945,10.800000190734863,10.482000350952148,10.720000267028809,10.720000267028809,140000
2019-11-18,10.800000190734863,10.800000190734863,10.319999694824219,10.619999885559082,10.619999885559082,96200
2019-11-19,10.680000305175781,10.819999694824219,10.449999809265137,10.609999656677246,10.609999656677246,149100
2019-11-20,10.529999732971191,10.65999984741211,10.149999618530273,10.239999771118164,10.239999771118164,266400
2019-11-21,10.220000267028809,10.475000381469727,10.199999809265137,10.390000343322754,10.390000343322754,87700
2019-11-22,10.470000267028809,10.510000228881836,9.970000267028809,10.130000114440918,10.130000114440918,143700
2019-11-25,10.039999961853027,10.279999732971191,10.029999732971191,10.039999961853027,10.039999961853027,85900
2019-11-26,10.010000228881836,10.069999694824219,9.850000381469727,9.970000267028809,9.970000267028809,68500
2019-11-27,10.039999961853027,10.430000305175781,9.949999809265137,10.220000267028809,10.220000267028809,209600
2019-11-29,10.319999694824219,10.550000190734863,10.140000343322754,10.279999732971191,10.279999732971191,27200
2019-12-02,10.239999771118164,10.279999732971191,9.850000381469727,10.020000457763672,10.020000457763672,80800
2019-12-03,9.90999984741211,9.944999694824219,9.739999771118164,9.899999618530273,9.899999618530273,83800
2019-12-04,9.989999771118164,9.989999771118164,9.550000190734863,9.6899995803833,9.6899995803833,52800
2019-12-05,9.680000305175781,9.680000305175781,9.40999984741211,9.520000457763672,9.520000457763672,79800
2019-12-06,9.5,9.789999961853027,9.470000267028809,9.680000305175781,9.680000305175781,70400
2019-12-09,9.680000305175781,9.680000305175781,9.579999923706055,9.65999984741211,9.65999984741211,70600
2019-12-10,9.59000015258789,9.739999771118164,9.460000038146973,9.59000015258789,9.59000015258789,66300
2019-12-11,9.600000381469727,9.600000381469727,9.199999809265137,9.3100004196167,9.3100004196167,92100
2019-12-12,9.359999656677246,10.010000228881836,9.229999542236328,9.75,9.75,550400
2019-12-13,9.779999732971191,10.390000343322754,9.640000343322754,10.279999732971191,10.279999732971191,148400
2019-12-16,10.449999809265137,10.654999732971191,10.130000114440918,10.399999618530273,10.399999618530273,185500
2019-12-17,10.300000190734863,11.220000267028809,10.300000190734863,11.050000190734863,11.050000190734863,194400
2019-12-18,11.100000381469727,11.180000305175781,10.890000343322754,11.0600004196167,11.0600004196167,88700
2019-12-19,11.0,11.180000305175781,10.850000381469727,10.979999542236328,10.979999542236328,90500
2019-12-20,10.970000267028809,11.979999542236328,10.970000267028809,11.489999771118164,11.489999771118164,596700
2019-12-23,11.489999771118164,11.699999809265137,11.300999641418457,11.420000076293945,11.420000076293945,334000
2019-12-24,11.359999656677246,11.710000038146973,11.069999694824219,11.579999923706055,11.579999923706055,105500
2019-12-26,11.649999618530273,11.739999771118164,11.369999885559082,11.6899995803833,11.6899995803833,170700
2019-12-27,11.789999961853027,11.859999656677246,11.371000289916992,11.630000114440918,11.630000114440918,136900
2019-12-30,11.739999771118164,12.039999961853027,11.699999809265137,11.899999618530273,11.899999618530273,401200
2019-12-31,12.029999732971191,12.46399974822998,10.946000099182129,11.15999984741211,11.15999984741211,220600
2020-01-02,11.270000457763672,11.720000267028809,11.175000190734863,11.289999961853027,11.289999961853027,179000
2020-01-03,11.350000381469727,11.84000015258789,11.347999572753906,11.5,11.5,214400
2020-01-06,11.75,11.819000244140625,11.350000381469727,11.420000076293945,11.420000076293945,186500
2020-01-07,11.4399995803833,11.890000343322754,11.420000076293945,11.520000457763672,11.520000457763672,180500
2020-01-08,11.479999542236328,11.649999618530273,11.449999809265137,11.529999732971191,11.529999732971191,165200
2020-01-09,11.600000381469727,11.635000228881836,11.3100004196167,11.369999885559082,11.369999885559082,121600
2020-01-10,11.430000305175781,11.449999809265137,11.100000381469727,11.180000305175781,11.180000305175781,212600
2020-01-13,11.279999732971191,11.430000305175781,11.229999542236328,11.270000457763672,11.270000457763672,85600
2020-01-14,11.369999885559082,11.40999984741211,10.989999771118164,11.09000015258789,11.09000015258789,380800
2020-01-15,11.15999984741211,11.505000114440918,11.13700008392334,11.390000343322754,11.390000343322754,194200
2020-01-16,11.5600004196167,11.788999557495117,11.430000305175781,11.670000076293945,11.670000076293945,200900
2020-01-17,11.739999771118164,12.399999618530273,11.609999656677246,12.319999694824219,12.319999694824219,216500
2020-01-21,12.300000190734863,12.84000015258789,12.300000190734863,12.710000038146973,12.710000038146973,620000
2020-01-22,12.75,12.90999984741211,12.5,12.890000343322754,12.890000343322754,808500
2020-01-23,12.90999984741211,13.399999618530273,12.885000228881836,13.039999961853027,13.039999961853027,853500
2020-01-24,13.149999618530273,13.65999984741211,13.010000228881836,13.149999618530273,13.149999618530273,772100
2020-01-27,13.1899995803833,13.350000381469727,12.850000381469727,12.90999984741211,12.90999984741211,134500
2020-01-28,13.069999694824219,13.329999923706055,12.960000038146973,13.199999809265137,13.199999809265137,250200
2020-01-29,13.25,13.319999694824219,13.109999656677246,13.3100004196167,13.3100004196167,268400
2020-01-30,13.350000381469727,13.90999984741211,13.270000457763672,13.680000305175781,13.680000305175781,1009600
2020-01-31,13.739999771118164,13.920000076293945,13.430000305175781,13.579999923706055,13.579999923706055,567400
2020-02-03,13.529999732971191,13.880000114440918,13.3100004196167,13.6899995803833,13.6899995803833,579800
2020-02-04,13.779999732971191,14.180000305175781,13.713000297546387,14.0,14.0,293900
2020-02-05,14.020000457763672,14.345000267028809,13.890000343322754,13.970000267028809,13.970000267028809,325700
2020-02-06,14.079999923706055,14.819999694824219,13.979999542236328,14.260000228881836,14.260000228881836,578600
2020-02-07,14.390000343322754,14.5,14.0,14.149999618530273,14.149999618530273,524500
2020-02-10,14.140000343322754,14.60099983215332,14.029999732971191,14.199999809265137,14.199999809265137,420300
2020-02-11,14.350000381469727,15.170000076293945,14.34000015258789,14.699999809265137,14.699999809265137,356200
2020-02-12,15.25,16.299999237060547,14.989999771118164,16.280000686645508,16.280000686645508,1096300
2020-02-13,16.40999984741211,16.969999313354492,15.755999565124512,16.0,16.0,417900
2020-02-14,16.010000228881836,16.280000686645508,15.489999771118164,16.209999084472656,16.209999084472656,291600
2020-02-18,16.190000534057617,16.889999389648438,16.079999923706055,16.239999771118164,16.239999771118164,275000
2020-02-19,16.5,18.264999389648438,16.5,18.040000915527344,18.040000915527344,696600
2020-02-20,18.510000228881836,19.329999923706055,17.860000610351562,19.309999465942383,19.309999465942383,544300
2020-02-21,19.040000915527344,19.059999465942383,17.559999465942383,17.860000610351562,17.860000610351562,463100
2020-02-24,17.5,18.10099983215332,17.40999984741211,17.549999237060547,17.549999237060547,692000
2020-02-25,18.43000030517578,19.764999389648438,16.770000457763672,17.940000534057617,17.940000534057617,1122200
2020-02-26,18.139999389648438,18.395000457763672,17.41900062561035,17.670000076293945,17.670000076293945,452900
2020-02-27,17.350000381469727,17.75,16.729999542236328,16.729999542236328,16.729999542236328,558900
2020-02-28,15.710000038146973,17.299999237060547,15.029999732971191,17.299999237060547,17.299999237060547,503700
2020-03-02,17.299999237060547,20.31999969482422,17.299999237060547,20.309999465942383,20.309999465942383,884800
2020-03-03,20.3799991607666,20.489999771118164,18.90999984741211,19.6299991607666,19.6299991607666,622200
2020-03-04,19.65999984741211,20.084999084472656,19.25,19.700000762939453,19.700000762939453,441000
2020-03-05,19.25,20.8700008392334,19.200000762939453,19.459999084472656,19.459999084472656,316300
2020-03-06,18.690000534057617,19.010000228881836,17.8700008392334,18.09000015258789,18.09000015258789,417500
2020-03-09,15.09000015258789,16.899999618530273,15.09000015258789,16.81999969482422,16.81999969482422,626000
2020-03-10,17.360000610351562,18.395000457763672,16.399999618530273,17.030000686645508,17.030000686645508,510700
2020-03-11,16.700000762939453,16.719999313354492,15.380000114440918,15.890000343322754,15.890000343322754,905800
2020-03-12,14.5,15.140000343322754,11.5,11.5,11.5,594600
2020-03-13,12.15999984741211,12.300000190734863,10.210000038146973,11.149999618530273,11.149999618530273,641300
2020-03-16,10.149999618530273,10.489999771118164,8.40999984741211,9.020000457763672,9.020000457763672,637900
2020-03-17,9.229999542236328,9.460000038146973,8.119999885559082,9.329999923706055,9.329999923706055,673500
2020-03-18,8.869999885559082,8.880000114440918,6.119999885559082,7.0,7.0,694700
2020-03-19,7.0,8.210000038146973,6.570000171661377,7.429999828338623,7.429999828338623,969700
2020-03-20,7.820000171661377,12.430000305175781,7.672999858856201,10.170000076293945,10.170000076293945,4998900
2020-03-23,10.630000114440918,11.170000076293945,7.590000152587891,10.029999732971191,10.029999732971191,831800
2020-03-24,10.510000228881836,11.920000076293945,10.039999961853027,10.899999618530273,10.899999618530273,874900
2020-03-25,11.170000076293945,12.489999771118164,10.210000038146973,11.930000305175781,11.930000305175781,705500
2020-03-26,11.970000267028809,13.600000381469727,11.930000305175781,12.609999656677246,12.609999656677246,604400
2020-03-27,12.039999961853027,12.1899995803833,10.744999885559082,10.90999984741211,10.90999984741211,527200
2020-03-30,10.829999923706055,10.829999923706055,9.819999694824219,10.140000343322754,10.140000343322754,691000
2020-03-31,10.149999618530273,10.399999618530273,9.729999542236328,10.069999694824219,10.069999694824219,667200
2020-04-01,9.520000457763672,10.0600004196167,9.152000427246094,9.800000190734863,9.800000190734863,504300
2020-04-02,9.819999694824219,10.109999656677246,9.449999809265137,9.9399995803833,9.9399995803833,547900
2020-04-03,9.770000457763672,9.920000076293945,8.654999732971191,9.0600004196167,9.0600004196167,750100
2020-04-06,9.510000228881836,9.720000267028809,9.0600004196167,9.449999809265137,9.449999809265137,789600
2020-04-07,10.399999618530273,10.859999656677246,9.949999809265137,10.680000305175781,10.680000305175781,758700
2020-04-08,10.729999542236328,11.329999923706055,10.460000038146973,11.15999984741211,11.15999984741211,749100
2020-04-09,11.210000038146973,12.279999732971191,11.210000038146973,11.760000228881836,11.760000228881836,786100
2020-04-13,11.90999984741211,12.180000305175781,10.510000228881836,11.319999694824219,11.319999694824219,659300
2020-04-14,11.529999732971191,13.404999732971191,11.529999732971191,12.880000114440918,12.880000114440918,1196200
2020-04-15,12.510000228881836,12.609999656677246,11.125,11.710000038146973,11.710000038146973,995400
2020-04-16,12.010000228881836,12.149999618530273,10.210000038146973,10.619999885559082,10.619999885559082,620400
2020-04-17,11.119999885559082,11.350000381469727,10.880000114440918,10.989999771118164,10.989999771118164,569800
2020-04-20,10.899999618530273,11.5,10.581000328063965,11.119999885559082,11.119999885559082,427100
2020-04-21,10.949999809265137,11.069999694824219,9.979999542236328,10.6899995803833,10.6899995803833,671500
2020-04-22,11.069999694824219,11.680000305175781,10.699999809265137,11.579999923706055,11.579999923706055,338400
2020-04-23,11.640000343322754,12.539999961853027,11.598999977111816,12.300000190734863,12.300000190734863,459800
2020-04-24,12.260000228881836,12.5,11.180000305175781,11.300000190734863,11.300000190734863,414200
2020-04-27,11.390000343322754,12.220000267028809,11.390000343322754,12.09000015258789,12.09000015258789,333600
2020-04-28,12.300000190734863,12.710000038146973,12.149999618530273,12.40999984741211,12.40999984741211,337600
2020-04-29,12.670000076293945,14.25,12.444999694824219,13.920000076293945,13.920000076293945,854400
2020-04-30,13.699999809265137,13.970000267028809,12.369999885559082,12.600000381469727,12.600000381469727,822900
2020-05-01,12.3100004196167,12.59000015258789,11.180000305175781,11.529999732971191,11.529999732971191,649100
2020-05-04,11.130000114440918,11.6899995803833,11.010000228881836,11.65999984741211,11.65999984741211,236000
2020-05-05,11.869999885559082,12.100000381469727,11.289999961853027,11.329999923706055,11.329999923706055,234800
2020-05-06,11.479999542236328,11.789999961853027,11.0,11.4399995803833,11.4399995803833,356600
2020-05-07,11.649999618530273,12.710000038146973,11.472999572753906,12.710000038146973,12.710000038146973,408100
2020-05-08,12.989999771118164,14.149999618530273,12.8100004196167,13.9399995803833,13.9399995803833,499700
2020-05-11,13.329999923706055,13.770000457763672,12.8100004196167,13.699999809265137,13.699999809265137,380900
2020-05-12,13.720000267028809,14.890000343322754,13.071000099182129,13.9399995803833,13.9399995803833,388600
2020-05-13,13.779999732971191,14.65999984741211,12.604999542236328,13.130000114440918,13.130000114440918,518800
2020-05-14,12.470000267028809,14.140000343322754,12.300000190734863,13.899999618530273,13.899999618530273,530800
2020-05-15,13.9399995803833,14.5,12.84000015258789,14.119999885559082,14.119999885559082,560200
2020-05-18,14.869999885559082,15.779999732971191,14.220000267028809,15.75,15.75,495600
2020-05-19,14.9399995803833,15.739999771118164,14.850000381469727,14.899999618530273,14.899999618530273,521400
2020-05-20,14.699999809265137,15.390000343322754,13.84000015258789,14.069999694824219,14.069999694824219,320400
2020-05-21,14.029999732971191,14.180000305175781,13.456000328063965,13.569999694824219,13.569999694824219,258300
2020-05-22,13.859999656677246,13.949999809265137,13.520000457763672,13.710000038146973,13.710000038146973,313700
2020-05-26,14.640000343322754,14.899999618530273,14.180000305175781,14.640000343322754,14.640000343322754,487000
2020-05-27,15.0,15.050000190734863,13.15999984741211,14.479999542236328,14.479999542236328,519900
2020-05-28,14.930000305175781,15.300999641418457,14.289999961853027,14.739999771118164,14.739999771118164,368200
2020-05-29,14.640000343322754,15.279999732971191,14.319999694824219,15.0,15.0,774700
2020-06-01,15.1899995803833,16.579999923706055,14.899999618530273,16.440000534057617,16.440000534057617,639400
2020-06-02,16.610000610351562,16.739999771118164,15.369999885559082,15.600000381469727,15.600000381469727,278000
2020-06-03,15.989999771118164,16.979999542236328,15.859999656677246,16.399999618530273,16.399999618530273,361900
2020-06-04,16.34000015258789,16.479999542236328,15.420000076293945,15.680000305175781,15.680000305175781,574800
2020-06-05,16.280000686645508,16.450000762939453,15.550000190734863,15.989999771118164,15.989999771118164,434000
2020-06-08,16.31999969482422,16.700000762939453,15.869999885559082,16.3700008392334,16.3700008392334,891400
2020-06-09,16.030000686645508,16.700000762939453,15.739999771118164,16.3799991607666,16.3799991607666,404300
2020-06-10,16.329999923706055,16.670000076293945,16.0049991607666,16.420000076293945,16.420000076293945,515400
2020-06-11,15.59000015258789,16.0,13.850000381469727,13.930000305175781,13.930000305175781,508000
2020-06-12,15.0,16.459999084472656,14.399999618530273,16.360000610351562,16.360000610351562,535200
2020-06-15,16.719999313354492,18.40999984741211,16.420000076293945,18.079999923706055,18.079999923706055,817900
2020-06-16,18.809999465942383,19.030000686645508,17.84000015258789,17.950000762939453,17.950000762939453,849500
2020-06-17,17.90999984741211,19.003000259399414,17.489999771118164,17.790000915527344,17.790000915527344,641900
2020-06-18,17.56999969482422,19.1299991607666,17.469999313354492,18.959999084472656,18.959999084472656,642500
2020-06-19,19.1299991607666,20.09000015258789,18.84000015258789,19.829999923706055,19.829999923706055,1345400
2020-06-22,19.899999618530273,20.010000228881836,19.1200008392334,19.399999618530273,19.399999618530273,713700
2020-06-23,19.56999969482422,19.850000381469727,19.270000457763672,19.510000228881836,19.510000228881836,591000
2020-06-24,19.18000030517578,19.520000457763672,18.600000381469727,19.209999084472656,19.209999084472656,467300
2020-06-25,19.469999313354492,19.469999313354492,18.81999969482422,19.110000610351562,19.110000610351562,408400
2020-06-26,19.0,19.110000610351562,18.399999618530273,18.850000381469727,18.850000381469727,671300
2020-06-29,18.020000457763672,18.5,15.890000343322754,17.549999237060547,17.549999237060547,1030400
2020-06-30,17.200000762939453,17.239999771118164,16.110000610351562,17.06999969482422,17.06999969482422,1103700
2020-07-01,17.809999465942383,18.459999084472656,17.010000228881836,17.510000228881836,17.510000228881836,2423200
2020-07-02,17.93000030517578,18.270000457763672,17.52199935913086,17.579999923706055,17.579999923706055,607800
2020-07-06,18.389999389648438,19.270000457763672,18.219999313354492,18.81999969482422,18.81999969482422,914000
2020-07-07,18.90999984741211,19.790000915527344,18.8700008392334,18.969999313354492,18.969999313354492,778200
2020-07-08,18.6200008392334,19.790000915527344,18.209999084472656,19.260000228881836,19.260000228881836,1053800
2020-07-09,19.700000762939453,19.788999557495117,18.709999084472656,19.100000381469727,19.100000381469727,603000
2020-07-10,19.309999465942383,19.350000381469727,18.270000457763672,19.030000686645508,19.030000686645508,525000
2020-07-13,19.149999618530273,19.354999542236328,18.520000457763672,18.600000381469727,18.600000381469727,957600
2020-07-14,18.709999084472656,19.690000534057617,18.709999084472656,19.510000228881836,19.510000228881836,1518200
2020-07-15,20.3700008392334,20.93000030517578,19.34000015258789,19.399999618530273,19.399999618530273,1389800
2020-07-16,19.18000030517578,20.1200008392334,17.5,19.719999313354492,19.719999313354492,1202500
2020-07-17,19.68000030517578,21.0,19.1299991607666,20.940000534057617,20.940000534057617,1058700
2020-07-20,20.950000762939453,22.479999542236328,20.360000610351562,20.790000915527344,20.790000915527344,1746300
2020-07-21,21.260000228881836,21.56999969482422,20.440000534057617,20.510000228881836,20.510000228881836,789600
2020-07-22,21.049999237060547,22.260000228881836,21.010000228881836,21.84000015258789,21.84000015258789,1661800
2020-07-23,21.84000015258789,22.8700008392334,21.674999237060547,22.0,22.0,1212500
2020-07-24,21.809999465942383,22.59000015258789,21.010000228881836,22.299999237060547,22.299999237060547,688100
2020-07-27,23.219999313354492,24.75,23.139999389648438,23.75,23.75,1467900
2020-07-28,23.739999771118164,24.600000381469727,23.049999237060547,23.610000610351562,23.610000610351562,991500
2020-07-29,23.600000381469727,24.1299991607666,23.299999237060547,23.739999771118164,23.739999771118164,1120600
2020-07-30,24.1200008392334,25.549999237060547,22.860000610351562,24.450000762939453,24.450000762939453,1737500
2020-07-31,24.579999923706055,25.670000076293945,24.09000015258789,25.010000228881836,25.010000228881836,892700
2020-08-03,25.18000030517578,26.360000610351562,23.959999084472656,25.520000457763672,25.520000457763672,1207800
2020-08-04,25.860000610351562,26.7450008392334,25.649999618530273,26.549999237060547,26.549999237060547,1046000
2020-08-05,26.440000534057617,27.719999313354492,25.25,27.5,27.5,1298300
2020-08-06,27.450000762939453,28.700000762939453,26.969999313354492,27.65999984741211,27.65999984741211,805800
2020-08-07,27.25,28.729999542236328,27.18000030517578,27.729999542236328,27.729999542236328,697100
2020-08-10,27.850000381469727,29.610000610351562,27.81999969482422,28.59000015258789,28.59000015258789,1160000
2020-08-11,28.829999923706055,29.0,25.90999984741211,26.860000610351562,26.860000610351562,1622700
2020-08-12,26.969999313354492,28.038999557495117,26.562000274658203,26.979999542236328,26.979999542236328,807100
2020-08-13,27.170000076293945,28.53499984741211,27.049999237060547,28.200000762939453,28.200000762939453,809300
2020-08-14,26.239999771118164,26.350000381469727,23.899999618530273,24.290000915527344,24.290000915527344,7310200
2020-08-17,24.979999542236328,25.09000015258789,23.799999237060547,24.399999618530273,24.399999618530273,2366700
2020-08-18,25.09000015258789,25.149999618530273,23.43000030517578,24.299999237060547,24.299999237060547,1818200
2020-08-19,24.190000534057617,25.0,23.979999542236328,24.15999984741211,24.15999984741211,1155600
2020-08-20,24.079999923706055,24.350000381469727,23.239999771118164,23.350000381469727,23.350000381469727,832900
2020-08-21,23.350000381469727,24.549999237060547,23.06999969482422,23.760000228881836,23.760000228881836,957200
2020-08-24,24.049999237060547,24.25,23.389999389648438,23.540000915527344,23.540000915527344,648300
2020-08-25,23.5,25.049999237060547,23.309999465942383,25.040000915527344,25.040000915527344,1146400
2020-08-26,24.940000534057617,26.110000610351562,23.889999389648438,24.200000762939453,24.200000762939453,1121200
2020-08-27,24.610000610351562,25.65999984741211,24.299999237060547,24.75,24.75,1112500
2020-08-28,24.770000457763672,25.06999969482422,24.350000381469727,24.540000915527344,24.540000915527344,987900
2020-08-31,24.5,24.6200008392334,23.1299991607666,23.719999313354492,23.719999313354492,1309200
2020-09-01,23.579999923706055,23.899999618530273,23.160999298095703,23.700000762939453,23.700000762939453,1287800
2020-09-02,24.520000457763672,24.739999771118164,23.540000915527344,23.81999969482422,23.81999969482422,1089200
2020-09-03,23.549999237060547,23.850000381469727,21.90999984741211,22.350000381469727,22.350000381469727,1489100
2020-09-04,22.1200008392334,22.3700008392334,18.81999969482422,21.440000534057617,21.440000534057617,2434200
2020-09-08,21.040000915527344,22.399999618530273,20.510000228881836,22.09000015258789,22.09000015258789,1546000
2020-09-09,22.329999923706055,24.079999923706055,22.329999923706055,23.600000381469727,23.600000381469727,2092100
2020-09-10,23.56999969482422,24.2549991607666,23.280000686645508,23.450000762939453,23.450000762939453,2193500
2020-09-11,23.59000015258789,23.93000030517578,23.059999465942383,23.260000228881836,23.260000228881836,797600
2020-09-14,23.700000762939453,25.06999969482422,23.229999542236328,24.979999542236328,24.979999542236328,1109500
2020-09-15,25.3799991607666,27.0,25.229999542236328,26.420000076293945,26.420000076293945,1101100
2020-09-16,26.420000076293945,27.190000534057617,25.93000030517578,26.219999313354492,26.219999313354492,839600
2020-09-17,25.700000762939453,26.229999542236328,24.520000457763672,24.690000534057617,24.690000534057617,1036900
2020-09-18,25.229999542236328,26.351999282836914,24.860000610351562,25.139999389648438,25.139999389648438,4949700
2020-09-21,24.5,25.90999984741211,24.158000946044922,25.850000381469727,25.850000381469727,824000
2020-09-22,26.020000457763672,26.489999771118164,25.260000228881836,26.09000015258789,26.09000015258789,778600
2020-09-23,26.389999389648438,26.899999618530273,25.40999984741211,25.889999389648438,25.889999389648438,1193700
2020-09-24,25.450000762939453,26.329999923706055,24.3700008392334,25.459999084472656,25.459999084472656,1187900
2020-09-25,25.520000457763672,26.6200008392334,25.150999069213867,26.520000457763672,26.520000457763672,1626700
2020-09-28,27.010000228881836,28.290000915527344,26.579999923706055,26.790000915527344,26.790000915527344,1669000
2020-09-29,26.049999237060547,26.989999771118164,23.459999084472656,26.93000030517578,26.93000030517578,3639500
2020-09-30,27.420000076293945,30.676000595092773,27.200000762939453,30.40999984741211,30.40999984741211,3949400
2020-10-01,30.700000762939453,31.260000228881836,29.670000076293945,30.110000610351562,30.110000610351562,3350600
2020-10-02,29.25,33.0099983215332,28.0,28.56999969482422,28.56999969482422,4242300
2020-10-05,28.93000030517578,29.559999465942383,28.600000381469727,28.729999542236328,28.729999542236328,1687900
2020-10-06,29.049999237060547,29.420000076293945,27.68000030517578,28.049999237060547,28.049999237060547,2004100
2020-10-07,28.979999542236328,30.450000762939453,28.8700008392334,28.989999771118164,28.989999771118164,2333600
2020-10-08,29.75,30.299999237060547,27.260000228881836,28.020000457763672,28.020000457763672,2000700
2020-10-09,28.139999389648438,29.540000915527344,28.139999389648438,29.360000610351562,29.360000610351562,1027600
2020-10-12,30.170000076293945,30.639999389648438,28.020000457763672,28.350000381469727,28.350000381469727,2251000
2020-10-13,28.389999389648438,29.809999465942383,28.389999389648438,28.440000534057617,28.440000534057617,1655100
2020-10-14,29.270000457763672,29.90999984741211,28.770000457763672,29.639999389648438,29.639999389648438,1633900
2020-10-15,28.969999313354492,30.299999237060547,28.06999969482422,28.3700008392334,28.3700008392334,2892500
2020-10-16,28.670000076293945,29.59000015258789,27.850000381469727,29.0,29.0,4944200
2020-10-19,29.299999237060547,30.90999984741211,28.739999771118164,29.969999313354492,29.969999313354492,2528200
2020-10-20,30.149999618530273,32.45000076293945,30.149999618530273,30.770000457763672,30.770000457763672,3062700
2020-10-21,31.09000015258789,31.389999389648438,26.639999389648438,26.739999771118164,26.739999771118164,3209000
2020-10-22,26.75,27.200000762939453,25.19099998474121,26.56999969482422,26.56999969482422,2316600
2020-10-23,27.25,27.690000534057617,26.110000610351562,26.860000610351562,26.860000610351562,1213500
2020-10-26,26.229999542236328,27.479999542236328,25.523000717163086,25.93000030517578,25.93000030517578,1063300
2020-10-27,26.219999313354492,26.899999618530273,25.530000686645508,26.25,26.25,895500
2020-10-28,26.0,26.8700008392334,25.420000076293945,26.540000915527344,26.540000915527344,1748900
2020-10-29,26.170000076293945,26.25,24.809999465942383,25.559999465942383,25.559999465942383,2465900
2020-10-30,25.1200008392334,25.299999237060547,23.649999618530273,24.059999465942383,24.059999465942383,1863500
2020-11-02,24.25,26.110000610351562,24.239999771118164,26.020000457763672,26.020000457763672,1719500
2020-11-03,26.229999542236328,28.739999771118164,26.229999542236328,28.309999465942383,28.309999465942383,2133200
2020-11-04,27.0,28.889999389648438,25.829999923706055,28.719999313354492,28.719999313354492,2217100
2020-11-05,29.719999313354492,33.06999969482422,29.719999313354492,31.93000030517578,31.93000030517578,2740700
2020-11-06,32.36000061035156,35.95000076293945,32.25,33.20000076293945,33.20000076293945,2475500
2020-11-09,35.0,36.47999954223633,32.0099983215332,32.439998626708984,32.439998626708984,2323000
2020-11-10,33.02000045776367,33.290000915527344,30.670000076293945,31.510000228881836,31.510000228881836,1768400
2020-11-11,32.11000061035156,34.97999954223633,32.11000061035156,33.27000045776367,33.27000045776367,1764900
2020-11-12,33.779998779296875,34.779998779296875,32.16999816894531,32.369998931884766,32.369998931884766,1921900
2020-11-13,33.14500045776367,33.2400016784668,31.829999923706055,32.65999984741211,32.65999984741211,912000
2020-11-16,32.61000061035156,34.36000061035156,32.380001068115234,34.099998474121094,34.099998474121094,1316800
2020-11-17,34.11000061035156,35.5,33.5,35.13999938964844,35.13999938964844,1128100
2020-11-18,35.63999938964844,36.20000076293945,32.84000015258789,32.900001525878906,32.900001525878906,1822600
2020-11-19,33.130001068115234,33.92499923706055,31.610000610351562,31.979999542236328,31.979999542236328,1709400
2020-11-20,32.220001220703125,35.2400016784668,31.790000915527344,34.779998779296875,34.779998779296875,1716300
2020-11-23,35.31999969482422,38.560001373291016,35.31999969482422,38.209999084472656,38.209999084472656,2579100
2020-11-24,39.849998474121094,41.5099983215332,38.59000015258789,39.790000915527344,39.790000915527344,2798000
2020-11-25,39.83000183105469,42.65999984741211,39.0099983215332,42.560001373291016,42.560001373291016,1865800
2020-11-27,43.189998626708984,45.310001373291016,42.665000915527344,45.0,45.0,1987400
2020-11-30,45.470001220703125,46.0,39.86000061035156,40.5099983215332,40.5099983215332,2707600
2020-12-01,39.790000915527344,42.90999984741211,38.900001525878906,40.11000061035156,40.11000061035156,6013600
2020-12-02,39.22999954223633,40.084999084472656,36.81999969482422,38.619998931884766,38.619998931884766,2105600
2020-12-03,39.38999938964844,40.03499984741211,38.130001068115234,38.90999984741211,38.90999984741211,1950500
2020-12-04,39.45000076293945,40.7400016784668,38.56999969482422,39.279998779296875,39.279998779296875,1296800
2020-12-07,39.41999816894531,39.5,37.81999969482422,38.720001220703125,38.720001220703125,1069300
2020-12-08,38.54999923706055,40.084999084472656,38.369998931884766,39.54999923706055,39.54999923706055,1263000
2020-12-09,40.59000015258789,41.20000076293945,36.810001373291016,38.47999954223633,38.47999954223633,1954500
2020-12-10,38.0099983215332,39.654998779296875,36.5,39.439998626708984,39.439998626708984,1265700
2020-12-11,39.5,40.11000061035156,38.58000183105469,39.310001373291016,39.310001373291016,1003900
2020-12-14,39.779998779296875,40.13999938964844,38.560001373291016,38.59000015258789,38.59000015258789,842400
2020-12-15,39.529998779296875,44.0,39.25,42.970001220703125,42.970001220703125,2640500
2020-12-16,42.9900016784668,43.150001525878906,39.150001525878906,40.959999084472656,40.959999084472656,3234900
2020-12-17,41.75,42.459999084472656,39.939998626708984,41.79999923706055,41.79999923706055,2031500
2020-12-18,41.9900016784668,44.61000061035156,41.439998626708984,42.349998474121094,42.349998474121094,4281900
2020-12-21,41.25,46.43000030517578,40.7599983215332,46.08000183105469,46.08000183105469,2127400
2020-12-22,46.63999938964844,48.7400016784668,45.04999923706055,46.95000076293945,46.95000076293945,2605100
2020-12-23,47.56999969482422,48.72999954223633,45.803001403808594,47.0,47.0,1543700
2020-12-24,46.599998474121094,46.959999084472656,44.529998779296875,45.79999923706055,45.79999923706055,742700
2020-12-28,48.0,48.84000015258789,43.650001525878906,43.91999816894531,43.91999816894531,2029600
2020-12-29,44.130001068115234,44.36000061035156,41.130001068115234,41.83000183105469,41.83000183105469,1385900
2020-12-30,42.349998474121094,45.03499984741211,42.099998474121094,44.2599983215332,44.2599983215332,2261800
