Date,Open,High,Low,Close,Adj Close,Volume
2020-05-01,9.789999961853027,9.789999961853027,9.699999809265137,9.699999809265137,9.699999809265137,22000
2020-05-04,9.699999809265137,9.699999809265137,9.699999809265137,9.699999809265137,9.699999809265137,0
2020-05-05,9.800000190734863,9.800000190734863,9.760000228881836,9.760000228881836,9.760000228881836,12000
2020-05-06,9.760000228881836,9.760000228881836,9.760000228881836,9.760000228881836,9.760000228881836,12000
2020-05-07,9.90999984741211,9.90999984741211,9.90999984741211,9.90999984741211,9.90999984741211,16000
2020-05-08,9.850000381469727,9.850000381469727,9.779999732971191,9.819999694824219,9.819999694824219,14800
2020-05-11,9.819999694824219,9.819999694824219,9.819999694824219,9.819999694824219,9.819999694824219,0
2020-05-12,9.819999694824219,9.819999694824219,9.819999694824219,9.819999694824219,9.819999694824219,0
2020-05-13,9.819999694824219,9.819999694824219,9.819999694824219,9.819999694824219,9.819999694824219,99900
2020-05-14,9.829999923706055,9.84000015258789,9.829999923706055,9.84000015258789,9.84000015258789,10100
2020-05-15,9.850000381469727,9.850000381469727,9.829000473022461,9.829000473022461,9.829000473022461,900
2020-05-18,9.829000473022461,9.829000473022461,9.829000473022461,9.829000473022461,9.829000473022461,0
2020-05-19,9.899999618530273,9.899999618530273,9.8100004196167,9.819999694824219,9.819999694824219,8600
2020-05-20,9.899999618530273,9.899999618530273,9.8100004196167,9.8100004196167,9.8100004196167,4800
2020-05-21,9.8100004196167,9.8100004196167,9.8100004196167,9.8100004196167,9.8100004196167,0
2020-05-22,9.8100004196167,9.8100004196167,9.800000190734863,9.8100004196167,9.8100004196167,95700
2020-05-26,9.8100004196167,9.8100004196167,9.8100004196167,9.8100004196167,9.8100004196167,0
2020-05-27,9.8100004196167,9.819999694824219,9.8100004196167,9.819999694824219,9.819999694824219,25900
2020-05-28,9.819999694824219,9.819999694824219,9.819999694824219,9.819999694824219,9.819999694824219,0
2020-05-29,9.819999694824219,9.819999694824219,9.819999694824219,9.819999694824219,9.819999694824219,0
2020-06-01,9.819999694824219,9.819999694824219,9.819999694824219,9.819999694824219,9.819999694824219,0
2020-06-02,9.8100004196167,9.8100004196167,9.8100004196167,9.8100004196167,9.8100004196167,600
2020-06-03,9.819999694824219,9.819999694824219,9.819999694824219,9.819999694824219,9.819999694824219,1500
2020-06-04,9.819999694824219,9.819999694824219,9.819999694824219,9.819999694824219,9.819999694824219,0
2020-06-05,9.899999618530273,9.899999618530273,9.800000190734863,9.800000190734863,9.800000190734863,13400
2020-06-08,9.800000190734863,9.800000190734863,9.800000190734863,9.800000190734863,9.800000190734863,2400
2020-06-09,9.8100004196167,9.8100004196167,9.8100004196167,9.8100004196167,9.8100004196167,600
2020-06-10,9.8100004196167,9.829999923706055,9.8100004196167,9.829999923706055,9.829999923706055,18000
2020-06-11,9.8100004196167,9.829999923706055,9.805000305175781,9.829999923706055,9.829999923706055,47400
2020-06-12,9.803999900817871,9.819999694824219,9.803999900817871,9.819999694824219,9.819999694824219,1200
2020-06-15,9.800000190734863,9.829999923706055,9.800000190734863,9.819999694824219,9.819999694824219,1300
2020-06-16,9.859999656677246,9.859999656677246,9.800000190734863,9.800000190734863,9.800000190734863,900
2020-06-17,9.8100004196167,9.829999923706055,9.8100004196167,9.829999923706055,9.829999923706055,6900
2020-06-18,9.829999923706055,9.850000381469727,9.800000190734863,9.850000381469727,9.850000381469727,13300
2020-06-19,9.84000015258789,9.880000114440918,9.84000015258789,9.869999885559082,9.869999885559082,16600
2020-06-22,9.869999885559082,9.869999885559082,9.869999885559082,9.869999885559082,9.869999885559082,1500
2020-06-23,9.869999885559082,9.869999885559082,9.869999885559082,9.869999885559082,9.869999885559082,0
2020-06-24,9.869999885559082,9.869999885559082,9.869999885559082,9.869999885559082,9.869999885559082,0
2020-06-25,9.890000343322754,9.899999618530273,9.890000343322754,9.899999618530273,9.899999618530273,5300
2020-06-26,9.899999618530273,9.899999618530273,9.899999618530273,9.899999618530273,9.899999618530273,0
2020-06-29,9.869999885559082,9.899999618530273,9.869999885559082,9.899999618530273,9.899999618530273,2400
2020-06-30,9.890000343322754,9.920000076293945,9.890000343322754,9.920000076293945,9.920000076293945,3300
2020-07-01,9.920000076293945,9.920000076293945,9.920000076293945,9.920000076293945,9.920000076293945,100
2020-07-02,9.920000076293945,9.920000076293945,9.899999618530273,9.899999618530273,9.899999618530273,6900
2020-07-06,9.920000076293945,9.920000076293945,9.90999984741211,9.90999984741211,9.90999984741211,3500
2020-07-07,9.930000305175781,9.930000305175781,9.930000305175781,9.930000305175781,9.930000305175781,1700
2020-07-08,9.899999618530273,9.899999618530273,9.850000381469727,9.850000381469727,9.850000381469727,27700
2020-07-09,9.899999618530273,9.920000076293945,9.885000228881836,9.90999984741211,9.90999984741211,12400
2020-07-10,9.920000076293945,9.920000076293945,9.899999618530273,9.899999618530273,9.899999618530273,1600
2020-07-13,9.920000076293945,9.920000076293945,9.920000076293945,9.920000076293945,9.920000076293945,800
2020-07-14,9.9399995803833,9.9399995803833,9.9399995803833,9.9399995803833,9.9399995803833,2300
2020-07-15,9.9399995803833,9.9399995803833,9.9399995803833,9.9399995803833,9.9399995803833,0
2020-07-16,9.9399995803833,9.979999542236328,9.9399995803833,9.979999542236328,9.979999542236328,500
2020-07-17,9.979999542236328,9.979999542236328,9.979999542236328,9.979999542236328,9.979999542236328,0
2020-07-20,10.020000457763672,10.020000457763672,9.960000038146973,9.960000038146973,9.960000038146973,1200
2020-07-21,9.960000038146973,9.970000267028809,9.949999809265137,9.970000267028809,9.970000267028809,5200
2020-07-22,9.970000267028809,9.970000267028809,9.970000267028809,9.970000267028809,9.970000267028809,0
2020-07-23,9.979999542236328,9.979999542236328,9.979999542236328,9.979999542236328,9.979999542236328,400
2020-07-24,9.960000038146973,9.960000038146973,9.960000038146973,9.960000038146973,9.960000038146973,3600
2020-07-27,9.960000038146973,9.960000038146973,9.960000038146973,9.960000038146973,9.960000038146973,0
2020-07-28,9.960000038146973,9.960000038146973,9.960000038146973,9.960000038146973,9.960000038146973,0
2020-07-29,9.9399995803833,9.9399995803833,9.9399995803833,9.9399995803833,9.9399995803833,400
2020-07-30,9.9399995803833,9.960000038146973,9.9399995803833,9.9399995803833,9.9399995803833,10700
2020-07-31,9.9399995803833,9.944999694824219,9.9399995803833,9.9399995803833,9.9399995803833,11900
2020-08-03,9.949999809265137,9.949999809265137,9.9399995803833,9.949999809265137,9.949999809265137,36300
2020-08-04,9.949999809265137,9.949999809265137,9.949999809265137,9.949999809265137,9.949999809265137,100
2020-08-05,9.9399995803833,9.9399995803833,9.9399995803833,9.9399995803833,9.9399995803833,100
2020-08-06,9.9399995803833,9.9399995803833,9.9399995803833,9.9399995803833,9.9399995803833,100
2020-08-07,9.899999618530273,9.92300033569336,9.899999618530273,9.92300033569336,9.92300033569336,13600
2020-08-10,9.92300033569336,9.92300033569336,9.92300033569336,9.92300033569336,9.92300033569336,0
2020-08-11,9.92300033569336,9.92300033569336,9.92300033569336,9.92300033569336,9.92300033569336,0
2020-08-12,9.899999618530273,9.970000267028809,9.899999618530273,9.899999618530273,9.899999618530273,25800
2020-08-13,9.899999618530273,9.899999618530273,9.899999618530273,9.899999618530273,9.899999618530273,600
2020-08-14,9.899999618530273,9.899999618530273,9.899999618530273,9.899999618530273,9.899999618530273,400
2020-08-17,9.899999618530273,9.920000076293945,9.899999618530273,9.90999984741211,9.90999984741211,2900
2020-08-18,9.90999984741211,9.90999984741211,9.90999984741211,9.90999984741211,9.90999984741211,0
2020-08-19,9.90999984741211,9.90999984741211,9.90999984741211,9.90999984741211,9.90999984741211,0
2020-08-20,9.899999618530273,9.944999694824219,9.899999618530273,9.944999694824219,9.944999694824219,2800
2020-08-21,9.899999618530273,9.920000076293945,9.880000114440918,9.899999618530273,9.899999618530273,17300
2020-08-24,9.885000228881836,9.9350004196167,9.869999885559082,9.869999885559082,9.869999885559082,41000
2020-08-25,9.880000114440918,9.920000076293945,9.869999885559082,9.920000076293945,9.920000076293945,4300
2020-08-26,9.920000076293945,9.920000076293945,9.920000076293945,9.920000076293945,9.920000076293945,200
2020-08-27,9.920000076293945,9.920000076293945,9.920000076293945,9.920000076293945,9.920000076293945,0
2020-08-28,9.899999618530273,9.90999984741211,9.899999618530273,9.90999984741211,9.90999984741211,1900
2020-08-31,9.899999618530273,9.920000076293945,9.899999618530273,9.899999618530273,9.899999618530273,19600
2020-09-01,9.930000305175781,9.930000305175781,9.899999618530273,9.899999618530273,9.899999618530273,1200
2020-09-02,9.920000076293945,9.920000076293945,9.899999618530273,9.899999618530273,9.899999618530273,4500
2020-09-03,9.930000305175781,9.9399995803833,9.930000305175781,9.930000305175781,9.930000305175781,14000
2020-09-04,9.979999542236328,9.979999542236328,9.9399995803833,9.949999809265137,9.949999809265137,2600
2020-09-08,9.899999618530273,9.899999618530273,9.899999618530273,9.899999618530273,9.899999618530273,400
2020-09-09,9.899999618530273,9.899999618530273,9.899999618530273,9.899999618530273,9.899999618530273,0
2020-09-10,9.920000076293945,9.920000076293945,9.899999618530273,9.90999984741211,9.90999984741211,5100
2020-09-11,9.90999984741211,9.90999984741211,9.90999984741211,9.90999984741211,9.90999984741211,0
2020-09-14,9.90999984741211,9.930000305175781,9.90999984741211,9.90999984741211,9.90999984741211,12100
2020-09-15,9.899999618530273,9.90999984741211,9.899999618530273,9.90999984741211,9.90999984741211,1400
2020-09-16,9.90999984741211,9.90999984741211,9.90999984741211,9.90999984741211,9.90999984741211,200
2020-09-17,9.90999984741211,9.90999984741211,9.90999984741211,9.90999984741211,9.90999984741211,0
2020-09-18,9.960000038146973,10.1899995803833,9.960000038146973,10.050000190734863,10.050000190734863,23800
2020-09-21,9.920000076293945,9.920000076293945,9.899999618530273,9.899999618530273,9.899999618530273,5100
2020-09-22,9.90999984741211,10.057999610900879,9.899999618530273,9.90999984741211,9.90999984741211,9100
2020-09-23,9.90999984741211,9.949999809265137,9.880000114440918,9.9399995803833,9.9399995803833,13800
2020-09-24,9.9399995803833,9.9399995803833,9.9399995803833,9.9399995803833,9.9399995803833,0
2020-09-25,9.899999618530273,9.899999618530273,9.899999618530273,9.899999618530273,9.899999618530273,1000
2020-09-28,9.90999984741211,9.920000076293945,9.880000114440918,9.90999984741211,9.90999984741211,15800
2020-09-29,9.9399995803833,9.979999542236328,9.930000305175781,9.979999542236328,9.979999542236328,5000
2020-09-30,9.979999542236328,9.979999542236328,9.979999542236328,9.979999542236328,9.979999542236328,0
2020-10-01,9.979999542236328,9.979999542236328,9.979999542236328,9.979999542236328,9.979999542236328,0
2020-10-02,9.90999984741211,9.970000267028809,9.90999984741211,9.970000267028809,9.970000267028809,400
2020-10-05,9.970000267028809,9.970000267028809,9.970000267028809,9.970000267028809,9.970000267028809,0
2020-10-06,9.970000267028809,9.970000267028809,9.90999984741211,9.949999809265137,9.949999809265137,20600
2020-10-07,9.949999809265137,9.949999809265137,9.920000076293945,9.949999809265137,9.949999809265137,2000
2020-10-08,9.960000038146973,9.970000267028809,9.960000038146973,9.970000267028809,9.970000267028809,1100
2020-10-09,9.920000076293945,9.920000076293945,9.90999984741211,9.920000076293945,9.920000076293945,5000
2020-10-12,9.960000038146973,9.970000267028809,9.920000076293945,9.949999809265137,9.949999809265137,11200
2020-10-13,9.970000267028809,9.970000267028809,9.954999923706055,9.954999923706055,9.954999923706055,2600
2020-10-14,9.949999809265137,10.085000038146973,9.949999809265137,10.0,10.0,15800
2020-10-15,10.0,10.0,10.0,10.0,10.0,0
2020-10-16,10.0,10.0,10.0,10.0,10.0,100
2020-10-19,10.0,10.0,10.0,10.0,10.0,100
2020-10-20,10.0,10.0,10.0,10.0,10.0,200
2020-10-21,9.960000038146973,9.975000381469727,9.960000038146973,9.975000381469727,9.975000381469727,700
2020-10-22,9.949999809265137,9.949999809265137,9.949999809265137,9.949999809265137,9.949999809265137,15100
2020-10-23,9.9399995803833,9.960000038146973,9.9399995803833,9.960000038146973,9.960000038146973,2600
2020-10-26,9.920000076293945,9.920000076293945,9.920000076293945,9.920000076293945,9.920000076293945,8600
2020-10-27,9.920000076293945,9.920000076293945,9.920000076293945,9.920000076293945,9.920000076293945,10100
2020-10-28,9.920000076293945,9.930000305175781,9.90999984741211,9.90999984741211,9.90999984741211,42200
2020-10-29,9.90999984741211,9.90999984741211,9.90999984741211,9.90999984741211,9.90999984741211,0
2020-10-30,9.90999984741211,9.920000076293945,9.899999618530273,9.899999618530273,9.899999618530273,18200
2020-11-02,9.90999984741211,9.954999923706055,9.90999984741211,9.954999923706055,9.954999923706055,600
2020-11-03,9.954999923706055,9.954999923706055,9.954999923706055,9.954999923706055,9.954999923706055,0
2020-11-04,9.954999923706055,9.954999923706055,9.954999923706055,9.954999923706055,9.954999923706055,0
2020-11-05,9.949999809265137,9.960000038146973,9.9399995803833,9.951000213623047,9.951000213623047,400
2020-11-06,9.951000213623047,9.951000213623047,9.951000213623047,9.951000213623047,9.951000213623047,0
2020-11-09,9.951000213623047,9.951000213623047,9.951000213623047,9.951000213623047,9.951000213623047,0
2020-11-10,9.951000213623047,9.951000213623047,9.951000213623047,9.951000213623047,9.951000213623047,0
2020-11-11,9.9399995803833,9.9399995803833,9.930000305175781,9.930000305175781,9.930000305175781,800
2020-11-12,10.0600004196167,10.199999809265137,9.920000076293945,9.989999771118164,9.989999771118164,488500
2020-11-13,10.0600004196167,10.0600004196167,9.960000038146973,9.989999771118164,9.989999771118164,82600
2020-11-16,10.0,10.029999732971191,9.989999771118164,10.005000114440918,10.005000114440918,189700
2020-11-17,10.020000457763672,10.100000381469727,9.979999542236328,10.0,10.0,172900
2020-11-18,10.020000457763672,10.020000457763672,9.960000038146973,10.010000228881836,10.010000228881836,145100
2020-11-19,10.020000457763672,10.100000381469727,9.979999542236328,10.050000190734863,10.050000190734863,460200
2020-11-20,10.100000381469727,10.239999771118164,10.100000381469727,10.149999618530273,10.149999618530273,478200
2020-11-23,10.25,11.390000343322754,10.199999809265137,11.100000381469727,11.100000381469727,4157700
2020-11-24,12.050000190734863,12.5,11.0,11.960000038146973,11.960000038146973,4102700
2020-11-25,14.960000038146973,22.739999771118164,14.649999618530273,22.270000457763672,22.270000457763672,24414100
2020-11-27,17.399999618530273,18.950000762939453,16.18000030517578,17.299999237060547,17.299999237060547,5925400
2020-11-30,16.700000762939453,16.959999084472656,14.180000305175781,14.890000343322754,14.890000343322754,2831000
2020-12-01,15.5,15.899999618530273,13.210000038146973,13.859999656677246,13.859999656677246,1422800
2020-12-02,12.630000114440918,13.930000305175781,12.15999984741211,13.930000305175781,13.930000305175781,1187500
2020-12-03,14.489999771118164,15.979999542236328,14.25,15.050000190734863,15.050000190734863,1093500
2020-12-04,15.050000190734863,15.579999923706055,14.510000228881836,15.4399995803833,15.4399995803833,827300
2020-12-07,15.899999618530273,16.850000381469727,15.649999618530273,16.190000534057617,16.190000534057617,1285100
2020-12-08,16.350000381469727,16.389999389648438,15.100000381469727,15.510000228881836,15.510000228881836,641700
2020-12-09,15.619999885559082,16.139999389648438,14.699999809265137,15.100000381469727,15.100000381469727,845000
2020-12-10,14.380000114440918,15.75,14.25,15.75,15.75,644200
2020-12-11,15.664999961853027,15.800000190734863,14.5,15.149999618530273,15.149999618530273,674000
2020-12-14,15.15999984741211,15.350000381469727,14.09000015258789,14.5,14.5,607000
2020-12-15,14.109999656677246,14.390000343322754,13.739999771118164,13.789999961853027,13.789999961853027,623100
2020-12-16,13.930000305175781,14.380000114440918,13.510000228881836,14.369999885559082,14.369999885559082,530600
2020-12-17,14.5,15.270000457763672,14.5,14.989999771118164,14.989999771118164,818100
2020-12-18,15.100000381469727,17.260000228881836,15.0,16.950000762939453,16.950000762939453,1890400
2020-12-21,16.15999984741211,18.450000762939453,16.15999984741211,17.579999923706055,17.579999923706055,1012200
2020-12-22,18.149999618530273,18.739999771118164,17.299999237060547,18.559999465942383,18.559999465942383,1274200
2020-12-23,20.200000762939453,21.385000228881836,19.0,19.899999618530273,19.899999618530273,1536900
2020-12-24,20.209999084472656,20.716999053955078,18.600000381469727,18.959999084472656,18.959999084472656,637800
2020-12-28,19.780000686645508,20.479999542236328,17.010000228881836,17.760000228881836,17.760000228881836,1318100
2020-12-29,17.760000228881836,17.969999313354492,16.5,16.690000534057617,16.690000534057617,501000
2020-12-30,17.459999084472656,18.75,16.920000076293945,18.670000076293945,18.670000076293945,369800
