Date,Open,High,Low,Close,Adj Close,Volume
2019-05-09,15.550000190734863,22.75,15.079999923706055,19.899999618530273,19.899999618530273,1646700
2019-05-10,19.479999542236328,19.75,16.790000915527344,19.5,19.5,361700
2019-05-13,19.5,19.700000762939453,17.719999313354492,19.399999618530273,19.399999618530273,168000
2019-05-14,19.299999237060547,20.488000869750977,18.5,19.479999542236328,19.479999542236328,174400
2019-05-15,19.450000762939453,20.5,19.450000762939453,20.010000228881836,20.010000228881836,104500
2019-05-16,19.959999084472656,20.434999465942383,19.801000595092773,20.18000030517578,20.18000030517578,63000
2019-05-17,19.90999984741211,20.0,18.716999053955078,19.799999237060547,19.799999237060547,63900
2019-05-20,19.84000015258789,21.31999969482422,19.479999542236328,20.639999389648438,20.639999389648438,108300
2019-05-21,20.75,21.0,19.889999389648438,20.010000228881836,20.010000228881836,74800
2019-05-22,20.0,20.149999618530273,18.985000610351562,19.8799991607666,19.8799991607666,29800
2019-05-23,19.469999313354492,20.84000015258789,19.040000915527344,19.56999969482422,19.56999969482422,26900
2019-05-24,19.45400047302246,20.799999237060547,19.44499969482422,19.899999618530273,19.899999618530273,35300
2019-05-28,19.729999542236328,20.6200008392334,19.450000762939453,19.719999313354492,19.719999313354492,55000
2019-05-29,19.469999313354492,20.219999313354492,18.170000076293945,18.34000015258789,18.34000015258789,72500
2019-05-30,18.25,20.454999923706055,18.25,19.18000030517578,19.18000030517578,51600
2019-05-31,18.989999771118164,20.139999389648438,18.540000915527344,18.6200008392334,18.6200008392334,39200
2019-06-03,18.889999389648438,19.0,17.15999984741211,17.350000381469727,17.350000381469727,45500
2019-06-04,17.190000534057617,18.799999237060547,17.030000686645508,17.709999084472656,17.709999084472656,44900
2019-06-05,18.049999237060547,18.860000610351562,16.010000228881836,16.25,16.25,48900
2019-06-06,16.25,17.93000030517578,15.5,16.649999618530273,16.649999618530273,50000
2019-06-07,16.959999084472656,17.385000228881836,15.609999656677246,16.56999969482422,16.56999969482422,39500
2019-06-10,16.5,17.174999237060547,15.5,15.630000114440918,15.630000114440918,104100
2019-06-11,14.899999618530273,16.149999618530273,14.899999618530273,15.449999809265137,15.449999809265137,139400
2019-06-12,15.489999771118164,16.15999984741211,13.925000190734863,14.489999771118164,14.489999771118164,70200
2019-06-13,14.430000305175781,16.229999542236328,14.050000190734863,15.569999694824219,15.569999694824219,158400
2019-06-14,15.609999656677246,15.989999771118164,15.03499984741211,15.529999732971191,15.529999732971191,62000
2019-06-17,15.40999984741211,15.890000343322754,15.039999961853027,15.119999885559082,15.119999885559082,87200
2019-06-18,15.010000228881836,16.200000762939453,15.010000228881836,15.520000457763672,15.520000457763672,44400
2019-06-19,15.920000076293945,16.121000289916992,15.380000114440918,15.420000076293945,15.420000076293945,85800
2019-06-20,15.4399995803833,16.25,15.170000076293945,15.170000076293945,15.170000076293945,103800
2019-06-21,15.390000343322754,15.649999618530273,14.550000190734863,14.619999885559082,14.619999885559082,218100
2019-06-24,14.529999732971191,15.255000114440918,13.859999656677246,14.5600004196167,14.5600004196167,38700
2019-06-25,14.470000267028809,14.760000228881836,14.130000114440918,14.34000015258789,14.34000015258789,62800
2019-06-26,14.460000038146973,14.699999809265137,14.199999809265137,14.399999618530273,14.399999618530273,33000
2019-06-27,14.40999984741211,14.845000267028809,14.010000228881836,14.15999984741211,14.15999984741211,56000
2019-06-28,14.220000267028809,15.90999984741211,14.119999885559082,14.979999542236328,14.979999542236328,402900
2019-07-01,15.15999984741211,18.368999481201172,15.15999984741211,17.649999618530273,17.649999618530273,75100
2019-07-02,17.809999465942383,18.469999313354492,16.420000076293945,17.100000381469727,17.100000381469727,51500
2019-07-03,17.0,17.110000610351562,15.520000457763672,16.889999389648438,16.889999389648438,16400
2019-07-05,16.979999542236328,17.174999237060547,16.1200008392334,16.6299991607666,16.6299991607666,28600
2019-07-08,16.628999710083008,16.969999313354492,15.6899995803833,15.729999542236328,15.729999542236328,27800
2019-07-09,15.989999771118164,17.170000076293945,15.989999771118164,16.950000762939453,16.950000762939453,41600
2019-07-10,17.360000610351562,18.09000015258789,16.209999084472656,16.649999618530273,16.649999618530273,59700
2019-07-11,16.75,17.34000015258789,16.350000381469727,17.010000228881836,17.010000228881836,43500
2019-07-12,17.0,17.2450008392334,16.5,16.780000686645508,16.780000686645508,36900
2019-07-15,16.68000030517578,16.954999923706055,16.530000686645508,16.56999969482422,16.56999969482422,24800
2019-07-16,16.510000228881836,18.0,16.149999618530273,16.280000686645508,16.280000686645508,26100
2019-07-17,16.170000076293945,16.979999542236328,16.040000915527344,16.5,16.5,66500
2019-07-18,16.360000610351562,17.70199966430664,16.360000610351562,17.549999237060547,17.549999237060547,37100
2019-07-19,17.510000228881836,19.25,16.924999237060547,19.09000015258789,19.09000015258789,34300
2019-07-22,19.09000015258789,19.489999771118164,18.584999084472656,19.34000015258789,19.34000015258789,48400
2019-07-23,19.299999237060547,19.299999237060547,18.079999923706055,18.639999389648438,18.639999389648438,26100
2019-07-24,18.610000610351562,19.25,18.459999084472656,19.219999313354492,19.219999313354492,39400
2019-07-25,19.1299991607666,19.780000686645508,18.700000762939453,19.75,19.75,106200
2019-07-26,19.829999923706055,20.25,19.450000762939453,19.770000457763672,19.770000457763672,36200
2019-07-29,19.729999542236328,20.6200008392334,19.729999542236328,20.549999237060547,20.549999237060547,68600
2019-07-30,20.420000076293945,21.25,20.420000076293945,20.90999984741211,20.90999984741211,34900
2019-07-31,21.0,22.290000915527344,21.0,21.969999313354492,21.969999313354492,142500
2019-08-01,22.325000762939453,24.915000915527344,21.84000015258789,22.25,22.25,115700
2019-08-02,22.100000381469727,22.489999771118164,21.020000457763672,22.049999237060547,22.049999237060547,79700
2019-08-05,21.829999923706055,21.940000534057617,20.8799991607666,21.549999237060547,21.549999237060547,108100
2019-08-06,21.850000381469727,23.479999542236328,21.850000381469727,23.1200008392334,23.1200008392334,45900
2019-08-07,23.1200008392334,25.690000534057617,23.0,24.399999618530273,24.399999618530273,74200
2019-08-08,24.670000076293945,25.236000061035156,22.139999389648438,22.770000457763672,22.770000457763672,118700
2019-08-09,22.440000534057617,24.0,22.045000076293945,23.90999984741211,23.90999984741211,106500
2019-08-12,23.93000030517578,25.454999923706055,23.434999465942383,24.239999771118164,24.239999771118164,62100
2019-08-13,24.920000076293945,27.889999389648438,24.0,26.709999084472656,26.709999084472656,145700
2019-08-14,26.239999771118164,26.239999771118164,23.969999313354492,24.899999618530273,24.899999618530273,50500
2019-08-15,24.719999313354492,26.15999984741211,24.719999313354492,25.75,25.75,33000
2019-08-16,25.889999389648438,28.0,25.75,26.559999465942383,26.559999465942383,40800
2019-08-19,26.93000030517578,28.8799991607666,26.5,26.81999969482422,26.81999969482422,68700
2019-08-20,27.0,27.358999252319336,25.524999618530273,25.920000076293945,25.920000076293945,19400
2019-08-21,25.899999618530273,29.8700008392334,25.200000762939453,29.520000457763672,29.520000457763672,109900
2019-08-22,29.649999618530273,30.75,29.389999389648438,29.829999923706055,29.829999923706055,40700
2019-08-23,30.0,30.969999313354492,28.489999771118164,30.1299991607666,30.1299991607666,73300
2019-08-26,30.770000457763672,31.440000534057617,29.885000228881836,30.5,30.5,27700
2019-08-27,30.68000030517578,31.5,30.610000610351562,31.170000076293945,31.170000076293945,22800
2019-08-28,31.1299991607666,31.5,30.115999221801758,31.290000915527344,31.290000915527344,21600
2019-08-29,31.639999389648438,35.900001525878906,31.08300018310547,34.0099983215332,34.0099983215332,62400
2019-08-30,34.560001373291016,36.0,34.119998931884766,34.72999954223633,34.72999954223633,57700
2019-09-03,34.70000076293945,37.29999923706055,34.32600021362305,36.81999969482422,36.81999969482422,57400
2019-09-04,37.4900016784668,39.52000045776367,37.064998626708984,39.43000030517578,39.43000030517578,63000
2019-09-05,40.4900016784668,44.689998626708984,40.209999084472656,41.599998474121094,41.599998474121094,145500
2019-09-06,43.38999938964844,43.38999938964844,33.119998931884766,34.34000015258789,34.34000015258789,243400
2019-09-09,34.599998474121094,38.34199905395508,34.5,35.31999969482422,35.31999969482422,95200
2019-09-10,36.279998779296875,37.499000549316406,35.619998931884766,36.7599983215332,36.7599983215332,46700
2019-09-11,36.810001373291016,37.529998779296875,35.54999923706055,36.79999923706055,36.79999923706055,50800
2019-09-12,37.0,38.25,36.93299865722656,37.68000030517578,37.68000030517578,29700
2019-09-13,37.68000030517578,37.689998626708984,36.540000915527344,37.04999923706055,37.04999923706055,43700
2019-09-16,36.709999084472656,38.08000183105469,36.525001525878906,37.130001068115234,37.130001068115234,29000
2019-09-17,37.04999923706055,41.68000030517578,36.48899841308594,40.040000915527344,40.040000915527344,107800
2019-09-18,40.029998779296875,41.73400115966797,38.77000045776367,39.529998779296875,39.529998779296875,130300
2019-09-19,39.375,40.47999954223633,39.0099983215332,39.61000061035156,39.61000061035156,52600
2019-09-20,39.7400016784668,40.0,37.0,38.68000030517578,38.68000030517578,131500
2019-09-23,39.08000183105469,39.08000183105469,37.154998779296875,37.779998779296875,37.779998779296875,132800
2019-09-24,37.06999969482422,38.54999923706055,36.150001525878906,38.220001220703125,38.220001220703125,84800
2019-09-25,38.22999954223633,40.20000076293945,37.45000076293945,38.83000183105469,38.83000183105469,101000
2019-09-26,38.83000183105469,39.779998779296875,35.02000045776367,35.689998626708984,35.689998626708984,97500
2019-09-27,35.470001220703125,35.470001220703125,30.792999267578125,32.75,32.75,164500
2019-09-30,32.70000076293945,32.70000076293945,29.65999984741211,30.850000381469727,30.850000381469727,195000
2019-10-01,30.700000762939453,32.189998626708984,30.600000381469727,31.200000762939453,31.200000762939453,140900
2019-10-02,30.84000015258789,31.579999923706055,29.719999313354492,30.170000076293945,30.170000076293945,208400
2019-10-03,29.989999771118164,33.7400016784668,29.989999771118164,31.010000228881836,31.010000228881836,148500
2019-10-04,31.100000381469727,32.220001220703125,30.540000915527344,31.0,31.0,53400
2019-10-07,31.0,31.399999618530273,29.459999084472656,29.81999969482422,29.81999969482422,85300
2019-10-08,29.559999465942383,29.718000411987305,28.149999618530273,28.5,28.5,56900
2019-10-09,28.899999618530273,29.799999237060547,25.399999618530273,25.540000915527344,25.540000915527344,218100
2019-10-10,25.5,27.110000610351562,25.5,25.979999542236328,25.979999542236328,120400
2019-10-11,26.299999237060547,28.549999237060547,26.1200008392334,27.200000762939453,27.200000762939453,164000
2019-10-14,27.149999618530273,28.760000228881836,26.09000015258789,26.18000030517578,26.18000030517578,32900
2019-10-15,26.350000381469727,27.795000076293945,26.0,27.139999389648438,27.139999389648438,53600
2019-10-16,26.989999771118164,27.649999618530273,25.5,26.700000762939453,26.700000762939453,55300
2019-10-17,26.690000534057617,27.549999237060547,25.795000076293945,26.850000381469727,26.850000381469727,167100
2019-10-18,26.670000076293945,27.8700008392334,26.670000076293945,27.1200008392334,27.1200008392334,85800
2019-10-21,27.299999237060547,27.799999237060547,26.190000534057617,27.309999465942383,27.309999465942383,38600
2019-10-22,27.290000915527344,27.5,26.549999237060547,27.229999542236328,27.229999542236328,55600
2019-10-23,27.219999313354492,28.049999237060547,25.639999389648438,25.979999542236328,25.979999542236328,107400
2019-10-24,26.1299991607666,26.483999252319336,25.34000015258789,25.790000915527344,25.790000915527344,72900
2019-10-25,25.489999771118164,27.385000228881836,25.489999771118164,26.780000686645508,26.780000686645508,80400
2019-10-28,27.34000015258789,27.799999237060547,25.6299991607666,26.110000610351562,26.110000610351562,108900
2019-10-29,26.0,28.06999969482422,25.0,26.979999542236328,26.979999542236328,81200
2019-10-30,26.729999542236328,28.222999572753906,25.610000610351562,25.8700008392334,25.8700008392334,89600
2019-10-31,26.200000762939453,26.365999221801758,24.899999618530273,25.0,25.0,117000
2019-11-01,25.219999313354492,27.65999984741211,25.219999313354492,27.350000381469727,27.350000381469727,236100
2019-11-04,27.299999237060547,28.5,26.030000686645508,26.43000030517578,26.43000030517578,111800
2019-11-05,25.5,109.0,25.5,92.22000122070312,92.22000122070312,7967000
2019-11-06,87.5,89.0,61.52000045776367,67.01000213623047,67.01000213623047,2574700
2019-11-07,65.41999816894531,81.79499816894531,65.20500183105469,79.41000366210938,79.41000366210938,619400
2019-11-08,77.12000274658203,86.0,75.47000122070312,82.88999938964844,82.88999938964844,617700
2019-11-11,37.529998779296875,43.9900016784668,37.04999923706055,39.02000045776367,39.02000045776367,3088100
2019-11-12,38.9900016784668,40.47999954223633,36.22999954223633,37.40999984741211,37.40999984741211,705200
2019-11-13,35.5099983215332,38.428001403808594,34.689998626708984,37.75,37.75,575400
2019-11-14,37.650001525878906,38.599998474121094,36.310001373291016,38.54999923706055,38.54999923706055,480200
2019-11-15,37.86000061035156,38.63999938964844,34.40999984741211,36.04999923706055,36.04999923706055,2105200
2019-11-18,36.13999938964844,37.29999923706055,35.95000076293945,36.349998474121094,36.349998474121094,365400
2019-11-19,36.689998626708984,36.93000030517578,35.220001220703125,36.0,36.0,474000
2019-11-20,36.599998474121094,36.70000076293945,35.63999938964844,36.5,36.5,384000
2019-11-21,36.20000076293945,37.2599983215332,35.939998626708984,36.34000015258789,36.34000015258789,535900
2019-11-22,36.59000015258789,37.5099983215332,36.249000549316406,36.810001373291016,36.810001373291016,454500
2019-11-25,36.75,41.72999954223633,36.75,39.84000015258789,39.84000015258789,992800
2019-11-26,40.79999923706055,41.0,39.0,39.939998626708984,39.939998626708984,419900
2019-11-27,40.20000076293945,42.25,39.801998138427734,40.939998626708984,40.939998626708984,485900
2019-11-29,40.970001220703125,49.16999816894531,40.970001220703125,47.810001373291016,47.810001373291016,734000
2019-12-02,48.29999923706055,48.86000061035156,42.70000076293945,43.59000015258789,43.59000015258789,632100
2019-12-03,42.16999816894531,48.119998931884766,42.04999923706055,47.20000076293945,47.20000076293945,470700
2019-12-04,47.310001373291016,51.7400016784668,45.75,51.0099983215332,51.0099983215332,580000
2019-12-05,52.43000030517578,52.720001220703125,49.5099983215332,49.91999816894531,49.91999816894531,457600
2019-12-06,49.650001525878906,51.69499969482422,49.650001525878906,50.27000045776367,50.27000045776367,303100
2019-12-09,52.779998779296875,55.34000015258789,50.0,52.22999954223633,52.22999954223633,368500
2019-12-10,52.0,55.849998474121094,52.0,53.119998931884766,53.119998931884766,210700
2019-12-11,53.70000076293945,54.72800064086914,49.619998931884766,51.54999923706055,51.54999923706055,396000
2019-12-12,51.34000015258789,52.380001068115234,49.650001525878906,51.2400016784668,51.2400016784668,191200
2019-12-13,51.06999969482422,52.380001068115234,48.70000076293945,51.91999816894531,51.91999816894531,245200
2019-12-16,51.88999938964844,52.20000076293945,50.01499938964844,51.689998626708984,51.689998626708984,227800
2019-12-17,51.83000183105469,52.959999084472656,50.689998626708984,52.4900016784668,52.4900016784668,387800
2019-12-18,52.189998626708984,52.599998474121094,50.0,50.119998931884766,50.119998931884766,140200
2019-12-19,50.38999938964844,55.55500030517578,49.29999923706055,55.02000045776367,55.02000045776367,202200
2019-12-20,55.060001373291016,60.0,54.347999572753906,58.54999923706055,58.54999923706055,1937900
2019-12-23,59.63999938964844,67.83399963378906,57.060001373291016,66.0,66.0,499900
2019-12-24,66.31999969482422,70.9800033569336,60.79999923706055,62.70000076293945,62.70000076293945,246600
2019-12-26,63.0099983215332,65.6500015258789,61.029998779296875,62.619998931884766,62.619998931884766,176300
2019-12-27,62.970001220703125,64.09700012207031,55.93000030517578,58.709999084472656,58.709999084472656,289500
2019-12-30,58.560001373291016,59.069000244140625,52.630001068115234,53.20000076293945,53.20000076293945,312300
2019-12-31,53.290000915527344,57.400001525878906,52.349998474121094,56.33000183105469,56.33000183105469,385900
2020-01-02,56.25,56.29999923706055,53.40999984741211,55.68000030517578,55.68000030517578,213000
2020-01-03,54.75,55.63999938964844,53.0,54.650001525878906,54.650001525878906,333400
2020-01-06,54.33000183105469,57.11000061035156,52.380001068115234,56.56999969482422,56.56999969482422,263900
2020-01-07,55.70000076293945,57.209999084472656,54.02000045776367,56.7599983215332,56.7599983215332,257500
2020-01-08,56.40999984741211,58.36000061035156,55.525001525878906,57.86000061035156,57.86000061035156,250700
2020-01-09,57.88999938964844,61.0,57.56999969482422,58.369998931884766,58.369998931884766,184700
2020-01-10,58.54999923706055,58.77000045776367,56.29999923706055,56.70000076293945,56.70000076293945,266800
2020-01-13,57.29999923706055,57.29999923706055,51.2400016784668,52.0,52.0,467400
2020-01-14,51.31999969482422,54.95000076293945,48.52000045776367,53.22999954223633,53.22999954223633,271900
2020-01-15,52.869998931884766,54.79999923706055,52.5099983215332,53.279998779296875,53.279998779296875,233200
2020-01-16,51.619998931884766,54.95000076293945,50.97999954223633,52.900001525878906,52.900001525878906,211800
2020-01-17,53.31999969482422,53.70000076293945,49.900001525878906,50.119998931884766,50.119998931884766,231300
2020-01-21,49.970001220703125,51.33000183105469,49.0,49.880001068115234,49.880001068115234,244400
2020-01-22,49.959999084472656,50.31999969482422,47.25,47.65999984741211,47.65999984741211,232200
2020-01-23,47.40999984741211,47.61000061035156,44.77000045776367,47.099998474121094,47.099998474121094,385800
2020-01-24,47.150001525878906,47.79999923706055,42.560001373291016,44.5099983215332,44.5099983215332,284800
2020-01-27,43.33000183105469,45.31999969482422,42.5,44.599998474121094,44.599998474121094,139900
2020-01-28,44.939998626708984,45.630001068115234,42.189998626708984,43.279998779296875,43.279998779296875,541500
2020-01-29,43.2400016784668,44.0,42.5,43.25,43.25,185600
2020-01-30,42.77000045776367,43.69499969482422,42.0,43.5,43.5,276300
2020-01-31,43.18000030517578,44.0,42.29999923706055,42.75,42.75,143700
2020-02-03,42.93000030517578,44.0,42.099998474121094,43.540000915527344,43.540000915527344,212600
2020-02-04,44.06999969482422,46.09000015258789,42.827999114990234,45.779998779296875,45.779998779296875,335200
2020-02-05,46.16999816894531,47.209999084472656,44.755001068115234,45.20000076293945,45.20000076293945,300500
2020-02-06,45.439998626708984,46.0099983215332,43.4900016784668,44.720001220703125,44.720001220703125,334900
2020-02-07,44.720001220703125,45.650001525878906,44.38999938964844,45.22999954223633,45.22999954223633,274000
2020-02-10,45.08000183105469,46.275001525878906,43.540000915527344,44.470001220703125,44.470001220703125,290000
2020-02-11,44.66999816894531,46.91999816894531,43.869998931884766,46.459999084472656,46.459999084472656,199200
2020-02-12,46.689998626708984,46.810001373291016,44.70000076293945,45.150001525878906,45.150001525878906,148200
2020-02-13,44.810001373291016,48.18000030517578,44.810001373291016,47.91999816894531,47.91999816894531,168600
2020-02-14,47.959999084472656,48.040000915527344,46.266998291015625,46.75,46.75,188800
2020-02-18,46.310001373291016,48.47999954223633,46.23699951171875,48.27000045776367,48.27000045776367,70600
2020-02-19,48.33000183105469,50.7599983215332,48.20000076293945,48.7599983215332,48.7599983215332,139800
2020-02-20,48.58000183105469,49.0,45.27000045776367,48.599998474121094,48.599998474121094,119800
2020-02-21,49.150001525878906,49.38999938964844,47.02799987792969,49.220001220703125,49.220001220703125,161500
2020-02-24,47.279998779296875,49.15999984741211,47.060001373291016,48.5,48.5,137800
2020-02-25,48.0,48.176998138427734,44.43000030517578,45.0,45.0,316400
2020-02-26,45.22999954223633,46.779998779296875,43.400001525878906,44.52000045776367,44.52000045776367,205900
2020-02-27,43.4900016784668,44.22999954223633,41.0,41.02000045776367,41.02000045776367,156200
2020-02-28,40.20000076293945,42.400001525878906,40.0,41.7599983215332,41.7599983215332,267000
2020-03-02,42.529998779296875,42.97999954223633,40.40999984741211,42.86000061035156,42.86000061035156,195700
2020-03-03,42.84000015258789,45.150001525878906,38.86000061035156,41.09000015258789,41.09000015258789,275700
2020-03-04,42.02000045776367,43.720001220703125,41.599998474121094,43.43000030517578,43.43000030517578,201900
2020-03-05,42.25,44.709999084472656,42.25,43.36000061035156,43.36000061035156,180100
2020-03-06,42.5,43.62300109863281,41.529998779296875,42.4900016784668,42.4900016784668,246300
2020-03-09,40.029998779296875,41.68000030517578,38.61000061035156,39.470001220703125,39.470001220703125,358700
2020-03-10,40.86000061035156,41.790000915527344,37.5099983215332,41.18000030517578,41.18000030517578,229300
2020-03-11,39.869998931884766,40.9900016784668,37.04999923706055,38.220001220703125,38.220001220703125,194600
2020-03-12,35.380001068115234,35.948001861572266,31.579999923706055,32.7400016784668,32.7400016784668,367000
2020-03-13,34.2400016784668,36.779998779296875,29.0,33.5099983215332,33.5099983215332,248800
2020-03-16,29.760000228881836,36.939998626708984,28.290000915527344,35.470001220703125,35.470001220703125,264800
2020-03-17,36.59000015258789,41.869998931884766,33.9900016784668,39.75,39.75,301600
2020-03-18,37.349998474121094,40.0,34.91600036621094,35.77000045776367,35.77000045776367,178700
2020-03-19,35.63999938964844,37.0,33.90999984741211,34.40999984741211,34.40999984741211,211100
2020-03-20,34.369998931884766,35.02000045776367,31.479999542236328,32.5099983215332,32.5099983215332,192600
2020-03-23,32.59000015258789,33.349998474121094,30.020000457763672,32.31999969482422,32.31999969482422,185700
2020-03-24,34.4900016784668,35.95000076293945,31.010000228881836,33.27000045776367,33.27000045776367,191800
2020-03-25,33.09000015258789,36.5,32.34000015258789,33.939998626708984,33.939998626708984,220600
2020-03-26,34.02000045776367,39.75,34.02000045776367,37.41999816894531,37.41999816894531,220000
2020-03-27,36.22999954223633,38.696998596191406,34.0,36.61000061035156,36.61000061035156,202500
2020-03-30,36.540000915527344,38.0,35.446998596191406,36.939998626708984,36.939998626708984,125900
2020-03-31,36.72999954223633,38.66999816894531,35.439998626708984,37.06999969482422,37.06999969482422,149700
2020-04-01,35.40999984741211,36.35900115966797,33.16999816894531,34.9900016784668,34.9900016784668,241300
2020-04-02,34.40999984741211,38.189998626708984,34.29499816894531,35.880001068115234,35.880001068115234,254000
2020-04-03,35.81999969482422,36.529998779296875,34.72999954223633,35.0,35.0,134600
2020-04-06,36.68000030517578,39.08000183105469,35.529998779296875,37.5,37.5,222400
2020-04-07,38.400001525878906,38.400001525878906,33.58000183105469,33.75,33.75,261200
2020-04-08,34.13999938964844,36.650001525878906,33.7599983215332,36.18000030517578,36.18000030517578,191400
2020-04-09,35.68000030517578,40.939998626708984,35.68000030517578,40.20000076293945,40.20000076293945,395300
2020-04-13,37.36000061035156,38.25,34.75,36.0099983215332,36.0099983215332,316500
2020-04-14,36.650001525878906,38.999000549316406,35.630001068115234,38.18000030517578,38.18000030517578,305000
2020-04-15,38.13999938964844,38.13999938964844,34.880001068115234,34.880001068115234,34.880001068115234,178800
2020-04-16,35.47999954223633,36.34000015258789,33.94499969482422,34.70000076293945,34.70000076293945,180300
2020-04-17,35.790000915527344,37.400001525878906,35.04999923706055,37.150001525878906,37.150001525878906,301200
2020-04-20,36.619998931884766,38.7400016784668,36.20000076293945,36.810001373291016,36.810001373291016,239800
2020-04-21,35.869998931884766,38.27000045776367,35.2869987487793,36.15999984741211,36.15999984741211,266500
2020-04-22,36.61000061035156,37.63999938964844,35.52799987792969,36.349998474121094,36.349998474121094,371700
2020-04-23,36.650001525878906,38.095001220703125,35.709999084472656,36.099998474121094,36.099998474121094,204000
2020-04-24,36.15999984741211,36.88199996948242,35.5099983215332,36.5099983215332,36.5099983215332,100400
2020-04-27,37.25,37.25,34.599998474121094,34.779998779296875,34.779998779296875,269800
2020-04-28,36.380001068115234,36.4900016784668,34.560001373291016,35.34000015258789,35.34000015258789,157400
2020-04-29,35.97999954223633,37.040000915527344,35.029998779296875,36.70000076293945,36.70000076293945,147000
2020-04-30,36.09000015258789,36.18000030517578,32.29999923706055,32.41999816894531,32.41999816894531,305300
2020-05-01,34.22999954223633,34.86000061035156,32.43000030517578,33.61000061035156,33.61000061035156,210200
2020-05-04,33.599998474121094,35.220001220703125,32.72999954223633,35.02000045776367,35.02000045776367,288400
2020-05-05,35.970001220703125,36.06999969482422,33.95000076293945,34.4900016784668,34.4900016784668,187000
2020-05-06,34.4900016784668,35.099998474121094,33.63999938964844,33.84000015258789,33.84000015258789,131200
2020-05-07,34.540000915527344,37.900001525878906,34.08000183105469,35.88999938964844,35.88999938964844,289100
2020-05-08,37.02000045776367,39.77000045776367,35.77000045776367,37.97999954223633,37.97999954223633,373300
2020-05-11,38.029998779296875,39.65999984741211,37.29999923706055,37.779998779296875,37.779998779296875,252800
2020-05-12,37.90999984741211,37.90999984741211,35.02000045776367,35.20000076293945,35.20000076293945,218500
2020-05-13,35.29999923706055,35.95000076293945,32.72999954223633,33.38999938964844,33.38999938964844,210700
2020-05-14,33.0099983215332,35.0099983215332,32.970001220703125,34.7599983215332,34.7599983215332,156300
2020-05-15,34.83000183105469,36.0,34.41999816894531,35.47999954223633,35.47999954223633,111600
2020-05-18,36.20000076293945,37.470001220703125,35.529998779296875,36.209999084472656,36.209999084472656,131400
2020-05-19,35.970001220703125,36.39799880981445,32.54999923706055,32.7599983215332,32.7599983215332,295500
2020-05-20,33.27000045776367,35.16400146484375,32.900001525878906,34.2599983215332,34.2599983215332,254800
2020-05-21,34.97999954223633,35.4900016784668,33.0099983215332,33.86000061035156,33.86000061035156,191700
2020-05-22,33.90999984741211,34.064998626708984,32.02000045776367,33.099998474121094,33.099998474121094,158400
2020-05-26,34.52000045776367,35.959999084472656,33.676998138427734,34.880001068115234,34.880001068115234,246400
2020-05-27,35.15999984741211,35.290000915527344,31.299999237060547,34.540000915527344,34.540000915527344,227500
2020-05-28,34.7400016784668,34.95500183105469,32.720001220703125,33.20000076293945,33.20000076293945,184200
2020-05-29,32.0,33.09000015258789,30.559999465942383,31.209999084472656,31.209999084472656,578200
2020-06-01,30.360000610351562,31.06999969482422,28.5,29.8799991607666,29.8799991607666,602600
2020-06-02,30.3799991607666,30.3799991607666,26.690000534057617,28.690000534057617,28.690000534057617,660500
2020-06-03,28.920000076293945,29.239999771118164,26.799999237060547,26.8799991607666,26.8799991607666,501500
2020-06-04,27.030000686645508,28.31999969482422,25.889999389648438,26.170000076293945,26.170000076293945,799800
2020-06-05,26.020000457763672,27.790000915527344,24.719999313354492,25.459999084472656,25.459999084472656,725200
2020-06-08,26.43000030517578,31.829999923706055,26.0,30.3799991607666,30.3799991607666,512000
2020-06-09,29.84000015258789,30.527000427246094,26.110000610351562,26.18000030517578,26.18000030517578,573100
2020-06-10,26.420000076293945,27.18000030517578,25.34000015258789,25.395000457763672,25.395000457763672,326100
2020-06-11,25.0,25.469999313354492,24.020000457763672,24.1299991607666,24.1299991607666,336500
2020-06-12,24.969999313354492,25.329999923706055,22.850000381469727,23.739999771118164,23.739999771118164,391900
2020-06-15,23.059999465942383,25.59000015258789,22.81999969482422,24.420000076293945,24.420000076293945,437200
2020-06-16,24.920000076293945,25.71500015258789,23.75,24.110000610351562,24.110000610351562,411800
2020-06-17,24.200000762939453,25.149999618530273,23.799999237060547,24.170000076293945,24.170000076293945,312500
2020-06-18,24.049999237060547,24.690000534057617,24.020000457763672,24.329999923706055,24.329999923706055,196800
2020-06-19,24.459999084472656,24.760000228881836,23.100000381469727,24.579999923706055,24.579999923706055,998900
2020-06-22,24.389999389648438,25.09000015258789,23.84000015258789,25.040000915527344,25.040000915527344,311800
2020-06-23,25.149999618530273,26.93000030517578,24.600000381469727,25.8700008392334,25.8700008392334,373700
2020-06-24,25.260000228881836,26.399999618530273,23.049999237060547,24.170000076293945,24.170000076293945,304700
2020-06-25,24.18000030517578,24.476999282836914,23.104999542236328,23.459999084472656,23.459999084472656,373200
2020-06-26,23.420000076293945,23.915000915527344,21.09000015258789,21.190000534057617,21.190000534057617,632900
2020-06-29,21.530000686645508,22.489999771118164,21.110000610351562,22.190000534057617,22.190000534057617,327200
2020-06-30,22.270000457763672,22.351999282836914,21.209999084472656,21.440000534057617,21.440000534057617,334900
2020-07-01,21.639999389648438,22.579999923706055,20.229999542236328,20.760000228881836,20.760000228881836,706800
2020-07-02,21.06999969482422,22.010000228881836,20.280000686645508,21.170000076293945,21.170000076293945,694600
2020-07-06,21.549999237060547,21.959999084472656,20.40999984741211,20.479999542236328,20.479999542236328,244900
2020-07-07,20.479999542236328,20.520000457763672,17.697999954223633,18.600000381469727,18.600000381469727,773900
2020-07-08,19.010000228881836,19.68000030517578,18.399999618530273,18.6200008392334,18.6200008392334,439600
2020-07-09,19.09000015258789,19.219999313354492,17.6200008392334,18.18000030517578,18.18000030517578,635700
2020-07-10,17.979999542236328,18.450000762939453,17.549999237060547,17.8799991607666,17.8799991607666,710200
2020-07-13,12.75,12.970000267028809,8.0,8.149999618530273,8.149999618530273,6678600
2020-07-14,8.399999618530273,9.920000076293945,8.350000381469727,9.079999923706055,9.079999923706055,3617200
2020-07-15,9.489999771118164,9.871999740600586,8.75,9.010000228881836,9.010000228881836,2185400
2020-07-16,9.529999732971191,9.649999618530273,9.010000228881836,9.3100004196167,9.3100004196167,1511400
2020-07-17,9.359999656677246,9.359999656677246,8.850000381469727,9.239999771118164,9.239999771118164,2191700
2020-07-20,9.4399995803833,9.59000015258789,8.960000038146973,9.289999961853027,9.289999961853027,1075700
2020-07-21,9.289999961853027,9.449999809265137,9.029999732971191,9.289999961853027,9.289999961853027,1521100
2020-07-22,9.289999961853027,10.039999961853027,9.100000381469727,9.670000076293945,9.670000076293945,1543600
2020-07-23,9.880000114440918,10.586000442504883,9.569999694824219,9.899999618530273,9.899999618530273,1545300
2020-07-24,9.739999771118164,9.822999954223633,9.236000061035156,9.380000114440918,9.380000114440918,1145300
2020-07-27,9.3100004196167,9.619999885559082,9.0600004196167,9.25,9.25,603800
2020-07-28,9.170000076293945,9.467000007629395,9.0600004196167,9.180000305175781,9.180000305175781,512200
2020-07-29,9.100000381469727,9.270000457763672,8.569999694824219,8.90999984741211,8.90999984741211,2628000
2020-07-30,8.75,9.100000381469727,8.699999809265137,8.890000343322754,8.890000343322754,1293400
2020-07-31,8.90999984741211,9.079999923706055,8.520000457763672,8.920000076293945,8.920000076293945,1018100
2020-08-03,8.90999984741211,9.399999618530273,8.6899995803833,9.239999771118164,9.239999771118164,1100100
2020-08-04,9.319999694824219,9.609999656677246,9.0,9.5,9.5,778300
2020-08-05,9.550000190734863,9.979999542236328,9.399999618530273,9.699999809265137,9.699999809265137,810900
2020-08-06,9.699999809265137,9.90999984741211,9.369999885559082,9.59000015258789,9.59000015258789,587400
2020-08-07,9.489999771118164,9.680000305175781,9.279999732971191,9.5649995803833,9.5649995803833,902400
2020-08-10,9.649999618530273,10.3100004196167,9.562000274658203,10.039999961853027,10.039999961853027,770100
2020-08-11,10.020000457763672,10.350000381469727,9.260000228881836,9.399999618530273,9.399999618530273,966800
2020-08-12,9.479999542236328,9.779999732971191,9.15999984741211,9.479999542236328,9.479999542236328,952500
2020-08-13,9.470000267028809,9.619999885559082,9.21500015258789,9.3100004196167,9.3100004196167,588400
2020-08-14,9.34000015258789,9.34000015258789,8.9399995803833,9.119999885559082,9.119999885559082,723400
2020-08-17,9.100000381469727,9.651000022888184,9.050000190734863,9.5600004196167,9.5600004196167,427300
2020-08-18,9.550000190734863,9.550000190734863,9.050000190734863,9.270000457763672,9.270000457763672,422800
2020-08-19,9.199999809265137,9.380000114440918,9.100000381469727,9.25,9.25,341300
2020-08-20,9.149999618530273,9.479999542236328,9.119999885559082,9.4399995803833,9.4399995803833,364300
2020-08-21,9.399999618530273,9.890000343322754,9.1899995803833,9.279999732971191,9.279999732971191,640500
2020-08-24,9.260000228881836,9.444999694824219,8.859999656677246,8.90999984741211,8.90999984741211,648700
2020-08-25,8.970000267028809,9.329999923706055,8.880000114440918,9.270000457763672,9.270000457763672,400600
2020-08-26,9.199999809265137,9.300000190734863,9.020000457763672,9.270000457763672,9.270000457763672,252300
2020-08-27,9.260000228881836,9.260000228881836,8.859999656677246,8.960000038146973,8.960000038146973,274300
2020-08-28,9.010000228881836,9.100000381469727,8.619999885559082,8.880000114440918,8.880000114440918,358500
2020-08-31,8.949999809265137,9.079999923706055,8.760000228881836,8.989999771118164,8.989999771118164,442900
2020-09-01,8.899999618530273,9.069999694824219,8.720000267028809,8.979999542236328,8.979999542236328,385400
2020-09-02,8.90999984741211,9.149999618530273,8.6899995803833,9.069999694824219,9.069999694824219,415800
2020-09-03,9.010000228881836,9.329999923706055,8.770000457763672,8.819999694824219,8.819999694824219,461100
2020-09-04,8.880000114440918,8.899999618530273,8.149999618530273,8.319999694824219,8.319999694824219,760300
2020-09-08,8.300000190734863,8.970000267028809,8.050000190734863,8.609999656677246,8.609999656677246,575400
2020-09-09,8.710000038146973,9.760000228881836,8.65999984741211,9.329999923706055,9.329999923706055,735800
2020-09-10,9.399999618530273,9.420000076293945,9.050000190734863,9.140000343322754,9.140000343322754,316100
2020-09-11,9.140000343322754,9.329999923706055,8.8100004196167,9.050000190734863,9.050000190734863,197700
2020-09-14,9.119999885559082,9.529999732971191,9.079999923706055,9.239999771118164,9.239999771118164,370300
2020-09-15,9.279999732971191,9.704999923706055,9.119999885559082,9.15999984741211,9.15999984741211,541900
2020-09-16,9.270000457763672,9.449999809265137,9.140000343322754,9.170000076293945,9.170000076293945,180000
2020-09-17,9.140000343322754,9.470000267028809,9.0,9.430000305175781,9.430000305175781,196400
2020-09-18,9.449999809265137,9.569999694824219,9.130000114440918,9.569999694824219,9.569999694824219,496400
2020-09-21,9.380000114440918,9.430000305175781,9.020000457763672,9.399999618530273,9.399999618530273,348900
2020-09-22,9.350000381469727,9.350000381469727,8.729999542236328,8.869999885559082,8.869999885559082,439200
2020-09-23,8.9399995803833,8.949999809265137,8.170000076293945,8.220000267028809,8.220000267028809,482500
2020-09-24,8.220000267028809,8.449999809265137,7.909999847412109,8.210000038146973,8.210000038146973,270100
2020-09-25,8.199999809265137,8.399999618530273,8.149999618530273,8.380000114440918,8.380000114440918,234500
2020-09-28,8.5,8.5,8.0600004196167,8.289999961853027,8.289999961853027,304000
2020-09-29,8.260000228881836,8.569999694824219,8.119999885559082,8.529999732971191,8.529999732971191,251100
2020-09-30,8.470000267028809,8.819999694824219,8.380000114440918,8.800000190734863,8.800000190734863,229700
2020-10-01,8.779999732971191,9.600000381469727,8.729999542236328,9.475000381469727,9.475000381469727,801100
2020-10-02,9.180000305175781,9.869999885559082,9.149999618530273,9.520000457763672,9.520000457763672,522600
2020-10-05,9.720000267028809,10.699999809265137,9.720000267028809,10.579999923706055,10.579999923706055,864300
2020-10-06,10.800000190734863,11.319999694824219,10.097999572753906,10.40999984741211,10.40999984741211,935800
2020-10-07,10.609999656677246,11.430000305175781,10.515000343322754,11.390000343322754,11.390000343322754,564500
2020-10-08,11.430000305175781,11.779999732971191,10.949999809265137,11.229999542236328,11.229999542236328,603000
2020-10-09,11.0,11.470000267028809,10.8100004196167,11.220000267028809,11.220000267028809,249900
2020-10-12,11.260000228881836,11.720000267028809,11.220000267028809,11.569999694824219,11.569999694824219,293700
2020-10-13,11.529999732971191,11.569999694824219,11.010000228881836,11.529999732971191,11.529999732971191,218700
2020-10-14,11.539999961853027,11.829999923706055,11.300000190734863,11.649999618530273,11.649999618530273,218600
2020-10-15,11.510000228881836,11.694999694824219,10.819999694824219,11.329999923706055,11.329999923706055,396900
2020-10-16,11.479999542236328,11.579999923706055,11.180000305175781,11.390000343322754,11.390000343322754,287100
2020-10-19,11.510000228881836,11.600000381469727,11.15999984741211,11.460000038146973,11.460000038146973,211600
2020-10-20,11.539999961853027,11.649999618530273,11.239999771118164,11.510000228881836,11.510000228881836,181400
2020-10-21,11.569999694824219,11.569999694824219,11.109999656677246,11.380000114440918,11.380000114440918,503700
2020-10-22,11.34000015258789,11.569999694824219,11.020000457763672,11.5,11.5,320100
2020-10-23,11.600000381469727,12.489999771118164,11.300000190734863,12.430000305175781,12.430000305175781,452200
2020-10-26,12.210000038146973,12.359999656677246,10.899999618530273,10.930000305175781,10.930000305175781,408000
2020-10-27,11.020000457763672,11.020000457763672,10.229999542236328,10.3100004196167,10.3100004196167,369300
2020-10-28,10.140000343322754,10.3100004196167,9.729999542236328,10.079999923706055,10.079999923706055,358100
2020-10-29,10.09000015258789,10.579999923706055,9.869999885559082,10.40999984741211,10.40999984741211,171100
2020-10-30,10.3100004196167,10.34000015258789,9.529999732971191,9.65999984741211,9.65999984741211,275000
2020-11-02,9.729999542236328,9.970000267028809,9.489999771118164,9.899999618530273,9.899999618530273,939400
2020-11-03,10.0600004196167,10.390000343322754,9.859999656677246,10.15999984741211,10.15999984741211,142200
2020-11-04,10.119999885559082,10.550000190734863,10.079999923706055,10.3100004196167,10.3100004196167,145200
2020-11-05,10.329999923706055,10.9399995803833,10.170000076293945,10.670000076293945,10.670000076293945,189100
2020-11-06,10.640000343322754,10.704999923706055,9.800000190734863,9.869999885559082,9.869999885559082,273600
2020-11-09,10.1899995803833,11.130000114440918,9.869999885559082,10.850000381469727,10.850000381469727,305800
2020-11-10,10.970000267028809,11.0,10.289999961853027,10.399999618530273,10.399999618530273,261600
2020-11-11,10.569999694824219,11.067999839782715,10.510000228881836,10.850000381469727,10.850000381469727,299000
2020-11-12,10.729999542236328,11.420999526977539,10.470000267028809,10.529999732971191,10.529999732971191,590600
2020-11-13,10.6899995803833,10.760000228881836,10.210000038146973,10.550000190734863,10.550000190734863,172200
2020-11-16,10.640000343322754,10.90999984741211,10.0600004196167,10.109999656677246,10.109999656677246,350700
2020-11-17,10.0,10.399999618530273,9.699999809265137,10.039999961853027,10.039999961853027,327000
2020-11-18,10.140000343322754,10.239999771118164,9.859999656677246,9.859999656677246,9.859999656677246,638100
2020-11-19,9.930000305175781,10.479999542236328,9.800000190734863,9.979999542236328,9.979999542236328,620700
2020-11-20,9.880000114440918,10.279999732971191,9.699999809265137,10.1899995803833,10.1899995803833,213000
2020-11-23,10.210000038146973,10.300000190734863,9.84000015258789,9.869999885559082,9.869999885559082,189100
2020-11-24,10.010000228881836,10.220000267028809,9.8100004196167,10.149999618530273,10.149999618530273,254000
2020-11-25,10.149999618530273,10.739999771118164,10.055000305175781,10.210000038146973,10.210000038146973,191300
2020-11-27,10.229999542236328,10.699999809265137,10.130000114440918,10.380000114440918,10.380000114440918,132900
2020-11-30,10.470000267028809,10.529999732971191,9.899999618530273,10.119999885559082,10.119999885559082,172000
2020-12-01,10.279999732971191,12.100000381469727,10.149999618530273,10.75,10.75,903300
2020-12-02,11.279999732971191,11.279999732971191,10.050000190734863,10.279999732971191,10.279999732971191,424300
2020-12-03,10.350000381469727,11.390000343322754,10.119999885559082,10.949999809265137,10.949999809265137,446900
2020-12-04,10.979999542236328,11.760000228881836,10.859999656677246,11.4399995803833,11.4399995803833,362600
2020-12-07,11.5,11.920000076293945,10.829999923706055,10.920000076293945,10.920000076293945,124200
2020-12-08,10.850000381469727,11.130000114440918,10.630000114440918,11.0600004196167,11.0600004196167,610100
2020-12-09,11.15999984741211,11.350000381469727,10.420000076293945,10.609999656677246,10.609999656677246,179200
2020-12-10,10.520000457763672,11.109999656677246,10.399999618530273,10.829999923706055,10.829999923706055,550600
2020-12-11,10.800000190734863,11.829999923706055,10.6899995803833,11.649999618530273,11.649999618530273,872600
2020-12-14,11.800000190734863,13.739999771118164,11.75,12.300000190734863,12.300000190734863,1798700
2020-12-15,12.630000114440918,12.704999923706055,11.34000015258789,12.149999618530273,12.149999618530273,577600
2020-12-16,12.40999984741211,12.449999809265137,11.670000076293945,12.329999923706055,12.329999923706055,228900
2020-12-17,11.039999961853027,11.449999809265137,10.600000381469727,11.079999923706055,11.079999923706055,539500
2020-12-18,11.399999618530273,11.694000244140625,10.510000228881836,10.5600004196167,10.5600004196167,714400
2020-12-21,10.430000305175781,10.6899995803833,9.989999771118164,10.399999618530273,10.399999618530273,794700
2020-12-22,10.420000076293945,11.199999809265137,10.380000114440918,10.920000076293945,10.920000076293945,1040900
2020-12-23,10.930000305175781,11.470000267028809,10.729999542236328,11.220000267028809,11.220000267028809,942700
2020-12-24,11.199999809265137,11.4399995803833,10.59000015258789,10.739999771118164,10.739999771118164,128300
2020-12-28,10.829999923706055,10.859999656677246,10.260000228881836,10.359999656677246,10.359999656677246,170600
2020-12-29,10.359999656677246,10.630000114440918,9.880000114440918,10.489999771118164,10.489999771118164,247100
2020-12-30,10.510000228881836,11.225000381469727,10.510000228881836,11.100000381469727,11.100000381469727,224800
