Date,Open,High,Low,Close,Adj Close,Volume
2017-10-30,24.950000762939453,24.950000762939453,23.829999923706055,24.639999389648438,17.82697105407715,49900
2017-10-31,24.649999618530273,24.889999389648438,24.649999618530273,24.889999389648438,18.00785255432129,53700
2017-11-01,24.8799991607666,24.969999313354492,24.780000686645508,24.899999618530273,18.015087127685547,21700
2017-11-02,24.8700008392334,24.899999618530273,24.80699920654297,24.899999618530273,18.015087127685547,19400
2017-11-03,24.920000076293945,24.920000076293945,24.75,24.790000915527344,17.935503005981445,87400
2017-11-06,24.649999618530273,24.770000457763672,24.639999389648438,24.649999618530273,17.834211349487305,56900
2017-11-07,24.700000762939453,24.780000686645508,24.600000381469727,24.739999771118164,17.89932632446289,87200
2017-11-08,24.670000076293945,24.700000762939453,24.530000686645508,24.670000076293945,17.848684310913086,43100
2017-11-09,24.600000381469727,24.649999618530273,24.459999084472656,24.503000259399414,17.72785758972168,29000
2017-11-10,24.600000381469727,24.610000610351562,24.43000030517578,24.59000015258789,17.790800094604492,25700
2017-11-13,24.600000381469727,24.600000381469727,24.440000534057617,24.530000686645508,17.747392654418945,14000
2017-11-14,24.549999237060547,24.549999237060547,24.209999084472656,24.549999237060547,17.761857986450195,32000
2017-11-15,24.399999618530273,24.549999237060547,24.260000228881836,24.549999237060547,17.761857986450195,30200
2017-11-16,24.540000915527344,24.850000381469727,24.399999618530273,24.547000885009766,17.75969123840332,32500
2017-11-17,24.299999237060547,24.6299991607666,24.270000457763672,24.6200008392334,17.812503814697266,42900
2017-11-20,24.670000076293945,24.670000076293945,24.43000030517578,24.5,17.725688934326172,37100
2017-11-21,24.584999084472656,24.584999084472656,24.361000061035156,24.5,17.725688934326172,30500
2017-11-22,24.420000076293945,24.59000015258789,24.329999923706055,24.540000915527344,17.754623413085938,37600
2017-11-24,24.59000015258789,24.600000381469727,24.459999084472656,24.520000457763672,17.740158081054688,9800
2017-11-27,24.559999465942383,24.673999786376953,24.520000457763672,24.530000686645508,17.747392654418945,17800
2017-11-28,24.5,24.56999969482422,24.350000381469727,24.549999237060547,17.761857986450195,39300
2017-11-29,24.559999465942383,24.559999465942383,24.309999465942383,24.420000076293945,17.66780662536621,41800
2017-11-30,24.33099937438965,24.440000534057617,23.861000061035156,24.1299991607666,17.457990646362305,82800
2017-12-01,24.3799991607666,24.3799991607666,23.639999389648438,24.360000610351562,17.624399185180664,92200
2017-12-04,24.139999389648438,24.454999923706055,24.139999389648438,24.420000076293945,17.66780662536621,54700
2017-12-05,24.44700050354004,24.469999313354492,24.200000762939453,24.290000915527344,17.573755264282227,53600
2017-12-06,24.389999389648438,24.389999389648438,24.100000381469727,24.139999389648438,17.465221405029297,109800
2017-12-07,24.299999237060547,24.389999389648438,24.25,24.389999389648438,17.64610481262207,38000
2017-12-08,24.450000762939453,24.540000915527344,24.399999618530273,24.489999771118164,17.718454360961914,44100
2017-12-11,24.530000686645508,24.56999969482422,24.44499969482422,24.56999969482422,17.77633285522461,47300
2017-12-12,24.56999969482422,24.799999237060547,24.549999237060547,24.719999313354492,17.884855270385742,73900
2017-12-13,24.780000686645508,24.780000686645508,24.649999618530273,24.760000228881836,17.913795471191406,70700
2017-12-14,24.756000518798828,24.799999237060547,24.670000076293945,24.799999237060547,17.942731857299805,24100
2017-12-15,24.770000457763672,24.916000366210938,24.76799964904785,24.90999984741211,18.022319793701172,18400
2017-12-18,24.875999450683594,24.90999984741211,24.770000457763672,24.8799991607666,18.00061798095703,30700
2017-12-19,24.989999771118164,24.989999771118164,24.780000686645508,24.8799991607666,18.00061798095703,33600
2017-12-20,24.889999389648438,24.889999389648438,24.799999237060547,24.799999237060547,17.942731857299805,15900
2017-12-21,24.841999053955078,24.899999618530273,24.809999465942383,24.8700008392334,17.993377685546875,34000
2017-12-22,24.81999969482422,24.969999313354492,24.81999969482422,24.950000762939453,18.051259994506836,40700
2017-12-26,24.950000762939453,25.0,24.799999237060547,24.8700008392334,17.993377685546875,128600
2017-12-27,24.8799991607666,24.979999542236328,24.84000015258789,24.979999542236328,18.072965621948242,79100
2017-12-28,24.540000915527344,24.809999465942383,24.540000915527344,24.579999923706055,18.154953002929688,136300
2017-12-29,24.600000381469727,24.75,24.579999923706055,24.690000534057617,18.2362003326416,48900
2018-01-02,24.790000915527344,24.8799991607666,24.5,24.75,18.280513763427734,85100
2018-01-03,24.700000762939453,24.770000457763672,24.549999237060547,24.700000762939453,18.24358558654785,55600
2018-01-04,24.719999313354492,24.81999969482422,24.700000762939453,24.81999969482422,18.332216262817383,50000
2018-01-05,24.81999969482422,24.84000015258789,24.79599952697754,24.829999923706055,18.339603424072266,40100
2018-01-08,24.84000015258789,24.84000015258789,24.579999923706055,24.690000534057617,18.2362003326416,97300
2018-01-09,24.610000610351562,24.780000686645508,24.350000381469727,24.610000610351562,18.177108764648438,97500
2018-01-10,24.420000076293945,24.690000534057617,24.420000076293945,24.68000030517578,18.22881507873535,41500
2018-01-11,24.73900032043457,24.780000686645508,24.579999923706055,24.649999618530273,18.206653594970703,28200
2018-01-12,24.6200008392334,24.780000686645508,24.6200008392334,24.729999542236328,18.2657413482666,51700
2018-01-16,24.770000457763672,24.829999923706055,24.670000076293945,24.739999771118164,18.273128509521484,66600
2018-01-17,24.690000534057617,24.700000762939453,24.59000015258789,24.690000534057617,18.2362003326416,47300
2018-01-18,24.690000534057617,24.700000762939453,24.309999465942383,24.6299991607666,18.191879272460938,107400
2018-01-19,24.586000442504883,24.739999771118164,24.440000534057617,24.649999618530273,18.206653594970703,654200
2018-01-22,24.459999084472656,24.56999969482422,24.350000381469727,24.520000457763672,18.11063575744629,48800
2018-01-23,24.5,24.56999969482422,24.422000885009766,24.479999542236328,18.081090927124023,64300
2018-01-24,24.5,24.729999542236328,24.459999084472656,24.700000762939453,18.24358558654785,33900
2018-01-25,24.54599952697754,24.850000381469727,24.54599952697754,24.690000534057617,18.2362003326416,37500
2018-01-26,24.770000457763672,24.90999984741211,24.639999389648438,24.739999771118164,18.273128509521484,40100
2018-01-29,24.850000381469727,24.850000381469727,24.350000381469727,24.809999465942383,18.324831008911133,80900
2018-01-30,24.64900016784668,24.799999237060547,24.450000762939453,24.68000030517578,18.22881507873535,32200
2018-01-31,24.649999618530273,24.75,24.489999771118164,24.625,18.188190460205078,21600
2018-02-01,24.420000076293945,24.639999389648438,24.399999618530273,24.420000076293945,18.036773681640625,17000
2018-02-02,24.40999984741211,24.43000030517578,24.049999237060547,24.190000534057617,17.86689567565918,26800
2018-02-05,24.389999389648438,24.450000762939453,24.010000228881836,24.049999237060547,17.76348876953125,30200
2018-02-06,24.05900001525879,24.05900001525879,23.420000076293945,23.829999923706055,17.600994110107422,48900
2018-02-07,24.6200008392334,24.6200008392334,23.899999618530273,24.100000381469727,17.8004207611084,13700
2018-02-08,24.149999618530273,24.149999618530273,23.469999313354492,23.5,17.35725212097168,27500
2018-02-09,24.479999542236328,24.479999542236328,23.239999771118164,23.829999923706055,17.600994110107422,20400
2018-02-12,23.6200008392334,23.66900062561035,23.469999313354492,23.56999969482422,17.40895652770996,20600
2018-02-13,23.56999969482422,23.648000717163086,23.29800033569336,23.420000076293945,17.29816436767578,18600
2018-02-14,23.444000244140625,23.799999237060547,23.43000030517578,23.45199966430664,17.32180404663086,21400
2018-02-15,23.450000762939453,23.527000427246094,23.350000381469727,23.389999389648438,17.276010513305664,19500
2018-02-16,23.399999618530273,23.56999969482422,23.399999618530273,23.56999969482422,17.40895652770996,5200
2018-02-20,23.507999420166016,23.600000381469727,23.500999450683594,23.600000381469727,17.431114196777344,21700
2018-02-21,23.610000610351562,23.722999572753906,23.260000228881836,23.469999313354492,17.335098266601562,43200
2018-02-22,23.518999099731445,23.518999099731445,23.25,23.34000015258789,17.23908042907715,17900
2018-02-23,23.6200008392334,23.6200008392334,23.020000457763672,23.219999313354492,17.15044403076172,24400
2018-02-26,23.298999786376953,23.6200008392334,23.280000686645508,23.559999465942383,17.401573181152344,32900
2018-02-27,23.44099998474121,23.68000030517578,23.434999465942383,23.68000030517578,17.490205764770508,28600
2018-02-28,23.67799949645996,23.760000228881836,23.631000518798828,23.760000228881836,17.549293518066406,8900
2018-03-01,23.729999542236328,23.8799991607666,23.6200008392334,23.687000274658203,17.49537467956543,6000
2018-03-02,23.683000564575195,23.75,23.67799949645996,23.67799949645996,17.488725662231445,3700
2018-03-05,23.5,23.719999313354492,23.5,23.610000610351562,17.438499450683594,19100
2018-03-06,23.59000015258789,23.770000457763672,23.5,23.770000457763672,17.556682586669922,8000
2018-03-07,23.770000457763672,24.0,23.770000457763672,24.0,17.7265625,6900
2018-03-08,23.891000747680664,24.0,23.600000381469727,23.770000457763672,17.556682586669922,43200
2018-03-09,23.6299991607666,23.90999984741211,23.6299991607666,23.90999984741211,17.660083770751953,4100
2018-03-12,23.90999984741211,23.90999984741211,23.799999237060547,23.902999877929688,17.654916763305664,6200
2018-03-13,23.799999237060547,23.85700035095215,23.6299991607666,23.85700035095215,17.62093734741211,14300
2018-03-14,23.84000015258789,23.940000534057617,23.84000015258789,23.920000076293945,17.667470932006836,9500
2018-03-15,23.87700080871582,23.87700080871582,23.719999313354492,23.798999786376953,17.578096389770508,25500
2018-03-16,23.850000381469727,23.920000076293945,23.799999237060547,23.920000076293945,17.667470932006836,5900
2018-03-19,23.833999633789062,23.940000534057617,23.773000717163086,23.799999237060547,17.57883644104004,18300
2018-03-20,23.8700008392334,23.8700008392334,23.6200008392334,23.719999313354492,17.519752502441406,22100
2018-03-21,23.71500015258789,23.898000717163086,23.649999618530273,23.889999389648438,17.645307540893555,12300
2018-03-22,23.731000900268555,23.959999084472656,23.700000762939453,23.709999084472656,17.51236343383789,3700
2018-03-23,23.780000686645508,23.84000015258789,23.579999923706055,23.600000381469727,17.431114196777344,12500
2018-03-26,23.81100082397461,23.8799991607666,23.700000762939453,23.75,17.541908264160156,18200
2018-03-27,23.8700008392334,23.8700008392334,23.735000610351562,23.799999237060547,17.57883644104004,32600
2018-03-28,23.68000030517578,23.68000030517578,23.25,23.440000534057617,17.684463500976562,23500
2018-03-29,23.440000534057617,23.56100082397461,23.3799991607666,23.459999084472656,17.699552536010742,6000
2018-04-02,23.520000457763672,23.85300064086914,23.371999740600586,23.488000869750977,17.720672607421875,21300
2018-04-03,23.329999923706055,23.5,23.290000915527344,23.5,17.72972869873047,10200
2018-04-04,23.459999084472656,23.56999969482422,23.309999465942383,23.399999618530273,17.654281616210938,19200
2018-04-05,23.3799991607666,23.3799991607666,23.25,23.280000686645508,17.563751220703125,10200
2018-04-06,22.93000030517578,23.299999237060547,22.93000030517578,23.15999984741211,17.473215103149414,18200
2018-04-09,23.270000457763672,23.360000610351562,23.0939998626709,23.1200008392334,17.443035125732422,74400
2018-04-10,23.229999542236328,23.350000381469727,23.100000381469727,23.34000015258789,17.60901641845703,31200
2018-04-11,23.309999465942383,23.3799991607666,23.149999618530273,23.3700008392334,17.631650924682617,24600
2018-04-12,23.270000457763672,23.5,23.209999084472656,23.5,17.72972869873047,14500
2018-04-13,23.360000610351562,23.440000534057617,23.149999618530273,23.350000381469727,17.616559982299805,55400
2018-04-16,23.350000381469727,23.450000762939453,23.25,23.30500030517578,17.58260726928711,8900
2018-04-17,23.260000228881836,23.3799991607666,23.15999984741211,23.25,17.54111671447754,88100
2018-04-18,23.25,23.274999618530273,23.25,23.25,17.54111671447754,10000
2018-04-19,23.25,23.290000915527344,23.200000762939453,23.219999313354492,17.518478393554688,12500
2018-04-20,23.280000686645508,23.3799991607666,23.180999755859375,23.3799991607666,17.63919448852539,24900
2018-04-23,23.299999237060547,23.299999237060547,23.020000457763672,23.1299991607666,17.450578689575195,15600
2018-04-24,23.09000015258789,23.09000015258789,23.0,23.020000457763672,17.36758804321289,11300
2018-04-25,23.049999237060547,23.049999237060547,22.801000595092773,22.920000076293945,17.292144775390625,21600
2018-04-26,23.010000228881836,23.040000915527344,22.530000686645508,23.010000228881836,17.36004638671875,30000
2018-04-27,22.899999618530273,23.190000534057617,22.899999618530273,23.1299991607666,17.450578689575195,24500
2018-04-30,23.200000762939453,23.200000762939453,23.049999237060547,23.100000381469727,17.427946090698242,11200
2018-05-01,23.1299991607666,23.190000534057617,22.93000030517578,23.190000534057617,17.495849609375,6100
2018-05-02,23.190000534057617,23.190000534057617,23.06999969482422,23.1299991607666,17.450578689575195,9100
2018-05-03,23.194000244140625,23.34000015258789,23.14699935913086,23.209999084472656,17.510936737060547,3900
2018-05-04,23.26300048828125,23.399999618530273,23.209999084472656,23.399999618530273,17.654281616210938,1700
2018-05-07,23.25,23.399999618530273,23.23900032043457,23.260000228881836,17.548662185668945,25700
2018-05-08,23.322999954223633,23.367000579833984,23.030000686645508,23.079999923706055,17.412858963012695,20700
2018-05-09,23.11400032043457,23.333999633789062,23.010000228881836,23.100000381469727,17.427946090698242,23300
2018-05-10,23.209999084472656,23.3700008392334,23.209999084472656,23.280000686645508,17.563751220703125,6400
2018-05-11,23.350000381469727,23.3700008392334,23.1200008392334,23.15999984741211,17.473215103149414,3300
2018-05-14,23.229999542236328,23.299999237060547,23.209999084472656,23.239999771118164,17.533573150634766,3300
2018-05-15,23.15999984741211,23.209999084472656,23.15999984741211,23.170000076293945,17.480758666992188,8600
2018-05-16,23.183000564575195,23.219999313354492,23.100000381469727,23.200000762939453,17.503393173217773,5000
2018-05-17,23.200000762939453,23.299999237060547,23.200000762939453,23.290000915527344,17.5712947845459,11700
2018-05-18,23.299999237060547,23.389999389648438,23.299999237060547,23.3700008392334,17.631650924682617,9400
2018-05-21,23.381000518798828,23.381000518798828,23.350000381469727,23.350000381469727,17.616559982299805,2500
2018-05-22,23.360000610351562,23.489999771118164,23.360000610351562,23.440000534057617,17.684463500976562,10800
2018-05-23,23.368999481201172,23.5,23.368999481201172,23.5,17.72972869873047,29500
2018-05-24,23.3700008392334,23.5,23.3700008392334,23.5,17.72972869873047,6700
2018-05-25,23.450000762939453,23.579999923706055,23.450000762939453,23.489999771118164,17.722183227539062,43200
2018-05-29,23.54400062561035,23.59000015258789,23.479999542236328,23.55299949645996,17.769718170166016,8300
2018-05-30,23.549999237060547,23.649999618530273,23.523000717163086,23.579999923706055,17.790082931518555,23000
2018-05-31,23.649999618530273,23.700000762939453,23.579999923706055,23.6299991607666,17.82780647277832,7100
2018-06-01,23.600000381469727,23.631999969482422,23.530000686645508,23.610000610351562,17.812721252441406,11900
2018-06-04,23.649999618530273,23.649999618530273,23.575000762939453,23.600000381469727,17.805177688598633,2600
2018-06-05,23.549999237060547,23.799999237060547,23.549999237060547,23.729000091552734,17.902502059936523,21900
2018-06-06,23.739999771118164,23.773000717163086,23.6200008392334,23.639999389648438,17.835351943969727,19900
2018-06-07,23.719999313354492,23.790000915527344,23.600000381469727,23.695999145507812,17.877601623535156,14200
2018-06-08,23.77899932861328,23.790000915527344,23.719999313354492,23.790000915527344,17.948522567749023,4200
2018-06-11,23.75,23.799999237060547,23.701000213623047,23.7189998626709,17.894956588745117,8700
2018-06-12,23.709999084472656,23.799999237060547,23.709999084472656,23.790000915527344,17.948522567749023,10800
2018-06-13,23.7549991607666,23.799999237060547,23.700000762939453,23.75,17.91834259033203,13500
2018-06-14,23.75,23.979999542236328,23.726999282836914,23.979999542236328,18.09187126159668,55900
2018-06-15,24.0,24.100000381469727,23.961000442504883,24.020000457763672,18.122047424316406,54400
2018-06-18,24.020000457763672,24.18000030517578,24.020000457763672,24.139999389648438,18.212581634521484,18200
2018-06-19,24.149999618530273,24.149999618530273,24.069000244140625,24.12700080871582,18.202775955200195,12500
2018-06-20,24.15999984741211,24.15999984741211,23.899999618530273,23.979999542236328,18.09187126159668,34500
2018-06-21,23.959999084472656,24.059999465942383,23.860000610351562,24.0,18.106956481933594,38600
2018-06-22,23.8700008392334,24.14900016784668,23.8700008392334,24.06999969482422,18.15976905822754,11500
2018-06-25,24.084999084472656,24.100000381469727,23.871000289916992,24.040000915527344,18.137136459350586,12800
2018-06-26,23.899999618530273,24.035999298095703,23.881999969482422,23.934999465942383,18.05791664123535,56200
2018-06-27,23.940000534057617,24.079999923706055,23.940000534057617,23.979999542236328,18.09187126159668,16500
2018-06-28,23.68000030517578,23.68000030517578,23.5,23.549999237060547,18.14580535888672,22200
2018-06-29,23.549999237060547,23.781999588012695,23.530000686645508,23.670000076293945,18.238271713256836,15800
2018-07-02,23.899999618530273,23.899999618530273,23.729999542236328,23.729999542236328,18.284500122070312,9400
2018-07-03,23.8700008392334,23.875,23.649999618530273,23.649999618530273,18.222856521606445,6000
2018-07-05,23.790000915527344,23.8799991607666,23.790000915527344,23.8799991607666,18.400075912475586,5900
2018-07-06,23.8799991607666,23.93000030517578,23.81999969482422,23.889999389648438,18.40778160095215,11800
2018-07-09,23.93000030517578,23.93000030517578,23.799999237060547,23.81999969482422,18.35384750366211,11300
2018-07-10,23.81999969482422,23.849000930786133,23.75,23.75,18.299909591674805,17700
2018-07-11,23.75,23.80500030517578,23.701000213623047,23.709999084472656,18.26909065246582,8200
2018-07-12,23.790000915527344,23.850000381469727,23.729999542236328,23.799999237060547,18.33843421936035,19400
2018-07-13,23.83300018310547,23.850000381469727,23.799999237060547,23.799999237060547,18.33843421936035,5100
2018-07-16,23.799999237060547,23.850000381469727,23.780000686645508,23.850000381469727,18.376962661743164,15200
2018-07-17,23.833999633789062,23.850000381469727,23.801000595092773,23.81999969482422,18.35384750366211,19100
2018-07-18,23.81399917602539,23.829999923706055,23.805999755859375,23.81999969482422,18.35384750366211,14000
2018-07-19,23.760000228881836,23.899999618530273,23.760000228881836,23.889999389648438,18.40778160095215,5800
2018-07-20,23.899999618530273,24.040000915527344,23.860000610351562,24.040000915527344,18.523361206054688,23400
2018-07-23,23.951000213623047,24.040000915527344,23.900999069213867,23.940000534057617,18.44631004333496,17400
2018-07-24,23.899999618530273,23.899999618530273,23.76099967956543,23.799999237060547,18.33843421936035,17200
2018-07-25,23.992000579833984,24.040000915527344,23.750999450683594,23.965999603271484,18.466341018676758,23500
2018-07-26,24.000999450683594,24.079999923706055,23.950000762939453,23.969999313354492,18.46942901611328,16800
2018-07-27,23.979999542236328,23.979999542236328,23.799999237060547,23.899999618530273,18.415485382080078,24800
2018-07-30,23.950000762939453,24.040000915527344,23.909000396728516,23.920000076293945,18.43090057373047,1200
2018-07-31,23.891000747680664,23.985000610351562,23.81999969482422,23.860000610351562,18.38467025756836,12300
2018-08-01,23.969999313354492,23.969999313354492,23.799999237060547,23.799999237060547,18.33843421936035,12100
2018-08-02,23.90999984741211,24.0,23.875,24.0,18.492536544799805,8200
2018-08-03,24.0,24.121000289916992,23.78499984741211,23.889999389648438,18.40778160095215,74500
2018-08-06,24.0,24.010000228881836,23.799999237060547,23.969999313354492,18.46942901611328,13600
2018-08-07,24.0,24.0,23.940000534057617,23.950000762939453,18.45401382446289,18100
2018-08-08,23.9950008392334,23.9950008392334,23.940000534057617,23.940000534057617,18.44631004333496,4200
2018-08-09,23.950000762939453,24.0,23.940000534057617,24.0,18.492536544799805,4800
2018-08-10,24.0,24.0,23.950000762939453,23.989999771118164,18.484834671020508,8400
2018-08-13,23.989999771118164,24.079999923706055,23.979999542236328,24.0,18.492536544799805,12700
2018-08-14,24.07900047302246,24.139999389648438,24.011999130249023,24.139999389648438,18.600412368774414,19800
2018-08-15,24.18000030517578,24.18000030517578,24.014999389648438,24.093000411987305,18.564199447631836,3700
2018-08-16,24.049999237060547,24.149999618530273,24.049999237060547,24.100000381469727,18.56959342956543,17200
2018-08-17,24.100000381469727,24.100000381469727,24.027999877929688,24.100000381469727,18.56959342956543,9300
2018-08-20,24.100000381469727,24.149999618530273,24.084999084472656,24.110000610351562,18.577299118041992,35000
2018-08-21,24.149999618530273,24.219999313354492,24.128000259399414,24.219999313354492,18.66205406188965,2800
2018-08-22,24.200000762939453,24.354999542236328,24.18000030517578,24.18000030517578,18.631237030029297,19300
2018-08-23,24.25,24.350000381469727,24.200000762939453,24.229999542236328,18.669761657714844,13900
2018-08-24,24.360000610351562,24.360000610351562,24.219999313354492,24.260000228881836,18.69287872314453,35800
2018-08-27,24.25,24.341999053955078,24.110000610351562,24.149999618530273,18.608118057250977,43400
2018-08-28,24.209999084472656,24.242000579833984,24.200000762939453,24.229999542236328,18.669761657714844,9300
2018-08-29,24.21500015258789,24.27899932861328,24.21500015258789,24.229999542236328,18.669761657714844,8100
2018-08-30,24.35099983215332,24.35099983215332,24.219999313354492,24.219999313354492,18.66205406188965,4900
2018-08-31,24.291000366210938,24.322999954223633,24.270000457763672,24.30299949645996,18.72600555419922,13700
2018-09-04,24.43000030517578,24.43000030517578,24.149999618530273,24.209999084472656,18.65435028076172,36100
2018-09-05,24.211000442504883,24.280000686645508,24.209999084472656,24.25,18.685169219970703,34900
2018-09-06,24.270999908447266,24.332000732421875,24.200000762939453,24.229999542236328,18.669761657714844,41900
2018-09-07,24.25,24.299999237060547,24.200000762939453,24.239999771118164,18.677467346191406,10900
2018-09-10,24.229999542236328,24.309999465942383,24.229999542236328,24.299999237060547,18.72369384765625,6200
2018-09-11,24.309999465942383,24.389999389648438,24.304000854492188,24.389999389648438,18.79304313659668,24100
2018-09-12,24.450000762939453,24.450000762939453,24.34000015258789,24.399999618530273,18.800748825073242,13900
2018-09-13,24.39900016784668,24.450000762939453,24.350000381469727,24.399999618530273,18.800748825073242,15500
2018-09-14,24.489999771118164,24.489999771118164,24.399999618530273,24.450000762939453,18.839277267456055,19800
2018-09-17,24.5,24.5,24.350000381469727,24.399999618530273,18.800748825073242,26800
2018-09-18,24.448999404907227,24.448999404907227,24.209999084472656,24.385000228881836,18.78919219970703,37400
2018-09-19,24.246000289916992,24.399999618530273,24.246000289916992,24.34000015258789,18.754518508911133,22200
2018-09-20,24.3700008392334,24.43000030517578,24.209999084472656,24.25,18.685169219970703,27300
2018-09-21,24.25,24.350000381469727,24.21500015258789,24.299999237060547,18.72369384765625,9200
2018-09-24,24.36199951171875,24.399999618530273,24.25,24.25,18.685169219970703,17600
2018-09-25,24.298999786376953,24.299999237060547,24.216999053955078,24.290000915527344,18.715993881225586,23200
2018-09-26,24.260000228881836,24.375,24.260000228881836,24.339000701904297,18.75374984741211,17400
2018-09-27,24.350000381469727,24.399999618530273,24.319000244140625,24.360000610351562,18.769929885864258,18200
2018-09-28,23.959999084472656,24.08799934387207,23.850000381469727,24.06999969482422,18.935131072998047,38400
2018-10-01,24.059999465942383,24.110000610351562,23.90999984741211,23.989999771118164,18.872194290161133,10400
2018-10-02,23.969999313354492,23.992000579833984,23.850000381469727,23.899999618530273,18.801393508911133,9900
2018-10-03,23.8700008392334,23.8700008392334,23.700000762939453,23.7450008392334,18.679462432861328,24300
2018-10-04,23.802000045776367,23.802000045776367,23.299999237060547,23.68000030517578,18.62833023071289,87600
2018-10-05,23.540000915527344,23.920000076293945,23.250999450683594,23.75,18.683395385742188,27400
2018-10-08,23.75,23.889999389648438,23.3700008392334,23.649999618530273,18.604726791381836,9400
2018-10-09,23.5,23.700000762939453,23.3700008392334,23.65999984741211,18.61259651184082,20700
2018-10-10,23.59600067138672,23.59600067138672,23.399999618530273,23.44099998474121,18.44031524658203,4800
2018-10-11,23.450000762939453,23.450000762939453,23.059999465942383,23.149999618530273,18.21139144897461,7300
2018-10-12,23.209999084472656,23.25,23.1200008392334,23.219999313354492,18.26645851135254,13800
2018-10-15,23.309999465942383,23.5,23.1200008392334,23.184999465942383,18.238927841186523,24500
2018-10-16,23.200000762939453,23.600000381469727,23.200000762939453,23.260000228881836,18.297927856445312,13700
2018-10-17,23.420000076293945,23.420000076293945,23.219999313354492,23.329999923706055,18.35299301147461,11100
2018-10-18,23.25,23.44300079345703,23.010000228881836,23.364999771118164,18.38052749633789,19800
2018-10-19,23.489999771118164,23.489999771118164,23.1200008392334,23.360000610351562,18.37659454345703,22800
2018-10-22,23.25,23.489999771118164,23.200000762939453,23.225000381469727,18.2703914642334,2600
2018-10-23,23.285999298095703,23.299999237060547,23.073999404907227,23.149999618530273,18.21139144897461,16200
2018-10-24,23.139999389648438,23.420000076293945,22.920000076293945,23.420000076293945,18.423795700073242,39600
2018-10-25,23.170000076293945,23.450000762939453,22.950000762939453,23.25,18.290058135986328,47600
2018-10-26,23.190000534057617,23.190000534057617,22.899999618530273,23.100000381469727,18.172060012817383,19700
2018-10-29,23.010000228881836,23.302000045776367,23.0,23.190000534057617,18.242860794067383,16200
2018-10-30,23.190000534057617,23.190000534057617,22.75,22.75,17.8967227935791,54700
2018-10-31,22.875,23.030000686645508,22.843000411987305,22.979999542236328,18.07765769958496,15400
2018-11-01,23.06999969482422,23.14299964904785,23.0,23.006999969482422,18.098901748657227,11800
2018-11-02,23.079999923706055,23.190000534057617,23.0,23.040000915527344,18.124858856201172,5500
2018-11-05,23.18000030517578,23.18000030517578,23.0,23.03499984741211,18.120927810668945,6800
2018-11-06,23.040000915527344,23.139999389648438,23.030000686645508,23.030000686645508,18.116992950439453,20100
2018-11-07,23.040000915527344,23.190000534057617,23.0,23.049999237060547,18.132726669311523,22300
2018-11-08,22.979999542236328,23.170000076293945,22.979999542236328,23.059999465942383,18.140594482421875,31900
2018-11-09,23.040000915527344,23.14699935913086,23.040000915527344,23.1299991607666,18.19565773010254,10200
2018-11-12,23.1299991607666,23.18000030517578,23.1200008392334,23.141000747680664,18.204313278198242,18300
2018-11-13,23.190000534057617,23.190000534057617,23.010000228881836,23.139999389648438,18.20352554321289,19500
2018-11-14,23.1560001373291,23.1560001373291,23.020000457763672,23.02899932861328,18.116207122802734,11200
2018-11-15,23.049999237060547,23.18000030517578,23.020000457763672,23.08099937438965,18.157114028930664,10000
2018-11-16,23.020000457763672,23.049999237060547,23.0,23.040000915527344,18.124858856201172,6000
2018-11-19,23.017000198364258,23.040000915527344,22.899999618530273,22.913000106811523,18.024953842163086,20500
2018-11-20,22.90999984741211,22.90999984741211,22.75,22.81999969482422,17.951793670654297,17800
2018-11-21,22.93000030517578,23.049999237060547,22.809999465942383,22.983999252319336,18.080808639526367,27600
2018-11-23,22.969999313354492,23.190000534057617,22.969999313354492,23.190000534057617,18.242860794067383,7300
2018-11-26,23.049999237060547,23.049999237060547,22.850000381469727,22.850000381469727,17.97538948059082,33700
2018-11-27,22.923999786376953,22.93000030517578,22.75,22.75,17.8967227935791,25900
2018-11-28,22.760000228881836,22.819000244140625,22.270000457763672,22.62700080871582,17.799968719482422,39200
2018-11-29,22.600000381469727,22.8799991607666,22.5,22.6200008392334,17.794458389282227,30900
2018-11-30,22.6200008392334,22.672000885009766,22.5,22.670000076293945,17.833791732788086,49900
2018-12-03,22.868000030517578,22.899999618530273,22.700000762939453,22.75,17.8967227935791,16500
2018-12-04,22.760000228881836,22.812000274658203,22.600000381469727,22.799999237060547,17.936058044433594,33300
2018-12-06,22.600000381469727,22.700000762939453,22.5,22.6200008392334,17.794458389282227,23000
2018-12-07,22.579999923706055,22.71299934387207,22.450000762939453,22.670000076293945,17.833791732788086,23200
2018-12-10,22.84000015258789,22.884000778198242,22.510000228881836,22.530000686645508,17.72365951538086,27000
2018-12-11,22.549999237060547,22.600000381469727,22.450000762939453,22.459999084472656,17.66859245300293,13000
2018-12-12,22.469999313354492,22.680999755859375,22.31999969482422,22.440000534057617,17.65285873413086,48200
2018-12-13,22.5,22.5,22.31999969482422,22.3700008392334,17.597789764404297,10800
2018-12-14,22.399999618530273,22.399999618530273,22.260000228881836,22.260000228881836,17.51125717163086,21300
2018-12-17,22.079999923706055,22.209999084472656,22.0,22.100000381469727,17.385391235351562,38500
2018-12-18,22.114999771118164,22.125,21.864999771118164,21.959999084472656,17.275257110595703,23200
2018-12-19,21.857999801635742,22.113000869750977,21.857999801635742,21.93000030517578,17.251659393310547,24800
2018-12-20,22.030000686645508,22.030000686645508,20.700000762939453,20.8700008392334,16.417789459228516,56800
2018-12-21,20.82699966430664,21.490999221801758,20.709999084472656,21.209999084472656,16.685253143310547,50200
2018-12-24,21.0,21.100000381469727,20.799999237060547,20.8799991607666,16.4256534576416,9700
2018-12-26,21.107999801635742,21.344999313354492,21.107999801635742,21.290000915527344,16.74818992614746,6600
2018-12-27,21.290000915527344,21.479999542236328,21.200000762939453,21.479999542236328,16.897653579711914,36400
2018-12-28,21.5,21.503000259399414,21.100000381469727,21.270000457763672,17.131227493286133,42100
2018-12-31,21.5,22.0,21.5,21.899999618530273,17.638641357421875,58900
2019-01-02,21.8799991607666,22.190000534057617,21.8799991607666,22.190000534057617,17.87221336364746,8800
2019-01-03,22.082000732421875,22.270000457763672,22.049999237060547,22.270000457763672,17.936643600463867,15800
2019-01-04,22.270000457763672,22.399999618530273,22.149999618530273,22.3799991607666,18.025239944458008,11500
2019-01-07,22.440000534057617,22.690000534057617,22.31999969482422,22.496999740600586,18.11947250366211,21100
2019-01-08,22.65999984741211,22.700000762939453,22.549999237060547,22.670000076293945,18.258811950683594,10800
2019-01-09,22.690000534057617,22.889999389648438,22.690000534057617,22.8700008392334,18.41989517211914,14500
2019-01-10,22.8799991607666,22.989999771118164,22.760000228881836,22.979999542236328,18.508487701416016,10300
2019-01-11,23.0,23.0,22.8700008392334,22.950000762939453,18.48432731628418,5900
2019-01-14,22.860000610351562,22.899999618530273,22.700000762939453,22.700000762939453,18.282974243164062,19300
2019-01-15,22.850000381469727,22.850000381469727,22.579999923706055,22.68000030517578,18.266864776611328,6300
2019-01-16,22.559999465942383,22.719999313354492,22.415000915527344,22.5,18.121889114379883,30000
2019-01-17,22.5,22.5,22.461999893188477,22.48900032043457,18.1130313873291,11800
2019-01-18,22.489999771118164,22.5,22.469999313354492,22.479999542236328,18.10578155517578,16600
2019-01-22,22.5,22.5,22.299999237060547,22.382999420166016,18.02765464782715,8100
2019-01-23,22.34000015258789,22.53499984741211,22.34000015258789,22.53499984741211,18.150075912475586,6500
2019-01-24,22.461000442504883,22.5,22.3799991607666,22.420000076293945,18.057458877563477,22300
2019-01-25,22.441999435424805,22.5,22.441999435424805,22.479999542236328,18.10578155517578,9800
2019-01-28,22.3799991607666,22.5,22.350000381469727,22.459999084472656,18.089675903320312,20300
2019-01-29,22.5,22.5,22.45400047302246,22.489999771118164,18.113832473754883,7800
2019-01-30,22.5,22.55500030517578,22.375,22.440000534057617,18.073566436767578,15700
2019-01-31,22.450000762939453,22.770000457763672,22.450000762939453,22.700000762939453,18.282974243164062,27200
2019-02-01,22.8700008392334,22.889999389648438,22.700000762939453,22.81999969482422,18.379623413085938,26400
2019-02-04,22.75,22.850000381469727,22.649999618530273,22.676000595092773,18.263643264770508,30000
2019-02-05,22.649999618530273,22.75,22.649999618530273,22.68000030517578,18.266864776611328,12800
2019-02-06,22.75,22.75,22.67099952697754,22.700000762939453,18.282974243164062,11400
2019-02-07,22.670000076293945,22.72599983215332,22.649999618530273,22.670000076293945,18.258811950683594,14500
2019-02-08,22.600000381469727,22.799999237060547,22.530000686645508,22.68000030517578,18.266864776611328,25200
2019-02-11,22.770000457763672,22.825000762939453,22.610000610351562,22.610000610351562,18.210485458374023,20300
2019-02-12,22.75,22.84000015258789,22.649999618530273,22.700000762939453,18.282974243164062,13800
2019-02-13,22.709999084472656,22.799999237060547,22.68000030517578,22.700000762939453,18.282974243164062,18300
2019-02-14,22.700000762939453,22.799999237060547,22.549999237060547,22.674999237060547,18.262836456298828,23300
2019-02-15,22.68000030517578,22.739999771118164,22.600000381469727,22.6200008392334,18.218538284301758,8200
2019-02-19,22.709999084472656,22.920000076293945,22.625,22.700000762939453,18.282974243164062,41800
2019-02-20,22.75,22.899999618530273,22.729999542236328,22.829999923706055,18.387680053710938,30000
2019-02-21,22.84000015258789,22.950000762939453,22.600000381469727,22.766000747680664,18.336130142211914,10700
2019-02-22,22.86199951171875,22.950000762939453,22.760000228881836,22.950000762939453,18.48432731628418,13700
2019-02-25,22.950000762939453,23.200000762939453,22.950000762939453,23.079999923706055,18.589031219482422,30900
2019-02-26,23.13800048828125,23.329999923706055,22.899999618530273,22.899999618530273,18.444055557250977,38900
2019-02-27,22.899999618530273,23.040000915527344,22.709999084472656,22.90999984741211,18.452112197875977,42600
2019-02-28,22.8799991607666,22.889999389648438,22.5,22.5,18.121889114379883,125900
2019-03-01,22.649999618530273,22.84000015258789,22.549999237060547,22.799999237060547,18.36351203918457,71200
2019-03-04,22.799999237060547,22.979999542236328,22.65999984741211,22.690000534057617,18.274919509887695,52500
2019-03-05,22.739999771118164,23.09000015258789,22.739999771118164,23.079999923706055,18.589031219482422,26600
2019-03-06,23.03499984741211,23.139999389648438,23.0,23.1200008392334,18.621248245239258,13900
2019-03-07,23.000999450683594,23.139999389648438,23.0,23.110000610351562,18.613191604614258,14500
2019-03-08,23.100000381469727,23.100000381469727,22.981000900268555,23.0,18.524599075317383,5100
2019-03-11,23.040000915527344,23.15999984741211,22.93000030517578,23.079999923706055,18.589031219482422,7400
2019-03-12,23.079999923706055,23.1299991607666,22.90999984741211,22.920000076293945,18.46016502380371,10500
2019-03-13,23.009000778198242,23.18000030517578,22.950000762939453,23.059999465942383,18.572925567626953,15500
2019-03-14,23.100000381469727,23.34000015258789,23.100000381469727,23.34000015258789,18.79844093322754,28000
2019-03-15,23.299999237060547,23.434999465942383,23.270000457763672,23.389999389648438,18.83871078491211,22100
2019-03-18,23.219999313354492,23.81999969482422,23.219999313354492,23.709999084472656,19.096445083618164,46500
2019-03-19,23.75,23.75,23.559999465942383,23.75,19.128662109375,15100
2019-03-20,23.68199920654297,23.843000411987305,23.6299991607666,23.81999969482422,19.185041427612305,30300
2019-03-21,23.850000381469727,23.8799991607666,23.579999923706055,23.81999969482422,19.185041427612305,55600
2019-03-22,23.81999969482422,23.81999969482422,23.658000946044922,23.809999465942383,19.176986694335938,23000
2019-03-25,23.73200035095215,23.790000915527344,23.695999145507812,23.780000686645508,19.152828216552734,11900
2019-03-26,23.780000686645508,23.940000534057617,23.719999313354492,23.91900062561035,19.26477813720703,31000
2019-03-27,23.889999389648438,23.979999542236328,23.84000015258789,23.950000762939453,19.289745330810547,49200
2019-03-28,24.0,24.0,23.8700008392334,23.959999084472656,19.297801971435547,51400
2019-03-29,23.559999465942383,23.690000534057617,23.493000030517578,23.670000076293945,19.470542907714844,46600
2019-04-01,23.760000228881836,24.0,23.75,23.8799991607666,19.643281936645508,71500
2019-04-02,23.850000381469727,24.0,23.850000381469727,23.979999542236328,19.725543975830078,13300
2019-04-03,23.979999542236328,23.989999771118164,23.90999984741211,23.90999984741211,19.66796112060547,14200
2019-04-04,24.0,24.0,23.90999984741211,23.989999771118164,19.7337703704834,41300
2019-04-05,23.992000579833984,24.14900016784668,23.979999542236328,24.082000732421875,19.809446334838867,19700
2019-04-08,24.125999450683594,24.149999618530273,24.079999923706055,24.079999923706055,19.807804107666016,5600
2019-04-09,24.1299991607666,24.1299991607666,24.04400062561035,24.06100082397461,19.792171478271484,9700
2019-04-10,24.06999969482422,24.1299991607666,24.049999237060547,24.062000274658203,19.79299545288086,8900
2019-04-11,24.100000381469727,24.100000381469727,24.0,24.09000015258789,19.81602668762207,11200
2019-04-12,24.100000381469727,24.1299991607666,24.030000686645508,24.079999923706055,19.807804107666016,16800
2019-04-15,24.020000457763672,24.09000015258789,24.000999450683594,24.040000915527344,19.774898529052734,9600
2019-04-16,23.799999237060547,24.069000244140625,23.799999237060547,23.969999313354492,19.717317581176758,45900
2019-04-17,23.969999313354492,24.100000381469727,23.860000610351562,23.940000534057617,19.692638397216797,36300
2019-04-18,24.020000457763672,24.072999954223633,23.860000610351562,24.045000076293945,19.779010772705078,10700
2019-04-22,24.09000015258789,24.09000015258789,23.90999984741211,23.979999542236328,19.725543975830078,14400
2019-04-23,24.049999237060547,24.100000381469727,23.93000030517578,24.024999618530273,19.76255989074707,16100
2019-04-24,24.1299991607666,24.1299991607666,24.014999389648438,24.024999618530273,19.76255989074707,8000
2019-04-25,24.0,24.100000381469727,23.940000534057617,23.989999771118164,19.7337703704834,15900
2019-04-26,24.0,24.110000610351562,23.950000762939453,24.006000518798828,19.746931076049805,10200
2019-04-29,24.010000228881836,24.09000015258789,23.950000762939453,23.959999084472656,19.70909309387207,7800
2019-04-30,24.07699966430664,24.18000030517578,23.979999542236328,24.18000030517578,19.890060424804688,15000
2019-05-01,24.030000686645508,24.08799934387207,24.020000457763672,24.049999237060547,19.783123016357422,5700
2019-05-02,24.07900047302246,24.100000381469727,24.054000854492188,24.100000381469727,19.824254989624023,6500
2019-05-03,24.100000381469727,24.100000381469727,24.0,24.06999969482422,19.799575805664062,25900
2019-05-06,24.0,24.139999389648438,24.0,24.139999389648438,19.857158660888672,2500
2019-05-07,24.1200008392334,24.1200008392334,24.010000228881836,24.117000579833984,19.83823585510254,7400
2019-05-08,24.020000457763672,24.139999389648438,23.989999771118164,24.104999542236328,19.828365325927734,24000
2019-05-09,24.049999237060547,24.100000381469727,23.979999542236328,24.065000534057617,19.79546356201172,16000
2019-05-10,24.02899932861328,24.1200008392334,24.010000228881836,24.1200008392334,19.8407039642334,7400
2019-05-13,24.049999237060547,24.1200008392334,24.030000686645508,24.1200008392334,19.8407039642334,11800
2019-05-14,24.06399917602539,24.1200008392334,24.06399917602539,24.104999542236328,19.828365325927734,16000
2019-05-15,24.100000381469727,24.1299991607666,24.100000381469727,24.1299991607666,19.848926544189453,10400
2019-05-16,24.18000030517578,24.299999237060547,24.149999618530273,24.299999237060547,19.988767623901367,15200
2019-05-17,24.309999465942383,24.32900047302246,24.06999969482422,24.229999542236328,19.931188583374023,39500
2019-05-20,24.299999237060547,24.440000534057617,24.299999237060547,24.329999923706055,20.01344871520996,92400
2019-05-21,24.399999618530273,24.440000534057617,24.3799991607666,24.415000915527344,20.083370208740234,65500
2019-05-22,24.399999618530273,24.399999618530273,24.350000381469727,24.399999618530273,20.071025848388672,54600
2019-05-23,24.420000076293945,24.5,24.3799991607666,24.486000061035156,20.14177131652832,71200
2019-05-24,24.530000686645508,24.530000686645508,24.450000762939453,24.492000579833984,20.146703720092773,13100
2019-05-28,24.5,24.549999237060547,24.43000030517578,24.489999771118164,20.14505958557129,43600
2019-05-29,24.506999969482422,24.540000915527344,24.450000762939453,24.5,20.15328598022461,20400
2019-05-30,24.5,24.559999465942383,24.5,24.510000228881836,20.16151237487793,14000
2019-05-31,24.540000915527344,24.540000915527344,24.400999069213867,24.520000457763672,20.169740676879883,19800
2019-06-03,24.520000457763672,24.600000381469727,24.492000579833984,24.56999969482422,20.21086883544922,20900
2019-06-04,24.600000381469727,24.600000381469727,24.523000717163086,24.540000915527344,20.186187744140625,26600
2019-06-05,24.549999237060547,24.55500030517578,24.5,24.5,20.15328598022461,16400
2019-06-06,24.520000457763672,24.545000076293945,24.448999404907227,24.510000228881836,20.16151237487793,16200
2019-06-07,24.527000427246094,24.527000427246094,24.459999084472656,24.479999542236328,20.136837005615234,15900
2019-06-10,24.479999542236328,24.5,24.461999893188477,24.479000091552734,20.136014938354492,21500
2019-06-11,24.5,24.55900001525879,24.290000915527344,24.299999237060547,19.988767623901367,33800
2019-06-12,24.381000518798828,24.450000762939453,24.229999542236328,24.239999771118164,19.939414978027344,31000
2019-06-13,24.299999237060547,24.3799991607666,24.200000762939453,24.329999923706055,20.01344871520996,18500
2019-06-14,24.422000885009766,24.469999313354492,24.350000381469727,24.43000030517578,20.095705032348633,9200
2019-06-17,24.530000686645508,24.559999465942383,24.510000228881836,24.559999465942383,20.202640533447266,59100
2019-06-18,24.600000381469727,24.600000381469727,24.489999771118164,24.510000228881836,20.16151237487793,40100
2019-06-19,24.59000015258789,24.59000015258789,24.510000228881836,24.510000228881836,20.16151237487793,10900
2019-06-20,24.59000015258789,24.600000381469727,24.549999237060547,24.56999969482422,20.21086883544922,23900
2019-06-21,24.600000381469727,24.600000381469727,24.549999237060547,24.565000534057617,20.206754684448242,40400
2019-06-24,24.649999618530273,24.649999618530273,24.600000381469727,24.62299919128418,20.25446128845215,31700
2019-06-25,24.649999618530273,24.700000762939453,24.549999237060547,24.600000381469727,20.235546112060547,22700
2019-06-26,24.65999984741211,24.65999984741211,24.59000015258789,24.639999389648438,20.268447875976562,36500
2019-06-27,24.65999984741211,24.65999984741211,24.549999237060547,24.6200008392334,20.251998901367188,22900
2019-06-28,24.309999465942383,24.489999771118164,24.1299991607666,24.420000076293945,20.50388526916504,49300
2019-07-01,24.350000381469727,24.3799991607666,24.200000762939453,24.354999542236328,20.449308395385742,24600
2019-07-02,24.270000457763672,24.399999618530273,24.149999618530273,24.399999618530273,20.487091064453125,19500
2019-07-03,24.399999618530273,24.40999984741211,24.3700008392334,24.389999389648438,20.478694915771484,7000
2019-07-05,24.479999542236328,24.489999771118164,24.420000076293945,24.479999542236328,20.55426597595215,21000
2019-07-08,24.5,24.5,24.459999084472656,24.489999771118164,20.562660217285156,25000
2019-07-09,24.489999771118164,24.5,24.40999984741211,24.482999801635742,20.55678367614746,28100
2019-07-10,24.5,24.59000015258789,24.5,24.5,20.57105827331543,40200
2019-07-11,24.600000381469727,24.600000381469727,24.5,24.510000228881836,20.57945442199707,27600
2019-07-12,24.559999465942383,24.586000442504883,24.520000457763672,24.530000686645508,20.59624481201172,17900
2019-07-15,24.649999618530273,24.75,24.649999618530273,24.75,20.780967712402344,26000
2019-07-16,24.68000030517578,24.799999237060547,24.68000030517578,24.799999237060547,20.822946548461914,22200
2019-07-17,24.756000518798828,24.799999237060547,24.72100067138672,24.780000686645508,20.806156158447266,11200
2019-07-18,24.790000915527344,24.889999389648438,24.780000686645508,24.780000686645508,20.806156158447266,30200
2019-07-19,24.81999969482422,24.850000381469727,24.770000457763672,24.850000381469727,20.86492919921875,19200
2019-07-22,24.850000381469727,24.979999542236328,24.799999237060547,24.940000534057617,20.94049644470215,15300
2019-07-23,24.959999084472656,24.959999084472656,24.829999923706055,24.899999618530273,20.906909942626953,12400
2019-07-24,24.899999618530273,24.950000762939453,24.850000381469727,24.920000076293945,20.9237060546875,22500
2019-07-25,24.899999618530273,24.969999313354492,24.889999389648438,24.969999313354492,20.965682983398438,12500
2019-07-26,24.940000534057617,24.989999771118164,24.899999618530273,24.940000534057617,20.94049644470215,17100
2019-07-29,24.93000030517578,25.049999237060547,24.922000885009766,25.011999130249023,21.000947952270508,33500
2019-07-30,25.049999237060547,25.049999237060547,24.799999237060547,24.799999237060547,20.822946548461914,37800
2019-07-31,24.75,24.98900032043457,24.59000015258789,24.59000015258789,20.646621704101562,117400
2019-08-01,24.610000610351562,24.850000381469727,24.610000610351562,24.700000762939453,20.738985061645508,43500
2019-08-02,24.719999313354492,24.895999908447266,24.719999313354492,24.833999633789062,20.85149383544922,22900
2019-08-05,24.889999389648438,24.899999618530273,24.75,24.760000228881836,20.78936195373535,35300
2019-08-06,24.860000610351562,24.899999618530273,24.709999084472656,24.81999969482422,20.839740753173828,10600
2019-08-07,24.836000442504883,24.8700008392334,24.719999313354492,24.770000457763672,20.797758102416992,216900
2019-08-08,24.889999389648438,24.889999389648438,24.799999237060547,24.799999237060547,20.822946548461914,7500
2019-08-09,24.84000015258789,24.89699935913086,24.825000762939453,24.834999084472656,20.852333068847656,15600
2019-08-12,24.899999618530273,24.899999618530273,24.75,24.81100082397461,20.832185745239258,20200
2019-08-13,24.899999618530273,24.899999618530273,24.78499984741211,24.809999465942383,20.831342697143555,30600
2019-08-14,24.709999084472656,24.81999969482422,24.649999618530273,24.700000762939453,20.738985061645508,37800
2019-08-15,24.729999542236328,24.788999557495117,24.69300079345703,24.700000762939453,20.738985061645508,14800
2019-08-16,24.750999450683594,24.750999450683594,24.700000762939453,24.708999633789062,20.74654197692871,11400
2019-08-19,24.76099967956543,24.773000717163086,24.690000534057617,24.690000534057617,20.730588912963867,17500
2019-08-20,24.75,24.75,24.700000762939453,24.700000762939453,20.738985061645508,33900
2019-08-21,24.81999969482422,24.81999969482422,24.719999313354492,24.780000686645508,20.806156158447266,5500
2019-08-22,24.777000427246094,24.780000686645508,24.739999771118164,24.770000457763672,20.797758102416992,13200
2019-08-23,24.770000457763672,24.81999969482422,24.719999313354492,24.719999313354492,20.75577735900879,14300
2019-08-26,24.940000534057617,24.940000534057617,24.68000030517578,24.690000534057617,20.730588912963867,17300
2019-08-27,24.84000015258789,24.84000015258789,24.75,24.809999465942383,20.831342697143555,94500
2019-08-28,24.829999923706055,24.920000076293945,24.829999923706055,24.84000015258789,20.85653305053711,33900
2019-08-29,24.989999771118164,24.989999771118164,24.80900001525879,24.871999740600586,20.88340187072754,10900
2019-08-30,24.889999389648438,24.989999771118164,24.864999771118164,24.950000762939453,20.94889259338379,25900
2019-09-03,24.950000762939453,25.0,24.950000762939453,24.979999542236328,20.974084854125977,23100
2019-09-04,24.989999771118164,25.020000457763672,24.97100067138672,24.97599983215332,20.970722198486328,17100
2019-09-05,24.979999542236328,25.0,24.961000442504883,24.979999542236328,20.974084854125977,19800
2019-09-06,24.979999542236328,25.010000228881836,24.979999542236328,24.98699951171875,20.97995948791504,22700
2019-09-09,24.969999313354492,25.049999237060547,24.969999313354492,25.049999237060547,21.032855987548828,24100
2019-09-10,25.049999237060547,25.09000015258789,25.0,25.027000427246094,21.013547897338867,33600
2019-09-11,25.09000015258789,25.09000015258789,24.989999771118164,25.030000686645508,21.016061782836914,33800
2019-09-12,25.054000854492188,25.09000015258789,25.013999938964844,25.059999465942383,21.0412540435791,16100
2019-09-13,25.100000381469727,25.115999221801758,25.049999237060547,25.06999969482422,21.049646377563477,12300
2019-09-16,25.059999465942383,25.06999969482422,24.979999542236328,25.0,20.990873336791992,37800
2019-09-17,25.0,25.059999465942383,25.0,25.030000686645508,21.016061782836914,13300
2019-09-18,25.209999084472656,25.25,25.010000228881836,25.020000457763672,21.007667541503906,46700
2019-09-19,25.020000457763672,25.09000015258789,25.020000457763672,25.06999969482422,21.049646377563477,11700
2019-09-20,25.020000457763672,25.190000534057617,25.020000457763672,25.1299991607666,21.100027084350586,21200
2019-09-23,25.100000381469727,25.280000686645508,25.030000686645508,25.239999771118164,21.1923885345459,22400
2019-09-24,25.43000030517578,25.43000030517578,25.239999771118164,25.3700008392334,21.301538467407227,22400
2019-09-25,25.399999618530273,25.399999618530273,25.299999237060547,25.3799991607666,21.309934616088867,13700
2019-09-26,25.399999618530273,25.440000534057617,25.350000381469727,25.399999618530273,21.326730728149414,13000
2019-09-27,25.350000381469727,25.42799949645996,25.309999465942383,25.309999465942383,21.25115966796875,22500
2019-09-30,25.010000228881836,25.059999465942383,24.90999984741211,24.90999984741211,21.336814880371094,100500
2019-10-01,24.899999618530273,25.111000061035156,24.899999618530273,25.059999465942383,21.465299606323242,38200
2019-10-02,25.079999923706055,25.079999923706055,24.950000762939453,25.0,21.413908004760742,13000
2019-10-03,25.045000076293945,25.09000015258789,24.950000762939453,25.06999969482422,21.473865509033203,17300
2019-10-04,25.097999572753906,25.097999572753906,24.985000610351562,25.040000915527344,21.448169708251953,33300
2019-10-07,25.06999969482422,25.06999969482422,24.979999542236328,25.030000686645508,21.439603805541992,23300
2019-10-08,25.06999969482422,25.100000381469727,24.90999984741211,24.969999313354492,21.38821029663086,53700
2019-10-09,25.049999237060547,25.049999237060547,25.0,25.0,21.413908004760742,10200
2019-10-10,25.049999237060547,25.1200008392334,24.959999084472656,24.969999313354492,21.38821029663086,98400
2019-10-11,25.030000686645508,25.049999237060547,24.959999084472656,25.020000457763672,21.43103790283203,33500
2019-10-14,25.020000457763672,25.020000457763672,24.969999313354492,24.989999771118164,21.405344009399414,16000
2019-10-15,25.049999237060547,25.049999237060547,24.969999313354492,24.9950008392334,21.409624099731445,33000
2019-10-16,25.020000457763672,25.049999237060547,24.993999481201172,25.010000228881836,21.422475814819336,14200
2019-10-17,25.040000915527344,25.049999237060547,25.0,25.02400016784668,21.434465408325195,23400
2019-10-18,25.049999237060547,25.06999969482422,24.969999313354492,25.06999969482422,21.473865509033203,61800
2019-10-21,25.06999969482422,25.09000015258789,25.059999465942383,25.06999969482422,21.473865509033203,18100
2019-10-22,25.059999465942383,25.09000015258789,25.0,25.045000076293945,21.45245361328125,12900
2019-10-23,25.09000015258789,25.104999542236328,25.038999557495117,25.09000015258789,21.490997314453125,24600
2019-10-24,25.1200008392334,25.1299991607666,25.049999237060547,25.100000381469727,21.49956512451172,21600
2019-10-25,25.030000686645508,25.15999984741211,25.030000686645508,25.15999984741211,21.55095672607422,17700
2019-10-28,25.18000030517578,25.18000030517578,25.049999237060547,25.149999618530273,21.54239273071289,12600
2019-10-29,25.239999771118164,25.239999771118164,25.139999389648438,25.139999389648438,21.533824920654297,21300
2019-10-30,25.18000030517578,25.273000717163086,25.100000381469727,25.239999771118164,21.619482040405273,25700
2019-10-31,25.290000915527344,25.479999542236328,25.25,25.479999542236328,21.825054168701172,25600
2019-11-01,25.34000015258789,25.389999389648438,25.190000534057617,25.299999237060547,21.670875549316406,18100
2019-11-04,25.350000381469727,25.350000381469727,25.260000228881836,25.333999633789062,21.699995040893555,12000
2019-11-05,25.34000015258789,25.350000381469727,25.298999786376953,25.31999969482422,21.688005447387695,3500
2019-11-06,25.34000015258789,25.399999618530273,25.260000228881836,25.260000228881836,21.636611938476562,22700
2019-11-07,25.350000381469727,25.350000381469727,25.200000762939453,25.260000228881836,21.636611938476562,8100
2019-11-08,25.329999923706055,25.34000015258789,25.240999221801758,25.34000015258789,21.70513916015625,11100
2019-11-11,25.350000381469727,25.350000381469727,25.260000228881836,25.260000228881836,21.636611938476562,24500
2019-11-12,25.290000915527344,25.3700008392334,25.25,25.31999969482422,21.688005447387695,22100
2019-11-13,25.2450008392334,25.292999267578125,25.2450008392334,25.290000915527344,21.662311553955078,2900
2019-11-14,25.299999237060547,25.34000015258789,25.149999618530273,25.270000457763672,21.64517593383789,11000
2019-11-15,25.299999237060547,25.389999389648438,25.299999237060547,25.389999389648438,21.74796485900879,14300
2019-11-18,25.3799991607666,25.398000717163086,25.219999313354492,25.280000686645508,21.653743743896484,19000
2019-11-19,25.354999542236328,25.3799991607666,25.110000610351562,25.1299991607666,21.52526092529297,31000
2019-11-20,25.110000610351562,25.450000762939453,25.100000381469727,25.3700008392334,21.730833053588867,27400
2019-11-21,25.260000228881836,25.260000228881836,25.125,25.219999313354492,21.60235023498535,51600
2019-11-22,25.280000686645508,25.280000686645508,25.100000381469727,25.18000030517578,21.56808853149414,10600
2019-11-25,25.239999771118164,25.25,25.18000030517578,25.18000030517578,21.56808853149414,11800
2019-11-26,25.209999084472656,25.37700080871582,25.209999084472656,25.299999237060547,21.670875549316406,11400
2019-11-27,25.389999389648438,25.399999618530273,25.299999237060547,25.389999389648438,21.74796485900879,17900
2019-11-29,25.374000549316406,25.420000076293945,25.299999237060547,25.299999237060547,21.670875549316406,22100
2019-12-02,25.3799991607666,25.3799991607666,25.209999084472656,25.246999740600586,21.625476837158203,22200
2019-12-03,25.219999313354492,25.299999237060547,25.219999313354492,25.219999313354492,21.60235023498535,15600
2019-12-04,25.299999237060547,25.350000381469727,25.190000534057617,25.190000534057617,21.57665252685547,25700
2019-12-05,25.239999771118164,25.31999969482422,25.170000076293945,25.170000076293945,21.559520721435547,16000
2019-12-06,25.170000076293945,25.226999282836914,25.139999389648438,25.139999389648438,21.533824920654297,23800
2019-12-09,25.200000762939453,25.26099967956543,25.1200008392334,25.139999389648438,21.533824920654297,16000
2019-12-10,25.100000381469727,25.249000549316406,25.079999923706055,25.079999923706055,21.482431411743164,24700
2019-12-11,25.18000030517578,25.239999771118164,25.110000610351562,25.1299991607666,21.52526092529297,24800
2019-12-12,25.139999389648438,25.23200035095215,25.1299991607666,25.1299991607666,21.52526092529297,17300
2019-12-13,25.239999771118164,25.239999771118164,25.139999389648438,25.139999389648438,21.533824920654297,17000
2019-12-16,25.2189998626709,25.2189998626709,25.139999389648438,25.139999389648438,21.533824920654297,38200
2019-12-17,25.18000030517578,25.197999954223633,25.079999923706055,25.079999923706055,21.482431411743164,33300
2019-12-18,25.190000534057617,25.190000534057617,25.079999923706055,25.100000381469727,21.49956512451172,61800
2019-12-19,25.059999465942383,25.125999450683594,25.049999237060547,25.09000015258789,21.490997314453125,27100
2019-12-20,25.139999389648438,25.18899917602539,25.110000610351562,25.1299991607666,21.52526092529297,22800
2019-12-23,25.149999618530273,25.299999237060547,25.149999618530273,25.28499984741211,21.65802764892578,23600
2019-12-24,25.288000106811523,25.42799949645996,25.288000106811523,25.34000015258789,21.70513916015625,32700
2019-12-26,25.34000015258789,25.440000534057617,25.34000015258789,25.440000534057617,21.790790557861328,19500
2019-12-27,25.3700008392334,25.479999542236328,25.3700008392334,25.475000381469727,21.820772171020508,19400
2019-12-30,25.18000030517578,25.200000762939453,25.0,25.079999923706055,21.912511825561523,53100
2019-12-31,25.100000381469727,25.139999389648438,25.040000915527344,25.139999389648438,21.96493148803711,18900
2020-01-02,25.200000762939453,25.25,25.170000076293945,25.209999084472656,22.026092529296875,30000
2020-01-03,25.270000457763672,25.420000076293945,25.25,25.399999618530273,22.19209861755371,36500
2020-01-06,25.3700008392334,25.3700008392334,25.299999237060547,25.31999969482422,22.12220001220703,19700
2020-01-07,25.35300064086914,25.450000762939453,25.299999237060547,25.299999237060547,22.104724884033203,28100
2020-01-08,25.329999923706055,25.329999923706055,25.2810001373291,25.2810001373291,22.088125228881836,27800
2020-01-09,25.450000762939453,25.450000762939453,25.34000015258789,25.440000534057617,22.2270450592041,14300
2020-01-10,25.469999313354492,25.469999313354492,25.375,25.440000534057617,22.2270450592041,20100
2020-01-13,25.469999313354492,25.600000381469727,25.392000198364258,25.600000381469727,22.366836547851562,33800
2020-01-14,25.5,25.770000457763672,25.5,25.65399932861328,22.41401481628418,8900
2020-01-15,25.700000762939453,25.729999542236328,25.6200008392334,25.729999542236328,22.480417251586914,15400
2020-01-16,25.729999542236328,25.8799991607666,25.613000869750977,25.84000015258789,22.576526641845703,22700
2020-01-17,25.6200008392334,25.860000610351562,25.6200008392334,25.770000457763672,22.515365600585938,13400
2020-01-21,25.700000762939453,25.84000015258789,25.649999618530273,25.84000015258789,22.576526641845703,16000
2020-01-22,25.81999969482422,25.910999298095703,25.80500030517578,25.850000381469727,22.585264205932617,18800
2020-01-23,25.790000915527344,25.8799991607666,25.790000915527344,25.850000381469727,22.585264205932617,8400
2020-01-24,25.856000900268555,25.906999588012695,25.719999313354492,25.719999313354492,22.471681594848633,15100
2020-01-27,25.709999084472656,25.854999542236328,25.709999084472656,25.795000076293945,22.537208557128906,8000
2020-01-28,25.920000076293945,25.920000076293945,25.81999969482422,25.860000610351562,22.59400177001953,18200
2020-01-29,25.863000869750977,26.0,25.860000610351562,25.860000610351562,22.59400177001953,13100
2020-01-30,26.0,26.0,25.8799991607666,25.990999221801758,22.708454132080078,9800
2020-01-31,25.90999984741211,26.097000122070312,25.90999984741211,25.950000762939453,22.672636032104492,8900
2020-02-03,26.09000015258789,26.09000015258789,25.780000686645508,25.780000686645508,22.524106979370117,15400
2020-02-04,25.861000061035156,26.059999465942383,25.829999923706055,26.059999465942383,22.768741607666016,14900
2020-02-05,25.959999084472656,26.3799991607666,25.93199920654297,26.25,22.93474578857422,46500
2020-02-06,26.25,26.25,26.117000579833984,26.229999542236328,22.917268753051758,15700
2020-02-07,26.21500015258789,26.299999237060547,26.139999389648438,26.145999908447266,22.84387969970703,18300
2020-02-10,26.13599967956543,26.25,26.13599967956543,26.219999313354492,22.908533096313477,13100
2020-02-11,26.200000762939453,26.200000762939453,26.1200008392334,26.197999954223633,22.889312744140625,16800
2020-02-12,26.100000381469727,26.200000762939453,26.100000381469727,26.15999984741211,22.856111526489258,10300
2020-02-13,26.09000015258789,26.229999542236328,26.09000015258789,26.229999542236328,22.917268753051758,4800
2020-02-14,26.139999389648438,26.239999771118164,26.139999389648438,26.229999542236328,22.917268753051758,12800
2020-02-18,26.219999313354492,26.219999313354492,26.15999984741211,26.16900062561035,22.863977432250977,15100
2020-02-19,26.179000854492188,26.18000030517578,26.100000381469727,26.100000381469727,22.80368995666504,11800
2020-02-20,26.1200008392334,26.1299991607666,26.040000915527344,26.1299991607666,22.82990074157715,15000
2020-02-21,25.829999923706055,26.110000610351562,25.829999923706055,26.020000457763672,22.733793258666992,18400
2020-02-24,26.0,26.0,25.777999877929688,25.899999618530273,22.62894630432129,10600
2020-02-25,25.809999465942383,25.951000213623047,25.510000228881836,25.530000686645508,22.305679321289062,28600
2020-02-26,25.979999542236328,25.989999771118164,25.510000228881836,25.625,22.38867950439453,21600
2020-02-27,25.649999618530273,25.649999618530273,25.0,25.315000534057617,22.117830276489258,61400
2020-02-28,23.399999618530273,25.0,23.104000091552734,24.829999923706055,21.69408416748047,65700
2020-03-02,24.700000762939453,25.764999389648438,24.549999237060547,25.34000015258789,22.139673233032227,51200
2020-03-03,25.459999084472656,25.738000869750977,25.350000381469727,25.469999313354492,22.253253936767578,27400
2020-03-04,25.510000228881836,25.89299964904785,25.479999542236328,25.89299964904785,22.622833251953125,19600
2020-03-05,25.700000762939453,25.700000762939453,25.489999771118164,25.489999771118164,22.27073097229004,19400
2020-03-06,25.479999542236328,25.479999542236328,24.979999542236328,25.0,21.842615127563477,45000
2020-03-09,23.700000762939453,24.202999114990234,22.606000900268555,22.979999542236328,20.07773208618164,104100
2020-03-10,23.600000381469727,24.492000579833984,22.81999969482422,23.450000762939453,20.488372802734375,73500
2020-03-11,23.25,23.540000915527344,21.549999237060547,22.030000686645508,19.247711181640625,71500
2020-03-12,21.010000228881836,21.309999465942383,15.34000015258789,17.049999237060547,14.896662712097168,149300
2020-03-13,18.899999618530273,19.700000762939453,15.09000015258789,17.389999389648438,15.19372272491455,120200
2020-03-16,16.700000762939453,17.0,12.010000228881836,14.199999809265137,12.406603813171387,89200
2020-03-17,14.399999618530273,15.534000396728516,9.600000381469727,10.5,9.173897743225098,148100
2020-03-18,10.0,10.0,4.199999809265137,8.0,6.9896368980407715,249300
2020-03-19,8.0,15.890000343322754,7.25,13.819999694824219,12.074596405029297,142900
2020-03-20,13.970000267028809,15.649999618530273,12.390000343322754,12.819999694824219,11.200891494750977,150700
2020-03-23,12.5,12.5,8.0,8.399999618530273,7.339118480682373,167200
2020-03-24,6.0,6.420000076293945,3.569999933242798,3.8399999141693115,3.3550257682800293,521200
2020-03-25,4.5,5.599999904632568,3.75,4.380000114440918,3.8268258571624756,352200
2020-03-26,6.0,9.793000221252441,5.510000228881836,7.650000095367432,6.683840274810791,303900
2020-03-27,7.75,9.850000381469727,7.75,9.649999618530273,8.43124771118164,131900
2020-03-30,9.899999618530273,10.315999984741211,8.0,9.350000381469727,8.169137954711914,160600
2020-03-31,8.920000076293945,9.800000190734863,8.199999809265137,8.899999618530273,7.775970458984375,106300
2020-04-01,8.270000457763672,8.350000381469727,7.0,7.599999904632568,6.6401543617248535,70900
2020-04-02,7.059999942779541,7.764999866485596,6.130000114440918,6.360000133514404,5.556761264801025,148900
2020-04-03,6.119999885559082,6.360000133514404,4.519999980926514,4.809999942779541,4.202519416809082,162300
2020-04-06,5.309999942779541,7.769999980926514,5.309999942779541,7.670000076293945,6.701314449310303,134300
2020-04-07,8.609999656677246,9.850000381469727,8.609999656677246,9.75,8.518619537353516,172500
2020-04-08,12.229999542236328,14.600000381469727,12.229999542236328,14.420000076293945,12.598820686340332,298800
2020-04-09,15.699999809265137,17.05500030517578,15.0,15.710000038146973,13.725899696350098,132200
2020-04-13,15.850000381469727,16.5,15.180000305175781,16.25,14.197700500488281,97300
2020-04-14,16.360000610351562,17.149999618530273,16.059999465942383,17.149999618530273,14.98403263092041,80300
2020-04-15,15.899999618530273,16.56100082397461,15.170000076293945,15.649999618530273,13.673477172851562,43300
2020-04-16,15.260000228881836,15.432000160217285,14.550000190734863,14.920000076293945,13.035672187805176,53000
2020-04-17,15.920000076293945,15.920000076293945,14.907999992370605,15.470000267028809,13.516210556030273,31700
2020-04-20,15.0,15.4399995803833,13.781999588012695,15.1899995803833,13.271573066711426,37100
2020-04-21,15.0,15.1899995803833,14.449999809265137,15.1899995803833,13.271573066711426,37200
2020-04-22,15.390000343322754,16.8799991607666,15.25,16.559999465942383,14.468546867370605,55300
2020-04-23,16.77400016784668,16.77400016784668,15.880000114440918,16.34000015258789,14.276333808898926,24300
2020-04-24,16.100000381469727,16.59600067138672,15.800000190734863,16.200000762939453,14.154014587402344,41500
2020-04-27,16.889999389648438,17.200000762939453,15.760000228881836,16.329999923706055,14.267596244812012,42200
2020-04-28,16.329999923706055,16.950000762939453,16.329999923706055,16.56999969482422,14.477285385131836,60400
2020-04-29,16.75,17.579999923706055,16.559999465942383,17.56999969482422,15.35098934173584,63400
2020-04-30,17.84000015258789,17.969999313354492,17.0,17.3799991607666,15.184986114501953,33000
2020-05-01,16.989999771118164,17.0,16.100000381469727,16.325000762939453,14.263228416442871,35000
2020-05-04,16.18400001525879,16.190000534057617,15.600000381469727,16.06999969482422,14.04043197631836,47800
2020-05-05,16.200000762939453,17.040000915527344,15.9399995803833,16.996999740600586,14.850356101989746,87700
2020-05-06,16.950000762939453,17.459999084472656,16.520000457763672,17.454999923706055,15.250513076782227,114000
2020-05-07,17.450000762939453,17.700000762939453,17.179000854492188,17.3799991607666,15.184986114501953,25200
2020-05-08,16.809999465942383,16.867000579833984,15.9399995803833,16.285999298095703,14.22915267944336,71100
2020-05-11,15.979999542236328,16.450000762939453,15.170000076293945,15.399999618530273,13.455050468444824,84100
2020-05-12,15.739999771118164,16.940000534057617,15.5,16.329999923706055,14.267596244812012,49900
2020-05-13,16.059999465942383,16.670000076293945,15.8100004196167,16.559999465942383,14.468546867370605,105900
2020-05-14,16.299999237060547,16.350000381469727,14.0,16.100000381469727,14.066644668579102,28700
2020-05-15,16.0,16.15999984741211,15.6899995803833,15.829999923706055,13.830742835998535,17500
2020-05-18,16.170000076293945,16.309999465942383,16.020000457763672,16.190000534057617,14.145277976989746,20700
2020-05-19,16.350000381469727,16.6200008392334,16.149999618530273,16.190000534057617,14.145277976989746,28800
2020-05-20,16.649999618530273,16.979999542236328,16.15999984741211,16.680999755859375,14.574265480041504,36900
2020-05-21,16.079999923706055,17.0,16.079999923706055,16.865999221801758,14.735901832580566,31200
2020-05-22,16.989999771118164,17.850000381469727,16.719999313354492,17.739999771118164,15.499519348144531,69000
2020-05-26,18.190000534057617,18.889999389648438,18.0,18.889999389648438,16.5042781829834,62400
2020-05-27,18.959999084472656,19.290000915527344,18.636999130249023,19.030000686645508,16.62660026550293,42600
2020-05-28,19.0,19.950000762939453,19.0,19.059999465942383,16.652809143066406,29200
2020-05-29,18.3799991607666,18.979999542236328,18.3799991607666,18.81999969482422,16.443119049072266,33200
2020-06-01,18.860000610351562,19.190000534057617,18.850000381469727,18.8799991607666,16.495542526245117,13700
2020-06-02,19.15999984741211,19.15999984741211,18.510000228881836,18.520000457763672,16.18100929260254,14400
2020-06-03,18.8700008392334,19.25,18.610000610351562,18.75,16.381961822509766,23900
2020-06-04,18.639999389648438,19.75,18.600000381469727,19.389999389648438,16.941129684448242,28300
2020-06-05,20.0,20.989999771118164,19.850000381469727,20.731000900268555,18.112770080566406,53600
2020-06-08,21.100000381469727,22.0,20.865999221801758,22.0,19.22150230407715,30600
2020-06-09,21.56999969482422,21.760000228881836,20.739999771118164,20.889999389648438,18.25168800354004,41700
2020-06-10,20.700000762939453,20.700000762939453,18.878000259399414,20.31999969482422,17.753679275512695,56700
2020-06-11,18.729999542236328,19.3799991607666,18.15999984741211,18.15999984741211,15.866476058959961,34000
2020-06-12,18.510000228881836,19.329999923706055,17.604999542236328,17.84000015258789,15.586892127990723,40100
2020-06-15,17.5,19.020000457763672,17.420000076293945,18.770000457763672,16.399436950683594,15900
2020-06-16,21.149999618530273,21.149999618530273,19.5,20.450000762939453,17.867259979248047,55000
2020-06-17,20.729999542236328,21.0,20.569000244140625,20.8700008392334,18.234214782714844,46500
2020-06-18,20.479999542236328,20.93000030517578,20.479999542236328,20.780000686645508,18.155582427978516,16500
2020-06-19,20.780000686645508,20.979999542236328,20.559999465942383,20.649999618530273,18.0419979095459,14800
2020-06-22,20.649999618530273,21.139999389648438,20.639999389648438,20.739999771118164,18.12063217163086,26300
2020-06-23,20.8700008392334,20.979999542236328,20.68000030517578,20.760000228881836,18.138107299804688,22500
2020-06-24,20.649999618530273,20.982999801635742,20.049999237060547,20.415000915527344,17.836681365966797,16800
2020-06-25,20.450000762939453,20.75,20.3799991607666,20.75,18.129371643066406,17800
2020-06-26,20.90999984741211,20.90999984741211,20.40999984741211,20.6299991607666,18.024526596069336,17500
2020-06-29,20.600000381469727,20.72599983215332,20.25,20.63599967956543,18.029767990112305,25300
2020-06-30,20.0,20.0,19.329999923706055,19.59000015258789,17.987531661987305,20500
2020-07-01,19.510000228881836,19.510000228881836,19.059999465942383,19.100000381469727,17.537612915039062,9500
2020-07-02,19.309999465942383,19.309999465942383,18.649999618530273,18.829999923706055,17.28969955444336,20600
2020-07-06,18.829999923706055,18.829999923706055,18.239999771118164,18.5,16.986692428588867,22400
2020-07-07,18.299999237060547,18.600000381469727,18.174999237060547,18.510000228881836,16.995874404907227,24100
2020-07-08,17.559999465942383,18.72599983215332,17.559999465942383,18.68000030517578,17.15196990966797,42800
2020-07-09,18.652999877929688,18.670000076293945,18.270000457763672,18.559999465942383,17.041784286499023,30400
2020-07-10,18.559999465942383,18.68000030517578,18.43000030517578,18.600000381469727,17.078516006469727,8300
2020-07-13,18.850000381469727,18.850000381469727,18.049999237060547,18.200000762939453,16.711231231689453,17600
2020-07-14,17.790000915527344,18.110000610351562,17.790000915527344,18.100000381469727,16.619413375854492,27600
2020-07-15,18.200000762939453,18.3799991607666,18.145000457763672,18.25,16.757143020629883,107100
2020-07-16,18.31999969482422,18.639999389648438,18.31999969482422,18.549999237060547,17.032602310180664,22400
2020-07-17,18.6299991607666,18.989999771118164,18.5,18.780000686645508,17.243791580200195,12900
2020-07-20,18.739999771118164,18.799999237060547,18.649999618530273,18.799999237060547,17.26215171813965,10000
2020-07-21,18.780000686645508,19.0,18.68000030517578,18.937000274658203,17.3879451751709,41500
2020-07-22,18.979999542236328,18.979999542236328,18.700000762939453,18.850000381469727,17.308061599731445,5000
2020-07-23,18.8799991607666,18.889999389648438,18.729999542236328,18.860000610351562,17.317245483398438,24200
2020-07-24,18.81999969482422,18.81999969482422,18.625,18.790000915527344,17.252971649169922,3900
2020-07-27,18.790000915527344,18.905000686645508,18.75,18.844999313354492,17.303470611572266,14700
2020-07-28,18.799999237060547,18.93899917602539,18.549999237060547,18.799999237060547,17.26215171813965,19500
2020-07-29,18.719999313354492,19.71500015258789,18.719999313354492,19.639999389648438,18.0334415435791,39800
2020-07-30,19.295000076293945,19.868000030517578,19.295000076293945,19.799999237060547,18.18035125732422,24000
2020-07-31,19.790000915527344,19.950000762939453,19.270000457763672,19.899999618530273,18.272171020507812,15600
2020-08-03,19.610000610351562,20.020000457763672,19.610000610351562,19.9950008392334,18.35940170288086,7900
2020-08-04,20.0,20.0,19.795000076293945,19.950000762939453,18.318084716796875,10000
2020-08-05,19.875999450683594,19.940000534057617,19.719999313354492,19.760000228881836,18.143625259399414,13000
2020-08-06,19.989999771118164,20.15999984741211,19.700000762939453,19.979999542236328,18.34562873840332,24300
2020-08-07,19.98699951171875,20.233999252319336,19.799999237060547,20.233999252319336,18.57884979248047,24200
2020-08-10,20.200000762939453,20.450000762939453,19.950000762939453,20.44099998474121,18.768918991088867,11800
2020-08-11,20.459999084472656,21.0,20.459999084472656,20.884000778198242,19.17568016052246,17600
2020-08-12,21.0,21.0,20.8799991607666,21.0,19.28219223022461,6100
2020-08-13,21.09000015258789,21.344999313354492,21.076000213623047,21.209999084472656,19.475013732910156,15500
2020-08-14,21.100000381469727,21.360000610351562,21.049999237060547,21.360000610351562,19.61274528503418,16100
2020-08-17,21.31999969482422,21.31999969482422,21.219999313354492,21.299999237060547,19.55765151977539,11400
2020-08-18,21.18000030517578,21.18000030517578,20.969999313354492,21.1200008392334,19.39237403869629,16500
2020-08-19,21.079999923706055,21.159000396728516,20.610000610351562,21.100000381469727,19.374011993408203,31100
2020-08-20,20.969999313354492,21.15999984741211,20.65999984741211,21.100000381469727,19.374011993408203,31600
2020-08-21,20.989999771118164,20.989999771118164,20.68000030517578,20.770000457763672,19.07100486755371,14700
2020-08-24,20.799999237060547,21.110000610351562,19.700000762939453,21.0,19.28219223022461,20100
2020-08-25,20.110000610351562,21.139999389648438,20.110000610351562,20.979999542236328,19.263826370239258,15900
2020-08-26,21.049999237060547,21.299999237060547,20.989999771118164,21.229999542236328,19.493377685546875,16700
2020-08-27,21.290000915527344,21.290000915527344,20.94499969482422,21.190000534057617,19.45665168762207,11700
2020-08-28,20.937000274658203,21.309999465942383,20.90999984741211,21.309999465942383,19.56683349609375,6500
2020-08-31,21.110000610351562,21.170000076293945,21.010000228881836,21.100000381469727,19.374011993408203,28300
2020-09-01,21.09000015258789,21.09000015258789,20.56999969482422,20.739999771118164,19.043458938598633,26000
2020-09-02,20.600000381469727,20.989999771118164,20.600000381469727,20.700000762939453,19.006732940673828,48200
2020-09-03,20.770000457763672,20.780000686645508,20.1200008392334,20.450000762939453,18.777183532714844,11500
2020-09-04,20.610000610351562,20.764999389648438,20.290000915527344,20.520000457763672,18.841455459594727,8700
2020-09-08,20.329999923706055,21.360000610351562,20.329999923706055,20.5,18.82309341430664,35400
2020-09-09,20.416000366210938,20.70599937438965,20.40999984741211,20.670000076293945,18.979185104370117,5200
2020-09-10,20.579999923706055,20.882999420166016,20.579999923706055,20.780000686645508,19.080188751220703,7600
2020-09-11,20.774999618530273,20.920000076293945,20.56100082397461,20.920000076293945,19.208736419677734,9400
2020-09-14,21.0,21.0,20.65999984741211,20.959999084472656,19.24546241760254,25200
2020-09-15,21.079999923706055,21.089000701904297,20.809999465942383,20.920000076293945,19.208736419677734,19500
2020-09-16,21.0,21.288999557495117,20.899999618530273,20.940000534057617,19.227100372314453,28600
2020-09-17,21.200000762939453,21.200000762939453,20.860000610351562,20.8799991607666,19.172006607055664,4900
2020-09-18,20.790000915527344,21.0,20.549999237060547,20.790000915527344,19.08936882019043,13100
2020-09-21,20.700000762939453,20.809999465942383,20.350000381469727,20.649999618530273,18.9608211517334,16900
2020-09-22,20.489999771118164,20.785999298095703,20.489999771118164,20.729999542236328,19.034278869628906,8500
2020-09-23,21.06999969482422,21.277999877929688,20.399999618530273,20.559999465942383,18.878183364868164,31400
2020-09-24,20.489999771118164,20.559999465942383,20.270000457763672,20.530000686645508,18.85063934326172,21800
2020-09-25,20.530000686645508,20.785999298095703,20.420000076293945,20.6299991607666,18.94245719909668,21200
2020-09-28,20.799999237060547,20.93000030517578,20.59000015258789,20.719999313354492,19.025094985961914,15400
2020-09-29,20.893999099731445,21.18000030517578,20.700000762939453,20.860000610351562,19.153644561767578,15400
2020-09-30,20.600000381469727,20.75,20.34000015258789,20.700000762939453,19.473499298095703,16000
2020-10-01,20.549999237060547,20.690000534057617,20.260000228881836,20.420000076293945,19.2100887298584,26200
2020-10-02,20.44499969482422,20.44499969482422,20.0,20.190000534057617,18.993717193603516,32100
2020-10-05,20.260000228881836,20.260000228881836,20.079999923706055,20.139999389648438,18.946678161621094,5200
2020-10-06,20.260000228881836,20.420000076293945,20.010000228881836,20.31999969482422,19.11601448059082,17800
2020-10-07,20.3700008392334,20.405000686645508,20.200000762939453,20.209999084472656,19.012529373168945,16500
2020-10-08,20.209999084472656,20.489999771118164,20.209999084472656,20.489999771118164,19.275941848754883,11800
2020-10-09,20.440000534057617,20.466999053955078,20.15999984741211,20.3799991607666,19.17245864868164,6500
2020-10-12,20.3799991607666,20.3799991607666,20.18000030517578,20.3799991607666,19.17245864868164,8900
2020-10-13,20.18000030517578,20.3700008392334,20.049999237060547,20.100000381469727,18.90904998779297,13200
2020-10-14,20.020000457763672,20.14699935913086,20.0,20.1200008392334,18.92786407470703,8600
2020-10-15,20.170000076293945,20.229999542236328,20.030000686645508,20.139999389648438,18.946678161621094,4200
2020-10-16,20.1200008392334,20.170000076293945,19.950000762939453,20.049999237060547,18.862010955810547,12300
2020-10-19,19.969999313354492,19.969999313354492,19.684999465942383,19.739999771118164,18.57037925720215,7000
2020-10-20,19.850000381469727,20.059999465942383,19.829999923706055,19.93000030517578,18.749120712280273,7600
2020-10-21,19.799999237060547,19.81999969482422,19.690000534057617,19.739999771118164,18.57037925720215,6500
2020-10-22,19.683000564575195,19.959999084472656,19.683000564575195,19.780000686645508,18.608009338378906,4500
2020-10-23,19.760000228881836,19.979999542236328,19.760000228881836,19.889999389648438,18.71149253845215,5500
2020-10-26,19.84000015258789,20.139999389648438,19.663999557495117,19.670000076293945,18.504526138305664,17600
2020-10-27,20.059999465942383,20.1299991607666,19.709999084472656,19.709999084472656,18.542156219482422,3900
2020-10-28,19.670000076293945,19.670000076293945,19.030000686645508,19.1299991607666,17.996522903442383,18000
2020-10-29,19.149999618530273,19.360000610351562,19.079999923706055,19.360000610351562,18.212894439697266,14000
2020-10-30,19.219999313354492,19.219999313354492,18.90999984741211,19.0,17.874225616455078,10500
2020-11-02,19.100000381469727,19.299999237060547,19.100000381469727,19.299999237060547,18.156450271606445,13500
2020-11-03,19.389999389648438,19.450000762939453,19.299999237060547,19.43000030517578,18.27874755859375,11100
2020-11-04,19.75,19.860000610351562,19.68000030517578,19.860000610351562,18.683269500732422,11300
2020-11-05,19.8700008392334,20.1200008392334,19.84000015258789,19.989999771118164,18.805566787719727,32100
2020-11-06,20.065000534057617,20.065000534057617,19.899999618530273,19.899999618530273,18.720897674560547,8300
2020-11-09,20.389999389648438,20.639999389648438,20.239999771118164,20.350000381469727,19.144237518310547,28900
2020-11-10,20.290000915527344,20.600000381469727,20.209999084472656,20.549999237060547,19.33238410949707,19200
2020-11-11,20.579999923706055,20.82900047302246,20.549999237060547,20.700000762939453,19.473499298095703,16300
2020-11-12,20.67799949645996,20.760000228881836,20.309999465942383,20.479999542236328,19.26653289794922,23800
2020-11-13,20.450000762939453,20.829999923706055,20.450000762939453,20.729999542236328,19.501720428466797,11700
2020-11-16,20.969999313354492,21.399999618530273,20.829999923706055,21.170000076293945,19.9156494140625,32900
2020-11-17,21.1200008392334,21.420000076293945,21.110000610351562,21.329999923706055,20.0661678314209,14200
2020-11-18,21.459999084472656,21.8799991607666,21.43000030517578,21.770000457763672,20.480100631713867,23700
2020-11-19,22.0,22.149999618530273,21.610000610351562,22.079999923706055,20.771732330322266,14600
2020-11-20,21.913000106811523,22.219999313354492,21.913000106811523,22.1299991607666,20.818769454956055,7800
2020-11-23,22.14900016784668,22.329999923706055,22.040000915527344,22.190000534057617,20.875213623046875,30100
2020-11-24,22.229999542236328,22.510000228881836,22.079999923706055,22.079999923706055,20.771732330322266,25700
2020-11-25,22.079999923706055,22.399999618530273,22.06999969482422,22.260000228881836,20.94106674194336,13000
2020-11-27,22.399999618530273,22.43000030517578,22.290000915527344,22.3799991607666,21.053956985473633,3600
2020-11-30,22.31999969482422,22.489999771118164,22.190000534057617,22.3799991607666,21.053956985473633,11900
2020-12-01,22.489999771118164,22.582000732421875,22.239999771118164,22.530000686645508,21.195068359375,26000
2020-12-02,22.43000030517578,22.649999618530273,22.395000457763672,22.6299991607666,21.289142608642578,17000
2020-12-03,22.43600082397461,22.649999618530273,22.43600082397461,22.649999618530273,21.307958602905273,8000
2020-12-04,22.520000457763672,22.899999618530273,22.520000457763672,22.899999618530273,21.54314422607422,14600
2020-12-07,22.770000457763672,23.0,22.770000457763672,23.0,21.63722038269043,8800
2020-12-08,23.06999969482422,23.360000610351562,23.06999969482422,23.297000885009766,21.916624069213867,7200
2020-12-09,23.309999465942383,23.329999923706055,23.219999313354492,23.229999542236328,21.853591918945312,4700
2020-12-10,23.110000610351562,23.25,23.040000915527344,23.200000762939453,21.825368881225586,6100
2020-12-11,23.030000686645508,23.25,23.030000686645508,23.149999618530273,21.778331756591797,4900
2020-12-14,23.18000030517578,23.280000686645508,23.030000686645508,23.15999984741211,21.78774070739746,9500
2020-12-15,23.22100067138672,23.22100067138672,22.983999252319336,23.1200008392334,21.750110626220703,19300
2020-12-16,23.100000381469727,23.1299991607666,23.010000228881836,23.030000686645508,21.665441513061523,12900
2020-12-17,23.0,23.097000122070312,22.950000762939453,22.950000762939453,21.590181350708008,9700
2020-12-18,23.100000381469727,23.100000381469727,22.989999771118164,23.020000457763672,21.656036376953125,5000
2020-12-21,23.0,23.075000762939453,22.770000457763672,23.030000686645508,21.665441513061523,10400
2020-12-22,23.010000228881836,23.014999389648438,22.579999923706055,22.579999923706055,21.24210548400879,14100
2020-12-23,22.579999923706055,23.09000015258789,22.579999923706055,22.95800018310547,21.59770965576172,8500
2020-12-24,23.079999923706055,23.079999923706055,22.96299934387207,23.010000228881836,21.64662742614746,4700
2020-12-28,23.100000381469727,23.229999542236328,22.989999771118164,23.049999237060547,21.68425750732422,15400
2020-12-29,23.110000610351562,23.275999069213867,22.59000015258789,23.118000030517578,21.748228073120117,17800
2020-12-30,22.979999542236328,22.979999542236328,22.246000289916992,22.5,21.634765625,19000
