Date,Open,High,Low,Close,Adj Close,Volume
2018-05-08,34.0,34.0,34.0,34.0,32.94326400756836,0
2018-05-09,36.2400016784668,37.900001525878906,36.119998931884766,37.5,36.3344841003418,1730600
2018-05-10,37.5,37.88999938964844,36.2599983215332,36.7400016784668,35.598106384277344,293400
2018-05-11,36.880001068115234,37.349998474121094,36.5,37.15999984741211,36.00505065917969,128300
2018-05-14,37.209999084472656,37.369998931884766,36.334999084472656,36.83000183105469,35.68531036376953,172100
2018-05-15,36.810001373291016,37.0,36.5099983215332,36.75,35.60779571533203,173400
2018-05-16,36.9900016784668,36.9900016784668,36.54999923706055,36.77000045776367,35.62717056274414,48100
2018-05-17,36.93000030517578,37.18000030517578,36.75,37.16999816894531,36.01473617553711,109800
2018-05-18,37.279998779296875,37.5,36.96699905395508,37.470001220703125,36.30541229248047,70800
2018-05-21,36.5,37.75,36.5,37.439998626708984,36.27634811401367,72700
2018-05-22,37.599998474121094,37.599998474121094,37.27799987792969,37.4900016784668,36.324790954589844,87500
2018-05-23,37.349998474121094,37.599998474121094,37.13999938964844,37.560001373291016,36.39262771606445,35800
2018-05-24,37.5,38.20000076293945,36.74100112915039,38.099998474121094,36.915836334228516,84900
2018-05-25,38.2400016784668,39.619998931884766,37.584999084472656,38.939998626708984,37.72972106933594,138700
2018-05-29,38.709999084472656,39.5,38.209999084472656,38.970001220703125,37.7588005065918,89500
2018-05-30,38.07500076293945,38.85900115966797,37.380001068115234,38.560001373291016,37.361541748046875,35000
2018-05-31,38.125,38.91999816894531,37.560001373291016,38.84000015258789,37.632835388183594,36000
2018-06-01,38.90999984741211,39.0,38.00400161743164,38.40999984741211,37.21620178222656,57800
2018-06-04,38.65999984741211,38.68000030517578,36.52000045776367,38.310001373291016,37.11930847167969,68300
2018-06-05,38.09000015258789,38.83000183105469,38.0,38.619998931884766,37.41967010498047,46900
2018-06-06,38.849998474121094,39.810001373291016,37.5099983215332,38.84000015258789,37.632835388183594,92500
2018-06-07,39.22999954223633,39.369998931884766,38.0,39.040000915527344,37.82662582397461,53000
2018-06-08,38.790000915527344,39.189998626708984,38.24599838256836,38.650001525878906,37.44873809814453,46500
2018-06-11,38.91999816894531,40.0,38.46500015258789,39.47999954223633,38.2529411315918,122800
2018-06-12,39.900001525878906,41.685001373291016,38.525001525878906,40.4900016784668,39.231563568115234,134900
2018-06-13,40.20000076293945,40.75,38.7599983215332,40.31999969482422,39.06683349609375,136000
2018-06-14,40.58000183105469,41.54499816894531,40.18000030517578,40.880001068115234,39.641876220703125,166900
2018-06-15,40.779998779296875,41.0,39.709999084472656,40.75,39.51581573486328,246800
2018-06-18,40.47999954223633,42.310001373291016,39.82500076293945,40.4900016784668,39.263694763183594,397200
2018-06-19,40.95000076293945,42.220001220703125,40.029998779296875,40.95000076293945,39.709754943847656,158400
2018-06-20,41.0,41.494998931884766,40.66999816894531,40.880001068115234,39.641876220703125,155800
2018-06-21,41.09000015258789,41.1150016784668,39.400001525878906,39.95000076293945,38.74004364013672,142500
2018-06-22,40.22999954223633,41.380001068115234,39.560001373291016,41.380001068115234,40.126739501953125,2217800
2018-06-25,41.25,42.0,39.70000076293945,39.97999954223633,38.769126892089844,210800
2018-06-26,40.25,40.560001373291016,39.95000076293945,39.97999954223633,38.769126892089844,72800
2018-06-27,40.060001373291016,40.0890007019043,39.2400016784668,39.529998779296875,38.332763671875,111400
2018-06-28,40.2400016784668,40.849998474121094,39.66999816894531,40.5,39.27338409423828,95700
2018-06-29,40.75,41.45000076293945,39.599998474121094,40.939998626708984,39.70005798339844,66500
2018-07-02,40.86000061035156,41.404998779296875,40.060001373291016,41.220001220703125,39.97158432006836,39100
2018-07-03,41.470001220703125,41.470001220703125,40.02000045776367,40.27000045776367,39.050350189208984,45800
2018-07-05,40.09000015258789,41.060001373291016,40.09000015258789,40.31999969482422,39.098838806152344,78300
2018-07-06,40.31999969482422,40.6150016784668,39.54999923706055,39.689998626708984,38.487911224365234,80400
2018-07-09,39.52000045776367,41.16899871826172,39.415000915527344,39.9900016784668,38.77883529663086,118500
2018-07-10,40.47999954223633,40.84700012207031,39.04999923706055,39.79999923706055,38.59457778930664,115300
2018-07-11,39.61000061035156,40.75,39.08000183105469,39.16999816894531,37.983665466308594,110400
2018-07-12,39.2599983215332,39.33000183105469,38.97999954223633,39.060001373291016,37.87699890136719,45200
2018-07-13,39.0,39.56999969482422,38.65999984741211,39.47999954223633,38.284271240234375,102900
2018-07-16,39.47999954223633,39.70000076293945,39.40999984741211,39.5,38.30366897583008,23500
2018-07-17,39.310001373291016,39.9900016784668,39.040000915527344,39.13999938964844,37.95457458496094,36200
2018-07-18,39.0099983215332,39.599998474121094,38.98500061035156,39.130001068115234,37.944881439208984,25300
2018-07-19,39.08000183105469,39.95000076293945,39.08000183105469,39.630001068115234,38.42973327636719,32300
2018-07-20,39.439998626708984,39.95000076293945,39.439998626708984,39.75,38.54609680175781,23700
2018-07-23,39.709999084472656,39.95000076293945,39.61000061035156,39.880001068115234,38.67216491699219,56700
2018-07-24,39.900001525878906,39.900001525878906,39.11000061035156,39.29999923706055,38.1097297668457,30000
2018-07-25,39.20000076293945,39.25699996948242,38.70000076293945,38.939998626708984,37.76062774658203,84200
2018-07-26,39.130001068115234,40.900001525878906,39.029998779296875,40.619998931884766,39.389747619628906,185900
2018-07-27,40.880001068115234,40.880001068115234,39.79499816894531,40.150001525878906,38.93398666381836,23900
2018-07-30,40.279998779296875,41.0099983215332,39.680999755859375,40.369998931884766,39.147315979003906,46800
2018-07-31,40.40999984741211,40.63999938964844,39.119998931884766,40.619998931884766,39.389747619628906,58800
2018-08-01,40.650001525878906,41.0,39.900001525878906,40.560001373291016,39.33156204223633,54800
2018-08-02,39.5,40.880001068115234,38.000999450683594,40.2599983215332,39.040653228759766,72600
2018-08-03,40.33000183105469,40.470001220703125,39.5099983215332,39.70000076293945,38.497615814208984,41600
2018-08-06,40.0,40.220001220703125,39.13999938964844,40.08000183105469,38.8661003112793,53900
2018-08-07,40.099998474121094,40.33000183105469,39.470001220703125,40.0099983215332,38.798221588134766,109300
2018-08-08,40.040000915527344,40.266998291015625,39.599998474121094,40.0099983215332,38.798221588134766,35600
2018-08-09,39.939998626708984,40.150001525878906,39.71500015258789,39.81999969482422,38.613975524902344,42600
2018-08-10,39.619998931884766,40.61000061035156,39.029998779296875,40.209999084472656,38.99216842651367,51800
2018-08-13,40.0099983215332,40.45000076293945,39.25899887084961,39.97999954223633,38.769126892089844,36200
2018-08-14,40.18000030517578,40.27000045776367,39.97999954223633,40.22999954223633,39.011558532714844,71400
2018-08-15,40.150001525878906,40.5,39.02000045776367,39.40999984741211,38.21639633178711,47300
2018-08-16,39.619998931884766,40.09000015258789,38.86000061035156,39.650001525878906,38.449127197265625,68600
2018-08-17,39.5,41.2400016784668,39.5,40.810001373291016,39.573997497558594,85900
2018-08-20,40.81999969482422,41.130001068115234,40.619998931884766,41.0,39.758243560791016,64100
2018-08-21,41.0099983215332,41.32600021362305,40.849998474121094,41.189998626708984,39.942481994628906,49500
2018-08-22,41.15999984741211,41.33000183105469,40.270999908447266,41.11000061035156,39.86491394042969,55300
2018-08-23,41.06999969482422,41.459999084472656,40.65999984741211,41.34000015258789,40.08794021606445,40000
2018-08-24,41.25,41.5,39.869998931884766,40.66999816894531,39.438236236572266,148200
2018-08-27,40.880001068115234,41.86000061035156,40.470001220703125,40.7599983215332,39.5255012512207,107500
2018-08-28,40.849998474121094,40.88999938964844,40.0099983215332,40.540000915527344,39.312164306640625,57000
2018-08-29,40.540000915527344,40.70000076293945,40.18000030517578,40.650001525878906,39.4188346862793,35900
2018-08-30,40.70000076293945,40.880001068115234,40.14500045776367,40.54999923706055,39.32187271118164,31600
2018-08-31,40.52000045776367,40.95000076293945,40.099998474121094,40.52000045776367,39.29277420043945,31500
2018-09-04,40.47999954223633,40.5,40.060001373291016,40.459999084472656,39.234596252441406,35300
2018-09-05,40.40999984741211,40.959999084472656,40.369998931884766,40.95000076293945,39.709754943847656,74900
2018-09-06,41.0,41.29999923706055,40.70000076293945,41.130001068115234,39.88430404663086,63200
2018-09-07,41.15999984741211,41.790000915527344,40.78300094604492,41.33000183105469,40.078243255615234,64000
2018-09-10,41.54999923706055,41.54999923706055,40.84000015258789,41.279998779296875,40.029762268066406,59600
2018-09-11,41.220001220703125,41.4900016784668,40.83000183105469,40.900001525878906,39.66128158569336,31900
2018-09-12,40.83000183105469,40.900001525878906,39.4900016784668,40.099998474121094,38.885494232177734,104200
2018-09-13,40.209999084472656,40.209999084472656,39.415000915527344,39.86000061035156,38.68460464477539,101000
2018-09-14,39.84000015258789,40.0,39.13999938964844,39.20000076293945,38.044063568115234,40300
2018-09-17,39.060001373291016,40.189998626708984,38.970001220703125,39.04999923706055,37.89849090576172,31900
2018-09-18,39.099998474121094,39.349998474121094,38.31999969482422,38.939998626708984,37.79172897338867,55900
2018-09-19,38.93000030517578,39.02000045776367,38.33000183105469,38.709999084472656,37.568511962890625,73500
2018-09-20,38.959999084472656,39.935001373291016,38.720001220703125,39.2400016784668,38.082889556884766,91400
2018-09-21,39.2599983215332,39.5099983215332,38.56999969482422,38.75,37.607337951660156,233600
2018-09-24,38.810001373291016,39.4900016784668,38.369998931884766,38.369998931884766,37.2385368347168,82100
2018-09-25,38.470001220703125,38.58300018310547,37.06999969482422,37.15999984741211,36.0642204284668,66400
2018-09-26,37.2599983215332,37.9900016784668,36.689998626708984,37.099998474121094,36.005985260009766,72800
2018-09-27,37.150001525878906,37.7400016784668,37.099998474121094,37.4900016784668,36.38448715209961,45100
2018-09-28,37.36000061035156,37.70000076293945,37.36000061035156,37.650001525878906,36.53977584838867,25400
2018-10-01,37.77000045776367,37.97999954223633,37.369998931884766,37.63999938964844,36.530067443847656,51100
2018-10-02,37.95000076293945,37.95000076293945,37.470001220703125,37.790000915527344,36.67564392089844,43000
2018-10-03,37.880001068115234,39.150001525878906,37.439998626708984,39.099998474121094,37.947017669677734,44400
2018-10-04,39.02000045776367,39.689998626708984,38.4900016784668,39.20000076293945,38.044063568115234,29900
2018-10-05,39.33000183105469,39.63999938964844,38.9900016784668,39.380001068115234,38.218753814697266,21600
2018-10-08,39.54999923706055,39.7400016784668,39.150001525878906,39.45000076293945,38.28668975830078,25500
2018-10-09,39.470001220703125,39.68000030517578,39.150001525878906,39.220001220703125,38.063472747802734,17300
2018-10-10,39.209999084472656,39.400001525878906,38.560001373291016,38.9900016784668,37.84026336669922,73900
2018-10-11,38.91999816894531,39.25,37.5,37.650001525878906,36.53977584838867,61700
2018-10-12,38.09000015258789,38.16999816894531,36.099998474121094,36.29999923706055,35.229576110839844,162600
2018-10-15,36.33000183105469,36.599998474121094,36.04999923706055,36.45000076293945,35.375160217285156,37900
2018-10-16,36.5,37.75,36.5,37.349998474121094,36.248619079589844,49200
2018-10-17,37.11000061035156,37.70500183105469,36.79999923706055,37.0,35.9089469909668,22200
2018-10-18,36.83000183105469,37.0,36.04999923706055,36.099998474121094,35.03547286987305,66800
2018-10-19,36.04999923706055,36.400001525878906,35.2599983215332,35.369998931884766,34.327003479003906,45900
2018-10-22,35.2400016784668,35.470001220703125,33.40999984741211,33.58000183105469,32.58979415893555,61200
2018-10-23,32.59000015258789,34.380001068115234,27.40999984741211,34.310001373291016,33.29826354980469,156800
2018-10-24,34.310001373291016,34.63199996948242,33.935001373291016,34.005001068115234,33.00225067138672,88000
2018-10-25,33.290000915527344,34.880001068115234,32.099998474121094,34.7599983215332,33.734989166259766,76900
2018-10-26,34.4900016784668,36.2599983215332,34.4900016784668,35.93000030517578,34.8704948425293,65100
2018-10-29,36.369998931884766,36.5,35.29999923706055,36.400001525878906,35.32664108276367,29900
2018-10-30,36.529998779296875,37.27000045776367,36.25,37.189998626708984,36.09333038330078,81600
2018-10-31,37.540000915527344,37.9900016784668,37.25,37.349998474121094,36.248619079589844,44900
2018-11-01,37.5,37.72999954223633,37.150001525878906,37.22999954223633,36.13215637207031,47500
2018-11-02,37.400001525878906,37.5,37.02000045776367,37.220001220703125,36.12245559692383,14100
2018-11-05,37.33000183105469,38.25,37.25,38.22999954223633,37.10266876220703,46300
2018-11-06,38.2599983215332,38.9900016784668,38.2599983215332,38.66999816894531,37.529693603515625,15700
2018-11-07,38.83000183105469,38.939998626708984,37.31999969482422,38.16999816894531,37.04443359375,55300
2018-11-08,37.9900016784668,38.54999923706055,37.029998779296875,37.45000076293945,36.345664978027344,86100
2018-11-09,37.369998931884766,37.84000015258789,36.8849983215332,37.45000076293945,36.345664978027344,70600
2018-11-12,37.34000015258789,37.63999938964844,36.709999084472656,36.72999954223633,35.64690399169922,102700
2018-11-13,36.810001373291016,37.310001373291016,36.31999969482422,36.54999923706055,35.472206115722656,87300
2018-11-14,36.900001525878906,37.209999084472656,35.79999923706055,36.33000183105469,35.258697509765625,113000
2018-11-15,36.22999954223633,38.2400016784668,36.22999954223633,37.63999938964844,36.530067443847656,152400
2018-11-16,37.65999984741211,37.970001220703125,36.689998626708984,37.5,36.39419937133789,67100
2018-11-19,37.45000076293945,37.98500061035156,36.16999816894531,37.220001220703125,36.12245559692383,85900
2018-11-20,37.0,37.5,35.525001525878906,37.189998626708984,36.09333038330078,114900
2018-11-21,37.04999923706055,37.7400016784668,36.5099983215332,37.09000015258789,35.99628448486328,53000
2018-11-23,36.93000030517578,37.75,36.93000030517578,37.56999969482422,36.462135314941406,18600
2018-11-26,37.79999923706055,37.84000015258789,37.09000015258789,37.400001525878906,36.297142028808594,47600
2018-11-27,37.31999969482422,37.56999969482422,36.904998779296875,37.439998626708984,36.33596420288086,36100
2018-11-28,37.59000015258789,38.72999954223633,37.11000061035156,37.83000183105469,36.7144660949707,99200
2018-11-29,37.43000030517578,38.130001068115234,36.43000030517578,37.290000915527344,36.190391540527344,100500
2018-11-30,37.290000915527344,38.099998474121094,37.029998779296875,37.380001068115234,36.277732849121094,195400
2018-12-03,37.560001373291016,37.88999938964844,36.529998779296875,36.9900016784668,35.899234771728516,69400
2018-12-04,36.880001068115234,37.632999420166016,33.755001068115234,34.47999954223633,33.46324920654297,71500
2018-12-06,33.93000030517578,35.11000061035156,33.79999923706055,34.90999984741211,33.88056945800781,133100
2018-12-07,34.81999969482422,36.040000915527344,34.36000061035156,35.36000061035156,34.317298889160156,88700
2018-12-10,35.400001525878906,37.97999954223633,35.25,37.0,35.9089469909668,305500
2018-12-11,36.84000015258789,37.380001068115234,35.97999954223633,36.70000076293945,35.61778259277344,66500
2018-12-12,37.130001068115234,37.5,36.61000061035156,37.33000183105469,36.22921371459961,132100
2018-12-13,37.4900016784668,37.599998474121094,36.790000915527344,37.22999954223633,36.16412353515625,178100
2018-12-14,37.02000045776367,37.150001525878906,36.29999923706055,36.83000183105469,35.77558135986328,122300
2018-12-17,36.70000076293945,37.150001525878906,36.209999084472656,36.59000015258789,35.542442321777344,202100
2018-12-18,36.84000015258789,37.09000015258789,35.709999084472656,36.0099983215332,34.97904968261719,332300
2018-12-19,35.810001373291016,36.0,33.45000076293945,33.75,32.783756256103516,179700
2018-12-20,33.47999954223633,33.75,32.599998474121094,32.66999816894531,31.734676361083984,135300
2018-12-21,32.77000045776367,32.77000045776367,30.549999237060547,32.27000045776367,31.346128463745117,242200
2018-12-24,31.940000534057617,33.29999923706055,31.899999618530273,32.369998931884766,31.44326400756836,32100
2018-12-26,32.38999938964844,33.5099983215332,30.43000030517578,33.400001525878906,32.44377517700195,57600
2018-12-27,32.91999816894531,33.380001068115234,31.760000228881836,33.33000183105469,32.37577438354492,148000
2018-12-28,33.400001525878906,34.834999084472656,33.08000183105469,34.20000076293945,33.22087860107422,55400
2018-12-31,34.36000061035156,35.04999923706055,33.41999816894531,34.08000183105469,33.10430908203125,60000
2019-01-02,34.099998474121094,35.290000915527344,33.560001373291016,35.02000045776367,34.017398834228516,87300
2019-01-03,34.79999923706055,35.40999984741211,34.459999084472656,35.22999954223633,34.22138214111328,53500
2019-01-04,34.810001373291016,36.06999969482422,34.810001373291016,35.880001068115234,34.85277557373047,62400
2019-01-07,35.84000015258789,36.06999969482422,35.25,35.47999954223633,34.46422576904297,66100
2019-01-08,35.790000915527344,35.790000915527344,34.0,35.279998779296875,34.26995849609375,51600
2019-01-09,35.220001220703125,35.7400016784668,34.95500183105469,35.72999954223633,34.70707321166992,34000
2019-01-10,35.41999816894531,35.650001525878906,34.63999938964844,35.27000045776367,34.2602424621582,45600
2019-01-11,35.130001068115234,35.45000076293945,34.755001068115234,34.83000183105469,33.83283615112305,25100
2019-01-14,34.689998626708984,35.08000183105469,34.08000183105469,34.529998779296875,33.541419982910156,35800
2019-01-15,34.43000030517578,35.470001220703125,34.15999984741211,35.18000030517578,34.17280960083008,49000
2019-01-16,35.43000030517578,36.564998626708984,35.244998931884766,35.93000030517578,34.90134811401367,34700
2019-01-17,35.970001220703125,36.279998779296875,35.5099983215332,36.02000045776367,34.98876953125,43500
2019-01-18,35.880001068115234,36.29999923706055,35.400001525878906,36.220001220703125,35.183040618896484,44800
2019-01-22,35.880001068115234,36.3120002746582,35.27000045776367,35.290000915527344,34.2796745300293,21300
2019-01-23,35.189998626708984,35.52000045776367,34.439998626708984,35.15999984741211,34.15338134765625,29700
2019-01-24,35.220001220703125,35.220001220703125,34.22999954223633,34.810001373291016,33.81340408325195,28700
2019-01-25,35.13999938964844,35.29999923706055,34.04999923706055,34.95000076293945,33.94940185546875,201900
2019-01-28,34.77000045776367,34.88999938964844,34.380001068115234,34.66999816894531,33.67741394042969,32900
2019-01-29,34.380001068115234,34.880001068115234,34.34000015258789,34.790000915527344,33.793975830078125,28500
2019-01-30,34.849998474121094,34.849998474121094,33.81999969482422,34.25,33.269439697265625,46900
2019-01-31,34.02000045776367,34.16999816894531,33.11000061035156,34.06999969482422,33.0945930480957,30500
2019-02-01,34.20000076293945,34.77000045776367,33.83000183105469,34.68000030517578,33.687129974365234,813300
2019-02-04,35.0,36.029998779296875,34.70000076293945,35.0,33.99797058105469,89000
2019-02-05,34.849998474121094,35.439998626708984,34.56999969482422,34.939998626708984,33.9396858215332,31900
2019-02-06,34.7599983215332,35.20000076293945,33.79800033569336,34.84000015258789,33.842552185058594,24800
2019-02-07,35.08000183105469,35.34000015258789,34.20000076293945,34.29999923706055,33.3180046081543,27400
2019-02-08,34.189998626708984,34.529998779296875,33.619998931884766,34.08000183105469,33.10430908203125,17000
2019-02-11,34.209999084472656,34.209999084472656,33.689998626708984,34.150001525878906,33.17230987548828,11200
2019-02-12,34.31999969482422,35.09000015258789,33.93000030517578,34.45000076293945,33.463714599609375,24000
2019-02-13,34.279998779296875,34.404998779296875,33.459999084472656,34.119998931884766,33.17494201660156,20100
2019-02-14,33.93000030517578,35.0,33.77000045776367,34.86000061035156,33.89444351196289,31200
2019-02-15,34.91999816894531,36.41999816894531,34.91999816894531,35.5,34.516719818115234,99500
2019-02-19,35.439998626708984,35.77000045776367,34.529998779296875,35.52000045776367,34.536170959472656,99300
2019-02-20,35.58000183105469,35.97999954223633,34.939998626708984,35.90999984741211,34.91536331176758,50000
2019-02-21,35.9900016784668,36.22999954223633,35.18000030517578,35.58000183105469,34.59450912475586,44200
2019-02-22,35.70000076293945,36.11000061035156,35.29999923706055,35.709999084472656,34.72090148925781,43400
2019-02-25,35.939998626708984,35.9900016784668,35.349998474121094,35.5,34.516719818115234,20100
2019-02-26,35.43000030517578,35.63999938964844,34.6150016784668,35.2400016784668,34.26392364501953,28400
2019-02-27,35.22999954223633,36.0099983215332,34.59000015258789,35.95000076293945,34.954261779785156,322300
2019-02-28,36.040000915527344,36.220001220703125,35.61000061035156,36.060001373291016,35.06120681762695,34300
2019-03-01,36.06999969482422,36.06999969482422,34.02199935913086,35.630001068115234,34.64311981201172,46400
2019-03-04,35.77000045776367,36.22999954223633,35.59000015258789,35.75,34.759796142578125,26800
2019-03-05,35.79999923706055,35.939998626708984,35.349998474121094,35.790000915527344,34.79868698120117,22900
2019-03-06,35.7599983215332,36.029998779296875,33.86000061035156,34.16999816894531,33.22356033325195,46200
2019-03-07,34.369998931884766,34.9900016784668,33.959999084472656,34.15999984741211,33.213836669921875,25700
2019-03-08,34.040000915527344,34.43000030517578,33.86000061035156,33.97999954223633,33.038822174072266,18600
2019-03-11,34.150001525878906,34.68000030517578,33.540000915527344,34.43000030517578,33.476356506347656,19000
2019-03-12,34.41999816894531,34.790000915527344,34.0099983215332,34.400001525878906,33.44718933105469,14600
2019-03-13,34.439998626708984,34.93000030517578,34.27000045776367,34.619998931884766,33.66109848022461,30300
2019-03-14,34.61000061035156,34.689998626708984,34.13999938964844,34.439998626708984,33.486083984375,19000
2019-03-15,34.38999938964844,34.84000015258789,34.220001220703125,34.81999969482422,33.85556411743164,87000
2019-03-18,34.68000030517578,35.310001373291016,34.529998779296875,35.220001220703125,34.244476318359375,93700
2019-03-19,35.310001373291016,35.38999938964844,34.472999572753906,35.20000076293945,34.225032806396484,55900
2019-03-20,35.20000076293945,35.20000076293945,33.599998474121094,33.720001220703125,32.78602600097656,48100
2019-03-21,33.540000915527344,34.0099983215332,33.20000076293945,33.380001068115234,32.45543670654297,43800
2019-03-22,33.20000076293945,33.20000076293945,31.68000030517578,32.0,31.113658905029297,62500
2019-03-25,31.989999771118164,32.73500061035156,31.799999237060547,32.31999969482422,31.4247989654541,27300
2019-03-26,32.709999084472656,33.720001220703125,32.189998626708984,33.63999938964844,32.7082405090332,47000
2019-03-27,33.650001525878906,33.86000061035156,33.15999984741211,33.650001525878906,32.71795654296875,37500
2019-03-28,33.63999938964844,33.9900016784668,33.2599983215332,33.9900016784668,33.048545837402344,17900
2019-03-29,34.0,34.27000045776367,33.349998474121094,34.04999923706055,33.10688018798828,36100
2019-04-01,34.18000030517578,34.939998626708984,33.86000061035156,34.28499984741211,33.33537292480469,32600
2019-04-02,34.29999923706055,34.599998474121094,33.375,34.400001525878906,33.44718933105469,37500
2019-04-03,34.70000076293945,34.70000076293945,34.04999923706055,34.470001220703125,33.51525115966797,31200
2019-04-04,34.47999954223633,35.06999969482422,34.084999084472656,34.849998474121094,33.88471984863281,47400
2019-04-05,34.86000061035156,35.380001068115234,34.21500015258789,35.2400016784668,34.26392364501953,40400
2019-04-08,35.20000076293945,35.20000076293945,34.34000015258789,34.61000061035156,33.651371002197266,26000
2019-04-09,34.45000076293945,34.66999816894531,33.689998626708984,33.84000015258789,32.9026985168457,36800
2019-04-10,33.880001068115234,34.599998474121094,33.22999954223633,33.970001220703125,33.02909851074219,82400
2019-04-11,34.06999969482422,34.540000915527344,33.290000915527344,34.41999816894531,33.466636657714844,46300
2019-04-12,34.68000030517578,35.0,34.04999923706055,34.970001220703125,34.00139617919922,59100
2019-04-15,35.0099983215332,35.25,34.29999923706055,34.310001373291016,33.35968017578125,22800
2019-04-16,34.36000061035156,34.814998626708984,33.849998474121094,34.52000045776367,33.56386184692383,37800
2019-04-17,34.400001525878906,34.560001373291016,33.33100128173828,34.4900016784668,33.534690856933594,31800
2019-04-18,34.5,35.2400016784668,34.38999938964844,34.38999938964844,33.437461853027344,50200
2019-04-22,33.900001525878906,34.68000030517578,33.79999923706055,34.060001373291016,33.11661148071289,26000
2019-04-23,33.90999984741211,34.79999923706055,33.56999969482422,34.4900016784668,33.534690856933594,27100
2019-04-24,34.47999954223633,34.69499969482422,33.7599983215332,34.33000183105469,33.37912368774414,18600
2019-04-25,34.43000030517578,35.029998779296875,32.540000915527344,34.709999084472656,33.748600006103516,53500
2019-04-26,34.83000183105469,35.150001525878906,33.900001525878906,35.0,34.03057098388672,35700
2019-04-29,35.0,35.43000030517578,34.54999923706055,35.02000045776367,34.05001449584961,36800
2019-04-30,35.04999923706055,35.275001525878906,34.040000915527344,34.84000015258789,33.8750114440918,44100
2019-05-01,34.650001525878906,35.0,34.0099983215332,34.11000061035156,33.165218353271484,18800
2019-05-02,34.45000076293945,34.54999923706055,33.75,34.380001068115234,33.42774200439453,12500
2019-05-03,34.52000045776367,34.7599983215332,33.974998474121094,34.63999938964844,33.680545806884766,35900
2019-05-06,34.20500183105469,34.97999954223633,34.20000076293945,34.59000015258789,33.631927490234375,18700
2019-05-07,34.380001068115234,34.45000076293945,33.689998626708984,34.099998474121094,33.155494689941406,30400
2019-05-08,34.189998626708984,34.459999084472656,34.069000244140625,34.13999938964844,33.19438934326172,22100
2019-05-09,34.04999923706055,34.18000030517578,33.709999084472656,33.95000076293945,33.0096549987793,10100
2019-05-10,33.88999938964844,34.20000076293945,33.667999267578125,34.189998626708984,33.24300003051758,17600
2019-05-13,33.720001220703125,34.15999984741211,32.7400016784668,33.9900016784668,33.048545837402344,36800
2019-05-14,33.86000061035156,34.599998474121094,33.849998474121094,34.310001373291016,33.35968017578125,24300
2019-05-15,34.209999084472656,34.630001068115234,33.66999816894531,33.779998779296875,32.8443603515625,29300
2019-05-16,33.86000061035156,33.869998931884766,33.25600051879883,33.595001220703125,32.69643020629883,14400
2019-05-17,33.27000045776367,33.869998931884766,33.2599983215332,33.86000061035156,32.95433807373047,23800
2019-05-20,33.619998931884766,33.939998626708984,32.84000015258789,32.84000015258789,31.96161651611328,14800
2019-05-21,33.0,34.16999816894531,32.564998626708984,34.15999984741211,33.246315002441406,37400
2019-05-22,34.099998474121094,34.099998474121094,33.31999969482422,33.54999923706055,32.65262985229492,14700
2019-05-23,33.29999923706055,33.76300048828125,32.71500015258789,33.27000045776367,32.38011932373047,17700
2019-05-24,32.959999084472656,33.73500061035156,32.959999084472656,33.15999984741211,32.2730598449707,14600
2019-05-28,33.099998474121094,33.84000015258789,33.099998474121094,33.22999954223633,32.341190338134766,30600
2019-05-29,33.20000076293945,33.790000915527344,32.9900016784668,33.560001373291016,32.6623649597168,39300
2019-05-30,33.38999938964844,34.11000061035156,33.19900131225586,34.08000183105469,33.16845703125,36400
2019-05-31,33.619998931884766,34.0,33.04999923706055,33.36000061035156,32.467716217041016,44900
2019-06-03,33.22999954223633,33.790000915527344,32.959999084472656,33.279998779296875,32.38985061645508,27600
2019-06-04,33.45000076293945,33.619998931884766,32.77299880981445,33.400001525878906,32.50663757324219,44900
2019-06-05,33.310001373291016,33.95000076293945,33.21500015258789,33.779998779296875,32.8764762878418,28700
2019-06-06,33.689998626708984,33.689998626708984,33.04999923706055,33.540000915527344,32.64289474487305,19900
2019-06-07,33.72999954223633,33.7599983215332,33.125,33.369998931884766,32.47744369506836,17300
2019-06-10,33.47999954223633,34.41999816894531,33.47999954223633,34.029998779296875,33.119789123535156,386600
2019-06-11,33.91999816894531,34.44499969482422,33.369998931884766,33.97999954223633,33.071128845214844,66700
2019-06-12,34.025001525878906,34.2400016784668,33.52000045776367,33.9900016784668,33.08086013793945,39800
2019-06-13,33.900001525878906,34.15999984741211,33.66999816894531,33.66999816894531,32.76941680908203,21500
2019-06-14,33.619998931884766,33.935001373291016,33.36000061035156,33.43000030517578,32.53583908081055,24900
2019-06-17,33.5099983215332,33.900001525878906,33.470001220703125,33.65999984741211,32.75968551635742,30400
2019-06-18,33.56999969482422,33.869998931884766,33.439998626708984,33.84000015258789,32.934871673583984,24400
2019-06-19,33.709999084472656,34.5,33.66999816894531,34.400001525878906,33.47989273071289,43600
2019-06-20,34.38999938964844,34.38999938964844,33.51499938964844,33.9900016784668,33.08086013793945,45000
2019-06-21,33.779998779296875,34.26499938964844,33.59000015258789,34.0,33.0905876159668,76300
2019-06-24,33.959999084472656,34.20000076293945,32.84000015258789,33.09000015258789,32.204933166503906,63000
2019-06-25,32.93000030517578,33.45000076293945,32.625999450683594,33.0,32.11734390258789,56200
2019-06-26,33.029998779296875,33.18000030517578,32.459999084472656,32.54999923706055,31.67937660217285,34500
2019-06-27,32.4900016784668,32.9900016784668,32.4900016784668,32.9900016784668,32.10760498046875,51100
2019-06-28,33.02000045776367,33.45000076293945,32.810001373291016,33.0,32.11734390258789,490600
2019-07-01,33.02000045776367,33.4900016784668,32.84000015258789,33.380001068115234,32.48717498779297,167800
2019-07-02,33.209999084472656,34.369998931884766,33.209999084472656,33.9900016784668,33.08086013793945,85600
2019-07-03,34.0099983215332,34.91999816894531,33.720001220703125,34.689998626708984,33.76213073730469,111700
2019-07-05,34.56999969482422,35.0099983215332,34.5099983215332,34.90999984741211,33.97625732421875,34400
2019-07-08,34.720001220703125,35.0,34.47999954223633,34.849998474121094,33.91785430908203,54600
2019-07-09,34.560001373291016,34.775001525878906,33.0,34.0,33.0905876159668,86400
2019-07-10,34.06999969482422,34.33000183105469,33.529998779296875,34.099998474121094,33.18791580200195,34900
2019-07-11,34.099998474121094,34.33000183105469,33.50899887084961,33.900001525878906,32.99327087402344,55500
2019-07-12,33.84000015258789,34.529998779296875,33.84000015258789,34.41999816894531,33.499359130859375,50800
2019-07-15,34.52000045776367,34.72999954223633,33.840999603271484,34.209999084472656,33.29497528076172,87300
2019-07-16,34.34000015258789,34.5,33.86000061035156,33.91999816894531,33.012733459472656,39100
2019-07-17,33.88999938964844,34.04999923706055,33.439998626708984,33.439998626708984,32.54556655883789,62500
2019-07-18,33.439998626708984,34.79999923706055,33.439998626708984,34.5099983215332,33.586952209472656,44400
2019-07-19,34.29999923706055,34.70000076293945,33.994998931884766,34.33000183105469,33.41176223754883,36700
2019-07-22,34.33000183105469,34.56999969482422,33.880001068115234,34.15999984741211,33.246315002441406,20800
2019-07-23,34.15999984741211,34.69499969482422,33.93000030517578,34.5,33.57722091674805,43200
2019-07-24,34.4900016784668,35.7400016784668,34.470001220703125,35.560001373291016,34.60886764526367,101000
2019-07-25,33.970001220703125,34.54999923706055,33.56999969482422,33.79999923706055,32.89594268798828,89100
2019-07-26,33.66999816894531,34.15999984741211,33.46799850463867,33.90999984741211,33.002994537353516,84100
2019-07-29,33.90999984741211,34.400001525878906,33.79999923706055,34.20000076293945,33.28524398803711,108200
2019-07-30,34.04999923706055,35.130001068115234,33.76599884033203,34.95000076293945,34.01518249511719,48900
2019-07-31,34.880001068115234,35.849998474121094,33.5,34.810001373291016,33.878929138183594,1584500
2019-08-01,34.880001068115234,35.39400100708008,33.83300018310547,34.060001373291016,33.14899444580078,60500
2019-08-02,33.84000015258789,34.4900016784668,33.5099983215332,33.779998779296875,32.8764762878418,80700
2019-08-05,33.31999969482422,33.31999969482422,32.5099983215332,32.90999984741211,32.02974319458008,71200
2019-08-06,33.0099983215332,33.5,32.375,32.95000076293945,32.06867980957031,77900
2019-08-07,32.63999938964844,33.45000076293945,32.19499969482422,32.290000915527344,31.426328659057617,66300
2019-08-08,32.45000076293945,33.25,32.45000076293945,32.849998474121094,31.971349716186523,65900
2019-08-09,32.790000915527344,33.400001525878906,32.7400016784668,33.0,32.11734390258789,34100
2019-08-12,32.810001373291016,33.310001373291016,32.540000915527344,32.84000015258789,31.96161651611328,29100
2019-08-13,32.75,33.61000061035156,32.75,33.2400016784668,32.35091781616211,32500
2019-08-14,32.810001373291016,33.20000076293945,32.400001525878906,32.63999938964844,31.7669677734375,25900
2019-08-15,32.52000045776367,32.849998474121094,31.799999237060547,32.04999923706055,31.281883239746094,55000
2019-08-16,32.13999938964844,32.56999969482422,31.940000534057617,32.40999984741211,31.633251190185547,47500
2019-08-19,32.70000076293945,33.0,32.279998779296875,32.439998626708984,31.66253089904785,60700
2019-08-20,32.31999969482422,33.0,31.829999923706055,32.09000015258789,31.3209228515625,26600
2019-08-21,32.2400016784668,32.81999969482422,32.150001525878906,32.540000915527344,31.760135650634766,35200
2019-08-22,32.630001068115234,33.189998626708984,32.369998931884766,32.5099983215332,31.730852127075195,33100
2019-08-23,32.369998931884766,32.84000015258789,31.739999771118164,32.189998626708984,31.41852378845215,167200
2019-08-26,32.470001220703125,32.84000015258789,32.16999816894531,32.66999816894531,31.887022018432617,52800
2019-08-27,32.720001220703125,32.9900016784668,31.520000457763672,31.65999984741211,30.901226043701172,64300
2019-08-28,31.610000610351562,32.5099983215332,31.540000915527344,31.93000030517578,31.164758682250977,39400
2019-08-29,31.579999923706055,32.099998474121094,31.110000610351562,31.829999923706055,31.06715202331543,50700
2019-08-30,32.11000061035156,32.22999954223633,31.829999923706055,32.040000915527344,31.272119522094727,49700
2019-09-03,32.0099983215332,32.040000915527344,31.31999969482422,31.389999389648438,30.6377010345459,41200
2019-09-04,31.68000030517578,31.825000762939453,30.850000381469727,31.440000534057617,30.686500549316406,38100
2019-09-05,31.790000915527344,32.619998931884766,31.510000228881836,31.940000534057617,31.174518585205078,66300
2019-09-06,32.060001373291016,32.5,31.594999313354492,31.959999084472656,31.19403839111328,31700
2019-09-09,32.099998474121094,34.94499969482422,32.099998474121094,34.06999969482422,33.25346374511719,292700
2019-09-10,33.93000030517578,34.790000915527344,33.900001525878906,34.2599983215332,33.43891143798828,114100
2019-09-11,34.439998626708984,35.2400016784668,33.90999984741211,35.18000030517578,34.33686447143555,99800
2019-09-12,35.04999923706055,35.77000045776367,34.79999923706055,35.130001068115234,34.288063049316406,180700
2019-09-13,35.290000915527344,35.7400016784668,34.96500015258789,35.130001068115234,34.288063049316406,139100
2019-09-16,35.029998779296875,35.25,34.70000076293945,35.119998931884766,34.27830123901367,135400
2019-09-17,35.08000183105469,35.189998626708984,34.53799819946289,35.060001373291016,34.21974563598633,128200
2019-09-18,35.06999969482422,35.314998626708984,34.66999816894531,35.040000915527344,34.200225830078125,142900
2019-09-19,35.099998474121094,35.209999084472656,34.88999938964844,34.959999084472656,34.12213897705078,111200
2019-09-20,34.900001525878906,35.5099983215332,33.869998931884766,33.869998931884766,33.058258056640625,878300
2019-09-23,34.04999923706055,35.150001525878906,33.290000915527344,35.08000183105469,34.23926544189453,98300
2019-09-24,35.0,35.119998931884766,33.83000183105469,34.130001068115234,33.31203842163086,58600
2019-09-25,34.189998626708984,34.95000076293945,33.9900016784668,34.66999816894531,33.839080810546875,51400
2019-09-26,34.52000045776367,34.75,33.95000076293945,34.029998779296875,33.21442794799805,32200
2019-09-27,34.09000015258789,34.560001373291016,33.70199966430664,33.88999938964844,33.07777786254883,32400
2019-09-30,33.81999969482422,34.064998626708984,33.459999084472656,33.7400016784668,32.9313850402832,65000
2019-10-01,33.84000015258789,34.130001068115234,32.959999084472656,32.97999954223633,32.18959045410156,78300
2019-10-02,32.810001373291016,32.939998626708984,32.2599983215332,32.79999923706055,32.0139045715332,56900
2019-10-03,32.619998931884766,32.70000076293945,31.780000686645508,32.40999984741211,31.633251190185547,40500
2019-10-04,32.31999969482422,32.71500015258789,32.04999923706055,32.540000915527344,31.760135650634766,21500
2019-10-07,32.38999938964844,33.04999923706055,32.15999984741211,32.349998474121094,31.574689865112305,40700
2019-10-08,32.11000061035156,32.255001068115234,31.809999465942383,31.920000076293945,31.15499496459961,31100
2019-10-09,32.029998779296875,32.20000076293945,31.770000457763672,31.889999389648438,31.125713348388672,34400
2019-10-10,31.979999542236328,32.099998474121094,31.56999969482422,31.829999923706055,31.06715202331543,34500
2019-10-11,31.989999771118164,32.540000915527344,31.610000610351562,32.09000015258789,31.3209228515625,46400
2019-10-14,31.969999313354492,32.38399887084961,31.68000030517578,32.060001373291016,31.291643142700195,16500
2019-10-15,32.150001525878906,33.369998931884766,32.060001373291016,32.66999816894531,31.887022018432617,46100
2019-10-16,32.619998931884766,33.220001220703125,32.5099983215332,32.869998931884766,32.08222579956055,21900
2019-10-17,32.95000076293945,33.130001068115234,32.650001525878906,33.0099983215332,32.218875885009766,20900
2019-10-18,32.84000015258789,33.369998931884766,32.84000015258789,33.2599983215332,32.4628791809082,46500
2019-10-21,33.560001373291016,33.994998931884766,33.400001525878906,33.459999084472656,32.6580924987793,36400
2019-10-22,33.34000015258789,33.59000015258789,33.0,33.13999938964844,32.34575653076172,33900
2019-10-23,33.08000183105469,33.41999816894531,33.04999923706055,33.41999816894531,32.61904525756836,16100
2019-10-24,33.9900016784668,34.65999984741211,33.404998779296875,34.189998626708984,33.37059020996094,67100
2019-10-25,34.54999923706055,35.400001525878906,34.150001525878906,34.869998931884766,34.034297943115234,76000
2019-10-28,34.90999984741211,35.400001525878906,34.65999984741211,35.130001068115234,34.288063049316406,89500
2019-10-29,34.970001220703125,35.150001525878906,34.70000076293945,34.869998931884766,34.034297943115234,31200
2019-10-30,34.79999923706055,34.9900016784668,34.63999938964844,34.75,33.91717529296875,24100
2019-10-31,34.63999938964844,35.400001525878906,34.176998138427734,35.189998626708984,34.34662628173828,90200
2019-11-01,35.189998626708984,35.369998931884766,34.810001373291016,35.09000015258789,34.2490234375,37600
2019-11-04,35.20000076293945,35.47999954223633,34.91999816894531,35.189998626708984,34.34662628173828,41500
2019-11-05,35.31999969482422,35.599998474121094,34.88999938964844,35.43000030517578,34.58087158203125,64600
2019-11-06,35.279998779296875,35.47999954223633,35.11000061035156,35.400001525878906,34.551597595214844,41500
2019-11-07,35.529998779296875,35.88999938964844,35.310001373291016,35.439998626708984,34.590633392333984,35800
2019-11-08,35.349998474121094,35.70000076293945,35.279998779296875,35.529998779296875,34.6784782409668,20500
2019-11-11,35.369998931884766,35.70000076293945,35.09000015258789,35.66999816894531,34.815120697021484,16200
2019-11-12,35.65999984741211,35.70000076293945,35.22999954223633,35.40999984741211,34.56134796142578,39900
2019-11-13,35.2599983215332,35.400001525878906,34.869998931884766,34.90999984741211,34.07333755493164,23600
2019-11-14,34.650001525878906,35.125,34.59000015258789,34.849998474121094,34.105628967285156,20000
2019-11-15,35.099998474121094,35.099998474121094,34.5,34.810001373291016,34.06648635864258,29000
2019-11-18,34.720001220703125,35.20000076293945,34.720001220703125,35.02000045776367,34.27199935913086,26300
2019-11-19,35.060001373291016,35.400001525878906,34.869998931884766,35.349998474121094,34.59495162963867,33700
2019-11-20,35.2599983215332,35.70000076293945,35.029998779296875,35.2599983215332,34.50687789916992,57000
2019-11-21,35.11000061035156,35.25,34.63999938964844,35.02000045776367,34.27199935913086,55800
2019-11-22,35.220001220703125,35.220001220703125,34.849998474121094,34.97999954223633,34.23285675048828,11900
2019-11-25,35.0099983215332,35.959999084472656,34.970001220703125,35.869998931884766,35.103843688964844,39200
2019-11-26,35.86000061035156,36.0,35.439998626708984,35.7599983215332,34.99619674682617,29900
2019-11-27,35.83000183105469,36.03499984741211,35.689998626708984,35.83000183105469,35.064701080322266,25400
2019-11-29,35.77000045776367,36.05500030517578,35.02000045776367,35.66999816894531,34.90811538696289,22600
2019-12-02,35.52000045776367,35.75,35.150001525878906,35.27000045776367,34.516658782958984,22300
2019-12-03,35.28499984741211,35.28499984741211,34.560001373291016,34.849998474121094,34.105628967285156,18100
2019-12-04,35.02000045776367,35.470001220703125,34.79499816894531,35.040000915527344,34.29157638549805,24900
2019-12-05,34.47999954223633,35.56999969482422,34.47999954223633,35.369998931884766,34.614524841308594,18300
2019-12-06,35.66999816894531,36.439998626708984,35.66999816894531,36.34000015258789,35.56380844116211,43600
2019-12-09,36.25,36.310001373291016,35.83000183105469,36.15999984741211,35.38764953613281,42500
2019-12-10,36.189998626708984,36.5,36.0,36.4900016784668,35.71060562133789,23800
2019-12-11,36.47999954223633,36.5,36.09000015258789,36.45000076293945,35.67145919799805,18200
2019-12-12,36.88999938964844,37.45500183105469,36.540000915527344,36.95000076293945,36.1607780456543,66500
2019-12-13,36.93000030517578,37.25,36.5,37.2400016784668,36.444580078125,39900
2019-12-16,37.25,37.56999969482422,36.97999954223633,37.15999984741211,36.36629104614258,59400
2019-12-17,37.150001525878906,37.52000045776367,36.77199935913086,37.45000076293945,36.65010452270508,55100
2019-12-18,37.540000915527344,37.720001220703125,37.03900146484375,37.529998779296875,36.728389739990234,36000
2019-12-19,37.70000076293945,37.83000183105469,37.5,37.779998779296875,36.973045349121094,44900
2019-12-20,37.880001068115234,38.13999938964844,37.689998626708984,38.0,37.188350677490234,137900
2019-12-23,37.900001525878906,37.900001525878906,37.52000045776367,37.75,36.94369125366211,29500
2019-12-24,37.709999084472656,37.709999084472656,37.349998474121094,37.459999084472656,36.659881591796875,15500
2019-12-26,37.5,37.5,37.0,37.16999816894531,36.37607955932617,36000
2019-12-27,37.0099983215332,37.15999984741211,36.56999969482422,37.060001373291016,36.26842498779297,29600
2019-12-30,37.2400016784668,37.5,37.2400016784668,37.459999084472656,36.659881591796875,17800
2019-12-31,37.459999084472656,38.0,37.13999938964844,37.84000015258789,37.03176498413086,38400
2020-01-02,37.7400016784668,37.7400016784668,36.86000061035156,37.15999984741211,36.36629104614258,33700
2020-01-03,36.77000045776367,37.13999938964844,36.52000045776367,37.09000015258789,36.297786712646484,25800
2020-01-06,36.66999816894531,37.31999969482422,36.54999923706055,36.900001525878906,36.111846923828125,39900
2020-01-07,36.849998474121094,37.380001068115234,36.849998474121094,37.18000030517578,36.3858642578125,26300
2020-01-08,37.20000076293945,37.470001220703125,36.869998931884766,37.16999816894531,36.37607955932617,38100
2020-01-09,37.11000061035156,37.349998474121094,37.11000061035156,37.2599983215332,36.464149475097656,39100
2020-01-10,37.150001525878906,37.400001525878906,37.0,37.099998474121094,36.30757141113281,54800
2020-01-13,37.099998474121094,37.529998779296875,36.0,37.400001525878906,36.60116958618164,46600
2020-01-14,37.2400016784668,37.2400016784668,36.459999084472656,36.54999923706055,35.769317626953125,48900
2020-01-15,36.47999954223633,36.790000915527344,36.04999923706055,36.459999084472656,35.68124008178711,40800
2020-01-16,36.77000045776367,37.04999923706055,36.70000076293945,36.959999084472656,36.170562744140625,23200
2020-01-17,37.25,37.25,36.619998931884766,36.66999816894531,35.886756896972656,26100
2020-01-21,36.150001525878906,36.45000076293945,35.9900016784668,36.099998474121094,35.32892608642578,38500
2020-01-22,36.349998474121094,36.400001525878906,35.854000091552734,36.400001525878906,35.62252426147461,35100
2020-01-23,35.130001068115234,35.84000015258789,33.0099983215332,35.59000015258789,34.82982635498047,51500
2020-01-24,35.40999984741211,35.5,34.959999084472656,35.2599983215332,34.50687789916992,42300
2020-01-27,34.7400016784668,35.75,34.7400016784668,35.5,34.74174499511719,30400
2020-01-28,35.709999084472656,35.974998474121094,35.5,35.54999923706055,34.790679931640625,32300
2020-01-29,35.54999923706055,35.81999969482422,35.5,35.52000045776367,34.761322021484375,40300
2020-01-30,35.5,35.75,35.27000045776367,35.70000076293945,34.937477111816406,28900
2020-01-31,35.5099983215332,35.7400016784668,35.15999984741211,35.2400016784668,34.4873046875,60300
2020-02-03,35.400001525878906,35.619998931884766,35.29999923706055,35.56999969482422,34.81025314331055,22400
2020-02-04,35.959999084472656,36.0,35.58000183105469,35.650001525878906,34.88854217529297,21100
2020-02-05,35.9900016784668,36.68000030517578,35.93000030517578,36.41999816894531,35.64209747314453,25000
2020-02-06,36.5,36.5,35.7599983215332,35.849998474121094,35.084266662597656,21800
2020-02-07,35.83000183105469,35.93000030517578,35.4900016784668,35.689998626708984,34.92768859863281,17400
2020-02-10,35.459999084472656,35.959999084472656,35.459999084472656,35.88999938964844,35.12342071533203,15500
2020-02-11,35.95000076293945,36.310001373291016,35.63999938964844,35.91999816894531,35.152774810791016,23300
2020-02-12,36.04999923706055,36.38999938964844,35.650001525878906,35.77000045776367,35.0059814453125,9700
2020-02-13,35.630001068115234,36.02000045776367,35.27000045776367,35.970001220703125,35.29347229003906,12800
2020-02-14,35.97999954223633,36.22999954223633,35.32500076293945,35.459999084472656,34.793060302734375,18400
2020-02-18,35.400001525878906,35.65999984741211,35.112998962402344,35.290000915527344,34.62626266479492,7100
2020-02-19,35.349998474121094,35.560001373291016,34.86800003051758,35.060001373291016,34.40058898925781,22300
2020-02-20,35.04999923706055,35.58000183105469,34.810001373291016,35.349998474121094,34.68513107299805,19100
2020-02-21,35.43000030517578,35.76499938964844,35.224998474121094,35.59000015258789,34.920616149902344,18100
2020-02-24,34.91999816894531,35.849998474121094,34.65999984741211,35.13999938964844,34.47908020019531,38300
2020-02-25,35.150001525878906,35.25,33.400001525878906,33.599998474121094,32.96804428100586,40400
2020-02-26,33.779998779296875,34.08000183105469,31.90999984741211,32.7599983215332,32.14384078979492,39800
2020-02-27,32.5099983215332,33.369998931884766,30.829999923706055,30.829999923706055,30.250144958496094,30100
2020-02-28,30.209999084472656,32.25,29.139999389648438,30.239999771118164,29.671241760253906,56000
2020-03-02,30.06999969482422,31.46500015258789,29.700000762939453,31.219999313354492,30.632810592651367,40000
2020-03-03,31.219999313354492,31.700000762939453,29.270000457763672,30.420000076293945,29.847856521606445,116700
2020-03-04,30.690000534057617,30.899999618530273,30.19499969482422,30.5,29.926349639892578,109000
2020-03-05,30.3700008392334,30.3700008392334,28.75,29.239999771118164,28.690052032470703,55800
2020-03-06,28.34000015258789,28.639999389648438,27.25,28.450000762939453,27.91490936279297,32700
2020-03-09,26.670000076293945,27.847000122070312,25.204999923706055,25.579999923706055,25.098886489868164,60600
2020-03-10,26.059999465942383,26.540000915527344,22.459999084472656,24.860000610351562,24.39242935180664,116300
2020-03-11,24.170000076293945,25.1299991607666,24.09000015258789,24.510000228881836,24.04901123046875,44400
2020-03-12,23.059999465942383,24.0,21.969999313354492,22.329999923706055,21.910015106201172,89900
2020-03-13,23.3799991607666,24.190000534057617,22.93000030517578,24.190000534057617,23.735031127929688,108800
2020-03-16,22.0,24.940000534057617,20.670000076293945,21.149999618530273,20.752206802368164,79000
2020-03-17,21.260000228881836,23.049999237060547,20.850000381469727,21.0,20.60502815246582,215600
2020-03-18,19.8799991607666,20.6200008392334,17.290000915527344,19.18000030517578,18.819259643554688,57600
2020-03-19,19.059999465942383,22.90999984741211,16.674999237060547,22.040000915527344,21.625471115112305,107200
2020-03-20,22.049999237060547,22.049999237060547,18.770000457763672,19.149999618530273,18.789823532104492,92100
2020-03-23,19.25,20.3700008392334,17.850000381469727,19.170000076293945,18.809446334838867,64300
2020-03-24,19.729999542236328,20.360000610351562,19.40999984741211,19.5,19.13323974609375,122200
2020-03-25,19.15999984741211,20.229999542236328,19.15999984741211,19.59000015258789,19.221548080444336,60000
2020-03-26,19.760000228881836,20.43000030517578,19.6560001373291,20.309999465942383,19.92800521850586,81400
2020-03-27,19.489999771118164,20.5,19.079999923706055,19.270000457763672,18.907567977905273,33900
2020-03-30,19.3799991607666,19.989999771118164,19.0,19.3799991607666,19.0154972076416,111600
2020-03-31,19.290000915527344,21.21500015258789,19.049999237060547,20.25,19.869136810302734,96400
2020-04-01,19.40999984741211,20.975000381469727,19.149999618530273,19.350000381469727,18.98606300354004,67200
2020-04-02,19.309999465942383,20.020000457763672,19.25,19.5,19.13323974609375,110500
2020-04-03,19.56999969482422,20.700000762939453,19.18000030517578,19.610000610351562,19.241172790527344,43500
2020-04-06,20.0,22.3700008392334,19.3700008392334,20.079999923706055,19.702329635620117,83800
2020-04-07,20.0,20.75,19.520000457763672,19.920000076293945,19.54534339904785,55900
2020-04-08,20.0,20.614999771118164,19.760000228881836,20.450000762939453,20.06537437438965,52400
2020-04-09,20.25,22.040000915527344,20.25,21.809999465942383,21.399791717529297,83900
2020-04-13,21.59000015258789,22.0,20.639999389648438,21.5,21.095624923706055,53700
2020-04-14,21.5,21.514999389648438,20.915000915527344,21.190000534057617,20.79145622253418,50500
2020-04-15,20.399999618530273,21.280000686645508,20.15999984741211,20.170000076293945,19.790639877319336,62300
2020-04-16,20.040000915527344,20.040000915527344,17.649999618530273,18.469999313354492,18.12261390686035,74000
2020-04-17,19.030000686645508,20.93000030517578,19.030000686645508,20.600000381469727,20.21255111694336,71300
2020-04-20,19.989999771118164,21.729999542236328,19.139999389648438,19.559999465942383,19.192113876342773,44300
2020-04-21,18.81999969482422,21.024999618530273,18.81999969482422,19.440000534057617,19.074371337890625,30900
2020-04-22,19.799999237060547,20.239999771118164,19.399999618530273,19.649999618530273,19.280420303344727,36900
2020-04-23,19.649999618530273,20.850000381469727,19.399999618530273,20.25,19.869136810302734,65800
2020-04-24,20.049999237060547,20.049999237060547,19.350000381469727,19.610000610351562,19.241172790527344,26200
2020-04-27,19.8799991607666,21.889999389648438,19.8799991607666,21.540000915527344,21.134872436523438,47700
2020-04-28,22.0,22.0,21.270000457763672,21.850000381469727,21.439043045043945,74000
2020-04-29,22.0,24.264999389648438,21.820999145507812,23.450000762939453,23.008947372436523,92900
2020-04-30,22.709999084472656,22.950000762939453,21.940000534057617,22.290000915527344,21.870765686035156,50800
2020-05-01,21.799999237060547,21.799999237060547,20.479999542236328,21.360000610351562,20.95825958251953,64100
2020-05-04,21.15999984741211,21.764999389648438,20.729999542236328,21.25,20.850324630737305,50300
2020-05-05,21.690000534057617,21.690000534057617,19.950000762939453,20.020000457763672,19.64345932006836,34400
2020-05-06,20.15999984741211,20.229999542236328,18.700000762939453,19.079999923706055,18.721139907836914,54600
2020-05-07,19.239999771118164,20.239999771118164,18.780000686645508,19.290000915527344,18.92719268798828,45100
2020-05-08,19.860000610351562,21.510000228881836,19.860000610351562,20.610000610351562,20.22236442565918,58900
2020-05-11,20.25,20.899999618530273,19.1200008392334,19.3799991607666,19.0154972076416,59200
2020-05-12,19.510000228881836,19.510000228881836,18.079999923706055,18.190000534057617,17.84787940979004,49300
2020-05-13,18.15999984741211,18.8700008392334,17.34000015258789,17.850000381469727,17.514272689819336,76000
2020-05-14,17.290000915527344,17.290000915527344,15.979999542236328,17.229999542236328,16.994478225708008,126900
2020-05-15,17.200000762939453,18.440000534057617,17.020000457763672,18.15999984741211,17.91176414489746,50700
2020-05-18,19.020000457763672,19.850000381469727,18.489999771118164,19.75,19.480031967163086,87100
2020-05-19,19.510000228881836,19.510000228881836,18.049999237060547,18.200000762939453,17.951221466064453,41600
2020-05-20,18.5,19.549999237060547,18.420000076293945,19.459999084472656,19.19399642944336,72700
2020-05-21,19.440000534057617,19.59000015258789,18.954999923706055,19.040000915527344,18.779739379882812,45400
2020-05-22,19.239999771118164,19.440000534057617,18.229999542236328,18.56999969482422,18.316162109375,93700
2020-05-26,19.25,21.389999389648438,18.889999389648438,20.239999771118164,19.963335037231445,116500
2020-05-27,20.979999542236328,22.684999465942383,20.829999923706055,22.559999465942383,22.251619338989258,64100
2020-05-28,22.75,22.75,20.850000381469727,21.139999389648438,20.851030349731445,53000
2020-05-29,20.8799991607666,21.899999618530273,20.329999923706055,20.860000610351562,20.574859619140625,117200
2020-06-01,21.079999923706055,21.079999923706055,19.93000030517578,20.010000228881836,19.736478805541992,56900
2020-06-02,20.3700008392334,20.514999389648438,19.389999389648438,19.780000686645508,19.509620666503906,98000
2020-06-03,20.3700008392334,20.959999084472656,19.780000686645508,20.360000610351562,20.081693649291992,123600
2020-06-04,20.200000762939453,21.670000076293945,20.200000762939453,21.649999618530273,21.354061126708984,80300
2020-06-05,23.059999465942383,23.850000381469727,22.600000381469727,23.040000915527344,22.725061416625977,101000
2020-06-08,23.299999237060547,23.584999084472656,22.899999618530273,23.459999084472656,23.13931655883789,61100
2020-06-09,22.850000381469727,23.719999313354492,22.479999542236328,23.020000457763672,22.70533561706543,49500
2020-06-10,22.989999771118164,22.989999771118164,21.350000381469727,21.440000534057617,21.146930694580078,50300
2020-06-11,20.950000762939453,20.950000762939453,20.03499984741211,20.309999465942383,20.032377243041992,94700
2020-06-12,21.34000015258789,21.34000015258789,19.540000915527344,20.34000015258789,20.061965942382812,71700
2020-06-15,19.440000534057617,22.100000381469727,19.440000534057617,21.860000610351562,21.561189651489258,123800
2020-06-16,22.790000915527344,23.389999389648438,21.780000686645508,21.8799991607666,21.580913543701172,78800
2020-06-17,21.8799991607666,21.8799991607666,20.639999389648438,20.920000076293945,20.6340389251709,52800
2020-06-18,20.56999969482422,21.68000030517578,20.56999969482422,21.530000686645508,21.235700607299805,99400
2020-06-19,21.84000015258789,21.84000015258789,21.0,21.239999771118164,20.949663162231445,108400
2020-06-22,21.079999923706055,21.854999542236328,20.850000381469727,21.3799991607666,21.087751388549805,74100
2020-06-23,21.799999237060547,22.364999771118164,21.15999984741211,21.809999465942383,21.511873245239258,92200
2020-06-24,21.3700008392334,21.825000762939453,20.649999618530273,20.860000610351562,20.574859619140625,96500
2020-06-25,20.6299991607666,21.735000610351562,20.479999542236328,21.229999542236328,20.939800262451172,65600
2020-06-26,21.229999542236328,21.229999542236328,20.030000686645508,20.260000228881836,19.983060836791992,386300
2020-06-29,20.670000076293945,21.469999313354492,20.6200008392334,21.200000762939453,20.91021156311035,86200
2020-06-30,20.920000076293945,22.280000686645508,20.920000076293945,22.0,21.699275970458984,77600
2020-07-01,21.84000015258789,22.030000686645508,20.360000610351562,20.65999984741211,20.377592086791992,72500
2020-07-02,21.31999969482422,21.31999969482422,20.3799991607666,20.469999313354492,20.190187454223633,33500
2020-07-06,21.09000015258789,21.280000686645508,20.440000534057617,20.610000610351562,20.328277587890625,38900
2020-07-07,20.350000381469727,20.350000381469727,19.6200008392334,19.790000915527344,19.519485473632812,38000
2020-07-08,19.670000076293945,20.492000579833984,19.139999389648438,19.350000381469727,19.085500717163086,77400
2020-07-09,19.18000030517578,19.350000381469727,18.1200008392334,18.219999313354492,17.970945358276367,66200
2020-07-10,18.440000534057617,19.270000457763672,18.360000610351562,19.139999389648438,18.87837028503418,59300
2020-07-13,19.510000228881836,20.3799991607666,18.864999771118164,19.59000015258789,19.322219848632812,61900
2020-07-14,19.489999771118164,20.290000915527344,19.385000228881836,19.739999771118164,19.470169067382812,71600
2020-07-15,20.350000381469727,21.719999313354492,20.350000381469727,21.350000381469727,21.058162689208984,132000
2020-07-16,21.389999389648438,21.5,20.600000381469727,20.989999771118164,20.703083038330078,43500
2020-07-17,20.850000381469727,21.079999923706055,20.31999969482422,20.399999618530273,20.12114715576172,44700
2020-07-20,20.18000030517578,20.31999969482422,19.889999389648438,19.889999389648438,19.618118286132812,20000
2020-07-21,20.170000076293945,21.280000686645508,20.170000076293945,21.110000610351562,20.821441650390625,35200
2020-07-22,20.75,20.93000030517578,20.270000457763672,20.780000686645508,20.495954513549805,46800
2020-07-23,20.920000076293945,22.309999465942383,20.920000076293945,22.110000610351562,21.80777359008789,70600
2020-07-24,22.270000457763672,22.84000015258789,22.270000457763672,22.420000076293945,22.113534927368164,50600
2020-07-27,22.399999618530273,23.1200008392334,22.0,23.049999237060547,22.73492431640625,55200
2020-07-28,22.93000030517578,23.459999084472656,22.604999542236328,23.239999771118164,22.922325134277344,41400
2020-07-29,23.149999618530273,24.149999618530273,23.030000686645508,24.010000228881836,23.681800842285156,80200
2020-07-30,23.510000228881836,24.510000228881836,23.18000030517578,24.3700008392334,24.036880493164062,102600
2020-07-31,24.299999237060547,24.469999313354492,23.6200008392334,23.739999771118164,23.415491104125977,116200
2020-08-03,23.760000228881836,24.56999969482422,22.950000762939453,23.040000915527344,22.725061416625977,59200
2020-08-04,23.0,23.100000381469727,22.239999771118164,22.459999084472656,22.15298843383789,36200
2020-08-05,22.81999969482422,23.639999389648438,22.450000762939453,23.540000915527344,23.218225479125977,47400
2020-08-06,23.43000030517578,23.90999984741211,23.059999465942383,23.739999771118164,23.415491104125977,37400
2020-08-07,23.709999084472656,24.920000076293945,23.329999923706055,24.920000076293945,24.579362869262695,36100
2020-08-10,25.0,25.625999450683594,24.399999618530273,24.940000534057617,24.599088668823242,74200
2020-08-11,25.5,26.059999465942383,24.770000457763672,24.790000915527344,24.451139450073242,81200
2020-08-12,25.3700008392334,25.479999542236328,24.670000076293945,24.989999771118164,24.648405075073242,36600
2020-08-13,24.690000534057617,24.760000228881836,24.1200008392334,24.329999923706055,24.087064743041992,15700
2020-08-14,24.049999237060547,24.860000610351562,24.049999237060547,24.690000534057617,24.443471908569336,32400
2020-08-17,24.540000915527344,24.81999969482422,24.239999771118164,24.540000915527344,24.294971466064453,39000
2020-08-18,24.420000076293945,24.420000076293945,23.299999237060547,23.639999389648438,23.403953552246094,31900
2020-08-19,23.68000030517578,24.260000228881836,23.510000228881836,23.850000381469727,23.611858367919922,27600
2020-08-20,23.389999389648438,23.709999084472656,23.1200008392334,23.360000610351562,23.126752853393555,19800
2020-08-21,23.299999237060547,23.299999237060547,22.770000457763672,23.059999465942383,22.82974624633789,26900
2020-08-24,23.40999984741211,23.950000762939453,22.8799991607666,23.940000534057617,23.700960159301758,28800
2020-08-25,24.239999771118164,24.34000015258789,23.6200008392334,24.079999923706055,23.839561462402344,24500
2020-08-26,24.040000915527344,24.040000915527344,23.43000030517578,23.5,23.265352249145508,22400
2020-08-27,23.5,24.280000686645508,23.5,24.18000030517578,23.938566207885742,18900
2020-08-28,24.469999313354492,24.559999465942383,23.163000106811523,23.75,23.51285743713379,38000
2020-08-31,23.6200008392334,24.975000381469727,23.6200008392334,23.68000030517578,23.443557739257812,47900
2020-09-01,23.59000015258789,25.790000915527344,23.479999542236328,23.90999984741211,23.671260833740234,37200
2020-09-02,23.770000457763672,24.190000534057617,23.68000030517578,23.920000076293945,23.6811580657959,29100
2020-09-03,25.25,25.815000534057617,24.190000534057617,24.389999389648438,24.146467208862305,42400
2020-09-04,25.079999923706055,25.5,24.204999923706055,25.139999389648438,24.888978958129883,64600
2020-09-08,25.059999465942383,25.059999465942383,23.40999984741211,23.56999969482422,23.33465576171875,34000
2020-09-09,24.020000457763672,24.040000915527344,23.25,23.389999389648438,23.156452178955078,37700
2020-09-10,23.889999389648438,23.889999389648438,22.829999923706055,22.829999923706055,22.60204315185547,29700
2020-09-11,22.84000015258789,22.84000015258789,22.25,22.360000610351562,22.136737823486328,41700
2020-09-14,22.450000762939453,23.389999389648438,20.209999084472656,23.31999969482422,23.08715057373047,69300
2020-09-15,22.6200008392334,22.6200008392334,21.530000686645508,21.670000076293945,21.45362663269043,44700
2020-09-16,21.770000457763672,22.649999618530273,21.690000534057617,22.25,22.027835845947266,31000
2020-09-17,21.889999389648438,22.299999237060547,21.68000030517578,21.739999771118164,21.52292823791504,13600
2020-09-18,22.06999969482422,22.06999969482422,21.325000762939453,21.860000610351562,21.6417293548584,108500
2020-09-21,21.170000076293945,21.940000534057617,19.65999984741211,20.280000686645508,20.077505111694336,56300
2020-09-22,20.18000030517578,20.6200008392334,20.049999237060547,20.3700008392334,20.166606903076172,46900
2020-09-23,20.18000030517578,20.68000030517578,19.59000015258789,19.6200008392334,19.424097061157227,55300
2020-09-24,19.81999969482422,20.31999969482422,19.399999618530273,19.760000228881836,19.562698364257812,28300
2020-09-25,19.75,20.4950008392334,19.75,20.309999465942383,20.107206344604492,42600
2020-09-28,20.549999237060547,21.420000076293945,20.549999237060547,21.25,21.037818908691406,26200
2020-09-29,21.100000381469727,21.139999389648438,20.600000381469727,21.079999923706055,20.869518280029297,22900
2020-09-30,20.950000762939453,21.850000381469727,20.950000762939453,21.360000610351562,21.1467227935791,30400
2020-10-01,21.290000915527344,21.799999237060547,21.219999313354492,21.600000381469727,21.38432502746582,35300
2020-10-02,21.0,22.440000534057617,21.0,22.270000457763672,22.04763412475586,18200
2020-10-05,22.770000457763672,23.545000076293945,22.4950008392334,23.260000228881836,23.02775001525879,28500
2020-10-06,23.260000228881836,24.329999923706055,22.405000686645508,23.1299991607666,22.8990478515625,34700
2020-10-07,23.700000762939453,24.700000762939453,23.459999084472656,23.989999771118164,23.75046157836914,48000
2020-10-08,24.239999771118164,24.889999389648438,24.040000915527344,24.690000534057617,24.443471908569336,41800
2020-10-09,24.690000534057617,24.940000534057617,24.5,24.610000610351562,24.364269256591797,62700
2020-10-12,24.479999542236328,24.56999969482422,23.0310001373291,23.790000915527344,23.552457809448242,35400
2020-10-13,23.459999084472656,23.459999084472656,21.889999389648438,23.010000228881836,22.78024673461914,15700
2020-10-14,22.006000518798828,23.549999237060547,22.006000518798828,22.229999542236328,22.00803565979004,31000
2020-10-15,21.739999771118164,23.8799991607666,21.389999389648438,23.489999771118164,23.255455017089844,59000
2020-10-16,23.34000015258789,23.915000915527344,23.1299991607666,23.280000686645508,23.04755210876465,33400
2020-10-19,23.40999984741211,23.5,23.1200008392334,23.190000534057617,22.958450317382812,11600
2020-10-20,23.469999313354492,23.709999084472656,22.510000228881836,23.469999313354492,23.235654830932617,37400
2020-10-21,23.290000915527344,23.579999923706055,22.950000762939453,23.229999542236328,22.998048782348633,15900
2020-10-22,23.079999923706055,24.625,22.510000228881836,24.3799991607666,24.136566162109375,48400
2020-10-23,24.520000457763672,24.79199981689453,23.90999984741211,24.510000228881836,24.265268325805664,18500
2020-10-26,24.06999969482422,24.09000015258789,23.43000030517578,24.06999969482422,23.829662322998047,16900
2020-10-27,23.809999465942383,23.809999465942383,22.780000686645508,23.170000076293945,22.938648223876953,26800
2020-10-28,23.100000381469727,24.690000534057617,22.399999618530273,22.850000381469727,22.621843338012695,42600
2020-10-29,22.530000686645508,23.05500030517578,22.309999465942383,22.790000915527344,22.56244468688965,27200
2020-10-30,22.950000762939453,23.200000762939453,20.809999465942383,22.3700008392334,22.146638870239258,61600
2020-11-02,22.889999389648438,23.25,22.690000534057617,23.0,22.770347595214844,82200
2020-11-03,23.049999237060547,24.229999542236328,22.86199951171875,24.0,23.760360717773438,81000
2020-11-04,23.360000610351562,23.3799991607666,22.219999313354492,22.65999984741211,22.433740615844727,49200
2020-11-05,22.649999618530273,23.229999542236328,22.649999618530273,22.889999389648438,22.66144371032715,39800
2020-11-06,23.0,23.709999084472656,22.709999084472656,22.799999237060547,22.572343826293945,22700
2020-11-09,24.84000015258789,25.979999542236328,24.84000015258789,25.350000381469727,25.096881866455078,142500
2020-11-10,25.209999084472656,25.652999877929688,24.920000076293945,25.0,24.750375747680664,174100
2020-11-11,25.190000534057617,25.225000381469727,24.4950008392334,25.09000015258789,24.8394775390625,46700
2020-11-12,24.600000381469727,24.959999084472656,24.059999465942383,24.850000381469727,24.700321197509766,34300
2020-11-13,25.270000457763672,25.889999389648438,25.18000030517578,25.56999969482422,25.415983200073242,26700
2020-11-16,26.239999771118164,26.920000076293945,25.18000030517578,26.110000610351562,25.95273208618164,151300
2020-11-17,25.8799991607666,26.209999084472656,25.34000015258789,25.809999465942383,25.654539108276367,50600
2020-11-18,25.34000015258789,25.975000381469727,25.34000015258789,25.719999313354492,25.565080642700195,40900
2020-11-19,25.59000015258789,26.280000686645508,25.59000015258789,26.25,26.091888427734375,36300
2020-11-20,25.940000534057617,26.5,25.520000457763672,25.799999237060547,25.64459800720215,84000
2020-11-23,26.0,26.09000015258789,25.510000228881836,25.790000915527344,25.634658813476562,47000
2020-11-24,26.219999313354492,26.3799991607666,25.829999923706055,26.0,25.843393325805664,107600
2020-11-25,25.780000686645508,27.674999237060547,25.450000762939453,27.600000381469727,27.43375587463379,150500
2020-11-27,27.350000381469727,27.350000381469727,26.559999465942383,26.989999771118164,26.827430725097656,40300
2020-11-30,26.799999237060547,27.020000457763672,25.649999618530273,25.709999084472656,25.555139541625977,94600
2020-12-01,25.90999984741211,26.610000610351562,25.655000686645508,26.219999313354492,26.06206703186035,111600
2020-12-02,26.0,27.2549991607666,25.06999969482422,27.079999923706055,26.916887283325195,69300
2020-12-03,27.450000762939453,30.15999984741211,27.100000381469727,27.5,27.334360122680664,42600
2020-12-04,27.899999618530273,29.100000381469727,27.469999313354492,28.899999618530273,28.72592544555664,118200
2020-12-07,28.93000030517578,28.93000030517578,27.979999542236328,28.34000015258789,28.169300079345703,31000
2020-12-08,27.989999771118164,29.219999313354492,27.989999771118164,29.020000457763672,28.845203399658203,45400
2020-12-09,29.31999969482422,29.600000381469727,28.514999389648438,28.84000015258789,28.66628646850586,51400
2020-12-10,28.68000030517578,29.09000015258789,28.549999237060547,29.020000457763672,28.845203399658203,15600
2020-12-11,28.610000610351562,28.809999465942383,27.44499969482422,28.350000381469727,28.17923927307129,45100
2020-12-14,28.739999771118164,28.795000076293945,28.09000015258789,28.1200008392334,27.950624465942383,36900
2020-12-15,28.469999313354492,29.25,27.8799991607666,28.790000915527344,28.61659049987793,53300
2020-12-16,29.049999237060547,29.049999237060547,28.450000762939453,28.450000762939453,28.27863883972168,46700
2020-12-17,28.639999389648438,28.739999771118164,27.889999389648438,28.65999984741211,28.48737144470215,35000
2020-12-18,28.8700008392334,29.0,27.40999984741211,27.559999465942383,27.393997192382812,189700
2020-12-21,27.40999984741211,27.540000915527344,26.0,26.610000610351562,26.44972038269043,135100
2020-12-22,26.610000610351562,26.610000610351562,26.014999389648438,26.270000457763672,26.111766815185547,57700
2020-12-23,26.489999771118164,27.216999053955078,25.8799991607666,26.979999542236328,26.81749153137207,75500
2020-12-24,27.15999984741211,27.610000610351562,26.829999923706055,27.610000610351562,27.443696975708008,47100
2020-12-28,27.670000076293945,28.549999237060547,27.420000076293945,28.239999771118164,28.069900512695312,81300
2020-12-29,28.450000762939453,28.520000457763672,27.049999237060547,27.649999618530273,27.483455657958984,62100
2020-12-30,27.760000228881836,28.040000915527344,27.559999465942383,27.649999618530273,27.483455657958984,25300
