Date,Open,High,Low,Close,Adj Close,Volume
2020-05-05,24.770000457763672,24.81999969482422,24.65399932861328,24.799999237060547,22.85587501525879,144000
2020-05-06,24.81999969482422,24.81999969482422,24.670000076293945,24.700000762939453,22.763713836669922,143600
2020-05-07,24.799999237060547,25.100000381469727,24.74799919128418,25.0,23.040199279785156,166900
2020-05-08,25.100000381469727,25.200000762939453,25.0,25.1299991607666,23.160005569458008,50700
2020-05-11,25.139999389648438,25.290000915527344,25.09000015258789,25.25,23.270599365234375,37800
2020-05-12,25.31999969482422,25.34000015258789,25.1299991607666,25.1299991607666,23.160005569458008,24400
2020-05-13,25.0939998626709,25.149999618530273,24.950000762939453,24.950000762939453,22.994117736816406,15600
2020-05-14,24.969999313354492,25.100000381469727,24.5,25.049999237060547,23.086275100708008,32400
2020-05-15,25.0,25.100000381469727,24.940000534057617,25.049999237060547,23.086275100708008,14200
2020-05-18,25.149999618530273,25.149999618530273,25.100000381469727,25.149999618530273,23.178438186645508,10400
2020-05-19,25.149999618530273,25.440000534057617,25.149999618530273,25.299999237060547,23.316680908203125,11400
2020-05-20,25.399999618530273,25.479999542236328,25.18000030517578,25.26300048828125,23.282581329345703,19200
2020-05-21,25.260000228881836,25.459999084472656,25.25,25.270000457763672,23.289031982421875,17400
2020-05-22,25.270000457763672,25.389999389648438,25.25,25.25,23.270599365234375,3000
2020-05-26,25.334999084472656,25.5,25.309999465942383,25.479999542236328,23.48257064819336,7000
2020-05-27,25.375,25.450000762939453,25.34000015258789,25.450000762939453,23.454919815063477,42300
2020-05-28,25.59000015258789,25.7450008392334,25.59000015258789,25.700000762939453,23.68532371520996,22900
2020-05-29,25.68000030517578,25.790000915527344,25.625,25.625,23.616201400756836,22300
2020-06-01,25.697999954223633,25.700000762939453,25.566999435424805,25.700000762939453,23.68532371520996,20300
2020-06-02,25.799999237060547,25.799999237060547,25.68000030517578,25.75,23.731403350830078,23300
2020-06-03,25.75,25.799999237060547,25.600000381469727,25.698999404907227,23.68440055847168,16800
2020-06-04,25.75,26.0,25.69300079345703,25.924999237060547,23.892684936523438,16200
2020-06-05,25.75,26.200000762939453,25.65999984741211,26.075000762939453,24.030929565429688,22900
2020-06-08,26.239999771118164,26.239999771118164,26.024999618530273,26.049999237060547,24.007884979248047,7800
2020-06-09,25.875,26.049999237060547,25.875,25.969999313354492,23.93415641784668,4400
2020-06-10,26.040000915527344,26.049999237060547,26.0,26.024999618530273,23.984844207763672,17800
2020-06-11,25.839000701904297,25.979999542236328,25.5,25.59000015258789,23.583948135375977,5800
2020-06-12,25.65999984741211,25.65999984741211,25.649999618530273,25.649999618530273,23.63924217224121,1000
2020-06-15,25.350000381469727,25.68000030517578,25.350000381469727,25.68000030517578,23.66689109802246,1400
2020-06-16,25.850000381469727,25.899999618530273,25.700000762939453,25.75,23.731403350830078,2800
2020-06-17,25.75,25.815000534057617,25.570999145507812,25.815000534057617,23.791309356689453,1400
2020-06-18,25.899999618530273,25.899999618530273,25.6299991607666,25.700000762939453,23.68532371520996,4900
2020-06-19,25.690000534057617,25.700000762939453,25.5,25.700000762939453,23.68532371520996,3400
2020-06-22,25.940000534057617,25.940000534057617,25.729999542236328,25.84000015258789,23.814348220825195,6900
2020-06-23,25.834999084472656,25.90999984741211,25.834999084472656,25.90999984741211,23.87885856628418,1600
2020-06-24,25.719999313354492,25.850000381469727,25.69499969482422,25.850000381469727,23.823564529418945,7300
2020-06-25,25.799999237060547,25.889999389648438,25.68000030517578,25.8700008392334,23.841997146606445,10100
2020-06-26,25.889999389648438,25.889999389648438,25.715999603271484,25.81100082397461,23.787622451782227,3300
2020-06-29,25.889999389648438,25.889999389648438,25.700000762939453,25.722999572753906,23.706520080566406,6700
2020-06-30,25.770000457763672,25.780000686645508,25.690000534057617,25.690000534057617,23.676105499267578,15300
2020-07-01,25.670000076293945,25.700000762939453,25.600000381469727,25.700000762939453,23.68532371520996,2200
2020-07-02,25.799999237060547,25.979999542236328,25.75,25.799999237060547,23.777482986450195,14200
2020-07-06,25.709999084472656,25.8799991607666,25.709999084472656,25.850000381469727,23.823564529418945,7200
2020-07-07,25.899999618530273,25.979999542236328,25.829999923706055,25.979999542236328,23.94337272644043,43300
2020-07-08,25.98699951171875,25.989999771118164,25.8700008392334,25.91200065612793,23.880706787109375,1200
2020-07-09,25.75,25.985000610351562,25.75,25.878000259399414,23.849369049072266,4000
2020-07-10,25.899999618530273,25.950000762939453,25.797000885009766,25.950000762939453,23.915725708007812,5500
2020-07-13,25.979999542236328,25.979999542236328,25.889999389648438,25.959999084472656,23.92494010925293,5000
2020-07-14,25.91200065612793,25.979999542236328,25.8799991607666,25.920000076293945,23.888078689575195,4900
2020-07-15,25.950000762939453,25.959999084472656,25.829999923706055,25.850000381469727,23.823564529418945,4600
2020-07-16,25.829999923706055,25.920000076293945,25.649999618530273,25.764999389648438,23.745227813720703,6100
2020-07-17,25.83300018310547,25.83300018310547,25.649999618530273,25.649999618530273,23.63924217224121,700
2020-07-20,25.899999618530273,25.915000915527344,25.885000228881836,25.915000915527344,23.883468627929688,3100
2020-07-21,25.90999984741211,25.99799919128418,25.825000762939453,25.9060001373291,23.875173568725586,9500
2020-07-22,25.922000885009766,26.0,25.760000228881836,26.0,23.961803436279297,10200
2020-07-23,26.0,26.020000457763672,25.899999618530273,25.899999618530273,23.869644165039062,6200
2020-07-24,26.0,26.110000610351562,26.0,26.110000610351562,24.063182830810547,24700
2020-07-27,26.069000244140625,26.100000381469727,26.0049991607666,26.100000381469727,24.05396842956543,5700
2020-07-28,26.076000213623047,26.200000762939453,26.076000213623047,26.200000762939453,24.146127700805664,3400
2020-07-29,26.200000762939453,26.5,26.200000762939453,26.3799991607666,24.3120174407959,6500
2020-07-30,26.399999618530273,26.5,26.3799991607666,26.3799991607666,24.75876235961914,3100
2020-07-31,26.3799991607666,26.400999069213867,25.559999465942383,26.110000610351562,24.50535774230957,4600
2020-08-03,26.18000030517578,26.18000030517578,26.15999984741211,26.15999984741211,24.552284240722656,1100
2020-08-04,26.325000762939453,26.325000762939453,26.25,26.280000686645508,24.66490936279297,2800
2020-08-05,26.200000762939453,26.325000762939453,26.200000762939453,26.200000762939453,24.589826583862305,1900
2020-08-06,26.200000762939453,26.257999420166016,26.15999984741211,26.200000762939453,24.589826583862305,2600
2020-08-07,26.15999984741211,26.15999984741211,26.15999984741211,26.15999984741211,24.552284240722656,4000
2020-08-10,26.15999984741211,26.163999557495117,25.760000228881836,25.770000457763672,24.186254501342773,5800
2020-08-11,26.18000030517578,26.184999465942383,26.170000076293945,26.18000030517578,24.571056365966797,2000
2020-08-12,25.9950008392334,26.0,25.9950008392334,26.0,24.402116775512695,2000
2020-08-13,26.010000228881836,26.010000228881836,25.809999465942383,26.0,24.402116775512695,4200
2020-08-14,25.90999984741211,26.229999542236328,25.899999618530273,25.950000762939453,24.35519027709961,12500
2020-08-17,25.951000213623047,26.469999313354492,25.951000213623047,26.010000228881836,24.411502838134766,8900
2020-08-18,26.25,26.25,25.959999084472656,25.959999084472656,24.364574432373047,3700
2020-08-19,26.239999771118164,26.25,26.184999465942383,26.25,24.636754989624023,4100
2020-08-20,26.139999389648438,26.139999389648438,26.139999389648438,26.139999389648438,24.53351402282715,400
2020-08-21,26.030000686645508,26.139999389648438,26.030000686645508,26.139999389648438,24.53351402282715,500
2020-08-24,26.25,26.25,26.0,26.059999465942383,24.45842742919922,6500
2020-08-25,26.29800033569336,26.350000381469727,26.270000457763672,26.34000015258789,24.721221923828125,1000
2020-08-26,26.40999984741211,26.40999984741211,26.40999984741211,26.40999984741211,24.78692054748535,500
2020-08-27,26.399999618530273,26.399999618530273,26.399999618530273,26.399999618530273,24.77753257751465,1000
2020-08-28,26.18000030517578,26.200000762939453,26.079999923706055,26.100000381469727,24.495973587036133,12700
2020-08-31,26.399999618530273,26.399999618530273,26.1299991607666,26.1299991607666,24.524124145507812,600
2020-09-01,26.3700008392334,26.479999542236328,26.145000457763672,26.25,24.636754989624023,8600
2020-09-02,26.450000762939453,26.5,26.354000091552734,26.450000762939453,24.824462890625,10200
2020-09-03,26.450000762939453,26.459999084472656,26.325000762939453,26.450000762939453,24.824462890625,4700
2020-09-04,26.5,26.5,26.399999618530273,26.499000549316406,24.870450973510742,7200
2020-09-08,26.3700008392334,26.549999237060547,26.3700008392334,26.485000610351562,24.857311248779297,9100
2020-09-09,26.579999923706055,26.899999618530273,26.510000228881836,26.610000610351562,24.97463035583496,6600
2020-09-10,27.059999465942383,27.09000015258789,27.059999465942383,27.09000015258789,25.42513084411621,900
2020-09-11,26.610000610351562,26.690000534057617,26.5,26.5,24.871389389038086,1800
2020-09-14,26.5,26.5,26.5,26.5,24.871389389038086,100
2020-09-15,26.770000457763672,27.09000015258789,26.420000076293945,26.420000076293945,24.79630470275879,4400
2020-09-16,26.6200008392334,26.649999618530273,26.450000762939453,26.450000762939453,24.824462890625,3000
2020-09-17,26.3799991607666,26.700000762939453,26.3799991607666,26.700000762939453,25.059097290039062,2700
2020-09-18,26.780000686645508,26.799999237060547,26.514999389648438,26.514999389648438,24.885467529296875,900
2020-09-21,26.709999084472656,27.049999237060547,26.3700008392334,27.049999237060547,25.38758659362793,4000
2020-09-22,27.049999237060547,27.049999237060547,27.049999237060547,27.049999237060547,25.38758659362793,0
2020-09-23,27.040000915527344,27.040000915527344,26.496999740600586,26.496999740600586,24.868572235107422,4400
2020-09-24,26.469999313354492,26.719999313354492,26.469999313354492,26.719999313354492,25.07786750793457,600
2020-09-25,26.3700008392334,26.6299991607666,26.3700008392334,26.540000915527344,24.908933639526367,600
2020-09-28,26.584999084472656,26.586999893188477,26.572999954223633,26.586999893188477,24.95304298400879,600
2020-09-29,26.719999313354492,26.719999313354492,26.649999618530273,26.649999618530273,25.012170791625977,1600
2020-09-30,26.709999084472656,26.982999801635742,26.709999084472656,26.913999557495117,25.259944915771484,3900
2020-10-01,26.641000747680664,26.641000747680664,26.641000747680664,26.641000747680664,25.00372314453125,600
2020-10-02,26.840999603271484,27.010000228881836,26.840999603271484,27.0,25.340660095214844,400
2020-10-05,27.0,27.0,27.0,27.0,25.340660095214844,0
2020-10-06,26.520000457763672,26.601999282836914,26.489999771118164,26.5,24.871389389038086,1400
2020-10-07,26.7549991607666,27.030000686645508,26.7549991607666,26.961000442504883,25.30405616760254,700
2020-10-08,26.729999542236328,26.729999542236328,26.729999542236328,26.729999542236328,25.08725357055664,400
2020-10-09,26.649999618530273,26.649999618530273,26.649999618530273,26.649999618530273,25.012170791625977,300
2020-10-12,26.649999618530273,26.649999618530273,26.649999618530273,26.649999618530273,25.012170791625977,0
2020-10-13,26.649999618530273,26.649999618530273,26.649999618530273,26.649999618530273,25.012170791625977,0
2020-10-14,26.649999618530273,26.839000701904297,26.649999618530273,26.839000701904297,25.18955421447754,500
2020-10-15,26.5,26.979999542236328,26.469999313354492,26.549999237060547,24.91831398010254,2300
2020-10-16,27.010000228881836,27.040000915527344,26.549999237060547,26.975000381469727,25.317197799682617,1000
2020-10-19,26.75,26.75,26.559999465942383,26.75,25.10602378845215,600
2020-10-20,27.049999237060547,27.049999237060547,26.93000030517578,27.049999237060547,25.38758659362793,800
2020-10-21,26.520000457763672,26.520000457763672,26.469999313354492,26.469999313354492,24.843231201171875,600
2020-10-22,26.469999313354492,26.485000610351562,26.469999313354492,26.485000610351562,24.857311248779297,600
2020-10-23,27.049999237060547,27.049999237060547,26.700000762939453,26.700000762939453,25.059097290039062,500
2020-10-26,27.09000015258789,27.09000015258789,26.600000381469727,26.600000381469727,24.965242385864258,35600
2020-10-27,26.600000381469727,27.049999237060547,26.5,26.600000381469727,24.965242385864258,74700
2020-10-28,26.600000381469727,26.979999542236328,26.600000381469727,26.65999984741211,25.021554946899414,37300
2020-10-29,26.700000762939453,26.700000762939453,26.450000762939453,26.549999237060547,25.33453941345215,24700
2020-10-30,26.417999267578125,26.549999237060547,26.09000015258789,26.0939998626709,24.8994140625,9000
2020-11-02,26.325000762939453,26.549999237060547,26.09000015258789,26.549999237060547,25.33453941345215,13000
2020-11-03,26.5,26.549999237060547,26.200000762939453,26.549999237060547,25.33453941345215,11400
2020-11-04,26.549999237060547,26.549999237060547,26.170000076293945,26.3799991607666,25.172321319580078,19700
2020-11-05,26.489999771118164,26.489999771118164,26.239999771118164,26.239999771118164,25.03873062133789,22600
2020-11-06,26.5,26.5,26.399999618530273,26.45599937438965,25.244842529296875,1000
2020-11-09,26.350000381469727,26.549999237060547,26.209999084472656,26.549999237060547,25.33453941345215,16700
2020-11-10,26.549999237060547,26.549999237060547,26.209999084472656,26.549999237060547,25.33453941345215,5900
2020-11-11,26.649999618530273,27.049999237060547,26.649999618530273,27.049999237060547,25.811649322509766,5200
2020-11-12,26.600000381469727,26.600000381469727,26.260000228881836,26.549999237060547,25.33453941345215,16300
2020-11-13,26.549999237060547,26.64900016784668,26.280000686645508,26.450000762939453,25.239118576049805,44900
2020-11-16,26.549999237060547,26.84000015258789,26.549999237060547,26.84000015258789,25.611265182495117,21600
2020-11-17,26.809999465942383,26.84000015258789,26.5,26.84000015258789,25.611265182495117,4600
2020-11-18,26.799999237060547,26.8700008392334,26.6200008392334,26.850000381469727,25.620805740356445,7500
2020-11-19,26.860000610351562,26.8700008392334,26.735000610351562,26.735000610351562,25.511072158813477,2200
2020-11-20,26.8700008392334,27.049999237060547,26.8700008392334,26.97599983215332,25.741039276123047,5700
2020-11-23,27.049999237060547,27.049999237060547,26.799999237060547,26.979999542236328,25.744855880737305,6500
2020-11-24,27.049999237060547,27.049999237060547,26.860000610351562,26.899999618530273,25.668516159057617,10700
2020-11-25,26.725000381469727,27.100000381469727,26.725000381469727,27.100000381469727,25.85936164855957,3400
2020-11-27,27.138999938964844,27.139999389648438,27.0,27.0,25.763938903808594,5700
2020-11-30,26.989999771118164,27.139999389648438,26.989999771118164,27.139999389648438,25.89752769470215,3500
2020-12-01,26.989999771118164,26.989999771118164,26.923999786376953,26.989999771118164,25.754396438598633,8600
2020-12-02,26.979999542236328,26.979999542236328,26.96500015258789,26.979999542236328,25.744855880737305,5400
2020-12-03,26.979999542236328,26.979999542236328,26.975000381469727,26.979999542236328,25.744855880737305,1400
2020-12-04,26.979999542236328,26.979999542236328,26.729999542236328,26.959999084472656,25.72576904296875,6200
2020-12-07,27.045000076293945,27.229999542236328,27.045000076293945,27.229999542236328,25.983407974243164,2800
2020-12-08,27.200000762939453,27.25,27.139999389648438,27.18000030517578,25.935697555541992,4500
2020-12-09,27.239999771118164,27.25,27.239999771118164,27.25,26.002492904663086,2000
2020-12-10,27.25,27.25,27.020000457763672,27.25,26.002492904663086,3500
2020-12-11,27.239999771118164,27.299999237060547,27.020000457763672,27.299999237060547,26.050203323364258,5100
2020-12-14,27.299999237060547,27.6200008392334,27.070999145507812,27.600000381469727,26.336471557617188,6600
2020-12-15,27.59000015258789,27.600000381469727,27.5,27.600000381469727,26.336471557617188,6300
2020-12-16,27.5,27.780000686645508,27.5,27.739999771118164,26.470060348510742,5600
2020-12-17,27.799999237060547,27.799999237060547,27.799999237060547,27.799999237060547,26.527313232421875,8400
2020-12-18,27.799999237060547,27.850000381469727,27.799999237060547,27.850000381469727,26.57502555847168,700
2020-12-21,27.604999542236328,27.850000381469727,27.604999542236328,27.799999237060547,26.527313232421875,3700
2020-12-22,27.270000457763672,27.780000686645508,27.040000915527344,27.5,26.24104881286621,9000
2020-12-23,27.43400001525879,27.780000686645508,27.399999618530273,27.780000686645508,26.508230209350586,1700
2020-12-24,27.780000686645508,27.780000686645508,27.780000686645508,27.780000686645508,26.508230209350586,600
2020-12-28,27.5,27.5,27.5,27.5,26.24104881286621,500
2020-12-29,27.5,27.5,27.5,27.5,26.24104881286621,0
2020-12-30,27.280000686645508,27.711000442504883,27.280000686645508,27.5,26.24104881286621,2600
