Date,Open,High,Low,Close,Adj Close,Volume
2019-10-17,24.78700065612793,24.799999237060547,24.700000762939453,24.760000228881836,22.033376693725586,45800
2019-10-18,24.83099937438965,24.83099937438965,24.739999771118164,24.780000686645508,22.051176071166992,23900
2019-10-21,24.8799991607666,24.8799991607666,24.690000534057617,24.709999084472656,21.988880157470703,28100
2019-10-22,24.780000686645508,24.780000686645508,24.700000762939453,24.729999542236328,22.006677627563477,15100
2019-10-23,24.799999237060547,24.799999237060547,24.700000762939453,24.739999771118164,22.015579223632812,20400
2019-10-24,24.770000457763672,24.790000915527344,24.690000534057617,24.739999771118164,22.015579223632812,19200
2019-10-25,24.780000686645508,24.780000686645508,24.68000030517578,24.739999771118164,22.015579223632812,9600
2019-10-28,24.739999771118164,24.739999771118164,24.649999618530273,24.700000762939453,21.9799861907959,27600
2019-10-29,24.649999618530273,24.649999618530273,24.600000381469727,24.600000381469727,21.890995025634766,14600
2019-10-30,24.739999771118164,24.739999771118164,24.552000045776367,24.639999389648438,21.926591873168945,12000
2019-10-31,24.649999618530273,25.0,24.527999877929688,25.0,22.2469482421875,23600
2019-11-01,24.65999984741211,24.700000762939453,24.618999481201172,24.639999389648438,21.926591873168945,14700
2019-11-04,24.649999618530273,24.739999771118164,24.56999969482422,24.68000030517578,21.962188720703125,22100
2019-11-05,24.690000534057617,24.700000762939453,24.600000381469727,24.673999786376953,21.95684814453125,18700
2019-11-06,24.690000534057617,24.690000534057617,24.600000381469727,24.65999984741211,21.94438934326172,6100
2019-11-07,24.690000534057617,24.700000762939453,24.559999465942383,24.59000015258789,21.882095336914062,15200
2019-11-08,24.639999389648438,24.639999389648438,24.510000228881836,24.59000015258789,21.882095336914062,4600
2019-11-11,24.59000015258789,24.649999618530273,24.55900001525879,24.649999618530273,21.935489654541016,10800
2019-11-12,24.639999389648438,24.649999618530273,24.600000381469727,24.600000381469727,21.890995025634766,4700
2019-11-13,24.604999542236328,24.649999618530273,24.559999465942383,24.559999465942383,21.85540199279785,2900
2019-11-14,24.600000381469727,24.600000381469727,24.593000411987305,24.600000381469727,21.890995025634766,3100
2019-11-15,24.631999969482422,24.649999618530273,24.600000381469727,24.610000610351562,21.8998966217041,5800
2019-11-18,24.639999389648438,24.815000534057617,24.594999313354492,24.809999465942383,22.077869415283203,16200
2019-11-19,24.799999237060547,24.799999237060547,24.649999618530273,24.700000762939453,21.9799861907959,12500
2019-11-20,24.760000228881836,24.780000686645508,24.6200008392334,24.780000686645508,22.051176071166992,9900
2019-11-21,24.770000457763672,24.780000686645508,24.639999389648438,24.7549991607666,22.028928756713867,7300
2019-11-22,24.719999313354492,24.770000457763672,24.65999984741211,24.770000457763672,22.04227638244629,4200
2019-11-25,24.799999237060547,24.799999237060547,24.68000030517578,24.739999771118164,22.015579223632812,2800
2019-11-26,24.700000762939453,24.770000457763672,24.6299991607666,24.770000457763672,22.04227638244629,6900
2019-11-27,24.709999084472656,24.770000457763672,24.579999923706055,24.770000457763672,22.04227638244629,11300
2019-11-29,24.739999771118164,24.739999771118164,24.739999771118164,24.739999771118164,22.015579223632812,300
2019-12-02,24.68000030517578,24.69300079345703,24.5,24.549999237060547,21.846500396728516,7700
2019-12-03,24.424999237060547,24.64699935913086,24.329999923706055,24.53499984741211,21.833154678344727,8800
2019-12-04,24.56999969482422,24.579999923706055,24.3700008392334,24.3700008392334,21.686325073242188,9500
2019-12-05,24.479999542236328,24.700000762939453,24.40999984741211,24.700000762939453,21.9799861907959,6800
2019-12-06,24.75,24.760000228881836,24.649999618530273,24.649999618530273,21.935489654541016,5700
2019-12-09,24.649999618530273,24.760000228881836,24.649999618530273,24.649999618530273,21.935489654541016,9100
2019-12-10,24.760000228881836,24.760000228881836,24.649999618530273,24.732999801635742,22.009349822998047,6500
2019-12-11,24.84000015258789,24.989999771118164,24.75,24.850000381469727,22.113466262817383,7400
2019-12-12,24.850000381469727,24.889999389648438,24.56999969482422,24.75,22.024477005004883,15600
2019-12-13,24.795000076293945,24.850000381469727,24.75,24.850000381469727,22.113466262817383,4400
2019-12-16,24.850000381469727,24.899999618530273,24.799999237060547,24.860000610351562,22.122364044189453,7300
2019-12-17,24.92300033569336,24.92300033569336,24.920000076293945,24.920000076293945,22.17576026916504,300
2019-12-18,24.920000076293945,24.920000076293945,24.920000076293945,24.920000076293945,22.17576026916504,300
2019-12-19,24.950000762939453,24.950000762939453,24.920000076293945,24.920000076293945,22.17576026916504,1100
2019-12-20,24.924999237060547,25.0,24.860000610351562,24.950000762939453,22.202451705932617,6000
2019-12-23,24.920000076293945,24.989999771118164,24.8700008392334,24.97100067138672,22.221141815185547,2800
2019-12-24,24.989999771118164,24.989999771118164,24.950000762939453,24.959999084472656,22.21135139465332,1200
2019-12-26,25.0,25.010000228881836,25.0,25.0,22.2469482421875,1100
2019-12-27,25.01300048828125,25.01300048828125,25.0,25.0,22.2469482421875,700
2019-12-30,25.0,25.049999237060547,24.959999084472656,24.979999542236328,22.229148864746094,7400
2019-12-31,25.0,25.0,24.979999542236328,24.979999542236328,22.229148864746094,700
2020-01-02,24.959999084472656,24.959999084472656,24.850000381469727,24.850000381469727,22.113466262817383,2100
2020-01-03,24.959999084472656,24.989999771118164,24.860000610351562,24.989999771118164,22.238048553466797,5000
2020-01-06,24.989999771118164,24.989999771118164,24.889999389648438,24.981000900268555,22.230037689208984,3000
2020-01-07,25.0,25.229999542236328,24.899999618530273,24.899999618530273,22.157957077026367,4000
2020-01-08,24.940000534057617,25.139999389648438,24.940000534057617,24.989999771118164,22.238048553466797,4400
2020-01-09,24.999000549316406,25.083999633789062,24.940000534057617,24.940000534057617,22.193557739257812,14000
2020-01-10,25.040000915527344,25.040000915527344,24.969999313354492,25.0,22.2469482421875,4100
2020-01-13,25.110000610351562,25.200000762939453,25.059999465942383,25.184999465942383,22.411571502685547,6500
2020-01-14,24.889999389648438,24.908000946044922,24.850000381469727,24.860000610351562,22.5139102935791,12400
2020-01-15,24.860000610351562,24.860000610351562,24.860000610351562,24.860000610351562,22.5139102935791,0
2020-01-16,24.868000030517578,24.989999771118164,24.860000610351562,24.860000610351562,22.5139102935791,6100
2020-01-17,24.860000610351562,24.860000610351562,24.770000457763672,24.770000457763672,22.432405471801758,6100
2020-01-21,24.976999282836914,24.979999542236328,24.899999618530273,24.899999618530273,22.550134658813477,2000
2020-01-22,24.899999618530273,24.979999542236328,24.770000457763672,24.850000381469727,22.504854202270508,4800
2020-01-23,24.899999618530273,24.937000274658203,24.850000381469727,24.850000381469727,22.504854202270508,1800
2020-01-24,24.959999084472656,24.969999313354492,24.809999465942383,24.809999465942383,22.4686279296875,6000
2020-01-27,24.81999969482422,24.81999969482422,24.65999984741211,24.81999969482422,22.477684020996094,1300
2020-01-28,24.520000457763672,24.670000076293945,24.309999465942383,24.6200008392334,22.296558380126953,8500
2020-01-29,24.649999618530273,24.700000762939453,24.5,24.68000030517578,22.350900650024414,7900
2020-01-30,24.670000076293945,24.854999542236328,24.549999237060547,24.725000381469727,22.391653060913086,3400
2020-01-31,24.729999542236328,24.950000762939453,24.610000610351562,24.780000686645508,22.44146156311035,14600
2020-02-03,24.799999237060547,25.040000915527344,24.732999801635742,24.945999145507812,22.591794967651367,6300
2020-02-04,25.010000228881836,25.110000610351562,24.90999984741211,24.90999984741211,22.559192657470703,3200
2020-02-05,25.020000457763672,25.049999237060547,24.799999237060547,24.899999618530273,22.550134658813477,5700
2020-02-06,24.913000106811523,25.049999237060547,24.766000747680664,24.899999618530273,22.550134658813477,3800
2020-02-07,24.950000762939453,24.950000762939453,24.738000869750977,24.829999923706055,22.486740112304688,11000
2020-02-10,24.940000534057617,24.940000534057617,24.79599952697754,24.8700008392334,22.522968292236328,8800
2020-02-11,24.90999984741211,24.93000030517578,24.850000381469727,24.87299919128418,22.52568244934082,1800
2020-02-12,24.799999237060547,24.950000762939453,24.799999237060547,24.899999618530273,22.550134658813477,7600
2020-02-13,24.94300079345703,24.979999542236328,24.93600082397461,24.940000534057617,22.58636474609375,7000
2020-02-14,24.926000595092773,25.0,24.899999618530273,25.0,22.64069938659668,8800
2020-02-18,25.0,25.0,24.93000030517578,25.0,22.64069938659668,4600
2020-02-19,24.979999542236328,24.989999771118164,24.979999542236328,24.989999771118164,22.631643295288086,1700
2020-02-20,24.989999771118164,25.079999923706055,24.940000534057617,24.950000762939453,22.595417022705078,3800
2020-02-21,24.951000213623047,25.0,24.940000534057617,25.0,22.64069938659668,7000
2020-02-24,24.951000213623047,24.979999542236328,24.299999237060547,24.299999237060547,22.006759643554688,4400
2020-02-25,24.700000762939453,24.850000381469727,24.700000762939453,24.75,22.414291381835938,5300
2020-02-26,24.850000381469727,24.850000381469727,24.3700008392334,24.399999618530273,22.097322463989258,26000
2020-02-27,24.3700008392334,24.420000076293945,24.010000228881836,24.190000534057617,21.907140731811523,24200
2020-02-28,24.18600082397461,24.389999389648438,24.010000228881836,24.200000762939453,21.916196823120117,3900
2020-03-02,24.3799991607666,24.399999618530273,24.05900001525879,24.399999618530273,22.097322463989258,2400
2020-03-03,24.4060001373291,24.5,24.225000381469727,24.450000762939453,22.14260482788086,1800
2020-03-04,24.5,24.600000381469727,24.3799991607666,24.584999084472656,22.264862060546875,5700
2020-03-05,24.520000457763672,24.520000457763672,24.22100067138672,24.239999771118164,21.952421188354492,4100
2020-03-06,24.209999084472656,24.239999771118164,24.1200008392334,24.1200008392334,21.843748092651367,5600
2020-03-09,24.100000381469727,24.100000381469727,23.75,24.0,21.73507308959961,11000
2020-03-10,23.5,24.0,22.610000610351562,23.979999542236328,21.716957092285156,3700
2020-03-11,24.010000228881836,24.049999237060547,23.75,23.75,21.508665084838867,4000
2020-03-12,23.200000762939453,23.492000579833984,20.141000747680664,20.209999084472656,18.302738189697266,3800
2020-03-13,19.0,21.68199920654297,19.0,21.68199920654297,19.635826110839844,1300
2020-03-16,22.549999237060547,22.549999237060547,17.607999801635742,19.0,17.20693016052246,3700
2020-03-17,19.0,19.0,18.549999237060547,19.0,17.20693016052246,2000
2020-03-18,18.100000381469727,18.100000381469727,10.095000267028809,11.520000457763672,10.432833671569824,7200
2020-03-19,12.0,14.489999771118164,11.550000190734863,14.350000381469727,12.99576187133789,5700
2020-03-20,15.5,18.270000457763672,15.5,16.84000015258789,15.250773429870605,4700
2020-03-23,18.520000457763672,20.0,16.25,17.770000457763672,16.093006134033203,3200
2020-03-24,17.05299949645996,18.760000228881836,17.0,18.760000228881836,16.989578247070312,700
2020-03-25,17.5,24.049999237060547,17.5,24.049999237060547,21.780349731445312,9000
2020-03-26,22.360000610351562,22.360000610351562,18.709999084472656,19.600000381469727,17.750308990478516,4900
2020-03-27,19.0,19.0,17.6200008392334,17.6200008392334,15.95716667175293,1500
2020-03-30,20.0,20.0,20.0,20.0,18.11255645751953,100
2020-03-31,17.059999465942383,18.5,17.059999465942383,18.25,16.5277099609375,2300
2020-04-01,17.0,17.0,15.850000381469727,16.100000381469727,14.580610275268555,3000
2020-04-02,16.510000228881836,17.356000900268555,16.0,16.0,14.490047454833984,3200
2020-04-03,16.0,16.295000076293945,16.0,16.149999618530273,14.625889778137207,12300
2020-04-06,17.770000457763672,17.770000457763672,17.770000457763672,17.770000457763672,16.093006134033203,200
2020-04-07,16.559999465942383,16.850000381469727,16.25,16.290000915527344,14.752679824829102,9400
2020-04-08,16.270000457763672,17.0,16.25,16.649999618530273,15.078706741333008,4200
2020-04-09,17.280000686645508,19.31999969482422,17.200000762939453,18.350000381469727,16.61827278137207,6300
2020-04-13,18.600000381469727,18.600000381469727,18.600000381469727,18.600000381469727,16.844680786132812,100
2020-04-14,18.382999420166016,18.989999771118164,18.382999420166016,18.700000762939453,17.280858993530273,3000
2020-04-15,18.700000762939453,18.700000762939453,18.700000762939453,18.700000762939453,17.280858993530273,0
2020-04-16,18.58799934387207,18.766000747680664,18.584999084472656,18.700000762939453,17.280858993530273,1300
2020-04-17,17.799999237060547,18.440000534057617,17.799999237060547,18.440000534057617,17.040592193603516,1300
2020-04-20,17.950000762939453,17.950000762939453,17.950000762939453,17.950000762939453,16.58777618408203,500
2020-04-21,17.8799991607666,18.325000762939453,17.600000381469727,17.600000381469727,16.26433753967285,3200
2020-04-22,17.81999969482422,17.81999969482422,17.600000381469727,17.600000381469727,16.26433753967285,500
2020-04-23,18.0,18.010000228881836,18.0,18.0,16.633983612060547,6100
2020-04-24,18.25,18.700000762939453,18.25,18.607999801635742,17.19584083557129,3800
2020-04-27,18.76799964904785,19.149999618530273,18.76799964904785,19.149999618530273,17.69670867919922,600
2020-04-28,18.26799964904785,18.26799964904785,18.26799964904785,18.26799964904785,16.881643295288086,1300
2020-04-29,18.5,20.0,18.149999618530273,19.5,18.0201473236084,7800
2020-04-30,18.704999923706055,19.0,18.704999923706055,19.0,17.55809211730957,900
2020-05-01,19.0,19.0,19.0,19.0,17.55809211730957,1000
2020-05-04,19.0,19.0,19.0,19.0,17.55809211730957,300
2020-05-05,19.200000762939453,19.200000762939453,19.0,19.0,17.55809211730957,1400
2020-05-06,19.0,19.0,17.350000381469727,17.350000381469727,16.03331184387207,6000
2020-05-07,18.0,18.0,17.200000762939453,18.0,16.633983612060547,3600
2020-05-08,18.0,18.0,18.0,18.0,16.633983612060547,0
2020-05-11,18.979999542236328,18.979999542236328,18.979999542236328,18.979999542236328,17.539609909057617,600
2020-05-12,18.774999618530273,18.774999618530273,18.774999618530273,18.774999618530273,17.35016632080078,100
2020-05-13,18.774999618530273,18.774999618530273,18.774999618530273,18.774999618530273,17.35016632080078,0
2020-05-14,18.020000457763672,18.020000457763672,17.649999618530273,18.0,16.633983612060547,1100
2020-05-15,18.75,18.75,18.6299991607666,18.6299991607666,17.216171264648438,1000
2020-05-18,18.5,18.84000015258789,18.5,18.84000015258789,17.410234451293945,3300
2020-05-19,18.75,19.084999084472656,18.75,19.084999084472656,17.636642456054688,400
2020-05-20,18.0,18.760000228881836,18.0,18.75,17.32706642150879,400
2020-05-21,20.0,20.0,19.399999618530273,19.399999618530273,17.927736282348633,500
2020-05-22,19.399999618530273,19.399999618530273,19.399999618530273,19.399999618530273,17.927736282348633,0
2020-05-26,19.399999618530273,19.40999984741211,19.399999618530273,19.40999984741211,17.936979293823242,600
2020-05-27,19.40999984741211,19.40999984741211,19.40999984741211,19.40999984741211,17.936979293823242,0
2020-05-28,19.549999237060547,19.549999237060547,18.809999465942383,18.809999465942383,17.382511138916016,1000
2020-05-29,19.100000381469727,19.5,18.850000381469727,19.325000762939453,17.858428955078125,1500
2020-06-01,19.15999984741211,19.45800018310547,19.15999984741211,19.45800018310547,17.98133659362793,400
2020-06-02,19.200000762939453,19.799999237060547,19.200000762939453,19.799999237060547,18.297380447387695,4200
2020-06-03,19.889999389648438,20.170000076293945,19.889999389648438,20.170000076293945,18.639301300048828,1700
2020-06-04,20.170000076293945,20.170000076293945,20.170000076293945,20.170000076293945,18.639301300048828,0
2020-06-05,20.540000915527344,21.8700008392334,20.540000915527344,21.799999237060547,20.145599365234375,1800
2020-06-08,21.68000030517578,22.0,21.5,22.0,20.330421447753906,61300
2020-06-09,22.0,22.0,22.0,22.0,20.330421447753906,0
2020-06-10,21.5,22.0,21.059999465942383,21.940000534057617,20.274974822998047,1700
2020-06-11,20.90999984741211,21.549999237060547,20.90999984741211,21.25,19.637340545654297,5400
2020-06-12,21.25,21.25,21.25,21.25,19.637340545654297,200
2020-06-15,21.420000076293945,21.75,21.209999084472656,21.75,20.099395751953125,2800
2020-06-16,22.049999237060547,22.200000762939453,21.950000762939453,22.200000762939453,20.515247344970703,2900
2020-06-17,22.200000762939453,22.5,22.200000762939453,22.5,20.792478561401367,8000
2020-06-18,21.899999618530273,23.0,21.899999618530273,22.989999771118164,21.245290756225586,6700
2020-06-19,23.0,23.0,22.5,22.600000381469727,20.884889602661133,10700
2020-06-22,22.700000762939453,22.700000762939453,22.66699981689453,22.700000762939453,20.9773006439209,9300
2020-06-23,22.700000762939453,22.700000762939453,22.520000457763672,22.65999984741211,20.940332412719727,31500
2020-06-24,22.520000457763672,22.520000457763672,22.399999618530273,22.399999618530273,20.70006561279297,3200
2020-06-25,22.299999237060547,22.299999237060547,22.0,22.100000381469727,20.422834396362305,3100
2020-06-26,21.559999465942383,22.25,21.520000457763672,22.25,20.561450958251953,9600
2020-06-29,22.0,22.0049991607666,21.850000381469727,22.0,20.330421447753906,5500
2020-06-30,22.0,22.0,22.0,22.0,20.330421447753906,800
2020-07-01,22.25,22.25,22.145999908447266,22.145999908447266,20.465343475341797,400
2020-07-02,22.0,22.0,21.924999237060547,22.0,20.330421447753906,20900
2020-07-06,21.850000381469727,21.850000381469727,21.850000381469727,21.850000381469727,20.19180679321289,10000
2020-07-07,21.670000076293945,21.899999618530273,21.670000076293945,21.899999618530273,20.23801040649414,1600
2020-07-08,21.719999313354492,21.799999237060547,21.600000381469727,21.700000762939453,20.053190231323242,24800
2020-07-09,21.600000381469727,22.229999542236328,21.600000381469727,21.600000381469727,19.96078109741211,3300
2020-07-10,21.600000381469727,21.600000381469727,21.600000381469727,21.600000381469727,19.96078109741211,1000
2020-07-13,21.84000015258789,21.850000381469727,21.770000457763672,21.850000381469727,20.19180679321289,25300
2020-07-14,21.549999237060547,21.549999237060547,21.5,21.5,20.21249008178711,1300
2020-07-15,21.81999969482422,22.024999618530273,21.790000915527344,21.799999237060547,20.494524002075195,7000
2020-07-16,22.5,22.5,22.0,22.0,20.682546615600586,8800
2020-07-17,22.049999237060547,22.270999908447266,22.0,22.0,20.682546615600586,6600
2020-07-20,22.0,22.0,22.0,22.0,20.682546615600586,0
2020-07-21,22.0,22.0,22.0,22.0,20.682546615600586,0
2020-07-22,22.0,22.0,22.0,22.0,20.682546615600586,0
2020-07-23,22.0,22.0,22.0,22.0,20.682546615600586,0
2020-07-24,22.049999237060547,22.100000381469727,22.049999237060547,22.100000381469727,20.776559829711914,4500
2020-07-27,22.079999923706055,22.58799934387207,21.899999618530273,22.58799934387207,21.235332489013672,4900
2020-07-28,22.25,22.600000381469727,22.145000457763672,22.600000381469727,21.246614456176758,3800
2020-07-29,22.610000610351562,22.65999984741211,20.600000381469727,21.969999313354492,20.65434455871582,2500
2020-07-30,21.559999465942383,21.559999465942383,21.0,21.020000457763672,19.7612361907959,1800
2020-07-31,21.850000381469727,21.850000381469727,21.69300079345703,21.69300079345703,20.393930435180664,500
2020-08-03,21.989999771118164,21.989999771118164,21.350000381469727,21.350000381469727,20.07147216796875,1000
2020-08-04,21.0,22.25,21.0,21.299999237060547,20.024463653564453,1300
2020-08-05,21.594999313354492,21.594999313354492,21.100000381469727,21.4950008392334,20.207788467407227,1100
2020-08-06,21.25,22.05500030517578,21.110000610351562,21.25,19.977458953857422,6300
2020-08-07,21.25,21.25,21.25,21.25,19.977458953857422,0
2020-08-10,21.110000610351562,21.5049991607666,21.100000381469727,21.5,20.21249008178711,3500
2020-08-11,21.5,21.700000762939453,21.5,21.700000762939453,20.400514602661133,7100
2020-08-12,21.989999771118164,22.575000762939453,21.899999618530273,22.363000869750977,21.02381134033203,19800
2020-08-13,22.079999923706055,22.399999618530273,22.079999923706055,22.389999389648438,21.049190521240234,1900
2020-08-14,22.3799991607666,22.3799991607666,21.760000228881836,21.760000228881836,20.456920623779297,400
2020-08-17,21.760000228881836,21.760000228881836,21.760000228881836,21.760000228881836,20.456920623779297,0
2020-08-18,22.0,22.0,21.899999618530273,21.899999618530273,20.588533401489258,1500
2020-08-19,22.211000442504883,22.211000442504883,21.75,21.75,20.44751739501953,1100
2020-08-20,21.770000457763672,21.899999618530273,21.75,21.899999618530273,20.588533401489258,900
2020-08-21,21.6299991607666,22.739999771118164,21.6299991607666,22.739999771118164,21.378232955932617,2100
2020-08-24,22.739999771118164,22.739999771118164,21.739999771118164,22.350000381469727,21.011587142944336,1300
2020-08-25,22.0,22.0,22.0,22.0,20.682546615600586,200
2020-08-26,22.0,22.0,22.0,22.0,20.682546615600586,800
2020-08-27,22.0,22.0,22.0,22.0,20.682546615600586,0
2020-08-28,22.0,22.299999237060547,22.0,22.299999237060547,20.964580535888672,8400
2020-08-31,22.299999237060547,22.299999237060547,22.299999237060547,22.299999237060547,20.964580535888672,700
2020-09-01,22.0,22.200000762939453,22.0,22.200000762939453,20.87057113647461,1000
2020-09-02,22.0,22.25,22.0,22.0,20.682546615600586,10900
2020-09-03,21.899999618530273,21.90399932861328,21.899999618530273,21.899999618530273,20.588533401489258,3100
2020-09-04,21.850000381469727,22.350000381469727,21.850000381469727,22.350000381469727,21.011587142944336,66000
2020-09-08,21.899999618530273,22.350000381469727,21.899999618530273,22.049999237060547,20.72955322265625,16200
2020-09-09,21.850000381469727,22.489999771118164,21.850000381469727,22.489999771118164,21.143203735351562,15700
2020-09-10,22.0,22.350000381469727,22.0,22.350000381469727,21.011587142944336,6800
2020-09-11,22.25,22.299999237060547,21.65999984741211,22.299999237060547,20.964580535888672,6000
2020-09-14,21.459999084472656,22.5,21.459999084472656,22.5,21.152603149414062,17500
2020-09-15,22.290000915527344,22.290000915527344,21.700000762939453,21.7450008392334,20.442819595336914,2500
2020-09-16,21.760000228881836,21.780000686645508,21.579999923706055,21.579999923706055,20.28769874572754,500
2020-09-17,21.559999465942383,21.559999465942383,21.520000457763672,21.520000457763672,20.231292724609375,400
2020-09-18,21.399999618530273,21.8700008392334,21.399999618530273,21.8700008392334,20.560333251953125,3300
2020-09-21,21.983999252319336,21.989999771118164,21.445999145507812,21.989999771118164,20.673147201538086,1900
2020-09-22,21.5,21.799999237060547,21.5,21.799999237060547,20.494524002075195,2500
2020-09-23,21.5,21.940000534057617,21.40999984741211,21.5,20.21249008178711,5500
2020-09-24,21.399999618530273,21.8700008392334,21.399999618530273,21.8700008392334,20.560333251953125,1000
2020-09-25,22.09000015258789,22.09000015258789,22.040000915527344,22.040000915527344,20.720151901245117,200
2020-09-28,21.420000076293945,22.100000381469727,21.420000076293945,22.100000381469727,20.776559829711914,800
2020-09-29,21.479999542236328,22.09000015258789,21.479999542236328,22.09000015258789,20.76715850830078,700
2020-09-30,21.559999465942383,22.211000442504883,21.559999465942383,22.211000442504883,20.88091278076172,2800
2020-10-01,22.100000381469727,22.59000015258789,22.100000381469727,22.59000015258789,21.237215042114258,800
2020-10-02,22.100000381469727,22.39900016784668,22.100000381469727,22.39900016784668,21.057653427124023,4900
2020-10-05,22.350000381469727,22.670000076293945,22.350000381469727,22.350000381469727,21.011587142944336,10200
2020-10-06,22.350000381469727,22.350000381469727,22.350000381469727,22.350000381469727,21.011587142944336,0
2020-10-07,22.43000030517578,22.43000030517578,22.350000381469727,22.350000381469727,21.011587142944336,1900
2020-10-08,22.3700008392334,22.3700008392334,22.200000762939453,22.350000381469727,21.011587142944336,900
2020-10-09,22.350000381469727,22.360000610351562,22.350000381469727,22.360000610351562,21.02098846435547,600
2020-10-12,22.350000381469727,22.350000381469727,22.350000381469727,22.350000381469727,21.011587142944336,1000
2020-10-13,22.049999237060547,22.350000381469727,22.049999237060547,22.344999313354492,21.006887435913086,3400
2020-10-14,22.344999313354492,22.344999313354492,22.344999313354492,22.344999313354492,21.362529754638672,0
2020-10-15,21.420000076293945,22.25,21.420000076293945,22.219999313354492,21.243026733398438,3100
2020-10-16,21.600000381469727,21.600000381469727,21.600000381469727,21.600000381469727,20.650285720825195,200
2020-10-19,22.149999618530273,22.149999618530273,21.649999618530273,21.75,20.793689727783203,2900
2020-10-20,21.75,21.75,21.75,21.75,20.793689727783203,100
2020-10-21,21.690000534057617,21.690000534057617,21.600000381469727,21.600000381469727,20.650285720825195,10700
2020-10-22,21.6200008392334,21.860000610351562,21.600000381469727,21.860000610351562,20.898855209350586,2200
2020-10-23,21.600000381469727,21.790000915527344,21.600000381469727,21.600000381469727,20.650285720825195,900
2020-10-26,21.5,21.5,21.450000762939453,21.450000762939453,20.50688362121582,1200
2020-10-27,21.5,21.5,21.45800018310547,21.45800018310547,20.5145320892334,37400
2020-10-28,21.399999618530273,21.93000030517578,21.329999923706055,21.5,20.554685592651367,1900
2020-10-29,21.64699935913086,21.8799991607666,21.450000762939453,21.860000610351562,20.898855209350586,1800
2020-10-30,21.459999084472656,21.84000015258789,21.459999084472656,21.84000015258789,20.87973403930664,3400
2020-11-02,21.510000228881836,21.84000015258789,21.399999618530273,21.6200008392334,20.669408798217773,4000
2020-11-03,21.56999969482422,21.56999969482422,21.360000610351562,21.5,20.554685592651367,2200
2020-11-04,21.329999923706055,21.5,21.329999923706055,21.40999984741211,20.46864128112793,18200
2020-11-05,21.40999984741211,21.510000228881836,21.40999984741211,21.5,20.554685592651367,1400
2020-11-06,21.834999084472656,22.0,21.600000381469727,21.84000015258789,20.87973403930664,4600
2020-11-09,21.670000076293945,22.0,21.649999618530273,22.0,21.032699584960938,8400
2020-11-10,22.25,23.260000228881836,22.25,23.260000228881836,22.2372989654541,1800
2020-11-11,22.5,23.229999542236328,22.5,23.229999542236328,22.2086181640625,800
2020-11-12,22.545000076293945,23.18000030517578,22.25,23.18000030517578,22.160816192626953,1900
2020-11-13,23.100000381469727,23.190000534057617,22.280000686645508,22.790000915527344,21.7879638671875,5100
2020-11-16,23.0,23.5,23.0,23.5,22.466747283935547,2300
2020-11-17,23.5,23.5,22.809999465942383,23.5,22.466747283935547,1800
2020-11-18,22.809999465942383,23.881999969482422,22.809999465942383,23.881999969482422,22.831951141357422,3600
2020-11-19,23.850000381469727,23.950000762939453,22.809999465942383,23.950000762939453,22.896961212158203,2500
2020-11-20,23.895000457763672,23.895000457763672,23.25,23.329999923706055,22.30422019958496,6900
2020-11-23,23.899999618530273,23.899999618530273,23.299999237060547,23.34000015258789,22.31378173828125,5300
2020-11-24,23.399999618530273,23.40999984741211,23.290000915527344,23.399999618530273,22.371145248413086,4500
2020-11-25,23.440000534057617,23.899999618530273,23.010000228881836,23.8799991607666,22.83003807067871,2500
2020-11-27,23.895000457763672,24.0,23.860000610351562,23.8799991607666,22.83003807067871,1900
2020-11-30,23.979999542236328,23.979999542236328,23.790000915527344,23.790000915527344,22.74399757385254,1600
2020-12-01,23.299999237060547,23.6299991607666,23.299999237060547,23.6299991607666,22.59103012084961,1400
2020-12-02,23.639999389648438,23.959999084472656,23.180999755859375,23.959999084472656,22.906518936157227,5000
2020-12-03,23.049999237060547,23.75,23.049999237060547,23.75,22.70575523376465,500
2020-12-04,23.5,23.5,23.190000534057617,23.25,22.227739334106445,2500
2020-12-07,23.290000915527344,23.290000915527344,23.290000915527344,23.290000915527344,22.265981674194336,200
2020-12-08,23.0,23.56999969482422,22.75,23.56999969482422,22.533668518066406,1400
2020-12-09,23.530000686645508,23.530000686645508,23.530000686645508,23.530000686645508,22.49542808532715,300
2020-12-10,22.920000076293945,23.25,22.920000076293945,23.059999465942383,22.046091079711914,400
2020-12-11,23.5,23.5,23.0,23.030000686645508,22.017412185668945,1700
2020-12-14,23.30500030517578,23.30500030517578,23.30500030517578,23.30500030517578,22.28032112121582,400
2020-12-15,23.624000549316406,23.624000549316406,23.624000549316406,23.624000549316406,22.585294723510742,400
2020-12-16,23.108999252319336,23.25,23.020000457763672,23.25,22.227739334106445,2300
2020-12-17,23.1299991607666,23.1299991607666,23.079999923706055,23.079999923706055,22.065214157104492,400
2020-12-18,23.09000015258789,23.100000381469727,23.0,23.100000381469727,22.084333419799805,1900
2020-12-21,23.010000228881836,23.010000228881836,23.0,23.0049991607666,21.993511199951172,3800
2020-12-22,23.0,23.246000289916992,23.0,23.246000289916992,22.223915100097656,1400
2020-12-23,23.020000457763672,23.440000534057617,23.0,23.440000534057617,22.409385681152344,2900
2020-12-24,23.040000915527344,23.920000076293945,23.040000915527344,23.920000076293945,22.86827850341797,900
2020-12-28,23.520000457763672,23.94499969482422,23.149999618530273,23.94499969482422,22.892179489135742,16300
2020-12-29,23.5,23.899999618530273,23.299999237060547,23.450000762939453,22.418947219848633,10000
2020-12-30,23.538999557495117,23.738000869750977,23.350000381469727,23.350000381469727,22.32334327697754,5200
