Date,Open,High,Low,Close,Adj Close,Volume
2017-09-21,16.75,16.860000610351562,16.5,16.75,10.737387657165527,3904400
2017-09-22,16.75,16.850000381469727,16.670000076293945,16.75,10.737387657165527,938900
2017-09-25,16.649999618530273,17.0,16.649999618530273,16.899999618530273,10.833545684814453,218700
2017-09-26,16.850000381469727,16.950000762939453,16.850000381469727,16.90999984741211,10.839956283569336,264200
2017-09-27,16.860000610351562,17.0,16.764999389648438,16.940000534057617,10.859185218811035,265300
2017-09-28,17.049999237060547,17.049999237060547,16.95199966430664,16.989999771118164,10.89123821258545,454400
2017-09-29,16.860000610351562,17.06999969482422,16.850000381469727,16.959999084472656,10.8720064163208,253900
2017-10-02,16.889999389648438,17.03499984741211,16.84000015258789,17.0,10.897649765014648,60300
2017-10-03,16.950000762939453,17.100000381469727,16.850000381469727,17.06999969482422,10.942522048950195,106900
2017-10-04,17.100000381469727,17.100000381469727,17.030000686645508,17.030000686645508,10.91688060760498,109300
2017-10-05,16.959999084472656,17.25,16.959999084472656,17.239999771118164,11.051497459411621,189900
2017-10-06,17.1299991607666,17.440000534057617,17.094999313354492,17.239999771118164,11.051497459411621,134400
2017-10-09,17.28499984741211,17.510000228881836,17.18000030517578,17.40999984741211,11.160473823547363,141200
2017-10-10,17.360000610351562,17.799999237060547,17.360000610351562,17.649999618530273,11.31432056427002,61700
2017-10-11,17.739999771118164,17.860000610351562,17.600000381469727,17.700000762939453,11.346378326416016,67000
2017-10-12,17.799999237060547,17.989999771118164,17.614999771118164,17.704999923706055,11.349581718444824,36400
2017-10-13,17.75,17.979999542236328,17.549999237060547,17.979999542236328,11.525864601135254,32000
2017-10-16,18.049999237060547,18.239999771118164,17.610000610351562,17.770000457763672,11.39124870300293,126600
2017-10-17,17.709999084472656,17.940000534057617,17.18000030517578,17.18000030517578,11.013035774230957,79200
2017-10-18,17.229999542236328,17.489999771118164,16.559999465942383,16.670000076293945,10.686107635498047,144200
2017-10-19,16.690000534057617,16.950000762939453,16.270000457763672,16.399999618530273,10.513026237487793,266100
2017-10-20,16.399999618530273,16.760000228881836,16.270000457763672,16.700000762939453,10.705337524414062,98600
2017-10-23,17.0,17.149999618530273,16.600000381469727,16.850000381469727,10.801495552062988,119100
2017-10-24,16.979999542236328,16.979999542236328,16.670000076293945,16.760000228881836,10.743799209594727,51500
2017-10-25,16.75,16.75,15.569999694824219,16.329999923706055,10.468151092529297,114500
2017-10-26,16.229999542236328,16.459999084472656,15.869000434875488,16.360000610351562,10.487384796142578,65100
2017-10-27,16.489999771118164,16.6299991607666,16.3799991607666,16.559999465942383,10.61559009552002,70400
2017-10-30,16.5,17.1299991607666,16.5,17.0,10.897649765014648,64900
2017-10-31,17.0,17.0,16.5,16.6200008392334,10.654054641723633,66000
2017-11-01,16.639999389648438,17.0,16.530000686645508,16.950000762939453,10.865596771240234,38300
2017-11-02,16.8700008392334,17.1200008392334,16.8700008392334,17.049999237060547,10.929698944091797,20400
2017-11-03,17.040000915527344,17.040000915527344,16.709999084472656,16.770000457763672,10.750211715698242,35800
2017-11-06,16.829999923706055,17.440000534057617,16.829999923706055,17.110000610351562,10.968161582946777,51500
2017-11-07,17.200000762939453,17.200000762939453,16.950000762939453,17.1200008392334,10.974573135375977,19200
2017-11-08,16.90999984741211,17.950000762939453,16.90999984741211,17.770000457763672,11.39124870300293,48200
2017-11-09,17.899999618530273,17.989999771118164,17.309999465942383,17.360000610351562,11.128423690795898,34700
2017-11-10,17.40999984741211,17.469999313354492,16.990999221801758,17.020000457763672,10.910469055175781,20700
2017-11-13,16.969999313354492,17.219999313354492,16.65999984741211,16.690000534057617,10.698925971984863,21800
2017-11-14,16.690000534057617,16.950000762939453,16.549999237060547,16.709999084472656,10.711747169494629,31400
2017-11-15,16.600000381469727,16.81999969482422,16.149999618530273,16.579999923706055,10.628411293029785,96100
2017-11-16,16.6299991607666,16.6299991607666,16.450000762939453,16.59000015258789,10.6348237991333,72100
2017-11-17,16.56999969482422,17.5,16.56999969482422,17.40999984741211,11.160473823547363,134400
2017-11-20,17.299999237060547,17.8799991607666,16.518999099731445,17.75,11.378427505493164,72800
2017-11-21,17.729999542236328,18.5,17.579999923706055,18.399999618530273,11.7951021194458,91500
2017-11-22,18.450000762939453,18.613000869750977,18.059999465942383,18.399999618530273,11.7951021194458,31300
2017-11-24,18.350000381469727,18.649999618530273,18.280000686645508,18.649999618530273,11.955361366271973,23900
2017-11-27,18.420000076293945,18.600000381469727,18.15999984741211,18.280000686645508,11.71817684173584,21800
2017-11-28,18.100000381469727,18.100000381469727,17.510000228881836,17.600000381469727,11.282271385192871,71500
2017-11-29,17.59000015258789,18.1200008392334,17.40999984741211,17.8700008392334,11.455349922180176,44800
2017-11-30,17.809999465942383,18.149999618530273,17.600000381469727,18.1200008392334,11.61561107635498,57900
2017-12-01,18.239999771118164,18.482999801635742,17.860000610351562,17.959999084472656,11.513046264648438,73600
2017-12-04,17.860000610351562,18.40999984741211,17.860000610351562,17.959999084472656,11.513046264648438,40200
2017-12-05,18.0,18.489999771118164,17.920000076293945,18.489999771118164,11.852795600891113,68200
2017-12-06,18.420000076293945,18.420000076293945,17.969999313354492,18.0,11.538687705993652,34200
2017-12-07,18.030000686645508,18.440000534057617,17.950000762939453,18.1299991607666,11.62201976776123,162000
2017-12-08,18.075000762939453,18.149999618530273,17.920000076293945,18.100000381469727,11.602790832519531,74200
2017-12-11,18.1200008392334,18.399999618530273,18.100000381469727,18.200000762939453,11.66689395904541,65000
2017-12-12,18.25,18.5,18.100000381469727,18.420000076293945,11.807923316955566,200700
2017-12-13,18.59000015258789,18.93199920654297,18.229999542236328,18.389999389648438,11.788691520690918,80800
2017-12-14,18.440000534057617,18.760000228881836,18.389999389648438,18.5,11.859207153320312,102100
2017-12-15,18.520000457763672,18.56999969482422,18.200000762939453,18.299999237060547,11.730997085571289,96800
2017-12-18,18.3799991607666,18.510000228881836,18.25,18.350000381469727,11.763050079345703,92800
2017-12-19,18.350000381469727,18.652999877929688,17.75,18.0,11.538687705993652,152800
2017-12-20,17.899999618530273,18.170000076293945,17.709999084472656,17.799999237060547,11.410479545593262,144900
2017-12-21,17.56999969482422,17.65999984741211,17.100000381469727,17.59000015258789,11.275860786437988,82700
2017-12-22,17.399999618530273,17.610000610351562,16.795000076293945,17.489999771118164,11.21175765991211,168900
2017-12-26,17.489999771118164,17.489999771118164,17.170000076293945,17.399999618530273,11.154062271118164,53100
2017-12-27,17.309999465942383,17.350000381469727,17.0,17.299999237060547,11.089960098266602,75700
2017-12-28,17.31999969482422,17.416000366210938,16.979999542236328,17.15999984741211,11.000215530395508,86600
2017-12-29,17.25,17.75,16.700000762939453,17.440000534057617,11.179705619812012,133700
2018-01-02,17.489999771118164,17.610000610351562,17.0,17.280000686645508,11.077138900756836,38400
2018-01-03,17.3700008392334,17.895000457763672,17.25,17.530000686645508,11.237399101257324,28600
2018-01-04,17.549999237060547,17.90999984741211,17.5,17.790000915527344,11.404069900512695,84800
2018-01-05,17.790000915527344,18.0,17.260000228881836,18.0,11.538687705993652,27300
2018-01-08,17.989999771118164,18.360000610351562,17.770000457763672,18.350000381469727,11.763050079345703,73500
2018-01-09,18.350000381469727,18.350000381469727,17.80500030517578,18.350000381469727,11.763050079345703,24400
2018-01-10,18.3799991607666,18.3799991607666,18.110000610351562,18.350000381469727,11.763050079345703,22900
2018-01-11,18.3700008392334,18.461999893188477,17.93600082397461,18.420000076293945,11.807923316955566,26800
2018-01-12,18.440000534057617,18.520000457763672,18.1299991607666,18.469999313354492,11.839973449707031,33800
2018-01-16,18.5,19.079999923706055,18.25,18.75,12.019464492797852,111900
2018-01-17,18.75,19.15999984741211,18.520000457763672,18.799999237060547,12.05151653289795,40800
2018-01-18,18.920000076293945,19.649999618530273,18.5,19.149999618530273,12.275877952575684,148300
2018-01-19,19.200000762939453,19.399999618530273,18.5,19.100000381469727,12.243828773498535,130200
2018-01-22,19.190000534057617,19.440000534057617,18.360000610351562,18.790000915527344,12.045105934143066,112100
2018-01-23,18.8799991607666,19.190000534057617,18.718000411987305,19.059999465942383,12.218185424804688,58200
2018-01-24,19.0,19.450000762939453,18.67799949645996,19.18000030517578,12.295112609863281,53300
2018-01-25,19.309999465942383,19.34000015258789,19.01099967956543,19.040000915527344,12.205368041992188,62600
2018-01-26,19.299999237060547,19.299999237060547,18.760000228881836,18.969999313354492,12.160493850708008,31600
2018-01-29,19.079999923706055,19.350000381469727,18.93000030517578,19.190000534057617,12.301522254943848,75600
2018-01-30,19.1299991607666,19.20599937438965,18.799999237060547,18.93000030517578,12.134851455688477,21900
2018-01-31,19.06999969482422,19.5,18.670000076293945,19.489999771118164,12.4938325881958,94500
2018-02-01,19.5,19.5,19.1200008392334,19.350000381469727,12.40408992767334,18400
2018-02-02,19.200000762939453,19.479999542236328,19.010000228881836,19.239999771118164,12.333571434020996,57700
2018-02-05,19.239999771118164,19.239999771118164,18.559999465942383,18.899999618530273,12.115619659423828,52400
2018-02-06,18.75,18.899999618530273,17.993000030517578,18.639999389648438,11.94895076751709,128200
2018-02-07,18.450000762939453,18.579999923706055,17.57200050354004,17.950000762939453,11.506635665893555,79500
2018-02-08,17.989999771118164,18.309999465942383,17.649999618530273,17.8799991607666,11.461758613586426,73800
2018-02-09,18.200000762939453,18.200000762939453,17.600000381469727,18.0,11.538687705993652,34800
2018-02-12,18.190000534057617,18.190000534057617,17.5,17.579999923706055,11.269450187683105,32500
2018-02-13,17.56999969482422,17.719999313354492,16.65999984741211,17.549999237060547,11.250218391418457,38900
2018-02-14,17.479999542236328,18.030000686645508,17.100000381469727,17.280000686645508,11.077138900756836,46300
2018-02-15,17.100000381469727,17.54400062561035,16.950000762939453,16.989999771118164,11.402642250061035,30400
2018-02-16,16.81999969482422,17.440000534057617,16.799999237060547,16.8799991607666,11.328816413879395,28100
2018-02-20,16.90999984741211,17.260000228881836,16.760000228881836,16.899999618530273,11.342238426208496,116100
2018-02-21,17.0,17.0,16.549999237060547,16.68000030517578,11.194589614868164,62400
2018-02-22,16.729999542236328,16.909000396728516,16.3700008392334,16.5,11.073783874511719,75800
2018-02-23,16.559999465942383,16.635000228881836,16.450000762939453,16.5,11.073783874511719,76000
2018-02-26,16.6299991607666,16.6299991607666,16.450000762939453,16.479999542236328,11.060359001159668,67200
2018-02-27,16.5,16.56599998474121,16.389999389648438,16.479999542236328,11.060359001159668,60300
2018-02-28,16.790000915527344,17.048999786376953,16.420000076293945,16.479999542236328,11.060359001159668,121200
2018-03-01,16.510000228881836,16.766000747680664,16.43000030517578,16.5,11.073783874511719,70200
2018-03-02,16.450000762939453,17.329999923706055,16.450000762939453,16.729999542236328,11.228144645690918,82800
2018-03-05,16.799999237060547,17.540000915527344,16.649999618530273,17.25,11.577136993408203,97000
2018-03-06,17.450000762939453,18.1299991607666,17.389999389648438,18.1299991607666,12.167737007141113,46800
2018-03-07,17.989999771118164,18.1200008392334,17.690000534057617,17.899999618530273,12.013376235961914,33500
2018-03-08,17.8799991607666,17.8799991607666,17.575000762939453,17.700000762939453,11.879150390625,30600
2018-03-09,17.809999465942383,17.809999465942383,17.079999923706055,17.479999542236328,11.731499671936035,69000
2018-03-12,17.350000381469727,17.450000762939453,16.68000030517578,17.329999923706055,11.630829811096191,106300
2018-03-13,17.389999389648438,17.454999923706055,16.899999618530273,17.170000076293945,11.523447036743164,44100
2018-03-14,17.1200008392334,17.239999771118164,16.899999618530273,16.90999984741211,11.34894847869873,48700
2018-03-15,17.049999237060547,17.437999725341797,16.474000930786133,16.899999618530273,11.342238426208496,48800
2018-03-16,16.899999618530273,17.440000534057617,16.899999618530273,17.329999923706055,11.630829811096191,17000
2018-03-19,17.239999771118164,17.239999771118164,16.700000762939453,17.0,11.409353256225586,58000
2018-03-20,16.950000762939453,17.0,16.520000457763672,16.81999969482422,11.28854751586914,43000
2018-03-21,16.829999923706055,17.049999237060547,16.551000595092773,16.950000762939453,11.375795364379883,38600
2018-03-22,16.950000762939453,17.354999542236328,16.540000915527344,16.860000610351562,11.31539249420166,63900
2018-03-23,16.950000762939453,16.950000762939453,16.5,16.520000457763672,11.08720588684082,45400
2018-03-26,16.68000030517578,16.979999542236328,16.360000610351562,16.790000915527344,11.268413543701172,69000
2018-03-27,16.8799991607666,17.25,16.549999237060547,16.950000762939453,11.375795364379883,42500
2018-03-28,16.940000534057617,17.260000228881836,16.700000762939453,17.110000610351562,11.483175277709961,69600
2018-03-29,17.200000762939453,17.850000381469727,16.90999984741211,17.709999084472656,11.885859489440918,62700
2018-04-02,17.59000015258789,17.979999542236328,17.100000381469727,17.850000381469727,11.979820251464844,74200
2018-04-03,17.8799991607666,17.90999984741211,17.110000610351562,17.579999923706055,11.79861068725586,77900
2018-04-04,17.299999237060547,17.540000915527344,17.200000762939453,17.260000228881836,11.583847045898438,19600
2018-04-05,17.360000610351562,17.670000076293945,17.295000076293945,17.389999389648438,11.671096801757812,59200
2018-04-06,17.440000534057617,17.613000869750977,17.25,17.290000915527344,11.603982925415039,54900
2018-04-09,17.290000915527344,17.607999801635742,17.219999313354492,17.309999465942383,11.617405891418457,59000
2018-04-10,17.43000030517578,17.527000427246094,17.0,17.469999313354492,11.724788665771484,30800
2018-04-11,17.260000228881836,17.56100082397461,17.18000030517578,17.3700008392334,11.657673835754395,39100
2018-04-12,17.5,17.579999923706055,17.18000030517578,17.18000030517578,11.530158996582031,41900
2018-04-13,17.229999542236328,17.753999710083008,17.229999542236328,17.540000915527344,11.771767616271973,67700
2018-04-16,17.639999389648438,17.790000915527344,17.229999542236328,17.790000915527344,11.939553260803223,79200
2018-04-17,17.81999969482422,17.889999389648438,17.559999465942383,17.559999465942383,11.785188674926758,44000
2018-04-18,17.600000381469727,18.0,17.59000015258789,17.65999984741211,11.852302551269531,66400
2018-04-19,17.700000762939453,17.93000030517578,17.540000915527344,17.700000762939453,11.879150390625,36800
2018-04-20,17.770000457763672,18.0,17.610000610351562,17.739999771118164,11.90599536895752,55900
2018-04-23,17.809999465942383,17.860000610351562,17.610000610351562,17.84000015258789,11.973109245300293,47100
2018-04-24,17.780000686645508,17.868999481201172,17.600000381469727,17.6299991607666,11.832169532775879,49600
2018-04-25,17.68000030517578,17.868000030517578,17.604999542236328,17.670000076293945,11.859016418457031,26700
2018-04-26,17.760000228881836,17.860000610351562,17.56999969482422,17.639999389648438,11.838882446289062,34900
2018-04-27,17.639999389648438,17.639999389648438,17.500999450683594,17.559999465942383,11.785188674926758,10200
2018-04-30,17.6299991607666,18.139999389648438,17.530000686645508,17.850000381469727,11.979820251464844,59800
2018-05-01,17.780000686645508,17.989999771118164,17.649999618530273,17.670000076293945,11.859016418457031,29300
2018-05-02,17.68000030517578,17.861000061035156,17.56599998474121,17.790000915527344,11.939553260803223,50600
2018-05-03,17.690000534057617,17.849000930786133,17.559999465942383,17.799999237060547,11.946263313293457,26700
2018-05-04,17.719999313354492,17.809999465942383,17.610000610351562,17.780000686645508,11.932840347290039,61100
2018-05-07,17.780000686645508,17.940000534057617,17.55299949645996,17.68000030517578,11.86572551727295,66800
2018-05-08,17.690000534057617,18.049999237060547,17.600000381469727,18.049999237060547,12.114045143127441,141700
2018-05-09,17.979999542236328,18.149999618530273,17.60099983215332,17.93000030517578,12.033512115478516,116100
2018-05-10,18.020000457763672,18.200000762939453,17.93000030517578,17.959999084472656,12.053646087646484,57000
2018-05-11,17.959999084472656,18.14900016784668,17.915000915527344,17.969999313354492,12.060356140136719,28300
2018-05-14,18.030000686645508,18.40999984741211,18.0,18.350000381469727,12.315389633178711,42400
2018-05-15,18.31999969482422,18.450000762939453,18.190000534057617,18.329999923706055,12.301966667175293,51000
2018-05-16,17.93000030517578,18.139999389648438,17.790000915527344,18.010000228881836,12.352033615112305,64500
2018-05-17,18.059999465942383,19.774999618530273,18.059999465942383,19.690000534057617,13.504247665405273,169900
2018-05-18,19.540000915527344,19.540000915527344,19.163999557495117,19.40999984741211,13.312213897705078,50100
2018-05-21,19.5,19.5,19.134000778198242,19.3799991607666,13.291638374328613,32300
2018-05-22,19.420000076293945,19.420000076293945,18.71500015258789,19.09000015258789,13.092741966247559,73500
2018-05-23,19.079999923706055,19.100000381469727,18.799999237060547,19.06999969482422,13.079026222229004,40400
2018-05-24,19.030000686645508,19.030000686645508,18.850000381469727,18.860000610351562,12.9350004196167,20200
2018-05-25,18.809999465942383,19.0,18.613000869750977,18.90999984741211,12.969290733337402,531300
2018-05-29,19.0,19.139999389648438,18.59000015258789,18.760000228881836,12.866416931152344,33400
2018-05-30,18.729999542236328,19.07200050354004,18.55699920654297,18.700000762939453,12.825263977050781,67400
2018-05-31,18.75,18.920000076293945,18.6299991607666,18.670000076293945,12.804689407348633,10500
2018-06-01,18.809999465942383,18.899999618530273,18.639999389648438,18.68000030517578,12.811548233032227,26700
2018-06-04,18.780000686645508,18.950000762939453,18.700000762939453,18.75,12.85955810546875,23400
2018-06-05,18.760000228881836,18.875,18.700000762939453,18.780000686645508,12.880133628845215,15700
2018-06-06,18.760000228881836,19.089000701904297,18.600000381469727,18.729999542236328,12.845837593078613,30900
2018-06-07,18.84000015258789,18.8700008392334,18.350000381469727,18.440000534057617,12.646944046020508,40700
2018-06-08,18.5,18.888999938964844,18.15999984741211,18.360000610351562,12.592080116271973,31200
2018-06-11,18.389999389648438,19.100000381469727,18.299999237060547,18.860000610351562,12.9350004196167,32700
2018-06-12,18.829999923706055,19.059999465942383,18.649999618530273,18.729999542236328,12.845837593078613,25900
2018-06-13,18.89900016784668,18.94499969482422,18.239999771118164,18.389999389648438,12.612653732299805,34900
2018-06-14,18.3700008392334,18.75,17.908000946044922,18.25,12.516634941101074,49100
2018-06-15,18.280000686645508,18.309999465942383,17.219999313354492,17.3700008392334,11.913094520568848,57900
2018-06-18,17.459999084472656,17.774999618530273,17.299999237060547,17.540000915527344,12.02968692779541,33600
2018-06-19,17.6200008392334,18.360000610351562,17.6200008392334,18.15999984741211,12.45490837097168,132000
2018-06-20,18.219999313354492,18.329999923706055,17.959999084472656,18.229999542236328,12.50291633605957,52500
2018-06-21,18.040000915527344,18.55299949645996,18.040000915527344,18.399999618530273,12.619513511657715,53100
2018-06-22,18.59000015258789,19.309999465942383,18.59000015258789,18.760000228881836,12.866416931152344,125700
2018-06-25,18.790000915527344,19.0,18.649999618530273,18.709999084472656,12.832122802734375,25800
2018-06-26,18.84000015258789,18.93000030517578,18.440000534057617,18.610000610351562,12.763540267944336,39200
2018-06-27,18.666000366210938,18.84000015258789,18.440000534057617,18.6299991607666,12.777255058288574,40700
2018-06-28,18.649999618530273,18.68000030517578,18.200000762939453,18.40999984741211,12.626370429992676,36200
2018-06-29,18.469999313354492,18.61199951171875,18.229999542236328,18.229999542236328,12.50291633605957,89500
2018-07-02,18.200000762939453,18.59000015258789,18.010000228881836,18.1299991607666,12.434331893920898,35100
2018-07-03,18.18000030517578,18.610000610351562,18.18000030517578,18.31999969482422,12.564644813537598,16200
2018-07-05,18.309999465942383,18.6200008392334,18.209999084472656,18.520000457763672,12.701812744140625,25400
2018-07-06,18.549999237060547,18.739999771118164,18.507999420166016,18.719999313354492,12.83897876739502,41400
2018-07-09,18.780000686645508,19.25,18.56999969482422,19.06999969482422,13.079026222229004,31300
2018-07-10,19.190000534057617,19.341999053955078,18.799999237060547,18.899999618530273,12.962433815002441,18400
2018-07-11,18.81999969482422,19.149999618530273,18.81999969482422,19.079999923706055,13.085887908935547,17200
2018-07-12,19.18000030517578,20.40999984741211,19.18000030517578,20.020000457763672,13.73057746887207,113400
2018-07-13,20.079999923706055,20.149999618530273,19.440000534057617,19.5,13.373939514160156,35600
2018-07-16,19.540000915527344,19.719999313354492,19.31800079345703,19.65999984741211,13.483673095703125,19300
2018-07-17,19.719999313354492,19.739999771118164,19.09000015258789,19.139999389648438,13.127037048339844,20700
2018-07-18,19.239999771118164,19.530000686645508,19.0,19.489999771118164,13.367080688476562,24300
2018-07-19,19.600000381469727,20.0,19.239999771118164,19.6299991607666,13.46309757232666,44800
2018-07-20,19.68000030517578,19.68000030517578,19.260000228881836,19.5,13.373939514160156,10500
2018-07-23,19.479999542236328,19.65999984741211,18.940000534057617,19.170000076293945,13.147611618041992,21400
2018-07-24,19.25,19.25,19.040000915527344,19.200000762939453,13.168187141418457,30600
2018-07-25,19.25,19.649999618530273,19.236000061035156,19.540000915527344,13.401373863220215,34700
2018-07-26,19.579999923706055,19.729999542236328,19.3700008392334,19.600000381469727,13.442523956298828,8300
2018-07-27,19.510000228881836,19.600000381469727,19.125,19.399999618530273,13.305354118347168,16600
2018-07-30,19.399999618530273,19.799999237060547,19.399999618530273,19.559999465942383,13.41508960723877,11300
2018-07-31,19.649999618530273,20.0,19.649999618530273,19.780000686645508,13.5659761428833,9800
2018-08-01,19.729999542236328,20.239999771118164,19.65999984741211,20.079999923706055,13.771729469299316,15400
2018-08-02,20.09000015258789,20.55900001525879,20.06999969482422,20.420000076293945,14.004912376403809,71900
2018-08-03,20.420000076293945,21.25,20.299999237060547,21.25,14.574166297912598,30800
2018-08-06,21.3700008392334,21.700000762939453,21.100000381469727,21.700000762939453,14.882792472839355,126900
2018-08-07,22.0,22.290000915527344,21.75,22.25,15.260005950927734,148600
2018-08-08,22.299999237060547,23.5,22.184999465942383,23.5,16.117313385009766,93900
2018-08-09,23.350000381469727,23.854999542236328,23.010000228881836,23.610000610351562,16.1927547454834,93200
2018-08-10,23.350000381469727,23.809999465942383,23.325000762939453,23.709999084472656,16.261337280273438,50800
2018-08-13,23.719999313354492,23.7450008392334,23.200000762939453,23.399999618530273,16.048725128173828,61400
2018-08-14,23.450000762939453,23.739999771118164,23.440000534057617,23.670000076293945,16.233903884887695,43500
2018-08-15,23.209999084472656,23.719999313354492,22.959999084472656,23.239999771118164,16.219945907592773,47300
2018-08-16,23.6299991607666,24.209999084472656,23.284000396728516,23.649999618530273,16.506099700927734,63800
2018-08-17,23.850000381469727,23.899999618530273,23.65999984741211,23.799999237060547,16.61078643798828,25600
2018-08-20,23.799999237060547,24.05900001525879,23.062999725341797,23.809999465942383,16.617765426635742,71800
2018-08-21,23.920000076293945,23.989999771118164,23.5,23.809999465942383,16.617765426635742,42600
2018-08-22,23.809999465942383,24.139999389648438,23.709999084472656,23.90999984741211,16.687559127807617,39000
2018-08-23,23.889999389648438,24.197999954223633,23.59000015258789,23.690000534057617,16.534015655517578,27200
2018-08-24,23.670000076293945,23.788999557495117,22.969999313354492,23.229999542236328,16.212966918945312,29200
2018-08-27,22.56999969482422,23.20800018310547,22.0,23.079999923706055,16.108278274536133,52800
2018-08-28,23.079999923706055,23.209999084472656,22.5,22.670000076293945,15.822124481201172,40300
2018-08-29,22.610000610351562,22.760000228881836,22.170000076293945,22.309999465942383,15.570868492126465,102200
2018-08-30,22.18000030517578,22.40999984741211,21.780000686645508,22.0,15.354510307312012,72800
2018-08-31,21.959999084472656,22.488000869750977,21.820999145507812,22.1200008392334,15.438262939453125,9500
2018-09-04,22.670000076293945,23.510000228881836,22.5,22.729999542236328,15.864001274108887,137400
2018-09-05,22.790000915527344,23.045000076293945,22.200000762939453,22.510000228881836,15.710453033447266,196800
2018-09-06,22.520000457763672,22.784000396728516,22.299999237060547,22.350000381469727,15.598786354064941,46200
2018-09-07,22.610000610351562,22.809999465942383,22.09000015258789,22.350000381469727,15.598786354064941,56000
2018-09-10,22.59000015258789,22.59000015258789,21.950000762939453,22.110000610351562,15.431283950805664,166800
2018-09-11,22.190000534057617,22.309999465942383,21.729999542236328,22.0,15.354510307312012,56100
2018-09-12,22.270000457763672,22.59000015258789,22.06100082397461,22.399999618530273,15.633684158325195,51600
2018-09-13,22.530000686645508,22.559999465942383,22.030000686645508,22.209999084472656,15.50107479095459,28400
2018-09-14,22.190000534057617,22.209999084472656,21.75,21.899999618530273,15.28471565246582,29500
2018-09-17,21.899999618530273,21.979999542236328,21.770000457763672,21.889999389648438,15.277738571166992,68900
2018-09-18,21.899999618530273,21.98900032043457,21.75,21.8799991607666,15.270760536193848,29700
2018-09-19,21.950000762939453,21.950000762939453,21.47800064086914,21.799999237060547,15.214921951293945,59700
2018-09-20,21.799999237060547,21.916000366210938,21.56999969482422,21.75,15.180026054382324,43200
2018-09-21,21.799999237060547,21.799999237060547,21.5,21.729999542236328,15.166069030761719,46900
2018-09-24,21.75,21.75,21.200000762939453,21.56999969482422,15.054399490356445,51200
2018-09-25,21.68000030517578,21.799999237060547,21.190000534057617,21.670000076293945,15.124191284179688,59000
2018-09-26,21.65999984741211,21.829999923706055,21.270000457763672,21.3700008392334,14.914814949035645,24200
2018-09-27,21.549999237060547,22.1299991607666,21.549999237060547,21.809999465942383,15.221903800964355,175400
2018-09-28,21.850000381469727,22.799999237060547,21.760000228881836,22.270000457763672,15.542951583862305,81700
2018-10-01,22.3799991607666,22.753000259399414,22.31999969482422,22.690000534057617,15.83608341217041,38700
2018-10-02,22.719999313354492,22.719999313354492,21.809999465942383,22.010000228881836,15.361488342285156,60500
2018-10-03,21.989999771118164,22.489999771118164,21.968000411987305,22.079999923706055,15.410343170166016,34500
2018-10-04,22.149999618530273,22.53499984741211,22.0,22.190000534057617,15.487114906311035,40700
2018-10-05,22.229999542236328,22.756000518798828,22.149999618530273,22.6200008392334,15.787229537963867,68300
2018-10-08,22.65999984741211,23.0,22.34000015258789,23.0,16.05244255065918,43700
2018-10-09,23.0,23.190000534057617,22.600000381469727,22.729999542236328,15.864001274108887,38600
2018-10-10,22.68000030517578,22.952999114990234,22.3700008392334,22.450000762939453,15.668581008911133,45400
2018-10-11,22.59000015258789,22.600000381469727,22.25,22.34000015258789,15.591806411743164,50800
2018-10-12,22.549999237060547,22.93000030517578,21.899999618530273,22.510000228881836,15.710453033447266,52900
2018-10-15,22.530000686645508,22.780000686645508,22.34000015258789,22.43000030517578,15.654622077941895,23600
2018-10-16,22.549999237060547,22.969999313354492,22.468000411987305,22.850000381469727,15.94775104522705,48700
2018-10-17,22.8799991607666,22.908000946044922,22.280000686645508,22.360000610351562,15.605766296386719,40100
2018-10-18,22.360000610351562,22.729999542236328,22.299999237060547,22.399999618530273,15.633684158325195,6500
2018-10-19,22.399999618530273,22.969999313354492,22.389999389648438,22.549999237060547,15.738374710083008,9300
2018-10-22,22.690000534057617,22.804000854492188,22.381000518798828,22.56999969482422,15.752327919006348,16100
2018-10-23,22.299999237060547,22.65999984741211,21.958999633789062,22.389999389648438,15.626703262329102,43400
2018-10-24,22.360000610351562,22.510000228881836,21.893999099731445,21.969999313354492,15.333569526672363,13000
2018-10-25,22.06999969482422,22.11400032043457,21.485000610351562,21.899999618530273,15.28471565246582,29900
2018-10-26,21.65999984741211,21.93000030517578,21.31999969482422,21.59000015258789,15.068360328674316,24200
2018-10-29,21.770000457763672,21.844999313354492,21.209999084472656,21.25,14.831061363220215,32900
2018-10-30,21.270000457763672,21.57200050354004,21.0,21.399999618530273,14.935750007629395,37700
2018-10-31,21.610000610351562,22.780000686645508,21.450000762939453,22.010000228881836,15.361488342285156,73100
2018-11-01,22.110000610351562,22.110000610351562,21.75,21.829999923706055,15.235860824584961,22600
2018-11-02,21.8700008392334,22.520000457763672,21.7189998626709,21.760000228881836,15.187006950378418,23700
2018-11-05,21.829999923706055,22.364999771118164,21.65999984741211,22.1299991607666,15.44524097442627,43500
2018-11-06,22.350000381469727,22.989999771118164,22.03499984741211,22.149999618530273,15.459198951721191,82000
2018-11-07,22.31999969482422,22.850000381469727,21.729999542236328,22.670000076293945,15.822124481201172,87100
2018-11-08,22.360000610351562,22.639999389648438,22.100000381469727,22.15999984741211,15.765213012695312,26000
2018-11-09,21.030000686645508,21.594999313354492,20.6200008392334,21.030000686645508,14.961297035217285,713000
2018-11-12,21.059999465942383,21.940000534057617,21.059999465942383,21.329999923706055,15.174726486206055,106400
2018-11-13,21.34000015258789,21.40999984741211,20.670000076293945,20.670000076293945,14.705183982849121,186900
2018-11-14,20.709999084472656,20.922000885009766,19.829999923706055,20.010000228881836,14.235645294189453,106400
2018-11-15,20.0,20.31999969482422,19.56999969482422,20.049999237060547,14.264101028442383,63300
2018-11-16,20.100000381469727,20.420000076293945,19.56999969482422,19.889999389648438,14.15027141571045,128400
2018-11-19,19.950000762939453,20.31999969482422,19.950000762939453,20.299999237060547,14.441956520080566,77300
2018-11-20,20.030000686645508,20.309999465942383,19.399999618530273,19.450000762939453,13.83724594116211,72300
2018-11-21,19.540000915527344,20.441999435424805,19.540000915527344,20.260000228881836,14.413501739501953,76000
2018-11-23,20.020000457763672,20.34000015258789,19.934999465942383,19.950000762939453,14.19295883178711,22200
2018-11-26,20.079999923706055,20.222999572753906,19.229999542236328,19.31999969482422,13.744759559631348,118200
2018-11-27,19.280000686645508,19.6200008392334,19.010000228881836,19.149999618530273,13.623815536499023,59800
2018-11-28,19.15999984741211,19.559999465942383,18.90999984741211,19.049999237060547,13.5526704788208,101100
2018-11-29,19.209999084472656,20.110000610351562,19.079999923706055,19.790000915527344,14.079131126403809,79200
2018-11-30,19.860000610351562,20.18000030517578,19.493000030517578,20.149999618530273,14.335244178771973,70900
2018-12-03,20.479999542236328,21.09000015258789,20.430999755859375,21.030000686645508,14.961297035217285,106900
2018-12-04,20.950000762939453,21.15999984741211,20.270000457763672,20.600000381469727,14.65538501739502,150200
2018-12-06,20.360000610351562,20.559999465942383,19.899999618530273,20.1299991607666,14.321015357971191,71500
2018-12-07,20.25,20.799999237060547,20.25,20.520000457763672,14.598469734191895,48500
2018-12-10,20.700000762939453,20.770000457763672,20.04599952697754,20.100000381469727,14.29967212677002,100600
2018-12-11,20.360000610351562,20.770000457763672,19.90999984741211,19.989999771118164,14.221414566040039,84400
2018-12-12,20.18000030517578,20.420000076293945,19.969999313354492,19.979999542236328,14.214303970336914,86700
2018-12-13,20.209999084472656,20.260000228881836,19.850000381469727,20.020000457763672,14.242759704589844,147600
2018-12-14,19.899999618530273,20.0,19.40999984741211,19.43000030517578,13.823016166687012,85600
2018-12-17,19.43000030517578,19.860000610351562,18.329999923706055,18.440000534057617,13.11870288848877,126300
2018-12-18,18.299999237060547,18.389999389648438,17.049999237060547,17.200000762939453,12.236536026000977,151300
2018-12-19,17.200000762939453,17.760000228881836,17.020000457763672,17.079999923706055,12.151165008544922,116700
2018-12-20,17.049999237060547,17.559999465942383,16.166000366210938,16.459999084472656,11.71008014678955,114000
2018-12-21,16.360000610351562,16.389999389648438,15.020000457763672,15.300000190734863,10.884825706481934,831500
2018-12-24,15.319999694824219,15.520000457763672,14.975000381469727,15.25,10.849254608154297,127000
2018-12-26,15.260000228881836,16.06999969482422,15.039999961853027,15.9399995803833,11.34013843536377,139900
2018-12-27,15.720000267028809,16.15999984741211,15.630000114440918,15.779999732971191,11.226308822631836,100700
2018-12-28,15.9399995803833,16.010000228881836,15.609999656677246,15.800000190734863,11.240538597106934,239500
2018-12-31,16.100000381469727,16.158000946044922,15.789999961853027,15.989999771118164,11.375709533691406,131500
2019-01-02,15.989999771118164,17.309999465942383,15.770000457763672,17.25,12.27210807800293,82100
2019-01-03,17.170000076293945,17.6200008392334,17.049999237060547,17.399999618530273,12.378820419311523,61900
2019-01-04,17.700000762939453,18.125999450683594,17.648000717163086,18.100000381469727,12.87682056427002,71100
2019-01-07,18.229999542236328,18.75,18.030000686645508,18.31999969482422,13.033332824707031,79600
2019-01-08,18.420000076293945,19.1200008392334,18.110000610351562,19.1200008392334,13.602471351623535,179500
2019-01-09,19.420000076293945,19.420000076293945,18.979999542236328,19.389999389648438,13.79455852508545,93800
2019-01-10,19.5,19.5,19.211000442504883,19.40999984741211,13.80879020690918,101600
2019-01-11,19.3700008392334,19.472999572753906,18.834999084472656,19.020000457763672,13.531330108642578,106000
2019-01-14,19.020000457763672,19.299999237060547,18.68000030517578,18.979999542236328,13.502875328063965,39800
2019-01-15,19.079999923706055,19.25,18.959999084472656,19.0,13.517102241516113,66700
2019-01-16,18.950000762939453,19.049999237060547,18.760000228881836,18.799999237060547,13.374815940856934,293500
2019-01-17,18.899999618530273,19.040000915527344,18.329999923706055,18.56999969482422,13.211191177368164,123400
2019-01-18,18.579999923706055,18.93000030517578,18.280000686645508,18.5,13.161391258239746,110700
2019-01-22,18.299999237060547,18.489999771118164,18.0,18.09000015258789,12.869704246520996,72800
2019-01-23,18.290000915527344,18.50200080871582,17.950000762939453,18.15999984741211,12.919503211975098,89400
2019-01-24,18.1299991607666,18.299999237060547,18.0,18.25,12.98353385925293,36300
2019-01-25,18.399999618530273,18.959999084472656,18.115999221801758,18.8700008392334,13.4246187210083,80200
2019-01-28,18.799999237060547,19.6200008392334,18.610000610351562,18.899999618530273,13.44596004486084,202700
2019-01-29,19.06999969482422,19.15999984741211,18.684999465942383,18.770000457763672,13.353473663330078,70200
2019-01-30,18.889999389648438,18.989999771118164,18.610000610351562,18.84000015258789,13.403274536132812,88100
2019-01-31,18.950000762939453,18.989999771118164,18.6200008392334,18.940000534057617,13.474417686462402,112500
2019-02-01,18.989999771118164,19.25,18.739999771118164,18.860000610351562,13.417505264282227,166600
2019-02-04,18.899999618530273,18.959999084472656,18.829999923706055,18.920000076293945,13.460188865661621,86000
2019-02-05,18.8799991607666,18.989999771118164,18.729999542236328,18.809999465942383,13.381932258605957,78900
2019-02-06,18.899999618530273,19.020000457763672,18.75,18.799999237060547,13.374815940856934,102900
2019-02-07,18.850000381469727,18.889999389648438,18.389999389648438,18.649999618530273,13.268104553222656,98000
2019-02-08,18.549999237060547,18.950000762939453,18.440000534057617,18.93000030517578,13.467304229736328,50400
2019-02-11,19.0,19.190000534057617,18.719999313354492,18.940000534057617,13.474417686462402,80900
2019-02-12,19.059999465942383,19.479999542236328,19.024999618530273,19.31999969482422,13.744759559631348,117600
2019-02-13,19.450000762939453,19.600000381469727,19.41900062561035,19.559999465942383,13.91550064086914,102400
2019-02-14,19.290000915527344,19.420000076293945,19.030000686645508,19.399999618530273,14.12667465209961,119500
2019-02-15,19.43000030517578,19.4950008392334,19.184999465942383,19.25,14.017446517944336,37700
2019-02-19,19.1299991607666,20.170000076293945,19.1299991607666,19.90999984741211,14.49804401397705,116200
2019-02-20,19.889999389648438,20.209999084472656,19.739999771118164,19.959999084472656,14.534451484680176,87200
2019-02-21,19.959999084472656,20.009000778198242,19.290000915527344,19.5,14.199493408203125,36800
2019-02-22,19.520000457763672,19.899999618530273,19.389999389648438,19.459999084472656,14.170363426208496,33100
2019-02-25,19.440000534057617,19.790000915527344,19.209999084472656,19.6200008392334,14.286873817443848,48600
2019-02-26,19.670000076293945,20.200000762939453,19.520000457763672,20.040000915527344,14.592708587646484,64300
2019-02-27,20.309999465942383,20.90999984741211,19.520000457763672,20.059999465942383,14.607272148132324,188300
2019-02-28,20.06999969482422,20.219999313354492,19.6299991607666,19.809999465942383,14.425225257873535,48800
2019-03-01,20.0,20.030000686645508,19.25,19.31999969482422,14.068419456481934,63500
2019-03-04,19.399999618530273,19.59000015258789,19.0,19.440000534057617,14.155803680419922,59500
2019-03-05,19.43000030517578,19.570999145507812,19.280000686645508,19.43000030517578,14.148520469665527,29500
2019-03-06,19.350000381469727,19.4950008392334,19.239999771118164,19.3700008392334,14.104828834533691,37600
2019-03-07,19.3799991607666,20.5,19.3799991607666,19.639999389648438,14.301436424255371,55200
2019-03-08,19.600000381469727,19.770000457763672,19.20599937438965,19.649999618530273,14.30871868133545,77900
2019-03-11,19.649999618530273,19.78499984741211,19.489999771118164,19.6200008392334,14.286873817443848,61400
2019-03-12,19.670000076293945,19.979999542236328,19.540000915527344,19.93000030517578,14.51260757446289,52000
2019-03-13,20.040000915527344,20.290000915527344,19.899999618530273,20.190000534057617,14.701936721801758,66000
2019-03-14,20.149999618530273,20.22800064086914,19.950000762939453,20.09000015258789,14.629115104675293,29400
2019-03-15,20.110000610351562,20.3799991607666,19.969999313354492,20.139999389648438,14.66552448272705,92000
2019-03-18,20.139999389648438,20.854999542236328,20.139999389648438,20.829999923706055,15.16796875,75800
2019-03-19,20.8799991607666,20.917999267578125,20.520000457763672,20.68000030517578,15.05874252319336,51900
2019-03-20,20.649999618530273,20.799999237060547,20.239999771118164,20.610000610351562,15.007770538330078,35600
2019-03-21,20.6200008392334,20.799999237060547,20.56999969482422,20.639999389648438,15.029616355895996,23200
2019-03-22,20.719999313354492,20.75,20.040000915527344,20.530000686645508,14.949517250061035,74000
2019-03-25,20.579999923706055,20.639999389648438,20.100000381469727,20.56999969482422,14.978644371032715,72600
2019-03-26,20.790000915527344,21.035999298095703,20.209999084472656,20.31999969482422,14.796601295471191,66600
2019-03-27,20.329999923706055,20.639999389648438,19.81999969482422,20.059999465942383,14.607272148132324,67400
2019-03-28,20.040000915527344,20.540000915527344,19.969999313354492,20.43000030517578,14.876699447631836,34500
2019-03-29,20.530000686645508,20.88800048828125,20.280000686645508,20.31999969482422,14.796601295471191,67900
2019-04-01,20.6200008392334,20.760000228881836,20.520000457763672,20.559999465942383,14.971362113952637,66800
2019-04-02,20.690000534057617,20.760000228881836,20.010000228881836,20.290000915527344,14.774752616882324,144300
2019-04-03,20.31999969482422,20.364999771118164,19.989999771118164,20.049999237060547,14.599990844726562,39600
2019-04-04,20.149999618530273,20.350000381469727,19.950000762939453,20.09000015258789,14.629115104675293,35400
2019-04-05,20.139999389648438,20.454999923706055,20.139999389648438,20.40999984741211,14.862136840820312,15100
2019-04-08,20.5,20.59000015258789,20.06999969482422,20.18000030517578,14.694655418395996,39000
2019-04-09,20.100000381469727,20.389999389648438,19.799999237060547,19.959999084472656,14.534451484680176,38900
2019-04-10,19.969999313354492,20.18000030517578,19.899999618530273,20.020000457763672,14.578145027160645,25300
2019-04-11,20.1299991607666,20.1299991607666,19.75,20.020000457763672,14.578145027160645,39600
2019-04-12,20.239999771118164,20.56999969482422,20.079999923706055,20.31999969482422,14.796601295471191,17700
2019-04-15,20.440000534057617,20.56999969482422,20.200000762939453,20.34000015258789,14.811162948608398,38300
2019-04-16,20.299999237060547,20.570999145507812,20.160999298095703,20.420000076293945,14.869416236877441,35900
2019-04-17,20.559999465942383,20.59000015258789,20.229999542236328,20.43000030517578,14.876699447631836,52100
2019-04-18,20.450000762939453,20.469999313354492,20.309999465942383,20.31999969482422,14.796601295471191,28500
2019-04-22,20.399999618530273,20.510000228881836,20.270000457763672,20.420000076293945,14.869416236877441,40600
2019-04-23,20.420000076293945,20.533000946044922,20.215999603271484,20.239999771118164,14.738346099853516,36500
2019-04-24,20.25,20.25,20.09000015258789,20.1200008392334,14.650965690612793,24700
2019-04-25,20.219999313354492,20.299999237060547,20.110000610351562,20.18000030517578,14.694655418395996,42400
2019-04-26,20.200000762939453,20.219999313354492,19.829999923706055,20.1200008392334,14.650965690612793,49000
2019-04-29,20.190000534057617,20.229999542236328,20.010000228881836,20.15999984741211,14.680088996887207,21900
2019-04-30,20.260000228881836,20.260000228881836,19.700000762939453,19.93000030517578,14.51260757446289,73000
2019-05-01,19.989999771118164,20.020000457763672,19.5,19.5,14.199493408203125,54400
2019-05-02,19.479999542236328,19.667999267578125,18.829999923706055,19.040000915527344,13.864532470703125,79900
2019-05-03,19.09000015258789,19.360000610351562,19.09000015258789,19.34000015258789,14.082983016967773,66900
2019-05-06,19.31999969482422,19.549999237060547,19.187999725341797,19.510000228881836,14.206774711608887,40600
2019-05-07,19.5,19.5,19.270000457763672,19.420000076293945,14.14123821258545,17400
2019-05-08,19.549999237060547,20.360000610351562,19.520000457763672,20.200000762939453,14.709217071533203,133400
2019-05-09,20.059999465942383,20.389999389648438,20.059999465942383,20.350000381469727,14.818446159362793,58700
2019-05-10,20.360000610351562,20.950000762939453,20.190000534057617,20.649999618530273,15.036895751953125,137300
2019-05-13,20.700000762939453,20.858999252319336,20.36400032043457,20.5,14.927672386169434,114900
2019-05-14,20.780000686645508,20.899999618530273,20.5,20.75,15.109716415405273,126100
2019-05-15,20.75,20.950000762939453,20.65999984741211,20.829999923706055,15.16796875,137500
2019-05-16,20.450000762939453,20.6200008392334,20.350000381469727,20.399999618530273,15.197771072387695,126100
2019-05-17,20.350000381469727,20.510000228881836,20.135000228881836,20.299999237060547,15.123270034790039,53900
2019-05-20,20.469999313354492,21.059999465942383,20.170000076293945,20.8799991607666,15.555365562438965,152100
2019-05-21,20.84000015258789,22.15999984741211,20.763999938964844,21.649999618530273,16.129009246826172,190400
2019-05-22,21.5,21.625,21.09000015258789,21.15999984741211,15.763960838317871,66400
2019-05-23,21.0,21.100000381469727,20.3700008392334,20.729999542236328,15.443614959716797,91100
2019-05-24,20.850000381469727,20.992000579833984,20.6200008392334,20.969999313354492,15.622416496276855,23400
2019-05-28,21.219999313354492,21.219999313354492,20.559999465942383,20.6299991607666,15.369117736816406,37900
2019-05-29,20.3700008392334,20.433000564575195,19.530000686645508,20.049999237060547,14.937024116516113,75600
2019-05-30,20.149999618530273,20.459999084472656,19.711000442504883,19.969999313354492,14.877423286437988,106000
2019-05-31,19.940000534057617,19.969999313354492,19.209999084472656,19.600000381469727,14.60177993774414,91100
2019-06-03,19.700000762939453,19.930999755859375,19.530000686645508,19.700000762939453,14.676279067993164,39300
2019-06-04,19.719999313354492,19.940000534057617,19.604000091552734,19.81999969482422,14.76567554473877,22200
2019-06-05,19.950000762939453,20.0049991607666,18.950000762939453,19.110000610351562,14.236736297607422,139800
2019-06-06,19.219999313354492,19.549999237060547,18.809999465942383,18.940000534057617,14.110087394714355,72300
2019-06-07,19.0,19.825000762939453,19.0,19.260000228881836,14.34848403930664,47200
2019-06-10,19.399999618530273,19.950000762939453,19.399999618530273,19.889999389648438,14.817825317382812,99900
2019-06-11,19.690000534057617,19.739999771118164,19.510000228881836,19.530000686645508,14.549630165100098,108600
2019-06-12,19.540000915527344,19.579999923706055,19.399999618530273,19.43000030517578,14.475131034851074,83400
2019-06-13,19.700000762939453,19.700000762939453,19.389999389648438,19.579999923706055,14.586878776550293,70500
2019-06-14,19.579999923706055,19.600000381469727,19.299999237060547,19.5,14.527280807495117,48000
2019-06-17,19.56999969482422,19.56999969482422,19.110000610351562,19.149999618530273,14.266533851623535,97700
2019-06-18,19.25,19.393999099731445,19.100000381469727,19.1299991607666,14.251631736755371,68500
2019-06-19,19.209999084472656,19.447999954223633,19.065000534057617,19.399999618530273,14.452781677246094,57400
2019-06-20,19.719999313354492,19.969999313354492,19.514999389648438,19.81999969482422,14.76567554473877,71700
2019-06-21,19.850000381469727,20.239999771118164,19.700000762939453,20.190000534057617,15.041324615478516,115400
2019-06-24,20.260000228881836,20.639999389648438,20.260000228881836,20.5,15.272268295288086,171900
2019-06-25,20.5,20.599000930786133,20.31999969482422,20.450000762939453,15.235021591186523,82100
2019-06-26,20.530000686645508,20.934999465942383,20.530000686645508,20.8799991607666,15.555365562438965,112400
2019-06-27,20.920000076293945,21.979999542236328,20.88599967956543,21.81999969482422,16.255653381347656,130700
2019-06-28,22.0,22.100000381469727,21.280000686645508,21.5,16.017257690429688,119300
2019-07-01,21.790000915527344,22.18000030517578,21.440000534057617,21.5,16.017257690429688,121800
2019-07-02,21.5,21.600000381469727,21.260000228881836,21.350000381469727,15.905509948730469,76900
2019-07-03,21.389999389648438,21.889999389648438,21.389999389648438,21.6299991607666,16.114107131958008,59000
2019-07-05,21.649999618530273,22.354999542236328,21.649999618530273,22.299999237060547,16.61324691772461,93400
2019-07-08,22.290000915527344,22.299999237060547,21.700000762939453,21.809999465942383,16.24820327758789,132500
2019-07-09,21.889999389648438,22.040000915527344,21.280000686645508,21.299999237060547,15.868260383605957,109200
2019-07-10,21.510000228881836,21.917999267578125,21.299999237060547,21.399999618530273,15.942758560180664,160500
2019-07-11,21.43000030517578,21.790000915527344,21.25,21.350000381469727,15.905509948730469,173700
2019-07-12,21.350000381469727,21.99799919128418,21.350000381469727,21.850000381469727,16.27800178527832,147000
2019-07-15,21.979999542236328,21.979999542236328,21.670000076293945,21.75,16.20350456237793,294300
2019-07-16,21.75,21.940000534057617,21.719999313354492,21.760000228881836,16.210954666137695,119700
2019-07-17,21.959999084472656,21.959999084472656,21.625,21.950000762939453,16.35250473022461,379700
2019-07-18,21.799999237060547,21.90999984741211,21.649999618530273,21.760000228881836,16.210954666137695,64600
2019-07-19,21.829999923706055,21.93000030517578,21.700000762939453,21.729999542236328,16.1886043548584,59600
2019-07-22,21.780000686645508,21.916000366210938,21.75,21.850000381469727,16.27800178527832,44100
2019-07-23,21.90999984741211,22.0,21.790000915527344,21.860000610351562,16.28545570373535,48500
2019-07-24,21.850000381469727,21.940000534057617,21.68000030517578,21.799999237060547,16.240753173828125,53600
2019-07-25,21.920000076293945,21.959999084472656,21.670000076293945,21.829999923706055,16.263105392456055,114200
2019-07-26,21.850000381469727,22.0,21.56999969482422,21.75,16.20350456237793,72500
2019-07-29,21.799999237060547,21.799999237060547,21.391000747680664,21.700000762939453,16.166257858276367,139700
2019-07-30,21.700000762939453,21.850000381469727,21.665000915527344,21.799999237060547,16.240753173828125,98400
2019-07-31,21.799999237060547,21.891000747680664,21.600000381469727,21.829999923706055,16.263105392456055,105800
2019-08-01,21.829999923706055,21.850000381469727,21.510000228881836,21.649999618530273,16.129009246826172,70400
2019-08-02,21.649999618530273,21.649999618530273,20.260000228881836,21.25,15.831013679504395,163400
2019-08-05,21.09000015258789,21.09000015258789,20.079999923706055,20.149999618530273,15.011523246765137,129400
2019-08-06,20.309999465942383,20.6200008392334,19.770000457763672,19.81999969482422,14.76567554473877,126400
2019-08-07,19.75,19.75,16.200000762939453,17.020000457763672,12.679709434509277,632900
2019-08-08,17.06999969482422,17.222000122070312,16.799999237060547,16.920000076293945,12.605209350585938,195000
2019-08-09,17.030000686645508,17.65999984741211,17.010000228881836,17.170000076293945,12.791457176208496,227900
2019-08-12,17.18000030517578,17.358999252319336,17.040000915527344,17.18000030517578,12.798907279968262,365200
2019-08-13,17.260000228881836,17.32900047302246,16.31999969482422,16.530000686645508,12.314664840698242,343400
2019-08-14,16.530000686645508,16.62299919128418,16.0,16.15999984741211,12.039018630981445,280100
2019-08-15,16.0,16.0,15.3100004196167,15.489999771118164,11.900725364685059,156400
2019-08-16,15.5,16.165000915527344,15.350000381469727,15.880000114440918,12.200357437133789,216600
2019-08-19,16.079999923706055,16.079999923706055,15.350000381469727,15.670000076293945,12.039018630981445,252100
2019-08-20,15.829999923706055,15.880000114440918,15.510000228881836,15.640000343322754,12.015969276428223,144200
2019-08-21,15.65999984741211,15.899999618530273,15.289999961853027,15.449999809265137,11.869994163513184,165900
2019-08-22,15.489999771118164,15.489999771118164,15.100000381469727,15.180000305175781,11.662559509277344,133300
2019-08-23,15.100000381469727,15.449999809265137,14.850000381469727,15.199999809265137,11.677923202514648,219700
2019-08-26,15.489999771118164,15.5,15.020000457763672,15.119999885559082,11.616461753845215,150900
2019-08-27,15.15999984741211,15.199999809265137,14.260000228881836,14.680000305175781,11.27841567993164,190000
2019-08-28,14.75,14.960000038146973,14.300000190734863,14.800000190734863,11.370611190795898,116000
2019-08-29,14.899999618530273,15.329999923706055,14.899999618530273,15.0600004196167,11.570363998413086,197000
2019-08-30,15.239999771118164,15.289999961853027,14.720000267028809,15.170000076293945,11.654876708984375,97800
2019-09-03,15.0,15.130000114440918,14.859999656677246,15.079999923706055,11.58573055267334,64800
2019-09-04,15.109999656677246,15.210000038146973,14.899999618530273,14.970000267028809,11.501218795776367,88100
2019-09-05,15.15999984741211,15.390000343322754,15.069999694824219,15.100000381469727,11.601095199584961,148900
2019-09-06,14.989999771118164,15.170000076293945,14.899999618530273,14.979999542236328,11.508901596069336,66500
2019-09-09,15.010000228881836,15.5,15.0,15.449999809265137,11.869994163513184,127900
2019-09-10,15.539999961853027,15.6899995803833,15.180000305175781,15.289999961853027,11.747069358825684,188400
2019-09-11,15.390000343322754,15.6899995803833,15.180000305175781,15.25,11.716338157653809,133100
2019-09-12,15.270000457763672,15.279999732971191,15.050000190734863,15.180000305175781,11.662559509277344,66500
2019-09-13,15.220000267028809,15.850000381469727,15.199999809265137,15.770000457763672,12.115845680236816,169400
2019-09-16,16.200000762939453,16.5,16.049999237060547,16.260000228881836,12.49230670928955,242100
2019-09-17,16.389999389648438,16.753000259399414,15.880000114440918,16.350000381469727,12.561450958251953,179800
2019-09-18,16.270000457763672,16.496999740600586,16.020000457763672,16.15999984741211,12.41547679901123,70800
2019-09-19,16.15999984741211,16.440000534057617,16.020000457763672,16.079999923706055,12.354013442993164,80500
2019-09-20,16.100000381469727,16.65999984741211,16.100000381469727,16.639999389648438,12.784253120422363,186900
2019-09-23,16.979999542236328,17.729999542236328,16.969999313354492,17.579999923706055,13.506440162658691,295800
2019-09-24,17.68000030517578,17.68000030517578,16.850000381469727,17.18000030517578,13.199127197265625,199800
2019-09-25,17.100000381469727,17.100000381469727,16.549999237060547,16.68000030517578,12.814985275268555,165600
2019-09-26,16.6200008392334,16.674999237060547,16.290000915527344,16.31999969482422,12.538402557373047,108200
2019-09-27,16.290000915527344,16.415000915527344,16.139999389648438,16.200000762939453,12.446208953857422,109100
2019-09-30,16.18000030517578,16.25,15.920000076293945,15.970000267028809,12.269503593444824,111700
2019-10-01,16.0,16.09000015258789,15.8100004196167,15.850000381469727,12.1773099899292,53900
2019-10-02,15.800000190734863,15.800000190734863,15.5,15.649999618530273,12.023652076721191,104700
2019-10-03,15.619999885559082,16.5,15.619999885559082,16.479999542236328,12.661327362060547,151900
2019-10-04,16.479999542236328,16.68000030517578,16.21500015258789,16.540000915527344,12.707427024841309,60200
2019-10-07,16.489999771118164,16.78499984741211,16.334999084472656,16.450000762939453,12.638279914855957,67200
2019-10-08,16.43000030517578,16.43000030517578,15.569999694824219,15.949999809265137,12.25413703918457,99800
2019-10-09,15.989999771118164,16.2549991607666,15.869999885559082,15.920000076293945,12.231088638305664,34400
2019-10-10,15.920000076293945,16.06999969482422,15.649999618530273,15.920000076293945,12.231088638305664,77800
2019-10-11,16.06999969482422,16.06999969482422,15.8100004196167,15.819999694824219,12.154260635375977,82400
2019-10-14,15.819999694824219,15.90999984741211,15.710000038146973,15.850000381469727,12.1773099899292,62200
2019-10-15,15.90999984741211,16.290000915527344,15.8100004196167,16.149999618530273,12.407793998718262,58300
2019-10-16,16.209999084472656,16.270000457763672,16.091999053955078,16.219999313354492,12.46157455444336,44400
2019-10-17,16.280000686645508,16.466999053955078,16.15999984741211,16.329999923706055,12.546085357666016,96800
2019-10-18,16.309999465942383,16.670000076293945,16.309999465942383,16.59000015258789,12.74583911895752,77800
2019-10-21,16.579999923706055,17.280000686645508,16.56999969482422,17.18000030517578,13.199127197265625,185200
2019-10-22,17.389999389648438,17.649999618530273,17.0,17.040000915527344,13.091567039489746,298000
2019-10-23,17.040000915527344,17.527999877929688,16.81999969482422,17.190000534057617,13.206809043884277,216700
2019-10-24,17.43000030517578,17.43000030517578,16.850000381469727,17.049999237060547,13.099248886108398,130400
2019-10-25,17.079999923706055,17.299999237060547,16.954999923706055,17.25,13.252907752990723,85400
2019-10-28,17.299999237060547,17.48900032043457,17.045000076293945,17.09000015258789,13.12998104095459,93500
2019-10-29,17.079999923706055,17.469999313354492,17.0,17.1299991607666,13.160712242126465,87500
2019-10-30,17.1299991607666,17.399999618530273,17.1299991607666,17.260000228881836,13.260590553283691,76700
2019-10-31,17.309999465942383,17.309999465942383,17.0,17.239999771118164,13.245223999023438,65000
2019-11-01,17.299999237060547,17.420000076293945,17.25,17.360000610351562,13.337419509887695,144700
2019-11-04,17.649999618530273,18.299999237060547,17.549999237060547,17.950000762939453,13.790705680847168,522000
2019-11-05,18.059999465942383,18.149999618530273,17.59000015258789,17.739999771118164,13.629365921020508,179300
2019-11-06,18.0,18.760000228881836,17.5,18.34000015258789,14.090337753295898,360900
2019-11-07,18.510000228881836,18.549999237060547,17.780000686645508,18.139999389648438,13.936678886413574,169600
2019-11-08,18.139999389648438,18.6200008392334,17.959999084472656,18.360000610351562,14.105704307556152,472400
2019-11-11,18.489999771118164,18.610000610351562,18.200000762939453,18.469999313354492,14.190214157104492,333100
2019-11-12,18.6200008392334,18.864999771118164,18.399999618530273,18.579999923706055,14.274724006652832,238700
2019-11-13,18.520000457763672,18.889999389648438,18.450000762939453,18.450000762939453,14.174849510192871,216500
2019-11-14,18.020000457763672,18.110000610351562,17.510000228881836,17.690000534057617,13.98121452331543,268400
2019-11-15,17.59000015258789,17.780000686645508,17.340999603271484,17.59000015258789,13.902177810668945,252300
2019-11-18,17.59000015258789,17.59000015258789,16.700000762939453,16.860000610351562,13.325228691101074,192800
2019-11-19,16.639999389648438,16.850000381469727,16.100000381469727,16.219999313354492,12.819405555725098,266100
2019-11-20,16.209999084472656,16.27899932861328,15.75,15.960000038146973,12.613916397094727,263200
2019-11-21,16.100000381469727,16.329999923706055,15.90999984741211,16.270000457763672,12.858924865722656,332600
2019-11-22,16.25,16.65999984741211,16.25,16.31999969482422,12.898439407348633,188900
2019-11-25,16.15999984741211,16.520000457763672,16.040000915527344,16.43000030517578,12.985379219055176,137700
2019-11-26,16.489999771118164,16.6200008392334,16.200000762939453,16.229999542236328,12.827308654785156,103200
2019-11-27,16.34000015258789,16.479999542236328,16.200000762939453,16.469999313354492,13.01699161529541,54600
2019-11-29,16.489999771118164,16.489999771118164,16.0,16.0,12.645529747009277,108600
2019-12-02,16.059999465942383,16.170000076293945,15.5600004196167,15.680000305175781,12.392619132995605,183600
2019-12-03,15.65999984741211,15.800999641418457,15.34000015258789,15.65999984741211,12.376812934875488,91800
2019-12-04,15.670000076293945,15.8100004196167,15.640000343322754,15.670000076293945,12.384716987609863,95500
2019-12-05,15.729999542236328,15.84000015258789,15.600000381469727,15.8100004196167,12.49536418914795,78700
2019-12-06,15.739999771118164,15.972000122070312,15.720000267028809,15.800000190734863,12.487460136413574,104500
2019-12-09,15.8100004196167,16.229999542236328,15.6899995803833,16.200000762939453,12.80359935760498,131500
2019-12-10,16.260000228881836,16.799999237060547,16.09600067138672,16.68000030517578,13.182965278625488,219600
2019-12-11,16.799999237060547,16.850000381469727,16.459999084472656,16.65999984741211,13.167157173156738,80400
2019-12-12,16.56999969482422,16.950000762939453,16.5,16.579999923706055,13.10392951965332,107200
2019-12-13,16.65999984741211,16.700000762939453,16.299999237060547,16.700000762939453,13.198773384094238,130400
2019-12-16,16.690000534057617,16.899999618530273,16.600000381469727,16.790000915527344,13.269904136657715,184200
2019-12-17,16.81999969482422,17.152999877929688,16.790000915527344,16.790000915527344,13.269904136657715,172200
2019-12-18,16.68000030517578,16.743000030517578,16.40999984741211,16.5,13.040702819824219,193300
2019-12-19,16.5,16.6200008392334,16.31999969482422,16.469999313354492,13.01699161529541,95300
2019-12-20,16.469999313354492,16.65999984741211,16.389999389648438,16.399999618530273,12.96166706085205,107000
2019-12-23,16.440000534057617,16.690000534057617,16.299999237060547,16.350000381469727,12.922150611877441,189300
2019-12-24,16.510000228881836,16.520000457763672,16.309999465942383,16.459999084472656,13.009087562561035,46000
2019-12-26,16.6200008392334,17.31999969482422,16.555999755859375,17.309999465942383,13.680883407592773,120400
2019-12-27,17.360000610351562,17.489999771118164,16.5,16.690000534057617,13.190869331359863,142900
2019-12-30,16.719999313354492,16.989999771118164,16.56999969482422,16.649999618530273,13.159253120422363,97700
2019-12-31,16.579999923706055,16.8700008392334,16.579999923706055,16.59000015258789,13.111833572387695,95100
2020-01-02,16.6299991607666,16.850000381469727,16.3700008392334,16.43000030517578,12.985379219055176,220800
2020-01-03,16.56999969482422,16.90999984741211,16.459999084472656,16.90999984741211,13.364744186401367,119000
2020-01-06,16.959999084472656,17.110000610351562,16.867000579833984,17.0,13.435874938964844,123200
2020-01-07,17.040000915527344,17.170000076293945,16.950000762939453,17.1299991607666,13.538619995117188,93600
2020-01-08,17.1299991607666,17.378999710083008,16.940000534057617,16.989999771118164,13.427971839904785,123400
2020-01-09,17.06999969482422,17.229999542236328,17.010000228881836,17.1200008392334,13.530718803405762,127300
2020-01-10,17.18000030517578,17.200000762939453,16.6200008392334,16.799999237060547,13.27780532836914,96200
2020-01-13,16.829999923706055,17.260000228881836,16.75,17.1299991607666,13.538619995117188,113100
2020-01-14,17.170000076293945,17.299999237060547,17.030000686645508,17.139999389648438,13.54652214050293,93200
2020-01-15,17.200000762939453,17.459999084472656,17.139999389648438,17.3700008392334,13.728304862976074,88300
2020-01-16,17.469999313354492,17.624000549316406,17.270000457763672,17.3700008392334,13.728304862976074,107700
2020-01-17,17.549999237060547,17.572999954223633,17.34000015258789,17.520000457763672,13.846855163574219,50300
2020-01-21,17.459999084472656,17.459999084472656,16.639999389648438,16.690000534057617,13.190869331359863,182500
2020-01-22,16.790000915527344,16.90999984741211,16.579999923706055,16.6299991607666,13.143446922302246,93200
2020-01-23,16.6299991607666,16.809999465942383,16.510000228881836,16.809999465942383,13.285709381103516,67400
2020-01-24,16.829999923706055,16.8799991607666,16.510000228881836,16.549999237060547,13.080218315124512,94700
2020-01-27,16.5,16.540000915527344,16.299999237060547,16.309999465942383,12.890536308288574,127000
2020-01-28,16.420000076293945,16.479999542236328,15.760000228881836,15.760000228881836,12.455846786499023,139000
2020-01-29,15.649999618530273,15.6899995803833,15.109999656677246,15.289999961853027,12.084383964538574,229000
2020-01-30,15.300000190734863,15.729999542236328,14.819999694824219,15.489999771118164,12.242452621459961,859800
2020-01-31,15.529999732971191,15.699999809265137,15.402000427246094,15.539999961853027,12.281970024108887,195200
2020-02-03,15.600000381469727,15.680000305175781,15.359999656677246,15.520000457763672,12.26616382598877,139500
2020-02-04,15.609999656677246,15.720000267028809,15.40999984741211,15.609999656677246,12.337294578552246,136600
2020-02-05,15.6899995803833,16.309999465942383,15.6899995803833,16.1200008392334,12.740372657775879,170100
2020-02-06,16.149999618530273,16.149999618530273,15.630000114440918,15.720000267028809,12.424232482910156,200200
2020-02-07,15.779999732971191,15.829999923706055,15.545000076293945,15.789999961853027,12.479557037353516,135900
2020-02-10,15.800000190734863,15.812999725341797,15.239999771118164,15.3100004196167,12.100192070007324,185800
2020-02-11,15.460000038146973,15.609999656677246,15.329999923706055,15.40999984741211,12.179226875305176,238300
2020-02-12,14.979999542236328,15.130000114440918,14.800000190734863,14.890000343322754,12.195606231689453,173200
2020-02-13,14.9399995803833,14.9399995803833,14.260000228881836,14.539999961853027,11.908940315246582,218100
2020-02-14,14.5,14.5,14.270000457763672,14.380000114440918,11.77789306640625,188400
2020-02-18,14.449999809265137,14.5,14.279999732971191,14.5,11.876178741455078,136100
2020-02-19,14.5,14.829999923706055,14.470000267028809,14.5600004196167,11.925320625305176,138400
2020-02-20,14.520000457763672,14.710000038146973,14.449999809265137,14.479999542236328,11.859797477722168,99700
2020-02-21,14.5,14.569999694824219,13.90999984741211,13.920000076293945,11.401131629943848,184400
2020-02-24,13.59000015258789,13.890000343322754,13.100000381469727,13.489999771118164,11.048941612243652,249900
2020-02-25,13.449999809265137,13.684000015258789,12.5,12.699999809265137,10.401894569396973,229400
2020-02-26,13.430000305175781,13.539999961853027,12.819999694824219,12.819999694824219,10.500178337097168,211300
2020-02-27,12.800000190734863,12.800000190734863,11.260000228881836,12.170000076293945,9.96780014038086,342200
2020-02-28,11.649999618530273,12.020000457763672,11.569999694824219,12.0,9.828560829162598,302000
2020-03-02,12.210000038146973,12.531999588012695,11.75,12.149999618530273,9.95141887664795,288200
2020-03-03,12.119999885559082,12.289999961853027,11.279999732971191,11.489999771118164,9.410847663879395,298000
2020-03-04,11.6899995803833,11.6899995803833,11.0600004196167,11.0600004196167,9.0586576461792,216000
2020-03-05,11.0,11.0600004196167,10.527999877929688,10.550000190734863,8.640942573547363,201600
2020-03-06,10.5,10.532999992370605,9.539999961853027,9.880000114440918,8.092182159423828,339900
2020-03-09,6.78000020980835,7.5,5.010000228881836,5.699999809265137,4.6685662269592285,697800
2020-03-10,6.150000095367432,6.369999885559082,5.0,5.940000057220459,4.865138053894043,386300
2020-03-11,5.670000076293945,6.239999771118164,5.650000095367432,6.050000190734863,4.955233573913574,337700
2020-03-12,5.599999904632568,5.749000072479248,4.920000076293945,4.929999828338623,4.037899971008301,225300
2020-03-13,5.409999847412109,5.409999847412109,4.159999847412109,4.170000076293945,3.4154250621795654,441900
2020-03-16,3.450000047683716,4.119999885559082,3.0,3.940000057220459,3.2270443439483643,362100
2020-03-17,4.019999980926514,4.170000076293945,3.0,3.75,3.071425437927246,370200
2020-03-18,3.3499999046325684,3.509000062942505,2.799999952316284,2.8299999237060547,2.3179023265838623,291900
2020-03-19,2.8399999141693115,3.4800000190734863,2.8329999446868896,3.2699999809265137,2.6782827377319336,304200
2020-03-20,3.319999933242798,4.570000171661377,3.319999933242798,4.570000171661377,3.743044137954712,627800
2020-03-23,4.5,4.5,3.763000011444092,3.799999952316284,3.112377643585205,401100
2020-03-24,4.289999961853027,4.289999961853027,3.4000000953674316,3.569999933242798,2.923996925354004,617300
2020-03-25,3.569999933242798,4.230000019073486,3.3299999237060547,4.050000190734863,3.3171396255493164,622600
2020-03-26,4.0,4.789999961853027,3.9119999408721924,4.400000095367432,3.6038057804107666,265800
2020-03-27,4.400000095367432,4.400000095367432,3.990000009536743,4.050000190734863,3.3171396255493164,293800
2020-03-30,4.079999923706055,4.25,3.630000114440918,4.239999771118164,3.4727580547332764,195800
2020-03-31,4.239999771118164,4.949999809265137,4.239999771118164,4.949999809265137,4.054281234741211,227200
2020-04-01,4.800000190734863,4.800000190734863,4.059999942779541,4.190000057220459,3.4318060874938965,203200
2020-04-02,4.099999904632568,4.619999885559082,4.059999942779541,4.21999979019165,3.4563772678375244,328300
2020-04-03,4.349999904632568,4.440000057220459,3.7009999752044678,4.170000076293945,3.4154250621795654,332100
2020-04-06,4.03000020980835,4.309999942779541,4.03000020980835,4.190000057220459,3.4318060874938965,304200
2020-04-07,4.349999904632568,4.599999904632568,4.230000019073486,4.429999828338623,3.6283774375915527,285000
2020-04-08,4.630000114440918,5.130000114440918,4.508999824523926,4.849999904632568,3.972377300262451,261200
2020-04-09,5.150000095367432,5.619999885559082,4.585000038146973,4.739999771118164,3.882282018661499,402100
2020-04-13,5.0,5.75,5.0,5.21999979019165,4.275424003601074,270000
2020-04-14,5.489999771118164,5.630000114440918,5.260000228881836,5.380000114440918,4.406471252441406,167600
2020-04-15,5.380000114440918,5.380000114440918,4.75,5.320000171661377,4.357329368591309,195900
2020-04-16,5.170000076293945,5.369999885559082,4.869999885559082,5.010000228881836,4.103424549102783,98900
2020-04-17,5.019999980926514,5.289999961853027,4.829999923706055,5.0,4.095233917236328,310800
2020-04-20,4.75,5.090000152587891,4.119999885559082,4.260000228881836,3.4891393184661865,373100
2020-04-21,4.099999904632568,4.349999904632568,4.039999961853027,4.210000038146973,3.4481871128082275,125400
2020-04-22,4.519999980926514,4.892000198364258,4.340000152587891,4.710000038146973,3.8577098846435547,410500
2020-04-23,4.840000152587891,5.449999809265137,4.840000152587891,5.059999942779541,4.1443772315979,365900
2020-04-24,5.179999828338623,5.480000019073486,4.699999809265137,4.840000152587891,3.964186191558838,267300
2020-04-27,4.760000228881836,4.8379998207092285,4.610000133514404,4.75,3.890472412109375,271800
2020-04-28,4.760000228881836,4.989999771118164,4.71999979019165,4.929999828338623,4.037899971008301,544100
2020-04-29,4.900000095367432,5.150000095367432,4.730000019073486,4.960000038146973,4.062471866607666,628700
2020-04-30,5.059999942779541,6.420000076293945,4.929999828338623,6.389999866485596,5.23370885848999,598100
2020-05-01,6.400000095367432,6.789999961853027,5.369999885559082,5.650000095367432,4.627614498138428,534900
2020-05-04,5.599999904632568,6.130000114440918,5.269999980926514,5.510000228881836,4.512948036193848,427600
2020-05-05,5.900000095367432,6.260000228881836,5.800000190734863,6.21999979019165,5.094470977783203,362200
2020-05-06,6.239999771118164,6.400000095367432,5.650000095367432,5.730000019073486,4.693138599395752,365000
2020-05-07,5.78000020980835,6.070000171661377,5.75,5.909999847412109,4.840566158294678,168600
2020-05-08,6.099999904632568,6.550000190734863,6.079999923706055,6.510000228881836,5.331995010375977,229700
2020-05-11,6.019999980926514,6.099999904632568,5.699999809265137,5.96999979019165,4.889708995819092,366300
2020-05-12,5.929999828338623,6.010000228881836,5.400000095367432,5.539999961853027,4.5375189781188965,502400
2020-05-13,5.289999961853027,5.289999961853027,4.400000095367432,4.53000020980835,3.710282325744629,670600
2020-05-14,4.400000095367432,4.631999969482422,3.8499999046325684,4.389999866485596,3.5956149101257324,553800
2020-05-15,4.340000152587891,4.449999809265137,4.150000095367432,4.349999904632568,3.5628535747528076,278500
2020-05-18,5.5,8.399999618530273,5.409999847412109,7.800000190734863,6.388565540313721,6286800
2020-05-19,7.199999809265137,8.149999618530273,7.199999809265137,7.449999809265137,6.101897716522217,1017600
2020-05-20,7.989999771118164,8.5,7.546000003814697,8.399999618530273,6.879992485046387,884100
2020-05-21,8.579999923706055,10.260000228881836,8.5600004196167,9.8100004196167,8.034849166870117,889600
2020-05-22,9.649999618530273,9.859999656677246,9.25,9.4399995803833,7.7318010330200195,650000
2020-05-26,10.100000381469727,13.649999618530273,9.569999694824219,12.579999923706055,10.303607940673828,1598500
2020-05-27,11.720000267028809,12.0,7.46999979019165,9.199999809265137,7.8731889724731445,1967800
2020-05-28,9.100000381469727,9.131999969482422,8.5,8.800000190734863,7.530876636505127,379700
2020-05-29,8.5,8.770000457763672,8.020000457763672,8.739999771118164,7.47952938079834,540800
2020-06-01,8.420000076293945,8.699999809265137,8.119999885559082,8.149999618530273,6.974618434906006,485400
2020-06-02,8.3100004196167,8.454999923706055,7.920000076293945,7.989999771118164,6.837693214416504,265700
2020-06-03,7.920000076293945,8.40999984741211,7.909999847412109,8.390000343322754,7.180006504058838,350700
2020-06-04,8.390000343322754,8.930000305175781,8.350000381469727,8.619999885559082,7.376835823059082,402100
2020-06-05,8.979999542236328,10.15999984741211,8.979999542236328,9.600000381469727,8.215502738952637,678000
2020-06-08,10.880000114440918,11.75,10.380000114440918,11.399999618530273,9.755908012390137,812500
2020-06-09,11.0,11.380000114440918,10.65999984741211,10.829999923706055,9.268113136291504,348700
2020-06-10,10.65999984741211,10.829999923706055,9.300000190734863,10.539999961853027,9.019936561584473,654600
2020-06-11,8.979999542236328,9.9399995803833,8.0600004196167,8.930000305175781,7.642127990722656,544800
2020-06-12,9.800000190734863,9.960000038146973,9.25,9.729999542236328,8.326753616333008,295700
2020-06-15,9.140000343322754,9.961999893188477,8.90999984741211,9.739999771118164,8.335311889648438,279100
2020-06-16,10.199999809265137,10.279999732971191,9.619999885559082,10.09000015258789,8.634835243225098,429300
2020-06-17,10.170000076293945,10.170000076293945,8.800000190734863,8.9399995803833,7.6506853103637695,472600
2020-06-18,8.779999732971191,9.65999984741211,8.779999732971191,9.430000305175781,8.070018768310547,255400
2020-06-19,9.699999809265137,9.890000343322754,9.1899995803833,9.270000457763672,7.933094501495361,619100
2020-06-22,9.350000381469727,9.739999771118164,9.300000190734863,9.5600004196167,8.181270599365234,193800
2020-06-23,9.800000190734863,9.850000381469727,9.350000381469727,9.399999618530273,8.044344902038574,140700
2020-06-24,9.300000190734863,9.3100004196167,8.569999694824219,9.029999732971191,7.7277069091796875,206600
2020-06-25,8.75,9.4399995803833,8.75,8.859999656677246,7.582224369049072,113400
2020-06-26,8.800000190734863,8.800000190734863,7.804999828338623,7.929999828338623,6.786346912384033,397300
2020-06-29,7.75,8.369999885559082,7.75,7.860000133514404,6.726442337036133,165900
2020-06-30,7.889999866485596,8.859999656677246,7.809999942779541,8.720000267028809,7.462414264678955,206000
2020-07-01,8.869999885559082,9.140000343322754,8.65999984741211,8.84000015258789,7.565108776092529,229800
2020-07-02,9.1899995803833,9.1899995803833,8.140000343322754,8.170000076293945,6.991734504699707,175600
2020-07-06,8.319999694824219,8.600000381469727,7.920000076293945,7.989999771118164,6.837693214416504,222100
2020-07-07,8.09000015258789,8.140000343322754,7.809999942779541,7.880000114440918,6.743557929992676,175000
2020-07-08,8.010000228881836,8.0600004196167,7.764999866485596,7.920000076293945,6.777789115905762,142200
2020-07-09,7.920000076293945,7.989999771118164,7.329999923706055,7.360000133514404,6.2985520362854,183100
2020-07-10,7.320000171661377,7.699999809265137,7.320000171661377,7.599999904632568,6.503939151763916,110900
2020-07-13,7.699999809265137,7.699999809265137,7.25,7.300000190734863,6.247204780578613,198500
2020-07-14,7.389999866485596,7.699999809265137,7.320000171661377,7.699999809265137,6.589517116546631,172400
2020-07-15,7.840000152587891,8.199999809265137,7.840000152587891,8.09000015258789,6.923271656036377,151900
2020-07-16,8.09000015258789,8.369999885559082,7.599999904632568,8.239999771118164,7.051639080047607,163700
2020-07-17,8.369999885559082,8.579999923706055,8.149999618530273,8.350000381469727,7.14577579498291,106900
2020-07-20,8.399999618530273,8.58899974822998,8.220000267028809,8.3100004196167,7.111544609069824,103700
2020-07-21,8.449999809265137,9.156999588012695,8.449999809265137,8.760000228881836,7.496645927429199,222100
2020-07-22,8.890000343322754,8.890000343322754,8.5600004196167,8.829999923706055,7.5565505027771,151800
2020-07-23,8.800000190734863,8.805000305175781,8.109999656677246,8.359999656677246,7.154333114624023,148500
2020-07-24,8.3100004196167,8.420000076293945,8.149999618530273,8.239999771118164,7.051639080047607,74100
2020-07-27,8.239999771118164,8.25,7.869999885559082,7.900000095367432,6.760673522949219,206500
2020-07-28,8.050000190734863,8.09000015258789,7.809999942779541,7.829999923706055,6.700768947601318,198400
2020-07-29,7.989999771118164,8.75,7.840000152587891,8.720000267028809,7.462414264678955,356000
2020-07-30,8.699999809265137,8.720000267028809,8.149999618530273,8.470000267028809,7.24846887588501,141600
2020-07-31,8.350000381469727,8.432000160217285,8.005000114440918,8.279999732971191,7.085869789123535,97700
2020-08-03,8.420000076293945,8.538999557495117,8.180000305175781,8.25,7.060197353363037,152800
2020-08-04,8.329999923706055,9.149999618530273,8.289999961853027,8.850000381469727,7.573666572570801,204200
2020-08-05,9.359999656677246,10.25,9.289999961853027,9.779999732971191,8.369543075561523,598000
2020-08-06,9.979999542236328,10.300000190734863,9.739999771118164,9.9399995803833,8.506467819213867,308400
2020-08-07,10.0,10.460000038146973,10.0,10.34000015258789,8.848780632019043,345500
2020-08-10,10.5,11.4399995803833,10.482999801635742,11.020000457763672,9.430712699890137,422700
2020-08-11,11.529999732971191,11.600000381469727,11.029999732971191,11.40999984741211,9.764466285705566,390600
2020-08-12,11.550000190734863,11.59000015258789,10.619999885559082,10.789999961853027,9.233882904052734,537300
2020-08-13,9.9399995803833,9.9399995803833,9.140000343322754,9.619999885559082,8.666335105895996,300600
2020-08-14,9.550000190734863,10.229000091552734,9.510000228881836,9.880000114440918,8.900561332702637,146700
2020-08-17,9.5,9.65999984741211,8.800000190734863,9.529999732971191,8.585257530212402,412800
2020-08-18,9.460000038146973,9.680000305175781,9.09000015258789,9.149999618530273,8.242928504943848,168800
2020-08-19,9.149999618530273,9.279999732971191,8.920000076293945,9.100000381469727,8.19788646697998,184600
2020-08-20,9.0,9.3100004196167,8.760000228881836,9.199999809265137,8.287971496582031,200400
2020-08-21,9.149999618530273,9.609999656677246,9.020000457763672,9.449999809265137,8.513188362121582,332000
2020-08-24,9.350000381469727,9.479999542236328,9.09000015258789,9.170000076293945,8.260945320129395,157800
2020-08-25,9.399999618530273,9.399999618530273,9.140000343322754,9.260000228881836,8.342023849487305,76700
2020-08-26,9.220000267028809,9.329999923706055,8.899999618530273,8.979999542236328,8.089780807495117,136900
2020-08-27,9.329999923706055,9.5600004196167,9.125,9.335000038146973,8.409588813781738,174400
2020-08-28,9.489999771118164,10.0,9.489999771118164,9.8100004196167,8.83750057220459,175300
2020-08-31,10.140000343322754,10.140000343322754,9.699999809265137,9.949999809265137,8.963622093200684,126600
2020-09-01,9.829999923706055,9.949999809265137,9.380000114440918,9.859999656677246,8.882542610168457,176100
2020-09-02,9.720000267028809,10.09000015258789,9.329999923706055,10.09000015258789,9.089743614196777,349700
2020-09-03,9.829999923706055,10.029999732971191,9.4399995803833,9.600000381469727,8.648319244384766,74400
2020-09-04,9.539999961853027,9.890999794006348,9.1899995803833,9.300000190734863,8.378059387207031,92800
2020-09-08,9.119999885559082,9.241000175476074,8.800000190734863,8.970000267028809,8.080772399902344,99900
2020-09-09,9.069999694824219,9.34000015258789,8.949000358581543,9.210000038146973,8.296979904174805,102700
2020-09-10,9.359999656677246,9.359999656677246,8.90999984741211,9.020000457763672,8.125815391540527,58700
2020-09-11,9.0,9.140000343322754,8.899999618530273,8.920000076293945,8.03572940826416,66100
2020-09-14,8.920000076293945,9.460000038146973,8.920000076293945,9.3100004196167,8.387067794799805,70900
2020-09-15,9.460000038146973,9.75,9.289999961853027,9.289999961853027,8.369050025939941,65600
2020-09-16,9.449999809265137,9.850000381469727,9.270000457763672,9.380000114440918,8.450127601623535,112500
2020-09-17,9.3100004196167,9.5,9.060999870300293,9.130000114440918,8.2249116897583,71100
2020-09-18,9.079999923706055,9.079999923706055,7.420000076293945,7.579999923706055,6.828568458557129,952100
2020-09-21,7.579999923706055,8.045999526977539,7.5,7.71999979019165,6.954689025878906,198700
2020-09-22,7.829999923706055,7.894000053405762,7.590000152587891,7.650000095367432,6.891628742218018,71900
2020-09-23,7.760000228881836,7.840000152587891,7.380000114440918,7.400000095367432,6.666412353515625,104400
2020-09-24,7.409999847412109,7.869999885559082,7.380000114440918,7.789999961853027,7.0177507400512695,97700
2020-09-25,7.659999847412109,7.75600004196167,7.46999979019165,7.510000228881836,6.765507698059082,83700
2020-09-28,7.519999980926514,7.940000057220459,7.510000228881836,7.860000133514404,7.080811023712158,72100
2020-09-29,7.829999923706055,8.399999618530273,7.590000152587891,8.109999656677246,7.306027412414551,127000
2020-09-30,7.619999885559082,7.960000038146973,5.5,6.199999809265137,5.585372447967529,1721400
2020-10-01,6.900000095367432,7.190000057220459,6.550000190734863,7.190000057220459,6.477230548858643,419300
2020-10-02,6.75,7.210000038146973,6.610000133514404,7.130000114440918,6.423178672790527,135900
2020-10-05,7.199999809265137,7.449999809265137,7.020999908447266,7.369999885559082,6.6393866539001465,127800
2020-10-06,7.5,7.610000133514404,7.150000095367432,7.300000190734863,6.576325416564941,112400
2020-10-07,7.110000133514404,7.492000102996826,6.96999979019165,7.010000228881836,6.315074443817139,144500
2020-10-08,7.130000114440918,7.460000038146973,7.010000228881836,7.289999961853027,6.567317008972168,111100
2020-10-09,7.25,7.340000152587891,7.110000133514404,7.199999809265137,6.486238479614258,60700
2020-10-12,7.260000228881836,7.315000057220459,7.110000133514404,7.309999942779541,6.585334300994873,45000
2020-10-13,7.190000057220459,7.449999809265137,7.159999847412109,7.300000190734863,6.576325416564941,64700
2020-10-14,7.210000038146973,7.599999904632568,7.210000038146973,7.420000076293945,6.684429168701172,349500
2020-10-15,7.5,7.5,7.159999847412109,7.25,6.531282424926758,47500
2020-10-16,7.25,7.427999973297119,7.25,7.400000095367432,6.666412353515625,35700
2020-10-19,7.400000095367432,7.489999771118164,7.25,7.320000171661377,6.594343185424805,73600
2020-10-20,7.320000171661377,7.369999885559082,7.010000228881836,7.110000133514404,6.405160903930664,114300
2020-10-21,7.090000152587891,7.309999942779541,7.019999980926514,7.260000228881836,6.5402913093566895,60600
2020-10-22,7.269999980926514,7.639999866485596,7.189000129699707,7.53000020980835,6.783524990081787,66200
2020-10-23,7.650000095367432,8.0,7.599999904632568,8.0,7.206932544708252,77200
2020-10-26,7.929999828338623,8.0,7.599999904632568,8.0,7.206932544708252,70200
2020-10-27,8.170000076293945,8.420000076293945,8.02299976348877,8.40999984741211,7.576287269592285,171100
2020-10-28,8.15999984741211,8.25,7.269999980926514,7.449999809265137,6.71145486831665,446700
2020-10-29,7.550000190734863,7.809999942779541,7.25,7.400000095367432,6.666412353515625,190600
2020-10-30,7.449999809265137,7.480000019073486,7.099999904632568,7.170000076293945,6.4592132568359375,85300
2020-11-02,7.269999980926514,7.739999771118164,7.260000228881836,7.650000095367432,6.891628742218018,145200
2020-11-03,7.860000133514404,8.1899995803833,7.75,8.109999656677246,7.306027412414551,162400
2020-11-04,8.82800006866455,9.359999656677246,8.5600004196167,8.90999984741211,8.026721000671387,570900
2020-11-05,8.84000015258789,9.460000038146973,8.699999809265137,8.949999809265137,8.062755584716797,427200
2020-11-06,9.140000343322754,9.430000305175781,9.0,9.260000228881836,8.342023849487305,229600
2020-11-09,9.75,10.25,9.510000228881836,10.100000381469727,9.098751068115234,503300
2020-11-10,10.289999961853027,10.630000114440918,10.0,10.220000267028809,9.206855773925781,337600
2020-11-11,10.25,10.479999542236328,10.0,10.25,9.233880996704102,820300
2020-11-12,9.449999809265137,9.90999984741211,9.0600004196167,9.270000457763672,8.815457344055176,334800
2020-11-13,9.279999732971191,9.579999923706055,9.210000038146973,9.460000038146973,8.996139526367188,155400
2020-11-16,9.770000457763672,9.930000305175781,9.5,9.609999656677246,9.138784408569336,157500
2020-11-17,9.680000305175781,9.9399995803833,9.401000022888184,9.84000015258789,9.357507705688477,101200
2020-11-18,9.829999923706055,10.34000015258789,9.701000213623047,10.010000228881836,9.519171714782715,196400
2020-11-19,9.930000305175781,10.420000076293945,9.8100004196167,10.279999732971191,9.775932312011719,127800
2020-11-20,10.300000190734863,10.369999885559082,10.0,10.010000228881836,9.519171714782715,126700
2020-11-23,10.260000228881836,10.899999618530273,10.260000228881836,10.800000190734863,10.270435333251953,331000
2020-11-24,10.960000038146973,12.289999961853027,10.901000022888184,11.40999984741211,10.850523948669434,394900
2020-11-25,11.479999542236328,11.550000190734863,11.050000190734863,11.460000038146973,10.898073196411133,168700
2020-11-27,11.619999885559082,11.741000175476074,10.960000038146973,11.029999732971191,10.489157676696777,93000
2020-11-30,11.272000312805176,11.34000015258789,10.494999885559082,10.5600004196167,10.042203903198242,190400
2020-12-01,10.8100004196167,10.979999542236328,10.25,10.739999771118164,10.213376998901367,103200
2020-12-02,10.720000267028809,11.65999984741211,10.720000267028809,11.0,10.460628509521484,401100
2020-12-03,11.680000305175781,12.770000457763672,11.600000381469727,12.289999961853027,11.687374114990234,305900
2020-12-04,12.449999809265137,13.0,12.4399995803833,12.899999618530273,12.267463684082031,193000
2020-12-07,13.149999618530273,13.149999618530273,12.319999694824219,12.770000457763672,12.143838882446289,190800
2020-12-08,12.710000038146973,13.0,12.710000038146973,12.890000343322754,12.257954597473145,111600
2020-12-09,12.890000343322754,13.411999702453613,12.850000381469727,13.390000343322754,12.733438491821289,187000
2020-12-10,13.319999694824219,14.131999969482422,13.319999694824219,14.029999732971191,13.342055320739746,135200
2020-12-11,13.890000343322754,14.03499984741211,13.5,13.670000076293945,12.99970817565918,128000
2020-12-14,13.880000114440918,13.880000114440918,12.539999961853027,12.819999694824219,12.191386222839355,272400
2020-12-15,12.84000015258789,13.050000190734863,12.720999717712402,12.899999618530273,12.267463684082031,104700
2020-12-16,12.899999618530273,13.300000190734863,12.40999984741211,12.510000228881836,11.896587371826172,156200
2020-12-17,12.649999618530273,12.833000183105469,12.211999893188477,12.460000038146973,11.849039077758789,141700
2020-12-18,12.789999961853027,12.979999542236328,12.25,12.550000190734863,11.934626579284668,129400
2020-12-21,12.010000228881836,12.5649995803833,11.930000305175781,12.359999656677246,11.753942489624023,140200
2020-12-22,12.369999885559082,12.5600004196167,12.039999961853027,12.210000038146973,11.611297607421875,78700
2020-12-23,12.279999732971191,12.460000038146973,12.0,12.029999732971191,11.440122604370117,103400
2020-12-24,12.029999732971191,12.279999732971191,11.850000381469727,11.979999542236328,11.392574310302734,45400
2020-12-28,11.979999542236328,12.079999923706055,11.5,11.550000190734863,10.983659744262695,154200
2020-12-29,11.550000190734863,11.694999694824219,10.899999618530273,11.0600004196167,10.51768684387207,191200
2020-12-30,11.0600004196167,11.6899995803833,11.0600004196167,11.579999923706055,11.012188911437988,112600
