Date,Open,High,Low,Close,Adj Close,Volume
2020-06-18,10.75,11.5,10.699999809265137,10.803999900817871,10.803999900817871,474700
2020-06-19,11.399999618530273,11.399999618530273,10.829999923706055,10.930000305175781,10.930000305175781,57400
2020-06-22,11.109999656677246,12.824999809265137,10.899999618530273,11.359999656677246,11.359999656677246,529800
2020-06-23,11.649999618530273,12.229999542236328,11.25,11.609999656677246,11.609999656677246,321700
2020-06-24,11.859999656677246,11.859999656677246,11.149999618530273,11.25,11.25,214800
2020-06-25,11.119999885559082,11.399999618530273,11.119999885559082,11.369999885559082,11.369999885559082,217800
2020-06-26,11.640000343322754,11.640000343322754,11.100000381469727,11.279999732971191,11.279999732971191,104100
2020-06-29,11.390000343322754,12.069999694824219,11.359999656677246,11.680000305175781,11.680000305175781,306000
2020-06-30,12.09000015258789,12.09000015258789,11.600000381469727,11.75,11.75,395400
2020-07-01,11.75,11.800000190734863,11.609999656677246,11.609999656677246,11.609999656677246,264200
2020-07-02,11.75,11.75,11.460000038146973,11.479999542236328,11.479999542236328,228200
2020-07-06,11.75,11.75,11.399999618530273,11.399999618530273,11.399999618530273,277900
2020-07-07,11.75,11.75,11.300000190734863,11.399999618530273,11.399999618530273,220100
2020-07-08,11.569999694824219,11.569999694824219,11.300000190734863,11.449999809265137,11.449999809265137,206400
2020-07-09,11.699999809265137,11.739999771118164,11.550000190734863,11.630000114440918,11.630000114440918,167200
2020-07-10,11.75,11.800000190734863,11.600000381469727,11.800000190734863,11.800000190734863,433700
2020-07-13,12.0,12.149999618530273,11.449999809265137,11.479999542236328,11.479999542236328,1592300
2020-07-14,11.600000381469727,11.600000381469727,11.380000114440918,11.449999809265137,11.449999809265137,147500
2020-07-15,11.65999984741211,11.65999984741211,11.399999618530273,11.640000343322754,11.640000343322754,173500
2020-07-16,11.75,12.050000190734863,11.699999809265137,12.0,12.0,224800
2020-07-17,12.050000190734863,12.140000343322754,11.880000114440918,12.0,12.0,220200
2020-07-20,12.010000228881836,12.149999618530273,11.699999809265137,11.930000305175781,11.930000305175781,304300
2020-07-21,12.170000076293945,12.449999809265137,11.930000305175781,12.0,12.0,491300
2020-07-22,12.270000457763672,12.34000015258789,11.899999618530273,12.050000190734863,12.050000190734863,1008300
2020-07-23,12.140000343322754,12.170000076293945,11.600000381469727,11.949999809265137,11.949999809265137,474800
2020-07-24,12.020000457763672,12.020000457763672,11.850000381469727,11.925000190734863,11.925000190734863,203700
2020-07-27,12.319999694824219,12.319999694824219,11.859999656677246,12.0,12.0,484300
2020-07-28,12.050000190734863,12.100000381469727,11.850000381469727,11.869999885559082,11.869999885559082,123200
2020-07-29,11.899999618530273,12.0,11.550000190734863,11.680000305175781,11.680000305175781,290200
2020-07-30,11.649999618530273,11.800000190734863,11.270000457763672,11.289999961853027,11.289999961853027,572500
2020-07-31,11.369999885559082,11.369999885559082,10.800000190734863,10.850000381469727,10.850000381469727,550000
2020-08-03,11.130000114440918,11.175000190734863,10.829999923706055,10.84000015258789,10.84000015258789,327700
2020-08-04,10.899999618530273,10.989999771118164,10.8100004196167,10.989999771118164,10.989999771118164,118700
2020-08-05,11.050000190734863,11.180000305175781,10.899999618530273,11.039999961853027,11.039999961853027,134200
2020-08-06,11.09000015258789,11.149999618530273,10.9399995803833,11.03499984741211,11.03499984741211,126900
2020-08-07,11.079999923706055,11.109999656677246,10.90999984741211,10.989999771118164,10.989999771118164,305100
2020-08-10,11.1899995803833,11.1899995803833,10.90999984741211,10.90999984741211,10.90999984741211,154900
2020-08-11,11.079999923706055,11.130000114440918,10.850000381469727,10.880000114440918,10.880000114440918,773100
2020-08-12,10.960000038146973,10.970000267028809,10.800000190734863,10.850000381469727,10.850000381469727,432100
2020-08-13,10.899999618530273,11.0,10.760000228881836,10.859999656677246,10.859999656677246,292700
2020-08-14,10.850000381469727,11.140000343322754,10.850000381469727,10.970000267028809,10.970000267028809,113200
2020-08-17,11.0,11.128999710083008,10.979999542236328,11.050000190734863,11.050000190734863,228500
2020-08-18,11.079999923706055,11.100000381469727,10.819999694824219,10.850000381469727,10.850000381469727,383400
2020-08-19,11.0,11.0,10.779999732971191,10.899999618530273,10.899999618530273,411100
2020-08-20,11.0,11.0,10.75,10.779999732971191,10.779999732971191,142400
2020-08-21,10.850000381469727,10.970000267028809,10.680000305175781,10.9399995803833,10.9399995803833,141300
2020-08-24,10.989999771118164,11.050000190734863,10.800000190734863,10.979999542236328,10.979999542236328,212100
2020-08-25,11.0,11.0,10.699999809265137,10.800000190734863,10.800000190734863,252800
2020-08-26,10.90999984741211,10.90999984741211,10.699999809265137,10.75,10.75,132800
2020-08-27,10.800000190734863,10.800000190734863,10.550000190734863,10.609999656677246,10.609999656677246,298000
2020-08-28,10.850000381469727,10.850000381469727,10.649999618530273,10.800000190734863,10.800000190734863,555100
2020-08-31,10.9399995803833,10.9399995803833,10.699999809265137,10.729999542236328,10.729999542236328,135200
2020-09-01,10.8100004196167,10.899999618530273,10.75,10.899999618530273,10.899999618530273,196800
2020-09-02,10.949999809265137,11.199999809265137,10.829999923706055,11.109999656677246,11.109999656677246,718000
2020-09-03,11.199999809265137,11.36299991607666,10.949999809265137,11.1899995803833,11.1899995803833,415800
2020-09-04,11.399999618530273,12.1899995803833,11.109999656677246,12.0,12.0,991100
2020-09-08,11.970000267028809,12.0,11.8100004196167,12.0,12.0,319900
2020-09-09,12.050000190734863,12.149999618530273,11.899999618530273,11.920000076293945,11.920000076293945,231400
2020-09-10,12.130000114440918,13.329999923706055,11.960000038146973,12.40999984741211,12.40999984741211,2887000
2020-09-11,13.180000305175781,13.260000228881836,12.0,12.699999809265137,12.699999809265137,3982700
2020-09-14,12.600000381469727,13.25,12.5,13.050000190734863,13.050000190734863,1416000
2020-09-15,15.550000190734863,18.079999923706055,14.819999694824219,17.559999465942383,17.559999465942383,63214400
2020-09-16,16.079999923706055,16.739999771118164,15.729999542236328,15.899999618530273,15.899999618530273,9164000
2020-09-17,15.930000305175781,16.43000030517578,15.300000190734863,15.40999984741211,15.40999984741211,3578000
2020-09-18,15.6899995803833,15.739999771118164,14.579999923706055,14.600000381469727,14.600000381469727,3535500
2020-09-21,15.25,15.859999656677246,13.899999618530273,15.350000381469727,15.350000381469727,3685100
2020-09-22,15.890000343322754,16.780000686645508,15.609999656677246,16.780000686645508,16.780000686645508,4840900
2020-09-23,16.690000534057617,17.5,15.0600004196167,15.270000457763672,15.270000457763672,4655700
2020-09-24,14.960000038146973,16.239999771118164,14.010000228881836,15.890000343322754,15.890000343322754,2845200
2020-09-25,15.789999961853027,16.75,15.399999618530273,16.420000076293945,16.420000076293945,2497500
2020-09-28,16.950000762939453,17.239999771118164,16.549999237060547,16.719999313354492,16.719999313354492,1951500
2020-09-29,17.479999542236328,19.399999618530273,17.16200065612793,18.75,18.75,4773200
2020-09-30,19.350000381469727,19.469999313354492,18.299999237060547,18.989999771118164,18.989999771118164,2636200
2020-10-01,19.079999923706055,19.299999237060547,18.030000686645508,18.56999969482422,18.56999969482422,2215000
2020-10-02,17.770000457763672,18.969999313354492,17.40999984741211,18.40999984741211,18.40999984741211,1798000
2020-10-05,19.18000030517578,19.18000030517578,17.920000076293945,18.25,18.25,1560900
2020-10-06,18.40999984741211,18.44499969482422,16.149999618530273,16.350000381469727,16.350000381469727,5036100
2020-10-07,17.010000228881836,17.729999542236328,16.799999237060547,17.56999969482422,17.56999969482422,2375100
2020-10-08,18.420000076293945,19.06999969482422,17.920000076293945,18.780000686645508,18.780000686645508,3242300
2020-10-09,19.549999237060547,22.450000762939453,19.5,21.239999771118164,21.239999771118164,6433800
2020-10-12,23.969999313354492,24.270000457763672,22.600000381469727,23.200000762939453,23.200000762939453,5569700
2020-10-13,22.889999389648438,24.329999923706055,22.469999313354492,24.079999923706055,24.079999923706055,2840200
2020-10-14,24.829999923706055,26.559999465942383,24.1200008392334,26.479999542236328,26.479999542236328,6479900
2020-10-15,25.170000076293945,27.0,23.510000228881836,23.93000030517578,23.93000030517578,4844300
2020-10-16,24.799999237060547,24.979999542236328,21.950000762939453,22.90999984741211,22.90999984741211,2862700
2020-10-19,23.149999618530273,23.34000015258789,20.799999237060547,21.34000015258789,21.34000015258789,3241600
2020-10-20,21.100000381469727,23.530000686645508,21.020000457763672,22.729999542236328,22.729999542236328,3643600
2020-10-21,22.700000762939453,22.700000762939453,21.399999618530273,21.920000076293945,21.920000076293945,1691200
2020-10-22,22.31999969482422,22.31999969482422,19.600000381469727,19.729999542236328,19.729999542236328,3097200
2020-10-23,20.0,20.170000076293945,18.399999618530273,19.440000534057617,19.440000534057617,2830600
2020-10-26,18.5,19.03700065612793,17.0,17.979999542236328,17.979999542236328,4240700
2020-10-27,18.8799991607666,19.139999389648438,18.0,18.190000534057617,18.190000534057617,2655200
2020-10-28,17.93000030517578,17.940000534057617,17.041000366210938,17.360000610351562,17.360000610351562,2034500
2020-10-29,17.0,18.09000015258789,16.850000381469727,17.110000610351562,17.110000610351562,2327900
2020-10-30,17.0,17.450000762939453,16.020000457763672,16.440000534057617,16.440000534057617,1941700
2020-11-02,16.459999084472656,17.329999923706055,15.350000381469727,15.550000190734863,15.550000190734863,2504000
2020-11-03,16.0,17.200000762939453,15.800000190734863,16.670000076293945,16.670000076293945,2750400
2020-11-04,17.1299991607666,18.3700008392334,17.0,18.200000762939453,18.200000762939453,3330100
2020-11-05,18.899999618530273,19.110000610351562,18.360000610351562,18.920000076293945,18.920000076293945,2157100
2020-11-06,18.600000381469727,20.799999237060547,18.299999237060547,20.229999542236328,20.229999542236328,3324200
2020-11-09,20.100000381469727,20.799999237060547,18.719999313354492,18.979999542236328,18.979999542236328,2252800
2020-11-10,18.639999389648438,18.79800033569336,17.030000686645508,18.079999923706055,18.079999923706055,2339900
2020-11-11,18.170000076293945,18.59000015258789,17.700000762939453,18.030000686645508,18.030000686645508,951900
2020-11-12,18.399999618530273,19.020000457763672,17.5,17.8799991607666,17.8799991607666,1914800
2020-11-13,18.190000534057617,19.100000381469727,17.729999542236328,19.020000457763672,19.020000457763672,1990600
2020-11-16,19.389999389648438,19.8799991607666,18.40999984741211,18.489999771118164,18.489999771118164,1970800
2020-11-17,18.360000610351562,18.84000015258789,18.200000762939453,18.510000228881836,18.510000228881836,1246700
2020-11-18,18.610000610351562,19.65999984741211,18.299999237060547,18.700000762939453,18.700000762939453,2235000
2020-11-19,18.700000762939453,20.649999618530273,18.5,19.420000076293945,19.420000076293945,3955000
2020-11-20,19.6200008392334,19.989999771118164,18.8799991607666,19.049999237060547,19.049999237060547,1689500
2020-11-23,19.139999389648438,19.899999618530273,18.059999465942383,18.639999389648438,18.639999389648438,2681900
2020-11-24,18.6299991607666,19.5,18.06999969482422,18.75,18.75,2294700
2020-11-25,18.5,20.469999313354492,18.5,20.43000030517578,20.43000030517578,3964700
2020-11-27,22.40999984741211,23.059999465942383,21.200000762939453,21.799999237060547,21.799999237060547,3722400
2020-11-30,23.5,23.899999618530273,21.5,22.540000915527344,22.540000915527344,4893100
2020-12-01,23.0,23.0,20.0,20.139999389648438,20.139999389648438,4777000
2020-12-02,19.360000610351562,20.719999313354492,19.010000228881836,20.549999237060547,20.549999237060547,3187600
2020-12-03,21.170000076293945,21.889999389648438,20.899999618530273,21.420000076293945,21.420000076293945,2306300
2020-12-04,21.799999237060547,21.899999618530273,21.110000610351562,21.670000076293945,21.670000076293945,2075200
2020-12-07,23.540000915527344,25.639999389648438,23.190000534057617,25.59000015258789,25.59000015258789,6713200
2020-12-08,26.219999313354492,26.5,23.899999618530273,25.149999618530273,25.149999618530273,4284700
2020-12-09,25.75,27.68000030517578,24.100000381469727,26.81999969482422,26.81999969482422,5891700
2020-12-10,25.540000915527344,26.860000610351562,25.350000381469727,26.219999313354492,26.219999313354492,3516100
2020-12-11,25.780000686645508,26.790000915527344,24.260000228881836,25.43000030517578,25.43000030517578,3554200
2020-12-14,26.450000762939453,29.479999542236328,25.700000762939453,29.479999542236328,29.479999542236328,6250800
2020-12-15,28.520000457763672,29.450000762939453,27.610000610351562,27.8799991607666,27.8799991607666,3383800
2020-12-16,28.079999923706055,28.110000610351562,24.65999984741211,25.670000076293945,25.670000076293945,4231000
2020-12-17,26.690000534057617,29.440000534057617,26.049999237060547,29.440000534057617,29.440000534057617,5617100
2020-12-18,29.0,30.600000381469727,28.1299991607666,29.5,29.5,5281800
2020-12-21,31.469999313354492,32.0,26.299999237060547,31.25,31.25,8946000
2020-12-22,32.08000183105469,32.38999938964844,28.510000228881836,29.649999618530273,29.649999618530273,5712600
2020-12-23,29.149999618530273,29.5,26.809999465942383,27.25,27.25,6663100
2020-12-24,27.520000457763672,29.450000762939453,26.899999618530273,27.350000381469727,27.350000381469727,3701500
2020-12-28,27.149999618530273,27.399999618530273,24.0,24.510000228881836,24.510000228881836,6693600
2020-12-29,24.510000228881836,25.299999237060547,22.030000686645508,25.010000228881836,25.010000228881836,6320700
2020-12-30,25.19499969482422,25.200000762939453,23.75,24.270000457763672,24.270000457763672,3223100
