Date,Open,High,Low,Close,Adj Close,Volume
2020-08-28,24.75,25.020000457763672,24.100000381469727,24.899999618530273,23.123497009277344,152200
2020-08-31,25.06999969482422,25.200000762939453,24.799999237060547,25.100000381469727,23.309226989746094,218400
2020-09-01,25.200000762939453,25.25,24.90399932861328,25.06999969482422,23.2813663482666,59500
2020-09-02,25.020000457763672,25.375,25.020000457763672,25.149999618530273,23.35565948486328,28100
2020-09-03,25.15999984741211,25.15999984741211,24.799999237060547,25.049999237060547,23.262794494628906,49600
2020-09-04,25.100000381469727,25.219999313354492,24.950000762939453,25.149999618530273,23.35565948486328,41500
2020-09-08,25.079999923706055,25.450000762939453,24.986000061035156,25.049999237060547,23.262794494628906,15100
2020-09-09,25.34000015258789,25.450000762939453,25.100000381469727,25.15999984741211,23.364948272705078,42200
2020-09-10,25.200000762939453,25.209999084472656,25.0,25.079999923706055,23.290653228759766,19000
2020-09-11,25.229999542236328,25.25,25.059999465942383,25.100000381469727,23.309226989746094,16700
2020-09-14,25.34000015258789,25.34000015258789,25.030000686645508,25.1299991607666,23.337087631225586,12000
2020-09-15,25.149999618530273,25.149999618530273,24.899999618530273,25.100000381469727,23.309226989746094,40300
2020-09-16,25.020000457763672,25.198999404907227,25.020000457763672,25.06999969482422,23.2813663482666,29900
2020-09-17,25.170000076293945,25.190000534057617,25.020000457763672,25.09000015258789,23.299942016601562,19600
2020-09-18,25.100000381469727,25.190000534057617,25.033000946044922,25.145000457763672,23.351016998291016,7800
2020-09-21,25.010000228881836,25.100000381469727,24.600000381469727,24.950000762939453,23.16992950439453,24400
2020-09-22,24.780000686645508,25.100000381469727,24.780000686645508,25.020000457763672,23.234935760498047,8800
2020-09-23,25.059999465942383,25.174999237060547,24.851999282836914,25.0,23.216360092163086,18100
2020-09-24,24.996999740600586,25.0,23.559999465942383,23.559999465942383,21.879098892211914,23300
2020-09-25,24.0,24.850000381469727,24.0,24.829999923706055,23.058490753173828,36700
2020-09-28,24.850000381469727,25.0,24.825000762939453,24.91900062561035,23.141141891479492,13500
2020-09-29,24.690000534057617,24.950000762939453,24.611000061035156,24.950000762939453,23.16992950439453,4300
2020-09-30,25.1200008392334,25.25,24.799999237060547,24.899999618530273,23.123497009277344,9900
2020-10-01,25.100000381469727,25.18000030517578,24.899999618530273,24.950000762939453,23.16992950439453,9400
2020-10-02,25.100000381469727,25.1299991607666,25.040000915527344,25.079999923706055,23.290653228759766,2200
2020-10-05,25.149999618530273,25.5,25.100000381469727,25.100000381469727,23.309226989746094,18800
2020-10-06,25.299999237060547,25.5,25.100000381469727,25.100000381469727,23.309226989746094,9200
2020-10-07,25.288000106811523,25.5,25.202999114990234,25.25,23.44852638244629,13700
2020-10-08,25.25,25.299999237060547,25.100000381469727,25.10099983215332,23.310155868530273,10100
2020-10-09,25.200000762939453,25.200000762939453,25.010000228881836,25.200000762939453,23.402095794677734,2300
2020-10-12,25.094999313354492,25.190000534057617,25.0,25.059999465942383,23.27208137512207,1100
2020-10-13,25.149999618530273,25.200000762939453,25.020000457763672,25.190000534057617,23.392805099487305,8600
2020-10-14,25.200000762939453,25.200000762939453,25.0,25.0,23.216360092163086,17900
2020-10-15,25.1200008392334,25.18000030517578,25.093000411987305,25.139999389648438,23.346372604370117,1800
2020-10-16,25.149999618530273,25.190000534057617,25.049999237060547,25.079999923706055,23.290653228759766,4100
2020-10-19,25.0,25.15999984741211,25.0,25.059999465942383,23.27208137512207,7500
2020-10-20,25.020000457763672,25.100000381469727,24.860000610351562,24.979999542236328,23.19778823852539,12900
2020-10-21,24.915000915527344,25.190000534057617,24.75,25.149999618530273,23.35565948486328,11000
2020-10-22,24.969999313354492,25.049999237060547,24.850000381469727,25.010000228881836,23.225650787353516,8500
2020-10-23,25.100000381469727,25.18000030517578,25.030000686645508,25.100000381469727,23.309226989746094,8600
2020-10-26,25.200000762939453,25.200000762939453,24.8799991607666,25.010000228881836,23.225650787353516,10700
2020-10-27,25.190000534057617,25.190000534057617,24.90999984741211,25.0,23.216360092163086,4500
2020-10-28,24.850000381469727,25.0,24.760000228881836,24.760000228881836,22.993484497070312,6100
2020-10-29,24.84000015258789,25.139999389648438,24.84000015258789,25.100000381469727,23.309226989746094,8100
2020-10-30,24.899999618530273,25.0310001373291,24.760000228881836,24.799999237060547,23.030630111694336,11700
2020-11-02,25.100000381469727,25.100000381469727,24.849000930786133,24.950000762939453,23.16992950439453,6000
2020-11-03,25.020000457763672,25.020000457763672,24.850000381469727,24.908000946044922,23.13092613220215,2100
2020-11-04,24.790000915527344,25.0,24.790000915527344,24.850000381469727,23.077064514160156,9700
2020-11-05,25.0,25.100000381469727,24.799999237060547,24.999000549316406,23.21543312072754,12900
2020-11-06,24.950000762939453,25.100000381469727,24.950000762939453,25.034000396728516,23.24793815612793,8700
2020-11-09,25.100000381469727,25.100000381469727,24.934999465942383,24.972000122070312,23.19036102294922,7600
2020-11-10,24.94300079345703,25.100000381469727,24.94300079345703,25.05900001525879,23.271154403686523,4900
2020-11-11,25.100000381469727,25.5,24.9950008392334,25.149999618530273,23.35565948486328,21200
2020-11-12,25.0,25.200000762939453,24.719999313354492,24.799999237060547,23.625255584716797,20200
2020-11-13,24.809999465942383,24.920000076293945,24.799999237060547,24.8799991607666,23.701465606689453,7500
2020-11-16,24.899999618530273,25.020000457763672,24.75,24.799999237060547,23.625255584716797,16600
2020-11-17,24.75,24.809999465942383,24.649999618530273,24.738000869750977,23.566192626953125,13600
2020-11-18,24.68400001525879,25.027000427246094,24.68000030517578,24.700000762939453,23.529993057250977,15800
2020-11-19,24.68000030517578,24.850000381469727,24.68000030517578,24.719999313354492,23.54904556274414,8200
2020-11-20,24.719999313354492,24.719999313354492,24.510000228881836,24.600000381469727,23.434730529785156,13100
2020-11-23,24.899999618530273,24.899999618530273,24.600000381469727,24.732999801635742,23.561429977416992,4800
2020-11-24,24.790000915527344,24.790000915527344,24.510000228881836,24.540000915527344,23.377573013305664,39200
2020-11-25,24.579999923706055,24.659000396728516,24.25,24.479999542236328,23.32041358947754,9600
2020-11-27,24.610000610351562,24.700000762939453,24.549999237060547,24.549999237060547,23.38709831237793,3800
2020-11-30,24.700000762939453,24.850000381469727,24.579999923706055,24.809999465942383,23.634780883789062,11800
2020-12-01,24.652000427246094,24.920000076293945,24.652000427246094,24.75,23.57762336730957,5500
2020-12-02,24.770000457763672,24.90999984741211,24.65999984741211,24.75,23.57762336730957,4700
2020-12-03,24.799999237060547,24.940000534057617,24.75,24.790000915527344,23.61573028564453,11900
2020-12-04,24.739999771118164,24.829999923706055,24.65999984741211,24.799999237060547,23.625255584716797,11900
2020-12-07,24.850000381469727,24.940000534057617,24.799999237060547,24.899999618530273,23.720518112182617,8100
2020-12-08,24.899999618530273,25.25,24.889999389648438,25.079999923706055,23.891992568969727,13500
2020-12-09,25.1200008392334,25.1200008392334,24.959999084472656,25.024999618530273,23.839595794677734,10600
2020-12-10,25.020000457763672,25.110000610351562,25.020000457763672,25.049999237060547,23.86341094970703,9600
2020-12-11,25.1200008392334,25.575000762939453,25.020000457763672,25.03499984741211,23.849124908447266,11700
2020-12-14,25.110000610351562,25.110000610351562,24.867000579833984,24.889999389648438,23.71099281311035,23000
2020-12-15,24.799999237060547,24.799999237060547,24.610000610351562,24.700000762939453,23.529993057250977,50400
2020-12-16,24.25,24.40999984741211,23.920000076293945,24.229999542236328,23.08225440979004,597800
2020-12-17,24.229999542236328,24.299999237060547,24.06999969482422,24.299999237060547,23.14893913269043,143300
2020-12-18,24.3700008392334,24.3700008392334,24.170000076293945,24.290000915527344,23.139415740966797,121700
2020-12-21,24.239999771118164,24.239999771118164,24.100000381469727,24.100000381469727,22.95841407775879,79500
2020-12-22,24.149999618530273,24.280000686645508,24.100000381469727,24.1299991607666,22.98699188232422,92100
2020-12-23,24.149999618530273,24.280000686645508,24.110000610351562,24.139999389648438,22.996517181396484,89300
2020-12-24,24.149999618530273,24.209999084472656,24.139999389648438,24.170000076293945,23.02509880065918,6900
2020-12-28,24.200000762939453,24.219999313354492,24.15999984741211,24.15999984741211,23.01557159423828,19300
2020-12-29,24.200000762939453,24.219999313354492,23.799999237060547,24.0,22.86315155029297,123400
2020-12-30,23.969999313354492,24.099000930786133,23.8700008392334,23.940000534057617,22.805994033813477,50700
