Date,Open,High,Low,Close,Adj Close,Volume
2019-01-25,9.829999923706055,9.829999923706055,9.649999618530273,9.649999618530273,9.649999618530273,205600
2019-01-28,9.670000076293945,9.680000305175781,9.670000076293945,9.670000076293945,9.670000076293945,186800
2019-01-29,9.670000076293945,9.670000076293945,9.65999984741211,9.65999984741211,9.65999984741211,20300
2019-01-30,9.680000305175781,9.680000305175781,9.65999984741211,9.670000076293945,9.670000076293945,325500
2019-01-31,9.680000305175781,9.680000305175781,9.670000076293945,9.670000076293945,9.670000076293945,24800
2019-02-01,9.670000076293945,9.670000076293945,9.670000076293945,9.670000076293945,9.670000076293945,40000
2019-02-04,9.670000076293945,9.670000076293945,9.670000076293945,9.670000076293945,9.670000076293945,0
2019-02-05,9.670000076293945,10.760000228881836,9.630000114440918,9.649999618530273,9.649999618530273,307300
2019-02-06,9.680000305175781,9.680000305175781,9.649999618530273,9.649999618530273,9.649999618530273,30400
2019-02-07,9.680000305175781,9.770000457763672,9.65999984741211,9.680000305175781,9.680000305175781,205600
2019-02-08,9.680000305175781,9.6899995803833,9.680000305175781,9.6899995803833,9.6899995803833,10100
2019-02-11,9.890000343322754,9.890000343322754,9.670000076293945,9.670000076293945,9.670000076293945,500
2019-02-12,9.670000076293945,9.670000076293945,9.670000076293945,9.670000076293945,9.670000076293945,2000
2019-02-13,10.425000190734863,10.425000190734863,9.65999984741211,9.65999984741211,9.65999984741211,800
2019-02-14,9.670000076293945,9.71500015258789,9.670000076293945,9.6899995803833,9.6899995803833,101700
2019-02-15,9.680000305175781,9.699999809265137,9.680000305175781,9.699999809265137,9.699999809265137,700
2019-02-19,9.680000305175781,9.6899995803833,9.680000305175781,9.6899995803833,9.6899995803833,50300
2019-02-20,9.687000274658203,9.989999771118164,9.680000305175781,9.710000038146973,9.710000038146973,110000
2019-02-21,9.720000267028809,9.720000267028809,9.680000305175781,9.699999809265137,9.699999809265137,3500
2019-02-22,10.1899995803833,10.1899995803833,9.880000114440918,9.880000114440918,9.880000114440918,700
2019-02-25,9.680000305175781,9.890000343322754,9.680000305175781,9.699999809265137,9.699999809265137,58500
2019-02-26,9.699999809265137,9.699999809265137,9.699999809265137,9.699999809265137,9.699999809265137,500
2019-02-27,9.710000038146973,9.890000343322754,9.6899995803833,9.6899995803833,9.6899995803833,84000
2019-02-28,9.800000190734863,9.800000190734863,9.6899995803833,9.699999809265137,9.699999809265137,7900
2019-03-01,9.699999809265137,9.699999809265137,9.699999809265137,9.699999809265137,9.699999809265137,0
2019-03-04,9.699999809265137,9.699999809265137,9.6899995803833,9.6899995803833,9.6899995803833,700
2019-03-05,9.720000267028809,9.720000267028809,9.6899995803833,9.6899995803833,9.6899995803833,900
2019-03-06,9.6899995803833,9.6899995803833,9.6899995803833,9.6899995803833,9.6899995803833,0
2019-03-07,9.6899995803833,9.6899995803833,9.670000076293945,9.670000076293945,9.670000076293945,14100
2019-03-08,9.699999809265137,9.704999923706055,9.699999809265137,9.699999809265137,9.699999809265137,10300
2019-03-11,9.699999809265137,9.699999809265137,9.699999809265137,9.699999809265137,9.699999809265137,100
2019-03-12,9.649999618530273,9.890000343322754,9.649999618530273,9.699999809265137,9.699999809265137,21100
2019-03-13,9.789999961853027,9.789999961853027,9.789999961853027,9.789999961853027,9.789999961853027,100
2019-03-14,9.699999809265137,9.699999809265137,9.680000305175781,9.680000305175781,9.680000305175781,21200
2019-03-15,9.800000190734863,9.800000190734863,9.699999809265137,9.710000038146973,9.710000038146973,241200
2019-03-18,9.758000373840332,9.758000373840332,9.758000373840332,9.758000373840332,9.758000373840332,100
2019-03-19,9.765999794006348,9.765999794006348,9.699999809265137,9.699999809265137,9.699999809265137,1100
2019-03-20,9.729999542236328,9.739999771118164,9.729999542236328,9.739999771118164,9.739999771118164,1800
2019-03-21,9.739999771118164,9.739999771118164,9.739999771118164,9.739999771118164,9.739999771118164,0
2019-03-22,9.739999771118164,9.739999771118164,9.739999771118164,9.739999771118164,9.739999771118164,100
2019-03-25,10.199999809265137,10.199999809265137,10.199999809265137,10.199999809265137,10.199999809265137,200
2019-03-26,9.720000267028809,9.765999794006348,9.720000267028809,9.739999771118164,9.739999771118164,4600
2019-03-27,9.770000457763672,9.770000457763672,9.739999771118164,9.739999771118164,9.739999771118164,400
2019-03-28,9.739999771118164,9.739999771118164,9.739999771118164,9.739999771118164,9.739999771118164,0
2019-03-29,9.75,9.75,9.75,9.75,9.75,4600
2019-04-01,9.770000457763672,9.960000038146973,9.75,9.770000457763672,9.770000457763672,253600
2019-04-02,9.800000190734863,9.800000190734863,9.789999961853027,9.789999961853027,9.789999961853027,700
2019-04-03,9.829999923706055,9.829999923706055,9.829999923706055,9.829999923706055,9.829999923706055,650100
2019-04-04,9.819999694824219,9.819999694824219,9.8100004196167,9.8100004196167,9.8100004196167,21300
2019-04-05,9.819999694824219,9.819999694824219,9.819999694824219,9.819999694824219,9.819999694824219,6100
2019-04-08,9.84000015258789,9.84000015258789,9.8100004196167,9.819999694824219,9.819999694824219,5300
2019-04-09,9.819999694824219,9.819999694824219,9.819999694824219,9.819999694824219,9.819999694824219,100
2019-04-10,9.819999694824219,9.819999694824219,9.819999694824219,9.819999694824219,9.819999694824219,100
2019-04-11,9.75,9.760000228881836,9.75,9.760000228881836,9.760000228881836,400
2019-04-12,9.760000228881836,9.760000228881836,9.760000228881836,9.760000228881836,9.760000228881836,0
2019-04-15,9.829999923706055,9.829999923706055,9.789999961853027,9.8100004196167,9.8100004196167,1100
2019-04-16,9.84000015258789,9.84000015258789,9.800000190734863,9.800000190734863,9.800000190734863,1600
2019-04-17,9.800000190734863,9.800000190734863,9.800000190734863,9.800000190734863,9.800000190734863,0
2019-04-18,9.800000190734863,9.800000190734863,9.800000190734863,9.800000190734863,9.800000190734863,100
2019-04-22,9.800000190734863,9.800000190734863,9.800000190734863,9.800000190734863,9.800000190734863,0
2019-04-23,9.829999923706055,9.829999923706055,9.829999923706055,9.829999923706055,9.829999923706055,2400
2019-04-24,9.833999633789062,9.84000015258789,9.833999633789062,9.84000015258789,9.84000015258789,1200
2019-04-25,9.84000015258789,9.84000015258789,9.829999923706055,9.829999923706055,9.829999923706055,10200
2019-04-26,9.829999923706055,9.829999923706055,9.829999923706055,9.829999923706055,9.829999923706055,100
2019-04-29,9.829999923706055,9.829999923706055,9.829999923706055,9.829999923706055,9.829999923706055,100
2019-04-30,9.838000297546387,9.838000297546387,9.838000297546387,9.838000297546387,9.838000297546387,300
2019-05-01,9.829999923706055,9.84000015258789,9.800000190734863,9.800000190734863,9.800000190734863,11500
2019-05-02,9.84000015258789,9.84000015258789,9.84000015258789,9.84000015258789,9.84000015258789,1000
2019-05-03,9.800000190734863,9.84000015258789,9.800000190734863,9.800000190734863,9.800000190734863,15700
2019-05-06,9.819999694824219,9.819999694824219,9.800000190734863,9.800000190734863,9.800000190734863,5300
2019-05-07,9.800000190734863,9.800000190734863,9.800000190734863,9.800000190734863,9.800000190734863,0
2019-05-08,9.800000190734863,9.800000190734863,9.800000190734863,9.800000190734863,9.800000190734863,0
2019-05-09,9.84000015258789,9.84000015258789,9.84000015258789,9.84000015258789,9.84000015258789,12600
2019-05-10,9.84000015258789,9.84000015258789,9.746999740600586,9.779999732971191,9.779999732971191,12700
2019-05-13,9.84000015258789,9.84000015258789,9.789999961853027,9.789999961853027,9.789999961853027,2700
2019-05-14,9.779000282287598,9.779000282287598,9.75,9.75,9.75,2400
2019-05-15,9.75,9.75,9.75,9.75,9.75,0
2019-05-16,9.75,9.75,9.75,9.75,9.75,0
2019-05-17,9.779999732971191,9.800000190734863,9.770000457763672,9.779999732971191,9.779999732971191,125500
2019-05-20,9.779999732971191,9.779999732971191,9.779999732971191,9.779999732971191,9.779999732971191,100
2019-05-21,9.779999732971191,9.779999732971191,9.779999732971191,9.779999732971191,9.779999732971191,0
2019-05-22,9.779999732971191,9.779999732971191,9.779999732971191,9.779999732971191,9.779999732971191,0
2019-05-23,9.779999732971191,9.779999732971191,9.779999732971191,9.779999732971191,9.779999732971191,0
2019-05-24,9.84000015258789,9.84000015258789,9.819999694824219,9.819999694824219,9.819999694824219,27500
2019-05-28,9.819999694824219,9.819999694824219,9.819999694824219,9.819999694824219,9.819999694824219,100
2019-05-29,9.850000381469727,9.850000381469727,9.84000015258789,9.84000015258789,9.84000015258789,1300
2019-05-30,9.84000015258789,9.84000015258789,9.84000015258789,9.84000015258789,9.84000015258789,0
2019-05-31,9.84000015258789,9.84000015258789,9.84000015258789,9.84000015258789,9.84000015258789,0
2019-06-03,9.850000381469727,9.850000381469727,9.829999923706055,9.829999923706055,9.829999923706055,1800
2019-06-04,9.829999923706055,9.829999923706055,9.829999923706055,9.829999923706055,9.829999923706055,0
2019-06-05,9.850000381469727,9.854999542236328,9.850000381469727,9.854999542236328,9.854999542236328,3200
2019-06-06,9.875,9.875,9.875,9.875,9.875,247700
2019-06-07,9.869999885559082,9.880000114440918,9.869999885559082,9.880000114440918,9.880000114440918,32900
2019-06-10,9.880000114440918,9.880000114440918,9.880000114440918,9.880000114440918,9.880000114440918,0
2019-06-11,9.880000114440918,9.880000114440918,9.880000114440918,9.880000114440918,9.880000114440918,0
2019-06-12,9.916000366210938,9.916000366210938,9.916000366210938,9.916000366210938,9.916000366210938,500
2019-06-13,9.916000366210938,9.916000366210938,9.916000366210938,9.916000366210938,9.916000366210938,100
2019-06-14,9.90999984741211,9.90999984741211,9.90999984741211,9.90999984741211,9.90999984741211,200
2019-06-17,9.90999984741211,9.90999984741211,9.90999984741211,9.90999984741211,9.90999984741211,0
2019-06-18,9.90999984741211,9.90999984741211,9.90999984741211,9.90999984741211,9.90999984741211,0
2019-06-19,9.90999984741211,9.90999984741211,9.90999984741211,9.90999984741211,9.90999984741211,2700
2019-06-20,9.90999984741211,9.90999984741211,9.90999984741211,9.90999984741211,9.90999984741211,100
2019-06-21,9.925999641418457,9.989999771118164,9.859999656677246,9.989999771118164,9.989999771118164,11100
2019-06-24,9.859999656677246,9.859999656677246,9.859999656677246,9.859999656677246,9.859999656677246,200
2019-06-25,9.989999771118164,9.989999771118164,9.989999771118164,9.989999771118164,9.989999771118164,500
2019-06-26,9.979999542236328,9.989999771118164,9.949999809265137,9.949999809265137,9.949999809265137,7700
2019-06-27,9.949999809265137,9.949999809265137,9.949999809265137,9.949999809265137,9.949999809265137,0
2019-06-28,9.979999542236328,9.989999771118164,9.8100004196167,9.8100004196167,9.8100004196167,8800
2019-07-01,9.8100004196167,9.8100004196167,9.8100004196167,9.8100004196167,9.8100004196167,0
2019-07-02,9.899999618530273,9.899999618530273,9.899999618530273,9.899999618530273,9.899999618530273,3300
2019-07-03,9.899999618530273,9.899999618530273,9.899999618530273,9.899999618530273,9.899999618530273,0
2019-07-05,9.899999618530273,9.899999618530273,9.899999618530273,9.899999618530273,9.899999618530273,100
2019-07-08,9.899999618530273,9.899999618530273,9.899999618530273,9.899999618530273,9.899999618530273,0
2019-07-09,9.888999938964844,9.9350004196167,9.888999938964844,9.9350004196167,9.9350004196167,400
2019-07-10,9.9350004196167,9.9350004196167,9.9350004196167,9.9350004196167,9.9350004196167,0
2019-07-11,9.850000381469727,9.989999771118164,9.850000381469727,9.989999771118164,9.989999771118164,2100
2019-07-12,9.989999771118164,9.989999771118164,9.989999771118164,9.989999771118164,9.989999771118164,100
2019-07-15,9.989999771118164,9.989999771118164,9.960000038146973,9.989999771118164,9.989999771118164,500
2019-07-16,9.979999542236328,9.989999771118164,9.899999618530273,9.989999771118164,9.989999771118164,900
2019-07-17,9.949999809265137,9.979999542236328,9.890000343322754,9.949999809265137,9.949999809265137,196300
2019-07-18,9.949999809265137,9.949999809265137,9.949999809265137,9.949999809265137,9.949999809265137,0
2019-07-19,9.949999809265137,9.949999809265137,9.949999809265137,9.949999809265137,9.949999809265137,500
2019-07-22,9.949999809265137,9.949999809265137,9.949999809265137,9.949999809265137,9.949999809265137,0
2019-07-23,9.880000114440918,9.90999984741211,9.880000114440918,9.90999984741211,9.90999984741211,400
2019-07-24,9.90999984741211,9.90999984741211,9.90999984741211,9.90999984741211,9.90999984741211,0
2019-07-25,9.90999984741211,9.90999984741211,9.90999984741211,9.90999984741211,9.90999984741211,0
2019-07-26,9.90999984741211,9.90999984741211,9.90999984741211,9.90999984741211,9.90999984741211,0
2019-07-29,9.880000114440918,9.90999984741211,9.869999885559082,9.880000114440918,9.880000114440918,3900
2019-07-30,9.899999618530273,9.899999618530273,9.899999618530273,9.899999618530273,9.899999618530273,13100
2019-07-31,9.920000076293945,9.930000305175781,9.920000076293945,9.930000305175781,9.930000305175781,600
2019-08-01,9.90999984741211,9.90999984741211,9.90999984741211,9.90999984741211,9.90999984741211,700
2019-08-02,9.90999984741211,9.90999984741211,9.899999618530273,9.899999618530273,9.899999618530273,95300
2019-08-05,9.9399995803833,9.9399995803833,9.9399995803833,9.9399995803833,9.9399995803833,1000
2019-08-06,9.9399995803833,9.9399995803833,9.9399995803833,9.9399995803833,9.9399995803833,9300
2019-08-07,9.9399995803833,9.949999809265137,9.9399995803833,9.949999809265137,9.949999809265137,295300
2019-08-08,9.9399995803833,9.949999809265137,9.9399995803833,9.9399995803833,9.9399995803833,414700
2019-08-09,9.9399995803833,9.949999809265137,9.9399995803833,9.9399995803833,9.9399995803833,6100
2019-08-12,9.9399995803833,9.949999809265137,9.9399995803833,9.9399995803833,9.9399995803833,6100
2019-08-13,9.928000450134277,9.960000038146973,9.928000450134277,9.960000038146973,9.960000038146973,300
2019-08-14,9.899999618530273,9.960000038146973,9.899999618530273,9.960000038146973,9.960000038146973,3800
2019-08-15,9.949999809265137,9.970000267028809,9.930000305175781,9.930000305175781,9.930000305175781,970800
2019-08-16,9.90999984741211,9.90999984741211,9.880000114440918,9.880000114440918,9.880000114440918,2900
2019-08-19,9.899999618530273,9.970000267028809,9.899999618530273,9.970000267028809,9.970000267028809,40100
2019-08-20,9.920000076293945,9.970000267028809,9.920000076293945,9.960000038146973,9.960000038146973,11600
2019-08-21,9.9399995803833,9.970000267028809,9.9399995803833,9.970000267028809,9.970000267028809,16200
2019-08-22,9.949999809265137,9.979999542236328,9.949999809265137,9.970000267028809,9.970000267028809,142500
2019-08-23,9.9399995803833,9.970000267028809,9.9399995803833,9.970000267028809,9.970000267028809,103500
2019-08-26,9.979999542236328,9.989999771118164,9.930000305175781,9.989999771118164,9.989999771118164,41500
2019-08-27,9.989999771118164,9.989999771118164,9.949999809265137,9.949999809265137,9.949999809265137,14600
2019-08-28,9.949999809265137,9.949999809265137,9.949999809265137,9.949999809265137,9.949999809265137,0
2019-08-29,9.949999809265137,9.954999923706055,9.9399995803833,9.9399995803833,9.9399995803833,5400
2019-08-30,9.9399995803833,9.9399995803833,9.9399995803833,9.9399995803833,9.9399995803833,0
2019-09-03,9.9399995803833,9.956999778747559,9.9399995803833,9.956999778747559,9.956999778747559,6200
2019-09-04,9.949999809265137,9.949999809265137,9.949999809265137,9.949999809265137,9.949999809265137,800
2019-09-05,9.949999809265137,9.949999809265137,9.949999809265137,9.949999809265137,9.949999809265137,0
2019-09-06,9.949999809265137,9.960000038146973,9.949999809265137,9.949999809265137,9.949999809265137,12700
2019-09-09,9.949999809265137,9.960000038146973,9.949999809265137,9.949999809265137,9.949999809265137,700
2019-09-10,9.970000267028809,10.15999984741211,9.970000267028809,9.979999542236328,9.979999542236328,335400
2019-09-11,9.979999542236328,9.979999542236328,9.979999542236328,9.979999542236328,9.979999542236328,0
2019-09-12,9.979999542236328,9.979999542236328,9.960000038146973,9.970000267028809,9.970000267028809,332300
2019-09-13,10.020000457763672,10.020000457763672,9.960000038146973,9.96500015258789,9.96500015258789,33900
2019-09-16,9.960000038146973,9.989999771118164,9.960000038146973,9.979999542236328,9.979999542236328,400
2019-09-17,9.960000038146973,10.0,9.949999809265137,9.979000091552734,9.979000091552734,2710000
2019-09-18,9.970000267028809,9.994000434875488,9.970000267028809,9.994000434875488,9.994000434875488,267800
2019-09-19,9.994000434875488,9.994000434875488,9.994000434875488,9.994000434875488,9.994000434875488,0
2019-09-20,9.979999542236328,9.989999771118164,9.979999542236328,9.989999771118164,9.989999771118164,13100
2019-09-23,10.0,10.0,9.961999893188477,10.0,10.0,2200
2019-09-24,10.0,10.010000228881836,10.0,10.0,10.0,2600
2019-09-25,10.010000228881836,10.09000015258789,10.010000228881836,10.09000015258789,10.09000015258789,600
2019-09-26,10.119999885559082,10.119999885559082,10.119999885559082,10.119999885559082,10.119999885559082,300
2019-09-27,10.069999694824219,10.069999694824219,10.069999694824219,10.069999694824219,10.069999694824219,100
2019-09-30,10.069999694824219,10.069999694824219,10.069999694824219,10.069999694824219,10.069999694824219,9700
2019-10-01,10.069999694824219,10.069999694824219,10.069999694824219,10.069999694824219,10.069999694824219,0
2019-10-02,10.069999694824219,10.069999694824219,10.069999694824219,10.069999694824219,10.069999694824219,100
2019-10-03,10.069999694824219,10.069999694824219,10.069999694824219,10.069999694824219,10.069999694824219,0
2019-10-04,9.960000038146973,10.039999961853027,9.960000038146973,10.039999961853027,10.039999961853027,2300
2019-10-07,10.010000228881836,10.079999923706055,10.0,10.079999923706055,10.079999923706055,1700
2019-10-08,10.079999923706055,10.079999923706055,10.079999923706055,10.079999923706055,10.079999923706055,100
2019-10-09,10.079999923706055,10.079999923706055,10.079999923706055,10.079999923706055,10.079999923706055,100
2019-10-10,9.979999542236328,10.100000381469727,9.979999542236328,10.100000381469727,10.100000381469727,400100
2019-10-11,10.038000106811523,10.039999961853027,10.010000228881836,10.039999961853027,10.039999961853027,519500
2019-10-14,10.039999961853027,10.039999961853027,10.039999961853027,10.039999961853027,10.039999961853027,100
2019-10-15,10.039999961853027,10.039999961853027,10.039999961853027,10.039999961853027,10.039999961853027,100
2019-10-16,10.039999961853027,10.039999961853027,10.039999961853027,10.039999961853027,10.039999961853027,100
2019-10-17,10.010000228881836,10.109999656677246,10.0,10.010000228881836,10.010000228881836,11100
2019-10-18,10.010000228881836,10.010000228881836,10.010000228881836,10.010000228881836,10.010000228881836,100
2019-10-21,10.010000228881836,10.010000228881836,10.010000228881836,10.010000228881836,10.010000228881836,100
2019-10-22,10.010000228881836,10.010000228881836,10.010000228881836,10.010000228881836,10.010000228881836,100
2019-10-23,10.0,10.020000457763672,10.0,10.020000457763672,10.020000457763672,565000
2019-10-24,10.010000228881836,10.020000457763672,10.010000228881836,10.020000457763672,10.020000457763672,305000
2019-10-25,10.010000228881836,10.029999732971191,10.0,10.0,10.0,304400
2019-10-28,10.010000228881836,10.020000457763672,10.010000228881836,10.020000457763672,10.020000457763672,191900
2019-10-29,10.0,10.020000457763672,10.0,10.020000457763672,10.020000457763672,115100
2019-10-30,10.020000457763672,10.029999732971191,10.010000228881836,10.027999877929688,10.027999877929688,300000
2019-10-31,10.020000457763672,10.029999732971191,10.020000457763672,10.029999732971191,10.029999732971191,23000
2019-11-01,10.020000457763672,10.029999732971191,10.010000228881836,10.010000228881836,10.010000228881836,34300
2019-11-04,10.010000228881836,10.020000457763672,10.010000228881836,10.010000228881836,10.010000228881836,74300
2019-11-05,10.020000457763672,10.020000457763672,10.019000053405762,10.019000053405762,10.019000053405762,4600
2019-11-06,10.020000457763672,10.020000457763672,10.020000457763672,10.020000457763672,10.020000457763672,200
2019-11-07,10.020000457763672,10.020000457763672,10.020000457763672,10.020000457763672,10.020000457763672,32800
2019-11-08,10.020000457763672,10.029999732971191,10.020000457763672,10.029999732971191,10.029999732971191,55300
2019-11-11,10.024999618530273,10.029999732971191,10.020000457763672,10.029999732971191,10.029999732971191,22400
2019-11-12,10.029999732971191,10.029999732971191,10.029999732971191,10.029999732971191,10.029999732971191,10400
2019-11-13,10.029999732971191,10.029999732971191,10.020000457763672,10.029999732971191,10.029999732971191,38900
2019-11-14,10.029999732971191,10.029999732971191,10.029999732971191,10.029999732971191,10.029999732971191,30100
2019-11-15,10.029999732971191,10.029999732971191,10.029999732971191,10.029999732971191,10.029999732971191,100
2019-11-18,10.039999961853027,10.039999961853027,10.039999961853027,10.039999961853027,10.039999961853027,86200
2019-11-19,10.039999961853027,10.039999961853027,10.039999961853027,10.039999961853027,10.039999961853027,15200
2019-11-20,10.029999732971191,10.039999961853027,10.029999732971191,10.039999961853027,10.039999961853027,47700
2019-11-21,10.079999923706055,10.079999923706055,10.050000190734863,10.050000190734863,10.050000190734863,103100
2019-11-22,10.0600004196167,10.0600004196167,10.050000190734863,10.0600004196167,10.0600004196167,140500
2019-11-25,10.069999694824219,10.069999694824219,10.050000190734863,10.050000190734863,10.050000190734863,250500
2019-11-26,10.069999694824219,10.079999923706055,10.050000190734863,10.079999923706055,10.079999923706055,11000
2019-11-27,10.079999923706055,10.079999923706055,10.079999923706055,10.079999923706055,10.079999923706055,9300
2019-11-29,10.0649995803833,10.079999923706055,10.0649995803833,10.079999923706055,10.079999923706055,8600
2019-12-02,10.069999694824219,10.069999694824219,10.069999694824219,10.069999694824219,10.069999694824219,100800
2019-12-03,10.079999923706055,10.086999893188477,10.079999923706055,10.086999893188477,10.086999893188477,50300
2019-12-04,10.069999694824219,10.100000381469727,10.069999694824219,10.100000381469727,10.100000381469727,113200
2019-12-05,10.09000015258789,10.09000015258789,10.09000015258789,10.09000015258789,10.09000015258789,100000
2019-12-06,10.109999656677246,10.119999885559082,10.109999656677246,10.119999885559082,10.119999885559082,23000
2019-12-09,10.119999885559082,10.119999885559082,10.119999885559082,10.119999885559082,10.119999885559082,0
2019-12-10,10.119999885559082,10.119999885559082,10.119999885559082,10.119999885559082,10.119999885559082,1700
2019-12-11,10.119999885559082,10.119999885559082,10.116999626159668,10.116999626159668,10.116999626159668,4800
2019-12-12,10.119999885559082,10.119999885559082,10.119999885559082,10.119999885559082,10.119999885559082,400
2019-12-13,10.100000381469727,10.119999885559082,10.100000381469727,10.119999885559082,10.119999885559082,5600
2019-12-16,10.109999656677246,10.140000343322754,10.109999656677246,10.140000343322754,10.140000343322754,100200
2019-12-17,10.149999618530273,10.149999618530273,10.149999618530273,10.149999618530273,10.149999618530273,200
2019-12-18,10.147000312805176,10.147000312805176,10.147000312805176,10.147000312805176,10.147000312805176,100
2019-12-19,10.147000312805176,10.147000312805176,10.147000312805176,10.147000312805176,10.147000312805176,0
2019-12-20,10.147000312805176,10.147000312805176,10.147000312805176,10.147000312805176,10.147000312805176,0
2019-12-23,10.1899995803833,10.1899995803833,10.149999618530273,10.149999618530273,10.149999618530273,5000
2019-12-24,10.149999618530273,10.149999618530273,10.149999618530273,10.149999618530273,10.149999618530273,0
2019-12-26,10.149999618530273,10.149999618530273,10.149999618530273,10.149999618530273,10.149999618530273,0
2019-12-27,10.149999618530273,10.149999618530273,10.149999618530273,10.149999618530273,10.149999618530273,0
2019-12-30,10.119999885559082,10.119999885559082,10.119999885559082,10.119999885559082,10.119999885559082,200
2019-12-31,10.154999732971191,10.154999732971191,10.119999885559082,10.119999885559082,10.119999885559082,1000
2020-01-02,10.164999961853027,10.1899995803833,10.140000343322754,10.1899995803833,10.1899995803833,1400
2020-01-03,10.180000305175781,10.180000305175781,10.180000305175781,10.180000305175781,10.180000305175781,65200
2020-01-06,10.180000305175781,10.180000305175781,10.180000305175781,10.180000305175781,10.180000305175781,0
2020-01-07,10.149999618530273,10.1899995803833,10.149999618530273,10.1899995803833,10.1899995803833,274200
2020-01-08,10.1850004196167,10.189000129699707,10.1850004196167,10.189000129699707,10.189000129699707,4600
2020-01-09,10.199999809265137,10.199999809265137,10.199999809265137,10.199999809265137,10.199999809265137,100
2020-01-10,10.194999694824219,10.194999694824219,10.194999694824219,10.194999694824219,10.194999694824219,4200
2020-01-13,10.199999809265137,10.199999809265137,10.199999809265137,10.199999809265137,10.199999809265137,90600
2020-01-14,10.229999542236328,10.229999542236328,10.220000267028809,10.229999542236328,10.229999542236328,25600
2020-01-15,10.25,10.25,10.25,10.25,10.25,100
2020-01-16,10.180000305175781,10.25,10.180000305175781,10.25,10.25,3400
2020-01-17,10.239999771118164,10.270000457763672,10.199999809265137,10.199999809265137,10.199999809265137,21100
2020-01-21,10.201000213623047,10.229999542236328,10.201000213623047,10.229999542236328,10.229999542236328,2000
2020-01-22,10.229999542236328,10.229999542236328,10.229999542236328,10.229999542236328,10.229999542236328,0
2020-01-23,10.220000267028809,10.25,10.220000267028809,10.25,10.25,1600
2020-01-24,10.210000038146973,10.210000038146973,10.210000038146973,10.210000038146973,10.210000038146973,200
2020-01-27,10.210000038146973,10.210000038146973,10.210000038146973,10.210000038146973,10.210000038146973,0
2020-01-28,10.210000038146973,10.210000038146973,10.210000038146973,10.210000038146973,10.210000038146973,0
2020-01-29,10.260000228881836,10.260000228881836,10.260000228881836,10.260000228881836,10.260000228881836,300
2020-01-30,10.270000457763672,10.270000457763672,10.229999542236328,10.229999542236328,10.229999542236328,17400
2020-01-31,10.255000114440918,10.255000114440918,10.255000114440918,10.255000114440918,10.255000114440918,800
2020-02-03,10.229999542236328,10.229999542236328,10.229999542236328,10.229999542236328,10.229999542236328,200
2020-02-04,10.229999542236328,10.229999542236328,10.229999542236328,10.229999542236328,10.229999542236328,0
2020-02-05,10.229999542236328,10.229999542236328,10.229999542236328,10.229999542236328,10.229999542236328,0
2020-02-06,10.229999542236328,10.229999542236328,10.229999542236328,10.229999542236328,10.229999542236328,0
2020-02-07,10.25,10.270000457763672,10.25,10.260000228881836,10.260000228881836,6500
2020-02-10,10.220000267028809,10.25,10.220000267028809,10.25,10.25,900
2020-02-11,10.270000457763672,10.270000457763672,10.220000267028809,10.220000267028809,10.220000267028809,6100
2020-02-12,10.229999542236328,10.229999542236328,10.229999542236328,10.229999542236328,10.229999542236328,1000
2020-02-13,10.220000267028809,10.239999771118164,10.220000267028809,10.239999771118164,10.239999771118164,400
2020-02-14,10.232999801635742,10.25,10.232999801635742,10.25,10.25,11900
2020-02-18,10.25,10.25,10.25,10.25,10.25,10600
2020-02-19,10.25,10.25,10.25,10.25,10.25,1200
2020-02-20,10.25,10.25,10.25,10.25,10.25,100
2020-02-21,10.25,10.25,10.25,10.25,10.25,0
2020-02-24,10.25,10.25,10.25,10.25,10.25,0
2020-02-25,10.25,10.25,10.25,10.25,10.25,0
2020-02-26,10.232999801635742,10.232999801635742,10.232999801635742,10.232999801635742,10.232999801635742,1000
2020-02-27,10.199999809265137,10.25,10.199999809265137,10.25,10.25,9400
2020-02-28,10.25,10.25,10.220000267028809,10.220000267028809,10.220000267028809,28500
2020-03-02,10.210000038146973,10.255000114440918,10.210000038146973,10.210000038146973,10.210000038146973,206200
2020-03-03,10.210000038146973,10.210000038146973,10.210000038146973,10.210000038146973,10.210000038146973,0
2020-03-04,10.210000038146973,10.210000038146973,10.210000038146973,10.210000038146973,10.210000038146973,0
2020-03-05,10.210000038146973,10.210000038146973,10.210000038146973,10.210000038146973,10.210000038146973,7400
2020-03-06,10.210000038146973,10.210000038146973,10.210000038146973,10.210000038146973,10.210000038146973,0
2020-03-09,10.210000038146973,10.210000038146973,10.210000038146973,10.210000038146973,10.210000038146973,0
2020-03-10,10.210000038146973,10.210000038146973,10.210000038146973,10.210000038146973,10.210000038146973,0
2020-03-11,10.170000076293945,10.170000076293945,10.170000076293945,10.170000076293945,10.170000076293945,300
2020-03-12,10.199999809265137,10.199999809265137,10.079999923706055,10.079999923706055,10.079999923706055,11500
2020-03-13,10.100000381469727,10.100000381469727,10.050000190734863,10.050000190734863,10.050000190734863,200700
2020-03-16,9.930000305175781,10.149999618530273,9.800000190734863,10.149999618530273,10.149999618530273,162000
2020-03-17,10.0600004196167,10.0600004196167,9.989999771118164,10.050000190734863,10.050000190734863,27500
2020-03-18,10.050000190734863,10.050000190734863,9.774999618530273,9.859999656677246,9.859999656677246,741500
2020-03-19,9.800000190734863,9.960000038146973,9.75,9.960000038146973,9.960000038146973,593700
2020-03-20,9.880000114440918,9.880000114440918,9.800000190734863,9.800000190734863,9.800000190734863,430100
2020-03-23,10.0,10.0,9.949999809265137,9.949999809265137,9.949999809265137,600
2020-03-24,9.899999618530273,9.949999809265137,9.899999618530273,9.949999809265137,9.949999809265137,39700
2020-03-25,9.949999809265137,9.949999809265137,9.949999809265137,9.949999809265137,9.949999809265137,0
2020-03-26,9.970000267028809,10.095000267028809,9.970000267028809,10.01099967956543,10.01099967956543,13600
2020-03-27,9.800000190734863,10.100000381469727,9.800000190734863,10.010000228881836,10.010000228881836,179200
2020-03-30,10.020000457763672,10.100000381469727,10.020000457763672,10.050000190734863,10.050000190734863,38800
2020-03-31,9.949999809265137,10.010000228881836,9.949999809265137,10.010000228881836,10.010000228881836,16000
2020-04-01,10.038999557495117,10.149999618530273,9.949999809265137,9.949999809265137,9.949999809265137,83400
2020-04-02,9.949999809265137,9.949999809265137,9.949999809265137,9.949999809265137,9.949999809265137,0
2020-04-03,10.039999961853027,10.039999961853027,9.979999542236328,10.0,10.0,197300
2020-04-06,10.0,10.050000190734863,10.0,10.050000190734863,10.050000190734863,200
2020-04-07,10.050000190734863,10.050000190734863,10.050000190734863,10.050000190734863,10.050000190734863,14500
2020-04-08,10.039999961853027,10.100000381469727,10.039999961853027,10.100000381469727,10.100000381469727,4800
2020-04-09,10.029999732971191,10.029999732971191,10.029999732971191,10.029999732971191,10.029999732971191,300
2020-04-13,10.0600004196167,10.109999656677246,10.0600004196167,10.097000122070312,10.097000122070312,57800
2020-04-14,10.09000015258789,10.09000015258789,10.09000015258789,10.09000015258789,10.09000015258789,500
2020-04-15,10.09000015258789,10.09000015258789,10.09000015258789,10.09000015258789,10.09000015258789,0
2020-04-16,10.09000015258789,10.09000015258789,10.09000015258789,10.09000015258789,10.09000015258789,0
2020-04-17,10.09000015258789,10.09000015258789,10.09000015258789,10.09000015258789,10.09000015258789,500
2020-04-20,10.109999656677246,10.119999885559082,10.109999656677246,10.109999656677246,10.109999656677246,4400
2020-04-21,10.109999656677246,10.109999656677246,10.109999656677246,10.109999656677246,10.109999656677246,0
2020-04-22,10.119999885559082,10.130000114440918,10.119999885559082,10.130000114440918,10.130000114440918,700
2020-04-23,10.130000114440918,10.130000114440918,10.119999885559082,10.130000114440918,10.130000114440918,1056100
2020-04-24,10.140000343322754,10.140000343322754,10.140000343322754,10.140000343322754,10.140000343322754,2600
2020-04-27,10.130000114440918,10.149999618530273,10.130000114440918,10.130000114440918,10.130000114440918,1576800
2020-04-28,10.149999618530273,10.1850004196167,10.149999618530273,10.180000305175781,10.180000305175781,112700
2020-04-29,10.164999961853027,10.164999961853027,10.15999984741211,10.15999984741211,10.15999984741211,2000
2020-04-30,10.15999984741211,10.170000076293945,10.149999618530273,10.170000076293945,10.170000076293945,295400
2020-05-01,10.170000076293945,10.180000305175781,10.170000076293945,10.170000076293945,10.170000076293945,4200
2020-05-04,10.170000076293945,10.180000305175781,10.170000076293945,10.170000076293945,10.170000076293945,53200
2020-05-05,10.170000076293945,10.170000076293945,10.170000076293945,10.170000076293945,10.170000076293945,0
2020-05-06,10.170000076293945,10.170000076293945,10.170000076293945,10.170000076293945,10.170000076293945,0
2020-05-07,10.170000076293945,10.170000076293945,10.170000076293945,10.170000076293945,10.170000076293945,0
2020-05-08,10.170000076293945,10.170000076293945,10.170000076293945,10.170000076293945,10.170000076293945,0
2020-05-11,10.130000114440918,10.170000076293945,10.130000114440918,10.170000076293945,10.170000076293945,25300
2020-05-12,10.170000076293945,10.175000190734863,10.149999618530273,10.149999618530273,10.149999618530273,59300
2020-05-13,10.149999618530273,10.149999618530273,10.149999618530273,10.149999618530273,10.149999618530273,1200
2020-05-14,10.173999786376953,10.180000305175781,10.100000381469727,10.149999618530273,10.149999618530273,46300
2020-05-15,10.15999984741211,10.15999984741211,10.130000114440918,10.149999618530273,10.149999618530273,40700
2020-05-18,10.149999618530273,10.170000076293945,10.130000114440918,10.149999618530273,10.149999618530273,900
2020-05-19,10.15999984741211,10.180000305175781,10.15999984741211,10.15999984741211,10.15999984741211,151400
2020-05-20,10.180000305175781,10.289999961853027,10.170000076293945,10.279999732971191,10.279999732971191,335300
2020-05-21,10.289999961853027,10.300000190734863,10.260000228881836,10.279999732971191,10.279999732971191,581100
2020-05-22,10.282999992370605,10.300000190734863,10.279999732971191,10.279999732971191,10.279999732971191,11400
2020-05-26,10.260000228881836,10.300000190734863,10.25,10.260000228881836,10.260000228881836,22000
2020-05-27,10.260000228881836,10.279999732971191,10.25,10.25,10.25,45700
2020-05-28,10.25,10.255000114440918,10.25,10.255000114440918,10.255000114440918,10700
2020-05-29,10.25,10.25,10.210000038146973,10.25,10.25,36900
2020-06-01,10.25,10.289999961853027,10.25,10.260000228881836,10.260000228881836,301900
2020-06-02,10.289999961853027,10.300000190734863,10.260000228881836,10.270000457763672,10.270000457763672,644100
2020-06-03,10.270000457763672,10.270000457763672,10.260000228881836,10.260000228881836,10.260000228881836,89700
2020-06-04,10.270000457763672,10.345000267028809,10.270000457763672,10.3100004196167,10.3100004196167,97000
2020-06-05,10.319999694824219,10.354999542236328,10.319999694824219,10.350000381469727,10.350000381469727,54600
2020-06-08,10.350000381469727,10.744999885559082,10.350000381469727,10.675000190734863,10.675000190734863,118000
2020-06-09,10.640000343322754,10.640000343322754,10.595000267028809,10.600000381469727,10.600000381469727,6800
2020-06-10,10.720000267028809,10.720000267028809,10.600000381469727,10.649999618530273,10.649999618530273,16600
2020-06-11,10.6899995803833,10.6899995803833,10.369999885559082,10.5,10.5,36600
2020-06-12,10.399999618530273,10.59000015258789,10.289999961853027,10.300000190734863,10.300000190734863,47500
2020-06-15,10.380000114440918,10.800000190734863,10.279999732971191,10.289999961853027,10.289999961853027,39100
2020-06-16,10.279999732971191,10.430000305175781,10.270000457763672,10.300000190734863,10.300000190734863,174700
2020-06-17,10.399999618530273,10.649999618530273,10.390000343322754,10.579999923706055,10.579999923706055,101600
2020-06-18,10.600000381469727,10.699999809265137,10.420000076293945,10.640000343322754,10.640000343322754,275100
2020-06-19,10.640000343322754,10.9399995803833,10.640000343322754,10.899999618530273,10.899999618530273,103700
2020-06-22,10.970000267028809,10.989999771118164,10.600000381469727,10.850000381469727,10.850000381469727,67700
2020-06-23,10.850000381469727,10.949999809265137,10.824999809265137,10.949999809265137,10.949999809265137,242700
2020-06-24,10.819999694824219,10.949999809265137,10.65999984741211,10.920000076293945,10.920000076293945,255600
2020-06-25,10.722000122070312,10.890000343322754,10.722000122070312,10.829999923706055,10.829999923706055,1800
2020-06-26,10.8149995803833,10.824999809265137,10.75,10.800000190734863,10.800000190734863,94800
2020-06-29,10.800000190734863,11.359999656677246,10.800000190734863,10.859999656677246,10.859999656677246,370600
2020-06-30,10.899999618530273,11.199999809265137,10.890000343322754,11.15999984741211,11.15999984741211,188200
2020-07-01,11.109999656677246,11.34000015258789,10.989999771118164,11.0,11.0,327500
2020-07-02,11.09000015258789,11.100000381469727,10.989999771118164,11.039999961853027,11.039999961853027,408000
2020-07-06,11.069999694824219,11.300000190734863,11.050000190734863,11.050000190734863,11.050000190734863,614900
2020-07-07,11.180000305175781,11.229999542236328,10.899999618530273,11.0,11.0,400200
2020-07-08,11.0,11.116999626159668,10.850000381469727,11.0,11.0,480100
2020-07-09,11.079999923706055,11.319999694824219,10.859999656677246,11.199999809265137,11.199999809265137,628100
2020-07-10,11.380000114440918,11.550000190734863,11.289999961853027,11.479999542236328,11.479999542236328,376900
2020-07-13,11.5,11.5,10.899999618530273,11.180000305175781,11.180000305175781,312700
2020-07-14,11.029999732971191,11.164999961853027,10.899999618530273,10.960000038146973,10.960000038146973,175900
2020-07-15,10.930000305175781,11.100000381469727,10.90999984741211,11.0,11.0,538000
2020-07-16,11.0,11.199999809265137,10.930000305175781,11.170000076293945,11.170000076293945,164200
2020-07-17,11.069999694824219,11.220000267028809,11.020000457763672,11.220000267028809,11.220000267028809,53900
2020-07-20,11.199999809265137,11.199999809265137,10.949999809265137,11.050000190734863,11.050000190734863,94000
2020-07-21,10.989999771118164,11.055000305175781,10.920000076293945,10.960000038146973,10.960000038146973,91900
2020-07-22,10.979999542236328,11.0,10.800000190734863,10.829999923706055,10.829999923706055,44500
2020-07-23,10.821999549865723,11.0649995803833,10.8100004196167,10.979999542236328,10.979999542236328,416200
2020-07-24,10.829999923706055,11.010000228881836,10.779999732971191,10.779999732971191,10.779999732971191,202500
2020-07-27,10.760000228881836,11.0,10.720000267028809,10.90999984741211,10.90999984741211,156300
2020-07-28,10.800000190734863,10.90999984741211,10.720000267028809,10.84000015258789,10.84000015258789,52300
2020-07-29,10.930000305175781,10.970000267028809,10.838000297546387,10.899999618530273,10.899999618530273,342900
2020-07-30,10.779999732971191,10.899999618530273,10.6899995803833,10.699999809265137,10.699999809265137,38100
2020-07-31,10.699999809265137,11.149999618530273,10.4399995803833,10.489999771118164,10.489999771118164,1433000
2020-08-03,10.319999694824219,10.479999542236328,10.319999694824219,10.420000076293945,10.420000076293945,3699200
2020-08-04,10.5,10.5,10.399999618530273,10.420000076293945,10.420000076293945,780700
2020-08-05,10.479999542236328,10.479999542236328,10.3100004196167,10.350000381469727,10.350000381469727,259800
2020-08-06,10.350000381469727,10.449999809265137,10.3100004196167,10.319999694824219,10.319999694824219,379600
2020-08-07,10.319999694824219,10.4399995803833,10.3100004196167,10.380000114440918,10.380000114440918,362300
2020-08-10,10.399999618530273,10.437999725341797,10.319999694824219,10.350000381469727,10.350000381469727,511300
2020-08-11,10.449999809265137,10.449999809265137,10.319999694824219,10.329999923706055,10.329999923706055,188200
2020-08-12,10.350000381469727,10.359999656677246,10.300000190734863,10.319999694824219,10.319999694824219,244400
2020-08-13,10.319999694824219,10.4399995803833,10.319999694824219,10.380000114440918,10.380000114440918,725500
2020-08-14,10.359999656677246,10.380000114440918,10.319999694824219,10.350000381469727,10.350000381469727,721400
2020-08-17,10.350000381469727,10.350000381469727,10.246999740600586,10.270000457763672,10.270000457763672,232500
2020-08-18,10.369999885559082,10.369999885559082,10.229999542236328,10.229999542236328,10.229999542236328,263400
2020-08-19,10.300000190734863,10.300000190734863,10.210000038146973,10.220000267028809,10.220000267028809,145100
2020-08-20,10.210000038146973,10.230999946594238,10.199999809265137,10.210000038146973,10.210000038146973,157600
2020-08-21,10.210000038146973,10.25,10.199999809265137,10.210000038146973,10.210000038146973,41400
2020-08-24,10.25,10.25,10.199999809265137,10.229999542236328,10.229999542236328,47000
2020-08-25,10.289999961853027,10.430000305175781,10.265000343322754,10.420000076293945,10.420000076293945,744200
2020-08-26,10.4399995803833,10.449999809265137,10.359999656677246,10.380000114440918,10.380000114440918,709400
2020-08-27,10.399999618530273,10.399999618530273,10.125,10.25,10.25,328700
2020-08-28,10.390000343322754,10.390000343322754,10.260000228881836,10.260000228881836,10.260000228881836,540100
2020-08-31,10.380000114440918,10.380000114440918,10.220000267028809,10.229999542236328,10.229999542236328,41800
2020-09-01,10.229999542236328,10.279999732971191,10.229999542236328,10.244999885559082,10.244999885559082,150000
2020-09-02,10.279999732971191,10.449999809265137,10.265999794006348,10.300000190734863,10.300000190734863,143400
2020-09-03,10.369999885559082,10.390000343322754,10.25,10.25,10.25,107300
2020-09-04,10.300000190734863,10.399999618530273,10.260000228881836,10.390000343322754,10.390000343322754,1194500
2020-09-08,10.399999618530273,10.420000076293945,10.270000457763672,10.380000114440918,10.380000114440918,159700
2020-09-09,10.430000305175781,10.430000305175781,10.25,10.25,10.25,132500
2020-09-10,10.3100004196167,10.4399995803833,10.260000228881836,10.350000381469727,10.350000381469727,643700
2020-09-11,10.399999618530273,10.399999618530273,10.270000457763672,10.270000457763672,10.270000457763672,73400
2020-09-14,10.369999885559082,10.390000343322754,10.260000228881836,10.390000343322754,10.390000343322754,226900
2020-09-15,10.390000343322754,10.399999618530273,10.270000457763672,10.36400032043457,10.36400032043457,390900
2020-09-16,10.380000114440918,10.399999618530273,10.300000190734863,10.350000381469727,10.350000381469727,660600
2020-09-17,10.293000221252441,10.380000114440918,10.293000221252441,10.380000114440918,10.380000114440918,970400
2020-09-18,10.380000114440918,10.399999618530273,10.300000190734863,10.350000381469727,10.350000381469727,100700
2020-09-21,10.399999618530273,10.399999618530273,10.270000457763672,10.34000015258789,10.34000015258789,81200
2020-09-22,10.3100004196167,10.350000381469727,10.270000457763672,10.289999961853027,10.289999961853027,1162500
2020-09-23,10.260000228881836,10.359999656677246,10.260000228881836,10.289999961853027,10.289999961853027,5306900
2020-09-24,10.34000015258789,10.350000381469727,10.029999732971191,10.239999771118164,10.239999771118164,235900
2020-09-25,10.229999542236328,10.300000190734863,10.199999809265137,10.220000267028809,10.220000267028809,2583100
2020-09-28,10.300000190734863,10.300000190734863,10.220000267028809,10.220000267028809,10.220000267028809,365900
2020-09-29,10.220000267028809,10.300000190734863,10.220000267028809,10.229999542236328,10.229999542236328,199100
2020-09-30,10.289999961853027,10.390000343322754,10.25,10.3100004196167,10.3100004196167,1726700
2020-10-01,10.25,10.399999618530273,10.25,10.319999694824219,10.319999694824219,3967200
2020-10-02,10.25,10.289999961853027,10.229999542236328,10.270000457763672,10.270000457763672,2588600
2020-10-05,10.300000190734863,10.319999694824219,10.220000267028809,10.229999542236328,10.229999542236328,309600
2020-10-06,10.260000228881836,10.270000457763672,10.210000038146973,10.229999542236328,10.229999542236328,997800
2020-10-07,10.239999771118164,10.260000228881836,10.229999542236328,10.25,10.25,870600
2020-10-08,10.25,10.300000190734863,10.220000267028809,10.239999771118164,10.239999771118164,4188700
2020-10-09,10.239999771118164,10.25,10.1899995803833,10.210000038146973,10.210000038146973,1039700
2020-10-12,10.149999618530273,10.270000457763672,10.149999618530273,10.229999542236328,10.229999542236328,885000
2020-10-13,10.199999809265137,10.239999771118164,10.109999656677246,10.199999809265137,10.199999809265137,113900
2020-10-14,10.739999771118164,12.25,10.380000114440918,10.600000381469727,10.600000381469727,6835000
2020-10-15,10.630000114440918,11.369999885559082,10.399999618530273,11.0,11.0,1996300
2020-10-16,11.220000267028809,11.739999771118164,11.006999969482422,11.369999885559082,11.369999885559082,973100
2020-10-19,11.5,13.0,11.5,12.149999618530273,12.149999618530273,1824200
2020-10-20,12.010000228881836,12.289999961853027,11.699999809265137,12.020000457763672,12.020000457763672,1297300
2020-10-21,12.100000381469727,12.199999809265137,11.800000190734863,11.859999656677246,11.859999656677246,312400
2020-10-22,12.010000228881836,12.010000228881836,11.210000038146973,11.300000190734863,11.300000190734863,375300
2020-10-23,11.40999984741211,11.40999984741211,10.859999656677246,11.079999923706055,11.079999923706055,1135400
2020-10-26,10.789999961853027,11.3100004196167,10.770000457763672,10.920000076293945,10.920000076293945,339600
2020-10-27,11.170000076293945,11.312999725341797,10.989999771118164,11.140000343322754,11.140000343322754,550600
2020-10-28,10.899999618530273,11.199999809265137,10.5,10.829999923706055,10.829999923706055,530500
2020-10-29,10.850000381469727,11.140000343322754,10.729999542236328,11.069999694824219,11.069999694824219,650700
2020-10-30,11.069999694824219,11.149999618530273,10.651000022888184,10.970000267028809,10.970000267028809,567000
2020-11-02,10.960000038146973,11.34000015258789,10.640000343322754,10.869999885559082,10.869999885559082,142000
2020-11-03,10.880000114440918,10.989999771118164,10.65999984741211,10.84000015258789,10.84000015258789,203500
2020-11-04,10.859999656677246,11.279999732971191,10.800000190734863,11.140000343322754,11.140000343322754,352100
2020-11-05,11.100000381469727,11.199999809265137,10.869999885559082,11.180000305175781,11.180000305175781,951400
2020-11-06,11.9399995803833,11.9399995803833,11.0,11.510000228881836,11.510000228881836,815000
2020-11-09,10.739999771118164,11.65999984741211,10.600000381469727,10.989999771118164,10.989999771118164,405500
2020-11-10,10.890000343322754,11.354999542236328,10.520000457763672,10.649999618530273,10.649999618530273,925200
2020-11-11,10.75,10.899999618530273,10.579999923706055,10.670000076293945,10.670000076293945,108100
2020-11-12,10.729999542236328,10.850000381469727,10.59000015258789,10.6899995803833,10.6899995803833,71500
2020-11-13,10.699999809265137,10.734999656677246,10.5,10.630000114440918,10.630000114440918,223100
2020-11-16,10.789999961853027,10.90999984741211,10.489999771118164,10.520000457763672,10.520000457763672,153800
2020-11-17,10.619999885559082,10.800000190734863,10.470999717712402,10.5,10.5,161600
2020-11-18,10.380000114440918,10.949999809265137,10.380000114440918,10.59000015258789,10.59000015258789,313600
2020-11-19,10.600000381469727,11.0,10.449999809265137,10.520000457763672,10.520000457763672,596100
2020-11-20,10.430000305175781,11.0,10.40999984741211,10.960000038146973,10.960000038146973,741600
2020-11-23,10.8100004196167,11.319999694824219,10.579999923706055,10.859999656677246,10.859999656677246,4046300
2020-11-24,10.779999732971191,11.289999961853027,10.614999771118164,10.760000228881836,10.760000228881836,296300
2020-11-25,10.75,11.149999618530273,10.699999809265137,10.800000190734863,10.800000190734863,355300
2020-11-27,10.800000190734863,11.069999694824219,10.800000190734863,10.970000267028809,10.970000267028809,157500
2020-11-30,11.029999732971191,11.140000343322754,10.789999961853027,11.039999961853027,11.039999961853027,804600
2020-12-01,11.170000076293945,11.220000267028809,10.760000228881836,10.949999809265137,10.949999809265137,739100
2020-12-02,10.90999984741211,11.5,10.770000457763672,11.329999923706055,11.329999923706055,895700
2020-12-03,11.380000114440918,12.020000457763672,10.949999809265137,11.90999984741211,11.90999984741211,2228400
2020-12-04,11.949999809265137,12.59000015258789,11.859999656677246,12.520000457763672,12.520000457763672,3484100
2020-12-07,12.5,13.229999542236328,12.34000015258789,12.779999732971191,12.779999732971191,1689400
2020-12-08,12.75,13.210000038146973,12.4399995803833,12.869999885559082,12.869999885559082,1333400
2020-12-09,12.890000343322754,13.180000305175781,12.699999809265137,12.829999923706055,12.829999923706055,749300
2020-12-10,12.760000228881836,13.289999961853027,12.619999885559082,12.90999984741211,12.90999984741211,900900
2020-12-11,12.899999618530273,13.119999885559082,12.520000457763672,12.710000038146973,12.710000038146973,653300
2020-12-14,12.779999732971191,13.09000015258789,12.5600004196167,12.640000343322754,12.640000343322754,1042900
2020-12-15,12.75,13.539999961853027,12.699999809265137,13.449999809265137,13.449999809265137,1126500
2020-12-16,13.470000267028809,13.829999923706055,13.260000228881836,13.430000305175781,13.430000305175781,1542000
2020-12-17,13.5,14.4350004196167,13.369999885559082,13.5,13.5,1988000
2020-12-18,13.5,13.880000114440918,13.319999694824219,13.369999885559082,13.369999885559082,5135300
2020-12-21,13.289999961853027,13.928000450134277,13.289999961853027,13.729999542236328,13.729999542236328,1368700
2020-12-22,13.710000038146973,14.130000114440918,13.569999694824219,13.729999542236328,13.729999542236328,739200
2020-12-23,13.75,14.149999618530273,13.725000381469727,14.0,14.0,630700
2020-12-24,14.0,14.539999961853027,14.0,14.369999885559082,14.369999885559082,225600
2020-12-28,14.59000015258789,15.0,14.050000190734863,14.210000038146973,14.210000038146973,494000
2020-12-29,14.220000267028809,14.600000381469727,13.579999923706055,13.770000457763672,13.770000457763672,494700
2020-12-30,13.770000457763672,14.1899995803833,13.770000457763672,13.850000381469727,13.850000381469727,194200
