Date,Open,High,Low,Close,Adj Close,Volume
2019-04-02,5.5,5.889999866485596,5.099999904632568,5.139999866485596,5.139999866485596,736300
2019-04-03,5.340000152587891,7.849999904632568,5.199999809265137,7.179999828338623,7.179999828338623,1811600
2019-04-04,7.25,7.5,5.849999904632568,5.880000114440918,5.880000114440918,682800
2019-04-05,5.989999771118164,6.869999885559082,5.989999771118164,6.179999828338623,6.179999828338623,508900
2019-04-08,6.360000133514404,6.800000190734863,6.150000095367432,6.389999866485596,6.389999866485596,298100
2019-04-09,6.199999809265137,6.75,6.199999809265137,6.380000114440918,6.380000114440918,144400
2019-04-10,6.400000095367432,6.456999778747559,5.679999828338623,5.710000038146973,5.710000038146973,225800
2019-04-11,5.699999809265137,6.0,5.550000190734863,5.610000133514404,5.610000133514404,141200
2019-04-12,5.869999885559082,6.0,5.440000057220459,5.71999979019165,5.71999979019165,270000
2019-04-15,5.519999980926514,5.71999979019165,5.400000095367432,5.400000095367432,5.400000095367432,96600
2019-04-16,5.400000095367432,5.609000205993652,4.28000020980835,4.940000057220459,4.940000057220459,269600
2019-04-17,4.96999979019165,5.199999809265137,4.650000095367432,4.849999904632568,4.849999904632568,211900
2019-04-18,4.809999942779541,5.5,4.743000030517578,5.289999961853027,5.289999961853027,246100
2019-04-22,5.070000171661377,5.5,5.070000171661377,5.170000076293945,5.170000076293945,95100
2019-04-23,5.179999828338623,5.46999979019165,5.110000133514404,5.190000057220459,5.190000057220459,175500
2019-04-24,5.170000076293945,5.372000217437744,5.0,5.130000114440918,5.130000114440918,81300
2019-04-25,5.289999961853027,5.289999961853027,4.670000076293945,4.829999923706055,4.829999923706055,101700
2019-04-26,4.829999923706055,4.900000095367432,4.599999904632568,4.760000228881836,4.760000228881836,100300
2019-04-29,4.769999980926514,4.800000190734863,4.610000133514404,4.744999885559082,4.744999885559082,68100
2019-04-30,4.690000057220459,4.900000095367432,4.599999904632568,4.849999904632568,4.849999904632568,80800
2019-05-01,4.840000152587891,4.999000072479248,4.650000095367432,4.840000152587891,4.840000152587891,32700
2019-05-02,4.889999866485596,5.099999904632568,4.699999809265137,5.070000171661377,5.070000171661377,30800
2019-05-03,4.888999938964844,5.159999847412109,4.849999904632568,5.159999847412109,5.159999847412109,28600
2019-05-06,4.929999828338623,5.139999866485596,4.760000228881836,5.03000020980835,5.03000020980835,40200
2019-05-07,4.989999771118164,5.579999923706055,4.989999771118164,5.380000114440918,5.380000114440918,130500
2019-05-08,5.380000114440918,5.445000171661377,5.159999847412109,5.28000020980835,5.28000020980835,55200
2019-05-09,5.340000152587891,5.340000152587891,4.900000095367432,5.09499979019165,5.09499979019165,76100
2019-05-10,5.119999885559082,5.119999885559082,4.809999942779541,5.0,5.0,41900
2019-05-13,5.050000190734863,5.093999862670898,4.699999809265137,4.809999942779541,4.809999942779541,17300
2019-05-14,4.900000095367432,5.0,4.699999809265137,4.909999847412109,4.909999847412109,11000
2019-05-15,5.0,5.0,4.809999942779541,4.880000114440918,4.880000114440918,10200
2019-05-16,5.011000156402588,5.079999923706055,4.650000095367432,4.75,4.75,14400
2019-05-17,4.699999809265137,4.78000020980835,4.340000152587891,4.380000114440918,4.380000114440918,48800
2019-05-20,4.420000076293945,4.420000076293945,3.069999933242798,3.7799999713897705,3.7799999713897705,186200
2019-05-21,3.7200000286102295,3.930000066757202,3.5,3.799999952316284,3.799999952316284,42100
2019-05-22,3.7899999618530273,4.329999923706055,3.7100000381469727,4.320000171661377,4.320000171661377,42600
2019-05-23,4.170000076293945,4.260000228881836,3.9000000953674316,3.9000000953674316,3.9000000953674316,10100
2019-05-24,4.0,4.119999885559082,3.871000051498413,3.871000051498413,3.871000051498413,7700
2019-05-28,3.9000000953674316,4.110000133514404,3.7200000286102295,3.7300000190734863,3.7300000190734863,19700
2019-05-29,3.930000066757202,4.170000076293945,3.7300000190734863,4.110000133514404,4.110000133514404,40500
2019-05-30,4.070000171661377,4.190000057220459,3.940000057220459,4.0,4.0,10900
2019-05-31,4.099999904632568,4.099999904632568,3.6500000953674316,3.809999942779541,3.809999942779541,22500
2019-06-03,3.950000047683716,4.039999961853027,3.630000114440918,3.630000114440918,3.630000114440918,4900
2019-06-04,3.640000104904175,3.9700000286102295,3.640000104904175,3.9100000858306885,3.9100000858306885,9300
2019-06-05,3.9100000858306885,4.090000152587891,3.869999885559082,4.0,4.0,11000
2019-06-06,4.070000171661377,4.079999923706055,3.700000047683716,3.9100000858306885,3.9100000858306885,12300
2019-06-07,3.7300000190734863,3.950000047683716,3.430000066757202,3.9000000953674316,3.9000000953674316,42700
2019-06-10,3.9100000858306885,3.9100000858306885,3.630000114440918,3.9000000953674316,3.9000000953674316,7500
2019-06-11,3.9000000953674316,3.950000047683716,3.700000047683716,3.8499999046325684,3.8499999046325684,6100
2019-06-12,3.7100000381469727,3.890000104904175,3.5999999046325684,3.7100000381469727,3.7100000381469727,8600
2019-06-13,3.809999942779541,3.8499999046325684,3.509999990463257,3.799999952316284,3.799999952316284,6000
2019-06-14,3.609999895095825,3.890000104904175,3.3959999084472656,3.549999952316284,3.549999952316284,5000
2019-06-17,3.630000114440918,3.739000082015991,3.515000104904175,3.630000114440918,3.630000114440918,4900
2019-06-18,3.628999948501587,3.628999948501587,3.25,3.5299999713897705,3.5299999713897705,25400
2019-06-19,3.5269999504089355,3.690000057220459,3.450000047683716,3.609999895095825,3.609999895095825,4700
2019-06-20,3.5980000495910645,3.5999999046325684,3.450000047683716,3.549999952316284,3.549999952316284,6400
2019-06-21,3.740000009536743,3.7950000762939453,3.200000047683716,3.2100000381469727,3.2100000381469727,17000
2019-06-24,3.2980000972747803,3.486999988555908,3.1500000953674316,3.3299999237060547,3.3299999237060547,24100
2019-06-25,3.5199999809265137,3.640000104904175,3.3499999046325684,3.490000009536743,3.490000009536743,10600
2019-06-26,3.5,4.5,3.5,3.8399999141693115,3.8399999141693115,264700
2019-06-27,3.9200000762939453,3.9200000762939453,3.4000000953674316,3.7899999618530273,3.7899999618530273,26200
2019-06-28,3.75,3.86899995803833,3.4000000953674316,3.5799999237060547,3.5799999237060547,26500
2019-07-01,3.6600000858306885,3.700000047683716,3.440000057220459,3.700000047683716,3.700000047683716,14500
2019-07-02,3.6700000762939453,3.7820000648498535,3.565000057220459,3.740000009536743,3.740000009536743,6100
2019-07-03,3.690000057220459,3.799999952316284,3.509999990463257,3.509999990463257,3.509999990463257,5100
2019-07-05,3.5399999618530273,3.6600000858306885,3.5199999809265137,3.640000104904175,3.640000104904175,23000
2019-07-08,3.7200000286102295,3.75,3.558000087738037,3.7100000381469727,3.7100000381469727,12100
2019-07-09,3.7699999809265137,3.7799999713897705,3.5299999713897705,3.6700000762939453,3.6700000762939453,13400
2019-07-10,3.75,3.8989999294281006,3.5999999046325684,3.700000047683716,3.700000047683716,9600
2019-07-11,3.859999895095825,4.150000095367432,3.690000057220459,3.700000047683716,3.700000047683716,21500
2019-07-12,3.690000057220459,3.9000000953674316,3.690000057220459,3.8499999046325684,3.8499999046325684,14000
2019-07-15,3.859999895095825,3.8980000019073486,3.5399999618530273,3.549999952316284,3.549999952316284,10300
2019-07-16,3.430000066757202,3.5480000972747803,3.200000047683716,3.2899999618530273,3.2899999618530273,45500
2019-07-17,3.440000057220459,3.4790000915527344,3.2100000381469727,3.2300000190734863,3.2300000190734863,22700
2019-07-18,3.4000000953674316,3.4000000953674316,3.200000047683716,3.200000047683716,3.200000047683716,12500
2019-07-19,3.299999952316284,3.6500000953674316,3.299999952316284,3.619999885559082,3.619999885559082,47900
2019-07-22,3.5199999809265137,3.799999952316284,3.5199999809265137,3.690000057220459,3.690000057220459,12400
2019-07-23,3.5299999713897705,3.700000047683716,3.5199999809265137,3.5399999618530273,3.5399999618530273,24500
2019-07-24,3.690000057220459,3.700000047683716,3.5160000324249268,3.5999999046325684,3.5999999046325684,11700
2019-07-25,3.680000066757202,3.680000066757202,3.299999952316284,3.3420000076293945,3.3420000076293945,29700
2019-07-26,3.3499999046325684,3.559999942779541,3.3499999046325684,3.434000015258789,3.434000015258789,28400
2019-07-29,3.359999895095825,3.5399999618530273,3.0999999046325684,3.0999999046325684,3.0999999046325684,30500
2019-07-30,3.299999952316284,3.359999895095825,3.200000047683716,3.3480000495910645,3.3480000495910645,14100
2019-07-31,3.3489999771118164,3.549999952316284,3.319999933242798,3.4800000190734863,3.4800000190734863,15700
2019-08-01,3.490000009536743,3.569999933242798,3.299999952316284,3.4000000953674316,3.4000000953674316,15000
2019-08-02,3.4000000953674316,3.5,3.309999942779541,3.5,3.5,15500
2019-08-05,3.490000009536743,3.5,3.200000047683716,3.5,3.5,12600
2019-08-06,3.4800000190734863,3.680000066757202,3.25,3.6500000953674316,3.6500000953674316,22000
2019-08-07,3.5999999046325684,3.700000047683716,3.3499999046325684,3.380000114440918,3.380000114440918,17500
2019-08-08,3.4600000381469727,3.5399999618530273,3.4100000858306885,3.4600000381469727,3.4600000381469727,15000
2019-08-09,3.486999988555908,3.486999988555908,3.380000114440918,3.390000104904175,3.390000104904175,12900
2019-08-12,3.4000000953674316,3.4800000190734863,3.3499999046325684,3.3499999046325684,3.3499999046325684,15800
2019-08-13,3.430000066757202,3.4800000190734863,3.2699999809265137,3.299999952316284,3.299999952316284,12500
2019-08-14,3.299999952316284,3.450000047683716,2.875,3.380000114440918,3.380000114440918,16800
2019-08-15,3.3499999046325684,3.4000000953674316,3.135999917984009,3.1700000762939453,3.1700000762939453,9200
2019-08-16,3.2799999713897705,3.3399999141693115,3.190000057220459,3.319999933242798,3.319999933242798,11200
2019-08-19,3.319999933242798,3.319999933242798,3.25,3.299999952316284,3.299999952316284,8200
2019-08-20,3.299999952316284,3.3299999237060547,3.140000104904175,3.3299999237060547,3.3299999237060547,16200
2019-08-21,3.299999952316284,3.3299999237060547,3.1559998989105225,3.299999952316284,3.299999952316284,7000
2019-08-22,3.2300000190734863,3.2899999618530273,3.2100000381469727,3.2899999618530273,3.2899999618530273,12200
2019-08-23,3.25,3.299999952316284,3.200000047683716,3.25,3.25,15300
2019-08-26,3.25,3.2899999618530273,2.924999952316284,2.924999952316284,2.924999952316284,15200
2019-08-27,3.2100000381469727,3.299999952316284,3.200000047683716,3.259999990463257,3.259999990463257,22600
2019-08-28,3.180000066757202,3.299999952316284,3.180000066757202,3.2799999713897705,3.2799999713897705,27000
2019-08-29,3.2799999713897705,3.569999933242798,3.2699999809265137,3.380000114440918,3.380000114440918,36800
2019-08-30,3.309999942779541,3.4100000858306885,3.309999942779541,3.380000114440918,3.380000114440918,14600
2019-09-03,3.4000000953674316,3.803999900817871,3.359999895095825,3.7170000076293945,3.7170000076293945,35400
2019-09-04,3.640000104904175,4.25,3.630000114440918,4.199999809265137,4.199999809265137,109900
2019-09-05,4.199999809265137,4.429999828338623,4.03000020980835,4.199999809265137,4.199999809265137,51800
2019-09-06,4.159999847412109,4.159999847412109,3.9100000858306885,4.059999942779541,4.059999942779541,11800
2019-09-09,4.070000171661377,4.829999923706055,4.039999961853027,4.690000057220459,4.690000057220459,125300
2019-09-10,4.690000057220459,4.89900016784668,4.599999904632568,4.650000095367432,4.650000095367432,34700
2019-09-11,4.559999942779541,4.559999942779541,4.260000228881836,4.445000171661377,4.445000171661377,15200
2019-09-12,4.461999893188477,4.497000217437744,4.281000137329102,4.426000118255615,4.426000118255615,12000
2019-09-13,4.429999828338623,4.599999904632568,4.300000190734863,4.550000190734863,4.550000190734863,13100
2019-09-16,4.420000076293945,4.578000068664551,4.300000190734863,4.449999809265137,4.449999809265137,12300
2019-09-17,4.447000026702881,4.447000026702881,3.6600000858306885,3.6600000858306885,3.6600000858306885,66400
2019-09-18,3.700000047683716,3.8889999389648438,3.5999999046325684,3.7699999809265137,3.7699999809265137,16500
2019-09-19,3.740000009536743,3.890000104904175,3.25,3.7100000381469727,3.7100000381469727,41500
2019-09-20,3.569999933242798,3.7699999809265137,3.5199999809265137,3.7300000190734863,3.7300000190734863,6300
2019-09-23,3.5769999027252197,3.890000104904175,3.5769999027252197,3.619999885559082,3.619999885559082,29400
2019-09-24,3.809999942779541,3.8469998836517334,3.619999885559082,3.619999885559082,3.619999885559082,16600
2019-09-25,3.6500000953674316,3.7790000438690186,3.5299999713897705,3.700000047683716,3.700000047683716,7500
2019-09-26,3.7300000190734863,3.9700000286102295,3.4040000438690186,3.4100000858306885,3.4100000858306885,16100
2019-09-27,3.430000066757202,3.5399999618530273,3.0269999504089355,3.132999897003174,3.132999897003174,58800
2019-09-30,3.0299999713897705,3.3369998931884766,3.0299999713897705,3.2799999713897705,3.2799999713897705,5900
2019-10-01,3.303999900817871,3.3469998836517334,3.0899999141693115,3.2699999809265137,3.2699999809265137,2100
2019-10-02,3.450000047683716,3.490000009536743,3.3540000915527344,3.4800000190734863,3.4800000190734863,3200
2019-10-03,3.4260001182556152,3.700000047683716,3.3299999237060547,3.509999990463257,3.509999990463257,11700
2019-10-04,3.549999952316284,3.697000026702881,3.3399999141693115,3.575000047683716,3.575000047683716,13900
2019-10-07,3.609999895095825,3.6700000762939453,3.4200000762939453,3.450000047683716,3.450000047683716,5600
2019-10-08,3.496999979019165,3.5299999713897705,3.450000047683716,3.5,3.5,3500
2019-10-09,3.5,3.630000114440918,3.5,3.627000093460083,3.627000093460083,1900
2019-10-10,3.569999933242798,3.640000104904175,3.240000009536743,3.25,3.25,8100
2019-10-11,3.3299999237060547,3.549999952316284,3.319999933242798,3.549999952316284,3.549999952316284,7300
2019-10-14,3.549999952316284,3.6489999294281006,3.5399999618530273,3.6489999294281006,3.6489999294281006,2000
2019-10-15,3.630000114440918,3.6500000953674316,3.318000078201294,3.4100000858306885,3.4100000858306885,6000
2019-10-16,3.3499999046325684,3.700000047683716,3.3499999046325684,3.5899999141693115,3.5899999141693115,8300
2019-10-17,3.680000066757202,3.680000066757202,3.5910000801086426,3.6600000858306885,3.6600000858306885,3000
2019-10-18,3.680000066757202,3.8289999961853027,3.619999885559082,3.7750000953674316,3.7750000953674316,6900
2019-10-21,3.799999952316284,3.799999952316284,3.7019999027252197,3.7760000228881836,3.7760000228881836,9200
2019-10-22,3.7119998931884766,3.8299999237060547,3.700000047683716,3.700000047683716,3.700000047683716,12200
2019-10-23,3.6700000762939453,3.8299999237060547,3.6500000953674316,3.700000047683716,3.700000047683716,10600
2019-10-24,3.7799999713897705,3.8299999237060547,3.259999990463257,3.6500000953674316,3.6500000953674316,9100
2019-10-25,3.609999895095825,4.150000095367432,3.5929999351501465,3.7839999198913574,3.7839999198913574,111300
2019-10-28,5.260000228881836,5.449999809265137,3.299999952316284,3.4600000381469727,3.4600000381469727,2249500
2019-10-29,3.380000114440918,3.490000009536743,3.25,3.3499999046325684,3.3499999046325684,92400
2019-10-30,3.3499999046325684,3.4700000286102295,3.2699999809265137,3.4600000381469727,3.4600000381469727,33000
2019-10-31,3.490000009536743,3.700000047683716,3.490000009536743,3.549999952316284,3.549999952316284,51600
2019-11-01,3.4000000953674316,3.640000104904175,3.3610000610351562,3.5820000171661377,3.5820000171661377,24200
2019-11-04,3.619999885559082,3.630000114440918,3.4040000438690186,3.430000066757202,3.430000066757202,38000
2019-11-05,3.4100000858306885,3.569999933242798,3.2899999618530273,3.4200000762939453,3.4200000762939453,29400
2019-11-06,3.309999942779541,3.390000104904175,3.2750000953674316,3.369999885559082,3.369999885559082,9000
2019-11-07,3.375,3.4200000762939453,3.0199999809265137,3.1700000762939453,3.1700000762939453,56300
2019-11-08,3.119999885559082,3.200000047683716,3.0999999046325684,3.1700000762939453,3.1700000762939453,23000
2019-11-11,3.0899999141693115,3.190000057220459,3.0799999237060547,3.180000066757202,3.180000066757202,8000
2019-11-12,3.0299999713897705,3.1740000247955322,3.0299999713897705,3.130000114440918,3.130000114440918,26400
2019-11-13,3.1500000953674316,3.1700000762939453,3.0799999237060547,3.1700000762939453,3.1700000762939453,5200
2019-11-14,3.0799999237060547,3.1700000762939453,3.0,3.0,3.0,19500
2019-11-15,2.9600000381469727,3.0999999046325684,2.950000047683716,2.990000009536743,2.990000009536743,21100
2019-11-18,2.950000047683716,3.0,2.7909998893737793,2.799999952316284,2.799999952316284,14400
2019-11-19,2.8369998931884766,2.8499999046325684,2.75,2.75,2.75,14800
2019-11-20,2.799999952316284,2.8399999141693115,2.630000114440918,2.740000009536743,2.740000009536743,17500
2019-11-21,2.7799999713897705,3.1500000953674316,2.75,2.869999885559082,2.869999885559082,10000
2019-11-22,2.7899999618530273,3.0789999961853027,2.7899999618530273,2.819999933242798,2.819999933242798,42200
2019-11-25,3.046999931335449,3.140000104904175,2.9100000858306885,2.9100000858306885,2.9100000858306885,17500
2019-11-26,2.9800000190734863,3.119999885559082,2.950000047683716,3.059999942779541,3.059999942779541,10700
2019-11-27,3.1679999828338623,3.1700000762939453,3.0,3.049999952316284,3.049999952316284,10000
2019-11-29,3.049999952316284,3.049999952316284,2.984999895095825,2.984999895095825,2.984999895095825,1200
2019-12-02,3.130000114440918,3.135999917984009,2.9100000858306885,3.0199999809265137,3.0199999809265137,12300
2019-12-03,2.9800000190734863,3.0399999618530273,2.9200000762939453,3.0299999713897705,3.0299999713897705,9400
2019-12-04,2.9600000381469727,3.177999973297119,2.930000066757202,3.009999990463257,3.009999990463257,8000
2019-12-05,3.055999994277954,3.0899999141693115,2.880000114440918,2.9619998931884766,2.9619998931884766,6900
2019-12-06,2.884000062942505,3.140000104904175,2.880000114440918,3.0,3.0,9100
2019-12-09,2.9100000858306885,3.109999895095825,2.859999895095825,2.930000066757202,2.930000066757202,6900
2019-12-10,3.11899995803833,3.1500000953674316,2.940000057220459,2.950000047683716,2.950000047683716,8800
2019-12-11,3.0799999237060547,3.119999885559082,2.9100000858306885,3.0,3.0,14400
2019-12-12,2.990000009536743,3.0999999046325684,2.9600000381469727,3.0299999713897705,3.0299999713897705,11200
2019-12-13,3.0999999046325684,3.119999885559082,2.9600000381469727,3.049999952316284,3.049999952316284,10700
2019-12-16,3.1070001125335693,3.119999885559082,2.944000005722046,3.0899999141693115,3.0899999141693115,12000
2019-12-17,3.0999999046325684,3.1470000743865967,2.950000047683716,2.9600000381469727,2.9600000381469727,17500
2019-12-18,2.950000047683716,3.0799999237060547,2.950000047683716,3.0799999237060547,3.0799999237060547,11600
2019-12-19,3.069999933242798,3.140000104904175,2.950000047683716,3.0899999141693115,3.0899999141693115,21100
2019-12-20,2.9639999866485596,3.140000104904175,2.950000047683716,2.950000047683716,2.950000047683716,29500
2019-12-23,3.015000104904175,3.0250000953674316,2.8499999046325684,2.859999895095825,2.859999895095825,7600
2019-12-24,2.859999895095825,3.0,2.6500000953674316,2.940999984741211,2.940999984741211,16900
2019-12-26,2.819999933242798,2.8499999046325684,2.7200000286102295,2.8499999046325684,2.8499999046325684,9600
2019-12-27,2.8299999237060547,2.869999885559082,2.7200000286102295,2.799999952316284,2.799999952316284,21400
2019-12-30,2.75,2.8399999141693115,2.6500000953674316,2.7320001125335693,2.7320001125335693,14100
2019-12-31,2.7899999618530273,2.799999952316284,2.619999885559082,2.700000047683716,2.700000047683716,12400
2020-01-02,2.6600000858306885,2.799999952316284,2.619999885559082,2.7100000381469727,2.7100000381469727,8200
2020-01-03,2.799999952316284,2.8399999141693115,2.619999885559082,2.8399999141693115,2.8399999141693115,18200
2020-01-06,2.986999988555908,3.119999885559082,2.950000047683716,3.0,3.0,38500
2020-01-07,2.950000047683716,3.4200000762939453,2.9200000762939453,3.4200000762939453,3.4200000762939453,25200
2020-01-08,3.369999885559082,3.6500000953674316,3.049999952316284,3.4000000953674316,3.4000000953674316,46000
2020-01-09,3.259999990463257,3.5399999618530273,3.240000009536743,3.5399999618530273,3.5399999618530273,22300
2020-01-10,3.549999952316284,3.7300000190734863,3.318000078201294,3.690000057220459,3.690000057220459,21700
2020-01-13,3.880000114440918,4.0,3.509999990463257,3.7679998874664307,3.7679998874664307,20200
2020-01-14,3.796999931335449,3.796999931335449,3.569999933242798,3.700000047683716,3.700000047683716,2400
2020-01-15,3.7100000381469727,3.799999952316284,3.630000114440918,3.7699999809265137,3.7699999809265137,40700
2020-01-16,3.7699999809265137,3.799999952316284,3.7100000381469727,3.7899999618530273,3.7899999618530273,25700
2020-01-17,3.8469998836517334,3.8499999046325684,3.6440000534057617,3.796999931335449,3.796999931335449,13300
2020-01-21,3.700000047683716,3.9600000381469727,3.700000047683716,3.799999952316284,3.799999952316284,14500
2020-01-22,3.9000000953674316,3.9000000953674316,3.5380001068115234,3.819999933242798,3.819999933242798,7900
2020-01-23,3.819999933242798,3.8499999046325684,3.559999942779541,3.7899999618530273,3.7899999618530273,15800
2020-01-24,3.632999897003174,3.9100000858306885,3.5999999046325684,3.740000009536743,3.740000009536743,15900
2020-01-27,3.5799999237060547,3.819999933242798,3.5,3.799999952316284,3.799999952316284,13200
2020-01-28,3.6700000762939453,4.0,3.630000114440918,3.859999895095825,3.859999895095825,13400
2020-01-29,3.680000066757202,3.7899999618530273,3.5999999046325684,3.759999990463257,3.759999990463257,11300
2020-01-30,3.6040000915527344,3.819999933242798,3.5999999046325684,3.609999895095825,3.609999895095825,4900
2020-01-31,3.609999895095825,3.740000009536743,3.3499999046325684,3.3499999046325684,3.3499999046325684,16900
2020-02-03,3.3299999237060547,3.5199999809265137,3.25,3.2799999713897705,3.2799999713897705,17700
2020-02-04,3.2200000286102295,3.3469998836517334,3.180999994277954,3.2230000495910645,3.2230000495910645,13400
2020-02-05,3.4200000762939453,3.5250000953674316,3.069999933242798,3.3299999237060547,3.3299999237060547,25100
2020-02-06,3.1600000858306885,3.380000114440918,3.109999895095825,3.109999895095825,3.109999895095825,19900
2020-02-07,3.299999952316284,3.440000057220459,3.1700000762939453,3.319999933242798,3.319999933242798,6000
2020-02-10,3.4000000953674316,3.4100000858306885,2.9100000858306885,2.9100000858306885,2.9100000858306885,21100
2020-02-11,3.0799999237060547,3.200000047683716,2.950000047683716,3.0,3.0,14100
2020-02-12,2.9600000381469727,3.174999952316284,2.930000066757202,2.930000066757202,2.930000066757202,4800
2020-02-13,3.140000104904175,3.140000104904175,3.0269999504089355,3.0899999141693115,3.0899999141693115,9300
2020-02-14,3.0999999046325684,3.1500000953674316,3.009999990463257,3.1500000953674316,3.1500000953674316,10700
2020-02-18,3.119999885559082,3.2100000381469727,3.0199999809265137,3.109999895095825,3.109999895095825,9200
2020-02-19,3.130000114440918,3.2100000381469727,2.930000066757202,3.1080000400543213,3.1080000400543213,24800
2020-02-20,3.130000114440918,3.2100000381469727,3.049999952316284,3.1500000953674316,3.1500000953674316,16200
2020-02-21,3.130000114440918,3.1500000953674316,2.9600000381469727,3.130000114440918,3.130000114440918,17900
2020-02-24,3.0999999046325684,3.1050000190734863,2.9100000858306885,3.0929999351501465,3.0929999351501465,7200
2020-02-25,3.0199999809265137,3.128000020980835,2.9100000858306885,3.0399999618530273,3.0399999618530273,7800
2020-02-26,2.9600000381469727,3.0899999141693115,2.9600000381469727,3.015000104904175,3.015000104904175,5100
2020-02-27,3.069999933242798,3.069999933242798,2.859999895095825,2.859999895095825,2.859999895095825,11200
2020-02-28,3.009000062942505,3.009000062942505,2.7799999713897705,2.7799999713897705,2.7799999713897705,5500
2020-03-02,2.821000099182129,2.871000051498413,2.5999999046325684,2.5999999046325684,2.5999999046325684,3600
2020-03-03,3.0,3.0,2.6500000953674316,2.6600000858306885,2.6600000858306885,4500
2020-03-04,2.8910000324249268,2.8910000324249268,2.880000114440918,2.880000114440918,2.880000114440918,300
2020-03-05,2.880000114440918,2.880000114440918,2.6700000762939453,2.690000057220459,2.690000057220459,3600
2020-03-06,2.7100000381469727,2.8399999141693115,2.6700000762939453,2.7070000171661377,2.7070000171661377,5000
2020-03-09,2.888000011444092,2.8919999599456787,2.6559998989105225,2.6559998989105225,2.6559998989105225,4900
2020-03-10,2.6530001163482666,2.7699999809265137,2.5899999141693115,2.686000108718872,2.686000108718872,8000
2020-03-11,2.621999979019165,2.759999990463257,2.569999933242798,2.7209999561309814,2.7209999561309814,4200
2020-03-12,2.619999885559082,2.700000047683716,2.299999952316284,2.3310000896453857,2.3310000896453857,3900
2020-03-13,2.5910000801086426,2.700000047683716,2.36299991607666,2.3889999389648438,2.3889999389648438,2000
2020-03-16,2.380000114440918,2.380000114440918,1.8300000429153442,2.2139999866485596,2.2139999866485596,4600
2020-03-17,2.0,2.2799999713897705,1.8980000019073486,2.2049999237060547,2.2049999237060547,8300
2020-03-18,1.840000033378601,2.2799999713897705,1.840000033378601,2.059999942779541,2.059999942779541,33500
2020-03-19,1.8459999561309814,2.2100000381469727,1.8459999561309814,2.109999895095825,2.109999895095825,21000
2020-03-20,2.0,2.200000047683716,2.0,2.140000104904175,2.140000104904175,6400
2020-03-23,1.8300000429153442,2.140000104904175,1.8300000429153442,2.069999933242798,2.069999933242798,31700
2020-03-24,2.119999885559082,2.434999942779541,2.119999885559082,2.2699999809265137,2.2699999809265137,11600
2020-03-25,2.3359999656677246,2.5999999046325684,2.2899999618530273,2.3499999046325684,2.3499999046325684,20100
2020-03-26,2.453000068664551,2.559999942779541,2.299999952316284,2.549999952316284,2.549999952316284,13400
2020-03-27,2.559999942779541,2.559999942779541,2.200000047683716,2.4049999713897705,2.4049999713897705,21000
2020-03-30,2.5,2.5,2.197000026702881,2.3399999141693115,2.3399999141693115,36000
2020-03-31,2.4800000190734863,2.5,2.130000114440918,2.4800000190734863,2.4800000190734863,44000
2020-04-01,2.25,2.4000000953674316,2.2190001010894775,2.369999885559082,2.369999885559082,26100
2020-04-02,2.3499999046325684,2.5299999713897705,2.2799999713897705,2.3499999046325684,2.3499999046325684,24800
2020-04-03,2.38100004196167,2.4549999237060547,2.2219998836517334,2.440000057220459,2.440000057220459,33700
2020-04-06,2.569999933242798,2.5899999141693115,2.299999952316284,2.312999963760376,2.312999963760376,37100
2020-04-07,2.322999954223633,2.505000114440918,2.244999885559082,2.388000011444092,2.388000011444092,27600
2020-04-08,2.3529999256134033,2.5199999809265137,2.25,2.509999990463257,2.509999990463257,37100
2020-04-09,2.507999897003174,2.5999999046325684,2.3259999752044678,2.444999933242798,2.444999933242798,25500
2020-04-13,2.368000030517578,2.9000000953674316,2.3299999237060547,2.7070000171661377,2.7070000171661377,35300
2020-04-14,2.7809998989105225,2.9010000228881836,2.4700000286102295,2.6700000762939453,2.6700000762939453,21200
2020-04-15,2.7799999713897705,2.7799999713897705,2.4779999256134033,2.5399999618530273,2.5399999618530273,24800
2020-04-16,2.690000057220459,3.115000009536743,2.4760000705718994,2.880000114440918,2.880000114440918,42800
2020-04-17,2.931999921798706,2.940000057220459,2.700000047683716,2.75,2.75,13200
2020-04-20,2.569999933242798,2.759999990463257,2.450000047683716,2.6700000762939453,2.6700000762939453,46100
2020-04-21,2.7300000190734863,2.7300000190734863,2.6549999713897705,2.7200000286102295,2.7200000286102295,15400
2020-04-22,2.75,3.0,2.75,2.9000000953674316,2.9000000953674316,28400
2020-04-23,2.812999963760376,2.877000093460083,2.565000057220459,2.809999942779541,2.809999942779541,42900
2020-04-24,2.86899995803833,2.9800000190734863,2.630000114440918,2.7200000286102295,2.7200000286102295,25100
2020-04-27,2.640000104904175,2.880000114440918,2.549999952316284,2.700000047683716,2.700000047683716,37000
2020-04-28,2.384999990463257,2.940000057220459,2.384999990463257,2.890000104904175,2.890000104904175,68800
2020-04-29,2.9110000133514404,2.938999891281128,2.640000104904175,2.6500000953674316,2.6500000953674316,42300
2020-04-30,2.632999897003174,2.8450000286102295,2.5399999618530273,2.687999963760376,2.687999963760376,38200
2020-05-01,2.5999999046325684,2.8499999046325684,2.559999942779541,2.700000047683716,2.700000047683716,51600
2020-05-04,2.5999999046325684,2.6760001182556152,2.5199999809265137,2.5899999141693115,2.5899999141693115,46300
2020-05-05,2.6050000190734863,2.869999885559082,2.5269999504089355,2.799999952316284,2.799999952316284,47500
2020-05-06,2.799999952316284,2.859999895095825,2.609999895095825,2.809999942779541,2.809999942779541,47300
2020-05-07,2.75,2.868000030517578,2.609999895095825,2.7200000286102295,2.7200000286102295,65300
2020-05-08,2.6500000953674316,2.859999895095825,2.6500000953674316,2.749000072479248,2.749000072479248,39000
2020-05-11,2.6600000858306885,2.8499999046325684,2.6600000858306885,2.6700000762939453,2.6700000762939453,47800
2020-05-12,2.700000047683716,2.880000114440918,2.5399999618530273,2.5799999237060547,2.5799999237060547,54900
2020-05-13,2.569999933242798,2.6500000953674316,2.5369999408721924,2.5999999046325684,2.5999999046325684,29100
2020-05-14,2.5230000019073486,2.8299999237060547,2.5230000019073486,2.799999952316284,2.799999952316284,74200
2020-05-15,2.8299999237060547,2.8399999141693115,2.627000093460083,2.700000047683716,2.700000047683716,14900
2020-05-18,2.690000057220459,2.7300000190734863,2.5399999618530273,2.690000057220459,2.690000057220459,55700
2020-05-19,2.7100000381469727,2.9519999027252197,2.5850000381469727,2.869999885559082,2.869999885559082,80700
2020-05-20,2.799999952316284,2.9100000858306885,2.690000057220459,2.8410000801086426,2.8410000801086426,71900
2020-05-21,2.7899999618530273,2.8499999046325684,2.6489999294281006,2.674999952316284,2.674999952316284,42000
2020-05-22,2.619999885559082,2.9000000953674316,2.619999885559082,2.740000009536743,2.740000009536743,65500
2020-05-26,2.7899999618530273,2.7899999618530273,2.630000114440918,2.6500000953674316,2.6500000953674316,120800
2020-05-27,2.630000114440918,2.930000066757202,2.630000114440918,2.8299999237060547,2.8299999237060547,115800
2020-05-28,2.8499999046325684,2.9200000762939453,2.630000114440918,2.6700000762939453,2.6700000762939453,27000
2020-05-29,2.6700000762939453,2.6700000762939453,2.5299999713897705,2.5999999046325684,2.5999999046325684,79800
2020-06-01,2.5799999237060547,2.7049999237060547,2.5799999237060547,2.700000047683716,2.700000047683716,7600
2020-06-02,2.6600000858306885,2.759999990463257,2.6500000953674316,2.6700000762939453,2.6700000762939453,28400
2020-06-03,2.759999990463257,2.799999952316284,2.619999885559082,2.680000066757202,2.680000066757202,23800
2020-06-04,2.690000057220459,2.690000057220459,2.559999942779541,2.6500000953674316,2.6500000953674316,17000
2020-06-05,2.609999895095825,2.6700000762939453,2.5399999618530273,2.5799999237060547,2.5799999237060547,58600
2020-06-08,2.690000057220459,2.7799999713897705,2.549999952316284,2.7300000190734863,2.7300000190734863,55000
2020-06-09,2.6600000858306885,2.990000009536743,2.6600000858306885,2.9000000953674316,2.9000000953674316,85200
2020-06-10,2.930000066757202,2.930000066757202,2.6010000705718994,2.6600000858306885,2.6600000858306885,66400
2020-06-11,2.740000009536743,2.7899999618530273,2.569999933242798,2.640000104904175,2.640000104904175,43000
2020-06-12,2.690000057220459,2.7880001068115234,2.6700000762939453,2.6700000762939453,2.6700000762939453,51600
2020-06-15,2.5999999046325684,2.6500000953674316,2.569999933242798,2.5999999046325684,2.5999999046325684,20200
2020-06-16,2.6600000858306885,2.7799999713897705,2.4700000286102295,2.5299999713897705,2.5299999713897705,100300
2020-06-17,2.630000114440918,2.630000114440918,1.9800000190734863,2.140000104904175,2.140000104904175,117500
2020-06-18,2.1589999198913574,2.240000009536743,2.117000102996826,2.180000066757202,2.180000066757202,27900
2020-06-19,2.200000047683716,2.450000047683716,2.180000066757202,2.2699999809265137,2.2699999809265137,120200
2020-06-22,2.2899999618530273,2.372999906539917,2.109999895095825,2.25,2.25,83000
2020-06-23,2.2100000381469727,2.490000009536743,2.1489999294281006,2.2799999713897705,2.2799999713897705,94000
2020-06-24,2.2200000286102295,2.25,2.140000104904175,2.200000047683716,2.200000047683716,64400
2020-06-25,2.200000047683716,2.4700000286102295,2.200000047683716,2.309999942779541,2.309999942779541,87600
2020-06-26,2.2799999713897705,2.4000000953674316,2.200000047683716,2.2300000190734863,2.2300000190734863,58000
2020-06-29,2.1500000953674316,2.4600000381469727,2.1500000953674316,2.259999990463257,2.259999990463257,80600
2020-06-30,2.200000047683716,2.390000104904175,2.140000104904175,2.1440000534057617,2.1440000534057617,40500
2020-07-01,2.119999885559082,2.299999952316284,2.119999885559082,2.140000104904175,2.140000104904175,19200
2020-07-02,2.140000104904175,2.4800000190734863,2.069999933242798,2.359999895095825,2.359999895095825,168900
2020-07-06,2.369999885559082,2.390000104904175,2.2200000286102295,2.319999933242798,2.319999933242798,44700
2020-07-07,2.3399999141693115,2.369999885559082,2.1700000762939453,2.259999990463257,2.259999990463257,145800
2020-07-08,2.259999990463257,2.9800000190734863,2.259999990463257,2.8499999046325684,2.8499999046325684,601400
2020-07-09,2.6600000858306885,2.75,2.440000057220459,2.509999990463257,2.509999990463257,176400
2020-07-10,2.490000009536743,2.8399999141693115,2.490000009536743,2.5799999237060547,2.5799999237060547,39600
2020-07-13,2.690000057220459,2.690000057220459,2.430000066757202,2.569999933242798,2.569999933242798,93100
2020-07-14,2.430000066757202,2.734999895095825,2.4100000858306885,2.6500000953674316,2.6500000953674316,158600
2020-07-15,2.759999990463257,2.819999933242798,2.5299999713897705,2.5399999618530273,2.5399999618530273,81700
2020-07-16,2.565000057220459,2.6500000953674316,2.4600000381469727,2.569999933242798,2.569999933242798,35500
2020-07-17,2.5199999809265137,2.6700000762939453,2.4660000801086426,2.6700000762939453,2.6700000762939453,34800
2020-07-20,2.7200000286102295,2.7200000286102295,2.5299999713897705,2.6600000858306885,2.6600000858306885,63500
2020-07-21,2.609999895095825,2.799999952316284,2.5399999618530273,2.569999933242798,2.569999933242798,108800
2020-07-22,2.549999952316284,2.619999885559082,2.5199999809265137,2.5999999046325684,2.5999999046325684,49800
2020-07-23,2.549999952316284,2.5899999141693115,2.509999990463257,2.559999942779541,2.559999942779541,45700
2020-07-24,2.674999952316284,2.7320001125335693,2.430000066757202,2.4600000381469727,2.4600000381469727,104600
2020-07-27,2.5399999618530273,2.5999999046325684,2.4600000381469727,2.5,2.5,49800
2020-07-28,2.565000057220459,2.7100000381469727,2.4769999980926514,2.6700000762939453,2.6700000762939453,81500
2020-07-29,2.6700000762939453,2.700000047683716,2.561000108718872,2.619999885559082,2.619999885559082,43600
2020-07-30,2.5799999237060547,2.677000045776367,2.559999942779541,2.6760001182556152,2.6760001182556152,15900
2020-07-31,2.7100000381469727,2.75,2.677000045776367,2.680000066757202,2.680000066757202,29500
2020-08-03,2.6600000858306885,2.890000104904175,2.549999952316284,2.819999933242798,2.819999933242798,92800
2020-08-04,2.8550000190734863,3.319999933242798,2.7699999809265137,3.059999942779541,3.059999942779541,91100
2020-08-05,3.075000047683716,3.4800000190734863,2.990000009536743,3.009999990463257,3.009999990463257,52800
2020-08-06,3.119999885559082,3.2200000286102295,2.809999942779541,2.890000104904175,2.890000104904175,83300
2020-08-07,3.0450000762939453,3.200000047683716,2.9100000858306885,3.1700000762939453,3.1700000762939453,55100
2020-08-10,3.140000104904175,3.4000000953674316,2.9200000762939453,3.1700000762939453,3.1700000762939453,102500
2020-08-11,3.0199999809265137,3.1500000953674316,2.940000057220459,2.940000057220459,2.940000057220459,80500
2020-08-12,2.9700000286102295,3.0799999237060547,2.9000000953674316,2.9000000953674316,2.9000000953674316,69700
2020-08-13,2.9000000953674316,2.950000047683716,2.5969998836517334,2.680000066757202,2.680000066757202,183300
2020-08-14,2.619999885559082,2.880000114440918,2.619999885559082,2.7899999618530273,2.7899999618530273,80800
2020-08-17,2.759999990463257,2.8299999237060547,2.7300000190734863,2.7899999618530273,2.7899999618530273,91000
2020-08-18,2.7300000190734863,2.8499999046325684,2.6500000953674316,2.740000009536743,2.740000009536743,163800
2020-08-19,2.7799999713897705,2.8299999237060547,2.6700000762939453,2.7300000190734863,2.7300000190734863,108800
2020-08-20,2.700000047683716,2.819999933242798,2.549999952316284,2.630000114440918,2.630000114440918,444200
2020-08-21,2.5899999141693115,2.7100000381469727,2.5350000858306885,2.680000066757202,2.680000066757202,257500
2020-08-24,2.5999999046325684,2.7799999713897705,2.5899999141693115,2.7200000286102295,2.7200000286102295,228900
2020-08-25,2.6700000762939453,2.812999963760376,2.6540000438690186,2.809999942779541,2.809999942779541,194700
2020-08-26,2.740000009536743,2.9200000762939453,2.7100000381469727,2.9200000762939453,2.9200000762939453,119200
2020-08-27,2.8499999046325684,2.9800000190734863,2.7699999809265137,2.8499999046325684,2.8499999046325684,106200
2020-08-28,2.819999933242798,2.819999933242798,2.549999952316284,2.609999895095825,2.609999895095825,114500
2020-08-31,2.549999952316284,2.6600000858306885,2.4800000190734863,2.5799999237060547,2.5799999237060547,126700
2020-09-01,2.5899999141693115,2.799999952316284,2.5799999237060547,2.7100000381469727,2.7100000381469727,116900
2020-09-02,2.700000047683716,2.700000047683716,2.4700000286102295,2.5999999046325684,2.5999999046325684,109000
2020-09-03,2.569999933242798,2.569999933242798,2.380000114440918,2.440000057220459,2.440000057220459,118700
2020-09-04,2.4100000858306885,2.4800000190734863,2.3499999046325684,2.380000114440918,2.380000114440918,102000
2020-09-08,2.380000114440918,2.380000114440918,2.0,2.1500000953674316,2.1500000953674316,149600
2020-09-09,2.1600000858306885,2.3299999237060547,2.009999990463257,2.119999885559082,2.119999885559082,106600
2020-09-10,2.140000104904175,2.1410000324249268,2.059999942779541,2.059999942779541,2.059999942779541,13800
2020-09-11,2.049999952316284,2.0999999046325684,1.75,1.940000057220459,1.940000057220459,86700
2020-09-14,2.0199999809265137,2.065000057220459,1.940000057220459,2.059999942779541,2.059999942779541,59800
2020-09-15,2.0399999618530273,2.0999999046325684,2.0,2.0199999809265137,2.0199999809265137,64200
2020-09-16,2.009999990463257,2.0399999618530273,1.9299999475479126,1.9500000476837158,1.9500000476837158,38500
2020-09-17,1.9500000476837158,2.0899999141693115,1.9500000476837158,1.9900000095367432,1.9900000095367432,18600
2020-09-18,1.9700000286102295,1.996999979019165,1.940000057220459,1.940000057220459,1.940000057220459,30800
2020-09-21,1.940000057220459,1.9500000476837158,1.809999942779541,1.8200000524520874,1.8200000524520874,29100
2020-09-22,1.937000036239624,1.940000057220459,1.8300000429153442,1.8799999952316284,1.8799999952316284,8400
2020-09-23,1.9500000476837158,1.9900000095367432,1.7599999904632568,1.878999948501587,1.878999948501587,110300
2020-09-24,1.850000023841858,1.940000057220459,1.850000023841858,1.9299999475479126,1.9299999475479126,9000
2020-09-25,1.9559999704360962,2.2799999713897705,1.899999976158142,2.0899999141693115,2.0899999141693115,86000
2020-09-28,2.119999885559082,2.234999895095825,2.119999885559082,2.1649999618530273,2.1649999618530273,64800
2020-09-29,2.1530001163482666,2.299999952316284,2.1530001163482666,2.240000009536743,2.240000009536743,25300
2020-09-30,2.259999990463257,2.4800000190734863,2.259999990463257,2.430000066757202,2.430000066757202,36300
2020-10-01,2.450000047683716,2.450000047683716,2.3299999237060547,2.4200000762939453,2.4200000762939453,17900
2020-10-02,2.3499999046325684,2.450000047683716,2.3499999046325684,2.440000057220459,2.440000057220459,11100
2020-10-05,2.369999885559082,2.4100000858306885,2.3499999046325684,2.4100000858306885,2.4100000858306885,14500
2020-10-06,2.3949999809265137,2.4100000858306885,2.190000057220459,2.3499999046325684,2.3499999046325684,58100
2020-10-07,2.359999895095825,2.430000066757202,2.359999895095825,2.430000066757202,2.430000066757202,14800
2020-10-08,2.2300000190734863,2.4000000953674316,2.2300000190734863,2.380000114440918,2.380000114440918,11000
2020-10-09,2.3299999237060547,2.4100000858306885,2.3299999237060547,2.4100000858306885,2.4100000858306885,800
2020-10-12,2.424999952316284,2.4700000286102295,2.4200000762939453,2.4700000286102295,2.4700000286102295,10300
2020-10-13,2.4600000381469727,2.5160000324249268,2.430000066757202,2.450000047683716,2.450000047683716,38000
2020-10-14,2.490000009536743,2.5299999713897705,2.490000009536743,2.5199999809265137,2.5199999809265137,35000
2020-10-15,2.440000057220459,2.5299999713897705,2.438999891281128,2.440000057220459,2.440000057220459,8500
2020-10-16,2.369999885559082,2.7170000076293945,2.369999885559082,2.559999942779541,2.559999942779541,50000
2020-10-19,2.5,2.611999988555908,2.5,2.509999990463257,2.509999990463257,85600
2020-10-20,2.640000104904175,2.7300000190734863,2.4000000953674316,2.4000000953674316,2.4000000953674316,99300
2020-10-21,2.4000000953674316,2.700000047683716,2.3940000534057617,2.446000099182129,2.446000099182129,46100
2020-10-22,2.4830000400543213,2.6760001182556152,2.359999895095825,2.440000057220459,2.440000057220459,82300
2020-10-23,2.5799999237060547,2.5799999237060547,2.4700000286102295,2.490000009536743,2.490000009536743,24000
2020-10-26,2.494999885559082,2.5299999713897705,2.4100000858306885,2.5,2.5,52800
2020-10-27,2.5,2.5199999809265137,2.3399999141693115,2.430000066757202,2.430000066757202,46800
2020-10-28,2.490000009536743,2.632999897003174,2.3299999237060547,2.4100000858306885,2.4100000858306885,30000
2020-10-29,2.359999895095825,2.5999999046325684,2.359999895095825,2.5199999809265137,2.5199999809265137,56700
2020-10-30,2.5,2.5,2.3499999046325684,2.4000000953674316,2.4000000953674316,87200
2020-11-02,2.450000047683716,2.4800000190734863,2.3299999237060547,2.380000114440918,2.380000114440918,37100
2020-11-03,2.371000051498413,2.371000051498413,2.259999990463257,2.359999895095825,2.359999895095825,26100
2020-11-04,2.309999942779541,2.369999885559082,2.1019999980926514,2.259999990463257,2.259999990463257,53400
2020-11-05,2.1600000858306885,2.2249999046325684,2.1500000953674316,2.200000047683716,2.200000047683716,22200
2020-11-06,2.186000108718872,2.2200000286102295,2.059999942779541,2.140000104904175,2.140000104904175,39900
2020-11-09,2.109999895095825,2.140000104904175,2.046999931335449,2.109999895095825,2.109999895095825,41900
2020-11-10,2.0899999141693115,2.36299991607666,2.049999952316284,2.2899999618530273,2.2899999618530273,93500
2020-11-11,2.299999952316284,2.380000114440918,2.259999990463257,2.3489999771118164,2.3489999771118164,41600
2020-11-12,2.3380000591278076,2.490000009536743,2.3380000591278076,2.369999885559082,2.369999885559082,34400
2020-11-13,2.3499999046325684,2.3499999046325684,2.309999942779541,2.3499999046325684,2.3499999046325684,4700
2020-11-16,2.3299999237060547,2.3310000896453857,2.200000047683716,2.200000047683716,2.200000047683716,12400
2020-11-17,2.196000099182129,2.5869998931884766,2.196000099182129,2.440000057220459,2.440000057220459,140900
2020-11-18,2.509999990463257,2.509999990463257,2.4100000858306885,2.4200000762939453,2.4200000762939453,8800
2020-11-19,2.4000000953674316,2.4000000953674316,2.1500000953674316,2.309999942779541,2.309999942779541,73200
2020-11-20,2.2690000534057617,2.3499999046325684,2.2690000534057617,2.2899999618530273,2.2899999618530273,9500
2020-11-23,2.2799999713897705,2.5299999713897705,2.2760000228881836,2.4800000190734863,2.4800000190734863,36200
2020-11-24,2.5769999027252197,2.5799999237060547,2.4100000858306885,2.494999885559082,2.494999885559082,8800
2020-11-25,2.5399999618530273,2.740000009536743,2.450000047683716,2.450000047683716,2.450000047683716,36000
2020-11-27,2.4820001125335693,2.5999999046325684,2.4200000762939453,2.509999990463257,2.509999990463257,28700
2020-11-30,2.4800000190734863,2.7799999713897705,2.4800000190734863,2.6600000858306885,2.6600000858306885,49300
2020-12-01,2.6500000953674316,3.119999885559082,2.617000102996826,3.119999885559082,3.119999885559082,53500
2020-12-02,3.0899999141693115,3.1500000953674316,2.744999885559082,2.890000104904175,2.890000104904175,47800
2020-12-03,3.1500000953674316,3.190000057220459,3.0,3.0,3.0,39000
2020-12-04,2.8519999980926514,2.9800000190734863,2.809999942779541,2.9800000190734863,2.9800000190734863,4800
2020-12-07,3.0199999809265137,3.069999933242798,2.880000114440918,2.890000104904175,2.890000104904175,13000
2020-12-08,2.8499999046325684,2.869999885559082,2.5899999141693115,2.700000047683716,2.700000047683716,113300
2020-12-09,2.5,2.6019999980926514,2.3499999046325684,2.3499999046325684,2.3499999046325684,164100
2020-12-10,2.4100000858306885,2.4100000858306885,2.299999952316284,2.309999942779541,2.309999942779541,189600
2020-12-11,2.259999990463257,2.2909998893737793,2.0799999237060547,2.190000057220459,2.190000057220459,143600
2020-12-14,2.0899999141693115,2.180000066757202,2.0899999141693115,2.180000066757202,2.180000066757202,54700
2020-12-15,2.069999933242798,2.247999906539917,2.069999933242798,2.174999952316284,2.174999952316284,42800
2020-12-16,2.130000114440918,2.490000009536743,2.114000082015991,2.180000066757202,2.180000066757202,301700
2020-12-17,2.1600000858306885,2.4000000953674316,2.119999885559082,2.2100000381469727,2.2100000381469727,253600
2020-12-18,2.2300000190734863,2.259999990463257,2.1710000038146973,2.180000066757202,2.180000066757202,46700
2020-12-21,2.183000087738037,2.299999952316284,2.180000066757202,2.200000047683716,2.200000047683716,45100
2020-12-22,2.25,2.25,2.119999885559082,2.200000047683716,2.200000047683716,42200
2020-12-23,2.140000104904175,2.190000057220459,2.130000114440918,2.1700000762939453,2.1700000762939453,23100
2020-12-24,2.180000066757202,2.200000047683716,2.121000051498413,2.140000104904175,2.140000104904175,11100
2020-12-28,2.1700000762939453,2.3299999237060547,2.1600000858306885,2.2799999713897705,2.2799999713897705,170400
2020-12-29,2.2899999618530273,2.2899999618530273,2.1500000953674316,2.200000047683716,2.200000047683716,53500
2020-12-30,2.183000087738037,2.9690001010894775,2.183000087738037,2.5299999713897705,2.5299999713897705,1126300
