Date,Open,High,Low,Close,Adj Close,Volume
2020-06-12,20.799999237060547,28.594999313354492,17.799999237060547,26.149999618530273,26.149999618530273,3627300
2020-06-15,23.559999465942383,31.89900016784668,23.5,28.520000457763672,28.520000457763672,526800
2020-06-16,29.790000915527344,34.869998931884766,29.520000457763672,32.900001525878906,32.900001525878906,523100
2020-06-17,34.959999084472656,35.0,32.0,34.0,34.0,463700
2020-06-18,33.47999954223633,34.650001525878906,32.0,34.06999969482422,34.06999969482422,102000
2020-06-19,33.40999984741211,35.5,33.400001525878906,35.45000076293945,35.45000076293945,142100
2020-06-22,34.650001525878906,36.5,30.520000457763672,32.36000061035156,32.36000061035156,220700
2020-06-23,32.720001220703125,33.75,29.360000610351562,33.400001525878906,33.400001525878906,122100
2020-06-24,33.0099983215332,33.20000076293945,30.850000381469727,32.119998931884766,32.119998931884766,37500
2020-06-25,32.20000076293945,33.400001525878906,30.56999969482422,33.400001525878906,33.400001525878906,36700
2020-06-26,33.84000015258789,33.84000015258789,31.489999771118164,32.88999938964844,32.88999938964844,96200
2020-06-29,31.90999984741211,32.42499923706055,30.1299991607666,31.200000762939453,31.200000762939453,72800
2020-06-30,30.860000610351562,32.220001220703125,30.010000228881836,31.610000610351562,31.610000610351562,30700
2020-07-01,31.649999618530273,31.71500015258789,28.440000534057617,30.149999618530273,30.149999618530273,234100
2020-07-02,29.68000030517578,30.65999984741211,28.0,29.989999771118164,29.989999771118164,126800
2020-07-06,30.540000915527344,30.540000915527344,27.43000030517578,29.3799991607666,29.3799991607666,176400
2020-07-07,28.8799991607666,30.809999465942383,27.545000076293945,28.770000457763672,28.770000457763672,197600
2020-07-08,28.8799991607666,30.481000900268555,28.139999389648438,29.729999542236328,29.729999542236328,97700
2020-07-09,29.329999923706055,30.40999984741211,29.0,29.350000381469727,29.350000381469727,44300
2020-07-10,28.540000915527344,29.700000762939453,27.7189998626709,29.579999923706055,29.579999923706055,93300
2020-07-13,29.760000228881836,30.295000076293945,28.969999313354492,29.209999084472656,29.209999084472656,418900
2020-07-14,29.190000534057617,30.136999130249023,28.0,28.700000762939453,28.700000762939453,195100
2020-07-15,29.440000534057617,29.440000534057617,25.739999771118164,26.5,26.5,119600
2020-07-16,26.34000015258789,27.475000381469727,25.110000610351562,26.610000610351562,26.610000610351562,313500
2020-07-17,26.549999237060547,29.0,25.579999923706055,29.0,29.0,153800
2020-07-20,28.760000228881836,32.0,28.5,31.010000228881836,31.010000228881836,93300
2020-07-21,30.799999237060547,33.58000183105469,30.799999237060547,33.4900016784668,33.4900016784668,141300
2020-07-22,33.29999923706055,33.29999923706055,30.110000610351562,31.729999542236328,31.729999542236328,50300
2020-07-23,31.350000381469727,34.20000076293945,30.1200008392334,32.5,32.5,102000
2020-07-24,32.150001525878906,33.15999984741211,30.030000686645508,30.81999969482422,30.81999969482422,99000
2020-07-27,30.690000534057617,32.0,29.940000534057617,31.360000610351562,31.360000610351562,23500
2020-07-28,31.84000015258789,31.920000076293945,28.110000610351562,29.030000686645508,29.030000686645508,68600
2020-07-29,28.510000228881836,31.670000076293945,28.510000228881836,30.68000030517578,30.68000030517578,48600
2020-07-30,30.200000762939453,32.83000183105469,29.809999465942383,31.979999542236328,31.979999542236328,37200
2020-07-31,32.130001068115234,34.9900016784668,31.07200050354004,31.40999984741211,31.40999984741211,72100
2020-08-03,31.549999237060547,35.0,31.25,34.650001525878906,34.650001525878906,84500
2020-08-04,34.65999984741211,36.060001373291016,32.18000030517578,33.04999923706055,33.04999923706055,94000
2020-08-05,32.935001373291016,34.86000061035156,32.20000076293945,33.720001220703125,33.720001220703125,85000
2020-08-06,33.9900016784668,35.0,32.41899871826172,33.9900016784668,33.9900016784668,95800
2020-08-07,33.9900016784668,36.5,33.209999084472656,35.310001373291016,35.310001373291016,152800
2020-08-10,35.25,43.92499923706055,35.25,38.5,38.5,320900
2020-08-11,40.0,40.0,36.630001068115234,37.47999954223633,37.47999954223633,187200
2020-08-12,38.23500061035156,41.34000015258789,36.630001068115234,40.47999954223633,40.47999954223633,48400
2020-08-13,39.529998779296875,47.70000076293945,39.0,46.38999938964844,46.38999938964844,145100
2020-08-14,46.5,51.400001525878906,46.349998474121094,50.43000030517578,50.43000030517578,123600
2020-08-17,52.83000183105469,52.83000183105469,46.0,49.09000015258789,49.09000015258789,209700
2020-08-18,49.099998474121094,51.0,46.5099983215332,49.2400016784668,49.2400016784668,151700
2020-08-19,49.22999954223633,52.599998474121094,47.40999984741211,50.689998626708984,50.689998626708984,143300
2020-08-20,49.939998626708984,54.68000030517578,48.02000045776367,54.380001068115234,54.380001068115234,141400
2020-08-21,53.7599983215332,55.040000915527344,45.0099983215332,51.38999938964844,51.38999938964844,222400
2020-08-24,51.34000015258789,52.0,46.45000076293945,51.02000045776367,51.02000045776367,157900
2020-08-25,51.0099983215332,51.0099983215332,48.025001525878906,48.849998474121094,48.849998474121094,133900
2020-08-26,48.810001373291016,50.0,48.20000076293945,48.869998931884766,48.869998931884766,78900
2020-08-27,48.959999084472656,48.959999084472656,44.5,44.9900016784668,44.9900016784668,139200
2020-08-28,45.18000030517578,47.0,42.77000045776367,44.04999923706055,44.04999923706055,171500
2020-08-31,44.4900016784668,47.0,41.16999816894531,45.279998779296875,45.279998779296875,196100
2020-09-01,45.119998931884766,45.689998626708984,42.790000915527344,43.68000030517578,43.68000030517578,122600
2020-09-02,43.599998474121094,44.08000183105469,42.02000045776367,43.150001525878906,43.150001525878906,109400
2020-09-03,42.939998626708984,43.67499923706055,37.95000076293945,40.0,40.0,121600
2020-09-04,39.619998931884766,41.35499954223633,36.58000183105469,38.849998474121094,38.849998474121094,94300
2020-09-08,38.150001525878906,38.150001525878906,35.25,35.939998626708984,35.939998626708984,136800
2020-09-09,36.08000183105469,38.03499984741211,35.92499923706055,36.81999969482422,36.81999969482422,271200
2020-09-10,36.75,37.5099983215332,36.0099983215332,37.130001068115234,37.130001068115234,192900
2020-09-11,37.5,40.900001525878906,37.04999923706055,39.560001373291016,39.560001373291016,277300
2020-09-14,40.880001068115234,42.875,39.71500015258789,41.52000045776367,41.52000045776367,331800
2020-09-15,41.709999084472656,43.9900016784668,40.89099884033203,42.5099983215332,42.5099983215332,264000
2020-09-16,43.189998626708984,50.349998474121094,41.722999572753906,48.380001068115234,48.380001068115234,552800
2020-09-17,47.130001068115234,51.84000015258789,45.38999938964844,49.41999816894531,49.41999816894531,447100
2020-09-18,48.88999938964844,52.14500045776367,48.88999938964844,50.470001220703125,50.470001220703125,3294100
2020-09-21,49.06999969482422,53.18000030517578,47.279998779296875,52.47999954223633,52.47999954223633,537800
2020-09-22,53.18000030517578,55.75,52.72999954223633,55.220001220703125,55.220001220703125,473300
2020-09-23,54.59000015258789,58.474998474121094,52.00699996948242,55.400001525878906,55.400001525878906,396400
2020-09-24,55.27000045776367,55.93000030517578,50.18000030517578,50.529998779296875,50.529998779296875,208400
2020-09-25,50.290000915527344,53.935001373291016,50.16999816894531,52.0,52.0,223400
2020-09-28,52.70000076293945,52.85499954223633,50.9900016784668,51.810001373291016,51.810001373291016,121800
2020-09-29,52.2599983215332,53.400001525878906,51.400001525878906,51.5,51.5,170400
2020-09-30,51.66999816894531,52.04999923706055,49.34000015258789,49.380001068115234,49.380001068115234,248800
2020-10-01,49.70000076293945,50.77000045776367,47.25,47.650001525878906,47.650001525878906,125000
2020-10-02,46.75,49.52000045776367,45.290000915527344,48.849998474121094,48.849998474121094,104500
2020-10-05,49.27000045776367,50.34000015258789,47.02000045776367,49.13999938964844,49.13999938964844,102600
2020-10-06,49.31999969482422,52.95000076293945,48.84000015258789,51.7400016784668,51.7400016784668,111400
2020-10-07,52.11000061035156,53.71500015258789,49.90999984741211,50.099998474121094,50.099998474121094,269100
2020-10-08,50.41999816894531,52.31999969482422,48.255001068115234,48.88999938964844,48.88999938964844,303900
2020-10-09,49.130001068115234,51.76499938964844,47.77000045776367,48.599998474121094,48.599998474121094,218400
2020-10-12,48.470001220703125,49.630001068115234,47.29999923706055,48.0,48.0,67500
2020-10-13,47.97999954223633,50.470001220703125,47.79999923706055,49.869998931884766,49.869998931884766,65300
2020-10-14,49.66999816894531,51.5,48.11000061035156,48.52000045776367,48.52000045776367,69400
2020-10-15,48.0,50.599998474121094,47.849998474121094,49.40999984741211,49.40999984741211,79900
2020-10-16,49.0,51.1150016784668,49.0,49.68000030517578,49.68000030517578,142600
2020-10-19,49.709999084472656,52.27899932861328,46.25,46.88999938964844,46.88999938964844,115600
2020-10-20,46.81999969482422,46.84000015258789,42.334999084472656,43.310001373291016,43.310001373291016,117100
2020-10-21,43.47999954223633,45.33000183105469,41.5099983215332,41.97999954223633,41.97999954223633,60100
2020-10-22,42.20000076293945,43.13999938964844,41.564998626708984,42.91999816894531,42.91999816894531,50700
2020-10-23,42.90999984741211,44.11000061035156,42.244998931884766,43.54999923706055,43.54999923706055,52800
2020-10-26,42.93000030517578,45.790000915527344,41.95500183105469,42.099998474121094,42.099998474121094,62800
2020-10-27,42.31999969482422,42.31999969482422,39.290000915527344,39.41999816894531,39.41999816894531,80000
2020-10-28,38.689998626708984,39.83000183105469,37.849998474121094,37.900001525878906,37.900001525878906,58400
2020-10-29,38.0,38.060001373291016,36.439998626708984,36.9900016784668,36.9900016784668,91000
2020-10-30,37.040000915527344,38.21500015258789,35.779998779296875,37.369998931884766,37.369998931884766,82000
2020-11-02,37.83000183105469,38.60499954223633,36.33000183105469,37.04999923706055,37.04999923706055,93100
2020-11-03,37.0,38.25,35.150001525878906,36.45000076293945,36.45000076293945,97300
2020-11-04,36.33000183105469,39.93000030517578,36.25,37.75,37.75,112000
2020-11-05,37.939998626708984,38.5099983215332,36.58000183105469,37.599998474121094,37.599998474121094,106200
2020-11-06,37.70000076293945,37.849998474121094,35.47999954223633,35.97999954223633,35.97999954223633,143600
2020-11-09,37.27000045776367,37.540000915527344,36.04999923706055,36.5,36.5,99300
2020-11-10,36.9900016784668,37.61000061035156,35.0099983215332,36.709999084472656,36.709999084472656,124800
2020-11-11,36.75,37.849998474121094,35.54999923706055,36.58000183105469,36.58000183105469,229700
2020-11-12,36.52000045776367,38.439998626708984,36.220001220703125,37.040000915527344,37.040000915527344,79700
2020-11-13,37.150001525878906,38.689998626708984,37.0,38.0,38.0,240800
2020-11-16,38.650001525878906,38.650001525878906,36.04999923706055,36.709999084472656,36.709999084472656,199300
2020-11-17,36.25,37.959999084472656,33.150001525878906,36.5,36.5,228900
2020-11-18,36.25,37.08000183105469,32.52000045776367,33.189998626708984,33.189998626708984,158200
2020-11-19,33.150001525878906,35.61000061035156,32.060001373291016,34.97999954223633,34.97999954223633,966800
2020-11-20,34.5,35.099998474121094,33.34000015258789,34.720001220703125,34.720001220703125,145800
2020-11-23,34.9900016784668,35.34000015258789,33.970001220703125,34.88999938964844,34.88999938964844,332200
2020-11-24,35.0,35.86000061035156,34.31999969482422,34.599998474121094,34.599998474121094,420700
2020-11-25,34.83000183105469,34.83000183105469,33.54999923706055,33.939998626708984,33.939998626708984,115300
2020-11-27,34.04999923706055,34.84000015258789,34.04999923706055,34.63999938964844,34.63999938964844,71200
2020-11-30,34.79999923706055,34.81999969482422,31.56999969482422,32.099998474121094,32.099998474121094,563400
2020-12-01,32.27000045776367,32.27000045776367,28.09000015258789,28.6299991607666,28.6299991607666,401000
2020-12-02,28.6200008392334,31.6200008392334,28.6200008392334,31.290000915527344,31.290000915527344,281400
2020-12-03,31.100000381469727,31.100000381469727,28.719999313354492,30.0,30.0,342600
2020-12-04,30.06999969482422,33.220001220703125,29.760000228881836,31.469999313354492,31.469999313354492,283700
2020-12-07,31.389999389648438,32.7599983215332,31.1200008392334,31.959999084472656,31.959999084472656,186800
2020-12-08,31.8700008392334,32.95000076293945,30.540000915527344,32.79999923706055,32.79999923706055,290800
2020-12-09,31.6200008392334,32.3120002746582,28.1299991607666,28.15999984741211,28.15999984741211,354900
2020-12-10,27.65999984741211,28.0,26.190000534057617,26.989999771118164,26.989999771118164,226000
2020-12-11,27.5,32.25,27.100000381469727,31.0,31.0,566600
2020-12-14,33.0369987487793,33.7400016784668,31.1299991607666,33.2599983215332,33.2599983215332,461200
2020-12-15,33.0,33.16999816894531,31.889999389648438,32.470001220703125,32.470001220703125,402700
2020-12-16,32.52000045776367,34.68000030517578,31.850000381469727,32.52000045776367,32.52000045776367,338700
2020-12-17,32.81999969482422,33.74700164794922,30.263999938964844,31.940000534057617,31.940000534057617,497800
2020-12-18,32.119998931884766,33.68000030517578,30.18000030517578,30.510000228881836,30.510000228881836,1816500
2020-12-21,29.799999237060547,30.5,28.065000534057617,29.809999465942383,29.809999465942383,308900
2020-12-22,29.889999389648438,31.920000076293945,28.770000457763672,28.899999618530273,28.899999618530273,335700
2020-12-23,28.100000381469727,29.200000762939453,26.815000534057617,28.729999542236328,28.729999542236328,350600
2020-12-24,28.899999618530273,29.139999389648438,27.594999313354492,27.959999084472656,27.959999084472656,80700
2020-12-28,28.239999771118164,29.979999542236328,27.850000381469727,28.530000686645508,28.530000686645508,219200
2020-12-29,28.84000015258789,29.239999771118164,27.190000534057617,28.030000686645508,28.030000686645508,149700
2020-12-30,29.020000457763672,29.579999923706055,27.559999465942383,28.959999084472656,28.959999084472656,141800
