Date,Open,High,Low,Close,Adj Close,Volume
2017-10-02,14.5,15.050000190734863,14.5,14.899999618530273,14.899999618530273,1480700
2017-10-03,14.850000381469727,14.850000381469727,14.649999618530273,14.75,14.75,611100
2017-10-04,14.699999809265137,14.75,14.600000381469727,14.6899995803833,14.6899995803833,339200
2017-10-05,14.6899995803833,15.25,14.520000457763672,15.039999961853027,15.039999961853027,863500
2017-10-06,15.149999618530273,15.210000038146973,14.960000038146973,15.029999732971191,15.029999732971191,253300
2017-10-09,15.100000381469727,15.149999618530273,14.920000076293945,14.989999771118164,14.989999771118164,207400
2017-10-10,15.0,15.0,14.880000114440918,14.989999771118164,14.989999771118164,105300
2017-10-11,14.989999771118164,14.989999771118164,14.880000114440918,14.930000305175781,14.930000305175781,115800
2017-10-12,14.989999771118164,14.989999771118164,14.899999618530273,14.9399995803833,14.9399995803833,81900
2017-10-13,14.989999771118164,14.989999771118164,14.800000190734863,14.859999656677246,14.859999656677246,94700
2017-10-16,14.949999809265137,14.949999809265137,14.859999656677246,14.899999618530273,14.899999618530273,101800
2017-10-17,14.899999618530273,14.90999984741211,14.84000015258789,14.850000381469727,14.850000381469727,92100
2017-10-18,14.850000381469727,14.890000343322754,14.819999694824219,14.829999923706055,14.829999923706055,68900
2017-10-19,14.869999885559082,14.949999809265137,14.850000381469727,14.949999809265137,14.949999809265137,88200
2017-10-20,14.960000038146973,14.989999771118164,14.949999809265137,14.949999809265137,14.949999809265137,91600
2017-10-23,14.989999771118164,15.100000381469727,14.949999809265137,15.0,15.0,110500
2017-10-24,15.050000190734863,15.050000190734863,14.899999618530273,14.989999771118164,14.989999771118164,47100
2017-10-25,14.989999771118164,15.0,14.75,14.930000305175781,14.930000305175781,37200
2017-10-26,15.0,15.0,14.899999618530273,14.989999771118164,14.989999771118164,46100
2017-10-27,15.0,15.039999961853027,14.899999618530273,15.039999961853027,15.039999961853027,93000
2017-10-30,15.0600004196167,15.09000015258789,14.869999885559082,15.0,15.0,51600
2017-10-31,15.039999961853027,15.100000381469727,15.0,15.050000190734863,15.050000190734863,11100
2017-11-01,15.100000381469727,15.100000381469727,15.0,15.0,15.0,35800
2017-11-02,15.100000381469727,15.199999809265137,15.020000457763672,15.0600004196167,15.0600004196167,10200
2017-11-03,15.0,15.050000190734863,14.930000305175781,15.0,15.0,19200
2017-11-06,15.069999694824219,15.09000015258789,15.0,15.050000190734863,15.050000190734863,16400
2017-11-07,15.029999732971191,15.0600004196167,15.0,15.029999732971191,15.029999732971191,20800
2017-11-08,15.0,15.0600004196167,15.0,15.0600004196167,15.0600004196167,26600
2017-11-09,15.0,15.0600004196167,14.859999656677246,15.050000190734863,15.050000190734863,16100
2017-11-10,14.859999656677246,15.0600004196167,14.859999656677246,15.0600004196167,15.0600004196167,18900
2017-11-13,15.020000457763672,15.050000190734863,15.0,15.050000190734863,15.050000190734863,31800
2017-11-14,15.050000190734863,15.0600004196167,15.0,15.050000190734863,15.050000190734863,17500
2017-11-15,15.020000457763672,15.0600004196167,15.020000457763672,15.0600004196167,15.0600004196167,43000
2017-11-16,15.0600004196167,15.199999809265137,15.020000457763672,15.1899995803833,15.1899995803833,43200
2017-11-17,15.25,15.34000015258789,15.100000381469727,15.329999923706055,15.329999923706055,24700
2017-11-20,15.270000457763672,15.460000038146973,15.180000305175781,15.34000015258789,15.34000015258789,36400
2017-11-21,15.350000381469727,15.729999542236328,15.270000457763672,15.729999542236328,15.729999542236328,46300
2017-11-22,15.699999809265137,15.850000381469727,15.680000305175781,15.819999694824219,15.819999694824219,15000
2017-11-24,15.949999809265137,16.0,15.75,16.0,16.0,23700
2017-11-27,16.0,16.739999771118164,15.9399995803833,16.6299991607666,16.6299991607666,58800
2017-11-28,16.700000762939453,16.950000762939453,16.510000228881836,16.790000915527344,16.790000915527344,35100
2017-11-29,15.989999771118164,16.950000762939453,15.760000228881836,16.700000762939453,16.700000762939453,35800
2017-11-30,16.700000762939453,16.899999618530273,16.520000457763672,16.6200008392334,16.6200008392334,33000
2017-12-01,16.540000915527344,16.799999237060547,16.049999237060547,16.520000457763672,16.520000457763672,35600
2017-12-04,16.610000610351562,16.860000610351562,15.800000190734863,16.350000381469727,16.350000381469727,79100
2017-12-05,16.5,16.5,16.049999237060547,16.100000381469727,16.100000381469727,32500
2017-12-06,16.040000915527344,16.229999542236328,15.899999618530273,16.049999237060547,16.049999237060547,18800
2017-12-07,15.869999885559082,16.299999237060547,15.630000114440918,16.149999618530273,16.149999618530273,40300
2017-12-08,16.149999618530273,16.149999618530273,15.680000305175781,15.979999542236328,15.979999542236328,47800
2017-12-11,15.979999542236328,16.149999618530273,15.949999809265137,16.030000686645508,16.030000686645508,46700
2017-12-12,16.079999923706055,16.139999389648438,15.539999961853027,15.5600004196167,15.5600004196167,20200
2017-12-13,15.600000381469727,15.600000381469727,15.109999656677246,15.300000190734863,15.300000190734863,100200
2017-12-14,15.390000343322754,15.729999542236328,15.140000343322754,15.15999984741211,15.15999984741211,87900
2017-12-15,15.15999984741211,15.550000190734863,14.9399995803833,15.029999732971191,15.029999732971191,210100
2017-12-18,15.119999885559082,15.430000305175781,15.100000381469727,15.140000343322754,15.140000343322754,38100
2017-12-19,15.15999984741211,15.260000228881836,14.970000267028809,15.020000457763672,15.020000457763672,51500
2017-12-20,15.100000381469727,15.199999809265137,15.020000457763672,15.020000457763672,15.020000457763672,29200
2017-12-21,15.09000015258789,15.270000457763672,15.0,15.180000305175781,15.180000305175781,93700
2017-12-22,15.09000015258789,15.25,14.960000038146973,15.15999984741211,15.15999984741211,36700
2017-12-26,15.199999809265137,15.470000267028809,15.050000190734863,15.170000076293945,15.170000076293945,28100
2017-12-27,15.270000457763672,15.34000015258789,15.0600004196167,15.25,15.25,15800
2017-12-28,15.029999732971191,15.4399995803833,15.020000457763672,15.430000305175781,15.430000305175781,31800
2017-12-29,15.390000343322754,15.390000343322754,15.109999656677246,15.180000305175781,15.180000305175781,13500
2018-01-02,15.149999618530273,15.399999618530273,15.010000228881836,15.140000343322754,15.140000343322754,83100
2018-01-03,15.100000381469727,15.239999771118164,15.020000457763672,15.100000381469727,15.100000381469727,20600
2018-01-04,15.0600004196167,15.100000381469727,14.949999809265137,14.960000038146973,14.960000038146973,38800
2018-01-05,14.920000076293945,15.0,14.760000228881836,14.819999694824219,14.819999694824219,72200
2018-01-08,14.800000190734863,14.880000114440918,14.770000457763672,14.850000381469727,14.850000381469727,18100
2018-01-09,14.789999961853027,15.1899995803833,14.760000228881836,15.050000190734863,15.050000190734863,61600
2018-01-10,15.039999961853027,15.050000190734863,14.779999732971191,14.9399995803833,14.9399995803833,66300
2018-01-11,14.970000267028809,15.079999923706055,14.90999984741211,14.979999542236328,14.979999542236328,51100
2018-01-12,15.0,15.050000190734863,14.899999618530273,15.0,15.0,21900
2018-01-16,15.0,15.050000190734863,14.949999809265137,15.029999732971191,15.029999732971191,64000
2018-01-17,15.09000015258789,15.09000015258789,15.0,15.010000228881836,15.010000228881836,7100
2018-01-18,15.010000228881836,15.0600004196167,14.989999771118164,15.029999732971191,15.029999732971191,15000
2018-01-19,15.0,15.09000015258789,15.0,15.039999961853027,15.039999961853027,13800
2018-01-22,15.0,15.199999809265137,15.0,15.109999656677246,15.109999656677246,70300
2018-01-23,15.069999694824219,15.210000038146973,15.0600004196167,15.210000038146973,15.210000038146973,13800
2018-01-24,15.25,15.279999732971191,15.069999694824219,15.199999809265137,15.199999809265137,20200
2018-01-25,15.260000228881836,15.260000228881836,15.100000381469727,15.220000267028809,15.220000267028809,4200
2018-01-26,15.229999542236328,15.3100004196167,15.109999656677246,15.140000343322754,15.140000343322754,6700
2018-01-29,15.100000381469727,15.210000038146973,15.069999694824219,15.130000114440918,15.130000114440918,7000
2018-01-30,15.100000381469727,15.199999809265137,15.029999732971191,15.119999885559082,15.119999885559082,22300
2018-01-31,15.100000381469727,15.199999809265137,15.100000381469727,15.149999618530273,15.149999618530273,13300
2018-02-01,15.119999885559082,15.149999618530273,15.050000190734863,15.100000381469727,15.100000381469727,16500
2018-02-02,15.079999923706055,15.149999618530273,14.779999732971191,15.020000457763672,15.020000457763672,17800
2018-02-05,14.920000076293945,15.020000457763672,14.800000190734863,15.020000457763672,15.020000457763672,31900
2018-02-06,14.760000228881836,15.020000457763672,14.75,15.020000457763672,15.020000457763672,11700
2018-02-07,14.949999809265137,14.949999809265137,14.609999656677246,14.949999809265137,14.949999809265137,8400
2018-02-08,14.960000038146973,14.960000038146973,14.600000381469727,14.800000190734863,14.800000190734863,15800
2018-02-09,14.800000190734863,14.829999923706055,14.579999923706055,14.600000381469727,14.600000381469727,13200
2018-02-12,14.729999542236328,15.0,14.550000190734863,14.75,14.75,9500
2018-02-13,14.710000038146973,14.949999809265137,14.550000190734863,14.760000228881836,14.760000228881836,31000
2018-02-14,14.649999618530273,14.949999809265137,14.649999618530273,14.949999809265137,14.949999809265137,9700
2018-02-15,14.949999809265137,14.949999809265137,14.680000305175781,14.760000228881836,14.760000228881836,16900
2018-02-16,14.819999694824219,14.859999656677246,14.710000038146973,14.859999656677246,14.859999656677246,14800
2018-02-20,14.859999656677246,14.859999656677246,14.680000305175781,14.800000190734863,14.800000190734863,11300
2018-02-21,14.800000190734863,14.84000015258789,14.550000190734863,14.550000190734863,14.550000190734863,30800
2018-02-22,14.5600004196167,14.710000038146973,14.5600004196167,14.609999656677246,14.609999656677246,10000
2018-02-23,14.630000114440918,14.699999809265137,14.600000381469727,14.600000381469727,14.600000381469727,11700
2018-02-26,14.59000015258789,14.6899995803833,14.5600004196167,14.5600004196167,14.5600004196167,16800
2018-02-27,14.550000190734863,14.779999732971191,14.550000190734863,14.75,14.75,10000
2018-02-28,14.729999542236328,14.729999542236328,14.539999961853027,14.539999961853027,14.539999961853027,7100
2018-03-01,14.529999732971191,14.630000114440918,14.5,14.630000114440918,14.630000114440918,19600
2018-03-02,14.569999694824219,14.59000015258789,14.510000228881836,14.529999732971191,14.529999732971191,12600
2018-03-05,14.5,14.949999809265137,14.5,14.949999809265137,14.949999809265137,9100
2018-03-06,14.850000381469727,15.0,14.850000381469727,14.859999656677246,14.859999656677246,22800
2018-03-07,14.8100004196167,15.0,14.619999885559082,14.619999885559082,14.619999885559082,18000
2018-03-08,14.729999542236328,15.0,14.479999542236328,15.0,15.0,35500
2018-03-09,15.0,15.0,14.699999809265137,14.930000305175781,14.930000305175781,3100
2018-03-12,14.680000305175781,14.859999656677246,14.59000015258789,14.84000015258789,14.84000015258789,6500
2018-03-13,14.739999771118164,14.930000305175781,14.640000343322754,14.779999732971191,14.779999732971191,14200
2018-03-14,14.75,14.949999809265137,14.6899995803833,14.949999809265137,14.949999809265137,5600
2018-03-15,14.829999923706055,14.850000381469727,14.649999618530273,14.829999923706055,14.829999923706055,21100
2018-03-16,14.760000228881836,15.5,14.760000228881836,15.5,15.5,43100
2018-03-19,15.199999809265137,15.199999809265137,14.670000076293945,14.800000190734863,14.800000190734863,8800
2018-03-20,14.649999618530273,14.949999809265137,14.649999618530273,14.779999732971191,14.779999732971191,1200
2018-03-21,14.850000381469727,14.949999809265137,14.850000381469727,14.859999656677246,14.859999656677246,9300
2018-03-22,14.649999618530273,14.899999618530273,14.649999618530273,14.890000343322754,14.890000343322754,8900
2018-03-23,14.899999618530273,14.949999809265137,14.75,14.770000457763672,14.770000457763672,15100
2018-03-26,14.699999809265137,14.899999618530273,14.699999809265137,14.899999618530273,14.899999618530273,10300
2018-03-27,14.75,14.899999618530273,14.75,14.899999618530273,14.899999618530273,2000
2018-03-28,14.699999809265137,14.800000190734863,14.699999809265137,14.699999809265137,14.699999809265137,10500
2018-03-29,14.699999809265137,14.739999771118164,14.649999618530273,14.649999618530273,14.649999618530273,3000
2018-04-02,14.699999809265137,14.699999809265137,14.600000381469727,14.600000381469727,14.600000381469727,25900
2018-04-03,14.699999809265137,14.699999809265137,14.510000228881836,14.510000228881836,14.510000228881836,8500
2018-04-04,14.600000381469727,14.670000076293945,14.470000267028809,14.670000076293945,14.670000076293945,15600
2018-04-05,14.579999923706055,14.649999618530273,14.550000190734863,14.649999618530273,14.649999618530273,1800
2018-04-06,14.649999618530273,14.800000190734863,14.630000114440918,14.789999961853027,14.789999961853027,32500
2018-04-09,14.800000190734863,14.800000190734863,14.649999618530273,14.680000305175781,14.680000305175781,3600
2018-04-10,14.699999809265137,14.699999809265137,14.699999809265137,14.699999809265137,14.699999809265137,500
2018-04-11,14.550000190734863,14.789999961853027,14.550000190734863,14.65999984741211,14.65999984741211,9400
2018-04-12,14.600000381469727,15.100000381469727,14.460000038146973,14.699999809265137,14.699999809265137,17100
2018-04-13,14.699999809265137,14.699999809265137,14.699999809265137,14.699999809265137,14.699999809265137,900
2018-04-16,14.760000228881836,14.979999542236328,14.720000267028809,14.979999542236328,14.979999542236328,1100
2018-04-17,14.979999542236328,15.050000190734863,14.800000190734863,15.0,15.0,9600
2018-04-18,14.920000076293945,14.920000076293945,14.710000038146973,14.760000228881836,14.760000228881836,8600
2018-04-19,14.739999771118164,14.890000343322754,14.729999542236328,14.800000190734863,14.800000190734863,5800
2018-04-20,14.880000114440918,14.960000038146973,14.600000381469727,14.890000343322754,14.890000343322754,14700
2018-04-23,14.9399995803833,15.039999961853027,14.760000228881836,15.0,15.0,17500
2018-04-24,15.0,15.199999809265137,15.0,15.199999809265137,15.199999809265137,22300
2018-04-25,15.170000076293945,15.399999618530273,15.149999618530273,15.149999618530273,15.149999618530273,13500
2018-04-26,15.25,15.25,15.100000381469727,15.100000381469727,15.100000381469727,900
2018-04-27,15.149999618530273,15.449999809265137,15.149999618530273,15.449999809265137,15.449999809265137,35600
2018-04-30,15.5,15.949999809265137,15.5,15.899999618530273,15.899999618530273,16000
2018-05-01,15.75,16.229999542236328,15.75,16.200000762939453,16.200000762939453,35400
2018-05-02,16.200000762939453,16.200000762939453,16.200000762939453,16.200000762939453,16.200000762939453,0
2018-05-03,15.760000228881836,16.229999542236328,15.75,15.979999542236328,15.979999542236328,19200
2018-05-04,16.0,16.06999969482422,15.260000228881836,15.9399995803833,15.9399995803833,14300
2018-05-07,15.5,15.920000076293945,15.5,15.90999984741211,15.90999984741211,1100
2018-05-08,15.550000190734863,15.930000305175781,15.510000228881836,15.890000343322754,15.890000343322754,8900
2018-05-09,15.569999694824219,15.899999618530273,15.510000228881836,15.899999618530273,15.899999618530273,4300
2018-05-10,15.890000343322754,15.930000305175781,15.680000305175781,15.789999961853027,15.789999961853027,12700
2018-05-11,15.859999656677246,16.149999618530273,15.670000076293945,16.139999389648438,16.139999389648438,27300
2018-05-14,15.710000038146973,16.049999237060547,15.710000038146973,15.949999809265137,15.949999809265137,9100
2018-05-15,15.869999885559082,16.049999237060547,15.729999542236328,16.049999237060547,16.049999237060547,8600
2018-05-16,16.049999237060547,16.100000381469727,15.90999984741211,16.0,16.0,9500
2018-05-17,15.880000114440918,16.049999237060547,15.880000114440918,16.049999237060547,16.049999237060547,4900
2018-05-18,15.979999542236328,16.1200008392334,15.979999542236328,16.049999237060547,16.049999237060547,10600
2018-05-21,15.920000076293945,16.100000381469727,15.770000457763672,16.049999237060547,16.049999237060547,3600
2018-05-22,16.079999923706055,16.079999923706055,15.949999809265137,15.949999809265137,15.949999809265137,1700
2018-05-23,15.75,15.930000305175781,15.75,15.829999923706055,15.829999923706055,800
2018-05-24,15.720000267028809,15.720000267028809,15.510000228881836,15.65999984741211,15.65999984741211,10500
2018-05-25,15.5600004196167,15.779999732971191,15.5600004196167,15.779999732971191,15.779999732971191,7800
2018-05-29,15.640000343322754,15.640000343322754,15.5,15.5,15.5,8500
2018-05-30,15.609999656677246,15.640000343322754,15.5,15.5,15.5,12500
2018-05-31,15.329999923706055,16.079999923706055,15.300000190734863,15.359999656677246,15.359999656677246,23800
2018-06-01,15.479999542236328,16.06999969482422,14.880000114440918,16.06999969482422,16.06999969482422,15000
2018-06-04,15.989999771118164,16.0,15.6899995803833,15.6899995803833,15.6899995803833,6900
2018-06-05,15.90999984741211,16.0,15.800000190734863,15.899999618530273,15.899999618530273,13800
2018-06-06,15.84000015258789,15.989999771118164,15.710000038146973,15.760000228881836,15.760000228881836,7600
2018-06-07,15.890000343322754,15.890000343322754,15.25,15.520000457763672,15.520000457763672,8100
2018-06-08,15.640000343322754,15.65999984741211,14.859999656677246,15.279999732971191,15.279999732971191,16300
2018-06-11,15.369999885559082,15.75,15.260000228881836,15.59000015258789,15.59000015258789,31500
2018-06-12,15.720000267028809,15.770000457763672,15.479999542236328,15.619999885559082,15.619999885559082,26500
2018-06-13,15.609999656677246,15.65999984741211,15.479999542236328,15.600000381469727,15.600000381469727,25000
2018-06-14,15.1899995803833,15.920000076293945,15.1899995803833,15.920000076293945,15.920000076293945,24600
2018-06-15,15.899999618530273,16.06999969482422,15.630000114440918,16.049999237060547,16.049999237060547,36100
2018-06-18,15.829999923706055,16.09000015258789,15.760000228881836,15.949999809265137,15.949999809265137,30100
2018-06-19,15.850000381469727,16.049999237060547,15.729999542236328,15.979999542236328,15.979999542236328,23800
2018-06-20,15.890000343322754,16.09000015258789,15.329999923706055,15.960000038146973,15.960000038146973,98900
2018-06-21,15.819999694824219,16.1299991607666,15.710000038146973,16.030000686645508,16.030000686645508,77100
2018-06-22,16.06999969482422,16.100000381469727,15.5600004196167,16.09000015258789,16.09000015258789,970000
2018-06-25,16.110000610351562,16.1200008392334,15.770000457763672,15.899999618530273,15.899999618530273,40800
2018-06-26,15.710000038146973,15.949999809265137,15.699999809265137,15.880000114440918,15.880000114440918,15200
2018-06-27,15.449999809265137,15.970000267028809,15.140000343322754,15.760000228881836,15.760000228881836,39300
2018-06-28,15.460000038146973,15.949999809265137,15.449999809265137,15.779999732971191,15.779999732971191,18200
2018-06-29,15.449999809265137,15.789999961853027,15.329999923706055,15.710000038146973,15.710000038146973,21500
2018-07-02,15.600000381469727,15.600000381469727,15.34000015258789,15.430000305175781,15.430000305175781,6800
2018-07-03,15.460000038146973,15.579999923706055,15.149999618530273,15.5,15.5,33000
2018-07-05,15.59000015258789,15.59000015258789,15.0,15.09000015258789,15.09000015258789,29200
2018-07-06,15.239999771118164,15.239999771118164,14.90999984741211,15.029999732971191,15.029999732971191,31600
2018-07-09,15.100000381469727,15.680000305175781,15.100000381469727,15.390000343322754,15.390000343322754,40400
2018-07-10,15.3100004196167,15.390000343322754,15.119999885559082,15.170000076293945,15.170000076293945,10300
2018-07-11,15.109999656677246,15.220000267028809,15.010000228881836,15.100000381469727,15.100000381469727,5500
2018-07-12,15.170000076293945,15.170000076293945,15.050000190734863,15.09000015258789,15.09000015258789,7000
2018-07-13,15.039999961853027,15.170000076293945,15.039999961853027,15.140000343322754,15.140000343322754,5400
2018-07-16,15.359999656677246,15.359999656677246,15.109999656677246,15.220000267028809,15.220000267028809,7100
2018-07-17,15.170000076293945,15.5,15.170000076293945,15.319999694824219,15.319999694824219,9200
2018-07-18,15.289999961853027,15.399999618530273,15.199999809265137,15.199999809265137,15.199999809265137,4400
2018-07-19,15.1899995803833,15.279999732971191,15.149999618530273,15.25,15.25,4300
2018-07-20,15.220000267028809,15.279999732971191,15.15999984741211,15.15999984741211,15.15999984741211,2800
2018-07-23,15.050000190734863,15.180000305175781,14.930000305175781,15.130000114440918,15.130000114440918,10800
2018-07-24,15.289999961853027,15.369999885559082,15.199999809265137,15.199999809265137,15.199999809265137,5000
2018-07-25,15.279999732971191,15.279999732971191,15.140000343322754,15.140000343322754,15.140000343322754,2800
2018-07-26,15.1899995803833,15.359999656677246,15.1899995803833,15.25,15.25,5200
2018-07-27,15.25,15.25,14.989999771118164,14.989999771118164,14.989999771118164,9600
2018-07-30,14.989999771118164,15.149999618530273,14.9399995803833,15.020000457763672,15.020000457763672,5100
2018-07-31,15.050000190734863,15.369999885559082,15.050000190734863,15.15999984741211,15.15999984741211,8500
2018-08-01,15.270000457763672,15.270000457763672,15.050000190734863,15.050000190734863,15.050000190734863,2600
2018-08-02,15.119999885559082,15.25,15.119999885559082,15.149999618530273,15.149999618530273,3900
2018-08-03,15.399999618530273,15.399999618530273,15.050000190734863,15.079999923706055,15.079999923706055,5000
2018-08-06,15.100000381469727,15.34000015258789,15.0,15.050000190734863,15.050000190734863,9900
2018-08-07,15.069999694824219,15.069999694824219,14.859999656677246,15.0,15.0,4900
2018-08-08,15.020000457763672,15.020000457763672,14.859999656677246,14.930000305175781,14.930000305175781,2900
2018-08-09,15.0600004196167,15.0600004196167,14.90999984741211,15.0,15.0,3900
2018-08-10,14.859999656677246,15.239999771118164,14.760000228881836,14.850000381469727,14.850000381469727,8800
2018-08-13,14.800000190734863,14.84000015258789,14.760000228881836,14.760000228881836,14.760000228881836,2500
2018-08-14,14.760000228881836,14.899999618530273,14.760000228881836,14.84000015258789,14.84000015258789,12400
2018-08-15,14.770000457763672,14.770000457763672,14.65999984741211,14.680000305175781,14.680000305175781,7300
2018-08-16,14.729999542236328,14.890000343322754,14.710000038146973,14.829999923706055,14.829999923706055,4500
2018-08-17,14.729999542236328,14.930000305175781,14.729999542236328,14.800000190734863,14.800000190734863,6700
2018-08-20,14.75,14.789999961853027,14.75,14.789999961853027,14.789999961853027,7900
2018-08-21,14.800000190734863,14.930000305175781,14.699999809265137,14.699999809265137,14.699999809265137,3500
2018-08-22,14.710000038146973,15.109999656677246,14.710000038146973,15.010000228881836,15.010000228881836,9100
2018-08-23,15.149999618530273,15.149999618530273,14.739999771118164,14.9399995803833,14.9399995803833,4800
2018-08-24,14.890000343322754,15.140000343322754,14.890000343322754,14.989999771118164,14.989999771118164,7300
2018-08-27,15.029999732971191,15.0600004196167,14.949999809265137,15.010000228881836,15.010000228881836,7400
2018-08-28,15.0600004196167,15.0600004196167,14.789999961853027,14.800000190734863,14.800000190734863,3600
2018-08-29,14.829999923706055,14.9399995803833,14.75,14.84000015258789,14.84000015258789,4500
2018-08-30,14.819999694824219,14.899999618530273,14.680000305175781,14.760000228881836,14.760000228881836,5900
2018-08-31,14.800000190734863,14.899999618530273,14.6899995803833,14.84000015258789,14.84000015258789,6500
2018-09-04,14.699999809265137,14.850000381469727,14.680000305175781,14.75,14.75,3600
2018-09-05,14.680000305175781,14.800000190734863,14.649999618530273,14.739999771118164,14.739999771118164,17800
2018-09-06,14.779999732971191,14.779999732971191,14.579999923706055,14.579999923706055,14.579999923706055,1200
2018-09-07,14.699999809265137,14.800000190734863,14.640000343322754,14.649999618530273,14.649999618530273,3000
2018-09-10,14.600000381469727,14.770000457763672,14.600000381469727,14.75,14.75,3000
2018-09-11,14.710000038146973,14.899999618530273,14.699999809265137,14.760000228881836,14.760000228881836,8500
2018-09-12,14.770000457763672,15.0600004196167,14.770000457763672,14.970000267028809,14.970000267028809,17800
2018-09-13,15.0,15.0,14.729999542236328,14.869999885559082,14.869999885559082,4700
2018-09-14,14.8100004196167,14.979999542236328,14.729999542236328,14.899999618530273,14.899999618530273,5000
2018-09-17,14.899999618530273,14.970000267028809,14.829999923706055,14.829999923706055,14.829999923706055,4300
2018-09-18,14.739999771118164,14.890000343322754,14.579999923706055,14.630000114440918,14.630000114440918,7200
2018-09-19,14.8100004196167,14.8100004196167,14.569999694824219,14.609999656677246,14.609999656677246,5900
2018-09-20,14.609999656677246,14.829999923706055,14.59000015258789,14.729999542236328,14.729999542236328,6200
2018-09-21,14.699999809265137,14.989999771118164,14.670000076293945,14.979999542236328,14.979999542236328,34100
2018-09-24,14.989999771118164,15.020000457763672,14.800000190734863,14.800000190734863,14.800000190734863,6500
2018-09-25,15.020000457763672,15.130000114440918,15.0,15.09000015258789,15.09000015258789,10100
2018-09-26,15.140000343322754,15.140000343322754,15.020000457763672,15.109999656677246,15.109999656677246,10700
2018-09-27,15.109999656677246,15.180000305175781,15.109999656677246,15.170000076293945,15.170000076293945,6600
2018-09-28,15.09000015258789,15.180000305175781,15.09000015258789,15.109999656677246,15.109999656677246,3300
2018-10-01,15.0,15.0,14.210000038146973,14.25,14.25,17400
2018-10-02,14.300000190734863,14.390000343322754,13.710000038146973,13.760000228881836,13.760000228881836,24500
2018-10-03,13.920000076293945,14.210000038146973,13.800000190734863,14.199999809265137,14.199999809265137,13000
2018-10-04,14.100000381469727,14.180000305175781,14.100000381469727,14.149999618530273,14.149999618530273,22300
2018-10-05,14.149999618530273,14.170000076293945,14.010000228881836,14.010000228881836,14.010000228881836,16300
2018-10-08,14.0,14.020000457763672,13.819999694824219,13.819999694824219,13.819999694824219,15900
2018-10-09,13.819999694824219,13.989999771118164,13.680000305175781,13.680000305175781,13.680000305175781,19300
2018-10-10,13.75,13.890000343322754,13.5,13.5,13.5,49300
2018-10-11,13.40999984741211,13.5,13.15999984741211,13.25,13.25,36500
2018-10-12,13.289999961853027,13.59000015258789,13.25,13.5,13.5,28100
2018-10-15,13.510000228881836,13.9399995803833,13.5,13.5,13.5,22600
2018-10-16,13.619999885559082,13.899999618530273,13.600000381469727,13.680000305175781,13.680000305175781,5900
2018-10-17,13.699999809265137,13.789999961853027,13.579999923706055,13.619999885559082,13.619999885559082,7400
2018-10-18,13.609999656677246,13.760000228881836,13.550000190734863,13.579999923706055,13.579999923706055,10600
2018-10-19,13.489999771118164,13.789999961853027,13.489999771118164,13.5,13.5,11400
2018-10-22,13.449999809265137,13.609999656677246,13.430000305175781,13.5600004196167,13.5600004196167,14100
2018-10-23,13.4399995803833,13.649999618530273,13.4399995803833,13.550000190734863,13.550000190734863,11300
2018-10-24,13.550000190734863,13.579999923706055,13.399999618530273,13.489999771118164,13.489999771118164,20600
2018-10-25,13.680000305175781,13.680000305175781,13.520000457763672,13.600000381469727,13.600000381469727,9100
2018-10-26,13.470000267028809,13.630000114440918,13.350000381469727,13.449999809265137,13.449999809265137,12400
2018-10-29,13.579999923706055,13.579999923706055,13.399999618530273,13.550000190734863,13.550000190734863,26100
2018-10-30,13.579999923706055,13.619999885559082,13.529999732971191,13.579999923706055,13.579999923706055,6600
2018-10-31,13.600000381469727,13.770000457763672,13.5,13.710000038146973,13.710000038146973,14100
2018-11-01,13.819999694824219,13.819999694824219,13.539999961853027,13.670000076293945,13.670000076293945,13200
2018-11-02,13.65999984741211,13.699999809265137,13.5600004196167,13.600000381469727,13.600000381469727,7800
2018-11-05,13.529999732971191,13.670000076293945,13.5,13.600000381469727,13.600000381469727,23600
2018-11-06,13.699999809265137,13.699999809265137,13.550000190734863,13.5600004196167,13.5600004196167,19600
2018-11-07,13.6899995803833,13.699999809265137,13.539999961853027,13.649999618530273,13.649999618530273,12800
2018-11-08,13.640000343322754,14.0,13.550000190734863,13.989999771118164,13.989999771118164,19800
2018-11-09,14.0,14.0,13.800000190734863,13.850000381469727,13.850000381469727,24300
2018-11-12,13.859999656677246,13.899999618530273,13.65999984741211,13.850000381469727,13.850000381469727,14500
2018-11-13,13.850000381469727,13.899999618530273,13.75,13.75,13.75,13100
2018-11-14,13.829999923706055,13.829999923706055,13.5,13.649999618530273,13.649999618530273,17100
2018-11-15,13.779999732971191,13.899999618530273,13.600000381469727,13.699999809265137,13.699999809265137,20700
2018-11-16,13.640000343322754,13.880000114440918,13.260000228881836,13.430000305175781,13.430000305175781,25100
2018-11-19,13.649999618530273,13.649999618530273,13.279999732971191,13.279999732971191,13.279999732971191,7700
2018-11-20,13.350000381469727,13.350000381469727,12.59000015258789,12.640000343322754,12.640000343322754,33900
2018-11-21,12.579999923706055,13.359999656677246,12.539999961853027,13.199999809265137,13.199999809265137,15400
2018-11-23,12.979999542236328,13.1899995803833,12.979999542236328,13.1899995803833,13.1899995803833,5600
2018-11-26,13.199999809265137,13.199999809265137,12.770000457763672,13.180000305175781,13.180000305175781,6800
2018-11-27,13.0,13.119999885559082,12.819999694824219,13.0600004196167,13.0600004196167,13200
2018-11-28,13.050000190734863,13.210000038146973,13.010000228881836,13.199999809265137,13.199999809265137,16800
2018-11-29,13.140000343322754,13.199999809265137,13.050000190734863,13.09000015258789,13.09000015258789,15800
2018-11-30,13.119999885559082,13.25,13.100000381469727,13.140000343322754,13.140000343322754,13400
2018-12-03,13.130000114440918,13.229999542236328,13.09000015258789,13.1899995803833,13.1899995803833,9500
2018-12-04,13.1899995803833,13.1899995803833,12.739999771118164,12.770000457763672,12.770000457763672,18900
2018-12-06,12.6899995803833,12.960000038146973,12.609999656677246,12.739999771118164,12.739999771118164,8900
2018-12-07,12.75,13.050000190734863,12.510000228881836,12.84000015258789,12.84000015258789,19200
2018-12-10,12.84000015258789,12.880000114440918,12.649999618530273,12.859999656677246,12.859999656677246,3800
2018-12-11,12.979999542236328,12.979999542236328,12.600000381469727,12.739999771118164,12.739999771118164,11900
2018-12-12,12.859999656677246,12.979999542236328,12.600000381469727,12.880000114440918,12.880000114440918,5400
2018-12-13,12.890000343322754,13.0,12.670000076293945,12.670000076293945,12.670000076293945,7200
2018-12-14,12.720000267028809,12.720000267028809,12.600000381469727,12.619999885559082,12.619999885559082,13600
2018-12-17,12.649999618530273,13.149999618530273,12.649999618530273,13.0,13.0,46700
2018-12-18,13.0,13.239999771118164,12.949999809265137,13.100000381469727,13.100000381469727,20600
2018-12-19,13.050000190734863,13.180000305175781,12.819999694824219,12.899999618530273,12.899999618530273,27400
2018-12-20,12.899999618530273,13.180000305175781,12.899999618530273,13.0,13.0,81300
2018-12-21,13.010000228881836,13.170000076293945,12.8100004196167,12.979999542236328,12.979999542236328,58600
2018-12-24,12.989999771118164,13.039999961853027,12.720000267028809,12.800000190734863,12.800000190734863,8000
2018-12-26,12.9399995803833,13.010000228881836,12.680000305175781,12.930000305175781,12.930000305175781,18600
2018-12-27,12.829999923706055,12.90999984741211,12.619999885559082,12.899999618530273,12.899999618530273,19400
2018-12-28,12.829999923706055,12.949999809265137,12.600000381469727,12.649999618530273,12.649999618530273,26500
2018-12-31,12.8100004196167,12.930000305175781,12.670000076293945,12.739999771118164,12.739999771118164,20800
2019-01-02,12.739999771118164,12.739999771118164,12.529999732971191,12.729999542236328,12.729999542236328,16900
2019-01-03,12.640000343322754,12.710000038146973,12.470000267028809,12.529999732971191,12.529999732971191,20700
2019-01-04,12.600000381469727,12.979999542236328,12.489999771118164,12.920000076293945,12.920000076293945,14600
2019-01-07,13.010000228881836,13.029999732971191,12.869999885559082,13.029999732971191,13.029999732971191,25300
2019-01-08,13.069999694824219,13.079999923706055,12.789999961853027,13.069999694824219,13.069999694824219,24300
2019-01-09,12.869999885559082,12.9399995803833,12.520000457763672,12.819999694824219,12.819999694824219,33500
2019-01-10,12.739999771118164,12.760000228881836,12.600000381469727,12.65999984741211,12.65999984741211,21200
2019-01-11,12.609999656677246,12.75,12.529999732971191,12.640000343322754,12.640000343322754,12800
2019-01-14,12.579999923706055,12.640000343322754,12.420000076293945,12.539999961853027,12.539999961853027,30100
2019-01-15,12.539999961853027,12.640000343322754,12.5,12.640000343322754,12.640000343322754,9300
2019-01-16,12.640000343322754,12.640000343322754,12.5,12.630000114440918,12.630000114440918,16500
2019-01-17,12.699999809265137,12.960000038146973,12.699999809265137,12.899999618530273,12.899999618530273,20500
2019-01-18,12.890000343322754,12.949999809265137,12.649999618530273,12.710000038146973,12.710000038146973,16500
2019-01-22,12.59000015258789,12.90999984741211,12.59000015258789,12.75,12.75,20000
2019-01-23,12.789999961853027,12.899999618530273,12.670000076293945,12.75,12.75,7900
2019-01-24,12.720000267028809,12.869999885559082,12.720000267028809,12.869999885559082,12.869999885559082,10500
2019-01-25,12.949999809265137,12.949999809265137,12.800000190734863,12.930000305175781,12.930000305175781,6000
2019-01-28,12.800000190734863,12.9399995803833,12.800000190734863,12.850000381469727,12.850000381469727,9000
2019-01-29,12.880000114440918,12.930000305175781,12.739999771118164,12.760000228881836,12.760000228881836,9800
2019-01-30,12.729999542236328,12.989999771118164,12.729999542236328,12.979999542236328,12.979999542236328,8800
2019-01-31,12.859999656677246,12.949999809265137,12.859999656677246,12.930000305175781,12.930000305175781,10500
2019-02-01,12.970000267028809,12.989999771118164,12.770000457763672,12.850000381469727,12.850000381469727,13000
2019-02-04,12.859999656677246,12.859999656677246,12.670000076293945,12.6899995803833,12.6899995803833,30000
2019-02-05,12.779999732971191,12.800000190734863,12.699999809265137,12.710000038146973,12.710000038146973,14700
2019-02-06,12.75,12.75,12.65999984741211,12.680000305175781,12.680000305175781,3800
2019-02-07,12.699999809265137,12.890000343322754,12.619999885559082,12.640000343322754,12.640000343322754,17500
2019-02-08,12.640000343322754,12.819999694824219,12.619999885559082,12.630000114440918,12.630000114440918,2700
2019-02-11,12.680000305175781,12.819999694824219,12.640000343322754,12.739999771118164,12.739999771118164,12100
2019-02-12,12.800000190734863,12.989999771118164,12.800000190734863,12.949999809265137,12.949999809265137,12300
2019-02-13,12.949999809265137,13.0,12.9399995803833,13.0,13.0,15600
2019-02-14,13.09000015258789,13.09000015258789,12.920000076293945,12.920000076293945,12.920000076293945,12700
2019-02-15,12.979999542236328,13.100000381469727,12.949999809265137,12.949999809265137,12.949999809265137,18400
2019-02-19,13.0,13.100000381469727,13.0,13.09000015258789,13.09000015258789,7400
2019-02-20,13.100000381469727,13.170000076293945,13.0600004196167,13.069999694824219,13.069999694824219,11700
2019-02-21,12.979999542236328,13.140000343322754,12.970000267028809,13.140000343322754,13.140000343322754,15100
2019-02-22,13.149999618530273,13.199999809265137,13.079999923706055,13.15999984741211,13.15999984741211,17900
2019-02-25,13.199999809265137,13.199999809265137,13.09000015258789,13.09000015258789,13.09000015258789,10200
2019-02-26,13.100000381469727,13.199999809265137,13.100000381469727,13.119999885559082,13.119999885559082,5900
2019-02-27,13.149999618530273,13.180000305175781,13.050000190734863,13.119999885559082,13.119999885559082,24400
2019-02-28,13.010000228881836,13.180000305175781,13.010000228881836,13.09000015258789,13.09000015258789,9700
2019-03-01,13.050000190734863,13.199999809265137,13.050000190734863,13.180000305175781,13.180000305175781,6700
2019-03-04,13.130000114440918,13.239999771118164,13.100000381469727,13.109999656677246,13.109999656677246,8500
2019-03-05,13.100000381469727,13.199999809265137,13.020000457763672,13.020000457763672,13.020000457763672,18400
2019-03-06,13.100000381469727,13.180000305175781,12.90999984741211,12.979999542236328,12.979999542236328,27500
2019-03-07,12.960000038146973,13.010000228881836,12.899999618530273,12.960000038146973,12.960000038146973,7400
2019-03-08,12.90999984741211,13.039999961853027,12.90999984741211,12.970000267028809,12.970000267028809,14900
2019-03-11,12.949999809265137,13.079999923706055,12.920000076293945,13.079999923706055,13.079999923706055,24200
2019-03-12,13.119999885559082,13.149999618530273,12.880000114440918,13.149999618530273,13.149999618530273,45500
2019-03-13,13.0600004196167,13.25,13.0600004196167,13.25,13.25,18600
2019-03-14,13.170000076293945,13.300000190734863,13.170000076293945,13.239999771118164,13.239999771118164,6500
2019-03-15,13.270000457763672,13.800000190734863,13.130000114440918,13.800000190734863,13.800000190734863,73600
2019-03-18,13.75,13.899999618530273,13.710000038146973,13.819999694824219,13.819999694824219,20200
2019-03-19,13.779999732971191,13.850000381469727,13.550000190734863,13.619999885559082,13.619999885559082,19100
2019-03-20,13.539999961853027,13.680000305175781,13.359999656677246,13.649999618530273,13.649999618530273,7000
2019-03-21,14.279999732971191,14.279999732971191,13.0600004196167,13.430000305175781,13.430000305175781,5900
2019-03-22,13.699999809265137,13.699999809265137,13.369999885559082,13.550000190734863,13.550000190734863,15300
2019-03-25,13.6899995803833,13.779999732971191,13.630000114440918,13.6899995803833,13.6899995803833,6100
2019-03-26,13.84000015258789,14.100000381469727,13.84000015258789,13.899999618530273,13.899999618530273,10700
2019-03-27,13.9399995803833,14.119999885559082,13.859999656677246,13.9399995803833,13.9399995803833,14300
2019-03-28,14.0,14.0,13.9399995803833,13.989999771118164,13.989999771118164,10500
2019-03-29,14.050000190734863,14.050000190734863,13.859999656677246,13.949999809265137,13.949999809265137,22100
2019-04-01,13.960000038146973,14.199999809265137,13.949999809265137,14.0600004196167,14.0600004196167,25600
2019-04-02,14.039999961853027,14.119999885559082,13.9399995803833,14.100000381469727,14.100000381469727,14500
2019-04-03,14.100000381469727,14.170000076293945,14.010000228881836,14.079999923706055,14.079999923706055,11900
2019-04-04,14.079999923706055,14.210000038146973,14.079999923706055,14.180000305175781,14.180000305175781,81700
2019-04-05,14.180000305175781,14.220000267028809,14.020000457763672,14.1899995803833,14.1899995803833,29300
2019-04-08,14.170000076293945,14.229999542236328,14.079999923706055,14.109999656677246,14.109999656677246,21900
2019-04-09,14.029999732971191,14.199999809265137,14.029999732971191,14.069999694824219,14.069999694824219,21900
2019-04-10,14.09000015258789,14.199999809265137,14.050000190734863,14.199999809265137,14.199999809265137,18700
2019-04-11,14.199999809265137,14.229999542236328,14.170000076293945,14.170000076293945,14.170000076293945,27900
2019-04-12,14.199999809265137,14.199999809265137,14.130000114440918,14.140000343322754,14.140000343322754,61500
2019-04-15,14.1899995803833,14.220000267028809,14.119999885559082,14.180000305175781,14.180000305175781,61800
2019-04-16,14.220000267028809,14.25,14.149999618530273,14.180000305175781,14.180000305175781,21700
2019-04-17,14.239999771118164,14.239999771118164,14.170000076293945,14.170000076293945,14.170000076293945,18800
2019-04-18,14.15999984741211,14.25,14.010000228881836,14.170000076293945,14.170000076293945,14800
2019-04-22,14.119999885559082,14.25,14.039999961853027,14.109999656677246,14.109999656677246,24000
2019-04-23,14.220000267028809,14.229999542236328,14.079999923706055,14.180000305175781,14.180000305175781,35600
2019-04-24,14.25,14.279999732971191,14.130000114440918,14.199999809265137,14.199999809265137,45000
2019-04-25,14.239999771118164,14.239999771118164,14.130000114440918,14.199999809265137,14.199999809265137,12700
2019-04-26,14.270000457763672,14.489999771118164,14.25,14.420000076293945,14.420000076293945,28200
2019-04-29,14.420000076293945,14.479999542236328,14.350000381469727,14.479999542236328,14.479999542236328,27000
2019-04-30,14.489999771118164,14.489999771118164,14.420000076293945,14.470000267028809,14.470000267028809,26700
2019-05-01,14.470000267028809,14.489999771118164,14.40999984741211,14.470000267028809,14.470000267028809,23900
2019-05-02,14.479999542236328,14.529999732971191,14.390000343322754,14.489999771118164,14.489999771118164,42700
2019-05-03,14.430000305175781,14.720000267028809,14.430000305175781,14.600000381469727,14.600000381469727,27000
2019-05-06,14.539999961853027,14.640000343322754,14.529999732971191,14.5600004196167,14.5600004196167,6500
2019-05-07,14.609999656677246,14.619999885559082,14.40999984741211,14.40999984741211,14.40999984741211,5800
2019-05-08,14.630000114440918,14.649999618530273,14.5,14.569999694824219,14.569999694824219,9500
2019-05-09,14.5600004196167,14.600000381469727,14.5,14.579999923706055,14.579999923706055,18100
2019-05-10,14.569999694824219,14.600000381469727,14.5,14.600000381469727,14.600000381469727,9200
2019-05-13,14.569999694824219,14.600000381469727,14.40999984741211,14.5,14.5,9000
2019-05-14,14.5600004196167,14.5600004196167,14.5,14.550000190734863,14.550000190734863,6200
2019-05-15,14.539999961853027,14.550000190734863,14.460000038146973,14.539999961853027,14.539999961853027,11600
2019-05-16,14.510000228881836,14.550000190734863,14.350000381469727,14.489999771118164,14.489999771118164,12800
2019-05-17,14.40999984741211,14.40999984741211,14.229999542236328,14.260000228881836,14.260000228881836,7800
2019-05-20,14.279999732971191,14.359999656677246,14.199999809265137,14.229999542236328,14.229999542236328,6800
2019-05-21,14.350000381469727,14.350000381469727,14.199999809265137,14.289999961853027,14.289999961853027,122500
2019-05-22,14.289999961853027,14.319999694824219,14.09000015258789,14.09000015258789,14.09000015258789,13900
2019-05-23,14.050000190734863,14.170000076293945,13.90999984741211,13.90999984741211,13.90999984741211,149100
2019-05-24,13.920000076293945,14.25,13.920000076293945,14.239999771118164,14.239999771118164,10300
2019-05-28,14.1899995803833,14.399999618530273,14.1899995803833,14.210000038146973,14.210000038146973,15800
2019-05-29,14.199999809265137,14.3100004196167,14.050000190734863,14.0600004196167,14.0600004196167,12400
2019-05-30,14.149999618530273,14.3100004196167,13.630000114440918,13.899999618530273,13.899999618530273,36400
2019-05-31,13.84000015258789,14.09000015258789,13.84000015258789,14.079999923706055,14.079999923706055,10500
2019-06-03,13.989999771118164,14.220000267028809,13.989999771118164,14.1899995803833,14.1899995803833,15100
2019-06-04,14.220000267028809,14.25,13.930000305175781,14.130000114440918,14.130000114440918,25000
2019-06-05,14.289999961853027,14.289999961853027,13.989999771118164,13.989999771118164,13.989999771118164,10400
2019-06-06,13.84000015258789,14.270000457763672,13.84000015258789,14.119999885559082,14.119999885559082,4700
2019-06-07,14.1899995803833,14.220000267028809,13.850000381469727,13.890000343322754,13.890000343322754,32600
2019-06-10,13.880000114440918,14.149999618530273,13.880000114440918,14.130000114440918,14.130000114440918,12100
2019-06-11,13.90999984741211,14.109999656677246,13.90999984741211,14.020000457763672,14.020000457763672,10900
2019-06-12,14.119999885559082,14.25,14.010000228881836,14.140000343322754,14.140000343322754,11100
2019-06-13,14.149999618530273,14.180000305175781,14.0,14.170000076293945,14.170000076293945,10700
2019-06-14,14.050000190734863,14.180000305175781,13.760000228881836,14.010000228881836,14.010000228881836,15800
2019-06-17,13.979999542236328,14.220000267028809,13.899999618530273,14.079999923706055,14.079999923706055,4800
2019-06-18,14.050000190734863,14.210000038146973,14.0,14.020000457763672,14.020000457763672,9700
2019-06-19,13.890000343322754,14.100000381469727,13.890000343322754,13.9399995803833,13.9399995803833,6100
2019-06-20,14.020000457763672,14.020000457763672,13.890000343322754,13.890000343322754,13.890000343322754,7400
2019-06-21,13.8100004196167,14.130000114440918,13.800000190734863,14.069999694824219,14.069999694824219,39200
2019-06-24,14.220000267028809,14.220000267028809,13.890000343322754,13.90999984741211,13.90999984741211,26800
2019-06-25,13.920000076293945,14.25,13.920000076293945,14.0,14.0,11300
2019-06-26,14.0600004196167,14.289999961853027,14.0600004196167,14.170000076293945,14.170000076293945,8500
2019-06-27,14.199999809265137,14.260000228881836,14.0,14.149999618530273,14.149999618530273,32000
2019-06-28,14.130000114440918,14.289999961853027,14.069999694824219,14.289999961853027,14.289999961853027,84600
2019-07-01,14.289999961853027,14.390000343322754,14.0,14.210000038146973,14.210000038146973,19400
2019-07-02,14.09000015258789,14.300000190734863,14.09000015258789,14.289999961853027,14.289999961853027,8400
2019-07-03,14.239999771118164,14.239999771118164,14.239999771118164,14.239999771118164,14.239999771118164,1700
2019-07-05,14.210000038146973,14.300000190734863,14.130000114440918,14.180000305175781,14.180000305175781,9200
2019-07-08,14.25,14.350000381469727,14.15999984741211,14.15999984741211,14.15999984741211,12300
2019-07-09,14.199999809265137,14.420000076293945,14.09000015258789,14.390000343322754,14.390000343322754,8900
2019-07-10,14.359999656677246,14.449999809265137,14.180000305175781,14.430000305175781,14.430000305175781,13600
2019-07-11,14.420000076293945,14.449999809265137,14.239999771118164,14.4399995803833,14.4399995803833,18700
2019-07-12,14.420000076293945,14.489999771118164,14.300000190734863,14.319999694824219,14.319999694824219,23400
2019-07-15,14.289999961853027,14.300000190734863,13.989999771118164,14.300000190734863,14.300000190734863,12900
2019-07-16,14.260000228881836,14.300000190734863,14.140000343322754,14.289999961853027,14.289999961853027,7600
2019-07-17,14.0600004196167,14.279999732971191,14.0600004196167,14.170000076293945,14.170000076293945,20900
2019-07-18,14.239999771118164,14.25,14.0,14.140000343322754,14.140000343322754,10000
2019-07-19,14.069999694824219,14.25,14.069999694824219,14.1899995803833,14.1899995803833,13800
2019-07-22,14.229999542236328,14.25,14.109999656677246,14.109999656677246,14.109999656677246,18200
2019-07-23,14.220000267028809,14.329999923706055,14.029999732971191,14.09000015258789,14.09000015258789,8500
2019-07-24,14.180000305175781,14.380000114440918,14.180000305175781,14.34000015258789,14.34000015258789,8300
2019-07-25,14.279999732971191,14.350000381469727,14.260000228881836,14.260000228881836,14.260000228881836,7600
2019-07-26,14.319999694824219,14.510000228881836,14.319999694824219,14.399999618530273,14.399999618530273,17400
2019-07-29,14.5,14.5,14.270000457763672,14.270000457763672,14.270000457763672,8000
2019-07-30,13.979999542236328,14.479999542236328,13.979999542236328,14.260000228881836,14.260000228881836,23600
2019-07-31,14.1899995803833,14.550000190734863,14.1899995803833,14.380000114440918,14.380000114440918,15900
2019-08-01,14.40999984741211,14.520000457763672,14.220000267028809,14.369999885559082,14.369999885559082,9700
2019-08-02,14.399999618530273,14.479999542236328,14.180000305175781,14.3100004196167,14.3100004196167,3000
2019-08-05,14.0600004196167,14.5,14.050000190734863,14.050000190734863,14.050000190734863,4900
2019-08-06,14.130000114440918,14.289999961853027,13.859999656677246,13.859999656677246,13.859999656677246,12700
2019-08-07,13.930000305175781,14.09000015258789,13.699999809265137,13.710000038146973,13.710000038146973,18400
2019-08-08,13.890000343322754,14.229999542236328,13.880000114440918,13.90999984741211,13.90999984741211,10700
2019-08-09,14.010000228881836,14.170000076293945,13.890000343322754,13.890000343322754,13.890000343322754,8300
2019-08-12,13.899999618530273,14.140000343322754,13.760000228881836,13.779999732971191,13.779999732971191,19400
2019-08-13,13.710000038146973,14.100000381469727,13.710000038146973,13.979999542236328,13.979999542236328,22000
2019-08-14,13.9399995803833,14.100000381469727,13.869999885559082,13.880000114440918,13.880000114440918,8900
2019-08-15,14.100000381469727,14.170000076293945,13.920000076293945,13.920000076293945,13.920000076293945,6100
2019-08-16,14.010000228881836,14.319999694824219,13.979999542236328,14.149999618530273,14.149999618530273,11500
2019-08-19,14.1899995803833,14.449999809265137,13.760000228881836,14.289999961853027,14.289999961853027,122000
2019-08-20,14.289999961853027,14.369999885559082,13.970000267028809,14.1899995803833,14.1899995803833,9000
2019-08-21,14.390000343322754,14.5,14.210000038146973,14.239999771118164,14.239999771118164,8100
2019-08-22,14.399999618530273,14.399999618530273,14.170000076293945,14.199999809265137,14.199999809265137,10700
2019-08-23,14.0600004196167,14.0600004196167,13.779999732971191,13.859999656677246,13.859999656677246,14600
2019-08-26,13.989999771118164,14.199999809265137,13.989999771118164,14.170000076293945,14.170000076293945,11900
2019-08-27,14.1899995803833,14.1899995803833,13.850000381469727,13.850000381469727,13.850000381469727,9300
2019-08-28,13.850000381469727,14.140000343322754,13.850000381469727,14.069999694824219,14.069999694824219,7000
2019-08-29,14.09000015258789,14.1899995803833,13.949999809265137,13.949999809265137,13.949999809265137,6700
2019-08-30,13.960000038146973,14.029999732971191,13.949999809265137,13.989999771118164,13.989999771118164,32800
2019-09-03,13.989999771118164,13.989999771118164,13.800000190734863,13.800000190734863,13.800000190734863,27200
2019-09-04,13.949999809265137,13.970000267028809,13.800000190734863,13.8100004196167,13.8100004196167,8100
2019-09-05,14.069999694824219,14.199999809265137,13.90999984741211,13.90999984741211,13.90999984741211,12800
2019-09-06,14.029999732971191,14.079999923706055,13.8100004196167,13.930000305175781,13.930000305175781,6400
2019-09-09,14.010000228881836,14.199999809265137,13.949999809265137,14.149999618530273,14.149999618530273,14700
2019-09-10,14.149999618530273,14.25,14.149999618530273,14.210000038146973,14.210000038146973,12500
2019-09-11,14.239999771118164,14.4399995803833,14.029999732971191,14.369999885559082,14.369999885559082,25100
2019-09-12,14.34000015258789,14.479999542236328,14.270000457763672,14.460000038146973,14.460000038146973,28200
2019-09-13,14.489999771118164,14.550000190734863,14.3100004196167,14.430000305175781,14.430000305175781,14600
2019-09-16,14.399999618530273,14.529999732971191,14.380000114440918,14.4399995803833,14.4399995803833,81900
2019-09-17,14.470000267028809,14.649999618530273,14.319999694824219,14.630000114440918,14.630000114440918,14700
2019-09-18,14.640000343322754,14.649999618530273,14.520000457763672,14.600000381469727,14.600000381469727,11100
2019-09-19,14.59000015258789,14.640000343322754,14.449999809265137,14.470000267028809,14.470000267028809,15400
2019-09-20,14.4399995803833,14.710000038146973,14.4399995803833,14.710000038146973,14.710000038146973,53200
2019-09-23,14.6899995803833,14.699999809265137,14.5,14.569999694824219,14.569999694824219,11000
2019-09-24,14.420000076293945,14.4399995803833,14.050000190734863,14.239999771118164,14.239999771118164,24700
2019-09-25,14.479999542236328,14.510000228881836,14.210000038146973,14.260000228881836,14.260000228881836,6300
2019-09-26,14.210000038146973,14.420000076293945,14.15999984741211,14.15999984741211,14.15999984741211,4800
2019-09-27,14.0600004196167,14.399999618530273,14.0600004196167,14.239999771118164,14.239999771118164,5900
2019-09-30,14.4399995803833,14.4399995803833,13.949999809265137,14.0600004196167,14.0600004196167,12300
2019-10-01,14.279999732971191,14.40999984741211,14.119999885559082,14.119999885559082,14.119999885559082,3700
2019-10-02,14.130000114440918,14.220000267028809,13.819999694824219,13.90999984741211,13.90999984741211,7000
2019-10-03,14.210000038146973,14.210000038146973,14.210000038146973,14.210000038146973,14.210000038146973,1000
2019-10-04,14.130000114440918,14.130000114440918,13.760000228881836,13.800000190734863,13.800000190734863,5900
2019-10-07,13.84000015258789,13.979999542236328,13.789999961853027,13.899999618530273,13.899999618530273,21100
2019-10-08,13.9399995803833,14.199999809265137,13.729999542236328,13.729999542236328,13.729999542236328,6500
2019-10-09,13.859999656677246,13.979999542236328,13.699999809265137,13.760000228881836,13.760000228881836,4200
2019-10-10,13.829999923706055,13.979999542236328,13.779999732971191,13.779999732971191,13.779999732971191,4500
2019-10-11,13.880000114440918,13.989999771118164,13.640000343322754,13.729999542236328,13.729999542236328,17500
2019-10-14,13.890000343322754,13.960000038146973,13.890000343322754,13.960000038146973,13.960000038146973,1600
2019-10-15,13.720000267028809,14.029999732971191,13.699999809265137,14.029999732971191,14.029999732971191,2300
2019-10-16,13.789999961853027,13.789999961853027,13.789999961853027,13.789999961853027,13.789999961853027,900
2019-10-17,13.869999885559082,14.0,13.829999923706055,14.0,14.0,3700
2019-10-18,13.859999656677246,14.109999656677246,13.760000228881836,14.109999656677246,14.109999656677246,3300
2019-10-21,14.170000076293945,14.180000305175781,13.850000381469727,14.100000381469727,14.100000381469727,12600
2019-10-22,14.069999694824219,14.069999694824219,13.819999694824219,13.819999694824219,13.819999694824219,1300
2019-10-23,13.819999694824219,13.979999542236328,13.710000038146973,13.710000038146973,13.710000038146973,4200
2019-10-24,13.930000305175781,14.0,13.710000038146973,14.0,14.0,2700
2019-10-25,13.819999694824219,14.069999694824219,13.75,13.9399995803833,13.9399995803833,46100
2019-10-28,13.930000305175781,14.09000015258789,13.800000190734863,13.800000190734863,13.800000190734863,5200
2019-10-29,13.710000038146973,14.020000457763672,13.710000038146973,13.890000343322754,13.890000343322754,4700
2019-10-30,14.0,14.0,13.960000038146973,14.0,14.0,4800
2019-10-31,13.920000076293945,14.029999732971191,13.630000114440918,14.029999732971191,14.029999732971191,26700
2019-11-01,14.0,14.0,13.65999984741211,13.739999771118164,13.739999771118164,36800
2019-11-04,13.710000038146973,13.930000305175781,13.680000305175781,13.90999984741211,13.90999984741211,5600
2019-11-05,13.760000228881836,13.899999618530273,13.760000228881836,13.899999618530273,13.899999618530273,7800
2019-11-06,13.90999984741211,13.930000305175781,13.8100004196167,13.8100004196167,13.8100004196167,2000
2019-11-07,13.770000457763672,13.949999809265137,13.760000228881836,13.8100004196167,13.8100004196167,5400
2019-11-08,13.800000190734863,13.9399995803833,13.800000190734863,13.850000381469727,13.850000381469727,3900
2019-11-11,13.850000381469727,14.0,13.789999961853027,14.0,14.0,2500
2019-11-12,13.949999809265137,14.0,13.850000381469727,13.850000381469727,13.850000381469727,1500
2019-11-13,13.779999732971191,14.09000015258789,13.739999771118164,14.09000015258789,14.09000015258789,21900
2019-11-14,14.010000228881836,14.180000305175781,14.010000228881836,14.079999923706055,14.079999923706055,16100
2019-11-15,14.170000076293945,14.1899995803833,14.109999656677246,14.109999656677246,14.109999656677246,8600
2019-11-18,14.15999984741211,14.220000267028809,14.050000190734863,14.109999656677246,14.109999656677246,3400
2019-11-19,14.239999771118164,14.300000190734863,14.1899995803833,14.25,14.25,18600
2019-11-20,14.229999542236328,14.5,14.010000228881836,14.010000228881836,14.010000228881836,19700
2019-11-21,14.130000114440918,14.350000381469727,14.010000228881836,14.149999618530273,14.149999618530273,4200
2019-11-22,14.020000457763672,14.319999694824219,14.020000457763672,14.15999984741211,14.15999984741211,5100
2019-11-25,14.279999732971191,14.5,14.079999923706055,14.420000076293945,14.420000076293945,11900
2019-11-26,14.289999961853027,14.6899995803833,14.289999961853027,14.510000228881836,14.510000228881836,6500
2019-11-27,14.510000228881836,14.510000228881836,14.510000228881836,14.510000228881836,14.510000228881836,900
2019-11-29,14.510000228881836,14.649999618530273,14.510000228881836,14.600000381469727,14.600000381469727,1900
2019-12-02,14.520000457763672,14.520000457763672,14.25,14.40999984741211,14.40999984741211,8800
2019-12-03,14.25,14.489999771118164,14.25,14.399999618530273,14.399999618530273,7800
2019-12-04,14.399999618530273,14.399999618530273,14.15999984741211,14.260000228881836,14.260000228881836,6300
2019-12-05,14.380000114440918,14.449999809265137,14.289999961853027,14.289999961853027,14.289999961853027,177900
2019-12-06,14.399999618530273,14.850000381469727,14.3100004196167,14.649999618530273,14.649999618530273,23900
2019-12-09,14.619999885559082,14.739999771118164,14.5,14.59000015258789,14.59000015258789,17000
2019-12-10,14.75,14.75,14.350000381469727,14.670000076293945,14.670000076293945,33800
2019-12-11,14.40999984741211,14.729999542236328,14.399999618530273,14.609999656677246,14.609999656677246,5200
2019-12-12,14.430000305175781,14.670000076293945,14.380000114440918,14.520000457763672,14.520000457763672,3000
2019-12-13,14.529999732971191,14.75,14.529999732971191,14.609999656677246,14.609999656677246,4400
2019-12-16,14.739999771118164,14.75,14.609999656677246,14.739999771118164,14.739999771118164,10800
2019-12-17,14.619999885559082,14.800000190734863,14.619999885559082,14.720000267028809,14.720000267028809,7500
2019-12-18,14.720000267028809,14.800000190734863,14.680000305175781,14.699999809265137,14.699999809265137,6100
2019-12-19,14.789999961853027,14.800000190734863,14.6899995803833,14.800000190734863,14.800000190734863,3400
2019-12-20,14.760000228881836,14.800000190734863,14.5,14.800000190734863,14.800000190734863,25000
2019-12-23,14.739999771118164,14.739999771118164,14.5,14.5,14.5,2500
2019-12-24,14.520000457763672,14.699999809265137,14.520000457763672,14.699999809265137,14.699999809265137,2200
2019-12-26,14.699999809265137,14.729999542236328,14.600000381469727,14.729999542236328,14.729999542236328,19000
2019-12-27,14.739999771118164,14.75,14.569999694824219,14.75,14.75,7100
2019-12-30,14.569999694824219,14.75,14.569999694824219,14.680000305175781,14.680000305175781,5600
2019-12-31,14.670000076293945,14.699999809265137,14.529999732971191,14.699999809265137,14.699999809265137,4500
2020-01-02,14.699999809265137,14.760000228881836,14.640000343322754,14.699999809265137,14.699999809265137,6900
2020-01-03,14.680000305175781,14.720000267028809,14.489999771118164,14.489999771118164,14.489999771118164,2700
2020-01-06,14.600000381469727,14.649999618530273,14.5600004196167,14.5600004196167,14.5600004196167,7200
2020-01-07,14.569999694824219,14.699999809265137,14.40999984741211,14.40999984741211,14.40999984741211,37100
2020-01-08,14.420000076293945,14.699999809265137,14.399999618530273,14.449999809265137,14.449999809265137,67300
2020-01-09,14.489999771118164,14.65999984741211,14.489999771118164,14.65999984741211,14.65999984741211,6100
2020-01-10,14.670000076293945,14.680000305175781,14.470000267028809,14.529999732971191,14.529999732971191,6400
2020-01-13,14.6899995803833,14.699999809265137,14.579999923706055,14.699999809265137,14.699999809265137,6000
2020-01-14,14.59000015258789,14.680000305175781,14.5600004196167,14.680000305175781,14.680000305175781,5200
2020-01-15,14.630000114440918,14.680000305175781,14.529999732971191,14.670000076293945,14.670000076293945,6000
2020-01-16,14.430000305175781,14.630000114440918,14.430000305175781,14.600000381469727,14.600000381469727,4200
2020-01-17,14.6899995803833,14.6899995803833,14.449999809265137,14.600000381469727,14.600000381469727,11400
2020-01-21,14.579999923706055,14.699999809265137,14.5,14.5,14.5,4500
2020-01-22,14.220000267028809,14.510000228881836,14.220000267028809,14.510000228881836,14.510000228881836,3100
2020-01-23,14.479999542236328,14.699999809265137,14.289999961853027,14.619999885559082,14.619999885559082,5300
2020-01-24,14.279999732971191,14.609999656677246,14.0600004196167,14.369999885559082,14.369999885559082,4700
2020-01-27,14.329999923706055,14.550000190734863,14.109999656677246,14.550000190734863,14.550000190734863,15000
2020-01-28,14.430000305175781,14.430000305175781,14.430000305175781,14.430000305175781,14.430000305175781,1000
2020-01-29,14.279999732971191,14.510000228881836,14.279999732971191,14.510000228881836,14.510000228881836,3800
2020-01-30,14.130000114440918,14.479999542236328,14.130000114440918,14.479999542236328,14.479999542236328,2400
2020-01-31,14.069999694824219,14.199999809265137,14.069999694824219,14.09000015258789,14.09000015258789,4400
2020-02-03,14.520000457763672,14.520000457763672,14.109999656677246,14.25,14.25,17400
2020-02-04,14.34000015258789,14.520000457763672,14.34000015258789,14.470000267028809,14.470000267028809,14700
2020-02-05,14.199999809265137,14.600000381469727,14.199999809265137,14.5,14.5,7000
2020-02-06,14.600000381469727,14.600000381469727,14.15999984741211,14.300000190734863,14.300000190734863,17500
2020-02-07,14.520000457763672,14.539999961853027,14.220000267028809,14.25,14.25,11400
2020-02-10,14.050000190734863,14.640000343322754,14.050000190734863,14.359999656677246,14.359999656677246,1300
2020-02-11,14.329999923706055,14.619999885559082,14.329999923706055,14.5,14.5,5200
2020-02-12,14.539999961853027,14.630000114440918,14.399999618530273,14.510000228881836,14.510000228881836,9000
2020-02-13,14.5,14.609999656677246,14.239999771118164,14.609999656677246,14.609999656677246,6000
2020-02-14,14.569999694824219,14.569999694824219,14.239999771118164,14.449999809265137,14.449999809265137,17100
2020-02-18,14.40999984741211,14.489999771118164,14.399999618530273,14.399999618530273,14.399999618530273,5200
2020-02-19,14.270000457763672,14.40999984741211,14.149999618530273,14.399999618530273,14.399999618530273,6000
2020-02-20,14.5,14.5,14.399999618530273,14.5,14.5,6500
2020-02-21,14.550000190734863,14.550000190734863,14.479999542236328,14.510000228881836,14.510000228881836,7800
2020-02-24,14.25,14.630000114440918,14.25,14.4399995803833,14.4399995803833,3300
2020-02-25,14.399999618530273,14.399999618530273,14.149999618530273,14.180000305175781,14.180000305175781,8100
2020-02-26,14.149999618530273,14.329999923706055,14.149999618530273,14.329999923706055,14.329999923706055,5700
2020-02-27,14.109999656677246,14.329999923706055,14.050000190734863,14.050000190734863,14.050000190734863,10400
2020-02-28,13.779999732971191,14.449999809265137,13.779999732971191,14.050000190734863,14.050000190734863,9600
2020-03-02,14.119999885559082,14.180000305175781,14.0,14.180000305175781,14.180000305175781,6200
2020-03-03,13.640000343322754,13.899999618530273,13.600000381469727,13.84000015258789,13.84000015258789,7300
2020-03-04,13.90999984741211,14.0,13.510000228881836,13.75,13.75,10700
2020-03-05,13.569999694824219,14.390000343322754,13.3100004196167,13.449999809265137,13.449999809265137,16400
2020-03-06,13.380000114440918,13.5,12.65999984741211,12.670000076293945,12.670000076293945,57600
2020-03-09,12.380000114440918,12.399999618530273,11.720000267028809,12.0600004196167,12.0600004196167,15900
2020-03-10,12.350000381469727,12.350000381469727,11.949999809265137,12.039999961853027,12.039999961853027,13800
2020-03-11,11.6899995803833,11.970000267028809,11.529999732971191,11.529999732971191,11.529999732971191,27300
2020-03-12,11.199999809265137,11.199999809265137,9.75,10.229999542236328,10.229999542236328,85800
2020-03-13,10.239999771118164,11.229999542236328,10.239999771118164,10.729999542236328,10.729999542236328,16900
2020-03-16,9.880000114440918,10.350000381469727,9.859999656677246,9.90999984741211,9.90999984741211,24600
2020-03-17,10.359999656677246,10.399999618530273,9.819999694824219,10.390000343322754,10.390000343322754,28900
2020-03-18,9.829999923706055,10.15999984741211,9.800000190734863,9.8100004196167,9.8100004196167,22900
2020-03-19,9.800000190734863,9.979999542236328,9.260000228881836,9.979999542236328,9.979999542236328,34800
2020-03-20,9.90999984741211,10.550000190734863,9.770000457763672,10.550000190734863,10.550000190734863,47900
2020-03-23,10.319999694824219,10.729999542236328,9.609999656677246,9.609999656677246,9.609999656677246,30300
2020-03-24,10.039999961853027,10.5,9.789999961853027,10.5,10.5,17700
2020-03-25,10.449999809265137,11.65999984741211,10.329999923706055,10.369999885559082,10.369999885559082,18500
2020-03-26,10.430000305175781,12.5,10.34000015258789,12.5,12.5,31700
2020-03-27,10.84000015258789,11.670000076293945,10.15999984741211,10.760000228881836,10.760000228881836,11000
2020-03-30,11.449999809265137,11.920000076293945,11.029999732971191,11.300000190734863,11.300000190734863,10700
2020-03-31,10.979999542236328,10.979999542236328,8.550000190734863,10.270000457763672,10.270000457763672,41400
2020-04-01,10.109999656677246,10.109999656677246,8.789999961853027,8.789999961853027,8.789999961853027,13000
2020-04-02,8.720000267028809,9.260000228881836,7.769999980926514,8.800000190734863,8.800000190734863,37200
2020-04-03,9.399999618530273,9.399999618530273,7.760000228881836,7.820000171661377,7.820000171661377,18600
2020-04-06,7.900000095367432,9.510000228881836,7.900000095367432,9.489999771118164,9.489999771118164,15800
2020-04-07,9.359999656677246,9.819999694824219,8.520000457763672,8.9399995803833,8.9399995803833,30300
2020-04-08,8.649999618530273,9.210000038146973,8.649999618530273,9.100000381469727,9.100000381469727,14100
2020-04-09,9.229999542236328,9.710000038146973,8.899999618530273,9.710000038146973,9.710000038146973,12500
2020-04-13,9.220000267028809,9.529999732971191,8.75,8.75,8.75,16200
2020-04-14,8.8100004196167,8.850000381469727,8.239999771118164,8.3100004196167,8.3100004196167,21000
2020-04-15,8.329999923706055,8.329999923706055,8.010000228881836,8.050000190734863,8.050000190734863,19500
2020-04-16,8.029999732971191,8.050000190734863,7.309999942779541,8.050000190734863,8.050000190734863,48400
2020-04-17,8.079999923706055,8.640000343322754,7.840000152587891,8.239999771118164,8.239999771118164,13300
2020-04-20,8.039999961853027,8.84000015258789,7.920000076293945,7.920000076293945,7.920000076293945,5200
2020-04-21,7.820000171661377,7.820000171661377,7.659999847412109,7.670000076293945,7.670000076293945,8000
2020-04-22,8.010000228881836,8.050000190734863,7.519999980926514,7.78000020980835,7.78000020980835,6700
2020-04-23,7.670000076293945,8.260000228881836,7.670000076293945,8.260000228881836,8.260000228881836,8500
2020-04-24,7.78000020980835,7.909999847412109,7.78000020980835,7.78000020980835,7.78000020980835,4100
2020-04-27,7.949999809265137,8.140000343322754,7.949999809265137,7.980000019073486,7.980000019073486,9300
2020-04-28,8.210000038146973,8.630000114440918,8.09000015258789,8.09000015258789,8.09000015258789,26700
2020-04-29,8.350000381469727,9.199999809265137,8.199999809265137,8.979999542236328,8.979999542236328,31000
2020-04-30,8.880000114440918,9.210000038146973,8.510000228881836,9.210000038146973,9.210000038146973,13600
2020-05-01,8.989999771118164,9.069999694824219,8.890000343322754,9.069999694824219,9.069999694824219,7400
2020-05-04,8.930000305175781,9.199999809265137,8.930000305175781,9.199999809265137,9.199999809265137,27400
2020-05-05,9.1899995803833,9.1899995803833,8.819999694824219,8.819999694824219,8.819999694824219,5300
2020-05-06,8.779999732971191,9.0,8.640000343322754,8.640000343322754,8.640000343322754,5100
2020-05-07,9.010000228881836,9.010000228881836,8.729999542236328,8.979999542236328,8.979999542236328,8100
2020-05-08,8.779999732971191,8.979999542236328,8.640000343322754,8.649999618530273,8.649999618530273,10500
2020-05-11,8.699999809265137,8.930000305175781,8.460000038146973,8.600000381469727,8.600000381469727,16100
2020-05-12,8.460000038146973,8.460000038146973,8.010000228881836,8.010000228881836,8.010000228881836,10000
2020-05-13,8.0,8.069999694824219,7.760000228881836,7.760000228881836,7.760000228881836,21000
2020-05-14,7.760000228881836,7.880000114440918,7.510000228881836,7.869999885559082,7.869999885559082,22300
2020-05-15,7.949999809265137,7.949999809265137,7.449999809265137,7.659999847412109,7.659999847412109,6500
2020-05-18,7.809999942779541,8.600000381469727,7.800000190734863,8.539999961853027,8.539999961853027,31700
2020-05-19,8.520000457763672,8.520000457763672,8.029999732971191,8.220000267028809,8.220000267028809,9800
2020-05-20,8.220000267028809,8.75,8.220000267028809,8.699999809265137,8.699999809265137,12300
2020-05-21,8.520000457763672,8.890000343322754,8.520000457763672,8.649999618530273,8.649999618530273,4300
2020-05-22,8.5600004196167,8.789999961853027,8.5600004196167,8.789999961853027,8.789999961853027,5100
2020-05-26,8.859999656677246,8.859999656677246,8.529999732971191,8.600000381469727,8.600000381469727,6900
2020-05-27,8.65999984741211,8.960000038146973,8.479999542236328,8.869999885559082,8.869999885559082,16900
2020-05-28,8.979999542236328,9.4399995803833,8.760000228881836,8.760000228881836,8.760000228881836,14500
2020-05-29,8.850000381469727,8.9399995803833,8.510000228881836,8.9399995803833,8.9399995803833,11200
2020-06-01,9.09000015258789,9.430000305175781,8.859999656677246,8.960000038146973,8.960000038146973,22100
2020-06-02,9.130000114440918,9.630000114440918,9.130000114440918,9.520000457763672,9.520000457763672,30900
2020-06-03,9.670000076293945,10.699999809265137,9.420000076293945,10.699999809265137,10.699999809265137,24600
2020-06-04,9.819999694824219,10.6899995803833,9.819999694824219,10.460000038146973,10.460000038146973,8100
2020-06-05,10.789999961853027,11.319999694824219,10.65999984741211,10.84000015258789,10.84000015258789,29300
2020-06-08,11.039999961853027,11.039999961853027,10.119999885559082,10.199999809265137,10.199999809265137,27000
2020-06-09,10.210000038146973,10.640000343322754,9.829999923706055,10.289999961853027,10.289999961853027,11000
2020-06-10,9.899999618530273,10.710000038146973,9.899999618530273,10.140000343322754,10.140000343322754,9600
2020-06-11,9.9399995803833,10.109999656677246,9.470000267028809,9.550000190734863,9.550000190734863,21600
2020-06-12,9.979999542236328,10.550000190734863,9.819999694824219,10.380000114440918,10.380000114440918,16300
2020-06-15,10.09000015258789,10.75,10.09000015258789,10.59000015258789,10.59000015258789,11900
2020-06-16,10.75,10.75,10.399999618530273,10.649999618530273,10.649999618530273,12100
2020-06-17,10.180000305175781,10.619999885559082,9.970000267028809,10.470000267028809,10.470000267028809,11000
2020-06-18,10.390000343322754,11.25,10.390000343322754,11.25,11.25,39200
2020-06-19,11.109999656677246,11.479999542236328,10.720000267028809,11.180000305175781,11.180000305175781,44000
2020-06-22,10.890000343322754,10.979999542236328,10.510000228881836,10.8100004196167,10.8100004196167,10900
2020-06-23,10.739999771118164,10.930000305175781,10.479999542236328,10.479999542236328,10.479999542236328,13500
2020-06-24,10.569999694824219,10.569999694824219,9.800000190734863,10.0,10.0,15900
2020-06-25,9.979999542236328,10.0,9.619999885559082,9.770000457763672,9.770000457763672,16600
2020-06-26,9.75,10.539999961853027,9.420000076293945,10.369999885559082,10.369999885559082,86900
2020-06-29,10.130000114440918,10.640000343322754,9.979999542236328,10.640000343322754,10.640000343322754,28200
2020-06-30,10.359999656677246,10.359999656677246,10.119999885559082,10.180000305175781,10.180000305175781,11200
2020-07-01,10.010000228881836,11.0,10.010000228881836,10.699999809265137,10.699999809265137,15200
2020-07-02,10.869999885559082,11.039999961853027,10.640000343322754,10.84000015258789,10.84000015258789,14800
2020-07-06,10.630000114440918,10.859999656677246,10.520000457763672,10.760000228881836,10.760000228881836,11300
2020-07-07,10.670000076293945,10.680000305175781,9.699999809265137,9.739999771118164,9.739999771118164,16900
2020-07-08,9.899999618530273,9.930000305175781,9.800000190734863,9.800000190734863,9.800000190734863,21100
2020-07-09,9.670000076293945,10.630000114440918,9.029999732971191,9.029999732971191,9.029999732971191,15600
2020-07-10,9.229999542236328,9.710000038146973,9.229999542236328,9.710000038146973,9.710000038146973,7100
2020-07-13,9.550000190734863,9.550000190734863,8.970000267028809,9.079999923706055,9.079999923706055,4400
2020-07-14,9.220000267028809,9.670000076293945,9.220000267028809,9.670000076293945,9.670000076293945,2400
2020-07-15,9.65999984741211,9.729999542236328,9.130000114440918,9.25,9.25,31700
2020-07-16,9.319999694824219,9.619999885559082,9.220000267028809,9.220000267028809,9.220000267028809,5500
2020-07-17,9.210000038146973,9.569999694824219,9.210000038146973,9.420000076293945,9.420000076293945,3200
2020-07-20,9.479999542236328,9.539999961853027,9.479999542236328,9.539999961853027,9.539999961853027,2800
2020-07-21,9.520000457763672,10.029999732971191,9.520000457763672,9.970000267028809,9.970000267028809,11100
2020-07-22,9.729999542236328,10.050000190734863,9.729999542236328,10.050000190734863,10.050000190734863,3800
2020-07-23,9.510000228881836,10.050000190734863,9.510000228881836,10.050000190734863,10.050000190734863,7100
2020-07-24,9.760000228881836,9.760000228881836,9.529999732971191,9.529999732971191,9.529999732971191,7300
2020-07-27,9.609999656677246,9.609999656677246,9.359999656677246,9.59000015258789,9.59000015258789,2500
2020-07-28,9.3100004196167,9.8100004196167,9.3100004196167,9.399999618530273,9.399999618530273,3900
2020-07-29,9.5600004196167,10.430000305175781,9.5600004196167,9.960000038146973,9.960000038146973,12500
2020-07-30,9.789999961853027,9.829999923706055,9.579999923706055,9.579999923706055,9.579999923706055,2200
2020-07-31,9.720000267028809,9.720000267028809,9.100000381469727,9.100000381469727,9.100000381469727,8700
2020-08-03,9.020000457763672,9.109999656677246,8.880000114440918,9.100000381469727,9.100000381469727,8800
2020-08-04,9.069999694824219,9.069999694824219,9.069999694824219,9.069999694824219,9.069999694824219,1000
2020-08-05,9.0600004196167,9.109999656677246,8.880000114440918,9.109999656677246,9.109999656677246,8500
2020-08-06,8.630000114440918,9.109999656677246,8.5,9.109999656677246,9.109999656677246,3000
2020-08-07,8.550000190734863,9.119999885559082,8.550000190734863,9.119999885559082,9.119999885559082,5600
2020-08-10,8.829999923706055,9.149999618530273,8.760000228881836,8.979999542236328,8.979999542236328,4500
2020-08-11,9.100000381469727,9.399999618530273,9.0600004196167,9.239999771118164,9.239999771118164,6700
2020-08-12,9.430000305175781,9.430000305175781,9.0,9.430000305175781,9.430000305175781,4800
2020-08-13,9.300000190734863,9.430000305175781,9.300000190734863,9.300000190734863,9.300000190734863,1600
2020-08-14,9.069999694824219,9.430000305175781,9.020000457763672,9.399999618530273,9.399999618530273,8200
2020-08-17,9.050000190734863,9.380000114440918,9.050000190734863,9.239999771118164,9.239999771118164,3700
2020-08-18,8.850000381469727,8.850000381469727,8.609999656677246,8.729999542236328,8.729999542236328,3700
2020-08-19,8.760000228881836,9.109999656677246,8.699999809265137,9.109999656677246,9.109999656677246,3400
2020-08-20,8.890000343322754,8.979999542236328,8.699999809265137,8.770000457763672,8.770000457763672,3500
2020-08-21,8.850000381469727,9.0,8.550000190734863,8.8100004196167,8.8100004196167,38800
2020-08-24,8.65999984741211,8.8100004196167,8.510000228881836,8.8100004196167,8.8100004196167,11600
2020-08-25,8.65999984741211,8.670000076293945,8.65999984741211,8.670000076293945,8.670000076293945,1000
2020-08-26,8.75,9.0,8.59000015258789,8.680000305175781,8.680000305175781,4300
2020-08-27,8.609999656677246,8.649999618530273,8.5,8.510000228881836,8.510000228881836,12500
2020-08-28,8.449999809265137,8.520000457763672,8.010000228881836,8.180000305175781,8.180000305175781,48200
2020-08-31,8.09000015258789,8.1899995803833,8.079999923706055,8.109999656677246,8.109999656677246,31000
2020-09-01,8.109999656677246,8.25,8.109999656677246,8.25,8.25,8800
2020-09-02,8.180000305175781,8.550000190734863,8.180000305175781,8.399999618530273,8.399999618530273,12000
2020-09-03,8.350000381469727,8.380000114440918,8.300000190734863,8.380000114440918,8.380000114440918,12500
2020-09-04,8.40999984741211,8.710000038146973,8.399999618530273,8.710000038146973,8.710000038146973,5400
2020-09-08,8.529999732971191,8.640000343322754,8.529999732971191,8.550000190734863,8.550000190734863,8400
2020-09-09,8.600000381469727,8.739999771118164,8.510000228881836,8.600000381469727,8.600000381469727,8600
2020-09-10,8.569999694824219,8.800000190734863,8.510000228881836,8.600000381469727,8.600000381469727,14900
2020-09-11,8.369999885559082,8.579999923706055,8.369999885559082,8.550000190734863,8.550000190734863,3400
2020-09-14,8.579999923706055,8.84000015258789,8.550000190734863,8.680000305175781,8.680000305175781,3900
2020-09-15,8.59000015258789,8.65999984741211,8.59000015258789,8.600000381469727,8.600000381469727,5200
2020-09-16,8.649999618530273,8.65999984741211,8.529999732971191,8.600000381469727,8.600000381469727,27700
2020-09-17,8.680000305175781,8.680000305175781,8.520000457763672,8.680000305175781,8.680000305175781,2300
2020-09-18,8.739999771118164,8.899999618530273,8.510000228881836,8.899999618530273,8.899999618530273,28400
2020-09-21,8.670000076293945,8.670000076293945,8.510000228881836,8.539999961853027,8.539999961853027,10600
2020-09-22,8.550000190734863,8.619999885559082,8.550000190734863,8.619999885559082,8.619999885559082,2800
2020-09-23,8.739999771118164,8.739999771118164,8.210000038146973,8.210000038146973,8.210000038146973,14300
2020-09-24,8.460000038146973,8.460000038146973,8.449999809265137,8.449999809265137,8.449999809265137,2000
2020-09-25,8.569999694824219,8.770000457763672,8.569999694824219,8.649999618530273,8.649999618530273,7700
2020-09-28,8.789999961853027,8.930000305175781,8.729999542236328,8.729999542236328,8.729999542236328,8100
2020-09-29,8.770000457763672,8.949999809265137,8.770000457763672,8.9399995803833,8.9399995803833,3700
2020-09-30,8.819999694824219,8.819999694824219,8.819999694824219,8.819999694824219,8.819999694824219,1200
2020-10-01,8.880000114440918,9.180000305175781,8.59000015258789,8.779999732971191,8.779999732971191,10700
2020-10-02,8.699999809265137,9.579999923706055,8.699999809265137,9.520000457763672,9.520000457763672,10400
2020-10-05,9.579999923706055,9.869999885559082,9.579999923706055,9.819999694824219,9.819999694824219,6500
2020-10-06,9.180000305175781,9.25,9.09000015258789,9.09000015258789,9.09000015258789,4000
2020-10-07,9.390000343322754,9.920000076293945,9.34000015258789,9.920000076293945,9.920000076293945,5000
2020-10-08,9.880000114440918,10.039999961853027,9.350000381469727,9.350000381469727,9.350000381469727,7700
2020-10-09,9.4399995803833,9.4399995803833,9.4399995803833,9.4399995803833,9.4399995803833,1000
2020-10-12,8.90999984741211,9.119999885559082,8.90999984741211,9.119999885559082,9.119999885559082,1600
2020-10-13,9.15999984741211,9.15999984741211,8.960000038146973,9.010000228881836,9.010000228881836,9100
2020-10-14,9.0,9.149999618530273,8.819999694824219,9.109999656677246,9.109999656677246,30900
2020-10-15,9.640000343322754,10.0,9.640000343322754,9.979999542236328,9.979999542236328,3100
2020-10-16,9.800000190734863,9.899999618530273,9.329999923706055,9.520000457763672,9.520000457763672,15100
2020-10-19,9.239999771118164,9.630000114440918,9.239999771118164,9.399999618530273,9.399999618530273,1300
2020-10-20,9.529999732971191,9.59000015258789,9.140000343322754,9.59000015258789,9.59000015258789,3300
2020-10-21,9.390000343322754,9.59000015258789,9.390000343322754,9.59000015258789,9.59000015258789,3900
2020-10-22,9.390000343322754,10.0,9.390000343322754,9.869999885559082,9.869999885559082,21100
2020-10-23,10.0,10.109999656677246,10.0,10.029999732971191,10.029999732971191,10700
2020-10-26,9.899999618530273,10.0,9.270000457763672,9.289999961853027,9.289999961853027,24300
2020-10-27,9.220000267028809,9.84000015258789,9.220000267028809,9.479999542236328,9.479999542236328,9300
2020-10-28,9.899999618530273,9.899999618530273,9.420000076293945,9.550000190734863,9.550000190734863,7900
2020-10-29,9.170000076293945,9.399999618530273,9.0600004196167,9.350000381469727,9.350000381469727,5800
2020-10-30,9.180000305175781,9.199999809265137,9.100000381469727,9.100000381469727,9.100000381469727,7300
2020-11-02,9.199999809265137,9.399999618530273,9.069999694824219,9.399999618530273,9.399999618530273,9800
2020-11-03,9.420000076293945,10.09000015258789,9.420000076293945,10.09000015258789,10.09000015258789,11600
2020-11-04,9.789999961853027,10.0,9.789999961853027,9.819999694824219,9.819999694824219,2900
2020-11-05,9.84000015258789,10.0,9.6899995803833,9.800000190734863,9.800000190734863,8600
2020-11-06,9.5600004196167,9.779999732971191,9.550000190734863,9.569999694824219,9.569999694824219,3900
2020-11-09,10.0,10.649999618530273,9.65999984741211,10.029999732971191,10.029999732971191,46900
2020-11-10,10.170000076293945,10.600000381469727,10.170000076293945,10.59000015258789,10.59000015258789,23900
2020-11-11,10.59000015258789,10.699999809265137,10.59000015258789,10.680000305175781,10.680000305175781,9300
2020-11-12,10.619999885559082,10.619999885559082,9.779999732971191,9.90999984741211,9.90999984741211,12200
2020-11-13,10.09000015258789,10.680000305175781,10.050000190734863,10.680000305175781,10.680000305175781,28000
2020-11-16,10.760000228881836,11.220000267028809,10.760000228881836,11.180000305175781,11.180000305175781,34300
2020-11-17,11.15999984741211,11.239999771118164,10.800000190734863,10.829999923706055,10.829999923706055,17400
2020-11-18,10.770000457763672,10.899999618530273,10.489999771118164,10.489999771118164,10.489999771118164,5500
2020-11-19,10.59000015258789,10.880000114440918,10.59000015258789,10.880000114440918,10.880000114440918,4600
2020-11-20,10.65999984741211,10.9399995803833,10.65999984741211,10.930000305175781,10.930000305175781,11000
2020-11-23,11.0,11.270000457763672,10.819999694824219,10.880000114440918,10.880000114440918,19400
2020-11-24,10.949999809265137,11.420000076293945,10.84000015258789,10.84000015258789,10.84000015258789,21700
2020-11-25,10.859999656677246,11.010000228881836,10.859999656677246,10.859999656677246,10.859999656677246,3900
2020-11-27,10.960000038146973,11.079999923706055,10.859999656677246,11.079999923706055,11.079999923706055,5200
2020-11-30,10.970000267028809,10.970000267028809,10.75,10.899999618530273,10.899999618530273,3300
2020-12-01,11.020000457763672,11.020000457763672,10.510000228881836,10.609999656677246,10.609999656677246,15700
2020-12-02,10.529999732971191,11.0,10.529999732971191,10.90999984741211,10.90999984741211,11600
2020-12-03,10.979999542236328,10.979999542236328,10.399999618530273,10.760000228881836,10.760000228881836,6400
2020-12-04,10.710000038146973,11.100000381469727,10.5,11.100000381469727,11.100000381469727,10800
2020-12-07,10.789999961853027,11.069999694824219,10.789999961853027,11.050000190734863,11.050000190734863,11700
2020-12-08,10.930000305175781,11.210000038146973,10.8100004196167,11.180000305175781,11.180000305175781,10000
2020-12-09,11.220000267028809,11.359999656677246,11.029999732971191,11.029999732971191,11.029999732971191,6400
2020-12-10,10.960000038146973,11.25,10.960000038146973,11.25,11.25,3800
2020-12-11,11.229999542236328,11.40999984741211,11.119999885559082,11.350000381469727,11.350000381469727,4100
2020-12-14,11.40999984741211,11.600000381469727,11.40999984741211,11.449999809265137,11.449999809265137,11700
2020-12-15,11.699999809265137,12.229999542236328,11.59000015258789,12.039999961853027,12.039999961853027,10400
2020-12-16,12.149999618530273,12.449999809265137,12.079999923706055,12.079999923706055,12.079999923706055,8400
2020-12-17,12.279999732971191,12.279999732971191,11.470000267028809,11.649999618530273,11.649999618530273,7500
2020-12-18,11.890000343322754,11.920000076293945,10.930000305175781,10.930000305175781,10.930000305175781,37500
2020-12-21,10.899999618530273,11.130000114440918,10.829999923706055,10.859999656677246,10.859999656677246,12900
2020-12-22,10.960000038146973,10.960000038146973,10.600000381469727,10.619999885559082,10.619999885559082,5300
2020-12-23,10.779999732971191,10.779999732971191,10.119999885559082,10.25,10.25,25600
2020-12-24,10.350000381469727,10.350000381469727,10.350000381469727,10.350000381469727,10.350000381469727,900
2020-12-28,10.550000190734863,10.6899995803833,10.380000114440918,10.380000114440918,10.380000114440918,13600
2020-12-29,10.319999694824219,10.4399995803833,10.3100004196167,10.3100004196167,10.3100004196167,5000
2020-12-30,10.390000343322754,10.579999923706055,10.319999694824219,10.579999923706055,10.579999923706055,4000
