Date,Open,High,Low,Close,Adj Close,Volume
2018-10-18,5.0,5.690000057220459,4.96999979019165,5.0,5.0,1641500
2018-10-19,5.090000152587891,5.090000152587891,5.0,5.0,5.0,215900
2018-10-22,5.0,5.130000114440918,5.0,5.0,5.0,68400
2018-10-23,5.0,5.039999961853027,5.0,5.0,5.0,50800
2018-10-24,5.010000228881836,5.059999942779541,5.0,5.039999961853027,5.039999961853027,54400
2018-10-25,5.25,5.25,5.0,5.0,5.0,35700
2018-10-26,5.0,5.079999923706055,4.800000190734863,5.0,5.0,77400
2018-10-29,5.0,5.25,5.0,5.019999980926514,5.019999980926514,194000
2018-10-30,5.079999923706055,5.389999866485596,5.059999942779541,5.360000133514404,5.360000133514404,151700
2018-10-31,5.300000190734863,6.0,5.079999923706055,5.099999904632568,5.099999904632568,137500
2018-11-01,5.349999904632568,5.349999904632568,5.0,5.159999847412109,5.159999847412109,108000
2018-11-02,5.199999809265137,5.269999980926514,5.0,5.059999942779541,5.059999942779541,92800
2018-11-05,5.079999923706055,5.25,5.0,5.090000152587891,5.090000152587891,37200
2018-11-06,5.050000190734863,5.050000190734863,5.0,5.0,5.0,12500
2018-11-07,5.019999980926514,5.110000133514404,4.809999942779541,5.110000133514404,5.110000133514404,49600
2018-11-08,5.010000228881836,5.190000057220459,5.0,5.010000228881836,5.010000228881836,33500
2018-11-09,5.0,5.03000020980835,5.0,5.010000228881836,5.010000228881836,30000
2018-11-12,5.010000228881836,5.190000057220459,4.71999979019165,4.739999771118164,4.739999771118164,24700
2018-11-13,4.809999942779541,4.900000095367432,4.03000020980835,4.090000152587891,4.090000152587891,86700
2018-11-14,4.019999980926514,4.329999923706055,3.4100000858306885,3.7100000381469727,3.7100000381469727,62700
2018-11-15,3.700000047683716,3.8499999046325684,3.049999952316284,3.240000009536743,3.240000009536743,89400
2018-11-16,3.180000066757202,3.4000000953674316,2.7899999618530273,3.1500000953674316,3.1500000953674316,24600
2018-11-19,3.109999895095825,3.190000057220459,2.8299999237060547,2.9000000953674316,2.9000000953674316,50700
2018-11-20,2.8499999046325684,3.0199999809265137,2.549999952316284,2.559999942779541,2.559999942779541,85000
2018-11-21,2.5999999046325684,2.880000114440918,2.5999999046325684,2.740000009536743,2.740000009536743,48400
2018-11-23,2.7799999713897705,3.069999933242798,2.759999990463257,3.069999933242798,3.069999933242798,7400
2018-11-26,3.0799999237060547,3.240000009536743,2.950000047683716,3.069999933242798,3.069999933242798,13400
2018-11-27,3.009999990463257,3.1700000762939453,2.8499999046325684,3.0,3.0,63600
2018-11-28,3.0299999713897705,3.069999933242798,2.880000114440918,2.9200000762939453,2.9200000762939453,61800
2018-11-29,2.9200000762939453,2.950000047683716,2.8499999046325684,2.890000104904175,2.890000104904175,46900
2018-11-30,2.8499999046325684,3.109999895095825,2.8499999046325684,2.8499999046325684,2.8499999046325684,78200
2018-12-03,2.8499999046325684,3.190000057220459,2.759999990463257,3.059999942779541,3.059999942779541,77400
2018-12-04,3.0799999237060547,3.2799999713897705,2.799999952316284,3.2799999713897705,3.2799999713897705,57600
2018-12-06,3.2799999713897705,3.9700000286102295,3.200000047683716,3.880000114440918,3.880000114440918,72000
2018-12-07,3.880000114440918,4.090000152587891,3.700000047683716,4.090000152587891,4.090000152587891,26300
2018-12-10,4.050000190734863,4.050000190734863,3.6700000762939453,3.6700000762939453,3.6700000762939453,31700
2018-12-11,3.740000009536743,3.9000000953674316,3.740000009536743,3.859999895095825,3.859999895095825,10000
2018-12-12,3.859999895095825,4.0,3.859999895095825,3.940000057220459,3.940000057220459,7000
2018-12-13,3.940000057220459,3.940000057220459,3.509999990463257,3.6500000953674316,3.6500000953674316,25300
2018-12-14,3.6600000858306885,4.349999904632568,3.6600000858306885,4.119999885559082,4.119999885559082,43300
2018-12-17,4.119999885559082,4.900000095367432,3.7200000286102295,3.75,3.75,37500
2018-12-18,3.7300000190734863,4.340000152587891,3.7300000190734863,4.110000133514404,4.110000133514404,33500
2018-12-19,4.079999923706055,4.079999923706055,3.4600000381469727,3.4600000381469727,3.4600000381469727,144300
2018-12-20,3.490000009536743,3.700000047683716,3.319999933242798,3.4800000190734863,3.4800000190734863,44100
2018-12-21,3.5,3.619999885559082,3.009999990463257,3.009999990463257,3.009999990463257,95600
2018-12-24,2.880000114440918,3.2699999809265137,2.640000104904175,3.200000047683716,3.200000047683716,14500
2018-12-26,3.2100000381469727,3.440000057220459,3.2100000381469727,3.4000000953674316,3.4000000953674316,25400
2018-12-27,3.200000047683716,3.2899999618530273,3.0999999046325684,3.0999999046325684,3.0999999046325684,38700
2018-12-28,3.140000104904175,3.25,3.009999990463257,3.049999952316284,3.049999952316284,71300
2018-12-31,3.259999990463257,3.259999990463257,3.009999990463257,3.0899999141693115,3.0899999141693115,85500
2019-01-02,3.059999942779541,3.2699999809265137,3.0299999713897705,3.140000104904175,3.140000104904175,11200
2019-01-03,3.130000114440918,3.259999990463257,3.0299999713897705,3.119999885559082,3.119999885559082,13800
2019-01-04,3.0899999141693115,3.240000009536743,3.0899999141693115,3.2300000190734863,3.2300000190734863,16400
2019-01-07,3.25,3.9700000286102295,3.25,3.509999990463257,3.509999990463257,38000
2019-01-08,3.700000047683716,3.8499999046325684,3.1700000762939453,3.5999999046325684,3.5999999046325684,10700
2019-01-09,3.5899999141693115,3.880000114440918,3.5899999141693115,3.7300000190734863,3.7300000190734863,12800
2019-01-10,3.6700000762939453,3.990000009536743,3.619999885559082,3.619999885559082,3.619999885559082,46900
2019-01-11,3.6500000953674316,3.8299999237060547,3.6500000953674316,3.75,3.75,3600
2019-01-14,3.75,3.7799999713897705,3.4200000762939453,3.490000009536743,3.490000009536743,7000
2019-01-15,3.5899999141693115,3.6700000762939453,3.5899999141693115,3.6700000762939453,3.6700000762939453,500
2019-01-16,3.700000047683716,3.75,3.299999952316284,3.75,3.75,1500
2019-01-17,3.75,3.9000000953674316,3.5,3.9000000953674316,3.9000000953674316,11500
2019-01-18,3.9700000286102295,3.9700000286102295,3.5299999713897705,3.7799999713897705,3.7799999713897705,6600
2019-01-22,3.799999952316284,3.799999952316284,3.5199999809265137,3.6500000953674316,3.6500000953674316,6800
2019-01-23,3.5799999237060547,3.6700000762939453,3.4000000953674316,3.4000000953674316,3.4000000953674316,56600
2019-01-24,3.549999952316284,3.799999952316284,3.4800000190734863,3.4800000190734863,3.4800000190734863,11100
2019-01-25,3.569999933242798,3.799999952316284,3.569999933242798,3.799999952316284,3.799999952316284,124000
2019-01-28,3.809999942779541,3.809999942779541,3.5,3.799999952316284,3.799999952316284,43800
2019-01-29,3.799999952316284,3.799999952316284,3.4800000190734863,3.700000047683716,3.700000047683716,15200
2019-01-30,3.5199999809265137,3.7300000190734863,3.5,3.549999952316284,3.549999952316284,30800
2019-01-31,3.6500000953674316,3.6500000953674316,3.299999952316284,3.299999952316284,3.299999952316284,17500
2019-02-01,3.2899999618530273,3.5,3.200000047683716,3.200000047683716,3.200000047683716,20500
2019-02-04,3.2100000381469727,3.299999952316284,3.049999952316284,3.200000047683716,3.200000047683716,16900
2019-02-05,3.2100000381469727,3.490000009536743,3.140000104904175,3.190000057220459,3.190000057220459,20700
2019-02-06,3.200000047683716,3.3299999237060547,3.0299999713897705,3.0299999713897705,3.0299999713897705,17000
2019-02-07,3.0299999713897705,3.1700000762939453,3.0299999713897705,3.119999885559082,3.119999885559082,7300
2019-02-08,3.059999942779541,3.1700000762939453,3.049999952316284,3.1700000762939453,3.1700000762939453,13800
2019-02-11,3.059999942779541,3.0999999046325684,3.0199999809265137,3.049999952316284,3.049999952316284,3600
2019-02-12,3.0899999141693115,3.140000104904175,3.0,3.0,3.0,4700
2019-02-13,3.009999990463257,3.059999942779541,2.9000000953674316,2.990000009536743,2.990000009536743,14200
2019-02-14,2.9700000286102295,3.0799999237060547,2.950000047683716,3.0,3.0,4900
2019-02-15,3.0399999618530273,3.180000066757202,3.0,3.0,3.0,6000
2019-02-19,3.059999942779541,3.1500000953674316,3.0,3.1500000953674316,3.1500000953674316,2100
2019-02-20,3.0999999046325684,3.0999999046325684,2.9800000190734863,2.9800000190734863,2.9800000190734863,4800
2019-02-21,2.9600000381469727,3.0,2.9600000381469727,3.0,3.0,900
2019-02-22,3.130000114440918,3.1500000953674316,3.009999990463257,3.069999933242798,3.069999933242798,7100
2019-02-25,3.0899999141693115,3.180000066757202,3.059999942779541,3.0999999046325684,3.0999999046325684,3500
2019-02-26,3.0,3.1700000762939453,3.0,3.049999952316284,3.049999952316284,15000
2019-02-27,3.140000104904175,3.1500000953674316,3.0999999046325684,3.1500000953674316,3.1500000953674316,8100
2019-02-28,3.200000047683716,3.200000047683716,3.1600000858306885,3.1600000858306885,3.1600000858306885,2500
2019-03-01,3.0999999046325684,3.190000057220459,3.0,3.049999952316284,3.049999952316284,35100
2019-03-04,3.109999895095825,3.1500000953674316,3.109999895095825,3.109999895095825,3.109999895095825,2100
2019-03-05,3.1600000858306885,3.1600000858306885,3.0,3.009999990463257,3.009999990463257,6000
2019-03-06,3.0799999237060547,3.180000066757202,3.0199999809265137,3.0199999809265137,3.0199999809265137,5000
2019-03-07,3.049999952316284,3.1500000953674316,3.0,3.0,3.0,10300
2019-03-08,3.009999990463257,3.009999990463257,2.7799999713897705,2.799999952316284,2.799999952316284,27700
2019-03-11,2.8499999046325684,2.9800000190734863,2.8499999046325684,2.9000000953674316,2.9000000953674316,11600
2019-03-12,2.950000047683716,2.950000047683716,2.559999942779541,2.700000047683716,2.700000047683716,40400
2019-03-13,2.7300000190734863,3.2100000381469727,2.7300000190734863,3.049999952316284,3.049999952316284,228700
2019-03-14,3.0999999046325684,3.619999885559082,3.0999999046325684,3.299999952316284,3.299999952316284,145300
2019-03-15,3.3499999046325684,3.950000047683716,3.2200000286102295,3.7200000286102295,3.7200000286102295,620300
2019-03-18,7.0,8.880000114440918,5.460000038146973,6.230000019073486,6.230000019073486,6767900
2019-03-19,5.619999885559082,6.289999961853027,5.46999979019165,6.199999809265137,6.199999809265137,697500
2019-03-20,6.099999904632568,6.289999961853027,5.75,6.230000019073486,6.230000019073486,183000
2019-03-21,6.150000095367432,6.239999771118164,5.900000095367432,6.239999771118164,6.239999771118164,138900
2019-03-22,6.139999866485596,6.800000190734863,6.119999885559082,6.75,6.75,187100
2019-03-25,6.75,6.949999809265137,6.289999961853027,6.849999904632568,6.849999904632568,173100
2019-03-26,6.849999904632568,9.170000076293945,6.849999904632568,9.100000381469727,9.100000381469727,448800
2019-03-27,7.900000095367432,8.630000114440918,7.860000133514404,8.420000076293945,8.420000076293945,268600
2019-03-28,8.0600004196167,8.819999694824219,8.029999732971191,8.65999984741211,8.65999984741211,83300
2019-03-29,8.65999984741211,9.600000381469727,8.649999618530273,9.510000228881836,9.510000228881836,167900
2019-04-01,9.579999923706055,13.399999618530273,9.579999923706055,12.380000114440918,12.380000114440918,1488900
2019-04-02,11.130000114440918,12.039999961853027,11.029999732971191,12.0,12.0,324000
2019-04-03,12.0600004196167,12.25,10.300000190734863,10.359999656677246,10.359999656677246,275300
2019-04-04,10.220000267028809,11.180000305175781,9.449999809265137,10.369999885559082,10.369999885559082,346500
2019-04-05,10.470000267028809,10.899999618530273,10.039999961853027,10.729999542236328,10.729999542236328,55600
2019-04-08,10.760000228881836,12.75,10.600000381469727,12.569999694824219,12.569999694824219,917500
2019-04-09,15.760000228881836,16.649999618530273,14.050000190734863,14.609999656677246,14.609999656677246,7838100
2019-04-10,13.850000381469727,14.449999809265137,12.600000381469727,12.880000114440918,12.880000114440918,1368700
2019-04-11,12.5,14.25,12.34000015258789,13.510000228881836,13.510000228881836,821100
2019-04-12,13.399999618530273,14.699999809265137,12.630000114440918,14.65999984741211,14.65999984741211,2253400
2019-04-15,14.479999542236328,14.550000190734863,13.180000305175781,13.260000228881836,13.260000228881836,653900
2019-04-16,13.449999809265137,14.5,13.050000190734863,14.5,14.5,589700
2019-04-17,14.430000305175781,14.430000305175781,13.65999984741211,14.100000381469727,14.100000381469727,196300
2019-04-18,14.069999694824219,14.069999694824219,12.680000305175781,12.819999694824219,12.819999694824219,261900
2019-04-22,12.819999694824219,13.90999984741211,12.600000381469727,13.880000114440918,13.880000114440918,239400
2019-04-23,13.770000457763672,13.800000190734863,12.779999732971191,12.779999732971191,12.779999732971191,364800
2019-04-24,12.800000190734863,13.149999618530273,12.5,12.779999732971191,12.779999732971191,322900
2019-04-25,12.819999694824219,13.899999618530273,12.579999923706055,13.6899995803833,13.6899995803833,263500
2019-04-26,13.699999809265137,13.960000038146973,13.15999984741211,13.729999542236328,13.729999542236328,341100
2019-04-29,13.819999694824219,14.0,13.3100004196167,13.75,13.75,135000
2019-04-30,13.75,14.0,13.0,13.100000381469727,13.100000381469727,170500
2019-05-01,13.09000015258789,13.579999923706055,13.050000190734863,13.229999542236328,13.229999542236328,103200
2019-05-02,13.229999542236328,13.699999809265137,13.119999885559082,13.380000114440918,13.380000114440918,45500
2019-05-03,13.34000015258789,13.65999984741211,13.069999694824219,13.25,13.25,111200
2019-05-06,13.130000114440918,13.59000015258789,12.739999771118164,13.34000015258789,13.34000015258789,75200
2019-05-07,13.229999542236328,13.449999809265137,12.75,12.869999885559082,12.869999885559082,156600
2019-05-08,12.829999923706055,13.5,12.75,13.289999961853027,13.289999961853027,180000
2019-05-09,13.109999656677246,13.449999809265137,13.0,13.229999542236328,13.229999542236328,176700
2019-05-10,13.59000015258789,13.640000343322754,12.880000114440918,13.380000114440918,13.380000114440918,207200
2019-05-13,13.1899995803833,14.0,13.010000228881836,13.720000267028809,13.720000267028809,384100
2019-05-14,13.479999542236328,13.960000038146973,13.100000381469727,13.130000114440918,13.130000114440918,192600
2019-05-15,13.130000114440918,13.140000343322754,11.4399995803833,11.670000076293945,11.670000076293945,402200
2019-05-16,11.5,11.600000381469727,10.550000190734863,10.850000381469727,10.850000381469727,375000
2019-05-17,10.890000343322754,10.890000343322754,10.149999618530273,10.75,10.75,252600
2019-05-20,10.569999694824219,10.859999656677246,10.020000457763672,10.619999885559082,10.619999885559082,230200
2019-05-21,10.65999984741211,11.079999923706055,10.529999732971191,10.640000343322754,10.640000343322754,179800
2019-05-22,10.5,11.0600004196167,10.449999809265137,10.579999923706055,10.579999923706055,152800
2019-05-23,10.489999771118164,10.5,9.539999961853027,9.869999885559082,9.869999885559082,116700
2019-05-24,9.970000267028809,10.65999984741211,9.850000381469727,10.520000457763672,10.520000457763672,126800
2019-05-28,10.5600004196167,11.630000114440918,10.5600004196167,11.5600004196167,11.5600004196167,206800
2019-05-29,11.460000038146973,11.949999809265137,10.979999542236328,11.539999961853027,11.539999961853027,137900
2019-05-30,11.479999542236328,11.699999809265137,11.069999694824219,11.1899995803833,11.1899995803833,73300
2019-05-31,11.020000457763672,11.8100004196167,10.510000228881836,10.680000305175781,10.680000305175781,67700
2019-06-03,10.699999809265137,11.09000015258789,10.3100004196167,10.829999923706055,10.829999923706055,79700
2019-06-04,11.0,11.449999809265137,10.600000381469727,11.170000076293945,11.170000076293945,152100
2019-06-05,11.25,11.510000228881836,10.90999984741211,11.300000190734863,11.300000190734863,81400
2019-06-06,11.220000267028809,11.279999732971191,10.4399995803833,10.579999923706055,10.579999923706055,125100
2019-06-07,10.600000381469727,10.899999618530273,10.359999656677246,10.75,10.75,65500
2019-06-10,10.829999923706055,11.229999542236328,10.210000038146973,11.010000228881836,11.010000228881836,79400
2019-06-11,11.109999656677246,11.220000267028809,10.420000076293945,10.6899995803833,10.6899995803833,60500
2019-06-12,10.699999809265137,11.449999809265137,10.239999771118164,11.199999809265137,11.199999809265137,108200
2019-06-13,11.229999542236328,12.430000305175781,10.8100004196167,11.979999542236328,11.979999542236328,111500
2019-06-14,11.930000305175781,12.529999732971191,11.359999656677246,11.619999885559082,11.619999885559082,64900
2019-06-17,11.550000190734863,12.40999984741211,11.420000076293945,12.270000457763672,12.270000457763672,261500
2019-06-18,13.600000381469727,14.079999923706055,12.539999961853027,13.3100004196167,13.3100004196167,570000
2019-06-19,13.699999809265137,13.829999923706055,12.149999618530273,12.199999809265137,12.199999809265137,257000
2019-06-20,12.399999618530273,12.890000343322754,11.880000114440918,11.9399995803833,11.9399995803833,160000
2019-06-21,11.880000114440918,12.760000228881836,11.470000267028809,12.539999961853027,12.539999961853027,223800
2019-06-24,12.5,12.5,11.59000015258789,11.670000076293945,11.670000076293945,168000
2019-06-25,11.59000015258789,12.609999656677246,11.430000305175781,12.420000076293945,12.420000076293945,119000
2019-06-26,12.4399995803833,12.9399995803833,12.1899995803833,12.869999885559082,12.869999885559082,107100
2019-06-27,12.90999984741211,13.020000457763672,12.449999809265137,12.770000457763672,12.770000457763672,103400
2019-06-28,12.899999618530273,13.1899995803833,12.680000305175781,13.119999885559082,13.119999885559082,1727400
2019-07-01,13.289999961853027,14.079999923706055,13.069999694824219,13.880000114440918,13.880000114440918,339500
2019-07-02,13.869999885559082,13.949999809265137,13.369999885559082,13.75,13.75,126300
2019-07-03,13.5,13.949999809265137,13.270000457763672,13.649999618530273,13.649999618530273,117400
2019-07-05,13.619999885559082,13.720000267028809,12.800000190734863,12.920000076293945,12.920000076293945,97500
2019-07-08,12.800000190734863,12.949999809265137,11.600000381469727,12.130000114440918,12.130000114440918,152600
2019-07-09,12.09000015258789,12.34000015258789,11.8100004196167,11.930000305175781,11.930000305175781,104400
2019-07-10,11.989999771118164,12.220000267028809,11.149999618530273,11.65999984741211,11.65999984741211,156000
2019-07-11,11.59000015258789,11.649999618530273,10.800000190734863,11.359999656677246,11.359999656677246,206000
2019-07-12,11.390000343322754,11.489999771118164,10.829999923706055,11.220000267028809,11.220000267028809,121900
2019-07-15,11.229999542236328,11.550000190734863,10.699999809265137,10.75,10.75,102400
2019-07-16,10.720000267028809,10.979999542236328,10.369999885559082,10.720000267028809,10.720000267028809,86100
2019-07-17,10.65999984741211,10.739999771118164,10.130000114440918,10.170000076293945,10.170000076293945,66200
2019-07-18,10.210000038146973,10.5,10.149999618530273,10.369999885559082,10.369999885559082,63800
2019-07-19,10.369999885559082,10.399999618530273,9.970000267028809,10.029999732971191,10.029999732971191,67100
2019-07-22,10.0,10.260000228881836,9.720000267028809,9.800000190734863,9.800000190734863,96300
2019-07-23,9.850000381469727,9.850000381469727,9.229999542236328,9.460000038146973,9.460000038146973,59600
2019-07-24,9.460000038146973,9.569999694824219,9.119999885559082,9.380000114440918,9.380000114440918,55900
2019-07-25,9.390000343322754,9.470000267028809,8.800000190734863,8.930000305175781,8.930000305175781,104700
2019-07-26,9.010000228881836,9.149999618530273,8.350000381469727,8.579999923706055,8.579999923706055,142800
2019-07-29,8.5600004196167,8.649999618530273,7.079999923706055,7.739999771118164,7.739999771118164,385200
2019-07-30,7.639999866485596,8.40999984741211,7.25,8.279999732971191,8.279999732971191,203100
2019-07-31,8.319999694824219,8.430000305175781,7.579999923706055,7.809999942779541,7.809999942779541,160100
2019-08-01,7.78000020980835,8.239999771118164,7.75,7.849999904632568,7.849999904632568,91000
2019-08-02,7.78000020980835,7.940000057220459,7.320000171661377,7.679999828338623,7.679999828338623,72000
2019-08-05,7.460000038146973,7.510000228881836,7.070000171661377,7.360000133514404,7.360000133514404,119600
2019-08-06,7.349999904632568,7.610000133514404,7.119999885559082,7.269999980926514,7.269999980926514,49600
2019-08-07,7.119999885559082,7.46999979019165,7.0,7.239999771118164,7.239999771118164,88700
2019-08-08,7.369999885559082,8.319999694824219,7.300000190734863,8.130000114440918,8.130000114440918,129400
2019-08-09,8.130000114440918,8.460000038146973,7.679999828338623,7.940000057220459,7.940000057220459,106300
2019-08-12,7.900000095367432,7.900000095367432,7.199999809265137,7.300000190734863,7.300000190734863,111800
2019-08-13,7.28000020980835,7.840000152587891,7.28000020980835,7.760000228881836,7.760000228881836,91700
2019-08-14,7.789999961853027,8.210000038146973,7.070000171661377,7.420000076293945,7.420000076293945,203800
2019-08-15,7.409999847412109,7.650000095367432,7.050000190734863,7.110000133514404,7.110000133514404,117700
2019-08-16,7.139999866485596,7.539999961853027,6.739999771118164,7.389999866485596,7.389999866485596,304800
2019-08-19,7.480000019073486,7.639999866485596,7.360000133514404,7.480000019073486,7.480000019073486,49900
2019-08-20,7.400000095367432,8.489999771118164,7.400000095367432,8.380000114440918,8.380000114440918,87000
2019-08-21,8.399999618530273,8.880000114440918,8.260000228881836,8.59000015258789,8.59000015258789,75900
2019-08-22,8.600000381469727,8.739999771118164,7.940000057220459,7.940000057220459,7.940000057220459,54000
2019-08-23,7.900000095367432,8.050000190734863,7.409999847412109,7.550000190734863,7.550000190734863,63700
2019-08-26,7.630000114440918,8.220000267028809,7.409999847412109,7.989999771118164,7.989999771118164,38200
2019-08-27,7.980000019073486,8.699999809265137,7.960000038146973,8.069999694824219,8.069999694824219,55500
2019-08-28,8.050000190734863,9.819999694824219,7.710000038146973,9.4399995803833,9.4399995803833,200500
2019-08-29,9.5,9.550000190734863,8.640000343322754,8.899999618530273,8.899999618530273,91900
2019-08-30,8.949999809265137,9.229999542236328,8.25,8.640000343322754,8.640000343322754,64800
2019-09-03,8.510000228881836,8.630000114440918,7.320000171661377,7.380000114440918,7.380000114440918,179500
2019-09-04,7.380000114440918,7.610000133514404,6.590000152587891,6.75,6.75,168700
2019-09-05,6.960000038146973,7.099999904632568,6.25,6.269999980926514,6.269999980926514,182600
2019-09-06,6.300000190734863,6.340000152587891,4.940000057220459,5.050000190734863,5.050000190734863,570000
2019-09-09,5.070000171661377,5.190000057220459,4.800000190734863,5.039999961853027,5.039999961853027,296500
2019-09-10,5.019999980926514,5.309999942779541,4.840000152587891,5.199999809265137,5.199999809265137,194900
2019-09-11,5.320000171661377,5.769999980926514,5.239999771118164,5.610000133514404,5.610000133514404,398900
2019-09-12,5.690000057220459,5.860000133514404,5.090000152587891,5.130000114440918,5.130000114440918,301800
2019-09-13,5.099999904632568,5.440000057220459,5.079999923706055,5.369999885559082,5.369999885559082,270200
2019-09-16,5.150000095367432,5.300000190734863,4.960000038146973,5.010000228881836,5.010000228881836,201700
2019-09-17,5.019999980926514,5.050000190734863,4.550000190734863,4.75,4.75,264700
2019-09-18,4.760000228881836,4.960000038146973,4.539999961853027,4.940000057220459,4.940000057220459,167700
2019-09-19,4.920000076293945,5.070000171661377,4.800000190734863,4.849999904632568,4.849999904632568,90300
2019-09-20,4.849999904632568,5.019999980926514,4.559999942779541,4.75,4.75,177500
2019-09-23,4.690000057220459,4.860000133514404,4.269999980926514,4.28000020980835,4.28000020980835,186600
2019-09-24,4.300000190734863,4.300000190734863,3.8499999046325684,3.9100000858306885,3.9100000858306885,251000
2019-09-25,4.679999828338623,5.239999771118164,4.409999847412109,4.840000152587891,4.840000152587891,8515500
2019-09-26,4.800000190734863,4.920000076293945,4.329999923706055,4.550000190734863,4.550000190734863,1333700
2019-09-27,4.5,4.639999866485596,4.25,4.53000020980835,4.53000020980835,427800
2019-09-30,4.519999980926514,4.639999866485596,4.059999942779541,4.170000076293945,4.170000076293945,480500
2019-10-01,4.190000057220459,4.269999980926514,3.819999933242798,3.880000114440918,3.880000114440918,275300
2019-10-02,3.859999895095825,4.099999904632568,3.7200000286102295,4.03000020980835,4.03000020980835,204200
2019-10-03,4.159999847412109,4.260000228881836,4.039999961853027,4.199999809265137,4.199999809265137,174000
2019-10-04,4.199999809265137,4.329999923706055,3.9800000190734863,4.260000228881836,4.260000228881836,164900
2019-10-07,4.190000057220459,4.269999980926514,4.0,4.170000076293945,4.170000076293945,149800
2019-10-08,4.090000152587891,4.170000076293945,3.9700000286102295,4.019999980926514,4.019999980926514,224000
2019-10-09,4.079999923706055,4.159999847412109,3.7200000286102295,3.9000000953674316,3.9000000953674316,250200
2019-10-10,3.9600000381469727,4.190000057220459,3.8499999046325684,4.079999923706055,4.079999923706055,136000
2019-10-11,4.139999866485596,4.349999904632568,4.119999885559082,4.159999847412109,4.159999847412109,111500
2019-10-14,4.179999828338623,4.199999809265137,3.9000000953674316,3.950000047683716,3.950000047683716,139000
2019-10-15,4.03000020980835,4.460000038146973,3.9600000381469727,4.289999961853027,4.289999961853027,164700
2019-10-16,4.28000020980835,4.449999809265137,3.9200000762939453,3.9600000381469727,3.9600000381469727,392700
2019-10-17,3.990000009536743,4.289999961853027,3.9700000286102295,4.039999961853027,4.039999961853027,214900
2019-10-18,4.050000190734863,4.170000076293945,3.9600000381469727,4.0,4.0,164900
2019-10-21,4.039999961853027,4.25,3.950000047683716,4.119999885559082,4.119999885559082,113000
2019-10-22,4.139999866485596,4.329999923706055,4.059999942779541,4.159999847412109,4.159999847412109,139200
2019-10-23,4.150000095367432,4.400000095367432,4.050000190734863,4.130000114440918,4.130000114440918,157000
2019-10-24,4.159999847412109,4.230000019073486,3.7899999618530273,3.890000104904175,3.890000104904175,226100
2019-10-25,3.890000104904175,4.340000152587891,3.8299999237060547,4.269999980926514,4.269999980926514,250600
2019-10-28,4.28000020980835,4.369999885559082,4.03000020980835,4.090000152587891,4.090000152587891,132300
2019-10-29,4.090000152587891,4.260000228881836,3.950000047683716,4.199999809265137,4.199999809265137,108100
2019-10-30,4.190000057220459,4.190000057220459,3.9100000858306885,4.070000171661377,4.070000171661377,153300
2019-10-31,4.050000190734863,4.130000114440918,3.990000009536743,4.110000133514404,4.110000133514404,93200
2019-11-01,4.139999866485596,4.400000095367432,4.099999904632568,4.289999961853027,4.289999961853027,131900
2019-11-04,4.340000152587891,4.340000152587891,4.059999942779541,4.079999923706055,4.079999923706055,103700
2019-11-05,4.070000171661377,4.269999980926514,4.010000228881836,4.099999904632568,4.099999904632568,251200
2019-11-06,4.139999866485596,4.25,4.010000228881836,4.170000076293945,4.170000076293945,184200
2019-11-07,4.199999809265137,4.269999980926514,3.930000066757202,4.079999923706055,4.079999923706055,130600
2019-11-08,4.099999904632568,4.119999885559082,3.9100000858306885,3.9600000381469727,3.9600000381469727,142800
2019-11-11,3.9700000286102295,4.059999942779541,3.8299999237060547,3.869999885559082,3.869999885559082,113300
2019-11-12,3.930000066757202,3.9800000190734863,3.630000114440918,3.6500000953674316,3.6500000953674316,251500
2019-11-13,3.880000114440918,3.9100000858306885,3.609999895095825,3.9100000858306885,3.9100000858306885,176400
2019-11-14,3.8399999141693115,3.940000057220459,3.309999942779541,3.359999895095825,3.359999895095825,426700
2019-11-15,3.5199999809265137,3.569999933242798,3.259999990463257,3.5399999618530273,3.5399999618530273,196900
2019-11-18,3.509999990463257,3.549999952316284,3.1700000762939453,3.25,3.25,203200
2019-11-19,3.259999990463257,3.4200000762939453,3.200000047683716,3.3499999046325684,3.3499999046325684,494700
2019-11-20,3.450000047683716,3.8399999141693115,3.4100000858306885,3.5899999141693115,3.5899999141693115,673200
2019-11-21,3.5999999046325684,3.799999952316284,3.3499999046325684,3.390000104904175,3.390000104904175,245400
2019-11-22,3.4100000858306885,3.5799999237060547,3.359999895095825,3.4700000286102295,3.4700000286102295,238400
2019-11-25,3.509999990463257,3.75,3.4100000858306885,3.450000047683716,3.450000047683716,312500
2019-11-26,3.4700000286102295,3.5399999618530273,3.1700000762939453,3.240000009536743,3.240000009536743,279300
2019-11-27,3.2100000381469727,3.299999952316284,3.059999942779541,3.190000057220459,3.190000057220459,239200
2019-11-29,3.190000057220459,3.430000066757202,3.119999885559082,3.259999990463257,3.259999990463257,114600
2019-12-02,3.380000114440918,3.4000000953674316,3.1700000762939453,3.25,3.25,181500
2019-12-03,3.240000009536743,3.5199999809265137,3.190000057220459,3.4600000381469727,3.4600000381469727,244900
2019-12-04,3.5299999713897705,3.559999942779541,3.2200000286102295,3.2699999809265137,3.2699999809265137,347100
2019-12-05,3.259999990463257,3.3299999237060547,3.2100000381469727,3.2300000190734863,3.2300000190734863,181200
2019-12-06,3.240000009536743,3.450000047683716,3.2100000381469727,3.3399999141693115,3.3399999141693115,207500
2019-12-09,3.4000000953674316,3.450000047683716,3.2100000381469727,3.2100000381469727,3.2100000381469727,104000
2019-12-10,3.2200000286102295,3.3299999237060547,3.1700000762939453,3.319999933242798,3.319999933242798,136600
2019-12-11,3.380000114440918,3.380000114440918,3.2200000286102295,3.2699999809265137,3.2699999809265137,120300
2019-12-12,3.2799999713897705,3.890000104904175,3.240000009536743,3.859999895095825,3.859999895095825,547400
2019-12-13,3.9600000381469727,3.9600000381469727,3.319999933242798,3.369999885559082,3.369999885559082,405300
2019-12-16,3.4000000953674316,4.050000190734863,3.3499999046325684,3.799999952316284,3.799999952316284,462600
2019-12-17,3.759999990463257,3.869999885559082,3.450000047683716,3.700000047683716,3.700000047683716,207600
2019-12-18,3.700000047683716,4.949999809265137,3.6700000762939453,4.71999979019165,4.71999979019165,1589100
2019-12-19,4.75,6.360000133514404,4.480000019073486,6.139999866485596,6.139999866485596,2830800
2019-12-20,6.019999980926514,7.0,5.369999885559082,6.210000038146973,6.210000038146973,2693100
2019-12-23,6.190000057220459,6.639999866485596,5.460000038146973,6.550000190734863,6.550000190734863,776100
2019-12-24,6.579999923706055,7.349999904632568,6.570000171661377,7.349999904632568,7.349999904632568,551300
2019-12-26,7.489999771118164,7.489999771118164,6.199999809265137,6.369999885559082,6.369999885559082,1325100
2019-12-27,6.25,6.650000095367432,6.090000152587891,6.190000057220459,6.190000057220459,515700
2019-12-30,6.090000152587891,6.190000057220459,5.670000076293945,5.739999771118164,5.739999771118164,447200
2019-12-31,5.829999923706055,6.599999904632568,5.760000228881836,6.110000133514404,6.110000133514404,603200
2020-01-02,6.199999809265137,6.25,5.420000076293945,5.710000038146973,5.710000038146973,603600
2020-01-03,5.630000114440918,5.739999771118164,5.199999809265137,5.300000190734863,5.300000190734863,299100
2020-01-06,5.210000038146973,5.75,5.039999961853027,5.21999979019165,5.21999979019165,622600
2020-01-07,5.28000020980835,5.610000133514404,5.150000095367432,5.570000171661377,5.570000171661377,485700
2020-01-08,5.550000190734863,5.610000133514404,5.039999961853027,5.5,5.5,560500
2020-01-09,5.630000114440918,5.860000133514404,5.400000095367432,5.650000095367432,5.650000095367432,334400
2020-01-10,7.010000228881836,8.489999771118164,5.940000057220459,6.789999961853027,6.789999961853027,5580000
2020-01-13,6.699999809265137,6.699999809265137,5.949999809265137,6.019999980926514,6.019999980926514,753300
2020-01-14,6.110000133514404,6.300000190734863,5.46999979019165,5.570000171661377,5.570000171661377,667700
2020-01-15,5.570000171661377,5.880000114440918,5.210000038146973,5.28000020980835,5.28000020980835,451300
2020-01-16,5.409999847412109,6.179999828338623,5.309999942779541,6.0,6.0,696400
2020-01-17,6.059999942779541,6.130000114440918,5.670000076293945,5.849999904632568,5.849999904632568,512400
2020-01-21,5.829999923706055,5.940000057220459,5.5,5.630000114440918,5.630000114440918,350800
2020-01-22,5.650000095367432,5.730000019073486,5.329999923706055,5.460000038146973,5.460000038146973,255000
2020-01-23,5.429999828338623,5.849999904632568,5.170000076293945,5.769999980926514,5.769999980926514,575100
2020-01-24,5.75,5.75,5.190000057220459,5.289999961853027,5.289999961853027,308900
2020-01-27,5.099999904632568,5.480000019073486,5.0,5.21999979019165,5.21999979019165,239900
2020-01-28,5.300000190734863,5.579999923706055,5.159999847412109,5.260000228881836,5.260000228881836,238700
2020-01-29,5.269999980926514,5.300000190734863,5.010000228881836,5.070000171661377,5.070000171661377,236500
2020-01-30,5.070000171661377,5.099999904632568,4.789999961853027,4.860000133514404,4.860000133514404,205500
2020-01-31,4.860000133514404,5.03000020980835,4.699999809265137,4.980000019073486,4.980000019073486,481400
2020-02-03,5.03000020980835,5.510000228881836,5.0,5.5,5.5,375600
2020-02-04,5.519999980926514,5.889999866485596,5.429999828338623,5.5,5.5,444600
2020-02-05,5.690000057220459,5.800000190734863,5.539999961853027,5.610000133514404,5.610000133514404,250900
2020-02-06,5.639999866485596,5.75,5.260000228881836,5.420000076293945,5.420000076293945,259000
2020-02-07,5.420000076293945,5.539999961853027,5.269999980926514,5.519999980926514,5.519999980926514,241200
2020-02-10,5.590000152587891,5.75,5.429999828338623,5.510000228881836,5.510000228881836,171400
2020-02-11,5.760000228881836,5.760000228881836,5.090000152587891,5.119999885559082,5.119999885559082,323600
2020-02-12,5.159999847412109,5.46999979019165,5.119999885559082,5.190000057220459,5.190000057220459,175300
2020-02-13,5.199999809265137,5.289999961853027,5.050000190734863,5.079999923706055,5.079999923706055,253500
2020-02-14,5.019999980926514,5.159999847412109,4.760000228881836,4.760000228881836,4.760000228881836,169600
2020-02-18,4.760000228881836,4.960000038146973,4.699999809265137,4.809999942779541,4.809999942779541,218100
2020-02-19,4.900000095367432,5.079999923706055,4.809999942779541,4.960000038146973,4.960000038146973,341900
2020-02-20,4.900000095367432,4.920000076293945,4.570000171661377,4.820000171661377,4.820000171661377,250900
2020-02-21,4.820000171661377,4.960000038146973,4.71999979019165,4.889999866485596,4.889999866485596,137800
2020-02-24,4.710000038146973,4.820000171661377,4.550000190734863,4.710000038146973,4.710000038146973,185400
2020-02-25,4.710000038146973,4.769999980926514,4.28000020980835,4.329999923706055,4.329999923706055,218200
2020-02-26,4.309999942779541,4.619999885559082,4.28000020980835,4.360000133514404,4.360000133514404,276100
2020-02-27,4.269999980926514,4.570000171661377,4.059999942779541,4.369999885559082,4.369999885559082,234000
2020-02-28,4.199999809265137,4.409999847412109,4.150000095367432,4.210000038146973,4.210000038146973,195600
2020-03-02,4.210000038146973,4.300000190734863,4.059999942779541,4.170000076293945,4.170000076293945,199000
2020-03-03,4.190000057220459,4.340000152587891,3.9100000858306885,4.0,4.0,201200
2020-03-04,4.329999923706055,4.619999885559082,4.199999809265137,4.5,4.5,659700
2020-03-05,4.519999980926514,4.820000171661377,4.21999979019165,4.260000228881836,4.260000228881836,583800
2020-03-06,4.199999809265137,4.25,3.930000066757202,3.990000009536743,3.990000009536743,308600
2020-03-09,3.5999999046325684,3.799999952316284,3.4100000858306885,3.4600000381469727,3.4600000381469727,270100
2020-03-10,3.6600000858306885,3.690000057220459,3.2300000190734863,3.4000000953674316,3.4000000953674316,202400
2020-03-11,3.3399999141693115,3.509999990463257,3.0199999809265137,3.130000114440918,3.130000114440918,180200
2020-03-12,2.700000047683716,3.0199999809265137,2.5999999046325684,2.690000057220459,2.690000057220459,310600
2020-03-13,2.859999895095825,3.200000047683716,2.700000047683716,3.0899999141693115,3.0899999141693115,421800
2020-03-16,2.7100000381469727,2.9800000190734863,2.630000114440918,2.680000066757202,2.680000066757202,295900
2020-03-17,2.7699999809265137,3.119999885559082,2.759999990463257,3.0399999618530273,3.0399999618530273,521200
2020-03-18,2.950000047683716,3.0299999713897705,2.5999999046325684,2.890000104904175,2.890000104904175,390000
2020-03-19,2.819999933242798,3.049999952316284,2.799999952316284,2.9000000953674316,2.9000000953674316,438200
2020-03-20,2.9100000858306885,3.0399999618530273,2.609999895095825,2.859999895095825,2.859999895095825,452700
2020-03-23,2.9200000762939453,2.9200000762939453,2.75,2.8499999046325684,2.8499999046325684,148500
2020-03-24,3.009999990463257,3.069999933242798,2.809999942779541,3.0299999713897705,3.0299999713897705,309100
2020-03-25,3.0899999141693115,3.2200000286102295,2.7100000381469727,2.880000114440918,2.880000114440918,358100
2020-03-26,2.950000047683716,3.380000114440918,2.9000000953674316,3.2100000381469727,3.2100000381469727,395700
2020-03-27,3.119999885559082,3.5,3.0,3.3499999046325684,3.3499999046325684,226000
2020-03-30,3.4200000762939453,3.690000057220459,3.2300000190734863,3.4000000953674316,3.4000000953674316,212200
2020-03-31,3.4000000953674316,3.640000104904175,3.2300000190734863,3.309999942779541,3.309999942779541,197300
2020-04-01,3.1700000762939453,3.440000057220459,2.930000066757202,2.950000047683716,2.950000047683716,277200
2020-04-02,2.9600000381469727,3.200000047683716,2.9600000381469727,3.0399999618530273,3.0399999618530273,154000
2020-04-03,3.0299999713897705,3.130000114440918,2.8399999141693115,2.8499999046325684,2.8499999046325684,186400
2020-04-06,2.9600000381469727,3.140000104904175,2.930000066757202,2.990000009536743,2.990000009536743,129900
2020-04-07,3.130000114440918,3.2100000381469727,3.0199999809265137,3.059999942779541,3.059999942779541,238300
2020-04-08,3.140000104904175,3.3299999237060547,3.069999933242798,3.2799999713897705,3.2799999713897705,188200
2020-04-09,3.5,3.5,3.2899999618530273,3.450000047683716,3.450000047683716,162200
2020-04-13,3.5899999141693115,3.7899999618530273,3.4000000953674316,3.7100000381469727,3.7100000381469727,168900
2020-04-14,3.9100000858306885,4.829999923706055,3.819999933242798,4.690000057220459,4.690000057220459,577900
2020-04-15,4.519999980926514,4.75,4.0,4.010000228881836,4.010000228881836,304600
2020-04-16,4.070000171661377,4.289999961853027,3.619999885559082,3.7200000286102295,3.7200000286102295,187200
2020-04-17,4.039999961853027,4.150000095367432,3.7200000286102295,4.03000020980835,4.03000020980835,138000
2020-04-20,4.03000020980835,4.349999904632568,3.890000104904175,4.019999980926514,4.019999980926514,336000
2020-04-21,4.019999980926514,4.019999980926514,3.759999990463257,3.8499999046325684,3.8499999046325684,131500
2020-04-22,3.9800000190734863,4.090000152587891,3.8299999237060547,3.930000066757202,3.930000066757202,217000
2020-04-23,4.039999961853027,4.039999961853027,3.7100000381469727,3.740000009536743,3.740000009536743,230900
2020-04-24,3.7899999618530273,3.9100000858306885,3.7200000286102295,3.809999942779541,3.809999942779541,111000
2020-04-27,3.9800000190734863,4.050000190734863,3.819999933242798,3.8499999046325684,3.8499999046325684,174000
2020-04-28,4.050000190734863,4.050000190734863,3.7100000381469727,3.740000009536743,3.740000009536743,162500
2020-04-29,3.9000000953674316,4.440000057220459,3.759999990463257,4.179999828338623,4.179999828338623,309800
2020-04-30,4.190000057220459,4.199999809265137,3.819999933242798,3.859999895095825,3.859999895095825,168700
2020-05-01,3.8299999237060547,3.9100000858306885,3.700000047683716,3.8499999046325684,3.8499999046325684,146100
2020-05-04,3.8399999141693115,4.03000020980835,3.759999990463257,4.0,4.0,150600
2020-05-05,4.150000095367432,4.829999923706055,4.0,4.650000095367432,4.650000095367432,930400
2020-05-06,4.699999809265137,5.199999809265137,4.300000190734863,4.789999961853027,4.789999961853027,526100
2020-05-07,4.980000019073486,5.320000171661377,4.820000171661377,5.070000171661377,5.070000171661377,291200
2020-05-08,5.119999885559082,5.119999885559082,4.579999923706055,4.809999942779541,4.809999942779541,362100
2020-05-11,4.820000171661377,5.139999866485596,4.800000190734863,4.920000076293945,4.920000076293945,351800
2020-05-12,4.989999771118164,5.070000171661377,4.639999866485596,4.670000076293945,4.670000076293945,252000
2020-05-13,4.619999885559082,4.670000076293945,4.099999904632568,4.269999980926514,4.269999980926514,260300
2020-05-14,4.28000020980835,4.360000133514404,3.950000047683716,4.03000020980835,4.03000020980835,160400
2020-05-15,4.03000020980835,4.269999980926514,4.03000020980835,4.25,4.25,152600
2020-05-18,4.289999961853027,4.639999866485596,4.289999961853027,4.449999809265137,4.449999809265137,197700
2020-05-19,4.449999809265137,4.599999904632568,4.329999923706055,4.420000076293945,4.420000076293945,147400
2020-05-20,4.5,4.789999961853027,4.429999828338623,4.579999923706055,4.579999923706055,143200
2020-05-21,4.610000133514404,4.710000038146973,4.25,4.28000020980835,4.28000020980835,237300
2020-05-22,4.320000171661377,4.46999979019165,4.150000095367432,4.440000057220459,4.440000057220459,110600
2020-05-26,4.590000152587891,4.699999809265137,4.449999809265137,4.489999771118164,4.489999771118164,179900
2020-05-27,4.539999961853027,4.550000190734863,4.349999904632568,4.420000076293945,4.420000076293945,3639200
2020-05-28,6.389999866485596,6.849999904632568,5.760000228881836,6.019999980926514,6.019999980926514,20792400
2020-05-29,6.0,6.090000152587891,5.510000228881836,6.010000228881836,6.010000228881836,1878100
2020-06-01,6.03000020980835,6.349999904632568,5.78000020980835,5.920000076293945,5.920000076293945,868700
2020-06-02,5.989999771118164,5.989999771118164,5.119999885559082,5.300000190734863,5.300000190734863,1076600
2020-06-03,5.28000020980835,5.28000020980835,4.5,4.860000133514404,4.860000133514404,713400
2020-06-04,4.900000095367432,5.239999771118164,4.880000114440918,5.039999961853027,5.039999961853027,458700
2020-06-05,5.079999923706055,5.369999885559082,4.789999961853027,5.070000171661377,5.070000171661377,724300
2020-06-08,5.150000095367432,5.210000038146973,4.940000057220459,5.0,5.0,350500
2020-06-09,5.03000020980835,5.210000038146973,4.940000057220459,5.130000114440918,5.130000114440918,330500
2020-06-10,5.150000095367432,5.349999904632568,4.940000057220459,5.300000190734863,5.300000190734863,383800
2020-06-11,5.150000095367432,5.199999809265137,4.75,4.760000228881836,4.760000228881836,523300
2020-06-12,4.920000076293945,5.110000133514404,4.730000019073486,4.829999923706055,4.829999923706055,365000
2020-06-15,4.670000076293945,5.170000076293945,4.650000095367432,5.079999923706055,5.079999923706055,364300
2020-06-16,5.199999809265137,5.25,4.949999809265137,5.110000133514404,5.110000133514404,223900
2020-06-17,5.130000114440918,5.170000076293945,4.860000133514404,4.909999847412109,4.909999847412109,272100
2020-06-18,4.929999828338623,5.199999809265137,4.880000114440918,4.980000019073486,4.980000019073486,297800
2020-06-19,5.079999923706055,5.239999771118164,4.920000076293945,5.090000152587891,5.090000152587891,348800
2020-06-22,5.039999961853027,5.110000133514404,4.900000095367432,4.989999771118164,4.989999771118164,360400
2020-06-23,5.0,5.139999866485596,4.940000057220459,4.949999809265137,4.949999809265137,213900
2020-06-24,4.920000076293945,5.03000020980835,4.71999979019165,4.809999942779541,4.809999942779541,174900
2020-06-25,4.820000171661377,4.909999847412109,4.610000133514404,4.800000190734863,4.800000190734863,380900
2020-06-26,4.769999980926514,4.849999904632568,4.599999904632568,4.710000038146973,4.710000038146973,542800
2020-06-29,4.679999828338623,4.840000152587891,4.519999980926514,4.599999904632568,4.599999904632568,295400
2020-06-30,4.650000095367432,4.690000057220459,4.510000228881836,4.599999904632568,4.599999904632568,208200
2020-07-01,4.599999904632568,4.739999771118164,4.449999809265137,4.550000190734863,4.550000190734863,252700
2020-07-02,4.590000152587891,4.690000057220459,4.369999885559082,4.389999866485596,4.389999866485596,464400
2020-07-06,4.5,4.630000114440918,4.170000076293945,4.550000190734863,4.550000190734863,250800
2020-07-07,4.550000190734863,4.849999904632568,4.320000171661377,4.730000019073486,4.730000019073486,336300
2020-07-08,4.820000171661377,4.889999866485596,4.489999771118164,4.650000095367432,4.650000095367432,321800
2020-07-09,4.710000038146973,4.809999942779541,4.510000228881836,4.570000171661377,4.570000171661377,225700
2020-07-10,4.599999904632568,4.980000019073486,4.420000076293945,4.730000019073486,4.730000019073486,358400
2020-07-13,4.710000038146973,4.75,4.300000190734863,4.340000152587891,4.340000152587891,428100
2020-07-14,4.389999866485596,4.75,4.360000133514404,4.730000019073486,4.730000019073486,285100
2020-07-15,4.760000228881836,4.949999809265137,4.679999828338623,4.869999885559082,4.869999885559082,302000
2020-07-16,4.78000020980835,4.920000076293945,4.630000114440918,4.699999809265137,4.699999809265137,817200
2020-07-17,5.099999904632568,5.659999847412109,5.019999980926514,5.489999771118164,5.489999771118164,3045600
2020-07-20,5.380000114440918,5.460000038146973,4.900000095367432,5.050000190734863,5.050000190734863,814600
2020-07-21,5.099999904632568,5.400000095367432,4.900000095367432,5.21999979019165,5.21999979019165,509300
2020-07-22,5.079999923706055,5.239999771118164,4.96999979019165,5.079999923706055,5.079999923706055,311200
2020-07-23,5.070000171661377,5.340000152587891,4.949999809265137,5.059999942779541,5.059999942779541,407500
2020-07-24,5.090000152587891,5.119999885559082,4.650000095367432,4.679999828338623,4.679999828338623,368000
2020-07-27,4.650000095367432,4.789999961853027,4.349999904632568,4.579999923706055,4.579999923706055,472200
2020-07-28,4.539999961853027,4.889999866485596,4.309999942779541,4.380000114440918,4.380000114440918,1350000
2020-07-29,4.420000076293945,4.429999828338623,3.9600000381469727,4.039999961853027,4.039999961853027,1075500
2020-07-30,4.050000190734863,4.25,3.940000057220459,4.139999866485596,4.139999866485596,487300
2020-07-31,4.130000114440918,4.139999866485596,3.9800000190734863,4.0,4.0,234300
2020-08-03,4.010000228881836,4.349999904632568,3.9200000762939453,4.28000020980835,4.28000020980835,653900
2020-08-04,4.300000190734863,4.389999866485596,4.059999942779541,4.110000133514404,4.110000133514404,446400
2020-08-05,4.130000114440918,4.449999809265137,4.110000133514404,4.320000171661377,4.320000171661377,373100
2020-08-06,4.329999923706055,4.380000114440918,4.210000038146973,4.239999771118164,4.239999771118164,343300
2020-08-07,4.25,4.28000020980835,3.809999942779541,4.050000190734863,4.050000190734863,720900
2020-08-10,4.150000095367432,4.289999961853027,4.039999961853027,4.230000019073486,4.230000019073486,384400
2020-08-11,4.300000190734863,4.300000190734863,3.9000000953674316,3.9100000858306885,3.9100000858306885,656900
2020-08-12,3.9100000858306885,4.150000095367432,3.740000009536743,4.079999923706055,4.079999923706055,625600
2020-08-13,4.070000171661377,4.300000190734863,3.990000009536743,4.119999885559082,4.119999885559082,418500
2020-08-14,4.099999904632568,4.150000095367432,3.890000104904175,4.019999980926514,4.019999980926514,451800
2020-08-17,4.03000020980835,4.079999923706055,3.8499999046325684,3.880000114440918,3.880000114440918,596600
2020-08-18,3.9200000762939453,4.010000228881836,3.859999895095825,3.9000000953674316,3.9000000953674316,688100
2020-08-19,3.890000104904175,4.0,3.890000104904175,3.9100000858306885,3.9100000858306885,197900
2020-08-20,3.9200000762939453,3.950000047683716,3.8499999046325684,3.869999885559082,3.869999885559082,242000
2020-08-21,3.8499999046325684,3.859999895095825,3.7300000190734863,3.7899999618530273,3.7899999618530273,330500
2020-08-24,3.75,3.809999942779541,3.509999990463257,3.5199999809265137,3.5199999809265137,465900
2020-08-25,3.5199999809265137,3.8499999046325684,3.5199999809265137,3.799999952316284,3.799999952316284,239500
2020-08-26,3.809999942779541,4.070000171661377,3.75,4.059999942779541,4.059999942779541,425600
2020-08-27,4.03000020980835,4.059999942779541,3.6500000953674316,3.7699999809265137,3.7699999809265137,318600
2020-08-28,3.7699999809265137,3.9200000762939453,3.7300000190734863,3.8499999046325684,3.8499999046325684,196700
2020-08-31,3.8299999237060547,3.9200000762939453,3.7200000286102295,3.859999895095825,3.859999895095825,157100
2020-09-01,3.8399999141693115,3.859999895095825,3.619999885559082,3.7200000286102295,3.7200000286102295,242200
2020-09-02,3.680000066757202,3.700000047683716,3.549999952316284,3.630000114440918,3.630000114440918,258700
2020-09-03,3.5999999046325684,3.7100000381469727,3.3499999046325684,3.3499999046325684,3.3499999046325684,438600
2020-09-04,3.390000104904175,3.4200000762939453,3.180000066757202,3.2799999713897705,3.2799999713897705,360200
2020-09-08,3.2899999618530273,3.4800000190734863,3.180000066757202,3.4000000953674316,3.4000000953674316,402600
2020-09-09,3.4600000381469727,3.490000009536743,3.0899999141693115,3.2200000286102295,3.2200000286102295,494400
2020-09-10,3.299999952316284,3.5,3.2300000190734863,3.319999933242798,3.319999933242798,274100
2020-09-11,3.3499999046325684,3.380000114440918,3.1500000953674316,3.1700000762939453,3.1700000762939453,165100
2020-09-14,3.25,3.5799999237060547,3.25,3.450000047683716,3.450000047683716,223400
2020-09-15,3.509999990463257,3.5999999046325684,3.440000057220459,3.5299999713897705,3.5299999713897705,137700
2020-09-16,3.619999885559082,3.630000114440918,3.4700000286102295,3.490000009536743,3.490000009536743,180900
2020-09-17,3.4600000381469727,3.680000066757202,3.3299999237060547,3.5199999809265137,3.5199999809265137,182300
2020-09-18,3.5899999141693115,3.6600000858306885,3.450000047683716,3.6500000953674316,3.6500000953674316,184700
2020-09-21,3.6500000953674316,3.7100000381469727,3.3499999046325684,3.4100000858306885,3.4100000858306885,248200
2020-09-22,3.430000066757202,3.440000057220459,3.2699999809265137,3.4100000858306885,3.4100000858306885,120700
2020-09-23,3.4100000858306885,3.490000009536743,3.2799999713897705,3.2899999618530273,3.2899999618530273,144100
2020-09-24,3.3399999141693115,3.3399999141693115,3.0299999713897705,3.180000066757202,3.180000066757202,304400
2020-09-25,3.1700000762939453,3.440000057220459,3.130000114440918,3.4200000762939453,3.4200000762939453,85000
2020-09-28,3.5,3.569999933242798,3.2899999618530273,3.359999895095825,3.359999895095825,138600
2020-09-29,3.359999895095825,3.509999990463257,3.3399999141693115,3.4800000190734863,3.4800000190734863,131700
2020-09-30,3.509999990463257,3.5399999618530273,3.319999933242798,3.509999990463257,3.509999990463257,121700
2020-10-01,3.559999942779541,3.559999942779541,3.440000057220459,3.490000009536743,3.490000009536743,115300
2020-10-02,3.4000000953674316,3.4800000190734863,3.299999952316284,3.359999895095825,3.359999895095825,96500
2020-10-05,3.359999895095825,3.440000057220459,3.25,3.380000114440918,3.380000114440918,198600
2020-10-06,3.4200000762939453,3.4800000190734863,3.3299999237060547,3.3399999141693115,3.3399999141693115,101600
2020-10-07,3.3399999141693115,3.5,3.2899999618530273,3.4800000190734863,3.4800000190734863,137900
2020-10-08,3.490000009536743,3.6700000762939453,3.4200000762939453,3.609999895095825,3.609999895095825,168200
2020-10-09,3.6500000953674316,3.759999990463257,3.5899999141693115,3.7200000286102295,3.7200000286102295,137400
2020-10-12,3.740000009536743,3.740000009536743,3.5199999809265137,3.609999895095825,3.609999895095825,135400
2020-10-13,3.5999999046325684,3.7200000286102295,3.569999933242798,3.690000057220459,3.690000057220459,80000
2020-10-14,3.700000047683716,3.75,3.450000047683716,3.450000047683716,3.450000047683716,130700
2020-10-15,3.430000066757202,3.490000009536743,3.319999933242798,3.4000000953674316,3.4000000953674316,79900
2020-10-16,3.380000114440918,3.5399999618530273,3.380000114440918,3.440000057220459,3.440000057220459,94100
2020-10-19,3.490000009536743,3.700000047683716,3.450000047683716,3.6600000858306885,3.6600000858306885,200400
2020-10-20,3.6700000762939453,3.7200000286102295,3.4000000953674316,3.5299999713897705,3.5299999713897705,122000
2020-10-21,3.5299999713897705,3.559999942779541,3.4200000762939453,3.450000047683716,3.450000047683716,46700
2020-10-22,3.430000066757202,3.4700000286102295,3.4000000953674316,3.4200000762939453,3.4200000762939453,59900
2020-10-23,3.2100000381469727,3.4000000953674316,3.049999952316284,3.0999999046325684,3.0999999046325684,615500
2020-10-26,3.0999999046325684,3.1700000762939453,2.880000114440918,2.930000066757202,2.930000066757202,234300
2020-10-27,2.9100000858306885,3.0,2.8299999237060547,2.8499999046325684,2.8499999046325684,205800
2020-10-28,2.799999952316284,2.8399999141693115,2.5999999046325684,2.740000009536743,2.740000009536743,221700
2020-10-29,2.75,3.009999990463257,2.7100000381469727,2.9000000953674316,2.9000000953674316,161500
2020-10-30,2.880000114440918,2.9200000762939453,2.6700000762939453,2.7300000190734863,2.7300000190734863,154100
2020-11-02,2.8399999141693115,2.940000057220459,2.7100000381469727,2.8399999141693115,2.8399999141693115,200300
2020-11-03,2.869999885559082,3.069999933242798,2.799999952316284,3.009999990463257,3.009999990463257,228400
2020-11-04,3.0299999713897705,3.180000066757202,3.0199999809265137,3.1700000762939453,3.1700000762939453,138000
2020-11-05,3.240000009536743,3.380000114440918,3.069999933242798,3.299999952316284,3.299999952316284,153900
2020-11-06,3.299999952316284,3.450000047683716,3.130000114440918,3.3499999046325684,3.3499999046325684,181400
2020-11-09,3.450000047683716,3.5999999046325684,3.3399999141693115,3.369999885559082,3.369999885559082,175600
2020-11-10,3.369999885559082,3.549999952316284,3.2899999618530273,3.4100000858306885,3.4100000858306885,137400
2020-11-11,3.440000057220459,3.5899999141693115,3.359999895095825,3.5799999237060547,3.5799999237060547,100900
2020-11-12,3.5999999046325684,3.7100000381469727,3.5299999713897705,3.6700000762939453,3.6700000762939453,137400
2020-11-13,3.690000057220459,3.740000009536743,3.450000047683716,3.6600000858306885,3.6600000858306885,221500
2020-11-16,3.7100000381469727,3.740000009536743,3.4600000381469727,3.559999942779541,3.559999942779541,149700
2020-11-17,3.559999942779541,3.680000066757202,3.4800000190734863,3.619999885559082,3.619999885559082,139200
2020-11-18,3.6600000858306885,3.75,3.549999952316284,3.569999933242798,3.569999933242798,160300
2020-11-19,3.5799999237060547,3.700000047683716,3.5799999237060547,3.680000066757202,3.680000066757202,70800
2020-11-20,3.630000114440918,3.680000066757202,3.4800000190734863,3.5299999713897705,3.5299999713897705,122200
2020-11-23,3.450000047683716,3.7699999809265137,3.450000047683716,3.680000066757202,3.680000066757202,170700
2020-11-24,3.6600000858306885,3.7100000381469727,3.450000047683716,3.569999933242798,3.569999933242798,713800
2020-11-25,3.609999895095825,3.740000009536743,3.609999895095825,3.690000057220459,3.690000057220459,175300
2020-11-27,3.7200000286102295,3.7899999618530273,3.690000057220459,3.7799999713897705,3.7799999713897705,108300
2020-11-30,3.7799999713897705,3.8299999237060547,3.740000009536743,3.799999952316284,3.799999952316284,232100
2020-12-01,3.8399999141693115,3.9100000858306885,3.809999942779541,3.8299999237060547,3.8299999237060547,144800
2020-12-02,3.8299999237060547,4.039999961853027,3.700000047683716,3.9800000190734863,3.9800000190734863,300400
2020-12-03,4.019999980926514,4.179999828338623,3.9800000190734863,4.090000152587891,4.090000152587891,243600
2020-12-04,4.119999885559082,4.25,4.059999942779541,4.239999771118164,4.239999771118164,311400
2020-12-07,4.269999980926514,4.539999961853027,4.260000228881836,4.389999866485596,4.389999866485596,299400
2020-12-08,4.420000076293945,4.510000228881836,4.239999771118164,4.25,4.25,234500
2020-12-09,4.230000019073486,4.300000190734863,3.619999885559082,3.7699999809265137,3.7699999809265137,391700
2020-12-10,3.7100000381469727,3.9100000858306885,3.7100000381469727,3.75,3.75,164500
2020-12-11,3.7799999713897705,4.650000095367432,3.690000057220459,4.269999980926514,4.269999980926514,537300
2020-12-14,4.300000190734863,4.599999904632568,4.170000076293945,4.28000020980835,4.28000020980835,282200
2020-12-15,4.340000152587891,4.590000152587891,4.199999809265137,4.440000057220459,4.440000057220459,204900
2020-12-16,4.449999809265137,4.5,4.25,4.329999923706055,4.329999923706055,192000
2020-12-17,4.349999904632568,4.349999904632568,4.139999866485596,4.230000019073486,4.230000019073486,237600
2020-12-18,4.25,4.25,3.9600000381469727,3.9600000381469727,3.9600000381469727,942100
2020-12-21,3.9700000286102295,4.0,3.7899999618530273,3.799999952316284,3.799999952316284,405800
2020-12-22,3.819999933242798,3.8499999046325684,3.640000104904175,3.680000066757202,3.680000066757202,354700
2020-12-23,3.680000066757202,3.7300000190734863,3.569999933242798,3.619999885559082,3.619999885559082,405900
2020-12-24,3.609999895095825,3.6600000858306885,3.5799999237060547,3.5999999046325684,3.5999999046325684,132800
2020-12-28,3.5999999046325684,3.630000114440918,3.299999952316284,3.4100000858306885,3.4100000858306885,658800
2020-12-29,3.4100000858306885,3.4200000762939453,3.25,3.259999990463257,3.259999990463257,631000
2020-12-30,3.309999942779541,3.5399999618530273,3.2100000381469727,3.5,3.5,517800
