Date,Open,High,Low,Close,Adj Close,Volume
2019-01-02,6.050000190734863,6.300000190734863,5.867000102996826,6.0,6.0,1200
2019-01-03,6.0,6.0,5.849999904632568,5.989999771118164,5.989999771118164,13400
2019-01-04,6.0,6.150000095367432,5.739999771118164,5.75,5.75,14200
2019-01-07,5.940000057220459,6.0,5.449999809265137,6.0,6.0,6300
2019-01-08,5.949999809265137,5.989999771118164,5.895999908447266,5.989999771118164,5.989999771118164,3400
2019-01-09,5.860000133514404,6.0,5.800000190734863,5.949999809265137,5.949999809265137,5100
2019-01-10,5.940000057220459,5.949999809265137,5.699999809265137,5.71999979019165,5.71999979019165,11700
2019-01-11,5.710000038146973,5.840000152587891,5.489999771118164,5.771999835968018,5.771999835968018,29600
2019-01-14,5.8379998207092285,5.8379998207092285,5.53000020980835,5.701000213623047,5.701000213623047,6200
2019-01-15,5.639999866485596,5.639999866485596,5.478000164031982,5.551000118255615,5.551000118255615,7500
2019-01-16,5.829999923706055,5.829999923706055,5.510000228881836,5.75,5.75,3000
2019-01-17,5.75,6.0,5.699999809265137,5.876999855041504,5.876999855041504,13400
2019-01-18,5.840000152587891,5.840000152587891,5.60099983215332,5.699999809265137,5.699999809265137,2200
2019-01-22,5.699999809265137,5.699999809265137,5.510000228881836,5.510000228881836,5.510000228881836,11100
2019-01-23,5.590000152587891,5.599999904632568,4.7789998054504395,5.539999961853027,5.539999961853027,7400
2019-01-24,5.539999961853027,5.539999961853027,5.000999927520752,5.354000091552734,5.354000091552734,11000
2019-01-25,5.25,5.519999980926514,4.5,5.179999828338623,5.179999828338623,21700
2019-01-28,5.179999828338623,5.269999980926514,5.010000228881836,5.239999771118164,5.239999771118164,5600
2019-01-29,5.190000057220459,5.539999961853027,5.0,5.099999904632568,5.099999904632568,9000
2019-01-30,5.550000190734863,5.550000190734863,4.699999809265137,4.828999996185303,4.828999996185303,17700
2019-01-31,5.485000133514404,5.485000133514404,4.763000011444092,5.099999904632568,5.099999904632568,5100
2019-02-01,5.119999885559082,5.119999885559082,4.440000057220459,5.0,5.0,5600
2019-02-04,5.09499979019165,5.289999961853027,4.754000186920166,5.230000019073486,5.230000019073486,10700
2019-02-05,5.247000217437744,5.247000217437744,5.247000217437744,5.247000217437744,5.247000217437744,200
2019-02-06,5.25,5.25,5.150000095367432,5.21999979019165,5.21999979019165,600
2019-02-07,5.099999904632568,5.260000228881836,4.914000034332275,5.21999979019165,5.21999979019165,11100
2019-02-08,5.21999979019165,5.21999979019165,5.0329999923706055,5.21999979019165,5.21999979019165,300
2019-02-11,5.25,5.25,4.329999923706055,4.639999866485596,4.639999866485596,9200
2019-02-12,4.840000152587891,4.880000114440918,4.369999885559082,4.710000038146973,4.710000038146973,7200
2019-02-13,4.889999866485596,4.889999866485596,4.889999866485596,4.889999866485596,4.889999866485596,200
2019-02-14,4.889999866485596,4.889999866485596,3.0999999046325684,3.440000057220459,3.440000057220459,101500
2019-02-15,3.549999952316284,4.539999961853027,3.509999990463257,4.5,4.5,63400
2019-02-19,4.500999927520752,4.545000076293945,3.694999933242798,3.7100000381469727,3.7100000381469727,20200
2019-02-20,4.329999923706055,4.329999923706055,3.697999954223633,3.700000047683716,3.700000047683716,3400
2019-02-21,3.680000066757202,4.039999961853027,3.555000066757202,3.6050000190734863,3.6050000190734863,1500
2019-02-22,3.430000066757202,3.7699999809265137,3.430000066757202,3.621000051498413,3.621000051498413,3300
2019-02-25,3.7699999809265137,4.079999923706055,3.7699999809265137,3.9800000190734863,3.9800000190734863,16500
2019-02-26,4.0,4.839000225067139,4.0,4.150000095367432,4.150000095367432,35600
2019-02-27,4.139999866485596,4.479000091552734,3.809999942779541,4.099999904632568,4.099999904632568,6100
2019-02-28,4.130000114440918,4.159999847412109,3.9000000953674316,4.099999904632568,4.099999904632568,1100
2019-03-01,4.290999889373779,4.349999904632568,3.950000047683716,4.039999961853027,4.039999961853027,18500
2019-03-04,3.8299999237060547,4.0,3.700000047683716,3.9800000190734863,3.9800000190734863,2800
2019-03-05,3.9700000286102295,4.090000152587891,3.930000066757202,4.090000152587891,4.090000152587891,29200
2019-03-06,4.099999904632568,4.099999904632568,3.930000066757202,4.048999786376953,4.048999786376953,4300
2019-03-07,4.079999923706055,4.079999923706055,3.75,4.019999980926514,4.019999980926514,1500
2019-03-08,3.990000009536743,4.019999980926514,3.990000009536743,4.019999980926514,4.019999980926514,300
2019-03-11,4.010000228881836,4.019999980926514,3.990000009536743,3.990000009536743,3.990000009536743,900
2019-03-12,4.019999980926514,4.019999980926514,3.8499999046325684,3.8499999046325684,3.8499999046325684,1100
2019-03-13,3.9200000762939453,4.0,3.890000104904175,4.0,4.0,3100
2019-03-14,4.019000053405762,4.110000133514404,3.799999952316284,4.008999824523926,4.008999824523926,9000
2019-03-15,3.9000000953674316,4.010000228881836,3.9000000953674316,3.9800000190734863,3.9800000190734863,5100
2019-03-18,3.700000047683716,4.0,3.4100000858306885,3.4100000858306885,3.4100000858306885,17500
2019-03-19,4.002999782562256,4.008999824523926,3.5999999046325684,3.7799999713897705,3.7799999713897705,6400
2019-03-20,3.5880000591278076,3.5880000591278076,3.0999999046325684,3.180000066757202,3.180000066757202,28900
2019-03-21,3.049999952316284,3.115999937057495,2.7200000286102295,2.9660000801086426,2.9660000801086426,10700
2019-03-22,3.069999933242798,3.4549999237060547,2.9800000190734863,3.125,3.125,12800
2019-03-25,3.187000036239624,3.369999885559082,3.0,3.130000114440918,3.130000114440918,4600
2019-03-26,3.2899999618530273,3.2899999618530273,3.2669999599456787,3.2669999599456787,3.2669999599456787,200
2019-03-27,3.0,3.2829999923706055,3.0,3.240000009536743,3.240000009536743,1500
2019-03-28,3.009999990463257,3.309999942779541,2.819999933242798,3.1989998817443848,3.1989998817443848,5900
2019-03-29,3.1510000228881836,3.390000104904175,3.1510000228881836,3.2990000247955322,3.2990000247955322,4700
2019-04-01,3.2300000190734863,3.2699999809265137,3.138000011444092,3.140000104904175,3.140000104904175,6000
2019-04-02,3.2100000381469727,3.2990000247955322,3.0299999713897705,3.0299999713897705,3.0299999713897705,300
2019-04-03,3.190000057220459,3.190000057220459,2.9000000953674316,3.0999999046325684,3.0999999046325684,3100
2019-04-04,3.0999999046325684,3.0999999046325684,3.0999999046325684,3.0999999046325684,3.0999999046325684,1600
2019-04-05,3.247999906539917,3.247999906539917,3.247999906539917,3.247999906539917,3.247999906539917,200
2019-04-08,3.135999917984009,3.135999917984009,2.819999933242798,2.9809999465942383,2.9809999465942383,4500
2019-04-09,2.9800000190734863,3.2160000801086426,2.874000072479248,3.0869998931884766,3.0869998931884766,3400
2019-04-10,3.0989999771118164,3.0989999771118164,3.0989999771118164,3.0989999771118164,3.0989999771118164,1000
2019-04-11,3.0989999771118164,3.0989999771118164,3.0989999771118164,3.0989999771118164,3.0989999771118164,0
2019-04-12,2.950000047683716,3.0959999561309814,2.799999952316284,3.0959999561309814,3.0959999561309814,4400
2019-04-15,3.0799999237060547,3.0799999237060547,2.8299999237060547,2.8299999237060547,2.8299999237060547,300
2019-04-16,3.0280001163482666,3.0859999656677246,2.799999952316284,2.799999952316284,2.799999952316284,2100
2019-04-17,2.799999952316284,2.799999952316284,2.6630001068115234,2.799999952316284,2.799999952316284,2200
2019-04-18,3.0,3.0,2.9000000953674316,2.9839999675750732,2.9839999675750732,900
2019-04-22,2.930000066757202,2.930000066757202,2.799999952316284,2.874000072479248,2.874000072479248,101300
2019-04-23,2.9519999027252197,2.9519999027252197,2.9000000953674316,2.9000000953674316,2.9000000953674316,700
2019-04-24,2.9000000953674316,2.9000000953674316,2.8499999046325684,2.875,2.875,1600
2019-04-25,2.9100000858306885,2.930000066757202,2.6700000762939453,2.6700000762939453,2.6700000762939453,1100
2019-04-26,2.6700000762939453,2.812999963760376,2.6700000762939453,2.812999963760376,2.812999963760376,500
2019-04-29,2.7799999713897705,2.9600000381469727,2.7799999713897705,2.950000047683716,2.950000047683716,30000
2019-04-30,2.7750000953674316,2.930000066757202,2.7699999809265137,2.7699999809265137,2.7699999809265137,29400
2019-05-01,2.6600000858306885,2.75,2.6600000858306885,2.680000066757202,2.680000066757202,22800
2019-05-02,2.8580000400543213,2.8580000400543213,2.8580000400543213,2.8580000400543213,2.8580000400543213,500
2019-05-03,2.930000066757202,2.950000047683716,2.744999885559082,2.7699999809265137,2.7699999809265137,39800
2019-05-06,3.009999990463257,3.009999990463257,2.799999952316284,2.809999942779541,2.809999942779541,33800
2019-05-07,2.7139999866485596,2.8499999046325684,2.7009999752044678,2.799999952316284,2.799999952316284,47300
2019-05-08,2.8499999046325684,3.0799999237060547,2.8399999141693115,2.864000082015991,2.864000082015991,82300
2019-05-09,2.9100000858306885,3.0,2.8499999046325684,2.880000114440918,2.880000114440918,102300
2019-05-10,2.869999885559082,2.9000000953674316,2.869999885559082,2.9000000953674316,2.9000000953674316,1500
2019-05-13,2.802999973297119,3.0799999237060547,2.799999952316284,2.859999895095825,2.859999895095825,10000
2019-05-14,2.940000057220459,2.997999906539917,2.5199999809265137,2.799999952316284,2.799999952316284,6600
2019-05-15,2.869999885559082,2.9200000762939453,2.869999885559082,2.9100000858306885,2.9100000858306885,33100
2019-05-16,3.3299999237060547,3.3299999237060547,2.6500000953674316,2.8499999046325684,2.8499999046325684,4800
2019-05-17,2.9800000190734863,3.1500000953674316,2.815000057220459,2.890000104904175,2.890000104904175,18500
2019-05-20,2.890000104904175,2.890000104904175,2.890000104904175,2.890000104904175,2.890000104904175,0
2019-05-21,2.9200000762939453,2.9800000190734863,2.8499999046325684,2.9800000190734863,2.9800000190734863,6900
2019-05-22,2.9179999828338623,2.9709999561309814,2.7899999618530273,2.930000066757202,2.930000066757202,41700
2019-05-23,2.9070000648498535,2.9149999618530273,2.700000047683716,2.7850000858306885,2.7850000858306885,15500
2019-05-24,2.7850000858306885,2.7850000858306885,2.7850000858306885,2.7850000858306885,2.7850000858306885,100
2019-05-28,2.7850000858306885,2.7850000858306885,2.7850000858306885,2.7850000858306885,2.7850000858306885,0
2019-05-29,2.9200000762939453,2.950000047683716,2.740000009536743,2.890000104904175,2.890000104904175,2300
2019-05-30,2.8499999046325684,2.940000057220459,2.8499999046325684,2.940000057220459,2.940000057220459,2700
2019-05-31,2.869999885559082,2.9200000762939453,2.7200000286102295,2.9200000762939453,2.9200000762939453,3600
2019-06-03,2.869999885559082,2.940000057220459,2.8499999046325684,2.8499999046325684,2.8499999046325684,2400
2019-06-04,2.859999895095825,2.9700000286102295,2.8550000190734863,2.9700000286102295,2.9700000286102295,1700
2019-06-05,2.9110000133514404,2.937999963760376,2.8589999675750732,2.937999963760376,2.937999963760376,1100
2019-06-06,2.8499999046325684,2.8570001125335693,2.8480000495910645,2.8489999771118164,2.8489999771118164,4400
2019-06-07,2.9110000133514404,2.9110000133514404,2.640000104904175,2.8499999046325684,2.8499999046325684,6600
2019-06-10,2.9200000762939453,2.9800000190734863,2.640000104904175,2.8499999046325684,2.8499999046325684,6200
2019-06-11,2.799999952316284,2.8499999046325684,2.631999969482422,2.8499999046325684,2.8499999046325684,700
2019-06-12,2.799999952316284,2.8499999046325684,2.5299999713897705,2.6500000953674316,2.6500000953674316,10800
2019-06-13,2.75,2.812999963760376,2.75,2.812999963760376,2.812999963760376,900
2019-06-14,2.8570001125335693,3.2850000858306885,2.549999952316284,2.950000047683716,2.950000047683716,26400
2019-06-17,3.059999942779541,3.259999990463257,2.615000009536743,3.0899999141693115,3.0899999141693115,10900
2019-06-18,3.193000078201294,3.25,2.759999990463257,2.990000009536743,2.990000009536743,5500
2019-06-19,2.8259999752044678,2.930000066757202,2.75,2.930000066757202,2.930000066757202,2600
2019-06-20,2.9100000858306885,2.9100000858306885,2.7799999713897705,2.7939999103546143,2.7939999103546143,1600
2019-06-21,2.75,2.809999942779541,2.569999933242798,2.700000047683716,2.700000047683716,21400
2019-06-24,2.5799999237060547,2.8499999046325684,2.5799999237060547,2.8299999237060547,2.8299999237060547,21600
2019-06-25,2.684000015258789,2.8299999237060547,2.684000015258789,2.819999933242798,2.819999933242798,15800
2019-06-26,2.8299999237060547,2.880000114440918,2.622999906539917,2.880000114440918,2.880000114440918,12200
2019-06-27,2.562999963760376,2.869999885559082,2.562999963760376,2.799999952316284,2.799999952316284,3000
2019-06-28,2.799999952316284,2.799999952316284,2.6600000858306885,2.7990000247955322,2.7990000247955322,2300
2019-07-01,2.7320001125335693,2.75,2.2990000247955322,2.628999948501587,2.628999948501587,8200
2019-07-02,2.509999990463257,2.8299999237060547,2.509999990463257,2.75,2.75,3500
2019-07-03,2.869999885559082,2.869999885559082,2.6410000324249268,2.8399999141693115,2.8399999141693115,4800
2019-07-05,2.799999952316284,2.799999952316284,2.6640000343322754,2.7899999618530273,2.7899999618530273,10800
2019-07-08,2.7899999618530273,2.7899999618530273,2.680000066757202,2.7899999618530273,2.7899999618530273,1400
2019-07-09,2.759999990463257,2.799999952316284,2.759999990463257,2.7799999713897705,2.7799999713897705,4500
2019-07-10,2.799999952316284,2.799999952316284,2.75,2.7799999713897705,2.7799999713897705,5500
2019-07-11,2.700000047683716,2.700000047683716,2.700000047683716,2.700000047683716,2.700000047683716,500
2019-07-12,2.75,2.759999990463257,2.619999885559082,2.759999990463257,2.759999990463257,7500
2019-07-15,2.759999990463257,2.759999990463257,2.759999990463257,2.759999990463257,2.759999990463257,5000
2019-07-16,2.509999990463257,2.6600000858306885,2.450000047683716,2.497999906539917,2.497999906539917,5600
2019-07-17,2.497999906539917,2.497999906539917,2.497999906539917,2.497999906539917,2.497999906539917,0
2019-07-18,2.450000047683716,2.490000009536743,2.4200000762939453,2.490000009536743,2.490000009536743,2100
2019-07-19,2.490000009536743,2.490000009536743,2.490000009536743,2.490000009536743,2.490000009536743,100
2019-07-22,2.4600000381469727,2.558000087738037,2.4600000381469727,2.558000087738037,2.558000087738037,500
2019-07-23,2.4679999351501465,2.4679999351501465,2.361999988555908,2.361999988555908,2.361999988555908,3300
2019-07-24,2.4000000953674316,2.5,2.2720000743865967,2.5,2.5,2800
2019-07-25,2.5,2.5,2.5,2.5,2.5,0
2019-07-26,2.2100000381469727,2.680000066757202,2.2100000381469727,2.5850000381469727,2.5850000381469727,3300
2019-07-29,2.444999933242798,2.7899999618530273,2.430000066757202,2.555000066757202,2.555000066757202,1200
2019-07-30,2.509999990463257,2.869999885559082,2.509999990463257,2.869999885559082,2.869999885559082,1200
2019-07-31,2.509999990463257,2.869999885559082,2.509999990463257,2.869999885559082,2.869999885559082,1200
2019-08-01,2.565000057220459,2.799999952316284,2.565000057220459,2.7799999713897705,2.7799999713897705,500
2019-08-02,2.9100000858306885,2.9100000858306885,2.244999885559082,2.5799999237060547,2.5799999237060547,3700
2019-08-05,2.9100000858306885,2.9100000858306885,2.244999885559082,2.5799999237060547,2.5799999237060547,3700
2019-08-06,2.9100000858306885,2.9100000858306885,2.244999885559082,2.5799999237060547,2.5799999237060547,3700
2019-08-07,2.2300000190734863,2.690000057220459,2.2300000190734863,2.684999942779541,2.684999942779541,1900
2019-08-08,2.450000047683716,2.700000047683716,2.427999973297119,2.5999999046325684,2.5999999046325684,6900
2019-08-09,2.450000047683716,2.6500000953674316,2.450000047683716,2.6500000953674316,2.6500000953674316,1200
2019-08-12,2.5999999046325684,2.700000047683716,2.4690001010894775,2.5999999046325684,2.5999999046325684,2000
2019-08-13,2.5999999046325684,2.700000047683716,2.4600000381469727,2.700000047683716,2.700000047683716,1200
2019-08-14,2.700000047683716,2.700000047683716,2.505000114440918,2.640000104904175,2.640000104904175,1000
2019-08-15,2.700000047683716,2.700000047683716,2.505000114440918,2.640000104904175,2.640000104904175,1000
2019-08-16,2.700000047683716,2.700000047683716,2.2300000190734863,2.2300000190734863,2.2300000190734863,5300
2019-08-19,2.2200000286102295,2.490000009536743,2.2200000286102295,2.490000009536743,2.490000009536743,2700
2019-08-20,2.490000009536743,2.490000009536743,2.490000009536743,2.490000009536743,2.490000009536743,0
2019-08-21,2.0899999141693115,2.430000066757202,2.0899999141693115,2.4200000762939453,2.4200000762939453,1100
2019-08-22,2.4200000762939453,2.4200000762939453,2.4200000762939453,2.4200000762939453,2.4200000762939453,0
2019-08-23,2.4200000762939453,2.4200000762939453,2.4200000762939453,2.4200000762939453,2.4200000762939453,0
2019-08-26,2.119999885559082,2.359999895095825,2.0799999237060547,2.309999942779541,2.309999942779541,4100
2019-08-27,2.1500000953674316,2.450000047683716,2.1470000743865967,2.4200000762939453,2.4200000762939453,2700
2019-08-28,2.440000057220459,2.450000047683716,2.1510000228881836,2.4200000762939453,2.4200000762939453,2200
2019-08-29,2.4200000762939453,2.4200000762939453,2.4200000762939453,2.4200000762939453,2.4200000762939453,0
2019-08-30,2.440000057220459,2.440000057220459,2.3429999351501465,2.4200000762939453,2.4200000762939453,1200
2019-09-03,2.4000000953674316,2.5199999809265137,2.380000114440918,2.5199999809265137,2.5199999809265137,700
2019-09-04,2.565000057220459,2.625,2.549999952316284,2.5899999141693115,2.5899999141693115,1800
2019-09-05,2.700000047683716,2.700000047683716,2.259999990463257,2.6700000762939453,2.6700000762939453,2000
2019-09-06,2.6029999256134033,2.680000066757202,2.490000009536743,2.680000066757202,2.680000066757202,2500
2019-09-09,2.680000066757202,2.680000066757202,2.680000066757202,2.680000066757202,2.680000066757202,500
2019-09-10,2.680000066757202,2.680000066757202,2.680000066757202,2.680000066757202,2.680000066757202,0
2019-09-11,2.572999954223633,2.680000066757202,2.5,2.680000066757202,2.680000066757202,2500
2019-09-12,2.624000072479248,2.6700000762939453,2.4600000381469727,2.640000104904175,2.640000104904175,1500
2019-09-13,2.509999990463257,2.6600000858306885,2.381999969482422,2.6600000858306885,2.6600000858306885,4200
2019-09-16,2.5,2.5999999046325684,2.5,2.5899999141693115,2.5899999141693115,1400
2019-09-17,2.5,2.5,2.0999999046325684,2.490000009536743,2.490000009536743,5800
2019-09-18,2.490000009536743,2.490000009536743,2.490000009536743,2.490000009536743,2.490000009536743,2200
2019-09-19,1.3700000047683716,2.390000104904175,1.3700000047683716,2.390000104904175,2.390000104904175,9900
2019-09-20,2.4800000190734863,2.5769999027252197,2.430000066757202,2.506999969482422,2.506999969482422,1600
2019-09-23,2.5799999237060547,2.5799999237060547,2.5799999237060547,2.5799999237060547,2.5799999237060547,200
2019-09-24,2.5989999771118164,2.6470000743865967,2.494999885559082,2.640000104904175,2.640000104904175,1600
2019-09-25,2.546999931335449,2.5799999237060547,2.4000000953674316,2.4000000953674316,2.4000000953674316,2800
2019-09-26,2.559999942779541,2.559999942779541,2.315000057220459,2.4600000381469727,2.4600000381469727,2700
2019-09-27,2.490000009536743,2.559999942779541,2.490000009536743,2.559999942779541,2.559999942779541,1200
2019-09-30,2.6500000953674316,2.6500000953674316,2.5940001010894775,2.630000114440918,2.630000114440918,1500
2019-10-01,2.690000057220459,2.690000057220459,2.453000068664551,2.6700000762939453,2.6700000762939453,3500
2019-10-02,2.319999933242798,2.640000104904175,2.309999942779541,2.640000104904175,2.640000104904175,1300
2019-10-03,2.5899999141693115,2.5899999141693115,2.3329999446868896,2.5869998931884766,2.5869998931884766,3300
2019-10-04,2.6500000953674316,2.6500000953674316,2.546999931335449,2.630000114440918,2.630000114440918,2300
2019-10-07,2.630000114440918,2.630000114440918,2.630000114440918,2.630000114440918,2.630000114440918,100
2019-10-08,2.6600000858306885,2.6600000858306885,2.503000020980835,2.503000020980835,2.503000020980835,1700
2019-10-09,2.5999999046325684,2.5999999046325684,2.388000011444092,2.5769999027252197,2.5769999027252197,5000
2019-10-10,2.5290000438690186,2.5999999046325684,2.5290000438690186,2.5999999046325684,2.5999999046325684,1100
2019-10-11,2.6600000858306885,2.6600000858306885,2.380000114440918,2.640000104904175,2.640000104904175,4100
2019-10-14,2.640000104904175,2.640000104904175,2.640000104904175,2.640000104904175,2.640000104904175,100
2019-10-15,2.4000000953674316,2.630000114440918,2.4000000953674316,2.630000114440918,2.630000114440918,1300
2019-10-16,2.630000114440918,2.630000114440918,2.630000114440918,2.630000114440918,2.630000114440918,100
2019-10-17,2.640000104904175,2.640000104904175,2.5969998836517334,2.630000114440918,2.630000114440918,2000
2019-10-18,2.630000114440918,2.630000114440918,2.630000114440918,2.630000114440918,2.630000114440918,600
2019-10-21,2.509999990463257,2.509999990463257,2.4600000381469727,2.509999990463257,2.509999990463257,800
2019-10-22,2.640000104904175,2.6500000953674316,2.619999885559082,2.640000104904175,2.640000104904175,3300
2019-10-23,2.640000104904175,2.640000104904175,2.640000104904175,2.640000104904175,2.640000104904175,200
2019-10-24,2.5,2.6500000953674316,2.4100000858306885,2.6500000953674316,2.6500000953674316,6200
2019-10-25,2.640000104904175,2.640000104904175,2.640000104904175,2.640000104904175,2.640000104904175,500
2019-10-28,2.640000104904175,2.640000104904175,2.640000104904175,2.640000104904175,2.640000104904175,800
2019-10-29,2.640000104904175,2.640000104904175,2.640000104904175,2.640000104904175,2.640000104904175,400
2019-10-30,2.63700008392334,2.6500000953674316,2.63700008392334,2.6500000953674316,2.6500000953674316,1300
2019-10-31,2.5,2.640000104904175,2.5,2.640000104904175,2.640000104904175,2200
2019-11-01,2.640000104904175,2.640000104904175,2.640000104904175,2.640000104904175,2.640000104904175,700
2019-11-04,2.640000104904175,2.640000104904175,2.640000104904175,2.640000104904175,2.640000104904175,500
2019-11-05,2.552999973297119,2.630000114440918,2.359999895095825,2.630000114440918,2.630000114440918,5200
2019-11-06,2.6389999389648438,2.640000104904175,2.562999963760376,2.562999963760376,2.562999963760376,1200
2019-11-07,2.4800000190734863,2.5799999237060547,2.369999885559082,2.369999885559082,2.369999885559082,4700
2019-11-08,2.549999952316284,2.630000114440918,2.453000068664551,2.5999999046325684,2.5999999046325684,3100
2019-11-11,2.630000114440918,2.630000114440918,2.5390000343322754,2.569999933242798,2.569999933242798,1400
2019-11-12,2.630000114440918,2.630000114440918,2.559999942779541,2.619999885559082,2.619999885559082,1400
2019-11-13,2.627000093460083,2.627000093460083,2.5769999027252197,2.5769999027252197,2.5769999027252197,1300
2019-11-14,2.5769999027252197,2.5769999027252197,2.5769999027252197,2.5769999027252197,2.5769999027252197,400
2019-11-15,2.5,2.5999999046325684,2.4000000953674316,2.5999999046325684,2.5999999046325684,5600
2019-11-18,2.630000114440918,2.630000114440918,2.450000047683716,2.450000047683716,2.450000047683716,2800
2019-11-19,2.430000066757202,2.619999885559082,2.430000066757202,2.5999999046325684,2.5999999046325684,3300
2019-11-20,2.619999885559082,2.619999885559082,2.5999999046325684,2.5999999046325684,2.5999999046325684,1600
2019-11-21,2.5999999046325684,2.5999999046325684,2.5999999046325684,2.5999999046325684,2.5999999046325684,500
2019-11-22,2.5999999046325684,2.5999999046325684,2.5999999046325684,2.5999999046325684,2.5999999046325684,300
2019-11-25,2.5999999046325684,2.5999999046325684,2.5999999046325684,2.5999999046325684,2.5999999046325684,100
2019-11-26,2.5999999046325684,2.5999999046325684,2.5999999046325684,2.5999999046325684,2.5999999046325684,100
2019-11-27,2.5999999046325684,2.5999999046325684,2.5999999046325684,2.5999999046325684,2.5999999046325684,0
2019-11-29,2.5810000896453857,2.619999885559082,2.5799999237060547,2.619999885559082,2.619999885559082,2200
2019-12-02,2.2699999809265137,2.5999999046325684,2.2699999809265137,2.5940001010894775,2.5940001010894775,2500
2019-12-03,2.5810000896453857,2.5810000896453857,2.5810000896453857,2.5810000896453857,2.5810000896453857,700
2019-12-04,2.5810000896453857,2.5810000896453857,2.5810000896453857,2.5810000896453857,2.5810000896453857,0
2019-12-05,2.5810000896453857,2.5810000896453857,2.5810000896453857,2.5810000896453857,2.5810000896453857,0
2019-12-06,2.562999963760376,2.630000114440918,2.5460000038146973,2.630000114440918,2.630000114440918,2000
2019-12-09,2.388000011444092,3.8589999675750732,2.299999952316284,2.5,2.5,161600
2019-12-10,2.450000047683716,2.4800000190734863,2.0889999866485596,2.450000047683716,2.450000047683716,4300
2019-12-11,2.390000104904175,2.499000072479248,2.319999933242798,2.359999895095825,2.359999895095825,5100
2019-12-12,2.4000000953674316,2.5199999809265137,2.3299999237060547,2.359999895095825,2.359999895095825,1700
2019-12-13,2.359999895095825,2.359999895095825,2.359999895095825,2.359999895095825,2.359999895095825,0
2019-12-16,2.240000009536743,2.3299999237060547,2.190000057220459,2.3299999237060547,2.3299999237060547,6100
2019-12-17,2.194999933242798,2.2699999809265137,2.190000057220459,2.2699999809265137,2.2699999809265137,600
2019-12-18,2.369999885559082,2.369999885559082,2.1549999713897705,2.1549999713897705,2.1549999713897705,400
2019-12-19,2.200000047683716,2.200000047683716,2.200000047683716,2.200000047683716,2.200000047683716,200
2019-12-20,2.200000047683716,2.200000047683716,2.200000047683716,2.200000047683716,2.200000047683716,0
2019-12-23,2.0199999809265137,2.119999885559082,2.0,2.109999895095825,2.109999895095825,3200
2019-12-24,2.052999973297119,2.0999999046325684,2.052999973297119,2.0899999141693115,2.0899999141693115,1400
2019-12-26,2.200000047683716,2.299999952316284,2.140000104904175,2.140000104904175,2.140000104904175,800
2019-12-27,2.009999990463257,2.119999885559082,2.0,2.0399999618530273,2.0399999618530273,5100
2019-12-30,2.140000104904175,2.140000104904175,2.140000104904175,2.140000104904175,2.140000104904175,200
2019-12-31,2.140000104904175,2.140000104904175,2.140000104904175,2.140000104904175,2.140000104904175,0
2020-01-02,2.009999990463257,2.0999999046325684,2.0,2.0999999046325684,2.0999999046325684,5500
2020-01-03,2.119999885559082,2.119999885559082,2.0,2.0,2.0,1200
2020-01-06,2.0899999141693115,2.0899999141693115,2.0,2.0869998931884766,2.0869998931884766,3400
2020-01-07,2.119999885559082,2.119999885559082,2.119999885559082,2.119999885559082,2.119999885559082,500
2020-01-08,2.135999917984009,2.140000104904175,2.135999917984009,2.140000104904175,2.140000104904175,400
2020-01-09,2.009999990463257,2.0959999561309814,2.0,2.0959999561309814,2.0959999561309814,600
2020-01-10,2.0,2.055999994277954,2.0,2.055999994277954,2.055999994277954,12800
2020-01-13,2.0799999237060547,2.0799999237060547,2.062000036239624,2.072000026702881,2.072000026702881,1500
2020-01-14,2.119999885559082,2.2300000190734863,2.119999885559082,2.200000047683716,2.200000047683716,1000
2020-01-15,2.2200000286102295,2.2200000286102295,2.2200000286102295,2.2200000286102295,2.2200000286102295,1600
2020-01-16,2.2200000286102295,2.2200000286102295,2.2200000286102295,2.2200000286102295,2.2200000286102295,0
2020-01-17,2.052999973297119,2.1600000858306885,2.0299999713897705,2.1600000858306885,2.1600000858306885,1900
2020-01-21,2.200000047683716,2.200000047683716,2.200000047683716,2.200000047683716,2.200000047683716,200
2020-01-22,2.200000047683716,2.200000047683716,2.200000047683716,2.200000047683716,2.200000047683716,0
2020-01-23,2.1019999980926514,2.190000057220459,2.1019999980926514,2.190000057220459,2.190000057220459,600
2020-01-24,2.190000057220459,2.190000057220459,2.190000057220459,2.190000057220459,2.190000057220459,0
2020-01-27,2.0,2.1700000762939453,2.0,2.1700000762939453,2.1700000762939453,700
2020-01-28,2.1700000762939453,2.1700000762939453,2.1700000762939453,2.1700000762939453,2.1700000762939453,0
2020-01-29,2.1700000762939453,2.1700000762939453,2.1700000762939453,2.1700000762939453,2.1700000762939453,0
2020-01-30,2.1700000762939453,2.1700000762939453,2.1700000762939453,2.1700000762939453,2.1700000762939453,0
2020-01-31,2.2100000381469727,2.2100000381469727,2.2100000381469727,2.2100000381469727,2.2100000381469727,200
2020-02-03,2.2100000381469727,2.2100000381469727,2.2100000381469727,2.2100000381469727,2.2100000381469727,0
2020-02-04,2.2100000381469727,2.2100000381469727,2.2100000381469727,2.2100000381469727,2.2100000381469727,0
2020-02-05,2.2699999809265137,2.2699999809265137,2.2699999809265137,2.2699999809265137,2.2699999809265137,300
2020-02-06,2.0250000953674316,2.319999933242798,2.0199999809265137,2.0999999046325684,2.0999999046325684,1500
2020-02-07,2.0399999618530273,2.180000066757202,1.975000023841858,2.180000066757202,2.180000066757202,3700
2020-02-10,2.190000057220459,2.190000057220459,2.0399999618530273,2.1589999198913574,2.1589999198913574,600
2020-02-11,2.240000009536743,2.453000068664551,2.240000009536743,2.453000068664551,2.453000068664551,800
2020-02-12,2.453000068664551,2.453000068664551,2.453000068664551,2.453000068664551,2.453000068664551,0
2020-02-13,2.453000068664551,2.453000068664551,2.453000068664551,2.453000068664551,2.453000068664551,0
2020-02-14,2.109999895095825,2.361999988555908,2.109999895095825,2.361999988555908,2.361999988555908,400
2020-02-18,2.440000057220459,2.559999942779541,2.440000057220459,2.559999942779541,2.559999942779541,300
2020-02-19,2.559999942779541,2.559999942779541,2.559999942779541,2.559999942779541,2.559999942779541,0
2020-02-20,2.559999942779541,2.559999942779541,2.559999942779541,2.559999942779541,2.559999942779541,100
2020-02-21,2.559999942779541,2.559999942779541,2.559999942779541,2.559999942779541,2.559999942779541,0
2020-02-24,2.559999942779541,2.559999942779541,2.559999942779541,2.559999942779541,2.559999942779541,0
2020-02-25,2.559999942779541,2.559999942779541,2.559999942779541,2.559999942779541,2.559999942779541,0
2020-02-26,2.559999942779541,2.559999942779541,2.559999942779541,2.559999942779541,2.559999942779541,0
2020-02-27,2.559999942779541,2.559999942779541,2.559999942779541,2.559999942779541,2.559999942779541,0
2020-02-28,2.559999942779541,2.559999942779541,2.559999942779541,2.559999942779541,2.559999942779541,0
2020-03-02,2.559999942779541,2.559999942779541,2.559999942779541,2.559999942779541,2.559999942779541,0
2020-03-03,2.5399999618530273,2.5399999618530273,2.0299999713897705,2.240000009536743,2.240000009536743,1200
2020-03-04,2.240000009536743,2.240000009536743,2.240000009536743,2.240000009536743,2.240000009536743,0
2020-03-05,2.059999942779541,2.2200000286102295,1.7999999523162842,2.2200000286102295,2.2200000286102295,3500
2020-03-06,2.2200000286102295,2.2200000286102295,2.2200000286102295,2.2200000286102295,2.2200000286102295,0
2020-03-09,2.2200000286102295,2.2200000286102295,2.2200000286102295,2.2200000286102295,2.2200000286102295,0
2020-03-10,2.0999999046325684,2.0999999046325684,1.815000057220459,2.0999999046325684,2.0999999046325684,5000
2020-03-11,2.200000047683716,2.200000047683716,2.200000047683716,2.200000047683716,2.200000047683716,400
2020-03-12,2.200000047683716,2.200000047683716,2.200000047683716,2.200000047683716,2.200000047683716,0
2020-03-13,2.259999990463257,2.259999990463257,2.259999990463257,2.259999990463257,2.259999990463257,200
2020-03-16,2.259999990463257,2.259999990463257,2.259999990463257,2.259999990463257,2.259999990463257,300
2020-03-17,2.259999990463257,2.259999990463257,2.259999990463257,2.259999990463257,2.259999990463257,0
2020-03-18,2.259999990463257,2.259999990463257,2.259999990463257,2.259999990463257,2.259999990463257,0
2020-03-19,2.259999990463257,2.259999990463257,2.259999990463257,2.259999990463257,2.259999990463257,0
2020-03-20,2.0199999809265137,2.0999999046325684,2.0,2.0999999046325684,2.0999999046325684,2500
2020-03-23,2.0999999046325684,2.0999999046325684,2.0999999046325684,2.0999999046325684,2.0999999046325684,500
2020-03-24,2.009999990463257,2.140000104904175,2.0,2.140000104904175,2.140000104904175,1600
2020-03-25,2.180000066757202,2.180000066757202,2.180000066757202,2.180000066757202,2.180000066757202,200
2020-03-26,2.180000066757202,2.180000066757202,2.180000066757202,2.180000066757202,2.180000066757202,0
2020-03-27,2.180000066757202,2.180000066757202,2.180000066757202,2.180000066757202,2.180000066757202,0
2020-03-30,2.0,2.130000114440918,2.0,2.130000114440918,2.130000114440918,600
2020-03-31,2.1500000953674316,2.1500000953674316,2.1500000953674316,2.1500000953674316,2.1500000953674316,300
2020-04-01,2.1500000953674316,2.1500000953674316,2.1500000953674316,2.1500000953674316,2.1500000953674316,0
2020-04-02,2.0,2.119999885559082,2.0,2.119999885559082,2.119999885559082,600
2020-04-03,2.0,2.140000104904175,2.0,2.140000104904175,2.140000104904175,400
2020-04-06,2.0,2.127000093460083,2.0,2.119999885559082,2.119999885559082,1100
2020-04-07,2.009999990463257,2.109999895095825,2.009999990463257,2.109999895095825,2.109999895095825,600
2020-04-08,2.109999895095825,2.109999895095825,2.109999895095825,2.109999895095825,2.109999895095825,0
2020-04-09,2.0299999713897705,2.1500000953674316,2.0299999713897705,2.1500000953674316,2.1500000953674316,1700
2020-04-13,2.1500000953674316,2.1500000953674316,2.1500000953674316,2.1500000953674316,2.1500000953674316,1000
2020-04-14,2.1500000953674316,2.1500000953674316,2.1500000953674316,2.1500000953674316,2.1500000953674316,0
2020-04-15,2.1500000953674316,2.1500000953674316,2.1500000953674316,2.1500000953674316,2.1500000953674316,1600
2020-04-16,2.1500000953674316,2.1500000953674316,2.1500000953674316,2.1500000953674316,2.1500000953674316,2500
2020-04-17,2.319999933242798,2.390000104904175,2.319999933242798,2.390000104904175,2.390000104904175,800
2020-04-20,2.430000066757202,2.430000066757202,2.430000066757202,2.430000066757202,2.430000066757202,100
2020-04-21,2.306999921798706,2.306999921798706,2.306999921798706,2.306999921798706,2.306999921798706,100
2020-04-22,2.306999921798706,2.306999921798706,2.306999921798706,2.306999921798706,2.306999921798706,0
2020-04-23,2.138000011444092,2.138000011444092,2.138000011444092,2.138000011444092,2.138000011444092,500
2020-04-24,2.0399999618530273,2.109999895095825,2.0,2.109999895095825,2.109999895095825,4700
2020-04-27,2.0999999046325684,2.0999999046325684,2.0999999046325684,2.0999999046325684,2.0999999046325684,2500
2020-04-28,2.0,2.0899999141693115,2.0,2.062999963760376,2.062999963760376,4200
2020-04-29,2.0299999713897705,2.0999999046325684,2.0,2.0999999046325684,2.0999999046325684,1200
2020-04-30,2.0999999046325684,2.0999999046325684,2.0999999046325684,2.0999999046325684,2.0999999046325684,3500
2020-05-01,2.0999999046325684,2.0999999046325684,2.0999999046325684,2.0999999046325684,2.0999999046325684,0
2020-05-04,2.0999999046325684,2.0999999046325684,2.0999999046325684,2.0999999046325684,2.0999999046325684,0
2020-05-05,2.0999999046325684,2.0999999046325684,2.0999999046325684,2.0999999046325684,2.0999999046325684,600
2020-05-06,2.009999990463257,2.1600000858306885,2.009999990463257,2.1600000858306885,2.1600000858306885,1400
2020-05-07,2.0999999046325684,2.1700000762939453,2.0999999046325684,2.1700000762939453,2.1700000762939453,1100
2020-05-08,2.0299999713897705,2.1700000762939453,2.0299999713897705,2.1500000953674316,2.1500000953674316,1600
2020-05-11,2.0999999046325684,2.1689999103546143,2.0999999046325684,2.1689999103546143,2.1689999103546143,1200
2020-05-12,2.0399999618530273,2.180000066757202,2.0399999618530273,2.180000066757202,2.180000066757202,900
2020-05-13,2.1700000762939453,2.180000066757202,2.1600000858306885,2.180000066757202,2.180000066757202,900
2020-05-14,2.1700000762939453,2.190000057220459,2.109999895095825,2.190000057220459,2.190000057220459,1400
2020-05-15,2.1700000762939453,2.190000057220459,2.1600000858306885,2.190000057220459,2.190000057220459,900
2020-05-18,2.2100000381469727,2.2200000286102295,2.200000047683716,2.2200000286102295,2.2200000286102295,700
2020-05-19,2.2300000190734863,2.240000009536743,2.2200000286102295,2.240000009536743,2.240000009536743,600
2020-05-20,2.2200000286102295,2.2300000190734863,2.2100000381469727,2.2300000190734863,2.2300000190734863,900
2020-05-21,2.180000066757202,2.2200000286102295,2.180000066757202,2.2200000286102295,2.2200000286102295,600
2020-05-22,2.1500000953674316,2.2100000381469727,2.1500000953674316,2.2100000381469727,2.2100000381469727,1000
2020-05-26,2.180000066757202,2.2200000286102295,2.180000066757202,2.2200000286102295,2.2200000286102295,1000
2020-05-27,2.140000104904175,2.2200000286102295,2.0399999618530273,2.2100000381469727,2.2100000381469727,1600
2020-05-28,2.197000026702881,2.3499999046325684,2.190000057220459,2.3499999046325684,2.3499999046325684,2000
2020-05-29,2.3299999237060547,2.3299999237060547,2.059999942779541,2.197999954223633,2.197999954223633,1600
2020-06-01,2.180000066757202,2.2100000381469727,2.180000066757202,2.2100000381469727,2.2100000381469727,600
2020-06-02,2.2200000286102295,2.2200000286102295,2.2200000286102295,2.2200000286102295,2.2200000286102295,900
2020-06-03,2.177000045776367,2.177000045776367,2.177000045776367,2.177000045776367,2.177000045776367,400
2020-06-04,2.200000047683716,2.200000047683716,2.200000047683716,2.200000047683716,2.200000047683716,800
2020-06-05,2.180000066757202,2.200000047683716,2.180000066757202,2.200000047683716,2.200000047683716,600
2020-06-08,2.200000047683716,2.200000047683716,2.200000047683716,2.200000047683716,2.200000047683716,500
2020-06-09,2.200000047683716,2.200000047683716,2.200000047683716,2.200000047683716,2.200000047683716,600
2020-06-10,2.059999942779541,3.640000104904175,2.059999942779541,2.5999999046325684,2.5999999046325684,140300
2020-06-11,2.549999952316284,2.5999999046325684,2.0799999237060547,2.2090001106262207,2.2090001106262207,15800
2020-06-12,2.299999952316284,2.75,2.299999952316284,2.3299999237060547,2.3299999237060547,16500
2020-06-15,2.109999895095825,2.490000009536743,2.0299999713897705,2.171999931335449,2.171999931335449,6000
2020-06-16,2.069999933242798,2.134999990463257,2.069999933242798,2.069999933242798,2.069999933242798,1800
2020-06-17,2.0999999046325684,2.2909998893737793,2.0999999046325684,2.1649999618530273,2.1649999618530273,6200
2020-06-18,2.1600000858306885,2.2799999713897705,2.0999999046325684,2.1600000858306885,2.1600000858306885,10700
2020-06-19,2.1600000858306885,2.2699999809265137,2.0399999618530273,2.0999999046325684,2.0999999046325684,5000
2020-06-22,2.0799999237060547,2.1540000438690186,2.0799999237060547,2.140000104904175,2.140000104904175,1500
2020-06-23,2.197999954223633,2.2249999046325684,2.0999999046325684,2.200000047683716,2.200000047683716,5500
2020-06-24,2.319999933242798,5.050000190734863,2.319999933242798,3.2799999713897705,3.2799999713897705,5106800
2020-06-25,4.630000114440918,6.75,4.039999961853027,6.75,6.75,25937900
2020-06-26,5.699999809265137,6.159999847412109,4.800000190734863,5.400000095367432,5.400000095367432,919100
2020-06-29,4.699999809265137,8.550000190734863,4.699999809265137,8.079999923706055,8.079999923706055,1396000
2020-06-30,6.949999809265137,7.760000228881836,5.539999961853027,6.230000019073486,6.230000019073486,714500
2020-07-01,5.579999923706055,5.900000095367432,4.769999980926514,4.809999942779541,4.809999942779541,227500
2020-07-02,5.110000133514404,6.199999809265137,4.809999942779541,5.449999809265137,5.449999809265137,299700
2020-07-06,5.699999809265137,6.900000095367432,5.099999904632568,5.690000057220459,5.690000057220459,300600
2020-07-07,5.5,5.940000057220459,5.369999885559082,5.679999828338623,5.679999828338623,97400
2020-07-08,5.579999923706055,5.785999774932861,5.400000095367432,5.460000038146973,5.460000038146973,76500
2020-07-09,5.599999904632568,5.800000190734863,5.400000095367432,5.639999866485596,5.639999866485596,75600
2020-07-10,5.769999980926514,6.380000114440918,5.5,5.849999904632568,5.849999904632568,106700
2020-07-13,5.849999904632568,5.8520002365112305,4.050000190734863,4.190000057220459,4.190000057220459,169400
2020-07-14,4.880000114440918,5.110000133514404,4.260000228881836,4.670000076293945,4.670000076293945,72200
2020-07-15,4.230000019073486,4.980000019073486,4.230000019073486,4.619999885559082,4.619999885559082,48100
2020-07-16,4.539999961853027,4.728000164031982,4.090000152587891,4.159999847412109,4.159999847412109,16700
2020-07-17,4.159999847412109,4.599999904632568,4.159999847412109,4.53000020980835,4.53000020980835,49200
2020-07-20,4.409999847412109,5.929999828338623,4.400000095367432,5.449999809265137,5.449999809265137,522200
2020-07-21,5.550000190734863,5.630000114440918,5.300000190734863,5.519999980926514,5.519999980926514,45100
2020-07-22,5.369999885559082,5.420000076293945,4.059999942779541,4.119999885559082,4.119999885559082,166300
2020-07-23,4.260000228881836,4.78000020980835,4.159999847412109,4.420000076293945,4.420000076293945,44400
2020-07-24,4.289999961853027,4.419000148773193,4.099999904632568,4.150000095367432,4.150000095367432,22300
2020-07-27,4.5,4.5,3.759999990463257,3.9000000953674316,3.9000000953674316,75300
2020-07-28,3.75,3.990000009536743,3.4100000858306885,3.5399999618530273,3.5399999618530273,47400
2020-07-29,3.4700000286102295,4.0980000495910645,3.3399999141693115,3.7300000190734863,3.7300000190734863,46600
2020-07-30,3.609999895095825,3.7200000286102295,3.5399999618530273,3.5999999046325684,3.5999999046325684,13700
2020-07-31,3.559999942779541,3.7799999713897705,3.559999942779541,3.619999885559082,3.619999885559082,4800
2020-08-03,3.5969998836517334,3.638000011444092,3.5,3.618000030517578,3.618000030517578,13700
2020-08-04,3.640000104904175,3.7300000190734863,3.569000005722046,3.7300000190734863,3.7300000190734863,4300
2020-08-05,3.5399999618530273,3.7699999809265137,2.75,2.7699999809265137,2.7699999809265137,210600
2020-08-06,2.9800000190734863,3.880000114440918,2.75,3.0399999618530273,3.0399999618530273,270700
2020-08-07,2.9000000953674316,3.0,2.75,2.8399999141693115,2.8399999141693115,25800
2020-08-10,3.0,3.0,2.75,2.8499999046325684,2.8499999046325684,24200
2020-08-11,2.9179999828338623,3.200000047683716,2.819999933242798,2.950000047683716,2.950000047683716,93600
2020-08-12,3.009999990463257,3.200000047683716,3.0,3.0399999618530273,3.0399999618530273,48400
2020-08-13,3.059999942779541,3.384999990463257,3.059999942779541,3.2100000381469727,3.2100000381469727,44500
2020-08-14,3.2100000381469727,3.740000009536743,3.2100000381469727,3.609999895095825,3.609999895095825,111800
2020-08-17,3.680000066757202,4.440000057220459,3.680000066757202,4.0,4.0,123100
2020-08-18,4.0,4.068999767303467,3.609999895095825,3.7200000286102295,3.7200000286102295,61000
2020-08-19,3.7799999713897705,3.9000000953674316,3.0,3.0,3.0,128700
2020-08-20,3.109999895095825,3.3359999656677246,3.109999895095825,3.240000009536743,3.240000009536743,16300
2020-08-21,3.1700000762939453,3.25,3.0,3.049999952316284,3.049999952316284,15400
2020-08-24,3.0199999809265137,3.1700000762939453,3.0,3.009999990463257,3.009999990463257,22900
2020-08-25,3.0899999141693115,3.2200000286102295,3.0899999141693115,3.180000066757202,3.180000066757202,7400
2020-08-26,3.0450000762939453,3.5,3.0,3.0199999809265137,3.0199999809265137,49400
2020-08-27,3.0899999141693115,3.240000009536743,3.009999990463257,3.0999999046325684,3.0999999046325684,9100
2020-08-28,3.4100000858306885,3.4100000858306885,3.049999952316284,3.1700000762939453,3.1700000762939453,16400
2020-08-31,3.1700000762939453,3.1700000762939453,3.0199999809265137,3.0799999237060547,3.0799999237060547,5700
2020-09-01,3.069999933242798,3.140000104904175,2.9200000762939453,2.9800000190734863,2.9800000190734863,9400
2020-09-02,3.200000047683716,3.2100000381469727,3.0,3.0799999237060547,3.0799999237060547,53200
2020-09-03,2.9800000190734863,3.0999999046325684,2.9800000190734863,3.0899999141693115,3.0899999141693115,19400
2020-09-04,3.0899999141693115,3.2839999198913574,2.950000047683716,3.0,3.0,19900
2020-09-08,3.1050000190734863,3.1050000190734863,2.9600000381469727,2.9600000381469727,2.9600000381469727,4500
2020-09-09,2.9600000381469727,3.11899995803833,2.9600000381469727,3.0799999237060547,3.0799999237060547,3100
2020-09-10,3.119999885559082,3.2300000190734863,3.0299999713897705,3.2100000381469727,3.2100000381469727,8000
2020-09-11,2.99399995803833,3.0999999046325684,2.990000009536743,3.0999999046325684,3.0999999046325684,1600
2020-09-14,3.0999999046325684,3.3399999141693115,3.069999933242798,3.130000114440918,3.130000114440918,16400
2020-09-15,3.130000114440918,3.130000114440918,3.0199999809265137,3.069999933242798,3.069999933242798,4300
2020-09-16,3.049999952316284,3.125,3.049999952316284,3.125,3.125,1000
2020-09-17,3.059999942779541,3.109999895095825,3.059999942779541,3.059999942779541,3.059999942779541,17500
2020-09-18,3.0299999713897705,3.200000047683716,3.0299999713897705,3.0950000286102295,3.0950000286102295,2300
2020-09-21,3.059999942779541,3.059999942779541,3.0199999809265137,3.0199999809265137,3.0199999809265137,3300
2020-09-22,3.0290000438690186,3.049999952316284,2.950000047683716,3.0399999618530273,3.0399999618530273,5400
2020-09-23,3.059999942779541,3.059999942779541,3.009999990463257,3.009999990463257,3.009999990463257,2600
2020-09-24,3.049999952316284,3.049999952316284,2.9000000953674316,2.9000000953674316,2.9000000953674316,4600
2020-09-25,2.9200000762939453,3.119999885559082,2.9200000762939453,2.950000047683716,2.950000047683716,1600
2020-09-28,3.0,3.0,2.950000047683716,3.0,3.0,3300
2020-09-29,3.0199999809265137,3.0299999713897705,2.990000009536743,3.0299999713897705,3.0299999713897705,2600
2020-09-30,3.00600004196167,3.00600004196167,2.9800000190734863,3.0,3.0,800
2020-10-01,3.010999917984009,3.069999933242798,2.940000057220459,2.940000057220459,2.940000057220459,10700
2020-10-02,3.052000045776367,3.059999942779541,2.9800000190734863,2.9800000190734863,2.9800000190734863,6300
2020-10-05,3.0199999809265137,3.0399999618530273,2.9200000762939453,3.0399999618530273,3.0399999618530273,4000
2020-10-06,3.0199999809265137,3.109999895095825,2.940000057220459,3.0999999046325684,3.0999999046325684,4900
2020-10-07,3.049999952316284,3.049999952316284,2.990000009536743,3.0,3.0,1500
2020-10-08,2.9800000190734863,3.000999927520752,2.9700000286102295,3.0,3.0,4500
2020-10-09,3.0,3.009999990463257,2.99399995803833,3.009999990463257,3.009999990463257,1800
2020-10-12,2.994999885559082,3.490000009536743,2.9749999046325684,3.3499999046325684,3.3499999046325684,71800
2020-10-13,3.440000057220459,3.440000057220459,3.0199999809265137,3.049999952316284,3.049999952316284,37900
2020-10-14,3.059999942779541,3.299999952316284,2.950000047683716,3.0,3.0,15000
2020-10-15,2.9000000953674316,3.0199999809265137,2.884000062942505,2.996000051498413,2.996000051498413,10700
2020-10-16,3.009999990463257,3.138000011444092,2.990000009536743,3.0999999046325684,3.0999999046325684,10100
2020-10-19,3.0199999809265137,3.299999952316284,3.009999990463257,3.200000047683716,3.200000047683716,56100
2020-10-20,3.190000057220459,3.4019999504089355,3.059999942779541,3.299999952316284,3.299999952316284,47000
2020-10-21,3.5,6.360000133514404,3.309999942779541,4.650000095367432,4.650000095367432,5311300
2020-10-22,3.690000057220459,4.304999828338623,3.299999952316284,4.260000228881836,4.260000228881836,1240300
2020-10-23,3.9000000953674316,3.9800000190734863,3.430000066757202,3.4700000286102295,3.4700000286102295,152200
2020-10-26,3.3499999046325684,3.4010000228881836,2.940000057220459,2.950000047683716,2.950000047683716,154200
2020-10-27,2.9800000190734863,3.375,2.930000066757202,3.0899999141693115,3.0899999141693115,216500
2020-10-28,3.0299999713897705,3.109999895095825,2.869999885559082,2.9600000381469727,2.9600000381469727,51900
2020-10-29,3.0,3.0490000247955322,2.700000047683716,2.7699999809265137,2.7699999809265137,46800
2020-10-30,2.8499999046325684,2.8499999046325684,2.6600000858306885,2.759999990463257,2.759999990463257,23900
2020-11-02,2.759999990463257,2.7699999809265137,2.5329999923706055,2.619999885559082,2.619999885559082,32300
2020-11-03,2.559999942779541,2.740000009536743,2.440000057220459,2.559999942779541,2.559999942779541,20800
2020-11-04,2.6700000762939453,2.690000057220459,2.5799999237060547,2.609999895095825,2.609999895095825,11200
2020-11-05,2.609999895095825,2.869999885559082,2.5999999046325684,2.700000047683716,2.700000047683716,44400
2020-11-06,2.822000026702881,2.8399999141693115,2.6640000343322754,2.700000047683716,2.700000047683716,11000
2020-11-09,2.75,2.799999952316284,2.6500000953674316,2.6500000953674316,2.6500000953674316,25700
2020-11-10,2.7300000190734863,2.7300000190734863,2.6500000953674316,2.680000066757202,2.680000066757202,8200
2020-11-11,2.6540000438690186,2.740000009536743,2.6500000953674316,2.700000047683716,2.700000047683716,11500
2020-11-12,2.7100000381469727,2.9639999866485596,2.680000066757202,2.740000009536743,2.740000009536743,24900
2020-11-13,2.930000066757202,2.930000066757202,2.7200000286102295,2.740000009536743,2.740000009536743,36500
2020-11-16,2.7200000286102295,2.8399999141693115,2.7079999446868896,2.799999952316284,2.799999952316284,10300
2020-11-17,2.7100000381469727,2.890000104904175,2.7100000381469727,2.869999885559082,2.869999885559082,6500
2020-11-18,2.880000114440918,3.0299999713897705,2.7850000858306885,2.799999952316284,2.799999952316284,43600
2020-11-19,2.8550000190734863,2.9000000953674316,2.7799999713897705,2.8570001125335693,2.8570001125335693,12700
2020-11-20,2.809999942779541,2.9200000762939453,2.799999952316284,2.859999895095825,2.859999895095825,11100
2020-11-23,2.9200000762939453,3.0199999809265137,2.8499999046325684,2.9200000762939453,2.9200000762939453,48600
2020-11-24,2.940000057220459,2.9600000381469727,2.819999933242798,2.859999895095825,2.859999895095825,28300
2020-11-25,2.9779999256134033,3.109999895095825,2.859999895095825,2.950000047683716,2.950000047683716,60500
2020-11-27,3.046999931335449,3.119999885559082,3.0399999618530273,3.0799999237060547,3.0799999237060547,7800
2020-11-30,3.140000104904175,3.140000104904175,3.009999990463257,3.009999990463257,3.009999990463257,7100
2020-12-01,2.9600000381469727,3.0969998836517334,2.7799999713897705,2.8550000190734863,2.8550000190734863,14600
2020-12-02,2.759999990463257,2.9000000953674316,2.759999990463257,2.8239998817443848,2.8239998817443848,2800
2020-12-03,2.8499999046325684,2.9030001163482666,2.819999933242798,2.825000047683716,2.825000047683716,7200
2020-12-04,2.7799999713897705,2.9100000858306885,2.7699999809265137,2.799999952316284,2.799999952316284,9400
2020-12-07,2.7699999809265137,2.8499999046325684,2.759999990463257,2.7799999713897705,2.7799999713897705,11900
2020-12-08,2.7739999294281006,2.8299999237060547,2.75,2.75,2.75,7200
2020-12-09,2.799999952316284,2.885999917984009,2.6500000953674316,2.7309999465942383,2.7309999465942383,22600
2020-12-10,2.75600004196167,2.75600004196167,2.6600000858306885,2.7360000610351562,2.7360000610351562,3300
2020-12-11,2.7100000381469727,2.759999990463257,2.6029999256134033,2.759999990463257,2.759999990463257,13400
2020-12-14,2.7100000381469727,2.740000009536743,2.6600000858306885,2.740000009536743,2.740000009536743,4800
2020-12-15,2.680000066757202,2.680000066757202,2.509999990463257,2.5399999618530273,2.5399999618530273,20200
2020-12-16,2.615000009536743,2.6500000953674316,2.549999952316284,2.559999942779541,2.559999942779541,2800
2020-12-17,2.630000114440918,2.630000114440918,2.559999942779541,2.5929999351501465,2.5929999351501465,5500
2020-12-18,2.5199999809265137,2.615999937057495,2.509999990463257,2.615999937057495,2.615999937057495,6900
2020-12-21,2.5999999046325684,2.5999999046325684,2.509999990463257,2.549999952316284,2.549999952316284,6600
2020-12-22,2.549999952316284,2.569999933242798,2.5220000743865967,2.5299999713897705,2.5299999713897705,4200
2020-12-23,2.5899999141693115,2.5899999141693115,2.5199999809265137,2.5299999713897705,2.5299999713897705,4900
2020-12-24,2.559999942779541,2.565999984741211,2.549999952316284,2.549999952316284,2.549999952316284,1300
2020-12-28,2.5799999237060547,2.5899999141693115,2.5199999809265137,2.5299999713897705,2.5299999713897705,14900
2020-12-29,2.4800000190734863,4.320000171661377,2.2799999713897705,2.4000000953674316,2.4000000953674316,797900
2020-12-30,2.25,2.450000047683716,2.2200000286102295,2.390000104904175,2.390000104904175,62600
