Date,Open,High,Low,Close,Adj Close,Volume
2019-11-22,19.0,19.09000015258789,18.450000762939453,19.0,17.005720138549805,1501700
2019-11-25,18.950000762939453,18.950000762939453,18.360000610351562,18.649999618530273,16.69245719909668,311400
2019-11-26,18.6299991607666,19.020000457763672,18.450000762939453,18.799999237060547,16.826711654663086,182800
2019-11-27,18.780000686645508,18.860000610351562,18.610000610351562,18.770000457763672,16.799861907958984,92600
2019-11-29,18.75,18.790000915527344,18.700000762939453,18.770000457763672,16.799861907958984,5600
2019-12-02,18.75,18.969999313354492,18.479999542236328,18.920000076293945,16.934114456176758,61600
2019-12-03,18.850000381469727,19.09000015258789,18.549999237060547,18.979999542236328,16.98781967163086,35000
2019-12-04,18.950000762939453,18.950000762939453,18.559999465942383,18.799999237060547,16.826711654663086,49600
2019-12-05,18.760000228881836,18.80500030517578,18.670000076293945,18.700000762939453,16.737211227416992,64600
2019-12-06,18.700000762939453,18.799999237060547,18.420000076293945,18.649999618530273,16.69245719909668,69500
2019-12-09,18.649999618530273,18.698999404907227,18.450000762939453,18.600000381469727,16.647706985473633,38900
2019-12-10,18.450000762939453,18.774999618530273,18.440000534057617,18.65999984741211,16.7014102935791,86300
2019-12-11,18.700000762939453,18.700000762939453,18.450000762939453,18.600000381469727,16.647706985473633,53200
2019-12-12,18.549999237060547,18.799999237060547,18.299999237060547,18.770000457763672,16.799861907958984,47000
2019-12-13,18.84000015258789,18.950000762939453,18.700000762939453,18.850000381469727,16.871463775634766,43800
2019-12-16,18.989999771118164,18.989999771118164,18.729999542236328,18.950000762939453,16.96097183227539,35700
2019-12-17,19.0,19.0,18.540000915527344,18.700000762939453,16.737211227416992,65500
2019-12-18,18.75,18.90999984741211,18.700000762939453,18.90999984741211,16.925168991088867,24100
2019-12-19,18.850000381469727,19.0,18.850000381469727,18.969999313354492,17.031105041503906,50300
2019-12-20,18.950000762939453,18.950000762939453,18.799999237060547,18.899999618530273,16.96826171875,32800
2019-12-23,18.899999618530273,18.929000854492188,18.850000381469727,18.860000610351562,16.932350158691406,37800
2019-12-24,18.850000381469727,19.049999237060547,18.850000381469727,18.899999618530273,16.96826171875,8500
2019-12-26,18.739999771118164,18.940000534057617,18.739999771118164,18.899999618530273,16.96826171875,10700
2019-12-27,18.899999618530273,19.0,18.5,18.799999237060547,16.87847900390625,26700
2019-12-30,18.799999237060547,19.031999588012695,18.799999237060547,18.899999618530273,16.96826171875,8600
2019-12-31,18.948999404907227,19.059999465942383,18.850000381469727,19.030000686645508,17.08497428894043,26600
2020-01-02,19.100000381469727,19.100000381469727,18.959999084472656,19.040000915527344,17.093952178955078,12000
2020-01-03,19.040000915527344,19.040000915527344,18.899999618530273,18.899999618530273,16.96826171875,19800
2020-01-06,18.75,19.040000915527344,18.75,18.899999618530273,16.96826171875,54900
2020-01-07,18.950000762939453,19.011999130249023,18.899999618530273,18.959999084472656,17.02212905883789,15200
2020-01-08,18.99799919128418,19.0,18.899999618530273,19.0,17.058040618896484,23500
2020-01-09,18.9689998626709,19.200000762939453,18.899999618530273,19.190000534057617,17.228622436523438,70600
2020-01-10,19.229999542236328,19.329999923706055,19.030000686645508,19.149999618530273,17.19270896911621,90000
2020-01-13,19.200000762939453,19.329999923706055,19.020000457763672,19.299999237060547,17.327375411987305,148700
2020-01-14,19.149999618530273,19.2549991607666,19.100000381469727,19.170000076293945,17.210662841796875,83000
2020-01-15,19.200000762939453,19.25,18.5,19.200000762939453,17.23759651184082,87600
2020-01-16,19.329999923706055,19.329999923706055,19.06999969482422,19.229999542236328,17.264530181884766,26900
2020-01-17,19.1200008392334,19.25,19.100000381469727,19.219999313354492,17.25555419921875,100500
2020-01-21,19.200000762939453,19.200000762939453,18.969999313354492,19.100000381469727,17.14781951904297,47200
2020-01-22,19.051000595092773,19.100000381469727,18.959999084472656,19.09000015258789,17.13884162902832,36200
2020-01-23,19.09000015258789,19.145000457763672,19.0,19.100000381469727,17.14781951904297,27000
2020-01-24,18.989999771118164,18.989999771118164,18.7549991607666,18.93000030517578,16.995195388793945,10500
2020-01-27,18.65999984741211,19.100000381469727,18.65999984741211,19.014999389648438,17.07150650024414,20900
2020-01-28,19.049999237060547,19.100000381469727,18.96500015258789,19.079999923706055,17.12986183166504,96300
2020-01-29,19.049999237060547,19.079999923706055,18.979999542236328,19.06999969482422,17.120887756347656,48100
2020-01-30,18.885000228881836,19.020000457763672,18.780000686645508,18.950000762939453,17.013147354125977,23300
2020-01-31,18.950000762939453,19.020000457763672,18.860000610351562,19.020000457763672,17.07599639892578,31300
2020-02-03,19.079999923706055,19.100000381469727,18.75,19.049999237060547,17.102928161621094,75800
2020-02-04,19.049999237060547,19.200000762939453,19.010000228881836,19.100000381469727,17.14781951904297,97400
2020-02-05,19.040000915527344,19.100000381469727,18.770000457763672,19.0,17.058040618896484,20300
2020-02-06,19.0,19.229999542236328,19.0,19.15999984741211,17.20168685913086,56300
2020-02-07,18.90999984741211,19.200000762939453,18.90999984741211,19.079999923706055,17.12986183166504,48400
2020-02-10,19.079999923706055,19.139999389648438,19.020000457763672,19.139999389648438,17.18372917175293,26800
2020-02-11,19.15999984741211,19.834999084472656,19.020000457763672,19.350000381469727,17.37226676940918,99900
2020-02-12,19.350000381469727,19.450000762939453,19.25,19.385000228881836,17.403690338134766,23100
2020-02-13,19.399999618530273,19.450000762939453,19.179000854492188,19.235000610351562,17.269023895263672,17100
2020-02-14,19.209999084472656,19.549999237060547,19.06999969482422,19.549999237060547,17.55182456970215,43000
2020-02-18,19.600000381469727,19.825000762939453,19.35099983215332,19.482999801635742,17.49167251586914,32100
2020-02-19,19.450000762939453,19.5,19.350000381469727,19.479999542236328,17.488977432250977,27400
2020-02-20,19.489999771118164,19.655000686645508,19.139999389648438,19.280000686645508,17.309423446655273,39700
2020-02-21,19.329999923706055,19.600000381469727,19.290000915527344,19.600000381469727,17.596715927124023,23100
2020-02-24,19.549999237060547,19.549999237060547,18.889999389648438,18.940000534057617,17.004173278808594,29400
2020-02-25,18.75,19.049999237060547,18.75,19.049999237060547,17.102928161621094,38000
2020-02-26,18.850000381469727,19.03499984741211,18.850000381469727,18.8799991607666,16.950302124023438,29400
2020-02-27,18.729999542236328,18.799999237060547,18.364999771118164,18.719999313354492,16.806657791137695,52400
2020-02-28,18.479999542236328,18.59000015258789,17.514999389648438,18.399999618530273,16.519363403320312,123000
2020-03-02,18.34000015258789,18.395000457763672,17.579999923706055,18.079999923706055,16.232072830200195,56100
2020-03-03,17.979999542236328,18.079999923706055,17.040000915527344,17.100000381469727,15.352234840393066,44400
2020-03-04,17.100000381469727,17.920000076293945,17.0049991607666,17.549999237060547,15.756240844726562,46900
2020-03-05,17.389999389648438,17.889999389648438,17.25,17.889999389648438,16.06148910522461,91400
2020-03-06,17.389999389648438,17.75,17.270000457763672,17.549999237060547,15.756240844726562,70300
2020-03-09,17.399999618530273,17.399999618530273,15.75,16.65999984741211,14.957205772399902,50700
2020-03-10,16.770000457763672,17.030000686645508,16.739999771118164,16.920000076293945,15.190631866455078,58200
2020-03-11,16.799999237060547,16.899999618530273,15.510000228881836,15.75,14.140216827392578,63100
2020-03-12,15.25,15.25,13.149999618530273,13.470000267028809,12.09325122833252,74600
2020-03-13,13.520000457763672,13.84000015258789,13.0,13.229999542236328,11.877781867980957,58300
2020-03-16,12.729999542236328,12.729999542236328,8.5,8.8100004196167,7.909543991088867,123900
2020-03-17,8.800000190734863,9.930000305175781,8.770000457763672,9.260000228881836,8.313549995422363,65100
2020-03-18,8.760000228881836,8.789999961853027,7.760000228881836,7.840000152587891,7.038686752319336,95100
2020-03-19,7.869999885559082,9.640000343322754,7.735000133514404,9.399999618530273,8.660161972045898,80300
2020-03-20,9.5,12.34000015258789,9.5,12.140000343322754,11.18450927734375,169400
2020-03-23,12.020000457763672,12.279999732971191,10.90999984741211,11.729999542236328,10.806777000427246,97400
2020-03-24,11.960000038146973,13.109999656677246,11.699999809265137,12.729999542236328,11.728072166442871,47600
2020-03-25,12.5600004196167,14.989999771118164,12.505000114440918,12.550000190734863,11.562238693237305,90700
2020-03-26,13.050000190734863,13.199999809265137,11.899999618530273,11.9399995803833,11.000248908996582,88200
2020-03-27,10.920000076293945,13.329999923706055,10.550000190734863,12.390000343322754,11.414831161499023,107300
2020-03-30,12.770000457763672,14.029999732971191,11.850000381469727,12.029999732971191,11.083165168762207,36700
2020-03-31,11.850000381469727,12.829999923706055,11.779999732971191,12.3100004196167,11.341130256652832,47500
2020-04-01,12.050000190734863,12.640000343322754,11.425000190734863,11.779999732971191,10.852842330932617,40100
2020-04-02,11.989999771118164,12.604999542236328,11.829999923706055,11.829999923706055,10.898906707763672,12700
2020-04-03,12.0,12.612000465393066,10.920000076293945,11.4399995803833,10.539602279663086,55200
2020-04-06,11.270000457763672,12.102999687194824,10.649999618530273,10.739999771118164,9.894697189331055,69100
2020-04-07,9.670000076293945,10.479999542236328,8.449999809265137,8.770000457763672,8.079748153686523,437800
2020-04-08,9.199999809265137,10.899999618530273,9.199999809265137,10.180000305175781,9.378772735595703,97700
2020-04-09,10.420000076293945,11.140000343322754,9.979999542236328,10.779999732971191,9.931549072265625,91000
2020-04-13,10.649999618530273,11.0649995803833,10.460000038146973,10.859999656677246,10.00525188446045,89800
2020-04-14,10.989999771118164,11.470000267028809,10.800000190734863,11.109999656677246,10.235575675964355,64200
2020-04-15,10.819999694824219,11.190999984741211,10.315999984741211,10.729999542236328,9.885483741760254,105100
2020-04-16,11.119999885559082,11.25,10.399999618530273,10.670000076293945,9.830205917358398,41100
2020-04-17,10.9399995803833,11.164999961853027,10.5,10.640000343322754,9.802568435668945,71800
2020-04-20,10.430000305175781,10.800000190734863,10.329999923706055,10.449999809265137,9.627520561218262,63500
2020-04-21,10.350000381469727,10.729000091552734,9.949999809265137,10.140000343322754,9.341920852661133,104200
2020-04-22,10.229999542236328,10.6899995803833,10.0,10.170000076293945,9.369559288024902,55700
2020-04-23,10.1899995803833,11.0,10.1850004196167,10.899999618530273,10.04210376739502,53900
2020-04-24,10.819999694824219,11.1899995803833,10.8100004196167,10.899999618530273,10.04210376739502,65100
2020-04-27,11.0,11.930000305175781,10.989999771118164,11.600000381469727,10.687010765075684,35100
2020-04-28,11.90999984741211,13.0,11.65999984741211,12.399999618530273,11.424043655395508,95600
2020-04-29,13.199999809265137,14.529999732971191,13.055999755859375,13.890000343322754,12.796772956848145,80900
2020-04-30,14.130000114440918,14.130000114440918,12.289999961853027,12.949999809265137,11.930755615234375,76700
2020-05-01,12.979999542236328,13.0,12.149999618530273,12.170000076293945,11.212148666381836,36200
2020-05-04,12.010000228881836,12.277999877929688,11.880000114440918,11.899999618530273,10.963397026062012,29700
2020-05-05,11.75,12.324999809265137,11.3100004196167,11.40999984741211,10.511963844299316,34300
2020-05-06,11.710000038146973,12.899999618530273,11.619999885559082,12.329999923706055,11.359554290771484,46200
2020-05-07,12.609999656677246,13.1899995803833,12.569999694824219,12.779999732971191,11.774136543273926,22900
2020-05-08,13.0,13.8100004196167,13.0,13.369999885559082,12.317700386047363,46000
2020-05-11,13.529999732971191,13.8100004196167,13.109999656677246,13.239999771118164,12.197932243347168,38000
2020-05-12,13.619999885559082,13.619999885559082,11.729999542236328,12.0,11.055526733398438,79300
2020-05-13,12.260000228881836,12.625,10.65999984741211,10.710000038146973,9.867058753967285,62700
2020-05-14,10.609999656677246,11.109999656677246,10.34000015258789,10.970000267028809,10.10659408569336,83600
2020-05-15,10.739999771118164,12.397000312805176,10.739999771118164,11.539999961853027,10.631731986999512,67700
2020-05-18,12.109999656677246,12.258999824523926,11.699999809265137,11.779999732971191,10.852842330932617,63100
2020-05-19,11.5600004196167,12.199999809265137,11.520000457763672,12.100000381469727,11.14765739440918,67700
2020-05-20,12.100000381469727,12.430999755859375,10.529999732971191,11.984999656677246,11.041707038879395,64600
2020-05-21,11.510000228881836,12.0,11.460000038146973,11.470000267028809,10.567240715026855,51400
2020-05-22,11.40999984741211,11.930000305175781,11.029999732971191,11.890000343322754,10.954185485839844,31900
2020-05-26,12.350000381469727,12.557999610900879,11.800000190734863,11.800000190734863,10.871269226074219,35100
2020-05-27,12.0,12.010000228881836,11.458999633789062,11.829999923706055,10.898906707763672,53900
2020-05-28,12.270000457763672,12.5,11.710000038146973,11.989999771118164,11.046314239501953,42400
2020-05-29,12.0,12.664999961853027,11.649999618530273,12.369999885559082,11.396406173706055,47900
2020-06-01,12.15999984741211,12.9350004196167,12.119999885559082,12.5600004196167,11.571450233459473,38500
2020-06-02,12.829999923706055,14.90999984741211,12.805999755859375,14.260000228881836,13.137651443481445,52500
2020-06-03,14.979999542236328,15.1899995803833,14.270000457763672,14.949999809265137,13.773344039916992,62900
2020-06-04,16.440000534057617,17.15999984741211,14.029999732971191,14.210000038146973,13.09158706665039,74500
2020-06-05,15.609999656677246,15.920000076293945,14.729999542236328,15.0,13.819409370422363,49000
2020-06-08,15.579999923706055,15.699999809265137,15.100000381469727,15.100000381469727,13.911538124084473,61800
2020-06-09,15.079999923706055,15.350000381469727,14.710000038146973,15.020000457763672,13.837836265563965,53000
2020-06-10,15.319999694824219,15.539999961853027,14.010000228881836,14.859999656677246,13.69042682647705,96500
2020-06-11,14.859999656677246,15.050000190734863,13.890999794006348,14.289999961853027,13.165290832519531,103500
2020-06-12,14.369999885559082,16.420000076293945,14.319999694824219,16.059999465942383,15.006001472473145,48000
2020-06-15,16.229999542236328,17.125,15.880000114440918,16.149999618530273,15.090095520019531,94100
2020-06-16,16.739999771118164,17.899999618530273,16.510000228881836,16.760000228881836,15.660061836242676,92700
2020-06-17,17.3700008392334,17.3700008392334,16.520000457763672,16.770000457763672,15.669404029846191,121800
2020-06-18,16.90999984741211,16.989999771118164,16.5,16.989999771118164,15.874968528747559,124100
2020-06-19,17.350000381469727,17.989999771118164,16.1200008392334,16.270000457763672,15.202221870422363,314800
2020-06-22,16.450000762939453,17.530000686645508,15.5,16.75,15.650717735290527,122000
2020-06-23,17.280000686645508,17.280000686645508,16.56999969482422,16.920000076293945,15.80955982208252,161500
2020-06-24,16.899999618530273,16.899999618530273,15.25,15.350000381469727,14.342598915100098,93400
2020-06-25,15.359999656677246,16.420000076293945,15.359999656677246,16.420000076293945,15.342375755310059,92700
2020-06-26,16.200000762939453,16.200000762939453,14.399999618530273,14.640000343322754,13.679195404052734,887600
2020-06-29,14.989999771118164,16.549999237060547,14.699999809265137,15.90999984741211,14.865846633911133,80800
2020-06-30,15.720000267028809,16.260000228881836,15.6899995803833,16.260000228881836,15.192875862121582,76300
2020-07-01,16.299999237060547,16.31999969482422,15.494999885559082,15.869999885559082,14.828472137451172,45000
2020-07-02,15.899999618530273,16.0,15.0,15.210000038146973,14.211786270141602,38100
2020-07-06,15.40999984741211,15.550000190734863,14.9399995803833,15.350000381469727,14.342598915100098,89200
2020-07-07,15.199999809265137,15.25,14.350000381469727,14.430000305175781,13.482977867126465,66600
2020-07-08,14.260000228881836,14.385000228881836,13.654999732971191,14.029999732971191,13.109228134155273,59500
2020-07-09,14.010000228881836,14.010000228881836,13.149999618530273,13.399999618530273,12.520574569702148,61500
2020-07-10,13.369999885559082,13.84000015258789,13.369999885559082,13.729999542236328,12.828916549682617,55400
2020-07-13,13.850000381469727,14.04699993133545,13.550000190734863,13.569999694824219,12.679417610168457,49900
2020-07-14,13.550000190734863,14.140000343322754,13.460000038146973,14.140000343322754,13.21200942993164,31900
2020-07-15,14.539999961853027,15.380000114440918,14.399999618530273,15.130000114440918,14.137036323547363,62900
2020-07-16,15.020000457763672,15.0600004196167,14.510000228881836,14.760000228881836,13.791319847106934,41200
2020-07-17,14.760000228881836,14.890000343322754,14.40999984741211,14.720000267028809,13.753944396972656,45300
2020-07-20,14.899999618530273,14.899999618530273,14.539999961853027,14.649999618530273,13.688539505004883,33500
2020-07-21,14.699999809265137,14.854000091552734,14.079999923706055,14.270000457763672,13.333477020263672,45200
2020-07-22,14.130000114440918,14.579999923706055,14.100000381469727,14.489999771118164,13.53903865814209,43500
2020-07-23,14.5,15.84000015258789,14.5,14.779999732971191,13.810005187988281,50600
2020-07-24,14.569999694824219,14.675000190734863,14.010000228881836,14.600000381469727,13.641820907592773,83200
2020-07-27,14.619999885559082,14.619999885559082,14.130000114440918,14.4399995803833,13.49232006072998,45300
2020-07-28,14.350000381469727,14.699999809265137,14.319999694824219,14.640000343322754,13.679195404052734,28700
2020-07-29,14.680000305175781,14.829999923706055,14.520000457763672,14.779999732971191,13.810005187988281,41800
2020-07-30,14.680000305175781,15.100000381469727,14.520000457763672,14.920000076293945,13.940818786621094,30000
2020-07-31,14.680000305175781,14.899999618530273,13.4350004196167,14.039999961853027,13.118572235107422,87700
2020-08-03,13.880000114440918,14.75,13.680000305175781,14.65999984741211,13.697882652282715,56300
2020-08-04,14.65999984741211,14.989999771118164,14.65999984741211,14.789999961853027,13.819351196289062,25900
2020-08-05,14.880000114440918,14.880000114440918,14.100000381469727,14.770000457763672,13.800663948059082,41400
2020-08-06,14.770000457763672,14.800000190734863,14.550000190734863,14.800000190734863,13.828694343566895,7600
2020-08-07,14.819999694824219,15.390000343322754,14.739999771118164,15.239999771118164,14.23981761932373,26200
2020-08-10,15.350000381469727,15.829999923706055,15.289999961853027,15.34000015258789,14.33325481414795,40900
2020-08-11,15.319999694824219,15.59000015258789,14.550000190734863,14.619999885559082,13.660507202148438,44800
2020-08-12,14.640000343322754,14.779999732971191,14.390000343322754,14.449999809265137,13.501664161682129,21700
2020-08-13,14.520000457763672,14.720000267028809,14.399999618530273,14.479999542236328,13.529695510864258,16500
2020-08-14,14.399999618530273,14.550000190734863,14.100000381469727,14.329999923706055,13.38953971862793,23200
2020-08-17,14.399999618530273,15.104999542236328,14.399999618530273,15.079999923706055,14.09031867980957,55500
2020-08-18,15.069999694824219,15.210000038146973,14.75,14.829999923706055,13.856725692749023,33900
2020-08-19,14.84000015258789,15.125,14.739999771118164,14.869999885559082,13.894100189208984,29000
2020-08-20,14.670000076293945,15.0600004196167,14.430000305175781,14.6899995803833,13.725912094116211,41100
2020-08-21,14.449999809265137,14.505999565124512,13.449999809265137,14.399999618530273,13.454944610595703,120900
2020-08-24,14.289999961853027,14.449999809265137,13.779999732971191,14.359999656677246,13.417571067810059,68800
2020-08-25,14.380000114440918,14.670000076293945,14.170000076293945,14.5600004196167,13.604445457458496,37400
2020-08-26,14.678999900817871,14.678999900817871,13.300000190734863,13.449999809265137,12.567293167114258,133100
2020-08-27,13.979999542236328,14.444999694824219,13.75,13.829999923706055,12.922354698181152,75100
2020-08-28,14.0,14.199999809265137,13.885000228881836,14.199999809265137,13.268071174621582,31800
2020-08-31,14.430000305175781,14.949999809265137,14.0600004196167,14.510000228881836,13.55772590637207,49300
2020-09-01,14.34000015258789,14.670000076293945,14.289999961853027,14.579999923706055,13.62313175201416,28500
2020-09-02,14.569999694824219,14.75,14.300000190734863,14.65999984741211,13.697882652282715,39200
2020-09-03,14.65999984741211,14.9399995803833,14.069999694824219,14.229999542236328,13.296102523803711,44200
2020-09-04,14.609999656677246,14.789999961853027,13.890000343322754,14.039999961853027,13.118572235107422,46700
2020-09-08,14.229999542236328,14.229999542236328,13.729999542236328,13.90999984741211,12.99710464477539,57900
2020-09-09,13.949999809265137,15.0600004196167,13.949999809265137,14.8100004196167,13.838038444519043,71200
2020-09-10,15.0,15.9399995803833,15.0,15.670000076293945,14.641597747802734,57000
2020-09-11,15.84000015258789,15.84000015258789,14.520000457763672,14.880000114440918,13.903444290161133,45000
2020-09-14,15.020000457763672,16.329999923706055,15.020000457763672,15.59000015258789,14.76530647277832,100300
2020-09-15,15.569999694824219,16.25,15.5,16.15999984741211,15.305152893066406,42300
2020-09-16,16.43000030517578,16.53499984741211,16.1299991607666,16.190000534057617,15.333566665649414,35300
2020-09-17,15.930000305175781,16.44499969482422,15.659000396728516,16.079999923706055,15.229385375976562,20900
2020-09-18,16.290000915527344,16.75,16.030000686645508,16.75,15.86394214630127,92400
2020-09-21,16.5,16.5,15.670999526977539,15.800000190734863,14.964197158813477,78400
2020-09-22,15.899999618530273,16.399999618530273,15.65999984741211,16.350000381469727,15.48510456085205,45000
2020-09-23,16.329999923706055,16.576000213623047,16.100000381469727,16.280000686645508,15.418806076049805,131300
2020-09-24,16.350000381469727,16.350000381469727,15.0,15.25,14.443291664123535,45300
2020-09-25,15.039999961853027,16.100000381469727,15.039999961853027,15.59000015258789,14.76530647277832,47200
2020-09-28,15.5,16.149999618530273,15.260000228881836,15.9399995803833,15.096790313720703,56400
2020-09-29,15.9399995803833,16.048999786376953,15.5,15.5600004196167,14.736893653869629,19800
2020-09-30,15.800000190734863,15.90999984741211,14.920000076293945,15.550000190734863,14.727421760559082,63500
2020-10-01,15.550000190734863,16.1299991607666,15.4399995803833,16.0,15.153616905212402,28800
2020-10-02,15.600000381469727,16.0,15.5600004196167,15.9399995803833,15.096790313720703,49800
2020-10-05,16.219999313354492,16.399999618530273,15.510000228881836,15.609999656677246,14.784247398376465,27300
2020-10-06,15.640000343322754,15.640000343322754,15.010000228881836,15.170000076293945,14.367523193359375,28800
2020-10-07,15.149999618530273,15.699999809265137,15.149999618530273,15.539999961853027,14.717950820922852,84700
2020-10-08,15.640000343322754,15.829999923706055,15.5,15.539999961853027,14.717950820922852,39400
2020-10-09,15.520000457763672,15.784000396728516,15.460000038146973,15.600000381469727,14.774776458740234,28100
2020-10-12,15.670000076293945,15.760000228881836,15.229999542236328,15.520000457763672,14.69900894165039,29400
2020-10-13,15.539999961853027,15.579999923706055,14.600000381469727,14.899999618530273,14.11180591583252,33100
2020-10-14,14.970000267028809,15.104999542236328,14.550000190734863,14.59000015258789,13.818204879760742,32300
2020-10-15,14.4399995803833,14.960000038146973,14.210000038146973,14.579999923706055,13.808732986450195,53600
2020-10-16,14.470000267028809,14.743000030517578,14.020000457763672,14.09000015258789,13.34465503692627,29100
2020-10-19,14.079999923706055,14.319999694824219,13.960000038146973,14.0,13.259414672851562,26200
2020-10-20,14.210000038146973,14.4399995803833,14.020000457763672,14.4399995803833,13.676138877868652,17600
2020-10-21,14.569999694824219,14.640000343322754,14.25,14.640000343322754,13.865559577941895,11600
2020-10-22,15.100000381469727,16.399999618530273,15.085000038146973,15.899999618530273,15.058907508850098,53100
2020-10-23,15.850000381469727,16.229999542236328,14.920000076293945,15.460000038146973,14.642182350158691,50000
2020-10-26,15.25,15.289999961853027,14.699999809265137,15.039999961853027,14.244400024414062,31600
2020-10-27,14.880000114440918,15.03499984741211,14.140000343322754,14.25,13.496191024780273,26000
2020-10-28,14.0,14.395000457763672,13.65999984741211,13.850000381469727,13.117350578308105,60900
2020-10-29,13.90999984741211,14.260000228881836,13.699999809265137,14.140000343322754,13.392008781433105,24700
2020-10-30,14.100000381469727,14.170000076293945,13.75,13.949999809265137,13.21205997467041,25000
2020-11-02,14.180000305175781,14.180000305175781,13.829999923706055,14.020000457763672,13.27835750579834,32500
2020-11-03,14.100000381469727,14.789999961853027,13.9399995803833,14.550000190734863,13.780320167541504,47600
2020-11-04,14.5600004196167,14.800999641418457,14.300000190734863,14.34000015258789,13.581429481506348,22400
2020-11-05,14.34000015258789,14.819999694824219,14.09000015258789,14.180000305175781,13.429893493652344,41900
2020-11-06,14.279999732971191,14.333999633789062,13.510000228881836,13.640000343322754,12.918458938598633,29100
2020-11-09,15.15999984741211,15.800000190734863,14.65999984741211,14.739999771118164,13.960269927978516,48500
2020-11-10,14.890000343322754,15.34000015258789,14.800000190734863,15.300000190734863,14.490647315979004,30400
2020-11-11,15.350000381469727,15.350000381469727,14.75,15.319999694824219,14.509588241577148,30300
2020-11-12,15.029999732971191,15.177000045776367,14.619999885559082,14.989999771118164,14.19704532623291,23300
2020-11-13,14.960000038146973,15.350000381469727,14.914999961853027,15.350000381469727,14.538002014160156,80400
2020-11-16,15.5,15.779999732971191,15.369999885559082,15.5,14.68006706237793,55300
2020-11-17,15.350000381469727,15.5,15.279999732971191,15.4399995803833,14.62324047088623,24800
2020-11-18,15.5,15.539999961853027,15.170000076293945,15.1899995803833,14.386466026306152,46300
2020-11-19,15.100000381469727,15.229999542236328,14.930000305175781,15.199999809265137,14.395936012268066,24700
2020-11-20,15.020000457763672,15.5,15.0,15.5,14.68006706237793,32900
2020-11-23,15.5,15.574999809265137,15.300000190734863,15.380000114440918,14.566413879394531,50500
2020-11-24,15.5600004196167,16.200000762939453,15.449999809265137,16.030000686645508,15.18203067779541,53000
2020-11-25,16.0,16.100000381469727,15.899999618530273,16.09000015258789,15.238855361938477,24000
2020-11-27,15.989999771118164,16.031999588012695,15.600000381469727,15.979999542236328,15.134675025939941,18300
2020-11-30,15.920000076293945,16.540000915527344,15.020000457763672,16.010000228881836,15.16308879852295,92100
2020-12-01,16.010000228881836,16.350000381469727,15.930000305175781,16.059999465942383,15.210442543029785,27100
2020-12-02,16.059999465942383,16.329999923706055,15.970000267028809,15.970000267028809,15.125204086303711,28400
2020-12-03,15.965999603271484,16.020000457763672,15.350000381469727,15.4399995803833,14.62324047088623,47200
2020-12-04,15.5,15.690999984741211,15.442999839782715,15.670000076293945,14.84107494354248,19500
2020-12-07,16.030000686645508,16.33099937438965,15.663000106811523,15.899999618530273,15.058907508850098,30100
2020-12-08,15.930000305175781,16.040000915527344,14.899999618530273,15.329999923706055,14.519060134887695,54400
2020-12-09,15.579999923706055,15.579999923706055,15.199999809265137,15.399999618530273,14.585355758666992,16600
2020-12-10,15.40999984741211,15.600000381469727,15.07699966430664,15.569999694824219,14.746362686157227,21100
2020-12-11,15.397000312805176,15.460000038146973,15.119999885559082,15.319999694824219,14.509588241577148,20800
2020-12-14,15.25,15.25,14.819999694824219,15.010000228881836,14.423108100891113,49500
2020-12-15,15.069999694824219,15.354999542236328,14.949999809265137,15.25,14.653722763061523,31100
2020-12-16,15.020000457763672,15.100000381469727,14.649999618530273,14.930000305175781,14.346235275268555,60900
2020-12-17,14.979999542236328,15.25,14.949999809265137,15.25,14.653722763061523,33900
2020-12-18,15.25,15.25,14.944999694824219,15.220000267028809,14.624896049499512,139100
2020-12-21,14.949999809265137,15.1850004196167,14.050000190734863,14.34000015258789,13.779304504394531,95400
2020-12-22,14.460000038146973,14.682999610900879,13.770000457763672,13.949999809265137,13.404553413391113,73900
2020-12-23,14.149999618530273,14.300000190734863,13.972999572753906,14.180000305175781,13.625560760498047,29100
2020-12-24,14.050000190734863,14.460000038146973,14.050000190734863,14.430000305175781,13.865785598754883,15200
2020-12-28,14.390000343322754,14.8100004196167,14.149999618530273,14.569999694824219,14.000311851501465,53600
2020-12-29,14.380000114440918,14.510000228881836,14.15999984741211,14.470000267028809,13.90422248840332,49900
2020-12-30,14.369999885559082,14.579999923706055,14.369999885559082,14.520000457763672,13.952266693115234,40300
