Date,Open,High,Low,Close,Adj Close,Volume
2018-10-12,24.25,24.700000762939453,21.459999084472656,24.299999237060547,24.299999237060547,15086200
2018-10-15,23.1200008392334,24.5,22.18000030517578,24.299999237060547,24.299999237060547,1572200
2018-10-16,24.5,24.65999984741211,22.56999969482422,23.020000457763672,23.020000457763672,1297300
2018-10-17,22.760000228881836,26.969999313354492,22.75,25.43000030517578,25.43000030517578,1149900
2018-10-18,26.06999969482422,26.200000762939453,24.010000228881836,24.5,24.5,1639600
2018-10-19,24.75,25.959999084472656,24.059999465942383,24.479999542236328,24.479999542236328,280100
2018-10-22,24.420000076293945,25.25,24.1299991607666,24.510000228881836,24.510000228881836,194900
2018-10-23,24.010000228881836,24.5,23.549999237060547,23.899999618530273,23.899999618530273,458800
2018-10-24,23.639999389648438,24.329999923706055,22.5,22.549999237060547,22.549999237060547,677600
2018-10-25,22.75,24.100000381469727,22.6299991607666,23.8700008392334,23.8700008392334,482400
2018-10-26,23.59000015258789,26.389999389648438,22.799999237060547,24.610000610351562,24.610000610351562,458700
2018-10-29,24.950000762939453,25.579999923706055,22.149999618530273,22.639999389648438,22.639999389648438,422500
2018-10-30,22.75,23.1299991607666,20.3700008392334,22.610000610351562,22.610000610351562,936700
2018-10-31,23.0,23.600000381469727,22.31999969482422,23.0,23.0,383700
2018-11-01,23.059999465942383,24.489999771118164,21.719999313354492,24.049999237060547,24.049999237060547,436200
2018-11-02,23.93000030517578,24.959999084472656,23.25,24.739999771118164,24.739999771118164,420100
2018-11-05,24.739999771118164,24.969999313354492,22.899999618530273,23.920000076293945,23.920000076293945,227300
2018-11-06,23.68000030517578,24.389999389648438,23.020000457763672,23.700000762939453,23.700000762939453,222400
2018-11-07,23.799999237060547,27.299999237060547,23.799999237060547,26.610000610351562,26.610000610351562,553100
2018-11-08,26.6299991607666,27.06999969482422,25.75,25.75,25.75,261400
2018-11-09,25.649999618530273,25.649999618530273,23.600000381469727,24.219999313354492,24.219999313354492,354000
2018-11-12,24.030000686645508,24.209999084472656,22.399999618530273,22.719999313354492,22.719999313354492,452300
2018-11-13,22.75,23.049999237060547,22.1299991607666,22.690000534057617,22.690000534057617,228200
2018-11-14,22.75,23.420000076293945,22.600000381469727,22.93000030517578,22.93000030517578,144800
2018-11-15,22.979999542236328,23.280000686645508,22.440000534057617,23.040000915527344,23.040000915527344,279000
2018-11-16,22.860000610351562,24.479999542236328,22.770000457763672,24.1299991607666,24.1299991607666,366400
2018-11-19,24.170000076293945,24.450000762939453,21.600000381469727,22.969999313354492,22.969999313354492,723400
2018-11-20,22.610000610351562,22.610000610351562,20.600000381469727,21.0,21.0,583300
2018-11-21,21.329999923706055,21.549999237060547,20.8700008392334,20.950000762939453,20.950000762939453,472700
2018-11-23,21.0,21.799999237060547,20.770000457763672,21.459999084472656,21.459999084472656,153400
2018-11-26,21.760000228881836,22.56999969482422,21.139999389648438,22.399999618530273,22.399999618530273,418900
2018-11-27,22.31999969482422,22.520000457763672,21.709999084472656,22.5,22.5,290600
2018-11-28,24.229999542236328,25.0,20.790000915527344,25.0,25.0,1329400
2018-11-29,24.68000030517578,26.649999618530273,24.420000076293945,26.139999389648438,26.139999389648438,435300
2018-11-30,26.049999237060547,28.329999923706055,25.489999771118164,28.0,28.0,518200
2018-12-03,28.549999237060547,29.700000762939453,26.549999237060547,27.959999084472656,27.959999084472656,818400
2018-12-04,27.719999313354492,28.059999465942383,26.780000686645508,27.65999984741211,27.65999984741211,556200
2018-12-06,27.0,29.149999618530273,26.6200008392334,28.829999923706055,28.829999923706055,651700
2018-12-07,28.850000381469727,29.219999313354492,27.479999542236328,27.530000686645508,27.530000686645508,646300
2018-12-10,27.440000534057617,28.200000762939453,26.200000762939453,27.299999237060547,27.299999237060547,525100
2018-12-11,27.8799991607666,28.0,25.209999084472656,25.5,25.5,658000
2018-12-12,25.90999984741211,26.59000015258789,24.860000610351562,25.670000076293945,25.670000076293945,717900
2018-12-13,25.8799991607666,27.360000610351562,25.8799991607666,26.75,26.75,479000
2018-12-14,26.270000457763672,28.110000610351562,25.780000686645508,27.899999618530273,27.899999618530273,448200
2018-12-17,27.739999771118164,27.739999771118164,24.809999465942383,25.139999389648438,25.139999389648438,778600
2018-12-18,25.15999984741211,26.239999771118164,24.940000534057617,25.770000457763672,25.770000457763672,407100
2018-12-19,25.579999923706055,26.200000762939453,24.6299991607666,24.8799991607666,24.8799991607666,571100
2018-12-20,24.520000457763672,25.389999389648438,23.3700008392334,25.100000381469727,25.100000381469727,899300
2018-12-21,25.170000076293945,25.170000076293945,23.969999313354492,24.6299991607666,24.6299991607666,2859300
2018-12-24,24.510000228881836,24.610000610351562,23.649999618530273,24.40999984741211,24.40999984741211,101800
2018-12-26,24.690000534057617,26.420000076293945,24.56999969482422,26.229999542236328,26.229999542236328,247600
2018-12-27,25.940000534057617,27.1299991607666,25.34000015258789,27.040000915527344,27.040000915527344,242600
2018-12-28,27.149999618530273,27.459999084472656,26.010000228881836,27.170000076293945,27.170000076293945,292500
2018-12-31,27.299999237060547,27.989999771118164,26.0,26.540000915527344,26.540000915527344,713700
2019-01-02,26.149999618530273,26.459999084472656,25.1299991607666,25.90999984741211,25.90999984741211,718700
2019-01-03,25.59000015258789,25.809999465942383,23.829999923706055,24.0,24.0,472300
2019-01-04,24.34000015258789,24.899999618530273,23.780000686645508,24.100000381469727,24.100000381469727,434500
2019-01-07,24.3700008392334,26.299999237060547,24.25,26.0,26.0,522800
2019-01-08,26.299999237060547,27.459999084472656,26.170000076293945,27.200000762939453,27.200000762939453,355400
2019-01-09,27.329999923706055,28.139999389648438,27.18000030517578,27.799999237060547,27.799999237060547,331900
2019-01-10,27.700000762939453,28.09000015258789,27.0,27.899999618530273,27.899999618530273,186700
2019-01-11,27.709999084472656,28.850000381469727,27.350000381469727,28.549999237060547,28.549999237060547,373200
2019-01-14,28.34000015258789,28.450000762939453,26.25,26.360000610351562,26.360000610351562,776800
2019-01-15,26.790000915527344,29.239999771118164,26.530000686645508,28.920000076293945,28.920000076293945,1010100
2019-01-16,29.299999237060547,29.6299991607666,28.030000686645508,28.729999542236328,28.729999542236328,309300
2019-01-17,28.520000457763672,29.239999771118164,28.100000381469727,28.700000762939453,28.700000762939453,198900
2019-01-18,28.899999618530273,30.450000762939453,28.5,29.799999237060547,29.799999237060547,767200
2019-01-22,29.600000381469727,29.899999618530273,28.299999237060547,29.149999618530273,29.149999618530273,291300
2019-01-23,29.170000076293945,30.100000381469727,28.969999313354492,30.0,30.0,361800
2019-01-24,30.020000457763672,30.18000030517578,29.329999923706055,29.979999542236328,29.979999542236328,278100
2019-01-25,30.329999923706055,31.850000381469727,29.950000762939453,31.799999237060547,31.799999237060547,515200
2019-01-28,31.450000762939453,31.610000610351562,30.139999389648438,30.75,30.75,517000
2019-01-29,31.06999969482422,31.229999542236328,29.56999969482422,29.68000030517578,29.68000030517578,278600
2019-01-30,29.860000610351562,30.700000762939453,29.399999618530273,30.200000762939453,30.200000762939453,227800
2019-01-31,30.270000457763672,31.75,30.200000762939453,31.389999389648438,31.389999389648438,259700
2019-02-01,31.440000534057617,31.610000610351562,30.43000030517578,30.989999771118164,30.989999771118164,238300
2019-02-04,31.0,31.93000030517578,30.690000534057617,30.969999313354492,30.969999313354492,350200
2019-02-05,31.200000762939453,33.13999938964844,30.979999542236328,32.040000915527344,32.040000915527344,558100
2019-02-06,32.060001373291016,32.630001068115234,30.790000915527344,31.5,31.5,285900
2019-02-07,31.239999771118164,31.59000015258789,30.479999542236328,31.3700008392334,31.3700008392334,260900
2019-02-08,30.600000381469727,32.08000183105469,29.899999618530273,31.760000228881836,31.760000228881836,515400
2019-02-11,31.920000076293945,32.72999954223633,31.06999969482422,31.260000228881836,31.260000228881836,319000
2019-02-12,31.719999313354492,32.91999816894531,31.65999984741211,32.72999954223633,32.72999954223633,357900
2019-02-13,32.93000030517578,33.33000183105469,31.93000030517578,32.470001220703125,32.470001220703125,159200
2019-02-14,32.290000915527344,33.13999938964844,32.060001373291016,32.900001525878906,32.900001525878906,236700
2019-02-15,33.220001220703125,34.209999084472656,32.63999938964844,33.95000076293945,33.95000076293945,491500
2019-02-19,34.06999969482422,34.20000076293945,32.849998474121094,32.90999984741211,32.90999984741211,323400
2019-02-20,33.0,33.79999923706055,32.68000030517578,32.75,32.75,320000
2019-02-21,32.75,33.11000061035156,31.799999237060547,32.52000045776367,32.52000045776367,339900
2019-02-22,33.060001373291016,34.470001220703125,32.779998779296875,33.38999938964844,33.38999938964844,749500
2019-02-25,38.0099983215332,39.65999984741211,35.7599983215332,36.83000183105469,36.83000183105469,2584500
2019-02-26,36.709999084472656,38.86000061035156,35.58000183105469,38.029998779296875,38.029998779296875,686300
2019-02-27,38.029998779296875,40.75,38.029998779296875,39.119998931884766,39.119998931884766,1096100
2019-02-28,38.83000183105469,39.689998626708984,37.279998779296875,37.5099983215332,37.5099983215332,728500
2019-03-01,37.86000061035156,40.0,37.11000061035156,39.83000183105469,39.83000183105469,887900
2019-03-04,40.279998779296875,40.5,37.880001068115234,38.36000061035156,38.36000061035156,676200
2019-03-05,38.36000061035156,39.2599983215332,38.130001068115234,38.779998779296875,38.779998779296875,247200
2019-03-06,38.849998474121094,38.93000030517578,37.20000076293945,37.29999923706055,37.29999923706055,507100
2019-03-07,37.189998626708984,37.560001373291016,36.130001068115234,36.560001373291016,36.560001373291016,425100
2019-03-08,35.79999923706055,37.38999938964844,35.619998931884766,37.25,37.25,321000
2019-03-11,37.88999938964844,39.34000015258789,37.54999923706055,38.72999954223633,38.72999954223633,576200
2019-03-12,38.790000915527344,39.83000183105469,38.4900016784668,39.18000030517578,39.18000030517578,309500
2019-03-13,39.459999084472656,39.689998626708984,38.08000183105469,38.880001068115234,38.880001068115234,515200
2019-03-14,38.79999923706055,40.810001373291016,38.630001068115234,40.68000030517578,40.68000030517578,696700
2019-03-15,41.0,41.41999816894531,39.43000030517578,40.4900016784668,40.4900016784668,826100
2019-03-18,40.77000045776367,41.20000076293945,38.2599983215332,39.099998474121094,39.099998474121094,811000
2019-03-19,39.279998779296875,39.7400016784668,38.20000076293945,38.72999954223633,38.72999954223633,363500
2019-03-20,38.72999954223633,39.47999954223633,36.470001220703125,38.310001373291016,38.310001373291016,556000
2019-03-21,38.20000076293945,41.16999816894531,38.119998931884766,40.45000076293945,40.45000076293945,507400
2019-03-22,40.209999084472656,40.650001525878906,38.38999938964844,38.970001220703125,38.970001220703125,527300
2019-03-25,38.66999816894531,40.97999954223633,38.27000045776367,40.470001220703125,40.470001220703125,643100
2019-03-26,41.099998474121094,41.7599983215332,40.16999816894531,40.630001068115234,40.630001068115234,535100
2019-03-27,40.93000030517578,40.9900016784668,37.91999816894531,40.0,40.0,435800
2019-03-28,40.150001525878906,41.15999984741211,39.060001373291016,39.650001525878906,39.650001525878906,459500
2019-03-29,39.560001373291016,40.20000076293945,39.130001068115234,39.36000061035156,39.36000061035156,466900
2019-04-01,40.0,40.630001068115234,37.849998474121094,38.04999923706055,38.04999923706055,992000
2019-04-02,38.060001373291016,38.83000183105469,37.380001068115234,38.45000076293945,38.45000076293945,840200
2019-04-03,38.810001373291016,39.70000076293945,38.369998931884766,38.83000183105469,38.83000183105469,647700
2019-04-04,38.779998779296875,39.130001068115234,36.20000076293945,37.099998474121094,37.099998474121094,692100
2019-04-05,36.33000183105469,36.790000915527344,34.88999938964844,35.2400016784668,35.2400016784668,1693900
2019-04-08,35.09000015258789,35.189998626708984,33.59000015258789,35.06999969482422,35.06999969482422,925900
2019-04-09,35.029998779296875,35.900001525878906,34.5,35.790000915527344,35.790000915527344,905300
2019-04-10,34.93000030517578,36.52000045776367,34.0,35.22999954223633,35.22999954223633,9627300
2019-04-11,35.5099983215332,36.0,34.79999923706055,35.54999923706055,35.54999923706055,3388300
2019-04-12,35.9900016784668,36.15999984741211,35.29999923706055,35.689998626708984,35.689998626708984,1776700
2019-04-15,35.650001525878906,36.0,35.15999984741211,35.52000045776367,35.52000045776367,907900
2019-04-16,35.75,36.540000915527344,35.5,36.310001373291016,36.310001373291016,1427200
2019-04-17,36.220001220703125,36.220001220703125,34.90999984741211,35.2400016784668,35.2400016784668,2188800
2019-04-18,35.029998779296875,35.27000045776367,33.83000183105469,35.20000076293945,35.20000076293945,1479000
2019-04-22,35.09000015258789,35.560001373291016,34.5,35.52000045776367,35.52000045776367,1163100
2019-04-23,35.5,37.16999816894531,34.810001373291016,37.119998931884766,37.119998931884766,1934100
2019-04-24,37.0,37.849998474121094,36.29999923706055,37.369998931884766,37.369998931884766,1275200
2019-04-25,37.349998474121094,38.400001525878906,37.02000045776367,37.310001373291016,37.310001373291016,2616000
2019-04-26,37.56999969482422,39.099998474121094,36.84000015258789,38.810001373291016,38.810001373291016,1894700
2019-04-29,39.0099983215332,39.04999923706055,38.15999984741211,38.470001220703125,38.470001220703125,876900
2019-04-30,38.41999816894531,39.84000015258789,38.2599983215332,39.369998931884766,39.369998931884766,1088000
2019-05-01,38.88999938964844,39.189998626708984,37.970001220703125,37.970001220703125,37.970001220703125,1509100
2019-05-02,38.0,38.9900016784668,37.029998779296875,38.86000061035156,38.86000061035156,836300
2019-05-03,38.9900016784668,39.880001068115234,38.70000076293945,39.779998779296875,39.779998779296875,1397000
2019-05-06,38.54999923706055,40.0,38.5,39.95000076293945,39.95000076293945,1825300
2019-05-07,39.56999969482422,40.0,38.95000076293945,39.209999084472656,39.209999084472656,1338700
2019-05-08,39.0,39.529998779296875,38.380001068115234,38.869998931884766,38.869998931884766,3249200
2019-05-09,38.34000015258789,40.0,37.630001068115234,39.86000061035156,39.86000061035156,1624700
2019-05-10,39.369998931884766,39.97999954223633,38.099998474121094,39.75,39.75,1983000
2019-05-13,38.77000045776367,38.77000045776367,36.31999969482422,36.689998626708984,36.689998626708984,1795300
2019-05-14,37.15999984741211,38.380001068115234,37.060001373291016,37.7400016784668,37.7400016784668,969500
2019-05-15,37.209999084472656,38.4900016784668,36.619998931884766,37.97999954223633,37.97999954223633,1528600
2019-05-16,38.22999954223633,39.529998779296875,38.0,39.439998626708984,39.439998626708984,1421200
2019-05-17,38.790000915527344,39.36000061035156,38.0099983215332,38.279998779296875,38.279998779296875,815600
2019-05-20,37.86000061035156,38.16999816894531,36.869998931884766,37.650001525878906,37.650001525878906,519300
2019-05-21,38.02000045776367,38.619998931884766,37.880001068115234,38.459999084472656,38.459999084472656,860300
2019-05-22,38.0099983215332,39.2400016784668,37.77000045776367,38.61000061035156,38.61000061035156,1217500
2019-05-23,38.08000183105469,38.400001525878906,37.220001220703125,38.02000045776367,38.02000045776367,1391900
2019-05-24,38.16999816894531,38.86000061035156,37.11000061035156,37.11000061035156,37.11000061035156,2576000
2019-05-28,41.33000183105469,44.900001525878906,39.650001525878906,43.869998931884766,43.869998931884766,9560900
2019-05-29,42.310001373291016,42.689998626708984,40.5,42.33000183105469,42.33000183105469,10157700
2019-05-30,42.33000183105469,42.83000183105469,41.40999984741211,42.290000915527344,42.290000915527344,2185400
2019-05-31,42.09000015258789,44.25,40.599998474121094,43.5099983215332,43.5099983215332,4212500
2019-06-03,43.59000015258789,44.15999984741211,41.59000015258789,41.84000015258789,41.84000015258789,3262600
2019-06-04,42.5,43.400001525878906,40.2599983215332,42.869998931884766,42.869998931884766,2315600
2019-06-05,43.900001525878906,44.68000030517578,43.400001525878906,44.630001068115234,44.630001068115234,3117200
2019-06-06,43.29999923706055,47.720001220703125,43.279998779296875,47.380001068115234,47.380001068115234,4353500
2019-06-07,47.029998779296875,48.40999984741211,46.27000045776367,48.0099983215332,48.0099983215332,4795500
2019-06-10,48.5,50.65999984741211,48.27000045776367,48.310001373291016,48.310001373291016,2864000
2019-06-11,46.86000061035156,48.06999969482422,46.220001220703125,47.11000061035156,47.11000061035156,2911100
2019-06-12,46.599998474121094,47.45000076293945,46.099998474121094,46.75,46.75,1982500
2019-06-13,47.54999923706055,49.709999084472656,47.45000076293945,48.47999954223633,48.47999954223633,3257600
2019-06-14,47.29999923706055,48.86000061035156,46.380001068115234,48.4900016784668,48.4900016784668,2998500
2019-06-17,48.70000076293945,49.709999084472656,47.5,49.560001373291016,49.560001373291016,2207700
2019-06-18,50.0,52.349998474121094,49.900001525878906,50.68000030517578,50.68000030517578,3662700
2019-06-19,50.0,51.150001525878906,49.5099983215332,51.060001373291016,51.060001373291016,3753700
2019-06-20,51.900001525878906,53.0,50.869998931884766,51.349998474121094,51.349998474121094,3405400
2019-06-21,50.93000030517578,51.029998779296875,49.900001525878906,50.86000061035156,50.86000061035156,2908300
2019-06-24,50.97999954223633,51.099998474121094,48.709999084472656,50.529998779296875,50.529998779296875,2822000
2019-06-25,49.97999954223633,50.45000076293945,48.88999938964844,49.529998779296875,49.529998779296875,3074400
2019-06-26,49.790000915527344,50.81999969482422,49.029998779296875,49.33000183105469,49.33000183105469,2200700
2019-06-27,49.81999969482422,50.08000183105469,48.939998626708984,49.68000030517578,49.68000030517578,1896000
2019-06-28,49.66999816894531,50.68000030517578,49.11000061035156,50.470001220703125,50.470001220703125,6646200
2019-07-01,53.02000045776367,53.18000030517578,49.959999084472656,50.369998931884766,50.369998931884766,3070100
2019-07-02,50.779998779296875,52.4900016784668,50.2400016784668,52.400001525878906,52.400001525878906,2377900
2019-07-03,52.40999984741211,53.189998626708984,51.869998931884766,52.439998626708984,52.439998626708984,914300
2019-07-05,52.290000915527344,53.470001220703125,51.45000076293945,52.970001220703125,52.970001220703125,1176600
2019-07-08,52.470001220703125,53.459999084472656,52.279998779296875,53.15999984741211,53.15999984741211,1284700
2019-07-09,53.0,55.220001220703125,52.77000045776367,55.099998474121094,55.099998474121094,2230600
2019-07-10,56.0,56.5099983215332,55.529998779296875,56.43000030517578,56.43000030517578,1921800
2019-07-11,56.5099983215332,57.310001373291016,55.84000015258789,57.099998474121094,57.099998474121094,1501200
2019-07-12,57.29999923706055,57.81999969482422,56.279998779296875,56.83000183105469,56.83000183105469,1561700
2019-07-15,57.459999084472656,58.220001220703125,56.61000061035156,57.9900016784668,57.9900016784668,1846200
2019-07-16,57.9900016784668,58.459999084472656,56.709999084472656,57.18000030517578,57.18000030517578,1673400
2019-07-17,57.06999969482422,57.90999984741211,56.91999816894531,56.9900016784668,56.9900016784668,768700
2019-07-18,56.7400016784668,57.15999984741211,56.0099983215332,56.90999984741211,56.90999984741211,732200
2019-07-19,57.4900016784668,58.369998931884766,56.45000076293945,56.540000915527344,56.540000915527344,1056800
2019-07-22,55.93000030517578,57.689998626708984,55.84000015258789,57.150001525878906,57.150001525878906,670400
2019-07-23,57.5,57.5,55.880001068115234,57.02000045776367,57.02000045776367,784000
2019-07-24,57.20000076293945,58.5,56.84000015258789,58.4900016784668,58.4900016784668,1781900
2019-07-25,58.45000076293945,60.0,58.0099983215332,59.380001068115234,59.380001068115234,1425000
2019-07-26,59.81999969482422,60.36000061035156,59.619998931884766,59.900001525878906,59.900001525878906,1172800
2019-07-29,60.0,60.349998474121094,56.75,57.84000015258789,57.84000015258789,1827500
2019-07-30,57.15999984741211,58.470001220703125,56.70000076293945,57.689998626708984,57.689998626708984,909100
2019-07-31,57.90999984741211,58.400001525878906,56.34000015258789,56.939998626708984,56.939998626708984,814300
2019-08-01,56.869998931884766,58.349998474121094,56.029998779296875,56.279998779296875,56.279998779296875,1583500
2019-08-02,55.939998626708984,56.630001068115234,55.20000076293945,55.79999923706055,55.79999923706055,915100
2019-08-05,53.459999084472656,54.36000061035156,52.290000915527344,53.25,53.25,1642500
2019-08-06,55.599998474121094,57.189998626708984,53.459999084472656,54.5099983215332,54.5099983215332,1663800
2019-08-07,53.91999816894531,55.84000015258789,53.209999084472656,55.41999816894531,55.41999816894531,752500
2019-08-08,56.2400016784668,57.72999954223633,56.09000015258789,57.63999938964844,57.63999938964844,730500
2019-08-09,57.41999816894531,57.650001525878906,56.25,56.349998474121094,56.349998474121094,1251100
2019-08-12,56.20000076293945,57.029998779296875,55.040000915527344,55.66999816894531,55.66999816894531,497900
2019-08-13,55.56999969482422,57.119998931884766,55.13999938964844,56.68000030517578,56.68000030517578,1013900
2019-08-14,55.54999923706055,56.650001525878906,54.310001373291016,55.310001373291016,55.310001373291016,1500100
2019-08-15,55.5,56.15999984741211,54.52000045776367,55.52000045776367,55.52000045776367,1072700
2019-08-16,56.220001220703125,58.779998779296875,55.34000015258789,58.029998779296875,58.029998779296875,1580900
2019-08-19,59.09000015258789,59.29999923706055,57.470001220703125,57.650001525878906,57.650001525878906,1006900
2019-08-20,57.849998474121094,58.08000183105469,56.45000076293945,57.810001373291016,57.810001373291016,1363000
2019-08-21,57.880001068115234,59.7400016784668,57.08000183105469,58.81999969482422,58.81999969482422,1606000
2019-08-22,58.70000076293945,58.939998626708984,56.220001220703125,58.380001068115234,58.380001068115234,1731400
2019-08-23,58.34000015258789,59.97999954223633,56.88999938964844,57.09000015258789,57.09000015258789,1596000
2019-08-26,58.560001373291016,60.34000015258789,57.66999816894531,59.349998474121094,59.349998474121094,4752200
2019-08-27,57.209999084472656,58.630001068115234,54.529998779296875,57.709999084472656,57.709999084472656,9312600
2019-08-28,56.38999938964844,56.75,52.5099983215332,53.470001220703125,53.470001220703125,6856000
2019-08-29,53.77000045776367,54.75,52.869998931884766,54.540000915527344,54.540000915527344,2256600
2019-08-30,55.06999969482422,55.2400016784668,52.29999923706055,54.33000183105469,54.33000183105469,2922100
2019-09-03,53.91999816894531,54.220001220703125,52.349998474121094,52.459999084472656,52.459999084472656,2236200
2019-09-04,52.77000045776367,53.68000030517578,52.560001373291016,52.83000183105469,52.83000183105469,1409600
2019-09-05,53.779998779296875,53.79999923706055,51.619998931884766,53.52000045776367,53.52000045776367,2540900
2019-09-06,53.40999984741211,53.63999938964844,51.58000183105469,51.88999938964844,51.88999938964844,2353800
2019-09-09,51.900001525878906,52.0,47.25,48.25,48.25,6555200
2019-09-10,47.40999984741211,48.75,45.91999816894531,47.40999984741211,47.40999984741211,4621900
2019-09-11,47.5,48.63999938964844,46.63999938964844,47.630001068115234,47.630001068115234,3136500
2019-09-12,48.11000061035156,49.349998474121094,47.31999969482422,47.90999984741211,47.90999984741211,3034300
2019-09-13,47.310001373291016,47.4900016784668,45.779998779296875,46.27000045776367,46.27000045776367,2826500
2019-09-16,45.72999954223633,48.779998779296875,45.560001373291016,48.70000076293945,48.70000076293945,4087400
2019-09-17,49.09000015258789,50.349998474121094,48.630001068115234,49.939998626708984,49.939998626708984,2568300
2019-09-18,50.099998474121094,50.83000183105469,49.72999954223633,50.709999084472656,50.709999084472656,2163800
2019-09-19,50.630001068115234,51.130001068115234,49.86000061035156,51.0,51.0,2142900
2019-09-20,53.45000076293945,54.560001373291016,51.22999954223633,53.0,53.0,7936400
2019-09-23,52.20000076293945,52.939998626708984,51.310001373291016,51.5099983215332,51.5099983215332,3079200
2019-09-24,51.9900016784668,52.189998626708984,49.349998474121094,49.900001525878906,49.900001525878906,3312900
2019-09-25,50.25,50.25,46.880001068115234,49.16999816894531,49.16999816894531,3683000
2019-09-26,48.83000183105469,50.63999938964844,48.439998626708984,50.2400016784668,50.2400016784668,1966100
2019-09-27,50.2400016784668,50.439998626708984,45.630001068115234,46.90999984741211,46.90999984741211,2939100
2019-09-30,46.83000183105469,47.66999816894531,46.029998779296875,47.0,47.0,1896500
2019-10-01,47.040000915527344,47.540000915527344,46.2599983215332,47.52000045776367,47.52000045776367,1200400
2019-10-02,47.060001373291016,47.5,45.20000076293945,45.5,45.5,1830100
2019-10-03,45.720001220703125,47.7599983215332,45.16999816894531,47.349998474121094,47.349998474121094,2116900
2019-10-04,48.0,50.0099983215332,47.59000015258789,49.900001525878906,49.900001525878906,2100700
2019-10-07,49.43000030517578,51.34000015258789,49.349998474121094,50.91999816894531,50.91999816894531,1580300
2019-10-08,50.63999938964844,50.75,47.529998779296875,47.599998474121094,47.599998474121094,2690300
2019-10-09,48.29999923706055,49.290000915527344,47.88999938964844,48.970001220703125,48.970001220703125,1029400
2019-10-10,48.63999938964844,49.119998931884766,48.029998779296875,48.290000915527344,48.290000915527344,767100
2019-10-11,49.25,50.369998931884766,48.900001525878906,49.720001220703125,49.720001220703125,1722800
2019-10-14,48.470001220703125,50.0,48.43000030517578,48.70000076293945,48.70000076293945,1399600
2019-10-15,47.90999984741211,48.41999816894531,47.099998474121094,47.790000915527344,47.790000915527344,2521900
2019-10-16,46.459999084472656,46.459999084472656,43.720001220703125,43.900001525878906,43.900001525878906,5737700
2019-10-17,44.099998474121094,44.59000015258789,43.54999923706055,43.7400016784668,43.7400016784668,2277500
2019-10-18,43.68000030517578,44.68000030517578,41.869998931884766,44.0099983215332,44.0099983215332,3633400
2019-10-21,43.79999923706055,45.15999984741211,43.75,44.33000183105469,44.33000183105469,1611400
2019-10-22,46.04999923706055,46.060001373291016,42.97999954223633,43.380001068115234,43.380001068115234,3062700
2019-10-23,43.189998626708984,45.83000183105469,42.91999816894531,44.619998931884766,44.619998931884766,3173700
2019-10-24,45.77000045776367,48.630001068115234,45.68000030517578,47.9900016784668,47.9900016784668,2899700
2019-10-25,47.310001373291016,48.939998626708984,46.13999938964844,48.709999084472656,48.709999084472656,1960600
2019-10-28,49.08000183105469,50.06999969482422,48.34000015258789,49.279998779296875,49.279998779296875,1868300
2019-10-29,49.18000030517578,49.630001068115234,48.41999816894531,48.540000915527344,48.540000915527344,1194000
2019-10-30,48.900001525878906,50.540000915527344,48.34000015258789,49.75,49.75,1817900
2019-10-31,48.08000183105469,48.97999954223633,46.70000076293945,47.20000076293945,47.20000076293945,3022800
2019-11-01,47.31999969482422,48.97999954223633,46.02000045776367,48.5,48.5,2027200
2019-11-04,48.880001068115234,49.13999938964844,46.58000183105469,46.70000076293945,46.70000076293945,1489100
2019-11-05,47.2599983215332,47.40999984741211,45.099998474121094,46.06999969482422,46.06999969482422,1357100
2019-11-06,46.29999923706055,47.209999084472656,45.970001220703125,46.33000183105469,46.33000183105469,1921400
2019-11-07,46.720001220703125,47.630001068115234,46.08000183105469,46.720001220703125,46.720001220703125,1196400
2019-11-08,46.5,48.27000045776367,46.02000045776367,47.7400016784668,47.7400016784668,1470500
2019-11-11,47.43000030517578,48.880001068115234,47.11000061035156,48.599998474121094,48.599998474121094,855900
2019-11-12,48.58000183105469,49.2400016784668,47.9900016784668,48.459999084472656,48.459999084472656,2844200
2019-11-13,48.720001220703125,49.4900016784668,48.47999954223633,49.099998474121094,49.099998474121094,1942400
2019-11-14,48.810001373291016,49.16999816894531,47.54999923706055,47.650001525878906,47.650001525878906,2864500
2019-11-15,48.2400016784668,48.720001220703125,47.34000015258789,47.79999923706055,47.79999923706055,2224500
2019-11-18,47.0,48.130001068115234,46.119998931884766,46.95000076293945,46.95000076293945,2973100
2019-11-19,47.2400016784668,49.56999969482422,47.119998931884766,48.79999923706055,48.79999923706055,3575400
2019-11-20,48.63999938964844,50.79999923706055,48.63999938964844,49.150001525878906,49.150001525878906,3987400
2019-11-21,55.0099983215332,55.68000030517578,52.290000915527344,53.09000015258789,53.09000015258789,9010800
2019-11-22,52.0,53.560001373291016,51.400001525878906,53.2400016784668,53.2400016784668,7975900
2019-11-25,53.380001068115234,54.400001525878906,53.31999969482422,53.59000015258789,53.59000015258789,4336000
2019-11-26,53.29999923706055,54.95000076293945,53.25,53.61000061035156,53.61000061035156,3341200
2019-11-27,53.91999816894531,54.0099983215332,52.220001220703125,53.900001525878906,53.900001525878906,1510900
2019-11-29,53.75,54.22999954223633,53.400001525878906,53.91999816894531,53.91999816894531,493000
2019-12-02,53.45000076293945,53.45000076293945,49.75,51.2599983215332,51.2599983215332,4924600
2019-12-03,49.849998474121094,52.029998779296875,49.599998474121094,51.869998931884766,51.869998931884766,2616900
2019-12-04,52.380001068115234,52.65999984741211,51.040000915527344,52.630001068115234,52.630001068115234,2451700
2019-12-05,52.380001068115234,53.18000030517578,51.810001373291016,52.709999084472656,52.709999084472656,2084800
2019-12-06,53.0,53.16999816894531,52.0099983215332,52.810001373291016,52.810001373291016,1638300
2019-12-09,52.709999084472656,53.02000045776367,51.43000030517578,51.9900016784668,51.9900016784668,2125400
2019-12-10,51.810001373291016,52.5,51.2400016784668,51.529998779296875,51.529998779296875,910900
2019-12-11,51.130001068115234,51.849998474121094,50.099998474121094,51.560001373291016,51.560001373291016,2550200
2019-12-12,51.060001373291016,51.36000061035156,50.150001525878906,50.439998626708984,50.439998626708984,1408700
2019-12-13,50.290000915527344,51.810001373291016,49.88999938964844,51.790000915527344,51.790000915527344,1509200
2019-12-16,51.939998626708984,52.75,51.349998474121094,52.7400016784668,52.7400016784668,2230400
2019-12-17,52.529998779296875,52.95000076293945,52.36000061035156,52.86000061035156,52.86000061035156,2013600
2019-12-18,52.90999984741211,53.38999938964844,52.75,52.939998626708984,52.939998626708984,1539500
2019-12-19,52.959999084472656,53.47999954223633,52.5099983215332,53.06999969482422,53.06999969482422,1657000
2019-12-20,53.439998626708984,53.70000076293945,52.650001525878906,53.0,53.0,1686300
2019-12-23,52.56999969482422,53.0,51.599998474121094,52.81999969482422,52.81999969482422,1762500
2019-12-24,53.02000045776367,53.04999923706055,52.459999084472656,52.86000061035156,52.86000061035156,436900
2019-12-26,52.709999084472656,53.31999969482422,52.52000045776367,52.630001068115234,52.630001068115234,552000
2019-12-27,52.9900016784668,52.9900016784668,51.880001068115234,52.630001068115234,52.630001068115234,690800
2019-12-30,52.400001525878906,52.540000915527344,50.25,51.25,51.25,2198700
2019-12-31,51.029998779296875,52.52000045776367,50.849998474121094,52.400001525878906,52.400001525878906,2172400
2020-01-02,52.220001220703125,54.04999923706055,52.220001220703125,53.779998779296875,53.779998779296875,3695800
2020-01-03,53.150001525878906,54.529998779296875,52.9900016784668,54.349998474121094,54.349998474121094,2277000
2020-01-06,53.72999954223633,55.650001525878906,53.529998779296875,55.099998474121094,55.099998474121094,3023800
2020-01-07,55.310001373291016,55.91999816894531,54.029998779296875,54.65999984741211,54.65999984741211,1760300
2020-01-08,54.88999938964844,56.81999969482422,54.88999938964844,55.95000076293945,55.95000076293945,2433500
2020-01-09,56.81999969482422,57.95000076293945,56.33000183105469,57.59000015258789,57.59000015258789,2478300
2020-01-10,58.0,58.25,56.33000183105469,56.7599983215332,56.7599983215332,1741200
2020-01-13,57.08000183105469,57.84000015258789,56.459999084472656,57.59000015258789,57.59000015258789,1717900
2020-01-14,57.540000915527344,57.91999816894531,56.38999938964844,57.040000915527344,57.040000915527344,1509900
2020-01-15,57.119998931884766,58.459999084472656,56.79999923706055,57.150001525878906,57.150001525878906,1582900
2020-01-16,57.40999984741211,58.130001068115234,56.79999923706055,57.0099983215332,57.0099983215332,1171500
2020-01-17,56.97999954223633,57.22999954223633,56.16999816894531,56.52000045776367,56.52000045776367,754900
2020-01-21,56.040000915527344,57.34000015258789,55.810001373291016,56.33000183105469,56.33000183105469,1150500
2020-01-22,56.9900016784668,57.720001220703125,55.58000183105469,55.59000015258789,55.59000015258789,961000
2020-01-23,55.810001373291016,56.97999954223633,54.959999084472656,56.88999938964844,56.88999938964844,1318900
2020-01-24,57.75,59.439998626708984,56.81999969482422,57.9900016784668,57.9900016784668,2805000
2020-01-27,56.060001373291016,57.59000015258789,55.11000061035156,56.75,56.75,1515800
2020-01-28,57.79999923706055,58.7400016784668,56.650001525878906,58.47999954223633,58.47999954223633,1383900
2020-01-29,59.0,59.22999954223633,57.380001068115234,57.619998931884766,57.619998931884766,1101900
2020-01-30,57.349998474121094,58.5,57.0099983215332,58.369998931884766,58.369998931884766,1633200
2020-01-31,58.119998931884766,58.4900016784668,56.650001525878906,57.59000015258789,57.59000015258789,1268000
2020-02-03,57.880001068115234,60.0,57.880001068115234,59.90999984741211,59.90999984741211,2488800
2020-02-04,60.88999938964844,63.63999938964844,60.04999923706055,63.400001525878906,63.400001525878906,4455000
2020-02-05,62.0,62.189998626708984,58.22999954223633,59.43000030517578,59.43000030517578,4670400
2020-02-06,59.54999923706055,60.099998474121094,56.86000061035156,59.720001220703125,59.720001220703125,2436900
2020-02-07,59.900001525878906,61.2400016784668,59.209999084472656,59.869998931884766,59.869998931884766,1565600
2020-02-10,59.849998474121094,61.099998474121094,59.849998474121094,61.02000045776367,61.02000045776367,1737900
2020-02-11,61.150001525878906,61.209999084472656,60.0099983215332,60.779998779296875,60.779998779296875,1457300
2020-02-12,61.33000183105469,62.849998474121094,60.709999084472656,62.56999969482422,62.56999969482422,2138000
2020-02-13,61.88999938964844,63.33000183105469,61.83000183105469,62.31999969482422,62.31999969482422,1424700
2020-02-14,62.47999954223633,63.709999084472656,62.15999984741211,62.849998474121094,62.849998474121094,1795500
2020-02-18,62.81999969482422,63.5099983215332,62.310001373291016,62.900001525878906,62.900001525878906,1198800
2020-02-19,63.4900016784668,63.689998626708984,62.63999938964844,62.900001525878906,62.900001525878906,2437500
2020-02-20,62.900001525878906,63.5,59.86000061035156,61.59000015258789,61.59000015258789,1713800
2020-02-21,60.66999816894531,61.20000076293945,58.72999954223633,59.869998931884766,59.869998931884766,2018700
2020-02-24,56.709999084472656,58.72999954223633,55.5,57.970001220703125,57.970001220703125,2472100
2020-02-25,58.650001525878906,59.560001373291016,56.08000183105469,57.0099983215332,57.0099983215332,2348200
2020-02-26,57.29999923706055,59.9900016784668,57.16999816894531,58.09000015258789,58.09000015258789,3278800
2020-02-27,42.189998626708984,47.61000061035156,41.34000015258789,44.029998779296875,44.029998779296875,18902700
2020-02-28,41.36000061035156,45.349998474121094,41.099998474121094,44.939998626708984,44.939998626708984,6935100
2020-03-02,45.5,45.790000915527344,42.70000076293945,45.560001373291016,45.560001373291016,5553500
2020-03-03,45.869998931884766,46.20000076293945,42.599998474121094,43.459999084472656,43.459999084472656,4275000
2020-03-04,44.29999923706055,44.77000045776367,43.369998931884766,44.0099983215332,44.0099983215332,2894300
2020-03-05,42.880001068115234,44.310001373291016,41.790000915527344,42.2400016784668,42.2400016784668,4538600
2020-03-06,40.939998626708984,41.45000076293945,39.41999816894531,40.869998931884766,40.869998931884766,4951200
2020-03-09,37.0,38.4900016784668,37.0,37.61000061035156,37.61000061035156,4490600
2020-03-10,38.959999084472656,40.720001220703125,37.560001373291016,40.68000030517578,40.68000030517578,3901100
2020-03-11,36.90999984741211,39.97999954223633,36.369998931884766,38.47999954223633,38.47999954223633,3851500
2020-03-12,34.619998931884766,37.70000076293945,33.86000061035156,35.439998626708984,35.439998626708984,3266600
2020-03-13,37.36000061035156,38.56999969482422,35.56999969482422,38.560001373291016,38.560001373291016,3379400
2020-03-16,34.0,34.900001525878906,29.100000381469727,30.010000228881836,30.010000228881836,6053700
2020-03-17,30.639999389648438,32.59000015258789,27.3799991607666,32.540000915527344,32.540000915527344,3893000
2020-03-18,30.0,31.700000762939453,26.110000610351562,28.170000076293945,28.170000076293945,5093500
2020-03-19,28.09000015258789,30.489999771118164,26.100000381469727,29.889999389648438,29.889999389648438,2803500
2020-03-20,30.5,32.4900016784668,28.0,28.290000915527344,28.290000915527344,3728100
2020-03-23,27.860000610351562,29.600000381469727,27.0,28.3799991607666,28.3799991607666,2365500
2020-03-24,30.31999969482422,33.119998931884766,29.93000030517578,31.610000610351562,31.610000610351562,4759900
2020-03-25,32.029998779296875,35.7400016784668,30.90999984741211,34.0,34.0,5294900
2020-03-26,34.34000015258789,36.459999084472656,34.34000015258789,35.720001220703125,35.720001220703125,1541500
2020-03-27,34.4900016784668,34.88999938964844,32.66999816894531,32.779998779296875,32.779998779296875,1544400
2020-03-30,32.25,33.86000061035156,32.119998931884766,32.959999084472656,32.959999084472656,1863100
2020-03-31,32.70000076293945,32.900001525878906,29.3700008392334,30.260000228881836,30.260000228881836,6081800
2020-04-01,29.209999084472656,29.389999389648438,27.829999923706055,28.389999389648438,28.389999389648438,4723500
2020-04-02,27.989999771118164,28.43000030517578,26.040000915527344,28.200000762939453,28.200000762939453,5957900
2020-04-03,28.219999313354492,29.149999618530273,27.270000457763672,28.959999084472656,28.959999084472656,4603200
2020-04-06,30.40999984741211,33.349998474121094,30.020000457763672,32.93000030517578,32.93000030517578,5025900
2020-04-07,34.75,34.84000015258789,31.209999084472656,32.91999816894531,32.91999816894531,2832900
2020-04-08,33.459999084472656,37.0099983215332,33.029998779296875,35.689998626708984,35.689998626708984,3207600
2020-04-09,36.04999923706055,37.0,35.31999969482422,35.77000045776367,35.77000045776367,3354200
2020-04-13,35.880001068115234,36.209999084472656,34.5,35.86000061035156,35.86000061035156,1481600
2020-04-14,36.56999969482422,38.15999984741211,36.56999969482422,38.06999969482422,38.06999969482422,3847400
2020-04-15,37.119998931884766,38.41999816894531,36.65999984741211,37.66999816894531,37.66999816894531,2039500
2020-04-16,37.02000045776367,37.400001525878906,34.5099983215332,35.380001068115234,35.380001068115234,3942700
2020-04-17,36.380001068115234,37.619998931884766,35.529998779296875,36.75,36.75,2725400
2020-04-20,35.970001220703125,38.150001525878906,35.529998779296875,37.5099983215332,37.5099983215332,3722000
2020-04-21,36.689998626708984,37.459999084472656,35.11000061035156,36.4900016784668,36.4900016784668,3078500
2020-04-22,37.349998474121094,38.81999969482422,36.90999984741211,38.52000045776367,38.52000045776367,2678100
2020-04-23,38.41999816894531,39.06999969482422,37.150001525878906,38.86000061035156,38.86000061035156,2182300
2020-04-24,39.040000915527344,39.79999923706055,38.310001373291016,39.18000030517578,39.18000030517578,3318100
2020-04-27,39.70000076293945,40.970001220703125,39.70000076293945,40.13999938964844,40.13999938964844,3226500
2020-04-28,40.9900016784668,41.5,38.61000061035156,38.93000030517578,38.93000030517578,1442900
2020-04-29,40.0,42.099998474121094,39.5,41.56999969482422,41.56999969482422,2718300
2020-04-30,42.0,42.689998626708984,40.380001068115234,40.86000061035156,40.86000061035156,4109500
2020-05-01,39.630001068115234,39.97999954223633,38.43000030517578,39.060001373291016,39.060001373291016,2008700
2020-05-04,37.06999969482422,39.540000915527344,36.4900016784668,39.470001220703125,39.470001220703125,3979900
2020-05-05,40.27000045776367,41.150001525878906,39.41999816894531,39.599998474121094,39.599998474121094,1589500
2020-05-06,40.0,41.04999923706055,39.77000045776367,40.369998931884766,40.369998931884766,1315000
2020-05-07,41.61000061035156,42.79999923706055,41.36000061035156,41.599998474121094,41.599998474121094,3966600
2020-05-08,42.20000076293945,42.59000015258789,41.119998931884766,42.31999969482422,42.31999969482422,1960400
2020-05-11,42.2599983215332,44.0,41.70000076293945,43.52000045776367,43.52000045776367,3391900
2020-05-12,43.70000076293945,44.0,42.43000030517578,42.7400016784668,42.7400016784668,1585000
2020-05-13,42.810001373291016,43.11000061035156,39.560001373291016,40.40999984741211,40.40999984741211,2826300
2020-05-14,40.0,41.2599983215332,39.15999984741211,41.18000030517578,41.18000030517578,1545600
2020-05-15,40.869998931884766,43.27000045776367,40.529998779296875,43.11000061035156,43.11000061035156,2786800
2020-05-18,45.0,45.20000076293945,44.02000045776367,44.68000030517578,44.68000030517578,5323500
2020-05-19,44.68000030517578,48.060001373291016,44.68000030517578,46.2599983215332,46.2599983215332,3682200
2020-05-20,46.77000045776367,48.29999923706055,46.75,47.970001220703125,47.970001220703125,3031300
2020-05-21,47.290000915527344,49.70000076293945,47.189998626708984,48.95000076293945,48.95000076293945,4624500
2020-05-22,49.279998779296875,51.099998474121094,48.95000076293945,51.060001373291016,51.060001373291016,5246100
2020-05-26,48.689998626708984,49.93000030517578,45.83000183105469,47.150001525878906,47.150001525878906,9549900
2020-05-27,46.29999923706055,46.56999969482422,42.5,45.060001373291016,45.060001373291016,6584100
2020-05-28,45.22999954223633,47.150001525878906,44.209999084472656,45.06999969482422,45.06999969482422,4822300
2020-05-29,45.09000015258789,46.36000061035156,45.09000015258789,45.91999816894531,45.91999816894531,3212600
2020-06-01,45.56999969482422,46.41999816894531,45.0,45.91999816894531,45.91999816894531,2520400
2020-06-02,46.2599983215332,46.40999984741211,44.630001068115234,45.619998931884766,45.619998931884766,3657800
2020-06-03,45.65999984741211,46.130001068115234,45.0099983215332,45.40999984741211,45.40999984741211,1625400
2020-06-04,45.0,45.349998474121094,43.06999969482422,43.65999984741211,43.65999984741211,3767600
2020-06-05,43.84000015258789,45.130001068115234,43.0,43.95000076293945,43.95000076293945,3160700
2020-06-08,44.25,46.22999954223633,43.88999938964844,46.18000030517578,46.18000030517578,2805200
2020-06-09,46.18000030517578,46.72999954223633,45.25,46.290000915527344,46.290000915527344,1552100
2020-06-10,46.689998626708984,48.310001373291016,45.84000015258789,47.599998474121094,47.599998474121094,1945200
2020-06-11,43.58000183105469,45.209999084472656,42.619998931884766,43.029998779296875,43.029998779296875,3237900
2020-06-12,44.540000915527344,45.779998779296875,43.2599983215332,44.810001373291016,44.810001373291016,1370800
2020-06-15,43.84000015258789,46.75,43.810001373291016,46.06999969482422,46.06999969482422,2342600
2020-06-16,47.439998626708984,47.900001525878906,45.880001068115234,46.38999938964844,46.38999938964844,2377100
2020-06-17,46.9900016784668,48.25,46.810001373291016,47.130001068115234,47.130001068115234,1946700
2020-06-18,47.36000061035156,48.099998474121094,46.93000030517578,47.63999938964844,47.63999938964844,2804700
2020-06-19,48.25,48.650001525878906,47.11000061035156,47.52000045776367,47.52000045776367,2545100
2020-06-22,47.439998626708984,47.959999084472656,46.869998931884766,47.720001220703125,47.720001220703125,3120100
2020-06-23,48.0,48.66999816894531,46.790000915527344,47.040000915527344,47.040000915527344,2133300
2020-06-24,46.93000030517578,47.720001220703125,43.61000061035156,43.79999923706055,43.79999923706055,3076000
2020-06-25,43.97999954223633,44.41999816894531,42.86000061035156,43.90999984741211,43.90999984741211,5728300
2020-06-26,44.099998474121094,44.720001220703125,42.720001220703125,43.95000076293945,43.95000076293945,5323800
2020-06-29,43.900001525878906,44.970001220703125,42.41999816894531,44.790000915527344,44.790000915527344,2137900
2020-06-30,44.79999923706055,45.75,44.27000045776367,45.310001373291016,45.310001373291016,1348600
2020-07-01,45.33000183105469,47.13999938964844,45.15999984741211,47.0099983215332,47.0099983215332,1764600
2020-07-02,47.90999984741211,48.54999923706055,47.45000076293945,48.0099983215332,48.0099983215332,2206100
2020-07-06,49.09000015258789,50.310001373291016,48.40999984741211,49.439998626708984,49.439998626708984,4325400
2020-07-07,49.720001220703125,50.72999954223633,49.099998474121094,49.43000030517578,49.43000030517578,1959100
2020-07-08,49.7599983215332,51.400001525878906,49.54999923706055,51.33000183105469,51.33000183105469,2615800
2020-07-09,51.5,51.58000183105469,49.119998931884766,51.18000030517578,51.18000030517578,1782600
2020-07-10,50.9900016784668,50.9900016784668,48.849998474121094,49.0,49.0,1987800
2020-07-13,49.5,49.93000030517578,46.709999084472656,46.97999954223633,46.97999954223633,2242400
2020-07-14,46.400001525878906,47.099998474121094,44.560001373291016,46.34000015258789,46.34000015258789,3030700
2020-07-15,46.54999923706055,46.72999954223633,45.4900016784668,45.61000061035156,45.61000061035156,1524400
2020-07-16,44.90999984741211,45.220001220703125,43.5,44.380001068115234,44.380001068115234,3001400
2020-07-17,44.79999923706055,45.16999816894531,43.599998474121094,44.400001525878906,44.400001525878906,3906900
2020-07-20,44.77000045776367,45.900001525878906,44.77000045776367,45.84000015258789,45.84000015258789,2485000
2020-07-21,45.869998931884766,45.900001525878906,44.880001068115234,45.34000015258789,45.34000015258789,1622500
2020-07-22,45.43000030517578,45.88999938964844,44.83000183105469,45.72999954223633,45.72999954223633,2054200
2020-07-23,45.93000030517578,46.5,43.9900016784668,44.43000030517578,44.43000030517578,1729000
2020-07-24,43.720001220703125,44.13999938964844,42.060001373291016,43.97999954223633,43.97999954223633,2460700
2020-07-27,44.29999923706055,45.04999923706055,43.2400016784668,44.779998779296875,44.779998779296875,3211200
2020-07-28,44.65999984741211,44.810001373291016,44.029998779296875,44.40999984741211,44.40999984741211,2187400
2020-07-29,44.7400016784668,46.15999984741211,44.7400016784668,46.11000061035156,46.11000061035156,2535100
2020-07-30,45.040000915527344,45.63999938964844,43.970001220703125,45.380001068115234,45.380001068115234,1139500
2020-07-31,45.040000915527344,45.880001068115234,44.20000076293945,45.40999984741211,45.40999984741211,2304900
2020-08-03,45.68000030517578,45.7599983215332,44.119998931884766,44.9900016784668,44.9900016784668,2101300
2020-08-04,44.90999984741211,45.150001525878906,44.060001373291016,44.88999938964844,44.88999938964844,1283900
2020-08-05,44.869998931884766,45.7400016784668,44.619998931884766,45.380001068115234,45.380001068115234,1529400
2020-08-06,45.369998931884766,45.79999923706055,44.619998931884766,45.060001373291016,45.060001373291016,961000
2020-08-07,44.97999954223633,44.97999954223633,42.349998474121094,43.63999938964844,43.63999938964844,2002000
2020-08-10,43.70000076293945,43.790000915527344,41.5099983215332,42.38999938964844,42.38999938964844,2918700
2020-08-11,42.16999816894531,45.20000076293945,41.91999816894531,44.63999938964844,44.63999938964844,5251200
2020-08-12,44.63999938964844,45.47999954223633,43.40999984741211,44.77000045776367,44.77000045776367,2459600
2020-08-13,45.02000045776367,47.349998474121094,44.70000076293945,46.810001373291016,46.810001373291016,2324400
2020-08-14,46.83000183105469,47.0,45.970001220703125,46.459999084472656,46.459999084472656,2668200
2020-08-17,46.45000076293945,47.220001220703125,46.2599983215332,46.72999954223633,46.72999954223633,3072300
2020-08-18,47.0099983215332,48.5,46.95000076293945,48.18000030517578,48.18000030517578,1713300
2020-08-19,48.16999816894531,48.45000076293945,46.75,47.630001068115234,47.630001068115234,1768400
2020-08-20,47.150001525878906,48.290000915527344,47.0099983215332,48.09000015258789,48.09000015258789,2631000
2020-08-21,46.29999923706055,49.290000915527344,46.0,48.90999984741211,48.90999984741211,2996000
2020-08-24,49.43000030517578,49.650001525878906,47.11000061035156,47.5099983215332,47.5099983215332,2275800
2020-08-25,47.2599983215332,48.0099983215332,46.79999923706055,47.81999969482422,47.81999969482422,3847900
2020-08-26,58.70000076293945,62.380001068115234,57.5,58.150001525878906,58.150001525878906,15716300
2020-08-27,57.880001068115234,62.65999984741211,56.45000076293945,61.88999938964844,61.88999938964844,7670200
2020-08-28,62.0,63.04999923706055,61.400001525878906,61.63999938964844,61.63999938964844,2821900
2020-08-31,61.63999938964844,62.31999969482422,61.209999084472656,61.25,61.25,2079200
2020-09-01,61.68000030517578,63.4900016784668,61.38999938964844,62.4900016784668,62.4900016784668,2981600
2020-09-02,62.97999954223633,63.43000030517578,60.33000183105469,61.310001373291016,61.310001373291016,2251400
2020-09-03,60.369998931884766,60.88999938964844,57.90999984741211,58.689998626708984,58.689998626708984,2283100
2020-09-04,58.41999816894531,59.209999084472656,55.36000061035156,58.31999969482422,58.31999969482422,2142400
2020-09-08,55.5,58.349998474121094,55.099998474121094,56.779998779296875,56.779998779296875,1890300
2020-09-09,57.88999938964844,58.7400016784668,56.4900016784668,58.099998474121094,58.099998474121094,1263400
2020-09-10,58.93000030517578,59.91999816894531,57.119998931884766,57.52000045776367,57.52000045776367,1204600
2020-09-11,55.5,58.130001068115234,55.15999984741211,56.650001525878906,56.650001525878906,4545900
2020-09-14,57.86000061035156,58.7400016784668,57.040000915527344,57.65999984741211,57.65999984741211,1827800
2020-09-15,58.54999923706055,59.65999984741211,57.970001220703125,58.5099983215332,58.5099983215332,1035400
2020-09-16,59.0,59.779998779296875,57.900001525878906,58.0,58.0,1267000
2020-09-17,56.849998474121094,58.040000915527344,56.290000915527344,57.68000030517578,57.68000030517578,1744600
2020-09-18,58.040000915527344,58.380001068115234,56.68000030517578,58.06999969482422,58.06999969482422,3101200
2020-09-21,57.13999938964844,59.220001220703125,56.40999984741211,59.18000030517578,59.18000030517578,1392500
2020-09-22,59.65999984741211,60.43000030517578,58.310001373291016,60.38999938964844,60.38999938964844,1767500
2020-09-23,60.09000015258789,62.7400016784668,59.72999954223633,59.84000015258789,59.84000015258789,2597700
2020-09-24,58.470001220703125,60.09000015258789,58.02000045776367,59.11000061035156,59.11000061035156,2023300
2020-09-25,59.86000061035156,62.06999969482422,59.220001220703125,61.65999984741211,61.65999984741211,2641500
2020-09-28,62.599998474121094,64.30999755859375,61.91999816894531,62.79999923706055,62.79999923706055,2245200
2020-09-29,62.79999923706055,63.29999923706055,61.540000915527344,61.7400016784668,61.7400016784668,2165600
2020-09-30,61.790000915527344,62.81999969482422,60.95000076293945,62.58000183105469,62.58000183105469,2330600
2020-10-01,64.05000305175781,66.0999984741211,63.2599983215332,63.970001220703125,63.970001220703125,4952800
2020-10-02,62.66999816894531,65.18000030517578,62.25,63.22999954223633,63.22999954223633,1709200
2020-10-05,63.52000045776367,64.4800033569336,62.5,62.56999969482422,62.56999969482422,1961300
2020-10-06,62.08000183105469,63.290000915527344,61.560001373291016,61.81999969482422,61.81999969482422,1459900
2020-10-07,62.400001525878906,63.34000015258789,62.060001373291016,62.060001373291016,62.060001373291016,1767400
2020-10-08,63.040000915527344,63.13999938964844,62.09000015258789,62.25,62.25,1025600
2020-10-09,62.81999969482422,64.0,62.56999969482422,62.709999084472656,62.709999084472656,707900
2020-10-12,64.0,64.0,61.790000915527344,62.790000915527344,62.790000915527344,1394700
2020-10-13,63.40999984741211,64.36000061035156,62.40999984741211,62.45000076293945,62.45000076293945,1360300
2020-10-14,63.189998626708984,63.27000045776367,61.02000045776367,61.4900016784668,61.4900016784668,1120000
2020-10-15,60.13999938964844,62.16999816894531,59.2400016784668,61.779998779296875,61.779998779296875,1515900
2020-10-16,62.47999954223633,62.75,61.2400016784668,62.41999816894531,62.41999816894531,1359400
2020-10-19,62.619998931884766,65.1500015258789,61.470001220703125,61.560001373291016,61.560001373291016,2583400
2020-10-20,61.86000061035156,62.529998779296875,60.06999969482422,60.459999084472656,60.459999084472656,1412400
2020-10-21,59.939998626708984,60.38999938964844,58.45000076293945,59.09000015258789,59.09000015258789,899300
2020-10-22,59.36000061035156,59.79999923706055,58.27000045776367,58.4900016784668,58.4900016784668,1144300
2020-10-23,58.880001068115234,60.709999084472656,58.08000183105469,60.4900016784668,60.4900016784668,2675400
2020-10-26,59.88999938964844,60.25,56.16999816894531,57.540000915527344,57.540000915527344,1732400
2020-10-27,58.08000183105469,59.060001373291016,57.22999954223633,57.689998626708984,57.689998626708984,1763500
2020-10-28,56.79999923706055,57.27000045776367,55.779998779296875,55.93000030517578,55.93000030517578,1097500
2020-10-29,56.2400016784668,57.5,55.2400016784668,56.709999084472656,56.709999084472656,1791300
2020-10-30,56.22999954223633,56.540000915527344,54.38999938964844,55.349998474121094,55.349998474121094,1247800
2020-11-02,55.93000030517578,57.060001373291016,53.83000183105469,54.470001220703125,54.470001220703125,1069000
2020-11-03,54.970001220703125,56.22999954223633,54.689998626708984,54.880001068115234,54.880001068115234,911400
2020-11-04,57.279998779296875,60.29999923706055,56.970001220703125,59.540000915527344,59.540000915527344,1922900
2020-11-05,60.560001373291016,62.45000076293945,60.0099983215332,61.5099983215332,61.5099983215332,2215700
2020-11-06,61.130001068115234,63.0099983215332,60.150001525878906,62.52000045776367,62.52000045776367,1148500
2020-11-09,62.22999954223633,64.45999908447266,61.40999984741211,61.41999816894531,61.41999816894531,1749000
2020-11-10,61.869998931884766,62.45000076293945,58.91999816894531,59.47999954223633,59.47999954223633,1973100
2020-11-11,60.40999984741211,62.970001220703125,58.939998626708984,61.470001220703125,61.470001220703125,2612700
2020-11-12,62.63999938964844,64.16999816894531,61.97999954223633,62.099998474121094,62.099998474121094,1607300
2020-11-13,62.849998474121094,64.05000305175781,61.91999816894531,62.77000045776367,62.77000045776367,1952900
2020-11-16,62.459999084472656,63.66999816894531,61.279998779296875,63.59000015258789,63.59000015258789,1796700
2020-11-17,63.9900016784668,65.68000030517578,63.13999938964844,65.51000213623047,65.51000213623047,3493000
2020-11-18,65.76000213623047,67.86000061035156,64.5999984741211,66.25,66.25,3242700
2020-11-19,65.16000366210938,67.05999755859375,63.810001373291016,65.75,65.75,4001700
2020-11-20,65.55000305175781,65.76000213623047,62.08000183105469,62.13999938964844,62.13999938964844,4186300
2020-11-23,61.650001525878906,62.66999816894531,60.88999938964844,62.25,62.25,4686500
2020-11-24,69.0,69.5,64.3499984741211,67.22000122070312,67.22000122070312,6627000
2020-11-25,69.26000213623047,70.47000122070312,68.5,70.31999969482422,70.31999969482422,3824800
2020-11-27,70.66000366210938,71.52999877929688,68.16000366210938,68.80999755859375,68.80999755859375,1331600
2020-11-30,69.5999984741211,70.33999633789062,67.3499984741211,69.98999786376953,69.98999786376953,2411600
2020-12-01,69.91000366210938,70.0199966430664,67.1500015258789,68.73999786376953,68.73999786376953,1866400
2020-12-02,67.80000305175781,69.77999877929688,66.72000122070312,69.5,69.5,2082000
2020-12-03,69.7699966430664,72.63999938964844,69.5999984741211,70.77999877929688,70.77999877929688,1656300
2020-12-04,71.62999725341797,71.62999725341797,69.7699966430664,70.66999816894531,70.66999816894531,980600
2020-12-07,70.51000213623047,71.81999969482422,70.51000213623047,71.16999816894531,71.16999816894531,669700
2020-12-08,71.0,72.7300033569336,70.9800033569336,72.20999908447266,72.20999908447266,982300
2020-12-09,72.19000244140625,73.05000305175781,69.08000183105469,70.16999816894531,70.16999816894531,1806000
2020-12-10,69.56999969482422,71.98999786376953,69.26000213623047,71.08000183105469,71.08000183105469,732000
2020-12-11,67.73999786376953,70.55999755859375,66.56999969482422,70.16000366210938,70.16000366210938,1847900
2020-12-14,70.27999877929688,71.70999908447266,69.6500015258789,70.1500015258789,70.1500015258789,2104000
2020-12-15,70.44999694824219,71.56999969482422,69.2300033569336,69.72000122070312,69.72000122070312,748600
2020-12-16,70.0,70.47000122070312,68.52999877929688,69.88999938964844,69.88999938964844,1078400
2020-12-17,70.5,71.5,70.19999694824219,71.11000061035156,71.11000061035156,1544000
2020-12-18,71.0999984741211,71.23999786376953,69.52999877929688,70.48999786376953,70.48999786376953,3112700
2020-12-21,69.77999877929688,71.66999816894531,68.80000305175781,71.30000305175781,71.30000305175781,1452100
2020-12-22,70.27999877929688,73.94000244140625,70.25,73.66000366210938,73.66000366210938,2516800
2020-12-23,73.37000274658203,74.66999816894531,72.30999755859375,73.2300033569336,73.2300033569336,1570300
2020-12-24,73.08999633789062,74.43000030517578,72.47000122070312,72.72000122070312,72.72000122070312,515400
2020-12-28,75.0,76.37000274658203,72.25,72.41999816894531,72.41999816894531,3544900
2020-12-29,73.06999969482422,74.56999969482422,72.36000061035156,73.30999755859375,73.30999755859375,2600200
2020-12-30,74.01000213623047,74.11000061035156,71.4000015258789,72.0199966430664,72.0199966430664,1911100
