Date,Open,High,Low,Close,Adj Close,Volume
2020-09-21,10.0,10.23799991607666,10.0,10.100000381469727,10.100000381469727,153400
2020-09-22,10.0,10.053999900817871,10.0,10.039999961853027,10.039999961853027,276200
2020-09-23,10.130000114440918,10.130000114440918,10.0,10.020000457763672,10.020000457763672,214300
2020-09-24,10.020000457763672,10.319999694824219,10.0,10.199999809265137,10.199999809265137,111700
2020-09-25,10.199999809265137,10.199999809265137,10.199999809265137,10.199999809265137,10.199999809265137,0
2020-09-28,10.100000381469727,10.279999732971191,10.0,10.0,10.0,87500
2020-09-29,10.050000190734863,10.130000114440918,10.010000228881836,10.130000114440918,10.130000114440918,110000
2020-09-30,10.0600004196167,10.0600004196167,10.029999732971191,10.050000190734863,10.050000190734863,2900
2020-10-01,10.010000228881836,10.197999954223633,10.0,10.0,10.0,261200
2020-10-02,10.0,10.020000457763672,9.989999771118164,10.0,10.0,370000
2020-10-05,10.039999961853027,10.149999618530273,9.9399995803833,9.970000267028809,9.970000267028809,1069000
2020-10-06,10.0,10.0,9.970000267028809,9.979999542236328,9.979999542236328,100400
2020-10-07,10.015000343322754,10.015000343322754,10.0,10.005000114440918,10.005000114440918,13500
2020-10-08,10.140000343322754,10.140000343322754,9.970000267028809,9.979999542236328,9.979999542236328,73000
2020-10-09,10.130000114440918,10.130000114440918,9.979999542236328,10.0,10.0,149000
2020-10-12,10.170000076293945,10.170000076293945,9.989999771118164,9.989999771118164,9.989999771118164,176700
2020-10-13,9.989999771118164,10.024999618530273,9.975000381469727,10.0,10.0,369300
2020-10-14,10.199999809265137,10.199999809265137,9.960000038146973,9.970000267028809,9.970000267028809,1078000
2020-10-15,9.970000267028809,9.979999542236328,9.949999809265137,9.970000267028809,9.970000267028809,1263000
2020-10-16,9.949999809265137,9.970000267028809,9.925000190734863,9.9399995803833,9.9399995803833,1002400
2020-10-19,9.930000305175781,9.949999809265137,9.920000076293945,9.9399995803833,9.9399995803833,61300
2020-10-20,9.960000038146973,10.0,9.899999618530273,9.920000076293945,9.920000076293945,1020100
2020-10-21,9.930000305175781,9.9350004196167,9.90999984741211,9.930000305175781,9.930000305175781,416800
2020-10-22,9.899999618530273,9.9399995803833,9.880000114440918,9.899999618530273,9.899999618530273,562800
2020-10-23,9.880000114440918,9.899999618530273,9.880000114440918,9.880000114440918,9.880000114440918,21100
2020-10-26,9.880000114440918,9.880000114440918,9.850000381469727,9.850000381469727,9.850000381469727,273900
2020-10-27,9.949999809265137,9.949999809265137,9.800000190734863,9.829999923706055,9.829999923706055,438500
2020-10-28,9.800000190734863,9.829999923706055,9.770000457763672,9.770000457763672,9.770000457763672,340300
2020-10-29,9.770000457763672,9.821999549865723,9.75,9.805000305175781,9.805000305175781,54100
2020-10-30,9.75,9.829999923706055,9.729999542236328,9.829999923706055,9.829999923706055,104300
2020-11-02,9.84000015258789,9.84000015258789,9.75,9.760000228881836,9.760000228881836,30300
2020-11-03,9.779999732971191,9.84000015258789,9.779999732971191,9.789999961853027,9.789999961853027,82700
2020-11-04,9.760000228881836,9.819999694824219,9.720000267028809,9.779999732971191,9.779999732971191,7300
2020-11-05,9.75,9.859999656677246,9.75,9.859999656677246,9.859999656677246,34300
2020-11-06,9.880000114440918,9.880000114440918,9.800000190734863,9.819999694824219,9.819999694824219,2700
2020-11-09,9.899999618530273,9.899999618530273,9.800000190734863,9.800000190734863,9.800000190734863,19200
2020-11-10,9.829999923706055,9.899999618530273,9.779000282287598,9.819999694824219,9.819999694824219,2300
2020-11-11,9.835000038146973,9.859999656677246,9.779999732971191,9.779999732971191,9.779999732971191,5300
2020-11-12,9.770000457763672,9.859999656677246,9.770000457763672,9.859999656677246,9.859999656677246,97700
2020-11-13,9.829999923706055,9.880000114440918,9.800000190734863,9.880000114440918,9.880000114440918,305700
2020-11-16,9.850000381469727,9.899999618530273,9.800000190734863,9.899999618530273,9.899999618530273,6300
2020-11-17,9.899999618530273,9.899999618530273,9.8100004196167,9.890000343322754,9.890000343322754,177700
2020-11-18,9.859999656677246,9.930000305175781,9.819999694824219,9.850000381469727,9.850000381469727,155900
2020-11-19,9.8100004196167,9.9399995803833,9.75,9.800000190734863,9.800000190734863,107800
2020-11-20,9.760000228881836,9.949999809265137,9.75,9.880000114440918,9.880000114440918,271400
2020-11-23,9.869999885559082,9.949999809265137,9.850000381469727,9.899999618530273,9.899999618530273,7100
2020-11-24,9.899999618530273,9.960000038146973,9.859999656677246,9.960000038146973,9.960000038146973,1079500
2020-11-25,9.989999771118164,10.050000190734863,9.960000038146973,10.020000457763672,10.020000457763672,415800
2020-11-27,9.989999771118164,10.100000381469727,9.989999771118164,10.079999923706055,10.079999923706055,43900
2020-11-30,10.069999694824219,10.100000381469727,9.979999542236328,10.0,10.0,161500
2020-12-01,10.0,10.010000228881836,9.970000267028809,9.979999542236328,9.979999542236328,76300
2020-12-02,9.960000038146973,10.100000381469727,9.960000038146973,10.100000381469727,10.100000381469727,389600
2020-12-03,10.0600004196167,10.119999885559082,10.029999732971191,10.079999923706055,10.079999923706055,1092300
2020-12-04,10.100000381469727,10.100000381469727,10.0600004196167,10.079999923706055,10.079999923706055,27400
2020-12-07,10.149999618530273,10.529999732971191,10.079999923706055,10.100000381469727,10.100000381469727,265300
2020-12-08,10.050000190734863,10.149999618530273,9.859999656677246,9.989999771118164,9.989999771118164,133600
2020-12-09,10.1899995803833,10.1899995803833,9.989999771118164,10.050000190734863,10.050000190734863,234000
2020-12-10,10.0600004196167,10.1899995803833,10.0,10.039999961853027,10.039999961853027,76000
2020-12-11,10.050000190734863,10.300000190734863,10.050000190734863,10.149999618530273,10.149999618530273,370100
2020-12-14,10.300000190734863,10.390000343322754,10.020000457763672,10.050000190734863,10.050000190734863,1351800
2020-12-15,10.069999694824219,10.289999961853027,10.0600004196167,10.0600004196167,10.0600004196167,129300
2020-12-16,10.180000305175781,10.239999771118164,10.100000381469727,10.170000076293945,10.170000076293945,601200
2020-12-17,10.154999732971191,10.300000190734863,10.154999732971191,10.289999961853027,10.289999961853027,103000
2020-12-18,10.399999618530273,10.399999618530273,10.1899995803833,10.319999694824219,10.319999694824219,55500
2020-12-21,10.300000190734863,10.380000114440918,10.25,10.319999694824219,10.319999694824219,47000
2020-12-22,10.399999618530273,10.399999618530273,10.220000267028809,10.289999961853027,10.289999961853027,232600
2020-12-23,10.350000381469727,10.420000076293945,10.25,10.319999694824219,10.319999694824219,151200
2020-12-24,10.300000190734863,10.350000381469727,10.180000305175781,10.289999961853027,10.289999961853027,289700
2020-12-28,10.369999885559082,10.40999984741211,10.300000190734863,10.34000015258789,10.34000015258789,226900
2020-12-29,10.359999656677246,10.416000366210938,10.220000267028809,10.279999732971191,10.279999732971191,204200
2020-12-30,10.25,10.369999885559082,10.220000267028809,10.359999656677246,10.359999656677246,101700
