Date,Open,High,Low,Close,Adj Close,Volume
2018-05-02,16.0,16.690000534057617,15.5,15.5,11.419519424438477,3314700
2018-05-03,15.579999923706055,15.65999984741211,14.779999732971191,15.0,11.0511474609375,642000
2018-05-04,15.010000228881836,15.899999618530273,15.0,15.520000457763672,11.434255599975586,207900
2018-05-07,15.760000228881836,16.110000610351562,15.630000114440918,15.779999732971191,11.625804901123047,209300
2018-05-08,15.729999542236328,15.836999893188477,15.510000228881836,15.649999618530273,11.530030250549316,88900
2018-05-09,15.779999732971191,15.989999771118164,15.359999656677246,15.569999694824219,11.471091270446777,162200
2018-05-10,15.59000015258789,15.600000381469727,15.369999885559082,15.4399995803833,11.375313758850098,152700
2018-05-11,15.6899995803833,15.789999961853027,15.354999542236328,15.40999984741211,11.353209495544434,174300
2018-05-14,15.25,15.75,15.1899995803833,15.449999809265137,11.647992134094238,159800
2018-05-15,15.529999732971191,15.84000015258789,15.329999923706055,15.640000343322754,11.79123592376709,93000
2018-05-16,15.800000190734863,15.84000015258789,15.600000381469727,15.75,11.874167442321777,77600
2018-05-17,15.670000076293945,15.989999771118164,15.600000381469727,15.800000190734863,11.911861419677734,133000
2018-05-18,15.899999618530273,15.920000076293945,15.600000381469727,15.729999542236328,11.859089851379395,68100
2018-05-21,15.899999618530273,16.18000030517578,15.600000381469727,15.960000038146973,12.032491683959961,83000
2018-05-22,15.850000381469727,16.118000030517578,15.770000457763672,15.84000015258789,11.942022323608398,80000
2018-05-23,15.869999885559082,16.149999618530273,15.850000381469727,15.90999984741211,11.994793891906738,100500
2018-05-24,15.90999984741211,16.0,15.670000076293945,15.8100004196167,11.919404029846191,64600
2018-05-25,15.75,15.869000434875488,15.569999694824219,15.600000381469727,11.761079788208008,58800
2018-05-29,15.6899995803833,16.350000381469727,15.642999649047852,16.229999542236328,12.236045837402344,346500
2018-05-30,16.15999984741211,16.34000015258789,15.75,15.890000343322754,12.103511810302734,257900
2018-05-31,16.200000762939453,16.299999237060547,15.899999618530273,16.18000030517578,12.324405670166016,146200
2018-06-01,16.15999984741211,16.25,15.949999809265137,15.970000267028809,12.164448738098145,143100
2018-06-04,16.09000015258789,16.239999771118164,15.75,16.1200008392334,12.278705596923828,201400
2018-06-05,16.1299991607666,16.190000534057617,16.0,16.0,12.187299728393555,123400
2018-06-06,16.049999237060547,16.149999618530273,15.960000038146973,16.040000915527344,12.217765808105469,74000
2018-06-07,16.149999618530273,16.149999618530273,15.899999618530273,15.920000076293945,12.126363754272461,119400
2018-06-08,16.0,16.200000762939453,15.920000076293945,16.1200008392334,12.278705596923828,33200
2018-06-11,16.280000686645508,16.280000686645508,15.899999618530273,16.149999618530273,12.301553726196289,94700
2018-06-12,16.15999984741211,16.25,16.079999923706055,16.25,12.377723693847656,38900
2018-06-13,16.209999084472656,16.243000030517578,16.079999923706055,16.09000015258789,12.255850791931152,48100
2018-06-14,16.200000762939453,16.240999221801758,16.08300018310547,16.100000381469727,12.263468742370605,32100
2018-06-15,16.172000885009766,16.229999542236328,16.09000015258789,16.100000381469727,12.263468742370605,24800
2018-06-18,16.200000762939453,16.288000106811523,16.100000381469727,16.170000076293945,12.316790580749512,28900
2018-06-19,15.859999656677246,16.049999237060547,15.335000038146973,15.619999885559082,11.897852897644043,259000
2018-06-20,15.649999618530273,15.850000381469727,15.5,15.720000267028809,11.974021911621094,91400
2018-06-21,15.75,15.979999542236328,15.630000114440918,15.899999618530273,12.111125946044922,54500
2018-06-22,15.989999771118164,16.25,15.800000190734863,16.190000534057617,12.332021713256836,34000
2018-06-25,16.280000686645508,16.280000686645508,15.800000190734863,15.920000076293945,12.126363754272461,29700
2018-06-26,16.100000381469727,16.329999923706055,16.010000228881836,16.190000534057617,12.332021713256836,34600
2018-06-27,16.149999618530273,16.260000228881836,16.010000228881836,16.049999237060547,12.225380897521973,61200
2018-06-28,15.90999984741211,16.09000015258789,15.890000343322754,16.030000686645508,12.297496795654297,26200
2018-06-29,16.100000381469727,16.329999923706055,16.059999465942383,16.219999313354492,12.443255424499512,40700
2018-07-02,16.200000762939453,16.290000915527344,16.06999969482422,16.290000915527344,12.496957778930664,30300
2018-07-03,16.3799991607666,16.3799991607666,16.15999984741211,16.280000686645508,12.489286422729492,21600
2018-07-05,16.34000015258789,16.34000015258789,16.209999084472656,16.290000915527344,12.496957778930664,21200
2018-07-06,16.350000381469727,16.350000381469727,16.170000076293945,16.290000915527344,12.496957778930664,21400
2018-07-09,16.3799991607666,16.3799991607666,16.110000610351562,16.110000610351562,12.358868598937988,44200
2018-07-10,16.030000686645508,16.280000686645508,16.0,16.020000457763672,12.289825439453125,37300
2018-07-11,16.049999237060547,16.09000015258789,16.0,16.0,12.274482727050781,23500
2018-07-12,16.049999237060547,16.090999603271484,15.949999809265137,16.059999465942383,12.320508003234863,23700
2018-07-13,16.059999465942383,16.079999923706055,16.0,16.040000915527344,12.305167198181152,17800
2018-07-16,16.059999465942383,16.1200008392334,15.75,15.770000457763672,12.098037719726562,36200
2018-07-17,15.800000190734863,15.947999954223633,15.800000190734863,15.829999923706055,12.144063949584961,24300
2018-07-18,15.850000381469727,15.956999778747559,15.821000099182129,15.899999618530273,12.19776439666748,16500
2018-07-19,15.90999984741211,15.90999984741211,15.609999656677246,15.6899995803833,12.036663055419922,94900
2018-07-20,15.800000190734863,15.850000381469727,15.675000190734863,15.850000381469727,12.159407615661621,53000
2018-07-23,16.0,16.0,15.619999885559082,15.989999771118164,12.266809463500977,58800
2018-07-24,16.040000915527344,16.1299991607666,15.899999618530273,16.0,12.274482727050781,18400
2018-07-25,16.1299991607666,16.239999771118164,16.110000610351562,16.149999618530273,12.389554977416992,44600
2018-07-26,16.25,16.25,16.100000381469727,16.25,12.466268539428711,46900
2018-07-27,16.15999984741211,16.20800018310547,16.100000381469727,16.200000762939453,12.427913665771484,13700
2018-07-30,16.100000381469727,16.100000381469727,15.949999809265137,16.079999923706055,12.434871673583984,45100
2018-07-31,15.899999618530273,16.040000915527344,15.75,15.800000190734863,12.218344688415527,42600
2018-08-01,15.770000457763672,15.800000190734863,15.670000076293945,15.670000076293945,12.117815971374512,59300
2018-08-02,15.649999618530273,15.649999618530273,15.449999809265137,15.529999732971191,12.009551048278809,124200
2018-08-03,15.449999809265137,15.64900016784668,15.399999618530273,15.5,11.986351013183594,64500
2018-08-06,15.630000114440918,16.0,15.600000381469727,15.850000381469727,12.257010459899902,69700
2018-08-07,15.760000228881836,15.890000343322754,15.279999732971191,15.770000457763672,12.195146560668945,142200
2018-08-08,15.630000114440918,15.699999809265137,15.380000114440918,15.380000114440918,11.893550872802734,71800
2018-08-09,15.5600004196167,15.640000343322754,15.350000381469727,15.630000114440918,12.086881637573242,48100
2018-08-10,15.630000114440918,15.630000114440918,15.350000381469727,15.470000267028809,11.963152885437012,47600
2018-08-13,15.470000267028809,15.600000381469727,15.399999618530273,15.399999618530273,11.909016609191895,32800
2018-08-14,15.680000305175781,15.800000190734863,15.506999969482422,15.789999961853027,12.210612297058105,37900
2018-08-15,15.819999694824219,15.819999694824219,15.510000228881836,15.550000190734863,12.02501392364502,39700
2018-08-16,15.649999618530273,15.682000160217285,15.520000457763672,15.57699966430664,12.045894622802734,12300
2018-08-17,15.550000190734863,15.800000190734863,15.550000190734863,15.680000305175781,12.125548362731934,13600
2018-08-20,15.550000190734863,15.6899995803833,15.550000190734863,15.5600004196167,12.032751083374023,46300
2018-08-21,15.579999923706055,15.663999557495117,14.010000228881836,14.329999923706055,11.081574440002441,229900
2018-08-22,14.420000076293945,14.720000267028809,14.27299976348877,14.680000305175781,11.3522367477417,86800
2018-08-23,14.25,14.489999771118164,12.869999885559082,13.989999771118164,10.818649291992188,358300
2018-08-24,13.989999771118164,13.989999771118164,13.199999809265137,13.449999809265137,10.4010591506958,158900
2018-08-27,13.449999809265137,14.6899995803833,13.449999809265137,14.6899995803833,11.359967231750488,124100
2018-08-28,14.699999809265137,14.800000190734863,14.380000114440918,14.550000190734863,11.251703262329102,81300
2018-08-29,14.640000343322754,14.670000076293945,14.25,14.279999732971191,11.042908668518066,31400
2018-08-30,14.180000305175781,14.199999809265137,13.899999618530273,14.0,10.897350311279297,42600
2018-08-31,14.100000381469727,14.100000381469727,13.619999885559082,13.720000267028809,10.679403305053711,35300
2018-09-04,13.729999542236328,14.069999694824219,13.600000381469727,13.609999656677246,10.593780517578125,70900
2018-09-05,13.600000381469727,13.812999725341797,13.020000457763672,13.15999984741211,10.243509292602539,108600
2018-09-06,13.3100004196167,13.380000114440918,13.020000457763672,13.210000038146973,10.282429695129395,44500
2018-09-07,13.100000381469727,13.350000381469727,13.0,13.029999732971191,10.142318725585938,41600
2018-09-10,13.0,13.21399974822998,12.5,12.600000381469727,9.807615280151367,100900
2018-09-11,12.579999923706055,12.579999923706055,11.899999618530273,12.0,9.340585708618164,171600
2018-09-12,12.069999694824219,12.357999801635742,11.899999618530273,11.960000038146973,9.309452056884766,103600
2018-09-13,11.960000038146973,12.350000381469727,11.75,12.029999732971191,9.363936424255371,109600
2018-09-14,12.029999732971191,12.336999893188477,11.949999809265137,12.0,9.340585708618164,58100
2018-09-17,12.0600004196167,12.109999656677246,11.949999809265137,12.079999923706055,9.40285587310791,30000
2018-09-18,12.100000381469727,13.045000076293945,12.100000381469727,12.949999809265137,10.080049514770508,88100
2018-09-19,13.100000381469727,13.300000190734863,12.739999771118164,12.800000190734863,9.963293075561523,111000
2018-09-20,12.90999984741211,13.079999923706055,12.8100004196167,12.970000267028809,10.095617294311523,30500
2018-09-21,13.0,13.208000183105469,13.0,13.010000228881836,10.126752853393555,30200
2018-09-24,13.149999618530273,13.149999618530273,13.0,13.109999656677246,10.204588890075684,59800
2018-09-25,13.039999961853027,13.039999961853027,12.75,12.90999984741211,10.04891300201416,75400
2018-09-26,12.989999771118164,13.0,12.720000267028809,12.770000457763672,9.939940452575684,45600
2018-09-27,12.630000114440918,12.866000175476074,12.460000038146973,12.479999542236328,9.81489372253418,59400
2018-09-28,12.5,12.51200008392334,12.199999809265137,12.25,9.634011268615723,84700
2018-10-01,12.260000228881836,12.456000328063965,11.899999618530273,11.899999618530273,9.358752250671387,83300
2018-10-02,12.369999885559082,12.699999809265137,12.25,12.569999694824219,9.885673522949219,142700
2018-10-03,12.789999961853027,12.789999961853027,12.5,12.779999732971191,10.050832748413086,171200
2018-10-04,12.6899995803833,12.706000328063965,12.380000114440918,12.460000038146973,9.79916763305664,82200
2018-10-05,12.5,12.569999694824219,12.350000381469727,12.350000381469727,9.712657928466797,89700
2018-10-08,12.449999809265137,12.866999626159668,12.300000190734863,12.3100004196167,9.681199073791504,105300
2018-10-09,12.350000381469727,12.789999961853027,12.279999732971191,12.460000038146973,9.79916763305664,106300
2018-10-10,12.5,12.651000022888184,12.350000381469727,12.350000381469727,9.712657928466797,47900
2018-10-11,12.420000076293945,12.5,12.079999923706055,12.140000343322754,9.547505378723145,113500
2018-10-12,12.329999923706055,12.449999809265137,11.8100004196167,11.949999809265137,9.398078918457031,112500
2018-10-15,12.15999984741211,12.15999984741211,11.90999984741211,11.930000305175781,9.382349967956543,81200
2018-10-16,12.0600004196167,12.199999809265137,12.0,12.0,9.437400817871094,63500
2018-10-17,12.050000190734863,12.050000190734863,11.899999618530273,12.039999961853027,9.468856811523438,37600
2018-10-18,12.100000381469727,12.100000381469727,11.979999542236328,12.020000457763672,9.453126907348633,48100
2018-10-19,11.84000015258789,12.029999732971191,11.760000228881836,11.960000038146973,9.4059419631958,104600
2018-10-22,11.970000267028809,12.069999694824219,11.869999885559082,11.869999885559082,9.335162162780762,90800
2018-10-23,11.779999732971191,12.010000228881836,11.75,11.75,9.2407865524292,35000
2018-10-24,11.819999694824219,12.11299991607666,11.819999694824219,11.949999809265137,9.398078918457031,55200
2018-10-25,11.899999618530273,12.489999771118164,11.899999618530273,12.369999885559082,9.728384017944336,54100
2018-10-26,12.279999732971191,12.850000381469727,12.029999732971191,12.699999809265137,9.987913131713867,46200
2018-10-29,12.699999809265137,12.890000343322754,12.569999694824219,12.640000343322754,9.940728187561035,68400
2018-10-30,12.510000228881836,12.720000267028809,12.414999961853027,12.449999809265137,9.881990432739258,34900
2018-10-31,12.449999809265137,12.670000076293945,12.449999809265137,12.550000190734863,9.961365699768066,28800
2018-11-01,12.59000015258789,12.666999816894531,12.5,12.640000343322754,10.03279972076416,27800
2018-11-02,12.600000381469727,12.600000381469727,12.390000343322754,12.579999923706055,9.985174179077148,23500
2018-11-05,12.600000381469727,12.640000343322754,12.529999732971191,12.640000343322754,10.03279972076416,25000
2018-11-06,12.579999923706055,12.619999885559082,12.550000190734863,12.600000381469727,10.00105094909668,17100
2018-11-07,12.800000190734863,12.800000190734863,12.5,12.649999618530273,10.040740013122559,26100
2018-11-08,12.600000381469727,12.600000381469727,12.470000267028809,12.550000190734863,9.961365699768066,24600
2018-11-09,12.550000190734863,12.600000381469727,12.5,12.600000381469727,10.00105094909668,24000
2018-11-12,12.600000381469727,12.600000381469727,12.399999618530273,12.579999923706055,9.985174179077148,30400
2018-11-13,12.600000381469727,12.600000381469727,12.40999984741211,12.5,9.921679496765137,81000
2018-11-14,12.40999984741211,12.48799991607666,11.850000381469727,11.850000381469727,9.40575122833252,36200
2018-11-15,12.050000190734863,12.180000305175781,11.949000358581543,11.979999542236328,9.508933067321777,29900
2018-11-16,11.979999542236328,12.119999885559082,11.979999542236328,12.0,9.524811744689941,10400
2018-11-19,11.279999732971191,11.369999885559082,9.319999694824219,10.619999885559082,8.429458618164062,305300
2018-11-20,10.579999923706055,10.890000343322754,10.0,10.029999732971191,7.961153984069824,132900
2018-11-21,10.029999732971191,10.989999771118164,10.029999732971191,10.760000228881836,8.540581703186035,57300
2018-11-23,10.75,10.862000465393066,10.63700008392334,10.770000457763672,8.548517227172852,15100
2018-11-26,10.710000038146973,10.989999771118164,10.210000038146973,10.550000190734863,8.373900413513184,111000
2018-11-27,10.550000190734863,10.760000228881836,10.279999732971191,10.760000228881836,8.540581703186035,41000
2018-11-28,10.800000190734863,10.800000190734863,10.140000343322754,10.140000343322754,8.048465728759766,49400
2018-11-29,10.149999618530273,10.180000305175781,9.994000434875488,10.180000305175781,8.133960723876953,32700
2018-11-30,10.180000305175781,10.211000442504883,9.899999618530273,9.949999809265137,7.950186729431152,73600
2018-12-03,10.029999732971191,10.09000015258789,9.720000267028809,9.84000015258789,7.8622941970825195,54700
2018-12-04,9.720000267028809,9.9399995803833,9.40999984741211,9.40999984741211,7.518718242645264,39900
2018-12-06,9.4399995803833,9.4399995803833,8.850000381469727,9.0,7.191123962402344,85700
2018-12-07,9.119999885559082,9.479999542236328,9.119999885559082,9.289999961853027,7.4228386878967285,29200
2018-12-10,9.15999984741211,9.15999984741211,8.279999732971191,8.5,6.791615009307861,91600
2018-12-11,8.5,8.890000343322754,8.399999618530273,8.430000305175781,6.735686302185059,37100
2018-12-12,8.5,8.694000244140625,8.175000190734863,8.489999771118164,6.783626556396484,55700
2018-12-13,8.390000343322754,8.390000343322754,7.739999771118164,8.020000457763672,6.408089637756348,107800
2018-12-14,7.860000133514404,7.960000038146973,7.650000095367432,7.650000095367432,6.112454414367676,75100
2018-12-17,7.670000076293945,7.747000217437744,7.309999942779541,7.460000038146973,5.960643291473389,84800
2018-12-18,7.539999961853027,7.664999961853027,7.010000228881836,7.019999980926514,5.609076499938965,130600
2018-12-19,7.019999980926514,7.171999931335449,6.570000171661377,6.639999866485596,5.3054518699646,206400
2018-12-20,6.800000190734863,7.0,6.03000020980835,6.329999923706055,5.057757377624512,270100
2018-12-21,6.360000133514404,6.4019999504089355,5.829999923706055,5.929999828338623,4.7381510734558105,309500
2018-12-24,5.829999923706055,6.311999797821045,5.449999809265137,6.059999942779541,4.8420233726501465,245900
2018-12-26,6.050000190734863,6.610000133514404,5.929999828338623,6.5,5.193588733673096,417900
2018-12-27,6.369999885559082,6.440000057220459,5.800000190734863,5.929999828338623,4.7381510734558105,187300
2018-12-28,5.96999979019165,6.25,5.820000171661377,5.960000038146973,4.856298446655273,269900
2018-12-31,6.010000228881836,6.079999923706055,5.5,5.920000076293945,4.82370662689209,376500
2019-01-02,6.010000228881836,7.75,5.989999771118164,7.480000019073486,6.094818115234375,140500
2019-01-03,7.5,8.5600004196167,7.5,8.4399995803833,6.877041339874268,304300
2019-01-04,8.550000190734863,9.25,8.53600025177002,9.109999656677246,7.422967433929443,204200
2019-01-07,9.649999618530273,10.430000305175781,9.5,9.800000190734863,7.985191822052002,452100
2019-01-08,10.149999618530273,10.149999618530273,9.8100004196167,10.109999656677246,8.237784385681152,171900
2019-01-09,10.270000457763672,10.4399995803833,10.170000076293945,10.4399995803833,8.506671905517578,146900
2019-01-10,10.4399995803833,10.4399995803833,10.09000015258789,10.170000076293945,8.28667163848877,81500
2019-01-11,10.149999618530273,10.149999618530273,9.51099967956543,9.850000381469727,8.025931358337402,184900
2019-01-14,9.869999885559082,9.949999809265137,9.630000114440918,9.899999618530273,8.066672325134277,159300
2019-01-15,10.0,10.270000457763672,9.944000244140625,9.989999771118164,8.14000415802002,64900
2019-01-16,10.0,10.0,9.529000282287598,9.619999885559082,7.838525295257568,98800
2019-01-17,9.210000038146973,9.289999961853027,8.329999923706055,8.630000114440918,7.031856536865234,261000
2019-01-18,8.649999618530273,9.5,8.649999618530273,9.430000305175781,7.683708667755127,144000
2019-01-22,9.5,9.5,8.75100040435791,9.300000190734863,7.57778263092041,66800
2019-01-23,9.369999885559082,9.5,9.109999656677246,9.1899995803833,7.488152027130127,40600
2019-01-24,9.25,9.479999542236328,9.25,9.449999809265137,7.700005531311035,34400
2019-01-25,9.399999618530273,9.449999809265137,9.149999618530273,9.390000343322754,7.651116847991943,36500
2019-01-28,9.350000381469727,9.390000343322754,9.050000190734863,9.050000190734863,7.37407922744751,67000
2019-01-29,9.119999885559082,9.222000122070312,8.864999771118164,9.145000457763672,7.451486110687256,102400
2019-01-30,9.210000038146973,9.210000038146973,8.800000190734863,9.09000015258789,7.478636741638184,79400
2019-01-31,9.180000305175781,9.180000305175781,8.710000038146973,9.029999732971191,7.429271697998047,36200
2019-02-01,9.149999618530273,9.199999809265137,8.850000381469727,8.949999809265137,7.363454341888428,55800
2019-02-04,9.0,9.0,8.649999618530273,8.760000228881836,7.207134246826172,62400
2019-02-05,8.850000381469727,8.850000381469727,8.3100004196167,8.359999656677246,6.878040790557861,135900
2019-02-06,8.270000457763672,8.449999809265137,8.239999771118164,8.390000343322754,6.902724742889404,59600
2019-02-07,8.25,8.399999618530273,8.149999618530273,8.350000381469727,6.869814872741699,62400
2019-02-08,8.399999618530273,8.40999984741211,8.130000114440918,8.130000114440918,6.688814640045166,42800
2019-02-11,8.149999618530273,8.449999809265137,8.149999618530273,8.310999870300293,6.8377275466918945,40300
2019-02-12,8.4399995803833,9.100000381469727,8.399999618530273,8.75,7.198907375335693,57900
2019-02-13,8.949999809265137,9.15999984741211,8.760000228881836,8.899999618530273,7.322317600250244,56800
2019-02-14,8.899999618530273,9.40999984741211,8.899999618530273,9.289999961853027,7.64318323135376,74200
2019-02-15,8.850000381469727,9.100000381469727,8.633999824523926,8.989999771118164,7.396362781524658,84500
2019-02-19,8.949999809265137,9.170000076293945,8.869999885559082,8.869999885559082,7.297636032104492,29900
2019-02-20,8.899999618530273,9.149999618530273,8.899999618530273,9.0,7.404591083526611,15500
2019-02-21,8.949999809265137,9.100000381469727,8.880000114440918,8.930000305175781,7.346999168395996,13700
2019-02-22,9.0,9.09000015258789,8.899999618530273,9.050000190734863,7.445728302001953,22400
2019-02-25,9.170000076293945,9.251999855041504,8.819999694824219,8.930000305175781,7.346999168395996,41600
2019-02-26,8.84000015258789,8.894000053405762,8.760000228881836,8.779999732971191,7.22359037399292,29800
2019-02-27,8.800000190734863,8.800000190734863,8.670000076293945,8.670000076293945,7.166554927825928,21800
2019-02-28,8.630000114440918,8.710000038146973,8.600000381469727,8.600000381469727,7.108694553375244,36300
2019-03-01,8.600000381469727,8.680000305175781,8.239999771118164,8.34000015258789,6.893779277801514,76800
2019-03-04,8.34000015258789,8.729999542236328,8.0,8.050000190734863,6.654066562652588,149900
2019-03-05,8.069999694824219,8.22599983215332,8.039999961853027,8.039999961853027,6.645802021026611,15600
2019-03-06,8.0600004196167,8.067000389099121,7.820000171661377,7.820000171661377,6.46395206451416,37300
2019-03-07,7.960000038146973,7.992000102996826,7.751999855041504,7.849999904632568,6.4887495040893555,36600
2019-03-08,7.769999980926514,8.029999732971191,7.769999980926514,7.849999904632568,6.4887495040893555,21500
2019-03-11,7.860000133514404,7.938000202178955,7.795000076293945,7.920000076293945,6.546609878540039,54000
2019-03-12,7.900000095367432,8.0,7.760000228881836,7.834000110626221,6.475522994995117,20100
2019-03-13,7.78000020980835,7.934000015258789,7.75,7.800000190734863,6.447420120239258,53100
2019-03-14,7.789999961853027,7.980000019073486,7.789999961853027,7.860000133514404,6.497015476226807,15800
2019-03-15,7.929999828338623,7.943999767303467,7.630000114440918,7.860000133514404,6.497015476226807,62100
2019-03-18,7.860000133514404,8.0,7.670000076293945,8.0,6.61273717880249,54200
2019-03-19,7.889999866485596,8.960000038146973,7.822000026702881,8.449999809265137,6.984704494476318,150000
2019-03-20,8.640000343322754,8.920000076293945,8.510000228881836,8.8100004196167,7.282279014587402,94700
2019-03-21,8.800000190734863,8.800000190734863,8.40999984741211,8.489999771118164,7.017768859863281,42200
2019-03-22,8.470000267028809,8.505000114440918,8.109999656677246,8.350000381469727,6.902046203613281,49600
2019-03-25,8.350000381469727,8.5,8.300000190734863,8.369999885559082,6.918576240539551,29400
2019-03-26,8.460000038146973,8.699999809265137,8.460000038146973,8.649999618530273,7.150022506713867,59000
2019-03-27,8.6899995803833,8.699999809265137,8.380000114440918,8.699999809265137,7.191351413726807,43400
2019-03-28,8.630000114440918,8.699999809265137,8.050000190734863,8.210000038146973,6.81924295425415,69800
2019-03-29,8.380000114440918,8.559000015258789,8.260000228881836,8.329999923706055,6.918913841247559,8100
2019-04-01,8.390000343322754,8.470000267028809,8.350000381469727,8.460000038146973,7.026893138885498,43600
2019-04-02,8.5,8.699999809265137,8.449999809265137,8.699999809265137,7.226237773895264,29300
2019-04-03,8.6899995803833,8.699999809265137,8.593000411987305,8.649999618530273,7.1847076416015625,13700
2019-04-04,8.600000381469727,8.6899995803833,8.444999694824219,8.59000015258789,7.134872913360596,52600
2019-04-05,8.520000457763672,8.699999809265137,8.425999641418457,8.699999809265137,7.226237773895264,42600
2019-04-08,8.569999694824219,8.732999801635742,8.569999694824219,8.699999809265137,7.226237773895264,40700
2019-04-09,8.6899995803833,8.699999809265137,8.5600004196167,8.579999923706055,7.126564025878906,13400
2019-04-10,8.600000381469727,8.600000381469727,8.5,8.569999694824219,7.118259906768799,20100
2019-04-11,8.579999923706055,8.579999923706055,8.506999969482422,8.529999732971191,7.085035800933838,12600
2019-04-12,8.539999961853027,8.600000381469727,8.529999732971191,8.539999961853027,7.093340873718262,29000
2019-04-15,8.5,8.600000381469727,8.470000267028809,8.569999694824219,7.118259906768799,21900
2019-04-16,8.550000190734863,8.6899995803833,8.489999771118164,8.6899995803833,7.217932224273682,56600
2019-04-17,8.699999809265137,8.720000267028809,8.65999984741211,8.65999984741211,7.193012237548828,33000
2019-04-18,8.699999809265137,8.699999809265137,8.470000267028809,8.515000343322754,7.072575569152832,32500
2019-04-22,8.569999694824219,8.6899995803833,8.520000457763672,8.6899995803833,7.217932224273682,43000
2019-04-23,8.680000305175781,8.84000015258789,8.600000381469727,8.699999809265137,7.226237773895264,71600
2019-04-24,8.800000190734863,8.829999923706055,8.744000434875488,8.779999732971191,7.2926859855651855,34600
2019-04-25,8.720000267028809,8.84000015258789,8.699999809265137,8.779999732971191,7.2926859855651855,23900
2019-04-26,8.84000015258789,8.850000381469727,8.699999809265137,8.720000267028809,7.242849826812744,49700
2019-04-29,8.670000076293945,8.819999694824219,8.670000076293945,8.710000038146973,7.2804646492004395,17700
2019-04-30,8.649999618530273,8.75,8.520000457763672,8.520000457763672,7.121647834777832,19900
2019-05-01,8.529999732971191,8.682999610900879,8.529999732971191,8.600000381469727,7.188519477844238,7000
2019-05-02,8.550000190734863,8.729999542236328,8.5,8.529999732971191,7.130007743835449,41100
2019-05-03,8.569999694824219,8.585000038146973,8.5,8.520000457763672,7.121647834777832,20500
2019-05-06,8.520000457763672,8.899999618530273,8.510000228881836,8.65999984741211,7.238669395446777,33000
2019-05-07,8.6899995803833,8.819999694824219,8.6899995803833,8.800000190734863,7.355693340301514,28300
2019-05-08,8.800000190734863,8.800000190734863,8.699999809265137,8.720000267028809,7.288824081420898,26900
2019-05-09,8.720000267028809,8.720000267028809,8.510000228881836,8.600000381469727,7.188519477844238,35800
2019-05-10,8.649999618530273,8.680000305175781,8.579999923706055,8.579999923706055,7.1717987060546875,18500
2019-05-13,8.600000381469727,8.600000381469727,8.5,8.550000190734863,7.146726608276367,25500
2019-05-14,8.59000015258789,8.59000015258789,8.340999603271484,8.380000114440918,7.0046257972717285,38300
2019-05-15,8.399999618530273,8.5,8.399999618530273,8.489999771118164,7.096572399139404,32500
2019-05-16,8.449999809265137,8.510000228881836,8.265000343322754,8.265000343322754,6.9085001945495605,42600
2019-05-17,8.279999732971191,8.430000305175781,8.229999542236328,8.25,6.895961284637451,20700
2019-05-20,8.329999923706055,8.76200008392334,8.329999923706055,8.699999809265137,7.272105693817139,46300
2019-05-21,8.779999732971191,9.25,8.767000198364258,9.25,7.73183536529541,168100
2019-05-22,9.25,9.350000381469727,9.197999954223633,9.289999961853027,7.765270709991455,60400
2019-05-23,9.199999809265137,9.350000381469727,8.970000267028809,9.100000381469727,7.606455326080322,105100
2019-05-24,9.119999885559082,9.144000053405762,8.819999694824219,8.819999694824219,7.372409820556641,67700
2019-05-28,8.979999542236328,9.140000343322754,8.958000183105469,9.029999732971191,7.547943592071533,38300
2019-05-29,9.0,9.029999732971191,8.800000190734863,8.949999809265137,7.481073379516602,47000
2019-05-30,9.0,9.0,8.840999603271484,8.920000076293945,7.531735420227051,24700
2019-05-31,8.880000114440918,8.880000114440918,8.699999809265137,8.760000228881836,7.39663553237915,26300
2019-06-03,8.800000190734863,8.859000205993652,8.670000076293945,8.720000267028809,7.362864017486572,48900
2019-06-04,8.800000190734863,8.869999885559082,8.680000305175781,8.6899995803833,7.337533473968506,60600
2019-06-05,8.670000076293945,8.715999603271484,8.300000190734863,8.460000038146973,7.143327236175537,50100
2019-06-06,8.460000038146973,8.670000076293945,8.069999694824219,8.25,6.966010570526123,120800
2019-06-07,8.199999809265137,8.510000228881836,8.199999809265137,8.199999809265137,6.923792839050293,31900
2019-06-10,8.199999809265137,8.309000015258789,8.119999885559082,8.199999809265137,6.923792839050293,31400
2019-06-11,8.170000076293945,8.3100004196167,8.170000076293945,8.199999809265137,6.923792839050293,10700
2019-06-12,8.25,8.350000381469727,8.100000381469727,8.119999885559082,6.856245040893555,37700
2019-06-13,8.130000114440918,8.460000038146973,8.100000381469727,8.130000114440918,6.864687919616699,33800
2019-06-14,8.15999984741211,8.180999755859375,7.809999942779541,7.96999979019165,6.729589939117432,51700
2019-06-17,7.980000019073486,8.100000381469727,7.730000019073486,7.809999942779541,6.5944905281066895,65700
2019-06-18,7.909999847412109,8.0,7.739999771118164,7.875999927520752,6.650217533111572,54700
2019-06-19,7.809999942779541,8.0,7.809999942779541,7.999000072479248,6.754075050354004,43700
2019-06-20,8.0,8.149999618530273,7.880000114440918,8.069999694824219,6.814025402069092,29800
2019-06-21,8.149999618530273,8.149999618530273,8.069999694824219,8.100000381469727,6.839357376098633,20300
2019-06-24,8.149999618530273,8.34000015258789,7.909999847412109,7.940000057220459,6.704257965087891,45900
2019-06-25,7.960000038146973,8.199999809265137,7.900000095367432,8.180000305175781,6.906905174255371,41800
2019-06-26,8.25,8.550000190734863,8.109999656677246,8.15999984741211,6.890017986297607,67200
2019-06-27,8.0600004196167,8.149999618530273,7.966000080108643,8.12600040435791,6.922389507293701,11900
2019-06-28,7.760000228881836,7.989999771118164,7.760000228881836,7.949999809265137,6.772458076477051,55200
2019-07-01,7.96999979019165,8.095000267028809,7.800000190734863,7.800000190734863,6.644676208496094,24800
2019-07-02,7.849999904632568,8.041000366210938,7.840000152587891,8.0,6.815052032470703,5200
2019-07-03,8.09000015258789,8.100000381469727,7.880000114440918,7.960000038146973,6.780977725982666,31800
2019-07-05,8.050000190734863,8.350000381469727,7.9720001220703125,8.350000381469727,7.113210201263428,46700
2019-07-08,8.350000381469727,8.350000381469727,8.199999809265137,8.199999809265137,6.985428333282471,22100
2019-07-09,8.149999618530273,8.199999809265137,8.010000228881836,8.15999984741211,6.951353073120117,21600
2019-07-10,8.119999885559082,8.279999732971191,8.119999885559082,8.229999542236328,7.010985374450684,28500
2019-07-11,8.210000038146973,8.5,8.0,8.0,6.815052032470703,55400
2019-07-12,8.029999732971191,8.100000381469727,7.900000095367432,8.029999732971191,6.840608596801758,26300
2019-07-15,8.039999961853027,8.079999923706055,7.900000095367432,8.0,6.815052032470703,61400
2019-07-16,7.909999847412109,8.152999877929688,7.900000095367432,7.960000038146973,6.780977725982666,53900
2019-07-17,7.909999847412109,7.994999885559082,7.849999904632568,7.929999828338623,6.755420684814453,25700
2019-07-18,7.96999979019165,7.96999979019165,7.760000228881836,7.809999942779541,6.653195381164551,35800
2019-07-19,7.900000095367432,7.909999847412109,7.822000026702881,7.900000095367432,6.729864597320557,19900
2019-07-22,7.900000095367432,8.010000228881836,7.824999809265137,7.900000095367432,6.729864597320557,85800
2019-07-23,7.900000095367432,8.062999725341797,7.880000114440918,8.0,6.815052032470703,25900
2019-07-24,7.96999979019165,8.020000457763672,7.849999904632568,7.940000057220459,6.763939380645752,35400
2019-07-25,8.029999732971191,8.100000381469727,7.949999809265137,8.0600004196167,6.866166114807129,32300
2019-07-26,8.069999694824219,8.069999694824219,7.909999847412109,7.949999809265137,6.772458076477051,20200
2019-07-29,7.949999809265137,8.050000190734863,7.949999809265137,8.0,6.815052032470703,32400
2019-07-30,7.949999809265137,8.430000305175781,7.853000164031982,7.949999809265137,6.832240104675293,63400
2019-07-31,8.050000190734863,8.050000190734863,7.860000133514404,7.880000114440918,6.772083759307861,32700
2019-08-01,7.849999904632568,7.960999965667725,7.815000057220459,7.940000057220459,6.823646545410156,55900
2019-08-02,7.900000095367432,7.96999979019165,7.849999904632568,7.889999866485596,6.78067684173584,14600
2019-08-05,7.769999980926514,7.78000020980835,7.579999923706055,7.679999828338623,6.600203037261963,35000
2019-08-06,7.650000095367432,7.840000152587891,7.650000095367432,7.679999828338623,6.600203037261963,19000
2019-08-07,7.630000114440918,7.630000114440918,7.438000202178955,7.460000038146973,6.411134719848633,29900
2019-08-08,7.46999979019165,7.650000095367432,7.400000095367432,7.650000095367432,6.574420928955078,45000
2019-08-09,7.650000095367432,7.650000095367432,7.5,7.539999961853027,6.479887008666992,15400
2019-08-12,7.519999980926514,7.650000095367432,7.260000228881836,7.320000171661377,6.2908172607421875,66300
2019-08-13,7.460000038146973,7.460000038146973,6.980000019073486,6.980000019073486,5.998620986938477,67300
2019-08-14,6.949999809265137,7.0,6.714000225067139,6.7230000495910645,5.777753829956055,44300
2019-08-15,6.849999904632568,6.955999851226807,6.670000076293945,6.699999809265137,5.75799036026001,34000
2019-08-16,6.71999979019165,6.965000152587891,6.71999979019165,6.909999847412109,5.9384636878967285,40900
2019-08-19,7.159999847412109,7.2779998779296875,6.920000076293945,6.929999828338623,5.955650806427002,52500
2019-08-20,6.980000019073486,7.150000095367432,6.880000114440918,7.139999866485596,6.136125564575195,21400
2019-08-21,7.239999771118164,7.239999771118164,7.0,7.079999923706055,6.084561824798584,29900
2019-08-22,7.099999904632568,7.11299991607666,6.922999858856201,7.03000020980835,6.041592121124268,41500
2019-08-23,7.019999980926514,7.019999980926514,6.710000038146973,6.869999885559082,5.904086112976074,52400
2019-08-26,6.75,6.820000171661377,6.690999984741211,6.800000190734863,5.843929767608643,48600
2019-08-27,6.690000057220459,7.050000190734863,6.690000057220459,7.03000020980835,6.041592121124268,35900
2019-08-28,6.984000205993652,7.409999847412109,6.900000095367432,7.400000095367432,6.359569549560547,60100
2019-08-29,7.309999942779541,7.539999961853027,7.269999980926514,7.539999961853027,6.541767597198486,24800
2019-08-30,7.559999942779541,7.559999942779541,7.330999851226807,7.449999809265137,6.463682651519775,29600
2019-09-03,7.400000095367432,7.548999786376953,7.376999855041504,7.409999847412109,6.428978443145752,36200
2019-09-04,7.460000038146973,7.5289998054504395,7.322000026702881,7.36899995803833,6.393406391143799,20500
2019-09-05,7.409999847412109,7.510000228881836,7.099999904632568,7.11899995803833,6.176504611968994,41800
2019-09-06,7.130000114440918,7.309000015258789,7.070000171661377,7.163000106811523,6.214678764343262,24200
2019-09-09,7.150000095367432,7.25,7.010000228881836,7.190000057220459,6.238104343414307,47900
2019-09-10,7.25,7.329999923706055,7.150000095367432,7.199999809265137,6.246780872344971,44400
2019-09-11,7.309999942779541,7.309999942779541,7.109000205993652,7.21999979019165,6.264132976531982,53000
2019-09-12,7.21999979019165,7.289999961853027,7.010000228881836,7.059999942779541,6.125314235687256,38300
2019-09-13,7.059999942779541,7.059999942779541,6.900000095367432,6.980000019073486,6.055906295776367,36900
2019-09-16,7.150000095367432,7.300000190734863,6.964000225067139,7.099999904632568,6.160019874572754,132200
2019-09-17,7.099999904632568,7.980000019073486,7.0,7.71999979019165,6.697936534881592,268700
2019-09-18,7.849999904632568,7.96999979019165,7.670000076293945,7.840000152587891,6.802051067352295,111000
2019-09-19,7.840000152587891,8.180000305175781,7.800000190734863,8.050000190734863,6.984248161315918,67600
2019-09-20,8.050000190734863,8.25,8.050000190734863,8.239999771118164,7.149094104766846,30000
2019-09-23,8.359999656677246,8.489999771118164,8.300000190734863,8.380000114440918,7.270559310913086,59600
2019-09-24,8.399999618530273,8.461999893188477,8.170000076293945,8.329999923706055,7.227178573608398,61000
2019-09-25,8.3100004196167,8.399999618530273,8.039999961853027,8.399999618530273,7.287909984588623,108800
2019-09-26,8.229999542236328,8.425000190734863,8.229999542236328,8.300000190734863,7.201148986816406,29100
2019-09-27,8.220000267028809,8.229999542236328,8.029999732971191,8.15999984741211,7.139899730682373,13600
2019-09-30,8.039999961853027,8.199999809265137,8.010000228881836,8.050000190734863,7.043652534484863,32400
2019-10-01,8.15999984741211,8.15999984741211,8.020000457763672,8.050000190734863,7.043652534484863,14400
2019-10-02,8.0,8.109000205993652,7.909999847412109,8.029999732971191,7.02615213394165,27800
2019-10-03,8.079999923706055,8.079999923706055,7.900000095367432,7.900000095367432,6.912404537200928,15500
2019-10-04,7.900000095367432,7.960000038146973,7.75,7.75,6.781154632568359,16700
2019-10-07,7.800000190734863,8.0,7.75,7.860000133514404,6.877404689788818,20100
2019-10-08,7.849999904632568,7.986999988555908,7.75,7.849999904632568,6.868654727935791,21900
2019-10-09,7.900000095367432,7.999000072479248,7.079999923706055,7.300000190734863,6.387412071228027,68500
2019-10-10,7.329999923706055,7.383999824523926,7.070000171661377,7.289999961853027,6.378662109375,39400
2019-10-11,7.309999942779541,7.985000133514404,7.300000190734863,7.300000190734863,6.387412071228027,44200
2019-10-14,7.349999904632568,7.586999893188477,7.349999904632568,7.489999771118164,6.553658485412598,23200
2019-10-15,7.559999942779541,7.559999942779541,7.139999866485596,7.139999866485596,6.2474141120910645,54000
2019-10-16,7.110000133514404,7.25,7.110000133514404,7.199999809265137,6.299912929534912,20500
2019-10-17,7.300000190734863,7.438000202178955,7.079999923706055,7.090000152587891,6.203664302825928,32700
2019-10-18,7.179999828338623,7.289999961853027,7.079999923706055,7.289999961853027,6.378662109375,50200
2019-10-21,7.079999923706055,7.107999801635742,6.809999942779541,6.849999904632568,5.993667125701904,217100
2019-10-22,6.860000133514404,6.860000133514404,6.510000228881836,6.670000076293945,5.836169242858887,118300
2019-10-23,6.679999828338623,6.920000076293945,6.551000118255615,6.75,5.906168460845947,72700
2019-10-24,6.659999847412109,6.940000057220459,6.599999904632568,6.889999866485596,6.0286664962768555,53200
2019-10-25,6.849999904632568,6.89900016784668,6.610000133514404,6.639999866485596,5.809919357299805,119600
2019-10-28,6.670000076293945,6.989999771118164,6.599999904632568,6.760000228881836,5.914917469024658,79000
2019-10-29,6.639999866485596,6.949999809265137,6.639999866485596,6.869999885559082,6.011165618896484,37800
2019-10-30,6.75,6.863999843597412,6.71999979019165,6.71999979019165,5.915220737457275,43600
2019-10-31,6.710000038146973,6.7230000495910645,6.5,6.599999904632568,5.809591293334961,62800
2019-11-01,6.510000228881836,6.650000095367432,6.300000190734863,6.610000133514404,5.818393707275391,67900
2019-11-04,6.510000228881836,6.650000095367432,6.5,6.650000095367432,5.853603363037109,22000
2019-11-05,6.650000095367432,6.690000057220459,6.5,6.679999828338623,5.880010604858398,26300
2019-11-06,6.679999828338623,6.820000171661377,6.650000095367432,6.650000095367432,5.853603363037109,23700
2019-11-07,6.670000076293945,6.829999923706055,6.610000133514404,6.710000038146973,5.906418800354004,38500
2019-11-08,6.78000020980835,6.78000020980835,6.519999980926514,6.519999980926514,5.739171981811523,25800
2019-11-11,6.679999828338623,6.679999828338623,6.538000106811523,6.579999923706055,5.791986465454102,24700
2019-11-12,6.550000190734863,6.702000141143799,6.349999904632568,6.599999904632568,5.809591293334961,49100
2019-11-13,6.449999809265137,6.550000190734863,6.360000133514404,6.46999979019165,5.695160388946533,50700
2019-11-14,6.369999885559082,6.465000152587891,6.360000133514404,6.360000133514404,5.598334312438965,29400
2019-11-15,6.599999904632568,6.599999904632568,6.309999942779541,6.40500020980835,5.63794469833374,36300
2019-11-18,6.300000190734863,6.550000190734863,6.053999900817871,6.170000076293945,5.431087970733643,57400
2019-11-19,6.0,6.067999839782715,5.699999809265137,5.909999847412109,5.2022247314453125,103700
2019-11-20,5.829999923706055,6.057000160217285,5.699999809265137,6.010000228881836,5.290248870849609,49600
2019-11-21,5.949999809265137,5.949999809265137,5.699999809265137,5.889999866485596,5.184620380401611,42300
2019-11-22,5.900000095367432,5.949999809265137,5.71999979019165,5.800000190734863,5.105398654937744,91100
2019-11-25,5.849999904632568,5.900000095367432,5.747000217437744,5.900000095367432,5.193423748016357,39600
2019-11-26,5.829999923706055,5.896999835968018,5.760000228881836,5.869999885559082,5.167015075683594,30200
2019-11-27,5.760000228881836,5.809999942779541,5.71999979019165,5.730000019073486,5.075775623321533,57900
2019-11-29,5.75,5.78000020980835,5.710000038146973,5.730000019073486,5.075775623321533,12100
2019-12-02,5.699999809265137,5.732999801635742,5.460000038146973,5.539999961853027,4.907469272613525,131000
2019-12-03,5.559999942779541,5.627999782562256,5.519999980926514,5.550000190734863,4.916327476501465,40400
2019-12-04,5.519999980926514,5.590000152587891,5.360000133514404,5.389999866485596,4.774595260620117,81800
2019-12-05,5.360000133514404,5.497000217437744,5.360000133514404,5.400000095367432,4.783453464508057,27300
2019-12-06,5.400000095367432,5.502999782562256,5.360000133514404,5.409999847412109,4.7923102378845215,34700
2019-12-09,5.5,5.543000221252441,5.409999847412109,5.480999946594238,4.855205535888672,89400
2019-12-10,5.5,6.039999961853027,5.425000190734863,5.989999771118164,5.306089401245117,134800
2019-12-11,6.190000057220459,6.289999961853027,6.03000020980835,6.050000190734863,5.3592400550842285,60900
2019-12-12,6.050000190734863,6.239999771118164,6.050000190734863,6.199999809265137,5.49211311340332,45100
2019-12-13,6.119999885559082,6.146999835968018,5.610000133514404,5.784999847412109,5.124494552612305,79200
2019-12-16,5.769999980926514,5.96999979019165,5.769999980926514,5.840000152587891,5.173215866088867,52700
2019-12-17,5.960000038146973,5.960000038146973,5.75,5.78000020980835,5.120068073272705,48300
2019-12-18,5.889999866485596,5.889999866485596,5.78000020980835,5.829999923706055,5.164358139038086,21400
2019-12-19,5.940000057220459,5.949999809265137,5.610000133514404,5.675000190734863,5.027055263519287,134100
2019-12-20,5.849999904632568,5.949999809265137,5.699999809265137,5.900000095367432,5.2263665199279785,70100
2019-12-23,5.78000020980835,5.860000133514404,5.769999980926514,5.849999904632568,5.182073593139648,39600
2019-12-24,5.849999904632568,6.079999923706055,5.849999904632568,6.03000020980835,5.34152364730835,64200
2019-12-26,6.0,6.0,5.929999828338623,6.0,5.314947128295898,53100
2019-12-27,5.909999847412109,6.0,5.800000190734863,5.800000190734863,5.137783050537109,96600
2019-12-30,5.760000228881836,5.900000095367432,5.550000190734863,5.554999828338623,4.964408874511719,224700
2019-12-31,5.550000190734863,5.650000095367432,5.369999885559082,5.382999897003174,4.810695171356201,220700
2020-01-02,5.590000152587891,5.698999881744385,5.5879998207092285,5.630000114440918,5.031434535980225,48500
2020-01-03,5.599999904632568,5.849999904632568,5.599999904632568,5.789999961853027,5.17442512512207,51000
2020-01-06,5.800000190734863,6.400000095367432,5.800000190734863,6.389999866485596,5.710634708404541,222900
2020-01-07,6.349999904632568,6.630000114440918,6.230000019073486,6.53000020980835,5.835750579833984,94600
2020-01-08,6.599999904632568,6.699999809265137,6.150000095367432,6.199999809265137,5.540834426879883,106200
2020-01-09,6.119999885559082,6.25,6.050000190734863,6.065000057220459,5.420187473297119,64400
2020-01-10,6.099999904632568,6.309999942779541,5.900000095367432,5.909999847412109,5.281665802001953,51900
2020-01-13,5.920000076293945,6.130000114440918,5.914999961853027,5.96999979019165,5.335287570953369,53200
2020-01-14,6.139999866485596,6.139999866485596,5.953000068664551,6.070000171661377,5.424655437469482,45400
2020-01-15,5.96999979019165,6.059999942779541,5.96999979019165,6.019999980926514,5.379971504211426,30500
2020-01-16,6.019999980926514,6.289999961853027,6.019999980926514,6.260000228881836,5.594454765319824,38500
2020-01-17,6.28000020980835,6.28000020980835,6.079999923706055,6.110000133514404,5.4604034423828125,23400
2020-01-21,5.96999979019165,6.0,5.769999980926514,5.829999923706055,5.210171699523926,113500
2020-01-22,5.809999942779541,5.829999923706055,5.789999961853027,5.789999961853027,5.17442512512207,31000
2020-01-23,5.75,5.800000190734863,5.696000099182129,5.710000038146973,5.102930545806885,66900
2020-01-24,5.730000019073486,5.758999824523926,5.610000133514404,5.610000133514404,5.013562202453613,44200
2020-01-27,5.550000190734863,5.668000221252441,5.550000190734863,5.599999904632568,5.004624366760254,37500
2020-01-28,5.599999904632568,5.6579999923706055,5.593999862670898,5.619999885559082,5.02249813079834,18400
2020-01-29,5.579999923706055,5.659999847412109,5.579999923706055,5.579999923706055,4.986750602722168,29200
2020-01-30,5.510000228881836,5.598999977111816,5.510000228881836,5.53000020980835,4.9705705642700195,45400
2020-01-31,5.519999980926514,5.599999904632568,5.440000057220459,5.440000057220459,4.889675617218018,62000
2020-02-03,5.340000152587891,5.449999809265137,5.050000190734863,5.059999942779541,4.548118591308594,129100
2020-02-04,5.070000171661377,5.179999828338623,4.909999847412109,5.119999885559082,4.602047920227051,110300
2020-02-05,5.019999980926514,5.130000114440918,4.949999809265137,5.085000038146973,4.5705885887146,37800
2020-02-06,5.099999904632568,5.130000114440918,5.0,5.0,4.49418830871582,16900
2020-02-07,5.0,5.099999904632568,5.0,5.059999942779541,4.548118591308594,16300
2020-02-10,5.059999942779541,5.081999778747559,4.940000057220459,4.940000057220459,4.440257549285889,48300
2020-02-11,5.0,5.0,4.810999870300293,4.840000152587891,4.350374698638916,39600
2020-02-12,4.860000133514404,4.920000076293945,4.860000133514404,4.910999774932861,4.414190769195557,42800
2020-02-13,4.96999979019165,5.0,4.936999797821045,4.96999979019165,4.467222690582275,43700
2020-02-14,5.0,5.0,4.880000114440918,4.943999767303467,4.44385290145874,9600
2020-02-18,4.929999828338623,5.059999942779541,4.929999828338623,5.045000076293945,4.534635543823242,58700
2020-02-19,5.139999866485596,5.230000019073486,5.050000190734863,5.230000019073486,4.700920104980469,37500
2020-02-20,5.239999771118164,5.239999771118164,5.119999885559082,5.130000114440918,4.611037254333496,61100
2020-02-21,5.210000038146973,5.21999979019165,5.089000225067139,5.210000038146973,4.682943820953369,26700
2020-02-24,5.179999828338623,5.179999828338623,5.0,5.039999961853027,4.5301408767700195,74200
2020-02-25,5.070000171661377,5.070000171661377,4.900000095367432,4.940000057220459,4.440257549285889,56600
2020-02-26,4.900000095367432,5.03000020980835,4.840000152587891,4.840000152587891,4.350374698638916,47900
2020-02-27,4.690000057220459,4.7210001945495605,4.550000190734863,4.599999904632568,4.178684711456299,57500
2020-02-28,4.550000190734863,4.559999942779541,4.099999904632568,4.159999847412109,3.7789835929870605,108200
2020-03-02,4.300000190734863,4.449999809265137,4.2210001945495605,4.369999885559082,3.969749689102173,57600
2020-03-03,4.420000076293945,4.730000019073486,4.400000095367432,4.619999885559082,4.196852207183838,58700
2020-03-04,4.800000190734863,4.877999782562256,4.78000020980835,4.820000171661377,4.378534317016602,41900
2020-03-05,4.659999847412109,4.699999809265137,4.630000114440918,4.639999866485596,4.215021133422852,16800
2020-03-06,4.460000038146973,4.546000003814697,4.440000057220459,4.440000057220459,4.03333854675293,37900
2020-03-09,4.269999980926514,4.269999980926514,3.0199999809265137,3.049999952316284,2.7706494331359863,183700
2020-03-10,3.190000057220459,3.299999952316284,2.7899999618530273,3.2899999618530273,2.988668203353882,122300
2020-03-11,3.25,3.25,3.0299999713897705,3.200000047683716,2.9069111347198486,35800
2020-03-12,2.9800000190734863,2.9800000190734863,2.7300000190734863,2.7699999809265137,2.5162947177886963,60800
2020-03-13,3.0,3.062999963760376,2.4200000762939453,2.5399999618530273,2.3073606491088867,75000
2020-03-16,2.3399999141693115,2.450000047683716,2.2300000190734863,2.430000066757202,2.2074356079101562,61800
2020-03-17,2.3399999141693115,2.4189999103546143,2.109999895095825,2.119999885559082,1.925828218460083,54200
2020-03-18,1.9600000381469727,1.9600000381469727,1.0,1.1799999475479126,1.0719232559204102,257400
2020-03-19,1.1200000047683716,1.4500000476837158,1.1200000047683716,1.440000057220459,1.3081101179122925,70600
2020-03-20,1.3899999856948853,1.406999945640564,1.159999966621399,1.3200000524520874,1.1991007328033447,95400
2020-03-23,1.3200000524520874,1.3200000524520874,1.190000057220459,1.2910000085830688,1.1727567911148071,29100
2020-03-24,1.2999999523162842,1.899999976158142,1.2949999570846558,1.899999976158142,1.7259784936904907,87300
2020-03-25,1.9900000095367432,3.549999952316284,1.9900000095367432,2.990000009536743,2.7161448001861572,172000
2020-03-26,2.990000009536743,3.299999952316284,2.8499999046325684,3.0399999618530273,2.7615652084350586,82200
2020-03-27,3.0,3.0,2.630000114440918,2.9200000762939453,2.6525557041168213,21800
2020-03-30,2.9000000953674316,2.9000000953674316,2.5,2.569999933242798,2.346668004989624,32200
2020-03-31,2.690000057220459,2.690000057220459,2.5,2.619999885559082,2.392322540283203,20600
2020-04-01,2.5,2.6500000953674316,2.450000047683716,2.5999999046325684,2.374061107635498,26000
2020-04-02,2.549999952316284,2.7200000286102295,2.299999952316284,2.299999952316284,2.100130558013916,31600
2020-04-03,2.4000000953674316,2.4000000953674316,2.2720000743865967,2.2780001163482666,2.0800423622131348,9200
2020-04-06,2.299999952316284,2.4700000286102295,2.299999952316284,2.359999895095825,2.154916763305664,10700
2020-04-07,2.559999942779541,2.7100000381469727,2.3499999046325684,2.380000114440918,2.1731786727905273,31400
2020-04-08,2.4000000953674316,2.549999952316284,2.4000000953674316,2.440000057220459,2.2279646396636963,33600
2020-04-09,2.5799999237060547,2.8989999294281006,2.490000009536743,2.559999942779541,2.337536573410034,35400
2020-04-13,2.809999942779541,3.0,2.740000009536743,2.809999942779541,2.5658116340637207,36700
2020-04-14,2.9800000190734863,2.9800000190734863,2.7699999809265137,2.869999885559082,2.6205973625183105,33100
2020-04-15,2.8499999046325684,2.8559999465942383,2.700000047683716,2.763000011444092,2.5228960514068604,16600
2020-04-16,2.5999999046325684,2.619999885559082,2.25,2.2899999618530273,2.0909993648529053,58800
2020-04-17,2.299999952316284,2.3399999141693115,2.2799999713897705,2.299999952316284,2.100130558013916,22400
2020-04-20,2.069999933242798,2.1700000762939453,2.049999952316284,2.059999942779541,1.8809865713119507,40900
2020-04-21,2.0199999809265137,2.1500000953674316,1.8300000429153442,1.909999966621399,1.7440212965011597,70200
2020-04-22,2.0399999618530273,2.0399999618530273,1.8300000429153442,1.8300000429153442,1.670973300933838,26300
2020-04-23,1.8300000429153442,2.01200008392334,1.8300000429153442,1.9199999570846558,1.7531524896621704,67600
2020-04-24,1.9900000095367432,2.0199999809265137,1.8899999856948853,2.0199999809265137,1.8444626331329346,17200
2020-04-27,2.059999942779541,2.059999942779541,1.9199999570846558,1.9700000286102295,1.7988073825836182,43900
2020-04-28,1.9700000286102295,2.009999990463257,1.809999942779541,1.8200000524520874,1.6618425846099854,58400
2020-04-29,1.899999976158142,1.9900000095367432,1.899999976158142,1.9900000095367432,1.817069411277771,42300
2020-04-30,1.9900000095367432,1.9900000095367432,1.9299999475479126,1.9700000286102295,1.7988073825836182,29200
2020-05-01,1.9700000286102295,2.0,1.8899999856948853,1.9429999589920044,1.774153709411621,22700
2020-05-04,1.899999976158142,1.9900000095367432,1.8899999856948853,1.9500000476837158,1.7805453538894653,14500
2020-05-05,1.9900000095367432,2.0,1.9049999713897705,1.940000057220459,1.7714145183563232,29500
2020-05-06,1.9600000381469727,1.9600000381469727,1.9199999570846558,1.9600000381469727,1.789676308631897,12900
2020-05-07,2.0,2.0,1.8700000047683716,1.8799999952316284,1.7166286706924438,38900
2020-05-08,1.9700000286102295,1.9700000286102295,1.909999966621399,1.9500000476837158,1.7805453538894653,22300
2020-05-11,2.0,2.0,1.9500000476837158,1.9800000190734863,1.8079383373260498,27800
2020-05-12,1.9500000476837158,1.9800000190734863,1.9049999713897705,1.9800000190734863,1.8079383373260498,41400
2020-05-13,2.0,2.0,1.8899999856948853,1.8899999856948853,1.725759506225586,27700
2020-05-14,1.899999976158142,1.9600000381469727,1.8899999856948853,1.9299999475479126,1.7622835636138916,51800
2020-05-15,1.9299999475479126,1.9889999628067017,1.8899999856948853,1.8980000019073486,1.7330644130706787,28700
2020-05-18,2.0,2.0,1.8899999856948853,1.9700000286102295,1.7988073825836182,81500
2020-05-19,1.9500000476837158,2.0350000858306885,1.9299999475479126,2.0350000858306885,1.858159065246582,33600
2020-05-20,2.0,2.049999952316284,2.0,2.0299999713897705,1.8535935878753662,21600
2020-05-21,2.0,2.049999952316284,1.9800000190734863,2.0299999713897705,1.8535935878753662,30600
2020-05-22,2.0399999618530273,2.140000104904175,2.0399999618530273,2.127000093460083,1.9421643018722534,26000
2020-05-26,2.130000114440918,2.130000114440918,2.049999952316284,2.0799999237060547,1.8992481231689453,47700
2020-05-27,2.0999999046325684,2.0999999046325684,2.0399999618530273,2.055000066757202,1.8764212131500244,30600
2020-05-28,2.049999952316284,2.1040000915527344,2.0160000324249268,2.0789999961853027,1.8983356952667236,24800
2020-05-29,2.0799999237060547,2.1080000400543213,2.0,2.055000066757202,1.8764212131500244,36200
2020-06-01,2.0899999141693115,2.119999885559082,2.055000066757202,2.109999895095825,1.9266412258148193,24200
2020-06-02,2.1500000953674316,2.450000047683716,2.121000051498413,2.4100000858306885,2.200571298599243,70400
2020-06-03,2.630000114440918,3.1500000953674316,2.559999942779541,3.009999990463257,2.748431444168091,135700
2020-06-04,3.009999990463257,3.25,3.0,3.125999927520752,2.854351043701172,81600
2020-06-05,3.3499999046325684,3.450000047683716,3.2100000381469727,3.2739999294281006,2.989490270614624,64900
2020-06-08,3.549999952316284,3.630000114440918,3.4200000762939453,3.619999885559082,3.305422782897949,75700
2020-06-09,3.549999952316284,3.7300000190734863,3.5399999618530273,3.6700000762939453,3.3510777950286865,33400
2020-06-10,3.6700000762939453,3.809999942779541,3.619999885559082,3.7799999713897705,3.451519012451172,45300
2020-06-11,3.5899999141693115,3.7699999809265137,3.1519999504089355,3.1519999504089355,2.878092050552368,78100
2020-06-12,3.390000104904175,3.5999999046325684,3.3350000381469727,3.450000047683716,3.150195837020874,41500
2020-06-15,3.299999952316284,3.359999895095825,3.1600000858306885,3.2200000286102295,2.940182685852051,25600
2020-06-16,3.299999952316284,3.609999895095825,3.299999952316284,3.450000047683716,3.150195837020874,24100
2020-06-17,3.4800000190734863,3.4800000190734863,3.299999952316284,3.299999952316284,3.013230800628662,13900
2020-06-18,3.299999952316284,3.4000000953674316,3.0999999046325684,3.109999895095825,2.8397414684295654,33600
2020-06-19,3.1500000953674316,3.1500000953674316,2.9000000953674316,3.119999885559082,2.8488729000091553,68000
2020-06-22,3.119999885559082,3.3499999046325684,3.009000062942505,3.3299999237060547,3.040623664855957,29900
2020-06-23,3.2100000381469727,3.3440001010894775,3.190000057220459,3.2100000381469727,2.9310519695281982,26100
2020-06-24,3.200000047683716,3.200000047683716,3.0,3.009999990463257,2.748431444168091,30400
2020-06-25,3.0,3.1649999618530273,3.0,3.0399999618530273,2.775824546813965,22500
2020-06-26,3.0429999828338623,3.0429999828338623,2.9000000953674316,2.933000087738037,2.6781232357025146,39300
2020-06-29,2.940000057220459,2.9609999656677246,2.8499999046325684,2.8499999046325684,2.602335214614868,20500
2020-06-30,2.9000000953674316,3.0209999084472656,2.8499999046325684,2.880000114440918,2.6297287940979004,34200
2020-07-01,2.9000000953674316,3.049999952316284,2.859999895095825,2.950000047683716,2.693645715713501,29400
2020-07-02,2.950000047683716,2.950000047683716,2.815000057220459,2.8299999237060547,2.584073543548584,27300
2020-07-06,2.890000104904175,2.890000104904175,2.8299999237060547,2.8399999141693115,2.5932042598724365,21100
2020-07-07,2.8499999046325684,2.9200000762939453,2.8399999141693115,2.880000114440918,2.6297287940979004,4900
2020-07-08,2.8399999141693115,2.9000000953674316,2.640000104904175,2.6619999408721924,2.4306726455688477,24100
2020-07-09,2.740000009536743,2.8499999046325684,2.569999933242798,2.621999979019165,2.3941490650177,21800
2020-07-10,2.559999942779541,2.61899995803833,2.5,2.509999990463257,2.291881799697876,19700
2020-07-13,2.5,2.5,2.450000047683716,2.5,2.2827508449554443,48300
2020-07-14,2.450000047683716,2.4600000381469727,2.369999885559082,2.380000114440918,2.1731786727905273,15800
2020-07-15,2.380000114440918,2.486999988555908,2.380000114440918,2.4700000286102295,2.255357503890991,19100
2020-07-16,2.4700000286102295,2.5450000762939453,2.430000066757202,2.5299999713897705,2.310142993927002,13200
2020-07-17,2.5799999237060547,2.5799999237060547,2.450000047683716,2.4600000381469727,2.2462260723114014,14400
2020-07-20,2.509999990463257,2.509999990463257,2.440000057220459,2.4600000381469727,2.2462260723114014,9800
2020-07-21,2.440000057220459,2.5,2.25,2.369999885559082,2.1640470027923584,54800
2020-07-22,2.3499999046325684,2.3949999809265137,2.25,2.25,2.054475784301758,20800
2020-07-23,2.309999942779541,2.309999942779541,2.0999999046325684,2.130000114440918,1.9449034929275513,65400
2020-07-24,2.1700000762939453,2.1700000762939453,2.13100004196167,2.1500000953674316,1.963165521621704,21500
2020-07-27,2.180000066757202,2.2200000286102295,2.1700000762939453,2.1700000762939453,1.9814279079437256,13300
2020-07-28,2.2200000286102295,2.244999885559082,2.1700000762939453,2.200000047683716,2.0088207721710205,9700
2020-07-29,2.359999895095825,2.4119999408721924,2.109999895095825,2.119999885559082,1.9357725381851196,44600
2020-07-30,2.109999895095825,2.1500000953674316,2.0299999713897705,2.049999952316284,1.871855616569519,27500
2020-07-31,2.109999895095825,2.25,2.059999942779541,2.119999885559082,1.9357725381851196,23200
2020-08-03,2.049999952316284,2.127000093460083,2.009999990463257,2.0199999809265137,1.8444626331329346,22000
2020-08-04,2.0999999046325684,2.140000104904175,2.059999942779541,2.130000114440918,1.9449034929275513,29400
2020-08-05,2.140000104904175,2.140000104904175,2.0999999046325684,2.140000104904175,1.9540342092514038,24600
2020-08-06,2.0999999046325684,2.119999885559082,2.009999990463257,2.009999990463257,1.8353315591812134,26400
2020-08-07,2.049999952316284,2.200000047683716,2.049999952316284,2.200000047683716,2.0088207721710205,30300
2020-08-10,2.200000047683716,2.25,2.109999895095825,2.200000047683716,2.0088207721710205,27900
2020-08-11,2.1500000953674316,2.2100000381469727,2.109999895095825,2.1600000858306885,1.9722965955734253,15100
2020-08-12,2.2200000286102295,2.2200000286102295,2.1500000953674316,2.1500000953674316,1.963165521621704,9300
2020-08-13,2.140000104904175,2.2049999237060547,2.140000104904175,2.1740000247955322,1.9850800037384033,3000
2020-08-14,2.180000066757202,2.200000047683716,2.049999952316284,2.140000104904175,1.9540342092514038,21900
2020-08-17,2.1700000762939453,2.2300000190734863,2.109999895095825,2.109999895095825,1.9266412258148193,26900
2020-08-18,2.1700000762939453,2.190000057220459,2.0799999237060547,2.1700000762939453,1.9814279079437256,45200
2020-08-19,2.130000114440918,2.1649999618530273,2.0899999141693115,2.13700008392334,1.951295018196106,18400
2020-08-20,2.130000114440918,2.1700000762939453,2.130000114440918,2.1500000953674316,1.963165521621704,12000
2020-08-21,2.180000066757202,2.180000066757202,2.1600000858306885,2.1649999618530273,1.9768617153167725,8100
2020-08-24,2.180000066757202,2.190000057220459,2.0999999046325684,2.140000104904175,1.9540342092514038,21900
2020-08-25,2.180000066757202,2.180000066757202,2.109999895095825,2.119999885559082,1.9357725381851196,20600
2020-08-26,2.1500000953674316,2.1500000953674316,2.009999990463257,2.0299999713897705,1.8535935878753662,32800
2020-08-27,2.049999952316284,2.119999885559082,2.049999952316284,2.0999999046325684,1.9175103902816772,8600
2020-08-28,2.0799999237060547,2.109999895095825,2.0230000019073486,2.055000066757202,1.8764212131500244,10500
2020-08-31,2.0899999141693115,2.0899999141693115,2.049999952316284,2.049999952316284,1.871855616569519,25800
2020-09-01,2.0199999809265137,2.0399999618530273,2.0,2.0,1.8262004852294922,32400
2020-09-02,1.9800000190734863,2.069999933242798,1.9800000190734863,2.049999952316284,1.871855616569519,14200
2020-09-03,2.0199999809265137,2.0799999237060547,2.0199999809265137,2.0399999618530273,1.8627243041992188,11200
2020-09-04,2.0299999713897705,2.0999999046325684,2.0299999713897705,2.075000047683716,1.8946828842163086,10900
2020-09-08,2.0799999237060547,2.0999999046325684,2.069999933242798,2.0799999237060547,1.8992481231689453,34300
2020-09-09,2.0999999046325684,2.0999999046325684,2.009999990463257,2.0299999713897705,1.8535935878753662,24100
2020-09-10,2.0,2.0199999809265137,1.9299999475479126,1.9329999685287476,1.7650226354599,28200
2020-09-11,1.9800000190734863,1.9800000190734863,1.909999966621399,1.9149999618530273,1.748586893081665,12700
2020-09-14,2.0199999809265137,2.0199999809265137,1.940000057220459,1.9500000476837158,1.7805453538894653,15400
2020-09-15,2.0,2.0,1.909999966621399,1.909999966621399,1.7440212965011597,29700
2020-09-16,1.909999966621399,1.9800000190734863,1.909999966621399,1.9550000429153442,1.7851110696792603,14600
2020-09-17,1.9900000095367432,1.9900000095367432,1.909999966621399,1.9450000524520874,1.77597975730896,17600
2020-09-18,1.9800000190734863,1.9900000095367432,1.809999942779541,1.9900000095367432,1.817069411277771,90300
2020-09-21,1.9900000095367432,1.9900000095367432,1.9500000476837158,1.965000033378601,1.794242024421692,53900
2020-09-22,1.9900000095367432,1.9900000095367432,1.8799999952316284,1.8799999952316284,1.7166286706924438,22500
2020-09-23,1.9299999475479126,1.9700000286102295,1.850000023841858,1.850000023841858,1.6892354488372803,15300
2020-09-24,1.840000033378601,1.850000023841858,1.7999999523162842,1.8070000410079956,1.6499723196029663,17100
2020-09-25,1.7999999523162842,1.8630000352859497,1.7699999809265137,1.8049999475479126,1.6481460332870483,21800
2020-09-28,1.940000057220459,1.9900000095367432,1.8539999723434448,1.9900000095367432,1.817069411277771,52700
2020-09-29,1.9900000095367432,1.9900000095367432,1.9600000381469727,1.965000033378601,1.8033039569854736,25000
2020-09-30,1.9500000476837158,1.9500000476837158,1.8300000429153442,1.8600000143051147,1.7069441080093384,34700
2020-10-01,1.899999976158142,1.899999976158142,1.7699999809265137,1.7799999713897705,1.633527159690857,18100
2020-10-02,1.899999976158142,1.899999976158142,1.784000039100647,1.8700000047683716,1.7161211967468262,15300
2020-10-05,1.850000023841858,1.8700000047683716,1.7400000095367432,1.7400000095367432,1.5968186855316162,46300
2020-10-06,1.7699999809265137,1.815000057220459,1.7000000476837158,1.75,1.6059956550598145,53000
2020-10-07,1.75,1.7920000553131104,1.715000033378601,1.7350000143051147,1.592230200767517,17200
2020-10-08,1.7999999523162842,1.7999999523162842,1.75,1.7999999523162842,1.651881456375122,30300
2020-10-09,1.7999999523162842,2.4600000381469727,1.7719999551773071,2.0999999046325684,1.9271949529647827,1144800
2020-10-12,2.009999990463257,2.0799999237060547,1.909999966621399,1.9270000457763672,1.7684307098388672,110700
2020-10-13,2.009999990463257,2.049999952316284,1.909999966621399,1.9900000095367432,1.8262465000152588,35500
2020-10-14,1.9700000286102295,2.0,1.9299999475479126,1.9600000381469727,1.7987152338027954,24600
2020-10-15,2.0,2.0299999713897705,1.9850000143051147,2.0299999713897705,1.8629549741744995,31100
2020-10-16,2.0299999713897705,2.0799999237060547,2.0199999809265137,2.0260000228881836,1.8592841625213623,25800
2020-10-19,2.0299999713897705,2.0769999027252197,2.0199999809265137,2.059999942779541,1.890486240386963,21600
2020-10-20,2.059999942779541,2.0899999141693115,2.0399999618530273,2.0799999237060547,1.9088404178619385,24500
2020-10-21,2.0999999046325684,2.135999917984009,2.069999933242798,2.069999933242798,1.8996635675430298,27400
2020-10-22,2.0899999141693115,2.1500000953674316,1.9500000476837158,2.069999933242798,1.8996635675430298,88000
2020-10-23,2.0399999618530273,2.0999999046325684,1.9700000286102295,1.9800000190734863,1.817069411277771,42700
2020-10-26,1.9500000476837158,2.059999942779541,1.9500000476837158,2.0,1.8354235887527466,21000
2020-10-27,1.9700000286102295,2.005000114440918,1.9500000476837158,1.9700000286102295,1.8078923225402832,29000
2020-10-28,1.9800000190734863,1.9800000190734863,1.909999966621399,1.9199999570846558,1.7620068788528442,23000
2020-10-29,1.9199999570846558,1.9900000095367432,1.8700000047683716,1.8799999952316284,1.7370598316192627,65200
2020-10-30,1.9299999475479126,1.9900000095367432,1.8799999952316284,1.8839999437332153,1.740755558013916,38300
2020-11-02,1.8700000047683716,1.9199999570846558,1.840000033378601,1.8849999904632568,1.7416795492172241,39000
2020-11-03,1.9500000476837158,1.9500000476837158,1.8899999856948853,1.909999966621399,1.764778733253479,9900
2020-11-04,1.909999966621399,1.9800000190734863,1.8600000143051147,1.8600000143051147,1.7185802459716797,25300
2020-11-05,1.9199999570846558,1.940000057220459,1.899999976158142,1.9299999475479126,1.783258080482483,8100
2020-11-06,1.909999966621399,1.940000057220459,1.909000039100647,1.909999966621399,1.764778733253479,24800
2020-11-09,1.940000057220459,2.069999933242798,1.9199999570846558,1.9600000381469727,1.8109772205352783,51500
2020-11-10,1.9600000381469727,2.0250000953674316,1.9199999570846558,1.9950000047683716,1.8433163166046143,40300
2020-11-11,2.0,2.0899999141693115,2.0,2.0299999713897705,1.875654935836792,37900
2020-11-12,2.069999933242798,2.0899999141693115,2.00600004196167,2.0799999237060547,1.921852946281433,25600
2020-11-13,2.0799999237060547,2.1700000762939453,1.9700000286102295,2.0450000762939453,1.8895142078399658,136600
2020-11-16,2.180000066757202,2.180000066757202,2.0810000896453857,2.1500000953674316,1.986531138420105,63900
2020-11-17,2.1500000953674316,2.2130000591278076,2.1500000953674316,2.190000057220459,2.0234899520874023,53900
2020-11-18,2.1600000858306885,2.240000009536743,2.1600000858306885,2.2170000076293945,2.0484368801116943,25500
2020-11-19,2.240000009536743,2.819999933242798,2.2300000190734863,2.740000009536743,2.531672239303589,84000
2020-11-20,2.9000000953674316,2.950000047683716,2.819999933242798,2.924999952316284,2.702606439590454,59300
2020-11-23,2.890000104904175,2.9700000286102295,2.819999933242798,2.930000066757202,2.707226037979126,56800
2020-11-24,2.9000000953674316,3.1500000953674316,2.9000000953674316,3.0999999046325684,2.864300489425659,83300
2020-11-25,3.049999952316284,3.240000009536743,3.049999952316284,3.1500000953674316,2.910499095916748,51300
2020-11-27,3.059999942779541,3.1489999294281006,3.0199999809265137,3.0999999046325684,2.8826029300689697,20500
2020-11-30,3.140000104904175,3.200000047683716,3.119999885559082,3.1500000953674316,2.9290966987609863,27800
2020-12-01,3.1700000762939453,3.1700000762939453,3.0199999809265137,3.0999999046325684,2.8826029300689697,19500
2020-12-02,3.0899999141693115,3.0899999141693115,3.009999990463257,3.0269999504089355,2.8147220611572266,25000
2020-12-03,3.0,3.109999895095825,2.9660000801086426,3.0899999141693115,2.8733041286468506,29700
2020-12-04,3.0399999618530273,3.138000011444092,3.0179998874664307,3.0999999046325684,2.8826029300689697,21100
2020-12-07,3.130000114440918,3.130000114440918,2.569999933242798,2.869999885559082,2.6687326431274414,108100
2020-12-08,2.869999885559082,2.990000009536743,2.805999994277954,2.8299999237060547,2.631537675857544,15300
2020-12-09,2.75,2.936000108718872,2.75,2.890000104904175,2.6873300075531006,41400
2020-12-10,2.890000104904175,3.130000114440918,2.890000104904175,3.0399999618530273,2.826810359954834,22700
2020-12-11,3.130000114440918,3.130000114440918,2.9100000858306885,2.950000047683716,2.743121862411499,25800
2020-12-14,3.0199999809265137,3.130000114440918,2.9149999618530273,3.109999895095825,2.8919014930725098,64300
2020-12-15,3.1500000953674316,4.099999904632568,3.125,3.450000047683716,3.2080578804016113,465000
2020-12-16,3.5,3.7100000381469727,3.450000047683716,3.4590001106262207,3.2164273262023926,64100
2020-12-17,3.319999933242798,3.430000066757202,3.200000047683716,3.2100000381469727,2.984889030456543,61100
2020-12-18,3.200000047683716,3.380000114440918,3.0299999713897705,3.059999942779541,2.845407485961914,99400
2020-12-21,3.180000066757202,3.25,3.0999999046325684,3.242000102996826,3.0146448612213135,48800
2020-12-22,3.25,3.359999895095825,3.2300000190734863,3.259999990463257,3.0313823223114014,25900
2020-12-23,3.309999942779541,3.325000047683716,3.1600000858306885,3.1700000762939453,2.9476940631866455,48500
2020-12-24,3.1700000762939453,3.234999895095825,3.1619999408721924,3.2090001106262207,2.9839587211608887,17200
2020-12-28,3.25,3.259999990463257,3.0,3.0399999618530273,2.826810359954834,66100
2020-12-29,3.049999952316284,3.049999952316284,2.799999952316284,2.819999933242798,2.6222383975982666,106400
2020-12-30,2.819999933242798,2.950000047683716,2.7799999713897705,2.819999933242798,2.636261224746704,67000
