Date,Open,High,Low,Close,Adj Close,Volume
2019-05-15,17.0,17.368000030517578,16.799999237060547,17.0,15.40957260131836,1067600
2019-05-16,17.049999237060547,17.09000015258789,16.899999618530273,16.899999618530273,15.318929672241211,79900
2019-05-17,16.899999618530273,17.0,16.549999237060547,16.899999618530273,15.318929672241211,165400
2019-05-20,16.8799991607666,16.899999618530273,16.6299991607666,16.75,15.182962417602539,51600
2019-05-21,16.75,16.799999237060547,16.700000762939453,16.790000915527344,15.219219207763672,38800
2019-05-22,16.75,16.790000915527344,16.434999465942383,16.739999771118164,15.173898696899414,64200
2019-05-23,16.600000381469727,16.719999313354492,16.454999923706055,16.479999542236328,14.938220024108887,54400
2019-05-24,16.469999313354492,16.534000396728516,16.25,16.25,14.729740142822266,18500
2019-05-28,16.239999771118164,16.290000915527344,15.90999984741211,16.239999771118164,14.720672607421875,72200
2019-05-29,16.229999542236328,16.229999542236328,15.449999809265137,15.600000381469727,14.140548706054688,98700
2019-05-30,15.550000190734863,16.0,15.550000190734863,16.0,14.503128051757812,28200
2019-05-31,16.0,16.5,15.949999809265137,16.450000762939453,14.911028861999512,33400
2019-06-03,16.5,16.5,15.899999618530273,15.949999809265137,14.457804679870605,58200
2019-06-04,15.850000381469727,16.0,15.46500015258789,15.890000343322754,14.403417587280273,34200
2019-06-05,15.850000381469727,15.949999809265137,14.550000190734863,14.84000015258789,13.45164966583252,158700
2019-06-06,14.800000190734863,14.9399995803833,14.289999961853027,14.529999732971191,13.170652389526367,109700
2019-06-07,14.800000190734863,15.949999809265137,14.510000228881836,15.819999694824219,14.339967727661133,81700
2019-06-10,16.06999969482422,16.25,15.609999656677246,16.0,14.503128051757812,43300
2019-06-11,16.059999465942383,16.25,15.850000381469727,15.949999809265137,14.457804679870605,39300
2019-06-12,16.010000228881836,16.1299991607666,15.850000381469727,15.979999542236328,14.484997749328613,56100
2019-06-13,15.979999542236328,16.0,15.4399995803833,15.720000267028809,14.249320983886719,37600
2019-06-14,15.970000267028809,15.970000267028809,14.885000228881836,15.09000015258789,13.678261756896973,91800
2019-06-17,15.029999732971191,15.3100004196167,14.899999618530273,15.100000381469727,13.68732738494873,37200
2019-06-18,15.279999732971191,15.279999732971191,14.569999694824219,14.800000190734863,13.41539478302002,54700
2019-06-19,14.800000190734863,15.100000381469727,14.25,15.100000381469727,13.68732738494873,66700
2019-06-20,15.029999732971191,15.15999984741211,14.5,14.550000190734863,13.188780784606934,47700
2019-06-21,14.619999885559082,15.680000305175781,14.5,14.84000015258789,13.45164966583252,204700
2019-06-24,14.829999923706055,14.829999923706055,14.390000343322754,14.59000015258789,13.225038528442383,44900
2019-06-25,14.5,14.6899995803833,14.475000381469727,14.609999656677246,13.243167877197266,30200
2019-06-26,14.770000457763672,14.84000015258789,14.5,14.520000457763672,13.161588668823242,83400
2019-06-27,14.520000457763672,15.260000228881836,14.5,15.260000228881836,13.832357406616211,21300
2019-06-28,15.319999694824219,15.84000015258789,15.25,15.75,14.276516914367676,42300
2019-07-01,15.649999618530273,15.850000381469727,15.550000190734863,15.710000038146973,14.24025821685791,20200
2019-07-02,15.84000015258789,15.899999618530273,15.710000038146973,15.789999961853027,14.312773704528809,19600
2019-07-03,15.699999809265137,15.84000015258789,15.5,15.5,14.049903869628906,8900
2019-07-05,15.5,15.895000457763672,15.5,15.770000457763672,14.294644355773926,19600
2019-07-08,15.569999694824219,16.040000915527344,15.569999694824219,15.890000343322754,14.461189270019531,20600
2019-07-09,16.020000457763672,16.020000457763672,15.510000228881836,15.59000015258789,14.188165664672852,10400
2019-07-10,15.460000038146973,15.789999961853027,15.413999557495117,15.729999542236328,14.315576553344727,18000
2019-07-11,15.800000190734863,15.848999977111816,15.670000076293945,15.670000076293945,14.260972023010254,6600
2019-07-12,15.649999618530273,15.800000190734863,15.649999618530273,15.75,14.333779335021973,29200
2019-07-15,15.75,15.880000114440918,15.649999618530273,15.75,14.333779335021973,11800
2019-07-16,15.687999725341797,15.75,15.670000076293945,15.729999542236328,14.315576553344727,2100
2019-07-17,15.699999809265137,15.699999809265137,15.59000015258789,15.619999885559082,14.21546745300293,7100
2019-07-18,15.550000190734863,15.640000343322754,15.550000190734863,15.59000015258789,14.188165664672852,3600
2019-07-19,15.640000343322754,15.640000343322754,15.600000381469727,15.609999656677246,14.206366539001465,3100
2019-07-22,15.569999694824219,15.630000114440918,14.609999656677246,15.199999809265137,13.833232879638672,60600
2019-07-23,15.25,15.5,14.899999618530273,15.140000343322754,13.778629302978516,23900
2019-07-24,15.0,15.34000015258789,14.75,15.010000228881836,13.660318374633789,14300
2019-07-25,15.100000381469727,15.170000076293945,14.75,14.819999694824219,13.487401962280273,7400
2019-07-26,14.6899995803833,14.899999618530273,14.520000457763672,14.739999771118164,13.414596557617188,53200
2019-07-29,14.859999656677246,15.0,14.600000381469727,14.710000038146973,13.38729476928711,7900
2019-07-30,14.701000213623047,15.199999809265137,14.5,15.09000015258789,13.733126640319824,38600
2019-07-31,15.220000267028809,15.295000076293945,14.739999771118164,14.850000381469727,13.514704704284668,19600
2019-08-01,15.100000381469727,15.100000381469727,14.789999961853027,14.789999961853027,13.460101127624512,17100
2019-08-02,14.75,14.890000343322754,14.699999809265137,14.890000343322754,13.551108360290527,1700
2019-08-05,14.640000343322754,14.6899995803833,14.25,14.25,12.968655586242676,34300
2019-08-06,14.399999618530273,14.5,13.930000305175781,14.359999656677246,13.068764686584473,19500
2019-08-07,14.1899995803833,14.5,14.182999610900879,14.300000190734863,13.01416015625,9300
2019-08-08,14.5,14.75,14.36400032043457,14.699999809265137,13.378192901611328,11600
2019-08-09,14.470000267028809,14.550000190734863,14.25,14.399999618530273,13.105169296264648,15900
2019-08-12,14.470000267028809,14.569999694824219,14.3100004196167,14.479999542236328,13.177974700927734,2600
2019-08-13,14.5,14.649999618530273,14.449999809265137,14.489999771118164,13.187076568603516,12100
2019-08-14,14.25,14.5600004196167,14.199999809265137,14.25,12.968655586242676,18100
2019-08-15,14.713000297546387,14.90999984741211,14.401000022888184,14.899999618530273,13.560209274291992,27600
2019-08-16,14.880000114440918,15.220000267028809,14.880000114440918,14.930000305175781,13.58751106262207,15700
2019-08-19,14.9399995803833,15.199999809265137,14.9399995803833,15.149999618530273,13.78773021697998,6700
2019-08-20,15.050000190734863,15.199999809265137,14.960000038146973,15.199999809265137,13.833232879638672,7900
2019-08-21,15.204999923706055,15.289999961853027,15.119999885559082,15.15999984741211,13.796831130981445,3200
2019-08-22,15.199999809265137,15.199999809265137,15.050000190734863,15.09000015258789,13.733126640319824,3700
2019-08-23,15.050000190734863,15.3100004196167,15.045000076293945,15.3100004196167,13.933343887329102,6400
2019-08-26,15.260000228881836,15.324999809265137,15.0649995803833,15.199999809265137,13.833232879638672,6400
2019-08-27,15.239999771118164,15.239999771118164,14.789999961853027,14.949999809265137,13.605712890625,1900
2019-08-28,14.949999809265137,15.229999542236328,14.899999618530273,15.100000381469727,13.742226600646973,20700
2019-08-29,15.289999961853027,15.289999961853027,15.100000381469727,15.15999984741211,13.796831130981445,13200
2019-08-30,15.25,15.300000190734863,15.15999984741211,15.229999542236328,13.860536575317383,14200
2019-09-03,15.180000305175781,15.300000190734863,15.100000381469727,15.170000076293945,13.80593204498291,9900
2019-09-04,15.1899995803833,15.199999809265137,15.050000190734863,15.199999809265137,13.833232879638672,2800
2019-09-05,15.300000190734863,15.300000190734863,15.149999618530273,15.229999542236328,13.860536575317383,1700
2019-09-06,15.270000457763672,15.3100004196167,15.149999618530273,15.260000228881836,13.887839317321777,20200
2019-09-09,15.300000190734863,15.34000015258789,15.050000190734863,15.199999809265137,13.833232879638672,11100
2019-09-10,15.279999732971191,15.399999618530273,15.149999618530273,15.154999732971191,13.792279243469238,8700
2019-09-11,15.270000457763672,15.270000457763672,14.75,14.890000343322754,13.551108360290527,71300
2019-09-12,15.010000228881836,15.09000015258789,14.765000343322754,15.0600004196167,13.705822944641113,8400
2019-09-13,15.100000381469727,15.100000381469727,14.8100004196167,14.850000381469727,13.514704704284668,55600
2019-09-16,14.960000038146973,14.960000038146973,14.760000228881836,14.845000267028809,13.51015567779541,102600
2019-09-17,15.0,15.170000076293945,14.989999771118164,15.130000114440918,13.769529342651367,31800
2019-09-18,15.029999732971191,15.354999542236328,15.029999732971191,15.069999694824219,13.714922904968262,35000
2019-09-19,15.130000114440918,15.279999732971191,15.130000114440918,15.210000038146973,13.84233570098877,37600
2019-09-20,15.229999542236328,15.329999923706055,15.210000038146973,15.25,13.878738403320312,74800
2019-09-23,15.229999542236328,15.380000114440918,15.050000190734863,15.199999809265137,13.833232879638672,41300
2019-09-24,15.199999809265137,15.279999732971191,15.170000076293945,15.220000267028809,13.851436614990234,31400
2019-09-25,15.199999809265137,15.390000343322754,15.199999809265137,15.300000190734863,13.924242973327637,50300
2019-09-26,15.300000190734863,15.649999618530273,15.300000190734863,15.529999732971191,14.133560180664062,8300
2019-09-27,15.550000190734863,15.59000015258789,15.449999809265137,15.510000228881836,14.115358352661133,8400
2019-09-30,15.550000190734863,15.84000015258789,15.449999809265137,15.84000015258789,14.41568660736084,8100
2019-10-01,15.760000228881836,15.850000381469727,15.720000267028809,15.720000267028809,14.306474685668945,16700
2019-10-02,15.779999732971191,15.800000190734863,15.65999984741211,15.710000038146973,14.297374725341797,13000
2019-10-03,15.75,15.75,15.600000381469727,15.640000343322754,14.233670234680176,8000
2019-10-04,14.9399995803833,15.619999885559082,14.850000381469727,15.5600004196167,14.16086483001709,13400
2019-10-07,15.649999618530273,15.75,15.630000114440918,15.6899995803833,14.279173851013184,47400
2019-10-08,15.680000305175781,15.75,15.619999885559082,15.65999984741211,14.251871109008789,15200
2019-10-09,15.710000038146973,15.710000038146973,15.470000267028809,15.59000015258789,14.188165664672852,12400
2019-10-10,15.600000381469727,15.989999771118164,15.300000190734863,15.9399995803833,14.506694793701172,43700
2019-10-11,15.970000267028809,16.049999237060547,15.85099983215332,15.979999542236328,14.543096542358398,40800
2019-10-14,16.0,16.440000534057617,15.949999809265137,16.360000610351562,14.888928413391113,41100
2019-10-15,16.398000717163086,16.950000762939453,16.360000610351562,16.950000762939453,15.42587661743164,35500
2019-10-16,16.950000762939453,17.200000762939453,16.700000762939453,17.200000762939453,15.653396606445312,39300
2019-10-17,17.229999542236328,17.229999542236328,16.950000762939453,16.950000762939453,15.42587661743164,13100
2019-10-18,17.0,17.100000381469727,16.950000762939453,17.010000228881836,15.480481147766113,47800
2019-10-21,17.049999237060547,17.06999969482422,16.950000762939453,16.979999542236328,15.453180313110352,4000
2019-10-22,17.0,17.0,16.90999984741211,16.90999984741211,15.389472007751465,1200
2019-10-23,16.920000076293945,16.93000030517578,16.75,16.780000686645508,15.271162033081055,8400
2019-10-24,16.799999237060547,16.889999389648438,16.75,16.799999237060547,15.289362907409668,3800
2019-10-25,16.863000869750977,16.950000762939453,16.729999542236328,16.889999389648438,15.371268272399902,17700
2019-10-28,16.86400032043457,16.8799991607666,16.711999893188477,16.860000610351562,15.343968391418457,6800
2019-10-29,16.850000381469727,16.959999084472656,16.625,16.6299991607666,15.134647369384766,15600
2019-10-30,16.729999542236328,16.774999618530273,16.68000030517578,16.68000030517578,15.180153846740723,3500
2019-10-31,16.799999237060547,17.0,16.700000762939453,16.799999237060547,15.289362907409668,31600
2019-11-01,16.920000076293945,16.920000076293945,16.700000762939453,16.799999237060547,15.289362907409668,8700
2019-11-04,16.84000015258789,16.850000381469727,16.760000228881836,16.770000457763672,15.26206111907959,1100
2019-11-05,16.770000457763672,16.826000213623047,16.18000030517578,16.299999237060547,14.83432388305664,8200
2019-11-06,16.299999237060547,16.469999313354492,16.229999542236328,16.459999084472656,14.979934692382812,13700
2019-11-07,16.530000686645508,16.59000015258789,16.399999618530273,16.59000015258789,15.098246574401855,4200
2019-11-08,16.549999237060547,16.639999389648438,16.209999084472656,16.209999084472656,14.75241470336914,21000
2019-11-11,16.239999771118164,16.479999542236328,16.010000228881836,16.399999618530273,14.925332069396973,4000
2019-11-12,16.5,16.5,15.760000228881836,15.859999656677246,14.433887481689453,19600
2019-11-13,15.899999618530273,16.149999618530273,15.75,15.800000190734863,14.379281997680664,18000
2019-11-14,15.800000190734863,16.049999237060547,15.800000190734863,16.010000228881836,14.700658798217773,20500
2019-11-15,16.017000198364258,16.024999618530273,15.947999954223633,16.0,14.691476821899414,3000
2019-11-18,16.003999710083008,16.149999618530273,16.0,16.030000686645508,14.719024658203125,4300
2019-11-19,16.049999237060547,16.299999237060547,16.049999237060547,16.19499969482422,14.870529174804688,33900
2019-11-20,16.270000457763672,16.469999313354492,16.110000610351562,16.25,14.92103099822998,8300
2019-11-21,16.040000915527344,16.225000381469727,15.899999618530273,16.100000381469727,14.78329849243164,12500
2019-11-22,15.960000038146973,16.219999313354492,15.92300033569336,16.049999237060547,14.737386703491211,17100
2019-11-25,16.100000381469727,16.149999618530273,16.049999237060547,16.079999923706055,14.764934539794922,3900
2019-11-26,16.100000381469727,16.100000381469727,16.030000686645508,16.049999237060547,14.737386703491211,22400
2019-11-27,16.049999237060547,16.076000213623047,15.899999618530273,15.90999984741211,14.608837127685547,6800
2019-11-29,15.899999618530273,15.899999618530273,15.850000381469727,15.859999656677246,14.562926292419434,3000
2019-12-02,15.949999809265137,15.949999809265137,15.765000343322754,15.795000076293945,14.503242492675781,5400
2019-12-03,15.829999923706055,15.880000114440918,15.609999656677246,15.609999656677246,14.333372116088867,5600
2019-12-04,15.609999656677246,15.800000190734863,15.609999656677246,15.6899995803833,14.406827926635742,12500
2019-12-05,15.6899995803833,15.899999618530273,15.6899995803833,15.850000381469727,14.553744316101074,8900
2019-12-06,15.899999618530273,15.930000305175781,15.739999771118164,15.739999771118164,14.452740669250488,6800
2019-12-09,15.800000190734863,15.930000305175781,15.800000190734863,15.899999618530273,14.599655151367188,24800
2019-12-10,15.869999885559082,15.90999984741211,15.75,15.760000228881836,14.471104621887207,8000
2019-12-11,15.842000007629395,15.9399995803833,15.550000190734863,15.9399995803833,14.636382102966309,15300
2019-12-12,15.90999984741211,15.930000305175781,15.720000267028809,15.930000305175781,14.62720012664795,7200
2019-12-13,16.0,16.079999923706055,15.899999618530273,15.899999618530273,14.599655151367188,3600
2019-12-16,15.859999656677246,15.899999618530273,15.800000190734863,15.800000190734863,14.507833480834961,3600
2019-12-17,15.826000213623047,15.826000213623047,15.699999809265137,15.75,14.461921691894531,6100
2019-12-18,15.899999618530273,16.200000762939453,15.85099983215332,16.100000381469727,14.78329849243164,16100
2019-12-19,16.107999801635742,16.290000915527344,16.100000381469727,16.280000686645508,14.948577880859375,24700
2019-12-20,16.18000030517578,16.75,16.100000381469727,16.600000381469727,15.242406845092773,9600
2019-12-23,16.549999237060547,16.700000762939453,16.5,16.65999984741211,15.297500610351562,6300
2019-12-24,16.75,16.790000915527344,16.649999618530273,16.65999984741211,15.297500610351562,2700
2019-12-26,16.65999984741211,16.690000534057617,16.549999237060547,16.579999923706055,15.224042892456055,2600
2019-12-27,16.700000762939453,18.200000762939453,16.700000762939453,17.020000457763672,15.628058433532715,27700
2019-12-30,17.020000457763672,17.020000457763672,16.729999542236328,16.799999237060547,15.42604923248291,2500
2019-12-31,16.920000076293945,17.010000228881836,16.65999984741211,16.950000762939453,15.5637845993042,15400
2020-01-02,17.059999465942383,17.40999984741211,16.18000030517578,16.18000030517578,14.856756210327148,16700
2020-01-03,16.299999237060547,16.299999237060547,15.899999618530273,15.960000038146973,14.65474796295166,8500
2020-01-06,16.059999465942383,16.100000381469727,16.0,16.06999969482422,14.755751609802246,6500
2020-01-07,16.100000381469727,16.149999618530273,16.049999237060547,16.149999618530273,14.829209327697754,10600
2020-01-08,16.18000030517578,17.280000686645508,16.18000030517578,16.600000381469727,15.242406845092773,7100
2020-01-09,16.549999237060547,16.645000457763672,16.420000076293945,16.440000534057617,15.095492362976074,11100
2020-01-10,16.399999618530273,16.5,16.3700008392334,16.389999389648438,15.049581527709961,6700
2020-01-13,16.399999618530273,16.600000381469727,16.399999618530273,16.520000457763672,15.168949127197266,2400
2020-01-14,16.600000381469727,16.600000381469727,16.450000762939453,16.450000762939453,15.10467529296875,1600
2020-01-15,16.479999542236328,16.889999389648438,16.440000534057617,16.670000076293945,15.306683540344238,7500
2020-01-16,16.81999969482422,17.049999237060547,16.81999969482422,16.850000381469727,15.471961975097656,6100
2020-01-17,16.799999237060547,16.885000228881836,16.790000915527344,16.81999969482422,15.444416046142578,900
2020-01-21,16.75,16.760000228881836,16.25,16.25,14.92103099822998,6900
2020-01-22,16.264999389648438,16.5,16.260000228881836,16.399999618530273,15.058765411376953,21700
2020-01-23,16.360000610351562,16.360000610351562,16.350000381469727,16.350000381469727,15.012852668762207,700
2020-01-24,16.399999618530273,16.399999618530273,16.350000381469727,16.350000381469727,15.012852668762207,5200
2020-01-27,16.399999618530273,16.399999618530273,16.280000686645508,16.280000686645508,14.948577880859375,2700
2020-01-28,16.31999969482422,16.450000762939453,16.31999969482422,16.350000381469727,15.012852668762207,2400
2020-01-29,16.43000030517578,16.43000030517578,16.299999237060547,16.299999237060547,14.966941833496094,2400
2020-01-30,16.420000076293945,16.799999237060547,16.299999237060547,16.5,15.15058422088623,20200
2020-01-31,16.639999389648438,16.68000030517578,16.600000381469727,16.677000045776367,15.313109397888184,4500
2020-02-03,16.655000686645508,16.729999542236328,16.56999969482422,16.56999969482422,15.214859962463379,25300
2020-02-04,16.520000457763672,16.524999618530273,16.469999313354492,16.469999313354492,15.123038291931152,900
2020-02-05,16.399999618530273,16.5,16.200000762939453,16.360000610351562,15.022035598754883,6500
2020-02-06,16.34000015258789,16.34000015258789,16.170000076293945,16.209999084472656,14.884300231933594,2600
2020-02-07,16.229999542236328,16.229999542236328,15.6899995803833,15.90999984741211,14.608837127685547,12400
2020-02-10,16.049999237060547,16.059999465942383,15.930000305175781,15.9399995803833,14.636382102966309,12900
2020-02-11,16.0,16.049999237060547,16.0,16.049999237060547,14.737386703491211,10800
2020-02-12,16.035999298095703,16.239999771118164,16.0,16.239999771118164,14.911848068237305,45400
2020-02-13,16.25,16.309999465942383,16.06999969482422,16.06999969482422,14.911848068237305,12100
2020-02-14,16.139999389648438,16.149999618530273,16.079999923706055,16.083999633789062,14.924840927124023,28600
2020-02-18,16.1200008392334,16.15999984741211,15.819999694824219,15.819999694824219,14.679865837097168,9700
2020-02-19,15.866000175476074,15.899999618530273,15.845999717712402,15.871999740600586,14.728117942810059,3900
2020-02-20,15.970000267028809,16.0,15.899999618530273,15.960000038146973,14.809776306152344,15500
2020-02-21,15.973999977111816,15.99899959564209,15.640000343322754,15.640000343322754,14.512838363647461,4700
2020-02-24,15.600000381469727,15.644000053405762,15.5,15.625,14.498919486999512,10200
2020-02-25,15.649999618530273,15.850000381469727,15.649999618530273,15.850000381469727,14.707703590393066,6100
2020-02-26,15.949999809265137,15.949999809265137,15.75,15.800000190734863,14.661308288574219,18900
2020-02-27,15.699999809265137,15.77299976348877,15.649999618530273,15.649999618530273,14.52211856842041,7400
2020-02-28,15.739999771118164,16.100000381469727,15.649999618530273,16.100000381469727,14.939687728881836,18200
2020-03-02,16.069000244140625,16.069000244140625,15.699999809265137,15.760000228881836,14.624190330505371,12700
2020-03-03,15.720000267028809,15.779999732971191,15.069999694824219,15.069999694824219,13.983918190002441,24400
2020-03-04,15.25,15.399999618530273,15.199999809265137,15.199999809265137,14.104549407958984,5100
2020-03-05,15.199999809265137,15.399999618530273,15.199999809265137,15.399999618530273,14.290135383605957,7900
2020-03-06,15.270000457763672,15.949999809265137,15.199999809265137,15.199999809265137,14.104549407958984,24100
2020-03-09,15.75,15.75,15.0,15.0600004196167,13.974638938903809,6500
2020-03-10,15.149999618530273,15.338000297546387,14.899999618530273,15.0600004196167,13.974638938903809,5500
2020-03-11,14.899999618530273,15.057999610900879,14.8149995803833,14.9399995803833,13.863287925720215,7900
2020-03-12,14.5,14.9399995803833,14.5,14.579999923706055,13.529232025146484,10300
2020-03-13,14.930000305175781,14.930000305175781,14.5,14.539999961853027,13.492115020751953,15100
2020-03-16,14.039999961853027,14.109999656677246,13.649999618530273,13.880000114440918,12.879680633544922,14100
2020-03-17,13.75,13.869999885559082,13.75,13.75,12.759049415588379,13100
2020-03-18,13.3100004196167,13.970000267028809,13.25,13.869999885559082,12.870401382446289,12000
2020-03-19,13.25,13.84000015258789,13.010000228881836,13.029999732971191,12.090938568115234,12800
2020-03-20,13.25,13.25,12.0,12.0,11.135170936584473,16000
2020-03-23,13.4350004196167,13.4350004196167,10.84000015258789,12.65999984741211,11.747604370117188,17900
2020-03-24,11.800000190734863,12.47599983215332,11.800000190734863,12.270000457763672,11.385711669921875,20100
2020-03-25,13.390999794006348,13.390999794006348,12.630000114440918,13.255000114440918,12.299724578857422,26700
2020-03-26,13.520000457763672,15.069999694824219,13.5,15.039999961853027,13.956080436706543,14700
2020-03-27,15.486000061035156,15.989999771118164,15.079999923706055,15.739999771118164,14.605631828308105,7300
2020-03-30,14.65999984741211,15.739999771118164,14.65999984741211,15.069999694824219,13.983918190002441,5600
2020-03-31,14.652999877929688,16.0,14.592000007629395,15.819999694824219,14.679865837097168,9600
2020-04-01,15.9399995803833,15.9399995803833,15.140000343322754,15.6899995803833,14.559234619140625,7700
2020-04-02,16.0,16.0,15.569999694824219,15.630000114440918,14.503559112548828,3900
2020-04-03,15.588000297546387,15.84000015258789,14.930000305175781,15.1899995803833,14.095269203186035,7900
2020-04-06,15.760000228881836,15.760000228881836,14.850000381469727,14.859999656677246,13.78905200958252,5900
2020-04-07,15.130000114440918,16.200000762939453,15.130000114440918,15.789999961853027,14.652029037475586,5100
2020-04-08,15.479999542236328,16.048999786376953,15.479999542236328,15.899999618530273,14.754100799560547,22800
2020-04-09,15.899999618530273,15.899999618530273,15.300000190734863,15.890000343322754,14.74482250213623,4300
2020-04-13,15.899999618530273,15.899999618530273,15.380000114440918,15.670000076293945,14.540677070617676,7000
2020-04-14,15.024999618530273,15.880000114440918,14.486000061035156,15.329999923706055,14.225180625915527,15000
2020-04-15,14.90999984741211,15.616000175476074,14.529999732971191,14.529999732971191,13.48283576965332,2800
2020-04-16,13.520000457763672,15.279999732971191,13.520000457763672,14.859999656677246,13.78905200958252,15500
2020-04-17,15.685999870300293,15.696999549865723,14.4399995803833,15.270000457763672,14.16950511932373,11300
2020-04-20,15.597999572753906,15.597999572753906,14.350000381469727,15.0,13.918962478637695,4300
2020-04-21,14.5,14.930000305175781,14.420000076293945,14.930000305175781,13.854007720947266,18100
2020-04-22,15.149999618530273,15.899999618530273,14.65999984741211,14.949999809265137,13.872566223144531,9300
2020-04-23,15.37600040435791,15.875,14.65999984741211,15.850000381469727,14.707703590393066,5900
2020-04-24,15.850000381469727,15.850000381469727,15.163000106811523,15.770000457763672,14.633469581604004,5500
2020-04-27,15.84000015258789,15.84000015258789,15.069999694824219,15.180000305175781,14.085989952087402,4200
2020-04-28,15.539999961853027,16.195999145507812,15.199999809265137,15.199999809265137,14.104549407958984,13400
2020-04-29,15.295000076293945,15.850000381469727,15.295000076293945,15.75,14.614912033081055,11400
2020-04-30,15.4399995803833,16.030000686645508,15.4399995803833,15.720000267028809,14.58707332611084,8900
2020-05-01,17.350000381469727,19.079999923706055,15.6899995803833,15.6899995803833,14.559234619140625,4500
2020-05-04,17.0,17.0,15.694999694824219,15.899999618530273,14.754100799560547,10100
2020-05-05,15.899999618530273,16.1299991607666,15.824999809265137,16.0,14.846894264221191,5900
2020-05-06,17.709999084472656,19.479999542236328,16.0,16.0,14.846894264221191,8500
2020-05-07,16.170000076293945,16.56999969482422,16.170000076293945,16.56999969482422,15.375813484191895,7100
2020-05-08,16.110000610351562,16.6299991607666,15.75,16.299999237060547,15.310064315795898,10300
2020-05-11,16.030000686645508,17.0,15.579999923706055,16.399999618530273,15.403992652893066,9400
2020-05-12,16.450000762939453,17.0,15.149999618530273,15.149999618530273,14.229907035827637,20900
2020-05-13,15.520000457763672,15.6899995803833,14.135000228881836,14.279999732971191,13.412744522094727,9300
2020-05-14,14.670000076293945,15.050000190734863,14.289999961853027,15.050000190734863,14.135981559753418,7100
2020-05-15,15.050000190734863,16.479999542236328,14.975000381469727,16.100000381469727,15.122212409973145,8500
2020-05-18,16.6299991607666,17.0,15.710000038146973,16.989999771118164,15.958158493041992,20800
2020-05-19,16.5,17.530000686645508,15.270999908447266,17.209999084472656,16.164798736572266,12400
2020-05-20,16.600000381469727,17.264999389648438,16.312999725341797,16.65999984741211,15.648201942443848,15300
2020-05-21,16.639999389648438,16.725000381469727,16.350000381469727,16.389999389648438,15.394598960876465,9800
2020-05-22,16.75,16.75,16.100000381469727,16.5,15.497919082641602,5800
2020-05-26,16.780000686645508,17.049999237060547,16.5,16.649999618530273,15.638809204101562,8700
2020-05-27,16.0,16.979999542236328,16.0,16.549999237060547,15.544882774353027,13300
2020-05-28,16.0,16.969999313354492,16.0,16.639999389648438,15.629415512084961,12300
2020-05-29,17.040000915527344,17.040000915527344,16.540000915527344,16.93000030517578,15.90180492401123,9900
2020-06-01,16.700000762939453,17.0,16.100000381469727,16.100000381469727,15.122212409973145,11200
2020-06-02,16.56999969482422,16.799999237060547,16.43000030517578,16.540000915527344,15.535490989685059,17900
2020-06-03,17.0,17.0,16.040000915527344,16.309999465942383,15.319457054138184,10500
2020-06-04,16.799999237060547,16.899999618530273,16.100000381469727,16.100000381469727,15.122212409973145,14400
2020-06-05,16.440000534057617,17.0,15.210000038146973,16.989999771118164,15.958158493041992,30100
2020-06-08,16.950000762939453,16.950000762939453,16.18000030517578,16.5,15.497919082641602,21500
2020-06-09,16.540000915527344,16.950000762939453,16.040000915527344,16.040000915527344,15.06585693359375,12400
2020-06-10,16.690000534057617,16.690000534057617,15.520000457763672,15.520000457763672,14.577438354492188,9600
2020-06-11,15.920000076293945,16.600000381469727,15.630000114440918,15.630000114440918,14.680756568908691,3200
2020-06-12,15.850000381469727,16.25,15.850000381469727,15.949999809265137,14.981321334838867,1200
2020-06-15,16.139999389648438,16.25,15.65999984741211,15.75,14.793468475341797,11900
2020-06-16,15.890000343322754,16.479999542236328,15.890000343322754,16.079999923706055,15.10342788696289,8800
2020-06-17,16.25,16.25,15.930000305175781,15.930000305175781,14.962536811828613,5700
2020-06-18,16.020000457763672,16.2450008392334,15.760000228881836,15.760000228881836,14.802861213684082,4500
2020-06-19,16.0,16.23699951171875,15.75,16.200000762939453,15.21613883972168,16300
2020-06-22,16.097000122070312,16.097000122070312,15.149999618530273,15.15999984741211,14.239300727844238,4900
2020-06-23,15.25,15.819999694824219,15.0,15.199999809265137,14.276871681213379,19100
2020-06-24,15.229999542236328,15.229999542236328,14.550000190734863,14.65999984741211,13.76966667175293,12800
2020-06-25,14.680000305175781,15.130000114440918,14.670000076293945,15.079999923706055,14.164158821105957,8600
2020-06-26,15.15999984741211,15.15999984741211,15.0,15.039999961853027,14.126587867736816,12400
2020-06-29,15.329999923706055,15.899999618530273,15.329999923706055,15.899999618530273,14.934358596801758,9000
2020-06-30,15.699999809265137,15.949999809265137,15.539999961853027,15.949999809265137,14.981321334838867,8300
2020-07-01,15.789999961853027,16.200000762939453,15.789999961853027,16.200000762939453,15.21613883972168,2900
2020-07-02,16.19499969482422,16.19499969482422,16.18000030517578,16.190000534057617,15.206748008728027,700
2020-07-06,15.15999984741211,16.0,15.140000343322754,15.479999542236328,14.53986644744873,4200
2020-07-07,15.75,16.469999313354492,14.149999618530273,14.199999809265137,13.337602615356445,70100
2020-07-08,14.420000076293945,15.1899995803833,14.3100004196167,14.880000114440918,13.976305961608887,16300
2020-07-09,14.744000434875488,15.050000190734863,14.600000381469727,14.649999618530273,13.760272979736328,13300
2020-07-10,14.720000267028809,15.600000381469727,14.720000267028809,15.130000114440918,14.211122512817383,13100
2020-07-13,15.15999984741211,15.75,15.149999618530273,15.75,14.793468475341797,16500
2020-07-14,14.5,15.5,14.0,14.505999565124512,13.625019073486328,115400
2020-07-15,14.300000190734863,14.5,13.3100004196167,13.40999984741211,12.595582008361816,199400
2020-07-16,12.649999618530273,13.489999771118164,12.649999618530273,13.0,12.210482597351074,1727700
2020-07-17,13.079999923706055,13.75,13.079999923706055,13.399999618530273,12.586189270019531,163400
2020-07-20,13.800000190734863,14.4399995803833,13.630000114440918,14.220000267028809,13.356389045715332,268500
2020-07-21,14.550000190734863,14.604999542236328,14.050000190734863,14.180000305175781,13.318818092346191,136000
2020-07-22,14.020000457763672,14.449999809265137,14.010000228881836,14.279999732971191,13.412744522094727,124300
2020-07-23,14.3100004196167,14.550000190734863,14.270000457763672,14.470000267028809,13.591205596923828,90600
2020-07-24,14.5,14.5600004196167,14.010000228881836,14.09000015258789,13.234283447265625,83400
2020-07-27,14.09000015258789,14.289999961853027,13.989999771118164,14.050000190734863,13.196712493896484,85900
2020-07-28,14.0600004196167,14.380000114440918,14.0600004196167,14.300000190734863,13.431529998779297,48600
2020-07-29,14.34000015258789,14.954999923706055,14.260000228881836,14.5,13.619383811950684,103300
2020-07-30,14.449999809265137,14.899999618530273,14.449999809265137,14.699999809265137,13.80723762512207,75700
2020-07-31,14.699999809265137,14.949999809265137,14.539999961853027,14.720000267028809,13.826022148132324,147600
2020-08-03,14.8100004196167,15.0,14.609999656677246,14.850000381469727,13.948127746582031,78700
2020-08-04,14.8100004196167,14.9399995803833,14.670000076293945,14.819999694824219,13.919949531555176,72800
2020-08-05,14.829999923706055,14.9399995803833,14.670000076293945,14.8100004196167,13.910557746887207,130000
2020-08-06,14.84000015258789,15.210000038146973,14.550000190734863,15.0,14.08901596069336,55400
2020-08-07,15.0,15.180000305175781,14.890000343322754,15.010000228881836,14.098410606384277,35700
2020-08-10,15.029999732971191,15.199999809265137,14.970000267028809,15.119999885559082,14.201729774475098,35700
2020-08-11,15.199999809265137,15.75,14.800000190734863,15.300000190734863,14.370798110961914,77300
2020-08-12,15.300000190734863,15.5,15.09000015258789,15.09000015258789,14.173551559448242,42200
2020-08-13,15.109999656677246,15.109999656677246,14.75,14.920000076293945,14.206879615783691,79200
2020-08-14,15.039999961853027,15.579999923706055,14.960000038146973,15.420000076293945,14.682979583740234,63200
2020-08-17,14.239999771118164,15.149999618530273,13.850000381469727,14.609999656677246,13.911694526672363,237900
2020-08-18,14.65999984741211,15.0,14.65999984741211,14.930000305175781,14.216401100158691,154200
2020-08-19,14.899999618530273,14.949999809265137,14.454999923706055,14.850000381469727,14.14022445678711,123000
2020-08-20,14.84000015258789,15.829999923706055,14.699999809265137,15.699999809265137,14.949597358703613,246100
2020-08-21,15.569999694824219,15.59000015258789,14.963000297546387,15.069999694824219,14.349708557128906,22600
2020-08-24,15.119999885559082,15.25,15.0,15.0600004196167,14.340187072753906,58700
2020-08-25,15.050000190734863,15.399999618530273,15.050000190734863,15.329999923706055,14.597282409667969,28300
2020-08-26,15.3100004196167,15.489999771118164,15.079999923706055,15.170000076293945,14.444930076599121,31700
2020-08-27,15.149999618530273,15.289999961853027,14.899999618530273,15.289999961853027,14.559194564819336,42000
2020-08-28,15.289999961853027,15.350000381469727,14.854999542236328,15.079999923706055,14.359230995178223,46300
2020-08-31,15.289999961853027,15.350000381469727,14.960000038146973,15.199999809265137,14.473496437072754,56500
2020-09-01,15.180000305175781,15.180000305175781,14.925000190734863,14.949999809265137,14.235445022583008,16500
2020-09-02,15.029999732971191,15.069999694824219,14.812000274658203,14.949999809265137,14.235445022583008,26400
2020-09-03,14.90999984741211,15.0600004196167,14.819999694824219,14.819999694824219,14.111659049987793,22000
2020-09-04,14.75,14.960000038146973,14.600000381469727,14.819999694824219,14.111659049987793,22500
2020-09-08,14.649999618530273,14.875,14.5,14.789999961853027,14.083091735839844,43500
2020-09-09,15.0,15.170000076293945,14.770000457763672,14.770000457763672,14.064048767089844,24300
2020-09-10,14.75,14.75,14.270000457763672,14.510000228881836,13.816474914550781,59500
2020-09-11,14.538000106811523,14.640000343322754,14.324999809265137,14.640000343322754,13.940262794494629,30200
2020-09-14,15.579999923706055,15.710000038146973,14.6899995803833,15.529999732971191,14.78772258758545,85900
2020-09-15,15.600000381469727,15.979999542236328,15.0,15.270000457763672,14.54015064239502,24500
2020-09-16,15.430000305175781,15.680000305175781,15.109999656677246,15.109999656677246,14.387797355651855,25700
2020-09-17,14.899999618530273,15.520000457763672,14.869999885559082,14.869999885559082,14.15926742553711,12900
2020-09-18,14.869999885559082,15.529999732971191,14.449999809265137,14.649999618530273,13.949783325195312,117000
2020-09-21,14.470000267028809,14.630000114440918,14.050000190734863,14.050000190734863,13.378460884094238,17000
2020-09-22,14.289999961853027,14.300000190734863,13.890000343322754,14.09000015258789,13.416549682617188,17600
2020-09-23,14.140000343322754,14.199999809265137,13.850000381469727,14.0,13.330851554870605,42100
2020-09-24,14.079999923706055,14.25,14.010000228881836,14.130000114440918,13.45463752746582,16900
2020-09-25,14.149999618530273,14.479999542236328,14.0,14.479999542236328,13.787908554077148,21900
2020-09-28,14.729999542236328,14.753000259399414,14.279999732971191,14.569999694824219,13.873607635498047,17900
2020-09-29,14.529999732971191,14.944999694824219,14.359999656677246,14.600000381469727,13.90217399597168,31200
2020-09-30,14.649999618530273,15.5,14.340999603271484,15.140000343322754,14.416363716125488,44600
2020-10-01,15.15999984741211,15.289999961853027,14.859999656677246,15.25,14.52110481262207,24200
2020-10-02,14.930000305175781,15.40999984741211,14.869999885559082,15.399999618530273,14.663935661315918,17300
2020-10-05,16.0,16.0,15.199999809265137,15.369999885559082,14.635371208190918,44600
2020-10-06,15.399999618530273,15.399999618530273,15.199999809265137,15.199999809265137,14.473496437072754,51300
2020-10-07,15.300000190734863,15.399999618530273,15.0,15.1899995803833,14.463973045349121,45600
2020-10-08,15.199999809265137,15.265000343322754,15.0,15.170000076293945,14.444930076599121,43000
2020-10-09,15.300000190734863,15.300000190734863,14.960000038146973,15.039999961853027,14.321142196655273,41900
2020-10-12,15.239999771118164,15.239999771118164,15.0,15.15999984741211,14.435407638549805,13700
2020-10-13,15.279999732971191,15.279999732971191,14.510000228881836,15.050000190734863,14.330665588378906,50300
2020-10-14,15.300000190734863,15.300000190734863,14.90999984741211,15.149999618530273,14.425884246826172,68400
2020-10-15,15.220000267028809,15.253000259399414,14.4399995803833,14.84000015258789,14.13070297241211,58200
2020-10-16,15.020000457763672,15.350000381469727,14.770000457763672,14.890000343322754,14.178312301635742,15100
2020-10-19,14.979999542236328,15.050000190734863,14.529999732971191,14.619999885559082,13.92121696472168,42700
2020-10-20,14.779999732971191,14.899999618530273,14.5,14.779999732971191,14.073570251464844,13600
2020-10-21,14.899999618530273,14.899999618530273,14.720000267028809,14.789999961853027,14.083091735839844,29800
2020-10-22,14.890000343322754,14.970000267028809,14.670000076293945,14.680000305175781,13.978349685668945,20600
2020-10-23,14.720000267028809,15.010000228881836,14.649999618530273,14.970000267028809,14.254488945007324,21100
2020-10-26,14.949999809265137,15.149999618530273,14.800000190734863,14.960000038146973,14.244967460632324,27900
2020-10-27,14.869999885559082,15.289999961853027,14.390000343322754,14.5,13.806953430175781,30900
2020-10-28,14.359999656677246,14.65999984741211,14.029999732971191,14.25,13.568902969360352,19200
2020-10-29,14.350000381469727,14.350000381469727,14.029999732971191,14.180000305175781,13.502248764038086,63700
2020-10-30,14.15999984741211,14.25,13.850000381469727,13.880000114440918,13.216586112976074,47300
2020-11-02,14.0,14.149999618530273,13.899999618530273,14.149999618530273,13.473681449890137,33300
2020-11-03,14.25,14.300000190734863,14.100000381469727,14.239999771118164,13.559379577636719,17400
2020-11-04,14.239999771118164,14.260000228881836,13.949999809265137,14.020000457763672,13.349896430969238,13100
2020-11-05,14.229999542236328,14.350000381469727,14.137999534606934,14.300000190734863,13.616512298583984,18600
2020-11-06,14.350000381469727,14.390000343322754,14.199999809265137,14.390000343322754,13.702211380004883,28700
2020-11-09,14.600000381469727,14.909000396728516,14.399999618530273,14.609999656677246,13.911694526672363,16200
2020-11-10,14.630000114440918,15.350000381469727,14.520000457763672,14.699999809265137,13.997393608093262,25900
2020-11-11,15.100000381469727,15.359999656677246,14.800000190734863,15.210000038146973,14.483016967773438,24300
2020-11-12,15.319999694824219,15.720000267028809,14.949999809265137,15.319999694824219,14.587759017944336,69800
2020-11-13,15.380000114440918,15.59000015258789,15.289999961853027,15.390000343322754,14.863001823425293,77700
2020-11-16,15.470000267028809,16.0,15.430000305175781,15.829999923706055,15.287933349609375,62700
2020-11-17,15.800000190734863,16.094999313354492,15.699999809265137,16.059999465942383,15.510056495666504,37200
2020-11-18,16.010000228881836,16.079999923706055,15.779999732971191,16.010000228881836,15.461770057678223,42100
2020-11-19,15.960000038146973,16.09000015258789,15.8100004196167,16.09000015258789,15.539031028747559,20700
2020-11-20,16.09000015258789,16.420000076293945,15.890000343322754,16.309999465942383,15.751496315002441,49900
2020-11-23,16.299999237060547,16.31999969482422,16.149999618530273,16.15999984741211,15.606633186340332,35700
2020-11-24,16.299999237060547,16.5049991607666,16.040000915527344,16.290000915527344,15.732183456420898,64600
2020-11-25,16.260000228881836,16.364999771118164,15.880000114440918,16.06999969482422,15.519715309143066,34500
2020-11-27,16.013999938964844,16.389999389648438,15.930000305175781,16.280000686645508,15.722524642944336,19500
2020-11-30,16.389999389648438,16.389999389648438,15.989999771118164,16.1200008392334,15.56800365447998,16200
2020-12-01,16.059999465942383,16.18000030517578,15.9399995803833,16.15999984741211,15.606633186340332,11400
2020-12-02,16.579999923706055,16.579999923706055,15.819999694824219,15.880000114440918,15.336221694946289,35000
2020-12-03,15.739999771118164,16.09000015258789,15.5,15.680000305175781,15.143070220947266,30400
2020-12-04,15.699999809265137,15.960000038146973,15.65999984741211,15.84000015258789,15.297592163085938,16900
2020-12-07,15.979999542236328,16.219999313354492,15.739999771118164,15.859999656677246,15.316906929016113,18900
2020-12-08,15.850000381469727,16.229999542236328,15.5,15.569999694824219,15.036836624145508,19500
2020-12-09,15.609999656677246,16.170000076293945,15.609999656677246,15.9399995803833,15.394165992736816,19200
2020-12-10,15.800000190734863,16.25,15.760000228881836,15.850000381469727,15.307249069213867,23900
2020-12-11,15.699999809265137,16.010000228881836,15.550000190734863,15.789999961853027,15.249303817749023,30200
2020-12-14,15.649999618530273,16.764999389648438,15.649999618530273,16.399999618530273,15.83841609954834,30500
2020-12-15,16.350000381469727,16.399999618530273,16.149999618530273,16.209999084472656,15.654921531677246,26800
2020-12-16,16.290000915527344,16.549999237060547,16.25,16.299999237060547,15.741838455200195,62800
2020-12-17,16.209999084472656,17.0,16.209999084472656,16.959999084472656,16.37923812866211,29300
2020-12-18,16.639999389648438,16.940000534057617,16.280000686645508,16.489999771118164,15.925333023071289,129900
2020-12-21,16.489999771118164,16.690000534057617,16.479999542236328,16.649999618530273,16.07985496520996,21500
2020-12-22,16.709999084472656,16.90999984741211,16.510000228881836,16.65999984741211,16.08951187133789,87100
2020-12-23,16.649999618530273,16.670000076293945,16.209999084472656,16.6200008392334,16.05088233947754,40100
2020-12-24,16.209999084472656,16.600000381469727,16.020000457763672,16.56999969482422,16.002592086791992,7100
2020-12-28,16.450000762939453,16.479999542236328,16.209999084472656,16.280000686645508,15.722524642944336,24500
2020-12-29,16.440000534057617,16.549999237060547,16.280000686645508,16.350000381469727,15.79012680053711,22400
2020-12-30,16.280000686645508,16.485000610351562,16.190000534057617,16.350000381469727,15.79012680053711,22800
