Date,Open,High,Low,Close,Adj Close,Volume
2020-10-28,25.010000228881836,25.049999237060547,25.0,25.0,23.62506866455078,2396100
2020-10-29,25.030000686645508,25.09000015258789,25.010000228881836,25.079999923706055,23.700666427612305,341800
2020-10-30,25.079999923706055,25.100000381469727,25.0,25.0,23.62506866455078,166700
2020-11-02,25.049999237060547,25.049999237060547,25.0,25.0,23.62506866455078,232800
2020-11-03,25.010000228881836,25.040000915527344,25.0,25.0,23.62506866455078,360700
2020-11-04,25.020000457763672,25.170000076293945,25.010000228881836,25.049999237060547,23.67231559753418,257600
2020-11-05,25.059999465942383,25.100000381469727,25.020000457763672,25.030000686645508,23.65341567993164,72900
2020-11-06,25.030000686645508,25.049999237060547,25.010000228881836,25.030000686645508,23.65341567993164,70500
2020-11-09,25.09000015258789,25.25,24.75,25.1200008392334,23.73847198486328,980800
2020-11-10,25.1299991607666,25.15999984741211,25.059999465942383,25.059999465942383,23.6817684173584,54900
2020-11-11,25.1200008392334,25.149999618530273,25.06999969482422,25.110000610351562,23.729019165039062,42400
2020-11-12,25.059999465942383,25.110000610351562,25.049999237060547,25.079999923706055,23.700666427612305,48100
2020-11-13,25.079999923706055,25.100000381469727,25.052000045776367,25.09000015258789,23.710115432739258,44500
2020-11-16,25.139999389648438,25.139999389648438,25.079999923706055,25.100000381469727,23.719568252563477,47000
2020-11-17,25.219999313354492,25.219999313354492,25.09000015258789,25.100000381469727,23.719568252563477,104100
2020-11-18,25.149999618530273,25.200000762939453,25.1200008392334,25.149999618530273,23.76681900024414,63300
2020-11-19,25.100000381469727,25.15999984741211,25.06999969482422,25.100000381469727,23.719568252563477,87100
2020-11-20,25.1299991607666,25.18000030517578,25.100000381469727,25.18000030517578,23.7951717376709,54400
2020-11-23,25.190000534057617,25.31999969482422,25.190000534057617,25.309999465942383,23.918018341064453,77600
2020-11-24,25.34000015258789,25.420000076293945,25.256000518798828,25.420000076293945,24.021970748901367,87800
2020-11-25,25.40999984741211,25.469999313354492,25.259000778198242,25.450000762939453,24.05031967163086,66700
2020-11-27,25.450000762939453,25.489999771118164,25.260000228881836,25.290000915527344,23.899120330810547,39800
2020-11-30,25.200000762939453,25.290000915527344,25.059999465942383,25.219999313354492,23.832969665527344,59000
2020-12-01,25.1200008392334,25.149999618530273,25.0,25.0,23.62506866455078,196100
2020-12-02,25.1299991607666,25.1299991607666,25.020000457763672,25.09000015258789,23.710115432739258,67100
2020-12-03,25.09000015258789,25.290000915527344,25.09000015258789,25.25,23.86131477355957,77200
2020-12-04,25.270000457763672,25.389999389648438,25.239999771118164,25.3799991607666,23.984172821044922,66100
2020-12-07,25.3799991607666,25.389999389648438,25.059999465942383,25.239999771118164,23.85186767578125,76700
2020-12-08,25.290000915527344,25.31999969482422,25.110000610351562,25.260000228881836,23.870773315429688,86500
2020-12-09,25.290000915527344,25.5,25.239999771118164,25.350000381469727,23.955820083618164,124200
2020-12-10,25.450000762939453,25.760000228881836,25.297000885009766,25.670000076293945,24.258220672607422,109100
2020-12-11,26.0,26.0,25.299999237060547,25.6200008392334,24.210973739624023,83700
2020-12-14,25.56999969482422,25.700000762939453,25.200000762939453,25.700000762939453,24.28657341003418,110600
2020-12-15,25.700000762939453,26.06999969482422,25.635000228881836,25.760000228881836,24.3432674407959,176500
2020-12-16,25.889999389648438,25.996999740600586,25.399999618530273,25.489999771118164,24.088117599487305,145900
2020-12-17,25.489999771118164,25.75,25.45599937438965,25.540000915527344,24.135366439819336,107300
2020-12-18,25.65999984741211,25.972999572753906,25.593000411987305,25.8700008392334,24.447221755981445,75100
2020-12-21,25.989999771118164,26.09000015258789,25.5,25.530000686645508,24.125919342041016,76000
2020-12-22,25.510000228881836,25.937999725341797,25.5,25.579999923706055,24.17317008972168,151600
2020-12-23,25.799999237060547,26.059999465942383,25.700000762939453,25.75,24.45811653137207,86200
2020-12-24,26.100000381469727,26.100000381469727,25.823999404907227,26.06999969482422,24.76206398010254,16600
2020-12-28,26.100000381469727,26.239999771118164,25.715999603271484,26.079999923706055,24.771564483642578,93100
2020-12-29,26.25,26.25,25.790000915527344,25.8700008392334,24.572099685668945,100600
2020-12-30,25.989999771118164,26.073999404907227,25.68000030517578,25.979999542236328,24.67658042907715,40700
