Date,Open,High,Low,Close,Adj Close,Volume
2019-11-29,25.200000762939453,25.280000686645508,25.149999618530273,25.280000686645508,23.308263778686523,382800
2019-12-02,25.219999313354492,25.219999313354492,24.860000610351562,25.020000457763672,23.068540573120117,447600
2019-12-03,25.040000915527344,25.040000915527344,24.950000762939453,25.0,23.05010414123535,389000
2019-12-04,25.030000686645508,25.09000015258789,24.959999084472656,24.989999771118164,23.04088020324707,256300
2019-12-05,25.030000686645508,25.06999969482422,24.90999984741211,24.950000762939453,23.004003524780273,187900
2019-12-06,24.969999313354492,25.06999969482422,24.89900016784668,25.049999237060547,23.096200942993164,202000
2019-12-09,25.100000381469727,25.100000381469727,25.030000686645508,25.045000076293945,23.091590881347656,272300
2019-12-10,25.100000381469727,25.100000381469727,25.010000228881836,25.040000915527344,23.08698272705078,263900
2019-12-11,25.100000381469727,25.149999618530273,25.059999465942383,25.1299991607666,23.16996192932129,185900
2019-12-12,25.149999618530273,25.170000076293945,25.030000686645508,25.06999969482422,23.11464500427246,384600
2019-12-13,25.09000015258789,25.260000228881836,25.06599998474121,25.25,23.280603408813477,376700
2019-12-16,25.260000228881836,25.34000015258789,25.202999114990234,25.25,23.280603408813477,415300
2019-12-17,25.299999237060547,25.489999771118164,25.280000686645508,25.489999771118164,23.501882553100586,325000
2019-12-18,25.5,25.5,25.40999984741211,25.489999771118164,23.501882553100586,433300
2019-12-19,25.489999771118164,25.520000457763672,25.44499969482422,25.489999771118164,23.501882553100586,328900
2019-12-20,25.489999771118164,25.639999389648438,25.459999084472656,25.610000610351562,23.612524032592773,228900
2019-12-23,25.649999618530273,25.889999389648438,25.649999618530273,25.829999923706055,23.815366744995117,510100
2019-12-24,25.8700008392334,25.8700008392334,25.757999420166016,25.799999237060547,23.78770637512207,167400
2019-12-26,25.81999969482422,26.0,25.75,25.989999771118164,23.962886810302734,207700
2019-12-27,25.969999313354492,26.100000381469727,25.8700008392334,26.100000381469727,24.064308166503906,262600
2019-12-30,26.100000381469727,26.100000381469727,25.899999618530273,25.969999313354492,23.944446563720703,350000
2019-12-31,25.989999771118164,26.100000381469727,25.700000762939453,26.100000381469727,24.064308166503906,2644200
2020-01-02,26.09000015258789,26.09000015258789,25.93000030517578,25.979999542236328,23.95366668701172,788100
2020-01-03,25.989999771118164,25.989999771118164,25.790000915527344,25.850000381469727,23.83380699157715,405000
2020-01-06,25.850000381469727,25.850000381469727,25.6200008392334,25.700000762939453,23.69550323486328,150500
2020-01-07,25.6200008392334,25.81599998474121,25.6200008392334,25.799999237060547,23.78770637512207,114300
2020-01-08,25.799999237060547,25.959999084472656,25.760000228881836,25.950000762939453,23.926008224487305,153300
2020-01-09,25.959999084472656,25.959999084472656,25.770000457763672,25.8700008392334,23.85224723815918,181200
2020-01-10,25.860000610351562,25.959999084472656,25.850000381469727,25.8799991607666,23.861465454101562,114400
2020-01-13,25.899999618530273,25.910999298095703,25.670000076293945,25.780000686645508,23.76926612854004,131700
2020-01-14,25.84000015258789,25.84000015258789,25.610000610351562,25.639999389648438,23.640182495117188,285900
2020-01-15,25.649999618530273,25.700000762939453,25.34000015258789,25.399999618530273,23.418903350830078,225600
2020-01-16,25.420000076293945,25.65999984741211,25.420000076293945,25.65999984741211,23.65862464904785,633600
2020-01-17,25.65999984741211,25.75,25.559999465942383,25.65999984741211,23.65862464904785,157600
2020-01-21,25.670000076293945,25.739999771118164,25.670000076293945,25.729999542236328,23.723163604736328,296300
2020-01-22,25.780000686645508,25.780000686645508,25.6200008392334,25.68000030517578,23.677066802978516,285300
2020-01-23,25.729999542236328,25.770000457763672,25.656999588012695,25.690000534057617,23.68628692626953,160600
2020-01-24,25.760000228881836,25.760000228881836,25.600000381469727,25.690000534057617,23.68628692626953,52800
2020-01-27,25.639999389648438,25.639999389648438,25.59000015258789,25.6299991607666,23.630964279174805,38200
2020-01-28,25.68400001525879,25.68400001525879,25.424999237060547,25.440000534057617,23.45578384399414,94700
2020-01-29,25.549999237060547,25.56999969482422,25.399999618530273,25.520000457763672,23.529542922973633,114800
2020-01-30,25.5,25.549999237060547,25.420000076293945,25.530000686645508,23.538766860961914,68700
2020-01-31,25.549999237060547,25.65999984741211,25.5,25.5,23.511106491088867,102300
2020-02-03,25.56999969482422,25.739999771118164,25.559999465942383,25.690000534057617,23.68628692626953,194000
2020-02-04,25.709999084472656,25.709999084472656,25.579999923706055,25.600000381469727,23.60330581665039,132100
2020-02-05,25.610000610351562,25.670000076293945,25.549999237060547,25.649999618530273,23.64940643310547,93000
2020-02-06,25.65999984741211,25.690000534057617,25.579999923706055,25.600000381469727,23.60330581665039,218700
2020-02-07,25.639999389648438,25.670000076293945,25.530000686645508,25.649999618530273,23.64940643310547,148900
2020-02-10,25.68000030517578,25.690000534057617,25.549999237060547,25.600000381469727,23.60330581665039,128500
2020-02-11,25.610000610351562,25.700000762939453,25.600000381469727,25.65999984741211,23.65862464904785,62600
2020-02-12,25.700000762939453,25.700000762939453,25.56999969482422,25.579999923706055,23.584863662719727,185000
2020-02-13,25.6200008392334,25.670000076293945,25.600000381469727,25.610000610351562,23.612524032592773,74300
2020-02-14,25.649999618530273,25.760000228881836,25.610000610351562,25.75,23.741605758666992,117000
2020-02-18,25.780000686645508,25.829999923706055,25.719999313354492,25.770000457763672,23.76004409790039,328300
2020-02-19,25.809999465942383,25.8700008392334,25.75,25.75,23.741605758666992,208900
2020-02-20,25.799999237060547,25.8799991607666,25.780000686645508,25.84000015258789,23.8245849609375,61500
2020-02-21,25.889999389648438,25.950000762939453,25.860000610351562,25.8700008392334,23.85224723815918,66500
2020-02-24,25.75,25.850000381469727,25.540000915527344,25.540000915527344,23.54798698425293,129400
2020-02-25,25.639999389648438,25.75,24.989999771118164,25.010000228881836,23.059322357177734,208100
2020-02-26,25.219999313354492,25.302000045776367,24.600000381469727,24.920000076293945,22.976343154907227,276900
2020-02-27,24.479999542236328,24.799999237060547,23.790000915527344,24.209999084472656,22.32171630859375,235800
2020-02-28,24.079999923706055,24.25,23.90999984741211,23.920000076293945,22.054336547851562,173900
2020-03-02,24.389999389648438,24.75,24.0,24.59000015258789,22.672080993652344,143600
2020-03-03,24.700000762939453,25.076000213623047,24.301000595092773,24.59000015258789,22.672080993652344,136100
2020-03-04,24.860000610351562,25.31999969482422,24.700000762939453,25.1200008392334,23.160743713378906,178300
2020-03-05,24.979999542236328,25.110000610351562,24.799999237060547,24.799999237060547,22.86570167541504,102300
2020-03-06,24.639999389648438,24.719999313354492,24.25200080871582,24.43000030517578,22.524559020996094,67000
2020-03-09,23.670000076293945,23.670000076293945,21.871999740600586,23.18000030517578,21.372055053710938,132600
2020-03-10,23.979999542236328,24.190000534057617,23.459999084472656,23.799999237060547,21.943696975708008,95100
2020-03-11,23.799999237060547,23.799999237060547,22.329999923706055,22.770000457763672,20.994033813476562,146600
2020-03-12,22.280000686645508,22.280000686645508,17.049999237060547,17.06999969482422,15.73861026763916,159100
2020-03-13,18.209999084472656,20.0,17.799999237060547,19.760000228881836,18.218801498413086,175800
2020-03-16,19.290000915527344,20.84000015258789,17.950000762939453,19.770000457763672,18.228023529052734,252300
2020-03-17,20.049999237060547,20.56999969482422,17.88599967956543,17.920000076293945,16.522315979003906,129700
2020-03-18,17.420000076293945,17.457000732421875,8.069999694824219,10.819999694824219,9.97608470916748,206000
2020-03-19,11.319999694824219,15.430000305175781,10.819999694824219,15.270000457763672,14.079002380371094,116700
2020-03-20,15.729999542236328,17.71500015258789,14.300000190734863,14.9399995803833,13.774741172790527,89700
2020-03-23,15.4399995803833,15.4399995803833,13.649999618530273,14.399999618530273,13.27685832977295,107000
2020-03-24,14.899999618530273,16.540000915527344,14.510000228881836,15.130000114440918,13.949921607971191,173200
2020-03-25,15.260000228881836,19.5,15.260000228881836,18.829999923706055,17.361337661743164,99600
2020-03-26,18.299999237060547,20.700000762939453,18.200000762939453,19.020000457763672,17.536518096923828,94300
2020-03-27,19.18000030517578,19.18000030517578,17.875999450683594,17.899999618530273,16.50387191772461,38700
2020-03-30,18.670000076293945,18.670000076293945,17.3700008392334,18.040000915527344,16.63295555114746,48500
2020-03-31,18.3799991607666,18.84000015258789,17.979999542236328,17.979999542236328,16.577632904052734,46800
2020-04-01,17.700000762939453,17.839000701904297,15.539999961853027,16.059999465942383,14.80738639831543,78300
2020-04-02,16.0,16.100000381469727,15.130000114440918,15.699999809265137,14.475464820861816,42100
2020-04-03,15.989999771118164,15.989999771118164,14.869999885559082,15.350000381469727,14.152763366699219,63400
2020-04-06,16.020000457763672,17.360000610351562,16.020000457763672,16.690000534057617,15.388250350952148,23600
2020-04-07,17.360000610351562,17.989999771118164,16.75,17.229999542236328,15.886130332946777,62200
2020-04-08,17.399999618530273,18.2810001373291,17.0,17.559999465942383,16.19038963317871,125700
2020-04-09,17.790000915527344,20.3700008392334,17.790000915527344,19.18000030517578,17.684038162231445,146700
2020-04-13,19.530000686645508,19.700000762939453,18.399999618530273,19.399999618530273,17.886878967285156,74200
2020-04-14,19.649999618530273,20.288999557495117,18.979999542236328,20.200000762939453,18.624483108520508,85700
2020-04-15,20.200000762939453,20.389999389648438,19.020000457763672,20.09000015258789,18.523061752319336,46900
2020-04-16,20.600000381469727,20.600000381469727,20.020000457763672,20.101999282836914,18.53412437438965,95100
2020-04-17,20.549999237060547,20.80299949645996,20.15999984741211,20.420000076293945,18.82732582092285,69400
2020-04-20,20.420000076293945,20.420000076293945,19.559999465942383,19.624000549316406,18.093406677246094,106300
2020-04-21,19.600000381469727,19.600000381469727,18.5,18.812999725341797,17.345664978027344,61800
2020-04-22,19.040000915527344,19.600000381469727,19.040000915527344,19.149999618530273,17.6563777923584,57300
2020-04-23,19.440000534057617,20.290000915527344,19.290000915527344,20.190000534057617,18.615264892578125,46800
2020-04-24,20.399999618530273,20.399999618530273,20.200000762939453,20.350000381469727,18.76278305053711,34200
2020-04-27,20.40999984741211,20.65999984741211,20.200000762939453,20.5,18.901084899902344,113600
2020-04-28,20.579999923706055,20.690000534057617,20.010000228881836,20.010000228881836,18.449304580688477,92000
2020-04-29,20.34000015258789,20.549999237060547,20.280000686645508,20.420000076293945,18.82732582092285,78400
2020-04-30,20.549999237060547,20.6299991607666,19.56999969482422,19.709999084472656,18.172700881958008,360600
2020-05-01,19.59000015258789,20.0,19.399999618530273,19.81100082397461,18.265823364257812,63800
2020-05-04,19.850000381469727,19.889999389648438,19.5,19.700000762939453,18.163482666015625,36300
2020-05-05,19.8700008392334,20.19499969482422,19.760000228881836,20.104000091552734,18.53597068786621,54500
2020-05-06,20.149999618530273,20.190000534057617,19.850000381469727,20.010000228881836,18.449304580688477,26100
2020-05-07,20.059999465942383,20.43000030517578,20.059999465942383,20.18000030517578,18.606042861938477,41500
2020-05-08,20.299999237060547,20.600000381469727,20.149999618530273,20.5,18.901084899902344,37500
2020-05-11,20.610000610351562,20.770000457763672,20.139999389648438,20.43000030517578,18.836544036865234,47000
2020-05-12,20.5,20.56999969482422,20.360000610351562,20.360000610351562,18.772005081176758,27300
2020-05-13,20.43000030517578,20.43000030517578,19.540000915527344,19.75,18.209579467773438,73500
2020-05-14,19.700000762939453,19.93000030517578,18.959999084472656,19.329999923706055,17.822338104248047,43900
2020-05-15,19.469999313354492,19.780000686645508,19.350000381469727,19.399999618530273,17.886878967285156,32400
2020-05-18,19.809999465942383,19.93000030517578,19.579999923706055,19.65999984741211,18.12660026550293,59500
2020-05-19,19.709999084472656,19.860000610351562,19.600000381469727,19.6200008392334,18.089723587036133,70100
2020-05-20,19.799999237060547,20.040000915527344,19.6299991607666,19.729999542236328,18.19114112854004,102900
2020-05-21,19.780000686645508,20.0049991607666,19.729999542236328,19.770000457763672,18.228023529052734,93900
2020-05-22,19.90999984741211,19.969999313354492,19.799999237060547,19.969999313354492,18.41242218017578,61900
2020-05-26,20.229999542236328,20.899999618530273,20.229999542236328,20.899999618530273,19.269886016845703,55400
2020-05-27,21.110000610351562,21.809999465942383,20.989999771118164,21.729999542236328,20.03514862060547,81400
2020-05-28,21.790000915527344,22.1200008392334,21.280000686645508,21.399999618530273,19.73088836669922,74900
2020-05-29,21.15999984741211,21.280000686645508,20.93000030517578,20.950000762939453,19.675477981567383,46400
2020-06-01,21.059999465942383,21.540000915527344,21.059999465942383,21.540000915527344,20.229585647583008,29300
2020-06-02,21.540000915527344,21.979999542236328,21.540000915527344,21.889999389648438,20.55828857421875,52200
2020-06-03,22.100000381469727,22.59000015258789,22.0,22.1299991607666,20.78369140625,98800
2020-06-04,22.1299991607666,22.309999465942383,22.030000686645508,22.209999084472656,20.858821868896484,29400
2020-06-05,22.520000457763672,22.6200008392334,22.200000762939453,22.200000762939453,20.84943199157715,66000
2020-06-08,22.489999771118164,22.700000762939453,22.0,22.190000534057617,20.84004020690918,60100
2020-06-09,22.0,22.260000228881836,21.809999465942383,22.100000381469727,20.755516052246094,33200
2020-06-10,22.170000076293945,22.57900047302246,22.040000915527344,22.520000457763672,21.149965286254883,33900
2020-06-11,22.200000762939453,22.211000442504883,21.0,21.219999313354492,19.929052352905273,47400
2020-06-12,21.6299991607666,22.0,21.020000457763672,21.149999618530273,19.863309860229492,62000
2020-06-15,21.110000610351562,21.850000381469727,20.549999237060547,21.770999908447266,20.4465274810791,37300
2020-06-16,21.93000030517578,22.350000381469727,21.469999313354492,21.469999313354492,20.163843154907227,45400
2020-06-17,21.649999618530273,22.059999465942383,21.0,21.09000015258789,19.80695915222168,40000
2020-06-18,21.200000762939453,21.5,21.110000610351562,21.450000762939453,20.145057678222656,24500
2020-06-19,21.68000030517578,21.950000762939453,21.610000610351562,21.6299991607666,20.314105987548828,20100
2020-06-22,21.799999237060547,21.899999618530273,21.139999389648438,21.170000076293945,19.88209342956543,52000
2020-06-23,21.40999984741211,21.770000457763672,21.170000076293945,21.46299934387207,20.15726661682129,52500
2020-06-24,21.479999542236328,21.479999542236328,21.100000381469727,21.399999618530273,20.098100662231445,28900
2020-06-25,21.530000686645508,21.610000610351562,21.1299991607666,21.229999542236328,19.93844223022461,26300
2020-06-26,21.270000457763672,21.270000457763672,20.549999237060547,20.559999465942383,19.309202194213867,40000
2020-06-29,20.75,20.90999984741211,20.079999923706055,20.3700008392334,19.130762100219727,80400
2020-06-30,20.510000228881836,20.989999771118164,20.40999984741211,20.510000228881836,19.262245178222656,135500
2020-07-01,20.579999923706055,20.905000686645508,20.520000457763672,20.6299991607666,19.37494468688965,37800
2020-07-02,20.790000915527344,20.979999542236328,20.645000457763672,20.856000900268555,19.587196350097656,37300
2020-07-06,20.950000762939453,21.18000030517578,20.950000762939453,21.18000030517578,19.89148712158203,55200
2020-07-07,21.100000381469727,21.3799991607666,20.969999313354492,21.030000686645508,19.7506103515625,47800
2020-07-08,21.049999237060547,21.290000915527344,20.802000045776367,20.950000762939453,19.675477981567383,61800
2020-07-09,21.049999237060547,21.106000900268555,20.65999984741211,20.899999618530273,19.62851905822754,53300
2020-07-10,20.950000762939453,21.011999130249023,20.700000762939453,20.850000381469727,19.581560134887695,43300
2020-07-13,21.030000686645508,21.299999237060547,20.950000762939453,21.290000915527344,19.994792938232422,74900
2020-07-14,21.25,21.25,20.860000610351562,21.149999618530273,19.863309860229492,42800
2020-07-15,21.15999984741211,21.350000381469727,20.90999984741211,21.239999771118164,19.947834014892578,31500
2020-07-16,21.200000762939453,21.920000076293945,21.010000228881836,21.709999084472656,20.389240264892578,46400
2020-07-17,21.809999465942383,21.899999618530273,21.65999984741211,21.829999923706055,20.501941680908203,51300
2020-07-20,21.829999923706055,21.922000885009766,21.75,21.84000015258789,20.511333465576172,58600
2020-07-21,21.860000610351562,22.139999389648438,21.84000015258789,21.84000015258789,20.511333465576172,33800
2020-07-22,21.969999313354492,22.1299991607666,21.84000015258789,21.889999389648438,20.55828857421875,22300
2020-07-23,21.90999984741211,21.950000762939453,21.725000381469727,21.8700008392334,20.539508819580078,36100
2020-07-24,21.8799991607666,21.959999084472656,21.770000457763672,21.8799991607666,20.548900604248047,33600
2020-07-27,21.989999771118164,21.989999771118164,21.809999465942383,21.84000015258789,20.511333465576172,27400
2020-07-28,21.860000610351562,21.959999084472656,21.836000442504883,21.959999084472656,20.62403106689453,33300
2020-07-29,22.010000228881836,22.649999618530273,22.0,22.649999618530273,21.272052764892578,65400
2020-07-30,22.579999923706055,22.94499969482422,22.299999237060547,22.68000030517578,21.300230026245117,52700
2020-07-31,22.75,22.8799991607666,22.579999923706055,22.68000030517578,21.300230026245117,42500
2020-08-03,22.780000686645508,23.219999313354492,22.780000686645508,23.0,21.60076332092285,53700
2020-08-04,23.0,23.170000076293945,22.729999542236328,22.850000381469727,21.459888458251953,22900
2020-08-05,22.950000762939453,22.989999771118164,22.875,22.920000076293945,21.5256290435791,24600
2020-08-06,22.959999084472656,23.0,22.81999969482422,22.860000610351562,21.469280242919922,33400
2020-08-07,22.940000534057617,22.940000534057617,22.799999237060547,22.899999618530273,21.50684356689453,24800
2020-08-10,22.950000762939453,23.469999313354492,22.90999984741211,23.18000030517578,21.769811630249023,68400
2020-08-11,23.350000381469727,23.610000610351562,23.261999130249023,23.329999923706055,21.910688400268555,95000
2020-08-12,23.549999237060547,23.760000228881836,23.3799991607666,23.5,22.070343017578125,55300
2020-08-13,23.510000228881836,23.70599937438965,23.510000228881836,23.59000015258789,22.154869079589844,49200
2020-08-14,23.600000381469727,23.635000228881836,23.440000534057617,23.610000610351562,22.17365264892578,71000
2020-08-17,23.65999984741211,23.809999465942383,23.530000686645508,23.649999618530273,22.211219787597656,33000
2020-08-18,23.719999313354492,23.923999786376953,23.600000381469727,23.739999771118164,22.295743942260742,40500
2020-08-19,23.8700008392334,24.170000076293945,23.829999923706055,24.100000381469727,22.633840560913086,68200
2020-08-20,24.09000015258789,24.25,24.040000915527344,24.25,22.774717330932617,86200
2020-08-21,24.25,24.299999237060547,23.940000534057617,24.209999084472656,22.73714828491211,57700
2020-08-24,24.270000457763672,24.459999084472656,24.270000457763672,24.459999084472656,22.971939086914062,20100
2020-08-25,24.600000381469727,24.600000381469727,24.389999389648438,24.469999313354492,22.981332778930664,38100
2020-08-26,24.510000228881836,24.59000015258789,24.399999618530273,24.420000076293945,22.93437385559082,60400
2020-08-27,24.510000228881836,24.59000015258789,24.329999923706055,24.389999389648438,22.90619659423828,41000
2020-08-28,24.469999313354492,24.488000869750977,24.329999923706055,24.440000534057617,22.953157424926758,54500
2020-08-31,24.200000762939453,24.229999542236328,23.93000030517578,24.09000015258789,22.992290496826172,92500
2020-09-01,24.09000015258789,24.360000610351562,24.09000015258789,24.110000610351562,23.01137924194336,98000
2020-09-02,24.149999618530273,24.209999084472656,24.049999237060547,24.1200008392334,23.020923614501953,83400
2020-09-03,24.149999618530273,24.299999237060547,23.700000762939453,23.739999771118164,22.65823745727539,41100
2020-09-04,23.729999542236328,23.767000198364258,23.200000762939453,23.5,22.429174423217773,55600
2020-09-08,23.5,23.649999618530273,23.402000427246094,23.56999969482422,22.49598503112793,29000
2020-09-09,23.65999984741211,23.788999557495117,23.56999969482422,23.700000762939453,22.620059967041016,57100
2020-09-10,23.719999313354492,23.850000381469727,23.709999084472656,23.739999771118164,22.65823745727539,44200
2020-09-11,23.850000381469727,23.950000762939453,23.799999237060547,23.90999984741211,22.820491790771484,41200
2020-09-14,23.979999542236328,24.100000381469727,23.841999053955078,23.979999542236328,22.887300491333008,76900
2020-09-15,23.979999542236328,24.12700080871582,23.579999923706055,24.040000915527344,22.944570541381836,92200
2020-09-16,24.100000381469727,24.260000228881836,23.920000076293945,23.93000030517578,22.839580535888672,139400
2020-09-17,23.889999389648438,24.049999237060547,23.649999618530273,23.81999969482422,22.734590530395508,51200
2020-09-18,23.940000534057617,23.969999313354492,23.8799991607666,23.940000534057617,22.849124908447266,25900
2020-09-21,23.84000015258789,23.84000015258789,23.270000457763672,23.75,22.667781829833984,99700
2020-09-22,23.790000915527344,23.969999313354492,23.600000381469727,23.690000534057617,22.610517501831055,59100
2020-09-23,23.690000534057617,23.780000686645508,22.375,22.3799991607666,21.360210418701172,108800
2020-09-24,22.459999084472656,22.8700008392334,21.950000762939453,22.1200008392334,21.112056732177734,146100
2020-09-25,22.209999084472656,22.68000030517578,22.149999618530273,22.290000915527344,21.274311065673828,237100
2020-09-28,22.5,22.65999984741211,22.270000457763672,22.270000457763672,21.255224227905273,291000
2020-09-29,22.34000015258789,22.360000610351562,22.149999618530273,22.25,21.236133575439453,221800
2020-09-30,22.329999923706055,22.540000915527344,22.15999984741211,22.25,21.236133575439453,299300
2020-10-01,22.34000015258789,22.950000762939453,22.329999923706055,22.709999084472656,21.6751708984375,137000
2020-10-02,22.479999542236328,22.860000610351562,22.479999542236328,22.760000228881836,21.72289276123047,112700
2020-10-05,22.920000076293945,23.190000534057617,22.899999618530273,23.1299991607666,22.076034545898438,72800
2020-10-06,23.170000076293945,23.290000915527344,22.863000869750977,22.950000762939453,21.90423583984375,89300
2020-10-07,23.06999969482422,23.184999465942383,23.059999465942383,23.100000381469727,22.047401428222656,54800
2020-10-08,23.190000534057617,23.365999221801758,23.184999465942383,23.270000457763672,22.20965576171875,53400
2020-10-09,23.31999969482422,23.360000610351562,23.172000885009766,23.270000457763672,22.20965576171875,53500
2020-10-12,23.40999984741211,23.549999237060547,23.344999313354492,23.489999771118164,22.41963005065918,77200
2020-10-13,23.579999923706055,23.579999923706055,23.43000030517578,23.469999313354492,22.40053939819336,72800
2020-10-14,23.5,23.59000015258789,23.200000762939453,23.329999923706055,22.266921997070312,71900
2020-10-15,23.18000030517578,23.350000381469727,23.142000198364258,23.329999923706055,22.266921997070312,54200
2020-10-16,23.399999618530273,23.399999618530273,23.200000762939453,23.332000732421875,22.268831253051758,42000
2020-10-19,23.3799991607666,23.65999984741211,23.3799991607666,23.600000381469727,22.52461814880371,110700
2020-10-20,23.600000381469727,23.940000534057617,23.549999237060547,23.8700008392334,22.782316207885742,83200
2020-10-21,23.950000762939453,23.950000762939453,23.549999237060547,23.600000381469727,22.52461814880371,68300
2020-10-22,23.700000762939453,23.790000915527344,23.5,23.770000457763672,22.686872482299805,32400
2020-10-23,23.8700008392334,24.079999923706055,23.760000228881836,24.075000762939453,22.97797393798828,45300
2020-10-26,23.93000030517578,24.030000686645508,23.770000457763672,23.889999389648438,22.801403045654297,63600
2020-10-27,23.93000030517578,24.09000015258789,23.829999923706055,23.93000030517578,22.839580535888672,60000
2020-10-28,23.639999389648438,23.81999969482422,23.479999542236328,23.6200008392334,22.5437068939209,75900
2020-10-29,23.520000457763672,23.65999984741211,23.299999237060547,23.43000030517578,22.362363815307617,71500
2020-10-30,23.399999618530273,23.610000610351562,23.020000457763672,23.59000015258789,22.515073776245117,94600
2020-11-02,23.639999389648438,23.799999237060547,23.540000915527344,23.670000076293945,22.591426849365234,45600
2020-11-03,23.729999542236328,23.959999084472656,23.719999313354492,23.81999969482422,22.734590530395508,48900
2020-11-04,23.850000381469727,24.18000030517578,23.850000381469727,24.1299991607666,23.030466079711914,63400
2020-11-05,24.200000762939453,24.489999771118164,24.1200008392334,24.450000762939453,23.335887908935547,67100
2020-11-06,24.450000762939453,24.5,24.350000381469727,24.399999618530273,23.288164138793945,44800
2020-11-09,24.6200008392334,24.850000381469727,24.52899932861328,24.610000610351562,23.488597869873047,82400
2020-11-10,24.600000381469727,24.700000762939453,24.489999771118164,24.579999923706055,23.4599609375,63700
2020-11-11,24.639999389648438,24.770000457763672,24.59000015258789,24.719999313354492,23.593582153320312,58100
2020-11-12,24.790000915527344,24.829999923706055,24.420000076293945,24.670000076293945,23.545860290527344,122500
2020-11-13,24.670000076293945,24.959999084472656,24.520000457763672,24.850000381469727,23.7176570892334,110900
2020-11-16,24.959999084472656,25.010000228881836,24.84000015258789,24.889999389648438,23.755834579467773,130200
2020-11-17,24.889999389648438,24.989999771118164,24.75,24.850000381469727,23.7176570892334,73200
2020-11-18,24.899999618530273,25.0,24.6200008392334,24.739999771118164,23.612668991088867,94300
2020-11-19,24.739999771118164,24.969999313354492,24.690000534057617,24.84000015258789,23.708114624023438,52900
2020-11-20,24.93000030517578,24.969999313354492,24.780000686645508,24.899999618530273,23.765380859375,66100
2020-11-23,24.950000762939453,25.059999465942383,24.899999618530273,25.049999237060547,23.908544540405273,151300
2020-11-24,25.059999465942383,25.059999465942383,25.0,25.020000457763672,23.879911422729492,107200
2020-11-25,25.020000457763672,25.06999969482422,25.010000228881836,25.010000228881836,23.8703670501709,60500
2020-11-27,25.06999969482422,25.06999969482422,25.010000228881836,25.020000457763672,23.879911422729492,20300
2020-11-30,24.780000686645508,24.989999771118164,24.68600082397461,24.899999618530273,24.142669677734375,169800
2020-12-01,24.979999542236328,25.040000915527344,24.899999618530273,25.040000915527344,24.278411865234375,111400
2020-12-02,25.0,25.09000015258789,24.959999084472656,24.959999084472656,24.200843811035156,95800
2020-12-03,24.979999542236328,25.049999237060547,24.899999618530273,25.020000457763672,24.25901985168457,109400
2020-12-04,25.020000457763672,25.100000381469727,24.979999542236328,25.100000381469727,24.33658790588379,91100
2020-12-07,25.040000915527344,25.104000091552734,25.010000228881836,25.100000381469727,24.33658790588379,63400
2020-12-08,25.100000381469727,25.200000762939453,25.030000686645508,25.139999389648438,24.375370025634766,75100
2020-12-09,25.049999237060547,25.1299991607666,25.04400062561035,25.059999465942383,24.29780387878418,32000
2020-12-10,25.09000015258789,25.190000534057617,24.979999542236328,25.18400001525879,24.418031692504883,73800
2020-12-11,25.149999618530273,25.280000686645508,25.06999969482422,25.239999771118164,24.472328186035156,70800
2020-12-14,25.299999237060547,25.299999237060547,25.049999237060547,25.100000381469727,24.33658790588379,65000
2020-12-15,25.149999618530273,25.170000076293945,25.020000457763672,25.100000381469727,24.33658790588379,133600
2020-12-16,25.200000762939453,25.360000610351562,25.110000610351562,25.235000610351562,24.46748161315918,89200
2020-12-17,25.299999237060547,25.584999084472656,25.25,25.5,24.72442054748535,97800
2020-12-18,25.579999923706055,25.604999542236328,25.399999618530273,25.5,24.72442054748535,64200
2020-12-21,25.5,25.5,25.25,25.440000534057617,24.66624641418457,76100
2020-12-22,25.309999465942383,25.540000915527344,25.260000228881836,25.31999969482422,24.549896240234375,75600
2020-12-23,25.399999618530273,25.440000534057617,25.200000762939453,25.299999237060547,24.530502319335938,95000
2020-12-24,25.299999237060547,25.3799991607666,25.270000457763672,25.280000686645508,24.511112213134766,32600
2020-12-28,25.360000610351562,25.389999389648438,25.239999771118164,25.299999237060547,24.530502319335938,64300
2020-12-29,25.31999969482422,25.31999969482422,25.25,25.25,24.482025146484375,58500
2020-12-30,25.239999771118164,25.309999465942383,25.209999084472656,25.309999465942383,24.540199279785156,30300
