Date,Open,High,Low,Close,Adj Close,Volume
2019-01-17,11.300000190734863,11.850000381469727,11.300000190734863,11.75,11.75,824000
2019-01-18,11.75,11.75,11.5,11.612000465393066,11.612000465393066,79200
2019-01-22,11.609999656677246,11.84000015258789,11.579999923706055,11.8100004196167,11.8100004196167,197900
2019-01-23,11.760000228881836,11.899999618530273,11.720000267028809,11.899999618530273,11.899999618530273,92900
2019-01-24,11.880000114440918,11.880000114440918,11.520000457763672,11.579999923706055,11.579999923706055,80900
2019-01-25,11.60099983215332,11.66100025177002,11.600000381469727,11.630000114440918,11.630000114440918,47900
2019-01-28,11.65999984741211,11.699999809265137,11.585000038146973,11.680000305175781,11.680000305175781,46400
2019-01-29,11.680000305175781,11.800000190734863,11.609999656677246,11.760000228881836,11.760000228881836,62700
2019-01-30,11.789999961853027,11.789999961853027,11.649999618530273,11.6899995803833,11.6899995803833,82000
2019-01-31,11.701000213623047,11.800000190734863,11.550000190734863,11.595000267028809,11.595000267028809,68800
2019-02-01,11.600000381469727,11.680000305175781,11.555999755859375,11.59000015258789,11.59000015258789,69700
2019-02-04,11.539999961853027,11.630000114440918,11.520000457763672,11.520000457763672,11.520000457763672,29100
2019-02-05,11.529999732971191,11.550000190734863,11.460000038146973,11.550000190734863,11.550000190734863,42300
2019-02-06,11.555999755859375,11.555999755859375,11.420000076293945,11.479999542236328,11.479999542236328,33300
2019-02-07,11.5,11.5,11.3100004196167,11.404999732971191,11.404999732971191,41600
2019-02-08,11.350000381469727,11.479999542236328,11.350000381469727,11.4399995803833,11.4399995803833,13100
2019-02-11,11.470000267028809,11.630000114440918,11.392000198364258,11.630000114440918,11.630000114440918,80600
2019-02-12,11.630000114440918,11.630000114440918,11.425000190734863,11.5600004196167,11.5600004196167,37700
2019-02-13,11.470000267028809,11.59000015258789,11.470000267028809,11.59000015258789,11.59000015258789,10000
2019-02-14,11.59000015258789,11.600000381469727,11.479999542236328,11.600000381469727,11.600000381469727,5700
2019-02-15,11.59000015258789,11.619999885559082,11.550999641418457,11.619999885559082,11.619999885559082,12600
2019-02-19,11.600000381469727,11.75,11.5649995803833,11.739999771118164,11.739999771118164,26000
2019-02-20,11.682000160217285,11.729999542236328,11.54800033569336,11.680000305175781,11.680000305175781,9900
2019-02-21,11.680000305175781,11.729999542236328,11.609999656677246,11.729999542236328,11.729999542236328,13400
2019-02-22,11.720000267028809,11.800000190734863,11.654999732971191,11.800000190734863,11.800000190734863,27000
2019-02-25,11.710000038146973,11.800000190734863,11.65999984741211,11.800000190734863,11.800000190734863,9800
2019-02-26,11.789999961853027,11.850000381469727,11.711999893188477,11.850000381469727,11.850000381469727,14400
2019-02-27,11.880000114440918,11.899999618530273,11.840999603271484,11.899999618530273,11.899999618530273,500
2019-02-28,11.899999618530273,11.899999618530273,11.833999633789062,11.833999633789062,11.833999633789062,200
2019-03-01,11.890000343322754,11.890000343322754,11.838000297546387,11.880000114440918,11.880000114440918,5100
2019-03-04,11.760000228881836,11.890000343322754,11.75,11.75,11.75,10700
2019-03-05,11.760000228881836,11.869999885559082,11.75,11.869999885559082,11.869999885559082,8400
2019-03-06,11.770000457763672,11.890000343322754,11.75,11.760000228881836,11.760000228881836,5200
2019-03-07,11.890000343322754,11.890000343322754,11.699999809265137,11.699999809265137,11.699999809265137,60400
2019-03-08,11.670000076293945,11.789999961853027,11.670000076293945,11.789999961853027,11.789999961853027,36100
2019-03-11,11.680000305175781,11.84000015258789,11.649999618530273,11.649999618530273,11.649999618530273,43800
2019-03-12,11.819999694824219,11.84000015258789,11.699999809265137,11.75,11.75,27900
2019-03-13,11.739999771118164,11.899999618530273,11.680000305175781,11.8100004196167,11.8100004196167,41300
2019-03-14,11.899999618530273,12.029999732971191,11.710000038146973,12.029999732971191,12.029999732971191,66200
2019-03-15,11.902000427246094,12.300000190734863,11.359999656677246,11.359999656677246,11.359999656677246,129400
2019-03-18,11.779999732971191,12.149999618530273,11.630000114440918,12.149999618530273,12.149999618530273,82900
2019-03-19,12.0,12.149999618530273,11.869999885559082,12.079999923706055,12.079999923706055,18700
2019-03-20,11.96500015258789,12.149999618530273,11.899999618530273,12.140000343322754,12.140000343322754,3500
2019-03-21,11.850000381469727,12.098999977111816,11.649999618530273,11.899999618530273,11.899999618530273,20600
2019-03-22,11.800000190734863,12.0,11.734999656677246,12.0,12.0,13400
2019-03-25,11.75,11.918000221252441,11.649999618530273,11.649999618530273,11.649999618530273,8100
2019-03-26,11.779999732971191,11.779999732971191,11.649999618530273,11.699999809265137,11.699999809265137,6300
2019-03-27,11.649999618530273,11.729999542236328,11.649999618530273,11.699999809265137,11.699999809265137,2900
2019-03-28,11.649999618530273,11.800000190734863,11.649999618530273,11.800000190734863,11.800000190734863,2300
2019-03-29,11.789999961853027,12.0,11.710000038146973,12.0,12.0,12500
2019-04-01,12.0,12.100000381469727,11.680000305175781,12.050000190734863,12.050000190734863,38800
2019-04-02,11.90999984741211,11.949999809265137,11.819999694824219,11.949999809265137,11.949999809265137,9900
2019-04-03,11.760000228881836,12.100000381469727,11.760000228881836,12.0,12.0,4000
2019-04-04,11.73799991607666,12.0,11.73799991607666,12.0,12.0,16100
2019-04-05,12.0,12.0,11.75,11.8100004196167,11.8100004196167,12700
2019-04-08,11.979999542236328,11.979999542236328,11.920000076293945,11.920000076293945,11.920000076293945,700
2019-04-09,11.84000015258789,11.885000228881836,11.789999961853027,11.885000228881836,11.885000228881836,1800
2019-04-10,11.850000381469727,11.899999618530273,11.850000381469727,11.899999618530273,11.899999618530273,2500
2019-04-11,11.770000457763672,11.869999885559082,11.649999618530273,11.869999885559082,11.869999885559082,1400
2019-04-12,11.890000343322754,12.0,11.727999687194824,11.819999694824219,11.819999694824219,5000
2019-04-15,11.770000457763672,11.800000190734863,11.609999656677246,11.720000267028809,11.720000267028809,33200
2019-04-16,11.819999694824219,12.0,11.75,11.75,11.75,2300
2019-04-17,11.720000267028809,11.800000190734863,11.65999984741211,11.65999984741211,11.65999984741211,2900
2019-04-18,11.640999794006348,11.920000076293945,11.612000465393066,11.920000076293945,11.920000076293945,2200
2019-04-22,11.920000076293945,11.920000076293945,11.920000076293945,11.920000076293945,11.920000076293945,300
2019-04-23,11.789999961853027,11.800000190734863,11.649999618530273,11.800000190734863,11.800000190734863,29000
2019-04-24,11.800000190734863,11.800000190734863,11.649999618530273,11.649999618530273,11.649999618530273,2100
2019-04-25,11.649999618530273,11.800000190734863,11.649999618530273,11.65999984741211,11.65999984741211,11700
2019-04-26,11.800000190734863,11.800000190734863,11.65999984741211,11.789999961853027,11.789999961853027,6300
2019-04-29,11.720000267028809,11.75,11.6899995803833,11.739999771118164,11.739999771118164,1000
2019-04-30,11.75,11.75,11.649999618530273,11.699999809265137,11.699999809265137,7600
2019-05-01,11.673999786376953,11.75,11.670000076293945,11.75,11.75,1200
2019-05-02,11.75,11.75,11.75,11.75,11.75,200
2019-05-03,11.699999809265137,11.75,11.699999809265137,11.699999809265137,11.699999809265137,15300
2019-05-06,11.670000076293945,11.770000457763672,11.649999618530273,11.649999618530273,11.649999618530273,24000
2019-05-07,11.65999984741211,11.725000381469727,11.649999618530273,11.680000305175781,11.680000305175781,28600
2019-05-08,11.6899995803833,11.6899995803833,11.680000305175781,11.6899995803833,11.6899995803833,2100
2019-05-09,11.699999809265137,11.699999809265137,11.65999984741211,11.699999809265137,11.699999809265137,1700
2019-05-10,11.699999809265137,11.699999809265137,11.65999984741211,11.699999809265137,11.699999809265137,7300
2019-05-13,11.682999610900879,11.699999809265137,11.649999618530273,11.680000305175781,11.680000305175781,27500
2019-05-14,11.649999618530273,11.649999618530273,11.625,11.649999618530273,11.649999618530273,34900
2019-05-15,11.664999961853027,11.6899995803833,11.661999702453613,11.6899995803833,11.6899995803833,2700
2019-05-16,11.600000381469727,11.600000381469727,11.380000114440918,11.380000114440918,11.380000114440918,25300
2019-05-17,11.324999809265137,11.640000343322754,11.305999755859375,11.640000343322754,11.640000343322754,4200
2019-05-20,11.470000267028809,11.470000267028809,11.149999618530273,11.270000457763672,11.270000457763672,4200
2019-05-21,11.289999961853027,11.300000190734863,11.190999984741211,11.220000267028809,11.220000267028809,9200
2019-05-22,11.197999954223633,11.270000457763672,11.170000076293945,11.229999542236328,11.229999542236328,17300
2019-05-23,11.210000038146973,11.210000038146973,11.100000381469727,11.149999618530273,11.149999618530273,13100
2019-05-24,11.109999656677246,11.15999984741211,11.050000190734863,11.0600004196167,11.0600004196167,35700
2019-05-28,11.0600004196167,11.0600004196167,10.989999771118164,11.029999732971191,11.029999732971191,20000
2019-05-29,11.020000457763672,11.039999961853027,10.850000381469727,10.930000305175781,10.930000305175781,6600
2019-05-30,10.930000305175781,10.930000305175781,10.649999618530273,10.779999732971191,10.779999732971191,18400
2019-05-31,10.723999977111816,11.097999572753906,10.675000190734863,10.800000190734863,10.800000190734863,21200
2019-06-03,10.890000343322754,11.380000114440918,10.75,11.279999732971191,11.279999732971191,37000
2019-06-04,11.25,11.25,10.899999618530273,10.930000305175781,10.930000305175781,38500
2019-06-05,10.920000076293945,10.9399995803833,10.892000198364258,10.9399995803833,10.9399995803833,11000
2019-06-06,11.020000457763672,11.024999618530273,10.850000381469727,10.869999885559082,10.869999885559082,6900
2019-06-07,10.890000343322754,10.890000343322754,10.850000381469727,10.869999885559082,10.869999885559082,4200
2019-06-10,10.899999618530273,11.177000045776367,10.800000190734863,10.850000381469727,10.850000381469727,12400
2019-06-11,10.819999694824219,10.904000282287598,10.670000076293945,10.904000282287598,10.904000282287598,11300
2019-06-12,10.800000190734863,10.92199993133545,10.800000190734863,10.800000190734863,10.800000190734863,6400
2019-06-13,10.890000343322754,10.890000343322754,10.65999984741211,10.65999984741211,10.65999984741211,5200
2019-06-14,10.75,10.847999572753906,10.710000038146973,10.78600025177002,10.78600025177002,17100
2019-06-17,10.822999954223633,10.822999954223633,10.789999961853027,10.789999961853027,10.789999961853027,900
2019-06-18,10.800000190734863,10.855999946594238,10.800000190734863,10.82800006866455,10.82800006866455,3200
2019-06-19,10.82800006866455,10.82800006866455,10.82800006866455,10.82800006866455,10.82800006866455,100
2019-06-20,10.850000381469727,10.890000343322754,10.850000381469727,10.890000343322754,10.890000343322754,28600
2019-06-21,10.859999656677246,10.899999618530273,10.779999732971191,10.779999732971191,10.779999732971191,11200
2019-06-24,10.779999732971191,10.906000137329102,10.779999732971191,10.819999694824219,10.819999694824219,9200
2019-06-25,10.800000190734863,10.869999885559082,10.760000228881836,10.859999656677246,10.859999656677246,42900
2019-06-26,10.8100004196167,10.8100004196167,10.8100004196167,10.8100004196167,10.8100004196167,500
2019-06-27,10.890000343322754,11.100000381469727,10.890000343322754,11.09000015258789,11.09000015258789,31400
2019-06-28,11.15999984741211,11.170000076293945,10.96500015258789,11.020000457763672,11.020000457763672,7400
2019-07-01,10.960000038146973,10.979999542236328,10.760000228881836,10.8100004196167,10.8100004196167,13000
2019-07-02,10.890000343322754,11.020000457763672,10.890000343322754,10.9399995803833,10.9399995803833,8100
2019-07-03,10.9399995803833,10.9399995803833,10.9399995803833,10.9399995803833,10.9399995803833,0
2019-07-05,10.944999694824219,10.949999809265137,10.930000305175781,10.930000305175781,10.930000305175781,700
2019-07-08,10.975000381469727,10.989999771118164,10.949999809265137,10.979999542236328,10.979999542236328,7500
2019-07-09,10.979999542236328,11.0,10.770000457763672,10.770000457763672,10.770000457763672,14200
2019-07-10,10.869999885559082,10.960000038146973,10.869999885559082,10.920000076293945,10.920000076293945,1800
2019-07-11,10.960000038146973,10.979999542236328,10.899999618530273,10.949999809265137,10.949999809265137,10800
2019-07-12,10.949999809265137,11.0,10.90999984741211,10.90999984741211,10.90999984741211,1800
2019-07-15,10.899999618530273,10.920000076293945,10.899999618530273,10.904999732971191,10.904999732971191,16400
2019-07-16,10.90999984741211,10.920000076293945,10.90999984741211,10.920000076293945,10.920000076293945,400
2019-07-17,10.899999618530273,10.899999618530273,10.899999618530273,10.899999618530273,10.899999618530273,1000
2019-07-18,10.901000022888184,10.901000022888184,10.899999618530273,10.899999618530273,10.899999618530273,2100
2019-07-19,10.835000038146973,10.899999618530273,10.835000038146973,10.899999618530273,10.899999618530273,300
2019-07-22,10.899999618530273,10.949999809265137,10.899999618530273,10.899999618530273,10.899999618530273,1700
2019-07-23,10.899999618530273,10.899999618530273,10.899999618530273,10.899999618530273,10.899999618530273,200
2019-07-24,10.899999618530273,10.899999618530273,10.899999618530273,10.899999618530273,10.899999618530273,0
2019-07-25,10.899999618530273,10.914999961853027,10.899999618530273,10.899999618530273,10.899999618530273,9600
2019-07-26,10.949999809265137,10.949999809265137,10.899999618530273,10.899999618530273,10.899999618530273,5400
2019-07-29,10.800000190734863,11.0,10.800000190734863,10.800000190734863,10.800000190734863,2900
2019-07-30,10.979999542236328,10.979999542236328,10.869999885559082,10.960000038146973,10.960000038146973,1100
2019-07-31,10.960000038146973,10.979999542236328,10.795999526977539,10.800000190734863,10.800000190734863,4900
2019-08-01,10.850000381469727,10.9399995803833,10.850000381469727,10.850000381469727,10.850000381469727,1400
2019-08-02,10.850000381469727,10.9399995803833,10.850000381469727,10.850000381469727,10.850000381469727,100
2019-08-05,10.859999656677246,10.859999656677246,10.836000442504883,10.836000442504883,10.836000442504883,500
2019-08-06,10.859000205993652,10.949999809265137,10.800000190734863,10.800000190734863,10.800000190734863,5700
2019-08-07,10.949999809265137,10.949999809265137,10.949999809265137,10.949999809265137,10.949999809265137,400
2019-08-08,10.800000190734863,10.930000305175781,10.800000190734863,10.800000190734863,10.800000190734863,2600
2019-08-09,10.9399995803833,10.9399995803833,10.8100004196167,10.8100004196167,10.8100004196167,300
2019-08-12,10.9399995803833,10.9399995803833,10.9399995803833,10.9399995803833,10.9399995803833,3100
2019-08-13,10.899999618530273,10.906999588012695,10.850000381469727,10.850000381469727,10.850000381469727,5000
2019-08-14,10.899999618530273,10.899999618530273,10.899999618530273,10.899999618530273,10.899999618530273,900
2019-08-15,10.899999618530273,10.899999618530273,10.800000190734863,10.800000190734863,10.800000190734863,1700
2019-08-16,10.949999809265137,10.949999809265137,10.850000381469727,10.949999809265137,10.949999809265137,13900
2019-08-19,10.90999984741211,10.949999809265137,10.800000190734863,10.899999618530273,10.899999618530273,700
2019-08-20,10.899999618530273,10.899999618530273,10.899999618530273,10.899999618530273,10.899999618530273,0
2019-08-21,10.850000381469727,10.850000381469727,10.800000190734863,10.800000190734863,10.800000190734863,600
2019-08-22,10.861000061035156,10.930000305175781,10.800000190734863,10.800000190734863,10.800000190734863,5500
2019-08-23,10.850000381469727,10.899999618530273,10.649999618530273,10.777000427246094,10.777000427246094,17200
2019-08-26,10.694999694824219,10.694999694824219,10.600000381469727,10.609999656677246,10.609999656677246,1100
2019-08-27,10.630000114440918,10.630000114440918,10.600000381469727,10.609999656677246,10.609999656677246,3900
2019-08-28,10.609999656677246,10.807000160217285,10.609999656677246,10.619999885559082,10.619999885559082,5100
2019-08-29,10.722000122070312,10.722000122070312,10.722000122070312,10.722000122070312,10.722000122070312,300
2019-08-30,10.680000305175781,10.680000305175781,10.619999885559082,10.619999885559082,10.619999885559082,700
2019-09-03,10.75,10.75,10.625,10.649999618530273,10.649999618530273,3700
2019-09-04,10.6899995803833,10.699999809265137,10.6850004196167,10.699999809265137,10.699999809265137,4700
2019-09-05,10.800000190734863,10.800000190734863,10.600000381469727,10.619999885559082,10.619999885559082,800
2019-09-06,10.718999862670898,10.718999862670898,10.5,10.5,10.5,16700
2019-09-09,10.550000190734863,10.600000381469727,10.5,10.579999923706055,10.579999923706055,10800
2019-09-10,10.59000015258789,10.600000381469727,10.548999786376953,10.548999786376953,10.548999786376953,1500
2019-09-11,10.729999542236328,10.75,10.729999542236328,10.75,10.75,600
2019-09-12,10.75,10.75,10.75,10.75,10.75,0
2019-09-13,10.699999809265137,10.699999809265137,10.510000228881836,10.529999732971191,10.529999732971191,3900
2019-09-16,10.649999618530273,10.649999618530273,10.5,10.520000457763672,10.520000457763672,2400
2019-09-17,10.5,10.579999923706055,10.5,10.5,10.5,1500
2019-09-18,10.567000389099121,10.579999923706055,10.5,10.5,10.5,1900
2019-09-19,10.539999961853027,10.670999526977539,10.5,10.5,10.5,4700
2019-09-20,10.567999839782715,10.567999839782715,10.25,10.420000076293945,10.420000076293945,24600
2019-09-23,10.289999961853027,10.505000114440918,10.289999961853027,10.40999984741211,10.40999984741211,5800
2019-09-24,10.350000381469727,10.4399995803833,10.350000381469727,10.399999618530273,10.399999618530273,12200
2019-09-25,10.399999618530273,10.489999771118164,10.399999618530273,10.399999618530273,10.399999618530273,2400
2019-09-26,10.399999618530273,10.399999618530273,10.399999618530273,10.399999618530273,10.399999618530273,200
2019-09-27,10.399999618530273,10.430999755859375,10.399999618530273,10.399999618530273,10.399999618530273,1100
2019-09-30,10.399999618530273,10.699999809265137,10.399999618530273,10.699999809265137,10.699999809265137,10500
2019-10-01,10.467000007629395,10.6899995803833,10.467000007629395,10.6899995803833,10.6899995803833,300
2019-10-02,10.399999618530273,10.680000305175781,10.399999618530273,10.399999618530273,10.399999618530273,1900
2019-10-03,10.399999618530273,10.399999618530273,10.399999618530273,10.399999618530273,10.399999618530273,100
2019-10-04,10.449999809265137,10.5,10.444999694824219,10.5,10.5,2100
2019-10-07,10.430000305175781,10.75,10.399999618530273,10.420000076293945,10.420000076293945,3100
2019-10-08,10.420000076293945,10.420000076293945,10.420000076293945,10.420000076293945,10.420000076293945,100
2019-10-09,10.420000076293945,10.420000076293945,10.420000076293945,10.420000076293945,10.420000076293945,200
2019-10-10,10.40999984741211,10.468000411987305,10.40999984741211,10.420000076293945,10.420000076293945,400
2019-10-11,10.6899995803833,10.6899995803833,10.670000076293945,10.670000076293945,10.670000076293945,200
2019-10-14,10.420000076293945,10.600000381469727,10.420000076293945,10.579999923706055,10.579999923706055,2600
2019-10-15,10.600000381469727,10.600000381469727,10.420000076293945,10.600000381469727,10.600000381469727,500
2019-10-16,10.600000381469727,10.600000381469727,10.600000381469727,10.600000381469727,10.600000381469727,100
2019-10-17,10.680000305175781,10.699999809265137,10.550000190734863,10.699999809265137,10.699999809265137,1000
2019-10-18,10.479999542236328,10.479999542236328,10.479999542236328,10.479999542236328,10.479999542236328,1400
2019-10-21,10.529999732971191,10.529999732971191,10.484999656677246,10.484999656677246,10.484999656677246,14600
2019-10-22,10.534000396728516,10.720000267028809,10.479999542236328,10.720000267028809,10.720000267028809,13300
2019-10-23,10.748000144958496,10.75,10.687000274658203,10.687000274658203,10.687000274658203,1600
2019-10-24,10.645000457763672,10.680000305175781,10.609999656677246,10.609999656677246,10.609999656677246,900
2019-10-25,10.642999649047852,10.649999618530273,10.642999649047852,10.649999618530273,10.649999618530273,3400
2019-10-28,10.739999771118164,10.739999771118164,10.496000289916992,10.675000190734863,10.675000190734863,2500
2019-10-29,10.687999725341797,10.687999725341797,10.430000305175781,10.430000305175781,10.430000305175781,1600
2019-10-30,10.670000076293945,10.680000305175781,10.595999717712402,10.640000343322754,10.640000343322754,2400
2019-10-31,10.484000205993652,10.600000381469727,10.270000457763672,10.270000457763672,10.270000457763672,11200
2019-11-01,10.529999732971191,10.630000114440918,10.380000114440918,10.572999954223633,10.572999954223633,30500
2019-11-04,10.536999702453613,10.680000305175781,10.536999702453613,10.680000305175781,10.680000305175781,6800
2019-11-05,10.65999984741211,10.6899995803833,10.454000473022461,10.6899995803833,10.6899995803833,4000
2019-11-06,10.572999954223633,10.75,10.494999885559082,10.75,10.75,5100
2019-11-07,10.75,10.75,10.581999778747559,10.75,10.75,7500
2019-11-08,10.75,10.75,10.704999923706055,10.75,10.75,11400
2019-11-11,10.75,10.75,10.52299976348877,10.625,10.625,9000
2019-11-12,10.720000267028809,10.75,10.496999740600586,10.75,10.75,5100
2019-11-13,10.75,10.755000114440918,10.600000381469727,10.670000076293945,10.670000076293945,12600
2019-11-14,10.710000038146973,10.75,10.664999961853027,10.75,10.75,5600
2019-11-15,10.75,10.770000457763672,10.579999923706055,10.579999923706055,10.579999923706055,11400
2019-11-18,10.720000267028809,10.890000343322754,10.720000267028809,10.890000343322754,10.890000343322754,4700
2019-11-19,10.82699966430664,10.949999809265137,10.82699966430664,10.949999809265137,10.949999809265137,6500
2019-11-20,10.930000305175781,10.949999809265137,10.859999656677246,10.859999656677246,10.859999656677246,6600
2019-11-21,10.92300033569336,10.92300033569336,10.859999656677246,10.859999656677246,10.859999656677246,6000
2019-11-22,10.890000343322754,10.899999618530273,10.84000015258789,10.880000114440918,10.880000114440918,5900
2019-11-25,10.84000015258789,10.899999618530273,10.819999694824219,10.819999694824219,10.819999694824219,3200
2019-11-26,10.866000175476074,10.885000228881836,10.850000381469727,10.850000381469727,10.850000381469727,700
2019-11-27,10.83899974822998,10.850000381469727,10.83899974822998,10.850000381469727,10.850000381469727,1400
2019-11-29,10.819999694824219,10.819999694824219,10.819999694824219,10.819999694824219,10.819999694824219,100
2019-12-02,10.77400016784668,10.819999694824219,10.770000457763672,10.819999694824219,10.819999694824219,6900
2019-12-03,10.770000457763672,10.770000457763672,10.770000457763672,10.770000457763672,10.770000457763672,100
2019-12-04,10.73900032043457,10.75,10.710000038146973,10.710000038146973,10.710000038146973,3100
2019-12-05,10.722000122070312,10.850000381469727,10.710000038146973,10.850000381469727,10.850000381469727,1100
2019-12-06,10.84000015258789,10.899999618530273,10.8100004196167,10.8100004196167,10.8100004196167,1500
2019-12-09,10.925999641418457,10.925999641418457,10.829999923706055,10.829999923706055,10.829999923706055,1100
2019-12-10,10.829999923706055,10.829999923706055,10.8100004196167,10.8100004196167,10.8100004196167,700
2019-12-11,10.829000473022461,10.829999923706055,10.829000473022461,10.829999923706055,10.829999923706055,1300
2019-12-12,10.8100004196167,10.8100004196167,10.8100004196167,10.8100004196167,10.8100004196167,600
2019-12-13,10.8100004196167,10.8100004196167,10.8100004196167,10.8100004196167,10.8100004196167,0
2019-12-16,10.819999694824219,10.899999618530273,10.819999694824219,10.880000114440918,10.880000114440918,18100
2019-12-17,10.880000114440918,10.880000114440918,10.880000114440918,10.880000114440918,10.880000114440918,0
2019-12-18,10.9399995803833,10.949999809265137,10.850000381469727,10.916000366210938,10.916000366210938,6100
2019-12-19,10.880000114440918,10.90999984741211,10.850000381469727,10.859999656677246,10.859999656677246,30600
2019-12-20,10.899999618530273,11.079999923706055,10.890000343322754,11.020000457763672,11.020000457763672,39000
2019-12-23,11.0,11.364999771118164,10.996000289916992,11.279999732971191,11.279999732971191,10200
2019-12-24,11.175999641418457,11.279999732971191,11.156000137329102,11.184000015258789,11.184000015258789,900
2019-12-26,11.12600040435791,11.220000267028809,11.12600040435791,11.220000267028809,11.220000267028809,1100
2019-12-27,11.154000282287598,11.180000305175781,11.154000282287598,11.180000305175781,11.180000305175781,1700
2019-12-30,11.116999626159668,11.359999656677246,11.116999626159668,11.3100004196167,11.3100004196167,4000
2019-12-31,11.199999809265137,11.4399995803833,11.199999809265137,11.3100004196167,11.3100004196167,1300
2020-01-02,11.3100004196167,11.319999694824219,11.279999732971191,11.3100004196167,11.3100004196167,6900
2020-01-03,11.270000457763672,11.416999816894531,11.199999809265137,11.199999809265137,11.199999809265137,4500
2020-01-06,11.399999618530273,11.399999618530273,11.229999542236328,11.229999542236328,11.229999542236328,900
2020-01-07,11.3100004196167,11.3100004196167,11.149999618530273,11.196999549865723,11.196999549865723,9000
2020-01-08,11.196999549865723,11.196999549865723,11.196999549865723,11.196999549865723,11.196999549865723,0
2020-01-09,11.220000267028809,11.369999885559082,11.109999656677246,11.369999885559082,11.369999885559082,10100
2020-01-10,11.194999694824219,11.390000343322754,11.130000114440918,11.390000343322754,11.390000343322754,3300
2020-01-13,11.390000343322754,11.390000343322754,11.390000343322754,11.390000343322754,11.390000343322754,0
2020-01-14,11.25,11.390000343322754,11.25,11.279999732971191,11.279999732971191,12300
2020-01-15,11.430000305175781,11.4399995803833,11.25,11.335000038146973,11.335000038146973,5100
2020-01-16,11.25,11.329999923706055,11.220000267028809,11.270000457763672,11.270000457763672,8800
2020-01-17,11.25,11.394000053405762,11.119999885559082,11.210000038146973,11.210000038146973,22200
2020-01-21,11.260000228881836,11.34000015258789,11.220000267028809,11.300000190734863,11.300000190734863,5200
2020-01-22,11.289999961853027,11.289999961853027,11.15999984741211,11.15999984741211,11.15999984741211,5900
2020-01-23,11.210000038146973,11.289999961853027,11.15999984741211,11.199999809265137,11.199999809265137,3700
2020-01-24,11.15999984741211,11.15999984741211,11.029999732971191,11.029999732971191,11.029999732971191,6600
2020-01-27,11.015999794006348,11.260000228881836,11.015999794006348,11.020000457763672,11.020000457763672,2000
2020-01-28,11.045999526977539,11.074999809265137,11.045999526977539,11.074999809265137,11.074999809265137,2600
2020-01-29,11.074999809265137,11.074999809265137,11.074999809265137,11.074999809265137,11.074999809265137,0
2020-01-30,11.069999694824219,11.069999694824219,11.0600004196167,11.069999694824219,11.069999694824219,1900
2020-01-31,11.079999923706055,11.079999923706055,11.069999694824219,11.069999694824219,11.069999694824219,1500
2020-02-03,11.010000228881836,11.020000457763672,11.0,11.0,11.0,1200
2020-02-04,10.949999809265137,10.949999809265137,10.90999984741211,10.90999984741211,10.90999984741211,6700
2020-02-05,10.930000305175781,10.930000305175781,10.930000305175781,10.930000305175781,10.930000305175781,500
2020-02-06,10.930000305175781,10.930000305175781,10.930000305175781,10.930000305175781,10.930000305175781,0
2020-02-07,10.890000343322754,10.890000343322754,10.890000343322754,10.890000343322754,10.890000343322754,1400
2020-02-10,10.890000343322754,11.239999771118164,10.878999710083008,10.90999984741211,10.90999984741211,11400
2020-02-11,10.979999542236328,11.079999923706055,10.90999984741211,11.079999923706055,11.079999923706055,1100
2020-02-12,11.100000381469727,11.100000381469727,11.100000381469727,11.100000381469727,11.100000381469727,200
2020-02-13,11.050000190734863,11.100000381469727,11.029999732971191,11.088000297546387,11.088000297546387,11000
2020-02-14,11.079999923706055,11.100000381469727,11.04699993133545,11.100000381469727,11.100000381469727,12600
2020-02-18,11.100000381469727,11.100000381469727,11.100000381469727,11.100000381469727,11.100000381469727,300
2020-02-19,11.100000381469727,11.102999687194824,10.949999809265137,10.949999809265137,10.949999809265137,3700
2020-02-20,10.970000267028809,11.25,10.970000267028809,11.229999542236328,11.229999542236328,14000
2020-02-21,11.229999542236328,11.229999542236328,11.229999542236328,11.229999542236328,11.229999542236328,0
2020-02-24,11.140000343322754,11.140000343322754,10.678999900817871,10.829999923706055,10.829999923706055,17200
2020-02-25,10.763999938964844,11.039999961853027,10.763999938964844,10.819999694824219,10.819999694824219,10100
2020-02-26,10.760000228881836,10.760000228881836,10.760000228881836,10.760000228881836,10.760000228881836,8600
2020-02-27,10.729999542236328,10.739999771118164,10.550000190734863,10.600000381469727,10.600000381469727,18200
2020-02-28,10.550000190734863,10.70199966430664,10.25,10.25,10.25,15100
2020-03-02,10.276000022888184,10.609999656677246,10.276000022888184,10.489999771118164,10.489999771118164,1800
2020-03-03,10.380000114440918,10.479999542236328,10.239999771118164,10.369999885559082,10.369999885559082,12900
2020-03-04,10.319999694824219,10.746999740600586,10.260000228881836,10.260000228881836,10.260000228881836,14500
2020-03-05,10.322999954223633,10.322999954223633,10.050000190734863,10.229999542236328,10.229999542236328,18200
2020-03-06,10.300999641418457,10.300999641418457,9.979000091552734,10.0,10.0,6700
2020-03-09,10.140000343322754,10.140000343322754,10.140000343322754,10.140000343322754,10.140000343322754,100
2020-03-10,9.989999771118164,10.128999710083008,9.25,10.050000190734863,10.050000190734863,16500
2020-03-11,9.800000190734863,9.859000205993652,9.25,9.359999656677246,9.359999656677246,12100
2020-03-12,10.399999618530273,10.399999618530273,7.75,7.760000228881836,7.760000228881836,13600
2020-03-13,8.9399995803833,9.5,8.899999618530273,9.270000457763672,9.270000457763672,2900
2020-03-16,9.270000457763672,9.270000457763672,9.270000457763672,9.270000457763672,9.270000457763672,0
2020-03-17,8.550000190734863,8.550000190734863,7.809999942779541,7.809999942779541,7.809999942779541,900
2020-03-18,7.579999923706055,7.640999794006348,7.25,7.25,7.25,6300
2020-03-19,7.230000019073486,7.239999771118164,6.929999828338623,6.929999828338623,6.929999828338623,3100
2020-03-20,7.170000076293945,7.170000076293945,6.929999828338623,6.940000057220459,6.940000057220459,4500
2020-03-23,6.630000114440918,6.630000114440918,6.260000228881836,6.460000038146973,6.460000038146973,4100
2020-03-24,6.389999866485596,6.510000228881836,6.320000171661377,6.400000095367432,6.400000095367432,2600
2020-03-25,6.550000190734863,6.550000190734863,5.900000095367432,6.03000020980835,6.03000020980835,28100
2020-03-26,5.960000038146973,6.849999904632568,5.960000038146973,6.840000152587891,6.840000152587891,5200
2020-03-27,6.556000232696533,6.6570000648498535,6.400000095367432,6.6570000648498535,6.6570000648498535,1400
2020-03-30,6.619999885559082,6.619999885559082,6.460000038146973,6.510000228881836,6.510000228881836,7200
2020-03-31,6.400000095367432,6.425000190734863,6.349999904632568,6.400000095367432,6.400000095367432,7500
2020-04-01,6.360000133514404,6.360000133514404,6.25,6.309999942779541,6.309999942779541,8400
2020-04-02,6.349999904632568,6.349999904632568,6.25,6.25,6.25,2300
2020-04-03,6.25,6.263999938964844,6.25,6.25,6.25,1700
2020-04-06,6.389999866485596,6.389999866485596,6.059999942779541,6.090000152587891,6.090000152587891,5600
2020-04-07,6.730000019073486,6.849999904632568,6.110000133514404,6.473999977111816,6.473999977111816,12400
2020-04-08,6.243000030517578,6.679999828338623,6.159999847412109,6.679999828338623,6.679999828338623,35900
2020-04-09,6.639999866485596,7.489999771118164,6.639999866485596,7.0,7.0,9800
2020-04-13,7.03000020980835,7.599999904632568,6.630000114440918,7.460000038146973,7.460000038146973,11600
2020-04-14,7.139999866485596,7.2210001945495605,6.849999904632568,6.860000133514404,6.860000133514404,9700
2020-04-15,6.822999954223633,6.853000164031982,6.510000228881836,6.590000152587891,6.590000152587891,6600
2020-04-16,6.480000019073486,6.556000232696533,6.130000114440918,6.25,6.25,15500
2020-04-17,6.333000183105469,6.333000183105469,6.170000076293945,6.170000076293945,6.170000076293945,9600
2020-04-20,6.150000095367432,6.324999809265137,6.150000095367432,6.324999809265137,6.324999809265137,500
2020-04-21,6.324999809265137,6.324999809265137,6.324999809265137,6.324999809265137,6.324999809265137,0
2020-04-22,6.159999847412109,6.159999847412109,6.099999904632568,6.119999885559082,6.119999885559082,10700
2020-04-23,6.244999885559082,6.486999988555908,6.244999885559082,6.480000019073486,6.480000019073486,4400
2020-04-24,6.159999847412109,6.382999897003174,6.119999885559082,6.382999897003174,6.382999897003174,1000
2020-04-27,6.46999979019165,6.5,6.389999866485596,6.389999866485596,6.389999866485596,500
2020-04-28,6.5,6.980000019073486,6.4670000076293945,6.760000228881836,6.760000228881836,7500
2020-04-29,7.105999946594238,7.349999904632568,7.010000228881836,7.150000095367432,7.150000095367432,5100
2020-04-30,7.300000190734863,7.5,6.849999904632568,7.099999904632568,7.099999904632568,13000
2020-05-01,7.010000228881836,7.449999809265137,7.0,7.380000114440918,7.380000114440918,4800
2020-05-04,7.380000114440918,7.380000114440918,7.380000114440918,7.380000114440918,7.380000114440918,0
2020-05-05,7.260000228881836,7.380000114440918,7.25,7.380000114440918,7.380000114440918,1400
2020-05-06,7.380000114440918,7.380000114440918,7.380000114440918,7.380000114440918,7.380000114440918,0
2020-05-07,7.349999904632568,7.840000152587891,7.349999904632568,7.820000171661377,7.820000171661377,5800
2020-05-08,7.849999904632568,7.849999904632568,7.829999923706055,7.849999904632568,7.849999904632568,2200
2020-05-11,7.059999942779541,7.710000038146973,7.059999942779541,7.25,7.25,8800
2020-05-12,7.289999961853027,7.510000228881836,7.260000228881836,7.510000228881836,7.510000228881836,700
2020-05-13,7.435999870300293,7.482999801635742,7.0,7.070000171661377,7.070000171661377,3800
2020-05-14,7.0,7.0329999923706055,6.900000095367432,6.909999847412109,6.909999847412109,3100
2020-05-15,6.951000213623047,7.5,6.951000213623047,7.480000019073486,7.480000019073486,1400
2020-05-18,6.820000171661377,7.440000057220459,6.755000114440918,6.840000152587891,6.840000152587891,1300
2020-05-19,6.809999942779541,6.900000095367432,6.809999942779541,6.900000095367432,6.900000095367432,600
2020-05-20,7.260000228881836,7.260000228881836,7.019999980926514,7.199999809265137,7.199999809265137,900
2020-05-21,6.9629998207092285,7.145999908447266,6.900000095367432,6.900000095367432,6.900000095367432,2000
2020-05-22,6.900000095367432,7.119999885559082,6.900000095367432,7.119999885559082,7.119999885559082,3200
2020-05-26,7.090000152587891,7.510000228881836,7.010000228881836,7.010000228881836,7.010000228881836,2000
2020-05-27,7.079999923706055,7.079999923706055,6.690000057220459,6.75,6.75,14300
2020-05-28,6.849999904632568,7.449999809265137,6.639999866485596,6.639999866485596,6.639999866485596,3600
2020-05-29,6.800000190734863,7.34499979019165,6.679999828338623,6.710000038146973,6.710000038146973,11400
2020-06-01,6.710000038146973,6.710000038146973,6.710000038146973,6.710000038146973,6.710000038146973,0
2020-06-02,6.710000038146973,6.710000038146973,6.710000038146973,6.710000038146973,6.710000038146973,0
2020-06-03,6.791999816894531,6.900000095367432,6.78000020980835,6.789999961853027,6.789999961853027,1800
2020-06-04,7.070000171661377,7.159999847412109,6.840000152587891,7.159999847412109,7.159999847412109,2500
2020-06-05,7.0,7.230000019073486,7.0,7.21999979019165,7.21999979019165,900
2020-06-08,7.239999771118164,7.239999771118164,7.03000020980835,7.150000095367432,7.150000095367432,1900
2020-06-09,7.054999828338623,7.070000171661377,7.0,7.0,7.0,1400
2020-06-10,7.0,7.0,7.0,7.0,7.0,600
2020-06-11,7.0,7.0,7.0,7.0,7.0,0
2020-06-12,7.0,7.0,7.0,7.0,7.0,0
2020-06-15,7.13700008392334,7.13700008392334,7.13700008392334,7.13700008392334,7.13700008392334,600
2020-06-16,6.940000057220459,6.940000057220459,6.940000057220459,6.940000057220459,6.940000057220459,200
2020-06-17,6.940000057220459,6.940000057220459,6.940000057220459,6.940000057220459,6.940000057220459,100
2020-06-18,6.75,6.783999919891357,6.710000038146973,6.71999979019165,6.71999979019165,11800
2020-06-19,6.760000228881836,6.840000152587891,6.760000228881836,6.840000152587891,6.840000152587891,5200
2020-06-22,6.849999904632568,6.849999904632568,6.849999904632568,6.849999904632568,6.849999904632568,400
2020-06-23,6.760000228881836,7.144000053405762,6.760000228881836,6.843999862670898,6.843999862670898,54200
2020-06-24,6.829999923706055,7.079999923706055,6.829999923706055,7.079999923706055,7.079999923706055,1100
2020-06-25,6.815999984741211,6.815999984741211,6.815999984741211,6.815999984741211,6.815999984741211,200
2020-06-26,6.875,6.875,6.699999809265137,6.699999809265137,6.699999809265137,900
2020-06-29,6.736999988555908,6.739999771118164,6.610000133514404,6.610000133514404,6.610000133514404,4700
2020-06-30,6.670000076293945,6.670000076293945,6.559999942779541,6.559999942779541,6.559999942779541,5700
2020-07-01,6.53000020980835,6.769999980926514,6.53000020980835,6.610000133514404,6.610000133514404,2900
2020-07-02,6.510000228881836,6.533999919891357,6.510000228881836,6.53000020980835,6.53000020980835,4000
2020-07-06,6.735000133514404,6.739999771118164,6.644999980926514,6.660999774932861,6.660999774932861,2200
2020-07-07,6.559999942779541,6.690000057220459,6.559999942779541,6.559999942779541,6.559999942779541,5700
2020-07-08,6.697999954223633,6.730999946594238,6.559999942779541,6.559999942779541,6.559999942779541,3700
2020-07-09,6.605000019073486,6.605000019073486,6.605000019073486,6.605000019073486,6.605000019073486,500
2020-07-10,6.519999980926514,6.625,6.519999980926514,6.625,6.625,600
2020-07-13,6.599999904632568,6.599999904632568,6.599999904632568,6.599999904632568,6.599999904632568,1000
2020-07-14,6.579999923706055,6.579999923706055,6.579999923706055,6.579999923706055,6.579999923706055,200
2020-07-15,6.639999866485596,6.75,6.599999904632568,6.610000133514404,6.610000133514404,8800
2020-07-16,6.610000133514404,6.610000133514404,6.510000228881836,6.599999904632568,6.599999904632568,23300
2020-07-17,6.599999904632568,6.599999904632568,6.519999980926514,6.535999774932861,6.535999774932861,11000
2020-07-20,6.599999904632568,6.599999904632568,6.519999980926514,6.579999923706055,6.579999923706055,5500
2020-07-21,6.579999923706055,6.599999904632568,6.559999942779541,6.599999904632568,6.599999904632568,10600
2020-07-22,6.599999904632568,6.599999904632568,6.599999904632568,6.599999904632568,6.599999904632568,0
2020-07-23,6.519999980926514,6.519999980926514,6.519999980926514,6.519999980926514,6.519999980926514,200
2020-07-24,6.5980000495910645,6.638000011444092,6.519999980926514,6.554999828338623,6.554999828338623,2500
2020-07-27,6.5320000648498535,6.5320000648498535,6.53000020980835,6.53000020980835,6.53000020980835,300
2020-07-28,6.53000020980835,6.53000020980835,6.53000020980835,6.53000020980835,6.53000020980835,0
2020-07-29,6.599999904632568,6.599999904632568,6.510000228881836,6.5320000648498535,6.5320000648498535,1100
2020-07-30,6.5320000648498535,6.5320000648498535,6.5320000648498535,6.5320000648498535,6.5320000648498535,0
2020-07-31,6.678999900817871,6.690000057220459,6.650000095367432,6.650000095367432,6.650000095367432,4800
2020-08-03,6.690000057220459,6.690000057220459,6.559999942779541,6.559999942779541,6.559999942779541,11900
2020-08-04,6.559999942779541,6.614999771118164,6.550000190734863,6.614999771118164,6.614999771118164,3300
2020-08-05,6.679999828338623,6.960000038146973,6.679999828338623,6.704999923706055,6.704999923706055,3200
2020-08-06,6.690000057220459,6.754000186920166,6.525000095367432,6.525000095367432,6.525000095367432,8600
2020-08-07,6.547999858856201,6.599999904632568,6.5,6.599999904632568,6.599999904632568,9600
2020-08-10,6.63700008392334,6.75,6.590000152587891,6.75,6.75,900
2020-08-11,6.980000019073486,6.980000019073486,6.75,6.900000095367432,6.900000095367432,8000
2020-08-12,6.639999866485596,6.789999961853027,6.639999866485596,6.789999961853027,6.789999961853027,2600
2020-08-13,6.789999961853027,6.789999961853027,6.789999961853027,6.789999961853027,6.789999961853027,0
2020-08-14,6.539999961853027,6.539999961853027,6.510000228881836,6.510000228881836,6.510000228881836,4100
2020-08-17,6.880000114440918,6.880000114440918,6.559999942779541,6.639999866485596,6.639999866485596,3500
2020-08-18,6.639999866485596,6.639999866485596,6.409999847412109,6.429999828338623,6.429999828338623,70800
2020-08-19,6.508999824523926,6.508999824523926,6.420000076293945,6.460000038146973,6.460000038146973,5600
2020-08-20,6.460000038146973,6.460000038146973,6.380000114440918,6.385000228881836,6.385000228881836,9200
2020-08-21,6.389999866485596,6.400000095367432,6.369999885559082,6.369999885559082,6.369999885559082,16100
2020-08-24,6.375,6.400000095367432,6.375,6.400000095367432,6.400000095367432,3900
2020-08-25,6.4670000076293945,6.650000095367432,6.460000038146973,6.574999809265137,6.574999809265137,16200
2020-08-26,6.639999866485596,6.650000095367432,6.59499979019165,6.599999904632568,6.599999904632568,5300
2020-08-27,6.534999847412109,6.724999904632568,6.534999847412109,6.679999828338623,6.679999828338623,5400
2020-08-28,6.820000171661377,6.889999866485596,6.644000053405762,6.860000133514404,6.860000133514404,29500
2020-08-31,6.889999866485596,6.889999866485596,6.53000020980835,6.53000020980835,6.53000020980835,7800
2020-09-01,6.684999942779541,6.829999923706055,6.510000228881836,6.53000020980835,6.53000020980835,10100
2020-09-02,6.599999904632568,6.599999904632568,6.46999979019165,6.599999904632568,6.599999904632568,16000
2020-09-03,6.46999979019165,6.559999942779541,6.420000076293945,6.420000076293945,6.420000076293945,11800
2020-09-04,6.449999809265137,6.449999809265137,6.40500020980835,6.409999847412109,6.409999847412109,6000
2020-09-08,6.400000095367432,6.4070000648498535,6.260000228881836,6.369999885559082,6.369999885559082,14500
2020-09-09,6.369999885559082,6.540999889373779,6.369999885559082,6.510000228881836,6.510000228881836,2000
2020-09-10,6.579999923706055,6.579999923706055,6.400000095367432,6.400000095367432,6.400000095367432,5000
2020-09-11,6.500999927520752,6.760000228881836,6.400000095367432,6.590000152587891,6.590000152587891,5000
2020-09-14,6.510000228881836,6.670000076293945,6.510000228881836,6.567999839782715,6.567999839782715,12200
2020-09-15,6.579999923706055,6.809000015258789,6.550000190734863,6.650000095367432,6.650000095367432,20400
2020-09-16,6.71999979019165,6.744999885559082,6.599999904632568,6.619999885559082,6.619999885559082,8800
2020-09-17,6.599999904632568,6.75,6.599999904632568,6.75,6.75,33000
2020-09-18,6.73799991607666,6.75,6.699999809265137,6.710000038146973,6.710000038146973,15100
2020-09-21,6.639999866485596,6.639999866485596,6.519999980926514,6.571000099182129,6.571000099182129,7700
2020-09-22,6.550000190734863,6.599999904632568,6.550000190734863,6.559999942779541,6.559999942779541,6100
2020-09-23,6.519999980926514,6.650000095367432,6.349999904632568,6.360000133514404,6.360000133514404,9400
2020-09-24,6.525000095367432,6.525000095367432,6.320000171661377,6.320000171661377,6.320000171661377,4200
2020-09-25,6.340000152587891,6.4120001792907715,6.320000171661377,6.349999904632568,6.349999904632568,3200
2020-09-28,6.369999885559082,6.494999885559082,6.349999904632568,6.369999885559082,6.369999885559082,7900
2020-09-29,6.369999885559082,6.369999885559082,6.369999885559082,6.369999885559082,6.369999885559082,0
2020-09-30,6.414999961853027,6.46999979019165,6.320000171661377,6.320000171661377,6.320000171661377,7100
2020-10-01,6.409999847412109,6.60699987411499,6.320000171661377,6.60699987411499,6.60699987411499,2000
2020-10-02,6.360000133514404,6.650000095367432,6.360000133514404,6.432000160217285,6.432000160217285,5000
2020-10-05,6.449999809265137,6.574999809265137,6.449999809265137,6.46999979019165,6.46999979019165,2800
2020-10-06,6.5,6.659999847412109,6.5,6.510000228881836,6.510000228881836,900
2020-10-07,6.618000030517578,7.190000057220459,6.561999797821045,7.099999904632568,7.099999904632568,29400
2020-10-08,6.860000133514404,6.980000019073486,6.809999942779541,6.840000152587891,6.840000152587891,3300
2020-10-09,6.949999809265137,7.059999942779541,6.909999847412109,6.993000030517578,6.993000030517578,1700
2020-10-12,7.070000171661377,7.079999923706055,7.0,7.0,7.0,2800
2020-10-13,7.0,7.050000190734863,7.0,7.050000190734863,7.050000190734863,2000
2020-10-14,7.050000190734863,7.099999904632568,7.040999889373779,7.054999828338623,7.054999828338623,4200
2020-10-15,7.0,7.0,6.855000019073486,7.0,7.0,2500
2020-10-16,6.730000019073486,7.0,6.730000019073486,6.929999828338623,6.929999828338623,5100
2020-10-19,6.929999828338623,6.929999828338623,6.929999828338623,6.929999828338623,6.929999828338623,100
2020-10-20,6.929999828338623,6.929999828338623,6.929999828338623,6.929999828338623,6.929999828338623,0
2020-10-21,7.0,7.0,6.860000133514404,6.875,6.875,2200
2020-10-22,6.867000102996826,7.0,6.864999771118164,6.864999771118164,6.864999771118164,9600
2020-10-23,6.989999771118164,6.989999771118164,6.989999771118164,6.989999771118164,6.989999771118164,1500
2020-10-26,6.889999866485596,7.0,6.889999866485596,7.0,7.0,5100
2020-10-27,6.75,6.820000171661377,6.735000133514404,6.800000190734863,6.800000190734863,4800
2020-10-28,6.75,6.756999969482422,6.739999771118164,6.756999969482422,6.756999969482422,11200
2020-10-29,6.800000190734863,7.0,6.800000190734863,6.909999847412109,6.909999847412109,23700
2020-10-30,6.824999809265137,6.920000076293945,6.71999979019165,6.71999979019165,6.71999979019165,28600
2020-11-02,6.800000190734863,6.900000095367432,6.765999794006348,6.900000095367432,6.900000095367432,13000
2020-11-03,6.989999771118164,7.0,6.949999809265137,7.0,7.0,5600
2020-11-04,7.0,7.130000114440918,7.0,7.090000152587891,7.090000152587891,2300
2020-11-05,7.061999797821045,7.099999904632568,7.061999797821045,7.099999904632568,7.099999904632568,3300
2020-11-06,7.019999980926514,7.039999961853027,7.010000228881836,7.039999961853027,7.039999961853027,2300
2020-11-09,7.25,7.505000114440918,7.150000095367432,7.199999809265137,7.199999809265137,3200
2020-11-10,7.389999866485596,7.389999866485596,7.329999923706055,7.329999923706055,7.329999923706055,1100
2020-11-11,7.340000152587891,7.59499979019165,7.340000152587891,7.420000076293945,7.420000076293945,1500
2020-11-12,7.110000133514404,7.110000133514404,7.079999923706055,7.110000133514404,7.110000133514404,600
2020-11-13,7.375,7.659999847412109,7.375,7.659999847412109,7.659999847412109,5100
2020-11-16,7.75,7.75,7.75,7.75,7.75,600
2020-11-17,7.769999980926514,7.769999980926514,7.760000228881836,7.760000228881836,7.760000228881836,700
2020-11-18,7.630000114440918,7.75,7.630000114440918,7.739999771118164,7.739999771118164,1200
2020-11-19,7.739999771118164,7.739999771118164,7.739999771118164,7.739999771118164,7.739999771118164,0
2020-11-20,7.769000053405762,7.769000053405762,7.769000053405762,7.769000053405762,7.769000053405762,400
2020-11-23,7.800000190734863,7.800000190734863,7.659999847412109,7.715000152587891,7.715000152587891,19700
2020-11-24,7.800000190734863,7.900000095367432,7.739999771118164,7.900000095367432,7.900000095367432,16300
2020-11-25,7.868000030517578,8.225000381469727,7.868000030517578,8.199999809265137,8.199999809265137,7700
2020-11-27,8.545000076293945,8.618000030517578,8.510000228881836,8.529999732971191,8.529999732971191,800
2020-11-30,9.152999877929688,9.274999618530273,8.65999984741211,9.020000457763672,9.020000457763672,3800
2020-12-01,8.902000427246094,8.902000427246094,8.767000198364258,8.767000198364258,8.767000198364258,800
2020-12-02,8.767000198364258,8.767000198364258,8.767000198364258,8.767000198364258,8.767000198364258,0
2020-12-03,8.201000213623047,8.899999618530273,8.201000213623047,8.489999771118164,8.489999771118164,4700
2020-12-04,8.390000343322754,8.996000289916992,8.350000381469727,8.996000289916992,8.996000289916992,10300
2020-12-07,8.795000076293945,8.795000076293945,8.399999618530273,8.399999618530273,8.399999618530273,1900
2020-12-08,8.479999542236328,8.774999618530273,8.479999542236328,8.774999618530273,8.774999618530273,800
2020-12-09,8.529999732971191,8.890000343322754,8.529999732971191,8.529999732971191,8.529999732971191,2000
2020-12-10,8.8100004196167,8.8100004196167,8.399999618530273,8.399999618530273,8.399999618530273,1100
2020-12-11,8.399999618530273,8.399999618530273,8.399999618530273,8.399999618530273,8.399999618530273,0
2020-12-14,8.708000183105469,8.708000183105469,8.708000183105469,8.708000183105469,8.708000183105469,500
2020-12-15,8.850000381469727,8.850000381469727,8.399999618530273,8.399999618530273,8.399999618530273,600
2020-12-16,8.960000038146973,8.960000038146973,8.5,8.5,8.5,700
2020-12-17,8.75,8.75,8.739999771118164,8.75,8.75,900
2020-12-18,8.75,8.75,8.5,8.5,8.5,5400
2020-12-21,8.800000190734863,8.800000190734863,8.399999618530273,8.420000076293945,8.420000076293945,2800
2020-12-22,8.699999809265137,8.699999809265137,8.510000228881836,8.579999923706055,8.579999923706055,23100
2020-12-23,8.510000228881836,8.649999618530273,8.449999809265137,8.449999809265137,8.449999809265137,1600
2020-12-24,8.449999809265137,8.449999809265137,8.449999809265137,8.449999809265137,8.449999809265137,0
2020-12-28,8.579999923706055,8.619999885559082,8.399999618530273,8.529999732971191,8.529999732971191,30200
2020-12-29,8.550000190734863,8.569999694824219,8.460000038146973,8.569999694824219,8.569999694824219,12600
2020-12-30,8.479999542236328,8.531000137329102,8.420000076293945,8.531000137329102,8.531000137329102,13100
