Date,Open,High,Low,Close,Adj Close,Volume
2018-03-27,6.400000095367432,7.0,6.050000190734863,6.199999809265137,6.199999809265137,156000
2018-03-28,6.0,6.199999809265137,5.230000019073486,5.730000019073486,5.730000019073486,141300
2018-03-29,5.25,6.099999904632568,5.050000190734863,6.099999904632568,6.099999904632568,92200
2018-04-02,6.099999904632568,6.949999809265137,5.670000076293945,6.949999809265137,6.949999809265137,125400
2018-04-03,6.949999809265137,7.199999809265137,6.809999942779541,7.110000133514404,7.110000133514404,83500
2018-04-04,7.070000171661377,7.679999828338623,7.070000171661377,7.599999904632568,7.599999904632568,74300
2018-04-05,7.269999980926514,7.5,7.150000095367432,7.239999771118164,7.239999771118164,105000
2018-04-06,6.989999771118164,8.050000190734863,6.869999885559082,7.880000114440918,7.880000114440918,87700
2018-04-09,7.889999866485596,9.770000457763672,7.889999866485596,9.510000228881836,9.510000228881836,186000
2018-04-10,9.050000190734863,9.449999809265137,8.3100004196167,9.149999618530273,9.149999618530273,89600
2018-04-11,8.970000267028809,9.079999923706055,8.8100004196167,8.829999923706055,8.829999923706055,42100
2018-04-12,8.5,8.859999656677246,8.100000381469727,8.300000190734863,8.300000190734863,64700
2018-04-13,8.300000190734863,8.920000076293945,7.650000095367432,7.849999904632568,7.849999904632568,68600
2018-04-16,7.860000133514404,7.860000133514404,6.934999942779541,7.110000133514404,7.110000133514404,46200
2018-04-17,7.119999885559082,7.489999771118164,7.090000152587891,7.170000076293945,7.170000076293945,52700
2018-04-18,7.190000057220459,7.815000057220459,7.099999904632568,7.670000076293945,7.670000076293945,58600
2018-04-19,7.730000019073486,8.199999809265137,7.53000020980835,7.800000190734863,7.800000190734863,66500
2018-04-20,7.590000152587891,8.180000305175781,7.46999979019165,7.610000133514404,7.610000133514404,32100
2018-04-23,7.590000152587891,7.599999904632568,7.146999835968018,7.289999961853027,7.289999961853027,15500
2018-04-24,7.360000133514404,7.820000171661377,6.369999885559082,6.650000095367432,6.650000095367432,63000
2018-04-25,6.679999828338623,6.800000190734863,6.38100004196167,6.389999866485596,6.389999866485596,33700
2018-04-26,6.400000095367432,6.798999786376953,6.150000095367432,6.21999979019165,6.21999979019165,34900
2018-04-27,6.170000076293945,6.300000190734863,6.099999904632568,6.300000190734863,6.300000190734863,72400
2018-04-30,6.139999866485596,6.440000057220459,6.099999904632568,6.300000190734863,6.300000190734863,43500
2018-05-01,6.260000228881836,6.260000228881836,6.0,6.090000152587891,6.090000152587891,45400
2018-05-02,5.824999809265137,6.050000190734863,5.618000030517578,5.949999809265137,5.949999809265137,61800
2018-05-03,5.909999847412109,5.961999893188477,5.739999771118164,5.860000133514404,5.860000133514404,52500
2018-05-04,5.820000171661377,5.909999847412109,5.329999923706055,5.800000190734863,5.800000190734863,65600
2018-05-07,5.679999828338623,5.840000152587891,5.409999847412109,5.460000038146973,5.460000038146973,86700
2018-05-08,5.449999809265137,5.5,5.150000095367432,5.239999771118164,5.239999771118164,103600
2018-05-09,5.21999979019165,5.409999847412109,4.960000038146973,5.0,5.0,97600
2018-05-10,5.050000190734863,5.159999847412109,4.349999904632568,4.559999942779541,4.559999942779541,785800
2018-05-11,4.380000114440918,5.25,4.380000114440918,5.25,5.25,316400
2018-05-14,5.25,5.889999866485596,5.005000114440918,5.670000076293945,5.670000076293945,172100
2018-05-15,5.71999979019165,10.050000190734863,5.666999816894531,9.9399995803833,9.9399995803833,2401400
2018-05-16,8.710000038146973,9.5,7.650000095367432,7.800000190734863,7.800000190734863,1324400
2018-05-17,7.840000152587891,9.0600004196167,7.199999809265137,7.510000228881836,7.510000228881836,695600
2018-05-18,7.730000019073486,8.880000114440918,7.5,7.710000038146973,7.710000038146973,738300
2018-05-21,7.599999904632568,8.0,7.119999885559082,7.53000020980835,7.53000020980835,192400
2018-05-22,7.590000152587891,8.380000114440918,7.380000114440918,7.849999904632568,7.849999904632568,333800
2018-05-23,7.860000133514404,8.270000457763672,7.809999942779541,8.09000015258789,8.09000015258789,215500
2018-05-24,8.130000114440918,8.149999618530273,7.434000015258789,7.840000152587891,7.840000152587891,230000
2018-05-25,7.800000190734863,7.800000190734863,7.440000057220459,7.510000228881836,7.510000228881836,128000
2018-05-29,7.440000057220459,7.679999828338623,7.039999961853027,7.269999980926514,7.269999980926514,112100
2018-05-30,7.090000152587891,7.409999847412109,7.090000152587891,7.190000057220459,7.190000057220459,60600
2018-05-31,7.199999809265137,7.300000190734863,7.050000190734863,7.25,7.25,43100
2018-06-01,7.300000190734863,7.940000057220459,7.195000171661377,7.909999847412109,7.909999847412109,153200
2018-06-04,8.0,8.48799991607666,7.479000091552734,7.619999885559082,7.619999885559082,131900
2018-06-05,7.679999828338623,7.820000171661377,7.53000020980835,7.630000114440918,7.630000114440918,46800
2018-06-06,7.639999866485596,7.940000057220459,7.465000152587891,7.739999771118164,7.739999771118164,40700
2018-06-07,7.820000171661377,7.965000152587891,7.800000190734863,7.880000114440918,7.880000114440918,62600
2018-06-08,7.75,8.399999618530273,7.75,8.210000038146973,8.210000038146973,146800
2018-06-11,8.180000305175781,8.180000305175781,7.789999961853027,7.920000076293945,7.920000076293945,138000
2018-06-12,8.1899995803833,8.899999618530273,8.020000457763672,8.220000267028809,8.220000267028809,233300
2018-06-13,8.359999656677246,8.359999656677246,8.020000457763672,8.170000076293945,8.170000076293945,86800
2018-06-14,8.260000228881836,8.300000190734863,7.460000038146973,7.78000020980835,7.78000020980835,132800
2018-06-15,7.679999828338623,7.730000019073486,7.460000038146973,7.519999980926514,7.519999980926514,43600
2018-06-18,7.769999980926514,7.769999980926514,7.300000190734863,7.360000133514404,7.360000133514404,54700
2018-06-19,7.639999866485596,7.639999866485596,7.300000190734863,7.429999828338623,7.429999828338623,57700
2018-06-20,7.420000076293945,7.940000057220459,7.28000020980835,7.480000019073486,7.480000019073486,148500
2018-06-21,7.440000057220459,7.848999977111816,7.409999847412109,7.690000057220459,7.690000057220459,102100
2018-06-22,7.690000057220459,8.199000358581543,7.690000057220459,8.15999984741211,8.15999984741211,404300
2018-06-25,8.239999771118164,9.699999809265137,8.149999618530273,9.199999809265137,9.199999809265137,551100
2018-06-26,9.149999618530273,9.399999618530273,8.520000457763672,8.800000190734863,8.800000190734863,123100
2018-06-27,8.920000076293945,8.972999572753906,8.25,8.300000190734863,8.300000190734863,86800
2018-06-28,8.239999771118164,8.795000076293945,8.199999809265137,8.680000305175781,8.680000305175781,50100
2018-06-29,8.90999984741211,8.960000038146973,8.50100040435791,8.600000381469727,8.600000381469727,52700
2018-07-02,8.649999618530273,8.979000091552734,8.489999771118164,8.899999618530273,8.899999618530273,52000
2018-07-03,8.880000114440918,11.149999618530273,8.880000114440918,9.170000076293945,9.170000076293945,553600
2018-07-05,9.180000305175781,9.446999549865723,8.520999908447266,8.949999809265137,8.949999809265137,93300
2018-07-06,9.050000190734863,9.800000190734863,9.050000190734863,9.3100004196167,9.3100004196167,127000
2018-07-09,9.289999961853027,9.583999633789062,9.055999755859375,9.109999656677246,9.109999656677246,51600
2018-07-10,9.100000381469727,9.125,8.100000381469727,8.149999618530273,8.149999618530273,204000
2018-07-11,8.100000381469727,8.520000457763672,8.100000381469727,8.300000190734863,8.300000190734863,59600
2018-07-12,8.350000381469727,8.399999618530273,7.949999809265137,8.069999694824219,8.069999694824219,51500
2018-07-13,8.0600004196167,8.25,8.0,8.039999961853027,8.039999961853027,24000
2018-07-16,8.0600004196167,8.234999656677246,7.815000057220459,8.0,8.0,31600
2018-07-17,7.960000038146973,8.239999771118164,7.460000038146973,7.519999980926514,7.519999980926514,84200
2018-07-18,7.510000228881836,7.730000019073486,7.5,7.53000020980835,7.53000020980835,34700
2018-07-19,7.550000190734863,8.119999885559082,7.550000190734863,8.010000228881836,8.010000228881836,33300
2018-07-20,8.079999923706055,8.079999923706055,7.5,7.659999847412109,7.659999847412109,73400
2018-07-23,7.639999866485596,7.960000038146973,7.099999904632568,7.179999828338623,7.179999828338623,93400
2018-07-24,7.050000190734863,7.400000095367432,6.730000019073486,7.0,7.0,72800
2018-07-25,7.03000020980835,7.480000019073486,7.015999794006348,7.46999979019165,7.46999979019165,24900
2018-07-26,7.420000076293945,7.664000034332275,7.099999904632568,7.550000190734863,7.550000190734863,9500
2018-07-27,7.559999942779541,7.659999847412109,7.25,7.599999904632568,7.599999904632568,25200
2018-07-30,7.550000190734863,7.550000190734863,7.159999847412109,7.300000190734863,7.300000190734863,14600
2018-07-31,7.300000190734863,7.46999979019165,7.150000095367432,7.239999771118164,7.239999771118164,23700
2018-08-01,7.289999961853027,7.440000057220459,7.210000038146973,7.369999885559082,7.369999885559082,10600
2018-08-02,7.429999828338623,7.440000057220459,7.110000133514404,7.309999942779541,7.309999942779541,10200
2018-08-03,7.300000190734863,7.659999847412109,7.300000190734863,7.599999904632568,7.599999904632568,37700
2018-08-06,7.599999904632568,7.789999961853027,7.3429999351501465,7.489999771118164,7.489999771118164,36600
2018-08-07,7.578000068664551,7.642000198364258,7.401000022888184,7.46999979019165,7.46999979019165,21400
2018-08-08,7.671000003814697,7.869999885559082,7.420000076293945,7.75,7.75,61700
2018-08-09,7.769999980926514,8.0,7.510000228881836,7.510000228881836,7.510000228881836,44600
2018-08-10,7.679999828338623,7.809999942779541,7.446000099182129,7.760000228881836,7.760000228881836,30800
2018-08-13,7.630000114440918,7.829999923706055,7.425000190734863,7.550000190734863,7.550000190734863,40200
2018-08-14,7.441999912261963,7.744999885559082,7.431000232696533,7.46999979019165,7.46999979019165,10600
2018-08-15,7.579999923706055,7.579999923706055,7.420000076293945,7.449999809265137,7.449999809265137,37600
2018-08-16,7.460000038146973,7.630000114440918,7.28000020980835,7.460000038146973,7.460000038146973,52500
2018-08-17,7.429999828338623,7.71999979019165,7.329999923706055,7.340000152587891,7.340000152587891,16500
2018-08-20,7.489999771118164,7.630000114440918,7.051000118255615,7.199999809265137,7.199999809265137,24500
2018-08-21,7.15500020980835,7.300000190734863,7.085999965667725,7.210000038146973,7.210000038146973,20400
2018-08-22,7.289999961853027,7.449999809265137,7.113999843597412,7.449999809265137,7.449999809265137,24700
2018-08-23,7.429999828338623,7.429999828338623,7.300000190734863,7.400000095367432,7.400000095367432,12200
2018-08-24,7.400000095367432,7.739999771118164,7.349999904632568,7.420000076293945,7.420000076293945,30100
2018-08-27,7.380000114440918,7.75,7.380000114440918,7.539999961853027,7.539999961853027,19700
2018-08-28,7.900000095367432,7.949999809265137,7.699999809265137,7.710000038146973,7.710000038146973,33200
2018-08-29,7.989999771118164,8.182000160217285,7.769999980926514,8.156000137329102,8.156000137329102,64500
2018-08-30,8.010000228881836,8.119999885559082,7.829999923706055,7.849999904632568,7.849999904632568,59000
2018-08-31,7.889999866485596,8.0,7.610000133514404,7.75,7.75,32500
2018-09-04,7.880000114440918,7.880000114440918,7.599999904632568,7.619999885559082,7.619999885559082,25900
2018-09-05,7.760000228881836,7.775000095367432,7.599999904632568,7.690000057220459,7.690000057220459,15000
2018-09-06,7.690000057220459,7.953999996185303,7.5,7.599999904632568,7.599999904632568,27700
2018-09-07,7.46999979019165,7.579999923706055,6.300000190734863,6.320000171661377,6.320000171661377,235100
2018-09-10,6.400000095367432,6.900000095367432,6.210000038146973,6.329999923706055,6.329999923706055,93600
2018-09-11,6.25,6.599999904632568,6.010000228881836,6.199999809265137,6.199999809265137,164500
2018-09-12,6.199999809265137,6.460000038146973,4.760000228881836,5.380000114440918,5.380000114440918,271400
2018-09-13,5.300000190734863,5.949999809265137,5.300000190734863,5.599999904632568,5.599999904632568,92400
2018-09-14,5.329999923706055,5.909999847412109,5.260000228881836,5.53000020980835,5.53000020980835,85200
2018-09-17,5.5,6.239999771118164,5.460000038146973,5.710000038146973,5.710000038146973,127600
2018-09-18,5.800000190734863,6.144999980926514,5.510000228881836,5.639999866485596,5.639999866485596,77300
2018-09-19,5.610000133514404,5.96999979019165,5.610000133514404,5.940000057220459,5.940000057220459,48600
2018-09-20,5.940000057220459,6.230000019073486,5.901000022888184,6.099999904632568,6.099999904632568,100900
2018-09-21,6.25,6.559999942779541,5.960000038146973,6.085000038146973,6.085000038146973,90400
2018-09-24,6.079999923706055,6.199999809265137,5.900000095367432,6.0,6.0,47600
2018-09-25,6.150000095367432,6.150000095367432,6.0,6.110000133514404,6.110000133514404,22300
2018-09-26,6.099999904632568,6.190000057220459,5.9720001220703125,6.019999980926514,6.019999980926514,22900
2018-09-27,6.0,6.170000076293945,5.989999771118164,6.150000095367432,6.150000095367432,47400
2018-09-28,6.059999942779541,6.699999809265137,6.0,6.510000228881836,6.510000228881836,43700
2018-10-01,6.25,6.650000095367432,6.139999866485596,6.199999809265137,6.199999809265137,33600
2018-10-02,6.150000095367432,6.5,6.099999904632568,6.349999904632568,6.349999904632568,22400
2018-10-03,6.460000038146973,6.559999942779541,6.349999904632568,6.409999847412109,6.409999847412109,24300
2018-10-04,6.380000114440918,6.459000110626221,6.25,6.320000171661377,6.320000171661377,22400
2018-10-05,6.010000228881836,6.380000114440918,5.949999809265137,6.150000095367432,6.150000095367432,63000
2018-10-08,6.25,6.53000020980835,6.139999866485596,6.320000171661377,6.320000171661377,24800
2018-10-09,6.210000038146973,6.53000020980835,6.0,6.349999904632568,6.349999904632568,50000
2018-10-10,6.230000019073486,6.25,5.989999771118164,6.050000190734863,6.050000190734863,34700
2018-10-11,6.0,6.190000057220459,5.451000213623047,6.019999980926514,6.019999980926514,83900
2018-10-12,6.050000190734863,6.329999923706055,5.75,5.889999866485596,5.889999866485596,36500
2018-10-15,5.769999980926514,6.400000095367432,5.480000019073486,5.599999904632568,5.599999904632568,23500
2018-10-16,5.599999904632568,5.820000171661377,5.599999904632568,5.699999809265137,5.699999809265137,3200
2018-10-17,5.650000095367432,6.040999889373779,5.46999979019165,5.920000076293945,5.920000076293945,31300
2018-10-18,5.449999809265137,5.872000217437744,5.449999809265137,5.5,5.5,44000
2018-10-19,5.5,5.980000019073486,5.5,5.599999904632568,5.599999904632568,12500
2018-10-22,5.670000076293945,5.900000095367432,5.460000038146973,5.670000076293945,5.670000076293945,22700
2018-10-23,5.510000228881836,5.880000114440918,5.449999809265137,5.697999954223633,5.697999954223633,30700
2018-10-24,5.590000152587891,5.699999809265137,5.230000019073486,5.309999942779541,5.309999942779541,22800
2018-10-25,5.389999866485596,5.599999904632568,5.190000057220459,5.46999979019165,5.46999979019165,11800
2018-10-26,5.389999866485596,5.699999809265137,5.218999862670898,5.599999904632568,5.599999904632568,4900
2018-10-29,5.300000190734863,5.630000114440918,5.300000190734863,5.579999923706055,5.579999923706055,21200
2018-10-30,5.489999771118164,5.960000038146973,5.489999771118164,5.53000020980835,5.53000020980835,17300
2018-10-31,5.670000076293945,5.889999866485596,5.453000068664551,5.889999866485596,5.889999866485596,37500
2018-11-01,5.829999923706055,6.050000190734863,5.458000183105469,6.0,6.0,25200
2018-11-02,5.920000076293945,6.239999771118164,5.909999847412109,5.960000038146973,5.960000038146973,14100
2018-11-05,5.909999847412109,6.21999979019165,5.690000057220459,6.059999942779541,6.059999942779541,14500
2018-11-06,6.119999885559082,6.211999893188477,5.730000019073486,6.050000190734863,6.050000190734863,11700
2018-11-07,5.89900016784668,6.1479997634887695,5.800000190734863,6.130000114440918,6.130000114440918,16800
2018-11-08,5.869999885559082,6.159999847412109,5.75,6.019999980926514,6.019999980926514,40400
2018-11-09,6.039999961853027,6.21999979019165,5.716000080108643,6.010000228881836,6.010000228881836,27800
2018-11-12,5.889999866485596,6.25,5.889999866485596,6.0,6.0,32000
2018-11-13,5.920000076293945,6.598999977111816,5.920000076293945,6.579999923706055,6.579999923706055,55800
2018-11-14,6.579999923706055,7.050000190734863,6.451000213623047,6.559999942779541,6.559999942779541,44100
2018-11-15,6.599999904632568,6.800000190734863,6.599999904632568,6.800000190734863,6.800000190734863,15300
2018-11-16,6.860000133514404,6.860000133514404,6.699999809265137,6.78000020980835,6.78000020980835,21700
2018-11-19,6.940000057220459,6.989999771118164,6.75,6.929999828338623,6.929999828338623,23000
2018-11-20,6.820000171661377,6.900000095367432,6.639999866485596,6.880000114440918,6.880000114440918,18700
2018-11-21,6.800000190734863,6.875,6.610000133514404,6.824999809265137,6.824999809265137,29900
2018-11-23,6.670000076293945,7.179999828338623,6.670000076293945,7.03000020980835,7.03000020980835,6900
2018-11-26,7.010000228881836,7.145999908447266,6.639999866485596,7.050000190734863,7.050000190734863,27500
2018-11-27,7.159999847412109,7.329999923706055,7.0,7.329999923706055,7.329999923706055,16300
2018-11-28,7.159999847412109,7.199999809265137,7.099999904632568,7.110000133514404,7.110000133514404,6900
2018-11-29,6.96999979019165,7.440000057220459,6.96999979019165,7.119999885559082,7.119999885559082,9600
2018-11-30,7.119999885559082,7.190000057220459,6.940000057220459,7.0,7.0,28100
2018-12-03,7.184999942779541,7.184999942779541,6.869999885559082,7.050000190734863,7.050000190734863,39600
2018-12-04,7.0,7.099999904632568,6.880000114440918,7.099999904632568,7.099999904632568,21100
2018-12-06,7.059999942779541,7.400000095367432,6.815000057220459,7.289999961853027,7.289999961853027,13200
2018-12-07,7.289999961853027,7.769999980926514,7.230000019073486,7.539999961853027,7.539999961853027,58700
2018-12-10,7.539999961853027,7.574999809265137,7.050000190734863,7.570000171661377,7.570000171661377,23300
2018-12-11,7.550000190734863,7.550000190734863,7.10099983215332,7.449999809265137,7.449999809265137,20400
2018-12-12,7.369999885559082,7.735000133514404,7.285999774932861,7.494999885559082,7.494999885559082,17600
2018-12-13,7.5,7.5,7.199999809265137,7.400000095367432,7.400000095367432,57500
2018-12-14,7.210000038146973,7.380000114440918,7.039999961853027,7.380000114440918,7.380000114440918,20300
2018-12-17,7.380000114440918,7.400000095367432,7.0,7.0,7.0,32500
2018-12-18,7.0,7.309999942779541,7.0,7.199999809265137,7.199999809265137,20700
2018-12-19,7.190000057220459,7.329999923706055,7.0,7.210000038146973,7.210000038146973,69400
2018-12-20,7.25,7.25,6.849999904632568,6.949999809265137,6.949999809265137,107000
2018-12-21,6.960000038146973,7.099999904632568,6.510000228881836,6.510000228881836,6.510000228881836,48500
2018-12-24,6.550000190734863,6.96999979019165,6.550000190734863,6.809999942779541,6.809999942779541,5000
2018-12-26,6.78000020980835,6.78000020980835,6.5,6.550000190734863,6.550000190734863,14700
2018-12-27,6.519999980926514,6.519999980926514,6.199999809265137,6.340000152587891,6.340000152587891,27300
2018-12-28,6.360000133514404,6.590000152587891,6.320000171661377,6.590000152587891,6.590000152587891,30100
2018-12-31,6.690000057220459,6.739999771118164,6.059999942779541,6.739999771118164,6.739999771118164,21600
2019-01-02,6.119999885559082,6.940000057220459,5.510000228881836,6.789999961853027,6.789999961853027,6600
2019-01-03,6.75,7.139999866485596,6.75,7.139999866485596,7.139999866485596,19900
2019-01-04,7.300000190734863,7.300000190734863,7.008999824523926,7.130000114440918,7.130000114440918,21200
2019-01-07,7.269999980926514,7.300000190734863,6.78000020980835,7.296999931335449,7.296999931335449,36300
2019-01-08,7.210000038146973,7.380000114440918,7.199999809265137,7.349999904632568,7.349999904632568,27100
2019-01-09,6.559999942779541,7.46999979019165,6.230999946594238,7.460000038146973,7.460000038146973,26100
2019-01-10,7.460000038146973,7.610000133514404,7.25,7.610000133514404,7.610000133514404,19100
2019-01-11,7.610000133514404,7.610000133514404,7.309999942779541,7.489999771118164,7.489999771118164,5700
2019-01-14,7.489999771118164,7.630000114440918,7.195000171661377,7.53000020980835,7.53000020980835,9800
2019-01-15,7.5,7.53000020980835,7.190000057220459,7.190000057220459,7.190000057220459,6200
2019-01-16,7.249000072479248,7.35699987411499,7.249000072479248,7.25,7.25,7100
2019-01-17,7.349999904632568,7.381999969482422,7.199999809265137,7.210000038146973,7.210000038146973,27800
2019-01-18,7.150000095367432,7.400000095367432,7.104000091552734,7.199999809265137,7.199999809265137,8000
2019-01-22,7.230000019073486,7.38700008392334,7.09499979019165,7.210000038146973,7.210000038146973,4200
2019-01-23,7.238999843597412,7.5,7.034999847412109,7.409999847412109,7.409999847412109,29000
2019-01-24,7.400000095367432,7.5,7.23199987411499,7.420000076293945,7.420000076293945,22700
2019-01-25,7.340000152587891,7.849999904632568,7.340000152587891,7.849999904632568,7.849999904632568,56200
2019-01-28,7.699999809265137,7.738999843597412,7.40500020980835,7.699999809265137,7.699999809265137,14500
2019-01-29,7.5,7.599999904632568,7.449999809265137,7.579999923706055,7.579999923706055,11900
2019-01-30,7.489999771118164,7.822999954223633,7.400000095367432,7.724999904632568,7.724999904632568,30300
2019-01-31,7.699999809265137,7.789999961853027,7.539999961853027,7.559999942779541,7.559999942779541,22200
2019-02-01,7.539999961853027,7.591000080108643,7.309999942779541,7.309999942779541,7.309999942779541,11100
2019-02-04,7.550000190734863,7.699999809265137,7.320000171661377,7.320000171661377,7.320000171661377,17600
2019-02-05,7.260000228881836,7.550000190734863,7.260000228881836,7.360000133514404,7.360000133514404,29400
2019-02-06,7.449999809265137,7.519999980926514,7.349999904632568,7.46999979019165,7.46999979019165,18400
2019-02-07,7.449999809265137,7.619999885559082,7.349999904632568,7.599999904632568,7.599999904632568,5700
2019-02-08,7.506999969482422,7.610000133514404,7.409999847412109,7.5,7.5,19600
2019-02-11,7.449999809265137,7.690000057220459,7.449999809265137,7.510000228881836,7.510000228881836,7600
2019-02-12,7.551000118255615,7.829999923706055,7.400000095367432,7.429999828338623,7.429999828338623,32400
2019-02-13,7.460999965667725,7.460999965667725,7.366000175476074,7.440000057220459,7.440000057220459,2500
2019-02-14,7.360000133514404,7.800000190734863,7.349999904632568,7.53000020980835,7.53000020980835,14100
2019-02-15,7.559999942779541,7.570000171661377,7.360000133514404,7.380000114440918,7.380000114440918,13500
2019-02-19,7.440000057220459,7.5,7.28000020980835,7.300000190734863,7.300000190734863,12200
2019-02-20,7.260000228881836,7.5,7.260000228881836,7.360000133514404,7.360000133514404,22700
2019-02-21,7.269999980926514,7.440000057220459,7.269999980926514,7.300000190734863,7.300000190734863,10600
2019-02-22,7.329999923706055,7.449999809265137,7.301000118255615,7.449999809265137,7.449999809265137,10400
2019-02-25,7.28000020980835,7.572999954223633,7.28000020980835,7.440000057220459,7.440000057220459,19300
2019-02-26,7.300000190734863,7.429999828338623,7.269999980926514,7.389999866485596,7.389999866485596,10100
2019-02-27,7.309999942779541,7.510000228881836,7.199999809265137,7.510000228881836,7.510000228881836,6700
2019-02-28,7.339000225067139,7.5,7.150000095367432,7.489999771118164,7.489999771118164,47300
2019-03-01,7.489999771118164,7.636000156402588,7.316999912261963,7.559999942779541,7.559999942779541,20900
2019-03-04,7.396999835968018,7.5,7.361000061035156,7.449999809265137,7.449999809265137,22500
2019-03-05,7.389999866485596,7.619999885559082,7.380000114440918,7.429999828338623,7.429999828338623,39600
2019-03-06,7.369999885559082,7.400000095367432,7.010000228881836,7.309999942779541,7.309999942779541,42700
2019-03-07,7.300000190734863,7.478000164031982,6.849999904632568,6.894999980926514,6.894999980926514,59400
2019-03-08,6.989999771118164,7.255000114440918,6.920000076293945,7.0,7.0,34400
2019-03-11,7.25,7.340000152587891,6.829999923706055,6.900000095367432,6.900000095367432,22200
2019-03-12,6.809999942779541,7.309999942779541,6.809999942779541,7.210000038146973,7.210000038146973,21700
2019-03-13,7.260000228881836,7.440000057220459,7.199999809265137,7.199999809265137,7.199999809265137,17600
2019-03-14,6.860000133514404,7.440000057220459,6.860000133514404,7.130000114440918,7.130000114440918,17400
2019-03-15,7.010000228881836,7.215000152587891,7.010000228881836,7.039999961853027,7.039999961853027,9500
2019-03-18,7.068999767303467,7.139999866485596,7.019999980926514,7.039999961853027,7.039999961853027,15200
2019-03-19,7.050000190734863,7.090000152587891,7.0,7.079999923706055,7.079999923706055,19900
2019-03-20,7.079999923706055,7.079999923706055,6.824999809265137,6.889999866485596,6.889999866485596,27600
2019-03-21,6.889999866485596,6.889999866485596,6.603000164031982,6.690000057220459,6.690000057220459,25100
2019-03-22,6.590000152587891,6.679999828338623,6.400000095367432,6.659999847412109,6.659999847412109,19400
2019-03-25,6.579999923706055,6.764999866485596,6.47599983215332,6.650000095367432,6.650000095367432,43600
2019-03-26,6.619999885559082,6.929999828338623,6.419000148773193,6.769999980926514,6.769999980926514,40900
2019-03-27,6.789999961853027,6.889999866485596,6.550000190734863,6.880000114440918,6.880000114440918,28600
2019-03-28,6.730000019073486,6.800000190734863,6.570000171661377,6.71999979019165,6.71999979019165,37900
2019-03-29,6.760000228881836,6.795000076293945,6.599999904632568,6.71999979019165,6.71999979019165,20200
2019-04-01,6.690000057220459,7.159999847412109,6.690000057220459,7.019999980926514,7.019999980926514,30000
2019-04-02,6.855000019073486,7.340000152587891,6.800000190734863,7.25,7.25,35900
2019-04-03,7.133999824523926,7.5,7.133999824523926,7.5,7.5,16000
2019-04-04,7.480000019073486,7.480000019073486,7.179999828338623,7.269999980926514,7.269999980926514,16500
2019-04-05,7.311999797821045,7.5,7.099999904632568,7.179999828338623,7.179999828338623,10700
2019-04-08,7.210999965667725,7.460000038146973,7.170000076293945,7.25,7.25,25300
2019-04-09,7.260000228881836,7.340000152587891,7.039999961853027,7.159999847412109,7.159999847412109,30900
2019-04-10,7.059999942779541,7.28000020980835,7.059999942779541,7.25,7.25,22600
2019-04-11,7.449999809265137,7.449999809265137,7.25,7.300000190734863,7.300000190734863,21300
2019-04-12,7.28000020980835,7.400000095367432,7.25,7.349999904632568,7.349999904632568,17500
2019-04-15,7.349999904632568,7.445000171661377,7.235000133514404,7.320000171661377,7.320000171661377,41400
2019-04-16,7.3520002365112305,7.3520002365112305,7.190999984741211,7.349999904632568,7.349999904632568,5700
2019-04-17,7.309999942779541,7.349999904632568,7.210000038146973,7.25,7.25,32900
2019-04-18,7.25,7.320000171661377,7.199999809265137,7.28000020980835,7.28000020980835,16200
2019-04-22,7.179999828338623,7.309999942779541,7.170000076293945,7.210000038146973,7.210000038146973,9200
2019-04-23,7.170000076293945,7.320000171661377,7.170000076293945,7.257999897003174,7.257999897003174,21200
2019-04-24,7.320000171661377,7.46999979019165,7.25,7.300000190734863,7.300000190734863,17100
2019-04-25,7.331999778747559,7.400000095367432,7.25,7.340000152587891,7.340000152587891,25900
2019-04-26,7.340000152587891,7.5,7.251999855041504,7.480000019073486,7.480000019073486,23500
2019-04-29,7.409999847412109,7.550000190734863,7.409999847412109,7.46999979019165,7.46999979019165,25400
2019-04-30,7.539999961853027,7.96999979019165,7.5,7.948999881744385,7.948999881744385,44800
2019-05-01,7.96999979019165,8.319999694824219,7.96999979019165,8.199999809265137,8.199999809265137,26000
2019-05-02,8.317999839782715,8.317999839782715,8.199999809265137,8.220000267028809,8.220000267028809,20500
2019-05-03,8.220000267028809,8.300000190734863,8.09000015258789,8.09000015258789,8.09000015258789,46300
2019-05-06,7.869999885559082,8.39900016784668,7.869999885559082,8.300000190734863,8.300000190734863,56000
2019-05-07,8.100000381469727,8.52400016784668,8.100000381469727,8.454999923706055,8.454999923706055,25000
2019-05-08,8.399999618530273,8.420000076293945,8.010000228881836,8.300000190734863,8.300000190734863,38900
2019-05-09,8.920000076293945,9.329999923706055,8.039999961853027,9.09000015258789,9.09000015258789,32900
2019-05-10,9.951000213623047,10.399999618530273,9.385000228881836,10.355999946594238,10.355999946594238,82200
2019-05-13,9.710000038146973,10.300000190734863,9.710000038146973,9.904999732971191,9.904999732971191,33500
2019-05-14,9.850000381469727,10.274999618530273,9.850000381469727,10.0,10.0,71200
2019-05-15,9.989999771118164,10.260000228881836,9.79800033569336,10.0,10.0,17800
2019-05-16,10.079999923706055,10.255999565124512,9.637999534606934,10.020000457763672,10.020000457763672,23000
2019-05-17,9.850000381469727,10.270000457763672,9.850000381469727,10.1899995803833,10.1899995803833,8500
2019-05-20,10.199999809265137,10.199999809265137,10.055000305175781,10.199999809265137,10.199999809265137,10900
2019-05-21,10.149999618530273,12.479999542236328,10.149999618530273,12.210000038146973,12.210000038146973,185600
2019-05-22,12.359999656677246,13.380000114440918,12.307999610900879,13.25,13.25,90300
2019-05-23,13.100000381469727,13.25,12.5600004196167,13.0,13.0,107700
2019-05-24,13.119999885559082,13.315999984741211,12.760000228881836,12.859999656677246,12.859999656677246,63600
2019-05-28,13.069999694824219,13.463000297546387,12.680000305175781,12.989999771118164,12.989999771118164,33900
2019-05-29,12.869999885559082,12.869999885559082,12.020000457763672,12.140000343322754,12.140000343322754,26100
2019-05-30,12.229999542236328,12.729999542236328,11.630000114440918,12.1899995803833,12.1899995803833,68300
2019-05-31,12.180000305175781,12.680000305175781,11.199999809265137,11.779999732971191,11.779999732971191,33700
2019-06-03,11.720000267028809,12.0,11.670000076293945,11.899999618530273,11.899999618530273,17600
2019-06-04,12.0,12.449999809265137,12.0,12.199999809265137,12.199999809265137,56900
2019-06-05,12.239999771118164,13.199999809265137,12.170000076293945,12.9399995803833,12.9399995803833,93400
2019-06-06,13.0600004196167,13.460000038146973,12.020000457763672,12.390000343322754,12.390000343322754,66300
2019-06-07,12.15999984741211,12.91100025177002,11.779999732971191,11.970000267028809,11.970000267028809,19100
2019-06-10,11.8100004196167,12.079999923706055,11.8100004196167,12.055000305175781,12.055000305175781,6200
2019-06-11,12.303999900817871,12.319999694824219,11.369999885559082,11.369999885559082,11.369999885559082,13000
2019-06-12,11.399999618530273,11.720000267028809,11.210000038146973,11.720000267028809,11.720000267028809,7300
2019-06-13,11.539999961853027,12.039999961853027,11.539999961853027,11.90999984741211,11.90999984741211,14300
2019-06-14,11.829999923706055,12.050000190734863,11.789999961853027,12.050000190734863,12.050000190734863,2200
2019-06-17,11.920000076293945,12.489999771118164,11.899999618530273,12.069999694824219,12.069999694824219,32400
2019-06-18,12.199999809265137,12.199999809265137,11.621999740600586,12.0,12.0,8900
2019-06-19,11.920000076293945,12.555000305175781,11.800000190734863,12.5,12.5,20300
2019-06-20,12.619999885559082,12.770000457763672,12.010000228881836,12.020000457763672,12.020000457763672,23600
2019-06-21,12.239999771118164,12.539999961853027,11.649999618530273,12.539999961853027,12.539999961853027,22200
2019-06-24,12.25,12.529999732971191,11.949999809265137,12.239999771118164,12.239999771118164,21600
2019-06-25,12.265000343322754,12.569000244140625,12.140000343322754,12.390000343322754,12.390000343322754,6100
2019-06-26,12.430000305175781,12.57699966430664,12.25,12.359999656677246,12.359999656677246,9100
2019-06-27,12.409000396728516,12.696999549865723,12.319000244140625,12.399999618530273,12.399999618530273,18100
2019-06-28,12.399999618530273,13.880000114440918,12.210000038146973,12.399999618530273,12.399999618530273,132800
2019-07-01,12.199999809265137,12.869999885559082,11.039999961853027,12.399999618530273,12.399999618530273,62300
2019-07-02,12.3100004196167,12.3100004196167,11.869999885559082,12.109999656677246,12.109999656677246,9300
2019-07-03,11.960000038146973,12.180000305175781,11.84000015258789,11.850000381469727,11.850000381469727,5400
2019-07-05,11.960000038146973,11.960000038146973,11.548999786376953,11.59000015258789,11.59000015258789,11100
2019-07-08,11.550000190734863,12.359999656677246,11.550000190734863,11.850000381469727,11.850000381469727,17000
2019-07-09,11.899999618530273,12.586999893188477,11.899999618530273,12.210000038146973,12.210000038146973,5800
2019-07-10,12.229999542236328,12.569999694824219,11.949999809265137,12.199999809265137,12.199999809265137,15300
2019-07-11,12.170000076293945,12.520000457763672,11.899999618530273,12.170000076293945,12.170000076293945,12900
2019-07-12,12.109999656677246,12.779999732971191,12.020000457763672,12.199999809265137,12.199999809265137,23100
2019-07-15,12.9399995803833,13.008000373840332,12.104000091552734,12.600000381469727,12.600000381469727,12400
2019-07-16,12.579999923706055,12.947999954223633,12.300000190734863,12.300000190734863,12.300000190734863,11000
2019-07-17,12.430000305175781,12.5,12.265999794006348,12.270000457763672,12.270000457763672,3700
2019-07-18,12.880000114440918,12.880000114440918,12.180000305175781,12.460000038146973,12.460000038146973,6100
2019-07-19,12.65999984741211,12.779999732971191,12.331999778747559,12.640000343322754,12.640000343322754,4700
2019-07-22,12.6899995803833,12.9399995803833,12.520000457763672,12.850000381469727,12.850000381469727,14900
2019-07-23,13.100000381469727,13.449999809265137,12.970000267028809,13.199999809265137,13.199999809265137,20900
2019-07-24,13.449999809265137,14.0,13.399999618530273,13.70199966430664,13.70199966430664,33800
2019-07-25,13.770000457763672,14.960000038146973,13.699999809265137,14.4399995803833,14.4399995803833,132600
2019-07-26,14.680000305175781,15.210000038146973,14.649999618530273,14.65999984741211,14.65999984741211,44000
2019-07-29,14.869999885559082,15.25,14.34000015258789,14.739999771118164,14.739999771118164,35000
2019-07-30,14.930000305175781,17.5,14.930000305175781,15.6899995803833,15.6899995803833,69500
2019-07-31,15.75,16.280000686645508,15.5,15.829999923706055,15.829999923706055,55600
2019-08-01,16.030000686645508,16.34000015258789,14.647000312805176,15.380000114440918,15.380000114440918,97900
2019-08-02,15.210000038146973,15.770000457763672,15.109999656677246,15.385000228881836,15.385000228881836,11700
2019-08-05,15.0,15.800000190734863,14.600000381469727,15.619999885559082,15.619999885559082,30300
2019-08-06,15.0,15.869999885559082,13.829999923706055,14.859999656677246,14.859999656677246,50900
2019-08-07,14.543999671936035,14.920000076293945,14.29699993133545,14.460000038146973,14.460000038146973,12100
2019-08-08,14.784000396728516,14.789999961853027,14.0600004196167,14.329999923706055,14.329999923706055,22500
2019-08-09,14.40999984741211,14.800000190734863,13.899999618530273,14.020000457763672,14.020000457763672,25500
2019-08-12,14.010000228881836,14.149999618530273,12.637999534606934,13.5,13.5,24900
2019-08-13,13.279999732971191,14.032999992370605,13.270000457763672,13.859999656677246,13.859999656677246,6300
2019-08-14,13.510000228881836,13.899999618530273,13.260000228881836,13.770000457763672,13.770000457763672,10400
2019-08-15,13.609999656677246,13.760000228881836,13.25,13.40999984741211,13.40999984741211,34500
2019-08-16,13.890000343322754,14.15999984741211,13.470000267028809,14.15999984741211,14.15999984741211,8700
2019-08-19,14.130000114440918,14.979999542236328,14.0,14.010000228881836,14.010000228881836,15900
2019-08-20,14.559000015258789,14.789999961853027,14.13599967956543,14.369999885559082,14.369999885559082,13700
2019-08-21,14.322999954223633,14.322999954223633,13.789999961853027,14.020000457763672,14.020000457763672,14400
2019-08-22,13.899999618530273,14.26099967956543,13.454000473022461,14.020000457763672,14.020000457763672,13800
2019-08-23,13.800000190734863,13.989999771118164,13.630000114440918,13.649999618530273,13.649999618530273,10500
2019-08-26,13.59000015258789,13.8100004196167,12.253999710083008,12.59000015258789,12.59000015258789,78600
2019-08-27,12.5,12.869999885559082,10.75,11.100000381469727,11.100000381469727,84200
2019-08-28,11.319999694824219,11.75,10.329999923706055,11.416000366210938,11.416000366210938,74900
2019-08-29,11.369999885559082,13.350000381469727,11.355999946594238,13.109999656677246,13.109999656677246,172600
2019-08-30,13.119999885559082,13.680000305175781,13.005000114440918,13.550000190734863,13.550000190734863,31800
2019-09-03,13.520000457763672,13.699999809265137,12.760000228881836,13.449999809265137,13.449999809265137,28000
2019-09-04,13.670000076293945,13.710000038146973,13.229999542236328,13.550000190734863,13.550000190734863,67000
2019-09-05,13.600000381469727,13.623000144958496,13.270000457763672,13.350000381469727,13.350000381469727,30900
2019-09-06,13.350000381469727,13.5,13.225000381469727,13.300000190734863,13.300000190734863,19500
2019-09-09,13.319999694824219,13.319999694824219,12.050000190734863,12.65999984741211,12.65999984741211,36500
2019-09-10,12.550000190734863,12.789999961853027,12.07699966430664,12.5600004196167,12.5600004196167,11500
2019-09-11,12.600000381469727,13.119999885559082,12.550000190734863,13.039999961853027,13.039999961853027,16800
2019-09-12,12.92300033569336,13.119999885559082,12.92300033569336,13.0600004196167,13.0600004196167,4900
2019-09-13,12.760000228881836,13.069999694824219,12.75,13.039999961853027,13.039999961853027,22600
2019-09-16,12.829999923706055,13.5600004196167,12.829999923706055,13.5600004196167,13.5600004196167,24300
2019-09-17,13.3100004196167,13.640000343322754,13.3100004196167,13.550000190734863,13.550000190734863,13200
2019-09-18,13.550000190734863,13.600000381469727,13.25,13.600000381469727,13.600000381469727,22500
2019-09-19,13.520000457763672,13.59000015258789,13.229999542236328,13.59000015258789,13.59000015258789,17100
2019-09-20,13.510000228881836,13.569999694824219,12.984999656677246,13.390000343322754,13.390000343322754,37700
2019-09-23,13.300000190734863,13.489999771118164,12.90999984741211,13.380000114440918,13.380000114440918,75200
2019-09-24,13.260000228881836,13.449999809265137,12.489999771118164,12.760000228881836,12.760000228881836,150700
2019-09-25,12.9399995803833,13.220000267028809,12.180000305175781,13.0,13.0,44800
2019-09-26,13.100000381469727,13.100000381469727,12.609999656677246,12.854999542236328,12.854999542236328,30700
2019-09-27,12.819999694824219,12.899999618530273,12.289999961853027,12.289999961853027,12.289999961853027,25900
2019-09-30,12.609999656677246,12.739999771118164,12.170000076293945,12.609999656677246,12.609999656677246,15000
2019-10-01,12.569999694824219,12.739999771118164,12.010000228881836,12.399999618530273,12.399999618530273,40700
2019-10-02,12.194999694824219,12.239999771118164,11.574999809265137,11.899999618530273,11.899999618530273,44700
2019-10-03,11.789999961853027,12.0600004196167,11.609999656677246,11.994999885559082,11.994999885559082,24700
2019-10-04,11.8100004196167,12.739999771118164,11.8100004196167,12.739999771118164,12.739999771118164,75100
2019-10-07,12.510000228881836,12.84000015258789,12.0600004196167,12.710000038146973,12.710000038146973,55900
2019-10-08,12.600000381469727,12.800000190734863,12.3100004196167,12.65999984741211,12.65999984741211,50100
2019-10-09,12.6899995803833,13.958999633789062,12.34000015258789,13.460000038146973,13.460000038146973,169500
2019-10-10,13.550000190734863,14.559000015258789,13.520000457763672,13.699999809265137,13.699999809265137,100900
2019-10-11,14.09000015258789,14.4399995803833,13.699999809265137,13.899999618530273,13.899999618530273,68100
2019-10-14,13.859999656677246,14.050000190734863,13.079999923706055,13.430000305175781,13.430000305175781,68500
2019-10-15,13.5600004196167,14.979999542236328,13.371000289916992,14.449999809265137,14.449999809265137,212500
2019-10-16,14.600000381469727,14.880000114440918,13.96500015258789,14.199999809265137,14.199999809265137,71600
2019-10-17,14.260000228881836,14.699999809265137,14.100000381469727,14.640000343322754,14.640000343322754,44300
2019-10-18,14.460000038146973,14.619999885559082,14.218000411987305,14.40999984741211,14.40999984741211,26100
2019-10-21,14.149999618530273,15.8100004196167,14.119999885559082,15.460000038146973,15.460000038146973,140500
2019-10-22,15.670000076293945,16.5,15.34000015258789,16.299999237060547,16.299999237060547,118000
2019-10-23,16.399999618530273,16.399999618530273,15.92199993133545,16.200000762939453,16.200000762939453,11400
2019-10-24,16.280000686645508,16.59000015258789,15.678000450134277,16.25,16.25,81700
2019-10-25,16.219999313354492,16.450000762939453,16.049999237060547,16.170000076293945,16.170000076293945,16800
2019-10-28,16.389999389648438,16.600000381469727,16.010000228881836,16.420000076293945,16.420000076293945,63000
2019-10-29,16.270000457763672,16.510000228881836,16.18000030517578,16.40999984741211,16.40999984741211,41500
2019-10-30,16.299999237060547,16.399999618530273,16.049999237060547,16.270000457763672,16.270000457763672,17400
2019-10-31,16.25,16.25,15.880000114440918,15.890000343322754,15.890000343322754,32800
2019-11-01,16.079999923706055,16.079999923706055,15.380000114440918,15.569999694824219,15.569999694824219,18900
2019-11-04,15.34000015258789,15.619000434875488,15.223999977111816,15.579999923706055,15.579999923706055,12300
2019-11-05,15.600000381469727,15.663000106811523,14.5,14.90999984741211,14.90999984741211,84700
2019-11-06,14.90999984741211,15.3100004196167,14.5,15.0,15.0,28400
2019-11-07,15.100000381469727,15.9399995803833,14.619999885559082,15.710000038146973,15.710000038146973,56700
2019-11-08,16.299999237060547,16.62299919128418,15.100000381469727,16.0,16.0,134600
2019-11-11,15.989999771118164,17.739999771118164,15.857000350952148,16.489999771118164,16.489999771118164,182100
2019-11-12,17.010000228881836,19.5,17.010000228881836,17.479999542236328,17.479999542236328,167500
2019-11-13,17.6200008392334,17.979999542236328,16.0,16.81999969482422,16.81999969482422,88600
2019-11-14,16.65999984741211,16.90999984741211,16.114999771118164,16.350000381469727,16.350000381469727,71400
2019-11-15,16.229999542236328,17.100000381469727,16.229999542236328,16.56999969482422,16.56999969482422,16400
2019-11-18,16.799999237060547,17.020000457763672,16.299999237060547,16.540000915527344,16.540000915527344,29700
2019-11-19,16.780000686645508,17.33799934387207,16.215999603271484,17.100000381469727,17.100000381469727,24600
2019-11-20,17.030000686645508,17.374000549316406,16.700000762939453,16.860000610351562,16.860000610351562,79000
2019-11-21,17.010000228881836,17.100000381469727,16.030000686645508,16.399999618530273,16.399999618530273,54700
2019-11-22,16.5,17.020000457763672,16.309999465942383,16.850000381469727,16.850000381469727,31000
2019-11-25,16.959999084472656,17.229999542236328,16.959999084472656,17.100000381469727,17.100000381469727,18800
2019-11-26,17.010000228881836,17.399999618530273,16.663999557495117,17.1200008392334,17.1200008392334,28800
2019-11-27,17.200000762939453,17.200000762939453,16.548999786376953,17.110000610351562,17.110000610351562,49600
2019-11-29,16.746999740600586,17.299999237060547,16.562999725341797,17.100000381469727,17.100000381469727,9900
2019-12-02,17.200000762939453,17.200000762939453,16.75,16.940000534057617,16.940000534057617,26800
2019-12-03,16.729999542236328,17.18899917602539,16.700000762939453,17.059999465942383,17.059999465942383,141600
2019-12-04,17.1299991607666,17.1299991607666,16.510000228881836,16.649999618530273,16.649999618530273,53400
2019-12-05,16.649999618530273,16.815000534057617,16.090999603271484,16.209999084472656,16.209999084472656,48100
2019-12-06,16.399999618530273,16.625,15.399999618530273,16.40999984741211,16.40999984741211,55000
2019-12-09,16.610000610351562,16.649999618530273,15.680000305175781,16.139999389648438,16.139999389648438,58500
2019-12-10,16.1299991607666,16.719999313354492,16.040000915527344,16.719999313354492,16.719999313354492,42500
2019-12-11,16.670000076293945,17.725000381469727,16.530000686645508,17.040000915527344,17.040000915527344,60500
2019-12-12,17.09000015258789,17.8799991607666,17.04800033569336,17.479999542236328,17.479999542236328,33000
2019-12-13,17.43000030517578,18.219999313354492,16.850000381469727,17.889999389648438,17.889999389648438,44600
2019-12-16,17.93000030517578,19.139999389648438,17.899999618530273,18.93000030517578,18.93000030517578,57500
2019-12-17,18.950000762939453,19.360000610351562,18.399999618530273,19.110000610351562,19.110000610351562,116900
2019-12-18,19.059999465942383,19.200000762939453,18.93000030517578,19.040000915527344,19.040000915527344,49500
2019-12-19,19.049999237060547,19.329999923706055,18.56999969482422,18.829999923706055,18.829999923706055,116900
2019-12-20,18.969999313354492,19.110000610351562,18.389999389648438,18.530000686645508,18.530000686645508,50600
2019-12-23,18.530000686645508,18.850000381469727,18.15999984741211,18.3700008392334,18.3700008392334,46900
2019-12-24,18.350000381469727,18.350000381469727,17.600000381469727,18.040000915527344,18.040000915527344,18400
2019-12-26,18.059999465942383,18.704999923706055,17.12299919128418,18.520000457763672,18.520000457763672,36800
2019-12-27,18.739999771118164,18.979999542236328,18.360000610351562,18.600000381469727,18.600000381469727,66500
2019-12-30,18.75,18.975000381469727,18.389999389648438,18.479999542236328,18.479999542236328,49200
2019-12-31,18.364999771118164,18.770000457763672,17.579999923706055,18.510000228881836,18.510000228881836,221000
2020-01-02,18.709999084472656,19.040000915527344,17.979999542236328,18.510000228881836,18.510000228881836,80000
2020-01-03,18.34000015258789,18.81999969482422,17.760000228881836,18.0,18.0,84600
2020-01-06,17.860000610351562,18.22800064086914,17.420000076293945,18.049999237060547,18.049999237060547,26000
2020-01-07,18.030000686645508,18.510000228881836,17.420000076293945,18.200000762939453,18.200000762939453,55000
2020-01-08,18.229999542236328,18.989999771118164,18.229999542236328,18.690000534057617,18.690000534057617,33800
2020-01-09,18.90999984741211,18.98900032043457,18.386999130249023,18.809999465942383,18.809999465942383,48100
2020-01-10,18.950000762939453,19.5,18.572999954223633,19.0,19.0,75500
2020-01-13,19.059999465942383,19.549999237060547,18.920000076293945,19.399999618530273,19.399999618530273,40700
2020-01-14,19.40399932861328,20.90999984741211,19.40399932861328,20.700000762939453,20.700000762939453,140200
2020-01-15,20.799999237060547,21.424999237060547,20.010000228881836,20.270000457763672,20.270000457763672,83900
2020-01-16,20.489999771118164,20.799999237060547,20.110000610351562,20.18000030517578,20.18000030517578,28600
2020-01-17,20.329999923706055,20.989999771118164,20.065000534057617,20.790000915527344,20.790000915527344,35600
2020-01-21,20.920000076293945,21.649999618530273,20.3700008392334,21.5,21.5,50700
2020-01-22,21.579999923706055,21.989999771118164,21.469999313354492,21.649999618530273,21.649999618530273,18900
2020-01-23,21.389999389648438,21.600000381469727,20.299999237060547,21.360000610351562,21.360000610351562,41000
2020-01-24,21.43000030517578,22.21299934387207,21.33799934387207,21.799999237060547,21.799999237060547,60100
2020-01-27,21.700000762939453,22.389999389648438,21.15999984741211,21.899999618530273,21.899999618530273,57000
2020-01-28,22.040000915527344,22.084999084472656,20.610000610351562,21.100000381469727,21.100000381469727,89500
2020-01-29,21.110000610351562,21.3700008392334,20.3700008392334,21.079999923706055,21.079999923706055,60500
2020-01-30,20.81999969482422,21.479999542236328,20.149999618530273,21.420000076293945,21.420000076293945,47100
2020-01-31,21.360000610351562,21.40999984741211,20.639999389648438,21.209999084472656,21.209999084472656,28900
2020-02-03,21.350000381469727,21.55500030517578,20.341999053955078,20.540000915527344,20.540000915527344,33100
2020-02-04,20.700000762939453,21.524999618530273,20.5,21.020000457763672,21.020000457763672,35400
2020-02-05,21.149999618530273,21.75,20.610000610351562,21.579999923706055,21.579999923706055,45900
2020-02-06,21.81999969482422,21.829999923706055,21.010000228881836,21.510000228881836,21.510000228881836,23900
2020-02-07,21.469999313354492,21.937000274658203,21.25,21.5,21.5,32800
2020-02-10,21.389999389648438,21.649999618530273,20.40999984741211,20.860000610351562,20.860000610351562,35500
2020-02-11,20.950000762939453,22.049999237060547,20.809999465942383,21.6299991607666,21.6299991607666,119700
2020-02-12,21.690000534057617,21.774999618530273,21.170000076293945,21.690000534057617,21.690000534057617,33100
2020-02-13,21.649999618530273,24.0,21.38800048828125,23.920000076293945,23.920000076293945,67800
2020-02-14,23.760000228881836,24.93000030517578,22.280000686645508,22.899999618530273,22.899999618530273,42900
2020-02-18,22.6299991607666,24.75,22.575000762939453,24.219999313354492,24.219999313354492,32200
2020-02-19,24.40999984741211,24.81999969482422,23.80500030517578,24.079999923706055,24.079999923706055,47400
2020-02-20,24.079999923706055,24.979999542236328,23.905000686645508,24.709999084472656,24.709999084472656,62400
2020-02-21,24.610000610351562,26.15999984741211,24.25,24.479999542236328,24.479999542236328,85200
2020-02-24,24.100000381469727,25.190000534057617,22.81999969482422,24.350000381469727,24.350000381469727,137500
2020-02-25,24.809999465942383,26.868999481201172,23.510000228881836,23.8700008392334,23.8700008392334,92600
2020-02-26,23.719999313354492,26.155000686645508,23.545000076293945,25.56999969482422,25.56999969482422,77000
2020-02-27,24.950000762939453,25.35300064086914,23.809999465942383,24.09000015258789,24.09000015258789,130200
2020-02-28,23.5,24.80500030517578,22.43000030517578,24.049999237060547,24.049999237060547,76900
2020-03-02,24.139999389648438,28.697999954223633,24.139999389648438,26.479999542236328,26.479999542236328,266500
2020-03-03,26.510000228881836,26.510000228881836,22.5,23.049999237060547,23.049999237060547,380900
2020-03-04,23.940000534057617,23.940000534057617,22.739999771118164,23.059999465942383,23.059999465942383,129800
2020-03-05,22.670000076293945,23.110000610351562,21.959999084472656,22.549999237060547,22.549999237060547,69100
2020-03-06,22.0,22.263999938964844,19.829999923706055,20.280000686645508,20.280000686645508,196900
2020-03-09,18.719999313354492,19.06999969482422,15.8100004196167,17.510000228881836,17.510000228881836,202200
2020-03-10,18.309999465942383,19.229999542236328,17.812999725341797,19.040000915527344,19.040000915527344,97300
2020-03-11,18.709999084472656,18.739999771118164,17.440000534057617,18.450000762939453,18.450000762939453,116300
2020-03-12,16.670000076293945,16.670000076293945,14.375,15.850000381469727,15.850000381469727,174200
2020-03-13,19.700000762939453,19.700000762939453,16.110000610351562,18.239999771118164,18.239999771118164,239600
2020-03-16,16.360000610351562,17.899999618530273,13.491000175476074,17.260000228881836,17.260000228881836,136600
2020-03-17,17.31999969482422,19.670000076293945,16.59000015258789,19.520000457763672,19.520000457763672,125900
2020-03-18,18.329999923706055,18.74799919128418,17.25,18.09000015258789,18.09000015258789,154200
2020-03-19,17.940000534057617,18.700000762939453,16.75,16.770000457763672,16.770000457763672,98700
2020-03-20,17.049999237060547,17.409000396728516,15.739999771118164,16.020000457763672,16.020000457763672,102800
2020-03-23,15.520000457763672,15.710000038146973,14.0,15.270000457763672,15.270000457763672,85200
2020-03-24,16.0,17.299999237060547,15.16100025177002,16.899999618530273,16.899999618530273,82700
2020-03-25,17.040000915527344,18.450000762939453,16.0,17.100000381469727,17.100000381469727,49500
2020-03-26,17.260000228881836,18.260000228881836,17.0049991607666,17.809999465942383,17.809999465942383,94000
2020-03-27,17.670000076293945,18.190000534057617,16.790000915527344,17.829999923706055,17.829999923706055,92000
2020-03-30,17.670000076293945,18.020000457763672,16.280000686645508,17.84000015258789,17.84000015258789,90400
2020-03-31,17.809999465942383,18.399999618530273,16.910999298095703,18.0,18.0,201500
2020-04-01,17.40999984741211,18.139999389648438,16.440000534057617,17.700000762939453,17.700000762939453,85800
2020-04-02,17.739999771118164,17.989999771118164,16.5049991607666,17.010000228881836,17.010000228881836,40100
2020-04-03,17.06999969482422,17.299999237060547,15.899999618530273,16.360000610351562,16.360000610351562,63800
2020-04-06,16.809999465942383,17.299999237060547,16.424999237060547,16.899999618530273,16.899999618530273,44900
2020-04-07,17.3700008392334,17.600000381469727,15.829999923706055,17.0,17.0,185200
2020-04-08,17.1299991607666,17.31999969482422,16.649999618530273,17.219999313354492,17.219999313354492,124200
2020-04-09,17.489999771118164,20.540000915527344,16.92300033569336,19.270000457763672,19.270000457763672,89200
2020-04-13,19.420000076293945,21.020000457763672,19.280000686645508,20.75,20.75,51900
2020-04-14,21.110000610351562,22.639999389648438,20.709999084472656,21.5,21.5,36300
2020-04-15,20.489999771118164,21.440000534057617,20.010000228881836,20.950000762939453,20.950000762939453,34500
2020-04-16,20.829999923706055,21.290000915527344,20.610000610351562,20.700000762939453,20.700000762939453,38800
2020-04-17,21.06999969482422,22.239999771118164,20.893999099731445,21.81999969482422,21.81999969482422,52600
2020-04-20,21.459999084472656,21.459999084472656,19.899999618530273,20.020000457763672,20.020000457763672,49900
2020-04-21,19.5,19.5,18.5,18.600000381469727,18.600000381469727,51500
2020-04-22,18.850000381469727,19.825000762939453,18.5,18.5,18.5,32200
2020-04-23,17.670000076293945,18.100000381469727,16.829999923706055,17.049999237060547,17.049999237060547,141600
2020-04-24,17.149999618530273,18.263999938964844,17.059999465942383,17.799999237060547,17.799999237060547,93900
2020-04-27,17.989999771118164,18.520000457763672,17.5,17.75,17.75,57500
2020-04-28,17.979999542236328,18.1200008392334,17.645000457763672,17.780000686645508,17.780000686645508,48700
2020-04-29,17.829999923706055,19.43000030517578,17.670000076293945,19.1299991607666,19.1299991607666,174500
2020-04-30,19.239999771118164,20.209999084472656,17.200000762939453,19.030000686645508,19.030000686645508,107600
2020-05-01,18.56999969482422,19.420000076293945,18.1299991607666,19.18000030517578,19.18000030517578,52300
2020-05-04,19.219999313354492,21.0,19.0,19.75,19.75,39700
2020-05-05,19.809999465942383,20.010000228881836,18.530000686645508,19.229999542236328,19.229999542236328,53500
2020-05-06,19.190000534057617,19.190000534057617,18.5,18.739999771118164,18.739999771118164,20900
2020-05-07,18.889999389648438,20.760000228881836,18.81999969482422,20.260000228881836,20.260000228881836,58600
2020-05-08,20.31999969482422,21.0,20.100000381469727,20.389999389648438,20.389999389648438,60000
2020-05-11,20.350000381469727,21.200000762939453,19.089000701904297,19.729999542236328,19.729999542236328,63300
2020-05-12,21.0,21.051000595092773,19.850000381469727,20.360000610351562,20.360000610351562,104700
2020-05-13,20.229999542236328,20.725000381469727,17.020000457763672,17.959999084472656,17.959999084472656,123900
2020-05-14,17.770000457763672,18.139999389648438,16.850000381469727,17.84000015258789,17.84000015258789,52400
2020-05-15,17.780000686645508,18.209999084472656,16.73200035095215,17.809999465942383,17.809999465942383,36800
2020-05-18,18.959999084472656,19.3799991607666,17.969999313354492,18.510000228881836,18.510000228881836,52700
2020-05-19,18.860000610351562,18.860000610351562,17.75,17.90999984741211,17.90999984741211,45400
2020-05-20,17.819000244140625,18.864999771118164,17.819000244140625,17.989999771118164,17.989999771118164,51300
2020-05-21,17.68000030517578,18.78499984741211,17.68000030517578,18.260000228881836,18.260000228881836,37800
2020-05-22,18.309999465942383,18.75,17.825000762939453,18.0,18.0,29000
2020-05-26,18.329999923706055,18.81999969482422,17.600000381469727,17.90999984741211,17.90999984741211,57800
2020-05-27,18.020000457763672,18.5,17.34000015258789,18.459999084472656,18.459999084472656,24500
2020-05-28,18.489999771118164,19.479999542236328,17.959999084472656,17.989999771118164,17.989999771118164,43100
2020-05-29,17.959999084472656,18.84000015258789,17.850000381469727,18.31999969482422,18.31999969482422,60400
2020-06-01,18.139999389648438,19.010000228881836,17.79800033569336,18.020000457763672,18.020000457763672,128700
2020-06-02,18.100000381469727,20.459999084472656,18.0,20.1299991607666,20.1299991607666,135300
2020-06-03,20.34000015258789,21.079999923706055,19.639999389648438,19.93000030517578,19.93000030517578,66600
2020-06-04,20.121999740600586,20.56999969482422,19.329999923706055,19.709999084472656,19.709999084472656,55700
2020-06-05,20.170000076293945,21.059999465942383,19.75,20.770000457763672,20.770000457763672,53100
2020-06-08,21.239999771118164,21.81999969482422,20.110000610351562,21.450000762939453,21.450000762939453,45700
2020-06-09,21.200000762939453,21.200000762939453,19.540000915527344,19.649999618530273,19.649999618530273,68500
2020-06-10,19.729999542236328,19.954999923706055,17.6200008392334,18.190000534057617,18.190000534057617,133100
2020-06-11,17.780000686645508,18.55500030517578,16.8700008392334,17.170000076293945,17.170000076293945,77700
2020-06-12,17.399999618530273,18.21500015258789,17.2450008392334,18.09000015258789,18.09000015258789,71200
2020-06-15,17.6200008392334,19.079999923706055,17.610000610351562,18.829999923706055,18.829999923706055,57600
2020-06-16,19.489999771118164,20.03499984741211,18.700000762939453,19.489999771118164,19.489999771118164,78200
2020-06-17,19.809999465942383,20.510000228881836,19.610000610351562,19.790000915527344,19.790000915527344,74500
2020-06-18,19.899999618530273,20.860000610351562,19.010000228881836,19.040000915527344,19.040000915527344,140100
2020-06-19,19.43000030517578,20.155000686645508,18.190000534057617,18.40999984741211,18.40999984741211,107900
2020-06-22,18.549999237060547,18.790000915527344,17.950000762939453,17.969999313354492,17.969999313354492,99600
2020-06-23,17.959999084472656,18.170000076293945,17.760000228881836,17.889999389648438,17.889999389648438,106200
2020-06-24,17.700000762939453,17.969999313354492,17.31999969482422,17.860000610351562,17.860000610351562,72600
2020-06-25,17.829999923706055,18.360000610351562,17.059999465942383,17.3700008392334,17.3700008392334,117100
2020-06-26,17.34000015258789,17.389999389648438,15.680000305175781,15.989999771118164,15.989999771118164,993900
2020-06-29,16.229999542236328,16.8799991607666,15.550000190734863,16.65999984741211,16.65999984741211,134800
2020-06-30,16.530000686645508,18.09000015258789,16.530000686645508,17.639999389648438,17.639999389648438,214700
2020-07-01,17.729999542236328,18.770000457763672,17.31999969482422,18.059999465942383,18.059999465942383,157500
2020-07-02,18.18000030517578,18.399999618530273,17.510000228881836,17.780000686645508,17.780000686645508,65600
2020-07-06,18.0,18.34000015258789,15.994999885559082,17.059999465942383,17.059999465942383,79300
2020-07-07,16.84000015258789,17.09000015258789,16.309999465942383,16.510000228881836,16.510000228881836,35100
2020-07-08,16.3799991607666,16.854999542236328,16.049999237060547,16.34000015258789,16.34000015258789,66000
2020-07-09,16.239999771118164,16.5,15.619999885559082,16.229999542236328,16.229999542236328,110800
2020-07-10,16.09000015258789,17.024999618530273,16.010000228881836,16.6200008392334,16.6200008392334,63700
2020-07-13,16.709999084472656,16.729999542236328,15.029999732971191,15.029999732971191,15.029999732971191,88800
2020-07-14,15.020000457763672,15.5600004196167,14.833000183105469,15.210000038146973,15.210000038146973,84300
2020-07-15,15.5,15.800000190734863,15.220000267028809,15.270000457763672,15.270000457763672,59600
2020-07-16,15.199999809265137,15.369999885559082,14.869999885559082,15.149999618530273,15.149999618530273,64300
2020-07-17,15.079999923706055,15.859999656677246,14.850000381469727,15.579999923706055,15.579999923706055,51700
2020-07-20,15.579999923706055,16.0,15.0600004196167,15.880000114440918,15.880000114440918,32500
2020-07-21,16.170000076293945,16.170000076293945,15.289999961853027,15.670000076293945,15.670000076293945,45500
2020-07-22,15.630000114440918,15.630000114440918,15.15999984741211,15.319999694824219,15.319999694824219,38100
2020-07-23,15.34000015258789,15.34000015258789,14.579999923706055,14.890000343322754,14.890000343322754,34700
2020-07-24,14.75,14.920000076293945,14.380000114440918,14.5,14.5,34800
2020-07-27,14.59000015258789,15.260000228881836,14.550000190734863,15.210000038146973,15.210000038146973,25700
2020-07-28,15.020000457763672,15.564000129699707,14.819999694824219,15.069999694824219,15.069999694824219,37100
2020-07-29,15.164999961853027,15.699999809265137,15.0,15.640000343322754,15.640000343322754,61200
2020-07-30,15.430000305175781,16.010000228881836,15.109999656677246,15.65999984741211,15.65999984741211,55700
2020-07-31,15.729999542236328,15.979999542236328,15.140000343322754,15.3100004196167,15.3100004196167,45700
2020-08-03,15.470000267028809,15.960000038146973,15.470000267028809,15.710000038146973,15.710000038146973,29200
2020-08-04,15.6899995803833,16.75,15.449999809265137,16.549999237060547,16.549999237060547,55100
2020-08-05,16.690000534057617,17.700000762939453,16.520000457763672,17.549999237060547,17.549999237060547,58000
2020-08-06,15.760000228881836,18.0,15.760000228881836,17.93000030517578,17.93000030517578,38600
2020-08-07,17.799999237060547,18.700000762939453,17.799999237060547,18.510000228881836,18.510000228881836,48400
2020-08-10,18.540000915527344,19.40999984741211,18.360000610351562,18.489999771118164,18.489999771118164,55800
2020-08-11,18.770000457763672,19.09000015258789,18.25,18.520000457763672,18.520000457763672,103400
2020-08-12,18.489999771118164,18.670000076293945,16.844999313354492,18.440000534057617,18.440000534057617,263400
2020-08-13,18.209999084472656,19.899999618530273,18.209999084472656,19.229999542236328,19.229999542236328,61200
2020-08-14,19.290000915527344,20.579999923706055,19.020000457763672,19.940000534057617,19.940000534057617,150900
2020-08-17,20.239999771118164,21.99799919128418,19.649999618530273,20.1200008392334,20.1200008392334,157500
2020-08-18,20.200000762939453,20.450000762939453,18.90999984741211,19.3799991607666,19.3799991607666,62200
2020-08-19,19.6200008392334,20.5,19.43000030517578,20.049999237060547,20.049999237060547,52400
2020-08-20,20.049999237060547,20.600000381469727,19.809999465942383,20.31999969482422,20.31999969482422,51700
2020-08-21,20.469999313354492,20.472999572753906,19.670000076293945,19.889999389648438,19.889999389648438,50600
2020-08-24,19.81999969482422,20.06999969482422,19.239999771118164,19.540000915527344,19.540000915527344,68000
2020-08-25,19.739999771118164,19.8799991607666,19.399999618530273,19.780000686645508,19.780000686645508,37900
2020-08-26,19.920000076293945,20.149999618530273,19.260000228881836,19.790000915527344,19.790000915527344,70100
2020-08-27,19.829999923706055,20.1200008392334,19.520000457763672,19.559999465942383,19.559999465942383,55500
2020-08-28,19.799999237060547,20.5,19.579999923706055,20.360000610351562,20.360000610351562,35600
2020-08-31,20.40999984741211,21.440000534057617,20.010000228881836,20.790000915527344,20.790000915527344,71000
2020-09-01,20.719999313354492,22.639999389648438,20.6299991607666,22.40999984741211,22.40999984741211,90000
2020-09-02,22.5,22.5,20.399999618530273,21.209999084472656,21.209999084472656,105900
2020-09-03,21.020000457763672,21.23699951171875,19.309999465942383,19.450000762939453,19.450000762939453,96600
2020-09-04,19.299999237060547,19.739999771118164,18.450000762939453,19.280000686645508,19.280000686645508,83900
2020-09-08,19.06999969482422,19.579999923706055,18.709999084472656,19.459999084472656,19.459999084472656,41900
2020-09-09,19.75,20.559999465942383,19.510000228881836,20.0,20.0,52500
2020-09-10,20.18000030517578,20.219999313354492,19.399999618530273,19.440000534057617,19.440000534057617,41400
2020-09-11,19.479999542236328,20.091999053955078,18.549999237060547,18.700000762939453,18.700000762939453,46400
2020-09-14,18.75,19.25,18.65999984741211,19.09000015258789,19.09000015258789,66800
2020-09-15,19.25,19.31999969482422,18.809999465942383,18.8799991607666,18.8799991607666,36800
2020-09-16,18.889999389648438,19.440000534057617,18.829999923706055,19.059999465942383,19.059999465942383,51900
2020-09-17,18.8700008392334,19.56999969482422,18.8700008392334,18.920000076293945,18.920000076293945,36100
2020-09-18,19.190000534057617,19.25,18.6200008392334,18.93000030517578,18.93000030517578,133600
2020-09-21,18.68000030517578,19.239999771118164,18.44499969482422,18.770000457763672,18.770000457763672,187600
2020-09-22,19.010000228881836,19.020000457763672,18.3799991607666,18.760000228881836,18.760000228881836,41400
2020-09-23,18.65999984741211,19.1299991607666,18.549999237060547,18.549999237060547,18.549999237060547,70000
2020-09-24,18.40999984741211,18.979999542236328,18.40999984741211,18.559999465942383,18.559999465942383,56600
2020-09-25,18.40999984741211,19.0,18.40999984741211,18.940000534057617,18.940000534057617,27800
2020-09-28,19.209999084472656,19.25,18.40999984741211,18.510000228881836,18.510000228881836,45600
2020-09-29,18.5,18.71500015258789,18.18000030517578,18.360000610351562,18.360000610351562,24300
2020-09-30,18.31999969482422,18.5,17.795000076293945,18.459999084472656,18.459999084472656,54800
2020-10-01,18.459999084472656,18.735000610351562,17.729999542236328,18.3799991607666,18.3799991607666,77900
2020-10-02,18.1299991607666,18.989999771118164,17.360000610351562,18.65999984741211,18.65999984741211,45700
2020-10-05,18.80900001525879,20.239999771118164,18.700000762939453,20.079999923706055,20.079999923706055,59800
2020-10-06,20.110000610351562,21.43000030517578,20.110000610351562,21.25,21.25,33800
2020-10-07,21.479999542236328,21.8700008392334,20.56999969482422,21.200000762939453,21.200000762939453,32900
2020-10-08,21.1200008392334,21.25,20.56999969482422,21.149999618530273,21.149999618530273,21700
2020-10-09,21.270000457763672,21.600000381469727,21.010000228881836,21.420000076293945,21.420000076293945,42700
2020-10-12,21.399999618530273,22.5,21.399999618530273,22.450000762939453,22.450000762939453,25400
2020-10-13,22.18000030517578,22.59000015258789,22.18000030517578,22.459999084472656,22.459999084472656,38500
2020-10-14,22.8799991607666,22.8799991607666,22.18000030517578,22.40999984741211,22.40999984741211,34800
2020-10-15,22.059999465942383,22.719999313354492,21.770000457763672,22.530000686645508,22.530000686645508,27500
2020-10-16,22.469999313354492,23.134000778198242,22.469999313354492,22.889999389648438,22.889999389648438,30900
2020-10-19,23.190000534057617,23.450000762939453,21.969999313354492,22.229999542236328,22.229999542236328,55600
2020-10-20,22.68000030517578,22.760000228881836,22.3799991607666,22.59000015258789,22.59000015258789,28700
2020-10-21,22.690000534057617,23.045000076293945,22.15999984741211,22.530000686645508,22.530000686645508,21200
2020-10-22,22.200000762939453,22.780000686645508,22.079999923706055,22.530000686645508,22.530000686645508,19800
2020-10-23,22.270000457763672,22.850000381469727,22.270000457763672,22.829999923706055,22.829999923706055,23500
2020-10-26,22.950000762939453,22.979999542236328,22.139999389648438,22.450000762939453,22.450000762939453,88700
2020-10-27,22.299999237060547,22.489999771118164,21.950000762939453,22.25,22.25,164800
2020-10-28,21.799999237060547,21.989999771118164,21.0,21.270000457763672,21.270000457763672,85800
2020-10-29,21.190000534057617,21.190000534057617,20.5,20.579999923706055,20.579999923706055,34400
2020-10-30,20.389999389648438,21.360000610351562,19.889999389648438,20.799999237060547,20.799999237060547,62300
2020-11-02,20.84000015258789,21.90999984741211,20.834999084472656,21.6200008392334,21.6200008392334,22300
2020-11-03,21.84000015258789,22.239999771118164,21.5,21.739999771118164,21.739999771118164,25100
2020-11-04,21.59000015258789,22.360000610351562,21.280000686645508,22.139999389648438,22.139999389648438,32300
2020-11-05,22.170000076293945,22.5,21.729999542236328,22.200000762939453,22.200000762939453,24600
2020-11-06,22.43000030517578,22.770000457763672,22.239999771118164,22.489999771118164,22.489999771118164,31300
2020-11-09,22.989999771118164,24.079999923706055,22.395000457763672,23.530000686645508,23.530000686645508,46300
2020-11-10,23.540000915527344,24.489999771118164,22.969999313354492,24.079999923706055,24.079999923706055,88300
2020-11-11,24.489999771118164,24.725000381469727,22.8799991607666,24.1299991607666,24.1299991607666,77200
2020-11-12,24.0,24.0,22.6299991607666,22.850000381469727,22.850000381469727,46100
2020-11-13,23.229999542236328,23.229999542236328,21.780000686645508,22.200000762939453,22.200000762939453,57100
2020-11-16,22.510000228881836,22.600000381469727,21.920000076293945,22.5,22.5,49700
2020-11-17,22.420000076293945,22.71500015258789,21.079999923706055,22.5,22.5,24500
2020-11-18,22.739999771118164,23.040000915527344,22.3700008392334,22.5,22.5,17000
2020-11-19,22.709999084472656,22.770000457763672,22.34000015258789,22.610000610351562,22.610000610351562,12700
2020-11-20,22.3700008392334,22.610000610351562,22.150999069213867,22.43000030517578,22.43000030517578,48900
2020-11-23,22.690000534057617,22.690000534057617,21.899999618530273,22.299999237060547,22.299999237060547,26500
2020-11-24,22.170000076293945,23.1299991607666,22.170000076293945,23.020000457763672,23.020000457763672,34300
2020-11-25,23.010000228881836,23.229000091552734,22.389999389648438,22.920000076293945,22.920000076293945,14700
2020-11-27,23.059999465942383,23.68000030517578,22.97100067138672,23.68000030517578,23.68000030517578,11800
2020-11-30,23.559999465942383,27.25,23.559999465942383,26.770000457763672,26.770000457763672,99400
2020-12-01,27.260000228881836,27.260000228881836,25.510000228881836,25.59000015258789,25.59000015258789,31200
2020-12-02,24.8799991607666,26.31999969482422,24.780000686645508,25.690000534057617,25.690000534057617,15300
2020-12-03,25.697999954223633,25.739999771118164,25.0,25.139999389648438,25.139999389648438,11600
2020-12-04,26.275999069213867,26.75,25.700000762939453,26.290000915527344,26.290000915527344,24800
2020-12-07,26.280000686645508,27.68000030517578,24.27199935913086,27.360000610351562,27.360000610351562,38400
2020-12-08,27.350000381469727,28.280000686645508,27.350000381469727,28.0,28.0,31200
2020-12-09,28.219999313354492,28.649999618530273,27.3799991607666,27.399999618530273,27.399999618530273,30700
2020-12-10,27.5,28.09000015258789,27.059999465942383,27.459999084472656,27.459999084472656,23400
2020-12-11,27.420000076293945,27.959999084472656,27.25,27.719999313354492,27.719999313354492,21600
2020-12-14,27.84000015258789,28.0,26.93000030517578,27.100000381469727,27.100000381469727,27500
2020-12-15,27.360000610351562,28.889999389648438,27.1200008392334,27.600000381469727,27.600000381469727,52800
2020-12-16,27.860000610351562,27.860000610351562,26.860000610351562,26.889999389648438,26.889999389648438,40100
2020-12-17,27.149999618530273,27.90999984741211,26.809999465942383,26.809999465942383,26.809999465942383,61300
2020-12-18,27.149999618530273,28.850000381469727,27.024999618530273,27.559999465942383,27.559999465942383,110000
2020-12-21,27.5,28.25,26.170000076293945,26.979999542236328,26.979999542236328,47800
2020-12-22,26.979999542236328,27.680999755859375,26.6299991607666,26.739999771118164,26.739999771118164,51400
2020-12-23,26.739999771118164,28.260000228881836,26.420000076293945,26.559999465942383,26.559999465942383,48700
2020-12-24,26.510000228881836,26.700000762939453,25.329999923706055,26.350000381469727,26.350000381469727,24800
2020-12-28,26.489999771118164,26.833999633789062,25.8799991607666,26.059999465942383,26.059999465942383,24800
2020-12-29,26.0,26.200000762939453,25.610000610351562,25.81999969482422,25.81999969482422,26900
2020-12-30,25.450000762939453,26.360000610351562,25.450000762939453,26.34000015258789,26.34000015258789,29300
