Date,Open,High,Low,Close,Adj Close,Volume
2017-08-29,2.0,5.0,2.0,3.0,3.0,700
2017-08-30,3.0,3.0,3.0,3.0,3.0,0
2017-08-31,2.5,2.5,2.5,2.5,2.5,600
2017-09-01,2.5,2.5,1.399999976158142,1.9800000190734863,1.9800000190734863,4400
2017-09-05,1.5,1.9500000476837158,0.5099999904632568,0.5099999904632568,0.5099999904632568,2600
2017-09-06,1.5,2.0,1.5,2.0,2.0,700
2017-09-07,1.9500000476837158,1.9500000476837158,1.9500000476837158,1.9500000476837158,1.9500000476837158,200
2017-09-08,1.9500000476837158,1.9500000476837158,1.9500000476837158,1.9500000476837158,1.9500000476837158,0
2017-09-11,2.0,2.0,1.0,1.0,1.0,1300
2017-09-12,2.0,2.0,1.840000033378601,1.840000033378601,1.840000033378601,2000
2017-09-13,1.5,1.5,1.25,1.2599999904632568,1.2599999904632568,3200
2017-09-14,1.899999976158142,1.899999976158142,1.850000023841858,1.850000023841858,1.850000023841858,900
2017-09-15,1.850000023841858,1.850000023841858,1.850000023841858,1.850000023841858,1.850000023841858,0
2017-09-18,1.850000023841858,1.850000023841858,1.7999999523162842,1.7999999523162842,1.7999999523162842,400
2017-09-19,1.7999999523162842,1.7999999523162842,1.7999999523162842,1.7999999523162842,1.7999999523162842,0
2017-09-20,1.7999999523162842,1.7999999523162842,1.7999999523162842,1.7999999523162842,1.7999999523162842,0
2017-09-21,1.7999999523162842,1.7999999523162842,1.7999999523162842,1.7999999523162842,1.7999999523162842,0
2017-09-22,2.3499999046325684,2.3499999046325684,1.7999999523162842,1.7999999523162842,1.7999999523162842,1300
2017-09-25,1.8200000524520874,1.8200000524520874,1.8200000524520874,1.8200000524520874,1.8200000524520874,200
2017-09-26,1.8200000524520874,2.0,1.8200000524520874,2.0,2.0,4000
2017-09-27,2.0,2.0,1.7999999523162842,1.7999999523162842,1.7999999523162842,1000
2017-09-28,1.7999999523162842,1.7999999523162842,1.7999999523162842,1.7999999523162842,1.7999999523162842,0
2017-09-29,1.9559999704360962,1.9559999704360962,1.9049999713897705,1.9049999713897705,1.9049999713897705,400
2017-10-02,2.0190000534057617,2.049999952316284,1.5099999904632568,1.5099999904632568,1.5099999904632568,1600
2017-10-03,2.1500000953674316,2.75,1.75,2.7300000190734863,2.7300000190734863,21900
2017-10-04,2.4200000762939453,2.4200000762939453,2.299999952316284,2.299999952316284,2.299999952316284,1300
2017-10-05,2.0799999237060547,2.0799999237060547,2.0799999237060547,2.0799999237060547,2.0799999237060547,800
2017-10-06,2.4200000762939453,2.4200000762939453,2.200000047683716,2.200000047683716,2.200000047683716,900
2017-10-09,2.4200000762939453,3.299999952316284,2.4200000762939453,3.200000047683716,3.200000047683716,25200
2017-10-10,3.2300000190734863,3.25,2.8299999237060547,2.8299999237060547,2.8299999237060547,1300
2017-10-11,3.0999999046325684,3.25,2.5,2.5,2.5,3500
2017-10-12,2.990000009536743,2.990000009536743,2.950000047683716,2.950000047683716,2.950000047683716,4400
2017-10-13,3.0,4.0,2.990000009536743,3.9000000953674316,3.9000000953674316,43900
2017-10-16,3.9000000953674316,4.25,3.509999990463257,4.25,4.25,34700
2017-10-17,4.300000190734863,5.190000057220459,4.300000190734863,5.010000228881836,5.010000228881836,21400
2017-10-18,4.75,5.0,4.5,5.0,5.0,8700
2017-10-19,5.0,5.5,3.799999952316284,5.5,5.5,9500
2017-10-20,4.929999828338623,5.5,4.929999828338623,5.5,5.5,1300
2017-10-23,5.300000190734863,5.300000190734863,4.75,5.0,5.0,4100
2017-10-24,5.0,5.0,4.760000228881836,5.0,5.0,6600
2017-10-25,4.880000114440918,4.889999866485596,4.880000114440918,4.889999866485596,4.889999866485596,1600
2017-10-26,4.889999866485596,4.889999866485596,4.880000114440918,4.889999866485596,4.889999866485596,700
2017-10-27,4.909999847412109,4.909999847412109,4.809999942779541,4.809999942779541,4.809999942779541,500
2017-10-30,4.75,5.099999904632568,4.75,5.0,5.0,10300
2017-10-31,5.0,5.0,4.0,4.0,4.0,1500
2017-11-01,4.5,5.0,4.5,5.0,5.0,2300
2017-11-02,4.849999904632568,5.0,4.815999984741211,4.849999904632568,4.849999904632568,2100
2017-11-03,5.0,5.0,4.849999904632568,5.0,5.0,2400
2017-11-06,4.849999904632568,5.0,3.0,4.5,4.5,2100
2017-11-07,4.5,4.5,2.7699999809265137,3.990000009536743,3.990000009536743,1300
2017-11-08,3.509999990463257,3.509999990463257,3.299999952316284,3.4000000953674316,3.4000000953674316,3500
2017-11-09,3.805999994277954,3.805999994277954,3.805999994277954,3.805999994277954,3.805999994277954,100
2017-11-10,3.5999999046325684,3.6500000953674316,3.5999999046325684,3.6500000953674316,3.6500000953674316,800
2017-11-13,3.690000057220459,3.690000057220459,3.640000104904175,3.640000104904175,3.640000104904175,300
2017-11-14,3.6500000953674316,3.6500000953674316,3.6500000953674316,3.6500000953674316,3.6500000953674316,1300
2017-11-15,3.5999999046325684,3.5999999046325684,3.009999990463257,3.5999999046325684,3.5999999046325684,2000
2017-11-16,3.5999999046325684,3.5999999046325684,3.5999999046325684,3.5999999046325684,3.5999999046325684,0
2017-11-17,3.5999999046325684,3.5999999046325684,3.5999999046325684,3.5999999046325684,3.5999999046325684,0
2017-11-20,3.299999952316284,3.5799999237060547,3.299999952316284,3.5,3.5,4400
2017-11-21,3.5,3.5,3.5,3.5,3.5,100
2017-11-22,3.5,3.5,3.5,3.5,3.5,300
2017-11-24,3.5,3.5,3.5,3.5,3.5,0
2017-11-27,3.390000104904175,3.490000009536743,3.390000104904175,3.490000009536743,3.490000009536743,600
2017-11-28,3.5,3.5,3.5,3.5,3.5,700
2017-11-29,3.390000104904175,3.4000000953674316,3.25,3.4000000953674316,3.4000000953674316,1500
2017-11-30,3.200000047683716,3.299999952316284,3.200000047683716,3.299999952316284,3.299999952316284,900
2017-12-01,3.25,3.75,3.25,3.5,3.5,2300
2017-12-04,4.0,4.75,4.0,4.550000190734863,4.550000190734863,300
2017-12-05,3.75,5.0,3.75,4.5,4.5,7400
2017-12-06,4.25,4.860000133514404,4.25,4.800000190734863,4.800000190734863,4200
2017-12-07,4.400000095367432,4.800000190734863,4.260000228881836,4.739999771118164,4.739999771118164,4100
2017-12-08,4.5,4.5,4.199999809265137,4.199999809265137,4.199999809265137,1300
2017-12-11,3.6600000858306885,4.800000190734863,3.6600000858306885,4.800000190734863,4.800000190734863,1200
2017-12-12,3.759999990463257,4.789999961853027,3.759999990463257,4.699999809265137,4.699999809265137,1500
2017-12-13,4.699999809265137,4.699999809265137,4.699999809265137,4.699999809265137,4.699999809265137,0
2017-12-14,4.25,4.699999809265137,4.25,4.699999809265137,4.699999809265137,1300
2017-12-15,4.400000095367432,4.900000095367432,3.809999942779541,3.809999942779541,3.809999942779541,7800
2017-12-18,4.0,4.760000228881836,3.809999942779541,4.760000228881836,4.760000228881836,2000
2017-12-19,4.5,4.5,4.5,4.5,4.5,1100
2017-12-20,4.010000228881836,4.599999904632568,4.010000228881836,4.599999904632568,4.599999904632568,700
2017-12-21,4.489999771118164,4.489999771118164,4.489999771118164,4.489999771118164,4.489999771118164,100
2017-12-22,4.46999979019165,4.650000095367432,4.46999979019165,4.639999866485596,4.639999866485596,1900
2017-12-26,4.590000152587891,4.590000152587891,4.590000152587891,4.590000152587891,4.590000152587891,300
2017-12-27,4.099999904632568,4.739999771118164,4.099999904632568,4.739999771118164,4.739999771118164,1200
2017-12-28,4.739999771118164,4.800000190734863,4.739999771118164,4.75,4.75,6500
2017-12-29,4.650000095367432,4.900000095367432,4.650000095367432,4.900000095367432,4.900000095367432,900
2018-01-02,4.699999809265137,4.75,4.650000095367432,4.75,4.75,6700
2018-01-03,4.75,4.75,4.75,4.75,4.75,0
2018-01-04,4.599999904632568,4.599999904632568,4.599999904632568,4.599999904632568,4.599999904632568,400
2018-01-05,4.690000057220459,4.690000057220459,4.650000095367432,4.650000095367432,4.650000095367432,1600
2018-01-08,4.75,5.5,4.5,4.5,4.5,11200
2018-01-09,4.5,4.650000095367432,4.110000133514404,4.650000095367432,4.650000095367432,6200
2018-01-10,4.623000144958496,4.741000175476074,4.139999866485596,4.5229997634887695,4.5229997634887695,3400
2018-01-11,4.110000133514404,4.75,4.099999904632568,4.599999904632568,4.599999904632568,29900
2018-01-12,4.400000095367432,4.400000095367432,4.400000095367432,4.400000095367432,4.400000095367432,900
2018-01-16,4.599999904632568,4.599999904632568,4.340000152587891,4.340000152587891,4.340000152587891,14900
2018-01-17,4.340000152587891,4.340000152587891,4.340000152587891,4.340000152587891,4.340000152587891,0
2018-01-18,4.099999904632568,4.28000020980835,4.099999904632568,4.269999980926514,4.269999980926514,600
2018-01-19,4.559999942779541,4.559999942779541,3.7799999713897705,4.449999809265137,4.449999809265137,9200
2018-01-22,3.75,4.449999809265137,3.609999895095825,4.440000057220459,4.440000057220459,8800
2018-01-23,4.440000057220459,4.440000057220459,4.440000057220459,4.440000057220459,4.440000057220459,0
2018-01-24,4.400000095367432,4.400000095367432,3.9600000381469727,3.9600000381469727,3.9600000381469727,600
2018-01-25,4.400000095367432,4.400000095367432,4.400000095367432,4.400000095367432,4.400000095367432,200
2018-01-26,4.349999904632568,4.349999904632568,4.099999904632568,4.099999904632568,4.099999904632568,1300
2018-01-29,4.400000095367432,4.400000095367432,3.509999990463257,3.75,3.75,6000
2018-01-30,3.990000009536743,3.990000009536743,3.2300000190734863,3.7300000190734863,3.7300000190734863,1700
2018-01-31,3.740000009536743,3.75,3.6500000953674316,3.75,3.75,800
2018-02-01,3.5199999809265137,3.869999885559082,3.5199999809265137,3.869999885559082,3.869999885559082,500
2018-02-02,3.5,4.5,3.5,3.9200000762939453,3.9200000762939453,9800
2018-02-05,3.9600000381469727,4.0,3.700000047683716,3.990000009536743,3.990000009536743,2900
2018-02-06,3.5,4.0,3.5,4.0,4.0,4900
2018-02-07,4.0,4.0,3.75,3.997999906539917,3.997999906539917,9500
2018-02-08,3.5299999713897705,3.549999952316284,3.509999990463257,3.549999952316284,3.549999952316284,500
2018-02-09,3.549999952316284,3.549999952316284,3.549999952316284,3.549999952316284,3.549999952316284,0
2018-02-12,3.549999952316284,3.549999952316284,3.549999952316284,3.549999952316284,3.549999952316284,0
2018-02-13,3.549999952316284,3.549999952316284,3.5,3.5,3.5,400
2018-02-14,3.5,3.5,3.4700000286102295,3.5,3.5,3000
2018-02-15,3.5,3.5,3.5,3.5,3.5,200
2018-02-16,3.5,3.5,3.5,3.5,3.5,0
2018-02-20,3.130000114440918,3.130000114440918,3.130000114440918,3.130000114440918,3.130000114440918,400
2018-02-21,3.5,3.5,3.259999990463257,3.5,3.5,7400
2018-02-22,3.5,3.5,3.48799991607666,3.5,3.5,800
2018-02-23,3.5,3.7330000400543213,3.5,3.7330000400543213,3.7330000400543213,3400
2018-02-26,4.0,4.0,3.7260000705718994,3.75,3.75,12300
2018-02-27,3.809000015258789,3.8989999294281006,3.6600000858306885,3.8989999294281006,3.8989999294281006,1300
2018-02-28,3.6500000953674316,3.6540000438690186,3.6010000705718994,3.6540000438690186,3.6540000438690186,1800
2018-03-01,3.5999999046325684,3.640000104904175,3.5999999046325684,3.619999885559082,3.619999885559082,800
2018-03-02,3.619999885559082,3.619999885559082,3.619999885559082,3.619999885559082,3.619999885559082,0
2018-03-05,3.619999885559082,3.619999885559082,3.619999885559082,3.619999885559082,3.619999885559082,0
2018-03-06,3.619999885559082,3.619999885559082,3.619999885559082,3.619999885559082,3.619999885559082,0
2018-03-07,3.619999885559082,3.619999885559082,3.619999885559082,3.619999885559082,3.619999885559082,0
2018-03-08,3.5,3.5339999198913574,3.5,3.5,3.5,1700
2018-03-09,3.5,3.549999952316284,3.5,3.5,3.5,2000
2018-03-12,3.75,4.099999904632568,3.7300000190734863,3.950000047683716,3.950000047683716,9900
2018-03-13,3.75,3.9000000953674316,3.75,3.9000000953674316,3.9000000953674316,5300
2018-03-14,3.500999927520752,3.8399999141693115,3.1500000953674316,3.2899999618530273,3.2899999618530273,12700
2018-03-15,3.4800000190734863,3.8499999046325684,3.450000047683716,3.8399999141693115,3.8399999141693115,10800
2018-03-16,3.4600000381469727,3.940000057220459,3.4000000953674316,3.4000000953674316,3.4000000953674316,10400
2018-03-19,3.73799991607666,3.940000057220459,3.4200000762939453,3.700000047683716,3.700000047683716,5100
2018-03-20,3.690000057220459,3.690000057220459,3.4000000953674316,3.4000000953674316,3.4000000953674316,2000
2018-03-21,3.4010000228881836,3.434000015258789,3.4000000953674316,3.4000000953674316,3.4000000953674316,4700
2018-03-22,3.4100000858306885,3.490000009536743,3.4000000953674316,3.4000000953674316,3.4000000953674316,6000
2018-03-23,3.690000057220459,3.690000057220459,3.430000066757202,3.430000066757202,3.430000066757202,900
2018-03-26,3.569999933242798,3.6700000762939453,3.569999933242798,3.6700000762939453,3.6700000762939453,200
2018-03-27,3.4000000953674316,3.4000000953674316,3.4000000953674316,3.4000000953674316,3.4000000953674316,100
2018-03-28,3.4000000953674316,3.4000000953674316,3.4000000953674316,3.4000000953674316,3.4000000953674316,0
2018-03-29,3.4000000953674316,3.4000000953674316,3.4000000953674316,3.4000000953674316,3.4000000953674316,0
2018-04-02,3.4000000953674316,3.5799999237060547,3.4000000953674316,3.5799999237060547,3.5799999237060547,1600
2018-04-03,3.5999999046325684,3.5999999046325684,3.5999999046325684,3.5999999046325684,3.5999999046325684,200
2018-04-04,3.5199999809265137,3.619999885559082,3.4000000953674316,3.4000000953674316,3.4000000953674316,8900
2018-04-05,3.3499999046325684,3.3499999046325684,3.200000047683716,3.315000057220459,3.315000057220459,3500
2018-04-06,3.6429998874664307,3.9010000228881836,3.5999999046325684,3.5999999046325684,3.5999999046325684,900
2018-04-09,3.7890000343322754,3.7890000343322754,3.75,3.75,3.75,200
2018-04-10,3.75,3.75,3.75,3.75,3.75,0
2018-04-11,3.4000000953674316,3.4000000953674316,3.0999999046325684,3.0999999046325684,3.0999999046325684,1800
2018-04-12,3.010999917984009,3.010999917984009,3.009999990463257,3.009999990463257,3.009999990463257,1400
2018-04-13,3.009999990463257,3.390000104904175,2.6500000953674316,3.390000104904175,3.390000104904175,7000
2018-04-16,3.299999952316284,3.299999952316284,2.299999952316284,2.75,2.75,12600
2018-04-17,2.509999990463257,2.75,2.359999895095825,2.4000000953674316,2.4000000953674316,37600
2018-04-18,2.450000047683716,2.497999906539917,2.450000047683716,2.497999906539917,2.497999906539917,6600
2018-04-19,2.640000104904175,2.984999895095825,2.4509999752044678,2.5799999237060547,2.5799999237060547,19500
2018-04-20,2.5250000953674316,2.7100000381469727,2.5250000953674316,2.549999952316284,2.549999952316284,5100
2018-04-23,2.549999952316284,2.821000099182129,2.549999952316284,2.549999952316284,2.549999952316284,3400
2018-04-24,2.7300000190734863,3.0199999809265137,2.5510001182556152,2.940000057220459,2.940000057220459,19800
2018-04-25,2.990000009536743,3.2639999389648438,2.990000009536743,3.0299999713897705,3.0299999713897705,13900
2018-04-26,3.0999999046325684,3.25,3.0999999046325684,3.200000047683716,3.200000047683716,3000
2018-04-27,3.0,3.0199999809265137,2.859999895095825,2.859999895095825,2.859999895095825,7200
2018-04-30,2.819999933242798,2.9260001182556152,2.819999933242798,2.9260001182556152,2.9260001182556152,1800
2018-05-01,2.799999952316284,3.115000009536743,2.759999990463257,2.859999895095825,2.859999895095825,2600
2018-05-02,2.859999895095825,3.799999952316284,2.859999895095825,2.859999895095825,2.859999895095825,117900
2018-05-03,2.9000000953674316,3.130000114440918,2.8239998817443848,2.8239998817443848,2.8239998817443848,6700
2018-05-04,2.9800000190734863,2.9800000190734863,2.609999895095825,2.6500000953674316,2.6500000953674316,15400
2018-05-07,2.809999942779541,3.0899999141693115,2.609999895095825,2.7200000286102295,2.7200000286102295,9200
2018-05-08,2.7899999618530273,2.8340001106262207,2.6500000953674316,2.6500000953674316,2.6500000953674316,7900
2018-05-09,2.619999885559082,2.6500000953674316,2.5999999046325684,2.609999895095825,2.609999895095825,1700
2018-05-10,2.696000099182129,2.700000047683716,2.450000047683716,2.509999990463257,2.509999990463257,15400
2018-05-11,2.630000114440918,2.694999933242798,2.5,2.5,2.5,10200
2018-05-14,2.5199999809265137,2.7750000953674316,2.4000000953674316,2.5899999141693115,2.5899999141693115,9800
2018-05-15,2.755000114440918,2.755000114440918,2.440000057220459,2.690000057220459,2.690000057220459,4400
2018-05-16,2.700000047683716,2.700000047683716,2.430000066757202,2.430000066757202,2.430000066757202,5200
2018-05-17,2.549999952316284,2.549999952316284,2.049999952316284,2.049999952316284,2.049999952316284,21000
2018-05-18,2.3499999046325684,2.369999885559082,1.909999966621399,2.190000057220459,2.190000057220459,31700
2018-05-21,2.059999942779541,2.059999942779541,1.909999966621399,1.9500000476837158,1.9500000476837158,12800
2018-05-22,1.899999976158142,1.899999976158142,1.6699999570846558,1.6699999570846558,1.6699999570846558,7000
2018-05-23,1.7799999713897705,1.875,1.5199999809265137,1.7209999561309814,1.7209999561309814,16300
2018-05-24,1.7300000190734863,2.0139999389648438,1.5499999523162842,1.840000033378601,1.840000033378601,3900
2018-05-25,1.659999966621399,1.8799999952316284,1.5299999713897705,1.559999942779541,1.559999942779541,13300
2018-05-29,1.590000033378601,1.6799999475479126,1.5499999523162842,1.6799999475479126,1.6799999475479126,2200
2018-05-30,1.7599999904632568,1.7999999523162842,1.6100000143051147,1.6200000047683716,1.6200000047683716,8800
2018-05-31,1.75,1.75,1.649999976158142,1.6649999618530273,1.6649999618530273,2100
2018-06-01,1.6100000143051147,1.75600004196167,1.590000033378601,1.6799999475479126,1.6799999475479126,4500
2018-06-04,1.7369999885559082,1.8420000076293945,1.7369999885559082,1.8420000076293945,1.8420000076293945,1000
2018-06-05,1.850000023841858,1.9889999628067017,1.5499999523162842,1.6699999570846558,1.6699999570846558,11800
2018-06-06,2.0399999618530273,2.0399999618530273,1.7510000467300415,1.9490000009536743,1.9490000009536743,11300
2018-06-07,1.809999942779541,1.9809999465942383,1.809999942779541,1.9049999713897705,1.9049999713897705,3200
2018-06-08,1.8509999513626099,2.1500000953674316,1.781000018119812,2.0,2.0,10900
2018-06-11,1.9240000247955322,1.9589999914169312,1.7710000276565552,1.9589999914169312,1.9589999914169312,3900
2018-06-12,1.930999994277954,1.930999994277954,1.7899999618530273,1.7899999618530273,1.7899999618530273,6000
2018-06-13,1.99399995803833,2.005000114440918,1.850000023841858,1.8600000143051147,1.8600000143051147,5600
2018-06-14,1.7899999618530273,1.8899999856948853,1.7300000190734863,1.8799999952316284,1.8799999952316284,2700
2018-06-15,1.7599999904632568,1.8899999856948853,1.7400000095367432,1.8899999856948853,1.8899999856948853,2700
2018-06-18,1.8200000524520874,1.840000033378601,1.6009999513626099,1.6200000047683716,1.6200000047683716,22700
2018-06-19,1.690000057220459,1.7699999809265137,1.590000033378601,1.590000033378601,1.590000033378601,4000
2018-06-20,1.6100000143051147,1.7400000095367432,1.6100000143051147,1.7400000095367432,1.7400000095367432,1300
2018-06-21,1.718000054359436,2.010999917984009,1.593999981880188,1.6699999570846558,1.6699999570846558,35400
2018-06-22,1.722000002861023,1.8200000524520874,1.6100000143051147,1.6200000047683716,1.6200000047683716,19000
2018-06-25,1.6109999418258667,1.850000023841858,1.6109999418258667,1.75,1.75,19000
2018-06-26,1.7000000476837158,1.7000000476837158,1.6299999952316284,1.6299999952316284,1.6299999952316284,10200
2018-06-27,1.690000057220459,1.7799999713897705,1.6510000228881836,1.7000000476837158,1.7000000476837158,10600
2018-06-28,1.7009999752044678,1.75,1.7000000476837158,1.75,1.75,1200
2018-06-29,1.7400000095367432,1.7799999713897705,1.6299999952316284,1.6299999952316284,1.6299999952316284,6200
2018-07-02,1.6510000228881836,1.659000039100647,1.649999976158142,1.659000039100647,1.659000039100647,1600
2018-07-03,1.649999976158142,1.7000000476837158,1.649999976158142,1.7000000476837158,1.7000000476837158,900
2018-07-05,1.690000057220459,1.690000057220459,1.600000023841858,1.600000023841858,1.600000023841858,7400
2018-07-06,1.690000057220459,1.815000057220459,1.600000023841858,1.684999942779541,1.684999942779541,8600
2018-07-09,1.6799999475479126,1.781000018119812,1.649999976158142,1.690000057220459,1.690000057220459,10900
2018-07-10,1.7699999809265137,1.8890000581741333,1.7000000476837158,1.7000000476837158,1.7000000476837158,8300
2018-07-11,1.7799999713897705,1.850000023841858,1.7400000095367432,1.7619999647140503,1.7619999647140503,7800
2018-07-12,1.6579999923706055,1.7209999561309814,1.6579999923706055,1.7209999561309814,1.7209999561309814,700
2018-07-13,1.75,1.75,1.6699999570846558,1.6699999570846558,1.6699999570846558,200
2018-07-16,1.649999976158142,1.7999999523162842,1.649999976158142,1.6699999570846558,1.6699999570846558,3700
2018-07-17,1.7999999523162842,1.899999976158142,1.7209999561309814,1.809999942779541,1.809999942779541,9500
2018-07-18,1.7000000476837158,1.7999999523162842,1.7000000476837158,1.7510000467300415,1.7510000467300415,3600
2018-07-19,1.75600004196167,1.7640000581741333,1.6799999475479126,1.7640000581741333,1.7640000581741333,2000
2018-07-20,1.7100000381469727,2.062999963760376,1.600000023841858,1.7899999618530273,1.7899999618530273,97100
2018-07-23,1.6469999551773071,1.7910000085830688,1.6469999551773071,1.7910000085830688,1.7910000085830688,6600
2018-07-24,1.690000057220459,1.690000057220459,1.5499999523162842,1.5499999523162842,1.5499999523162842,8700
2018-07-25,1.690000057220459,1.690000057220459,1.1799999475479126,1.4529999494552612,1.4529999494552612,32600
2018-07-26,1.4600000381469727,1.4600000381469727,1.350000023841858,1.3530000448226929,1.3530000448226929,2300
2018-07-27,1.4600000381469727,1.4600000381469727,1.350000023841858,1.350000023841858,1.350000023841858,500
2018-07-30,1.350000023841858,1.437999963760376,1.350000023841858,1.350000023841858,1.350000023841858,5800
2018-07-31,1.2300000190734863,1.350000023841858,1.2300000190734863,1.3029999732971191,1.3029999732971191,1300
2018-08-01,1.3079999685287476,1.350000023841858,1.25,1.25,1.25,1200
2018-08-02,1.3819999694824219,1.3819999694824219,1.2999999523162842,1.2999999523162842,1.2999999523162842,9600
2018-08-03,1.2999999523162842,1.2999999523162842,1.2999999523162842,1.2999999523162842,1.2999999523162842,300
2018-08-06,1.2000000476837158,1.3700000047683716,1.1230000257492065,1.3700000047683716,1.3700000047683716,7200
2018-08-07,1.3700000047683716,1.656000018119812,1.3200000524520874,1.628999948501587,1.628999948501587,52700
2018-08-08,1.8700000047683716,1.9500000476837158,1.3200000524520874,1.7619999647140503,1.7619999647140503,149800
2018-08-09,1.7599999904632568,1.7760000228881836,1.5099999904632568,1.7000000476837158,1.7000000476837158,8600
2018-08-10,1.7000000476837158,1.7289999723434448,1.559999942779541,1.6759999990463257,1.6759999990463257,3500
2018-08-13,1.7899999618530273,1.850000023841858,1.7109999656677246,1.850000023841858,1.850000023841858,2800
2018-08-14,1.7200000286102295,1.9900000095367432,1.7200000286102295,1.7949999570846558,1.7949999570846558,9100
2018-08-15,1.9040000438690186,1.9040000438690186,1.5499999523162842,1.722000002861023,1.722000002861023,7300
2018-08-16,1.600000023841858,1.6299999952316284,1.3200000524520874,1.3899999856948853,1.3899999856948853,11600
2018-08-17,1.2799999713897705,1.309999942779541,1.25,1.309999942779541,1.309999942779541,9800
2018-08-20,1.4179999828338623,1.4989999532699585,1.399999976158142,1.399999976158142,1.399999976158142,13400
2018-08-21,1.309999942779541,1.4420000314712524,1.309999942779541,1.312999963760376,1.312999963760376,11200
2018-08-22,1.309999942779541,1.343000054359436,1.309999942779541,1.309999942779541,1.309999942779541,2700
2018-08-23,1.2999999523162842,1.350000023841858,1.2999999523162842,1.350000023841858,1.350000023841858,6400
2018-08-24,1.350000023841858,1.4299999475479126,1.350000023841858,1.4299999475479126,1.4299999475479126,8100
2018-08-27,1.3600000143051147,1.4420000314712524,1.2999999523162842,1.309999942779541,1.309999942779541,12800
2018-08-28,1.340000033378601,1.3899999856948853,1.3040000200271606,1.350000023841858,1.350000023841858,8300
2018-08-29,1.2999999523162842,1.3899999856948853,1.2999999523162842,1.3899999856948853,1.3899999856948853,4400
2018-08-30,1.3589999675750732,1.3700000047683716,1.2899999618530273,1.2929999828338623,1.2929999828338623,10300
2018-08-31,1.2979999780654907,1.3639999628067017,1.2899999618530273,1.350000023841858,1.350000023841858,2500
2018-09-04,1.3300000429153442,1.3370000123977661,1.2899999618530273,1.3020000457763672,1.3020000457763672,3500
2018-09-05,1.25,1.3200000524520874,1.2059999704360962,1.3200000524520874,1.3200000524520874,2800
2018-09-06,1.25,1.3600000143051147,1.2100000381469727,1.340000033378601,1.340000033378601,8700
2018-09-07,1.350000023841858,1.5,1.2100000381469727,1.409999966621399,1.409999966621399,17700
2018-09-10,1.5,1.5,1.3179999589920044,1.5,1.5,3600
2018-09-11,1.3899999856948853,1.4800000190734863,1.340000033378601,1.350000023841858,1.350000023841858,8300
2018-09-12,1.3200000524520874,1.4500000476837158,1.309999942779541,1.440000057220459,1.440000057220459,2300
2018-09-13,1.3700000047683716,1.399999976158142,1.2200000286102295,1.2200000286102295,1.2200000286102295,6500
2018-09-14,1.350000023841858,1.350000023841858,1.2100000381469727,1.2100000381469727,1.2100000381469727,2000
2018-09-17,1.2100000381469727,1.340000033378601,1.2100000381469727,1.2100000381469727,1.2100000381469727,6000
2018-09-18,1.309999942779541,1.309999942779541,1.2100000381469727,1.2999999523162842,1.2999999523162842,3000
2018-09-19,1.2200000286102295,1.3200000524520874,1.1799999475479126,1.1799999475479126,1.1799999475479126,5900
2018-09-20,1.2699999809265137,1.9800000190734863,1.2699999809265137,1.600000023841858,1.600000023841858,44900
2018-09-21,1.899999976158142,1.899999976158142,1.2599999904632568,1.3200000524520874,1.3200000524520874,33800
2018-09-24,1.340000033378601,1.3600000143051147,1.25,1.25,1.25,23000
2018-09-25,1.2400000095367432,1.434000015258789,1.2100000381469727,1.2100000381469727,1.2100000381469727,8500
2018-09-26,1.2200000286102295,1.559999942779541,1.2200000286102295,1.4900000095367432,1.4900000095367432,8700
2018-09-27,1.440000057220459,1.440000057220459,1.25,1.25,1.25,7300
2018-09-28,1.25,1.3799999952316284,1.2100000381469727,1.2200000286102295,1.2200000286102295,33500
2018-10-01,1.2699999809265137,1.4500000476837158,1.2100000381469727,1.2999999523162842,1.2999999523162842,12600
2018-10-02,1.253999948501587,1.2599999904632568,1.2200000286102295,1.25,1.25,4400
2018-10-03,1.2100000381469727,1.3969999551773071,1.2100000381469727,1.3969999551773071,1.3969999551773071,7100
2018-10-04,1.3200000524520874,1.3799999952316284,1.2599999904632568,1.3660000562667847,1.3660000562667847,5400
2018-10-05,1.2599999904632568,1.2599999904632568,1.2400000095367432,1.25,1.25,4200
2018-10-08,1.2300000190734863,1.3600000143051147,1.1799999475479126,1.3600000143051147,1.3600000143051147,9100
2018-10-09,1.3600000143051147,1.5010000467300415,1.2999999523162842,1.5,1.5,12700
2018-10-10,1.5,1.6399999856948853,1.3200000524520874,1.5499999523162842,1.5499999523162842,8600
2018-10-11,1.2999999523162842,1.6399999856948853,1.2999999523162842,1.6399999856948853,1.6399999856948853,1900
2018-10-12,1.5399999618530273,1.5800000429153442,1.3700000047683716,1.5800000429153442,1.5800000429153442,7100
2018-10-15,1.149999976158142,1.5399999618530273,1.149999976158142,1.3799999952316284,1.3799999952316284,23200
2018-10-16,1.4199999570846558,1.4299999475479126,1.4199999570846558,1.4199999570846558,1.4199999570846558,800
2018-10-17,1.4299999475479126,1.4299999475479126,1.4299999475479126,1.4299999475479126,1.4299999475479126,600
2018-10-18,1.4299999475479126,1.600000023841858,1.309999942779541,1.600000023841858,1.600000023841858,16500
2018-10-19,1.7000000476837158,1.9199999570846558,1.6080000400543213,1.9199999570846558,1.9199999570846558,29400
2018-10-22,1.9500000476837158,3.5,1.9500000476837158,2.4200000762939453,2.4200000762939453,220300
2018-10-23,2.5,2.630000114440918,2.4000000953674316,2.4000000953674316,2.4000000953674316,35500
2018-10-24,2.4200000762939453,2.4700000286102295,2.0399999618530273,2.319999933242798,2.319999933242798,22100
2018-10-25,2.299999952316284,2.309999942779541,1.850000023841858,1.850000023841858,1.850000023841858,94000
2018-10-26,1.7200000286102295,1.7200000286102295,1.399999976158142,1.5499999523162842,1.5499999523162842,100600
2018-10-29,1.399999976158142,1.5499999523162842,1.2599999904632568,1.2999999523162842,1.2999999523162842,93900
2018-10-30,0.7900000214576721,0.8299999833106995,0.7099999785423279,0.7400000095367432,0.7400000095367432,674600
2018-10-31,0.7480000257492065,0.8100000023841858,0.6809999942779541,0.7900000214576721,0.7900000214576721,657300
2018-11-01,0.800000011920929,0.800000011920929,0.7099999785423279,0.7149999737739563,0.7149999737739563,97800
2018-11-02,0.7149999737739563,0.7699999809265137,0.7099999785423279,0.7400000095367432,0.7400000095367432,59800
2018-11-05,0.7599999904632568,0.7599999904632568,0.7099999785423279,0.7210000157356262,0.7210000157356262,45700
2018-11-06,0.7210000157356262,0.75,0.7099999785423279,0.7200000286102295,0.7200000286102295,46600
2018-11-07,0.7099999785423279,0.7480000257492065,0.6019999980926514,0.7400000095367432,0.7400000095367432,94400
2018-11-08,0.6899999976158142,0.7400000095367432,0.6510000228881836,0.7300000190734863,0.7300000190734863,324900
2018-11-09,0.699999988079071,0.753000020980835,0.675000011920929,0.675000011920929,0.675000011920929,250000
2018-11-12,0.6899999976158142,0.75,0.6850000023841858,0.699999988079071,0.699999988079071,64000
2018-11-13,0.7009999752044678,0.75,0.6800000071525574,0.6990000009536743,0.6990000009536743,33900
2018-11-14,0.6650000214576721,0.75,0.6600000262260437,0.6650000214576721,0.6650000214576721,155900
2018-11-15,0.6610000133514404,0.7680000066757202,0.6600000262260437,0.75,0.75,430800
2018-11-16,0.7099999785423279,0.9660000205039978,0.6909999847412109,0.7699999809265137,0.7699999809265137,815200
2018-11-19,0.75,0.8199999928474426,0.6700000166893005,0.6809999942779541,0.6809999942779541,154800
2018-11-20,0.6800000071525574,0.7049999833106995,0.6600000262260437,0.6600000262260437,0.6600000262260437,140900
2018-11-21,0.6629999876022339,0.6790000200271606,0.6299999952316284,0.6790000200271606,0.6790000200271606,71200
2018-11-23,0.699999988079071,0.699999988079071,0.6470000147819519,0.6499999761581421,0.6499999761581421,65400
2018-11-26,0.6549999713897705,0.6650000214576721,0.6399999856948853,0.6499999761581421,0.6499999761581421,69700
2018-11-27,0.699999988079071,0.7099999785423279,0.6510000228881836,0.6510000228881836,0.6510000228881836,69800
2018-11-28,0.6899999976158142,0.7590000033378601,0.6600000262260437,0.6600000262260437,0.6600000262260437,91600
2018-11-29,0.6909999847412109,0.7179999947547913,0.6499999761581421,0.6499999761581421,0.6499999761581421,28100
2018-11-30,0.6700000166893005,0.6990000009536743,0.6499999761581421,0.6499999761581421,0.6499999761581421,19800
2018-12-03,0.6520000100135803,0.6800000071525574,0.5799999833106995,0.5799999833106995,0.5799999833106995,110800
2018-12-04,0.5600000023841858,0.574999988079071,0.47999998927116394,0.5400000214576721,0.5400000214576721,134900
2018-12-06,0.550000011920929,0.5799999833106995,0.5299999713897705,0.5600000023841858,0.5600000023841858,56900
2018-12-07,0.5630000233650208,0.5799999833106995,0.5199999809265137,0.5799999833106995,0.5799999833106995,96900
2018-12-10,0.5009999871253967,0.550000011920929,0.5,0.550000011920929,0.550000011920929,42100
2018-12-11,0.5370000004768372,0.6600000262260437,0.5370000004768372,0.5519999861717224,0.5519999861717224,58500
2018-12-12,0.5899999737739563,0.6100000143051147,0.550000011920929,0.5509999990463257,0.5509999990463257,127500
2018-12-13,0.5799999833106995,0.7049999833106995,0.5799999833106995,0.6169999837875366,0.6169999837875366,176000
2018-12-14,0.6200000047683716,0.6850000023841858,0.6169999837875366,0.6209999918937683,0.6209999918937683,92300
2018-12-17,0.6600000262260437,0.6600000262260437,0.5299999713897705,0.5550000071525574,0.5550000071525574,61600
2018-12-18,0.5830000042915344,0.5830000042915344,0.5130000114440918,0.5400000214576721,0.5400000214576721,27900
2018-12-19,0.5699999928474426,0.5799999833106995,0.5299999713897705,0.5410000085830688,0.5410000085830688,32300
2018-12-20,0.6000000238418579,0.6200000047683716,0.4320000112056732,0.5249999761581421,0.5249999761581421,74200
2018-12-21,0.5600000023841858,0.5979999899864197,0.5,0.5540000200271606,0.5540000200271606,11000
2018-12-24,0.5099999904632568,0.5979999899864197,0.5,0.5979999899864197,0.5979999899864197,1800
2018-12-26,0.5950000286102295,0.5950000286102295,0.550000011920929,0.550000011920929,0.550000011920929,21200
2018-12-27,0.5879999995231628,0.5879999995231628,0.550000011920929,0.5600000023841858,0.5600000023841858,13700
2018-12-28,0.5600000023841858,0.625,0.5220000147819519,0.5699999928474426,0.5699999928474426,6700
2018-12-31,0.5799999833106995,0.6949999928474426,0.5799999833106995,0.6499999761581421,0.6499999761581421,83800
2019-01-02,0.718999981880188,0.75,0.621999979019165,0.621999979019165,0.621999979019165,82100
2019-01-03,0.6299999952316284,0.6949999928474426,0.6000000238418579,0.6100000143051147,0.6100000143051147,16500
2019-01-04,0.6980000138282776,0.6980000138282776,0.6019999980926514,0.675000011920929,0.675000011920929,13900
2019-01-07,0.675000011920929,0.6800000071525574,0.621999979019165,0.6779999732971191,0.6779999732971191,30500
2019-01-08,0.6399999856948853,0.6779999732971191,0.5099999904632568,0.5950000286102295,0.5950000286102295,104600
2019-01-09,0.550000011920929,0.5849999785423279,0.550000011920929,0.5690000057220459,0.5690000057220459,30200
2019-01-10,0.5699999928474426,0.6430000066757202,0.5509999990463257,0.6200000047683716,0.6200000047683716,83600
2019-01-11,0.5600000023841858,0.625,0.5600000023841858,0.621999979019165,0.621999979019165,4000
2019-01-14,0.6499999761581421,0.6779999732971191,0.6100000143051147,0.6399999856948853,0.6399999856948853,17400
2019-01-15,0.5809999704360962,0.6399999856948853,0.5809999704360962,0.5870000123977661,0.5870000123977661,2300
2019-01-16,0.6200000047683716,0.6200000047683716,0.5329999923706055,0.6000000238418579,0.6000000238418579,91700
2019-01-17,0.5950000286102295,0.6769999861717224,0.593999981880188,0.6769999861717224,0.6769999861717224,12100
2019-01-18,0.6349999904632568,0.7200000286102295,0.5920000076293945,0.6899999976158142,0.6899999976158142,24800
2019-01-22,0.6899999976158142,0.7950000166893005,0.6669999957084656,0.7149999737739563,0.7149999737739563,790100
2019-01-23,0.7699999809265137,0.7699999809265137,0.6299999952316284,0.6800000071525574,0.6800000071525574,51800
2019-01-24,0.6800000071525574,0.699999988079071,0.6399999856948853,0.699999988079071,0.699999988079071,16700
2019-01-25,0.6600000262260437,0.699999988079071,0.6240000128746033,0.6600000262260437,0.6600000262260437,46700
2019-01-28,0.6539999842643738,0.7099999785423279,0.6000000238418579,0.6000000238418579,0.6000000238418579,46500
2019-01-29,0.6499999761581421,0.699999988079071,0.6010000109672546,0.6399999856948853,0.6399999856948853,64600
2019-01-30,0.699999988079071,0.699999988079071,0.5600000023841858,0.6470000147819519,0.6470000147819519,9600
2019-01-31,0.6200000047683716,0.699999988079071,0.6200000047683716,0.6669999957084656,0.6669999957084656,9900
2019-02-01,0.699999988079071,0.699999988079071,0.6399999856948853,0.6700000166893005,0.6700000166893005,12500
2019-02-04,0.699999988079071,0.7099999785423279,0.6499999761581421,0.7099999785423279,0.7099999785423279,9200
2019-02-05,0.699999988079071,0.75,0.6499999761581421,0.7200000286102295,0.7200000286102295,107300
2019-02-06,0.75,0.75,0.6549999713897705,0.7269999980926514,0.7269999980926514,10800
2019-02-07,0.75,0.75,0.6710000038146973,0.7020000219345093,0.7020000219345093,60100
2019-02-08,0.75,0.75,0.7099999785423279,0.7099999785423279,0.7099999785423279,48400
2019-02-11,0.6800000071525574,0.7459999918937683,0.6700000166893005,0.7300000190734863,0.7300000190734863,10100
2019-02-12,0.75,0.75,0.6840000152587891,0.7300000190734863,0.7300000190734863,17700
2019-02-13,0.75,0.75,0.7239999771118164,0.7400000095367432,0.7400000095367432,23500
2019-02-14,0.7200000286102295,0.8199999928474426,0.699999988079071,0.7699999809265137,0.7699999809265137,151900
2019-02-15,0.7760000228881836,0.7799999713897705,0.7170000076293945,0.75,0.75,11800
2019-02-19,0.7799999713897705,0.7799999713897705,0.7200000286102295,0.7799999713897705,0.7799999713897705,13500
2019-02-20,0.7799999713897705,0.8500000238418579,0.7760000228881836,0.7799999713897705,0.7799999713897705,284200
2019-02-21,0.8299999833106995,0.8299999833106995,0.7300000190734863,0.7860000133514404,0.7860000133514404,122000
2019-02-22,0.7900000214576721,0.8109999895095825,0.7559999823570251,0.7900000214576721,0.7900000214576721,19000
2019-02-25,0.8299999833106995,0.8299999833106995,0.7440000176429749,0.7699999809265137,0.7699999809265137,18200
2019-02-26,0.7699999809265137,0.7699999809265137,0.7400000095367432,0.7400000095367432,0.7400000095367432,13200
2019-02-27,0.7699999809265137,0.7699999809265137,0.7049999833106995,0.7400000095367432,0.7400000095367432,46500
2019-02-28,0.75,0.7699999809265137,0.7120000123977661,0.7300000190734863,0.7300000190734863,11100
2019-03-01,0.75,0.75,0.699999988079071,0.7350000143051147,0.7350000143051147,39400
2019-03-04,0.7400000095367432,0.800000011920929,0.7400000095367432,0.7400000095367432,0.7400000095367432,42200
2019-03-05,0.7799999713897705,0.7799999713897705,0.75,0.7699999809265137,0.7699999809265137,70100
2019-03-06,0.7799999713897705,0.7799999713897705,0.6610000133514404,0.699999988079071,0.699999988079071,76100
2019-03-07,0.7269999980926514,0.7300000190734863,0.699999988079071,0.7200000286102295,0.7200000286102295,29100
2019-03-08,0.7300000190734863,0.7300000190734863,0.6899999976158142,0.7300000190734863,0.7300000190734863,34500
2019-03-11,0.699999988079071,0.7300000190734863,0.6899999976158142,0.6899999976158142,0.6899999976158142,46400
2019-03-12,0.7200000286102295,0.7400000095367432,0.6499999761581421,0.6610000133514404,0.6610000133514404,134100
2019-03-13,0.6899999976158142,1.0399999618530273,0.6600000262260437,0.7400000095367432,0.7400000095367432,865000
2019-03-14,0.7799999713897705,0.800000011920929,0.6620000004768372,0.7400000095367432,0.7400000095367432,168300
2019-03-15,0.6970000267028809,0.7300000190734863,0.6800000071525574,0.7300000190734863,0.7300000190734863,19400
2019-03-18,0.7300000190734863,0.7570000290870667,0.699999988079071,0.7269999980926514,0.7269999980926514,27200
2019-03-19,0.703000009059906,0.7200000286102295,0.640999972820282,0.7200000286102295,0.7200000286102295,53000
2019-03-20,0.699999988079071,0.7039999961853027,0.6600000262260437,0.6899999976158142,0.6899999976158142,106800
2019-03-21,0.699999988079071,0.699999988079071,0.6600000262260437,0.6970000267028809,0.6970000267028809,88500
2019-03-22,0.6639999747276306,0.7039999961853027,0.6499999761581421,0.6499999761581421,0.6499999761581421,20700
2019-03-25,0.6700000166893005,0.6800000071525574,0.6389999985694885,0.6700000166893005,0.6700000166893005,10300
2019-03-26,0.6489999890327454,0.6800000071525574,0.6399999856948853,0.6779999732971191,0.6779999732971191,73900
2019-03-27,0.6800000071525574,0.6800000071525574,0.6399999856948853,0.6629999876022339,0.6629999876022339,79300
2019-03-28,0.640999972820282,0.6800000071525574,0.6330000162124634,0.6639999747276306,0.6639999747276306,19600
2019-03-29,0.6700000166893005,0.699999988079071,0.6399999856948853,0.699999988079071,0.699999988079071,255600
2019-04-01,0.7039999961853027,0.7039999961853027,0.6499999761581421,0.6499999761581421,0.6499999761581421,37700
2019-04-02,0.6869999766349792,0.6869999766349792,0.5899999737739563,0.6399999856948853,0.6399999856948853,87800
2019-04-03,0.652999997138977,0.652999997138977,0.6100000143051147,0.6200000047683716,0.6200000047683716,40300
2019-04-04,0.6140000224113464,0.6800000071525574,0.6140000224113464,0.6800000071525574,0.6800000071525574,46200
2019-04-05,0.6690000295639038,0.699999988079071,0.6330000162124634,0.6700000166893005,0.6700000166893005,35900
2019-04-08,0.7039999961853027,0.7039999961853027,0.6629999876022339,0.699999988079071,0.699999988079071,44400
2019-04-09,0.6759999990463257,0.7200000286102295,0.6759999990463257,0.699999988079071,0.699999988079071,44000
2019-04-10,0.7200000286102295,0.7200000286102295,0.6990000009536743,0.699999988079071,0.699999988079071,30900
2019-04-11,0.675000011920929,0.7200000286102295,0.6600000262260437,0.6600000262260437,0.6600000262260437,10500
2019-04-12,0.6510000228881836,0.7200000286102295,0.6200000047683716,0.699999988079071,0.699999988079071,36400
2019-04-15,0.6759999990463257,0.699999988079071,0.6499999761581421,0.6899999976158142,0.6899999976158142,6700
2019-04-16,0.6830000281333923,0.699999988079071,0.6430000066757202,0.6600000262260437,0.6600000262260437,27900
2019-04-17,0.6539999842643738,0.7099999785423279,0.6539999842643738,0.6880000233650208,0.6880000233650208,1600
2019-04-18,0.699999988079071,0.699999988079071,0.6399999856948853,0.6800000071525574,0.6800000071525574,10900
2019-04-22,0.6949999928474426,0.6949999928474426,0.6399999856948853,0.6769999861717224,0.6769999861717224,6000
2019-04-23,0.6949999928474426,0.6949999928474426,0.6499999761581421,0.6859999895095825,0.6859999895095825,12300
2019-04-24,0.6850000023841858,0.6899999976158142,0.6399999856948853,0.6899999976158142,0.6899999976158142,48000
2019-04-25,0.6700000166893005,0.6899999976158142,0.652999997138977,0.6899999976158142,0.6899999976158142,12600
2019-04-26,0.6899999976158142,0.6899999976158142,0.6700000166893005,0.6869999766349792,0.6869999766349792,5500
2019-04-29,0.6899999976158142,0.7110000252723694,0.6700000166893005,0.6899999976158142,0.6899999976158142,47200
2019-04-30,0.7200000286102295,0.7200000286102295,0.6100000143051147,0.7200000286102295,0.7200000286102295,20200
2019-05-01,0.7099999785423279,0.7099999785423279,0.6600000262260437,0.6600000262260437,0.6600000262260437,13200
2019-05-02,0.6700000166893005,0.699999988079071,0.6499999761581421,0.6899999976158142,0.6899999976158142,15000
2019-05-03,0.699999988079071,0.699999988079071,0.6959999799728394,0.6959999799728394,0.6959999799728394,44200
2019-05-06,0.699999988079071,0.7350000143051147,0.6899999976158142,0.7049999833106995,0.7049999833106995,160700
2019-05-07,0.7089999914169312,0.800000011920929,0.7089999914169312,0.7799999713897705,0.7799999713897705,237900
2019-05-08,0.800000011920929,0.8199999928474426,0.781000018119812,0.800000011920929,0.800000011920929,227800
2019-05-09,0.8100000023841858,0.8100000023841858,0.7699999809265137,0.7900000214576721,0.7900000214576721,93100
2019-05-10,0.7950000166893005,0.800000011920929,0.7639999985694885,0.7990000247955322,0.7990000247955322,61800
2019-05-13,0.7839999794960022,0.7990000247955322,0.75,0.7799999713897705,0.7799999713897705,155200
2019-05-14,0.7609999775886536,0.800000011920929,0.7609999775886536,0.7940000295639038,0.7940000295639038,74400
2019-05-15,0.800000011920929,0.800000011920929,0.7799999713897705,0.7799999713897705,0.7799999713897705,120100
2019-05-16,0.7699999809265137,0.800000011920929,0.75,0.7929999828338623,0.7929999828338623,32600
2019-05-17,0.7900000214576721,0.8700000047683716,0.7900000214576721,0.8500000238418579,0.8500000238418579,302000
2019-05-20,0.8600000143051147,0.8899999856948853,0.8500000238418579,0.8600000143051147,0.8600000143051147,206000
2019-05-21,0.875,0.9300000071525574,0.8500000238418579,0.9229999780654907,0.9229999780654907,189100
2019-05-22,0.9800000190734863,0.9800000190734863,0.9100000262260437,0.9599999785423279,0.9599999785423279,146300
2019-05-23,0.9800000190734863,0.9800000190734863,0.8700000047683716,0.9259999990463257,0.9259999990463257,37600
2019-05-24,0.9200000166893005,0.9300000071525574,0.8209999799728394,0.8560000061988831,0.8560000061988831,96100
2019-05-28,1.0800000429153442,1.1200000047683716,0.8569999933242798,0.9229999780654907,0.9229999780654907,1578500
2019-05-29,0.9200000166893005,0.9900000095367432,0.8309999704360962,0.984000027179718,0.984000027179718,231700
2019-05-30,1.0199999809265137,1.0399999618530273,0.9200000166893005,0.9789999723434448,0.9789999723434448,439400
2019-05-31,0.9430000185966492,0.9800000190734863,0.8420000076293945,0.921999990940094,0.921999990940094,181400
2019-06-03,0.9900000095367432,0.9900000095367432,0.8999999761581421,0.9399999976158142,0.9399999976158142,172700
2019-06-04,0.9789999723434448,0.9789999723434448,0.9200000166893005,0.9570000171661377,0.9570000171661377,159700
2019-06-05,0.9700000286102295,0.9800000190734863,0.9300000071525574,0.9449999928474426,0.9449999928474426,116600
2019-06-06,0.949999988079071,0.9700000286102295,0.925000011920929,0.949999988079071,0.949999988079071,95400
2019-06-07,0.9900000095367432,0.9900000095367432,0.9399999976158142,0.9660000205039978,0.9660000205039978,113200
2019-06-10,0.9850000143051147,1.100000023841858,0.9850000143051147,1.100000023841858,1.100000023841858,377200
2019-06-11,1.1200000047683716,1.399999976158142,1.100000023841858,1.190000057220459,1.190000057220459,1038400
2019-06-12,1.2400000095367432,1.2799999713897705,1.1399999856948853,1.1799999475479126,1.1799999475479126,345200
2019-06-13,1.2200000286102295,1.309999942779541,1.187000036239624,1.2699999809265137,1.2699999809265137,315300
2019-06-14,1.2899999618530273,1.2899999618530273,1.2300000190734863,1.2599999904632568,1.2599999904632568,210500
2019-06-17,1.3200000524520874,1.440000057220459,1.274999976158142,1.440000057220459,1.440000057220459,471600
2019-06-18,1.4900000095367432,1.7400000095367432,1.3020000457763672,1.399999976158142,1.399999976158142,769900
2019-06-19,1.4500000476837158,1.5,1.399999976158142,1.4900000095367432,1.4900000095367432,200200
2019-06-20,1.5,1.5579999685287476,1.4900000095367432,1.5499999523162842,1.5499999523162842,210700
2019-06-21,1.600000023841858,1.6100000143051147,1.5099999904632568,1.590000033378601,1.590000033378601,201000
2019-06-24,1.6399999856948853,2.059999942779541,1.628999948501587,1.9500000476837158,1.9500000476837158,757800
2019-06-25,2.0299999713897705,2.299999952316284,1.7829999923706055,1.909999966621399,1.909999966621399,856400
2019-06-26,2.0,2.0299999713897705,1.7999999523162842,2.0,2.0,543100
2019-06-27,1.9900000095367432,2.0,1.840000033378601,1.8910000324249268,1.8910000324249268,193300
2019-06-28,1.8700000047683716,1.940000057220459,1.8200000524520874,1.8700000047683716,1.8700000047683716,206400
2019-07-01,1.8899999856948853,1.9600000381469727,1.850000023841858,1.909999966621399,1.909999966621399,278800
2019-07-02,1.899999976158142,1.9249999523162842,1.649999976158142,1.649999976158142,1.649999976158142,255100
2019-07-03,1.6200000047683716,1.809999942779541,1.409999966621399,1.7999999523162842,1.7999999523162842,419600
2019-07-05,1.7999999523162842,1.940000057220459,1.75,1.899999976158142,1.899999976158142,170400
2019-07-08,1.899999976158142,1.899999976158142,1.75,1.8300000429153442,1.8300000429153442,108900
2019-07-09,1.8300000429153442,1.8899999856948853,1.7699999809265137,1.8300000429153442,1.8300000429153442,89700
2019-07-10,1.8300000429153442,1.8300000429153442,1.7200000286102295,1.7200000286102295,1.7200000286102295,150200
2019-07-11,1.7599999904632568,1.9199999570846558,1.7200000286102295,1.9199999570846558,1.9199999570846558,367200
2019-07-12,1.9500000476837158,2.119999885559082,1.850000023841858,2.0,2.0,471600
2019-07-15,2.0799999237060547,2.430000066757202,2.0,2.369999885559082,2.369999885559082,501200
2019-07-16,2.4200000762939453,2.9000000953674316,2.4100000858306885,2.5739998817443848,2.5739998817443848,1107200
2019-07-17,2.6500000953674316,3.450000047683716,2.6500000953674316,3.0999999046325684,3.0999999046325684,1684300
2019-07-18,2.940000057220459,3.200000047683716,2.680000066757202,2.859999895095825,2.859999895095825,906600
2019-07-19,2.8299999237060547,3.0799999237060547,2.75,3.0299999713897705,3.0299999713897705,588000
2019-07-22,3.109999895095825,3.7799999713897705,3.0899999141693115,3.740000009536743,3.740000009536743,1161700
2019-07-23,3.9000000953674316,4.25,3.309999942779541,3.640000104904175,3.640000104904175,2329700
2019-07-24,3.700000047683716,4.099999904632568,3.549999952316284,4.0,4.0,986200
2019-07-25,4.099999904632568,5.090000152587891,3.950000047683716,4.570000171661377,4.570000171661377,3107300
2019-07-26,4.690000057220459,5.440000057220459,4.590000152587891,5.340000152587891,5.340000152587891,4265200
2019-07-29,5.300000190734863,5.335999965667725,4.010000228881836,4.389999866485596,4.389999866485596,2964300
2019-07-30,4.28000020980835,4.28000020980835,3.8499999046325684,3.8499999046325684,3.8499999046325684,1207100
2019-07-31,3.9100000858306885,4.449999809265137,3.9100000858306885,4.320000171661377,4.320000171661377,1040000
2019-08-01,4.550000190734863,4.840000152587891,4.199999809265137,4.400000095367432,4.400000095367432,1068500
2019-08-02,4.349999904632568,4.579999923706055,4.119999885559082,4.190000057220459,4.190000057220459,755500
2019-08-05,3.950000047683716,4.190000057220459,3.75,4.150000095367432,4.150000095367432,464400
2019-08-06,4.239999771118164,4.5,4.050000190734863,4.199999809265137,4.199999809265137,562600
2019-08-07,4.199999809265137,4.360000133514404,4.03000020980835,4.199999809265137,4.199999809265137,315900
2019-08-08,4.239999771118164,4.369999885559082,3.9600000381469727,4.03000020980835,4.03000020980835,463800
2019-08-09,4.010000228881836,4.099999904632568,3.619999885559082,3.6500000953674316,3.6500000953674316,542700
2019-08-12,3.7300000190734863,3.7300000190734863,3.0999999046325684,3.119999885559082,3.119999885559082,766100
2019-08-13,3.0999999046325684,3.680000066757202,2.9000000953674316,3.200000047683716,3.200000047683716,718000
2019-08-14,3.0999999046325684,3.180000066757202,2.7200000286102295,2.8299999237060547,2.8299999237060547,751800
2019-08-15,2.5999999046325684,3.0999999046325684,2.5799999237060547,2.869999885559082,2.869999885559082,389000
2019-08-16,2.809999942779541,3.200000047683716,2.809999942779541,3.0399999618530273,3.0399999618530273,369400
2019-08-19,3.0999999046325684,3.5999999046325684,3.0820000171661377,3.4000000953674316,3.4000000953674316,614700
2019-08-20,3.4700000286102295,3.6500000953674316,3.4100000858306885,3.5399999618530273,3.5399999618530273,438500
2019-08-21,3.619999885559082,3.9700000286102295,3.549999952316284,3.6600000858306885,3.6600000858306885,728800
2019-08-22,3.6500000953674316,3.7119998931884766,3.2200000286102295,3.299999952316284,3.299999952316284,401500
2019-08-23,3.25,3.5199999809265137,3.1500000953674316,3.430000066757202,3.430000066757202,294300
2019-08-26,3.4800000190734863,3.5490000247955322,3.0799999237060547,3.2100000381469727,3.2100000381469727,260300
2019-08-27,3.25,3.5399999618530273,3.200000047683716,3.309999942779541,3.309999942779541,302900
2019-08-28,3.259999990463257,3.309999942779541,3.1500000953674316,3.259999990463257,3.259999990463257,125300
2019-08-29,3.2799999713897705,3.2799999713897705,3.109999895095825,3.1700000762939453,3.1700000762939453,109500
2019-08-30,3.1500000953674316,3.25,3.0999999046325684,3.200000047683716,3.200000047683716,161600
2019-09-03,3.200000047683716,3.25,3.0199999809265137,3.130000114440918,3.130000114440918,166400
2019-09-04,3.2100000381469727,3.2300000190734863,3.059999942779541,3.119999885559082,3.119999885559082,127200
2019-09-05,3.119999885559082,3.1989998817443848,2.9000000953674316,3.009999990463257,3.009999990463257,188700
2019-09-06,3.0199999809265137,3.0799999237060547,2.9210000038146973,3.0,3.0,118200
2019-09-09,3.0299999713897705,3.0769999027252197,2.7799999713897705,2.9200000762939453,2.9200000762939453,388600
2019-09-10,2.890000104904175,2.9200000762939453,2.7300000190734863,2.7300000190734863,2.7300000190734863,219700
2019-09-11,2.75,2.7699999809265137,2.4200000762939453,2.549999952316284,2.549999952316284,412700
2019-09-12,2.549999952316284,2.609999895095825,2.5399999618530273,2.5899999141693115,2.5899999141693115,85000
2019-09-13,2.509999990463257,2.630000114440918,2.4000000953674316,2.4800000190734863,2.4800000190734863,252500
2019-09-16,2.4600000381469727,2.9000000953674316,2.450000047683716,2.7300000190734863,2.7300000190734863,296900
2019-09-17,2.819999933242798,2.9200000762939453,2.640000104904175,2.75,2.75,88600
2019-09-18,2.7699999809265137,2.7699999809265137,2.509999990463257,2.5999999046325684,2.5999999046325684,117400
2019-09-19,2.619999885559082,2.6649999618530273,2.5299999713897705,2.5399999618530273,2.5399999618530273,79900
2019-09-20,2.5199999809265137,2.630000114440918,2.4100000858306885,2.4200000762939453,2.4200000762939453,226700
2019-09-23,2.4000000953674316,2.490000009536743,2.2799999713897705,2.299999952316284,2.299999952316284,185300
2019-09-24,2.319999933242798,2.489000082015991,2.319999933242798,2.4000000953674316,2.4000000953674316,114700
2019-09-25,2.3399999141693115,2.4800000190734863,2.3299999237060547,2.430000066757202,2.430000066757202,60700
2019-09-26,2.450000047683716,2.4800000190734863,2.3499999046325684,2.380000114440918,2.380000114440918,109300
2019-09-27,2.380000114440918,2.3910000324249268,2.200000047683716,2.240000009536743,2.240000009536743,109900
2019-09-30,2.25,2.299999952316284,2.130000114440918,2.1600000858306885,2.1600000858306885,77600
2019-10-01,2.1500000953674316,2.1610000133514404,2.000999927520752,2.119999885559082,2.119999885559082,95200
2019-10-02,2.0799999237060547,2.0799999237060547,1.9199999570846558,2.0,2.0,174100
2019-10-03,2.009999990463257,2.119999885559082,2.009999990463257,2.119999885559082,2.119999885559082,65200
2019-10-04,2.109999895095825,2.1570000648498535,2.0799999237060547,2.130000114440918,2.130000114440918,47900
2019-10-07,2.0999999046325684,2.190000057220459,2.0799999237060547,2.0799999237060547,2.0799999237060547,122900
2019-10-08,2.0999999046325684,2.119999885559082,1.9639999866485596,2.0,2.0,132900
2019-10-09,1.9900000095367432,2.0250000953674316,1.9500000476837158,2.0,2.0,61700
2019-10-10,2.0199999809265137,2.0999999046325684,2.0199999809265137,2.049999952316284,2.049999952316284,58500
2019-10-11,2.049999952316284,2.322999954223633,2.049999952316284,2.190000057220459,2.190000057220459,72500
2019-10-14,2.200000047683716,2.390000104904175,2.200000047683716,2.2799999713897705,2.2799999713897705,69200
2019-10-15,2.2799999713897705,2.299999952316284,2.1700000762939453,2.25,2.25,63600
2019-10-16,2.2300000190734863,2.299999952316284,2.1500000953674316,2.184999942779541,2.184999942779541,57900
2019-10-17,2.5299999713897705,2.5299999713897705,2.109999895095825,2.130000114440918,2.130000114440918,1795200
2019-10-18,2.140000104904175,2.1700000762939453,1.9500000476837158,2.0199999809265137,2.0199999809265137,467200
2019-10-21,2.0199999809265137,2.0290000438690186,1.850000023841858,1.9700000286102295,1.9700000286102295,247400
2019-10-22,1.9600000381469727,2.049999952316284,1.9299999475479126,2.0,2.0,225200
2019-10-23,2.0,2.1410000324249268,1.9800000190734863,2.130000114440918,2.130000114440918,112900
2019-10-24,2.119999885559082,2.1459999084472656,2.049999952316284,2.049999952316284,2.049999952316284,39700
2019-10-25,2.069999933242798,2.180000066757202,2.049999952316284,2.140000104904175,2.140000104904175,69000
2019-10-28,2.130000114440918,2.2300000190734863,2.0999999046325684,2.119999885559082,2.119999885559082,132200
2019-10-29,2.0799999237060547,2.125,2.049999952316284,2.059999942779541,2.059999942779541,49000
2019-10-30,2.049999952316284,2.0940001010894775,2.009999990463257,2.065000057220459,2.065000057220459,62200
2019-10-31,2.0399999618530273,2.1500000953674316,1.9299999475479126,2.0999999046325684,2.0999999046325684,172900
2019-11-01,2.130000114440918,2.299999952316284,2.0999999046325684,2.2899999618530273,2.2899999618530273,101900
2019-11-04,2.3499999046325684,2.3610000610351562,2.2929999828338623,2.3399999141693115,2.3399999141693115,108100
2019-11-05,2.369999885559082,2.377000093460083,2.2300000190734863,2.3499999046325684,2.3499999046325684,74000
2019-11-06,2.319999933242798,2.319999933242798,2.25,2.259999990463257,2.259999990463257,24500
2019-11-07,2.3399999141693115,2.369999885559082,2.25,2.369999885559082,2.369999885559082,97200
2019-11-08,2.2899999618530273,2.5,2.2899999618530273,2.450000047683716,2.450000047683716,228600
2019-11-11,2.450000047683716,2.4700000286102295,2.4100000858306885,2.4200000762939453,2.4200000762939453,68900
2019-11-12,2.4200000762939453,2.450000047683716,2.4000000953674316,2.4200000762939453,2.4200000762939453,62300
2019-11-13,2.390000104904175,2.450000047683716,2.3359999656677246,2.4000000953674316,2.4000000953674316,53100
2019-11-14,2.369999885559082,2.4200000762939453,2.3499999046325684,2.4100000858306885,2.4100000858306885,36300
2019-11-15,2.380000114440918,2.4100000858306885,2.0999999046325684,2.190000057220459,2.190000057220459,275700
2019-11-18,2.140000104904175,2.299999952316284,2.109999895095825,2.299999952316284,2.299999952316284,59700
2019-11-19,2.2799999713897705,2.319999933242798,2.190999984741211,2.2200000286102295,2.2200000286102295,54400
2019-11-20,2.1700000762939453,2.3499999046325684,2.109999895095825,2.25,2.25,61700
2019-11-21,2.2260000705718994,2.315000057220459,2.2149999141693115,2.2200000286102295,2.2200000286102295,19500
2019-11-22,2.2179999351501465,2.309999942779541,2.2100000381469727,2.2699999809265137,2.2699999809265137,63800
2019-11-25,2.319999933242798,2.450000047683716,2.299999952316284,2.3299999237060547,2.3299999237060547,99200
2019-11-26,2.299999952316284,2.447000026702881,2.259999990463257,2.359999895095825,2.359999895095825,74200
2019-11-27,2.3399999141693115,2.3399999141693115,2.2699999809265137,2.309999942779541,2.309999942779541,55000
2019-11-29,2.3399999141693115,2.5,2.3299999237060547,2.450000047683716,2.450000047683716,236400
2019-12-02,2.4800000190734863,2.75,2.390000104904175,2.6700000762939453,2.6700000762939453,424000
2019-12-03,2.6500000953674316,2.7300000190734863,2.5299999713897705,2.559999942779541,2.559999942779541,165100
2019-12-04,2.5799999237060547,2.614000082015991,2.5199999809265137,2.5199999809265137,2.5199999809265137,94800
2019-12-05,2.5199999809265137,2.640000104904175,2.509999990463257,2.5999999046325684,2.5999999046325684,111800
2019-12-06,2.6600000858306885,2.6600000858306885,2.549999952316284,2.549999952316284,2.549999952316284,183200
2019-12-09,2.619999885559082,3.0399999618530273,2.572000026702881,3.0,3.0,555500
2019-12-10,3.0,3.240000009536743,2.759999990463257,3.0799999237060547,3.0799999237060547,394500
2019-12-11,3.1600000858306885,3.4600000381469727,3.0880000591278076,3.4000000953674316,3.4000000953674316,449300
2019-12-12,3.490000009536743,3.6500000953674316,3.25,3.4800000190734863,3.4800000190734863,394700
2019-12-13,3.450000047683716,3.4670000076293945,3.059999942779541,3.240000009536743,3.240000009536743,202100
2019-12-16,3.240000009536743,3.259999990463257,3.049999952316284,3.180000066757202,3.180000066757202,144800
2019-12-17,3.2100000381469727,3.2960000038146973,3.1700000762939453,3.2100000381469727,3.2100000381469727,109900
2019-12-18,3.2300000190734863,3.444000005722046,3.1700000762939453,3.3399999141693115,3.3399999141693115,152300
2019-12-19,3.380000114440918,3.390000104904175,3.2100000381469727,3.2100000381469727,3.2100000381469727,170000
2019-12-20,3.2100000381469727,3.25,3.0999999046325684,3.130000114440918,3.130000114440918,140100
2019-12-23,3.130000114440918,3.265000104904175,3.0799999237060547,3.200000047683716,3.200000047683716,176800
2019-12-24,3.200000047683716,3.2100000381469727,3.0999999046325684,3.1500000953674316,3.1500000953674316,95800
2019-12-26,3.109999895095825,3.1600000858306885,2.859999895095825,3.009999990463257,3.009999990463257,259700
2019-12-27,3.009999990463257,3.130000114440918,2.940000057220459,3.0799999237060547,3.0799999237060547,111800
2019-12-30,3.109999895095825,3.4600000381469727,3.0999999046325684,3.4600000381469727,3.4600000381469727,169000
2019-12-31,3.5,3.819999933242798,3.5,3.819999933242798,3.819999933242798,337900
2020-01-02,3.75,3.8399999141693115,3.450000047683716,3.484999895095825,3.484999895095825,187200
2020-01-03,3.509999990463257,3.509999990463257,3.322000026702881,3.4100000858306885,3.4100000858306885,154300
2020-01-06,3.450000047683716,3.7699999809265137,3.2300000190734863,3.759999990463257,3.759999990463257,187500
2020-01-07,3.7300000190734863,4.235000133514404,3.6500000953674316,4.159999847412109,4.159999847412109,392600
2020-01-08,4.130000114440918,4.449999809265137,3.819999933242798,4.25,4.25,323600
2020-01-09,4.199999809265137,4.21999979019165,3.8499999046325684,3.9800000190734863,3.9800000190734863,249100
2020-01-10,3.9800000190734863,4.091000080108643,3.75,3.8299999237060547,3.8299999237060547,193500
2020-01-13,3.8399999141693115,4.050000190734863,3.8299999237060547,4.019999980926514,4.019999980926514,237200
2020-01-14,4.059999942779541,4.079999923706055,3.859999895095825,3.950000047683716,3.950000047683716,102400
2020-01-15,3.9800000190734863,3.98799991607666,3.799999952316284,3.869999885559082,3.869999885559082,66300
2020-01-16,3.809999942779541,3.930000066757202,3.7699999809265137,3.9200000762939453,3.9200000762939453,82500
2020-01-17,3.9200000762939453,4.019999980926514,3.809999942779541,3.9600000381469727,3.9600000381469727,133800
2020-01-21,3.940000057220459,4.070000171661377,3.8499999046325684,4.0,4.0,216600
2020-01-22,4.0,4.360000133514404,3.9800000190734863,4.25,4.25,468800
2020-01-23,4.25,4.269999980926514,4.197999954223633,4.25,4.25,130700
2020-01-24,4.230000019073486,4.269999980926514,4.019999980926514,4.21999979019165,4.21999979019165,207600
2020-01-27,4.0,4.554999828338623,4.0,4.46999979019165,4.46999979019165,288600
2020-01-28,4.579999923706055,4.760000228881836,4.276000022888184,4.730000019073486,4.730000019073486,308100
2020-01-29,4.800000190734863,4.820000171661377,4.520999908447266,4.630000114440918,4.630000114440918,201800
2020-01-30,4.650000095367432,4.800000190734863,4.645999908447266,4.75,4.75,155000
2020-01-31,4.75,4.829999923706055,4.539999961853027,4.619999885559082,4.619999885559082,130500
2020-02-03,4.710000038146973,4.800000190734863,4.639999866485596,4.659999847412109,4.659999847412109,149300
2020-02-04,4.789999961853027,4.789999961853027,4.639999866485596,4.699999809265137,4.699999809265137,117700
2020-02-05,4.75,4.75,4.480000019073486,4.510000228881836,4.510000228881836,161500
2020-02-06,4.599999904632568,4.599999904632568,4.300000190734863,4.460000038146973,4.460000038146973,146000
2020-02-07,4.46999979019165,4.570000171661377,4.360000133514404,4.429999828338623,4.429999828338623,92700
2020-02-10,4.429999828338623,4.442999839782715,4.099999904632568,4.239999771118164,4.239999771118164,148100
2020-02-11,4.139999866485596,4.150000095367432,3.7699999809265137,4.070000171661377,4.070000171661377,306600
2020-02-12,4.010000228881836,4.25,3.7799999713897705,3.950000047683716,3.950000047683716,175300
2020-02-13,3.950000047683716,4.239999771118164,3.950000047683716,4.230000019073486,4.230000019073486,94200
2020-02-14,4.199999809265137,4.5,4.199999809265137,4.46999979019165,4.46999979019165,103200
2020-02-18,4.519999980926514,4.550000190734863,4.300000190734863,4.400000095367432,4.400000095367432,107700
2020-02-19,4.400000095367432,4.400000095367432,4.199999809265137,4.349999904632568,4.349999904632568,99500
2020-02-20,4.320000171661377,4.495999813079834,4.309999942779541,4.429999828338623,4.429999828338623,90100
2020-02-21,4.480000019073486,4.78000020980835,4.440000057220459,4.739999771118164,4.739999771118164,162200
2020-02-24,4.760000228881836,4.760000228881836,4.260000228881836,4.320000171661377,4.320000171661377,249900
2020-02-25,4.349999904632568,4.369999885559082,3.8499999046325684,4.050000190734863,4.050000190734863,157200
2020-02-26,4.019999980926514,4.400000095367432,3.7699999809265137,3.9700000286102295,3.9700000286102295,147900
2020-02-27,3.9200000762939453,4.179999828338623,3.809999942779541,4.079999923706055,4.079999923706055,119100
2020-02-28,3.9700000286102295,4.0,3.359999895095825,3.880000114440918,3.880000114440918,341300
2020-03-02,3.9000000953674316,4.210000038146973,3.809999942779541,4.110000133514404,4.110000133514404,87700
2020-03-03,4.159999847412109,4.199999809265137,3.880000114440918,4.010000228881836,4.010000228881836,105300
2020-03-04,4.059999942779541,4.309999942779541,4.014999866485596,4.300000190734863,4.300000190734863,78500
2020-03-05,4.170000076293945,4.245999813079834,4.019999980926514,4.139999866485596,4.139999866485596,51000
2020-03-06,4.079999923706055,4.171999931335449,3.890000104904175,3.930000066757202,3.930000066757202,85800
2020-03-09,3.680000066757202,3.859999895095825,3.5999999046325684,3.5999999046325684,3.5999999046325684,123000
2020-03-10,3.680000066757202,3.930000066757202,3.680000066757202,3.700000047683716,3.700000047683716,80600
2020-03-11,3.700000047683716,3.75,3.25,3.3299999237060547,3.3299999237060547,131100
2020-03-12,3.0999999046325684,3.2899999618530273,2.9000000953674316,3.119999885559082,3.119999885559082,94600
2020-03-13,3.4000000953674316,3.609999895095825,3.130000114440918,3.4200000762939453,3.4200000762939453,71300
2020-03-16,3.069999933242798,3.1410000324249268,2.619999885559082,2.859999895095825,2.859999895095825,142700
2020-03-17,2.9000000953674316,3.2330000400543213,2.7300000190734863,2.9800000190734863,2.9800000190734863,77600
2020-03-18,2.8399999141693115,2.9509999752044678,2.559999942779541,2.680000066757202,2.680000066757202,54300
2020-03-19,2.5299999713897705,2.9200000762939453,2.5,2.759999990463257,2.759999990463257,71000
2020-03-20,2.859999895095825,2.9700000286102295,2.509999990463257,2.509999990463257,2.509999990463257,67500
2020-03-23,2.5,2.677999973297119,2.3499999046325684,2.5299999713897705,2.5299999713897705,101100
2020-03-24,2.6700000762939453,2.890000104904175,2.609999895095825,2.7699999809265137,2.7699999809265137,60500
2020-03-25,2.9100000858306885,3.0799999237060547,2.700000047683716,2.990000009536743,2.990000009536743,87800
2020-03-26,3.0999999046325684,3.385999917984009,2.9000000953674316,3.200000047683716,3.200000047683716,92500
2020-03-27,3.1700000762939453,3.240000009536743,3.0199999809265137,3.1700000762939453,3.1700000762939453,31800
2020-03-30,3.0799999237060547,3.559999942779541,3.0,3.559999942779541,3.559999942779541,118200
2020-03-31,3.4700000286102295,4.005000114440918,3.309999942779541,3.700000047683716,3.700000047683716,208800
2020-04-01,3.4100000858306885,3.740000009536743,3.4000000953674316,3.4100000858306885,3.4100000858306885,109000
2020-04-02,3.380000114440918,3.619999885559082,3.263000011444092,3.490000009536743,3.490000009536743,102000
2020-04-03,3.4200000762939453,3.5,3.25,3.299999952316284,3.299999952316284,88600
2020-04-06,3.359999895095825,3.4200000762939453,3.1500000953674316,3.259999990463257,3.259999990463257,121200
2020-04-07,3.3299999237060547,3.4260001182556152,3.259999990463257,3.2899999618530273,3.2899999618530273,46100
2020-04-08,3.4000000953674316,3.450000047683716,3.1600000858306885,3.4000000953674316,3.4000000953674316,64000
2020-04-09,3.4000000953674316,3.5,3.2249999046325684,3.390000104904175,3.390000104904175,73100
2020-04-13,3.3299999237060547,3.4649999141693115,3.2300000190734863,3.4000000953674316,3.4000000953674316,78300
2020-04-14,3.5,3.5999999046325684,3.2699999809265137,3.4200000762939453,3.4200000762939453,96000
2020-04-15,3.4000000953674316,3.549999952316284,3.2799999713897705,3.2899999618530273,3.2899999618530273,39400
2020-04-16,3.299999952316284,3.4800000190734863,3.1600000858306885,3.200000047683716,3.200000047683716,66300
2020-04-17,3.369999885559082,3.4800000190734863,3.259999990463257,3.4200000762939453,3.4200000762939453,83800
2020-04-20,3.430000066757202,3.5399999618530273,3.250999927520752,3.3499999046325684,3.3499999046325684,66200
2020-04-21,3.259999990463257,3.450000047683716,3.2149999141693115,3.240000009536743,3.240000009536743,47900
2020-04-22,3.3299999237060547,3.390000104904175,3.256999969482422,3.299999952316284,3.299999952316284,32600
2020-04-23,3.2899999618530273,3.369999885559082,3.2799999713897705,3.3399999141693115,3.3399999141693115,14600
2020-04-24,3.259999990463257,3.3399999141693115,3.2100000381469727,3.299999952316284,3.299999952316284,27600
2020-04-27,3.2300000190734863,3.390000104904175,3.2300000190734863,3.390000104904175,3.390000104904175,41800
2020-04-28,3.4000000953674316,3.5,3.2939999103546143,3.4800000190734863,3.4800000190734863,80900
2020-04-29,3.5399999618530273,3.9200000762939453,3.4110000133514404,3.799999952316284,3.799999952316284,161900
2020-04-30,3.9800000190734863,4.119999885559082,3.75,3.890000104904175,3.890000104904175,196900
2020-05-01,3.8399999141693115,3.8499999046325684,3.5999999046325684,3.609999895095825,3.609999895095825,49800
2020-05-04,3.609999895095825,3.759999990463257,3.5,3.700000047683716,3.700000047683716,64400
2020-05-05,3.75,3.9700000286102295,3.5999999046325684,3.880000114440918,3.880000114440918,151400
2020-05-06,3.8499999046325684,3.950000047683716,3.799999952316284,3.950000047683716,3.950000047683716,34600
2020-05-07,3.990000009536743,4.119999885559082,3.9639999866485596,4.010000228881836,4.010000228881836,168900
2020-05-08,3.950000047683716,4.150000095367432,3.859999895095825,4.150000095367432,4.150000095367432,133400
2020-05-11,4.039999961853027,4.199999809265137,4.0,4.0,4.0,111100
2020-05-12,4.0,4.090000152587891,3.9800000190734863,4.0,4.0,54200
2020-05-13,4.039999961853027,4.039999961853027,3.1600000858306885,3.440000057220459,3.440000057220459,290700
2020-05-14,3.4000000953674316,3.5799999237060547,3.2760000228881836,3.559999942779541,3.559999942779541,70000
2020-05-15,3.4700000286102295,3.5199999809265137,3.359999895095825,3.380000114440918,3.380000114440918,37900
2020-05-18,3.390000104904175,3.5299999713897705,3.299999952316284,3.4200000762939453,3.4200000762939453,87900
2020-05-19,3.390000104904175,3.490000009536743,3.299999952316284,3.3399999141693115,3.3399999141693115,52400
2020-05-20,3.390000104904175,3.440000057220459,3.319999933242798,3.380000114440918,3.380000114440918,25100
2020-05-21,3.3499999046325684,3.4000000953674316,3.319999933242798,3.359999895095825,3.359999895095825,27200
2020-05-22,3.359999895095825,3.490000009536743,3.359999895095825,3.4600000381469727,3.4600000381469727,29200
2020-05-26,3.5399999618530273,3.5899999141693115,3.4200000762939453,3.5799999237060547,3.5799999237060547,48600
2020-05-27,3.569999933242798,3.569999933242798,3.4100000858306885,3.5399999618530273,3.5399999618530273,66000
2020-05-28,3.5,3.619999885559082,3.5,3.509999990463257,3.509999990463257,24200
2020-05-29,3.450000047683716,3.5899999141693115,3.450000047683716,3.5,3.5,27500
2020-06-01,3.4600000381469727,3.6700000762939453,3.450000047683716,3.609999895095825,3.609999895095825,60600
2020-06-02,3.6500000953674316,3.7799999713897705,3.5399999618530273,3.7799999713897705,3.7799999713897705,121300
2020-06-03,3.7799999713897705,3.869999885559082,3.700000047683716,3.869999885559082,3.869999885559082,43700
2020-06-04,3.8299999237060547,3.8299999237060547,3.5999999046325684,3.819999933242798,3.819999933242798,31800
2020-06-05,3.9000000953674316,3.9000000953674316,3.680000066757202,3.7899999618530273,3.7899999618530273,34100
2020-06-08,3.759999990463257,3.819999933242798,3.6419999599456787,3.740000009536743,3.740000009536743,80900
2020-06-09,3.6600000858306885,3.7799999713897705,3.5299999713897705,3.619999885559082,3.619999885559082,56700
2020-06-10,3.619999885559082,3.7200000286102295,3.559999942779541,3.6600000858306885,3.6600000858306885,35000
2020-06-11,3.6700000762939453,3.700000047683716,3.299999952316284,3.390000104904175,3.390000104904175,71400
2020-06-12,3.4600000381469727,3.5,3.309999942779541,3.380000114440918,3.380000114440918,56600
2020-06-15,3.299999952316284,3.490000009536743,3.2850000858306885,3.430000066757202,3.430000066757202,26100
2020-06-16,3.490000009536743,3.5,3.390000104904175,3.440000057220459,3.440000057220459,25700
2020-06-17,3.380000114440918,3.7899999618530273,3.3399999141693115,3.609999895095825,3.609999895095825,107900
2020-06-18,3.630000114440918,3.700000047683716,3.5999999046325684,3.5999999046325684,3.5999999046325684,25500
2020-06-19,3.569999933242798,3.8499999046325684,3.5420000553131104,3.690000057220459,3.690000057220459,125500
2020-06-22,3.890000104904175,3.9000000953674316,3.671999931335449,3.75,3.75,101600
2020-06-23,3.990000009536743,4.0,3.7799999713897705,3.809999942779541,3.809999942779541,54500
2020-06-24,3.819999933242798,3.9800000190734863,3.7200000286102295,3.9700000286102295,3.9700000286102295,68000
2020-06-25,3.9000000953674316,4.0,3.8299999237060547,3.950000047683716,3.950000047683716,70100
2020-06-26,3.890000104904175,4.0,3.7699999809265137,4.0,4.0,109500
2020-06-29,3.9800000190734863,3.990000009536743,3.8499999046325684,3.9200000762939453,3.9200000762939453,76500
2020-06-30,3.869999885559082,4.070000171661377,3.8410000801086426,4.0,4.0,202800
2020-07-01,4.019999980926514,4.570000171661377,3.9200000762939453,4.329999923706055,4.329999923706055,348000
2020-07-02,4.460000038146973,4.559999942779541,4.050000190734863,4.079999923706055,4.079999923706055,187200
2020-07-06,4.03000020980835,4.28000020980835,3.7300000190734863,3.809999942779541,3.809999942779541,208200
2020-07-07,3.7899999618530273,3.859999895095825,3.5999999046325684,3.700000047683716,3.700000047683716,279400
2020-07-08,3.799999952316284,3.9000000953674316,3.6500000953674316,3.680000066757202,3.680000066757202,185000
2020-07-09,3.690000057220459,3.740999937057495,3.4200000762939453,3.4800000190734863,3.4800000190734863,113600
2020-07-10,3.4800000190734863,3.5989999771118164,3.4200000762939453,3.450000047683716,3.450000047683716,155400
2020-07-13,3.4600000381469727,3.640000104904175,3.430000066757202,3.450000047683716,3.450000047683716,52900
2020-07-14,3.4800000190734863,3.7799999713897705,3.4600000381469727,3.5,3.5,24700
2020-07-15,3.5199999809265137,3.549999952316284,3.440000057220459,3.5399999618530273,3.5399999618530273,59000
2020-07-16,3.5399999618530273,3.700000047683716,3.5399999618530273,3.6700000762939453,3.6700000762939453,45700
2020-07-17,3.6700000762939453,3.8499999046325684,3.5799999237060547,3.8499999046325684,3.8499999046325684,82100
2020-07-20,3.890000104904175,4.150000095367432,3.859999895095825,3.930000066757202,3.930000066757202,101800
2020-07-21,3.990000009536743,3.990000009536743,3.7300000190734863,3.799999952316284,3.799999952316284,77300
2020-07-22,3.8399999141693115,4.050000190734863,3.8299999237060547,3.950000047683716,3.950000047683716,93000
2020-07-23,3.9700000286102295,4.0,3.690000057220459,3.75,3.75,95600
2020-07-24,3.75,3.8299999237060547,3.6500000953674316,3.799999952316284,3.799999952316284,30500
2020-07-27,3.75,3.8399999141693115,3.634999990463257,3.7200000286102295,3.7200000286102295,53000
2020-07-28,3.700000047683716,3.760999917984009,3.700000047683716,3.740000009536743,3.740000009536743,5600
2020-07-29,3.680000066757202,3.799999952316284,3.5999999046325684,3.759999990463257,3.759999990463257,49400
2020-07-30,3.7799999713897705,4.099999904632568,3.7699999809265137,4.019999980926514,4.019999980926514,136700
2020-07-31,4.050000190734863,4.099999904632568,3.869999885559082,3.9700000286102295,3.9700000286102295,95600
2020-08-03,3.9800000190734863,4.050000190734863,3.680000066757202,3.7799999713897705,3.7799999713897705,140300
2020-08-04,3.8399999141693115,3.9130001068115234,3.7899999618530273,3.799999952316284,3.799999952316284,51400
2020-08-05,3.809999942779541,3.871000051498413,3.7200000286102295,3.759999990463257,3.759999990463257,76000
2020-08-06,3.9000000953674316,4.25,3.8299999237060547,4.039999961853027,4.039999961853027,300900
2020-08-07,4.090000152587891,4.159999847412109,3.9100000858306885,4.159999847412109,4.159999847412109,143500
2020-08-10,4.239999771118164,4.289999961853027,4.061999797821045,4.159999847412109,4.159999847412109,88000
2020-08-11,4.170000076293945,4.170000076293945,3.880000114440918,3.940000057220459,3.940000057220459,71000
2020-08-12,3.950000047683716,4.084000110626221,3.930000066757202,4.0,4.0,20700
2020-08-13,4.010000228881836,4.03000020980835,3.880000114440918,4.03000020980835,4.03000020980835,23200
2020-08-14,4.019999980926514,4.429999828338623,3.950000047683716,4.349999904632568,4.349999904632568,216100
2020-08-17,4.320000171661377,4.400000095367432,4.165999889373779,4.210000038146973,4.210000038146973,134400
2020-08-18,4.170000076293945,4.269999980926514,4.091000080108643,4.25,4.25,34400
2020-08-19,4.269999980926514,4.739999771118164,4.209000110626221,4.590000152587891,4.590000152587891,333800
2020-08-20,4.590000152587891,5.077000141143799,4.324999809265137,4.550000190734863,4.550000190734863,638600
2020-08-21,4.559999942779541,4.679999828338623,4.328000068664551,4.590000152587891,4.590000152587891,98800
2020-08-24,4.590000152587891,4.76200008392334,4.5,4.610000133514404,4.610000133514404,64400
2020-08-25,4.699999809265137,5.0,4.61299991607666,5.0,5.0,179000
2020-08-26,4.940000057220459,5.429999828338623,4.840000152587891,5.349999904632568,5.349999904632568,605800
2020-08-27,5.329999923706055,7.0,5.269999980926514,6.739999771118164,6.739999771118164,5892100
2020-08-28,6.579999923706055,7.0,6.039999961853027,6.610000133514404,6.610000133514404,2169000
2020-08-31,6.78000020980835,6.889999866485596,6.364999771118164,6.5,6.5,754600
2020-09-01,6.5,6.670000076293945,6.440000057220459,6.559999942779541,6.559999942779541,411700
2020-09-02,6.974999904632568,7.019999980926514,6.190000057220459,6.449999809265137,6.449999809265137,1474500
2020-09-03,6.449999809265137,6.5,6.050000190734863,6.440000057220459,6.440000057220459,327100
2020-09-04,6.5,6.53000020980835,6.070000171661377,6.449999809265137,6.449999809265137,346600
2020-09-08,6.550000190734863,6.873000144958496,6.449999809265137,6.570000171661377,6.570000171661377,365100
2020-09-09,6.619999885559082,6.695000171661377,6.53000020980835,6.550000190734863,6.550000190734863,256400
2020-09-10,6.599999904632568,6.599999904632568,6.304999828338623,6.5,6.5,242600
2020-09-11,6.429999828338623,6.53000020980835,6.25,6.25,6.25,2848400
2020-09-14,6.329999923706055,6.539999961853027,6.329999923706055,6.480000019073486,6.480000019073486,391900
2020-09-15,6.480000019073486,6.590000152587891,6.349999904632568,6.510000228881836,6.510000228881836,636600
2020-09-16,6.619999885559082,7.139999866485596,6.619999885559082,6.800000190734863,6.800000190734863,1517500
2020-09-17,6.75,7.800000190734863,6.676000118255615,7.21999979019165,7.21999979019165,1285000
2020-09-18,7.360000133514404,7.789999961853027,7.28000020980835,7.75,7.75,933400
2020-09-21,7.599999904632568,7.650000095367432,6.942999839782715,7.079999923706055,7.079999923706055,664400
2020-09-22,7.150000095367432,7.440000057220459,6.974999904632568,7.03000020980835,7.03000020980835,401600
2020-09-23,7.03000020980835,7.099999904632568,6.25,6.550000190734863,6.550000190734863,539600
2020-09-24,6.449999809265137,6.449999809265137,5.5,5.539999961853027,5.539999961853027,915100
2020-09-25,5.710000038146973,5.820000171661377,5.539999961853027,5.670000076293945,5.670000076293945,260600
2020-09-28,5.75,5.909999847412109,5.699999809265137,5.75,5.75,168300
2020-09-29,5.75,5.960000038146973,5.650000095367432,5.809999942779541,5.809999942779541,416700
2020-09-30,5.820000171661377,5.900000095367432,5.605000019073486,5.760000228881836,5.760000228881836,262500
2020-10-01,5.75,5.784999847412109,5.610000133514404,5.739999771118164,5.739999771118164,219800
2020-10-02,5.650000095367432,5.849999904632568,5.599999904632568,5.769999980926514,5.769999980926514,181600
2020-10-05,5.809999942779541,5.869999885559082,5.690000057220459,5.71999979019165,5.71999979019165,299100
2020-10-06,5.739999771118164,6.150000095367432,5.730000019073486,5.769999980926514,5.769999980926514,317200
2020-10-07,5.840000152587891,6.191999912261963,5.699999809265137,6.179999828338623,6.179999828338623,229200
2020-10-08,6.369999885559082,6.570000171661377,6.010000228881836,6.269999980926514,6.269999980926514,228300
2020-10-09,6.309999942779541,6.849999904632568,6.300000190734863,6.699999809265137,6.699999809265137,317000
2020-10-12,6.670000076293945,6.75,6.329999923706055,6.460000038146973,6.460000038146973,237100
2020-10-13,6.489999771118164,6.632999897003174,6.400000095367432,6.599999904632568,6.599999904632568,138600
2020-10-14,6.670000076293945,6.739999771118164,6.25,6.389999866485596,6.389999866485596,115200
2020-10-15,6.260000228881836,6.300000190734863,5.940000057220459,5.989999771118164,5.989999771118164,324300
2020-10-16,6.0,6.179999828338623,5.849999904632568,5.920000076293945,5.920000076293945,206100
2020-10-19,5.960000038146973,6.070000171661377,5.650000095367432,5.699999809265137,5.699999809265137,215400
2020-10-20,5.730000019073486,5.849999904632568,5.619999885559082,5.650000095367432,5.650000095367432,199800
2020-10-21,5.630000114440918,5.690000057220459,5.119999885559082,5.21999979019165,5.21999979019165,400500
2020-10-22,5.260000228881836,5.480000019073486,5.159999847412109,5.25,5.25,180200
2020-10-23,5.300000190734863,5.3379998207092285,5.0,5.139999866485596,5.139999866485596,271900
2020-10-26,5.079999923706055,5.184999942779541,4.690000057220459,4.75,4.75,488900
2020-10-27,4.78000020980835,4.989999771118164,4.75,4.800000190734863,4.800000190734863,148200
2020-10-28,4.489999771118164,4.5329999923706055,3.0899999141693115,3.319999933242798,3.319999933242798,1920700
2020-10-29,3.450000047683716,4.550000190734863,3.3949999809265137,4.329999923706055,4.329999923706055,4249500
2020-10-30,4.340000152587891,4.349999904632568,3.9240000247955322,4.159999847412109,4.159999847412109,824600
2020-11-02,4.349999904632568,4.519000053405762,3.6600000858306885,3.950000047683716,3.950000047683716,753200
2020-11-03,3.950000047683716,4.300000190734863,3.7699999809265137,4.019999980926514,4.019999980926514,517000
2020-11-04,4.019999980926514,4.119999885559082,3.5199999809265137,3.8299999237060547,3.8299999237060547,516800
2020-11-05,3.930000066757202,3.930000066757202,3.6500000953674316,3.740000009536743,3.740000009536743,457800
2020-11-06,3.7899999618530273,3.930000066757202,3.380000114440918,3.7699999809265137,3.7699999809265137,742400
2020-11-09,3.9600000381469727,4.489999771118164,3.9100000858306885,4.010000228881836,4.010000228881836,640000
2020-11-10,4.0,4.28000020980835,3.7799999713897705,3.9100000858306885,3.9100000858306885,494000
2020-11-11,4.059999942779541,4.340000152587891,3.8499999046325684,4.070000171661377,4.070000171661377,295500
2020-11-12,4.070000171661377,4.199999809265137,3.9600000381469727,4.139999866485596,4.139999866485596,334600
2020-11-13,4.150000095367432,4.380000114440918,4.050000190734863,4.119999885559082,4.119999885559082,222600
2020-11-16,4.170000076293945,4.22599983215332,3.9100000858306885,3.950000047683716,3.950000047683716,312100
2020-11-17,3.9800000190734863,4.110000133514404,3.9600000381469727,4.0,4.0,223200
2020-11-18,4.019999980926514,4.076000213623047,3.9100000858306885,4.070000171661377,4.070000171661377,186700
2020-11-19,4.050000190734863,4.179999828338623,3.9800000190734863,4.059999942779541,4.059999942779541,173400
2020-11-20,4.172999858856201,4.329999923706055,4.019999980926514,4.300000190734863,4.300000190734863,230200
2020-11-23,4.440000057220459,4.840000152587891,4.349999904632568,4.769999980926514,4.769999980926514,425400
2020-11-24,4.900000095367432,4.989999771118164,4.360000133514404,4.460000038146973,4.460000038146973,335100
2020-11-25,4.5,4.889999866485596,4.360000133514404,4.78000020980835,4.78000020980835,336700
2020-11-27,4.860000133514404,5.159999847412109,4.728000164031982,4.789999961853027,4.789999961853027,183800
2020-11-30,4.929999828338623,5.099999904632568,4.53000020980835,4.739999771118164,4.739999771118164,296300
2020-12-01,4.829999923706055,4.940000057220459,4.5,4.630000114440918,4.630000114440918,167900
2020-12-02,4.630000114440918,4.849999904632568,4.519999980926514,4.75,4.75,187900
2020-12-03,4.829999923706055,5.440000057220459,4.699999809265137,5.210000038146973,5.210000038146973,561200
2020-12-04,5.25,5.420000076293945,4.809999942779541,5.179999828338623,5.179999828338623,801000
2020-12-07,5.260000228881836,5.565000057220459,5.099999904632568,5.230000019073486,5.230000019073486,440700
2020-12-08,5.300000190734863,5.639999866485596,5.119999885559082,5.449999809265137,5.449999809265137,1169800
2020-12-09,5.519999980926514,5.559999942779541,5.050000190734863,5.159999847412109,5.159999847412109,372000
2020-12-10,5.059999942779541,5.449999809265137,5.050000190734863,5.409999847412109,5.409999847412109,272900
2020-12-11,5.380000114440918,5.590000152587891,5.21999979019165,5.550000190734863,5.550000190734863,387900
2020-12-14,5.579999923706055,6.0,5.557000160217285,5.800000190734863,5.800000190734863,455700
2020-12-15,5.909999847412109,6.230000019073486,5.599999904632568,6.199999809265137,6.199999809265137,393300
2020-12-16,6.199999809265137,6.550000190734863,5.96999979019165,6.360000133514404,6.360000133514404,484000
2020-12-17,6.389999866485596,7.25,6.369999885559082,7.070000171661377,7.070000171661377,844000
2020-12-18,6.9720001220703125,7.739999771118164,6.920000076293945,7.429999828338623,7.429999828338623,1218800
2020-12-21,7.159999847412109,7.869999885559082,6.800000190734863,7.800000190734863,7.800000190734863,655000
2020-12-22,7.78000020980835,8.850000381469727,7.580999851226807,8.5,8.5,886100
2020-12-23,8.699999809265137,9.199999809265137,8.494999885559082,8.720000267028809,8.720000267028809,740300
2020-12-24,8.739999771118164,9.350000381469727,8.5600004196167,8.710000038146973,8.710000038146973,516700
2020-12-28,8.699999809265137,8.729999542236328,7.800000190734863,8.010000228881836,8.010000228881836,690000
2020-12-29,8.029999732971191,8.100000381469727,7.099999904632568,7.510000228881836,7.510000228881836,626300
2020-12-30,7.550000190734863,8.079999923706055,7.423999786376953,7.699999809265137,7.699999809265137,368100
