Date,Open,High,Low,Close,Adj Close,Volume
2020-07-16,34.845001220703125,36.13999938964844,33.22999954223633,35.04999923706055,35.04999923706055,7091900
2020-07-17,33.959999084472656,44.08000183105469,33.33000183105469,43.97999954223633,43.97999954223633,961900
2020-07-20,42.099998474121094,49.88999938964844,41.0,42.869998931884766,42.869998931884766,1186800
2020-07-21,42.0,46.79999923706055,41.25,41.279998779296875,41.279998779296875,752400
2020-07-22,40.33000183105469,40.91999816894531,36.61000061035156,40.040000915527344,40.040000915527344,2000300
2020-07-23,39.11000061035156,39.77000045776367,34.040000915527344,36.20000076293945,36.20000076293945,679300
2020-07-24,36.20000076293945,36.40999984741211,33.189998626708984,33.20000076293945,33.20000076293945,372800
2020-07-27,33.58000183105469,35.29999923706055,33.58000183105469,34.54999923706055,34.54999923706055,237000
2020-07-28,34.02000045776367,34.70000076293945,33.5099983215332,33.880001068115234,33.880001068115234,327000
2020-07-29,33.77000045776367,34.94900131225586,33.77000045776367,34.400001525878906,34.400001525878906,233100
2020-07-30,33.95000076293945,36.470001220703125,33.32500076293945,35.0,35.0,203200
2020-07-31,34.36000061035156,36.595001220703125,34.36000061035156,35.459999084472656,35.459999084472656,383700
2020-08-03,34.86000061035156,39.599998474121094,34.75,36.650001525878906,36.650001525878906,410500
2020-08-04,36.04999923706055,37.790000915527344,35.0,36.59000015258789,36.59000015258789,221300
2020-08-05,36.25,39.72999954223633,35.70000076293945,37.84000015258789,37.84000015258789,258500
2020-08-06,37.47999954223633,41.72999954223633,36.65999984741211,41.02000045776367,41.02000045776367,300900
2020-08-07,40.540000915527344,43.439998626708984,40.02000045776367,40.689998626708984,40.689998626708984,181600
2020-08-10,40.45000076293945,42.599998474121094,39.2400016784668,41.099998474121094,41.099998474121094,129300
2020-08-11,41.5,42.5,39.849998474121094,41.20000076293945,41.20000076293945,182500
2020-08-12,40.18000030517578,41.79999923706055,38.08000183105469,38.880001068115234,38.880001068115234,209800
2020-08-13,38.52000045776367,38.83000183105469,35.560001373291016,36.400001525878906,36.400001525878906,256200
2020-08-14,35.70000076293945,36.70000076293945,32.560001373291016,32.810001373291016,32.810001373291016,402400
2020-08-17,34.5099983215332,35.25,33.45000076293945,33.7400016784668,33.7400016784668,351500
2020-08-18,33.900001525878906,36.0,33.900001525878906,34.4900016784668,34.4900016784668,272400
2020-08-19,34.56999969482422,39.970001220703125,34.5,36.529998779296875,36.529998779296875,334200
2020-08-20,36.459999084472656,39.220001220703125,36.11399841308594,36.93000030517578,36.93000030517578,190800
2020-08-21,36.52000045776367,38.40999984741211,35.0,37.369998931884766,37.369998931884766,183100
2020-08-24,37.72999954223633,41.459999084472656,36.349998474121094,38.91999816894531,38.91999816894531,325200
2020-08-25,39.349998474121094,39.689998626708984,36.779998779296875,37.849998474121094,37.849998474121094,147100
2020-08-26,37.93000030517578,39.619998931884766,36.11000061035156,36.310001373291016,36.310001373291016,238100
2020-08-27,36.02000045776367,37.720001220703125,34.900001525878906,36.33000183105469,36.33000183105469,204700
2020-08-28,36.54999923706055,39.8650016784668,35.01599884033203,39.209999084472656,39.209999084472656,138500
2020-08-31,39.36000061035156,42.81999969482422,38.790000915527344,40.189998626708984,40.189998626708984,321200
2020-09-01,37.13999938964844,40.86000061035156,36.86399841308594,38.22999954223633,38.22999954223633,253600
2020-09-02,38.220001220703125,38.56999969482422,35.900001525878906,36.97999954223633,36.97999954223633,250000
2020-09-03,36.4900016784668,38.58000183105469,35.869998931884766,36.93000030517578,36.93000030517578,222600
2020-09-04,37.33000183105469,38.09000015258789,35.31999969482422,35.33000183105469,35.33000183105469,187900
2020-09-08,35.02000045776367,36.0,34.20000076293945,35.16999816894531,35.16999816894531,223600
2020-09-09,35.619998931884766,37.970001220703125,35.619998931884766,36.790000915527344,36.790000915527344,217600
2020-09-10,36.09000015258789,38.61000061035156,35.90999984741211,37.29999923706055,37.29999923706055,402900
2020-09-11,37.31999969482422,37.95000076293945,34.68000030517578,35.150001525878906,35.150001525878906,356300
2020-09-14,35.400001525878906,39.22999954223633,35.400001525878906,36.93000030517578,36.93000030517578,638400
2020-09-15,37.02000045776367,39.90999984741211,37.02000045776367,37.849998474121094,37.849998474121094,459000
2020-09-16,37.86000061035156,40.31999969482422,37.06999969482422,38.91999816894531,38.91999816894531,419200
2020-09-17,38.06999969482422,40.810001373291016,37.900001525878906,40.18000030517578,40.18000030517578,381400
2020-09-18,40.25,48.439998626708984,40.25,44.20000076293945,44.20000076293945,5172400
2020-09-21,42.79999923706055,48.79999923706055,42.52000045776367,45.099998474121094,45.099998474121094,653100
2020-09-22,45.5,45.5,42.39099884033203,44.68000030517578,44.68000030517578,307700
2020-09-23,44.380001068115234,49.88999938964844,42.0099983215332,42.15999984741211,42.15999984741211,560900
2020-09-24,41.9900016784668,43.45000076293945,39.13999938964844,40.189998626708984,40.189998626708984,375100
2020-09-25,40.0,42.720001220703125,38.189998626708984,39.400001525878906,39.400001525878906,439400
2020-09-28,40.08000183105469,40.470001220703125,36.59000015258789,38.0099983215332,38.0099983215332,290300
2020-09-29,37.810001373291016,41.34000015258789,36.56999969482422,39.97999954223633,39.97999954223633,378900
2020-09-30,39.83000183105469,43.779998779296875,38.65999984741211,42.59000015258789,42.59000015258789,332000
2020-10-01,42.90999984741211,43.314998626708984,40.119998931884766,42.599998474121094,42.599998474121094,282400
2020-10-02,43.84000015258789,43.84000015258789,39.93000030517578,41.06999969482422,41.06999969482422,205800
2020-10-05,41.31999969482422,45.470001220703125,41.31999969482422,45.150001525878906,45.150001525878906,115300
2020-10-06,45.27000045776367,45.380001068115234,42.52000045776367,43.08000183105469,43.08000183105469,167000
2020-10-07,43.459999084472656,44.58000183105469,42.81999969482422,43.68000030517578,43.68000030517578,155100
2020-10-08,43.91999816894531,44.65999984741211,41.75,42.97999954223633,42.97999954223633,197300
2020-10-09,42.97999954223633,43.060001373291016,41.380001068115234,42.150001525878906,42.150001525878906,204500
2020-10-12,42.36000061035156,42.849998474121094,41.53799819946289,42.38999938964844,42.38999938964844,126200
2020-10-13,42.25,42.869998931884766,40.66999816894531,41.36000061035156,41.36000061035156,130500
2020-10-14,41.16999816894531,41.959999084472656,37.584999084472656,37.7400016784668,37.7400016784668,266000
2020-10-15,37.43000030517578,38.93000030517578,35.5,37.52000045776367,37.52000045776367,161800
2020-10-16,37.40999984741211,40.8129997253418,37.15999984741211,40.56999969482422,40.56999969482422,273700
2020-10-19,40.84000015258789,42.540000915527344,39.9900016784668,40.720001220703125,40.720001220703125,258600
2020-10-20,41.09000015258789,41.5099983215332,38.5,38.9900016784668,38.9900016784668,205100
2020-10-21,39.13999938964844,40.01499938964844,37.7599983215332,38.279998779296875,38.279998779296875,233500
2020-10-22,38.349998474121094,40.790000915527344,38.349998474121094,40.27000045776367,40.27000045776367,131300
2020-10-23,40.439998626708984,41.400001525878906,38.89500045776367,39.880001068115234,39.880001068115234,123200
2020-10-26,39.40999984741211,39.709999084472656,37.21500015258789,37.560001373291016,37.560001373291016,251700
2020-10-27,37.650001525878906,39.4900016784668,36.060001373291016,38.91999816894531,38.91999816894531,132500
2020-10-28,38.11000061035156,38.529998779296875,37.06999969482422,37.900001525878906,37.900001525878906,105600
2020-10-29,37.619998931884766,38.54499816894531,36.45000076293945,36.959999084472656,36.959999084472656,282800
2020-10-30,37.09000015258789,37.91400146484375,36.0099983215332,36.939998626708984,36.939998626708984,280700
2020-11-02,37.5,38.75,33.319000244140625,35.709999084472656,35.709999084472656,411400
2020-11-03,36.439998626708984,37.31999969482422,33.5,35.5099983215332,35.5099983215332,311500
2020-11-04,35.79999923706055,39.060001373291016,35.79999923706055,38.540000915527344,38.540000915527344,173200
2020-11-05,39.0099983215332,42.82600021362305,38.18000030517578,41.119998931884766,41.119998931884766,241600
2020-11-06,41.45000076293945,44.30500030517578,39.880001068115234,43.66999816894531,43.66999816894531,244700
2020-11-09,44.689998626708984,46.25,41.20000076293945,41.900001525878906,41.900001525878906,270600
2020-11-10,42.65999984741211,43.915000915527344,41.709999084472656,43.75,43.75,142700
2020-11-11,44.279998779296875,47.7400016784668,44.06999969482422,47.349998474121094,47.349998474121094,236200
2020-11-12,47.369998931884766,48.0,46.529998779296875,47.689998626708984,47.689998626708984,205500
2020-11-13,47.970001220703125,49.900001525878906,43.81700134277344,47.61000061035156,47.61000061035156,292800
2020-11-16,47.689998626708984,49.8849983215332,47.689998626708984,49.619998931884766,49.619998931884766,218100
2020-11-17,49.369998931884766,56.244998931884766,48.58000183105469,53.7400016784668,53.7400016784668,409000
2020-11-18,54.0,54.0,50.25,50.25,50.25,264600
2020-11-19,50.119998931884766,55.72999954223633,50.119998931884766,52.5,52.5,279800
2020-11-20,51.560001373291016,55.099998474121094,51.20000076293945,52.970001220703125,52.970001220703125,207600
2020-11-23,53.31999969482422,54.5,52.369998931884766,53.72999954223633,53.72999954223633,204500
2020-11-24,54.029998779296875,57.59000015258789,53.060001373291016,54.0,54.0,265400
2020-11-25,53.77000045776367,55.904998779296875,53.77000045776367,54.029998779296875,54.029998779296875,174300
2020-11-27,54.119998931884766,54.935001373291016,51.505001068115234,52.18000030517578,52.18000030517578,115100
2020-11-30,52.290000915527344,53.709999084472656,51.43600082397461,53.310001373291016,53.310001373291016,736500
2020-12-01,53.93000030517578,56.025001525878906,52.099998474121094,52.5,52.5,260600
2020-12-02,52.150001525878906,53.040000915527344,51.290000915527344,51.45000076293945,51.45000076293945,251400
2020-12-03,51.61000061035156,55.70000076293945,51.61000061035156,52.59000015258789,52.59000015258789,246200
2020-12-04,52.9900016784668,55.31999969482422,51.220001220703125,52.0,52.0,291500
2020-12-07,52.119998931884766,54.220001220703125,47.7599983215332,49.400001525878906,49.400001525878906,386700
2020-12-08,51.43000030517578,53.97999954223633,49.060001373291016,52.0,52.0,227800
2020-12-09,52.68000030517578,53.90999984741211,49.599998474121094,50.91999816894531,50.91999816894531,238300
2020-12-10,50.630001068115234,52.25199890136719,50.029998779296875,50.93000030517578,50.93000030517578,209000
2020-12-11,50.43000030517578,51.369998931884766,49.064998626708984,50.060001373291016,50.060001373291016,130900
2020-12-14,50.0,50.04999923706055,42.41999816894531,43.81999969482422,43.81999969482422,1154300
2020-12-15,45.029998779296875,47.38999938964844,43.52000045776367,45.720001220703125,45.720001220703125,368400
2020-12-16,46.099998474121094,47.119998931884766,44.619998931884766,45.09000015258789,45.09000015258789,271000
2020-12-17,45.25,49.349998474121094,45.25,48.34000015258789,48.34000015258789,366600
2020-12-18,48.72999954223633,50.79999923706055,47.279998779296875,47.650001525878906,47.650001525878906,2661800
2020-12-21,46.029998779296875,48.529998779296875,46.0,48.2400016784668,48.2400016784668,374900
2020-12-22,48.0099983215332,48.869998931884766,46.04999923706055,47.290000915527344,47.290000915527344,315700
2020-12-23,47.11000061035156,49.61000061035156,46.66999816894531,49.400001525878906,49.400001525878906,342400
2020-12-24,49.43000030517578,49.43000030517578,46.75,46.869998931884766,46.869998931884766,84800
2020-12-28,47.40999984741211,47.9900016784668,44.869998931884766,45.09000015258789,45.09000015258789,206700
2020-12-29,45.38999938964844,46.08000183105469,42.099998474121094,42.40999984741211,42.40999984741211,264300
2020-12-30,42.689998626708984,44.220001220703125,42.33000183105469,43.95000076293945,43.95000076293945,252400
