Date,Open,High,Low,Close,Adj Close,Volume
2017-02-02,80.0,85.0,80.0,85.0,85.0,15
2017-02-03,85.0,85.0,85.0,85.0,85.0,0
2017-02-06,85.0,85.0,85.0,85.0,85.0,0
2017-02-07,85.0,85.0,85.0,85.0,85.0,0
2017-02-08,85.0,85.0,85.0,85.0,85.0,0
2017-02-09,85.0,85.0,85.0,85.0,85.0,0
2017-02-10,85.0,85.0,85.0,85.0,85.0,0
2017-02-13,85.0,85.0,85.0,85.0,85.0,0
2017-02-14,85.0,85.0,85.0,85.0,85.0,0
2017-02-15,85.0,85.0,85.0,85.0,85.0,0
2017-02-16,85.0,85.0,85.0,85.0,85.0,0
2017-02-17,85.0,85.0,85.0,85.0,85.0,0
2017-02-21,85.0,85.0,85.0,85.0,85.0,0
2017-02-22,85.0,85.0,85.0,85.0,85.0,0
2017-02-23,85.0,85.0,85.0,85.0,85.0,0
2017-02-24,85.0,85.0,85.0,85.0,85.0,0
2017-02-27,85.0,85.0,85.0,85.0,85.0,0
2017-02-28,90.0,90.0,82.0,82.0,82.0,65
2017-03-01,82.0,82.0,82.0,82.0,82.0,0
2017-03-02,82.0,82.0,82.0,82.0,82.0,0
2017-03-03,82.0,82.0,82.0,82.0,82.0,0
2017-03-06,82.0,82.0,82.0,82.0,82.0,0
2017-03-07,82.0,82.0,82.0,82.0,82.0,0
2017-03-08,82.0,82.0,82.0,82.0,82.0,0
2017-03-09,82.0,82.0,78.0,78.0,78.0,75
2017-03-10,78.0,79.0,68.0,68.0,68.0,105
2017-03-13,68.0,68.0,68.0,68.0,68.0,0
2017-03-14,74.0,80.0,74.0,80.0,80.0,100
2017-03-15,80.0,80.0,80.0,80.0,80.0,125
2017-03-16,100.0,100.0,100.0,100.0,100.0,10
2017-03-17,100.0,100.0,100.0,100.0,100.0,0
2017-03-20,100.0,100.0,100.0,100.0,100.0,0
2017-03-21,95.0,95.0,95.0,95.0,95.0,30
2017-03-22,95.0,95.0,95.0,95.0,95.0,0
2017-03-23,95.0,95.0,95.0,95.0,95.0,0
2017-03-24,95.0,95.0,95.0,95.0,95.0,0
2017-03-27,95.0,95.0,95.0,95.0,95.0,0
2017-03-28,95.0,95.0,95.0,95.0,95.0,0
2017-03-29,95.0,95.0,95.0,95.0,95.0,0
2017-03-30,80.0,80.0,70.0,70.0,70.0,70
2017-03-31,70.0,70.0,70.0,70.0,70.0,30
2017-04-03,70.0,70.0,70.0,70.0,70.0,15
2017-04-04,70.0,70.0,70.0,70.0,70.0,55
2017-04-05,80.0,80.0,70.0,70.0,70.0,45
2017-04-06,70.0,70.0,70.0,70.0,70.0,0
2017-04-07,70.0,70.0,70.0,70.0,70.0,0
2017-04-10,70.0,70.0,70.0,70.0,70.0,0
2017-04-11,70.0,70.0,70.0,70.0,70.0,0
2017-04-12,70.0,70.0,70.0,70.0,70.0,0
2017-04-13,80.0,80.0,80.0,80.0,80.0,5
2017-04-17,80.0,80.0,80.0,80.0,80.0,0
2017-04-18,75.0,75.0,70.0,70.0,70.0,100
2017-04-19,70.0,70.0,70.0,70.0,70.0,25
2017-04-20,70.0,70.0,70.0,70.0,70.0,0
2017-04-21,70.0,70.0,70.0,70.0,70.0,55
2017-04-24,68.0,68.0,68.0,68.0,68.0,155
2017-04-25,68.0,68.0,68.0,68.0,68.0,0
2017-04-26,68.0,68.0,68.0,68.0,68.0,0
2017-04-27,68.0,68.0,68.0,68.0,68.0,0
2017-04-28,68.0,68.0,68.0,68.0,68.0,0
2017-05-01,68.0,68.0,68.0,68.0,68.0,0
2017-05-02,68.0,68.0,68.0,68.0,68.0,0
2017-05-03,100.0,105.0,100.0,100.0,100.0,15
2017-05-04,100.0,100.0,100.0,100.0,100.0,0
2017-05-05,100.0,100.0,100.0,100.0,100.0,0
2017-05-08,100.0,100.0,100.0,100.0,100.0,0
2017-05-09,100.0,100.0,100.0,100.0,100.0,0
2017-05-10,100.0,100.0,100.0,100.0,100.0,0
2017-05-11,80.0,100.0,80.0,100.0,100.0,25
2017-05-12,100.0,100.0,100.0,100.0,100.0,0
2017-05-15,100.0,100.0,100.0,100.0,100.0,0
2017-05-16,115.0,115.0,115.0,115.0,115.0,100
2017-05-17,115.0,115.0,115.0,115.0,115.0,0
2017-05-18,115.0,115.0,115.0,115.0,115.0,0
2017-05-19,115.0,115.0,115.0,115.0,115.0,0
2017-05-22,115.0,115.0,115.0,115.0,115.0,0
2017-05-23,115.0,115.0,115.0,115.0,115.0,0
2017-05-24,115.0,115.0,115.0,115.0,115.0,0
2017-05-25,115.0,115.0,115.0,115.0,115.0,0
2017-05-26,115.0,115.0,115.0,115.0,115.0,0
2017-05-30,131.0,131.0,131.0,131.0,131.0,5
2017-05-31,131.0,131.0,131.0,131.0,131.0,0
2017-06-01,140.0,140.0,140.0,140.0,140.0,5
2017-06-02,140.0,140.0,140.0,140.0,140.0,0
2017-06-05,140.0,140.0,140.0,140.0,140.0,0
2017-06-06,140.0,140.0,140.0,140.0,140.0,5
2017-06-07,125.0,130.0,125.0,130.0,130.0,45
2017-06-08,130.0,130.0,130.0,130.0,130.0,0
2017-06-09,130.0,130.0,130.0,130.0,130.0,0
2017-06-12,130.0,130.0,130.0,130.0,130.0,0
2017-06-13,130.0,130.0,130.0,130.0,130.0,0
2017-06-14,130.0,130.0,130.0,130.0,130.0,0
2017-06-15,130.0,130.0,130.0,130.0,130.0,0
2017-06-16,130.0,130.0,130.0,130.0,130.0,0
2017-06-19,140.0,140.0,140.0,140.0,140.0,35
2017-06-20,140.0,140.0,140.0,140.0,140.0,0
2017-06-21,140.0,140.0,140.0,140.0,140.0,0
2017-06-22,140.0,140.0,140.0,140.0,140.0,0
2017-06-23,140.0,140.0,140.0,140.0,140.0,0
2017-06-26,130.0,130.0,130.0,130.0,130.0,60
2017-06-27,130.0,130.0,130.0,130.0,130.0,15
2017-06-28,130.0,130.0,130.0,130.0,130.0,0
2017-06-29,130.0,130.0,130.0,130.0,130.0,0
2017-06-30,130.0,130.0,130.0,130.0,130.0,0
2017-07-03,130.0,130.0,130.0,130.0,130.0,0
2017-07-05,130.0,130.0,130.0,130.0,130.0,0
2017-07-06,130.0,130.0,130.0,130.0,130.0,0
2017-07-07,130.0,130.0,130.0,130.0,130.0,0
2017-07-10,130.0,130.0,130.0,130.0,130.0,0
2017-07-11,130.0,130.0,130.0,130.0,130.0,0
2017-07-12,130.0,130.0,130.0,130.0,130.0,0
2017-07-13,130.0,130.0,130.0,130.0,130.0,0
2017-07-14,130.0,130.0,130.0,130.0,130.0,5
2017-07-17,130.0,130.0,130.0,130.0,130.0,0
2017-07-18,130.0,140.0,130.0,140.0,140.0,50
2017-07-19,140.0,140.0,140.0,140.0,140.0,0
2017-07-20,140.0,140.0,140.0,140.0,140.0,0
2017-07-21,140.0,140.0,140.0,140.0,140.0,0
2017-07-24,140.0,140.0,140.0,140.0,140.0,0
2017-07-25,140.0,140.0,140.0,140.0,140.0,0
2017-07-26,140.0,140.0,140.0,140.0,140.0,0
2017-07-27,140.0,140.0,140.0,140.0,140.0,0
2017-07-28,140.0,140.0,140.0,140.0,140.0,20
2017-07-31,140.0,140.0,140.0,140.0,140.0,5
2017-08-01,140.0,140.0,140.0,140.0,140.0,0
2017-08-02,140.0,140.0,140.0,140.0,140.0,0
2017-08-03,138.0,138.0,138.0,138.0,138.0,5
2017-08-04,138.0,138.0,138.0,138.0,138.0,0
2017-08-07,138.0,138.0,138.0,138.0,138.0,0
2017-08-08,138.0,138.0,138.0,138.0,138.0,0
2017-08-09,138.0,138.0,138.0,138.0,138.0,0
2017-08-10,140.0,140.0,140.0,140.0,140.0,40
2017-08-11,140.0,140.0,140.0,140.0,140.0,0
2017-08-14,140.0,140.0,140.0,140.0,140.0,0
2017-08-15,140.0,140.0,140.0,140.0,140.0,0
2017-08-16,140.0,140.0,140.0,140.0,140.0,0
2017-08-17,140.0,140.0,140.0,140.0,140.0,0
2017-08-18,140.0,140.0,140.0,140.0,140.0,0
2017-08-21,140.0,140.0,140.0,140.0,140.0,0
2017-08-22,140.0,140.0,140.0,140.0,140.0,0
2017-08-23,140.0,140.0,140.0,140.0,140.0,0
2017-08-24,145.0,145.0,145.0,145.0,145.0,15
2017-08-25,145.0,145.0,145.0,145.0,145.0,0
2017-08-28,145.0,145.0,145.0,145.0,145.0,0
2017-08-29,145.0,145.0,145.0,145.0,145.0,0
2017-08-30,145.0,145.0,145.0,145.0,145.0,0
2017-08-31,145.0,145.0,145.0,145.0,145.0,0
2017-09-01,145.0,145.0,145.0,145.0,145.0,0
2017-09-05,145.0,145.0,145.0,145.0,145.0,0
2017-09-06,145.0,145.0,145.0,145.0,145.0,0
2017-09-07,145.0,145.0,145.0,145.0,145.0,0
2017-09-08,145.0,145.0,145.0,145.0,145.0,0
2017-09-11,145.0,145.0,145.0,145.0,145.0,0
2017-09-12,149.8000030517578,149.8000030517578,149.8000030517578,149.8000030517578,149.8000030517578,5
2017-09-13,149.8000030517578,160.0,149.8000030517578,160.0,160.0,60
2017-09-14,160.0,160.0,160.0,160.0,160.0,20
2017-09-15,160.0,170.0,160.0,170.0,170.0,35
2017-09-18,180.1999969482422,180.1999969482422,180.0,180.0,180.0,50
2017-09-19,182.0,182.0,182.0,182.0,182.0,25
2017-09-20,182.0,182.0,182.0,182.0,182.0,0
2017-09-21,190.0,190.0,190.0,190.0,190.0,10
2017-09-22,190.0,190.0,190.0,190.0,190.0,0
2017-09-25,190.0,190.0,190.0,190.0,190.0,15
2017-09-26,189.8000030517578,189.8000030517578,189.8000030517578,189.8000030517578,189.8000030517578,5
2017-09-27,189.8000030517578,189.8000030517578,189.8000030517578,189.8000030517578,189.8000030517578,0
2017-09-28,189.8000030517578,189.8000030517578,189.8000030517578,189.8000030517578,189.8000030517578,0
2017-09-29,180.0,180.0,180.0,180.0,180.0,45
2017-10-02,171.0,200.0,171.0,199.0,199.0,35
2017-10-03,199.0,199.0,199.0,199.0,199.0,0
2017-10-04,199.0,199.0,199.0,199.0,199.0,0
2017-10-05,190.0,190.0,186.0,186.0,186.0,15
2017-10-06,186.0,186.0,186.0,186.0,186.0,0
2017-10-09,186.0,186.0,186.0,186.0,186.0,20
2017-10-10,186.0,186.0,186.0,186.0,186.0,0
2017-10-11,186.0,186.0,186.0,186.0,186.0,0
2017-10-12,186.0,186.0,186.0,186.0,186.0,5
2017-10-13,186.0,190.0,186.0,190.0,190.0,25
2017-10-16,189.8000030517578,189.8000030517578,184.6199951171875,186.0,186.0,120
2017-10-17,180.60000610351562,181.0,180.0,180.0,180.0,75
2017-10-18,180.0,186.0,180.0,186.0,186.0,45
2017-10-19,110.0,110.0,96.0,101.80000305175781,101.80000305175781,34555
2017-10-20,100.80000305175781,103.0,99.80000305175781,103.0,103.0,7150
2017-10-23,102.80000305175781,102.80000305175781,91.4000015258789,92.19999694824219,92.19999694824219,9210
2017-10-24,99.80000305175781,99.80000305175781,90.0,90.0,90.0,2925
2017-10-25,95.0,98.0,90.0,94.4000015258789,94.4000015258789,3965
2017-10-26,95.5999984741211,95.5999984741211,81.0,90.19999694824219,90.19999694824219,3685
2017-10-27,91.0,91.5,87.0,90.4000015258789,90.4000015258789,4375
2017-10-30,90.0,90.66000366210938,85.0,88.4000015258789,88.4000015258789,2645
2017-10-31,90.0,94.69999694824219,88.5999984741211,91.19999694824219,91.19999694824219,1785
2017-11-01,93.81999969482422,97.80000305175781,93.13999938964844,97.80000305175781,97.80000305175781,1995
2017-11-02,96.0,99.80000305175781,96.0,98.0999984741211,98.0999984741211,1695
2017-11-03,98.0,99.0,95.19999694824219,98.4000015258789,98.4000015258789,1145
2017-11-06,94.19999694824219,106.4000015258789,94.19999694824219,102.5999984741211,102.5999984741211,2135
2017-11-07,98.5999984741211,110.0,98.5999984741211,105.5999984741211,105.5999984741211,3495
2017-11-08,102.0,107.0,102.0,106.0,106.0,3185
2017-11-09,101.4000015258789,104.0,100.0,103.5999984741211,103.5999984741211,5675
2017-11-10,102.0,103.5999984741211,101.0,101.0,101.0,1230
2017-11-13,101.19999694824219,102.19999694824219,100.0,100.80000305175781,100.80000305175781,3470
2017-11-14,100.19999694824219,102.0,89.36000061035156,101.0,101.0,1640
2017-11-15,97.55999755859375,109.0,97.55999755859375,101.5999984741211,101.5999984741211,1860
2017-11-16,100.31999969482422,104.0,100.31999969482422,101.4000015258789,101.4000015258789,545
2017-11-17,103.9000015258789,108.0,101.19999694824219,108.0,108.0,705
2017-11-20,103.72000122070312,111.4000015258789,102.0,108.0,108.0,1745
2017-11-21,105.05999755859375,109.5999984741211,105.05999755859375,109.5999984741211,109.5999984741211,320
2017-11-22,106.80000305175781,111.0,106.68000030517578,108.41999816894531,108.41999816894531,845
2017-11-24,107.54000091552734,110.0,107.54000091552734,108.19999694824219,108.19999694824219,1080
2017-11-27,108.0,114.0,108.0,110.0,110.0,2125
2017-11-28,110.0,110.0,108.0,108.4000015258789,108.4000015258789,1200
2017-11-29,108.5999984741211,110.0,107.19999694824219,108.80000305175781,108.80000305175781,1095
2017-11-30,105.5999984741211,110.0,104.0,110.0,110.0,1485
2017-12-01,110.0,111.0,106.0,110.0,110.0,1780
2017-12-04,110.0,110.5,96.5199966430664,108.80000305175781,108.80000305175781,2335
2017-12-05,110.0,110.87999725341797,105.0,108.0,108.0,2075
2017-12-06,107.0,108.0,105.0,107.19999694824219,107.19999694824219,1150
2017-12-07,107.95999908447266,109.80000305175781,107.95999908447266,109.5999984741211,109.5999984741211,625
2017-12-08,109.4000015258789,109.5999984741211,104.0,109.0,109.0,650
2017-12-11,109.5999984741211,109.5999984741211,106.19999694824219,107.0,107.0,940
2017-12-12,106.55999755859375,108.0,104.19999694824219,107.5999984741211,107.5999984741211,565
2017-12-13,109.5999984741211,109.5999984741211,102.19999694824219,107.19999694824219,107.19999694824219,540
2017-12-14,107.19999694824219,108.0,104.4000015258789,106.0,106.0,1870
2017-12-15,112.0,112.0,102.19999694824219,103.0,103.0,3530
2017-12-18,102.5999984741211,107.23999786376953,102.5999984741211,106.19999694824219,106.19999694824219,820
2017-12-19,104.5999984741211,105.0,101.0,101.0,101.0,575
2017-12-20,97.0,105.0,96.4000015258789,104.80000305175781,104.80000305175781,935
2017-12-21,105.80000305175781,105.80000305175781,97.4000015258789,103.0,103.0,850
2017-12-22,98.0,111.36000061035156,97.0,106.0,106.0,1225
2017-12-26,108.83999633789062,108.83999633789062,95.19999694824219,103.80000305175781,103.80000305175781,1505
2017-12-27,103.80000305175781,104.19999694824219,100.4000015258789,100.4000015258789,100.4000015258789,480
2017-12-28,107.27999877929688,108.0,102.4000015258789,105.80000305175781,105.80000305175781,550
2017-12-29,105.0,106.0,103.0,103.9000015258789,103.9000015258789,975
2018-01-02,102.91999816894531,105.80000305175781,102.91999816894531,104.80000305175781,104.80000305175781,360
2018-01-03,105.27999877929688,105.30000305175781,104.94000244140625,105.0,105.0,1210
2018-01-04,107.4000015258789,107.4000015258789,105.19999694824219,107.4000015258789,107.4000015258789,110
2018-01-05,107.0,107.0,107.0,107.0,107.0,5
2018-01-08,107.0,107.0,103.19999694824219,106.0,106.0,395
2018-01-09,105.87999725341797,106.66000366210938,103.0,103.0,103.0,385
2018-01-10,105.4000015258789,107.0,100.0,100.0,100.0,1080
2018-01-11,102.19999694824219,102.22000122070312,100.5999984741211,100.5999984741211,100.5999984741211,1765
2018-01-12,103.66000366210938,103.72000122070312,103.5999984741211,103.5999984741211,103.5999984741211,515
2018-01-16,100.22000122070312,103.0,100.22000122070312,101.80000305175781,101.80000305175781,180
2018-01-17,102.30000305175781,104.0,102.30000305175781,104.0,104.0,285
2018-01-18,102.5999984741211,104.83999633789062,100.5999984741211,100.5999984741211,100.5999984741211,450
2018-01-19,102.0,102.19999694824219,100.4000015258789,101.5999984741211,101.5999984741211,285
2018-01-22,103.27999877929688,103.27999877929688,100.62000274658203,102.5999984741211,102.5999984741211,130
2018-01-23,104.0,104.0,101.5999984741211,101.5999984741211,101.5999984741211,140
2018-01-24,100.5999984741211,100.5999984741211,98.0,98.0,98.0,695
2018-01-25,105.13999938964844,105.13999938964844,96.16000366210938,101.0,101.0,335
2018-01-26,96.4000015258789,100.5999984741211,96.0199966430664,100.5999984741211,100.5999984741211,115
2018-01-29,101.0,101.0,98.80000305175781,99.0,99.0,605
2018-01-30,96.19999694824219,96.19999694824219,95.80000305175781,95.80000305175781,95.80000305175781,1230
2018-01-31,104.5999984741211,104.5999984741211,91.31999969482422,92.0,92.0,2195
2018-02-01,95.0,97.94000244140625,95.0,96.0,96.0,215
2018-02-02,97.0,97.0,91.80000305175781,95.0,95.0,485
2018-02-05,96.4000015258789,97.0,92.0,92.19999694824219,92.19999694824219,355
2018-02-06,90.5999984741211,97.5999984741211,90.5999984741211,96.80000305175781,96.80000305175781,255
2018-02-07,94.41999816894531,95.5999984741211,93.0,93.0,93.0,1610
2018-02-08,93.0,94.80000305175781,84.19999694824219,84.19999694824219,84.19999694824219,2245
2018-02-09,86.4000015258789,87.77999877929688,80.0,80.19999694824219,80.19999694824219,1590
2018-02-12,82.0,84.69999694824219,79.0,79.0,79.0,1420
2018-02-13,79.19999694824219,82.0199966430664,76.4000015258789,76.4000015258789,76.4000015258789,210
2018-02-14,76.4000015258789,77.22000122070312,73.0,74.80000305175781,74.80000305175781,2750
2018-02-15,74.19999694824219,80.4000015258789,70.5999984741211,79.80000305175781,79.80000305175781,2960
2018-02-16,82.5999984741211,82.5999984741211,75.0,75.0,75.0,1020
2018-02-20,75.0,79.4000015258789,75.0,79.4000015258789,79.4000015258789,45
2018-02-21,80.5999984741211,86.0,80.5999984741211,85.0,85.0,1440
2018-02-22,85.5999984741211,85.5999984741211,82.0,82.0,82.0,50
2018-02-23,84.36000061035156,90.19999694824219,83.63999938964844,84.4000015258789,84.4000015258789,1010
2018-02-26,87.0,90.4000015258789,78.77999877929688,80.5999984741211,80.5999984741211,17525
2018-02-27,90.0999984741211,93.41999816894531,78.4000015258789,78.5999984741211,78.5999984741211,6935
2018-02-28,90.0,99.4000015258789,80.19999694824219,84.80000305175781,84.80000305175781,865
2018-03-01,84.4000015258789,99.16000366210938,83.0,85.19999694824219,85.19999694824219,3350
2018-03-02,85.19999694824219,89.4000015258789,84.0,87.0,87.0,1490
2018-03-05,86.80000305175781,89.63999938964844,83.0,86.0,86.0,3000
2018-03-06,87.0,90.62000274658203,80.0,81.0,81.0,2995
2018-03-07,81.4000015258789,87.19999694824219,80.0,85.0,85.0,2570
2018-03-08,85.0,88.0,80.0,87.5999984741211,87.5999984741211,3730
2018-03-09,88.0,88.0,84.0,86.4000015258789,86.4000015258789,525
2018-03-12,86.19999694824219,89.19999694824219,86.0,88.5999984741211,88.5999984741211,2320
2018-03-13,90.19999694824219,94.77999877929688,84.0,92.4000015258789,92.4000015258789,4075
2018-03-14,86.66000366210938,91.69999694824219,86.19999694824219,89.19999694824219,89.19999694824219,1000
2018-03-15,90.0,90.30000305175781,80.80000305175781,87.5999984741211,87.5999984741211,7135
2018-03-16,87.4000015258789,97.0,87.0,97.0,97.0,610
2018-03-19,94.80000305175781,95.0,90.37999725341797,94.0,94.0,690
2018-03-20,94.80000305175781,94.80000305175781,82.19999694824219,89.4000015258789,89.4000015258789,4580
2018-03-21,92.19999694824219,92.19999694824219,82.19999694824219,82.80000305175781,82.80000305175781,2095
2018-03-22,83.80000305175781,88.19999694824219,83.4000015258789,85.4000015258789,85.4000015258789,1110
2018-03-23,93.80000305175781,93.80000305175781,83.80000305175781,85.4000015258789,85.4000015258789,1020
2018-03-26,85.5999984741211,87.04000091552734,82.72000122070312,84.0,84.0,670
2018-03-27,85.19999694824219,89.4800033569336,85.0,88.0,88.0,1660
2018-03-28,90.5199966430664,90.5199966430664,80.0,80.0,80.0,2650
2018-03-29,82.4000015258789,83.80000305175781,82.0,82.80000305175781,82.80000305175781,230
2018-04-02,82.80000305175781,82.80000305175781,72.0,80.0,80.0,1920
2018-04-03,77.4000015258789,82.83999633789062,75.19999694824219,82.19999694824219,82.19999694824219,1110
2018-04-04,82.19999694824219,92.0,77.19999694824219,92.0,92.0,1400
2018-04-05,91.19999694824219,91.5999984741211,85.4000015258789,87.4000015258789,87.4000015258789,695
2018-04-06,87.80000305175781,94.27999877929688,87.80000305175781,89.19999694824219,89.19999694824219,1200
2018-04-09,85.19999694824219,89.19999694824219,81.0,83.0,83.0,1145
2018-04-10,83.0,86.4000015258789,83.0,84.19999694824219,84.19999694824219,215
2018-04-11,83.0,89.19999694824219,79.5999984741211,88.0,88.0,655
2018-04-12,84.4000015258789,87.63999938964844,79.0,84.19999694824219,84.19999694824219,430
2018-04-13,86.0,88.5999984741211,86.0,86.0,86.0,535
2018-04-16,88.0,90.0,86.0,87.0,87.0,740
2018-04-17,88.0,89.80000305175781,88.0,89.80000305175781,89.80000305175781,180
2018-04-18,89.80000305175781,93.0,89.80000305175781,92.80000305175781,92.80000305175781,220
2018-04-19,90.5999984741211,96.0,90.5999984741211,96.0,96.0,135
2018-04-20,95.62000274658203,95.62000274658203,88.19999694824219,91.4000015258789,91.4000015258789,90
2018-04-23,95.80000305175781,100.0,95.80000305175781,98.19999694824219,98.19999694824219,290
2018-04-24,99.5,110.0,99.19999694824219,99.19999694824219,99.19999694824219,1070
2018-04-25,104.5199966430664,104.5999984741211,103.0,103.5,103.5,125
2018-04-26,104.54000091552734,106.0,97.80000305175781,100.0,100.0,750
2018-04-27,99.80000305175781,105.0,99.80000305175781,103.5999984741211,103.5999984741211,260
2018-04-30,110.0,110.0,101.0,101.4000015258789,101.4000015258789,1655
2018-05-01,109.0,109.0,97.19999694824219,97.19999694824219,97.19999694824219,685
2018-05-02,97.81999969482422,99.0,96.19999694824219,97.0,97.0,240
2018-05-03,97.4000015258789,99.0,96.5999984741211,98.0,98.0,520
2018-05-04,99.0,100.0,97.0,100.0,100.0,355
2018-05-07,98.77999877929688,99.0,96.0,97.0,97.0,790
2018-05-08,96.4000015258789,97.80000305175781,90.0199966430664,93.80000305175781,93.80000305175781,330
2018-05-09,99.04000091552734,99.04000091552734,95.16000366210938,95.16000366210938,95.16000366210938,150
2018-05-10,98.4000015258789,98.4000015258789,95.16000366210938,98.0,98.0,495
2018-05-11,95.0,95.80000305175781,94.19999694824219,95.80000305175781,95.80000305175781,175
2018-05-14,96.0,97.72000122070312,95.44000244140625,97.72000122070312,97.72000122070312,655
2018-05-15,97.5999984741211,99.80000305175781,95.19999694824219,96.0,96.0,285
2018-05-16,96.0,98.80000305175781,94.69999694824219,95.4000015258789,95.4000015258789,425
2018-05-17,96.91999816894531,100.0,95.0,97.80000305175781,97.80000305175781,1825
2018-05-18,97.19999694824219,100.0,95.5999984741211,96.4000015258789,96.4000015258789,1195
2018-05-21,94.0,96.19999694824219,94.0,96.19999694824219,96.19999694824219,125
2018-05-22,95.9800033569336,96.19999694824219,94.0,95.0,95.0,875
2018-05-23,95.0,95.80000305175781,94.80000305175781,95.80000305175781,95.80000305175781,465
2018-05-24,94.80000305175781,95.0,94.0,95.0,95.0,225
2018-05-25,95.5999984741211,99.95999908447266,95.0,98.80000305175781,98.80000305175781,145
2018-05-29,99.0,99.0,94.66000366210938,95.5999984741211,95.5999984741211,405
2018-05-30,103.19999694824219,103.19999694824219,91.0,93.19999694824219,93.19999694824219,1285
2018-05-31,94.5999984741211,95.4000015258789,92.44000244140625,92.80000305175781,92.80000305175781,195
2018-06-01,94.80000305175781,96.0,94.0,96.0,96.0,1560
2018-06-04,96.0,97.0,93.0,93.19999694824219,93.19999694824219,1220
2018-06-05,94.0,95.5999984741211,93.0,93.5999984741211,93.5999984741211,3300
2018-06-06,94.0,94.19999694824219,91.0,93.19999694824219,93.19999694824219,1730
2018-06-07,94.0,94.4000015258789,94.0,94.4000015258789,94.4000015258789,365
2018-06-08,94.4000015258789,94.5999984741211,93.5999984741211,93.5999984741211,93.5999984741211,325
2018-06-11,93.80000305175781,95.81999969482422,93.80000305175781,94.0,94.0,315
2018-06-12,93.80000305175781,94.31999969482422,90.80000305175781,93.19999694824219,93.19999694824219,615
2018-06-13,93.80000305175781,96.5,93.80000305175781,94.0,94.0,2185
2018-06-14,95.5999984741211,109.37999725341797,95.5999984741211,98.5999984741211,98.5999984741211,7140
2018-06-15,99.0,112.9800033569336,99.0,102.19999694824219,102.19999694824219,2065
2018-06-18,102.4000015258789,112.0999984741211,100.0,102.4000015258789,102.4000015258789,5340
2018-06-19,104.80000305175781,121.0199966430664,103.63999938964844,119.80000305175781,119.80000305175781,10300
2018-06-20,121.5999984741211,141.0,120.0199966430664,125.80000305175781,125.80000305175781,13120
2018-06-21,124.80000305175781,128.39999389648438,118.0,125.80000305175781,125.80000305175781,4655
2018-06-22,123.30000305175781,126.58000183105469,121.26000213623047,125.0,125.0,2855
2018-06-25,125.0,126.0,118.0199966430664,121.19999694824219,121.19999694824219,2940
2018-06-26,121.69999694824219,125.77999877929688,119.0,120.4000015258789,120.4000015258789,1885
2018-06-27,120.05999755859375,120.80000305175781,111.4000015258789,111.4000015258789,111.4000015258789,2205
2018-06-28,116.19999694824219,120.80000305175781,115.0,115.19999694824219,115.19999694824219,860
2018-06-29,119.4000015258789,119.4000015258789,117.5999984741211,117.5999984741211,117.5999984741211,255
2018-07-02,119.5999984741211,124.0199966430664,118.0,121.0,121.0,3435
2018-07-03,124.80000305175781,130.17999267578125,119.80000305175781,122.19999694824219,122.19999694824219,3900
2018-07-05,121.80000305175781,127.86000061035156,121.80000305175781,124.19999694824219,124.19999694824219,840
2018-07-06,126.9800033569336,130.0,121.19999694824219,126.80000305175781,126.80000305175781,2780
2018-07-09,129.60000610351562,136.10000610351562,127.0,132.0,132.0,5685
2018-07-10,131.0,136.0,128.16000366210938,134.1999969482422,134.1999969482422,735
2018-07-11,133.0,133.0,127.45999908447266,129.1999969482422,129.1999969482422,2230
2018-07-12,132.8000030517578,150.39999389648438,131.6199951171875,150.39999389648438,150.39999389648438,12395
2018-07-13,152.0,156.47999572753906,146.0,149.8000030517578,149.8000030517578,8885
2018-07-16,148.8000030517578,149.5399932861328,135.60000610351562,135.60000610351562,135.60000610351562,10300
2018-07-17,135.60000610351562,136.0,126.0,126.19999694824219,126.19999694824219,9600
2018-07-18,124.80000305175781,135.4199981689453,121.4000015258789,130.0,130.0,33530
2018-07-19,130.1999969482422,131.5800018310547,124.0,129.39999389648438,129.39999389648438,8230
2018-07-20,129.60000610351562,129.60000610351562,124.66000366210938,126.5999984741211,126.5999984741211,4605
2018-07-23,127.4000015258789,128.60000610351562,122.5999984741211,124.19999694824219,124.19999694824219,4345
2018-07-24,126.0,126.54000091552734,118.5999984741211,121.5999984741211,121.5999984741211,8405
2018-07-25,121.0,125.0,120.4000015258789,122.80000305175781,122.80000305175781,3050
2018-07-26,118.0,122.80000305175781,110.5999984741211,121.4000015258789,121.4000015258789,6215
2018-07-27,133.0,133.0,121.19999694824219,121.19999694824219,121.19999694824219,14740
2018-07-30,122.19999694824219,124.58000183105469,117.19999694824219,119.5999984741211,119.5999984741211,3905
2018-07-31,119.19999694824219,120.80000305175781,116.19999694824219,118.5999984741211,118.5999984741211,4950
2018-08-01,117.80000305175781,123.9800033569336,115.0,120.0,120.0,4735
2018-08-02,120.0,122.37999725341797,118.5999984741211,121.0,121.0,4695
2018-08-03,122.0,122.0,115.19999694824219,118.0999984741211,118.0999984741211,1530
2018-08-06,119.4000015258789,120.55999755859375,115.0,118.4000015258789,118.4000015258789,3085
2018-08-07,119.80000305175781,119.80000305175781,114.19999694824219,117.80000305175781,117.80000305175781,4255
2018-08-08,116.0,117.19999694824219,112.19999694824219,112.5999984741211,112.5999984741211,5995
2018-08-09,112.0,118.30000305175781,111.19999694824219,116.5999984741211,116.5999984741211,6550
2018-08-10,117.19999694824219,123.5999984741211,115.19999694824219,118.0,118.0,5160
2018-08-13,119.0,125.5999984741211,118.0,123.4000015258789,123.4000015258789,14395
2018-08-14,126.19999694824219,126.19999694824219,121.0,122.0,122.0,8245
2018-08-15,122.0,125.0,119.0,122.0,122.0,8485
2018-08-16,122.0,124.9800033569336,117.22000122070312,118.5999984741211,118.5999984741211,12350
2018-08-17,117.4000015258789,125.19999694824219,116.04000091552734,122.5999984741211,122.5999984741211,11190
2018-08-20,124.0,132.0,121.80000305175781,129.39999389648438,129.39999389648438,9680
2018-08-21,132.0,143.60000610351562,130.0,136.0,136.0,51435
2018-08-22,137.60000610351562,139.60000610351562,125.73999786376953,127.80000305175781,127.80000305175781,6640
2018-08-23,126.80000305175781,131.0,123.27999877929688,126.19999694824219,126.19999694824219,5580
2018-08-24,125.80000305175781,136.36000061035156,125.4000015258789,134.0,134.0,4610
2018-08-27,135.0,137.8000030517578,127.80000305175781,132.39999389648438,132.39999389648438,5290
2018-08-28,132.0,137.0,130.60000610351562,134.1999969482422,134.1999969482422,5230
2018-08-29,136.0,155.0,134.0,155.0,155.0,22140
2018-08-30,156.0,168.8000030517578,148.0,153.60000610351562,153.60000610351562,14495
2018-08-31,152.39999389648438,172.39999389648438,152.24000549316406,171.39999389648438,171.39999389648438,10025
2018-09-04,174.8000030517578,174.8000030517578,162.0,170.8000030517578,170.8000030517578,8215
2018-09-05,169.8000030517578,169.8000030517578,159.66000366210938,164.60000610351562,164.60000610351562,6760
2018-09-06,165.0,183.1999969482422,162.27999877929688,182.60000610351562,182.60000610351562,14845
2018-09-07,181.39999389648438,194.1999969482422,175.0,190.8000030517578,190.8000030517578,11405
2018-09-10,192.60000610351562,203.0,185.0,194.60000610351562,194.60000610351562,9260
2018-09-11,193.1999969482422,201.8000030517578,183.0,199.60000610351562,199.60000610351562,10900
2018-09-12,200.8000030517578,204.0,189.0,200.0,200.0,6900
2018-09-13,201.8000030517578,216.60000610351562,201.22000122070312,210.39999389648438,210.39999389648438,11430
2018-09-14,207.60000610351562,219.60000610351562,207.60000610351562,214.0,214.0,6595
2018-09-17,218.39999389648438,218.39999389648438,192.0,193.3000030517578,193.3000030517578,15135
2018-09-18,191.0,201.1999969482422,187.0,195.0,195.0,12245
2018-09-19,195.0,196.0,165.0,175.0,175.0,19130
2018-09-20,175.8000030517578,184.36000061035156,172.60000610351562,181.1999969482422,181.1999969482422,7170
2018-09-21,183.1999969482422,198.8000030517578,177.39999389648438,198.8000030517578,198.8000030517578,11985
2018-09-24,197.1999969482422,200.39999389648438,186.0,195.60000610351562,195.60000610351562,6225
2018-09-25,196.0,207.0,195.0,205.39999389648438,205.39999389648438,8475
2018-09-26,206.0,208.60000610351562,199.89999389648438,203.1999969482422,203.1999969482422,2475
2018-09-27,202.60000610351562,204.1999969482422,200.39999389648438,203.1999969482422,203.1999969482422,2800
2018-09-28,203.39999389648438,212.0,200.1999969482422,209.60000610351562,209.60000610351562,8710
2018-10-01,210.8000030517578,216.05999755859375,204.3000030517578,210.8000030517578,210.8000030517578,5050
2018-10-02,210.1999969482422,210.1999969482422,196.1999969482422,204.8000030517578,204.8000030517578,7970
2018-10-03,204.0,212.1999969482422,200.75999450683594,211.1999969482422,211.1999969482422,4785
2018-10-04,197.8000030517578,209.8000030517578,190.02000427246094,192.0,192.0,10550
2018-10-05,190.8000030517578,196.97999572753906,181.39999389648438,182.8000030517578,182.8000030517578,4345
2018-10-08,181.1999969482422,181.1999969482422,161.1999969482422,165.39999389648438,165.39999389648438,10490
2018-10-09,162.39999389648438,178.0,162.39999389648438,169.60000610351562,169.60000610351562,5385
2018-10-10,171.60000610351562,179.74000549316406,158.1999969482422,167.60000610351562,167.60000610351562,8690
2018-10-11,167.0,171.8000030517578,163.39999389648438,165.60000610351562,165.60000610351562,2860
2018-10-12,167.8000030517578,171.8000030517578,143.0,157.0,157.0,15010
2018-10-15,158.1999969482422,167.8000030517578,154.0,160.60000610351562,160.60000610351562,4410
2018-10-16,160.60000610351562,175.8000030517578,155.0,170.1999969482422,170.1999969482422,2545
2018-10-17,169.8000030517578,178.75999450683594,157.60000610351562,163.39999389648438,163.39999389648438,5670
2018-10-18,162.39999389648438,175.39999389648438,162.39999389648438,174.0,174.0,4720
2018-10-19,174.60000610351562,174.60000610351562,163.0,171.1999969482422,171.1999969482422,4840
2018-10-22,170.8000030517578,174.39999389648438,161.0,168.0,168.0,2095
2018-10-23,165.0,169.8000030517578,162.39999389648438,167.60000610351562,167.60000610351562,4905
2018-10-24,166.60000610351562,166.8000030517578,157.8000030517578,162.0,162.0,3980
2018-10-25,161.0,166.17999267578125,156.39999389648438,162.0,162.0,5330
2018-10-26,146.0,154.60000610351562,124.19999694824219,137.0,137.0,28050
2018-10-29,137.0,137.0,99.80000305175781,101.0,101.0,26785
2018-10-30,101.5999984741211,116.91999816894531,99.5999984741211,114.5999984741211,114.5999984741211,16900
2018-10-31,115.0,119.22000122070312,106.0,112.4000015258789,112.4000015258789,10555
2018-11-01,101.80000305175781,134.1999969482422,101.5999984741211,134.1999969482422,134.1999969482422,12100
2018-11-02,143.60000610351562,145.0,131.0,134.1999969482422,134.1999969482422,15535
2018-11-05,133.60000610351562,142.8000030517578,132.60000610351562,138.1999969482422,138.1999969482422,10045
2018-11-06,138.60000610351562,141.1999969482422,130.1999969482422,130.60000610351562,130.60000610351562,3895
2018-11-07,132.60000610351562,137.39999389648438,122.19999694824219,129.8000030517578,129.8000030517578,5735
2018-11-08,129.8000030517578,134.1999969482422,120.5999984741211,125.5999984741211,125.5999984741211,9045
2018-11-09,123.0,129.1999969482422,117.0999984741211,119.19999694824219,119.19999694824219,6445
2018-11-12,118.0,122.0,111.0,113.19999694824219,113.19999694824219,2780
2018-11-13,113.19999694824219,119.5999984741211,105.80000305175781,112.0,112.0,5755
2018-11-14,110.0,118.0,105.0,106.5999984741211,106.5999984741211,9980
2018-11-15,106.0,122.0199966430664,106.0,115.5999984741211,115.5999984741211,8315
2018-11-16,116.0,127.80000305175781,115.0,127.80000305175781,127.80000305175781,3870
2018-11-19,131.0,131.0,116.31999969482422,120.80000305175781,120.80000305175781,3860
2018-11-20,118.0,121.0,112.19999694824219,115.0,115.0,4145
2018-11-21,116.0,123.0999984741211,116.0,120.4000015258789,120.4000015258789,2135
2018-11-23,120.0,124.94000244140625,117.5,119.19999694824219,119.19999694824219,470
2018-11-26,121.0,122.80000305175781,119.0,119.0,119.0,1910
2018-11-27,118.80000305175781,121.69999694824219,115.0,115.80000305175781,115.80000305175781,2610
2018-11-28,117.5999984741211,121.0,112.9000015258789,120.19999694824219,120.19999694824219,4920
2018-11-29,120.0,122.80000305175781,118.19999694824219,121.0,121.0,3105
2018-11-30,121.5999984741211,129.39999389648438,121.0,128.0,128.0,4240
2018-12-03,130.1999969482422,132.8000030517578,126.5,127.5999984741211,127.5999984741211,3215
2018-12-04,128.39999389648438,134.1999969482422,125.5999984741211,129.1999969482422,129.1999969482422,9580
2018-12-06,126.0,128.8000030517578,120.05999755859375,122.0,122.0,4910
2018-12-07,122.4000015258789,125.5999984741211,119.0,119.19999694824219,119.19999694824219,3500
2018-12-10,119.80000305175781,122.4000015258789,112.0,115.0,115.0,4260
2018-12-11,115.80000305175781,115.80000305175781,111.05999755859375,113.19999694824219,113.19999694824219,7430
2018-12-12,113.4000015258789,118.80000305175781,112.80000305175781,117.4000015258789,117.4000015258789,3770
2018-12-13,113.5999984741211,117.23999786376953,109.19999694824219,110.80000305175781,110.80000305175781,3285
2018-12-14,110.0,110.4000015258789,103.80000305175781,105.5999984741211,105.5999984741211,3020
2018-12-17,105.80000305175781,108.19999694824219,97.19999694824219,100.80000305175781,100.80000305175781,5275
2018-12-18,101.80000305175781,105.0,99.0,101.4000015258789,101.4000015258789,6660
2018-12-19,101.0,101.0,94.5,95.4000015258789,95.4000015258789,3545
2018-12-20,96.0,96.0,88.4000015258789,91.5999984741211,91.5999984741211,10290
2018-12-21,92.80000305175781,108.4000015258789,89.0,92.80000305175781,92.80000305175781,5860
2018-12-24,92.4000015258789,97.4000015258789,89.4000015258789,96.4000015258789,96.4000015258789,1970
2018-12-26,96.80000305175781,110.80000305175781,96.0,107.5999984741211,107.5999984741211,3495
2018-12-27,106.19999694824219,109.80000305175781,101.5999984741211,106.80000305175781,106.80000305175781,1835
2018-12-28,106.4000015258789,110.4000015258789,105.5999984741211,106.0,106.0,1070
2018-12-31,105.5999984741211,108.4000015258789,103.0,107.5999984741211,107.5999984741211,1390
2019-01-02,106.19999694824219,117.19999694824219,100.30000305175781,113.5999984741211,113.5999984741211,2070
2019-01-03,113.4000015258789,114.0,106.30000305175781,113.19999694824219,113.19999694824219,3480
2019-01-04,113.19999694824219,122.0,113.19999694824219,115.19999694824219,115.19999694824219,3845
2019-01-07,115.0,122.0,110.4000015258789,120.4000015258789,120.4000015258789,3985
2019-01-08,121.5999984741211,121.5999984741211,112.0,119.19999694824219,119.19999694824219,5520
2019-01-09,120.80000305175781,121.80000305175781,112.0,120.80000305175781,120.80000305175781,2410
2019-01-10,120.80000305175781,121.80000305175781,115.0,119.19999694824219,119.19999694824219,1775
2019-01-11,118.19999694824219,121.69999694824219,111.4000015258789,116.0,116.0,910
2019-01-14,116.0,120.69999694824219,114.80000305175781,116.5999984741211,116.5999984741211,1760
2019-01-15,113.0,121.80000305175781,113.0,119.4000015258789,119.4000015258789,750
2019-01-16,120.5999984741211,124.4000015258789,120.0,123.19999694824219,123.19999694824219,2910
2019-01-17,123.0,131.60000610351562,121.0,128.60000610351562,128.60000610351562,4140
2019-01-18,130.36000061035156,140.6999969482422,129.60000610351562,136.8000030517578,136.8000030517578,5605
2019-01-22,135.1999969482422,135.1999969482422,124.0,127.5999984741211,127.5999984741211,7340
2019-01-23,130.0,137.8000030517578,120.19999694824219,122.80000305175781,122.80000305175781,7190
2019-01-24,125.80000305175781,126.80000305175781,122.80000305175781,123.5999984741211,123.5999984741211,4140
2019-01-25,127.5999984741211,132.0,120.80000305175781,122.19999694824219,122.19999694824219,7710
2019-01-28,123.0,131.1999969482422,123.0,126.5999984741211,126.5999984741211,6535
2019-01-29,129.0,130.0,126.4000015258789,128.8000030517578,128.8000030517578,5190
2019-01-30,128.8000030517578,130.3800048828125,123.0,124.5999984741211,124.5999984741211,7035
2019-01-31,126.0,130.0,124.45999908447266,128.1999969482422,128.1999969482422,6045
2019-02-01,127.80000305175781,129.39999389648438,125.0,127.5999984741211,127.5999984741211,3465
2019-02-04,128.1999969482422,136.0,127.80000305175781,129.8000030517578,129.8000030517578,5525
2019-02-05,128.39999389648438,130.9600067138672,120.0,121.0,121.0,4645
2019-02-06,121.5999984741211,124.4000015258789,120.0,120.5999984741211,120.5999984741211,3170
2019-02-07,112.4000015258789,114.4000015258789,105.19999694824219,108.0,108.0,72050
2019-02-08,106.80000305175781,108.4000015258789,103.4000015258789,105.80000305175781,105.80000305175781,11380
2019-02-11,107.80000305175781,107.80000305175781,99.80000305175781,103.5999984741211,103.5999984741211,6525
2019-02-12,103.4000015258789,107.5999984741211,103.4000015258789,106.0,106.0,9445
2019-02-13,106.19999694824219,108.5999984741211,103.0,104.0,104.0,2980
2019-02-14,104.0,105.4000015258789,103.4000015258789,103.80000305175781,103.80000305175781,6305
2019-02-15,104.4000015258789,105.80000305175781,103.0,105.19999694824219,105.19999694824219,4705
2019-02-19,103.4000015258789,109.0,103.4000015258789,107.0,107.0,6085
2019-02-20,107.0,113.0,107.0,112.80000305175781,112.80000305175781,10755
2019-02-21,112.5999984741211,114.5999984741211,110.19999694824219,114.4000015258789,114.4000015258789,6030
2019-02-22,114.5999984741211,115.19999694824219,110.19999694824219,110.19999694824219,110.19999694824219,13650
2019-02-25,112.4000015258789,113.19999694824219,110.0,111.4000015258789,111.4000015258789,7270
2019-02-26,110.4000015258789,111.19999694824219,107.4000015258789,107.5999984741211,107.5999984741211,6555
2019-02-27,107.19999694824219,107.87999725341797,102.80000305175781,107.19999694824219,107.19999694824219,5705
2019-02-28,107.45999908447266,107.45999908447266,99.19999694824219,101.4000015258789,101.4000015258789,5010
2019-03-01,102.19999694824219,104.19999694824219,100.0,101.80000305175781,101.80000305175781,3505
2019-03-04,101.80000305175781,102.80000305175781,93.4000015258789,95.5999984741211,95.5999984741211,4205
2019-03-05,98.19999694824219,105.0,94.19999694824219,97.0,97.0,6980
2019-03-06,97.19999694824219,98.0,89.0,94.0,94.0,8105
2019-03-07,94.19999694824219,98.0,90.04000091552734,94.4000015258789,94.4000015258789,5310
2019-03-08,93.5999984741211,95.19999694824219,87.5999984741211,92.4000015258789,92.4000015258789,4285
2019-03-11,93.0,98.4000015258789,91.05999755859375,97.80000305175781,97.80000305175781,4645
2019-03-12,97.5999984741211,114.80000305175781,97.5999984741211,110.19999694824219,110.19999694824219,7820
2019-03-13,113.19999694824219,113.19999694824219,103.0,104.4000015258789,104.4000015258789,5530
2019-03-14,104.4000015258789,110.0,101.5999984741211,107.5999984741211,107.5999984741211,7115
2019-03-15,109.5999984741211,111.4000015258789,104.0,104.80000305175781,104.80000305175781,7875
2019-03-18,105.4000015258789,109.19999694824219,95.19999694824219,102.0,102.0,11925
2019-03-19,103.5999984741211,108.0,100.5999984741211,107.80000305175781,107.80000305175781,6190
2019-03-20,107.19999694824219,112.19999694824219,104.19999694824219,111.4000015258789,111.4000015258789,9505
2019-03-21,112.80000305175781,114.4000015258789,108.9000015258789,114.4000015258789,114.4000015258789,8055
2019-03-22,113.80000305175781,113.80000305175781,106.4000015258789,107.19999694824219,107.19999694824219,4615
2019-03-25,108.0,109.4000015258789,106.0,107.5999984741211,107.5999984741211,5295
2019-03-26,108.0,119.5999984741211,107.5999984741211,116.4000015258789,116.4000015258789,15555
2019-03-27,115.19999694824219,123.19999694824219,108.19999694824219,121.19999694824219,121.19999694824219,10545
2019-03-28,124.0,126.0,105.5999984741211,109.0,109.0,21735
2019-03-29,110.19999694824219,111.4000015258789,90.33999633789062,98.80000305175781,98.80000305175781,35035
2019-04-01,99.4000015258789,104.4000015258789,97.0,103.4000015258789,103.4000015258789,8255
2019-04-02,103.4000015258789,103.4000015258789,94.0,96.4000015258789,96.4000015258789,12145
2019-04-03,96.5999984741211,98.0,93.12000274658203,95.5999984741211,95.5999984741211,10055
2019-04-04,96.0,98.0,90.4000015258789,92.0,92.0,13505
2019-04-05,94.19999694824219,112.80000305175781,93.69999694824219,112.0,112.0,33415
2019-04-08,109.80000305175781,113.9000015258789,106.0,111.4000015258789,111.4000015258789,6590
2019-04-09,111.4000015258789,112.44000244140625,104.0,106.19999694824219,106.19999694824219,2550
2019-04-10,106.19999694824219,110.4800033569336,103.19999694824219,105.5999984741211,105.5999984741211,3805
2019-04-11,105.0,105.4800033569336,100.0,100.19999694824219,100.19999694824219,2310
2019-04-12,101.4000015258789,105.0,94.19999694824219,94.80000305175781,94.80000305175781,6335
2019-04-15,95.19999694824219,97.80000305175781,92.5999984741211,93.0,93.0,2255
2019-04-16,94.80000305175781,99.4000015258789,93.0,96.5999984741211,96.5999984741211,4435
2019-04-17,97.80000305175781,99.5999984741211,94.0,94.0,94.0,3050
2019-04-18,94.5999984741211,94.5999984741211,90.19999694824219,90.30000305175781,90.30000305175781,4365
2019-04-22,92.80000305175781,96.19999694824219,89.5999984741211,91.19999694824219,91.19999694824219,3700
2019-04-23,91.19999694824219,91.63999938964844,89.4000015258789,90.80000305175781,90.80000305175781,3880
2019-04-24,90.80000305175781,95.4000015258789,89.19999694824219,92.5999984741211,92.5999984741211,11970
2019-04-25,93.0,94.5999984741211,91.0,94.5999984741211,94.5999984741211,2285
2019-04-26,95.5999984741211,100.4000015258789,91.5999984741211,99.5999984741211,99.5999984741211,3695
2019-04-29,101.0,104.0,98.19999694824219,100.19999694824219,100.19999694824219,2015
2019-04-30,100.0,100.0,94.0,97.80000305175781,97.80000305175781,3090
2019-05-01,99.63999938964844,99.63999938964844,95.80000305175781,97.80000305175781,97.80000305175781,2055
2019-05-02,99.4000015258789,99.5999984741211,93.80000305175781,95.5999984741211,95.5999984741211,3455
2019-05-03,95.19999694824219,99.0,94.19999694824219,97.80000305175781,97.80000305175781,2745
2019-05-06,96.5999984741211,104.80000305175781,95.80000305175781,102.19999694824219,102.19999694824219,4015
2019-05-07,99.86000061035156,103.4000015258789,99.86000061035156,102.80000305175781,102.80000305175781,2235
2019-05-08,104.19999694824219,105.0,102.0,103.19999694824219,103.19999694824219,3680
2019-05-09,101.80000305175781,102.0,97.19999694824219,101.5,101.5,5560
2019-05-10,107.80000305175781,107.80000305175781,100.0,103.0,103.0,4965
2019-05-13,102.0,107.0,100.0,106.80000305175781,106.80000305175781,6170
2019-05-14,106.80000305175781,106.80000305175781,100.0,103.0,103.0,4935
2019-05-15,99.4000015258789,104.80000305175781,98.5999984741211,100.19999694824219,100.19999694824219,2820
2019-05-16,98.4000015258789,102.0,95.80000305175781,100.5999984741211,100.5999984741211,2660
2019-05-17,98.19999694824219,100.30000305175781,97.0,98.80000305175781,98.80000305175781,4810
2019-05-20,96.5999984741211,99.0,96.5999984741211,99.0,99.0,3460
2019-05-21,98.5999984741211,99.0,96.4000015258789,98.4000015258789,98.4000015258789,2175
2019-05-22,98.4000015258789,99.69999694824219,96.4000015258789,97.80000305175781,97.80000305175781,2195
2019-05-23,97.5999984741211,98.44000244140625,95.0,95.5999984741211,95.5999984741211,2795
2019-05-24,97.16000366210938,98.0,95.4000015258789,95.80000305175781,95.80000305175781,925
2019-05-28,97.0,97.0,94.0,94.80000305175781,94.80000305175781,1790
2019-05-29,95.19999694824219,95.19999694824219,87.5999984741211,89.4000015258789,89.4000015258789,4555
2019-05-30,90.5999984741211,90.5999984741211,88.80000305175781,90.0,90.0,1835
2019-05-31,86.4000015258789,89.80000305175781,85.80000305175781,88.19999694824219,88.19999694824219,2325
2019-06-03,88.80000305175781,91.5999984741211,86.63999938964844,91.5999984741211,91.5999984741211,2385
2019-06-04,92.0,92.0,80.0999984741211,82.80000305175781,82.80000305175781,6440
2019-06-05,85.4000015258789,88.5999984741211,84.0,84.5999984741211,84.5999984741211,3200
2019-06-06,84.80000305175781,86.0,79.0,80.19999694824219,80.19999694824219,4425
2019-06-07,80.80000305175781,87.45999908447266,80.5999984741211,83.80000305175781,83.80000305175781,1490
2019-06-10,84.19999694824219,88.5999984741211,83.80000305175781,88.5999984741211,88.5999984741211,1965
2019-06-11,88.4000015258789,88.5999984741211,82.80000305175781,85.4000015258789,85.4000015258789,1965
2019-06-12,85.19999694824219,96.4000015258789,85.19999694824219,93.5999984741211,93.5999984741211,4505
2019-06-13,92.4000015258789,93.80000305175781,88.4000015258789,90.0,90.0,2250
2019-06-14,90.80000305175781,91.80000305175781,85.0,85.4000015258789,85.4000015258789,3185
2019-06-17,85.0,88.5999984741211,82.5999984741211,83.19999694824219,83.19999694824219,2315
2019-06-18,84.80000305175781,90.0,82.0,82.80000305175781,82.80000305175781,1555
2019-06-19,83.19999694824219,85.0999984741211,81.0,83.0,83.0,1675
2019-06-20,88.0,88.0,81.0,84.19999694824219,84.19999694824219,1195
2019-06-21,84.80000305175781,87.19999694824219,84.19999694824219,85.0,85.0,3390
2019-06-24,85.19999694824219,86.0,84.19999694824219,85.0,85.0,1375
2019-06-25,85.0,87.5999984741211,81.0,81.19999694824219,81.19999694824219,2340
2019-06-26,83.69999694824219,84.0,80.5999984741211,84.0,84.0,1000
2019-06-27,83.0,86.4000015258789,83.0,86.4000015258789,86.4000015258789,935
2019-06-28,84.22000122070312,89.5999984741211,84.22000122070312,89.5999984741211,89.5999984741211,3010
2019-07-01,89.5999984741211,91.5999984741211,87.4000015258789,88.4000015258789,88.4000015258789,1325
2019-07-02,90.0,90.0,85.19999694824219,87.0,87.0,955
2019-07-03,84.16000366210938,88.4000015258789,84.0,87.19999694824219,87.19999694824219,560
2019-07-05,83.4000015258789,89.5999984741211,83.4000015258789,89.4000015258789,89.4000015258789,990
2019-07-08,88.4000015258789,89.5999984741211,85.80000305175781,87.69999694824219,87.69999694824219,930
2019-07-09,87.0,88.19999694824219,86.0,86.4000015258789,86.4000015258789,1490
2019-07-10,86.80000305175781,88.76000213623047,84.4000015258789,87.4000015258789,87.4000015258789,3130
2019-07-11,87.0,88.4000015258789,84.80000305175781,86.0,86.0,665
2019-07-12,85.4000015258789,87.19999694824219,82.4000015258789,82.4000015258789,82.4000015258789,1070
2019-07-15,84.0,85.19999694824219,82.81999969482422,85.19999694824219,85.19999694824219,1075
2019-07-16,84.19999694824219,85.5999984741211,84.0,85.0,85.0,1185
2019-07-17,85.0,87.19999694824219,84.19999694824219,86.0,86.0,2045
2019-07-18,84.0,87.80000305175781,84.0,87.0,87.0,945
2019-07-19,87.4000015258789,89.5999984741211,84.0,89.5999984741211,89.5999984741211,1275
2019-07-22,89.5999984741211,89.5999984741211,84.19999694824219,87.0,87.0,1345
2019-07-23,84.4000015258789,86.80000305175781,84.0,84.0,84.0,1170
2019-07-24,86.0999984741211,86.0999984741211,83.73999786376953,84.80000305175781,84.80000305175781,1300
2019-07-25,84.86000061035156,85.0,83.5,84.4000015258789,84.4000015258789,1655
2019-07-26,84.5999984741211,86.4000015258789,83.80000305175781,84.19999694824219,84.19999694824219,1070
2019-07-29,84.76000213623047,86.0,83.4000015258789,84.0,84.0,1370
2019-07-30,89.4000015258789,92.19999694824219,87.0,89.19999694824219,89.19999694824219,2970
2019-07-31,89.0,96.0,89.0,93.4000015258789,93.4000015258789,6110
2019-08-01,94.0,98.9000015258789,92.0,93.4000015258789,93.4000015258789,2595
2019-08-02,94.72000122070312,94.72000122070312,90.4000015258789,92.80000305175781,92.80000305175781,195
2019-08-05,90.33999633789062,92.5999984741211,88.94000244140625,90.0,90.0,1190
2019-08-06,90.19999694824219,93.0,89.0,93.0,93.0,1860
2019-08-07,90.19999694824219,92.5999984741211,86.80000305175781,88.4000015258789,88.4000015258789,2350
2019-08-08,89.5999984741211,94.0,89.5999984741211,92.19999694824219,92.19999694824219,1715
2019-08-09,92.80000305175781,93.4000015258789,88.0,89.19999694824219,89.19999694824219,1145
2019-08-12,93.55999755859375,104.5999984741211,88.62000274658203,93.0,93.0,8990
2019-08-13,97.5999984741211,99.5999984741211,78.4000015258789,86.0,86.0,12205
2019-08-14,85.0,85.0,79.0,81.5999984741211,81.5999984741211,4055
2019-08-15,81.0,83.4000015258789,69.80000305175781,70.80000305175781,70.80000305175781,6060
2019-08-16,73.0,80.0,72.0,76.0,76.0,6395
2019-08-19,77.0,79.4000015258789,74.19999694824219,74.4000015258789,74.4000015258789,1210
2019-08-20,74.4000015258789,75.5999984741211,72.4000015258789,73.19999694824219,73.19999694824219,1690
2019-08-21,73.4000015258789,74.0,72.0,73.80000305175781,73.80000305175781,885
2019-08-22,73.80000305175781,74.5999984741211,72.4000015258789,74.4000015258789,74.4000015258789,2435
2019-08-23,74.5999984741211,80.0,74.5999984741211,78.5999984741211,78.5999984741211,4365
2019-08-26,81.5999984741211,81.5999984741211,74.19999694824219,74.19999694824219,74.19999694824219,1805
2019-08-27,75.0,76.80000305175781,72.80000305175781,73.0,73.0,3185
2019-08-28,73.19999694824219,76.0,72.0,74.80000305175781,74.80000305175781,3480
2019-08-29,74.4000015258789,75.66000366210938,71.4000015258789,72.0,72.0,1515
2019-08-30,72.13999938964844,73.4000015258789,70.80000305175781,73.0,73.0,1620
2019-09-03,72.19999694824219,72.19999694824219,68.0,69.19999694824219,69.19999694824219,1665
2019-09-04,68.0,69.19999694824219,60.0,63.400001525878906,63.400001525878906,3860
2019-09-05,63.79999923706055,69.4800033569336,63.20000076293945,63.400001525878906,63.400001525878906,690
2019-09-06,63.20000076293945,63.65999984741211,60.599998474121094,61.20000076293945,61.20000076293945,935
2019-09-09,60.400001525878906,60.79999923706055,55.20000076293945,56.0,56.0,5475
2019-09-10,55.20000076293945,57.599998474121094,55.20000076293945,57.20000076293945,57.20000076293945,2560
2019-09-11,58.29999923706055,61.599998474121094,58.0,61.400001525878906,61.400001525878906,2640
2019-09-12,61.20000076293945,61.20000076293945,57.599998474121094,59.20000076293945,59.20000076293945,4890
2019-09-13,59.79999923706055,61.400001525878906,59.79999923706055,61.0,61.0,845
2019-09-16,60.400001525878906,60.400001525878906,58.400001525878906,59.400001525878906,59.400001525878906,2110
2019-09-17,58.5,59.900001525878906,55.599998474121094,56.79999923706055,56.79999923706055,2115
2019-09-18,56.70000076293945,56.70000076293945,50.20000076293945,52.20000076293945,52.20000076293945,1250
2019-09-19,51.599998474121094,55.0,50.599998474121094,54.599998474121094,54.599998474121094,1835
2019-09-20,54.400001525878906,54.599998474121094,52.0,53.599998474121094,53.599998474121094,1275
2019-09-23,54.79999923706055,54.79999923706055,51.20000076293945,51.79999923706055,51.79999923706055,815
2019-09-24,51.400001525878906,55.0,50.0,50.599998474121094,50.599998474121094,1965
2019-09-25,51.0,58.0,45.060001373291016,57.0,57.0,9120
2019-09-26,59.220001220703125,59.220001220703125,54.63999938964844,56.79999923706055,56.79999923706055,1465
2019-09-27,58.0,58.599998474121094,52.20000076293945,54.400001525878906,54.400001525878906,1295
2019-09-30,54.79999923706055,57.79999923706055,52.79999923706055,57.79999923706055,57.79999923706055,1140
2019-10-01,56.20000076293945,57.0,53.20000076293945,54.79999923706055,54.79999923706055,1015
2019-10-02,54.79999923706055,55.0,53.0,53.20000076293945,53.20000076293945,585
2019-10-03,52.599998474121094,54.31999969482422,51.20000076293945,52.0,52.0,1545
2019-10-04,52.400001525878906,52.599998474121094,51.0,52.0,52.0,850
2019-10-07,52.400001525878906,55.0,52.400001525878906,53.400001525878906,53.400001525878906,860
2019-10-08,51.79999923706055,54.20000076293945,51.0,52.400001525878906,52.400001525878906,1410
2019-10-09,50.400001525878906,53.79999923706055,50.0,51.599998474121094,51.599998474121094,1440
2019-10-10,53.79999923706055,54.0,51.0,53.20000076293945,53.20000076293945,650
2019-10-11,54.0,56.0,53.20000076293945,54.20000076293945,54.20000076293945,1930
2019-10-14,54.599998474121094,56.79999923706055,53.79999923706055,56.79999923706055,56.79999923706055,320
2019-10-15,55.779998779296875,58.0,55.779998779296875,57.79999923706055,57.79999923706055,435
2019-10-16,56.18000030517578,62.0,56.099998474121094,61.0,61.0,885
2019-10-17,58.400001525878906,60.599998474121094,57.400001525878906,60.599998474121094,60.599998474121094,495
2019-10-18,60.79999923706055,62.0,58.0,60.599998474121094,60.599998474121094,1315
2019-10-21,60.0,65.0,58.599998474121094,60.400001525878906,60.400001525878906,1900
2019-10-22,58.599998474121094,61.0,58.599998474121094,61.0,61.0,1020
2019-10-23,60.400001525878906,63.0,60.400001525878906,62.20000076293945,62.20000076293945,2715
2019-10-24,61.400001525878906,65.0,61.400001525878906,64.19999694824219,64.19999694824219,2660
2019-10-25,64.19999694824219,68.0,63.599998474121094,66.80000305175781,66.80000305175781,2255
2019-10-28,66.0,68.9000015258789,64.0,64.4000015258789,64.4000015258789,2425
2019-10-29,68.80000305175781,68.80000305175781,60.400001525878906,61.79999923706055,61.79999923706055,1975
2019-10-30,61.0,61.0,53.20000076293945,54.400001525878906,54.400001525878906,1765
2019-10-31,54.400001525878906,57.0,53.20000076293945,55.79999923706055,55.79999923706055,3285
2019-11-01,55.79999923706055,56.20000076293945,49.68000030517578,51.0,51.0,3520
2019-11-04,54.0,54.0,50.0,51.400001525878906,51.400001525878906,890
2019-11-05,51.400001525878906,53.5,50.599998474121094,51.599998474121094,51.599998474121094,390
2019-11-06,51.599998474121094,53.79999923706055,47.599998474121094,52.599998474121094,52.599998474121094,3610
2019-11-07,53.79999923706055,53.79999923706055,46.599998474121094,49.20000076293945,49.20000076293945,1560
2019-11-08,50.400001525878906,52.439998626708984,49.279998779296875,50.79999923706055,50.79999923706055,1235
2019-11-11,50.5,50.5,45.20000076293945,46.20000076293945,46.20000076293945,1720
2019-11-12,48.0,48.599998474121094,45.20000076293945,46.599998474121094,46.599998474121094,1705
2019-11-13,50.2599983215332,54.400001525878906,29.0,30.399999618530273,30.399999618530273,11000
2019-11-14,33.599998474121094,39.7400016784668,32.099998474121094,36.20000076293945,36.20000076293945,5965
2019-11-15,37.79999923706055,37.79999923706055,32.79999923706055,34.400001525878906,34.400001525878906,10915
2019-11-18,34.79999923706055,35.0,32.599998474121094,33.599998474121094,33.599998474121094,4820
2019-11-19,36.20000076293945,36.20000076293945,30.0,30.799999237060547,30.799999237060547,6740
2019-11-20,30.399999618530273,32.0,27.0,27.700000762939453,27.700000762939453,7260
2019-11-21,28.399999618530273,30.799999237060547,24.0,25.0,25.0,91560
2019-11-22,25.600000381469727,26.0,23.3799991607666,24.200000762939453,24.200000762939453,10185
2019-11-25,25.0,26.0,21.399999618530273,22.0,22.0,7610
2019-11-26,22.399999618530273,23.600000381469727,21.600000381469727,22.0,22.0,12055
2019-11-27,22.0,24.399999618530273,22.0,23.399999618530273,23.399999618530273,3205
2019-11-29,23.600000381469727,26.0,22.200000762939453,24.799999237060547,24.799999237060547,1885
2019-12-02,25.799999237060547,25.799999237060547,21.399999618530273,22.200000762939453,22.200000762939453,3720
2019-12-03,23.0,23.0,18.239999771118164,19.8799991607666,19.8799991607666,11520
2019-12-04,20.0,20.219999313354492,15.600000381469727,15.819999694824219,15.819999694824219,27805
2019-12-05,16.020000457763672,19.399999618530273,16.020000457763672,17.360000610351562,17.360000610351562,20535
2019-12-06,18.100000381469727,18.600000381469727,15.460000038146973,16.200000762939453,16.200000762939453,13915
2019-12-09,16.700000762939453,17.399999618530273,15.600000381469727,16.420000076293945,16.420000076293945,12410
2019-12-10,16.799999237060547,17.399999618530273,16.0,16.200000762939453,16.200000762939453,19140
2019-12-11,16.959999084472656,18.0,16.0,16.959999084472656,16.959999084472656,13205
2019-12-12,17.200000762939453,17.200000762939453,16.0,16.299999237060547,16.299999237060547,14510
2019-12-13,16.299999237060547,16.299999237060547,14.699999809265137,15.359999656677246,15.359999656677246,8950
2019-12-16,15.5600004196167,15.9399995803833,14.960000038146973,15.460000038146973,15.460000038146973,10030
2019-12-17,14.84000015258789,15.520000457763672,14.399999618530273,15.0,15.0,5515
2019-12-18,15.0,15.300000190734863,14.5,14.960000038146973,14.960000038146973,8945
2019-12-19,15.319999694824219,18.600000381469727,14.800000190734863,17.5,17.5,22490
2019-12-20,17.600000381469727,19.0,17.520000457763672,18.15999984741211,18.15999984741211,15195
2019-12-23,19.0,21.399999618530273,18.899999618530273,19.5,19.5,16820
2019-12-24,19.399999618530273,20.200000762939453,17.0,17.920000076293945,17.920000076293945,12850
2019-12-26,18.200000762939453,19.0,18.0,18.399999618530273,18.399999618530273,7355
2019-12-27,18.399999618530273,18.899999618530273,17.399999618530273,17.719999313354492,17.719999313354492,7110
2019-12-30,18.0,18.100000381469727,16.6200008392334,17.1200008392334,17.1200008392334,8365
2019-12-31,17.200000762939453,17.200000762939453,16.399999618530273,16.520000457763672,16.520000457763672,10770
2020-01-02,16.799999237060547,17.600000381469727,16.399999618530273,17.600000381469727,17.600000381469727,4035
2020-01-03,17.200000762939453,17.200000762939453,16.059999465942383,16.780000686645508,16.780000686645508,3600
2020-01-06,17.299999237060547,18.0,16.600000381469727,17.0,17.0,4110
2020-01-07,17.059999465942383,17.200000762939453,16.399999618530273,16.920000076293945,16.920000076293945,3000
2020-01-08,16.700000762939453,16.719999313354492,16.0,16.0,16.0,6690
2020-01-09,16.0,16.600000381469727,15.600000381469727,16.219999313354492,16.219999313354492,10715
2020-01-10,11.399999618530273,12.399999618530273,11.0,12.0,12.0,117825
2020-01-13,12.399999618530273,12.399999618530273,11.5,12.0,12.0,31310
2020-01-14,12.0,12.0,11.100000381469727,11.880000114440918,11.880000114440918,20560
2020-01-15,12.0,12.600000381469727,11.9399995803833,12.0,12.0,23575
2020-01-16,12.199999809265137,12.380000114440918,11.399999618530273,12.199999809265137,12.199999809265137,16830
2020-01-17,13.0,13.640000343322754,12.239999771118164,13.039999961853027,13.039999961853027,132180
2020-01-21,14.0,14.0,12.399999618530273,13.279999732971191,13.279999732971191,77865
2020-01-22,13.100000381469727,13.100000381469727,12.15999984741211,12.819999694824219,12.819999694824219,27505
2020-01-23,12.760000228881836,12.800000190734863,11.600000381469727,12.359999656677246,12.359999656677246,33830
2020-01-24,12.600000381469727,12.600000381469727,11.399999618530273,11.399999618530273,11.399999618530273,26620
2020-01-27,11.800000190734863,12.199999809265137,11.199999809265137,11.4399995803833,11.4399995803833,22605
2020-01-28,11.4399995803833,11.979999542236328,10.600000381469727,10.899999618530273,10.899999618530273,32640
2020-01-29,11.0,11.399999618530273,10.699999809265137,10.960000038146973,10.960000038146973,19080
2020-01-30,11.399999618530273,11.399999618530273,10.220000267028809,10.699999809265137,10.699999809265137,12920
2020-01-31,10.399999618530273,10.600000381469727,10.020000457763672,10.220000267028809,10.220000267028809,13405
2020-02-03,10.220000267028809,10.600000381469727,9.5,9.920000076293945,9.920000076293945,23760
2020-02-04,10.520000457763672,12.0,9.800000190734863,11.600000381469727,11.600000381469727,34550
2020-02-05,11.5,11.5,10.399999618530273,10.5,10.5,22350
2020-02-06,10.699999809265137,11.800000190734863,10.600000381469727,10.899999618530273,10.899999618530273,11630
2020-02-07,11.199999809265137,11.199999809265137,10.399999618530273,10.600000381469727,10.600000381469727,8355
2020-02-10,10.880000114440918,10.880000114440918,10.0,10.319999694824219,10.319999694824219,11570
2020-02-11,10.0600004196167,11.079999923706055,10.0600004196167,10.399999618530273,10.399999618530273,9345
2020-02-12,10.800000190734863,10.819999694824219,10.079999923706055,10.300000190734863,10.300000190734863,11140
2020-02-13,10.199999809265137,10.479999542236328,10.0,10.300000190734863,10.300000190734863,8395
2020-02-14,10.399999618530273,10.399999618530273,9.899999618530273,10.199999809265137,10.199999809265137,12175
2020-02-18,10.399999618530273,10.399999618530273,10.020000457763672,10.399999618530273,10.399999618530273,2425
2020-02-19,10.399999618530273,11.399999618530273,10.199999809265137,11.0,11.0,14500
2020-02-20,11.119999885559082,11.300000190734863,10.300000190734863,10.579999923706055,10.579999923706055,11410
2020-02-21,10.800000190734863,11.140000343322754,10.199999809265137,10.399999618530273,10.399999618530273,10015
2020-02-24,10.380000114440918,10.600000381469727,9.199999809265137,9.800000190734863,9.800000190734863,26970
2020-02-25,9.399999618530273,9.4399995803833,8.600000381469727,9.100000381469727,9.100000381469727,16105
2020-02-26,9.100000381469727,9.199999809265137,8.600000381469727,8.800000190734863,8.800000190734863,8260
2020-02-27,8.380000114440918,8.600000381469727,4.400000095367432,7.760000228881836,7.760000228881836,40750
2020-02-28,7.980000019073486,7.980000019073486,6.619999885559082,6.860000133514404,6.860000133514404,21855
2020-03-02,7.360000133514404,7.360000133514404,6.28000020980835,6.960000038146973,6.960000038146973,14910
2020-03-03,7.579999923706055,7.800000190734863,6.820000171661377,6.900000095367432,6.900000095367432,23830
2020-03-04,7.21999979019165,7.800000190734863,6.260000228881836,6.800000190734863,6.800000190734863,28760
2020-03-05,7.0,7.099999904632568,6.420000076293945,6.5,6.5,10100
2020-03-06,6.559999942779541,6.599999904632568,5.039999961853027,5.940000057220459,5.940000057220459,34520
2020-03-09,6.239999771118164,6.300000190734863,5.0,5.480000019073486,5.480000019073486,11815
2020-03-10,5.800000190734863,5.800000190734863,4.619999885559082,5.0,5.0,32390
2020-03-11,5.400000095367432,6.460000038146973,4.619999885559082,6.0,6.0,40345
2020-03-12,4.619999885559082,5.699999809265137,4.440000057220459,5.199999809265137,5.199999809265137,24620
2020-03-13,5.0,6.28000020980835,4.400000095367432,4.5,4.5,30880
2020-03-16,4.71999979019165,4.71999979019165,3.799999952316284,3.819999933242798,3.819999933242798,39505
2020-03-17,4.599999904632568,5.400000095367432,4.019999980926514,4.900000095367432,4.900000095367432,20050
2020-03-18,4.400000095367432,5.0,3.799999952316284,4.079999923706055,4.079999923706055,27225
2020-03-19,4.800000190734863,4.800000190734863,3.4000000953674316,4.099999904632568,4.099999904632568,24390
2020-03-20,4.519999980926514,4.519999980926514,4.159999847412109,4.400000095367432,4.400000095367432,12275
2020-03-23,4.300000190734863,4.800000190734863,3.799999952316284,4.019999980926514,4.019999980926514,121135
2020-03-24,4.5,5.0,4.199999809265137,4.360000133514404,4.360000133514404,84765
2020-03-25,4.400000095367432,4.599999904632568,3.5999999046325684,4.199999809265137,4.199999809265137,56975
2020-03-26,4.320000171661377,5.800000190734863,4.300000190734863,4.820000171661377,4.820000171661377,90130
2020-03-27,5.260000228881836,5.300000190734863,4.400000095367432,5.199999809265137,5.199999809265137,32825
2020-03-30,5.400000095367432,5.400000095367432,4.059999942779541,4.599999904632568,4.599999904632568,41840
2020-03-31,4.599999904632568,4.800000190734863,4.099999904632568,4.179999828338623,4.179999828338623,29885
2020-04-01,4.380000114440918,4.380000114440918,4.019999980926514,4.099999904632568,4.099999904632568,22995
2020-04-02,4.380000114440918,4.380000114440918,3.5999999046325684,3.9200000762939453,3.9200000762939453,27415
2020-04-03,4.119999885559082,4.199999809265137,3.700000047683716,4.0,4.0,20250
2020-04-06,4.199999809265137,4.900000095367432,4.0,4.679999828338623,4.679999828338623,201615
2020-04-07,4.840000152587891,5.099999904632568,4.199999809265137,4.320000171661377,4.320000171661377,123490
2020-04-08,4.199999809265137,4.699999809265137,4.099999904632568,4.21999979019165,4.21999979019165,28845
2020-04-09,4.599999904632568,4.599999904632568,4.199999809265137,4.400000095367432,4.400000095367432,24280
2020-04-13,4.460000038146973,4.980000019073486,4.460000038146973,4.900000095367432,4.900000095367432,36365
2020-04-14,4.900000095367432,5.599999904632568,4.739999771118164,5.400000095367432,5.400000095367432,64400
2020-04-15,5.199999809265137,5.599999904632568,4.800000190734863,5.460000038146973,5.460000038146973,28060
2020-04-16,5.579999923706055,6.400000095367432,5.019999980926514,5.519999980926514,5.519999980926514,45050
2020-04-17,5.800000190734863,6.119999885559082,5.0,5.800000190734863,5.800000190734863,30545
2020-04-20,6.199999809265137,7.5,6.0,6.599999904632568,6.599999904632568,81075
2020-04-21,6.699999809265137,6.699999809265137,3.0,5.860000133514404,5.860000133514404,66690
2020-04-22,5.860000133514404,5.960000038146973,5.0,5.5,5.5,52890
2020-04-23,5.400000095367432,5.5,5.019999980926514,5.400000095367432,5.400000095367432,23945
2020-04-24,5.199999809265137,5.400000095367432,5.099999904632568,5.400000095367432,5.400000095367432,23625
2020-04-27,5.599999904632568,7.900000095367432,5.199999809265137,7.199999809265137,7.199999809265137,231860
2020-04-28,7.0,7.079999923706055,6.059999942779541,6.599999904632568,6.599999904632568,86105
2020-04-29,6.420000076293945,7.099999904632568,6.0,6.800000190734863,6.800000190734863,63975
2020-04-30,7.0,8.399999618530273,6.599999904632568,7.260000228881836,7.260000228881836,198685
2020-05-01,7.599999904632568,7.599999904632568,6.059999942779541,6.400000095367432,6.400000095367432,99885
2020-05-04,6.940000057220459,9.600000381469727,6.400000095367432,8.300000190734863,8.300000190734863,370315
2020-05-05,7.900000095367432,8.600000381469727,7.400000095367432,7.800000190734863,7.800000190734863,174535
2020-05-06,8.399999618530273,13.199999809265137,7.599999904632568,11.0,11.0,2173940
2020-05-07,14.0,15.800000190734863,9.4399995803833,9.920000076293945,9.920000076293945,2190900
2020-05-08,10.199999809265137,10.399999618530273,8.380000114440918,8.399999618530273,8.399999618530273,368580
2020-05-11,8.619999885559082,8.699999809265137,7.800000190734863,8.0,8.0,196695
2020-05-12,8.399999618530273,8.9399995803833,7.800000190734863,8.15999984741211,8.15999984741211,232455
2020-05-13,8.399999618530273,12.180000305175781,8.020000457763672,11.600000381469727,11.600000381469727,1554940
2020-05-14,10.260000228881836,10.979999542236328,9.220000267028809,9.800000190734863,9.800000190734863,431495
2020-05-15,9.600000381469727,10.600000381469727,8.600000381469727,10.399999618530273,10.399999618530273,416430
2020-05-18,10.600000381469727,11.359999656677246,10.0,11.34000015258789,11.34000015258789,325960
2020-05-19,9.739999771118164,10.380000114440918,9.199999809265137,9.65999984741211,9.65999984741211,532915
2020-05-20,9.15999984741211,14.821000099182129,8.0,9.25,9.25,2163600
2020-05-21,8.25,9.0,7.559999942779541,7.949999809265137,7.949999809265137,379300
2020-05-22,8.199999809265137,8.319999694824219,7.199999809265137,7.53000020980835,7.53000020980835,215600
2020-05-26,7.5,8.5,6.75,7.550000190734863,7.550000190734863,452700
2020-05-27,7.650000095367432,7.800000190734863,7.110000133514404,7.409999847412109,7.409999847412109,148500
2020-05-28,7.380000114440918,7.949999809265137,7.110000133514404,7.5,7.5,179100
2020-05-29,7.489999771118164,8.600000381469727,7.21999979019165,7.949999809265137,7.949999809265137,300500
2020-06-01,8.100000381469727,9.489999771118164,7.960000038146973,8.65999984741211,8.65999984741211,397600
2020-06-02,8.699999809265137,8.850000381469727,7.699999809265137,8.029999732971191,8.029999732971191,150700
2020-06-03,8.0,8.720000267028809,7.800000190734863,8.260000228881836,8.260000228881836,152100
2020-06-04,8.300000190734863,8.5,7.900000095367432,8.15999984741211,8.15999984741211,129900
2020-06-05,8.319999694824219,9.989999771118164,8.300000190734863,9.229999542236328,9.229999542236328,506900
2020-06-08,9.600000381469727,10.5,9.524999618530273,10.210000038146973,10.210000038146973,312100
2020-06-09,10.239999771118164,14.539999961853027,10.239999771118164,12.220000267028809,12.220000267028809,1302700
2020-06-10,12.510000228881836,12.970000267028809,10.199999809265137,10.34000015258789,10.34000015258789,353900
2020-06-11,9.5,9.989999771118164,8.819999694824219,9.020000457763672,9.020000457763672,147000
2020-06-12,9.40999984741211,9.819999694824219,8.600000381469727,9.210000038146973,9.210000038146973,125500
2020-06-15,8.670000076293945,9.630000114440918,8.619999885559082,8.930000305175781,8.930000305175781,113400
2020-06-16,9.449999809265137,9.5600004196167,8.84000015258789,9.5,9.5,125200
2020-06-17,9.420000076293945,10.460000038146973,9.350000381469727,9.720000267028809,9.720000267028809,258700
2020-06-18,9.579999923706055,10.121000289916992,9.279999732971191,9.680000305175781,9.680000305175781,112500
2020-06-19,9.720000267028809,10.151000022888184,9.399999618530273,9.949999809265137,9.949999809265137,156000
2020-06-22,9.949999809265137,11.449999809265137,9.949999809265137,11.329999923706055,11.329999923706055,252200
2020-06-23,11.350000381469727,11.420999526977539,10.100000381469727,10.100000381469727,10.100000381469727,106700
2020-06-24,10.270000457763672,10.279999732971191,9.100000381469727,10.270000457763672,10.270000457763672,109300
2020-06-25,10.109999656677246,10.65999984741211,9.789999961853027,10.40999984741211,10.40999984741211,56700
2020-06-26,10.460000038146973,10.489999771118164,9.699999809265137,10.079999923706055,10.079999923706055,111100
2020-06-29,9.289999961853027,10.0,8.25,9.5,9.5,204500
2020-06-30,9.399999618530273,10.600000381469727,9.399999618530273,9.670000076293945,9.670000076293945,93400
2020-07-01,9.670000076293945,9.8100004196167,9.109999656677246,9.220000267028809,9.220000267028809,57100
2020-07-02,9.279999732971191,9.720000267028809,8.944999694824219,9.020000457763672,9.020000457763672,50700
2020-07-06,9.09000015258789,9.649999618530273,8.970000267028809,9.470000267028809,9.470000267028809,120400
2020-07-07,9.40999984741211,9.439000129699707,8.960000038146973,9.100000381469727,9.100000381469727,47200
2020-07-08,9.079999923706055,9.640000343322754,9.0,9.579999923706055,9.579999923706055,80100
2020-07-09,9.569999694824219,9.569999694824219,9.0,9.239999771118164,9.239999771118164,52500
2020-07-10,9.229999542236328,9.538000106811523,9.029999732971191,9.229999542236328,9.229999542236328,33400
2020-07-13,9.279999732971191,9.4399995803833,8.59000015258789,8.609999656677246,8.609999656677246,89000
2020-07-14,8.619999885559082,9.25,8.399999618530273,9.199999809265137,9.199999809265137,47600
2020-07-15,9.260000228881836,10.789999961853027,9.260000228881836,10.710000038146973,10.710000038146973,259400
2020-07-16,10.3100004196167,11.350000381469727,10.170000076293945,10.720000267028809,10.720000267028809,1087500
2020-07-17,20.170000076293945,38.81999969482422,18.06100082397461,25.65999984741211,25.65999984741211,38409700
2020-07-20,23.049999237060547,32.5,20.670000076293945,21.510000228881836,21.510000228881836,8181100
2020-07-21,22.0,24.489999771118164,20.690000534057617,21.639999389648438,21.639999389648438,1287000
2020-07-22,21.020000457763672,22.200000762939453,19.31999969482422,19.5,19.5,520600
2020-07-23,20.209999084472656,24.200000762939453,19.56999969482422,22.149999618530273,22.149999618530273,2018800
2020-07-24,21.149999618530273,23.388999938964844,20.56999969482422,20.739999771118164,20.739999771118164,841100
2020-07-27,20.510000228881836,21.701000213623047,20.010000228881836,20.290000915527344,20.290000915527344,445600
2020-07-28,21.790000915527344,22.690000534057617,20.309999465942383,20.6200008392334,20.6200008392334,709700
2020-07-29,20.3799991607666,21.5,20.3799991607666,20.760000228881836,20.760000228881836,249100
2020-07-30,20.040000915527344,21.75,20.040000915527344,21.1200008392334,21.1200008392334,331100
2020-07-31,21.0,21.8799991607666,20.59000015258789,21.75,21.75,191200
2020-08-03,21.950000762939453,23.729999542236328,21.070999145507812,23.0,23.0,378000
2020-08-04,22.889999389648438,24.190000534057617,22.719999313354492,23.549999237060547,23.549999237060547,441700
2020-08-05,23.420000076293945,25.479999542236328,23.260000228881836,25.219999313354492,25.219999313354492,483200
2020-08-06,25.010000228881836,25.3799991607666,23.649999618530273,24.440000534057617,24.440000534057617,363000
2020-08-07,24.31999969482422,24.68000030517578,23.049999237060547,23.639999389648438,23.639999389648438,425300
2020-08-10,23.8799991607666,27.200000762939453,23.76099967956543,25.1200008392334,25.1200008392334,484600
2020-08-11,24.829999923706055,24.829999923706055,21.1200008392334,21.299999237060547,21.299999237060547,493800
2020-08-12,21.760000228881836,22.43000030517578,20.520000457763672,21.1200008392334,21.1200008392334,200400
2020-08-13,20.770000457763672,21.75,20.5,20.799999237060547,20.799999237060547,351300
2020-08-14,21.56999969482422,24.850000381469727,21.459999084472656,23.760000228881836,23.760000228881836,715800
2020-08-17,24.459999084472656,28.850000381469727,24.020000457763672,28.719999313354492,28.719999313354492,552600
2020-08-18,28.90999984741211,31.850000381469727,27.8700008392334,28.290000915527344,28.290000915527344,543100
2020-08-19,28.059999465942383,33.2400016784668,28.010000228881836,32.43000030517578,32.43000030517578,586200
2020-08-20,32.54999923706055,34.34000015258789,31.670000076293945,31.68000030517578,31.68000030517578,584000
2020-08-21,30.760000228881836,31.020000457763672,26.8700008392334,28.399999618530273,28.399999618530273,357400
2020-08-24,30.219999313354492,33.439998626708984,29.09000015258789,32.97999954223633,32.97999954223633,430700
2020-08-25,32.18000030517578,35.58000183105469,32.02000045776367,34.81999969482422,34.81999969482422,445600
2020-08-26,34.33000183105469,35.900001525878906,33.29999923706055,33.52000045776367,33.52000045776367,466500
2020-08-27,33.56999969482422,38.66999816894531,32.5099983215332,38.02000045776367,38.02000045776367,477100
2020-08-28,38.70000076293945,41.9900016784668,37.18000030517578,40.20000076293945,40.20000076293945,623200
2020-08-31,39.994998931884766,40.650001525878906,34.08300018310547,37.20000076293945,37.20000076293945,568200
2020-09-01,36.119998931884766,39.79999923706055,36.119998931884766,39.15999984741211,39.15999984741211,244300
2020-09-02,38.5099983215332,39.5,36.167999267578125,37.38999938964844,37.38999938964844,138000
2020-09-03,36.029998779296875,36.290000915527344,31.459999084472656,32.619998931884766,32.619998931884766,208300
2020-09-04,32.310001373291016,33.470001220703125,30.399999618530273,30.770000457763672,30.770000457763672,271200
2020-09-08,29.610000610351562,33.869998931884766,29.170000076293945,32.09000015258789,32.09000015258789,156600
2020-09-09,32.40999984741211,32.790000915527344,29.559999465942383,31.829999923706055,31.829999923706055,224900
2020-09-10,31.329999923706055,35.47100067138672,30.562999725341797,32.65999984741211,32.65999984741211,235600
2020-09-11,32.70000076293945,34.0,29.600000381469727,31.030000686645508,31.030000686645508,161400
2020-09-14,32.36000061035156,32.36000061035156,29.920000076293945,32.2599983215332,32.2599983215332,99700
2020-09-15,31.969999313354492,33.439998626708984,30.700000762939453,31.209999084472656,31.209999084472656,151300
2020-09-16,31.079999923706055,32.099998474121094,30.1200008392334,30.6299991607666,30.6299991607666,142800
2020-09-17,30.260000228881836,31.73699951171875,29.540000915527344,30.420000076293945,30.420000076293945,95400
2020-09-18,29.8700008392334,30.649999618530273,28.327999114990234,29.65999984741211,29.65999984741211,128000
2020-09-21,28.68000030517578,28.899999618530273,26.670000076293945,27.579999923706055,27.579999923706055,170400
2020-09-22,27.5,31.290000915527344,27.170000076293945,31.25,31.25,191100
2020-09-23,30.93000030517578,33.189998626708984,28.309999465942383,28.860000610351562,28.860000610351562,153600
2020-09-24,28.510000228881836,30.075000762939453,27.690000534057617,28.25,28.25,81400
2020-09-25,28.3700008392334,28.8799991607666,27.5,27.670000076293945,27.670000076293945,77600
2020-09-28,28.059999465942383,28.3799991607666,26.969999313354492,27.690000534057617,27.690000534057617,98700
2020-09-29,27.920000076293945,28.0,25.382999420166016,27.100000381469727,27.100000381469727,158200
2020-09-30,26.610000610351562,28.0,26.350000381469727,26.649999618530273,26.649999618530273,53700
2020-10-01,27.510000228881836,31.739999771118164,27.3799991607666,30.899999618530273,30.899999618530273,212600
2020-10-02,29.0,34.33000183105469,28.760000228881836,34.130001068115234,34.130001068115234,184300
2020-10-05,34.0,36.0,33.88100051879883,35.72999954223633,35.72999954223633,130400
2020-10-06,35.88999938964844,36.5,31.753999710083008,33.150001525878906,33.150001525878906,118300
2020-10-07,34.0,36.25,33.0,36.0,36.0,87600
2020-10-08,36.150001525878906,36.8849983215332,34.5099983215332,35.220001220703125,35.220001220703125,48600
2020-10-09,36.0,36.38999938964844,32.79999923706055,34.220001220703125,34.220001220703125,71500
2020-10-12,35.0099983215332,36.959999084472656,33.75,36.54999923706055,36.54999923706055,116500
2020-10-13,36.70000076293945,37.88999938964844,35.290000915527344,36.4900016784668,36.4900016784668,87600
2020-10-14,36.70000076293945,38.97999954223633,35.15999984741211,38.84000015258789,38.84000015258789,176000
2020-10-15,39.0,39.0,36.54999923706055,37.349998474121094,37.349998474121094,54500
2020-10-16,37.709999084472656,39.0,36.5,38.209999084472656,38.209999084472656,53300
2020-10-19,39.0,41.27000045776367,38.25,40.869998931884766,40.869998931884766,144100
2020-10-20,41.06999969482422,41.400001525878906,37.400001525878906,39.11000061035156,39.11000061035156,88200
2020-10-21,39.11000061035156,40.099998474121094,36.45000076293945,36.91999816894531,36.91999816894531,79900
2020-10-22,36.880001068115234,38.5,35.0,37.869998931884766,37.869998931884766,80800
2020-10-23,38.31999969482422,39.4900016784668,36.74800109863281,38.61000061035156,38.61000061035156,74900
2020-10-26,37.790000915527344,38.61000061035156,36.01100158691406,37.45000076293945,37.45000076293945,73200
2020-10-27,37.29999923706055,41.75,37.189998626708984,40.4900016784668,40.4900016784668,119600
2020-10-28,38.720001220703125,41.0,36.869998931884766,38.02000045776367,38.02000045776367,99600
2020-10-29,38.5099983215332,40.86899948120117,37.470001220703125,39.349998474121094,39.349998474121094,92500
2020-10-30,39.0,39.65999984741211,35.16999816894531,38.9900016784668,38.9900016784668,126000
2020-11-02,39.45000076293945,41.0,38.400001525878906,39.099998474121094,39.099998474121094,60800
2020-11-03,39.38999938964844,40.650001525878906,39.029998779296875,39.06999969482422,39.06999969482422,42000
2020-11-04,40.400001525878906,40.400001525878906,39.2400016784668,39.81999969482422,39.81999969482422,33900
2020-11-05,39.970001220703125,44.91999816894531,39.970001220703125,44.099998474121094,44.099998474121094,169800
2020-11-06,43.7599983215332,46.900001525878906,42.40999984741211,43.31999969482422,43.31999969482422,149700
2020-11-09,44.5,44.75,38.540000915527344,38.75,38.75,130800
2020-11-10,42.25,43.97999954223633,36.38999938964844,39.119998931884766,39.119998931884766,188700
2020-11-11,39.97999954223633,41.630001068115234,38.0099983215332,38.29999923706055,38.29999923706055,69200
2020-11-12,38.36000061035156,39.60499954223633,36.5099983215332,36.529998779296875,36.529998779296875,73600
2020-11-13,37.29999923706055,38.65999984741211,33.0099983215332,34.27000045776367,34.27000045776367,110200
2020-11-16,34.9900016784668,36.70000076293945,33.20000076293945,35.2599983215332,35.2599983215332,97100
2020-11-17,34.52000045776367,35.95000076293945,34.09000015258789,35.029998779296875,35.029998779296875,101800
2020-11-18,35.45000076293945,35.59000015258789,34.029998779296875,34.18000030517578,34.18000030517578,109400
2020-11-19,34.029998779296875,35.290000915527344,34.0099983215332,34.689998626708984,34.689998626708984,36900
2020-11-20,34.380001068115234,34.9900016784668,34.220001220703125,34.779998779296875,34.779998779296875,25100
2020-11-23,34.709999084472656,35.15999984741211,34.0,34.150001525878906,34.150001525878906,97900
2020-11-24,34.150001525878906,34.75,31.6200008392334,31.959999084472656,31.959999084472656,72400
2020-11-25,32.150001525878906,34.439998626708984,31.829999923706055,33.959999084472656,33.959999084472656,51300
2020-11-27,35.0,35.52399826049805,33.540000915527344,34.0,34.0,37600
2020-11-30,34.5099983215332,34.66999816894531,33.15999984741211,33.68000030517578,33.68000030517578,33900
2020-12-01,34.0,34.0,32.36000061035156,32.540000915527344,32.540000915527344,29700
2020-12-02,32.060001373291016,32.560001373291016,29.610000610351562,31.290000915527344,31.290000915527344,59200
2020-12-03,31.8799991607666,32.72999954223633,30.408000946044922,32.06999969482422,32.06999969482422,22400
2020-12-04,32.45000076293945,33.220001220703125,30.84000015258789,31.6200008392334,31.6200008392334,39700
2020-12-07,31.790000915527344,31.979999542236328,29.615999221801758,30.31999969482422,30.31999969482422,71000
2020-12-08,30.219999313354492,30.5310001373291,29.149999618530273,30.3799991607666,30.3799991607666,44600
2020-12-09,30.149999618530273,30.29400062561035,27.600000381469727,28.3799991607666,28.3799991607666,91900
2020-12-10,27.920000076293945,30.940000534057617,27.5,30.520000457763672,30.520000457763672,44000
2020-12-11,30.5,31.420000076293945,29.15999984741211,31.100000381469727,31.100000381469727,40900
2020-12-14,31.690000534057617,33.21500015258789,31.56999969482422,32.68000030517578,32.68000030517578,45400
2020-12-15,32.709999084472656,32.709999084472656,31.670000076293945,31.860000610351562,31.860000610351562,18700
2020-12-16,32.130001068115234,33.900001525878906,32.08000183105469,32.91999816894531,32.91999816894531,54500
2020-12-17,32.9900016784668,33.13999938964844,30.059999465942383,30.3799991607666,30.3799991607666,61400
2020-12-18,30.25,30.902999877929688,28.389999389648438,28.540000915527344,28.540000915527344,62400
2020-12-21,29.0,29.375,28.489999771118164,28.5,28.5,46800
2020-12-22,28.770000457763672,29.610000610351562,28.0,28.0,28.0,40700
2020-12-23,28.5,29.989999771118164,28.059999465942383,29.93000030517578,29.93000030517578,72500
2020-12-24,29.709999084472656,30.350000381469727,29.420000076293945,30.200000762939453,30.200000762939453,9100
2020-12-28,30.889999389648438,30.889999389648438,28.75,28.770000457763672,28.770000457763672,32800
2020-12-29,28.5,29.100000381469727,27.549999237060547,29.100000381469727,29.100000381469727,36600
2020-12-30,29.149999618530273,30.110000610351562,29.145000457763672,29.889999389648438,29.889999389648438,22500
