Date,Open,High,Low,Close,Adj Close,Volume
2020-04-27,9.800000190734863,10.0,9.789999961853027,9.789999961853027,9.789999961853027,4100
2020-04-28,9.789999961853027,9.789999961853027,9.789999961853027,9.789999961853027,9.789999961853027,0
2020-04-29,9.789999961853027,9.789999961853027,9.789999961853027,9.789999961853027,9.789999961853027,0
2020-04-30,9.789999961853027,9.789999961853027,9.789999961853027,9.789999961853027,9.789999961853027,0
2020-05-01,9.789999961853027,9.789999961853027,9.789999961853027,9.789999961853027,9.789999961853027,0
2020-05-04,9.789999961853027,9.789999961853027,9.789999961853027,9.789999961853027,9.789999961853027,0
2020-05-05,9.789999961853027,9.789999961853027,9.789999961853027,9.789999961853027,9.789999961853027,0
2020-05-06,9.789999961853027,9.789999961853027,9.789999961853027,9.789999961853027,9.789999961853027,0
2020-05-07,9.600000381469727,9.600000381469727,9.600000381469727,9.600000381469727,9.600000381469727,5000
2020-05-08,9.600000381469727,9.600000381469727,9.600000381469727,9.600000381469727,9.600000381469727,0
2020-05-11,9.600000381469727,9.600000381469727,9.600000381469727,9.600000381469727,9.600000381469727,0
2020-05-12,9.600000381469727,9.600000381469727,9.600000381469727,9.600000381469727,9.600000381469727,0
2020-05-13,9.850000381469727,9.850000381469727,9.800000190734863,9.800000190734863,9.800000190734863,1700
2020-05-14,9.800000190734863,9.800000190734863,9.800000190734863,9.800000190734863,9.800000190734863,0
2020-05-15,9.75,9.75,9.75,9.75,9.75,1000
2020-05-18,9.75,9.75,9.75,9.75,9.75,0
2020-05-19,9.75,9.75,9.75,9.75,9.75,200
2020-05-20,9.75,9.75,9.75,9.75,9.75,0
2020-05-21,9.75,9.75,9.75,9.75,9.75,0
2020-05-22,9.75,9.75,9.75,9.75,9.75,0
2020-05-26,9.75,9.75,9.75,9.75,9.75,100
2020-05-27,9.75,9.75,9.75,9.75,9.75,0
2020-05-28,9.75,9.75,9.75,9.75,9.75,0
2020-05-29,9.75,9.75,9.75,9.75,9.75,1300
2020-06-01,9.600000381469727,9.75,9.600000381469727,9.75,9.75,82900
2020-06-02,9.779999732971191,9.779999732971191,9.600000381469727,9.600000381469727,9.600000381469727,22900
2020-06-03,9.600000381469727,9.600000381469727,9.600000381469727,9.600000381469727,9.600000381469727,0
2020-06-04,9.75,9.75,9.673999786376953,9.673999786376953,9.673999786376953,3000
2020-06-05,9.779999732971191,9.779999732971191,9.779999732971191,9.779999732971191,9.779999732971191,100
2020-06-08,9.510000228881836,9.510000228881836,9.510000228881836,9.510000228881836,9.510000228881836,300
2020-06-09,9.800000190734863,9.800000190734863,9.619999885559082,9.630000114440918,9.630000114440918,3100
2020-06-10,9.630000114440918,9.800000190734863,9.630000114440918,9.6899995803833,9.6899995803833,5400
2020-06-11,9.890000343322754,9.890000343322754,9.890000343322754,9.890000343322754,9.890000343322754,100
2020-06-12,10.180000305175781,10.180000305175781,9.890000343322754,9.890000343322754,9.890000343322754,500
2020-06-15,9.770000457763672,9.770000457763672,9.609999656677246,9.612000465393066,9.612000465393066,8100
2020-06-16,9.612000465393066,9.612000465393066,9.612000465393066,9.612000465393066,9.612000465393066,0
2020-06-17,9.739999771118164,9.739999771118164,9.739999771118164,9.739999771118164,9.739999771118164,8100
2020-06-18,9.789999961853027,9.789999961853027,9.789999961853027,9.789999961853027,9.789999961853027,100
2020-06-19,9.850000381469727,9.850000381469727,9.779999732971191,9.779999732971191,9.779999732971191,53200
2020-06-22,9.800000190734863,9.800000190734863,9.800000190734863,9.800000190734863,9.800000190734863,200
2020-06-23,9.729999542236328,9.729999542236328,9.729999542236328,9.729999542236328,9.729999542236328,100
2020-06-24,9.8149995803833,9.880000114440918,9.8100004196167,9.8100004196167,9.8100004196167,8700
2020-06-25,9.729999542236328,9.819999694824219,9.729999542236328,9.819999694824219,9.819999694824219,900
2020-06-26,9.880000114440918,9.880000114440918,9.770000457763672,9.770000457763672,9.770000457763672,800
2020-06-29,9.949999809265137,10.130000114440918,9.895000457763672,10.010000228881836,10.010000228881836,98100
2020-06-30,10.010000228881836,10.045000076293945,10.0,10.029999732971191,10.029999732971191,4100
2020-07-01,10.1899995803833,10.1899995803833,10.010000228881836,10.15999984741211,10.15999984741211,37500
2020-07-02,10.15999984741211,10.199999809265137,10.15999984741211,10.199999809265137,10.199999809265137,20700
2020-07-06,10.210000038146973,10.210000038146973,10.140000343322754,10.1899995803833,10.1899995803833,3300
2020-07-07,10.15999984741211,10.170999526977539,10.050000190734863,10.109999656677246,10.109999656677246,23700
2020-07-08,10.220000267028809,10.220000267028809,10.199999809265137,10.220000267028809,10.220000267028809,27300
2020-07-09,10.15999984741211,10.15999984741211,10.100000381469727,10.100000381469727,10.100000381469727,900
2020-07-10,10.220000267028809,10.399999618530273,10.220000267028809,10.390000343322754,10.390000343322754,253400
2020-07-13,10.449999809265137,10.529000282287598,10.350000381469727,10.40999984741211,10.40999984741211,30600
2020-07-14,10.510000228881836,10.510000228881836,10.390000343322754,10.510000228881836,10.510000228881836,61200
2020-07-15,10.65999984741211,10.65999984741211,10.399999618530273,10.529999732971191,10.529999732971191,14100
2020-07-16,10.529999732971191,10.619999885559082,10.529999732971191,10.619999885559082,10.619999885559082,36200
2020-07-17,10.619999885559082,10.619999885559082,10.585000038146973,10.609999656677246,10.609999656677246,700
2020-07-20,10.619999885559082,10.699999809265137,10.60099983215332,10.630000114440918,10.630000114440918,135200
2020-07-21,10.619999885559082,10.729999542236328,10.619999885559082,10.699999809265137,10.699999809265137,108300
2020-07-22,10.989999771118164,11.149999618530273,10.800000190734863,10.869999885559082,10.869999885559082,33400
2020-07-23,10.850000381469727,11.0,10.805000305175781,10.850000381469727,10.850000381469727,13500
2020-07-24,11.210000038146973,11.399999618530273,11.130000114440918,11.300000190734863,11.300000190734863,978600
2020-07-27,12.350000381469727,12.486000061035156,11.510000228881836,11.850000381469727,11.850000381469727,5729300
2020-07-28,11.899999618530273,12.100000381469727,11.65999984741211,11.75,11.75,2196000
2020-07-29,11.65999984741211,11.890000343322754,11.300000190734863,11.460000038146973,11.460000038146973,2187400
2020-07-30,11.300000190734863,11.380000114440918,10.75,10.75,10.75,1132200
2020-07-31,10.850000381469727,11.0,10.425000190734863,10.585000038146973,10.585000038146973,266100
2020-08-03,11.140000343322754,11.140000343322754,10.449999809265137,10.460000038146973,10.460000038146973,457200
2020-08-04,10.550000190734863,10.569999694824219,10.418000221252441,10.479999542236328,10.479999542236328,873600
2020-08-05,10.5,10.569999694824219,10.399999618530273,10.529999732971191,10.529999732971191,85900
2020-08-06,10.579999923706055,10.65999984741211,10.34000015258789,10.460000038146973,10.460000038146973,129200
2020-08-07,10.260000228881836,10.640000343322754,10.010000228881836,10.15999984741211,10.15999984741211,336800
2020-08-10,10.5,10.571000099182129,10.333000183105469,10.5,10.5,276200
2020-08-11,10.5,10.649999618530273,10.5,10.569999694824219,10.569999694824219,73100
2020-08-12,10.489999771118164,10.960000038146973,10.489999771118164,10.670000076293945,10.670000076293945,187200
2020-08-13,10.789999961853027,11.0,10.510000228881836,10.800000190734863,10.800000190734863,1764500
2020-08-14,11.0,11.0,10.619999885559082,10.619999885559082,10.619999885559082,630300
2020-08-17,10.84000015258789,10.850000381469727,10.640000343322754,10.645000457763672,10.645000457763672,373200
2020-08-18,10.800000190734863,10.800000190734863,10.5600004196167,10.609999656677246,10.609999656677246,171400
2020-08-19,10.649999618530273,10.649999618530273,10.579999923706055,10.579999923706055,10.579999923706055,81400
2020-08-20,10.579999923706055,10.6899995803833,10.5600004196167,10.59000015258789,10.59000015258789,509500
2020-08-21,10.59000015258789,10.729999542236328,10.569999694824219,10.699999809265137,10.699999809265137,392900
2020-08-24,10.75,10.75,10.699999809265137,10.729999542236328,10.729999542236328,1446000
2020-08-25,10.850000381469727,11.300000190734863,10.819999694824219,11.109999656677246,11.109999656677246,1336500
2020-08-26,11.25,11.489999771118164,11.149999618530273,11.359999656677246,11.359999656677246,1039500
2020-08-27,11.260000228881836,11.420000076293945,11.085000038146973,11.199999809265137,11.199999809265137,302600
2020-08-28,11.300000190734863,11.305000305175781,11.130000114440918,11.279999732971191,11.279999732971191,399000
2020-08-31,11.279999732971191,11.359999656677246,11.210000038146973,11.359999656677246,11.359999656677246,346500
2020-09-01,11.40999984741211,11.524999618530273,11.300000190734863,11.4399995803833,11.4399995803833,654100
2020-09-02,11.609999656677246,11.800000190734863,11.479999542236328,11.529999732971191,11.529999732971191,636500
2020-09-03,11.65999984741211,11.930000305175781,11.350000381469727,11.649999618530273,11.649999618530273,695100
2020-09-04,11.800000190734863,11.850000381469727,11.104000091552734,11.520000457763672,11.520000457763672,407600
2020-09-08,11.470000267028809,11.789999961853027,11.380999565124512,11.619999885559082,11.619999885559082,439900
2020-09-09,11.899999618530273,12.850000381469727,11.78499984741211,12.739999771118164,12.739999771118164,1527500
2020-09-10,13.210000038146973,13.529999732971191,12.699999809265137,12.850000381469727,12.850000381469727,1135100
2020-09-11,13.25,13.609999656677246,13.085000038146973,13.40999984741211,13.40999984741211,1592100
2020-09-14,13.489999771118164,13.649999618530273,13.109999656677246,13.430000305175781,13.430000305175781,579000
2020-09-15,13.739999771118164,13.739999771118164,13.300000190734863,13.399999618530273,13.399999618530273,282500
2020-09-16,13.630000114440918,14.380000114440918,13.550000190734863,14.0,14.0,750200
2020-09-17,13.59000015258789,14.380000114440918,13.510000228881836,14.239999771118164,14.239999771118164,942700
2020-09-18,13.989999771118164,14.25,13.949999809265137,14.180000305175781,14.180000305175781,394800
2020-09-21,13.3100004196167,14.0,13.289999961853027,13.600000381469727,13.600000381469727,275700
2020-09-22,13.850000381469727,13.899999618530273,12.670000076293945,13.0,13.0,505600
2020-09-23,13.600000381469727,13.9399995803833,12.75,12.960000038146973,12.960000038146973,1004300
2020-09-24,12.220000267028809,12.699999809265137,11.649999618530273,11.949999809265137,11.949999809265137,1263100
2020-09-25,12.380000114440918,12.640000343322754,12.130000114440918,12.550000190734863,12.550000190734863,797000
2020-09-28,12.670000076293945,13.1899995803833,12.670000076293945,12.920000076293945,12.920000076293945,260500
2020-09-29,12.720000267028809,13.140000343322754,12.5600004196167,12.619999885559082,12.619999885559082,220400
2020-09-30,12.899999618530273,12.899999618530273,12.359999656677246,12.760000228881836,12.760000228881836,195900
2020-10-01,12.930000305175781,13.015000343322754,12.020000457763672,12.100000381469727,12.100000381469727,825400
2020-10-02,11.739999771118164,12.210000038146973,11.65999984741211,11.739999771118164,11.739999771118164,404400
2020-10-05,11.630000114440918,12.170000076293945,11.630000114440918,11.920000076293945,11.920000076293945,429500
2020-10-06,11.670000076293945,11.800000190734863,11.369999885559082,11.729999542236328,11.729999542236328,487700
2020-10-07,11.65999984741211,11.930000305175781,11.345000267028809,11.829999923706055,11.829999923706055,353500
2020-10-08,11.199999809265137,12.180000305175781,11.0,11.710000038146973,11.710000038146973,831200
2020-10-09,11.899999618530273,12.109999656677246,11.812000274658203,11.899999618530273,11.899999618530273,209100
2020-10-12,12.489999771118164,12.739999771118164,12.220000267028809,12.390000343322754,12.390000343322754,602600
2020-10-13,12.020000457763672,12.449999809265137,11.920000076293945,12.069999694824219,12.069999694824219,212800
2020-10-14,12.09000015258789,12.34000015258789,12.029999732971191,12.239999771118164,12.239999771118164,607500
2020-10-15,12.869999885559082,12.880000114440918,12.1850004196167,12.40999984741211,12.40999984741211,713900
2020-10-16,12.5,13.479999542236328,12.470000267028809,13.260000228881836,13.260000228881836,1158500
2020-10-19,13.529999732971191,13.529999732971191,13.109999656677246,13.3100004196167,13.3100004196167,425100
2020-10-20,13.34000015258789,13.449999809265137,13.0,13.210000038146973,13.210000038146973,284800
2020-10-21,13.479999542236328,13.479999542236328,12.850000381469727,12.979999542236328,12.979999542236328,516200
2020-10-22,12.899999618530273,12.899999618530273,12.100000381469727,12.5,12.5,635900
2020-10-23,12.75,12.850000381469727,12.109999656677246,12.199999809265137,12.199999809265137,588500
2020-10-26,12.399999618530273,12.5,11.359999656677246,11.619999885559082,11.619999885559082,857300
2020-10-27,11.880000114440918,11.989999771118164,11.399999618530273,11.640000343322754,11.640000343322754,270400
2020-10-28,11.25,11.550000190734863,11.130999565124512,11.300000190734863,11.300000190734863,549700
2020-10-29,11.210000038146973,11.449999809265137,11.119999885559082,11.199999809265137,11.199999809265137,662100
2020-10-30,11.15999984741211,11.430000305175781,11.010000228881836,11.140000343322754,11.140000343322754,522400
2020-11-02,11.300000190734863,11.375,11.079999923706055,11.359999656677246,11.359999656677246,292900
2020-11-03,11.5,11.5600004196167,11.149999618530273,11.15999984741211,11.15999984741211,1705800
2020-11-04,11.399999618530273,11.539999961853027,11.010000228881836,11.109999656677246,11.109999656677246,494500
2020-11-05,11.260000228881836,11.4399995803833,11.140000343322754,11.199999809265137,11.199999809265137,580100
2020-11-06,11.300000190734863,11.329999923706055,11.010000228881836,11.260000228881836,11.260000228881836,264100
2020-11-09,11.489999771118164,11.489999771118164,11.0,11.239999771118164,11.239999771118164,484300
2020-11-10,11.25,11.326000213623047,10.991000175476074,11.199999809265137,11.199999809265137,638600
2020-11-11,11.25,11.300000190734863,11.034000396728516,11.15999984741211,11.15999984741211,183400
2020-11-12,11.069999694824219,11.149999618530273,10.90999984741211,10.989999771118164,10.989999771118164,314400
2020-11-13,11.300000190734863,11.300000190734863,10.930000305175781,11.069999694824219,11.069999694824219,612800
2020-11-16,11.25,11.4399995803833,11.168999671936035,11.319999694824219,11.319999694824219,459800
2020-11-17,11.319999694824219,11.729999542236328,11.260000228881836,11.600000381469727,11.600000381469727,590300
2020-11-18,12.170000076293945,12.779999732971191,11.850000381469727,12.640000343322754,12.640000343322754,1584900
2020-11-19,12.739999771118164,13.800000190734863,12.704999923706055,13.300000190734863,13.300000190734863,1478300
2020-11-20,13.59000015258789,13.9399995803833,13.449999809265137,13.920000076293945,13.920000076293945,1023800
2020-11-23,13.850000381469727,14.1899995803833,13.300000190734863,13.5,13.5,811300
2020-11-24,14.829999923706055,15.720000267028809,13.8100004196167,15.649999618530273,15.649999618530273,2117300
2020-11-25,15.649999618530273,16.549999237060547,14.899999618530273,16.229999542236328,16.229999542236328,1207500
2020-11-27,17.0,17.350000381469727,15.600000381469727,16.25,16.25,924200
2020-11-30,16.239999771118164,17.110000610351562,15.920000076293945,15.989999771118164,15.989999771118164,889300
2020-12-01,17.270000457763672,17.510000228881836,15.640000343322754,16.5,16.5,902400
2020-12-02,15.119999885559082,16.450000762939453,15.111000061035156,16.329999923706055,16.329999923706055,489600
2020-12-03,16.75,17.309999465942383,16.639999389648438,16.8700008392334,16.8700008392334,931300
2020-12-04,17.18000030517578,17.43000030517578,16.889999389648438,17.239999771118164,17.239999771118164,731700
2020-12-07,17.309999465942383,19.839000701904297,17.239999771118164,19.020000457763672,19.020000457763672,1198100
2020-12-08,19.030000686645508,19.299999237060547,18.1200008392334,18.75,18.75,461700
2020-12-09,20.25,20.940000534057617,17.795000076293945,18.31999969482422,18.31999969482422,928200
2020-12-10,18.399999618530273,19.770000457763672,18.399999618530273,19.209999084472656,19.209999084472656,558300
2020-12-11,19.010000228881836,19.59000015258789,18.15999984741211,18.899999618530273,18.899999618530273,481800
2020-12-14,19.510000228881836,19.649999618530273,18.43000030517578,18.81999969482422,18.81999969482422,859900
2020-12-15,18.600000381469727,19.100000381469727,17.25,19.030000686645508,19.030000686645508,1624800
2020-12-16,18.809999465942383,20.139999389648438,17.950000762939453,20.0,20.0,1463900
2020-12-17,20.40999984741211,22.0,19.520000457763672,20.31999969482422,20.31999969482422,1262000
2020-12-18,20.270000457763672,21.357999801635742,19.170000076293945,20.600000381469727,20.600000381469727,1116900
2020-12-21,20.18000030517578,21.690000534057617,20.18000030517578,20.950000762939453,20.950000762939453,981600
2020-12-22,21.469999313354492,21.899999618530273,20.850000381469727,21.559999465942383,21.559999465942383,808600
2020-12-23,21.09000015258789,24.15999984741211,21.049999237060547,22.829999923706055,22.829999923706055,862100
2020-12-24,23.920000076293945,24.739999771118164,23.059999465942383,23.940000534057617,23.940000534057617,756500
2020-12-28,25.0,25.399999618530273,23.266000747680664,24.280000686645508,24.280000686645508,1161700
2020-12-29,23.290000915527344,23.90999984741211,21.799999237060547,22.760000228881836,22.760000228881836,1322000
2020-12-30,23.010000228881836,23.690000534057617,20.200000762939453,21.510000228881836,21.510000228881836,2168100
