Date,Open,High,Low,Close,Adj Close,Volume
2017-09-27,24.1200008392334,27.600000381469727,24.0,25.899999618530273,25.899999618530273,7604500
2017-09-28,26.270000457763672,27.440000534057617,24.270000457763672,24.950000762939453,24.950000762939453,1952300
2017-09-29,24.75,28.5,24.40999984741211,28.5,28.5,904000
2017-10-02,28.049999237060547,31.219999313354492,27.399999618530273,31.139999389648438,31.139999389648438,1287500
2017-10-03,31.280000686645508,31.799999237060547,28.600000381469727,29.440000534057617,29.440000534057617,1175800
2017-10-04,29.40999984741211,30.479999542236328,29.010000228881836,29.200000762939453,29.200000762939453,400900
2017-10-05,29.15999984741211,29.739999771118164,26.8799991607666,26.959999084472656,26.959999084472656,615200
2017-10-06,27.700000762939453,29.489999771118164,27.260000228881836,27.940000534057617,27.940000534057617,661600
2017-10-09,27.8799991607666,27.8799991607666,26.610000610351562,26.889999389648438,26.889999389648438,501500
2017-10-10,27.18000030517578,29.299999237060547,26.979999542236328,28.68000030517578,28.68000030517578,605800
2017-10-11,28.729999542236328,28.729999542236328,27.68000030517578,28.399999618530273,28.399999618530273,268500
2017-10-12,28.3700008392334,29.989999771118164,27.68000030517578,29.860000610351562,29.860000610351562,430100
2017-10-13,30.100000381469727,30.5,29.149999618530273,29.899999618530273,29.899999618530273,313100
2017-10-16,30.0,31.1200008392334,29.1200008392334,30.920000076293945,30.920000076293945,390900
2017-10-17,30.700000762939453,30.700000762939453,28.559999465942383,28.649999618530273,28.649999618530273,442600
2017-10-18,28.790000915527344,28.950000762939453,27.15999984741211,27.299999237060547,27.299999237060547,915000
2017-10-19,27.010000228881836,27.5,25.799999237060547,27.3700008392334,27.3700008392334,1177300
2017-10-20,27.5,27.673999786376953,26.5,27.3700008392334,27.3700008392334,374300
2017-10-23,27.489999771118164,27.489999771118164,25.959999084472656,26.010000228881836,26.010000228881836,657500
2017-10-24,26.139999389648438,27.1299991607666,25.0,26.0,26.0,705600
2017-10-25,26.09000015258789,26.75,23.229999542236328,23.969999313354492,23.969999313354492,1209000
2017-10-26,23.559999465942383,25.520000457763672,23.329999923706055,25.0,25.0,875400
2017-10-27,25.1299991607666,25.489999771118164,23.770000457763672,24.020000457763672,24.020000457763672,551300
2017-10-30,24.0,25.0,24.0,24.75,24.75,99600
2017-10-31,24.780000686645508,25.479999542236328,24.40999984741211,25.459999084472656,25.459999084472656,240400
2017-11-01,25.729999542236328,26.399999618530273,25.209999084472656,25.75,25.75,192600
2017-11-02,25.610000610351562,26.100000381469727,25.43000030517578,25.59000015258789,25.59000015258789,65300
2017-11-03,25.739999771118164,25.969999313354492,25.420000076293945,25.68000030517578,25.68000030517578,114800
2017-11-06,25.809999465942383,26.459999084472656,25.690000534057617,26.399999618530273,26.399999618530273,186300
2017-11-07,26.309999465942383,26.610000610351562,25.940000534057617,26.459999084472656,26.459999084472656,215000
2017-11-08,26.34000015258789,26.600000381469727,26.020000457763672,26.520000457763672,26.520000457763672,91800
2017-11-09,26.399999618530273,29.799999237060547,26.229999542236328,29.34000015258789,29.34000015258789,708500
2017-11-10,29.34000015258789,30.469999313354492,28.5,28.56999969482422,28.56999969482422,410900
2017-11-13,28.59000015258789,29.889999389648438,28.59000015258789,29.459999084472656,29.459999084472656,166000
2017-11-14,29.299999237060547,30.5,29.18000030517578,30.010000228881836,30.010000228881836,222200
2017-11-15,29.809999465942383,29.809999465942383,28.079999923706055,28.1299991607666,28.1299991607666,183700
2017-11-16,28.18000030517578,28.94499969482422,26.93000030517578,26.989999771118164,26.989999771118164,148000
2017-11-17,27.559999465942383,27.559999465942383,26.079999923706055,26.15999984741211,26.15999984741211,228000
2017-11-20,26.59000015258789,27.649999618530273,26.5,27.190000534057617,27.190000534057617,267800
2017-11-21,27.639999389648438,28.5,27.5,27.809999465942383,27.809999465942383,152800
2017-11-22,27.690000534057617,28.079999923706055,26.420000076293945,26.709999084472656,26.709999084472656,76500
2017-11-24,15.619999885559082,17.700000762939453,15.5600004196167,16.450000762939453,16.450000762939453,11438100
2017-11-27,17.81999969482422,18.700000762939453,17.610000610351562,18.0,18.0,6402000
2017-11-28,20.559999465942383,22.559999465942383,19.059999465942383,22.200000762939453,22.200000762939453,11141000
2017-11-29,20.200000762939453,21.700000762939453,19.600000381469727,20.329999923706055,20.329999923706055,4483900
2017-11-30,20.5,20.729999542236328,16.34000015258789,17.700000762939453,17.700000762939453,6981600
2017-12-01,17.25,19.200000762939453,17.0,18.299999237060547,18.299999237060547,2780900
2017-12-04,18.56999969482422,18.749000549316406,17.030000686645508,17.770000457763672,17.770000457763672,1240100
2017-12-05,17.639999389648438,18.31999969482422,17.410999298095703,17.90999984741211,17.90999984741211,629400
2017-12-06,17.709999084472656,18.100000381469727,17.239999771118164,17.239999771118164,17.239999771118164,531700
2017-12-07,17.219999313354492,17.43000030517578,17.0,17.149999618530273,17.149999618530273,550200
2017-12-08,17.270000457763672,17.889999389648438,16.979999542236328,17.84000015258789,17.84000015258789,720500
2017-12-11,17.719999313354492,18.850000381469727,17.719999313354492,18.479999542236328,18.479999542236328,935300
2017-12-12,18.299999237060547,18.579999923706055,17.079999923706055,17.18000030517578,17.18000030517578,1008700
2017-12-13,17.440000534057617,17.68000030517578,17.09000015258789,17.110000610351562,17.110000610351562,616500
2017-12-14,17.139999389648438,17.260000228881836,16.770000457763672,16.93000030517578,16.93000030517578,731500
2017-12-15,16.959999084472656,17.06999969482422,16.6200008392334,16.780000686645508,16.780000686645508,627400
2017-12-18,16.950000762939453,16.989999771118164,16.200000762939453,16.360000610351562,16.360000610351562,813900
2017-12-19,16.360000610351562,16.469999313354492,15.899999618530273,16.1299991607666,16.1299991607666,677200
2017-12-20,16.030000686645508,16.280000686645508,15.600000381469727,15.949999809265137,15.949999809265137,598000
2017-12-21,15.890000343322754,15.979999542236328,15.5,15.6899995803833,15.6899995803833,502300
2017-12-22,15.680000305175781,16.360000610351562,15.579999923706055,16.25,16.25,509700
2017-12-26,16.5,16.8700008392334,16.270000457763672,16.780000686645508,16.780000686645508,326500
2017-12-27,16.59000015258789,17.280000686645508,16.5,17.190000534057617,17.190000534057617,494600
2017-12-28,17.100000381469727,17.440000534057617,16.600000381469727,16.829999923706055,16.829999923706055,404100
2017-12-29,16.989999771118164,17.09000015258789,16.719999313354492,16.8799991607666,16.8799991607666,316800
2018-01-02,17.09000015258789,17.3799991607666,16.8799991607666,17.0,17.0,500400
2018-01-03,17.149999618530273,17.200000762939453,16.770000457763672,16.799999237060547,16.799999237060547,312500
2018-01-04,16.799999237060547,17.15999984741211,16.510000228881836,16.959999084472656,16.959999084472656,616500
2018-01-05,16.899999618530273,17.06100082397461,16.799999237060547,16.940000534057617,16.940000534057617,352200
2018-01-08,16.790000915527344,17.0,16.600000381469727,16.770000457763672,16.770000457763672,381300
2018-01-09,16.610000610351562,16.770000457763672,16.43000030517578,16.59000015258789,16.59000015258789,294100
2018-01-10,16.600000381469727,16.850000381469727,16.459999084472656,16.700000762939453,16.700000762939453,201500
2018-01-11,16.700000762939453,16.809999465942383,16.600000381469727,16.799999237060547,16.799999237060547,119900
2018-01-12,16.81999969482422,17.34000015258789,16.790000915527344,16.850000381469727,16.850000381469727,511300
2018-01-16,17.209999084472656,17.98699951171875,16.979999542236328,17.75,17.75,715000
2018-01-17,17.84000015258789,19.5,17.84000015258789,19.299999237060547,19.299999237060547,1576300
2018-01-18,19.579999923706055,19.579999923706055,18.700000762939453,19.360000610351562,19.360000610351562,430500
2018-01-19,19.280000686645508,19.399999618530273,18.5,18.5,18.5,585100
2018-01-22,18.6200008392334,18.924999237060547,18.25,18.25,18.25,475200
2018-01-23,18.149999618530273,18.959999084472656,18.110000610351562,18.809999465942383,18.809999465942383,398500
2018-01-24,18.770000457763672,19.200000762939453,18.559999465942383,18.969999313354492,18.969999313354492,354200
2018-01-25,18.979999542236328,19.788999557495117,18.979999542236328,19.489999771118164,19.489999771118164,542800
2018-01-26,19.75,20.329999923706055,19.690000534057617,19.989999771118164,19.989999771118164,470900
2018-01-29,19.950000762939453,20.049999237060547,19.239999771118164,19.920000076293945,19.920000076293945,349700
2018-01-30,19.5,19.649999618530273,18.799999237060547,19.270000457763672,19.270000457763672,459600
2018-01-31,19.270000457763672,19.479999542236328,19.049999237060547,19.09000015258789,19.09000015258789,172600
2018-02-01,18.850000381469727,19.420000076293945,18.799999237060547,19.0,19.0,209700
2018-02-02,18.68000030517578,18.829999923706055,18.100000381469727,18.270000457763672,18.270000457763672,382800
2018-02-05,18.110000610351562,19.549999237060547,17.700000762939453,17.75,17.75,524900
2018-02-06,17.010000228881836,17.719999313354492,16.989999771118164,17.65999984741211,17.65999984741211,403400
2018-02-07,17.65999984741211,17.8700008392334,17.25,17.290000915527344,17.290000915527344,408600
2018-02-08,17.270000457763672,17.559999465942383,16.5,16.600000381469727,16.600000381469727,1109600
2018-02-09,16.649999618530273,17.34000015258789,16.610000610351562,17.229999542236328,17.229999542236328,495800
2018-02-12,17.43000030517578,18.104000091552734,17.43000030517578,17.809999465942383,17.809999465942383,344300
2018-02-13,17.729999542236328,18.68000030517578,17.709999084472656,18.56999969482422,18.56999969482422,385700
2018-02-14,18.489999771118164,19.489999771118164,18.26099967956543,19.399999618530273,19.399999618530273,492400
2018-02-15,19.5,19.899999618530273,19.290000915527344,19.469999313354492,19.469999313354492,266500
2018-02-16,19.450000762939453,19.450000762939453,19.030000686645508,19.18000030517578,19.18000030517578,163900
2018-02-20,18.979999542236328,19.639999389648438,18.979999542236328,19.299999237060547,19.299999237060547,312500
2018-02-21,19.40999984741211,19.520000457763672,19.040000915527344,19.450000762939453,19.450000762939453,248700
2018-02-22,19.399999618530273,19.40999984741211,18.85300064086914,19.1299991607666,19.1299991607666,218800
2018-02-23,19.219999313354492,19.479999542236328,19.149999618530273,19.25,19.25,197900
2018-02-26,19.149999618530273,19.43400001525879,19.059999465942383,19.110000610351562,19.110000610351562,221000
2018-02-27,19.399999618530273,19.450000762939453,19.0,19.200000762939453,19.200000762939453,220400
2018-02-28,19.010000228881836,19.128999710083008,18.1299991607666,18.1299991607666,18.1299991607666,486300
2018-03-01,18.020000457763672,18.290000915527344,17.760000228881836,17.950000762939453,17.950000762939453,361300
2018-03-02,17.81999969482422,18.700000762939453,17.799999237060547,18.700000762939453,18.700000762939453,196400
2018-03-05,18.350000381469727,19.559999465942383,18.059999465942383,19.440000534057617,19.440000534057617,320400
2018-03-06,19.559999465942383,19.698999404907227,19.1200008392334,19.489999771118164,19.489999771118164,347400
2018-03-07,19.219999313354492,19.5,19.190000534057617,19.309999465942383,19.309999465942383,180600
2018-03-08,19.200000762939453,19.40999984741211,19.010000228881836,19.079999923706055,19.079999923706055,195200
2018-03-09,19.170000076293945,19.510000228881836,19.139999389648438,19.25,19.25,184300
2018-03-12,19.229999542236328,19.479999542236328,19.229999542236328,19.34000015258789,19.34000015258789,143400
2018-03-13,19.520000457763672,20.549999237060547,19.37700080871582,19.940000534057617,19.940000534057617,757100
2018-03-14,20.200000762939453,20.889999389648438,20.030000686645508,20.43000030517578,20.43000030517578,359600
2018-03-15,20.5,20.5,17.5,17.5,17.5,822200
2018-03-16,18.010000228881836,18.520000457763672,17.65999984741211,17.780000686645508,17.780000686645508,563700
2018-03-19,17.75,17.799999237060547,17.170000076293945,17.209999084472656,17.209999084472656,393300
2018-03-20,17.290000915527344,17.65399932861328,16.809999465942383,17.5,17.5,302700
2018-03-21,17.5,18.049999237060547,17.5,17.510000228881836,17.510000228881836,215300
2018-03-22,17.299999237060547,17.43899917602539,16.709999084472656,16.860000610351562,16.860000610351562,485300
2018-03-23,16.700000762939453,17.329999923706055,16.700000762939453,17.049999237060547,17.049999237060547,204000
2018-03-26,17.350000381469727,17.729999542236328,16.799999237060547,17.100000381469727,17.100000381469727,305000
2018-03-27,17.0,17.527999877929688,17.0,17.299999237060547,17.299999237060547,179100
2018-03-28,17.229999542236328,17.459999084472656,16.15999984741211,16.360000610351562,16.360000610351562,377800
2018-03-29,16.399999618530273,16.979999542236328,16.1299991607666,16.65999984741211,16.65999984741211,130900
2018-04-02,16.510000228881836,17.43000030517578,16.309999465942383,17.399999618530273,17.399999618530273,230100
2018-04-03,17.399999618530273,17.450000762939453,17.049999237060547,17.389999389648438,17.389999389648438,97400
2018-04-04,16.950000762939453,17.6200008392334,16.8799991607666,17.549999237060547,17.549999237060547,119300
2018-04-05,17.700000762939453,17.860000610351562,17.40999984741211,17.549999237060547,17.549999237060547,111200
2018-04-06,17.3799991607666,17.719999313354492,17.334999084472656,17.579999923706055,17.579999923706055,121300
2018-04-09,17.6299991607666,17.690000534057617,17.309999465942383,17.309999465942383,17.309999465942383,75800
2018-04-10,17.5,17.64900016784668,17.190000534057617,17.25,17.25,66100
2018-04-11,17.139999389648438,17.290000915527344,16.799999237060547,17.0,17.0,181400
2018-04-12,17.0,17.260000228881836,16.90999984741211,17.0,17.0,60500
2018-04-13,17.079999923706055,17.079999923706055,16.75,16.959999084472656,16.959999084472656,91200
2018-04-16,16.84000015258789,17.079999923706055,16.809999465942383,17.010000228881836,17.010000228881836,59900
2018-04-17,17.0,17.149999618530273,16.8700008392334,17.049999237060547,17.049999237060547,38700
2018-04-18,17.09000015258789,17.399999618530273,16.930999755859375,17.15999984741211,17.15999984741211,54100
2018-04-19,17.3799991607666,17.469999313354492,17.049999237060547,17.399999618530273,17.399999618530273,73800
2018-04-20,17.399999618530273,17.5,17.059999465942383,17.5,17.5,69000
2018-04-23,17.459999084472656,17.459999084472656,17.010000228881836,17.100000381469727,17.100000381469727,63500
2018-04-24,17.09000015258789,17.350000381469727,16.90999984741211,17.1299991607666,17.1299991607666,100300
2018-04-25,16.979999542236328,17.270000457763672,16.920000076293945,17.149999618530273,17.149999618530273,60000
2018-04-26,17.0,17.170000076293945,16.950000762939453,17.049999237060547,17.049999237060547,57100
2018-04-27,17.049999237060547,17.200000762939453,17.0,17.049999237060547,17.049999237060547,58300
2018-04-30,17.030000686645508,17.18000030517578,16.5,16.510000228881836,16.510000228881836,93000
2018-05-01,16.510000228881836,16.959999084472656,16.510000228881836,16.950000762939453,16.950000762939453,47700
2018-05-02,16.8700008392334,17.049999237060547,16.649999618530273,16.65999984741211,16.65999984741211,61500
2018-05-03,16.559999465942383,16.825000762939453,16.030000686645508,16.229999542236328,16.229999542236328,193100
2018-05-04,16.100000381469727,16.450000762939453,16.100000381469727,16.329999923706055,16.329999923706055,42600
2018-05-07,16.40999984741211,16.690000534057617,16.40999984741211,16.40999984741211,16.40999984741211,54900
2018-05-08,16.389999389648438,17.0,16.389999389648438,16.959999084472656,16.959999084472656,78600
2018-05-09,16.979999542236328,17.239999771118164,16.90999984741211,16.90999984741211,16.90999984741211,77000
2018-05-10,17.059999465942383,17.170000076293945,16.940000534057617,17.149999618530273,17.149999618530273,76000
2018-05-11,17.1299991607666,17.149999618530273,16.709999084472656,17.06999969482422,17.06999969482422,85100
2018-05-14,17.030000686645508,17.479999542236328,16.94499969482422,17.200000762939453,17.200000762939453,139900
2018-05-15,17.100000381469727,17.450000762939453,16.844999313354492,17.25,17.25,159700
2018-05-16,16.6200008392334,17.079999923706055,15.630000114440918,17.030000686645508,17.030000686645508,524700
2018-05-17,16.729999542236328,17.079999923706055,16.530000686645508,16.530000686645508,16.530000686645508,142400
2018-05-18,16.700000762939453,17.06999969482422,16.610000610351562,17.040000915527344,17.040000915527344,117100
2018-05-21,17.219999313354492,17.219999313354492,16.90999984741211,17.06999969482422,17.06999969482422,94400
2018-05-22,16.969999313354492,17.100000381469727,16.93000030517578,17.020000457763672,17.020000457763672,64400
2018-05-23,16.860000610351562,17.100000381469727,16.719999313354492,17.049999237060547,17.049999237060547,70600
2018-05-24,17.049999237060547,17.079999923706055,16.899999618530273,17.030000686645508,17.030000686645508,69500
2018-05-25,16.90999984741211,17.049999237060547,16.899999618530273,17.049999237060547,17.049999237060547,30100
2018-05-29,16.90999984741211,17.09000015258789,16.85099983215332,16.950000762939453,16.950000762939453,117900
2018-05-30,17.010000228881836,17.15999984741211,16.860000610351562,17.059999465942383,17.059999465942383,132800
2018-05-31,17.15999984741211,17.15999984741211,16.899999618530273,17.049999237060547,17.049999237060547,153300
2018-06-01,17.079999923706055,17.100000381469727,16.899999618530273,17.049999237060547,17.049999237060547,107100
2018-06-04,17.100000381469727,17.100000381469727,16.8799991607666,17.030000686645508,17.030000686645508,121600
2018-06-05,16.940000534057617,17.899999618530273,16.940000534057617,17.899999618530273,17.899999618530273,204200
2018-06-06,17.899999618530273,19.149999618530273,17.760000228881836,19.059999465942383,19.059999465942383,505500
2018-06-07,18.93000030517578,19.0,18.43000030517578,18.850000381469727,18.850000381469727,225000
2018-06-08,18.6299991607666,19.649999618530273,18.6299991607666,19.399999618530273,19.399999618530273,210100
2018-06-11,19.399999618530273,19.899999618530273,19.399999618530273,19.739999771118164,19.739999771118164,305100
2018-06-12,19.739999771118164,20.790000915527344,19.649999618530273,20.40999984741211,20.40999984741211,405900
2018-06-13,20.309999465942383,20.700000762939453,19.17099952697754,20.149999618530273,20.149999618530273,676700
2018-06-14,20.020000457763672,20.604999542236328,19.979999542236328,20.31999969482422,20.31999969482422,276800
2018-06-15,20.309999465942383,20.59000015258789,19.489999771118164,20.31999969482422,20.31999969482422,279000
2018-06-18,20.40999984741211,22.299999237060547,20.219999313354492,22.239999771118164,22.239999771118164,399100
2018-06-19,21.299999237060547,22.270000457763672,20.8799991607666,21.899999618530273,21.899999618530273,341700
2018-06-20,22.040000915527344,23.360000610351562,21.940000534057617,23.010000228881836,23.010000228881836,377600
2018-06-21,23.219999313354492,23.790000915527344,22.59000015258789,22.700000762939453,22.700000762939453,403000
2018-06-22,22.56999969482422,23.079999923706055,21.31999969482422,21.940000534057617,21.940000534057617,197700
2018-06-25,21.700000762939453,21.700000762939453,19.8700008392334,20.780000686645508,20.780000686645508,407700
2018-06-26,20.700000762939453,22.09000015258789,20.700000762939453,21.219999313354492,21.219999313354492,143600
2018-06-27,20.989999771118164,21.229999542236328,19.350000381469727,19.399999618530273,19.399999618530273,376000
2018-06-28,19.559999465942383,20.1200008392334,19.42099952697754,19.899999618530273,19.899999618530273,75600
2018-06-29,20.010000228881836,20.200000762939453,19.579999923706055,19.649999618530273,19.649999618530273,123600
2018-07-02,19.350000381469727,19.959999084472656,19.290000915527344,19.8799991607666,19.8799991607666,41800
2018-07-03,20.0,20.469999313354492,19.799999237060547,20.309999465942383,20.309999465942383,40600
2018-07-05,20.420000076293945,20.420000076293945,19.420000076293945,19.579999923706055,19.579999923706055,98500
2018-07-06,19.40999984741211,19.549999237060547,19.030000686645508,19.09000015258789,19.09000015258789,190600
2018-07-09,19.31999969482422,19.969999313354492,19.110000610351562,19.190000534057617,19.190000534057617,96000
2018-07-10,19.219999313354492,20.514999389648438,19.219999313354492,19.81999969482422,19.81999969482422,170400
2018-07-11,19.579999923706055,20.440000534057617,19.450000762939453,19.760000228881836,19.760000228881836,147600
2018-07-12,20.209999084472656,21.6200008392334,20.059999465942383,21.25,21.25,336800
2018-07-13,21.280000686645508,22.31999969482422,20.989999771118164,21.18000030517578,21.18000030517578,208200
2018-07-16,20.959999084472656,22.280000686645508,20.770000457763672,21.799999237060547,21.799999237060547,206400
2018-07-17,21.8700008392334,22.479999542236328,21.489999771118164,22.479999542236328,22.479999542236328,142400
2018-07-18,22.399999618530273,22.940000534057617,21.309999465942383,21.329999923706055,21.329999923706055,225200
2018-07-19,21.3700008392334,22.363000869750977,21.34000015258789,21.530000686645508,21.530000686645508,91400
2018-07-20,21.68000030517578,21.940000534057617,21.174999237060547,21.389999389648438,21.389999389648438,63200
2018-07-23,21.799999237060547,22.309999465942383,21.5,22.170000076293945,22.170000076293945,115400
2018-07-24,22.579999923706055,22.604999542236328,21.280000686645508,21.65999984741211,21.65999984741211,105700
2018-07-25,21.3700008392334,22.020000457763672,20.860000610351562,21.899999618530273,21.899999618530273,106200
2018-07-26,21.5,21.809999465942383,21.440000534057617,21.510000228881836,21.510000228881836,58700
2018-07-27,21.899999618530273,21.899999618530273,20.260000228881836,20.940000534057617,20.940000534057617,167900
2018-07-30,20.940000534057617,20.950000762939453,20.094999313354492,20.600000381469727,20.600000381469727,98000
2018-07-31,20.459999084472656,20.860000610351562,20.299999237060547,20.670000076293945,20.670000076293945,35400
2018-08-01,20.459999084472656,21.108999252319336,20.459999084472656,20.969999313354492,20.969999313354492,55800
2018-08-02,21.0,21.0,20.5,20.950000762939453,20.950000762939453,61400
2018-08-03,21.0,21.0,20.65999984741211,20.790000915527344,20.790000915527344,40600
2018-08-06,20.760000228881836,21.239999771118164,20.540000915527344,21.100000381469727,21.100000381469727,74100
2018-08-07,21.360000610351562,21.799999237060547,21.200000762939453,21.549999237060547,21.549999237060547,55300
2018-08-08,21.549999237060547,21.979999542236328,21.489999771118164,21.5,21.5,51600
2018-08-09,21.5,21.832000732421875,21.440000534057617,21.799999237060547,21.799999237060547,30900
2018-08-10,21.450000762939453,21.81999969482422,21.450000762939453,21.549999237060547,21.549999237060547,31400
2018-08-13,19.256999969482422,21.270000457763672,19.100000381469727,20.940000534057617,20.940000534057617,185900
2018-08-14,20.850000381469727,21.440000534057617,20.783000946044922,21.360000610351562,21.360000610351562,171400
2018-08-15,21.100000381469727,21.100000381469727,19.020000457763672,19.559999465942383,19.559999465942383,261700
2018-08-16,19.809999465942383,20.579999923706055,19.799999237060547,20.56999969482422,20.56999969482422,84100
2018-08-17,20.6200008392334,20.6200008392334,19.75,19.979999542236328,19.979999542236328,45300
2018-08-20,19.829999923706055,20.5,19.43000030517578,19.770000457763672,19.770000457763672,74300
2018-08-21,20.020000457763672,20.030000686645508,19.209999084472656,19.3799991607666,19.3799991607666,76700
2018-08-22,19.290000915527344,19.5,19.200000762939453,19.399999618530273,19.399999618530273,35900
2018-08-23,19.329999923706055,19.670000076293945,19.15999984741211,19.219999313354492,19.219999313354492,29700
2018-08-24,19.280000686645508,19.799999237060547,19.06999969482422,19.469999313354492,19.469999313354492,65700
2018-08-27,19.59000015258789,20.649999618530273,19.59000015258789,20.520000457763672,20.520000457763672,97700
2018-08-28,20.510000228881836,21.149999618530273,20.1200008392334,20.56999969482422,20.56999969482422,71300
2018-08-29,20.600000381469727,20.600000381469727,20.0310001373291,20.3799991607666,20.3799991607666,36800
2018-08-30,20.299999237060547,20.299999237060547,19.350000381469727,19.3700008392334,19.3700008392334,75000
2018-08-31,19.6299991607666,19.75,19.010000228881836,19.65999984741211,19.65999984741211,63800
2018-09-04,19.459999084472656,20.190000534057617,19.459999084472656,19.899999618530273,19.899999618530273,58900
2018-09-05,20.020000457763672,20.020000457763672,19.59000015258789,19.799999237060547,19.799999237060547,55400
2018-09-06,19.709999084472656,20.084999084472656,19.5,19.5,19.5,117700
2018-09-07,19.5,20.0,19.5,19.899999618530273,19.899999618530273,43100
2018-09-10,19.75,19.899999618530273,19.43000030517578,19.899999618530273,19.899999618530273,63400
2018-09-11,19.520000457763672,20.049999237060547,19.29199981689453,20.049999237060547,20.049999237060547,73500
2018-09-12,19.8700008392334,20.06999969482422,19.361000061035156,20.0,20.0,58500
2018-09-13,20.079999923706055,20.709999084472656,19.8799991607666,20.520000457763672,20.520000457763672,114000
2018-09-14,20.469999313354492,21.520000457763672,20.433000564575195,21.06999969482422,21.06999969482422,156700
2018-09-17,20.920000076293945,21.09000015258789,20.270000457763672,20.979999542236328,20.979999542236328,74300
2018-09-18,21.079999923706055,21.15999984741211,20.479999542236328,20.950000762939453,20.950000762939453,89200
2018-09-19,20.959999084472656,21.049999237060547,20.059999465942383,20.440000534057617,20.440000534057617,61400
2018-09-20,20.3700008392334,21.049999237060547,20.3700008392334,20.799999237060547,20.799999237060547,70400
2018-09-21,20.989999771118164,21.200000762939453,20.440000534057617,21.200000762939453,21.200000762939453,95500
2018-09-24,20.90999984741211,20.966999053955078,20.149999618530273,20.170000076293945,20.170000076293945,37900
2018-09-25,20.020000457763672,20.31399917602539,19.799999237060547,19.889999389648438,19.889999389648438,52000
2018-09-26,19.979999542236328,20.65999984741211,19.93000030517578,20.549999237060547,20.549999237060547,57200
2018-09-27,20.422000885009766,20.452999114990234,20.003999710083008,20.299999237060547,20.299999237060547,26200
2018-09-28,20.190000534057617,21.1299991607666,20.05900001525879,21.059999465942383,21.059999465942383,108500
2018-10-01,21.100000381469727,21.100000381469727,20.290000915527344,20.299999237060547,20.299999237060547,26400
2018-10-02,21.0,21.260000228881836,20.139999389648438,20.139999389648438,20.139999389648438,75800
2018-10-03,20.280000686645508,20.8799991607666,20.280000686645508,20.399999618530273,20.399999618530273,43700
2018-10-04,20.270000457763672,20.739999771118164,19.59000015258789,20.59000015258789,20.59000015258789,138600
2018-10-05,20.350000381469727,20.700000762939453,19.75,20.559999465942383,20.559999465942383,66200
2018-10-08,20.0,20.600000381469727,19.709999084472656,20.350000381469727,20.350000381469727,82200
2018-10-09,20.100000381469727,20.700000762939453,20.100000381469727,20.399999618530273,20.399999618530273,49200
2018-10-10,20.25,20.270000457763672,18.860000610351562,19.18000030517578,19.18000030517578,255200
2018-10-11,18.989999771118164,19.200000762939453,17.610000610351562,18.219999313354492,18.219999313354492,135200
2018-10-12,18.5,18.854999542236328,18.239999771118164,18.799999237060547,18.799999237060547,54800
2018-10-15,18.469999313354492,19.299999237060547,18.469999313354492,19.030000686645508,19.030000686645508,31000
2018-10-16,19.18000030517578,19.739999771118164,19.18000030517578,19.690000534057617,19.690000534057617,31100
2018-10-17,19.6299991607666,20.8700008392334,19.40999984741211,19.56999969482422,19.56999969482422,57100
2018-10-18,19.48699951171875,19.48699951171875,18.510000228881836,18.600000381469727,18.600000381469727,47000
2018-10-19,18.649999618530273,18.65999984741211,18.0,18.0,18.0,53900
2018-10-22,18.299999237060547,18.639999389648438,18.18000030517578,18.18000030517578,18.18000030517578,32100
2018-10-23,17.84000015258789,17.899999618530273,16.190000534057617,17.0,17.0,167500
2018-10-24,16.84000015258789,17.350000381469727,16.65999984741211,17.110000610351562,17.110000610351562,65200
2018-10-25,17.1200008392334,17.459999084472656,16.600000381469727,17.440000534057617,17.440000534057617,123100
2018-10-26,16.8700008392334,17.940000534057617,16.5,17.75,17.75,80900
2018-10-29,17.729999542236328,17.969999313354492,17.010000228881836,17.299999237060547,17.299999237060547,62100
2018-10-30,17.329999923706055,17.579999923706055,17.0,17.540000915527344,17.540000915527344,47400
2018-10-31,17.780000686645508,18.399999618530273,17.110000610351562,18.229999542236328,18.229999542236328,88700
2018-11-01,18.260000228881836,19.389999389648438,18.059999465942383,18.8799991607666,18.8799991607666,197200
2018-11-02,18.969999313354492,18.969999313354492,17.920000076293945,17.920000076293945,17.920000076293945,66200
2018-11-05,17.799999237060547,18.3799991607666,17.68000030517578,17.75,17.75,23500
2018-11-06,17.600000381469727,18.010000228881836,17.600000381469727,17.90999984741211,17.90999984741211,24800
2018-11-07,18.06999969482422,18.06999969482422,16.915000915527344,17.75,17.75,212800
2018-11-08,17.3700008392334,17.690000534057617,17.100000381469727,17.190000534057617,17.190000534057617,33000
2018-11-09,17.280000686645508,17.332000732421875,16.360000610351562,16.84000015258789,16.84000015258789,149600
2018-11-12,16.81999969482422,17.3700008392334,16.549999237060547,17.190000534057617,17.190000534057617,62200
2018-11-13,17.309999465942383,17.309999465942383,16.68000030517578,16.75,16.75,34300
2018-11-14,16.84000015258789,17.09000015258789,16.579999923706055,16.649999618530273,16.649999618530273,63200
2018-11-15,11.260000228881836,11.489999771118164,6.699999809265137,7.829999923706055,7.829999923706055,5892000
2018-11-16,7.96999979019165,8.390000343322754,7.71999979019165,7.949999809265137,7.949999809265137,1675700
2018-11-19,8.079999923706055,8.130000114440918,7.46999979019165,7.860000133514404,7.860000133514404,477200
2018-11-20,7.53000020980835,8.0,7.369999885559082,7.769999980926514,7.769999980926514,429200
2018-11-21,7.940000057220459,8.0649995803833,7.670000076293945,7.949999809265137,7.949999809265137,506200
2018-11-23,8.0,8.050000190734863,7.739999771118164,7.949999809265137,7.949999809265137,169800
2018-11-26,7.949999809265137,8.550000190734863,7.889999866485596,8.3100004196167,8.3100004196167,412900
2018-11-27,8.170000076293945,8.402000427246094,8.170000076293945,8.270000457763672,8.270000457763672,186100
2018-11-28,8.40999984741211,8.479999542236328,8.180000305175781,8.4399995803833,8.4399995803833,217700
2018-11-29,7.329999923706055,7.889999866485596,7.130000114440918,7.639999866485596,7.639999866485596,743500
2018-11-30,7.639999866485596,7.900000095367432,7.460000038146973,7.599999904632568,7.599999904632568,521300
2018-12-03,7.900000095367432,7.900000095367432,7.409999847412109,7.730000019073486,7.730000019073486,455600
2018-12-04,7.699999809265137,7.699999809265137,7.349999904632568,7.360000133514404,7.360000133514404,219400
2018-12-06,6.980000019073486,7.329999923706055,6.980000019073486,7.139999866485596,7.139999866485596,219400
2018-12-07,7.010000228881836,7.210000038146973,6.570000171661377,6.739999771118164,6.739999771118164,227200
2018-12-10,6.650000095367432,6.75,6.050000190734863,6.150000095367432,6.150000095367432,297900
2018-12-11,6.239999771118164,6.440000057220459,5.869999885559082,6.25,6.25,246400
2018-12-12,6.380000114440918,6.449999809265137,6.119999885559082,6.130000114440918,6.130000114440918,119700
2018-12-13,6.199999809265137,6.369999885559082,6.110000133514404,6.230000019073486,6.230000019073486,117100
2018-12-14,6.050000190734863,6.3470001220703125,6.050000190734863,6.090000152587891,6.090000152587891,111700
2018-12-17,6.039999961853027,6.190000057220459,5.997000217437744,6.019999980926514,6.019999980926514,92000
2018-12-18,6.349999904632568,6.349999904632568,6.059999942779541,6.119999885559082,6.119999885559082,124600
2018-12-19,6.119999885559082,6.340000152587891,6.074999809265137,6.300000190734863,6.300000190734863,389000
2018-12-20,6.170000076293945,6.289999961853027,5.670000076293945,5.75,5.75,157800
2018-12-21,5.769999980926514,5.980000019073486,5.599999904632568,5.909999847412109,5.909999847412109,106500
2018-12-24,5.809999942779541,5.900000095367432,5.789999961853027,5.860000133514404,5.860000133514404,41800
2018-12-26,5.869999885559082,6.0,5.645999908447266,5.949999809265137,5.949999809265137,136700
2018-12-27,5.880000114440918,5.980000019073486,5.849999904632568,5.949999809265137,5.949999809265137,36900
2018-12-28,5.89900016784668,6.119999885559082,5.78000020980835,6.039999961853027,6.039999961853027,163100
2018-12-31,6.0,6.0,5.599999904632568,5.840000152587891,5.840000152587891,135800
2019-01-02,5.769999980926514,6.550000190734863,5.690000057220459,6.119999885559082,6.119999885559082,147000
2019-01-03,6.099999904632568,6.269999980926514,5.909999847412109,6.090000152587891,6.090000152587891,118900
2019-01-04,6.110000133514404,6.599999904632568,6.090000152587891,6.389999866485596,6.389999866485596,178900
2019-01-07,6.429999828338623,6.949999809265137,6.429999828338623,6.900000095367432,6.900000095367432,123300
2019-01-08,6.929999828338623,6.929999828338623,6.519999980926514,6.590000152587891,6.590000152587891,107700
2019-01-09,6.650000095367432,6.989999771118164,6.53000020980835,6.829999923706055,6.829999923706055,109000
2019-01-10,6.800000190734863,6.900000095367432,6.659999847412109,6.690000057220459,6.690000057220459,48200
2019-01-11,6.690000057220459,6.783999919891357,6.5,6.590000152587891,6.590000152587891,78700
2019-01-14,6.53000020980835,6.659999847412109,6.519999980926514,6.550000190734863,6.550000190734863,27600
2019-01-15,6.550000190734863,6.789999961853027,6.5320000648498535,6.639999866485596,6.639999866485596,35800
2019-01-16,6.613999843597412,6.800000190734863,6.579999923706055,6.639999866485596,6.639999866485596,48300
2019-01-17,6.639999866485596,6.75,6.570000171661377,6.650000095367432,6.650000095367432,35700
2019-01-18,6.699999809265137,6.900000095367432,6.599999904632568,6.730000019073486,6.730000019073486,59900
2019-01-22,6.510000228881836,6.630000114440918,6.440000057220459,6.510000228881836,6.510000228881836,73900
2019-01-23,6.46999979019165,6.639999866485596,6.400000095367432,6.510000228881836,6.510000228881836,65300
2019-01-24,6.380000114440918,6.739999771118164,6.360000133514404,6.590000152587891,6.590000152587891,66000
2019-01-25,6.619999885559082,6.75,6.5,6.650000095367432,6.650000095367432,103600
2019-01-28,6.630000114440918,6.690000057220459,6.400000095367432,6.570000171661377,6.570000171661377,81700
2019-01-29,6.46999979019165,6.880000114440918,6.46999979019165,6.849999904632568,6.849999904632568,155600
2019-01-30,6.800000190734863,7.340000152587891,6.730000019073486,7.099999904632568,7.099999904632568,171200
2019-01-31,7.090000152587891,7.420000076293945,7.03000020980835,7.269999980926514,7.269999980926514,96800
2019-02-01,7.28000020980835,7.420000076293945,7.039999961853027,7.260000228881836,7.260000228881836,57600
2019-02-04,7.179999828338623,7.980000019073486,7.179999828338623,7.920000076293945,7.920000076293945,187700
2019-02-05,7.900000095367432,8.105999946594238,7.760000228881836,7.929999828338623,7.929999828338623,101400
2019-02-06,7.940000057220459,8.319999694824219,7.664999961853027,7.730000019073486,7.730000019073486,113100
2019-02-07,7.71999979019165,8.100000381469727,7.659999847412109,8.0,8.0,111800
2019-02-08,7.86299991607666,8.199999809265137,7.86299991607666,8.109999656677246,8.109999656677246,92500
2019-02-11,8.279999732971191,8.449999809265137,7.954999923706055,8.109999656677246,8.109999656677246,237400
2019-02-12,8.069999694824219,8.140000343322754,7.5,8.100000381469727,8.100000381469727,232300
2019-02-13,8.109999656677246,8.199999809265137,7.840000152587891,7.989999771118164,7.989999771118164,171700
2019-02-14,7.989999771118164,8.100000381469727,7.800000190734863,8.029999732971191,8.029999732971191,148600
2019-02-15,8.050000190734863,8.199999809265137,7.909999847412109,8.100000381469727,8.100000381469727,76800
2019-02-19,8.180000305175781,8.180000305175781,7.929999828338623,8.050000190734863,8.050000190734863,49200
2019-02-20,8.100000381469727,8.460000038146973,8.010000228881836,8.420000076293945,8.420000076293945,227600
2019-02-21,8.460000038146973,8.460000038146973,8.119999885559082,8.15999984741211,8.15999984741211,67600
2019-02-22,8.210000038146973,9.4399995803833,8.170000076293945,8.970000267028809,8.970000267028809,706900
2019-02-25,9.430000305175781,9.460000038146973,8.619999885559082,8.75,8.75,290100
2019-02-26,8.729999542236328,8.789999961853027,8.399999618530273,8.460000038146973,8.460000038146973,195100
2019-02-27,8.460000038146973,8.520000457763672,8.199999809265137,8.199999809265137,8.199999809265137,214500
2019-02-28,8.199999809265137,8.270000457763672,7.880000114440918,8.069999694824219,8.069999694824219,212000
2019-03-01,8.119999885559082,8.319999694824219,8.050000190734863,8.149999618530273,8.149999618530273,81300
2019-03-04,8.319999694824219,8.390000343322754,7.929999828338623,7.989999771118164,7.989999771118164,195900
2019-03-05,8.0600004196167,8.579999923706055,8.020000457763672,8.199999809265137,8.199999809265137,371600
2019-03-06,8.300000190734863,8.800000190734863,8.229999542236328,8.359999656677246,8.359999656677246,376500
2019-03-07,8.3100004196167,8.399999618530273,8.0,8.1899995803833,8.1899995803833,155200
2019-03-08,8.0,8.170000076293945,7.920000076293945,8.100000381469727,8.100000381469727,110000
2019-03-11,8.119999885559082,8.4399995803833,8.0600004196167,8.279999732971191,8.279999732971191,186500
2019-03-12,8.359999656677246,8.600000381469727,8.295000076293945,8.470000267028809,8.470000267028809,96100
2019-03-13,8.399999618530273,8.5,8.109999656677246,8.149999618530273,8.149999618530273,84800
2019-03-14,8.109999656677246,8.199999809265137,8.010000228881836,8.109999656677246,8.109999656677246,65900
2019-03-15,8.149999618530273,8.289999961853027,8.09000015258789,8.109999656677246,8.109999656677246,102300
2019-03-18,8.210000038146973,8.369999885559082,8.0600004196167,8.119999885559082,8.119999885559082,73500
2019-03-19,8.220000267028809,8.359999656677246,8.109999656677246,8.15999984741211,8.15999984741211,152400
2019-03-20,8.170000076293945,8.170000076293945,7.900000095367432,7.920000076293945,7.920000076293945,103300
2019-03-21,7.889999866485596,8.180000305175781,7.25,7.940000057220459,7.940000057220459,379600
2019-03-22,7.599999904632568,7.670000076293945,7.099999904632568,7.110000133514404,7.110000133514404,211700
2019-03-25,7.110000133514404,7.23799991607666,6.809999942779541,6.820000171661377,6.820000171661377,176500
2019-03-26,6.789999961853027,6.929999828338623,6.630000114440918,6.679999828338623,6.679999828338623,134200
2019-03-27,6.679999828338623,7.050000190734863,6.679999828338623,6.840000152587891,6.840000152587891,129200
2019-03-28,6.53000020980835,6.889999866485596,6.409999847412109,6.670000076293945,6.670000076293945,181800
2019-03-29,6.679999828338623,6.949999809265137,6.570000171661377,6.599999904632568,6.599999904632568,199300
2019-04-01,6.590000152587891,6.760000228881836,6.409999847412109,6.539999961853027,6.539999961853027,270100
2019-04-02,6.519999980926514,6.840000152587891,6.519999980926514,6.650000095367432,6.650000095367432,152000
2019-04-03,6.659999847412109,6.789999961853027,6.599999904632568,6.619999885559082,6.619999885559082,134900
2019-04-04,6.619999885559082,6.690000057220459,6.550000190734863,6.599999904632568,6.599999904632568,119800
2019-04-05,6.690000057220459,7.235000133514404,6.659999847412109,7.079999923706055,7.079999923706055,187300
2019-04-08,6.960000038146973,7.46999979019165,6.960000038146973,7.269999980926514,7.269999980926514,152500
2019-04-09,7.320000171661377,7.619999885559082,7.25,7.329999923706055,7.329999923706055,91800
2019-04-10,7.420000076293945,7.539999961853027,7.294000148773193,7.389999866485596,7.389999866485596,86200
2019-04-11,7.369999885559082,7.630000114440918,7.369999885559082,7.420000076293945,7.420000076293945,103000
2019-04-12,7.420000076293945,7.769999980926514,7.420000076293945,7.659999847412109,7.659999847412109,88000
2019-04-15,7.650000095367432,7.809999942779541,7.440000057220459,7.449999809265137,7.449999809265137,97600
2019-04-16,7.449999809265137,7.869999885559082,7.414999961853027,7.710000038146973,7.710000038146973,155500
2019-04-17,7.739999771118164,7.909999847412109,7.389999866485596,7.769999980926514,7.769999980926514,264900
2019-04-18,7.920000076293945,8.0600004196167,7.71999979019165,7.900000095367432,7.900000095367432,110300
2019-04-22,7.900000095367432,8.029999732971191,7.764999866485596,8.029999732971191,8.029999732971191,83400
2019-04-23,8.020000457763672,8.270000457763672,7.820000171661377,8.0,8.0,131900
2019-04-24,8.020000457763672,8.149999618530273,7.989999771118164,8.010000228881836,8.010000228881836,142200
2019-04-25,7.920000076293945,8.130000114440918,7.920000076293945,8.050000190734863,8.050000190734863,102500
2019-04-26,8.0,8.15999984741211,7.989999771118164,8.15999984741211,8.15999984741211,36300
2019-04-29,8.15999984741211,8.229999542236328,8.0,8.039999961853027,8.039999961853027,59000
2019-04-30,8.050000190734863,8.050000190734863,7.820000171661377,7.820000171661377,7.820000171661377,64200
2019-05-01,7.800000190734863,8.095000267028809,7.800000190734863,7.909999847412109,7.909999847412109,49400
2019-05-02,7.849999904632568,8.119999885559082,7.849999904632568,8.039999961853027,8.039999961853027,50200
2019-05-03,8.149999618530273,8.149999618530273,8.0,8.0,8.0,17000
2019-05-06,7.800000190734863,8.149999618530273,7.748000144958496,7.960000038146973,7.960000038146973,70500
2019-05-07,7.960000038146973,8.09000015258789,7.639999866485596,7.710000038146973,7.710000038146973,85100
2019-05-08,7.579999923706055,7.769999980926514,7.570000171661377,7.570000171661377,7.570000171661377,57200
2019-05-09,7.550000190734863,7.697999954223633,7.320000171661377,7.389999866485596,7.389999866485596,124000
2019-05-10,7.349999904632568,7.650000095367432,7.349999904632568,7.449999809265137,7.449999809265137,50800
2019-05-13,7.300000190734863,7.369999885559082,7.150000095367432,7.150000095367432,7.150000095367432,52400
2019-05-14,7.249000072479248,7.704999923706055,7.2210001945495605,7.550000190734863,7.550000190734863,52800
2019-05-15,7.447000026702881,7.769999980926514,7.400000095367432,7.579999923706055,7.579999923706055,43300
2019-05-16,7.699999809265137,7.989999771118164,7.489999771118164,7.570000171661377,7.570000171661377,56900
2019-05-17,7.400000095367432,7.840000152587891,7.400000095367432,7.480000019073486,7.480000019073486,50300
2019-05-20,7.400000095367432,7.679999828338623,7.309999942779541,7.519999980926514,7.519999980926514,42200
2019-05-21,7.679999828338623,7.679999828338623,7.400000095367432,7.429999828338623,7.429999828338623,45400
2019-05-22,7.460000038146973,7.590000152587891,7.349999904632568,7.400000095367432,7.400000095367432,47200
2019-05-23,7.440000057220459,7.440000057220459,7.199999809265137,7.199999809265137,7.199999809265137,38700
2019-05-24,7.0,7.179999828338623,6.820000171661377,7.099999904632568,7.099999904632568,65400
2019-05-28,7.110000133514404,7.110000133514404,6.659999847412109,6.769999980926514,6.769999980926514,50300
2019-05-29,6.619999885559082,6.849999904632568,6.599999904632568,6.659999847412109,6.659999847412109,47800
2019-05-30,6.519999980926514,6.739999771118164,6.5,6.539999961853027,6.539999961853027,80200
2019-05-31,6.559999942779541,6.789999961853027,6.510000228881836,6.619999885559082,6.619999885559082,30200
2019-06-03,6.619999885559082,6.75,6.539999961853027,6.75,6.75,36500
2019-06-04,6.650000095367432,6.75,6.579999923706055,6.639999866485596,6.639999866485596,32700
2019-06-05,6.630000114440918,6.630000114440918,6.400000095367432,6.489999771118164,6.489999771118164,29700
2019-06-06,6.619999885559082,6.730000019073486,6.445000171661377,6.510000228881836,6.510000228881836,27600
2019-06-07,6.539999961853027,6.769999980926514,6.409999847412109,6.630000114440918,6.630000114440918,36900
2019-06-10,6.639999866485596,6.78000020980835,6.519999980926514,6.639999866485596,6.639999866485596,42600
2019-06-11,6.739999771118164,6.739999771118164,6.519999980926514,6.519999980926514,6.519999980926514,40100
2019-06-12,6.519999980926514,6.71999979019165,6.449999809265137,6.519999980926514,6.519999980926514,26600
2019-06-13,6.510000228881836,6.639999866485596,6.449999809265137,6.5,6.5,16500
2019-06-14,6.639999866485596,6.639999866485596,6.320000171661377,6.409999847412109,6.409999847412109,25900
2019-06-17,6.369999885559082,6.369999885559082,6.260000228881836,6.360000133514404,6.360000133514404,12700
2019-06-18,6.400000095367432,6.550000190734863,6.389999866485596,6.46999979019165,6.46999979019165,16200
2019-06-19,6.46999979019165,6.599999904632568,6.389999866485596,6.5,6.5,11300
2019-06-20,6.599999904632568,6.710000038146973,6.579999923706055,6.610000133514404,6.610000133514404,9500
2019-06-21,6.659999847412109,6.71999979019165,6.619999885559082,6.71999979019165,6.71999979019165,7800
2019-06-24,6.800000190734863,6.929999828338623,6.710000038146973,6.800000190734863,6.800000190734863,109400
2019-06-25,6.75,6.820000171661377,6.659999847412109,6.75,6.75,44300
2019-06-26,6.75,6.860000133514404,6.671000003814697,6.75,6.75,79500
2019-06-27,6.840000152587891,6.889999866485596,6.730000019073486,6.730000019073486,6.730000019073486,7300
2019-06-28,6.789999961853027,6.869999885559082,6.699999809265137,6.699999809265137,6.699999809265137,7000
2019-07-01,6.800000190734863,6.894999980926514,6.78000020980835,6.860000133514404,6.860000133514404,14200
2019-07-02,6.730000019073486,6.880000114440918,6.650000095367432,6.880000114440918,6.880000114440918,22400
2019-07-03,6.880000114440918,6.880000114440918,6.590000152587891,6.739999771118164,6.739999771118164,8700
2019-07-05,6.632999897003174,6.699999809265137,6.599999904632568,6.699999809265137,6.699999809265137,15700
2019-07-08,6.659999847412109,6.690000057220459,6.570000171661377,6.690000057220459,6.690000057220459,2500
2019-07-09,6.579999923706055,6.659999847412109,6.5,6.630000114440918,6.630000114440918,3600
2019-07-10,6.730000019073486,6.730000019073486,6.449999809265137,6.579999923706055,6.579999923706055,9700
2019-07-11,6.415999889373779,6.480000019073486,6.300000190734863,6.420000076293945,6.420000076293945,28800
2019-07-12,6.389999866485596,6.460000038146973,6.320000171661377,6.320000171661377,6.320000171661377,7500
2019-07-15,6.440000057220459,6.630000114440918,6.320000171661377,6.550000190734863,6.550000190734863,57100
2019-07-16,6.46999979019165,6.579999923706055,6.400000095367432,6.559999942779541,6.559999942779541,10200
2019-07-17,6.409999847412109,6.539999961853027,6.364999771118164,6.449999809265137,6.449999809265137,2800
2019-07-18,6.315000057220459,6.449999809265137,6.309999942779541,6.449999809265137,6.449999809265137,6300
2019-07-19,6.580999851226807,6.580999851226807,6.25,6.400000095367432,6.400000095367432,33400
2019-07-22,6.349999904632568,6.400000095367432,6.260000228881836,6.28000020980835,6.28000020980835,8800
2019-07-23,6.349999904632568,6.460000038146973,6.260000228881836,6.349999904632568,6.349999904632568,9000
2019-07-24,6.260000228881836,6.389999866485596,6.199999809265137,6.349999904632568,6.349999904632568,10900
2019-07-25,6.179999828338623,6.340000152587891,6.150000095367432,6.28000020980835,6.28000020980835,32300
2019-07-26,6.010000228881836,6.119999885559082,5.78000020980835,6.0,6.0,61700
2019-07-29,6.019999980926514,6.086999893188477,5.960000038146973,6.059999942779541,6.059999942779541,14800
2019-07-30,6.039999961853027,6.050000190734863,5.980000019073486,6.0,6.0,8300
2019-07-31,5.914999961853027,6.039999961853027,5.909999847412109,6.039999961853027,6.039999961853027,7000
2019-08-01,5.920000076293945,6.046999931335449,5.920000076293945,5.989999771118164,5.989999771118164,17900
2019-08-02,5.989999771118164,6.03000020980835,5.920000076293945,6.019999980926514,6.019999980926514,8900
2019-08-05,5.909999847412109,6.019999980926514,5.880000114440918,5.929999828338623,5.929999828338623,9500
2019-08-06,5.807000160217285,5.980000019073486,5.769999980926514,5.860000133514404,5.860000133514404,18400
2019-08-07,5.78000020980835,6.0,5.78000020980835,5.989999771118164,5.989999771118164,7500
2019-08-08,5.809999942779541,6.349999904632568,5.809999942779541,6.340000152587891,6.340000152587891,14400
2019-08-09,6.269999980926514,6.340000152587891,6.090000152587891,6.300000190734863,6.300000190734863,22200
2019-08-12,6.210000038146973,6.25,5.945000171661377,6.25,6.25,7600
2019-08-13,6.150000095367432,6.329999923706055,6.050000190734863,6.199999809265137,6.199999809265137,19100
2019-08-14,6.019999980926514,6.119999885559082,5.949999809265137,6.119999885559082,6.119999885559082,5600
2019-08-15,6.099999904632568,6.239999771118164,5.829999923706055,6.199999809265137,6.199999809265137,32700
2019-08-16,5.849999904632568,6.300000190734863,5.849999904632568,6.300000190734863,6.300000190734863,17600
2019-08-19,6.210000038146973,6.369999885559082,6.178999900817871,6.28000020980835,6.28000020980835,21900
2019-08-20,6.135000228881836,6.800000190734863,6.135000228881836,6.690000057220459,6.690000057220459,23300
2019-08-21,6.800000190734863,6.900000095367432,6.639999866485596,6.875,6.875,31600
2019-08-22,6.699999809265137,6.769999980926514,6.53000020980835,6.650000095367432,6.650000095367432,9700
2019-08-23,6.519999980926514,6.570000171661377,6.329999923706055,6.510000228881836,6.510000228881836,10400
2019-08-26,6.5,6.510000228881836,6.199999809265137,6.480000019073486,6.480000019073486,34000
2019-08-27,6.599999904632568,6.599999904632568,6.099999904632568,6.360000133514404,6.360000133514404,13500
2019-08-28,6.164999961853027,6.460000038146973,6.164999961853027,6.210000038146973,6.210000038146973,2600
2019-08-29,6.170000076293945,6.380000114440918,6.170000076293945,6.210000038146973,6.210000038146973,12700
2019-08-30,6.349999904632568,6.349999904632568,6.210000038146973,6.28000020980835,6.28000020980835,4400
2019-09-03,6.139999866485596,6.5,6.139999866485596,6.460000038146973,6.460000038146973,22800
2019-09-04,6.550000190734863,6.550000190734863,6.269999980926514,6.369999885559082,6.369999885559082,6700
2019-09-05,6.323999881744385,6.539999961853027,6.322999954223633,6.539999961853027,6.539999961853027,8700
2019-09-06,6.510000228881836,6.550000190734863,6.340000152587891,6.510000228881836,6.510000228881836,7300
2019-09-09,6.429999828338623,6.550000190734863,6.349999904632568,6.53000020980835,6.53000020980835,21000
2019-09-10,6.489999771118164,6.659999847412109,6.409999847412109,6.599999904632568,6.599999904632568,23700
2019-09-11,6.698999881744385,6.75,6.658999919891357,6.710000038146973,6.710000038146973,59000
2019-09-12,6.679999828338623,6.800000190734863,6.519999980926514,6.710000038146973,6.710000038146973,25000
2019-09-13,6.559999942779541,6.789999961853027,6.559999942779541,6.760000228881836,6.760000228881836,12600
2019-09-16,6.611000061035156,6.769999980926514,6.565000057220459,6.739999771118164,6.739999771118164,15200
2019-09-17,6.510000228881836,6.710000038146973,6.400000095367432,6.550000190734863,6.550000190734863,19900
2019-09-18,6.364999771118164,6.510000228881836,6.300000190734863,6.300000190734863,6.300000190734863,106000
2019-09-19,6.349999904632568,6.400000095367432,6.215000152587891,6.380000114440918,6.380000114440918,39900
2019-09-20,6.199999809265137,6.46999979019165,6.199999809265137,6.409999847412109,6.409999847412109,12100
2019-09-23,6.579999923706055,6.579999923706055,6.260000228881836,6.293000221252441,6.293000221252441,5900
2019-09-24,6.489999771118164,6.489999771118164,6.230000019073486,6.429999828338623,6.429999828338623,9400
2019-09-25,6.449999809265137,6.539999961853027,6.269999980926514,6.480000019073486,6.480000019073486,3800
2019-09-26,6.269999980926514,6.539999961853027,6.269999980926514,6.5,6.5,3300
2019-09-27,6.275000095367432,6.5,6.275000095367432,6.489999771118164,6.489999771118164,17400
2019-09-30,6.480000019073486,6.480000019073486,6.375,6.409999847412109,6.409999847412109,3200
2019-10-01,6.369999885559082,6.409999847412109,6.230000019073486,6.349999904632568,6.349999904632568,26900
2019-10-02,6.360000133514404,6.400000095367432,6.179999828338623,6.380000114440918,6.380000114440918,11100
2019-10-03,6.179999828338623,6.380000114440918,6.179999828338623,6.380000114440918,6.380000114440918,8000
2019-10-04,6.28000020980835,6.400000095367432,6.28000020980835,6.380000114440918,6.380000114440918,5900
2019-10-07,6.269999980926514,6.449999809265137,6.269999980926514,6.360000133514404,6.360000133514404,1800
2019-10-08,6.489999771118164,6.489999771118164,6.28000020980835,6.489999771118164,6.489999771118164,5500
2019-10-09,6.489999771118164,6.570000171661377,6.340000152587891,6.570000171661377,6.570000171661377,12600
2019-10-10,6.349999904632568,6.539999961853027,6.050000190734863,6.079999923706055,6.079999923706055,92800
2019-10-11,6.090000152587891,6.320000171661377,6.090000152587891,6.300000190734863,6.300000190734863,3400
2019-10-14,6.119999885559082,6.340000152587891,6.119999885559082,6.340000152587891,6.340000152587891,4400
2019-10-15,6.267000198364258,6.409999847412109,6.199999809265137,6.340000152587891,6.340000152587891,1500
2019-10-16,6.289999961853027,6.289999961853027,6.170000076293945,6.25,6.25,5800
2019-10-17,6.25,6.300000190734863,6.170000076293945,6.300000190734863,6.300000190734863,3000
2019-10-18,6.269999980926514,6.329999923706055,6.159999847412109,6.300000190734863,6.300000190734863,15100
2019-10-21,6.199999809265137,6.269999980926514,6.179999828338623,6.199999809265137,6.199999809265137,4000
2019-10-22,6.165999889373779,6.260000228881836,6.119999885559082,6.199999809265137,6.199999809265137,7200
2019-10-23,6.139999866485596,6.21999979019165,6.119999885559082,6.199999809265137,6.199999809265137,7500
2019-10-24,6.139999866485596,6.139999866485596,6.019999980926514,6.099999904632568,6.099999904632568,37500
2019-10-25,6.150000095367432,6.179999828338623,6.059999942779541,6.130000114440918,6.130000114440918,7800
2019-10-28,6.090000152587891,6.164000034332275,6.020999908447266,6.130000114440918,6.130000114440918,24600
2019-10-29,6.059999942779541,6.079999923706055,6.010000228881836,6.019999980926514,6.019999980926514,17400
2019-10-30,6.050000190734863,6.070000171661377,6.010000228881836,6.059999942779541,6.059999942779541,13000
2019-10-31,6.019999980926514,6.039999961853027,6.010000228881836,6.019999980926514,6.019999980926514,7300
2019-11-01,6.019999980926514,6.03000020980835,5.789999961853027,5.860000133514404,5.860000133514404,62400
2019-11-04,6.039999961853027,6.150000095367432,5.889999866485596,6.139999866485596,6.139999866485596,41800
2019-11-05,6.110000133514404,6.170000076293945,5.980000019073486,6.150000095367432,6.150000095367432,27200
2019-11-06,6.099999904632568,6.110000133514404,5.989999771118164,6.059999942779541,6.059999942779541,11900
2019-11-07,6.050000190734863,6.130000114440918,6.0,6.130000114440918,6.130000114440918,4200
2019-11-08,6.099999904632568,6.099999904632568,6.0,6.059999942779541,6.059999942779541,9400
2019-11-11,5.934000015258789,6.079999923706055,5.920000076293945,6.079999923706055,6.079999923706055,15000
2019-11-12,6.0,6.090000152587891,5.949999809265137,6.090000152587891,6.090000152587891,29900
2019-11-13,5.960000038146973,6.139999866485596,5.929999828338623,6.139999866485596,6.139999866485596,26500
2019-11-14,6.139999866485596,6.170000076293945,6.035999774932861,6.150000095367432,6.150000095367432,21300
2019-11-15,6.110000133514404,6.150000095367432,6.110000133514404,6.150000095367432,6.150000095367432,9700
2019-11-18,6.170000076293945,6.210000038146973,6.119999885559082,6.150000095367432,6.150000095367432,36200
2019-11-19,6.14900016784668,6.179999828338623,6.110000133514404,6.110000133514404,6.110000133514404,10900
2019-11-20,6.099999904632568,6.110000133514404,5.949999809265137,6.070000171661377,6.070000171661377,46400
2019-11-21,5.980000019073486,6.019999980926514,5.821000099182129,5.900000095367432,5.900000095367432,24500
2019-11-22,6.0,6.0,5.869999885559082,5.909999847412109,5.909999847412109,5600
2019-11-25,5.900000095367432,5.989999771118164,5.869999885559082,5.980000019073486,5.980000019073486,14000
2019-11-26,6.0,6.03000020980835,5.880000114440918,5.980000019073486,5.980000019073486,16600
2019-11-27,5.880000114440918,5.989999771118164,5.771999835968018,5.989999771118164,5.989999771118164,20300
2019-11-29,6.0,6.0,5.699999809265137,5.889999866485596,5.889999866485596,19500
2019-12-02,5.809999942779541,5.820000171661377,5.699999809265137,5.739999771118164,5.739999771118164,22400
2019-12-03,5.599999904632568,5.650000095367432,5.5,5.539999961853027,5.539999961853027,19600
2019-12-04,5.53000020980835,5.630000114440918,5.5,5.550000190734863,5.550000190734863,7900
2019-12-05,5.550000190734863,5.619999885559082,5.5,5.565000057220459,5.565000057220459,29200
2019-12-06,5.679999828338623,5.679999828338623,5.610000133514404,5.639999866485596,5.639999866485596,3700
2019-12-09,5.639999866485596,5.699999809265137,5.519999980926514,5.639999866485596,5.639999866485596,9800
2019-12-10,5.670000076293945,5.690000057220459,5.550000190734863,5.599999904632568,5.599999904632568,6900
2019-12-11,5.584000110626221,5.630000114440918,5.559999942779541,5.560999870300293,5.560999870300293,12900
2019-12-12,5.610000133514404,5.75,5.539999961853027,5.75,5.75,36700
2019-12-13,5.730000019073486,5.730000019073486,5.640999794006348,5.679999828338623,5.679999828338623,3900
2019-12-16,5.670000076293945,5.710000038146973,5.630000114440918,5.710000038146973,5.710000038146973,9200
2019-12-17,5.659999847412109,5.75,5.659999847412109,5.71999979019165,5.71999979019165,11400
2019-12-18,5.639999866485596,5.686999797821045,5.599999904632568,5.659999847412109,5.659999847412109,74200
2019-12-19,5.630000114440918,5.789999961853027,5.46999979019165,5.519999980926514,5.519999980926514,14200
2019-12-20,5.579999923706055,5.659999847412109,5.5,5.559999942779541,5.559999942779541,27400
2019-12-23,5.599999904632568,5.730000019073486,5.46999979019165,5.679999828338623,5.679999828338623,20100
2019-12-24,5.71999979019165,5.71999979019165,5.619999885559082,5.639999866485596,5.639999866485596,3600
2019-12-26,5.53000020980835,5.599999904632568,5.460000038146973,5.5,5.5,17400
2019-12-27,5.510000228881836,5.579999923706055,5.480000019073486,5.550000190734863,5.550000190734863,19700
2019-12-30,5.5269999504089355,5.570000171661377,5.449999809265137,5.539999961853027,5.539999961853027,15600
2019-12-31,5.489999771118164,5.539999961853027,5.449999809265137,5.449999809265137,5.449999809265137,42200
2020-01-02,5.599999904632568,5.630000114440918,5.449999809265137,5.579999923706055,5.579999923706055,32200
2020-01-03,5.480000019073486,5.650000095367432,5.460000038146973,5.650000095367432,5.650000095367432,13100
2020-01-06,5.5,5.679999828338623,5.5,5.670000076293945,5.670000076293945,16200
2020-01-07,5.677000045776367,5.820000171661377,5.611000061035156,5.820000171661377,5.820000171661377,33400
2020-01-08,5.769999980926514,5.900000095367432,5.71999979019165,5.829999923706055,5.829999923706055,25400
2020-01-09,5.829999923706055,5.920000076293945,5.820000171661377,5.829999923706055,5.829999923706055,4300
2020-01-10,5.880000114440918,5.880000114440918,5.663000106811523,5.880000114440918,5.880000114440918,4000
2020-01-13,5.820000171661377,5.8480000495910645,5.630000114440918,5.800000190734863,5.800000190734863,16800
2020-01-14,5.739999771118164,5.78000020980835,5.690000057220459,5.71999979019165,5.71999979019165,9600
2020-01-15,5.71999979019165,5.71999979019165,5.71999979019165,5.71999979019165,5.71999979019165,1400
2020-01-16,5.739999771118164,5.849999904632568,5.739999771118164,5.769999980926514,5.769999980926514,13100
2020-01-17,5.71999979019165,5.728000164031982,5.650000095367432,5.710000038146973,5.710000038146973,25500
2020-01-21,5.75,5.880000114440918,5.710000038146973,5.880000114440918,5.880000114440918,33000
2020-01-22,5.880000114440918,5.96999979019165,5.806000232696533,5.909999847412109,5.909999847412109,8500
2020-01-23,5.714000225067139,5.849999904632568,5.714000225067139,5.809999942779541,5.809999942779541,11100
2020-01-24,5.798999786376953,5.814000129699707,5.610000133514404,5.635000228881836,5.635000228881836,20100
2020-01-27,5.599999904632568,5.610000133514404,5.28000020980835,5.449999809265137,5.449999809265137,22500
2020-01-28,5.449999809265137,5.559999942779541,5.449999809265137,5.519999980926514,5.519999980926514,3000
2020-01-29,5.453000068664551,5.500999927520752,5.369999885559082,5.5,5.5,9300
2020-01-30,5.486999988555908,5.489999771118164,5.400000095367432,5.489999771118164,5.489999771118164,4400
2020-01-31,5.409999847412109,5.460000038146973,5.309999942779541,5.320000171661377,5.320000171661377,11500
2020-02-03,5.300000190734863,5.449999809265137,5.289999961853027,5.300000190734863,5.300000190734863,17800
2020-02-04,5.329999923706055,5.449999809265137,5.260000228881836,5.420000076293945,5.420000076293945,7500
2020-02-05,5.400000095367432,5.409999847412109,5.349999904632568,5.380000114440918,5.380000114440918,10600
2020-02-06,5.340000152587891,5.5,5.285999774932861,5.489999771118164,5.489999771118164,62200
2020-02-07,5.409999847412109,5.409999847412109,5.300000190734863,5.329999923706055,5.329999923706055,22200
2020-02-10,5.300000190734863,5.360000133514404,5.099999904632568,5.190000057220459,5.190000057220459,49400
2020-02-11,5.170000076293945,5.25,5.130000114440918,5.230000019073486,5.230000019073486,8000
2020-02-12,5.260000228881836,5.360000133514404,5.260000228881836,5.269999980926514,5.269999980926514,13300
2020-02-13,5.329999923706055,5.329999923706055,5.130000114440918,5.150000095367432,5.150000095367432,12000
2020-02-14,5.130000114440918,5.179999828338623,5.119999885559082,5.130000114440918,5.130000114440918,12300
2020-02-18,5.099999904632568,5.150000095367432,5.050000190734863,5.150000095367432,5.150000095367432,7500
2020-02-19,5.110000133514404,5.329999923706055,5.03000020980835,5.289999961853027,5.289999961853027,41700
2020-02-20,5.179999828338623,5.239999771118164,5.150000095367432,5.21999979019165,5.21999979019165,16300
2020-02-21,5.2210001945495605,5.2210001945495605,5.199999809265137,5.210000038146973,5.210000038146973,37900
2020-02-24,5.21999979019165,5.329999923706055,5.0,5.03000020980835,5.03000020980835,80600
2020-02-25,5.010000228881836,5.079999923706055,5.010000228881836,5.072000026702881,5.072000026702881,5000
2020-02-26,5.119999885559082,5.150000095367432,5.010000228881836,5.039999961853027,5.039999961853027,20300
2020-02-27,5.0,5.0,4.860000133514404,4.940000057220459,4.940000057220459,30500
2020-02-28,4.940000057220459,4.940000057220459,4.619999885559082,4.690000057220459,4.690000057220459,37300
2020-03-02,4.650000095367432,4.650000095367432,4.449999809265137,4.5,4.5,55700
2020-03-03,4.480000019073486,4.550000190734863,4.449999809265137,4.46999979019165,4.46999979019165,10100
2020-03-04,4.449999809265137,4.460000038146973,4.247000217437744,4.260000228881836,4.260000228881836,40600
2020-03-05,4.260000228881836,4.260000228881836,4.079999923706055,4.159999847412109,4.159999847412109,8700
2020-03-06,4.150000095367432,4.150000095367432,3.890000104904175,3.9079999923706055,3.9079999923706055,143600
2020-03-09,3.7200000286102295,3.9000000953674316,3.5199999809265137,3.569999933242798,3.569999933242798,60800
2020-03-10,3.5999999046325684,3.7300000190734863,3.5999999046325684,3.640000104904175,3.640000104904175,24800
2020-03-11,3.627000093460083,3.700000047683716,3.5299999713897705,3.700000047683716,3.700000047683716,36000
2020-03-12,3.509999990463257,3.6500000953674316,3.5,3.549999952316284,3.549999952316284,58500
2020-03-13,3.5299999713897705,3.640000104904175,3.0999999046325684,3.430000066757202,3.430000066757202,66900
2020-03-16,3.2160000801086426,3.3399999141693115,3.0,3.003000020980835,3.003000020980835,19700
2020-03-17,3.0,3.180000066757202,2.7100000381469727,3.119999885559082,3.119999885559082,34900
2020-03-18,2.9200000762939453,2.940000057220459,2.680000066757202,2.9200000762939453,2.9200000762939453,53800
2020-03-19,2.809999942779541,3.200000047683716,2.63700008392334,3.200000047683716,3.200000047683716,17500
2020-03-20,3.190000057220459,3.4700000286102295,3.0899999141693115,3.450000047683716,3.450000047683716,17000
2020-03-23,3.1500000953674316,3.390000104904175,3.0999999046325684,3.119999885559082,3.119999885559082,13600
2020-03-24,3.3399999141693115,3.440000057220459,3.009999990463257,3.009999990463257,3.009999990463257,20400
2020-03-25,3.240000009536743,3.240000009536743,3.119999885559082,3.119999885559082,3.119999885559082,13900
2020-03-26,3.049999952316284,3.4100000858306885,2.930000066757202,3.4000000953674316,3.4000000953674316,52100
2020-03-27,3.450000047683716,3.450000047683716,3.0399999618530273,3.2699999809265137,3.2699999809265137,14200
2020-03-30,3.200000047683716,3.4000000953674316,3.1600000858306885,3.4000000953674316,3.4000000953674316,8600
2020-03-31,3.380000114440918,3.4000000953674316,3.2100000381469727,3.2100000381469727,3.2100000381469727,15600
2020-04-01,3.200000047683716,3.200000047683716,3.059999942779541,3.0999999046325684,3.0999999046325684,6700
2020-04-02,3.0999999046325684,3.130000114440918,2.930000066757202,2.9600000381469727,2.9600000381469727,38300
2020-04-03,2.930000066757202,3.0399999618530273,2.930000066757202,2.930000066757202,2.930000066757202,14600
2020-04-06,2.9600000381469727,2.990000009536743,2.930000066757202,2.9800000190734863,2.9800000190734863,21900
2020-04-07,3.0,3.0,2.9189999103546143,2.930000066757202,2.930000066757202,38200
2020-04-08,2.930000066757202,2.9600000381469727,2.869999885559082,2.880000114440918,2.880000114440918,12500
2020-04-09,2.869999885559082,2.9800000190734863,2.869999885559082,2.924999952316284,2.924999952316284,10500
2020-04-13,2.822999954223633,2.9200000762939453,2.819999933242798,2.9200000762939453,2.9200000762939453,4500
2020-04-14,2.880000114440918,2.930000066757202,2.7669999599456787,2.9000000953674316,2.9000000953674316,6300
2020-04-15,2.890000104904175,2.890000104904175,2.759999990463257,2.799999952316284,2.799999952316284,5000
2020-04-16,2.809999942779541,2.809999942779541,2.609999895095825,2.609999895095825,2.609999895095825,37300
2020-04-17,2.630000114440918,2.740000009536743,2.630000114440918,2.7100000381469727,2.7100000381469727,28200
2020-04-20,2.759999990463257,2.759999990463257,2.6500000953674316,2.6600000858306885,2.6600000858306885,13400
2020-04-21,2.609999895095825,2.609999895095825,2.2200000286102295,2.309999942779541,2.309999942779541,61000
2020-04-22,2.4000000953674316,2.4000000953674316,2.3299999237060547,2.390000104904175,2.390000104904175,6300
2020-04-23,2.390000104904175,2.4000000953674316,2.2799999713897705,2.380000114440918,2.380000114440918,31900
2020-04-24,2.359999895095825,2.5999999046325684,2.3589999675750732,2.5999999046325684,2.5999999046325684,39800
2020-04-27,2.5999999046325684,2.700000047683716,2.5,2.569999933242798,2.569999933242798,32700
2020-04-28,2.5199999809265137,2.700000047683716,2.359999895095825,2.700000047683716,2.700000047683716,27700
2020-04-29,2.6670000553131104,2.9000000953674316,2.5999999046325684,2.9000000953674316,2.9000000953674316,15900
2020-04-30,2.9200000762939453,2.9200000762939453,2.5999999046325684,2.819999933242798,2.819999933242798,13500
2020-05-01,2.7799999713897705,2.799999952316284,2.687000036239624,2.7100000381469727,2.7100000381469727,6100
2020-05-04,2.555000066757202,2.640000104904175,2.549999952316284,2.640000104904175,2.640000104904175,1200
2020-05-05,2.703000068664551,2.740000009536743,2.5199999809265137,2.5199999809265137,2.5199999809265137,5800
2020-05-06,2.5339999198913574,2.640000104904175,2.450000047683716,2.640000104904175,2.640000104904175,5800
2020-05-07,2.700000047683716,2.700000047683716,2.619999885559082,2.6600000858306885,2.6600000858306885,6500
2020-05-08,2.690000057220459,2.7699999809265137,2.690000057220459,2.75,2.75,2700
2020-05-11,2.6600000858306885,2.75,2.630000114440918,2.75,2.75,2700
2020-05-12,2.7799999713897705,2.7799999713897705,2.619999885559082,2.680000066757202,2.680000066757202,5400
2020-05-13,2.700000047683716,2.7200000286102295,2.5999999046325684,2.5999999046325684,2.5999999046325684,24700
2020-05-14,2.6440000534057617,2.6440000534057617,2.5799999237060547,2.5840001106262207,2.5840001106262207,8100
2020-05-15,2.549999952316284,2.5799999237060547,2.549999952316284,2.5799999237060547,2.5799999237060547,3000
2020-05-18,2.619999885559082,2.680000066757202,2.5999999046325684,2.630000114440918,2.630000114440918,5300
2020-05-19,2.700000047683716,2.700000047683716,2.619999885559082,2.619999885559082,2.619999885559082,800
2020-05-20,2.7200000286102295,2.759999990463257,2.630000114440918,2.700000047683716,2.700000047683716,16400
2020-05-21,2.640000104904175,2.6700000762939453,2.5999999046325684,2.5999999046325684,2.5999999046325684,4200
2020-05-22,2.6500000953674316,2.6640000343322754,2.559999942779541,2.559999942779541,2.559999942779541,3700
2020-05-26,2.6630001068115234,2.7699999809265137,2.569999933242798,2.619999885559082,2.619999885559082,14100
2020-05-27,2.7799999713897705,2.7799999713897705,2.700000047683716,2.7200000286102295,2.7200000286102295,18500
2020-05-28,2.799999952316284,3.069999933242798,2.749000072479248,2.8499999046325684,2.8499999046325684,39600
2020-05-29,3.140000104904175,3.240000009536743,2.869999885559082,2.990000009536743,2.990000009536743,40200
2020-06-01,3.0799999237060547,3.0799999237060547,2.8340001106262207,2.9000000953674316,2.9000000953674316,20000
2020-06-02,2.880000114440918,3.049999952316284,2.875999927520752,3.0399999618530273,3.0399999618530273,24500
2020-06-03,3.1700000762939453,3.1700000762939453,2.9000000953674316,2.9700000286102295,2.9700000286102295,23300
2020-06-04,2.9700000286102295,3.2149999141693115,2.9700000286102295,3.180000066757202,3.180000066757202,29400
2020-06-05,3.1410000324249268,3.259999990463257,3.140000104904175,3.1579999923706055,3.1579999923706055,24400
2020-06-08,3.130000114440918,3.450000047683716,3.130000114440918,3.3499999046325684,3.3499999046325684,37900
2020-06-09,3.440000057220459,3.440000057220459,3.2269999980926514,3.380000114440918,3.380000114440918,9800
2020-06-10,3.3350000381469727,3.440000057220459,3.2699999809265137,3.309999942779541,3.309999942779541,12000
2020-06-11,3.640000104904175,3.680000066757202,3.1540000438690186,3.549999952316284,3.549999952316284,162500
2020-06-12,3.6600000858306885,3.869999885559082,3.1600000858306885,3.552999973297119,3.552999973297119,80000
2020-06-15,3.509999990463257,3.6600000858306885,3.049999952316284,3.1700000762939453,3.1700000762939453,62800
2020-06-16,3.259999990463257,3.7070000171661377,3.010999917984009,3.2799999713897705,3.2799999713897705,83500
2020-06-17,3.200000047683716,3.259999990463257,3.130000114440918,3.1600000858306885,3.1600000858306885,21400
2020-06-18,3.1600000858306885,3.2100000381469727,3.0199999809265137,3.0299999713897705,3.0299999713897705,22200
2020-06-19,3.0999999046325684,3.0999999046325684,2.9600000381469727,2.9600000381469727,2.9600000381469727,36200
2020-06-22,2.9800000190734863,2.9800000190734863,2.880000114440918,2.890000104904175,2.890000104904175,13100
2020-06-23,3.0,3.0,2.9200000762939453,2.9600000381469727,2.9600000381469727,11600
2020-06-24,2.890000104904175,2.930000066757202,2.809999942779541,2.880000114440918,2.880000114440918,7200
2020-06-25,2.880000114440918,2.880000114440918,2.559999942779541,2.8399999141693115,2.8399999141693115,13200
2020-06-26,2.7300000190734863,2.799999952316284,2.690000057220459,2.7899999618530273,2.7899999618530273,5400
2020-06-29,2.799999952316284,2.880000114440918,2.6500000953674316,2.759999990463257,2.759999990463257,11700
2020-06-30,2.700000047683716,2.8499999046325684,2.700000047683716,2.8299999237060547,2.8299999237060547,11000
2020-07-01,2.7899999618530273,2.8570001125335693,2.759999990463257,2.759999990463257,2.759999990463257,6100
2020-07-02,2.9000000953674316,3.140000104904175,2.799999952316284,2.9700000286102295,2.9700000286102295,135500
2020-07-06,3.0250000953674316,3.2200000286102295,3.007999897003174,3.049999952316284,3.049999952316284,58600
2020-07-07,2.9800000190734863,3.5,2.9200000762939453,3.180000066757202,3.180000066757202,154700
2020-07-08,3.140000104904175,3.509999990463257,3.140000104904175,3.4000000953674316,3.4000000953674316,202800
2020-07-09,3.6500000953674316,3.6500000953674316,3.190000057220459,3.369999885559082,3.369999885559082,18600
2020-07-10,3.380000114440918,3.430000066757202,3.200000047683716,3.430000066757202,3.430000066757202,10400
2020-07-13,3.5399999618530273,3.5399999618530273,3.299999952316284,3.450000047683716,3.450000047683716,14200
2020-07-14,3.319999933242798,3.6600000858306885,3.1500000953674316,3.4000000953674316,3.4000000953674316,148100
2020-07-15,3.4200000762939453,3.4800000190734863,3.1600000858306885,3.2100000381469727,3.2100000381469727,70900
2020-07-16,3.200000047683716,3.3399999141693115,2.990000009536743,3.200000047683716,3.200000047683716,197100
2020-07-17,3.25,3.309999942779541,3.1500000953674316,3.1500000953674316,3.1500000953674316,34200
2020-07-20,3.180000066757202,3.2699999809265137,3.0169999599456787,3.2200000286102295,3.2200000286102295,130600
2020-07-21,3.2899999618530273,3.369999885559082,3.0999999046325684,3.2899999618530273,3.2899999618530273,119300
2020-07-22,3.2200000286102295,3.309999942779541,3.059999942779541,3.2200000286102295,3.2200000286102295,128200
2020-07-23,3.200000047683716,3.200000047683716,3.059999942779541,3.069999933242798,3.069999933242798,21000
2020-07-24,3.049999952316284,3.069999933242798,2.799999952316284,2.9800000190734863,2.9800000190734863,42100
2020-07-27,2.9110000133514404,3.049999952316284,2.809999942779541,3.049999952316284,3.049999952316284,11100
2020-07-28,2.9760000705718994,3.009999990463257,2.869999885559082,2.869999885559082,2.869999885559082,5000
2020-07-29,2.9000000953674316,2.9200000762939453,2.7799999713897705,2.8350000381469727,2.8350000381469727,19300
2020-07-30,2.8499999046325684,2.859999895095825,2.7809998989105225,2.816999912261963,2.816999912261963,11000
2020-07-31,2.8299999237060547,2.859999895095825,2.700000047683716,2.7950000762939453,2.7950000762939453,20800
2020-08-03,2.7899999618530273,2.819999933242798,2.693000078201294,2.799999952316284,2.799999952316284,22500
2020-08-04,2.75,2.8399999141693115,2.740000009536743,2.8399999141693115,2.8399999141693115,7500
2020-08-05,2.8399999141693115,2.9800000190734863,2.8399999141693115,2.9100000858306885,2.9100000858306885,20800
2020-08-06,2.940000057220459,2.940000057220459,2.7890000343322754,2.819999933242798,2.819999933242798,17100
2020-08-07,2.819999933242798,2.869999885559082,2.7300000190734863,2.8499999046325684,2.8499999046325684,22000
2020-08-10,2.880000114440918,2.940000057220459,2.8499999046325684,2.8499999046325684,2.8499999046325684,1200
2020-08-11,2.9000000953674316,2.930000066757202,2.880000114440918,2.890000104904175,2.890000104904175,1600
2020-08-12,2.890000104904175,2.890000104904175,2.7899999618530273,2.8299999237060547,2.8299999237060547,6200
2020-08-13,2.990000009536743,2.990000009536743,2.819999933242798,2.9100000858306885,2.9100000858306885,10900
2020-08-14,2.9100000858306885,3.190000057220459,2.9000000953674316,3.069999933242798,3.069999933242798,121900
2020-08-17,3.109999895095825,3.1500000953674316,2.944999933242798,3.1500000953674316,3.1500000953674316,26400
2020-08-18,3.2100000381469727,3.677000045776367,3.1500000953674316,3.4600000381469727,3.4600000381469727,126700
2020-08-19,3.4600000381469727,3.5199999809265137,3.2249999046325684,3.299999952316284,3.299999952316284,46400
2020-08-20,3.2100000381469727,3.2300000190734863,2.9000000953674316,2.950000047683716,2.950000047683716,62200
2020-08-21,2.950000047683716,3.180000066757202,2.950000047683716,3.0899999141693115,3.0899999141693115,44900
2020-08-24,3.180000066757202,3.180000066757202,3.0,3.0799999237060547,3.0799999237060547,3100
2020-08-25,3.0299999713897705,3.140000104904175,3.0299999713897705,3.0999999046325684,3.0999999046325684,29200
2020-08-26,3.059999942779541,3.069999933242798,2.9519999027252197,3.0199999809265137,3.0199999809265137,45100
2020-08-27,2.990000009536743,3.069999933242798,2.990000009536743,3.0299999713897705,3.0299999713897705,7700
2020-08-28,3.0,3.1010000705718994,2.9700000286102295,3.049999952316284,3.049999952316284,23300
2020-08-31,3.0199999809265137,3.049999952316284,3.009999990463257,3.0399999618530273,3.0399999618530273,6400
2020-09-01,3.0199999809265137,3.075000047683716,3.0199999809265137,3.0299999713897705,3.0299999713897705,4400
2020-09-02,3.062000036239624,3.0799999237060547,3.0399999618530273,3.0799999237060547,3.0799999237060547,21300
2020-09-03,3.0899999141693115,3.450000047683716,3.075000047683716,3.1589999198913574,3.1589999198913574,97100
2020-09-04,3.1600000858306885,3.25,3.071000099182129,3.0899999141693115,3.0899999141693115,9300
2020-09-08,3.0899999141693115,3.0999999046325684,3.0,3.059999942779541,3.059999942779541,44800
2020-09-09,3.0399999618530273,3.0899999141693115,3.0199999809265137,3.049999952316284,3.049999952316284,7400
2020-09-10,3.0350000858306885,3.0399999618530273,3.0,3.009999990463257,3.009999990463257,13300
2020-09-11,3.013000011444092,3.0799999237060547,3.0,3.0799999237060547,3.0799999237060547,11400
2020-09-14,3.0999999046325684,3.119999885559082,3.059999942779541,3.059999942779541,3.059999942779541,4600
2020-09-15,3.0329999923706055,3.0329999923706055,2.950000047683716,3.0,3.0,105100
2020-09-16,3.0399999618530273,3.069999933242798,2.9800000190734863,3.069999933242798,3.069999933242798,1900
2020-09-17,3.0,3.0,3.0,3.0,3.0,400
2020-09-18,3.003000020980835,3.003000020980835,2.9200000762939453,2.9200000762939453,2.9200000762939453,2600
2020-09-21,2.9200000762939453,2.9200000762939453,2.819999933242798,2.8399999141693115,2.8399999141693115,18800
2020-09-22,2.9200000762939453,2.9200000762939453,2.739000082015991,2.819999933242798,2.819999933242798,14900
2020-09-23,2.890000104904175,3.240000009536743,2.884999990463257,2.9200000762939453,2.9200000762939453,30200
2020-09-24,2.9200000762939453,3.0139999389648438,2.9200000762939453,3.0139999389648438,3.0139999389648438,4800
2020-09-25,2.9049999713897705,2.9809999465942383,2.9049999713897705,2.9809999465942383,2.9809999465942383,3000
2020-09-28,2.9800000190734863,3.0899999141693115,2.9200000762939453,2.940000057220459,2.940000057220459,10600
2020-09-29,2.9100000858306885,3.0899999141693115,2.9100000858306885,3.0399999618530273,3.0399999618530273,40200
2020-09-30,3.0999999046325684,3.0999999046325684,2.990000009536743,3.0399999618530273,3.0399999618530273,6000
2020-10-01,3.009999990463257,3.049999952316284,2.9800000190734863,3.0,3.0,5700
2020-10-02,2.859999895095825,2.940000057220459,2.7899999618530273,2.9200000762939453,2.9200000762939453,6600
2020-10-05,2.809999942779541,3.069999933242798,2.809999942779541,3.069999933242798,3.069999933242798,9300
2020-10-06,2.990000009536743,3.0290000438690186,2.9800000190734863,2.9800000190734863,2.9800000190734863,3900
2020-10-07,3.059999942779541,3.059999942779541,2.930000066757202,2.930000066757202,2.930000066757202,7500
2020-10-08,2.8970000743865967,2.9000000953674316,2.8499999046325684,2.9000000953674316,2.9000000953674316,26700
2020-10-09,2.9100000858306885,2.950000047683716,2.880000114440918,2.890000104904175,2.890000104904175,3900
2020-10-12,2.890000104904175,2.9800000190734863,2.8499999046325684,2.9149999618530273,2.9149999618530273,27900
2020-10-13,2.921999931335449,2.921999931335449,2.859999895095825,2.872999906539917,2.872999906539917,8200
2020-10-14,2.8499999046325684,2.9100000858306885,2.7699999809265137,2.7699999809265137,2.7699999809265137,31500
2020-10-15,2.759999990463257,2.759999990463257,2.700000047683716,2.7100000381469727,2.7100000381469727,22100
2020-10-16,2.7100000381469727,2.7100000381469727,2.6700000762939453,2.694999933242798,2.694999933242798,15100
2020-10-19,2.819999933242798,2.819999933242798,2.6689999103546143,2.680000066757202,2.680000066757202,8200
2020-10-20,2.700000047683716,2.747999906539917,2.6619999408721924,2.7300000190734863,2.7300000190734863,6600
2020-10-21,2.6519999504089355,2.677999973297119,2.6500000953674316,2.6500000953674316,2.6500000953674316,3500
2020-10-22,2.6700000762939453,2.700000047683716,2.619999885559082,2.700000047683716,2.700000047683716,11600
2020-10-23,2.700000047683716,2.700000047683716,2.630000114440918,2.690000057220459,2.690000057220459,3500
2020-10-26,2.609999895095825,2.690000057220459,2.5999999046325684,2.640000104904175,2.640000104904175,12900
2020-10-27,2.740000009536743,2.740000009536743,2.734999895095825,2.734999895095825,2.734999895095825,300
2020-10-28,2.680000066757202,2.7100000381469727,2.677000045776367,2.7019999027252197,2.7019999027252197,2500
2020-10-29,2.700000047683716,2.700000047683716,2.700000047683716,2.700000047683716,2.700000047683716,1100
2020-10-30,2.7699999809265137,2.7699999809265137,2.7100000381469727,2.755000114440918,2.755000114440918,3100
2020-11-02,2.740000009536743,2.740000009536743,2.740000009536743,2.740000009536743,2.740000009536743,500
2020-11-03,2.755000114440918,2.755000114440918,2.7200000286102295,2.7200000286102295,2.7200000286102295,500
2020-11-04,2.7100000381469727,2.7799999713897705,2.7100000381469727,2.7300000190734863,2.7300000190734863,12200
2020-11-05,2.7799999713897705,2.7850000858306885,2.740000009536743,2.7799999713897705,2.7799999713897705,8200
2020-11-06,2.759999990463257,2.759999990463257,2.700000047683716,2.7149999141693115,2.7149999141693115,11200
2020-11-09,2.7100000381469727,2.765000104904175,2.690000057220459,2.740000009536743,2.740000009536743,20000
2020-11-10,2.7899999618530273,2.7899999618530273,2.671999931335449,2.690000057220459,2.690000057220459,20100
2020-11-11,2.6700000762939453,2.7300000190734863,2.6700000762939453,2.680000066757202,2.680000066757202,9200
2020-11-12,2.700000047683716,2.7300000190734863,2.690000057220459,2.700000047683716,2.700000047683716,24800
2020-11-13,2.7100000381469727,2.753000020980835,2.680000066757202,2.680000066757202,2.680000066757202,21900
2020-11-16,2.7100000381469727,2.8499999046325684,2.700000047683716,2.7200000286102295,2.7200000286102295,17300
2020-11-17,2.7200000286102295,2.7300000190734863,2.700000047683716,2.700000047683716,2.700000047683716,26500
2020-11-18,2.690000057220459,2.7100000381469727,2.680000066757202,2.700000047683716,2.700000047683716,4000
2020-11-19,2.700000047683716,2.75,2.680000066757202,2.700000047683716,2.700000047683716,8300
2020-11-20,2.7100000381469727,2.7290000915527344,2.680000066757202,2.700000047683716,2.700000047683716,11700
2020-11-23,2.700000047683716,2.75,2.690000057220459,2.7300000190734863,2.7300000190734863,21100
2020-11-24,2.6700000762939453,2.75,2.6700000762939453,2.7200000286102295,2.7200000286102295,40400
2020-11-25,2.75,2.819999933242798,2.5,2.7200000286102295,2.7200000286102295,68000
2020-11-27,2.7100000381469727,2.7100000381469727,2.690000057220459,2.700000047683716,2.700000047683716,22800
2020-11-30,2.700000047683716,2.700000047683716,2.5999999046325684,2.640000104904175,2.640000104904175,54900
2020-12-01,2.640000104904175,2.690000057220459,2.5999999046325684,2.640000104904175,2.640000104904175,9800
2020-12-02,2.640000104904175,2.6610000133514404,2.5859999656677246,2.630000114440918,2.630000114440918,48100
2020-12-03,2.5999999046325684,2.7100000381469727,2.5999999046325684,2.700000047683716,2.700000047683716,28700
2020-12-04,2.7100000381469727,2.75,2.680000066757202,2.700000047683716,2.700000047683716,42900
2020-12-07,2.7200000286102295,2.7799999713897705,2.6500000953674316,2.7699999809265137,2.7699999809265137,83100
2020-12-08,2.7200000286102295,2.7699999809265137,2.609999895095825,2.700000047683716,2.700000047683716,62300
2020-12-09,2.6500000953674316,2.75,2.6500000953674316,2.7300000190734863,2.7300000190734863,64700
2020-12-10,2.640000104904175,2.7100000381469727,2.640000104904175,2.7100000381469727,2.7100000381469727,24800
2020-12-11,2.6740000247955322,2.6740000247955322,2.549999952316284,2.609999895095825,2.609999895095825,35500
2020-12-14,2.5999999046325684,2.619999885559082,2.5,2.5,2.5,63600
2020-12-15,2.509999990463257,2.5299999713897705,2.4800000190734863,2.509999990463257,2.509999990463257,27500
2020-12-16,2.509999990463257,2.5399999618530273,2.4600000381469727,2.4700000286102295,2.4700000286102295,20200
2020-12-17,2.4800000190734863,2.549999952316284,2.4600000381469727,2.5,2.5,18600
2020-12-18,2.4800000190734863,2.5199999809265137,2.4800000190734863,2.5199999809265137,2.5199999809265137,19000
2020-12-21,2.4700000286102295,2.4700000286102295,2.430000066757202,2.440000057220459,2.440000057220459,22800
2020-12-22,2.4200000762939453,2.490000009536743,2.4200000762939453,2.4600000381469727,2.4600000381469727,20000
2020-12-23,2.4600000381469727,2.569999933242798,2.4100000858306885,2.569999933242798,2.569999933242798,26500
2020-12-24,2.509999990463257,2.509999990463257,2.4000000953674316,2.490000009536743,2.490000009536743,29500
2020-12-28,2.4800000190734863,2.4800000190734863,2.4000000953674316,2.4200000762939453,2.4200000762939453,44700
2020-12-29,2.4600000381469727,2.4800000190734863,2.390000104904175,2.3940000534057617,2.3940000534057617,18700
2020-12-30,2.3940000534057617,2.3940000534057617,2.3299999237060547,2.380000114440918,2.380000114440918,40800
