Date,Open,High,Low,Close,Adj Close,Volume
2019-09-12,20.59000015258789,21.100000381469727,16.280000686645508,16.670000076293945,16.670000076293945,55416800
2019-09-13,16.809999465942383,18.709999084472656,16.809999465942383,18.68000030517578,18.68000030517578,19119100
2019-09-16,18.459999084472656,19.0,17.809999465942383,18.899999618530273,18.899999618530273,5573000
2019-09-17,19.0,19.299999237060547,18.649999618530273,19.06999969482422,19.06999969482422,4415200
2019-09-18,19.170000076293945,19.700000762939453,18.899999618530273,19.479999542236328,19.479999542236328,10533900
2019-09-19,19.479999542236328,19.59000015258789,18.450000762939453,18.639999389648438,18.639999389648438,3734100
2019-09-20,18.649999618530273,18.8700008392334,18.059999465942383,18.25,18.25,1752400
2019-09-23,18.309999465942383,18.450000762939453,16.899999618530273,17.149999618530273,17.149999618530273,2583300
2019-09-24,17.200000762939453,17.700000762939453,15.59000015258789,15.680000305175781,15.680000305175781,5832600
2019-09-25,15.930000305175781,16.049999237060547,14.460000038146973,14.505000114440918,14.505000114440918,5711100
2019-09-26,14.65999984741211,14.890000343322754,12.5600004196167,12.9399995803833,12.9399995803833,10663200
2019-09-27,13.09000015258789,13.550000190734863,12.704999923706055,13.0,13.0,5636500
2019-09-30,13.270000457763672,13.920000076293945,13.100000381469727,13.880000114440918,13.880000114440918,3749100
2019-10-01,13.9399995803833,13.989999771118164,13.109999656677246,13.170000076293945,13.170000076293945,4438000
2019-10-02,13.039999961853027,13.609999656677246,12.609999656677246,12.954999923706055,12.954999923706055,4162200
2019-10-03,12.979999542236328,13.770000457763672,12.5600004196167,13.699999809265137,13.699999809265137,3303500
2019-10-04,13.3100004196167,14.850000381469727,12.90999984741211,14.720000267028809,14.720000267028809,11951300
2019-10-07,15.0,15.199999809265137,13.470000267028809,13.489999771118164,13.489999771118164,7593300
2019-10-08,13.300000190734863,13.350000381469727,11.199999809265137,11.335000038146973,11.335000038146973,12011300
2019-10-09,11.729999542236328,11.779999732971191,10.899999618530273,10.970000267028809,10.970000267028809,8429300
2019-10-10,10.899999618530273,11.010000228881836,9.819999694824219,10.234999656677246,10.234999656677246,18851600
2019-10-11,10.40999984741211,11.65999984741211,10.329999923706055,11.130000114440918,11.130000114440918,9028800
2019-10-14,10.8100004196167,10.949999809265137,9.440999984741211,9.699999809265137,9.699999809265137,10691600
2019-10-15,9.739999771118164,10.489999771118164,9.319999694824219,10.3100004196167,10.3100004196167,9068100
2019-10-16,10.210000038146973,10.579999923706055,9.932999610900879,10.0,10.0,4740700
2019-10-17,10.0,10.220000267028809,8.729999542236328,9.40999984741211,9.40999984741211,11653300
2019-10-18,9.329999923706055,9.619999885559082,9.119999885559082,9.460000038146973,9.460000038146973,5071800
2019-10-21,9.5,9.619999885559082,9.050000190734863,9.130000114440918,9.130000114440918,4564900
2019-10-22,9.210000038146973,9.699999809265137,9.210000038146973,9.5,9.5,3357000
2019-10-23,9.4399995803833,10.449999809265137,9.4399995803833,10.020000457763672,10.020000457763672,4727300
2019-10-24,10.569999694824219,10.850000381469727,10.050000190734863,10.819999694824219,10.819999694824219,4985400
2019-10-25,10.729999542236328,11.899999618530273,10.649999618530273,11.380000114440918,11.380000114440918,6655200
2019-10-28,11.699999809265137,12.100000381469727,11.550000190734863,12.0600004196167,12.0600004196167,5618300
2019-10-29,12.039999961853027,12.15999984741211,11.539999961853027,11.760000228881836,11.760000228881836,3620500
2019-10-30,11.779999732971191,12.300000190734863,11.510000228881836,12.1899995803833,12.1899995803833,2929100
2019-10-31,12.220000267028809,12.329999923706055,11.199999809265137,11.694999694824219,11.694999694824219,3147400
2019-11-01,11.699999809265137,12.619999885559082,11.510000228881836,12.520000457763672,12.520000457763672,3502000
2019-11-04,12.619999885559082,13.5,12.619999885559082,13.050000190734863,13.050000190734863,4566400
2019-11-05,13.0,13.359999656677246,12.289999961853027,12.59000015258789,12.59000015258789,2813200
2019-11-06,12.460000038146973,12.9399995803833,11.8100004196167,11.989999771118164,11.989999771118164,2699400
2019-11-07,12.0,12.680000305175781,11.829999923706055,11.989999771118164,11.989999771118164,1722300
2019-11-08,12.0,12.220000267028809,11.3100004196167,11.59000015258789,11.59000015258789,2826200
2019-11-11,11.5,11.899999618530273,11.5,11.850000381469727,11.850000381469727,2301600
2019-11-12,11.9399995803833,12.300000190734863,10.90999984741211,11.079999923706055,11.079999923706055,9811200
2019-11-13,10.149999618530273,10.1899995803833,8.75,8.829999923706055,8.829999923706055,26418600
2019-11-14,9.0600004196167,9.199999809265137,8.800000190734863,8.890000343322754,8.890000343322754,7066900
2019-11-15,9.050000190734863,9.130000114440918,8.520000457763672,8.600000381469727,8.600000381469727,7163800
2019-11-18,8.65999984741211,8.789999961853027,8.0,8.039999961853027,8.039999961853027,7962700
2019-11-19,8.050000190734863,9.029999732971191,7.699999809265137,8.960000038146973,8.960000038146973,10072600
2019-11-20,8.869999885559082,9.529999732971191,8.800000190734863,9.0,9.0,6602000
2019-11-21,9.079999923706055,9.170000076293945,8.729999542236328,8.989999771118164,8.989999771118164,2512000
2019-11-22,9.100000381469727,9.239999771118164,8.850000381469727,8.9399995803833,8.9399995803833,2818700
2019-11-25,9.039999961853027,9.479999542236328,8.960000038146973,9.369999885559082,9.369999885559082,4214400
2019-11-26,9.350000381469727,9.739999771118164,9.300000190734863,9.595000267028809,9.595000267028809,4537500
2019-11-27,9.800000190734863,10.25,9.600000381469727,9.979999542236328,9.979999542236328,3421800
2019-11-29,9.979999542236328,10.079999923706055,9.84000015258789,9.970000267028809,9.970000267028809,976000
2019-12-02,10.109999656677246,10.149999618530273,9.399999618530273,9.859999656677246,9.859999656677246,2590800
2019-12-03,9.460000038146973,9.680000305175781,9.210000038146973,9.300000190734863,9.300000190734863,2904500
2019-12-04,9.380000114440918,9.550000190734863,8.529999732971191,8.569999694824219,8.569999694824219,5618700
2019-12-05,8.609999656677246,8.739999771118164,8.34000015258789,8.420000076293945,8.420000076293945,3769600
2019-12-06,8.5,8.609999656677246,8.0600004196167,8.069999694824219,8.069999694824219,4953500
2019-12-09,8.140000343322754,8.329999923706055,8.010000228881836,8.239999771118164,8.239999771118164,3789800
2019-12-10,8.300000190734863,8.46500015258789,7.949999809265137,7.960000038146973,7.960000038146973,3563100
2019-12-11,7.96999979019165,8.149999618530273,7.800000190734863,8.119999885559082,8.119999885559082,4180400
2019-12-12,8.100000381469727,8.100000381469727,7.559999942779541,7.800000190734863,7.800000190734863,8238000
2019-12-13,7.800000190734863,8.050000190734863,7.769999980926514,8.0,8.0,4511200
2019-12-16,8.050000190734863,8.100000381469727,7.71999979019165,7.949999809265137,7.949999809265137,5282800
2019-12-17,8.109999656677246,8.109999656677246,7.699999809265137,7.800000190734863,7.800000190734863,4916600
2019-12-18,7.820000171661377,7.880000114440918,7.71999979019165,7.809999942779541,7.809999942779541,4168200
2019-12-19,7.869999885559082,8.65999984741211,7.860000133514404,8.550000190734863,8.550000190734863,10287100
2019-12-20,8.699999809265137,8.779999732971191,8.0600004196167,8.100000381469727,8.100000381469727,9259000
2019-12-23,8.239999771118164,8.640000343322754,8.069999694824219,8.34000015258789,8.34000015258789,6865100
2019-12-24,8.380000114440918,8.460000038146973,8.239999771118164,8.420000076293945,8.420000076293945,2127700
2019-12-26,8.449999809265137,8.65999984741211,8.260000228881836,8.329999923706055,8.329999923706055,3369600
2019-12-27,8.420000076293945,8.529999732971191,8.15999984741211,8.489999771118164,8.489999771118164,3400000
2019-12-30,8.529999732971191,8.550000190734863,8.1899995803833,8.220000267028809,8.220000267028809,3896000
2019-12-31,8.170000076293945,8.880000114440918,8.15999984741211,8.739999771118164,8.739999771118164,5497200
2020-01-02,8.819999694824219,8.850000381469727,8.25,8.319999694824219,8.319999694824219,6661500
2020-01-03,8.279999732971191,8.47599983215332,8.100000381469727,8.380000114440918,8.380000114440918,4266100
2020-01-06,9.079999923706055,10.850000381469727,8.899999618530273,10.1899995803833,10.1899995803833,39212300
2020-01-07,10.09000015258789,10.539999961853027,9.510000228881836,10.140000343322754,10.140000343322754,15442100
2020-01-08,10.239999771118164,11.4399995803833,10.229999542236328,10.600000381469727,10.600000381469727,23578500
2020-01-09,10.75,10.850000381469727,9.729999542236328,9.824999809265137,9.824999809265137,13410900
2020-01-10,9.949999809265137,10.100000381469727,9.1899995803833,9.220000267028809,9.220000267028809,9104300
2020-01-13,9.289999961853027,10.520000457763672,9.25,10.199999809265137,10.199999809265137,11927700
2020-01-14,11.5600004196167,12.25,10.890000343322754,11.699999809265137,11.699999809265137,33561200
2020-01-15,11.970000267028809,13.880000114440918,11.420000076293945,13.720000267028809,13.720000267028809,33212700
2020-01-16,14.199999809265137,14.869999885559082,12.630000114440918,13.260000228881836,13.260000228881836,29909100
2020-01-17,13.239999771118164,13.9399995803833,12.770000457763672,12.895000457763672,12.895000457763672,14681300
2020-01-21,13.199999809265137,13.899999618530273,12.510000228881836,12.729999542236328,12.729999542236328,15231000
2020-01-22,12.8100004196167,13.729999542236328,12.800000190734863,13.5,13.5,14225100
2020-01-23,13.510000228881836,14.25,13.210000038146973,13.6899995803833,13.6899995803833,12364600
2020-01-24,13.770000457763672,14.079000473022461,12.949999809265137,13.069999694824219,13.069999694824219,8435200
2020-01-27,12.329999923706055,13.619999885559082,12.029999732971191,13.260000228881836,13.260000228881836,8705300
2020-01-28,13.520000457763672,13.529999732971191,12.949999809265137,12.960000038146973,12.960000038146973,5923800
2020-01-29,13.170000076293945,13.970000267028809,12.920000076293945,13.920000076293945,13.920000076293945,9858900
2020-01-30,13.539999961853027,14.119999885559082,13.199999809265137,13.4399995803833,13.4399995803833,7146800
2020-01-31,13.350000381469727,13.59000015258789,12.920000076293945,13.390000343322754,13.390000343322754,7260000
2020-02-03,13.289999961853027,13.449999809265137,12.989999771118164,13.050000190734863,13.050000190734863,7155400
2020-02-04,13.130000114440918,13.880000114440918,13.0,13.729999542236328,13.729999542236328,9324100
2020-02-05,14.25,14.789999961853027,13.520000457763672,14.149999618530273,14.149999618530273,11976000
2020-02-06,14.149999618530273,14.670000076293945,13.920000076293945,14.145000457763672,14.145000457763672,7247100
2020-02-07,14.100000381469727,14.920000076293945,14.100000381469727,14.539999961853027,14.539999961853027,7375600
2020-02-10,14.609999656677246,15.279999732971191,14.260000228881836,14.380000114440918,14.380000114440918,9235800
2020-02-11,14.5,14.949999809265137,14.350000381469727,14.859999656677246,14.859999656677246,5104000
2020-02-12,14.970000267028809,15.130000114440918,14.670000076293945,14.90999984741211,14.90999984741211,7545300
2020-02-13,14.75,15.539999961853027,14.680000305175781,15.329999923706055,15.329999923706055,6251500
2020-02-14,14.579999923706055,14.819999694824219,12.270000457763672,12.829999923706055,12.829999923706055,23744400
2020-02-18,13.270000457763672,13.5,12.850000381469727,13.079999923706055,13.079999923706055,6374900
2020-02-19,13.0600004196167,13.34000015258789,11.569999694824219,12.369999885559082,12.369999885559082,14620500
2020-02-20,12.149999618530273,12.210000038146973,11.479999542236328,12.069999694824219,12.069999694824219,8577300
2020-02-21,11.789999961853027,12.0600004196167,11.760000228881836,12.015000343322754,12.015000343322754,3176000
2020-02-24,11.239999771118164,11.880000114440918,10.75,11.8100004196167,11.8100004196167,6305700
2020-02-25,12.100000381469727,12.199999809265137,11.0,11.329999923706055,11.329999923706055,8289700
2020-02-26,8.489999771118164,8.600000381469727,7.869999885559082,8.0,8.0,26177500
2020-02-27,7.440000057220459,7.980000019073486,7.170000076293945,7.809999942779541,7.809999942779541,11845600
2020-02-28,7.460000038146973,7.730000019073486,7.150000095367432,7.480000019073486,7.480000019073486,6849300
2020-03-02,7.46999979019165,7.599999904632568,7.019999980926514,7.329999923706055,7.329999923706055,5575900
2020-03-03,7.369999885559082,7.940000057220459,7.329999923706055,7.610000133514404,7.610000133514404,4916000
2020-03-04,8.079999923706055,8.25,7.860000133514404,8.1899995803833,8.1899995803833,5070200
2020-03-05,8.029999732971191,9.199999809265137,8.0,8.25,8.25,9282400
2020-03-06,8.039999961853027,8.399999618530273,7.800000190734863,8.0600004196167,8.0600004196167,3804400
2020-03-09,7.079999923706055,7.449999809265137,7.0,7.0,7.0,4689600
2020-03-10,7.550000190734863,7.690000057220459,6.510000228881836,6.860000133514404,6.860000133514404,5782200
2020-03-11,7.090000152587891,7.199999809265137,6.460000038146973,6.489999771118164,6.489999771118164,4778500
2020-03-12,5.849999904632568,5.869999885559082,5.059999942779541,5.300000190734863,5.300000190734863,7663700
2020-03-13,5.900000095367432,6.150000095367432,5.389999866485596,5.489999771118164,5.489999771118164,7927000
2020-03-16,4.980000019073486,4.989999771118164,4.369999885559082,4.400000095367432,4.400000095367432,4710400
2020-03-17,4.590000152587891,5.650000095367432,4.349999904632568,4.980000019073486,4.980000019073486,5368000
2020-03-18,4.570000171661377,4.989999771118164,3.700000047683716,3.990000009536743,3.990000009536743,5480800
2020-03-19,3.990000009536743,4.389999866485596,3.75,4.010000228881836,4.010000228881836,4980100
2020-03-20,4.449999809265137,4.840000152587891,4.099999904632568,4.099999904632568,4.099999904632568,5925500
2020-03-23,4.130000114440918,4.230000019073486,3.880000114440918,4.090000152587891,4.090000152587891,2468600
2020-03-24,4.260000228881836,4.679999828338623,4.25,4.28000020980835,4.28000020980835,8023100
2020-03-25,4.380000114440918,4.480000019073486,4.25,4.28000020980835,4.28000020980835,6880800
2020-03-26,4.099999904632568,6.860000133514404,4.099999904632568,4.849999904632568,4.849999904632568,23034900
2020-03-27,5.25,6.230000019073486,5.010000228881836,5.5,5.5,17560000
2020-03-30,5.730000019073486,5.75,4.889999866485596,4.940000057220459,4.940000057220459,7409400
2020-03-31,4.909999847412109,5.300000190734863,4.659999847412109,4.670000076293945,4.670000076293945,4727800
2020-04-01,4.5,4.539999961853027,4.070000171661377,4.159999847412109,4.159999847412109,5762400
2020-04-02,4.110000133514404,4.309999942779541,3.930000066757202,4.050000190734863,4.050000190734863,6051300
2020-04-03,4.050000190734863,4.099999904632568,3.640000104904175,3.880000114440918,3.880000114440918,5495800
2020-04-06,4.050000190734863,4.410999774932861,3.950000047683716,4.210000038146973,4.210000038146973,10588500
2020-04-07,4.320000171661377,4.460000038146973,3.9100000858306885,4.039999961853027,4.039999961853027,11224200
2020-04-08,4.050000190734863,4.619999885559082,4.010000228881836,4.349999904632568,4.349999904632568,11122500
2020-04-09,4.619999885559082,4.888999938964844,4.349999904632568,4.360000133514404,4.360000133514404,8378400
2020-04-13,4.5,4.53000020980835,4.0,4.119999885559082,4.119999885559082,8301000
2020-04-14,4.28000020980835,4.389999866485596,4.170000076293945,4.269999980926514,4.269999980926514,6591700
2020-04-15,4.079999923706055,4.25,4.019999980926514,4.179999828338623,4.179999828338623,5192400
2020-04-16,4.190000057220459,4.300000190734863,4.050000190734863,4.159999847412109,4.159999847412109,5022800
2020-04-17,4.320000171661377,4.789999961853027,4.25,4.650000095367432,4.650000095367432,10228400
2020-04-20,4.489999771118164,5.179999828338623,4.409999847412109,4.684999942779541,4.684999942779541,9649700
2020-04-21,4.539999961853027,4.949999809265137,4.519999980926514,4.769999980926514,4.769999980926514,5063900
2020-04-22,5.070000171661377,5.869999885559082,4.960000038146973,5.53000020980835,5.53000020980835,15073700
2020-04-23,5.78000020980835,6.079999923706055,5.25,5.28000020980835,5.28000020980835,12224200
2020-04-24,5.440000057220459,5.679999828338623,5.210000038146973,5.28000020980835,5.28000020980835,5688800
2020-04-27,5.440000057220459,5.670000076293945,5.329999923706055,5.389999866485596,5.389999866485596,5840800
2020-04-28,6.760000228881836,6.800000190734863,6.130000114440918,6.710000038146973,6.710000038146973,33019800
2020-04-29,6.739999771118164,7.150000095367432,6.400000095367432,6.820000171661377,6.820000171661377,14921100
2020-04-30,6.78000020980835,8.0,6.599999904632568,7.71999979019165,7.71999979019165,19001800
2020-05-01,7.349999904632568,7.699999809265137,6.630000114440918,6.949999809265137,6.949999809265137,11511700
2020-05-04,6.599999904632568,7.380000114440918,6.599999904632568,6.949999809265137,6.949999809265137,7593300
2020-05-05,7.210000038146973,7.489999771118164,6.75,6.75,6.75,7651700
2020-05-06,7.869999885559082,8.279999732971191,7.260000228881836,7.460000038146973,7.460000038146973,19825100
2020-05-07,7.840000152587891,7.880000114440918,7.380000114440918,7.559999942779541,7.559999942779541,8891700
2020-05-08,7.610000133514404,8.199999809265137,7.539999961853027,8.020000457763672,8.020000457763672,11179300
2020-05-11,8.25,9.241999626159668,8.109999656677246,9.1899995803833,9.1899995803833,19318200
2020-05-12,10.039999961853027,10.25,8.069999694824219,8.09000015258789,8.09000015258789,28837400
2020-05-13,8.5,8.510000228881836,7.400000095367432,7.71999979019165,7.71999979019165,18911100
2020-05-14,6.800000190734863,7.775000095367432,6.309999942779541,7.0,7.0,19348600
2020-05-15,6.900000095367432,7.0,6.5,6.860000133514404,6.860000133514404,9036300
2020-05-18,7.090000152587891,7.199999809265137,6.739999771118164,6.760000228881836,6.760000228881836,8995300
2020-05-19,6.800000190734863,7.449999809265137,6.800000190734863,7.159999847412109,7.159999847412109,9328300
2020-05-20,7.260000228881836,7.349999904632568,6.849999904632568,6.980000019073486,6.980000019073486,7246300
2020-05-21,6.889999866485596,7.699999809265137,6.869999885559082,7.639999866485596,7.639999866485596,12068700
2020-05-22,7.630000114440918,7.639999866485596,7.349999904632568,7.599999904632568,7.599999904632568,5549900
2020-05-26,7.800000190734863,7.849999904632568,7.349999904632568,7.5,7.5,5351300
2020-05-27,7.929999828338623,7.949999809265137,7.429999828338623,7.840000152587891,7.840000152587891,7649200
2020-05-28,7.739999771118164,8.109999656677246,7.550000190734863,7.630000114440918,7.630000114440918,6302400
2020-05-29,7.550000190734863,7.809999942779541,7.340000152587891,7.809999942779541,7.809999942779541,5572500
2020-06-01,7.690000057220459,8.199999809265137,7.550000190734863,8.069999694824219,8.069999694824219,6034900
2020-06-02,8.229999542236328,8.539999961853027,8.020000457763672,8.329999923706055,8.329999923706055,7554600
2020-06-03,8.399999618530273,8.739999771118164,8.319999694824219,8.65999984741211,8.65999984741211,6431900
2020-06-04,8.600000381469727,8.739999771118164,8.3100004196167,8.470000267028809,8.470000267028809,6109100
2020-06-05,8.65999984741211,9.399999618530273,8.550000190734863,8.8100004196167,8.8100004196167,10144600
2020-06-08,9.010000228881836,9.550000190734863,8.989999771118164,9.40999984741211,9.40999984741211,6718300
2020-06-09,9.130000114440918,9.869999885559082,8.649999618530273,8.699999809265137,8.699999809265137,8406200
2020-06-10,8.869999885559082,9.081999778747559,7.75,8.15999984741211,8.15999984741211,7500400
2020-06-11,7.409999847412109,7.619999885559082,7.010000228881836,7.159999847412109,7.159999847412109,7986200
2020-06-12,7.550000190734863,7.599999904632568,7.050000190734863,7.360000133514404,7.360000133514404,5476300
2020-06-15,7.039999961853027,7.639999866485596,7.010000228881836,7.539999961853027,7.539999961853027,4545800
2020-06-16,7.880000114440918,8.170000076293945,7.599999904632568,8.09000015258789,8.09000015258789,5938800
2020-06-17,8.039999961853027,8.199999809265137,7.789999961853027,7.909999847412109,7.909999847412109,3063800
2020-06-18,7.739999771118164,8.300000190734863,7.703999996185303,8.039999961853027,8.039999961853027,5315900
2020-06-19,8.180000305175781,8.239999771118164,7.800000190734863,7.980000019073486,7.980000019073486,5850800
2020-06-22,7.860000133514404,7.900000095367432,7.239999771118164,7.389999866485596,7.389999866485596,7650500
2020-06-23,7.449999809265137,7.690000057220459,7.409999847412109,7.650000095367432,7.650000095367432,4116500
2020-06-24,7.460000038146973,7.519999980926514,7.050000190734863,7.139999866485596,7.139999866485596,4947700
2020-06-25,7.079999923706055,7.46999979019165,7.010000228881836,7.449999809265137,7.449999809265137,4910700
2020-06-26,7.360000133514404,7.5,7.135000228881836,7.5,7.5,4237400
2020-06-29,7.550000190734863,7.71999979019165,7.330999851226807,7.710000038146973,7.710000038146973,3267500
2020-06-30,7.679999828338623,7.909999847412109,7.480000019073486,7.900000095367432,7.900000095367432,3094300
2020-07-01,7.949999809265137,8.1899995803833,7.927999973297119,8.100000381469727,8.100000381469727,3487600
2020-07-02,8.25,8.477999687194824,8.09000015258789,8.100000381469727,8.100000381469727,4561700
2020-07-06,8.289999961853027,8.345000267028809,8.079999923706055,8.329999923706055,8.329999923706055,3800100
2020-07-07,8.220000267028809,8.34000015258789,8.100000381469727,8.210000038146973,8.210000038146973,2349300
2020-07-08,8.140000343322754,8.3100004196167,7.869999885559082,8.239999771118164,8.239999771118164,3693400
2020-07-09,8.220000267028809,8.260000228881836,7.940000057220459,8.079999923706055,8.079999923706055,3405500
2020-07-10,8.0,8.399999618530273,7.989999771118164,8.260000228881836,8.260000228881836,3364700
2020-07-13,8.609999656677246,9.220000267028809,8.539999961853027,8.864999771118164,8.864999771118164,8458600
2020-07-14,8.850000381469727,9.170000076293945,8.430000305175781,8.729999542236328,8.729999542236328,4876300
2020-07-15,8.850000381469727,8.899999618530273,8.649999618530273,8.75,8.75,2848800
2020-07-16,8.529999732971191,8.71500015258789,8.4399995803833,8.5600004196167,8.5600004196167,2138100
2020-07-17,8.510000228881836,8.645999908447266,8.399999618530273,8.470000267028809,8.470000267028809,1864300
2020-07-20,8.430000305175781,8.539999961853027,8.300000190734863,8.420000076293945,8.420000076293945,1507900
2020-07-21,8.470000267028809,9.300000190734863,8.45199966430664,9.265000343322754,9.265000343322754,5856800
2020-07-22,9.149999618530273,10.100000381469727,8.949999809265137,9.119999885559082,9.119999885559082,8571700
2020-07-23,9.119999885559082,9.220000267028809,8.4399995803833,8.460000038146973,8.460000038146973,4330400
2020-07-24,8.380000114440918,8.633999824523926,8.199999809265137,8.4399995803833,8.4399995803833,3247100
2020-07-27,8.506999969482422,8.869999885559082,8.449999809265137,8.819999694824219,8.819999694824219,2491400
2020-07-28,8.789999961853027,8.9399995803833,8.4399995803833,8.449999809265137,8.449999809265137,2272200
2020-07-29,8.890000343322754,9.220000267028809,8.654999732971191,8.670000076293945,8.670000076293945,4205400
2020-07-30,8.569999694824219,8.739999771118164,8.210000038146973,8.649999618530273,8.649999618530273,3925700
2020-07-31,8.65999984741211,8.720000267028809,8.279999732971191,8.449999809265137,8.449999809265137,2385900
2020-08-03,8.550000190734863,8.600000381469727,8.319999694824219,8.529999732971191,8.529999732971191,2158000
2020-08-04,8.5,8.859999656677246,8.319999694824219,8.789999961853027,8.789999961853027,3275500
2020-08-05,8.789999961853027,9.420000076293945,8.619999885559082,9.369999885559082,9.369999885559082,5994600
2020-08-06,9.34000015258789,9.350000381469727,8.824999809265137,9.050000190734863,9.050000190734863,3494700
2020-08-07,9.069999694824219,9.329999923706055,8.869999885559082,9.050000190734863,9.050000190734863,3061900
2020-08-10,9.220000267028809,9.418000221252441,8.899999618530273,8.930000305175781,8.930000305175781,4376700
2020-08-11,9.050000190734863,9.09000015258789,8.600000381469727,8.949999809265137,8.949999809265137,5115200
2020-08-12,9.010000228881836,9.5600004196167,8.980999946594238,9.319999694824219,9.319999694824219,9631200
2020-08-13,8.760000228881836,8.800000190734863,7.75,7.840000152587891,7.840000152587891,15299800
2020-08-14,7.949999809265137,8.029999732971191,7.550000190734863,7.630000114440918,7.630000114440918,5549200
2020-08-17,7.642000198364258,7.650000095367432,7.25,7.289999961853027,7.289999961853027,6305500
2020-08-18,7.369999885559082,7.809999942779541,7.199999809265137,7.71999979019165,7.71999979019165,5458300
2020-08-19,8.029999732971191,8.119999885559082,7.840000152587891,7.96999979019165,7.96999979019165,5667700
2020-08-20,7.860000133514404,7.900000095367432,7.619999885559082,7.670000076293945,7.670000076293945,2797900
2020-08-21,7.650000095367432,7.730000019073486,7.440000057220459,7.670000076293945,7.670000076293945,2562500
2020-08-24,7.659999847412109,7.78000020980835,7.460000038146973,7.510000228881836,7.510000228881836,3106500
2020-08-25,7.480000019073486,7.519999980926514,7.159999847412109,7.309999942779541,7.309999942779541,4377200
2020-08-26,7.260000228881836,7.53000020980835,7.179999828338623,7.519999980926514,7.519999980926514,3404500
2020-08-27,7.449999809265137,7.670000076293945,7.380000114440918,7.579999923706055,7.579999923706055,2423200
2020-08-28,7.685999870300293,7.685999870300293,7.360000133514404,7.539999961853027,7.539999961853027,1872700
2020-08-31,7.679999828338623,8.25,7.598999977111816,8.119999885559082,8.119999885559082,8666500
2020-09-01,8.260000228881836,8.279999732971191,7.625,7.869999885559082,7.869999885559082,4083700
2020-09-02,8.510000228881836,9.989999771118164,8.5,9.800000190734863,9.800000190734863,38052000
2020-09-03,9.869999885559082,10.920000076293945,9.600000381469727,10.270000457763672,10.270000457763672,19409700
2020-09-04,10.050000190734863,10.149999618530273,9.359999656677246,9.574999809265137,9.574999809265137,6952700
2020-09-08,9.387999534606934,10.8100004196167,9.312000274658203,10.569999694824219,10.569999694824219,11480500
2020-09-09,11.010000228881836,11.4399995803833,10.5600004196167,11.270000457763672,11.270000457763672,11811500
2020-09-10,11.145000457763672,11.914999961853027,11.140000343322754,11.369999885559082,11.369999885559082,8964100
2020-09-11,11.430000305175781,11.614999771118164,10.479999542236328,10.720000267028809,10.720000267028809,7045100
2020-09-14,10.699999809265137,11.829999923706055,10.697999954223633,11.5600004196167,11.5600004196167,5113200
2020-09-15,11.720000267028809,12.329999923706055,11.630000114440918,11.930000305175781,11.930000305175781,5326500
2020-09-16,11.9399995803833,12.329999923706055,11.579999923706055,11.75,11.75,4419300
2020-09-17,11.65999984741211,12.199999809265137,11.420000076293945,11.640000343322754,11.640000343322754,5001600
2020-09-18,11.720000267028809,12.029999732971191,11.569999694824219,11.829999923706055,11.829999923706055,5409100
2020-09-21,11.3100004196167,11.369999885559082,10.199999809265137,10.59000015258789,10.59000015258789,6617800
2020-09-22,10.699999809265137,11.3100004196167,10.550000190734863,11.1899995803833,11.1899995803833,4568300
2020-09-23,11.039999961853027,11.079999923706055,10.279999732971191,10.359999656677246,10.359999656677246,3846600
2020-09-24,10.149999618530273,10.880000114440918,9.869999885559082,10.670000076293945,10.670000076293945,4442100
2020-09-25,10.65999984741211,11.319999694824219,10.609999656677246,11.260000228881836,11.260000228881836,3509000
2020-09-28,11.4399995803833,11.829999923706055,11.350000381469727,11.529999732971191,11.529999732971191,3353300
2020-09-29,11.510000228881836,12.029999732971191,11.489999771118164,11.609999656677246,11.609999656677246,4263000
2020-09-30,11.59000015258789,12.010000228881836,11.279999732971191,11.680000305175781,11.680000305175781,5380800
2020-10-01,11.760000228881836,12.020000457763672,11.380000114440918,11.585000038146973,11.585000038146973,3562100
2020-10-02,11.220000267028809,11.470000267028809,10.84000015258789,11.199999809265137,11.199999809265137,5956300
2020-10-05,11.319999694824219,11.670000076293945,11.239999771118164,11.479999542236328,11.479999542236328,3667500
2020-10-06,11.630000114440918,12.149999618530273,11.359999656677246,11.680000305175781,11.680000305175781,6205700
2020-10-07,12.020000457763672,13.420000076293945,12.020000457763672,12.529999732971191,12.529999732971191,9693000
2020-10-08,12.850000381469727,12.9399995803833,12.329999923706055,12.699999809265137,12.699999809265137,4631500
2020-10-09,12.760000228881836,12.84000015258789,12.359999656677246,12.369999885559082,12.369999885559082,2618600
2020-10-12,12.520000457763672,12.819999694824219,12.380000114440918,12.510000228881836,12.510000228881836,2958600
2020-10-13,12.5,12.529999732971191,11.930000305175781,12.279999732971191,12.279999732971191,3625100
2020-10-14,12.300000190734863,12.369999885559082,11.850000381469727,11.859999656677246,11.859999656677246,3029000
2020-10-15,11.720000267028809,12.6899995803833,11.550000190734863,12.130000114440918,12.130000114440918,5480400
2020-10-16,12.199999809265137,12.34000015258789,11.850000381469727,11.920000076293945,11.920000076293945,3450000
2020-10-19,11.960000038146973,12.180000305175781,11.020000457763672,11.069999694824219,11.069999694824219,5669200
2020-10-20,11.1899995803833,11.5,10.949999809265137,11.375,11.375,3460000
2020-10-21,11.319999694824219,11.460000038146973,10.869999885559082,11.229999542236328,11.229999542236328,3792000
2020-10-22,12.569999694824219,13.359999656677246,11.539999961853027,12.114999771118164,12.114999771118164,17991500
2020-10-23,12.199999809265137,12.281000137329102,11.300000190734863,11.359999656677246,11.359999656677246,7118100
2020-10-26,11.149999618530273,11.1899995803833,10.100000381469727,10.1899995803833,10.1899995803833,8896600
2020-10-27,10.25,10.414999961853027,9.670000076293945,9.880000114440918,9.880000114440918,6120900
2020-10-28,9.460000038146973,9.710000038146973,9.210000038146973,9.420000076293945,9.420000076293945,5178400
2020-10-29,9.449999809265137,9.699999809265137,9.15999984741211,9.289999961853027,9.289999961853027,4121700
2020-10-30,9.220000267028809,9.3100004196167,8.633999824523926,8.899999618530273,8.899999618530273,7938600
2020-11-02,9.109999656677246,9.369999885559082,8.859999656677246,8.9399995803833,8.9399995803833,5879700
2020-11-03,9.069999694824219,9.640000343322754,9.038999557495117,9.390000343322754,9.390000343322754,6130700
2020-11-04,9.543000221252441,9.890000343322754,9.4399995803833,9.59000015258789,9.59000015258789,4191400
2020-11-05,9.850000381469727,10.329999923706055,9.770000457763672,10.149999618530273,10.149999618530273,4493800
2020-11-06,10.050000190734863,10.545000076293945,9.880999565124512,10.100000381469727,10.100000381469727,3645600
2020-11-09,10.699999809265137,11.229999542236328,9.970000267028809,9.989999771118164,9.989999771118164,6466300
2020-11-10,10.119999885559082,10.399999618530273,9.819999694824219,9.920000076293945,9.920000076293945,4742000
2020-11-11,9.970000267028809,10.059000015258789,9.520000457763672,9.800000190734863,9.800000190734863,4777900
2020-11-12,9.789999961853027,9.84000015258789,9.359999656677246,9.489999771118164,9.489999771118164,4542500
2020-11-13,9.6899995803833,9.960000038146973,9.345000267028809,9.40999984741211,9.40999984741211,7351100
2020-11-16,9.670000076293945,10.029999732971191,9.390000343322754,9.960000038146973,9.960000038146973,14888600
2020-11-17,9.649999618530273,10.4399995803833,9.050000190734863,10.25,10.25,18233300
2020-11-18,10.3100004196167,11.75,10.039999961853027,11.279999732971191,11.279999732971191,15001000
2020-11-19,11.25,11.597000122070312,10.850000381469727,11.069999694824219,11.069999694824219,8007400
2020-11-20,11.130000114440918,11.270000457763672,10.579999923706055,10.90999984741211,10.90999984741211,5587700
2020-11-23,11.225000381469727,12.597999572753906,11.210000038146973,12.479999542236328,12.479999542236328,10614600
2020-11-24,11.729999542236328,12.1899995803833,11.329999923706055,12.029999732971191,12.029999732971191,12227000
2020-11-25,11.960000038146973,12.489999771118164,11.630000114440918,12.100000381469727,12.100000381469727,4878900
2020-11-27,12.09000015258789,12.270000457763672,11.869999885559082,12.180000305175781,12.180000305175781,2098900
2020-11-30,12.199999809265137,12.8100004196167,11.920000076293945,12.300000190734863,12.300000190734863,8865900
2020-12-01,12.579999923706055,12.59000015258789,11.779999732971191,11.819999694824219,11.819999694824219,5070100
2020-12-02,11.850000381469727,12.069999694824219,11.40999984741211,11.9399995803833,11.9399995803833,3676000
2020-12-03,11.960000038146973,12.220000267028809,11.425000190734863,11.479999542236328,11.479999542236328,4579100
2020-12-04,11.520000457763672,11.59000015258789,11.100000381469727,11.170000076293945,11.170000076293945,3684100
2020-12-07,11.15999984741211,11.359999656677246,10.753000259399414,10.869999885559082,10.869999885559082,4669100
2020-12-08,11.329999923706055,11.8100004196167,11.119999885559082,11.220000267028809,11.220000267028809,5536500
2020-12-09,11.359999656677246,11.760000228881836,11.210000038146973,11.449999809265137,11.449999809265137,4537300
2020-12-10,11.319999694824219,12.109999656677246,11.119999885559082,11.979999542236328,11.979999542236328,5334400
2020-12-11,11.880000114440918,12.100000381469727,11.420000076293945,11.510000228881836,11.510000228881836,3418200
2020-12-14,11.842000007629395,11.850000381469727,11.210000038146973,11.260000228881836,11.260000228881836,3425500
2020-12-15,11.300000190734863,11.680000305175781,11.130000114440918,11.5600004196167,11.5600004196167,2486500
2020-12-16,11.550000190734863,11.579999923706055,11.199999809265137,11.5,11.5,2466100
2020-12-17,11.470000267028809,11.789999961853027,11.411999702453613,11.739999771118164,11.739999771118164,2613400
2020-12-18,11.725000381469727,12.260000228881836,11.579999923706055,12.100000381469727,12.100000381469727,5246200
2020-12-21,11.90999984741211,13.880000114440918,11.880000114440918,13.829999923706055,13.829999923706055,14824900
2020-12-22,13.579999923706055,14.140000343322754,13.260000228881836,13.430000305175781,13.430000305175781,6274000
2020-12-23,13.520000457763672,13.920000076293945,13.329999923706055,13.579999923706055,13.579999923706055,3281800
2020-12-24,13.729999542236328,13.729999542236328,13.104999542236328,13.430000305175781,13.430000305175781,2116300
2020-12-28,13.579999923706055,13.600000381469727,12.119999885559082,12.369999885559082,12.369999885559082,7593000
2020-12-29,12.319999694824219,12.59000015258789,11.880000114440918,12.119999885559082,12.119999885559082,3783500
2020-12-30,12.109999656677246,12.539999961853027,12.09000015258789,12.210000038146973,12.210000038146973,2808200
