Date,Open,High,Low,Close,Adj Close,Volume
2020-12-03,25.81999969482422,25.969999313354492,25.75,25.799999237060547,25.175870895385742,764600
2020-12-04,26.0,26.0,25.700000762939453,25.799999237060547,25.175870895385742,203500
2020-12-07,25.799999237060547,26.0,25.5,25.5,24.883129119873047,588200
2020-12-08,25.75,25.75,25.5,25.549999237060547,24.93191909790039,93100
2020-12-09,25.549999237060547,25.950000762939453,25.549999237060547,25.899999618530273,25.273452758789062,4400
2020-12-10,25.809999465942383,25.8799991607666,25.719999313354492,25.799999237060547,25.175870895385742,45900
2020-12-11,25.716999053955078,25.7549991607666,25.610000610351562,25.610000610351562,24.990468978881836,20700
2020-12-14,25.610000610351562,25.639999389648438,25.5,25.530000686645508,24.912405014038086,25400
2020-12-15,25.65999984741211,25.670000076293945,25.559999465942383,25.670000076293945,25.04901695251465,23500
2020-12-16,25.700000762939453,25.780000686645508,25.600000381469727,25.780000686645508,25.156356811523438,13100
2020-12-17,25.780000686645508,25.8799991607666,25.68000030517578,25.780000686645508,25.156356811523438,68700
2020-12-18,25.854999542236328,25.899999618530273,25.719999313354492,25.770000457763672,25.146596908569336,57200
2020-12-21,25.719999313354492,25.739999771118164,25.649999618530273,25.649999618530273,25.029499053955078,20300
2020-12-22,25.719999313354492,25.790000915527344,25.549999237060547,25.649999618530273,25.029499053955078,10500
2020-12-23,25.625,25.799999237060547,25.520000457763672,25.739999771118164,25.11732292175293,39500
2020-12-24,25.65999984741211,25.709999084472656,25.610000610351562,25.700000762939453,25.078292846679688,2100
2020-12-28,25.6299991607666,25.770000457763672,25.6299991607666,25.719999313354492,25.097806930541992,30300
2020-12-29,25.709999084472656,25.920000076293945,25.65999984741211,25.760000228881836,25.136838912963867,245800
2020-12-30,25.788000106811523,25.829999923706055,25.74799919128418,25.809999465942383,25.18562889099121,126000
