Date,Open,High,Low,Close,Adj Close,Volume
2019-03-07,9.789999961853027,9.789999961853027,9.789999961853027,9.789999961853027,9.789999961853027,11600
2019-03-08,9.789999961853027,9.789999961853027,9.789999961853027,9.789999961853027,9.789999961853027,0
2019-03-11,9.789999961853027,9.789999961853027,9.789999961853027,9.789999961853027,9.789999961853027,19500
2019-03-12,9.789999961853027,9.850000381469727,9.789999961853027,9.850000381469727,9.850000381469727,105800
2019-03-13,9.789999961853027,9.789999961853027,9.789999961853027,9.789999961853027,9.789999961853027,53900
2019-03-14,9.789999961853027,9.789999961853027,9.789999961853027,9.789999961853027,9.789999961853027,0
2019-03-15,9.789999961853027,9.789999961853027,9.789999961853027,9.789999961853027,9.789999961853027,0
2019-03-18,9.789999961853027,9.789999961853027,9.789999961853027,9.789999961853027,9.789999961853027,100
2019-03-19,9.789999961853027,9.789999961853027,9.789999961853027,9.789999961853027,9.789999961853027,0
2019-03-20,9.789999961853027,9.789999961853027,9.789999961853027,9.789999961853027,9.789999961853027,0
2019-03-21,9.789999961853027,9.789999961853027,9.789999961853027,9.789999961853027,9.789999961853027,100
2019-03-22,9.789999961853027,9.789999961853027,9.789999961853027,9.789999961853027,9.789999961853027,100
2019-03-25,9.789999961853027,9.789999961853027,9.789999961853027,9.789999961853027,9.789999961853027,100
2019-03-26,9.789999961853027,9.829999923706055,9.789999961853027,9.8100004196167,9.8100004196167,45600
2019-03-27,9.798999786376953,9.798999786376953,9.789999961853027,9.789999961853027,9.789999961853027,35000
2019-03-28,9.789999961853027,9.789999961853027,9.789999961853027,9.789999961853027,9.789999961853027,0
2019-03-29,9.850000381469727,9.852999687194824,9.817999839782715,9.819999694824219,9.819999694824219,36200
2019-04-01,9.59000015258789,9.819999694824219,9.59000015258789,9.819999694824219,9.819999694824219,191100
2019-04-02,9.800000190734863,9.829999923706055,9.800000190734863,9.800000190734863,9.800000190734863,12100
2019-04-03,9.800000190734863,9.8100004196167,9.800000190734863,9.8100004196167,9.8100004196167,23400
2019-04-04,9.800000190734863,9.84000015258789,9.789999961853027,9.789999961853027,9.789999961853027,386000
2019-04-05,9.779999732971191,9.829999923706055,9.779999732971191,9.800000190734863,9.800000190734863,17200
2019-04-08,9.800000190734863,9.800000190734863,9.800000190734863,9.800000190734863,9.800000190734863,0
2019-04-09,9.800000190734863,9.800000190734863,9.800000190734863,9.800000190734863,9.800000190734863,100
2019-04-10,9.800000190734863,9.805000305175781,9.795000076293945,9.800000190734863,9.800000190734863,43200
2019-04-11,9.800000190734863,9.800000190734863,9.789999961853027,9.800000190734863,9.800000190734863,60600
2019-04-12,9.829999923706055,9.835000038146973,9.829999923706055,9.829999923706055,9.829999923706055,235700
2019-04-15,9.829999923706055,9.84000015258789,9.829999923706055,9.84000015258789,9.84000015258789,138800
2019-04-16,9.880000114440918,9.925000190734863,9.84000015258789,9.84000015258789,9.84000015258789,3500
2019-04-17,9.880000114440918,10.239999771118164,9.84000015258789,10.050000190734863,10.050000190734863,74200
2019-04-18,10.050000190734863,10.050000190734863,10.050000190734863,10.050000190734863,10.050000190734863,0
2019-04-22,10.0,10.0,9.899999618530273,9.96500015258789,9.96500015258789,12700
2019-04-23,9.96500015258789,9.96500015258789,9.96500015258789,9.96500015258789,9.96500015258789,0
2019-04-24,9.880000114440918,9.880000114440918,9.880000114440918,9.880000114440918,9.880000114440918,100
2019-04-25,9.880000114440918,9.880000114440918,9.880000114440918,9.880000114440918,9.880000114440918,12100
2019-04-26,9.880000114440918,9.880000114440918,9.880000114440918,9.880000114440918,9.880000114440918,100
2019-04-29,9.90999984741211,9.90999984741211,9.899999618530273,9.899999618530273,9.899999618530273,4000
2019-04-30,9.899999618530273,9.899999618530273,9.899999618530273,9.899999618530273,9.899999618530273,100
2019-05-01,9.899999618530273,9.899999618530273,9.899999618530273,9.899999618530273,9.899999618530273,0
2019-05-02,9.899999618530273,9.899999618530273,9.899999618530273,9.899999618530273,9.899999618530273,0
2019-05-03,9.899999618530273,9.899999618530273,9.899999618530273,9.899999618530273,9.899999618530273,0
2019-05-06,9.899999618530273,9.899999618530273,9.899999618530273,9.899999618530273,9.899999618530273,0
2019-05-07,9.899999618530273,9.899999618530273,9.899999618530273,9.899999618530273,9.899999618530273,0
2019-05-08,9.899999618530273,9.899999618530273,9.899999618530273,9.899999618530273,9.899999618530273,0
2019-05-09,9.899999618530273,9.899999618530273,9.899999618530273,9.899999618530273,9.899999618530273,0
2019-05-10,9.899999618530273,9.899999618530273,9.899999618530273,9.899999618530273,9.899999618530273,0
2019-05-13,9.899999618530273,9.899999618530273,9.899999618530273,9.899999618530273,9.899999618530273,0
2019-05-14,9.899999618530273,9.899999618530273,9.899999618530273,9.899999618530273,9.899999618530273,0
2019-05-15,9.899999618530273,9.899999618530273,9.899999618530273,9.899999618530273,9.899999618530273,0
2019-05-16,9.899999618530273,9.899999618530273,9.899999618530273,9.899999618530273,9.899999618530273,0
2019-05-17,9.869999885559082,9.869999885559082,9.869999885559082,9.869999885559082,9.869999885559082,400
2019-05-20,9.869999885559082,9.869999885559082,9.869999885559082,9.869999885559082,9.869999885559082,0
2019-05-21,9.869999885559082,9.869999885559082,9.869999885559082,9.869999885559082,9.869999885559082,0
2019-05-22,9.869999885559082,9.869999885559082,9.869999885559082,9.869999885559082,9.869999885559082,0
2019-05-23,9.869999885559082,9.869999885559082,9.869999885559082,9.869999885559082,9.869999885559082,0
2019-05-24,9.869999885559082,9.869999885559082,9.869999885559082,9.869999885559082,9.869999885559082,0
2019-05-28,9.880000114440918,9.890000343322754,9.880000114440918,9.890000343322754,9.890000343322754,11700
2019-05-29,9.890000343322754,9.890000343322754,9.890000343322754,9.890000343322754,9.890000343322754,0
2019-05-30,9.890000343322754,9.890000343322754,9.890000343322754,9.890000343322754,9.890000343322754,0
2019-05-31,9.890000343322754,9.890000343322754,9.890000343322754,9.890000343322754,9.890000343322754,0
2019-06-03,9.890000343322754,9.890000343322754,9.890000343322754,9.890000343322754,9.890000343322754,100
2019-06-04,9.890000343322754,9.890000343322754,9.890000343322754,9.890000343322754,9.890000343322754,0
2019-06-05,9.890000343322754,9.890000343322754,9.890000343322754,9.890000343322754,9.890000343322754,0
2019-06-06,9.869999885559082,9.869999885559082,9.869999885559082,9.869999885559082,9.869999885559082,1400
2019-06-07,9.899999618530273,9.899999618530273,9.899999618530273,9.899999618530273,9.899999618530273,4500
2019-06-10,10.069999694824219,10.069999694824219,10.0,10.0,10.0,600
2019-06-11,10.0,10.0,10.0,10.0,10.0,0
2019-06-12,10.0,10.0,10.0,10.0,10.0,0
2019-06-13,10.220000267028809,10.220000267028809,10.109999656677246,10.140000343322754,10.140000343322754,700
2019-06-14,10.140000343322754,10.140000343322754,10.140000343322754,10.140000343322754,10.140000343322754,0
2019-06-17,10.140000343322754,10.140000343322754,10.140000343322754,10.140000343322754,10.140000343322754,0
2019-06-18,10.100000381469727,10.100000381469727,10.100000381469727,10.100000381469727,10.100000381469727,100
2019-06-19,10.100000381469727,10.100000381469727,10.100000381469727,10.100000381469727,10.100000381469727,0
2019-06-20,10.100000381469727,10.100000381469727,10.100000381469727,10.100000381469727,10.100000381469727,0
2019-06-21,10.100000381469727,10.100000381469727,10.100000381469727,10.100000381469727,10.100000381469727,0
2019-06-24,10.100000381469727,10.100000381469727,10.100000381469727,10.100000381469727,10.100000381469727,100
2019-06-25,10.100000381469727,10.100000381469727,10.100000381469727,10.100000381469727,10.100000381469727,0
2019-06-26,10.100000381469727,10.100000381469727,10.100000381469727,10.100000381469727,10.100000381469727,100
2019-06-27,10.234000205993652,10.234000205993652,9.928999900817871,10.187999725341797,10.187999725341797,1600
2019-06-28,10.187999725341797,10.187999725341797,10.187999725341797,10.187999725341797,10.187999725341797,0
2019-07-01,10.187999725341797,10.187999725341797,10.187999725341797,10.187999725341797,10.187999725341797,0
2019-07-02,9.890000343322754,9.890000343322754,9.890000343322754,9.890000343322754,9.890000343322754,5100
2019-07-03,9.890000343322754,9.890000343322754,9.890000343322754,9.890000343322754,9.890000343322754,0
2019-07-05,10.020000457763672,10.020000457763672,10.020000457763672,10.020000457763672,10.020000457763672,400
2019-07-08,10.020000457763672,10.020000457763672,10.020000457763672,10.020000457763672,10.020000457763672,0
2019-07-09,10.289999961853027,10.289999961853027,10.25,10.25,10.25,400
2019-07-10,10.289999961853027,10.289999961853027,10.289999961853027,10.289999961853027,10.289999961853027,1400
2019-07-11,10.0,10.100000381469727,10.0,10.09000015258789,10.09000015258789,201800
2019-07-12,10.100000381469727,10.100000381469727,10.029999732971191,10.053999900817871,10.053999900817871,6000
2019-07-15,10.0,10.03499984741211,10.0,10.03499984741211,10.03499984741211,900
2019-07-16,10.050000190734863,10.050000190734863,10.050000190734863,10.050000190734863,10.050000190734863,16000
2019-07-17,10.050000190734863,10.050000190734863,10.050000190734863,10.050000190734863,10.050000190734863,0
2019-07-18,10.050000190734863,10.050000190734863,10.050000190734863,10.050000190734863,10.050000190734863,417300
2019-07-19,10.0,10.079999923706055,10.0,10.079999923706055,10.079999923706055,300
2019-07-22,10.0,10.079999923706055,10.0,10.079999923706055,10.079999923706055,42500
2019-07-23,10.050000190734863,10.050000190734863,10.050000190734863,10.050000190734863,10.050000190734863,25000
2019-07-24,10.050000190734863,10.050000190734863,10.050000190734863,10.050000190734863,10.050000190734863,0
2019-07-25,10.0600004196167,10.0600004196167,10.029999732971191,10.029999732971191,10.029999732971191,4500
2019-07-26,10.029999732971191,10.0600004196167,10.020000457763672,10.0600004196167,10.0600004196167,4100
2019-07-29,10.029999732971191,10.050000190734863,10.029999732971191,10.050000190734863,10.050000190734863,5100
2019-07-30,10.0600004196167,10.100000381469727,10.0600004196167,10.100000381469727,10.100000381469727,2000
2019-07-31,10.100000381469727,10.100000381469727,10.100000381469727,10.100000381469727,10.100000381469727,0
2019-08-01,10.069999694824219,10.100000381469727,10.069999694824219,10.100000381469727,10.100000381469727,27600
2019-08-02,10.069999694824219,10.100000381469727,10.069999694824219,10.100000381469727,10.100000381469727,100
2019-08-05,10.069999694824219,10.100000381469727,10.069999694824219,10.100000381469727,10.100000381469727,100
2019-08-06,10.069999694824219,10.100000381469727,10.069999694824219,10.100000381469727,10.100000381469727,100
2019-08-07,10.069999694824219,10.100000381469727,10.069999694824219,10.100000381469727,10.100000381469727,100
2019-08-08,10.100000381469727,10.100000381469727,10.100000381469727,10.100000381469727,10.100000381469727,0
2019-08-09,10.010000228881836,10.09000015258789,10.010000228881836,10.09000015258789,10.09000015258789,110400
2019-08-12,10.010000228881836,10.09000015258789,10.010000228881836,10.09000015258789,10.09000015258789,110400
2019-08-13,10.010000228881836,10.09000015258789,10.010000228881836,10.09000015258789,10.09000015258789,110400
2019-08-14,11.329999923706055,11.329999923706055,10.0,10.0600004196167,10.0600004196167,2200
2019-08-15,10.020000457763672,10.079999923706055,10.0,10.079999923706055,10.079999923706055,32100
2019-08-16,10.079999923706055,10.079999923706055,10.079999923706055,10.079999923706055,10.079999923706055,0
2019-08-19,10.079999923706055,10.079999923706055,10.079999923706055,10.079999923706055,10.079999923706055,0
2019-08-20,10.079999923706055,10.079999923706055,10.079999923706055,10.079999923706055,10.079999923706055,0
2019-08-21,10.079999923706055,10.079999923706055,10.079999923706055,10.079999923706055,10.079999923706055,0
2019-08-22,10.050000190734863,10.09000015258789,10.050000190734863,10.09000015258789,10.09000015258789,800
2019-08-23,10.149999618530273,10.149999618530273,10.079999923706055,10.09000015258789,10.09000015258789,3000
2019-08-26,10.0600004196167,10.140000343322754,10.0600004196167,10.140000343322754,10.140000343322754,5200
2019-08-27,10.140000343322754,10.140000343322754,10.140000343322754,10.140000343322754,10.140000343322754,0
2019-08-28,10.140000343322754,10.140000343322754,10.140000343322754,10.140000343322754,10.140000343322754,0
2019-08-29,10.140000343322754,10.140000343322754,10.140000343322754,10.140000343322754,10.140000343322754,0
2019-08-30,10.149999618530273,10.149999618530273,10.100000381469727,10.100000381469727,10.100000381469727,1600
2019-09-03,10.100000381469727,10.100000381469727,10.100000381469727,10.100000381469727,10.100000381469727,0
2019-09-04,10.149999618530273,10.149999618530273,10.149999618530273,10.149999618530273,10.149999618530273,2400
2019-09-05,10.149999618530273,10.149999618530273,10.149999618530273,10.149999618530273,10.149999618530273,0
2019-09-06,10.149999618530273,10.149999618530273,10.149999618530273,10.149999618530273,10.149999618530273,0
2019-09-09,10.149999618530273,10.149999618530273,10.149999618530273,10.149999618530273,10.149999618530273,0
2019-09-10,10.149999618530273,10.149999618530273,10.149999618530273,10.149999618530273,10.149999618530273,0
2019-09-11,10.149999618530273,10.149999618530273,10.149999618530273,10.149999618530273,10.149999618530273,0
2019-09-12,10.149999618530273,10.149999618530273,10.149999618530273,10.149999618530273,10.149999618530273,0
2019-09-13,10.149999618530273,10.149999618530273,10.149999618530273,10.149999618530273,10.149999618530273,0
2019-09-16,10.149999618530273,10.149999618530273,10.149999618530273,10.149999618530273,10.149999618530273,0
2019-09-17,10.149999618530273,10.149999618530273,10.149999618530273,10.149999618530273,10.149999618530273,0
2019-09-18,10.149999618530273,10.149999618530273,10.149999618530273,10.149999618530273,10.149999618530273,0
2019-09-19,10.149999618530273,10.149999618530273,10.149999618530273,10.149999618530273,10.149999618530273,0
2019-09-20,10.149999618530273,10.149999618530273,10.149999618530273,10.149999618530273,10.149999618530273,0
2019-09-23,10.149999618530273,10.149999618530273,10.149999618530273,10.149999618530273,10.149999618530273,0
2019-09-24,10.5600004196167,10.5600004196167,10.100000381469727,10.149999618530273,10.149999618530273,1200
2019-09-25,10.149999618530273,10.149999618530273,10.149999618530273,10.149999618530273,10.149999618530273,0
2019-09-26,10.149999618530273,10.149999618530273,10.149999618530273,10.149999618530273,10.149999618530273,0
2019-09-27,10.149999618530273,10.149999618530273,10.149999618530273,10.149999618530273,10.149999618530273,3500
2019-09-30,10.149999618530273,10.149999618530273,10.149999618530273,10.149999618530273,10.149999618530273,0
2019-10-01,10.149999618530273,10.149999618530273,10.149999618530273,10.149999618530273,10.149999618530273,0
2019-10-02,10.039999961853027,10.390000343322754,10.039999961853027,10.350000381469727,10.350000381469727,282400
2019-10-03,10.140000343322754,10.149999618530273,10.140000343322754,10.149999618530273,10.149999618530273,10000
2019-10-04,10.149999618530273,10.149999618530273,10.149999618530273,10.149999618530273,10.149999618530273,0
2019-10-07,10.149999618530273,10.149999618530273,10.149999618530273,10.149999618530273,10.149999618530273,0
2019-10-08,10.100000381469727,10.149999618530273,10.100000381469727,10.149999618530273,10.149999618530273,200
2019-10-09,10.149999618530273,10.149999618530273,10.149999618530273,10.149999618530273,10.149999618530273,0
2019-10-10,10.100000381469727,10.100000381469727,10.100000381469727,10.100000381469727,10.100000381469727,300
2019-10-11,10.079999923706055,10.149999618530273,10.079999923706055,10.149999618530273,10.149999618530273,600
2019-10-14,10.149999618530273,10.149999618530273,10.149999618530273,10.149999618530273,10.149999618530273,0
2019-10-15,10.149999618530273,10.149999618530273,10.149999618530273,10.149999618530273,10.149999618530273,0
2019-10-16,10.140000343322754,10.199999809265137,10.140000343322754,10.199999809265137,10.199999809265137,1400
2019-10-17,10.199999809265137,10.199999809265137,10.199999809265137,10.199999809265137,10.199999809265137,0
2019-10-18,10.199999809265137,10.199999809265137,10.199999809265137,10.199999809265137,10.199999809265137,100
2019-10-21,10.199999809265137,10.199999809265137,10.199999809265137,10.199999809265137,10.199999809265137,0
2019-10-22,10.199999809265137,10.199999809265137,10.199999809265137,10.199999809265137,10.199999809265137,0
2019-10-23,10.100000381469727,10.149999618530273,10.100000381469727,10.149999618530273,10.149999618530273,5200
2019-10-24,10.149999618530273,10.149999618530273,10.149999618530273,10.149999618530273,10.149999618530273,0
2019-10-25,10.149999618530273,10.149999618530273,10.149999618530273,10.149999618530273,10.149999618530273,0
2019-10-28,10.149999618530273,10.149999618530273,10.149999618530273,10.149999618530273,10.149999618530273,0
2019-10-29,10.149999618530273,10.149999618530273,10.149999618530273,10.149999618530273,10.149999618530273,0
2019-10-30,10.149999618530273,10.149999618530273,10.149999618530273,10.149999618530273,10.149999618530273,100
2019-10-31,9.770000457763672,10.149999618530273,9.770000457763672,10.149999618530273,10.149999618530273,500
2019-11-01,10.109999656677246,10.140000343322754,10.100000381469727,10.140000343322754,10.140000343322754,21500
2019-11-04,10.140000343322754,10.140000343322754,10.140000343322754,10.140000343322754,10.140000343322754,0
2019-11-05,10.119999885559082,10.119999885559082,10.119999885559082,10.119999885559082,10.119999885559082,300
2019-11-06,10.109999656677246,10.109999656677246,10.109999656677246,10.109999656677246,10.109999656677246,100
2019-11-07,10.100000381469727,10.100000381469727,10.100000381469727,10.100000381469727,10.100000381469727,74700
2019-11-08,10.109999656677246,10.109999656677246,10.074999809265137,10.100000381469727,10.100000381469727,106500
2019-11-11,10.100000381469727,10.100000381469727,10.100000381469727,10.100000381469727,10.100000381469727,0
2019-11-12,10.050000190734863,10.149999618530273,10.050000190734863,10.149999618530273,10.149999618530273,5600
2019-11-13,10.15999984741211,10.15999984741211,10.149999618530273,10.149999618530273,10.149999618530273,2200
2019-11-14,10.149999618530273,10.149999618530273,10.149999618530273,10.149999618530273,10.149999618530273,0
2019-11-15,10.149999618530273,10.149999618530273,10.149999618530273,10.149999618530273,10.149999618530273,0
2019-11-18,10.149999618530273,10.149999618530273,10.149999618530273,10.149999618530273,10.149999618530273,0
2019-11-19,10.119999885559082,10.119999885559082,10.119999885559082,10.119999885559082,10.119999885559082,13700
2019-11-20,10.100000381469727,10.119999885559082,10.0,10.119999885559082,10.119999885559082,30700
2019-11-21,10.119999885559082,10.119999885559082,10.119999885559082,10.119999885559082,10.119999885559082,0
2019-11-22,10.119999885559082,10.119999885559082,10.119999885559082,10.119999885559082,10.119999885559082,0
2019-11-25,10.119999885559082,10.119999885559082,10.119999885559082,10.119999885559082,10.119999885559082,47200
2019-11-26,10.130000114440918,10.130000114440918,10.119999885559082,10.119999885559082,10.119999885559082,25100
2019-11-27,10.130000114440918,10.130000114440918,10.130000114440918,10.130000114440918,10.130000114440918,5000
2019-11-29,10.130000114440918,10.130000114440918,10.130000114440918,10.130000114440918,10.130000114440918,0
2019-12-02,10.130000114440918,10.130000114440918,10.130000114440918,10.130000114440918,10.130000114440918,6500
2019-12-03,10.109999656677246,10.130000114440918,10.109999656677246,10.119999885559082,10.119999885559082,70000
2019-12-04,10.119999885559082,10.119999885559082,10.119999885559082,10.119999885559082,10.119999885559082,0
2019-12-05,10.119999885559082,10.119999885559082,10.119999885559082,10.119999885559082,10.119999885559082,8800
2019-12-06,10.130000114440918,10.149999618530273,10.130000114440918,10.140000343322754,10.140000343322754,3500
2019-12-09,10.140000343322754,10.140000343322754,10.140000343322754,10.140000343322754,10.140000343322754,0
2019-12-10,10.119999885559082,10.130000114440918,10.119999885559082,10.130000114440918,10.130000114440918,3500
2019-12-11,10.130000114440918,10.130000114440918,10.130000114440918,10.130000114440918,10.130000114440918,0
2019-12-12,10.130000114440918,10.130000114440918,10.130000114440918,10.130000114440918,10.130000114440918,5000
2019-12-13,10.130000114440918,10.130000114440918,10.130000114440918,10.130000114440918,10.130000114440918,3000
2019-12-16,10.130000114440918,10.130000114440918,10.130000114440918,10.130000114440918,10.130000114440918,0
2019-12-17,10.130000114440918,10.130000114440918,10.130000114440918,10.130000114440918,10.130000114440918,0
2019-12-18,10.130000114440918,10.130000114440918,10.130000114440918,10.130000114440918,10.130000114440918,30000
2019-12-19,10.130000114440918,10.130000114440918,10.130000114440918,10.130000114440918,10.130000114440918,0
2019-12-20,10.130000114440918,10.140000343322754,10.100000381469727,10.119999885559082,10.119999885559082,54600
2019-12-23,10.119999885559082,10.119999885559082,10.119999885559082,10.119999885559082,10.119999885559082,0
2019-12-24,10.119999885559082,10.119999885559082,10.119999885559082,10.119999885559082,10.119999885559082,0
2019-12-26,10.140000343322754,10.140000343322754,10.140000343322754,10.140000343322754,10.140000343322754,9700
2019-12-27,10.140000343322754,10.140000343322754,10.140000343322754,10.140000343322754,10.140000343322754,0
2019-12-30,10.140000343322754,10.140000343322754,10.140000343322754,10.140000343322754,10.140000343322754,7000
2019-12-31,10.140000343322754,10.140000343322754,10.140000343322754,10.140000343322754,10.140000343322754,1100
2020-01-02,10.140000343322754,10.140000343322754,10.140000343322754,10.140000343322754,10.140000343322754,0
2020-01-03,10.140000343322754,10.140000343322754,10.140000343322754,10.140000343322754,10.140000343322754,0
2020-01-06,10.140000343322754,10.140000343322754,10.140000343322754,10.140000343322754,10.140000343322754,0
2020-01-07,10.199999809265137,10.199999809265137,10.149999618530273,10.199999809265137,10.199999809265137,61500
2020-01-08,10.1899995803833,10.199999809265137,10.1899995803833,10.199999809265137,10.199999809265137,7900
2020-01-09,10.199999809265137,10.199999809265137,10.199999809265137,10.199999809265137,10.199999809265137,0
2020-01-10,10.199999809265137,10.199999809265137,10.199999809265137,10.199999809265137,10.199999809265137,0
2020-01-13,10.199999809265137,10.199999809265137,10.199999809265137,10.199999809265137,10.199999809265137,0
2020-01-14,10.220000267028809,10.25,10.220000267028809,10.25,10.25,2500
2020-01-15,10.25,10.25,10.25,10.25,10.25,0
2020-01-16,10.25,10.25,10.25,10.25,10.25,0
2020-01-17,10.300000190734863,10.300000190734863,10.255999565124512,10.255999565124512,10.255999565124512,700
2020-01-21,10.201000213623047,10.201000213623047,10.201000213623047,10.201000213623047,10.201000213623047,300
2020-01-22,10.201000213623047,10.201000213623047,10.201000213623047,10.201000213623047,10.201000213623047,0
2020-01-23,10.210000038146973,10.220000267028809,10.199999809265137,10.199999809265137,10.199999809265137,18400
2020-01-24,10.199999809265137,10.199999809265137,10.199999809265137,10.199999809265137,10.199999809265137,0
2020-01-27,10.199999809265137,10.199999809265137,10.199999809265137,10.199999809265137,10.199999809265137,0
2020-01-28,10.199999809265137,10.199999809265137,10.199999809265137,10.199999809265137,10.199999809265137,0
2020-01-29,10.199999809265137,10.199999809265137,10.199999809265137,10.199999809265137,10.199999809265137,0
2020-01-30,10.199999809265137,10.199999809265137,10.199999809265137,10.199999809265137,10.199999809265137,0
2020-01-31,10.199999809265137,10.199999809265137,10.199999809265137,10.199999809265137,10.199999809265137,0
2020-02-03,10.25,10.25,10.25,10.25,10.25,5000
2020-02-04,10.25,10.25,10.25,10.25,10.25,0
2020-02-05,10.25,10.25,10.25,10.25,10.25,0
2020-02-06,10.25,10.25,10.25,10.25,10.25,0
2020-02-07,10.25,10.25,10.25,10.25,10.25,0
2020-02-10,10.25,10.289999961853027,10.25,10.289999961853027,10.289999961853027,20400
2020-02-11,10.289999961853027,10.289999961853027,10.289999961853027,10.289999961853027,10.289999961853027,10000
2020-02-12,10.289999961853027,10.291000366210938,10.279999732971191,10.291000366210938,10.291000366210938,12100
2020-02-13,10.291000366210938,10.291000366210938,10.291000366210938,10.291000366210938,10.291000366210938,0
2020-02-14,10.291000366210938,10.291000366210938,10.291000366210938,10.291000366210938,10.291000366210938,0
2020-02-18,10.289999961853027,10.289999961853027,10.289999961853027,10.289999961853027,10.289999961853027,5000
2020-02-19,10.289999961853027,10.289999961853027,10.289999961853027,10.289999961853027,10.289999961853027,10500
2020-02-20,10.289999961853027,10.289999961853027,10.289999961853027,10.289999961853027,10.289999961853027,0
2020-02-21,10.289999961853027,10.289999961853027,10.289999961853027,10.289999961853027,10.289999961853027,0
2020-02-24,10.289999961853027,10.289999961853027,10.289999961853027,10.289999961853027,10.289999961853027,0
2020-02-25,10.289999961853027,10.289999961853027,10.289999961853027,10.289999961853027,10.289999961853027,0
2020-02-26,10.289999961853027,10.289999961853027,10.289999961853027,10.289999961853027,10.289999961853027,6000
2020-02-27,10.289999961853027,10.289999961853027,10.289999961853027,10.289999961853027,10.289999961853027,200
2020-02-28,10.289999961853027,10.289999961853027,10.289999961853027,10.289999961853027,10.289999961853027,0
2020-03-02,10.300000190734863,10.300000190734863,10.300000190734863,10.300000190734863,10.300000190734863,100
2020-03-03,10.289999961853027,10.289999961853027,10.289999961853027,10.289999961853027,10.289999961853027,5000
2020-03-04,10.300000190734863,10.3100004196167,10.300000190734863,10.300000190734863,10.300000190734863,65200
2020-03-05,10.289999961853027,10.300000190734863,10.289999961853027,10.300000190734863,10.300000190734863,10000
2020-03-06,10.300000190734863,10.3100004196167,10.300000190734863,10.300000190734863,10.300000190734863,10900
2020-03-09,10.260000228881836,10.260000228881836,10.199999809265137,10.234999656677246,10.234999656677246,48900
2020-03-10,10.239999771118164,10.260000228881836,10.239999771118164,10.239999771118164,10.239999771118164,25300
2020-03-11,10.270000457763672,10.279999732971191,10.239999771118164,10.239999771118164,10.239999771118164,40800
2020-03-12,10.199999809265137,10.199999809265137,10.199999809265137,10.199999809265137,10.199999809265137,200
2020-03-13,10.199999809265137,10.199999809265137,10.199999809265137,10.199999809265137,10.199999809265137,0
2020-03-16,10.300000190734863,10.300000190734863,10.149999618530273,10.149999618530273,10.149999618530273,1300
2020-03-17,10.300000190734863,10.300000190734863,9.680000305175781,10.100000381469727,10.100000381469727,16200
2020-03-18,10.263999938964844,10.300000190734863,10.10200023651123,10.300000190734863,10.300000190734863,1100
2020-03-19,9.8100004196167,9.8100004196167,9.8100004196167,9.8100004196167,9.8100004196167,100
2020-03-20,10.0,10.0,9.88599967956543,9.88599967956543,9.88599967956543,1200
2020-03-23,9.989999771118164,9.989999771118164,9.899999618530273,9.899999618530273,9.899999618530273,1400
2020-03-24,9.899999618530273,9.949999809265137,9.815999984741211,9.949999809265137,9.949999809265137,23000
2020-03-25,10.0,10.0,10.0,10.0,10.0,1000
2020-03-26,10.050000190734863,11.0,10.050000190734863,10.199999809265137,10.199999809265137,4000
2020-03-27,10.104000091552734,10.220000267028809,10.0,10.050000190734863,10.050000190734863,118500
2020-03-30,10.050000190734863,10.050000190734863,10.050000190734863,10.050000190734863,10.050000190734863,0
2020-03-31,10.300000190734863,10.300000190734863,10.1899995803833,10.234999656677246,10.234999656677246,1300
2020-04-01,10.270000457763672,10.270000457763672,10.260000228881836,10.270000457763672,10.270000457763672,6000
2020-04-02,10.270000457763672,10.270000457763672,10.190999984741211,10.239999771118164,10.239999771118164,2900
2020-04-03,10.239999771118164,10.270000457763672,10.15999984741211,10.260000228881836,10.260000228881836,231800
2020-04-06,10.270000457763672,10.321000099182129,10.260000228881836,10.310999870300293,10.310999870300293,5700
2020-04-07,10.3100004196167,10.3100004196167,10.3100004196167,10.3100004196167,10.3100004196167,400
2020-04-08,10.746999740600586,10.75,10.329999923706055,10.329999923706055,10.329999923706055,10000
2020-04-09,10.75,10.75,10.3100004196167,10.34000015258789,10.34000015258789,20500
2020-04-13,10.75,10.75,10.319999694824219,10.350000381469727,10.350000381469727,20800
2020-04-14,10.399999618530273,10.5,10.300000190734863,10.350000381469727,10.350000381469727,12500
2020-04-15,10.350000381469727,10.359999656677246,10.319999694824219,10.350000381469727,10.350000381469727,5900
2020-04-16,10.470000267028809,10.470000267028809,10.33899974822998,10.34000015258789,10.34000015258789,32300
2020-04-17,10.350000381469727,10.350000381469727,10.336999893188477,10.34000015258789,10.34000015258789,4200
2020-04-20,10.40999984741211,10.40999984741211,10.390000343322754,10.399999618530273,10.399999618530273,7600
2020-04-21,10.350000381469727,10.359999656677246,10.319999694824219,10.335000038146973,10.335000038146973,269500
2020-04-22,10.395000457763672,10.395000457763672,10.319999694824219,10.348999977111816,10.348999977111816,190300
2020-04-23,10.34000015258789,10.350000381469727,10.33899974822998,10.343000411987305,10.343000411987305,2000
2020-04-24,10.359999656677246,10.449999809265137,10.357999801635742,10.449999809265137,10.449999809265137,56500
2020-04-27,10.449999809265137,10.449999809265137,10.383999824523926,10.449999809265137,10.449999809265137,1600
2020-04-28,10.449999809265137,10.449999809265137,10.449999809265137,10.449999809265137,10.449999809265137,0
2020-04-29,10.449999809265137,10.449999809265137,10.347000122070312,10.361000061035156,10.361000061035156,5600
2020-04-30,10.4399995803833,10.4399995803833,10.4399995803833,10.4399995803833,10.4399995803833,200
2020-05-01,10.319999694824219,10.319999694824219,9.5,10.239999771118164,10.239999771118164,23300
2020-05-04,9.5,9.574000358581543,9.5,9.5,9.5,2100
2020-05-05,9.769000053405762,9.899999618530273,8.899999618530273,8.899999618530273,8.899999618530273,6500
2020-05-06,7.389999866485596,7.389999866485596,6.449999809265137,6.75,6.75,78300
2020-05-07,6.760000228881836,8.920000076293945,6.760000228881836,8.920000076293945,8.920000076293945,54300
2020-05-08,9.0,10.020000457763672,8.0,9.550000190734863,9.550000190734863,72000
2020-05-11,9.890000343322754,9.90999984741211,8.289999961853027,8.449999809265137,8.449999809265137,10500
2020-05-12,8.510000228881836,8.649999618530273,8.175000190734863,8.175000190734863,8.175000190734863,25100
2020-05-13,7.650000095367432,7.995999813079834,7.449999809265137,7.449999809265137,7.449999809265137,12700
2020-05-14,7.590000152587891,7.590000152587891,6.809999942779541,7.010000228881836,7.010000228881836,20400
2020-05-15,6.590000152587891,7.420000076293945,5.630000114440918,7.099999904632568,7.099999904632568,23500
2020-05-18,7.0,7.0,6.164000034332275,6.539999961853027,6.539999961853027,42600
2020-05-19,6.75,6.75,6.400000095367432,6.400000095367432,6.400000095367432,10200
2020-05-20,6.360000133514404,6.949999809265137,6.269999980926514,6.550000190734863,6.550000190734863,19100
2020-05-21,6.449999809265137,6.5,5.550000190734863,5.550000190734863,5.550000190734863,46600
2020-05-22,5.989999771118164,6.489999771118164,5.989999771118164,6.239999771118164,6.239999771118164,25600
2020-05-26,6.239999771118164,6.349999904632568,6.179999828338623,6.28000020980835,6.28000020980835,48000
2020-05-27,6.550000190734863,6.610000133514404,6.400000095367432,6.519999980926514,6.519999980926514,22300
2020-05-28,6.599999904632568,7.550000190734863,6.449999809265137,6.78000020980835,6.78000020980835,102300
2020-05-29,6.75,7.46999979019165,6.650000095367432,6.809999942779541,6.809999942779541,91800
2020-06-01,7.0,7.050000190734863,6.800000190734863,6.800000190734863,6.800000190734863,21300
2020-06-02,6.925000190734863,7.25,6.78000020980835,6.974999904632568,6.974999904632568,41900
2020-06-03,7.033999919891357,7.050000190734863,6.900000095367432,7.0,7.0,20400
2020-06-04,6.550000190734863,7.119999885559082,6.550000190734863,7.0370001792907715,7.0370001792907715,36800
2020-06-05,7.0,7.0,6.5,6.552999973297119,6.552999973297119,42600
2020-06-08,6.739999771118164,6.739999771118164,6.380000114440918,6.396999835968018,6.396999835968018,10400
2020-06-09,6.460000038146973,6.498000144958496,6.199999809265137,6.210000038146973,6.210000038146973,15100
2020-06-10,6.400000095367432,6.400000095367432,6.230000019073486,6.244999885559082,6.244999885559082,25400
2020-06-11,6.25,6.329999923706055,6.0,6.0,6.0,32200
2020-06-12,6.15500020980835,6.300000190734863,6.019999980926514,6.150000095367432,6.150000095367432,5900
2020-06-15,6.300000190734863,6.5,6.0,6.480000019073486,6.480000019073486,35700
2020-06-16,6.449999809265137,6.900000095367432,6.099999904632568,6.099999904632568,6.099999904632568,38200
2020-06-17,6.199999809265137,6.289999961853027,6.099999904632568,6.179999828338623,6.179999828338623,2400
2020-06-18,6.329999923706055,6.329999923706055,6.159999847412109,6.159999847412109,6.159999847412109,2200
2020-06-19,6.25,6.25,6.099999904632568,6.199999809265137,6.199999809265137,27000
2020-06-22,6.199999809265137,6.199999809265137,6.050000190734863,6.099999904632568,6.099999904632568,6600
2020-06-23,6.099999904632568,6.179999828338623,6.099999904632568,6.139999866485596,6.139999866485596,3200
2020-06-24,6.03000020980835,6.150000095367432,6.0,6.099999904632568,6.099999904632568,22000
2020-06-25,6.0,6.25,5.96999979019165,6.239999771118164,6.239999771118164,10300
2020-06-26,6.210000038146973,6.260000228881836,6.0,6.260000228881836,6.260000228881836,8200
2020-06-29,6.28000020980835,6.28000020980835,6.099999904632568,6.110000133514404,6.110000133514404,2400
2020-06-30,6.179999828338623,6.25,6.099999904632568,6.110000133514404,6.110000133514404,4300
2020-07-01,6.099999904632568,6.099999904632568,6.099999904632568,6.099999904632568,6.099999904632568,100
2020-07-02,6.099999904632568,6.199999809265137,6.099999904632568,6.159999847412109,6.159999847412109,2300
2020-07-06,6.150000095367432,6.179999828338623,6.150000095367432,6.179999828338623,6.179999828338623,500
2020-07-07,6.119999885559082,6.340000152587891,6.119999885559082,6.340000152587891,6.340000152587891,2600
2020-07-08,5.940000057220459,6.300000190734863,5.860000133514404,6.21999979019165,6.21999979019165,5800
2020-07-09,6.070000171661377,6.300000190734863,6.070000171661377,6.119999885559082,6.119999885559082,2200
2020-07-10,6.099999904632568,6.25,6.099999904632568,6.244999885559082,6.244999885559082,3200
2020-07-13,6.179999828338623,6.21999979019165,6.090000152587891,6.119999885559082,6.119999885559082,2200
2020-07-14,6.199999809265137,6.199999809265137,6.099999904632568,6.099999904632568,6.099999904632568,2800
2020-07-15,5.974999904632568,6.4070000648498535,5.909999847412109,6.309999942779541,6.309999942779541,9200
2020-07-16,6.559999942779541,6.559999942779541,6.190000057220459,6.190000057220459,6.190000057220459,3000
2020-07-17,6.375999927520752,6.375999927520752,6.375999927520752,6.375999927520752,6.375999927520752,500
2020-07-20,6.243000030517578,6.243000030517578,6.210000038146973,6.210000038146973,6.210000038146973,1000
2020-07-21,5.860000133514404,6.335000038146973,5.860000133514404,6.335000038146973,6.335000038146973,600
2020-07-22,6.25,6.25,6.170000076293945,6.170000076293945,6.170000076293945,600
2020-07-23,6.360000133514404,6.440000057220459,6.190000057220459,6.190000057220459,6.190000057220459,7500
2020-07-24,6.269999980926514,6.269999980926514,6.179999828338623,6.179999828338623,6.179999828338623,800
2020-07-27,6.28000020980835,6.659999847412109,6.28000020980835,6.659999847412109,6.659999847412109,3900
2020-07-28,6.659999847412109,6.659999847412109,6.659999847412109,6.659999847412109,6.659999847412109,0
2020-07-29,6.28000020980835,6.28000020980835,6.050000190734863,6.050000190734863,6.050000190734863,1700
2020-07-30,6.0,6.300000190734863,5.849999904632568,5.849999904632568,5.849999904632568,6800
2020-07-31,5.949999809265137,6.199999809265137,5.869999885559082,5.869999885559082,5.869999885559082,8500
2020-08-03,5.994999885559082,6.519999980926514,5.994999885559082,6.110000133514404,6.110000133514404,2200
2020-08-04,6.159999847412109,6.320000171661377,6.144999980926514,6.144999980926514,6.144999980926514,1100
2020-08-05,6.144999980926514,6.144999980926514,6.144999980926514,6.144999980926514,6.144999980926514,0
2020-08-06,6.144999980926514,6.144999980926514,6.144999980926514,6.144999980926514,6.144999980926514,0
2020-08-07,6.409999847412109,6.409999847412109,6.0,6.0,6.0,1600
2020-08-10,6.199999809265137,6.199999809265137,6.199999809265137,6.199999809265137,6.199999809265137,200
2020-08-11,6.199999809265137,6.199999809265137,6.199999809265137,6.199999809265137,6.199999809265137,0
2020-08-12,6.199999809265137,6.199999809265137,6.199999809265137,6.199999809265137,6.199999809265137,0
2020-08-13,8.149999618530273,9.630000114440918,6.210000038146973,7.909999847412109,7.909999847412109,552400
2020-08-14,7.079999923706055,7.300000190734863,6.659999847412109,7.300000190734863,7.300000190734863,32000
2020-08-17,7.300000190734863,7.300000190734863,6.909999847412109,7.25,7.25,8600
2020-08-18,7.139999866485596,7.460000038146973,7.0,7.300000190734863,7.300000190734863,7000
2020-08-19,7.440000057220459,7.75,7.25,7.739999771118164,7.739999771118164,13800
2020-08-20,8.0,8.6899995803833,7.4629998207092285,7.701000213623047,7.701000213623047,96200
2020-08-21,7.256999969482422,7.690000057220459,7.020999908447266,7.690000057220459,7.690000057220459,5000
2020-08-24,7.21999979019165,7.579999923706055,7.0,7.070000171661377,7.070000171661377,10900
2020-08-25,7.099999904632568,7.570000171661377,7.099999904632568,7.570000171661377,7.570000171661377,6300
2020-08-26,7.570000171661377,7.570000171661377,7.570000171661377,7.570000171661377,7.570000171661377,0
2020-08-27,7.375,7.375,7.0,7.0,7.0,10300
2020-08-28,7.0,7.199999809265137,7.0,7.199999809265137,7.199999809265137,2100
2020-08-31,6.869999885559082,6.869999885559082,6.869999885559082,6.869999885559082,6.869999885559082,600
2020-09-01,6.800000190734863,6.800000190734863,6.699999809265137,6.769999980926514,6.769999980926514,10200
2020-09-02,6.789999961853027,6.789999961853027,6.5,6.5,6.5,3400
2020-09-03,6.5,6.5,6.0,6.119999885559082,6.119999885559082,7700
2020-09-04,6.010000228881836,6.578999996185303,6.010000228881836,6.190999984741211,6.190999984741211,6300
2020-09-08,6.302000045776367,6.314000129699707,5.829999923706055,5.840000152587891,5.840000152587891,10400
2020-09-09,5.989999771118164,6.0,5.880000114440918,5.880000114440918,5.880000114440918,7600
2020-09-10,5.900000095367432,6.150000095367432,5.900000095367432,5.900000095367432,5.900000095367432,7200
2020-09-11,5.78000020980835,5.949999809265137,5.75,5.949999809265137,5.949999809265137,1800
2020-09-14,5.909999847412109,5.940000057220459,5.800000190734863,5.800000190734863,5.800000190734863,1700
2020-09-15,5.949999809265137,6.074999809265137,5.800000190734863,6.0,6.0,2500
2020-09-16,5.815000057220459,6.130000114440918,5.559999942779541,5.900000095367432,5.900000095367432,18600
2020-09-17,5.639999866485596,6.099999904632568,5.5,5.949999809265137,5.949999809265137,13800
2020-09-18,6.019999980926514,6.090000152587891,5.994999885559082,5.994999885559082,5.994999885559082,1000
2020-09-21,5.953999996185303,6.730000019073486,5.953999996185303,6.210000038146973,6.210000038146973,19100
2020-09-22,6.210000038146973,6.210000038146973,6.210000038146973,6.210000038146973,6.210000038146973,0
2020-09-23,6.199999809265137,6.400000095367432,6.199999809265137,6.400000095367432,6.400000095367432,8800
2020-09-24,6.0,6.300000190734863,6.0,6.050000190734863,6.050000190734863,6900
2020-09-25,6.275000095367432,6.275000095367432,5.960000038146973,6.0,6.0,6400
2020-09-28,6.0,6.039999961853027,5.880000114440918,5.880000114440918,5.880000114440918,1100
2020-09-29,5.800000190734863,5.800000190734863,5.699999809265137,5.703999996185303,5.703999996185303,7800
2020-09-30,5.880000114440918,5.900000095367432,5.699999809265137,5.699999809265137,5.699999809265137,9000
2020-10-01,5.900000095367432,5.900000095367432,5.849999904632568,5.849999904632568,5.849999904632568,1200
2020-10-02,5.449999809265137,6.0,5.239999771118164,5.909999847412109,5.909999847412109,30600
2020-10-05,6.170000076293945,6.179999828338623,5.900000095367432,5.960000038146973,5.960000038146973,1300
2020-10-06,5.949999809265137,5.949999809265137,5.949999809265137,5.949999809265137,5.949999809265137,500
2020-10-07,5.882999897003174,6.159999847412109,5.882999897003174,6.019999980926514,6.019999980926514,4800
2020-10-08,5.75,6.150000095367432,5.75,6.139999866485596,6.139999866485596,1000
2020-10-09,6.139999866485596,6.139999866485596,6.139999866485596,6.139999866485596,6.139999866485596,0
2020-10-12,6.139999866485596,6.139999866485596,6.139999866485596,6.139999866485596,6.139999866485596,0
2020-10-13,6.139999866485596,6.139999866485596,6.139999866485596,6.139999866485596,6.139999866485596,0
2020-10-14,6.139999866485596,6.139999866485596,6.139999866485596,6.139999866485596,6.139999866485596,0
2020-10-15,5.835999965667725,5.840000152587891,5.835999965667725,5.840000152587891,5.840000152587891,700
2020-10-16,5.840000152587891,5.840000152587891,5.769999980926514,5.800000190734863,5.800000190734863,800
2020-10-19,5.940000057220459,5.940000057220459,5.730000019073486,5.760000228881836,5.760000228881836,1400
2020-10-20,5.75,5.980000019073486,5.75,5.889999866485596,5.889999866485596,1400
2020-10-21,5.900000095367432,5.921999931335449,5.900000095367432,5.900000095367432,5.900000095367432,3300
2020-10-22,5.900000095367432,5.900000095367432,5.900000095367432,5.900000095367432,5.900000095367432,100
2020-10-23,5.800000190734863,5.985000133514404,5.800000190734863,5.985000133514404,5.985000133514404,300
2020-10-26,5.86299991607666,5.949999809265137,5.809999942779541,5.809999942779541,5.809999942779541,4100
2020-10-27,5.809999942779541,5.809999942779541,5.809999942779541,5.809999942779541,5.809999942779541,0
2020-10-28,6.159999847412109,6.159999847412109,5.974999904632568,6.150000095367432,6.150000095367432,1500
2020-10-29,6.139999866485596,6.150000095367432,6.139999866485596,6.150000095367432,6.150000095367432,500
2020-10-30,5.849999904632568,5.925000190734863,5.800000190734863,5.925000190734863,5.925000190734863,1500
2020-11-02,5.925000190734863,5.925000190734863,5.925000190734863,5.925000190734863,5.925000190734863,0
2020-11-03,6.130000114440918,6.1570000648498535,6.130000114440918,6.130000114440918,6.130000114440918,7200
2020-11-04,6.170000076293945,6.170000076293945,6.099999904632568,6.140999794006348,6.140999794006348,2800
2020-11-05,6.139999866485596,6.156000137329102,6.139999866485596,6.142000198364258,6.142000198364258,2800
2020-11-06,6.199999809265137,6.199999809265137,6.199999809265137,6.199999809265137,6.199999809265137,200
2020-11-09,6.199999809265137,6.369999885559082,6.199999809265137,6.369999885559082,6.369999885559082,4000
2020-11-10,6.539999961853027,6.820000171661377,6.489999771118164,6.800000190734863,6.800000190734863,5800
2020-11-11,6.820000171661377,7.099999904632568,6.650000095367432,7.090000152587891,7.090000152587891,7400
2020-11-12,7.400000095367432,9.385000228881836,6.949999809265137,7.800000190734863,7.800000190734863,43700
2020-11-13,8.5,8.5,7.940000057220459,8.380000114440918,8.380000114440918,10500
2020-11-16,8.520000457763672,8.789999961853027,8.241999626159668,8.789999961853027,8.789999961853027,25300
2020-11-17,9.119999885559082,9.5,8.800000190734863,9.5,9.5,14200
2020-11-18,9.281000137329102,10.319999694824219,8.600000381469727,10.319999694824219,10.319999694824219,42100
2020-11-19,9.8100004196167,10.289999961853027,9.600000381469727,10.229999542236328,10.229999542236328,23200
2020-11-20,10.199999809265137,10.199999809265137,9.472999572753906,9.720000267028809,9.720000267028809,22400
2020-11-23,9.720000267028809,9.899999618530273,8.479999542236328,8.965999603271484,8.965999603271484,19200
2020-11-24,9.0,9.100000381469727,8.430000305175781,8.460000038146973,8.460000038146973,13800
2020-11-25,8.449999809265137,8.873000144958496,8.425000190734863,8.786999702453613,8.786999702453613,9100
2020-11-27,8.710000038146973,9.359000205993652,8.710000038146973,9.057999610900879,9.057999610900879,4100
2020-11-30,9.260000228881836,9.260000228881836,8.760000228881836,9.0600004196167,9.0600004196167,5300
2020-12-01,9.0600004196167,9.350000381469727,8.520000457763672,9.350000381469727,9.350000381469727,6500
2020-12-02,8.699999809265137,9.178999900817871,8.529999732971191,8.8100004196167,8.8100004196167,3100
2020-12-03,9.34000015258789,9.34000015258789,8.5,8.916999816894531,8.916999816894531,4500
2020-12-04,8.90999984741211,8.989999771118164,8.380000114440918,8.6850004196167,8.6850004196167,1800
2020-12-07,8.170000076293945,8.520000457763672,8.16100025177002,8.520000457763672,8.520000457763672,7300
2020-12-08,8.550000190734863,9.074999809265137,8.550000190734863,9.074999809265137,9.074999809265137,4700
2020-12-09,9.1899995803833,9.1899995803833,8.210000038146973,8.9399995803833,8.9399995803833,10100
2020-12-10,8.920000076293945,8.920000076293945,8.670000076293945,8.729999542236328,8.729999542236328,2600
2020-12-11,8.930000305175781,8.930000305175781,8.381999969482422,8.680000305175781,8.680000305175781,5800
2020-12-14,8.859999656677246,9.300000190734863,8.652999877929688,9.130000114440918,9.130000114440918,14700
2020-12-15,8.819999694824219,10.0,8.819999694824219,9.569999694824219,9.569999694824219,40100
2020-12-16,9.5600004196167,9.949999809265137,9.510000228881836,9.793000221252441,9.793000221252441,15800
2020-12-17,9.789999961853027,9.789999961853027,8.779000282287598,9.699999809265137,9.699999809265137,5600
2020-12-18,9.630000114440918,9.630000114440918,9.0,9.414999961853027,9.414999961853027,3000
2020-12-21,9.59000015258789,9.59000015258789,9.300000190734863,9.5,9.5,2400
2020-12-22,9.300000190734863,9.569999694824219,9.069999694824219,9.553000450134277,9.553000450134277,3300
2020-12-23,9.553000450134277,9.553000450134277,9.553000450134277,9.553000450134277,9.553000450134277,0
2020-12-24,9.553000450134277,9.553000450134277,9.553000450134277,9.553000450134277,9.553000450134277,0
2020-12-28,9.220000267028809,9.279999732971191,9.0,9.279999732971191,9.279999732971191,1800
2020-12-29,9.300000190734863,11.8100004196167,8.800000190734863,9.229999542236328,9.229999542236328,58100
2020-12-30,8.84000015258789,8.930000305175781,8.170000076293945,8.649999618530273,8.649999618530273,12900
