Date,Open,High,Low,Close,Adj Close,Volume
2020-09-08,19.5,20.5,19.5,19.5,19.5,6500
2020-09-09,19.0,19.0,19.0,19.0,19.0,700
2020-09-10,19.0,19.0,19.0,19.0,19.0,0
2020-09-11,19.5,20.0,19.5,19.5,19.5,1700
2020-09-14,19.5,19.5,19.5,19.5,19.5,100
2020-09-15,19.31999969482422,19.31999969482422,18.950000762939453,18.950000762939453,18.950000762939453,400
2020-09-16,18.479999542236328,18.739999771118164,18.479999542236328,18.5,18.5,18200
2020-09-17,18.5,18.5,18.5,18.5,18.5,0
2020-09-18,18.5,18.5,18.5,18.5,18.5,0
2020-09-21,17.600000381469727,17.600000381469727,17.600000381469727,17.600000381469727,17.600000381469727,100
2020-09-22,17.5,17.5,17.5,17.5,17.5,100
2020-09-23,17.5,17.5,17.5,17.5,17.5,0
2020-09-24,17.5,17.5,17.5,17.5,17.5,0
2020-09-25,17.5,17.5,17.5,17.5,17.5,0
2020-09-28,17.305999755859375,17.305999755859375,17.305999755859375,17.305999755859375,17.305999755859375,400
2020-09-29,17.305999755859375,17.305999755859375,17.305999755859375,17.305999755859375,17.305999755859375,0
2020-09-30,17.305999755859375,17.305999755859375,17.305999755859375,17.305999755859375,17.305999755859375,0
2020-10-01,16.8799991607666,16.8799991607666,16.8700008392334,16.8799991607666,16.8799991607666,1200
2020-10-02,16.8799991607666,16.8799991607666,16.8799991607666,16.8799991607666,16.8799991607666,0
2020-10-05,16.770000457763672,16.770000457763672,15.75,15.75,15.75,400
2020-10-06,16.049999237060547,16.989999771118164,16.049999237060547,16.524999618530273,16.524999618530273,1400
2020-10-07,16.5,16.5,16.440000534057617,16.440000534057617,16.440000534057617,500
2020-10-08,16.440000534057617,16.440000534057617,16.440000534057617,16.440000534057617,16.440000534057617,0
2020-10-09,16.0,16.40999984741211,16.0,16.40999984741211,16.40999984741211,500
2020-10-12,16.40999984741211,16.40999984741211,16.40999984741211,16.40999984741211,16.40999984741211,0
2020-10-13,16.40999984741211,16.40999984741211,16.40999984741211,16.40999984741211,16.40999984741211,0
2020-10-14,16.40999984741211,16.40999984741211,16.40999984741211,16.40999984741211,16.40999984741211,0
2020-10-15,15.5,15.5,15.5,15.5,15.5,100
2020-10-16,15.5,15.5,15.5,15.5,15.5,100
2020-10-19,15.5,15.5,15.5,15.5,15.5,0
2020-10-20,15.5,15.5,15.5,15.5,15.5,0
2020-10-21,15.5,15.5,15.5,15.5,15.5,0
2020-10-22,15.5,15.5,15.5,15.5,15.5,0
2020-10-23,15.5,15.5,15.5,15.5,15.5,0
2020-10-26,15.5,15.5,15.5,15.5,15.5,0
2020-10-27,15.520000457763672,15.59000015258789,15.520000457763672,15.520000457763672,15.520000457763672,1600
2020-10-28,15.0,15.0,15.0,15.0,15.0,100
2020-10-29,15.0,15.0,15.0,15.0,15.0,0
2020-10-30,15.0,15.0,15.0,15.0,15.0,0
2020-11-02,15.0,15.0,15.0,15.0,15.0,0
2020-11-03,15.0,15.0,15.0,15.0,15.0,0
2020-11-04,15.0,15.0,15.0,15.0,15.0,0
2020-11-05,15.0,15.760000228881836,15.0,15.760000228881836,15.760000228881836,1000
2020-11-06,15.760000228881836,15.760000228881836,15.760000228881836,15.760000228881836,15.760000228881836,0
2020-11-09,18.0,19.989999771118164,17.979999542236328,19.989999771118164,19.989999771118164,6200
2020-11-10,19.989999771118164,19.989999771118164,19.989999771118164,19.989999771118164,19.989999771118164,0
2020-11-11,19.989999771118164,19.989999771118164,19.989999771118164,19.989999771118164,19.989999771118164,0
2020-11-12,19.989999771118164,19.989999771118164,19.989999771118164,19.989999771118164,19.989999771118164,0
2020-11-13,19.989999771118164,19.989999771118164,19.989999771118164,19.989999771118164,19.989999771118164,0
2020-11-16,19.0,19.0,16.68000030517578,16.700000762939453,16.700000762939453,5600
2020-11-17,16.700000762939453,16.700000762939453,16.700000762939453,16.700000762939453,16.700000762939453,0
2020-11-18,16.700000762939453,16.700000762939453,16.700000762939453,16.700000762939453,16.700000762939453,0
2020-11-19,16.700000762939453,16.700000762939453,16.700000762939453,16.700000762939453,16.700000762939453,0
2020-11-20,16.700000762939453,16.700000762939453,16.700000762939453,16.700000762939453,16.700000762939453,0
2020-11-23,16.700000762939453,16.700000762939453,16.700000762939453,16.700000762939453,16.700000762939453,100
2020-11-24,17.493000030517578,17.493000030517578,17.493000030517578,17.493000030517578,17.493000030517578,300
2020-11-25,17.493000030517578,17.493000030517578,17.493000030517578,17.493000030517578,17.493000030517578,0
2020-11-27,17.493000030517578,17.493000030517578,17.493000030517578,17.493000030517578,17.493000030517578,0
2020-11-30,17.989999771118164,18.989999771118164,17.979999542236328,18.0,18.0,7700
2020-12-01,18.299999237060547,18.299999237060547,18.299999237060547,18.299999237060547,18.299999237060547,1000
2020-12-02,18.299999237060547,18.299999237060547,18.299999237060547,18.299999237060547,18.299999237060547,0
2020-12-03,18.299999237060547,18.299999237060547,18.299999237060547,18.299999237060547,18.299999237060547,0
2020-12-04,17.25,17.25,17.25,17.25,17.25,100
2020-12-07,18.270000457763672,19.5,18.270000457763672,19.200000762939453,19.200000762939453,3600
2020-12-08,21.90999984741211,21.90999984741211,19.86199951171875,19.86199951171875,19.86199951171875,1700
2020-12-09,19.19499969482422,19.19499969482422,19.19499969482422,19.19499969482422,19.19499969482422,100
2020-12-10,19.19499969482422,19.19499969482422,19.19499969482422,19.19499969482422,19.19499969482422,100
2020-12-11,19.19499969482422,19.19499969482422,19.19499969482422,19.19499969482422,19.19499969482422,0
2020-12-14,20.059999465942383,21.0,18.920000076293945,18.920000076293945,18.920000076293945,1300
2020-12-15,18.950000762939453,19.0,18.100000381469727,18.100000381469727,18.100000381469727,2300
2020-12-16,18.100000381469727,18.100000381469727,18.100000381469727,18.100000381469727,18.100000381469727,0
2020-12-17,18.100000381469727,18.100000381469727,18.100000381469727,18.100000381469727,18.100000381469727,0
2020-12-18,18.944000244140625,19.0,18.944000244140625,19.0,19.0,900
2020-12-21,18.5,18.5,18.31800079345703,18.31800079345703,18.31800079345703,400
2020-12-22,18.31999969482422,18.31999969482422,18.31999969482422,18.31999969482422,18.31999969482422,100
2020-12-23,20.010000228881836,20.010000228881836,19.989999771118164,20.0,20.0,800
2020-12-24,20.0,20.0,20.0,20.0,20.0,0
2020-12-28,21.8799991607666,21.8799991607666,21.0,21.8799991607666,21.8799991607666,1800
2020-12-29,21.8799991607666,21.8799991607666,21.8799991607666,21.8799991607666,21.8799991607666,0
2020-12-30,21.8799991607666,21.8799991607666,21.8799991607666,21.8799991607666,21.8799991607666,0
