Date,Open,High,Low,Close,Adj Close,Volume
2019-04-12,24.850000381469727,25.479999542236328,24.850000381469727,25.100000381469727,23.74237632751465,311400
2019-04-15,25.25,25.25,25.079999923706055,25.079999923706055,23.723459243774414,40700
2019-04-16,25.200000762939453,25.200000762939453,25.079999923706055,25.100000381469727,23.74237632751465,58600
2019-04-17,25.200000762939453,25.3799991607666,25.149999618530273,25.190000534057617,23.827510833740234,12600
2019-04-18,25.200000762939453,25.200000762939453,25.149999618530273,25.200000762939453,23.83696937561035,2800
2019-04-22,25.25,25.299999237060547,25.200000762939453,25.299999237060547,23.93155860900879,5200
2019-04-23,25.200000762939453,25.270000457763672,25.149999618530273,25.270000457763672,23.903182983398438,2700
2019-04-24,25.25,25.290000915527344,25.1299991607666,25.139999389648438,23.78021240234375,9200
2019-04-25,25.139999389648438,25.190000534057617,25.059999465942383,25.100000381469727,23.74237632751465,6500
2019-04-26,25.100000381469727,25.239999771118164,25.06999969482422,25.229999542236328,23.865345001220703,23100
2019-04-29,25.239999771118164,25.75,25.239999771118164,25.360000610351562,23.98831558227539,38200
2019-04-30,25.440000534057617,25.549999237060547,25.360000610351562,25.400999069213867,24.027095794677734,23200
2019-05-01,25.510000228881836,25.600000381469727,25.385000228881836,25.5,24.12074089050293,7400
2019-05-02,25.5,25.57900047302246,25.420000076293945,25.5,24.12074089050293,5100
2019-05-03,25.530000686645508,25.59000015258789,25.420000076293945,25.450000762939453,24.07344627380371,8700
2019-05-06,25.450000762939453,25.5,25.280000686645508,25.389999389648438,24.016691207885742,10200
2019-05-07,25.469999313354492,25.469999313354492,25.159000396728516,25.159000396728516,23.798187255859375,4400
2019-05-08,25.301000595092773,25.357999801635742,25.257999420166016,25.257999420166016,23.891830444335938,2200
2019-05-09,25.280000686645508,25.280000686645508,25.15999984741211,25.15999984741211,23.799131393432617,19200
2019-05-10,25.219999313354492,25.25200080871582,25.149999618530273,25.200000762939453,23.83696937561035,16000
2019-05-13,25.270000457763672,25.270000457763672,25.100000381469727,25.25,23.884262084960938,6400
2019-05-14,25.25,25.350000381469727,25.25,25.350000381469727,23.978857040405273,6500
2019-05-15,25.350000381469727,25.476999282836914,25.350000381469727,25.350000381469727,23.978857040405273,4900
2019-05-16,25.40999984741211,25.628999710083008,25.40999984741211,25.559999465942383,24.1774959564209,6500
2019-05-17,25.450000762939453,25.472000122070312,25.402999877929688,25.402999877929688,24.028989791870117,5100
2019-05-20,25.349000930786133,25.469999313354492,25.31999969482422,25.469999313354492,24.092363357543945,2500
2019-05-21,25.350000381469727,25.540000915527344,25.350000381469727,25.489999771118164,24.111282348632812,1500
2019-05-22,25.350000381469727,25.540000915527344,25.350000381469727,25.475000381469727,24.09709358215332,3300
2019-05-23,25.445999145507812,25.450000762939453,25.399999618530273,25.400999069213867,24.027095794677734,4400
2019-05-24,25.489999771118164,25.489999771118164,25.363000869750977,25.363000869750977,23.991153717041016,2700
2019-05-28,25.40999984741211,25.450000762939453,25.350000381469727,25.409000396728516,24.0346622467041,11000
2019-05-29,25.40999984741211,25.40999984741211,25.350000381469727,25.360000610351562,23.98831558227539,5600
2019-05-30,25.530000686645508,25.530000686645508,25.433000564575195,25.433000564575195,24.05736541748047,2000
2019-05-31,25.4060001373291,25.479999542236328,25.350000381469727,25.399999618530273,24.02614974975586,7500
2019-06-03,25.450000762939453,25.530000686645508,25.399999618530273,25.399999618530273,24.02614974975586,14200
2019-06-04,25.549999237060547,25.65999984741211,25.450000762939453,25.520000457763672,24.139659881591797,36600
2019-06-05,25.65999984741211,25.65999984741211,25.520000457763672,25.540000915527344,24.15857696533203,13000
2019-06-06,25.6299991607666,25.65999984741211,25.520000457763672,25.59000015258789,24.205875396728516,7400
2019-06-07,25.62299919128418,25.81999969482422,25.520000457763672,25.760000228881836,24.36667823791504,7100
2019-06-10,25.760000228881836,26.09000015258789,25.59000015258789,25.850000381469727,24.451810836791992,19300
2019-06-11,25.885000228881836,27.260000228881836,25.809999465942383,26.100000381469727,24.68828773498535,12200
2019-06-12,26.110000610351562,26.110000610351562,25.899999618530273,26.0,24.593698501586914,7200
2019-06-13,26.000999450683594,26.041000366210938,25.889999389648438,25.899999618530273,24.49910545349121,7000
2019-06-14,26.020999908447266,26.020999908447266,25.65999984741211,25.709999084472656,24.31938362121582,8200
2019-06-17,25.889999389648438,25.889999389648438,25.760000228881836,25.829999923706055,24.432891845703125,4800
2019-06-18,25.950000762939453,25.959999084472656,25.829999923706055,25.8799991607666,24.480188369750977,6100
2019-06-19,25.829999923706055,26.09000015258789,25.829999923706055,26.05900001525879,24.649505615234375,5000
2019-06-20,26.09000015258789,26.249000549316406,25.899999618530273,26.020000457763672,24.61261558532715,10800
2019-06-21,26.131999969482422,26.249000549316406,26.0,26.0,24.593698501586914,6800
2019-06-24,26.010000228881836,26.010000228881836,26.0,26.0049991607666,24.598426818847656,1500
2019-06-25,25.958999633789062,26.040000915527344,25.850000381469727,25.950000762939453,24.546403884887695,4700
2019-06-26,25.969999313354492,26.25,25.920000076293945,25.979999542236328,24.574777603149414,10900
2019-06-27,26.086000442504883,26.190000534057617,25.969999313354492,26.100000381469727,24.68828773498535,3500
2019-06-28,25.93000030517578,25.93000030517578,25.530000686645508,25.59000015258789,24.5998477935791,9600
2019-07-01,25.649999618530273,25.694000244140625,25.5,25.510000228881836,24.5229434967041,2000
2019-07-02,25.701000213623047,25.709999084472656,25.510000228881836,25.709999084472656,24.715206146240234,1000
2019-07-03,25.5,25.600000381469727,25.450000762939453,25.600000381469727,24.60946273803711,1700
2019-07-05,25.540000915527344,25.683000564575195,25.540000915527344,25.683000564575195,24.689250946044922,3700
2019-07-08,25.700000762939453,25.700000762939453,25.579999923706055,25.638999938964844,24.646953582763672,2900
2019-07-09,25.645000457763672,25.683000564575195,25.549999237060547,25.6200008392334,24.62868881225586,3000
2019-07-10,25.649999618530273,25.649999618530273,25.649999618530273,25.649999618530273,24.65752601623535,800
2019-07-11,25.72800064086914,25.850000381469727,25.72800064086914,25.850000381469727,24.849788665771484,2000
2019-07-12,25.979999542236328,25.979999542236328,25.75200080871582,25.93199920654297,24.92861557006836,3500
2019-07-15,25.702999114990234,26.059999465942383,25.656999588012695,25.959999084472656,24.95553207397461,6300
2019-07-16,25.8799991607666,25.950000762939453,25.760000228881836,25.834999084472656,24.835369110107422,12400
2019-07-17,25.760000228881836,25.895000457763672,25.760000228881836,25.839000701904297,24.839214324951172,2200
2019-07-18,25.83799934387207,25.899999618530273,25.75,25.75,24.753658294677734,2300
2019-07-19,25.844999313354492,25.899999618530273,25.767000198364258,25.81399917602539,24.815181732177734,1200
2019-07-22,25.889999389648438,25.889999389648438,25.799999237060547,25.829999923706055,24.830562591552734,1900
2019-07-23,25.820999145507812,25.989999771118164,25.820999145507812,25.989999771118164,24.984371185302734,5000
2019-07-24,25.950000762939453,25.950000762939453,25.719999313354492,25.8700008392334,24.869014739990234,5800
2019-07-25,26.0,26.0,25.799999237060547,25.844999313354492,24.844980239868164,1300
2019-07-26,25.856000900268555,26.0,25.856000900268555,25.899999618530273,24.89785385131836,1900
2019-07-29,25.808000564575195,25.850000381469727,25.808000564575195,25.850000381469727,24.849788665771484,800
2019-07-30,25.850000381469727,26.0,25.850000381469727,26.0,24.99398422241211,4300
2019-07-31,25.999000549316406,26.0,25.986000061035156,26.0,24.99398422241211,3600
2019-08-01,25.9950008392334,26.0,25.979999542236328,25.979999542236328,24.97475814819336,3400
2019-08-02,25.860000610351562,26.0,25.860000610351562,26.0,24.99398422241211,300
2019-08-05,25.850000381469727,26.0,25.700000762939453,25.850000381469727,24.849788665771484,5100
2019-08-06,25.809999465942383,26.0,25.700000762939453,25.716999053955078,24.721933364868164,8800
2019-08-07,25.700000762939453,25.700000762939453,25.700000762939453,25.700000762939453,24.70559310913086,200
2019-08-08,25.621000289916992,25.67799949645996,25.540000915527344,25.670000076293945,24.6767520904541,7500
2019-08-09,25.628999710083008,25.75,25.540000915527344,25.739999771118164,24.74404525756836,2500
2019-08-12,25.520000457763672,25.690000534057617,25.393999099731445,25.660999298095703,24.668100357055664,2400
2019-08-13,25.600000381469727,25.709999084472656,25.600000381469727,25.709999084472656,24.715206146240234,1600
2019-08-14,25.739999771118164,25.739999771118164,25.65999984741211,25.666000366210938,24.672908782958984,3100
2019-08-15,25.582000732421875,25.700000762939453,25.549999237060547,25.628999710083008,24.637338638305664,5200
2019-08-16,25.649999618530273,25.715999603271484,25.600000381469727,25.600000381469727,24.60946273803711,5300
2019-08-19,25.600000381469727,25.75,25.549999237060547,25.75,24.753658294677734,4500
2019-08-20,25.639999389648438,25.75,25.639999389648438,25.75,24.753658294677734,1600
2019-08-21,25.75,25.775999069213867,25.75,25.775999069213867,24.778650283813477,1500
2019-08-22,25.68000030517578,25.729999542236328,25.610000610351562,25.610000610351562,24.619075775146484,2600
2019-08-23,25.610000610351562,25.610000610351562,25.610000610351562,25.610000610351562,24.619075775146484,0
2019-08-26,25.85700035095215,25.85700035095215,25.649999618530273,25.649999618530273,24.65752601623535,2200
2019-08-27,25.80500030517578,25.80500030517578,25.56800079345703,25.579999923706055,24.59023666381836,1700
2019-08-28,25.59000015258789,25.600000381469727,25.5,25.549999237060547,24.5613956451416,2100
2019-08-29,25.680999755859375,25.756999969482422,25.658000946044922,25.658000946044922,24.665218353271484,1100
2019-08-30,25.704999923706055,25.704999923706055,25.440000534057617,25.65999984741211,24.66714096069336,2500
2019-09-03,25.700000762939453,26.038999557495117,25.524999618530273,25.760000228881836,24.76327133178711,22200
2019-09-04,26.030000686645508,26.030000686645508,25.802000045776367,26.010000228881836,25.003597259521484,1400
2019-09-05,26.0,26.010000228881836,25.451000213623047,26.010000228881836,25.003597259521484,2400
2019-09-06,25.927000045776367,26.010000228881836,25.827999114990234,25.827999114990234,24.82863998413086,600
2019-09-09,25.81599998474121,26.010000228881836,25.81599998474121,25.93199920654297,24.92861557006836,1600
2019-09-10,26.010000228881836,26.010000228881836,26.010000228881836,26.010000228881836,25.003597259521484,300
2019-09-11,26.010000228881836,26.010000228881836,26.010000228881836,26.010000228881836,25.003597259521484,0
2019-09-12,25.75,25.75,25.75,25.75,24.753658294677734,1100
2019-09-13,25.908000946044922,25.908000946044922,25.6299991607666,25.687000274658203,24.693096160888672,4500
2019-09-16,25.707000732421875,26.479999542236328,25.707000732421875,25.90999984741211,24.907466888427734,10900
2019-09-17,26.333999633789062,26.333999633789062,26.09000015258789,26.09000015258789,25.080503463745117,1100
2019-09-18,26.079999923706055,26.170000076293945,25.989999771118164,26.170000076293945,25.157407760620117,2100
2019-09-19,26.489999771118164,26.5,26.020000457763672,26.020000457763672,25.013212203979492,4100
2019-09-20,26.200000762939453,26.40999984741211,26.200000762939453,26.40999984741211,25.388118743896484,400
2019-09-23,26.280000686645508,26.399999618530273,26.06399917602539,26.31100082397461,25.292951583862305,7000
2019-09-24,26.510000228881836,26.565000534057617,26.364999771118164,26.364999771118164,25.34486198425293,3400
2019-09-25,26.96500015258789,26.96500015258789,26.384000778198242,26.384000778198242,25.363128662109375,2600
2019-09-26,26.45400047302246,26.510000228881836,26.25,26.5,25.474637985229492,5300
2019-09-27,26.410999298095703,26.450000762939453,26.340999603271484,26.399999618530273,25.378507614135742,4500
2019-09-30,29.979999542236328,29.979999542236328,25.9950008392334,26.079999923706055,25.5706787109375,1800
2019-10-01,26.0,26.0,25.75,25.81100082397461,25.306934356689453,19600
2019-10-02,25.76099967956543,25.799999237060547,25.66699981689453,25.773000717163086,25.269676208496094,4900
2019-10-03,25.799999237060547,25.799999237060547,25.7549991607666,25.7549991607666,25.252025604248047,900
2019-10-04,25.790000915527344,25.850000381469727,25.5,25.559999465942383,25.060834884643555,8500
2019-10-07,25.739999771118164,25.739999771118164,25.549999237060547,25.700000762939453,25.198101043701172,4500
2019-10-08,25.648000717163086,25.750999450683594,25.608999252319336,25.750999450683594,25.248104095458984,2300
2019-10-09,25.780000686645508,25.780000686645508,25.739999771118164,25.739999771118164,25.237319946289062,1100
2019-10-10,25.780000686645508,25.780000686645508,25.711000442504883,25.75,25.24712371826172,1800
2019-10-11,25.75,25.75,25.75,25.75,25.24712371826172,200
2019-10-14,25.75,25.75,25.75,25.75,25.24712371826172,700
2019-10-15,25.639999389648438,25.75,25.639999389648438,25.72800064086914,25.225553512573242,3000
2019-10-16,25.649999618530273,25.75,25.649999618530273,25.75,25.24712371826172,8900
2019-10-17,25.68000030517578,25.75,25.68000030517578,25.75,25.24712371826172,6800
2019-10-18,25.75,25.75,25.75,25.75,25.24712371826172,100
2019-10-21,25.735000610351562,25.75,25.68000030517578,25.680999755859375,25.179471969604492,4000
2019-10-22,25.75,25.75,25.660999298095703,25.660999298095703,25.159860610961914,1400
2019-10-23,25.670000076293945,25.75,25.670000076293945,25.75,25.24712371826172,4500
2019-10-24,25.75,25.75,25.68000030517578,25.722999572753906,25.220651626586914,3300
2019-10-25,25.700000762939453,25.72100067138672,25.694000244140625,25.72100067138672,25.218690872192383,2100
2019-10-28,25.75,25.75,25.719999313354492,25.739999771118164,25.237319946289062,23900
2019-10-29,25.75,25.75,25.739999771118164,25.75,25.24712371826172,900
2019-10-30,25.75,25.75,25.72599983215332,25.75,25.24712371826172,2000
2019-10-31,25.75,25.75,25.68000030517578,25.729999542236328,25.227514266967773,9400
2019-11-01,25.75,25.75,25.722000122070312,25.739999771118164,25.237319946289062,12700
2019-11-04,25.75,25.75,25.719999313354492,25.75,25.24712371826172,4000
2019-11-05,25.709999084472656,25.75,25.709999084472656,25.75,25.24712371826172,4800
2019-11-06,25.731000900268555,25.75,25.709999084472656,25.740999221801758,25.238298416137695,3500
2019-11-07,25.735000610351562,25.75,25.735000610351562,25.749000549316406,25.246143341064453,3700
2019-11-08,25.75,25.75,25.719999313354492,25.74799919128418,25.245162963867188,6000
2019-11-11,25.871999740600586,25.875999450683594,25.871999740600586,25.875999450683594,25.370662689208984,1400
2019-11-12,25.93000030517578,25.93000030517578,25.729999542236328,25.780000686645508,25.276538848876953,3900
2019-11-13,25.770999908447266,25.780000686645508,25.770999908447266,25.780000686645508,25.276538848876953,2200
2019-11-14,25.792999267578125,25.850000381469727,25.792999267578125,25.850000381469727,25.345170974731445,1700
2019-11-15,25.729999542236328,25.93000030517578,25.700000762939453,25.93000030517578,25.423608779907227,1600
2019-11-18,26.059999465942383,26.190000534057617,25.968000411987305,26.100000381469727,25.590290069580078,12800
2019-11-19,26.145999908447266,26.152999877929688,26.100000381469727,26.100000381469727,25.590290069580078,10000
2019-11-20,26.06999969482422,26.170000076293945,26.06999969482422,26.170000076293945,25.65892219543457,1300
2019-11-21,26.25,26.299999237060547,26.100000381469727,26.100000381469727,25.590290069580078,10700
2019-11-22,26.200000762939453,26.200000762939453,26.100000381469727,26.200000762939453,25.688337326049805,4100
2019-11-25,26.10300064086914,26.260000228881836,26.10300064086914,26.23900032043457,25.726573944091797,1000
2019-11-26,26.299999237060547,26.299999237060547,26.15999984741211,26.15999984741211,25.64911651611328,3700
2019-11-27,26.200000762939453,26.299999237060547,26.100000381469727,26.299999237060547,25.7863826751709,3500
2019-11-29,26.149999618530273,26.149999618530273,26.149999618530273,26.149999618530273,25.639312744140625,300
2019-12-02,26.143999099731445,26.350000381469727,26.143999099731445,26.198999404907227,25.687355041503906,4700
2019-12-03,26.350000381469727,26.350000381469727,26.350000381469727,26.350000381469727,25.835407257080078,1000
2019-12-04,26.34000015258789,26.350000381469727,26.1200008392334,26.15999984741211,25.64911651611328,10900
2019-12-05,26.208999633789062,26.27199935913086,26.200000762939453,26.246000289916992,25.73343849182129,2500
2019-12-06,26.200000762939453,26.347000122070312,26.200000762939453,26.200000762939453,25.688337326049805,4300
2019-12-09,26.18000030517578,26.200000762939453,26.15999984741211,26.180999755859375,25.669706344604492,3100
2019-12-10,26.100000381469727,26.18899917602539,26.0,26.040000915527344,25.531461715698242,11600
2019-12-11,26.06800079345703,26.22100067138672,26.06800079345703,26.09000015258789,25.58048439025879,32800
2019-12-12,26.09000015258789,26.21299934387207,26.09000015258789,26.110000610351562,25.600093841552734,4100
2019-12-13,26.222000122070312,26.222000122070312,26.222000122070312,26.222000122070312,25.70990562438965,100
2019-12-16,26.270000457763672,26.270000457763672,26.270000457763672,26.270000457763672,25.756969451904297,500
2019-12-17,26.270000457763672,26.509000778198242,26.270000457763672,26.459999084472656,25.94325828552246,4600
2019-12-18,26.333999633789062,26.388999938964844,26.333999633789062,26.360000610351562,25.845211029052734,1700
2019-12-19,26.280000686645508,26.5,26.280000686645508,26.5,25.98247718811035,2600
2019-12-20,26.333999633789062,26.413000106811523,26.160999298095703,26.363000869750977,25.848154067993164,2900
2019-12-23,26.40999984741211,26.440000534057617,26.25,26.25,25.73736000061035,1600
2019-12-24,26.364999771118164,26.489999771118164,26.364999771118164,26.39699935913086,25.881488800048828,1000
2019-12-26,26.25,26.25,26.222000122070312,26.25,25.73736000061035,800
2019-12-27,26.489999771118164,26.489999771118164,26.385000228881836,26.422000885009766,25.906002044677734,3700
2019-12-30,26.139999389648438,26.152999877929688,25.85700035095215,25.85700035095215,25.85700035095215,5700
2019-12-31,26.040000915527344,26.149999618530273,25.950000762939453,26.100000381469727,26.100000381469727,8500
2020-01-02,26.11400032043457,26.190000534057617,26.0,26.05299949645996,26.05299949645996,8500
2020-01-03,26.0,26.149999618530273,25.969999313354492,26.104999542236328,26.104999542236328,6200
2020-01-06,26.270000457763672,26.270000457763672,26.023000717163086,26.165000915527344,26.165000915527344,4000
2020-01-07,26.049999237060547,26.25,26.049999237060547,26.143999099731445,26.143999099731445,1500
2020-01-08,26.172000885009766,26.172000885009766,26.06599998474121,26.136999130249023,26.136999130249023,4900
2020-01-09,26.06399917602539,26.219999313354492,26.06399917602539,26.14299964904785,26.14299964904785,2500
2020-01-10,26.190000534057617,26.399999618530273,26.145000457763672,26.25,26.25,22600
2020-01-13,26.399999618530273,26.559999465942383,26.399999618530273,26.503999710083008,26.503999710083008,7500
2020-01-14,26.524999618530273,26.729999542236328,26.475000381469727,26.649999618530273,26.649999618530273,7600
2020-01-15,26.600000381469727,26.600000381469727,26.363000869750977,26.39699935913086,26.39699935913086,2000
2020-01-16,26.200000762939453,26.799999237060547,26.200000762939453,26.75,26.75,7400
2020-01-17,26.75,26.850000381469727,26.440000534057617,26.75,26.75,6500
2020-01-21,26.690000534057617,26.690000534057617,26.400999069213867,26.469999313354492,26.469999313354492,2300
2020-01-22,26.510000228881836,26.666000366210938,26.510000228881836,26.610000610351562,26.610000610351562,3400
2020-01-23,26.606000900268555,26.700000762939453,26.59600067138672,26.61199951171875,26.61199951171875,2200
2020-01-24,26.679000854492188,26.679000854492188,26.5,26.5,26.5,3000
2020-01-27,26.43899917602539,26.485000610351562,26.211000442504883,26.381999969482422,26.381999969482422,9100
2020-01-28,26.677000045776367,26.804000854492188,26.549999237060547,26.698999404907227,26.698999404907227,2500
2020-01-29,26.530000686645508,26.649999618530273,26.530000686645508,26.649999618530273,26.649999618530273,1500
2020-01-30,26.88599967956543,26.88599967956543,26.420000076293945,26.42300033569336,26.42300033569336,7600
2020-01-31,26.8799991607666,27.0,26.48699951171875,26.56599998474121,26.56599998474121,4000
2020-02-03,26.41900062561035,27.077999114990234,26.375,27.0,27.0,12100
2020-02-04,27.0,27.0,26.979999542236328,26.979999542236328,26.979999542236328,800
2020-02-05,26.579999923706055,26.770000457763672,26.520000457763672,26.739999771118164,26.739999771118164,6500
2020-02-06,26.579999923706055,27.0,26.579999923706055,26.639999389648438,26.639999389648438,900
2020-02-07,26.809999465942383,26.809999465942383,26.68199920654297,26.68199920654297,26.68199920654297,1400
2020-02-10,26.68199920654297,26.68199920654297,26.68199920654297,26.68199920654297,26.68199920654297,0
2020-02-11,26.670000076293945,26.799999237060547,26.549999237060547,26.70800018310547,26.70800018310547,1600
2020-02-12,26.73900032043457,26.73900032043457,26.71500015258789,26.71500015258789,26.71500015258789,800
2020-02-13,26.68600082397461,26.8700008392334,26.57699966430664,26.860000610351562,26.860000610351562,3900
2020-02-14,26.736000061035156,26.736000061035156,26.270000457763672,26.450000762939453,26.450000762939453,13400
2020-02-18,26.489999771118164,26.490999221801758,26.31999969482422,26.3799991607666,26.3799991607666,1500
2020-02-19,26.270000457763672,26.459999084472656,26.270000457763672,26.440000534057617,26.440000534057617,1900
2020-02-20,26.40999984741211,26.75,26.319000244140625,26.75,26.75,5400
2020-02-21,26.559999465942383,26.575000762939453,26.399999618530273,26.575000762939453,26.575000762939453,1100
2020-02-24,26.43000030517578,26.43000030517578,25.75,26.0,26.0,24700
2020-02-25,25.989999771118164,25.989999771118164,25.290000915527344,25.299999237060547,25.299999237060547,11400
2020-02-26,25.299999237060547,25.75,25.298999786376953,25.68000030517578,25.68000030517578,12600
2020-02-27,25.170000076293945,25.584999084472656,25.010000228881836,25.547000885009766,25.547000885009766,6300
2020-02-28,25.040000915527344,25.040000915527344,23.3799991607666,24.461999893188477,24.461999893188477,27100
2020-03-02,24.399999618530273,24.589000701904297,22.049999237060547,23.899999618530273,23.899999618530273,13000
2020-03-03,24.16699981689453,24.790000915527344,24.0,24.450000762939453,24.450000762939453,7500
2020-03-04,24.25,24.450000762939453,23.756999969482422,24.0,24.0,17000
2020-03-05,24.0,24.1200008392334,23.75,23.80299949645996,23.80299949645996,4800
2020-03-06,23.600000381469727,23.75,23.0,23.024999618530273,23.024999618530273,6800
2020-03-09,22.059999465942383,22.059999465942383,20.09000015258789,20.09000015258789,20.09000015258789,7600
2020-03-10,20.84000015258789,20.850000381469727,18.25,19.0,19.0,9600
2020-03-11,18.31999969482422,18.882999420166016,12.75,14.800000190734863,14.800000190734863,35500
2020-03-12,13.100000381469727,13.100000381469727,6.313000202178955,6.321000099182129,6.321000099182129,17900
2020-03-13,8.789999961853027,9.33899974822998,7.432000160217285,8.506999969482422,8.506999969482422,21600
2020-03-16,7.900000095367432,7.945000171661377,6.75,6.75,6.75,23500
2020-03-17,6.329999923706055,6.619999885559082,5.849999904632568,6.489999771118164,6.489999771118164,23000
2020-03-18,5.8470001220703125,5.8470001220703125,2.5,3.069999933242798,3.069999933242798,60500
2020-03-19,3.180000066757202,4.385000228881836,3.0399999618530273,3.75,3.75,16800
2020-03-20,4.0960001945495605,5.75,3.9800000190734863,5.0,5.0,14900
2020-03-23,5.0,5.198999881744385,4.099999904632568,4.199999809265137,4.199999809265137,8600
2020-03-24,4.96999979019165,5.46999979019165,4.5,4.900000095367432,4.900000095367432,6200
2020-03-25,5.389999866485596,8.399999618530273,5.389999866485596,6.400000095367432,6.400000095367432,19600
2020-03-26,7.2230000495910645,8.899999618530273,7.0,7.0,7.0,10600
2020-03-27,7.445000171661377,8.260000228881836,7.0,7.441999912261963,7.441999912261963,12100
2020-03-30,6.230000019073486,8.220000267028809,6.230000019073486,7.88700008392334,7.88700008392334,8900
2020-03-31,7.421999931335449,7.75,7.0,7.25,7.25,6700
2020-04-01,6.664000034332275,7.039999961853027,6.019999980926514,6.960000038146973,6.960000038146973,12400
2020-04-02,7.0,8.460000038146973,6.88700008392334,6.900000095367432,6.900000095367432,18000
2020-04-03,5.329999923706055,6.349999904632568,5.329999923706055,6.340000152587891,6.340000152587891,3200
2020-04-06,5.974999904632568,7.5,5.974999904632568,7.170000076293945,7.170000076293945,7200
2020-04-07,7.5,8.100000381469727,7.440000057220459,8.100000381469727,8.100000381469727,24700
2020-04-08,7.289999961853027,10.180000305175781,7.28000020980835,9.0,9.0,17500
2020-04-09,9.0,13.473999977111816,8.75,12.75,12.75,23500
2020-04-13,12.75,12.75,10.25,11.5,11.5,13300
2020-04-14,12.267000198364258,12.267000198364258,10.5,10.907999992370605,10.907999992370605,15600
2020-04-15,11.279999732971191,11.279999732971191,9.09000015258789,9.619999885559082,9.619999885559082,4400
2020-04-16,10.460000038146973,10.460000038146973,9.119999885559082,9.390000343322754,9.390000343322754,5800
2020-04-17,9.100000381469727,9.140000343322754,8.699999809265137,8.800000190734863,8.800000190734863,6200
2020-04-20,8.600000381469727,8.600000381469727,8.060999870300293,8.100000381469727,8.100000381469727,5100
2020-04-21,8.14799976348877,8.90999984741211,7.5,7.710000038146973,7.710000038146973,4300
2020-04-22,8.22599983215332,8.22599983215332,6.869999885559082,7.0,7.0,8000
2020-04-23,8.75,8.75,7.150000095367432,7.150000095367432,7.150000095367432,23800
2020-04-24,7.139999866485596,7.150000095367432,7.039999961853027,7.050000190734863,7.050000190734863,2600
2020-04-27,7.25,7.25,7.099999904632568,7.099999904632568,7.099999904632568,1100
2020-04-28,7.0,7.090000152587891,6.5329999923706055,6.900000095367432,6.900000095367432,6900
2020-04-29,6.900000095367432,7.320000171661377,6.199999809265137,6.610000133514404,6.610000133514404,51800
2020-04-30,6.610000133514404,7.25,6.36899995803833,6.960000038146973,6.960000038146973,22400
2020-05-01,6.889999866485596,7.109000205993652,6.059999942779541,6.545000076293945,6.545000076293945,7600
2020-05-04,6.099999904632568,7.699999809265137,6.099999904632568,7.466000080108643,7.466000080108643,19300
2020-05-05,8.3149995803833,8.375,7.010000228881836,7.447999954223633,7.447999954223633,10300
2020-05-06,7.25,7.349999904632568,7.119999885559082,7.206999778747559,7.206999778747559,1200
2020-05-07,7.0,7.24399995803833,7.0,7.170000076293945,7.170000076293945,2900
2020-05-08,7.099999904632568,7.307000160217285,6.75,7.079999923706055,7.079999923706055,21600
2020-05-11,7.0,7.0,6.679999828338623,6.900000095367432,6.900000095367432,1600
2020-05-12,6.449999809265137,6.557000160217285,6.150000095367432,6.179999828338623,6.179999828338623,11100
2020-05-13,6.179999828338623,6.489999771118164,5.329999923706055,5.46999979019165,5.46999979019165,6600
2020-05-14,5.03000020980835,5.760000228881836,5.0,5.699999809265137,5.699999809265137,2100
2020-05-15,5.75,5.75,5.245999813079834,5.5,5.5,8600
2020-05-18,5.75,6.300000190734863,5.675000190734863,5.849999904632568,5.849999904632568,14600
2020-05-19,5.860000133514404,6.349999904632568,5.2779998779296875,5.460000038146973,5.460000038146973,13100
2020-05-20,5.75,5.75,5.567999839782715,5.614999771118164,5.614999771118164,2800
2020-05-21,5.420000076293945,5.783999919891357,5.339000225067139,5.425000190734863,5.425000190734863,4400
2020-05-22,5.599999904632568,5.599999904632568,5.050000190734863,5.420000076293945,5.420000076293945,6200
2020-05-26,5.449999809265137,6.989999771118164,5.449999809265137,6.150000095367432,6.150000095367432,4500
2020-05-27,6.400000095367432,7.989999771118164,6.349999904632568,7.989999771118164,7.989999771118164,34000
2020-05-28,8.239999771118164,9.729999542236328,8.239999771118164,9.017999649047852,9.017999649047852,64900
2020-05-29,9.0,9.053999900817871,7.5,8.119999885559082,8.119999885559082,12100
2020-06-01,8.420000076293945,8.479000091552734,7.900000095367432,7.900000095367432,7.900000095367432,45400
2020-06-02,8.0,8.529999732971191,8.0,8.5,8.5,2700
2020-06-03,8.628000259399414,10.279999732971191,8.0600004196167,10.0,10.0,23200
2020-06-04,9.800000190734863,11.130000114440918,9.800000190734863,10.859999656677246,10.859999656677246,34500
2020-06-05,11.539999961853027,13.59000015258789,11.539999961853027,12.420000076293945,12.420000076293945,57300
2020-06-08,13.319999694824219,15.979999542236328,13.319999694824219,15.585000038146973,15.585000038146973,15600
2020-06-09,15.15999984741211,16.25,13.600000381469727,14.039999961853027,14.039999961853027,5900
2020-06-10,12.569999694824219,12.75,10.399999618530273,12.020000457763672,12.020000457763672,17000
2020-06-11,10.989999771118164,11.23799991607666,10.0,10.699999809265137,10.699999809265137,10800
2020-06-12,11.010000228881836,11.859999656677246,11.010000228881836,11.569999694824219,11.569999694824219,3700
2020-06-15,11.149999618530273,11.979999542236328,10.743000030517578,11.869999885559082,11.869999885559082,10100
2020-06-16,12.220000267028809,13.380000114440918,12.029999732971191,13.0,13.0,17500
2020-06-17,13.199999809265137,13.199999809265137,11.335000038146973,11.600000381469727,11.600000381469727,1900
2020-06-18,10.913999557495117,11.930000305175781,10.75,11.5,11.5,2400
2020-06-19,10.75,11.329999923706055,10.694999694824219,10.979999542236328,10.979999542236328,3900
2020-06-22,9.859999656677246,10.154999732971191,9.8100004196167,10.109000205993652,10.109000205993652,4000
2020-06-23,9.704999923706055,9.899999618530273,9.559000015258789,9.559000015258789,9.559000015258789,800
2020-06-24,9.84000015258789,9.84000015258789,8.130000114440918,8.130000114440918,8.130000114440918,4400
2020-06-25,8.050000190734863,8.857000350952148,8.0,8.8100004196167,8.8100004196167,6400
2020-06-26,8.760000228881836,8.800000190734863,8.567000389099121,8.567000389099121,8.567000389099121,700
2020-06-29,8.350000381469727,9.270000457763672,8.282999992370605,8.649999618530273,8.649999618530273,2300
2020-06-30,8.880000114440918,9.4399995803833,8.880000114440918,9.4399995803833,9.4399995803833,2700
2020-07-01,9.800000190734863,10.088000297546387,9.291000366210938,9.5,9.5,5300
2020-07-02,10.144000053405762,10.144000053405762,9.21399974822998,9.21399974822998,9.21399974822998,1800
2020-07-06,8.902000427246094,9.130000114440918,8.8100004196167,9.130000114440918,9.130000114440918,3000
2020-07-07,9.130000114440918,9.130000114440918,8.510000228881836,8.609999656677246,8.609999656677246,1800
2020-07-08,8.569999694824219,8.569999694824219,8.369999885559082,8.5,8.5,3400
2020-07-09,9.239999771118164,9.239999771118164,7.849999904632568,8.0,8.0,4300
2020-07-10,8.454999923706055,8.454999923706055,8.109999656677246,8.329999923706055,8.329999923706055,700
2020-07-13,8.680000305175781,8.680000305175781,8.107999801635742,8.107999801635742,8.107999801635742,3600
2020-07-14,8.085000038146973,8.085000038146973,7.179999828338623,7.539999961853027,7.539999961853027,8100
2020-07-15,7.699999809265137,8.279999732971191,7.690000057220459,8.107000350952148,8.107000350952148,11700
2020-07-16,7.760000228881836,8.244999885559082,7.760000228881836,8.0,8.0,4600
2020-07-17,8.100000381469727,8.100000381469727,7.574999809265137,7.670000076293945,7.670000076293945,2400
2020-07-20,7.940000057220459,7.940000057220459,7.21999979019165,7.389999866485596,7.389999866485596,2600
2020-07-21,7.320000171661377,7.730000019073486,7.204999923706055,7.730000019073486,7.730000019073486,3200
2020-07-22,7.400000095367432,7.829999923706055,7.400000095367432,7.480000019073486,7.480000019073486,2200
2020-07-23,7.730000019073486,7.730000019073486,7.367000102996826,7.724999904632568,7.724999904632568,1000
2020-07-24,7.275000095367432,7.400000095367432,7.119999885559082,7.400000095367432,7.400000095367432,500
2020-07-27,7.010000228881836,7.244999885559082,6.739999771118164,6.820000171661377,6.820000171661377,3600
2020-07-28,6.650000095367432,6.989999771118164,6.650000095367432,6.835999965667725,6.835999965667725,1900
2020-07-29,6.989999771118164,6.989999771118164,6.860000133514404,6.949999809265137,6.949999809265137,1100
2020-07-30,6.295000076293945,6.599999904632568,5.949999809265137,6.300000190734863,6.300000190734863,7800
2020-07-31,6.168000221252441,6.329999923706055,6.03000020980835,6.329999923706055,6.329999923706055,2300
2020-08-03,5.880000114440918,6.340000152587891,5.880000114440918,5.900000095367432,5.900000095367432,3100
2020-08-04,5.809999942779541,6.170000076293945,5.800000190734863,6.130000114440918,6.130000114440918,7400
2020-08-05,6.130000114440918,6.447000026702881,6.130000114440918,6.447000026702881,6.447000026702881,3100
2020-08-06,6.039999961853027,6.449999809265137,5.681000232696533,6.355999946594238,6.355999946594238,5700
2020-08-07,6.559999942779541,7.034999847412109,6.5,6.550000190734863,6.550000190734863,3600
2020-08-10,6.800000190734863,7.189000129699707,6.800000190734863,6.920000076293945,6.920000076293945,7500
2020-08-11,7.25,8.475000381469727,7.25,7.96999979019165,7.96999979019165,11500
2020-08-12,8.399999618530273,8.920999526977539,7.710000038146973,8.039999961853027,8.039999961853027,18300
2020-08-13,7.760000228881836,8.175000190734863,7.75,7.75,7.75,2000
2020-08-14,7.190000057220459,7.900000095367432,7.190000057220459,7.900000095367432,7.900000095367432,1000
2020-08-17,8.630000114440918,8.630000114440918,6.5,7.0,7.0,7200
2020-08-18,6.699999809265137,7.630000114440918,6.659999847412109,7.309999942779541,7.309999942779541,5600
2020-08-19,7.309999942779541,7.309999942779541,7.309999942779541,7.309999942779541,7.309999942779541,0
2020-08-20,7.449999809265137,7.449999809265137,6.300000190734863,7.150000095367432,7.150000095367432,8600
2020-08-21,6.835000038146973,7.03000020980835,6.519999980926514,6.639999866485596,6.639999866485596,1700
2020-08-24,6.920000076293945,7.28000020980835,6.519999980926514,7.28000020980835,7.28000020980835,13300
2020-08-25,6.599999904632568,7.61299991607666,6.599999904632568,7.099999904632568,7.099999904632568,10100
2020-08-26,7.010000228881836,7.367000102996826,7.010000228881836,7.190000057220459,7.190000057220459,4600
2020-08-27,7.010000228881836,7.230000019073486,6.710000038146973,6.965000152587891,6.965000152587891,8200
2020-08-28,6.960000038146973,7.289999961853027,6.760000228881836,6.960000038146973,6.960000038146973,8400
2020-08-31,7.010000228881836,7.289999961853027,6.820000171661377,7.0,7.0,7900
2020-09-01,6.980000019073486,6.980000019073486,6.699999809265137,6.900000095367432,6.900000095367432,6800
2020-09-02,6.803999900817871,6.980000019073486,6.590000152587891,6.980000019073486,6.980000019073486,7600
2020-09-03,6.630000114440918,6.96999979019165,6.630000114440918,6.96999979019165,6.96999979019165,1000
2020-09-04,6.960000038146973,7.0,5.940000057220459,6.949999809265137,6.949999809265137,6900
2020-09-08,6.489999771118164,6.679999828338623,6.304999828338623,6.489999771118164,6.489999771118164,6500
2020-09-09,6.610000133514404,6.610000133514404,5.53000020980835,6.0,6.0,7400
2020-09-10,5.809999942779541,6.230000019073486,5.809999942779541,6.159999847412109,6.159999847412109,3700
2020-09-11,5.90500020980835,6.050000190734863,5.619999885559082,5.869999885559082,5.869999885559082,13200
2020-09-14,5.849999904632568,6.0,5.849999904632568,6.0,6.0,1900
2020-09-15,6.179999828338623,6.190000057220459,5.974999904632568,5.980000019073486,5.980000019073486,1500
2020-09-16,6.119999885559082,6.239999771118164,5.889999866485596,6.0,6.0,11500
2020-09-17,6.050000190734863,6.489999771118164,6.050000190734863,6.440000057220459,6.440000057220459,2700
2020-09-18,6.380000114440918,6.380000114440918,6.0,6.03000020980835,6.03000020980835,5000
2020-09-21,6.269999980926514,6.269999980926514,5.260000228881836,5.8420000076293945,5.8420000076293945,11200
2020-09-22,5.800000190734863,6.0,5.5960001945495605,6.0,6.0,4300
2020-09-23,5.619999885559082,5.630000114440918,5.0,5.21999979019165,5.21999979019165,6300
2020-09-24,5.190000057220459,5.251999855041504,4.78000020980835,5.251999855041504,5.251999855041504,8200
2020-09-25,5.010000228881836,5.25,5.010000228881836,5.25,5.25,1800
2020-09-28,5.400000095367432,5.9029998779296875,5.260000228881836,5.863999843597412,5.863999843597412,4400
2020-09-29,5.579999923706055,6.099999904632568,5.260000228881836,5.489999771118164,5.489999771118164,5600
2020-09-30,5.5,5.546999931335449,5.309999942779541,5.309999942779541,5.309999942779541,2900
2020-10-01,5.28000020980835,5.659999847412109,5.28000020980835,5.659999847412109,5.659999847412109,200
2020-10-02,5.510000228881836,5.710000038146973,5.5,5.710000038146973,5.710000038146973,900
2020-10-05,5.800000190734863,5.800000190734863,5.260000228881836,5.440000057220459,5.440000057220459,8100
2020-10-06,5.5,5.571000099182129,5.360000133514404,5.571000099182129,5.571000099182129,2700
2020-10-07,5.327000141143799,5.5,5.327000141143799,5.5,5.5,1400
2020-10-08,5.452000141143799,5.452000141143799,5.260000228881836,5.429999828338623,5.429999828338623,3100
2020-10-09,5.260000228881836,5.630000114440918,5.260000228881836,5.425000190734863,5.425000190734863,2500
2020-10-12,5.260000228881836,5.53000020980835,5.260000228881836,5.52400016784668,5.52400016784668,2200
2020-10-13,5.519999980926514,5.679999828338623,5.519999980926514,5.519999980926514,5.519999980926514,700
2020-10-14,5.300000190734863,5.510000228881836,5.25,5.434999942779541,5.434999942779541,1700
2020-10-15,5.260000228881836,5.349999904632568,5.159999847412109,5.329999923706055,5.329999923706055,1300
2020-10-16,5.159999847412109,5.5,5.150000095367432,5.5,5.5,4900
2020-10-19,5.539999961853027,5.75,5.367000102996826,5.75,5.75,4900
2020-10-20,5.510000228881836,6.0,5.400000095367432,5.869999885559082,5.869999885559082,9300
2020-10-21,5.900000095367432,5.949999809265137,5.78000020980835,5.900000095367432,5.900000095367432,4700
2020-10-22,5.889999866485596,6.480000019073486,5.880000114440918,6.199999809265137,6.199999809265137,2400
2020-10-23,6.150000095367432,6.150000095367432,5.78000020980835,6.039999961853027,6.039999961853027,1700
2020-10-26,6.0,6.010000228881836,5.900000095367432,6.0,6.0,6300
2020-10-27,5.929999828338623,6.099999904632568,5.860000133514404,6.079999923706055,6.079999923706055,8000
2020-10-28,5.900000095367432,5.900000095367432,5.670000076293945,5.800000190734863,5.800000190734863,12000
2020-10-29,5.900000095367432,6.03000020980835,5.607999801635742,6.03000020980835,6.03000020980835,10900
2020-10-30,5.829999923706055,6.0289998054504395,5.78000020980835,5.900000095367432,5.900000095367432,3500
2020-11-02,5.519999980926514,6.0,5.170000076293945,6.0,6.0,8200
2020-11-03,5.880000114440918,6.010000228881836,5.760000228881836,6.010000228881836,6.010000228881836,5600
2020-11-04,5.994999885559082,6.099999904632568,5.789999961853027,6.0,6.0,17800
2020-11-05,5.989999771118164,6.070000171661377,5.820000171661377,6.0,6.0,6800
2020-11-06,6.034999847412109,6.059999942779541,5.900000095367432,6.059999942779541,6.059999942779541,2100
2020-11-09,8.0,8.885000228881836,7.480000019073486,8.770000457763672,8.770000457763672,35200
2020-11-10,8.770000457763672,9.40999984741211,7.889999866485596,8.5600004196167,8.5600004196167,19300
2020-11-11,8.359999656677246,9.149999618530273,8.3100004196167,9.012999534606934,9.012999534606934,9200
2020-11-12,8.890000343322754,8.890000343322754,7.789999961853027,7.789999961853027,7.789999961853027,2500
2020-11-13,7.670000076293945,7.869999885559082,7.570000171661377,7.745999813079834,7.745999813079834,1900
2020-11-16,8.569999694824219,8.65999984741211,7.699999809265137,8.59000015258789,8.59000015258789,11200
2020-11-17,8.600000381469727,8.776000022888184,8.40999984741211,8.729999542236328,8.729999542236328,4000
2020-11-18,8.979999542236328,9.350000381469727,8.779999732971191,8.850000381469727,8.850000381469727,9900
2020-11-19,8.779999732971191,8.779999732971191,8.550000190734863,8.569999694824219,8.569999694824219,5800
2020-11-20,8.770000457763672,9.519000053405762,8.770000457763672,9.079999923706055,9.079999923706055,2200
2020-11-23,9.289999961853027,10.050000190734863,9.289999961853027,9.989999771118164,9.989999771118164,5500
2020-11-24,9.989999771118164,12.5,9.989999771118164,12.170000076293945,12.170000076293945,14700
2020-11-25,12.619999885559082,12.619999885559082,12.0,12.0,12.0,2500
2020-11-27,12.0,12.140000343322754,11.100000381469727,11.979999542236328,11.979999542236328,4600
2020-11-30,11.0,11.59000015258789,11.0,11.59000015258789,11.59000015258789,3100
2020-12-01,11.050000190734863,11.050000190734863,11.0,11.0,11.0,900
2020-12-02,11.475000381469727,12.079999923706055,10.899999618530273,11.619999885559082,11.619999885559082,2300
2020-12-03,11.40999984741211,12.937999725341797,10.899999618530273,12.725000381469727,12.725000381469727,3300
2020-12-04,11.930000305175781,12.979999542236328,11.930000305175781,12.765000343322754,12.765000343322754,5000
2020-12-07,13.210000038146973,14.586999893188477,12.800000190734863,12.949999809265137,12.949999809265137,23000
2020-12-08,12.744999885559082,13.25,12.649999618530273,13.067000389099121,13.067000389099121,9200
2020-12-09,13.199999809265137,14.0,13.199999809265137,13.75,13.75,4200
2020-12-10,13.890000343322754,13.989999771118164,13.5,13.600000381469727,13.600000381469727,6800
2020-12-11,13.510000228881836,13.84000015258789,12.90999984741211,13.585000038146973,13.585000038146973,7000
2020-12-14,13.449999809265137,13.989999771118164,13.449999809265137,13.645000457763672,13.645000457763672,11400
2020-12-15,13.579999923706055,13.984000205993652,13.343000411987305,13.984000205993652,13.984000205993652,2000
2020-12-16,13.526000022888184,13.979999542236328,12.859999656677246,13.170000076293945,13.170000076293945,7300
2020-12-17,13.494999885559082,13.979000091552734,13.494999885559082,13.835000038146973,13.835000038146973,1500
2020-12-18,12.850000381469727,13.75,12.850000381469727,13.289999961853027,13.289999961853027,7100
2020-12-21,13.0,13.199999809265137,12.204999923706055,12.319999694824219,12.319999694824219,4800
2020-12-22,11.699999809265137,12.229999542236328,11.5,12.199999809265137,12.199999809265137,8600
2020-12-23,12.300000190734863,12.694999694824219,11.609999656677246,11.720000267028809,11.720000267028809,10100
2020-12-24,11.720000267028809,11.720000267028809,11.720000267028809,11.720000267028809,11.720000267028809,0
2020-12-28,12.100000381469727,12.59000015258789,11.75,12.039999961853027,12.039999961853027,10400
2020-12-29,11.800000190734863,12.59000015258789,11.729999542236328,12.039999961853027,12.039999961853027,9600
2020-12-30,12.239999771118164,12.619999885559082,11.109999656677246,12.25,12.25,15800
