Date,Open,High,Low,Close,Adj Close,Volume
2020-01-14,25.290000915527344,25.31999969482422,25.15999984741211,25.260000228881836,23.463623046875,1338200
2020-01-15,25.309999465942383,25.350000381469727,25.229999542236328,25.25,23.45433235168457,1068600
2020-01-16,25.25,25.309999465942383,25.219999313354492,25.309999465942383,23.510066986083984,1045400
2020-01-17,25.309999465942383,25.3700008392334,25.295000076293945,25.329999923706055,23.528642654418945,863800
2020-01-21,25.360000610351562,25.420000076293945,25.350000381469727,25.389999389648438,23.58437728881836,1215800
2020-01-22,25.43000030517578,25.479999542236328,25.399999618530273,25.479999542236328,23.66797637939453,1179100
2020-01-23,25.479999542236328,25.549999237060547,25.43000030517578,25.489999771118164,23.67726707458496,635600
2020-01-24,25.510000228881836,25.530000686645508,25.3700008392334,25.450000762939453,23.64011001586914,525400
2020-01-27,25.31999969482422,25.399999618530273,25.290000915527344,25.399999618530273,23.59366798400879,359400
2020-01-28,25.43000030517578,25.489999771118164,25.399999618530273,25.469999313354492,23.658687591552734,756800
2020-01-29,25.489999771118164,25.600000381469727,25.489999771118164,25.59000015258789,23.770156860351562,896000
2020-01-30,25.540000915527344,25.68000030517578,25.475000381469727,25.65999984741211,23.835176467895508,1499400
2020-01-31,25.690000534057617,25.690000534057617,25.469999313354492,25.489999771118164,23.67726707458496,5782300
2020-02-03,25.510000228881836,25.520000457763672,25.450000762939453,25.469999313354492,23.658687591552734,503300
2020-02-04,25.520000457763672,25.670000076293945,25.520000457763672,25.649999618530273,23.825885772705078,657900
2020-02-05,25.700000762939453,25.760000228881836,25.649999618530273,25.75,23.918777465820312,456900
2020-02-06,25.75,25.770000457763672,25.71500015258789,25.760000228881836,23.92806625366211,225000
2020-02-07,25.790000915527344,25.81999969482422,25.700000762939453,25.7549991607666,23.923419952392578,279500
2020-02-10,25.770000457763672,25.780000686645508,25.700000762939453,25.75,23.918777465820312,295700
2020-02-11,25.770000457763672,25.829999923706055,25.739999771118164,25.75,23.918777465820312,254200
2020-02-12,25.799999237060547,25.799999237060547,25.68000030517578,25.739999771118164,23.909482955932617,269700
2020-02-13,25.739999771118164,25.81999969482422,25.70800018310547,25.790000915527344,23.955930709838867,235600
2020-02-14,25.799999237060547,25.860000610351562,25.792999267578125,25.850000381469727,24.011667251586914,283600
2020-02-18,25.8700008392334,25.916000366210938,25.829999923706055,25.850000381469727,24.011667251586914,213000
2020-02-19,25.860000610351562,25.8799991607666,25.739999771118164,25.739999771118164,23.909482955932617,137200
2020-02-20,25.81999969482422,25.860000610351562,25.780000686645508,25.829999923706055,23.993083953857422,150400
2020-02-21,25.84000015258789,25.8700008392334,25.781999588012695,25.799999237060547,23.965221405029297,151100
2020-02-24,25.700000762939453,25.75,25.65999984741211,25.65999984741211,23.835176467895508,152800
2020-02-25,25.75,25.75,25.40999984741211,25.489999771118164,23.67726707458496,252500
2020-02-26,25.489999771118164,25.549999237060547,25.34000015258789,25.3799991607666,23.57508659362793,217100
2020-02-27,25.31999969482422,25.329999923706055,25.062999725341797,25.18000030517578,23.389314651489258,257300
2020-02-28,25.149999618530273,25.149999618530273,24.639999389648438,24.690000534057617,22.934158325195312,560000
2020-03-02,24.899999618530273,25.290000915527344,24.799999237060547,25.260000228881836,23.463623046875,266900
2020-03-03,25.290000915527344,25.719999313354492,25.280000686645508,25.440000534057617,23.630823135375977,178000
2020-03-04,25.5,25.649999618530273,25.413999557495117,25.649999618530273,23.825885772705078,176200
2020-03-05,25.559999465942383,25.6299991607666,25.360000610351562,25.3700008392334,23.5658016204834,131700
2020-03-06,25.200000762939453,25.3799991607666,25.100000381469727,25.309999465942383,23.510066986083984,114300
2020-03-09,24.8799991607666,25.0,24.360000610351562,24.538000106811523,22.79296875,170100
2020-03-10,25.0,25.0,24.409000396728516,24.690000534057617,22.934158325195312,197300
2020-03-11,24.649999618530273,24.690000534057617,24.149999618530273,24.219999313354492,22.49757957458496,272800
2020-03-12,23.739999771118164,23.75,21.360000610351562,21.5,19.971017837524414,321300
2020-03-13,22.270000457763672,23.149999618530273,21.809999465942383,22.75,21.132122039794922,312300
2020-03-16,21.8799991607666,22.292999267578125,20.229999542236328,20.75,19.27435302734375,268400
2020-03-17,21.360000610351562,21.899999618530273,20.899999618530273,21.270000457763672,19.757373809814453,222100
2020-03-18,20.5,20.5,14.09000015258789,16.0,14.862152099609375,458700
2020-03-19,16.899999618530273,20.399999618530273,16.510000228881836,18.510000228881836,17.193653106689453,803600
2020-03-20,19.579999923706055,20.829999923706055,19.010000228881836,20.149999618530273,18.717023849487305,230000
2020-03-23,20.010000228881836,20.149999618530273,17.95400047302246,19.100000381469727,17.741695404052734,233200
2020-03-24,20.09000015258789,20.700000762939453,19.6200008392334,20.211999893188477,18.774614334106445,343900
2020-03-25,20.59000015258789,22.350000381469727,20.510000228881836,21.440000534057617,19.915285110473633,212000
2020-03-26,22.260000228881836,23.25,22.100000381469727,22.899999618530273,21.271455764770508,207400
2020-03-27,22.899999618530273,22.899999618530273,21.75,22.059999465942383,20.491193771362305,201100
2020-03-30,22.399999618530273,22.84000015258789,22.059999465942383,22.649999618530273,21.039236068725586,130100
2020-03-31,22.75,22.878000259399414,22.389999389648438,22.389999389648438,20.7977237701416,224400
2020-04-01,22.299999237060547,22.59000015258789,21.867000579833984,22.219999313354492,20.639812469482422,159300
2020-04-02,22.18000030517578,22.59000015258789,21.950000762939453,22.190000534057617,20.611948013305664,108100
2020-04-03,22.030000686645508,22.209999084472656,21.729999542236328,22.15999984741211,20.58407974243164,107200
2020-04-06,22.760000228881836,23.079999923706055,22.36400032043457,22.760000228881836,21.14141273498535,107200
2020-04-07,23.25,23.540000915527344,22.851999282836914,23.360000610351562,21.69874382019043,146300
2020-04-08,23.6200008392334,24.190000534057617,23.410999298095703,23.89900016784668,22.199413299560547,156600
2020-04-09,24.5,24.56999969482422,24.0,24.375,22.64156150817871,193600
2020-04-13,24.350000381469727,24.43000030517578,23.790000915527344,24.049999237060547,22.339672088623047,192600
2020-04-14,24.299999237060547,24.450000762939453,23.899999618530273,24.15999984741211,22.441850662231445,161500
2020-04-15,23.989999771118164,24.3700008392334,23.850000381469727,24.170000076293945,22.451139450073242,139400
2020-04-16,24.299999237060547,24.479999542236328,24.059999465942383,24.295000076293945,22.567249298095703,172700
2020-04-17,24.450000762939453,24.770000457763672,24.260000228881836,24.5,22.757671356201172,180300
2020-04-20,24.489999771118164,24.6299991607666,24.36400032043457,24.559999465942383,22.81340217590332,106000
2020-04-21,24.510000228881836,24.540000915527344,24.100000381469727,24.5,22.757671356201172,121500
2020-04-22,24.520000457763672,24.780000686645508,24.389999389648438,24.389999389648438,22.655492782592773,158900
2020-04-23,24.5,24.670000076293945,24.43000030517578,24.510000228881836,22.766958236694336,159400
2020-04-24,24.690000534057617,24.729999542236328,24.5,24.540000915527344,22.79482650756836,163600
2020-04-27,24.690000534057617,24.739999771118164,24.565000534057617,24.579999923706055,22.831979751586914,226500
2020-04-28,24.43000030517578,24.489999771118164,24.209999084472656,24.329999923706055,22.956531524658203,188000
2020-04-29,24.5,24.6299991607666,24.350000381469727,24.610000610351562,23.220722198486328,165300
2020-04-30,24.549999237060547,24.899999618530273,24.450000762939453,24.670000076293945,23.27733612060547,527200
2020-05-01,24.649999618530273,24.65999984741211,24.399999618530273,24.540000915527344,23.154674530029297,157000
2020-05-04,24.540000915527344,24.709999084472656,24.499000549316406,24.709999084472656,23.31507682800293,135100
2020-05-05,24.770000457763672,24.920000076293945,24.628999710083008,24.639999389648438,23.249027252197266,134500
2020-05-06,24.75,24.84000015258789,24.65999984741211,24.719999313354492,23.32451057434082,110400
2020-05-07,24.770000457763672,24.90999984741211,24.700000762939453,24.790000915527344,23.39056396484375,159000
2020-05-08,24.8700008392334,24.950000762939453,24.709999084472656,24.729999542236328,23.33395004272461,133700
2020-05-11,24.790000915527344,24.8799991607666,24.75,24.829999923706055,23.428302764892578,90800
2020-05-12,24.81999969482422,24.829999923706055,24.649999618530273,24.709999084472656,23.31507682800293,113700
2020-05-13,24.739999771118164,24.739999771118164,24.510000228881836,24.6299991607666,23.239593505859375,124200
2020-05-14,24.530000686645508,24.6200008392334,24.21500015258789,24.600000381469727,23.211286544799805,113000
2020-05-15,24.600000381469727,24.610000610351562,24.510000228881836,24.530000686645508,23.145238876342773,120400
2020-05-18,24.729999542236328,24.739999771118164,24.56999969482422,24.600000381469727,23.211286544799805,102300
2020-05-19,24.690000534057617,24.75,24.59000015258789,24.59000015258789,23.20185089111328,108100
2020-05-20,24.700000762939453,24.790000915527344,24.639999389648438,24.75,23.352819442749023,149000
2020-05-21,24.799999237060547,24.899999618530273,24.700000762939453,24.799999237060547,23.39999771118164,90000
2020-05-22,24.8700008392334,24.989999771118164,24.81999969482422,24.954999923706055,23.546245574951172,128400
2020-05-26,25.0,25.0,24.920000076293945,24.93000030517578,23.522659301757812,148400
2020-05-27,24.979999542236328,25.030000686645508,24.93000030517578,25.030000686645508,23.617015838623047,168900
2020-05-28,25.030000686645508,25.149999618530273,24.940000534057617,24.979999542236328,23.569833755493164,131000
2020-05-29,25.0,25.100000381469727,24.950000762939453,24.950000762939453,23.541528701782227,183100
2020-06-01,25.040000915527344,25.079999923706055,24.950000762939453,25.059999465942383,23.64531898498535,251900
2020-06-02,25.079999923706055,25.09000015258789,24.950000762939453,25.079999923706055,23.6641902923584,154000
2020-06-03,25.100000381469727,25.1200008392334,25.030000686645508,25.1200008392334,23.701932907104492,186000
2020-06-04,25.100000381469727,25.3700008392334,25.075000762939453,25.280000686645508,23.8528995513916,220600
2020-06-05,25.40999984741211,25.5,25.360000610351562,25.40999984741211,23.975561141967773,211200
2020-06-08,25.399999618530273,25.59000015258789,25.309999465942383,25.579999923706055,24.13596534729004,132800
2020-06-09,25.56999969482422,25.600000381469727,25.43000030517578,25.5,24.06048011779785,72000
2020-06-10,25.5,25.59000015258789,25.399999618530273,25.489999771118164,24.05104637145996,103400
2020-06-11,25.350000381469727,25.420000076293945,24.920000076293945,25.110000610351562,23.69249725341797,225700
2020-06-12,25.34000015258789,25.34000015258789,24.799999237060547,24.799999237060547,23.39999771118164,125900
2020-06-15,24.700000762939453,25.170000076293945,24.649999618530273,25.170000076293945,23.749109268188477,101100
2020-06-16,25.190000534057617,25.270000457763672,25.020000457763672,25.030000686645508,23.617015838623047,152900
2020-06-17,25.040000915527344,25.170000076293945,25.010000228881836,25.06999969482422,23.654754638671875,87600
2020-06-18,25.100000381469727,25.209999084472656,25.040000915527344,25.209999084472656,23.786849975585938,90800
2020-06-19,25.229999542236328,25.290000915527344,25.174999237060547,25.239999771118164,23.815156936645508,107200
2020-06-22,25.270000457763672,25.270000457763672,25.100000381469727,25.139999389648438,23.720802307128906,97700
2020-06-23,25.219999313354492,25.25,25.079999923706055,25.190000534057617,23.76798439025879,129900
2020-06-24,25.200000762939453,25.239999771118164,25.100000381469727,25.200000762939453,23.777416229248047,120100
2020-06-25,25.209999084472656,25.25,25.139999389648438,25.219999313354492,23.79628562927246,79700
2020-06-26,25.239999771118164,25.239999771118164,25.100000381469727,25.18000030517578,23.758544921875,103300
2020-06-29,25.18000030517578,25.200000762939453,25.110000610351562,25.200000762939453,23.777416229248047,94300
2020-06-30,25.200000762939453,25.260000228881836,25.100000381469727,25.100000381469727,23.683061599731445,307400
2020-07-01,25.170000076293945,25.360000610351562,25.170000076293945,25.229999542236328,23.805721282958984,87100
2020-07-02,25.309999465942383,25.40999984741211,25.25,25.389999389648438,23.956687927246094,78000
2020-07-06,25.40999984741211,25.549999237060547,25.40999984741211,25.540000915527344,24.098224639892578,71800
2020-07-07,25.579999923706055,25.639999389648438,25.540000915527344,25.579999923706055,24.13596534729004,94500
2020-07-08,25.600000381469727,25.700000762939453,25.59000015258789,25.6299991607666,24.183141708374023,85300
2020-07-09,25.709999084472656,25.729999542236328,25.6299991607666,25.709999084472656,24.258625030517578,93200
2020-07-10,25.709999084472656,25.829999923706055,25.670000076293945,25.799999237060547,24.343544006347656,74900
2020-07-13,25.799999237060547,25.84000015258789,25.709999084472656,25.798999786376953,24.342599868774414,76000
2020-07-14,25.739999771118164,25.799999237060547,25.700000762939453,25.719999313354492,24.2680606842041,68100
2020-07-15,25.739999771118164,25.84000015258789,25.739999771118164,25.799999237060547,24.343544006347656,71200
2020-07-16,25.760000228881836,26.06999969482422,25.760000228881836,25.790000915527344,24.334110260009766,107700
2020-07-17,25.84000015258789,26.049999237060547,25.729999542236328,25.8700008392334,24.409595489501953,147000
2020-07-20,25.8700008392334,25.940000534057617,25.790000915527344,25.850000381469727,24.390722274780273,78000
2020-07-21,25.8799991607666,26.079999923706055,25.8799991607666,26.05500030517578,24.584150314331055,76200
2020-07-22,26.079999923706055,26.170000076293945,26.010000228881836,26.149999618530273,24.67378807067871,81400
2020-07-23,26.1200008392334,26.229999542236328,26.110000610351562,26.209999084472656,24.73040008544922,49000
2020-07-24,26.200000762939453,26.31999969482422,26.15999984741211,26.290000915527344,24.805885314941406,63700
2020-07-27,26.31999969482422,26.360000610351562,26.139999389648438,26.18000030517578,24.70209312438965,94500
2020-07-28,25.899999618530273,26.09000015258789,25.829999923706055,26.059999465942383,24.88255500793457,115200
2020-07-29,26.0,26.190000534057617,25.989999771118164,26.190000534057617,25.006681442260742,102200
2020-07-30,26.190000534057617,26.309999465942383,26.06999969482422,26.299999237060547,25.111711502075195,121800
2020-07-31,26.260000228881836,26.350000381469727,26.1299991607666,26.200000762939453,25.016231536865234,202300
2020-08-03,26.270000457763672,26.285999298095703,26.139999389648438,26.18600082397461,25.00286293029785,73300
2020-08-04,26.229999542236328,26.290000915527344,26.18000030517578,26.260000228881836,25.073516845703125,74900
2020-08-05,26.260000228881836,26.299999237060547,26.219999313354492,26.299999237060547,25.111711502075195,68500
2020-08-06,26.299999237060547,26.299999237060547,26.100000381469727,26.25,25.0639705657959,101600
2020-08-07,26.239999771118164,26.299999237060547,26.1299991607666,26.299999237060547,25.111711502075195,73600
2020-08-10,26.299999237060547,26.329999923706055,26.1299991607666,26.239999771118164,25.05442237854004,101900
2020-08-11,26.239999771118164,26.290000915527344,26.184999465942383,26.280000686645508,25.09261703491211,86000
2020-08-12,26.25,26.389999389648438,26.25,26.389999389648438,25.19764518737793,49500
2020-08-13,26.299999237060547,26.469999313354492,26.290000915527344,26.450000762939453,25.25493621826172,36800
2020-08-14,26.450000762939453,26.611000061035156,26.398000717163086,26.450000762939453,25.25493621826172,61200
2020-08-17,26.56999969482422,26.639999389648438,26.510000228881836,26.639999389648438,25.43634796142578,45500
2020-08-18,26.690000534057617,26.75,26.621999740600586,26.649999618530273,25.44589614868164,208800
2020-08-19,26.649999618530273,26.709999084472656,26.649999618530273,26.670000076293945,25.464996337890625,93300
2020-08-20,26.6200008392334,26.709999084472656,26.600000381469727,26.700000762939453,25.49363899230957,126800
2020-08-21,26.709999084472656,26.770000457763672,26.610000610351562,26.690000534057617,25.48409080505371,42600
2020-08-24,26.690000534057617,26.719999313354492,26.639999389648438,26.700000762939453,25.49363899230957,235800
2020-08-25,26.700000762939453,26.719999313354492,26.649999618530273,26.719999313354492,25.512733459472656,294700
2020-08-26,26.719999313354492,26.850000381469727,26.700000762939453,26.850000381469727,25.63686180114746,59300
2020-08-27,26.850000381469727,26.899999618530273,26.822999954223633,26.889999389648438,25.675052642822266,64000
2020-08-28,26.899999618530273,26.899999618530273,26.6299991607666,26.760000228881836,25.550928115844727,67200
2020-08-31,26.829999923706055,26.989999771118164,26.700000762939453,26.81999969482422,25.60821533203125,174400
2020-09-01,26.93000030517578,26.959999084472656,26.84000015258789,26.93000030517578,25.713247299194336,141100
2020-09-02,26.93000030517578,26.93000030517578,26.790000915527344,26.90999984741211,25.694150924682617,61500
2020-09-03,26.899999618530273,26.899999618530273,26.700000762939453,26.83300018310547,25.62062644958496,64500
2020-09-04,26.780000686645508,26.799999237060547,26.520000457763672,26.65999984741211,25.4554443359375,64100
2020-09-08,26.65999984741211,26.700000762939453,26.5,26.55699920654297,25.357097625732422,76500
2020-09-09,26.600000381469727,26.799999237060547,26.600000381469727,26.799999237060547,25.58911895751953,78600
2020-09-10,26.81999969482422,26.850000381469727,26.690000534057617,26.739999771118164,25.531829833984375,89900
2020-09-11,26.809999465942383,26.834999084472656,26.709999084472656,26.709999084472656,25.503185272216797,72400
2020-09-14,26.780000686645508,26.850000381469727,26.746000289916992,26.84000015258789,25.6273136138916,39400
2020-09-15,26.8700008392334,26.889999389648438,26.610000610351562,26.6299991607666,25.426799774169922,164900
2020-09-16,26.709999084472656,26.850000381469727,26.57699966430664,26.649999618530273,25.44589614868164,106400
2020-09-17,26.6299991607666,26.809999465942383,26.600000381469727,26.780000686645508,25.570024490356445,71900
2020-09-18,26.799999237060547,26.799999237060547,26.68400001525879,26.760000228881836,25.550928115844727,27500
2020-09-21,26.59000015258789,26.649999618530273,26.450000762939453,26.6299991607666,25.426799774169922,75300
2020-09-22,26.649999618530273,26.709999084472656,26.530000686645508,26.65999984741211,25.4554443359375,116400
2020-09-23,26.690000534057617,26.690000534057617,26.399999618530273,26.450000762939453,25.25493621826172,104900
2020-09-24,26.40999984741211,26.489999771118164,26.31999969482422,26.459999084472656,25.264482498168945,54000
2020-09-25,26.489999771118164,26.700000762939453,26.40999984741211,26.579999923706055,25.379058837890625,42800
2020-09-28,26.6200008392334,26.709999084472656,26.600000381469727,26.639999389648438,25.43634796142578,81200
2020-09-29,26.700000762939453,26.700000762939453,26.510000228881836,26.59000015258789,25.388607025146484,69400
2020-09-30,26.6299991607666,26.6299991607666,26.360000610351562,26.360000610351562,25.169002532958984,258900
2020-10-01,26.399999618530273,26.639999389648438,26.399999618530273,26.610000610351562,25.40770721435547,58300
2020-10-02,26.549999237060547,26.68000030517578,26.549999237060547,26.610000610351562,25.40770721435547,72600
2020-10-05,26.59000015258789,26.860000610351562,26.59000015258789,26.850000381469727,25.63686180114746,49500
2020-10-06,26.860000610351562,26.860000610351562,26.649999618530273,26.780000686645508,25.570024490356445,96000
2020-10-07,26.81999969482422,26.899999618530273,26.81999969482422,26.895000457763672,25.679828643798828,52600
2020-10-08,26.899999618530273,26.90999984741211,26.850000381469727,26.899999618530273,25.684600830078125,52700
2020-10-09,26.90999984741211,26.90999984741211,26.780000686645508,26.8799991607666,25.665504455566406,66800
2020-10-12,26.84000015258789,26.90999984741211,26.81999969482422,26.84000015258789,25.6273136138916,47400
2020-10-13,26.889999389648438,26.920000076293945,26.850000381469727,26.90999984741211,25.694150924682617,68900
2020-10-14,26.90999984741211,26.940000534057617,26.829999923706055,26.8700008392334,25.65595817565918,41900
2020-10-15,26.829999923706055,26.940000534057617,26.770000457763672,26.90999984741211,25.694150924682617,68300
2020-10-16,26.940000534057617,26.979999542236328,26.90999984741211,26.959999084472656,25.74188995361328,36800
2020-10-19,26.920000076293945,26.959999084472656,26.829999923706055,26.899999618530273,25.684600830078125,71000
2020-10-20,26.8799991607666,27.09000015258789,26.850000381469727,27.040000915527344,25.81827735900879,82000
2020-10-21,27.079999923706055,27.09000015258789,26.799999237060547,26.809999465942383,25.59866714477539,73900
2020-10-22,26.8799991607666,26.989999771118164,26.81999969482422,26.989999771118164,25.770536422729492,46200
2020-10-23,27.020000457763672,27.30500030517578,27.0,27.280000686645508,26.04743194580078,59900
2020-10-26,27.190000534057617,27.239999771118164,27.149999618530273,27.219999313354492,25.990142822265625,86000
2020-10-27,27.239999771118164,27.299999237060547,27.1200008392334,27.200000762939453,25.97104835510254,111000
2020-10-28,26.850000381469727,26.920000076293945,26.350000381469727,26.389999389648438,25.487186431884766,175300
2020-10-29,26.520000457763672,26.639999389648438,26.299999237060547,26.420000076293945,25.516159057617188,119700
2020-10-30,26.530000686645508,26.549999237060547,26.299999237060547,26.3799991607666,25.477527618408203,393000
2020-11-02,26.43000030517578,26.488000869750977,26.280000686645508,26.280000686645508,25.380950927734375,153400
2020-11-03,26.389999389648438,26.540000915527344,26.3700008392334,26.40999984741211,25.506502151489258,94500
2020-11-04,26.549999237060547,26.739999771118164,26.5,26.690000534057617,25.77692413330078,61100
2020-11-05,26.739999771118164,26.84000015258789,26.66699981689453,26.760000228881836,25.844528198242188,64800
2020-11-06,26.760000228881836,26.790000915527344,26.549999237060547,26.610000610351562,25.699661254882812,42900
2020-11-09,26.729999542236328,26.8799991607666,26.649999618530273,26.799999237060547,25.883159637451172,100000
2020-11-10,26.8700008392334,26.969999313354492,26.760000228881836,26.760000228881836,25.844528198242188,84100
2020-11-11,26.790000915527344,26.860000610351562,26.75,26.780000686645508,25.86384391784668,51000
2020-11-12,26.780000686645508,26.899999618530273,26.739999771118164,26.84000015258789,25.92179298400879,48100
2020-11-13,26.850000381469727,26.979999542236328,26.809999465942383,26.850000381469727,25.93144989013672,48100
2020-11-16,26.969999313354492,27.3799991607666,26.860000610351562,27.31999969482422,26.3853702545166,68600
2020-11-17,27.260000228881836,27.3700008392334,27.121000289916992,27.239999771118164,26.308107376098633,67000
2020-11-18,27.280000686645508,27.420000076293945,27.239999771118164,27.31999969482422,26.3853702545166,44500
2020-11-19,27.290000915527344,27.59000015258789,27.2549991607666,27.469999313354492,26.53023910522461,107400
2020-11-20,27.440000534057617,27.530000686645508,27.3700008392334,27.43000030517578,26.491607666015625,55800
2020-11-23,27.450000762939453,27.600000381469727,27.440000534057617,27.450000762939453,26.510923385620117,94000
2020-11-24,27.450000762939453,27.542999267578125,27.3700008392334,27.3799991607666,26.443317413330078,101600
2020-11-25,27.440000534057617,27.450000762939453,27.290000915527344,27.440000534057617,26.501264572143555,123600
2020-11-27,27.43000030517578,27.489999771118164,27.413000106811523,27.459999084472656,26.520580291748047,18600
2020-11-30,27.459999084472656,27.469999313354492,27.25,27.25,26.317766189575195,116300
2020-12-01,27.34000015258789,27.3799991607666,27.219999313354492,27.219999313354492,26.28879165649414,23900
2020-12-02,27.229999542236328,27.3700008392334,27.139999389648438,27.260000228881836,26.327423095703125,62200
2020-12-03,27.360000610351562,27.389999389648438,27.229999542236328,27.280000686645508,26.346738815307617,85200
2020-12-04,27.34000015258789,27.34000015258789,27.25,27.280000686645508,26.346738815307617,70600
2020-12-07,27.360000610351562,27.40999984741211,27.280000686645508,27.399999618530273,26.46263313293457,35700
2020-12-08,27.40999984741211,27.5,27.31999969482422,27.3799991607666,26.443317413330078,76300
2020-12-09,27.43000030517578,27.440000534057617,27.329999923706055,27.440000534057617,26.501264572143555,45300
2020-12-10,27.420000076293945,27.42300033569336,27.06999969482422,27.219999313354492,26.28879165649414,96000
2020-12-11,27.260000228881836,27.350000381469727,27.20599937438965,27.280000686645508,26.346738815307617,53800
2020-12-14,27.219999313354492,27.299999237060547,27.200000762939453,27.219999313354492,26.28879165649414,73200
2020-12-15,27.270000457763672,27.290000915527344,27.18000030517578,27.200000762939453,26.26947593688965,76900
2020-12-16,27.209999084472656,27.31999969482422,27.110000610351562,27.299999237060547,26.366056442260742,79500
2020-12-17,27.299999237060547,27.389999389648438,27.200000762939453,27.389999389648438,26.45297622680664,49700
2020-12-18,27.420000076293945,27.43000030517578,27.350000381469727,27.40999984741211,26.472291946411133,39600
2020-12-21,27.360000610351562,27.489999771118164,27.309999465942383,27.489999771118164,26.5495548248291,52200
2020-12-22,27.489999771118164,27.5,27.420000076293945,27.469999313354492,26.53023910522461,102900
2020-12-23,27.43000030517578,27.489999771118164,27.3799991607666,27.399999618530273,26.46263313293457,63900
2020-12-24,27.459999084472656,27.459999084472656,27.3799991607666,27.399999618530273,26.46263313293457,63600
2020-12-28,27.459999084472656,27.489999771118164,27.399999618530273,27.40999984741211,26.472291946411133,64500
2020-12-29,27.40999984741211,27.469999313354492,27.3700008392334,27.3700008392334,26.43366050720215,51500
2020-12-30,27.440000534057617,27.469999313354492,27.358999252319336,27.3799991607666,26.443317413330078,56200
