Date,Open,High,Low,Close,Adj Close,Volume
2019-02-19,4.894999980926514,4.949999809265137,4.369999885559082,4.869999885559082,4.869999885559082,161100
2019-02-20,5.0,5.25,4.829999923706055,4.849999904632568,4.849999904632568,82800
2019-02-21,4.860000133514404,4.889999866485596,4.670000076293945,4.829999923706055,4.829999923706055,27000
2019-02-22,5.25,5.25,4.5229997634887695,4.617000102996826,4.617000102996826,65700
2019-02-25,4.599999904632568,4.75,4.5,4.699999809265137,4.699999809265137,21400
2019-02-26,4.96999979019165,4.97599983215332,4.119999885559082,4.579999923706055,4.579999923706055,40800
2019-02-27,4.5289998054504395,4.550000190734863,4.324999809265137,4.3429999351501465,4.3429999351501465,3600
2019-02-28,4.478000164031982,4.760000228881836,4.448999881744385,4.639999866485596,4.639999866485596,16800
2019-03-01,4.599999904632568,5.010000228881836,4.322000026702881,4.989999771118164,4.989999771118164,41600
2019-03-04,5.0,5.019999980926514,4.769999980926514,4.800000190734863,4.800000190734863,37100
2019-03-05,4.800000190734863,4.800000190734863,4.5,4.590000152587891,4.590000152587891,10600
2019-03-06,4.5,4.739999771118164,4.5,4.619999885559082,4.619999885559082,4200
2019-03-07,4.880000114440918,4.880000114440918,4.650000095367432,4.739999771118164,4.739999771118164,2800
2019-03-08,4.800000190734863,5.197999954223633,4.800000190734863,4.900000095367432,4.900000095367432,52600
2019-03-11,5.099999904632568,5.099999904632568,4.849999904632568,4.849999904632568,4.849999904632568,10400
2019-03-12,5.0,5.125,4.900000095367432,4.949999809265137,4.949999809265137,31800
2019-03-13,5.019999980926514,6.190000057220459,5.019999980926514,5.900000095367432,5.900000095367432,640100
2019-03-14,6.25,6.618000030517578,5.75,6.489999771118164,6.489999771118164,268600
2019-03-15,6.400000095367432,6.699999809265137,5.869999885559082,6.46999979019165,6.46999979019165,112100
2019-03-18,6.5,6.5,6.03000020980835,6.210000038146973,6.210000038146973,46400
2019-03-19,6.389999866485596,7.489999771118164,6.25,7.300000190734863,7.300000190734863,457700
2019-03-20,7.489999771118164,7.489999771118164,7.059999942779541,7.349999904632568,7.349999904632568,169200
2019-03-21,7.5,8.300000190734863,7.453999996185303,7.949999809265137,7.949999809265137,435900
2019-03-22,7.989999771118164,8.100000381469727,7.349999904632568,7.816999912261963,7.816999912261963,141700
2019-03-25,7.960000038146973,7.960000038146973,7.170000076293945,7.210000038146973,7.210000038146973,103300
2019-03-26,7.480000019073486,7.480000019073486,6.599999904632568,6.860000133514404,6.860000133514404,132300
2019-03-27,6.940000057220459,6.949999809265137,6.679999828338623,6.730000019073486,6.730000019073486,110200
2019-03-28,6.730000019073486,7.429999828338623,6.5,7.300000190734863,7.300000190734863,182100
2019-03-29,7.400000095367432,8.520000457763672,7.380000114440918,8.100000381469727,8.100000381469727,253000
2019-04-01,8.199999809265137,9.039999961853027,8.100000381469727,8.970000267028809,8.970000267028809,250000
2019-04-02,9.09000015258789,9.697999954223633,9.0,9.350000381469727,9.350000381469727,195200
2019-04-03,9.4399995803833,9.449999809265137,8.600000381469727,9.0,9.0,224200
2019-04-04,9.180000305175781,10.0,8.609999656677246,10.0,10.0,229500
2019-04-05,10.0,11.84000015258789,9.989999771118164,10.59000015258789,10.59000015258789,534200
2019-04-08,10.760000228881836,11.489999771118164,10.329999923706055,11.329999923706055,11.329999923706055,245500
2019-04-09,11.5,14.0,11.399999618530273,11.800000190734863,11.800000190734863,978500
2019-04-10,11.899999618530273,12.800000190734863,11.899999618530273,12.5600004196167,12.5600004196167,399900
2019-04-11,12.600000381469727,13.75,12.585000038146973,13.3100004196167,13.3100004196167,321400
2019-04-12,13.5,14.180000305175781,11.710000038146973,12.4399995803833,12.4399995803833,379400
2019-04-15,12.449999809265137,14.390000343322754,12.40999984741211,14.25,14.25,325600
2019-04-16,14.399999618530273,15.0,13.800000190734863,14.8100004196167,14.8100004196167,406600
2019-04-17,14.5600004196167,14.57699966430664,12.630000114440918,13.210000038146973,13.210000038146973,473100
2019-04-18,13.390000343322754,13.390000343322754,11.109999656677246,11.890000343322754,11.890000343322754,364100
2019-04-22,11.890000343322754,12.489999771118164,11.109999656677246,12.289999961853027,12.289999961853027,197100
2019-04-23,12.34000015258789,13.8100004196167,11.916999816894531,13.720000267028809,13.720000267028809,270700
2019-04-24,13.800000190734863,13.930999755859375,12.300000190734863,12.329999923706055,12.329999923706055,241000
2019-04-25,12.0,12.390000343322754,11.550000190734863,11.75,11.75,116000
2019-04-26,11.979999542236328,12.230999946594238,11.600000381469727,11.850000381469727,11.850000381469727,130600
2019-04-29,12.050000190734863,12.479999542236328,11.619999885559082,11.699999809265137,11.699999809265137,106100
2019-04-30,11.489999771118164,11.579000473022461,10.8100004196167,11.149999618530273,11.149999618530273,199300
2019-05-01,11.1899995803833,12.309000015258789,11.166000366210938,11.899999618530273,11.899999618530273,196900
2019-05-02,12.1899995803833,12.770000457763672,11.5,12.479999542236328,12.479999542236328,183100
2019-05-03,12.449999809265137,12.869999885559082,12.170000076293945,12.270000457763672,12.270000457763672,172100
2019-05-06,12.229999542236328,12.229999542236328,11.5600004196167,11.640000343322754,11.640000343322754,123300
2019-05-07,11.649999618530273,11.979999542236328,11.604000091552734,11.800000190734863,11.800000190734863,66600
2019-05-08,11.569999694824219,11.751999855041504,11.300000190734863,11.539999961853027,11.539999961853027,66400
2019-05-09,11.3100004196167,12.420000076293945,10.800000190734863,12.319999694824219,12.319999694824219,144900
2019-05-10,12.199999809265137,13.770000457763672,11.899999618530273,13.600000381469727,13.600000381469727,252000
2019-05-13,13.5,13.5,10.883000373840332,11.390000343322754,11.390000343322754,317600
2019-05-14,11.949999809265137,11.960000038146973,10.5,10.600000381469727,10.600000381469727,196000
2019-05-15,10.5,10.899999618530273,10.5,10.539999961853027,10.539999961853027,194500
2019-05-16,10.539999961853027,10.817999839782715,7.039999961853027,7.21999979019165,7.21999979019165,1028000
2019-05-17,8.069999694824219,8.5600004196167,7.21999979019165,7.320000171661377,7.320000171661377,718800
2019-05-20,7.139999866485596,7.199999809265137,6.28000020980835,6.420000076293945,6.420000076293945,220800
2019-05-21,6.449999809265137,6.829999923706055,6.130000114440918,6.25,6.25,178300
2019-05-22,6.03000020980835,6.28000020980835,5.130000114440918,5.28000020980835,5.28000020980835,256000
2019-05-23,5.300000190734863,5.860000133514404,5.014999866485596,5.460000038146973,5.460000038146973,167900
2019-05-24,5.429999828338623,5.989999771118164,5.429999828338623,5.730000019073486,5.730000019073486,112700
2019-05-28,5.820000171661377,14.989999771118164,5.820000171661377,14.220000267028809,14.220000267028809,23285500
2019-05-29,21.100000381469727,29.0,17.360000610351562,20.280000686645508,20.280000686645508,20366800
2019-05-30,17.969999313354492,24.75,17.0,18.700000762939453,18.700000762939453,8911500
2019-05-31,19.65999984741211,21.780000686645508,18.399999618530273,18.81999969482422,18.81999969482422,3474100
2019-06-03,18.6299991607666,18.729999542236328,15.0,15.149999618530273,15.149999618530273,2087700
2019-06-04,17.739999771118164,20.600000381469727,16.371000289916992,18.489999771118164,18.489999771118164,5519300
2019-06-05,19.93000030517578,20.5,16.600000381469727,17.3799991607666,17.3799991607666,2200400
2019-06-06,16.600000381469727,17.5,15.571000099182129,16.1200008392334,16.1200008392334,893400
2019-06-07,15.199999809265137,17.18000030517578,14.649999618530273,16.200000762939453,16.200000762939453,719200
2019-06-10,16.5,18.31999969482422,16.302000045776367,17.899999618530273,17.899999618530273,1032500
2019-06-11,18.3799991607666,18.888999938964844,16.860000610351562,17.690000534057617,17.690000534057617,714000
2019-06-12,16.979999542236328,17.06999969482422,15.75,15.850000381469727,15.850000381469727,661600
2019-06-13,16.100000381469727,16.780000686645508,15.5,15.75,15.75,410300
2019-06-14,15.619999885559082,16.049999237060547,14.239999771118164,14.300000190734863,14.300000190734863,492900
2019-06-17,14.449999809265137,17.299999237060547,14.300000190734863,16.639999389648438,16.639999389648438,1291500
2019-06-18,17.260000228881836,18.25,16.850000381469727,17.219999313354492,17.219999313354492,954400
2019-06-19,17.030000686645508,17.219999313354492,15.880000114440918,16.489999771118164,16.489999771118164,486600
2019-06-20,16.770000457763672,16.989999771118164,15.5,16.059999465942383,16.059999465942383,488200
2019-06-21,15.960000038146973,16.0,15.100000381469727,15.25,15.25,343200
2019-06-24,15.729999542236328,15.890000343322754,14.649999618530273,14.90999984741211,14.90999984741211,341000
2019-06-25,14.699999809265137,15.029000282287598,14.039999961853027,14.720000267028809,14.720000267028809,305400
2019-06-26,14.84000015258789,14.84000015258789,14.050000190734863,14.109999656677246,14.109999656677246,168100
2019-06-27,14.229999542236328,15.0,14.020000457763672,14.619999885559082,14.619999885559082,236200
2019-06-28,14.859999656677246,15.130000114440918,14.510000228881836,14.699999809265137,14.699999809265137,703200
2019-07-01,14.890000343322754,14.970000267028809,13.34000015258789,13.819999694824219,13.819999694824219,550000
2019-07-02,13.640000343322754,13.8100004196167,12.050000190734863,12.510000228881836,12.510000228881836,402200
2019-07-03,12.449999809265137,12.489999771118164,11.829999923706055,12.149999618530273,12.149999618530273,192800
2019-07-05,11.880000114440918,12.050000190734863,11.300000190734863,11.430000305175781,11.430000305175781,335500
2019-07-08,11.859999656677246,18.5,11.859999656677246,18.5,18.5,10414000
2019-07-09,17.010000228881836,19.5,15.760000228881836,16.799999237060547,16.799999237060547,7582100
2019-07-10,16.899999618530273,18.149999618530273,16.8799991607666,17.5,17.5,1392300
2019-07-11,17.75,21.969999313354492,16.899999618530273,21.219999313354492,21.219999313354492,7032300
2019-07-12,20.5,21.18000030517578,18.190000534057617,18.549999237060547,18.549999237060547,2724200
2019-07-15,18.899999618530273,19.0,15.8100004196167,16.049999237060547,16.049999237060547,3114000
2019-07-16,16.25,16.600000381469727,14.350000381469727,14.369999885559082,14.369999885559082,1587200
2019-07-17,14.279999732971191,15.34000015258789,13.670000076293945,13.90999984741211,13.90999984741211,946500
2019-07-18,14.0,14.425999641418457,12.5600004196167,12.930000305175781,12.930000305175781,873200
2019-07-19,12.8100004196167,13.270000457763672,12.010000228881836,12.079999923706055,12.079999923706055,760200
2019-07-22,12.100000381469727,14.954000473022461,12.020000457763672,14.720000267028809,14.720000267028809,3448300
2019-07-23,14.529999732971191,15.899999618530273,13.569999694824219,14.020000457763672,14.020000457763672,2940200
2019-07-24,13.930000305175781,14.739999771118164,13.550000190734863,13.9399995803833,13.9399995803833,952400
2019-07-25,14.0,14.100000381469727,12.5,12.6899995803833,12.6899995803833,889800
2019-07-26,13.0600004196167,13.399999618530273,12.300000190734863,12.760000228881836,12.760000228881836,545700
2019-07-29,13.010000228881836,13.239999771118164,12.399999618530273,12.6899995803833,12.6899995803833,479100
2019-07-30,12.300000190734863,12.600000381469727,12.109999656677246,12.170000076293945,12.170000076293945,377300
2019-07-31,12.279999732971191,12.6899995803833,12.010000228881836,12.130000114440918,12.130000114440918,419100
2019-08-01,12.25,12.529000282287598,12.09000015258789,12.319999694824219,12.319999694824219,361200
2019-08-02,12.40999984741211,12.45300006866455,11.5600004196167,11.640000343322754,11.640000343322754,354900
2019-08-05,11.600000381469727,12.25,11.180000305175781,11.739999771118164,11.739999771118164,539500
2019-08-06,11.819999694824219,12.34000015258789,11.5,11.579999923706055,11.579999923706055,259000
2019-08-07,11.359999656677246,11.5,11.0,11.15999984741211,11.15999984741211,248300
2019-08-08,11.229999542236328,11.25,10.0,10.09000015258789,10.09000015258789,659500
2019-08-09,9.949999809265137,10.0,8.649999618530273,9.010000228881836,9.010000228881836,644300
2019-08-12,8.949999809265137,12.1899995803833,8.680000305175781,10.899999618530273,10.899999618530273,1790500
2019-08-13,10.899999618530273,11.09000015258789,10.020000457763672,10.130000114440918,10.130000114440918,369200
2019-08-14,10.0,10.954000473022461,9.720000267028809,9.989999771118164,9.989999771118164,570200
2019-08-15,10.1899995803833,10.4399995803833,9.510000228881836,9.720000267028809,9.720000267028809,303700
2019-08-16,9.960000038146973,10.729999542236328,9.850000381469727,10.460000038146973,10.460000038146973,421500
2019-08-19,10.4399995803833,11.220000267028809,10.020000457763672,11.0600004196167,11.0600004196167,386000
2019-08-20,12.289999961853027,13.699999809265137,12.119999885559082,12.609999656677246,12.609999656677246,2745200
2019-08-21,12.550000190734863,12.850000381469727,11.699999809265137,12.800000190734863,12.800000190734863,487400
2019-08-22,12.800000190734863,14.100000381469727,12.800000190734863,13.739999771118164,13.739999771118164,825400
2019-08-23,13.960000038146973,13.989999771118164,12.600000381469727,12.850000381469727,12.850000381469727,551400
2019-08-26,13.319999694824219,13.319999694824219,12.420000076293945,12.600000381469727,12.600000381469727,212200
2019-08-27,12.289999961853027,12.489999771118164,11.319999694824219,11.420000076293945,11.420000076293945,389300
2019-08-28,11.260000228881836,11.949999809265137,11.079999923706055,11.770000457763672,11.770000457763672,203900
2019-08-29,12.199999809265137,12.819999694824219,12.100000381469727,12.289999961853027,12.289999961853027,302500
2019-08-30,12.350000381469727,12.729999542236328,11.829999923706055,11.960000038146973,11.960000038146973,207100
2019-09-03,11.869999885559082,12.260000228881836,11.359999656677246,12.199999809265137,12.199999809265137,203400
2019-09-04,12.510000228881836,12.899999618530273,12.380000114440918,12.510000228881836,12.510000228881836,255100
2019-09-05,12.65999984741211,13.199999809265137,12.479999542236328,13.109999656677246,13.109999656677246,348400
2019-09-06,13.210000038146973,13.5,12.720999717712402,13.130000114440918,13.130000114440918,282500
2019-09-09,13.100000381469727,13.449999809265137,12.918000221252441,13.260000228881836,13.260000228881836,161000
2019-09-10,13.25,14.369999885559082,13.074999809265137,13.819999694824219,13.819999694824219,616600
2019-09-11,13.859999656677246,14.140000343322754,13.199999809265137,13.300000190734863,13.300000190734863,292300
2019-09-12,13.380000114440918,13.583999633789062,12.90999984741211,13.09000015258789,13.09000015258789,236600
2019-09-13,13.140000343322754,13.550000190734863,13.079999923706055,13.260000228881836,13.260000228881836,175900
2019-09-16,13.239999771118164,14.350000381469727,13.109999656677246,14.180000305175781,14.180000305175781,675900
2019-09-17,14.3100004196167,15.300000190734863,13.800000190734863,13.9399995803833,13.9399995803833,714700
2019-09-18,13.880000114440918,14.5,13.699999809265137,13.930000305175781,13.930000305175781,255000
2019-09-19,14.289999961853027,14.300000190734863,13.520000457763672,13.609999656677246,13.609999656677246,160100
2019-09-20,13.699999809265137,13.819999694824219,13.199999809265137,13.329999923706055,13.329999923706055,523600
2019-09-23,13.359999656677246,13.359999656677246,12.050000190734863,12.229999542236328,12.229999542236328,361900
2019-09-24,12.430000305175781,12.524999618530273,11.710000038146973,12.079999923706055,12.079999923706055,274500
2019-09-25,11.90999984741211,12.17300033569336,11.579999923706055,12.0600004196167,12.0600004196167,179300
2019-09-26,12.069999694824219,12.069999694824219,11.180000305175781,11.279999732971191,11.279999732971191,231800
2019-09-27,11.199999809265137,11.279000282287598,10.369999885559082,10.970000267028809,10.970000267028809,329000
2019-09-30,10.949999809265137,11.100000381469727,10.600000381469727,10.6899995803833,10.6899995803833,132000
2019-10-01,10.859999656677246,11.229999542236328,10.539999961853027,10.779999732971191,10.779999732971191,220000
2019-10-02,10.649999618530273,10.810999870300293,10.319999694824219,10.550000190734863,10.550000190734863,187500
2019-10-03,10.550000190734863,11.609999656677246,10.489999771118164,11.369999885559082,11.369999885559082,359000
2019-10-04,11.390000343322754,11.550000190734863,11.039999961853027,11.1899995803833,11.1899995803833,110700
2019-10-07,11.180000305175781,11.467000007629395,10.800000190734863,10.989999771118164,10.989999771118164,130500
2019-10-08,10.979999542236328,11.5,10.90999984741211,11.4399995803833,11.4399995803833,163600
2019-10-09,11.529999732971191,12.9399995803833,11.529999732971191,12.880000114440918,12.880000114440918,547700
2019-10-10,13.0,14.0,12.223999977111816,13.739999771118164,13.739999771118164,734500
2019-10-11,13.5,13.84000015258789,12.75,12.800000190734863,12.800000190734863,313600
2019-10-14,12.729999542236328,13.270000457763672,12.5,12.550000190734863,12.550000190734863,224400
2019-10-15,13.210000038146973,13.210000038146973,12.539999961853027,12.859999656677246,12.859999656677246,255600
2019-10-16,12.899999618530273,13.6850004196167,12.899999618530273,13.130000114440918,13.130000114440918,234500
2019-10-17,13.130000114440918,13.489999771118164,12.8100004196167,13.119999885559082,13.119999885559082,167400
2019-10-18,13.09000015258789,13.350000381469727,12.979999542236328,13.199999809265137,13.199999809265137,122500
2019-10-21,13.569999694824219,14.861000061035156,13.40999984741211,14.420000076293945,14.420000076293945,712100
2019-10-22,14.6899995803833,15.5,14.470000267028809,14.770000457763672,14.770000457763672,585400
2019-10-23,15.229999542236328,15.390000343322754,13.114999771118164,13.779999732971191,13.779999732971191,554500
2019-10-24,13.9399995803833,14.25,13.079999923706055,13.619999885559082,13.619999885559082,351700
2019-10-25,13.5,14.069999694824219,10.520000457763672,12.510000228881836,12.510000228881836,923600
2019-10-28,12.479999542236328,12.6899995803833,11.270000457763672,11.319999694824219,11.319999694824219,410600
2019-10-29,11.3100004196167,12.300000190734863,11.3100004196167,11.949999809265137,11.949999809265137,310500
2019-10-30,12.09000015258789,12.09000015258789,11.399999618530273,11.609999656677246,11.609999656677246,195600
2019-10-31,11.479999542236328,11.515000343322754,10.800000190734863,11.119999885559082,11.119999885559082,229000
2019-11-01,11.119999885559082,11.270000457763672,10.880000114440918,11.170000076293945,11.170000076293945,141600
2019-11-04,11.329999923706055,11.329999923706055,10.65999984741211,10.869999885559082,10.869999885559082,205900
2019-11-05,11.020000457763672,11.130000114440918,10.449999809265137,10.779999732971191,10.779999732971191,373500
2019-11-06,10.600000381469727,10.732000350952148,10.350000381469727,10.649999618530273,10.649999618530273,157000
2019-11-07,10.40999984741211,10.630000114440918,9.850000381469727,10.0600004196167,10.0600004196167,341100
2019-11-08,10.029999732971191,10.800000190734863,10.010000228881836,10.59000015258789,10.59000015258789,205500
2019-11-11,10.25,10.5600004196167,10.079999923706055,10.170000076293945,10.170000076293945,145300
2019-11-12,10.210000038146973,10.65999984741211,10.152999877929688,10.640000343322754,10.640000343322754,183400
2019-11-13,10.850000381469727,10.850000381469727,10.25,10.5,10.5,106000
2019-11-14,10.380000114440918,10.645999908447266,10.270000457763672,10.479999542236328,10.479999542236328,71700
2019-11-15,10.569999694824219,10.899999618530273,10.25,10.850000381469727,10.850000381469727,157400
2019-11-18,10.930000305175781,11.5,10.850000381469727,11.079999923706055,11.079999923706055,182700
2019-11-19,10.949999809265137,11.156000137329102,10.600000381469727,10.800000190734863,10.800000190734863,137700
2019-11-20,10.699999809265137,11.199999809265137,10.609999656677246,10.800000190734863,10.800000190734863,104100
2019-11-21,11.050000190734863,11.1899995803833,10.600000381469727,10.8100004196167,10.8100004196167,115100
2019-11-22,10.800000190734863,10.8100004196167,10.460000038146973,10.710000038146973,10.710000038146973,140200
2019-11-25,10.550000190734863,11.6899995803833,10.5,11.539999961853027,11.539999961853027,324400
2019-11-26,11.529999732971191,12.12399959564209,11.5,11.609999656677246,11.609999656677246,306600
2019-11-27,11.65999984741211,11.65999984741211,10.90999984741211,11.390000343322754,11.390000343322754,144100
2019-11-29,11.170000076293945,11.458999633789062,11.0600004196167,11.359999656677246,11.359999656677246,29800
2019-12-02,11.239999771118164,11.420000076293945,11.0,11.0600004196167,11.0600004196167,146200
2019-12-03,11.220000267028809,11.300000190734863,10.529999732971191,10.699999809265137,10.699999809265137,205200
2019-12-04,10.789999961853027,10.949999809265137,10.5,10.630000114440918,10.630000114440918,186500
2019-12-05,11.020000457763672,11.5,10.600000381469727,11.210000038146973,11.210000038146973,174700
2019-12-06,11.199999809265137,11.460000038146973,10.850000381469727,10.890000343322754,10.890000343322754,133400
2019-12-09,10.8100004196167,10.937000274658203,10.600000381469727,10.710000038146973,10.710000038146973,100600
2019-12-10,10.699999809265137,10.989999771118164,10.5,10.579999923706055,10.579999923706055,140300
2019-12-11,10.539999961853027,10.65999984741211,10.210000038146973,10.460000038146973,10.460000038146973,199700
2019-12-12,10.4399995803833,10.619999885559082,10.289999961853027,10.319999694824219,10.319999694824219,88400
2019-12-13,10.3100004196167,10.460000038146973,10.149999618530273,10.319999694824219,10.319999694824219,86800
2019-12-16,10.329999923706055,11.149999618530273,10.260000228881836,10.90999984741211,10.90999984741211,163600
2019-12-17,10.800000190734863,11.699999809265137,10.800000190734863,11.140000343322754,11.140000343322754,247400
2019-12-18,11.180000305175781,11.649999618530273,10.75,10.789999961853027,10.789999961853027,146700
2019-12-19,10.850000381469727,11.09000015258789,10.619999885559082,10.75,10.75,66100
2019-12-20,10.739999771118164,10.960000038146973,10.649999618530273,10.930000305175781,10.930000305175781,147300
2019-12-23,12.050000190734863,12.050000190734863,11.229999542236328,11.75,11.75,485000
2019-12-24,11.779999732971191,12.399999618530273,11.539999961853027,12.319999694824219,12.319999694824219,252000
2019-12-26,12.5,12.880000114440918,11.899999618530273,12.09000015258789,12.09000015258789,275200
2019-12-27,12.010000228881836,12.010000228881836,11.0,11.029999732971191,11.029999732971191,246600
2019-12-30,11.039999961853027,11.300000190734863,10.609999656677246,11.010000228881836,11.010000228881836,202200
2019-12-31,10.859999656677246,11.369999885559082,10.77299976348877,10.979999542236328,10.979999542236328,185900
2020-01-02,11.119999885559082,11.225000381469727,10.75,10.979999542236328,10.979999542236328,227800
2020-01-03,10.850000381469727,11.479999542236328,10.850000381469727,11.220000267028809,11.220000267028809,115000
2020-01-06,11.279999732971191,11.329999923706055,11.010000228881836,11.15999984741211,11.15999984741211,72000
2020-01-07,11.199999809265137,11.399999618530273,11.010000228881836,11.260000228881836,11.260000228881836,91400
2020-01-08,11.279999732971191,11.649999618530273,11.260000228881836,11.579999923706055,11.579999923706055,151800
2020-01-09,11.600000381469727,11.850000381469727,11.270000457763672,11.609999656677246,11.609999656677246,164600
2020-01-10,11.539999961853027,11.890000343322754,11.510000228881836,11.789999961853027,11.789999961853027,160000
2020-01-13,11.75,12.220000267028809,11.699999809265137,11.90999984741211,11.90999984741211,138800
2020-01-14,12.0,12.050000190734863,11.399999618530273,11.710000038146973,11.710000038146973,79700
2020-01-15,11.720000267028809,11.904000282287598,11.600000381469727,11.779999732971191,11.779999732971191,77000
2020-01-16,11.720000267028809,12.220000267028809,11.649999618530273,12.130000114440918,12.130000114440918,111700
2020-01-17,12.010000228881836,13.859999656677246,12.010000228881836,13.5,13.5,522100
2020-01-21,13.789999961853027,14.899999618530273,13.6899995803833,14.3100004196167,14.3100004196167,503800
2020-01-22,14.489999771118164,15.0,14.039999961853027,14.180000305175781,14.180000305175781,380400
2020-01-23,14.0,15.300000190734863,13.260000228881836,15.130000114440918,15.130000114440918,489300
2020-01-24,15.149999618530273,15.1899995803833,14.510000228881836,14.649999618530273,14.649999618530273,307900
2020-01-27,13.680000305175781,14.0,12.539999961853027,13.039999961853027,13.039999961853027,402000
2020-01-28,13.09000015258789,13.390000343322754,12.270000457763672,12.390000343322754,12.390000343322754,236200
2020-01-29,12.350000381469727,12.569000244140625,12.010000228881836,12.079999923706055,12.079999923706055,137200
2020-01-30,12.0,12.369999885559082,11.5,12.289999961853027,12.289999961853027,176700
2020-01-31,12.270000457763672,12.75,11.800000190734863,11.960000038146973,11.960000038146973,160100
2020-02-03,12.0,12.359999656677246,11.75,12.199999809265137,12.199999809265137,102800
2020-02-04,12.359999656677246,12.430000305175781,11.510000228881836,11.710000038146973,11.710000038146973,224500
2020-02-05,11.6899995803833,12.0,11.609999656677246,11.670000076293945,11.670000076293945,111800
2020-02-06,11.779999732971191,12.579999923706055,11.609999656677246,12.430000305175781,12.430000305175781,186000
2020-02-07,12.5,13.600000381469727,12.1899995803833,12.850000381469727,12.850000381469727,262300
2020-02-10,12.850000381469727,13.359999656677246,12.649999618530273,12.829999923706055,12.829999923706055,89000
2020-02-11,13.109999656677246,13.399999618530273,12.550000190734863,12.949999809265137,12.949999809265137,126200
2020-02-12,12.989999771118164,13.043000221252441,12.65999984741211,12.699999809265137,12.699999809265137,72900
2020-02-13,12.670000076293945,13.010000228881836,12.619999885559082,12.789999961853027,12.789999961853027,51600
2020-02-14,12.789999961853027,12.84000015258789,12.475000381469727,12.600000381469727,12.600000381469727,73500
2020-02-18,12.5,13.180000305175781,12.5,13.050000190734863,13.050000190734863,191200
2020-02-19,13.199999809265137,13.25,12.890000343322754,12.90999984741211,12.90999984741211,132100
2020-02-20,12.890000343322754,13.0,12.510000228881836,12.920000076293945,12.920000076293945,139700
2020-02-21,12.880000114440918,12.90999984741211,12.420000076293945,12.770000457763672,12.770000457763672,85300
2020-02-24,12.4399995803833,12.4399995803833,11.770000457763672,12.020000457763672,12.020000457763672,132700
2020-02-25,12.050000190734863,12.484999656677246,11.729999542236328,11.859999656677246,11.859999656677246,115900
2020-02-26,11.850000381469727,12.100000381469727,11.210000038146973,11.359999656677246,11.359999656677246,129300
2020-02-27,11.020000457763672,11.34000015258789,10.5,10.699999809265137,10.699999809265137,256100
2020-02-28,10.4399995803833,10.84000015258789,10.0,10.529999732971191,10.529999732971191,229600
2020-03-02,10.510000228881836,11.027000427246094,10.3100004196167,10.9399995803833,10.9399995803833,152400
2020-03-03,11.619999885559082,12.434000015258789,11.267000198364258,11.59000015258789,11.59000015258789,259100
2020-03-04,12.199999809265137,12.5,11.661999702453613,12.449999809265137,12.449999809265137,154800
2020-03-05,12.350000381469727,12.420000076293945,11.954999923706055,12.220000267028809,12.220000267028809,156600
2020-03-06,11.899999618530273,11.949999809265137,11.279999732971191,11.430000305175781,11.430000305175781,106400
2020-03-09,10.3100004196167,10.949999809265137,9.390000343322754,9.970000267028809,9.970000267028809,420300
2020-03-10,10.460000038146973,10.8100004196167,10.010000228881836,10.65999984741211,10.65999984741211,161500
2020-03-11,11.100000381469727,11.399999618530273,10.100000381469727,10.65999984741211,10.65999984741211,254200
2020-03-12,9.8100004196167,10.0,8.170000076293945,8.34000015258789,8.34000015258789,365700
2020-03-13,8.899999618530273,9.930000305175781,8.664999961853027,9.930000305175781,9.930000305175781,229800
2020-03-16,7.050000190734863,9.350000381469727,7.050000190734863,8.029999732971191,8.029999732971191,211000
2020-03-17,8.220000267028809,9.0,8.069999694824219,8.989999771118164,8.989999771118164,189600
2020-03-18,8.199999809265137,8.859999656677246,7.210000038146973,7.710000038146973,7.710000038146973,218100
2020-03-19,7.489999771118164,8.350000381469727,7.300000190734863,8.0,8.0,185900
2020-03-20,8.15999984741211,8.15999984741211,6.639999866485596,7.28000020980835,7.28000020980835,250800
2020-03-23,7.28000020980835,7.650000095367432,6.78000020980835,7.340000152587891,7.340000152587891,182500
2020-03-24,7.739999771118164,8.699999809265137,7.739999771118164,8.220000267028809,8.220000267028809,201100
2020-03-25,8.289999961853027,8.9350004196167,8.119999885559082,8.40999984741211,8.40999984741211,116000
2020-03-26,8.479999542236328,8.906999588012695,8.42199993133545,8.800000190734863,8.800000190734863,92300
2020-03-27,8.670000076293945,8.697999954223633,8.079999923706055,8.3100004196167,8.3100004196167,85800
2020-03-30,8.5,8.550000190734863,8.0600004196167,8.479999542236328,8.479999542236328,70800
2020-03-31,8.449999809265137,8.489999771118164,7.900000095367432,8.100000381469727,8.100000381469727,120000
2020-04-01,7.659999847412109,7.747000217437744,7.099999904632568,7.269999980926514,7.269999980926514,310700
2020-04-02,7.150000095367432,7.735000133514404,7.150000095367432,7.260000228881836,7.260000228881836,113100
2020-04-03,7.190000057220459,7.5,7.0,7.099999904632568,7.099999904632568,47500
2020-04-06,7.460000038146973,8.130000114440918,7.170000076293945,8.0,8.0,165400
2020-04-07,8.229999542236328,8.329000473022461,7.5,7.619999885559082,7.619999885559082,112400
2020-04-08,7.880000114440918,8.0,7.619999885559082,7.849999904632568,7.849999904632568,98800
2020-04-09,7.889999866485596,8.210000038146973,7.61299991607666,8.079999923706055,8.079999923706055,90100
2020-04-13,8.010000228881836,8.1899995803833,7.764999866485596,7.96999979019165,7.96999979019165,41300
2020-04-14,8.25,8.770999908447266,8.079999923706055,8.319999694824219,8.319999694824219,186700
2020-04-15,8.050000190734863,8.28600025177002,7.929999828338623,8.029999732971191,8.029999732971191,106200
2020-04-16,8.100000381469727,8.609999656677246,8.010000228881836,8.300000190734863,8.300000190734863,175900
2020-04-17,8.779999732971191,8.979999542236328,8.359999656677246,8.699999809265137,8.699999809265137,136700
2020-04-20,8.6899995803833,9.239999771118164,8.371000289916992,9.079999923706055,9.079999923706055,158100
2020-04-21,9.0,9.0,8.597000122070312,8.859999656677246,8.859999656677246,87900
2020-04-22,9.050000190734863,9.579999923706055,8.84000015258789,9.260000228881836,9.260000228881836,166400
2020-04-23,9.470000267028809,9.510000228881836,8.600000381469727,8.729999542236328,8.729999542236328,151900
2020-04-24,8.739999771118164,8.970000267028809,8.520000457763672,8.970000267028809,8.970000267028809,55300
2020-04-27,9.149999618530273,9.380000114440918,8.670000076293945,8.930000305175781,8.930000305175781,122900
2020-04-28,9.050000190734863,9.130000114440918,8.699999809265137,8.989999771118164,8.989999771118164,74200
2020-04-29,9.210000038146973,9.479999542236328,8.97599983215332,9.350000381469727,9.350000381469727,69500
2020-04-30,9.260000228881836,9.329999923706055,9.020000457763672,9.029999732971191,9.029999732971191,50100
2020-05-01,8.869999885559082,8.949999809265137,8.399999618530273,8.729999542236328,8.729999542236328,65400
2020-05-04,8.649999618530273,8.741999626159668,8.366999626159668,8.579999923706055,8.579999923706055,42900
2020-05-05,8.75,9.175999641418457,8.670000076293945,8.9399995803833,8.9399995803833,63200
2020-05-06,8.9399995803833,9.175000190734863,8.649999618530273,8.8100004196167,8.8100004196167,79100
2020-05-07,8.859999656677246,9.149999618530273,8.8100004196167,9.100000381469727,9.100000381469727,41000
2020-05-08,9.130000114440918,9.989999771118164,9.020000457763672,9.6899995803833,9.6899995803833,101900
2020-05-11,9.699999809265137,10.170000076293945,9.645999908447266,9.850000381469727,9.850000381469727,101700
2020-05-12,9.859999656677246,10.1899995803833,9.479999542236328,9.579999923706055,9.579999923706055,94800
2020-05-13,9.600000381469727,9.725000381469727,8.949999809265137,9.180000305175781,9.180000305175781,75700
2020-05-14,9.010000228881836,9.199999809265137,8.510000228881836,8.850000381469727,8.850000381469727,146100
2020-05-15,8.899999618530273,8.909000396728516,8.571999549865723,8.800000190734863,8.800000190734863,36800
2020-05-18,9.4399995803833,9.649999618530273,8.954999923706055,9.3100004196167,9.3100004196167,108400
2020-05-19,9.380000114440918,9.710000038146973,8.819999694824219,9.039999961853027,9.039999961853027,135800
2020-05-20,9.210000038146973,9.479999542236328,9.039999961853027,9.15999984741211,9.15999984741211,57700
2020-05-21,9.1899995803833,9.449999809265137,9.069999694824219,9.180000305175781,9.180000305175781,20700
2020-05-22,9.119999885559082,9.479999542236328,9.029999732971191,9.270000457763672,9.270000457763672,128800
2020-05-26,9.399999618530273,9.75,9.350000381469727,9.65999984741211,9.65999984741211,125700
2020-05-27,9.65999984741211,9.805000305175781,9.319999694824219,9.770000457763672,9.770000457763672,56000
2020-05-28,9.84000015258789,10.699999809265137,9.800000190734863,9.880000114440918,9.880000114440918,153300
2020-05-29,9.890000343322754,10.010000228881836,9.630000114440918,9.930000305175781,9.930000305175781,44600
2020-06-01,10.020000457763672,11.460000038146973,9.960000038146973,11.020000457763672,11.020000457763672,421400
2020-06-02,11.199999809265137,11.399999618530273,11.0,11.220000267028809,11.220000267028809,94500
2020-06-03,11.329999923706055,11.420000076293945,10.760000228881836,11.109999656677246,11.109999656677246,110900
2020-06-04,10.960000038146973,11.399999618530273,10.550000190734863,10.670000076293945,10.670000076293945,94900
2020-06-05,10.899999618530273,11.180000305175781,10.710000038146973,10.970000267028809,10.970000267028809,81400
2020-06-08,10.970000267028809,12.392000198364258,10.84000015258789,12.239999771118164,12.239999771118164,344000
2020-06-09,12.25,13.324999809265137,11.760000228881836,12.880000114440918,12.880000114440918,410000
2020-06-10,13.199999809265137,13.760000228881836,12.729999542236328,13.15999984741211,13.15999984741211,238700
2020-06-11,12.75,13.199999809265137,12.25,12.539999961853027,12.539999961853027,206700
2020-06-12,13.020000457763672,14.0,12.020000457763672,13.8100004196167,13.8100004196167,378600
2020-06-15,13.989999771118164,15.5,12.670000076293945,14.550000190734863,14.550000190734863,1268100
2020-06-16,14.84000015258789,14.84000015258789,13.0,13.359999656677246,13.359999656677246,526700
2020-06-17,13.5,13.5,12.600000381469727,13.020000457763672,13.020000457763672,213100
2020-06-18,13.239999771118164,13.239999771118164,12.59000015258789,12.8100004196167,12.8100004196167,99200
2020-06-19,13.0,13.0,12.25,12.9399995803833,12.9399995803833,159100
2020-06-22,12.829999923706055,12.850000381469727,12.399999618530273,12.600000381469727,12.600000381469727,115300
2020-06-23,12.75,12.890000343322754,12.5600004196167,12.739999771118164,12.739999771118164,136600
2020-06-24,12.600000381469727,12.6899995803833,11.609999656677246,11.960000038146973,11.960000038146973,173700
2020-06-25,11.930000305175781,12.055000305175781,11.130000114440918,11.850000381469727,11.850000381469727,205800
2020-06-26,8.649999618530273,8.699999809265137,7.559999942779541,7.559999942779541,7.559999942779541,3258400
2020-06-29,7.889999866485596,8.319999694824219,7.670000076293945,7.869999885559082,7.869999885559082,821800
2020-06-30,7.96999979019165,8.079999923706055,7.699999809265137,7.78000020980835,7.78000020980835,458700
2020-07-01,8.229999542236328,8.289999961853027,7.619999885559082,7.670000076293945,7.670000076293945,659900
2020-07-02,7.929999828338623,7.949999809265137,7.579999923706055,7.690000057220459,7.690000057220459,497300
2020-07-06,7.840000152587891,8.449999809265137,7.730000019073486,8.34000015258789,8.34000015258789,732200
2020-07-07,8.390000343322754,8.399999618530273,7.900000095367432,8.149999618530273,8.149999618530273,510500
2020-07-08,8.180000305175781,8.350000381469727,7.900000095367432,7.980000019073486,7.980000019073486,415500
2020-07-09,8.0,8.079999923706055,7.579999923706055,7.730000019073486,7.730000019073486,386700
2020-07-10,7.730000019073486,7.982999801635742,7.639999866485596,7.869999885559082,7.869999885559082,135100
2020-07-13,7.960000038146973,7.960000038146973,7.199999809265137,7.340000152587891,7.340000152587891,460500
2020-07-14,7.349999904632568,7.860000133514404,7.199999809265137,7.639999866485596,7.639999866485596,371300
2020-07-15,8.130000114440918,8.460000038146973,7.820000171661377,8.140000343322754,8.140000343322754,1214400
2020-07-16,8.119999885559082,8.300000190734863,7.900000095367432,8.029999732971191,8.029999732971191,366900
2020-07-17,8.050000190734863,8.319999694824219,7.920000076293945,8.270000457763672,8.270000457763672,305400
2020-07-20,8.239999771118164,8.350000381469727,8.050000190734863,8.25,8.25,265200
2020-07-21,8.149999618530273,8.348999977111816,7.860000133514404,7.960000038146973,7.960000038146973,469500
2020-07-22,8.199999809265137,8.199999809265137,7.710000038146973,7.800000190734863,7.800000190734863,280400
2020-07-23,7.809999942779541,7.840000152587891,7.349999904632568,7.630000114440918,7.630000114440918,476500
2020-07-24,7.760000228881836,7.760000228881836,7.25,7.460000038146973,7.460000038146973,303300
2020-07-27,7.46999979019165,7.611000061035156,7.25,7.590000152587891,7.590000152587891,265600
2020-07-28,7.559999942779541,7.559999942779541,7.070000171661377,7.190000057220459,7.190000057220459,465300
2020-07-29,7.28000020980835,7.301000118255615,6.760000228881836,6.860000133514404,6.860000133514404,786500
2020-07-30,6.800000190734863,7.130000114440918,6.599999904632568,6.699999809265137,6.699999809265137,398000
2020-07-31,6.78000020980835,6.960000038146973,6.369999885559082,6.440000057220459,6.440000057220459,270900
2020-08-03,6.510000228881836,6.71999979019165,6.25,6.690000057220459,6.690000057220459,293300
2020-08-04,6.690000057220459,7.190000057220459,6.679999828338623,6.929999828338623,6.929999828338623,234800
2020-08-05,7.139999866485596,7.150000095367432,6.920000076293945,7.090000152587891,7.090000152587891,153100
2020-08-06,7.090000152587891,7.281000137329102,6.860000133514404,6.980000019073486,6.980000019073486,220800
2020-08-07,6.960000038146973,7.045000076293945,6.610000133514404,6.800000190734863,6.800000190734863,170300
2020-08-10,6.75,7.150000095367432,6.75,7.019999980926514,7.019999980926514,153200
2020-08-11,7.0,7.050000190734863,6.699999809265137,6.78000020980835,6.78000020980835,304100
2020-08-12,6.789999961853027,7.0,6.710000038146973,6.769999980926514,6.769999980926514,306700
2020-08-13,6.960000038146973,6.96999979019165,6.75,6.889999866485596,6.889999866485596,120600
2020-08-14,6.929999828338623,7.300000190734863,6.800000190734863,7.215000152587891,7.215000152587891,224100
2020-08-17,7.21999979019165,7.610000133514404,7.150000095367432,7.380000114440918,7.380000114440918,218300
2020-08-18,7.360000133514404,7.566999912261963,7.260000228881836,7.309999942779541,7.309999942779541,223900
2020-08-19,7.340000152587891,7.409999847412109,7.079999923706055,7.119999885559082,7.119999885559082,113700
2020-08-20,7.28000020980835,7.315999984741211,6.75,6.894999980926514,6.894999980926514,243400
2020-08-21,6.840000152587891,7.0,6.7220001220703125,6.949999809265137,6.949999809265137,119500
2020-08-24,6.980000019073486,7.079999923706055,6.670000076293945,6.75,6.75,197000
2020-08-25,6.860000133514404,6.929999828338623,6.539999961853027,6.610000133514404,6.610000133514404,189900
2020-08-26,6.619999885559082,6.710000038146973,6.359000205993652,6.599999904632568,6.599999904632568,369800
2020-08-27,6.760000228881836,6.760000228881836,6.460000038146973,6.46999979019165,6.46999979019165,169300
2020-08-28,6.440000057220459,6.75,6.400000095367432,6.71999979019165,6.71999979019165,102600
2020-08-31,6.75,6.880000114440918,6.460000038146973,6.829999923706055,6.829999923706055,215700
2020-09-01,6.809999942779541,6.809999942779541,6.449999809265137,6.559999942779541,6.559999942779541,156400
2020-09-02,6.519999980926514,6.611000061035156,6.210000038146973,6.320000171661377,6.320000171661377,277400
2020-09-03,6.320000171661377,6.320000171661377,5.882999897003174,6.090000152587891,6.090000152587891,219200
2020-09-04,6.130000114440918,6.21999979019165,5.690000057220459,6.019999980926514,6.019999980926514,193600
2020-09-08,6.0,6.349999904632568,5.860000133514404,6.21999979019165,6.21999979019165,121700
2020-09-09,6.21999979019165,6.489999771118164,6.210000038146973,6.360000133514404,6.360000133514404,249400
2020-09-10,6.449999809265137,6.560999870300293,6.230000019073486,6.510000228881836,6.510000228881836,195300
2020-09-11,6.550000190734863,7.25,6.420000076293945,7.170000076293945,7.170000076293945,367500
2020-09-14,7.25,7.379000186920166,6.952000141143799,7.28000020980835,7.28000020980835,248800
2020-09-15,7.340000152587891,7.880000114440918,7.320000171661377,7.539999961853027,7.539999961853027,317500
2020-09-16,7.539999961853027,7.630000114440918,7.349999904632568,7.5,7.5,123000
2020-09-17,7.440000057220459,7.710000038146973,7.369999885559082,7.614999771118164,7.614999771118164,135400
2020-09-18,7.639999866485596,8.25,7.550000190734863,7.659999847412109,7.659999847412109,567300
2020-09-21,7.559999942779541,7.619999885559082,7.130000114440918,7.429999828338623,7.429999828338623,209500
2020-09-22,7.510000228881836,7.510000228881836,7.050000190734863,7.199999809265137,7.199999809265137,156600
2020-09-23,7.25,7.25,6.559999942779541,6.590000152587891,6.590000152587891,243200
2020-09-24,6.590000152587891,7.119999885559082,6.440000057220459,6.960000038146973,6.960000038146973,163200
2020-09-25,6.860000133514404,7.139999866485596,6.860000133514404,7.079999923706055,7.079999923706055,69400
2020-09-28,7.019999980926514,7.583000183105469,7.019999980926514,7.440000057220459,7.440000057220459,137000
2020-09-29,7.429999828338623,7.565999984741211,7.059999942779541,7.239999771118164,7.239999771118164,99700
2020-09-30,7.28000020980835,7.880000114440918,7.25,7.639999866485596,7.639999866485596,389300
2020-10-01,7.659999847412109,7.840000152587891,7.320000171661377,7.679999828338623,7.679999828338623,128600
2020-10-02,7.420000076293945,7.514999866485596,7.300000190734863,7.360000133514404,7.360000133514404,98800
2020-10-05,7.389999866485596,7.809999942779541,7.380000114440918,7.71999979019165,7.71999979019165,120900
2020-10-06,7.809999942779541,7.830999851226807,7.5,7.659999847412109,7.659999847412109,88500
2020-10-07,7.739999771118164,8.25,7.5970001220703125,8.220000267028809,8.220000267028809,421700
2020-10-08,8.34000015258789,8.430000305175781,7.829999923706055,7.96999979019165,7.96999979019165,179400
2020-10-09,7.849999904632568,8.279999732971191,7.809999942779541,8.220000267028809,8.220000267028809,179600
2020-10-12,8.239999771118164,8.279999732971191,7.880000114440918,8.039999961853027,8.039999961853027,150400
2020-10-13,8.0600004196167,8.46500015258789,7.989999771118164,8.25,8.25,179800
2020-10-14,8.300000190734863,8.300000190734863,7.920000076293945,8.010000228881836,8.010000228881836,131900
2020-10-15,7.880000114440918,8.270000457763672,7.869999885559082,8.180000305175781,8.180000305175781,97800
2020-10-16,8.119999885559082,8.25,8.010000228881836,8.0600004196167,8.0600004196167,59700
2020-10-19,8.020000457763672,9.489999771118164,7.980000019073486,8.760000228881836,8.760000228881836,950900
2020-10-20,8.720000267028809,8.819999694824219,8.34000015258789,8.630000114440918,8.630000114440918,254900
2020-10-21,8.5600004196167,8.819999694824219,8.390000343322754,8.550000190734863,8.550000190734863,93300
2020-10-22,8.520000457763672,8.95199966430664,8.331000328063965,8.920000076293945,8.920000076293945,218500
2020-10-23,8.979999542236328,8.979999542236328,8.600000381469727,8.890000343322754,8.890000343322754,230100
2020-10-26,8.890000343322754,8.890000343322754,7.860000133514404,8.15999984741211,8.15999984741211,264800
2020-10-27,8.260000228881836,8.350000381469727,7.860000133514404,8.0600004196167,8.0600004196167,128200
2020-10-28,8.0,8.0,7.389999866485596,7.449999809265137,7.449999809265137,260300
2020-10-29,7.449999809265137,7.480000019073486,7.010000228881836,7.400000095367432,7.400000095367432,157200
2020-10-30,7.389999866485596,7.389999866485596,6.809999942779541,7.159999847412109,7.159999847412109,285200
2020-11-02,7.260000228881836,7.539999961853027,6.949999809265137,7.119999885559082,7.119999885559082,207700
2020-11-03,7.170000076293945,7.5,7.150000095367432,7.429999828338623,7.429999828338623,147600
2020-11-04,7.449999809265137,8.199999809265137,7.449999809265137,8.079999923706055,8.079999923706055,276100
2020-11-05,8.199999809265137,8.539999961853027,7.920000076293945,8.40999984741211,8.40999984741211,295300
2020-11-06,8.359999656677246,8.380000114440918,8.100000381469727,8.15999984741211,8.15999984741211,72500
2020-11-09,8.390000343322754,8.699999809265137,8.210000038146973,8.350000381469727,8.350000381469727,208300
2020-11-10,8.350000381469727,8.539999961853027,8.170000076293945,8.399999618530273,8.399999618530273,88100
2020-11-11,8.4399995803833,9.09000015258789,8.25,8.890000343322754,8.890000343322754,408000
2020-11-12,8.800000190734863,8.899999618530273,7.150000095367432,7.300000190734863,7.300000190734863,831600
2020-11-13,7.539999961853027,7.730000019073486,7.329999923706055,7.389999866485596,7.389999866485596,235600
2020-11-16,7.449999809265137,7.849999904632568,7.260000228881836,7.320000171661377,7.320000171661377,248500
2020-11-17,7.260000228881836,7.460999965667725,7.159999847412109,7.300000190734863,7.300000190734863,170700
2020-11-18,7.5,7.880000114440918,7.429999828338623,7.590000152587891,7.590000152587891,188900
2020-11-19,7.579999923706055,7.829999923706055,7.480000019073486,7.769999980926514,7.769999980926514,77600
2020-11-20,7.71999979019165,7.920000076293945,7.619999885559082,7.889999866485596,7.889999866485596,85600
2020-11-23,7.989999771118164,8.109999656677246,7.820000171661377,7.849999904632568,7.849999904632568,152200
2020-11-24,7.880000114440918,8.069999694824219,7.860000133514404,8.050000190734863,8.050000190734863,80800
2020-11-25,8.039999961853027,8.350000381469727,7.96999979019165,8.25,8.25,123200
2020-11-27,8.289999961853027,8.630000114440918,8.199999809265137,8.600000381469727,8.600000381469727,85300
2020-11-30,8.720000267028809,9.289999961853027,8.260000228881836,9.180000305175781,9.180000305175781,256500
2020-12-01,9.210000038146973,9.210000038146973,8.420000076293945,8.529999732971191,8.529999732971191,205200
2020-12-02,8.399999618530273,8.621999740600586,8.0,8.510000228881836,8.510000228881836,138400
2020-12-03,8.640000343322754,9.079999923706055,8.510000228881836,8.920000076293945,8.920000076293945,169100
2020-12-04,8.90999984741211,9.100000381469727,8.850000381469727,9.0600004196167,9.0600004196167,76800
2020-12-07,9.130000114440918,9.270000457763672,9.010000228881836,9.149999618530273,9.149999618530273,198700
2020-12-08,9.1899995803833,9.600000381469727,9.029999732971191,9.5600004196167,9.5600004196167,176300
2020-12-09,9.6899995803833,9.725000381469727,8.699999809265137,9.0,9.0,256300
2020-12-10,9.0,9.359999656677246,8.880000114440918,9.270000457763672,9.270000457763672,77400
2020-12-11,9.1899995803833,9.59000015258789,9.149999618530273,9.229999542236328,9.229999542236328,125300
2020-12-14,9.270000457763672,9.369999885559082,8.609999656677246,8.670000076293945,8.670000076293945,133000
2020-12-15,8.779999732971191,8.859999656677246,8.670000076293945,8.789999961853027,8.789999961853027,84600
2020-12-16,8.75,9.300000190734863,8.659000396728516,9.210000038146973,9.210000038146973,263700
2020-12-17,9.300000190734863,9.579999923706055,8.710000038146973,8.84000015258789,8.84000015258789,660000
2020-12-18,8.911999702453613,8.911999702453613,8.220000267028809,8.350000381469727,8.350000381469727,704500
2020-12-21,8.279999732971191,8.630000114440918,8.029999732971191,8.369999885559082,8.369999885559082,340900
2020-12-22,8.40999984741211,8.430000305175781,7.965000152587891,8.34000015258789,8.34000015258789,282600
2020-12-23,8.390000343322754,8.529999732971191,8.152000427246094,8.180000305175781,8.180000305175781,271100
2020-12-24,8.300000190734863,8.420000076293945,8.15999984741211,8.210000038146973,8.210000038146973,74700
2020-12-28,8.279999732971191,8.359999656677246,8.020000457763672,8.020000457763672,8.020000457763672,197200
2020-12-29,8.029999732971191,8.109999656677246,7.400000095367432,7.800000190734863,7.800000190734863,513700
2020-12-30,7.679999828338623,8.355999946594238,7.630000114440918,7.809999942779541,7.809999942779541,501400
