Date,Open,High,Low,Close,Adj Close,Volume
2019-05-10,117.0,129.89999389648438,96.5999984741211,109.9000015258789,109.9000015258789,131500
2019-05-13,108.30000305175781,111.5,100.0,110.19999694824219,110.19999694824219,20170
2019-05-14,111.19999694824219,111.5,105.5,110.30000305175781,110.30000305175781,8340
2019-05-15,110.5,115.0,106.9000015258789,111.19999694824219,111.19999694824219,29380
2019-05-16,111.5999984741211,113.0,109.0,110.5,110.5,6380
2019-05-17,110.0,113.95999908447266,109.4000015258789,113.5,113.5,27700
2019-05-20,113.5,122.30000305175781,113.01000213623047,119.5999984741211,119.5999984741211,18940
2019-05-21,120.0999984741211,123.0,116.4000015258789,122.80000305175781,122.80000305175781,13400
2019-05-22,121.5,124.69999694824219,113.5,121.19999694824219,121.19999694824219,9220
2019-05-23,120.5999984741211,124.9000015258789,118.30000305175781,120.0,120.0,7760
2019-05-24,119.5999984741211,121.80000305175781,116.9000015258789,120.5,120.5,6620
2019-05-28,122.0,140.0500030517578,118.69999694824219,136.8000030517578,136.8000030517578,20620
2019-05-29,137.0,149.39999389648438,131.39999389648438,144.89999389648438,144.89999389648438,17710
2019-05-30,145.10000610351562,152.0,143.0,150.0,150.0,16810
2019-05-31,150.0,153.39999389648438,133.1999969482422,142.8000030517578,142.8000030517578,11270
2019-06-03,144.89999389648438,147.6999969482422,144.5,146.6999969482422,146.6999969482422,9470
2019-06-04,148.6999969482422,150.0,133.89999389648438,149.8000030517578,149.8000030517578,20680
2019-06-05,151.0,170.3000030517578,150.6999969482422,168.0,168.0,24250
2019-06-06,169.5,175.0,169.5,171.10000610351562,171.10000610351562,37490
2019-06-07,173.3000030517578,182.5800018310547,150.1999969482422,161.3000030517578,161.3000030517578,35880
2019-06-10,163.3000030517578,177.60000610351562,160.0,171.3000030517578,171.3000030517578,32480
2019-06-11,173.0,176.6999969482422,165.0,169.1999969482422,169.1999969482422,12070
2019-06-12,169.1999969482422,173.89999389648438,165.60000610351562,172.60000610351562,172.60000610351562,9960
2019-06-13,173.39999389648438,179.47999572753906,172.5,175.1999969482422,175.1999969482422,14800
2019-06-14,176.60000610351562,179.5500030517578,171.5,175.60000610351562,175.60000610351562,13970
2019-06-17,177.0,177.85000610351562,160.22999572753906,160.8000030517578,160.8000030517578,12760
2019-06-18,162.5,171.5,159.0,162.1999969482422,162.1999969482422,18410
2019-06-19,162.3000030517578,168.1999969482422,160.5,161.3000030517578,161.3000030517578,11210
2019-06-20,164.3000030517578,166.25,143.41000366210938,147.5,147.5,22360
2019-06-21,149.1999969482422,151.85000610351562,143.39999389648438,146.0,146.0,28100
2019-06-24,142.5,148.0,135.60000610351562,135.8000030517578,135.8000030517578,14480
2019-06-25,135.0,145.1999969482422,128.89999389648438,130.39999389648438,130.39999389648438,29280
2019-06-26,131.8000030517578,135.60000610351562,125.69999694824219,129.60000610351562,129.60000610351562,16920
2019-06-27,127.5,133.3000030517578,120.0999984741211,127.69999694824219,127.69999694824219,32440
2019-06-28,128.3000030517578,134.39999389648438,126.0,127.30000305175781,127.30000305175781,53370
2019-07-01,129.3000030517578,132.05999755859375,126.0,128.89999389648438,128.89999389648438,12430
2019-07-02,128.8000030517578,132.10000610351562,117.5999984741211,118.0999984741211,118.0999984741211,8630
2019-07-03,118.19999694824219,119.5999984741211,115.9000015258789,118.80000305175781,118.80000305175781,3170
2019-07-05,117.9000015258789,117.9000015258789,106.75,115.5999984741211,115.5999984741211,6460
2019-07-08,115.0,116.69999694824219,107.0,113.80000305175781,113.80000305175781,9480
2019-07-09,118.80000305175781,126.5,116.0,118.5999984741211,118.5999984741211,7390
2019-07-10,119.4000015258789,128.89999389648438,118.5999984741211,127.80000305175781,127.80000305175781,6800
2019-07-11,127.80000305175781,129.89999389648438,123.5,127.0,127.0,9240
2019-07-12,126.69999694824219,137.39999389648438,126.69999694824219,133.89999389648438,133.89999389648438,10460
2019-07-15,134.0,137.3000030517578,131.1999969482422,135.3000030517578,135.3000030517578,5590
2019-07-16,135.0,142.89999389648438,133.1999969482422,138.89999389648438,138.89999389648438,6010
2019-07-17,138.8000030517578,139.89999389648438,131.6999969482422,137.5,137.5,4190
2019-07-18,137.3000030517578,140.7899932861328,131.39999389648438,134.0,134.0,4060
2019-07-19,133.39999389648438,137.6999969482422,132.5,134.1999969482422,134.1999969482422,4590
2019-07-22,134.60000610351562,136.5,129.82000732421875,130.1999969482422,130.1999969482422,2530
2019-07-23,131.0,137.3000030517578,130.0,133.1999969482422,133.1999969482422,2360
2019-07-24,131.8300018310547,140.9600067138672,131.6199951171875,139.8000030517578,139.8000030517578,10840
2019-07-25,135.0,139.6999969482422,124.91999816894531,133.3000030517578,133.3000030517578,8980
2019-07-26,132.89999389648438,132.89999389648438,123.19999694824219,128.1999969482422,128.1999969482422,4700
2019-07-29,128.1999969482422,132.39999389648438,115.0999984741211,116.80000305175781,116.80000305175781,18110
2019-07-30,116.19999694824219,119.4000015258789,115.0999984741211,117.0,117.0,3800
2019-07-31,117.0,117.0,108.4000015258789,110.69999694824219,110.69999694824219,23380
2019-08-01,111.69999694824219,118.30000305175781,103.0,104.80000305175781,104.80000305175781,10960
2019-08-02,104.0,106.80000305175781,95.80000305175781,99.19999694824219,99.19999694824219,13700
2019-08-05,97.0,100.0,86.91999816894531,95.5,95.5,14150
2019-08-06,95.5999984741211,99.4000015258789,93.19999694824219,94.0,94.0,9790
2019-08-07,92.69999694824219,93.0,87.30000305175781,87.9000015258789,87.9000015258789,5270
2019-08-08,88.5999984741211,91.19999694824219,85.25,90.0,90.0,6820
2019-08-09,89.4000015258789,91.0999984741211,75.0999984741211,78.5,78.5,7670
2019-08-12,77.80000305175781,77.80000305175781,72.80000305175781,74.0999984741211,74.0999984741211,5810
2019-08-13,74.0,89.4000015258789,70.80000305175781,88.4000015258789,88.4000015258789,19200
2019-08-14,84.80000305175781,86.5999984741211,70.5,71.9000015258789,71.9000015258789,14180
2019-08-15,72.0999984741211,79.5,70.0999984741211,71.0,71.0,11830
2019-08-16,72.0999984741211,82.5,70.0199966430664,79.80000305175781,79.80000305175781,15330
2019-08-19,82.5,84.80000305175781,75.6500015258789,76.5999984741211,76.5999984741211,12350
2019-08-20,76.5999984741211,80.0999984741211,72.0,75.19999694824219,75.19999694824219,8490
2019-08-21,77.19999694824219,88.4000015258789,74.9000015258789,86.69999694824219,86.69999694824219,8780
2019-08-22,87.0,88.0,81.5,83.5,83.5,8500
2019-08-23,82.5,83.19999694824219,74.69999694824219,79.0,79.0,8420
2019-08-26,79.9000015258789,81.5999984741211,77.69999694824219,80.19999694824219,80.19999694824219,3760
2019-08-27,80.9000015258789,82.5999984741211,72.9000015258789,75.30000305175781,75.30000305175781,16080
2019-08-28,76.0999984741211,79.55000305175781,71.69999694824219,75.80000305175781,75.80000305175781,7710
2019-08-29,76.80000305175781,78.5,71.30000305175781,71.9000015258789,71.9000015258789,9750
2019-08-30,72.5,75.0999984741211,70.9000015258789,72.5999984741211,72.5999984741211,2480
2019-09-03,72.0,74.30000305175781,71.30000305175781,71.4000015258789,71.4000015258789,4240
2019-09-04,72.5,78.5,71.4000015258789,76.9000015258789,76.9000015258789,8040
2019-09-05,78.0,79.7699966430664,76.69999694824219,77.5,77.5,14370
2019-09-06,78.4000015258789,78.4000015258789,70.0,70.80000305175781,70.80000305175781,5390
2019-09-09,71.30000305175781,72.5,66.25,70.5999984741211,70.5999984741211,6600
2019-09-10,59.79999923706055,59.79999923706055,36.70000076293945,37.599998474121094,37.599998474121094,130270
2019-09-11,37.599998474121094,39.099998474121094,36.70000076293945,37.900001525878906,37.900001525878906,62890
2019-09-12,37.599998474121094,37.900001525878906,32.5,33.79999923706055,33.79999923706055,33660
2019-09-13,33.79999923706055,34.70000076293945,33.0,33.900001525878906,33.900001525878906,16290
2019-09-16,34.0,35.70000076293945,33.11000061035156,33.70000076293945,33.70000076293945,22390
2019-09-17,34.29999923706055,34.310001373291016,32.900001525878906,33.29999923706055,33.29999923706055,13900
2019-09-18,33.0,33.36000061035156,30.0,31.200000762939453,31.200000762939453,50730
2019-09-19,31.700000762939453,33.70000076293945,31.700000762939453,32.900001525878906,32.900001525878906,51340
2019-09-20,33.5,33.79999923706055,30.399999618530273,31.399999618530273,31.399999618530273,49020
2019-09-23,31.5,32.099998474121094,30.200000762939453,30.5,30.5,28630
2019-09-24,30.399999618530273,31.0,29.299999237060547,29.399999618530273,29.399999618530273,25450
2019-09-25,29.200000762939453,30.0,28.0,28.600000381469727,28.600000381469727,18770
2019-09-26,28.799999237060547,33.70000076293945,28.200000762939453,31.700000762939453,31.700000762939453,97940
2019-09-27,31.799999237060547,33.400001525878906,30.299999237060547,30.899999618530273,30.899999618530273,28100
2019-09-30,31.100000381469727,31.799999237060547,29.100000381469727,29.299999237060547,29.299999237060547,16970
2019-10-01,29.299999237060547,29.799999237060547,27.399999618530273,28.299999237060547,28.299999237060547,18700
2019-10-02,28.0,29.399999618530273,27.0,28.799999237060547,28.799999237060547,7840
2019-10-03,29.0,29.0,27.799999237060547,28.799999237060547,28.799999237060547,11170
2019-10-04,28.799999237060547,29.399999618530273,28.0,29.200000762939453,29.200000762939453,5320
2019-10-07,29.100000381469727,32.29999923706055,28.700000762939453,31.5,31.5,16330
2019-10-08,31.100000381469727,32.29999923706055,28.200000762939453,28.700000762939453,28.700000762939453,15610
2019-10-09,29.0,29.799999237060547,27.829999923706055,28.299999237060547,28.299999237060547,11740
2019-10-10,28.299999237060547,28.899999618530273,28.100000381469727,28.5,28.5,4550
2019-10-11,28.899999618530273,30.299999237060547,28.25,29.299999237060547,29.299999237060547,8920
2019-10-14,29.200000762939453,30.100000381469727,28.200000762939453,29.899999618530273,29.899999618530273,8170
2019-10-15,29.989999771118164,31.399999618530273,29.700000762939453,31.100000381469727,31.100000381469727,15220
2019-10-16,31.5,31.5,30.899999618530273,31.0,31.0,4080
2019-10-17,31.0,31.25,29.6200008392334,30.200000762939453,30.200000762939453,5190
2019-10-18,30.100000381469727,30.700000762939453,29.700000762939453,30.100000381469727,30.100000381469727,5430
2019-10-21,30.100000381469727,31.299999237060547,29.399999618530273,30.100000381469727,30.100000381469727,6280
2019-10-22,29.899999618530273,31.100000381469727,29.799999237060547,30.399999618530273,30.399999618530273,4140
2019-10-23,30.0,30.700000762939453,30.0,30.299999237060547,30.299999237060547,2250
2019-10-24,30.0,30.899999618530273,29.899999618530273,29.899999618530273,29.899999618530273,5260
2019-10-25,29.799999237060547,30.399999618530273,29.75,29.899999618530273,29.899999618530273,7180
2019-10-28,30.200000762939453,31.0,29.5,30.100000381469727,30.100000381469727,7530
2019-10-29,29.799999237060547,32.599998474121094,29.799999237060547,32.0,32.0,7770
2019-10-30,30.200000762939453,30.399999618530273,25.0,25.100000381469727,25.100000381469727,38950
2019-10-31,24.700000762939453,24.700000762939453,23.299999237060547,23.899999618530273,23.899999618530273,70270
2019-11-01,23.600000381469727,24.600000381469727,21.600000381469727,22.600000381469727,22.600000381469727,9970
2019-11-04,23.700000762939453,23.899999618530273,22.0,22.299999237060547,22.299999237060547,12000
2019-11-05,21.899999618530273,23.799999237060547,21.600000381469727,22.700000762939453,22.700000762939453,12770
2019-11-06,23.5,23.799999237060547,22.100000381469727,22.899999618530273,22.899999618530273,24500
2019-11-07,23.399999618530273,23.860000610351562,21.0,21.399999618530273,21.399999618530273,34900
2019-11-08,21.700000762939453,24.799999237060547,21.700000762939453,24.299999237060547,24.299999237060547,15630
2019-11-11,24.299999237060547,25.600000381469727,23.0,24.700000762939453,24.700000762939453,5720
2019-11-12,24.600000381469727,26.0,24.600000381469727,25.0,25.0,11010
2019-11-13,24.3799991607666,25.100000381469727,23.700000762939453,24.799999237060547,24.799999237060547,4000
2019-11-14,24.600000381469727,25.5,24.059999465942383,25.0,25.0,5880
2019-11-15,25.299999237060547,25.399999618530273,24.600000381469727,25.0,25.0,8830
2019-11-18,25.100000381469727,25.5,24.299999237060547,24.700000762939453,24.700000762939453,23910
2019-11-19,25.100000381469727,25.5,24.25,25.0,25.0,2110
2019-11-20,25.399999618530273,25.399999618530273,23.299999237060547,24.5,24.5,16190
2019-11-21,24.700000762939453,25.350000381469727,24.5,24.799999237060547,24.799999237060547,37050
2019-11-22,25.0,25.200000762939453,23.700000762939453,24.100000381469727,24.100000381469727,52940
2019-11-25,25.799999237060547,25.799999237060547,23.899999618530273,24.5,24.5,9510
2019-11-26,24.100000381469727,24.700000762939453,21.899999618530273,22.700000762939453,22.700000762939453,13290
2019-11-27,22.799999237060547,24.0,22.799999237060547,23.5,23.5,6360
2019-11-29,23.5,28.0,23.200000762939453,27.799999237060547,27.799999237060547,16900
2019-12-02,27.899999618530273,27.899999618530273,24.200000762939453,24.799999237060547,24.799999237060547,12500
2019-12-03,24.600000381469727,25.200000762939453,23.799999237060547,24.0,24.0,3730
2019-12-04,24.100000381469727,26.399999618530273,22.5,24.299999237060547,24.299999237060547,11470
2019-12-05,24.399999618530273,25.100000381469727,22.899999618530273,23.299999237060547,23.299999237060547,8290
2019-12-06,23.700000762939453,23.899999618530273,23.450000762939453,23.600000381469727,23.600000381469727,12480
2019-12-09,23.5,24.0,22.299999237060547,22.700000762939453,22.700000762939453,13260
2019-12-10,22.700000762939453,23.899999618530273,22.299999237060547,23.299999237060547,23.299999237060547,8520
2019-12-11,23.299999237060547,23.799999237060547,22.799999237060547,22.899999618530273,22.899999618530273,5050
2019-12-12,22.799999237060547,24.5,22.799999237060547,24.200000762939453,24.200000762939453,51960
2019-12-13,24.100000381469727,25.5,23.40999984741211,24.600000381469727,24.600000381469727,24410
2019-12-16,24.200000762939453,27.899999618530273,24.200000762939453,27.5,27.5,38060
2019-12-17,28.0,28.399999618530273,26.389999389648438,27.899999618530273,27.899999618530273,7080
2019-12-18,27.899999618530273,29.299999237060547,27.700000762939453,28.399999618530273,28.399999618530273,9050
2019-12-19,28.399999618530273,31.100000381469727,26.459999084472656,30.600000381469727,30.600000381469727,16840
2019-12-20,30.600000381469727,31.5,27.5,29.799999237060547,29.799999237060547,74130
2019-12-23,30.200000762939453,33.79999923706055,29.799999237060547,33.29999923706055,33.29999923706055,22840
2019-12-24,34.79999923706055,34.79999923706055,32.5,33.29999923706055,33.29999923706055,5800
2019-12-26,33.599998474121094,36.70000076293945,31.600000381469727,35.900001525878906,35.900001525878906,11480
2019-12-27,36.5,37.0,35.5,36.70000076293945,36.70000076293945,16220
2019-12-30,36.29999923706055,39.0,36.29999923706055,38.70000076293945,38.70000076293945,21960
2019-12-31,39.099998474121094,39.099998474121094,35.5,36.29999923706055,36.29999923706055,19960
2020-01-02,36.5,36.5,34.650001525878906,35.20000076293945,35.20000076293945,5230
2020-01-03,34.900001525878906,35.20000076293945,32.29999923706055,33.900001525878906,33.900001525878906,5260
2020-01-06,33.79999923706055,36.599998474121094,33.400001525878906,36.29999923706055,36.29999923706055,9280
2020-01-07,36.70000076293945,36.79999923706055,35.70000076293945,36.0,36.0,1470
2020-01-08,36.400001525878906,36.400001525878906,35.20000076293945,36.099998474121094,36.099998474121094,3780
2020-01-09,36.400001525878906,36.5,34.20000076293945,35.599998474121094,35.599998474121094,8410
2020-01-10,35.599998474121094,36.79999923706055,34.099998474121094,36.099998474121094,36.099998474121094,3260
2020-01-13,36.400001525878906,38.400001525878906,36.0,37.79999923706055,37.79999923706055,7850
2020-01-14,36.20000076293945,37.5,35.900001525878906,36.599998474121094,36.599998474121094,4950
2020-01-15,36.70000076293945,38.400001525878906,36.0,36.29999923706055,36.29999923706055,2410
2020-01-16,36.0,39.0,34.5,38.5,38.5,9970
2020-01-17,38.400001525878906,39.20000076293945,36.29999923706055,36.900001525878906,36.900001525878906,4350
2020-01-21,37.20000076293945,37.20000076293945,35.5,36.599998474121094,36.599998474121094,3230
2020-01-22,36.79999923706055,37.20000076293945,36.29999923706055,36.599998474121094,36.599998474121094,3460
2020-01-23,36.0,36.400001525878906,34.0,35.79999923706055,35.79999923706055,3120
2020-01-24,35.5,35.900001525878906,32.810001373291016,34.79999923706055,34.79999923706055,6890
2020-01-27,34.20000076293945,36.400001525878906,34.20000076293945,35.400001525878906,35.400001525878906,5440
2020-01-28,35.099998474121094,36.5,34.0,35.20000076293945,35.20000076293945,7790
2020-01-29,35.400001525878906,35.599998474121094,33.81999969482422,34.29999923706055,34.29999923706055,6400
2020-01-30,34.29999923706055,34.5,32.0,32.900001525878906,32.900001525878906,20420
2020-01-31,32.900001525878906,33.79999923706055,31.700000762939453,32.099998474121094,32.099998474121094,13880
2020-02-03,32.20000076293945,33.599998474121094,31.5,32.400001525878906,32.400001525878906,2690
2020-02-04,32.900001525878906,32.900001525878906,31.1200008392334,32.29999923706055,32.29999923706055,3410
2020-02-05,32.0,35.0,32.0,34.599998474121094,34.599998474121094,6990
2020-02-06,34.29999923706055,35.79999923706055,34.29999923706055,34.70000076293945,34.70000076293945,2960
2020-02-07,35.029998779296875,35.29999923706055,34.54999923706055,34.900001525878906,34.900001525878906,640
2020-02-10,35.0,36.0,33.5,34.5,34.5,2770
2020-02-11,35.2599983215332,35.68000030517578,31.600000381469727,32.599998474121094,32.599998474121094,7710
2020-02-12,32.38999938964844,33.400001525878906,31.899999618530273,32.29999923706055,32.29999923706055,5780
2020-02-13,32.099998474121094,33.79999923706055,31.700000762939453,33.599998474121094,33.599998474121094,2150
2020-02-14,33.70000076293945,34.29999923706055,33.0,33.5,33.5,5580
2020-02-18,33.79999923706055,33.79999923706055,32.0,32.70000076293945,32.70000076293945,770
2020-02-19,32.31999969482422,32.93000030517578,32.099998474121094,32.29999923706055,32.29999923706055,2360
2020-02-20,32.0,33.060001373291016,31.450000762939453,31.5,31.5,7170
2020-02-21,32.0,32.0,31.0,31.0,31.0,1910
2020-02-24,30.100000381469727,33.5,30.100000381469727,32.20000076293945,32.20000076293945,3350
2020-02-25,32.869998931884766,33.0,30.600000381469727,31.899999618530273,31.899999618530273,1730
2020-02-26,31.829999923706055,31.899999618530273,30.5,30.600000381469727,30.600000381469727,1750
2020-02-27,30.5,31.700000762939453,30.0,30.0,30.0,7240
2020-02-28,30.0,30.149999618530273,28.5,29.0,29.0,13830
2020-03-02,29.100000381469727,30.0,28.0,28.299999237060547,28.299999237060547,13280
2020-03-03,28.799999237060547,29.299999237060547,26.799999237060547,27.399999618530273,27.399999618530273,14230
2020-03-04,27.200000762939453,28.299999237060547,25.899999618530273,27.5,27.5,48120
2020-03-05,27.1200008392334,27.5,26.100000381469727,26.200000762939453,26.200000762939453,7440
2020-03-06,26.0,26.0,24.5,24.700000762939453,24.700000762939453,5900
2020-03-09,22.399999618530273,23.700000762939453,19.450000762939453,19.700000762939453,19.700000762939453,7820
2020-03-10,21.760000228881836,21.760000228881836,18.799999237060547,19.299999237060547,19.299999237060547,3830
2020-03-11,18.600000381469727,18.600000381469727,7.650000095367432,9.220000267028809,9.220000267028809,39930
2020-03-12,8.199999809265137,8.399999618530273,6.949999809265137,6.949999809265137,6.949999809265137,10860
2020-03-13,8.34000015258789,9.100000381469727,5.0,6.349999904632568,6.349999904632568,15470
2020-03-16,5.53000020980835,7.0,5.21999979019165,5.949999809265137,5.949999809265137,8820
2020-03-17,5.980000019073486,7.599999904632568,5.980000019073486,6.900000095367432,6.900000095367432,11440
2020-03-18,6.900000095367432,7.860000133514404,6.300000190734863,6.840000152587891,6.840000152587891,5720
2020-03-19,7.190000057220459,7.300000190734863,5.5,7.300000190734863,7.300000190734863,6260
2020-03-20,7.230000019073486,19.700000762939453,5.599999904632568,5.599999904632568,5.599999904632568,79980
2020-03-23,6.0,7.889999866485596,6.0,6.329999923706055,6.329999923706055,16230
2020-03-24,7.110000133514404,7.599999904632568,6.5,7.320000171661377,7.320000171661377,16980
2020-03-25,7.550000190734863,10.0,7.300000190734863,9.0,9.0,19620
2020-03-26,9.449999809265137,11.0,9.020000457763672,10.100000381469727,10.100000381469727,14300
2020-03-27,10.5,10.550000190734863,7.199999809265137,8.399999618530273,8.399999618530273,9220
2020-03-30,8.449999809265137,8.899999618530273,7.5,8.199999809265137,8.199999809265137,5540
2020-03-31,7.400000095367432,8.199999809265137,7.0,7.0,7.0,13740
2020-04-01,10.100000381469727,13.0,7.5,8.539999961853027,8.539999961853027,198510
2020-04-02,8.899999618530273,10.0,7.75,8.399999618530273,8.399999618530273,38880
2020-04-03,9.199999809265137,9.300000190734863,7.5,7.570000171661377,7.570000171661377,21300
2020-04-06,8.600000381469727,8.800000190734863,8.0,8.399999618530273,8.399999618530273,7940
2020-04-07,9.399999618530273,9.399999618530273,7.610000133514404,7.900000095367432,7.900000095367432,22110
2020-04-08,8.1899995803833,8.5,7.53000020980835,8.100000381469727,8.100000381469727,12420
2020-04-09,8.0,8.5,7.699999809265137,8.149999618530273,8.149999618530273,13320
2020-04-13,8.399999618530273,8.399999618530273,7.949999809265137,8.199999809265137,8.199999809265137,11520
2020-04-14,8.199999809265137,8.300000190734863,7.900000095367432,7.900000095367432,7.900000095367432,14180
2020-04-15,7.900000095367432,8.079999923706055,7.5,7.699999809265137,7.699999809265137,12110
2020-04-16,7.900000095367432,8.0,7.5,7.869999885559082,7.869999885559082,6430
2020-04-17,8.5,8.5,7.699999809265137,8.199999809265137,8.199999809265137,18250
2020-04-20,8.399999618530273,8.5,7.800000190734863,8.380000114440918,8.380000114440918,15760
2020-04-21,8.399999618530273,8.399999618530273,7.829999923706055,7.900000095367432,7.900000095367432,10510
2020-04-22,8.300000190734863,19.0,8.300000190734863,9.479999542236328,9.479999542236328,799480
2020-04-23,8.399999618530273,9.0,8.199999809265137,8.399999618530273,8.399999618530273,64710
2020-04-24,8.800000190734863,8.800000190734863,8.25,8.449999809265137,8.449999809265137,25120
2020-04-27,8.75,9.369999885559082,8.600000381469727,9.260000228881836,9.260000228881836,76170
2020-04-28,9.350000381469727,9.600000381469727,8.399999618530273,9.0,9.0,82730
2020-04-29,9.0,9.199999809265137,8.600000381469727,8.789999961853027,8.789999961853027,59820
2020-04-30,9.0,10.800000190734863,8.630000114440918,9.800000190734863,9.800000190734863,307550
2020-05-01,9.600000381469727,10.399999618530273,8.800000190734863,9.789999961853027,9.789999961853027,93350
2020-05-04,9.609999656677246,10.300000190734863,8.5,9.5,9.5,67210
2020-05-05,9.5,10.699999809265137,9.300000190734863,10.600000381469727,10.600000381469727,83930
2020-05-06,11.399999618530273,11.600000381469727,9.699999809265137,9.970000267028809,9.970000267028809,138500
2020-05-07,10.0,10.699999809265137,9.300000190734863,9.359999656677246,9.359999656677246,69320
2020-05-08,9.720000267028809,10.199999809265137,9.300000190734863,10.100000381469727,10.100000381469727,53860
2020-05-11,10.300000190734863,10.300000190734863,9.710000038146973,9.84000015258789,9.84000015258789,37460
2020-05-12,10.0,10.300000190734863,9.0,9.130000114440918,9.130000114440918,67450
2020-05-13,9.199999809265137,9.199999809265137,7.5,8.15999984741211,8.15999984741211,78560
2020-05-14,8.300000190734863,8.699999809265137,7.900000095367432,8.300000190734863,8.300000190734863,65480
2020-05-15,7.900000095367432,8.199999809265137,7.5,7.760000228881836,7.760000228881836,48370
2020-05-18,7.960000038146973,8.5,7.599999904632568,8.5,8.5,51400
2020-05-19,8.399999618530273,9.0,8.020000457763672,8.670000076293945,8.670000076293945,40870
2020-05-20,8.800000190734863,9.300000190734863,8.5,9.210000038146973,9.210000038146973,40080
2020-05-21,13.199999809265137,15.699999809265137,10.0,10.600000381469727,10.600000381469727,2419980
2020-05-22,9.899999618530273,10.600000381469727,9.699999809265137,10.199999809265137,10.199999809265137,184160
2020-05-26,10.100000381469727,10.100000381469727,9.220000267028809,9.760000228881836,9.760000228881836,92610
2020-05-27,9.420000076293945,9.800000190734863,8.899999618530273,9.300000190734863,9.300000190734863,103860
2020-05-28,9.300000190734863,9.300000190734863,8.199999809265137,8.25,8.25,84780
2020-05-29,8.199999809265137,8.699999809265137,8.0,8.300000190734863,8.300000190734863,126600
2020-06-01,8.819999694824219,9.5,8.5,9.039999961853027,9.039999961853027,102800
2020-06-02,8.5,9.100000381469727,8.199999809265137,8.569999694824219,8.569999694824219,92130
2020-06-03,8.399999618530273,8.800000190734863,8.109999656677246,8.329999923706055,8.329999923706055,123090
2020-06-04,8.0,9.300000190734863,7.800000190734863,8.84000015258789,8.84000015258789,339850
2020-06-05,8.800000190734863,9.40999984741211,8.399999618530273,9.020000457763672,9.020000457763672,452990
2020-06-08,9.199999809265137,10.699999809265137,9.100000381469727,10.199999809265137,10.199999809265137,324390
2020-06-09,10.5,10.5,9.699999809265137,9.9399995803833,9.9399995803833,123130
2020-06-10,10.800000190734863,10.800000190734863,9.119999885559082,9.489999771118164,9.489999771118164,127660
2020-06-11,9.399999618530273,9.600000381469727,8.399999618530273,8.699999809265137,8.699999809265137,167410
2020-06-12,9.300000190734863,9.399999618530273,8.649999618530273,8.90999984741211,8.90999984741211,95700
2020-06-15,9.619999885559082,9.899999618530273,8.600000381469727,9.5,9.5,121800
2020-06-16,9.75,9.899999618530273,9.5,9.699999809265137,9.699999809265137,63730
2020-06-17,9.600000381469727,9.649999618530273,9.100000381469727,9.40999984741211,9.40999984741211,45290
2020-06-18,9.40999984741211,9.40999984741211,8.819999694824219,9.1899995803833,9.1899995803833,39670
2020-06-19,9.300000190734863,9.300000190734863,8.800000190734863,8.970000267028809,8.970000267028809,37500
2020-06-22,9.029999732971191,9.399999618530273,8.75,9.289999961853027,9.289999961853027,64240
2020-06-23,9.600000381469727,9.699999809265137,8.800000190734863,8.899999618530273,8.899999618530273,106310
2020-06-24,8.800000190734863,8.899999618530273,8.5,8.779999732971191,8.779999732971191,62500
2020-06-25,8.65999984741211,8.6899995803833,8.199999809265137,8.380000114440918,8.380000114440918,51970
2020-06-26,8.100000381469727,8.600000381469727,8.010000228881836,8.170000076293945,8.170000076293945,156240
2020-06-29,8.399999618530273,8.399999618530273,7.739999771118164,8.010000228881836,8.010000228881836,66400
2020-06-30,8.050000190734863,8.399999618530273,7.650000095367432,8.010000228881836,8.010000228881836,63170
2020-07-01,8.199999809265137,8.25,7.900000095367432,8.039999961853027,8.039999961853027,34250
2020-07-02,8.100000381469727,8.300000190734863,8.0,8.210000038146973,8.210000038146973,43620
2020-07-06,8.399999618530273,8.399999618530273,7.909999847412109,8.100000381469727,8.100000381469727,41230
2020-07-07,8.029999732971191,8.199999809265137,7.900000095367432,8.0,8.0,21540
2020-07-08,8.020000457763672,8.300000190734863,7.949999809265137,8.210000038146973,8.210000038146973,31860
2020-07-09,8.300000190734863,8.399999618530273,7.900000095367432,8.010000228881836,8.010000228881836,36420
2020-07-10,8.050000190734863,8.100000381469727,7.820000171661377,7.949999809265137,7.949999809265137,50570
2020-07-13,8.0,8.199999809265137,7.739999771118164,7.940000057220459,7.940000057220459,40180
2020-07-14,7.849999904632568,8.300000190734863,7.820000171661377,7.949999809265137,7.949999809265137,49540
2020-07-15,8.0,8.34000015258789,7.929999828338623,8.25,8.25,53460
2020-07-16,8.1899995803833,8.619999885559082,8.010000228881836,8.399999618530273,8.399999618530273,42350
2020-07-17,8.5,8.829999923706055,8.199999809265137,8.579999923706055,8.579999923706055,69130
2020-07-20,8.619999885559082,8.970000267028809,8.300000190734863,8.800000190734863,8.800000190734863,131500
2020-07-21,8.899999618530273,9.0,8.609999656677246,8.890000343322754,8.890000343322754,73980
2020-07-22,9.109999656677246,10.100000381469727,8.899999618530273,9.470000267028809,9.470000267028809,450610
2020-07-23,9.300000190734863,9.390000343322754,8.5,8.710000038146973,8.710000038146973,153270
2020-07-24,8.5,8.800000190734863,8.3100004196167,8.729999542236328,8.729999542236328,41270
2020-07-27,8.789999961853027,8.989999771118164,8.5,8.979999542236328,8.979999542236328,37570
2020-07-28,10.399999618530273,11.399999618530273,9.5,10.300000190734863,10.300000190734863,634210
2020-07-29,9.710000038146973,10.0,9.210000038146973,9.600000381469727,9.600000381469727,126580
2020-07-30,9.5,10.199999809265137,9.199999809265137,10.199999809265137,10.199999809265137,68130
2020-07-31,10.100000381469727,10.100000381469727,9.399999618530273,9.5,9.5,43510
2020-08-03,9.699999809265137,9.899999618530273,9.399999618530273,9.40999984741211,9.40999984741211,41980
2020-08-04,9.520000457763672,10.300000190734863,9.420000076293945,10.0,10.0,67600
2020-08-05,10.300000190734863,10.899999618530273,10.100000381469727,10.399999618530273,10.399999618530273,97460
2020-08-06,10.399999618530273,10.699999809265137,10.199999809265137,10.399999618530273,10.399999618530273,53930
2020-08-07,10.399999618530273,10.600000381469727,10.199999809265137,10.5,10.5,32600
2020-08-10,10.699999809265137,11.699999809265137,10.600000381469727,10.899999618530273,10.899999618530273,130970
2020-08-11,11.300000190734863,11.600000381469727,10.0,10.300000190734863,10.300000190734863,116340
2020-08-12,10.5,10.899999618530273,10.199999809265137,10.300000190734863,10.300000190734863,362850
2020-08-13,11.0,11.600000381469727,9.390000343322754,9.800000190734863,9.800000190734863,529890
2020-08-14,9.699999809265137,9.800000190734863,9.100000381469727,9.699999809265137,9.699999809265137,162490
2020-08-17,9.300000190734863,10.100000381469727,9.140000343322754,10.100000381469727,10.100000381469727,58230
2020-08-18,10.100000381469727,10.199999809265137,9.600000381469727,9.829999923706055,9.829999923706055,32200
2020-08-19,9.579999923706055,10.699999809265137,9.420000076293945,9.600000381469727,9.600000381469727,321420
2020-08-20,9.5,9.960000038146973,9.279999732971191,9.329999923706055,9.329999923706055,69590
2020-08-21,9.260000228881836,9.600000381469727,8.5,9.199999809265137,9.199999809265137,76770
2020-08-24,9.390000343322754,9.5,9.0,9.210000038146973,9.210000038146973,41030
2020-08-25,9.010000228881836,9.300000190734863,8.619999885559082,9.300000190734863,9.300000190734863,65990
2020-08-26,9.210000038146973,9.300000190734863,8.899999618530273,9.140000343322754,9.140000343322754,30940
2020-08-27,9.0,9.100000381469727,8.949999809265137,9.100000381469727,9.100000381469727,21940
2020-08-28,9.029999732971191,9.199999809265137,8.699999809265137,9.100000381469727,9.100000381469727,27390
2020-08-31,9.100000381469727,9.25,8.699999809265137,8.779999732971191,8.779999732971191,37580
2020-09-01,8.760000228881836,9.09000015258789,8.699999809265137,8.729999542236328,8.729999542236328,41010
2020-09-02,8.800000190734863,9.300000190734863,8.720000267028809,9.300000190734863,9.300000190734863,41820
2020-09-03,8.899999618530273,9.300000190734863,8.850000381469727,9.199999809265137,9.199999809265137,47180
2020-09-04,9.289999961853027,9.289999961853027,8.539999961853027,8.699999809265137,8.699999809265137,39380
2020-09-08,8.569999694824219,8.899999618530273,8.5,8.770000457763672,8.770000457763672,27610
2020-09-09,8.699999809265137,10.300000190734863,8.40999984741211,8.819999694824219,8.819999694824219,305770
2020-09-10,8.550000190734863,9.300000190734863,8.550000190734863,8.8100004196167,8.8100004196167,37070
2020-09-11,8.600000381469727,9.069999694824219,8.550000190734863,8.670000076293945,8.670000076293945,29920
2020-09-14,8.800000190734863,9.09000015258789,8.699999809265137,8.729999542236328,8.729999542236328,33380
2020-09-15,8.819999694824219,9.0,8.550000190734863,8.579999923706055,8.579999923706055,27680
2020-09-16,8.699999809265137,8.899999618530273,8.510000228881836,8.510000228881836,8.510000228881836,58040
2020-09-17,8.5,8.609999656677246,8.399999618530273,8.430000305175781,8.430000305175781,41880
2020-09-18,8.5,8.699999809265137,8.149999618530273,8.149999618530273,8.149999618530273,97450
2020-09-21,8.3100004196167,8.399999618530273,8.210000038146973,8.289999961853027,8.289999961853027,27930
2020-09-22,8.300000190734863,8.399999618530273,8.210000038146973,8.300000190734863,8.300000190734863,17970
2020-09-23,8.300000190734863,8.329999923706055,7.75,7.900000095367432,7.900000095367432,44350
2020-09-24,7.909999847412109,8.0,7.099999904632568,7.699999809265137,7.699999809265137,82220
2020-09-25,7.710000038146973,7.920000076293945,7.5,7.610000133514404,7.610000133514404,55850
2020-09-28,7.730000019073486,8.100000381469727,7.659999847412109,7.75,7.75,35110
2020-09-29,7.949999809265137,7.96999979019165,7.53000020980835,7.599999904632568,7.599999904632568,25950
2020-09-30,7.699999809265137,7.909999847412109,7.699999809265137,7.760000228881836,7.760000228881836,33620
2020-10-01,7.900000095367432,7.989999771118164,7.409999847412109,7.46999979019165,7.46999979019165,45290
2020-10-02,7.5,7.5,7.03000020980835,7.119999885559082,7.119999885559082,62600
2020-10-05,7.099999904632568,7.099999904632568,6.920000076293945,7.0,7.0,41700
2020-10-06,7.019999980926514,7.210000038146973,7.019999980926514,7.050000190734863,7.050000190734863,26260
2020-10-07,7.070000171661377,7.110000133514404,7.010000228881836,7.059999942779541,7.059999942779541,47650
2020-10-08,7.150000095367432,7.150000095367432,7.0,7.039999961853027,7.039999961853027,36650
2020-10-09,7.079999923706055,7.199999809265137,6.900000095367432,6.900000095367432,6.900000095367432,40430
2020-10-12,7.0,7.0,6.670000076293945,6.849999904632568,6.849999904632568,44990
2020-10-13,6.800000190734863,7.070000171661377,6.5,6.679999828338623,6.679999828338623,286470
2020-10-14,6.599999904632568,6.699999809265137,6.349999904632568,6.400000095367432,6.400000095367432,119500
2020-10-15,6.400000095367432,6.5,5.900000095367432,5.949999809265137,5.949999809265137,184510
2020-10-16,6.0,6.199999809265137,5.849999904632568,5.900000095367432,5.900000095367432,143860
2020-10-19,5.989999771118164,6.349999904632568,5.900000095367432,6.0,6.0,89090
2020-10-20,6.0,6.110000133514404,5.75,5.829999923706055,5.829999923706055,80740
2020-10-21,5.920000076293945,6.130000114440918,5.650000095367432,5.730000019073486,5.730000019073486,91310
2020-10-22,5.650000095367432,6.0,5.440000057220459,5.860000133514404,5.860000133514404,108270
2020-10-23,5.96999979019165,5.989999771118164,5.599999904632568,5.869999885559082,5.869999885559082,85690
2020-10-26,5.849999904632568,5.849999904632568,5.46999979019165,5.53000020980835,5.53000020980835,111180
2020-10-27,5.739999771118164,5.849999904632568,5.300000190734863,5.699999809265137,5.699999809265137,136860
2020-10-28,5.519999980926514,5.699999809265137,5.050000190734863,5.070000171661377,5.070000171661377,139170
2020-10-29,5.0,5.050000190734863,4.650000095367432,4.650000095367432,4.650000095367432,117110
2020-10-30,4.699999809265137,4.699999809265137,4.199999809265137,4.409999847412109,4.409999847412109,157410
2020-11-02,4.5,5.730000019073486,4.409999847412109,5.079999923706055,5.079999923706055,207150
2020-11-03,5.400000095367432,5.400000095367432,4.809999942779541,4.909999847412109,4.909999847412109,68170
2020-11-04,4.96999979019165,5.099999904632568,4.75,4.869999885559082,4.869999885559082,49770
2020-11-05,4.96999979019165,5.849999904632568,4.820000171661377,5.730000019073486,5.730000019073486,86000
2020-11-06,5.900000095367432,5.900000095367432,5.230000019073486,5.380000114440918,5.380000114440918,51930
2020-11-09,5.449999809265137,5.800000190734863,5.400000095367432,5.769999980926514,5.769999980926514,89210
2020-11-10,5.789999961853027,5.960000038146973,5.429999828338623,5.679999828338623,5.679999828338623,86960
2020-11-11,5.199999809265137,5.369999885559082,4.809999942779541,5.159999847412109,5.159999847412109,184360
2020-11-12,5.119999885559082,5.139999866485596,4.71999979019165,4.78000020980835,4.78000020980835,79010
2020-11-13,4.849999904632568,5.25,4.75,5.099999904632568,5.099999904632568,74600
2020-11-16,5.099999904632568,5.5,5.0,5.349999904632568,5.349999904632568,52460
2020-11-17,5.400000095367432,5.5,5.199999809265137,5.460000038146973,5.460000038146973,32160
2020-11-18,5.5,6.199999809265137,5.400000095367432,5.840000152587891,5.840000152587891,128160
2020-11-19,5.900000095367432,5.900000095367432,5.5,5.769999980926514,5.769999980926514,48330
2020-11-20,6.0,6.0,5.599999904632568,5.869999885559082,5.869999885559082,42850
2020-11-23,6.150000095367432,6.150000095367432,5.550000190734863,5.849999904632568,5.849999904632568,60680
2020-11-24,5.940000057220459,6.300000190734863,5.650000095367432,6.179999828338623,6.179999828338623,76280
2020-11-25,6.190000057220459,6.190000057220459,5.800000190734863,5.880000114440918,5.880000114440918,60910
2020-11-27,6.0,6.190000057220459,5.78000020980835,6.159999847412109,6.159999847412109,57510
2020-11-30,6.150000095367432,6.400000095367432,5.909999847412109,6.389999866485596,6.389999866485596,92700
2020-12-01,6.679999828338623,6.679999828338623,6.099999904632568,6.340000152587891,6.340000152587891,75510
2020-12-02,6.0,6.199999809265137,5.949999809265137,6.130000114440918,6.130000114440918,36370
2020-12-03,6.099999904632568,6.349999904632568,6.03000020980835,6.25,6.25,32890
2020-12-04,6.309999942779541,6.320000171661377,6.0,6.099999904632568,6.099999904632568,30860
2020-12-07,6.199999809265137,6.289999961853027,5.920000076293945,6.139999866485596,6.139999866485596,54320
2020-12-08,6.25,7.349999904632568,6.199999809265137,6.400000095367432,6.400000095367432,719710
2020-12-09,6.480000019073486,6.5,6.099999904632568,6.320000171661377,6.320000171661377,153270
2020-12-10,6.300000190734863,6.449999809265137,6.099999904632568,6.400000095367432,6.400000095367432,111360
2020-12-11,6.400000095367432,6.400000095367432,6.190000057220459,6.389999866485596,6.389999866485596,71320
2020-12-14,6.349999904632568,6.389999866485596,6.099999904632568,6.300000190734863,6.300000190734863,76270
2020-12-15,6.199999809265137,6.300000190734863,6.050000190734863,6.199999809265137,6.199999809265137,90530
2020-12-16,6.150000095367432,6.150000095367432,6.0,6.090000152587891,6.090000152587891,44880
2020-12-17,6.190000057220459,6.239999771118164,6.0,6.150000095367432,6.150000095367432,75620
2020-12-18,6.25,6.25,6.0,6.210000038146973,6.210000038146973,69680
2020-12-21,6.099999904632568,6.199999809265137,5.940000057220459,6.019999980926514,6.019999980926514,66020
2020-12-22,6.159999847412109,6.25,6.099999904632568,6.139999866485596,6.139999866485596,60750
2020-12-23,6.139999866485596,6.5,6.139999866485596,6.360000133514404,6.360000133514404,98170
2020-12-24,6.5,6.679999828338623,6.360000133514404,6.46999979019165,6.46999979019165,45450
2020-12-28,6.800000190734863,7.329999923706055,6.5,6.920000076293945,6.920000076293945,228490
2020-12-29,7.289999961853027,7.360000133514404,7.0,7.179999828338623,7.179999828338623,195920
2020-12-30,7.300000190734863,7.5,7.25,7.300000190734863,7.300000190734863,162640
