Date,Open,High,Low,Close,Adj Close,Volume
2018-06-28,25.0,29.84000015258789,23.959999084472656,27.780000686645508,27.780000686645508,2503300
2018-06-29,26.770000457763672,27.948999404907227,25.0,26.610000610351562,26.610000610351562,164800
2018-07-02,26.030000686645508,28.0,24.100000381469727,26.40999984741211,26.40999984741211,126300
2018-07-03,26.8700008392334,27.030000686645508,24.530000686645508,26.959999084472656,26.959999084472656,89700
2018-07-05,27.1200008392334,27.989999771118164,24.739999771118164,25.8799991607666,25.8799991607666,108600
2018-07-06,26.309999465942383,27.389999389648438,24.68000030517578,25.5,25.5,116200
2018-07-09,25.510000228881836,26.030000686645508,24.5,25.110000610351562,25.110000610351562,139100
2018-07-10,26.979999542236328,26.979999542236328,25.1200008392334,26.1200008392334,26.1200008392334,218500
2018-07-11,26.0,26.31999969482422,25.309999465942383,26.139999389648438,26.139999389648438,81200
2018-07-12,25.614999771118164,26.450000762939453,25.55500030517578,25.770000457763672,25.770000457763672,31400
2018-07-13,26.190000534057617,26.190000534057617,24.860000610351562,24.989999771118164,24.989999771118164,29800
2018-07-16,25.0,27.450000762939453,25.0,27.290000915527344,27.290000915527344,115600
2018-07-17,27.0,28.030000686645508,26.469999313354492,26.799999237060547,26.799999237060547,126800
2018-07-18,26.75,27.513999938964844,25.297000885009766,26.860000610351562,26.860000610351562,105600
2018-07-19,26.850000381469727,27.770000457763672,26.104999542236328,26.530000686645508,26.530000686645508,26500
2018-07-20,26.239999771118164,26.799999237060547,25.440000534057617,26.25,26.25,35700
2018-07-23,26.25,26.979999542236328,25.84000015258789,26.020000457763672,26.020000457763672,45200
2018-07-24,26.790000915527344,27.0,25.729999542236328,26.170000076293945,26.170000076293945,141000
2018-07-25,26.3799991607666,26.75,25.850000381469727,25.920000076293945,25.920000076293945,137800
2018-07-26,26.110000610351562,27.25,25.28499984741211,25.920000076293945,25.920000076293945,66000
2018-07-27,26.139999389648438,26.989999771118164,25.2549991607666,25.700000762939453,25.700000762939453,16900
2018-07-30,25.559999465942383,26.540000915527344,25.327999114990234,25.540000915527344,25.540000915527344,50100
2018-07-31,25.6200008392334,26.100000381469727,24.950000762939453,24.950000762939453,24.950000762939453,84200
2018-08-01,24.959999084472656,27.049999237060547,24.959999084472656,26.06999969482422,26.06999969482422,62000
2018-08-02,26.079999923706055,26.510000228881836,24.299999237060547,24.31999969482422,24.31999969482422,100600
2018-08-03,24.510000228881836,25.200000762939453,23.951000213623047,24.600000381469727,24.600000381469727,24400
2018-08-06,24.600000381469727,25.8799991607666,24.549999237060547,25.799999237060547,25.799999237060547,71300
2018-08-07,25.75,29.670000076293945,24.7549991607666,26.0,26.0,20400
2018-08-08,26.0,29.079999923706055,26.0,28.420000076293945,28.420000076293945,81300
2018-08-09,28.389999389648438,31.5,27.65999984741211,30.799999237060547,30.799999237060547,42600
2018-08-10,30.790000915527344,33.849998474121094,24.6299991607666,33.5099983215332,33.5099983215332,77600
2018-08-13,33.70000076293945,36.0,32.75,33.130001068115234,33.130001068115234,85500
2018-08-14,35.0,35.0,28.0,32.4900016784668,32.4900016784668,134900
2018-08-15,33.9900016784668,33.9900016784668,29.729999542236328,32.66999816894531,32.66999816894531,69000
2018-08-16,32.65999984741211,34.733001708984375,31.3799991607666,32.25,32.25,59400
2018-08-17,32.08000183105469,33.01499938964844,30.375,31.270000457763672,31.270000457763672,90200
2018-08-20,29.020000457763672,33.0,29.0,31.950000762939453,31.950000762939453,69700
2018-08-21,31.940000534057617,32.33000183105469,30.53499984741211,32.119998931884766,32.119998931884766,51900
2018-08-22,32.119998931884766,33.83000183105469,30.395000457763672,33.81999969482422,33.81999969482422,169700
2018-08-23,33.83000183105469,34.470001220703125,32.29999923706055,32.88999938964844,32.88999938964844,155200
2018-08-24,33.0099983215332,33.4900016784668,32.130001068115234,33.43000030517578,33.43000030517578,38200
2018-08-27,33.13999938964844,33.540000915527344,32.38999938964844,33.279998779296875,33.279998779296875,55300
2018-08-28,33.27000045776367,33.986000061035156,32.279998779296875,32.689998626708984,32.689998626708984,66500
2018-08-29,32.880001068115234,35.0,32.7599983215332,33.86000061035156,33.86000061035156,76400
2018-08-30,33.779998779296875,34.0,33.099998474121094,33.4900016784668,33.4900016784668,105200
2018-08-31,33.439998626708984,34.36899948120117,32.55500030517578,33.04999923706055,33.04999923706055,36700
2018-09-04,33.15999984741211,34.970001220703125,33.11000061035156,33.79999923706055,33.79999923706055,74100
2018-09-05,33.810001373291016,35.400001525878906,33.16999816894531,34.66999816894531,34.66999816894531,68400
2018-09-06,34.880001068115234,36.790000915527344,34.20000076293945,35.810001373291016,35.810001373291016,143800
2018-09-07,35.79999923706055,39.38999938964844,34.77000045776367,36.189998626708984,36.189998626708984,85700
2018-09-10,36.27000045776367,38.400001525878906,35.45000076293945,37.540000915527344,37.540000915527344,86800
2018-09-11,37.54999923706055,39.10599899291992,36.31999969482422,37.13999938964844,37.13999938964844,75000
2018-09-12,37.349998474121094,37.79999923706055,35.54499816894531,36.93000030517578,36.93000030517578,41500
2018-09-13,37.5,37.5,34.5,35.380001068115234,35.380001068115234,124500
2018-09-14,35.369998931884766,36.84000015258789,34.52000045776367,34.95000076293945,34.95000076293945,69700
2018-09-17,34.880001068115234,35.59000015258789,31.920000076293945,33.59000015258789,33.59000015258789,188200
2018-09-18,33.599998474121094,34.880001068115234,31.885000228881836,33.900001525878906,33.900001525878906,102600
2018-09-19,33.849998474121094,34.9900016784668,33.45000076293945,33.470001220703125,33.470001220703125,112300
2018-09-20,33.63999938964844,34.814998626708984,33.16999816894531,33.16999816894531,33.16999816894531,128500
2018-09-21,33.15999984741211,34.939998626708984,32.3849983215332,34.310001373291016,34.310001373291016,941700
2018-09-24,34.470001220703125,34.72999954223633,32.520999908447266,33.22999954223633,33.22999954223633,90800
2018-09-25,33.209999084472656,36.880001068115234,32.01499938964844,34.45000076293945,34.45000076293945,125700
2018-09-26,34.63999938964844,35.310001373291016,32.27000045776367,32.66999816894531,32.66999816894531,82600
2018-09-27,32.77000045776367,33.040000915527344,31.299999237060547,32.95000076293945,32.95000076293945,48500
2018-09-28,33.0,33.56999969482422,31.100000381469727,32.060001373291016,32.060001373291016,31500
2018-10-01,32.22999954223633,34.0,31.084999084472656,31.84000015258789,31.84000015258789,187900
2018-10-02,31.8799991607666,31.8799991607666,29.950000762939453,30.110000610351562,30.110000610351562,48400
2018-10-03,30.059999465942383,30.450000762939453,28.559999465942383,29.09000015258789,29.09000015258789,233600
2018-10-04,29.079999923706055,29.709999084472656,26.989999771118164,28.280000686645508,28.280000686645508,168100
2018-10-05,28.290000915527344,29.459999084472656,26.25,27.1200008392334,27.1200008392334,347200
2018-10-08,27.010000228881836,27.40999984741211,26.790000915527344,27.1299991607666,27.1299991607666,151400
2018-10-09,27.100000381469727,27.6200008392334,26.84000015258789,27.360000610351562,27.360000610351562,44900
2018-10-10,27.34000015258789,27.34000015258789,24.25,24.260000228881836,24.260000228881836,145800
2018-10-11,24.229999542236328,25.722000122070312,23.260000228881836,23.31999969482422,23.31999969482422,183100
2018-10-12,23.760000228881836,24.68000030517578,22.665000915527344,24.3700008392334,24.3700008392334,114000
2018-10-15,24.43000030517578,24.43000030517578,23.110000610351562,23.700000762939453,23.700000762939453,117700
2018-10-16,23.84000015258789,24.524999618530273,23.010000228881836,24.190000534057617,24.190000534057617,164300
2018-10-17,23.969999313354492,24.559999465942383,20.69700050354004,22.469999313354492,22.469999313354492,323200
2018-10-18,22.780000686645508,23.270000457763672,21.389999389648438,23.15999984741211,23.15999984741211,100200
2018-10-19,23.170000076293945,25.450000762939453,23.149999618530273,24.860000610351562,24.860000610351562,93200
2018-10-22,25.0,25.670000076293945,24.020000457763672,24.940000534057617,24.940000534057617,124600
2018-10-23,24.75,25.575000762939453,24.350000381469727,24.709999084472656,24.709999084472656,60600
2018-10-24,24.770000457763672,25.31999969482422,23.8700008392334,24.040000915527344,24.040000915527344,50400
2018-10-25,24.200000762939453,24.621999740600586,22.709999084472656,23.020000457763672,23.020000457763672,108200
2018-10-26,22.729999542236328,24.280000686645508,21.819000244140625,23.049999237060547,23.049999237060547,88900
2018-10-29,23.31999969482422,24.049999237060547,22.860000610351562,23.350000381469727,23.350000381469727,64800
2018-10-30,23.520000457763672,24.299999237060547,23.520000457763672,24.1200008392334,24.1200008392334,57300
2018-10-31,24.3799991607666,26.079999923706055,24.0,25.479999542236328,25.479999542236328,51300
2018-11-01,25.729999542236328,26.270000457763672,25.0,25.43000030517578,25.43000030517578,48500
2018-11-02,25.600000381469727,25.600000381469727,23.920000076293945,24.690000534057617,24.690000534057617,51200
2018-11-05,24.690000534057617,25.709999084472656,24.420000076293945,24.690000534057617,24.690000534057617,59000
2018-11-06,25.40999984741211,26.360000610351562,24.0,25.6299991607666,25.6299991607666,45900
2018-11-07,26.139999389648438,27.360000610351562,25.045000076293945,25.3799991607666,25.3799991607666,160000
2018-11-08,25.3799991607666,27.344999313354492,24.979999542236328,25.450000762939453,25.450000762939453,85300
2018-11-09,25.209999084472656,25.969999313354492,24.3799991607666,24.75,24.75,78800
2018-11-12,24.530000686645508,24.59000015258789,22.0,22.010000228881836,22.010000228881836,37600
2018-11-13,22.030000686645508,23.235000610351562,21.100000381469727,21.65999984741211,21.65999984741211,175700
2018-11-14,21.719999313354492,22.280000686645508,18.010000228881836,18.579999923706055,18.579999923706055,267100
2018-11-15,18.34000015258789,18.80299949645996,17.459999084472656,17.549999237060547,17.549999237060547,169100
2018-11-16,17.520000457763672,19.209999084472656,16.3799991607666,18.100000381469727,18.100000381469727,257500
2018-11-19,18.040000915527344,19.559999465942383,15.779999732971191,16.0,16.0,197100
2018-11-20,15.680000305175781,16.85099983215332,15.399999618530273,16.100000381469727,16.100000381469727,124900
2018-11-21,16.219999313354492,18.299999237060547,16.219999313354492,18.190000534057617,18.190000534057617,163400
2018-11-23,17.889999389648438,18.325000762939453,17.239999771118164,17.809999465942383,17.809999465942383,54900
2018-11-26,17.979999542236328,18.0,17.469999313354492,17.889999389648438,17.889999389648438,77100
2018-11-27,17.719999313354492,17.950000762939453,17.299999237060547,17.459999084472656,17.459999084472656,66600
2018-11-28,17.520000457763672,18.489999771118164,17.520000457763672,17.899999618530273,17.899999618530273,146800
2018-11-29,17.790000915527344,18.299999237060547,17.3700008392334,17.989999771118164,17.989999771118164,278000
2018-11-30,17.899999618530273,18.0,16.989999771118164,17.84000015258789,17.84000015258789,128400
2018-12-03,18.0,18.0,17.200000762939453,18.0,18.0,104600
2018-12-04,17.760000228881836,18.985000610351562,17.415000915527344,18.540000915527344,18.540000915527344,239000
2018-12-06,18.43000030517578,20.44499969482422,18.424999237060547,19.889999389648438,19.889999389648438,135300
2018-12-07,19.8700008392334,20.139999389648438,19.270000457763672,19.670000076293945,19.670000076293945,93300
2018-12-10,19.649999618530273,20.780000686645508,19.165000915527344,19.889999389648438,19.889999389648438,83100
2018-12-11,20.299999237060547,21.25,19.190000534057617,20.670000076293945,20.670000076293945,69500
2018-12-12,20.989999771118164,20.989999771118164,19.59000015258789,19.65999984741211,19.65999984741211,118400
2018-12-13,19.75,20.139999389648438,19.270000457763672,19.90999984741211,19.90999984741211,120800
2018-12-14,19.8700008392334,20.469999313354492,19.6200008392334,20.09000015258789,20.09000015258789,112700
2018-12-17,20.059999465942383,20.290000915527344,19.0,19.15999984741211,19.15999984741211,212600
2018-12-18,19.399999618530273,20.360000610351562,19.1200008392334,19.670000076293945,19.670000076293945,81400
2018-12-19,19.809999465942383,20.040000915527344,18.510000228881836,19.270000457763672,19.270000457763672,120900
2018-12-20,19.329999923706055,19.549999237060547,18.649999618530273,18.780000686645508,18.780000686645508,193100
2018-12-21,18.790000915527344,19.989999771118164,18.739999771118164,19.3799991607666,19.3799991607666,345200
2018-12-24,19.18000030517578,19.690000534057617,18.40999984741211,18.65999984741211,18.65999984741211,40400
2018-12-26,18.829999923706055,19.399999618530273,18.020000457763672,19.06999969482422,19.06999969482422,150800
2018-12-27,18.940000534057617,19.1299991607666,17.940000534057617,18.920000076293945,18.920000076293945,143900
2018-12-28,18.90999984741211,19.540000915527344,18.600000381469727,18.989999771118164,18.989999771118164,88500
2018-12-31,19.0,19.690000534057617,18.760000228881836,19.350000381469727,19.350000381469727,100400
2019-01-02,19.139999389648438,19.75,18.860000610351562,19.579999923706055,19.579999923706055,189100
2019-01-03,19.610000610351562,19.639999389648438,18.6200008392334,18.829999923706055,18.829999923706055,128200
2019-01-04,19.049999237060547,19.3799991607666,18.6299991607666,19.190000534057617,19.190000534057617,113400
2019-01-07,19.18000030517578,19.850000381469727,17.479999542236328,17.6299991607666,17.6299991607666,167800
2019-01-08,17.90999984741211,18.2450008392334,16.5,17.0,17.0,232100
2019-01-09,16.989999771118164,17.65999984741211,16.700000762939453,17.3700008392334,17.3700008392334,213400
2019-01-10,17.350000381469727,18.084999084472656,17.010000228881836,17.5,17.5,50000
2019-01-11,17.5,18.209999084472656,17.010000228881836,17.200000762939453,17.200000762939453,77500
2019-01-14,17.209999084472656,17.209999084472656,15.640000343322754,15.770000457763672,15.770000457763672,99800
2019-01-15,15.5600004196167,15.975000381469727,15.0649995803833,15.319999694824219,15.319999694824219,92700
2019-01-16,15.329999923706055,15.470000267028809,14.850000381469727,14.960000038146973,14.960000038146973,131200
2019-01-17,14.9399995803833,15.03499984741211,14.619999885559082,14.760000228881836,14.760000228881836,126200
2019-01-18,14.819999694824219,14.819999694824219,14.079999923706055,14.399999618530273,14.399999618530273,72700
2019-01-22,14.229999542236328,14.229999542236328,13.670000076293945,13.84000015258789,13.84000015258789,62900
2019-01-23,13.890000343322754,14.0,13.260000228881836,13.600000381469727,13.600000381469727,123700
2019-01-24,13.579999923706055,14.260000228881836,13.579999923706055,13.979999542236328,13.979999542236328,42700
2019-01-25,14.0600004196167,15.270000457763672,13.890000343322754,15.09000015258789,15.09000015258789,96200
2019-01-28,15.5,16.392000198364258,15.300000190734863,16.260000228881836,16.260000228881836,117300
2019-01-29,16.389999389648438,16.979000091552734,15.619999885559082,16.729999542236328,16.729999542236328,131500
2019-01-30,16.709999084472656,16.957000732421875,15.710000038146973,16.84000015258789,16.84000015258789,188500
2019-01-31,16.809999465942383,17.149999618530273,16.485000610351562,17.1200008392334,17.1200008392334,121900
2019-02-01,17.1200008392334,17.290000915527344,16.65999984741211,17.1200008392334,17.1200008392334,299800
2019-02-04,17.09000015258789,17.5,17.010000228881836,17.229999542236328,17.229999542236328,98800
2019-02-05,17.31999969482422,17.559999465942383,17.06999969482422,17.1299991607666,17.1299991607666,82100
2019-02-06,17.139999389648438,17.21500015258789,16.84000015258789,17.09000015258789,17.09000015258789,91100
2019-02-07,16.989999771118164,17.25,16.700000762939453,17.149999618530273,17.149999618530273,128600
2019-02-08,16.809999465942383,17.2450008392334,16.290000915527344,17.209999084472656,17.209999084472656,68700
2019-02-11,17.360000610351562,17.360000610351562,16.690000534057617,17.34000015258789,17.34000015258789,59200
2019-02-12,17.40999984741211,17.649999618530273,17.329999923706055,17.59000015258789,17.59000015258789,34700
2019-02-13,17.549999237060547,17.579999923706055,17.030000686645508,17.450000762939453,17.450000762939453,39100
2019-02-14,17.420000076293945,17.6299991607666,16.700000762939453,17.43000030517578,17.43000030517578,208100
2019-02-15,17.510000228881836,18.450000762939453,17.510000228881836,17.989999771118164,17.989999771118164,92500
2019-02-19,18.079999923706055,18.079999923706055,16.81999969482422,17.25,17.25,187800
2019-02-20,17.25,17.850000381469727,16.780000686645508,17.649999618530273,17.649999618530273,72300
2019-02-21,17.81999969482422,17.81999969482422,15.760000228881836,17.0,17.0,455300
2019-02-22,17.010000228881836,17.25,15.760000228881836,16.149999618530273,16.149999618530273,262200
2019-02-25,16.420000076293945,17.9950008392334,16.3700008392334,17.719999313354492,17.719999313354492,141700
2019-02-26,17.549999237060547,18.149999618530273,16.889999389648438,17.049999237060547,17.049999237060547,79000
2019-02-27,17.040000915527344,18.0,16.56999969482422,17.200000762939453,17.200000762939453,112600
2019-02-28,17.170000076293945,17.6200008392334,16.981000900268555,17.450000762939453,17.450000762939453,91100
2019-03-01,17.600000381469727,17.690000534057617,17.18000030517578,17.420000076293945,17.420000076293945,79100
2019-03-04,17.600000381469727,17.600000381469727,15.890000343322754,16.059999465942383,16.059999465942383,155200
2019-03-05,16.329999923706055,18.350000381469727,16.329999923706055,16.530000686645508,16.530000686645508,279200
2019-03-06,16.450000762939453,17.059999465942383,16.139999389648438,17.020000457763672,17.020000457763672,168300
2019-03-07,16.459999084472656,16.899999618530273,15.3149995803833,15.649999618530273,15.649999618530273,206000
2019-03-08,15.609999656677246,16.5049991607666,15.609999656677246,16.420000076293945,16.420000076293945,101300
2019-03-11,16.469999313354492,17.5,16.075000762939453,17.1200008392334,17.1200008392334,143100
2019-03-12,17.1200008392334,17.299999237060547,16.200000762939453,16.43000030517578,16.43000030517578,70600
2019-03-13,16.3700008392334,17.049999237060547,16.34000015258789,16.530000686645508,16.530000686645508,77800
2019-03-14,16.510000228881836,16.639999389648438,15.760000228881836,16.209999084472656,16.209999084472656,111500
2019-03-15,16.219999313354492,16.31999969482422,15.869999885559082,16.09000015258789,16.09000015258789,677300
2019-03-18,16.09000015258789,16.6299991607666,15.8100004196167,16.389999389648438,16.389999389648438,107900
2019-03-19,16.43000030517578,17.68000030517578,16.389999389648438,17.489999771118164,17.489999771118164,253200
2019-03-20,17.34000015258789,17.510000228881836,16.889999389648438,16.950000762939453,16.950000762939453,119900
2019-03-21,16.850000381469727,17.200000762939453,16.68000030517578,16.700000762939453,16.700000762939453,95000
2019-03-22,16.600000381469727,16.600000381469727,14.399999618530273,14.5,14.5,134000
2019-03-25,14.680000305175781,16.173999786376953,13.989999771118164,14.510000228881836,14.510000228881836,76500
2019-03-26,14.609999656677246,15.140000343322754,14.359999656677246,14.65999984741211,14.65999984741211,40400
2019-03-27,14.619999885559082,14.880000114440918,13.96500015258789,14.75,14.75,40100
2019-03-28,15.630000114440918,15.710000038146973,14.470000267028809,15.34000015258789,15.34000015258789,85800
2019-03-29,15.40999984741211,15.619999885559082,14.819999694824219,15.25,15.25,117900
2019-04-01,15.369999885559082,15.770000457763672,14.529999732971191,14.75,14.75,110300
2019-04-02,14.6899995803833,15.819999694824219,14.5,15.760000228881836,15.760000228881836,60400
2019-04-03,15.8100004196167,16.0049991607666,15.380000114440918,15.779999732971191,15.779999732971191,42600
2019-04-04,15.699999809265137,17.549999237060547,15.699999809265137,17.1299991607666,17.1299991607666,132000
2019-04-05,17.200000762939453,17.639999389648438,16.780000686645508,17.030000686645508,17.030000686645508,91700
2019-04-08,17.020000457763672,17.440000534057617,15.449000358581543,17.200000762939453,17.200000762939453,149500
2019-04-09,17.25,17.59000015258789,16.485000610351562,17.0,17.0,69800
2019-04-10,17.09000015258789,17.420000076293945,16.639999389648438,16.829999923706055,16.829999923706055,83000
2019-04-11,16.889999389648438,16.889999389648438,16.079999923706055,16.700000762939453,16.700000762939453,42500
2019-04-12,16.739999771118164,17.18000030517578,16.600000381469727,16.690000534057617,16.690000534057617,77600
2019-04-15,16.700000762939453,17.1299991607666,15.949999809265137,16.329999923706055,16.329999923706055,90100
2019-04-16,16.389999389648438,16.790000915527344,16.0,16.170000076293945,16.170000076293945,79900
2019-04-17,16.18000030517578,16.399999618530273,15.399999618530273,15.569999694824219,15.569999694824219,56600
2019-04-18,15.569999694824219,16.264999389648438,15.114999771118164,15.5600004196167,15.5600004196167,138400
2019-04-22,15.359999656677246,15.75,15.0,15.5600004196167,15.5600004196167,31900
2019-04-23,15.40999984741211,16.290000915527344,15.40999984741211,15.989999771118164,15.989999771118164,48900
2019-04-24,16.1299991607666,16.434999465942383,15.654999732971191,15.779999732971191,15.779999732971191,56300
2019-04-25,15.729999542236328,16.229999542236328,15.211000442504883,15.470000267028809,15.470000267028809,50900
2019-04-26,15.5,17.219999313354492,15.5,17.030000686645508,17.030000686645508,79200
2019-04-29,17.25,17.760000228881836,16.8799991607666,17.200000762939453,17.200000762939453,96000
2019-04-30,17.219999313354492,17.43000030517578,16.510000228881836,16.670000076293945,16.670000076293945,72200
2019-05-01,16.8700008392334,17.21500015258789,16.270000457763672,17.100000381469727,17.100000381469727,45800
2019-05-02,17.010000228881836,17.1299991607666,15.845000267028809,16.170000076293945,16.170000076293945,66500
2019-05-03,16.350000381469727,16.9950008392334,16.15999984741211,16.530000686645508,16.530000686645508,61300
2019-05-06,16.209999084472656,17.270000457763672,15.991999626159668,17.1299991607666,17.1299991607666,126900
2019-05-07,16.700000762939453,17.709999084472656,15.585000038146973,15.770000457763672,15.770000457763672,67000
2019-05-08,15.75,16.809999465942383,15.529999732971191,16.200000762939453,16.200000762939453,39800
2019-05-09,16.030000686645508,16.399999618530273,14.5,15.220000267028809,15.220000267028809,77900
2019-05-10,15.109999656677246,15.4350004196167,14.130000114440918,14.270000457763672,14.270000457763672,53700
2019-05-13,14.039999961853027,14.819999694824219,14.015000343322754,14.369999885559082,14.369999885559082,46000
2019-05-14,14.489999771118164,15.40999984741211,14.399999618530273,15.029999732971191,15.029999732971191,54900
2019-05-15,14.890000343322754,15.479999542236328,14.399999618530273,14.960000038146973,14.960000038146973,48800
2019-05-16,14.949999809265137,15.1899995803833,14.239999771118164,14.850000381469727,14.850000381469727,27300
2019-05-17,14.670000076293945,14.770000457763672,14.0,14.399999618530273,14.399999618530273,42800
2019-05-20,14.260000228881836,14.829999923706055,14.006999969482422,14.710000038146973,14.710000038146973,37200
2019-05-21,14.850000381469727,15.289999961853027,14.489999771118164,14.930000305175781,14.930000305175781,37200
2019-05-22,14.960000038146973,15.425000190734863,14.192999839782715,14.579999923706055,14.579999923706055,51300
2019-05-23,14.399999618530273,14.4399995803833,13.739999771118164,14.039999961853027,14.039999961853027,90700
2019-05-24,14.109999656677246,14.109999656677246,12.029999732971191,13.09000015258789,13.09000015258789,216400
2019-05-28,13.220000267028809,14.100000381469727,13.0,13.430000305175781,13.430000305175781,169900
2019-05-29,13.199999809265137,13.34000015258789,12.149999618530273,12.180000305175781,12.180000305175781,98600
2019-05-30,12.180000305175781,12.229999542236328,11.1899995803833,11.329999923706055,11.329999923706055,162500
2019-05-31,11.180000305175781,11.59000015258789,10.619999885559082,11.520000457763672,11.520000457763672,95100
2019-06-03,11.420000076293945,12.279999732971191,10.899999618530273,11.789999961853027,11.789999961853027,97200
2019-06-04,11.949999809265137,11.979999542236328,10.480999946594238,10.529999732971191,10.529999732971191,189500
2019-06-05,9.989999771118164,10.25,9.649999618530273,9.960000038146973,9.960000038146973,198500
2019-06-06,9.9399995803833,10.109999656677246,8.899999618530273,9.0,9.0,240100
2019-06-07,8.949999809265137,10.369999885559082,8.949999809265137,9.920000076293945,9.920000076293945,134400
2019-06-10,9.899999618530273,11.385000228881836,9.899999618530273,11.020000457763672,11.020000457763672,119700
2019-06-11,11.0,11.020000457763672,10.574999809265137,10.850000381469727,10.850000381469727,133000
2019-06-12,10.850000381469727,10.869999885559082,10.244999885559082,10.40999984741211,10.40999984741211,176000
2019-06-13,10.40999984741211,12.229999542236328,10.263999938964844,11.989999771118164,11.989999771118164,384400
2019-06-14,11.960000038146973,12.100000381469727,11.430000305175781,11.5600004196167,11.5600004196167,93100
2019-06-17,11.40999984741211,11.989999771118164,10.729999542236328,11.479999542236328,11.479999542236328,79600
2019-06-18,11.75,12.0,11.329999923706055,11.5,11.5,80000
2019-06-19,11.489999771118164,12.0,11.270000457763672,12.0,12.0,100200
2019-06-20,12.020000457763672,12.930000305175781,11.779999732971191,12.899999618530273,12.899999618530273,250200
2019-06-21,12.789999961853027,12.979999542236328,12.3100004196167,12.699999809265137,12.699999809265137,112100
2019-06-24,12.609999656677246,13.130000114440918,12.255000114440918,12.529999732971191,12.529999732971191,281000
2019-06-25,12.529999732971191,12.529999732971191,11.880000114440918,11.930000305175781,11.930000305175781,110900
2019-06-26,11.989999771118164,12.0,10.729999542236328,10.800000190734863,10.800000190734863,86200
2019-06-27,10.84000015258789,11.869999885559082,10.699999809265137,10.930000305175781,10.930000305175781,93000
2019-06-28,10.949999809265137,12.739999771118164,10.949999809265137,12.510000228881836,12.510000228881836,312300
2019-07-01,12.680000305175781,13.199999809265137,12.069999694824219,12.510000228881836,12.510000228881836,107000
2019-07-02,12.5,12.899999618530273,12.390000343322754,12.510000228881836,12.510000228881836,82100
2019-07-03,12.6899995803833,13.055000305175781,12.5,12.510000228881836,12.510000228881836,72800
2019-07-05,12.470000267028809,13.170000076293945,12.451000213623047,12.949999809265137,12.949999809265137,65900
2019-07-08,12.899999618530273,12.899999618530273,12.399999618530273,12.520000457763672,12.520000457763672,97500
2019-07-09,12.420000076293945,12.569999694824219,12.335000038146973,12.449999809265137,12.449999809265137,31000
2019-07-10,12.619999885559082,12.814000129699707,12.380000114440918,12.729999542236328,12.729999542236328,50300
2019-07-11,12.770000457763672,13.199000358581543,12.550000190734863,13.029999732971191,13.029999732971191,53700
2019-07-12,13.039999961853027,13.3100004196167,12.619999885559082,12.800000190734863,12.800000190734863,90900
2019-07-15,12.869999885559082,12.899999618530273,12.350000381469727,12.84000015258789,12.84000015258789,43800
2019-07-16,12.869999885559082,12.970000267028809,12.510000228881836,12.609999656677246,12.609999656677246,25400
2019-07-17,13.0,13.0,12.609999656677246,12.800000190734863,12.800000190734863,112900
2019-07-18,12.869999885559082,12.869999885559082,12.40999984741211,12.65999984741211,12.65999984741211,54000
2019-07-19,12.65999984741211,12.704999923706055,12.40999984741211,12.479999542236328,12.479999542236328,57200
2019-07-22,12.569999694824219,12.569999694824219,11.390000343322754,11.479999542236328,11.479999542236328,41400
2019-07-23,11.529999732971191,11.529999732971191,10.90999984741211,11.149999618530273,11.149999618530273,42900
2019-07-24,11.109999656677246,11.59000015258789,10.78499984741211,11.430000305175781,11.430000305175781,110200
2019-07-25,11.40999984741211,12.020000457763672,10.890000343322754,10.970000267028809,10.970000267028809,30500
2019-07-26,11.050000190734863,11.770000457763672,10.979999542236328,11.470000267028809,11.470000267028809,29000
2019-07-29,11.819999694824219,11.819999694824219,11.069999694824219,11.34000015258789,11.34000015258789,101500
2019-07-30,11.279999732971191,12.239999771118164,11.260000228881836,12.050000190734863,12.050000190734863,44800
2019-07-31,12.050000190734863,12.239999771118164,11.420000076293945,11.90999984741211,11.90999984741211,49200
2019-08-01,11.819999694824219,12.0,11.199999809265137,11.449999809265137,11.449999809265137,27000
2019-08-02,11.449999809265137,11.989999771118164,11.15999984741211,11.300000190734863,11.300000190734863,54100
2019-08-05,11.100000381469727,11.319999694824219,10.239999771118164,10.369999885559082,10.369999885559082,62200
2019-08-06,10.649999618530273,11.670000076293945,9.970000267028809,10.520000457763672,10.520000457763672,42700
2019-08-07,10.449999809265137,10.829999923706055,10.015000343322754,10.539999961853027,10.539999961853027,25500
2019-08-08,10.529999732971191,10.529999732971191,9.970000267028809,10.010000228881836,10.010000228881836,131100
2019-08-09,10.130000114440918,10.369999885559082,9.869999885559082,9.890000343322754,9.890000343322754,45100
2019-08-12,9.899999618530273,10.21500015258789,9.890000343322754,9.9399995803833,9.9399995803833,53400
2019-08-13,9.920000076293945,10.34000015258789,9.899999618530273,10.0,10.0,50400
2019-08-14,9.850000381469727,10.020000457763672,9.680000305175781,9.6899995803833,9.6899995803833,75200
2019-08-15,9.800000190734863,9.920000076293945,9.545000076293945,9.649999618530273,9.649999618530273,56600
2019-08-16,9.760000228881836,10.029999732971191,9.75,10.0,10.0,56100
2019-08-19,10.15999984741211,10.460000038146973,10.0,10.100000381469727,10.100000381469727,38700
2019-08-20,10.0600004196167,10.210000038146973,9.899999618530273,9.899999618530273,9.899999618530273,37300
2019-08-21,10.0600004196167,10.09000015258789,9.850000381469727,9.869999885559082,9.869999885559082,22800
2019-08-22,9.890000343322754,10.0,9.520000457763672,9.8149995803833,9.8149995803833,56300
2019-08-23,9.699999809265137,9.800000190734863,9.399999618530273,9.470000267028809,9.470000267028809,145200
2019-08-26,9.579999923706055,9.739999771118164,9.357000350952148,9.680000305175781,9.680000305175781,42200
2019-08-27,9.75,9.75,9.020000457763672,9.449999809265137,9.449999809265137,29600
2019-08-28,9.670000076293945,9.670000076293945,9.239999771118164,9.460000038146973,9.460000038146973,103700
2019-08-29,9.569999694824219,9.930000305175781,9.4350004196167,9.850000381469727,9.850000381469727,62900
2019-08-30,9.890000343322754,10.739999771118164,9.890000343322754,10.670000076293945,10.670000076293945,33500
2019-09-03,10.460000038146973,10.984999656677246,10.069999694824219,10.479999542236328,10.479999542236328,39600
2019-09-04,10.539999961853027,11.0,10.3100004196167,10.529999732971191,10.529999732971191,77300
2019-09-05,10.770000457763672,11.069999694824219,10.220000267028809,10.960000038146973,10.960000038146973,71000
2019-09-06,10.979999542236328,11.585000038146973,10.845000267028809,11.380000114440918,11.380000114440918,34900
2019-09-09,11.630000114440918,12.199999809265137,11.1899995803833,11.930000305175781,11.930000305175781,70200
2019-09-10,11.760000228881836,11.883999824523926,11.430000305175781,11.529999732971191,11.529999732971191,67000
2019-09-11,11.619999885559082,11.680000305175781,11.088000297546387,11.489999771118164,11.489999771118164,67300
2019-09-12,11.529999732971191,11.569999694824219,10.819999694824219,11.420000076293945,11.420000076293945,93500
2019-09-13,11.289999961853027,11.5600004196167,11.229999542236328,11.300000190734863,11.300000190734863,104900
2019-09-16,11.270000457763672,11.270000457763672,10.305000305175781,10.5,10.5,81800
2019-09-17,10.510000228881836,11.130000114440918,10.510000228881836,10.960000038146973,10.960000038146973,88500
2019-09-18,10.960000038146973,11.100000381469727,10.829999923706055,10.989999771118164,10.989999771118164,68000
2019-09-19,11.0,11.119999885559082,10.5,10.630000114440918,10.630000114440918,77300
2019-09-20,10.739999771118164,10.979999542236328,10.180000305175781,10.279999732971191,10.279999732971191,326300
2019-09-23,10.34000015258789,10.34000015258789,9.6899995803833,10.079999923706055,10.079999923706055,113100
2019-09-24,10.039999961853027,10.220000267028809,9.10099983215332,9.279999732971191,9.279999732971191,97300
2019-09-25,9.289999961853027,9.395000457763672,8.90999984741211,8.979999542236328,8.979999542236328,144800
2019-09-26,8.979999542236328,9.149999618530273,8.579999923706055,8.65999984741211,8.65999984741211,71500
2019-09-27,8.710000038146973,8.835000038146973,8.460000038146973,8.739999771118164,8.739999771118164,250800
2019-09-30,8.800000190734863,8.930000305175781,8.229999542236328,8.3100004196167,8.3100004196167,81500
2019-10-01,8.300000190734863,8.460000038146973,7.940000057220459,8.300000190734863,8.300000190734863,220100
2019-10-02,8.329999923706055,8.539999961853027,8.239999771118164,8.510000228881836,8.510000228881836,67700
2019-10-03,8.479999542236328,9.470000267028809,8.470000267028809,8.779999732971191,8.779999732971191,63800
2019-10-04,8.779999732971191,9.100000381469727,8.699999809265137,9.020000457763672,9.020000457763672,69500
2019-10-07,8.989999771118164,9.300000190734863,8.899999618530273,9.220000267028809,9.220000267028809,71500
2019-10-08,9.0600004196167,9.25,8.829999923706055,8.949999809265137,8.949999809265137,43300
2019-10-09,9.039999961853027,9.300000190734863,8.829999923706055,9.0,9.0,77300
2019-10-10,8.979999542236328,9.029999732971191,8.850000381469727,8.930000305175781,8.930000305175781,70100
2019-10-11,9.050000190734863,9.149999618530273,8.829999923706055,8.869999885559082,8.869999885559082,82300
2019-10-14,8.84000015258789,9.020000457763672,8.729999542236328,8.880000114440918,8.880000114440918,62400
2019-10-15,8.899999618530273,9.100000381469727,8.789999961853027,8.90999984741211,8.90999984741211,44100
2019-10-16,8.90999984741211,9.010000228881836,8.819999694824219,8.859999656677246,8.859999656677246,25000
2019-10-17,8.90999984741211,9.229999542236328,8.90999984741211,9.0600004196167,9.0600004196167,46300
2019-10-18,9.010000228881836,9.390000343322754,8.949999809265137,9.010000228881836,9.010000228881836,79700
2019-10-21,9.130000114440918,9.180000305175781,8.949999809265137,9.0600004196167,9.0600004196167,51700
2019-10-22,9.050000190734863,9.265000343322754,8.970000267028809,8.989999771118164,8.989999771118164,74300
2019-10-23,8.930000305175781,9.0600004196167,8.850000381469727,8.880000114440918,8.880000114440918,41600
2019-10-24,8.859999656677246,8.989999771118164,8.489999771118164,8.630000114440918,8.630000114440918,68900
2019-10-25,8.619999885559082,9.020000457763672,8.600000381469727,8.899999618530273,8.899999618530273,72700
2019-10-28,8.970000267028809,9.100000381469727,8.8100004196167,8.9399995803833,8.9399995803833,96700
2019-10-29,8.9399995803833,8.989999771118164,8.630000114440918,8.84000015258789,8.84000015258789,47200
2019-10-30,8.960000038146973,8.979999542236328,8.864999771118164,8.949999809265137,8.949999809265137,45500
2019-10-31,8.9399995803833,9.0,8.850000381469727,8.90999984741211,8.90999984741211,43900
2019-11-01,8.979999542236328,9.050000190734863,8.930000305175781,9.0,9.0,56700
2019-11-04,9.079999923706055,9.079999923706055,8.9399995803833,8.970000267028809,8.970000267028809,66700
2019-11-05,8.510000228881836,8.510000228881836,5.340000152587891,5.460000038146973,5.460000038146973,408700
2019-11-06,5.409999847412109,5.4629998207092285,5.070000171661377,5.099999904632568,5.099999904632568,262600
2019-11-07,5.199999809265137,5.585000038146973,4.809999942779541,4.900000095367432,4.900000095367432,234600
2019-11-08,4.880000114440918,5.079999923706055,4.829999923706055,4.880000114440918,4.880000114440918,146000
2019-11-11,4.860000133514404,4.920000076293945,4.619999885559082,4.730000019073486,4.730000019073486,144400
2019-11-12,4.760000228881836,4.989999771118164,4.71999979019165,4.849999904632568,4.849999904632568,179000
2019-11-13,4.820000171661377,4.829999923706055,4.360000133514404,4.420000076293945,4.420000076293945,80200
2019-11-14,4.420000076293945,4.630000114440918,4.420000076293945,4.590000152587891,4.590000152587891,140400
2019-11-15,4.630000114440918,4.679999828338623,4.389999866485596,4.510000228881836,4.510000228881836,137600
2019-11-18,4.579999923706055,4.579999923706055,4.0,4.159999847412109,4.159999847412109,141800
2019-11-19,4.119999885559082,4.349999904632568,4.019999980926514,4.119999885559082,4.119999885559082,136700
2019-11-20,4.239999771118164,4.449999809265137,4.105000019073486,4.175000190734863,4.175000190734863,195300
2019-11-21,4.170000076293945,4.324999809265137,4.070000171661377,4.230000019073486,4.230000019073486,142000
2019-11-22,4.179999828338623,4.320000171661377,4.150000095367432,4.21999979019165,4.21999979019165,147700
2019-11-25,4.269999980926514,4.329999923706055,4.150000095367432,4.21999979019165,4.21999979019165,116900
2019-11-26,4.230000019073486,4.300000190734863,4.0,4.03000020980835,4.03000020980835,195000
2019-11-27,4.090000152587891,4.400000095367432,3.9600000381469727,4.269999980926514,4.269999980926514,729600
2019-11-29,4.320000171661377,4.409999847412109,4.289999961853027,4.320000171661377,4.320000171661377,167600
2019-12-02,4.28000020980835,4.329999923706055,4.244999885559082,4.28000020980835,4.28000020980835,177100
2019-12-03,4.295000076293945,4.760000228881836,4.28000020980835,4.539999961853027,4.539999961853027,356800
2019-12-04,4.570000171661377,4.570000171661377,4.340000152587891,4.5,4.5,154700
2019-12-05,4.5,4.889999866485596,4.360000133514404,4.539999961853027,4.539999961853027,209500
2019-12-06,4.670000076293945,4.671000003814697,4.46999979019165,4.590000152587891,4.590000152587891,193800
2019-12-09,4.630000114440918,4.650000095367432,4.460000038146973,4.619999885559082,4.619999885559082,93000
2019-12-10,4.550000190734863,4.625,4.385000228881836,4.519999980926514,4.519999980926514,196600
2019-12-11,4.489999771118164,4.53000020980835,4.380000114440918,4.489999771118164,4.489999771118164,114200
2019-12-12,4.449999809265137,4.590000152587891,4.349999904632568,4.46999979019165,4.46999979019165,136900
2019-12-13,4.5,4.559999942779541,4.119999885559082,4.289999961853027,4.289999961853027,291400
2019-12-16,4.340000152587891,4.550000190734863,4.289999961853027,4.400000095367432,4.400000095367432,157100
2019-12-17,4.409999847412109,4.53000020980835,4.309999942779541,4.440000057220459,4.440000057220459,137300
2019-12-18,4.400000095367432,4.579999923706055,4.389999866485596,4.5,4.5,149900
2019-12-19,4.579999923706055,4.710000038146973,4.409999847412109,4.5,4.5,319900
2019-12-20,4.5,4.53000020980835,4.389999866485596,4.489999771118164,4.489999771118164,398500
2019-12-23,4.460000038146973,4.539999961853027,4.429999828338623,4.489999771118164,4.489999771118164,210100
2019-12-24,4.519999980926514,4.559999942779541,4.429999828338623,4.5,4.5,83400
2019-12-26,4.5,4.520999908447266,4.289999961853027,4.440000057220459,4.440000057220459,180900
2019-12-27,4.420000076293945,4.5,4.28000020980835,4.5,4.5,107200
2019-12-30,4.489999771118164,4.510000228881836,4.349999904632568,4.480000019073486,4.480000019073486,124700
2019-12-31,4.440000057220459,4.599999904632568,4.400000095367432,4.489999771118164,4.489999771118164,198400
2020-01-02,4.519999980926514,4.656000137329102,4.440000057220459,4.489999771118164,4.489999771118164,89100
2020-01-03,4.420000076293945,4.510000228881836,4.320000171661377,4.5,4.5,67300
2020-01-06,4.489999771118164,4.570000171661377,4.329999923706055,4.420000076293945,4.420000076293945,110300
2020-01-07,4.420000076293945,4.465000152587891,4.28000020980835,4.320000171661377,4.320000171661377,133700
2020-01-08,4.349999904632568,4.375,4.300000190734863,4.300000190734863,4.300000190734863,56400
2020-01-09,4.260000228881836,4.400000095367432,4.199999809265137,4.210000038146973,4.210000038146973,128900
2020-01-10,4.230000019073486,4.300000190734863,4.150000095367432,4.260000228881836,4.260000228881836,75200
2020-01-13,4.289999961853027,4.320000171661377,4.199999809265137,4.21999979019165,4.21999979019165,49100
2020-01-14,4.21999979019165,4.289999961853027,4.019999980926514,4.159999847412109,4.159999847412109,78000
2020-01-15,4.110000133514404,4.21999979019165,4.079999923706055,4.159999847412109,4.159999847412109,91800
2020-01-16,4.190000057220459,4.420000076293945,4.130000114440918,4.349999904632568,4.349999904632568,171900
2020-01-17,4.349999904632568,4.409999847412109,4.25,4.389999866485596,4.389999866485596,164200
2020-01-21,4.550000190734863,4.550000190734863,4.316999912261963,4.349999904632568,4.349999904632568,147800
2020-01-22,4.360000133514404,4.389999866485596,4.199999809265137,4.320000171661377,4.320000171661377,137800
2020-01-23,4.28000020980835,4.340000152587891,4.179999828338623,4.269999980926514,4.269999980926514,78000
2020-01-24,4.28000020980835,4.320000171661377,4.150000095367432,4.190000057220459,4.190000057220459,83100
2020-01-27,4.139999866485596,4.139999866485596,3.940000057220459,3.9700000286102295,3.9700000286102295,102900
2020-01-28,3.990000009536743,3.990000009536743,3.6600000858306885,3.809999942779541,3.809999942779541,626800
2020-01-29,3.809999942779541,4.050000190734863,3.809999942779541,3.9100000858306885,3.9100000858306885,96500
2020-01-30,3.890000104904175,3.930000066757202,3.5999999046325684,3.880000114440918,3.880000114440918,76200
2020-01-31,3.869999885559082,3.9100000858306885,3.569999933242798,3.630000114440918,3.630000114440918,50700
2020-02-03,3.630000114440918,3.799999952316284,3.5799999237060547,3.7300000190734863,3.7300000190734863,66300
2020-02-04,3.7899999618530273,3.7899999618530273,3.5399999618530273,3.619999885559082,3.619999885559082,66800
2020-02-05,3.640000104904175,3.740000009536743,3.569999933242798,3.680000066757202,3.680000066757202,88800
2020-02-06,4.170000076293945,4.170000076293945,3.4600000381469727,3.509999990463257,3.509999990463257,184000
2020-02-07,3.509999990463257,3.5899999141693115,3.0799999237060547,3.319999933242798,3.319999933242798,347500
2020-02-10,3.259999990463257,3.4100000858306885,3.25,3.2799999713897705,3.2799999713897705,62400
2020-02-11,3.3299999237060547,3.4700000286102295,3.25,3.4200000762939453,3.4200000762939453,131100
2020-02-12,3.4600000381469727,3.549999952316284,3.190000057220459,3.2300000190734863,3.2300000190734863,133800
2020-02-13,3.2100000381469727,3.2699999809265137,3.0999999046325684,3.25,3.25,74200
2020-02-14,3.25,3.450000047683716,3.2300000190734863,3.4000000953674316,3.4000000953674316,83600
2020-02-18,3.450000047683716,3.4790000915527344,3.1700000762939453,3.2699999809265137,3.2699999809265137,136400
2020-02-19,3.2699999809265137,3.390000104904175,3.200000047683716,3.309999942779541,3.309999942779541,144800
2020-02-20,3.309999942779541,3.309999942779541,3.1500000953674316,3.25,3.25,63600
2020-02-21,3.2699999809265137,3.2799999713897705,3.109999895095825,3.2699999809265137,3.2699999809265137,92700
2020-02-24,3.1700000762939453,3.200000047683716,3.0799999237060547,3.1700000762939453,3.1700000762939453,63700
2020-02-25,3.180000066757202,3.2060000896453857,2.990000009536743,3.0399999618530273,3.0399999618530273,164800
2020-02-26,3.059999942779541,3.1600000858306885,2.9100000858306885,2.9800000190734863,2.9800000190734863,90800
2020-02-27,2.9200000762939453,3.0199999809265137,2.8299999237060547,2.950000047683716,2.950000047683716,162400
2020-02-28,2.859999895095825,2.940000057220459,2.7799999713897705,2.8949999809265137,2.8949999809265137,163600
2020-03-02,2.9200000762939453,3.0,2.8299999237060547,2.940000057220459,2.940000057220459,337100
2020-03-03,3.0,3.2100000381469727,2.390000104904175,2.4800000190734863,2.4800000190734863,595900
2020-03-04,2.549999952316284,2.819999933242798,2.549999952316284,2.680000066757202,2.680000066757202,340400
2020-03-05,2.680000066757202,2.809999942779541,2.5,2.7100000381469727,2.7100000381469727,386600
2020-03-06,3.200000047683716,3.569999933242798,2.490000009536743,2.609999895095825,2.609999895095825,3080500
2020-03-09,2.5,2.6500000953674316,1.8600000143051147,1.9700000286102295,1.9700000286102295,542800
2020-03-10,2.0999999046325684,2.2100000381469727,1.9500000476837158,2.049999952316284,2.049999952316284,432400
2020-03-11,2.0399999618530273,2.1600000858306885,1.8600000143051147,2.069999933242798,2.069999933242798,264500
2020-03-12,1.9800000190734863,2.450000047683716,1.9299999475479126,2.190000057220459,2.190000057220459,250300
2020-03-13,2.2200000286102295,2.430000066757202,1.9800000190734863,2.0799999237060547,2.0799999237060547,338500
2020-03-16,1.9600000381469727,2.0899999141693115,1.8700000047683716,1.940000057220459,1.940000057220459,135700
2020-03-17,2.0399999618530273,2.0799999237060547,1.5700000524520874,1.7599999904632568,1.7599999904632568,429400
2020-03-18,1.659999966621399,1.7899999618530273,1.25,1.3300000429153442,1.3300000429153442,487300
2020-03-19,1.3700000047683716,1.5800000429153442,1.3200000524520874,1.5,1.5,223000
2020-03-20,1.5099999904632568,1.7799999713897705,1.4199999570846558,1.4500000476837158,1.4500000476837158,207500
2020-03-23,1.4500000476837158,1.5399999618530273,1.2599999904632568,1.2799999713897705,1.2799999713897705,249400
2020-03-24,1.350000023841858,1.5499999523162842,1.309999942779541,1.4600000381469727,1.4600000381469727,1512800
2020-03-25,1.7000000476837158,1.899999976158142,1.4700000286102295,1.5099999904632568,1.5099999904632568,1126700
2020-03-26,1.5399999618530273,1.7400000095367432,1.4900000095367432,1.6399999856948853,1.6399999856948853,242600
2020-03-27,1.6100000143051147,1.7000000476837158,1.5399999618530273,1.590000033378601,1.590000033378601,170900
2020-03-30,1.6200000047683716,2.2799999713897705,1.4700000286102295,2.0399999618530273,2.0399999618530273,1654500
2020-03-31,2.0,2.1600000858306885,1.7599999904632568,1.8899999856948853,1.8899999856948853,509100
2020-04-01,1.8300000429153442,1.8700000047683716,1.6100000143051147,1.6200000047683716,1.6200000047683716,284300
2020-04-02,1.6100000143051147,1.649999976158142,1.4800000190734863,1.5399999618530273,1.5399999618530273,187200
2020-04-03,1.559999942779541,1.5800000429153442,1.3899999856948853,1.409999966621399,1.409999966621399,203900
2020-04-06,1.4800000190734863,1.6950000524520874,1.4299999475479126,1.6699999570846558,1.6699999570846558,173500
2020-04-07,1.7599999904632568,1.8300000429153442,1.6089999675750732,1.6399999856948853,1.6399999856948853,111100
2020-04-08,1.6799999475479126,1.7899999618530273,1.6100000143051147,1.7699999809265137,1.7699999809265137,168300
2020-04-09,1.8300000429153442,2.130000114440918,1.75,1.9600000381469727,1.9600000381469727,436600
2020-04-13,2.0399999618530273,2.0999999046325684,1.8200000524520874,1.9500000476837158,1.9500000476837158,142700
2020-04-14,2.0299999713897705,2.3499999046325684,1.9900000095367432,2.309999942779541,2.309999942779541,415100
2020-04-15,2.3299999237060547,2.4700000286102295,2.25,2.3499999046325684,2.3499999046325684,217000
2020-04-16,2.4100000858306885,2.4700000286102295,2.119999885559082,2.1500000953674316,2.1500000953674316,263800
2020-04-17,2.2100000381469727,2.390000104904175,2.2100000381469727,2.359999895095825,2.359999895095825,140200
2020-04-20,2.4000000953674316,2.450000047683716,2.009999990463257,2.140000104904175,2.140000104904175,173700
2020-04-21,2.0999999046325684,2.1500000953674316,2.0,2.0899999141693115,2.0899999141693115,237900
2020-04-22,2.140000104904175,2.1500000953674316,2.009999990463257,2.0899999141693115,2.0899999141693115,95100
2020-04-23,2.109999895095825,2.2699999809265137,2.069999933242798,2.1600000858306885,2.1600000858306885,216700
2020-04-24,2.1600000858306885,2.380000114440918,2.1050000190734863,2.309999942779541,2.309999942779541,71900
2020-04-27,2.3499999046325684,2.6500000953674316,2.309999942779541,2.5899999141693115,2.5899999141693115,190600
2020-04-28,2.700000047683716,2.7799999713897705,2.450000047683716,2.4800000190734863,2.4800000190734863,217700
2020-04-29,2.5399999618530273,2.6600000858306885,2.490000009536743,2.609999895095825,2.609999895095825,120700
2020-04-30,2.609999895095825,2.609999895095825,2.359999895095825,2.5,2.5,160700
2020-05-01,2.390000104904175,2.450000047683716,2.200000047683716,2.2899999618530273,2.2899999618530273,224000
2020-05-04,2.2699999809265137,2.4000000953674316,2.200000047683716,2.359999895095825,2.359999895095825,105000
2020-05-05,2.2200000286102295,2.430000066757202,2.1600000858306885,2.2699999809265137,2.2699999809265137,370000
2020-05-06,2.25,2.2899999618530273,2.180000066757202,2.2200000286102295,2.2200000286102295,113400
2020-05-07,2.25,2.2699999809265137,2.1500000953674316,2.1500000953674316,2.1500000953674316,172500
2020-05-08,2.2200000286102295,2.490000009536743,2.200000047683716,2.299999952316284,2.299999952316284,180500
2020-05-11,2.319999933242798,2.450000047683716,2.200000047683716,2.4200000762939453,2.4200000762939453,126100
2020-05-12,2.440000057220459,2.440000057220459,2.2200000286102295,2.2200000286102295,2.2200000286102295,99300
2020-05-13,2.2300000190734863,2.2899999618530273,2.009999990463257,2.109999895095825,2.109999895095825,186300
2020-05-14,2.049999952316284,2.049999952316284,1.8899999856948853,1.9800000190734863,1.9800000190734863,103100
2020-05-15,1.9700000286102295,2.1500000953674316,1.9500000476837158,2.0799999237060547,2.0799999237060547,91700
2020-05-18,2.119999885559082,2.1760001182556152,1.9900000095367432,2.0399999618530273,2.0399999618530273,130300
2020-05-19,2.0199999809265137,2.049999952316284,1.8300000429153442,1.9800000190734863,1.9800000190734863,239300
2020-05-20,2.0,2.0799999237060547,1.9800000190734863,2.0,2.0,106100
2020-05-21,1.9900000095367432,2.059999942779541,1.940000057220459,2.0,2.0,47800
2020-05-22,2.0299999713897705,2.0299999713897705,1.9199999570846558,1.9600000381469727,1.9600000381469727,91800
2020-05-26,2.0299999713897705,2.049999952316284,1.9700000286102295,2.009999990463257,2.009999990463257,67100
2020-05-27,2.0399999618530273,2.049999952316284,1.9199999570846558,2.009999990463257,2.009999990463257,71900
2020-05-28,2.0399999618530273,2.119999885559082,1.9049999713897705,1.9199999570846558,1.9199999570846558,246500
2020-05-29,1.9299999475479126,1.934999942779541,1.7999999523162842,1.8300000429153442,1.8300000429153442,157400
2020-06-01,1.850000023841858,1.9600000381469727,1.8300000429153442,1.8300000429153442,1.8300000429153442,164600
2020-06-02,1.850000023841858,1.8600000143051147,1.7799999713897705,1.7999999523162842,1.7999999523162842,155700
2020-06-03,1.809999942779541,2.109999895095825,1.809999942779541,1.8700000047683716,1.8700000047683716,513700
2020-06-04,1.8899999856948853,1.9600000381469727,1.7899999618530273,1.809999942779541,1.809999942779541,325400
2020-06-05,1.8799999952316284,2.0399999618530273,1.8700000047683716,2.0199999809265137,2.0199999809265137,364400
2020-06-08,2.059999942779541,2.3299999237060547,2.0,2.2899999618530273,2.2899999618530273,489600
2020-06-09,2.319999933242798,2.3450000286102295,2.0999999046325684,2.309999942779541,2.309999942779541,299300
2020-06-10,2.3399999141693115,2.3399999141693115,2.2100000381469727,2.2300000190734863,2.2300000190734863,210000
2020-06-11,2.200000047683716,2.200000047683716,1.899999976158142,1.9500000476837158,1.9500000476837158,343600
2020-06-12,2.049999952316284,2.059999942779541,1.840000033378601,1.8899999856948853,1.8899999856948853,203000
2020-06-15,1.9199999570846558,1.9800000190734863,1.7799999713897705,1.899999976158142,1.899999976158142,257700
2020-06-16,1.9500000476837158,1.9800000190734863,1.840000033378601,1.899999976158142,1.899999976158142,111800
2020-06-17,1.940000057220459,1.940000057220459,1.850000023841858,1.8799999952316284,1.8799999952316284,194000
2020-06-18,1.899999976158142,1.899999976158142,1.809999942779541,1.850000023841858,1.850000023841858,128500
2020-06-19,1.8700000047683716,1.8899999856948853,1.7799999713897705,1.8200000524520874,1.8200000524520874,213800
2020-06-22,1.8300000429153442,1.850000023841858,1.7000000476837158,1.7699999809265137,1.7699999809265137,267600
2020-06-23,2.130000114440918,3.059999942779541,2.0399999618530273,2.0899999141693115,2.0899999141693115,17763200
2020-06-24,2.0199999809265137,2.049999952316284,1.8300000429153442,1.9700000286102295,1.9700000286102295,1136000
2020-06-25,1.940000057220459,2.109999895095825,1.840000033378601,2.0999999046325684,2.0999999046325684,1135800
2020-06-26,2.059999942779541,2.0999999046325684,1.909999966621399,2.0999999046325684,2.0999999046325684,1811000
2020-06-29,2.0799999237060547,2.190000057220459,1.9299999475479126,2.0399999618530273,2.0399999618530273,809300
2020-06-30,2.0399999618530273,2.109999895095825,1.9299999475479126,1.9299999475479126,1.9299999475479126,633000
2020-07-01,1.9199999570846558,1.9800000190734863,1.850000023841858,1.8799999952316284,1.8799999952316284,353600
2020-07-02,1.8899999856948853,1.899999976158142,1.8200000524520874,1.8300000429153442,1.8300000429153442,268700
2020-07-06,1.850000023841858,1.9290000200271606,1.8200000524520874,1.8700000047683716,1.8700000047683716,260900
2020-07-07,1.8600000143051147,2.119999885559082,1.7999999523162842,1.8899999856948853,1.8899999856948853,1677600
2020-07-08,1.9199999570846558,1.9490000009536743,1.8600000143051147,1.8799999952316284,1.8799999952316284,491300
2020-07-09,1.899999976158142,1.909999966621399,1.809999942779541,1.8200000524520874,1.8200000524520874,514000
2020-07-10,1.7999999523162842,2.059999942779541,1.7999999523162842,1.9600000381469727,1.9600000381469727,755900
2020-07-13,1.9700000286102295,1.9800000190734863,1.8600000143051147,1.8700000047683716,1.8700000047683716,335500
2020-07-14,1.8700000047683716,2.0,1.8700000047683716,1.9800000190734863,1.9800000190734863,554400
2020-07-15,2.2100000381469727,3.640000104904175,2.190000057220459,2.75,2.75,20954800
2020-07-16,2.700000047683716,3.2200000286102295,2.4600000381469727,3.059999942779541,3.059999942779541,2339400
2020-07-17,2.9800000190734863,3.5,2.9600000381469727,3.2300000190734863,3.2300000190734863,1168900
2020-07-20,3.3299999237060547,3.3399999141693115,2.9100000858306885,3.009999990463257,3.009999990463257,564100
2020-07-21,3.0,3.140000104904175,2.9800000190734863,3.0999999046325684,3.0999999046325684,306700
2020-07-22,3.0999999046325684,3.450000047683716,3.0999999046325684,3.299999952316284,3.299999952316284,488300
2020-07-23,3.3499999046325684,3.3499999046325684,2.9600000381469727,3.0,3.0,311700
2020-07-24,2.9600000381469727,3.140000104904175,2.9100000858306885,3.009999990463257,3.009999990463257,133500
2020-07-27,3.009999990463257,3.069999933242798,2.869999885559082,3.0,3.0,208400
2020-07-28,2.9800000190734863,3.0,2.890000104904175,2.890000104904175,2.890000104904175,169500
2020-07-29,2.9700000286102295,3.0,2.7799999713897705,2.819999933242798,2.819999933242798,197700
2020-07-30,2.799999952316284,2.8299999237060547,2.619999885559082,2.630000114440918,2.630000114440918,302100
2020-07-31,2.6500000953674316,2.7100000381469727,2.609999895095825,2.6700000762939453,2.6700000762939453,152600
2020-08-03,2.700000047683716,2.819999933242798,2.680000066757202,2.7100000381469727,2.7100000381469727,360300
2020-08-04,3.25,3.2699999809265137,2.859999895095825,3.009999990463257,3.009999990463257,772100
2020-08-05,3.119999885559082,3.240000009536743,2.990000009536743,3.2300000190734863,3.2300000190734863,645100
2020-08-06,3.2200000286102295,3.700000047683716,3.1600000858306885,3.6500000953674316,3.6500000953674316,1053000
2020-08-07,3.5999999046325684,4.0,3.4200000762939453,3.5199999809265137,3.5199999809265137,940400
2020-08-10,3.5399999618530273,4.369999885559082,3.430000066757202,4.329999923706055,4.329999923706055,889400
2020-08-11,4.420000076293945,4.96999979019165,4.349999904632568,4.800000190734863,4.800000190734863,1443400
2020-08-12,4.840000152587891,5.099999904632568,4.489999771118164,4.559999942779541,4.559999942779541,663700
2020-08-13,4.429999828338623,4.5,4.25,4.380000114440918,4.380000114440918,317100
2020-08-14,4.320000171661377,4.809999942779541,4.170000076293945,4.71999979019165,4.71999979019165,392100
2020-08-17,4.75,4.949999809265137,4.619999885559082,4.889999866485596,4.889999866485596,353200
2020-08-18,4.889999866485596,4.955999851226807,4.389999866485596,4.46999979019165,4.46999979019165,249700
2020-08-19,4.460000038146973,4.71999979019165,4.449999809265137,4.650000095367432,4.650000095367432,109500
2020-08-20,4.699999809265137,4.829999923706055,4.579999923706055,4.739999771118164,4.739999771118164,259300
2020-08-21,4.679999828338623,5.349999904632568,4.679999828338623,5.28000020980835,5.28000020980835,575000
2020-08-24,5.644999980926514,5.679999828338623,5.0,5.409999847412109,5.409999847412109,595800
2020-08-25,5.389999866485596,5.440000057220459,5.050000190734863,5.329999923706055,5.329999923706055,389500
2020-08-26,5.329999923706055,5.5,5.059999942779541,5.269999980926514,5.269999980926514,237400
2020-08-27,5.210000038146973,5.465000152587891,5.110000133514404,5.340000152587891,5.340000152587891,213100
2020-08-28,5.340000152587891,5.414999961853027,5.179999828338623,5.389999866485596,5.389999866485596,141700
2020-08-31,5.389999866485596,6.340000152587891,5.389999866485596,5.869999885559082,5.869999885559082,778600
2020-09-01,5.820000171661377,5.855000019073486,4.619999885559082,4.730000019073486,4.730000019073486,856100
2020-09-02,4.769999980926514,4.789999961853027,4.349999904632568,4.539999961853027,4.539999961853027,510100
2020-09-03,4.53000020980835,4.539999961853027,4.150000095367432,4.25,4.25,386400
2020-09-04,4.199999809265137,4.260000228881836,3.9600000381469727,4.190000057220459,4.190000057220459,298300
2020-09-08,4.170000076293945,4.389999866485596,4.03000020980835,4.199999809265137,4.199999809265137,263800
2020-09-09,4.21999979019165,4.380000114440918,4.079999923706055,4.260000228881836,4.260000228881836,208700
2020-09-10,4.25,4.320000171661377,4.090000152587891,4.119999885559082,4.119999885559082,368100
2020-09-11,4.159999847412109,4.23199987411499,4.070000171661377,4.150000095367432,4.150000095367432,108700
2020-09-14,4.170000076293945,4.614999771118164,4.110000133514404,4.460000038146973,4.460000038146973,350200
2020-09-15,4.460000038146973,4.460000038146973,4.150000095367432,4.230000019073486,4.230000019073486,284300
2020-09-16,4.300000190734863,4.440000057220459,4.239999771118164,4.25,4.25,147900
2020-09-17,4.25,4.300000190734863,4.070000171661377,4.159999847412109,4.159999847412109,155800
2020-09-18,4.170000076293945,4.699999809265137,4.170000076293945,4.199999809265137,4.199999809265137,301300
2020-09-21,4.210000038146973,4.340000152587891,4.019999980926514,4.190000057220459,4.190000057220459,236800
2020-09-22,4.239999771118164,4.679999828338623,4.130000114440918,4.599999904632568,4.599999904632568,260700
2020-09-23,4.599999904632568,4.630000114440918,4.03000020980835,4.139999866485596,4.139999866485596,273200
2020-09-24,4.050000190734863,4.920000076293945,4.010000228881836,4.360000133514404,4.360000133514404,808200
2020-09-25,4.360000133514404,4.409999847412109,4.150000095367432,4.340000152587891,4.340000152587891,166000
2020-09-28,4.320000171661377,4.71999979019165,4.320000171661377,4.519999980926514,4.519999980926514,399400
2020-09-29,4.599999904632568,5.199999809265137,4.519999980926514,5.059999942779541,5.059999942779541,476600
2020-09-30,5.03000020980835,5.372000217437744,4.78000020980835,4.860000133514404,4.860000133514404,315500
2020-10-01,4.849999904632568,5.150000095367432,4.730000019073486,5.050000190734863,5.050000190734863,247800
2020-10-02,4.909999847412109,5.28000020980835,4.800000190734863,5.260000228881836,5.260000228881836,151100
2020-10-05,5.329999923706055,5.793000221252441,5.0,5.170000076293945,5.170000076293945,438300
2020-10-06,5.320000171661377,6.150000095367432,5.247000217437744,5.840000152587891,5.840000152587891,764100
2020-10-07,5.869999885559082,6.349999904632568,5.841000080108643,6.070000171661377,6.070000171661377,319300
2020-10-08,6.230000019073486,6.440000057220459,6.159999847412109,6.440000057220459,6.440000057220459,233200
2020-10-09,6.449999809265137,6.75,6.340000152587891,6.489999771118164,6.489999771118164,209900
2020-10-12,6.489999771118164,6.849999904632568,6.429999828338623,6.730000019073486,6.730000019073486,241600
2020-10-13,6.789999961853027,6.8470001220703125,6.210000038146973,6.369999885559082,6.369999885559082,185700
2020-10-14,6.28000020980835,6.590000152587891,6.199999809265137,6.449999809265137,6.449999809265137,159400
2020-10-15,6.309999942779541,6.309999942779541,5.860000133514404,6.179999828338623,6.179999828338623,162300
2020-10-16,6.179999828338623,6.46999979019165,6.050000190734863,6.25,6.25,168400
2020-10-19,6.269999980926514,6.539999961853027,5.900000095367432,6.03000020980835,6.03000020980835,182300
2020-10-20,6.050000190734863,6.300000190734863,5.849999904632568,6.130000114440918,6.130000114440918,130300
2020-10-21,6.25,6.2820000648498535,5.650000095367432,5.739999771118164,5.739999771118164,173300
2020-10-22,5.75,5.849999904632568,5.590000152587891,5.730000019073486,5.730000019073486,75000
2020-10-23,5.820000171661377,5.820000171661377,5.309999942779541,5.610000133514404,5.610000133514404,153900
2020-10-26,5.789999961853027,5.929999828338623,5.289999961853027,5.75,5.75,183900
2020-10-27,5.75,5.75,5.349999904632568,5.400000095367432,5.400000095367432,98900
2020-10-28,5.28000020980835,5.349999904632568,4.880000114440918,5.139999866485596,5.139999866485596,178300
2020-10-29,5.139999866485596,5.400000095367432,5.110000133514404,5.309999942779541,5.309999942779541,85400
2020-10-30,5.300000190734863,5.300000190734863,4.869999885559082,4.949999809265137,4.949999809265137,196600
2020-11-02,4.989999771118164,5.369999885559082,4.78000020980835,5.21999979019165,5.21999979019165,119200
2020-11-03,5.21999979019165,5.980000019073486,4.974999904632568,5.710000038146973,5.710000038146973,259600
2020-11-04,5.760000228881836,6.070000171661377,5.630000114440918,6.050000190734863,6.050000190734863,167100
2020-11-05,6.159999847412109,6.650000095367432,6.159999847412109,6.599999904632568,6.599999904632568,186200
2020-11-06,6.559999942779541,6.940000057220459,6.239999771118164,6.849999904632568,6.849999904632568,216200
2020-11-09,6.900000095367432,6.96999979019165,6.360000133514404,6.360000133514404,6.360000133514404,196000
2020-11-10,6.340000152587891,6.699999809265137,6.0,6.579999923706055,6.579999923706055,119200
2020-11-11,6.679999828338623,7.28000020980835,6.435999870300293,6.679999828338623,6.679999828338623,209800
2020-11-12,6.519999980926514,6.760000228881836,6.309999942779541,6.679999828338623,6.679999828338623,128900
2020-11-13,6.849999904632568,7.25,6.849999904632568,7.139999866485596,7.139999866485596,155700
2020-11-16,7.239999771118164,7.949999809265137,7.150000095367432,7.929999828338623,7.929999828338623,430500
2020-11-17,7.829999923706055,8.050000190734863,7.480000019073486,7.699999809265137,7.699999809265137,207500
2020-11-18,7.78000020980835,7.889999866485596,7.519999980926514,7.730000019073486,7.730000019073486,264300
2020-11-19,7.75,7.820000171661377,7.53000020980835,7.630000114440918,7.630000114440918,131100
2020-11-20,7.619999885559082,7.929999828338623,7.539999961853027,7.880000114440918,7.880000114440918,73800
2020-11-23,8.4399995803833,8.4399995803833,7.676000118255615,7.929999828338623,7.929999828338623,343500
2020-11-24,8.4399995803833,8.4399995803833,7.789999961853027,8.109999656677246,8.109999656677246,227300
2020-11-25,8.149999618530273,8.569999694824219,7.854000091552734,8.510000228881836,8.510000228881836,200700
2020-11-27,8.755000114440918,8.755000114440918,8.399999618530273,8.449999809265137,8.449999809265137,63000
2020-11-30,8.420000076293945,8.770000457763672,8.413000106811523,8.609999656677246,8.609999656677246,200500
2020-12-01,8.699999809265137,9.260000228881836,7.730000019073486,7.900000095367432,7.900000095367432,364400
2020-12-02,7.800000190734863,8.0,7.699999809265137,7.840000152587891,7.840000152587891,89200
2020-12-03,7.940000057220459,7.949999809265137,7.75,7.849999904632568,7.849999904632568,81600
2020-12-04,7.860000133514404,8.53499984741211,7.860000133514404,8.329999923706055,8.329999923706055,142200
2020-12-07,8.739999771118164,8.960000038146973,8.470000267028809,8.670000076293945,8.670000076293945,221100
2020-12-08,8.670000076293945,8.920000076293945,8.520000457763672,8.859999656677246,8.859999656677246,163200
2020-12-09,8.920000076293945,9.739999771118164,8.864999771118164,9.109999656677246,9.109999656677246,270300
2020-12-10,9.25,9.630000114440918,8.880000114440918,9.40999984741211,9.40999984741211,124400
2020-12-11,9.34000015258789,9.553999900817871,8.789999961853027,9.369999885559082,9.369999885559082,213300
2020-12-14,9.510000228881836,9.989999771118164,8.960000038146973,8.960000038146973,8.960000038146973,202700
2020-12-15,9.039999961853027,9.470000267028809,8.8100004196167,9.350000381469727,9.350000381469727,188300
2020-12-16,9.329999923706055,9.704999923706055,9.039999961853027,9.569999694824219,9.569999694824219,119600
2020-12-17,9.6899995803833,9.710000038146973,8.720000267028809,8.789999961853027,8.789999961853027,372500
2020-12-18,8.800000190734863,9.289999961853027,8.699999809265137,8.84000015258789,8.84000015258789,151500
2020-12-21,8.609999656677246,9.619999885559082,8.5,9.390000343322754,9.390000343322754,206800
2020-12-22,9.329999923706055,10.050000190734863,9.329999923706055,9.850000381469727,9.850000381469727,726800
2020-12-23,9.859999656677246,11.3100004196167,9.859999656677246,11.289999961853027,11.289999961853027,515500
2020-12-24,11.319999694824219,11.319999694824219,10.300000190734863,10.649999618530273,10.649999618530273,143300
2020-12-28,10.670000076293945,11.710000038146973,10.651000022888184,11.449999809265137,11.449999809265137,262200
2020-12-29,11.449999809265137,11.470000267028809,10.649999618530273,11.079999923706055,11.079999923706055,185400
2020-12-30,11.0,11.3149995803833,10.75,10.899999618530273,10.899999618530273,96500
