Date,Open,High,Low,Close,Adj Close,Volume
2019-03-07,24.799999237060547,30.989999771118164,24.579999923706055,29.40999984741211,29.40999984741211,3162200
2019-03-08,30.34000015258789,32.5,29.0,31.610000610351562,31.610000610351562,651400
2019-03-11,31.969999313354492,34.189998626708984,30.5,31.43000030517578,31.43000030517578,217800
2019-03-12,29.290000915527344,31.475000381469727,28.209999084472656,30.0,30.0,482100
2019-03-13,30.739999771118164,30.950000762939453,29.829999923706055,30.010000228881836,30.010000228881836,223900
2019-03-14,30.0,30.725000381469727,30.0,30.09000015258789,30.09000015258789,195100
2019-03-15,30.6200008392334,38.099998474121094,30.450000762939453,38.099998474121094,38.099998474121094,334400
2019-03-18,39.97999954223633,43.38999938964844,35.70000076293945,36.5,36.5,576800
2019-03-19,36.97999954223633,37.41600036621094,34.5099983215332,35.650001525878906,35.650001525878906,145600
2019-03-20,36.9900016784668,37.23899841308594,32.52000045776367,32.970001220703125,32.970001220703125,351400
2019-03-21,33.369998931884766,35.459999084472656,31.600000381469727,33.91999816894531,33.91999816894531,312900
2019-03-22,34.790000915527344,34.790000915527344,33.0099983215332,34.52000045776367,34.52000045776367,109400
2019-03-25,34.5099983215332,35.47999954223633,33.5,34.900001525878906,34.900001525878906,98500
2019-03-26,35.56999969482422,36.29999923706055,34.599998474121094,34.95000076293945,34.95000076293945,325700
2019-03-27,34.970001220703125,35.40999984741211,32.35499954223633,34.0,34.0,153700
2019-03-28,34.029998779296875,34.665000915527344,31.110000610351562,32.099998474121094,32.099998474121094,197100
2019-03-29,32.13999938964844,34.869998931884766,32.11000061035156,33.470001220703125,33.470001220703125,165100
2019-04-01,33.25,34.06999969482422,32.790000915527344,33.529998779296875,33.529998779296875,419400
2019-04-02,33.459999084472656,33.810001373291016,31.510000228881836,32.150001525878906,32.150001525878906,169900
2019-04-03,32.29999923706055,32.59000015258789,29.579999923706055,30.18000030517578,30.18000030517578,484400
2019-04-04,30.969999313354492,31.5,29.5,30.454999923706055,30.454999923706055,266200
2019-04-05,30.350000381469727,31.799999237060547,29.6200008392334,30.049999237060547,30.049999237060547,147100
2019-04-08,30.0,30.209999084472656,29.700000762939453,29.799999237060547,29.799999237060547,138100
2019-04-09,29.6299991607666,30.8700008392334,29.299999237060547,29.989999771118164,29.989999771118164,200300
2019-04-10,30.389999389648438,30.389999389648438,29.299999237060547,29.729999542236328,29.729999542236328,221200
2019-04-11,29.899999618530273,30.280000686645508,28.799999237060547,30.100000381469727,30.100000381469727,381900
2019-04-12,30.25,31.469999313354492,29.93000030517578,30.360000610351562,30.360000610351562,179200
2019-04-15,30.219999313354492,30.360000610351562,29.600000381469727,30.200000762939453,30.200000762939453,223600
2019-04-16,30.049999237060547,30.840999603271484,29.8700008392334,30.31999969482422,30.31999969482422,123100
2019-04-17,30.3700008392334,30.3700008392334,29.799999237060547,29.979999542236328,29.979999542236328,326200
2019-04-18,29.860000610351562,30.639999389648438,29.780000686645508,30.1200008392334,30.1200008392334,476500
2019-04-22,29.969999313354492,32.26599884033203,29.969999313354492,31.68000030517578,31.68000030517578,170800
2019-04-23,31.899999618530273,32.08599853515625,31.0,31.239999771118164,31.239999771118164,101100
2019-04-24,31.270000457763672,34.5,30.520000457763672,34.5,34.5,260900
2019-04-25,34.5,41.17399978637695,33.959999084472656,38.540000915527344,38.540000915527344,2107400
2019-04-26,40.790000915527344,42.29999923706055,39.20000076293945,41.34000015258789,41.34000015258789,1139800
2019-04-29,43.31999969482422,45.68000030517578,42.0099983215332,42.63999938964844,42.63999938964844,1049300
2019-04-30,43.4900016784668,43.4900016784668,40.130001068115234,42.61000061035156,42.61000061035156,441500
2019-05-01,42.95000076293945,43.11000061035156,38.75,39.06999969482422,39.06999969482422,485900
2019-05-02,39.08000183105469,42.5,38.84000015258789,41.13999938964844,41.13999938964844,451600
2019-05-03,41.77000045776367,43.4900016784668,40.5,43.43000030517578,43.43000030517578,438200
2019-05-06,42.9900016784668,47.79999923706055,42.06999969482422,46.400001525878906,46.400001525878906,500700
2019-05-07,46.599998474121094,48.97999954223633,45.5099983215332,46.060001373291016,46.060001373291016,587100
2019-05-08,45.810001373291016,46.0629997253418,42.06999969482422,42.849998474121094,42.849998474121094,589200
2019-05-09,45.25,53.29999923706055,44.220001220703125,48.65999984741211,48.65999984741211,961500
2019-05-10,49.63999938964844,58.0,49.0,57.68000030517578,57.68000030517578,905000
2019-05-13,56.0,57.66999816894531,52.52000045776367,57.38999938964844,57.38999938964844,729200
2019-05-14,58.279998779296875,62.67399978637695,58.279998779296875,60.58000183105469,60.58000183105469,718100
2019-05-15,60.959999084472656,66.74500274658203,59.150001525878906,64.76000213623047,64.76000213623047,750500
2019-05-16,65.93000030517578,66.76000213623047,58.01100158691406,61.25,61.25,1439700
2019-05-17,60.15999984741211,64.93000030517578,59.04999923706055,61.0,61.0,643600
2019-05-20,60.849998474121094,61.709999084472656,56.06999969482422,58.02000045776367,58.02000045776367,546900
2019-05-21,58.25,59.70000076293945,55.27000045776367,56.5,56.5,515900
2019-05-22,55.599998474121094,59.0,55.5,56.209999084472656,56.209999084472656,341600
2019-05-23,56.20000076293945,56.900001525878906,54.849998474121094,56.029998779296875,56.029998779296875,441000
2019-05-24,56.27000045776367,58.84000015258789,55.79999923706055,58.29999923706055,58.29999923706055,272900
2019-05-28,58.4900016784668,60.88100051879883,57.39099884033203,60.0,60.0,350100
2019-05-29,59.220001220703125,61.22999954223633,58.060001373291016,61.0099983215332,61.0099983215332,329800
2019-05-30,61.75,62.89799880981445,61.06999969482422,61.310001373291016,61.310001373291016,250500
2019-05-31,60.369998931884766,61.0,58.599998474121094,59.790000915527344,59.790000915527344,178500
2019-06-03,59.790000915527344,60.27799987792969,56.27000045776367,58.2599983215332,58.2599983215332,362600
2019-06-04,58.2599983215332,59.70500183105469,57.36000061035156,59.70000076293945,59.70000076293945,203800
2019-06-05,59.97999954223633,60.47999954223633,57.72999954223633,58.63999938964844,58.63999938964844,233200
2019-06-06,58.630001068115234,60.0,57.5099983215332,58.61000061035156,58.61000061035156,236600
2019-06-07,59.0,65.5,58.91699981689453,62.90999984741211,62.90999984741211,751800
2019-06-10,63.81999969482422,68.38999938964844,63.37799835205078,66.0199966430664,66.0199966430664,893700
2019-06-11,66.93000030517578,68.0,55.02000045776367,60.029998779296875,60.029998779296875,1150800
2019-06-12,59.900001525878906,63.09000015258789,59.900001525878906,60.47999954223633,60.47999954223633,295200
2019-06-13,60.4900016784668,62.27000045776367,58.0099983215332,59.220001220703125,59.220001220703125,313400
2019-06-14,59.220001220703125,59.91999816894531,57.2599983215332,58.20000076293945,58.20000076293945,215900
2019-06-17,57.540000915527344,59.45000076293945,55.95000076293945,57.209999084472656,57.209999084472656,398800
2019-06-18,57.88999938964844,58.54999923706055,56.77000045776367,58.13999938964844,58.13999938964844,382400
2019-06-19,58.099998474121094,62.41400146484375,57.5,59.13999938964844,59.13999938964844,436400
2019-06-20,59.599998474121094,61.08000183105469,58.72999954223633,59.900001525878906,59.900001525878906,317000
2019-06-21,59.630001068115234,60.11000061035156,57.56999969482422,57.63999938964844,57.63999938964844,508000
2019-06-24,57.5,58.939998626708984,56.75,57.41999816894531,57.41999816894531,337800
2019-06-25,57.0,57.689998626708984,53.0,54.560001373291016,54.560001373291016,508700
2019-06-26,56.290000915527344,56.290000915527344,53.18000030517578,54.20000076293945,54.20000076293945,212400
2019-06-27,54.06999969482422,55.47999954223633,53.22999954223633,55.0099983215332,55.0099983215332,265000
2019-06-28,54.95000076293945,58.290000915527344,54.95000076293945,57.09000015258789,57.09000015258789,1200400
2019-07-01,58.0099983215332,59.720001220703125,53.58000183105469,55.22999954223633,55.22999954223633,489400
2019-07-02,55.06999969482422,56.0,53.560001373291016,54.209999084472656,54.209999084472656,298400
2019-07-03,54.880001068115234,54.880001068115234,52.150001525878906,53.689998626708984,53.689998626708984,232800
2019-07-05,53.52000045776367,54.20600128173828,53.040000915527344,54.0,54.0,206300
2019-07-08,53.95000076293945,53.95000076293945,48.599998474121094,49.84000015258789,49.84000015258789,798400
2019-07-09,49.25,51.45000076293945,48.880001068115234,51.099998474121094,51.099998474121094,401900
2019-07-10,51.0,52.45000076293945,50.31999969482422,51.189998626708984,51.189998626708984,291700
2019-07-11,51.08000183105469,51.84000015258789,49.9900016784668,50.79999923706055,50.79999923706055,264100
2019-07-12,50.810001373291016,50.849998474121094,49.38999938964844,50.83000183105469,50.83000183105469,222900
2019-07-15,50.709999084472656,51.11000061035156,49.06999969482422,50.380001068115234,50.380001068115234,205000
2019-07-16,50.02000045776367,50.97999954223633,49.790000915527344,50.220001220703125,50.220001220703125,160400
2019-07-17,50.04999923706055,50.4900016784668,49.65999984741211,49.810001373291016,49.810001373291016,133100
2019-07-18,49.5,51.779998779296875,49.29800033569336,50.970001220703125,50.970001220703125,177100
2019-07-19,51.02000045776367,54.5099983215332,50.0,50.279998779296875,50.279998779296875,330600
2019-07-22,50.0099983215332,52.16999816894531,49.900001525878906,50.099998474121094,50.099998474121094,199400
2019-07-23,50.459999084472656,51.84700012207031,49.159000396728516,51.79999923706055,51.79999923706055,221100
2019-07-24,52.0,52.0,50.0,50.75,50.75,241100
2019-07-25,50.75,50.790000915527344,49.279998779296875,49.4900016784668,49.4900016784668,158100
2019-07-26,49.849998474121094,50.720001220703125,49.29999923706055,50.15999984741211,50.15999984741211,197300
2019-07-29,50.310001373291016,50.900001525878906,47.72999954223633,48.459999084472656,48.459999084472656,225500
2019-07-30,47.97999954223633,49.724998474121094,46.83000183105469,49.22999954223633,49.22999954223633,191200
2019-07-31,49.099998474121094,49.505001068115234,47.40999984741211,48.91999816894531,48.91999816894531,306200
2019-08-01,48.75,49.310001373291016,46.06999969482422,46.70000076293945,46.70000076293945,297000
2019-08-02,46.040000915527344,46.900001525878906,44.76300048828125,46.34000015258789,46.34000015258789,296000
2019-08-05,45.619998931884766,46.939998626708984,43.869998931884766,46.16999816894531,46.16999816894531,481700
2019-08-06,50.5,50.75,41.65999984741211,42.220001220703125,42.220001220703125,787100
2019-08-07,41.58000183105469,42.709999084472656,40.2599983215332,42.13999938964844,42.13999938964844,321600
2019-08-08,42.375,45.310001373291016,41.220001220703125,44.209999084472656,44.209999084472656,281700
2019-08-09,44.27000045776367,44.69900131225586,42.130001068115234,43.189998626708984,43.189998626708984,185300
2019-08-12,43.400001525878906,44.67100143432617,40.540000915527344,41.040000915527344,41.040000915527344,173000
2019-08-13,41.040000915527344,43.349998474121094,40.87900161743164,43.209999084472656,43.209999084472656,201100
2019-08-14,42.529998779296875,42.750999450683594,41.27000045776367,42.0,42.0,308500
2019-08-15,42.0099983215332,43.08000183105469,41.5,42.720001220703125,42.720001220703125,216500
2019-08-16,43.08000183105469,43.540000915527344,42.220001220703125,42.56999969482422,42.56999969482422,182900
2019-08-19,42.9900016784668,43.68000030517578,40.849998474121094,41.04999923706055,41.04999923706055,198200
2019-08-20,41.02000045776367,41.47999954223633,39.220001220703125,40.70000076293945,40.70000076293945,162300
2019-08-21,40.84000015258789,42.4900016784668,40.84000015258789,41.63999938964844,41.63999938964844,146700
2019-08-22,41.81999969482422,42.0,39.540000915527344,40.380001068115234,40.380001068115234,154000
2019-08-23,40.15999984741211,40.93299865722656,39.099998474121094,39.599998474121094,39.599998474121094,212800
2019-08-26,39.970001220703125,40.59000015258789,39.4900016784668,39.91999816894531,39.91999816894531,186300
2019-08-27,39.689998626708984,40.553001403808594,38.31999969482422,39.11000061035156,39.11000061035156,274500
2019-08-28,38.7400016784668,40.86000061035156,38.349998474121094,40.68000030517578,40.68000030517578,371200
2019-08-29,41.0,44.36000061035156,40.54999923706055,42.11000061035156,42.11000061035156,318000
2019-08-30,42.619998931884766,42.979000091552734,41.040000915527344,41.849998474121094,41.849998474121094,150100
2019-09-03,38.380001068115234,40.2400016784668,36.31999969482422,36.91999816894531,36.91999816894531,3749100
2019-09-04,37.810001373291016,38.0,36.56999969482422,36.58000183105469,36.58000183105469,777900
2019-09-05,36.400001525878906,36.959999084472656,34.5,36.400001525878906,36.400001525878906,1456800
2019-09-06,36.83000183105469,36.95000076293945,34.5099983215332,35.95000076293945,35.95000076293945,653100
2019-09-09,36.0,36.32500076293945,33.54999923706055,34.709999084472656,34.709999084472656,965000
2019-09-10,34.369998931884766,35.029998779296875,33.65999984741211,34.5099983215332,34.5099983215332,746400
2019-09-11,34.369998931884766,34.81999969482422,33.56999969482422,34.20000076293945,34.20000076293945,409200
2019-09-12,34.31999969482422,34.37699890136719,30.704999923706055,31.540000915527344,31.540000915527344,774800
2019-09-13,31.649999618530273,32.43000030517578,29.0,30.670000076293945,30.670000076293945,1002000
2019-09-16,30.799999237060547,32.900001525878906,30.43000030517578,32.849998474121094,32.849998474121094,497500
2019-09-17,32.779998779296875,34.47999954223633,32.20000076293945,33.09000015258789,33.09000015258789,563000
2019-09-18,33.13999938964844,33.430999755859375,31.670000076293945,33.0,33.0,374900
2019-09-19,33.02000045776367,33.9900016784668,32.310001373291016,33.119998931884766,33.119998931884766,405500
2019-09-20,33.13999938964844,33.86000061035156,32.43000030517578,33.29999923706055,33.29999923706055,302700
2019-09-23,33.15999984741211,33.595001220703125,32.79999923706055,33.43000030517578,33.43000030517578,157800
2019-09-24,33.7400016784668,33.95199966430664,32.22800064086914,33.22999954223633,33.22999954223633,436900
2019-09-25,33.099998474121094,33.71900177001953,31.8799991607666,32.119998931884766,32.119998931884766,216500
2019-09-26,32.54999923706055,32.88600158691406,31.6299991607666,31.790000915527344,31.790000915527344,230100
2019-09-27,31.790000915527344,32.099998474121094,28.93000030517578,29.709999084472656,29.709999084472656,751000
2019-09-30,29.780000686645508,30.540000915527344,29.270000457763672,29.93000030517578,29.93000030517578,582500
2019-10-01,30.450000762939453,31.399999618530273,29.93000030517578,29.989999771118164,29.989999771118164,261600
2019-10-02,30.149999618530273,30.5,29.469999313354492,30.09000015258789,30.09000015258789,453000
2019-10-03,30.229999542236328,30.540000915527344,28.309999465942383,30.0,30.0,483900
2019-10-04,30.100000381469727,32.400001525878906,30.100000381469727,32.220001220703125,32.220001220703125,464900
2019-10-07,32.09000015258789,32.60900115966797,30.780000686645508,31.799999237060547,31.799999237060547,370700
2019-10-08,31.110000610351562,31.989999771118164,29.920000076293945,30.010000228881836,30.010000228881836,276700
2019-10-09,30.010000228881836,30.350000381469727,29.34000015258789,30.149999618530273,30.149999618530273,256700
2019-10-10,29.799999237060547,30.21500015258789,29.260000228881836,29.399999618530273,29.399999618530273,239100
2019-10-11,29.75,30.979999542236328,29.389999389648438,30.649999618530273,30.649999618530273,297700
2019-10-14,30.5,30.790000915527344,29.790000915527344,30.65999984741211,30.65999984741211,346500
2019-10-15,30.600000381469727,31.959999084472656,30.25,30.350000381469727,30.350000381469727,497700
2019-10-16,30.5,31.895000457763672,30.299999237060547,31.479999542236328,31.479999542236328,191700
2019-10-17,31.75,33.650001525878906,31.040000915527344,32.68000030517578,32.68000030517578,386800
2019-10-18,32.66999816894531,33.2599983215332,31.68000030517578,32.2599983215332,32.2599983215332,193800
2019-10-21,33.08000183105469,34.09000015258789,32.43000030517578,33.939998626708984,33.939998626708984,389400
2019-10-22,33.939998626708984,34.25,32.189998626708984,32.70000076293945,32.70000076293945,462800
2019-10-23,32.70000076293945,33.0,31.899999618530273,32.22999954223633,32.22999954223633,148600
2019-10-24,32.349998474121094,33.459999084472656,31.996000289916992,33.380001068115234,33.380001068115234,161500
2019-10-25,33.45000076293945,33.880001068115234,32.790000915527344,33.310001373291016,33.310001373291016,177900
2019-10-28,33.349998474121094,34.25,33.349998474121094,33.779998779296875,33.779998779296875,251500
2019-10-29,33.91999816894531,34.33000183105469,33.33000183105469,34.13999938964844,34.13999938964844,260500
2019-10-30,34.13999938964844,34.48899841308594,33.02000045776367,33.16999816894531,33.16999816894531,229200
2019-10-31,33.150001525878906,34.06999969482422,32.02000045776367,34.02000045776367,34.02000045776367,276400
2019-11-01,34.400001525878906,34.959999084472656,33.31999969482422,33.689998626708984,33.689998626708984,225500
2019-11-04,33.7400016784668,34.66999816894531,33.5,34.54999923706055,34.54999923706055,245300
2019-11-05,34.56999969482422,34.84700012207031,33.599998474121094,33.720001220703125,33.720001220703125,392500
2019-11-06,33.720001220703125,35.435001373291016,33.2599983215332,34.83000183105469,34.83000183105469,510700
2019-11-07,35.0,36.150001525878906,34.83000183105469,35.970001220703125,35.970001220703125,569900
2019-11-08,36.0,38.79999923706055,33.66999816894531,34.060001373291016,34.060001373291016,1187900
2019-11-11,33.93000030517578,36.58000183105469,33.709999084472656,36.13999938964844,36.13999938964844,321600
2019-11-12,36.27000045776367,37.46900177001953,34.757999420166016,36.779998779296875,36.779998779296875,390500
2019-11-13,35.08000183105469,35.970001220703125,33.70199966430664,35.08000183105469,35.08000183105469,533800
2019-11-14,35.099998474121094,36.5099983215332,33.599998474121094,36.439998626708984,36.439998626708984,565000
2019-11-15,38.75,40.209999084472656,37.84000015258789,38.06999969482422,38.06999969482422,2679500
2019-11-18,37.900001525878906,38.209999084472656,35.70000076293945,37.36000061035156,37.36000061035156,1173200
2019-11-19,37.560001373291016,39.08000183105469,36.900001525878906,37.40999984741211,37.40999984741211,1030800
2019-11-20,37.150001525878906,38.4900016784668,37.0,37.95000076293945,37.95000076293945,459900
2019-11-21,37.88999938964844,37.95000076293945,36.869998931884766,37.869998931884766,37.869998931884766,441700
2019-11-22,37.939998626708984,38.599998474121094,37.38999938964844,37.9900016784668,37.9900016784668,411900
2019-11-25,38.18000030517578,38.779998779296875,37.49100112915039,38.4900016784668,38.4900016784668,768600
2019-11-26,38.529998779296875,38.60499954223633,37.65999984741211,38.34000015258789,38.34000015258789,580400
2019-11-27,38.540000915527344,39.499000549316406,38.29999923706055,39.119998931884766,39.119998931884766,496200
2019-11-29,39.11000061035156,39.86000061035156,38.88999938964844,39.15999984741211,39.15999984741211,340500
2019-12-02,39.060001373291016,39.5,37.15999984741211,39.04999923706055,39.04999923706055,432400
2019-12-03,38.52000045776367,39.31999969482422,37.900001525878906,38.9900016784668,38.9900016784668,429100
2019-12-04,39.029998779296875,39.88999938964844,38.7400016784668,39.720001220703125,39.720001220703125,369300
2019-12-05,39.70000076293945,40.09400177001953,38.619998931884766,39.58000183105469,39.58000183105469,556200
2019-12-06,39.5,40.38999938964844,39.5,40.0,40.0,571000
2019-12-09,40.0,41.040000915527344,39.66999816894531,40.470001220703125,40.470001220703125,592800
2019-12-10,40.470001220703125,41.290000915527344,39.29999923706055,40.41999816894531,40.41999816894531,413400
2019-12-11,40.72999954223633,41.9630012512207,40.41999816894531,41.810001373291016,41.810001373291016,525000
2019-12-12,42.959999084472656,44.630001068115234,42.08000183105469,43.9900016784668,43.9900016784668,819600
2019-12-13,44.16999816894531,44.70000076293945,43.619998931884766,44.459999084472656,44.459999084472656,583900
2019-12-16,44.70000076293945,45.540000915527344,44.36399841308594,44.88999938964844,44.88999938964844,694000
2019-12-17,44.95000076293945,45.470001220703125,44.5,44.869998931884766,44.869998931884766,567200
2019-12-18,44.86000061035156,45.540000915527344,44.439998626708984,44.650001525878906,44.650001525878906,448400
2019-12-19,44.540000915527344,45.290000915527344,44.13999938964844,44.77000045776367,44.77000045776367,495500
2019-12-20,45.0,45.349998474121094,44.494998931884766,44.97999954223633,44.97999954223633,3409500
2019-12-23,45.0,45.56999969482422,44.119998931884766,44.529998779296875,44.529998779296875,526500
2019-12-24,44.5,44.5,43.52299880981445,44.45000076293945,44.45000076293945,194400
2019-12-26,44.400001525878906,44.5,43.619998931884766,44.40999984741211,44.40999984741211,322200
2019-12-27,44.29999923706055,44.380001068115234,43.790000915527344,44.130001068115234,44.130001068115234,373800
2019-12-30,44.0,44.369998931884766,43.7599983215332,44.20000076293945,44.20000076293945,322300
2019-12-31,44.08000183105469,44.33000183105469,43.279998779296875,43.91999816894531,43.91999816894531,465100
2020-01-02,44.41999816894531,44.41999816894531,43.56999969482422,44.22999954223633,44.22999954223633,511200
2020-01-03,43.630001068115234,44.0,41.9010009765625,42.15999984741211,42.15999984741211,525000
2020-01-06,42.20000076293945,43.720001220703125,41.709999084472656,43.5,43.5,551800
2020-01-07,43.52000045776367,44.099998474121094,42.66999816894531,43.79999923706055,43.79999923706055,457000
2020-01-08,43.66999816894531,44.439998626708984,43.08000183105469,44.130001068115234,44.130001068115234,470200
2020-01-09,44.29999923706055,44.95000076293945,43.79999923706055,44.279998779296875,44.279998779296875,307500
2020-01-10,44.43000030517578,45.34000015258789,44.04999923706055,44.7599983215332,44.7599983215332,423700
2020-01-13,44.59000015258789,44.79999923706055,43.70000076293945,44.43000030517578,44.43000030517578,316100
2020-01-14,44.130001068115234,44.13999938964844,42.3849983215332,43.22999954223633,43.22999954223633,317900
2020-01-15,43.16999816894531,43.40999984741211,42.5,43.38999938964844,43.38999938964844,274300
2020-01-16,43.52000045776367,44.65999984741211,43.400001525878906,44.040000915527344,44.040000915527344,248400
2020-01-17,44.04999923706055,45.060001373291016,43.95000076293945,44.5,44.5,511800
2020-01-21,44.88999938964844,45.0359992980957,42.189998626708984,43.959999084472656,43.959999084472656,902300
2020-01-22,44.08000183105469,44.85499954223633,43.310001373291016,43.619998931884766,43.619998931884766,323100
2020-01-23,43.619998931884766,44.040000915527344,43.130001068115234,43.77000045776367,43.77000045776367,161300
2020-01-24,43.97999954223633,44.349998474121094,42.79999923706055,43.5,43.5,180100
2020-01-27,42.25,43.540000915527344,41.7599983215332,42.77000045776367,42.77000045776367,186100
2020-01-28,42.88999938964844,44.44900131225586,42.88999938964844,43.79999923706055,43.79999923706055,176600
2020-01-29,43.880001068115234,44.88999938964844,43.516998291015625,43.869998931884766,43.869998931884766,240900
2020-01-30,43.40999984741211,44.939998626708984,43.04999923706055,44.880001068115234,44.880001068115234,198300
2020-01-31,44.63999938964844,44.82500076293945,42.75,43.41999816894531,43.41999816894531,194200
2020-02-03,43.18000030517578,44.900001525878906,43.0099983215332,44.5,44.5,187400
2020-02-04,45.0,45.22999954223633,43.97999954223633,44.689998626708984,44.689998626708984,225000
2020-02-05,45.459999084472656,45.86000061035156,44.40999984741211,44.81999969482422,44.81999969482422,208200
2020-02-06,45.0,45.15999984741211,44.0099983215332,44.97999954223633,44.97999954223633,288700
2020-02-07,45.02000045776367,45.150001525878906,44.3849983215332,44.970001220703125,44.970001220703125,147900
2020-02-10,44.9900016784668,45.47999954223633,44.349998474121094,45.040000915527344,45.040000915527344,446100
2020-02-11,45.25,46.92499923706055,44.900001525878906,46.15999984741211,46.15999984741211,661200
2020-02-12,46.400001525878906,46.900001525878906,45.25,46.0099983215332,46.0099983215332,317200
2020-02-13,46.0,48.7400016784668,45.5099983215332,47.7400016784668,47.7400016784668,424800
2020-02-14,46.5,46.83000183105469,42.939998626708984,44.349998474121094,44.349998474121094,1393600
2020-02-18,44.349998474121094,44.71500015258789,42.310001373291016,42.5099983215332,42.5099983215332,845700
2020-02-19,42.0099983215332,43.52000045776367,40.75,42.790000915527344,42.790000915527344,1326800
2020-02-20,42.41999816894531,42.790000915527344,39.81999969482422,40.83000183105469,40.83000183105469,763300
2020-02-21,42.279998779296875,45.323001861572266,41.560001373291016,44.81999969482422,44.81999969482422,1048100
2020-02-24,43.68000030517578,44.70000076293945,42.27000045776367,44.09000015258789,44.09000015258789,429000
2020-02-25,44.529998779296875,44.654998779296875,41.56999969482422,41.61000061035156,41.61000061035156,342100
2020-02-26,41.560001373291016,43.25,40.95000076293945,41.0,41.0,252100
2020-02-27,40.0,41.72999954223633,39.58599853515625,40.27000045776367,40.27000045776367,413300
2020-02-28,39.0099983215332,40.64500045776367,38.922000885009766,40.13999938964844,40.13999938964844,456500
2020-03-02,40.52000045776367,41.04999923706055,38.68199920654297,40.209999084472656,40.209999084472656,562500
2020-03-03,40.529998779296875,41.33000183105469,38.86000061035156,39.650001525878906,39.650001525878906,493400
2020-03-04,40.61000061035156,41.099998474121094,39.779998779296875,40.93000030517578,40.93000030517578,367700
2020-03-05,40.59000015258789,40.744998931884766,38.939998626708984,39.70000076293945,39.70000076293945,329400
2020-03-06,38.52000045776367,40.16999816894531,38.13999938964844,39.4900016784668,39.4900016784668,470800
2020-03-09,37.04999923706055,38.400001525878906,36.099998474121094,37.16999816894531,37.16999816894531,652800
2020-03-10,37.75,38.150001525878906,35.06100082397461,37.369998931884766,37.369998931884766,695700
2020-03-11,36.9900016784668,37.0,33.630001068115234,34.439998626708984,34.439998626708984,915500
2020-03-12,30.239999771118164,31.889999389648438,27.8799991607666,29.0,29.0,1130500
2020-03-13,30.809999465942383,31.940000534057617,27.270000457763672,30.34000015258789,30.34000015258789,675300
2020-03-16,27.190000534057617,27.43000030517578,24.860000610351562,25.889999389648438,25.889999389648438,824500
2020-03-17,26.5,26.92300033569336,23.549999237060547,25.270000457763672,25.270000457763672,615000
2020-03-18,23.760000228881836,24.604000091552734,22.010000228881836,23.479999542236328,23.479999542236328,1099400
2020-03-19,23.600000381469727,26.579999923706055,23.290000915527344,25.649999618530273,25.649999618530273,480500
2020-03-20,26.1299991607666,26.969999313354492,23.15999984741211,23.15999984741211,23.15999984741211,1212100
2020-03-23,23.579999923706055,24.290000915527344,22.5,23.709999084472656,23.709999084472656,373300
2020-03-24,25.170000076293945,28.450000762939453,25.1200008392334,28.040000915527344,28.040000915527344,375200
2020-03-25,28.139999389648438,31.75,28.010000228881836,31.06999969482422,31.06999969482422,382900
2020-03-26,30.610000610351562,37.63999938964844,30.020000457763672,34.58000183105469,34.58000183105469,501900
2020-03-27,32.86000061035156,34.70000076293945,32.57099914550781,32.720001220703125,32.720001220703125,420700
2020-03-30,32.66999816894531,36.720001220703125,32.369998931884766,35.95000076293945,35.95000076293945,452600
2020-03-31,35.619998931884766,36.5,32.83000183105469,33.18000030517578,33.18000030517578,381400
2020-04-01,30.0,30.31999969482422,26.332000732421875,27.25,27.25,1054200
2020-04-02,27.989999771118164,30.600000381469727,27.704999923706055,29.049999237060547,29.049999237060547,502300
2020-04-03,29.0,30.0,28.510000228881836,29.489999771118164,29.489999771118164,243400
2020-04-06,30.399999618530273,32.95000076293945,30.010000228881836,32.61000061035156,32.61000061035156,425300
2020-04-07,33.20000076293945,34.43000030517578,32.61000061035156,34.0099983215332,34.0099983215332,644400
2020-04-08,34.5,36.17900085449219,33.52000045776367,34.7599983215332,34.7599983215332,566800
2020-04-09,36.04999923706055,37.5,35.27000045776367,36.93000030517578,36.93000030517578,606600
2020-04-13,36.810001373291016,36.810001373291016,34.40999984741211,36.0099983215332,36.0099983215332,403400
2020-04-14,37.0,37.709999084472656,36.33000183105469,37.40999984741211,37.40999984741211,265200
2020-04-15,36.099998474121094,37.86000061035156,35.65999984741211,37.380001068115234,37.380001068115234,342100
2020-04-16,37.5,38.599998474121094,35.81999969482422,37.31999969482422,37.31999969482422,336800
2020-04-17,38.77000045776367,38.93000030517578,36.54999923706055,38.220001220703125,38.220001220703125,457800
2020-04-20,37.189998626708984,38.38999938964844,36.349998474121094,37.13999938964844,37.13999938964844,299100
2020-04-21,35.7599983215332,36.880001068115234,34.81999969482422,35.09000015258789,35.09000015258789,330300
2020-04-22,36.11000061035156,36.84000015258789,35.099998474121094,36.20000076293945,36.20000076293945,222200
2020-04-23,36.79999923706055,37.51499938964844,36.08000183105469,37.29999923706055,37.29999923706055,287600
2020-04-24,37.88999938964844,39.79999923706055,37.41999816894531,39.47999954223633,39.47999954223633,357600
2020-04-27,40.209999084472656,41.0,38.81999969482422,39.95000076293945,39.95000076293945,512300
2020-04-28,41.0,41.0,38.029998779296875,39.13999938964844,39.13999938964844,261300
2020-04-29,40.650001525878906,41.4900016784668,39.31999969482422,40.43000030517578,40.43000030517578,313900
2020-04-30,40.06999969482422,40.70000076293945,39.279998779296875,40.119998931884766,40.119998931884766,265300
2020-05-01,39.04999923706055,39.18000030517578,37.15999984741211,38.38999938964844,38.38999938964844,238500
2020-05-04,37.93000030517578,38.939998626708984,37.25,37.9900016784668,37.9900016784668,239800
2020-05-05,38.459999084472656,39.79999923706055,37.4900016784668,38.59000015258789,38.59000015258789,567500
2020-05-06,38.86000061035156,40.0,38.02000045776367,39.04999923706055,39.04999923706055,224300
2020-05-07,39.84000015258789,40.0,38.814998626708984,39.68000030517578,39.68000030517578,163400
2020-05-08,40.380001068115234,40.970001220703125,39.744998931884766,40.81999969482422,40.81999969482422,298900
2020-05-11,40.61000061035156,41.970001220703125,40.02000045776367,41.45000076293945,41.45000076293945,280300
2020-05-12,42.0,42.29999923706055,40.165000915527344,40.790000915527344,40.790000915527344,297500
2020-05-13,40.150001525878906,41.5099983215332,37.763999938964844,39.880001068115234,39.880001068115234,816100
2020-05-14,39.52000045776367,41.560001373291016,37.85300064086914,41.099998474121094,41.099998474121094,359300
2020-05-15,40.29999923706055,42.900001525878906,39.52000045776367,42.310001373291016,42.310001373291016,453300
2020-05-18,43.29999923706055,45.0,43.29999923706055,44.119998931884766,44.119998931884766,285100
2020-05-19,43.91999816894531,44.970001220703125,43.38999938964844,43.38999938964844,43.38999938964844,254700
2020-05-20,44.34000015258789,45.150001525878906,43.52000045776367,44.40999984741211,44.40999984741211,320700
2020-05-21,44.150001525878906,44.79999923706055,43.02000045776367,43.54999923706055,43.54999923706055,228100
2020-05-22,43.2400016784668,44.720001220703125,43.03099822998047,44.45000076293945,44.45000076293945,254300
2020-05-26,45.7599983215332,45.7599983215332,43.779998779296875,44.11000061035156,44.11000061035156,373400
2020-05-27,44.5,44.5,41.86000061035156,43.75,43.75,887800
2020-05-28,44.220001220703125,44.90999984741211,43.33000183105469,43.599998474121094,43.599998474121094,220900
2020-05-29,43.59000015258789,44.810001373291016,42.650001525878906,44.0099983215332,44.0099983215332,484000
2020-06-01,43.599998474121094,45.04999923706055,43.15999984741211,44.31999969482422,44.31999969482422,210900
2020-06-02,44.369998931884766,44.75,43.279998779296875,44.54999923706055,44.54999923706055,212000
2020-06-03,44.650001525878906,45.13999938964844,44.189998626708984,44.810001373291016,44.810001373291016,210100
2020-06-04,43.90999984741211,45.150001525878906,43.619998931884766,43.93000030517578,43.93000030517578,386500
2020-06-05,45.0,45.38999938964844,44.380001068115234,45.0,45.0,341600
2020-06-08,45.099998474121094,45.47999954223633,44.7400016784668,45.0,45.0,257700
2020-06-09,48.52000045776367,48.52000045776367,45.36000061035156,46.66999816894531,46.66999816894531,667000
2020-06-10,47.20000076293945,47.459999084472656,46.34000015258789,46.900001525878906,46.900001525878906,360300
2020-06-11,47.380001068115234,47.380001068115234,43.849998474121094,43.939998626708984,43.939998626708984,412700
2020-06-12,45.41999816894531,46.75,43.23500061035156,44.540000915527344,44.540000915527344,219500
2020-06-15,43.29999923706055,46.0,43.29999923706055,45.61000061035156,45.61000061035156,233200
2020-06-16,46.869998931884766,47.0,45.08000183105469,46.099998474121094,46.099998474121094,694400
2020-06-17,46.400001525878906,48.15999984741211,45.810001373291016,47.029998779296875,47.029998779296875,1759100
2020-06-18,46.84000015258789,48.310001373291016,46.54999923706055,47.0,47.0,852100
2020-06-19,47.54999923706055,48.36000061035156,46.029998779296875,46.029998779296875,46.029998779296875,562800
2020-06-22,46.27000045776367,46.310001373291016,44.209999084472656,46.0099983215332,46.0099983215332,377900
2020-06-23,46.25,48.20000076293945,46.15999984741211,47.529998779296875,47.529998779296875,341200
2020-06-24,47.15999984741211,47.68000030517578,44.869998931884766,44.904998779296875,44.904998779296875,276700
2020-06-25,44.61000061035156,45.959999084472656,44.119998931884766,45.47999954223633,45.47999954223633,534000
2020-06-26,45.56999969482422,46.540000915527344,44.91999816894531,45.79999923706055,45.79999923706055,644400
2020-06-29,45.689998626708984,46.540000915527344,44.71500015258789,46.29999923706055,46.29999923706055,235000
2020-06-30,45.93000030517578,47.650001525878906,45.5099983215332,47.369998931884766,47.369998931884766,281300
2020-07-01,47.09000015258789,48.08000183105469,46.130001068115234,46.880001068115234,46.880001068115234,675600
2020-07-02,47.630001068115234,47.849998474121094,46.4900016784668,47.459999084472656,47.459999084472656,243300
2020-07-06,48.18000030517578,49.5,47.130001068115234,47.90999984741211,47.90999984741211,378200
2020-07-07,47.43000030517578,48.529998779296875,46.939998626708984,47.68000030517578,47.68000030517578,293800
2020-07-08,48.16999816894531,49.540000915527344,45.61000061035156,46.97999954223633,46.97999954223633,774300
2020-07-09,46.68000030517578,46.900001525878906,42.04999923706055,43.959999084472656,43.959999084472656,1115900
2020-07-10,43.56999969482422,44.36000061035156,42.369998931884766,43.209999084472656,43.209999084472656,281000
2020-07-13,43.65999984741211,44.72999954223633,42.61000061035156,42.790000915527344,42.790000915527344,364700
2020-07-14,42.59000015258789,43.18000030517578,41.77000045776367,43.15999984741211,43.15999984741211,424900
2020-07-15,44.2599983215332,45.15999984741211,43.58000183105469,44.220001220703125,44.220001220703125,395300
2020-07-16,44.0,44.0,42.83000183105469,43.65999984741211,43.65999984741211,324600
2020-07-17,43.68000030517578,44.720001220703125,43.380001068115234,44.41999816894531,44.41999816894531,250100
2020-07-20,44.59000015258789,45.70000076293945,44.34000015258789,44.849998474121094,44.849998474121094,250600
2020-07-21,45.40999984741211,46.0,44.654998779296875,45.40999984741211,45.40999984741211,400900
2020-07-22,45.5,47.0,45.2400016784668,46.380001068115234,46.380001068115234,389600
2020-07-23,46.380001068115234,47.83000183105469,45.849998474121094,46.029998779296875,46.029998779296875,197000
2020-07-24,45.52000045776367,46.880001068115234,45.290000915527344,46.47999954223633,46.47999954223633,307200
2020-07-27,46.720001220703125,48.04800033569336,46.5,48.040000915527344,48.040000915527344,296100
2020-07-28,48.02000045776367,48.334999084472656,47.61000061035156,47.9900016784668,47.9900016784668,278800
2020-07-29,48.189998626708984,49.88999938964844,46.93899917602539,49.2599983215332,49.2599983215332,347900
2020-07-30,48.56999969482422,49.89899826049805,48.46200180053711,49.349998474121094,49.349998474121094,222600
2020-07-31,49.43000030517578,49.47999954223633,48.599998474121094,49.31999969482422,49.31999969482422,315700
2020-08-03,49.599998474121094,50.165000915527344,49.29999923706055,50.0,50.0,529900
2020-08-04,49.849998474121094,50.20000076293945,49.1150016784668,50.0099983215332,50.0099983215332,512200
2020-08-05,50.189998626708984,51.43000030517578,49.88600158691406,51.36000061035156,51.36000061035156,470600
2020-08-06,51.0,51.650001525878906,50.08000183105469,51.290000915527344,51.290000915527344,343200
2020-08-07,51.22999954223633,53.33000183105469,51.04499816894531,52.84000015258789,52.84000015258789,276900
2020-08-10,52.88999938964844,53.0,51.130001068115234,51.5,51.5,288200
2020-08-11,51.209999084472656,53.310001373291016,51.209999084472656,52.25,52.25,534200
2020-08-12,52.959999084472656,55.150001525878906,52.02000045776367,52.29999923706055,52.29999923706055,676100
2020-08-13,52.4900016784668,55.095001220703125,52.30500030517578,54.529998779296875,54.529998779296875,287600
2020-08-14,54.290000915527344,54.970001220703125,54.18000030517578,54.75,54.75,238000
2020-08-17,54.869998931884766,55.369998931884766,54.529998779296875,54.959999084472656,54.959999084472656,589600
2020-08-18,55.04999923706055,55.400001525878906,54.470001220703125,55.04999923706055,55.04999923706055,346000
2020-08-19,55.16999816894531,57.4900016784668,54.887001037597656,56.91999816894531,56.91999816894531,358900
2020-08-20,56.650001525878906,60.2400016784668,56.44599914550781,59.81999969482422,59.81999969482422,436900
2020-08-21,59.88999938964844,60.20899963378906,58.90999984741211,59.060001373291016,59.060001373291016,442000
2020-08-24,58.849998474121094,60.0,58.13999938964844,60.0,60.0,350100
2020-08-25,59.2599983215332,60.459999084472656,59.2599983215332,59.97999954223633,59.97999954223633,396300
2020-08-26,59.04999923706055,60.099998474121094,59.0099983215332,59.970001220703125,59.970001220703125,291300
2020-08-27,59.65999984741211,61.13999938964844,59.65999984741211,60.59000015258789,60.59000015258789,529100
2020-08-28,60.97999954223633,62.220001220703125,60.79999923706055,61.630001068115234,61.630001068115234,263000
2020-08-31,61.9900016784668,64.00399780273438,61.150001525878906,63.540000915527344,63.540000915527344,423700
2020-09-01,63.709999084472656,65.36000061035156,62.88999938964844,65.18000030517578,65.18000030517578,401500
2020-09-02,66.0,66.97000122070312,64.79000091552734,66.02999877929688,66.02999877929688,313600
2020-09-03,65.81999969482422,66.11499786376953,62.470001220703125,63.13999938964844,63.13999938964844,727800
2020-09-04,63.790000915527344,64.5999984741211,60.040000915527344,61.540000915527344,61.540000915527344,488300
2020-09-08,59.400001525878906,63.23500061035156,59.340999603271484,62.150001525878906,62.150001525878906,468300
2020-09-09,63.130001068115234,65.88500213623047,63.125,64.69999694824219,64.69999694824219,538900
2020-09-10,65.19999694824219,67.44999694824219,65.04000091552734,65.70999908447266,65.70999908447266,727300
2020-09-11,66.30999755859375,67.87999725341797,65.48999786376953,65.91000366210938,65.91000366210938,784000
2020-09-14,67.01000213623047,69.27999877929688,66.38999938964844,68.80000305175781,68.80000305175781,872000
2020-09-15,70.0,72.3949966430664,69.2699966430664,70.6500015258789,70.6500015258789,1072700
2020-09-16,70.95999908447266,71.16500091552734,68.48999786376953,69.1500015258789,69.1500015258789,617200
2020-09-17,67.79000091552734,70.9800033569336,64.23999786376953,70.69999694824219,70.69999694824219,741200
2020-09-18,72.25,73.80999755859375,71.0999984741211,72.33999633789062,72.33999633789062,1915000
2020-09-21,70.51000213623047,71.01000213623047,67.44000244140625,69.69000244140625,69.69000244140625,508200
2020-09-22,69.26000213623047,70.6500015258789,67.66999816894531,70.25,70.25,433700
2020-09-23,70.01000213623047,71.86000061035156,68.88999938964844,69.37999725341797,69.37999725341797,442600
2020-09-24,68.81999969482422,71.55000305175781,67.93000030517578,70.29000091552734,70.29000091552734,247000
2020-09-25,70.36000061035156,72.93000030517578,69.38999938964844,71.94999694824219,71.94999694824219,368500
2020-09-28,73.04000091552734,74.07499694824219,72.12999725341797,73.6500015258789,73.6500015258789,258800
2020-09-29,74.41000366210938,75.29000091552734,73.97000122070312,74.51000213623047,74.51000213623047,367400
2020-09-30,74.16999816894531,76.94999694824219,73.41000366210938,75.80000305175781,75.80000305175781,624500
2020-10-01,76.94000244140625,77.16500091552734,74.56999969482422,74.97000122070312,74.97000122070312,319200
2020-10-02,73.31999969482422,75.7300033569336,72.12799835205078,75.05000305175781,75.05000305175781,296700
2020-10-05,75.80999755859375,77.86399841308594,75.80999755859375,76.77999877929688,76.77999877929688,418400
2020-10-06,76.20999908447266,77.51000213623047,74.6500015258789,74.87000274658203,74.87000274658203,368200
2020-10-07,75.5199966430664,76.93000030517578,75.5199966430664,76.05000305175781,76.05000305175781,297400
2020-10-08,77.0,77.80000305175781,75.55000305175781,76.55000305175781,76.55000305175781,307200
2020-10-09,78.30999755859375,79.0,77.19100189208984,78.30999755859375,78.30999755859375,419900
2020-10-12,79.0,79.0,77.30999755859375,77.66000366210938,77.66000366210938,291700
2020-10-13,77.33000183105469,78.95999908447266,76.66699981689453,77.70999908447266,77.70999908447266,372500
2020-10-14,78.31999969482422,78.80000305175781,73.18000030517578,73.70999908447266,73.70999908447266,359600
2020-10-15,72.58999633789062,75.3030014038086,70.0999984741211,74.75,74.75,713000
2020-10-16,75.05000305175781,79.24500274658203,74.0,78.22000122070312,78.22000122070312,646600
2020-10-19,78.25,79.73999786376953,76.29000091552734,77.37000274658203,77.37000274658203,339100
2020-10-20,77.4000015258789,78.44400024414062,73.63999938964844,74.05000305175781,74.05000305175781,542400
2020-10-21,73.79000091552734,74.22000122070312,71.08000183105469,71.55000305175781,71.55000305175781,326200
2020-10-22,72.0,72.927001953125,71.16000366210938,71.56999969482422,71.56999969482422,246800
2020-10-23,72.20999908447266,73.68000030517578,71.30000305175781,72.83000183105469,72.83000183105469,194100
2020-10-26,71.75,73.18499755859375,70.69999694824219,72.3499984741211,72.3499984741211,279200
2020-10-27,71.88999938964844,73.7300033569336,71.27999877929688,72.25,72.25,237700
2020-10-28,70.7300033569336,72.38999938964844,69.04000091552734,70.2300033569336,70.2300033569336,291400
2020-10-29,70.2300033569336,71.45999908447266,69.01000213623047,69.87999725341797,69.87999725341797,376900
2020-10-30,69.86000061035156,70.61000061035156,66.2249984741211,68.31999969482422,68.31999969482422,564500
2020-11-02,68.4800033569336,69.4800033569336,66.08999633789062,67.44000244140625,67.44000244140625,191100
2020-11-03,68.29000091552734,70.12000274658203,67.54000091552734,69.76000213623047,69.76000213623047,344700
2020-11-04,69.63999938964844,72.0999984741211,69.61000061035156,71.66999816894531,71.66999816894531,258900
2020-11-05,72.9000015258789,75.18000030517578,72.74500274658203,74.66000366210938,74.66000366210938,378300
2020-11-06,75.18000030517578,77.08999633789062,73.06999969482422,75.55999755859375,75.55999755859375,327000
2020-11-09,77.80999755859375,82.16999816894531,77.44000244140625,82.0,82.0,969100
2020-11-10,83.19999694824219,87.0999984741211,80.6520004272461,86.68000030517578,86.68000030517578,840400
2020-11-11,87.5,88.80999755859375,85.80000305175781,88.80000305175781,88.80000305175781,503400
2020-11-12,90.03900146484375,91.1500015258789,86.66999816894531,90.4800033569336,90.4800033569336,640400
2020-11-13,91.83999633789062,94.81999969482422,90.77999877929688,94.25,94.25,721400
2020-11-16,95.43000030517578,95.5999984741211,92.27999877929688,94.94999694824219,94.94999694824219,603000
2020-11-17,94.30999755859375,96.11000061035156,91.69499969482422,95.4800033569336,95.4800033569336,617500
2020-11-18,95.55000305175781,97.05999755859375,95.18000030517578,96.5,96.5,669300
2020-11-19,95.79000091552734,96.66000366210938,93.48999786376953,96.1500015258789,96.1500015258789,652900
2020-11-20,95.87999725341797,99.26000213623047,93.17900085449219,98.04000091552734,98.04000091552734,464900
2020-11-23,98.80999755859375,101.0,97.55500030517578,98.63999938964844,98.63999938964844,372500
2020-11-24,98.75,99.69000244140625,96.66899871826172,98.79000091552734,98.79000091552734,372500
2020-11-25,98.9800033569336,99.5999984741211,96.9000015258789,97.13999938964844,97.13999938964844,258500
2020-11-27,98.3499984741211,99.61000061035156,97.95999908447266,99.19000244140625,99.19000244140625,134400
2020-11-30,99.75,99.75,95.0199966430664,97.83000183105469,97.83000183105469,436300
2020-12-01,96.66999816894531,97.80999755859375,92.55999755859375,93.19000244140625,93.19000244140625,378700
2020-12-02,93.5999984741211,93.80999755859375,85.5199966430664,86.25,86.25,855600
2020-12-03,86.66000366210938,88.51899719238281,84.23799896240234,88.08999633789062,88.08999633789062,587800
2020-12-04,88.54000091552734,93.43000030517578,88.06999969482422,93.11000061035156,93.11000061035156,455300
2020-12-07,93.80999755859375,96.76000213623047,91.91999816894531,93.91000366210938,93.91000366210938,314500
2020-12-08,93.7699966430664,96.61000061035156,93.43499755859375,95.61000061035156,95.61000061035156,359500
2020-12-09,96.2699966430664,98.64600372314453,93.26000213623047,94.69999694824219,94.69999694824219,390100
2020-12-10,93.91999816894531,98.23699951171875,93.61000061035156,97.75,97.75,181400
2020-12-11,97.0,99.21600341796875,94.20999908447266,94.63999938964844,94.63999938964844,214100
2020-12-14,95.69999694824219,98.3499984741211,92.77999877929688,93.37999725341797,93.37999725341797,286300
2020-12-15,92.91000366210938,98.58999633789062,92.91000366210938,97.91000366210938,97.91000366210938,328700
2020-12-16,97.51000213623047,98.55000305175781,95.01000213623047,97.9800033569336,97.9800033569336,359300
2020-12-17,98.66000366210938,100.47000122070312,97.7699966430664,98.95999908447266,98.95999908447266,485800
2020-12-18,99.62000274658203,100.81999969482422,96.48999786376953,99.48999786376953,99.48999786376953,882000
2020-12-21,98.0,100.30999755859375,95.86000061035156,99.87999725341797,99.87999725341797,484500
2020-12-22,101.01000213623047,105.08999633789062,101.01000213623047,102.05000305175781,102.05000305175781,581000
2020-12-23,101.33000183105469,104.52999877929688,101.33000183105469,103.0999984741211,103.0999984741211,201600
2020-12-24,103.69999694824219,103.94999694824219,99.70999908447266,100.0,100.0,150300
2020-12-28,102.36000061035156,102.44000244140625,98.37999725341797,99.1500015258789,99.1500015258789,268600
2020-12-29,99.94999694824219,100.69999694824219,97.26000213623047,100.1500015258789,100.1500015258789,450700
2020-12-30,101.51000213623047,104.55000305175781,100.37000274658203,100.98999786376953,100.98999786376953,411100
