Date,Open,High,Low,Close,Adj Close,Volume
2017-10-06,21.700000762939453,24.899999618530273,20.350000381469727,20.84000015258789,20.1585750579834,44545500
2017-10-09,19.989999771118164,20.450000762939453,19.0,19.010000228881836,18.388410568237305,9576600
2017-10-10,19.329999923706055,20.0,19.170000076293945,19.959999084472656,19.30734634399414,3464300
2017-10-11,20.200000762939453,20.209999084472656,18.81999969482422,19.079999923706055,18.456125259399414,3351600
2017-10-12,19.049999237060547,19.709999084472656,19.030000686645508,19.709999084472656,19.065523147583008,3542400
2017-10-13,19.719999313354492,19.860000610351562,19.48200035095215,19.719999313354492,19.0751953125,1641000
2017-10-16,19.760000228881836,19.950000762939453,19.5,19.8799991607666,19.22996711730957,1159200
2017-10-17,19.950000762939453,19.950000762939453,19.510000228881836,19.649999618530273,19.00748062133789,1065800
2017-10-18,19.649999618530273,19.690000534057617,19.121000289916992,19.149999618530273,18.523834228515625,1210400
2017-10-19,19.0,19.0,18.56999969482422,18.579999923706055,17.972471237182617,1844800
2017-10-20,18.510000228881836,19.34000015258789,18.510000228881836,19.299999237060547,18.668930053710938,1718900
2017-10-23,19.31999969482422,19.440000534057617,18.649999618530273,18.739999771118164,18.127243041992188,1167400
2017-10-24,18.739999771118164,18.90999984741211,18.549999237060547,18.68000030517578,18.06920051574707,594600
2017-10-25,18.6299991607666,19.030000686645508,18.610000610351562,18.989999771118164,18.369070053100586,1010500
2017-10-26,18.920000076293945,18.999000549316406,18.56999969482422,18.6200008392334,18.011167526245117,635700
2017-10-27,18.670000076293945,19.040000915527344,18.610000610351562,18.989999771118164,18.369070053100586,567700
2017-10-30,18.8799991607666,19.5,18.799999237060547,19.350000381469727,18.71729850769043,767400
2017-10-31,19.0,19.200000762939453,18.84000015258789,19.1299991607666,18.504486083984375,1284200
2017-11-01,19.15999984741211,19.729999542236328,18.8799991607666,19.0,18.378738403320312,753300
2017-11-02,18.8799991607666,19.09000015258789,18.799999237060547,18.899999618530273,18.282012939453125,692800
2017-11-03,18.799999237060547,18.969999313354492,18.149999618530273,18.219999313354492,17.624242782592773,760400
2017-11-06,18.100000381469727,18.389999389648438,18.0,18.260000228881836,17.662933349609375,759600
2017-11-07,18.18000030517578,18.489999771118164,18.010000228881836,18.309999465942383,17.711301803588867,737400
2017-11-08,18.200000762939453,18.399999618530273,18.04400062561035,18.350000381469727,17.7499942779541,795200
2017-11-09,18.260000228881836,18.770000457763672,18.225000381469727,18.459999084472656,17.85639762878418,1366000
2017-11-10,18.3700008392334,19.200000762939453,18.260000228881836,18.950000762939453,18.330371856689453,1069300
2017-11-13,19.049999237060547,20.18000030517578,18.920000076293945,20.030000686645508,19.37506103515625,2908400
2017-11-14,18.389999389648438,19.469999313354492,18.15999984741211,18.950000762939453,18.330371856689453,3729400
2017-11-15,18.889999389648438,19.020000457763672,18.43000030517578,18.959999084472656,18.340045928955078,957100
2017-11-16,19.010000228881836,19.489999771118164,18.799999237060547,18.989999771118164,18.369070053100586,952600
2017-11-17,18.899999618530273,19.0,18.329999923706055,18.440000534057617,17.83704948425293,911600
2017-11-20,18.43000030517578,18.59000015258789,18.270000457763672,18.299999237060547,17.70163345336914,638300
2017-11-21,18.299999237060547,18.56999969482422,18.03499984741211,18.06999969482422,17.479148864746094,790800
2017-11-22,18.049999237060547,18.145000457763672,17.649999618530273,17.950000762939453,17.363069534301758,1070400
2017-11-24,17.93000030517578,18.040000915527344,17.75,17.8700008392334,17.285688400268555,194100
2017-11-27,17.860000610351562,17.959999084472656,17.299999237060547,17.6299991607666,17.05353355407715,1254900
2017-11-28,17.6299991607666,18.09000015258789,17.549999237060547,17.68000030517578,17.10190200805664,734000
2017-11-29,17.600000381469727,17.649999618530273,17.0,17.1200008392334,16.560213088989258,1467800
2017-11-30,17.1299991607666,17.479999542236328,17.049999237060547,17.139999389648438,16.579561233520508,1136700
2017-12-01,17.270000457763672,17.299999237060547,16.6299991607666,16.709999084472656,16.16361427307129,1024400
2017-12-04,16.84000015258789,16.959999084472656,16.229999542236328,16.25,15.718657493591309,989300
2017-12-05,16.299999237060547,16.469999313354492,15.770000457763672,16.299999237060547,15.767024993896484,1222600
2017-12-06,16.209999084472656,16.889999389648438,15.90999984741211,16.850000381469727,16.299039840698242,917600
2017-12-07,16.770000457763672,17.139999389648438,16.239999771118164,17.0,16.444135665893555,646200
2017-12-08,17.0,17.469999313354492,17.0,17.450000762939453,16.879423141479492,812600
2017-12-11,17.459999084472656,17.71500015258789,17.209999084472656,17.299999237060547,16.734325408935547,766700
2017-12-12,17.229999542236328,17.520000457763672,16.93000030517578,17.06999969482422,16.511844635009766,700600
2017-12-13,17.18000030517578,17.389999389648438,16.989999771118164,17.06999969482422,16.511844635009766,652300
2017-12-14,17.010000228881836,17.3799991607666,16.639999389648438,16.709999084472656,16.16361427307129,1035100
2017-12-15,16.700000762939453,17.219999313354492,16.700000762939453,17.100000381469727,16.554737091064453,3956200
2017-12-18,17.149999618530273,17.163000106811523,16.610000610351562,16.809999465942383,16.27398109436035,902400
2017-12-19,16.729999542236328,17.270000457763672,16.649999618530273,17.010000228881836,16.46760368347168,1184500
2017-12-20,16.75,17.59000015258789,16.700000762939453,17.100000381469727,16.554737091064453,1155900
2017-12-21,17.110000610351562,17.59000015258789,17.110000610351562,17.56999969482422,17.009746551513672,878600
2017-12-22,17.510000228881836,18.184999465942383,17.510000228881836,18.100000381469727,17.522850036621094,892400
2017-12-26,18.049999237060547,18.309999465942383,17.68000030517578,17.84000015258789,17.271135330200195,1336200
2017-12-27,17.850000381469727,18.43000030517578,17.700000762939453,18.010000228881836,17.435720443725586,1055000
2017-12-28,17.989999771118164,18.34000015258789,17.719999313354492,18.1200008392334,17.54220962524414,954100
2017-12-29,18.25,18.56999969482422,18.014999389648438,18.190000534057617,17.609983444213867,1942000
2018-01-02,18.25,18.319000244140625,17.149999618530273,17.15999984741211,16.612823486328125,2064300
2018-01-03,17.149999618530273,17.514999389648438,16.729999542236328,17.280000686645508,16.7289981842041,1214300
2018-01-04,17.239999771118164,17.489999771118164,17.1200008392334,17.270000457763672,16.719316482543945,460800
2018-01-05,17.229999542236328,17.59000015258789,17.170000076293945,17.56999969482422,17.009746551513672,486300
2018-01-08,17.700000762939453,18.100000381469727,17.700000762939453,17.989999771118164,17.416357040405273,515500
2018-01-09,17.950000762939453,18.079999923706055,17.690000534057617,17.760000228881836,17.193693161010742,370000
2018-01-10,17.729999542236328,17.799999237060547,17.110000610351562,17.110000610351562,16.564414978027344,642100
2018-01-11,17.170000076293945,17.309999465942383,16.899999618530273,17.260000228881836,16.70963478088379,826800
2018-01-12,17.34000015258789,17.360000610351562,17.020000457763672,17.25,16.699954986572266,370800
2018-01-16,17.209999084472656,17.530000686645508,16.950000762939453,17.399999618530273,16.845170974731445,665300
2018-01-17,17.450000762939453,17.549999237060547,17.079999923706055,17.270000457763672,16.719316482543945,513000
2018-01-18,17.299999237060547,17.389999389648438,17.0,17.020000457763672,16.477285385131836,342400
2018-01-19,16.68000030517578,16.989999771118164,16.459999084472656,16.739999771118164,16.20621681213379,1169100
2018-01-22,16.68000030517578,16.940000534057617,16.434999465942383,16.459999084472656,15.935139656066895,508100
2018-01-23,16.3799991607666,16.68000030517578,16.299999237060547,16.459999084472656,15.935139656066895,636800
2018-01-24,16.549999237060547,16.790000915527344,16.219999313354492,16.510000228881836,15.98354721069336,614700
2018-01-25,16.649999618530273,16.969999313354492,16.40999984741211,16.5,15.973868370056152,563400
2018-01-26,16.6299991607666,16.770000457763672,16.479999542236328,16.700000762939453,16.167490005493164,521000
2018-01-29,16.700000762939453,16.739999771118164,16.18000030517578,16.600000381469727,16.070676803588867,1013500
2018-01-30,16.450000762939453,16.6200008392334,16.15999984741211,16.329999923706055,15.809287071228027,641100
2018-01-31,16.309999465942383,16.426000595092773,16.030000686645508,16.219999313354492,15.702795028686523,649600
2018-02-01,16.219999313354492,16.600000381469727,16.110000610351562,16.530000686645508,16.002912521362305,595400
2018-02-02,16.5,16.59000015258789,15.600000381469727,15.899999618530273,15.393000602722168,1481000
2018-02-05,15.850000381469727,15.899999618530273,15.550000190734863,15.550000190734863,15.054159164428711,594900
2018-02-06,15.289999961853027,15.649999618530273,14.975000381469727,15.100000381469727,14.618510246276855,1318600
2018-02-07,15.199999809265137,15.34000015258789,14.890000343322754,14.949999809265137,14.473292350769043,742600
2018-02-08,15.039999961853027,15.199999809265137,14.8100004196167,14.829999923706055,14.357120513916016,660500
2018-02-09,15.0,15.0,14.0600004196167,14.770000457763672,14.299033164978027,1239500
2018-02-12,14.920000076293945,15.8100004196167,14.739999771118164,15.640000343322754,15.141290664672852,682000
2018-02-13,15.649999618530273,16.100000381469727,15.359999656677246,15.739999771118164,15.2381010055542,840400
2018-02-14,15.649999618530273,15.989999771118164,15.4399995803833,15.8100004196167,15.305871963500977,801100
2018-02-15,15.920000076293945,15.979999542236328,15.699999809265137,15.859999656677246,15.35427474975586,743100
2018-02-16,15.850000381469727,15.866000175476074,15.289999961853027,15.4399995803833,14.94766902923584,506900
2018-02-20,15.40999984741211,15.619999885559082,15.359999656677246,15.460000038146973,14.967029571533203,312500
2018-02-21,15.510000228881836,15.600000381469727,14.6899995803833,14.789999961853027,14.318395614624023,581000
2018-02-22,15.199999809265137,15.199999809265137,14.350000381469727,14.380000114440918,13.921468734741211,1099600
2018-02-23,14.569999694824219,14.9399995803833,14.1899995803833,14.699999809265137,14.231264114379883,907100
2018-02-26,14.720000267028809,15.1850004196167,14.65999984741211,14.989999771118164,14.512016296386719,911900
2018-02-27,15.0,15.130000114440918,14.539999961853027,14.539999961853027,14.076364517211914,319500
2018-02-28,14.529999732971191,14.734999656677246,13.75,13.8100004196167,13.369643211364746,985800
2018-03-01,13.800000190734863,14.229999542236328,13.539999961853027,13.979999542236328,13.534221649169922,706400
2018-03-02,13.9399995803833,14.039999961853027,13.5600004196167,13.649999618530273,13.21474552154541,467600
2018-03-05,13.539999961853027,14.725000381469727,13.34000015258789,14.489999771118164,14.027961730957031,1442000
2018-03-06,14.59000015258789,15.020000457763672,14.407999992370605,14.899999618530273,14.424887657165527,874300
2018-03-07,14.8100004196167,15.140000343322754,14.640000343322754,14.779999732971191,14.308712005615234,776800
2018-03-08,14.859999656677246,15.449999809265137,14.859999656677246,15.119999885559082,14.637873649597168,697600
2018-03-09,15.260000228881836,15.399999618530273,15.010000228881836,15.239999771118164,14.754046440124512,491900
2018-03-12,15.59000015258789,15.680000305175781,15.109999656677246,15.260000228881836,14.773408889770508,668700
2018-03-13,15.420000076293945,15.425000190734863,14.800000190734863,14.9399995803833,14.463611602783203,492000
2018-03-14,14.979999542236328,15.25,14.89900016784668,14.979999542236328,14.502333641052246,453300
2018-03-15,14.970000267028809,15.8100004196167,14.970000267028809,15.600000381469727,15.102566719055176,976600
2018-03-16,15.600000381469727,16.059999465942383,15.550000190734863,16.0,15.489811897277832,1146700
2018-03-19,15.970000267028809,16.110000610351562,15.550000190734863,15.8100004196167,15.305871963500977,775100
2018-03-20,15.869999885559082,16.229999542236328,15.614999771118164,15.6899995803833,15.189696311950684,366900
2018-03-21,15.65999984741211,16.040000915527344,15.553999900817871,15.859999656677246,15.35427474975586,449900
2018-03-22,15.729999542236328,15.970000267028809,15.640000343322754,15.760000228881836,15.257461547851562,446300
2018-03-23,15.760000228881836,15.793999671936035,15.199999809265137,15.220000267028809,14.734681129455566,499800
2018-03-26,15.479999542236328,15.649999618530273,15.069999694824219,15.600000381469727,15.102566719055176,648800
2018-03-27,15.619999885559082,16.09000015258789,15.5600004196167,15.720000267028809,15.218742370605469,757300
2018-03-28,15.770000457763672,15.819999694824219,15.430000305175781,15.449999809265137,14.95734977722168,894200
2018-03-29,15.529999732971191,16.0,15.350000381469727,15.90999984741211,15.402681350708008,824200
2018-04-02,15.960000038146973,16.229999542236328,15.609999656677246,15.850000381469727,15.344592094421387,1636600
2018-04-03,14.5,14.739999771118164,13.239999771118164,13.369999885559082,12.943674087524414,8158200
2018-04-04,13.229999542236328,14.420000076293945,13.100000381469727,14.0,13.553584098815918,2515900
2018-04-05,14.149999618530273,15.010000228881836,14.020000457763672,14.8100004196167,14.337756156921387,1369200
2018-04-06,14.670000076293945,15.25,14.539999961853027,14.640000343322754,14.173178672790527,1445900
2018-04-09,14.670000076293945,15.039999961853027,14.479999542236328,14.789999961853027,14.318395614624023,1129800
2018-04-10,15.100000381469727,15.199999809265137,14.4350004196167,14.680000305175781,14.21190071105957,739200
2018-04-11,14.6899995803833,15.039999961853027,14.59000015258789,14.699999809265137,14.231264114379883,718300
2018-04-12,14.729999542236328,14.807999610900879,14.170000076293945,14.239999771118164,13.80001163482666,743000
2018-04-13,14.239999771118164,14.329999923706055,13.949999809265137,14.279999732971191,13.838776588439941,441900
2018-04-16,14.270000457763672,14.380000114440918,14.0,14.220000267028809,13.780632972717285,530500
2018-04-17,14.270000457763672,14.75,14.260000228881836,14.6899995803833,14.23611068725586,489200
2018-04-18,14.760000228881836,14.949999809265137,14.585000038146973,14.710000038146973,14.255491256713867,460500
2018-04-19,14.720000267028809,14.949999809265137,14.479999542236328,14.65999984741211,14.207036972045898,412500
2018-04-20,14.600000381469727,14.84000015258789,14.489999771118164,14.550000190734863,14.10043716430664,308700
2018-04-23,14.579999923706055,14.739999771118164,14.270000457763672,14.40999984741211,13.964761734008789,403100
2018-04-24,14.430000305175781,14.600000381469727,14.069999694824219,14.170000076293945,13.732175827026367,386400
2018-04-25,14.149999618530273,14.350000381469727,13.914999961853027,14.239999771118164,13.80001163482666,422900
2018-04-26,14.319999694824219,14.489999771118164,14.079999923706055,14.3100004196167,13.867852210998535,395900
2018-04-27,14.390000343322754,14.5,13.994999885559082,14.039999961853027,13.606192588806152,604600
2018-04-30,14.15999984741211,14.369999885559082,14.020000457763672,14.25,13.809703826904297,469100
2018-05-01,14.25,14.319999694824219,14.029999732971191,14.229999542236328,13.790324211120605,543400
2018-05-02,14.180000305175781,14.5600004196167,14.149999618530273,14.40999984741211,13.964761734008789,848100
2018-05-03,14.350000381469727,14.510000228881836,14.279999732971191,14.489999771118164,14.042291641235352,314300
2018-05-04,14.489999771118164,15.640000343322754,14.380000114440918,15.609999656677246,15.127683639526367,1260900
2018-05-07,15.6899995803833,15.699999809265137,15.1899995803833,15.4399995803833,14.962937355041504,861100
2018-05-08,15.40999984741211,15.529999732971191,15.079999923706055,15.229999542236328,14.759425163269043,503800
2018-05-09,15.199999809265137,15.489999771118164,15.140000343322754,15.170000076293945,14.701277732849121,333300
2018-05-10,15.279999732971191,15.539999961853027,15.140000343322754,15.40999984741211,14.93386173248291,530400
2018-05-11,16.040000915527344,16.040000915527344,15.279999732971191,15.329999923706055,14.856335639953613,923300
2018-05-14,15.3100004196167,15.800000190734863,15.3100004196167,15.470000267028809,14.992009162902832,1132400
2018-05-15,14.399999618530273,14.470000267028809,13.020000457763672,13.15999984741211,12.753382682800293,6089600
2018-05-16,13.300000190734863,13.399999618530273,12.850000381469727,13.199999809265137,12.792147636413574,2752600
2018-05-17,13.229999542236328,13.369999885559082,12.920000076293945,12.989999771118164,12.58863639831543,1464000
2018-05-18,13.100000381469727,13.15999984741211,12.59000015258789,12.619999885559082,12.230069160461426,1631500
2018-05-21,12.729999542236328,12.8100004196167,12.359999656677246,12.510000228881836,12.123466491699219,1022300
2018-05-22,12.550000190734863,12.619999885559082,12.149999618530273,12.300000190734863,11.919957160949707,1253300
2018-05-23,12.170000076293945,12.3100004196167,11.979999542236328,12.079999923706055,11.706753730773926,1100200
2018-05-24,11.970000267028809,12.25,11.895000457763672,12.149999618530273,11.774590492248535,1916600
2018-05-25,12.220000267028809,12.859999656677246,12.220000267028809,12.65999984741211,12.283997535705566,1505400
2018-05-29,12.520000457763672,12.800000190734863,12.479999542236328,12.6899995803833,12.313106536865234,1099400
2018-05-30,12.75,12.800000190734863,12.5,12.569999694824219,12.196670532226562,762800
2018-05-31,12.550000190734863,12.649999618530273,12.399999618530273,12.479999542236328,12.109343528747559,1399500
2018-06-01,12.529999732971191,12.640000343322754,12.29800033569336,12.359999656677246,11.992907524108887,938900
2018-06-04,12.300000190734863,12.880000114440918,12.300000190734863,12.829999923706055,12.448948860168457,1056600
2018-06-05,12.850000381469727,13.050000190734863,12.59000015258789,12.779999732971191,12.400434494018555,1157900
2018-06-06,12.779999732971191,12.899999618530273,12.600000381469727,12.75,12.37132453918457,1255300
2018-06-07,12.859999656677246,13.15999984741211,12.789999961853027,13.079999923706055,12.691524505615234,1019500
2018-06-08,13.010000228881836,13.1899995803833,13.010000228881836,13.09000015258789,12.701228141784668,1180000
2018-06-11,13.15999984741211,13.239999771118164,12.904999732971191,12.960000038146973,12.575090408325195,377700
2018-06-12,12.960000038146973,13.050000190734863,12.890000343322754,12.979999542236328,12.594493865966797,511100
2018-06-13,13.0,13.199999809265137,12.979999542236328,13.0,12.613901138305664,408600
2018-06-14,13.109999656677246,13.239999771118164,13.0,13.0600004196167,12.672118186950684,643700
2018-06-15,13.050000190734863,13.402000427246094,12.949999809265137,13.199999809265137,12.80795955657959,1166800
2018-06-18,13.100000381469727,13.303000450134277,13.100000381469727,13.170000076293945,12.778852462768555,584500
2018-06-19,13.15999984741211,13.220000267028809,13.029999732971191,13.140000343322754,12.749740600585938,579700
2018-06-20,13.199999809265137,13.25,13.020000457763672,13.100000381469727,12.710930824279785,1031300
2018-06-21,13.100000381469727,13.220000267028809,12.869999885559082,12.899999618530273,12.51686954498291,1057800
2018-06-22,12.960000038146973,13.210000038146973,12.779999732971191,13.050000190734863,12.662415504455566,948400
2018-06-25,13.050000190734863,13.15999984741211,12.460000038146973,12.489999771118164,12.119048118591309,1152400
2018-06-26,12.520000457763672,12.579999923706055,12.229999542236328,12.350000381469727,11.983205795288086,854800
2018-06-27,12.350000381469727,12.4399995803833,12.170000076293945,12.180000305175781,11.818254470825195,675700
2018-06-28,12.34000015258789,12.489999771118164,11.850000381469727,12.180000305175781,11.818254470825195,793700
2018-06-29,12.130000114440918,12.289999961853027,12.0,12.170000076293945,11.808550834655762,451600
2018-07-02,12.079999923706055,12.390000343322754,12.029999732971191,12.359999656677246,11.992907524108887,546100
2018-07-03,12.369999885559082,12.520000457763672,12.279999732971191,12.319999694824219,11.954096794128418,207500
2018-07-05,12.390000343322754,12.484999656677246,12.289999961853027,12.380000114440918,12.01231575012207,1033400
2018-07-06,12.380000114440918,12.510000228881836,12.34000015258789,12.40999984741211,12.041423797607422,527300
2018-07-09,12.470000267028809,12.59000015258789,12.434000015258789,12.5,12.128750801086426,356100
2018-07-10,12.529999732971191,12.569999694824219,12.399999618530273,12.5,12.128750801086426,600200
2018-07-11,12.390000343322754,12.529999732971191,12.350000381469727,12.489999771118164,12.119048118591309,380900
2018-07-12,12.5,12.600000381469727,12.380000114440918,12.5600004196167,12.186968803405762,518700
2018-07-13,12.569999694824219,12.819999694824219,12.4399995803833,12.699999809265137,12.322811126708984,472300
2018-07-16,12.75,12.899999618530273,12.630000114440918,12.829999923706055,12.448948860168457,476000
2018-07-17,13.050000190734863,13.359999656677246,12.989999771118164,13.0600004196167,12.672118186950684,1157200
2018-07-18,13.079999923706055,13.25,12.920000076293945,13.15999984741211,12.769146919250488,519200
2018-07-19,13.470000267028809,13.65999984741211,13.140000343322754,13.359999656677246,12.963207244873047,2070700
2018-07-20,13.390000343322754,13.520000457763672,13.34000015258789,13.40999984741211,13.011723518371582,582600
2018-07-23,13.399999618530273,13.420000076293945,13.100000381469727,13.25,12.856473922729492,639800
2018-07-24,13.279999732971191,13.380000114440918,13.149999618530273,13.25,12.856473922729492,803300
2018-07-25,13.25,13.479999542236328,13.25,13.449999809265137,13.050535202026367,417400
2018-07-26,13.40999984741211,13.595000267028809,13.40999984741211,13.539999961853027,13.137862205505371,397400
2018-07-27,13.609999656677246,13.609999656677246,13.470000267028809,13.550000190734863,13.147563934326172,326600
2018-07-30,13.5,13.5600004196167,13.029999732971191,13.039999961853027,12.652711868286133,534800
2018-07-31,13.0,13.15999984741211,12.954999923706055,13.020000457763672,12.633306503295898,1008200
2018-08-01,13.0,13.350000381469727,12.949999809265137,13.3100004196167,12.914693832397461,407200
2018-08-02,13.229999542236328,13.34000015258789,13.100000381469727,13.300000190734863,12.904990196228027,300000
2018-08-03,13.359999656677246,13.515000343322754,13.09000015258789,13.380000114440918,12.982613563537598,731600
2018-08-06,13.369999885559082,13.529999732971191,13.239999771118164,13.369999885559082,12.972908973693848,1201800
2018-08-07,13.4399995803833,13.5600004196167,13.270000457763672,13.390000343322754,12.992318153381348,467000
2018-08-08,13.470000267028809,13.510000228881836,13.225000381469727,13.460000038146973,13.060237884521484,412600
2018-08-09,13.5,13.847000122070312,13.390000343322754,13.789999961853027,13.380436897277832,1811100
2018-08-10,13.779999732971191,14.220000267028809,13.6899995803833,14.069999694824219,13.652122497558594,1305300
2018-08-13,14.369999885559082,14.369999885559082,13.854999542236328,13.979999542236328,13.564794540405273,3322800
2018-08-14,10.5,11.149999618530273,10.0,10.850000381469727,10.527754783630371,18766500
2018-08-15,10.65999984741211,10.979999542236328,10.199999809265137,10.350000381469727,10.042607307434082,3505500
2018-08-16,10.4399995803833,10.609999656677246,10.3149995803833,10.359999656677246,10.052308082580566,2002100
2018-08-17,10.369999885559082,10.369999885559082,10.069999694824219,10.300000190734863,9.99409008026123,1194200
2018-08-20,10.25,10.59000015258789,10.210000038146973,10.470000267028809,10.159041404724121,1415600
2018-08-21,10.579999923706055,11.210000038146973,10.510000228881836,11.020000457763672,10.692706108093262,2341200
2018-08-22,11.010000228881836,11.40999984741211,10.770000457763672,11.34000015258789,11.003201484680176,1262500
2018-08-23,11.329999923706055,11.539999961853027,11.15999984741211,11.199999809265137,10.881753921508789,1026300
2018-08-24,11.210000038146973,11.609999656677246,11.199999809265137,11.460000038146973,11.134366035461426,828500
2018-08-27,11.510000228881836,11.539999961853027,11.380000114440918,11.460000038146973,11.134366035461426,602600
2018-08-28,11.479999542236328,11.579999923706055,11.399999618530273,11.539999961853027,11.212092399597168,693500
2018-08-29,11.579999923706055,11.819999694824219,11.5,11.550000190734863,11.221807479858398,633100
2018-08-30,11.520000457763672,11.5600004196167,11.3100004196167,11.460000038146973,11.134366035461426,496300
2018-08-31,11.430000305175781,11.6899995803833,11.35099983215332,11.5600004196167,11.231523513793945,742300
2018-09-04,11.550000190734863,11.597999572753906,10.954999923706055,11.170000076293945,10.852607727050781,1386900
2018-09-05,11.300000190734863,11.420000076293945,10.970000267028809,11.279999732971191,10.959481239318848,1093000
2018-09-06,11.210000038146973,11.350000381469727,11.135000228881836,11.289999961853027,10.969196319580078,1304700
2018-09-07,11.199999809265137,11.25,10.906000137329102,10.90999984741211,10.599995613098145,1013500
2018-09-10,10.9399995803833,11.170000076293945,10.840999603271484,10.899999618530273,10.590277671813965,734600
2018-09-11,10.850000381469727,11.140000343322754,10.706999778747559,11.069999694824219,10.755448341369629,829400
2018-09-12,11.109999656677246,11.1850004196167,10.90999984741211,10.930000305175781,10.619425773620605,745500
2018-09-13,11.039999961853027,11.440999984741211,11.039999961853027,11.210000038146973,10.891470909118652,674200
2018-09-14,11.380000114440918,11.460000038146973,11.0,11.109999656677246,10.794310569763184,1045500
2018-09-17,11.039999961853027,11.15999984741211,10.949999809265137,11.09000015258789,10.774880409240723,524700
2018-09-18,11.050000190734863,11.420000076293945,11.050000190734863,11.420000076293945,11.095502853393555,705100
2018-09-19,11.479999542236328,11.600000381469727,11.350000381469727,11.550000190734863,11.221807479858398,1039200
2018-09-20,11.510000228881836,11.510000228881836,11.130000114440918,11.229999542236328,10.910900115966797,1077900
2018-09-21,11.3100004196167,11.3100004196167,11.0600004196167,11.069999694824219,10.755448341369629,713900
2018-09-24,11.020000457763672,11.062000274658203,10.609999656677246,10.850000381469727,10.54170036315918,941600
2018-09-25,10.850000381469727,11.0,10.729999542236328,10.819999694824219,10.512550354003906,977200
2018-09-26,10.84000015258789,10.930000305175781,10.609999656677246,10.699999809265137,10.39596176147461,727000
2018-09-27,10.720000267028809,10.899999618530273,10.6899995803833,10.779999732971191,10.473687171936035,633500
2018-09-28,10.739999771118164,10.8149995803833,10.630000114440918,10.800000190734863,10.493120193481445,744200
2018-10-01,10.789999961853027,10.949999809265137,10.619999885559082,10.640000343322754,10.337665557861328,977800
2018-10-02,10.680000305175781,10.6899995803833,10.449999809265137,10.539999961853027,10.240506172180176,579900
2018-10-03,10.539999961853027,10.600000381469727,10.289999961853027,10.3100004196167,10.017044067382812,851400
2018-10-04,10.300000190734863,10.34000015258789,10.09000015258789,10.149999618530273,9.861589431762695,1010000
2018-10-05,10.149999618530273,10.25,10.069999694824219,10.079999923706055,9.793578147888184,855200
2018-10-08,10.050000190734863,10.130000114440918,9.899999618530273,9.949999809265137,9.667271614074707,1357600
2018-10-09,9.75,9.960000038146973,9.300000190734863,9.430000305175781,9.162046432495117,1908100
2018-10-10,9.489999771118164,9.510000228881836,8.770000457763672,8.829999923706055,8.579095840454102,1488300
2018-10-11,8.770000457763672,9.239999771118164,8.739999771118164,9.029999732971191,8.773414611816406,1657400
2018-10-12,9.170000076293945,9.239999771118164,8.449999809265137,8.550000190734863,8.307052612304688,1341400
2018-10-15,8.569999694824219,8.90999984741211,8.489999771118164,8.739999771118164,8.491653442382812,3242300
2018-10-16,8.779999732971191,9.09000015258789,8.729999542236328,8.960000038146973,8.705401420593262,616800
2018-10-17,8.9399995803833,9.130000114440918,8.829999923706055,9.079999923706055,8.821992874145508,666300
2018-10-18,9.020000457763672,9.09000015258789,8.755000114440918,8.859999656677246,8.608244895935059,608400
2018-10-19,8.890000343322754,9.170000076293945,8.819999694824219,9.029999732971191,8.773414611816406,606700
2018-10-22,9.029999732971191,9.199999809265137,8.9399995803833,9.0600004196167,8.802560806274414,533600
2018-10-23,8.850000381469727,8.979999542236328,8.579999923706055,8.84000015258789,8.588811874389648,670700
2018-10-24,8.800000190734863,9.15999984741211,8.800000190734863,8.989999771118164,8.734552383422852,810900
2018-10-25,9.449999809265137,9.470000267028809,9.010000228881836,9.109999656677246,8.851140975952148,1414700
2018-10-26,9.069999694824219,9.069999694824219,8.40999984741211,8.649999618530273,8.404211044311523,1498900
2018-10-29,8.739999771118164,9.0600004196167,8.609999656677246,8.720000267028809,8.472222328186035,1149100
2018-10-30,8.6899995803833,8.949999809265137,8.630000114440918,8.710000038146973,8.462506294250488,1367200
2018-10-31,8.770000457763672,8.930000305175781,8.720000267028809,8.869999885559082,8.617960929870605,852800
2018-11-01,8.930000305175781,9.25,8.899999618530273,9.100000381469727,8.841426849365234,1192400
2018-11-02,9.149999618530273,9.329999923706055,8.989999771118164,9.319999694824219,9.05517292022705,489700
2018-11-05,9.390000343322754,10.09000015258789,9.390000343322754,9.75,9.472954750061035,1776400
2018-11-06,9.829999923706055,10.01099967956543,9.739999771118164,9.90999984741211,9.628409385681152,831500
2018-11-07,10.0,10.069999694824219,9.859999656677246,10.0,9.715852737426758,1561000
2018-11-08,9.989999771118164,10.03499984741211,9.670000076293945,9.720000267028809,9.443808555603027,729300
2018-11-09,9.65999984741211,9.65999984741211,9.069999694824219,9.289999961853027,9.026026725769043,1035600
2018-11-12,9.199999809265137,9.510000228881836,8.989999771118164,9.34000015258789,9.074604988098145,994100
2018-11-13,9.420000076293945,9.489999771118164,9.024999618530273,9.260000228881836,8.996878623962402,1510600
2018-11-14,8.609999656677246,8.800000190734863,7.0,7.070000171661377,6.869106769561768,7224500
2018-11-15,7.429999828338623,8.09000015258789,7.340000152587891,7.869999885559082,7.6463751792907715,3368700
2018-11-16,7.920000076293945,8.859999656677246,7.889999866485596,8.729999542236328,8.481939315795898,2468200
2018-11-19,8.279999732971191,8.829999923706055,8.149999618530273,8.4399995803833,8.200178146362305,1352500
2018-11-20,8.050000190734863,8.220000267028809,7.46999979019165,7.519999980926514,7.306321144104004,1384700
2018-11-21,7.480000019073486,7.800000190734863,7.284999847412109,7.659999847412109,7.442342758178711,1539300
2018-11-23,7.670000076293945,7.980000019073486,7.670000076293945,7.840000152587891,7.632173538208008,927800
2018-11-26,7.900000095367432,8.09000015258789,7.900000095367432,8.0600004196167,7.846342086791992,951100
2018-11-27,7.989999771118164,8.09000015258789,7.630000114440918,7.699999809265137,7.495884895324707,1780300
2018-11-28,7.699999809265137,7.979000091552734,7.480000019073486,7.900000095367432,7.690582752227783,2119200
2018-11-29,7.900000095367432,8.050000190734863,7.614999771118164,7.900000095367432,7.690582752227783,1955100
2018-11-30,7.860000133514404,7.949999809265137,7.534999847412109,7.769999980926514,7.564029693603516,1537700
2018-12-03,7.849999904632568,7.920000076293945,7.53000020980835,7.789999961853027,7.583498001098633,1554800
2018-12-04,7.789999961853027,7.889999866485596,7.199999809265137,7.269999980926514,7.07728385925293,1950600
2018-12-06,7.199999809265137,7.380000114440918,7.099999904632568,7.340000152587891,7.145427703857422,1797400
2018-12-07,7.300000190734863,7.440000057220459,7.03000020980835,7.269999980926514,7.07728385925293,1460900
2018-12-10,7.170000076293945,7.25,6.889999866485596,6.980000019073486,6.794970989227295,1153900
2018-12-11,7.090000152587891,7.329999923706055,7.039999961853027,7.25,7.0578131675720215,1998800
2018-12-12,7.360000133514404,7.460000038146973,7.199999809265137,7.230000019073486,7.0383429527282715,1641100
2018-12-13,7.25,7.308000087738037,6.894999980926514,6.96999979019165,6.785235404968262,1807000
2018-12-14,6.840000152587891,7.119999885559082,6.840000152587891,6.940000057220459,6.756031036376953,1347300
2018-12-17,6.929999828338623,6.929999828338623,6.389999866485596,6.489999771118164,6.317959308624268,1813800
2018-12-18,6.510000228881836,6.800000190734863,6.46999979019165,6.5,6.327694892883301,863900
2018-12-19,6.579999923706055,6.909999847412109,6.53000020980835,6.570000171661377,6.395838260650635,1269800
2018-12-20,6.550000190734863,6.639999866485596,6.434000015258789,6.519999980926514,6.347164154052734,783800
2018-12-21,6.539999961853027,6.630000114440918,6.449999809265137,6.5,6.327694892883301,1368400
2018-12-24,6.460000038146973,6.550000190734863,6.409999847412109,6.409999847412109,6.240081310272217,589500
2018-12-26,6.449999809265137,7.0,6.449999809265137,6.980000019073486,6.794970989227295,782900
2018-12-27,6.880000114440918,6.980000019073486,6.465000152587891,6.840000152587891,6.658681869506836,869000
2018-12-28,6.849999904632568,6.980000019073486,6.710000038146973,6.840000152587891,6.658681869506836,836500
2018-12-31,6.840000152587891,7.050000190734863,6.625,7.0,6.814440727233887,1480800
2019-01-02,6.869999885559082,7.119999885559082,6.710000038146973,7.010000228881836,6.82417631149292,727100
2019-01-03,6.920000076293945,7.104000091552734,6.739999771118164,6.820000171661377,6.639212131500244,584200
2019-01-04,6.929999828338623,7.340000152587891,6.849999904632568,7.230000019073486,7.0383429527282715,1939300
2019-01-07,7.230000019073486,7.550000190734863,7.150000095367432,7.480000019073486,7.281716346740723,840400
2019-01-08,7.849999904632568,7.96999979019165,7.559999942779541,7.840000152587891,7.632173538208008,976700
2019-01-09,7.889999866485596,7.920000076293945,7.579999923706055,7.769999980926514,7.564029693603516,1277400
2019-01-10,7.710000038146973,7.78000020980835,7.541999816894531,7.659999847412109,7.456945419311523,1453400
2019-01-11,7.559999942779541,7.75,7.329999923706055,7.679999828338623,7.476414680480957,967700
2019-01-14,7.429999828338623,7.630000114440918,7.429999828338623,7.46999979019165,7.271981716156006,1150400
2019-01-15,7.5,7.679999828338623,7.489999771118164,7.630000114440918,7.42773962020874,1271100
2019-01-16,7.71999979019165,7.929999828338623,7.630000114440918,7.800000190734863,7.593233585357666,949000
2019-01-17,7.71999979019165,8.069999694824219,7.710000038146973,7.989999771118164,7.778196811676025,660200
2019-01-18,8.029999732971191,8.199000358581543,7.9019999504089355,8.119999885559082,7.904750823974609,547400
2019-01-22,8.119999885559082,8.149999618530273,7.820000171661377,7.900000095367432,7.690582752227783,1117600
2019-01-23,7.960000038146973,8.005000114440918,7.699999809265137,7.800000190734863,7.593233585357666,454800
2019-01-24,7.78000020980835,8.100000381469727,7.699999809265137,8.020000457763672,7.80740213394165,677000
2019-01-25,8.050000190734863,8.069999694824219,7.900000095367432,8.0600004196167,7.846342086791992,606100
2019-01-28,7.989999771118164,8.020000457763672,7.8420000076293945,7.949999809265137,7.739258289337158,2965000
2019-01-29,8.0,8.3100004196167,7.820000171661377,8.130000114440918,7.914487361907959,1236800
2019-01-30,8.149999618530273,8.229999542236328,7.885000228881836,8.180000305175781,7.963160514831543,881400
2019-01-31,8.15999984741211,8.489999771118164,8.130000114440918,8.34000015258789,8.11892032623291,880100
2019-02-01,8.350000381469727,8.539999961853027,8.300000190734863,8.520000457763672,8.294148445129395,1214800
2019-02-04,8.550000190734863,8.5600004196167,8.295999526977539,8.489999771118164,8.26494312286377,661800
2019-02-05,8.5,8.550000190734863,8.33899974822998,8.399999618530273,8.177330017089844,785100
2019-02-06,8.380000114440918,8.569999694824219,8.319999694824219,8.520000457763672,8.294148445129395,727200
2019-02-07,8.4399995803833,8.5,8.204999923706055,8.399999618530273,8.177330017089844,886800
2019-02-08,8.359999656677246,8.4399995803833,8.270000457763672,8.380000114440918,8.157858848571777,496100
2019-02-11,8.40999984741211,8.59000015258789,8.390000343322754,8.5,8.274677276611328,2355000
2019-02-12,8.569999694824219,8.680000305175781,8.4399995803833,8.65999984741211,8.430437088012695,1037700
2019-02-13,8.680000305175781,8.8100004196167,8.59000015258789,8.670000076293945,8.44017219543457,1350400
2019-02-14,8.65999984741211,8.729999542236328,8.520000457763672,8.600000381469727,8.372027397155762,1249700
2019-02-15,8.579999923706055,8.920000076293945,8.550000190734863,8.770000457763672,8.537521362304688,1019900
2019-02-19,8.770000457763672,8.90999984741211,8.680000305175781,8.869999885559082,8.634870529174805,667400
2019-02-20,8.859999656677246,9.170000076293945,8.859999656677246,9.010000228881836,8.771158218383789,834200
2019-02-21,9.0,9.020000457763672,8.380000114440918,8.5600004196167,8.333087921142578,1306700
2019-02-22,8.59000015258789,8.819999694824219,8.59000015258789,8.729999542236328,8.498580932617188,807100
2019-02-25,8.829999923706055,8.930000305175781,8.710000038146973,8.770000457763672,8.537521362304688,652000
2019-02-26,8.770000457763672,8.892000198364258,8.699000358581543,8.739999771118164,8.508315086364746,1388000
2019-02-27,8.6899995803833,8.9399995803833,8.5600004196167,8.899999618530273,8.664073944091797,813500
2019-02-28,8.90999984741211,8.96399974822998,8.619999885559082,8.630000114440918,8.40123176574707,649300
2019-03-01,8.710000038146973,8.8100004196167,8.579999923706055,8.680000305175781,8.449906349182129,600100
2019-03-04,8.75,8.779999732971191,8.4399995803833,8.579999923706055,8.352558135986328,740100
2019-03-05,8.5600004196167,8.819999694824219,8.539999961853027,8.670000076293945,8.44017219543457,849800
2019-03-06,8.65999984741211,8.65999984741211,8.239999771118164,8.329999923706055,8.109183311462402,1374500
2019-03-07,8.260000228881836,8.289999961853027,8.050000190734863,8.119999885559082,7.904750823974609,990500
2019-03-08,8.079999923706055,8.15999984741211,7.948999881744385,8.069999694824219,7.856076717376709,1425300
2019-03-11,8.09000015258789,8.399999618530273,8.09000015258789,8.25,8.031306266784668,1523600
2019-03-12,8.350000381469727,9.404999732971191,8.350000381469727,9.3100004196167,9.063204765319824,4120300
2019-03-13,9.539999961853027,10.069999694824219,9.260000228881836,9.949999809265137,9.686240196228027,5506400
2019-03-14,10.0,11.0,9.829999923706055,10.65999984741211,10.377419471740723,3335800
2019-03-15,10.729999542236328,11.010000228881836,10.609999656677246,10.640000343322754,10.357948303222656,1939100
2019-03-18,10.600000381469727,10.600000381469727,10.074999809265137,10.319999694824219,10.046430587768555,2448700
2019-03-19,10.380000114440918,10.449999809265137,10.154999732971191,10.359999656677246,10.085371017456055,1923200
2019-03-20,10.420000076293945,10.670000076293945,10.25,10.40999984741211,10.134047508239746,1473900
2019-03-21,10.329999923706055,10.710000038146973,10.300999641418457,10.680000305175781,10.396890640258789,1046800
2019-03-22,10.739999771118164,10.75,10.260000228881836,10.260000228881836,10.015218734741211,983900
2019-03-25,10.319999694824219,10.359999656677246,9.949999809265137,10.140000343322754,9.89808177947998,1077500
2019-03-26,10.270000457763672,10.539999961853027,10.199999809265137,10.260000228881836,10.015218734741211,953700
2019-03-27,10.270000457763672,10.420000076293945,10.0,10.220000267028809,9.976171493530273,909700
2019-03-28,10.359999656677246,10.470000267028809,10.09000015258789,10.25,10.00545597076416,840700
2019-03-29,10.3100004196167,10.40999984741211,10.210000038146973,10.3100004196167,10.064024925231934,1075100
2019-04-01,10.470000267028809,10.75,10.470000267028809,10.550000190734863,10.298298835754395,1049500
2019-04-02,10.649999618530273,10.729999542236328,10.520000457763672,10.569999694824219,10.317821502685547,1070800
2019-04-03,10.630000114440918,10.960000038146973,10.600000381469727,10.930000305175781,10.669232368469238,3313100
2019-04-04,10.960000038146973,11.140000343322754,10.645000457763672,10.75,10.493526458740234,1568300
2019-04-05,10.770000457763672,10.880000114440918,10.739999771118164,10.869999885559082,10.610664367675781,838200
2019-04-08,10.9399995803833,10.9399995803833,10.51099967956543,10.720000267028809,10.464241981506348,1026800
2019-04-09,10.800000190734863,10.800000190734863,10.529999732971191,10.59000015258789,10.3373441696167,751500
2019-04-10,10.630000114440918,10.710000038146973,10.520000457763672,10.649999618530273,10.395912170410156,1249300
2019-04-11,10.65999984741211,10.90999984741211,10.539999961853027,10.789999961853027,10.532572746276855,884100
2019-04-12,10.829999923706055,10.895000457763672,10.65999984741211,10.869999885559082,10.610664367675781,1287300
2019-04-15,10.869999885559082,10.880000114440918,10.635000228881836,10.680000305175781,10.425198554992676,510000
2019-04-16,10.739999771118164,10.770000457763672,10.555000305175781,10.680000305175781,10.425198554992676,469500
2019-04-17,10.739999771118164,10.984999656677246,10.649999618530273,10.75,10.493526458740234,910600
2019-04-18,10.8100004196167,10.850000381469727,10.630000114440918,10.6899995803833,10.434959411621094,941700
2019-04-22,10.699999809265137,10.960000038146973,10.637999534606934,10.779999732971191,10.522811889648438,616200
2019-04-23,10.770000457763672,10.859999656677246,10.625,10.640000343322754,10.386150360107422,725700
2019-04-24,10.630000114440918,10.710000038146973,10.390000343322754,10.449999809265137,10.20068359375,682700
2019-04-25,10.460000038146973,10.550000190734863,10.28499984741211,10.430000305175781,10.181161880493164,774200
2019-04-26,10.430000305175781,10.789999961853027,10.380000114440918,10.75,10.493526458740234,821800
2019-04-29,11.149999618530273,11.220000267028809,10.779999732971191,10.869999885559082,10.610664367675781,2091100
2019-04-30,10.850000381469727,11.0,10.723999977111816,10.869999885559082,10.610664367675781,1016300
2019-05-01,10.9399995803833,11.0,10.770000457763672,10.789999961853027,10.532572746276855,484200
2019-05-02,10.710000038146973,10.890000343322754,10.65999984741211,10.819999694824219,10.561856269836426,566200
2019-05-03,10.84000015258789,11.100000381469727,10.84000015258789,11.079999923706055,10.815654754638672,922600
2019-05-06,10.84000015258789,11.180000305175781,10.84000015258789,11.149999618530273,10.883984565734863,857800
2019-05-07,11.0,11.109999656677246,10.770000457763672,10.859999656677246,10.600902557373047,998800
2019-05-08,10.859999656677246,11.1899995803833,10.859999656677246,11.0,10.737564086914062,1238800
2019-05-09,10.789999961853027,11.239999771118164,10.1899995803833,11.199999809265137,10.932791709899902,1716300
2019-05-10,11.149999618530273,11.489999771118164,11.0,11.3100004196167,11.040167808532715,1277700
2019-05-13,11.100000381469727,11.630000114440918,11.069999694824219,11.520000457763672,11.245157241821289,1143100
2019-05-14,11.520000457763672,12.100000381469727,11.505000114440918,11.829999923706055,11.547760009765625,1483700
2019-05-15,11.800000190734863,12.300000190734863,11.690999984741211,12.25,11.95773983001709,1650800
2019-05-16,12.25,12.484999656677246,12.135000228881836,12.380000114440918,12.084640502929688,1075500
2019-05-17,12.260000228881836,12.449999809265137,12.199999809265137,12.289999961853027,11.996786117553711,890100
2019-05-20,12.199999809265137,12.670000076293945,12.166999816894531,12.489999771118164,12.192014694213867,842000
2019-05-21,12.5,12.913999557495117,12.5,12.770000457763672,12.494344711303711,1592000
2019-05-22,12.6899995803833,12.829999923706055,12.595000267028809,12.729999542236328,12.455206871032715,797000
2019-05-23,12.619999885559082,12.729999542236328,12.470000267028809,12.699999809265137,12.42585563659668,838500
2019-05-24,12.819999694824219,12.989999771118164,12.600000381469727,12.630000114440918,12.357365608215332,1083300
2019-05-28,12.670000076293945,12.90999984741211,12.640000343322754,12.680000305175781,12.40628719329834,1001600
2019-05-29,12.630000114440918,12.6899995803833,12.140000343322754,12.579999923706055,12.308445930480957,951900
2019-05-30,12.600000381469727,12.800000190734863,12.425000190734863,12.619999885559082,12.347582817077637,931500
2019-05-31,12.470000267028809,12.600000381469727,12.34000015258789,12.369999885559082,12.102978706359863,593500
2019-06-03,12.430000305175781,12.550000190734863,12.295000076293945,12.369999885559082,12.102978706359863,793500
2019-06-04,12.420000076293945,12.489999771118164,12.010000228881836,12.270000457763672,12.005138397216797,800400
2019-06-05,12.25,12.289999961853027,12.145000457763672,12.260000228881836,11.995353698730469,995500
2019-06-06,12.3100004196167,12.460000038146973,12.149999618530273,12.40999984741211,12.14211654663086,864900
2019-06-07,12.479999542236328,12.550000190734863,12.317000389099121,12.550000190734863,12.279093742370605,684600
2019-06-10,12.600000381469727,12.930000305175781,12.550000190734863,12.569999694824219,12.298661231994629,682600
2019-06-11,12.699999809265137,12.75,12.390000343322754,12.59000015258789,12.318230628967285,693700
2019-06-12,12.59000015258789,12.890000343322754,12.579999923706055,12.869999885559082,12.592185974121094,571600
2019-06-13,12.899999618530273,13.095000267028809,12.729999542236328,12.8100004196167,12.533480644226074,947100
2019-06-14,12.779999732971191,13.020000457763672,12.625,12.930000305175781,12.650891304016113,624600
2019-06-17,12.899999618530273,13.375,12.880000114440918,13.1899995803833,12.905277252197266,1217400
2019-06-18,13.25,13.529999732971191,13.229999542236328,13.279999732971191,12.993335723876953,1113700
2019-06-19,13.319999694824219,13.5,13.260000228881836,13.489999771118164,13.198802947998047,919300
2019-06-20,13.520000457763672,13.631999969482422,13.3100004196167,13.319999694824219,13.032470703125,836100
2019-06-21,13.25,13.470000267028809,13.185999870300293,13.319999694824219,13.032470703125,1174000
2019-06-24,13.329999923706055,13.390000343322754,13.119999885559082,13.210000038146973,12.924847602844238,1104200
2019-06-25,13.270000457763672,13.350000381469727,12.979999542236328,13.0600004196167,12.778082847595215,813000
2019-06-26,13.0,13.180000305175781,12.859999656677246,12.890000343322754,12.611754417419434,461300
2019-06-27,12.880000114440918,13.09000015258789,12.880000114440918,13.050000190734863,12.76830005645752,850700
2019-06-28,13.020000457763672,13.25,13.0,13.09000015258789,12.8074369430542,1832900
2019-07-01,13.239999771118164,13.335000038146973,13.104999542236328,13.170000076293945,12.885710716247559,665100
2019-07-02,13.260000228881836,13.479999542236328,13.100000381469727,13.319999694824219,13.032470703125,1257300
2019-07-03,13.289999961853027,13.789999961853027,13.289999961853027,13.649999618530273,13.355348587036133,3282800
2019-07-05,13.619999885559082,13.619999885559082,13.109999656677246,13.300000190734863,13.012904167175293,645400
2019-07-08,13.25,13.3100004196167,13.050000190734863,13.149999618530273,12.866141319274902,607700
2019-07-09,13.109999656677246,13.414999961853027,13.109999656677246,13.3100004196167,13.022686958312988,716700
2019-07-10,13.359999656677246,13.390000343322754,13.069999694824219,13.300000190734863,13.012904167175293,641700
2019-07-11,13.319999694824219,13.319999694824219,13.149999618530273,13.25,12.963981628417969,486400
2019-07-12,13.289999961853027,13.430000305175781,13.170000076293945,13.359999656677246,13.071608543395996,929600
2019-07-15,13.300000190734863,13.3100004196167,13.170000076293945,13.289999961853027,13.003118515014648,486300
2019-07-16,13.25,13.329999923706055,12.864999771118164,13.119999885559082,12.836788177490234,632400
2019-07-17,13.109999656677246,13.300000190734863,13.050000190734863,13.25,12.963981628417969,690300
2019-07-18,13.229999542236328,13.279999732971191,13.114999771118164,13.199999809265137,12.91506290435791,368800
2019-07-19,13.300000190734863,13.420000076293945,13.1899995803833,13.199999809265137,12.91506290435791,688800
2019-07-22,13.229999542236328,13.385000228881836,13.149999618530273,13.210000038146973,12.924847602844238,494000
2019-07-23,13.300000190734863,13.520000457763672,13.260000228881836,13.449999809265137,13.159666061401367,569000
2019-07-24,13.460000038146973,14.0,13.460000038146973,13.75,13.4531888961792,1442300
2019-07-25,13.800000190734863,13.850000381469727,13.34000015258789,13.449999809265137,13.159666061401367,956500
2019-07-26,13.539999961853027,13.579999923706055,13.359999656677246,13.460000038146973,13.169448852539062,457000
2019-07-29,13.460000038146973,13.710000038146973,13.1899995803833,13.600000381469727,13.306427955627441,607200
2019-07-30,13.510000228881836,13.739999771118164,13.489999771118164,13.579999923706055,13.286858558654785,659700
2019-07-31,13.609999656677246,13.84000015258789,13.4399995803833,13.569999694824219,13.27707576751709,786600
2019-08-01,13.609999656677246,13.850000381469727,13.489999771118164,13.569999694824219,13.27707576751709,1058000
2019-08-02,13.479999542236328,13.8100004196167,13.350000381469727,13.739999771118164,13.443406105041504,642200
2019-08-05,13.539999961853027,13.640000343322754,13.34000015258789,13.550000190734863,13.25750732421875,671000
2019-08-06,13.670000076293945,13.75,13.260000228881836,13.479999542236328,13.189018249511719,680000
2019-08-07,13.4399995803833,13.760000228881836,13.430000305175781,13.75,13.4531888961792,1400100
2019-08-08,14.0600004196167,14.50100040435791,13.800000190734863,14.329999923706055,14.020669937133789,2247000
2019-08-09,14.430000305175781,14.9399995803833,14.369999885559082,14.9399995803833,14.617504119873047,1587700
2019-08-12,14.960000038146973,15.399999618530273,14.90999984741211,15.369999885559082,15.038219451904297,1049600
2019-08-13,15.199999809265137,15.470000267028809,15.140000343322754,15.34000015258789,15.008868217468262,955000
2019-08-14,15.279999732971191,15.5649995803833,15.239999771118164,15.380000114440918,15.048003196716309,1316400
2019-08-15,15.5,15.5,15.079999923706055,15.130000114440918,14.803400993347168,1052900
2019-08-16,15.180000305175781,15.25,15.050000190734863,15.149999618530273,14.851434707641602,1580300
2019-08-19,15.300000190734863,15.5600004196167,15.210000038146973,15.329999923706055,15.027888298034668,1238000
2019-08-20,15.390000343322754,15.680000305175781,15.390000343322754,15.479999542236328,15.174931526184082,761100
2019-08-21,15.5600004196167,16.049999237060547,15.5,15.979999542236328,15.665078163146973,2493900
2019-08-22,16.040000915527344,16.530000686645508,15.979999542236328,16.450000762939453,16.12581443786621,2098200
2019-08-23,16.479999542236328,16.610000610351562,16.030000686645508,16.079999923706055,15.763108253479004,1394600
2019-08-26,16.270000457763672,16.43000030517578,16.1299991607666,16.229999542236328,15.910151481628418,1101300
2019-08-27,16.299999237060547,16.489999771118164,16.15999984741211,16.280000686645508,15.959163665771484,1401800
2019-08-28,16.260000228881836,16.360000610351562,16.190000534057617,16.290000915527344,15.968973159790039,830700
2019-08-29,16.3799991607666,16.579999923706055,16.354999542236328,16.420000076293945,16.096405029296875,1256400
2019-08-30,16.479999542236328,16.520000457763672,16.350000381469727,16.399999618530273,16.076801300048828,1242800
2019-09-03,16.420000076293945,16.489999771118164,16.18000030517578,16.360000610351562,16.03759002685547,754500
2019-09-04,16.43000030517578,16.729999542236328,16.43000030517578,16.56999969482422,16.243450164794922,930000
2019-09-05,16.6299991607666,16.84000015258789,16.514999389648438,16.780000686645508,16.449312210083008,1008200
2019-09-06,16.899999618530273,16.950000762939453,16.65999984741211,16.68000030517578,16.35128402709961,781400
2019-09-09,16.739999771118164,16.739999771118164,15.829999923706055,15.859999656677246,15.547442436218262,1626500
2019-09-10,15.760000228881836,15.859999656677246,15.380000114440918,15.770000457763672,15.459217071533203,1157000
2019-09-11,15.739999771118164,16.100000381469727,15.670000076293945,16.100000381469727,15.78271484375,536300
2019-09-12,16.09000015258789,16.280000686645508,15.930000305175781,16.040000915527344,15.723896980285645,393700
2019-09-13,15.989999771118164,16.163000106811523,15.819999694824219,15.829999923706055,15.518033981323242,505800
2019-09-16,15.779999732971191,16.020000457763672,15.710000038146973,15.819999694824219,15.508232116699219,481500
2019-09-17,15.850000381469727,16.2450008392334,15.850000381469727,16.149999618530273,15.831727027893066,853400
2019-09-18,16.209999084472656,16.25,15.729999542236328,15.9399995803833,15.625866889953613,478500
2019-09-19,15.970000267028809,16.219999313354492,15.9399995803833,16.149999618530273,15.831727027893066,587700
2019-09-20,16.200000762939453,16.239999771118164,15.460000038146973,15.619999885559082,15.312171936035156,1290900
2019-09-23,15.619999885559082,16.020000457763672,15.420000076293945,15.779999732971191,15.469018936157227,727100
2019-09-24,16.020000457763672,16.31999969482422,15.770000457763672,15.890000343322754,15.576851844787598,1005500
2019-09-25,15.829999923706055,16.149999618530273,15.600000381469727,16.059999465942383,15.743500709533691,880600
2019-09-26,16.0,16.059999465942383,15.59000015258789,15.789999961853027,15.478821754455566,499000
2019-09-27,15.739999771118164,15.880000114440918,15.479999542236328,15.569999694824219,15.263157844543457,399100
2019-09-30,15.619999885559082,15.720000267028809,15.380000114440918,15.619999885559082,15.312171936035156,610500
2019-10-01,15.640000343322754,15.699999809265137,15.140000343322754,15.390000343322754,15.086705207824707,918800
2019-10-02,15.229999542236328,15.619999885559082,15.09000015258789,15.609999656677246,15.302370071411133,746300
2019-10-03,15.609999656677246,15.640000343322754,15.210000038146973,15.479999542236328,15.174931526184082,1804700
2019-10-04,15.5,15.760000228881836,15.40999984741211,15.75,15.43960952758789,755300
2019-10-07,15.75,15.949999809265137,15.649999618530273,15.789999961853027,15.478821754455566,675600
2019-10-08,15.720000267028809,15.829999923706055,15.460000038146973,15.479999542236328,15.174931526184082,473200
2019-10-09,15.5600004196167,15.739999771118164,15.449999809265137,15.510000228881836,15.204340934753418,670600
2019-10-10,15.420000076293945,15.595000267028809,15.350000381469727,15.529999732971191,15.223944664001465,586900
2019-10-11,15.630000114440918,15.789999961853027,15.460000038146973,15.5600004196167,15.253355979919434,735800
2019-10-14,15.579999923706055,15.694999694824219,15.40999984741211,15.470000267028809,15.165128707885742,407500
2019-10-15,15.5,15.630000114440918,15.420000076293945,15.520000457763672,15.214143753051758,301500
2019-10-16,15.479999542236328,15.479999542236328,14.710000038146973,14.890000343322754,14.596559524536133,869800
2019-10-17,14.979999542236328,15.109999656677246,14.680000305175781,14.899999618530273,14.60636043548584,745400
2019-10-18,14.920000076293945,14.9399995803833,14.59000015258789,14.789999961853027,14.498528480529785,479300
2019-10-21,14.859999656677246,14.9399995803833,14.640000343322754,14.75,14.459317207336426,544000
2019-10-22,14.800000190734863,14.930000305175781,14.229999542236328,14.329999923706055,14.04759407043457,729900
2019-10-23,14.34000015258789,14.65999984741211,14.239999771118164,14.3100004196167,14.027990341186523,782100
2019-10-24,14.359999656677246,14.670000076293945,14.329999923706055,14.600000381469727,14.312273979187012,445700
2019-10-25,14.579999923706055,14.770000457763672,14.529999732971191,14.670000076293945,14.38089370727539,404300
2019-10-28,14.670000076293945,14.920000076293945,14.649999618530273,14.800000190734863,14.508334159851074,522100
2019-10-29,14.880000114440918,15.1850004196167,14.880000114440918,15.050000190734863,14.753405570983887,747100
2019-10-30,15.100000381469727,15.135000228881836,14.699999809265137,14.84000015258789,14.547545433044434,541600
2019-10-31,14.84000015258789,14.90999984741211,14.649999618530273,14.770000457763672,14.478924751281738,499600
2019-11-01,14.770000457763672,14.869999885559082,14.630000114440918,14.75,14.459317207336426,965600
2019-11-04,14.84000015258789,14.899999618530273,14.34000015258789,14.5,14.214244842529297,769100
2019-11-05,14.510000228881836,15.170000076293945,14.130000114440918,14.899999618530273,14.60636043548584,2416900
2019-11-06,15.0,15.079999923706055,14.449999809265137,14.539999961853027,14.253456115722656,894600
2019-11-07,14.649999618530273,14.90999984741211,14.529999732971191,14.529999732971191,14.243654251098633,1035000
2019-11-08,15.5600004196167,15.869999885559082,13.979999542236328,14.15999984741211,13.88094425201416,1519500
2019-11-11,14.270000457763672,15.609999656677246,14.270000457763672,15.569999694824219,15.263157844543457,2465100
2019-11-12,15.569999694824219,15.850000381469727,15.3100004196167,15.720000267028809,15.410201072692871,1368400
2019-11-13,15.640000343322754,16.0049991607666,15.640000343322754,15.930000305175781,15.616064071655273,1154700
2019-11-14,15.930000305175781,16.170000076293945,15.694999694824219,15.75,15.43960952758789,852400
2019-11-15,15.75,16.040000915527344,15.649999618530273,15.989999771118164,15.674880027770996,899900
2019-11-18,15.949999809265137,16.0,15.600000381469727,15.880000114440918,15.595332145690918,594000
2019-11-19,15.970000267028809,16.040000915527344,15.680000305175781,15.960000038146973,15.67389965057373,645300
2019-11-20,15.890000343322754,16.3799991607666,15.880000114440918,15.930000305175781,15.644437789916992,675700
2019-11-21,15.90999984741211,16.020000457763672,15.800000190734863,15.819999694824219,15.536409378051758,577300
2019-11-22,15.800000190734863,15.979999542236328,15.720000267028809,15.9399995803833,15.654257774353027,408500
2019-11-25,15.979999542236328,16.049999237060547,15.770000457763672,15.90999984741211,15.624794960021973,643400
2019-11-26,15.930000305175781,16.0,15.710000038146973,15.770000457763672,15.487305641174316,786400
2019-11-27,15.8100004196167,15.949000358581543,15.579999923706055,15.65999984741211,15.379276275634766,467400
2019-11-29,15.640000343322754,15.789999961853027,15.420000076293945,15.760000228881836,15.477482795715332,229300
2019-12-02,15.75,15.859999656677246,15.289999961853027,15.520000457763672,15.24178695678711,671200
2019-12-03,15.279999732971191,15.600000381469727,15.140000343322754,15.510000228881836,15.231966018676758,1356200
2019-12-04,15.640000343322754,15.65999984741211,15.239999771118164,15.289999961853027,15.015908241271973,759100
2019-12-05,15.260000228881836,15.380000114440918,15.039999961853027,15.369999885559082,15.094474792480469,798500
2019-12-06,15.40999984741211,15.479999542236328,15.15999984741211,15.220000267028809,14.947163581848145,772800
2019-12-09,15.210000038146973,15.380000114440918,14.704999923706055,14.760000228881836,14.495410919189453,691300
2019-12-10,14.800000190734863,15.020000457763672,14.710000038146973,14.90999984741211,14.642721176147461,684800
2019-12-11,14.920000076293945,14.970000267028809,14.680000305175781,14.739999771118164,14.475769996643066,515800
2019-12-12,14.720000267028809,14.920000076293945,14.649999618530273,14.770000457763672,14.505231857299805,571800
2019-12-13,14.75,14.930000305175781,14.71500015258789,14.869999885559082,14.603437423706055,752100
2019-12-16,14.920000076293945,15.0,14.625,14.819999694824219,14.554335594177246,614100
2019-12-17,14.789999961853027,14.850000381469727,14.640000343322754,14.670000076293945,14.407023429870605,572500
2019-12-18,14.65999984741211,14.770000457763672,14.375,14.619999885559082,14.357921600341797,558300
2019-12-19,14.649999618530273,14.789999961853027,14.5,14.770000457763672,14.505231857299805,502600
2019-12-20,14.770000457763672,15.050000190734863,14.619999885559082,14.9399995803833,14.672183990478516,788000
2019-12-23,14.960000038146973,15.050000190734863,14.75,14.850000381469727,14.583796501159668,401800
2019-12-24,14.779999732971191,14.819999694824219,14.59000015258789,14.760000228881836,14.495410919189453,320400
2019-12-26,14.779999732971191,14.890000343322754,14.739999771118164,14.789999961853027,14.524871826171875,283200
2019-12-27,14.84000015258789,14.84000015258789,14.5600004196167,14.699999809265137,14.43648624420166,323300
2019-12-30,14.640000343322754,14.75,14.5,14.720000267028809,14.456128120422363,364000
2019-12-31,14.649999618530273,14.84000015258789,14.529999732971191,14.819999694824219,14.554335594177246,688100
2020-01-02,14.859999656677246,15.100000381469727,14.520000457763672,14.880000114440918,14.613259315490723,671300
2020-01-03,14.859999656677246,15.210000038146973,14.75,15.210000038146973,14.937344551086426,1541800
2020-01-06,15.119999885559082,15.3100004196167,14.979999542236328,15.300000190734863,15.025732040405273,4093700
2020-01-07,15.279999732971191,15.470000267028809,15.225000381469727,15.25,14.976624488830566,1510500
2020-01-08,15.25,15.600000381469727,15.109999656677246,15.460000038146973,15.182861328125,760700
2020-01-09,15.449999809265137,15.9350004196167,15.449999809265137,15.739999771118164,15.457842826843262,1537900
2020-01-10,15.880000114440918,16.049999237060547,15.8100004196167,15.920000076293945,15.63461685180664,1344200
2020-01-13,15.949999809265137,16.170000076293945,15.637999534606934,15.75,15.467662811279297,2671700
2020-01-14,15.720000267028809,15.8100004196167,15.460000038146973,15.59000015258789,15.310531616210938,811200
2020-01-15,15.640000343322754,16.25,15.630000114440918,16.079999923706055,15.791749000549316,1530500
2020-01-16,16.18000030517578,16.299999237060547,16.079999923706055,16.110000610351562,15.821210861206055,886400
2020-01-17,16.15999984741211,16.15999984741211,15.949999809265137,16.040000915527344,15.752466201782227,605600
2020-01-21,16.010000228881836,16.309999465942383,15.970000267028809,16.170000076293945,15.880135536193848,1011400
2020-01-22,16.200000762939453,16.55500030517578,16.100000381469727,16.170000076293945,15.880135536193848,1331400
2020-01-23,16.170000076293945,16.399999618530273,16.020000457763672,16.239999771118164,15.948878288269043,1128300
2020-01-24,16.389999389648438,16.459999084472656,16.079999923706055,16.190000534057617,15.899778366088867,1301300
2020-01-27,15.989999771118164,16.260000228881836,15.84000015258789,16.170000076293945,15.880135536193848,476000
2020-01-28,16.229999542236328,16.270000457763672,16.170000076293945,16.200000762939453,15.909597396850586,508900
2020-01-29,16.219999313354492,16.280000686645508,15.920000076293945,16.040000915527344,15.752466201782227,782000
2020-01-30,16.0,16.149999618530273,15.994999885559082,16.100000381469727,15.81139087677002,613000
2020-01-31,16.1299991607666,16.1299991607666,15.949999809265137,16.0,15.713181495666504,1070500
2020-02-03,16.06999969482422,16.1299991607666,15.949999809265137,16.100000381469727,15.81139087677002,1194200
2020-02-04,16.15999984741211,16.690000534057617,16.09000015258789,16.31999969482422,16.027446746826172,3465700
2020-02-05,16.3700008392334,16.5,16.1299991607666,16.190000534057617,15.899778366088867,1009000
2020-02-06,16.190000534057617,16.459999084472656,16.15999984741211,16.270000457763672,15.978339195251465,1127700
2020-02-07,16.260000228881836,16.290000915527344,16.059999465942383,16.1299991607666,15.840852737426758,787300
2020-02-10,16.1299991607666,16.219999313354492,16.0,16.170000076293945,15.880135536193848,1297200
2020-02-11,16.18000030517578,16.700000762939453,16.18000030517578,16.450000762939453,16.155113220214844,1344700
2020-02-12,16.770000457763672,17.450000762939453,16.700000762939453,17.049999237060547,16.74435806274414,3097200
2020-02-13,17.0,17.739999771118164,16.940000534057617,17.059999465942383,16.754180908203125,2740800
2020-02-14,17.079999923706055,17.827999114990234,17.030000686645508,17.399999618530273,17.08808708190918,1316500
2020-02-18,17.459999084472656,17.809999465942383,17.459999084472656,17.56999969482422,17.255037307739258,1395900
2020-02-19,17.6299991607666,17.709999084472656,17.34000015258789,17.3700008392334,17.058624267578125,956300
2020-02-20,17.350000381469727,17.71500015258789,17.09000015258789,17.690000534057617,17.372886657714844,1254400
2020-02-21,17.649999618530273,17.69499969482422,17.440000534057617,17.670000076293945,17.353242874145508,1093000
2020-02-24,17.15999984741211,17.40999984741211,16.969999313354492,17.219999313354492,16.911312103271484,1266400
2020-02-25,17.34000015258789,17.510000228881836,16.850000381469727,16.959999084472656,16.655973434448242,1288400
2020-02-26,17.010000228881836,17.18000030517578,16.69499969482422,16.850000381469727,16.547943115234375,1413700
2020-02-27,16.549999237060547,16.760000228881836,15.850000381469727,16.06999969482422,15.781926155090332,1516300
2020-02-28,15.300000190734863,15.34000015258789,13.960000038146973,14.34000015258789,14.082940101623535,3713900
2020-03-02,14.59000015258789,15.0600004196167,14.029999732971191,14.949999809265137,14.682004928588867,2221100
2020-03-03,14.989999771118164,15.25,14.279999732971191,14.470000267028809,14.210609436035156,2548800
2020-03-04,14.5,15.170000076293945,14.449999809265137,15.119999885559082,14.848958015441895,1897000
2020-03-05,14.8100004196167,14.989999771118164,14.255000114440918,14.4399995803833,14.181147575378418,1068300
2020-03-06,13.979999542236328,14.225000381469727,13.904999732971191,14.15999984741211,13.90616512298584,1987100
2020-03-09,12.890000343322754,14.1899995803833,12.470000267028809,13.5600004196167,13.316922187805176,1435800
2020-03-10,14.010000228881836,14.010000228881836,13.119999885559082,13.760000228881836,13.513336181640625,2291600
2020-03-11,13.369999885559082,13.399999618530273,12.710000038146973,12.880000114440918,12.675827026367188,1945300
2020-03-12,10.4399995803833,11.859999656677246,10.300000190734863,11.220000267028809,11.04214096069336,2536200
2020-03-13,11.8100004196167,12.75,11.604999542236328,12.729999542236328,12.528203964233398,1945600
2020-03-16,11.050000190734863,12.079999923706055,11.050000190734863,11.760000228881836,11.573579788208008,1887500
2020-03-17,11.949999809265137,12.390000343322754,11.430000305175781,11.640000343322754,11.455484390258789,2441100
2020-03-18,11.050000190734863,12.470000267028809,10.800000190734863,12.260000228881836,12.065655708312988,1680000
2020-03-19,12.050000190734863,13.550000190734863,11.949999809265137,12.390000343322754,12.193593978881836,2736300
2020-03-20,12.729999542236328,12.800000190734863,12.079999923706055,12.130000114440918,11.937715530395508,1693200
2020-03-23,12.050000190734863,12.289999961853027,11.289999961853027,12.09000015258789,11.898348808288574,1103900
2020-03-24,12.59000015258789,12.880000114440918,12.329999923706055,12.829999923706055,12.626619338989258,2146600
2020-03-25,12.850000381469727,14.079999923706055,12.850000381469727,13.619999885559082,13.404095649719238,4885200
2020-03-26,13.850000381469727,14.460000038146973,13.829999923706055,14.010000228881836,13.78791332244873,2643700
2020-03-27,13.640000343322754,14.229999542236328,13.640000343322754,13.9399995803833,13.719023704528809,1272300
2020-03-30,14.100000381469727,14.9399995803833,14.09000015258789,14.720000267028809,14.486658096313477,1918900
2020-03-31,14.630000114440918,14.710000038146973,14.069999694824219,14.430000305175781,14.20125675201416,1735200
2020-04-01,13.819999694824219,14.489999771118164,13.739999771118164,14.09000015258789,13.866646766662598,3264000
2020-04-02,14.119999885559082,14.880000114440918,14.100000381469727,14.680000305175781,14.447294235229492,3429200
2020-04-03,14.670000076293945,14.9399995803833,14.449999809265137,14.5600004196167,14.329195976257324,5420900
2020-04-06,15.0,15.229999542236328,14.710000038146973,15.069999694824219,14.831110954284668,3741100
2020-04-07,15.380000114440918,15.489999771118164,14.789999961853027,14.859999656677246,14.62444019317627,1678700
2020-04-08,15.079999923706055,15.199999809265137,14.930000305175781,15.0,14.76222038269043,1333600
2020-04-09,15.100000381469727,15.9399995803833,15.050000190734863,15.789999961853027,15.53969669342041,1628300
2020-04-13,15.710000038146973,15.789999961853027,15.430000305175781,15.640000343322754,15.392075538635254,1264700
2020-04-14,15.9399995803833,16.65999984741211,15.9399995803833,16.5,16.23844337463379,1473800
2020-04-15,16.31999969482422,16.649999618530273,16.079999923706055,16.43000030517578,16.169551849365234,3603200
2020-04-16,16.5,16.889999389648438,16.5,16.729999542236328,16.464797973632812,3502600
2020-04-17,16.959999084472656,17.25,16.690000534057617,17.25,16.976552963256836,1512000
2020-04-20,17.239999771118164,17.639999389648438,17.139999389648438,17.239999771118164,16.966711044311523,2726700
2020-04-21,17.18000030517578,17.5,16.920000076293945,17.149999618530273,16.87813949584961,1300000
2020-04-22,17.260000228881836,17.469999313354492,17.1200008392334,17.25,16.976552963256836,1800200
2020-04-23,17.270000457763672,17.639999389648438,17.270000457763672,17.450000762939453,17.173383712768555,1319400
2020-04-24,17.549999237060547,17.989999771118164,17.3799991607666,17.90999984741211,17.62609100341797,4446700
2020-04-27,18.479999542236328,18.90999984741211,18.25,18.709999084472656,18.413410186767578,2581500
2020-04-28,18.90999984741211,19.0,17.709999084472656,17.739999771118164,17.458784103393555,2087300
2020-04-29,17.889999389648438,18.0,17.3799991607666,17.549999237060547,17.27179718017578,1241600
2020-04-30,17.559999465942383,17.59000015258789,17.110000610351562,17.170000076293945,16.897823333740234,1064000
2020-05-01,16.90999984741211,17.229999542236328,16.459999084472656,17.170000076293945,16.897823333740234,1465500
2020-05-04,17.1299991607666,17.40999984741211,17.06999969482422,17.329999923706055,17.055286407470703,1367700
2020-05-05,17.399999618530273,17.81999969482422,17.2450008392334,17.56999969482422,17.291479110717773,1463100
2020-05-06,17.709999084472656,18.100000381469727,17.610000610351562,17.770000457763672,17.488309860229492,1337000
2020-05-07,18.1200008392334,18.299999237060547,17.809999465942383,18.219999313354492,17.931177139282227,1615500
2020-05-08,17.739999771118164,17.90999984741211,16.670000076293945,17.450000762939453,17.173383712768555,2785900
2020-05-11,17.549999237060547,18.579999923706055,17.459999084472656,18.170000076293945,17.881967544555664,3208000
2020-05-12,18.469999313354492,18.469999313354492,17.690000534057617,17.700000762939453,17.41942024230957,1660600
2020-05-13,18.0,18.139999389648438,17.5,17.84000015258789,17.557199478149414,2604200
2020-05-14,17.81999969482422,17.829999923706055,17.360000610351562,17.81999969482422,17.537517547607422,1849300
2020-05-15,17.760000228881836,18.030000686645508,17.709999084472656,17.940000534057617,17.655614852905273,1837300
2020-05-18,18.059999465942383,18.399999618530273,17.959999084472656,18.010000228881836,17.724506378173828,1347900
2020-05-19,18.0,18.190000534057617,17.899999618530273,17.959999084472656,17.6752986907959,1398400
2020-05-20,18.530000686645508,18.530000686645508,18.0,18.219999313354492,17.931177139282227,1516700
2020-05-21,18.219999313354492,18.329999923706055,17.96500015258789,18.290000915527344,18.028766632080078,1043900
2020-05-22,18.31999969482422,19.219999313354492,18.224000930786133,19.020000457763672,18.74833869934082,2605900
2020-05-26,19.360000610351562,19.559999465942383,18.510000228881836,18.549999237060547,18.28504753112793,2127300
2020-05-27,18.739999771118164,18.899999618530273,17.479999542236328,18.850000381469727,18.580768585205078,3341000
2020-05-28,19.0,19.25,18.809999465942383,18.860000610351562,18.590621948242188,1534000
2020-05-29,18.950000762939453,19.174999237060547,18.799999237060547,19.110000610351562,18.83704948425293,2697300
2020-06-01,18.950000762939453,19.104999542236328,18.639999389648438,18.809999465942383,18.541336059570312,1029400
2020-06-02,18.850000381469727,18.940000534057617,18.459999084472656,18.6200008392334,18.35405158996582,3099400
2020-06-03,18.600000381469727,18.65999984741211,18.270000457763672,18.489999771118164,18.225906372070312,1397400
2020-06-04,18.43000030517578,18.479999542236328,17.795000076293945,18.170000076293945,17.910476684570312,2207400
2020-06-05,18.0,18.170000076293945,17.84600067138672,17.969999313354492,17.713333129882812,1393500
2020-06-08,17.75,17.799999237060547,17.079999923706055,17.690000534057617,17.437334060668945,1722700
2020-06-09,17.770000457763672,17.989999771118164,17.459999084472656,17.850000381469727,17.595046997070312,1094700
2020-06-10,18.059999465942383,18.454999923706055,17.760000228881836,17.84000015258789,17.58519172668457,1535700
2020-06-11,17.520000457763672,17.690000534057617,17.059999465942383,17.079999923706055,16.836048126220703,1363300
2020-06-12,17.34000015258789,17.488000869750977,16.795000076293945,17.059999465942383,16.81633186340332,1557400
2020-06-15,16.8799991607666,17.65999984741211,16.780000686645508,17.540000915527344,17.28947639465332,3043800
2020-06-16,17.899999618530273,18.05500030517578,17.610000610351562,17.989999771118164,17.733047485351562,1002500
2020-06-17,18.06999969482422,18.389999389648438,18.030000686645508,18.170000076293945,17.910476684570312,1010900
2020-06-18,18.170000076293945,18.520000457763672,18.110000610351562,18.200000762939453,17.94005012512207,1058200
2020-06-19,18.489999771118164,18.489999771118164,17.854999542236328,18.309999465942383,18.048477172851562,2407500
2020-06-22,18.420000076293945,18.599000930786133,18.344999313354492,18.399999618530273,18.13719367980957,1432900
2020-06-23,18.600000381469727,18.600000381469727,18.315000534057617,18.399999618530273,18.13719367980957,1258000
2020-06-24,18.360000610351562,18.58799934387207,17.969999313354492,18.200000762939453,17.94005012512207,1043500
2020-06-25,18.190000534057617,18.6299991607666,18.020000457763672,18.6299991607666,18.363906860351562,1453100
2020-06-26,18.540000915527344,18.584999084472656,17.6299991607666,17.68000030517578,17.42747688293457,3641000
2020-06-29,17.829999923706055,17.841999053955078,17.469999313354492,17.719999313354492,17.466903686523438,1401900
2020-06-30,17.760000228881836,17.899999618530273,17.43000030517578,17.81999969482422,17.565475463867188,2470600
2020-07-01,17.729999542236328,18.579999923706055,17.700000762939453,18.5,18.235763549804688,4231600
2020-07-02,18.719999313354492,18.920000076293945,18.399999618530273,18.579999923706055,18.314619064331055,3149500
2020-07-06,18.6200008392334,18.68000030517578,18.190000534057617,18.270000457763672,18.009050369262695,2815300
2020-07-07,18.25,18.68000030517578,18.079999923706055,18.469999313354492,18.20619010925293,2152000
2020-07-08,18.59000015258789,19.104999542236328,18.549999237060547,18.739999771118164,18.472335815429688,1932900
2020-07-09,18.8700008392334,19.110000610351562,18.610000610351562,18.850000381469727,18.580768585205078,1147200
2020-07-10,18.90999984741211,18.979999542236328,18.65999984741211,18.700000762939453,18.432910919189453,1398300
2020-07-13,18.799999237060547,18.899999618530273,17.549999237060547,17.649999618530273,17.397905349731445,1448500
2020-07-14,17.559999465942383,17.915000915527344,17.059999465942383,17.8700008392334,17.614765167236328,2810700
2020-07-15,18.1200008392334,18.270000457763672,17.700000762939453,17.989999771118164,17.733047485351562,1385100
2020-07-16,17.809999465942383,17.90999984741211,17.450000762939453,17.670000076293945,17.417619705200195,914800
2020-07-17,17.75,18.030000686645508,17.5,17.950000762939453,17.693620681762695,1041000
2020-07-20,17.920000076293945,18.219999313354492,17.915000915527344,18.219999313354492,17.959760665893555,1346800
2020-07-21,18.34000015258789,18.450000762939453,18.0,18.059999465942383,17.802045822143555,975200
2020-07-22,17.959999084472656,18.059999465942383,17.670000076293945,17.90999984741211,17.654190063476562,1079700
2020-07-23,18.020000457763672,18.450000762939453,17.760000228881836,17.84000015258789,17.58519172668457,1108800
2020-07-24,17.610000610351562,17.75,17.280000686645508,17.559999465942383,17.309188842773438,1214000
2020-07-27,17.600000381469727,17.709999084472656,17.5049991607666,17.649999618530273,17.397905349731445,771700
2020-07-28,17.649999618530273,17.704999923706055,17.479999542236328,17.5,17.250049591064453,708700
2020-07-29,17.579999923706055,17.90999984741211,17.510000228881836,17.770000457763672,17.516191482543945,705100
2020-07-30,17.610000610351562,17.915000915527344,17.510000228881836,17.84000015258789,17.58519172668457,619800
2020-07-31,17.940000534057617,18.040000915527344,17.760000228881836,17.989999771118164,17.733047485351562,1072400
2020-08-03,17.989999771118164,18.399999618530273,17.884000778198242,18.309999465942383,18.048477172851562,1053900
2020-08-04,18.34000015258789,18.6200008392334,18.209999084472656,18.5,18.235763549804688,1173400
2020-08-05,18.5,18.59000015258789,18.290000915527344,18.5,18.235763549804688,1383100
2020-08-06,18.59000015258789,18.69499969482422,18.34000015258789,18.540000915527344,18.27519416809082,1374600
2020-08-07,19.1299991607666,19.989999771118164,17.895000457763672,18.030000686645508,17.772476196289062,2887400
2020-08-10,18.049999237060547,18.40999984741211,17.10300064086914,17.229999542236328,16.983903884887695,2186100
2020-08-11,17.450000762939453,17.450000762939453,16.8700008392334,16.889999389648438,16.648759841918945,1846900
2020-08-12,16.959999084472656,17.364999771118164,16.959999084472656,17.010000228881836,16.767045974731445,1081900
2020-08-13,16.809999465942383,17.280000686645508,16.729999542236328,17.18000030517578,16.93461799621582,1094700
2020-08-14,17.270000457763672,17.270000457763672,16.915000915527344,17.020000457763672,16.77690315246582,1002700
2020-08-17,17.110000610351562,17.139999389648438,16.950000762939453,17.06999969482422,16.87576675415039,823500
2020-08-18,17.1200008392334,17.34000015258789,16.8799991607666,17.260000228881836,17.0636043548584,1386100
2020-08-19,17.34000015258789,17.389999389648438,17.0,17.1200008392334,16.925199508666992,944200
2020-08-20,17.139999389648438,17.31999969482422,17.0,17.209999084472656,17.014171600341797,1261200
2020-08-21,17.219999313354492,17.290000915527344,16.889999389648438,17.040000915527344,16.84610939025879,867800
2020-08-24,17.1299991607666,17.15999984741211,16.75,16.959999084472656,16.76701545715332,1608600
2020-08-25,16.90999984741211,17.200000762939453,16.850000381469727,17.09000015258789,16.895538330078125,902100
2020-08-26,17.100000381469727,17.18000030517578,16.954999923706055,17.149999618530273,16.95485496520996,1014700
2020-08-27,17.18000030517578,17.280000686645508,16.979999542236328,16.989999771118164,16.796674728393555,1271500
2020-08-28,17.020000457763672,17.138999938964844,16.8799991607666,16.979999542236328,16.786788940429688,1119900
2020-08-31,17.049999237060547,17.280000686645508,17.049999237060547,17.200000762939453,17.00428581237793,849300
2020-09-01,17.18000030517578,17.260000228881836,16.670000076293945,16.729999542236328,16.53963279724121,1158800
2020-09-02,16.739999771118164,16.8700008392334,16.4950008392334,16.770000457763672,16.579177856445312,1876200
2020-09-03,16.6299991607666,16.860000610351562,16.045000076293945,16.149999618530273,15.966233253479004,1936800
2020-09-04,16.049999237060547,16.139999389648438,15.234000205993652,15.869999885559082,15.68941879272461,1977700
2020-09-08,15.510000228881836,15.755000114440918,15.25,15.270000457763672,15.096247673034668,1997200
2020-09-09,15.479999542236328,15.59000015258789,15.319999694824219,15.5,15.323630332946777,1448100
2020-09-10,15.59000015258789,15.670000076293945,15.005000114440918,15.09000015258789,14.918296813964844,1597600
2020-09-11,15.119999885559082,15.289999961853027,14.789999961853027,14.850000381469727,14.681026458740234,1486700
2020-09-14,14.949999809265137,15.260000228881836,14.949999809265137,15.050000190734863,14.87874984741211,1713800
2020-09-15,15.119999885559082,15.270000457763672,14.9399995803833,14.949999809265137,14.779888153076172,1806900
2020-09-16,15.069999694824219,15.949999809265137,15.010000228881836,15.539999961853027,15.363174438476562,2448700
2020-09-17,15.270000457763672,15.510000228881836,15.085000038146973,15.479999542236328,15.30385684967041,2268000
2020-09-18,15.619999885559082,15.75,15.239999771118164,15.279999732971191,15.106132507324219,4236200
2020-09-21,15.279999732971191,15.640000343322754,15.149999618530273,15.59000015258789,15.412605285644531,1365000
2020-09-22,15.609999656677246,15.960000038146973,15.5600004196167,15.9399995803833,15.758622169494629,1236300
2020-09-23,15.930000305175781,16.075000762939453,15.300000190734863,15.329999923706055,15.155563354492188,2005000
2020-09-24,15.25,15.390000343322754,15.005000114440918,15.199999809265137,15.027043342590332,1603800
2020-09-25,15.199999809265137,15.34000015258789,15.100000381469727,15.319999694824219,15.14567756652832,1004600
2020-09-28,15.470000267028809,15.515000343322754,15.234999656677246,15.479999542236328,15.30385684967041,1396800
2020-09-29,15.579999923706055,16.049999237060547,15.539999961853027,16.010000228881836,15.827827453613281,2549000
2020-09-30,16.020000457763672,16.020000457763672,15.494999885559082,15.609999656677246,15.432376861572266,1630200
2020-10-01,15.710000038146973,15.875,15.460000038146973,15.5,15.323630332946777,1414900
2020-10-02,15.260000228881836,15.710000038146973,15.21500015258789,15.600000381469727,15.422492027282715,1657100
2020-10-05,15.729999542236328,16.059999465942383,15.4399995803833,15.979999542236328,15.798168182373047,3071900
2020-10-06,16.06999969482422,16.190000534057617,15.6899995803833,15.760000228881836,15.580671310424805,1542900
2020-10-07,15.850000381469727,16.024999618530273,15.829999923706055,15.989999771118164,15.80805492401123,1038700
2020-10-08,16.200000762939453,16.31999969482422,16.09000015258789,16.219999313354492,16.035436630249023,1217700
2020-10-09,16.329999923706055,16.440000534057617,16.09000015258789,16.299999237060547,16.114526748657227,700700
2020-10-12,16.440000534057617,16.540000915527344,16.209999084472656,16.3700008392334,16.18372917175293,1151200
2020-10-13,16.3799991607666,16.549999237060547,16.219999313354492,16.239999771118164,16.055208206176758,663900
2020-10-14,16.239999771118164,16.32699966430664,15.859999656677246,15.9399995803833,15.758622169494629,854800
2020-10-15,15.699999809265137,16.0049991607666,15.675000190734863,15.979999542236328,15.798168182373047,728900
2020-10-16,15.979999542236328,16.024999618530273,15.8100004196167,15.9399995803833,15.758622169494629,863800
2020-10-19,16.059999465942383,16.139999389648438,15.494999885559082,15.520000457763672,15.343402862548828,1041900
2020-10-20,15.600000381469727,15.84000015258789,15.590999603271484,15.75,15.570785522460938,785400
2020-10-21,15.850000381469727,15.925999641418457,15.579999923706055,15.670000076293945,15.49169635772705,877400
2020-10-22,15.710000038146973,15.84000015258789,15.484999656677246,15.720000267028809,15.541126251220703,675000
2020-10-23,15.699999809265137,15.75,15.324999809265137,15.520000457763672,15.343402862548828,863200
2020-10-26,15.449999809265137,15.600000381469727,15.251999855041504,15.550000190734863,15.373061180114746,1133000
2020-10-27,15.6899995803833,15.829999923706055,15.09000015258789,15.119999885559082,14.947954177856445,1270000
2020-10-28,15.039999961853027,15.039999961853027,14.649999618530273,14.65999984741211,14.49318790435791,1168600
2020-10-29,14.75,14.989999771118164,14.494999885559082,14.729999542236328,14.56239128112793,1098000
2020-10-30,14.65999984741211,14.760000228881836,13.824999809265137,14.0600004196167,13.900015830993652,1958500
2020-11-02,14.180000305175781,14.34000015258789,13.944999694824219,14.210000038146973,14.048308372497559,1545500
2020-11-03,14.300000190734863,14.585000038146973,14.270000457763672,14.5,14.33500862121582,744500
2020-11-04,14.720000267028809,15.079999923706055,14.720000267028809,14.960000038146973,14.789773941040039,887600
2020-11-05,15.279999732971191,15.597999572753906,15.119999885559082,15.479999542236328,15.30385684967041,1728200
2020-11-06,15.420000076293945,15.829999923706055,15.380000114440918,15.470000267028809,15.29397201538086,2031900
2020-11-09,15.920000076293945,15.920000076293945,14.649999618530273,14.65999984741211,14.49318790435791,1776600
2020-11-10,14.65999984741211,14.699999809265137,14.21500015258789,14.619999885559082,14.453642845153809,1477100
2020-11-11,14.569999694824219,15.5,14.479999542236328,15.3100004196167,15.135791778564453,2120700
2020-11-12,15.329999923706055,15.625,15.329999923706055,15.5,15.323630332946777,1216500
2020-11-13,15.520000457763672,15.520000457763672,15.199999809265137,15.229999542236328,15.05670166015625,1880500
2020-11-16,15.279999732971191,15.329999923706055,15.0600004196167,15.170000076293945,15.046784400939941,872600
2020-11-17,15.140000343322754,15.34000015258789,15.069999694824219,15.220000267028809,15.096378326416016,1109200
2020-11-18,15.220000267028809,15.5,15.095000267028809,15.100000381469727,14.9773530960083,1386100
2020-11-19,15.079999923706055,15.305000305175781,15.079999923706055,15.149999618530273,15.026946067810059,1020800
2020-11-20,15.199999809265137,15.289999961853027,15.015000343322754,15.170000076293945,15.046784400939941,985100
2020-11-23,15.279999732971191,15.529999732971191,15.164999961853027,15.460000038146973,15.334428787231445,1235500
2020-11-24,15.489999771118164,15.649999618530273,15.3100004196167,15.350000381469727,15.225321769714355,1329100
2020-11-25,15.4399995803833,15.5649995803833,15.21500015258789,15.520000457763672,15.393941879272461,957000
2020-11-27,15.630000114440918,15.885000228881836,15.569999694824219,15.789999961853027,15.661747932434082,574100
2020-11-30,15.869999885559082,16.049999237060547,15.619999885559082,15.789999961853027,15.661747932434082,1604500
2020-12-01,16.1299991607666,16.34000015258789,16.030000686645508,16.309999465942383,16.177522659301758,1959400
2020-12-02,16.229999542236328,16.270000457763672,15.8100004196167,16.0,15.87004280090332,1755200
2020-12-03,16.0,16.1200008392334,15.880000114440918,15.930000305175781,15.800610542297363,778400
2020-12-04,15.989999771118164,16.290000915527344,15.869999885559082,16.06999969482422,15.939473152160645,1527300
2020-12-07,16.229999542236328,16.649999618530273,16.165000915527344,16.360000610351562,16.22711753845215,1445800
2020-12-08,16.34000015258789,16.40999984741211,15.885000228881836,16.0,15.87004280090332,1231300
2020-12-09,15.979999542236328,16.079999923706055,15.649999618530273,15.720000267028809,15.592316627502441,1063100
2020-12-10,15.579999923706055,15.779999732971191,15.5600004196167,15.739999771118164,15.612154006958008,1284800
2020-12-11,15.699999809265137,15.779999732971191,15.489999771118164,15.619999885559082,15.493128776550293,1565800
2020-12-14,15.630000114440918,15.890000343322754,15.609999656677246,15.609999656677246,15.483208656311035,1145500
2020-12-15,15.65999984741211,15.72599983215332,15.470000267028809,15.569999694824219,15.443534851074219,1343600
2020-12-16,15.569999694824219,15.880000114440918,15.550000190734863,15.829999923706055,15.701423645019531,2090500
2020-12-17,15.930000305175781,16.125,15.850000381469727,15.9399995803833,15.810528755187988,2093700
2020-12-18,15.90999984741211,15.9399995803833,15.680000305175781,15.859999656677246,15.731178283691406,2143600
2020-12-21,15.6899995803833,15.960000038146973,15.6899995803833,15.84000015258789,15.711341857910156,1506300
2020-12-22,15.789999961853027,16.420000076293945,15.770000457763672,16.3799991607666,16.2469539642334,1577000
2020-12-23,16.43000030517578,16.549999237060547,16.299999237060547,16.3700008392334,16.237035751342773,1384200
2020-12-24,16.450000762939453,16.489999771118164,16.18000030517578,16.329999923706055,16.19736099243164,401400
2020-12-28,16.469999313354492,16.489999771118164,16.204999923706055,16.309999465942383,16.177522659301758,1023800
2020-12-29,16.389999389648438,16.520000457763672,16.030000686645508,16.149999618530273,16.018823623657227,1152300
2020-12-30,16.229999542236328,16.290000915527344,16.135000228881836,16.170000076293945,16.03866195678711,714800
