Date,Open,High,Low,Close,Adj Close,Volume
2018-05-10,35.0,36.650001525878906,35.0,36.349998474121094,36.349998474121094,53800
2018-05-11,36.459999084472656,36.650001525878906,33.400001525878906,33.849998474121094,33.849998474121094,180600
2018-05-14,33.849998474121094,34.31999969482422,32.75,33.18000030517578,33.18000030517578,157200
2018-05-15,33.349998474121094,34.38999938964844,32.70000076293945,32.790000915527344,32.790000915527344,285800
2018-05-16,32.810001373291016,33.47999954223633,32.189998626708984,32.38999938964844,32.38999938964844,208200
2018-05-17,33.70000076293945,33.70000076293945,32.099998474121094,32.65999984741211,32.65999984741211,203400
2018-05-18,33.09000015258789,33.900001525878906,32.650001525878906,32.959999084472656,32.959999084472656,168400
2018-05-21,32.9900016784668,33.75,32.869998931884766,33.619998931884766,33.619998931884766,108700
2018-05-22,33.72999954223633,34.1349983215332,33.02000045776367,33.41999816894531,33.41999816894531,195500
2018-05-23,33.20000076293945,33.33000183105469,31.649999618530273,32.08000183105469,32.08000183105469,172700
2018-05-24,31.850000381469727,32.34000015258789,31.010000228881836,32.130001068115234,32.130001068115234,183800
2018-05-25,32.18000030517578,32.650001525878906,31.25,32.119998931884766,32.119998931884766,168400
2018-05-29,31.799999237060547,32.41999816894531,31.25,32.150001525878906,32.150001525878906,170900
2018-05-30,32.40999984741211,34.0,32.130001068115234,33.47999954223633,33.47999954223633,336200
2018-05-31,33.400001525878906,34.20000076293945,31.790000915527344,32.119998931884766,32.119998931884766,204500
2018-06-01,32.41999816894531,33.2400016784668,31.954999923706055,32.90999984741211,32.90999984741211,120400
2018-06-04,32.88999938964844,33.630001068115234,31.131000518798828,31.469999313354492,31.469999313354492,161500
2018-06-05,31.399999618530273,31.979999542236328,31.030000686645508,31.40999984741211,31.40999984741211,103600
2018-06-06,31.389999389648438,31.8799991607666,31.0,31.3700008392334,31.3700008392334,134700
2018-06-07,31.350000381469727,32.150001525878906,31.350000381469727,31.940000534057617,31.940000534057617,75800
2018-06-08,31.940000534057617,32.36000061035156,31.260000228881836,31.440000534057617,31.440000534057617,123000
2018-06-11,31.559999465942383,32.31999969482422,31.06999969482422,32.099998474121094,32.099998474121094,221500
2018-06-12,32.11000061035156,33.0,31.985000610351562,32.25,32.25,180400
2018-06-13,32.34000015258789,33.2400016784668,32.31999969482422,33.11000061035156,33.11000061035156,216400
2018-06-14,33.16999816894531,34.11000061035156,32.75,33.25,33.25,207400
2018-06-15,33.119998931884766,33.7400016784668,32.650001525878906,32.9900016784668,32.9900016784668,578100
2018-06-18,33.150001525878906,34.150001525878906,32.314998626708984,32.779998779296875,32.779998779296875,255500
2018-06-19,32.779998779296875,33.11000061035156,32.25,32.779998779296875,32.779998779296875,163000
2018-06-20,32.900001525878906,32.970001220703125,31.820999145507812,32.45000076293945,32.45000076293945,183400
2018-06-21,32.33000183105469,32.720001220703125,30.604999542236328,30.790000915527344,30.790000915527344,264800
2018-06-22,31.709999084472656,33.650001525878906,31.649999618530273,33.2599983215332,33.2599983215332,307500
2018-06-25,33.06999969482422,33.38999938964844,32.0,32.939998626708984,32.939998626708984,105700
2018-06-26,33.150001525878906,34.130001068115234,32.459999084472656,33.630001068115234,33.630001068115234,85900
2018-06-27,33.869998931884766,34.5,33.5099983215332,33.650001525878906,33.650001525878906,90000
2018-06-28,33.4900016784668,33.4900016784668,32.25,32.43000030517578,32.43000030517578,100300
2018-06-29,32.459999084472656,33.380001068115234,32.0,32.130001068115234,32.130001068115234,159800
2018-07-02,31.260000228881836,32.25400161743164,31.260000228881836,32.150001525878906,32.150001525878906,48600
2018-07-03,33.13999938964844,33.650001525878906,32.5,33.150001525878906,33.150001525878906,56900
2018-07-05,33.2400016784668,33.650001525878906,32.75,33.18000030517578,33.18000030517578,85700
2018-07-06,32.459999084472656,34.06999969482422,32.459999084472656,34.06999969482422,34.06999969482422,49700
2018-07-09,34.310001373291016,35.220001220703125,34.209999084472656,35.209999084472656,35.209999084472656,74300
2018-07-10,35.77000045776367,35.77000045776367,34.56999969482422,34.7400016784668,34.7400016784668,110200
2018-07-11,34.060001373291016,34.90999984741211,33.68000030517578,33.7599983215332,33.7599983215332,45900
2018-07-12,34.0,34.01499938964844,33.040000915527344,33.400001525878906,33.400001525878906,90900
2018-07-13,33.220001220703125,33.959999084472656,33.029998779296875,33.189998626708984,33.189998626708984,39800
2018-07-16,32.650001525878906,33.23899841308594,32.220001220703125,32.529998779296875,32.529998779296875,62400
2018-07-17,32.38999938964844,32.790000915527344,32.13999938964844,32.40999984741211,32.40999984741211,32700
2018-07-18,32.11000061035156,33.15999984741211,31.700000762939453,33.09000015258789,33.09000015258789,89200
2018-07-19,32.349998474121094,34.25,32.349998474121094,34.11000061035156,34.11000061035156,115100
2018-07-20,34.529998779296875,34.630001068115234,33.7400016784668,34.54999923706055,34.54999923706055,91900
2018-07-23,34.63999938964844,34.95000076293945,34.040000915527344,34.939998626708984,34.939998626708984,62700
2018-07-24,35.0,35.650001525878906,34.720001220703125,35.27000045776367,35.27000045776367,130500
2018-07-25,35.36000061035156,35.61000061035156,34.650001525878906,35.369998931884766,35.369998931884766,66600
2018-07-26,35.40999984741211,35.650001525878906,34.880001068115234,35.470001220703125,35.470001220703125,63300
2018-07-27,35.5099983215332,35.5099983215332,34.0,34.25,34.25,60500
2018-07-30,34.91999816894531,36.9900016784668,34.380001068115234,36.90999984741211,36.90999984741211,136700
2018-07-31,36.79999923706055,37.34000015258789,35.84000015258789,37.13999938964844,37.13999938964844,142500
2018-08-01,36.45000076293945,37.13999938964844,36.15999984741211,36.83000183105469,36.83000183105469,46500
2018-08-02,36.459999084472656,37.58000183105469,36.375,37.470001220703125,37.470001220703125,64600
2018-08-03,37.52000045776367,37.63999938964844,36.75,36.91999816894531,36.91999816894531,45500
2018-08-06,37.380001068115234,37.400001525878906,36.77000045776367,37.09000015258789,37.09000015258789,76200
2018-08-07,37.5,37.599998474121094,35.650001525878906,35.84000015258789,35.84000015258789,95200
2018-08-08,35.75,36.38999938964844,34.7599983215332,35.279998779296875,35.279998779296875,93500
2018-08-09,35.279998779296875,36.0,34.0099983215332,34.290000915527344,34.290000915527344,80900
2018-08-10,34.290000915527344,34.959999084472656,33.779998779296875,33.95000076293945,33.95000076293945,35300
2018-08-13,33.849998474121094,33.849998474121094,32.0,32.45000076293945,32.45000076293945,93100
2018-08-14,32.689998626708984,33.290000915527344,32.08000183105469,32.45000076293945,32.45000076293945,86100
2018-08-15,31.6200008392334,32.525001525878906,30.799999237060547,31.3700008392334,31.3700008392334,133600
2018-08-16,31.540000915527344,31.915000915527344,30.940000534057617,31.010000228881836,31.010000228881836,85700
2018-08-17,31.030000686645508,31.889999389648438,31.0,31.440000534057617,31.440000534057617,59500
2018-08-20,31.540000915527344,31.610000610351562,30.260000228881836,30.329999923706055,30.329999923706055,133900
2018-08-21,31.200000762939453,31.459999084472656,30.270000457763672,30.360000610351562,30.360000610351562,79400
2018-08-22,30.329999923706055,31.170000076293945,30.280000686645508,30.969999313354492,30.969999313354492,112500
2018-08-23,30.920000076293945,31.079999923706055,30.540000915527344,30.81999969482422,30.81999969482422,182500
2018-08-24,31.3799991607666,31.579999923706055,30.719999313354492,30.860000610351562,30.860000610351562,127900
2018-08-27,31.149999618530273,34.0,30.969999313354492,33.630001068115234,33.630001068115234,235900
2018-08-28,33.84000015258789,34.209999084472656,33.31999969482422,33.83000183105469,33.83000183105469,194700
2018-08-29,34.5,34.599998474121094,33.84000015258789,34.16999816894531,34.16999816894531,101500
2018-08-30,34.209999084472656,34.59000015258789,33.68000030517578,34.310001373291016,34.310001373291016,106100
2018-08-31,33.970001220703125,34.63999938964844,33.40999984741211,34.52000045776367,34.52000045776367,161800
2018-09-04,34.59000015258789,34.599998474121094,33.2400016784668,33.40999984741211,33.40999984741211,114200
2018-09-05,33.349998474121094,34.2130012512207,33.0,33.939998626708984,33.939998626708984,452300
2018-09-06,34.15999984741211,34.47999954223633,33.71500015258789,33.79999923706055,33.79999923706055,219300
2018-09-07,33.11000061035156,34.48500061035156,33.11000061035156,34.41999816894531,34.41999816894531,180300
2018-09-10,34.72999954223633,35.31999969482422,34.529998779296875,35.06999969482422,35.06999969482422,200900
2018-09-11,35.06999969482422,36.0,34.849998474121094,35.470001220703125,35.470001220703125,195300
2018-09-12,36.459999084472656,36.459999084472656,35.09000015258789,36.040000915527344,36.040000915527344,306100
2018-09-13,36.20000076293945,36.209999084472656,34.22999954223633,34.439998626708984,34.439998626708984,187500
2018-09-14,34.16999816894531,35.459999084472656,34.16999816894531,34.84000015258789,34.84000015258789,142500
2018-09-17,35.54999923706055,35.54999923706055,32.59000015258789,32.619998931884766,32.619998931884766,105300
2018-09-18,32.90999984741211,33.13999938964844,31.68000030517578,31.950000762939453,31.950000762939453,95600
2018-09-19,32.25,32.849998474121094,31.8700008392334,32.5,32.5,107000
2018-09-20,32.63999938964844,32.959999084472656,31.049999237060547,31.170000076293945,31.170000076293945,155100
2018-09-21,31.489999771118164,32.04999923706055,31.190000534057617,31.600000381469727,31.600000381469727,443100
2018-09-24,31.8700008392334,32.630001068115234,31.25,32.540000915527344,32.540000915527344,126200
2018-09-25,32.7400016784668,33.189998626708984,32.37099838256836,32.529998779296875,32.529998779296875,92600
2018-09-26,31.799999237060547,32.869998931884766,31.799999237060547,32.15999984741211,32.15999984741211,69800
2018-09-27,32.56999969482422,32.599998474121094,32.01499938964844,32.27000045776367,32.27000045776367,52700
2018-09-28,32.209999084472656,33.689998626708984,32.029998779296875,32.81999969482422,32.81999969482422,111800
2018-10-01,33.029998779296875,33.70000076293945,32.64400100708008,33.630001068115234,33.630001068115234,220100
2018-10-02,33.63999938964844,33.70000076293945,33.04999923706055,33.29999923706055,33.29999923706055,65400
2018-10-03,33.15999984741211,34.279998779296875,33.15999984741211,33.83000183105469,33.83000183105469,155500
2018-10-04,33.61000061035156,33.70000076293945,33.060001373291016,33.33000183105469,33.33000183105469,92100
2018-10-05,33.349998474121094,33.630001068115234,33.04999923706055,33.439998626708984,33.439998626708984,70800
2018-10-08,33.400001525878906,33.630001068115234,33.040000915527344,33.16999816894531,33.16999816894531,108300
2018-10-09,33.189998626708984,34.0,33.0099983215332,33.2599983215332,33.2599983215332,161500
2018-10-10,33.18000030517578,33.900001525878906,31.899999618530273,31.940000534057617,31.940000534057617,166200
2018-10-11,31.260000228881836,31.809999465942383,30.549999237060547,30.84000015258789,30.84000015258789,169100
2018-10-12,31.559999465942383,31.559999465942383,30.905000686645508,31.190000534057617,31.190000534057617,85300
2018-10-15,31.8700008392334,31.8700008392334,30.8700008392334,31.18000030517578,31.18000030517578,39200
2018-10-16,31.790000915527344,31.950000762939453,31.280000686645508,31.3799991607666,31.3799991607666,68400
2018-10-17,31.34000015258789,31.34000015258789,28.780000686645508,29.829999923706055,29.829999923706055,197800
2018-10-18,29.190000534057617,29.614999771118164,28.389999389648438,29.200000762939453,29.200000762939453,210500
2018-10-19,29.059999465942383,29.75,29.059999465942383,29.549999237060547,29.549999237060547,167800
2018-10-22,29.510000228881836,30.5,29.020000457763672,29.959999084472656,29.959999084472656,156700
2018-10-23,28.829999923706055,29.520000457763672,28.485000610351562,29.149999618530273,29.149999618530273,126700
2018-10-24,29.790000915527344,29.790000915527344,27.139999389648438,27.190000534057617,27.190000534057617,164900
2018-10-25,27.850000381469727,28.25,27.25,27.469999313354492,27.469999313354492,142400
2018-10-26,27.100000381469727,27.31999969482422,26.3700008392334,26.610000610351562,26.610000610351562,170000
2018-10-29,26.959999084472656,26.959999084472656,24.889999389648438,25.31999969482422,25.31999969482422,146200
2018-10-30,25.1200008392334,25.809999465942383,24.639999389648438,25.450000762939453,25.450000762939453,130100
2018-10-31,25.8700008392334,26.75,25.649999618530273,26.059999465942383,26.059999465942383,129100
2018-11-01,26.219999313354492,26.950000762939453,25.969999313354492,26.059999465942383,26.059999465942383,81500
2018-11-02,25.940000534057617,26.43000030517578,24.81999969482422,24.969999313354492,24.969999313354492,107700
2018-11-05,25.81999969482422,25.93000030517578,24.760000228881836,25.3799991607666,25.3799991607666,87200
2018-11-06,25.290000915527344,27.059999465942383,25.290000915527344,25.59000015258789,25.59000015258789,147700
2018-11-07,25.809999465942383,26.6200008392334,24.100000381469727,24.420000076293945,24.420000076293945,119000
2018-11-08,24.270000457763672,24.530000686645508,23.440000534057617,23.520000457763672,23.520000457763672,108800
2018-11-09,23.1299991607666,23.43600082397461,21.90999984741211,22.809999465942383,22.809999465942383,199000
2018-11-12,23.719999313354492,23.75,22.479999542236328,22.510000228881836,22.510000228881836,125700
2018-11-13,22.479999542236328,22.719999313354492,21.5,21.719999313354492,21.719999313354492,94500
2018-11-14,22.200000762939453,22.690000534057617,21.469999313354492,21.579999923706055,21.579999923706055,110100
2018-11-15,21.6200008392334,22.270000457763672,21.31999969482422,21.90999984741211,21.90999984741211,84000
2018-11-16,22.25,22.25,21.040000915527344,21.389999389648438,21.389999389648438,108700
2018-11-19,20.6200008392334,21.700000762939453,20.6200008392334,21.290000915527344,21.290000915527344,116900
2018-11-20,20.81999969482422,20.8700008392334,17.8799991607666,18.8700008392334,18.8700008392334,309700
2018-11-21,19.3799991607666,20.139999389648438,19.049999237060547,19.6200008392334,19.6200008392334,207300
2018-11-23,18.510000228881836,19.520000457763672,18.34000015258789,19.3700008392334,19.3700008392334,78400
2018-11-26,19.469999313354492,19.85099983215332,18.950000762939453,19.639999389648438,19.639999389648438,195500
2018-11-27,19.489999771118164,19.75,18.860000610351562,19.139999389648438,19.139999389648438,126200
2018-11-28,18.579999923706055,19.700000762939453,18.579999923706055,19.559999465942383,19.559999465942383,149200
2018-11-29,19.979999542236328,20.209999084472656,19.469999313354492,19.579999923706055,19.579999923706055,43800
2018-11-30,19.1200008392334,19.489999771118164,18.989999771118164,19.31999969482422,19.31999969482422,114600
2018-12-03,19.989999771118164,20.719999313354492,19.829999923706055,20.65999984741211,20.65999984741211,207000
2018-12-04,20.6299991607666,20.6299991607666,19.280000686645508,19.489999771118164,19.489999771118164,122600
2018-12-06,18.420000076293945,19.610000610351562,18.420000076293945,19.329999923706055,19.329999923706055,172500
2018-12-07,19.799999237060547,20.020000457763672,19.110000610351562,19.329999923706055,19.329999923706055,106500
2018-12-10,18.799999237060547,18.940000534057617,17.829999923706055,18.25,18.25,114000
2018-12-11,19.260000228881836,19.260000228881836,18.200000762939453,18.719999313354492,18.719999313354492,188700
2018-12-12,19.780000686645508,19.860000610351562,19.020000457763672,19.260000228881836,19.260000228881836,106600
2018-12-13,19.530000686645508,19.530000686645508,18.200000762939453,18.40999984741211,18.40999984741211,151000
2018-12-14,18.34000015258789,18.559999465942383,17.940000534057617,18.110000610351562,18.110000610351562,133900
2018-12-17,17.93000030517578,18.559999465942383,17.43000030517578,17.559999465942383,17.559999465942383,157800
2018-12-18,17.6200008392334,17.6200008392334,16.649999618530273,16.670000076293945,16.670000076293945,137400
2018-12-19,17.15999984741211,17.260000228881836,16.280000686645508,16.360000610351562,16.360000610351562,217400
2018-12-20,15.779999732971191,16.530000686645508,15.59000015258789,15.65999984741211,15.65999984741211,137000
2018-12-21,15.369999885559082,15.819999694824219,14.8100004196167,15.100000381469727,15.100000381469727,466000
2018-12-24,14.600000381469727,15.300000190734863,14.600000381469727,14.920000076293945,14.920000076293945,58900
2018-12-26,14.770000457763672,16.81999969482422,14.680000305175781,16.739999771118164,16.739999771118164,193500
2018-12-27,16.229999542236328,17.0,16.030000686645508,16.68000030517578,16.68000030517578,109300
2018-12-28,16.440000534057617,16.989999771118164,16.3700008392334,16.399999618530273,16.399999618530273,103100
2018-12-31,16.709999084472656,16.889999389648438,15.819999694824219,16.31999969482422,16.31999969482422,96100
2019-01-02,15.420000076293945,17.520000457763672,15.420000076293945,17.350000381469727,17.350000381469727,100300
2019-01-03,17.610000610351562,18.219999313354492,17.09000015258789,17.3799991607666,17.3799991607666,90100
2019-01-04,18.520000457763672,18.6200008392334,17.510000228881836,18.600000381469727,18.600000381469727,79500
2019-01-07,19.489999771118164,19.489999771118164,18.239999771118164,18.940000534057617,18.940000534057617,85700
2019-01-08,19.239999771118164,19.350000381469727,18.760000228881836,19.280000686645508,19.280000686645508,131400
2019-01-09,19.700000762939453,19.700000762939453,19.170000076293945,19.56999969482422,19.56999969482422,120800
2019-01-10,19.350000381469727,19.899999618530273,18.8799991607666,19.6200008392334,19.6200008392334,126600
2019-01-11,19.469999313354492,19.469999313354492,18.59000015258789,18.81999969482422,18.81999969482422,87300
2019-01-14,18.559999465942383,19.0049991607666,18.420000076293945,18.649999618530273,18.649999618530273,137600
2019-01-15,19.079999923706055,19.110000610351562,18.610000610351562,18.799999237060547,18.799999237060547,152200
2019-01-16,18.90999984741211,20.610000610351562,18.90999984741211,20.270000457763672,20.270000457763672,220000
2019-01-17,19.739999771118164,20.81999969482422,19.739999771118164,20.809999465942383,20.809999465942383,162400
2019-01-18,21.040000915527344,21.510000228881836,20.649999618530273,21.219999313354492,21.219999313354492,213300
2019-01-22,21.239999771118164,21.25,20.190000534057617,20.5,20.5,155500
2019-01-23,20.68000030517578,21.020000457763672,20.110000610351562,20.559999465942383,20.559999465942383,107100
2019-01-24,20.90999984741211,21.3700008392334,20.219999313354492,21.329999923706055,21.329999923706055,116700
2019-01-25,21.3700008392334,21.65999984741211,20.09000015258789,20.139999389648438,20.139999389648438,114300
2019-01-28,19.690000534057617,19.690000534057617,18.649999618530273,19.25,19.25,110100
2019-01-29,19.860000610351562,19.860000610351562,18.65999984741211,18.979999542236328,18.979999542236328,111300
2019-01-30,19.530000686645508,19.579999923706055,18.809999465942383,19.489999771118164,19.489999771118164,162100
2019-01-31,19.459999084472656,19.530000686645508,18.309999465942383,19.100000381469727,19.100000381469727,177900
2019-02-01,19.110000610351562,19.989999771118164,19.110000610351562,19.780000686645508,19.780000686645508,135600
2019-02-04,19.40999984741211,20.049999237060547,19.100000381469727,20.040000915527344,20.040000915527344,137000
2019-02-05,19.940000534057617,20.600000381469727,19.940000534057617,20.420000076293945,20.420000076293945,165700
2019-02-06,20.360000610351562,20.549999237060547,20.110000610351562,20.170000076293945,20.170000076293945,80000
2019-02-07,19.959999084472656,20.040000915527344,18.704999923706055,18.770000457763672,18.770000457763672,86000
2019-02-08,18.709999084472656,18.760000228881836,18.43000030517578,18.709999084472656,18.709999084472656,93800
2019-02-11,18.329999923706055,19.440000534057617,18.329999923706055,19.399999618530273,19.399999618530273,100800
2019-02-12,20.34000015258789,20.34000015258789,19.59000015258789,20.0,20.0,105900
2019-02-13,20.690000534057617,20.690000534057617,20.049999237060547,20.68000030517578,20.68000030517578,149000
2019-02-14,20.489999771118164,21.270000457763672,20.489999771118164,21.030000686645508,21.030000686645508,156100
2019-02-15,21.43000030517578,21.8799991607666,21.200000762939453,21.860000610351562,21.860000610351562,97300
2019-02-19,21.700000762939453,22.149999618530273,21.239999771118164,21.979999542236328,21.979999542236328,192100
2019-02-20,21.950000762939453,22.799999237060547,21.950000762939453,22.690000534057617,22.690000534057617,111000
2019-02-21,22.700000762939453,22.940000534057617,22.350000381469727,22.540000915527344,22.540000915527344,164800
2019-02-22,22.81999969482422,23.1200008392334,22.420000076293945,23.010000228881836,23.010000228881836,133900
2019-02-25,22.34000015258789,23.334999084472656,22.34000015258789,22.90999984741211,22.90999984741211,85900
2019-02-26,22.75,23.399999618530273,22.079999923706055,22.399999618530273,22.399999618530273,167900
2019-02-27,22.530000686645508,23.170000076293945,22.489999771118164,22.700000762939453,22.700000762939453,122500
2019-02-28,22.729999542236328,22.729999542236328,22.149999618530273,22.450000762939453,22.450000762939453,123000
2019-03-01,22.540000915527344,23.389999389648438,22.479999542236328,23.3799991607666,23.3799991607666,127300
2019-03-04,23.579999923706055,23.75,23.15999984741211,23.459999084472656,23.459999084472656,69700
2019-03-05,23.469999313354492,23.71500015258789,22.799999237060547,23.06999969482422,23.06999969482422,132700
2019-03-06,22.969999313354492,23.139999389648438,22.719999313354492,22.729999542236328,22.729999542236328,114900
2019-03-07,22.790000915527344,23.030000686645508,22.040000915527344,22.229999542236328,22.229999542236328,119500
2019-03-08,21.959999084472656,21.959999084472656,21.170000076293945,21.450000762939453,21.450000762939453,123300
2019-03-11,21.549999237060547,21.979999542236328,21.079999923706055,21.829999923706055,21.829999923706055,130600
2019-03-12,21.979999542236328,22.59000015258789,21.700000762939453,22.229999542236328,22.229999542236328,187300
2019-03-13,22.34000015258789,22.969999313354492,22.34000015258789,22.75,22.75,135100
2019-03-14,24.239999771118164,26.149999618530273,24.239999771118164,24.850000381469727,24.850000381469727,634000
2019-03-15,24.729999542236328,25.239999771118164,24.040000915527344,24.809999465942383,24.809999465942383,575300
2019-03-18,24.959999084472656,25.31999969482422,24.40999984741211,24.959999084472656,24.959999084472656,280000
2019-03-19,25.209999084472656,25.700000762939453,24.780000686645508,25.149999618530273,25.149999618530273,177900
2019-03-20,25.18000030517578,26.700000762939453,25.110000610351562,25.979999542236328,25.979999542236328,313200
2019-03-21,26.049999237060547,26.639999389648438,25.940000534057617,26.329999923706055,26.329999923706055,235900
2019-03-22,26.290000915527344,26.459999084472656,24.944000244140625,25.280000686645508,25.280000686645508,183600
2019-03-25,25.209999084472656,25.440000534057617,24.5,25.299999237060547,25.299999237060547,126400
2019-03-26,25.84000015258789,26.799999237060547,25.719999313354492,26.469999313354492,26.469999313354492,195300
2019-03-27,26.809999465942383,27.530000686645508,26.309999465942383,27.170000076293945,27.170000076293945,144100
2019-03-28,27.100000381469727,27.75,26.75,26.979999542236328,26.979999542236328,112900
2019-03-29,27.440000534057617,27.530000686645508,26.299999237060547,26.559999465942383,26.559999465942383,249900
2019-04-01,27.219999313354492,27.770000457763672,26.959999084472656,27.049999237060547,27.049999237060547,233100
2019-04-02,27.010000228881836,27.343000411987305,26.660999298095703,26.780000686645508,26.780000686645508,219400
2019-04-03,27.049999237060547,27.299999237060547,26.030000686645508,26.059999465942383,26.059999465942383,199600
2019-04-04,26.020000457763672,26.350000381469727,25.6200008392334,25.950000762939453,25.950000762939453,315900
2019-04-05,26.139999389648438,27.007999420166016,26.09000015258789,26.690000534057617,26.690000534057617,662000
2019-04-08,26.8799991607666,27.149999618530273,25.969999313354492,26.420000076293945,26.420000076293945,404900
2019-04-09,26.34000015258789,26.885000228881836,26.149999618530273,26.530000686645508,26.530000686645508,226100
2019-04-10,26.549999237060547,27.110000610351562,26.200000762939453,26.8799991607666,26.8799991607666,189900
2019-04-11,27.0,27.600000381469727,26.520000457763672,27.1299991607666,27.1299991607666,141300
2019-04-12,27.84000015258789,28.8799991607666,27.530000686645508,28.530000686645508,28.530000686645508,244800
2019-04-15,28.510000228881836,29.280000686645508,27.5,27.799999237060547,27.799999237060547,214700
2019-04-16,28.030000686645508,28.8700008392334,28.030000686645508,28.649999618530273,28.649999618530273,421300
2019-04-17,28.899999618530273,29.299999237060547,28.610000610351562,28.809999465942383,28.809999465942383,249400
2019-04-18,28.84000015258789,29.360000610351562,28.235000610351562,28.889999389648438,28.889999389648438,193600
2019-04-22,29.3799991607666,30.149999618530273,29.299999237060547,29.809999465942383,29.809999465942383,334400
2019-04-23,30.0,30.809999465942383,29.700000762939453,30.549999237060547,30.549999237060547,237200
2019-04-24,30.75,30.93000030517578,29.290000915527344,29.3700008392334,29.3700008392334,336900
2019-04-25,29.350000381469727,29.540000915527344,28.520000457763672,28.979999542236328,28.979999542236328,235800
2019-04-26,28.31999969482422,28.736000061035156,27.479999542236328,28.549999237060547,28.549999237060547,342000
2019-04-29,28.5,29.91699981689453,28.299999237060547,29.65999984741211,29.65999984741211,188200
2019-04-30,29.829999923706055,29.850000381469727,29.0,29.700000762939453,29.700000762939453,250100
2019-05-01,29.8700008392334,30.260000228881836,29.309999465942383,29.389999389648438,29.389999389648438,261200
2019-05-02,29.010000228881836,29.389999389648438,28.309999465942383,28.690000534057617,28.690000534057617,162100
2019-05-03,29.0,29.299999237060547,28.954999923706055,29.149999618530273,29.149999618530273,251000
2019-05-06,28.809999465942383,29.799999237060547,28.690000534057617,29.649999618530273,29.649999618530273,375900
2019-05-07,29.309999465942383,29.549999237060547,28.280000686645508,29.079999923706055,29.079999923706055,271700
2019-05-08,29.020000457763672,29.5,28.670000076293945,28.8700008392334,28.8700008392334,244500
2019-05-09,28.790000915527344,29.1299991607666,26.59000015258789,28.510000228881836,28.510000228881836,265300
2019-05-10,28.309999465942383,28.860000610351562,27.489999771118164,28.329999923706055,28.329999923706055,225200
2019-05-13,27.920000076293945,27.920000076293945,26.90999984741211,27.729999542236328,27.729999542236328,265000
2019-05-14,28.5,28.5,27.760000228881836,27.959999084472656,27.959999084472656,256700
2019-05-15,27.6200008392334,28.350000381469727,27.260000228881836,28.25,28.25,126100
2019-05-16,28.25,28.749000549316406,28.135000228881836,28.360000610351562,28.360000610351562,125600
2019-05-17,27.969999313354492,28.229999542236328,27.459999084472656,27.549999237060547,27.549999237060547,169000
2019-05-20,27.389999389648438,27.690000534057617,27.100000381469727,27.239999771118164,27.239999771118164,224400
2019-05-21,27.280000686645508,28.229999542236328,27.149999618530273,28.200000762939453,28.200000762939453,295500
2019-05-22,27.809999465942383,27.816999435424805,26.799999237060547,26.81999969482422,26.81999969482422,128600
2019-05-23,26.18000030517578,26.18000030517578,24.225000381469727,24.729999542236328,24.729999542236328,264500
2019-05-24,25.040000915527344,25.06999969482422,24.350000381469727,24.959999084472656,24.959999084472656,252000
2019-05-28,25.010000228881836,25.2549991607666,24.700000762939453,24.90999984741211,24.90999984741211,229300
2019-05-29,24.459999084472656,25.010000228881836,24.139999389648438,24.899999618530273,24.899999618530273,253600
2019-05-30,24.860000610351562,25.219999313354492,24.329999923706055,24.610000610351562,24.610000610351562,159100
2019-05-31,23.969999313354492,24.0,23.0,23.34000015258789,23.34000015258789,279100
2019-06-03,23.34000015258789,24.190000534057617,23.34000015258789,23.770000457763672,23.770000457763672,243500
2019-06-04,23.989999771118164,24.149999618530273,23.40999984741211,24.110000610351562,24.110000610351562,321100
2019-06-05,23.559999465942383,24.100000381469727,21.1299991607666,22.40999984741211,22.40999984741211,305900
2019-06-06,22.389999389648438,22.860000610351562,22.114999771118164,22.649999618530273,22.649999618530273,239300
2019-06-07,22.690000534057617,22.788000106811523,22.25,22.40999984741211,22.40999984741211,176600
2019-06-10,22.489999771118164,23.1299991607666,22.299999237060547,22.389999389648438,22.389999389648438,147200
2019-06-11,22.65999984741211,22.989999771118164,22.440000534057617,22.469999313354492,22.469999313354492,294700
2019-06-12,21.770000457763672,22.239999771118164,21.520000457763672,21.75,21.75,383000
2019-06-13,22.709999084472656,22.709999084472656,21.979999542236328,22.530000686645508,22.530000686645508,345800
2019-06-14,22.549999237060547,22.65999984741211,22.229999542236328,22.459999084472656,22.459999084472656,261000
2019-06-17,22.280000686645508,23.059999465942383,22.202999114990234,22.959999084472656,22.959999084472656,554900
2019-06-18,23.18000030517578,23.600000381469727,22.90999984741211,23.479999542236328,23.479999542236328,564800
2019-06-19,23.5,23.5,22.30500030517578,22.43000030517578,22.43000030517578,361300
2019-06-20,22.920000076293945,23.670000076293945,22.780000686645508,23.489999771118164,23.489999771118164,493300
2019-06-21,23.43000030517578,23.881999969482422,23.25,23.280000686645508,23.280000686645508,437700
2019-06-24,23.280000686645508,23.524999618530273,22.200000762939453,22.309999465942383,22.309999465942383,251900
2019-06-25,22.200000762939453,22.479999542236328,21.739999771118164,22.139999389648438,22.139999389648438,248700
2019-06-26,22.6299991607666,23.200000762939453,22.329999923706055,22.459999084472656,22.459999084472656,359300
2019-06-27,22.639999389648438,23.729999542236328,22.34000015258789,23.309999465942383,23.309999465942383,252500
2019-06-28,23.389999389648438,24.1200008392334,23.110000610351562,24.049999237060547,24.049999237060547,631800
2019-07-01,24.729999542236328,25.469999313354492,24.520000457763672,25.420000076293945,25.420000076293945,587500
2019-07-02,25.280000686645508,25.350000381469727,24.540000915527344,24.860000610351562,24.860000610351562,260100
2019-07-03,25.110000610351562,25.420000076293945,24.479999542236328,24.760000228881836,24.760000228881836,193000
2019-07-05,24.799999237060547,25.549999237060547,24.770000457763672,25.40999984741211,25.40999984741211,359900
2019-07-08,25.3799991607666,26.415000915527344,25.299999237060547,25.610000610351562,25.610000610351562,370000
2019-07-09,25.3799991607666,25.59000015258789,24.809999465942383,25.09000015258789,25.09000015258789,192500
2019-07-10,25.479999542236328,26.0,25.200000762939453,25.459999084472656,25.459999084472656,241800
2019-07-11,25.479999542236328,25.690000534057617,24.270000457763672,24.729999542236328,24.729999542236328,282800
2019-07-12,24.520000457763672,24.8799991607666,24.489999771118164,24.75,24.75,200700
2019-07-15,24.969999313354492,24.969999313354492,23.959999084472656,24.149999618530273,24.149999618530273,194200
2019-07-16,24.200000762939453,24.59000015258789,23.729999542236328,23.799999237060547,23.799999237060547,469400
2019-07-17,23.729999542236328,23.790000915527344,22.450000762939453,22.459999084472656,22.459999084472656,224900
2019-07-18,22.329999923706055,22.450000762939453,21.899999618530273,22.299999237060547,22.299999237060547,230100
2019-07-19,22.280000686645508,22.68000030517578,22.033000946044922,22.600000381469727,22.600000381469727,128000
2019-07-22,22.639999389648438,22.915000915527344,22.010000228881836,22.049999237060547,22.049999237060547,197700
2019-07-23,22.010000228881836,22.3700008392334,21.579999923706055,22.139999389648438,22.139999389648438,198500
2019-07-24,22.100000381469727,22.690000534057617,22.010000228881836,22.600000381469727,22.600000381469727,359900
2019-07-25,22.56999969482422,22.56999969482422,21.209999084472656,21.690000534057617,21.690000534057617,257400
2019-07-26,21.639999389648438,21.65999984741211,21.020000457763672,21.200000762939453,21.200000762939453,193400
2019-07-29,21.110000610351562,21.110000610351562,19.760000228881836,19.84000015258789,19.84000015258789,266200
2019-07-30,19.6200008392334,20.94499969482422,19.260000228881836,20.649999618530273,20.649999618530273,254100
2019-07-31,21.1299991607666,21.469999313354492,20.549999237060547,20.579999923706055,20.579999923706055,250400
2019-08-01,20.280000686645508,20.5,19.56399917602539,19.920000076293945,19.920000076293945,337900
2019-08-02,20.40999984741211,20.40999984741211,19.3700008392334,19.709999084472656,19.709999084472656,217200
2019-08-05,18.989999771118164,19.489999771118164,18.700000762939453,19.239999771118164,19.239999771118164,306400
2019-08-06,19.360000610351562,19.549999237060547,18.860000610351562,19.299999237060547,19.299999237060547,185700
2019-08-07,18.8700008392334,18.93000030517578,17.860000610351562,18.3700008392334,18.3700008392334,421100
2019-08-08,21.399999618530273,21.600000381469727,19.200000762939453,20.010000228881836,20.010000228881836,637900
2019-08-09,20.43000030517578,20.540000915527344,19.81999969482422,19.93000030517578,19.93000030517578,266600
2019-08-12,19.760000228881836,20.290000915527344,19.450000762939453,20.229999542236328,20.229999542236328,286400
2019-08-13,19.690000534057617,20.799999237060547,19.690000534057617,20.1200008392334,20.1200008392334,188000
2019-08-14,19.5,19.770000457763672,18.969999313354492,19.420000076293945,19.420000076293945,314100
2019-08-15,19.309999465942383,19.389999389648438,18.684999465942383,18.760000228881836,18.760000228881836,136500
2019-08-16,18.81999969482422,19.459999084472656,18.760000228881836,19.309999465942383,19.309999465942383,199100
2019-08-19,19.75,20.610000610351562,19.57699966430664,20.469999313354492,20.469999313354492,248500
2019-08-20,20.399999618530273,21.25,20.239999771118164,21.100000381469727,21.100000381469727,172100
2019-08-21,21.389999389648438,21.93000030517578,21.0,21.059999465942383,21.059999465942383,371000
2019-08-22,21.079999923706055,21.229999542236328,20.850000381469727,20.8700008392334,20.8700008392334,191100
2019-08-23,20.399999618530273,20.809999465942383,19.889999389648438,19.969999313354492,19.969999313354492,168200
2019-08-26,20.049999237060547,20.299999237060547,19.56999969482422,19.65999984741211,19.65999984741211,213700
2019-08-27,19.780000686645508,19.780000686645508,18.520000457763672,18.68000030517578,18.68000030517578,223500
2019-08-28,18.770000457763672,19.719999313354492,18.719999313354492,19.350000381469727,19.350000381469727,224200
2019-08-29,19.56999969482422,19.93000030517578,19.34000015258789,19.739999771118164,19.739999771118164,132600
2019-08-30,19.75,19.790000915527344,18.780000686645508,19.040000915527344,19.040000915527344,178800
2019-09-03,18.65999984741211,19.100000381469727,18.25,18.979999542236328,18.979999542236328,164500
2019-09-04,19.459999084472656,19.979999542236328,19.06999969482422,19.700000762939453,19.700000762939453,205900
2019-09-05,19.93000030517578,20.889999389648438,19.809999465942383,20.479999542236328,20.479999542236328,195500
2019-09-06,20.329999923706055,20.690000534057617,20.030000686645508,20.68000030517578,20.68000030517578,184900
2019-09-09,20.860000610351562,22.1299991607666,20.6200008392334,22.040000915527344,22.040000915527344,273500
2019-09-10,22.329999923706055,23.5,22.100000381469727,22.229999542236328,22.229999542236328,232700
2019-09-11,22.420000076293945,23.030000686645508,21.760000228881836,22.639999389648438,22.639999389648438,162000
2019-09-12,22.299999237060547,22.600000381469727,21.479999542236328,21.610000610351562,21.610000610351562,147700
2019-09-13,21.93000030517578,22.260000228881836,21.69300079345703,22.229999542236328,22.229999542236328,123000
2019-09-16,24.18000030517578,26.5,24.1299991607666,25.579999923706055,25.579999923706055,548800
2019-09-17,25.5,25.799999237060547,23.459999084472656,23.489999771118164,23.489999771118164,248600
2019-09-18,23.0,23.469999313354492,22.65999984741211,22.950000762939453,22.950000762939453,178100
2019-09-19,23.09000015258789,23.5,22.649999618530273,22.860000610351562,22.860000610351562,195200
2019-09-20,22.829999923706055,24.110000610351562,22.69499969482422,24.020000457763672,24.020000457763672,459800
2019-09-23,23.6200008392334,24.3799991607666,23.459999084472656,24.110000610351562,24.110000610351562,212400
2019-09-24,23.84000015258789,23.84000015258789,22.059999465942383,22.280000686645508,22.280000686645508,215500
2019-09-25,22.0,22.6200008392334,21.75,22.170000076293945,22.170000076293945,196800
2019-09-26,21.829999923706055,22.0,20.979999542236328,21.260000228881836,21.260000228881836,177200
2019-09-27,20.8799991607666,21.600000381469727,20.84000015258789,21.229999542236328,21.229999542236328,110000
2019-09-30,20.920000076293945,21.094999313354492,20.18000030517578,20.329999923706055,20.329999923706055,284800
2019-10-01,20.420000076293945,20.540000915527344,19.34000015258789,19.56999969482422,19.56999969482422,263500
2019-10-02,19.389999389648438,19.59000015258789,18.525999069213867,18.8799991607666,18.8799991607666,347200
2019-10-03,18.639999389648438,19.075000762939453,18.260000228881836,18.899999618530273,18.899999618530273,272800
2019-10-04,18.889999389648438,19.100000381469727,18.530000686645508,18.940000534057617,18.940000534057617,208100
2019-10-07,18.989999771118164,19.84000015258789,18.469999313354492,19.270000457763672,19.270000457763672,360900
2019-10-08,18.799999237060547,19.170000076293945,18.469999313354492,18.520000457763672,18.520000457763672,129700
2019-10-09,18.5,18.829999923706055,17.84000015258789,18.030000686645508,18.030000686645508,264300
2019-10-10,18.15999984741211,18.469999313354492,17.809999465942383,18.219999313354492,18.219999313354492,145200
2019-10-11,18.399999618530273,19.079999923706055,18.399999618530273,18.670000076293945,18.670000076293945,164300
2019-10-14,18.34000015258789,18.440000534057617,17.65999984741211,18.239999771118164,18.239999771118164,111400
2019-10-15,18.100000381469727,18.649999618530273,17.950000762939453,18.389999389648438,18.389999389648438,124200
2019-10-16,18.219999313354492,18.56999969482422,18.09000015258789,18.1299991607666,18.1299991607666,111700
2019-10-17,18.200000762939453,18.565000534057617,17.93000030517578,18.489999771118164,18.489999771118164,161600
2019-10-18,18.389999389648438,18.7810001373291,18.239999771118164,18.34000015258789,18.34000015258789,175700
2019-10-21,18.34000015258789,18.770000457763672,18.34000015258789,18.690000534057617,18.690000534057617,152500
2019-10-22,18.75,19.690000534057617,18.75,19.479999542236328,19.479999542236328,292700
2019-10-23,19.350000381469727,20.09000015258789,19.1299991607666,19.950000762939453,19.950000762939453,177700
2019-10-24,20.09000015258789,20.25,19.049999237060547,19.219999313354492,19.219999313354492,161700
2019-10-25,19.170000076293945,19.989999771118164,19.110000610351562,19.84000015258789,19.84000015258789,122300
2019-10-28,19.899999618530273,20.239999771118164,19.68000030517578,19.729999542236328,19.729999542236328,150300
2019-10-29,21.299999237060547,23.440000534057617,21.010000228881836,23.0,23.0,2219600
2019-10-30,23.059999465942383,23.459999084472656,22.420000076293945,22.450000762939453,22.450000762939453,934900
2019-10-31,22.329999923706055,22.450000762939453,21.360000610351562,21.530000686645508,21.530000686645508,4871800
2019-11-01,21.75,22.93000030517578,21.489999771118164,22.920000076293945,22.920000076293945,493400
2019-11-04,23.190000534057617,24.329999923706055,23.170000076293945,23.579999923706055,23.579999923706055,717700
2019-11-05,23.700000762939453,24.1200008392334,23.510000228881836,24.06999969482422,24.06999969482422,503500
2019-11-06,23.8700008392334,24.479999542236328,23.600000381469727,23.770000457763672,23.770000457763672,477800
2019-11-07,24.1299991607666,25.299999237060547,23.719999313354492,24.110000610351562,24.110000610351562,476100
2019-11-08,23.6200008392334,24.309999465942383,22.8700008392334,24.309999465942383,24.309999465942383,314400
2019-11-11,23.739999771118164,24.239999771118164,23.420000076293945,23.690000534057617,23.690000534057617,297000
2019-11-12,23.950000762939453,24.229999542236328,23.350000381469727,23.780000686645508,23.780000686645508,301100
2019-11-13,23.520000457763672,24.059999465942383,23.475000381469727,23.65999984741211,23.65999984741211,414000
2019-11-14,23.649999618530273,23.969999313354492,23.40999984741211,23.65999984741211,23.65999984741211,185500
2019-11-15,23.850000381469727,24.280000686645508,23.5,24.229999542236328,24.229999542236328,259500
2019-11-18,24.15999984741211,24.15999984741211,23.190000534057617,23.459999084472656,23.459999084472656,369700
2019-11-19,23.270000457763672,23.59000015258789,22.8700008392334,23.479999542236328,23.479999542236328,271900
2019-11-20,23.43000030517578,24.329999923706055,23.172000885009766,23.84000015258789,23.84000015258789,328200
2019-11-21,23.8799991607666,24.40999984741211,23.739999771118164,23.8799991607666,23.8799991607666,325100
2019-11-22,23.989999771118164,24.28499984741211,23.200000762939453,23.209999084472656,23.209999084472656,248600
2019-11-25,23.200000762939453,23.8700008392334,22.860000610351562,23.5,23.5,236600
2019-11-26,23.270000457763672,23.899999618530273,23.1200008392334,23.290000915527344,23.290000915527344,354600
2019-11-27,23.479999542236328,23.860000610351562,23.270000457763672,23.579999923706055,23.579999923706055,280300
2019-11-29,23.270000457763672,23.520000457763672,22.860000610351562,23.200000762939453,23.200000762939453,194000
2019-12-02,23.290000915527344,23.639999389648438,23.149999618530273,23.469999313354492,23.469999313354492,321900
2019-12-03,23.229999542236328,23.649999618530273,22.924999237060547,23.329999923706055,23.329999923706055,360100
2019-12-04,23.799999237060547,24.75,23.799999237060547,24.389999389648438,24.389999389648438,269800
2019-12-05,24.610000610351562,24.719999313354492,23.700000762939453,24.0,24.0,525800
2019-12-06,24.110000610351562,25.530000686645508,24.110000610351562,25.350000381469727,25.350000381469727,443600
2019-12-09,25.020000457763672,25.889999389648438,24.8799991607666,25.420000076293945,25.420000076293945,314100
2019-12-10,25.399999618530273,26.010000228881836,25.399999618530273,25.809999465942383,25.809999465942383,243200
2019-12-11,26.399999618530273,28.809999465942383,26.200000762939453,27.15999984741211,27.15999984741211,830600
2019-12-12,27.260000228881836,28.395000457763672,27.260000228881836,27.989999771118164,27.989999771118164,426300
2019-12-13,27.989999771118164,28.68000030517578,27.540000915527344,27.860000610351562,27.860000610351562,298400
2019-12-16,28.280000686645508,28.8799991607666,28.059999465942383,28.329999923706055,28.329999923706055,385000
2019-12-17,28.420000076293945,29.040000915527344,28.219999313354492,28.93000030517578,28.93000030517578,289300
2019-12-18,28.649999618530273,29.31999969482422,28.649999618530273,28.979999542236328,28.979999542236328,207500
2019-12-19,28.940000534057617,29.170000076293945,28.420000076293945,28.719999313354492,28.719999313354492,315100
2019-12-20,28.860000610351562,28.875,28.34000015258789,28.59000015258789,28.59000015258789,903100
2019-12-23,28.969999313354492,29.5,28.59000015258789,29.399999618530273,29.399999618530273,335200
2019-12-24,29.809999465942383,30.06999969482422,29.459999084472656,29.739999771118164,29.739999771118164,243500
2019-12-26,29.920000076293945,30.3799991607666,29.65999984741211,29.770000457763672,29.770000457763672,212800
2019-12-27,29.90999984741211,30.0,29.389999389648438,29.700000762939453,29.700000762939453,285100
2019-12-30,29.700000762939453,30.19300079345703,29.559999465942383,29.6200008392334,29.6200008392334,352400
2019-12-31,29.299999237060547,30.295000076293945,29.25,30.149999618530273,30.149999618530273,224500
2020-01-02,30.459999084472656,30.652999877929688,29.579999923706055,30.010000228881836,30.010000228881836,253600
2020-01-03,30.6299991607666,30.924999237060547,30.231000900268555,30.56999969482422,30.56999969482422,453800
2020-01-06,30.81999969482422,31.0,30.513999938964844,30.93000030517578,30.93000030517578,483600
2020-01-07,30.719999313354492,31.34000015258789,30.31999969482422,31.309999465942383,31.309999465942383,370800
2020-01-08,31.190000534057617,31.190000534057617,28.649999618530273,29.170000076293945,29.170000076293945,308400
2020-01-09,28.950000762939453,29.375,28.329999923706055,29.170000076293945,29.170000076293945,315000
2020-01-10,28.8700008392334,29.014999389648438,28.059999465942383,28.5,28.5,342900
2020-01-13,28.100000381469727,28.350000381469727,27.510000228881836,28.219999313354492,28.219999313354492,320900
2020-01-14,28.1200008392334,28.375,27.799999237060547,28.139999389648438,28.139999389648438,268600
2020-01-15,27.8700008392334,28.299999237060547,27.5,28.280000686645508,28.280000686645508,363900
2020-01-16,28.540000915527344,29.020000457763672,28.450000762939453,28.610000610351562,28.610000610351562,262600
2020-01-17,28.829999923706055,29.010000228881836,28.260000228881836,28.670000076293945,28.670000076293945,278000
2020-01-21,28.31999969482422,28.75,26.760000228881836,26.959999084472656,26.959999084472656,412000
2020-01-22,26.93000030517578,26.93000030517578,26.15999984741211,26.200000762939453,26.200000762939453,204900
2020-01-23,25.65999984741211,26.530000686645508,25.420000076293945,26.489999771118164,26.489999771118164,273100
2020-01-24,26.290000915527344,26.309999465942383,25.5,26.049999237060547,26.049999237060547,354400
2020-01-27,25.270000457763672,25.770000457763672,24.15999984741211,24.18000030517578,24.18000030517578,375000
2020-01-28,24.420000076293945,25.1200008392334,24.200000762939453,25.010000228881836,25.010000228881836,330400
2020-01-29,25.040000915527344,25.393999099731445,24.34000015258789,24.450000762939453,24.450000762939453,287800
2020-01-30,24.020000457763672,24.53499984741211,23.770000457763672,24.290000915527344,24.290000915527344,356800
2020-01-31,23.700000762939453,23.700000762939453,21.729999542236328,21.940000534057617,21.940000534057617,717800
2020-02-03,22.010000228881836,22.100000381469727,19.364999771118164,19.520000457763672,19.520000457763672,684900
2020-02-04,19.969999313354492,20.25,19.059999465942383,19.25,19.25,712100
2020-02-05,19.459999084472656,20.399999618530273,19.299999237060547,20.110000610351562,20.110000610351562,475600
2020-02-06,20.059999465942383,20.170000076293945,18.649999618530273,19.079999923706055,19.079999923706055,668900
2020-02-07,18.989999771118164,19.079999923706055,18.31999969482422,18.639999389648438,18.639999389648438,382900
2020-02-10,18.459999084472656,18.68000030517578,17.399999618530273,17.780000686645508,17.780000686645508,374800
2020-02-11,17.940000534057617,18.09000015258789,17.5049991607666,17.90999984741211,17.90999984741211,344600
2020-02-12,18.389999389648438,18.885000228881836,18.040000915527344,18.489999771118164,18.489999771118164,309600
2020-02-13,18.420000076293945,18.975000381469727,18.209999084472656,18.799999237060547,18.799999237060547,510800
2020-02-14,18.799999237060547,18.950000762939453,18.18000030517578,18.399999618530273,18.399999618530273,359100
2020-02-18,18.270000457763672,18.451000213623047,17.8700008392334,18.209999084472656,18.209999084472656,337200
2020-02-19,18.489999771118164,19.059999465942383,18.309999465942383,18.75,18.75,373800
2020-02-20,18.799999237060547,18.93899917602539,18.145000457763672,18.3799991607666,18.3799991607666,261900
2020-02-21,18.040000915527344,18.18000030517578,17.549999237060547,17.8799991607666,17.8799991607666,280100
2020-02-24,16.81999969482422,17.239999771118164,16.434999465942383,16.56999969482422,16.56999969482422,565200
2020-02-25,16.56999969482422,16.889999389648438,15.885000228881836,16.1299991607666,16.1299991607666,499600
2020-02-26,16.280000686645508,16.549999237060547,15.0600004196167,15.229999542236328,15.229999542236328,534400
2020-02-27,14.470000267028809,15.0,13.510000228881836,13.829999923706055,13.829999923706055,595900
2020-02-28,13.329999923706055,14.199999809265137,13.079999923706055,14.199999809265137,14.199999809265137,604700
2020-03-02,14.460000038146973,14.760000228881836,13.479999542236328,14.470000267028809,14.470000267028809,466300
2020-03-03,14.420000076293945,14.569999694824219,13.75,14.180000305175781,14.180000305175781,496300
2020-03-04,14.670000076293945,14.670000076293945,13.510000228881836,13.890000343322754,13.890000343322754,600300
2020-03-05,13.5600004196167,13.744000434875488,12.5600004196167,12.880000114440918,12.880000114440918,725100
2020-03-06,12.25,12.699999809265137,11.579999923706055,12.010000228881836,12.010000228881836,876000
2020-03-09,9.5600004196167,9.729999542236328,8.255000114440918,8.300000190734863,8.300000190734863,1160900
2020-03-10,9.109999656677246,9.619999885559082,8.149999618530273,8.619999885559082,8.619999885559082,911800
2020-03-11,8.100000381469727,8.380000114440918,7.099999904632568,7.329999923706055,7.329999923706055,733000
2020-03-12,7.71999979019165,8.567999839782715,7.400000095367432,7.730000019073486,7.730000019073486,947300
2020-03-13,7.75,7.849999904632568,5.900000095367432,6.800000190734863,6.800000190734863,1227900
2020-03-16,5.809999942779541,6.809999942779541,5.739999771118164,5.789999961853027,5.789999961853027,972700
2020-03-17,5.96999979019165,7.349999904632568,5.920000076293945,7.25,7.25,863800
2020-03-18,6.630000114440918,7.289999961853027,6.380000114440918,7.039999961853027,7.039999961853027,565400
2020-03-19,7.170000076293945,8.739999771118164,6.980000019073486,8.390000343322754,8.390000343322754,629100
2020-03-20,8.5600004196167,8.699999809265137,7.210000038146973,7.710000038146973,7.710000038146973,767500
2020-03-23,7.800000190734863,7.880000114440918,6.0,6.28000020980835,6.28000020980835,552300
2020-03-24,6.699999809265137,6.869999885559082,6.002999782562256,6.269999980926514,6.269999980926514,547500
2020-03-25,6.239999771118164,7.400000095367432,5.739999771118164,7.190000057220459,7.190000057220459,445400
2020-03-26,7.260000228881836,8.180000305175781,7.03000020980835,7.369999885559082,7.369999885559082,420000
2020-03-27,6.960000038146973,6.989999771118164,6.340000152587891,6.389999866485596,6.389999866485596,408800
2020-03-30,6.380000114440918,6.380000114440918,5.269999980926514,5.699999809265137,5.699999809265137,575700
2020-03-31,5.679999828338623,6.380000114440918,5.670000076293945,5.75,5.75,676400
2020-04-01,5.630000114440918,5.71999979019165,5.0,5.119999885559082,5.119999885559082,432100
2020-04-02,5.329999923706055,6.550000190734863,5.300000190734863,5.989999771118164,5.989999771118164,644400
2020-04-03,6.320000171661377,6.590000152587891,5.659999847412109,5.989999771118164,5.989999771118164,802100
2020-04-06,6.269999980926514,6.369999885559082,5.800000190734863,6.0,6.0,545600
2020-04-07,6.269999980926514,6.980000019073486,6.159999847412109,6.320000171661377,6.320000171661377,811800
2020-04-08,6.619999885559082,6.929999828338623,6.28000020980835,6.889999866485596,6.889999866485596,661300
2020-04-09,7.460000038146973,8.119999885559082,6.510000228881836,6.78000020980835,6.78000020980835,929700
2020-04-13,7.199999809265137,7.199999809265137,6.546999931335449,6.949999809265137,6.949999809265137,457200
2020-04-14,7.320000171661377,7.989999771118164,7.25,7.659999847412109,7.659999847412109,570400
2020-04-15,7.5,7.639999866485596,6.800000190734863,7.510000228881836,7.510000228881836,484000
2020-04-16,7.550000190734863,7.739999771118164,6.170000076293945,6.289999961853027,6.289999961853027,573200
2020-04-17,6.539999961853027,6.949999809265137,6.5,6.869999885559082,6.869999885559082,577100
2020-04-20,6.510000228881836,7.420000076293945,6.340000152587891,7.130000114440918,7.130000114440918,653100
2020-04-21,6.869999885559082,7.059999942779541,6.639999866485596,6.840000152587891,6.840000152587891,747900
2020-04-22,7.119999885559082,7.579999923706055,7.110000133514404,7.559999942779541,7.559999942779541,856900
2020-04-23,8.199999809265137,9.100000381469727,8.069999694824219,8.350000381469727,8.350000381469727,791300
2020-04-24,9.0600004196167,9.289999961853027,8.170000076293945,9.079999923706055,9.079999923706055,854500
2020-04-27,8.869999885559082,8.904999732971191,8.234999656677246,8.890000343322754,8.890000343322754,671300
2020-04-28,9.199999809265137,9.260000228881836,8.510000228881836,9.170000076293945,9.170000076293945,467600
2020-04-29,9.829999923706055,11.25,9.75,11.220000267028809,11.220000267028809,559600
2020-04-30,11.619999885559082,11.800000190734863,10.649999618530273,11.390000343322754,11.390000343322754,677200
2020-05-01,10.960000038146973,11.104999542236328,10.010000228881836,10.199999809265137,10.199999809265137,409000
2020-05-04,9.760000228881836,11.170000076293945,9.569999694824219,11.170000076293945,11.170000076293945,360000
2020-05-05,11.920000076293945,12.699999809265137,11.020000457763672,11.039999961853027,11.039999961853027,691500
2020-05-06,10.920000076293945,11.055000305175781,10.329999923706055,10.670000076293945,10.670000076293945,281800
2020-05-07,11.600000381469727,12.239999771118164,11.069999694824219,11.420000076293945,11.420000076293945,626300
2020-05-08,11.8100004196167,12.140000343322754,11.449999809265137,12.050000190734863,12.050000190734863,480400
2020-05-11,11.729999542236328,12.25,11.329999923706055,11.5,11.5,400700
2020-05-12,11.649999618530273,12.218000411987305,11.550000190734863,11.9399995803833,11.9399995803833,305000
2020-05-13,11.760000228881836,11.815999984741211,10.720000267028809,10.9399995803833,10.9399995803833,395500
2020-05-14,10.699999809265137,10.75,9.859999656677246,10.130000114440918,10.130000114440918,429700
2020-05-15,10.25,10.789999961853027,10.09000015258789,10.479999542236328,10.479999542236328,390500
2020-05-18,11.15999984741211,12.800000190734863,11.15999984741211,12.239999771118164,12.239999771118164,399600
2020-05-19,12.15999984741211,12.600000381469727,11.789999961853027,11.859999656677246,11.859999656677246,264300
2020-05-20,12.289999961853027,12.949999809265137,12.239999771118164,12.600000381469727,12.600000381469727,271000
2020-05-21,12.600000381469727,12.949999809265137,12.130000114440918,12.380000114440918,12.380000114440918,334000
2020-05-22,12.15999984741211,12.40999984741211,11.510000228881836,12.399999618530273,12.399999618530273,269100
2020-05-26,13.0,13.140000343322754,11.930000305175781,12.279999732971191,12.279999732971191,482800
2020-05-27,12.319999694824219,12.699999809265137,11.739999771118164,12.680000305175781,12.680000305175781,392900
2020-05-28,12.880000114440918,12.899999618530273,11.890000343322754,12.069999694824219,12.069999694824219,356500
2020-05-29,11.90999984741211,12.414999961853027,11.539999961853027,12.149999618530273,12.149999618530273,301800
2020-06-01,12.199999809265137,12.960000038146973,11.90999984741211,12.760000228881836,12.760000228881836,246700
2020-06-02,13.0,13.149999618530273,12.640000343322754,12.979999542236328,12.979999542236328,416100
2020-06-03,13.149999618530273,13.390000343322754,12.930000305175781,13.220000267028809,13.220000267028809,229300
2020-06-04,13.539999961853027,14.449999809265137,13.140000343322754,14.130000114440918,14.130000114440918,522600
2020-06-05,15.539999961853027,15.859999656677246,14.539999961853027,15.350000381469727,15.350000381469727,627900
2020-06-08,16.149999618530273,16.809999465942383,15.15999984741211,15.619999885559082,15.619999885559082,787900
2020-06-09,14.930000305175781,15.390000343322754,14.029999732971191,15.25,15.25,435200
2020-06-10,14.819999694824219,15.319999694824219,14.050000190734863,14.210000038146973,14.210000038146973,385900
2020-06-11,12.720000267028809,13.100000381469727,11.789999961853027,11.800000190734863,11.800000190734863,538400
2020-06-12,12.369999885559082,12.892999649047852,12.1899995803833,12.84000015258789,12.84000015258789,389700
2020-06-15,11.920000076293945,14.104999542236328,11.845999717712402,13.729999542236328,13.729999542236328,848600
2020-06-16,14.930000305175781,14.930000305175781,13.470000267028809,13.850000381469727,13.850000381469727,601000
2020-06-17,13.609999656677246,13.640000343322754,11.770000457763672,11.90999984741211,11.90999984741211,1238700
2020-06-18,11.779999732971191,12.180000305175781,11.539999961853027,11.789999961853027,11.789999961853027,872000
2020-06-19,12.050000190734863,12.270000457763672,10.609999656677246,10.9399995803833,10.9399995803833,1530500
2020-06-22,10.770000457763672,10.930000305175781,10.010000228881836,10.109999656677246,10.109999656677246,828500
2020-06-23,10.199999809265137,10.291999816894531,9.8100004196167,9.989999771118164,9.989999771118164,855500
2020-06-24,9.819999694824219,9.84000015258789,9.119999885559082,9.149999618530273,9.149999618530273,709300
2020-06-25,9.079999923706055,9.399999618530273,8.890000343322754,9.260000228881836,9.260000228881836,1051100
2020-06-26,9.1899995803833,9.1899995803833,8.399999618530273,8.829999923706055,8.829999923706055,1597100
2020-06-29,8.880000114440918,9.15999984741211,8.649999618530273,8.960000038146973,8.960000038146973,507000
2020-06-30,8.949999809265137,9.293000221252441,8.779999732971191,9.199999809265137,9.199999809265137,703600
2020-07-01,9.220000267028809,9.489999771118164,8.680000305175781,8.729999542236328,8.729999542236328,428900
2020-07-02,9.020000457763672,9.180000305175781,8.5600004196167,9.010000228881836,9.010000228881836,512400
2020-07-06,9.260000228881836,9.279999732971191,8.760000228881836,8.869999885559082,8.869999885559082,371900
2020-07-07,8.789999961853027,8.835000038146973,8.260000228881836,8.300000190734863,8.300000190734863,323400
2020-07-08,8.300000190734863,8.550000190734863,8.180000305175781,8.4399995803833,8.4399995803833,555200
2020-07-09,8.520000457763672,8.699999809265137,7.940000057220459,7.96999979019165,7.96999979019165,398100
2020-07-10,7.96999979019165,8.130000114440918,7.704999923706055,7.900000095367432,7.900000095367432,609600
2020-07-13,7.96999979019165,8.039999961853027,7.420000076293945,7.550000190734863,7.550000190734863,779400
2020-07-14,7.5,7.889999866485596,7.349999904632568,7.849999904632568,7.849999904632568,528900
2020-07-15,8.25,8.619999885559082,8.149999618530273,8.529999732971191,8.529999732971191,787700
2020-07-16,8.350000381469727,8.770000457763672,8.020000457763672,8.449999809265137,8.449999809265137,662700
2020-07-17,8.539999961853027,8.9399995803833,8.045000076293945,8.109999656677246,8.109999656677246,549800
2020-07-20,8.199999809265137,8.567000389099121,8.010000228881836,8.020000457763672,8.020000457763672,778500
2020-07-21,8.180000305175781,8.84000015258789,8.119999885559082,8.609999656677246,8.609999656677246,791400
2020-07-22,8.479999542236328,8.529999732971191,8.170000076293945,8.289999961853027,8.289999961853027,435300
2020-07-23,8.180000305175781,8.329999923706055,7.84499979019165,7.980000019073486,7.980000019073486,749900
2020-07-24,8.0,8.100000381469727,7.670000076293945,7.699999809265137,7.699999809265137,694700
2020-07-27,7.730000019073486,7.730000019073486,7.050000190734863,7.079999923706055,7.079999923706055,799000
2020-07-28,7.090000152587891,7.329999923706055,7.0,7.010000228881836,7.010000228881836,438000
2020-07-29,7.019999980926514,7.199999809265137,6.949999809265137,7.099999904632568,7.099999904632568,480100
2020-07-30,6.96999979019165,7.039999961853027,6.659999847412109,6.980000019073486,6.980000019073486,552900
2020-07-31,6.949999809265137,7.019999980926514,6.630000114440918,6.809999942779541,6.809999942779541,833900
2020-08-03,6.829999923706055,7.21999979019165,6.78000020980835,6.96999979019165,6.96999979019165,791200
2020-08-04,7.010000228881836,7.650000095367432,6.989999771118164,7.519999980926514,7.519999980926514,725300
2020-08-05,7.929999828338623,7.960000038146973,7.489999771118164,7.690000057220459,7.690000057220459,991600
2020-08-06,7.559999942779541,7.585999965667725,7.0,7.190000057220459,7.190000057220459,1044600
2020-08-07,7.139999866485596,7.449999809265137,7.03000020980835,7.440000057220459,7.440000057220459,674400
2020-08-10,7.599999904632568,8.260000228881836,7.599999904632568,8.0600004196167,8.0600004196167,850800
2020-08-11,8.399999618530273,8.680000305175781,7.980000019073486,8.029999732971191,8.029999732971191,814300
2020-08-12,8.220000267028809,8.380000114440918,8.069999694824219,8.239999771118164,8.239999771118164,581100
2020-08-13,8.460000038146973,8.880000114440918,8.3100004196167,8.449999809265137,8.449999809265137,977100
2020-08-14,8.3100004196167,8.760000228881836,8.289999961853027,8.720000267028809,8.720000267028809,467200
2020-08-17,8.789999961853027,8.789999961853027,8.229999542236328,8.399999618530273,8.399999618530273,452600
2020-08-18,8.25,8.289999961853027,7.960000038146973,8.109999656677246,8.109999656677246,455900
2020-08-19,8.210000038146973,8.210000038146973,7.949999809265137,7.96999979019165,7.96999979019165,431400
2020-08-20,7.789999961853027,7.820000171661377,7.53000020980835,7.699999809265137,7.699999809265137,594400
2020-08-21,7.570000171661377,7.659999847412109,7.300000190734863,7.320000171661377,7.320000171661377,822900
2020-08-24,7.349999904632568,7.659999847412109,7.175000190734863,7.489999771118164,7.489999771118164,1019000
2020-08-25,7.670000076293945,7.760000228881836,7.389999866485596,7.650000095367432,7.650000095367432,425300
2020-08-26,7.579999923706055,7.610000133514404,7.329999923706055,7.389999866485596,7.389999866485596,493400
2020-08-27,7.429999828338623,7.538000106811523,7.230000019073486,7.429999828338623,7.429999828338623,568200
2020-08-28,7.5,7.679999828338623,7.389999866485596,7.639999866485596,7.639999866485596,477500
2020-08-31,7.650000095367432,7.760000228881836,7.389999866485596,7.510000228881836,7.510000228881836,359700
2020-09-01,7.420000076293945,7.489999771118164,7.079999923706055,7.099999904632568,7.099999904632568,553000
2020-09-02,7.099999904632568,7.300000190734863,6.874000072479248,6.889999866485596,6.889999866485596,716300
2020-09-03,6.849999904632568,7.130000114440918,6.809999942779541,6.889999866485596,6.889999866485596,489000
2020-09-04,7.019999980926514,7.199999809265137,6.670000076293945,6.880000114440918,6.880000114440918,503300
2020-09-08,6.650000095367432,6.710999965667725,6.369999885559082,6.449999809265137,6.449999809265137,685300
2020-09-09,6.570000171661377,6.619999885559082,6.210000038146973,6.269999980926514,6.269999980926514,910900
2020-09-10,6.260000228881836,6.300000190734863,5.679999828338623,5.829999923706055,5.829999923706055,1170200
2020-09-11,5.940000057220459,5.949999809265137,5.619999885559082,5.71999979019165,5.71999979019165,718700
2020-09-14,5.739999771118164,5.75,5.525000095367432,5.650000095367432,5.650000095367432,1237000
2020-09-15,5.730000019073486,5.809999942779541,5.599999904632568,5.619999885559082,5.619999885559082,1060400
2020-09-16,5.710000038146973,6.429999828338623,5.614999771118164,6.309999942779541,6.309999942779541,1219700
2020-09-17,6.230000019073486,6.789999961853027,6.050000190734863,6.71999979019165,6.71999979019165,1138200
2020-09-18,6.739999771118164,6.869999885559082,6.460000038146973,6.679999828338623,6.679999828338623,986900
2020-09-21,6.400000095367432,6.413000106811523,5.980000019073486,6.130000114440918,6.130000114440918,499200
2020-09-22,6.150000095367432,6.28000020980835,5.900000095367432,5.96999979019165,5.96999979019165,285900
2020-09-23,5.949999809265137,6.03000020980835,5.570000171661377,5.579999923706055,5.579999923706055,686200
2020-09-24,5.579999923706055,5.760000228881836,5.389999866485596,5.559999942779541,5.559999942779541,412700
2020-09-25,5.5,5.960000038146973,5.429999828338623,5.960000038146973,5.960000038146973,570300
2020-09-28,6.079999923706055,6.375,5.870999813079834,6.25,6.25,666900
2020-09-29,6.25,6.269999980926514,5.980000019073486,6.260000228881836,6.260000228881836,626200
2020-09-30,6.320000171661377,6.579999923706055,6.28000020980835,6.449999809265137,6.449999809265137,658600
2020-10-01,6.389999866485596,6.5,6.21999979019165,6.369999885559082,6.369999885559082,418700
2020-10-02,6.110000133514404,6.730000019073486,6.050000190734863,6.619999885559082,6.619999885559082,498100
2020-10-05,6.789999961853027,6.940000057220459,6.670000076293945,6.880000114440918,6.880000114440918,391400
2020-10-06,6.920000076293945,7.079999923706055,6.199999809265137,6.210000038146973,6.210000038146973,1152200
2020-10-07,6.289999961853027,6.900000095367432,6.28000020980835,6.769999980926514,6.769999980926514,1150000
2020-10-08,6.869999885559082,7.320000171661377,6.519999980926514,7.210000038146973,7.210000038146973,756700
2020-10-09,7.340000152587891,7.380000114440918,6.829999923706055,6.940000057220459,6.940000057220459,594200
2020-10-12,6.829999923706055,7.059999942779541,6.670000076293945,6.960000038146973,6.960000038146973,479100
2020-10-13,6.880000114440918,7.039999961853027,6.730000019073486,6.75,6.75,442900
2020-10-14,6.739999771118164,7.25,6.739999771118164,7.010000228881836,7.010000228881836,541900
2020-10-15,6.929999828338623,7.25,6.690000057220459,7.239999771118164,7.239999771118164,517600
2020-10-16,7.199999809265137,7.289999961853027,6.96999979019165,7.039999961853027,7.039999961853027,381800
2020-10-19,7.059999942779541,7.230000019073486,6.820000171661377,6.889999866485596,6.889999866485596,419900
2020-10-20,6.989999771118164,7.130000114440918,6.820000171661377,7.0,7.0,366300
2020-10-21,7.0,7.065000057220459,6.619999885559082,6.670000076293945,6.670000076293945,718000
2020-10-22,6.650000095367432,7.400000095367432,6.650000095367432,7.369999885559082,7.369999885559082,740400
2020-10-23,7.400000095367432,7.614999771118164,7.21999979019165,7.519999980926514,7.519999980926514,512400
2020-10-26,7.380000114440918,7.380000114440918,6.800000190734863,6.889999866485596,6.889999866485596,435300
2020-10-27,6.909999847412109,6.909999847412109,6.550000190734863,6.579999923706055,6.579999923706055,500100
2020-10-28,6.449999809265137,6.449999809265137,6.0,6.25,6.25,537400
2020-10-29,6.110000133514404,6.46999979019165,5.949999809265137,6.409999847412109,6.409999847412109,720300
2020-10-30,6.420000076293945,6.630000114440918,6.284999847412109,6.579999923706055,6.579999923706055,506500
2020-11-02,6.590000152587891,6.75,6.400000095367432,6.679999828338623,6.679999828338623,386800
2020-11-03,6.860000133514404,6.920000076293945,6.269999980926514,6.349999904632568,6.349999904632568,456900
2020-11-04,6.309999942779541,6.361999988555908,6.050000190734863,6.139999866485596,6.139999866485596,556800
2020-11-05,6.150000095367432,6.329999923706055,6.010000228881836,6.050000190734863,6.050000190734863,784000
2020-11-06,6.039999961853027,6.111999988555908,5.710000038146973,5.809999942779541,5.809999942779541,894700
2020-11-09,6.389999866485596,7.150000095367432,6.389999866485596,6.960000038146973,6.960000038146973,1312700
2020-11-10,7.170000076293945,7.5,7.039999961853027,7.449999809265137,7.449999809265137,795500
2020-11-11,7.5,7.730000019073486,7.25,7.449999809265137,7.449999809265137,466900
2020-11-12,7.309999942779541,7.630000114440918,6.960000038146973,7.070000171661377,7.070000171661377,460800
2020-11-13,7.119999885559082,7.610000133514404,7.010000228881836,7.510000228881836,7.510000228881836,792500
2020-11-16,7.929999828338623,8.199999809265137,7.730000019073486,8.140000343322754,8.140000343322754,782400
2020-11-17,7.989999771118164,8.670000076293945,7.909999847412109,8.579999923706055,8.579999923706055,843100
2020-11-18,8.789999961853027,8.989999771118164,8.15999984741211,8.180000305175781,8.180000305175781,635700
2020-11-19,8.109999656677246,8.420000076293945,7.880000114440918,8.300000190734863,8.300000190734863,670300
2020-11-20,8.34000015258789,8.6899995803833,8.170000076293945,8.25,8.25,309800
2020-11-23,8.4399995803833,8.979999542236328,8.02299976348877,8.979999542236328,8.979999542236328,821200
2020-11-24,9.65999984741211,10.329999923706055,9.5,10.050000190734863,10.050000190734863,964100
2020-11-25,9.869999885559082,9.960000038146973,9.539999961853027,9.720000267028809,9.720000267028809,488100
2020-11-27,9.5600004196167,9.6899995803833,9.34000015258789,9.460000038146973,9.460000038146973,219100
2020-11-30,9.180000305175781,9.260000228881836,8.460000038146973,8.5600004196167,8.5600004196167,814500
2020-12-01,8.779999732971191,9.029999732971191,8.510000228881836,8.579999923706055,8.579999923706055,456000
2020-12-02,8.510000228881836,9.140000343322754,8.40999984741211,8.800000190734863,8.800000190734863,707300
2020-12-03,8.84000015258789,9.199999809265137,8.739999771118164,8.989999771118164,8.989999771118164,479400
2020-12-04,9.300000190734863,10.079999923706055,9.300000190734863,10.069999694824219,10.069999694824219,678200
2020-12-07,10.010000228881836,10.37600040435791,9.699999809265137,9.770000457763672,9.770000457763672,568400
2020-12-08,9.760000228881836,10.859999656677246,9.760000228881836,10.510000228881836,10.510000228881836,933500
2020-12-09,8.550000190734863,8.800000190734863,8.319999694824219,8.380000114440918,8.380000114440918,7632700
2020-12-10,8.619999885559082,9.220000267028809,8.520000457763672,9.069999694824219,9.069999694824219,3865500
2020-12-11,9.130000114440918,9.5,8.850000381469727,9.220000267028809,9.220000267028809,1695200
2020-12-14,9.520000457763672,9.550000190734863,8.729999542236328,9.210000038146973,9.210000038146973,1573300
2020-12-15,9.329999923706055,9.380000114440918,8.84000015258789,8.90999984741211,8.90999984741211,1331300
2020-12-16,8.890000343322754,9.039999961853027,8.619999885559082,8.75,8.75,1009800
2020-12-17,8.850000381469727,8.869999885559082,8.630000114440918,8.75,8.75,752100
2020-12-18,8.699999809265137,8.770000457763672,8.390000343322754,8.399999618530273,8.399999618530273,2790700
2020-12-21,8.0,8.329999923706055,7.800000190734863,8.029999732971191,8.029999732971191,1391200
2020-12-22,8.079999923706055,8.100000381469727,7.670000076293945,7.71999979019165,7.71999979019165,1187000
2020-12-23,7.840000152587891,8.529999732971191,7.796999931335449,8.239999771118164,8.239999771118164,941800
2020-12-24,8.329999923706055,8.329999923706055,8.0600004196167,8.210000038146973,8.210000038146973,256300
2020-12-28,8.369999885559082,8.470000267028809,7.960000038146973,8.050000190734863,8.050000190734863,457000
2020-12-29,8.130000114440918,8.130000114440918,7.849999904632568,8.039999961853027,8.039999961853027,509500
2020-12-30,8.010000228881836,8.479999542236328,8.0,8.25,8.25,455300
