Date,Open,High,Low,Close,Adj Close,Volume
2018-08-08,24.889999389648438,24.93000030517578,24.850000381469727,24.8799991607666,20.946046829223633,580300
2018-08-09,24.920000076293945,24.940000534057617,24.8799991607666,24.8799991607666,20.946046829223633,755500
2018-08-10,24.8700008392334,24.899999618530273,24.860000610351562,24.899999618530273,20.9628849029541,225000
2018-08-13,24.940000534057617,24.940000534057617,24.850000381469727,24.850000381469727,20.920791625976562,261100
2018-08-14,24.860000610351562,24.899999618530273,24.84000015258789,24.850000381469727,20.920791625976562,487600
2018-08-15,24.860000610351562,24.8799991607666,24.829999923706055,24.860000610351562,20.929210662841797,230200
2018-08-16,24.899999618530273,24.899999618530273,24.860000610351562,24.899999618530273,20.9628849029541,395900
2018-08-17,24.899999618530273,24.920000076293945,24.889999389648438,24.889999389648438,20.9544620513916,207100
2018-08-20,24.940000534057617,24.940000534057617,24.889999389648438,24.889999389648438,20.9544620513916,659900
2018-08-21,24.920000076293945,24.920000076293945,24.8799991607666,24.899999618530273,20.9628849029541,269100
2018-08-22,24.90999984741211,24.950000762939453,24.902999877929688,24.950000762939453,21.004981994628906,285700
2018-08-23,24.969999313354492,25.020000457763672,24.93000030517578,24.940000534057617,20.99656105041504,332100
2018-08-24,24.950000762939453,24.969999313354492,24.940000534057617,24.940000534057617,20.99656105041504,219100
2018-08-27,25.0,25.040000915527344,24.979999542236328,24.989999771118164,21.03865623474121,426300
2018-08-28,25.020000457763672,25.020000457763672,24.979999542236328,25.010000228881836,21.055492401123047,517100
2018-08-29,25.020000457763672,25.040000915527344,25.0,25.0,21.047073364257812,513700
2018-08-30,25.020000457763672,25.040000915527344,25.0,25.0,21.047073364257812,427800
2018-08-31,25.030000686645508,25.299999237060547,25.010000228881836,25.190000534057617,21.20703125,1147800
2018-09-04,25.100000381469727,25.1299991607666,25.030000686645508,25.040000915527344,21.08074951171875,343000
2018-09-05,25.049999237060547,25.059999465942383,24.93000030517578,24.969999313354492,21.021818161010742,347900
2018-09-06,25.0,25.040000915527344,24.920000076293945,24.940000534057617,20.99656105041504,288900
2018-09-07,24.940000534057617,24.950000762939453,24.889999389648438,24.899999618530273,20.9628849029541,249900
2018-09-10,24.90999984741211,24.950000762939453,24.889999389648438,24.889999389648438,20.9544620513916,333300
2018-09-11,24.899999618530273,24.920000076293945,24.8700008392334,24.8700008392334,20.9376277923584,265900
2018-09-12,24.90999984741211,24.920000076293945,24.889999389648438,24.90999984741211,20.971302032470703,215500
2018-09-13,24.959999084472656,24.959999084472656,24.8700008392334,24.8700008392334,20.9376277923584,226300
2018-09-14,24.8799991607666,24.899999618530273,24.81999969482422,24.899999618530273,20.9628849029541,265100
2018-09-17,24.899999618530273,24.899999618530273,24.790000915527344,24.850000381469727,20.920791625976562,362100
2018-09-18,24.8799991607666,24.889999389648438,24.780000686645508,24.81999969482422,20.89553451538086,403500
2018-09-19,24.84000015258789,24.850000381469727,24.700000762939453,24.729999542236328,20.819765090942383,237100
2018-09-20,24.75,24.790000915527344,24.729999542236328,24.770000457763672,20.85344123840332,302200
2018-09-21,24.780000686645508,24.81999969482422,24.739999771118164,24.809999465942383,20.88711929321289,191100
2018-09-24,24.799999237060547,24.84000015258789,24.760000228881836,24.809999465942383,20.88711929321289,146600
2018-09-25,24.799999237060547,24.799999237060547,24.709999084472656,24.719999313354492,20.81134605407715,287200
2018-09-26,24.760000228881836,24.790000915527344,24.729999542236328,24.790000915527344,20.870277404785156,244600
2018-09-27,24.81999969482422,24.81999969482422,24.770000457763672,24.799999237060547,20.87869644165039,283500
2018-09-28,24.809999465942383,24.84000015258789,24.760000228881836,24.760000228881836,20.84502410888672,169300
2018-10-01,24.790000915527344,24.790000915527344,24.65999984741211,24.68000030517578,20.777671813964844,165000
2018-10-02,24.729999542236328,24.780000686645508,24.690000534057617,24.690000534057617,20.786088943481445,187100
2018-10-03,24.700000762939453,24.731000900268555,24.290000915527344,24.469999313354492,20.60087776184082,325700
2018-10-04,24.450000762939453,24.450000762939453,24.100000381469727,24.25,20.41566276550293,238600
2018-10-05,24.25,24.290000915527344,24.110000610351562,24.239999771118164,20.407241821289062,274600
2018-10-08,24.290000915527344,24.299999237060547,24.110000610351562,24.1200008392334,20.30621910095215,128800
2018-10-09,24.170000076293945,24.239999771118164,24.1200008392334,24.1200008392334,20.30621910095215,242700
2018-10-10,24.100000381469727,24.149999618530273,23.950000762939453,23.969999313354492,20.179933547973633,216000
2018-10-11,24.079999923706055,24.079999923706055,23.924999237060547,23.975000381469727,20.184144973754883,225900
2018-10-12,24.049999237060547,24.149999618530273,24.0,24.06999969482422,20.26412582397461,171400
2018-10-15,24.139999389648438,24.15999984741211,24.06999969482422,24.15999984741211,20.33989143371582,117700
2018-10-16,23.93000030517578,23.979999542236328,23.8799991607666,23.90999984741211,20.42703628540039,200600
2018-10-17,23.989999771118164,23.989999771118164,23.8799991607666,23.889999389648438,20.409948348999023,165700
2018-10-18,23.90999984741211,23.920000076293945,23.75,23.799999237060547,20.333059310913086,155800
2018-10-19,23.799999237060547,23.84000015258789,23.75,23.770000457763672,20.30742645263672,214000
2018-10-22,23.8700008392334,23.8700008392334,23.75,23.795000076293945,20.32878303527832,216000
2018-10-23,23.799999237060547,23.81999969482422,23.75,23.799999237060547,20.333059310913086,169600
2018-10-24,23.829999923706055,23.8700008392334,23.75,23.790000915527344,20.32451629638672,200000
2018-10-25,23.799999237060547,23.850000381469727,23.750999450683594,23.829999923706055,20.35869026184082,221500
2018-10-26,23.860000610351562,23.860000610351562,23.670000076293945,23.709999084472656,20.256166458129883,184000
2018-10-29,23.739999771118164,23.75,23.700000762939453,23.700000762939453,20.247621536254883,325300
2018-10-30,23.739999771118164,23.770000457763672,23.610000610351562,23.6200008392334,20.17928123474121,241900
2018-10-31,23.709999084472656,23.75,23.670000076293945,23.670000076293945,20.221994400024414,202100
2018-11-01,23.770000457763672,23.770000457763672,23.670000076293945,23.700000762939453,20.247621536254883,147200
2018-11-02,23.700000762939453,23.739999771118164,23.6200008392334,23.670000076293945,20.221994400024414,268200
2018-11-05,23.700000762939453,23.760000228881836,23.683000564575195,23.760000228881836,20.29888343811035,84300
2018-11-06,23.799999237060547,23.969999313354492,23.799999237060547,23.950000762939453,20.461210250854492,98600
2018-11-07,24.09000015258789,24.100000381469727,24.0,24.030000686645508,20.529550552368164,137400
2018-11-08,24.049999237060547,24.1200008392334,24.020000457763672,24.09000015258789,20.580812454223633,133200
2018-11-09,24.09000015258789,24.09000015258789,24.049999237060547,24.079999923706055,20.572269439697266,80500
2018-11-12,24.09000015258789,24.1299991607666,24.059999465942383,24.1200008392334,20.606443405151367,88000
2018-11-13,24.1200008392334,24.149999618530273,24.079999923706055,24.1299991607666,20.614988327026367,91000
2018-11-14,24.149999618530273,24.149999618530273,24.049999237060547,24.059999465942383,20.55518341064453,79800
2018-11-15,24.059999465942383,24.06100082397461,23.860000610351562,23.899999618530273,20.418489456176758,186400
2018-11-16,23.969999313354492,23.969999313354492,23.8700008392334,23.8700008392334,20.392860412597656,66600
2018-11-19,23.950000762939453,23.979999542236328,23.780000686645508,23.829999923706055,20.35869026184082,114000
2018-11-20,23.829999923706055,23.84000015258789,23.600000381469727,23.6299991607666,20.18781852722168,176000
2018-11-21,23.719999313354492,23.75,23.649999618530273,23.690000534057617,20.23908233642578,90600
2018-11-23,23.700000762939453,23.719999313354492,23.670000076293945,23.719999313354492,20.26470947265625,53400
2018-11-26,23.75,23.75,23.579999923706055,23.6200008392334,20.17928123474121,124700
2018-11-27,23.670000076293945,23.670000076293945,23.40999984741211,23.420000076293945,20.008411407470703,164000
2018-11-28,23.459999084472656,23.520000457763672,23.320999145507812,23.34000015258789,19.940065383911133,170400
2018-11-29,23.459999084472656,23.489999771118164,23.18000030517578,23.229999542236328,19.846088409423828,218100
2018-11-30,23.299999237060547,23.3700008392334,23.15999984741211,23.350000381469727,19.9486083984375,251600
2018-12-03,23.43000030517578,23.75,23.399999618530273,23.75,20.290340423583984,302300
2018-12-04,23.760000228881836,23.760000228881836,23.350000381469727,23.469999313354492,20.05112648010254,176800
2018-12-06,23.549999237060547,23.56999969482422,23.360000610351562,23.56999969482422,20.13656234741211,209800
2018-12-07,23.6200008392334,23.719999313354492,23.399999618530273,23.600000381469727,20.16219139099121,335500
2018-12-10,23.600000381469727,23.600000381469727,23.31999969482422,23.3799991607666,19.974239349365234,225200
2018-12-11,23.489999771118164,23.520000457763672,23.329999923706055,23.40999984741211,19.999866485595703,173400
2018-12-12,23.469999313354492,23.520000457763672,23.34000015258789,23.3700008392334,19.965696334838867,224000
2018-12-13,23.3700008392334,23.40999984741211,23.200000762939453,23.31999969482422,19.922977447509766,218800
2018-12-14,23.299999237060547,23.299999237060547,23.149999618530273,23.170000076293945,19.794828414916992,125100
2018-12-17,23.15999984741211,23.15999984741211,22.889999389648438,22.959999084472656,19.61541748046875,214400
2018-12-18,23.010000228881836,23.010000228881836,22.829999923706055,22.920000076293945,19.581247329711914,269100
2018-12-19,22.920000076293945,23.15999984741211,22.90999984741211,23.010000228881836,19.658138275146484,215200
2018-12-20,22.950000762939453,23.010000228881836,22.829999923706055,22.940000534057617,19.59833526611328,467300
2018-12-21,23.0,23.141000747680664,22.950000762939453,22.968000411987305,19.62225341796875,272600
2018-12-24,22.969999313354492,22.969999313354492,22.799999237060547,22.875,19.54279899597168,104300
2018-12-26,22.899999618530273,23.209999084472656,22.670000076293945,22.75,19.436010360717773,310200
2018-12-27,22.700000762939453,22.850000381469727,22.68000030517578,22.700000762939453,19.393295288085938,341000
2018-12-28,22.719999313354492,22.850000381469727,22.559999465942383,22.600000381469727,19.307859420776367,541800
2018-12-31,22.729999542236328,23.190000534057617,22.719999313354492,23.190000534057617,19.811914443969727,457900
2019-01-02,23.1200008392334,23.549999237060547,23.094999313354492,23.549999237060547,20.119474411010742,158900
2019-01-03,23.56999969482422,23.979999542236328,23.399999618530273,23.799999237060547,20.333059310913086,148900
2019-01-04,23.84000015258789,23.958999633789062,23.809999465942383,23.950000762939453,20.461210250854492,304300
2019-01-07,24.010000228881836,24.25,24.010000228881836,24.170000076293945,20.649158477783203,208000
2019-01-08,24.170000076293945,24.34000015258789,24.170000076293945,24.200000762939453,20.674789428710938,170200
2019-01-09,24.200000762939453,24.489999771118164,24.200000762939453,24.450000762939453,20.888370513916016,172800
2019-01-10,24.389999389648438,24.6299991607666,24.350000381469727,24.6200008392334,21.033607482910156,213900
2019-01-11,24.6200008392334,24.75,24.450000762939453,24.719999313354492,21.119041442871094,148900
2019-01-14,24.700000762939453,24.790000915527344,24.649999618530273,24.649999618530273,21.05923843383789,121400
2019-01-15,24.700000762939453,24.700000762939453,24.540000915527344,24.690000534057617,21.093408584594727,170700
2019-01-16,24.399999618530273,24.43000030517578,24.219999313354492,24.360000610351562,21.112478256225586,201000
2019-01-17,24.34000015258789,24.600000381469727,24.299999237060547,24.59000015258789,21.311817169189453,195200
2019-01-18,24.59000015258789,24.59000015258789,24.42099952697754,24.479999542236328,21.216476440429688,97500
2019-01-22,24.5,24.54400062561035,24.329999923706055,24.329999923706055,21.08647346496582,135600
2019-01-23,24.3700008392334,24.3700008392334,24.299999237060547,24.329999923706055,21.08647346496582,88400
2019-01-24,24.329999923706055,24.399999618530273,24.219999313354492,24.25,21.017141342163086,198800
2019-01-25,24.389999389648438,24.59000015258789,24.31999969482422,24.514999389648438,21.24681282043457,104000
2019-01-28,24.530000686645508,24.739999771118164,24.5,24.700000762939453,21.40715217590332,119400
2019-01-29,24.729999542236328,24.780000686645508,24.690000534057617,24.690000534057617,21.39848518371582,120800
2019-01-30,24.75,24.75,24.5,24.520000457763672,21.25114631652832,239300
2019-01-31,24.540000915527344,24.850000381469727,24.43000030517578,24.850000381469727,21.537155151367188,522800
2019-02-01,24.799999237060547,24.969999313354492,24.68000030517578,24.969999313354492,21.641157150268555,259100
2019-02-04,24.969999313354492,24.989999771118164,24.820999145507812,24.8700008392334,21.554485321044922,187400
2019-02-05,24.899999618530273,24.950000762939453,24.809999465942383,24.950000762939453,21.623823165893555,144300
2019-02-06,24.950000762939453,24.950000762939453,24.65999984741211,24.739999771118164,21.44182014465332,318400
2019-02-07,24.770000457763672,24.770000457763672,24.59000015258789,24.600000381469727,21.320484161376953,114600
2019-02-08,24.639999389648438,24.834999084472656,24.59000015258789,24.829999923706055,21.51982307434082,104600
2019-02-11,24.829999923706055,24.850000381469727,24.75,24.829999923706055,21.51982307434082,104400
2019-02-12,24.829999923706055,24.889999389648438,24.799999237060547,24.8799991607666,21.563152313232422,157800
2019-02-13,24.8799991607666,24.920000076293945,24.799999237060547,24.81999969482422,21.511150360107422,198100
2019-02-14,24.81999969482422,24.920000076293945,24.799999237060547,24.829999923706055,21.51982307434082,151800
2019-02-15,24.829999923706055,24.8799991607666,24.739999771118164,24.849000930786133,21.53628921508789,186800
2019-02-19,24.84000015258789,24.889999389648438,24.75,24.850000381469727,21.537155151367188,195000
2019-02-20,24.8799991607666,24.950000762939453,24.84600067138672,24.950000762939453,21.623823165893555,128500
2019-02-21,24.950000762939453,24.989999771118164,24.891000747680664,24.950000762939453,21.623823165893555,164600
2019-02-22,24.950000762939453,24.979999542236328,24.93000030517578,24.940000534057617,21.615158081054688,112900
2019-02-25,24.940000534057617,24.979999542236328,24.780000686645508,24.860000610351562,21.545822143554688,218400
2019-02-26,24.850000381469727,24.899999618530273,24.809999465942383,24.899999618530273,21.580488204956055,128600
2019-02-27,24.899999618530273,24.950000762939453,24.850000381469727,24.940000534057617,21.615158081054688,157200
2019-02-28,24.959999084472656,25.06999969482422,24.899999618530273,25.06999969482422,21.72782325744629,494800
2019-03-01,25.06999969482422,25.06999969482422,24.948999404907227,25.059999465942383,21.719158172607422,223800
2019-03-04,25.049999237060547,25.097999572753906,24.989999771118164,25.08799934387207,21.743427276611328,175300
2019-03-05,25.09000015258789,25.1299991607666,25.06999969482422,25.100000381469727,21.753826141357422,151800
2019-03-06,25.100000381469727,25.100000381469727,24.989999771118164,24.989999771118164,21.65848731994629,174600
2019-03-07,25.020000457763672,25.020000457763672,24.90999984741211,24.920000076293945,21.597822189331055,121200
2019-03-08,24.920000076293945,25.040000915527344,24.920000076293945,25.040000915527344,21.701824188232422,116900
2019-03-11,25.040000915527344,25.049999237060547,25.0,25.040000915527344,21.701824188232422,163100
2019-03-12,25.040000915527344,25.1200008392334,25.010000228881836,25.040000915527344,21.701824188232422,178100
2019-03-13,25.100000381469727,25.100000381469727,25.020000457763672,25.049999237060547,21.710491180419922,203100
2019-03-14,25.049999237060547,25.170000076293945,25.0,25.149999618530273,21.797161102294922,148200
2019-03-15,25.15999984741211,25.25,25.149999618530273,25.239999771118164,21.87516212463379,96100
2019-03-18,25.239999771118164,25.25,25.100000381469727,25.200000762939453,21.84049415588379,129300
2019-03-19,25.110000610351562,25.18000030517578,25.049999237060547,25.110000610351562,21.762493133544922,136900
2019-03-20,25.1299991607666,25.18000030517578,25.049999237060547,25.170000076293945,21.814495086669922,100000
2019-03-21,25.15999984741211,25.25,25.1200008392334,25.190000534057617,21.831829071044922,195100
2019-03-22,25.190000534057617,25.209999084472656,25.079999923706055,25.18000030517578,21.823158264160156,123800
2019-03-25,25.09000015258789,25.149999618530273,25.020000457763672,25.059999465942383,21.719158172607422,174800
2019-03-26,25.110000610351562,25.25,25.079999923706055,25.25,21.88382339477539,127800
2019-03-27,25.190000534057617,25.350000381469727,25.190000534057617,25.350000381469727,21.970497131347656,226100
2019-03-28,25.399999618530273,25.530000686645508,25.391000747680664,25.420000076293945,22.031164169311523,287100
2019-03-29,25.420000076293945,25.540000915527344,25.399999618530273,25.489999771118164,22.091833114624023,404700
2019-04-01,25.479999542236328,25.489999771118164,25.420000076293945,25.469999313354492,22.074499130249023,173400
2019-04-02,25.459999084472656,25.579999923706055,25.450000762939453,25.559999465942383,22.152498245239258,99000
2019-04-03,25.579999923706055,25.700000762939453,25.520000457763672,25.579999923706055,22.16983413696289,107200
2019-04-04,25.600000381469727,25.690000534057617,25.52899932861328,25.670000076293945,22.247835159301758,176100
2019-04-05,25.729999542236328,25.739999771118164,25.6299991607666,25.68000030517578,22.256505966186523,90200
2019-04-08,25.65999984741211,25.719999313354492,25.63599967956543,25.670000076293945,22.247835159301758,128800
2019-04-09,25.670000076293945,25.700000762939453,25.6200008392334,25.6200008392334,22.204505920410156,191600
2019-04-10,25.649999618530273,25.683000564575195,25.600000381469727,25.600000381469727,22.187170028686523,123500
2019-04-11,25.600000381469727,25.709999084472656,25.600000381469727,25.68400001525879,22.25996971130371,92100
2019-04-12,25.68000030517578,25.700000762939453,25.618999481201172,25.6299991607666,22.21316909790039,136500
2019-04-15,25.360000610351562,25.389999389648438,25.299999237060547,25.31999969482422,22.250076293945312,111200
2019-04-16,25.43000030517578,25.43000030517578,25.34000015258789,25.399999618530273,22.320377349853516,197700
2019-04-17,25.43000030517578,25.530000686645508,25.389999389648438,25.530000686645508,22.43461799621582,165900
2019-04-18,25.530000686645508,25.6200008392334,25.530000686645508,25.579999923706055,22.478551864624023,115800
2019-04-22,25.600000381469727,25.6299991607666,25.395000457763672,25.450000762939453,22.364316940307617,122100
2019-04-23,25.450000762939453,25.649999618530273,25.450000762939453,25.649999618530273,22.540067672729492,141800
2019-04-24,25.649999618530273,25.649999618530273,25.549999237060547,25.600000381469727,22.496129989624023,117300
2019-04-25,25.649999618530273,25.649999618530273,25.600000381469727,25.649999618530273,22.540067672729492,64000
2019-04-26,25.6200008392334,25.645000457763672,25.56999969482422,25.610000610351562,22.50491714477539,50800
2019-04-29,25.610000610351562,25.729999542236328,25.59000015258789,25.725000381469727,22.605972290039062,86900
2019-04-30,25.850000381469727,25.940000534057617,25.760000228881836,25.889999389648438,22.750967025756836,409000
2019-05-01,25.93000030517578,25.93000030517578,25.639999389648438,25.719999313354492,22.601581573486328,109800
2019-05-02,25.760000228881836,25.780000686645508,25.649999618530273,25.780000686645508,22.65430450439453,63500
2019-05-03,25.780000686645508,25.829999923706055,25.700000762939453,25.81999969482422,22.689455032348633,95900
2019-05-06,25.709999084472656,25.790000915527344,25.709999084472656,25.75,22.62794303894043,64000
2019-05-07,25.75,25.75,25.549999237060547,25.610000610351562,22.50491714477539,99800
2019-05-08,25.610000610351562,25.719999313354492,25.610000610351562,25.639999389648438,22.531278610229492,52800
2019-05-09,25.639999389648438,25.709999084472656,25.600000381469727,25.709999084472656,22.592790603637695,45300
2019-05-10,25.75,25.799999237060547,25.702999114990234,25.770000457763672,22.645519256591797,50000
2019-05-13,25.729999542236328,25.729999542236328,25.610000610351562,25.649999618530273,22.540067672729492,67900
2019-05-14,25.610000610351562,25.68000030517578,25.610000610351562,25.670000076293945,22.557641983032227,59400
2019-05-15,25.68000030517578,25.899999618530273,25.670000076293945,25.899999618530273,22.759754180908203,86200
2019-05-16,25.8799991607666,25.989999771118164,25.81999969482422,25.979999542236328,22.83005714416504,61100
2019-05-17,25.950000762939453,25.979999542236328,25.8799991607666,25.889999389648438,22.750967025756836,81600
2019-05-20,25.850000381469727,25.93600082397461,25.489999771118164,25.559999465942383,22.46097755432129,218400
2019-05-21,25.59000015258789,25.729999542236328,25.56999969482422,25.700000762939453,22.58400535583496,112500
2019-05-22,25.65999984741211,25.770000457763672,25.65999984741211,25.75,22.62794303894043,84000
2019-05-23,25.760000228881836,25.83099937438965,25.700000762939453,25.829999923706055,22.698244094848633,103600
2019-05-24,25.899999618530273,25.959999084472656,25.8799991607666,25.93000030517578,22.786117553710938,64600
2019-05-28,25.93000030517578,25.950000762939453,25.899999618530273,25.899999618530273,22.759754180908203,78300
2019-05-29,25.899999618530273,25.940000534057617,25.88800048828125,25.889999389648438,22.750967025756836,91500
2019-05-30,25.850000381469727,25.979999542236328,25.829999923706055,25.975000381469727,22.825660705566406,62700
2019-05-31,25.920000076293945,26.209999084472656,25.913999557495117,26.15999984741211,22.98823356628418,363000
2019-06-03,26.15999984741211,26.15999984741211,26.010000228881836,26.010000228881836,22.85641860961914,112400
2019-06-04,26.0,26.1200008392334,25.975000381469727,26.06999969482422,22.909143447875977,134800
2019-06-05,26.030000686645508,26.040000915527344,25.8700008392334,25.959999084472656,22.812475204467773,67700
2019-06-06,26.020000457763672,26.030000686645508,25.958999633789062,26.020000457763672,22.865209579467773,82800
2019-06-07,26.020000457763672,26.030000686645508,25.959999084472656,26.010000228881836,22.85641860961914,80200
2019-06-10,26.010000228881836,26.229999542236328,26.010000228881836,26.110000610351562,22.944297790527344,162800
2019-06-11,26.149999618530273,26.170000076293945,26.06999969482422,26.09000015258789,22.926721572875977,56200
2019-06-12,26.1200008392334,26.1299991607666,26.059999465942383,26.1299991607666,22.96186637878418,43200
2019-06-13,26.1299991607666,26.1299991607666,26.0,26.059999465942383,22.90035629272461,120200
2019-06-14,26.06999969482422,26.100000381469727,25.979999542236328,26.06999969482422,22.909143447875977,53100
2019-06-17,26.079999923706055,26.100000381469727,26.040000915527344,26.09000015258789,22.926721572875977,72500
2019-06-18,26.09000015258789,26.149999618530273,25.979999542236328,26.0,22.847631454467773,121800
2019-06-19,26.06999969482422,26.200000762939453,26.0,26.18000030517578,23.00580596923828,79000
2019-06-20,26.229999542236328,26.360000610351562,26.18000030517578,26.350000381469727,23.155193328857422,68900
2019-06-21,26.34000015258789,26.3700008392334,26.209999084472656,26.290000915527344,23.10247230529785,85800
2019-06-24,26.25,26.350000381469727,26.209999084472656,26.299999237060547,23.111255645751953,99700
2019-06-25,26.299999237060547,26.329999923706055,26.25,26.329999923706055,23.137622833251953,73400
2019-06-26,26.329999923706055,26.549999237060547,26.329999923706055,26.5,23.287010192871094,102200
2019-06-27,26.5,26.690000534057617,26.5,26.670000076293945,23.436397552490234,142700
2019-06-28,26.760000228881836,26.850000381469727,26.579999923706055,26.719999313354492,23.480335235595703,327500
2019-07-01,26.719999313354492,26.719999313354492,26.459999084472656,26.639999389648438,23.410032272338867,54300
2019-07-02,26.639999389648438,26.780000686645508,26.469999313354492,26.729999542236328,23.489120483398438,65400
2019-07-03,26.729999542236328,26.799999237060547,26.628999710083008,26.790000915527344,23.541851043701172,43700
2019-07-05,26.700000762939453,26.750999450683594,26.666000366210938,26.68000030517578,23.445186614990234,42200
2019-07-08,26.68000030517578,26.700000762939453,26.600000381469727,26.610000610351562,23.3836727142334,55300
2019-07-09,26.540000915527344,26.7810001373291,26.520999908447266,26.780000686645508,23.53306007385254,72300
2019-07-10,26.780000686645508,26.860000610351562,26.69099998474121,26.81999969482422,23.568208694458008,58400
2019-07-11,26.81999969482422,26.81999969482422,26.75,26.799999237060547,23.55063247680664,51900
2019-07-12,26.799999237060547,26.829999923706055,26.77199935913086,26.829999923706055,23.576995849609375,27000
2019-07-15,26.8700008392334,27.0,26.829999923706055,26.920000076293945,23.656085968017578,71200
2019-07-16,26.610000610351562,26.670000076293945,26.5,26.6200008392334,23.7023868560791,82900
2019-07-17,26.6200008392334,26.90999984741211,26.6200008392334,26.84000015258789,23.898273468017578,98500
2019-07-18,26.8799991607666,26.959999084472656,26.799999237060547,26.959999084472656,24.00511932373047,78500
2019-07-19,27.030000686645508,27.030000686645508,26.829999923706055,26.969999313354492,24.01402473449707,61700
2019-07-22,26.969999313354492,27.020000457763672,26.899999618530273,26.950000762939453,23.996219635009766,122400
2019-07-23,26.950000762939453,27.040000915527344,26.93000030517578,26.989999771118164,24.031831741333008,79800
2019-07-24,26.989999771118164,27.06999969482422,26.90999984741211,27.049999237060547,24.085256576538086,91800
2019-07-25,27.010000228881836,27.040000915527344,26.950000762939453,26.950000762939453,23.996219635009766,88100
2019-07-26,26.950000762939453,26.979999542236328,26.799999237060547,26.899999618530273,23.951696395874023,116000
2019-07-29,26.860000610351562,27.040000915527344,26.84000015258789,26.959999084472656,24.00511932373047,142300
2019-07-30,26.969999313354492,27.200000762939453,26.93000030517578,27.190000534057617,24.209911346435547,99400
2019-07-31,27.200000762939453,27.34000015258789,27.052000045776367,27.270000457763672,24.281147003173828,402400
2019-08-01,27.260000228881836,27.3799991607666,27.149999618530273,27.15999984741211,24.18320083618164,134500
2019-08-02,27.100000381469727,27.1299991607666,26.780000686645508,26.889999389648438,23.942792892456055,128600
2019-08-05,26.81999969482422,26.81999969482422,26.549999237060547,26.65999984741211,23.73800277709961,86900
2019-08-06,26.65999984741211,26.65999984741211,26.40999984741211,26.600000381469727,23.684579849243164,83900
2019-08-07,26.600000381469727,26.6299991607666,26.388999938964844,26.469999313354492,23.56882667541504,80800
2019-08-08,26.5,26.562000274658203,26.461000442504883,26.530000686645508,23.622251510620117,90700
2019-08-09,26.510000228881836,26.700000762939453,26.510000228881836,26.638999938964844,23.719303131103516,96800
2019-08-12,26.639999389648438,26.780000686645508,26.600000381469727,26.7450008392334,23.813684463500977,44800
2019-08-13,26.799999237060547,27.0,26.729999542236328,27.0,24.04073715209961,97800
2019-08-14,26.950000762939453,27.100000381469727,26.799999237060547,26.989999771118164,24.031831741333008,125300
2019-08-15,27.020000457763672,27.290000915527344,27.020000457763672,27.25,24.263334274291992,101000
2019-08-16,27.270000457763672,27.3799991607666,27.18000030517578,27.200000762939453,24.218814849853516,64900
2019-08-19,27.209999084472656,27.309999465942383,27.139999389648438,27.270000457763672,24.281147003173828,84700
2019-08-20,27.200000762939453,27.350000381469727,27.1299991607666,27.18000030517578,24.20100975036621,107400
2019-08-21,27.239999771118164,27.350000381469727,27.200000762939453,27.299999237060547,24.3078556060791,77900
2019-08-22,27.31999969482422,27.59000015258789,27.31999969482422,27.579999923706055,24.557167053222656,97900
2019-08-23,27.469999313354492,27.649999618530273,27.469999313354492,27.6299991607666,24.601688385009766,68000
2019-08-26,27.549999237060547,27.628999710083008,27.479999542236328,27.540000915527344,24.52155113220215,59500
2019-08-27,27.56999969482422,27.6200008392334,27.40999984741211,27.479999542236328,24.468128204345703,118200
2019-08-28,27.479999542236328,27.549999237060547,27.437999725341797,27.5,24.485937118530273,94100
2019-08-29,27.5,27.65999984741211,27.34000015258789,27.389999389648438,24.387990951538086,144300
2019-08-30,27.40999984741211,27.420000076293945,27.200000762939453,27.360000610351562,24.36128044128418,350900
2019-09-03,27.290000915527344,27.309999465942383,27.260000228881836,27.309999465942383,24.31675910949707,63700
2019-09-04,27.309999465942383,27.489999771118164,27.229999542236328,27.489999771118164,24.477033615112305,55400
2019-09-05,27.5,27.5,27.350000381469727,27.420000076293945,24.414703369140625,64100
2019-09-06,27.40999984741211,27.5,27.340999603271484,27.5,24.485937118530273,57500
2019-09-09,27.5,27.548999786376953,27.450000762939453,27.5,24.485937118530273,53700
2019-09-10,27.479999542236328,27.479999542236328,27.110000610351562,27.159000396728516,24.182310104370117,108100
2019-09-11,27.139999389648438,27.3799991607666,27.079999923706055,27.149999618530273,24.17429542541504,83100
2019-09-12,27.18000030517578,27.23900032043457,27.100000381469727,27.139999389648438,24.165393829345703,63000
2019-09-13,27.06999969482422,27.170000076293945,26.850000381469727,26.959999084472656,24.00511932373047,247300
2019-09-16,26.989999771118164,27.049999237060547,26.8700008392334,26.969999313354492,24.01402473449707,73300
2019-09-17,27.0,27.149999618530273,26.989999771118164,27.010000228881836,24.049640655517578,68700
2019-09-18,27.030000686645508,27.174999237060547,27.030000686645508,27.100000381469727,24.129777908325195,119900
2019-09-19,27.190000534057617,27.290000915527344,27.030000686645508,27.059999465942383,24.094160079956055,255300
2019-09-20,27.100000381469727,27.139999389648438,27.010000228881836,27.139999389648438,24.165393829345703,108000
2019-09-23,27.170000076293945,27.290000915527344,27.170000076293945,27.239999771118164,24.25443458557129,63600
2019-09-24,27.260000228881836,27.360000610351562,27.239999771118164,27.290000915527344,24.298954010009766,75600
2019-09-25,27.31999969482422,27.350000381469727,27.260000228881836,27.329999923706055,24.334569931030273,57300
2019-09-26,27.329999923706055,27.479999542236328,27.270000457763672,27.469999313354492,24.4592227935791,49000
2019-09-27,27.469999313354492,27.940000534057617,27.3799991607666,27.8799991607666,24.82428741455078,123200
2019-09-30,27.799999237060547,28.040000915527344,27.760000228881836,27.950000762939453,24.88661766052246,409300
2019-10-01,27.760000228881836,27.81999969482422,27.670000076293945,27.700000762939453,24.664016723632812,85700
2019-10-02,27.65999984741211,27.700000762939453,27.399999618530273,27.559999465942383,24.53936004638672,54300
2019-10-03,27.6200008392334,27.700000762939453,27.479999542236328,27.649999618530273,24.61949348449707,63300
2019-10-04,27.649999618530273,27.75,27.5,27.75,24.708538055419922,74800
2019-10-07,27.739999771118164,27.75,27.600000381469727,27.75,24.708538055419922,73300
2019-10-08,27.690000534057617,27.790000915527344,27.655000686645508,27.700000762939453,24.664016723632812,96600
2019-10-09,27.700000762939453,27.799999237060547,27.690000534057617,27.700000762939453,24.664016723632812,90100
2019-10-10,27.760000228881836,27.829999923706055,27.634000778198242,27.719999313354492,24.681819915771484,71900
2019-10-11,27.760000228881836,27.799999237060547,27.690000534057617,27.75,24.708538055419922,96800
2019-10-14,27.700000762939453,27.90999984741211,27.610000610351562,27.8799991607666,24.82428741455078,109100
2019-10-15,27.8799991607666,27.950000762939453,27.739999771118164,27.75,24.708538055419922,97100
2019-10-16,27.459999084472656,27.4689998626709,27.299999237060547,27.360000610351562,24.674264907836914,136700
2019-10-17,27.420000076293945,27.440000534057617,27.309999465942383,27.40999984741211,24.719356536865234,83200
2019-10-18,27.440000534057617,27.579999923706055,27.40999984741211,27.559999465942383,24.85463523864746,134400
2019-10-21,27.520000457763672,27.600000381469727,27.45800018310547,27.56999969482422,24.863649368286133,101000
2019-10-22,27.56999969482422,27.670000076293945,27.56999969482422,27.639999389648438,24.92677879333496,60500
2019-10-23,27.639999389648438,27.700000762939453,27.610000610351562,27.68000030517578,24.962852478027344,57700
2019-10-24,27.65999984741211,27.719999313354492,27.65999984741211,27.690000534057617,24.971874237060547,51800
2019-10-25,27.670000076293945,27.700000762939453,27.649999618530273,27.700000762939453,24.980892181396484,120200
2019-10-28,27.700000762939453,27.700000762939453,27.636999130249023,27.670000076293945,24.95383644104004,49300
2019-10-29,27.68000030517578,27.68000030517578,27.360000610351562,27.3700008392334,24.68328285217285,111300
2019-10-30,27.34000015258789,27.34000015258789,27.149999618530273,27.260000228881836,24.584081649780273,101000
2019-10-31,27.350000381469727,27.59000015258789,27.280000686645508,27.520000457763672,24.81855583190918,332200
2019-11-01,27.459999084472656,27.459999084472656,27.31999969482422,27.450000762939453,24.75543212890625,44300
2019-11-04,27.40999984741211,27.459999084472656,27.33099937438965,27.459999084472656,24.764448165893555,42600
2019-11-05,27.350000381469727,27.375,27.229999542236328,27.290000915527344,24.61113739013672,43900
2019-11-06,27.299999237060547,27.299999237060547,27.079999923706055,27.170000076293945,24.50291633605957,81600
2019-11-07,27.1299991607666,27.1299991607666,26.899999618530273,26.899999618530273,24.259422302246094,64700
2019-11-08,26.899999618530273,27.049999237060547,26.899999618530273,26.950000762939453,24.30451202392578,84500
2019-11-11,26.950000762939453,27.016000747680664,26.809999465942383,26.809999465942383,24.178255081176758,51000
2019-11-12,26.860000610351562,27.00200080871582,26.799999237060547,26.8799991607666,24.24138641357422,56600
2019-11-13,26.899999618530273,27.038000106811523,26.889999389648438,26.93000030517578,24.286476135253906,52800
2019-11-14,27.030000686645508,27.15999984741211,27.0,27.09000015258789,24.430770874023438,102700
2019-11-15,27.110000610351562,27.110000610351562,27.040000915527344,27.079999923706055,24.421751022338867,57700
2019-11-18,27.07699966430664,27.149999618530273,27.059999465942383,27.079999923706055,24.421751022338867,86800
2019-11-19,27.100000381469727,27.1200008392334,27.049999237060547,27.06999969482422,24.41273307800293,83800
2019-11-20,27.09000015258789,27.139999389648438,26.860000610351562,26.920000076293945,24.277456283569336,62800
2019-11-21,26.899999618530273,26.989999771118164,26.719999313354492,26.93000030517578,24.286476135253906,103800
2019-11-22,26.989999771118164,27.0,26.850000381469727,26.860000610351562,24.22334861755371,54400
2019-11-25,26.940000534057617,26.969999313354492,26.809999465942383,26.850000381469727,24.214326858520508,62700
2019-11-26,26.860000610351562,26.950000762939453,26.760000228881836,26.763999938964844,24.13677215576172,74400
2019-11-27,26.799999237060547,26.860000610351562,26.600000381469727,26.690000534057617,24.070035934448242,85300
2019-11-29,26.670000076293945,26.68000030517578,26.469999313354492,26.600000381469727,23.98887062072754,150800
2019-12-02,26.6200008392334,26.6200008392334,26.360000610351562,26.420000076293945,23.826539993286133,75200
2019-12-03,26.350000381469727,26.459999084472656,26.31999969482422,26.440000534057617,23.844575881958008,107400
2019-12-04,26.450000762939453,26.559999465942383,26.260000228881836,26.270000457763672,23.691261291503906,138600
2019-12-05,26.270000457763672,26.3799991607666,26.170000076293945,26.3799991607666,23.79046630859375,163100
2019-12-06,26.3799991607666,26.479999542236328,26.309999465942383,26.440000534057617,23.844575881958008,94400
2019-12-09,26.489999771118164,26.559999465942383,26.479999542236328,26.5,23.898683547973633,86200
2019-12-10,26.5,26.510000228881836,26.43000030517578,26.510000228881836,23.907703399658203,46500
2019-12-11,26.549999237060547,26.860000610351562,26.549999237060547,26.799999237060547,24.169235229492188,84700
2019-12-12,26.8799991607666,27.0,26.809999465942383,27.0,24.3496036529541,93600
2019-12-13,27.0,27.440000534057617,26.996000289916992,27.3700008392334,24.68328285217285,82500
2019-12-16,27.3700008392334,27.450000762939453,27.290000915527344,27.399999618530273,24.710338592529297,104200
2019-12-17,27.399999618530273,27.40999984741211,27.200000762939453,27.25,24.575063705444336,151000
2019-12-18,27.299999237060547,27.299999237060547,27.125999450683594,27.25,24.575063705444336,75300
2019-12-19,27.239999771118164,27.309999465942383,27.1200008392334,27.229999542236328,24.557025909423828,86900
2019-12-20,27.270000457763672,27.299999237060547,27.15999984741211,27.280000686645508,24.60211944580078,63800
2019-12-23,27.280000686645508,27.459999084472656,27.200000762939453,27.459999084472656,24.764448165893555,43100
2019-12-24,27.459999084472656,27.540000915527344,27.385000228881836,27.540000915527344,24.836597442626953,18500
2019-12-26,27.540000915527344,27.579999923706055,27.389999389648438,27.579999923706055,24.872671127319336,81700
2019-12-27,27.520000457763672,27.579999923706055,27.400999069213867,27.559999465942383,24.85463523864746,25300
2019-12-30,27.540000915527344,27.549999237060547,27.450000762939453,27.530000686645508,24.827579498291016,35400
2019-12-31,27.530000686645508,27.59000015258789,27.459999084472656,27.559999465942383,24.85463523864746,80200
2020-01-02,27.559999465942383,27.770000457763672,27.450000762939453,27.65999984741211,24.94481658935547,235400
2020-01-03,27.649999618530273,27.809999465942383,27.600000381469727,27.75,25.025981903076172,68300
2020-01-06,27.75,27.799999237060547,27.714000701904297,27.790000915527344,25.062057495117188,95200
2020-01-07,27.719999313354492,27.780000686645508,27.600000381469727,27.739999771118164,25.016963958740234,67700
2020-01-08,27.68000030517578,27.84000015258789,27.68000030517578,27.829999923706055,25.098129272460938,74300
2020-01-09,27.84000015258789,27.899999618530273,27.770000457763672,27.899999618530273,25.161258697509766,58100
2020-01-10,27.899999618530273,28.209999084472656,27.899999618530273,28.190000534057617,25.422792434692383,105100
2020-01-13,28.139999389648438,28.149999618530273,28.049999237060547,28.100000381469727,25.341625213623047,130400
2020-01-14,28.100000381469727,28.100000381469727,28.010000228881836,28.040000915527344,25.287517547607422,108800
2020-01-15,28.030000686645508,28.049999237060547,27.920000076293945,28.030000686645508,25.27849578857422,146600
2020-01-16,27.780000686645508,27.780000686645508,27.639999389648438,27.700000762939453,25.29859161376953,129200
2020-01-17,27.719999313354492,27.729999542236328,27.559999465942383,27.6299991607666,25.234657287597656,47200
2020-01-21,27.649999618530273,27.649999618530273,27.510000228881836,27.559999465942383,25.17072868347168,83600
2020-01-22,27.639999389648438,27.65999984741211,27.520000457763672,27.549999237060547,25.16159439086914,55900
2020-01-23,27.549999237060547,27.570999145507812,27.40999984741211,27.5,25.11592674255371,101000
2020-01-24,27.520000457763672,27.530000686645508,27.399999618530273,27.5,25.11592674255371,64200
2020-01-27,27.440000534057617,27.479000091552734,27.329999923706055,27.3700008392334,24.9971981048584,62400
2020-01-28,27.40999984741211,27.5,27.34000015258789,27.34000015258789,24.96980094909668,58100
2020-01-29,27.329999923706055,27.343000411987305,27.22800064086914,27.299999237060547,24.933263778686523,66400
2020-01-30,27.299999237060547,27.34000015258789,27.25,27.270000457763672,24.90587043762207,66800
2020-01-31,27.3700008392334,27.440000534057617,27.25,27.25,24.887601852416992,86300
2020-02-03,27.3799991607666,27.402000427246094,27.280000686645508,27.3799991607666,25.006332397460938,48400
2020-02-04,27.389999389648438,27.540000915527344,27.389999389648438,27.459999084472656,25.079395294189453,52900
2020-02-05,27.530000686645508,27.600000381469727,27.43000030517578,27.479999542236328,25.09766387939453,56200
2020-02-06,27.530000686645508,27.530000686645508,27.43000030517578,27.440000534057617,25.06113052368164,47500
2020-02-07,27.469999313354492,27.559999465942383,27.43000030517578,27.530000686645508,25.143329620361328,35100
2020-02-10,27.59000015258789,27.739999771118164,27.562999725341797,27.739999771118164,25.335121154785156,56300
2020-02-11,27.739999771118164,27.739999771118164,27.649999618530273,27.700000762939453,25.29859161376953,43400
2020-02-12,27.649999618530273,27.649999618530273,27.3799991607666,27.3799991607666,25.006332397460938,173900
2020-02-13,27.420000076293945,27.489999771118164,27.260000228881836,27.260000228881836,24.8967342376709,102000
2020-02-14,27.299999237060547,27.479999542236328,27.299999237060547,27.479999542236328,25.09766387939453,67900
2020-02-18,27.479999542236328,27.530000686645508,27.448999404907227,27.510000228881836,25.12506103515625,46900
2020-02-19,27.540000915527344,27.549999237060547,27.43000030517578,27.43000030517578,25.051998138427734,169000
2020-02-20,27.469999313354492,27.5,27.38800048828125,27.479999542236328,25.09766387939453,47300
2020-02-21,27.510000228881836,27.540000915527344,27.510000228881836,27.540000915527344,25.152462005615234,58100
2020-02-24,27.389999389648438,27.486000061035156,27.200000762939453,27.200000762939453,24.841938018798828,37900
2020-02-25,27.34000015258789,27.34000015258789,26.799999237060547,26.809999465942383,24.485746383666992,87000
2020-02-26,26.809999465942383,26.950000762939453,26.631000518798828,26.729999542236328,24.41267967224121,110300
2020-02-27,26.700000762939453,26.799999237060547,26.514999389648438,26.670000076293945,24.357885360717773,109600
2020-02-28,26.56999969482422,26.56999969482422,26.030000686645508,26.040000915527344,23.782503128051758,214100
2020-03-02,26.43000030517578,26.65999984741211,26.219999313354492,26.600000381469727,24.29395294189453,98500
2020-03-03,26.700000762939453,27.110000610351562,26.700000762939453,26.780000686645508,24.45834732055664,102700
2020-03-04,26.969999313354492,27.389999389648438,26.809999465942383,27.389999389648438,25.015464782714844,79300
2020-03-05,27.190000534057617,27.459999084472656,27.190000534057617,27.299999237060547,24.933263778686523,53200
2020-03-06,27.100000381469727,27.139999389648438,26.809999465942383,26.850000381469727,24.52227783203125,164900
2020-03-09,26.479999542236328,26.719999313354492,26.1299991607666,26.34000015258789,24.05649185180664,211200
2020-03-10,26.600000381469727,26.746000289916992,26.25,26.450000762939453,24.15695571899414,148600
2020-03-11,26.450000762939453,26.450000762939453,26.100000381469727,26.209999084472656,23.937763214111328,168300
2020-03-12,25.889999389648438,25.889999389648438,24.8799991607666,25.18000030517578,22.99705696105957,373900
2020-03-13,25.549999237060547,25.889999389648438,25.347999572753906,25.889999389648438,23.645503997802734,119100
2020-03-16,24.899999618530273,25.16699981689453,24.299999237060547,24.299999237060547,22.19334602355957,308300
2020-03-17,24.600000381469727,24.899999618530273,24.399999618530273,24.68000030517578,22.540407180786133,181600
2020-03-18,24.299999237060547,24.399999618530273,22.200000762939453,23.049999237060547,21.051715850830078,384200
2020-03-19,23.299999237060547,24.399999618530273,23.100000381469727,24.149999618530273,22.056350708007812,342000
2020-03-20,24.450000762939453,25.0,24.170000076293945,24.280000686645508,22.17508316040039,151100
2020-03-23,24.209999084472656,24.209999084472656,23.0,23.329999923706055,21.30744171142578,240400
2020-03-24,24.149999618530273,24.799999237060547,24.010000228881836,24.520000457763672,22.394271850585938,143000
2020-03-25,24.790000915527344,25.889999389648438,24.7549991607666,25.280000686645508,23.088390350341797,290300
2020-03-26,25.530000686645508,25.799999237060547,25.5,25.799999237060547,23.56330680847168,118400
2020-03-27,25.530000686645508,25.530000686645508,25.0,25.280000686645508,23.088390350341797,120600
2020-03-30,25.399999618530273,25.579999923706055,25.18000030517578,25.469999313354492,23.261917114257812,104900
2020-03-31,25.5,25.600000381469727,25.469999313354492,25.5,23.289316177368164,126200
2020-04-01,25.219999313354492,25.34000015258789,25.0,25.170000076293945,22.987924575805664,140700
2020-04-02,25.0,25.190000534057617,24.829999923706055,25.190000534057617,23.006193161010742,146000
2020-04-03,25.200000762939453,25.200000762939453,24.84000015258789,25.139999389648438,22.960525512695312,92100
2020-04-06,25.459999084472656,25.5,25.260000228881836,25.389999389648438,23.188854217529297,173000
2020-04-07,25.600000381469727,25.809999465942383,25.40999984741211,25.809999465942383,23.57244110107422,108900
2020-04-08,25.799999237060547,26.299999237060547,25.68000030517578,26.110000610351562,23.846435546875,99200
2020-04-09,26.110000610351562,26.549999237060547,26.0,26.479999542236328,24.184356689453125,143200
2020-04-13,26.520000457763672,26.520000457763672,25.75,26.149999618530273,23.882965087890625,100000
2020-04-14,26.3799991607666,26.489999771118164,26.219999313354492,26.450000762939453,24.15695571899414,67800
2020-04-15,25.979999542236328,26.43000030517578,25.75,26.3799991607666,24.417980194091797,181700
2020-04-16,26.479999542236328,26.59000015258789,26.399999618530273,26.479999542236328,24.51054573059082,329700
2020-04-17,26.59000015258789,26.600000381469727,26.440000534057617,26.540000915527344,24.566082000732422,85000
2020-04-20,26.489999771118164,26.600000381469727,26.43000030517578,26.450000762939453,24.48277473449707,64800
2020-04-21,26.40999984741211,26.483999252319336,26.309999465942383,26.469999313354492,24.50128746032715,99600
2020-04-22,26.579999923706055,26.700000762939453,26.479999542236328,26.579999923706055,24.603107452392578,79600
2020-04-23,26.6200008392334,26.719999313354492,26.60099983215332,26.6299991607666,24.649389266967773,67800
2020-04-24,26.709999084472656,26.75,26.520000457763672,26.579999923706055,24.603107452392578,66400
2020-04-27,26.639999389648438,26.73900032043457,26.610000610351562,26.68000030517578,24.6956729888916,37900
2020-04-28,26.700000762939453,26.860000610351562,26.639999389648438,26.639999389648438,24.658645629882812,50700
2020-04-29,26.8799991607666,26.8799991607666,26.599000930786133,26.6200008392334,24.640132904052734,105900
2020-04-30,26.6299991607666,26.83300018310547,26.350000381469727,26.40999984741211,24.445751190185547,153800
2020-05-01,26.450000762939453,26.510000228881836,26.309999465942383,26.459999084472656,24.492033004760742,65900
2020-05-04,26.549999237060547,26.59000015258789,26.5,26.59000015258789,24.612363815307617,45700
2020-05-05,26.56999969482422,26.687999725341797,26.450000762939453,26.469999313354492,24.50128746032715,41400
2020-05-06,26.469999313354492,26.520000457763672,26.389999389648438,26.450000762939453,24.48277473449707,80900
2020-05-07,26.469999313354492,26.54599952697754,26.43000030517578,26.489999771118164,24.519798278808594,83300
2020-05-08,26.540000915527344,26.579999923706055,26.479999542236328,26.579999923706055,24.603107452392578,149700
2020-05-11,26.579999923706055,26.663999557495117,26.549999237060547,26.6299991607666,24.649389266967773,49500
2020-05-12,26.600000381469727,26.670000076293945,26.59000015258789,26.6299991607666,24.649389266967773,38400
2020-05-13,26.6299991607666,26.63599967956543,26.530000686645508,26.540000915527344,24.566082000732422,58900
2020-05-14,26.479999542236328,26.600000381469727,26.329999923706055,26.459999084472656,24.492033004760742,53100
2020-05-15,26.5,26.59000015258789,26.5,26.59000015258789,24.612363815307617,99900
2020-05-18,26.610000610351562,26.780000686645508,26.610000610351562,26.719999313354492,24.732696533203125,38500
2020-05-19,26.709999084472656,26.75,26.636999130249023,26.690000534057617,24.704927444458008,57100
2020-05-20,26.780000686645508,26.799999237060547,26.649999618530273,26.799999237060547,24.806745529174805,40300
2020-05-21,26.719999313354492,26.860000610351562,26.719999313354492,26.780000686645508,24.78823471069336,35400
2020-05-22,26.780000686645508,26.969999313354492,26.780000686645508,26.8799991607666,24.88079261779785,31800
2020-05-26,26.979999542236328,27.040000915527344,26.850000381469727,26.93000030517578,24.927074432373047,65700
2020-05-27,26.989999771118164,27.079999923706055,26.989999771118164,27.079999923706055,25.065919876098633,62600
2020-05-28,27.09000015258789,27.209999084472656,27.059999465942383,27.1200008392334,25.102947235107422,86000
2020-05-29,27.1200008392334,27.200000762939453,27.030000686645508,27.040000915527344,25.028894424438477,60700
2020-06-01,27.010000228881836,27.18000030517578,27.0,27.1299991607666,25.112199783325195,41200
2020-06-02,27.1299991607666,27.290000915527344,27.079999923706055,27.290000915527344,25.260303497314453,22300
2020-06-03,27.389999389648438,27.389999389648438,27.180999755859375,27.350000381469727,25.315839767456055,45800
2020-06-04,27.290000915527344,27.350000381469727,27.190000534057617,27.350000381469727,25.315839767456055,28500
2020-06-05,27.420000076293945,27.440000534057617,27.270000457763672,27.31999969482422,25.288070678710938,37900
2020-06-08,27.25,27.360000610351562,27.25,27.309999465942383,25.2788143157959,39100
2020-06-09,27.290000915527344,27.309999465942383,27.219999313354492,27.280000686645508,25.251047134399414,40600
2020-06-10,27.31999969482422,27.360000610351562,27.270000457763672,27.350000381469727,25.315839767456055,48900
2020-06-11,27.270000457763672,27.299999237060547,26.829999923706055,26.899999618530273,24.89930534362793,69900
2020-06-12,27.100000381469727,27.18000030517578,26.81999969482422,26.81999969482422,24.825258255004883,85300
2020-06-15,26.809999465942383,26.899999618530273,26.709999084472656,26.780000686645508,24.78823471069336,39400
2020-06-16,26.93000030517578,27.149999618530273,26.829999923706055,26.829999923706055,24.83451271057129,74100
2020-06-17,26.899999618530273,26.93000030517578,26.829999923706055,26.889999389648438,24.89004898071289,94100
2020-06-18,26.8700008392334,26.90999984741211,26.850000381469727,26.899999618530273,24.89930534362793,27900
2020-06-19,26.940000534057617,26.999000549316406,26.899999618530273,26.899999618530273,24.89930534362793,37900
2020-06-22,26.969999313354492,27.0,26.799999237060547,26.809999465942383,24.816001892089844,79900
2020-06-23,26.860000610351562,26.860000610351562,26.780000686645508,26.809999465942383,24.816001892089844,69200
2020-06-24,26.860000610351562,26.860000610351562,26.729999542236328,26.799999237060547,24.806745529174805,65800
2020-06-25,26.829999923706055,26.829999923706055,26.729999542236328,26.760000228881836,24.76972007751465,31200
2020-06-26,26.760000228881836,26.78700065612793,26.700000762939453,26.709999084472656,24.723438262939453,40500
2020-06-29,26.739999771118164,26.739999771118164,26.600000381469727,26.68000030517578,24.6956729888916,45100
2020-06-30,26.68000030517578,26.700000762939453,26.510000228881836,26.530000686645508,24.556827545166016,241800
2020-07-01,26.6200008392334,26.670000076293945,26.615999221801758,26.639999389648438,24.658645629882812,51300
2020-07-02,26.709999084472656,26.889999389648438,26.709999084472656,26.809999465942383,24.816001892089844,42400
2020-07-06,26.860000610351562,26.945999145507812,26.81999969482422,26.8700008392334,24.871538162231445,34500
2020-07-07,26.860000610351562,26.8700008392334,26.829999923706055,26.860000610351562,24.862281799316406,31200
2020-07-08,26.860000610351562,27.079999923706055,26.860000610351562,27.079999923706055,25.065919876098633,53300
2020-07-09,27.09000015258789,27.149999618530273,26.989999771118164,27.149999618530273,25.130712509155273,65200
2020-07-10,27.190000534057617,27.25,27.06999969482422,27.25,25.223278045654297,48900
2020-07-13,27.25,27.299999237060547,27.100000381469727,27.100000381469727,25.08443260192871,76700
2020-07-14,27.110000610351562,27.280000686645508,27.038000106811523,27.200000762939453,25.1769962310791,40300
2020-07-15,27.34000015258789,27.344999313354492,27.1560001373291,27.219999313354492,25.195507049560547,33300
2020-07-16,26.979999542236328,27.170000076293945,26.899999618530273,27.110000610351562,25.422443389892578,45000
2020-07-17,27.15999984741211,27.2450008392334,27.030000686645508,27.229999542236328,25.534975051879883,29700
2020-07-20,27.25,27.309999465942383,27.100000381469727,27.110000610351562,25.422443389892578,40800
2020-07-21,27.200000762939453,27.329999923706055,27.200000762939453,27.290000915527344,25.59123992919922,30900
2020-07-22,27.239999771118164,27.309999465942383,27.229999542236328,27.309999465942383,25.60999298095703,46500
2020-07-23,27.270000457763672,27.350000381469727,27.229999542236328,27.295000076293945,25.595928192138672,38600
2020-07-24,27.350000381469727,27.3799991607666,27.299999237060547,27.309999465942383,25.60999298095703,20400
2020-07-27,27.309999465942383,27.389999389648438,27.309999465942383,27.334999084472656,25.63343620300293,31800
2020-07-28,27.309999465942383,27.357999801635742,27.25,27.299999237060547,25.600614547729492,33600
2020-07-29,27.309999465942383,27.440000534057617,27.309999465942383,27.440000534057617,25.731901168823242,41100
2020-07-30,27.440000534057617,27.5,27.40999984741211,27.40999984741211,25.703767776489258,48000
2020-07-31,27.40999984741211,27.5,27.40999984741211,27.5,25.788164138793945,45400
2020-08-03,27.5,27.56999969482422,27.469999313354492,27.520000457763672,25.80691909790039,34200
2020-08-04,27.479999542236328,27.625,27.45599937438965,27.610000610351562,25.89131736755371,54200
2020-08-05,27.600000381469727,27.600000381469727,27.540000915527344,27.540000915527344,25.82567596435547,27200
2020-08-06,27.530000686645508,27.530000686645508,27.3799991607666,27.3799991607666,25.675636291503906,29000
2020-08-07,27.3799991607666,27.540000915527344,27.3799991607666,27.489999771118164,25.77878761291504,29900
2020-08-10,27.3799991607666,27.474000930786133,27.3799991607666,27.3799991607666,25.675636291503906,28500
2020-08-11,27.479999542236328,27.479999542236328,27.260000228881836,27.290000915527344,25.59123992919922,76500
2020-08-12,27.299999237060547,27.479999542236328,27.290000915527344,27.469999313354492,25.760032653808594,81900
2020-08-13,27.399999618530273,27.469999313354492,27.3799991607666,27.450000762939453,25.74127769470215,34200
2020-08-14,27.389999389648438,27.440000534057617,27.34000015258789,27.3799991607666,25.675636291503906,52400
2020-08-17,27.43000030517578,27.450000762939453,27.34000015258789,27.420000076293945,25.713146209716797,64300
2020-08-18,27.43000030517578,27.600000381469727,27.41200065612793,27.600000381469727,25.881942749023438,95400
2020-08-19,27.600000381469727,27.760000228881836,27.559999465942383,27.729999542236328,26.003849029541016,50400
2020-08-20,27.610000610351562,27.8700008392334,27.610000610351562,27.850000381469727,26.11638069152832,54900
2020-08-21,27.850000381469727,27.850000381469727,27.700000762939453,27.780000686645508,26.050737380981445,31400
2020-08-24,27.799999237060547,27.90999984741211,27.780000686645508,27.84000015258789,26.10700225830078,39000
2020-08-25,27.780000686645508,27.81399917602539,27.780000686645508,27.790000915527344,26.060115814208984,48900
2020-08-26,27.809999465942383,27.979999542236328,27.77899932861328,27.940000534057617,26.200777053833008,55400
2020-08-27,27.940000534057617,27.940000534057617,27.790000915527344,27.799999237060547,26.06949234008789,48200
2020-08-28,27.760000228881836,27.799999237060547,27.579999923706055,27.579999923706055,25.86318588256836,41300
2020-08-31,27.540000915527344,27.549999237060547,27.3700008392334,27.440000534057617,25.731901168823242,103300
2020-09-01,27.5,27.549999237060547,27.469999313354492,27.5,25.788164138793945,54500
2020-09-02,27.5,27.5,27.3799991607666,27.3799991607666,25.675636291503906,74700
2020-09-03,27.3799991607666,27.427000045776367,27.18000030517578,27.200000762939453,25.506839752197266,118600
2020-09-04,27.200000762939453,27.25,27.09000015258789,27.139999389648438,25.45057487487793,41000
2020-09-08,27.139999389648438,27.18000030517578,27.020000457763672,27.020000457763672,25.338045120239258,32500
2020-09-09,27.1200008392334,27.18000030517578,27.020000457763672,27.139999389648438,25.45057487487793,78400
2020-09-10,27.18000030517578,27.260000228881836,27.09000015258789,27.18000030517578,25.488086700439453,51000
2020-09-11,27.18000030517578,27.239999771118164,27.1299991607666,27.190000534057617,25.49746322631836,39500
2020-09-14,27.200000762939453,27.34000015258789,27.190000534057617,27.200000762939453,25.506839752197266,33100
2020-09-15,27.229999542236328,27.350000381469727,27.219999313354492,27.290000915527344,25.59123992919922,80000
2020-09-16,27.299999237060547,27.389999389648438,27.260000228881836,27.260000228881836,25.5631046295166,64900
2020-09-17,27.18000030517578,27.329999923706055,27.1299991607666,27.149999618530273,25.45995330810547,40600
2020-09-18,27.200000762939453,27.200000762939453,27.010000228881836,27.020000457763672,25.338045120239258,61600
2020-09-21,26.989999771118164,26.989999771118164,26.899999618530273,26.969999313354492,25.291156768798828,94200
2020-09-22,27.0,27.110000610351562,26.950000762939453,27.100000381469727,25.413066864013672,210700
2020-09-23,27.110000610351562,27.18000030517578,26.950000762939453,27.0,25.31928825378418,175100
2020-09-24,26.940000534057617,27.049999237060547,26.889999389648438,26.940000534057617,25.263025283813477,61900
2020-09-25,26.989999771118164,27.110000610351562,26.950000762939453,27.059999465942383,25.375553131103516,160800
2020-09-28,27.200000762939453,27.200000762939453,27.079999923706055,27.079999923706055,25.39430809020996,71900
2020-09-29,27.139999389648438,27.183000564575195,27.049999237060547,27.09000015258789,25.403688430786133,55400
2020-09-30,27.1299991607666,27.239999771118164,26.969999313354492,26.979999542236328,25.300535202026367,206300
2020-10-01,27.1200008392334,27.299999237060547,27.030000686645508,27.290000915527344,25.59123992919922,60900
2020-10-02,27.219999313354492,27.290000915527344,27.100000381469727,27.209999084472656,25.516218185424805,126300
2020-10-05,27.280000686645508,27.43000030517578,27.260000228881836,27.420000076293945,25.713146209716797,82100
2020-10-06,27.479999542236328,27.649999618530273,27.40999984741211,27.639999389648438,25.919450759887695,106300
2020-10-07,27.600000381469727,27.770000457763672,27.600000381469727,27.75,26.02260398864746,76300
2020-10-08,27.75,27.75,27.65999984741211,27.75,26.02260398864746,46000
2020-10-09,27.709999084472656,27.75,27.6200008392334,27.649999618530273,25.9288272857666,37200
2020-10-12,27.639999389648438,27.700000762939453,27.579999923706055,27.700000762939453,25.97571563720703,50400
2020-10-13,27.670000076293945,27.899999618530273,27.649999618530273,27.889999389648438,26.15389060974121,84100
2020-10-14,27.889999389648438,27.889999389648438,27.719999313354492,27.770000457763672,26.041357040405273,40100
2020-10-15,27.299999237060547,27.469999313354492,27.260000228881836,27.43000030517578,26.05275535583496,34600
2020-10-16,27.360000610351562,27.43000030517578,27.34000015258789,27.389999389648438,26.01476287841797,58100
2020-10-19,27.389999389648438,27.690000534057617,27.270000457763672,27.559999465942383,26.176227569580078,237200
2020-10-20,27.56999969482422,27.770000457763672,27.461000442504883,27.729999542236328,26.337692260742188,46400
2020-10-21,27.719999313354492,27.719999313354492,27.360000610351562,27.450000762939453,26.07175064086914,104400
2020-10-22,27.549999237060547,27.600000381469727,27.360000610351562,27.5,26.11924171447754,96800
2020-10-23,27.5,27.549999237060547,27.440000534057617,27.540000915527344,26.15723419189453,48300
2020-10-26,27.540000915527344,27.600000381469727,27.360000610351562,27.450000762939453,26.07175064086914,58500
2020-10-27,27.479999542236328,27.52199935913086,27.35300064086914,27.450000762939453,26.07175064086914,32400
2020-10-28,27.299999237060547,27.450000762939453,27.170000076293945,27.209999084472656,25.843801498413086,46600
2020-10-29,27.1299991607666,27.350000381469727,27.100000381469727,27.100000381469727,25.73932647705078,44200
2020-10-30,27.170000076293945,27.229999542236328,26.889999389648438,27.010000228881836,25.653844833374023,111800
2020-11-02,27.049999237060547,27.135000228881836,26.8799991607666,26.889999389648438,25.539867401123047,53800
2020-11-03,26.959999084472656,27.138999938964844,26.905000686645508,26.940000534057617,25.587358474731445,79900
2020-11-04,27.040000915527344,27.304000854492188,27.040000915527344,27.219999313354492,25.853300094604492,37400
2020-11-05,27.299999237060547,27.434999465942383,27.299999237060547,27.34000015258789,25.967273712158203,43500
2020-11-06,27.34000015258789,27.420000076293945,27.15999984741211,27.170000076293945,25.805809020996094,30300
2020-11-09,27.309999465942383,27.549999237060547,27.19300079345703,27.530000686645508,26.147735595703125,81800
2020-11-10,27.5,27.600000381469727,27.40999984741211,27.40999984741211,26.03376007080078,70600
2020-11-11,27.469999313354492,27.469999313354492,27.350000381469727,27.3700008392334,25.995769500732422,30600
2020-11-12,27.3700008392334,27.469999313354492,27.343000411987305,27.400999069213867,26.025211334228516,23300
2020-11-13,27.459999084472656,27.559999465942383,27.440000534057617,27.530000686645508,26.147735595703125,33000
2020-11-16,27.510000228881836,27.65999984741211,27.440000534057617,27.639999389648438,26.252212524414062,43800
2020-11-17,27.600000381469727,27.709999084472656,27.510000228881836,27.530000686645508,26.147735595703125,68100
2020-11-18,27.5,27.59000015258789,27.479999542236328,27.5,26.11924171447754,50900
2020-11-19,27.549999237060547,27.68000030517578,27.510000228881836,27.610000610351562,26.223718643188477,35500
2020-11-20,27.610000610351562,27.700000762939453,27.549999237060547,27.690000534057617,26.299701690673828,78000
2020-11-23,27.65999984741211,27.860000610351562,27.610000610351562,27.84000015258789,26.442171096801758,35600
2020-11-24,27.799999237060547,27.8700008392334,27.7549991607666,27.8700008392334,26.470664978027344,37000
2020-11-25,27.799999237060547,27.850000381469727,27.700000762939453,27.739999771118164,26.34718894958496,63500
2020-11-27,27.739999771118164,27.850000381469727,27.700000762939453,27.829999923706055,26.43267059326172,11100
2020-11-30,27.770000457763672,27.81999969482422,27.65999984741211,27.65999984741211,26.271207809448242,88600
2020-12-01,27.700000762939453,27.760000228881836,27.670000076293945,27.75,26.356689453125,39300
2020-12-02,27.700000762939453,27.856000900268555,27.700000762939453,27.780000686645508,26.385183334350586,29100
2020-12-03,27.790000915527344,27.82900047302246,27.610000610351562,27.690000534057617,26.299701690673828,74700
2020-12-04,27.690000534057617,27.690000534057617,27.56999969482422,27.56999969482422,26.185726165771484,97200
2020-12-07,27.639999389648438,27.670000076293945,27.530000686645508,27.56999969482422,26.185726165771484,78800
2020-12-08,27.670000076293945,27.739999771118164,27.6299991607666,27.700000762939453,26.309200286865234,53600
2020-12-09,27.700000762939453,27.739999771118164,27.700000762939453,27.709999084472656,26.318695068359375,36100
2020-12-10,27.739999771118164,27.790000915527344,27.5,27.549999237060547,26.166730880737305,49800
2020-12-11,27.56999969482422,27.700000762939453,27.549999237060547,27.649999618530273,26.261709213256836,57900
2020-12-14,27.649999618530273,27.72599983215332,27.559999465942383,27.56999969482422,26.185726165771484,47800
2020-12-15,27.639999389648438,27.739999771118164,27.59000015258789,27.670000076293945,26.28070640563965,55000
2020-12-16,27.65999984741211,27.850000381469727,27.65999984741211,27.84000015258789,26.442171096801758,31800
2020-12-17,27.860000610351562,27.884000778198242,27.739999771118164,27.850000381469727,26.45166778564453,29400
2020-12-18,27.8700008392334,27.899999618530273,27.77199935913086,27.899999618530273,26.499156951904297,25500
2020-12-21,27.75,27.940000534057617,27.700000762939453,27.860000610351562,26.461164474487305,50900
2020-12-22,27.899999618530273,28.0,27.799999237060547,27.93000030517578,26.527652740478516,65100
2020-12-23,27.950000762939453,28.110000610351562,27.8700008392334,28.110000610351562,26.6986141204834,48100
2020-12-24,28.1200008392334,28.18000030517578,28.059999465942383,28.139999389648438,26.72710609436035,36600
2020-12-28,28.139999389648438,28.139999389648438,28.040000915527344,28.059999465942383,26.651121139526367,50900
2020-12-29,28.059999465942383,28.113000869750977,27.809999465942383,27.829999923706055,26.43267059326172,129800
2020-12-30,27.829999923706055,27.979999542236328,27.829999923706055,27.899999618530273,26.499156951904297,43400
