Date,Open,High,Low,Close,Adj Close,Volume
2020-06-18,24.5,24.670000076293945,24.1299991607666,24.5,22.431291580200195,22800
2020-06-19,24.489999771118164,24.5,24.299999237060547,24.450000762939453,22.385515213012695,12700
2020-06-22,24.25,24.5,24.200000762939453,24.200000762939453,22.15662384033203,20900
2020-06-23,24.25,24.25,24.1299991607666,24.200000762939453,22.15662384033203,45600
2020-06-24,24.149999618530273,24.200000762939453,23.799999237060547,23.899999618530273,21.8819522857666,32800
2020-06-25,23.850000381469727,24.25,23.600000381469727,24.149999618530273,22.110843658447266,65400
2020-06-26,24.28700065612793,24.28700065612793,23.950000762939453,24.049999237060547,22.019287109375,17100
2020-06-29,24.239999771118164,24.450000762939453,24.0,24.450000762939453,22.385515213012695,47500
2020-06-30,24.510000228881836,24.59000015258789,24.25,24.450000762939453,22.385515213012695,18800
2020-07-01,24.5,24.59000015258789,24.350000381469727,24.5,22.431291580200195,19300
2020-07-02,24.59000015258789,24.59000015258789,24.450000762939453,24.450000762939453,22.385515213012695,17100
2020-07-06,24.5,24.5,24.350000381469727,24.360000610351562,22.303110122680664,9900
2020-07-07,24.450000762939453,24.540000915527344,24.350000381469727,24.520000457763672,22.449602127075195,30200
2020-07-08,24.5,24.5,24.100000381469727,24.43000030517578,22.367202758789062,9800
2020-07-09,24.469999313354492,24.469999313354492,24.190000534057617,24.3700008392334,22.31226921081543,4800
2020-07-10,24.25,24.360000610351562,24.15999984741211,24.31999969482422,22.266489028930664,7900
2020-07-13,24.420000076293945,24.420000076293945,24.1299991607666,24.1299991607666,22.092533111572266,9500
2020-07-14,24.350000381469727,24.520000457763672,24.100000381469727,24.520000457763672,22.449602127075195,64300
2020-07-15,24.5,24.530000686645508,24.450000762939453,24.5,22.431291580200195,38500
2020-07-16,24.450000762939453,24.5,24.450000762939453,24.5,22.431291580200195,34400
2020-07-17,24.299999237060547,24.5,24.299999237060547,24.5,22.431291580200195,5600
2020-07-20,24.420000076293945,24.5,24.40999984741211,24.5,22.431291580200195,2300
2020-07-21,24.274999618530273,24.600000381469727,24.200000762939453,24.600000381469727,22.52284812927246,25700
2020-07-22,24.600000381469727,25.100000381469727,24.59000015258789,25.0,22.889070510864258,29100
2020-07-23,24.899999618530273,24.950000762939453,24.850000381469727,24.899999618530273,22.797517776489258,20300
2020-07-24,24.950000762939453,24.950000762939453,24.700000762939453,24.8700008392334,22.770048141479492,14600
2020-07-27,24.8799991607666,24.940000534057617,24.780000686645508,24.899999618530273,22.797517776489258,10300
2020-07-28,24.895000457763672,25.0,24.815000534057617,24.93199920654297,22.826812744140625,6600
2020-07-29,24.93000030517578,25.09000015258789,24.93000030517578,25.09000015258789,22.971473693847656,21400
2020-07-30,25.09000015258789,25.09000015258789,25.0049991607666,25.049999237060547,22.93484878540039,6900
2020-07-31,25.100000381469727,25.350000381469727,25.059999465942383,25.059999465942383,22.94400405883789,5200
2020-08-03,25.18000030517578,25.18000030517578,24.979999542236328,25.020000457763672,22.90738296508789,13100
2020-08-04,25.190000534057617,25.190000534057617,24.969999313354492,24.969999313354492,22.861604690551758,10700
2020-08-05,25.06999969482422,25.149999618530273,25.06599998474121,25.1299991607666,23.008094787597656,5400
2020-08-06,25.190000534057617,25.200000762939453,25.149999618530273,25.149999618530273,23.026405334472656,4900
2020-08-07,25.15999984741211,25.209999084472656,25.049999237060547,25.09000015258789,22.971473693847656,10400
2020-08-10,25.219999313354492,25.274999618530273,25.059999465942383,25.274999618530273,23.140851974487305,14500
2020-08-11,24.809999465942383,25.329999923706055,24.809999465942383,25.139999389648438,23.017250061035156,12500
2020-08-12,25.31999969482422,25.350000381469727,25.072999954223633,25.200000762939453,23.07218360900879,10800
2020-08-13,25.5,25.5,25.350000381469727,25.350000381469727,23.209518432617188,18900
2020-08-14,25.350000381469727,25.5,25.264999389648438,25.329999923706055,23.19120979309082,28100
2020-08-17,25.530000686645508,25.549999237060547,25.450000762939453,25.4950008392334,23.34227752685547,7700
2020-08-18,25.700000762939453,25.700000762939453,25.209999084472656,25.350000381469727,23.209518432617188,57100
2020-08-19,25.399999618530273,25.520000457763672,25.239999771118164,25.520000457763672,23.36516571044922,8400
2020-08-20,25.510000228881836,25.510000228881836,25.280000686645508,25.299999237060547,23.163740158081055,25400
2020-08-21,25.329999923706055,25.520000457763672,25.299999237060547,25.5,23.346853256225586,5700
2020-08-24,25.540000915527344,25.600000381469727,25.399999618530273,25.399999618530273,23.25529670715332,23000
2020-08-25,25.579999923706055,25.6299991607666,25.350000381469727,25.399999618530273,23.25529670715332,33400
2020-08-26,25.3700008392334,25.389999389648438,25.239999771118164,25.309999465942383,23.172895431518555,183200
2020-08-27,25.389999389648438,25.469999313354492,25.299999237060547,25.299999237060547,23.163740158081055,2700
2020-08-28,25.440000534057617,25.440000534057617,25.260000228881836,25.399999618530273,23.25529670715332,14200
2020-08-31,25.420000076293945,25.489999771118164,25.389999389648438,25.469999313354492,23.319385528564453,9400
2020-09-01,25.5,25.579999923706055,25.433000564575195,25.56999969482422,23.41094207763672,28200
2020-09-02,25.579999923706055,25.729999542236328,25.579999923706055,25.729999542236328,23.557432174682617,20400
2020-09-03,25.719999313354492,25.719999313354492,25.549999237060547,25.649999618530273,23.484188079833984,11400
2020-09-04,25.649999618530273,25.649999618530273,25.530000686645508,25.649999618530273,23.484188079833984,13400
2020-09-08,25.649999618530273,25.75,25.6200008392334,25.75,23.575742721557617,17500
2020-09-09,25.790000915527344,25.850000381469727,25.75,25.850000381469727,23.667299270629883,13400
2020-09-10,25.8700008392334,25.989999771118164,25.850000381469727,25.989999771118164,23.795480728149414,12700
2020-09-11,25.989999771118164,25.989999771118164,25.549999237060547,25.729999542236328,23.557432174682617,44700
2020-09-14,25.5,25.5,25.270000457763672,25.479999542236328,24.271873474121094,29400
2020-09-15,25.479999542236328,25.579999923706055,25.31999969482422,25.389999389648438,24.186140060424805,33600
2020-09-16,25.440000534057617,25.479999542236328,25.270000457763672,25.479999542236328,24.271873474121094,28200
2020-09-17,25.360000610351562,25.479999542236328,25.360000610351562,25.479999542236328,24.271873474121094,12400
2020-09-18,25.5,25.5,25.31999969482422,25.389999389648438,24.186140060424805,7500
2020-09-21,25.329999923706055,25.3799991607666,24.969999313354492,25.3799991607666,24.176610946655273,17100
2020-09-22,25.43000030517578,25.579999923706055,25.371999740600586,25.579999923706055,24.367130279541016,10000
2020-09-23,25.459999084472656,25.600000381469727,25.450000762939453,25.549999237060547,24.338552474975586,14700
2020-09-24,25.540000915527344,25.549999237060547,25.350000381469727,25.5,24.290924072265625,20200
2020-09-25,25.5,25.56999969482422,25.360000610351562,25.520000457763672,24.30997657775879,9500
2020-09-28,25.520000457763672,25.559999465942383,25.329999923706055,25.440000534057617,24.2337703704834,25000
2020-09-29,25.3700008392334,25.600000381469727,25.350000381469727,25.5,24.290924072265625,6300
2020-09-30,25.540000915527344,25.65999984741211,25.516000747680664,25.649999618530273,24.43381118774414,6200
2020-10-01,25.5049991607666,25.979999542236328,25.5049991607666,25.979999542236328,24.7481632232666,13700
2020-10-02,25.75,25.979999542236328,25.649999618530273,25.950000762939453,24.719589233398438,12800
2020-10-05,25.6200008392334,25.700000762939453,25.489999771118164,25.600000381469727,24.386180877685547,21100
2020-10-06,25.6200008392334,25.88599967956543,25.610000610351562,25.88599967956543,24.658620834350586,3500
2020-10-07,25.764999389648438,25.979999542236328,25.75,25.950000762939453,24.719589233398438,3900
2020-10-08,25.849000930786133,26.0,25.809999465942383,26.0,24.767215728759766,12600
2020-10-09,25.989999771118164,26.0,25.850000381469727,26.0,24.767215728759766,3100
2020-10-12,25.989999771118164,26.0,25.81999969482422,26.0,24.767215728759766,11500
2020-10-13,26.0,26.139999389648438,25.993999481201172,26.0,24.767215728759766,8500
2020-10-14,26.1200008392334,26.1200008392334,25.75,26.0,24.767215728759766,17100
2020-10-15,25.950000762939453,26.0,25.950000762939453,26.0,24.767215728759766,1300
2020-10-16,26.0,26.0,26.0,26.0,24.767215728759766,500
2020-10-19,26.0,26.0,25.924999237060547,26.0,24.767215728759766,4600
2020-10-20,25.989999771118164,26.100000381469727,25.8799991607666,26.100000381469727,24.862476348876953,24500
2020-10-21,26.100000381469727,26.100000381469727,26.0,26.040000915527344,24.805320739746094,5900
2020-10-22,26.030000686645508,26.100000381469727,25.8799991607666,26.100000381469727,24.862476348876953,10700
2020-10-23,26.100000381469727,26.100000381469727,25.87700080871582,26.100000381469727,24.862476348876953,11100
2020-10-26,26.100000381469727,26.25,26.100000381469727,26.25,25.00536346435547,10700
2020-10-27,26.145000457763672,26.239999771118164,26.097999572753906,26.190000534057617,24.94820785522461,4700
2020-10-28,25.968000411987305,26.149999618530273,25.902000427246094,26.1200008392334,24.881526947021484,5800
2020-10-29,25.920000076293945,26.139999389648438,25.829999923706055,26.1299991607666,24.89105224609375,4000
2020-10-30,26.1299991607666,26.1299991607666,26.1299991607666,26.1299991607666,24.89105224609375,0
2020-11-02,26.0,26.200000762939453,25.739999771118164,26.15999984741211,24.91963005065918,5400
2020-11-03,26.0,26.25,26.0,26.25,25.00536346435547,4100
2020-11-04,26.25,26.489999771118164,25.850000381469727,26.299999237060547,25.052989959716797,12400
2020-11-05,26.5,26.5,26.25,26.489999771118164,25.233983993530273,4400
2020-11-06,26.5,26.5,26.045000076293945,26.469999313354492,25.214929580688477,900
2020-11-09,26.5,26.6200008392334,25.600000381469727,26.600000381469727,25.338768005371094,6600
2020-11-10,26.5,26.969999313354492,26.424999237060547,26.969999313354492,25.691225051879883,20000
2020-11-11,26.5,26.799999237060547,26.4950008392334,26.600000381469727,25.338768005371094,15900
2020-11-12,26.600000381469727,26.600000381469727,26.200000762939453,26.450000762939453,25.195880889892578,9900
2020-11-13,26.600000381469727,26.600000381469727,26.309999465942383,26.309999465942383,25.062519073486328,4900
2020-11-16,26.549999237060547,26.549999237060547,26.420000076293945,26.420000076293945,25.16730308532715,2500
2020-11-17,26.600000381469727,26.600000381469727,26.3799991607666,26.389999389648438,25.138723373413086,12200
2020-11-18,26.75,26.75,26.75,26.75,25.48165512084961,600
2020-11-19,26.420000076293945,26.700000762939453,26.420000076293945,26.5,25.243511199951172,6600
2020-11-20,26.40999984741211,26.702999114990234,26.399999618530273,26.55299949645996,25.293996810913086,9200
2020-11-23,26.479999542236328,26.65999984741211,26.450000762939453,26.649999618530273,25.386398315429688,2900
2020-11-24,26.469999313354492,26.780000686645508,26.450000762939453,26.770000457763672,25.500707626342773,10500
2020-11-25,26.770000457763672,26.790000915527344,26.5,26.665000915527344,25.400686264038086,4200
2020-11-27,26.799999237060547,26.799999237060547,26.799999237060547,26.799999237060547,25.52928352355957,800
2020-11-30,26.667999267578125,26.799999237060547,26.667999267578125,26.725000381469727,25.457841873168945,2100
2020-12-01,26.69499969482422,26.950000762939453,26.69499969482422,26.81999969482422,25.548337936401367,3900
2020-12-02,26.799999237060547,27.0,26.799999237060547,26.81999969482422,25.548337936401367,7900
2020-12-03,27.040000915527344,27.059999465942383,26.75,27.040000915527344,25.757905960083008,3100
2020-12-04,27.059999465942383,27.209999084472656,26.799999237060547,27.0,25.719802856445312,2900
2020-12-07,26.895999908447266,27.200000762939453,26.799999237060547,27.200000762939453,25.91031837463379,5800
2020-12-08,27.200000762939453,27.350000381469727,27.180999755859375,27.350000381469727,26.053205490112305,6400
2020-12-09,27.299999237060547,27.350000381469727,27.25,27.350000381469727,26.053205490112305,4900
2020-12-10,27.030000686645508,27.420000076293945,27.030000686645508,27.420000076293945,26.119888305664062,4300
2020-12-11,27.299999237060547,27.600000381469727,27.184999465942383,27.600000381469727,26.291353225708008,7600
2020-12-14,27.399999618530273,27.399999618530273,27.0,27.239999771118164,26.37364959716797,9500
2020-12-15,27.100000381469727,27.209999084472656,26.719999313354492,27.06999969482422,26.209054946899414,7200
2020-12-16,26.760000228881836,26.989999771118164,26.68000030517578,26.81999969482422,25.96700668334961,5700
2020-12-17,26.799999237060547,27.389999389648438,26.799999237060547,27.0,26.14128303527832,6900
2020-12-18,27.18000030517578,27.270000457763672,27.010000228881836,27.23200035095215,26.36590576171875,2100
2020-12-21,27.010000228881836,27.389999389648438,27.010000228881836,27.389999389648438,26.518877029418945,2100
2020-12-22,27.3700008392334,27.3700008392334,27.3700008392334,27.3700008392334,26.499513626098633,200
2020-12-23,27.3799991607666,27.3799991607666,27.26300048828125,27.3799991607666,26.50919532775879,1600
2020-12-24,27.3799991607666,27.3799991607666,27.3799991607666,27.3799991607666,26.50919532775879,0
2020-12-28,27.33300018310547,27.389999389648438,27.209999084472656,27.209999084472656,26.344600677490234,2700
2020-12-29,27.389999389648438,27.399999618530273,27.059999465942383,27.350000381469727,26.480152130126953,5900
2020-12-30,27.3700008392334,27.3700008392334,27.3700008392334,27.3700008392334,26.499513626098633,400
