Date,Open,High,Low,Close,Adj Close,Volume
2018-06-28,25.0,31.200000762939453,24.75,26.0,26.0,4009600
2018-06-29,26.309999465942383,31.0,26.309999465942383,29.899999618530273,29.899999618530273,665200
2018-07-02,29.459999084472656,30.5,29.010000228881836,30.010000228881836,30.010000228881836,330100
2018-07-03,30.40999984741211,34.79999923706055,30.3700008392334,32.939998626708984,32.939998626708984,426800
2018-07-05,34.0,34.650001525878906,33.0,34.0099983215332,34.0099983215332,235500
2018-07-06,34.0099983215332,34.70600128173828,30.40999984741211,30.5,30.5,234400
2018-07-09,30.760000228881836,31.360000610351562,30.06100082397461,31.06999969482422,31.06999969482422,65100
2018-07-10,31.06999969482422,33.25,31.0049991607666,32.86000061035156,32.86000061035156,71500
2018-07-11,32.86000061035156,32.86000061035156,30.8700008392334,30.989999771118164,30.989999771118164,77200
2018-07-12,31.579999923706055,32.57600021362305,30.0,30.81999969482422,30.81999969482422,48700
2018-07-13,30.68899917602539,30.68899917602539,28.530000686645508,29.100000381469727,29.100000381469727,280000
2018-07-16,29.100000381469727,30.3439998626709,28.655000686645508,29.030000686645508,29.030000686645508,125200
2018-07-17,29.309999465942383,29.999000549316406,27.309999465942383,28.56999969482422,28.56999969482422,106500
2018-07-18,29.0,29.408000946044922,26.770000457763672,28.799999237060547,28.799999237060547,137100
2018-07-19,29.25,30.56999969482422,28.174999237060547,29.889999389648438,29.889999389648438,93200
2018-07-20,29.510000228881836,30.707000732421875,29.260000228881836,29.5,29.5,76000
2018-07-23,28.43000030517578,29.530000686645508,26.549999237060547,29.25,29.25,48900
2018-07-24,29.450000762939453,29.805999755859375,26.940000534057617,27.100000381469727,27.100000381469727,44600
2018-07-25,27.18000030517578,28.485000610351562,26.549999237060547,27.059999465942383,27.059999465942383,94700
2018-07-26,26.770000457763672,27.559999465942383,25.059999465942383,26.219999313354492,26.219999313354492,291200
2018-07-27,25.5,26.0,23.0,24.360000610351562,24.360000610351562,194500
2018-07-30,23.469999313354492,24.0,23.0,23.18000030517578,23.18000030517578,126600
2018-07-31,22.59000015258789,24.0,22.0,23.649999618530273,23.649999618530273,152000
2018-08-01,23.860000610351562,23.920000076293945,21.8700008392334,22.969999313354492,22.969999313354492,126100
2018-08-02,22.790000915527344,24.0,22.0,22.5,22.5,279600
2018-08-03,22.309999465942383,23.75,22.049999237060547,23.549999237060547,23.549999237060547,56100
2018-08-06,23.649999618530273,24.799999237060547,23.489999771118164,23.8700008392334,23.8700008392334,134500
2018-08-07,23.959999084472656,24.635000228881836,23.170000076293945,23.81999969482422,23.81999969482422,27300
2018-08-08,23.959999084472656,24.0,23.132999420166016,24.0,24.0,89700
2018-08-09,22.770000457763672,24.84000015258789,22.770000457763672,23.84000015258789,23.84000015258789,111800
2018-08-10,22.770000457763672,23.899999618530273,22.770000457763672,23.719999313354492,23.719999313354492,78600
2018-08-13,23.850000381469727,24.0,23.110000610351562,23.5,23.5,69800
2018-08-14,23.459999084472656,24.0,23.195999145507812,23.770000457763672,23.770000457763672,67600
2018-08-15,23.5,23.860000610351562,23.0,23.459999084472656,23.459999084472656,94200
2018-08-16,23.5,24.3799991607666,23.489999771118164,23.68000030517578,23.68000030517578,125300
2018-08-17,23.5,24.165000915527344,23.5,23.75,23.75,105500
2018-08-20,23.56999969482422,23.959999084472656,23.3700008392334,23.5,23.5,86800
2018-08-21,23.5,24.1299991607666,23.440000534057617,23.559999465942383,23.559999465942383,112400
2018-08-22,23.510000228881836,24.700000762939453,23.510000228881836,24.31999969482422,24.31999969482422,59700
2018-08-23,24.489999771118164,25.639999389648438,23.68000030517578,25.3799991607666,25.3799991607666,136000
2018-08-24,25.3700008392334,27.3799991607666,25.0,27.0,27.0,87000
2018-08-27,26.889999389648438,27.25,25.670000076293945,25.809999465942383,25.809999465942383,57500
2018-08-28,25.799999237060547,28.165000915527344,25.6299991607666,27.459999084472656,27.459999084472656,70800
2018-08-29,27.309999465942383,29.989999771118164,27.170000076293945,29.3700008392334,29.3700008392334,80700
2018-08-30,29.360000610351562,32.97999954223633,29.030000686645508,31.149999618530273,31.149999618530273,115700
2018-08-31,31.049999237060547,31.979000091552734,30.309999465942383,30.829999923706055,30.829999923706055,46200
2018-09-04,30.940000534057617,32.939998626708984,29.950000762939453,32.290000915527344,32.290000915527344,153300
2018-09-05,32.349998474121094,37.8849983215332,31.579999923706055,37.52000045776367,37.52000045776367,150000
2018-09-06,37.189998626708984,39.4900016784668,35.16999816894531,36.279998779296875,36.279998779296875,161000
2018-09-07,36.25,39.220001220703125,36.02000045776367,36.439998626708984,36.439998626708984,168800
2018-09-10,36.439998626708984,40.099998474121094,35.5,39.349998474121094,39.349998474121094,305400
2018-09-11,38.91999816894531,39.900001525878906,34.01100158691406,34.88999938964844,34.88999938964844,389600
2018-09-12,34.720001220703125,36.45000076293945,34.0,35.040000915527344,35.040000915527344,193600
2018-09-13,35.25,37.119998931884766,34.16999816894531,35.47999954223633,35.47999954223633,156900
2018-09-14,36.04999923706055,36.35499954223633,33.52000045776367,35.599998474121094,35.599998474121094,217100
2018-09-17,35.540000915527344,36.220001220703125,34.150001525878906,34.459999084472656,34.459999084472656,154700
2018-09-18,34.43000030517578,36.060001373291016,33.7599983215332,35.540000915527344,35.540000915527344,215700
2018-09-19,35.540000915527344,36.36000061035156,34.03099822998047,35.599998474121094,35.599998474121094,298500
2018-09-20,35.849998474121094,38.349998474121094,35.849998474121094,36.779998779296875,36.779998779296875,370000
2018-09-21,36.61000061035156,38.20000076293945,34.150001525878906,36.439998626708984,36.439998626708984,2115400
2018-09-24,36.0099983215332,36.6150016784668,33.630001068115234,33.810001373291016,33.810001373291016,288100
2018-09-25,33.77000045776367,34.904998779296875,32.314998626708984,33.63999938964844,33.63999938964844,294500
2018-09-26,33.779998779296875,34.08000183105469,31.56999969482422,32.66999816894531,32.66999816894531,87500
2018-09-27,32.810001373291016,32.810001373291016,31.280000686645508,31.850000381469727,31.850000381469727,57900
2018-09-28,31.7450008392334,31.7450008392334,29.010000228881836,30.549999237060547,30.549999237060547,137100
2018-10-01,30.649999618530273,31.454999923706055,29.600000381469727,30.1299991607666,30.1299991607666,79900
2018-10-02,30.010000228881836,31.100000381469727,29.549999237060547,29.920000076293945,29.920000076293945,147900
2018-10-03,29.920000076293945,31.139999389648438,28.34000015258789,28.68000030517578,28.68000030517578,86800
2018-10-04,28.68000030517578,28.979999542236328,26.559999465942383,27.75,27.75,132300
2018-10-05,28.170000076293945,31.173999786376953,27.739999771118164,27.899999618530273,27.899999618530273,108900
2018-10-08,27.719999313354492,28.815000534057617,27.100000381469727,27.549999237060547,27.549999237060547,142900
2018-10-09,27.399999618530273,28.791000366210938,27.010000228881836,27.670000076293945,27.670000076293945,69800
2018-10-10,27.670000076293945,28.420000076293945,26.079999923706055,28.1200008392334,28.1200008392334,165400
2018-10-11,27.920000076293945,30.100000381469727,26.048999786376953,29.059999465942383,29.059999465942383,164000
2018-10-12,29.299999237060547,29.299999237060547,27.239999771118164,28.6299991607666,28.6299991607666,94000
2018-10-15,28.469999313354492,29.469999313354492,28.0,29.079999923706055,29.079999923706055,72200
2018-10-16,29.219999313354492,30.729999542236328,28.58099937438965,30.420000076293945,30.420000076293945,176000
2018-10-17,30.34000015258789,31.0,29.26300048828125,30.729999542236328,30.729999542236328,88700
2018-10-18,30.56999969482422,30.895000457763672,29.420000076293945,30.049999237060547,30.049999237060547,88400
2018-10-19,29.899999618530273,30.722999572753906,29.0,30.040000915527344,30.040000915527344,92700
2018-10-22,30.15999984741211,30.889999389648438,28.65999984741211,30.1200008392334,30.1200008392334,68600
2018-10-23,29.65999984741211,30.979999542236328,29.139999389648438,30.459999084472656,30.459999084472656,149500
2018-10-24,30.549999237060547,30.906999588012695,25.0,25.860000610351562,25.860000610351562,137300
2018-10-25,26.010000228881836,28.290000915527344,26.0,27.610000610351562,27.610000610351562,84200
2018-10-26,27.100000381469727,28.469999313354492,26.020000457763672,27.950000762939453,27.950000762939453,127200
2018-10-29,28.3700008392334,28.3700008392334,26.510000228881836,27.110000610351562,27.110000610351562,129000
2018-10-30,27.06999969482422,28.350000381469727,26.010000228881836,26.5,26.5,81900
2018-10-31,26.709999084472656,27.635000228881836,26.520000457763672,27.0,27.0,206100
2018-11-01,27.219999313354492,28.360000610351562,27.0,28.079999923706055,28.079999923706055,169900
2018-11-02,27.8799991607666,28.25,27.209999084472656,27.969999313354492,27.969999313354492,42700
2018-11-05,27.950000762939453,28.200000762939453,27.100000381469727,27.700000762939453,27.700000762939453,42300
2018-11-06,27.65999984741211,28.059999465942383,26.549999237060547,27.049999237060547,27.049999237060547,55600
2018-11-07,26.93000030517578,28.3700008392334,26.93000030517578,27.350000381469727,27.350000381469727,58100
2018-11-08,27.010000228881836,30.649999618530273,26.7189998626709,28.40999984741211,28.40999984741211,287000
2018-11-09,28.170000076293945,30.399999618530273,28.170000076293945,29.719999313354492,29.719999313354492,102300
2018-11-12,29.459999084472656,30.040000915527344,28.299999237060547,28.34000015258789,28.34000015258789,50000
2018-11-13,28.899999618530273,30.010000228881836,27.96500015258789,29.290000915527344,29.290000915527344,65000
2018-11-14,29.809999465942383,31.3799991607666,29.700000762939453,30.84000015258789,30.84000015258789,106100
2018-11-15,30.780000686645508,31.450000762939453,29.979999542236328,30.25,30.25,92100
2018-11-16,30.030000686645508,31.639999389648438,29.760000228881836,31.299999237060547,31.299999237060547,86000
2018-11-19,31.329999923706055,31.844999313354492,29.1299991607666,29.299999237060547,29.299999237060547,63800
2018-11-20,28.8700008392334,30.139999389648438,27.965999603271484,29.0,29.0,58600
2018-11-21,29.149999618530273,30.809999465942383,28.799999237060547,30.059999465942383,30.059999465942383,50600
2018-11-23,30.06999969482422,31.360000610351562,29.510000228881836,29.899999618530273,29.899999618530273,40100
2018-11-26,30.299999237060547,31.1299991607666,28.860000610351562,29.25,29.25,67500
2018-11-27,28.899999618530273,30.299999237060547,27.15999984741211,27.889999389648438,27.889999389648438,110000
2018-11-28,27.81999969482422,31.219999313354492,27.81999969482422,30.829999923706055,30.829999923706055,120800
2018-11-29,30.520000457763672,32.020999908447266,29.1299991607666,29.5,29.5,53900
2018-11-30,29.389999389648438,31.149999618530273,29.040000915527344,29.850000381469727,29.850000381469727,187000
2018-12-03,30.649999618530273,30.700000762939453,29.014999389648438,30.43000030517578,30.43000030517578,74800
2018-12-04,30.3700008392334,30.65999984741211,28.020000457763672,28.549999237060547,28.549999237060547,105400
2018-12-06,28.049999237060547,29.8799991607666,26.75,29.3799991607666,29.3799991607666,136100
2018-12-07,29.350000381469727,30.059999465942383,28.0,29.8700008392334,29.8700008392334,92300
2018-12-10,29.56999969482422,31.969999313354492,28.552000045776367,31.780000686645508,31.780000686645508,113200
2018-12-11,32.0,32.95000076293945,31.200000762939453,32.33000183105469,32.33000183105469,72700
2018-12-12,32.65999984741211,33.72999954223633,31.270000457763672,31.479999542236328,31.479999542236328,120900
2018-12-13,31.479999542236328,32.3129997253418,30.700000762939453,31.040000915527344,31.040000915527344,130500
2018-12-14,30.610000610351562,32.04999923706055,30.31999969482422,31.829999923706055,31.829999923706055,81700
2018-12-17,31.610000610351562,32.91999816894531,30.25,30.780000686645508,30.780000686645508,145100
2018-12-18,31.239999771118164,31.424999237060547,29.139999389648438,29.799999237060547,29.799999237060547,123400
2018-12-19,29.81999969482422,30.350000381469727,29.100000381469727,29.8799991607666,29.8799991607666,158600
2018-12-20,30.079999923706055,30.635000228881836,26.969999313354492,28.010000228881836,28.010000228881836,181300
2018-12-21,27.920000076293945,28.90999984741211,24.290000915527344,24.6200008392334,24.6200008392334,944500
2018-12-24,23.760000228881836,25.21500015258789,23.334999084472656,24.8799991607666,24.8799991607666,188200
2018-12-26,24.8700008392334,25.75,24.469999313354492,24.799999237060547,24.799999237060547,220600
2018-12-27,24.43000030517578,24.899999618530273,22.899999618530273,23.639999389648438,23.639999389648438,502600
2018-12-28,23.520000457763672,24.420000076293945,23.2549991607666,23.56999969482422,23.56999969482422,377600
2018-12-31,23.56999969482422,24.040000915527344,22.799999237060547,23.579999923706055,23.579999923706055,126200
2019-01-02,23.18000030517578,24.100000381469727,22.639999389648438,23.1200008392334,23.1200008392334,264300
2019-01-03,22.8700008392334,22.983999252319336,21.079999923706055,21.200000762939453,21.200000762939453,192300
2019-01-04,21.360000610351562,23.18000030517578,21.25,22.979999542236328,22.979999542236328,77800
2019-01-07,23.139999389648438,24.1299991607666,22.69499969482422,22.950000762939453,22.950000762939453,158800
2019-01-08,22.889999389648438,23.100000381469727,22.440000534057617,22.969999313354492,22.969999313354492,135000
2019-01-09,22.940000534057617,23.3799991607666,21.1200008392334,23.020000457763672,23.020000457763672,165500
2019-01-10,22.780000686645508,23.280000686645508,21.790000915527344,22.959999084472656,22.959999084472656,199300
2019-01-11,22.56999969482422,23.489999771118164,22.56999969482422,23.239999771118164,23.239999771118164,147500
2019-01-14,23.229999542236328,23.229999542236328,21.799999237060547,22.040000915527344,22.040000915527344,215300
2019-01-15,22.100000381469727,23.03499984741211,21.549999237060547,22.59000015258789,22.59000015258789,260800
2019-01-16,22.360000610351562,23.389999389648438,22.239999771118164,22.600000381469727,22.600000381469727,205000
2019-01-17,22.59000015258789,22.59000015258789,21.31999969482422,21.3700008392334,21.3700008392334,90300
2019-01-18,21.450000762939453,22.479999542236328,21.350000381469727,21.959999084472656,21.959999084472656,135200
2019-01-22,21.979999542236328,22.739999771118164,21.6200008392334,22.31999969482422,22.31999969482422,360300
2019-01-23,22.149999618530273,22.59000015258789,20.299999237060547,21.0,21.0,125000
2019-01-24,20.950000762939453,21.450000762939453,20.610000610351562,21.25,21.25,113100
2019-01-25,21.309999465942383,21.3799991607666,20.34000015258789,21.09000015258789,21.09000015258789,124900
2019-01-28,20.93000030517578,20.93000030517578,20.0,20.049999237060547,20.049999237060547,88300
2019-01-29,20.110000610351562,21.049999237060547,19.639999389648438,19.959999084472656,19.959999084472656,62900
2019-01-30,20.100000381469727,20.917999267578125,19.43000030517578,20.670000076293945,20.670000076293945,95300
2019-01-31,20.68000030517578,22.540000915527344,20.674999237060547,21.940000534057617,21.940000534057617,126700
2019-02-01,21.940000534057617,22.17099952697754,20.950000762939453,21.100000381469727,21.100000381469727,118300
2019-02-04,21.110000610351562,21.354999542236328,20.280000686645508,20.5,20.5,77500
2019-02-05,20.540000915527344,21.709999084472656,20.329999923706055,21.389999389648438,21.389999389648438,291500
2019-02-06,21.420000076293945,21.690000534057617,20.309999465942383,21.170000076293945,21.170000076293945,127000
2019-02-07,21.049999237060547,21.600000381469727,20.530000686645508,20.959999084472656,20.959999084472656,105600
2019-02-08,20.829999923706055,22.229999542236328,20.69499969482422,21.860000610351562,21.860000610351562,53300
2019-02-11,21.899999618530273,22.56999969482422,21.3799991607666,22.1299991607666,22.1299991607666,402700
2019-02-12,22.329999923706055,22.829999923706055,21.549999237060547,22.18000030517578,22.18000030517578,88700
2019-02-13,21.969999313354492,22.780000686645508,21.969999313354492,22.559999465942383,22.559999465942383,49800
2019-02-14,22.360000610351562,22.850000381469727,21.969999313354492,22.219999313354492,22.219999313354492,205500
2019-02-15,22.3700008392334,23.100000381469727,21.899999618530273,23.059999465942383,23.059999465942383,100500
2019-02-19,23.059999465942383,23.329999923706055,22.520000457763672,22.889999389648438,22.889999389648438,131100
2019-02-20,22.8700008392334,23.139999389648438,22.190000534057617,22.81999969482422,22.81999969482422,57800
2019-02-21,22.75,22.770000457763672,21.280000686645508,22.43000030517578,22.43000030517578,54800
2019-02-22,22.440000534057617,23.459999084472656,21.899999618530273,22.510000228881836,22.510000228881836,169100
2019-02-25,22.799999237060547,23.209999084472656,22.222999572753906,22.280000686645508,22.280000686645508,157100
2019-02-26,22.229999542236328,23.639999389648438,22.229999542236328,22.989999771118164,22.989999771118164,257600
2019-02-27,22.950000762939453,23.28499984741211,22.899999618530273,23.010000228881836,23.010000228881836,117000
2019-02-28,23.0,23.639999389648438,22.969999313354492,23.1299991607666,23.1299991607666,145700
2019-03-01,23.15999984741211,24.25,23.145000457763672,23.719999313354492,23.719999313354492,643000
2019-03-04,23.84000015258789,24.5,23.549999237060547,24.0,24.0,178300
2019-03-05,23.989999771118164,24.729999542236328,23.989999771118164,24.559999465942383,24.559999465942383,95600
2019-03-06,24.549999237060547,24.719999313354492,23.719999313354492,23.889999389648438,23.889999389648438,129300
2019-03-07,23.809999465942383,24.18000030517578,22.75,23.219999313354492,23.219999313354492,81800
2019-03-08,23.010000228881836,23.43000030517578,22.040000915527344,22.579999923706055,22.579999923706055,151000
2019-03-11,22.59000015258789,23.860000610351562,22.59000015258789,23.5,23.5,148900
2019-03-12,23.600000381469727,24.739999771118164,23.56999969482422,24.5,24.5,218200
2019-03-13,24.600000381469727,25.030000686645508,24.309999465942383,24.959999084472656,24.959999084472656,193000
2019-03-14,25.09000015258789,25.149999618530273,24.155000686645508,24.729999542236328,24.729999542236328,161600
2019-03-15,24.760000228881836,25.1200008392334,24.479999542236328,24.8700008392334,24.8700008392334,837500
2019-03-18,24.889999389648438,26.420000076293945,24.520000457763672,25.90999984741211,25.90999984741211,279900
2019-03-19,25.899999618530273,26.170000076293945,25.399999618530273,25.579999923706055,25.579999923706055,140000
2019-03-20,25.59000015258789,25.989999771118164,25.15999984741211,25.450000762939453,25.450000762939453,98800
2019-03-21,25.3700008392334,26.0,25.190000534057617,25.389999389648438,25.389999389648438,90300
2019-03-22,25.200000762939453,25.399999618530273,23.690000534057617,23.959999084472656,23.959999084472656,200800
2019-03-25,23.81999969482422,24.360000610351562,23.0,23.139999389648438,23.139999389648438,278400
2019-03-26,23.270000457763672,24.790000915527344,22.700000762939453,24.239999771118164,24.239999771118164,496300
2019-03-27,24.100000381469727,24.940000534057617,23.594999313354492,24.06999969482422,24.06999969482422,387600
2019-03-28,26.0,38.22999954223633,25.829999923706055,37.79999923706055,37.79999923706055,3238900
2019-03-29,36.5,40.82899856567383,36.25299835205078,38.619998931884766,38.619998931884766,1249800
2019-04-01,39.75,39.75,34.0,35.33000183105469,35.33000183105469,665200
2019-04-02,34.36000061035156,39.619998931884766,33.90999984741211,36.25,36.25,868000
2019-04-03,36.25,37.72999954223633,35.29199981689453,36.59000015258789,36.59000015258789,429800
2019-04-04,36.599998474121094,37.369998931884766,35.150001525878906,36.599998474121094,36.599998474121094,2673000
2019-04-05,36.91999816894531,37.130001068115234,35.27000045776367,36.59000015258789,36.59000015258789,477500
2019-04-08,36.68000030517578,38.209999084472656,35.75,36.54999923706055,36.54999923706055,541300
2019-04-09,36.40999984741211,36.518001556396484,34.5,34.58000183105469,34.58000183105469,571800
2019-04-10,34.58000183105469,35.314998626708984,34.06999969482422,34.099998474121094,34.099998474121094,548500
2019-04-11,34.189998626708984,34.52000045776367,32.09000015258789,32.5,32.5,686500
2019-04-12,33.0,33.560001373291016,32.22999954223633,32.83000183105469,32.83000183105469,1093600
2019-04-15,33.029998779296875,33.25,32.619998931884766,32.7400016784668,32.7400016784668,550900
2019-04-16,32.880001068115234,33.720001220703125,32.189998626708984,33.65999984741211,33.65999984741211,355400
2019-04-17,33.66999816894531,33.70000076293945,30.200000762939453,31.510000228881836,31.510000228881836,424300
2019-04-18,31.549999237060547,33.08000183105469,30.690000534057617,31.15999984741211,31.15999984741211,273200
2019-04-22,31.15999984741211,31.594999313354492,30.469999313354492,31.299999237060547,31.299999237060547,213600
2019-04-23,31.329999923706055,32.630001068115234,31.079999923706055,32.459999084472656,32.459999084472656,445600
2019-04-24,32.45000076293945,33.25,31.899999618530273,32.630001068115234,32.630001068115234,258300
2019-04-25,32.650001525878906,33.66999816894531,32.22999954223633,33.06999969482422,33.06999969482422,200100
2019-04-26,33.029998779296875,34.06999969482422,32.86000061035156,33.79999923706055,33.79999923706055,189900
2019-04-29,33.959999084472656,34.29499816894531,33.540000915527344,34.119998931884766,34.119998931884766,188000
2019-04-30,34.11000061035156,34.63999938964844,33.619998931884766,34.2599983215332,34.2599983215332,245700
2019-05-01,34.119998931884766,34.290000915527344,32.0099983215332,32.349998474121094,32.349998474121094,199100
2019-05-02,32.349998474121094,32.7599983215332,31.780000686645508,32.25,32.25,151600
2019-05-03,32.40999984741211,33.91999816894531,32.27000045776367,33.5099983215332,33.5099983215332,205100
2019-05-06,32.869998931884766,34.52000045776367,32.869998931884766,34.4900016784668,34.4900016784668,122800
2019-05-07,34.099998474121094,35.20000076293945,34.040000915527344,34.689998626708984,34.689998626708984,298000
2019-05-08,34.529998779296875,35.97999954223633,34.5099983215332,35.25,35.25,178500
2019-05-09,34.09000015258789,37.040000915527344,33.09000015258789,35.52000045776367,35.52000045776367,795800
2019-05-10,35.2400016784668,35.689998626708984,33.650001525878906,35.119998931884766,35.119998931884766,256800
2019-05-13,34.54999923706055,34.7599983215332,33.150001525878906,34.72999954223633,34.72999954223633,321800
2019-05-14,35.099998474121094,36.290000915527344,34.66999816894531,35.5,35.5,199300
2019-05-15,35.27000045776367,36.619998931884766,35.22999954223633,36.310001373291016,36.310001373291016,140000
2019-05-16,36.40999984741211,37.630001068115234,35.720001220703125,36.130001068115234,36.130001068115234,134100
2019-05-17,35.86000061035156,36.900001525878906,35.7400016784668,36.060001373291016,36.060001373291016,199200
2019-05-20,35.68000030517578,36.84000015258789,35.61000061035156,36.20000076293945,36.20000076293945,240100
2019-05-21,36.310001373291016,37.70000076293945,35.189998626708984,37.2599983215332,37.2599983215332,217000
2019-05-22,37.27000045776367,37.869998931884766,36.47999954223633,37.56999969482422,37.56999969482422,238800
2019-05-23,37.38999938964844,37.939998626708984,36.91999816894531,37.880001068115234,37.880001068115234,118300
2019-05-24,38.599998474121094,39.23899841308594,37.33000183105469,37.459999084472656,37.459999084472656,244300
2019-05-28,37.5,38.75,36.599998474121094,36.849998474121094,36.849998474121094,402300
2019-05-29,36.59000015258789,37.564998626708984,36.060001373291016,36.4900016784668,36.4900016784668,271400
2019-05-30,36.77000045776367,37.04999923706055,35.9109992980957,36.220001220703125,36.220001220703125,297100
2019-05-31,35.790000915527344,37.43000030517578,35.119998931884766,36.7400016784668,36.7400016784668,219900
2019-06-03,36.7400016784668,37.4900016784668,35.68000030517578,37.40999984741211,37.40999984741211,226200
2019-06-04,37.790000915527344,37.81999969482422,35.790000915527344,36.29999923706055,36.29999923706055,185000
2019-06-05,36.47999954223633,36.71500015258789,35.909000396728516,36.290000915527344,36.290000915527344,239900
2019-06-06,36.349998474121094,36.529998779296875,34.959999084472656,35.439998626708984,35.439998626708984,138600
2019-06-07,35.54999923706055,36.22999954223633,35.09000015258789,35.70000076293945,35.70000076293945,405400
2019-06-10,35.88999938964844,36.400001525878906,33.65999984741211,33.84000015258789,33.84000015258789,195900
2019-06-11,34.0,34.83000183105469,32.849998474121094,34.43000030517578,34.43000030517578,308000
2019-06-12,34.349998474121094,35.810001373291016,33.650001525878906,35.220001220703125,35.220001220703125,202400
2019-06-13,35.31999969482422,35.77000045776367,34.34000015258789,35.27000045776367,35.27000045776367,153500
2019-06-14,35.189998626708984,35.45500183105469,34.290000915527344,34.47999954223633,34.47999954223633,141700
2019-06-17,34.47999954223633,37.33000183105469,34.345001220703125,37.04999923706055,37.04999923706055,212700
2019-06-18,37.04999923706055,37.95000076293945,36.54100036621094,37.36000061035156,37.36000061035156,126800
2019-06-19,37.290000915527344,38.459999084472656,37.125,37.58000183105469,37.58000183105469,247300
2019-06-20,37.56999969482422,38.310001373291016,34.66999816894531,34.91999816894531,34.91999816894531,253600
2019-06-21,34.58000183105469,35.0,33.525001525878906,34.380001068115234,34.380001068115234,314700
2019-06-24,34.40999984741211,35.45000076293945,33.20000076293945,35.0,35.0,293000
2019-06-25,35.72999954223633,36.2400016784668,34.40999984741211,35.150001525878906,35.150001525878906,200300
2019-06-26,35.31999969482422,35.369998931884766,34.439998626708984,35.04999923706055,35.04999923706055,130800
2019-06-27,36.27000045776367,39.59000015258789,35.847999572753906,38.20000076293945,38.20000076293945,407700
2019-06-28,38.66999816894531,39.91999816894531,38.22999954223633,39.459999084472656,39.459999084472656,901700
2019-07-01,39.900001525878906,42.79999923706055,39.29399871826172,42.220001220703125,42.220001220703125,617700
2019-07-02,42.029998779296875,42.18000030517578,38.88999938964844,39.04999923706055,39.04999923706055,294000
2019-07-03,38.95000076293945,39.29499816894531,35.84000015258789,37.29999923706055,37.29999923706055,364000
2019-07-05,37.0,37.380001068115234,35.58100128173828,35.7400016784668,35.7400016784668,175400
2019-07-08,35.560001373291016,35.560001373291016,34.0099983215332,34.130001068115234,34.130001068115234,248400
2019-07-09,33.97999954223633,35.02000045776367,33.61000061035156,34.20000076293945,34.20000076293945,282700
2019-07-10,34.47999954223633,35.02000045776367,33.22999954223633,34.560001373291016,34.560001373291016,177400
2019-07-11,34.52000045776367,34.52000045776367,32.4900016784668,33.22999954223633,33.22999954223633,147300
2019-07-12,32.95000076293945,33.34000015258789,32.04999923706055,33.119998931884766,33.119998931884766,271200
2019-07-15,33.209999084472656,33.9900016784668,32.34000015258789,33.04999923706055,33.04999923706055,160600
2019-07-16,33.06999969482422,33.70000076293945,32.612998962402344,33.369998931884766,33.369998931884766,162700
2019-07-17,33.5,34.209999084472656,32.85499954223633,33.66999816894531,33.66999816894531,104700
2019-07-18,33.65999984741211,33.869998931884766,32.51499938964844,33.400001525878906,33.400001525878906,135000
2019-07-19,33.209999084472656,34.560001373291016,33.209999084472656,33.380001068115234,33.380001068115234,145100
2019-07-22,33.47999954223633,34.95500183105469,33.22999954223633,33.900001525878906,33.900001525878906,162200
2019-07-23,33.97999954223633,34.18000030517578,32.06999969482422,32.599998474121094,32.599998474121094,211300
2019-07-24,32.52000045776367,33.11000061035156,32.013999938964844,32.470001220703125,32.470001220703125,248900
2019-07-25,32.41999816894531,32.720001220703125,31.0,31.610000610351562,31.610000610351562,243700
2019-07-26,31.75,33.599998474121094,31.510000228881836,32.290000915527344,32.290000915527344,179900
2019-07-29,32.41999816894531,32.8129997253418,30.770000457763672,31.209999084472656,31.209999084472656,222200
2019-07-30,31.059999465942383,32.56999969482422,30.84000015258789,32.36000061035156,32.36000061035156,137500
2019-07-31,32.459999084472656,32.72999954223633,31.280000686645508,31.559999465942383,31.559999465942383,180800
2019-08-01,31.309999465942383,32.81999969482422,30.59000015258789,32.209999084472656,32.209999084472656,264100
2019-08-02,32.060001373291016,32.22999954223633,29.649999618530273,30.5,30.5,163000
2019-08-05,29.989999771118164,30.25,29.299999237060547,29.8700008392334,29.8700008392334,157600
2019-08-06,30.1200008392334,31.170000076293945,29.940000534057617,31.010000228881836,31.010000228881836,334700
2019-08-07,30.760000228881836,32.22999954223633,30.19300079345703,31.3700008392334,31.3700008392334,99800
2019-08-08,31.559999465942383,32.709999084472656,31.40999984741211,32.43000030517578,32.43000030517578,164200
2019-08-09,34.2599983215332,34.880001068115234,32.0,33.02000045776367,33.02000045776367,329700
2019-08-12,32.599998474121094,34.68000030517578,31.09000015258789,32.41999816894531,32.41999816894531,310500
2019-08-13,32.349998474121094,33.94499969482422,31.850000381469727,33.13999938964844,33.13999938964844,197300
2019-08-14,32.68000030517578,33.08000183105469,31.704999923706055,32.130001068115234,32.130001068115234,141200
2019-08-15,32.959999084472656,33.790000915527344,31.334999084472656,32.63999938964844,32.63999938964844,187200
2019-08-16,32.720001220703125,34.95000076293945,32.650001525878906,34.63999938964844,34.63999938964844,170400
2019-08-19,34.95000076293945,35.95000076293945,34.8129997253418,35.27000045776367,35.27000045776367,274300
2019-08-20,35.150001525878906,35.400001525878906,33.685001373291016,34.2400016784668,34.2400016784668,222800
2019-08-21,34.47999954223633,35.36000061035156,33.880001068115234,35.20000076293945,35.20000076293945,277300
2019-08-22,35.290000915527344,35.88999938964844,33.9900016784668,34.27000045776367,34.27000045776367,87300
2019-08-23,34.13999938964844,34.58000183105469,32.834999084472656,33.130001068115234,33.130001068115234,173400
2019-08-26,33.38999938964844,34.38999938964844,32.54199981689453,33.95000076293945,33.95000076293945,114500
2019-08-27,34.18000030517578,34.6150016784668,32.650001525878906,33.33000183105469,33.33000183105469,203100
2019-08-28,33.220001220703125,34.79499816894531,32.88399887084961,34.34000015258789,34.34000015258789,121500
2019-08-29,34.65999984741211,35.20000076293945,34.13999938964844,35.08000183105469,35.08000183105469,86100
2019-08-30,35.099998474121094,35.099998474121094,33.619998931884766,34.88999938964844,34.88999938964844,100200
2019-09-03,34.36000061035156,35.470001220703125,33.055999755859375,33.86000061035156,33.86000061035156,177400
2019-09-04,34.31999969482422,34.78499984741211,32.0099983215332,33.970001220703125,33.970001220703125,143900
2019-09-05,34.099998474121094,35.95500183105469,33.7400016784668,35.45000076293945,35.45000076293945,424000
2019-09-06,35.630001068115234,35.630001068115234,33.849998474121094,34.119998931884766,34.119998931884766,149700
2019-09-09,34.2400016784668,34.63999938964844,33.369998931884766,34.040000915527344,34.040000915527344,131600
2019-09-10,33.849998474121094,34.22999954223633,32.470001220703125,33.06999969482422,33.06999969482422,272400
2019-09-11,33.119998931884766,34.849998474121094,33.119998931884766,34.150001525878906,34.150001525878906,221300
2019-09-12,34.36000061035156,35.5,33.58000183105469,34.4900016784668,34.4900016784668,109000
2019-09-13,34.66999816894531,35.314998626708984,33.34000015258789,33.61000061035156,33.61000061035156,112300
2019-09-16,33.43000030517578,34.779998779296875,33.15999984741211,34.15999984741211,34.15999984741211,159600
2019-09-17,34.130001068115234,34.75,33.38600158691406,34.400001525878906,34.400001525878906,227800
2019-09-18,34.27000045776367,35.34000015258789,33.41999816894531,34.15999984741211,34.15999984741211,129500
2019-09-19,34.16999816894531,34.540000915527344,32.900001525878906,33.06999969482422,33.06999969482422,162900
2019-09-20,32.97999954223633,33.41999816894531,32.59000015258789,33.130001068115234,33.130001068115234,238100
2019-09-23,33.04999923706055,33.86000061035156,32.81999969482422,33.189998626708984,33.189998626708984,102800
2019-09-24,33.33000183105469,33.58000183105469,32.220001220703125,32.59000015258789,32.59000015258789,202900
2019-09-25,32.61000061035156,33.439998626708984,31.799999237060547,32.45000076293945,32.45000076293945,229100
2019-09-26,32.439998626708984,32.84000015258789,30.260000228881836,30.8700008392334,30.8700008392334,200500
2019-09-27,31.0,32.18000030517578,30.235000610351562,30.770000457763672,30.770000457763672,197000
2019-09-30,30.979999542236328,31.399999618530273,30.0,30.8700008392334,30.8700008392334,183000
2019-10-01,30.549999237060547,31.700000762939453,30.010000228881836,30.56999969482422,30.56999969482422,327700
2019-10-02,30.389999389648438,31.65999984741211,29.799999237060547,31.420000076293945,31.420000076293945,133700
2019-10-03,31.40999984741211,32.415000915527344,30.62299919128418,32.15999984741211,32.15999984741211,214500
2019-10-04,32.310001373291016,32.619998931884766,30.59000015258789,31.700000762939453,31.700000762939453,180800
2019-10-07,31.59000015258789,32.46500015258789,31.030000686645508,31.170000076293945,31.170000076293945,103100
2019-10-08,30.739999771118164,30.959999084472656,28.649999618530273,30.059999465942383,30.059999465942383,166700
2019-10-09,30.3700008392334,30.3700008392334,29.229999542236328,29.600000381469727,29.600000381469727,85900
2019-10-10,29.649999618530273,30.6200008392334,29.399999618530273,30.459999084472656,30.459999084472656,128800
2019-10-11,30.989999771118164,32.209999084472656,30.599000930786133,31.06999969482422,31.06999969482422,179700
2019-10-14,31.040000915527344,31.479999542236328,30.5,31.290000915527344,31.290000915527344,139900
2019-10-15,31.360000610351562,33.58000183105469,31.030000686645508,32.95000076293945,32.95000076293945,466700
2019-10-16,33.0,34.70000076293945,32.90999984741211,33.59000015258789,33.59000015258789,323200
2019-10-17,33.709999084472656,35.3650016784668,33.709999084472656,34.93000030517578,34.93000030517578,352800
2019-10-18,34.689998626708984,35.560001373291016,34.689998626708984,35.400001525878906,35.400001525878906,166500
2019-10-21,35.75,36.2400016784668,35.15999984741211,36.20000076293945,36.20000076293945,243600
2019-10-22,36.400001525878906,36.88999938964844,35.82500076293945,35.959999084472656,35.959999084472656,239300
2019-10-23,35.970001220703125,36.779998779296875,35.25,36.29999923706055,36.29999923706055,146100
2019-10-24,36.41999816894531,36.8129997253418,35.59000015258789,36.400001525878906,36.400001525878906,105300
2019-10-25,36.31999969482422,37.47999954223633,35.994998931884766,36.72999954223633,36.72999954223633,249600
2019-10-28,36.939998626708984,38.04999923706055,36.58000183105469,37.25,37.25,352500
2019-10-29,37.22999954223633,37.43000030517578,36.5099983215332,36.9900016784668,36.9900016784668,99200
2019-10-30,36.95000076293945,37.13999938964844,35.720001220703125,36.9900016784668,36.9900016784668,105200
2019-10-31,36.779998779296875,37.81999969482422,36.2400016784668,37.40999984741211,37.40999984741211,158900
2019-11-01,37.25,39.20000076293945,37.25,38.939998626708984,38.939998626708984,242500
2019-11-04,39.2599983215332,40.27000045776367,38.90999984741211,39.2599983215332,39.2599983215332,274900
2019-11-05,39.439998626708984,40.47999954223633,38.779998779296875,39.38999938964844,39.38999938964844,293200
2019-11-06,39.20000076293945,40.150001525878906,38.56999969482422,39.22999954223633,39.22999954223633,141600
2019-11-07,39.5,40.40999984741211,38.849998474121094,39.279998779296875,39.279998779296875,190800
2019-11-08,39.20000076293945,40.02000045776367,38.619998931884766,38.97999954223633,38.97999954223633,131800
2019-11-11,38.77000045776367,39.470001220703125,38.0099983215332,39.0099983215332,39.0099983215332,183400
2019-11-12,39.040000915527344,40.279998779296875,38.75,39.70000076293945,39.70000076293945,253900
2019-11-13,39.09000015258789,39.4900016784668,36.51499938964844,36.720001220703125,36.720001220703125,394200
2019-11-14,36.66999816894531,37.29999923706055,35.29999923706055,35.849998474121094,35.849998474121094,285600
2019-11-15,35.0,36.0,32.849998474121094,33.599998474121094,33.599998474121094,763200
2019-11-18,33.33000183105469,34.560001373291016,32.95000076293945,34.2599983215332,34.2599983215332,272800
2019-11-19,34.290000915527344,37.81999969482422,34.20000076293945,37.189998626708984,37.189998626708984,289100
2019-11-20,37.79999923706055,41.119998931884766,37.790000915527344,40.189998626708984,40.189998626708984,830300
2019-11-21,40.380001068115234,41.36000061035156,39.86000061035156,40.83000183105469,40.83000183105469,414600
2019-11-22,40.599998474121094,41.73500061035156,40.0099983215332,41.56999969482422,41.56999969482422,554700
2019-11-25,41.9900016784668,42.5099983215332,38.58000183105469,40.0,40.0,703700
2019-11-26,39.9900016784668,39.9900016784668,39.099998474121094,39.83000183105469,39.83000183105469,359500
2019-11-27,39.83000183105469,40.25,39.5,39.810001373291016,39.810001373291016,139000
2019-11-29,39.77000045776367,40.20500183105469,39.5,39.959999084472656,39.959999084472656,173600
2019-12-02,39.880001068115234,40.4900016784668,39.20500183105469,40.02000045776367,40.02000045776367,578900
2019-12-03,39.84000015258789,40.369998931884766,39.349998474121094,39.59000015258789,39.59000015258789,182200
2019-12-04,39.65999984741211,40.564998626708984,39.16999816894531,39.689998626708984,39.689998626708984,322800
2019-12-05,39.709999084472656,40.290000915527344,39.5,40.06999969482422,40.06999969482422,249300
2019-12-06,40.2400016784668,42.849998474121094,40.18000030517578,42.060001373291016,42.060001373291016,353800
2019-12-09,42.380001068115234,42.41999816894531,41.13999938964844,41.27000045776367,41.27000045776367,311300
2019-12-10,41.27000045776367,43.720001220703125,41.040000915527344,43.56999969482422,43.56999969482422,462400
2019-12-11,43.91999816894531,44.29999923706055,42.75,43.709999084472656,43.709999084472656,267300
2019-12-12,38.380001068115234,39.939998626708984,36.77000045776367,39.790000915527344,39.790000915527344,1611900
2019-12-13,39.47999954223633,41.220001220703125,39.13999938964844,39.459999084472656,39.459999084472656,254000
2019-12-16,39.5099983215332,40.290000915527344,38.77000045776367,39.75,39.75,389100
2019-12-17,39.849998474121094,39.95500183105469,38.790000915527344,39.650001525878906,39.650001525878906,273400
2019-12-18,39.65999984741211,39.70000076293945,38.47999954223633,38.970001220703125,38.970001220703125,394000
2019-12-19,38.93000030517578,39.31999969482422,37.79999923706055,38.7400016784668,38.7400016784668,208100
2019-12-20,38.720001220703125,39.18000030517578,37.77000045776367,38.130001068115234,38.130001068115234,465500
2019-12-23,38.13999938964844,39.22999954223633,37.459999084472656,38.814998626708984,38.814998626708984,338200
2019-12-24,38.86000061035156,39.790000915527344,38.02000045776367,39.459999084472656,39.459999084472656,81200
2019-12-26,39.4900016784668,40.0099983215332,38.529998779296875,38.95000076293945,38.95000076293945,111300
2019-12-27,39.220001220703125,39.220001220703125,37.75,38.599998474121094,38.599998474121094,147900
2019-12-30,38.72999954223633,39.154998779296875,37.189998626708984,37.59000015258789,37.59000015258789,234200
2019-12-31,37.689998626708984,38.0,37.2400016784668,37.7400016784668,37.7400016784668,145900
2020-01-02,38.0,38.0,36.43000030517578,37.189998626708984,37.189998626708984,651000
2020-01-03,36.959999084472656,37.51499938964844,36.14500045776367,36.4900016784668,36.4900016784668,405400
2020-01-06,35.97999954223633,36.81999969482422,35.630001068115234,36.52000045776367,36.52000045776367,249700
2020-01-07,36.31999969482422,37.27000045776367,35.849998474121094,36.04999923706055,36.04999923706055,240900
2020-01-08,36.0,37.27000045776367,35.970001220703125,36.91999816894531,36.91999816894531,135100
2020-01-09,37.2599983215332,37.349998474121094,36.310001373291016,36.970001220703125,36.970001220703125,200500
2020-01-10,37.0,37.33000183105469,36.0,36.150001525878906,36.150001525878906,197500
2020-01-13,36.13999938964844,36.84000015258789,35.09000015258789,35.959999084472656,35.959999084472656,165500
2020-01-14,35.869998931884766,35.939998626708984,35.119998931884766,35.439998626708984,35.439998626708984,423800
2020-01-15,35.470001220703125,35.869998931884766,34.65999984741211,34.93000030517578,34.93000030517578,388000
2020-01-16,35.20000076293945,35.869998931884766,34.5,34.84000015258789,34.84000015258789,335300
2020-01-17,35.09000015258789,35.59000015258789,34.5099983215332,34.86000061035156,34.86000061035156,329100
2020-01-21,34.849998474121094,35.040000915527344,33.20000076293945,33.279998779296875,33.279998779296875,222200
2020-01-22,33.29999923706055,34.0099983215332,32.880001068115234,33.27000045776367,33.27000045776367,240600
2020-01-23,33.11000061035156,34.2599983215332,32.88999938964844,34.09000015258789,34.09000015258789,450400
2020-01-24,34.209999084472656,34.5099983215332,32.869998931884766,33.400001525878906,33.400001525878906,287400
2020-01-27,32.720001220703125,33.79999923706055,32.720001220703125,32.970001220703125,32.970001220703125,249200
2020-01-28,33.20000076293945,33.86000061035156,32.869998931884766,33.560001373291016,33.560001373291016,174700
2020-01-29,33.65999984741211,34.36000061035156,33.176998138427734,34.22999954223633,34.22999954223633,197600
2020-01-30,33.779998779296875,34.63999938964844,33.20000076293945,33.93000030517578,33.93000030517578,305500
2020-01-31,33.72999954223633,35.38999938964844,32.86000061035156,35.2599983215332,35.2599983215332,571200
2020-02-03,35.099998474121094,37.84000015258789,35.099998474121094,37.2599983215332,37.2599983215332,458400
2020-02-04,37.66999816894531,38.290000915527344,36.685001373291016,38.0,38.0,685200
2020-02-05,38.27000045776367,39.02000045776367,37.47999954223633,37.7400016784668,37.7400016784668,335200
2020-02-06,37.58000183105469,37.8849983215332,36.5099983215332,37.15999984741211,37.15999984741211,192200
2020-02-07,36.97999954223633,37.915000915527344,36.88999938964844,37.75,37.75,198500
2020-02-10,37.65999984741211,38.5,37.18000030517578,38.040000915527344,38.040000915527344,196200
2020-02-11,38.150001525878906,38.400001525878906,36.65999984741211,36.900001525878906,36.900001525878906,166000
2020-02-12,37.060001373291016,37.060001373291016,35.9900016784668,36.47999954223633,36.47999954223633,127000
2020-02-13,36.22999954223633,36.595001220703125,36.11000061035156,36.36000061035156,36.36000061035156,139000
2020-02-14,36.470001220703125,36.79999923706055,35.540000915527344,36.720001220703125,36.720001220703125,96500
2020-02-18,36.54999923706055,36.84000015258789,35.7400016784668,35.810001373291016,35.810001373291016,173500
2020-02-19,35.88999938964844,36.27299880981445,35.63999938964844,35.880001068115234,35.880001068115234,110900
2020-02-20,35.720001220703125,36.630001068115234,35.54499816894531,36.33000183105469,36.33000183105469,165900
2020-02-21,36.380001068115234,37.099998474121094,35.89500045776367,36.93000030517578,36.93000030517578,131600
2020-02-24,35.95000076293945,36.58000183105469,34.90999984741211,35.119998931884766,35.119998931884766,178400
2020-02-25,35.45000076293945,35.45000076293945,33.31999969482422,33.709999084472656,33.709999084472656,238800
2020-02-26,33.900001525878906,33.97999954223633,32.22999954223633,32.7599983215332,32.7599983215332,398200
2020-02-27,32.25,33.04999923706055,31.06999969482422,32.13999938964844,32.13999938964844,216800
2020-02-28,31.190000534057617,32.619998931884766,28.825000762939453,31.780000686645508,31.780000686645508,582800
2020-03-02,31.510000228881836,34.52000045776367,30.799999237060547,34.47999954223633,34.47999954223633,318400
2020-03-03,34.5,34.724998474121094,31.809999465942383,33.5,33.5,235000
2020-03-04,34.380001068115234,35.15999984741211,33.845001220703125,35.06999969482422,35.06999969482422,238300
2020-03-05,34.380001068115234,35.07500076293945,33.47999954223633,33.779998779296875,33.779998779296875,165100
2020-03-06,32.970001220703125,33.939998626708984,31.81999969482422,32.7599983215332,32.7599983215332,166100
2020-03-09,31.700000762939453,32.400001525878906,30.496000289916992,31.139999389648438,31.139999389648438,222400
2020-03-10,32.13999938964844,32.13999938964844,28.600000381469727,30.979999542236328,30.979999542236328,411100
2020-03-11,30.549999237060547,30.864999771118164,27.1299991607666,28.049999237060547,28.049999237060547,274200
2020-03-12,27.25,27.43000030517578,24.940000534057617,25.450000762939453,25.450000762939453,400900
2020-03-13,26.40999984741211,27.100000381469727,23.110000610351562,25.34000015258789,25.34000015258789,472700
2020-03-16,23.040000915527344,24.280000686645508,21.0,21.209999084472656,21.209999084472656,289300
2020-03-17,21.420000076293945,22.139999389648438,19.90999984741211,20.479999542236328,20.479999542236328,461000
2020-03-18,19.25,20.516000747680664,18.024999618530273,18.43000030517578,18.43000030517578,560300
2020-03-19,18.360000610351562,21.489999771118164,18.350000381469727,21.040000915527344,21.040000915527344,360500
2020-03-20,21.81999969482422,22.799999237060547,19.364999771118164,20.18000030517578,20.18000030517578,501000
2020-03-23,20.399999618530273,22.600000381469727,19.2549991607666,21.31999969482422,21.31999969482422,233800
2020-03-24,22.420000076293945,23.010000228881836,21.459999084472656,22.399999618530273,22.399999618530273,168300
2020-03-25,22.459999084472656,23.739999771118164,22.170000076293945,22.739999771118164,22.739999771118164,143600
2020-03-26,22.8700008392334,25.0,22.6299991607666,24.139999389648438,24.139999389648438,198300
2020-03-27,23.170000076293945,24.464000701904297,22.395000457763672,23.209999084472656,23.209999084472656,296800
2020-03-30,23.149999618530273,23.760000228881836,22.510000228881836,23.350000381469727,23.350000381469727,201600
2020-03-31,23.329999923706055,23.520000457763672,21.84000015258789,22.0,22.0,173200
2020-04-01,21.079999923706055,22.299999237060547,20.514999389648438,21.25,21.25,211600
2020-04-02,21.18000030517578,21.8700008392334,20.700000762939453,21.649999618530273,21.649999618530273,239400
2020-04-03,21.520000457763672,22.209999084472656,20.559999465942383,21.209999084472656,21.209999084472656,141400
2020-04-06,21.829999923706055,24.9950008392334,21.690000534057617,24.809999465942383,24.809999465942383,292100
2020-04-07,25.0,25.75,24.06999969482422,24.399999618530273,24.399999618530273,304900
2020-04-08,24.809999465942383,25.719999313354492,24.209999084472656,25.350000381469727,25.350000381469727,154000
2020-04-09,25.959999084472656,27.31999969482422,25.799999237060547,26.809999465942383,26.809999465942383,172100
2020-04-13,26.59000015258789,27.799999237060547,25.520000457763672,27.719999313354492,27.719999313354492,288200
2020-04-14,28.0,29.959999084472656,26.64699935913086,28.65999984741211,28.65999984741211,192900
2020-04-15,27.969999313354492,28.040000915527344,26.18000030517578,26.3799991607666,26.3799991607666,212100
2020-04-16,26.3799991607666,26.954999923706055,25.469999313354492,26.81999969482422,26.81999969482422,145900
2020-04-17,27.489999771118164,27.832000732421875,26.770000457763672,27.309999465942383,27.309999465942383,137000
2020-04-20,26.809999465942383,27.709999084472656,26.309999465942383,26.770000457763672,26.770000457763672,134500
2020-04-21,26.670000076293945,27.049999237060547,25.56999969482422,26.299999237060547,26.299999237060547,177100
2020-04-22,26.950000762939453,27.290000915527344,26.31999969482422,26.969999313354492,26.969999313354492,93200
2020-04-23,27.030000686645508,28.530000686645508,26.739999771118164,27.389999389648438,27.389999389648438,135200
2020-04-24,27.350000381469727,28.280000686645508,27.260000228881836,27.829999923706055,27.829999923706055,83200
2020-04-27,28.3700008392334,29.399999618530273,28.020000457763672,28.59000015258789,28.59000015258789,159500
2020-04-28,29.299999237060547,30.260000228881836,28.219999313354492,30.110000610351562,30.110000610351562,144800
2020-04-29,30.920000076293945,32.36000061035156,30.600000381469727,31.5,31.5,266800
2020-04-30,30.809999465942383,31.639999389648438,29.795000076293945,30.25,30.25,134000
2020-05-01,29.3700008392334,29.979999542236328,27.260000228881836,28.40999984741211,28.40999984741211,160700
2020-05-04,28.260000228881836,29.84000015258789,27.84000015258789,29.760000228881836,29.760000228881836,129500
2020-05-05,30.360000610351562,31.04199981689453,28.93000030517578,29.040000915527344,29.040000915527344,271100
2020-05-06,29.1200008392334,29.75,28.239999771118164,28.649999618530273,28.649999618530273,112400
2020-05-07,28.8799991607666,30.239999771118164,28.405000686645508,29.25,29.25,144200
2020-05-08,28.510000228881836,32.9900016784668,28.5,30.0049991607666,30.0049991607666,672100
2020-05-11,29.3799991607666,30.81999969482422,28.885000228881836,29.420000076293945,29.420000076293945,262300
2020-05-12,29.670000076293945,32.36000061035156,29.400999069213867,29.81999969482422,29.81999969482422,199900
2020-05-13,30.399999618530273,30.719999313354492,28.739999771118164,30.40999984741211,30.40999984741211,214200
2020-05-14,29.770000457763672,31.510000228881836,29.360000610351562,31.170000076293945,31.170000076293945,258300
2020-05-15,31.09000015258789,32.22999954223633,30.5,30.979999542236328,30.979999542236328,262700
2020-05-18,32.02000045776367,32.38999938964844,31.204999923706055,31.549999237060547,31.549999237060547,222900
2020-05-19,30.149999618530273,30.290000915527344,26.09000015258789,26.579999923706055,26.579999923706055,2395400
2020-05-20,27.020000457763672,27.440000534057617,26.549999237060547,26.59000015258789,26.59000015258789,961400
2020-05-21,26.610000610351562,27.280000686645508,25.780000686645508,26.829999923706055,26.829999923706055,582600
2020-05-22,26.84000015258789,27.610000610351562,26.68000030517578,27.139999389648438,27.139999389648438,464400
2020-05-26,28.0,28.309999465942383,27.05500030517578,27.229999542236328,27.229999542236328,505000
2020-05-27,27.84000015258789,28.128000259399414,26.790000915527344,27.030000686645508,27.030000686645508,699900
2020-05-28,27.420000076293945,27.6299991607666,26.229999542236328,27.190000534057617,27.190000534057617,642600
2020-05-29,26.93000030517578,27.549999237060547,26.0,26.860000610351562,26.860000610351562,323700
2020-06-01,26.75,26.790000915527344,25.799999237060547,25.90999984741211,25.90999984741211,578300
2020-06-02,26.18000030517578,26.84000015258789,25.110000610351562,26.6299991607666,26.6299991607666,239600
2020-06-03,26.760000228881836,27.420000076293945,26.760000228881836,26.899999618530273,26.899999618530273,334800
2020-06-04,26.6200008392334,27.202999114990234,25.719999313354492,25.979999542236328,25.979999542236328,258800
2020-06-05,26.670000076293945,27.764999389648438,25.989999771118164,26.094999313354492,26.094999313354492,477900
2020-06-08,26.489999771118164,26.93000030517578,25.649999618530273,26.739999771118164,26.739999771118164,393600
2020-06-09,26.579999923706055,27.155000686645508,25.954999923706055,26.479999542236328,26.479999542236328,325400
2020-06-10,26.549999237060547,27.079999923706055,26.09000015258789,26.299999237060547,26.299999237060547,232500
2020-06-11,25.799999237060547,26.610000610351562,25.329999923706055,25.399999618530273,25.399999618530273,460200
2020-06-12,26.15999984741211,26.399999618530273,24.989999771118164,25.53499984741211,25.53499984741211,241300
2020-06-15,25.079999923706055,27.56999969482422,25.010000228881836,27.09000015258789,27.09000015258789,405400
2020-06-16,27.81999969482422,28.18000030517578,26.770000457763672,27.559999465942383,27.559999465942383,680600
2020-06-17,27.700000762939453,27.809999465942383,26.170000076293945,26.3700008392334,26.3700008392334,241700
2020-06-18,26.280000686645508,27.420000076293945,26.280000686645508,27.219999313354492,27.219999313354492,315700
2020-06-19,27.389999389648438,27.780000686645508,26.1299991607666,27.100000381469727,27.100000381469727,673300
2020-06-22,27.25,27.530000686645508,26.8799991607666,27.190000534057617,27.190000534057617,503500
2020-06-23,27.530000686645508,27.704999923706055,26.670000076293945,26.8799991607666,26.8799991607666,587600
2020-06-24,26.600000381469727,27.170000076293945,26.03499984741211,26.81999969482422,26.81999969482422,286000
2020-06-25,26.84000015258789,27.56999969482422,26.670000076293945,27.079999923706055,27.079999923706055,1207900
2020-06-26,27.020000457763672,27.190000534057617,25.610000610351562,25.75,25.75,1265400
2020-06-29,25.90999984741211,26.209999084472656,24.950000762939453,25.549999237060547,25.549999237060547,687800
2020-06-30,25.450000762939453,27.5,25.229999542236328,27.479999542236328,27.479999542236328,1133900
2020-07-01,27.469999313354492,27.56999969482422,26.770000457763672,26.790000915527344,26.790000915527344,409700
2020-07-02,27.200000762939453,27.200000762939453,26.239999771118164,26.489999771118164,26.489999771118164,169800
2020-07-06,26.809999465942383,27.09000015258789,26.40999984741211,26.559999465942383,26.559999465942383,255300
2020-07-07,26.399999618530273,27.440000534057617,26.030000686645508,26.739999771118164,26.739999771118164,202100
2020-07-08,26.770000457763672,26.959999084472656,26.260000228881836,26.93000030517578,26.93000030517578,202000
2020-07-09,26.979999542236328,27.25,26.350000381469727,26.540000915527344,26.540000915527344,280400
2020-07-10,26.479999542236328,26.610000610351562,25.969999313354492,25.9950008392334,25.9950008392334,222800
2020-07-13,26.149999618530273,27.059999465942383,25.739999771118164,25.780000686645508,25.780000686645508,378000
2020-07-14,25.860000610351562,26.200000762939453,25.31999969482422,25.950000762939453,25.950000762939453,173700
2020-07-15,26.190000534057617,26.6200008392334,25.90999984741211,26.200000762939453,26.200000762939453,393200
2020-07-16,17.68000030517578,18.809999465942383,15.039999961853027,15.640000343322754,15.640000343322754,6362400
2020-07-17,16.0,17.700000762939453,16.0,16.5,16.5,2978900
2020-07-20,16.780000686645508,16.899999618530273,15.5600004196167,15.710000038146973,15.710000038146973,997300
2020-07-21,15.75,15.84000015258789,14.850000381469727,15.050000190734863,15.050000190734863,903500
2020-07-22,15.0,15.119999885559082,14.170000076293945,14.770000457763672,14.770000457763672,825500
2020-07-23,14.770000457763672,14.852999687194824,14.180000305175781,14.390000343322754,14.390000343322754,615600
2020-07-24,14.350000381469727,14.40999984741211,13.800000190734863,13.890000343322754,13.890000343322754,634600
2020-07-27,13.869999885559082,14.6899995803833,13.63700008392334,14.59000015258789,14.59000015258789,834800
2020-07-28,14.539999961853027,14.819999694824219,13.859999656677246,13.890000343322754,13.890000343322754,519700
2020-07-29,14.039999961853027,14.319999694824219,13.180000305175781,13.300000190734863,13.300000190734863,527600
2020-07-30,13.239999771118164,13.430000305175781,12.90999984741211,13.270000457763672,13.270000457763672,555400
2020-07-31,13.5600004196167,13.90999984741211,13.220000267028809,13.380000114440918,13.380000114440918,709200
2020-08-03,13.579999923706055,13.979999542236328,12.9350004196167,13.75,13.75,682300
2020-08-04,13.880000114440918,14.430999755859375,13.449999809265137,14.260000228881836,14.260000228881836,738200
2020-08-05,14.489999771118164,14.595000267028809,13.5600004196167,13.800000190734863,13.800000190734863,928900
2020-08-06,13.720000267028809,13.9399995803833,13.140000343322754,13.710000038146973,13.710000038146973,852500
2020-08-07,13.479999542236328,13.850000381469727,13.25,13.739999771118164,13.739999771118164,826200
2020-08-10,13.739999771118164,14.142999649047852,13.350000381469727,13.670000076293945,13.670000076293945,591900
2020-08-11,13.710000038146973,13.739999771118164,13.130000114440918,13.300000190734863,13.300000190734863,591700
2020-08-12,13.420000076293945,13.850000381469727,13.3100004196167,13.75,13.75,735800
2020-08-13,13.6899995803833,14.220000267028809,13.5,14.119999885559082,14.119999885559082,638500
2020-08-14,14.199999809265137,14.210000038146973,13.723999977111816,14.180000305175781,14.180000305175781,815200
2020-08-17,15.029999732971191,15.279999732971191,14.220000267028809,14.970000267028809,14.970000267028809,2952400
2020-08-18,15.029999732971191,15.329999923706055,14.0600004196167,14.350000381469727,14.350000381469727,1452800
2020-08-19,14.279999732971191,14.680000305175781,14.170000076293945,14.260000228881836,14.260000228881836,816300
2020-08-20,14.1899995803833,14.564000129699707,13.770000457763672,14.430000305175781,14.430000305175781,636600
2020-08-21,14.329999923706055,14.350000381469727,13.170000076293945,13.239999771118164,13.239999771118164,1189900
2020-08-24,10.479999542236328,12.5,9.5600004196167,10.109999656677246,10.109999656677246,5524600
2020-08-25,9.539999961853027,10.819999694824219,9.539999961853027,10.654999732971191,10.654999732971191,1963400
2020-08-26,10.5,10.649999618530273,10.109999656677246,10.380000114440918,10.380000114440918,1226900
2020-08-27,10.34000015258789,10.5,10.119999885559082,10.390000343322754,10.390000343322754,565600
2020-08-28,10.329999923706055,10.479999542236328,9.954000473022461,10.180000305175781,10.180000305175781,667300
2020-08-31,10.109999656677246,10.75,10.010000228881836,10.569999694824219,10.569999694824219,710000
2020-09-01,10.529999732971191,11.109999656677246,10.420000076293945,11.020000457763672,11.020000457763672,752400
2020-09-02,11.029999732971191,11.25,10.699999809265137,11.1899995803833,11.1899995803833,595200
2020-09-03,11.319999694824219,11.789999961853027,10.90999984741211,11.34000015258789,11.34000015258789,628900
2020-09-04,11.470000267028809,11.529999732971191,10.430000305175781,11.020000457763672,11.020000457763672,552700
2020-09-08,10.920000076293945,11.579999923706055,10.800000190734863,11.270000457763672,11.270000457763672,634000
2020-09-09,11.359999656677246,11.529999732971191,11.149999618530273,11.319999694824219,11.319999694824219,339100
2020-09-10,11.319999694824219,11.979999542236328,11.300000190734863,11.710000038146973,11.710000038146973,470400
2020-09-11,11.739999771118164,12.039999961853027,11.640000343322754,11.789999961853027,11.789999961853027,510900
2020-09-14,11.960000038146973,12.154999732971191,11.78499984741211,12.0,12.0,621200
2020-09-15,12.119999885559082,12.619999885559082,12.039999961853027,12.319999694824219,12.319999694824219,671900
2020-09-16,12.380000114440918,12.4399995803833,11.5,11.729999542236328,11.729999542236328,862000
2020-09-17,11.569999694824219,11.970000267028809,11.555000305175781,11.710000038146973,11.710000038146973,355000
2020-09-18,11.829999923706055,11.989999771118164,11.199999809265137,11.359999656677246,11.359999656677246,655300
2020-09-21,11.170000076293945,11.229999542236328,10.4399995803833,10.550000190734863,10.550000190734863,429700
2020-09-22,10.59000015258789,10.739999771118164,9.989999771118164,10.229999542236328,10.229999542236328,592300
2020-09-23,10.180000305175781,10.380000114440918,9.270000457763672,9.329999923706055,9.329999923706055,745200
2020-09-24,9.270000457763672,9.380000114440918,8.760000228881836,9.050000190734863,9.050000190734863,1179900
2020-09-25,9.09000015258789,9.529999732971191,8.920000076293945,9.069999694824219,9.069999694824219,545200
2020-09-28,9.220000267028809,9.229999542236328,8.670000076293945,8.869999885559082,8.869999885559082,794500
2020-09-29,8.600000381469727,8.949999809265137,8.539999961853027,8.5600004196167,8.5600004196167,512700
2020-09-30,8.5600004196167,9.09000015258789,8.5,9.0600004196167,9.0600004196167,530400
2020-10-01,9.069999694824219,9.260000228881836,8.899999618530273,8.979999542236328,8.979999542236328,666500
2020-10-02,8.800000190734863,9.0,8.5600004196167,8.930000305175781,8.930000305175781,541800
2020-10-05,9.020000457763672,9.569999694824219,9.020000457763672,9.460000038146973,9.460000038146973,445100
2020-10-06,9.460000038146973,9.8100004196167,9.25,9.25,9.25,606200
2020-10-07,9.239999771118164,9.5600004196167,9.199999809265137,9.460000038146973,9.460000038146973,261000
2020-10-08,9.479999542236328,9.75,9.300000190734863,9.380000114440918,9.380000114440918,289900
2020-10-09,9.40999984741211,9.600000381469727,9.170000076293945,9.220000267028809,9.220000267028809,404200
2020-10-12,9.220000267028809,9.5,9.00100040435791,9.369999885559082,9.369999885559082,332900
2020-10-13,9.25,9.4399995803833,9.100000381469727,9.100000381469727,9.100000381469727,372300
2020-10-14,9.149999618530273,9.539999961853027,9.029999732971191,9.300000190734863,9.300000190734863,402200
2020-10-15,9.34000015258789,9.380000114440918,8.920000076293945,9.079999923706055,9.079999923706055,296300
2020-10-16,9.039999961853027,9.489999771118164,9.015999794006348,9.1899995803833,9.1899995803833,289800
2020-10-19,9.170000076293945,9.289999961853027,8.970000267028809,9.010000228881836,9.010000228881836,277900
2020-10-20,9.010000228881836,9.15999984741211,8.640000343322754,8.8100004196167,8.8100004196167,429400
2020-10-21,8.829999923706055,9.149999618530273,8.619999885559082,8.84000015258789,8.84000015258789,378800
2020-10-22,8.8100004196167,9.079999923706055,8.760000228881836,8.899999618530273,8.899999618530273,272300
2020-10-23,8.829999923706055,8.970000267028809,8.670000076293945,8.75,8.75,327200
2020-10-26,8.789999961853027,8.90999984741211,8.15999984741211,8.289999961853027,8.289999961853027,392300
2020-10-27,8.260000228881836,8.460000038146973,7.920000076293945,7.940000057220459,7.940000057220459,454500
2020-10-28,7.730000019073486,8.5,7.570000171661377,8.270000457763672,8.270000457763672,410700
2020-10-29,4.396999835968018,4.552000045776367,3.740000009536743,4.369999885559082,4.369999885559082,17458200
2020-10-30,4.099999904632568,5.949999809265137,4.099999904632568,5.630000114440918,5.630000114440918,10455200
2020-11-02,5.53000020980835,6.840000152587891,5.480000019073486,6.349999904632568,6.349999904632568,4882100
2020-11-03,6.28000020980835,6.760000228881836,6.099999904632568,6.75,6.75,3339100
2020-11-04,6.71999979019165,7.28000020980835,6.610000133514404,7.119999885559082,7.119999885559082,1018100
2020-11-05,7.059999942779541,7.170000076293945,6.690000057220459,6.949999809265137,6.949999809265137,842700
2020-11-06,6.760000228881836,7.5,6.760000228881836,7.050000190734863,7.050000190734863,570100
2020-11-09,7.210000038146973,7.670000076293945,6.929999828338623,6.960000038146973,6.960000038146973,682200
2020-11-10,6.880000114440918,7.019999980926514,6.570000171661377,6.610000133514404,6.610000133514404,2421400
2020-11-11,6.699999809265137,6.800000190734863,6.420000076293945,6.5,6.5,689400
2020-11-12,6.550000190734863,6.735000133514404,6.369999885559082,6.550000190734863,6.550000190734863,565200
2020-11-13,6.550000190734863,6.679999828338623,6.355000019073486,6.460000038146973,6.460000038146973,872400
2020-11-16,6.510000228881836,6.590000152587891,6.329999923706055,6.409999847412109,6.409999847412109,1466000
2020-11-17,6.300000190734863,6.619999885559082,6.090000152587891,6.434999942779541,6.434999942779541,960800
2020-11-18,6.480000019073486,6.570000171661377,6.349999904632568,6.389999866485596,6.389999866485596,987000
2020-11-19,6.420000076293945,7.539999961853027,6.230000019073486,7.519999980926514,7.519999980926514,1111100
2020-11-20,7.440000057220459,7.459000110626221,6.980000019073486,7.119999885559082,7.119999885559082,1164200
2020-11-23,7.159999847412109,7.349999904632568,7.0,7.03000020980835,7.03000020980835,456700
2020-11-24,7.119999885559082,7.46999979019165,7.03000020980835,7.429999828338623,7.429999828338623,878500
2020-11-25,7.380000114440918,7.760000228881836,7.260000228881836,7.519999980926514,7.519999980926514,610600
2020-11-27,7.579999923706055,7.730000019073486,7.420000076293945,7.460000038146973,7.460000038146973,298700
2020-11-30,7.510000228881836,7.510000228881836,7.039999961853027,7.309999942779541,7.309999942779541,617800
2020-12-01,7.289999961853027,7.639999866485596,7.199999809265137,7.360000133514404,7.360000133514404,914500
2020-12-02,7.349999904632568,7.579999923706055,7.199999809265137,7.420000076293945,7.420000076293945,594600
2020-12-03,7.440000057220459,7.630000114440918,7.320000171661377,7.480000019073486,7.480000019073486,557800
2020-12-04,7.579999923706055,7.929999828338623,7.550000190734863,7.659999847412109,7.659999847412109,442900
2020-12-07,7.630000114440918,7.659999847412109,7.349999904632568,7.460000038146973,7.460000038146973,364700
2020-12-08,7.599999904632568,8.1899995803833,7.599999904632568,8.119999885559082,8.119999885559082,2369200
2020-12-09,7.46999979019165,7.860000133514404,6.53000020980835,6.679999828338623,6.679999828338623,2717400
2020-12-10,6.75,6.954999923706055,6.539999961853027,6.840000152587891,6.840000152587891,3012300
2020-12-11,7.230000019073486,8.09000015258789,7.150000095367432,7.510000228881836,7.510000228881836,1679000
2020-12-14,7.53000020980835,8.1899995803833,7.320000171661377,7.78000020980835,7.78000020980835,802300
2020-12-15,8.0,8.0,7.360000133514404,7.769999980926514,7.769999980926514,454500
2020-12-16,7.650000095367432,7.710000038146973,7.190000057220459,7.199999809265137,7.199999809265137,1335300
2020-12-17,7.190000057220459,7.440000057220459,7.070000171661377,7.429999828338623,7.429999828338623,637700
2020-12-18,7.429999828338623,7.78000020980835,7.275000095367432,7.53000020980835,7.53000020980835,758600
2020-12-21,7.449999809265137,7.539999961853027,7.210000038146973,7.269999980926514,7.269999980926514,1255700
2020-12-22,7.349999904632568,7.590000152587891,7.199999809265137,7.440000057220459,7.440000057220459,549200
2020-12-23,7.510000228881836,7.550000190734863,7.28000020980835,7.510000228881836,7.510000228881836,550300
2020-12-24,7.739999771118164,8.029999732971191,7.650000095367432,7.739999771118164,7.739999771118164,397600
2020-12-28,7.840000152587891,7.889999866485596,7.489999771118164,7.610000133514404,7.610000133514404,419200
2020-12-29,7.599999904632568,7.650000095367432,7.079999923706055,7.400000095367432,7.400000095367432,580500
2020-12-30,7.5,7.5,7.099999904632568,7.150000095367432,7.150000095367432,535000
