Date,Open,High,Low,Close,Adj Close,Volume
2019-03-27,20.0,20.1200008392334,20.0,20.0,16.479665756225586,901100
2019-03-28,20.0,20.049999237060547,20.0,20.0,16.479665756225586,210900
2019-03-29,20.030000686645508,20.040000915527344,20.0,20.0,16.479665756225586,34100
2019-04-01,20.040000915527344,20.100000381469727,20.010000228881836,20.04400062561035,16.51592445373535,20400
2019-04-02,20.040000915527344,20.09000015258789,20.020000457763672,20.024999618530273,16.50026512145996,13400
2019-04-03,20.059999465942383,20.100000381469727,20.030000686645508,20.09000015258789,16.553823471069336,57600
2019-04-04,20.25,20.65999984741211,20.059999465942383,20.200000762939453,16.64445686340332,96500
2019-04-05,20.18000030517578,20.18000030517578,20.1200008392334,20.1200008392334,16.578548431396484,17200
2019-04-08,20.11400032043457,20.148000717163086,20.059999465942383,20.094999313354492,16.557939529418945,8300
2019-04-09,20.099000930786133,20.100000381469727,20.030000686645508,20.040000915527344,16.512619018554688,9700
2019-04-10,20.09000015258789,20.09000015258789,20.049999237060547,20.079999923706055,16.545583724975586,11900
2019-04-11,20.100000381469727,20.100000381469727,20.040000915527344,20.049999237060547,16.520862579345703,12300
2019-04-12,20.079999923706055,20.079999923706055,20.040000915527344,20.07200050354004,16.53898811340332,8200
2019-04-15,20.079999923706055,20.079999923706055,20.04800033569336,20.049999237060547,16.520862579345703,5500
2019-04-16,20.040000915527344,20.049999237060547,20.0,20.040000915527344,16.512619018554688,14200
2019-04-17,20.0,20.048999786376953,20.0,20.0,16.479665756225586,108500
2019-04-18,20.079999923706055,20.149999618530273,20.0,20.038000106811523,16.510971069335938,7300
2019-04-22,20.1299991607666,20.1299991607666,20.0,20.113000869750977,16.572772979736328,40900
2019-04-23,20.100000381469727,20.40999984741211,20.0939998626709,20.149999618530273,16.603261947631836,30600
2019-04-24,20.209999084472656,20.219999313354492,20.1299991607666,20.179000854492188,16.627153396606445,6200
2019-04-25,20.139999389648438,20.25,20.139999389648438,20.190000534057617,16.6362247467041,6000
2019-04-26,20.219999313354492,20.25,20.174999237060547,20.25,16.685659408569336,15900
2019-04-29,20.239999771118164,20.28700065612793,20.219999313354492,20.229999542236328,16.66918182373047,7400
2019-04-30,20.200000762939453,20.219999313354492,20.059999465942383,20.110000610351562,16.5703067779541,20400
2019-05-01,20.0,20.030000686645508,20.0,20.0,16.479665756225586,92500
2019-05-02,20.0,20.09000015258789,20.0,20.0,16.479665756225586,48100
2019-05-03,20.0,20.051000595092773,20.0,20.009000778198242,16.487075805664062,15300
2019-05-06,20.040000915527344,20.048999786376953,20.0,20.009000778198242,16.487075805664062,14800
2019-05-07,20.010000228881836,20.02899932861328,20.0,20.0,16.479665756225586,253900
2019-05-08,20.0,20.016000747680664,20.0,20.0,16.479665756225586,36600
2019-05-09,20.0,20.014999389648438,20.0,20.014999389648438,16.49202537536621,10300
2019-05-10,20.040000915527344,20.040000915527344,20.0,20.0049991607666,16.483783721923828,41300
2019-05-13,19.90999984741211,19.90999984741211,19.350000381469727,19.420000076293945,16.001754760742188,33700
2019-05-14,19.420000076293945,19.600000381469727,19.35300064086914,19.586000442504883,16.138534545898438,16000
2019-05-15,19.600000381469727,19.66900062561035,19.3700008392334,19.399999618530273,15.985270500183105,34700
2019-05-16,19.450000762939453,20.010000228881836,19.450000762939453,19.950000762939453,16.438467025756836,18100
2019-05-17,19.899999618530273,19.899999618530273,19.350000381469727,19.350000381469727,15.94407844543457,24600
2019-05-20,19.3700008392334,19.420000076293945,19.344999313354492,19.3700008392334,15.960553169250488,10300
2019-05-21,19.434999465942383,19.434999465942383,19.010000228881836,19.329999923706055,15.927595138549805,23300
2019-05-22,19.325000762939453,19.325000762939453,19.100000381469727,19.200000762939453,15.820474624633789,30300
2019-05-23,19.100000381469727,19.16699981689453,18.600000381469727,18.649999618530273,15.455031394958496,30100
2019-05-24,18.75,18.75,18.459999084472656,18.600000381469727,15.413590431213379,27500
2019-05-28,18.479999542236328,18.549999237060547,18.459999084472656,18.510000228881836,15.339011192321777,31100
2019-05-29,18.579999923706055,18.599000930786133,18.25,18.329999923706055,15.189844131469727,20400
2019-05-30,18.280000686645508,18.280000686645508,18.06999969482422,18.149999618530273,15.040678977966309,43900
2019-05-31,18.389999389648438,18.450000762939453,18.0,18.450000762939453,15.289284706115723,32200
2019-06-03,18.59000015258789,18.59000015258789,17.6299991607666,17.760000228881836,14.717493057250977,59200
2019-06-04,17.959999084472656,18.0,17.549999237060547,17.65999984741211,14.634629249572754,51100
2019-06-05,17.68000030517578,18.441999435424805,17.68000030517578,18.34000015258789,15.198128700256348,71700
2019-06-06,18.43000030517578,19.000999450683594,18.270000457763672,19.0,15.745061874389648,66300
2019-06-07,19.079999923706055,19.09000015258789,18.860000610351562,19.020000457763672,15.761640548706055,47500
2019-06-10,19.25,19.290000915527344,18.959999084472656,19.0,15.745061874389648,22400
2019-06-11,19.15999984741211,19.15999984741211,18.961999893188477,19.0,15.745061874389648,11100
2019-06-12,19.079999923706055,19.09000015258789,18.954999923706055,18.959999084472656,15.71191692352295,39400
2019-06-13,19.0,19.038000106811523,18.920000076293945,18.94499969482422,15.699488639831543,22300
2019-06-14,18.933000564575195,19.106000900268555,18.83799934387207,18.83799934387207,15.610821723937988,4500
2019-06-17,18.900999069213867,18.900999069213867,18.760000228881836,18.899999618530273,15.662193298339844,11800
2019-06-18,18.81999969482422,18.950000762939453,18.649999618530273,18.700000762939453,15.496467590332031,49500
2019-06-19,18.719999313354492,18.850000381469727,18.600000381469727,18.850000381469727,15.620766639709473,36400
2019-06-20,18.760000228881836,18.84000015258789,18.399999618530273,18.549999237060547,15.461563110351562,22000
2019-06-21,18.549999237060547,18.663999557495117,18.360000610351562,18.459999084472656,15.386549949645996,20800
2019-06-24,18.517000198364258,18.540000915527344,18.204999923706055,18.25,15.211509704589844,22200
2019-06-25,17.950000762939453,18.239999771118164,17.950000762939453,18.239999771118164,15.20317554473877,46500
2019-06-26,18.200000762939453,18.239999771118164,17.809999465942383,17.850000381469727,14.8781099319458,54700
2019-06-27,17.93000030517578,18.0,17.670000076293945,17.670000076293945,14.728079795837402,36300
2019-06-28,17.690000534057617,17.927000045776367,17.600000381469727,17.700000762939453,14.753082275390625,31800
2019-07-01,17.729999542236328,17.920000076293945,17.719999313354492,17.850000381469727,14.8781099319458,43700
2019-07-02,17.93000030517578,18.239999771118164,17.8700008392334,18.010000228881836,15.011469841003418,40900
2019-07-03,18.020000457763672,18.149999618530273,17.75,17.920000076293945,14.936452865600586,17600
2019-07-05,18.079999923706055,18.079999923706055,17.780000686645508,17.969999313354492,14.97812557220459,25000
2019-07-08,18.079999923706055,18.25,17.850000381469727,18.25,15.211509704589844,45600
2019-07-09,18.25,18.5,17.905000686645508,18.139999389648438,15.119820594787598,53300
2019-07-10,18.1200008392334,18.232999801635742,17.950000762939453,17.989999771118164,14.994797706604004,23400
2019-07-11,18.09000015258789,18.5,17.950000762939453,18.1200008392334,15.103158950805664,38100
2019-07-12,18.280000686645508,18.312999725341797,18.020000457763672,18.020000457763672,15.019800186157227,23700
2019-07-15,18.09000015258789,18.25,18.010000228881836,18.020000457763672,15.019800186157227,39200
2019-07-16,18.170000076293945,18.440000534057617,18.0,18.100000381469727,15.086484909057617,26600
2019-07-17,18.209999084472656,18.489999771118164,18.1299991607666,18.1299991607666,15.111491203308105,13400
2019-07-18,18.280000686645508,18.489999771118164,18.229999542236328,18.25,15.211509704589844,22900
2019-07-19,18.299999237060547,18.31999969482422,18.010000228881836,18.149999618530273,15.128158569335938,31800
2019-07-22,18.110000610351562,18.139999389648438,18.06999969482422,18.06999969482422,15.061479568481445,16300
2019-07-23,18.099000930786133,18.149999618530273,17.95199966430664,18.149999618530273,15.219965934753418,30800
2019-07-24,18.125999450683594,18.19300079345703,17.950000762939453,17.959999084472656,15.060640335083008,18700
2019-07-25,17.989999771118164,18.108999252319336,17.8700008392334,17.8700008392334,14.985170364379883,16400
2019-07-26,17.91699981689453,17.950000762939453,17.709999084472656,17.940000534057617,15.043869972229004,21600
2019-07-29,18.079999923706055,18.200000762939453,17.790000915527344,17.799999237060547,14.926473617553711,12400
2019-07-30,17.700000762939453,17.8700008392334,17.639999389648438,17.850000381469727,14.968400001525879,46200
2019-07-31,17.809999465942383,18.5,17.649999618530273,18.5,15.51346492767334,48800
2019-08-01,18.389999389648438,18.489999771118164,17.700000762939453,17.700000762939453,14.842615127563477,43600
2019-08-02,17.959999084472656,18.0,17.65999984741211,18.0,15.094186782836914,44200
2019-08-05,17.989999771118164,18.165000915527344,17.639999389648438,17.700000762939453,14.842615127563477,31900
2019-08-06,17.559999465942383,17.600000381469727,17.04800033569336,17.049999237060547,14.297544479370117,77500
2019-08-07,16.84000015258789,16.84000015258789,16.450000762939453,16.600000381469727,13.920191764831543,92900
2019-08-08,16.540000915527344,16.701000213623047,16.110000610351562,16.149999618530273,13.54283618927002,48000
2019-08-09,16.239999771118164,16.600000381469727,16.170000076293945,16.399999618530273,13.752476692199707,38200
2019-08-12,16.399999618530273,16.5,15.680000305175781,16.020000457763672,13.433825492858887,43500
2019-08-13,16.030000686645508,16.510000228881836,16.020000457763672,16.3700008392334,13.727323532104492,38500
2019-08-14,16.3700008392334,16.75,16.010000228881836,16.200000762939453,13.584762573242188,49000
2019-08-15,16.479999542236328,16.809999465942383,16.349000930786133,16.690000534057617,13.9956636428833,19900
2019-08-16,16.670000076293945,16.739999771118164,16.3799991607666,16.56999969482422,13.895038604736328,12700
2019-08-19,16.719999313354492,16.719999313354492,16.420000076293945,16.635000228881836,13.949545860290527,60400
2019-08-20,16.65999984741211,16.65999984741211,16.219999313354492,16.40999984741211,13.7608642578125,44500
2019-08-21,16.34000015258789,16.6299991607666,16.260000228881836,16.399999618530273,13.752476692199707,95700
2019-08-22,16.290000915527344,16.399999618530273,16.18000030517578,16.280000686645508,13.743195533752441,68600
2019-08-23,16.149999618530273,16.389999389648438,16.049999237060547,16.299999237060547,13.760077476501465,45000
2019-08-26,16.350000381469727,17.100000381469727,16.350000381469727,16.799999237060547,14.18216323852539,50500
2019-08-27,16.959999084472656,17.049999237060547,16.06999969482422,16.219999313354492,13.692541122436523,76700
2019-08-28,16.25,16.533000946044922,16.224000930786133,16.378999710083008,13.826767921447754,35600
2019-08-29,16.424999237060547,16.479000091552734,16.149999618530273,16.34000015258789,13.793846130371094,71800
2019-08-30,16.469999313354492,16.54199981689453,16.170000076293945,16.25,13.717869758605957,58800
2019-09-03,16.6200008392334,16.6200008392334,16.270999908447266,16.295000076293945,13.75585651397705,33200
2019-09-04,16.34000015258789,16.625,16.270000457763672,16.559999465942383,13.979562759399414,45900
2019-09-05,16.6299991607666,17.0,16.358999252319336,16.6200008392334,14.030213356018066,46800
2019-09-06,16.75,17.25,16.75,17.225000381469727,14.540940284729004,38100
2019-09-09,16.857999801635742,17.200000762939453,16.770000457763672,16.93000030517578,14.29190731048584,18000
2019-09-10,17.049999237060547,17.2450008392334,16.799999237060547,16.81999969482422,14.19904613494873,23500
2019-09-11,16.899999618530273,17.0049991607666,16.610000610351562,16.670000076293945,14.072422981262207,35600
2019-09-12,16.709999084472656,16.8700008392334,16.610000610351562,16.81599998474121,14.195672035217285,21500
2019-09-13,16.670000076293945,17.025999069213867,16.649999618530273,16.899999618530273,14.266583442687988,21000
2019-09-16,17.399999618530273,17.399999618530273,16.850000381469727,16.979999542236328,14.334113121032715,37500
2019-09-17,16.899999618530273,17.415000915527344,16.650999069213867,16.854999542236328,14.228595733642578,32000
2019-09-18,16.85099983215332,17.0,16.600000381469727,16.600000381469727,14.013327598571777,32500
2019-09-19,16.93000030517578,16.950000762939453,16.6299991607666,16.75,14.139954566955566,40800
2019-09-20,16.5,16.850000381469727,16.5,16.75,14.232573509216309,21300
2019-09-23,16.8700008392334,16.899999618530273,16.42300033569336,16.68000030517578,14.173096656799316,72900
2019-09-24,16.68000030517578,16.68000030517578,16.260000228881836,16.270000457763672,13.824714660644531,34500
2019-09-25,16.469999313354492,16.469999313354492,16.1200008392334,16.270000457763672,13.824714660644531,55400
2019-09-26,16.350000381469727,16.350000381469727,16.059999465942383,16.219999313354492,13.78222942352295,40300
2019-09-27,16.1299991607666,16.5,16.010000228881836,16.5,14.020146369934082,54900
2019-09-30,16.690000534057617,16.690000534057617,16.329999923706055,16.68000030517578,14.173096656799316,38500
2019-10-01,16.649999618530273,16.774999618530273,16.349000930786133,16.635000228881836,14.134859085083008,76200
2019-10-02,16.760000228881836,16.950000762939453,16.479999542236328,16.8700008392334,14.334538459777832,32300
2019-10-03,16.75,17.399999618530273,16.729999542236328,17.0,14.445000648498535,28400
2019-10-04,17.139999389648438,17.139999389648438,16.479999542236328,16.65999984741211,14.156100273132324,25100
2019-10-07,16.65999984741211,17.163999557495117,16.34000015258789,17.0,14.445000648498535,65100
2019-10-08,16.709999084472656,17.024999618530273,16.40999984741211,16.68000030517578,14.173096656799316,84600
2019-10-09,16.799999237060547,17.100000381469727,16.450000762939453,16.579999923706055,14.08812141418457,104000
2019-10-10,16.520000457763672,17.09000015258789,16.309999465942383,16.350000381469727,13.892695426940918,74800
2019-10-11,16.299999237060547,16.57699966430664,15.800000190734863,15.90999984741211,13.518820762634277,179200
2019-10-14,16.0,16.059999465942383,15.609999656677246,15.630000114440918,13.280904769897461,42200
2019-10-15,15.550000190734863,15.829999923706055,15.550000190734863,15.8100004196167,13.43385124206543,83200
2019-10-16,15.65999984741211,15.850000381469727,15.539999961853027,15.6899995803833,13.331887245178223,80900
2019-10-17,15.729999542236328,15.850000381469727,15.609999656677246,15.770000457763672,13.399861335754395,104600
2019-10-18,15.640000343322754,16.239999771118164,15.640000343322754,15.960000038146973,13.561305046081543,125800
2019-10-21,15.930000305175781,16.18000030517578,15.770000457763672,16.1200008392334,13.697259902954102,53500
2019-10-22,16.040000915527344,16.440000534057617,15.880000114440918,16.110000610351562,13.688761711120605,183900
2019-10-23,16.149999618530273,16.149999618530273,15.710000038146973,15.90999984741211,13.61091136932373,85200
2019-10-24,15.869999885559082,15.880000114440918,15.600000381469727,15.65999984741211,13.3970365524292,119300
2019-10-25,15.680000305175781,15.899999618530273,15.670000076293945,15.720000267028809,13.44836711883545,105400
2019-10-28,15.800000190734863,16.100000381469727,15.760000228881836,15.960000038146973,13.653687477111816,127000
2019-10-29,15.920000076293945,16.139999389648438,15.869999885559082,15.9399995803833,13.636575698852539,103900
2019-10-30,15.890000343322754,16.079999923706055,15.890000343322754,16.0,13.687905311584473,47600
2019-10-31,16.079999923706055,16.132999420166016,15.920000076293945,15.920000076293945,13.619464874267578,67700
2019-11-01,15.989999771118164,16.15999984741211,15.819999694824219,16.1299991607666,13.799118995666504,92500
2019-11-04,16.0,16.479999542236328,15.90999984741211,16.360000610351562,13.995884895324707,283500
2019-11-05,16.489999771118164,16.59000015258789,16.219999313354492,16.59000015258789,14.192648887634277,204700
2019-11-06,16.549999237060547,16.85300064086914,16.489999771118164,16.510000228881836,14.124211311340332,65000
2019-11-07,16.510000228881836,16.780000686645508,16.489999771118164,16.530000686645508,14.141317367553711,94600
2019-11-08,16.489999771118164,17.0,16.469999313354492,17.0,14.543399810791016,207000
2019-11-11,17.1299991607666,17.5,17.0,17.020000457763672,14.560507774353027,145400
2019-11-12,17.200000762939453,17.329999923706055,16.75,16.889999389648438,14.449296951293945,151800
2019-11-13,16.809999465942383,16.8799991607666,16.690000534057617,16.690000534057617,14.278197288513184,125500
2019-11-14,16.649999618530273,17.34000015258789,16.6200008392334,17.049999237060547,14.586173057556152,108700
2019-11-15,17.200000762939453,17.290000915527344,16.90999984741211,16.969999313354492,14.517736434936523,68600
2019-11-18,17.0,17.290000915527344,16.920000076293945,17.030000686645508,14.569063186645508,132200
2019-11-19,17.06999969482422,17.700000762939453,16.996000289916992,17.299999237060547,14.800050735473633,140900
2019-11-20,17.200000762939453,17.329999923706055,17.100000381469727,17.149999618530273,14.671722412109375,37700
2019-11-21,17.0,17.010000228881836,16.40999984741211,16.420000076293945,14.137063980102539,190800
2019-11-22,16.649999618530273,16.649999618530273,16.209999084472656,16.239999771118164,13.982090950012207,81200
2019-11-25,16.6299991607666,16.6299991607666,15.90999984741211,16.149999618530273,13.904603004455566,156300
2019-11-26,16.030000686645508,16.229999542236328,15.600000381469727,15.600000381469727,13.431074142456055,246400
2019-11-27,15.600000381469727,15.895000457763672,15.600000381469727,15.6899995803833,13.508562088012695,225700
2019-11-29,15.770000457763672,15.789999961853027,15.600000381469727,15.600000381469727,13.431074142456055,51600
2019-12-02,15.619999885559082,15.699999809265137,15.510000228881836,15.550000190734863,13.388025283813477,89800
2019-12-03,15.5,15.611000061035156,15.28499984741211,15.539999961853027,13.379417419433594,176300
2019-12-04,15.600000381469727,15.6899995803833,15.484999656677246,15.539999961853027,13.379417419433594,125500
2019-12-05,15.6899995803833,15.6899995803833,15.199999809265137,15.319999694824219,13.190001487731934,181500
2019-12-06,15.34000015258789,15.630000114440918,15.34000015258789,15.520000457763672,13.36219596862793,170100
2019-12-09,15.609999656677246,15.920000076293945,15.5,15.819999694824219,13.620484352111816,199200
2019-12-10,15.8100004196167,16.09000015258789,15.739999771118164,16.010000228881836,13.784067153930664,254400
2019-12-11,15.960000038146973,16.100000381469727,15.899999618530273,16.049999237060547,13.81850528717041,137500
2019-12-12,15.949999809265137,16.200000762939453,15.949999809265137,16.149999618530273,13.904603004455566,141100
2019-12-13,16.190000534057617,16.190000534057617,15.850000381469727,16.049999237060547,13.81850528717041,147300
2019-12-16,16.1200008392334,16.3700008392334,16.100000381469727,16.25,13.990702629089355,120800
2019-12-17,16.290000915527344,16.59000015258789,16.290000915527344,16.360000610351562,14.085409164428711,145100
2019-12-18,16.270000457763672,16.496000289916992,16.270000457763672,16.3799991607666,14.102625846862793,164400
2019-12-19,16.43000030517578,16.5,16.290000915527344,16.360000610351562,14.085409164428711,153800
2019-12-20,16.329999923706055,16.709999084472656,16.31999969482422,16.549999237060547,14.248991012573242,215900
2019-12-23,16.43000030517578,16.549999237060547,16.31999969482422,16.549999237060547,14.34345817565918,202300
2019-12-24,16.479999542236328,16.530000686645508,16.3700008392334,16.440000534057617,14.248124122619629,93500
2019-12-26,16.5,16.5,16.31999969482422,16.389999389648438,14.204791069030762,200800
2019-12-27,16.3799991607666,16.565000534057617,16.299999237060547,16.479999542236328,14.282791137695312,315600
2019-12-30,16.389999389648438,16.600000381469727,16.2450008392334,16.31999969482422,14.144121170043945,287400
2019-12-31,16.309999465942383,16.559999465942383,16.270000457763672,16.389999389648438,14.204791069030762,296800
2020-01-02,16.520000457763672,16.670000076293945,16.489999771118164,16.489999771118164,14.291458129882812,66800
2020-01-03,16.31999969482422,16.5,16.31999969482422,16.399999618530273,14.213457107543945,97900
2020-01-06,16.469999313354492,16.649999618530273,16.40999984741211,16.639999389648438,14.421457290649414,70900
2020-01-07,16.639999389648438,16.670000076293945,16.459999084472656,16.610000610351562,14.395459175109863,65900
2020-01-08,16.610000610351562,16.6200008392334,16.514999389648438,16.6200008392334,14.404126167297363,62100
2020-01-09,16.549999237060547,16.639999389648438,16.3700008392334,16.5,14.300126075744629,59900
2020-01-10,16.440000534057617,16.492000579833984,16.40399932861328,16.440000534057617,14.248124122619629,34100
2020-01-13,16.459999084472656,16.600000381469727,16.43000030517578,16.524999618530273,14.321789741516113,56700
2020-01-14,16.56999969482422,16.729999542236328,16.559999465942383,16.65999984741211,14.438791275024414,121400
2020-01-15,16.579999923706055,16.8799991607666,16.579999923706055,16.850000381469727,14.603459358215332,71000
2020-01-16,16.799999237060547,17.047000885009766,16.799999237060547,17.0,14.7334623336792,94000
2020-01-17,16.940000534057617,17.21500015258789,16.895999908447266,17.100000381469727,14.82012939453125,117400
2020-01-21,17.049999237060547,17.101999282836914,16.937000274658203,17.020000457763672,14.750794410705566,55700
2020-01-22,17.0,17.149999618530273,16.9950008392334,17.110000610351562,14.828795433044434,112000
2020-01-23,16.950000762939453,17.000999450683594,16.84000015258789,17.0,14.827923774719238,98400
2020-01-24,17.09000015258789,17.100000381469727,16.93199920654297,17.049999237060547,14.871533393859863,112900
2020-01-27,16.829999923706055,17.030000686645508,16.75,16.950000762939453,14.784311294555664,50300
2020-01-28,16.84000015258789,16.87299919128418,16.579999923706055,16.6299991607666,14.50519847869873,103800
2020-01-29,16.719999313354492,16.93000030517578,16.663000106811523,16.729999542236328,14.592419624328613,67700
2020-01-30,16.670000076293945,16.690000534057617,16.3799991607666,16.600000381469727,14.479028701782227,143800
2020-01-31,16.56999969482422,16.68000030517578,16.3799991607666,16.3799991607666,14.287138938903809,75900
2020-02-03,16.3799991607666,16.600000381469727,16.3799991607666,16.549999237060547,14.435420989990234,61200
2020-02-04,16.540000915527344,16.920000076293945,16.540000915527344,16.8700008392334,14.714532852172852,88500
2020-02-05,17.0,17.049999237060547,16.979999542236328,16.989999771118164,14.819199562072754,33100
2020-02-06,16.860000610351562,17.020000457763672,16.860000610351562,16.920000076293945,14.758142471313477,54400
2020-02-07,16.959999084472656,17.0,16.84000015258789,16.8799991607666,14.72325611114502,42600
2020-02-10,16.770000457763672,16.889999389648438,16.770000457763672,16.81999969482422,14.670918464660645,30000
2020-02-11,16.8799991607666,16.96299934387207,16.860000610351562,16.8799991607666,14.72325611114502,39800
2020-02-12,16.899999618530273,17.040000915527344,16.809999465942383,16.959999084472656,14.7930326461792,100500
2020-02-13,16.959999084472656,17.055999755859375,16.93000030517578,16.959999084472656,14.7930326461792,37100
2020-02-14,16.8799991607666,16.959999084472656,16.690000534057617,16.950000762939453,14.784311294555664,56400
2020-02-18,17.030000686645508,17.09000015258789,16.94700050354004,17.059999465942383,14.880257606506348,31600
2020-02-19,17.059999465942383,17.280000686645508,17.049999237060547,17.25,15.045978546142578,110800
2020-02-20,17.040000915527344,17.260000228881836,17.040000915527344,17.209999084472656,15.106547355651855,52200
2020-02-21,17.229999542236328,17.229999542236328,17.059999465942383,17.100000381469727,15.009991645812988,39900
2020-02-24,16.969999313354492,16.969999313354492,16.690000534057617,16.790000915527344,14.737884521484375,59100
2020-02-25,16.760000228881836,16.760000228881836,15.930000305175781,16.049999237060547,14.088323593139648,249600
2020-02-26,16.049999237060547,16.280000686645508,15.949999809265137,16.065000534057617,14.101491928100586,177900
2020-02-27,15.779999732971191,15.90999984741211,15.329999923706055,15.600000381469727,13.693327903747559,123400
2020-02-28,15.130000114440918,15.399999618530273,14.789999961853027,15.319999694824219,13.447548866271973,104200
2020-03-02,15.300000190734863,15.899999618530273,15.300000190734863,15.789999961853027,13.86010456085205,36700
2020-03-03,15.720000267028809,15.949999809265137,15.592000007629395,15.649999618530273,13.737215042114258,44300
2020-03-04,15.869999885559082,16.1299991607666,15.829999923706055,16.104999542236328,14.136606216430664,48500
2020-03-05,15.930000305175781,15.9399995803833,15.697999954223633,15.770000457763672,13.842548370361328,29600
2020-03-06,15.489999771118164,15.53499984741211,15.210000038146973,15.380000114440918,13.500214576721191,65100
2020-03-09,14.020000457763672,14.380000114440918,13.210000038146973,13.539999961853027,11.885102272033691,188800
2020-03-10,13.65999984741211,14.4399995803833,12.619999885559082,13.210000038146973,11.595438003540039,260100
2020-03-11,12.979999542236328,12.979999542236328,11.321999549865723,12.489999771118164,10.963436126708984,261700
2020-03-12,10.760000228881836,11.41100025177002,10.760000228881836,10.890000343322754,9.558996200561523,251400
2020-03-13,11.029999732971191,11.635000228881836,10.350000381469727,11.130000114440918,9.769659996032715,233800
2020-03-16,9.270000457763672,9.989999771118164,8.413000106811523,9.420000076293945,8.268661499023438,194000
2020-03-17,9.289999961853027,9.51200008392334,9.010000228881836,9.380000114440918,8.233551979064941,296000
2020-03-18,8.520000457763672,9.069999694824219,6.099999904632568,7.199999809265137,6.3199968338012695,172200
2020-03-19,7.519999980926514,8.800000190734863,7.449999809265137,8.350000381469727,7.329442024230957,98200
2020-03-20,8.350000381469727,9.479999542236328,8.329999923706055,9.130000114440918,8.014107704162598,172400
2020-03-23,8.680000305175781,8.739999771118164,7.650000095367432,8.739999771118164,7.764471530914307,117900
2020-03-24,9.069999694824219,9.237000465393066,8.84000015258789,9.170000076293945,8.146476745605469,255500
2020-03-25,9.130000114440918,10.460000038146973,9.0,10.199999809265137,9.061508178710938,130300
2020-03-26,10.170000076293945,11.020000457763672,9.961000442504883,10.539999961853027,9.36356258392334,56100
2020-03-27,10.1899995803833,10.1899995803833,9.819999694824219,9.850000381469727,8.750576972961426,115700
2020-03-30,9.800000190734863,10.230999946594238,9.5,9.84000015258789,8.741692543029785,34500
2020-03-31,10.0,10.515000343322754,9.805000305175781,10.100000381469727,8.972675323486328,47400
2020-04-01,9.65999984741211,10.140000343322754,9.510000228881836,9.630000114440918,8.555130958557129,51900
2020-04-02,9.649999618530273,10.300000190734863,9.649999618530273,10.100000381469727,8.972675323486328,40600
2020-04-03,9.90999984741211,10.204999923706055,9.586999893188477,9.920000076293945,8.812764167785645,61200
2020-04-06,10.050000190734863,10.539999961853027,9.899999618530273,10.0600004196167,8.937137603759766,33000
2020-04-07,10.199999809265137,10.34000015258789,9.880000114440918,10.020000457763672,8.901604652404785,63000
2020-04-08,10.140000343322754,10.510000228881836,10.02400016784668,10.1899995803833,9.052626609802246,78700
2020-04-09,10.260000228881836,11.6899995803833,10.170000076293945,10.520000457763672,9.345792770385742,79400
2020-04-13,10.710000038146973,10.710000038146973,10.15999984741211,10.539999961853027,9.36356258392334,39300
2020-04-14,10.539999961853027,11.40999984741211,10.3100004196167,10.9399995803833,9.718915939331055,106100
2020-04-15,10.579999923706055,11.003000259399414,10.329999923706055,10.460000038146973,9.29249095916748,47900
2020-04-16,10.5,10.75,10.270000457763672,10.399999618530273,9.23918628692627,81400
2020-04-17,10.800000190734863,10.800000190734863,10.420000076293945,10.654999732971191,9.46572494506836,43500
2020-04-20,10.699999809265137,10.718999862670898,10.25,10.420000076293945,9.256956100463867,88900
2020-04-21,10.100000381469727,10.4399995803833,10.100000381469727,10.25,9.105929374694824,64100
2020-04-22,10.300000190734863,10.987000465393066,10.130000114440918,10.449999809265137,9.383390426635742,75200
2020-04-23,10.430000305175781,10.90999984741211,10.40999984741211,10.5600004196167,9.482162475585938,77000
2020-04-24,10.579999923706055,10.819999694824219,10.3100004196167,10.548999786376953,9.47228717803955,53100
2020-04-27,10.3149995803833,10.65999984741211,10.3149995803833,10.640000343322754,9.553997993469238,58600
2020-04-28,11.020000457763672,11.020000457763672,10.649999618530273,10.72700023651123,9.632119178771973,47900
2020-04-29,10.84000015258789,11.300000190734863,10.84000015258789,11.300000190734863,10.146634101867676,50300
2020-04-30,11.5,11.569999694824219,10.930000305175781,11.069999694824219,9.940109252929688,158600
2020-05-01,10.979999542236328,11.008000373840332,10.574999809265137,10.720000267028809,9.625832557678223,51900
2020-05-04,10.40999984741211,10.725000381469727,10.25,10.5,9.428288459777832,126300
2020-05-05,10.699999809265137,10.760000228881836,10.539999961853027,10.649999618530273,9.562976837158203,27300
2020-05-06,10.720000267028809,10.720000267028809,10.513999938964844,10.6899995803833,9.598893165588379,41800
2020-05-07,10.710000038146973,11.119999885559082,10.446999549865723,10.640000343322754,9.553997993469238,71900
2020-05-08,10.649999618530273,10.899999618530273,10.600000381469727,10.760000228881836,9.661750793457031,28900
2020-05-11,10.720000267028809,10.720000267028809,10.539999961853027,10.609999656677246,9.527061462402344,71400
2020-05-12,10.699999809265137,10.729999542236328,10.510000228881836,10.569999694824219,9.491144180297852,57900
2020-05-13,10.569999694824219,10.569999694824219,10.020000457763672,10.25,9.203803062438965,40900
2020-05-14,10.149999618530273,10.3100004196167,9.989999771118164,10.270000457763672,9.221761703491211,28300
2020-05-15,10.399999618530273,10.430000305175781,10.239999771118164,10.300000190734863,9.248700141906738,39400
2020-05-18,10.479999542236328,10.779999732971191,10.460000038146973,10.6899995803833,9.598893165588379,104300
2020-05-19,10.600000381469727,10.699999809265137,10.5,10.569999694824219,9.491144180297852,32400
2020-05-20,10.5600004196167,10.824000358581543,10.5600004196167,10.65999984741211,9.571955680847168,80400
2020-05-21,10.550000190734863,10.668000221252441,10.180000305175781,10.390000343322754,9.425895690917969,72400
2020-05-22,10.300000190734863,10.4399995803833,10.180000305175781,10.319999694824219,9.36238956451416,84000
2020-05-26,10.470000267028809,10.489999771118164,10.34000015258789,10.390000343322754,9.425895690917969,50300
2020-05-27,10.4399995803833,10.670000076293945,10.350000381469727,10.5600004196167,9.580120086669922,56100
2020-05-28,10.59000015258789,10.760000228881836,10.550000190734863,10.640000343322754,9.652698516845703,35200
2020-05-29,10.720000267028809,10.829999923706055,10.600000381469727,10.725000381469727,9.729811668395996,42900
2020-06-01,10.770000457763672,10.979999542236328,10.729999542236328,10.880000114440918,9.870428085327148,32500
2020-06-02,10.930000305175781,11.359999656677246,10.89900016784668,11.140000343322754,10.106303215026855,42300
2020-06-03,11.1899995803833,11.4399995803833,11.149999618530273,11.390000343322754,10.333105087280273,35000
2020-06-04,11.34000015258789,11.699999809265137,11.279999732971191,11.609999656677246,10.532690048217773,65100
2020-06-05,11.770000457763672,12.300000190734863,11.770000457763672,12.1899995803833,11.058870315551758,80900
2020-06-08,12.239999771118164,12.8100004196167,12.239999771118164,12.770000457763672,11.585051536560059,65900
2020-06-09,12.710000038146973,12.720000267028809,12.199999809265137,12.199999809265137,11.067943572998047,14400
2020-06-10,12.25,12.25,11.763999938964844,11.869999885559082,10.76856517791748,20900
2020-06-11,11.5600004196167,11.6899995803833,11.154000282287598,11.34000015258789,10.287744522094727,46400
2020-06-12,12.0,12.0,11.229999542236328,11.470000267028809,10.405679702758789,45500
2020-06-15,11.279999732971191,11.710000038146973,11.25,11.640000343322754,10.559906959533691,15100
2020-06-16,12.0,12.0,11.640000343322754,11.800000190734863,10.705060958862305,15800
2020-06-17,11.739999771118164,11.739999771118164,11.40999984741211,11.430000305175781,10.369393348693848,87200
2020-06-18,11.529999732971191,11.529999732971191,10.989999771118164,11.40999984741211,10.351249694824219,39800
2020-06-19,11.59000015258789,11.59000015258789,11.199999809265137,11.279999732971191,10.23331356048584,56000
2020-06-22,11.180000305175781,11.5,10.909000396728516,11.029999732971191,10.073487281799316,116000
2020-06-23,11.069999694824219,11.180000305175781,10.729999542236328,10.869999885559082,9.927361488342285,93200
2020-06-24,10.729999542236328,10.789999961853027,10.567000389099121,10.729999542236328,9.7995023727417,21300
2020-06-25,10.59000015258789,10.970000267028809,10.59000015258789,10.9399995803833,9.991291046142578,69200
2020-06-26,11.09000015258789,11.25100040435791,10.829999923706055,10.930000305175781,9.982160568237305,64200
2020-06-29,11.069999694824219,11.239999771118164,10.965999603271484,11.199999809265137,10.22874641418457,36300
2020-06-30,11.270000457763672,11.270000457763672,11.092000007629395,11.170000076293945,10.201349258422852,32300
2020-07-01,11.119999885559082,11.3100004196167,11.119999885559082,11.180000305175781,10.210480690002441,19400
2020-07-02,11.15999984741211,11.329999923706055,11.15999984741211,11.289999961853027,10.310942649841309,36000
2020-07-06,11.550000190734863,11.649999618530273,11.180000305175781,11.180000305175781,10.210480690002441,39600
2020-07-07,11.399999618530273,11.399999618530273,10.9399995803833,10.989999771118164,10.036954879760742,31700
2020-07-08,10.989999771118164,11.144000053405762,10.859999656677246,10.869999885559082,9.927361488342285,45700
2020-07-09,10.819999694824219,10.899999618530273,10.75,10.770000457763672,9.83603572845459,25900
2020-07-10,10.729999542236328,10.819999694824219,10.729999542236328,10.789999961853027,9.854299545288086,25200
2020-07-13,10.892000198364258,10.892000198364258,10.65999984741211,10.720000267028809,9.790369987487793,36700
2020-07-14,10.770000457763672,10.789999961853027,10.619999885559082,10.760000228881836,9.82690143585205,45100
2020-07-15,10.829999923706055,11.09000015258789,10.770000457763672,11.029999732971191,10.073487281799316,82700
2020-07-16,11.0,11.119999885559082,10.869999885559082,10.994999885559082,10.041522979736328,77000
2020-07-17,10.979999542236328,11.107999801635742,10.890000343322754,10.977999687194824,10.025995254516602,62400
2020-07-20,10.970000267028809,11.069999694824219,10.930000305175781,10.989999771118164,10.036954879760742,54800
2020-07-21,11.010000228881836,11.199999809265137,11.010000228881836,11.140000343322754,10.1739501953125,73800
2020-07-22,11.069999694824219,11.152999877929688,10.989999771118164,11.0600004196167,10.100887298583984,52600
2020-07-23,11.0,11.020000457763672,10.930000305175781,10.979999542236328,10.096288681030273,40200
2020-07-24,10.989999771118164,10.989999771118164,10.859999656677246,10.890000343322754,10.013533592224121,46200
2020-07-27,10.9399995803833,10.9399995803833,10.84000015258789,10.899999618530273,10.022727012634277,27400
2020-07-28,10.829999923706055,10.9399995803833,10.829999923706055,10.90999984741211,10.031922340393066,58900
2020-07-29,10.9399995803833,11.0600004196167,10.90999984741211,11.0600004196167,10.16985034942627,80800
2020-07-30,11.0,11.020000457763672,10.920000076293945,10.970000267028809,10.087095260620117,92100
2020-07-31,11.0,11.0,10.800000190734863,10.819999694824219,9.949165344238281,59300
2020-08-03,10.850000381469727,10.9399995803833,10.819999694824219,10.859999656677246,9.985947608947754,32600
2020-08-04,10.949999809265137,11.0,10.895000457763672,11.0,10.114677429199219,33300
2020-08-05,11.050000190734863,11.130000114440918,11.050000190734863,11.119999885559082,10.225022315979004,61500
2020-08-06,11.149999618530273,11.180000305175781,11.050000190734863,11.09000015258789,10.197437286376953,32500
2020-08-07,11.010000228881836,11.1899995803833,11.0,11.180000305175781,10.280193328857422,39500
2020-08-10,11.130000114440918,11.34000015258789,11.130000114440918,11.34000015258789,10.427314758300781,59600
2020-08-11,11.420000076293945,11.550000190734863,11.1899995803833,11.1899995803833,10.289386749267578,62100
2020-08-12,11.239999771118164,11.322999954223633,11.199999809265137,11.270000457763672,10.362947463989258,49100
2020-08-13,11.260000228881836,11.3149995803833,11.199999809265137,11.25,10.344559669494629,45200
2020-08-14,11.1899995803833,11.329999923706055,11.1899995803833,11.319999694824219,10.408926010131836,27400
2020-08-17,11.25,11.380000114440918,11.210000038146973,11.350000381469727,10.436509132385254,40100
2020-08-18,11.449999809265137,11.449999809265137,11.279999732971191,11.34000015258789,10.427314758300781,53100
2020-08-19,11.399999618530273,11.40999984741211,11.267999649047852,11.380000114440918,10.464097023010254,46400
2020-08-20,11.338000297546387,11.430000305175781,11.324999809265137,11.399999618530273,10.482484817504883,35300
2020-08-21,11.3100004196167,11.399999618530273,11.3100004196167,11.350000381469727,10.50562572479248,39600
2020-08-24,11.350000381469727,11.390000343322754,11.260000228881836,11.300000190734863,10.459345817565918,52200
2020-08-25,11.380000114440918,11.380000114440918,11.180000305175781,11.220000267028809,10.385296821594238,36300
2020-08-26,11.25,11.260000228881836,11.0,11.100000381469727,10.274222373962402,44000
2020-08-27,11.020000457763672,11.140000343322754,11.0,11.140000343322754,10.311248779296875,58500
2020-08-28,11.149999618530273,11.1899995803833,11.102999687194824,11.170000076293945,10.33901596069336,38100
2020-08-31,11.229999542236328,11.239999771118164,11.15999984741211,11.199999809265137,10.366785049438477,27600
2020-09-01,11.25,11.25,11.095000267028809,11.149999618530273,10.32050609588623,30400
2020-09-02,11.199999809265137,11.239999771118164,11.135000228881836,11.239999771118164,10.403807640075684,31800
2020-09-03,11.15999984741211,11.199999809265137,10.890000343322754,11.020000457763672,10.200177192687988,71700
2020-09-04,10.970000267028809,11.140000343322754,10.850000381469727,10.899999618530273,10.089102745056152,53100
2020-09-08,10.949999809265137,11.039999961853027,10.680000305175781,10.739999771118164,9.941007614135742,98100
2020-09-09,10.710000038146973,10.850000381469727,10.710000038146973,10.779999732971191,9.978031158447266,62100
2020-09-10,10.819999694824219,10.819999694824219,10.6899995803833,10.75,9.950261116027832,38900
2020-09-11,10.710000038146973,10.75,10.684000015258789,10.729999542236328,9.93174934387207,40900
2020-09-14,10.75,10.817999839782715,10.680000305175781,10.800000190734863,9.996542930603027,37300
2020-09-15,10.890000343322754,11.069999694824219,10.779999732971191,10.869999885559082,10.061333656311035,63100
2020-09-16,10.854000091552734,11.015999794006348,10.854000091552734,10.920000076293945,10.10761547088623,63900
2020-09-17,10.829999923706055,10.920000076293945,10.710000038146973,10.8100004196167,10.00579833984375,63200
2020-09-18,10.789999961853027,10.819999694824219,10.680000305175781,10.6899995803833,9.894726753234863,28700
2020-09-21,10.710000038146973,10.710000038146973,10.489999771118164,10.59000015258789,9.802166938781738,69900
2020-09-22,10.529999732971191,10.649999618530273,10.529999732971191,10.630000114440918,9.909369468688965,50500
2020-09-23,10.59000015258789,10.630000114440918,10.369999885559082,10.399999618530273,9.694960594177246,43300
2020-09-24,10.399999618530273,10.399999618530273,10.239999771118164,10.34000015258789,9.639030456542969,50600
2020-09-25,10.229999542236328,10.454999923706055,10.229999542236328,10.449999809265137,9.741571426391602,77200
2020-09-28,10.460000038146973,10.619999885559082,10.460000038146973,10.600000381469727,9.881403923034668,51500
2020-09-29,10.600000381469727,10.680000305175781,10.550000190734863,10.59000015258789,9.87208080291748,73000
2020-09-30,10.609999656677246,10.670000076293945,10.5600004196167,10.5600004196167,9.844115257263184,93500
2020-10-01,10.569999694824219,10.635000228881836,10.550000190734863,10.550000190734863,9.834792137145996,28500
2020-10-02,10.40999984741211,10.640000343322754,10.40999984741211,10.630000114440918,9.909369468688965,25000
2020-10-05,11.199999809265137,11.390000343322754,10.989999771118164,11.220000267028809,10.459371566772461,383600
2020-10-06,11.369999885559082,11.369999885559082,11.220000267028809,11.300000190734863,10.53394889831543,98400
2020-10-07,11.430000305175781,11.489999771118164,11.270000457763672,11.369999885559082,10.599203109741211,98400
2020-10-08,11.380000114440918,11.630000114440918,11.350000381469727,11.600000381469727,10.813611030578613,90000
2020-10-09,11.609999656677246,11.609999656677246,11.493000030517578,11.59000015258789,10.804289817810059,105600
2020-10-12,11.619999885559082,11.619999885559082,11.420000076293945,11.579999923706055,10.794964790344238,77700
2020-10-13,11.619999885559082,11.640000343322754,11.520000457763672,11.59000015258789,10.804289817810059,96700
2020-10-14,11.59000015258789,11.649999618530273,11.5600004196167,11.600000381469727,10.813611030578613,82500
2020-10-15,11.59000015258789,11.619999885559082,11.5,11.579999923706055,10.794964790344238,56400
2020-10-16,11.640000343322754,11.649999618530273,11.510000228881836,11.569999694824219,10.785643577575684,74900
2020-10-19,11.59000015258789,11.798999786376953,11.399999618530273,11.460000038146973,10.683100700378418,149600
2020-10-20,11.460000038146973,11.65999984741211,11.40999984741211,11.600000381469727,10.813611030578613,37300
2020-10-21,11.720000267028809,11.720000267028809,11.34000015258789,11.460000038146973,10.683100700378418,70100
2020-10-22,11.4399995803833,11.527999877929688,11.267999649047852,11.489999771118164,10.78162670135498,69400
2020-10-23,11.609999656677246,11.619999885559082,11.199999809265137,11.369999885559082,10.669026374816895,83500
2020-10-26,11.220000267028809,11.25,11.020000457763672,11.130000114440918,10.44382381439209,58400
2020-10-27,11.09000015258789,11.109999656677246,11.0,11.0600004196167,10.378141403198242,42200
2020-10-28,11.09000015258789,11.289999961853027,10.859999656677246,10.989999771118164,10.312455177307129,123300
2020-10-29,11.109999656677246,11.289999961853027,11.100000381469727,11.260000228881836,10.56580924987793,83500
2020-10-30,11.329999923706055,11.329999923706055,11.149999618530273,11.25,10.556426048278809,78000
2020-11-02,11.359999656677246,11.401000022888184,11.199999809265137,11.289999961853027,10.593958854675293,54900
2020-11-03,11.460000038146973,11.5,11.312000274658203,11.449999809265137,10.744093894958496,55700
2020-11-04,11.40999984741211,11.670000076293945,11.359999656677246,11.670000076293945,10.950532913208008,52600
2020-11-05,11.760000228881836,11.850000381469727,11.616000175476074,11.829999923706055,11.100666046142578,53800
2020-11-06,11.739999771118164,11.949999809265137,11.720000267028809,11.949999809265137,11.213269233703613,41800
2020-11-09,12.210000038146973,12.420000076293945,12.140000343322754,12.25,11.49477481842041,46500
2020-11-10,12.140000343322754,12.5,12.140000343322754,12.489999771118164,11.719979286193848,53500
2020-11-11,12.489999771118164,12.5,12.109999656677246,12.430000305175781,11.663676261901855,62500
2020-11-12,12.449999809265137,12.579999923706055,12.359999656677246,12.489999771118164,11.719979286193848,149600
2020-11-13,12.5,12.699999809265137,12.460000038146973,12.6899995803833,11.907646179199219,71200
2020-11-16,12.800000190734863,13.015000343322754,12.670000076293945,12.789999961853027,12.001483917236328,101900
2020-11-17,12.84000015258789,13.0600004196167,12.760000228881836,12.970000267028809,12.17038631439209,36500
2020-11-18,13.0,13.708000183105469,12.979999542236328,13.34000015258789,12.517574310302734,78400
2020-11-19,13.350000381469727,13.869999885559082,13.350000381469727,13.84000015258789,12.986748695373535,61000
2020-11-20,13.800000190734863,13.800000190734863,13.390000343322754,13.600000381469727,12.83107852935791,54400
2020-11-23,13.739999771118164,13.869999885559082,13.270000457763672,13.380000114440918,12.623517036437988,102400
2020-11-24,13.350000381469727,13.539999961853027,13.260000228881836,13.390000343322754,12.632949829101562,77700
2020-11-25,13.319999694824219,13.449000358581543,13.0,13.109999656677246,12.368782043457031,51100
2020-11-27,13.069999694824219,13.210000038146973,13.039999961853027,13.140000343322754,12.39708423614502,17600
2020-11-30,13.149999618530273,13.149999618530273,12.800000190734863,13.039999961853027,12.302740097045898,112600
2020-12-01,13.130000114440918,13.479999542236328,13.130000114440918,13.34000015258789,12.58577823638916,34400
2020-12-02,13.25,13.5,13.227999687194824,13.420000076293945,12.6612548828125,28500
2020-12-03,13.470000267028809,13.58899974822998,13.319999694824219,13.479999542236328,12.717863082885742,96000
2020-12-04,13.569999694824219,13.58899974822998,13.300000190734863,13.390000343322754,12.632949829101562,59500
2020-12-07,13.449999809265137,13.579999923706055,13.1899995803833,13.229999542236328,12.481996536254883,64000
2020-12-08,13.3100004196167,13.510000228881836,13.25,13.300000190734863,12.548040390014648,65000
2020-12-09,13.270000457763672,13.510000228881836,13.265999794006348,13.390000343322754,12.632949829101562,67300
2020-12-10,13.378999710083008,13.550000190734863,13.25,13.319999694824219,12.566908836364746,63100
2020-12-11,13.359999656677246,13.489999771118164,13.170000076293945,13.180000305175781,12.434823989868164,50000
2020-12-14,13.319999694824219,13.383999824523926,13.180000305175781,13.229999542236328,12.481996536254883,64400
2020-12-15,13.300000190734863,13.430000305175781,13.229999542236328,13.25,12.500865936279297,82700
2020-12-16,13.180000305175781,13.300000190734863,13.039999961853027,13.100000381469727,12.359347343444824,120000
2020-12-17,13.15999984741211,13.418999671936035,13.149999618530273,13.170000076293945,12.42538833618164,92200
2020-12-18,13.0600004196167,13.13599967956543,12.869999885559082,13.050000190734863,12.312174797058105,164000
2020-12-21,13.0,13.0,12.619999885559082,12.770000457763672,12.048005104064941,134300
2020-12-22,12.699999809265137,12.789999961853027,12.659000396728516,12.770000457763672,12.048005104064941,98500
2020-12-23,12.65999984741211,12.949999809265137,12.65999984741211,12.710000038146973,12.062239646911621,111900
2020-12-24,12.619999885559082,12.770999908447266,12.609999656677246,12.710000038146973,12.062239646911621,98800
2020-12-28,12.739999771118164,12.824000358581543,12.59000015258789,12.680000305175781,12.033769607543945,188000
2020-12-29,12.779999732971191,12.779999732971191,12.5,12.699999809265137,12.052749633789062,249100
2020-12-30,12.760000228881836,12.760000228881836,12.609999656677246,12.739999771118164,12.090709686279297,193300
