Date,Open,High,Low,Close,Adj Close,Volume
2019-11-08,13.75,15.050000190734863,13.029999732971191,13.350000381469727,13.350000381469727,1269800
2019-11-11,13.069999694824219,13.199999809265137,12.279999732971191,12.850000381469727,12.850000381469727,172200
2019-11-12,12.510000228881836,13.479999542236328,12.510000228881836,12.850000381469727,12.850000381469727,122000
2019-11-13,12.84000015258789,12.989999771118164,12.281000137329102,12.5,12.5,85900
2019-11-14,12.5,12.90999984741211,12.276000022888184,12.682000160217285,12.682000160217285,43100
2019-11-15,12.670000076293945,12.75,12.09000015258789,12.09000015258789,12.09000015258789,46000
2019-11-18,12.100000381469727,12.100000381469727,11.0,11.449999809265137,11.449999809265137,79700
2019-11-19,11.640000343322754,11.75,11.289999961853027,11.5,11.5,85300
2019-11-20,11.399999618530273,12.390000343322754,11.399999618530273,11.949999809265137,11.949999809265137,98100
2019-11-21,11.960000038146973,12.08899974822998,11.25,11.420000076293945,11.420000076293945,37200
2019-11-22,11.609999656677246,11.609999656677246,11.25,11.369999885559082,11.369999885559082,18300
2019-11-25,11.5,11.75,11.069999694824219,11.75,11.75,120200
2019-11-26,11.699999809265137,12.0,10.779999732971191,11.390000343322754,11.390000343322754,113200
2019-11-27,11.289999961853027,12.229000091552734,11.140000343322754,11.979999542236328,11.979999542236328,87000
2019-11-29,11.979999542236328,13.859999656677246,11.979999542236328,13.800000190734863,13.800000190734863,61300
2019-12-02,13.649999618530273,13.649999618530273,12.25,12.3100004196167,12.3100004196167,110400
2019-12-03,12.649999618530273,13.133999824523926,12.279999732971191,12.960000038146973,12.960000038146973,111800
2019-12-04,13.199999809265137,13.279999732971191,12.510000228881836,13.140000343322754,13.140000343322754,68800
2019-12-05,13.329999923706055,13.329999923706055,11.770000457763672,12.069999694824219,12.069999694824219,72200
2019-12-06,12.510000228881836,12.600000381469727,11.699999809265137,12.369999885559082,12.369999885559082,131400
2019-12-09,12.430000305175781,12.520000457763672,11.949999809265137,12.149999618530273,12.149999618530273,91400
2019-12-10,12.109999656677246,12.140000343322754,11.484000205993652,11.920000076293945,11.920000076293945,81900
2019-12-11,11.899999618530273,12.680000305175781,11.699999809265137,11.8100004196167,11.8100004196167,45600
2019-12-12,11.600000381469727,11.800000190734863,11.42199993133545,11.670000076293945,11.670000076293945,17000
2019-12-13,11.670000076293945,11.670000076293945,11.449999809265137,11.619999885559082,11.619999885559082,39500
2019-12-16,11.539999961853027,11.699999809265137,11.380000114440918,11.489999771118164,11.489999771118164,34600
2019-12-17,11.399999618530273,11.505000114440918,10.9399995803833,11.260000228881836,11.260000228881836,76700
2019-12-18,11.600000381469727,12.630000114440918,11.569999694824219,12.550000190734863,12.550000190734863,104600
2019-12-19,12.619999885559082,13.050000190734863,12.180000305175781,12.829999923706055,12.829999923706055,35500
2019-12-20,13.050000190734863,13.140000343322754,11.630000114440918,12.0600004196167,12.0600004196167,109900
2019-12-23,12.15999984741211,12.524999618530273,11.670000076293945,12.25,12.25,38500
2019-12-24,12.050000190734863,12.364999771118164,11.829999923706055,12.34000015258789,12.34000015258789,18600
2019-12-26,12.25,12.5,11.960000038146973,12.420000076293945,12.420000076293945,34800
2019-12-27,12.529999732971191,12.649999618530273,12.109999656677246,12.649999618530273,12.649999618530273,33400
2019-12-30,12.550000190734863,12.729999542236328,12.100000381469727,12.520000457763672,12.520000457763672,61900
2019-12-31,12.460000038146973,12.949999809265137,12.399999618530273,12.949999809265137,12.949999809265137,91900
2020-01-02,12.859999656677246,13.0600004196167,12.170000076293945,12.949999809265137,12.949999809265137,75700
2020-01-03,12.770000457763672,12.949999809265137,12.140000343322754,12.350000381469727,12.350000381469727,37500
2020-01-06,12.359999656677246,12.670000076293945,12.199999809265137,12.449999809265137,12.449999809265137,39000
2020-01-07,12.5,13.380000114440918,12.25,13.1899995803833,13.1899995803833,68400
2020-01-08,13.029999732971191,14.1899995803833,12.710000038146973,13.920000076293945,13.920000076293945,154000
2020-01-09,13.270000457763672,13.84000015258789,12.527000427246094,13.020000457763672,13.020000457763672,73000
2020-01-10,14.140000343322754,14.140000343322754,13.0,13.670000076293945,13.670000076293945,95100
2020-01-13,13.5600004196167,14.25,13.449999809265137,14.0600004196167,14.0600004196167,48400
2020-01-14,14.010000228881836,14.5,13.710000038146973,14.380000114440918,14.380000114440918,65100
2020-01-15,13.90999984741211,15.0,13.90999984741211,14.670000076293945,14.670000076293945,99500
2020-01-16,14.979999542236328,15.5,14.899999618530273,15.140000343322754,15.140000343322754,101400
2020-01-17,15.34000015258789,15.914999961853027,14.649999618530273,14.930000305175781,14.930000305175781,61900
2020-01-21,14.899999618530273,14.899999618530273,13.550000190734863,14.529999732971191,14.529999732971191,64700
2020-01-22,14.600000381469727,15.699999809265137,13.958999633789062,15.479999542236328,15.479999542236328,39600
2020-01-23,15.550000190734863,15.968999862670898,14.59000015258789,15.720000267028809,15.720000267028809,14200
2020-01-24,15.739999771118164,15.9399995803833,15.5,15.5,15.5,32700
2020-01-27,15.470000267028809,15.829999923706055,15.079999923706055,15.5,15.5,17200
2020-01-28,15.739999771118164,15.75,15.020000457763672,15.1899995803833,15.1899995803833,11900
2020-01-29,15.569999694824219,15.600000381469727,15.020000457763672,15.149999618530273,15.149999618530273,20900
2020-01-30,14.989999771118164,15.420000076293945,14.460000038146973,14.779999732971191,14.779999732971191,19300
2020-01-31,14.899999618530273,15.300000190734863,14.5,14.899999618530273,14.899999618530273,19100
2020-02-03,14.949999809265137,15.390000343322754,14.479999542236328,15.149999618530273,15.149999618530273,35000
2020-02-04,15.199999809265137,15.670000076293945,15.079999923706055,15.4399995803833,15.4399995803833,23300
2020-02-05,15.84000015258789,15.84000015258789,14.970000267028809,15.369999885559082,15.369999885559082,66400
2020-02-06,15.350000381469727,15.699999809265137,14.34000015258789,15.699999809265137,15.699999809265137,36500
2020-02-07,15.399999618530273,15.430000305175781,15.020000457763672,15.25,15.25,12100
2020-02-10,15.253999710083008,15.489999771118164,14.649999618530273,15.390000343322754,15.390000343322754,22200
2020-02-11,15.0,15.696000099182129,15.0,15.550000190734863,15.550000190734863,25200
2020-02-12,15.720000267028809,15.949999809265137,15.5,15.699999809265137,15.699999809265137,37800
2020-02-13,15.673999786376953,15.75,15.289999961853027,15.449999809265137,15.449999809265137,18900
2020-02-14,15.630000114440918,15.850000381469727,15.5,15.800000190734863,15.800000190734863,15600
2020-02-18,15.800000190734863,18.0,15.713000297546387,18.0,18.0,151000
2020-02-19,17.829999923706055,18.079999923706055,17.18899917602539,17.950000762939453,17.950000762939453,49000
2020-02-20,17.649999618530273,17.760000228881836,16.799999237060547,17.540000915527344,17.540000915527344,13400
2020-02-21,17.799999237060547,18.489999771118164,17.246999740600586,17.6200008392334,17.6200008392334,31100
2020-02-24,17.59000015258789,18.739999771118164,17.299999237060547,18.334999084472656,18.334999084472656,22400
2020-02-25,18.8799991607666,18.8799991607666,16.959999084472656,17.75,17.75,11900
2020-02-26,17.579999923706055,17.940000534057617,16.81999969482422,17.440000534057617,17.440000534057617,28300
2020-02-27,17.110000610351562,17.3799991607666,15.460000038146973,15.819999694824219,15.819999694824219,30300
2020-02-28,15.4399995803833,15.506999969482422,13.8100004196167,15.489999771118164,15.489999771118164,30600
2020-03-02,17.799999237060547,17.989999771118164,14.345000267028809,15.989999771118164,15.989999771118164,51000
2020-03-03,16.989999771118164,16.989999771118164,15.520000457763672,15.550000190734863,15.550000190734863,54200
2020-03-04,15.569999694824219,15.720000267028809,14.550000190734863,14.550000190734863,14.550000190734863,29700
2020-03-05,14.149999618530273,15.359999656677246,14.0,14.800000190734863,14.800000190734863,11300
2020-03-06,14.40999984741211,15.479999542236328,14.199999809265137,14.899999618530273,14.899999618530273,9800
2020-03-09,14.010000228881836,14.399999618530273,11.8100004196167,12.010000228881836,12.010000228881836,30100
2020-03-10,12.720000267028809,13.739999771118164,11.149999618530273,13.739999771118164,13.739999771118164,57400
2020-03-11,12.65999984741211,12.65999984741211,11.225000381469727,11.899999618530273,11.899999618530273,123800
2020-03-12,11.0,11.550000190734863,9.779999732971191,10.890000343322754,10.890000343322754,64000
2020-03-13,10.979999542236328,11.5,10.3100004196167,11.109999656677246,11.109999656677246,56500
2020-03-16,10.220000267028809,10.220000267028809,8.819999694824219,9.140000343322754,9.140000343322754,37900
2020-03-17,9.479999542236328,9.5,8.170000076293945,8.75,8.75,46700
2020-03-18,8.199999809265137,8.6899995803833,5.269999980926514,5.389999866485596,5.389999866485596,68500
2020-03-19,5.25,7.829999923706055,5.25,6.480000019073486,6.480000019073486,121600
2020-03-20,6.659999847412109,6.96999979019165,6.460000038146973,6.570000171661377,6.570000171661377,64300
2020-03-23,6.5,7.210000038146973,6.019999980926514,6.119999885559082,6.119999885559082,83300
2020-03-24,7.929999828338623,7.929999828338623,6.900000095367432,7.369999885559082,7.369999885559082,75100
2020-03-25,7.599999904632568,9.539999961853027,7.570000171661377,8.100000381469727,8.100000381469727,106200
2020-03-26,8.34000015258789,9.4399995803833,7.760000228881836,8.0,8.0,137100
2020-03-27,8.430000305175781,8.880000114440918,8.0,8.010000228881836,8.010000228881836,145600
2020-03-30,7.690000057220459,8.369999885559082,7.519999980926514,8.050000190734863,8.050000190734863,127200
2020-03-31,7.909999847412109,8.800000190734863,7.369999885559082,7.820000171661377,7.820000171661377,102500
2020-04-01,7.739999771118164,8.510000228881836,6.510000228881836,7.96999979019165,7.96999979019165,61600
2020-04-02,7.940000057220459,8.390000343322754,7.679999828338623,7.75,7.75,30200
2020-04-03,8.270000457763672,8.270000457763672,7.710000038146973,8.0,8.0,20700
2020-04-06,8.109999656677246,8.244999885559082,7.78000020980835,7.940000057220459,7.940000057220459,40800
2020-04-07,8.300000190734863,8.470000267028809,7.710000038146973,8.020000457763672,8.020000457763672,58400
2020-04-08,8.149999618530273,8.5,8.0,8.479999542236328,8.479999542236328,46100
2020-04-09,8.5,8.800000190734863,8.15999984741211,8.449999809265137,8.449999809265137,72400
2020-04-13,8.319999694824219,8.319999694824219,7.710000038146973,7.929999828338623,7.929999828338623,25600
2020-04-14,8.079999923706055,8.289999961853027,7.800000190734863,8.029999732971191,8.029999732971191,46400
2020-04-15,7.860000133514404,8.100000381469727,7.710000038146973,7.989999771118164,7.989999771118164,24500
2020-04-16,7.989999771118164,8.1850004196167,7.940000057220459,7.940000057220459,7.940000057220459,43200
2020-04-17,8.319999694824219,8.399999618530273,7.800000190734863,7.929999828338623,7.929999828338623,80000
2020-04-20,8.010000228881836,8.420000076293945,7.929999828338623,8.420000076293945,8.420000076293945,35300
2020-04-21,8.3100004196167,8.479999542236328,8.194999694824219,8.470000267028809,8.470000267028809,10700
2020-04-22,7.840000152587891,9.545000076293945,7.840000152587891,9.40999984741211,9.40999984741211,40900
2020-04-23,9.850000381469727,10.40999984741211,9.479999542236328,9.739999771118164,9.739999771118164,53800
2020-04-24,10.199999809265137,10.9399995803833,9.847999572753906,10.720000267028809,10.720000267028809,11800
2020-04-27,10.699999809265137,10.989999771118164,10.010000228881836,10.829999923706055,10.829999923706055,16900
2020-04-28,10.760000228881836,10.829000473022461,9.130000114440918,9.510000228881836,9.510000228881836,37000
2020-04-29,10.119999885559082,10.949999809265137,10.119999885559082,10.760000228881836,10.760000228881836,17200
2020-04-30,10.760000228881836,11.470000267028809,10.75,11.470000267028809,11.470000267028809,16900
2020-05-01,11.369999885559082,11.460000038146973,11.0,11.119999885559082,11.119999885559082,25800
2020-05-04,11.069999694824219,12.460000038146973,11.069999694824219,11.960000038146973,11.960000038146973,18800
2020-05-05,13.430000305175781,13.479000091552734,11.079999923706055,12.5,12.5,35800
2020-05-06,11.890000343322754,12.729999542236328,11.890000343322754,12.210000038146973,12.210000038146973,22500
2020-05-07,12.3100004196167,12.9399995803833,12.3100004196167,12.510000228881836,12.510000228881836,12800
2020-05-08,12.829999923706055,13.5,11.859999656677246,11.869999885559082,11.869999885559082,26600
2020-05-11,11.989999771118164,12.75,11.989999771118164,12.270000457763672,12.270000457763672,64800
2020-05-12,13.460000038146973,13.479999542236328,11.010000228881836,11.010000228881836,11.010000228881836,9800
2020-05-13,11.859999656677246,12.479999542236328,11.449000358581543,11.970000267028809,11.970000267028809,21100
2020-05-14,11.170000076293945,11.739999771118164,10.770000457763672,11.729999542236328,11.729999542236328,8300
2020-05-15,11.170000076293945,11.970000267028809,11.170000076293945,11.829999923706055,11.829999923706055,18100
2020-05-18,12.0,12.78499984741211,11.770000457763672,12.75,12.75,22000
2020-05-19,12.710000038146973,14.729999542236328,12.699999809265137,14.25,14.25,32200
2020-05-20,14.229999542236328,14.5,14.050000190734863,14.170000076293945,14.170000076293945,12900
2020-05-21,14.34000015258789,14.369999885559082,13.380000114440918,13.890000343322754,13.890000343322754,7200
2020-05-22,13.9350004196167,14.369999885559082,13.795000076293945,14.369999885559082,14.369999885559082,5700
2020-05-26,14.369999885559082,14.369999885559082,13.649999618530273,13.9399995803833,13.9399995803833,27900
2020-05-27,14.069999694824219,14.350000381469727,13.4399995803833,14.350000381469727,14.350000381469727,11400
2020-05-28,14.109999656677246,14.364999771118164,13.119999885559082,13.710000038146973,13.710000038146973,13500
2020-05-29,13.505000114440918,13.9399995803833,13.505000114440918,13.75,13.75,6000
2020-06-01,13.430000305175781,14.199999809265137,13.430000305175781,14.029999732971191,14.029999732971191,55800
2020-06-02,14.140000343322754,15.5,14.140000343322754,15.5,15.5,47100
2020-06-03,15.5,17.489999771118164,14.949999809265137,17.0,17.0,55400
2020-06-04,15.51099967956543,17.0,15.0,17.0,17.0,17300
2020-06-05,17.0,17.0,16.31999969482422,16.5,16.5,17000
2020-06-08,16.889999389648438,17.940000534057617,16.11199951171875,16.579999923706055,16.579999923706055,25900
2020-06-09,17.0,17.940000534057617,16.81999969482422,16.81999969482422,16.81999969482422,13200
2020-06-10,17.489999771118164,17.5,16.510000228881836,16.510000228881836,16.510000228881836,41900
2020-06-11,16.719999313354492,17.1299991607666,15.050000190734863,17.010000228881836,17.010000228881836,19500
2020-06-12,17.059999465942383,17.479999542236328,16.489999771118164,16.8700008392334,16.8700008392334,17000
2020-06-15,17.360000610351562,19.65999984741211,16.979999542236328,18.290000915527344,18.290000915527344,50600
2020-06-16,19.170000076293945,19.670000076293945,17.260000228881836,19.18000030517578,19.18000030517578,26600
2020-06-17,19.670000076293945,19.90999984741211,18.1299991607666,19.90999984741211,19.90999984741211,40200
2020-06-18,20.0,21.670000076293945,19.625,21.670000076293945,21.670000076293945,68500
2020-06-19,22.584999084472656,23.545000076293945,21.670000076293945,22.610000610351562,22.610000610351562,118900
2020-06-22,22.5,22.799999237060547,20.3799991607666,20.899999618530273,20.899999618530273,99800
2020-06-23,21.559999465942383,22.5,20.68000030517578,21.290000915527344,21.290000915527344,60200
2020-06-24,19.110000610351562,20.049999237060547,19.100000381469727,19.889999389648438,19.889999389648438,50200
2020-06-25,19.790000915527344,20.670000076293945,17.760000228881836,18.270000457763672,18.270000457763672,115000
2020-06-26,15.199999809265137,15.449999809265137,13.595000267028809,13.75,13.75,2343000
2020-06-29,13.850000381469727,13.899999618530273,12.699999809265137,13.0,13.0,405100
2020-06-30,12.920000076293945,13.680000305175781,12.699999809265137,12.960000038146973,12.960000038146973,172700
2020-07-01,13.079999923706055,13.130000114440918,12.039999961853027,12.420000076293945,12.420000076293945,265800
2020-07-02,12.579999923706055,13.800000190734863,12.579999923706055,13.649999618530273,13.649999618530273,83100
2020-07-06,14.050000190734863,14.343000411987305,13.869999885559082,13.920000076293945,13.920000076293945,61900
2020-07-07,13.970000267028809,14.220999717712402,12.550000190734863,12.739999771118164,12.739999771118164,115600
2020-07-08,12.84000015258789,13.260000228881836,12.760000228881836,13.210000038146973,13.210000038146973,80400
2020-07-09,13.899999618530273,13.949999809265137,12.84000015258789,13.050000190734863,13.050000190734863,119500
2020-07-10,12.949999809265137,13.520000457763672,12.75,13.520000457763672,13.520000457763672,70200
2020-07-13,13.6899995803833,14.0,13.0,13.220000267028809,13.220000267028809,92800
2020-07-14,13.170000076293945,14.170000076293945,13.170000076293945,13.8100004196167,13.8100004196167,32600
2020-07-15,14.0600004196167,14.378999710083008,14.039999961853027,14.1899995803833,14.1899995803833,49600
2020-07-16,14.050000190734863,14.1850004196167,13.90999984741211,14.149999618530273,14.149999618530273,59900
2020-07-17,14.109999656677246,14.65999984741211,14.0600004196167,14.170000076293945,14.170000076293945,117300
2020-07-20,14.220000267028809,14.647000312805176,13.869999885559082,14.029999732971191,14.029999732971191,57500
2020-07-21,14.109999656677246,15.319999694824219,14.029999732971191,14.960000038146973,14.960000038146973,70700
2020-07-22,14.850000381469727,14.85099983215332,13.699999809265137,14.220000267028809,14.220000267028809,30500
2020-07-23,14.420000076293945,14.65999984741211,13.75,13.880000114440918,13.880000114440918,25400
2020-07-24,13.779999732971191,14.75,12.5,14.050000190734863,14.050000190734863,138900
2020-07-27,14.210000038146973,14.345000267028809,12.84000015258789,12.970000267028809,12.970000267028809,52000
2020-07-28,12.899999618530273,12.899999618530273,12.470000267028809,12.59000015258789,12.59000015258789,53900
2020-07-29,12.630000114440918,12.800000190734863,12.3100004196167,12.460000038146973,12.460000038146973,52100
2020-07-30,12.3100004196167,12.510000228881836,11.890000343322754,12.210000038146973,12.210000038146973,47600
2020-07-31,12.170000076293945,12.210000038146973,11.5,11.640000343322754,11.640000343322754,131800
2020-08-03,11.710000038146973,12.210000038146973,11.529999732971191,12.15999984741211,12.15999984741211,34200
2020-08-04,12.109999656677246,13.300000190734863,12.109999656677246,13.239999771118164,13.239999771118164,37200
2020-08-05,13.609999656677246,13.609999656677246,13.010000228881836,13.260000228881836,13.260000228881836,20200
2020-08-06,13.149999618530273,13.270000457763672,13.050000190734863,13.270000457763672,13.270000457763672,4300
2020-08-07,13.180000305175781,13.34000015258789,13.0,13.270000457763672,13.270000457763672,21900
2020-08-10,13.369999885559082,13.600000381469727,13.260000228881836,13.380000114440918,13.380000114440918,20500
2020-08-11,13.25,13.270000457763672,12.949999809265137,13.199999809265137,13.199999809265137,25700
2020-08-12,13.15999984741211,13.699999809265137,12.979999542236328,13.130000114440918,13.130000114440918,31900
2020-08-13,13.789999961853027,14.449999809265137,13.3100004196167,13.90999984741211,13.90999984741211,106000
2020-08-14,14.039999961853027,14.15999984741211,12.800000190734863,13.149999618530273,13.149999618530273,69500
2020-08-17,13.34000015258789,13.739999771118164,12.680000305175781,13.739999771118164,13.739999771118164,31000
2020-08-18,13.630000114440918,13.699999809265137,12.979999542236328,13.600000381469727,13.600000381469727,20800
2020-08-19,13.789999961853027,14.350000381469727,13.0600004196167,13.510000228881836,13.510000228881836,42300
2020-08-20,13.399999618530273,13.779999732971191,13.3100004196167,13.630000114440918,13.630000114440918,25100
2020-08-21,12.949999809265137,13.979999542236328,12.949999809265137,13.789999961853027,13.789999961853027,54600
2020-08-24,13.84000015258789,13.899999618530273,13.029999732971191,13.119999885559082,13.119999885559082,37800
2020-08-25,13.25,13.65999984741211,12.859999656677246,13.40999984741211,13.40999984741211,37300
2020-08-26,13.369999885559082,13.734999656677246,13.140000343322754,13.550000190734863,13.550000190734863,41900
2020-08-27,13.550000190734863,13.550000190734863,12.949999809265137,13.210000038146973,13.210000038146973,67100
2020-08-28,13.15999984741211,13.859999656677246,12.800000190734863,13.489999771118164,13.489999771118164,45600
2020-08-31,13.329999923706055,14.430000305175781,13.119999885559082,14.25,14.25,145100
2020-09-01,14.289999961853027,14.829999923706055,13.930000305175781,14.300000190734863,14.300000190734863,66400
2020-09-02,14.5,14.5,13.40999984741211,13.550000190734863,13.550000190734863,55400
2020-09-03,13.720000267028809,14.350000381469727,12.989999771118164,13.1899995803833,13.1899995803833,141400
2020-09-04,13.289999961853027,13.5,12.989999771118164,13.1899995803833,13.1899995803833,47400
2020-09-08,13.15999984741211,14.109999656677246,13.15999984741211,14.0,14.0,33800
2020-09-09,14.100000381469727,15.5600004196167,14.100000381469727,15.460000038146973,15.460000038146973,67700
2020-09-10,15.479999542236328,16.049999237060547,15.02299976348877,15.75,15.75,77700
2020-09-11,15.920000076293945,16.200000762939453,15.609999656677246,15.930000305175781,15.930000305175781,72900
2020-09-14,16.209999084472656,17.56999969482422,15.59000015258789,16.860000610351562,16.860000610351562,97000
2020-09-15,16.850000381469727,17.079999923706055,15.800999641418457,16.760000228881836,16.760000228881836,44100
2020-09-16,16.780000686645508,16.780000686645508,15.640999794006348,16.09000015258789,16.09000015258789,89700
2020-09-17,15.930000305175781,15.930000305175781,15.270000457763672,15.609999656677246,15.609999656677246,46900
2020-09-18,15.800000190734863,16.25,14.8100004196167,15.390000343322754,15.390000343322754,229400
2020-09-21,15.3100004196167,16.270000457763672,14.640000343322754,15.899999618530273,15.899999618530273,48300
2020-09-22,15.890000343322754,16.0,15.595000267028809,15.90999984741211,15.90999984741211,20500
2020-09-23,15.770000457763672,16.229999542236328,14.869999885559082,15.609999656677246,15.609999656677246,46000
2020-09-24,15.539999961853027,15.779999732971191,14.59000015258789,15.270000457763672,15.270000457763672,36100
2020-09-25,14.84000015258789,15.579999923706055,14.84000015258789,15.380000114440918,15.380000114440918,21900
2020-09-28,15.359999656677246,16.190000534057617,15.359999656677246,15.819999694824219,15.819999694824219,26200
2020-09-29,15.640000343322754,16.0,15.425000190734863,15.989999771118164,15.989999771118164,13500
2020-09-30,16.0,16.6200008392334,15.899999618530273,16.540000915527344,16.540000915527344,35800
2020-10-01,16.530000686645508,16.530000686645508,16.0,16.389999389648438,16.389999389648438,38300
2020-10-02,16.149999618530273,16.3799991607666,15.819999694824219,15.949999809265137,15.949999809265137,29700
2020-10-05,16.25,16.2549991607666,15.930000305175781,16.09000015258789,16.09000015258789,12100
2020-10-06,16.09000015258789,16.59000015258789,15.630000114440918,16.09000015258789,16.09000015258789,28700
2020-10-07,16.0,16.25,15.767999649047852,16.209999084472656,16.209999084472656,38000
2020-10-08,16.209999084472656,16.350000381469727,15.854999542236328,16.18000030517578,16.18000030517578,39500
2020-10-09,16.260000228881836,16.260000228881836,15.970000267028809,16.100000381469727,16.100000381469727,22100
2020-10-12,16.31999969482422,16.709999084472656,16.190000534057617,16.31999969482422,16.31999969482422,35300
2020-10-13,16.260000228881836,16.78499984741211,16.15999984741211,16.3799991607666,16.3799991607666,21900
2020-10-14,16.299999237060547,16.309999465942383,16.139999389648438,16.149999618530273,16.149999618530273,17300
2020-10-15,16.010000228881836,16.299999237060547,15.52299976348877,15.920000076293945,15.920000076293945,23300
2020-10-16,15.829999923706055,16.229999542236328,15.829999923706055,16.0,16.0,18700
2020-10-19,16.174999237060547,16.239999771118164,15.569999694824219,15.579999923706055,15.579999923706055,12400
2020-10-20,15.670000076293945,16.079999923706055,15.210000038146973,15.640000343322754,15.640000343322754,35100
2020-10-21,15.520000457763672,16.5,15.520000457763672,16.260000228881836,16.260000228881836,12300
2020-10-22,16.43000030517578,16.948999404907227,16.43000030517578,16.829999923706055,16.829999923706055,12000
2020-10-23,16.920000076293945,17.190000534057617,16.920000076293945,16.989999771118164,16.989999771118164,11000
2020-10-26,17.020000457763672,17.020000457763672,16.3700008392334,16.3799991607666,16.3799991607666,7600
2020-10-27,16.010000228881836,16.3700008392334,15.86299991607666,16.15999984741211,16.15999984741211,19800
2020-10-28,15.399999618530273,15.399999618530273,13.630000114440918,14.609999656677246,14.609999656677246,63100
2020-10-29,14.479999542236328,15.890000343322754,14.210000038146973,15.760000228881836,15.760000228881836,22800
2020-10-30,15.489999771118164,15.489999771118164,15.055000305175781,15.15999984741211,15.15999984741211,15200
2020-11-02,15.15999984741211,15.699999809265137,14.75,15.6899995803833,15.6899995803833,29500
2020-11-03,15.729999542236328,16.309999465942383,15.5600004196167,16.209999084472656,16.209999084472656,14700
2020-11-04,16.040000915527344,16.34000015258789,15.079999923706055,16.200000762939453,16.200000762939453,12100
2020-11-05,16.229999542236328,16.850000381469727,15.300000190734863,16.329999923706055,16.329999923706055,12500
2020-11-06,16.579999923706055,16.579999923706055,16.31999969482422,16.329999923706055,16.329999923706055,5100
2020-11-09,17.020000457763672,17.5,16.81999969482422,16.81999969482422,16.81999969482422,39700
2020-11-10,17.079999923706055,17.829999923706055,16.969999313354492,17.0,17.0,33900
2020-11-11,17.645000457763672,17.645000457763672,16.3799991607666,16.5,16.5,16900
2020-11-12,17.56999969482422,17.56999969482422,16.3799991607666,16.40999984741211,16.40999984741211,24800
2020-11-13,16.649999618530273,17.270000457763672,16.510000228881836,16.510000228881836,16.510000228881836,10500
2020-11-16,17.049999237060547,17.049999237060547,16.5,16.8700008392334,16.8700008392334,10800
2020-11-17,16.860000610351562,17.149999618530273,16.809999465942383,17.110000610351562,17.110000610351562,18700
2020-11-18,17.350000381469727,17.389999389648438,16.459999084472656,16.459999084472656,16.459999084472656,12900
2020-11-19,16.729999542236328,16.75,16.399999618530273,16.399999618530273,16.399999618530273,7300
2020-11-20,16.65999984741211,17.450000762939453,16.65999984741211,17.329999923706055,17.329999923706055,24200
2020-11-23,17.649999618530273,17.649999618530273,16.75,17.31999969482422,17.31999969482422,12400
2020-11-24,17.31999969482422,17.350000381469727,16.690000534057617,16.690000534057617,16.690000534057617,15400
2020-11-25,16.709999084472656,16.950000762939453,16.649999618530273,16.68000030517578,16.68000030517578,7000
2020-11-27,16.760000228881836,17.059999465942383,16.63599967956543,16.65999984741211,16.65999984741211,9200
2020-11-30,16.649999618530273,16.8700008392334,16.3700008392334,16.3700008392334,16.3700008392334,14500
2020-12-01,16.68000030517578,16.850000381469727,15.539999961853027,15.539999961853027,15.539999961853027,28600
2020-12-02,15.4399995803833,16.079999923706055,14.989999771118164,15.170000076293945,15.170000076293945,14300
2020-12-03,15.3100004196167,16.34000015258789,15.3100004196167,15.630000114440918,15.630000114440918,4800
2020-12-04,15.600000381469727,16.190000534057617,15.210000038146973,15.850000381469727,15.850000381469727,11700
2020-12-07,15.850000381469727,16.790000915527344,15.265000343322754,16.360000610351562,16.360000610351562,16100
2020-12-08,16.059999465942383,16.989999771118164,16.059999465942383,16.940000534057617,16.940000534057617,9200
2020-12-09,16.84000015258789,17.274999618530273,16.299999237060547,16.299999237060547,16.299999237060547,11100
2020-12-10,16.690000534057617,17.190000534057617,16.389999389648438,16.479999542236328,16.479999542236328,15000
2020-12-11,16.399999618530273,16.75,16.25,16.3799991607666,16.3799991607666,9100
2020-12-14,16.31999969482422,16.6299991607666,16.25,16.25,16.25,15300
2020-12-15,16.299999237060547,17.030000686645508,16.299999237060547,16.690000534057617,16.690000534057617,5300
2020-12-16,16.729999542236328,17.0,16.25,16.25,16.25,8800
2020-12-17,16.5,17.59000015258789,16.045000076293945,17.59000015258789,17.59000015258789,15600
2020-12-18,17.719999313354492,17.719999313354492,16.260000228881836,16.450000762939453,16.450000762939453,64500
2020-12-21,16.079999923706055,16.56999969482422,14.989999771118164,16.309999465942383,16.309999465942383,37800
2020-12-22,16.329999923706055,16.329999923706055,15.347999572753906,16.1299991607666,16.1299991607666,15800
2020-12-23,16.5,16.59000015258789,16.1299991607666,16.1299991607666,16.1299991607666,3900
2020-12-24,16.3799991607666,16.600000381469727,15.949999809265137,15.979999542236328,15.979999542236328,6700
2020-12-28,16.040000915527344,16.600000381469727,15.760000228881836,15.760000228881836,15.760000228881836,10400
2020-12-29,15.930000305175781,15.960000038146973,14.989999771118164,14.989999771118164,14.989999771118164,12200
2020-12-30,15.140000343322754,15.600000381469727,14.84000015258789,15.470000267028809,15.470000267028809,8900
