Date,Open,High,Low,Close,Adj Close,Volume
2020-01-28,9.949999809265137,10.050000190734863,9.949999809265137,10.0,10.0,1565100
2020-01-29,10.050000190734863,10.050000190734863,10.050000190734863,10.050000190734863,10.050000190734863,1000
2020-01-30,10.050000190734863,10.050000190734863,10.050000190734863,10.050000190734863,10.050000190734863,0
2020-01-31,10.050000190734863,10.050000190734863,10.050000190734863,10.050000190734863,10.050000190734863,0
2020-02-03,10.0,10.0,10.0,10.0,10.0,400
2020-02-04,10.0,10.0,10.0,10.0,10.0,0
2020-02-05,10.0,10.0,10.0,10.0,10.0,0
2020-02-06,10.010000228881836,10.010000228881836,10.010000228881836,10.010000228881836,10.010000228881836,200000
2020-02-07,10.09000015258789,10.09000015258789,10.09000015258789,10.09000015258789,10.09000015258789,400
2020-02-10,10.09000015258789,10.09000015258789,10.09000015258789,10.09000015258789,10.09000015258789,0
2020-02-11,10.119999885559082,10.119999885559082,10.050000190734863,10.050000190734863,10.050000190734863,300
2020-02-12,10.050000190734863,10.050000190734863,10.050000190734863,10.050000190734863,10.050000190734863,0
2020-02-13,10.050000190734863,10.050000190734863,10.050000190734863,10.050000190734863,10.050000190734863,0
2020-02-14,10.050000190734863,10.050000190734863,10.050000190734863,10.050000190734863,10.050000190734863,0
2020-02-18,10.050000190734863,10.050000190734863,10.050000190734863,10.050000190734863,10.050000190734863,0
2020-02-19,10.0600004196167,10.0600004196167,10.0600004196167,10.0600004196167,10.0600004196167,20000
2020-02-20,10.0600004196167,10.0600004196167,10.0600004196167,10.0600004196167,10.0600004196167,0
2020-02-21,10.0600004196167,10.0600004196167,10.0600004196167,10.0600004196167,10.0600004196167,0
2020-02-24,10.0600004196167,10.0600004196167,10.0600004196167,10.0600004196167,10.0600004196167,0
2020-02-25,10.0600004196167,10.0600004196167,10.0600004196167,10.0600004196167,10.0600004196167,0
2020-02-26,10.039999961853027,10.039999961853027,10.039999961853027,10.039999961853027,10.039999961853027,100
2020-02-27,10.039999961853027,10.039999961853027,10.039999961853027,10.039999961853027,10.039999961853027,0
2020-02-28,10.0,10.0,10.0,10.0,10.0,80300
2020-03-02,10.0,10.0,10.0,10.0,10.0,0
2020-03-03,10.039999961853027,10.050000190734863,10.039999961853027,10.050000190734863,10.050000190734863,31000
2020-03-04,10.050000190734863,10.050000190734863,10.050000190734863,10.050000190734863,10.050000190734863,206800
2020-03-05,10.020000457763672,10.020000457763672,10.0,10.0,10.0,27500
2020-03-06,10.0,10.0,10.0,10.0,10.0,0
2020-03-09,10.0,10.0,10.0,10.0,10.0,0
2020-03-10,10.0,10.0,10.0,10.0,10.0,100
2020-03-11,9.970000267028809,9.970000267028809,9.970000267028809,9.970000267028809,9.970000267028809,100
2020-03-12,9.9399995803833,9.9399995803833,9.9399995803833,9.9399995803833,9.9399995803833,100
2020-03-13,9.9399995803833,9.9399995803833,9.9399995803833,9.9399995803833,9.9399995803833,25000
2020-03-16,9.75,9.75,9.649999618530273,9.649999618530273,9.649999618530273,15100
2020-03-17,9.649999618530273,9.649999618530273,9.649999618530273,9.649999618530273,9.649999618530273,0
2020-03-18,9.5,9.5,9.199999809265137,9.369999885559082,9.369999885559082,870800
2020-03-19,9.460000038146973,9.5,9.399999618530273,9.5,9.5,6500
2020-03-20,9.399999618530273,9.399999618530273,9.300000190734863,9.300000190734863,9.300000190734863,2085000
2020-03-23,9.300000190734863,9.300000190734863,9.300000190734863,9.300000190734863,9.300000190734863,0
2020-03-24,9.300000190734863,9.300000190734863,9.300000190734863,9.300000190734863,9.300000190734863,0
2020-03-25,9.350000381469727,9.75,9.350000381469727,9.59000015258789,9.59000015258789,403400
2020-03-26,9.600000381469727,9.600000381469727,9.600000381469727,9.600000381469727,9.600000381469727,25200
2020-03-27,9.5,9.850000381469727,9.5,9.850000381469727,9.850000381469727,300
2020-03-30,9.649999618530273,9.800000190734863,9.649999618530273,9.800000190734863,9.800000190734863,30600
2020-03-31,9.800000190734863,9.800000190734863,9.800000190734863,9.800000190734863,9.800000190734863,1523200
2020-04-01,9.800000190734863,9.800000190734863,9.800000190734863,9.800000190734863,9.800000190734863,0
2020-04-02,9.800000190734863,10.050000190734863,9.800000190734863,9.850000381469727,9.850000381469727,111900
2020-04-03,9.850000381469727,9.850000381469727,9.850000381469727,9.850000381469727,9.850000381469727,0
2020-04-06,9.850000381469727,9.850000381469727,9.850000381469727,9.850000381469727,9.850000381469727,23000
2020-04-07,9.850000381469727,9.850000381469727,9.850000381469727,9.850000381469727,9.850000381469727,0
2020-04-08,9.850000381469727,9.850000381469727,9.850000381469727,9.850000381469727,9.850000381469727,0
2020-04-09,9.725000381469727,9.725000381469727,9.725000381469727,9.725000381469727,9.725000381469727,119500
2020-04-13,9.725000381469727,9.725000381469727,9.725000381469727,9.725000381469727,9.725000381469727,0
2020-04-14,9.800000190734863,9.800000190734863,9.800000190734863,9.800000190734863,9.800000190734863,195000
2020-04-15,9.800000190734863,9.800000190734863,9.800000190734863,9.800000190734863,9.800000190734863,0
2020-04-16,9.84000015258789,10.199999809265137,9.800000190734863,9.800000190734863,9.800000190734863,50400
2020-04-17,9.800000190734863,9.800000190734863,9.800000190734863,9.800000190734863,9.800000190734863,0
2020-04-20,9.800000190734863,10.239999771118164,9.800000190734863,9.800000190734863,9.800000190734863,45400
2020-04-21,9.8100004196167,9.8100004196167,9.800000190734863,9.800000190734863,9.800000190734863,2300
2020-04-22,9.800000190734863,9.800000190734863,9.800000190734863,9.800000190734863,9.800000190734863,0
2020-04-23,9.800000190734863,9.800000190734863,9.800000190734863,9.800000190734863,9.800000190734863,0
2020-04-24,9.800000190734863,9.800000190734863,9.800000190734863,9.800000190734863,9.800000190734863,0
2020-04-27,9.75,9.75,9.75,9.75,9.75,43300
2020-04-28,9.75,9.75,9.75,9.75,9.75,0
2020-04-29,9.75,9.75,9.75,9.75,9.75,0
2020-04-30,9.75,9.75,9.75,9.75,9.75,0
2020-05-01,9.760000228881836,9.760000228881836,9.760000228881836,9.760000228881836,9.760000228881836,17000
2020-05-04,9.800000190734863,9.800000190734863,9.800000190734863,9.800000190734863,9.800000190734863,54000
2020-05-05,9.800000190734863,9.800000190734863,9.800000190734863,9.800000190734863,9.800000190734863,0
2020-05-06,9.800000190734863,9.800000190734863,9.800000190734863,9.800000190734863,9.800000190734863,0
2020-05-07,9.800000190734863,9.800000190734863,9.800000190734863,9.800000190734863,9.800000190734863,0
2020-05-08,9.800000190734863,9.824999809265137,9.800000190734863,9.824999809265137,9.824999809265137,18600
2020-05-11,9.800000190734863,9.899999618530273,9.800000190734863,9.899999618530273,9.899999618530273,11600
2020-05-12,9.899999618530273,9.899999618530273,9.899999618530273,9.899999618530273,9.899999618530273,0
2020-05-13,9.899999618530273,9.899999618530273,9.899999618530273,9.899999618530273,9.899999618530273,0
2020-05-14,9.800000190734863,9.8100004196167,9.800000190734863,9.8100004196167,9.8100004196167,61300
2020-05-15,9.800000190734863,9.800000190734863,9.800000190734863,9.800000190734863,9.800000190734863,150000
2020-05-18,9.800000190734863,9.800000190734863,9.800000190734863,9.800000190734863,9.800000190734863,50500
2020-05-19,9.800000190734863,9.800000190734863,9.800000190734863,9.800000190734863,9.800000190734863,0
2020-05-20,9.800000190734863,9.800000190734863,9.800000190734863,9.800000190734863,9.800000190734863,0
2020-05-21,9.800000190734863,9.800000190734863,9.800000190734863,9.800000190734863,9.800000190734863,0
2020-05-22,9.75,9.760000228881836,9.75,9.760000228881836,9.760000228881836,370000
2020-05-26,9.800000190734863,9.800000190734863,9.800000190734863,9.800000190734863,9.800000190734863,200
2020-05-27,9.800000190734863,9.800000190734863,9.800000190734863,9.800000190734863,9.800000190734863,500000
2020-05-28,9.800000190734863,9.800000190734863,9.800000190734863,9.800000190734863,9.800000190734863,0
2020-05-29,9.800000190734863,9.899999618530273,9.800000190734863,9.899999618530273,9.899999618530273,34300
2020-06-01,9.850000381469727,9.899999618530273,9.850000381469727,9.899999618530273,9.899999618530273,50300
2020-06-02,9.819999694824219,9.899999618530273,9.819999694824219,9.899999618530273,9.899999618530273,900
2020-06-03,9.899999618530273,9.899999618530273,9.899999618530273,9.899999618530273,9.899999618530273,0
2020-06-04,9.899999618530273,9.949999809265137,9.850000381469727,9.899999618530273,9.899999618530273,647500
2020-06-05,9.899999618530273,9.899999618530273,9.899999618530273,9.899999618530273,9.899999618530273,2500
2020-06-08,9.960000038146973,9.970000267028809,9.960000038146973,9.970000267028809,9.970000267028809,500
2020-06-09,9.970000267028809,9.970000267028809,9.970000267028809,9.970000267028809,9.970000267028809,0
2020-06-10,9.949999809265137,9.970000267028809,9.899999618530273,9.970000267028809,9.970000267028809,479800
2020-06-11,9.970000267028809,10.0,9.970000267028809,9.970000267028809,9.970000267028809,306000
2020-06-12,9.859999656677246,9.859999656677246,9.859999656677246,9.859999656677246,9.859999656677246,200
2020-06-15,9.899999618530273,10.010000228881836,9.899999618530273,10.0,10.0,2400
2020-06-16,10.029999732971191,10.029999732971191,9.970000267028809,9.970000267028809,9.970000267028809,600
2020-06-17,10.199999809265137,10.229999542236328,9.970000267028809,9.970000267028809,9.970000267028809,5000
2020-06-18,10.210000038146973,10.229999542236328,9.970000267028809,9.979999542236328,9.979999542236328,18100
2020-06-19,9.979999542236328,9.979999542236328,9.979999542236328,9.979999542236328,9.979999542236328,0
2020-06-22,9.989999771118164,10.0,9.850000381469727,10.0,10.0,733800
2020-06-23,10.010000228881836,10.050000190734863,10.0,10.029999732971191,10.029999732971191,27900
2020-06-24,10.0600004196167,10.0600004196167,10.050000190734863,10.050000190734863,10.050000190734863,10800
2020-06-25,10.079999923706055,10.079999923706055,10.050000190734863,10.050000190734863,10.050000190734863,10200
2020-06-26,10.050000190734863,10.050000190734863,10.050000190734863,10.050000190734863,10.050000190734863,0
2020-06-29,9.975000381469727,10.140000343322754,9.975000381469727,10.140000343322754,10.140000343322754,4300
2020-06-30,10.020000457763672,10.039999961853027,9.510000228881836,10.020000457763672,10.020000457763672,22600
2020-07-01,10.0,10.0,10.0,10.0,10.0,59600
2020-07-02,10.0,10.0,9.989999771118164,10.0,10.0,203400
2020-07-06,10.100000381469727,10.100000381469727,10.100000381469727,10.100000381469727,10.100000381469727,150300
2020-07-07,10.050000190734863,10.09000015258789,10.010000228881836,10.020000457763672,10.020000457763672,175900
2020-07-08,10.079999923706055,10.100000381469727,10.050000190734863,10.050000190734863,10.050000190734863,6000
2020-07-09,10.050000190734863,10.050000190734863,10.050000190734863,10.050000190734863,10.050000190734863,0
2020-07-10,10.180000305175781,10.350000381469727,10.130000114440918,10.130000114440918,10.130000114440918,36100
2020-07-13,10.3100004196167,10.430000305175781,10.239999771118164,10.40999984741211,10.40999984741211,47300
2020-07-14,10.319999694824219,10.350000381469727,10.319999694824219,10.350000381469727,10.350000381469727,900
2020-07-15,10.350000381469727,10.350000381469727,10.350000381469727,10.350000381469727,10.350000381469727,0
2020-07-16,10.350000381469727,10.350000381469727,10.220000267028809,10.220000267028809,10.220000267028809,5700
2020-07-17,10.390000343322754,10.449999809265137,10.300000190734863,10.300000190734863,10.300000190734863,2300
2020-07-20,10.270000457763672,10.729999542236328,10.244999885559082,10.270000457763672,10.270000457763672,5200
2020-07-21,10.279999732971191,10.5,10.270000457763672,10.390000343322754,10.390000343322754,11600
2020-07-22,10.5,10.5,10.310999870300293,10.319999694824219,10.319999694824219,6100
2020-07-23,10.300000190734863,10.300000190734863,10.210000038146973,10.210000038146973,10.210000038146973,2700
2020-07-24,10.399999618530273,10.600000381469727,10.210000038146973,10.390000343322754,10.390000343322754,45200
2020-07-27,10.5,12.079999923706055,10.279999732971191,10.449999809265137,10.449999809265137,162400
2020-07-28,11.0,11.0,10.329999923706055,10.40999984741211,10.40999984741211,57400
2020-07-29,10.515999794006348,11.850000381469727,10.373000144958496,10.984999656677246,10.984999656677246,3315500
2020-07-30,11.149999618530273,11.149999618530273,10.569999694824219,10.680000305175781,10.680000305175781,2588600
2020-07-31,10.800000190734863,10.800000190734863,10.25,10.449999809265137,10.449999809265137,1680900
2020-08-03,10.449999809265137,10.625,10.100000381469727,10.350000381469727,10.350000381469727,722300
2020-08-04,10.359999656677246,10.59000015258789,10.15999984741211,10.350000381469727,10.350000381469727,1463800
2020-08-05,10.550000190734863,10.600000381469727,10.4399995803833,10.489999771118164,10.489999771118164,282000
2020-08-06,10.539999961853027,10.550000190734863,10.369999885559082,10.449999809265137,10.449999809265137,849400
2020-08-07,10.600000381469727,11.390000343322754,10.420000076293945,10.59000015258789,10.59000015258789,617600
2020-08-10,10.59000015258789,10.600000381469727,10.399999618530273,10.449999809265137,10.449999809265137,106500
2020-08-11,10.600000381469727,10.649999618530273,10.364999771118164,10.40999984741211,10.40999984741211,409600
2020-08-12,10.5,10.5,10.289999961853027,10.380000114440918,10.380000114440918,117700
2020-08-13,10.359999656677246,10.399999618530273,10.3149995803833,10.329999923706055,10.329999923706055,18700
2020-08-14,10.3100004196167,10.399999618530273,10.3100004196167,10.369000434875488,10.369000434875488,22100
2020-08-17,10.4399995803833,10.4399995803833,10.319999694824219,10.329999923706055,10.329999923706055,165100
2020-08-18,10.399999618530273,10.449999809265137,10.210000038146973,10.25,10.25,56600
2020-08-19,10.350000381469727,10.350000381469727,10.0600004196167,10.100000381469727,10.100000381469727,214100
2020-08-20,10.1899995803833,10.1899995803833,10.0600004196167,10.177000045776367,10.177000045776367,125600
2020-08-21,10.09000015258789,10.199999809265137,10.050000190734863,10.109999656677246,10.109999656677246,384700
2020-08-24,10.119999885559082,10.289999961853027,10.100000381469727,10.225000381469727,10.225000381469727,141600
2020-08-25,10.1899995803833,10.34000015258789,10.149999618530273,10.204999923706055,10.204999923706055,232500
2020-08-26,10.199999809265137,10.300000190734863,10.199999809265137,10.199999809265137,10.199999809265137,123400
2020-08-27,10.25,10.300000190734863,10.175000190734863,10.25,10.25,289600
2020-08-28,10.25,10.300000190734863,10.199999809265137,10.199999809265137,10.199999809265137,77300
2020-08-31,10.25,10.265000343322754,10.178000450134277,10.220000267028809,10.220000267028809,326900
2020-09-01,10.229999542236328,10.359999656677246,10.149999618530273,10.335000038146973,10.335000038146973,1228100
2020-09-02,10.350000381469727,10.369999885559082,10.260000228881836,10.34000015258789,10.34000015258789,453900
2020-09-03,10.550000190734863,10.600000381469727,10.25,10.369999885559082,10.369999885559082,347800
2020-09-04,10.5,10.5600004196167,10.220000267028809,10.369999885559082,10.369999885559082,117200
2020-09-08,10.359999656677246,10.600000381469727,10.350000381469727,10.479999542236328,10.479999542236328,204200
2020-09-09,10.550000190734863,10.649999618530273,10.350000381469727,10.600000381469727,10.600000381469727,667700
2020-09-10,10.600000381469727,10.649999618530273,10.460000038146973,10.539999961853027,10.539999961853027,218100
2020-09-11,10.550000190734863,10.600000381469727,10.449999809265137,10.489999771118164,10.489999771118164,106600
2020-09-14,10.600000381469727,10.600000381469727,10.380000114440918,10.399999618530273,10.399999618530273,252700
2020-09-15,10.399999618530273,10.5,10.300000190734863,10.359999656677246,10.359999656677246,312800
2020-09-16,10.479999542236328,10.479999542236328,10.3100004196167,10.399999618530273,10.399999618530273,24400
2020-09-17,10.420000076293945,10.460000038146973,10.109999656677246,10.229999542236328,10.229999542236328,196400
2020-09-18,10.199999809265137,10.399999618530273,10.199999809265137,10.380000114440918,10.380000114440918,1164300
2020-09-21,10.489999771118164,10.489999771118164,10.300000190734863,10.40999984741211,10.40999984741211,108200
2020-09-22,10.369999885559082,10.4399995803833,10.239999771118164,10.270000457763672,10.270000457763672,620800
2020-09-23,10.390000343322754,10.390000343322754,10.149999618530273,10.220000267028809,10.220000267028809,439900
2020-09-24,10.149999618530273,10.229999542236328,10.050000190734863,10.079999923706055,10.079999923706055,397500
2020-09-25,10.154999732971191,10.270000457763672,10.140000343322754,10.199999809265137,10.199999809265137,1409200
2020-09-28,10.289999961853027,10.289999961853027,10.220000267028809,10.239999771118164,10.239999771118164,80200
2020-09-29,10.234999656677246,10.279999732971191,10.220000267028809,10.279999732971191,10.279999732971191,142400
2020-09-30,10.279999732971191,10.279999732971191,10.149999618530273,10.149999618530273,10.149999618530273,219700
2020-10-01,10.25,10.25,10.109999656677246,10.140000343322754,10.140000343322754,190400
2020-10-02,10.121999740600586,10.140000343322754,10.0600004196167,10.130000114440918,10.130000114440918,270800
2020-10-05,10.119999885559082,10.140000343322754,10.020000457763672,10.029999732971191,10.029999732971191,367100
2020-10-06,10.09000015258789,10.09000015258789,9.640000343322754,10.029999732971191,10.029999732971191,1189200
2020-10-07,10.020000457763672,10.069999694824219,10.0,10.010000228881836,10.010000228881836,564600
2020-10-08,10.050000190734863,10.0649995803833,9.989999771118164,10.039999961853027,10.039999961853027,157700
2020-10-09,10.010000228881836,10.09000015258789,10.010000228881836,10.029999732971191,10.029999732971191,1602400
2020-10-12,10.0,10.029999732971191,9.979999542236328,10.010000228881836,10.010000228881836,300600
2020-10-13,10.09000015258789,10.09000015258789,9.979999542236328,10.020000457763672,10.020000457763672,191400
2020-10-14,10.100000381469727,10.100000381469727,9.989999771118164,9.989999771118164,9.989999771118164,90700
2020-10-15,10.039999961853027,10.039999961853027,9.994999885559082,10.010000228881836,10.010000228881836,56000
2020-10-16,10.0,10.0600004196167,10.0,10.0600004196167,10.0600004196167,420900
2020-10-19,10.0600004196167,10.069999694824219,10.050000190734863,10.0600004196167,10.0600004196167,95500
2020-10-20,10.050000190734863,10.0600004196167,10.029999732971191,10.029999732971191,10.029999732971191,1277400
2020-10-21,10.04800033569336,10.050000190734863,10.029999732971191,10.029999732971191,10.029999732971191,458800
2020-10-22,10.029999732971191,10.050000190734863,10.0,10.029999732971191,10.029999732971191,4793700
2020-10-23,10.050000190734863,10.050000190734863,10.020000457763672,10.029999732971191,10.029999732971191,3253400
2020-10-26,10.0600004196167,10.0600004196167,9.899999618530273,10.0,10.0,616400
2020-10-27,10.0,10.100000381469727,9.979999542236328,10.0600004196167,10.0600004196167,2049800
2020-10-28,10.020000457763672,10.0600004196167,10.020000457763672,10.039999961853027,10.039999961853027,17700
2020-10-29,10.100000381469727,10.100000381469727,9.010000228881836,9.350000381469727,9.350000381469727,118700
2020-10-30,9.529999732971191,9.779999732971191,8.819999694824219,9.220000267028809,9.220000267028809,380600
2020-11-02,10.0,10.0,8.970000267028809,8.970000267028809,8.970000267028809,70400
2020-11-03,9.130000114440918,9.770000457763672,9.0,9.380000114440918,9.380000114440918,228500
2020-11-04,9.579999923706055,9.850000381469727,9.149999618530273,9.260000228881836,9.260000228881836,714000
2020-11-05,9.199999809265137,9.630000114440918,9.199999809265137,9.399999618530273,9.399999618530273,54300
2020-11-06,9.449999809265137,9.850000381469727,8.84000015258789,9.0,9.0,184000
2020-11-09,9.130000114440918,9.149999618530273,8.649999618530273,8.789999961853027,8.789999961853027,68400
2020-11-10,8.829999923706055,8.890000343322754,7.619999885559082,8.220000267028809,8.220000267028809,108600
2020-11-11,8.279999732971191,8.5,7.829999923706055,8.170000076293945,8.170000076293945,386800
2020-11-12,8.149999618530273,8.350000381469727,7.775000095367432,7.980000019073486,7.980000019073486,125200
2020-11-13,7.900000095367432,8.829999923706055,7.900000095367432,8.15999984741211,8.15999984741211,366200
2020-11-16,8.15999984741211,8.649999618530273,8.130000114440918,8.270000457763672,8.270000457763672,270100
2020-11-17,9.0,9.0,8.149999618530273,8.170000076293945,8.170000076293945,175700
2020-11-18,8.239999771118164,8.899999618530273,8.239999771118164,8.75,8.75,357500
2020-11-19,8.930000305175781,8.930000305175781,8.34000015258789,8.609999656677246,8.609999656677246,406400
2020-11-20,8.319999694824219,8.829999923706055,8.319999694824219,8.5,8.5,294000
2020-11-23,8.369999885559082,8.800000190734863,7.989999771118164,8.149999618530273,8.149999618530273,182400
2020-11-24,7.96999979019165,8.239999771118164,7.96999979019165,8.0600004196167,8.0600004196167,99000
2020-11-25,8.890000343322754,8.890000343322754,8.210000038146973,8.220000267028809,8.220000267028809,166400
2020-11-27,8.270000457763672,8.479999542236328,8.21500015258789,8.329999923706055,8.329999923706055,58500
2020-11-30,8.369999885559082,8.399999618530273,7.960000038146973,8.0600004196167,8.0600004196167,117900
2020-12-01,8.34000015258789,8.609999656677246,8.300000190734863,8.300000190734863,8.300000190734863,247500
2020-12-02,8.479999542236328,8.520000457763672,8.260000228881836,8.300000190734863,8.300000190734863,165300
2020-12-03,8.350000381469727,8.539999961853027,8.09000015258789,8.300000190734863,8.300000190734863,172600
2020-12-04,8.359999656677246,8.649999618530273,8.319999694824219,8.5600004196167,8.5600004196167,313400
2020-12-07,8.5600004196167,8.84000015258789,8.34000015258789,8.479999542236328,8.479999542236328,277900
2020-12-08,8.5,8.630000114440918,8.380000114440918,8.4399995803833,8.4399995803833,137100
2020-12-09,8.430000305175781,8.5,7.965000152587891,8.140000343322754,8.140000343322754,275800
2020-12-10,8.149999618530273,8.25,7.659999847412109,7.769999980926514,7.769999980926514,229400
2020-12-11,7.760000228881836,8.020000457763672,7.360000133514404,7.449999809265137,7.449999809265137,354400
2020-12-14,7.5,7.920000076293945,7.230000019073486,7.440000057220459,7.440000057220459,485500
2020-12-15,7.46999979019165,7.699999809265137,7.21999979019165,7.260000228881836,7.260000228881836,736400
2020-12-16,7.269999980926514,7.610000133514404,7.25,7.309999942779541,7.309999942779541,826600
2020-12-17,7.360000133514404,8.260000228881836,7.269999980926514,8.109999656677246,8.109999656677246,4178300
2020-12-18,8.369999885559082,8.739999771118164,7.829999923706055,8.069999694824219,8.069999694824219,2952100
2020-12-21,7.485000133514404,8.420000076293945,7.485000133514404,8.399999618530273,8.399999618530273,747200
2020-12-22,8.399999618530273,8.399999618530273,7.809999942779541,7.914999961853027,7.914999961853027,574100
2020-12-23,7.880000114440918,8.079999923706055,7.809999942779541,8.039999961853027,8.039999961853027,227100
2020-12-24,8.0,8.010000228881836,7.75,7.849999904632568,7.849999904632568,116100
2020-12-28,7.840000152587891,8.329999923706055,7.840000152587891,7.96999979019165,7.96999979019165,230200
2020-12-29,7.96999979019165,8.104999542236328,7.300000190734863,7.989999771118164,7.989999771118164,634600
2020-12-30,7.940000057220459,7.940000057220459,7.519999980926514,7.690000057220459,7.690000057220459,264800
