Date,Open,High,Low,Close,Adj Close,Volume
2019-08-14,9.779999732971191,9.779999732971191,9.739999771118164,9.739999771118164,9.739999771118164,300000
2019-08-15,9.739999771118164,9.739999771118164,9.739999771118164,9.739999771118164,9.739999771118164,0
2019-08-16,9.760000228881836,9.760000228881836,9.760000228881836,9.760000228881836,9.760000228881836,275200
2019-08-19,9.760000228881836,9.760000228881836,9.760000228881836,9.760000228881836,9.760000228881836,100000
2019-08-20,9.829999923706055,9.829999923706055,9.829999923706055,9.829999923706055,9.829999923706055,1000
2019-08-21,9.779999732971191,9.779999732971191,9.760000228881836,9.770000457763672,9.770000457763672,69800
2019-08-22,9.770000457763672,9.770000457763672,9.770000457763672,9.770000457763672,9.770000457763672,0
2019-08-23,9.770000457763672,9.770000457763672,9.770000457763672,9.770000457763672,9.770000457763672,0
2019-08-26,9.770000457763672,9.770000457763672,9.770000457763672,9.770000457763672,9.770000457763672,0
2019-08-27,9.789999961853027,9.789999961853027,9.770000457763672,9.770000457763672,9.770000457763672,8700
2019-08-28,9.770000457763672,9.800000190734863,9.770000457763672,9.779999732971191,9.779999732971191,157400
2019-08-29,9.779999732971191,9.789999961853027,9.770000457763672,9.779999732971191,9.779999732971191,316900
2019-08-30,9.770000457763672,9.800000190734863,9.770000457763672,9.779999732971191,9.779999732971191,103900
2019-09-03,9.8100004196167,9.8100004196167,9.770000457763672,9.800000190734863,9.800000190734863,210200
2019-09-04,9.800000190734863,9.800000190734863,9.800000190734863,9.800000190734863,9.800000190734863,0
2019-09-05,9.800000190734863,9.800000190734863,9.779999732971191,9.779999732971191,9.779999732971191,759100
2019-09-06,9.779999732971191,9.800000190734863,9.779999732971191,9.779999732971191,9.779999732971191,165100
2019-09-09,9.779999732971191,9.779999732971191,9.779999732971191,9.779999732971191,9.779999732971191,100000
2019-09-10,9.779999732971191,9.779999732971191,9.779999732971191,9.779999732971191,9.779999732971191,0
2019-09-11,9.779999732971191,9.779999732971191,9.779999732971191,9.779999732971191,9.779999732971191,28300
2019-09-12,9.795000076293945,9.800000190734863,9.795000076293945,9.800000190734863,9.800000190734863,7600
2019-09-13,9.800000190734863,9.800000190734863,9.800000190734863,9.800000190734863,9.800000190734863,0
2019-09-16,9.800000190734863,9.800000190734863,9.800000190734863,9.800000190734863,9.800000190734863,0
2019-09-17,9.800000190734863,9.800000190734863,9.800000190734863,9.800000190734863,9.800000190734863,0
2019-09-18,9.770000457763672,9.770000457763672,9.770000457763672,9.770000457763672,9.770000457763672,900
2019-09-19,9.770000457763672,9.770000457763672,9.770000457763672,9.770000457763672,9.770000457763672,0
2019-09-20,9.819999694824219,9.850000381469727,9.819999694824219,9.850000381469727,9.850000381469727,2400
2019-09-23,9.850000381469727,9.850000381469727,9.850000381469727,9.850000381469727,9.850000381469727,0
2019-09-24,9.850000381469727,9.850000381469727,9.850000381469727,9.850000381469727,9.850000381469727,0
2019-09-25,9.850000381469727,9.850000381469727,9.850000381469727,9.850000381469727,9.850000381469727,0
2019-09-26,9.850000381469727,9.850000381469727,9.850000381469727,9.850000381469727,9.850000381469727,0
2019-09-27,9.800000190734863,9.819999694824219,9.800000190734863,9.819999694824219,9.819999694824219,5200
2019-09-30,9.819999694824219,9.819999694824219,9.819999694824219,9.819999694824219,9.819999694824219,0
2019-10-01,9.800000190734863,9.800000190734863,9.800000190734863,9.800000190734863,9.800000190734863,500
2019-10-02,9.800000190734863,9.800000190734863,9.800000190734863,9.800000190734863,9.800000190734863,0
2019-10-03,9.800000190734863,9.800000190734863,9.800000190734863,9.800000190734863,9.800000190734863,104500
2019-10-04,9.800000190734863,9.800000190734863,9.800000190734863,9.800000190734863,9.800000190734863,5000
2019-10-07,9.800000190734863,9.8100004196167,9.789999961853027,9.800000190734863,9.800000190734863,265400
2019-10-08,9.800000190734863,9.800000190734863,9.800000190734863,9.800000190734863,9.800000190734863,0
2019-10-09,9.819999694824219,9.819999694824219,9.800000190734863,9.800000190734863,9.800000190734863,231000
2019-10-10,9.800000190734863,9.819999694824219,9.800000190734863,9.819999694824219,9.819999694824219,12300
2019-10-11,9.819999694824219,9.819999694824219,9.819999694824219,9.819999694824219,9.819999694824219,0
2019-10-14,9.819999694824219,9.819999694824219,9.819999694824219,9.819999694824219,9.819999694824219,0
2019-10-15,9.800000190734863,9.800000190734863,9.795000076293945,9.800000190734863,9.800000190734863,7700
2019-10-16,9.800000190734863,9.800000190734863,9.800000190734863,9.800000190734863,9.800000190734863,0
2019-10-17,9.800000190734863,9.800000190734863,9.800000190734863,9.800000190734863,9.800000190734863,29700
2019-10-18,9.819999694824219,9.829999923706055,9.819999694824219,9.829999923706055,9.829999923706055,392500
2019-10-21,9.819999694824219,9.819999694824219,9.819999694824219,9.819999694824219,9.819999694824219,50500
2019-10-22,9.819999694824219,9.850000381469727,9.819999694824219,9.850000381469727,9.850000381469727,1500
2019-10-23,9.850000381469727,9.850000381469727,9.850000381469727,9.850000381469727,9.850000381469727,100
2019-10-24,9.819999694824219,9.829999923706055,9.8100004196167,9.829999923706055,9.829999923706055,378000
2019-10-25,9.829999923706055,9.850000381469727,9.8100004196167,9.8100004196167,9.8100004196167,711700
2019-10-28,9.829999923706055,9.829999923706055,9.8100004196167,9.8100004196167,9.8100004196167,93600
2019-10-29,9.829999923706055,9.829999923706055,9.819999694824219,9.819999694824219,9.819999694824219,4400
2019-10-30,9.829999923706055,9.850000381469727,9.829999923706055,9.84000015258789,9.84000015258789,303900
2019-10-31,9.850000381469727,9.850000381469727,9.850000381469727,9.850000381469727,9.850000381469727,600
2019-11-01,9.850000381469727,9.850000381469727,9.819999694824219,9.819999694824219,9.819999694824219,300
2019-11-04,9.84000015258789,9.850000381469727,9.829999923706055,9.850000381469727,9.850000381469727,74300
2019-11-05,9.84000015258789,9.850000381469727,9.829999923706055,9.84000015258789,9.84000015258789,1563000
2019-11-06,9.850000381469727,9.850000381469727,9.850000381469727,9.850000381469727,9.850000381469727,300
2019-11-07,9.859999656677246,9.859999656677246,9.84000015258789,9.84000015258789,9.84000015258789,300
2019-11-08,9.84000015258789,9.84000015258789,9.84000015258789,9.84000015258789,9.84000015258789,28000
2019-11-11,9.84000015258789,9.850000381469727,9.84000015258789,9.850000381469727,9.850000381469727,245000
2019-11-12,9.850000381469727,9.850000381469727,9.850000381469727,9.850000381469727,9.850000381469727,0
2019-11-13,9.850000381469727,9.859999656677246,9.850000381469727,9.859999656677246,9.859999656677246,402200
2019-11-14,9.859999656677246,9.859999656677246,9.859999656677246,9.859999656677246,9.859999656677246,0
2019-11-15,9.850000381469727,9.850000381469727,9.850000381469727,9.850000381469727,9.850000381469727,1000
2019-11-18,9.850000381469727,9.850000381469727,9.850000381469727,9.850000381469727,9.850000381469727,0
2019-11-19,9.859999656677246,9.859999656677246,9.850000381469727,9.850000381469727,9.850000381469727,107100
2019-11-20,9.850000381469727,9.850000381469727,9.850000381469727,9.850000381469727,9.850000381469727,221500
2019-11-21,9.850000381469727,9.850000381469727,9.850000381469727,9.850000381469727,9.850000381469727,0
2019-11-22,9.850000381469727,9.850000381469727,9.850000381469727,9.850000381469727,9.850000381469727,0
2019-11-25,9.890000343322754,9.890000343322754,9.850000381469727,9.850000381469727,9.850000381469727,800
2019-11-26,9.859999656677246,9.859999656677246,9.859999656677246,9.859999656677246,9.859999656677246,3900
2019-11-27,9.859999656677246,9.859999656677246,9.859999656677246,9.859999656677246,9.859999656677246,0
2019-11-29,9.869999885559082,9.869999885559082,9.869999885559082,9.869999885559082,9.869999885559082,2800
2019-12-02,9.869999885559082,9.869999885559082,9.869999885559082,9.869999885559082,9.869999885559082,0
2019-12-03,9.869999885559082,9.869999885559082,9.869999885559082,9.869999885559082,9.869999885559082,134900
2019-12-04,9.869999885559082,9.869999885559082,9.869999885559082,9.869999885559082,9.869999885559082,1700
2019-12-05,9.869999885559082,9.890000343322754,9.866999626159668,9.890000343322754,9.890000343322754,139200
2019-12-06,9.890000343322754,9.890000343322754,9.890000343322754,9.890000343322754,9.890000343322754,0
2019-12-09,9.880000114440918,9.880000114440918,9.880000114440918,9.880000114440918,9.880000114440918,100
2019-12-10,9.850000381469727,9.850000381469727,9.850000381469727,9.850000381469727,9.850000381469727,10000
2019-12-11,9.869999885559082,9.899999618530273,9.869999885559082,9.899999618530273,9.899999618530273,102100
2019-12-12,9.869999885559082,9.899999618530273,9.869999885559082,9.890000343322754,9.890000343322754,169400
2019-12-13,9.890000343322754,9.890000343322754,9.890000343322754,9.890000343322754,9.890000343322754,0
2019-12-16,9.920000076293945,9.920000076293945,9.920000076293945,9.920000076293945,9.920000076293945,1000
2019-12-17,9.920000076293945,9.920000076293945,9.920000076293945,9.920000076293945,9.920000076293945,0
2019-12-18,9.920000076293945,9.920000076293945,9.920000076293945,9.920000076293945,9.920000076293945,43400
2019-12-19,9.899999618530273,9.899999618530273,9.880000114440918,9.880000114440918,9.880000114440918,177100
2019-12-20,9.880000114440918,9.880000114440918,9.880000114440918,9.880000114440918,9.880000114440918,0
2019-12-23,9.880000114440918,9.880000114440918,9.880000114440918,9.880000114440918,9.880000114440918,0
2019-12-24,9.880000114440918,9.880000114440918,9.880000114440918,9.880000114440918,9.880000114440918,0
2019-12-26,9.880000114440918,9.880000114440918,9.880000114440918,9.880000114440918,9.880000114440918,0
2019-12-27,9.918000221252441,9.918000221252441,9.890000343322754,9.90999984741211,9.90999984741211,4200
2019-12-30,9.90999984741211,9.920000076293945,9.880000114440918,9.920000076293945,9.920000076293945,81600
2019-12-31,9.920000076293945,9.949999809265137,9.920000076293945,9.949999809265137,9.949999809265137,3400
2020-01-02,9.949999809265137,9.949999809265137,9.949999809265137,9.949999809265137,9.949999809265137,0
2020-01-03,9.960000038146973,9.979999542236328,9.949999809265137,9.960000038146973,9.960000038146973,268000
2020-01-06,9.960000038146973,9.960000038146973,9.960000038146973,9.960000038146973,9.960000038146973,0
2020-01-07,10.0,10.0,9.979999542236328,9.979999542236328,9.979999542236328,91600
2020-01-08,9.979999542236328,9.979999542236328,9.979999542236328,9.979999542236328,9.979999542236328,0
2020-01-09,9.989999771118164,10.020000457763672,9.979999542236328,10.020000457763672,10.020000457763672,52000
2020-01-10,10.020000457763672,10.020000457763672,10.020000457763672,10.020000457763672,10.020000457763672,7300
2020-01-13,10.029999732971191,10.029999732971191,10.029999732971191,10.029999732971191,10.029999732971191,300
2020-01-14,10.020000457763672,10.020000457763672,10.020000457763672,10.020000457763672,10.020000457763672,75500
2020-01-15,10.020000457763672,10.020000457763672,10.020000457763672,10.020000457763672,10.020000457763672,0
2020-01-16,10.0,10.0,10.0,10.0,10.0,200000
2020-01-17,10.010000228881836,10.010000228881836,10.0,10.0,10.0,4700
2020-01-21,10.020000457763672,10.020000457763672,10.0,10.0,10.0,3400
2020-01-22,10.020000457763672,10.039999961853027,10.020000457763672,10.039999961853027,10.039999961853027,50300
2020-01-23,10.039999961853027,10.039999961853027,10.039999961853027,10.039999961853027,10.039999961853027,0
2020-01-24,10.039999961853027,10.039999961853027,10.039999961853027,10.039999961853027,10.039999961853027,0
2020-01-27,10.010000228881836,10.010000228881836,10.010000228881836,10.010000228881836,10.010000228881836,6200
2020-01-28,10.020000457763672,10.020000457763672,10.020000457763672,10.020000457763672,10.020000457763672,70000
2020-01-29,10.020000457763672,10.039999961853027,10.020000457763672,10.029999732971191,10.029999732971191,301400
2020-01-30,10.029999732971191,10.029999732971191,10.029999732971191,10.029999732971191,10.029999732971191,0
2020-01-31,10.029999732971191,10.029999732971191,10.029999732971191,10.029999732971191,10.029999732971191,0
2020-02-03,10.029999732971191,10.029999732971191,10.029999732971191,10.029999732971191,10.029999732971191,0
2020-02-04,10.029999732971191,10.029999732971191,10.029999732971191,10.029999732971191,10.029999732971191,0
2020-02-05,10.020000457763672,10.020000457763672,10.020000457763672,10.020000457763672,10.020000457763672,6100
2020-02-06,10.010000228881836,10.010000228881836,10.010000228881836,10.010000228881836,10.010000228881836,200
2020-02-07,10.029999732971191,10.050000190734863,10.029999732971191,10.050000190734863,10.050000190734863,125000
2020-02-10,10.050000190734863,10.050000190734863,10.050000190734863,10.050000190734863,10.050000190734863,0
2020-02-11,10.050000190734863,10.050000190734863,10.050000190734863,10.050000190734863,10.050000190734863,0
2020-02-12,10.050000190734863,10.050000190734863,10.050000190734863,10.050000190734863,10.050000190734863,0
2020-02-13,10.050000190734863,10.050000190734863,10.050000190734863,10.050000190734863,10.050000190734863,0
2020-02-14,10.045000076293945,10.050000190734863,10.039999961853027,10.050000190734863,10.050000190734863,100700
2020-02-18,10.029999732971191,10.029999732971191,10.029999732971191,10.029999732971191,10.029999732971191,200200
2020-02-19,10.020000457763672,10.029999732971191,10.020000457763672,10.029999732971191,10.029999732971191,13600
2020-02-20,10.029999732971191,10.050000190734863,10.029999732971191,10.029999732971191,10.029999732971191,723600
2020-02-21,10.029999732971191,10.029999732971191,10.029999732971191,10.029999732971191,10.029999732971191,0
2020-02-24,10.029999732971191,10.050000190734863,10.029999732971191,10.039999961853027,10.039999961853027,56900
2020-02-25,10.029999732971191,10.039999961853027,10.020000457763672,10.029999732971191,10.029999732971191,28300
2020-02-26,10.029999732971191,10.029999732971191,10.010000228881836,10.010000228881836,10.010000228881836,95800
2020-02-27,10.029999732971191,10.029999732971191,10.010000228881836,10.010000228881836,10.010000228881836,30400
2020-02-28,10.010000228881836,10.020000457763672,10.0,10.0,10.0,160500
2020-03-02,10.0,10.020000457763672,9.970000267028809,10.020000457763672,10.020000457763672,2655100
2020-03-03,10.020000457763672,10.020000457763672,10.020000457763672,10.020000457763672,10.020000457763672,400
2020-03-04,10.0,10.0,9.989999771118164,9.989999771118164,9.989999771118164,800
2020-03-05,10.0,10.010000228881836,9.989999771118164,10.0,10.0,44800
2020-03-06,10.0,10.010000228881836,10.0,10.010000228881836,10.010000228881836,1300
2020-03-09,10.010000228881836,10.010000228881836,10.010000228881836,10.010000228881836,10.010000228881836,0
2020-03-10,10.050000190734863,10.050000190734863,9.930000305175781,9.930000305175781,9.930000305175781,652600
2020-03-11,9.949999809265137,9.989999771118164,9.899999618530273,9.899999618530273,9.899999618530273,55500
2020-03-12,9.899999618530273,9.899999618530273,9.699999809265137,9.800000190734863,9.800000190734863,967800
2020-03-13,9.75,9.75,9.75,9.75,9.75,386700
2020-03-16,9.710000038146973,9.710000038146973,9.630000114440918,9.6899995803833,9.6899995803833,2193100
2020-03-17,9.600000381469727,9.699999809265137,8.699999809265137,9.680000305175781,9.680000305175781,1048300
2020-03-18,9.680000305175781,9.680000305175781,9.680000305175781,9.680000305175781,9.680000305175781,100
2020-03-19,9.569999694824219,9.640000343322754,9.449999809265137,9.5,9.5,87900
2020-03-20,9.75,9.75,9.75,9.75,9.75,100
2020-03-23,9.699999809265137,9.699999809265137,9.699999809265137,9.699999809265137,9.699999809265137,300
2020-03-24,9.649999618530273,9.699999809265137,9.649999618530273,9.699999809265137,9.699999809265137,202400
2020-03-25,9.699999809265137,9.829999923706055,9.699999809265137,9.800000190734863,9.800000190734863,1023500
2020-03-26,9.84000015258789,9.850000381469727,9.75,9.850000381469727,9.850000381469727,55300
2020-03-27,9.850000381469727,9.890000343322754,9.850000381469727,9.890000343322754,9.890000343322754,3500
2020-03-30,9.8100004196167,9.8100004196167,9.8100004196167,9.8100004196167,9.8100004196167,300
2020-03-31,9.829999923706055,9.890000343322754,9.8100004196167,9.84000015258789,9.84000015258789,422000
2020-04-01,9.880000114440918,9.890000343322754,9.869999885559082,9.869999885559082,9.869999885559082,3800
2020-04-02,9.850000381469727,9.920000076293945,9.850000381469727,9.899999618530273,9.899999618530273,106200
2020-04-03,9.890000343322754,9.899999618530273,9.850000381469727,9.850000381469727,9.850000381469727,125100
2020-04-06,9.850000381469727,9.960000038146973,9.850000381469727,9.960000038146973,9.960000038146973,342600
2020-04-07,9.920000076293945,9.920000076293945,9.859999656677246,9.859999656677246,9.859999656677246,400
2020-04-08,9.90999984741211,9.90999984741211,9.880000114440918,9.880000114440918,9.880000114440918,11200
2020-04-09,9.979999542236328,9.979999542236328,9.920000076293945,9.920000076293945,9.920000076293945,700
2020-04-13,9.890000343322754,9.890000343322754,9.890000343322754,9.890000343322754,9.890000343322754,2100
2020-04-14,10.0,10.0,9.9399995803833,9.9399995803833,9.9399995803833,400
2020-04-15,9.779999732971191,9.779999732971191,9.770000457763672,9.770000457763672,9.770000457763672,200
2020-04-16,9.770000457763672,9.770000457763672,9.770000457763672,9.770000457763672,9.770000457763672,0
2020-04-17,9.899999618530273,9.899999618530273,9.890000343322754,9.899999618530273,9.899999618530273,109500
2020-04-20,9.9399995803833,9.9399995803833,9.9399995803833,9.9399995803833,9.9399995803833,300
2020-04-21,9.925000190734863,9.925000190734863,9.925000190734863,9.925000190734863,9.925000190734863,146800
2020-04-22,9.925000190734863,9.925000190734863,9.925000190734863,9.925000190734863,9.925000190734863,0
2020-04-23,9.9399995803833,10.0,9.9399995803833,10.0,10.0,700
2020-04-24,9.949999809265137,10.0,9.9399995803833,9.949999809265137,9.949999809265137,106900
2020-04-27,9.949999809265137,10.0,9.9399995803833,10.0,10.0,323000
2020-04-28,10.0,10.0,10.0,10.0,10.0,0
2020-04-29,10.0,10.0,10.0,10.0,10.0,1012000
2020-04-30,9.989999771118164,9.989999771118164,9.920000076293945,9.989999771118164,9.989999771118164,4300
2020-05-01,9.989999771118164,9.989999771118164,9.989999771118164,9.989999771118164,9.989999771118164,0
2020-05-04,9.989999771118164,9.989999771118164,9.989999771118164,9.989999771118164,9.989999771118164,0
2020-05-05,9.989999771118164,9.989999771118164,9.989999771118164,9.989999771118164,9.989999771118164,0
2020-05-06,9.920000076293945,9.920000076293945,9.920000076293945,9.920000076293945,9.920000076293945,200
2020-05-07,9.920000076293945,9.920000076293945,9.920000076293945,9.920000076293945,9.920000076293945,0
2020-05-08,9.920000076293945,9.920000076293945,9.920000076293945,9.920000076293945,9.920000076293945,0
2020-05-11,9.9399995803833,9.9399995803833,9.930000305175781,9.930000305175781,9.930000305175781,625800
2020-05-12,9.9399995803833,9.9399995803833,9.9399995803833,9.9399995803833,9.9399995803833,400
2020-05-13,9.9399995803833,9.9399995803833,9.9399995803833,9.9399995803833,9.9399995803833,0
2020-05-14,9.970000267028809,9.989999771118164,9.9399995803833,9.9399995803833,9.9399995803833,120000
2020-05-15,9.960000038146973,9.960000038146973,9.949999809265137,9.949999809265137,9.949999809265137,700
2020-05-18,9.949999809265137,9.949999809265137,9.949999809265137,9.949999809265137,9.949999809265137,0
2020-05-19,9.949999809265137,9.949999809265137,9.949999809265137,9.949999809265137,9.949999809265137,0
2020-05-20,9.970000267028809,10.010000228881836,9.960000038146973,10.010000228881836,10.010000228881836,2500
2020-05-21,9.949999809265137,9.960000038146973,9.949999809265137,9.960000038146973,9.960000038146973,63600
2020-05-22,9.960000038146973,10.029999732971191,9.949999809265137,10.029999732971191,10.029999732971191,151800
2020-05-26,10.029999732971191,10.029999732971191,10.029999732971191,10.029999732971191,10.029999732971191,0
2020-05-27,10.010000228881836,10.010000228881836,9.9399995803833,9.9399995803833,9.9399995803833,300
2020-05-28,9.9399995803833,9.9399995803833,9.9399995803833,9.9399995803833,9.9399995803833,0
2020-05-29,10.0,10.0,10.0,10.0,10.0,500
2020-06-01,10.0,10.0,10.0,10.0,10.0,0
2020-06-02,10.0,10.0,10.0,10.0,10.0,90400
2020-06-03,10.0,10.0,10.0,10.0,10.0,0
2020-06-04,10.010000228881836,10.050000190734863,10.010000228881836,10.050000190734863,10.050000190734863,12500
2020-06-05,10.050000190734863,10.050000190734863,10.050000190734863,10.050000190734863,10.050000190734863,0
2020-06-08,10.029999732971191,10.041999816894531,10.010000228881836,10.039999961853027,10.039999961853027,500
2020-06-09,10.057000160217285,10.057000160217285,10.029999732971191,10.029999732971191,10.029999732971191,300
2020-06-10,10.039999961853027,10.050000190734863,10.039999961853027,10.04699993133545,10.04699993133545,17600
2020-06-11,10.050000190734863,10.0600004196167,10.0,10.0,10.0,5600
2020-06-12,10.050000190734863,10.052000045776367,10.050000190734863,10.050000190734863,10.050000190734863,300500
2020-06-15,10.050000190734863,10.050000190734863,10.050000190734863,10.050000190734863,10.050000190734863,100
2020-06-16,10.0600004196167,10.100000381469727,10.029999732971191,10.079999923706055,10.079999923706055,90300
2020-06-17,10.050000190734863,10.079999923706055,10.050000190734863,10.079999923706055,10.079999923706055,700
2020-06-18,10.079999923706055,10.079999923706055,10.050000190734863,10.050000190734863,10.050000190734863,28800
2020-06-19,10.069999694824219,10.130000114440918,10.050000190734863,10.100000381469727,10.100000381469727,92100
2020-06-22,10.119999885559082,10.119999885559082,10.079999923706055,10.079999923706055,10.079999923706055,16000
2020-06-23,10.119999885559082,10.170000076293945,10.050000190734863,10.050000190734863,10.050000190734863,35100
2020-06-24,10.125,10.125,10.050000190734863,10.050000190734863,10.050000190734863,300
2020-06-25,10.100000381469727,10.119999885559082,10.100000381469727,10.100000381469727,10.100000381469727,16200
2020-06-26,10.119999885559082,10.119999885559082,10.050000190734863,10.050000190734863,10.050000190734863,7300
2020-06-29,10.949999809265137,10.949999809265137,10.300000190734863,10.869999885559082,10.869999885559082,6611100
2020-06-30,11.199999809265137,11.279999732971191,10.300000190734863,10.75,10.75,4138000
2020-07-01,11.0,11.0,10.399999618530273,10.75,10.75,1938700
2020-07-02,10.800000190734863,10.848999977111816,10.5,10.789999961853027,10.789999961853027,1030900
2020-07-06,11.09000015258789,11.109999656677246,10.8100004196167,10.920000076293945,10.920000076293945,1670500
2020-07-07,10.899999618530273,10.9399995803833,10.649999618530273,10.779999732971191,10.779999732971191,938200
2020-07-08,10.890000343322754,10.899999618530273,10.609999656677246,10.75,10.75,314800
2020-07-09,10.699999809265137,10.899999618530273,10.510000228881836,10.819999694824219,10.819999694824219,458700
2020-07-10,10.890000343322754,10.949999809265137,10.699999809265137,10.84000015258789,10.84000015258789,883700
2020-07-13,11.0,11.0,10.520000457763672,10.699999809265137,10.699999809265137,830400
2020-07-14,10.5600004196167,10.800000190734863,10.430000305175781,10.65999984741211,10.65999984741211,818100
2020-07-15,10.65999984741211,10.739999771118164,10.550000190734863,10.720000267028809,10.720000267028809,454700
2020-07-16,10.710000038146973,10.786999702453613,10.600000381469727,10.6899995803833,10.6899995803833,425300
2020-07-17,10.789999961853027,11.390000343322754,10.649999618530273,10.920000076293945,10.920000076293945,537900
2020-07-20,10.949999809265137,11.0,10.699999809265137,10.770000457763672,10.770000457763672,325300
2020-07-21,10.770000457763672,10.899999618530273,10.720000267028809,10.8100004196167,10.8100004196167,174500
2020-07-22,10.949999809265137,10.989999771118164,10.699999809265137,10.760000228881836,10.760000228881836,177400
2020-07-23,10.84000015258789,10.84000015258789,10.619999885559082,10.649999618530273,10.649999618530273,208200
2020-07-24,10.729999542236328,10.767000198364258,10.399999618530273,10.539999961853027,10.539999961853027,314100
2020-07-27,10.510000228881836,11.25,10.420000076293945,10.720000267028809,10.720000267028809,831300
2020-07-28,10.720000267028809,10.869999885559082,10.5600004196167,10.630000114440918,10.630000114440918,206300
2020-07-29,10.8100004196167,11.0,10.130000114440918,10.3100004196167,10.3100004196167,2037300
2020-07-30,10.25,10.390000343322754,10.199999809265137,10.3100004196167,10.3100004196167,2237600
2020-07-31,10.289999961853027,10.449999809265137,10.220000267028809,10.390000343322754,10.390000343322754,988300
2020-08-03,10.390000343322754,10.449999809265137,10.270000457763672,10.270000457763672,10.270000457763672,476200
2020-08-04,10.300000190734863,10.350000381469727,10.25,10.329999923706055,10.329999923706055,233700
2020-08-05,10.279999732971191,10.380000114440918,10.260000228881836,10.3100004196167,10.3100004196167,503100
2020-08-06,10.260000228881836,10.324999809265137,10.25,10.300000190734863,10.300000190734863,386200
2020-08-07,10.300000190734863,10.350000381469727,10.25,10.279999732971191,10.279999732971191,277100
2020-08-10,10.25,10.319999694824219,10.199999809265137,10.289999961853027,10.289999961853027,448600
2020-08-11,10.25,10.319999694824219,10.239999771118164,10.300000190734863,10.300000190734863,201200
2020-08-12,10.25,10.300000190734863,10.210000038146973,10.229999542236328,10.229999542236328,367500
2020-08-13,10.229999542236328,10.300000190734863,10.220000267028809,10.260000228881836,10.260000228881836,124800
2020-08-14,10.260000228881836,10.260000228881836,10.218000411987305,10.25,10.25,317200
2020-08-17,10.239999771118164,10.260000228881836,10.140000343322754,10.1899995803833,10.1899995803833,153100
2020-08-18,10.180000305175781,10.199999809265137,10.069999694824219,10.149999618530273,10.149999618530273,473600
2020-08-19,10.149999618530273,10.229999542236328,10.135000228881836,10.1899995803833,10.1899995803833,120800
2020-08-20,10.199999809265137,10.199999809265137,10.130000114440918,10.199999809265137,10.199999809265137,188100
2020-08-21,10.1899995803833,10.1899995803833,10.100000381469727,10.15999984741211,10.15999984741211,98800
2020-08-24,10.109999656677246,10.25,10.109999656677246,10.229999542236328,10.229999542236328,83100
2020-08-25,10.239999771118164,10.350000381469727,10.149999618530273,10.300000190734863,10.300000190734863,521800
2020-08-26,10.34000015258789,10.350000381469727,10.25,10.329999923706055,10.329999923706055,527800
2020-08-27,10.300000190734863,10.789999961853027,10.300000190734863,10.699999809265137,10.699999809265137,2386100
2020-08-28,10.699999809265137,10.779999732971191,10.539999961853027,10.630000114440918,10.630000114440918,1379200
2020-08-31,10.59000015258789,10.699999809265137,10.399999618530273,10.520000457763672,10.520000457763672,166600
2020-09-01,10.5,10.579999923706055,10.4399995803833,10.460000038146973,10.460000038146973,376100
2020-09-02,10.5,10.609999656677246,10.449999809265137,10.479999542236328,10.479999542236328,303700
2020-09-03,10.5,10.600000381469727,10.449999809265137,10.550000190734863,10.550000190734863,226800
2020-09-04,10.59000015258789,10.960000038146973,10.5,10.600000381469727,10.600000381469727,493500
2020-09-08,10.489999771118164,10.800000190734863,10.489999771118164,10.680000305175781,10.680000305175781,283300
2020-09-09,10.699999809265137,10.75,10.569999694824219,10.609999656677246,10.609999656677246,307500
2020-09-10,10.6899995803833,10.6899995803833,10.399999618530273,10.449999809265137,10.449999809265137,523300
2020-09-11,10.59000015258789,10.649999618530273,10.460000038146973,10.550000190734863,10.550000190734863,122200
2020-09-14,10.640000343322754,10.649999618530273,10.529999732971191,10.600000381469727,10.600000381469727,177300
2020-09-15,10.539999961853027,10.600000381469727,10.4350004196167,10.479999542236328,10.479999542236328,141400
2020-09-16,10.630000114440918,10.739999771118164,10.460000038146973,10.460000038146973,10.460000038146973,363200
2020-09-17,10.460000038146973,10.58899974822998,10.460000038146973,10.5,10.5,575900
2020-09-18,10.470000267028809,10.800000190734863,10.4399995803833,10.5,10.5,470000
2020-09-21,10.5,10.579999923706055,10.399999618530273,10.479999542236328,10.479999542236328,504600
2020-09-22,10.479999542236328,10.5,10.319999694824219,10.380000114440918,10.380000114440918,691400
2020-09-23,10.420000076293945,10.437999725341797,10.25,10.34000015258789,10.34000015258789,358200
2020-09-24,10.25,10.399999618530273,10.170000076293945,10.260000228881836,10.260000228881836,699500
2020-09-25,10.239999771118164,10.399999618530273,10.239999771118164,10.399999618530273,10.399999618530273,759500
2020-09-28,10.369999885559082,10.463000297546387,10.300000190734863,10.399999618530273,10.399999618530273,191000
2020-09-29,10.369999885559082,10.399999618530273,10.25,10.300000190734863,10.300000190734863,298300
2020-09-30,10.359999656677246,10.489999771118164,10.324999809265137,10.369999885559082,10.369999885559082,676600
2020-10-01,10.399999618530273,10.449999809265137,10.359999656677246,10.380000114440918,10.380000114440918,1015400
2020-10-02,10.3100004196167,10.399999618530273,10.270000457763672,10.350000381469727,10.350000381469727,249000
2020-10-05,10.5,10.5600004196167,10.369999885559082,10.5,10.5,2515400
2020-10-06,10.5,10.550000190734863,10.399999618530273,10.449999809265137,10.449999809265137,1489300
2020-10-07,10.529999732971191,10.699999809265137,10.5,10.640000343322754,10.640000343322754,2956000
2020-10-08,10.729999542236328,11.319999694824219,10.600000381469727,11.149999618530273,11.149999618530273,2158100
2020-10-09,11.199999809265137,11.699999809265137,11.029999732971191,11.5600004196167,11.5600004196167,1817000
2020-10-12,11.670000076293945,11.75,11.529999732971191,11.699999809265137,11.699999809265137,654000
2020-10-13,11.640000343322754,11.75,11.399999618530273,11.600000381469727,11.600000381469727,394000
2020-10-14,11.59000015258789,12.0,11.550000190734863,11.960000038146973,11.960000038146973,767100
2020-10-15,11.890000343322754,12.449999809265137,11.84000015258789,12.229999542236328,12.229999542236328,893600
2020-10-16,12.399999618530273,12.890000343322754,12.399999618530273,12.739999771118164,12.739999771118164,1284300
2020-10-19,12.899999618530273,12.90999984741211,12.630000114440918,12.899999618530273,12.899999618530273,623400
2020-10-20,12.890000343322754,12.890000343322754,12.609999656677246,12.75,12.75,381200
2020-10-21,12.779999732971191,12.779999732971191,11.5,11.539999961853027,11.539999961853027,1182500
2020-10-22,11.470000267028809,11.670000076293945,10.899999618530273,11.479999542236328,11.479999542236328,932200
2020-10-23,11.350000381469727,11.489999771118164,10.899999618530273,11.0,11.0,534800
2020-10-26,10.970000267028809,11.229999542236328,10.350000381469727,10.600000381469727,10.600000381469727,298400
2020-10-27,10.609999656677246,10.885000228881836,10.350000381469727,10.600000381469727,10.600000381469727,191000
2020-10-28,10.5,10.75,10.329999923706055,10.529999732971191,10.529999732971191,203300
2020-10-29,10.449999809265137,10.520000457763672,10.15999984741211,10.260000228881836,10.260000228881836,1129500
2020-10-30,10.15999984741211,10.520000457763672,10.15999984741211,10.300000190734863,10.300000190734863,333300
2020-11-02,10.369999885559082,10.369999885559082,10.170000076293945,10.170000076293945,10.170000076293945,464100
2020-11-03,10.170000076293945,10.25,10.170000076293945,10.170000076293945,10.170000076293945,686900
2020-11-04,10.180000305175781,10.350000381469727,10.170000076293945,10.220000267028809,10.220000267028809,1344600
2020-11-05,10.300000190734863,10.609999656677246,10.180000305175781,10.199999809265137,10.199999809265137,2061800
2020-11-06,10.199999809265137,10.4399995803833,10.119999885559082,10.279999732971191,10.279999732971191,1039900
2020-11-09,10.489999771118164,10.760000228881836,10.279999732971191,10.5,10.5,463500
2020-11-10,10.5,11.470000267028809,10.430000305175781,11.399999618530273,11.399999618530273,1040800
2020-11-11,11.869999885559082,12.350000381469727,11.5,12.149999618530273,12.149999618530273,1144000
2020-11-12,12.170000076293945,12.369999885559082,11.829999923706055,12.25,12.25,728000
2020-11-13,12.350000381469727,12.350000381469727,11.989999771118164,12.050000190734863,12.050000190734863,790900
2020-11-16,11.960000038146973,12.1899995803833,11.609999656677246,11.9399995803833,11.9399995803833,501000
2020-11-17,11.609999656677246,12.149999618530273,11.52400016784668,12.039999961853027,12.039999961853027,480100
2020-11-18,11.979999542236328,12.369999885559082,11.854000091552734,12.25,12.25,427200
2020-11-19,12.289999961853027,12.300000190734863,11.9399995803833,12.15999984741211,12.15999984741211,487200
2020-11-20,12.229999542236328,12.229999542236328,11.913000106811523,12.050000190734863,12.050000190734863,171400
2020-11-23,12.0,12.109999656677246,11.670000076293945,11.800000190734863,11.800000190734863,316800
2020-11-24,11.899999618530273,12.119999885559082,11.600000381469727,11.710000038146973,11.710000038146973,414900
2020-11-25,11.739999771118164,12.149999618530273,11.579999923706055,11.859999656677246,11.859999656677246,1034200
2020-11-27,11.899999618530273,12.0,11.779999732971191,11.949999809265137,11.949999809265137,131100
2020-11-30,12.0,12.050000190734863,11.6899995803833,11.90999984741211,11.90999984741211,931000
2020-12-01,12.050000190734863,12.550000190734863,12.0,12.3100004196167,12.3100004196167,1003400
2020-12-02,12.300000190734863,12.720000267028809,12.199999809265137,12.380000114440918,12.380000114440918,545900
2020-12-03,12.380000114440918,12.670000076293945,12.25,12.420000076293945,12.420000076293945,249200
2020-12-04,12.907999992370605,14.460000038146973,12.6899995803833,14.420000076293945,14.420000076293945,2060200
2020-12-07,14.0,14.390000343322754,13.829999923706055,14.050000190734863,14.050000190734863,775200
2020-12-08,13.989999771118164,14.020000457763672,13.300000190734863,13.75,13.75,795200
2020-12-09,13.4399995803833,13.626999855041504,12.760000228881836,13.180000305175781,13.180000305175781,780800
2020-12-10,13.100000381469727,13.359999656677246,12.779999732971191,13.0,13.0,357000
2020-12-11,13.0,13.130000114440918,12.520000457763672,12.710000038146973,12.710000038146973,563600
2020-12-14,13.0,13.199999809265137,12.510000228881836,12.649999618530273,12.649999618530273,625100
2020-12-15,12.670000076293945,12.960000038146973,12.420000076293945,12.550000190734863,12.550000190734863,498500
2020-12-16,13.75,15.170000076293945,13.15999984741211,13.199999809265137,13.199999809265137,3827600
2020-12-17,8.979999542236328,9.399999618530273,7.699999809265137,9.09000015258789,9.09000015258789,23082900
2020-12-18,8.850000381469727,8.890000343322754,8.050000190734863,8.449999809265137,8.449999809265137,5645400
2020-12-21,9.270000457763672,10.149999618530273,8.869999885559082,9.890000343322754,9.890000343322754,5413900
2020-12-22,11.069999694824219,11.479999542236328,10.010000228881836,10.329999923706055,10.329999923706055,6312500
2020-12-23,11.25,12.75,10.8100004196167,12.0600004196167,12.0600004196167,3650000
2020-12-24,14.289999961853027,15.449999809265137,13.670000076293945,14.350000381469727,14.350000381469727,4989000
2020-12-28,15.133000373840332,15.300000190734863,13.5,14.720000267028809,14.720000267028809,2020600
2020-12-29,14.09000015258789,14.09000015258789,11.40999984741211,12.630000114440918,12.630000114440918,3785700
2020-12-30,12.739999771118164,12.899999618530273,11.520000457763672,11.920000076293945,11.920000076293945,2308600
