Date,Open,High,Low,Close,Adj Close,Volume
2019-05-31,25.850000381469727,25.97800064086914,25.719999313354492,25.75,22.575260162353516,42700
2019-06-03,25.799999237060547,25.799999237060547,25.540000915527344,25.690000534057617,22.522661209106445,34600
2019-06-04,25.709999084472656,25.84000015258789,25.700000762939453,25.700000762939453,22.53142738342285,50600
2019-06-05,25.700000762939453,25.829999923706055,25.700000762939453,25.738000869750977,22.564743041992188,39600
2019-06-06,25.8700008392334,25.8700008392334,25.6200008392334,25.700000762939453,22.53142738342285,27000
2019-06-07,25.777000427246094,25.84000015258789,25.691999435424805,25.75,22.575260162353516,25800
2019-06-10,25.799999237060547,25.8700008392334,25.690000534057617,25.704999923706055,22.535808563232422,26900
2019-06-11,25.68000030517578,25.80500030517578,25.600000381469727,25.68000030517578,22.513893127441406,24700
2019-06-12,25.739999771118164,25.760000228881836,25.670000076293945,25.760000228881836,22.584028244018555,18200
2019-06-13,25.670000076293945,25.856000900268555,25.660999298095703,25.749000549316406,22.70305824279785,29600
2019-06-14,25.83799934387207,25.83799934387207,25.700000762939453,25.764999389648438,22.717166900634766,36300
2019-06-17,25.81999969482422,26.100000381469727,25.739999771118164,25.860000610351562,22.80093002319336,34000
2019-06-18,25.790000915527344,27.780000686645508,25.790000915527344,25.81999969482422,22.765657424926758,27100
2019-06-19,25.979999542236328,25.979999542236328,25.81999969482422,25.889999389648438,22.82737922668457,27500
2019-06-20,26.010000228881836,26.010000228881836,25.790000915527344,25.940000534057617,22.87146759033203,45600
2019-06-21,25.899999618530273,26.0,25.850000381469727,25.900999069213867,22.837078094482422,16700
2019-06-24,25.899999618530273,25.989999771118164,25.549999237060547,25.6200008392334,22.589317321777344,49200
2019-06-25,25.700000762939453,25.760000228881836,25.559999465942383,25.639999389648438,22.60695457458496,41100
2019-06-26,25.649999618530273,25.708999633789062,25.559999465942383,25.690000534057617,22.65104103088379,12100
2019-06-27,25.690000534057617,25.790000915527344,25.643999099731445,25.643999099731445,22.6104793548584,24300
2019-06-28,25.715999603271484,25.760000228881836,25.68600082397461,25.739999771118164,22.695125579833984,11800
2019-07-01,25.75200080871582,25.920000076293945,25.7189998626709,25.889999389648438,22.82737922668457,9700
2019-07-02,25.8799991607666,25.950000762939453,25.850000381469727,25.950000762939453,22.88028335571289,9500
2019-07-03,25.950000762939453,25.950000762939453,25.801000595092773,25.940000534057617,22.87146759033203,8800
2019-07-05,25.947999954223633,25.950000762939453,25.774999618530273,25.950000762939453,22.88028335571289,5600
2019-07-08,25.888999938964844,26.0,25.850000381469727,26.0,22.924367904663086,9800
2019-07-09,26.020000457763672,26.020000457763672,25.961000442504883,26.020000457763672,22.942001342773438,5300
2019-07-10,26.020000457763672,26.100000381469727,25.90999984741211,26.010000228881836,22.933185577392578,27300
2019-07-11,26.0,26.09000015258789,25.950000762939453,26.08300018310547,22.99755096435547,8800
2019-07-12,26.045000076293945,26.1200008392334,26.0,26.075000762939453,22.990497589111328,16200
2019-07-15,25.996999740600586,26.020000457763672,25.950000762939453,25.950000762939453,22.88028335571289,4600
2019-07-16,26.059999465942383,26.18000030517578,25.950000762939453,26.035999298095703,22.95610809326172,14900
2019-07-17,26.0,26.1299991607666,25.969999313354492,25.969999313354492,22.89791488647461,8800
2019-07-18,26.066999435424805,26.104999542236328,25.950000762939453,26.100000381469727,23.01253890991211,10000
2019-07-19,26.100000381469727,26.1200008392334,25.950000762939453,26.077999114990234,22.993139266967773,11000
2019-07-22,26.049999237060547,26.100000381469727,26.0,26.049999237060547,22.96845245361328,8600
2019-07-23,26.100000381469727,26.15999984741211,26.010000228881836,26.100000381469727,23.01253890991211,24300
2019-07-24,26.110000610351562,26.139999389648438,26.0,26.0,22.924367904663086,14700
2019-07-25,26.09000015258789,26.229999542236328,26.0,26.010000228881836,22.933185577392578,13300
2019-07-26,26.100000381469727,26.239999771118164,26.011999130249023,26.179000854492188,23.08219337463379,5700
2019-07-29,26.191999435424805,26.219999313354492,26.049999237060547,26.14699935913086,23.053977966308594,9000
2019-07-30,26.152000427246094,26.239999771118164,26.059999465942383,26.100000381469727,23.01253890991211,8000
2019-07-31,26.079999923706055,26.23900032043457,26.049999237060547,26.049999237060547,22.96845245361328,12700
2019-08-01,26.34000015258789,26.34000015258789,25.989999771118164,26.270000457763672,23.162429809570312,19800
2019-08-02,26.100000381469727,26.260000228881836,26.100000381469727,26.260000228881836,23.153610229492188,3900
2019-08-05,26.260000228881836,26.260000228881836,26.04199981689453,26.059999465942383,22.977270126342773,8100
2019-08-06,26.100000381469727,26.309999465942383,26.0,26.309999465942383,23.197694778442383,12100
2019-08-07,26.347000122070312,26.350000381469727,26.274999618530273,26.350000381469727,23.232969284057617,5000
2019-08-08,26.235000610351562,26.288999557495117,26.18199920654297,26.216999053955078,23.115697860717773,2000
2019-08-09,26.270999908447266,27.200000762939453,26.270999908447266,26.450000762939453,23.321134567260742,23900
2019-08-12,26.549999237060547,26.549999237060547,26.36199951171875,26.520000457763672,23.382856369018555,6100
2019-08-13,26.3700008392334,26.5,26.3700008392334,26.5,23.365219116210938,3700
2019-08-14,26.759000778198242,26.86400032043457,26.625,26.799999237060547,23.62973403930664,7600
2019-08-15,26.650999069213867,26.775999069213867,26.650999069213867,26.701000213623047,23.542444229125977,800
2019-08-16,26.780000686645508,26.81800079345703,26.780000686645508,26.81800079345703,23.64560317993164,1300
2019-08-19,26.850000381469727,27.3799991607666,26.733999252319336,27.360000610351562,24.123489379882812,2300
2019-08-20,27.329999923706055,27.360000610351562,27.0,27.34000015258789,24.105854034423828,6200
2019-08-21,26.899999618530273,27.399999618530273,26.899999618530273,27.34600067138672,24.11114501953125,3500
2019-08-22,27.360000610351562,27.360000610351562,26.899999618530273,26.899999618530273,23.71790313720703,4200
2019-08-23,27.1299991607666,27.299999237060547,27.1299991607666,27.299999237060547,24.07058334350586,1000
2019-08-26,27.110000610351562,27.200000762939453,26.18000030517578,26.299999237060547,23.188879013061523,21300
2019-08-27,26.399999618530273,27.0,26.399999618530273,26.52199935913086,23.384618759155273,5300
2019-08-28,26.399999618530273,26.790000915527344,26.399999618530273,26.719999313354492,23.559194564819336,4400
2019-08-29,26.770000457763672,26.871000289916992,26.540000915527344,26.774999618530273,23.607688903808594,10900
2019-08-30,26.450000762939453,26.850000381469727,26.450000762939453,26.545000076293945,23.404895782470703,8500
2019-09-03,26.549999237060547,26.691999435424805,26.420000076293945,26.552000045776367,23.411069869995117,4900
2019-09-04,26.559999465942383,27.239999771118164,26.559999465942383,27.200000762939453,23.98241424560547,23700
2019-09-05,26.649999618530273,26.857999801635742,26.649999618530273,26.75,23.58564567565918,5800
2019-09-06,26.68000030517578,27.190000534057617,26.68000030517578,26.899999618530273,23.71790313720703,2900
2019-09-09,27.069000244140625,27.069000244140625,26.924999237060547,26.989999771118164,23.797256469726562,2100
2019-09-10,26.75,27.049999237060547,26.700000762939453,26.74799919128418,23.58388328552246,16700
2019-09-11,26.701000213623047,26.886999130249023,26.701000213623047,26.867000579833984,23.688806533813477,1500
2019-09-12,26.59000015258789,26.59000015258789,26.400999069213867,26.503000259399414,23.719236373901367,2000
2019-09-13,26.200000762939453,26.277999877929688,26.10099983215332,26.277999877929688,23.51786994934082,4600
2019-09-16,26.520000457763672,26.530000686645508,26.25,26.25,23.492809295654297,6200
2019-09-17,26.360000610351562,26.639999389648438,26.360000610351562,26.639999389648438,23.84184455871582,4000
2019-09-18,26.5,26.599000930786133,26.399999618530273,26.524999618530273,23.738924026489258,7900
2019-09-19,26.450000762939453,26.610000610351562,26.350000381469727,26.600000381469727,23.806049346923828,3400
2019-09-20,26.549999237060547,26.690000534057617,26.5,26.690000534057617,23.886594772338867,3100
2019-09-23,26.690000534057617,26.690000534057617,26.54800033569336,26.54800033569336,23.759510040283203,3200
2019-09-24,26.469999313354492,26.684999465942383,26.469999313354492,26.56999969482422,23.779197692871094,6400
2019-09-25,26.666000366210938,26.690000534057617,26.540000915527344,26.687999725341797,23.88480567932129,4800
2019-09-26,26.690000534057617,26.690000534057617,26.60300064086914,26.60300064086914,23.808732986450195,900
2019-09-27,26.690000534057617,26.700000762939453,26.690000534057617,26.700000762939453,23.895545959472656,1200
2019-09-30,26.700000762939453,26.700000762939453,26.260000228881836,26.700000762939453,23.895545959472656,5200
2019-10-01,26.600000381469727,26.899999618530273,26.540000915527344,26.899999618530273,24.074535369873047,39400
2019-10-02,26.75,26.899999618530273,26.600000381469727,26.75,23.940288543701172,9300
2019-10-03,26.75,26.899999618530273,26.75,26.75,23.940288543701172,5400
2019-10-04,26.899999618530273,27.139999389648438,26.700000762939453,27.139999389648438,24.289329528808594,13900
2019-10-07,27.020000457763672,27.149999618530273,26.739999771118164,26.863000869750977,24.041425704956055,18200
2019-10-08,26.520000457763672,26.989999771118164,26.520000457763672,26.854999542236328,24.034263610839844,6300
2019-10-09,26.899999618530273,26.97599983215332,26.719999313354492,26.940000534057617,24.110336303710938,4000
2019-10-10,26.969999313354492,26.979999542236328,26.719999313354492,26.75,23.940288543701172,9600
2019-10-11,26.719999313354492,26.950000762939453,26.719999313354492,26.849000930786133,24.02889633178711,1900
2019-10-14,26.889999389648438,26.889999389648438,26.3700008392334,26.790000915527344,23.976093292236328,5700
2019-10-15,26.809999465942383,27.18000030517578,26.809999465942383,27.15999984741211,24.30722427368164,5400
2019-10-16,27.15999984741211,27.15999984741211,26.642000198364258,26.642000198364258,23.843637466430664,1500
2019-10-17,26.75,26.75,26.483999252319336,26.60099983215332,23.806941986083984,1000
2019-10-18,26.75,26.75,26.5,26.642000198364258,23.843637466430664,2000
2019-10-21,26.729999542236328,26.768999099731445,26.700000762939453,26.700000762939453,23.895545959472656,3900
2019-10-22,26.989999771118164,26.989999771118164,26.700000762939453,26.700000762939453,23.895545959472656,7100
2019-10-23,26.982999801635742,27.10700035095215,26.549999237060547,26.75,23.940288543701172,1300
2019-10-24,26.90999984741211,27.010000228881836,26.600000381469727,26.600000381469727,23.806049346923828,8100
2019-10-25,26.90999984741211,26.90999984741211,26.90999984741211,26.90999984741211,24.083486557006836,200
2019-10-28,26.770000457763672,26.770000457763672,26.610000610351562,26.68000030517578,23.877647399902344,17800
2019-10-29,26.700000762939453,26.709999084472656,26.600000381469727,26.702999114990234,23.89822769165039,6600
2019-10-30,26.67799949645996,26.89699935913086,26.600000381469727,26.719999313354492,23.913442611694336,3700
2019-10-31,26.860000610351562,26.940000534057617,26.634000778198242,26.940000534057617,24.110336303710938,2500
2019-11-01,27.09000015258789,27.09000015258789,26.875,26.875,24.052162170410156,2200
2019-11-04,27.079999923706055,27.09000015258789,26.649999618530273,27.09000015258789,24.244579315185547,8300
2019-11-05,26.579999923706055,26.979999542236328,26.579999923706055,26.959999084472656,24.128231048583984,8400
2019-11-06,26.959999084472656,26.959999084472656,26.959999084472656,26.959999084472656,24.128231048583984,200
2019-11-07,27.079999923706055,27.079999923706055,26.6299991607666,26.899999618530273,24.074535369873047,12200
2019-11-08,26.709999084472656,26.709999084472656,26.709999084472656,26.709999084472656,23.90449333190918,400
2019-11-11,26.989999771118164,26.989999771118164,26.891000747680664,26.891000747680664,24.066484451293945,600
2019-11-12,26.969999313354492,26.989999771118164,26.729000091552734,26.893999099731445,24.06916618347168,1700
2019-11-13,26.884000778198242,26.98699951171875,26.884000778198242,26.924999237060547,24.096908569335938,1500
2019-11-14,26.729000091552734,26.729000091552734,26.729000091552734,26.729000091552734,23.921499252319336,700
2019-11-15,26.959999084472656,26.959999084472656,26.700000762939453,26.902999877929688,24.077220916748047,1800
2019-11-18,26.95199966430664,26.989999771118164,26.829999923706055,26.920000076293945,24.092435836791992,2900
2019-11-19,26.989999771118164,26.989999771118164,26.867000579833984,26.867000579833984,24.045000076293945,2100
2019-11-20,26.981000900268555,26.990999221801758,26.80699920654297,26.82200050354004,24.004730224609375,3400
2019-11-21,27.010000228881836,27.030000686645508,26.875,26.875,24.052162170410156,1700
2019-11-22,26.68899917602539,26.719999313354492,26.670000076293945,26.68000030517578,23.877647399902344,6400
2019-11-25,26.790000915527344,26.989999771118164,26.670000076293945,26.68000030517578,23.877647399902344,6800
2019-11-26,26.829999923706055,26.989999771118164,26.670000076293945,26.68000030517578,23.877647399902344,5100
2019-11-27,26.59000015258789,26.908000946044922,26.59000015258789,26.760000228881836,23.949243545532227,7500
2019-11-29,26.59000015258789,26.927000045776367,26.59000015258789,26.860000610351562,24.038738250732422,5900
2019-12-02,26.59000015258789,26.628999710083008,26.59000015258789,26.628999710083008,23.832000732421875,3500
2019-12-03,26.56599998474121,26.766000747680664,26.56599998474121,26.739999771118164,23.93134117126465,1600
2019-12-04,26.700000762939453,26.950000762939453,26.700000762939453,26.950000762939453,24.119285583496094,2200
2019-12-05,26.7189998626709,26.75,26.600000381469727,26.649999618530273,23.85079574584961,3500
2019-12-06,26.701000213623047,26.850000381469727,26.584999084472656,26.850000381469727,24.0297908782959,4700
2019-12-09,26.60300064086914,26.815000534057617,26.60300064086914,26.68000030517578,23.877647399902344,5200
2019-12-10,26.799999237060547,26.799999237060547,26.7810001373291,26.7810001373291,23.968036651611328,700
2019-12-11,26.719999313354492,26.81599998474121,26.610000610351562,26.6299991607666,23.832895278930664,3000
2019-12-12,26.6299991607666,26.770000457763672,26.6299991607666,26.715999603271484,23.909862518310547,800
2019-12-13,26.600000381469727,26.70199966430664,26.579999923706055,26.631000518798828,23.833791732788086,8800
2019-12-16,26.65999984741211,26.65999984741211,26.6200008392334,26.65999984741211,23.859743118286133,1700
2019-12-17,26.399999618530273,26.520000457763672,26.299999237060547,26.399999618530273,23.98512077331543,13200
2019-12-18,26.34000015258789,26.5,26.34000015258789,26.452999114990234,24.033273696899414,7600
2019-12-19,26.488000869750977,26.488000869750977,26.3700008392334,26.479999542236328,24.05780601501465,3800
2019-12-20,26.34000015258789,26.45599937438965,26.34000015258789,26.451000213623047,24.031457901000977,1700
2019-12-23,26.360000610351562,26.549999237060547,26.360000610351562,26.3799991607666,23.966951370239258,4600
2019-12-24,26.371999740600586,26.770000457763672,26.371999740600586,26.770000457763672,24.321279525756836,7500
2019-12-26,26.889999389648438,26.889999389648438,26.889999389648438,26.889999389648438,24.430299758911133,1400
2019-12-27,26.761999130249023,26.889999389648438,26.698999404907227,26.889999389648438,24.430299758911133,3700
2019-12-30,27.139999389648438,27.139999389648438,26.700000762939453,27.1299991607666,24.648347854614258,2000
2019-12-31,26.899999618530273,26.899999618530273,26.600000381469727,26.868000030517578,24.410314559936523,3000
2020-01-02,26.799999237060547,26.899999618530273,26.700000762939453,26.899999618530273,24.43938446044922,2000
2020-01-03,27.139999389648438,27.139999389648438,26.81999969482422,27.030000686645508,24.5574951171875,6000
2020-01-06,26.979999542236328,26.979999542236328,26.979999542236328,26.979999542236328,24.512069702148438,500
2020-01-07,26.850000381469727,26.850000381469727,26.600000381469727,26.812999725341797,24.3603458404541,5200
2020-01-08,26.670000076293945,26.950000762939453,26.649999618530273,26.649999618530273,24.21225357055664,5200
2020-01-09,26.68000030517578,26.799999237060547,26.68000030517578,26.700000762939453,24.25768280029297,1900
2020-01-10,26.700000762939453,26.75,26.649999618530273,26.75,24.3031063079834,1200
2020-01-13,26.75,26.950000762939453,26.700000762939453,26.700000762939453,24.25768280029297,2300
2020-01-14,26.75,26.913999557495117,26.729999542236328,26.75,24.3031063079834,3100
2020-01-15,26.700000762939453,26.957000732421875,26.65999984741211,26.905000686645508,24.443931579589844,2500
2020-01-16,26.649999618530273,26.90999984741211,26.649999618530273,26.73699951171875,24.29129409790039,4700
2020-01-17,26.90999984741211,26.90999984741211,26.649999618530273,26.75,24.3031063079834,2000
2020-01-21,26.850000381469727,26.90999984741211,26.5,26.600000381469727,24.16683006286621,12000
2020-01-22,26.85700035095215,26.85700035095215,26.540000915527344,26.799999237060547,24.348533630371094,2900
2020-01-23,27.0,27.149999618530273,26.75,26.940000534057617,24.475727081298828,3200
2020-01-24,26.649999618530273,27.149999618530273,26.579999923706055,26.858999252319336,24.402135848999023,10000
2020-01-27,26.649999618530273,26.889999389648438,26.520000457763672,26.719999313354492,24.27585220336914,3500
2020-01-28,26.84000015258789,26.84000015258789,26.5,26.649999618530273,24.21225357055664,8000
2020-01-29,26.559999465942383,26.649999618530273,26.549999237060547,26.649999618530273,24.21225357055664,2600
2020-01-30,26.700000762939453,26.700000762939453,26.600000381469727,26.600000381469727,24.16683006286621,5100
2020-01-31,26.700000762939453,26.799999237060547,26.589000701904297,26.799999237060547,24.348533630371094,1200
2020-02-03,26.722999572753906,26.722999572753906,26.559999465942383,26.719999313354492,24.27585220336914,3300
2020-02-04,26.649999618530273,26.700000762939453,26.53700065612793,26.65999984741211,24.221338272094727,9400
2020-02-05,26.600000381469727,26.700000762939453,26.549999237060547,26.600000381469727,24.16683006286621,6100
2020-02-06,26.600000381469727,26.600000381469727,26.459999084472656,26.5,24.07597541809082,15000
2020-02-07,26.700000762939453,26.770000457763672,26.420000076293945,26.5,24.07597541809082,17200
2020-02-10,26.5,26.770000457763672,26.5,26.739999771118164,24.294021606445312,8500
2020-02-11,26.739999771118164,26.75,26.660999298095703,26.75,24.3031063079834,6100
2020-02-12,26.729999542236328,26.889999389648438,26.520000457763672,26.850000381469727,24.39396095275879,11700
2020-02-13,27.040000915527344,27.049999237060547,26.86199951171875,26.996000289916992,24.526607513427734,2700
2020-02-14,27.049999237060547,27.113000869750977,26.809999465942383,27.0,24.53023910522461,8600
2020-02-18,26.73900032043457,26.73900032043457,26.73900032043457,26.73900032043457,24.29311180114746,1000
2020-02-19,26.729999542236328,27.049999237060547,26.729999542236328,26.989999771118164,24.521154403686523,5100
2020-02-20,26.639999389648438,27.0,26.639999389648438,26.900999069213867,24.440296173095703,7100
2020-02-21,26.799999237060547,26.8700008392334,26.700000762939453,26.700000762939453,24.25768280029297,8600
2020-02-24,26.440000534057617,26.5,26.0,26.5,24.07597541809082,17300
2020-02-25,26.6299991607666,26.690000534057617,26.329999923706055,26.5,24.07597541809082,9400
2020-02-26,26.420000076293945,26.649999618530273,26.420000076293945,26.649999618530273,24.21225357055664,1200
2020-02-27,26.649999618530273,27.280000686645508,26.299999237060547,27.083999633789062,24.606557846069336,46400
2020-02-28,27.0,28.635000228881836,25.600000381469727,26.93000030517578,24.466642379760742,24100
2020-03-02,26.797000885009766,29.46299934387207,26.479999542236328,26.479999542236328,24.05780601501465,13500
2020-03-03,26.860000610351562,27.05299949645996,26.6200008392334,26.649999618530273,24.21225357055664,2500
2020-03-04,28.799999237060547,28.799999237060547,26.690000534057617,26.709999084472656,24.266765594482422,5100
2020-03-05,28.440000534057617,28.440000534057617,26.6200008392334,26.6200008392334,24.184999465942383,8300
2020-03-06,27.100000381469727,27.100000381469727,26.79599952697754,26.851999282836914,24.395776748657227,2400
2020-03-09,26.0,26.0,25.0,25.5,23.167448043823242,5200
2020-03-10,25.274999618530273,26.0,25.110000610351562,25.700000762939453,23.349157333374023,5300
2020-03-11,25.639999389648438,26.25,24.940000534057617,26.25,23.84884262084961,5600
2020-03-12,26.100000381469727,26.100000381469727,23.0,23.5,21.35039520263672,5500
2020-03-13,25.850000381469727,25.850000381469727,24.06999969482422,25.850000381469727,23.48543357849121,1800
2020-03-16,21.0,25.600000381469727,21.0,25.600000381469727,23.258302688598633,3300
2020-03-17,25.0,25.0,19.290000915527344,22.389999389648438,20.66317367553711,27000
2020-03-18,20.440000534057617,21.3700008392334,12.0,19.06999969482422,17.599231719970703,6300
2020-03-19,18.5,20.01799964904785,16.889999389648438,19.0,17.534629821777344,6700
2020-03-20,17.75,19.0,17.0,18.3700008392334,16.953218460083008,6700
2020-03-23,17.0,17.017000198364258,12.260000228881836,12.260000228881836,11.31445026397705,8400
2020-03-24,12.539999961853027,18.0,12.539999961853027,16.5,15.227441787719727,12100
2020-03-25,15.029000282287598,21.700000762939453,15.029000282287598,15.699999809265137,14.489140510559082,32600
2020-03-26,16.0,19.5,15.0600004196167,19.5,17.99606704711914,18300
2020-03-27,17.93400001525879,22.0,17.93400001525879,20.700000762939453,19.103517532348633,12700
2020-03-30,21.84000015258789,21.84000015258789,19.5,19.829999923706055,18.300615310668945,9500
2020-03-31,19.700000762939453,20.25,18.610000610351562,19.399999618530273,17.903778076171875,21600
2020-04-01,17.6299991607666,20.770000457763672,17.6299991607666,18.25,16.842472076416016,5100
2020-04-02,17.049999237060547,17.483999252319336,16.75,17.100000381469727,15.781166076660156,14300
2020-04-03,17.0,17.8799991607666,16.75,17.760000228881836,16.390262603759766,1800
2020-04-06,17.54199981689453,18.2189998626709,16.989999771118164,17.110000610351562,15.790393829345703,8900
2020-04-07,17.280000686645508,17.93000030517578,16.25,16.5,15.227441787719727,35800
2020-04-08,16.540000915527344,18.920000076293945,16.540000915527344,18.760000228881836,17.31313705444336,7500
2020-04-09,18.969999313354492,20.5,18.969999313354492,20.5,18.918941497802734,19400
2020-04-13,20.5,20.764999389648438,20.5,20.5,18.918941497802734,5400
2020-04-14,20.899999618530273,22.5,20.899999618530273,21.950000762939453,20.257112503051758,10700
2020-04-15,20.5,21.29800033569336,20.149999618530273,21.209999084472656,19.574182510375977,6100
2020-04-16,21.299999237060547,21.799999237060547,21.299999237060547,21.799999237060547,20.118677139282227,900
2020-04-17,20.850000381469727,21.972000122070312,20.850000381469727,21.75200080871582,20.074382781982422,3600
2020-04-20,21.899999618530273,22.0,21.5,21.799999237060547,20.118677139282227,6100
2020-04-21,21.799999237060547,22.450000762939453,21.299999237060547,21.299999237060547,19.65723991394043,4200
2020-04-22,21.22599983215332,21.739999771118164,20.773000717163086,21.739999771118164,20.06330680847168,4500
2020-04-23,21.5,22.100000381469727,21.25,21.5,19.841815948486328,12000
2020-04-24,21.950000762939453,22.5,21.950000762939453,22.39299964904785,20.665945053100586,1800
2020-04-27,22.5,22.979999542236328,21.950000762939453,21.950000762939453,20.257112503051758,6800
2020-04-28,23.0,23.0,20.8799991607666,21.270000457763672,19.62955665588379,24200
2020-04-29,22.0,22.399999618530273,20.360000610351562,20.8700008392334,19.260406494140625,35400
2020-04-30,20.8700008392334,21.399999618530273,20.8700008392334,21.280000686645508,19.63878631591797,11900
2020-05-01,21.270000457763672,21.777999877929688,21.100000381469727,21.350000381469727,19.703386306762695,6800
2020-05-04,21.325000762939453,22.0,21.325000762939453,21.71500015258789,20.04023551940918,3800
2020-05-05,21.509000778198242,22.29599952697754,21.5,21.815000534057617,20.132522583007812,18000
2020-05-06,22.0,22.200000762939453,21.799999237060547,21.959999084472656,20.266340255737305,4100
2020-05-07,21.898000717163086,22.2450008392334,21.770000457763672,22.000999450683594,20.304176330566406,3900
2020-05-08,21.959999084472656,22.489999771118164,21.959999084472656,22.489999771118164,20.755464553833008,3800
2020-05-11,22.479999542236328,22.75,22.07699966430664,22.399999618530273,20.67240333557129,10400
2020-05-12,22.440000534057617,22.67799949645996,22.200000762939453,22.5,20.764692306518555,9600
2020-05-13,22.610000610351562,22.985000610351562,21.399999618530273,21.450000762939453,19.795673370361328,15500
2020-05-14,21.5,22.329999923706055,21.5,21.5,19.841815948486328,2500
2020-05-15,22.0,22.0,21.25,21.25,19.61109733581543,5500
2020-05-18,21.170000076293945,21.732999801635742,21.170000076293945,21.732999801635742,20.05684471130371,2100
2020-05-19,21.729999542236328,21.899999618530273,21.10099983215332,21.389999389648438,19.740299224853516,24700
2020-05-20,21.729999542236328,22.09000015258789,21.305999755859375,21.7549991607666,20.0771484375,11600
2020-05-21,21.805999755859375,21.92799949645996,21.700000762939453,21.87299919128418,20.18604850769043,6100
2020-05-22,22.040000915527344,22.040000915527344,21.93000030517578,21.975000381469727,20.280179977416992,4200
2020-05-26,22.040000915527344,22.64699935913086,22.040000915527344,22.586999893188477,20.844980239868164,2000
2020-05-27,22.75,22.950000762939453,22.257999420166016,22.309999465942383,20.589345932006836,12600
2020-05-28,22.899999618530273,22.899999618530273,22.75,22.75,20.99540901184082,14700
2020-05-29,22.989999771118164,23.0,22.309999465942383,22.75,20.99540901184082,23300
2020-06-01,22.93000030517578,23.2450008392334,22.913000106811523,23.239999771118164,21.44761848449707,17900
2020-06-02,23.0,23.0,22.649999618530273,22.649999618530273,20.903121948242188,12100
2020-06-03,23.0,23.69300079345703,22.72599983215332,23.549999237060547,21.73370933532715,10300
2020-06-04,23.600000381469727,24.0939998626709,23.549999237060547,24.0939998626709,22.235755920410156,5400
2020-06-05,24.729999542236328,24.729999542236328,23.802000045776367,23.950000762939453,22.102863311767578,5300
2020-06-08,23.979999542236328,24.049999237060547,23.261999130249023,24.049999237060547,22.195146560668945,6500
2020-06-09,24.5,24.5,23.5,24.020000457763672,22.167463302612305,2600
2020-06-10,24.09000015258789,24.5,24.020000457763672,24.020000457763672,22.167463302612305,5800
2020-06-11,24.010000228881836,24.010000228881836,23.579999923706055,23.75,21.918285369873047,6700
2020-06-12,23.75,23.75,23.200000762939453,23.386999130249023,21.95113754272461,5800
2020-06-15,23.18000030517578,23.440000534057617,23.100000381469727,23.399999618530273,21.963336944580078,3200
2020-06-16,23.1299991607666,23.5,23.110000610351562,23.399999618530273,21.963336944580078,3400
2020-06-17,22.649999618530273,23.28499984741211,22.649999618530273,23.0,21.5878963470459,5000
2020-06-18,23.0,23.5,23.0,23.299999237060547,21.869476318359375,7200
2020-06-19,23.399999618530273,23.40999984741211,23.299999237060547,23.351999282836914,21.918285369873047,3800
2020-06-22,23.69700050354004,23.69700050354004,22.975000381469727,22.975000381469727,21.564434051513672,5200
2020-06-23,23.440000534057617,23.8799991607666,23.440000534057617,23.850000381469727,22.385711669921875,2700
2020-06-24,23.820999145507812,23.820999145507812,23.049999237060547,23.600000381469727,22.151060104370117,8000
2020-06-25,23.600000381469727,23.600000381469727,23.020000457763672,23.200000762939453,21.775619506835938,2800
2020-06-26,23.25,23.267000198364258,23.25,23.2549991607666,21.827241897583008,1900
2020-06-29,23.59000015258789,23.59000015258789,23.0,23.0,21.5878963470459,2800
2020-06-30,23.299999237060547,23.299999237060547,22.959999084472656,22.979999542236328,21.56912612915039,2900
2020-07-01,22.549999237060547,23.024999618530273,22.549999237060547,22.579999923706055,21.193683624267578,1600
2020-07-02,23.5,23.5,23.389999389648438,23.389999389648438,21.95395278930664,400
2020-07-06,23.5,23.93000030517578,23.25,23.93000030517578,22.460800170898438,2100
2020-07-07,23.899999618530273,23.93000030517578,22.75,22.75,21.353246688842773,7700
2020-07-08,23.483999252319336,23.483999252319336,22.149999618530273,22.492000579833984,21.111087799072266,3900
2020-07-09,22.40999984741211,22.700000762939453,22.260000228881836,22.350000381469727,20.97780418395996,5700
2020-07-10,22.5,22.63599967956543,22.299999237060547,22.63599967956543,21.246244430541992,4900
2020-07-13,21.59000015258789,22.517000198364258,21.59000015258789,22.482999801635742,21.102638244628906,10300
2020-07-14,22.399999618530273,22.399999618530273,21.839000701904297,21.839000701904297,20.49817657470703,2900
2020-07-15,21.799999237060547,22.0,21.260000228881836,21.649999618530273,20.320781707763672,18000
2020-07-16,21.499000549316406,21.899999618530273,21.30500030517578,21.43000030517578,20.114290237426758,22500
2020-07-17,21.57900047302246,21.770000457763672,20.719999313354492,21.25,19.94533920288086,6700
2020-07-20,21.25,21.3700008392334,21.25,21.299999237060547,19.99226951599121,2400
2020-07-21,21.469999313354492,21.5,21.25,21.43600082397461,20.11992073059082,11600
2020-07-22,21.5,21.600000381469727,21.31999969482422,21.600000381469727,20.27385139465332,3300
2020-07-23,21.719999313354492,21.899999618530273,21.25,21.260000228881836,19.95472526550293,21700
2020-07-24,21.329999923706055,21.983999252319336,21.200000762939453,21.700000762939453,20.367712020874023,8800
2020-07-27,21.729999542236328,21.799999237060547,20.75,21.200000762939453,19.89841079711914,27100
2020-07-28,21.530000686645508,21.530000686645508,20.8700008392334,21.219999313354492,19.91718101501465,8600
2020-07-29,21.170000076293945,21.350000381469727,21.059999465942383,21.274999618530273,19.96880340576172,23600
2020-07-30,21.229999542236328,21.260000228881836,20.715999603271484,20.950000762939453,19.66375732421875,22900
2020-07-31,21.010000228881836,21.100000381469727,20.799999237060547,20.959999084472656,19.67314338684082,9500
2020-08-03,20.81999969482422,21.40999984741211,20.81999969482422,20.88599967956543,19.603687286376953,20600
2020-08-04,21.09000015258789,21.18000030517578,20.850000381469727,20.850000381469727,19.56989860534668,9800
2020-08-05,20.799999237060547,21.149999618530273,20.709999084472656,21.079999923706055,19.785776138305664,14300
2020-08-06,20.799999237060547,21.290000915527344,20.670000076293945,20.770000457763672,19.49481201171875,40900
2020-08-07,20.719999313354492,21.079999923706055,20.231000900268555,20.299999237060547,19.05366325378418,30400
2020-08-10,20.299999237060547,20.940000534057617,20.299999237060547,20.790000915527344,19.513582229614258,12700
2020-08-11,20.885000228881836,21.360000610351562,20.860000610351562,21.049999237060547,19.757619857788086,6000
2020-08-12,21.290000915527344,22.290000915527344,21.290000915527344,21.60099983215332,20.274789810180664,19900
2020-08-13,21.899999618530273,22.415000915527344,21.899999618530273,22.149999618530273,20.790082931518555,9300
2020-08-14,22.329999923706055,22.610000610351562,22.295000076293945,22.610000610351562,21.22184181213379,15800
2020-08-17,22.475000381469727,22.714000701904297,22.0,22.709999084472656,21.315702438354492,8700
2020-08-18,22.260000228881836,22.90999984741211,22.25,22.600000381469727,21.21245574951172,20000
2020-08-19,22.270000457763672,23.0,22.270000457763672,22.860000610351562,21.456491470336914,6400
2020-08-20,22.950000762939453,23.264999389648438,22.799999237060547,23.0,21.5878963470459,21900
2020-08-21,23.009000778198242,23.90999984741211,23.0,23.75,22.291851043701172,10200
2020-08-24,23.959999084472656,23.959999084472656,23.0,23.725000381469727,22.268383026123047,10700
2020-08-25,23.8700008392334,23.899999618530273,23.375999450683594,23.375999450683594,21.940813064575195,13800
2020-08-26,23.6299991607666,23.72599983215332,23.200000762939453,23.375,21.93987274169922,9700
2020-08-27,23.6200008392334,23.989999771118164,23.299999237060547,23.989999771118164,22.51711654663086,12900
2020-08-28,23.47800064086914,24.06999969482422,23.280000686645508,23.829999923706055,22.366939544677734,12500
2020-08-31,23.700000762939453,24.049999237060547,23.42799949645996,23.799999237060547,22.338781356811523,5200
2020-09-01,23.940000534057617,24.0,23.309999465942383,23.350000381469727,21.916410446166992,38700
2020-09-02,23.399999618530273,23.700000762939453,23.399999618530273,23.600000381469727,22.151060104370117,9600
2020-09-03,23.600000381469727,23.889999389648438,23.386999130249023,23.386999130249023,21.95113754272461,30500
2020-09-04,23.399999618530273,23.836000442504883,23.25,23.549999237060547,22.104127883911133,3800
2020-09-08,23.549999237060547,23.829999923706055,23.450000762939453,23.450000762939453,22.010271072387695,9000
2020-09-09,23.709999084472656,23.709999084472656,23.3799991607666,23.3799991607666,21.94456672668457,6800
2020-09-10,23.50200080871582,23.635000228881836,22.790000915527344,23.309999465942383,21.878864288330078,18400
2020-09-11,23.190000534057617,23.399999618530273,22.8799991607666,23.075000762939453,21.658292770385742,6100
2020-09-14,23.100000381469727,23.709999084472656,22.1299991607666,22.700000762939453,21.680259704589844,12700
2020-09-15,22.593000411987305,23.31100082397461,22.593000411987305,23.31100082397461,22.263811111450195,3100
2020-09-16,23.540000915527344,23.700000762939453,22.780000686645508,23.700000762939453,22.635337829589844,3500
2020-09-17,23.520000457763672,23.700000762939453,23.350000381469727,23.700000762939453,22.635337829589844,2500
2020-09-18,23.84000015258789,23.940000534057617,23.190000534057617,23.940000534057617,22.86455535888672,4900
2020-09-21,23.049999237060547,23.84000015258789,23.049999237060547,23.84000015258789,22.769046783447266,3800
2020-09-22,22.47599983215332,23.969999313354492,22.47599983215332,23.75,22.683090209960938,4500
2020-09-23,24.010000228881836,24.010000228881836,23.149999618530273,23.149999618530273,22.110042572021484,12800
2020-09-24,23.559999465942383,23.979999542236328,23.149999618530273,23.59000015258789,22.530277252197266,4400
2020-09-25,23.68000030517578,23.940000534057617,23.5,23.93000030517578,22.855005264282227,2600
2020-09-28,23.312999725341797,23.950000762939453,23.312999725341797,23.75,22.683090209960938,3600
2020-09-29,23.950000762939453,23.950000762939453,23.614999771118164,23.799999237060547,22.730844497680664,9700
2020-09-30,23.9060001373291,23.950000762939453,23.610000610351562,23.950000762939453,22.87410545349121,3000
2020-10-01,23.950000762939453,23.989999771118164,23.799999237060547,23.989999771118164,22.912309646606445,5600
2020-10-02,23.81399917602539,23.972000122070312,23.709999084472656,23.799999237060547,22.730844497680664,3300
2020-10-05,23.989999771118164,24.399999618530273,23.989999771118164,24.049999237060547,22.969614028930664,4400
2020-10-06,24.350000381469727,24.350000381469727,24.020000457763672,24.059999465942383,22.979164123535156,6600
2020-10-07,24.239999771118164,24.239999771118164,23.815000534057617,24.239999771118164,23.151077270507812,9200
2020-10-08,24.395000457763672,24.530000686645508,24.329999923706055,24.399999618530273,23.303890228271484,2500
2020-10-09,24.649999618530273,24.649999618530273,23.200000762939453,23.709999084472656,22.644886016845703,10000
2020-10-12,24.486000061035156,24.690000534057617,24.25,24.649999618530273,23.542659759521484,4000
2020-10-13,24.639999389648438,24.649999618530273,24.360000610351562,24.59000015258789,23.4853572845459,5500
2020-10-14,24.549999237060547,24.579999923706055,23.979999542236328,24.0,22.921859741210938,9300
2020-10-15,24.149999618530273,24.479999542236328,23.94700050354004,24.25,23.160627365112305,5800
2020-10-16,23.75,24.360000610351562,23.75,24.350000381469727,23.256135940551758,10300
2020-10-19,24.440000534057617,24.489999771118164,24.065000534057617,24.06999969482422,22.98871612548828,6000
2020-10-20,24.270000457763672,24.700000762939453,24.06999969482422,24.700000762939453,23.59041404724121,8400
2020-10-21,24.360000610351562,24.950000762939453,24.360000610351562,24.545000076293945,23.4423770904541,13400
2020-10-22,24.68000030517578,25.5,24.68000030517578,25.30500030517578,24.168235778808594,8200
2020-10-23,25.5,25.950000762939453,24.959999084472656,24.959999084472656,23.838733673095703,8800
2020-10-26,25.190000534057617,25.190000534057617,24.795000076293945,25.0,23.876937866210938,6000
2020-10-27,25.0,25.0,24.799999237060547,24.989999771118164,23.867385864257812,2000
2020-10-28,24.649999618530273,24.649999618530273,24.3700008392334,24.5,23.399398803710938,13300
2020-10-29,24.610000610351562,25.0,24.3700008392334,24.5,23.399398803710938,11900
2020-10-30,24.71299934387207,24.990999221801758,24.1200008392334,24.729999542236328,23.61906623840332,4100
2020-11-02,24.43000030517578,24.549999237060547,24.209999084472656,24.299999237060547,23.208383560180664,4900
2020-11-03,24.5,25.0,24.5,25.0,23.876937866210938,4600
2020-11-04,24.990999221801758,24.990999221801758,24.72100067138672,24.989999771118164,23.867385864257812,1100
2020-11-05,24.979999542236328,25.0,24.979999542236328,25.0,23.876937866210938,1600
2020-11-06,24.84600067138672,25.0,24.84600067138672,25.0,23.876937866210938,2300
2020-11-09,25.0,25.399999618530273,25.0,25.3799991607666,24.239866256713867,10300
2020-11-10,25.56999969482422,26.520000457763672,24.799999237060547,26.049999237060547,24.87976837158203,12300
2020-11-11,25.81999969482422,26.68000030517578,25.299999237060547,25.450000762939453,24.30672264099121,4400
2020-11-12,25.329999923706055,25.479999542236328,25.299999237060547,25.479999542236328,24.33537483215332,6800
2020-11-13,24.711999893188477,25.760000228881836,24.711999893188477,25.450000762939453,24.30672264099121,2000
2020-11-16,25.799999237060547,26.899999618530273,24.280000686645508,25.899999618530273,24.736507415771484,44800
2020-11-17,26.469999313354492,26.469999313354492,25.391000747680664,25.989999771118164,24.822463989257812,10100
2020-11-18,26.25,27.0,25.950000762939453,26.09000015258789,24.917972564697266,25200
2020-11-19,26.290000915527344,27.0,25.950000762939453,26.09000015258789,24.917972564697266,31600
2020-11-20,26.010000228881836,26.049999237060547,25.59000015258789,25.75,24.593244552612305,3500
2020-11-23,26.0,26.149999618530273,25.75,25.899999618530273,24.736507415771484,4900
2020-11-24,26.190000534057617,26.190000534057617,25.899999618530273,26.149999618530273,24.975276947021484,3900
2020-11-25,26.190000534057617,26.486000061035156,25.780000686645508,25.959999084472656,24.793811798095703,16400
2020-11-27,26.09000015258789,26.09000015258789,26.09000015258789,26.09000015258789,24.917972564697266,300
2020-11-30,25.84000015258789,26.100000381469727,25.579999923706055,25.850000381469727,24.688753128051758,9100
2020-12-01,25.579999923706055,25.924999237060547,25.579999923706055,25.75,24.593244552612305,5800
2020-12-02,25.850000381469727,25.999000549316406,25.829999923706055,25.829999923706055,24.669652938842773,1400
2020-12-03,26.0,26.038000106811523,25.81999969482422,25.899999618530273,24.736507415771484,6500
2020-12-04,25.979999542236328,25.996000289916992,25.59000015258789,25.59000015258789,24.440431594848633,3100
2020-12-07,25.670000076293945,25.780000686645508,25.549999237060547,25.655000686645508,24.502513885498047,3300
2020-12-08,25.719999313354492,25.719999313354492,25.268999099731445,25.389999389648438,24.249418258666992,7500
2020-12-09,25.559999465942383,25.700000762939453,25.40999984741211,25.510000228881836,24.36402702331543,4100
2020-12-10,25.670000076293945,26.0,25.18000030517578,25.510000228881836,24.36402702331543,11500
2020-12-11,25.579999923706055,25.93000030517578,25.405000686645508,25.405000686645508,24.26374626159668,4200
2020-12-14,25.40999984741211,25.5,25.06800079345703,25.110000610351562,24.363683700561523,4800
2020-12-15,25.450000762939453,25.986000061035156,25.450000762939453,25.549999237060547,24.790603637695312,5800
2020-12-16,25.739999771118164,25.986000061035156,25.450000762939453,25.639999389648438,24.8779296875,5200
2020-12-17,25.84000015258789,26.0,25.7549991607666,25.860000610351562,25.09139060974121,3200
2020-12-18,26.0,26.0,25.600000381469727,25.860000610351562,25.09139060974121,3900
2020-12-21,26.0,26.010000228881836,25.799999237060547,25.829999923706055,25.062280654907227,5300
2020-12-22,26.0,26.100000381469727,25.850000381469727,25.950000762939453,25.1787166595459,4400
2020-12-23,26.0,26.0,25.610000610351562,25.670000076293945,24.90703773498535,10200
2020-12-24,25.8700008392334,25.8700008392334,25.75,25.790000915527344,25.02347183227539,2200
2020-12-28,26.100000381469727,26.100000381469727,25.81999969482422,25.81999969482422,25.052579879760742,1200
2020-12-29,25.81999969482422,26.100000381469727,25.81999969482422,25.854999542236328,25.086538314819336,3700
2020-12-30,26.049999237060547,26.100000381469727,26.0,26.0,25.22722816467285,5400
