Date,Open,High,Low,Close,Adj Close,Volume
2018-10-03,23.0,23.489999771118164,20.329999923706055,21.18000030517578,21.18000030517578,8385100
2018-10-04,21.5,21.510000228881836,20.579999923706055,20.959999084472656,20.959999084472656,1112900
2018-10-05,20.950000762939453,21.780000686645508,20.850000381469727,20.989999771118164,20.989999771118164,914000
2018-10-08,20.950000762939453,20.950000762939453,19.84000015258789,20.040000915527344,20.040000915527344,797300
2018-10-09,20.0,20.299999237060547,19.700000762939453,19.940000534057617,19.940000534057617,1244300
2018-10-10,20.0,20.139999389648438,19.700000762939453,20.0,20.0,1077600
2018-10-11,19.829999923706055,20.31999969482422,18.790000915527344,19.040000915527344,19.040000915527344,1228300
2018-10-12,19.299999237060547,19.899999618530273,19.0,19.209999084472656,19.209999084472656,358900
2018-10-15,19.299999237060547,19.739999771118164,19.0,19.43000030517578,19.43000030517578,329100
2018-10-16,19.350000381469727,20.860000610351562,19.350000381469727,20.200000762939453,20.200000762939453,362700
2018-10-17,20.030000686645508,20.3799991607666,20.0,20.100000381469727,20.100000381469727,147500
2018-10-18,20.100000381469727,20.219999313354492,19.010000228881836,19.139999389648438,19.139999389648438,228700
2018-10-19,19.149999618530273,20.479999542236328,19.149999618530273,19.440000534057617,19.440000534057617,337900
2018-10-22,19.65999984741211,19.829999923706055,18.0,18.950000762939453,18.950000762939453,259600
2018-10-23,18.549999237060547,19.260000228881836,18.0,18.799999237060547,18.799999237060547,280300
2018-10-24,18.93000030517578,19.110000610351562,17.239999771118164,17.239999771118164,17.239999771118164,365700
2018-10-25,17.260000228881836,20.329999923706055,16.700000762939453,19.5,19.5,1153300
2018-10-26,19.5,19.65999984741211,18.600000381469727,18.690000534057617,18.690000534057617,666900
2018-10-29,19.149999618530273,19.219999313354492,17.780000686645508,17.989999771118164,17.989999771118164,529400
2018-10-30,18.049999237060547,19.040000915527344,18.049999237060547,18.84000015258789,18.84000015258789,355900
2018-10-31,19.459999084472656,19.81999969482422,19.110000610351562,19.200000762939453,19.200000762939453,337600
2018-11-01,19.3799991607666,20.639999389648438,19.219999313354492,20.229999542236328,20.229999542236328,311800
2018-11-02,20.649999618530273,20.739999771118164,19.559999465942383,20.260000228881836,20.260000228881836,251300
2018-11-05,20.59000015258789,20.600000381469727,19.18000030517578,19.34000015258789,19.34000015258789,204400
2018-11-06,19.43000030517578,19.950000762939453,19.34000015258789,19.399999618530273,19.399999618530273,120200
2018-11-07,19.760000228881836,21.110000610351562,19.510000228881836,20.290000915527344,20.290000915527344,580200
2018-11-08,20.020000457763672,20.200000762939453,15.84000015258789,18.06999969482422,18.06999969482422,2383500
2018-11-09,18.489999771118164,18.579999923706055,17.520000457763672,17.68000030517578,17.68000030517578,737500
2018-11-12,17.979999542236328,18.200000762939453,17.5,17.700000762939453,17.700000762939453,264700
2018-11-13,17.799999237060547,18.450000762939453,17.799999237060547,18.110000610351562,18.110000610351562,341800
2018-11-14,18.469999313354492,18.649999618530273,18.229999542236328,18.549999237060547,18.549999237060547,219500
2018-11-15,18.5,18.850000381469727,18.450000762939453,18.739999771118164,18.739999771118164,247200
2018-11-16,18.65999984741211,19.520000457763672,18.639999389648438,19.200000762939453,19.200000762939453,362200
2018-11-19,19.200000762939453,19.200000762939453,16.239999771118164,16.459999084472656,16.459999084472656,624500
2018-11-20,15.979999542236328,16.8799991607666,15.680000305175781,16.100000381469727,16.100000381469727,482900
2018-11-21,16.270000457763672,16.979999542236328,15.90999984741211,16.649999618530273,16.649999618530273,315600
2018-11-23,17.18000030517578,17.18000030517578,16.6299991607666,16.889999389648438,16.889999389648438,134800
2018-11-26,17.100000381469727,17.309999465942383,16.709999084472656,17.0,17.0,387700
2018-11-27,16.950000762939453,17.06999969482422,16.649999618530273,16.709999084472656,16.709999084472656,107500
2018-11-28,16.760000228881836,17.829999923706055,16.579999923706055,17.6299991607666,17.6299991607666,311400
2018-11-29,17.739999771118164,18.200000762939453,17.639999389648438,18.049999237060547,18.049999237060547,242300
2018-11-30,18.209999084472656,19.0,18.049999237060547,18.6299991607666,18.6299991607666,352700
2018-12-03,19.31999969482422,19.420000076293945,18.649999618530273,18.889999389648438,18.889999389648438,251400
2018-12-04,19.280000686645508,19.280000686645508,18.190000534057617,18.389999389648438,18.389999389648438,369800
2018-12-06,17.969999313354492,18.280000686645508,17.5,18.040000915527344,18.040000915527344,189700
2018-12-07,17.860000610351562,18.290000915527344,17.049999237060547,17.09000015258789,17.09000015258789,300300
2018-12-10,17.219999313354492,17.219999313354492,16.309999465942383,16.59000015258789,16.59000015258789,214100
2018-12-11,17.0,17.139999389648438,15.819999694824219,16.010000228881836,16.010000228881836,908500
2018-12-12,16.100000381469727,16.65999984741211,16.010000228881836,16.489999771118164,16.489999771118164,389200
2018-12-13,16.469999313354492,17.079999923706055,16.139999389648438,16.8700008392334,16.8700008392334,354300
2018-12-14,16.579999923706055,17.440000534057617,16.3700008392334,17.389999389648438,17.389999389648438,325300
2018-12-17,17.18000030517578,18.799999237060547,17.110000610351562,18.440000534057617,18.440000534057617,1031300
2018-12-18,18.43000030517578,19.690000534057617,18.100000381469727,19.440000534057617,19.440000534057617,726000
2018-12-19,19.59000015258789,21.690000534057617,19.510000228881836,20.040000915527344,20.040000915527344,1069800
2018-12-20,19.760000228881836,21.34000015258789,19.760000228881836,20.670000076293945,20.670000076293945,1024700
2018-12-21,21.110000610351562,21.190000534057617,18.649999618530273,19.559999465942383,19.559999465942383,4138100
2018-12-24,19.229999542236328,19.399999618530273,17.760000228881836,18.100000381469727,18.100000381469727,207600
2018-12-26,18.290000915527344,18.420000076293945,16.829999923706055,17.6200008392334,17.6200008392334,483000
2018-12-27,17.440000534057617,18.059999465942383,16.899999618530273,17.899999618530273,17.899999618530273,244100
2018-12-28,17.950000762939453,17.989999771118164,17.34000015258789,17.860000610351562,17.860000610351562,241400
2018-12-31,18.0,18.329999923706055,17.600000381469727,18.110000610351562,18.110000610351562,337200
2019-01-02,17.850000381469727,18.729999542236328,17.510000228881836,18.530000686645508,18.530000686645508,194600
2019-01-03,18.389999389648438,18.5,17.540000915527344,17.8700008392334,17.8700008392334,231000
2019-01-04,17.950000762939453,18.969999313354492,17.950000762939453,18.59000015258789,18.59000015258789,319900
2019-01-07,18.75,18.850000381469727,18.170000076293945,18.700000762939453,18.700000762939453,187300
2019-01-08,18.8700008392334,19.200000762939453,18.809999465942383,19.1299991607666,19.1299991607666,193500
2019-01-09,19.110000610351562,19.479999542236328,19.010000228881836,19.34000015258789,19.34000015258789,195300
2019-01-10,19.270000457763672,19.270000457763672,18.860000610351562,19.0,19.0,225200
2019-01-11,18.850000381469727,19.200000762939453,18.850000381469727,18.989999771118164,18.989999771118164,152100
2019-01-14,18.700000762939453,19.110000610351562,18.549999237060547,18.799999237060547,18.799999237060547,156400
2019-01-15,18.739999771118164,19.18000030517578,18.639999389648438,18.969999313354492,18.969999313354492,122200
2019-01-16,19.030000686645508,19.110000610351562,18.799999237060547,19.0,19.0,156600
2019-01-17,18.950000762939453,19.059999465942383,18.799999237060547,19.059999465942383,19.059999465942383,77500
2019-01-18,19.059999465942383,19.18000030517578,18.65999984741211,18.940000534057617,18.940000534057617,288100
2019-01-22,18.860000610351562,19.049999237060547,18.030000686645508,18.299999237060547,18.299999237060547,163000
2019-01-23,18.350000381469727,19.059999465942383,18.0,18.389999389648438,18.389999389648438,198700
2019-01-24,18.280000686645508,18.93000030517578,18.219999313354492,18.899999618530273,18.899999618530273,166900
2019-01-25,19.149999618530273,19.350000381469727,18.860000610351562,18.979999542236328,18.979999542236328,173200
2019-01-28,18.829999923706055,19.139999389648438,18.729999542236328,18.940000534057617,18.940000534057617,228700
2019-01-29,18.850000381469727,19.100000381469727,18.690000534057617,18.8799991607666,18.8799991607666,136800
2019-01-30,18.969999313354492,19.139999389648438,18.739999771118164,18.799999237060547,18.799999237060547,225000
2019-01-31,18.84000015258789,19.459999084472656,18.84000015258789,19.309999465942383,19.309999465942383,368200
2019-02-01,19.170000076293945,19.350000381469727,18.520000457763672,18.579999923706055,18.579999923706055,134600
2019-02-04,18.540000915527344,19.200000762939453,18.3700008392334,18.989999771118164,18.989999771118164,274600
2019-02-05,19.049999237060547,21.0,19.010000228881836,20.709999084472656,20.709999084472656,1180500
2019-02-06,20.6299991607666,22.850000381469727,20.5,22.170000076293945,22.170000076293945,793100
2019-02-07,22.239999771118164,22.239999771118164,20.920000076293945,21.1200008392334,21.1200008392334,397500
2019-02-08,21.010000228881836,21.059999465942383,20.229999542236328,20.56999969482422,20.56999969482422,267300
2019-02-11,20.8700008392334,22.239999771118164,20.610000610351562,21.969999313354492,21.969999313354492,379900
2019-02-12,22.100000381469727,22.5,21.520000457763672,22.40999984741211,22.40999984741211,262000
2019-02-13,22.510000228881836,22.649999618530273,21.920000076293945,22.229999542236328,22.229999542236328,166300
2019-02-14,22.040000915527344,23.5,21.90999984741211,23.18000030517578,23.18000030517578,536000
2019-02-15,23.190000534057617,23.440000534057617,22.010000228881836,22.059999465942383,22.059999465942383,494600
2019-02-19,22.399999618530273,23.469999313354492,22.25,22.899999618530273,22.899999618530273,468500
2019-02-20,22.920000076293945,23.149999618530273,22.110000610351562,22.440000534057617,22.440000534057617,205300
2019-02-21,22.40999984741211,22.489999771118164,20.959999084472656,22.010000228881836,22.010000228881836,261800
2019-02-22,21.969999313354492,23.0,21.969999313354492,22.719999313354492,22.719999313354492,447000
2019-02-25,22.90999984741211,23.059999465942383,22.389999389648438,22.5,22.5,232600
2019-02-26,22.360000610351562,23.170000076293945,21.969999313354492,22.75,22.75,549200
2019-02-27,22.739999771118164,24.440000534057617,22.489999771118164,23.90999984741211,23.90999984741211,1117100
2019-02-28,24.06999969482422,24.43000030517578,23.389999389648438,23.690000534057617,23.690000534057617,447200
2019-03-01,24.239999771118164,25.0,21.209999084472656,22.450000762939453,22.450000762939453,993000
2019-03-04,22.799999237060547,23.799999237060547,22.110000610351562,22.920000076293945,22.920000076293945,681100
2019-03-05,23.09000015258789,23.309999465942383,22.520000457763672,22.940000534057617,22.940000534057617,291800
2019-03-06,22.84000015258789,23.06999969482422,22.350000381469727,22.399999618530273,22.399999618530273,283900
2019-03-07,22.549999237060547,22.549999237060547,21.600000381469727,21.610000610351562,21.610000610351562,237800
2019-03-08,21.549999237060547,21.969999313354492,21.030000686645508,21.479999542236328,21.479999542236328,254900
2019-03-11,21.5,21.989999771118164,21.3700008392334,21.549999237060547,21.549999237060547,168300
2019-03-12,22.270000457763672,22.270000457763672,21.020000457763672,21.170000076293945,21.170000076293945,269400
2019-03-13,21.149999618530273,21.309999465942383,20.549999237060547,20.760000228881836,20.760000228881836,373200
2019-03-14,20.700000762939453,21.229999542236328,20.309999465942383,20.399999618530273,20.399999618530273,284100
2019-03-15,20.350000381469727,20.709999084472656,20.030000686645508,20.309999465942383,20.309999465942383,760100
2019-03-18,20.360000610351562,20.65999984741211,19.81999969482422,20.299999237060547,20.299999237060547,459500
2019-03-19,20.34000015258789,20.770000457763672,20.200000762939453,20.389999389648438,20.389999389648438,320400
2019-03-20,20.3799991607666,20.860000610351562,19.920000076293945,20.56999969482422,20.56999969482422,173500
2019-03-21,20.43000030517578,20.889999389648438,20.0,20.34000015258789,20.34000015258789,325000
2019-03-22,20.149999618530273,20.459999084472656,19.889999389648438,19.899999618530273,19.899999618530273,336600
2019-03-25,19.8700008392334,20.1200008392334,19.5,19.860000610351562,19.860000610351562,448200
2019-03-26,19.90999984741211,20.25,19.600000381469727,20.049999237060547,20.049999237060547,159100
2019-03-27,19.940000534057617,20.110000610351562,19.489999771118164,19.65999984741211,19.65999984741211,307000
2019-03-28,19.700000762939453,19.8700008392334,19.459999084472656,19.600000381469727,19.600000381469727,105300
2019-03-29,19.549999237060547,19.549999237060547,18.309999465942383,19.139999389648438,19.139999389648438,1189400
2019-04-01,18.969999313354492,19.010000228881836,17.719999313354492,18.600000381469727,18.600000381469727,6973900
2019-04-02,18.40999984741211,19.309999465942383,18.25,19.1200008392334,19.1200008392334,1433000
2019-04-03,19.260000228881836,20.25,18.950000762939453,19.950000762939453,19.950000762939453,1216300
2019-04-04,19.8700008392334,20.110000610351562,19.260000228881836,19.959999084472656,19.959999084472656,702700
2019-04-05,19.940000534057617,20.229999542236328,19.719999313354492,20.010000228881836,20.010000228881836,1932600
2019-04-08,20.0,20.200000762939453,19.59000015258789,19.729999542236328,19.729999542236328,718500
2019-04-09,19.149999618530273,19.790000915527344,19.049999237060547,19.5,19.5,610900
2019-04-10,19.530000686645508,19.8799991607666,19.239999771118164,19.520000457763672,19.520000457763672,410000
2019-04-11,19.520000457763672,19.719999313354492,19.010000228881836,19.649999618530273,19.649999618530273,303500
2019-04-12,19.84000015258789,19.950000762939453,19.450000762939453,19.709999084472656,19.709999084472656,812700
2019-04-15,19.6200008392334,19.639999389648438,19.010000228881836,19.459999084472656,19.459999084472656,796900
2019-04-16,19.5,19.5,18.75,19.020000457763672,19.020000457763672,1639500
2019-04-17,19.1299991607666,19.1299991607666,18.3700008392334,18.43000030517578,18.43000030517578,838100
2019-04-18,18.40999984741211,18.790000915527344,17.950000762939453,18.760000228881836,18.760000228881836,785800
2019-04-22,18.639999389648438,19.100000381469727,18.520000457763672,18.969999313354492,18.969999313354492,594500
2019-04-23,18.90999984741211,19.360000610351562,18.850000381469727,19.260000228881836,19.260000228881836,512000
2019-04-24,19.190000534057617,19.309999465942383,18.950000762939453,19.049999237060547,19.049999237060547,338000
2019-04-25,18.989999771118164,19.09000015258789,18.81999969482422,18.899999618530273,18.899999618530273,398000
2019-04-26,18.8799991607666,19.06999969482422,18.709999084472656,19.020000457763672,19.020000457763672,458000
2019-04-29,19.0,20.059999465942383,18.950000762939453,19.809999465942383,19.809999465942383,1583200
2019-04-30,19.760000228881836,20.100000381469727,19.510000228881836,19.989999771118164,19.989999771118164,749300
2019-05-01,20.0,20.670000076293945,19.799999237060547,20.299999237060547,20.299999237060547,748200
2019-05-02,20.280000686645508,20.719999313354492,20.110000610351562,20.350000381469727,20.350000381469727,430200
2019-05-03,20.520000457763672,20.81999969482422,20.25,20.700000762939453,20.700000762939453,407800
2019-05-06,20.020000457763672,20.68000030517578,20.0,20.530000686645508,20.530000686645508,369300
2019-05-07,20.15999984741211,20.850000381469727,20.1299991607666,20.709999084472656,20.709999084472656,543200
2019-05-08,20.75,20.899999618530273,20.360000610351562,20.479999542236328,20.479999542236328,853200
2019-05-09,19.3799991607666,19.3799991607666,16.729999542236328,16.860000610351562,16.860000610351562,3627500
2019-05-10,16.579999923706055,16.93000030517578,15.619999885559082,16.75,16.75,6739000
2019-05-13,16.309999465942383,16.81999969482422,16.149999618530273,16.510000228881836,16.510000228881836,1501300
2019-05-14,16.600000381469727,16.829999923706055,16.100000381469727,16.600000381469727,16.600000381469727,1021600
2019-05-15,16.399999618530273,16.56999969482422,16.1200008392334,16.229999542236328,16.229999542236328,1025500
2019-05-16,16.110000610351562,16.209999084472656,15.550000190734863,15.850000381469727,15.850000381469727,1787700
2019-05-17,15.890000343322754,16.170000076293945,15.649999618530273,15.779999732971191,15.779999732971191,1080300
2019-05-20,15.699999809265137,15.800000190734863,15.279999732971191,15.479999542236328,15.479999542236328,1015900
2019-05-21,15.630000114440918,16.170000076293945,15.380000114440918,15.84000015258789,15.84000015258789,1016900
2019-05-22,15.920000076293945,15.949999809265137,15.619999885559082,15.800000190734863,15.800000190734863,601300
2019-05-23,15.729999542236328,15.890000343322754,15.529999732971191,15.720000267028809,15.720000267028809,804400
2019-05-24,15.8100004196167,16.18000030517578,15.609999656677246,15.649999618530273,15.649999618530273,947100
2019-05-28,15.630000114440918,15.800000190734863,14.850000381469727,14.890000343322754,14.890000343322754,2460900
2019-05-29,14.760000228881836,15.149999618530273,14.579999923706055,15.039999961853027,15.039999961853027,2214100
2019-05-30,15.170000076293945,15.3100004196167,14.930000305175781,15.039999961853027,15.039999961853027,786200
2019-05-31,14.90999984741211,15.100000381469727,14.609999656677246,14.979999542236328,14.979999542236328,771000
2019-06-03,14.9399995803833,14.979999542236328,14.260000228881836,14.300000190734863,14.300000190734863,914300
2019-06-04,14.319999694824219,14.5,14.109999656677246,14.430000305175781,14.430000305175781,710800
2019-06-05,14.5,14.680000305175781,14.09000015258789,14.180000305175781,14.180000305175781,899800
2019-06-06,14.260000228881836,14.399999618530273,14.079999923706055,14.319999694824219,14.319999694824219,857000
2019-06-07,14.279999732971191,14.630000114440918,14.260000228881836,14.390000343322754,14.390000343322754,765100
2019-06-10,14.529999732971191,15.600000381469727,14.5,15.050000190734863,15.050000190734863,1409500
2019-06-11,15.260000228881836,15.430000305175781,14.899999618530273,15.130000114440918,15.130000114440918,819400
2019-06-12,15.130000114440918,15.15999984741211,14.420000076293945,14.5600004196167,14.5600004196167,664900
2019-06-13,14.569999694824219,15.8100004196167,14.550000190734863,15.670000076293945,15.670000076293945,1909200
2019-06-14,15.75,15.819999694824219,14.970000267028809,15.260000228881836,15.260000228881836,1107800
2019-06-17,15.260000228881836,15.65999984741211,15.050000190734863,15.4399995803833,15.4399995803833,853700
2019-06-18,15.520000457763672,15.6899995803833,15.010000228881836,15.149999618530273,15.149999618530273,780200
2019-06-19,15.569999694824219,15.8100004196167,15.0600004196167,15.470000267028809,15.470000267028809,1756100
2019-06-20,15.550000190734863,16.059999465942383,15.5,15.970000267028809,15.970000267028809,1988600
2019-06-21,16.0,16.530000686645508,15.489999771118164,15.510000228881836,15.510000228881836,2400300
2019-06-24,15.5600004196167,15.779999732971191,15.069999694824219,15.489999771118164,15.489999771118164,1461500
2019-06-25,15.5,15.5,14.90999984741211,15.079999923706055,15.079999923706055,1473700
2019-06-26,15.819999694824219,16.170000076293945,15.539999961853027,15.609999656677246,15.609999656677246,1023500
2019-06-27,15.779999732971191,16.079999923706055,15.5600004196167,16.059999465942383,16.059999465942383,1416500
2019-06-28,16.1200008392334,16.440000534057617,15.930000305175781,16.079999923706055,16.079999923706055,6966900
2019-07-01,16.299999237060547,16.469999313354492,15.399999618530273,15.609999656677246,15.609999656677246,1065600
2019-07-02,15.59000015258789,15.770000457763672,15.15999984741211,15.390000343322754,15.390000343322754,911500
2019-07-03,15.359999656677246,15.609999656677246,15.210000038146973,15.460000038146973,15.460000038146973,553300
2019-07-05,15.539999961853027,15.859999656677246,15.5,15.8100004196167,15.8100004196167,441900
2019-07-08,15.890000343322754,16.09000015258789,15.789999961853027,15.979999542236328,15.979999542236328,1438400
2019-07-09,15.90999984741211,16.139999389648438,15.869999885559082,16.139999389648438,16.139999389648438,660600
2019-07-10,16.18000030517578,16.260000228881836,15.850000381469727,15.979999542236328,15.979999542236328,864000
2019-07-11,16.100000381469727,16.149999618530273,15.869999885559082,16.1200008392334,16.1200008392334,707100
2019-07-12,16.149999618530273,16.709999084472656,16.110000610351562,16.6200008392334,16.6200008392334,1039800
2019-07-15,16.639999389648438,16.75,16.219999313354492,16.6299991607666,16.6299991607666,842900
2019-07-16,16.6299991607666,16.81999969482422,16.489999771118164,16.6299991607666,16.6299991607666,665300
2019-07-17,16.639999389648438,16.969999313354492,16.6299991607666,16.84000015258789,16.84000015258789,398200
2019-07-18,16.940000534057617,17.110000610351562,16.600000381469727,16.940000534057617,16.940000534057617,722200
2019-07-19,16.940000534057617,17.139999389648438,16.889999389648438,17.040000915527344,17.040000915527344,772000
2019-07-22,17.149999618530273,17.149999618530273,16.309999465942383,16.3700008392334,16.3700008392334,705500
2019-07-23,16.5,16.6299991607666,16.3799991607666,16.600000381469727,16.600000381469727,317700
2019-07-24,16.56999969482422,17.030000686645508,16.549999237060547,16.940000534057617,16.940000534057617,411600
2019-07-25,16.889999389648438,16.93000030517578,16.6299991607666,16.84000015258789,16.84000015258789,377500
2019-07-26,16.90999984741211,17.170000076293945,16.899999618530273,16.989999771118164,16.989999771118164,524300
2019-07-29,16.899999618530273,16.989999771118164,16.15999984741211,16.3799991607666,16.3799991607666,1016500
2019-07-30,16.350000381469727,16.790000915527344,16.139999389648438,16.760000228881836,16.760000228881836,665200
2019-07-31,16.75,16.989999771118164,16.280000686645508,16.440000534057617,16.440000534057617,475900
2019-08-01,16.450000762939453,16.739999771118164,16.06999969482422,16.260000228881836,16.260000228881836,361600
2019-08-02,16.25,16.25,15.649999618530273,15.880000114440918,15.880000114440918,591900
2019-08-05,15.600000381469727,15.779999732971191,15.279999732971191,15.699999809265137,15.699999809265137,571100
2019-08-06,15.739999771118164,15.979999542236328,15.140000343322754,15.460000038146973,15.460000038146973,601900
2019-08-07,15.470000267028809,16.450000762939453,15.170000076293945,16.239999771118164,16.239999771118164,1352900
2019-08-08,17.059999465942383,17.75,16.90999984741211,17.010000228881836,17.010000228881836,1812900
2019-08-09,16.739999771118164,16.739999771118164,15.039999961853027,15.149999618530273,15.149999618530273,2504800
2019-08-12,15.229999542236328,15.34000015258789,14.600000381469727,15.0,15.0,1158900
2019-08-13,15.0,15.770000457763672,14.979999542236328,15.470000267028809,15.470000267028809,1220500
2019-08-14,15.0600004196167,15.289999961853027,14.359999656677246,14.729999542236328,14.729999542236328,1381600
2019-08-15,14.899999618530273,15.1899995803833,14.850000381469727,15.0,15.0,810600
2019-08-16,15.170000076293945,15.229999542236328,14.859999656677246,15.0,15.0,676800
2019-08-19,15.109999656677246,15.199999809265137,14.800000190734863,14.880000114440918,14.880000114440918,735100
2019-08-20,14.819999694824219,14.84000015258789,14.319999694824219,14.710000038146973,14.710000038146973,724900
2019-08-21,14.84000015258789,15.149999618530273,14.510000228881836,14.930000305175781,14.930000305175781,546500
2019-08-22,15.0,15.180000305175781,14.800000190734863,14.869999885559082,14.869999885559082,418500
2019-08-23,14.75,14.989999771118164,14.399999618530273,14.399999618530273,14.399999618530273,696900
2019-08-26,14.520000457763672,14.699999809265137,14.289999961853027,14.65999984741211,14.65999984741211,951000
2019-08-27,14.520000457763672,14.670000076293945,13.869999885559082,14.0600004196167,14.0600004196167,1035500
2019-08-28,14.0600004196167,14.300000190734863,13.850000381469727,13.9399995803833,13.9399995803833,1031000
2019-08-29,14.050000190734863,14.579999923706055,14.0,14.390000343322754,14.390000343322754,829000
2019-08-30,14.520000457763672,14.729999542236328,14.239999771118164,14.460000038146973,14.460000038146973,896600
2019-09-03,14.260000228881836,14.539999961853027,13.819999694824219,13.920000076293945,13.920000076293945,879200
2019-09-04,14.010000228881836,14.380000114440918,13.979999542236328,14.220000267028809,14.220000267028809,656200
2019-09-05,14.140000343322754,14.229999542236328,13.130000114440918,13.850000381469727,13.850000381469727,1802100
2019-09-06,13.859999656677246,14.380000114440918,13.819999694824219,14.069999694824219,14.069999694824219,1227900
2019-09-09,14.170000076293945,14.479999542236328,14.140000343322754,14.350000381469727,14.350000381469727,911500
2019-09-10,14.279999732971191,14.779999732971191,14.15999984741211,14.649999618530273,14.649999618530273,1265600
2019-09-11,14.6899995803833,15.40999984741211,14.649999618530273,14.989999771118164,14.989999771118164,1671000
2019-09-12,15.0,15.369999885559082,14.989999771118164,15.109999656677246,15.109999656677246,986700
2019-09-13,15.109999656677246,15.260000228881836,14.949999809265137,14.970000267028809,14.970000267028809,886200
2019-09-16,14.960000038146973,15.3100004196167,14.869999885559082,14.960000038146973,14.960000038146973,1237000
2019-09-17,14.949999809265137,15.050000190734863,14.420000076293945,14.619999885559082,14.619999885559082,1624200
2019-09-18,14.600000381469727,14.729999542236328,14.25,14.380000114440918,14.380000114440918,877000
2019-09-19,14.40999984741211,14.510000228881836,14.140000343322754,14.170000076293945,14.170000076293945,1297500
2019-09-20,14.130000114440918,14.170000076293945,13.600000381469727,13.710000038146973,13.710000038146973,1836600
2019-09-23,13.670000076293945,13.960000038146973,13.359999656677246,13.779999732971191,13.779999732971191,975400
2019-09-24,13.8100004196167,13.850000381469727,13.5,13.5600004196167,13.5600004196167,1077900
2019-09-25,13.510000228881836,13.800000190734863,13.399999618530273,13.75,13.75,781600
2019-09-26,13.789999961853027,13.84000015258789,13.479999542236328,13.520000457763672,13.520000457763672,690500
2019-09-27,13.569999694824219,13.739999771118164,12.930000305175781,13.260000228881836,13.260000228881836,1123000
2019-09-30,13.09000015258789,13.380000114440918,12.869999885559082,13.3100004196167,13.3100004196167,1698000
2019-10-01,13.319999694824219,13.729999542236328,13.300000190734863,13.449999809265137,13.449999809265137,1196500
2019-10-02,13.4399995803833,13.609999656677246,13.289999961853027,13.470000267028809,13.470000267028809,793900
2019-10-03,13.449999809265137,13.819999694824219,13.180000305175781,13.6899995803833,13.6899995803833,928500
2019-10-04,13.760000228881836,14.119999885559082,13.729999542236328,14.0600004196167,14.0600004196167,1124700
2019-10-07,14.050000190734863,14.119999885559082,13.720000267028809,13.989999771118164,13.989999771118164,779200
2019-10-08,13.84000015258789,13.90999984741211,13.5,13.699999809265137,13.699999809265137,807000
2019-10-09,13.779999732971191,13.880000114440918,13.5,13.65999984741211,13.65999984741211,597600
2019-10-10,13.680000305175781,14.140000343322754,13.59000015258789,14.010000228881836,14.010000228881836,1092300
2019-10-11,14.220000267028809,14.5600004196167,13.859999656677246,14.300000190734863,14.300000190734863,1536100
2019-10-14,14.300000190734863,14.430000305175781,13.9399995803833,14.119999885559082,14.119999885559082,682600
2019-10-15,14.149999618530273,14.380000114440918,13.970000267028809,14.220000267028809,14.220000267028809,1114700
2019-10-16,14.220000267028809,14.470000267028809,14.09000015258789,14.380000114440918,14.380000114440918,852800
2019-10-17,14.520000457763672,14.770000457763672,14.40999984741211,14.75,14.75,622400
2019-10-18,14.670000076293945,14.979999542236328,14.359999656677246,14.420000076293945,14.420000076293945,1155100
2019-10-21,14.5,14.6899995803833,14.329999923706055,14.510000228881836,14.510000228881836,1009800
2019-10-22,14.5,14.729999542236328,14.420000076293945,14.529999732971191,14.529999732971191,598200
2019-10-23,14.5,14.930000305175781,14.390000343322754,14.8100004196167,14.8100004196167,532100
2019-10-24,14.829999923706055,14.949999809265137,14.680000305175781,14.920000076293945,14.920000076293945,556000
2019-10-25,14.8100004196167,15.039999961853027,14.75,14.819999694824219,14.819999694824219,620400
2019-10-28,14.920000076293945,14.920000076293945,14.710000038146973,14.720000267028809,14.720000267028809,544000
2019-10-29,14.720000267028809,14.829999923706055,14.449999809265137,14.65999984741211,14.65999984741211,722900
2019-10-30,14.930000305175781,15.170000076293945,14.699999809265137,15.149999618530273,15.149999618530273,539800
2019-10-31,15.09000015258789,15.09000015258789,14.8100004196167,15.039999961853027,15.039999961853027,553400
2019-11-01,15.050000190734863,15.390000343322754,14.930000305175781,15.210000038146973,15.210000038146973,1267200
2019-11-04,15.300000190734863,15.369999885559082,15.130000114440918,15.220000267028809,15.220000267028809,908900
2019-11-05,15.25,15.529999732971191,15.149999618530273,15.300000190734863,15.300000190734863,706600
2019-11-06,15.210000038146973,15.34000015258789,14.970000267028809,15.069999694824219,15.069999694824219,1023600
2019-11-07,13.75,13.859999656677246,11.8100004196167,12.859999656677246,12.859999656677246,5342800
2019-11-08,12.859999656677246,12.899999618530273,12.4399995803833,12.770000457763672,12.770000457763672,3615000
2019-11-11,12.779999732971191,12.800000190734863,12.270000457763672,12.3100004196167,12.3100004196167,984000
2019-11-12,12.369999885559082,12.399999618530273,12.0,12.109999656677246,12.109999656677246,1402200
2019-11-13,12.020000457763672,12.050000190734863,11.699999809265137,11.75,11.75,1273500
2019-11-14,11.75,12.020000457763672,11.65999984741211,11.979999542236328,11.979999542236328,909900
2019-11-15,12.09000015258789,12.109999656677246,11.8100004196167,11.850000381469727,11.850000381469727,1063500
2019-11-18,11.800000190734863,12.010000228881836,11.609999656677246,11.970000267028809,11.970000267028809,782900
2019-11-19,11.949999809265137,11.949999809265137,11.479999542236328,11.729999542236328,11.729999542236328,725100
2019-11-20,11.65999984741211,11.890000343322754,11.640000343322754,11.770000457763672,11.770000457763672,524900
2019-11-21,11.789999961853027,11.859999656677246,11.470000267028809,11.550000190734863,11.550000190734863,1081600
2019-11-22,11.640000343322754,11.640000343322754,11.1899995803833,11.239999771118164,11.239999771118164,1357600
2019-11-25,11.270000457763672,11.760000228881836,11.25,11.670000076293945,11.670000076293945,1376600
2019-11-26,11.510000228881836,11.65999984741211,11.4399995803833,11.489999771118164,11.489999771118164,597200
2019-11-27,11.5,11.600000381469727,11.420000076293945,11.529999732971191,11.529999732971191,419600
2019-11-29,11.529999732971191,12.0,11.479999542236328,11.649999618530273,11.649999618530273,414500
2019-12-02,11.720000267028809,11.720000267028809,11.010000228881836,11.170000076293945,11.170000076293945,669000
2019-12-03,11.069999694824219,11.359999656677246,10.9399995803833,11.270000457763672,11.270000457763672,958500
2019-12-04,11.319999694824219,11.6899995803833,11.289999961853027,11.510000228881836,11.510000228881836,832300
2019-12-05,11.449999809265137,11.510000228881836,11.329999923706055,11.449999809265137,11.449999809265137,678000
2019-12-06,11.5,11.649999618530273,11.289999961853027,11.319999694824219,11.319999694824219,703100
2019-12-09,11.319999694824219,11.319999694824219,11.140000343322754,11.149999618530273,11.149999618530273,579100
2019-12-10,10.75,10.9399995803833,9.350000381469727,10.65999984741211,10.65999984741211,2965900
2019-12-11,10.760000228881836,10.760000228881836,10.4399995803833,10.539999961853027,10.539999961853027,1341900
2019-12-12,10.619999885559082,10.890000343322754,10.34000015258789,10.40999984741211,10.40999984741211,2046100
2019-12-13,10.460000038146973,10.609999656677246,10.380000114440918,10.420000076293945,10.420000076293945,1607900
2019-12-16,10.5,10.600000381469727,10.390000343322754,10.520000457763672,10.520000457763672,1898200
2019-12-17,10.449999809265137,10.6899995803833,10.380000114440918,10.630000114440918,10.630000114440918,1098600
2019-12-18,10.619999885559082,10.899999618530273,10.479999542236328,10.739999771118164,10.739999771118164,1935000
2019-12-19,10.760000228881836,10.829999923706055,10.640000343322754,10.680000305175781,10.680000305175781,1486800
2019-12-20,10.729999542236328,10.75,10.579999923706055,10.600000381469727,10.600000381469727,1071900
2019-12-23,10.59000015258789,10.630000114440918,10.369999885559082,10.4399995803833,10.4399995803833,1256100
2019-12-24,10.4399995803833,10.729999542236328,10.4399995803833,10.5600004196167,10.5600004196167,523900
2019-12-26,10.539999961853027,10.630000114440918,10.25,10.40999984741211,10.40999984741211,3064300
2019-12-27,10.4399995803833,10.5600004196167,10.329999923706055,10.420000076293945,10.420000076293945,860200
2019-12-30,10.380000114440918,10.489999771118164,10.279999732971191,10.300000190734863,10.300000190734863,919300
2019-12-31,10.25,10.6899995803833,10.149999618530273,10.670000076293945,10.670000076293945,1182600
2020-01-02,10.319999694824219,10.569999694824219,10.289999961853027,10.520000457763672,10.520000457763672,1234500
2020-01-03,10.5,10.65999984741211,10.039999961853027,10.09000015258789,10.09000015258789,1405300
2020-01-06,10.0,10.039999961853027,9.5600004196167,9.949999809265137,9.949999809265137,1770300
2020-01-07,9.970000267028809,10.0,9.739999771118164,9.789999961853027,9.789999961853027,1443800
2020-01-08,9.789999961853027,10.1899995803833,9.760000228881836,10.130000114440918,10.130000114440918,4562600
2020-01-09,10.130000114440918,10.300000190734863,10.050000190734863,10.069999694824219,10.069999694824219,3307700
2020-01-10,10.109999656677246,10.109999656677246,9.859999656677246,10.029999732971191,10.029999732971191,2320400
2020-01-13,9.989999771118164,10.050000190734863,9.75,9.789999961853027,9.789999961853027,1563000
2020-01-14,9.770000457763672,10.0,9.680000305175781,9.869999885559082,9.869999885559082,1623800
2020-01-15,9.880000114440918,10.130000114440918,9.800000190734863,9.899999618530273,9.899999618530273,1262200
2020-01-16,9.9399995803833,10.199999809265137,9.920000076293945,10.069999694824219,10.069999694824219,1951100
2020-01-17,10.170000076293945,10.239999771118164,9.960000038146973,10.050000190734863,10.050000190734863,1311300
2020-01-21,10.0,10.140000343322754,9.779999732971191,9.979999542236328,9.979999542236328,1804700
2020-01-22,10.010000228881836,10.15999984741211,9.619999885559082,9.65999984741211,9.65999984741211,1605800
2020-01-23,9.630000114440918,9.739999771118164,9.359999656677246,9.630000114440918,9.630000114440918,1025400
2020-01-24,9.300000190734863,9.4399995803833,9.130000114440918,9.220000267028809,9.220000267028809,1811700
2020-01-27,9.0600004196167,9.420000076293945,9.0600004196167,9.260000228881836,9.260000228881836,1249700
2020-01-28,9.300000190734863,9.5600004196167,9.180000305175781,9.390000343322754,9.390000343322754,1795800
2020-01-29,9.390000343322754,9.5600004196167,9.15999984741211,9.170000076293945,9.170000076293945,1189500
2020-01-30,9.09000015258789,9.270000457763672,8.960000038146973,9.260000228881836,9.260000228881836,1358100
2020-01-31,9.210000038146973,9.3100004196167,9.050000190734863,9.180000305175781,9.180000305175781,858400
2020-02-03,9.15999984741211,9.1899995803833,8.9399995803833,8.960000038146973,8.960000038146973,1005100
2020-02-04,9.029999732971191,9.229999542236328,8.949999809265137,9.180000305175781,9.180000305175781,1249700
2020-02-05,9.279999732971191,9.630000114440918,9.210000038146973,9.510000228881836,9.510000228881836,1543600
2020-02-06,9.529999732971191,9.649999618530273,9.210000038146973,9.34000015258789,9.34000015258789,1552800
2020-02-07,9.319999694824219,9.329999923706055,8.899999618530273,9.069999694824219,9.069999694824219,1281600
2020-02-10,9.010000228881836,9.050000190734863,8.699999809265137,8.760000228881836,8.760000228881836,1521400
2020-02-11,8.770000457763672,9.289999961853027,8.75,9.010000228881836,9.010000228881836,1681600
2020-02-12,9.109999656677246,9.460000038146973,9.050000190734863,9.270000457763672,9.270000457763672,1614100
2020-02-13,9.170000076293945,9.4399995803833,9.149999618530273,9.289999961853027,9.289999961853027,1493100
2020-02-14,9.260000228881836,9.489999771118164,9.1899995803833,9.220000267028809,9.220000267028809,2583200
2020-02-18,9.25,9.380000114440918,9.130000114440918,9.1899995803833,9.1899995803833,1418700
2020-02-19,9.199999809265137,9.369999885559082,9.15999984741211,9.1899995803833,9.1899995803833,1177200
2020-02-20,9.149999618530273,9.5,9.149999618530273,9.430000305175781,9.430000305175781,1843000
2020-02-21,9.420000076293945,9.420000076293945,9.010000228881836,9.09000015258789,9.09000015258789,909200
2020-02-24,8.899999618530273,8.899999618530273,8.399999618530273,8.579999923706055,8.579999923706055,1886700
2020-02-25,8.649999618530273,8.760000228881836,8.149999618530273,8.319999694824219,8.319999694824219,2418700
2020-02-26,8.430000305175781,8.550000190734863,8.0600004196167,8.149999618530273,8.149999618530273,1820800
2020-02-27,7.809999942779541,9.039999961853027,6.800000190734863,8.739999771118164,8.739999771118164,3643200
2020-02-28,8.369999885559082,8.930000305175781,8.289999961853027,8.65999984741211,8.65999984741211,2572500
2020-03-02,8.65999984741211,8.710000038146973,8.1899995803833,8.4399995803833,8.4399995803833,4562300
2020-03-03,8.430000305175781,8.539999961853027,7.96999979019165,8.0600004196167,8.0600004196167,1970700
2020-03-04,8.100000381469727,8.420000076293945,7.869999885559082,8.359999656677246,8.359999656677246,1693300
2020-03-05,8.15999984741211,8.210000038146973,7.849999904632568,7.989999771118164,7.989999771118164,2860000
2020-03-06,7.920000076293945,8.460000038146973,7.840000152587891,7.980000019073486,7.980000019073486,3406400
2020-03-09,7.449999809265137,8.210000038146973,7.340000152587891,8.010000228881836,8.010000228881836,1656300
2020-03-10,8.3100004196167,8.75,7.989999771118164,8.75,8.75,5155800
2020-03-11,8.609999656677246,8.710000038146973,8.279999732971191,8.399999618530273,8.399999618530273,2473900
2020-03-12,7.840000152587891,8.15999984741211,7.170000076293945,7.260000228881836,7.260000228881836,3299600
2020-03-13,7.610000133514404,7.739999771118164,6.769999980926514,7.170000076293945,7.170000076293945,2982200
2020-03-16,6.559999942779541,7.349999904632568,6.400000095367432,7.119999885559082,7.119999885559082,1358500
2020-03-17,7.139999866485596,7.309999942779541,6.53000020980835,6.610000133514404,6.610000133514404,3242700
2020-03-18,6.5,6.659999847412109,5.139999866485596,5.429999828338623,5.429999828338623,2938200
2020-03-19,5.510000228881836,6.809999942779541,5.5,5.960000038146973,5.960000038146973,2225500
2020-03-20,6.010000228881836,6.559999942779541,5.909999847412109,6.190000057220459,6.190000057220459,1505100
2020-03-23,6.210000038146973,6.460000038146973,5.900000095367432,6.409999847412109,6.409999847412109,1476800
2020-03-24,6.869999885559082,6.949999809265137,6.139999866485596,6.300000190734863,6.300000190734863,2054500
2020-03-25,6.340000152587891,6.550000190734863,6.010000228881836,6.380000114440918,6.380000114440918,1538200
2020-03-26,6.420000076293945,6.710000038146973,5.820000171661377,6.039999961853027,6.039999961853027,2825700
2020-03-27,5.929999828338623,6.539999961853027,5.570000171661377,6.5,6.5,1913700
2020-03-30,6.610000133514404,6.730000019073486,6.110000133514404,6.349999904632568,6.349999904632568,1311500
2020-03-31,6.409999847412109,6.829999923706055,6.300000190734863,6.449999809265137,6.449999809265137,1271400
2020-04-01,6.320000171661377,6.760000228881836,5.960000038146973,5.989999771118164,5.989999771118164,1661500
2020-04-02,6.019999980926514,6.239999771118164,5.650000095367432,5.78000020980835,5.78000020980835,1810700
2020-04-03,5.579999923706055,6.059999942779541,5.309999942779541,5.400000095367432,5.400000095367432,2095100
2020-04-06,5.849999904632568,6.119999885559082,5.75,6.099999904632568,6.099999904632568,1494200
2020-04-07,6.309999942779541,6.690000057220459,6.260000228881836,6.380000114440918,6.380000114440918,1794900
2020-04-08,6.510000228881836,7.300000190734863,6.480000019073486,7.21999979019165,7.21999979019165,1440000
2020-04-09,7.309999942779541,7.699999809265137,7.150000095367432,7.269999980926514,7.269999980926514,986200
2020-04-13,7.239999771118164,7.360000133514404,6.860000133514404,7.239999771118164,7.239999771118164,1062200
2020-04-14,7.380000114440918,7.679999828338623,7.340000152587891,7.5,7.5,1445900
2020-04-15,7.25,7.429999828338623,7.099999904632568,7.210000038146973,7.210000038146973,1494000
2020-04-16,7.28000020980835,7.400000095367432,7.059999942779541,7.389999866485596,7.389999866485596,740000
2020-04-17,7.650000095367432,7.789999961853027,7.369999885559082,7.400000095367432,7.400000095367432,928500
2020-04-20,7.300000190734863,7.920000076293945,7.119999885559082,7.730000019073486,7.730000019073486,1047900
2020-04-21,7.559999942779541,7.769999980926514,7.409999847412109,7.519999980926514,7.519999980926514,662700
2020-04-22,7.619999885559082,7.769999980926514,7.519999980926514,7.599999904632568,7.599999904632568,580100
2020-04-23,7.579999923706055,7.789999961853027,7.53000020980835,7.559999942779541,7.559999942779541,676500
2020-04-24,7.559999942779541,7.96999979019165,7.5,7.889999866485596,7.889999866485596,766400
2020-04-27,7.980000019073486,8.550000190734863,7.929999828338623,8.34000015258789,8.34000015258789,1444300
2020-04-28,8.529999732971191,8.800000190734863,8.199999809265137,8.380000114440918,8.380000114440918,1071900
2020-04-29,8.609999656677246,9.220000267028809,8.399999618530273,9.029999732971191,9.029999732971191,1485000
2020-04-30,8.729999542236328,8.949999809265137,8.170000076293945,8.329999923706055,8.329999923706055,1059700
2020-05-01,8.020000457763672,8.5600004196167,8.0,8.529999732971191,8.529999732971191,799900
2020-05-04,8.380000114440918,8.640000343322754,8.199999809265137,8.329999923706055,8.329999923706055,949300
2020-05-05,8.210000038146973,8.920000076293945,8.210000038146973,8.8100004196167,8.8100004196167,1155100
2020-05-06,8.8100004196167,9.270000457763672,8.649999618530273,9.09000015258789,9.09000015258789,1460200
2020-05-07,9.0,9.680000305175781,8.920000076293945,9.1899995803833,9.1899995803833,2687700
2020-05-08,9.25,9.930000305175781,8.920000076293945,9.850000381469727,9.850000381469727,2326400
2020-05-11,9.930000305175781,10.9399995803833,9.739999771118164,10.510000228881836,10.510000228881836,3986000
2020-05-12,12.279999732971191,13.229999542236328,11.859999656677246,12.289999961853027,12.289999961853027,13359300
2020-05-13,12.75,13.6899995803833,12.399999618530273,13.579999923706055,13.579999923706055,8492100
2020-05-14,14.020000457763672,14.199999809265137,12.699999809265137,13.90999984741211,13.90999984741211,7414600
2020-05-15,13.5,14.109999656677246,13.380000114440918,13.720000267028809,13.720000267028809,4752900
2020-05-18,14.0,14.199999809265137,12.229999542236328,12.430000305175781,12.430000305175781,4663300
2020-05-19,12.510000228881836,13.050000190734863,12.3100004196167,12.600000381469727,12.600000381469727,2337900
2020-05-20,12.720000267028809,12.75,11.40999984741211,11.640000343322754,11.640000343322754,4610700
2020-05-21,11.899999618530273,12.4399995803833,11.680000305175781,12.380000114440918,12.380000114440918,3210600
2020-05-22,12.470000267028809,12.5,11.930000305175781,12.300000190734863,12.300000190734863,1959100
2020-05-26,12.449999809265137,12.720000267028809,12.210000038146973,12.5600004196167,12.5600004196167,2716000
2020-05-27,12.539999961853027,12.630000114440918,11.529999732971191,12.40999984741211,12.40999984741211,1987300
2020-05-28,12.390000343322754,12.510000228881836,11.949999809265137,11.989999771118164,11.989999771118164,1668300
2020-05-29,12.0600004196167,12.5,11.960000038146973,12.4399995803833,12.4399995803833,1970000
2020-06-01,12.40999984741211,12.430000305175781,11.90999984741211,12.210000038146973,12.210000038146973,2900700
2020-06-02,12.239999771118164,12.670000076293945,12.0,12.489999771118164,12.489999771118164,2112000
2020-06-03,12.600000381469727,12.600000381469727,11.819999694824219,12.210000038146973,12.210000038146973,2618900
2020-06-04,12.020000457763672,12.4399995803833,11.960000038146973,12.100000381469727,12.100000381469727,2514100
2020-06-05,12.050000190734863,12.489999771118164,12.050000190734863,12.329999923706055,12.329999923706055,2294200
2020-06-08,12.25,12.359999656677246,12.069999694824219,12.229999542236328,12.229999542236328,1728800
2020-06-09,12.130000114440918,12.489999771118164,12.0600004196167,12.25,12.25,2122700
2020-06-10,12.199999809265137,12.489999771118164,12.109999656677246,12.420000076293945,12.420000076293945,1852100
2020-06-11,12.220000267028809,12.489999771118164,11.279999732971191,11.380000114440918,11.380000114440918,2693300
2020-06-12,11.84000015258789,11.920000076293945,11.329999923706055,11.84000015258789,11.84000015258789,2151400
2020-06-15,11.760000228881836,12.489999771118164,11.5600004196167,12.420000076293945,12.420000076293945,1770300
2020-06-16,12.489999771118164,12.510000228881836,12.020000457763672,12.119999885559082,12.119999885559082,1620000
2020-06-17,12.25,12.5,11.930000305175781,11.960000038146973,11.960000038146973,1655700
2020-06-18,11.899999618530273,12.5,11.609999656677246,12.4399995803833,12.4399995803833,2180900
2020-06-19,12.680000305175781,12.850000381469727,12.0600004196167,12.239999771118164,12.239999771118164,4584900
2020-06-22,12.350000381469727,13.600000381469727,12.15999984741211,13.550000190734863,13.550000190734863,4835500
2020-06-23,13.75,13.970000267028809,13.229999542236328,13.449999809265137,13.449999809265137,4155500
2020-06-24,13.289999961853027,13.699999809265137,12.65999984741211,12.920000076293945,12.920000076293945,2518600
2020-06-25,13.0,14.25,12.949999809265137,14.210000038146973,14.210000038146973,5413200
2020-06-26,14.170000076293945,14.6899995803833,13.710000038146973,14.109999656677246,14.109999656677246,12455400
2020-06-29,14.180000305175781,14.5,13.710000038146973,14.239999771118164,14.239999771118164,2845200
2020-06-30,14.25,14.649999618530273,14.020000457763672,14.4399995803833,14.4399995803833,3574600
2020-07-01,14.569999694824219,15.109999656677246,14.430000305175781,14.979999542236328,14.979999542236328,3205000
2020-07-02,15.100000381469727,15.180000305175781,14.319999694824219,14.369999885559082,14.369999885559082,2576400
2020-07-06,14.609999656677246,14.859999656677246,14.420000076293945,14.4399995803833,14.4399995803833,1302300
2020-07-07,14.380000114440918,14.880000114440918,14.229999542236328,14.819999694824219,14.819999694824219,1734200
2020-07-08,14.90999984741211,15.239999771118164,14.859999656677246,15.130000114440918,15.130000114440918,2396200
2020-07-09,15.34000015258789,16.790000915527344,15.170000076293945,16.40999984741211,16.40999984741211,7549000
2020-07-10,16.5,16.59000015258789,15.649999618530273,16.079999923706055,16.079999923706055,2711400
2020-07-13,16.3799991607666,16.459999084472656,14.470000267028809,14.5600004196167,14.5600004196167,3212200
2020-07-14,14.100000381469727,14.680000305175781,13.529999732971191,13.869999885559082,13.869999885559082,3174900
2020-07-15,14.279999732971191,14.329999923706055,13.789999961853027,13.979999542236328,13.979999542236328,2174400
2020-07-16,13.84000015258789,14.0600004196167,13.609999656677246,13.789999961853027,13.789999961853027,1554900
2020-07-17,13.9399995803833,14.079999923706055,13.729999542236328,13.9399995803833,13.9399995803833,1556000
2020-07-20,14.180000305175781,14.720000267028809,13.989999771118164,14.699999809265137,14.699999809265137,2426000
2020-07-21,14.789999961853027,14.800000190734863,14.119999885559082,14.15999984741211,14.15999984741211,1658500
2020-07-22,14.229999542236328,14.369999885559082,13.9399995803833,14.09000015258789,14.09000015258789,1235700
2020-07-23,14.079999923706055,14.260000228881836,13.520000457763672,13.6899995803833,13.6899995803833,1094600
2020-07-24,13.489999771118164,13.550000190734863,12.960000038146973,13.399999618530273,13.399999618530273,2243100
2020-07-27,13.539999961853027,14.119999885559082,13.539999961853027,14.069999694824219,14.069999694824219,2603200
2020-07-28,14.079999923706055,14.479999542236328,13.920000076293945,14.029999732971191,14.029999732971191,1952700
2020-07-29,14.119999885559082,14.5,14.010000228881836,14.420000076293945,14.420000076293945,1300700
2020-07-30,14.1899995803833,14.989999771118164,13.800000190734863,14.869999885559082,14.869999885559082,1825100
2020-07-31,15.079999923706055,15.079999923706055,14.260000228881836,15.020000457763672,15.020000457763672,1777400
2020-08-03,15.34000015258789,17.030000686645508,15.329999923706055,16.81999969482422,16.81999969482422,5303100
2020-08-04,17.010000228881836,17.59000015258789,16.450000762939453,17.510000228881836,17.510000228881836,5524600
2020-08-05,16.170000076293945,16.829999923706055,14.770000457763672,15.09000015258789,15.09000015258789,6996100
2020-08-06,15.149999618530273,15.1899995803833,13.760000228881836,13.920000076293945,13.920000076293945,5166400
2020-08-07,14.640000343322754,14.979999542236328,14.34000015258789,14.859999656677246,14.859999656677246,4302100
2020-08-10,15.0,15.09000015258789,14.100000381469727,14.479999542236328,14.479999542236328,2583200
2020-08-11,14.119999885559082,14.40999984741211,13.720000267028809,13.949999809265137,13.949999809265137,2618600
2020-08-12,14.449999809265137,14.800000190734863,14.130000114440918,14.65999984741211,14.65999984741211,3152000
2020-08-13,14.699999809265137,15.109999656677246,14.170000076293945,15.010000228881836,15.010000228881836,2746200
2020-08-14,15.0600004196167,15.100000381469727,14.710000038146973,14.789999961853027,14.789999961853027,1249600
2020-08-17,14.949999809265137,15.170000076293945,14.59000015258789,14.989999771118164,14.989999771118164,2174700
2020-08-18,15.039999961853027,15.170000076293945,14.649999618530273,14.979999542236328,14.979999542236328,1566000
2020-08-19,14.850000381469727,15.039999961853027,14.539999961853027,14.850000381469727,14.850000381469727,1428700
2020-08-20,14.779999732971191,15.529999732971191,14.699999809265137,15.449999809265137,15.449999809265137,1909000
2020-08-21,15.3100004196167,15.470000267028809,14.710000038146973,14.75,14.75,1967000
2020-08-24,14.880000114440918,14.90999984741211,13.899999618530273,14.180000305175781,14.180000305175781,3220000
2020-08-25,14.279999732971191,14.550000190734863,13.920000076293945,14.510000228881836,14.510000228881836,2941800
2020-08-26,14.600000381469727,14.949999809265137,14.449999809265137,14.670000076293945,14.670000076293945,1468000
2020-08-27,14.800000190734863,14.9399995803833,14.529999732971191,14.729999542236328,14.729999542236328,1610600
2020-08-28,14.649999618530273,15.329999923706055,14.640000343322754,15.050000190734863,15.050000190734863,2079500
2020-08-31,15.180000305175781,15.329999923706055,14.819999694824219,15.229999542236328,15.229999542236328,2289700
2020-09-01,15.399999618530273,16.31999969482422,15.260000228881836,15.289999961853027,15.289999961853027,3748300
2020-09-02,15.329999923706055,15.539999961853027,14.15999984741211,15.479999542236328,15.479999542236328,2765100
2020-09-03,15.239999771118164,15.289999961853027,14.34000015258789,14.630000114440918,14.630000114440918,1923800
2020-09-04,14.430000305175781,14.670000076293945,13.09000015258789,13.949999809265137,13.949999809265137,2431200
2020-09-08,13.5,14.779999732971191,13.460000038146973,14.399999618530273,14.399999618530273,1911900
2020-09-09,14.520000457763672,15.130000114440918,14.460000038146973,15.0600004196167,15.0600004196167,1739700
2020-09-10,15.100000381469727,15.699999809265137,14.920000076293945,15.010000228881836,15.010000228881836,2437300
2020-09-11,15.149999618530273,15.319999694824219,14.800000190734863,15.09000015258789,15.09000015258789,1345300
2020-09-14,15.25,15.550000190734863,14.739999771118164,14.970000267028809,14.970000267028809,1496400
2020-09-15,15.100000381469727,15.130000114440918,14.770000457763672,14.920000076293945,14.920000076293945,1256100
2020-09-16,14.930000305175781,15.640000343322754,14.850000381469727,15.420000076293945,15.420000076293945,2205600
2020-09-17,15.170000076293945,15.319999694824219,14.949999809265137,15.260000228881836,15.260000228881836,1595200
2020-09-18,15.380000114440918,15.380000114440918,15.039999961853027,15.350000381469727,15.350000381469727,2781500
2020-09-21,15.289999961853027,15.40999984741211,14.970000267028809,15.40999984741211,15.40999984741211,1587400
2020-09-22,15.5600004196167,15.779999732971191,15.029999732971191,15.75,15.75,1808600
2020-09-23,15.779999732971191,16.450000762939453,15.539999961853027,15.819999694824219,15.819999694824219,2488500
2020-09-24,15.430000305175781,15.640000343322754,14.829999923706055,15.229999542236328,15.229999542236328,2292800
2020-09-25,15.220000267028809,16.739999771118164,15.220000267028809,16.700000762939453,16.700000762939453,3234800
2020-09-28,16.950000762939453,17.149999618530273,16.270000457763672,16.59000015258789,16.59000015258789,1878200
2020-09-29,16.709999084472656,17.200000762939453,16.219999313354492,17.1299991607666,17.1299991607666,2007400
2020-09-30,17.1200008392334,17.799999237060547,17.1200008392334,17.440000534057617,17.440000534057617,2331400
2020-10-01,17.780000686645508,18.850000381469727,17.610000610351562,18.68000030517578,18.68000030517578,4140700
2020-10-02,17.969999313354492,19.18000030517578,17.829999923706055,18.84000015258789,18.84000015258789,3463300
2020-10-05,19.170000076293945,19.34000015258789,18.520000457763672,18.850000381469727,18.850000381469727,1746600
2020-10-06,19.25,19.43000030517578,18.670000076293945,18.84000015258789,18.84000015258789,2151800
2020-10-07,19.079999923706055,19.639999389648438,18.799999237060547,19.540000915527344,19.540000915527344,1582800
2020-10-08,19.829999923706055,20.6299991607666,19.780000686645508,19.8700008392334,19.8700008392334,2460700
2020-10-09,20.0,20.40999984741211,19.559999465942383,20.209999084472656,20.209999084472656,1428800
2020-10-12,20.170000076293945,20.489999771118164,19.93000030517578,20.010000228881836,20.010000228881836,1538400
2020-10-13,20.010000228881836,20.68000030517578,19.850000381469727,20.549999237060547,20.549999237060547,1809500
2020-10-14,20.829999923706055,21.09000015258789,20.450000762939453,20.690000534057617,20.690000534057617,1761900
2020-10-15,20.399999618530273,20.639999389648438,20.040000915527344,20.200000762939453,20.200000762939453,1332100
2020-10-16,20.3799991607666,20.709999084472656,20.059999465942383,20.079999923706055,20.079999923706055,1053500
2020-10-19,20.34000015258789,21.299999237060547,20.229999542236328,20.68000030517578,20.68000030517578,1567200
2020-10-20,20.920000076293945,21.100000381469727,20.5,20.610000610351562,20.610000610351562,1120200
2020-10-21,20.790000915527344,20.899999618530273,19.719999313354492,19.75,19.75,1599400
2020-10-22,19.719999313354492,20.170000076293945,19.43000030517578,19.93000030517578,19.93000030517578,1145900
2020-10-23,20.030000686645508,20.139999389648438,19.559999465942383,19.719999313354492,19.719999313354492,2002300
2020-10-26,19.739999771118164,19.889999389648438,18.780000686645508,18.989999771118164,18.989999771118164,1549000
2020-10-27,19.049999237060547,19.540000915527344,19.049999237060547,19.200000762939453,19.200000762939453,917900
2020-10-28,18.649999618530273,19.25,18.200000762939453,19.100000381469727,19.100000381469727,1974700
2020-10-29,19.309999465942383,19.350000381469727,18.68000030517578,18.899999618530273,18.899999618530273,1188500
2020-10-30,18.770000457763672,18.84000015258789,18.239999771118164,18.450000762939453,18.450000762939453,1713900
2020-11-02,18.440000534057617,18.989999771118164,18.329999923706055,18.84000015258789,18.84000015258789,1120600
2020-11-03,18.809999465942383,19.940000534057617,18.700000762939453,19.610000610351562,19.610000610351562,1625300
2020-11-04,19.989999771118164,20.700000762939453,19.510000228881836,20.219999313354492,20.219999313354492,3673900
2020-11-05,25.8700008392334,30.950000762939453,25.520000457763672,29.030000686645508,29.030000686645508,20489400
2020-11-06,28.6200008392334,29.40999984741211,27.040000915527344,29.260000228881836,29.260000228881836,5568500
2020-11-09,27.09000015258789,28.780000686645508,25.0,27.979999542236328,27.979999542236328,5191600
2020-11-10,28.420000076293945,28.469999313354492,25.440000534057617,27.139999389648438,27.139999389648438,2460400
2020-11-11,27.649999618530273,31.020000457763672,27.219999313354492,30.989999771118164,30.989999771118164,4435300
2020-11-12,30.81999969482422,31.350000381469727,30.010000228881836,30.670000076293945,30.670000076293945,2871900
2020-11-13,30.670000076293945,31.399999618530273,30.010000228881836,30.84000015258789,30.84000015258789,1629700
2020-11-16,30.149999618530273,33.43000030517578,30.0,33.08000183105469,33.08000183105469,5151800
2020-11-17,33.13999938964844,34.959999084472656,32.59000015258789,34.54999923706055,34.54999923706055,2837800
2020-11-18,35.20000076293945,35.47999954223633,33.5,33.84000015258789,33.84000015258789,3820000
2020-11-19,33.869998931884766,35.61000061035156,33.61000061035156,34.810001373291016,34.810001373291016,3140100
2020-11-20,35.29999923706055,36.2400016784668,34.779998779296875,35.529998779296875,35.529998779296875,2671600
2020-11-23,35.5099983215332,36.65999984741211,34.650001525878906,35.04999923706055,35.04999923706055,2450100
2020-11-24,35.04999923706055,36.18000030517578,34.0,34.959999084472656,34.959999084472656,1870300
2020-11-25,34.88999938964844,35.439998626708984,33.95000076293945,34.33000183105469,34.33000183105469,1619000
2020-11-27,34.529998779296875,35.880001068115234,34.529998779296875,34.86000061035156,34.86000061035156,1082500
2020-11-30,34.7599983215332,34.91999816894531,32.06999969482422,32.720001220703125,32.720001220703125,2825100
2020-12-01,33.349998474121094,33.5,31.649999618530273,31.860000610351562,31.860000610351562,2047600
2020-12-02,31.25,33.06999969482422,30.40999984741211,32.709999084472656,32.709999084472656,1745200
2020-12-03,32.790000915527344,33.439998626708984,32.02000045776367,32.20000076293945,32.20000076293945,1251900
2020-12-04,32.41999816894531,32.849998474121094,31.65999984741211,31.969999313354492,31.969999313354492,1301500
2020-12-07,31.860000610351562,35.0,31.670000076293945,32.88999938964844,32.88999938964844,2592900
2020-12-08,33.06999969482422,36.689998626708984,33.0,35.70000076293945,35.70000076293945,3080800
2020-12-09,36.790000915527344,37.18000030517578,33.33000183105469,33.75,33.75,2514800
2020-12-10,33.209999084472656,34.72999954223633,32.599998474121094,34.369998931884766,34.369998931884766,1600000
2020-12-11,34.45000076293945,36.29999923706055,34.31999969482422,34.970001220703125,34.970001220703125,1674200
2020-12-14,35.5,36.58000183105469,35.150001525878906,35.68000030517578,35.68000030517578,1556000
2020-12-15,36.11000061035156,38.599998474121094,35.720001220703125,37.779998779296875,37.779998779296875,2733800
2020-12-16,37.459999084472656,37.939998626708984,36.279998779296875,37.33000183105469,37.33000183105469,1923800
2020-12-17,37.83000183105469,39.77000045776367,37.13999938964844,38.540000915527344,38.540000915527344,2459500
2020-12-18,39.36000061035156,40.47999954223633,38.119998931884766,40.209999084472656,40.209999084472656,3679900
2020-12-21,39.59000015258789,40.97999954223633,39.189998626708984,40.4900016784668,40.4900016784668,2547400
2020-12-22,40.599998474121094,41.41999816894531,39.209999084472656,39.900001525878906,39.900001525878906,1617100
2020-12-23,39.779998779296875,39.939998626708984,38.209999084472656,38.43000030517578,38.43000030517578,1528200
2020-12-24,38.79999923706055,39.41999816894531,37.61000061035156,37.79999923706055,37.79999923706055,605500
2020-12-28,38.54999923706055,39.0099983215332,36.2400016784668,36.459999084472656,36.459999084472656,1894100
2020-12-29,36.93000030517578,37.43000030517578,35.41999816894531,35.869998931884766,35.869998931884766,1334200
2020-12-30,35.81999969482422,37.08000183105469,35.5099983215332,36.650001525878906,36.650001525878906,1368600
