Date,Open,High,Low,Close,Adj Close,Volume
2017-05-04,13.289999961853027,14.180000305175781,13.010000228881836,13.979999542236328,13.979999542236328,1407500
2017-05-05,14.079999923706055,14.699999809265137,14.0,14.0,14.0,134200
2017-05-08,14.550000190734863,15.9399995803833,14.119000434875488,15.9399995803833,15.9399995803833,229600
2017-05-09,16.139999389648438,16.899999618530273,15.069999694824219,16.40999984741211,16.40999984741211,127500
2017-05-10,16.219999313354492,17.15999984741211,16.219999313354492,16.860000610351562,16.860000610351562,91300
2017-05-11,17.469999313354492,17.469999313354492,16.01099967956543,16.940000534057617,16.940000534057617,60800
2017-05-12,17.239999771118164,17.239999771118164,14.25,16.399999618530273,16.399999618530273,65200
2017-05-15,16.5,17.040000915527344,15.869999885559082,16.989999771118164,16.989999771118164,26300
2017-05-16,17.25,17.25,16.34600067138672,17.1299991607666,17.1299991607666,98300
2017-05-17,16.920000076293945,17.219999313354492,16.3799991607666,16.43000030517578,16.43000030517578,17400
2017-05-18,16.889999389648438,18.0,16.5,18.0,18.0,46600
2017-05-19,17.899999618530273,19.260000228881836,17.729999542236328,18.850000381469727,18.850000381469727,59000
2017-05-22,19.190000534057617,20.020000457763672,18.010000228881836,18.899999618530273,18.899999618530273,44500
2017-05-23,19.871000289916992,19.871000289916992,18.5,18.549999237060547,18.549999237060547,13000
2017-05-24,19.0,19.0,18.030000686645508,18.700000762939453,18.700000762939453,9300
2017-05-25,18.799999237060547,18.801000595092773,18.020000457763672,18.40999984741211,18.40999984741211,13900
2017-05-26,18.40999984741211,18.479999542236328,17.8799991607666,18.479999542236328,18.479999542236328,41100
2017-05-30,18.75,19.670000076293945,18.5,18.93000030517578,18.93000030517578,86400
2017-05-31,19.799999237060547,19.799999237060547,17.389999389648438,17.850000381469727,17.850000381469727,54900
2017-06-01,17.899999618530273,18.600000381469727,17.200000762939453,18.600000381469727,18.600000381469727,109000
2017-06-02,18.93000030517578,19.3799991607666,18.350000381469727,18.639999389648438,18.639999389648438,35200
2017-06-05,18.510000228881836,18.649999618530273,18.200000762939453,18.5,18.5,8800
2017-06-06,17.860000610351562,18.24799919128418,17.850000381469727,17.850000381469727,17.850000381469727,10800
2017-06-07,17.5,18.0,17.5,17.889999389648438,17.889999389648438,35600
2017-06-08,18.18000030517578,18.224000930786133,17.5,17.510000228881836,17.510000228881836,10300
2017-06-09,17.780000686645508,17.989999771118164,16.1299991607666,16.399999618530273,16.399999618530273,20800
2017-06-12,16.350000381469727,16.68000030517578,15.75,16.360000610351562,16.360000610351562,18200
2017-06-13,16.200000762939453,16.5,15.5649995803833,16.209999084472656,16.209999084472656,50400
2017-06-14,16.110000610351562,16.25,14.520000457763672,15.720000267028809,15.720000267028809,91400
2017-06-15,15.600000381469727,16.527999877929688,14.869999885559082,15.130000114440918,15.130000114440918,28200
2017-06-16,15.380000114440918,15.84000015258789,14.609999656677246,15.609999656677246,15.609999656677246,68100
2017-06-19,15.800000190734863,15.899999618530273,15.369999885559082,15.630000114440918,15.630000114440918,27800
2017-06-20,16.010000228881836,16.010000228881836,15.25,15.890000343322754,15.890000343322754,34000
2017-06-21,15.8100004196167,17.489999771118164,15.8100004196167,17.450000762939453,17.450000762939453,40500
2017-06-22,17.31999969482422,17.8700008392334,17.209999084472656,17.670000076293945,17.670000076293945,10200
2017-06-23,17.479999542236328,17.8799991607666,15.5600004196167,17.399999618530273,17.399999618530273,13700
2017-06-26,17.40999984741211,19.48900032043457,17.40999984741211,19.43000030517578,19.43000030517578,53700
2017-06-27,19.25,20.010000228881836,17.260000228881836,19.799999237060547,19.799999237060547,116900
2017-06-28,19.850000381469727,19.850000381469727,19.299999237060547,19.549999237060547,19.549999237060547,8800
2017-06-29,19.329999923706055,19.399999618530273,18.399999618530273,18.8799991607666,18.8799991607666,19700
2017-06-30,18.709999084472656,18.8700008392334,17.559999465942383,18.059999465942383,18.059999465942383,21400
2017-07-03,17.600000381469727,18.899999618530273,17.600000381469727,18.735000610351562,18.735000610351562,34800
2017-07-05,18.479999542236328,19.190000534057617,18.011999130249023,18.5,18.5,27100
2017-07-06,18.40999984741211,19.0,18.40999984741211,18.75,18.75,4100
2017-07-07,18.219999313354492,19.440000534057617,17.915000915527344,19.34000015258789,19.34000015258789,32000
2017-07-10,19.540000915527344,19.687999725341797,18.450000762939453,18.899999618530273,18.899999618530273,45600
2017-07-11,18.899999618530273,19.459999084472656,18.690000534057617,18.850000381469727,18.850000381469727,37800
2017-07-12,18.5,18.700000762939453,18.01099967956543,18.350000381469727,18.350000381469727,27600
2017-07-13,18.714000701904297,19.0,18.084999084472656,18.469999313354492,18.469999313354492,36800
2017-07-14,18.299999237060547,18.299999237060547,17.579999923706055,17.700000762939453,17.700000762939453,29900
2017-07-17,17.655000686645508,18.32900047302246,17.655000686645508,18.0,18.0,22800
2017-07-18,18.0,18.0,17.770000457763672,17.799999237060547,17.799999237060547,2300
2017-07-19,17.639999389648438,18.155000686645508,17.639999389648438,18.1200008392334,18.1200008392334,19800
2017-07-20,18.25,19.5,18.040000915527344,18.389999389648438,18.389999389648438,41300
2017-07-21,18.200000762939453,18.68600082397461,18.010000228881836,18.010000228881836,18.010000228881836,22300
2017-07-24,17.850000381469727,19.0,17.850000381469727,18.700000762939453,18.700000762939453,263000
2017-07-25,18.809999465942383,19.149999618530273,18.520000457763672,18.989999771118164,18.989999771118164,249400
2017-07-26,19.149999618530273,19.5,18.450000762939453,18.799999237060547,18.799999237060547,102000
2017-07-27,18.700000762939453,19.450000762939453,18.200000762939453,18.399999618530273,18.399999618530273,13500
2017-07-28,18.270000457763672,19.299999237060547,18.270000457763672,18.875,18.875,31500
2017-07-31,18.799999237060547,18.799999237060547,17.760000228881836,18.15999984741211,18.15999984741211,30600
2017-08-01,18.059999465942383,18.139999389648438,17.540000915527344,17.75,17.75,19100
2017-08-02,17.610000610351562,18.020000457763672,17.06999969482422,17.739999771118164,17.739999771118164,25400
2017-08-03,17.889999389648438,18.70800018310547,17.850000381469727,18.6299991607666,18.6299991607666,93100
2017-08-04,18.6299991607666,19.25,18.0,18.530000686645508,18.530000686645508,52700
2017-08-07,18.1200008392334,18.860000610351562,17.43000030517578,18.799999237060547,18.799999237060547,11400
2017-08-08,18.709999084472656,18.709999084472656,18.040000915527344,18.200000762939453,18.200000762939453,20000
2017-08-09,18.0,18.670000076293945,17.399999618530273,18.040000915527344,18.040000915527344,49500
2017-08-10,18.049999237060547,18.299999237060547,17.5,17.670000076293945,17.670000076293945,29300
2017-08-11,17.40999984741211,19.0,17.350000381469727,17.885000228881836,17.885000228881836,13800
2017-08-14,18.0,18.5,17.389999389648438,18.420000076293945,18.420000076293945,13600
2017-08-15,17.729999542236328,18.450000762939453,17.510000228881836,17.899999618530273,17.899999618530273,34600
2017-08-16,17.690000534057617,18.020000457763672,17.415000915527344,17.6200008392334,17.6200008392334,25900
2017-08-17,17.760000228881836,17.959999084472656,17.46500015258789,17.579999923706055,17.579999923706055,9200
2017-08-18,17.450000762939453,17.639999389648438,17.209999084472656,17.510000228881836,17.510000228881836,10100
2017-08-21,17.100000381469727,17.40999984741211,17.100000381469727,17.149999618530273,17.149999618530273,7400
2017-08-22,17.31999969482422,17.719999313354492,17.209999084472656,17.719999313354492,17.719999313354492,4200
2017-08-23,17.75,17.989999771118164,17.420000076293945,17.950000762939453,17.950000762939453,8600
2017-08-24,18.049999237060547,18.05299949645996,17.139999389648438,17.3700008392334,17.3700008392334,29700
2017-08-25,17.350000381469727,17.889999389648438,17.274999618530273,17.469999313354492,17.469999313354492,28300
2017-08-28,17.867000579833984,18.489999771118164,17.459999084472656,18.040000915527344,18.040000915527344,36500
2017-08-29,18.5,19.945999145507812,18.18000030517578,19.350000381469727,19.350000381469727,92700
2017-08-30,19.729999542236328,22.389999389648438,19.59000015258789,21.65999984741211,21.65999984741211,182500
2017-08-31,24.739999771118164,25.149999618530273,22.952999114990234,23.850000381469727,23.850000381469727,201000
2017-09-01,26.75,28.6200008392334,23.3700008392334,25.290000915527344,25.290000915527344,163800
2017-09-05,25.75,25.889999389648438,23.790000915527344,25.68000030517578,25.68000030517578,84800
2017-09-06,26.0,27.540000915527344,25.719999313354492,27.0,27.0,43400
2017-09-07,27.850000381469727,29.89299964904785,27.290000915527344,28.479999542236328,28.479999542236328,132900
2017-09-08,28.84000015258789,28.93000030517578,27.020000457763672,27.850000381469727,27.850000381469727,67800
2017-09-11,28.610000610351562,28.850000381469727,27.56599998474121,28.239999771118164,28.239999771118164,24300
2017-09-12,28.200000762939453,28.780000686645508,27.600000381469727,28.530000686645508,28.530000686645508,20900
2017-09-13,28.790000915527344,31.690000534057617,28.790000915527344,30.59000015258789,30.59000015258789,92700
2017-09-14,31.3700008392334,32.95000076293945,30.010000228881836,32.720001220703125,32.720001220703125,98000
2017-09-15,33.290000915527344,33.76900100708008,31.770000457763672,32.689998626708984,32.689998626708984,62400
2017-09-18,33.22999954223633,33.22999954223633,31.700000762939453,32.130001068115234,32.130001068115234,53100
2017-09-19,32.29999923706055,32.29999923706055,30.139999389648438,31.920000076293945,31.920000076293945,102000
2017-09-20,32.25,32.25,29.18000030517578,30.059999465942383,30.059999465942383,95900
2017-09-21,29.809999465942383,29.809999465942383,28.190000534057617,29.510000228881836,29.510000228881836,34600
2017-09-22,29.309999465942383,30.979999542236328,29.309999465942383,30.489999771118164,30.489999771118164,26400
2017-09-25,29.959999084472656,31.93000030517578,29.959999084472656,31.049999237060547,31.049999237060547,24800
2017-09-26,31.5,32.48899841308594,30.200000762939453,31.18000030517578,31.18000030517578,38500
2017-09-27,31.200000762939453,31.670000076293945,30.309999465942383,30.700000762939453,30.700000762939453,21600
2017-09-28,31.010000228881836,32.933998107910156,30.510000228881836,32.43000030517578,32.43000030517578,36800
2017-09-29,32.720001220703125,33.70000076293945,31.520000457763672,31.520000457763672,31.520000457763672,40700
2017-10-02,31.290000915527344,33.16999816894531,31.290000915527344,32.16999816894531,32.16999816894531,16300
2017-10-03,32.66999816894531,32.95000076293945,31.56999969482422,31.969999313354492,31.969999313354492,27900
2017-10-04,32.15999984741211,32.70000076293945,30.211000442504883,30.8799991607666,30.8799991607666,34600
2017-10-05,30.68000030517578,32.23899841308594,30.40999984741211,30.459999084472656,30.459999084472656,12600
2017-10-06,30.299999237060547,30.68000030517578,28.94099998474121,29.360000610351562,29.360000610351562,39700
2017-10-09,29.1299991607666,31.950000762939453,29.1299991607666,29.799999237060547,29.799999237060547,52100
2017-10-10,30.350000381469727,30.350000381469727,29.5,30.190000534057617,30.190000534057617,14500
2017-10-11,30.100000381469727,30.940000534057617,29.69499969482422,30.75,30.75,15600
2017-10-12,30.6299991607666,30.739999771118164,29.299999237060547,29.8700008392334,29.8700008392334,11200
2017-10-13,29.809999465942383,29.940000534057617,29.0,29.0,29.0,17300
2017-10-16,29.459999084472656,29.920000076293945,28.75,28.940000534057617,28.940000534057617,17600
2017-10-17,28.8799991607666,29.290000915527344,28.75,28.860000610351562,28.860000610351562,11900
2017-10-18,29.209999084472656,29.711999893188477,27.777999877929688,27.93000030517578,27.93000030517578,35000
2017-10-19,27.34000015258789,27.920000076293945,26.76099967956543,27.459999084472656,27.459999084472656,27100
2017-10-20,27.5,27.590999603271484,26.770000457763672,27.280000686645508,27.280000686645508,20000
2017-10-23,27.450000762939453,27.75,25.55699920654297,27.34000015258789,27.34000015258789,64500
2017-10-24,27.3799991607666,30.389999389648438,27.010000228881836,29.450000762939453,29.450000762939453,52100
2017-10-25,30.280000686645508,30.280000686645508,27.559999465942383,28.549999237060547,28.549999237060547,38600
2017-10-26,28.290000915527344,28.290000915527344,26.5,27.549999237060547,27.549999237060547,36800
2017-10-27,27.6299991607666,28.850000381469727,26.520000457763672,28.420000076293945,28.420000076293945,20500
2017-10-30,28.399999618530273,32.0,28.399999618530273,30.65999984741211,30.65999984741211,52700
2017-10-31,30.65999984741211,32.79999923706055,26.5,31.729999542236328,31.729999542236328,154500
2017-11-01,31.700000762939453,32.220001220703125,29.719999313354492,32.08000183105469,32.08000183105469,136200
2017-11-02,31.68000030517578,33.979000091552734,31.530000686645508,33.790000915527344,33.790000915527344,58500
2017-11-03,33.90999984741211,38.380001068115234,33.810001373291016,36.81999969482422,36.81999969482422,157400
2017-11-06,36.79999923706055,37.36000061035156,31.600000381469727,36.81999969482422,36.81999969482422,378700
2017-11-07,36.79999923706055,37.439998626708984,35.5,37.150001525878906,37.150001525878906,235300
2017-11-08,37.72999954223633,38.560001373291016,36.7400016784668,38.20000076293945,38.20000076293945,355400
2017-11-09,38.25,39.0,37.27000045776367,38.2599983215332,38.2599983215332,141400
2017-11-10,38.54999923706055,41.400001525878906,38.2400016784668,41.040000915527344,41.040000915527344,150900
2017-11-13,41.5099983215332,44.630001068115234,41.369998931884766,43.2599983215332,43.2599983215332,154800
2017-11-14,43.5,43.5,41.04999923706055,42.18000030517578,42.18000030517578,127100
2017-11-15,41.099998474121094,42.20000076293945,39.52000045776367,41.560001373291016,41.560001373291016,116800
2017-11-16,41.0,41.689998626708984,39.814998626708984,40.25,40.25,276100
2017-11-17,39.689998626708984,42.15999984741211,39.689998626708984,41.0,41.0,176300
2017-11-20,39.65999984741211,42.672000885009766,39.650001525878906,41.79999923706055,41.79999923706055,349600
2017-11-21,41.5,41.849998474121094,40.5,40.90999984741211,40.90999984741211,115400
2017-11-22,40.900001525878906,40.93000030517578,40.130001068115234,40.18000030517578,40.18000030517578,113800
2017-11-24,40.29999923706055,41.88999938964844,40.11000061035156,40.939998626708984,40.939998626708984,46300
2017-11-27,42.0,42.59000015258789,40.56999969482422,40.779998779296875,40.779998779296875,164400
2017-11-28,40.95000076293945,41.0099983215332,40.18000030517578,40.43000030517578,40.43000030517578,402400
2017-11-29,40.25,40.5,39.5,40.11000061035156,40.11000061035156,81800
2017-11-30,40.130001068115234,40.599998474121094,40.029998779296875,40.369998931884766,40.369998931884766,187100
2017-12-01,40.150001525878906,40.47999954223633,38.900001525878906,39.650001525878906,39.650001525878906,86200
2017-12-04,40.310001373291016,41.25,39.720001220703125,40.43000030517578,40.43000030517578,212300
2017-12-05,40.220001220703125,40.77000045776367,37.619998931884766,38.61000061035156,38.61000061035156,109900
2017-12-06,38.029998779296875,38.93000030517578,37.5,37.54999923706055,37.54999923706055,98300
2017-12-07,37.5099983215332,40.0,37.5099983215332,39.2599983215332,39.2599983215332,62200
2017-12-08,39.380001068115234,39.380001068115234,38.209999084472656,38.459999084472656,38.459999084472656,33500
2017-12-11,38.95000076293945,39.4900016784668,37.27000045776367,37.709999084472656,37.709999084472656,150600
2017-12-12,37.38999938964844,38.95000076293945,37.38999938964844,38.54999923706055,38.54999923706055,203400
2017-12-13,38.58000183105469,38.58000183105469,36.72999954223633,36.79999923706055,36.79999923706055,137800
2017-12-14,36.849998474121094,37.900001525878906,36.65999984741211,37.099998474121094,37.099998474121094,83700
2017-12-15,37.279998779296875,38.0,37.11000061035156,37.939998626708984,37.939998626708984,79900
2017-12-18,38.47999954223633,39.93000030517578,38.060001373291016,39.779998779296875,39.779998779296875,191600
2017-12-19,39.599998474121094,39.79999923706055,38.060001373291016,38.529998779296875,38.529998779296875,41800
2017-12-20,38.119998931884766,38.400001525878906,37.63999938964844,37.869998931884766,37.869998931884766,23200
2017-12-21,37.189998626708984,39.5,37.189998626708984,38.4900016784668,38.4900016784668,133500
2017-12-22,38.40999984741211,38.779998779296875,37.7400016784668,38.77000045776367,38.77000045776367,27600
2017-12-26,38.61000061035156,38.68000030517578,37.189998626708984,37.58000183105469,37.58000183105469,163800
2017-12-27,37.5,38.5,37.29999923706055,38.34000015258789,38.34000015258789,135200
2017-12-28,38.5,38.71500015258789,37.709999084472656,38.25,38.25,39500
2017-12-29,38.439998626708984,38.439998626708984,37.209999084472656,37.209999084472656,37.209999084472656,51700
2018-01-02,38.31999969482422,39.45500183105469,37.529998779296875,38.63999938964844,38.63999938964844,96900
2018-01-03,39.08000183105469,46.68000030517578,39.08000183105469,44.58000183105469,44.58000183105469,268800
2018-01-04,44.59000015258789,44.59000015258789,41.560001373291016,42.849998474121094,42.849998474121094,141600
2018-01-05,42.5,46.07500076293945,41.650001525878906,43.970001220703125,43.970001220703125,98700
2018-01-08,44.79999923706055,44.849998474121094,41.95000076293945,43.0,43.0,83100
2018-01-09,43.5,44.672000885009766,42.74100112915039,43.439998626708984,43.439998626708984,25800
2018-01-10,43.16999816894531,44.20000076293945,42.15800094604492,43.66999816894531,43.66999816894531,20200
2018-01-11,44.029998779296875,44.88999938964844,43.630001068115234,44.02000045776367,44.02000045776367,45600
2018-01-12,44.02000045776367,45.18000030517578,43.35100173950195,44.15999984741211,44.15999984741211,28200
2018-01-16,44.470001220703125,46.505001068115234,43.97999954223633,45.04999923706055,45.04999923706055,155100
2018-01-17,44.0,44.25,42.5,43.2599983215332,43.2599983215332,171900
2018-01-18,42.91999816894531,43.98899841308594,40.97999954223633,42.459999084472656,42.459999084472656,155500
2018-01-19,43.119998931884766,43.400001525878906,41.5,43.0,43.0,622700
2018-01-22,43.150001525878906,51.380001068115234,43.150001525878906,50.02000045776367,50.02000045776367,474500
2018-01-23,50.0,50.0,48.430999755859375,49.099998474121094,49.099998474121094,192800
2018-01-24,48.61000061035156,51.242000579833984,47.810001373291016,50.400001525878906,50.400001525878906,145400
2018-01-25,50.63999938964844,56.55500030517578,50.63999938964844,55.470001220703125,55.470001220703125,195200
2018-01-26,54.43000030517578,55.45600128173828,52.0,53.84000015258789,53.84000015258789,190000
2018-01-29,53.869998931884766,54.619998931884766,50.560001373291016,50.779998779296875,50.779998779296875,153100
2018-01-30,50.0,52.0,48.5,49.7599983215332,49.7599983215332,135500
2018-01-31,51.029998779296875,53.50600051879883,48.61000061035156,49.119998931884766,49.119998931884766,83000
2018-02-01,49.189998626708984,50.68000030517578,49.08000183105469,49.90999984741211,49.90999984741211,70900
2018-02-02,49.310001373291016,49.604000091552734,47.599998474121094,48.18000030517578,48.18000030517578,54800
2018-02-05,47.06999969482422,48.06999969482422,44.630001068115234,45.220001220703125,45.220001220703125,74200
2018-02-06,44.959999084472656,51.11000061035156,44.150001525878906,51.0,51.0,209700
2018-02-07,50.91999816894531,51.0,48.46900177001953,50.11000061035156,50.11000061035156,147200
2018-02-08,49.84000015258789,50.84000015258789,47.560001373291016,48.88999938964844,48.88999938964844,140000
2018-02-09,49.09000015258789,49.26100158691406,46.202999114990234,47.599998474121094,47.599998474121094,114300
2018-02-12,47.5,50.72999954223633,47.1150016784668,50.0,50.0,107700
2018-02-13,49.7400016784668,50.0,47.58000183105469,49.58000183105469,49.58000183105469,127000
2018-02-14,49.529998779296875,51.29999923706055,49.0,50.63999938964844,50.63999938964844,180200
2018-02-15,51.61000061035156,51.61000061035156,48.61000061035156,50.08000183105469,50.08000183105469,175700
2018-02-16,50.119998931884766,50.40599822998047,46.790000915527344,47.91999816894531,47.91999816894531,114800
2018-02-20,48.540000915527344,50.404998779296875,46.810001373291016,50.0,50.0,257800
2018-02-21,50.33000183105469,52.70000076293945,49.869998931884766,50.93000030517578,50.93000030517578,119800
2018-02-22,50.70000076293945,51.97999954223633,49.2599983215332,49.83000183105469,49.83000183105469,93900
2018-02-23,50.0,50.9900016784668,48.70000076293945,50.90999984741211,50.90999984741211,57200
2018-02-26,50.7400016784668,52.189998626708984,49.20000076293945,50.31999969482422,50.31999969482422,93900
2018-02-27,50.5,50.88999938964844,49.11000061035156,49.86000061035156,49.86000061035156,52300
2018-02-28,49.060001373291016,53.77799987792969,49.0,52.65999984741211,52.65999984741211,171600
2018-03-01,52.310001373291016,53.27000045776367,51.15999984741211,53.119998931884766,53.119998931884766,118400
2018-03-02,52.59000015258789,54.790000915527344,51.5099983215332,54.130001068115234,54.130001068115234,102600
2018-03-05,54.43000030517578,57.75,53.5,56.66999816894531,56.66999816894531,205800
2018-03-06,56.86000061035156,57.25,54.65999984741211,56.619998931884766,56.619998931884766,87100
2018-03-07,55.060001373291016,56.810001373291016,54.619998931884766,55.5,55.5,42000
2018-03-08,55.459999084472656,56.810001373291016,55.0099983215332,56.0,56.0,56200
2018-03-09,56.349998474121094,57.86000061035156,55.56999969482422,57.06999969482422,57.06999969482422,68600
2018-03-12,57.439998626708984,58.65999984741211,56.33000183105469,56.939998626708984,56.939998626708984,60200
2018-03-13,57.439998626708984,58.65999984741211,55.58000183105469,55.58000183105469,55.58000183105469,102100
2018-03-14,55.9900016784668,58.119998931884766,54.02000045776367,57.540000915527344,57.540000915527344,80000
2018-03-15,57.470001220703125,57.470001220703125,54.02000045776367,56.380001068115234,56.380001068115234,156200
2018-03-16,56.77000045776367,57.09000015258789,53.59000015258789,54.189998626708984,54.189998626708984,97500
2018-03-19,52.86000061035156,54.310001373291016,51.060001373291016,53.2400016784668,53.2400016784668,88100
2018-03-20,53.400001525878906,54.63999938964844,50.0099983215332,53.20000076293945,53.20000076293945,62200
2018-03-21,53.060001373291016,54.459999084472656,52.810001373291016,53.7599983215332,53.7599983215332,58800
2018-03-22,53.310001373291016,55.92399978637695,51.13100051879883,54.29999923706055,54.29999923706055,100200
2018-03-23,53.650001525878906,54.505001068115234,50.0099983215332,50.650001525878906,50.650001525878906,49300
2018-03-26,51.0,55.138999938964844,51.0,54.54999923706055,54.54999923706055,154900
2018-03-27,54.45000076293945,54.45000076293945,52.0,52.41999816894531,52.41999816894531,111300
2018-03-28,52.400001525878906,52.69499969482422,48.369998931884766,49.880001068115234,49.880001068115234,150200
2018-03-29,50.43000030517578,51.290000915527344,48.20000076293945,49.689998626708984,49.689998626708984,130600
2018-04-02,49.810001373291016,50.13999938964844,47.380001068115234,48.349998474121094,48.349998474121094,63000
2018-04-03,53.5099983215332,61.77000045776367,51.189998626708984,59.79999923706055,59.79999923706055,629300
2018-04-04,60.0,65.48999786376953,59.63999938964844,63.22999954223633,63.22999954223633,296200
2018-04-05,63.2599983215332,65.88999938964844,58.290000915527344,59.560001373291016,59.560001373291016,171900
2018-04-06,60.93000030517578,62.06999969482422,58.599998474121094,59.08000183105469,59.08000183105469,202100
2018-04-09,59.08000183105469,64.12000274658203,59.08000183105469,60.099998474121094,60.099998474121094,168300
2018-04-10,60.83000183105469,66.37999725341797,60.6150016784668,62.9900016784668,62.9900016784668,167000
2018-04-11,64.37000274658203,64.7699966430664,61.25,62.720001220703125,62.720001220703125,64600
2018-04-12,64.26000213623047,64.80500030517578,60.400001525878906,60.97999954223633,60.97999954223633,80500
2018-04-13,61.33000183105469,63.38999938964844,59.13999938964844,59.290000915527344,59.290000915527344,88500
2018-04-16,60.380001068115234,61.529998779296875,58.060001373291016,59.599998474121094,59.599998474121094,89200
2018-04-17,59.91999816894531,63.459999084472656,59.29999923706055,60.560001373291016,60.560001373291016,133700
2018-04-18,61.119998931884766,62.029998779296875,57.5,57.880001068115234,57.880001068115234,90700
2018-04-19,57.779998779296875,58.97999954223633,55.810001373291016,57.189998626708984,57.189998626708984,335000
2018-04-20,57.5,57.76900100708008,55.7400016784668,56.849998474121094,56.849998474121094,44600
2018-04-23,57.5,59.319000244140625,56.88999938964844,57.459999084472656,57.459999084472656,162000
2018-04-24,57.619998931884766,57.77000045776367,56.560001373291016,57.5,57.5,179200
2018-04-25,57.52000045776367,58.0,55.0099983215332,57.04999923706055,57.04999923706055,88300
2018-04-26,57.5,57.709999084472656,57.02199935913086,57.470001220703125,57.470001220703125,76000
2018-04-27,57.52000045776367,57.69599914550781,56.880001068115234,57.220001220703125,57.220001220703125,53600
2018-04-30,57.52000045776367,57.52000045776367,55.25,56.02000045776367,56.02000045776367,67300
2018-05-01,56.209999084472656,57.52000045776367,56.209999084472656,57.27000045776367,57.27000045776367,49800
2018-05-02,57.0,57.72999954223633,56.02000045776367,56.77000045776367,56.77000045776367,64100
2018-05-03,56.43000030517578,57.4900016784668,56.209999084472656,56.779998779296875,56.779998779296875,41900
2018-05-04,56.77000045776367,58.630001068115234,56.391998291015625,57.29999923706055,57.29999923706055,130700
2018-05-07,57.02000045776367,63.310001373291016,56.854000091552734,62.0099983215332,62.0099983215332,246200
2018-05-08,62.34000015258789,63.540000915527344,59.029998779296875,59.65999984741211,59.65999984741211,74100
2018-05-09,59.810001373291016,61.56999969482422,59.70600128173828,60.91999816894531,60.91999816894531,121700
2018-05-10,61.2400016784668,61.709999084472656,60.529998779296875,60.93000030517578,60.93000030517578,116700
2018-05-11,61.20000076293945,61.9900016784668,59.58000183105469,59.599998474121094,59.599998474121094,60300
2018-05-14,60.27000045776367,63.61000061035156,60.25,61.65999984741211,61.65999984741211,161700
2018-05-15,61.40999984741211,63.83000183105469,58.4900016784668,60.13999938964844,60.13999938964844,181400
2018-05-16,61.18000030517578,63.36000061035156,60.90999984741211,62.75,62.75,181000
2018-05-17,63.9900016784668,63.9900016784668,60.25,62.040000915527344,62.040000915527344,158300
2018-05-18,62.04999923706055,66.20999908447266,62.04999923706055,65.33000183105469,65.33000183105469,157700
2018-05-21,65.45999908447266,69.56800079345703,62.29999923706055,62.86000061035156,62.86000061035156,212600
2018-05-22,63.29999923706055,64.08999633789062,61.19499969482422,61.88999938964844,61.88999938964844,167900
2018-05-23,62.349998474121094,62.779998779296875,61.060001373291016,61.470001220703125,61.470001220703125,59200
2018-05-24,61.63999938964844,62.689998626708984,60.25,60.47999954223633,60.47999954223633,113800
2018-05-25,60.5,60.939998626708984,59.02000045776367,60.40999984741211,60.40999984741211,53000
2018-05-29,59.779998779296875,61.040000915527344,58.5,60.459999084472656,60.459999084472656,60800
2018-05-30,60.650001525878906,61.779998779296875,60.18000030517578,60.63999938964844,60.63999938964844,63500
2018-05-31,61.130001068115234,61.93000030517578,59.36000061035156,60.119998931884766,60.119998931884766,277100
2018-06-01,60.52000045776367,61.4900016784668,59.270999908447266,60.220001220703125,60.220001220703125,90200
2018-06-04,60.52000045776367,60.52000045776367,57.5,59.22999954223633,59.22999954223633,68800
2018-06-05,58.939998626708984,60.47999954223633,58.5,60.119998931884766,60.119998931884766,89600
2018-06-06,60.54999923706055,61.81999969482422,59.0099983215332,61.4900016784668,61.4900016784668,115700
2018-06-07,60.2599983215332,61.20000076293945,59.0,59.43000030517578,59.43000030517578,233300
2018-06-08,59.0,59.25,57.33000183105469,58.0,58.0,113500
2018-06-11,57.5,57.80500030517578,55.744998931884766,55.9900016784668,55.9900016784668,122800
2018-06-12,56.0099983215332,58.0,55.86000061035156,56.619998931884766,56.619998931884766,354100
2018-06-13,56.5,57.130001068115234,53.630001068115234,54.5099983215332,54.5099983215332,196300
2018-06-14,55.2599983215332,56.415000915527344,53.709999084472656,55.540000915527344,55.540000915527344,153900
2018-06-15,55.25,56.0,54.654998779296875,55.40999984741211,55.40999984741211,107000
2018-06-18,55.04999923706055,55.93000030517578,54.5099983215332,55.22999954223633,55.22999954223633,182000
2018-06-19,54.470001220703125,56.650001525878906,54.470001220703125,55.70000076293945,55.70000076293945,180500
2018-06-20,55.79999923706055,56.90800094604492,55.0,55.11000061035156,55.11000061035156,105000
2018-06-21,55.31999969482422,56.0,54.599998474121094,54.81999969482422,54.81999969482422,102600
2018-06-22,54.970001220703125,54.970001220703125,52.130001068115234,52.41999816894531,52.41999816894531,75900
2018-06-25,52.20000076293945,52.400001525878906,50.34000015258789,51.650001525878906,51.650001525878906,152700
2018-06-26,51.5,51.5,49.2400016784668,50.470001220703125,50.470001220703125,119100
2018-06-27,50.77000045776367,52.209999084472656,49.08000183105469,50.400001525878906,50.400001525878906,154600
2018-06-28,50.7400016784668,51.560001373291016,49.56999969482422,50.16999816894531,50.16999816894531,81900
2018-06-29,50.41999816894531,50.439998626708984,48.619998931884766,49.7599983215332,49.7599983215332,175700
2018-07-02,49.63999938964844,50.709999084472656,49.20100021362305,50.599998474121094,50.599998474121094,85500
2018-07-03,50.0,52.20000076293945,50.0,51.70000076293945,51.70000076293945,23900
2018-07-05,52.15999984741211,52.15999984741211,51.08000183105469,51.209999084472656,51.209999084472656,47800
2018-07-06,51.400001525878906,51.63999938964844,50.61000061035156,51.029998779296875,51.029998779296875,44400
2018-07-09,51.22999954223633,51.27000045776367,49.09000015258789,49.400001525878906,49.400001525878906,54300
2018-07-10,49.869998931884766,51.119998931884766,48.430999755859375,49.47999954223633,49.47999954223633,81400
2018-07-11,49.25,49.310001373291016,48.16999816894531,49.0,49.0,52700
2018-07-12,49.689998626708984,49.689998626708984,48.849998474121094,49.040000915527344,49.040000915527344,52700
2018-07-13,49.119998931884766,49.5,47.599998474121094,47.72999954223633,47.72999954223633,73200
2018-07-16,47.56999969482422,48.36000061035156,46.46500015258789,46.84000015258789,46.84000015258789,130000
2018-07-17,47.0,48.349998474121094,45.36000061035156,48.0,48.0,125000
2018-07-18,48.0,48.04999923706055,46.97999954223633,47.97999954223633,47.97999954223633,46200
2018-07-19,47.540000915527344,48.319000244140625,47.40999984741211,47.97999954223633,47.97999954223633,36100
2018-07-20,48.2400016784668,48.4900016784668,47.1619987487793,47.349998474121094,47.349998474121094,23900
2018-07-23,47.029998779296875,47.900001525878906,45.90999984741211,47.34000015258789,47.34000015258789,90700
2018-07-24,47.93000030517578,48.459999084472656,44.029998779296875,44.75,44.75,99400
2018-07-25,44.93000030517578,46.75,43.130001068115234,46.5099983215332,46.5099983215332,176100
2018-07-26,46.5,46.79899978637695,45.03499984741211,46.33000183105469,46.33000183105469,91700
2018-07-27,46.400001525878906,46.979000091552734,44.220001220703125,45.29999923706055,45.29999923706055,105000
2018-07-30,45.459999084472656,46.0099983215332,44.15999984741211,44.959999084472656,44.959999084472656,43700
2018-07-31,44.369998931884766,45.599998474121094,44.220001220703125,45.20000076293945,45.20000076293945,47600
2018-08-01,45.16999816894531,45.52000045776367,44.5,44.79999923706055,44.79999923706055,47100
2018-08-02,44.220001220703125,45.869998931884766,44.0,45.58000183105469,45.58000183105469,65700
2018-08-03,45.66999816894531,46.27000045776367,44.61000061035156,45.0099983215332,45.0099983215332,53700
2018-08-06,44.88999938964844,45.58000183105469,44.2599983215332,45.27000045776367,45.27000045776367,39400
2018-08-07,45.66999816894531,45.84000015258789,44.85499954223633,45.70000076293945,45.70000076293945,44900
2018-08-08,45.93000030517578,45.93000030517578,43.72999954223633,45.0099983215332,45.0099983215332,45900
2018-08-09,45.189998626708984,45.61000061035156,44.564998626708984,45.29999923706055,45.29999923706055,45200
2018-08-10,45.15999984741211,47.30699920654297,44.9900016784668,46.880001068115234,46.880001068115234,44600
2018-08-13,47.13999938964844,47.349998474121094,46.10300064086914,46.29999923706055,46.29999923706055,47300
2018-08-14,46.0,47.5099983215332,41.0099983215332,44.560001373291016,44.560001373291016,193000
2018-08-15,43.90999984741211,44.7599983215332,41.650001525878906,41.650001525878906,41.650001525878906,143300
2018-08-16,42.220001220703125,42.97999954223633,40.58000183105469,42.529998779296875,42.529998779296875,75600
2018-08-17,42.36000061035156,43.48500061035156,41.369998931884766,42.9900016784668,42.9900016784668,67900
2018-08-20,43.45000076293945,43.630001068115234,42.064998626708984,42.22999954223633,42.22999954223633,75600
2018-08-21,42.25,44.25,42.185001373291016,44.150001525878906,44.150001525878906,74600
2018-08-22,42.5,44.70000076293945,42.5,43.95000076293945,43.95000076293945,73000
2018-08-23,43.849998474121094,44.29999923706055,42.56999969482422,43.0099983215332,43.0099983215332,50800
2018-08-24,42.959999084472656,44.45000076293945,42.55500030517578,44.290000915527344,44.290000915527344,45800
2018-08-27,44.790000915527344,47.4900016784668,44.790000915527344,46.470001220703125,46.470001220703125,60000
2018-08-28,45.5099983215332,48.45000076293945,45.5099983215332,48.13999938964844,48.13999938964844,85700
2018-08-29,48.0,49.130001068115234,47.595001220703125,47.77000045776367,47.77000045776367,43600
2018-08-30,47.9900016784668,48.790000915527344,47.79999923706055,47.83000183105469,47.83000183105469,57900
2018-08-31,47.7599983215332,49.34000015258789,45.54999923706055,48.33000183105469,48.33000183105469,122300
2018-09-04,48.0,48.810001373291016,47.119998931884766,47.970001220703125,47.970001220703125,17500
2018-09-05,48.11000061035156,48.11000061035156,45.16999816894531,45.84000015258789,45.84000015258789,102300
2018-09-06,45.5,45.5,43.65999984741211,44.599998474121094,44.599998474121094,88200
2018-09-07,44.560001373291016,45.099998474121094,43.59000015258789,43.75,43.75,64400
2018-09-10,43.70000076293945,43.70000076293945,42.13999938964844,42.5,42.5,49300
2018-09-11,42.65999984741211,45.47999954223633,42.65999984741211,45.150001525878906,45.150001525878906,74600
2018-09-12,45.709999084472656,46.0,43.619998931884766,43.900001525878906,43.900001525878906,53400
2018-09-13,43.75,44.880001068115234,43.10499954223633,44.56999969482422,44.56999969482422,36700
2018-09-14,46.9900016784668,47.0,45.63999938964844,46.15999984741211,46.15999984741211,36200
2018-09-17,45.689998626708984,45.73500061035156,44.05500030517578,45.0099983215332,45.0099983215332,52200
2018-09-18,45.0,45.779998779296875,44.0099983215332,45.040000915527344,45.040000915527344,43200
2018-09-19,45.119998931884766,48.68000030517578,44.31999969482422,47.54999923706055,47.54999923706055,50000
2018-09-20,46.7400016784668,48.9900016784668,46.7400016784668,48.75,48.75,83300
2018-09-21,48.91999816894531,50.0,46.979000091552734,49.529998779296875,49.529998779296875,95300
2018-09-24,49.70000076293945,50.0,47.5,49.02000045776367,49.02000045776367,43300
2018-09-25,49.0099983215332,49.54999923706055,48.31999969482422,48.900001525878906,48.900001525878906,30500
2018-09-26,48.790000915527344,49.099998474121094,47.209999084472656,48.83000183105469,48.83000183105469,66300
2018-09-27,49.349998474121094,49.38999938964844,47.459999084472656,47.59000015258789,47.59000015258789,31400
2018-09-28,47.380001068115234,48.08000183105469,47.20000076293945,47.22999954223633,47.22999954223633,44300
2018-10-01,47.47999954223633,48.290000915527344,47.07099914550781,47.81999969482422,47.81999969482422,37400
2018-10-02,48.290000915527344,48.439998626708984,47.34199905395508,48.25,48.25,66400
2018-10-03,48.189998626708984,49.5,48.16999816894531,48.47999954223633,48.47999954223633,23700
2018-10-04,48.47999954223633,48.47999954223633,46.0,47.150001525878906,47.150001525878906,51400
2018-10-05,47.47999954223633,47.47999954223633,45.060001373291016,45.36000061035156,45.36000061035156,48000
2018-10-08,45.0,45.83000183105469,44.5,45.15999984741211,45.15999984741211,52200
2018-10-09,44.77000045776367,45.130001068115234,42.970001220703125,44.25,44.25,33000
2018-10-10,43.2130012512207,44.27000045776367,42.31999969482422,43.060001373291016,43.060001373291016,70600
2018-10-11,42.79999923706055,43.779998779296875,41.619998931884766,41.77000045776367,41.77000045776367,102600
2018-10-12,42.189998626708984,45.189998626708984,42.0099983215332,44.7599983215332,44.7599983215332,72800
2018-10-15,44.310001373291016,44.310001373291016,41.810001373291016,43.59000015258789,43.59000015258789,45500
2018-10-16,44.33000183105469,44.58700180053711,41.75,43.36000061035156,43.36000061035156,74400
2018-10-17,43.36000061035156,44.709999084472656,42.70000076293945,44.709999084472656,44.709999084472656,35400
2018-10-18,43.75,43.85200119018555,41.7599983215332,42.2599983215332,42.2599983215332,88100
2018-10-19,42.41999816894531,43.130001068115234,40.70000076293945,41.93000030517578,41.93000030517578,46700
2018-10-22,42.400001525878906,43.34000015258789,40.27000045776367,41.22999954223633,41.22999954223633,89600
2018-10-23,40.27000045776367,40.9900016784668,39.04800033569336,40.720001220703125,40.720001220703125,36700
2018-10-24,40.93000030517578,43.25600051879883,37.0,38.349998474121094,38.349998474121094,91400
2018-10-25,37.91999816894531,40.2400016784668,36.95000076293945,39.470001220703125,39.470001220703125,95900
2018-10-26,39.47999954223633,40.41999816894531,38.5,39.099998474121094,39.099998474121094,72100
2018-10-29,39.9900016784668,40.79999923706055,37.040000915527344,38.439998626708984,38.439998626708984,47900
2018-10-30,41.79999923706055,42.0,39.15999984741211,39.95000076293945,39.95000076293945,69200
2018-10-31,41.09000015258789,41.09000015258789,39.2599983215332,39.90999984741211,39.90999984741211,56800
2018-11-01,40.0,43.540000915527344,39.18000030517578,43.2400016784668,43.2400016784668,96600
2018-11-02,42.939998626708984,45.0,41.47600173950195,44.9900016784668,44.9900016784668,54700
2018-11-05,45.0,45.56999969482422,43.279998779296875,44.0,44.0,94700
2018-11-06,44.400001525878906,44.75,43.4900016784668,43.779998779296875,43.779998779296875,36300
2018-11-07,43.65999984741211,46.790000915527344,43.65999984741211,46.41999816894531,46.41999816894531,28500
2018-11-08,47.4900016784668,49.9900016784668,46.15999984741211,48.130001068115234,48.130001068115234,77100
2018-11-09,48.16999816894531,48.16999816894531,44.0099983215332,46.66999816894531,46.66999816894531,94200
2018-11-12,46.29999923706055,46.29999923706055,41.279998779296875,45.70000076293945,45.70000076293945,135400
2018-11-13,45.25,47.9900016784668,45.040000915527344,47.0,47.0,142100
2018-11-14,47.56999969482422,47.880001068115234,45.25,47.56999969482422,47.56999969482422,135000
2018-11-15,46.0,47.7599983215332,45.0,46.47999954223633,46.47999954223633,59300
2018-11-16,46.45000076293945,47.86000061035156,45.86000061035156,47.119998931884766,47.119998931884766,69700
2018-11-19,47.459999084472656,47.63100051879883,45.290000915527344,46.84000015258789,46.84000015258789,104600
2018-11-20,45.459999084472656,47.459999084472656,45.04999923706055,46.630001068115234,46.630001068115234,72500
2018-11-21,47.0,50.45000076293945,46.733001708984375,49.95000076293945,49.95000076293945,198500
2018-11-23,49.529998779296875,50.52000045776367,49.125,50.38999938964844,50.38999938964844,34600
2018-11-26,50.61000061035156,50.9900016784668,46.54999923706055,50.04999923706055,50.04999923706055,72700
2018-11-27,49.619998931884766,50.349998474121094,47.650001525878906,47.95000076293945,47.95000076293945,37000
2018-11-28,48.369998931884766,49.650001525878906,48.29499816894531,49.0,49.0,64400
2018-11-29,48.939998626708984,49.0,47.209999084472656,48.25,48.25,45100
2018-11-30,48.4900016784668,49.47999954223633,47.900001525878906,49.040000915527344,49.040000915527344,119100
2018-12-03,49.0,50.099998474121094,48.0,48.209999084472656,48.209999084472656,51900
2018-12-04,47.66999816894531,48.814998626708984,45.15999984741211,45.36000061035156,45.36000061035156,44500
2018-12-06,44.09000015258789,46.16999816894531,40.61000061035156,44.849998474121094,44.849998474121094,47500
2018-12-07,45.08000183105469,47.939998626708984,44.374000549316406,45.15999984741211,45.15999984741211,35000
2018-12-10,44.779998779296875,45.94499969482422,41.48099899291992,45.310001373291016,45.310001373291016,55900
2018-12-11,45.9900016784668,47.43000030517578,44.599998474121094,45.540000915527344,45.540000915527344,48000
2018-12-12,46.0,47.0,44.79999923706055,46.52000045776367,46.52000045776367,28400
2018-12-13,46.7400016784668,47.375,44.79999923706055,45.33000183105469,45.33000183105469,68100
2018-12-14,44.72999954223633,45.91999816894531,43.95000076293945,44.5099983215332,44.5099983215332,37900
2018-12-17,43.060001373291016,46.779998779296875,43.060001373291016,45.7599983215332,45.7599983215332,132600
2018-12-18,45.790000915527344,47.7400016784668,44.25,47.290000915527344,47.290000915527344,140100
2018-12-19,47.380001068115234,48.720001220703125,46.724998474121094,47.0,47.0,130200
2018-12-20,47.0,48.59000015258789,43.61000061035156,45.0,45.0,195300
2018-12-21,44.880001068115234,45.5099983215332,41.04499816894531,42.52000045776367,42.52000045776367,362800
2018-12-24,42.209999084472656,43.22999954223633,41.0,42.38999938964844,42.38999938964844,35800
2018-12-26,42.0,44.04999923706055,40.61000061035156,43.33000183105469,43.33000183105469,110800
2018-12-27,42.90999984741211,43.33000183105469,41.40999984741211,43.15999984741211,43.15999984741211,85200
2018-12-28,43.36000061035156,44.400001525878906,42.70000076293945,43.959999084472656,43.959999084472656,37600
2018-12-31,44.31999969482422,44.529998779296875,42.189998626708984,43.060001373291016,43.060001373291016,103100
2019-01-02,42.40999984741211,44.5099983215332,42.40999984741211,44.5099983215332,44.5099983215332,40400
2019-01-03,44.900001525878906,48.95000076293945,44.900001525878906,47.56999969482422,47.56999969482422,218900
2019-01-04,49.47999954223633,51.7599983215332,48.79499816894531,51.459999084472656,51.459999084472656,147400
2019-01-07,51.900001525878906,54.744998931884766,50.805999755859375,54.54999923706055,54.54999923706055,156700
2019-01-08,55.0,55.4900016784668,49.25,51.349998474121094,51.349998474121094,399900
2019-01-09,50.83000183105469,53.58000183105469,50.540000915527344,51.61000061035156,51.61000061035156,169300
2019-01-10,51.5,51.959999084472656,49.349998474121094,49.9900016784668,49.9900016784668,245200
2019-01-11,49.56999969482422,51.15999984741211,49.34000015258789,50.90999984741211,50.90999984741211,160200
2019-01-14,50.61000061035156,51.43000030517578,49.310001373291016,50.04999923706055,50.04999923706055,67700
2019-01-15,50.540000915527344,51.540000915527344,49.310001373291016,50.40999984741211,50.40999984741211,129600
2019-01-16,50.90999984741211,51.66999816894531,50.18000030517578,51.34000015258789,51.34000015258789,122100
2019-01-17,51.90999984741211,52.91999816894531,50.5,52.029998779296875,52.029998779296875,178000
2019-01-18,52.5,52.5,51.02000045776367,51.119998931884766,51.119998931884766,67600
2019-01-22,51.0,55.130001068115234,50.290000915527344,53.65999984741211,53.65999984741211,145800
2019-01-23,50.63999938964844,51.470001220703125,45.5099983215332,45.93000030517578,45.93000030517578,496000
2019-01-24,41.5099983215332,43.040000915527344,40.25,42.5,42.5,3245200
2019-01-25,42.599998474121094,42.95000076293945,41.25,42.5,42.5,337000
2019-01-28,42.150001525878906,42.150001525878906,38.540000915527344,40.15999984741211,40.15999984741211,555800
2019-01-29,41.79999923706055,41.79999923706055,39.61000061035156,39.86000061035156,39.86000061035156,237200
2019-01-30,40.40999984741211,41.790000915527344,39.86000061035156,41.52000045776367,41.52000045776367,211200
2019-01-31,41.63999938964844,41.85499954223633,40.59000015258789,41.41999816894531,41.41999816894531,273500
2019-02-01,41.290000915527344,42.119998931884766,40.91999816894531,41.38999938964844,41.38999938964844,148100
2019-02-04,41.459999084472656,41.900001525878906,41.36000061035156,41.36000061035156,41.36000061035156,113400
2019-02-05,41.61000061035156,41.69900131225586,40.439998626708984,41.34000015258789,41.34000015258789,203500
2019-02-06,41.619998931884766,41.619998931884766,40.560001373291016,40.959999084472656,40.959999084472656,229400
2019-02-07,40.79999923706055,41.33000183105469,39.500999450683594,40.18000030517578,40.18000030517578,170500
2019-02-08,40.150001525878906,41.0099983215332,40.150001525878906,40.470001220703125,40.470001220703125,125100
2019-02-11,40.630001068115234,41.178001403808594,39.33000183105469,40.20000076293945,40.20000076293945,158800
2019-02-12,40.65999984741211,40.95000076293945,39.90999984741211,40.83000183105469,40.83000183105469,130500
2019-02-13,41.08000183105469,41.400001525878906,40.209999084472656,40.5099983215332,40.5099983215332,129100
2019-02-14,40.75,40.900001525878906,39.689998626708984,40.540000915527344,40.540000915527344,116000
2019-02-15,40.939998626708984,41.09000015258789,40.150001525878906,41.08000183105469,41.08000183105469,139700
2019-02-19,40.900001525878906,41.790000915527344,40.15999984741211,40.400001525878906,40.400001525878906,97800
2019-02-20,40.38999938964844,42.0,40.150001525878906,41.66999816894531,41.66999816894531,183100
2019-02-21,41.779998779296875,41.83000183105469,40.09000015258789,40.709999084472656,40.709999084472656,106200
2019-02-22,40.81999969482422,41.58000183105469,40.63999938964844,41.34000015258789,41.34000015258789,100000
2019-02-25,41.88999938964844,42.31999969482422,41.38999938964844,41.599998474121094,41.599998474121094,185700
2019-02-26,41.599998474121094,41.900001525878906,40.20000076293945,40.33000183105469,40.33000183105469,161500
2019-02-27,40.349998474121094,40.650001525878906,38.22999954223633,38.380001068115234,38.380001068115234,282700
2019-02-28,38.4900016784668,40.404998779296875,37.0099983215332,38.47999954223633,38.47999954223633,445900
2019-03-01,38.47999954223633,40.47999954223633,38.47999954223633,39.959999084472656,39.959999084472656,115000
2019-03-04,40.29999923706055,40.880001068115234,39.400001525878906,40.13999938964844,40.13999938964844,103900
2019-03-05,40.08000183105469,40.66999816894531,39.33000183105469,39.65999984741211,39.65999984741211,102900
2019-03-06,39.529998779296875,39.529998779296875,36.04999923706055,36.5,36.5,278600
2019-03-07,36.68000030517578,36.95000076293945,35.540000915527344,35.83000183105469,35.83000183105469,231400
2019-03-08,35.689998626708984,36.43000030517578,34.61000061035156,36.31999969482422,36.31999969482422,239600
2019-03-11,36.5099983215332,37.08000183105469,35.880001068115234,36.31999969482422,36.31999969482422,76400
2019-03-12,36.560001373291016,36.68000030517578,35.779998779296875,36.0099983215332,36.0099983215332,92300
2019-03-13,36.43000030517578,37.0,35.720001220703125,36.849998474121094,36.849998474121094,75300
2019-03-14,36.86000061035156,37.970001220703125,36.7760009765625,37.38999938964844,37.38999938964844,70000
2019-03-15,37.400001525878906,38.34000015258789,37.150001525878906,38.060001373291016,38.060001373291016,164800
2019-03-18,38.06999969482422,38.56999969482422,37.79999923706055,38.11000061035156,38.11000061035156,64200
2019-03-19,38.130001068115234,38.55500030517578,37.880001068115234,38.02000045776367,38.02000045776367,73600
2019-03-20,38.130001068115234,38.25,37.06999969482422,37.54999923706055,37.54999923706055,147400
2019-03-21,37.40999984741211,37.83000183105469,36.709999084472656,36.81999969482422,36.81999969482422,54700
2019-03-22,36.70000076293945,36.70000076293945,34.630001068115234,35.470001220703125,35.470001220703125,93100
2019-03-25,35.720001220703125,37.224998474121094,35.0,36.13999938964844,36.13999938964844,169600
2019-03-26,36.5,36.5,35.209999084472656,35.9900016784668,35.9900016784668,70400
2019-03-27,36.0,37.0,35.400001525878906,36.38999938964844,36.38999938964844,174200
2019-03-28,36.540000915527344,37.349998474121094,35.95500183105469,36.529998779296875,36.529998779296875,70000
2019-03-29,36.779998779296875,38.119998931884766,36.18000030517578,36.939998626708984,36.939998626708984,182500
2019-04-01,37.20000076293945,38.189998626708984,36.459999084472656,36.81999969482422,36.81999969482422,223100
2019-04-02,36.61000061035156,39.09000015258789,36.388999938964844,38.95000076293945,38.95000076293945,138900
2019-04-03,38.83000183105469,40.310001373291016,38.65999984741211,39.86000061035156,39.86000061035156,91300
2019-04-04,39.849998474121094,40.17399978637695,38.63999938964844,40.0,40.0,106600
2019-04-05,40.11000061035156,41.209999084472656,39.7599983215332,40.349998474121094,40.349998474121094,88000
2019-04-08,40.279998779296875,41.0,39.619998931884766,40.0,40.0,89900
2019-04-09,39.9900016784668,40.244998931884766,38.54999923706055,38.75,38.75,109400
2019-04-10,38.68000030517578,39.099998474121094,37.68000030517578,37.9900016784668,37.9900016784668,102000
2019-04-11,38.0,39.15599822998047,37.7400016784668,38.75,38.75,86100
2019-04-12,39.04999923706055,39.04999923706055,37.9900016784668,38.54999923706055,38.54999923706055,51300
2019-04-15,38.709999084472656,38.75,38.0,38.33000183105469,38.33000183105469,56200
2019-04-16,38.59000015258789,38.685001373291016,38.0,38.22999954223633,38.22999954223633,33800
2019-04-17,38.43000030517578,38.5,36.08000183105469,36.52000045776367,36.52000045776367,113000
2019-04-18,36.65999984741211,36.79999923706055,35.790000915527344,36.560001373291016,36.560001373291016,56800
2019-04-22,36.56999969482422,37.69499969482422,35.790000915527344,37.040000915527344,37.040000915527344,124800
2019-04-23,37.279998779296875,38.189998626708984,36.75,37.75,37.75,114700
2019-04-24,38.040000915527344,38.279998779296875,36.86000061035156,37.060001373291016,37.060001373291016,66000
2019-04-25,37.279998779296875,37.36000061035156,36.38999938964844,37.119998931884766,37.119998931884766,48200
2019-04-26,37.029998779296875,37.9900016784668,36.619998931884766,37.20000076293945,37.20000076293945,59700
2019-04-29,37.36000061035156,37.435001373291016,36.5099983215332,37.0,37.0,71200
2019-04-30,36.72999954223633,37.150001525878906,35.52000045776367,35.95000076293945,35.95000076293945,160300
2019-05-01,36.040000915527344,38.755001068115234,35.665000915527344,37.790000915527344,37.790000915527344,105000
2019-05-02,37.72999954223633,38.08000183105469,35.75,36.20000076293945,36.20000076293945,119900
2019-05-03,36.29999923706055,37.505001068115234,36.29999923706055,36.369998931884766,36.369998931884766,78200
2019-05-06,36.13999938964844,38.22999954223633,36.13999938964844,38.0,38.0,74000
2019-05-07,38.09000015258789,38.13999938964844,36.79999923706055,37.540000915527344,37.540000915527344,150900
2019-05-08,37.790000915527344,38.0,36.900001525878906,37.97999954223633,37.97999954223633,51900
2019-05-09,38.0,39.970001220703125,38.0,38.209999084472656,38.209999084472656,179200
2019-05-10,38.060001373291016,39.75,38.04999923706055,39.34000015258789,39.34000015258789,215500
2019-05-13,38.599998474121094,38.599998474121094,36.84000015258789,37.540000915527344,37.540000915527344,145000
2019-05-14,37.75,38.9900016784668,37.06999969482422,38.720001220703125,38.720001220703125,268800
2019-05-15,37.97999954223633,39.400001525878906,37.97999954223633,39.290000915527344,39.290000915527344,122800
2019-05-16,38.7400016784668,39.5,38.59000015258789,39.0,39.0,130600
2019-05-17,38.560001373291016,39.45000076293945,37.95000076293945,38.279998779296875,38.279998779296875,120700
2019-05-20,37.9900016784668,37.9900016784668,36.939998626708984,37.2400016784668,37.2400016784668,220800
2019-05-21,37.75,39.439998626708984,37.029998779296875,39.349998474121094,39.349998474121094,186300
2019-05-22,39.380001068115234,39.880001068115234,37.72999954223633,37.7400016784668,37.7400016784668,156500
2019-05-23,37.34000015258789,37.810001373291016,35.52000045776367,37.560001373291016,37.560001373291016,178800
2019-05-24,37.61000061035156,38.33000183105469,36.369998931884766,36.52000045776367,36.52000045776367,56900
2019-05-28,36.61000061035156,36.69499969482422,35.34000015258789,36.4900016784668,36.4900016784668,172500
2019-05-29,35.849998474121094,35.849998474121094,34.540000915527344,34.86000061035156,34.86000061035156,163700
2019-05-30,34.56999969482422,35.334999084472656,33.619998931884766,34.41999816894531,34.41999816894531,191800
2019-05-31,33.95000076293945,34.349998474121094,33.369998931884766,34.060001373291016,34.060001373291016,136100
2019-06-03,33.619998931884766,35.130001068115234,33.619998931884766,34.83000183105469,34.83000183105469,112600
2019-06-04,35.04999923706055,35.45000076293945,34.40999984741211,35.40999984741211,35.40999984741211,126300
2019-06-05,35.470001220703125,36.27000045776367,34.698001861572266,35.900001525878906,35.900001525878906,105800
2019-06-06,36.04999923706055,36.525001525878906,35.060001373291016,35.810001373291016,35.810001373291016,118400
2019-06-07,35.91999816894531,38.029998779296875,35.66999816894531,37.33000183105469,37.33000183105469,131100
2019-06-10,37.65999984741211,37.689998626708984,36.369998931884766,36.63999938964844,36.63999938964844,135000
2019-06-11,36.79999923706055,36.917999267578125,35.025001525878906,35.380001068115234,35.380001068115234,115300
2019-06-12,35.310001373291016,36.11000061035156,34.47999954223633,34.959999084472656,34.959999084472656,131400
2019-06-13,35.099998474121094,36.970001220703125,35.099998474121094,36.70000076293945,36.70000076293945,151600
2019-06-14,36.630001068115234,36.77000045776367,35.209999084472656,35.25,35.25,132400
2019-06-17,35.61000061035156,35.810001373291016,35.099998474121094,35.54999923706055,35.54999923706055,186800
2019-06-18,35.54999923706055,36.415000915527344,35.15999984741211,35.45000076293945,35.45000076293945,153400
2019-06-19,35.45000076293945,35.72999954223633,34.709999084472656,35.209999084472656,35.209999084472656,117600
2019-06-20,35.81999969482422,36.20000076293945,35.13999938964844,35.209999084472656,35.209999084472656,122400
2019-06-21,34.939998626708984,34.97999954223633,34.09000015258789,34.54999923706055,34.54999923706055,179900
2019-06-24,34.619998931884766,35.03499984741211,32.720001220703125,32.779998779296875,32.779998779296875,147500
2019-06-25,32.9900016784668,33.349998474121094,31.889999389648438,32.86000061035156,32.86000061035156,205200
2019-06-26,33.0099983215332,33.25,32.45500183105469,32.75,32.75,129800
2019-06-27,32.810001373291016,33.189998626708984,32.11000061035156,32.939998626708984,32.939998626708984,204800
2019-06-28,32.599998474121094,36.15999984741211,32.599998474121094,35.939998626708984,35.939998626708984,2647800
2019-07-01,36.16999816894531,37.939998626708984,36.08000183105469,36.439998626708984,36.439998626708984,220300
2019-07-02,36.54999923706055,36.97999954223633,33.86000061035156,34.900001525878906,34.900001525878906,201400
2019-07-03,34.970001220703125,35.900001525878906,34.849998474121094,35.279998779296875,35.279998779296875,89800
2019-07-05,35.189998626708984,35.939998626708984,34.779998779296875,35.029998779296875,35.029998779296875,76100
2019-07-08,34.84000015258789,34.84000015258789,33.75,34.349998474121094,34.349998474121094,88400
2019-07-09,34.099998474121094,34.810001373291016,34.040000915527344,34.70000076293945,34.70000076293945,75000
2019-07-10,34.779998779296875,34.83000183105469,33.66999816894531,34.59000015258789,34.59000015258789,86300
2019-07-11,34.5,34.5,32.81999969482422,33.06999969482422,33.06999969482422,189200
2019-07-12,33.029998779296875,33.150001525878906,32.5099983215332,33.0099983215332,33.0099983215332,160300
2019-07-15,33.11000061035156,33.11000061035156,31.770000457763672,32.459999084472656,32.459999084472656,112200
2019-07-16,32.38999938964844,32.75,32.15999984741211,32.540000915527344,32.540000915527344,95800
2019-07-17,32.4900016784668,32.922000885009766,32.040000915527344,32.34000015258789,32.34000015258789,73700
2019-07-18,32.41999816894531,32.619998931884766,32.0,32.540000915527344,32.540000915527344,65300
2019-07-19,32.41999816894531,32.70000076293945,31.75,31.860000610351562,31.860000610351562,112500
2019-07-22,31.780000686645508,34.124000549316406,30.479999542236328,31.010000228881836,31.010000228881836,125400
2019-07-23,31.219999313354492,32.08000183105469,30.600000381469727,31.639999389648438,31.639999389648438,149800
2019-07-24,31.5,32.10499954223633,31.014999389648438,32.02000045776367,32.02000045776367,105100
2019-07-25,31.780000686645508,32.45500183105469,31.680999755859375,31.989999771118164,31.989999771118164,228600
2019-07-26,32.13999938964844,32.16999816894531,31.09000015258789,31.270000457763672,31.270000457763672,77600
2019-07-29,31.389999389648438,32.459999084472656,31.20599937438965,32.279998779296875,32.279998779296875,131200
2019-07-30,32.06999969482422,32.38999938964844,31.700000762939453,32.06999969482422,32.06999969482422,95500
2019-07-31,32.13999938964844,34.20000076293945,32.06999969482422,34.099998474121094,34.099998474121094,347700
2019-08-01,34.369998931884766,36.720001220703125,34.369998931884766,34.95000076293945,34.95000076293945,287500
2019-08-02,35.4900016784668,35.560001373291016,33.7599983215332,34.33000183105469,34.33000183105469,240400
2019-08-05,33.95000076293945,34.20000076293945,32.43000030517578,32.70000076293945,32.70000076293945,153500
2019-08-06,32.790000915527344,33.540000915527344,32.189998626708984,32.70000076293945,32.70000076293945,230700
2019-08-07,32.220001220703125,33.099998474121094,31.809999465942383,32.9900016784668,32.9900016784668,164600
2019-08-08,33.040000915527344,33.345001220703125,32.0,32.630001068115234,32.630001068115234,117900
2019-08-09,32.599998474121094,33.150001525878906,31.469999313354492,32.08000183105469,32.08000183105469,164800
2019-08-12,31.940000534057617,32.5,31.709999084472656,32.2400016784668,32.2400016784668,59200
2019-08-13,32.18000030517578,34.31999969482422,32.13999938964844,34.040000915527344,34.040000915527344,170100
2019-08-14,33.220001220703125,33.79100036621094,31.959999084472656,32.400001525878906,32.400001525878906,254500
2019-08-15,32.439998626708984,32.4900016784668,31.09000015258789,31.229999542236328,31.229999542236328,162700
2019-08-16,31.360000610351562,32.189998626708984,31.138999938964844,32.0099983215332,32.0099983215332,62100
2019-08-19,32.86000061035156,34.0,32.79999923706055,33.40999984741211,33.40999984741211,307400
2019-08-20,33.06999969482422,33.61000061035156,31.81999969482422,32.43000030517578,32.43000030517578,135500
2019-08-21,32.79999923706055,33.349998474121094,32.11000061035156,32.54999923706055,32.54999923706055,156800
2019-08-22,32.560001373291016,32.81999969482422,31.6299991607666,31.690000534057617,31.690000534057617,163700
2019-08-23,31.34000015258789,32.0,30.809999465942383,31.0,31.0,286400
2019-08-26,31.209999084472656,32.650001525878906,30.709999084472656,30.959999084472656,30.959999084472656,127300
2019-08-27,31.049999237060547,31.6299991607666,30.579999923706055,31.020000457763672,31.020000457763672,225900
2019-08-28,31.020000457763672,31.520000457763672,30.860000610351562,31.110000610351562,31.110000610351562,84900
2019-08-29,31.510000228881836,32.150001525878906,30.84000015258789,31.040000915527344,31.040000915527344,283500
2019-08-30,31.31999969482422,34.20000076293945,30.809999465942383,33.95000076293945,33.95000076293945,370100
2019-09-03,34.5,35.900001525878906,32.18000030517578,33.18000030517578,33.18000030517578,285200
2019-09-04,33.91999816894531,34.18000030517578,32.88999938964844,33.209999084472656,33.209999084472656,228700
2019-09-05,33.650001525878906,33.75,32.5099983215332,33.540000915527344,33.540000915527344,200000
2019-09-06,33.70000076293945,33.9900016784668,33.0,33.349998474121094,33.349998474121094,119600
2019-09-09,33.5,34.0,33.040000915527344,33.56999969482422,33.56999969482422,312300
2019-09-10,33.650001525878906,33.91999816894531,32.959999084472656,33.2400016784668,33.2400016784668,427700
2019-09-11,33.15999984741211,34.79999923706055,33.15999984741211,34.61000061035156,34.61000061035156,461200
2019-09-12,34.869998931884766,36.54999923706055,34.36000061035156,34.45000076293945,34.45000076293945,207900
2019-09-13,34.720001220703125,35.33000183105469,33.93000030517578,35.18000030517578,35.18000030517578,150800
2019-09-16,35.150001525878906,37.07500076293945,34.84000015258789,36.0,36.0,224800
2019-09-17,35.599998474121094,36.56999969482422,34.720001220703125,36.33000183105469,36.33000183105469,148700
2019-09-18,36.439998626708984,36.5,35.279998779296875,36.2400016784668,36.2400016784668,158600
2019-09-19,36.150001525878906,36.369998931884766,35.40999984741211,35.5,35.5,139200
2019-09-20,35.470001220703125,35.54999923706055,34.29999923706055,34.849998474121094,34.849998474121094,274400
2019-09-23,34.900001525878906,35.375,32.79999923706055,33.130001068115234,33.130001068115234,455800
2019-09-24,33.529998779296875,33.529998779296875,29.729999542236328,32.650001525878906,32.650001525878906,1545500
2019-09-25,32.369998931884766,33.790000915527344,26.399999618530273,27.450000762939453,27.450000762939453,818600
2019-09-26,27.239999771118164,27.479999542236328,23.239999771118164,25.09000015258789,25.09000015258789,1070900
2019-09-27,25.110000610351562,25.770000457763672,23.90999984741211,23.979999542236328,23.979999542236328,298200
2019-09-30,23.850000381469727,24.610000610351562,23.299999237060547,23.829999923706055,23.829999923706055,228000
2019-10-01,23.719999313354492,24.25,22.40999984741211,23.59000015258789,23.59000015258789,384200
2019-10-02,23.25,24.549999237060547,23.202999114990234,24.3799991607666,24.3799991607666,451400
2019-10-03,24.239999771118164,24.350000381469727,23.469999313354492,23.68000030517578,23.68000030517578,202600
2019-10-04,23.700000762939453,23.871000289916992,22.40999984741211,23.059999465942383,23.059999465942383,211700
2019-10-07,22.649999618530273,23.09000015258789,22.239999771118164,23.059999465942383,23.059999465942383,174300
2019-10-08,22.809999465942383,23.0,21.290000915527344,21.3700008392334,21.3700008392334,375900
2019-10-09,21.469999313354492,21.799999237060547,20.719999313354492,21.110000610351562,21.110000610351562,271000
2019-10-10,21.15999984741211,21.420000076293945,20.809999465942383,21.139999389648438,21.139999389648438,205500
2019-10-11,21.239999771118164,22.170000076293945,21.18000030517578,21.760000228881836,21.760000228881836,318000
2019-10-14,21.75,21.920000076293945,21.139999389648438,21.209999084472656,21.209999084472656,82000
2019-10-15,21.329999923706055,22.6299991607666,21.270000457763672,22.170000076293945,22.170000076293945,147500
2019-10-16,22.040000915527344,22.489999771118164,21.950000762939453,22.149999618530273,22.149999618530273,75800
2019-10-17,22.329999923706055,22.760000228881836,22.225000381469727,22.40999984741211,22.40999984741211,121900
2019-10-18,22.280000686645508,22.790000915527344,22.09000015258789,22.31999969482422,22.31999969482422,120300
2019-10-21,22.40999984741211,22.576000213623047,21.450000762939453,22.18000030517578,22.18000030517578,233800
2019-10-22,22.190000534057617,22.65999984741211,21.6299991607666,21.780000686645508,21.780000686645508,91900
2019-10-23,21.799999237060547,22.459999084472656,21.690000534057617,21.809999465942383,21.809999465942383,111700
2019-10-24,21.920000076293945,22.010000228881836,21.229999542236328,21.610000610351562,21.610000610351562,112100
2019-10-25,21.479999542236328,22.09000015258789,21.059999465942383,21.969999313354492,21.969999313354492,101500
2019-10-28,22.020000457763672,22.729999542236328,22.0,22.56999969482422,22.56999969482422,116000
2019-10-29,22.600000381469727,22.860000610351562,22.260000228881836,22.479999542236328,22.479999542236328,133300
2019-10-30,22.420000076293945,22.59000015258789,22.0,22.190000534057617,22.190000534057617,93800
2019-10-31,22.040000915527344,22.670000076293945,21.628000259399414,22.6299991607666,22.6299991607666,114300
2019-11-01,22.729999542236328,23.5,22.469999313354492,22.889999389648438,22.889999389648438,321200
2019-11-04,23.1200008392334,23.510000228881836,22.200000762939453,22.270000457763672,22.270000457763672,160900
2019-11-05,22.260000228881836,23.40999984741211,22.260000228881836,23.15999984741211,23.15999984741211,133500
2019-11-06,23.15999984741211,23.15999984741211,22.663000106811523,22.950000762939453,22.950000762939453,103800
2019-11-07,23.170000076293945,23.260000228881836,22.604999542236328,22.889999389648438,22.889999389648438,151700
2019-11-08,22.790000915527344,23.780000686645508,22.6299991607666,23.559999465942383,23.559999465942383,108900
2019-11-11,23.25,24.5,22.770000457763672,24.219999313354492,24.219999313354492,177400
2019-11-12,26.0,28.399999618530273,25.010000228881836,27.510000228881836,27.510000228881836,472000
2019-11-13,27.18000030517578,28.200000762939453,25.309999465942383,26.149999618530273,26.149999618530273,151900
2019-11-14,25.899999618530273,26.459999084472656,25.510000228881836,26.299999237060547,26.299999237060547,119100
2019-11-15,26.260000228881836,26.68000030517578,25.709999084472656,26.56999969482422,26.56999969482422,104300
2019-11-18,26.479999542236328,26.90999984741211,26.059999465942383,26.09000015258789,26.09000015258789,155700
2019-11-19,26.639999389648438,28.34000015258789,26.479999542236328,28.170000076293945,28.170000076293945,245500
2019-11-20,28.40999984741211,29.559999465942383,28.0,29.5,29.5,307900
2019-11-21,29.239999771118164,29.239999771118164,27.850000381469727,28.899999618530273,28.899999618530273,236300
2019-11-22,29.3799991607666,29.6299991607666,28.56999969482422,29.600000381469727,29.600000381469727,138600
2019-11-25,29.81999969482422,31.25,29.65999984741211,30.790000915527344,30.790000915527344,298700
2019-11-26,30.90999984741211,31.290000915527344,29.920000076293945,30.780000686645508,30.780000686645508,132000
2019-11-27,30.790000915527344,31.68000030517578,30.725000381469727,31.530000686645508,31.530000686645508,129200
2019-11-29,31.219999313354492,31.8700008392334,30.959999084472656,31.639999389648438,31.639999389648438,48800
2019-12-02,31.610000610351562,31.729999542236328,30.639999389648438,31.31999969482422,31.31999969482422,144300
2019-12-03,31.0,31.989999771118164,30.68000030517578,31.579999923706055,31.579999923706055,117600
2019-12-04,31.690000534057617,32.16999816894531,31.03499984741211,31.18000030517578,31.18000030517578,221100
2019-12-05,31.229999542236328,31.3700008392334,29.43000030517578,30.729999542236328,30.729999542236328,161700
2019-12-06,31.010000228881836,32.88999938964844,31.010000228881836,32.779998779296875,32.779998779296875,137300
2019-12-09,32.9900016784668,34.86000061035156,32.540000915527344,34.38999938964844,34.38999938964844,244100
2019-12-10,34.11000061035156,34.95000076293945,33.349998474121094,34.650001525878906,34.650001525878906,136400
2019-12-11,34.70000076293945,35.0,33.56999969482422,33.81999969482422,33.81999969482422,140300
2019-12-12,33.790000915527344,34.38999938964844,32.619998931884766,33.38999938964844,33.38999938964844,151500
2019-12-13,33.5,33.689998626708984,31.940000534057617,32.36000061035156,32.36000061035156,119400
2019-12-16,32.95000076293945,34.72999954223633,32.56700134277344,34.0,34.0,168100
2019-12-17,34.22999954223633,34.22999954223633,31.65999984741211,32.38999938964844,32.38999938964844,200500
2019-12-18,32.560001373291016,34.18000030517578,32.290000915527344,33.81999969482422,33.81999969482422,138100
2019-12-19,33.81999969482422,35.0,33.47999954223633,34.86000061035156,34.86000061035156,186100
2019-12-20,34.88999938964844,35.099998474121094,34.25,34.619998931884766,34.619998931884766,222600
2019-12-23,35.0,35.209999084472656,34.099998474121094,34.15999984741211,34.15999984741211,212700
2019-12-24,34.2599983215332,34.97999954223633,34.08000183105469,34.279998779296875,34.279998779296875,124600
2019-12-26,34.25,34.95000076293945,33.61199951171875,33.970001220703125,33.970001220703125,105500
2019-12-27,34.02000045776367,34.279998779296875,32.880001068115234,33.130001068115234,33.130001068115234,139600
2019-12-30,33.09000015258789,34.75,33.0,33.9900016784668,33.9900016784668,227900
2019-12-31,33.81999969482422,34.220001220703125,33.16999816894531,33.369998931884766,33.369998931884766,300700
2020-01-02,33.470001220703125,33.470001220703125,31.68000030517578,32.56999969482422,32.56999969482422,156600
2020-01-03,31.989999771118164,32.84000015258789,31.799999237060547,31.8799991607666,31.8799991607666,127200
2020-01-06,31.520000457763672,32.279998779296875,30.649999618530273,32.08000183105469,32.08000183105469,125400
2020-01-07,31.989999771118164,32.369998931884766,31.479999542236328,31.649999618530273,31.649999618530273,119800
2020-01-08,31.68000030517578,32.54999923706055,31.65999984741211,32.22999954223633,32.22999954223633,221100
2020-01-09,32.150001525878906,32.650001525878906,31.1299991607666,31.59000015258789,31.59000015258789,122300
2020-01-10,31.68000030517578,32.505001068115234,31.299999237060547,31.559999465942383,31.559999465942383,110200
2020-01-13,31.219999313354492,31.899999618530273,30.079999923706055,31.770000457763672,31.770000457763672,151800
2020-01-14,31.65999984741211,32.54999923706055,31.389999389648438,31.799999237060547,31.799999237060547,259000
2020-01-15,31.799999237060547,32.56999969482422,31.639999389648438,32.47999954223633,32.47999954223633,216700
2020-01-16,32.47999954223633,34.709999084472656,32.26499938964844,34.599998474121094,34.599998474121094,251400
2020-01-17,34.86000061035156,35.0,33.33000183105469,33.849998474121094,33.849998474121094,245100
2020-01-21,33.70000076293945,34.40999984741211,33.16999816894531,33.18000030517578,33.18000030517578,130200
2020-01-22,33.40999984741211,33.70000076293945,29.94099998474121,30.389999389648438,30.389999389648438,370300
2020-01-23,30.440000534057617,31.309999465942383,29.010000228881836,31.0,31.0,265300
2020-01-24,30.780000686645508,31.040000915527344,28.43000030517578,30.450000762939453,30.450000762939453,316900
2020-01-27,29.520000457763672,29.844999313354492,27.93000030517578,28.09000015258789,28.09000015258789,164800
2020-01-28,28.360000610351562,30.15999984741211,28.1299991607666,30.030000686645508,30.030000686645508,133400
2020-01-29,30.100000381469727,31.700000762939453,29.809999465942383,31.280000686645508,31.280000686645508,136600
2020-01-30,30.84000015258789,30.8700008392334,29.0,30.049999237060547,30.049999237060547,95200
2020-01-31,29.75,30.06999969482422,28.579999923706055,29.40999984741211,29.40999984741211,162400
2020-02-03,29.719999313354492,30.094999313354492,28.924999237060547,29.399999618530273,29.399999618530273,159200
2020-02-04,29.969999313354492,30.18000030517578,28.940000534057617,29.850000381469727,29.850000381469727,63800
2020-02-05,30.270000457763672,30.475000381469727,29.8799991607666,30.31999969482422,30.31999969482422,118900
2020-02-06,30.600000381469727,30.635000228881836,29.709999084472656,29.979999542236328,29.979999542236328,65900
2020-02-07,29.729999542236328,29.920000076293945,29.239999771118164,29.520000457763672,29.520000457763672,42300
2020-02-10,29.399999618530273,30.09000015258789,29.209999084472656,29.799999237060547,29.799999237060547,52900
2020-02-11,30.06999969482422,30.219999313354492,29.700000762939453,29.969999313354492,29.969999313354492,85500
2020-02-12,30.15999984741211,30.399999618530273,29.34000015258789,29.610000610351562,29.610000610351562,80300
2020-02-13,29.440000534057617,29.59000015258789,27.899999618530273,28.030000686645508,28.030000686645508,204500
2020-02-14,28.040000915527344,28.809999465942383,27.40999984741211,28.059999465942383,28.059999465942383,75400
2020-02-18,27.950000762939453,29.950000762939453,27.899999618530273,29.899999618530273,29.899999618530273,173400
2020-02-19,30.0,30.200000762939453,29.290000915527344,29.920000076293945,29.920000076293945,127800
2020-02-20,29.68000030517578,30.309999465942383,29.65999984741211,30.25,30.25,121300
2020-02-21,30.0,30.579999923706055,29.68000030517578,30.280000686645508,30.280000686645508,137600
2020-02-24,28.90999984741211,29.8700008392334,28.010000228881836,29.329999923706055,29.329999923706055,197200
2020-02-25,29.530000686645508,29.799999237060547,28.149999618530273,28.670000076293945,28.670000076293945,132600
2020-02-26,28.899999618530273,29.09000015258789,28.190000534057617,28.440000534057617,28.440000534057617,97500
2020-02-27,27.850000381469727,28.05299949645996,26.770000457763672,26.770000457763672,26.770000457763672,150100
2020-02-28,26.0,27.43000030517578,25.8799991607666,27.260000228881836,27.260000228881836,138800
2020-03-02,26.510000228881836,29.299999237060547,26.510000228881836,28.010000228881836,28.010000228881836,296400
2020-03-03,28.149999618530273,29.56999969482422,28.149999618530273,29.110000610351562,29.110000610351562,208500
2020-03-04,29.5,29.969999313354492,29.350000381469727,29.770000457763672,29.770000457763672,157600
2020-03-05,29.260000228881836,30.329999923706055,28.8700008392334,29.200000762939453,29.200000762939453,320900
2020-03-06,28.549999237060547,29.799999237060547,28.549999237060547,29.110000610351562,29.110000610351562,117400
2020-03-09,26.450000762939453,27.389999389648438,26.0,27.020000457763672,27.020000457763672,285800
2020-03-10,27.850000381469727,27.90999984741211,26.059999465942383,27.690000534057617,27.690000534057617,218600
2020-03-11,27.1299991607666,27.520000457763672,23.729999542236328,23.860000610351562,23.860000610351562,321300
2020-03-12,22.450000762939453,22.510000228881836,18.1200008392334,18.489999771118164,18.489999771118164,287900
2020-03-13,19.5,19.959999084472656,16.655000686645508,18.790000915527344,18.790000915527344,241200
2020-03-16,16.549999237060547,19.25,14.5600004196167,14.619999885559082,14.619999885559082,219400
2020-03-17,15.039999961853027,16.770000457763672,14.210000038146973,15.75,15.75,299400
2020-03-18,14.5600004196167,15.739999771118164,14.149999618530273,14.270000457763672,14.270000457763672,343900
2020-03-19,14.789999961853027,15.4399995803833,14.300000190734863,14.460000038146973,14.460000038146973,305500
2020-03-20,14.869999885559082,15.244999885559082,13.5600004196167,13.680000305175781,13.680000305175781,418600
2020-03-23,13.710000038146973,16.25,13.118000030517578,16.219999313354492,16.219999313354492,261800
2020-03-24,17.139999389648438,18.3700008392334,16.84000015258789,18.06999969482422,18.06999969482422,181900
2020-03-25,17.979999542236328,18.639999389648438,16.18000030517578,18.139999389648438,18.139999389648438,225300
2020-03-26,18.34000015258789,19.0,17.270000457763672,17.6299991607666,17.6299991607666,182000
2020-03-27,17.040000915527344,18.5,16.739999771118164,17.700000762939453,17.700000762939453,149400
2020-03-30,17.719999313354492,18.520000457763672,16.8700008392334,18.15999984741211,18.15999984741211,219400
2020-03-31,18.040000915527344,18.709999084472656,17.149999618530273,17.84000015258789,17.84000015258789,197400
2020-04-01,17.299999237060547,17.450000762939453,16.100000381469727,16.5,16.5,168600
2020-04-02,16.540000915527344,17.979999542236328,16.34000015258789,17.0,17.0,241600
2020-04-03,16.850000381469727,19.56999969482422,16.809999465942383,18.3700008392334,18.3700008392334,452800
2020-04-06,19.5,20.920000076293945,19.110000610351562,20.040000915527344,20.040000915527344,307600
2020-04-07,20.979999542236328,21.059999465942383,19.530000686645508,19.8799991607666,19.8799991607666,141100
2020-04-08,20.309999465942383,20.479999542236328,19.829999923706055,20.049999237060547,20.049999237060547,181800
2020-04-09,20.329999923706055,21.329999923706055,19.8799991607666,21.299999237060547,21.299999237060547,144600
2020-04-13,24.040000915527344,24.540000915527344,21.350000381469727,23.709999084472656,23.709999084472656,353600
2020-04-14,24.549999237060547,25.940000534057617,23.809999465942383,24.670000076293945,24.670000076293945,351800
2020-04-15,24.610000610351562,25.110000610351562,21.030000686645508,21.040000915527344,21.040000915527344,617100
2020-04-16,24.0,24.0,19.010000228881836,22.139999389648438,22.139999389648438,1144800
2020-04-17,22.0,23.969999313354492,21.11199951171875,23.770000457763672,23.770000457763672,653000
2020-04-20,23.690000534057617,24.479999542236328,22.93000030517578,23.299999237060547,23.299999237060547,477300
2020-04-21,22.670000076293945,23.799999237060547,22.09000015258789,22.760000228881836,22.760000228881836,296100
2020-04-22,23.479999542236328,23.905000686645508,22.639999389648438,23.3700008392334,23.3700008392334,189400
2020-04-23,24.0,24.489999771118164,22.399999618530273,23.260000228881836,23.260000228881836,299300
2020-04-24,23.280000686645508,24.3700008392334,22.850000381469727,24.190000534057617,24.190000534057617,165500
2020-04-27,24.350000381469727,24.924999237060547,23.719999313354492,24.68000030517578,24.68000030517578,907400
2020-04-28,25.360000610351562,26.5,24.5,25.639999389648438,25.639999389648438,279700
2020-04-29,26.6299991607666,26.6299991607666,24.1200008392334,24.3700008392334,24.3700008392334,293200
2020-04-30,24.420000076293945,24.420000076293945,22.110000610351562,22.209999084472656,22.209999084472656,304300
2020-05-01,22.020000457763672,22.514999389648438,21.1200008392334,21.920000076293945,21.920000076293945,195900
2020-05-04,21.5,23.260000228881836,21.5,23.190000534057617,23.190000534057617,283600
2020-05-05,24.0,24.25,23.18000030517578,23.399999618530273,23.399999618530273,249700
2020-05-06,23.329999923706055,24.170000076293945,23.309999465942383,23.670000076293945,23.670000076293945,171600
2020-05-07,23.670000076293945,24.290000915527344,22.770000457763672,23.610000610351562,23.610000610351562,258500
2020-05-08,24.0,24.104999542236328,23.43000030517578,23.6299991607666,23.6299991607666,117100
2020-05-11,23.5,24.163000106811523,23.5,24.049999237060547,24.049999237060547,238200
2020-05-12,24.170000076293945,26.0,23.979999542236328,24.34000015258789,24.34000015258789,511800
2020-05-13,24.290000915527344,24.790000915527344,23.461999893188477,24.639999389648438,24.639999389648438,165800
2020-05-14,24.149999618530273,25.530000686645508,23.5,24.8700008392334,24.8700008392334,278900
2020-05-15,24.770000457763672,25.239999771118164,24.270000457763672,24.649999618530273,24.649999618530273,175600
2020-05-18,25.219999313354492,25.988000869750977,24.93000030517578,25.385000228881836,25.385000228881836,244100
2020-05-19,25.1200008392334,25.40999984741211,24.670000076293945,24.780000686645508,24.780000686645508,211700
2020-05-20,25.06999969482422,25.6200008392334,24.8799991607666,25.0,25.0,111800
2020-05-21,25.100000381469727,25.420000076293945,24.809999465942383,25.149999618530273,25.149999618530273,171800
2020-05-22,25.010000228881836,25.469999313354492,24.8700008392334,25.399999618530273,25.399999618530273,76900
2020-05-26,26.0,26.860000610351562,25.25,25.31999969482422,25.31999969482422,207500
2020-05-27,25.489999771118164,25.790000915527344,24.239999771118164,25.59000015258789,25.59000015258789,174400
2020-05-28,26.020000457763672,26.020000457763672,23.93000030517578,24.0,24.0,200000
2020-05-29,23.829999923706055,24.360000610351562,23.149999618530273,23.469999313354492,23.469999313354492,205200
2020-06-01,23.450000762939453,24.229999542236328,22.8799991607666,23.75,23.75,242200
2020-06-02,23.969999313354492,24.829999923706055,23.309999465942383,24.56999969482422,24.56999969482422,119100
2020-06-03,24.860000610351562,26.31999969482422,24.700000762939453,26.170000076293945,26.170000076293945,231600
2020-06-04,26.049999237060547,27.700000762939453,25.731000900268555,26.579999923706055,26.579999923706055,248300
2020-06-05,27.399999618530273,27.645000457763672,26.690000534057617,26.850000381469727,26.850000381469727,178900
2020-06-08,26.729999542236328,29.110000610351562,26.459999084472656,28.239999771118164,28.239999771118164,238100
2020-06-09,27.90999984741211,28.3799991607666,26.739999771118164,26.760000228881836,26.760000228881836,148400
2020-06-10,26.690000534057617,27.454999923706055,26.2450008392334,27.059999465942383,27.059999465942383,152400
2020-06-11,26.25,26.594999313354492,25.110000610351562,25.200000762939453,25.200000762939453,228300
2020-06-12,26.059999465942383,26.219999313354492,24.920000076293945,26.100000381469727,26.100000381469727,138500
2020-06-15,25.3799991607666,26.729999542236328,25.1299991607666,26.600000381469727,26.600000381469727,113800
2020-06-16,27.360000610351562,27.399999618530273,25.940000534057617,26.6200008392334,26.6200008392334,95300
2020-06-17,26.579999923706055,27.8799991607666,26.270000457763672,27.18000030517578,27.18000030517578,77200
2020-06-18,27.0,28.899999618530273,27.0,28.889999389648438,28.889999389648438,126300
2020-06-19,29.139999389648438,30.100000381469727,28.184999465942383,28.479999542236328,28.479999542236328,214400
2020-06-22,28.75,29.950000762939453,28.100000381469727,29.700000762939453,29.700000762939453,150200
2020-06-23,30.270000457763672,30.889999389648438,29.440000534057617,29.520000457763672,29.520000457763672,208200
2020-06-24,29.309999465942383,29.829999923706055,27.469999313354492,27.530000686645508,27.530000686645508,123500
2020-06-25,27.6200008392334,28.520000457763672,27.125,28.030000686645508,28.030000686645508,109000
2020-06-26,27.739999771118164,27.854999542236328,25.75,26.0,26.0,464200
2020-06-29,25.65999984741211,26.350000381469727,24.8799991607666,25.450000762939453,25.450000762939453,155900
2020-06-30,25.520000457763672,26.190000534057617,24.989999771118164,26.1200008392334,26.1200008392334,127900
2020-07-01,26.420000076293945,26.920000076293945,25.170000076293945,25.5,25.5,154000
2020-07-02,25.8700008392334,25.8700008392334,24.889999389648438,25.360000610351562,25.360000610351562,147800
2020-07-06,25.3799991607666,25.610000610351562,24.790000915527344,24.8799991607666,24.8799991607666,104700
2020-07-07,24.56999969482422,25.18000030517578,24.25,24.350000381469727,24.350000381469727,141800
2020-07-08,24.149999618530273,24.579999923706055,24.110000610351562,24.540000915527344,24.540000915527344,88400
2020-07-09,24.360000610351562,24.600000381469727,23.469999313354492,23.649999618530273,23.649999618530273,101700
2020-07-10,23.59000015258789,24.020000457763672,23.100000381469727,23.350000381469727,23.350000381469727,110400
2020-07-13,23.969999313354492,24.260000228881836,23.209999084472656,23.309999465942383,23.309999465942383,220300
2020-07-14,23.329999923706055,23.895000457763672,22.559999465942383,23.709999084472656,23.709999084472656,135800
2020-07-15,24.459999084472656,24.8799991607666,23.979999542236328,24.3700008392334,24.3700008392334,117700
2020-07-16,24.190000534057617,24.600000381469727,24.0,24.299999237060547,24.299999237060547,70800
2020-07-17,24.209999084472656,25.416000366210938,24.209999084472656,25.239999771118164,25.239999771118164,94700
2020-07-20,25.190000534057617,25.959999084472656,25.010000228881836,25.670000076293945,25.670000076293945,78900
2020-07-21,25.610000610351562,25.829999923706055,24.809999465942383,24.8799991607666,24.8799991607666,127200
2020-07-22,24.709999084472656,25.020000457763672,24.3700008392334,24.450000762939453,24.450000762939453,59500
2020-07-23,24.530000686645508,24.920000076293945,23.84000015258789,24.1200008392334,24.1200008392334,84600
2020-07-24,24.139999389648438,24.139999389648438,23.40999984741211,23.440000534057617,23.440000534057617,100000
2020-07-27,23.510000228881836,24.8700008392334,23.09000015258789,23.829999923706055,23.829999923706055,62100
2020-07-28,23.6200008392334,24.1200008392334,23.0,23.139999389648438,23.139999389648438,80800
2020-07-29,23.079999923706055,23.540000915527344,22.809999465942383,22.920000076293945,22.920000076293945,112200
2020-07-30,22.90999984741211,23.479999542236328,22.90999984741211,23.239999771118164,23.239999771118164,92300
2020-07-31,23.350000381469727,23.450000762939453,21.80500030517578,22.09000015258789,22.09000015258789,146300
2020-08-03,22.219999313354492,22.389999389648438,21.514999389648438,22.270000457763672,22.270000457763672,131100
2020-08-04,22.43000030517578,22.700000762939453,22.0,22.200000762939453,22.200000762939453,84800
2020-08-05,22.549999237060547,22.989999771118164,21.790000915527344,22.489999771118164,22.489999771118164,87800
2020-08-06,22.399999618530273,22.809999465942383,22.172000885009766,22.639999389648438,22.639999389648438,100700
2020-08-07,22.649999618530273,23.43000030517578,22.520000457763672,23.15999984741211,23.15999984741211,131100
2020-08-10,24.5,26.520000457763672,23.520000457763672,26.420000076293945,26.420000076293945,432000
2020-08-11,26.59000015258789,26.625,23.700000762939453,24.190000534057617,24.190000534057617,269600
2020-08-12,24.6299991607666,24.6299991607666,22.950000762939453,23.139999389648438,23.139999389648438,248900
2020-08-13,23.020000457763672,23.3799991607666,23.0,23.139999389648438,23.139999389648438,91100
2020-08-14,23.139999389648438,23.479999542236328,22.724000930786133,22.950000762939453,22.950000762939453,122000
2020-08-17,23.040000915527344,23.719999313354492,22.850000381469727,23.170000076293945,23.170000076293945,89200
2020-08-18,23.190000534057617,23.200000762939453,22.649999618530273,22.709999084472656,22.709999084472656,97700
2020-08-19,22.93000030517578,23.3700008392334,22.3799991607666,23.219999313354492,23.219999313354492,187700
2020-08-20,22.979999542236328,23.989999771118164,22.280000686645508,23.989999771118164,23.989999771118164,121100
2020-08-21,23.770000457763672,24.09000015258789,23.1200008392334,23.809999465942383,23.809999465942383,161600
2020-08-24,23.889999389648438,23.950000762939453,22.809999465942383,22.950000762939453,22.950000762939453,111000
2020-08-25,23.030000686645508,23.989999771118164,22.899999618530273,23.239999771118164,23.239999771118164,96200
2020-08-26,23.299999237060547,23.5,22.020000457763672,22.25,22.25,96000
2020-08-27,21.5,21.799999237060547,19.510000228881836,19.860000610351562,19.860000610351562,512100
2020-08-28,20.0,22.360000610351562,17.770000457763672,22.290000915527344,22.290000915527344,428400
2020-08-31,22.510000228881836,25.270000457763672,21.350000381469727,25.09000015258789,25.09000015258789,462000
2020-09-01,24.760000228881836,24.989999771118164,21.010000228881836,21.31999969482422,21.31999969482422,420100
2020-09-02,21.079999923706055,21.270000457763672,20.25,20.559999465942383,20.559999465942383,174000
2020-09-03,20.579999923706055,21.059999465942383,19.979999542236328,20.06999969482422,20.06999969482422,196700
2020-09-04,20.200000762939453,20.950000762939453,19.0,20.700000762939453,20.700000762939453,147300
2020-09-08,20.81999969482422,21.56999969482422,20.198999404907227,20.690000534057617,20.690000534057617,154600
2020-09-09,20.639999389648438,21.600000381469727,20.639999389648438,21.3799991607666,21.3799991607666,88500
2020-09-10,21.440000534057617,22.350000381469727,21.0,21.0,21.0,121700
2020-09-11,21.040000915527344,21.719999313354492,20.389999389648438,20.90999984741211,20.90999984741211,121300
2020-09-14,21.31999969482422,21.725000381469727,20.950000762939453,21.540000915527344,21.540000915527344,167100
2020-09-15,21.5,22.200000762939453,21.260000228881836,22.010000228881836,22.010000228881836,131600
2020-09-16,22.200000762939453,22.799999237060547,22.200000762939453,22.3799991607666,22.3799991607666,92900
2020-09-17,22.290000915527344,22.6299991607666,22.170000076293945,22.3700008392334,22.3700008392334,71000
2020-09-18,22.399999618530273,22.639999389648438,21.5310001373291,22.489999771118164,22.489999771118164,195300
2020-09-21,22.010000228881836,22.34000015258789,20.0,20.139999389648438,20.139999389648438,184800
2020-09-22,20.200000762939453,20.6299991607666,19.850000381469727,20.530000686645508,20.530000686645508,252300
2020-09-23,20.469999313354492,21.229999542236328,19.469999313354492,19.6299991607666,19.6299991607666,241900
2020-09-24,19.6200008392334,19.860000610351562,18.989999771118164,19.299999237060547,19.299999237060547,134400
2020-09-25,19.139999389648438,19.829999923706055,19.079999923706055,19.309999465942383,19.309999465942383,101000
2020-09-28,19.510000228881836,19.610000610351562,18.360000610351562,18.809999465942383,18.809999465942383,169800
2020-09-29,19.450000762939453,19.450000762939453,18.600000381469727,19.31999969482422,19.31999969482422,213400
2020-09-30,19.3799991607666,20.100000381469727,19.15999984741211,19.290000915527344,19.290000915527344,173900
2020-10-01,19.239999771118164,19.860000610351562,19.065000534057617,19.65999984741211,19.65999984741211,156600
2020-10-02,19.219999313354492,19.565000534057617,19.100000381469727,19.229999542236328,19.229999542236328,91300
2020-10-05,19.440000534057617,20.18000030517578,19.360000610351562,20.18000030517578,20.18000030517578,56400
2020-10-06,20.329999923706055,20.81999969482422,20.219999313354492,20.329999923706055,20.329999923706055,49000
2020-10-07,21.5,22.104999542236328,20.31999969482422,21.639999389648438,21.639999389648438,148200
2020-10-08,21.799999237060547,22.200000762939453,21.469999313354492,21.8799991607666,21.8799991607666,156700
2020-10-09,21.46500015258789,22.329999923706055,21.46500015258789,22.15999984741211,22.15999984741211,108000
2020-10-12,22.170000076293945,22.649999618530273,21.479999542236328,22.469999313354492,22.469999313354492,84900
2020-10-13,21.889999389648438,22.899999618530273,21.100000381469727,22.489999771118164,22.489999771118164,51100
2020-10-14,21.739999771118164,22.920000076293945,21.739999771118164,22.610000610351562,22.610000610351562,100400
2020-10-15,22.239999771118164,23.1200008392334,21.719999313354492,22.729999542236328,22.729999542236328,96900
2020-10-16,22.610000610351562,23.440000534057617,22.10099983215332,22.84000015258789,22.84000015258789,71600
2020-10-19,23.0,23.260000228881836,22.3700008392334,22.950000762939453,22.950000762939453,103900
2020-10-20,22.93000030517578,23.110000610351562,21.31999969482422,21.639999389648438,21.639999389648438,122500
2020-10-21,21.489999771118164,21.5,20.010000228881836,20.06999969482422,20.06999969482422,73400
2020-10-22,20.110000610351562,20.600000381469727,19.81999969482422,20.469999313354492,20.469999313354492,50400
2020-10-23,20.670000076293945,21.520000457763672,20.389999389648438,21.3700008392334,21.3700008392334,55100
2020-10-26,21.059999465942383,21.420000076293945,20.600000381469727,21.040000915527344,21.040000915527344,257400
2020-10-27,20.889999389648438,22.649999618530273,20.75,22.56999969482422,22.56999969482422,62400
2020-10-28,22.06999969482422,22.360000610351562,21.3700008392334,21.940000534057617,21.940000534057617,90000
2020-10-29,21.920000076293945,23.200000762939453,21.8799991607666,22.989999771118164,22.989999771118164,91600
2020-10-30,22.739999771118164,22.829999923706055,22.170000076293945,22.520000457763672,22.520000457763672,115100
2020-11-02,22.5,23.0,22.059999465942383,22.8799991607666,22.8799991607666,111100
2020-11-03,23.0,24.09000015258789,22.360000610351562,23.84000015258789,23.84000015258789,225000
2020-11-04,23.950000762939453,25.200000762939453,22.940000534057617,24.530000686645508,24.530000686645508,174200
2020-11-05,24.950000762939453,25.690000534057617,24.440000534057617,25.43000030517578,25.43000030517578,219800
2020-11-06,25.420000076293945,25.420000076293945,23.3700008392334,23.709999084472656,23.709999084472656,88900
2020-11-09,25.940000534057617,25.940000534057617,23.780000686645508,24.889999389648438,24.889999389648438,145500
2020-11-10,24.860000610351562,24.975000381469727,23.270000457763672,23.770000457763672,23.770000457763672,176200
2020-11-11,24.020000457763672,24.200000762939453,23.110000610351562,23.510000228881836,23.510000228881836,127400
2020-11-12,23.34000015258789,23.780000686645508,22.729999542236328,23.489999771118164,23.489999771118164,53600
2020-11-13,23.56999969482422,24.219999313354492,22.829999923706055,23.270000457763672,23.270000457763672,82400
2020-11-16,23.31999969482422,23.489999771118164,22.549999237060547,22.950000762939453,22.950000762939453,75900
2020-11-17,22.469999313354492,22.959999084472656,22.0,22.3700008392334,22.3700008392334,145600
2020-11-18,22.6200008392334,22.827999114990234,21.5,21.68000030517578,21.68000030517578,163100
2020-11-19,21.600000381469727,21.799999237060547,21.229999542236328,21.610000610351562,21.610000610351562,86900
2020-11-20,21.3700008392334,21.3700008392334,20.149999618530273,20.579999923706055,20.579999923706055,180700
2020-11-23,21.350000381469727,21.350000381469727,20.200000762939453,20.40999984741211,20.40999984741211,83200
2020-11-24,20.59000015258789,21.489999771118164,20.1200008392334,20.729999542236328,20.729999542236328,147500
2020-11-25,20.610000610351562,20.700000762939453,19.940000534057617,20.3799991607666,20.3799991607666,201400
2020-11-27,20.219999313354492,20.795000076293945,19.90999984741211,20.5,20.5,140200
2020-11-30,20.399999618530273,21.049999237060547,19.700000762939453,20.75,20.75,174200
2020-12-01,20.2549991607666,21.049999237060547,19.770000457763672,20.170000076293945,20.170000076293945,104200
2020-12-02,20.040000915527344,20.479999542236328,19.809999465942383,19.979999542236328,19.979999542236328,90900
2020-12-03,20.479999542236328,20.479999542236328,19.5,19.850000381469727,19.850000381469727,80100
2020-12-04,19.850000381469727,20.110000610351562,19.6200008392334,19.65999984741211,19.65999984741211,104800
2020-12-07,20.204999923706055,20.204999923706055,18.760000228881836,18.989999771118164,18.989999771118164,122900
2020-12-08,18.899999618530273,19.059999465942383,18.34000015258789,18.709999084472656,18.709999084472656,134700
2020-12-09,18.950000762939453,19.12700080871582,17.959999084472656,18.309999465942383,18.309999465942383,279300
2020-12-10,18.56999969482422,18.844999313354492,18.209999084472656,18.670000076293945,18.670000076293945,291300
2020-12-11,18.600000381469727,18.825000762939453,18.209999084472656,18.309999465942383,18.309999465942383,199500
2020-12-14,18.280000686645508,19.100000381469727,18.280000686645508,18.610000610351562,18.610000610351562,207900
2020-12-15,18.540000915527344,18.854999542236328,18.25,18.440000534057617,18.440000534057617,151200
2020-12-16,19.940000534057617,20.350000381469727,18.549999237060547,18.809999465942383,18.809999465942383,303300
2020-12-17,18.899999618530273,19.540000915527344,18.899999618530273,19.1200008392334,19.1200008392334,192100
2020-12-18,19.290000915527344,19.3799991607666,18.799999237060547,18.889999389648438,18.889999389648438,258100
2020-12-21,18.799999237060547,19.309999465942383,17.75,18.739999771118164,18.739999771118164,282200
2020-12-22,18.850000381469727,19.5,18.360000610351562,19.239999771118164,19.239999771118164,161300
2020-12-23,19.31999969482422,19.670000076293945,18.700000762939453,18.950000762939453,18.950000762939453,108900
2020-12-24,18.979999542236328,19.200000762939453,18.649999618530273,18.8700008392334,18.8700008392334,83500
2020-12-28,18.81999969482422,19.25,17.68000030517578,17.850000381469727,17.850000381469727,484400
2020-12-29,17.920000076293945,18.25,17.170000076293945,17.540000915527344,17.540000915527344,346800
2020-12-30,17.864999771118164,18.639999389648438,17.459999084472656,18.09000015258789,18.09000015258789,230200
