Date,Open,High,Low,Close,Adj Close,Volume
2018-11-13,10.100000381469727,10.100000381469727,9.6899995803833,9.699999809265137,9.699999809265137,10200
2018-11-14,9.800000190734863,9.800000190734863,8.699999809265137,8.699999809265137,8.699999809265137,21300
2018-11-15,9.399999618530273,9.399999618530273,8.680000305175781,8.680000305175781,8.680000305175781,15800
2018-11-16,8.430000305175781,8.600000381469727,8.329999923706055,8.420000076293945,8.420000076293945,52000
2018-11-19,8.989999771118164,8.989999771118164,8.260000228881836,8.40999984741211,8.40999984741211,14300
2018-11-20,8.300000190734863,8.899999618530273,8.039999961853027,8.039999961853027,8.039999961853027,15500
2018-11-21,8.069999694824219,8.869999885559082,8.069999694824219,8.069999694824219,8.069999694824219,8700
2018-11-23,8.130000114440918,8.539999961853027,8.130000114440918,8.479999542236328,8.479999542236328,25300
2018-11-26,8.539999961853027,8.640000343322754,7.940000057220459,8.0,8.0,37700
2018-11-27,8.039999961853027,8.229999542236328,7.849999904632568,7.889999866485596,7.889999866485596,3100
2018-11-28,7.699999809265137,8.350000381469727,6.929999828338623,7.900000095367432,7.900000095367432,164100
2018-11-29,7.900000095367432,7.980000019073486,7.75,7.909999847412109,7.909999847412109,131600
2018-11-30,7.510000228881836,8.010000228881836,7.510000228881836,7.900000095367432,7.900000095367432,47200
2018-12-03,8.25,9.079999923706055,8.0,8.0,8.0,7000
2018-12-04,7.880000114440918,7.880000114440918,7.599999904632568,7.599999904632568,7.599999904632568,7000
2018-12-06,7.820000171661377,7.820000171661377,6.909999847412109,7.46999979019165,7.46999979019165,17100
2018-12-07,7.510000228881836,7.659999847412109,7.489999771118164,7.489999771118164,7.489999771118164,6200
2018-12-10,7.519999980926514,8.100000381469727,7.070000171661377,7.349999904632568,7.349999904632568,37500
2018-12-11,7.559999942779541,7.75,7.440000057220459,7.599999904632568,7.599999904632568,94800
2018-12-12,7.510000228881836,7.730000019073486,7.449999809265137,7.5,7.5,83300
2018-12-13,7.53000020980835,7.53000020980835,6.96999979019165,7.28000020980835,7.28000020980835,27100
2018-12-14,7.5,7.5,6.96999979019165,7.460000038146973,7.460000038146973,8400
2018-12-17,7.75,7.960000038146973,7.460000038146973,7.539999961853027,7.539999961853027,344800
2018-12-18,7.559999942779541,8.3100004196167,7.5,7.699999809265137,7.699999809265137,301000
2018-12-19,7.889999866485596,8.130000114440918,7.619999885559082,7.710000038146973,7.710000038146973,384900
2018-12-20,7.679999828338623,8.050000190734863,7.579999923706055,7.710000038146973,7.710000038146973,387200
2018-12-21,7.710000038146973,7.900000095367432,6.03000020980835,6.960000038146973,6.960000038146973,662700
2018-12-24,6.960000038146973,6.960000038146973,6.03000020980835,6.400000095367432,6.400000095367432,42700
2018-12-26,6.300000190734863,6.5,6.25,6.5,6.5,88900
2018-12-27,6.099999904632568,6.550000190734863,6.099999904632568,6.400000095367432,6.400000095367432,17200
2018-12-28,6.300000190734863,6.5,6.210000038146973,6.449999809265137,6.449999809265137,31000
2018-12-31,6.409999847412109,6.5,6.139999866485596,6.5,6.5,69700
2019-01-02,6.400000095367432,6.610000133514404,6.400000095367432,6.610000133514404,6.610000133514404,4500
2019-01-03,6.550000190734863,6.829999923706055,6.5,6.739999771118164,6.739999771118164,9600
2019-01-04,6.880000114440918,7.0,6.550000190734863,6.789999961853027,6.789999961853027,39800
2019-01-07,6.800000190734863,6.800000190734863,6.360000133514404,6.610000133514404,6.610000133514404,40300
2019-01-08,6.550000190734863,6.699999809265137,6.510000228881836,6.699999809265137,6.699999809265137,59400
2019-01-09,6.699999809265137,7.800000190734863,6.570000171661377,7.019999980926514,7.019999980926514,94300
2019-01-10,7.0,7.0,6.630000114440918,6.739999771118164,6.739999771118164,41400
2019-01-11,6.739999771118164,6.989999771118164,6.619999885559082,6.619999885559082,6.619999885559082,49900
2019-01-14,6.650000095367432,6.900000095367432,6.650000095367432,6.880000114440918,6.880000114440918,27900
2019-01-15,6.889999866485596,7.050000190734863,6.75,7.050000190734863,7.050000190734863,54500
2019-01-16,7.059999942779541,7.150000095367432,6.769999980926514,7.119999885559082,7.119999885559082,120100
2019-01-17,7.079999923706055,8.359999656677246,6.75,8.140000343322754,8.140000343322754,107500
2019-01-18,8.140000343322754,8.140000343322754,7.380000114440918,7.849999904632568,7.849999904632568,36800
2019-01-22,7.809999942779541,7.809999942779541,7.090000152587891,7.5,7.5,21800
2019-01-23,7.449999809265137,8.0,7.360000133514404,7.800000190734863,7.800000190734863,6700
2019-01-24,7.800000190734863,7.800000190734863,7.239999771118164,7.28000020980835,7.28000020980835,1800
2019-01-25,7.360000133514404,7.679999828338623,7.039999961853027,7.679999828338623,7.679999828338623,84700
2019-01-28,7.699999809265137,7.710000038146973,7.440000057220459,7.579999923706055,7.579999923706055,10500
2019-01-29,7.630000114440918,7.739999771118164,7.300000190734863,7.389999866485596,7.389999866485596,11400
2019-01-30,7.400000095367432,8.329999923706055,7.130000114440918,7.690000057220459,7.690000057220459,27400
2019-01-31,7.769999980926514,8.520000457763672,7.769999980926514,8.0,8.0,38200
2019-02-01,8.020000457763672,8.510000228881836,8.020000457763672,8.199999809265137,8.199999809265137,9800
2019-02-04,8.239999771118164,9.0600004196167,8.239999771118164,8.350000381469727,8.350000381469727,61200
2019-02-05,8.170000076293945,8.25,7.949999809265137,8.010000228881836,8.010000228881836,80900
2019-02-06,8.010000228881836,8.3100004196167,8.010000228881836,8.1899995803833,8.1899995803833,23700
2019-02-07,8.15999984741211,8.1899995803833,7.920000076293945,7.960000038146973,7.960000038146973,31100
2019-02-08,7.989999771118164,8.449999809265137,7.840000152587891,8.1899995803833,8.1899995803833,20600
2019-02-11,8.239999771118164,8.34000015258789,7.690000057220459,8.199999809265137,8.199999809265137,30800
2019-02-12,8.109999656677246,8.34000015258789,7.960000038146973,8.069999694824219,8.069999694824219,20500
2019-02-13,8.489999771118164,8.789999961853027,8.039999961853027,8.25,8.25,62400
2019-02-14,8.239999771118164,9.020000457763672,8.020000457763672,8.020000457763672,8.020000457763672,77300
2019-02-15,7.5,8.25,7.460000038146973,7.909999847412109,7.909999847412109,61800
2019-02-19,8.0,8.399999618530273,7.940000057220459,7.949999809265137,7.949999809265137,18300
2019-02-20,8.0600004196167,8.510000228881836,7.679999828338623,8.0,8.0,51500
2019-02-21,7.929999828338623,8.300000190734863,7.670000076293945,7.800000190734863,7.800000190734863,56300
2019-02-22,7.869999885559082,8.09000015258789,7.789999961853027,7.849999904632568,7.849999904632568,36000
2019-02-25,7.880000114440918,8.229999542236328,7.849999904632568,7.989999771118164,7.989999771118164,22600
2019-02-26,7.789999961853027,8.149999618530273,7.769999980926514,7.849999904632568,7.849999904632568,19100
2019-02-27,7.840000152587891,8.40999984741211,7.769999980926514,7.949999809265137,7.949999809265137,15600
2019-02-28,7.75,8.050000190734863,7.71999979019165,8.050000190734863,8.050000190734863,20200
2019-03-01,8.199999809265137,8.199999809265137,7.860000133514404,8.199999809265137,8.199999809265137,69700
2019-03-04,8.460000038146973,8.90999984741211,8.100000381469727,8.850000381469727,8.850000381469727,31700
2019-03-05,8.829999923706055,8.829999923706055,8.5,8.829999923706055,8.829999923706055,36800
2019-03-06,8.739999771118164,8.75,8.130000114440918,8.270000457763672,8.270000457763672,20100
2019-03-07,8.25,8.59000015258789,8.229999542236328,8.329999923706055,8.329999923706055,29800
2019-03-08,8.210000038146973,8.789999961853027,8.100000381469727,8.390000343322754,8.390000343322754,20200
2019-03-11,8.380000114440918,8.979999542236328,8.069999694824219,8.399999618530273,8.399999618530273,79300
2019-03-12,8.4399995803833,8.5,8.220000267028809,8.4399995803833,8.4399995803833,117600
2019-03-13,8.619999885559082,9.3100004196167,8.289999961853027,8.960000038146973,8.960000038146973,256000
2019-03-14,8.760000228881836,9.15999984741211,8.529999732971191,8.90999984741211,8.90999984741211,315200
2019-03-15,8.75,8.75,8.260000228881836,8.4399995803833,8.4399995803833,386500
2019-03-18,8.5600004196167,8.760000228881836,8.369999885559082,8.680000305175781,8.680000305175781,260500
2019-03-19,8.680000305175781,8.739999771118164,8.210000038146973,8.220000267028809,8.220000267028809,111100
2019-03-20,8.229999542236328,8.59000015258789,8.229999542236328,8.25,8.25,50100
2019-03-21,8.25,8.40999984741211,8.170000076293945,8.279999732971191,8.279999732971191,27300
2019-03-22,8.199999809265137,8.239999771118164,7.570000171661377,7.739999771118164,7.739999771118164,75700
2019-03-25,7.730000019073486,8.289999961853027,7.46999979019165,7.710000038146973,7.710000038146973,30700
2019-03-26,7.730000019073486,8.079999923706055,7.730000019073486,7.909999847412109,7.909999847412109,38500
2019-03-27,7.900000095367432,8.020000457763672,7.679999828338623,7.730000019073486,7.730000019073486,34400
2019-03-28,7.679999828338623,7.949999809265137,7.590000152587891,7.619999885559082,7.619999885559082,40800
2019-03-29,7.659999847412109,7.980000019073486,7.630000114440918,7.980000019073486,7.980000019073486,71700
2019-04-01,7.980000019073486,8.260000228881836,7.710000038146973,8.100000381469727,8.100000381469727,63800
2019-04-02,8.100000381469727,8.140000343322754,7.739999771118164,7.760000228881836,7.760000228881836,95900
2019-04-03,7.840000152587891,8.279999732971191,7.760000228881836,7.889999866485596,7.889999866485596,41500
2019-04-04,7.889999866485596,8.0,7.739999771118164,7.920000076293945,7.920000076293945,14500
2019-04-05,7.920000076293945,8.100000381469727,7.5,7.610000133514404,7.610000133514404,39300
2019-04-08,7.599999904632568,8.069999694824219,7.559999942779541,7.840000152587891,7.840000152587891,23100
2019-04-09,7.829999923706055,8.140000343322754,7.739999771118164,7.960000038146973,7.960000038146973,19600
2019-04-10,7.949999809265137,8.09000015258789,7.300000190734863,7.699999809265137,7.699999809265137,26800
2019-04-11,7.710000038146973,8.039999961853027,7.579999923706055,7.849999904632568,7.849999904632568,35500
2019-04-12,7.909999847412109,8.039999961853027,7.650000095367432,7.900000095367432,7.900000095367432,32900
2019-04-15,7.900000095367432,7.900000095367432,7.579999923706055,7.619999885559082,7.619999885559082,60100
2019-04-16,7.880000114440918,8.170000076293945,7.650000095367432,7.699999809265137,7.699999809265137,27200
2019-04-17,7.75,7.760000228881836,7.5,7.510000228881836,7.510000228881836,88000
2019-04-18,7.539999961853027,7.670000076293945,7.199999809265137,7.5,7.5,18000
2019-04-22,7.489999771118164,8.050000190734863,7.199999809265137,7.800000190734863,7.800000190734863,44700
2019-04-23,7.800000190734863,7.929999828338623,7.650000095367432,7.670000076293945,7.670000076293945,34400
2019-04-24,7.659999847412109,7.800000190734863,7.269999980926514,7.300000190734863,7.300000190734863,34300
2019-04-25,7.269999980926514,7.75,7.269999980926514,7.650000095367432,7.650000095367432,22200
2019-04-26,7.650000095367432,8.0,7.550000190734863,7.900000095367432,7.900000095367432,27300
2019-04-29,7.880000114440918,7.880000114440918,7.170000076293945,7.269999980926514,7.269999980926514,29000
2019-04-30,7.289999961853027,7.590000152587891,6.960000038146973,7.190000057220459,7.190000057220459,54200
2019-05-01,7.179999828338623,7.619999885559082,6.71999979019165,7.019999980926514,7.019999980926514,90700
2019-05-02,7.010000228881836,7.21999979019165,6.980000019073486,7.099999904632568,7.099999904632568,57200
2019-05-03,7.090000152587891,7.199999809265137,6.900000095367432,7.119999885559082,7.119999885559082,89900
2019-05-06,7.25,7.78000020980835,7.059999942779541,7.179999828338623,7.179999828338623,85800
2019-05-07,7.090000152587891,7.300000190734863,6.989999771118164,6.989999771118164,6.989999771118164,18000
2019-05-08,7.25,7.460000038146973,6.940000057220459,7.119999885559082,7.119999885559082,59100
2019-05-09,7.070000171661377,7.510000228881836,6.940000057220459,7.340000152587891,7.340000152587891,51500
2019-05-10,7.639999866485596,7.710000038146973,6.53000020980835,7.099999904632568,7.099999904632568,69600
2019-05-13,7.579999923706055,7.989999771118164,7.099999904632568,7.21999979019165,7.21999979019165,39700
2019-05-14,7.210000038146973,7.820000171661377,7.210000038146973,7.429999828338623,7.429999828338623,117700
2019-05-15,7.440000057220459,7.769999980926514,7.440000057220459,7.699999809265137,7.699999809265137,45200
2019-05-16,7.730000019073486,7.809999942779541,7.539999961853027,7.690000057220459,7.690000057220459,23000
2019-05-17,7.510000228881836,7.920000076293945,7.510000228881836,7.820000171661377,7.820000171661377,22800
2019-05-20,7.820000171661377,7.820000171661377,7.610000133514404,7.630000114440918,7.630000114440918,55100
2019-05-21,7.519999980926514,7.949999809265137,7.510000228881836,7.53000020980835,7.53000020980835,25800
2019-05-22,7.579999923706055,7.789999961853027,7.480000019073486,7.619999885559082,7.619999885559082,32300
2019-05-23,7.690000057220459,7.980000019073486,7.329999923706055,7.690000057220459,7.690000057220459,42000
2019-05-24,7.769999980926514,7.889999866485596,7.579999923706055,7.800000190734863,7.800000190734863,21600
2019-05-28,7.840000152587891,7.849999904632568,7.630000114440918,7.690000057220459,7.690000057220459,17000
2019-05-29,7.670000076293945,7.75,7.21999979019165,7.429999828338623,7.429999828338623,48400
2019-05-30,7.03000020980835,7.579999923706055,7.03000020980835,7.300000190734863,7.300000190734863,20000
2019-05-31,7.590000152587891,7.670000076293945,6.980000019073486,7.150000095367432,7.150000095367432,26900
2019-06-03,7.199999809265137,7.210000038146973,6.71999979019165,7.010000228881836,7.010000228881836,45100
2019-06-04,6.960000038146973,7.239999771118164,6.429999828338623,7.099999904632568,7.099999904632568,29900
2019-06-05,7.5,7.599999904632568,6.75,6.929999828338623,6.929999828338623,37400
2019-06-06,6.599999904632568,7.059999942779541,6.599999904632568,6.710000038146973,6.710000038146973,46700
2019-06-07,6.760000228881836,7.190000057220459,6.75,6.889999866485596,6.889999866485596,22400
2019-06-10,6.71999979019165,7.010000228881836,6.059999942779541,6.25,6.25,72500
2019-06-11,6.329999923706055,6.739999771118164,6.010000228881836,6.179999828338623,6.179999828338623,42800
2019-06-12,6.320000171661377,6.650000095367432,6.119999885559082,6.289999961853027,6.289999961853027,82600
2019-06-13,6.28000020980835,6.949999809265137,6.159999847412109,6.949999809265137,6.949999809265137,134800
2019-06-14,6.889999866485596,6.929999828338623,6.070000171661377,6.099999904632568,6.099999904632568,35800
2019-06-17,6.260000228881836,6.260000228881836,5.579999923706055,5.630000114440918,5.630000114440918,22800
2019-06-18,5.840000152587891,6.070000171661377,5.840000152587891,5.900000095367432,5.900000095367432,17400
2019-06-19,5.869999885559082,6.110000133514404,5.860000133514404,5.880000114440918,5.880000114440918,13700
2019-06-20,6.039999961853027,6.150000095367432,5.849999904632568,5.889999866485596,5.889999866485596,11300
2019-06-21,5.940000057220459,6.099999904632568,5.349999904632568,5.53000020980835,5.53000020980835,78600
2019-06-24,5.519999980926514,5.519999980926514,5.0,5.070000171661377,5.070000171661377,39000
2019-06-25,5.150000095367432,5.360000133514404,4.679999828338623,4.860000133514404,4.860000133514404,36600
2019-06-26,5.889999866485596,5.889999866485596,4.71999979019165,4.900000095367432,4.900000095367432,94800
2019-06-27,4.78000020980835,5.050000190734863,4.670000076293945,4.849999904632568,4.849999904632568,93500
2019-06-28,4.739999771118164,5.309999942779541,4.739999771118164,4.820000171661377,4.820000171661377,2087500
2019-07-01,4.739999771118164,5.130000114440918,4.739999771118164,4.849999904632568,4.849999904632568,133400
2019-07-02,4.730000019073486,4.889999866485596,4.71999979019165,4.78000020980835,4.78000020980835,31700
2019-07-03,4.760000228881836,4.929999828338623,4.760000228881836,4.849999904632568,4.849999904632568,9100
2019-07-05,4.75,5.210000038146973,4.75,5.170000076293945,5.170000076293945,13900
2019-07-08,4.989999771118164,5.159999847412109,4.679999828338623,5.139999866485596,5.139999866485596,37200
2019-07-09,5.03000020980835,5.239999771118164,4.980000019073486,5.079999923706055,5.079999923706055,7900
2019-07-10,5.159999847412109,5.159999847412109,4.550000190734863,4.75,4.75,50800
2019-07-11,4.71999979019165,4.920000076293945,4.699999809265137,4.829999923706055,4.829999923706055,49700
2019-07-12,4.920000076293945,4.989999771118164,4.690000057220459,4.760000228881836,4.760000228881836,43900
2019-07-15,4.71999979019165,4.96999979019165,4.559999942779541,4.639999866485596,4.639999866485596,18500
2019-07-16,4.590000152587891,4.78000020980835,4.28000020980835,4.360000133514404,4.360000133514404,32700
2019-07-17,4.320000171661377,4.579999923706055,3.819999933242798,3.859999895095825,3.859999895095825,64500
2019-07-18,3.75,4.0,3.3299999237060547,3.4600000381469727,3.4600000381469727,263200
2019-07-19,3.359999895095825,3.609999895095825,3.359999895095825,3.5,3.5,141400
2019-07-22,3.5399999618530273,3.549999952316284,3.2799999713897705,3.3499999046325684,3.3499999046325684,131100
2019-07-23,3.309999942779541,3.549999952316284,3.0899999141693115,3.240000009536743,3.240000009536743,104700
2019-07-24,3.2100000381469727,3.700000047683716,3.2100000381469727,3.509999990463257,3.509999990463257,28200
2019-07-25,3.509999990463257,3.869999885559082,3.380000114440918,3.4600000381469727,3.4600000381469727,60700
2019-07-26,3.4800000190734863,3.700000047683716,3.200000047683716,3.4700000286102295,3.4700000286102295,123100
2019-07-29,3.430000066757202,3.700000047683716,3.2799999713897705,3.309999942779541,3.309999942779541,58000
2019-07-30,3.2799999713897705,3.440000057220459,2.950000047683716,3.069999933242798,3.069999933242798,246200
2019-07-31,3.0899999141693115,3.759999990463257,3.0399999618530273,3.0999999046325684,3.0999999046325684,259500
2019-08-01,3.0299999713897705,3.130000114440918,2.390000104904175,2.6700000762939453,2.6700000762939453,166800
2019-08-02,2.630000114440918,2.7300000190734863,2.509999990463257,2.5899999141693115,2.5899999141693115,87800
2019-08-05,2.509999990463257,2.569999933242798,2.430000066757202,2.4700000286102295,2.4700000286102295,115100
2019-08-06,2.4800000190734863,2.5299999713897705,2.0899999141693115,2.240000009536743,2.240000009536743,110000
2019-08-07,2.130000114440918,2.509999990463257,2.130000114440918,2.450000047683716,2.450000047683716,112400
2019-08-08,2.3499999046325684,2.869999885559082,2.3499999046325684,2.7799999713897705,2.7799999713897705,93800
2019-08-09,2.759999990463257,2.7699999809265137,2.5399999618530273,2.559999942779541,2.559999942779541,50800
2019-08-12,2.4700000286102295,2.5899999141693115,2.319999933242798,2.5399999618530273,2.5399999618530273,17000
2019-08-13,2.4700000286102295,2.6700000762939453,2.4600000381469727,2.4800000190734863,2.4800000190734863,35400
2019-08-14,2.319999933242798,2.7200000286102295,2.2100000381469727,2.2699999809265137,2.2699999809265137,46200
2019-08-15,2.5399999618530273,2.5399999618530273,2.2100000381469727,2.2300000190734863,2.2300000190734863,48400
2019-08-16,2.25,2.640000104904175,2.130000114440918,2.569999933242798,2.569999933242798,104900
2019-08-19,2.6600000858306885,2.880000114440918,2.549999952316284,2.8299999237060547,2.8299999237060547,47400
2019-08-20,2.799999952316284,3.200000047683716,2.7300000190734863,3.049999952316284,3.049999952316284,48400
2019-08-21,3.119999885559082,3.259999990463257,3.0399999618530273,3.049999952316284,3.049999952316284,21700
2019-08-22,3.0999999046325684,3.0999999046325684,3.009999990463257,3.0299999713897705,3.0299999713897705,26400
2019-08-23,3.009999990463257,3.440000057220459,2.859999895095825,2.859999895095825,2.859999895095825,20500
2019-08-26,2.9200000762939453,3.559999942779541,2.9200000762939453,3.0399999618530273,3.0399999618530273,65000
2019-08-27,3.0999999046325684,3.0999999046325684,2.7699999809265137,2.890000104904175,2.890000104904175,12800
2019-08-28,2.9100000858306885,3.059999942779541,2.8399999141693115,2.9800000190734863,2.9800000190734863,24100
2019-08-29,3.0299999713897705,3.6600000858306885,3.0299999713897705,3.059999942779541,3.059999942779541,109500
2019-08-30,3.180000066757202,3.5,2.930000066757202,3.0,3.0,61900
2019-09-03,3.009999990463257,3.009999990463257,2.7799999713897705,2.8399999141693115,2.8399999141693115,110800
2019-09-04,2.9100000858306885,2.9600000381469727,2.75,2.7799999713897705,2.7799999713897705,144700
2019-09-05,2.8399999141693115,2.990000009536743,2.809999942779541,2.880000114440918,2.880000114440918,70400
2019-09-06,2.880000114440918,3.0899999141693115,2.880000114440918,3.049999952316284,3.049999952316284,49900
2019-09-09,3.069999933242798,3.1500000953674316,2.7300000190734863,2.799999952316284,2.799999952316284,52900
2019-09-10,2.799999952316284,2.880000114440918,2.690000057220459,2.8499999046325684,2.8499999046325684,19900
2019-09-11,2.880000114440918,3.180000066757202,2.759999990463257,3.009999990463257,3.009999990463257,30000
2019-09-12,3.0,3.3399999141693115,2.8299999237060547,2.890000104904175,2.890000104904175,41100
2019-09-13,2.809999942779541,2.9000000953674316,2.4700000286102295,2.569999933242798,2.569999933242798,107100
2019-09-16,2.549999952316284,2.8299999237060547,2.5199999809265137,2.8299999237060547,2.8299999237060547,63800
2019-09-17,2.7899999618530273,2.7899999618530273,2.4600000381469727,2.4600000381469727,2.4600000381469727,59900
2019-09-18,2.390000104904175,2.630000114440918,2.2200000286102295,2.2200000286102295,2.2200000286102295,113300
2019-09-19,2.2300000190734863,2.490000009536743,2.1500000953674316,2.2899999618530273,2.2899999618530273,165900
2019-09-20,2.200000047683716,2.359999895095825,2.109999895095825,2.1500000953674316,2.1500000953674316,269400
2019-09-23,2.2200000286102295,2.369999885559082,2.2200000286102295,2.25,2.25,61800
2019-09-24,2.240000009536743,2.3299999237060547,1.9800000190734863,2.0,2.0,61200
2019-09-25,1.9900000095367432,2.240000009536743,1.9800000190734863,2.0,2.0,108700
2019-09-26,1.9800000190734863,2.0999999046325684,1.9299999475479126,2.0399999618530273,2.0399999618530273,72600
2019-09-27,2.0199999809265137,2.2899999618530273,2.0199999809265137,2.190000057220459,2.190000057220459,109500
2019-09-30,2.190000057220459,2.430000066757202,2.130000114440918,2.190000057220459,2.190000057220459,78300
2019-10-01,2.140000104904175,2.2799999713897705,1.840000033378601,1.8700000047683716,1.8700000047683716,141700
2019-10-02,1.8200000524520874,2.0,1.8200000524520874,1.9600000381469727,1.9600000381469727,103200
2019-10-03,1.9199999570846558,2.0299999713897705,1.909999966621399,2.0,2.0,54300
2019-10-04,2.009999990463257,2.0999999046325684,1.940000057220459,1.940000057220459,1.940000057220459,25100
2019-10-07,1.9299999475479126,2.0399999618530273,1.9299999475479126,2.0,2.0,34700
2019-10-08,1.9600000381469727,2.049999952316284,1.9600000381469727,2.0,2.0,133000
2019-10-09,2.0,2.0799999237060547,2.0,2.0,2.0,18100
2019-10-10,2.0299999713897705,2.069999933242798,2.0,2.009999990463257,2.009999990463257,27000
2019-10-11,2.0299999713897705,2.1500000953674316,2.0299999713897705,2.109999895095825,2.109999895095825,27100
2019-10-14,2.059999942779541,2.140000104904175,1.7799999713897705,2.0199999809265137,2.0199999809265137,36100
2019-10-15,1.9700000286102295,2.0899999141693115,1.9700000286102295,2.0299999713897705,2.0299999713897705,25200
2019-10-16,2.009999990463257,2.119999885559082,2.0,2.0,2.0,59700
2019-10-17,1.9900000095367432,2.0999999046325684,1.9700000286102295,2.0,2.0,57600
2019-10-18,1.9800000190734863,2.0299999713897705,1.9600000381469727,1.9600000381469727,1.9600000381469727,52500
2019-10-21,1.9700000286102295,2.049999952316284,1.9600000381469727,1.9700000286102295,1.9700000286102295,22900
2019-10-22,1.9199999570846558,2.109999895095825,1.75,1.8200000524520874,1.8200000524520874,66200
2019-10-23,1.8200000524520874,1.909999966621399,1.7999999523162842,1.8300000429153442,1.8300000429153442,111800
2019-10-24,1.8200000524520874,1.850000023841858,1.559999942779541,1.6100000143051147,1.6100000143051147,76800
2019-10-25,1.559999942779541,1.7200000286102295,1.559999942779541,1.7000000476837158,1.7000000476837158,29000
2019-10-28,1.7300000190734863,1.909999966621399,1.7300000190734863,1.8899999856948853,1.8899999856948853,73600
2019-10-29,1.8600000143051147,2.0999999046325684,1.8600000143051147,1.909999966621399,1.909999966621399,55900
2019-10-30,1.899999976158142,1.9800000190734863,1.8899999856948853,1.9700000286102295,1.9700000286102295,22400
2019-10-31,1.9500000476837158,2.0299999713897705,1.899999976158142,1.909999966621399,1.909999966621399,19300
2019-11-01,1.9199999570846558,1.9900000095367432,1.8899999856948853,1.9700000286102295,1.9700000286102295,9700
2019-11-04,2.0,2.0,1.9199999570846558,1.9500000476837158,1.9500000476837158,13800
2019-11-05,1.940000057220459,1.9700000286102295,1.940000057220459,1.9500000476837158,1.9500000476837158,14000
2019-11-06,1.909999966621399,2.0,1.7999999523162842,1.8600000143051147,1.8600000143051147,48400
2019-11-07,1.940000057220459,1.940000057220459,1.7999999523162842,1.8200000524520874,1.8200000524520874,18300
2019-11-08,1.7899999618530273,2.0,1.7599999904632568,1.809999942779541,1.809999942779541,20800
2019-11-11,1.7999999523162842,1.850000023841858,1.7999999523162842,1.8200000524520874,1.8200000524520874,10900
2019-11-12,1.8200000524520874,2.2899999618530273,1.8200000524520874,1.8799999952316284,1.8799999952316284,90300
2019-11-13,1.8899999856948853,2.0399999618530273,1.8899999856948853,1.9299999475479126,1.9299999475479126,11500
2019-11-14,1.9800000190734863,2.0399999618530273,1.9299999475479126,1.940000057220459,1.940000057220459,17600
2019-11-15,1.9500000476837158,2.0399999618530273,1.9299999475479126,1.9299999475479126,1.9299999475479126,36800
2019-11-18,1.909999966621399,2.0299999713897705,1.8700000047683716,1.8700000047683716,1.8700000047683716,30300
2019-11-19,1.8899999856948853,1.9199999570846558,1.8899999856948853,1.899999976158142,1.899999976158142,16100
2019-11-20,1.8899999856948853,1.9900000095367432,1.7999999523162842,1.8899999856948853,1.8899999856948853,74900
2019-11-21,1.9199999570846558,1.9199999570846558,1.8200000524520874,1.8200000524520874,1.8200000524520874,9800
2019-11-22,1.8899999856948853,1.909999966621399,1.8300000429153442,1.8600000143051147,1.8600000143051147,25600
2019-11-25,1.8799999952316284,1.909999966621399,1.8300000429153442,1.8700000047683716,1.8700000047683716,18400
2019-11-26,1.899999976158142,1.9199999570846558,1.850000023841858,1.8600000143051147,1.8600000143051147,15300
2019-11-27,1.8300000429153442,1.8700000047683716,1.7799999713897705,1.7799999713897705,1.7799999713897705,21300
2019-11-29,1.7599999904632568,1.7799999713897705,1.600000023841858,1.600000023841858,1.600000023841858,22600
2019-12-02,1.6399999856948853,1.659999966621399,1.4900000095367432,1.5299999713897705,1.5299999713897705,19100
2019-12-03,1.5199999809265137,1.5800000429153442,1.3799999952316284,1.409999966621399,1.409999966621399,17600
2019-12-04,1.409999966621399,1.7000000476837158,1.350000023841858,1.3700000047683716,1.3700000047683716,76800
2019-12-05,1.4199999570846558,1.4199999570846558,1.3600000143051147,1.3600000143051147,1.3600000143051147,20700
2019-12-06,1.399999976158142,1.4199999570846558,1.3700000047683716,1.3899999856948853,1.3899999856948853,19500
2019-12-09,1.4500000476837158,1.4500000476837158,1.0800000429153442,1.2000000476837158,1.2000000476837158,211900
2019-12-10,1.25,1.2599999904632568,1.2000000476837158,1.25,1.25,72500
2019-12-11,1.2699999809265137,1.2999999523162842,1.2000000476837158,1.25,1.25,71300
2019-12-12,1.2999999523162842,1.399999976158142,1.2999999523162842,1.3799999952316284,1.3799999952316284,92900
2019-12-13,1.4199999570846558,1.4500000476837158,1.350000023841858,1.3799999952316284,1.3799999952316284,52700
2019-12-16,1.3799999952316284,1.5499999523162842,1.3700000047683716,1.440000057220459,1.440000057220459,49500
2019-12-17,1.4900000095367432,1.4900000095367432,1.2799999713897705,1.3200000524520874,1.3200000524520874,158300
2019-12-18,1.340000033378601,1.350000023841858,1.2799999713897705,1.3300000429153442,1.3300000429153442,50000
2019-12-19,1.2999999523162842,1.350000023841858,1.2899999618530273,1.3200000524520874,1.3200000524520874,83800
2019-12-20,1.3200000524520874,1.3200000524520874,1.2599999904632568,1.309999942779541,1.309999942779541,103000
2019-12-23,1.309999942779541,1.340000033378601,1.2599999904632568,1.309999942779541,1.309999942779541,182500
2019-12-24,1.3200000524520874,1.350000023841858,1.25,1.2799999713897705,1.2799999713897705,83200
2019-12-26,1.309999942779541,1.3300000429153442,1.2799999713897705,1.2899999618530273,1.2899999618530273,55000
2019-12-27,1.2699999809265137,1.5499999523162842,1.2699999809265137,1.5199999809265137,1.5199999809265137,1915200
2019-12-30,1.4800000190734863,1.7699999809265137,1.4800000190734863,1.649999976158142,1.649999976158142,223000
2019-12-31,1.690000057220459,1.9199999570846558,1.649999976158142,1.8899999856948853,1.8899999856948853,116800
2020-01-02,2.0199999809265137,2.0199999809265137,1.6799999475479126,1.690000057220459,1.690000057220459,86600
2020-01-03,1.899999976158142,1.899999976158142,1.6200000047683716,1.8300000429153442,1.8300000429153442,86000
2020-01-06,1.8300000429153442,1.940000057220459,1.8300000429153442,1.8899999856948853,1.8899999856948853,105700
2020-01-07,1.8899999856948853,2.0,1.6399999856948853,1.7300000190734863,1.7300000190734863,117900
2020-01-08,1.7899999618530273,1.840000033378601,1.5800000429153442,1.590000033378601,1.590000033378601,58200
2020-01-09,1.590000033378601,1.659999966621399,1.5499999523162842,1.659999966621399,1.659999966621399,57900
2020-01-10,1.690000057220459,1.840000033378601,1.6399999856948853,1.8200000524520874,1.8200000524520874,36000
2020-01-13,1.8600000143051147,1.940000057220459,1.7100000381469727,1.809999942779541,1.809999942779541,53900
2020-01-14,1.840000033378601,1.8799999952316284,1.75,1.8200000524520874,1.8200000524520874,30700
2020-01-15,1.8300000429153442,1.9800000190734863,1.7999999523162842,1.8600000143051147,1.8600000143051147,21700
2020-01-16,1.8700000047683716,1.8700000047683716,1.840000033378601,1.840000033378601,1.840000033378601,19800
2020-01-17,1.8799999952316284,1.8899999856948853,1.7999999523162842,1.8300000429153442,1.8300000429153442,28400
2020-01-21,1.850000023841858,1.850000023841858,1.5099999904632568,1.590000033378601,1.590000033378601,117700
2020-01-22,1.6200000047683716,1.649999976158142,1.5700000524520874,1.6399999856948853,1.6399999856948853,24400
2020-01-23,1.6100000143051147,1.6299999952316284,1.5199999809265137,1.590000033378601,1.590000033378601,44500
2020-01-24,1.559999942779541,1.6299999952316284,1.5299999713897705,1.559999942779541,1.559999942779541,26300
2020-01-27,1.559999942779541,1.5800000429153442,1.5499999523162842,1.5700000524520874,1.5700000524520874,19800
2020-01-28,1.590000033378601,1.6399999856948853,1.5800000429153442,1.590000033378601,1.590000033378601,17100
2020-01-29,1.6200000047683716,1.6399999856948853,1.399999976158142,1.4800000190734863,1.4800000190734863,73500
2020-01-30,1.4700000286102295,1.4700000286102295,1.409999966621399,1.440000057220459,1.440000057220459,7700
2020-01-31,1.409999966621399,1.409999966621399,1.3200000524520874,1.340000033378601,1.340000033378601,70300
2020-02-03,1.2899999618530273,1.340000033378601,1.2300000190734863,1.309999942779541,1.309999942779541,81100
2020-02-04,1.2999999523162842,1.3200000524520874,1.2799999713897705,1.2999999523162842,1.2999999523162842,23400
2020-02-05,1.3799999952316284,1.4700000286102295,1.340000033378601,1.3700000047683716,1.3700000047683716,19700
2020-02-06,1.409999966621399,1.409999966621399,1.2899999618530273,1.2999999523162842,1.2999999523162842,32300
2020-02-07,1.309999942779541,1.340000033378601,1.2400000095367432,1.2799999713897705,1.2799999713897705,23100
2020-02-10,1.2799999713897705,1.440000057220459,1.2400000095367432,1.2599999904632568,1.2599999904632568,17800
2020-02-11,1.3200000524520874,1.409999966621399,1.3200000524520874,1.3200000524520874,1.3200000524520874,15500
2020-02-12,1.3600000143051147,1.399999976158142,1.3300000429153442,1.3300000429153442,1.3300000429153442,8300
2020-02-13,1.3799999952316284,1.3799999952316284,1.3300000429153442,1.350000023841858,1.350000023841858,15600
2020-02-14,1.3700000047683716,1.3799999952316284,1.309999942779541,1.309999942779541,1.309999942779541,9100
2020-02-18,1.309999942779541,1.309999942779541,1.2300000190734863,1.2599999904632568,1.2599999904632568,15900
2020-02-19,1.2899999618530273,1.3200000524520874,1.2599999904632568,1.2599999904632568,1.2599999904632568,5500
2020-02-20,1.2599999904632568,1.2899999618530273,1.2100000381469727,1.2300000190734863,1.2300000190734863,25800
2020-02-21,1.2699999809265137,1.2699999809265137,1.149999976158142,1.1699999570846558,1.1699999570846558,11900
2020-02-24,1.1699999570846558,1.190000057220459,1.1399999856948853,1.159999966621399,1.159999966621399,25200
2020-02-25,1.2100000381469727,1.2100000381469727,1.059999942779541,1.1299999952316284,1.1299999952316284,42800
2020-02-26,1.1200000047683716,1.1200000047683716,1.0800000429153442,1.100000023841858,1.100000023841858,20800
2020-02-27,1.0299999713897705,1.090000033378601,1.0099999904632568,1.0299999713897705,1.0299999713897705,48500
2020-02-28,1.0099999904632568,1.1100000143051147,1.0,1.0499999523162842,1.0499999523162842,72500
2020-03-02,1.0800000429153442,1.1100000143051147,1.059999942779541,1.1100000143051147,1.1100000143051147,30700
2020-03-03,1.0800000429153442,1.1399999856948853,1.0499999523162842,1.0700000524520874,1.0700000524520874,34100
2020-03-04,0.9800000190734863,1.350000023841858,0.9800000190734863,1.2899999618530273,1.2899999618530273,39400
2020-03-05,1.2599999904632568,1.2599999904632568,1.059999942779541,1.0800000429153442,1.0800000429153442,25600
2020-03-06,1.0700000524520874,1.090000033378601,1.0399999618530273,1.090000033378601,1.090000033378601,25000
2020-03-09,0.9700000286102295,1.0,0.800000011920929,0.8199999928474426,0.8199999928474426,101800
2020-03-10,0.800000011920929,0.800000011920929,0.5299999713897705,0.5699999928474426,0.5699999928474426,151900
2020-03-11,0.6000000238418579,0.6299999952316284,0.5799999833106995,0.6100000143051147,0.6100000143051147,87300
2020-03-12,0.6000000238418579,0.6800000071525574,0.46000000834465027,0.5199999809265137,0.5199999809265137,70100
2020-03-13,0.5199999809265137,0.5899999737739563,0.30000001192092896,0.44999998807907104,0.44999998807907104,159800
2020-03-16,0.44999998807907104,0.44999998807907104,0.3799999952316284,0.38999998569488525,0.38999998569488525,56900
2020-03-17,0.4000000059604645,0.5600000023841858,0.3700000047683716,0.5600000023841858,0.5600000023841858,99100
2020-03-18,0.5400000214576721,0.5400000214576721,0.25,0.27000001072883606,0.27000001072883606,135500
2020-03-19,0.30000001192092896,0.44999998807907104,0.30000001192092896,0.4099999964237213,0.4099999964237213,116700
2020-03-20,0.4300000071525574,0.49000000953674316,0.3700000047683716,0.3700000047683716,0.3700000047683716,96600
2020-03-23,0.38999998569488525,0.47999998927116394,0.3499999940395355,0.36000001430511475,0.36000001430511475,52800
2020-03-24,0.3799999952316284,0.550000011920929,0.3799999952316284,0.4099999964237213,0.4099999964237213,119400
2020-03-25,0.4099999964237213,0.41999998688697815,0.3700000047683716,0.3799999952316284,0.3799999952316284,109300
2020-03-26,0.3700000047683716,0.38999998569488525,0.3499999940395355,0.3799999952316284,0.3799999952316284,69200
2020-03-27,0.3799999952316284,0.3799999952316284,0.33000001311302185,0.33000001311302185,0.33000001311302185,120600
2020-03-30,0.3400000035762787,0.3499999940395355,0.25999999046325684,0.30000001192092896,0.30000001192092896,151400
2020-03-31,0.3199999928474426,0.33000001311302185,0.27000001072883606,0.30000001192092896,0.30000001192092896,65600
2020-04-01,0.3199999928474426,0.3199999928474426,0.25999999046325684,0.25999999046325684,0.25999999046325684,65700
2020-04-02,0.36000001430511475,0.47999998927116394,0.25999999046325684,0.28999999165534973,0.28999999165534973,426400
2020-04-03,0.30000001192092896,0.3499999940395355,0.25,0.25,0.25,342800
2020-04-06,0.25999999046325684,0.27000001072883606,0.25,0.27000001072883606,0.27000001072883606,208400
2020-04-07,0.2800000011920929,0.2800000011920929,0.25,0.25,0.25,220500
2020-04-08,0.2800000011920929,0.2800000011920929,0.25,0.27000001072883606,0.27000001072883606,1329200
2020-04-09,0.9900000095367432,1.2999999523162842,0.5,0.5199999809265137,0.5199999809265137,33237500
2020-04-13,0.6499999761581421,0.7400000095367432,0.5899999737739563,0.6499999761581421,0.6499999761581421,7719700
2020-04-14,0.6499999761581421,0.6499999761581421,0.550000011920929,0.5799999833106995,0.5799999833106995,3033700
2020-04-15,0.5099999904632568,0.5400000214576721,0.44999998807907104,0.5199999809265137,0.5199999809265137,1903700
2020-04-16,0.46000000834465027,0.5099999904632568,0.41999998688697815,0.44999998807907104,0.44999998807907104,1244900
2020-04-17,0.4699999988079071,0.47999998927116394,0.4300000071525574,0.44999998807907104,0.44999998807907104,1092600
2020-04-20,0.44999998807907104,0.44999998807907104,0.3799999952316284,0.38999998569488525,0.38999998569488525,1335100
2020-04-21,0.4000000059604645,0.5799999833106995,0.4000000059604645,0.46000000834465027,0.46000000834465027,2623900
2020-04-22,0.49000000953674316,0.5,0.4000000059604645,0.4300000071525574,0.4300000071525574,1067600
2020-04-23,0.46000000834465027,0.5,0.4399999976158142,0.46000000834465027,0.46000000834465027,1926500
2020-04-24,0.5,0.5199999809265137,0.44999998807907104,0.4699999988079071,0.4699999988079071,1766600
2020-04-27,0.4699999988079071,0.4699999988079071,0.4399999976158142,0.4699999988079071,0.4699999988079071,732700
2020-04-28,0.47999998927116394,0.47999998927116394,0.4399999976158142,0.4699999988079071,0.4699999988079071,938600
2020-04-29,0.46000000834465027,0.47999998927116394,0.4399999976158142,0.4699999988079071,0.4699999988079071,1163500
2020-04-30,0.4699999988079071,0.4699999988079071,0.4399999976158142,0.46000000834465027,0.46000000834465027,1007100
2020-05-01,0.44999998807907104,0.46000000834465027,0.41999998688697815,0.44999998807907104,0.44999998807907104,767900
2020-05-04,0.46000000834465027,0.46000000834465027,0.41999998688697815,0.44999998807907104,0.44999998807907104,614800
2020-05-05,0.44999998807907104,0.46000000834465027,0.41999998688697815,0.4300000071525574,0.4300000071525574,959000
2020-05-06,0.44999998807907104,0.4699999988079071,0.4300000071525574,0.4300000071525574,0.4300000071525574,675400
2020-05-07,0.4300000071525574,0.44999998807907104,0.4099999964237213,0.4300000071525574,0.4300000071525574,783300
2020-05-08,0.41999998688697815,0.4300000071525574,0.4000000059604645,0.4300000071525574,0.4300000071525574,1356200
2020-05-11,0.38999998569488525,0.41999998688697815,0.3499999940395355,0.38999998569488525,0.38999998569488525,2005900
2020-05-12,0.4300000071525574,0.46000000834465027,0.41999998688697815,0.4399999976158142,0.4399999976158142,2458100
2020-05-13,0.47999998927116394,0.49000000953674316,0.4000000059604645,0.4399999976158142,0.4399999976158142,1567700
2020-05-14,0.4099999964237213,0.4399999976158142,0.4000000059604645,0.4300000071525574,0.4300000071525574,970100
2020-05-15,0.4000000059604645,0.4300000071525574,0.4000000059604645,0.41999998688697815,0.41999998688697815,556100
2020-05-18,0.44999998807907104,0.44999998807907104,0.41999998688697815,0.4399999976158142,0.4399999976158142,786700
2020-05-19,0.41999998688697815,0.47999998927116394,0.4099999964237213,0.4300000071525574,0.4300000071525574,2581300
2020-05-20,0.4300000071525574,0.4300000071525574,0.4000000059604645,0.4099999964237213,0.4099999964237213,1090700
2020-05-21,0.4099999964237213,0.4099999964237213,0.38999998569488525,0.4000000059604645,0.4000000059604645,666100
2020-05-22,0.4099999964237213,0.4099999964237213,0.38999998569488525,0.38999998569488525,0.38999998569488525,1097600
2020-05-26,0.4000000059604645,0.4099999964237213,0.38999998569488525,0.4000000059604645,0.4000000059604645,776900
2020-05-27,0.4000000059604645,0.4399999976158142,0.4000000059604645,0.41999998688697815,0.41999998688697815,948000
2020-05-28,0.4300000071525574,0.5199999809265137,0.41999998688697815,0.4699999988079071,0.4699999988079071,3713900
2020-05-29,0.49000000953674316,0.5,0.4300000071525574,0.4699999988079071,0.4699999988079071,1539400
2020-06-01,0.4699999988079071,0.5099999904632568,0.46000000834465027,0.4699999988079071,0.4699999988079071,1384700
2020-06-02,0.49000000953674316,0.49000000953674316,0.4399999976158142,0.44999998807907104,0.44999998807907104,1113400
2020-06-03,0.4699999988079071,0.49000000953674316,0.46000000834465027,0.47999998927116394,0.47999998927116394,1024500
2020-06-04,0.47999998927116394,0.49000000953674316,0.46000000834465027,0.4699999988079071,0.4699999988079071,1103200
2020-06-05,0.5299999713897705,0.7200000286102295,0.5099999904632568,0.6299999952316284,0.6299999952316284,5402600
2020-06-08,0.8999999761581421,1.0299999713897705,0.7799999713897705,0.9599999785423279,0.9599999785423279,6858400
2020-06-09,0.8500000238418579,0.8600000143051147,0.7099999785423279,0.7900000214576721,0.7900000214576721,2944500
2020-06-10,0.7099999785423279,0.75,0.5199999809265137,0.6399999856948853,0.6399999856948853,2907500
2020-06-11,0.5699999928474426,0.6000000238418579,0.5099999904632568,0.5199999809265137,0.5199999809265137,1682100
2020-06-12,0.6299999952316284,0.6299999952316284,0.5699999928474426,0.5899999737739563,0.5899999737739563,1274400
2020-06-15,0.5699999928474426,0.6100000143051147,0.5299999713897705,0.5600000023841858,0.5600000023841858,1246800
2020-06-16,0.6499999761581421,0.6499999761581421,0.5799999833106995,0.6000000238418579,0.6000000238418579,1786000
2020-06-17,0.6200000047683716,0.6200000047683716,0.5400000214576721,0.550000011920929,0.550000011920929,1316700
2020-06-18,0.550000011920929,0.6000000238418579,0.5400000214576721,0.550000011920929,0.550000011920929,1081200
2020-06-19,0.5899999737739563,0.5899999737739563,0.5199999809265137,0.5199999809265137,0.5199999809265137,1204200
2020-06-22,0.5400000214576721,0.6399999856948853,0.5099999904632568,0.5799999833106995,0.5799999833106995,3110600
2020-06-23,0.5899999737739563,0.5899999737739563,0.5199999809265137,0.550000011920929,0.550000011920929,1629700
2020-06-24,0.5199999809265137,0.5400000214576721,0.5099999904632568,0.5199999809265137,0.5199999809265137,1067400
2020-06-25,0.5199999809265137,0.5199999809265137,0.4699999988079071,0.5099999904632568,0.5099999904632568,1355200
2020-06-26,0.5,0.5099999904632568,0.46000000834465027,0.49000000953674316,0.49000000953674316,3227500
2020-06-29,0.4699999988079071,0.5199999809265137,0.4699999988079071,0.5,0.5,544400
2020-06-30,0.49000000953674316,0.5099999904632568,0.47999998927116394,0.49000000953674316,0.49000000953674316,428300
2020-07-01,0.5099999904632568,0.5299999713897705,0.47999998927116394,0.47999998927116394,0.47999998927116394,655600
2020-07-02,0.47999998927116394,0.5,0.47999998927116394,0.49000000953674316,0.49000000953674316,612100
2020-07-06,0.5099999904632568,0.5099999904632568,0.4699999988079071,0.4699999988079071,0.4699999988079071,502000
2020-07-07,0.47999998927116394,0.47999998927116394,0.44999998807907104,0.44999998807907104,0.44999998807907104,594700
2020-07-08,0.44999998807907104,0.46000000834465027,0.4399999976158142,0.44999998807907104,0.44999998807907104,424100
2020-07-09,0.4399999976158142,0.46000000834465027,0.4099999964237213,0.4300000071525574,0.4300000071525574,570700
2020-07-10,0.4300000071525574,0.44999998807907104,0.4099999964237213,0.4399999976158142,0.4399999976158142,375100
2020-07-13,0.44999998807907104,0.44999998807907104,0.4099999964237213,0.41999998688697815,0.41999998688697815,581700
2020-07-14,0.41999998688697815,0.4300000071525574,0.4000000059604645,0.41999998688697815,0.41999998688697815,420600
2020-07-15,0.4300000071525574,0.44999998807907104,0.4099999964237213,0.44999998807907104,0.44999998807907104,409800
2020-07-16,0.44999998807907104,0.44999998807907104,0.41999998688697815,0.4399999976158142,0.4399999976158142,290800
2020-07-17,0.4399999976158142,0.44999998807907104,0.41999998688697815,0.41999998688697815,0.41999998688697815,225800
2020-07-20,0.4300000071525574,0.4300000071525574,0.41999998688697815,0.41999998688697815,0.41999998688697815,272500
2020-07-21,0.41999998688697815,0.4699999988079071,0.41999998688697815,0.44999998807907104,0.44999998807907104,1360900
2020-07-22,0.49000000953674316,0.49000000953674316,0.44999998807907104,0.46000000834465027,0.46000000834465027,882200
2020-07-23,0.46000000834465027,0.46000000834465027,0.4399999976158142,0.4399999976158142,0.4399999976158142,467800
2020-07-24,0.4399999976158142,0.47999998927116394,0.4300000071525574,0.4399999976158142,0.4399999976158142,327100
2020-07-27,0.4399999976158142,0.4399999976158142,0.41999998688697815,0.41999998688697815,0.41999998688697815,335100
2020-07-28,0.41999998688697815,0.4300000071525574,0.41999998688697815,0.41999998688697815,0.41999998688697815,327800
2020-07-29,0.41999998688697815,0.4300000071525574,0.4099999964237213,0.4099999964237213,0.4099999964237213,314900
2020-07-30,0.4099999964237213,0.41999998688697815,0.4099999964237213,0.4099999964237213,0.4099999964237213,265000
2020-07-31,0.4099999964237213,0.41999998688697815,0.3799999952316284,0.4000000059604645,0.4000000059604645,625300
2020-08-03,0.41999998688697815,0.41999998688697815,0.4000000059604645,0.41999998688697815,0.41999998688697815,456900
2020-08-04,0.41999998688697815,0.4300000071525574,0.3799999952316284,0.4099999964237213,0.4099999964237213,592100
2020-08-05,0.41999998688697815,0.47999998927116394,0.4099999964237213,0.44999998807907104,0.44999998807907104,1104700
2020-08-06,0.4399999976158142,0.44999998807907104,0.41999998688697815,0.41999998688697815,0.41999998688697815,557100
2020-08-07,0.4399999976158142,0.4399999976158142,0.4099999964237213,0.41999998688697815,0.41999998688697815,248600
2020-08-10,0.41999998688697815,0.4399999976158142,0.4099999964237213,0.4399999976158142,0.4399999976158142,312900
2020-08-11,0.4399999976158142,0.4399999976158142,0.41999998688697815,0.41999998688697815,0.41999998688697815,403300
2020-08-12,0.4300000071525574,0.4300000071525574,0.4099999964237213,0.41999998688697815,0.41999998688697815,229300
2020-08-13,0.41999998688697815,0.4300000071525574,0.4099999964237213,0.41999998688697815,0.41999998688697815,157500
2020-08-14,0.4099999964237213,0.4300000071525574,0.4000000059604645,0.4099999964237213,0.4099999964237213,411100
2020-08-17,0.41999998688697815,0.4300000071525574,0.4000000059604645,0.4099999964237213,0.4099999964237213,250200
2020-08-18,0.4099999964237213,0.4099999964237213,0.3199999928474426,0.3400000035762787,0.3400000035762787,1821700
2020-08-19,0.36000001430511475,0.3700000047683716,0.3499999940395355,0.3499999940395355,0.3499999940395355,351700
2020-08-20,0.3499999940395355,0.36000001430511475,0.33000001311302185,0.3499999940395355,0.3499999940395355,676600
2020-08-21,0.3400000035762787,0.36000001430511475,0.33000001311302185,0.33000001311302185,0.33000001311302185,525900
2020-08-24,0.3199999928474426,0.3499999940395355,0.3199999928474426,0.33000001311302185,0.33000001311302185,522900
2020-08-25,0.3199999928474426,0.33000001311302185,0.30000001192092896,0.3100000023841858,0.3100000023841858,882600
2020-08-26,0.30000001192092896,0.3100000023841858,0.2800000011920929,0.28999999165534973,0.28999999165534973,717600
2020-08-27,0.28999999165534973,0.30000001192092896,0.2800000011920929,0.28999999165534973,0.28999999165534973,407800
2020-08-28,0.3100000023841858,0.3100000023841858,0.28999999165534973,0.3100000023841858,0.3100000023841858,319100
2020-08-31,0.30000001192092896,0.3100000023841858,0.27000001072883606,0.2800000011920929,0.2800000011920929,617900
2020-09-01,0.27000001072883606,0.2800000011920929,0.25999999046325684,0.27000001072883606,0.27000001072883606,344000
2020-09-02,0.27000001072883606,0.2800000011920929,0.23000000417232513,0.25,0.25,1141600
2020-09-03,0.25,0.3199999928474426,0.25,0.30000001192092896,0.30000001192092896,1497700
2020-09-04,0.30000001192092896,0.3199999928474426,0.27000001072883606,0.28999999165534973,0.28999999165534973,1121500
2020-09-08,0.28999999165534973,0.3100000023841858,0.25999999046325684,0.25999999046325684,0.25999999046325684,443000
2020-09-09,0.27000001072883606,0.27000001072883606,0.23000000417232513,0.25,0.25,464200
2020-09-10,0.27000001072883606,0.27000001072883606,0.23999999463558197,0.25,0.25,328800
2020-09-11,0.30000001192092896,0.30000001192092896,0.23999999463558197,0.25,0.25,1224300
2020-09-14,0.25999999046325684,0.27000001072883606,0.25,0.27000001072883606,0.27000001072883606,417400
2020-09-15,0.25999999046325684,0.27000001072883606,0.25,0.27000001072883606,0.27000001072883606,381200
2020-09-16,0.25999999046325684,0.28999999165534973,0.25999999046325684,0.27000001072883606,0.27000001072883606,684600
2020-09-17,0.2800000011920929,0.28999999165534973,0.27000001072883606,0.28999999165534973,0.28999999165534973,386900
2020-09-18,0.30000001192092896,0.36000001430511475,0.28999999165534973,0.30000001192092896,0.30000001192092896,2211300
2020-09-21,0.30000001192092896,0.3100000023841858,0.2800000011920929,0.28999999165534973,0.28999999165534973,651100
2020-09-22,0.28999999165534973,0.3100000023841858,0.27000001072883606,0.27000001072883606,0.27000001072883606,550700
2020-09-23,0.30000001192092896,0.30000001192092896,0.25999999046325684,0.25999999046325684,0.25999999046325684,525700
2020-09-24,0.25999999046325684,0.27000001072883606,0.25999999046325684,0.25999999046325684,0.25999999046325684,474900
2020-09-25,0.2800000011920929,0.2800000011920929,0.25999999046325684,0.2800000011920929,0.2800000011920929,406900
2020-09-28,0.2800000011920929,0.2800000011920929,0.27000001072883606,0.27000001072883606,0.27000001072883606,228300
2020-09-29,0.2800000011920929,0.28999999165534973,0.27000001072883606,0.27000001072883606,0.27000001072883606,562600
2020-09-30,0.27000001072883606,0.2800000011920929,0.27000001072883606,0.27000001072883606,0.27000001072883606,390900
2020-10-01,0.2800000011920929,0.2800000011920929,0.25999999046325684,0.25999999046325684,0.25999999046325684,379200
2020-10-02,0.25999999046325684,0.27000001072883606,0.25,0.25999999046325684,0.25999999046325684,388600
2020-10-05,0.27000001072883606,0.27000001072883606,0.25999999046325684,0.27000001072883606,0.27000001072883606,329300
2020-10-06,0.27000001072883606,0.27000001072883606,0.25999999046325684,0.25999999046325684,0.25999999046325684,325900
2020-10-07,0.27000001072883606,0.27000001072883606,0.25999999046325684,0.25999999046325684,0.25999999046325684,270000
2020-10-08,0.27000001072883606,0.44999998807907104,0.25999999046325684,0.3199999928474426,0.3199999928474426,10122900
2020-10-09,0.5799999833106995,0.6399999856948853,0.3799999952316284,0.4399999976158142,0.4399999976158142,48610600
2020-10-12,0.3499999940395355,0.4099999964237213,0.3499999940395355,0.4099999964237213,0.4099999964237213,5337800
2020-10-13,0.4099999964237213,0.4099999964237213,0.3499999940395355,0.36000001430511475,0.36000001430511475,1654800
2020-10-14,0.3499999940395355,0.3700000047683716,0.3400000035762787,0.3400000035762787,0.3400000035762787,658700
2020-10-15,0.3799999952316284,0.3799999952316284,0.33000001311302185,0.3400000035762787,0.3400000035762787,2661800
2020-10-16,0.33000001311302185,0.3400000035762787,0.3100000023841858,0.3100000023841858,0.3100000023841858,1127300
2020-10-19,0.33000001311302185,0.3400000035762787,0.30000001192092896,0.3100000023841858,0.3100000023841858,961400
2020-10-20,0.3100000023841858,0.3199999928474426,0.3100000023841858,0.3100000023841858,0.3100000023841858,561700
2020-10-21,0.3100000023841858,0.33000001311302185,0.30000001192092896,0.33000001311302185,0.33000001311302185,677700
2020-10-22,0.3400000035762787,0.3400000035762787,0.3199999928474426,0.33000001311302185,0.33000001311302185,529200
2020-10-23,0.3199999928474426,0.3499999940395355,0.3199999928474426,0.33000001311302185,0.33000001311302185,678300
2020-10-26,0.3199999928474426,0.33000001311302185,0.3100000023841858,0.3199999928474426,0.3199999928474426,492500
2020-10-27,0.3199999928474426,0.3400000035762787,0.3100000023841858,0.3199999928474426,0.3199999928474426,3977500
2020-10-28,0.33000001311302185,0.3499999940395355,0.3100000023841858,0.33000001311302185,0.33000001311302185,3009400
2020-10-29,0.3400000035762787,0.3400000035762787,0.30000001192092896,0.3199999928474426,0.3199999928474426,1022100
2020-10-30,0.3100000023841858,0.3199999928474426,0.30000001192092896,0.3100000023841858,0.3100000023841858,503400
2020-11-02,0.3100000023841858,0.3199999928474426,0.30000001192092896,0.3100000023841858,0.3100000023841858,395200
2020-11-03,0.3100000023841858,0.33000001311302185,0.30000001192092896,0.3199999928474426,0.3199999928474426,458300
2020-11-04,0.33000001311302185,0.3400000035762787,0.30000001192092896,0.3100000023841858,0.3100000023841858,577000
2020-11-05,0.3199999928474426,0.3400000035762787,0.3100000023841858,0.33000001311302185,0.33000001311302185,1543700
2020-11-06,0.3499999940395355,0.3499999940395355,0.3100000023841858,0.3199999928474426,0.3199999928474426,2157200
2020-11-09,0.3400000035762787,0.3499999940395355,0.3199999928474426,0.3400000035762787,0.3400000035762787,2105900
2020-11-10,0.3400000035762787,0.3400000035762787,0.3199999928474426,0.3400000035762787,0.3400000035762787,629500
2020-11-11,0.3400000035762787,0.3499999940395355,0.3400000035762787,0.3400000035762787,0.3400000035762787,234000
2020-11-12,0.3499999940395355,0.3499999940395355,0.3199999928474426,0.3199999928474426,0.3199999928474426,365800
2020-11-13,0.3199999928474426,0.33000001311302185,0.3199999928474426,0.33000001311302185,0.33000001311302185,410500
2020-11-16,0.33000001311302185,0.3400000035762787,0.3199999928474426,0.3400000035762787,0.3400000035762787,470700
2020-11-17,0.33000001311302185,0.3400000035762787,0.33000001311302185,0.3400000035762787,0.3400000035762787,328400
2020-11-18,0.3400000035762787,0.3799999952316284,0.33000001311302185,0.3499999940395355,0.3499999940395355,1195100
2020-11-19,0.36000001430511475,0.3700000047683716,0.3499999940395355,0.3700000047683716,0.3700000047683716,588600
2020-11-20,0.3700000047683716,0.4099999964237213,0.36000001430511475,0.3799999952316284,0.3799999952316284,1016300
2020-11-23,0.3700000047683716,0.4099999964237213,0.3499999940395355,0.38999998569488525,0.38999998569488525,954500
2020-11-24,0.4300000071525574,0.5299999713897705,0.41999998688697815,0.49000000953674316,0.49000000953674316,6434500
2020-11-25,0.44999998807907104,0.46000000834465027,0.4000000059604645,0.4399999976158142,0.4399999976158142,1415800
2020-11-27,0.4399999976158142,0.46000000834465027,0.38999998569488525,0.4099999964237213,0.4099999964237213,1469500
2020-11-30,0.41999998688697815,0.41999998688697815,0.4000000059604645,0.4000000059604645,0.4000000059604645,671800
2020-12-01,0.41999998688697815,0.41999998688697815,0.38999998569488525,0.4000000059604645,0.4000000059604645,705500
2020-12-02,0.4000000059604645,0.4399999976158142,0.3799999952316284,0.4099999964237213,0.4099999964237213,797900
2020-12-03,0.4099999964237213,0.46000000834465027,0.4099999964237213,0.4399999976158142,0.4399999976158142,988200
2020-12-04,0.44999998807907104,0.44999998807907104,0.4300000071525574,0.44999998807907104,0.44999998807907104,664900
2020-12-07,0.44999998807907104,0.44999998807907104,0.41999998688697815,0.4399999976158142,0.4399999976158142,555500
2020-12-08,0.4300000071525574,0.4699999988079071,0.4300000071525574,0.4399999976158142,0.4399999976158142,651300
2020-12-09,0.46000000834465027,0.46000000834465027,0.4099999964237213,0.4399999976158142,0.4399999976158142,637500
2020-12-10,0.4300000071525574,0.44999998807907104,0.4099999964237213,0.44999998807907104,0.44999998807907104,563100
2020-12-11,0.44999998807907104,0.4699999988079071,0.44999998807907104,0.46000000834465027,0.46000000834465027,754200
2020-12-14,0.47999998927116394,0.5099999904632568,0.46000000834465027,0.47999998927116394,0.47999998927116394,1722700
2020-12-15,0.5,0.5299999713897705,0.47999998927116394,0.5099999904632568,0.5099999904632568,1787900
2020-12-16,0.5199999809265137,0.5199999809265137,0.5,0.5099999904632568,0.5099999904632568,1419200
2020-12-17,0.5199999809265137,0.5199999809265137,0.4699999988079071,0.49000000953674316,0.49000000953674316,1222900
2020-12-18,0.49000000953674316,0.5,0.44999998807907104,0.4699999988079071,0.4699999988079071,609600
2020-12-21,0.46000000834465027,0.4699999988079071,0.4300000071525574,0.46000000834465027,0.46000000834465027,739500
2020-12-22,0.46000000834465027,0.4699999988079071,0.4099999964237213,0.41999998688697815,0.41999998688697815,1372600
2020-12-23,0.4300000071525574,0.44999998807907104,0.41999998688697815,0.44999998807907104,0.44999998807907104,531100
2020-12-24,0.4699999988079071,0.49000000953674316,0.4300000071525574,0.4399999976158142,0.4399999976158142,1003700
2020-12-28,0.46000000834465027,0.46000000834465027,0.41999998688697815,0.4300000071525574,0.4300000071525574,794000
2020-12-29,0.4300000071525574,0.4300000071525574,0.4000000059604645,0.4099999964237213,0.4099999964237213,599400
2020-12-30,0.4099999964237213,0.4300000071525574,0.4000000059604645,0.4099999964237213,0.4099999964237213,588200
