Date,Open,High,Low,Close,Adj Close,Volume
2020-11-24,9.75,9.75,9.744000434875488,9.744000434875488,9.744000434875488,900
2020-11-25,9.744000434875488,9.744000434875488,9.744000434875488,9.744000434875488,9.744000434875488,100
2020-11-27,9.800000190734863,9.819999694824219,9.800000190734863,9.819999694824219,9.819999694824219,4500
2020-11-30,9.819999694824219,10.800000190734863,9.720000267028809,9.949999809265137,9.949999809265137,53300
2020-12-01,9.873000144958496,9.970000267028809,9.873000144958496,9.970000267028809,9.970000267028809,2000
2020-12-02,10.109999656677246,10.109999656677246,9.970000267028809,10.050000190734863,10.050000190734863,78500
2020-12-03,10.050000190734863,10.050000190734863,10.050000190734863,10.050000190734863,10.050000190734863,1200
2020-12-04,10.039999961853027,10.1850004196167,9.989999771118164,10.0600004196167,10.0600004196167,84100
2020-12-07,10.100000381469727,10.25,10.050000190734863,10.199999809265137,10.199999809265137,187700
2020-12-08,10.119999885559082,10.199999809265137,9.899999618530273,10.1899995803833,10.1899995803833,14300
2020-12-09,10.210000038146973,11.390000343322754,10.199999809265137,10.300000190734863,10.300000190734863,213500
2020-12-10,10.180000305175781,10.25,10.15999984741211,10.25,10.25,268400
2020-12-11,10.350000381469727,11.039999961853027,10.130000114440918,10.350000381469727,10.350000381469727,269400
2020-12-14,10.489999771118164,11.039999961853027,10.140000343322754,10.300000190734863,10.300000190734863,62800
2020-12-15,10.223999977111816,10.460000038146973,10.0,10.340999603271484,10.340999603271484,101200
2020-12-16,10.5,10.567000389099121,10.25,10.4399995803833,10.4399995803833,4400
2020-12-17,10.274999618530273,10.5,10.199999809265137,10.300000190734863,10.300000190734863,8200
2020-12-18,10.199999809265137,10.34000015258789,10.149999618530273,10.34000015258789,10.34000015258789,28000
2020-12-21,10.199999809265137,10.329999923706055,10.199999809265137,10.229999542236328,10.229999542236328,411000
2020-12-22,10.25,10.279999732971191,10.149999618530273,10.239999771118164,10.239999771118164,41900
2020-12-23,10.100000381469727,10.329999923706055,10.100000381469727,10.25,10.25,69500
2020-12-24,10.348999977111816,10.5,10.289999961853027,10.300000190734863,10.300000190734863,3100
2020-12-28,10.40999984741211,10.45199966430664,10.319999694824219,10.319999694824219,10.319999694824219,280200
2020-12-29,10.380000114440918,10.604999542236328,9.970000267028809,10.289999961853027,10.289999961853027,96100
2020-12-30,10.4399995803833,10.6899995803833,10.289999961853027,10.420000076293945,10.420000076293945,356200
