Date,Open,High,Low,Close,Adj Close,Volume
2017-10-12,128.25,179.25,128.25,148.8000030517578,148.8000030517578,188000
2017-10-13,148.9499969482422,152.9250030517578,137.85000610351562,144.0,144.0,20240
2017-10-16,144.4499969482422,146.5500030517578,128.39999389648438,134.25,134.25,15327
2017-10-17,133.64999389648438,134.5500030517578,130.1999969482422,131.5500030517578,131.5500030517578,8267
2017-10-18,130.9499969482422,132.36000061035156,104.69999694824219,105.1500015258789,105.1500015258789,14727
2017-10-19,105.75,107.23500061035156,97.80000305175781,99.1500015258789,99.1500015258789,29907
2017-10-20,100.94999694824219,116.55000305175781,100.94999694824219,104.4000015258789,104.4000015258789,16747
2017-10-23,105.0,111.5999984741211,105.0,108.1500015258789,108.1500015258789,8207
2017-10-24,108.5999984741211,114.5999984741211,107.04000091552734,112.19999694824219,112.19999694824219,6227
2017-10-25,114.44999694824219,114.44999694824219,108.01499938964844,109.6500015258789,109.6500015258789,4040
2017-10-26,119.25,119.25,108.44999694824219,111.5999984741211,111.5999984741211,3853
2017-10-27,112.5,112.5,105.1500015258789,108.0,108.0,4927
2017-10-30,105.75,108.30000305175781,99.1500015258789,99.1500015258789,99.1500015258789,3833
2017-10-31,103.05000305175781,108.73500061035156,99.30000305175781,107.69999694824219,107.69999694824219,4680
2017-11-01,106.19999694824219,109.44000244140625,103.94999694824219,106.6500015258789,106.6500015258789,2520
2017-11-02,105.0,107.25,101.26499938964844,103.3499984741211,103.3499984741211,4367
2017-11-03,102.30000305175781,106.19999694824219,99.0,103.80000305175781,103.80000305175781,2547
2017-11-06,102.1500015258789,102.1500015258789,97.5,97.5,97.5,3753
2017-11-07,97.19999694824219,99.0,95.4000015258789,97.19999694824219,97.19999694824219,1833
2017-11-08,96.9000015258789,96.9000015258789,93.75,95.25,95.25,2213
2017-11-09,94.19999694824219,94.96499633789062,80.41500091552734,86.4000015258789,86.4000015258789,4827
2017-11-10,86.4000015258789,110.63999938964844,86.0250015258789,107.8499984741211,107.8499984741211,8120
2017-11-13,107.8499984741211,107.8499984741211,96.01499938964844,100.3499984741211,100.3499984741211,2800
2017-11-14,98.4000015258789,98.69999694824219,94.5,98.25,98.25,1533
2017-11-15,96.5999984741211,97.5,94.5,94.6500015258789,94.6500015258789,2107
2017-11-16,92.55000305175781,97.5,87.9000015258789,91.5,91.5,2647
2017-11-17,90.0,91.08000183105469,88.6500015258789,90.0,90.0,1680
2017-11-20,88.5,95.8499984741211,88.19999694824219,88.19999694824219,88.19999694824219,3060
2017-11-21,92.69999694824219,92.69999694824219,87.07499694824219,87.1500015258789,87.1500015258789,2047
2017-11-22,88.94999694824219,90.0,86.4000015258789,90.0,90.0,1813
2017-11-24,90.0,90.0,87.5999984741211,90.0,90.0,1807
2017-11-27,87.5999984741211,93.0,87.5999984741211,91.6500015258789,91.6500015258789,3293
2017-11-28,90.30000305175781,92.4000015258789,87.9000015258789,92.4000015258789,92.4000015258789,3573
2017-11-29,90.0,92.25,87.0,90.0,90.0,3027
2017-11-30,90.0,93.0,88.05000305175781,90.75,90.75,2487
2017-12-01,90.9000015258789,93.44999694824219,88.3499984741211,92.69999694824219,92.69999694824219,3513
2017-12-04,93.75,94.875,90.44999694824219,91.5,91.5,1500
2017-12-05,90.5999984741211,99.0,90.5999984741211,94.6500015258789,94.6500015258789,3273
2017-12-06,94.6500015258789,96.1500015258789,89.4000015258789,90.0,90.0,2247
2017-12-07,90.75,94.6050033569336,83.69999694824219,83.69999694824219,83.69999694824219,3273
2017-12-08,84.5999984741211,87.9000015258789,79.3499984741211,79.94999694824219,79.94999694824219,5100
2017-12-11,86.69999694824219,86.69999694824219,80.8499984741211,82.5,82.5,3740
2017-12-12,81.44999694824219,86.0250015258789,81.44999694824219,81.75,81.75,3080
2017-12-13,84.0,88.3499984741211,81.30000305175781,82.80000305175781,82.80000305175781,5273
2017-12-14,86.8499984741211,86.8499984741211,79.94999694824219,81.0,81.0,3713
2017-12-15,84.1500015258789,84.1500015258789,71.55000305175781,72.9000015258789,72.9000015258789,14320
2017-12-18,75.75,79.78500366210938,72.5999984741211,74.4000015258789,74.4000015258789,5467
2017-12-19,73.6500015258789,73.6500015258789,70.41000366210938,70.94999694824219,70.94999694824219,4213
2017-12-20,71.4000015258789,72.5999984741211,68.0999984741211,68.55000305175781,68.55000305175781,3160
2017-12-21,72.0,72.0,68.0999984741211,69.44999694824219,69.44999694824219,3393
2017-12-22,68.55000305175781,70.3499984741211,64.3499984741211,64.6500015258789,64.6500015258789,3420
2017-12-26,64.94999694824219,64.94999694824219,59.400001525878906,61.20000076293945,61.20000076293945,6647
2017-12-27,60.75,66.75,60.75,66.0,66.0,7680
2017-12-28,66.0,69.5999984741211,65.4000015258789,67.05000305175781,67.05000305175781,5120
2017-12-29,68.45999908447266,73.5,67.3499984741211,69.0,69.0,6207
2018-01-02,69.46499633789062,75.0,69.46499633789062,74.0999984741211,74.0999984741211,3433
2018-01-03,74.69999694824219,78.44999694824219,71.25,73.5,73.5,6540
2018-01-04,73.05000305175781,78.75,72.9000015258789,77.4000015258789,77.4000015258789,11093
2018-01-05,76.94999694824219,81.0,75.30000305175781,76.6500015258789,76.6500015258789,7073
2018-01-08,77.25,77.26499938964844,71.69999694824219,72.1500015258789,72.1500015258789,4447
2018-01-09,72.75,72.75,65.55000305175781,67.80000305175781,67.80000305175781,3347
2018-01-10,67.94999694824219,71.25,65.4000015258789,66.1500015258789,66.1500015258789,1420
2018-01-11,66.75,70.19999694824219,65.25,66.1500015258789,66.1500015258789,2620
2018-01-12,66.0,69.30000305175781,64.6500015258789,65.8499984741211,65.8499984741211,3760
2018-01-16,67.94999694824219,67.94999694824219,60.75,61.04999923706055,61.04999923706055,6553
2018-01-17,60.75,68.69999694824219,58.95000076293945,67.80000305175781,67.80000305175781,14573
2018-01-18,67.19999694824219,67.6500015258789,60.75,61.79999923706055,61.79999923706055,10780
2018-01-19,61.79999923706055,64.6500015258789,57.0,61.79999923706055,61.79999923706055,12300
2018-01-22,62.25,63.599998474121094,60.150001525878906,63.150001525878906,63.150001525878906,3127
2018-01-23,63.599998474121094,64.3499984741211,60.29999923706055,60.75,60.75,3280
2018-01-24,60.900001525878906,63.599998474121094,60.900001525878906,63.150001525878906,63.150001525878906,2040
2018-01-25,62.849998474121094,65.8499984741211,62.54999923706055,63.900001525878906,63.900001525878906,1180
2018-01-26,65.25,74.0999984741211,61.79999923706055,72.44999694824219,72.44999694824219,10940
2018-01-29,71.8499984741211,81.0,66.75,79.6500015258789,79.6500015258789,27407
2018-01-30,78.9000015258789,89.25,76.3499984741211,79.19999694824219,79.19999694824219,27120
2018-01-31,79.94999694824219,79.94999694824219,75.0,76.3499984741211,76.3499984741211,3773
2018-02-01,75.9000015258789,77.25,71.0999984741211,76.05000305175781,76.05000305175781,3653
2018-02-02,76.3499984741211,80.0999984741211,74.69999694824219,78.5999984741211,78.5999984741211,2220
2018-02-05,78.75,82.05000305175781,78.75,80.4000015258789,80.4000015258789,2893
2018-02-06,79.94999694824219,81.9000015258789,72.1500015258789,72.44999694824219,72.44999694824219,2180
2018-02-07,72.30000305175781,72.30000305175781,63.150001525878906,64.94999694824219,64.94999694824219,2340
2018-02-08,75.0,75.0,65.4000015258789,69.5999984741211,69.5999984741211,3200
2018-02-09,69.5999984741211,70.5,65.25,66.5999984741211,66.5999984741211,3340
2018-02-12,66.1500015258789,66.75,64.69499969482422,66.30000305175781,66.30000305175781,787
2018-02-13,66.30000305175781,68.69999694824219,63.150001525878906,67.5,67.5,4087
2018-02-14,72.75,85.94999694824219,70.5,75.0,75.0,17607
2018-02-15,75.44999694824219,83.8499984741211,75.0,76.19999694824219,76.19999694824219,4327
2018-02-16,76.5,78.75,68.69999694824219,69.44999694824219,69.44999694824219,3520
2018-02-20,70.05000305175781,72.75,69.44999694824219,70.3499984741211,70.3499984741211,1680
2018-02-21,69.75,97.5,69.66000366210938,95.4000015258789,95.4000015258789,25413
2018-02-22,87.9000015258789,107.55000305175781,86.68499755859375,96.9000015258789,96.9000015258789,21407
2018-02-23,96.0,96.0,88.6500015258789,91.6500015258789,91.6500015258789,3213
2018-02-26,90.30000305175781,93.56999969482422,87.1500015258789,87.75,87.75,4000
2018-02-27,87.30000305175781,90.0,79.66500091552734,86.4000015258789,86.4000015258789,3687
2018-02-28,78.9000015258789,86.55000305175781,78.9000015258789,84.44999694824219,84.44999694824219,667
2018-03-01,84.75,85.3499984741211,80.69999694824219,81.44999694824219,81.44999694824219,1847
2018-03-02,81.9000015258789,83.8499984741211,79.3499984741211,80.0999984741211,80.0999984741211,1873
2018-03-05,79.33499908447266,89.8499984741211,79.33499908447266,85.3499984741211,85.3499984741211,5280
2018-03-06,89.25,96.0,88.5,91.19999694824219,91.19999694824219,27113
2018-03-07,91.94999694824219,93.75,84.1500015258789,87.75,87.75,6913
2018-03-08,88.3499984741211,88.3499984741211,83.55000305175781,86.0999984741211,86.0999984741211,4260
2018-03-09,86.69999694824219,88.7249984741211,84.30000305175781,87.30000305175781,87.30000305175781,2513
2018-03-12,88.19999694824219,90.0,87.30000305175781,87.9000015258789,87.9000015258789,2787
2018-03-13,88.19999694824219,92.69999694824219,86.97000122070312,90.0,90.0,4107
2018-03-14,91.31999969482422,92.69999694824219,87.9000015258789,88.6500015258789,88.6500015258789,5833
2018-03-15,90.5999984741211,104.25,88.80000305175781,102.1500015258789,102.1500015258789,18500
2018-03-16,102.5999984741211,114.44999694824219,96.5999984741211,108.75,108.75,47227
2018-03-19,108.0,112.3499984741211,102.75,105.75,105.75,13740
2018-03-20,116.25,123.0,107.25,110.69999694824219,110.69999694824219,52300
2018-03-21,111.0,115.80000305175781,110.25,114.1500015258789,114.1500015258789,17127
2018-03-22,113.4000015258789,118.19999694824219,110.8499984741211,111.75,111.75,15033
2018-03-23,111.75,113.69999694824219,109.19999694824219,110.69999694824219,110.69999694824219,7153
2018-03-26,111.5999984741211,114.0,102.01499938964844,105.1500015258789,105.1500015258789,8387
2018-03-27,105.9000015258789,105.9749984741211,87.30000305175781,88.80000305175781,88.80000305175781,16787
2018-03-28,89.4000015258789,90.69000244140625,83.17500305175781,84.44999694824219,84.44999694824219,9153
2018-03-29,85.5,99.0,85.5,93.44999694824219,93.44999694824219,15187
2018-04-02,92.69999694824219,98.69999694824219,87.75,98.0999984741211,98.0999984741211,10620
2018-04-03,97.5,98.4000015258789,93.75,94.05000305175781,94.05000305175781,6407
2018-04-04,94.6500015258789,99.75,93.5999984741211,94.19999694824219,94.19999694824219,4527
2018-04-05,93.1500015258789,96.75,89.4000015258789,90.30000305175781,90.30000305175781,5753
2018-04-06,90.9000015258789,91.63500213623047,85.94999694824219,86.4000015258789,86.4000015258789,3920
2018-04-09,86.25,90.73500061035156,76.6500015258789,77.0999984741211,77.0999984741211,10407
2018-04-10,76.80000305175781,76.94999694824219,69.44999694824219,72.0,72.0,21593
2018-04-11,72.44999694824219,77.58000183105469,71.0999984741211,75.1500015258789,75.1500015258789,5047
2018-04-12,74.55000305175781,79.3499984741211,74.55000305175781,76.3499984741211,76.3499984741211,4087
2018-04-13,76.94999694824219,76.9800033569336,71.25,73.3499984741211,73.3499984741211,8427
2018-04-16,72.0,81.5999984741211,71.4000015258789,76.19999694824219,76.19999694824219,9533
2018-04-17,76.5,77.05500030517578,72.0,75.5999984741211,75.5999984741211,4340
2018-04-18,76.19999694824219,79.6500015258789,74.0999984741211,77.4000015258789,77.4000015258789,9933
2018-04-19,76.5,78.9749984741211,75.44999694824219,77.69999694824219,77.69999694824219,1907
2018-04-20,77.25,77.25,75.0,76.19999694824219,76.19999694824219,2540
2018-04-23,76.19999694824219,77.01000213623047,69.0,69.30000305175781,69.30000305175781,9587
2018-04-24,69.9000015258789,73.19999694824219,66.0,69.0,69.0,9007
2018-04-25,68.55000305175781,69.1500015258789,63.599998474121094,64.05000305175781,64.05000305175781,6167
2018-04-26,64.19999694824219,67.5,64.19999694824219,66.0,66.0,5227
2018-04-27,66.0,67.05000305175781,62.474998474121094,63.75,63.75,2713
2018-04-30,63.599998474121094,66.44999694824219,63.45000076293945,64.05000305175781,64.05000305175781,3073
2018-05-01,65.25,65.25,61.95000076293945,64.19999694824219,64.19999694824219,3180
2018-05-02,64.19999694824219,64.3499984741211,61.79999923706055,62.70000076293945,62.70000076293945,5040
2018-05-03,63.150001525878906,63.75,56.849998474121094,60.0,60.0,10613
2018-05-04,60.45000076293945,63.29999923706055,60.0,61.79999923706055,61.79999923706055,5247
2018-05-07,61.04999923706055,62.939998626708984,59.25,60.150001525878906,60.150001525878906,8447
2018-05-08,60.150001525878906,61.48500061035156,57.75,58.04999923706055,58.04999923706055,5993
2018-05-09,58.20000076293945,59.70000076293945,54.599998474121094,55.650001525878906,55.650001525878906,7653
2018-05-10,56.099998474121094,60.0,53.099998474121094,54.900001525878906,54.900001525878906,6160
2018-05-11,55.5,57.150001525878906,54.900001525878906,56.54999923706055,56.54999923706055,8293
2018-05-14,58.04999923706055,66.75,56.89500045776367,64.5,64.5,20120
2018-05-15,59.70000076293945,60.0,52.20000076293945,55.20000076293945,55.20000076293945,38673
2018-05-16,55.04999923706055,57.45000076293945,54.150001525878906,56.25,56.25,5327
2018-05-17,56.25,56.25,49.5,51.0,51.0,15600
2018-05-18,51.0,54.599998474121094,47.400001525878906,53.54999923706055,53.54999923706055,14347
2018-05-21,54.0,59.400001525878906,51.29999923706055,57.0,57.0,12893
2018-05-22,57.599998474121094,57.599998474121094,52.04999923706055,52.349998474121094,52.349998474121094,10747
2018-05-23,52.79999923706055,57.584999084472656,51.45000076293945,52.5,52.5,7840
2018-05-24,52.79999923706055,55.04999923706055,48.29999923706055,49.04999923706055,49.04999923706055,10787
2018-05-25,49.95000076293945,50.70000076293945,48.29999923706055,48.900001525878906,48.900001525878906,4820
2018-05-29,48.45000076293945,52.04999923706055,48.150001525878906,48.900001525878906,48.900001525878906,5453
2018-05-30,49.95000076293945,49.95000076293945,46.5,46.95000076293945,46.95000076293945,5800
2018-05-31,50.849998474121094,50.849998474121094,47.54999923706055,48.29999923706055,48.29999923706055,7260
2018-06-01,48.45000076293945,49.650001525878906,45.150001525878906,46.20000076293945,46.20000076293945,7553
2018-06-04,46.79999923706055,48.75,45.45000076293945,45.599998474121094,45.599998474121094,9740
2018-06-05,45.29999923706055,47.54999923706055,42.150001525878906,42.29999923706055,42.29999923706055,12387
2018-06-06,42.45000076293945,45.599998474121094,42.45000076293945,45.45000076293945,45.45000076293945,8787
2018-06-07,45.599998474121094,47.775001525878906,43.96500015258789,45.75,45.75,9953
2018-06-08,46.04999923706055,46.95000076293945,44.25,44.70000076293945,44.70000076293945,4240
2018-06-11,44.400001525878906,46.349998474121094,44.25,44.849998474121094,44.849998474121094,3413
2018-06-12,44.70000076293945,45.900001525878906,42.75,43.650001525878906,43.650001525878906,4300
2018-06-13,44.25,46.5,43.349998474121094,43.349998474121094,43.349998474121094,8393
2018-06-14,43.5,45.45000076293945,42.75,42.75,42.75,4987
2018-06-15,42.75,45.900001525878906,42.75,45.0,45.0,7293
2018-06-18,45.0,45.41999816894531,42.45000076293945,42.45000076293945,42.45000076293945,7800
2018-06-19,41.70000076293945,41.70000076293945,39.150001525878906,39.75,39.75,7073
2018-06-20,40.04999923706055,43.04999923706055,40.04999923706055,42.75,42.75,3287
2018-06-21,42.45000076293945,42.75,40.650001525878906,40.95000076293945,40.95000076293945,5287
2018-06-22,41.099998474121094,57.45000076293945,39.900001525878906,54.599998474121094,54.599998474121094,42880
2018-06-25,50.099998474121094,51.45000076293945,47.25,48.900001525878906,48.900001525878906,13520
2018-06-26,48.75,52.5,46.57500076293945,52.349998474121094,52.349998474121094,4827
2018-06-27,49.04999923706055,51.599998474121094,46.79999923706055,47.54999923706055,47.54999923706055,3807
2018-06-28,47.849998474121094,51.0,47.849998474121094,48.75,48.75,2707
2018-06-29,48.900001525878906,52.5,47.625,52.04999923706055,52.04999923706055,5113
2018-07-02,52.20000076293945,52.20000076293945,46.95000076293945,50.70000076293945,50.70000076293945,3713
2018-07-03,51.0,56.099998474121094,48.599998474121094,53.70000076293945,53.70000076293945,12540
2018-07-05,56.849998474121094,56.849998474121094,52.95000076293945,55.04999923706055,55.04999923706055,8873
2018-07-06,55.349998474121094,55.349998474121094,47.54999923706055,48.75,48.75,14000
2018-07-09,49.20000076293945,50.505001068115234,47.849998474121094,48.75,48.75,3400
2018-07-10,49.20000076293945,50.775001525878906,46.5,47.54999923706055,47.54999923706055,5853
2018-07-11,47.54999923706055,47.54999923706055,44.25,45.0,45.0,4800
2018-07-12,45.150001525878906,49.20000076293945,44.775001525878906,49.20000076293945,49.20000076293945,13073
2018-07-13,49.5,49.5,45.314998626708984,48.29999923706055,48.29999923706055,5700
2018-07-16,48.0,49.04999923706055,44.54999923706055,45.29999923706055,45.29999923706055,6080
2018-07-17,45.75,47.25,45.150001525878906,45.45000076293945,45.45000076293945,3067
2018-07-18,46.5,47.25,44.849998474121094,45.75,45.75,8120
2018-07-19,45.599998474121094,46.77000045776367,45.0,46.349998474121094,46.349998474121094,4833
2018-07-20,46.5,47.099998474121094,44.54999923706055,45.150001525878906,45.150001525878906,3267
2018-07-23,44.70000076293945,45.45000076293945,42.0,43.79999923706055,43.79999923706055,6360
2018-07-24,43.79999923706055,49.5,39.915000915527344,42.75,42.75,16620
2018-07-25,43.20000076293945,45.75,40.79999923706055,44.70000076293945,44.70000076293945,8853
2018-07-26,44.25,48.599998474121094,44.25,45.75,45.75,6253
2018-07-27,45.599998474121094,47.54999923706055,43.20000076293945,43.5,43.5,5387
2018-07-30,44.70000076293945,46.5,40.650001525878906,40.79999923706055,40.79999923706055,6987
2018-07-31,41.400001525878906,44.54999923706055,41.400001525878906,44.099998474121094,44.099998474121094,4040
2018-08-01,44.400001525878906,44.400001525878906,41.72999954223633,43.349998474121094,43.349998474121094,4313
2018-08-02,43.5,44.92499923706055,42.150001525878906,44.849998474121094,44.849998474121094,4040
2018-08-03,44.54999923706055,44.54999923706055,41.25,42.45000076293945,42.45000076293945,4440
2018-08-06,39.75,39.75,30.0,30.299999237060547,30.299999237060547,44187
2018-08-07,30.75,32.400001525878906,30.75,32.400001525878906,32.400001525878906,22880
2018-08-08,30.75,33.150001525878906,27.600000381469727,27.600000381469727,27.600000381469727,38340
2018-08-09,28.049999237060547,28.049999237060547,25.799999237060547,25.799999237060547,25.799999237060547,28487
2018-08-10,22.200000762939453,24.450000762939453,21.75,22.200000762939453,22.200000762939453,210447
2018-08-13,22.350000381469727,24.450000762939453,22.350000381469727,23.399999618530273,23.399999618530273,37760
2018-08-14,23.549999237060547,28.049999237060547,23.549999237060547,25.5,25.5,57033
2018-08-15,27.600000381469727,27.600000381469727,24.75,25.799999237060547,25.799999237060547,23493
2018-08-16,26.549999237060547,27.854999542236328,24.764999389648438,27.450000762939453,27.450000762939453,36287
2018-08-17,27.450000762939453,27.94499969482422,25.649999618530273,27.149999618530273,27.149999618530273,10453
2018-08-20,27.0,27.299999237060547,25.649999618530273,26.25,26.25,12387
2018-08-21,26.700000762939453,27.0,24.149999618530273,24.899999618530273,24.899999618530273,17813
2018-08-22,25.049999237060547,26.100000381469727,24.299999237060547,26.100000381469727,26.100000381469727,10187
2018-08-23,26.25,26.25,24.0,24.75,24.75,24313
2018-08-24,24.149999618530273,25.049999237060547,23.850000381469727,23.850000381469727,23.850000381469727,15193
2018-08-27,23.700000762939453,24.899999618530273,23.25,24.450000762939453,24.450000762939453,10227
2018-08-28,24.299999237060547,27.600000381469727,24.299999237060547,25.950000762939453,25.950000762939453,19893
2018-08-29,25.649999618530273,31.950000762939453,25.649999618530273,31.350000381469727,31.350000381469727,29393
2018-08-30,31.049999237060547,37.79999923706055,30.450000762939453,34.20000076293945,34.20000076293945,75887
2018-08-31,32.25,37.04999923706055,31.665000915527344,36.75,36.75,23127
2018-09-04,37.79999923706055,38.400001525878906,33.150001525878906,36.0,36.0,24240
2018-09-05,36.0,36.45000076293945,32.775001525878906,35.400001525878906,35.400001525878906,13060
2018-09-06,35.54999923706055,35.54999923706055,31.950000762939453,32.400001525878906,32.400001525878906,8027
2018-09-07,32.54999923706055,35.099998474121094,32.25,33.45000076293945,33.45000076293945,10553
2018-09-10,34.04999923706055,36.0,33.45000076293945,36.0,36.0,17413
2018-09-11,35.70000076293945,44.54999923706055,35.70000076293945,42.29999923706055,42.29999923706055,54007
2018-09-12,42.45000076293945,44.25,39.900001525878906,42.900001525878906,42.900001525878906,27307
2018-09-13,42.900001525878906,47.130001068115234,42.150001525878906,43.04999923706055,43.04999923706055,32180
2018-09-14,42.599998474121094,45.0,42.0,44.400001525878906,44.400001525878906,14707
2018-09-17,44.70000076293945,47.084999084472656,42.29999923706055,42.75,42.75,20293
2018-09-18,42.45000076293945,44.70000076293945,38.25,38.70000076293945,38.70000076293945,21047
2018-09-19,38.400001525878906,41.54999923706055,38.099998474121094,39.0,39.0,9960
2018-09-20,39.0,41.849998474121094,38.14500045776367,41.099998474121094,41.099998474121094,11973
2018-09-21,41.54999923706055,42.150001525878906,38.099998474121094,39.45000076293945,39.45000076293945,37213
2018-09-24,39.29999923706055,39.599998474121094,36.75,38.099998474121094,38.099998474121094,12020
2018-09-25,37.95000076293945,37.95000076293945,36.0,37.79999923706055,37.79999923706055,10820
2018-09-26,37.650001525878906,38.099998474121094,35.54999923706055,36.29999923706055,36.29999923706055,6633
2018-09-27,44.099998474121094,44.400001525878906,37.5,41.25,41.25,34347
2018-09-28,41.70000076293945,44.70000076293945,39.75,43.5,43.5,17400
2018-10-01,43.650001525878906,43.650001525878906,39.29999923706055,40.20000076293945,40.20000076293945,11627
2018-10-02,39.75,40.244998931884766,36.900001525878906,36.900001525878906,36.900001525878906,13320
2018-10-03,37.04999923706055,37.04999923706055,34.5,35.54999923706055,35.54999923706055,15000
2018-10-04,34.5,36.0,34.5,34.5,34.5,6020
2018-10-05,34.79999923706055,34.79999923706055,32.25,33.150001525878906,33.150001525878906,9353
2018-10-08,33.75,33.900001525878906,31.950000762939453,32.099998474121094,32.099998474121094,7887
2018-10-09,31.799999237060547,33.150001525878906,30.75,30.899999618530273,30.899999618530273,9660
2018-10-10,30.899999618530273,31.274999618530273,28.950000762939453,29.549999237060547,29.549999237060547,16180
2018-10-11,29.549999237060547,29.549999237060547,26.399999618530273,26.399999618530273,26.399999618530273,19273
2018-10-12,27.149999618530273,29.850000381469727,27.149999618530273,29.700000762939453,29.700000762939453,4247
2018-10-15,30.149999618530273,30.149999618530273,26.549999237060547,27.600000381469727,27.600000381469727,7253
2018-10-16,27.75,28.485000610351562,26.549999237060547,27.0,27.0,10287
2018-10-17,26.700000762939453,33.55500030517578,26.700000762939453,32.70000076293945,32.70000076293945,23273
2018-10-18,33.0,34.04999923706055,29.25,31.200000762939453,31.200000762939453,16393
2018-10-19,31.200000762939453,32.849998474121094,28.649999618530273,28.950000762939453,28.950000762939453,3607
2018-10-22,29.100000381469727,29.15999984741211,27.600000381469727,27.899999618530273,27.899999618530273,5827
2018-10-23,27.299999237060547,28.350000381469727,26.25,27.299999237060547,27.299999237060547,10000
2018-10-24,27.299999237060547,27.55500030517578,24.299999237060547,24.299999237060547,24.299999237060547,10173
2018-10-25,24.75,25.799999237060547,24.299999237060547,24.450000762939453,24.450000762939453,4927
2018-10-26,24.299999237060547,25.5,23.700000762939453,24.450000762939453,24.450000762939453,4487
2018-10-29,24.75,25.5,22.950000762939453,23.549999237060547,23.549999237060547,17913
2018-10-30,23.399999618530273,25.110000610351562,22.799999237060547,24.75,24.75,3980
2018-10-31,25.049999237060547,28.5,25.049999237060547,28.350000381469727,28.350000381469727,10993
2018-11-01,28.5,29.850000381469727,27.360000610351562,29.25,29.25,13720
2018-11-02,29.25,30.0,27.450000762939453,29.399999618530273,29.399999618530273,16187
2018-11-05,31.200000762939453,36.0,27.299999237060547,34.349998474121094,34.349998474121094,46973
2018-11-06,32.54999923706055,34.349998474121094,27.0,28.5,28.5,26793
2018-11-07,28.5,30.915000915527344,28.049999237060547,28.5,28.5,19153
2018-11-08,28.5,31.799999237060547,28.5,31.5,31.5,21567
2018-11-09,31.049999237060547,31.799999237060547,27.899999618530273,29.25,29.25,19113
2018-11-12,29.25,30.149999618530273,27.299999237060547,28.049999237060547,28.049999237060547,4853
2018-11-13,28.200000762939453,30.75,28.049999237060547,30.600000381469727,30.600000381469727,12647
2018-11-14,31.5,31.5,27.524999618530273,28.5,28.5,9700
2018-11-15,28.950000762939453,28.950000762939453,25.5,26.399999618530273,26.399999618530273,9960
2018-11-16,26.399999618530273,28.049999237060547,25.799999237060547,26.700000762939453,26.700000762939453,7587
2018-11-19,26.850000381469727,28.049999237060547,25.350000381469727,25.799999237060547,25.799999237060547,9447
2018-11-20,25.049999237060547,25.799999237060547,24.75,25.5,25.5,6727
2018-11-21,25.5,26.850000381469727,25.049999237060547,25.200000762939453,25.200000762939453,8040
2018-11-23,25.200000762939453,26.25,24.75,26.25,26.25,760
2018-11-26,26.25,27.0,24.75,25.350000381469727,25.350000381469727,5533
2018-11-27,24.450000762939453,24.75,23.549999237060547,23.700000762939453,23.700000762939453,7320
2018-11-28,23.399999618530273,23.549999237060547,21.0,21.149999618530273,21.149999618530273,21487
2018-11-29,21.0,22.3799991607666,15.449999809265137,16.950000762939453,16.950000762939453,58987
2018-11-30,16.950000762939453,17.700000762939453,14.850000381469727,17.399999618530273,17.399999618530273,31567
2018-12-03,17.700000762939453,20.850000381469727,17.25,18.75,18.75,24673
2018-12-04,18.600000381469727,19.950000762939453,17.25,17.489999771118164,17.489999771118164,5500
2018-12-06,17.399999618530273,18.0,15.300000190734863,16.5,16.5,10613
2018-12-07,16.350000381469727,17.25,15.899999618530273,16.649999618530273,16.649999618530273,9127
2018-12-10,16.799999237060547,17.100000381469727,14.550000190734863,15.75,15.75,16820
2018-12-11,15.899999618530273,16.125,15.0,15.449999809265137,15.449999809265137,5113
2018-12-12,15.899999618530273,15.899999618530273,14.640000343322754,15.449999809265137,15.449999809265137,10233
2018-12-13,15.449999809265137,15.449999809265137,14.399999618530273,14.895000457763672,14.895000457763672,5247
2018-12-14,14.850000381469727,15.75,13.5,13.949999809265137,13.949999809265137,10147
2018-12-17,13.800000190734863,15.0,12.899999618530273,13.095000267028809,13.095000267028809,11500
2018-12-18,12.75,13.470000267028809,10.949999809265137,11.354999542236328,11.354999542236328,18107
2018-12-19,11.699999809265137,11.699999809265137,8.609999656677246,9.149999618530273,9.149999618530273,48760
2018-12-20,9.0,9.420000076293945,7.574999809265137,7.949999809265137,7.949999809265137,44693
2018-12-21,7.664999961853027,8.114999771118164,6.360000133514404,7.050000190734863,7.050000190734863,46393
2018-12-24,7.199999809265137,7.349999904632568,5.28000020980835,6.150000095367432,6.150000095367432,35727
2018-12-26,6.75,7.125,6.164999961853027,6.764999866485596,6.764999866485596,35087
2018-12-27,7.650000095367432,8.25,6.75,7.679999828338623,7.679999828338623,35353
2018-12-28,7.679999828338623,7.949999809265137,7.199999809265137,7.349999904632568,7.349999904632568,33167
2018-12-31,7.199999809265137,7.650000095367432,6.449999809265137,6.539999961853027,6.539999961853027,25860
2019-01-02,6.449999809265137,11.774999618530273,6.449999809265137,10.050000190734863,10.050000190734863,30693
2019-01-03,10.350000381469727,10.5600004196167,8.399999618530273,9.75,9.75,17373
2019-01-04,9.75,10.5,9.149999618530273,9.449999809265137,9.449999809265137,15273
2019-01-07,9.4350004196167,14.550000190734863,9.149999618530273,13.050000190734863,13.050000190734863,35160
2019-01-08,13.350000381469727,17.850000381469727,13.350000381469727,13.604999542236328,13.604999542236328,59900
2019-01-09,13.545000076293945,14.399999618530273,13.5,13.5,13.5,17953
2019-01-10,13.5,13.949999809265137,11.114999771118164,12.0,12.0,33907
2019-01-11,12.0,13.199999809265137,11.444999694824219,11.699999809265137,11.699999809265137,13960
2019-01-14,11.970000267028809,12.149999618530273,11.25,12.0,12.0,13953
2019-01-15,12.149999618530273,12.944999694824219,11.399999618530273,11.699999809265137,11.699999809265137,7513
2019-01-16,11.699999809265137,13.350000381469727,11.699999809265137,13.350000381469727,13.350000381469727,9893
2019-01-17,12.899999618530273,13.574999809265137,11.864999771118164,12.449999809265137,12.449999809265137,8580
2019-01-18,13.574999809265137,15.449999809265137,13.079999923706055,15.149999618530273,15.149999618530273,12840
2019-01-22,15.0,18.75,15.0,15.300000190734863,15.300000190734863,49053
2019-01-23,15.449999809265137,17.25,15.0,17.100000381469727,17.100000381469727,21960
2019-01-24,16.649999618530273,18.450000762939453,15.600000381469727,16.950000762939453,16.950000762939453,35420
2019-01-25,17.100000381469727,17.700000762939453,15.300000190734863,15.300000190734863,15.300000190734863,28460
2019-01-28,15.300000190734863,16.049999237060547,14.25,14.699999809265137,14.699999809265137,15067
2019-01-29,15.0,15.300000190734863,13.800000190734863,14.100000381469727,14.100000381469727,11293
2019-01-30,14.100000381469727,14.90999984741211,13.050000190734863,13.350000381469727,13.350000381469727,10607
2019-01-31,13.350000381469727,14.114999771118164,12.449999809265137,13.8149995803833,13.8149995803833,8787
2019-02-01,13.649999618530273,14.25,13.050000190734863,13.079999923706055,13.079999923706055,7760
2019-02-04,13.050000190734863,14.100000381469727,13.020000457763672,13.050000190734863,13.050000190734863,3973
2019-02-05,12.899999618530273,13.109999656677246,12.300000190734863,12.704999923706055,12.704999923706055,7280
2019-02-06,12.600000381469727,13.5,11.550000190734863,11.550000190734863,11.550000190734863,18007
2019-02-07,11.850000381469727,11.850000381469727,9.885000228881836,11.550000190734863,11.550000190734863,24900
2019-02-08,11.145000457763672,11.550000190734863,10.5,10.664999961853027,10.664999961853027,7387
2019-02-11,10.875,10.875,10.0649995803833,10.244999885559082,10.244999885559082,11980
2019-02-12,10.199999809265137,10.604999542236328,9.75,10.1850004196167,10.1850004196167,11180
2019-02-13,10.350000381469727,10.949999809265137,10.050000190734863,10.5,10.5,29993
2019-02-14,10.949999809265137,12.345000267028809,10.694999694824219,11.850000381469727,11.850000381469727,30580
2019-02-15,12.0,12.75,11.399999618530273,11.609999656677246,11.609999656677246,13060
2019-02-19,12.149999618530273,12.149999618530273,10.96500015258789,11.699999809265137,11.699999809265137,7040
2019-02-20,11.460000038146973,14.100000381469727,10.979999542236328,12.449999809265137,12.449999809265137,349733
2019-02-21,13.350000381469727,13.5,12.600000381469727,13.050000190734863,13.050000190734863,85253
2019-02-22,13.199999809265137,13.649999618530273,12.449999809265137,12.930000305175781,12.930000305175781,38173
2019-02-25,13.5,13.5,12.600000381469727,12.944999694824219,12.944999694824219,38613
2019-02-26,13.050000190734863,13.199999809265137,12.75,13.079999923706055,13.079999923706055,28313
2019-02-27,14.085000038146973,15.149999618530273,13.260000228881836,14.925000190734863,14.925000190734863,159053
2019-02-28,15.0,15.899999618530273,13.5,13.5,13.5,106567
2019-03-01,13.800000190734863,14.234999656677246,12.600000381469727,13.800000190734863,13.800000190734863,78140
2019-03-04,14.850000381469727,15.75,12.899999618530273,14.25,14.25,125480
2019-03-05,14.399999618530273,14.550000190734863,13.5,13.875,13.875,45113
2019-03-06,13.875,13.875,12.449999809265137,12.614999771118164,12.614999771118164,67427
2019-03-07,12.600000381469727,13.5,12.0,13.050000190734863,13.050000190734863,63500
2019-03-08,13.5,13.5,11.3100004196167,11.550000190734863,11.550000190734863,43713
2019-03-11,12.0,13.050000190734863,12.0,12.449999809265137,12.449999809265137,32740
2019-03-12,12.75,13.199999809265137,12.0,12.989999771118164,12.989999771118164,68667
2019-03-13,13.350000381469727,13.350000381469727,12.270000457763672,12.75,12.75,22573
2019-03-14,12.600000381469727,12.75,12.149999618530273,12.510000228881836,12.510000228881836,14740
2019-03-15,20.700000762939453,23.25,13.050000190734863,13.5,13.5,1506733
2019-03-18,13.800000190734863,13.800000190734863,12.0,12.75,12.75,110733
2019-03-19,12.75,12.899999618530273,11.25,11.90999984741211,11.90999984741211,86213
2019-03-20,11.699999809265137,11.699999809265137,10.005000114440918,10.470000267028809,10.470000267028809,144053
2019-03-21,10.470000267028809,10.9350004196167,9.824999809265137,10.649999618530273,10.649999618530273,54987
2019-03-22,10.425000190734863,10.619999885559082,9.899999618530273,9.930000305175781,9.930000305175781,48067
2019-03-25,10.649999618530273,10.800000190734863,9.779999732971191,10.050000190734863,10.050000190734863,46267
2019-03-26,10.050000190734863,10.350000381469727,9.899999618530273,10.050000190734863,10.050000190734863,15947
2019-03-27,10.154999732971191,10.154999732971191,9.300000190734863,9.300000190734863,9.300000190734863,36093
2019-03-28,9.300000190734863,9.524999618530273,8.399999618530273,8.789999961853027,8.789999961853027,41553
2019-03-29,8.550000190734863,9.0,8.414999961853027,8.850000381469727,8.850000381469727,31073
2019-04-01,9.0,9.944999694824219,9.0,9.6899995803833,9.6899995803833,33320
2019-04-02,10.050000190734863,10.050000190734863,8.970000267028809,9.585000038146973,9.585000038146973,25200
2019-04-03,9.449999809265137,9.600000381469727,9.270000457763672,9.539999961853027,9.539999961853027,14827
2019-04-04,9.600000381469727,10.21500015258789,9.449999809265137,9.885000228881836,9.885000228881836,17200
2019-04-05,10.649999618530273,11.399999618530273,10.350000381469727,10.5,10.5,103327
2019-04-08,10.5,10.649999618530273,9.899999618530273,10.079999923706055,10.079999923706055,13460
2019-04-09,9.899999618530273,10.5,9.899999618530273,9.899999618530273,9.899999618530273,7440
2019-04-10,9.8100004196167,9.885000228881836,9.75,9.765000343322754,9.765000343322754,25027
2019-04-11,9.75,9.8100004196167,9.375,9.4350004196167,9.4350004196167,31933
2019-04-12,9.329999923706055,9.899999618530273,9.300000190734863,9.720000267028809,9.720000267028809,6660
2019-04-15,9.899999618530273,9.899999618530273,9.329999923706055,9.329999923706055,9.329999923706055,15520
2019-04-16,9.600000381469727,9.75,9.300000190734863,9.600000381469727,9.600000381469727,12000
2019-04-17,9.630000114440918,9.75,9.600000381469727,9.600000381469727,9.600000381469727,11367
2019-04-18,9.614999771118164,9.795000076293945,9.300000190734863,9.65999984741211,9.65999984741211,15113
2019-04-22,9.329999923706055,9.449999809265137,7.53000020980835,9.300000190734863,9.300000190734863,25967
2019-04-23,9.149999618530273,9.555000305175781,9.029999732971191,9.149999618530273,9.149999618530273,22727
2019-04-24,9.600000381469727,9.600000381469727,8.550000190734863,8.895000457763672,8.895000457763672,22060
2019-04-25,9.300000190734863,9.300000190734863,8.279999732971191,8.489999771118164,8.489999771118164,12520
2019-04-26,8.399999618530273,8.595000267028809,8.265000343322754,8.550000190734863,8.550000190734863,9587
2019-04-29,8.550000190734863,8.699999809265137,8.460000038146973,8.520000457763672,8.520000457763672,12813
2019-04-30,8.265000343322754,8.744999885559082,8.25,8.399999618530273,8.399999618530273,9833
2019-05-01,8.399999618530273,9.510000228881836,8.399999618530273,8.880000114440918,8.880000114440918,30687
2019-05-02,8.6850004196167,9.239999771118164,8.6850004196167,8.850000381469727,8.850000381469727,5553
2019-05-03,8.699999809265137,9.149999618530273,8.399999618530273,8.53499984741211,8.53499984741211,19620
2019-05-06,9.300000190734863,9.300000190734863,8.53499984741211,8.5649995803833,8.5649995803833,14553
2019-05-07,8.670000076293945,9.0,8.550000190734863,8.71500015258789,8.71500015258789,8620
2019-05-08,8.654999732971191,9.0,8.414999961853027,8.414999961853027,8.414999961853027,19413
2019-05-09,8.414999961853027,8.699999809265137,8.100000381469727,8.550000190734863,8.550000190734863,18760
2019-05-10,8.699999809265137,8.71500015258789,8.175000190734863,8.369999885559082,8.369999885559082,9927
2019-05-13,8.265000343322754,8.265000343322754,6.945000171661377,7.349999904632568,7.349999904632568,32627
2019-05-14,8.069999694824219,8.100000381469727,7.349999904632568,7.949999809265137,7.949999809265137,8873
2019-05-15,7.934999942779541,8.100000381469727,7.454999923706055,7.755000114440918,7.755000114440918,12273
2019-05-16,7.800000190734863,8.505000114440918,7.5,8.100000381469727,8.100000381469727,15227
2019-05-17,7.949999809265137,8.324999809265137,7.875,8.279999732971191,8.279999732971191,4560
2019-05-20,7.965000152587891,8.550000190734863,7.965000152587891,8.399999618530273,8.399999618530273,16027
2019-05-21,8.399999618530273,8.625,8.024999618530273,8.505000114440918,8.505000114440918,5933
2019-05-22,8.34000015258789,9.449999809265137,8.204999923706055,8.9399995803833,8.9399995803833,37880
2019-05-23,8.774999618530273,8.954999923706055,7.949999809265137,8.295000076293945,8.295000076293945,15107
2019-05-24,8.25,9.149999618530273,8.25,8.475000381469727,8.475000381469727,5660
2019-05-28,8.774999618530273,9.0,8.774999618530273,8.774999618530273,8.774999618530273,6433
2019-05-29,8.774999618530273,8.850000381469727,7.545000076293945,7.650000095367432,7.650000095367432,33093
2019-05-30,7.53000020980835,8.085000038146973,6.75,6.885000228881836,6.885000228881836,33700
2019-05-31,7.5,7.5,6.75,6.960000038146973,6.960000038146973,10527
2019-06-03,6.885000228881836,6.929999828338623,6.599999904632568,6.929999828338623,6.929999828338623,5093
2019-06-04,7.050000190734863,7.199999809265137,7.050000190734863,7.139999866485596,7.139999866485596,2327
2019-06-05,7.199999809265137,7.994999885559082,7.199999809265137,7.380000114440918,7.380000114440918,22267
2019-06-06,7.590000152587891,7.590000152587891,7.050000190734863,7.050000190734863,7.050000190734863,6507
2019-06-07,7.84499979019165,9.449999809265137,7.275000095367432,8.010000228881836,8.010000228881836,142800
2019-06-10,8.100000381469727,8.15999984741211,7.079999923706055,7.605000019073486,7.605000019073486,27733
2019-06-11,7.485000133514404,7.769999980926514,7.485000133514404,7.650000095367432,7.650000095367432,7933
2019-06-12,7.650000095367432,7.800000190734863,7.559999942779541,7.650000095367432,7.650000095367432,8540
2019-06-13,7.949999809265137,7.949999809265137,7.09499979019165,7.275000095367432,7.275000095367432,18240
2019-06-14,7.050000190734863,7.5,7.050000190734863,7.425000190734863,7.425000190734863,6660
2019-06-17,6.840000152587891,7.380000114440918,6.75,7.050000190734863,7.050000190734863,25607
2019-06-18,7.09499979019165,7.46999979019165,7.050000190734863,7.304999828338623,7.304999828338623,7033
2019-06-19,7.454999923706055,7.53000020980835,6.900000095367432,7.289999961853027,7.289999961853027,19100
2019-06-20,7.199999809265137,7.349999904632568,7.050000190734863,7.349999904632568,7.349999904632568,5040
2019-06-21,7.260000228881836,7.335000038146973,6.900000095367432,7.275000095367432,7.275000095367432,3767
2019-06-24,7.275000095367432,7.335000038146973,7.125,7.335000038146973,7.335000038146973,3973
2019-06-25,7.574999809265137,9.300000190734863,7.349999904632568,8.850000381469727,8.850000381469727,144640
2019-06-26,8.850000381469727,8.850000381469727,8.100000381469727,8.699999809265137,8.699999809265137,27920
2019-06-27,8.699999809265137,9.869999885559082,8.220000267028809,9.449999809265137,9.449999809265137,77547
2019-06-28,10.1850004196167,10.1850004196167,9.149999618530273,9.149999618530273,9.149999618530273,29840
2019-07-01,9.569999694824219,9.824999809265137,9.0,9.225000381469727,9.225000381469727,20773
2019-07-02,9.359999656677246,9.75,8.699999809265137,8.970000267028809,8.970000267028809,18053
2019-07-03,9.0,9.045000076293945,8.100000381469727,8.625,8.625,14707
2019-07-05,8.699999809265137,8.850000381469727,8.550000190734863,8.699999809265137,8.699999809265137,4967
2019-07-08,8.640000343322754,8.670000076293945,8.34000015258789,8.460000038146973,8.460000038146973,2373
2019-07-09,8.399999618530273,8.550000190734863,8.100000381469727,8.324999809265137,8.324999809265137,3867
2019-07-10,8.130000114440918,9.300000190734863,8.130000114440918,8.850000381469727,8.850000381469727,11513
2019-07-11,8.699999809265137,9.555000305175781,8.699999809265137,9.0,9.0,21347
2019-07-12,9.0,9.390000343322754,8.760000228881836,8.850000381469727,8.850000381469727,5033
2019-07-15,9.225000381469727,9.449999809265137,8.925000190734863,9.329999923706055,9.329999923706055,11767
2019-07-16,9.75,11.100000381469727,9.600000381469727,10.890000343322754,10.890000343322754,152213
2019-07-17,10.949999809265137,11.699999809265137,10.350000381469727,11.53499984741211,11.53499984741211,93800
2019-07-18,11.850000381469727,11.850000381469727,9.75,10.154999732971191,10.154999732971191,71733
2019-07-19,9.899999618530273,10.199999809265137,9.524999618530273,9.524999618530273,9.524999618530273,24433
2019-07-22,9.720000267028809,10.5,9.194999694824219,10.289999961853027,10.289999961853027,22933
2019-07-23,10.649999618530273,10.920000076293945,9.899999618530273,10.095000267028809,10.095000267028809,19833
2019-07-24,10.050000190734863,10.800000190734863,10.050000190734863,10.095000267028809,10.095000267028809,53853
2019-07-25,10.350000381469727,10.949999809265137,9.569999694824219,9.569999694824219,9.569999694824219,97653
2019-07-26,9.46500015258789,11.100000381469727,9.329999923706055,10.529999732971191,10.529999732971191,44433
2019-07-29,10.800000190734863,10.949999809265137,9.8100004196167,10.5,10.5,16300
2019-07-30,10.350000381469727,10.350000381469727,9.899999618530273,10.0649995803833,10.0649995803833,9700
2019-07-31,9.614999771118164,10.649999618530273,9.300000190734863,10.079999923706055,10.079999923706055,6233
2019-08-01,10.635000228881836,10.949999809265137,10.350000381469727,10.350000381469727,10.350000381469727,23507
2019-08-02,10.710000038146973,10.829999923706055,9.899999618530273,10.829999923706055,10.829999923706055,20133
2019-08-05,10.5,10.5,9.75,10.199999809265137,10.199999809265137,8113
2019-08-06,10.199999809265137,10.350000381469727,9.930000305175781,9.944999694824219,9.944999694824219,3373
2019-08-07,9.975000381469727,10.350000381469727,9.600000381469727,9.8100004196167,9.8100004196167,7413
2019-08-08,9.899999618530273,10.755000114440918,9.899999618530273,10.199999809265137,10.199999809265137,6493
2019-08-09,10.170000076293945,10.949999809265137,10.050000190734863,10.845000267028809,10.845000267028809,23600
2019-08-12,11.085000038146973,11.085000038146973,10.395000457763672,10.800000190734863,10.800000190734863,7987
2019-08-13,10.5,10.949999809265137,10.199999809265137,10.649999618530273,10.649999618530273,7127
2019-08-14,10.380000114440918,10.770000457763672,10.350000381469727,10.350000381469727,10.350000381469727,10213
2019-08-15,10.199999809265137,10.199999809265137,9.149999618530273,9.720000267028809,9.720000267028809,20787
2019-08-16,9.75,10.5,9.300000190734863,10.244999885559082,10.244999885559082,5127
2019-08-19,9.989999771118164,10.5,9.600000381469727,9.869999885559082,9.869999885559082,4187
2019-08-20,9.600000381469727,10.350000381469727,9.600000381469727,9.975000381469727,9.975000381469727,10520
2019-08-21,10.0649995803833,10.5,10.050000190734863,10.260000228881836,10.260000228881836,8980
2019-08-22,10.335000038146973,10.335000038146973,10.050000190734863,10.109999656677246,10.109999656677246,15033
2019-08-23,10.050000190734863,10.335000038146973,9.75,9.869999885559082,9.869999885559082,32727
2019-08-26,10.260000228881836,10.260000228881836,9.600000381469727,9.824999809265137,9.824999809265137,12273
2019-08-27,9.600000381469727,10.050000190734863,9.600000381469727,9.899999618530273,9.899999618530273,12707
2019-08-28,9.46500015258789,9.675000190734863,8.34000015258789,9.149999618530273,9.149999618530273,17927
2019-08-29,9.104999542236328,9.479999542236328,9.104999542236328,9.375,9.375,9893
2019-08-30,9.524999618530273,9.585000038146973,8.699999809265137,8.925000190734863,8.925000190734863,18813
2019-09-03,9.0,9.0,8.399999618530273,8.399999618530273,8.399999618530273,13380
2019-09-04,8.399999618530273,8.850000381469727,8.399999618530273,8.71500015258789,8.71500015258789,5613
2019-09-05,8.699999809265137,9.149999618530273,8.414999961853027,8.699999809265137,8.699999809265137,9320
2019-09-06,8.699999809265137,8.805000305175781,8.399999618530273,8.5649995803833,8.5649995803833,2780
2019-09-09,8.399999618530273,9.0,8.399999618530273,8.850000381469727,8.850000381469727,11880
2019-09-10,8.699999809265137,9.75,8.475000381469727,9.569999694824219,9.569999694824219,44380
2019-09-11,9.75,10.050000190734863,9.600000381469727,9.824999809265137,9.824999809265137,40087
2019-09-12,10.305000305175781,10.40999984741211,9.899999618530273,9.899999618530273,9.899999618530273,11727
2019-09-13,9.899999618530273,10.03499984741211,9.600000381469727,9.630000114440918,9.630000114440918,14647
2019-09-16,9.765000343322754,10.03499984741211,9.600000381469727,9.975000381469727,9.975000381469727,18887
2019-09-17,9.975000381469727,10.03499984741211,9.75,9.75,9.75,11160
2019-09-18,9.930000305175781,10.40999984741211,9.824999809265137,9.869999885559082,9.869999885559082,10293
2019-09-19,9.600000381469727,10.335000038146973,9.600000381469727,9.630000114440918,9.630000114440918,5680
2019-09-20,9.75,9.75,9.149999618530273,9.149999618530273,9.149999618530273,10287
2019-09-23,9.180000305175781,9.585000038146973,8.970000267028809,9.180000305175781,9.180000305175781,7907
2019-09-24,9.194999694824219,9.449999809265137,8.550000190734863,9.104999542236328,9.104999542236328,17380
2019-09-25,9.300000190734863,9.300000190734863,8.414999961853027,8.699999809265137,8.699999809265137,12567
2019-09-26,8.9399995803833,9.149999618530273,8.550000190734863,8.984999656677246,8.984999656677246,17660
2019-09-27,9.28499984741211,9.449999809265137,8.850000381469727,9.300000190734863,9.300000190734863,38347
2019-09-30,9.46500015258789,9.824999809265137,9.270000457763672,9.75,9.75,46107
2019-10-01,9.869999885559082,9.899999618530273,8.850000381469727,8.850000381469727,8.850000381469727,42173
2019-10-02,9.149999618530273,9.149999618530273,8.460000038146973,8.699999809265137,8.699999809265137,43513
2019-10-03,8.850000381469727,9.135000228881836,8.414999961853027,8.609999656677246,8.609999656677246,37227
2019-10-04,8.414999961853027,8.850000381469727,7.065000057220459,7.485000133514404,7.485000133514404,135840
2019-10-07,7.199999809265137,7.800000190734863,6.900000095367432,7.650000095367432,7.650000095367432,26840
2019-10-08,7.650000095367432,7.650000095367432,7.050000190734863,7.139999866485596,7.139999866485596,18187
2019-10-09,7.050000190734863,7.5,6.630000114440918,6.824999809265137,6.824999809265137,40867
2019-10-10,6.75,7.050000190734863,6.0,6.315000057220459,6.315000057220459,31840
2019-10-11,6.03000020980835,6.315000057220459,5.849999904632568,6.269999980926514,6.269999980926514,5773
2019-10-14,6.449999809265137,6.525000095367432,5.864999771118164,6.105000019073486,6.105000019073486,8973
2019-10-15,6.105000019073486,6.269999980926514,6.0,6.150000095367432,6.150000095367432,5053
2019-10-16,6.03000020980835,6.269999980926514,5.96999979019165,6.105000019073486,6.105000019073486,13847
2019-10-17,6.059999942779541,7.019999980926514,5.985000133514404,6.269999980926514,6.269999980926514,22633
2019-10-18,6.570000171661377,6.599999904632568,6.014999866485596,6.014999866485596,6.014999866485596,3887
2019-10-21,6.090000152587891,6.465000152587891,6.0,6.074999809265137,6.074999809265137,2880
2019-10-22,6.150000095367432,6.599999904632568,6.074999809265137,6.465000152587891,6.465000152587891,5920
2019-10-23,6.449999809265137,6.465000152587891,6.300000190734863,6.34499979019165,6.34499979019165,4420
2019-10-24,6.34499979019165,6.704999923706055,6.300000190734863,6.494999885559082,6.494999885559082,7280
2019-10-25,6.824999809265137,6.824999809265137,6.300000190734863,6.300000190734863,6.300000190734863,5813
2019-10-28,6.599999904632568,6.599999904632568,5.730000019073486,5.849999904632568,5.849999904632568,18427
2019-10-29,5.849999904632568,6.150000095367432,5.849999904632568,5.849999904632568,5.849999904632568,4040
2019-10-30,6.119999885559082,6.119999885559082,5.699999809265137,5.699999809265137,5.699999809265137,10013
2019-10-31,5.400000095367432,6.0,5.400000095367432,6.0,6.0,7220
2019-11-01,6.059999942779541,6.059999942779541,5.505000114440918,5.985000133514404,5.985000133514404,1353
2019-11-04,5.96999979019165,6.045000076293945,5.65500020980835,5.940000057220459,5.940000057220459,3773
2019-11-05,5.715000152587891,5.96999979019165,5.264999866485596,5.400000095367432,5.400000095367432,19307
2019-11-06,5.550000190734863,5.699999809265137,5.400000095367432,5.610000133514404,5.610000133514404,3680
2019-11-07,6.0,6.449999809265137,5.550000190734863,5.760000228881836,5.760000228881836,49827
2019-11-08,6.909999847412109,6.909999847412109,5.0,5.199999809265137,5.199999809265137,51300
2019-11-11,4.5,6.300000190734863,4.5,6.300000190734863,6.300000190734863,29900
2019-11-12,6.070000171661377,6.070000171661377,5.396999835968018,5.75,5.75,13700
2019-11-13,6.0,6.190000057220459,4.697000026702881,4.730000019073486,4.730000019073486,73600
2019-11-14,4.900000095367432,4.900000095367432,3.880000114440918,4.349999904632568,4.349999904632568,57400
2019-11-15,4.480000019073486,4.480000019073486,3.9000000953674316,4.0,4.0,18000
2019-11-18,3.9000000953674316,3.921999931335449,3.059999942779541,3.3499999046325684,3.3499999046325684,24700
2019-11-19,3.5199999809265137,3.690000057220459,3.25,3.259999990463257,3.259999990463257,27500
2019-11-20,3.2799999713897705,3.4800000190734863,3.180000066757202,3.25,3.25,41400
2019-11-21,3.299999952316284,3.299999952316284,3.069999933242798,3.200000047683716,3.200000047683716,19600
2019-11-22,3.180000066757202,3.180000066757202,3.0399999618530273,3.0399999618530273,3.0399999618530273,8800
2019-11-25,3.009999990463257,3.2090001106262207,3.009999990463257,3.0850000381469727,3.0850000381469727,14200
2019-11-26,3.259999990463257,3.259999990463257,3.059999942779541,3.2049999237060547,3.2049999237060547,10600
2019-11-27,3.1700000762939453,3.5199999809265137,3.1700000762939453,3.2720000743865967,3.2720000743865967,13300
2019-11-29,3.25,3.25,3.200000047683716,3.200000047683716,3.200000047683716,1500
2019-12-02,3.109999895095825,3.4200000762939453,3.0929999351501465,3.190000057220459,3.190000057220459,22600
2019-12-03,3.299999952316284,3.4000000953674316,3.119999885559082,3.2200000286102295,3.2200000286102295,21400
2019-12-04,3.109999895095825,3.1500000953674316,2.9070000648498535,2.950000047683716,2.950000047683716,28700
2019-12-05,3.0799999237060547,3.0799999237060547,2.759999990463257,2.8299999237060547,2.8299999237060547,17900
2019-12-06,2.9189999103546143,2.9189999103546143,2.630000114440918,2.759999990463257,2.759999990463257,13500
2019-12-09,2.808000087738037,3.200000047683716,2.759999990463257,3.0,3.0,19900
2019-12-10,3.109999895095825,7.5,2.799999952316284,5.210000038146973,5.210000038146973,865800
2019-12-11,5.090000152587891,5.53000020980835,4.360000133514404,4.480000019073486,4.480000019073486,104700
2019-12-12,4.710000038146973,4.900000095367432,4.070000171661377,4.900000095367432,4.900000095367432,35000
2019-12-13,4.880000114440918,4.880000114440918,4.214000225067139,4.5,4.5,36900
2019-12-16,4.5,5.480000019073486,4.489999771118164,4.699999809265137,4.699999809265137,148500
2019-12-17,4.820000171661377,6.420000076293945,4.820000171661377,5.940000057220459,5.940000057220459,319700
2019-12-18,6.25,6.699999809265137,5.699999809265137,5.75,5.75,186400
2019-12-19,5.510000228881836,5.599999904632568,4.552999973297119,4.659999847412109,4.659999847412109,192500
2019-12-20,4.539999961853027,5.099999904632568,4.363999843597412,4.670000076293945,4.670000076293945,474800
2019-12-23,4.400000095367432,4.831999778747559,4.315000057220459,4.75,4.75,279200
2019-12-24,4.699999809265137,4.730000019073486,4.28000020980835,4.670000076293945,4.670000076293945,31900
2019-12-26,4.599999904632568,4.619999885559082,4.38100004196167,4.440000057220459,4.440000057220459,344900
2019-12-27,4.46999979019165,4.75,4.300000190734863,4.389999866485596,4.389999866485596,64200
2019-12-30,4.269999980926514,4.5,3.8399999141693115,4.5,4.5,63200
2019-12-31,4.21999979019165,4.699999809265137,4.21999979019165,4.699999809265137,4.699999809265137,58100
2020-01-02,4.71999979019165,4.900000095367432,4.383999824523926,4.550000190734863,4.550000190734863,12700
2020-01-03,4.400000095367432,4.710000038146973,4.400000095367432,4.480000019073486,4.480000019073486,10200
2020-01-06,4.380000114440918,4.619999885559082,4.380000114440918,4.599999904632568,4.599999904632568,14800
2020-01-07,4.510000228881836,5.400000095367432,4.480000019073486,5.389999866485596,5.389999866485596,43800
2020-01-08,5.289999961853027,5.289999961853027,4.71999979019165,4.96999979019165,4.96999979019165,22600
2020-01-09,5.989999771118164,6.25,5.340000152587891,5.550000190734863,5.550000190734863,104500
2020-01-10,6.659999847412109,7.130000114440918,5.909999847412109,6.659999847412109,6.659999847412109,170200
2020-01-13,6.880000114440918,7.644999980926514,6.670000076293945,7.190000057220459,7.190000057220459,112800
2020-01-14,7.28000020980835,7.650000095367432,6.599999904632568,7.150000095367432,7.150000095367432,70300
2020-01-15,7.079999923706055,7.093999862670898,5.960000038146973,6.110000133514404,6.110000133514404,107600
2020-01-16,6.070000171661377,6.300000190734863,6.0,6.010000228881836,6.010000228881836,29100
2020-01-17,6.059999942779541,6.059999942779541,5.5,5.769999980926514,5.769999980926514,39100
2020-01-21,5.699999809265137,5.75,5.5,5.710000038146973,5.710000038146973,33200
2020-01-22,5.679999828338623,6.179999828338623,5.25,6.0,6.0,35900
2020-01-23,6.039999961853027,6.218999862670898,5.570000171661377,5.630000114440918,5.630000114440918,13500
2020-01-24,5.639999866485596,5.9039998054504395,5.400000095367432,5.650000095367432,5.650000095367432,10300
2020-01-27,5.559999942779541,6.019999980926514,5.03000020980835,5.840000152587891,5.840000152587891,12800
2020-01-28,5.989999771118164,6.5,5.619999885559082,6.400000095367432,6.400000095367432,23900
2020-01-29,6.5,7.239999771118164,6.300000190734863,7.239999771118164,7.239999771118164,83300
2020-01-30,7.199999809265137,7.449999809265137,6.775000095367432,7.309999942779541,7.309999942779541,27600
2020-01-31,7.309999942779541,7.309999942779541,6.360000133514404,7.0,7.0,25700
2020-02-03,6.940000057220459,7.0,6.5,6.710000038146973,6.710000038146973,25400
2020-02-04,6.480000019073486,7.210000038146973,6.480000019073486,6.71999979019165,6.71999979019165,42100
2020-02-05,7.119999885559082,7.420000076293945,6.783999919891357,7.099999904632568,7.099999904632568,36700
2020-02-06,7.150000095367432,7.420000076293945,7.010000228881836,7.039999961853027,7.039999961853027,31200
2020-02-07,7.059999942779541,7.373000144958496,6.829999923706055,7.130000114440918,7.130000114440918,14700
2020-02-10,6.800000190734863,7.699999809265137,6.800000190734863,7.699999809265137,7.699999809265137,44300
2020-02-11,7.699999809265137,7.699999809265137,7.170000076293945,7.514999866485596,7.514999866485596,17100
2020-02-12,7.570000171661377,8.185999870300293,7.300000190734863,7.630000114440918,7.630000114440918,34000
2020-02-13,7.650000095367432,8.069999694824219,7.2829999923706055,7.599999904632568,7.599999904632568,26900
2020-02-14,7.989999771118164,8.0,7.539999961853027,7.599999904632568,7.599999904632568,35300
2020-02-18,7.599999904632568,8.0,7.245999813079834,7.900000095367432,7.900000095367432,28700
2020-02-19,7.78000020980835,8.0,7.409999847412109,7.889999866485596,7.889999866485596,48600
2020-02-20,7.610000133514404,9.0,7.543000221252441,8.15999984741211,8.15999984741211,70300
2020-02-21,8.25,8.649999618530273,7.889999866485596,8.180000305175781,8.180000305175781,46900
2020-02-24,8.25,8.369999885559082,7.599999904632568,7.980000019073486,7.980000019073486,31900
2020-02-25,8.0,8.149999618530273,7.46999979019165,8.010000228881836,8.010000228881836,28800
2020-02-26,8.270000457763672,8.875,7.929999828338623,8.199999809265137,8.199999809265137,37100
2020-02-27,8.100000381469727,8.100000381469727,6.630000114440918,6.800000190734863,6.800000190734863,61400
2020-02-28,6.5,6.949999809265137,6.0,6.369999885559082,6.369999885559082,35100
2020-03-02,6.519999980926514,7.110000133514404,6.519999980926514,6.760000228881836,6.760000228881836,23800
2020-03-03,6.556000232696533,7.210000038146973,6.556000232696533,6.789999961853027,6.789999961853027,24500
2020-03-04,6.670000076293945,6.989999771118164,6.099999904632568,6.489999771118164,6.489999771118164,32400
2020-03-05,6.480000019073486,6.480000019073486,5.800000190734863,6.0,6.0,26700
2020-03-06,5.550000190734863,6.090000152587891,5.550000190734863,5.849999904632568,5.849999904632568,16900
2020-03-09,5.211999893188477,5.869999885559082,4.650000095367432,5.849999904632568,5.849999904632568,20900
2020-03-10,6.110000133514404,6.289999961853027,5.980000019073486,6.159999847412109,6.159999847412109,18000
2020-03-11,5.849999904632568,5.849999904632568,5.25,5.449999809265137,5.449999809265137,8800
2020-03-12,4.809999942779541,5.554999828338623,4.0,4.0,4.0,45100
2020-03-13,4.314000129699707,4.372000217437744,3.799999952316284,3.9000000953674316,3.9000000953674316,17600
2020-03-16,3.809999942779541,3.809999942779541,3.1500000953674316,3.2100000381469727,3.2100000381469727,22000
2020-03-17,3.25,3.3499999046325684,2.5450000762939453,2.869999885559082,2.869999885559082,38900
2020-03-18,2.4000000953674316,2.490000009536743,2.059999942779541,2.3499999046325684,2.3499999046325684,27100
2020-03-19,2.3239998817443848,2.4700000286102295,2.2699999809265137,2.4700000286102295,2.4700000286102295,50300
2020-03-20,2.619999885559082,2.8570001125335693,2.2690000534057617,2.5,2.5,18300
2020-03-23,2.9149999618530273,2.9149999618530273,2.450000047683716,2.5199999809265137,2.5199999809265137,20300
2020-03-24,2.609999895095825,2.990000009536743,2.5450000762939453,2.859999895095825,2.859999895095825,7600
2020-03-25,2.930000066757202,4.309999942779541,2.924999952316284,4.0,4.0,31900
2020-03-26,4.159999847412109,4.409999847412109,3.8499999046325684,3.9000000953674316,3.9000000953674316,25600
2020-03-27,3.7100000381469727,3.75,3.309999942779541,3.619999885559082,3.619999885559082,24500
2020-03-30,3.5199999809265137,3.690000057220459,3.049999952316284,3.640000104904175,3.640000104904175,16200
2020-03-31,3.4600000381469727,3.680000066757202,3.0999999046325684,3.549999952316284,3.549999952316284,20300
2020-04-01,3.359999895095825,3.440000057220459,3.315000057220459,3.4100000858306885,3.4100000858306885,8900
2020-04-02,3.1600000858306885,3.990000009536743,3.1600000858306885,3.799999952316284,3.799999952316284,10300
2020-04-03,3.880000114440918,3.9000000953674316,3.6429998874664307,3.9000000953674316,3.9000000953674316,14600
2020-04-06,3.859999895095825,5.900000095367432,3.859999895095825,4.059999942779541,4.059999942779541,159700
2020-04-07,4.28000020980835,4.389999866485596,3.8910000324249268,4.079999923706055,4.079999923706055,24200
2020-04-08,4.139999866485596,4.75,4.139999866485596,4.260000228881836,4.260000228881836,27500
2020-04-09,4.599999904632568,4.599999904632568,4.010000228881836,4.010000228881836,4.010000228881836,17400
2020-04-13,4.21999979019165,4.434999942779541,4.050000190734863,4.320000171661377,4.320000171661377,13600
2020-04-14,4.480000019073486,4.864999771118164,4.150000095367432,4.480000019073486,4.480000019073486,30100
2020-04-15,4.480000019073486,4.849999904632568,4.190000057220459,4.489999771118164,4.489999771118164,14500
2020-04-16,4.5,4.5,4.25,4.25,4.25,7300
2020-04-17,4.400000095367432,4.460000038146973,3.9600000381469727,4.099999904632568,4.099999904632568,23600
2020-04-20,4.245999813079834,4.449999809265137,4.199999809265137,4.199999809265137,4.199999809265137,9800
2020-04-21,4.429999828338623,4.429999828338623,4.105000019073486,4.28000020980835,4.28000020980835,13200
2020-04-22,4.239999771118164,4.5,4.239999771118164,4.389999866485596,4.389999866485596,8500
2020-04-23,4.429999828338623,4.5,4.329999923706055,4.449999809265137,4.449999809265137,2300
2020-04-24,4.5,4.5,4.260000228881836,4.260000228881836,4.260000228881836,15500
2020-04-27,4.3470001220703125,4.5,4.3470001220703125,4.489999771118164,4.489999771118164,21200
2020-04-28,4.480000019073486,4.489999771118164,4.309999942779541,4.489999771118164,4.489999771118164,16500
2020-04-29,4.46999979019165,4.900000095367432,4.413000106811523,4.760000228881836,4.760000228881836,28300
2020-04-30,4.789999961853027,4.789999961853027,4.497000217437744,4.619999885559082,4.619999885559082,12500
2020-05-01,4.460000038146973,4.849999904632568,4.360000133514404,4.449999809265137,4.449999809265137,25600
2020-05-04,4.449999809265137,4.679999828338623,4.150000095367432,4.300000190734863,4.300000190734863,34100
2020-05-05,4.199999809265137,4.639999866485596,4.199999809265137,4.409999847412109,4.409999847412109,21500
2020-05-06,4.203000068664551,4.429999828338623,4.203000068664551,4.369999885559082,4.369999885559082,11100
2020-05-07,4.449999809265137,4.599999904632568,4.25,4.545000076293945,4.545000076293945,19900
2020-05-08,4.590000152587891,4.599999904632568,4.300000190734863,4.5,4.5,19600
2020-05-11,4.53000020980835,4.599999904632568,4.289999961853027,4.289999961853027,4.289999961853027,18200
2020-05-12,4.25,4.320000171661377,3.609999895095825,3.630000114440918,3.630000114440918,33600
2020-05-13,3.865000009536743,3.865000009536743,3.299999952316284,3.5,3.5,21400
2020-05-14,3.5,3.6500000953674316,3.359999895095825,3.359999895095825,3.359999895095825,8800
2020-05-15,3.319999933242798,3.319999933242798,2.7200000286102295,2.9700000286102295,2.9700000286102295,52900
2020-05-18,3.180000066757202,3.180000066757202,2.509999990463257,2.5199999809265137,2.5199999809265137,110700
2020-05-19,3.009999990463257,3.009999990463257,2.700000047683716,2.9649999141693115,2.9649999141693115,107400
2020-05-20,3.009999990463257,3.0250000953674316,2.8299999237060547,2.9600000381469727,2.9600000381469727,51300
2020-05-21,2.9600000381469727,3.0899999141693115,2.9100000858306885,2.9100000858306885,2.9100000858306885,26000
2020-05-22,2.869999885559082,3.0899999141693115,2.869999885559082,3.0399999618530273,3.0399999618530273,33600
2020-05-26,3.0999999046325684,3.2699999809265137,2.950000047683716,3.0999999046325684,3.0999999046325684,37800
2020-05-27,3.200000047683716,3.25,3.049999952316284,3.109999895095825,3.109999895095825,29600
2020-05-28,3.059999942779541,3.2200000286102295,3.049999952316284,3.049999952316284,3.049999952316284,22000
2020-05-29,3.0,3.109999895095825,2.9000000953674316,2.9600000381469727,2.9600000381469727,21500
2020-06-01,2.931999921798706,3.0,2.880000114440918,2.930000066757202,2.930000066757202,21700
2020-06-02,2.8499999046325684,2.950000047683716,2.809999942779541,2.930000066757202,2.930000066757202,17500
2020-06-03,2.9100000858306885,3.130000114440918,2.859999895095825,3.0999999046325684,3.0999999046325684,54800
2020-06-04,3.0999999046325684,3.740000009536743,3.049999952316284,3.390000104904175,3.390000104904175,79000
2020-06-05,3.309999942779541,3.700000047683716,3.309999942779541,3.5199999809265137,3.5199999809265137,32200
2020-06-08,3.450000047683716,4.34499979019165,3.450000047683716,4.099999904632568,4.099999904632568,71700
2020-06-09,4.199999809265137,4.340000152587891,4.021999835968018,4.179999828338623,4.179999828338623,56200
2020-06-10,4.179999828338623,4.300000190734863,3.930000066757202,4.179999828338623,4.179999828338623,44400
2020-06-11,3.9800000190734863,4.114999771118164,3.3399999141693115,3.359999895095825,3.359999895095825,44800
2020-06-12,3.4000000953674316,4.099999904632568,3.4000000953674316,3.8399999141693115,3.8399999141693115,67500
2020-06-15,4.349999904632568,4.486999988555908,3.990000009536743,4.079999923706055,4.079999923706055,183600
2020-06-16,4.050000190734863,4.150000095367432,3.924999952316284,4.050000190734863,4.050000190734863,76800
2020-06-17,5.0,5.0,4.039999961853027,4.28000020980835,4.28000020980835,141200
2020-06-18,4.139999866485596,4.260000228881836,3.75,3.9100000858306885,3.9100000858306885,62800
2020-06-19,3.809999942779541,4.019999980926514,3.6500000953674316,3.7200000286102295,3.7200000286102295,65300
2020-06-22,3.7300000190734863,3.9800000190734863,3.690000057220459,3.9600000381469727,3.9600000381469727,61600
2020-06-23,3.9000000953674316,4.21999979019165,3.9000000953674316,4.210000038146973,4.210000038146973,66400
2020-06-24,4.260000228881836,4.400000095367432,3.680000066757202,4.099999904632568,4.099999904632568,77400
2020-06-25,4.150000095367432,4.25,3.9600000381469727,4.25,4.25,142800
2020-06-26,4.389999866485596,4.5,4.079999923706055,4.28000020980835,4.28000020980835,2087800
2020-06-29,4.210000038146973,4.210000038146973,3.569999933242798,3.7100000381469727,3.7100000381469727,168600
2020-06-30,3.7200000286102295,3.7200000286102295,3.4100000858306885,3.490000009536743,3.490000009536743,57500
2020-07-01,3.4700000286102295,3.4700000286102295,3.140000104904175,3.190000057220459,3.190000057220459,1780400
2020-07-02,4.389999866485596,4.5,3.2100000381469727,3.5199999809265137,3.5199999809265137,6003300
2020-07-06,3.5999999046325684,3.5999999046325684,3.1500000953674316,3.4100000858306885,3.4100000858306885,705600
2020-07-07,3.3299999237060547,3.3399999141693115,3.130000114440918,3.140000104904175,3.140000104904175,258900
2020-07-08,3.2100000381469727,3.2100000381469727,2.990000009536743,3.109999895095825,3.109999895095825,237400
2020-07-09,3.069999933242798,3.0850000381469727,2.7750000953674316,2.950000047683716,2.950000047683716,186100
2020-07-10,2.9600000381469727,3.1500000953674316,2.890000104904175,3.069999933242798,3.069999933242798,214400
2020-07-13,3.0199999809265137,3.0199999809265137,2.759999990463257,2.7799999713897705,2.7799999713897705,208200
2020-07-14,2.7899999618530273,2.9000000953674316,2.7300000190734863,2.869999885559082,2.869999885559082,144100
2020-07-15,2.9100000858306885,3.059999942779541,2.8299999237060547,2.930000066757202,2.930000066757202,159100
2020-07-16,2.930000066757202,3.119999885559082,2.880000114440918,3.069999933242798,3.069999933242798,287700
2020-07-17,3.059999942779541,3.200000047683716,3.049999952316284,3.130000114440918,3.130000114440918,142500
2020-07-20,3.1500000953674316,3.25,3.115999937057495,3.1700000762939453,3.1700000762939453,111300
2020-07-21,3.1700000762939453,3.25,3.0999999046325684,3.1500000953674316,3.1500000953674316,78500
2020-07-22,3.119999885559082,3.180000066757202,3.0799999237060547,3.0999999046325684,3.0999999046325684,63300
2020-07-23,3.0799999237060547,3.200000047683716,2.9800000190734863,3.015000104904175,3.015000104904175,77000
2020-07-24,2.950000047683716,3.0399999618530273,2.809999942779541,2.859999895095825,2.859999895095825,67800
2020-07-27,2.859999895095825,3.1700000762939453,2.8519999980926514,3.0999999046325684,3.0999999046325684,93800
2020-07-28,3.109999895095825,3.109999895095825,2.930000066757202,2.940000057220459,2.940000057220459,54900
2020-07-29,2.9100000858306885,3.0399999618530273,2.9000000953674316,3.0,3.0,58500
2020-07-30,2.930000066757202,3.059999942779541,2.8450000286102295,2.990000009536743,2.990000009536743,45700
2020-07-31,2.9600000381469727,3.0399999618530273,2.8499999046325684,2.859999895095825,2.859999895095825,46400
2020-08-03,2.880000114440918,3.0,2.8299999237060547,2.9800000190734863,2.9800000190734863,59700
2020-08-04,2.940000057220459,3.0299999713897705,2.940000057220459,2.9700000286102295,2.9700000286102295,26600
2020-08-05,3.0299999713897705,3.069999933242798,2.9690001010894775,3.055000066757202,3.055000066757202,52300
2020-08-06,3.049999952316284,3.0899999141693115,2.9800000190734863,3.059999942779541,3.059999942779541,34700
2020-08-07,3.0399999618530273,3.059999942779541,3.009999990463257,3.049999952316284,3.049999952316284,31700
2020-08-10,3.049999952316284,3.2300000190734863,3.0399999618530273,3.1500000953674316,3.1500000953674316,107100
2020-08-11,3.140000104904175,3.240000009536743,3.0899999141693115,3.119999885559082,3.119999885559082,88700
2020-08-12,3.119999885559082,3.130000114440918,2.9700000286102295,3.0,3.0,49400
2020-08-13,3.0799999237060547,3.140000104904175,2.9000000953674316,2.940000057220459,2.940000057220459,87700
2020-08-14,2.9100000858306885,2.9700000286102295,2.4800000190734863,2.6500000953674316,2.6500000953674316,280400
2020-08-17,2.630000114440918,2.799999952316284,2.630000114440918,2.799999952316284,2.799999952316284,141200
2020-08-18,2.880000114440918,2.880000114440918,2.7100000381469727,2.7899999618530273,2.7899999618530273,56900
2020-08-19,2.7699999809265137,2.7699999809265137,2.5999999046325684,2.640000104904175,2.640000104904175,87300
2020-08-20,2.700000047683716,2.700000047683716,2.546999931335449,2.6700000762939453,2.6700000762939453,53800
2020-08-21,2.6700000762939453,2.859999895095825,2.549999952316284,2.740000009536743,2.740000009536743,117800
2020-08-24,2.7200000286102295,2.819999933242798,2.619999885559082,2.6600000858306885,2.6600000858306885,162000
2020-08-25,2.630000114440918,2.819999933242798,2.630000114440918,2.819999933242798,2.819999933242798,88500
2020-08-26,2.9600000381469727,3.200000047683716,2.880000114440918,3.0799999237060547,3.0799999237060547,338400
2020-08-27,3.140000104904175,3.309999942779541,3.0899999141693115,3.1700000762939453,3.1700000762939453,245100
2020-08-28,3.180000066757202,3.3499999046325684,3.180000066757202,3.244999885559082,3.244999885559082,127400
2020-08-31,3.2300000190734863,3.2300000190734863,2.8299999237060547,2.869999885559082,2.869999885559082,242600
2020-09-01,2.8399999141693115,2.9600000381469727,2.8399999141693115,2.8399999141693115,2.8399999141693115,98800
2020-09-02,2.809999942779541,2.859999895095825,2.6500000953674316,2.690000057220459,2.690000057220459,129100
2020-09-03,2.6500000953674316,2.7100000381469727,2.609999895095825,2.6700000762939453,2.6700000762939453,153900
2020-09-04,2.690000057220459,2.7300000190734863,2.619999885559082,2.6700000762939453,2.6700000762939453,67300
2020-09-08,2.680000066757202,2.680000066757202,2.200000047683716,2.2300000190734863,2.2300000190734863,211000
2020-09-09,2.259999990463257,2.359999895095825,2.190000057220459,2.2100000381469727,2.2100000381469727,99300
2020-09-10,2.200000047683716,2.2249999046325684,2.049999952316284,2.1600000858306885,2.1600000858306885,153900
2020-09-11,2.1500000953674316,2.190000057220459,2.0899999141693115,2.109999895095825,2.109999895095825,77200
2020-09-14,2.140000104904175,2.569999933242798,2.0299999713897705,2.440000057220459,2.440000057220459,833700
2020-09-15,2.5199999809265137,2.680000066757202,2.5199999809265137,2.5799999237060547,2.5799999237060547,308900
2020-09-16,2.740000009536743,2.740000009536743,2.4100000858306885,2.440000057220459,2.440000057220459,260900
2020-09-17,2.5,2.5299999713897705,2.359999895095825,2.490000009536743,2.490000009536743,274400
2020-09-18,2.450000047683716,2.4600000381469727,2.2200000286102295,2.359999895095825,2.359999895095825,554700
2020-09-21,2.3499999046325684,2.3499999046325684,2.180000066757202,2.200000047683716,2.200000047683716,138400
2020-09-22,2.200000047683716,2.259999990463257,2.1730000972747803,2.25,2.25,111400
2020-09-23,2.2200000286102295,2.265000104904175,2.109999895095825,2.140000104904175,2.140000104904175,74800
2020-09-24,2.119999885559082,2.130000114440918,2.0199999809265137,2.109999895095825,2.109999895095825,112500
2020-09-25,2.069999933242798,2.240000009536743,2.069999933242798,2.190000057220459,2.190000057220459,54600
2020-09-28,2.1449999809265137,2.359999895095825,2.1449999809265137,2.309999942779541,2.309999942779541,66800
2020-09-29,2.299999952316284,2.3499999046325684,2.200000047683716,2.3399999141693115,2.3399999141693115,44100
2020-09-30,2.3299999237060547,2.4000000953674316,2.309999942779541,2.319999933242798,2.319999933242798,40100
2020-10-01,2.299999952316284,2.3499999046325684,2.190000057220459,2.2799999713897705,2.2799999713897705,64900
2020-10-02,2.180000066757202,2.319999933242798,2.180000066757202,2.2699999809265137,2.2699999809265137,39900
2020-10-05,2.2799999713897705,2.359999895095825,2.240000009536743,2.3499999046325684,2.3499999046325684,33600
2020-10-06,2.359999895095825,2.5,2.25,2.359999895095825,2.359999895095825,38900
2020-10-07,2.390000104904175,2.5399999618530273,2.3299999237060547,2.5199999809265137,2.5199999809265137,62200
2020-10-08,2.4600000381469727,2.6419999599456787,2.4600000381469727,2.5899999141693115,2.5899999141693115,42500
2020-10-09,2.5999999046325684,2.640000104904175,2.5399999618530273,2.630000114440918,2.630000114440918,44100
2020-10-12,2.630000114440918,2.630000114440918,2.5899999141693115,2.609999895095825,2.609999895095825,60900
2020-10-13,2.569999933242798,2.630000114440918,2.490000009536743,2.5799999237060547,2.5799999237060547,28200
2020-10-14,2.619999885559082,2.6600000858306885,2.559999942779541,2.5999999046325684,2.5999999046325684,35700
2020-10-15,2.5190000534057617,2.630000114440918,2.4070000648498535,2.5899999141693115,2.5899999141693115,35600
2020-10-16,2.630000114440918,2.6500000953674316,2.430000066757202,2.619999885559082,2.619999885559082,104600
2020-10-19,2.5899999141693115,2.700000047683716,2.549999952316284,2.5899999141693115,2.5899999141693115,31500
2020-10-20,2.7200000286102295,2.7200000286102295,2.4000000953674316,2.4000000953674316,2.4000000953674316,71000
2020-10-21,2.390000104904175,2.450000047683716,2.319999933242798,2.359999895095825,2.359999895095825,27400
2020-10-22,2.390000104904175,2.75,2.372999906539917,2.5299999713897705,2.5299999713897705,111400
2020-10-23,2.549999952316284,2.6659998893737793,2.5,2.5399999618530273,2.5399999618530273,33700
2020-10-26,2.5399999618530273,2.565000057220459,2.2799999713897705,2.299999952316284,2.299999952316284,79900
2020-10-27,2.299999952316284,2.299999952316284,2.2100000381469727,2.2200000286102295,2.2200000286102295,31200
2020-10-28,2.190000057220459,2.2799999713897705,2.053999900817871,2.0899999141693115,2.0899999141693115,64400
2020-10-29,2.069999933242798,2.25,2.0299999713897705,2.140000104904175,2.140000104904175,50800
2020-10-30,2.130000114440918,2.130000114440918,2.069999933242798,2.109999895095825,2.109999895095825,26100
2020-11-02,2.119999885559082,2.180000066757202,2.0799999237060547,2.1600000858306885,2.1600000858306885,26200
2020-11-03,2.2200000286102295,2.2850000858306885,2.190000057220459,2.240000009536743,2.240000009536743,43100
2020-11-04,2.240000009536743,2.299999952316284,2.190000057220459,2.2300000190734863,2.2300000190734863,24600
2020-11-05,2.2899999618530273,2.2899999618530273,2.140000104904175,2.2200000286102295,2.2200000286102295,32500
2020-11-06,2.259999990463257,2.2699999809265137,2.109999895095825,2.130000114440918,2.130000114440918,44500
2020-11-09,2.2699999809265137,2.4000000953674316,2.1500000953674316,2.1500000953674316,2.1500000953674316,106300
2020-11-10,2.240000009536743,2.25,2.109999895095825,2.180000066757202,2.180000066757202,76100
2020-11-11,2.2149999141693115,2.2149999141693115,2.0999999046325684,2.2100000381469727,2.2100000381469727,57800
2020-11-12,2.140000104904175,2.180000066757202,2.049999952316284,2.069999933242798,2.069999933242798,75900
2020-11-13,2.140000104904175,2.1600000858306885,2.0799999237060547,2.0799999237060547,2.0799999237060547,55900
2020-11-16,2.109999895095825,2.1500000953674316,2.009999990463257,2.069999933242798,2.069999933242798,250300
2020-11-17,2.2100000381469727,2.2899999618530273,2.0409998893737793,2.200000047683716,2.200000047683716,284500
2020-11-18,2.2100000381469727,2.299999952316284,2.1700000762939453,2.180000066757202,2.180000066757202,130800
2020-11-19,2.190000057220459,2.2799999713897705,2.1689999103546143,2.259999990463257,2.259999990463257,58800
2020-11-20,2.1700000762939453,2.3499999046325684,2.1700000762939453,2.3299999237060547,2.3299999237060547,86400
2020-11-23,2.309999942779541,2.5,2.299999952316284,2.4700000286102295,2.4700000286102295,128200
2020-11-24,2.4600000381469727,2.4600000381469727,2.200000047683716,2.2899999618530273,2.2899999618530273,189400
2020-11-25,2.299999952316284,2.4000000953674316,2.2200000286102295,2.2899999618530273,2.2899999618530273,123700
2020-11-27,2.319999933242798,2.369999885559082,2.240000009536743,2.299999952316284,2.299999952316284,42800
2020-11-30,2.3399999141693115,2.424999952316284,2.265000104904175,2.380000114440918,2.380000114440918,84300
2020-12-01,2.440000057220459,2.6500000953674316,2.390000104904175,2.5399999618530273,2.5399999618530273,192500
2020-12-02,2.559999942779541,2.5799999237060547,2.4600000381469727,2.4800000190734863,2.4800000190734863,99800
2020-12-03,2.509999990463257,2.5299999713897705,2.3499999046325684,2.4000000953674316,2.4000000953674316,122300
2020-12-04,2.4100000858306885,2.484999895095825,2.4100000858306885,2.4200000762939453,2.4200000762939453,53800
2020-12-07,2.450000047683716,2.4700000286102295,2.3499999046325684,2.380000114440918,2.380000114440918,102100
2020-12-08,2.359999895095825,2.430000066757202,2.3389999866485596,2.4200000762939453,2.4200000762939453,135400
2020-12-09,2.3299999237060547,2.359999895095825,2.200000047683716,2.200000047683716,2.200000047683716,129600
2020-12-10,2.259999990463257,2.3299999237060547,2.1760001182556152,2.2300000190734863,2.2300000190734863,186800
2020-12-11,2.2100000381469727,2.25,1.9980000257492065,2.109999895095825,2.109999895095825,421500
2020-12-14,2.1500000953674316,2.240000009536743,2.119999885559082,2.1500000953674316,2.1500000953674316,200700
2020-12-15,2.190000057220459,2.190000057220459,2.0999999046325684,2.140000104904175,2.140000104904175,189700
2020-12-16,2.140000104904175,2.1600000858306885,2.069999933242798,2.119999885559082,2.119999885559082,110000
2020-12-17,2.130000114440918,2.1500000953674316,2.069999933242798,2.130000114440918,2.130000114440918,70400
2020-12-18,2.109999895095825,2.200000047683716,2.0899999141693115,2.1649999618530273,2.1649999618530273,1044400
2020-12-21,2.440000057220459,2.559999942779541,2.309999942779541,2.5399999618530273,2.5399999618530273,1528200
2020-12-22,1.850000023841858,1.9900000095367432,1.8420000076293945,1.8899999856948853,1.8899999856948853,3974800
2020-12-23,1.909999966621399,1.9500000476837158,1.8799999952316284,1.8899999856948853,1.8899999856948853,1138700
2020-12-24,1.909999966621399,1.909999966621399,1.7599999904632568,1.8300000429153442,1.8300000429153442,1070400
2020-12-28,1.9500000476837158,2.0,1.7300000190734863,1.7799999713897705,1.7799999713897705,2953800
2020-12-29,1.850000023841858,1.8899999856948853,1.600000023841858,1.6699999570846558,1.6699999570846558,2185600
2020-12-30,1.7699999809265137,1.8899999856948853,1.690000057220459,1.7999999523162842,1.7999999523162842,2214400
