Date,Open,High,Low,Close,Adj Close,Volume
2019-02-21,8.899999618530273,10.170000076293945,8.5,9.850000381469727,9.850000381469727,2017300
2019-02-22,10.0,10.75,9.319999694824219,10.75,10.75,1443500
2019-02-25,11.0,11.25,9.529999732971191,9.899999618530273,9.899999618530273,2191600
2019-02-26,9.800000190734863,10.388999938964844,9.550000190734863,10.289999961853027,10.289999961853027,830200
2019-02-27,10.479999542236328,10.5,9.670000076293945,9.890000343322754,9.890000343322754,746200
2019-02-28,9.850000381469727,10.75,9.760000228881836,10.579999923706055,10.579999923706055,928900
2019-03-01,11.180000305175781,12.239999771118164,11.0,11.887999534606934,11.887999534606934,1954300
2019-03-04,11.887999534606934,11.887999534606934,11.887999534606934,11.887999534606934,11.887999534606934,0
2019-03-05,11.887999534606934,11.887999534606934,11.887999534606934,11.887999534606934,11.887999534606934,0
2019-03-06,11.887999534606934,11.887999534606934,11.887999534606934,11.887999534606934,11.887999534606934,0
2019-03-07,11.887999534606934,11.887999534606934,11.887999534606934,11.887999534606934,11.887999534606934,0
2019-03-08,11.887999534606934,11.887999534606934,11.887999534606934,11.887999534606934,11.887999534606934,0
2019-03-11,12.760000228881836,13.972999572753906,12.5,13.710000038146973,13.710000038146973,2146000
2019-03-12,13.760000228881836,13.960000038146973,13.010000228881836,13.09000015258789,13.09000015258789,1746900
2019-03-13,13.289999961853027,13.289999961853027,12.220000267028809,12.75,12.75,1409500
2019-03-14,13.0,13.789999961853027,12.390000343322754,13.0600004196167,13.0600004196167,1606400
2019-03-15,13.09000015258789,14.369999885559082,12.6899995803833,14.3100004196167,14.3100004196167,1656100
2019-03-18,14.479999542236328,16.450000762939453,14.25,16.329999923706055,16.329999923706055,3423000
2019-03-19,17.170000076293945,17.739999771118164,15.890000343322754,16.1200008392334,16.1200008392334,3531300
2019-03-20,15.760000228881836,16.69099998474121,15.270000457763672,16.049999237060547,16.049999237060547,2145000
2019-03-21,15.970000267028809,17.68000030517578,15.739999771118164,17.450000762939453,17.450000762939453,1952400
2019-03-22,17.450000762939453,18.100000381469727,16.15999984741211,16.360000610351562,16.360000610351562,2880600
2019-03-25,15.930000305175781,16.399999618530273,14.399999618530273,14.5600004196167,14.5600004196167,2570400
2019-03-26,15.0,15.48900032043457,13.199999809265137,14.079999923706055,14.079999923706055,3124100
2019-03-27,14.4399995803833,14.680000305175781,12.5,13.1899995803833,13.1899995803833,2386800
2019-03-28,13.100000381469727,14.550000190734863,12.550000190734863,14.069999694824219,14.069999694824219,2218700
2019-03-29,14.40999984741211,15.25,13.75,14.010000228881836,14.010000228881836,1778700
2019-04-01,15.0,15.399999618530273,14.220000267028809,15.319999694824219,15.319999694824219,2353500
2019-04-02,15.300000190734863,15.300000190734863,14.550000190734863,15.020000457763672,15.020000457763672,1292500
2019-04-03,15.100000381469727,16.90999984741211,14.800000190734863,15.869999885559082,15.869999885559082,2425000
2019-04-04,15.369999885559082,16.139999389648438,15.210000038146973,15.970000267028809,15.970000267028809,1918900
2019-04-05,16.149999618530273,16.34000015258789,15.550000190734863,15.640000343322754,15.640000343322754,1045900
2019-04-08,15.640000343322754,15.75,14.420000076293945,14.479999542236328,14.479999542236328,1561800
2019-04-09,14.319999694824219,15.0,13.569999694824219,13.8100004196167,13.8100004196167,2246700
2019-04-10,13.609999656677246,14.119999885559082,13.3100004196167,13.670000076293945,13.670000076293945,1628700
2019-04-11,13.550000190734863,13.550000190734863,12.670000076293945,12.960000038146973,12.960000038146973,2186200
2019-04-12,13.170000076293945,13.760000228881836,12.880000114440918,13.3100004196167,13.3100004196167,1735400
2019-04-15,13.239999771118164,13.239999771118164,12.329999923706055,12.6899995803833,12.6899995803833,1736500
2019-04-16,12.600000381469727,13.170000076293945,9.8100004196167,11.3100004196167,11.3100004196167,11666400
2019-04-17,11.25,12.550000190734863,10.899999618530273,12.479999542236328,12.479999542236328,2770700
2019-04-18,12.770000457763672,12.989999771118164,11.800000190734863,11.920000076293945,11.920000076293945,2815800
2019-04-22,11.949999809265137,11.949999809265137,11.210000038146973,11.5600004196167,11.5600004196167,1350100
2019-04-23,11.550000190734863,11.637999534606934,10.949999809265137,11.079999923706055,11.079999923706055,1333900
2019-04-24,11.0,12.59000015258789,10.850000381469727,12.289999961853027,12.289999961853027,2360400
2019-04-25,12.3100004196167,12.4399995803833,11.600000381469727,11.619999885559082,11.619999885559082,1176800
2019-04-26,11.550000190734863,12.180000305175781,11.369999885559082,11.569999694824219,11.569999694824219,1097900
2019-04-29,11.649999618530273,12.039999961853027,11.420000076293945,12.010000228881836,12.010000228881836,891500
2019-04-30,12.270000457763672,12.989999771118164,11.989999771118164,12.5,12.5,1595800
2019-05-01,12.5,12.75,11.859999656677246,11.899999618530273,11.899999618530273,870700
2019-05-02,11.949999809265137,12.010000228881836,11.229999542236328,11.529999732971191,11.529999732971191,855200
2019-05-03,11.510000228881836,11.90999984741211,11.260000228881836,11.789999961853027,11.789999961853027,801400
2019-05-06,11.350000381469727,11.9399995803833,11.1899995803833,11.899999618530273,11.899999618530273,772300
2019-05-07,11.640000343322754,12.100000381469727,11.164999961853027,11.25,11.25,1050100
2019-05-08,11.25,11.460000038146973,10.850000381469727,10.949999809265137,10.949999809265137,830700
2019-05-09,10.850000381469727,11.149999618530273,10.289999961853027,11.010000228881836,11.010000228881836,1014500
2019-05-10,11.819999694824219,12.960000038146973,11.529999732971191,12.609999656677246,12.609999656677246,3262900
2019-05-13,12.050000190734863,12.449999809265137,11.850000381469727,12.369999885559082,12.369999885559082,1200100
2019-05-14,12.369999885559082,13.289999961853027,12.369999885559082,12.680000305175781,12.680000305175781,1870700
2019-05-15,12.600000381469727,13.210000038146973,12.59000015258789,13.140000343322754,13.140000343322754,1003700
2019-05-16,13.390000343322754,14.385000228881836,13.390000343322754,13.789999961853027,13.789999961853027,2307400
2019-05-17,13.789999961853027,14.119999885559082,13.25,13.319999694824219,13.319999694824219,1123100
2019-05-20,13.210000038146973,14.0,13.210000038146973,13.279999732971191,13.279999732971191,654600
2019-05-21,13.770000457763672,13.869999885559082,13.08899974822998,13.210000038146973,13.210000038146973,1042000
2019-05-22,13.550000190734863,13.699999809265137,13.1899995803833,13.680000305175781,13.680000305175781,1025600
2019-05-23,13.869999885559082,14.149999618530273,13.199999809265137,13.510000228881836,13.510000228881836,1235300
2019-05-24,13.699999809265137,13.720000267028809,13.069999694824219,13.1899995803833,13.1899995803833,732000
2019-05-28,13.270000457763672,13.3100004196167,12.899999618530273,13.180000305175781,13.180000305175781,532000
2019-05-29,12.890000343322754,13.050000190734863,12.5,12.720000267028809,12.720000267028809,542100
2019-05-30,12.630000114440918,12.920000076293945,12.630000114440918,12.699999809265137,12.699999809265137,272500
2019-05-31,12.369999885559082,12.390000343322754,11.800000190734863,12.100000381469727,12.100000381469727,750600
2019-06-03,11.989999771118164,12.329999923706055,11.8100004196167,11.890000343322754,11.890000343322754,664300
2019-06-04,11.989999771118164,12.5,11.989999771118164,12.430000305175781,12.430000305175781,409300
2019-06-05,12.6899995803833,12.850000381469727,12.100000381469727,12.800000190734863,12.800000190734863,599400
2019-06-06,12.84000015258789,13.09000015258789,12.446000099182129,12.880000114440918,12.880000114440918,541800
2019-06-07,12.829999923706055,13.300000190734863,12.829999923706055,13.130000114440918,13.130000114440918,534300
2019-06-10,13.34000015258789,13.75,13.25,13.4399995803833,13.4399995803833,523400
2019-06-11,13.600000381469727,13.859999656677246,12.869999885559082,13.010000228881836,13.010000228881836,856700
2019-06-12,13.010000228881836,13.079999923706055,12.550000190734863,12.640000343322754,12.640000343322754,459500
2019-06-13,13.0,13.0,12.239999771118164,12.850000381469727,12.850000381469727,580500
2019-06-14,12.739999771118164,12.9399995803833,11.5600004196167,11.65999984741211,11.65999984741211,1310000
2019-06-17,11.670000076293945,12.329999923706055,11.619999885559082,12.220000267028809,12.220000267028809,551300
2019-06-18,12.260000228881836,12.609999656677246,12.149999618530273,12.279999732971191,12.279999732971191,503600
2019-06-19,12.199999809265137,12.680000305175781,12.199999809265137,12.5,12.5,455100
2019-06-20,12.59000015258789,12.789999961853027,12.510000228881836,12.670000076293945,12.670000076293945,414700
2019-06-21,12.489999771118164,12.489999771118164,11.649999618530273,11.6899995803833,11.6899995803833,1290500
2019-06-24,11.640000343322754,11.850000381469727,11.15999984741211,11.319999694824219,11.319999694824219,949300
2019-06-25,11.350000381469727,11.399999618530273,10.8100004196167,10.850000381469727,10.850000381469727,887900
2019-06-26,10.960000038146973,11.5600004196167,10.930000305175781,11.239999771118164,11.239999771118164,681600
2019-06-27,11.239999771118164,11.510000228881836,11.151000022888184,11.470000267028809,11.470000267028809,315300
2019-06-28,11.479999542236328,11.779999732971191,11.359999656677246,11.4399995803833,11.4399995803833,260400
2019-07-01,11.550000190734863,11.78499984741211,11.300000190734863,11.600000381469727,11.600000381469727,179600
2019-07-02,11.600000381469727,11.600000381469727,11.100000381469727,11.289999961853027,11.289999961853027,408300
2019-07-03,11.359999656677246,11.359999656677246,10.6899995803833,10.970000267028809,10.970000267028809,710500
2019-07-05,10.949999809265137,11.5600004196167,10.765000343322754,11.529999732971191,11.529999732971191,579900
2019-07-08,11.399999618530273,11.4399995803833,11.069999694824219,11.399999618530273,11.399999618530273,474200
2019-07-09,11.210000038146973,11.350000381469727,11.0,11.279999732971191,11.279999732971191,407600
2019-07-10,11.350000381469727,11.350000381469727,10.569999694824219,10.649999618530273,10.649999618530273,1047200
2019-07-11,10.84000015258789,10.899999618530273,9.890000343322754,10.039999961853027,10.039999961853027,1644300
2019-07-12,10.029999732971191,10.029999732971191,9.109999656677246,9.279999732971191,9.279999732971191,2001400
2019-07-15,9.210000038146973,10.199999809265137,8.890000343322754,9.40999984741211,9.40999984741211,2233100
2019-07-16,9.40999984741211,9.630000114440918,9.239999771118164,9.270000457763672,9.270000457763672,641200
2019-07-17,9.239999771118164,9.760000228881836,9.239999771118164,9.6899995803833,9.6899995803833,599100
2019-07-18,9.739999771118164,10.199999809265137,9.520000457763672,9.789999961853027,9.789999961853027,780700
2019-07-19,9.829999923706055,10.399999618530273,9.630000114440918,10.180000305175781,10.180000305175781,878000
2019-07-22,10.199999809265137,10.90999984741211,10.020000457763672,10.6899995803833,10.6899995803833,1392600
2019-07-23,11.100000381469727,11.670000076293945,10.420000076293945,10.6899995803833,10.6899995803833,1719900
2019-07-24,10.649999618530273,11.010000228881836,10.300000190734863,10.859999656677246,10.859999656677246,511700
2019-07-25,10.789999961853027,11.489999771118164,10.789999961853027,11.050000190734863,11.050000190734863,1265800
2019-07-26,11.149999618530273,11.399999618530273,10.899999618530273,11.369999885559082,11.369999885559082,486200
2019-07-29,11.399999618530273,11.454999923706055,10.979999542236328,11.399999618530273,11.399999618530273,499600
2019-07-30,11.180000305175781,11.960000038146973,11.100000381469727,11.765000343322754,11.765000343322754,672100
2019-07-31,11.800000190734863,12.0600004196167,11.210000038146973,11.369999885559082,11.369999885559082,541000
2019-08-01,11.329999923706055,11.449999809265137,11.0,11.09000015258789,11.09000015258789,577000
2019-08-02,11.270000457763672,12.0,11.270000457763672,12.0,12.0,901500
2019-08-05,11.850000381469727,12.140000343322754,11.510000228881836,11.699999809265137,11.699999809265137,888300
2019-08-06,11.899999618530273,12.1899995803833,11.729999542236328,11.789999961853027,11.789999961853027,578600
2019-08-07,11.6899995803833,11.789999961853027,11.40999984741211,11.680000305175781,11.680000305175781,330300
2019-08-08,11.84000015258789,12.880000114440918,11.8100004196167,12.880000114440918,12.880000114440918,979500
2019-08-09,12.880000114440918,13.609999656677246,12.680999755859375,13.529999732971191,13.529999732971191,2069400
2019-08-12,13.460000038146973,13.850000381469727,13.149999618530273,13.350000381469727,13.350000381469727,1601500
2019-08-13,14.449999809265137,14.600000381469727,13.510000228881836,13.630000114440918,13.630000114440918,2811900
2019-08-14,13.100000381469727,13.809000015258789,12.899999618530273,13.4399995803833,13.4399995803833,1701600
2019-08-15,13.390000343322754,13.399999618530273,12.0,12.119999885559082,12.119999885559082,1750700
2019-08-16,12.399999618530273,12.800000190734863,12.329999923706055,12.729999542236328,12.729999542236328,659800
2019-08-19,12.90999984741211,13.220000267028809,12.819999694824219,12.829999923706055,12.829999923706055,402400
2019-08-20,12.630000114440918,12.779999732971191,12.15999984741211,12.329999923706055,12.329999923706055,475400
2019-08-21,12.40999984741211,12.5,12.0600004196167,12.130000114440918,12.130000114440918,381600
2019-08-22,12.100000381469727,12.130000114440918,11.680000305175781,11.75,11.75,696000
2019-08-23,11.600000381469727,11.675000190734863,10.90999984741211,10.970000267028809,10.970000267028809,806400
2019-08-26,11.100000381469727,11.220000267028809,10.600000381469727,10.819999694824219,10.819999694824219,645300
2019-08-27,10.850000381469727,10.949999809265137,10.300000190734863,10.300000190734863,10.300000190734863,638300
2019-08-28,10.300000190734863,10.880000114440918,10.050000190734863,10.520000457763672,10.520000457763672,590100
2019-08-29,10.75,10.850000381469727,10.449999809265137,10.5,10.5,404300
2019-08-30,10.529999732971191,10.649999618530273,10.319999694824219,10.5,10.5,347800
2019-09-03,10.34000015258789,10.82699966430664,10.180000305175781,10.800000190734863,10.800000190734863,681300
2019-09-04,11.180000305175781,11.59000015258789,10.765000343322754,11.529999732971191,11.529999732971191,732600
2019-09-05,11.649999618530273,11.800000190734863,11.300000190734863,11.550000190734863,11.550000190734863,613600
2019-09-06,11.619999885559082,12.109999656677246,11.399999618530273,11.920000076293945,11.920000076293945,677600
2019-09-09,12.329999923706055,12.529999732971191,11.619999885559082,11.800000190734863,11.800000190734863,894100
2019-09-10,11.699999809265137,12.319999694824219,11.350000381469727,12.25,12.25,638700
2019-09-11,12.140000343322754,12.39900016784668,12.0,12.029999732971191,12.029999732971191,478900
2019-09-12,11.869999885559082,12.140000343322754,11.65999984741211,11.680000305175781,11.680000305175781,497300
2019-09-13,11.729999542236328,11.845999717712402,11.5,11.6899995803833,11.6899995803833,417300
2019-09-16,11.579999923706055,11.670000076293945,10.880000114440918,10.899999618530273,10.899999618530273,594800
2019-09-17,10.920000076293945,11.300000190734863,10.800000190734863,10.920000076293945,10.920000076293945,430000
2019-09-18,11.039999961853027,11.109999656677246,10.399999618530273,10.520000457763672,10.520000457763672,531200
2019-09-19,10.489999771118164,10.84000015258789,10.369999885559082,10.630000114440918,10.630000114440918,431400
2019-09-20,10.739999771118164,10.8100004196167,10.399999618530273,10.399999618530273,10.399999618530273,495700
2019-09-23,10.390000343322754,10.619999885559082,10.3149995803833,10.430000305175781,10.430000305175781,271300
2019-09-24,10.5,10.510000228881836,9.369999885559082,9.4399995803833,9.4399995803833,1610800
2019-09-25,9.5,9.510000228881836,9.0649995803833,9.319999694824219,9.319999694824219,1126700
2019-09-26,9.550000190734863,9.640000343322754,9.079999923706055,9.119999885559082,9.119999885559082,638200
2019-09-27,9.170000076293945,9.418000221252441,8.8100004196167,8.989999771118164,8.989999771118164,736100
2019-09-30,8.970000267028809,9.100000381469727,8.5,9.050000190734863,9.050000190734863,837500
2019-10-01,9.130000114440918,9.390000343322754,8.675999641418457,8.770000457763672,8.770000457763672,642800
2019-10-02,8.640000343322754,8.930000305175781,8.300000190734863,8.770000457763672,8.770000457763672,798500
2019-10-03,8.770000457763672,9.369999885559082,8.65999984741211,9.3100004196167,9.3100004196167,519100
2019-10-04,9.420000076293945,9.489999771118164,9.199999809265137,9.260000228881836,9.260000228881836,309400
2019-10-07,9.220000267028809,9.440999984741211,8.970000267028809,9.09000015258789,9.09000015258789,326700
2019-10-08,9.039999961853027,9.09000015258789,8.600000381469727,8.630000114440918,8.630000114440918,605700
2019-10-09,8.699999809265137,8.770000457763672,7.760000228881836,7.929999828338623,7.929999828338623,1440200
2019-10-10,7.010000228881836,7.429999828338623,6.840000152587891,7.25,7.25,2416600
2019-10-11,7.320000171661377,7.809999942779541,7.159999847412109,7.210000038146973,7.210000038146973,961000
2019-10-14,7.199999809265137,7.199999809265137,6.71999979019165,6.929999828338623,6.929999828338623,718900
2019-10-15,7.050000190734863,7.300000190734863,6.929999828338623,7.03000020980835,7.03000020980835,1177800
2019-10-16,7.03000020980835,7.050000190734863,6.679999828338623,6.730000019073486,6.730000019073486,950400
2019-10-17,6.900000095367432,7.119999885559082,6.760000228881836,6.949999809265137,6.949999809265137,1096900
2019-10-18,7.0,7.079999923706055,6.5,6.78000020980835,6.78000020980835,1067300
2019-10-21,6.789999961853027,7.28000020980835,6.703000068664551,7.25,7.25,1046700
2019-10-22,7.230000019073486,7.730000019073486,7.230000019073486,7.53000020980835,7.53000020980835,972100
2019-10-23,7.46999979019165,7.96999979019165,7.309999942779541,7.860000133514404,7.860000133514404,907700
2019-10-24,8.0,8.760000228881836,7.800000190734863,8.569999694824219,8.569999694824219,1276400
2019-10-25,8.609999656677246,8.8100004196167,8.220000267028809,8.3100004196167,8.3100004196167,833100
2019-10-28,8.319999694824219,8.8100004196167,8.270000457763672,8.350000381469727,8.350000381469727,555000
2019-10-29,8.3100004196167,8.425999641418457,7.769999980926514,7.860000133514404,7.860000133514404,911500
2019-10-30,7.849999904632568,8.12600040435791,7.679999828338623,7.809999942779541,7.809999942779541,510900
2019-10-31,7.710000038146973,8.050000190734863,7.610000133514404,7.909999847412109,7.909999847412109,531200
2019-11-01,7.909999847412109,8.390000343322754,7.869999885559082,8.149999618530273,8.149999618530273,478300
2019-11-04,8.25,8.289999961853027,8.0,8.079999923706055,8.079999923706055,467900
2019-11-05,8.109999656677246,8.680000305175781,8.010000228881836,8.600000381469727,8.600000381469727,899100
2019-11-06,8.59000015258789,8.6899995803833,8.300000190734863,8.40999984741211,8.40999984741211,654900
2019-11-07,8.550000190734863,8.579999923706055,7.75,7.840000152587891,7.840000152587891,844600
2019-11-08,7.800000190734863,8.901000022888184,7.670000076293945,8.869999885559082,8.869999885559082,1354900
2019-11-11,8.899999618530273,8.899999618530273,8.057000160217285,8.170000076293945,8.170000076293945,1115600
2019-11-12,8.199999809265137,8.210000038146973,7.572999954223633,7.639999866485596,7.639999866485596,1043100
2019-11-13,7.570000171661377,7.570000171661377,6.900000095367432,7.090000152587891,7.090000152587891,1419800
2019-11-14,6.849999904632568,7.090000152587891,6.494999885559082,6.800000190734863,6.800000190734863,1775200
2019-11-15,5.800000190734863,6.789999961853027,5.699999809265137,6.320000171661377,6.320000171661377,2005200
2019-11-18,6.28000020980835,6.309999942779541,5.730000019073486,6.090000152587891,6.090000152587891,1486200
2019-11-19,5.980000019073486,6.489999771118164,5.860000133514404,6.28000020980835,6.28000020980835,1301200
2019-11-20,6.449999809265137,7.159999847412109,6.360000133514404,7.070000171661377,7.070000171661377,1920900
2019-11-21,7.199999809265137,7.953000068664551,7.017000198364258,7.28000020980835,7.28000020980835,2344600
2019-11-22,7.289999961853027,7.289999961853027,6.449999809265137,6.46999979019165,6.46999979019165,1203600
2019-11-25,6.489999771118164,6.650000095367432,6.25,6.300000190734863,6.300000190734863,794600
2019-11-26,6.25,6.900000095367432,6.110000133514404,6.710000038146973,6.710000038146973,977300
2019-11-27,6.75,7.089000225067139,6.474999904632568,6.599999904632568,6.599999904632568,883500
2019-11-29,6.559999942779541,6.730000019073486,6.480000019073486,6.619999885559082,6.619999885559082,271900
2019-12-02,6.599999904632568,6.599999904632568,6.239999771118164,6.269999980926514,6.269999980926514,564800
2019-12-03,6.110000133514404,6.449999809265137,5.920000076293945,6.389999866485596,6.389999866485596,895200
2019-12-04,6.400000095367432,6.400000095367432,6.210000038146973,6.309999942779541,6.309999942779541,296500
2019-12-05,6.380000114440918,6.440000057220459,6.239999771118164,6.340000152587891,6.340000152587891,413400
2019-12-06,6.329999923706055,6.610000133514404,6.309999942779541,6.550000190734863,6.550000190734863,376700
2019-12-09,6.590000152587891,6.929999828338623,6.420000076293945,6.519999980926514,6.519999980926514,700100
2019-12-10,6.480000019073486,6.565000057220459,6.099999904632568,6.119999885559082,6.119999885559082,712000
2019-12-11,6.190000057220459,6.300000190734863,6.03000020980835,6.059999942779541,6.059999942779541,485900
2019-12-12,6.059999942779541,6.300000190734863,6.03000020980835,6.28000020980835,6.28000020980835,486700
2019-12-13,6.389999866485596,6.480000019073486,6.170000076293945,6.170000076293945,6.170000076293945,515000
2019-12-16,6.230000019073486,6.389999866485596,6.110000133514404,6.190000057220459,6.190000057220459,394600
2019-12-17,6.190000057220459,6.199999809265137,5.949999809265137,5.949999809265137,5.949999809265137,639100
2019-12-18,5.949999809265137,5.980000019073486,5.5,5.519999980926514,5.519999980926514,1082200
2019-12-19,5.5,5.960000038146973,5.400000095367432,5.889999866485596,5.889999866485596,784300
2019-12-20,5.880000114440918,6.11899995803833,5.760000228881836,5.960000038146973,5.960000038146973,501500
2019-12-23,6.0,6.090000152587891,5.690000057220459,5.730000019073486,5.730000019073486,594100
2019-12-24,5.699999809265137,5.980000019073486,5.610000133514404,5.96999979019165,5.96999979019165,310800
2019-12-26,5.989999771118164,5.989999771118164,5.78000020980835,5.800000190734863,5.800000190734863,315400
2019-12-27,5.809999942779541,6.368000030517578,5.760000228881836,6.260000228881836,6.260000228881836,1163700
2019-12-30,6.269999980926514,6.420000076293945,5.752999782562256,5.789999961853027,5.789999961853027,861300
2019-12-31,5.760000228881836,6.300000190734863,5.760000228881836,6.230000019073486,6.230000019073486,1020300
2020-01-02,6.309999942779541,6.320000171661377,5.960000038146973,6.139999866485596,6.139999866485596,598700
2020-01-03,6.050000190734863,6.269999980926514,5.929999828338623,6.059999942779541,6.059999942779541,690300
2020-01-06,6.059999942779541,6.079999923706055,5.761000156402588,5.78000020980835,5.78000020980835,813100
2020-01-07,5.78000020980835,5.880000114440918,5.679999828338623,5.710000038146973,5.710000038146973,663400
2020-01-08,5.679999828338623,5.869999885559082,5.369999885559082,5.610000133514404,5.610000133514404,1349400
2020-01-09,5.639999866485596,5.745999813079834,5.5,5.610000133514404,5.610000133514404,439100
2020-01-10,5.599999904632568,5.599999904632568,5.369999885559082,5.400000095367432,5.400000095367432,724200
2020-01-13,5.429999828338623,5.650000095367432,5.159999847412109,5.559999942779541,5.559999942779541,1589300
2020-01-14,5.5,5.889999866485596,5.349999904632568,5.5,5.5,1908900
2020-01-15,5.539999961853027,6.699999809265137,5.539999961853027,6.360000133514404,6.360000133514404,3451100
2020-01-16,6.5,6.699999809265137,6.172999858856201,6.21999979019165,6.21999979019165,1269000
2020-01-17,6.25,6.449999809265137,6.070000171661377,6.139999866485596,6.139999866485596,830800
2020-01-21,6.170000076293945,6.239999771118164,5.769999980926514,5.829999923706055,5.829999923706055,752900
2020-01-22,5.849999904632568,5.960000038146973,5.710000038146973,5.869999885559082,5.869999885559082,792000
2020-01-23,5.869999885559082,5.980000019073486,5.730000019073486,5.869999885559082,5.869999885559082,470900
2020-01-24,5.849999904632568,5.9679999351501465,5.449999809265137,5.579999923706055,5.579999923706055,1127000
2020-01-27,5.309999942779541,5.579999923706055,5.25,5.460000038146973,5.460000038146973,653300
2020-01-28,5.5,5.7220001220703125,5.489999771118164,5.71999979019165,5.71999979019165,687400
2020-01-29,5.730000019073486,5.796999931335449,5.494999885559082,5.510000228881836,5.510000228881836,362600
2020-01-30,5.460000038146973,5.599999904632568,5.369999885559082,5.570000171661377,5.570000171661377,400300
2020-01-31,5.590000152587891,5.730000019073486,5.380000114440918,5.460000038146973,5.460000038146973,439700
2020-02-03,5.449999809265137,5.590000152587891,5.389999866485596,5.565000057220459,5.565000057220459,447000
2020-02-04,5.590000152587891,5.78000020980835,5.5,5.670000076293945,5.670000076293945,1042200
2020-02-05,5.71999979019165,5.800000190734863,5.619999885559082,5.760000228881836,5.760000228881836,430900
2020-02-06,5.75,5.820000171661377,5.5,5.510000228881836,5.510000228881836,710000
2020-02-07,5.420000076293945,5.440000057220459,4.989999771118164,5.010000228881836,5.010000228881836,1587200
2020-02-10,5.019999980926514,5.031000137329102,4.610000133514404,4.639999866485596,4.639999866485596,1455000
2020-02-11,4.650000095367432,4.860000133514404,4.460000038146973,4.699999809265137,4.699999809265137,1033200
2020-02-12,4.710000038146973,4.940000057220459,4.639999866485596,4.679999828338623,4.679999828338623,733000
2020-02-13,4.630000114440918,4.820000171661377,4.571000099182129,4.739999771118164,4.739999771118164,659200
2020-02-14,4.920000076293945,5.28000020980835,4.829999923706055,5.269999980926514,5.269999980926514,2685500
2020-02-18,5.150000095367432,5.284999847412109,5.019999980926514,5.21999979019165,5.21999979019165,692700
2020-02-19,5.25,5.289999961853027,5.110000133514404,5.21999979019165,5.21999979019165,557800
2020-02-20,5.190000057220459,5.459000110626221,5.03000020980835,5.059999942779541,5.059999942779541,766900
2020-02-21,5.059999942779541,5.059999942779541,4.739999771118164,4.75,4.75,666800
2020-02-24,4.550000190734863,4.650000095367432,4.389999866485596,4.510000228881836,4.510000228881836,704500
2020-02-25,4.550000190734863,4.579999923706055,4.159999847412109,4.199999809265137,4.199999809265137,832900
2020-02-26,4.300000190734863,4.510000228881836,4.239999771118164,4.289999961853027,4.289999961853027,645100
2020-02-27,4.110000133514404,4.26200008392334,3.9000000953674316,4.099999904632568,4.099999904632568,719600
2020-02-28,3.9000000953674316,4.179999828338623,3.8499999046325684,4.090000152587891,4.090000152587891,865600
2020-03-02,4.110000133514404,4.300000190734863,4.00600004196167,4.159999847412109,4.159999847412109,409900
2020-03-03,4.5,4.5,3.9000000953674316,3.930000066757202,3.930000066757202,1764800
2020-03-04,4.050000190734863,4.059999942779541,3.8499999046325684,4.019999980926514,4.019999980926514,1084900
2020-03-05,3.9200000762939453,3.9200000762939453,3.7300000190734863,3.759999990463257,3.759999990463257,1356800
2020-03-06,3.6500000953674316,3.75,3.316999912261963,3.3499999046325684,3.3499999046325684,1566800
2020-03-09,3.049999952316284,3.299999952316284,2.9000000953674316,2.9100000858306885,2.9100000858306885,1026900
2020-03-10,3.130000114440918,3.240000009536743,2.9700000286102295,3.119999885559082,3.119999885559082,722300
2020-03-11,3.0,3.0799999237060547,2.9000000953674316,2.9000000953674316,2.9000000953674316,684700
2020-03-12,2.5799999237060547,2.880000114440918,2.5,2.7100000381469727,2.7100000381469727,1117400
2020-03-13,2.799999952316284,3.0399999618530273,2.740000009536743,2.950000047683716,2.950000047683716,777300
2020-03-16,2.690000057220459,2.869999885559082,2.5999999046325684,2.690000057220459,2.690000057220459,694700
2020-03-17,2.759999990463257,2.759999990463257,2.509999990463257,2.5799999237060547,2.5799999237060547,585200
2020-03-18,2.5,2.609999895095825,2.309999942779541,2.509999990463257,2.509999990463257,1349600
2020-03-19,2.2300000190734863,2.384999990463257,2.069999933242798,2.2300000190734863,2.2300000190734863,1402400
2020-03-20,2.2899999618530273,2.509999990463257,2.259999990463257,2.390000104904175,2.390000104904175,960700
2020-03-23,2.5,2.509999990463257,2.309999942779541,2.4700000286102295,2.4700000286102295,725100
2020-03-24,2.559999942779541,2.9700000286102295,2.549999952316284,2.7699999809265137,2.7699999809265137,993300
2020-03-25,3.049999952316284,3.134999990463257,2.809999942779541,2.950000047683716,2.950000047683716,1309800
2020-03-26,3.009999990463257,3.75,3.0,3.6500000953674316,3.6500000953674316,1502800
2020-03-27,3.5899999141693115,3.7899999618530273,3.4200000762939453,3.4700000286102295,3.4700000286102295,789900
2020-03-30,3.5399999618530273,3.5399999618530273,3.1679999828338623,3.259999990463257,3.259999990463257,819400
2020-03-31,2.8499999046325684,3.0999999046325684,2.819999933242798,2.859999895095825,2.859999895095825,1093900
2020-04-01,2.759999990463257,2.8480000495910645,2.549999952316284,2.559999942779541,2.559999942779541,779100
2020-04-02,2.5999999046325684,2.819999933242798,2.572000026702881,2.5899999141693115,2.5899999141693115,501700
2020-04-03,2.5899999141693115,2.694999933242798,2.440000057220459,2.4800000190734863,2.4800000190734863,456600
2020-04-06,2.559999942779541,2.7300000190734863,2.4800000190734863,2.690000057220459,2.690000057220459,641000
2020-04-07,2.809999942779541,2.930000066757202,2.7100000381469727,2.759999990463257,2.759999990463257,557400
2020-04-08,2.7899999618530273,2.9800000190734863,2.690000057220459,2.9800000190734863,2.9800000190734863,624600
2020-04-09,3.0,3.0399999618530273,2.759999990463257,2.7799999713897705,2.7799999713897705,863400
2020-04-13,2.7799999713897705,2.869999885559082,2.5799999237060547,2.8399999141693115,2.8399999141693115,564000
2020-04-14,2.9100000858306885,3.0199999809265137,2.799999952316284,2.9000000953674316,2.9000000953674316,496500
2020-04-15,2.8499999046325684,2.8499999046325684,2.700000047683716,2.7699999809265137,2.7699999809265137,442600
2020-04-16,2.759999990463257,2.7899999618530273,2.609999895095825,2.700000047683716,2.700000047683716,315700
2020-04-17,2.799999952316284,2.9600000381469727,2.7300000190734863,2.9100000858306885,2.9100000858306885,615100
2020-04-20,2.9100000858306885,3.200000047683716,2.8450000286102295,3.049999952316284,3.049999952316284,775300
2020-04-21,3.0299999713897705,3.049999952316284,2.8299999237060547,2.869999885559082,2.869999885559082,512200
2020-04-22,2.9600000381469727,2.984999895095825,2.869999885559082,2.930000066757202,2.930000066757202,287700
2020-04-23,2.930000066757202,3.1649999618530273,2.930000066757202,3.119999885559082,3.119999885559082,611900
2020-04-24,3.130000114440918,3.3299999237060547,3.072999954223633,3.3299999237060547,3.3299999237060547,601100
2020-04-27,3.5,3.5299999713897705,3.255000114440918,3.5299999713897705,3.5299999713897705,860400
2020-04-28,3.5999999046325684,3.6600000858306885,3.3299999237060547,3.359999895095825,3.359999895095825,646300
2020-04-29,3.440000057220459,3.569999933242798,3.3399999141693115,3.5299999713897705,3.5299999713897705,397400
2020-04-30,3.5299999713897705,3.5299999713897705,3.319999933242798,3.390000104904175,3.390000104904175,341000
2020-05-01,3.309999942779541,3.3299999237060547,3.0899999141693115,3.190000057220459,3.190000057220459,444800
2020-05-04,3.119999885559082,3.4800000190734863,3.109999895095825,3.380000114440918,3.380000114440918,529300
2020-05-05,3.4200000762939453,3.6700000762939453,3.3499999046325684,3.390000104904175,3.390000104904175,598500
2020-05-06,3.4200000762939453,3.4800000190734863,3.309999942779541,3.369999885559082,3.369999885559082,322000
2020-05-07,3.4200000762939453,3.450000047683716,3.2699999809265137,3.2799999713897705,3.2799999713897705,351100
2020-05-08,3.2899999618530273,3.450000047683716,3.259999990463257,3.4100000858306885,3.4100000858306885,409000
2020-05-11,3.4700000286102295,3.4700000286102295,3.259999990463257,3.4100000858306885,3.4100000858306885,374700
2020-05-12,3.450000047683716,3.453000068664551,3.299999952316284,3.319999933242798,3.319999933242798,282600
2020-05-13,3.3299999237060547,3.3499999046325684,2.9000000953674316,3.0399999618530273,3.0399999618530273,753600
2020-05-14,3.0799999237060547,3.380000114440918,2.859999895095825,3.240000009536743,3.240000009536743,682400
2020-05-15,3.200000047683716,3.4200000762939453,3.0160000324249268,3.130000114440918,3.130000114440918,1283600
2020-05-18,3.25,3.740000009536743,3.25,3.609999895095825,3.609999895095825,1236000
2020-05-19,3.5899999141693115,3.630000114440918,3.3299999237060547,3.390000104904175,3.390000104904175,974500
2020-05-20,3.5,4.28000020980835,3.4560000896453857,4.210000038146973,4.210000038146973,3487600
2020-05-21,4.139999866485596,4.46999979019165,3.799999952316284,4.239999771118164,4.239999771118164,2829500
2020-05-22,4.328000068664551,5.400000095367432,4.019999980926514,5.199999809265137,5.199999809265137,5796800
2020-05-26,5.739999771118164,6.090000152587891,5.599999904632568,5.869999885559082,5.869999885559082,3810500
2020-05-27,5.849999904632568,5.989999771118164,5.389999866485596,5.590000152587891,5.590000152587891,1924100
2020-05-28,5.599999904632568,5.989999771118164,5.369999885559082,5.679999828338623,5.679999828338623,1504400
2020-05-29,5.420000076293945,5.610000133514404,5.159999847412109,5.440000057220459,5.440000057220459,1963200
2020-06-01,5.329999923706055,5.519999980926514,5.21999979019165,5.46999979019165,5.46999979019165,924100
2020-06-02,5.449999809265137,5.73799991607666,5.449999809265137,5.559999942779541,5.559999942779541,837300
2020-06-03,5.630000114440918,6.440000057220459,5.599999904632568,6.369999885559082,6.369999885559082,1751800
2020-06-04,6.389999866485596,6.480000019073486,6.019999980926514,6.150000095367432,6.150000095367432,1465800
2020-06-05,6.349999904632568,6.409999847412109,5.96999979019165,6.039999961853027,6.039999961853027,695000
2020-06-08,6.300000190734863,7.039999961853027,6.110000133514404,6.800000190734863,6.800000190734863,1792100
2020-06-09,6.699999809265137,7.010000228881836,6.429999828338623,6.989999771118164,6.989999771118164,1284800
2020-06-10,6.960000038146973,7.03000020980835,6.699999809265137,6.909999847412109,6.909999847412109,779300
2020-06-11,6.489999771118164,6.739999771118164,5.730000019073486,5.78000020980835,5.78000020980835,1827500
2020-06-12,6.320000171661377,6.441999912261963,5.9120001792907715,6.070000171661377,6.070000171661377,1113500
2020-06-15,5.849999904632568,6.019999980926514,5.610000133514404,5.869999885559082,5.869999885559082,992500
2020-06-16,6.099999904632568,6.239999771118164,5.760000228881836,5.880000114440918,5.880000114440918,891500
2020-06-17,5.889999866485596,6.0,5.71999979019165,5.78000020980835,5.78000020980835,450900
2020-06-18,5.710000038146973,5.849999904632568,5.5,5.53000020980835,5.53000020980835,847500
2020-06-19,5.599999904632568,5.625,5.050000190734863,5.099999904632568,5.099999904632568,1612000
2020-06-22,5.059999942779541,5.28000020980835,4.909999847412109,5.150000095367432,5.150000095367432,663500
2020-06-23,5.139999866485596,5.480000019073486,5.079999923706055,5.150000095367432,5.150000095367432,1028600
2020-06-24,5.150000095367432,5.25,4.71999979019165,4.96999979019165,4.96999979019165,1230900
2020-06-25,4.920000076293945,5.130000114440918,4.860000133514404,4.960000038146973,4.960000038146973,669600
2020-06-26,4.949999809265137,4.966000080108643,4.619999885559082,4.630000114440918,4.630000114440918,864500
2020-06-29,4.619999885559082,4.949999809265137,4.599999904632568,4.920000076293945,4.920000076293945,564700
2020-06-30,4.829999923706055,4.900000095367432,4.71999979019165,4.789999961853027,4.789999961853027,392600
2020-07-01,4.809999942779541,5.269999980926514,4.809999942779541,4.909999847412109,4.909999847412109,608500
2020-07-02,5.0,5.010000228881836,4.730000019073486,4.760000228881836,4.760000228881836,669700
2020-07-06,4.820000171661377,5.079999923706055,4.71999979019165,5.070000171661377,5.070000171661377,788000
2020-07-07,5.010000228881836,5.230000019073486,4.900000095367432,5.170000076293945,5.170000076293945,627500
2020-07-08,5.320000171661377,5.75,5.260000228881836,5.380000114440918,5.380000114440918,1083300
2020-07-09,5.5,5.510000228881836,4.929999828338623,4.940000057220459,4.940000057220459,912800
2020-07-10,4.96999979019165,5.139999866485596,4.849999904632568,5.099999904632568,5.099999904632568,602000
2020-07-13,5.179999828338623,5.5,4.96999979019165,5.0,5.0,1020400
2020-07-14,5.0,5.079999923706055,4.78000020980835,4.940000057220459,4.940000057220459,613800
2020-07-15,5.0,5.360000133514404,4.980000019073486,5.25,5.25,927400
2020-07-16,5.150000095367432,5.340000152587891,5.070000171661377,5.260000228881836,5.260000228881836,336600
2020-07-17,5.300000190734863,5.460000038146973,5.139999866485596,5.239999771118164,5.239999771118164,434900
2020-07-20,5.190000057220459,5.380000114440918,5.130000114440918,5.349999904632568,5.349999904632568,453300
2020-07-21,5.389999866485596,6.03000020980835,5.349999904632568,5.980000019073486,5.980000019073486,1800200
2020-07-22,6.0,6.0,5.5,5.599999904632568,5.599999904632568,1041200
2020-07-23,5.630000114440918,5.809999942779541,5.539999961853027,5.710000038146973,5.710000038146973,515500
2020-07-24,5.650000095367432,5.820000171661377,5.440000057220459,5.760000228881836,5.760000228881836,804900
2020-07-27,5.800000190734863,5.980000019073486,5.699999809265137,5.960000038146973,5.960000038146973,955900
2020-07-28,5.980000019073486,6.570000171661377,5.840000152587891,6.329999923706055,6.329999923706055,1534500
2020-07-29,6.360000133514404,6.360000133514404,5.849999904632568,6.130000114440918,6.130000114440918,985400
2020-07-30,6.050000190734863,6.389999866485596,5.960000038146973,6.349999904632568,6.349999904632568,610600
2020-07-31,6.349999904632568,6.599999904632568,6.03000020980835,6.090000152587891,6.090000152587891,707600
2020-08-03,6.130000114440918,6.159999847412109,5.769999980926514,5.849999904632568,5.849999904632568,712600
2020-08-04,6.019999980926514,6.340000152587891,5.929999828338623,6.289999961853027,6.289999961853027,689500
2020-08-05,6.320000171661377,6.489999771118164,6.099999904632568,6.119999885559082,6.119999885559082,371500
2020-08-06,6.079999923706055,6.130000114440918,5.900000095367432,6.099999904632568,6.099999904632568,420800
2020-08-07,6.03000020980835,6.210000038146973,5.909999847412109,5.960000038146973,5.960000038146973,464300
2020-08-10,6.079999923706055,6.429999828338623,6.079999923706055,6.309999942779541,6.309999942779541,627100
2020-08-11,6.360000133514404,6.550000190734863,6.139999866485596,6.400000095367432,6.400000095367432,701500
2020-08-12,6.519999980926514,6.519999980926514,5.960000038146973,6.110000133514404,6.110000133514404,1228800
2020-08-13,5.949999809265137,6.070000171661377,5.769999980926514,6.0,6.0,1309300
2020-08-14,5.900000095367432,6.0,5.46999979019165,5.71999979019165,5.71999979019165,1509500
2020-08-17,5.75,5.800000190734863,5.090000152587891,5.139999866485596,5.139999866485596,1610600
2020-08-18,5.210000038146973,5.309999942779541,4.96999979019165,4.980000019073486,4.980000019073486,984200
2020-08-19,5.0,5.170000076293945,4.869999885559082,5.070000171661377,5.070000171661377,776300
2020-08-20,5.019999980926514,5.13700008392334,4.880000114440918,5.110000133514404,5.110000133514404,461200
2020-08-21,5.079999923706055,5.090000152587891,4.96999979019165,4.96999979019165,4.96999979019165,352700
2020-08-24,5.03000020980835,5.039999961853027,4.880000114440918,4.929999828338623,4.929999828338623,472200
2020-08-25,4.960000038146973,5.980000019073486,4.960000038146973,5.690000057220459,5.690000057220459,7918600
2020-08-26,5.635000228881836,5.730000019073486,5.300000190734863,5.349999904632568,5.349999904632568,1506600
2020-08-27,5.269999980926514,5.550000190734863,5.199999809265137,5.300000190734863,5.300000190734863,878700
2020-08-28,5.360000133514404,5.710000038146973,5.289999961853027,5.690000057220459,5.690000057220459,918700
2020-08-31,5.710000038146973,5.769000053405762,5.429999828338623,5.730000019073486,5.730000019073486,1043500
2020-09-01,5.690000057220459,5.820000171661377,5.5,5.769999980926514,5.769999980926514,765700
2020-09-02,5.75,5.800000190734863,5.46999979019165,5.739999771118164,5.739999771118164,668600
2020-09-03,5.679999828338623,5.920000076293945,5.420000076293945,5.559999942779541,5.559999942779541,895000
2020-09-04,5.510000228881836,5.559999942779541,5.085000038146973,5.230000019073486,5.230000019073486,1082700
2020-09-08,6.0,6.0,5.409999847412109,5.730000019073486,5.730000019073486,3866600
2020-09-09,5.800000190734863,6.090000152587891,5.599999904632568,5.78000020980835,5.78000020980835,2590200
2020-09-10,5.849999904632568,5.949999809265137,5.559999942779541,5.599999904632568,5.599999904632568,1277200
2020-09-11,5.650000095367432,5.71999979019165,5.449999809265137,5.579999923706055,5.579999923706055,517800
2020-09-14,5.670000076293945,5.869999885559082,5.550000190734863,5.75,5.75,1142000
2020-09-15,5.800000190734863,5.869999885559082,5.619999885559082,5.739999771118164,5.739999771118164,485100
2020-09-16,5.710000038146973,5.809999942779541,5.679999828338623,5.739999771118164,5.739999771118164,515200
2020-09-17,5.699999809265137,5.789999961853027,5.599999904632568,5.730000019073486,5.730000019073486,307500
2020-09-18,5.690000057220459,5.820000171661377,5.579999923706055,5.739999771118164,5.739999771118164,557200
2020-09-21,5.570000171661377,5.579999923706055,5.079999923706055,5.170000076293945,5.170000076293945,1575000
2020-09-22,5.25,5.260000228881836,5.03000020980835,5.130000114440918,5.130000114440918,791000
2020-09-23,5.119999885559082,5.179999828338623,4.679999828338623,4.809999942779541,4.809999942779541,2239600
2020-09-24,4.739999771118164,4.980000019073486,4.584000110626221,4.78000020980835,4.78000020980835,730400
2020-09-25,4.75,4.880000114440918,4.630000114440918,4.840000152587891,4.840000152587891,771000
2020-09-28,4.909999847412109,4.989999771118164,4.650000095367432,4.679999828338623,4.679999828338623,1392400
2020-09-29,4.639999866485596,4.800000190734863,4.619999885559082,4.650000095367432,4.650000095367432,785600
2020-09-30,4.670000076293945,4.760000228881836,4.5,4.579999923706055,4.579999923706055,928700
2020-10-01,4.590000152587891,4.644999980926514,4.5,4.53000020980835,4.53000020980835,468700
2020-10-02,4.320000171661377,4.630000114440918,4.269999980926514,4.630000114440918,4.630000114440918,724800
2020-10-05,4.639999866485596,4.900000095367432,4.599999904632568,4.889999866485596,4.889999866485596,950000
2020-10-06,4.909999847412109,4.96999979019165,4.650000095367432,4.679999828338623,4.679999828338623,827900
2020-10-07,4.699999809265137,4.824999809265137,4.670000076293945,4.789999961853027,4.789999961853027,560100
2020-10-08,4.809999942779541,5.25,4.71999979019165,5.170000076293945,5.170000076293945,1835800
2020-10-09,5.369999885559082,5.380000114440918,4.929999828338623,4.994999885559082,4.994999885559082,1592900
2020-10-12,5.039999961853027,5.289000034332275,4.940000057220459,5.090000152587891,5.090000152587891,1183100
2020-10-13,5.019999980926514,5.170000076293945,4.96999979019165,5.079999923706055,5.079999923706055,478100
2020-10-14,5.090000152587891,5.269999980926514,5.059999942779541,5.150000095367432,5.150000095367432,580000
2020-10-15,4.980000019073486,5.059000015258789,4.880000114440918,4.920000076293945,4.920000076293945,862900
2020-10-16,5.010000228881836,5.019999980926514,4.860000133514404,4.929999828338623,4.929999828338623,525600
2020-10-19,4.880000114440918,5.184999942779541,4.820000171661377,5.050000190734863,5.050000190734863,1019600
2020-10-20,5.110000133514404,5.119999885559082,4.980000019073486,5.019999980926514,5.019999980926514,411100
2020-10-21,5.039999961853027,5.400000095367432,5.0,5.260000228881836,5.260000228881836,1023000
2020-10-22,5.28000020980835,5.679999828338623,5.079999923706055,5.429999828338623,5.429999828338623,3092900
2020-10-23,5.5,5.5,5.260000228881836,5.380000114440918,5.380000114440918,721800
2020-10-26,5.289999961853027,5.34499979019165,4.900000095367432,4.940000057220459,4.940000057220459,1160500
2020-10-27,4.960000038146973,5.090000152587891,4.920000076293945,4.96999979019165,4.96999979019165,441000
2020-10-28,4.869999885559082,4.869999885559082,4.579999923706055,4.71999979019165,4.71999979019165,848600
2020-10-29,4.739999771118164,5.019999980926514,4.610000133514404,4.920000076293945,4.920000076293945,973100
2020-10-30,4.889999866485596,4.940000057220459,4.545000076293945,4.650000095367432,4.650000095367432,857000
2020-11-02,4.739999771118164,5.239999771118164,4.739999771118164,5.179999828338623,5.179999828338623,3397100
2020-11-03,5.300000190734863,5.369999885559082,5.03000020980835,5.28000020980835,5.28000020980835,1699100
2020-11-04,5.0,5.175000190734863,4.809999942779541,5.059999942779541,5.059999942779541,1465100
2020-11-05,5.300000190734863,6.045000076293945,5.260000228881836,5.929999828338623,5.929999828338623,3616900
2020-11-06,6.25,6.519999980926514,5.841000080108643,5.960000038146973,5.960000038146973,5063400
2020-11-09,6.53000020980835,6.599999904632568,5.96999979019165,6.110000133514404,6.110000133514404,2427000
2020-11-10,6.0,6.440000057220459,5.769999980926514,6.360000133514404,6.360000133514404,1994500
2020-11-11,6.420000076293945,6.630000114440918,6.110000133514404,6.550000190734863,6.550000190734863,1660000
2020-11-12,6.53000020980835,6.650000095367432,5.949999809265137,6.059999942779541,6.059999942779541,2166800
2020-11-13,6.340000152587891,6.400000095367432,5.739999771118164,5.909999847412109,5.909999847412109,4256600
2020-11-16,6.130000114440918,6.554999828338623,5.960000038146973,6.519999980926514,6.519999980926514,3055600
2020-11-17,6.5,8.119999885559082,6.340000152587891,8.100000381469727,8.100000381469727,6901400
2020-11-18,7.889999866485596,8.149999618530273,7.539999961853027,7.869999885559082,7.869999885559082,4630300
2020-11-19,7.769999980926514,8.329999923706055,7.650000095367432,7.989999771118164,7.989999771118164,3753900
2020-11-20,8.109999656677246,8.109999656677246,7.769999980926514,7.989999771118164,7.989999771118164,2525800
2020-11-23,8.109999656677246,9.460000038146973,8.039999961853027,9.390000343322754,9.390000343322754,5436500
2020-11-24,9.649999618530273,9.84000015258789,8.798999786376953,9.600000381469727,9.600000381469727,3292700
2020-11-25,9.770000457763672,10.9399995803833,9.75,10.0,10.0,4078700
2020-11-27,10.187999725341797,10.699999809265137,10.079999923706055,10.630000114440918,10.630000114440918,1888900
2020-11-30,10.760000228881836,11.59000015258789,10.569999694824219,11.359999656677246,11.359999656677246,3570800
2020-12-01,11.300000190734863,11.4399995803833,9.720000267028809,10.109999656677246,10.109999656677246,3982300
2020-12-02,9.880000114440918,10.630000114440918,9.829999923706055,10.300000190734863,10.300000190734863,2227500
2020-12-03,10.399999618530273,10.920000076293945,10.1899995803833,10.619999885559082,10.619999885559082,1415800
2020-12-04,10.760000228881836,11.130000114440918,10.680000305175781,10.75,10.75,1884700
2020-12-07,10.779999732971191,10.829999923706055,10.28600025177002,10.609999656677246,10.609999656677246,1080700
2020-12-08,10.569999694824219,11.260000228881836,10.329999923706055,10.449999809265137,10.449999809265137,2673400
2020-12-09,10.626999855041504,10.640000343322754,9.350000381469727,9.720000267028809,9.720000267028809,3105200
2020-12-10,9.5,10.039999961853027,9.430000305175781,9.890000343322754,9.890000343322754,885900
2020-12-11,9.850000381469727,9.979999542236328,9.579999923706055,9.6899995803833,9.6899995803833,908500
2020-12-14,9.859999656677246,9.859999656677246,9.100000381469727,9.300000190734863,9.300000190734863,1349500
2020-12-15,9.380000114440918,10.09000015258789,9.3100004196167,9.680000305175781,9.680000305175781,1802300
2020-12-16,9.899999618530273,10.350000381469727,9.630000114440918,10.270000457763672,10.270000457763672,1989100
2020-12-17,10.380000114440918,10.40999984741211,9.880000114440918,9.930000305175781,9.930000305175781,1181900
2020-12-18,9.90999984741211,10.229999542236328,9.739999771118164,9.819999694824219,9.819999694824219,962900
2020-12-21,9.52400016784668,9.890000343322754,9.5,9.779999732971191,9.779999732971191,1293300
2020-12-22,9.8100004196167,10.109999656677246,9.65999984741211,9.850000381469727,9.850000381469727,986500
2020-12-23,10.079999923706055,12.5,10.029999732971191,11.359999656677246,11.359999656677246,8692100
2020-12-24,11.460000038146973,13.0600004196167,10.380000114440918,12.0,12.0,8316300
2020-12-28,12.081000328063965,12.081000328063965,10.550000190734863,10.960000038146973,10.960000038146973,3376900
2020-12-29,11.199999809265137,11.369999885559082,10.0,10.020000457763672,10.020000457763672,2392900
2020-12-30,10.170000076293945,10.569999694824219,10.0600004196167,10.199999809265137,10.199999809265137,1417000
