Date,Open,High,Low,Close,Adj Close,Volume
2020-12-23,10.34000015258789,10.399999618530273,10.3100004196167,10.34000015258789,10.34000015258789,3158200
2020-12-24,10.359999656677246,10.46500015258789,10.319999694824219,10.46500015258789,10.46500015258789,153900
2020-12-28,10.449999809265137,10.470000267028809,10.359999656677246,10.425000190734863,10.425000190734863,453500
2020-12-29,10.640000343322754,10.649999618530273,10.319999694824219,10.350000381469727,10.350000381469727,69400
2020-12-30,10.6899995803833,10.710000038146973,10.454999923706055,10.489999771118164,10.489999771118164,73500
