Date,Open,High,Low,Close,Adj Close,Volume
2018-10-26,9.550000190734863,9.550000190734863,9.5,9.520000457763672,9.520000457763672,202100
2018-10-29,9.510000228881836,9.510000228881836,9.510000228881836,9.510000228881836,9.510000228881836,500000
2018-10-30,9.520000457763672,9.539999961853027,9.510000228881836,9.510000228881836,9.510000228881836,974000
2018-10-31,9.510000228881836,9.510000228881836,9.510000228881836,9.510000228881836,9.510000228881836,483900
2018-11-01,9.520000457763672,9.520000457763672,9.510000228881836,9.510000228881836,9.510000228881836,36500
2018-11-02,9.510000228881836,9.510000228881836,9.510000228881836,9.510000228881836,9.510000228881836,0
2018-11-05,9.539999961853027,9.539999961853027,9.529999732971191,9.529999732971191,9.529999732971191,250300
2018-11-06,9.529999732971191,9.539999961853027,9.529999732971191,9.539999961853027,9.539999961853027,151500
2018-11-07,9.550000190734863,9.550000190734863,9.539999961853027,9.539999961853027,9.539999961853027,500
2018-11-08,9.550000190734863,9.550000190734863,9.529999732971191,9.529999732971191,9.529999732971191,381700
2018-11-09,9.550000190734863,9.550000190734863,9.529999732971191,9.550000190734863,9.550000190734863,48200
2018-11-12,9.550000190734863,9.550000190734863,9.550000190734863,9.550000190734863,9.550000190734863,100
2018-11-13,9.539999961853027,9.539999961853027,9.529999732971191,9.529999732971191,9.529999732971191,1500
2018-11-14,9.529999732971191,9.529999732971191,9.529999732971191,9.529999732971191,9.529999732971191,1700
2018-11-15,9.539999961853027,9.600000381469727,9.539999961853027,9.600000381469727,9.600000381469727,6500
2018-11-16,9.75,9.75,9.529999732971191,9.539999961853027,9.539999961853027,420400
2018-11-19,9.539999961853027,9.539999961853027,9.539999961853027,9.539999961853027,9.539999961853027,0
2018-11-20,9.550000190734863,9.5600004196167,9.529999732971191,9.529999732971191,9.529999732971191,330000
2018-11-21,9.529999732971191,9.529999732971191,9.529999732971191,9.529999732971191,9.529999732971191,0
2018-11-23,9.529999732971191,9.529999732971191,9.529999732971191,9.529999732971191,9.529999732971191,0
2018-11-26,9.529999732971191,9.550000190734863,9.529999732971191,9.550000190734863,9.550000190734863,15100
2018-11-27,9.550000190734863,9.550000190734863,9.550000190734863,9.550000190734863,9.550000190734863,400
2018-11-28,9.550000190734863,9.550000190734863,9.550000190734863,9.550000190734863,9.550000190734863,25700
2018-11-29,9.550000190734863,9.609999656677246,9.550000190734863,9.609999656677246,9.609999656677246,265300
2018-11-30,9.619999885559082,9.619999885559082,9.550000190734863,9.550000190734863,9.550000190734863,90900
2018-12-03,9.550000190734863,9.550000190734863,9.550000190734863,9.550000190734863,9.550000190734863,0
2018-12-04,9.600000381469727,9.600000381469727,9.59000015258789,9.59000015258789,9.59000015258789,40900
2018-12-06,9.619999885559082,9.65999984741211,9.579999923706055,9.619999885559082,9.619999885559082,5000
2018-12-07,9.609999656677246,9.609999656677246,9.600000381469727,9.600000381469727,9.600000381469727,700
2018-12-10,9.640000343322754,9.640000343322754,9.640000343322754,9.640000343322754,9.640000343322754,8300
2018-12-11,9.640000343322754,9.640000343322754,9.600000381469727,9.600000381469727,9.600000381469727,1100
2018-12-12,9.59000015258789,9.59000015258789,9.5600004196167,9.5600004196167,9.5600004196167,800
2018-12-13,9.59000015258789,9.59000015258789,9.5600004196167,9.5600004196167,9.5600004196167,1400
2018-12-14,9.5600004196167,9.5600004196167,9.5600004196167,9.5600004196167,9.5600004196167,0
2018-12-17,9.59000015258789,9.59000015258789,9.5600004196167,9.5600004196167,9.5600004196167,2200
2018-12-18,9.609999656677246,9.609999656677246,9.5600004196167,9.5600004196167,9.5600004196167,700
2018-12-19,9.579999923706055,9.579999923706055,9.569999694824219,9.569999694824219,9.569999694824219,11000
2018-12-20,9.5600004196167,9.59000015258789,9.5600004196167,9.59000015258789,9.59000015258789,600
2018-12-21,9.59000015258789,9.59000015258789,9.59000015258789,9.59000015258789,9.59000015258789,900
2018-12-24,9.569999694824219,9.579999923706055,9.569999694824219,9.579999923706055,9.579999923706055,5200
2018-12-26,9.579999923706055,9.609999656677246,9.579999923706055,9.579999923706055,9.579999923706055,108100
2018-12-27,9.579999923706055,9.579999923706055,9.579999923706055,9.579999923706055,9.579999923706055,6500
2018-12-28,9.59000015258789,9.59000015258789,9.579999923706055,9.579999923706055,9.579999923706055,10300
2018-12-31,9.600000381469727,9.600000381469727,9.600000381469727,9.600000381469727,9.600000381469727,600
2019-01-02,9.569999694824219,9.630000114440918,9.569999694824219,9.600000381469727,9.600000381469727,1500
2019-01-03,9.600000381469727,9.600000381469727,9.600000381469727,9.600000381469727,9.600000381469727,0
2019-01-04,9.600000381469727,9.630000114440918,9.600000381469727,9.630000114440918,9.630000114440918,4100
2019-01-07,9.619999885559082,9.630000114440918,9.600000381469727,9.619999885559082,9.619999885559082,6000
2019-01-08,9.640000343322754,9.640000343322754,9.619999885559082,9.619999885559082,9.619999885559082,37500
2019-01-09,9.649999618530273,9.649999618530273,9.649999618530273,9.649999618530273,9.649999618530273,1100
2019-01-10,9.649999618530273,9.65999984741211,9.649999618530273,9.65999984741211,9.65999984741211,1400
2019-01-11,9.65999984741211,9.65999984741211,9.65999984741211,9.65999984741211,9.65999984741211,0
2019-01-14,9.65999984741211,9.699999809265137,9.65999984741211,9.699999809265137,9.699999809265137,18800
2019-01-15,9.6899995803833,9.720000267028809,9.680000305175781,9.680000305175781,9.680000305175781,7600
2019-01-16,9.699999809265137,9.699999809265137,9.680000305175781,9.680000305175781,9.680000305175781,1400
2019-01-17,9.680000305175781,9.680000305175781,9.680000305175781,9.680000305175781,9.680000305175781,0
2019-01-18,9.720000267028809,9.720000267028809,9.720000267028809,9.720000267028809,9.720000267028809,1400
2019-01-22,9.699999809265137,9.75,9.699999809265137,9.75,9.75,9300
2019-01-23,9.739999771118164,9.739999771118164,9.739999771118164,9.739999771118164,9.739999771118164,200
2019-01-24,9.75,9.75,9.720000267028809,9.739999771118164,9.739999771118164,207500
2019-01-25,9.75,9.75,9.739999771118164,9.75,9.75,408700
2019-01-28,9.729999542236328,9.75,9.720000267028809,9.720000267028809,9.720000267028809,166600
2019-01-29,9.75,9.75,9.75,9.75,9.75,177500
2019-01-30,9.75,9.75,9.75,9.75,9.75,0
2019-01-31,9.739999771118164,9.789999961853027,9.729999542236328,9.75,9.75,1833700
2019-02-01,9.800000190734863,9.800000190734863,9.75,9.75,9.75,306900
2019-02-04,9.729999542236328,9.779999732971191,9.729999542236328,9.75,9.75,300
2019-02-05,9.75,9.789999961853027,9.75,9.789999961853027,9.789999961853027,100100
2019-02-06,9.850000381469727,9.850000381469727,9.75,9.75,9.75,101400
2019-02-07,9.779999732971191,9.779999732971191,9.779999732971191,9.779999732971191,9.779999732971191,200
2019-02-08,9.779999732971191,9.779999732971191,9.770000457763672,9.779999732971191,9.779999732971191,400
2019-02-11,9.760000228881836,9.779999732971191,9.75,9.779999732971191,9.779999732971191,800
2019-02-12,9.819999694824219,9.819999694824219,9.770000457763672,9.770000457763672,9.770000457763672,49400
2019-02-13,9.779999732971191,9.779999732971191,9.779999732971191,9.779999732971191,9.779999732971191,976100
2019-02-14,9.789999961853027,9.800000190734863,9.789999961853027,9.800000190734863,9.800000190734863,378300
2019-02-15,9.789999961853027,9.800000190734863,9.789999961853027,9.800000190734863,9.800000190734863,11200
2019-02-19,9.789999961853027,9.84000015258789,9.789999961853027,9.800000190734863,9.800000190734863,195200
2019-02-20,9.800000190734863,9.84000015258789,9.800000190734863,9.84000015258789,9.84000015258789,88300
2019-02-21,10.0,10.0,9.8100004196167,9.8100004196167,9.8100004196167,48700
2019-02-22,9.829999923706055,9.829999923706055,9.8100004196167,9.819999694824219,9.819999694824219,2100
2019-02-25,9.899999618530273,9.899999618530273,9.770000457763672,9.8100004196167,9.8100004196167,12800
2019-02-26,9.800000190734863,9.800000190734863,9.779999732971191,9.800000190734863,9.800000190734863,28200
2019-02-27,9.819999694824219,9.819999694824219,9.819999694824219,9.819999694824219,9.819999694824219,900
2019-02-28,9.829999923706055,9.829999923706055,9.819999694824219,9.819999694824219,9.819999694824219,2200
2019-03-01,9.800000190734863,9.800000190734863,9.800000190734863,9.800000190734863,9.800000190734863,100
2019-03-04,9.819999694824219,9.819999694824219,9.800000190734863,9.800000190734863,9.800000190734863,325800
2019-03-05,9.800000190734863,9.800000190734863,9.800000190734863,9.800000190734863,9.800000190734863,500
2019-03-06,9.800000190734863,9.800000190734863,9.800000190734863,9.800000190734863,9.800000190734863,300
2019-03-07,9.729999542236328,9.829999923706055,9.729999542236328,9.800000190734863,9.800000190734863,2500
2019-03-08,9.789999961853027,9.800000190734863,9.789999961853027,9.800000190734863,9.800000190734863,1200
2019-03-11,9.819999694824219,9.819999694824219,9.819999694824219,9.819999694824219,9.819999694824219,10400
2019-03-12,9.8100004196167,9.829999923706055,9.8100004196167,9.829999923706055,9.829999923706055,13300
2019-03-13,10.1899995803833,10.1899995803833,9.800000190734863,9.829999923706055,9.829999923706055,48800
2019-03-14,9.850000381469727,9.850000381469727,9.8100004196167,9.84000015258789,9.84000015258789,134400
2019-03-15,9.880000114440918,9.930000305175781,9.819999694824219,9.84000015258789,9.84000015258789,153400
2019-03-18,10.140000343322754,10.140000343322754,9.850000381469727,9.880000114440918,9.880000114440918,56700
2019-03-19,9.880000114440918,9.880000114440918,9.880000114440918,9.880000114440918,9.880000114440918,600
2019-03-20,9.880000114440918,9.880000114440918,9.880000114440918,9.880000114440918,9.880000114440918,400
2019-03-21,9.890000343322754,9.890000343322754,9.869999885559082,9.869999885559082,9.869999885559082,1300
2019-03-22,9.869999885559082,9.869999885559082,9.869999885559082,9.869999885559082,9.869999885559082,0
2019-03-25,9.829999923706055,9.859999656677246,9.829999923706055,9.859999656677246,9.859999656677246,200
2019-03-26,9.829999923706055,9.829999923706055,9.829999923706055,9.829999923706055,9.829999923706055,300
2019-03-27,9.829999923706055,9.829999923706055,9.829999923706055,9.829999923706055,9.829999923706055,100
2019-03-28,9.829999923706055,9.829999923706055,9.829999923706055,9.829999923706055,9.829999923706055,2000
2019-03-29,9.850000381469727,9.850000381469727,9.829999923706055,9.84000015258789,9.84000015258789,40100
2019-04-01,9.850000381469727,9.850000381469727,9.850000381469727,9.850000381469727,9.850000381469727,200
2019-04-02,9.979999542236328,9.979999542236328,9.869999885559082,9.869999885559082,9.869999885559082,300
2019-04-03,9.869999885559082,9.869999885559082,9.869999885559082,9.869999885559082,9.869999885559082,100
2019-04-04,9.819999694824219,9.850000381469727,9.819999694824219,9.850000381469727,9.850000381469727,27900
2019-04-05,9.84000015258789,9.859999656677246,9.819999694824219,9.859999656677246,9.859999656677246,23300
2019-04-08,9.880000114440918,9.880000114440918,9.859999656677246,9.859999656677246,9.859999656677246,42300
2019-04-09,9.859999656677246,9.859999656677246,9.859999656677246,9.859999656677246,9.859999656677246,2800
2019-04-10,9.859999656677246,9.859999656677246,9.850000381469727,9.859999656677246,9.859999656677246,2600
2019-04-11,9.869999885559082,9.899999618530273,9.869999885559082,9.890000343322754,9.890000343322754,240900
2019-04-12,9.949999809265137,9.949999809265137,9.880000114440918,9.880000114440918,9.880000114440918,1600
2019-04-15,9.880000114440918,9.880000114440918,9.880000114440918,9.880000114440918,9.880000114440918,0
2019-04-16,9.880000114440918,9.880000114440918,9.880000114440918,9.880000114440918,9.880000114440918,600
2019-04-17,9.880000114440918,9.90999984741211,9.880000114440918,9.890000343322754,9.890000343322754,17200
2019-04-18,9.880000114440918,9.9399995803833,9.880000114440918,9.9399995803833,9.9399995803833,48700
2019-04-22,9.930000305175781,9.949999809265137,9.930000305175781,9.949999809265137,9.949999809265137,18700
2019-04-23,9.920000076293945,9.920000076293945,9.920000076293945,9.920000076293945,9.920000076293945,100
2019-04-24,9.920000076293945,9.920000076293945,9.920000076293945,9.920000076293945,9.920000076293945,0
2019-04-25,9.869999885559082,9.869999885559082,9.869999885559082,9.869999885559082,9.869999885559082,200
2019-04-26,9.890000343322754,9.890000343322754,9.890000343322754,9.890000343322754,9.890000343322754,1000
2019-04-29,9.920000076293945,9.920000076293945,9.899999618530273,9.899999618530273,9.899999618530273,800
2019-04-30,9.90999984741211,9.920000076293945,9.899999618530273,9.90999984741211,9.90999984741211,275300
2019-05-01,9.90999984741211,9.90999984741211,9.90999984741211,9.90999984741211,9.90999984741211,150000
2019-05-02,9.90999984741211,9.90999984741211,9.90999984741211,9.90999984741211,9.90999984741211,0
2019-05-03,9.90999984741211,9.90999984741211,9.90999984741211,9.90999984741211,9.90999984741211,100
2019-05-06,9.920000076293945,9.920000076293945,9.920000076293945,9.920000076293945,9.920000076293945,20000
2019-05-07,9.920000076293945,9.920000076293945,9.920000076293945,9.920000076293945,9.920000076293945,100
2019-05-08,9.920000076293945,9.920000076293945,9.899999618530273,9.899999618530273,9.899999618530273,62100
2019-05-09,9.90999984741211,9.920000076293945,9.899999618530273,9.899999618530273,9.899999618530273,194000
2019-05-10,9.899999618530273,9.899999618530273,9.899999618530273,9.899999618530273,9.899999618530273,0
2019-05-13,9.920000076293945,9.920000076293945,9.899999618530273,9.899999618530273,9.899999618530273,300
2019-05-14,9.899999618530273,9.899999618530273,9.899999618530273,9.899999618530273,9.899999618530273,100
2019-05-15,9.899999618530273,9.899999618530273,9.899999618530273,9.899999618530273,9.899999618530273,0
2019-05-16,9.930000305175781,9.930000305175781,9.930000305175781,9.930000305175781,9.930000305175781,4700
2019-05-17,9.920000076293945,9.930000305175781,9.920000076293945,9.930000305175781,9.930000305175781,6000
2019-05-20,9.90999984741211,9.90999984741211,9.90999984741211,9.90999984741211,9.90999984741211,1000
2019-05-21,9.920000076293945,9.9399995803833,9.920000076293945,9.9399995803833,9.9399995803833,113100
2019-05-22,9.949999809265137,9.949999809265137,9.9399995803833,9.949999809265137,9.949999809265137,25700
2019-05-23,9.949999809265137,9.949999809265137,9.949999809265137,9.949999809265137,9.949999809265137,200
2019-05-24,9.949999809265137,9.949999809265137,9.949999809265137,9.949999809265137,9.949999809265137,0
2019-05-28,9.920000076293945,9.9399995803833,9.920000076293945,9.9399995803833,9.9399995803833,14200
2019-05-29,9.9399995803833,9.9399995803833,9.9399995803833,9.9399995803833,9.9399995803833,0
2019-05-30,9.920000076293945,9.920000076293945,9.920000076293945,9.920000076293945,9.920000076293945,150000
2019-05-31,9.949999809265137,9.949999809265137,9.930000305175781,9.930000305175781,9.930000305175781,3300
2019-06-03,9.930000305175781,9.930000305175781,9.930000305175781,9.930000305175781,9.930000305175781,250100
2019-06-04,9.949999809265137,9.949999809265137,9.949999809265137,9.949999809265137,9.949999809265137,500
2019-06-05,9.949999809265137,9.949999809265137,9.9399995803833,9.9399995803833,9.9399995803833,6000
2019-06-06,9.9399995803833,9.9399995803833,9.9399995803833,9.9399995803833,9.9399995803833,0
2019-06-07,9.949999809265137,9.970000267028809,9.949999809265137,9.970000267028809,9.970000267028809,2500
2019-06-10,9.970000267028809,9.989999771118164,9.960000038146973,9.989999771118164,9.989999771118164,5500
2019-06-11,9.989999771118164,9.989999771118164,9.989999771118164,9.989999771118164,9.989999771118164,0
2019-06-12,9.989999771118164,9.989999771118164,9.989999771118164,9.989999771118164,9.989999771118164,0
2019-06-13,9.989999771118164,10.0,9.989999771118164,10.0,10.0,24800
2019-06-14,10.0,10.0,9.899999618530273,9.899999618530273,9.899999618530273,1700
2019-06-17,9.970000267028809,9.970000267028809,9.970000267028809,9.970000267028809,9.970000267028809,2400
2019-06-18,9.970000267028809,9.970000267028809,9.970000267028809,9.970000267028809,9.970000267028809,200
2019-06-19,9.960000038146973,9.960000038146973,9.960000038146973,9.960000038146973,9.960000038146973,100
2019-06-20,9.960000038146973,9.960000038146973,9.960000038146973,9.960000038146973,9.960000038146973,14600
2019-06-21,9.979999542236328,9.979999542236328,9.979999542236328,9.979999542236328,9.979999542236328,6700
2019-06-24,9.989999771118164,9.989999771118164,9.989999771118164,9.989999771118164,9.989999771118164,20200
2019-06-25,10.0,10.0,10.0,10.0,10.0,100
2019-06-26,9.960000038146973,9.960000038146973,9.960000038146973,9.960000038146973,9.960000038146973,200
2019-06-27,10.0,10.0,9.970000267028809,9.970000267028809,9.970000267028809,17300
2019-06-28,9.979999542236328,9.979999542236328,9.949999809265137,9.949999809265137,9.949999809265137,30000
2019-07-01,9.949999809265137,9.949999809265137,9.949999809265137,9.949999809265137,9.949999809265137,0
2019-07-02,9.979999542236328,9.979999542236328,9.979999542236328,9.979999542236328,9.979999542236328,3200
2019-07-03,9.979999542236328,9.979999542236328,9.979999542236328,9.979999542236328,9.979999542236328,0
2019-07-05,9.979999542236328,9.979999542236328,9.979999542236328,9.979999542236328,9.979999542236328,0
2019-07-08,9.970000267028809,9.970000267028809,9.949999809265137,9.970000267028809,9.970000267028809,59300
2019-07-09,9.970000267028809,9.970000267028809,9.970000267028809,9.970000267028809,9.970000267028809,107500
2019-07-10,9.970000267028809,9.970000267028809,9.970000267028809,9.970000267028809,9.970000267028809,0
2019-07-11,9.960000038146973,9.970000267028809,9.960000038146973,9.970000267028809,9.970000267028809,1200
2019-07-12,9.970000267028809,9.970000267028809,9.970000267028809,9.970000267028809,9.970000267028809,0
2019-07-15,9.970000267028809,9.970000267028809,9.970000267028809,9.970000267028809,9.970000267028809,0
2019-07-16,9.970000267028809,9.970000267028809,9.970000267028809,9.970000267028809,9.970000267028809,0
2019-07-17,9.970000267028809,9.970000267028809,9.970000267028809,9.970000267028809,9.970000267028809,100
2019-07-18,9.989999771118164,10.0,9.989999771118164,10.0,10.0,483300
2019-07-19,10.020000457763672,10.029999732971191,9.949999809265137,9.949999809265137,9.949999809265137,10900
2019-07-22,10.029999732971191,10.029999732971191,9.949999809265137,10.0,10.0,89000
2019-07-23,10.029999732971191,10.029999732971191,10.0,10.020000457763672,10.020000457763672,15100
2019-07-24,10.020000457763672,10.020000457763672,10.020000457763672,10.020000457763672,10.020000457763672,4200
2019-07-25,10.020000457763672,10.020000457763672,10.020000457763672,10.020000457763672,10.020000457763672,75000
2019-07-26,10.0,10.029999732971191,10.0,10.029999732971191,10.029999732971191,1600
2019-07-29,10.029999732971191,10.050000190734863,10.020000457763672,10.050000190734863,10.050000190734863,117400
2019-07-30,10.0600004196167,10.069999694824219,10.0,10.0,10.0,4400
2019-07-31,10.010000228881836,10.010000228881836,10.0,10.0,10.0,150200
2019-08-01,10.010000228881836,10.010000228881836,10.0,10.0,10.0,150200
2019-08-02,10.010000228881836,10.010000228881836,10.0,10.0,10.0,150200
2019-08-05,10.029999732971191,10.029999732971191,10.029999732971191,10.029999732971191,10.029999732971191,25000
2019-08-06,10.029999732971191,10.029999732971191,10.029999732971191,10.029999732971191,10.029999732971191,25000
2019-08-07,10.029999732971191,10.029999732971191,10.029999732971191,10.029999732971191,10.029999732971191,100
2019-08-08,10.0,10.0,10.0,10.0,10.0,1900
2019-08-09,10.0,10.0,10.0,10.0,10.0,1900
2019-08-12,10.010000228881836,10.010000228881836,10.010000228881836,10.010000228881836,10.010000228881836,100
2019-08-13,10.050000190734863,10.069999694824219,10.050000190734863,10.050000190734863,10.050000190734863,16400
2019-08-14,10.0600004196167,10.0600004196167,10.020000457763672,10.020000457763672,10.020000457763672,30700
2019-08-15,10.039999961853027,10.069999694824219,10.010000228881836,10.010000228881836,10.010000228881836,127000
2019-08-16,10.100000381469727,10.100000381469727,10.0,10.010000228881836,10.010000228881836,48500
2019-08-19,10.100000381469727,10.100000381469727,10.069999694824219,10.069999694824219,10.069999694824219,500
2019-08-20,9.989999771118164,10.039999961853027,9.989999771118164,10.039999961853027,10.039999961853027,400
2019-08-21,10.100000381469727,10.100000381469727,10.069999694824219,10.079999923706055,10.079999923706055,120300
2019-08-22,10.069999694824219,10.100000381469727,10.069999694824219,10.100000381469727,10.100000381469727,4200
2019-08-23,10.100000381469727,10.100000381469727,10.100000381469727,10.100000381469727,10.100000381469727,0
2019-08-26,10.100000381469727,10.100000381469727,10.069999694824219,10.09000015258789,10.09000015258789,11200
2019-08-27,10.079999923706055,10.100000381469727,10.0600004196167,10.0600004196167,10.0600004196167,30500
2019-08-28,10.079999923706055,10.09000015258789,10.079999923706055,10.079999923706055,10.079999923706055,10200
2019-08-29,10.079999923706055,10.079999923706055,10.079999923706055,10.079999923706055,10.079999923706055,0
2019-08-30,10.079999923706055,10.079999923706055,10.079999923706055,10.079999923706055,10.079999923706055,2100
2019-09-03,10.079999923706055,10.079999923706055,10.079999923706055,10.079999923706055,10.079999923706055,2300
2019-09-04,10.079999923706055,10.079999923706055,10.079999923706055,10.079999923706055,10.079999923706055,0
2019-09-05,10.079999923706055,10.079999923706055,10.079999923706055,10.079999923706055,10.079999923706055,0
2019-09-06,10.079999923706055,10.079999923706055,10.079999923706055,10.079999923706055,10.079999923706055,0
2019-09-09,10.0600004196167,10.09000015258789,10.050000190734863,10.050000190734863,10.050000190734863,101700
2019-09-10,10.050000190734863,10.050000190734863,10.050000190734863,10.050000190734863,10.050000190734863,0
2019-09-11,10.050000190734863,10.050000190734863,10.050000190734863,10.050000190734863,10.050000190734863,203700
2019-09-12,10.050000190734863,10.050000190734863,10.050000190734863,10.050000190734863,10.050000190734863,0
2019-09-13,10.050000190734863,10.050000190734863,10.050000190734863,10.050000190734863,10.050000190734863,0
2019-09-16,10.050000190734863,10.050000190734863,10.050000190734863,10.050000190734863,10.050000190734863,600
2019-09-17,10.050000190734863,10.050000190734863,10.050000190734863,10.050000190734863,10.050000190734863,0
2019-09-18,10.050000190734863,10.050000190734863,10.039999961853027,10.039999961853027,10.039999961853027,201100
2019-09-19,10.0600004196167,10.0600004196167,10.0600004196167,10.0600004196167,10.0600004196167,1600
2019-09-20,10.0600004196167,10.0600004196167,10.0600004196167,10.0600004196167,10.0600004196167,0
2019-09-23,10.029999732971191,10.029999732971191,10.029999732971191,10.029999732971191,10.029999732971191,100
2019-09-24,10.079999923706055,10.079999923706055,10.079999923706055,10.079999923706055,10.079999923706055,700
2019-09-25,10.079999923706055,10.079999923706055,10.079999923706055,10.079999923706055,10.079999923706055,0
2019-09-26,10.079999923706055,10.079999923706055,10.079999923706055,10.079999923706055,10.079999923706055,100
2019-09-27,10.039999961853027,10.079999923706055,10.039999961853027,10.079999923706055,10.079999923706055,14500
2019-09-30,10.079999923706055,10.079999923706055,10.079999923706055,10.079999923706055,10.079999923706055,0
2019-10-01,10.069999694824219,10.069999694824219,10.069999694824219,10.069999694824219,10.069999694824219,156900
2019-10-02,10.050000190734863,10.050000190734863,10.050000190734863,10.050000190734863,10.050000190734863,100
2019-10-03,10.0600004196167,10.0600004196167,10.050000190734863,10.0600004196167,10.0600004196167,300500
2019-10-04,10.0600004196167,10.069999694824219,10.0600004196167,10.0600004196167,10.0600004196167,101000
2019-10-07,10.079999923706055,10.079999923706055,10.050000190734863,10.0600004196167,10.0600004196167,6500
2019-10-08,10.079999923706055,10.09000015258789,10.079999923706055,10.09000015258789,10.09000015258789,27800
2019-10-09,10.09000015258789,10.09000015258789,10.09000015258789,10.09000015258789,10.09000015258789,0
2019-10-10,10.069999694824219,10.109999656677246,10.069999694824219,10.100000381469727,10.100000381469727,351000
2019-10-11,10.100000381469727,10.100000381469727,10.0600004196167,10.079999923706055,10.079999923706055,4800
2019-10-14,10.079999923706055,10.100000381469727,10.079999923706055,10.100000381469727,10.100000381469727,37600
2019-10-15,10.079999923706055,10.109999656677246,10.079999923706055,10.079999923706055,10.079999923706055,728000
2019-10-16,10.079999923706055,10.100000381469727,10.079999923706055,10.100000381469727,10.100000381469727,200
2019-10-17,10.100000381469727,10.100000381469727,10.100000381469727,10.100000381469727,10.100000381469727,0
2019-10-18,10.079999923706055,10.119999885559082,10.079999923706055,10.119999885559082,10.119999885559082,401400
2019-10-21,10.100000381469727,10.100000381469727,10.09000015258789,10.100000381469727,10.100000381469727,150500
2019-10-22,10.100000381469727,10.100000381469727,10.100000381469727,10.100000381469727,10.100000381469727,0
2019-10-23,10.079999923706055,10.079999923706055,10.079999923706055,10.079999923706055,10.079999923706055,65700
2019-10-24,10.079999923706055,10.079999923706055,10.079999923706055,10.079999923706055,10.079999923706055,100
2019-10-25,10.050000190734863,10.079999923706055,10.050000190734863,10.079999923706055,10.079999923706055,1000
2019-10-28,10.069999694824219,10.09000015258789,10.0600004196167,10.079999923706055,10.079999923706055,25800
2019-10-29,10.069999694824219,10.09000015258789,10.069999694824219,10.069999694824219,10.069999694824219,601100
2019-10-30,10.079999923706055,10.100000381469727,10.079999923706055,10.079999923706055,10.079999923706055,142000
2019-10-31,10.109999656677246,10.109999656677246,10.079999923706055,10.079999923706055,10.079999923706055,202400
2019-11-01,10.069999694824219,10.069999694824219,10.069999694824219,10.069999694824219,10.069999694824219,28500
2019-11-04,10.069999694824219,10.069999694824219,10.069999694824219,10.069999694824219,10.069999694824219,0
2019-11-05,10.069999694824219,10.069999694824219,10.069999694824219,10.069999694824219,10.069999694824219,100
2019-11-06,10.069999694824219,10.069999694824219,10.069999694824219,10.069999694824219,10.069999694824219,0
2019-11-07,10.09000015258789,10.09000015258789,10.09000015258789,10.09000015258789,10.09000015258789,200
2019-11-08,10.109999656677246,10.109999656677246,10.109999656677246,10.109999656677246,10.109999656677246,200
2019-11-11,10.109999656677246,10.109999656677246,10.109999656677246,10.109999656677246,10.109999656677246,200
2019-11-12,10.100000381469727,10.100000381469727,10.100000381469727,10.100000381469727,10.100000381469727,100
2019-11-13,10.109999656677246,10.109999656677246,10.109999656677246,10.109999656677246,10.109999656677246,34600
2019-11-14,10.100000381469727,10.109999656677246,10.100000381469727,10.109999656677246,10.109999656677246,50600
2019-11-15,10.109999656677246,10.109999656677246,10.100000381469727,10.109999656677246,10.109999656677246,1300
2019-11-18,10.079999923706055,10.079999923706055,10.079999923706055,10.079999923706055,10.079999923706055,100
2019-11-19,10.100000381469727,10.100000381469727,10.100000381469727,10.100000381469727,10.100000381469727,12200
2019-11-20,10.109999656677246,10.109999656677246,10.109999656677246,10.109999656677246,10.109999656677246,24800
2019-11-21,10.100000381469727,10.100000381469727,10.100000381469727,10.100000381469727,10.100000381469727,121600
2019-11-22,10.100000381469727,10.100000381469727,10.100000381469727,10.100000381469727,10.100000381469727,140000
2019-11-25,10.109999656677246,10.109999656677246,10.109999656677246,10.109999656677246,10.109999656677246,50000
2019-11-26,10.109999656677246,10.109999656677246,10.109999656677246,10.109999656677246,10.109999656677246,0
2019-11-27,10.130000114440918,10.130000114440918,10.130000114440918,10.130000114440918,10.130000114440918,200
2019-11-29,10.289999961853027,10.289999961853027,10.100000381469727,10.100000381469727,10.100000381469727,400
2019-12-02,10.100000381469727,10.100000381469727,10.100000381469727,10.100000381469727,10.100000381469727,100
2019-12-03,10.140000343322754,10.140000343322754,10.119999885559082,10.119999885559082,10.119999885559082,4400
2019-12-04,10.100000381469727,10.100000381469727,10.100000381469727,10.100000381469727,10.100000381469727,1600
2019-12-05,10.130000114440918,10.130000114440918,10.119999885559082,10.130000114440918,10.130000114440918,1000
2019-12-06,10.130000114440918,10.130000114440918,10.130000114440918,10.130000114440918,10.130000114440918,0
2019-12-09,10.130000114440918,10.130000114440918,10.130000114440918,10.130000114440918,10.130000114440918,0
2019-12-10,10.130000114440918,10.130000114440918,10.130000114440918,10.130000114440918,10.130000114440918,0
2019-12-11,10.170000076293945,10.170000076293945,10.170000076293945,10.170000076293945,10.170000076293945,100
2019-12-12,10.119999885559082,10.119999885559082,10.119999885559082,10.119999885559082,10.119999885559082,1300
2019-12-13,10.119999885559082,10.119999885559082,10.119999885559082,10.119999885559082,10.119999885559082,0
2019-12-16,10.170000076293945,10.170000076293945,10.119999885559082,10.149999618530273,10.149999618530273,2900
2019-12-17,10.130000114440918,10.149999618530273,10.130000114440918,10.130000114440918,10.130000114440918,31000
2019-12-18,10.130000114440918,10.130000114440918,10.130000114440918,10.130000114440918,10.130000114440918,12500
2019-12-19,10.170000076293945,10.170000076293945,10.119999885559082,10.119999885559082,10.119999885559082,800
2019-12-20,10.140000343322754,10.149999618530273,10.140000343322754,10.140000343322754,10.140000343322754,10400
2019-12-23,10.170000076293945,10.170000076293945,10.140000343322754,10.140000343322754,10.140000343322754,200
2019-12-24,10.140000343322754,10.140000343322754,10.140000343322754,10.140000343322754,10.140000343322754,0
2019-12-26,10.149999618530273,10.149999618530273,10.149999618530273,10.149999618530273,10.149999618530273,12700
2019-12-27,10.1899995803833,10.1899995803833,10.15999984741211,10.1899995803833,10.1899995803833,1600
2019-12-30,10.140000343322754,10.1899995803833,10.140000343322754,10.1899995803833,10.1899995803833,600
2019-12-31,10.1899995803833,10.1899995803833,10.15999984741211,10.1899995803833,10.1899995803833,3100
2020-01-02,10.1899995803833,10.1899995803833,10.15999984741211,10.15999984741211,10.15999984741211,148500
2020-01-03,10.199999809265137,10.199999809265137,10.199999809265137,10.199999809265137,10.199999809265137,400
2020-01-06,10.199999809265137,10.199999809265137,10.199999809265137,10.199999809265137,10.199999809265137,0
2020-01-07,10.199999809265137,10.210000038146973,10.199999809265137,10.210000038146973,10.210000038146973,2300
2020-01-08,10.199999809265137,10.199999809265137,10.199999809265137,10.199999809265137,10.199999809265137,100
2020-01-09,10.199999809265137,10.199999809265137,10.199999809265137,10.199999809265137,10.199999809265137,0
2020-01-10,10.199999809265137,10.199999809265137,10.199999809265137,10.199999809265137,10.199999809265137,0
2020-01-13,10.199999809265137,10.199999809265137,10.199999809265137,10.199999809265137,10.199999809265137,0
2020-01-14,10.1899995803833,10.1899995803833,10.1899995803833,10.1899995803833,10.1899995803833,600
2020-01-15,10.1899995803833,10.1899995803833,10.1899995803833,10.1899995803833,10.1899995803833,1000
2020-01-16,10.1899995803833,10.1899995803833,10.1899995803833,10.1899995803833,10.1899995803833,0
2020-01-17,10.109999656677246,10.109999656677246,10.109999656677246,10.109999656677246,10.109999656677246,4500
2020-01-21,10.180000305175781,10.210000038146973,10.180000305175781,10.1899995803833,10.1899995803833,105100
2020-01-22,10.180000305175781,10.199999809265137,10.180000305175781,10.199999809265137,10.199999809265137,600
2020-01-23,10.199999809265137,10.199999809265137,10.199999809265137,10.199999809265137,10.199999809265137,0
2020-01-24,10.199999809265137,10.199999809265137,10.180000305175781,10.199999809265137,10.199999809265137,17200
2020-01-27,10.1899995803833,10.1899995803833,10.1899995803833,10.1899995803833,10.1899995803833,600
2020-01-28,10.1899995803833,10.1899995803833,10.1899995803833,10.1899995803833,10.1899995803833,0
2020-01-29,10.1899995803833,10.1899995803833,10.1899995803833,10.1899995803833,10.1899995803833,0
2020-01-30,10.180000305175781,10.180000305175781,10.180000305175781,10.180000305175781,10.180000305175781,100
2020-01-31,10.220000267028809,10.229999542236328,10.180000305175781,10.180000305175781,10.180000305175781,9200
2020-02-03,10.199999809265137,10.199999809265137,10.199999809265137,10.199999809265137,10.199999809265137,58000
2020-02-04,10.199999809265137,10.199999809265137,10.180000305175781,10.180000305175781,10.180000305175781,147900
2020-02-05,10.199999809265137,10.220000267028809,10.199999809265137,10.220000267028809,10.220000267028809,8500
2020-02-06,10.229999542236328,10.25,10.199999809265137,10.25,10.25,34800
2020-02-07,10.210000038146973,10.239999771118164,10.210000038146973,10.229999542236328,10.229999542236328,34000
2020-02-10,10.239999771118164,10.239999771118164,10.229999542236328,10.229999542236328,10.229999542236328,59900
2020-02-11,10.239999771118164,10.239999771118164,10.229999542236328,10.229999542236328,10.229999542236328,36600
2020-02-12,10.260000228881836,10.260000228881836,10.229999542236328,10.229999542236328,10.229999542236328,102600
2020-02-13,10.260000228881836,10.260000228881836,10.229999542236328,10.229999542236328,10.229999542236328,330500
2020-02-14,10.229999542236328,10.229999542236328,10.229999542236328,10.229999542236328,10.229999542236328,0
2020-02-18,10.229999542236328,10.229999542236328,10.220000267028809,10.220000267028809,10.220000267028809,72800
2020-02-19,10.199999809265137,10.239999771118164,10.199999809265137,10.239999771118164,10.239999771118164,17500
2020-02-20,10.220000267028809,10.229999542236328,10.220000267028809,10.229999542236328,10.229999542236328,5200
2020-02-21,10.229999542236328,10.229999542236328,10.229999542236328,10.229999542236328,10.229999542236328,0
2020-02-24,10.239999771118164,10.260000228881836,10.199999809265137,10.220000267028809,10.220000267028809,755700
2020-02-25,10.220000267028809,10.220000267028809,10.220000267028809,10.220000267028809,10.220000267028809,230300
2020-02-26,10.229999542236328,10.229999542236328,10.229999542236328,10.229999542236328,10.229999542236328,50000
2020-02-27,10.229999542236328,10.229999542236328,10.220000267028809,10.220000267028809,10.220000267028809,214900
2020-02-28,10.220000267028809,10.229999542236328,10.210000038146973,10.210000038146973,10.210000038146973,520700
2020-03-02,10.25,10.279999732971191,10.239999771118164,10.239999771118164,10.239999771118164,23200
2020-03-03,10.220000267028809,10.229999542236328,10.220000267028809,10.220000267028809,10.220000267028809,312500
2020-03-04,10.210000038146973,10.270000457763672,10.210000038146973,10.270000457763672,10.270000457763672,238700
2020-03-05,10.270000457763672,10.270000457763672,10.270000457763672,10.270000457763672,10.270000457763672,0
2020-03-06,10.220000267028809,10.270000457763672,10.220000267028809,10.270000457763672,10.270000457763672,2900
2020-03-09,10.210000038146973,10.4399995803833,10.15999984741211,10.4399995803833,10.4399995803833,2400
2020-03-10,10.279999732971191,10.279999732971191,10.220000267028809,10.220000267028809,10.220000267028809,327200
2020-03-11,10.199999809265137,10.220000267028809,10.1899995803833,10.199999809265137,10.199999809265137,114900
2020-03-12,10.149999618530273,10.199999809265137,10.109999656677246,10.199999809265137,10.199999809265137,189100
2020-03-13,10.149999618530273,10.199999809265137,10.149999618530273,10.15999984741211,10.15999984741211,31700
2020-03-16,9.869999885559082,10.100000381469727,9.869999885559082,10.039999961853027,10.039999961853027,40600
2020-03-17,10.0,10.100000381469727,10.0,10.050000190734863,10.050000190734863,22000
2020-03-18,10.0,10.109999656677246,10.0,10.100000381469727,10.100000381469727,125100
2020-03-19,10.0600004196167,10.199999809265137,10.0,10.140000343322754,10.140000343322754,1391200
2020-03-20,10.0600004196167,10.130000114440918,10.039999961853027,10.130000114440918,10.130000114440918,87700
2020-03-23,10.140000343322754,10.149999618530273,10.079999923706055,10.100000381469727,10.100000381469727,202900
2020-03-24,10.100000381469727,10.1899995803833,10.09000015258789,10.1899995803833,10.1899995803833,12300
2020-03-25,10.119999885559082,10.199999809265137,10.119999885559082,10.15999984741211,10.15999984741211,1595600
2020-03-26,10.15999984741211,10.199999809265137,10.149999618530273,10.199999809265137,10.199999809265137,159300
2020-03-27,10.15999984741211,10.199999809265137,10.15999984741211,10.199999809265137,10.199999809265137,201400
2020-03-30,10.149999618530273,10.199999809265137,10.149999618530273,10.199999809265137,10.199999809265137,800
2020-03-31,10.170000076293945,10.199999809265137,10.149999618530273,10.170000076293945,10.170000076293945,3100
2020-04-01,10.170000076293945,10.1899995803833,10.149999618530273,10.180000305175781,10.180000305175781,6700
2020-04-02,10.180000305175781,10.489999771118164,10.170000076293945,10.279999732971191,10.279999732971191,697700
2020-04-03,10.229999542236328,10.229999542236328,10.15999984741211,10.199999809265137,10.199999809265137,1400
2020-04-06,10.1899995803833,10.199999809265137,10.180000305175781,10.199999809265137,10.199999809265137,206300
2020-04-07,10.1899995803833,10.1899995803833,10.15999984741211,10.1899995803833,10.1899995803833,2200
2020-04-08,10.1899995803833,10.199999809265137,10.15999984741211,10.180000305175781,10.180000305175781,53700
2020-04-09,10.220000267028809,10.220000267028809,10.1899995803833,10.210000038146973,10.210000038146973,718400
2020-04-13,10.1899995803833,10.1899995803833,10.109999656677246,10.15999984741211,10.15999984741211,13800
2020-04-14,10.199999809265137,10.210000038146973,10.149999618530273,10.210000038146973,10.210000038146973,4100
2020-04-15,10.140000343322754,10.180000305175781,10.130000114440918,10.180000305175781,10.180000305175781,8100
2020-04-16,10.1899995803833,10.1899995803833,10.180000305175781,10.1899995803833,10.1899995803833,1500
2020-04-17,10.199999809265137,10.25,10.199999809265137,10.229999542236328,10.229999542236328,1100
2020-04-20,10.1899995803833,10.1899995803833,10.1899995803833,10.1899995803833,10.1899995803833,600
2020-04-21,10.1899995803833,10.239999771118164,10.180000305175781,10.239999771118164,10.239999771118164,3000
2020-04-22,10.170000076293945,10.220000267028809,10.170000076293945,10.220000267028809,10.220000267028809,1600
2020-04-23,10.220000267028809,10.270000457763672,10.220000267028809,10.270000457763672,10.270000457763672,400
2020-04-24,10.239999771118164,10.279999732971191,10.180000305175781,10.279999732971191,10.279999732971191,4500
2020-04-27,10.25,10.25,10.210000038146973,10.210000038146973,10.210000038146973,300
2020-04-28,10.25,10.25,10.180000305175781,10.180000305175781,10.180000305175781,5400
2020-04-29,10.199999809265137,10.220000267028809,10.199999809265137,10.199999809265137,10.199999809265137,1500
2020-04-30,10.229999542236328,10.229999542236328,10.229999542236328,10.229999542236328,10.229999542236328,300
2020-05-01,10.229999542236328,10.229999542236328,10.210000038146973,10.229999542236328,10.229999542236328,62100
2020-05-04,10.25,10.25,10.199999809265137,10.239999771118164,10.239999771118164,173600
2020-05-05,10.260000228881836,10.260000228881836,10.239999771118164,10.239999771118164,10.239999771118164,25000
2020-05-06,10.199999809265137,10.199999809265137,10.199999809265137,10.199999809265137,10.199999809265137,400
2020-05-07,10.199999809265137,10.199999809265137,10.199999809265137,10.199999809265137,10.199999809265137,0
2020-05-08,10.1899995803833,10.260000228881836,10.1899995803833,10.25,10.25,29600
2020-05-11,10.260000228881836,10.260000228881836,10.25,10.25,10.25,2700
2020-05-12,10.260000228881836,10.260000228881836,10.229999542236328,10.260000228881836,10.260000228881836,15100
2020-05-13,10.270000457763672,10.270000457763672,10.1899995803833,10.270000457763672,10.270000457763672,13800
2020-05-14,10.239999771118164,10.260000228881836,10.210000038146973,10.260000228881836,10.260000228881836,26400
2020-05-15,10.279999732971191,10.319999694824219,10.270000457763672,10.3100004196167,10.3100004196167,109700
2020-05-18,10.300000190734863,10.300000190734863,10.300000190734863,10.300000190734863,10.300000190734863,100
2020-05-19,10.399999618530273,10.529999732971191,10.399999618530273,10.520000457763672,10.520000457763672,27600
2020-05-20,10.390000343322754,10.390000343322754,10.390000343322754,10.390000343322754,10.390000343322754,200
2020-05-21,10.399999618530273,10.4399995803833,10.399999618530273,10.399999618530273,10.399999618530273,5200
2020-05-22,10.390000343322754,10.399999618530273,10.390000343322754,10.399999618530273,10.399999618530273,800
2020-05-26,10.40999984741211,10.40999984741211,10.399999618530273,10.399999618530273,10.399999618530273,1400
2020-05-27,10.420000076293945,10.449999809265137,10.399999618530273,10.449999809265137,10.449999809265137,2100
2020-05-28,10.4399995803833,10.4399995803833,10.4399995803833,10.4399995803833,10.4399995803833,300
2020-05-29,10.390000343322754,10.420000076293945,10.300000190734863,10.390000343322754,10.390000343322754,222900
2020-06-01,10.420000076293945,10.4399995803833,10.279999732971191,10.279999732971191,10.279999732971191,2100
2020-06-02,10.4399995803833,10.449999809265137,10.390000343322754,10.390000343322754,10.390000343322754,5100
2020-06-03,10.390000343322754,10.390000343322754,10.390000343322754,10.390000343322754,10.390000343322754,0
2020-06-04,10.550000190734863,10.550000190734863,10.40999984741211,10.40999984741211,10.40999984741211,1600
2020-06-05,10.350000381469727,10.350000381469727,10.350000381469727,10.350000381469727,10.350000381469727,200
2020-06-08,10.399999618530273,10.399999618530273,10.300000190734863,10.380000114440918,10.380000114440918,46100
2020-06-09,10.399999618530273,10.399999618530273,10.359999656677246,10.369999885559082,10.369999885559082,2600
2020-06-10,10.390000343322754,10.4399995803833,10.380000114440918,10.430000305175781,10.430000305175781,3300
2020-06-11,10.300000190734863,10.4399995803833,10.300000190734863,10.420000076293945,10.420000076293945,5500
2020-06-12,11.460000038146973,11.460000038146973,10.9399995803833,11.09000015258789,11.09000015258789,78200
2020-06-15,11.380000114440918,11.550000190734863,11.199999809265137,11.300000190734863,11.300000190734863,98300
2020-06-16,11.449999809265137,11.859999656677246,11.399999618530273,11.550000190734863,11.550000190734863,97200
2020-06-17,12.699999809265137,15.880000114440918,12.25,13.59000015258789,13.59000015258789,1554200
2020-06-18,14.899999618530273,15.100000381469727,13.899999618530273,14.75,14.75,799400
2020-06-19,14.699999809265137,15.25,12.239999771118164,13.0600004196167,13.0600004196167,887600
2020-06-22,13.5,13.770000457763672,11.920000076293945,12.40999984741211,12.40999984741211,270500
2020-06-23,12.600000381469727,12.739999771118164,11.649999618530273,11.84000015258789,11.84000015258789,324200
2020-06-24,11.890000343322754,11.970000267028809,10.579999923706055,11.100000381469727,11.100000381469727,303100
2020-06-25,11.149999618530273,11.630000114440918,10.8100004196167,11.579999923706055,11.579999923706055,136500
2020-06-26,11.579999923706055,15.0,11.350000381469727,15.0,15.0,2337300
2020-06-29,16.0,17.93000030517578,14.34000015258789,16.729999542236328,16.729999542236328,2636900
2020-06-30,15.199999809265137,15.5600004196167,13.25,13.899999618530273,13.899999618530273,801100
2020-07-01,13.989999771118164,14.449999809265137,13.520000457763672,13.850000381469727,13.850000381469727,348300
2020-07-02,18.100000381469727,22.799999237060547,15.5,20.530000686645508,20.530000686645508,16013300
2020-07-06,20.860000610351562,24.350000381469727,19.0,19.68000030517578,19.68000030517578,5732900
2020-07-07,18.43000030517578,19.479999542236328,16.6299991607666,16.649999618530273,16.649999618530273,2458100
2020-07-08,17.8799991607666,18.0,16.260000228881836,17.06999969482422,17.06999969482422,1754900
2020-07-09,17.799999237060547,20.899999618530273,17.5,20.100000381469727,20.100000381469727,3975000
2020-07-10,19.309999465942383,20.100000381469727,18.510000228881836,20.100000381469727,20.100000381469727,1336700
2020-07-13,19.6200008392334,19.850000381469727,17.0,18.110000610351562,18.110000610351562,1136600
2020-07-14,17.799999237060547,17.90999984741211,16.260000228881836,17.649999618530273,17.649999618530273,614400
2020-07-15,17.010000228881836,17.729999542236328,17.010000228881836,17.450000762939453,17.450000762939453,287000
2020-07-16,17.149999618530273,17.25,15.9399995803833,16.549999237060547,16.549999237060547,490700
2020-07-17,16.600000381469727,18.8700008392334,16.600000381469727,17.920000076293945,17.920000076293945,1198300
2020-07-20,18.18000030517578,18.350000381469727,16.309999465942383,16.989999771118164,16.989999771118164,886200
2020-07-21,16.84000015258789,17.780000686645508,16.59000015258789,16.739999771118164,16.739999771118164,507200
2020-07-22,16.889999389648438,17.100000381469727,16.010000228881836,16.049999237060547,16.049999237060547,390200
2020-07-23,17.0,18.479999542236328,16.020000457763672,16.200000762939453,16.200000762939453,2352900
2020-07-24,16.520000457763672,16.649999618530273,15.390000343322754,15.90999984741211,15.90999984741211,522800
2020-07-27,16.530000686645508,16.559999465942383,15.359999656677246,15.5600004196167,15.5600004196167,523300
2020-07-28,15.460000038146973,16.1200008392334,15.460000038146973,15.550000190734863,15.550000190734863,324900
2020-07-29,15.5,15.720000267028809,15.300000190734863,15.319999694824219,15.319999694824219,285500
2020-07-30,15.300000190734863,15.760000228881836,14.680000305175781,15.100000381469727,15.100000381469727,557400
2020-07-31,15.010000228881836,15.100000381469727,13.34000015258789,13.5,13.5,1106400
2020-08-03,13.890000343322754,13.9399995803833,13.010000228881836,13.760000228881836,13.760000228881836,724600
2020-08-04,13.899999618530273,14.390000343322754,13.800000190734863,14.029999732971191,14.029999732971191,577100
2020-08-05,14.029999732971191,14.710000038146973,14.029999732971191,14.15999984741211,14.15999984741211,370100
2020-08-06,14.15999984741211,15.739999771118164,14.050000190734863,15.470000267028809,15.470000267028809,518200
2020-08-07,15.579999923706055,16.049999237060547,15.579999923706055,15.920000076293945,15.920000076293945,396600
2020-08-10,16.030000686645508,16.899999618530273,16.0,16.559999465942383,16.559999465942383,647700
2020-08-11,17.100000381469727,17.100000381469727,16.0,16.139999389648438,16.139999389648438,468800
2020-08-12,16.0,17.989999771118164,16.0,17.059999465942383,17.059999465942383,531100
2020-08-13,17.3799991607666,18.299999237060547,17.25,18.100000381469727,18.100000381469727,442200
2020-08-14,18.25,18.670000076293945,17.200000762939453,17.649999618530273,17.649999618530273,442100
2020-08-17,17.690000534057617,18.149999618530273,17.690000534057617,18.149999618530273,18.149999618530273,348900
2020-08-18,18.399999618530273,19.040000915527344,17.8799991607666,18.219999313354492,18.219999313354492,1076300
2020-08-19,18.299999237060547,18.860000610351562,17.799999237060547,18.170000076293945,18.170000076293945,320200
2020-08-20,18.100000381469727,18.700000762939453,17.540000915527344,17.75,17.75,434800
2020-08-21,17.950000762939453,18.25,17.540000915527344,17.540000915527344,17.540000915527344,299500
2020-08-24,18.489999771118164,19.950000762939453,17.799999237060547,19.229999542236328,19.229999542236328,1874400
2020-08-25,19.3799991607666,19.610000610351562,18.030000686645508,18.309999465942383,18.309999465942383,680800
2020-08-26,18.299999237060547,19.059999465942383,18.25,18.329999923706055,18.329999923706055,394800
2020-08-27,18.549999237060547,18.8700008392334,17.829999923706055,18.15999984741211,18.15999984741211,284600
2020-08-28,19.06999969482422,21.200000762939453,19.06999969482422,19.700000762939453,19.700000762939453,1428600
2020-08-31,20.780000686645508,21.75,19.440000534057617,19.959999084472656,19.959999084472656,1202000
2020-09-01,20.81999969482422,22.8799991607666,20.65999984741211,22.450000762939453,22.450000762939453,1973400
2020-09-02,24.690000534057617,27.649999618530273,23.479999542236328,24.469999313354492,24.469999313354492,3724600
2020-09-03,24.299999237060547,26.239999771118164,21.5,23.899999618530273,23.899999618530273,2282600
2020-09-04,24.299999237060547,25.889999389648438,20.25,25.780000686645508,25.780000686645508,1636400
2020-09-08,25.829999923706055,29.75,24.829999923706055,29.75,29.75,1887800
2020-09-09,30.90999984741211,31.770000457763672,27.520000457763672,30.43000030517578,30.43000030517578,1772700
2020-09-10,31.219999313354492,32.5,29.1200008392334,29.600000381469727,29.600000381469727,1114700
2020-09-11,30.0,30.459999084472656,26.329999923706055,28.899999618530273,28.899999618530273,1555400
2020-09-14,28.90999984741211,29.700000762939453,25.1200008392334,26.389999389648438,26.389999389648438,1298800
2020-09-15,27.75,27.969999313354492,25.1299991607666,25.6200008392334,25.6200008392334,975500
2020-09-16,26.0,26.809999465942383,25.5,26.260000228881836,26.260000228881836,668400
2020-09-17,25.0,26.100000381469727,24.450000762939453,25.149999618530273,25.149999618530273,707600
2020-09-18,25.299999237060547,26.350000381469727,24.329999923706055,26.049999237060547,26.049999237060547,758500
2020-09-21,26.110000610351562,26.219999313354492,23.40999984741211,24.049999237060547,24.049999237060547,1324800
2020-09-22,24.3799991607666,24.8799991607666,22.549999237060547,23.309999465942383,23.309999465942383,1185700
2020-09-23,23.549999237060547,23.649999618530273,20.899999618530273,21.020000457763672,21.020000457763672,1449700
2020-09-24,19.709999084472656,20.399999618530273,17.299999237060547,18.510000228881836,18.510000228881836,2819900
2020-09-25,19.700000762939453,20.850000381469727,18.90999984741211,20.420000076293945,20.420000076293945,1612600
2020-09-28,22.850000381469727,24.690000534057617,22.010000228881836,24.420000076293945,24.420000076293945,2829100
2020-09-29,25.5,25.549999237060547,23.170000076293945,24.75,24.75,2591800
2020-09-30,24.799999237060547,25.149999618530273,18.100000381469727,18.690000534057617,18.690000534057617,6197300
2020-10-01,20.0,20.09000015258789,16.110000610351562,16.770000457763672,16.770000457763672,7533600
2020-10-02,16.0,17.860000610351562,15.720000267028809,17.079999923706055,17.079999923706055,3867400
2020-10-05,17.799999237060547,17.90999984741211,15.3100004196167,16.229999542236328,16.229999542236328,4276200
2020-10-06,16.8799991607666,18.079999923706055,16.0,17.399999618530273,17.399999618530273,3221200
2020-10-07,17.489999771118164,17.670000076293945,16.510000228881836,16.90999984741211,16.90999984741211,1998800
2020-10-08,17.149999618530273,17.3700008392334,16.600000381469727,16.700000762939453,16.700000762939453,1292600
2020-10-09,17.280000686645508,17.399999618530273,16.770000457763672,16.920000076293945,16.920000076293945,1519200
2020-10-12,17.510000228881836,18.770000457763672,17.15999984741211,17.829999923706055,17.829999923706055,11460000
2020-10-13,17.65999984741211,18.229999542236328,17.25,17.270000457763672,17.270000457763672,2354400
2020-10-14,17.5,17.860000610351562,16.90999984741211,16.959999084472656,16.959999084472656,1721200
2020-10-15,16.829999923706055,16.899999618530273,16.149999618530273,16.81999969482422,16.81999969482422,1816100
2020-10-16,16.829999923706055,17.389999389648438,16.219999313354492,16.5,16.5,1467800
2020-10-19,16.5,16.920000076293945,15.09000015258789,15.34000015258789,15.34000015258789,2804700
2020-10-20,15.300000190734863,15.420000076293945,14.25,14.390000343322754,14.390000343322754,1907700
2020-10-21,14.489999771118164,14.600000381469727,13.199999809265137,13.3100004196167,13.3100004196167,3439300
2020-10-22,12.90999984741211,14.229999542236328,12.40999984741211,13.34000015258789,13.34000015258789,3299100
2020-10-23,13.59000015258789,13.760000228881836,12.949999809265137,13.180000305175781,13.180000305175781,950300
2020-10-26,13.050000190734863,14.829999923706055,12.800000190734863,13.989999771118164,13.989999771118164,2606500
2020-10-27,13.989999771118164,14.720000267028809,13.819999694824219,13.960000038146973,13.960000038146973,1304000
2020-10-28,13.600000381469727,13.75,12.789999961853027,12.8100004196167,12.8100004196167,1473800
2020-10-29,12.90999984741211,13.649999618530273,12.800000190734863,13.170000076293945,13.170000076293945,1472800
2020-10-30,12.979999542236328,13.180000305175781,11.800000190734863,12.229999542236328,12.229999542236328,1986500
2020-11-02,12.550000190734863,13.050000190734863,12.149999618530273,12.260000228881836,12.260000228881836,1058000
2020-11-03,12.399999618530273,13.039999961853027,12.399999618530273,12.8100004196167,12.8100004196167,1260500
2020-11-04,13.109999656677246,13.550000190734863,12.729999542236328,12.859999656677246,12.859999656677246,1548000
2020-11-05,13.210000038146973,15.029999732971191,13.039999961853027,14.9399995803833,14.9399995803833,3072700
2020-11-06,14.949999809265137,15.729999542236328,13.850000381469727,13.869999885559082,13.869999885559082,2358100
2020-11-09,14.4399995803833,14.779999732971191,12.84000015258789,13.039999961853027,13.039999961853027,3198300
2020-11-10,13.3100004196167,13.5,12.569999694824219,12.859999656677246,12.859999656677246,1751300
2020-11-11,13.300000190734863,13.970000267028809,13.0600004196167,13.65999984741211,13.65999984741211,1214100
2020-11-12,13.739999771118164,13.930000305175781,13.25,13.510000228881836,13.510000228881836,871400
2020-11-13,13.630000114440918,14.609999656677246,13.630000114440918,14.510000228881836,14.510000228881836,1597200
2020-11-16,14.9399995803833,15.699999809265137,14.619999885559082,15.520000457763672,15.520000457763672,1898900
2020-11-17,16.299999237060547,16.739999771118164,15.779999732971191,16.25,16.25,2996000
2020-11-18,16.389999389648438,16.700000762939453,15.779999732971191,15.899999618530273,15.899999618530273,1535900
2020-11-19,16.15999984741211,16.790000915527344,16.040000915527344,16.260000228881836,16.260000228881836,1487400
2020-11-20,16.81999969482422,17.06999969482422,16.260000228881836,16.360000610351562,16.360000610351562,2256900
2020-11-23,17.040000915527344,17.25,16.350000381469727,16.739999771118164,16.739999771118164,2897000
2020-11-24,17.5,17.5,15.8100004196167,16.170000076293945,16.170000076293945,3340800
2020-11-25,15.880000114440918,16.040000915527344,15.239999771118164,15.520000457763672,15.520000457763672,2309800
2020-11-27,15.729999542236328,16.329999923706055,15.699999809265137,16.059999465942383,16.059999465942383,1976000
2020-11-30,16.799999237060547,16.969999313354492,15.210000038146973,15.920000076293945,15.920000076293945,2926500
2020-12-01,16.229999542236328,16.260000228881836,14.819999694824219,15.119999885559082,15.119999885559082,3046400
2020-12-02,14.600000381469727,14.800000190734863,14.0,14.630000114440918,14.630000114440918,4095400
2020-12-03,15.1899995803833,16.15999984741211,14.65999984741211,15.0,15.0,4165400
2020-12-04,15.65999984741211,17.110000610351562,15.050000190734863,15.119999885559082,15.119999885559082,11834500
2020-12-07,15.449999809265137,18.989999771118164,15.449999809265137,18.809999465942383,18.809999465942383,18101000
2020-12-08,20.440000534057617,22.299999237060547,19.299999237060547,20.84000015258789,20.84000015258789,30969800
2020-12-09,22.40999984741211,22.989999771118164,19.010000228881836,19.90999984741211,19.90999984741211,20214200
2020-12-10,18.940000534057617,20.68000030517578,18.479999542236328,20.149999618530273,20.149999618530273,7396000
2020-12-11,19.860000610351562,20.350000381469727,18.010000228881836,18.329999923706055,18.329999923706055,8394000
2020-12-14,19.420000076293945,19.969999313354492,18.950000762939453,19.100000381469727,19.100000381469727,6781900
2020-12-15,20.6200008392334,22.239999771118164,19.229999542236328,19.440000534057617,19.440000534057617,17135500
2020-12-16,20.049999237060547,21.079999923706055,19.700000762939453,20.579999923706055,20.579999923706055,8818400
2020-12-17,20.84000015258789,21.399999618530273,20.020000457763672,20.649999618530273,20.649999618530273,6935200
2020-12-18,20.809999465942383,20.969999313354492,19.700000762939453,20.06999969482422,20.06999969482422,8451200
2020-12-21,19.719999313354492,25.440000534057617,19.700000762939453,24.68000030517578,24.68000030517578,17743700
2020-12-22,27.989999771118164,30.809999465942383,25.56999969482422,27.3799991607666,27.3799991607666,37131300
2020-12-23,27.520000457763672,27.6299991607666,25.010000228881836,26.5,26.5,10641500
2020-12-24,26.049999237060547,26.31999969482422,23.700000762939453,24.68000030517578,24.68000030517578,6993800
2020-12-28,25.399999618530273,25.450000762939453,22.5,22.59000015258789,22.59000015258789,8007900
2020-12-29,22.850000381469727,23.959999084472656,20.920000076293945,22.8700008392334,22.8700008392334,10932600
2020-12-30,23.229999542236328,24.639999389648438,23.229999542236328,24.5,24.5,7110200
