Date,Open,High,Low,Close,Adj Close,Volume
2020-08-21,9.670000076293945,9.75,9.670000076293945,9.699999809265137,9.699999809265137,266500
2020-08-25,9.699999809265137,9.699999809265137,9.699999809265137,9.699999809265137,9.699999809265137,100
2020-08-26,9.859999656677246,9.859999656677246,9.760000228881836,9.760000228881836,9.760000228881836,1100
2020-08-27,9.75,9.920000076293945,9.75,9.859999656677246,9.859999656677246,822200
2020-08-28,9.8100004196167,9.8100004196167,9.75,9.75,9.75,5300
2020-08-31,9.899999618530273,9.899999618530273,9.779999732971191,9.779999732971191,9.779999732971191,117100
2020-09-01,9.779999732971191,9.779999732971191,9.779999732971191,9.779999732971191,9.779999732971191,800
2020-09-02,9.779999732971191,9.800000190734863,9.779999732971191,9.779999732971191,9.779999732971191,31300
2020-09-03,9.779999732971191,9.800000190734863,9.779999732971191,9.779999732971191,9.779999732971191,193400
2020-09-04,9.779999732971191,9.890000343322754,9.779999732971191,9.8100004196167,9.8100004196167,30500
2020-09-08,9.789999961853027,9.8100004196167,9.789999961853027,9.8100004196167,9.8100004196167,94000
2020-09-09,9.8100004196167,9.8100004196167,9.8100004196167,9.8100004196167,9.8100004196167,11000
2020-09-10,9.779999732971191,9.829999923706055,9.779999732971191,9.8100004196167,9.8100004196167,592600
2020-09-11,9.829999923706055,9.829999923706055,9.800000190734863,9.800000190734863,9.800000190734863,30500
2020-09-14,9.800000190734863,9.800000190734863,9.800000190734863,9.800000190734863,9.800000190734863,5000
2020-09-15,9.800000190734863,9.829999923706055,9.800000190734863,9.829999923706055,9.829999923706055,5500
2020-09-16,9.800000190734863,9.800000190734863,9.800000190734863,9.800000190734863,9.800000190734863,24100
2020-09-17,9.800000190734863,9.84000015258789,9.800000190734863,9.824999809265137,9.824999809265137,8000
2020-09-18,9.899999618530273,9.899999618530273,9.800000190734863,9.8100004196167,9.8100004196167,116700
2020-09-21,9.789999961853027,9.84000015258789,9.789999961853027,9.84000015258789,9.84000015258789,8300
2020-09-22,9.84000015258789,9.84000015258789,9.800000190734863,9.84000015258789,9.84000015258789,3800
2020-09-23,9.84000015258789,9.84000015258789,9.800000190734863,9.800000190734863,9.800000190734863,3200
2020-09-24,9.8100004196167,9.899999618530273,9.800000190734863,9.859999656677246,9.859999656677246,21600
2020-09-25,9.800000190734863,9.859999656677246,9.800000190734863,9.859999656677246,9.859999656677246,700
2020-09-28,9.800000190734863,9.819999694824219,9.800000190734863,9.819999694824219,9.819999694824219,5600
2020-09-29,9.8100004196167,9.859999656677246,9.800000190734863,9.829999923706055,9.829999923706055,326700
2020-09-30,9.84000015258789,9.84000015258789,9.84000015258789,9.84000015258789,9.84000015258789,10700
2020-10-01,9.850000381469727,11.119999885559082,9.800000190734863,9.859999656677246,9.859999656677246,503600
2020-10-02,9.812999725341797,9.829999923706055,9.812999725341797,9.829999923706055,9.829999923706055,1800
2020-10-05,9.8100004196167,9.8100004196167,9.800000190734863,9.800000190734863,9.800000190734863,1900
2020-10-06,9.8100004196167,9.8100004196167,9.800000190734863,9.800000190734863,9.800000190734863,300
2020-10-07,9.819999694824219,9.819999694824219,9.800000190734863,9.819999694824219,9.819999694824219,1200
2020-10-08,9.800000190734863,9.850000381469727,9.800000190734863,9.800000190734863,9.800000190734863,107900
2020-10-09,9.819999694824219,9.819999694824219,9.800000190734863,9.800000190734863,9.800000190734863,165300
2020-10-12,9.800000190734863,9.800000190734863,9.800000190734863,9.800000190734863,9.800000190734863,600
2020-10-13,9.800000190734863,9.800000190734863,9.75,9.770000457763672,9.770000457763672,106300
2020-10-14,9.770000457763672,9.770000457763672,9.770000457763672,9.770000457763672,9.770000457763672,0
2020-10-15,9.765999794006348,9.800000190734863,9.765999794006348,9.789999961853027,9.789999961853027,4300
2020-10-16,9.789999961853027,9.789999961853027,9.789999961853027,9.789999961853027,9.789999961853027,100
2020-10-19,9.789999961853027,9.789999961853027,9.789999961853027,9.789999961853027,9.789999961853027,100
2020-10-20,9.800000190734863,9.800000190734863,9.770000457763672,9.770000457763672,9.770000457763672,80300
2020-10-21,9.779999732971191,9.779999732971191,9.779999732971191,9.779999732971191,9.779999732971191,600
2020-10-22,9.779999732971191,9.779999732971191,9.779999732971191,9.779999732971191,9.779999732971191,0
2020-10-23,9.770000457763672,9.770000457763672,9.770000457763672,9.770000457763672,9.770000457763672,1800
2020-10-26,9.8100004196167,9.890000343322754,9.789999961853027,9.84000015258789,9.84000015258789,9900
2020-10-27,9.84000015258789,9.84000015258789,9.84000015258789,9.84000015258789,9.84000015258789,324100
2020-10-28,9.770000457763672,9.770000457763672,9.770000457763672,9.770000457763672,9.770000457763672,5100
2020-10-29,9.760000228881836,9.770000457763672,9.75,9.75,9.75,339800
2020-10-30,9.767999649047852,9.779999732971191,9.767999649047852,9.779999732971191,9.779999732971191,300
2020-11-02,9.75,9.770000457763672,9.75,9.770000457763672,9.770000457763672,14500
2020-11-03,9.779999732971191,9.779999732971191,9.770000457763672,9.770000457763672,9.770000457763672,14400
2020-11-04,9.800000190734863,9.8100004196167,9.779999732971191,9.8100004196167,9.8100004196167,22600
2020-11-05,9.859999656677246,9.859999656677246,9.850000381469727,9.850000381469727,9.850000381469727,2800
2020-11-06,9.829999923706055,9.829999923706055,9.800000190734863,9.800000190734863,9.800000190734863,3900
2020-11-09,9.819999694824219,9.819999694824219,9.819999694824219,9.819999694824219,9.819999694824219,2900
2020-11-10,9.78499984741211,9.79699993133545,9.75,9.770000457763672,9.770000457763672,88900
2020-11-11,9.770000457763672,9.770000457763672,9.770000457763672,9.770000457763672,9.770000457763672,0
2020-11-12,9.770000457763672,9.770000457763672,9.770000457763672,9.770000457763672,9.770000457763672,0
2020-11-13,9.805000305175781,9.842000007629395,9.805000305175781,9.84000015258789,9.84000015258789,17400
2020-11-16,9.84000015258789,9.84000015258789,9.84000015258789,9.84000015258789,9.84000015258789,0
2020-11-17,9.779999732971191,9.920000076293945,9.779999732971191,9.850000381469727,9.850000381469727,17400
2020-11-18,9.850000381469727,9.850000381469727,9.850000381469727,9.850000381469727,9.850000381469727,0
2020-11-19,9.795000076293945,9.8100004196167,9.795000076293945,9.8100004196167,9.8100004196167,2300
2020-11-20,9.8100004196167,9.859999656677246,9.8100004196167,9.850000381469727,9.850000381469727,68100
2020-11-23,9.869999885559082,9.869999885559082,9.779999732971191,9.850000381469727,9.850000381469727,5000
2020-11-24,9.800000190734863,9.845000267028809,9.789999961853027,9.829999923706055,9.829999923706055,17700
2020-11-25,9.829999923706055,9.829999923706055,9.829999923706055,9.829999923706055,9.829999923706055,100
2020-11-27,9.800000190734863,9.829999923706055,9.800000190734863,9.824999809265137,9.824999809265137,9400
2020-11-30,9.84000015258789,9.859999656677246,9.819999694824219,9.845000267028809,9.845000267028809,6900
2020-12-01,9.84000015258789,9.890000343322754,9.84000015258789,9.890000343322754,9.890000343322754,5600
2020-12-02,9.88599967956543,9.88599967956543,9.88599967956543,9.88599967956543,9.88599967956543,500
2020-12-03,9.880000114440918,9.890000343322754,9.880000114440918,9.890000343322754,9.890000343322754,70800
2020-12-04,9.960000038146973,9.960000038146973,9.960000038146973,9.960000038146973,9.960000038146973,10000
2020-12-07,9.949999809265137,9.979999542236328,9.859999656677246,9.932999610900879,9.932999610900879,281800
2020-12-08,9.90999984741211,9.949999809265137,9.90999984741211,9.90999984741211,9.90999984741211,7200
2020-12-09,9.90999984741211,9.949999809265137,9.899999618530273,9.920000076293945,9.920000076293945,210600
2020-12-10,9.9399995803833,10.0,9.9399995803833,10.0,10.0,7500
2020-12-11,9.960000038146973,10.0,9.9399995803833,9.949999809265137,9.949999809265137,22500
2020-12-14,9.949999809265137,9.949999809265137,9.880000114440918,9.899999618530273,9.899999618530273,74800
2020-12-15,9.890000343322754,9.949999809265137,9.890000343322754,9.949999809265137,9.949999809265137,300
2020-12-16,9.90999984741211,9.9350004196167,9.899999618530273,9.930000305175781,9.930000305175781,28000
2020-12-17,9.949999809265137,9.979999542236328,9.949999809265137,9.979999542236328,9.979999542236328,28100
2020-12-18,9.949999809265137,9.949999809265137,9.930000305175781,9.949999809265137,9.949999809265137,35400
2020-12-21,9.930000305175781,9.949999809265137,9.925000190734863,9.949999809265137,9.949999809265137,27500
2020-12-22,10.0,10.3100004196167,9.989999771118164,10.050000190734863,10.050000190734863,8900
2020-12-23,10.133999824523926,10.133999824523926,10.0600004196167,10.12600040435791,10.12600040435791,900
2020-12-24,10.149999618530273,10.149999618530273,10.010000228881836,10.010000228881836,10.010000228881836,8400
2020-12-28,10.020000457763672,10.170000076293945,10.0,10.050000190734863,10.050000190734863,34700
2020-12-29,10.050000190734863,10.119999885559082,10.050000190734863,10.050000190734863,10.050000190734863,31100
2020-12-30,10.060999870300293,10.125,10.060999870300293,10.104999542236328,10.104999542236328,11800
