Date,Open,High,Low,Close,Adj Close,Volume
2020-12-24,10.25,10.300000190734863,10.170000076293945,10.1899995803833,10.1899995803833,3527700
2020-12-28,10.25,10.319999694824219,10.229999542236328,10.300000190734863,10.300000190734863,360000
2020-12-29,10.350000381469727,10.350000381469727,10.25,10.270000457763672,10.270000457763672,146900
2020-12-30,10.270000457763672,10.300000190734863,10.25,10.300000190734863,10.300000190734863,46400
