Date,Open,High,Low,Close,Adj Close,Volume
2019-04-30,5.199999809265137,5.199999809265137,4.0,4.099999904632568,4.099999904632568,136200
2019-05-01,4.010000228881836,4.760000228881836,4.0,4.630000114440918,4.630000114440918,42200
2019-05-02,4.659999847412109,4.659999847412109,4.190000057220459,4.599999904632568,4.599999904632568,15300
2019-05-03,4.5229997634887695,4.690000057220459,4.309999942779541,4.510000228881836,4.510000228881836,9400
2019-05-06,4.25,4.49399995803833,4.25,4.349999904632568,4.349999904632568,9000
2019-05-07,4.370999813079834,4.5,3.950000047683716,3.950000047683716,3.950000047683716,10800
2019-05-08,4.159999847412109,4.204999923706055,3.9000000953674316,4.0,4.0,4800
2019-05-09,4.0,4.0,3.7300000190734863,3.950000047683716,3.950000047683716,2600
2019-05-10,3.885999917984009,3.885999917984009,3.619999885559082,3.799999952316284,3.799999952316284,12800
2019-05-13,3.75,3.799999952316284,3.6500000953674316,3.799999952316284,3.799999952316284,900
2019-05-14,3.9800000190734863,3.9800000190734863,3.880000114440918,3.880000114440918,3.880000114440918,300
2019-05-15,4.0,4.0,3.9000000953674316,3.9000000953674316,3.9000000953674316,200
2019-05-16,3.9800000190734863,3.990000009536743,3.9800000190734863,3.990000009536743,3.990000009536743,1300
2019-05-17,4.0,4.0,3.509999990463257,3.509999990463257,3.509999990463257,1400
2019-05-20,4.0,4.0,3.5,3.7100000381469727,3.7100000381469727,2200
2019-05-21,3.9600000381469727,3.9600000381469727,3.559999942779541,3.559999942779541,3.559999942779541,600
2019-05-22,3.700000047683716,3.700000047683716,3.700000047683716,3.700000047683716,3.700000047683716,100
2019-05-23,3.259999990463257,3.325000047683716,3.0,3.0,3.0,5400
2019-05-24,3.5,3.5,2.8299999237060547,3.240000009536743,3.240000009536743,1800
2019-05-28,3.640000104904175,3.740000009536743,3.049999952316284,3.3499999046325684,3.3499999046325684,1000
2019-05-29,3.690000057220459,3.690000057220459,3.5,3.5,3.5,200
2019-05-30,3.490000009536743,3.5,2.859999895095825,2.859999895095825,2.859999895095825,800
2019-05-31,3.6500000953674316,3.7200000286102295,3.549999952316284,3.549999952316284,3.549999952316284,3800
2019-06-03,3.490000009536743,3.490000009536743,3.0,3.1500000953674316,3.1500000953674316,1300
2019-06-04,3.0899999141693115,3.499000072479248,2.6700000762939453,2.6700000762939453,2.6700000762939453,3700
2019-06-05,3.440000057220459,3.440000057220459,2.990000009536743,3.0,3.0,2700
2019-06-06,3.132999897003174,3.132999897003174,2.7300000190734863,3.0799999237060547,3.0799999237060547,600
2019-06-07,3.069999933242798,3.0989999771118164,2.619999885559082,2.6700000762939453,2.6700000762939453,2000
2019-06-10,3.0999999046325684,3.0999999046325684,3.0999999046325684,3.0999999046325684,3.0999999046325684,200
2019-06-11,2.75,2.75,2.75,2.75,2.75,600
2019-06-12,2.680000066757202,3.0799999237060547,2.680000066757202,2.8399999141693115,2.8399999141693115,1000
2019-06-13,2.7160000801086426,2.76200008392334,2.5999999046325684,2.5999999046325684,2.5999999046325684,2200
2019-06-14,2.450000047683716,2.5999999046325684,2.450000047683716,2.450000047683716,2.450000047683716,600
2019-06-17,2.5999999046325684,2.5999999046325684,2.2799999713897705,2.5899999141693115,2.5899999141693115,600
2019-06-18,2.5799999237060547,3.6019999980926514,2.3919999599456787,3.0,3.0,46800
2019-06-19,3.059999942779541,3.180000066757202,2.5299999713897705,2.740000009536743,2.740000009536743,7600
2019-06-20,2.559999942779541,4.449999809265137,2.559999942779541,3.0,3.0,130900
2019-06-21,2.990000009536743,3.0799999237060547,2.609999895095825,2.7100000381469727,2.7100000381469727,32800
2019-06-24,2.7100000381469727,3.0369999408721924,2.4240000247955322,2.8499999046325684,2.8499999046325684,12600
2019-06-25,2.799999952316284,2.9700000286102295,2.549999952316284,2.549999952316284,2.549999952316284,11800
2019-06-26,2.944000005722046,3.3499999046325684,2.559999942779541,2.950000047683716,2.950000047683716,38500
2019-06-27,2.9000000953674316,2.9600000381469727,2.9000000953674316,2.937000036239624,2.937000036239624,1700
2019-06-28,2.9100000858306885,3.1500000953674316,2.6440000534057617,2.930000066757202,2.930000066757202,60800
2019-07-01,3.2799999713897705,3.2799999713897705,2.7149999141693115,3.119999885559082,3.119999885559082,6900
2019-07-02,3.0999999046325684,3.0999999046325684,2.799999952316284,2.799999952316284,2.799999952316284,500
2019-07-03,3.059999942779541,3.119999885559082,2.6500000953674316,3.119999885559082,3.119999885559082,3700
2019-07-05,3.0999999046325684,3.0999999046325684,2.8259999752044678,3.049999952316284,3.049999952316284,900
2019-07-08,3.0999999046325684,3.490000009536743,3.049999952316284,3.2899999618530273,3.2899999618530273,41700
2019-07-09,3.490000009536743,3.490000009536743,3.1510000228881836,3.4200000762939453,3.4200000762939453,2300
2019-07-10,3.4000000953674316,3.4000000953674316,2.8499999046325684,3.0,3.0,8700
2019-07-11,3.3499999046325684,3.3499999046325684,2.9089999198913574,2.990000009536743,2.990000009536743,3100
2019-07-12,3.109999895095825,3.3299999237060547,2.9210000038146973,3.200000047683716,3.200000047683716,4500
2019-07-15,3.2200000286102295,3.3499999046325684,3.0,3.009999990463257,3.009999990463257,3700
2019-07-16,3.0999999046325684,3.2109999656677246,2.8499999046325684,3.0,3.0,6900
2019-07-17,3.0799999237060547,3.140000104904175,3.0,3.059999942779541,3.059999942779541,5400
2019-07-18,3.1500000953674316,3.299999952316284,2.9679999351501465,3.1559998989105225,3.1559998989105225,16900
2019-07-19,3.380000114440918,3.380000114440918,3.0,3.319999933242798,3.319999933242798,14900
2019-07-22,3.3499999046325684,3.3499999046325684,3.0199999809265137,3.124000072479248,3.124000072479248,12900
2019-07-23,3.2699999809265137,3.3489999771118164,2.99399995803833,3.140000104904175,3.140000104904175,39200
2019-07-24,3.200000047683716,3.369999885559082,3.009999990463257,3.109999895095825,3.109999895095825,16000
2019-07-25,3.180000066757202,3.180000066757202,2.9800000190734863,3.0399999618530273,3.0399999618530273,8400
2019-07-26,3.1500000953674316,3.1500000953674316,2.8499999046325684,2.9800000190734863,2.9800000190734863,5700
2019-07-29,3.059999942779541,3.0999999046325684,2.8499999046325684,2.9100000858306885,2.9100000858306885,5200
2019-07-30,2.997999906539917,3.049999952316284,2.8559999465942383,2.9600000381469727,2.9600000381469727,12600
2019-07-31,3.0199999809265137,3.259999990463257,2.8499999046325684,3.1700000762939453,3.1700000762939453,14700
2019-08-01,3.130000114440918,3.140000104904175,2.809999942779541,3.0,3.0,5100
2019-08-02,2.950000047683716,3.0999999046325684,2.9200000762939453,2.9700000286102295,2.9700000286102295,5000
2019-08-05,3.119999885559082,3.25,2.950000047683716,3.0950000286102295,3.0950000286102295,1100
2019-08-06,3.119999885559082,3.119999885559082,2.8499999046325684,3.0999999046325684,3.0999999046325684,2100
2019-08-07,3.059999942779541,3.059999942779541,2.5199999809265137,2.680000066757202,2.680000066757202,12000
2019-08-08,2.5510001182556152,2.700000047683716,2.5,2.680000066757202,2.680000066757202,2900
2019-08-09,2.559999942779541,2.687999963760376,2.4200000762939453,2.4800000190734863,2.4800000190734863,9400
2019-08-12,2.6500000953674316,2.6500000953674316,2.3299999237060547,2.3889999389648438,2.3889999389648438,12700
2019-08-13,2.3499999046325684,2.3559999465942383,2.3399999141693115,2.3399999141693115,2.3399999141693115,3300
2019-08-14,2.3399999141693115,2.3399999141693115,2.3010001182556152,2.3399999141693115,2.3399999141693115,1200
2019-08-15,2.4000000953674316,2.430000066757202,2.319999933242798,2.325000047683716,2.325000047683716,5800
2019-08-16,2.450000047683716,2.450000047683716,2.319999933242798,2.450000047683716,2.450000047683716,3600
2019-08-19,2.390000104904175,2.450000047683716,1.7699999809265137,2.240000009536743,2.240000009536743,7200
2019-08-20,2.4700000286102295,2.4700000286102295,1.9900000095367432,2.438999891281128,2.438999891281128,4000
2019-08-21,2.450000047683716,2.619999885559082,2.2200000286102295,2.2200000286102295,2.2200000286102295,4200
2019-08-22,2.2200000286102295,2.6700000762939453,2.2200000286102295,2.6700000762939453,2.6700000762939453,900
2019-08-23,2.559000015258789,2.5999999046325684,2.299999952316284,2.4719998836517334,2.4719998836517334,3000
2019-08-26,2.549999952316284,2.8570001125335693,2.549999952316284,2.703000068664551,2.703000068664551,900
2019-08-27,2.75,2.819999933242798,2.5999999046325684,2.7990000247955322,2.7990000247955322,2800
2019-08-28,2.700000047683716,2.7899999618530273,2.700000047683716,2.75,2.75,3500
2019-08-29,2.7899999618530273,2.799999952316284,2.5399999618530273,2.6500000953674316,2.6500000953674316,14600
2019-08-30,2.700000047683716,2.819999933242798,2.700000047683716,2.819999933242798,2.819999933242798,11500
2019-09-03,2.8499999046325684,2.8499999046325684,2.700000047683716,2.8399999141693115,2.8399999141693115,3400
2019-09-04,2.8399999141693115,2.8399999141693115,2.700000047683716,2.799999952316284,2.799999952316284,5700
2019-09-05,2.8399999141693115,2.8399999141693115,2.7200000286102295,2.819999933242798,2.819999933242798,1000
2019-09-06,2.680000066757202,2.8399999141693115,2.680000066757202,2.8299999237060547,2.8299999237060547,6500
2019-09-09,2.8399999141693115,2.8399999141693115,2.7200000286102295,2.819999933242798,2.819999933242798,1800
2019-09-10,2.809999942779541,3.0799999237060547,2.799999952316284,2.9519999027252197,2.9519999027252197,10400
2019-09-11,2.9800000190734863,3.75,2.9059998989105225,3.4000000953674316,3.4000000953674316,118300
2019-09-12,3.9000000953674316,3.9000000953674316,3.5,3.559999942779541,3.559999942779541,22800
2019-09-13,3.638000011444092,4.28000020980835,3.5999999046325684,4.090000152587891,4.090000152587891,43800
2019-09-16,4.203999996185303,4.400000095367432,3.859999895095825,4.1020002365112305,4.1020002365112305,51300
2019-09-17,3.990000009536743,4.389999866485596,3.6600000858306885,4.0,4.0,14500
2019-09-18,3.561000108718872,3.8499999046325684,3.25,3.4000000953674316,3.4000000953674316,23600
2019-09-19,3.490000009536743,4.179999828338623,3.25,3.309999942779541,3.309999942779541,48700
2019-09-20,3.450000047683716,3.497999906539917,3.3299999237060547,3.4200000762939453,3.4200000762939453,3600
2019-09-23,3.4489998817443848,3.4489998817443848,3.299999952316284,3.4200000762939453,3.4200000762939453,1700
2019-09-24,3.4000000953674316,3.4000000953674316,2.9700000286102295,3.200000047683716,3.200000047683716,9500
2019-09-25,3.3399999141693115,3.3399999141693115,3.259999990463257,3.309999942779541,3.309999942779541,600
2019-09-26,3.390000104904175,3.390000104904175,3.25,3.3559999465942383,3.3559999465942383,700
2019-09-27,3.490000009536743,3.490000009536743,2.799999952316284,2.9600000381469727,2.9600000381469727,9600
2019-09-30,3.1500000953674316,3.1500000953674316,3.0,3.0,3.0,3700
2019-10-01,3.1500000953674316,3.1500000953674316,2.799999952316284,2.819999933242798,2.819999933242798,3800
2019-10-02,2.8499999046325684,2.990000009536743,2.799999952316284,2.799999952316284,2.799999952316284,2900
2019-10-03,2.9800000190734863,2.9800000190734863,2.549999952316284,2.799999952316284,2.799999952316284,1500
2019-10-04,2.680000066757202,2.680000066757202,2.5199999809265137,2.5899999141693115,2.5899999141693115,500
2019-10-07,2.549999952316284,2.549999952316284,2.359999895095825,2.359999895095825,2.359999895095825,3000
2019-10-08,2.3299999237060547,2.4000000953674316,2.3299999237060547,2.4000000953674316,2.4000000953674316,400
2019-10-09,2.880000114440918,2.880000114440918,2.7679998874664307,2.7679998874664307,2.7679998874664307,400
2019-10-10,2.869999885559082,2.869999885559082,2.7330000400543213,2.799999952316284,2.799999952316284,400
2019-10-11,2.7100000381469727,2.7100000381469727,2.4619998931884766,2.4619998931884766,2.4619998931884766,800
2019-10-14,2.4600000381469727,2.4700000286102295,2.296999931335449,2.296999931335449,2.296999931335449,3800
2019-10-15,2.4000000953674316,2.450000047683716,2.200000047683716,2.4100000858306885,2.4100000858306885,4300
2019-10-16,2.4100000858306885,2.4100000858306885,2.4100000858306885,2.4100000858306885,2.4100000858306885,200
2019-10-17,2.509999990463257,2.509999990463257,2.509999990463257,2.509999990463257,2.509999990463257,100
2019-10-18,2.7300000190734863,2.7300000190734863,2.7300000190734863,2.7300000190734863,2.7300000190734863,100
2019-10-21,2.7300000190734863,2.7300000190734863,2.7300000190734863,2.7300000190734863,2.7300000190734863,100
2019-10-22,2.5799999237060547,2.5799999237060547,2.5799999237060547,2.5799999237060547,2.5799999237060547,300
2019-10-23,2.5799999237060547,2.5799999237060547,2.5799999237060547,2.5799999237060547,2.5799999237060547,0
2019-10-24,2.549999952316284,2.5999999046325684,2.549999952316284,2.5999999046325684,2.5999999046325684,700
2019-10-25,2.619999885559082,2.619999885559082,2.6110000610351562,2.6110000610351562,2.6110000610351562,1100
2019-10-28,2.630000114440918,2.930000066757202,2.4749999046325684,2.7699999809265137,2.7699999809265137,10900
2019-10-29,2.5,2.559999942779541,2.428999900817871,2.428999900817871,2.428999900817871,3800
2019-10-30,2.5999999046325684,2.5999999046325684,2.5999999046325684,2.5999999046325684,2.5999999046325684,200
2019-10-31,2.5999999046325684,2.8499999046325684,2.299999952316284,2.299999952316284,2.299999952316284,5800
2019-11-01,2.299999952316284,2.299999952316284,2.253000020980835,2.253000020980835,2.253000020980835,1500
2019-11-04,2.180000066757202,2.250999927520752,2.180000066757202,2.200000047683716,2.200000047683716,2300
2019-11-05,2.5,2.5,2.180000066757202,2.2899999618530273,2.2899999618530273,2300
2019-11-06,2.2100000381469727,2.2100000381469727,2.200000047683716,2.200000047683716,2.200000047683716,200
2019-11-07,2.200000047683716,2.200000047683716,2.1700000762939453,2.1700000762939453,2.1700000762939453,200
2019-11-08,2.1500000953674316,2.1740000247955322,2.130000114440918,2.1649999618530273,2.1649999618530273,1600
2019-11-11,2.1710000038146973,2.1710000038146973,1.378000020980835,1.4539999961853027,1.4539999961853027,21100
2019-11-12,1.190000057220459,1.4600000381469727,1.1699999570846558,1.4299999475479126,1.4299999475479126,17100
2019-11-13,1.4800000190734863,1.9700000286102295,1.4500000476837158,1.5099999904632568,1.5099999904632568,18400
2019-11-14,1.5,1.5,1.49399995803833,1.49399995803833,1.49399995803833,1900
2019-11-15,1.2699999809265137,1.4279999732971191,1.2699999809265137,1.4279999732971191,1.4279999732971191,3800
2019-11-18,1.274999976158142,1.4149999618530273,1.274999976158142,1.4149999618530273,1.4149999618530273,400
2019-11-19,1.4149999618530273,1.4149999618530273,1.4149999618530273,1.4149999618530273,1.4149999618530273,0
2019-11-20,1.2599999904632568,1.2999999523162842,1.2599999904632568,1.2599999904632568,1.2599999904632568,2900
2019-11-21,1.4160000085830688,6.239999771118164,1.375,2.75,2.75,5037700
2019-11-22,3.0,3.549999952316284,2.200000047683716,2.759999990463257,2.759999990463257,766500
2019-11-25,2.2100000381469727,2.759999990463257,2.1500000953674316,2.450000047683716,2.450000047683716,79600
2019-11-26,2.009999990463257,2.36299991607666,2.009999990463257,2.2100000381469727,2.2100000381469727,78800
2019-11-27,2.200000047683716,2.36299991607666,1.8200000524520874,1.9800000190734863,1.9800000190734863,63200
2019-11-29,2.0,2.0250000953674316,1.8550000190734863,1.9800000190734863,1.9800000190734863,11000
2019-12-02,1.899999976158142,1.9479999542236328,1.7999999523162842,1.8300000429153442,1.8300000429153442,26300
2019-12-03,1.7999999523162842,1.8040000200271606,1.5800000429153442,1.7300000190734863,1.7300000190734863,64400
2019-12-04,1.63100004196167,1.8200000524520874,1.5499999523162842,1.7200000286102295,1.7200000286102295,65400
2019-12-05,1.5499999523162842,1.7259999513626099,1.5499999523162842,1.649999976158142,1.649999976158142,16500
2019-12-06,1.6050000190734863,1.850000023841858,1.6050000190734863,1.8389999866485596,1.8389999866485596,35300
2019-12-09,1.850000023841858,1.850000023841858,1.6200000047683716,1.7699999809265137,1.7699999809265137,46400
2019-12-10,1.7050000429153442,1.7999999523162842,1.6100000143051147,1.6629999876022339,1.6629999876022339,38800
2019-12-11,1.687000036239624,1.7799999713897705,1.6699999570846558,1.7699999809265137,1.7699999809265137,10600
2019-12-12,1.715000033378601,1.7699999809265137,1.6200000047683716,1.753000020980835,1.753000020980835,21600
2019-12-13,1.7589999437332153,2.2200000286102295,1.74399995803833,1.7699999809265137,1.7699999809265137,85200
2019-12-16,1.6399999856948853,1.840000033378601,1.6399999856948853,1.7699999809265137,1.7699999809265137,8000
2019-12-17,1.8200000524520874,1.8200000524520874,1.725000023841858,1.7510000467300415,1.7510000467300415,22000
2019-12-18,1.75,1.75,1.6649999618530273,1.6799999475479126,1.6799999475479126,10800
2019-12-19,1.687999963760376,1.690000057220459,1.649999976158142,1.6799999475479126,1.6799999475479126,14200
2019-12-20,1.75,1.850000023841858,1.6779999732971191,1.7710000276565552,1.7710000276565552,33800
2019-12-23,1.850000023841858,1.906000018119812,1.6799999475479126,1.7200000286102295,1.7200000286102295,10100
2019-12-24,1.840000033378601,1.8700000047683716,1.7000000476837158,1.7000000476837158,1.7000000476837158,25700
2019-12-26,1.75,1.75,1.659999966621399,1.7079999446868896,1.7079999446868896,11900
2019-12-27,1.7000000476837158,1.7480000257492065,1.649999976158142,1.649999976158142,1.649999976158142,13700
2019-12-30,1.649999976158142,1.715000033378601,1.5499999523162842,1.6399999856948853,1.6399999856948853,12300
2019-12-31,1.5509999990463257,1.6299999952316284,1.5,1.5,1.5,36300
2020-01-02,1.5199999809265137,1.6080000400543213,1.5,1.5,1.5,6600
2020-01-03,1.5,1.7000000476837158,1.5,1.6299999952316284,1.6299999952316284,37400
2020-01-06,1.6699999570846558,1.6699999570846558,1.5299999713897705,1.600000023841858,1.600000023841858,27200
2020-01-07,1.6299999952316284,1.8200000524520874,1.6299999952316284,1.690999984741211,1.690999984741211,15000
2020-01-08,3.440000057220459,4.150000095367432,2.25,2.2699999809265137,2.2699999809265137,8141400
2020-01-09,2.009999990463257,2.5999999046325684,2.0,2.559999942779541,2.559999942779541,303600
2020-01-10,2.4600000381469727,2.7679998874664307,2.313999891281128,2.509999990463257,2.509999990463257,92700
2020-01-13,2.5399999618530273,2.5399999618530273,2.299999952316284,2.5,2.5,48300
2020-01-14,2.4100000858306885,2.617000102996826,2.312000036239624,2.3299999237060547,2.3299999237060547,93900
2020-01-15,2.309999942779541,2.619999885559082,2.309999942779541,2.5399999618530273,2.5399999618530273,54900
2020-01-16,2.5999999046325684,2.5999999046325684,2.4059998989105225,2.4200000762939453,2.4200000762939453,8800
2020-01-17,2.5,2.549999952316284,2.319999933242798,2.450000047683716,2.450000047683716,18100
2020-01-21,2.5199999809265137,2.5199999809265137,2.299999952316284,2.440000057220459,2.440000057220459,9800
2020-01-22,2.3499999046325684,2.3499999046325684,2.130000114440918,2.1500000953674316,2.1500000953674316,42600
2020-01-23,2.1700000762939453,2.1700000762939453,2.0,2.049999952316284,2.049999952316284,14400
2020-01-24,2.0399999618530273,2.0399999618530273,1.9509999752044678,2.0,2.0,18500
2020-01-27,1.8899999856948853,1.9900000095367432,1.840000033378601,1.9600000381469727,1.9600000381469727,4900
2020-01-28,1.840000033378601,2.0,1.840000033378601,1.9700000286102295,1.9700000286102295,16900
2020-01-29,1.7510000467300415,1.9500000476837158,1.7510000467300415,1.940000057220459,1.940000057220459,3800
2020-01-30,1.8339999914169312,1.899999976158142,1.7200000286102295,1.8899999856948853,1.8899999856948853,34100
2020-01-31,1.850000023841858,1.899999976158142,1.722000002861023,1.8600000143051147,1.8600000143051147,14800
2020-02-03,1.909999966621399,1.909999966621399,1.7790000438690186,1.86899995803833,1.86899995803833,7100
2020-02-04,1.8600000143051147,1.899999976158142,1.8200000524520874,1.8300000429153442,1.8300000429153442,5900
2020-02-05,1.8799999952316284,3.4700000286102295,1.8300000429153442,2.4700000286102295,2.4700000286102295,1235600
2020-02-06,2.359999895095825,2.680000066757202,2.193000078201294,2.200000047683716,2.200000047683716,86600
2020-02-07,2.2899999618530273,2.369999885559082,2.174999952316284,2.200000047683716,2.200000047683716,21300
2020-02-10,2.0999999046325684,2.4749999046325684,2.0999999046325684,2.319999933242798,2.319999933242798,19700
2020-02-11,2.2769999504089355,2.384000062942505,2.2769999504089355,2.2899999618530273,2.2899999618530273,7700
2020-02-12,2.3420000076293945,2.6500000953674316,2.2799999713897705,2.2899999618530273,2.2899999618530273,60200
2020-02-13,2.2200000286102295,2.378999948501587,2.0399999618530273,2.2260000705718994,2.2260000705718994,52000
2020-02-14,2.2300000190734863,2.2300000190734863,2.069999933242798,2.1600000858306885,2.1600000858306885,5400
2020-02-18,2.186000108718872,2.2100000381469727,2.109999895095825,2.13100004196167,2.13100004196167,18600
2020-02-19,2.128000020980835,2.5999999046325684,2.128000020980835,2.299999952316284,2.299999952316284,53500
2020-02-20,2.2899999618530273,2.372999906539917,2.193000078201294,2.3329999446868896,2.3329999446868896,3800
2020-02-21,2.319000005722046,2.4000000953674316,2.2330000400543213,2.2799999713897705,2.2799999713897705,8900
2020-02-24,2.180000066757202,2.240000009536743,2.130000114440918,2.240000009536743,2.240000009536743,2200
2020-02-25,2.2269999980926514,2.2950000762939453,2.1700000762939453,2.1700000762939453,2.1700000762939453,5600
2020-02-26,2.2799999713897705,2.950000047683716,2.255000114440918,2.3399999141693115,2.3399999141693115,225400
2020-02-27,3.2300000190734863,3.2300000190734863,2.5,2.569999933242798,2.569999933242798,256900
2020-02-28,2.6600000858306885,2.881999969482422,2.2100000381469727,2.4000000953674316,2.4000000953674316,58200
2020-03-02,2.2200000286102295,2.380000114440918,2.0290000438690186,2.2200000286102295,2.2200000286102295,61900
2020-03-03,2.2200000286102295,2.3299999237060547,2.2200000286102295,2.299999952316284,2.299999952316284,4300
2020-03-04,2.3399999141693115,3.0,2.309999942779541,2.640000104904175,2.640000104904175,124400
2020-03-05,2.4200000762939453,2.7899999618530273,2.4119999408721924,2.4600000381469727,2.4600000381469727,44300
2020-03-06,2.5,2.5829999446868896,2.4000000953674316,2.4000000953674316,2.4000000953674316,20400
2020-03-09,2.200000047683716,2.390000104904175,1.2999999523162842,1.309999942779541,1.309999942779541,109700
2020-03-10,1.5199999809265137,1.850000023841858,1.4229999780654907,1.559999942779541,1.559999942779541,238100
2020-03-11,1.5,1.8600000143051147,1.5,1.7899999618530273,1.7899999618530273,70500
2020-03-12,1.7300000190734863,2.25,1.5,1.9800000190734863,1.9800000190734863,163200
2020-03-13,1.5700000524520874,1.9700000286102295,1.5700000524520874,1.6699999570846558,1.6699999570846558,55600
2020-03-16,1.5499999523162842,1.690000057220459,1.4500000476837158,1.4500000476837158,1.4500000476837158,22300
2020-03-17,1.4950000047683716,1.4950000047683716,1.2200000286102295,1.3600000143051147,1.3600000143051147,37600
2020-03-18,1.309999942779541,1.399999976158142,1.2999999523162842,1.3300000429153442,1.3300000429153442,20500
2020-03-19,1.3170000314712524,1.7999999523162842,1.2000000476837158,1.399999976158142,1.399999976158142,87400
2020-03-20,1.4600000381469727,1.7899999618530273,1.4249999523162842,1.649999976158142,1.649999976158142,88900
2020-03-23,1.649999976158142,1.7230000495910645,1.4199999570846558,1.4800000190734863,1.4800000190734863,20600
2020-03-24,1.4600000381469727,1.600000023841858,1.4600000381469727,1.5800000429153442,1.5800000429153442,5900
2020-03-25,1.5099999904632568,1.7999999523162842,1.5,1.7200000286102295,1.7200000286102295,23700
2020-03-26,1.6399999856948853,1.6799999475479126,1.5499999523162842,1.5800000429153442,1.5800000429153442,7700
2020-03-27,1.5700000524520874,1.6100000143051147,1.5700000524520874,1.5700000524520874,1.5700000524520874,1400
2020-03-30,1.590000033378601,1.6820000410079956,1.5499999523162842,1.600000023841858,1.600000023841858,16000
2020-03-31,1.625,1.9199999570846558,1.600000023841858,1.6399999856948853,1.6399999856948853,86200
2020-04-01,1.5,1.600000023841858,1.5,1.5,1.5,7900
2020-04-02,1.5800000429153442,1.5800000429153442,1.3899999856948853,1.5230000019073486,1.5230000019073486,22500
2020-04-03,1.5800000429153442,1.5800000429153442,1.409999966621399,1.409999966621399,1.409999966621399,9500
2020-04-06,1.5,1.6100000143051147,1.5,1.5800000429153442,1.5800000429153442,8100
2020-04-07,1.5099999904632568,1.590000033378601,1.3899999856948853,1.590000033378601,1.590000033378601,3300
2020-04-08,1.4579999446868896,1.5800000429153442,1.4579999446868896,1.5800000429153442,1.5800000429153442,900
2020-04-09,1.559999942779541,1.600000023841858,1.4199999570846558,1.5260000228881836,1.5260000228881836,22000
2020-04-13,1.559999942779541,1.559999942779541,1.465000033378601,1.475000023841858,1.475000023841858,6300
2020-04-14,1.559999942779541,1.899999976158142,1.5099999904632568,1.850000023841858,1.850000023841858,92300
2020-04-15,1.850000023841858,1.850000023841858,1.4299999475479126,1.590000033378601,1.590000033378601,29200
2020-04-16,1.6699999570846558,1.6699999570846558,1.5099999904632568,1.5099999904632568,1.5099999904632568,6600
2020-04-17,1.5399999618530273,1.6369999647140503,1.5199999809265137,1.6200000047683716,1.6200000047683716,5900
2020-04-20,1.6699999570846558,1.6699999570846558,1.5,1.5,1.5,9000
2020-04-21,1.5,1.6069999933242798,1.5,1.6069999933242798,1.6069999933242798,3900
2020-04-22,1.6699999570846558,1.6699999570846558,1.5800000429153442,1.5800000429153442,1.5800000429153442,4800
2020-04-23,1.600000023841858,1.6859999895095825,1.5199999809265137,1.5839999914169312,1.5839999914169312,3800
2020-04-24,1.600000023841858,1.628999948501587,1.5800000429153442,1.5950000286102295,1.5950000286102295,4400
2020-04-27,1.7489999532699585,1.7489999532699585,1.5700000524520874,1.5809999704360962,1.5809999704360962,6500
2020-04-28,1.5800000429153442,1.6399999856948853,1.5800000429153442,1.6200000047683716,1.6200000047683716,2400
2020-04-29,1.6299999952316284,1.690000057220459,1.6100000143051147,1.6770000457763672,1.6770000457763672,12400
2020-04-30,1.7300000190734863,1.7300000190734863,1.590000033378601,1.5950000286102295,1.5950000286102295,4500
2020-05-01,1.569000005722046,1.6490000486373901,1.5190000534057617,1.5399999618530273,1.5399999618530273,4700
2020-05-04,1.5099999904632568,1.6339999437332153,1.5099999904632568,1.5199999809265137,1.5199999809265137,4400
2020-05-05,1.6100000143051147,1.6100000143051147,1.5099999904632568,1.5099999904632568,1.5099999904632568,4000
2020-05-06,1.5329999923706055,1.5329999923706055,1.4900000095367432,1.5149999856948853,1.5149999856948853,3700
2020-05-07,1.5800000429153442,1.5800000429153442,1.5010000467300415,1.5010000467300415,1.5010000467300415,4700
2020-05-08,1.5,1.5399999618530273,1.4900000095367432,1.534999966621399,1.534999966621399,7200
2020-05-11,1.5,1.600000023841858,1.5,1.600000023841858,1.600000023841858,19100
2020-05-12,1.6100000143051147,1.75,1.600000023841858,1.7400000095367432,1.7400000095367432,27500
2020-05-13,1.8700000047683716,1.8700000047683716,1.5299999713897705,1.7000000476837158,1.7000000476837158,20500
2020-05-14,1.6299999952316284,1.7350000143051147,1.6299999952316284,1.7000000476837158,1.7000000476837158,5800
2020-05-15,1.6299999952316284,1.690000057220459,1.6100000143051147,1.6100000143051147,1.6100000143051147,8600
2020-05-18,1.6100000143051147,1.7580000162124634,1.600000023841858,1.7100000381469727,1.7100000381469727,8600
2020-05-19,1.649999976158142,1.7300000190734863,1.6399999856948853,1.659999966621399,1.659999966621399,4200
2020-05-20,1.690000057220459,2.119999885559082,1.5700000524520874,1.8200000524520874,1.8200000524520874,119700
2020-05-21,1.7940000295639038,1.899999976158142,1.7000000476837158,1.8700000047683716,1.8700000047683716,19200
2020-05-22,1.8600000143051147,1.9700000286102295,1.7589999437332153,1.7999999523162842,1.7999999523162842,17200
2020-05-26,1.8700000047683716,2.5,1.8200000524520874,2.4100000858306885,2.4100000858306885,377900
2020-05-27,2.5,2.7190001010894775,2.180000066757202,2.5,2.5,58100
2020-05-28,2.2200000286102295,2.421999931335449,2.109999895095825,2.1449999809265137,2.1449999809265137,26400
2020-05-29,2.109999895095825,2.1549999713897705,2.049999952316284,2.049999952316284,2.049999952316284,13600
2020-06-01,2.049999952316284,2.049999952316284,1.8899999856948853,2.0,2.0,20800
2020-06-02,1.9600000381469727,2.0999999046325684,1.9600000381469727,2.0199999809265137,2.0199999809265137,5200
2020-06-03,2.059999942779541,2.059999942779541,1.9500000476837158,1.9600000381469727,1.9600000381469727,8400
2020-06-04,2.121999979019165,2.121999979019165,1.9600000381469727,1.9800000190734863,1.9800000190734863,12400
2020-06-05,2.0199999809265137,2.0199999809265137,1.9700000286102295,2.0,2.0,10500
2020-06-08,1.9800000190734863,2.069999933242798,1.9800000190734863,2.0,2.0,10800
2020-06-09,1.9800000190734863,2.2100000381469727,1.9800000190734863,2.130000114440918,2.130000114440918,27500
2020-06-10,2.109999895095825,2.6500000953674316,2.0,2.2200000286102295,2.2200000286102295,404200
2020-06-11,11.0,15.390000343322754,6.010000228881836,7.150000095367432,7.150000095367432,65019500
2020-06-12,5.300000190734863,6.980000019073486,4.53000020980835,5.440000057220459,5.440000057220459,2184800
2020-06-15,4.889999866485596,5.099999904632568,4.360000133514404,4.739999771118164,4.739999771118164,537400
2020-06-16,5.0,8.699999809265137,4.650000095367432,7.599999904632568,7.599999904632568,8200500
2020-06-17,6.25,6.889999866485596,5.78000020980835,6.380000114440918,6.380000114440918,697000
2020-06-18,5.920000076293945,7.360000133514404,5.800000190734863,6.380000114440918,6.380000114440918,391200
2020-06-19,6.059999942779541,6.308000087738037,5.800000190734863,6.019999980926514,6.019999980926514,274200
2020-06-22,5.619999885559082,5.900000095367432,5.300000190734863,5.610000133514404,5.610000133514404,200700
2020-06-23,5.420000076293945,5.460000038146973,5.010000228881836,5.150000095367432,5.150000095367432,231200
2020-06-24,5.199999809265137,6.079999923706055,5.050000190734863,5.210000038146973,5.210000038146973,466700
2020-06-25,5.010000228881836,5.329999923706055,4.84499979019165,5.019999980926514,5.019999980926514,132100
2020-06-26,4.869999885559082,5.083000183105469,4.579999923706055,4.599999904632568,4.599999904632568,165900
2020-06-29,4.519999980926514,4.550000190734863,4.119999885559082,4.199999809265137,4.199999809265137,75700
2020-06-30,4.199999809265137,4.480000019073486,4.179999828338623,4.389999866485596,4.389999866485596,58400
2020-07-01,4.269999980926514,4.909999847412109,4.139999866485596,4.53000020980835,4.53000020980835,159700
2020-07-02,4.409999847412109,5.320000171661377,4.409999847412109,4.900000095367432,4.900000095367432,150900
2020-07-06,4.900000095367432,5.599999904632568,4.440000057220459,4.78000020980835,4.78000020980835,214200
2020-07-07,4.75,4.78000020980835,4.260000228881836,4.460000038146973,4.460000038146973,50100
2020-07-08,4.449999809265137,4.659999847412109,4.309999942779541,4.480000019073486,4.480000019073486,53200
2020-07-09,4.369999885559082,5.179999828338623,4.263999938964844,5.0,5.0,1343500
2020-07-10,7.639999866485596,9.239999771118164,6.25,7.179999828338623,7.179999828338623,20649400
2020-07-13,6.369999885559082,6.659999847412109,5.900000095367432,6.090000152587891,6.090000152587891,519500
2020-07-14,6.0,6.139999866485596,5.360000133514404,5.380000114440918,5.380000114440918,291300
2020-07-15,5.400000095367432,5.800000190734863,5.400000095367432,5.570000171661377,5.570000171661377,77800
2020-07-16,5.53000020980835,6.639999866485596,5.53000020980835,5.900000095367432,5.900000095367432,289800
2020-07-17,6.010000228881836,6.050000190734863,5.550000190734863,5.760000228881836,5.760000228881836,115700
2020-07-20,5.659999847412109,5.730000019073486,5.260000228881836,5.480000019073486,5.480000019073486,93800
2020-07-21,5.409999847412109,6.179999828338623,5.309999942779541,5.900000095367432,5.900000095367432,206200
2020-07-22,5.989999771118164,5.989999771118164,5.510000228881836,5.78000020980835,5.78000020980835,110600
2020-07-23,5.679999828338623,5.835000038146973,5.5,5.679999828338623,5.679999828338623,95900
2020-07-24,5.590000152587891,5.739999771118164,5.369999885559082,5.400000095367432,5.400000095367432,19200
2020-07-27,5.380000114440918,5.75,5.360000133514404,5.510000228881836,5.510000228881836,413400
2020-07-28,5.480000019073486,5.650000095367432,5.309999942779541,5.610000133514404,5.610000133514404,187800
2020-07-29,5.659999847412109,5.789999961853027,5.340000152587891,5.619999885559082,5.619999885559082,41900
2020-07-30,5.53000020980835,6.489999771118164,5.320000171661377,6.050000190734863,6.050000190734863,331400
2020-07-31,5.849999904632568,5.849999904632568,5.329999923706055,5.349999904632568,5.349999904632568,64600
2020-08-03,5.409999847412109,6.090000152587891,5.21999979019165,5.309999942779541,5.309999942779541,210300
2020-08-04,5.309999942779541,5.730000019073486,5.309999942779541,5.4070000648498535,5.4070000648498535,282400
2020-08-05,5.409999847412109,6.199999809265137,5.409999847412109,5.948999881744385,5.948999881744385,232800
2020-08-06,5.510000228881836,6.03000020980835,5.5,5.78000020980835,5.78000020980835,181800
2020-08-07,5.769999980926514,5.96999979019165,5.639999866485596,5.710000038146973,5.710000038146973,48400
2020-08-10,5.710000038146973,5.929999828338623,5.699999809265137,5.78000020980835,5.78000020980835,108400
2020-08-11,5.670000076293945,5.900000095367432,5.420000076293945,5.440000057220459,5.440000057220459,82200
2020-08-12,5.46999979019165,5.690000057220459,5.369999885559082,5.519999980926514,5.519999980926514,88200
2020-08-13,5.400000095367432,5.539999961853027,5.269999980926514,5.28000020980835,5.28000020980835,21900
2020-08-14,5.300000190734863,5.449999809265137,5.300000190734863,5.389999866485596,5.389999866485596,17800
2020-08-17,5.329999923706055,5.429999828338623,5.019999980926514,5.119999885559082,5.119999885559082,74700
2020-08-18,5.050000190734863,6.0,5.010000228881836,5.150000095367432,5.150000095367432,361600
2020-08-19,5.25,6.769999980926514,5.25,5.619999885559082,5.619999885559082,1029900
2020-08-20,5.449999809265137,5.960000038146973,5.409999847412109,5.510000228881836,5.510000228881836,204300
2020-08-21,5.510000228881836,5.71999979019165,5.150000095367432,5.150000095367432,5.150000095367432,83900
2020-08-24,5.079999923706055,5.340000152587891,4.400000095367432,4.539999961853027,4.539999961853027,155000
2020-08-25,4.550000190734863,4.900000095367432,4.53000020980835,4.809999942779541,4.809999942779541,114400
2020-08-26,4.730000019073486,4.820000171661377,4.636000156402588,4.639999866485596,4.639999866485596,15300
2020-08-27,4.550000190734863,4.630000114440918,4.210000038146973,4.260000228881836,4.260000228881836,101900
2020-08-28,4.210000038146973,4.989999771118164,4.199999809265137,4.440000057220459,4.440000057220459,181200
2020-08-31,4.400000095367432,4.579999923706055,4.300000190734863,4.349999904632568,4.349999904632568,27700
2020-09-01,4.28000020980835,4.739999771118164,4.119999885559082,4.460000038146973,4.460000038146973,108900
2020-09-02,4.429999828338623,4.445000171661377,4.179999828338623,4.329999923706055,4.329999923706055,17800
2020-09-03,4.269999980926514,4.329999923706055,3.8299999237060547,4.090000152587891,4.090000152587891,76400
2020-09-04,4.059999942779541,4.059999942779541,3.799999952316284,3.8499999046325684,3.8499999046325684,58800
2020-09-08,3.809999942779541,4.010000228881836,3.569999933242798,3.569999933242798,3.569999933242798,11000
2020-09-09,3.5999999046325684,3.7200000286102295,3.240000009536743,3.2799999713897705,3.2799999713897705,51300
2020-09-10,3.359999895095825,3.819999933242798,3.306999921798706,3.5450000762939453,3.5450000762939453,179200
2020-09-11,3.5199999809265137,3.5399999618530273,3.1700000762939453,3.25,3.25,86400
2020-09-14,3.2200000286102295,3.7090001106262207,3.119999885559082,3.2300000190734863,3.2300000190734863,87700
2020-09-15,3.259999990463257,3.490000009536743,3.2190001010894775,3.2699999809265137,3.2699999809265137,34700
2020-09-16,3.259999990463257,3.369999885559082,3.0299999713897705,3.240000009536743,3.240000009536743,19800
2020-09-17,3.190000057220459,3.299999952316284,3.140000104904175,3.2899999618530273,3.2899999618530273,21100
2020-09-18,3.240000009536743,3.4800000190734863,3.2100000381469727,3.299999952316284,3.299999952316284,25100
2020-09-21,3.2699999809265137,3.3559999465942383,3.0299999713897705,3.0899999141693115,3.0899999141693115,26800
2020-09-22,3.2200000286102295,3.2200000286102295,2.8499999046325684,3.0,3.0,61200
2020-09-23,3.25,3.25,2.799999952316284,2.872999906539917,2.872999906539917,24000
2020-09-24,2.7899999618530273,2.809999942779541,2.5199999809265137,2.680000066757202,2.680000066757202,34800
2020-09-25,2.75,2.9800000190734863,2.7100000381469727,2.890000104904175,2.890000104904175,44400
2020-09-28,3.069999933242798,3.4800000190734863,2.9200000762939453,3.1600000858306885,3.1600000858306885,309200
2020-09-29,3.200000047683716,3.430999994277954,2.9679999351501465,3.265000104904175,3.265000104904175,130800
2020-09-30,3.440000057220459,3.75,3.200000047683716,3.680000066757202,3.680000066757202,131600
2020-10-01,3.7899999618530273,3.890000104904175,3.450000047683716,3.515000104904175,3.515000104904175,50800
2020-10-02,3.450000047683716,3.7200000286102295,3.390000104904175,3.390000104904175,3.390000104904175,46900
2020-10-05,3.319999933242798,3.566999912261963,3.319999933242798,3.4700000286102295,3.4700000286102295,17400
2020-10-06,3.4749999046325684,3.640000104904175,3.3570001125335693,3.390000104904175,3.390000104904175,14700
2020-10-07,3.5,3.5,3.240000009536743,3.259999990463257,3.259999990463257,9400
2020-10-08,3.2799999713897705,3.380000114440918,3.190000057220459,3.190000057220459,3.190000057220459,32300
2020-10-09,3.2699999809265137,3.299999952316284,3.200000047683716,3.200000047683716,3.200000047683716,5200
2020-10-12,3.390000104904175,7.769999980926514,3.390000104904175,6.869999885559082,6.869999885559082,14220800
2020-10-13,4.800000190734863,5.840000152587891,4.559999942779541,4.71999979019165,4.71999979019165,2105600
2020-10-14,4.590000152587891,4.590000152587891,4.159999847412109,4.380000114440918,4.380000114440918,276400
2020-10-15,4.179999828338623,4.590000152587891,4.179999828338623,4.550000190734863,4.550000190734863,151500
2020-10-16,4.409999847412109,4.949999809265137,4.320000171661377,4.840000152587891,4.840000152587891,227300
2020-10-19,4.829999923706055,5.190000057220459,4.599999904632568,4.849999904632568,4.849999904632568,175300
2020-10-20,4.869999885559082,4.949999809265137,4.670000076293945,4.809999942779541,4.809999942779541,37900
2020-10-21,4.599999904632568,4.760000228881836,4.511000156402588,4.71999979019165,4.71999979019165,49800
2020-10-22,4.699999809265137,4.840000152587891,4.300000190734863,4.320000171661377,4.320000171661377,103400
2020-10-23,4.320000171661377,5.099999904632568,4.293000221252441,4.53000020980835,4.53000020980835,389100
2020-10-26,4.599999904632568,4.920000076293945,4.329999923706055,4.380000114440918,4.380000114440918,72000
2020-10-27,4.349999904632568,4.454999923706055,4.210000038146973,4.289999961853027,4.289999961853027,31400
2020-10-28,4.260000228881836,4.300000190734863,4.099999904632568,4.099999904632568,4.099999904632568,27300
2020-10-29,4.110000133514404,4.349999904632568,4.099999904632568,4.099999904632568,4.099999904632568,31800
2020-10-30,4.110000133514404,4.4079999923706055,3.799999952316284,3.799999952316284,3.799999952316284,45000
2020-11-02,4.070000171661377,4.070000171661377,3.799999952316284,3.799999952316284,3.799999952316284,18000
2020-11-03,4.090000152587891,4.090000152587891,3.880000114440918,3.9000000953674316,3.9000000953674316,22300
2020-11-04,3.9100000858306885,4.099999904632568,3.799999952316284,3.799999952316284,3.799999952316284,21200
2020-11-05,3.8510000705718994,4.03000020980835,3.819999933242798,3.9000000953674316,3.9000000953674316,51300
2020-11-06,3.8299999237060547,4.340000152587891,3.8299999237060547,4.179999828338623,4.179999828338623,94500
2020-11-09,4.010000228881836,4.090000152587891,3.7699999809265137,3.9100000858306885,3.9100000858306885,65900
2020-11-10,3.9700000286102295,4.0,3.7300000190734863,3.9000000953674316,3.9000000953674316,37000
2020-11-11,3.819999933242798,3.9600000381469727,3.7699999809265137,3.869999885559082,3.869999885559082,17900
2020-11-12,3.869999885559082,4.599999904632568,3.869999885559082,4.289999961853027,4.289999961853027,276200
2020-11-13,4.409999847412109,4.440000057220459,4.050000190734863,4.369999885559082,4.369999885559082,82400
2020-11-16,4.571000099182129,4.571000099182129,4.254000186920166,4.28000020980835,4.28000020980835,27100
2020-11-17,4.28000020980835,4.400000095367432,4.119999885559082,4.14900016784668,4.14900016784668,17400
2020-11-18,4.139999866485596,4.748000144958496,4.139999866485596,4.400000095367432,4.400000095367432,260500
2020-11-19,4.480000019073486,4.590000152587891,4.190000057220459,4.400000095367432,4.400000095367432,115900
2020-11-20,4.400000095367432,4.400000095367432,4.197999954223633,4.329999923706055,4.329999923706055,31200
2020-11-23,4.300000190734863,4.380000114440918,4.260000228881836,4.340000152587891,4.340000152587891,25200
2020-11-24,4.260000228881836,4.659999847412109,4.260000228881836,4.46999979019165,4.46999979019165,113600
2020-11-25,4.659999847412109,5.28000020980835,4.300000190734863,4.78000020980835,4.78000020980835,436500
2020-11-27,4.650000095367432,4.703999996185303,4.28000020980835,4.364999771118164,4.364999771118164,85900
2020-11-30,4.400000095367432,4.690000057220459,4.199999809265137,4.429999828338623,4.429999828338623,83300
2020-12-01,4.360000133514404,4.639999866485596,4.289999961853027,4.340000152587891,4.340000152587891,72300
2020-12-02,4.260000228881836,4.329999923706055,4.059999942779541,4.119999885559082,4.119999885559082,86700
2020-12-03,4.119999885559082,4.409999847412109,4.099999904632568,4.340000152587891,4.340000152587891,70700
2020-12-04,4.28000020980835,4.46999979019165,4.170000076293945,4.179999828338623,4.179999828338623,43800
2020-12-07,4.170000076293945,4.336999893188477,4.130000114440918,4.300000190734863,4.300000190734863,31300
2020-12-08,4.349999904632568,4.349999904632568,4.170000076293945,4.190000057220459,4.190000057220459,29200
2020-12-09,4.010000228881836,4.130000114440918,3.8399999141693115,4.019999980926514,4.019999980926514,99600
2020-12-10,4.019999980926514,4.269999980926514,3.9100000858306885,4.170000076293945,4.170000076293945,107200
2020-12-11,4.120999813079834,4.135000228881836,3.9800000190734863,4.099999904632568,4.099999904632568,11600
2020-12-14,4.070000171661377,4.090000152587891,3.930000066757202,4.03000020980835,4.03000020980835,29700
2020-12-15,4.03000020980835,4.090000152587891,3.950000047683716,4.039999961853027,4.039999961853027,15000
2020-12-16,4.039999961853027,4.110000133514404,3.859999895095825,4.019999980926514,4.019999980926514,12300
2020-12-17,3.990000009536743,4.210000038146973,3.944999933242798,4.039999961853027,4.039999961853027,77300
2020-12-18,4.019999980926514,4.090000152587891,3.940000057220459,4.070000171661377,4.070000171661377,23700
2020-12-21,3.9800000190734863,4.130000114440918,3.890000104904175,3.9000000953674316,3.9000000953674316,47000
2020-12-22,3.890000104904175,3.990000009536743,3.6600000858306885,3.680000066757202,3.680000066757202,28000
2020-12-23,3.740000009536743,3.8399999141693115,3.7100000381469727,3.75,3.75,25300
2020-12-24,3.819999933242798,3.8499999046325684,3.75,3.7769999504089355,3.7769999504089355,13400
2020-12-28,3.799999952316284,5.150000095367432,3.700000047683716,3.8299999237060547,3.8299999237060547,663300
2020-12-29,4.48199987411499,6.369999885559082,3.9600000381469727,4.570000171661377,4.570000171661377,2459400
2020-12-30,4.179999828338623,4.300000190734863,3.859999895095825,3.990000009536743,3.990000009536743,204000
