Date,Open,High,Low,Close,Adj Close,Volume
2018-02-08,21.100000381469727,21.84000015258789,19.860000610351562,20.25,19.71973419189453,14956100
2018-02-09,20.360000610351562,21.100000381469727,19.18000030517578,20.399999618530273,19.86580467224121,1350600
2018-02-12,20.420000076293945,21.479999542236328,20.420000076293945,20.899999618530273,20.352712631225586,529500
2018-02-13,20.5,22.579999923706055,20.5,21.43000030517578,20.868833541870117,717800
2018-02-14,20.6299991607666,23.739999771118164,20.6200008392334,22.0,21.423906326293945,1418000
2018-02-15,22.020000457763672,23.610000610351562,21.917999267578125,23.40999984741211,22.79698371887207,568300
2018-02-16,23.3700008392334,24.790000915527344,23.02400016784668,24.56999969482422,23.926607131958008,566800
2018-02-20,24.56999969482422,25.0,24.510000228881836,24.84000015258789,24.189538955688477,637700
2018-02-21,24.790000915527344,25.75,24.174999237060547,24.68000030517578,24.033729553222656,592900
2018-02-22,24.270000457763672,25.200000762939453,23.790000915527344,25.190000534057617,24.530372619628906,607000
2018-02-23,25.190000534057617,25.25,24.709999084472656,25.200000762939453,24.54011344909668,461900
2018-02-26,25.0,25.5,24.690000534057617,25.219999313354492,24.559585571289062,446600
2018-02-27,25.030000686645508,25.43000030517578,24.780000686645508,25.239999771118164,24.579063415527344,248000
2018-02-28,25.25,25.399999618530273,23.600000381469727,24.610000610351562,23.965560913085938,537100
2018-03-01,24.549999237060547,24.579999923706055,23.760000228881836,24.540000915527344,23.89739418029785,580100
2018-03-02,24.59000015258789,24.719999313354492,23.690000534057617,24.65999984741211,24.014253616333008,323500
2018-03-05,24.610000610351562,25.219999313354492,23.809999465942383,24.93000030517578,24.277183532714844,749000
2018-03-06,25.139999389648438,26.270000457763672,25.0,25.610000610351562,24.939374923706055,553900
2018-03-07,25.469999313354492,25.940000534057617,24.84000015258789,25.479999542236328,24.812780380249023,340900
2018-03-08,25.530000686645508,26.030000686645508,25.170000076293945,26.030000686645508,25.348377227783203,264500
2018-03-09,26.239999771118164,26.993999481201172,25.510000228881836,26.329999923706055,25.640520095825195,375700
2018-03-12,26.3799991607666,27.489999771118164,26.160999298095703,26.850000381469727,26.14690589904785,319600
2018-03-13,27.139999389648438,27.790000915527344,26.6299991607666,26.68000030517578,25.98135757446289,434000
2018-03-14,26.760000228881836,27.770000457763672,26.0,27.309999465942383,26.594860076904297,376900
2018-03-15,27.25,27.959999084472656,25.954999923706055,26.270000457763672,25.58209228515625,417300
2018-03-16,26.290000915527344,26.5,25.649999618530273,26.43000030517578,25.737903594970703,3311300
2018-03-19,26.530000686645508,27.200000762939453,26.354999542236328,27.15999984741211,26.448789596557617,281600
2018-03-20,27.299999237060547,27.309999465942383,26.65999984741211,27.190000534057617,26.478002548217773,158200
2018-03-21,27.239999771118164,27.469999313354492,27.09000015258789,27.3700008392334,26.653289794921875,98700
2018-03-22,27.200000762939453,27.3700008392334,26.79199981689453,27.100000381469727,26.39035987854004,93500
2018-03-23,27.25,27.3700008392334,26.610000610351562,26.6200008392334,25.922927856445312,297400
2018-03-26,26.84000015258789,27.479999542236328,26.7450008392334,27.200000762939453,26.48773765563965,630000
2018-03-27,27.290000915527344,27.489999771118164,26.149999618530273,26.389999389648438,25.698949813842773,146600
2018-03-28,26.329999923706055,26.709999084472656,25.770000457763672,26.559999465942383,25.864498138427734,278700
2018-03-29,26.68000030517578,27.0,26.559999465942383,26.93000030517578,26.224809646606445,393700
2018-04-02,26.899999618530273,27.499000549316406,26.18000030517578,26.34000015258789,25.65026092529297,267100
2018-04-03,26.479999542236328,26.541000366210938,25.600000381469727,26.059999465942383,25.377592086791992,294300
2018-04-04,25.790000915527344,26.899999618530273,25.579999923706055,26.65999984741211,25.96187973022461,125900
2018-04-05,26.760000228881836,27.5,26.399999618530273,27.149999618530273,26.439048767089844,419600
2018-04-06,27.229999542236328,27.75,25.649999618530273,26.049999237060547,25.36785316467285,399400
2018-04-09,26.1200008392334,26.940000534057617,25.614999771118164,26.65999984741211,25.96187973022461,307000
2018-04-10,26.81999969482422,27.599000930786133,26.711000442504883,27.360000610351562,26.6435489654541,249500
2018-04-11,27.350000381469727,28.799999237060547,27.350000381469727,27.799999237060547,27.0720272064209,726100
2018-04-12,27.920000076293945,28.780000686645508,26.990999221801758,27.139999389648438,26.429309844970703,274000
2018-04-13,27.270000457763672,27.729999542236328,25.3700008392334,26.920000076293945,26.21507453918457,417200
2018-04-16,27.010000228881836,28.110000610351562,27.0,27.389999389648438,26.672761917114258,322600
2018-04-17,27.489999771118164,28.0,26.899999618530273,27.899999618530273,27.169408798217773,369600
2018-04-18,28.059999465942383,29.1299991607666,28.059999465942383,28.709999084472656,27.95819854736328,390500
2018-04-19,28.760000228881836,29.850000381469727,27.579999923706055,28.1200008392334,27.383649826049805,356100
2018-04-20,28.040000915527344,29.219999313354492,27.729999542236328,29.190000534057617,28.42563247680664,133000
2018-04-23,29.18000030517578,29.959999084472656,28.83300018310547,29.799999237060547,29.019657135009766,289700
2018-04-24,29.780000686645508,29.809999465942383,28.440000534057617,28.510000228881836,27.76344108581543,172900
2018-04-25,28.420000076293945,28.729999542236328,27.399999618530273,27.850000381469727,27.12071990966797,260800
2018-04-26,27.860000610351562,29.139999389648438,27.350000381469727,28.399999618530273,27.65631866455078,171600
2018-04-27,28.399999618530273,29.020000457763672,27.549999237060547,28.959999084472656,28.201650619506836,298900
2018-04-30,28.899999618530273,29.450000762939453,28.3799991607666,28.709999084472656,27.95819854736328,166200
2018-05-01,28.56999969482422,28.809999465942383,27.229999542236328,28.639999389648438,27.890029907226562,181500
2018-05-02,28.5,29.209999084472656,28.3700008392334,28.639999389648438,27.890029907226562,95000
2018-05-03,28.520000457763672,29.010000228881836,27.854999542236328,28.420000076293945,27.675792694091797,129800
2018-05-04,28.399999618530273,29.350000381469727,28.229999542236328,29.110000610351562,28.34772491455078,93300
2018-05-07,29.209999084472656,30.190000534057617,29.020000457763672,29.229999542236328,28.464582443237305,303600
2018-05-08,29.190000534057617,29.670000076293945,28.510000228881836,29.329999923706055,28.56196403503418,182800
2018-05-09,29.459999084472656,30.719999313354492,29.280000686645508,29.799999237060547,29.019657135009766,163900
2018-05-10,31.729999542236328,31.809999465942383,29.559999465942383,31.100000381469727,30.285614013671875,687400
2018-05-11,31.329999923706055,32.459999084472656,31.309999465942383,31.989999771118164,31.15230941772461,246000
2018-05-14,32.43000030517578,33.529998779296875,32.0,32.9900016784668,32.126121520996094,358500
2018-05-15,33.349998474121094,35.22999954223633,33.310001373291016,34.310001373291016,33.41155242919922,524300
2018-05-16,34.47999954223633,36.38999938964844,34.2599983215332,34.459999084472656,33.55763244628906,819600
2018-05-17,34.5099983215332,36.0,34.5099983215332,35.279998779296875,34.35615158081055,548700
2018-05-18,35.38999938964844,36.005001068115234,35.02000045776367,35.88999938964844,34.95018768310547,680500
2018-05-21,35.97999954223633,36.11000061035156,34.56999969482422,35.959999084472656,35.018348693847656,470600
2018-05-22,36.0,37.499000549316406,35.915000915527344,36.16999816894531,35.22285079956055,339100
2018-05-23,36.150001525878906,36.16999816894531,34.04999923706055,35.2400016784668,34.317203521728516,481100
2018-05-24,35.279998779296875,35.689998626708984,34.5,34.83000183105469,33.91794204711914,170400
2018-05-25,34.540000915527344,34.540000915527344,33.09000015258789,33.529998779296875,32.65198516845703,230700
2018-05-29,33.2400016784668,33.599998474121094,32.2400016784668,32.88999938964844,32.02873611450195,283900
2018-05-30,33.189998626708984,33.79100036621094,32.84000015258789,33.25,32.37931442260742,292900
2018-05-31,33.130001068115234,34.18000030517578,32.540000915527344,33.720001220703125,32.837005615234375,465400
2018-06-01,33.939998626708984,34.58000183105469,31.520000457763672,31.90999984741211,31.07440185546875,374100
2018-06-04,32.060001373291016,32.25,29.68000030517578,30.649999618530273,29.847396850585938,546400
2018-06-05,30.610000610351562,30.860000610351562,29.020000457763672,30.43000030517578,29.633159637451172,709900
2018-06-06,30.420000076293945,32.56999969482422,30.364999771118164,32.47999954223633,31.629474639892578,472800
2018-06-07,32.5,33.540000915527344,32.32500076293945,33.27000045776367,32.39879608154297,175900
2018-06-08,33.18000030517578,33.61000061035156,32.80500030517578,33.0,32.13585662841797,192400
2018-06-11,33.130001068115234,33.4900016784668,32.040000915527344,32.52000045776367,31.668428421020508,256300
2018-06-12,32.689998626708984,33.52000045776367,32.380001068115234,32.65999984741211,31.80476188659668,212200
2018-06-13,32.810001373291016,33.43000030517578,32.099998474121094,32.40999984741211,31.561309814453125,257200
2018-06-14,32.43000030517578,33.130001068115234,31.299999237060547,32.08000183105469,31.23995590209961,226200
2018-06-15,31.920000076293945,32.650001525878906,30.65999984741211,31.450000762939453,30.62645149230957,885500
2018-06-18,31.290000915527344,32.08000183105469,30.5,31.6200008392334,30.7919979095459,252500
2018-06-19,31.389999389648438,31.545000076293945,30.0,30.979999542236328,30.168752670288086,162500
2018-06-20,31.059999465942383,31.780000686645508,30.530000686645508,31.559999465942383,30.73356819152832,141700
2018-06-21,31.649999618530273,33.380001068115234,31.2549991607666,32.349998474121094,31.502878189086914,537300
2018-06-22,33.13999938964844,34.560001373291016,33.0,34.0099983215332,33.11941146850586,1338400
2018-06-25,33.2599983215332,33.94599914550781,31.690000534057617,32.849998474121094,31.989788055419922,598100
2018-06-26,33.0,34.349998474121094,32.61000061035156,34.029998779296875,33.13888931274414,310700
2018-06-27,34.31999969482422,35.185001373291016,33.689998626708984,34.29999923706055,33.40181350708008,252900
2018-06-28,34.2400016784668,34.880001068115234,33.45000076293945,33.970001220703125,33.08045959472656,250500
2018-06-29,33.959999084472656,33.959999084472656,32.64799880981445,33.790000915527344,32.905174255371094,359400
2018-07-02,33.630001068115234,33.630001068115234,32.48500061035156,33.13999938964844,32.272193908691406,322400
2018-07-03,33.45000076293945,34.439998626708984,32.91999816894531,33.47999954223633,32.603294372558594,154100
2018-07-05,33.68000030517578,34.029998779296875,33.130001068115234,33.59000015258789,32.710411071777344,249000
2018-07-06,33.59000015258789,35.45000076293945,33.40999984741211,34.08000183105469,33.187583923339844,383500
2018-07-09,35.290000915527344,37.380001068115234,35.040000915527344,35.599998474121094,34.66777801513672,1074000
2018-07-10,34.22999954223633,36.47999954223633,32.61000061035156,33.689998626708984,32.80779266357422,2028100
2018-07-11,33.20000076293945,33.9900016784668,32.02000045776367,33.650001525878906,32.76884460449219,994300
2018-07-12,34.099998474121094,34.91999816894531,33.0,33.56999969482422,32.69093704223633,5774600
2018-07-13,33.56999969482422,34.18000030517578,33.099998474121094,33.66999816894531,32.78831100463867,1056800
2018-07-16,33.619998931884766,33.9900016784668,32.720001220703125,33.27000045776367,32.39879608154297,2482400
2018-07-17,33.130001068115234,34.779998779296875,32.86000061035156,33.790000915527344,32.905174255371094,1156100
2018-07-18,34.540000915527344,34.619998931884766,33.34000015258789,34.029998779296875,33.13888931274414,789800
2018-07-19,33.900001525878906,34.84000015258789,33.5099983215332,34.77000045776367,33.85951232910156,748000
2018-07-20,34.77000045776367,35.275001525878906,34.43000030517578,34.83000183105469,33.91794204711914,514300
2018-07-23,34.7599983215332,35.20000076293945,33.845001220703125,34.369998931884766,33.46998977661133,852000
2018-07-24,34.529998779296875,34.779998779296875,33.060001373291016,33.59000015258789,32.710411071777344,1195500
2018-07-25,33.689998626708984,33.689998626708984,31.59000015258789,32.25,31.405502319335938,991500
2018-07-26,32.25,33.20000076293945,32.08000183105469,32.7400016784668,31.882671356201172,599300
2018-07-27,32.70000076293945,32.70000076293945,31.649999618530273,32.06999969482422,31.23021697998047,326200
2018-07-30,32.08000183105469,32.880001068115234,31.360000610351562,32.150001525878906,31.308122634887695,688100
2018-07-31,32.560001373291016,33.22999954223633,32.224998474121094,32.720001220703125,31.863195419311523,1248000
2018-08-01,32.65999984741211,33.27000045776367,31.760000228881836,33.0,32.13585662841797,784500
2018-08-02,32.709999084472656,35.04999923706055,32.542999267578125,34.310001373291016,33.41155242919922,928600
2018-08-03,32.709999084472656,34.4900016784668,32.709999084472656,33.47999954223633,32.603294372558594,1313900
2018-08-06,33.709999084472656,34.810001373291016,33.529998779296875,34.63999938964844,33.732913970947266,708800
2018-08-07,35.0,35.66999816894531,34.0099983215332,34.08000183105469,33.187583923339844,505800
2018-08-08,34.06999969482422,34.61000061035156,33.599998474121094,34.560001373291016,33.65501403808594,290700
2018-08-09,34.599998474121094,34.70000076293945,33.40999984741211,34.15999984741211,33.265480041503906,336600
2018-08-10,34.290000915527344,35.349998474121094,33.959999084472656,34.20000076293945,33.304439544677734,321200
2018-08-13,34.099998474121094,34.64500045776367,32.90999984741211,33.77000045776367,32.88570022583008,607200
2018-08-14,34.0,34.5,33.560001373291016,33.810001373291016,32.924652099609375,306500
2018-08-15,33.56999969482422,33.56999969482422,31.40999984741211,31.729999542236328,30.89911651611328,545100
2018-08-16,32.0,32.47999954223633,31.510000228881836,32.400001525878906,31.551570892333984,457700
2018-08-17,32.34000015258789,32.849998474121094,31.889999389648438,32.810001373291016,31.95083999633789,345100
2018-08-20,32.810001373291016,33.41999816894531,32.400001525878906,33.0099983215332,32.14559555053711,385400
2018-08-21,33.25,33.709999084472656,32.88999938964844,33.06999969482422,32.20402526855469,359200
2018-08-22,33.189998626708984,33.79999923706055,33.15999984741211,33.45000076293945,32.57408142089844,349700
2018-08-23,33.45000076293945,33.650001525878906,33.1349983215332,33.38999938964844,32.515655517578125,313400
2018-08-24,33.630001068115234,33.83000183105469,33.25,33.470001220703125,32.59355545043945,387300
2018-08-27,33.54999923706055,34.08000183105469,33.27000045776367,33.75,32.866214752197266,377700
2018-08-28,33.900001525878906,34.2599983215332,33.310001373291016,33.689998626708984,32.80779266357422,379600
2018-08-29,33.779998779296875,34.22999954223633,33.61000061035156,34.13999938964844,33.246002197265625,370700
2018-08-30,34.72999954223633,35.40999984741211,34.34000015258789,34.93000030517578,34.01531982421875,475300
2018-08-31,34.91999816894531,34.91999816894531,33.72999954223633,34.18000030517578,33.28496170043945,381100
2018-09-04,34.220001220703125,36.47999954223633,34.220001220703125,35.5,34.57040023803711,694600
2018-09-05,35.470001220703125,35.470001220703125,33.845001220703125,34.16999816894531,33.27522277832031,524200
2018-09-06,34.15999984741211,34.16999816894531,32.40999984741211,33.310001373291016,32.437744140625,847000
2018-09-07,32.970001220703125,33.84000015258789,32.779998779296875,33.779998779296875,32.89543533325195,327200
2018-09-10,33.97999954223633,35.18000030517578,33.80099868774414,35.099998474121094,34.180870056152344,497100
2018-09-11,35.060001373291016,35.619998931884766,34.4900016784668,35.38999938964844,34.46327209472656,265300
2018-09-12,35.5099983215332,36.439998626708984,34.560001373291016,34.709999084472656,33.80108642578125,437000
2018-09-13,34.83000183105469,35.345001220703125,34.34000015258789,34.70000076293945,33.79134750366211,232000
2018-09-14,35.029998779296875,35.619998931884766,34.58000183105469,35.54999923706055,34.61908721923828,227100
2018-09-17,35.529998779296875,36.32500076293945,33.90999984741211,34.68000030517578,33.77186965942383,536100
2018-09-18,34.88999938964844,36.189998626708984,34.15999984741211,35.91999816894531,34.97939682006836,410400
2018-09-19,36.400001525878906,38.84000015258789,36.31999969482422,37.06999969482422,36.09928894042969,729800
2018-09-20,37.2599983215332,37.79999923706055,35.709999084472656,36.279998779296875,35.32997512817383,466100
2018-09-21,36.27000045776367,36.91999816894531,36.02000045776367,36.70000076293945,35.73897171020508,794100
2018-09-24,37.0,38.15999984741211,36.81999969482422,37.29999923706055,36.32326126098633,590700
2018-09-25,37.63999938964844,38.72999954223633,36.41999816894531,36.58000183105469,35.62211990356445,596000
2018-09-26,36.58000183105469,36.849998474121094,35.68000030517578,36.470001220703125,35.51499938964844,634500
2018-09-27,36.650001525878906,37.599998474121094,35.25,37.189998626708984,36.21614074707031,483900
2018-09-28,37.0099983215332,38.66999816894531,36.470001220703125,38.279998779296875,37.27759552001953,789500
2018-10-01,38.56999969482422,39.13999938964844,37.599998474121094,38.5,37.49184036254883,600000
2018-10-02,38.529998779296875,39.380001068115234,37.810001373291016,38.18000030517578,37.180213928222656,405600
2018-10-03,38.5,39.709999084472656,37.060001373291016,38.77000045776367,37.754764556884766,530800
2018-10-04,38.43000030517578,40.45000076293945,38.34600067138672,39.7599983215332,38.718841552734375,508900
2018-10-05,39.75,40.23500061035156,39.0099983215332,40.150001525878906,39.098628997802734,373200
2018-10-08,39.90999984741211,40.71500015258789,39.09000015258789,40.45000076293945,39.390769958496094,270400
2018-10-09,40.540000915527344,40.970001220703125,39.79999923706055,40.5,39.43946838378906,536600
2018-10-10,40.5,40.95000076293945,37.9900016784668,38.75,37.73529052734375,898800
2018-10-11,38.279998779296875,38.900001525878906,36.93000030517578,37.150001525878906,36.17719268798828,445600
2018-10-12,37.849998474121094,38.18000030517578,36.65999984741211,37.16999816894531,36.196659088134766,319600
2018-10-15,37.349998474121094,37.79999923706055,36.39500045776367,37.47999954223633,36.49854278564453,330000
2018-10-16,37.63999938964844,39.189998626708984,37.349998474121094,38.90999984741211,37.8911018371582,485900
2018-10-17,38.75,39.43000030517578,37.560001373291016,38.060001373291016,37.06336212158203,357900
2018-10-18,37.61000061035156,38.099998474121094,36.66999816894531,36.72999954223633,35.7681884765625,343700
2018-10-19,36.83000183105469,37.744998931884766,36.4900016784668,36.75,35.787662506103516,358200
2018-10-22,36.779998779296875,37.099998474121094,35.599998474121094,36.349998474121094,35.39814376831055,279400
2018-10-23,35.290000915527344,35.290000915527344,34.08000183105469,34.47999954223633,33.57710266113281,465700
2018-10-24,34.68000030517578,34.744998931884766,32.86000061035156,32.90999984741211,32.0482177734375,670400
2018-10-25,33.349998474121094,34.77000045776367,32.9900016784668,33.0,32.13585662841797,637400
2018-10-26,32.43000030517578,34.529998779296875,32.13999938964844,33.599998474121094,32.72014617919922,607300
2018-10-29,34.0,34.18199920654297,31.989999771118164,32.439998626708984,31.59052848815918,433900
2018-10-30,32.290000915527344,33.79999923706055,32.02000045776367,33.5,32.62276840209961,319100
2018-10-31,33.95000076293945,34.51499938964844,33.18000030517578,33.459999084472656,32.58381271362305,785900
2018-11-01,34.119998931884766,35.665000915527344,31.43000030517578,35.06999969482422,34.15165328979492,1461400
2018-11-02,35.540000915527344,37.560001373291016,35.310001373291016,36.349998474121094,35.39814376831055,573100
2018-11-05,36.650001525878906,37.04999923706055,35.810001373291016,37.02000045776367,36.050594329833984,295500
2018-11-06,37.0,37.83000183105469,36.369998931884766,37.310001373291016,36.333003997802734,396400
2018-11-07,37.84000015258789,38.029998779296875,36.59000015258789,37.90999984741211,36.917293548583984,376800
2018-11-08,37.779998779296875,38.0,36.64400100708008,36.939998626708984,35.972686767578125,258000
2018-11-09,36.529998779296875,36.529998779296875,35.5,36.15999984741211,35.21311569213867,333500
2018-11-12,36.2400016784668,36.380001068115234,34.869998931884766,34.91999816894531,34.005584716796875,188300
2018-11-13,34.939998626708984,35.62200164794922,32.650001525878906,33.08000183105469,32.21376419067383,476200
2018-11-14,33.7599983215332,33.834999084472656,31.860000610351562,32.41999816894531,31.571044921875,680900
2018-11-15,32.09000015258789,32.89500045776367,31.799999237060547,32.33000183105469,31.483407974243164,973000
2018-11-16,32.290000915527344,32.84000015258789,30.649999618530273,31.309999465942383,30.4901180267334,685300
2018-11-19,31.020000457763672,32.130001068115234,30.469999313354492,31.299999237060547,30.480377197265625,1489700
2018-11-20,30.56999969482422,31.049999237060547,27.920000076293945,29.299999237060547,28.532747268676758,1422500
2018-11-21,29.770000457763672,30.469999313354492,29.709999084472656,29.760000228881836,28.98070526123047,481800
2018-11-23,28.860000610351562,29.770000457763672,28.49799919128418,28.639999389648438,27.890029907226562,268700
2018-11-26,28.989999771118164,29.31999969482422,28.149999618530273,28.8700008392334,28.1140079498291,752700
2018-11-27,28.75,29.469999313354492,28.684999465942383,28.989999771118164,28.230863571166992,406300
2018-11-28,28.989999771118164,29.31999969482422,28.020000457763672,28.979999542236328,28.221126556396484,342700
2018-11-29,29.049999237060547,29.43000030517578,28.43000030517578,29.010000228881836,28.250343322753906,345400
2018-11-30,28.709999084472656,29.209999084472656,28.479999542236328,28.8799991607666,28.12374496459961,405400
2018-12-03,29.90999984741211,31.270000457763672,29.65999984741211,31.170000076293945,30.353778839111328,425000
2018-12-04,30.93000030517578,31.079999923706055,30.059999465942383,30.110000610351562,29.32154083251953,700200
2018-12-06,29.5,29.860000610351562,28.56999969482422,29.84000015258789,29.058609008789062,521600
2018-12-07,30.459999084472656,31.145000457763672,28.93000030517578,29.3700008392334,28.600919723510742,628000
2018-12-10,28.889999389648438,29.219999313354492,27.7450008392334,28.18000030517578,27.442075729370117,329500
2018-12-11,29.049999237060547,29.069000244140625,28.040000915527344,28.420000076293945,27.675792694091797,316400
2018-12-12,28.8700008392334,29.479999542236328,28.59000015258789,29.030000686645508,28.269819259643555,315800
2018-12-13,29.010000228881836,29.010000228881836,28.280000686645508,28.600000381469727,27.851078033447266,153800
2018-12-14,28.25,28.399999618530273,27.31999969482422,27.790000915527344,27.062292098999023,521600
2018-12-17,27.770000457763672,28.93000030517578,27.579999923706055,28.0,27.26679229736328,425900
2018-12-18,27.989999771118164,28.239999771118164,27.350000381469727,27.540000915527344,26.818838119506836,495900
2018-12-19,27.5,28.389999389648438,26.459999084472656,26.760000228881836,26.059261322021484,280200
2018-12-20,26.510000228881836,27.260000228881836,25.920000076293945,26.290000915527344,25.60157012939453,436900
2018-12-21,26.260000228881836,26.559999465942383,25.530000686645508,25.93000030517578,25.25099754333496,560800
2018-12-24,25.59000015258789,25.860000610351562,25.020000457763672,25.229999542236328,24.569324493408203,173500
2018-12-26,25.34000015258789,27.0,24.600000381469727,26.93000030517578,26.224809646606445,357000
2018-12-27,26.360000610351562,27.1299991607666,25.780000686645508,27.100000381469727,26.39035987854004,331800
2018-12-28,27.389999389648438,27.790000915527344,26.450000762939453,27.270000457763672,26.555906295776367,285600
2018-12-31,27.540000915527344,27.760000228881836,26.631000518798828,27.40999984741211,26.69223976135254,295500
2019-01-02,27.15999984741211,28.795000076293945,26.940000534057617,28.530000686645508,27.782913208007812,334700
2019-01-03,28.420000076293945,28.600000381469727,27.260000228881836,28.3799991607666,27.6368408203125,300900
2019-01-04,28.860000610351562,29.65999984741211,28.341999053955078,29.530000686645508,28.756725311279297,380100
2019-01-07,29.479999542236328,30.360000610351562,28.459999084472656,29.700000762939453,28.922273635864258,393200
2019-01-08,30.170000076293945,30.385000228881836,28.790000915527344,28.8799991607666,28.12374496459961,388800
2019-01-09,29.270000457763672,29.850000381469727,28.81100082397461,29.43000030517578,28.659345626831055,156000
2019-01-10,29.479999542236328,30.670000076293945,28.950000762939453,30.6200008392334,29.81818389892578,191700
2019-01-11,30.479999542236328,30.639999389648438,29.3799991607666,29.920000076293945,29.13651466369629,308400
2019-01-14,29.510000228881836,30.75,29.299999237060547,29.65999984741211,28.88332176208496,230000
2019-01-15,29.940000534057617,30.489999771118164,29.579999923706055,30.229999542236328,29.438396453857422,168000
2019-01-16,30.209999084472656,31.510000228881836,29.91699981689453,31.200000762939453,30.38299560546875,234600
2019-01-17,31.100000381469727,32.18000030517578,31.062999725341797,31.8700008392334,31.035451889038086,279800
2019-01-18,32.27000045776367,32.7599983215332,31.959999084472656,32.220001220703125,31.37628746032715,329600
2019-01-22,32.0,32.0,30.920000076293945,31.3799991607666,30.55828094482422,292800
2019-01-23,31.68000030517578,31.959999084472656,31.010000228881836,31.239999771118164,30.421947479248047,346500
2019-01-24,31.260000228881836,32.459999084472656,31.235000610351562,32.349998474121094,31.502878189086914,388700
2019-01-25,32.70000076293945,33.45000076293945,32.45000076293945,32.9900016784668,32.126121520996094,137400
2019-01-28,32.459999084472656,32.68000030517578,31.56999969482422,32.290000915527344,31.44445037841797,183100
2019-01-29,32.58000183105469,32.83000183105469,32.029998779296875,32.43000030517578,31.580787658691406,164200
2019-01-30,32.72999954223633,33.0,31.926000595092773,32.61000061035156,31.75606918334961,322000
2019-01-31,32.66999816894531,33.22999954223633,32.59000015258789,32.81999969482422,31.960569381713867,167500
2019-02-01,33.09000015258789,33.310001373291016,32.880001068115234,33.150001525878906,32.28194046020508,158000
2019-02-04,33.02000045776367,33.279998779296875,32.52000045776367,33.130001068115234,32.262454986572266,103900
2019-02-05,33.16999816894531,33.68000030517578,32.59000015258789,33.31999969482422,32.44748306274414,244500
2019-02-06,33.209999084472656,33.564998626708984,33.029998779296875,33.380001068115234,32.50591278076172,181400
2019-02-07,34.33000183105469,35.367000579833984,31.920000076293945,32.790000915527344,31.931364059448242,423800
2019-02-08,32.54999923706055,33.400001525878906,32.029998779296875,32.060001373291016,31.220474243164062,147800
2019-02-11,32.0,33.382999420166016,31.690000534057617,33.29999923706055,32.428001403808594,389000
2019-02-12,33.560001373291016,34.439998626708984,33.34000015258789,34.400001525878906,33.49919891357422,278800
2019-02-13,34.5,35.2599983215332,34.47999954223633,35.08000183105469,34.16139602661133,324400
2019-02-14,35.18000030517578,35.959999084472656,34.81999969482422,35.70000076293945,34.765159606933594,188900
2019-02-15,36.0,36.83000183105469,35.33000183105469,36.599998474121094,35.6415901184082,296000
2019-02-19,36.470001220703125,37.47999954223633,36.439998626708984,36.83000183105469,35.86557388305664,179200
2019-02-20,37.0,37.849998474121094,36.65999984741211,37.2599983215332,36.284305572509766,237200
2019-02-21,37.06999969482422,37.3489990234375,35.56999969482422,36.29999923706055,35.34945297241211,166100
2019-02-22,36.720001220703125,36.720001220703125,34.91999816894531,35.779998779296875,34.84305953979492,516500
2019-02-25,35.83000183105469,36.47999954223633,35.31999969482422,35.34000015258789,34.41458511352539,417700
2019-02-26,35.45000076293945,36.33000183105469,35.27000045776367,35.91999816894531,34.97939682006836,403900
2019-02-27,36.0,37.43000030517578,35.7599983215332,36.849998474121094,35.885040283203125,360600
2019-02-28,36.869998931884766,37.220001220703125,35.69499969482422,36.2599983215332,35.31049346923828,200900
2019-03-01,36.5,37.27000045776367,36.38999938964844,36.970001220703125,36.00190353393555,157200
2019-03-04,37.15999984741211,37.28499984741211,36.15999984741211,36.900001525878906,35.933738708496094,190100
2019-03-05,36.959999084472656,37.18199920654297,36.0,36.459999084472656,35.50525665283203,119300
2019-03-06,36.209999084472656,36.47999954223633,34.599998474121094,35.59000015258789,34.65803909301758,362900
2019-03-07,34.16999816894531,36.90999984741211,33.0,36.08000183105469,35.13521194458008,527500
2019-03-08,36.43000030517578,37.15999984741211,35.33000183105469,36.5099983215332,35.55394744873047,820800
2019-03-11,36.959999084472656,37.98899841308594,36.75,37.459999084472656,36.479068756103516,732800
2019-03-12,37.599998474121094,37.84000015258789,36.459999084472656,36.869998931884766,35.90452194213867,334000
2019-03-13,37.20000076293945,37.849998474121094,36.59000015258789,37.349998474121094,36.3719482421875,446200
2019-03-14,37.470001220703125,37.72999954223633,37.11000061035156,37.290000915527344,36.31351852416992,284300
2019-03-15,37.209999084472656,38.220001220703125,36.59000015258789,37.459999084472656,36.479068756103516,965700
2019-03-18,37.45000076293945,38.68000030517578,37.29999923706055,37.720001220703125,36.73226547241211,576700
2019-03-19,35.93000030517578,36.790000915527344,35.310001373291016,35.880001068115234,34.9404411315918,6849200
2019-03-20,35.90999984741211,37.130001068115234,35.31999969482422,36.790000915527344,35.82661437988281,1435400
2019-03-21,36.7400016784668,37.470001220703125,36.375,37.25,36.27457046508789,833000
2019-03-22,37.02000045776367,37.02000045776367,34.7599983215332,34.84000015258789,33.92768096923828,467000
2019-03-25,34.70000076293945,37.040000915527344,34.2599983215332,36.02000045776367,35.0767707824707,491900
2019-03-26,36.459999084472656,36.845001220703125,35.779998779296875,35.97999954223633,35.03782272338867,467900
2019-03-27,35.79999923706055,36.29499816894531,35.119998931884766,35.400001525878906,34.4730110168457,432900
2019-03-28,34.959999084472656,36.08000183105469,34.7400016784668,35.939998626708984,34.998870849609375,689400
2019-03-29,36.380001068115234,36.380001068115234,35.369998931884766,35.599998474121094,34.66777801513672,961300
2019-04-01,35.91999816894531,36.44499969482422,35.880001068115234,36.25,35.30075454711914,427900
2019-04-02,36.2400016784668,36.28499984741211,35.83000183105469,35.9900016784668,35.047569274902344,372700
2019-04-03,36.22999954223633,36.54999923706055,35.689998626708984,35.7599983215332,34.823585510253906,313000
2019-04-04,35.779998779296875,36.720001220703125,35.66999816894531,36.689998626708984,35.7292366027832,593000
2019-04-05,36.880001068115234,37.79999923706055,36.334999084472656,37.709999084472656,36.72252655029297,637000
2019-04-08,37.709999084472656,37.900001525878906,36.86000061035156,37.20000076293945,36.22587585449219,398200
2019-04-09,36.93000030517578,37.189998626708984,36.400001525878906,36.779998779296875,35.816871643066406,318200
2019-04-10,37.060001373291016,38.0099983215332,37.025001525878906,37.689998626708984,36.70305252075195,886000
2019-04-11,37.720001220703125,38.15800094604492,37.310001373291016,37.400001525878906,36.4206428527832,383000
2019-04-12,37.81999969482422,37.9900016784668,37.09000015258789,37.380001068115234,36.40116500854492,331600
2019-04-15,37.16999816894531,37.70000076293945,37.16999816894531,37.31999969482422,36.342735290527344,264600
2019-04-16,37.689998626708984,38.11000061035156,37.35499954223633,38.0,37.00493621826172,545000
2019-04-17,38.099998474121094,38.5,37.63999938964844,37.86000061035156,36.868595123291016,298500
2019-04-18,37.9900016784668,38.099998474121094,37.220001220703125,37.7400016784668,36.751739501953125,390300
2019-04-22,38.040000915527344,39.59000015258789,38.0,39.45000076293945,38.416961669921875,1131100
2019-04-23,39.81999969482422,40.68000030517578,38.75,39.040000915527344,38.0177001953125,594400
2019-04-24,39.09000015258789,39.40999984741211,38.029998779296875,38.29999923706055,37.29707336425781,286500
2019-04-25,38.150001525878906,38.66999816894531,37.20000076293945,37.619998931884766,36.634883880615234,604200
2019-04-26,37.58000183105469,37.720001220703125,35.68000030517578,36.56999969482422,35.61237716674805,628800
2019-04-29,36.56999969482422,36.939998626708984,36.15999984741211,36.619998931884766,35.66106414794922,589600
2019-04-30,37.0,37.2400016784668,35.61399841308594,36.29999923706055,35.34945297241211,1241300
2019-05-01,36.29999923706055,36.81999969482422,34.7599983215332,34.88999938964844,33.97636795043945,719400
2019-05-02,35.869998931884766,37.290000915527344,34.900001525878906,37.11000061035156,36.13823699951172,1150600
2019-05-03,37.45000076293945,37.957000732421875,36.790000915527344,37.0,36.03111267089844,778000
2019-05-06,36.470001220703125,37.6150016784668,36.119998931884766,37.599998474121094,36.61540222167969,468100
2019-05-07,37.209999084472656,37.810001373291016,36.290000915527344,36.779998779296875,35.816871643066406,795700
2019-05-08,36.630001068115234,37.36000061035156,35.400001525878906,36.13999938964844,35.193641662597656,926700
2019-05-09,35.7400016784668,36.349998474121094,35.400001525878906,36.060001373291016,35.11573791503906,723700
2019-05-10,35.810001373291016,36.400001525878906,35.27000045776367,36.349998474121094,35.39814376831055,519300
2019-05-13,35.709999084472656,36.22999954223633,34.130001068115234,34.599998474121094,33.6939582824707,811600
2019-05-14,34.70000076293945,35.630001068115234,34.369998931884766,35.2599983215332,34.3366813659668,550100
2019-05-15,34.88999938964844,36.189998626708984,34.54999923706055,36.02000045776367,35.0767707824707,316600
2019-05-16,36.16999816894531,36.59000015258789,35.900001525878906,36.25,35.30075454711914,531500
2019-05-17,35.7599983215332,36.0099983215332,34.349998474121094,34.599998474121094,33.6939582824707,419100
2019-05-20,34.220001220703125,34.54999923706055,33.834999084472656,34.08000183105469,33.187583923339844,351300
2019-05-21,34.220001220703125,35.29999923706055,34.220001220703125,35.18000030517578,34.25877380371094,326000
2019-05-22,34.90999984741211,35.099998474121094,33.90999984741211,34.369998931884766,33.46998977661133,668700
2019-05-23,33.56999969482422,34.09000015258789,32.02000045776367,32.779998779296875,31.921615600585938,945900
2019-05-24,33.20000076293945,33.41899871826172,32.40999984741211,32.97999954223633,32.11638641357422,935900
2019-05-28,33.13999938964844,33.92499923706055,32.83000183105469,33.459999084472656,32.58381271362305,605700
2019-05-29,32.81999969482422,33.709999084472656,32.279998779296875,33.540000915527344,32.661720275878906,691700
2019-05-30,33.47999954223633,33.9900016784668,32.47999954223633,32.650001525878906,31.795028686523438,273700
2019-05-31,31.940000534057617,32.959999084472656,31.639999389648438,32.54999923706055,31.69764518737793,316100
2019-06-03,32.66999816894531,33.29499816894531,32.16999816894531,32.939998626708984,32.077430725097656,397800
2019-06-04,33.22999954223633,33.630001068115234,32.529998779296875,33.18000030517578,32.3111457824707,408100
2019-06-05,33.16999816894531,33.41999816894531,32.4900016784668,33.099998474121094,32.233245849609375,475500
2019-06-06,32.95000076293945,33.66999816894531,32.02000045776367,32.91999816894531,32.05794906616211,426700
2019-06-07,32.77000045776367,33.099998474121094,32.220001220703125,32.7599983215332,31.902143478393555,449800
2019-06-10,32.959999084472656,33.52000045776367,32.66999816894531,32.790000915527344,31.931364059448242,423000
2019-06-11,33.02000045776367,33.5,32.2599983215332,32.59000015258789,31.736597061157227,758600
2019-06-12,32.4900016784668,32.97999954223633,30.889999389648438,31.09000015258789,30.275876998901367,615300
2019-06-13,31.549999237060547,31.950000762939453,31.09000015258789,31.920000076293945,31.084142684936523,627000
2019-06-14,31.8700008392334,32.400001525878906,31.049999237060547,31.1200008392334,30.30509376525879,351600
2019-06-17,31.200000762939453,31.579999923706055,30.600000381469727,30.6200008392334,29.81818389892578,772200
2019-06-18,30.510000228881836,30.915000915527344,29.75,30.639999389648438,29.837661743164062,777500
2019-06-19,30.65999984741211,30.760000228881836,29.875,30.100000381469727,29.31180191040039,343100
2019-06-20,30.59000015258789,31.850000381469727,30.59000015258789,31.440000534057617,30.616710662841797,473100
2019-06-21,31.270000457763672,31.780000686645508,30.940000534057617,31.350000381469727,30.529069900512695,619500
2019-06-24,31.290000915527344,31.343000411987305,30.56999969482422,30.649999618530273,29.847396850585938,544800
2019-06-25,30.479999542236328,30.684999465942383,29.959999084472656,30.549999237060547,29.750019073486328,344000
2019-06-26,30.760000228881836,31.799999237060547,30.709999084472656,31.489999771118164,30.6653995513916,424300
2019-06-27,31.489999771118164,32.45000076293945,31.420000076293945,31.81999969482422,30.986759185791016,685500
2019-06-28,31.889999389648438,33.38999938964844,31.889999389648438,33.119998931884766,32.252716064453125,2028000
2019-07-01,33.560001373291016,33.89400100708008,32.31999969482422,32.72999954223633,31.872928619384766,787600
2019-07-02,32.63999938964844,32.63999938964844,30.809999465942383,31.010000228881836,30.19797134399414,432800
2019-07-03,31.06999969482422,31.43000030517578,30.360000610351562,30.81999969482422,30.01294708251953,310800
2019-07-05,30.639999389648438,31.260000228881836,30.530000686645508,31.25,30.431684494018555,210700
2019-07-08,31.040000915527344,32.5,31.0,31.8700008392334,31.035451889038086,850900
2019-07-09,31.6299991607666,32.54999923706055,31.31999969482422,32.459999084472656,31.60999870300293,983600
2019-07-10,32.81999969482422,32.970001220703125,31.639999389648438,31.84000015258789,31.006237030029297,510600
2019-07-11,31.899999618530273,31.989999771118164,31.200000762939453,31.469999313354492,30.645925521850586,275500
2019-07-12,31.489999771118164,31.809999465942383,31.110000610351562,31.75,30.918594360351562,347500
2019-07-15,31.84000015258789,32.56999969482422,31.469999313354492,31.799999237060547,30.967283248901367,515100
2019-07-16,31.690000534057617,32.540000915527344,30.959999084472656,31.040000915527344,30.227188110351562,477300
2019-07-17,30.8799991607666,31.309999465942383,30.540000915527344,30.75,29.944778442382812,482700
2019-07-18,30.530000686645508,31.030000686645508,30.299999237060547,30.709999084472656,29.905824661254883,361600
2019-07-19,30.649999618530273,30.90999984741211,30.190000534057617,30.760000228881836,29.954517364501953,498700
2019-07-22,30.899999618530273,31.549999237060547,30.899999618530273,31.34000015258789,30.519330978393555,516000
2019-07-23,31.350000381469727,31.68000030517578,30.420000076293945,30.579999923706055,29.77923011779785,855400
2019-07-24,30.520000457763672,31.25,30.479999542236328,31.15999984741211,30.34404182434082,468700
2019-07-25,31.25,31.325000762939453,29.209999084472656,29.3799991607666,28.610652923583984,491400
2019-07-26,29.5,29.670000076293945,29.03499984741211,29.479999542236328,28.70803451538086,609600
2019-07-29,29.299999237060547,29.540000915527344,27.3700008392334,27.75,27.023338317871094,979900
2019-07-30,27.610000610351562,29.639999389648438,27.59000015258789,29.510000228881836,28.73724937438965,597400
2019-07-31,29.469999313354492,30.489999771118164,29.149999618530273,29.3700008392334,28.600919723510742,479200
2019-08-01,30.290000915527344,31.8799991607666,28.3700008392334,30.0,29.214420318603516,1220500
2019-08-02,29.739999771118164,30.059999465942383,28.799999237060547,29.459999084472656,28.688560485839844,553100
2019-08-05,28.719999313354492,28.809999465942383,27.520000457763672,28.09000015258789,27.35443687438965,527800
2019-08-06,28.190000534057617,28.209999084472656,26.700000762939453,27.389999389648438,26.672761917114258,478200
2019-08-07,26.75,28.010000228881836,26.395000457763672,27.829999923706055,27.101242065429688,640000
2019-08-08,28.010000228881836,28.559999465942383,27.780000686645508,28.549999237060547,27.802387237548828,620500
2019-08-09,28.530000686645508,28.670000076293945,27.90999984741211,28.299999237060547,27.55893325805664,364300
2019-08-12,28.059999465942383,28.459999084472656,27.760000228881836,28.190000534057617,27.451814651489258,413700
2019-08-13,27.899999618530273,28.989999771118164,27.690000534057617,27.790000915527344,27.062292098999023,369900
2019-08-14,27.030000686645508,27.299999237060547,25.6299991607666,25.700000762939453,25.02701759338379,567800
2019-08-15,25.579999923706055,25.934999465942383,25.219999313354492,25.860000610351562,25.182828903198242,331900
2019-08-16,25.950000762939453,26.665000915527344,25.739999771118164,26.6200008392334,25.922927856445312,319800
2019-08-19,27.09000015258789,27.280000686645508,26.649999618530273,26.93000030517578,26.224809646606445,409700
2019-08-20,26.799999237060547,26.84000015258789,26.15999984741211,26.190000534057617,25.504186630249023,357900
2019-08-21,26.520000457763672,26.780000686645508,26.190000534057617,26.34000015258789,25.65026092529297,318600
2019-08-22,26.469999313354492,26.565000534057617,25.809999465942383,25.829999923706055,25.153615951538086,319500
2019-08-23,25.420000076293945,26.09000015258789,24.579999923706055,24.829999923706055,24.17980194091797,577200
2019-08-26,25.18000030517578,25.3700008392334,24.68000030517578,24.829999923706055,24.17980194091797,226000
2019-08-27,25.030000686645508,25.190000534057617,24.3799991607666,24.469999313354492,23.829227447509766,428700
2019-08-28,24.40999984741211,25.030000686645508,24.229999542236328,24.700000762939453,24.053207397460938,427500
2019-08-29,25.010000228881836,25.770000457763672,24.90999984741211,25.510000228881836,24.841995239257812,498700
2019-08-30,25.709999084472656,26.0,25.0,25.469999313354492,24.803041458129883,512800
2019-09-03,24.889999389648438,25.75,24.450000762939453,25.59000015258789,24.919898986816406,465600
2019-09-04,25.899999618530273,26.309999465942383,25.6299991607666,26.25,25.562618255615234,394800
2019-09-05,26.739999771118164,27.639999389648438,26.440000534057617,27.0,26.29297637939453,473300
2019-09-06,26.84000015258789,27.049999237060547,26.06999969482422,26.809999465942383,26.107952117919922,252800
2019-09-09,27.100000381469727,28.920000076293945,26.780000686645508,28.899999618530273,28.143224716186523,683200
2019-09-10,29.049999237060547,30.350000381469727,28.850000381469727,29.209999084472656,28.44510269165039,830800
2019-09-11,29.290000915527344,30.049999237060547,29.05500030517578,29.790000915527344,29.009918212890625,870700
2019-09-12,29.360000610351562,29.360000610351562,28.09000015258789,29.079999923706055,28.318513870239258,516000
2019-09-13,29.25,29.639999389648438,28.940000534057617,29.469999313354492,28.69829750061035,314600
2019-09-16,30.399999618530273,31.940000534057617,30.399999618530273,31.190000534057617,30.37325668334961,836400
2019-09-17,30.799999237060547,31.459999084472656,30.0,31.079999923706055,30.266138076782227,489200
2019-09-18,30.8799991607666,31.7450008392334,29.639999389648438,30.760000228881836,29.954517364501953,778100
2019-09-19,30.950000762939453,31.1200008392334,30.40999984741211,30.479999542236328,29.681848526000977,523400
2019-09-20,30.520000457763672,30.790000915527344,29.6299991607666,29.969999313354492,29.18520164489746,2269300
2019-09-23,29.68000030517578,30.06999969482422,29.290000915527344,29.670000076293945,28.89305877685547,456800
2019-09-24,29.479999542236328,29.56999969482422,28.84000015258789,29.040000915527344,28.279556274414062,384900
2019-09-25,28.510000228881836,29.559999465942383,27.549999237060547,29.5,28.72751235961914,288700
2019-09-26,29.239999771118164,29.6200008392334,28.700000762939453,29.1299991607666,28.36720085144043,407500
2019-09-27,29.0,29.700000762939453,28.719999313354492,29.40999984741211,28.639869689941406,500800
2019-09-30,29.309999465942383,29.540000915527344,28.399999618530273,28.940000534057617,28.182174682617188,737800
2019-10-01,29.280000686645508,29.850000381469727,28.389999389648438,28.520000457763672,27.773174285888672,670800
2019-10-02,28.40999984741211,28.635000228881836,27.899999618530273,28.3799991607666,27.6368408203125,517700
2019-10-03,28.190000534057617,28.704999923706055,28.1299991607666,28.6299991607666,27.88029670715332,384600
2019-10-04,28.739999771118164,28.850000381469727,27.815000534057617,28.010000228881836,27.276527404785156,300200
2019-10-07,27.969999313354492,28.389999389648438,27.736000061035156,27.850000381469727,27.12071990966797,241300
2019-10-08,27.6299991607666,28.110000610351562,27.450000762939453,27.56999969482422,26.84804916381836,364000
2019-10-09,27.799999237060547,27.959999084472656,27.399999618530273,27.639999389648438,26.916217803955078,335600
2019-10-10,27.739999771118164,28.079999923706055,27.309999465942383,27.81999969482422,27.09150505065918,641100
2019-10-11,28.15999984741211,28.860000610351562,27.829999923706055,28.479999542236328,27.734224319458008,410100
2019-10-14,28.010000228881836,28.225000381469727,27.299999237060547,28.040000915527344,27.305744171142578,353500
2019-10-15,27.93000030517578,28.600000381469727,27.81999969482422,28.06999969482422,27.3349552154541,346000
2019-10-16,27.93000030517578,28.530000686645508,27.200000762939453,27.360000610351562,26.6435489654541,337000
2019-10-17,27.520000457763672,27.959999084472656,27.1200008392334,27.239999771118164,26.526691436767578,415100
2019-10-18,27.219999313354492,27.760000228881836,26.670000076293945,26.68000030517578,25.98135757446289,308100
2019-10-21,26.780000686645508,27.6299991607666,26.780000686645508,27.420000076293945,26.70197868347168,480800
2019-10-22,27.520000457763672,28.350000381469727,27.520000457763672,27.940000534057617,27.208364486694336,375500
2019-10-23,27.709999084472656,28.559999465942383,27.299999237060547,28.549999237060547,27.802387237548828,250900
2019-10-24,28.690000534057617,28.75,27.280000686645508,28.15999984741211,27.4226016998291,715000
2019-10-25,28.149999618530273,28.860000610351562,28.149999618530273,28.56999969482422,27.821866989135742,166300
2019-10-28,28.610000610351562,29.0,28.190000534057617,28.309999465942383,27.56867027282715,392800
2019-10-29,28.020000457763672,29.450000762939453,28.020000457763672,29.239999771118164,28.474319458007812,281000
2019-10-30,28.729999542236328,28.729999542236328,27.219999313354492,27.219999313354492,26.50721549987793,634500
2019-10-31,27.65999984741211,30.450000762939453,27.479999542236328,29.719999313354492,28.941747665405273,1174700
2019-11-01,29.90999984741211,31.0049991607666,29.420000076293945,30.81999969482422,30.01294708251953,490900
2019-11-04,31.260000228881836,31.420000076293945,30.68000030517578,31.260000228881836,30.441423416137695,392200
2019-11-05,31.469999313354492,31.490999221801758,30.1200008392334,30.520000457763672,29.720802307128906,440600
2019-11-06,30.440000534057617,30.540000915527344,29.270000457763672,30.0,29.214420318603516,381000
2019-11-07,30.34000015258789,30.860000610351562,29.56999969482422,29.920000076293945,29.13651466369629,452800
2019-11-08,29.59000015258789,30.219999313354492,29.489999771118164,30.200000762939453,29.409181594848633,231300
2019-11-11,29.829999923706055,30.559999465942383,29.530000686645508,30.399999618530273,29.603944778442383,202800
2019-11-12,30.6200008392334,31.200000762939453,30.264999389648438,30.84000015258789,30.032424926757812,273500
2019-11-13,30.68000030517578,30.829999923706055,30.270000457763672,30.510000228881836,29.711063385009766,270900
2019-11-14,30.510000228881836,31.149999618530273,30.5,30.719999313354492,29.91556739807129,211900
2019-11-15,31.0,31.389999389648438,30.649999618530273,30.770000457763672,29.964256286621094,245900
2019-11-18,30.5,30.8700008392334,29.690000534057617,30.049999237060547,29.263111114501953,446700
2019-11-19,30.100000381469727,30.75,29.889999389648438,30.420000076293945,29.623422622680664,405500
2019-11-20,30.350000381469727,30.760000228881836,29.850000381469727,30.489999771118164,29.691587448120117,641000
2019-11-21,30.670000076293945,30.670000076293945,29.829999923706055,30.459999084472656,29.662372589111328,313200
2019-11-22,30.600000381469727,30.770000457763672,30.040000915527344,30.219999313354492,29.42865753173828,204400
2019-11-25,30.15999984741211,31.030000686645508,29.84000015258789,30.84000015258789,30.032424926757812,270400
2019-11-26,30.885000228881836,31.040000915527344,30.399999618530273,30.579999923706055,29.77923011779785,312600
2019-11-27,30.799999237060547,31.110000610351562,30.586000442504883,31.059999465942383,30.246662139892578,166700
2019-11-29,30.649999618530273,30.719999313354492,30.110000610351562,30.190000534057617,29.484878540039062,66100
2019-12-02,30.420000076293945,31.030000686645508,29.719999313354492,30.110000610351562,29.406749725341797,362700
2019-12-03,29.8799991607666,30.020000457763672,29.43000030517578,29.670000076293945,28.97702407836914,284300
2019-12-04,30.0,30.989999771118164,29.899999618530273,30.600000381469727,29.885305404663086,353100
2019-12-05,30.84000015258789,30.84000015258789,30.06999969482422,30.600000381469727,29.885305404663086,386300
2019-12-06,30.780000686645508,31.610000610351562,30.530000686645508,31.270000457763672,30.539657592773438,321900
2019-12-09,30.979999542236328,31.5,30.979999542236328,31.3799991607666,30.647085189819336,256700
2019-12-10,31.389999389648438,31.799999237060547,31.139999389648438,31.760000228881836,31.01820945739746,351400
2019-12-11,31.59000015258789,31.899999618530273,31.100000381469727,31.700000762939453,30.959613800048828,338100
2019-12-12,31.760000228881836,32.540000915527344,31.579999923706055,32.47999954223633,31.721391677856445,501500
2019-12-13,32.47999954223633,32.89500045776367,31.969999313354492,32.47999954223633,31.721391677856445,401000
2019-12-16,32.849998474121094,33.470001220703125,32.81999969482422,33.09000015258789,32.31714630126953,464600
2019-12-17,33.13999938964844,33.44499969482422,32.720001220703125,32.79999923706055,32.03392028808594,345200
2019-12-18,32.75,33.619998931884766,32.58000183105469,33.58000183105469,32.79570770263672,262800
2019-12-19,33.52000045776367,34.43000030517578,33.369998931884766,34.09000015258789,33.293785095214844,423000
2019-12-20,34.279998779296875,34.279998779296875,33.540000915527344,33.88999938964844,33.09846496582031,693200
2019-12-23,33.86000061035156,34.63999938964844,33.7599983215332,34.59000015258789,33.7821159362793,273200
2019-12-24,34.72999954223633,35.0,34.5,34.849998474121094,34.03603744506836,152300
2019-12-26,34.970001220703125,35.0,34.66999816894531,34.810001373291016,33.996978759765625,233700
2019-12-27,34.900001525878906,34.97200012207031,33.97999954223633,34.2400016784668,33.44029235839844,327200
2019-12-30,34.2599983215332,35.029998779296875,34.22999954223633,34.59000015258789,33.7821159362793,288200
2019-12-31,34.380001068115234,34.59000015258789,34.189998626708984,34.31999969482422,33.51841735839844,254400
2020-01-02,34.68000030517578,34.70000076293945,33.95000076293945,34.220001220703125,33.420753479003906,444900
2020-01-03,34.619998931884766,35.06999969482422,34.22999954223633,34.66999816894531,33.86024856567383,282800
2020-01-06,34.63999938964844,35.279998779296875,34.58000183105469,35.13999938964844,34.31926345825195,267900
2020-01-07,35.09000015258789,35.099998474121094,34.459999084472656,34.790000915527344,33.97744369506836,207500
2020-01-08,34.58000183105469,34.654998779296875,33.58000183105469,33.7599983215332,32.97149658203125,413500
2020-01-09,33.86000061035156,34.029998779296875,32.93000030517578,33.369998931884766,32.59060287475586,446900
2020-01-10,33.29999923706055,33.33000183105469,32.88999938964844,32.939998626708984,32.170650482177734,229600
2020-01-13,32.81999969482422,32.97999954223633,32.470001220703125,32.61000061035156,31.84835433959961,180900
2020-01-14,32.5099983215332,32.91999816894531,32.06999969482422,32.63999938964844,31.877653121948242,174500
2020-01-15,32.310001373291016,32.72999954223633,31.81999969482422,32.060001373291016,31.311203002929688,395300
2020-01-16,32.31999969482422,33.36000061035156,32.31999969482422,33.33000183105469,32.551544189453125,221800
2020-01-17,33.45000076293945,33.61000061035156,33.150001525878906,33.59000015258789,32.80546951293945,272100
2020-01-21,33.2599983215332,33.560001373291016,32.95000076293945,33.2400016784668,32.463645935058594,255100
2020-01-22,33.2400016784668,33.290000915527344,32.13999938964844,32.52000045776367,31.76045799255371,235700
2020-01-23,32.150001525878906,32.665000915527344,31.360000610351562,32.380001068115234,31.623729705810547,197900
2020-01-24,32.36000061035156,32.4900016784668,30.600000381469727,30.860000610351562,30.139230728149414,233700
2020-01-27,30.170000076293945,30.350000381469727,29.40999984741211,29.729999542236328,29.03562355041504,431400
2020-01-28,29.969999313354492,30.530000686645508,29.600000381469727,30.469999313354492,29.758338928222656,286700
2020-01-29,30.65999984741211,31.040000915527344,30.309999465942383,30.31999969482422,29.61184310913086,284700
2020-01-30,29.8799991607666,30.270000457763672,29.219999313354492,29.920000076293945,29.2211856842041,373700
2020-01-31,29.5,29.739999771118164,28.610000610351562,28.81999969482422,28.146875381469727,226900
2020-02-03,28.920000076293945,29.049999237060547,28.420000076293945,28.43000030517578,27.765989303588867,417200
2020-02-04,29.06999969482422,29.540000915527344,28.875,29.0,28.32267189025879,219900
2020-02-05,29.549999237060547,30.329999923706055,29.459999084472656,29.770000457763672,29.074689865112305,251000
2020-02-06,29.8700008392334,29.8700008392334,29.239999771118164,29.510000228881836,28.82076072692871,203500
2020-02-07,29.229999542236328,29.56999969482422,28.670000076293945,28.790000915527344,28.117578506469727,307300
2020-02-10,28.649999618530273,29.03499984741211,28.51099967956543,28.93000030517578,28.254308700561523,306000
2020-02-11,29.450000762939453,29.639999389648438,28.829999923706055,29.209999084472656,28.52776527404785,312900
2020-02-12,29.729999542236328,29.809999465942383,29.139999389648438,29.700000762939453,29.006322860717773,223500
2020-02-13,29.450000762939453,29.790000915527344,29.309999465942383,29.530000686645508,28.840293884277344,150700
2020-02-14,29.610000610351562,29.774999618530273,28.959999084472656,29.399999618530273,28.713329315185547,250600
2020-02-18,29.190000534057617,29.190000534057617,28.389999389648438,28.700000762939453,28.029682159423828,254400
2020-02-19,28.93000030517578,29.399999618530273,28.635000228881836,29.06999969482422,28.39103889465332,355700
2020-02-20,29.110000610351562,30.010000228881836,29.110000610351562,29.149999618530273,28.469167709350586,243900
2020-02-21,28.899999618530273,29.0,28.139999389648438,28.790000915527344,28.117578506469727,257400
2020-02-24,27.790000915527344,27.799999237060547,26.989999771118164,27.049999237060547,26.418214797973633,319000
2020-02-25,27.200000762939453,27.260000228881836,26.010000228881836,26.260000228881836,25.646671295166016,480100
2020-02-26,26.610000610351562,26.78499984741211,25.389999389648438,25.510000228881836,24.914186477661133,567900
2020-02-27,24.989999771118164,26.459999084472656,24.559999465942383,25.3700008392334,24.777456283569336,1319600
2020-02-28,24.40999984741211,27.360000610351562,24.40999984741211,27.309999465942383,26.767099380493164,889400
2020-03-02,27.5,28.059999465942383,26.420000076293945,28.0,27.443387985229492,435000
2020-03-03,27.93000030517578,28.239999771118164,26.3700008392334,27.299999237060547,26.75729751586914,451900
2020-03-04,27.479999542236328,27.59000015258789,26.43000030517578,26.950000762939453,26.41425895690918,281300
2020-03-05,26.260000228881836,26.68000030517578,25.145000457763672,25.780000686645508,25.26751708984375,563700
2020-03-06,24.860000610351562,25.309999465942383,22.131999969482422,22.639999389648438,22.189937591552734,911600
2020-03-09,19.530000686645508,19.530000686645508,14.430000305175781,14.520000457763672,14.231355667114258,1480000
2020-03-10,15.050000190734863,15.59000015258789,13.350000381469727,14.699999809265137,14.407777786254883,1268700
2020-03-11,14.350000381469727,14.489999771118164,12.819999694824219,13.0,12.741570472717285,953400
2020-03-12,12.010000228881836,14.039999961853027,11.460000038146973,12.6899995803833,12.43773365020752,1550200
2020-03-13,13.5600004196167,13.5600004196167,11.699999809265137,12.850000381469727,12.594552993774414,2006700
2020-03-16,12.350000381469727,12.350000381469727,11.420000076293945,11.470000267028809,11.241987228393555,1477500
2020-03-17,11.680000305175781,11.680000305175781,10.270000457763672,10.420000076293945,10.212861061096191,1322300
2020-03-18,9.930000305175781,10.020000457763672,8.40999984741211,8.40999984741211,8.242815971374512,1154500
2020-03-19,8.489999771118164,12.069999694824219,8.15999984741211,11.739999771118164,11.506619453430176,1060700
2020-03-20,12.039999961853027,12.489999771118164,11.359999656677246,11.930000305175781,11.692842483520508,930600
2020-03-23,11.989999771118164,12.550000190734863,11.220000267028809,11.619999885559082,11.389004707336426,622700
2020-03-24,12.119999885559082,13.1899995803833,12.050000190734863,13.1899995803833,12.927793502807617,523400
2020-03-25,13.1899995803833,13.729999542236328,12.274999618530273,12.640000343322754,12.388728141784668,862700
2020-03-26,12.770000457763672,13.010000228881836,12.079999923706055,12.390000343322754,12.143697738647461,400600
2020-03-27,11.890000343322754,11.960000038146973,10.675000190734863,11.199999809265137,10.977354049682617,840500
2020-03-30,11.050000190734863,11.329999923706055,9.75,11.140000343322754,10.918545722961426,748700
2020-03-31,11.0,12.220000267028809,10.9399995803833,11.600000381469727,11.369401931762695,614000
2020-04-01,11.1899995803833,11.210000038146973,10.520000457763672,11.0,10.781328201293945,685300
2020-04-02,11.220000267028809,12.6899995803833,11.15999984741211,12.5600004196167,12.310318946838379,611700
2020-04-03,12.5600004196167,12.739999771118164,11.1899995803833,11.460000038146973,11.232185363769531,658100
2020-04-06,12.510000228881836,13.90999984741211,11.875,13.729999542236328,13.457059860229492,783300
2020-04-07,14.140000343322754,15.229999542236328,13.670000076293945,13.989999771118164,13.711891174316406,692800
2020-04-08,14.399999618530273,15.59000015258789,13.960000038146973,15.3100004196167,15.005650520324707,696600
2020-04-09,15.449999809265137,17.489999771118164,15.149999618530273,15.729999542236328,15.4173002243042,1059400
2020-04-13,15.9399995803833,16.530000686645508,14.609999656677246,15.199999809265137,14.89783763885498,620000
2020-04-14,15.359999656677246,15.868000030517578,14.380000114440918,14.859999656677246,14.564594268798828,523700
2020-04-15,14.069999694824219,14.760000228881836,13.350000381469727,13.819999694824219,13.545270919799805,791500
2020-04-16,13.949999809265137,13.949999809265137,11.944999694824219,12.380000114440918,12.133895874023438,369700
2020-04-17,12.75,13.75,12.579999923706055,13.170000076293945,12.908191680908203,505100
2020-04-20,12.5600004196167,12.920000076293945,12.039999961853027,12.3100004196167,12.065288543701172,666200
2020-04-21,11.970000267028809,12.890000343322754,11.800000190734863,12.65999984741211,12.408329010009766,675400
2020-04-22,13.0,13.600000381469727,12.770000457763672,13.390000343322754,13.123818397521973,595400
2020-04-23,13.800000190734863,14.529999732971191,13.25,14.329999923706055,14.045132637023926,732800
2020-04-24,14.979999542236328,15.289999961853027,13.975000381469727,14.430000305175781,14.143144607543945,466900
2020-04-27,14.529999732971191,15.25,13.5600004196167,15.0,14.701811790466309,495300
2020-04-28,15.6899995803833,15.819999694824219,14.470000267028809,15.369999885559082,15.064457893371582,659000
2020-04-29,16.15999984741211,18.260000228881836,15.729999542236328,18.170000076293945,17.808795928955078,572800
2020-04-30,18.170000076293945,19.350000381469727,17.280000686645508,17.780000686645508,17.426551818847656,908800
2020-05-01,17.350000381469727,17.75,15.729999542236328,16.040000915527344,15.721139907836914,561100
2020-05-04,15.8100004196167,16.56999969482422,15.0600004196167,16.389999389648438,16.064180374145508,697200
2020-05-05,17.6200008392334,17.6299991607666,15.789999961853027,15.829999923706055,15.515313148498535,448600
2020-05-06,15.84000015258789,16.329999923706055,15.100000381469727,15.270000457763672,14.966445922851562,316000
2020-05-07,15.5600004196167,16.479999542236328,15.529999732971191,15.710000038146973,15.397699356079102,487100
2020-05-08,16.299999237060547,17.100000381469727,16.049999237060547,16.8799991607666,16.544443130493164,576100
2020-05-11,16.579999923706055,16.6200008392334,15.9399995803833,16.299999237060547,15.975969314575195,280300
2020-05-12,16.43000030517578,17.514999389648438,16.110000610351562,17.09000015258789,16.750267028808594,608800
2020-05-13,16.850000381469727,17.0,15.15999984741211,15.550000190734863,15.240880012512207,560500
2020-05-14,15.0600004196167,16.0,14.699999809265137,15.880000114440918,15.564319610595703,467100
2020-05-15,15.869999885559082,16.950000762939453,15.630000114440918,16.40999984741211,16.083786010742188,564700
2020-05-18,17.420000076293945,18.360000610351562,17.420000076293945,18.0,17.642175674438477,469000
2020-05-19,17.770000457763672,18.139999389648438,16.559999465942383,16.6200008392334,16.289608001708984,375100
2020-05-20,17.309999465942383,18.280000686645508,16.670000076293945,18.209999084472656,17.847999572753906,638800
2020-05-21,18.329999923706055,18.579999923706055,17.670000076293945,18.200000762939453,17.838199615478516,852500
2020-05-22,18.139999389648438,18.389999389648438,17.59000015258789,17.950000762939453,17.593170166015625,351100
2020-05-26,18.899999618530273,18.899999618530273,18.3799991607666,18.540000915527344,18.17144203186035,446400
2020-05-27,19.260000228881836,19.559999465942383,18.540000915527344,19.3799991607666,18.994741439819336,769000
2020-05-28,19.950000762939453,20.56999969482422,19.270000457763672,20.100000381469727,19.700428009033203,501100
2020-05-29,19.600000381469727,19.719999313354492,18.510000228881836,19.079999923706055,18.78481674194336,632800
2020-06-01,19.100000381469727,20.0,18.850000381469727,19.239999771118164,18.94234275817871,512800
2020-06-02,19.6299991607666,20.1200008392334,19.295000076293945,19.829999923706055,19.523212432861328,294400
2020-06-03,20.260000228881836,20.350000381469727,18.979999542236328,19.709999084472656,19.40506935119629,761700
2020-06-04,19.610000610351562,21.420000076293945,19.360000610351562,21.200000762939453,20.872020721435547,592100
2020-06-05,22.479999542236328,22.790000915527344,21.81999969482422,22.139999389648438,21.797473907470703,548500
2020-06-08,23.139999389648438,24.34000015258789,22.469999313354492,24.209999084472656,23.835453033447266,508300
2020-06-09,23.200000762939453,24.0,22.920000076293945,23.549999237060547,23.18566131591797,389600
2020-06-10,23.059999465942383,23.059999465942383,21.81999969482422,21.850000381469727,21.511964797973633,755100
2020-06-11,20.530000686645508,21.110000610351562,20.110000610351562,20.170000076293945,19.857955932617188,799400
2020-06-12,21.350000381469727,21.40999984741211,19.450000762939453,20.09000015258789,19.779191970825195,423900
2020-06-15,18.979999542236328,20.579999923706055,18.860000610351562,20.440000534057617,20.123777389526367,468300
2020-06-16,21.719999313354492,22.059999465942383,20.18000030517578,20.540000915527344,20.222230911254883,583900
2020-06-17,20.540000915527344,20.540000915527344,19.635000228881836,19.760000228881836,19.454299926757812,331500
2020-06-18,19.399999618530273,20.18000030517578,19.31999969482422,19.739999771118164,19.434606552124023,195500
2020-06-19,20.1299991607666,20.489999771118164,19.43000030517578,19.6299991607666,19.32630729675293,588900
2020-06-22,19.600000381469727,20.030000686645508,19.079999923706055,19.959999084472656,19.651203155517578,417400
2020-06-23,20.139999389648438,20.600000381469727,20.079999923706055,20.280000686645508,19.96625518798828,460900
2020-06-24,20.1299991607666,20.219999313354492,19.020000457763672,19.829999923706055,19.523212432861328,636900
2020-06-25,19.700000762939453,20.649999618530273,19.670000076293945,20.309999465942383,19.99578857421875,494900
2020-06-26,20.0,20.16900062561035,19.450000762939453,19.75,19.4444522857666,1099900
2020-06-29,20.010000228881836,20.3799991607666,19.530000686645508,19.770000457763672,19.464141845703125,257500
2020-06-30,19.639999389648438,20.860000610351562,19.3799991607666,20.6299991607666,20.31083869934082,284300
2020-07-01,20.670000076293945,20.969999313354492,19.635000228881836,19.920000076293945,19.6118221282959,334000
2020-07-02,20.40999984741211,20.670000076293945,19.8799991607666,20.09000015258789,19.779191970825195,271500
2020-07-06,20.559999465942383,20.829999923706055,20.09000015258789,20.670000076293945,20.3502197265625,239700
2020-07-07,20.40999984741211,20.450000762939453,19.8799991607666,20.15999984741211,19.84811019897461,253300
2020-07-08,20.799999237060547,21.149999618530273,19.68000030517578,19.989999771118164,19.680736541748047,456600
2020-07-09,19.899999618530273,19.940000534057617,19.110000610351562,19.139999389648438,18.843889236450195,434700
2020-07-10,19.18000030517578,19.600000381469727,19.06999969482422,19.579999923706055,19.277082443237305,273400
2020-07-13,20.020000457763672,20.020000457763672,19.040000915527344,19.40999984741211,19.109710693359375,262600
2020-07-14,19.43000030517578,20.399999618530273,19.399999618530273,20.219999313354492,19.90717887878418,252900
2020-07-15,20.989999771118164,21.81999969482422,20.540000915527344,21.440000534057617,21.108308792114258,395200
2020-07-16,21.190000534057617,21.34000015258789,20.514999389648438,20.8799991607666,20.556968688964844,406300
2020-07-17,20.770000457763672,21.1299991607666,20.670000076293945,20.920000076293945,20.596351623535156,219100
2020-07-20,20.809999465942383,21.280000686645508,20.530000686645508,20.760000228881836,20.438827514648438,270300
2020-07-21,21.219999313354492,22.6299991607666,21.06999969482422,22.280000686645508,21.935312271118164,489800
2020-07-22,21.899999618530273,21.899999618530273,21.18000030517578,21.600000381469727,21.26582908630371,391000
2020-07-23,21.3799991607666,22.540000915527344,21.274999618530273,22.399999618530273,22.053455352783203,464000
2020-07-24,22.219999313354492,22.399999618530273,21.610000610351562,21.90999984741211,21.571035385131836,241700
2020-07-27,22.200000762939453,22.670000076293945,21.799999237060547,22.65999984741211,22.309431076049805,378600
2020-07-28,22.280000686645508,22.424999237060547,21.825000762939453,22.1200008392334,21.777788162231445,408400
2020-07-29,22.1200008392334,22.969999313354492,21.959999084472656,22.90999984741211,22.555564880371094,472000
2020-07-30,22.959999084472656,23.5,21.531999588012695,22.540000915527344,22.1912899017334,539700
2020-07-31,23.6200008392334,23.6200008392334,22.100000381469727,22.6200008392334,22.270051956176758,387300
2020-08-03,22.81999969482422,23.704999923706055,22.56999969482422,23.469999313354492,23.106901168823242,279800
2020-08-04,23.31999969482422,23.920000076293945,22.825000762939453,23.700000762939453,23.333343505859375,297400
2020-08-05,24.209999084472656,24.399999618530273,23.899999618530273,24.360000610351562,23.98313331604004,248600
2020-08-06,24.200000762939453,24.34000015258789,23.81999969482422,23.989999771118164,23.61885643005371,177900
2020-08-07,23.729999542236328,24.1299991607666,23.3700008392334,24.09000015258789,23.717308044433594,200700
2020-08-10,24.270000457763672,25.18000030517578,24.270000457763672,24.989999771118164,24.60338592529297,384500
2020-08-11,25.559999465942383,25.989999771118164,24.65999984741211,24.8799991607666,24.495086669921875,325000
2020-08-12,25.229999542236328,25.6299991607666,24.75,24.950000762939453,24.56400489807129,287700
2020-08-13,24.729999542236328,25.079999923706055,24.610000610351562,24.950000762939453,24.56400489807129,193100
2020-08-14,24.559999465942383,25.100000381469727,24.459999084472656,24.969999313354492,24.583694458007812,195700
2020-08-17,25.09000015258789,25.3700008392334,24.559999465942383,24.799999237060547,24.416324615478516,327500
2020-08-18,24.59000015258789,24.780000686645508,23.719999313354492,23.8799991607666,23.510557174682617,337700
2020-08-19,24.1299991607666,24.56999969482422,23.760000228881836,23.850000381469727,23.481021881103516,257900
2020-08-20,23.510000228881836,23.639999389648438,23.219999313354492,23.309999465942383,22.949373245239258,220000
2020-08-21,22.950000762939453,23.200000762939453,22.360000610351562,22.75,22.398040771484375,232600
2020-08-24,23.040000915527344,23.989999771118164,22.75,23.68000030517578,23.31365394592285,281500
2020-08-25,24.209999084472656,24.315000534057617,23.579999923706055,23.780000686645508,23.412107467651367,257400
2020-08-26,23.6200008392334,23.68199920654297,22.559999465942383,22.709999084472656,22.35865592956543,178900
2020-08-27,22.860000610351562,23.014999389648438,22.5049991607666,22.8700008392334,22.516185760498047,238400
2020-08-28,22.979999542236328,23.43000030517578,22.790000915527344,23.260000228881836,22.990623474121094,199800
2020-08-31,23.15999984741211,23.350000381469727,22.06999969482422,22.09000015258789,21.83417510986328,256700
2020-09-01,21.8799991607666,22.280000686645508,21.760000228881836,21.989999771118164,21.735332489013672,345400
2020-09-02,21.889999389648438,22.030000686645508,21.510000228881836,21.719999313354492,21.468456268310547,280100
2020-09-03,21.780000686645508,22.290000915527344,21.719999313354492,22.0,21.745216369628906,283600
2020-09-04,22.3700008392334,22.429000854492188,22.100000381469727,22.170000076293945,21.91324806213379,169100
2020-09-08,21.75,21.75,20.350000381469727,20.3799991607666,20.143978118896484,241200
2020-09-09,20.649999618530273,21.1200008392334,20.389999389648438,20.59000015258789,20.351545333862305,353300
2020-09-10,20.559999465942383,20.559999465942383,19.35099983215332,19.510000228881836,19.284053802490234,350900
2020-09-11,19.68000030517578,20.479999542236328,19.520000457763672,20.360000610351562,20.124208450317383,371000
2020-09-14,20.31999969482422,20.40999984741211,19.489999771118164,20.3700008392334,20.13409423828125,438800
2020-09-15,20.43000030517578,20.59000015258789,19.920000076293945,20.360000610351562,20.124208450317383,317100
2020-09-16,20.420000076293945,21.204999923706055,20.3700008392334,20.709999084472656,20.470155715942383,594100
2020-09-17,20.43000030517578,20.729999542236328,19.93000030517578,20.469999313354492,20.232934951782227,373300
2020-09-18,20.459999084472656,21.1299991607666,20.1299991607666,20.850000381469727,20.608535766601562,1360900
2020-09-21,20.110000610351562,20.389999389648438,19.420000076293945,19.65999984741211,19.432315826416016,361400
2020-09-22,19.729999542236328,19.979999542236328,19.360000610351562,19.68000030517578,19.452085494995117,254300
2020-09-23,19.75,19.850000381469727,17.899999618530273,17.93000030517578,17.722352981567383,486600
2020-09-24,17.790000915527344,18.344999313354492,17.459999084472656,17.84000015258789,17.633394241333008,401400
2020-09-25,17.530000686645508,18.270000457763672,17.479999542236328,18.15999984741211,17.949687957763672,367100
2020-09-28,18.56999969482422,19.200000762939453,18.540000915527344,18.989999771118164,18.770076751708984,231800
2020-09-29,18.760000228881836,19.639999389648438,18.709999084472656,19.290000915527344,19.06660270690918,455400
2020-09-30,19.40999984741211,19.8700008392334,18.989999771118164,19.190000534057617,18.967758178710938,330100
2020-10-01,19.040000915527344,19.2450008392334,18.59000015258789,18.799999237060547,18.582275390625,407900
2020-10-02,18.440000534057617,20.440000534057617,18.360000610351562,20.079999923706055,19.84745216369629,362900
2020-10-05,20.549999237060547,20.8799991607666,20.049999237060547,20.420000076293945,20.183515548706055,184500
2020-10-06,20.829999923706055,20.829999923706055,19.850000381469727,20.059999465942383,19.82768440246582,309100
2020-10-07,20.079999923706055,20.469999313354492,19.739999771118164,20.239999771118164,20.005598068237305,307700
2020-10-08,20.600000381469727,20.90999984741211,20.360000610351562,20.850000381469727,20.608535766601562,210700
2020-10-09,20.979999542236328,20.985000610351562,20.229999542236328,20.3799991607666,20.143978118896484,168400
2020-10-12,20.329999923706055,20.469999313354492,19.639999389648438,20.299999237060547,20.064903259277344,174700
2020-10-13,19.950000762939453,20.260000228881836,19.299999237060547,19.360000610351562,19.13578987121582,158200
2020-10-14,19.530000686645508,20.059999465942383,19.530000686645508,19.59000015258789,19.36312484741211,175800
2020-10-15,19.1200008392334,19.360000610351562,18.65999984741211,18.969999313354492,18.750307083129883,496000
2020-10-16,18.850000381469727,19.31999969482422,18.3700008392334,18.559999465942383,18.345054626464844,269200
2020-10-19,18.709999084472656,19.059999465942383,18.190000534057617,18.25,18.038644790649414,335500
2020-10-20,18.469999313354492,18.809999465942383,18.34000015258789,18.559999465942383,18.345054626464844,191700
2020-10-21,18.3799991607666,18.860000610351562,18.239999771118164,18.440000534057617,18.226444244384766,533900
2020-10-22,18.420000076293945,18.780000686645508,18.389999389648438,18.600000381469727,18.384593963623047,664800
2020-10-23,18.649999618530273,18.885000228881836,18.479999542236328,18.709999084472656,18.493316650390625,556500
2020-10-26,18.3799991607666,18.3799991607666,17.639999389648438,17.729999542236328,17.524667739868164,462800
2020-10-27,17.65999984741211,17.93000030517578,17.43000030517578,17.600000381469727,17.39617347717285,542700
2020-10-28,17.010000228881836,17.280000686645508,16.600000381469727,16.75,16.55601692199707,531300
2020-10-29,16.479999542236328,17.239999771118164,16.110000610351562,17.06999969482422,16.872310638427734,361600
2020-10-30,17.049999237060547,17.440000534057617,16.860000610351562,17.0,16.803119659423828,547600
2020-11-02,17.040000915527344,17.969999313354492,16.700000762939453,17.8700008392334,17.663047790527344,521200
2020-11-03,18.270000457763672,18.84000015258789,17.90999984741211,18.290000915527344,18.078182220458984,352400
2020-11-04,18.25,18.25,17.010000228881836,17.75,17.544435501098633,306800
2020-11-05,17.860000610351562,19.079999923706055,17.860000610351562,18.959999084472656,18.740421295166016,650200
2020-11-06,19.09000015258789,19.360000610351562,18.670000076293945,18.81999969482422,18.60204315185547,264300
2020-11-09,20.93000030517578,24.31999969482422,20.93000030517578,23.700000762939453,23.4255313873291,650600
2020-11-10,23.670000076293945,23.950000762939453,22.6200008392334,23.729999542236328,23.45517921447754,547000
2020-11-11,23.75,23.809999465942383,22.309999465942383,22.739999771118164,22.47664451599121,413100
2020-11-12,22.260000228881836,22.959999084472656,22.260000228881836,22.579999923706055,22.318498611450195,310900
2020-11-13,22.8799991607666,23.360000610351562,22.770000457763672,23.209999084472656,22.94120216369629,219900
2020-11-16,24.399999618530273,24.979999542236328,23.90999984741211,24.940000534057617,24.651168823242188,428000
2020-11-17,24.360000610351562,24.82699966430664,23.799999237060547,24.600000381469727,24.315107345581055,570500
2020-11-18,24.809999465942383,24.959999084472656,23.709999084472656,23.719999313354492,23.445295333862305,445100
2020-11-19,23.43000030517578,23.889999389648438,23.06999969482422,23.860000610351562,23.583675384521484,217100
2020-11-20,23.670000076293945,23.860000610351562,22.979999542236328,23.489999771118164,23.217960357666016,258700
2020-11-23,24.010000228881836,24.954999923706055,24.010000228881836,24.68000030517578,24.39417839050293,377100
2020-11-24,25.5,26.729999542236328,25.309999465942383,26.049999237060547,25.74831199645996,426200
2020-11-25,25.59000015258789,25.75,25.149999618530273,25.399999618530273,25.1058406829834,136500
2020-11-27,25.399999618530273,25.510000228881836,24.670000076293945,25.06999969482422,24.867774963378906,156300
2020-11-30,24.670000076293945,25.139999389648438,23.030000686645508,23.200000762939453,23.012861251831055,330700
2020-12-01,23.959999084472656,24.84000015258789,23.68000030517578,24.579999923706055,24.381729125976562,566200
2020-12-02,24.459999084472656,25.43000030517578,24.459999084472656,25.219999313354492,25.01656723022461,201800
2020-12-03,25.200000762939453,25.600000381469727,24.8799991607666,25.1200008392334,24.917375564575195,207600
2020-12-04,25.65999984741211,27.780000686645508,25.530000686645508,27.709999084472656,27.486480712890625,481800
2020-12-07,27.290000915527344,27.34000015258789,26.459999084472656,27.15999984741211,26.94091796875,275600
2020-12-08,26.579999923706055,27.6200008392334,26.579999923706055,27.399999618530273,27.17898178100586,304500
2020-12-09,27.3700008392334,27.860000610351562,26.440000534057617,26.700000762939453,26.484630584716797,296000
2020-12-10,26.3799991607666,27.774999618530273,26.3799991607666,27.329999923706055,27.109546661376953,243300
2020-12-11,26.850000381469727,27.584999084472656,26.364999771118164,26.920000076293945,26.70285415649414,721000
2020-12-14,27.5,27.65999984741211,26.53499984741211,26.6200008392334,26.405275344848633,375900
2020-12-15,27.0,28.18000030517578,26.719999313354492,28.149999618530273,27.922931671142578,259000
2020-12-16,28.139999389648438,28.139999389648438,27.3799991607666,27.489999771118164,27.26825523376465,360100
2020-12-17,27.549999237060547,27.59000015258789,26.790000915527344,27.06999969482422,26.851642608642578,208500
2020-12-18,27.010000228881836,27.3700008392334,26.190000534057617,26.530000686645508,26.31599998474121,814800
2020-12-21,25.530000686645508,26.128000259399414,25.190000534057617,25.6299991607666,25.423259735107422,216900
2020-12-22,25.420000076293945,25.649999618530273,24.899999618530273,25.399999618530273,25.195114135742188,254000
2020-12-23,25.940000534057617,26.5,25.774999618530273,26.450000762939453,26.23664665222168,283300
2020-12-24,26.469999313354492,26.469999313354492,25.68000030517578,25.940000534057617,25.73076057434082,68100
2020-12-28,26.200000762939453,26.381000518798828,25.68600082397461,25.940000534057617,25.73076057434082,297700
2020-12-29,26.09000015258789,26.135000228881836,24.809999465942383,25.360000610351562,25.155437469482422,240800
2020-12-30,25.469999313354492,26.05500030517578,25.3700008392334,25.81999969482422,25.611726760864258,142000
