Date,Open,High,Low,Close,Adj Close,Volume
2017-07-21,24.0,24.02400016784668,23.97599983215332,24.02400016784668,20.830230712890625,900
2017-07-24,24.049999237060547,24.049999237060547,24.0,24.0,20.809419631958008,1000
2017-07-25,23.809999465942383,24.049999237060547,23.799999237060547,24.049999237060547,20.852773666381836,2600
2017-07-26,23.959999084472656,23.959999084472656,23.850000381469727,23.850000381469727,20.679363250732422,1500
2017-07-27,23.68000030517578,23.700000762939453,23.5,23.5,20.375890731811523,5300
2017-07-28,23.700000762939453,23.700000762939453,23.700000762939453,23.700000762939453,20.549306869506836,300
2017-07-31,23.600000381469727,23.68000030517578,23.600000381469727,23.68000030517578,20.531963348388672,200
2017-08-01,23.70400047302246,23.70400047302246,23.700000762939453,23.700000762939453,20.549306869506836,600
2017-08-02,23.700000762939453,23.700000762939453,23.700000762939453,23.700000762939453,20.549306869506836,0
2017-08-03,23.690000534057617,23.75,23.5,23.559999465942383,20.427913665771484,2700
2017-08-04,23.5,23.5,23.209999084472656,23.34000015258789,20.23716163635254,6100
2017-08-07,23.450000762939453,23.639999389648438,23.43000030517578,23.639999389648438,20.49728012084961,1700
2017-08-08,23.639999389648438,23.639999389648438,23.639999389648438,23.639999389648438,20.49728012084961,100
2017-08-09,23.639999389648438,23.805999755859375,23.639999389648438,23.805999755859375,20.641210556030273,1300
2017-08-10,23.75,23.809999465942383,23.5,23.809999465942383,20.64468002319336,4200
2017-08-11,23.559999465942383,23.594999313354492,23.420000076293945,23.420000076293945,20.30652618408203,1500
2017-08-14,23.489999771118164,23.489999771118164,23.010000228881836,23.1200008392334,20.046409606933594,5100
2017-08-15,22.8700008392334,23.0,22.86400032043457,22.899999618530273,19.85565757751465,3300
2017-08-16,22.899999618530273,22.899999618530273,22.899999618530273,22.899999618530273,19.85565757751465,500
2017-08-17,22.850000381469727,22.850000381469727,22.010000228881836,22.450000762939453,19.46548080444336,3300
2017-08-18,22.489999771118164,22.510000228881836,22.260000228881836,22.260000228881836,19.300737380981445,3900
2017-08-21,22.18000030517578,22.18000030517578,21.600000381469727,21.809999465942383,18.91056251525879,8400
2017-08-22,22.1299991607666,22.149999618530273,21.950000762939453,22.049999237060547,19.118654251098633,5700
2017-08-23,22.049999237060547,22.049999237060547,21.940000534057617,22.033000946044922,19.103914260864258,5300
2017-08-24,22.040000915527344,22.131000518798828,22.010000228881836,22.040000915527344,19.1099853515625,13300
2017-08-25,22.040000915527344,22.049999237060547,21.989999771118164,22.038999557495117,19.10911750793457,4000
2017-08-28,22.038999557495117,22.038999557495117,22.038999557495117,22.038999557495117,19.10911750793457,0
2017-08-29,21.93000030517578,22.09000015258789,21.81999969482422,22.084999084472656,19.149002075195312,27700
2017-08-30,22.100000381469727,22.100000381469727,21.920000076293945,22.010000228881836,19.083972930908203,2200
2017-08-31,21.940000534057617,22.450000762939453,21.940000534057617,22.42799949645996,19.44640350341797,700
2017-09-01,22.219999313354492,22.260000228881836,22.219999313354492,22.260000228881836,19.300737380981445,500
2017-09-05,22.469999313354492,22.469999313354492,22.260000228881836,22.374000549316406,19.39958381652832,2500
2017-09-06,22.579999923706055,22.579999923706055,22.579999923706055,22.579999923706055,19.578195571899414,200
2017-09-07,22.579999923706055,22.700000762939453,22.503999710083008,22.700000762939453,19.6822452545166,2200
2017-09-08,22.690000534057617,22.700000762939453,22.68000030517578,22.68000030517578,19.66490364074707,700
2017-09-11,22.68000030517578,22.68000030517578,22.469999313354492,22.62700080871582,19.618947982788086,4900
2017-09-12,22.600000381469727,22.799999237060547,22.559999465942383,22.799999237060547,19.768949508666992,5700
2017-09-13,22.81999969482422,23.0,22.700000762939453,23.0,19.94236183166504,2800
2017-09-14,22.989999771118164,22.989999771118164,22.944000244140625,22.944000244140625,19.893808364868164,600
2017-09-15,22.940000534057617,22.959999084472656,22.763999938964844,22.889999389648438,19.84698486328125,2200
2017-09-18,22.989999771118164,23.0,22.850000381469727,22.979999542236328,19.925020217895508,1300
2017-09-19,22.989999771118164,23.0,22.420000076293945,22.649999618530273,19.638891220092773,12700
2017-09-20,22.829999923706055,23.110000610351562,22.700000762939453,22.799999237060547,19.768949508666992,5900
2017-09-21,22.81999969482422,22.850000381469727,22.719999313354492,22.850000381469727,19.812301635742188,3700
2017-09-22,23.389999389648438,23.389999389648438,22.709999084472656,22.719999313354492,19.6995849609375,2500
2017-09-25,22.719999313354492,23.209999084472656,22.719999313354492,23.142000198364258,20.06548500061035,15300
2017-09-26,22.871999740600586,23.09000015258789,22.871999740600586,23.079999923706055,20.0117244720459,10200
2017-09-27,22.899999618530273,23.058000564575195,22.700000762939453,23.058000564575195,19.992652893066406,6500
2017-09-28,22.84000015258789,22.84000015258789,22.280000686645508,22.450000762939453,19.9384765625,3800
2017-09-29,22.489999771118164,22.719999313354492,22.170000076293945,22.670000076293945,20.133861541748047,3300
2017-10-02,22.65999984741211,22.700000762939453,22.65999984741211,22.700000762939453,20.16050910949707,1100
2017-10-03,22.257999420166016,22.670000076293945,22.257999420166016,22.670000076293945,20.133861541748047,700
2017-10-04,22.700000762939453,22.700000762939453,22.25200080871582,22.600000381469727,20.07169532775879,1100
2017-10-05,22.549999237060547,22.600000381469727,22.489999771118164,22.59000015258789,20.06281280517578,1700
2017-10-06,22.299999237060547,22.55500030517578,22.299999237060547,22.510000228881836,19.991762161254883,2600
2017-10-09,22.06999969482422,22.55900001525879,22.06999969482422,22.43000030517578,19.920713424682617,1700
2017-10-10,22.58099937438965,22.809999465942383,22.58099937438965,22.809999465942383,20.25819969177246,5300
2017-10-11,22.843000411987305,22.843000411987305,22.600000381469727,22.676000595092773,20.13919448852539,1800
2017-10-12,22.663999557495117,22.663999557495117,22.617000579833984,22.6200008392334,20.08945655822754,1700
2017-10-13,22.621000289916992,22.700000762939453,22.621000289916992,22.68000030517578,20.142745971679688,900
2017-10-16,22.75,22.75,21.959999084472656,22.040000915527344,19.574342727661133,21600
2017-10-17,21.989999771118164,21.989999771118164,21.222000122070312,21.450000762939453,19.05034828186035,12100
2017-10-18,21.170000076293945,21.274999618530273,20.010000228881836,20.700000762939453,18.384252548217773,43000
2017-10-19,20.698999404907227,20.700000762939453,20.010000228881836,20.25,17.98459243774414,21100
2017-10-20,20.010000228881836,20.93000030517578,20.010000228881836,20.200000762939453,17.940189361572266,16400
2017-10-23,20.18000030517578,20.649999618530273,20.18000030517578,20.5,18.20662498474121,1000
2017-10-24,20.253999710083008,20.31999969482422,20.18000030517578,20.18000030517578,17.922422409057617,700
2017-10-25,20.43000030517578,20.43000030517578,20.100000381469727,20.200000762939453,17.940189361572266,2700
2017-10-26,20.18400001525879,20.301000595092773,20.09000015258789,20.18000030517578,17.922422409057617,4900
2017-10-27,20.399999618530273,20.579999923706055,20.399999618530273,20.510000228881836,18.215505599975586,7900
2017-10-30,20.829999923706055,20.829999923706055,20.399999618530273,20.5,18.20662498474121,3200
2017-10-31,20.5,20.530000686645508,20.450000762939453,20.450000762939453,18.162221908569336,1200
2017-11-01,20.600000381469727,20.600000381469727,20.09000015258789,20.290000915527344,18.02012062072754,2000
2017-11-02,20.31999969482422,20.31999969482422,20.25,20.25,17.98459243774414,700
2017-11-03,20.16699981689453,20.25,19.15999984741211,19.170000076293945,17.025415420532227,7700
2017-11-06,19.399999618530273,19.399999618530273,19.020000457763672,19.020000457763672,16.892196655273438,9800
2017-11-07,19.020000457763672,19.020000457763672,19.020000457763672,19.020000457763672,16.892196655273438,0
2017-11-08,19.200000762939453,19.200000762939453,19.059999465942383,19.09000015258789,16.954364776611328,8500
2017-11-09,20.0,20.399999618530273,20.0,20.309999465942383,18.037879943847656,3800
2017-11-10,20.399999618530273,20.700000762939453,20.174999237060547,20.56999969482422,18.268795013427734,19500
2017-11-13,20.600000381469727,20.850000381469727,20.56999969482422,20.56999969482422,18.268795013427734,1500
2017-11-14,21.0,21.0,20.350000381469727,20.5,18.20662498474121,3600
2017-11-15,20.5,20.5,20.5,20.5,18.20662498474121,0
2017-11-16,20.3799991607666,20.700000762939453,20.3799991607666,20.649999618530273,18.33984375,8200
2017-11-17,20.510000228881836,20.75,20.385000228881836,20.389999389648438,18.108928680419922,1500
2017-11-20,20.18000030517578,20.51300048828125,20.18000030517578,20.434999465942383,18.148897171020508,7700
2017-11-21,20.450000762939453,20.549999237060547,20.388999938964844,20.450000762939453,18.162221908569336,13300
2017-11-22,20.440000534057617,20.75,20.378999710083008,20.679000854492188,18.365598678588867,15000
2017-11-24,20.679000854492188,20.679000854492188,20.679000854492188,20.679000854492188,18.365598678588867,0
2017-11-27,19.760000228881836,20.8799991607666,19.75,20.75,18.42865753173828,11400
2017-11-28,20.8700008392334,20.951000213623047,20.582000732421875,20.68000030517578,18.36648941040039,15900
2017-11-29,20.690000534057617,20.979999542236328,20.667999267578125,20.80500030517578,18.47750473022461,4900
2017-11-30,20.84000015258789,20.969999313354492,20.84000015258789,20.920000076293945,18.579639434814453,2600
2017-12-01,21.0,21.0,20.809999465942383,20.950000762939453,18.606285095214844,6700
2017-12-04,20.798999786376953,21.0,20.798999786376953,21.0,18.65069007873535,600
2017-12-05,20.8799991607666,21.299999237060547,20.8799991607666,21.10099983215332,18.740388870239258,7400
2017-12-06,21.239999771118164,21.25,20.893999099731445,21.079999923706055,18.72174072265625,2200
2017-12-07,21.15999984741211,21.600000381469727,21.15999984741211,21.239999771118164,18.86383819580078,16600
2017-12-08,22.200000762939453,22.200000762939453,21.530000686645508,21.530000686645508,19.121397018432617,12400
2017-12-11,21.540000915527344,21.618999481201172,21.200000762939453,21.360000610351562,18.970417022705078,13400
2017-12-12,21.489999771118164,21.780000686645508,21.479999542236328,21.5,19.094755172729492,2900
2017-12-13,21.40999984741211,21.68000030517578,20.940000534057617,20.969999313354492,18.624042510986328,16000
2017-12-14,21.010000228881836,21.43000030517578,20.979999542236328,21.299999237060547,18.917125701904297,5900
2017-12-15,21.739999771118164,21.739999771118164,21.5,21.5,19.094755172729492,1200
2017-12-18,21.450000762939453,21.469999313354492,21.150999069213867,21.229999542236328,18.854957580566406,2400
2017-12-19,21.302000045776367,21.302000045776367,21.302000045776367,21.302000045776367,18.91890525817871,1000
2017-12-20,21.350000381469727,21.3700008392334,21.350000381469727,21.3700008392334,18.979299545288086,3200
2017-12-21,21.34000015258789,21.440000534057617,21.299999237060547,21.42799949645996,19.03080940246582,10800
2017-12-22,21.469999313354492,21.469999313354492,21.469999313354492,21.469999313354492,19.06810760498047,200
2017-12-26,21.378999710083008,21.979999542236328,21.378999710083008,21.809999465942383,19.370071411132812,3900
2017-12-27,21.420000076293945,21.700000762939453,21.3799991607666,21.649999618530273,19.227970123291016,7200
2017-12-28,21.270000457763672,21.270000457763672,20.200000762939453,20.350000381469727,18.54187774658203,12500
2017-12-29,20.25,20.26799964904785,19.950000762939453,20.100000381469727,18.314088821411133,12300
2018-01-02,20.09000015258789,20.09000015258789,19.350000381469727,19.559999465942383,17.82206916809082,6600
2018-01-03,19.399999618530273,19.40999984741211,18.90999984741211,19.329999923706055,17.612504959106445,10600
2018-01-04,19.100000381469727,19.100000381469727,18.579999923706055,18.799999237060547,17.129596710205078,5000
2018-01-05,18.559999465942383,18.799999237060547,18.309999465942383,18.43400001525879,16.796117782592773,11700
2018-01-08,18.299999237060547,18.479999542236328,17.799999237060547,18.360000610351562,16.72869110107422,9100
2018-01-09,18.229999542236328,18.229999542236328,17.110000610351562,17.350000381469727,15.808430671691895,59900
2018-01-10,17.399999618530273,17.510000228881836,16.479999542236328,16.5,15.033955574035645,174500
2018-01-11,16.450000762939453,18.5,16.450000762939453,18.5,16.856252670288086,342700
2018-01-12,17.940000534057617,18.25,17.299999237060547,17.520000457763672,15.963325500488281,53500
2018-01-16,17.829999923706055,17.829999923706055,16.65999984741211,17.045000076293945,15.53053092956543,63000
2018-01-17,17.049999237060547,17.600000381469727,17.0049991607666,17.309999465942383,15.771985054016113,67700
2018-01-18,17.34000015258789,17.549999237060547,17.25,17.34000015258789,15.799318313598633,25400
2018-01-19,17.450000762939453,17.55500030517578,17.290000915527344,17.290000915527344,15.753762245178223,19800
2018-01-22,17.290000915527344,17.440000534057617,17.1200008392334,17.420000076293945,15.872212409973145,23600
2018-01-23,17.40999984741211,17.420000076293945,17.200000762939453,17.270000457763672,15.735540390014648,204600
2018-01-24,17.319000244140625,17.389999389648438,17.290000915527344,17.299999237060547,15.762871742248535,18000
2018-01-25,17.25,17.459999084472656,17.0,17.184999465942383,15.658090591430664,12700
2018-01-26,17.190000534057617,17.25,17.190000534057617,17.209999084472656,15.680869102478027,13800
2018-01-29,17.1299991607666,17.184999465942383,17.0,17.135000228881836,15.612533569335938,5400
2018-01-30,17.170000076293945,17.530000686645508,17.0,17.530000686645508,15.97243881225586,19700
2018-01-31,17.459999084472656,17.5,17.25,17.5,15.945103645324707,56000
2018-02-01,17.5,17.75,17.415000915527344,17.549999237060547,15.990659713745117,44900
2018-02-02,17.540000915527344,17.549999237060547,17.0,17.25,15.717315673828125,30900
2018-02-05,17.290000915527344,17.989999771118164,17.209999084472656,17.479999542236328,15.9268798828125,28200
2018-02-06,17.450000762939453,17.649999618530273,17.100000381469727,17.100000381469727,15.580645561218262,16800
2018-02-07,17.700000762939453,17.700000762939453,17.149999618530273,17.500999450683594,15.946013450622559,6200
2018-02-08,17.59000015258789,17.59000015258789,17.579999923706055,17.59000015258789,16.02710723876953,1500
2018-02-09,17.28499984741211,18.329999923706055,17.049999237060547,18.329999923706055,16.701358795166016,9200
2018-02-12,17.93000030517578,17.940000534057617,17.450000762939453,17.75,16.172889709472656,40000
2018-02-13,17.780000686645508,17.826000213623047,17.530000686645508,17.549999237060547,15.990659713745117,10700
2018-02-14,17.31999969482422,17.700000762939453,17.31999969482422,17.700000762939453,16.12733268737793,1600
2018-02-15,17.67300033569336,17.860000610351562,17.593000411987305,17.700000762939453,16.12733268737793,3500
2018-02-16,17.700000762939453,18.079999923706055,17.700000762939453,17.75,16.172889709472656,11300
2018-02-20,17.600000381469727,17.600000381469727,16.90999984741211,17.34000015258789,15.799318313598633,111800
2018-02-21,16.829999923706055,17.26799964904785,16.56999969482422,16.959999084472656,15.453082084655762,26800
2018-02-22,16.979999542236328,17.0,16.68000030517578,16.68000030517578,15.197961807250977,61700
2018-02-23,16.719999313354492,16.780000686645508,16.33099937438965,16.459999084472656,14.997507095336914,49200
2018-02-26,16.350000381469727,16.600000381469727,16.350000381469727,16.600000381469727,15.125068664550781,8900
2018-02-27,16.520000457763672,17.5,16.520000457763672,17.030000686645508,15.516863822937012,7200
2018-02-28,17.139999389648438,17.190000534057617,16.93000030517578,17.15999984741211,15.6353120803833,8400
2018-03-01,17.066999435424805,17.219999313354492,16.81999969482422,16.964000701904297,15.4567289352417,3800
2018-03-02,16.979999542236328,17.0,16.865999221801758,17.0,15.489529609680176,5800
2018-03-05,16.690000534057617,17.18000030517578,16.600000381469727,16.600000381469727,15.125068664550781,6900
2018-03-06,16.649999618530273,16.649999618530273,16.020000457763672,16.020000457763672,14.596603393554688,10100
2018-03-07,15.8100004196167,15.8100004196167,14.904999732971191,15.510000228881836,14.131916999816895,98600
2018-03-08,15.479999542236328,15.710000038146973,15.420000076293945,15.600000381469727,14.213920593261719,23900
2018-03-09,15.65999984741211,16.479999542236328,15.649999618530273,15.75,14.350592613220215,27600
2018-03-12,15.539999961853027,15.899999618530273,15.5,15.75,14.350592613220215,6800
2018-03-13,15.539999961853027,16.360000610351562,15.539999961853027,15.960000038146973,14.5419340133667,10800
2018-03-14,16.0,16.030000686645508,15.75,15.8100004196167,14.405261993408203,8800
2018-03-15,15.960000038146973,15.960000038146973,15.25,15.25,13.89501953125,79400
2018-03-16,15.260000228881836,16.479999542236328,15.25,15.630000114440918,14.241255760192871,32400
2018-03-19,15.359999656677246,15.75,15.359999656677246,15.479999542236328,14.104582786560059,11100
2018-03-20,15.479999542236328,15.550000190734863,15.399999618530273,15.430000305175781,14.059025764465332,5700
2018-03-21,15.319999694824219,15.600000381469727,15.319999694824219,15.579999923706055,14.195696830749512,16600
2018-03-22,15.699999809265137,16.0,15.510000228881836,15.75,14.350592613220215,33400
2018-03-23,16.0,16.18000030517578,15.010000228881836,15.75,14.350592613220215,45700
2018-03-26,15.960000038146973,16.344999313354492,15.425000190734863,15.5600004196167,14.177474975585938,26700
2018-03-27,15.84000015258789,15.84000015258789,15.449999809265137,15.449999809265137,14.077248573303223,2700
2018-03-28,14.65999984741211,15.350000381469727,14.65999984741211,14.949999809265137,14.121644020080566,5800
2018-03-29,15.239999771118164,15.824999809265137,15.177000045776367,15.630000114440918,14.763965606689453,15300
2018-04-02,15.050000190734863,15.319999694824219,14.970000267028809,15.039999961853027,14.206657409667969,9200
2018-04-03,15.288000106811523,15.470000267028809,15.005000114440918,15.079999923706055,14.244440078735352,6000
2018-04-04,15.069999694824219,15.25,14.770000457763672,15.130000114440918,14.291670799255371,12600
2018-04-05,15.109999656677246,15.739999771118164,15.010000228881836,15.5,14.641169548034668,26100
2018-04-06,15.359999656677246,15.359999656677246,15.359999656677246,15.359999656677246,14.508926391601562,600
2018-04-09,15.539999961853027,15.579999923706055,15.449999809265137,15.489999771118164,14.631722450256348,15100
2018-04-10,15.470000267028809,15.550000190734863,15.3149995803833,15.550000190734863,14.688399314880371,900
2018-04-11,15.600000381469727,15.640000343322754,15.40999984741211,15.40999984741211,14.556156158447266,5500
2018-04-12,15.65999984741211,15.720000267028809,15.380000114440918,15.640000343322754,14.773412704467773,8000
2018-04-13,15.710000038146973,15.75,15.600000381469727,15.75,14.877317428588867,14600
2018-04-16,15.729999542236328,15.949999809265137,15.71500015258789,15.800000190734863,14.92454719543457,3900
2018-04-17,15.800000190734863,16.020000457763672,15.699999809265137,16.0,15.113465309143066,31300
2018-04-18,16.049999237060547,16.209999084472656,15.800000190734863,16.049999237060547,15.160694122314453,36500
2018-04-19,16.15999984741211,16.56999969482422,15.369999885559082,15.630000114440918,14.763965606689453,35800
2018-04-20,15.630000114440918,15.630000114440918,15.630000114440918,15.630000114440918,14.763965606689453,0
2018-04-23,15.630000114440918,15.760000228881836,15.15999984741211,15.600000381469727,14.735628128051758,18000
2018-04-24,15.548999786376953,15.659000396728516,15.548999786376953,15.659000396728516,14.791358947753906,2300
2018-04-25,15.755000114440918,15.755000114440918,15.625,15.625,14.75924301147461,4000
2018-04-26,15.765000343322754,15.800000190734863,15.729999542236328,15.729999542236328,14.85842514038086,1400
2018-04-27,15.920000076293945,16.0,15.920000076293945,15.979999542236328,15.094573020935059,2000
2018-04-30,16.059999465942383,16.170000076293945,15.982999801635742,16.170000076293945,15.274045944213867,2200
2018-05-01,16.0,16.0,15.949999809265137,16.0,15.113465309143066,49900
2018-05-02,15.550000190734863,16.170000076293945,15.520999908447266,16.0,15.113465309143066,7900
2018-05-03,15.600000381469727,16.059999465942383,15.600000381469727,16.059999465942383,15.17013931274414,2200
2018-05-04,16.0,16.0,16.0,16.0,15.113465309143066,20000
2018-05-07,16.1299991607666,16.559999465942383,16.1299991607666,16.3700008392334,15.46296501159668,1300
2018-05-08,16.5,16.530000686645508,16.5,16.5,15.585761070251465,2400
2018-05-09,16.440000534057617,17.5,16.440000534057617,17.25,16.294204711914062,36900
2018-05-10,17.5,18.030000686645508,17.43400001525879,17.690000534057617,16.70982551574707,24000
2018-05-11,17.790000915527344,17.923999786376953,17.68899917602539,17.8799991607666,16.889297485351562,33100
2018-05-14,17.59000015258789,18.0,17.520000457763672,18.0,17.002647399902344,46600
2018-05-15,17.790000915527344,17.959999084472656,17.790000915527344,17.959999084472656,16.96486473083496,400
2018-05-16,17.790000915527344,17.989999771118164,17.639999389648438,17.850000381469727,16.860960006713867,8400
2018-05-17,17.68000030517578,17.989999771118164,17.600000381469727,17.989999771118164,16.993202209472656,26700
2018-05-18,18.0,18.110000610351562,17.959999084472656,18.110000610351562,17.10655403137207,23800
2018-05-21,18.024999618530273,18.17099952697754,17.850000381469727,17.899999618530273,16.908187866210938,5700
2018-05-22,17.940000534057617,18.0,17.899999618530273,18.0,17.002647399902344,7700
2018-05-23,18.0,18.0,18.0,18.0,17.002647399902344,0
2018-05-24,18.0,18.170000076293945,18.0,18.170000076293945,17.16322898864746,400
2018-05-25,18.058000564575195,18.058000564575195,18.058000564575195,18.058000564575195,17.05743408203125,100
2018-05-29,17.924999237060547,18.040000915527344,17.924999237060547,18.040000915527344,17.04043197631836,2000
2018-05-30,18.040000915527344,18.040000915527344,18.040000915527344,18.040000915527344,17.04043197631836,0
2018-05-31,18.040000915527344,18.040000915527344,18.040000915527344,18.040000915527344,17.04043197631836,0
2018-06-01,17.836999893188477,18.079999923706055,17.836999893188477,18.049999237060547,17.049877166748047,700
2018-06-04,18.049999237060547,18.049999237060547,18.049999237060547,18.049999237060547,17.049877166748047,0
2018-06-05,17.850000381469727,17.850000381469727,17.850000381469727,17.850000381469727,16.860960006713867,400
2018-06-06,17.850000381469727,18.0,17.850000381469727,18.0,17.002647399902344,2500
2018-06-07,18.049999237060547,18.049999237060547,17.69099998474121,17.709999084472656,16.728715896606445,3700
2018-06-08,17.764999389648438,17.764999389648438,17.510000228881836,17.510000228881836,16.539798736572266,1000
2018-06-11,17.510000228881836,17.510000228881836,17.510000228881836,17.510000228881836,16.539798736572266,0
2018-06-12,17.860000610351562,17.989999771118164,17.860000610351562,17.979999542236328,16.983755111694336,3100
2018-06-13,18.170000076293945,18.170000076293945,18.010000228881836,18.030000686645508,17.030986785888672,1200
2018-06-14,18.030000686645508,18.030000686645508,18.030000686645508,18.030000686645508,17.030986785888672,0
2018-06-15,18.0,18.200000762939453,17.989999771118164,18.139999389648438,17.134889602661133,2800
2018-06-18,18.0,18.0,17.950000762939453,17.950000762939453,16.955419540405273,2400
2018-06-19,17.899999618530273,17.899999618530273,17.899999618530273,17.899999618530273,16.908187866210938,100
2018-06-20,18.200000762939453,18.200000762939453,17.899999618530273,17.899999618530273,16.908187866210938,800
2018-06-21,17.899999618530273,18.25,17.89299964904785,18.1299991607666,17.125444412231445,6900
2018-06-22,18.190000534057617,18.190000534057617,17.891000747680664,17.89299964904785,16.90157699584961,1200
2018-06-25,17.89299964904785,17.89299964904785,17.89299964904785,17.89299964904785,16.90157699584961,0
2018-06-26,18.200000762939453,18.200000762939453,18.155000686645508,18.17799949645996,17.17078399658203,1000
2018-06-27,18.239999771118164,18.239999771118164,18.18600082397461,18.219999313354492,17.21045684814453,2300
2018-06-28,17.920000076293945,18.28499984741211,17.881000518798828,18.139999389648438,17.66523551940918,2300
2018-06-29,18.469999313354492,18.559999465942383,18.290000915527344,18.559999465942383,18.074243545532227,8000
2018-07-02,18.84000015258789,18.90999984741211,18.459999084472656,18.90999984741211,18.415082931518555,5200
2018-07-03,18.549999237060547,18.549999237060547,18.549999237060547,18.549999237060547,18.064504623413086,500
2018-07-05,18.649999618530273,18.760000228881836,18.559999465942383,18.760000228881836,18.26900863647461,2200
2018-07-06,18.59000015258789,18.799999237060547,18.59000015258789,18.799999237060547,18.30796241760254,1100
2018-07-09,18.75,19.354999542236328,17.889999389648438,18.75,18.2592716217041,23800
2018-07-10,18.889999389648438,19.0,18.75,18.985000610351562,18.488121032714844,13500
2018-07-11,18.549999237060547,19.334999084472656,18.549999237060547,19.25,18.746185302734375,2900
2018-07-12,19.239999771118164,19.3700008392334,19.18000030517578,19.3700008392334,18.86304473876953,5700
2018-07-13,19.31999969482422,19.350000381469727,19.31999969482422,19.350000381469727,18.843568801879883,1600
2018-07-16,19.3700008392334,19.3700008392334,19.34000015258789,19.34000015258789,18.833829879760742,3100
2018-07-17,19.329999923706055,19.3700008392334,19.31999969482422,19.329999923706055,18.8240909576416,10500
2018-07-18,19.350000381469727,19.3700008392334,19.290000915527344,19.299999237060547,18.794876098632812,4000
2018-07-19,19.3700008392334,21.285999298095703,19.336999893188477,19.850000381469727,19.330482482910156,13700
2018-07-20,19.6299991607666,20.860000610351562,19.6299991607666,20.25,19.720012664794922,3500
2018-07-23,20.15999984741211,20.15999984741211,19.979999542236328,20.0,19.47655487060547,4200
2018-07-24,20.0,20.100000381469727,19.93000030517578,20.0,19.47655487060547,15200
2018-07-25,20.399999618530273,21.56800079345703,19.989999771118164,20.299999237060547,19.76870346069336,8300
2018-07-26,20.950000762939453,20.950000762939453,20.450000762939453,20.90999984741211,20.36273956298828,3000
2018-07-27,20.350000381469727,20.350000381469727,19.559999465942383,19.559999465942383,19.048070907592773,7400
2018-07-30,19.799999237060547,20.93000030517578,19.799999237060547,20.5,19.963468551635742,6200
2018-07-31,20.700000762939453,20.799999237060547,20.450000762939453,20.450000762939453,19.914779663085938,800
2018-08-01,20.450000762939453,20.450000762939453,20.450000762939453,20.450000762939453,19.914779663085938,0
2018-08-02,19.770000457763672,20.0,19.25,19.790000915527344,19.272052764892578,16400
2018-08-03,19.809999465942383,19.809999465942383,19.809999465942383,19.809999465942383,19.291528701782227,100
2018-08-06,19.790000915527344,20.934999465942383,19.56999969482422,20.229999542236328,19.70053482055664,8300
2018-08-07,20.100000381469727,20.649999618530273,19.399999618530273,19.75,19.23309898376465,3100
2018-08-08,19.75,19.969999313354492,19.530000686645508,19.719999313354492,19.203882217407227,9300
2018-08-09,19.8700008392334,20.0,19.649999618530273,19.847000122070312,19.327560424804688,3600
2018-08-10,19.920000076293945,19.989999771118164,19.75,19.989999771118164,19.46681785583496,1400
2018-08-13,19.989999771118164,19.989999771118164,19.989999771118164,19.989999771118164,19.46681785583496,0
2018-08-14,19.989999771118164,19.989999771118164,19.989999771118164,19.989999771118164,19.46681785583496,0
2018-08-15,19.899999618530273,19.899999618530273,19.399999618530273,19.899999618530273,19.379173278808594,20300
2018-08-16,20.1299991607666,20.1299991607666,19.899999618530273,19.899999618530273,19.379173278808594,300
2018-08-17,19.899999618530273,19.899999618530273,19.899999618530273,19.899999618530273,19.379173278808594,0
2018-08-20,19.864999771118164,21.0,19.860000610351562,20.75,20.206926345825195,6000
2018-08-21,20.389999389648438,20.850000381469727,20.200000762939453,20.850000381469727,20.304309844970703,2300
2018-08-22,20.899999618530273,21.440000534057617,20.58799934387207,21.170000076293945,20.615934371948242,10300
2018-08-23,20.649999618530273,21.485000610351562,20.229999542236328,21.18000030517578,20.625673294067383,25900
2018-08-24,20.239999771118164,21.950000762939453,20.239999771118164,21.829999923706055,21.2586612701416,10400
2018-08-27,21.549999237060547,21.799999237060547,21.516000747680664,21.799999237060547,21.22944450378418,1000
2018-08-28,21.559999465942383,22.0,21.0,22.0,21.424211502075195,1200
2018-08-29,21.091999053955078,22.0,21.091999053955078,21.299999237060547,20.742530822753906,2400
2018-08-30,21.222000122070312,22.0,21.222000122070312,22.0,21.424211502075195,13700
2018-08-31,21.290000915527344,21.799999237060547,21.290000915527344,21.790000915527344,21.219707489013672,3500
2018-09-04,21.378000259399414,21.799999237060547,20.59000015258789,21.75,21.180753707885742,19900
2018-09-05,20.540000915527344,22.0,20.0,21.84000015258789,21.26839828491211,39800
2018-09-06,21.200000762939453,21.5,20.84000015258789,21.170000076293945,20.615934371948242,37500
2018-09-07,20.860000610351562,21.360000610351562,20.334999084472656,21.0,20.45038414001465,19600
2018-09-10,21.1299991607666,21.19499969482422,21.1299991607666,21.19499969482422,20.64027976989746,300
2018-09-11,21.280000686645508,21.3799991607666,20.670000076293945,21.100000381469727,20.547765731811523,13700
2018-09-12,21.209999084472656,21.809999465942383,21.209999084472656,21.770000457763672,21.200231552124023,1600
2018-09-13,21.690000534057617,21.75,21.20400047302246,21.719999313354492,21.151538848876953,4400
2018-09-14,21.75,21.75,21.1299991607666,21.440000534057617,20.878868103027344,4400
2018-09-17,21.579999923706055,21.579999923706055,21.530000686645508,21.530000686645508,20.96651268005371,600
2018-09-18,21.56999969482422,21.694000244140625,21.200000762939453,21.200000762939453,20.64514923095703,2200
2018-09-19,21.124000549316406,21.329999923706055,21.100000381469727,21.200000762939453,20.64514923095703,3900
2018-09-20,21.0,21.270000457763672,20.040000915527344,21.059999465942383,20.508811950683594,4700
2018-09-21,20.43000030517578,21.549999237060547,20.43000030517578,21.149999618530273,20.59645652770996,9300
2018-09-24,20.940000534057617,21.149999618530273,20.940000534057617,20.989999771118164,20.440645217895508,3000
2018-09-25,20.989999771118164,20.989999771118164,20.989999771118164,20.989999771118164,20.440645217895508,0
2018-09-26,20.66200065612793,21.0,20.60099983215332,20.899999618530273,20.35300064086914,20200
2018-09-27,21.0,21.0,20.65999984741211,20.940000534057617,20.940000534057617,11200
2018-09-28,21.0,21.0,20.749000549316406,20.959999084472656,20.959999084472656,5000
2018-10-01,21.09000015258789,21.639999389648438,20.899999618530273,20.899999618530273,20.899999618530273,4800
2018-10-02,20.770000457763672,20.889999389648438,20.770000457763672,20.889999389648438,20.889999389648438,900
2018-10-03,20.450000762939453,20.670000076293945,20.1200008392334,20.5,20.5,30700
2018-10-04,20.209999084472656,20.940000534057617,20.18000030517578,20.780000686645508,20.780000686645508,2800
2018-10-05,20.5,20.950000762939453,20.40999984741211,20.885000228881836,20.885000228881836,2700
2018-10-08,20.950000762939453,20.950000762939453,20.5,20.5,20.5,600
2018-10-09,20.239999771118164,21.68000030517578,20.100000381469727,20.969999313354492,20.969999313354492,5000
2018-10-10,20.72599983215332,20.979999542236328,20.232999801635742,20.56999969482422,20.56999969482422,6200
2018-10-11,20.316999435424805,20.316999435424805,19.56999969482422,19.826000213623047,19.826000213623047,10200
2018-10-12,19.826000213623047,19.826000213623047,19.826000213623047,19.826000213623047,19.826000213623047,0
2018-10-15,19.989999771118164,19.989999771118164,19.0,19.5,19.5,20800
2018-10-16,19.040000915527344,19.989999771118164,18.70800018310547,19.280000686645508,19.280000686645508,33100
2018-10-17,19.299999237060547,19.42799949645996,18.790000915527344,19.270000457763672,19.270000457763672,15500
2018-10-18,19.280000686645508,19.299999237060547,18.9060001373291,19.299999237060547,19.299999237060547,3800
2018-10-19,18.979999542236328,19.420000076293945,18.899999618530273,19.0,19.0,3100
2018-10-22,18.148000717163086,18.989999771118164,17.770000457763672,18.610000610351562,18.610000610351562,8500
2018-10-23,18.25,18.790000915527344,18.0,18.690000534057617,18.690000534057617,5900
2018-10-24,18.200000762939453,18.520000457763672,18.200000762939453,18.5,18.5,2300
2018-10-25,18.44499969482422,18.59000015258789,18.299999237060547,18.399999618530273,18.399999618530273,6600
2018-10-26,18.850000381469727,18.979999542236328,18.780000686645508,18.8700008392334,18.8700008392334,1200
2018-10-29,18.75,18.75,18.339000701904297,18.339000701904297,18.339000701904297,600
2018-10-30,18.5,19.375,18.33300018310547,18.59000015258789,18.59000015258789,37400
2018-10-31,19.084999084472656,19.084999084472656,18.457000732421875,18.84000015258789,18.84000015258789,6900
2018-11-01,18.780000686645508,19.665000915527344,18.636999130249023,19.100000381469727,19.100000381469727,23500
2018-11-02,19.100000381469727,19.100000381469727,19.100000381469727,19.100000381469727,19.100000381469727,0
2018-11-05,19.020000457763672,19.469999313354492,18.6200008392334,19.440000534057617,19.440000534057617,4600
2018-11-06,19.450000762939453,19.68000030517578,19.290000915527344,19.31999969482422,19.31999969482422,3100
2018-11-07,19.290000915527344,19.489999771118164,18.951000213623047,19.290000915527344,19.290000915527344,7200
2018-11-08,19.139999389648438,19.489999771118164,19.100000381469727,19.270000457763672,19.270000457763672,7400
2018-11-09,19.170000076293945,19.170000076293945,19.170000076293945,19.170000076293945,19.170000076293945,100
2018-11-12,18.520000457763672,19.229999542236328,18.34000015258789,18.5,18.5,9100
2018-11-13,18.549999237060547,18.559999465942383,18.260000228881836,18.450000762939453,18.450000762939453,12000
2018-11-14,18.559999465942383,18.559999465942383,18.020000457763672,18.31999969482422,18.31999969482422,20600
2018-11-15,18.06999969482422,19.260000228881836,17.5,18.719999313354492,18.719999313354492,15300
2018-11-16,18.18199920654297,18.485000610351562,17.834999084472656,18.34000015258789,18.34000015258789,5200
2018-11-19,18.149999618530273,18.3799991607666,18.010000228881836,18.290000915527344,18.290000915527344,2200
2018-11-20,18.04199981689453,18.18000030517578,17.93600082397461,18.18000030517578,18.18000030517578,3000
2018-11-21,18.899999618530273,18.899999618530273,17.309999465942383,18.440000534057617,18.440000534057617,13400
2018-11-23,17.68000030517578,18.209999084472656,17.5,17.5,17.5,1700
2018-11-26,17.979999542236328,18.07699966430664,17.229999542236328,17.450000762939453,17.450000762939453,10500
2018-11-27,17.86199951171875,18.3799991607666,17.459999084472656,17.591999053955078,17.591999053955078,2700
2018-11-28,17.649999618530273,17.700000762939453,17.299999237060547,17.489999771118164,17.489999771118164,11800
2018-11-29,17.540000915527344,18.0,17.540000915527344,18.0,18.0,1800
2018-11-30,18.600000381469727,18.600000381469727,17.940000534057617,18.010000228881836,18.010000228881836,3100
2018-12-03,17.600000381469727,17.652999877929688,17.354000091552734,17.649999618530273,17.649999618530273,2700
2018-12-04,17.649999618530273,17.649999618530273,17.649999618530273,17.649999618530273,17.649999618530273,200
2018-12-06,17.510000228881836,17.670000076293945,17.510000228881836,17.58300018310547,17.58300018310547,1900
2018-12-07,17.59000015258789,17.860000610351562,17.350000381469727,17.350000381469727,17.350000381469727,3300
2018-12-10,17.350000381469727,17.350000381469727,17.350000381469727,17.350000381469727,17.350000381469727,100
2018-12-11,17.049999237060547,18.030000686645508,16.950000762939453,17.391000747680664,17.391000747680664,19200
2018-12-12,17.136999130249023,17.645000457763672,17.136999130249023,17.517000198364258,17.517000198364258,11400
2018-12-13,17.367000579833984,17.413999557495117,16.8799991607666,17.233999252319336,17.233999252319336,16100
2018-12-14,16.985000610351562,17.309999465942383,16.8799991607666,16.940000534057617,16.940000534057617,900
2018-12-17,16.950000762939453,17.368000030517578,16.260000228881836,16.309999465942383,16.309999465942383,21500
2018-12-18,16.6200008392334,16.6200008392334,16.253000259399414,16.309999465942383,16.309999465942383,10000
2018-12-19,16.38599967956543,17.052000045776367,16.25,16.25,16.25,5300
2018-12-20,16.110000610351562,16.510000228881836,15.755000114440918,15.755000114440918,15.755000114440918,13700
2018-12-21,12.65999984741211,12.65999984741211,7.000999927520752,9.0,9.0,491400
2018-12-24,8.970000267028809,9.375,8.510000228881836,8.760000228881836,8.760000228881836,31400
2018-12-26,8.944999694824219,10.0,8.800000190734863,9.9399995803833,9.9399995803833,118200
2018-12-27,9.619999885559082,10.489999771118164,9.460000038146973,10.010000228881836,10.010000228881836,20100
2018-12-28,10.0,11.6899995803833,9.0,10.244999885559082,10.244999885559082,30300
2018-12-31,10.0,10.180999755859375,9.104999542236328,9.630999565124512,9.630999565124512,31000
2019-01-02,9.449999809265137,10.470000267028809,9.449999809265137,10.399999618530273,10.399999618530273,11700
2019-01-03,10.0,11.4399995803833,10.0,10.649999618530273,10.649999618530273,8900
2019-01-04,10.979999542236328,11.300000190734863,10.979999542236328,11.022000312805176,11.022000312805176,5400
2019-01-07,11.140000343322754,11.272000312805176,11.039999961853027,11.17199993133545,11.17199993133545,7000
2019-01-08,12.119999885559082,12.119999885559082,11.380000114440918,11.880000114440918,11.880000114440918,10400
2019-01-09,12.020000457763672,12.399999618530273,11.319999694824219,12.199999809265137,12.199999809265137,13200
2019-01-10,12.25,13.630000114440918,12.25,13.470000267028809,13.470000267028809,30400
2019-01-11,13.170000076293945,13.630000114440918,13.170000076293945,13.5,13.5,41700
2019-01-14,12.829999923706055,13.25,12.199999809265137,12.199999809265137,12.199999809265137,11500
2019-01-15,12.40999984741211,12.989999771118164,12.119999885559082,12.699999809265137,12.699999809265137,12100
2019-01-16,14.0600004196167,14.0600004196167,12.029999732971191,12.289999961853027,12.289999961853027,1800
2019-01-17,12.359999656677246,13.329999923706055,11.975000381469727,12.829999923706055,12.829999923706055,6800
2019-01-18,12.949999809265137,13.348999977111816,12.199999809265137,12.75,12.75,7500
2019-01-22,13.180000305175781,13.180000305175781,12.055000305175781,12.239999771118164,12.239999771118164,14100
2019-01-23,12.170000076293945,12.640000343322754,11.5,12.069999694824219,12.069999694824219,13200
2019-01-24,12.050000190734863,12.050000190734863,11.579999923706055,11.8100004196167,11.8100004196167,3800
2019-01-25,11.970000267028809,11.970000267028809,11.199999809265137,11.899999618530273,11.899999618530273,8900
2019-01-28,11.800000190734863,12.5,11.739999771118164,12.029999732971191,12.029999732971191,21500
2019-01-29,12.300000190734863,12.300000190734863,11.734999656677246,11.8100004196167,11.8100004196167,29500
2019-01-30,11.770000457763672,11.843999862670898,11.770000457763672,11.84000015258789,11.84000015258789,7200
2019-01-31,11.989999771118164,11.989999771118164,11.989999771118164,11.989999771118164,11.989999771118164,1100
2019-02-01,11.979999542236328,11.979999542236328,11.739999771118164,11.744999885559082,11.744999885559082,300
2019-02-04,11.760000228881836,11.989999771118164,11.760000228881836,11.8100004196167,11.8100004196167,2500
2019-02-05,11.9399995803833,12.0,11.9399995803833,12.0,12.0,3400
2019-02-06,11.8100004196167,11.8100004196167,11.8100004196167,11.8100004196167,11.8100004196167,200
2019-02-07,11.850000381469727,11.949999809265137,11.369999885559082,11.859999656677246,11.859999656677246,10800
2019-02-08,11.649999618530273,11.944000244140625,11.649999618530273,11.944000244140625,11.944000244140625,1200
2019-02-11,11.979999542236328,11.979999542236328,11.5,11.75,11.75,4900
2019-02-12,11.699999809265137,12.0,11.699999809265137,12.0,12.0,1500
2019-02-13,11.84000015258789,11.84000015258789,11.75,11.807999610900879,11.807999610900879,400
2019-02-14,11.850000381469727,12.0,11.75,11.760000228881836,11.760000228881836,2200
2019-02-15,11.789999961853027,11.789999961853027,11.789999961853027,11.789999961853027,11.789999961853027,100
2019-02-19,11.770000457763672,11.949999809265137,11.5,11.737000465393066,11.737000465393066,4700
2019-02-20,14.039999961853027,14.039999961853027,11.295000076293945,12.100000381469727,12.100000381469727,18400
2019-02-21,12.100000381469727,12.40999984741211,11.970000267028809,12.079999923706055,12.079999923706055,4300
2019-02-22,12.380000114440918,12.914999961853027,12.380000114440918,12.5,12.5,26500
2019-02-25,12.5,12.760000228881836,12.5,12.510000228881836,12.510000228881836,900
2019-02-26,12.5,12.789999961853027,12.5,12.789999961853027,12.789999961853027,1300
2019-02-27,12.739999771118164,14.460000038146973,12.739999771118164,14.0,14.0,63000
2019-02-28,14.069999694824219,14.600000381469727,13.699999809265137,13.899999618530273,13.899999618530273,13800
2019-03-01,14.069999694824219,14.069999694824219,13.100000381469727,13.100000381469727,13.100000381469727,300
2019-03-04,13.100000381469727,13.84000015258789,13.100000381469727,13.829999923706055,13.829999923706055,1900
2019-03-05,13.84000015258789,13.84000015258789,13.84000015258789,13.84000015258789,13.84000015258789,200
2019-03-06,13.890000343322754,13.890000343322754,13.84000015258789,13.890000343322754,13.890000343322754,600
2019-03-07,13.989999771118164,14.0,13.899999618530273,14.0,14.0,3200
2019-03-08,13.84000015258789,13.84000015258789,13.84000015258789,13.84000015258789,13.84000015258789,300
2019-03-11,13.739999771118164,13.739999771118164,13.699999809265137,13.699999809265137,13.699999809265137,600
2019-03-12,13.449999809265137,13.720000267028809,13.020000457763672,13.020000457763672,13.020000457763672,6100
2019-03-13,13.430000305175781,13.470000267028809,13.119999885559082,13.470000267028809,13.470000267028809,3200
2019-03-14,13.40999984741211,13.40999984741211,13.029999732971191,13.029999732971191,13.029999732971191,2300
2019-03-15,13.25,13.350000381469727,13.25,13.260000228881836,13.260000228881836,1700
2019-03-18,13.270000457763672,13.270000457763672,12.989999771118164,12.989999771118164,12.989999771118164,8400
2019-03-19,13.260000228881836,13.369999885559082,12.960000038146973,12.960000038146973,12.960000038146973,6600
2019-03-20,13.109999656677246,13.329999923706055,12.6899995803833,13.270000457763672,13.270000457763672,45000
2019-03-21,13.079999923706055,13.130000114440918,12.960000038146973,12.960000038146973,12.960000038146973,5600
2019-03-22,12.942000389099121,12.942000389099121,12.819999694824219,12.819999694824219,12.819999694824219,500
2019-03-25,12.789999961853027,12.960000038146973,12.479000091552734,12.960000038146973,12.960000038146973,24800
2019-03-26,12.949999809265137,13.5,12.949999809265137,13.119999885559082,13.119999885559082,44200
2019-03-27,13.149999618530273,13.640000343322754,13.149999618530273,13.59000015258789,13.59000015258789,24800
2019-03-28,13.182000160217285,14.045000076293945,13.182000160217285,13.869999885559082,13.869999885559082,9100
2019-03-29,13.949999809265137,14.350000381469727,13.949999809265137,14.020000457763672,14.020000457763672,56400
2019-04-01,14.020000457763672,14.020000457763672,14.020000457763672,14.020000457763672,14.020000457763672,100
2019-04-02,14.020000457763672,14.020000457763672,14.020000457763672,14.020000457763672,14.020000457763672,100
2019-04-03,14.5,14.699999809265137,14.5,14.5,14.5,28200
2019-04-04,14.5600004196167,14.760000228881836,14.489999771118164,14.510000228881836,14.510000228881836,20700
2019-04-05,15.100000381469727,15.100000381469727,13.631999969482422,14.029999732971191,14.029999732971191,8400
2019-04-08,14.5,14.5,13.8149995803833,14.0,14.0,12100
2019-04-09,14.0,14.0,13.553999900817871,13.989999771118164,13.989999771118164,56300
2019-04-10,13.75,13.960000038146973,13.75,13.9399995803833,13.9399995803833,5100
2019-04-11,13.920000076293945,14.0,13.699999809265137,13.979999542236328,13.979999542236328,48800
2019-04-12,13.899999618530273,13.899999618530273,13.899999618530273,13.899999618530273,13.899999618530273,100
2019-04-15,13.789999961853027,14.25,13.75,14.100000381469727,14.100000381469727,42000
2019-04-16,14.010000228881836,14.100000381469727,14.0,14.079999923706055,14.079999923706055,7400
2019-04-17,14.100000381469727,14.109999656677246,14.0,14.09000015258789,14.09000015258789,30800
2019-04-18,14.140000343322754,14.140000343322754,13.770000457763672,13.770000457763672,13.770000457763672,5900
2019-04-22,13.770000457763672,13.989999771118164,13.75,13.850000381469727,13.850000381469727,5300
2019-04-23,13.772000312805176,13.949999809265137,13.65999984741211,13.65999984741211,13.65999984741211,3200
2019-04-24,13.800000190734863,14.5,13.800000190734863,14.300000190734863,14.300000190734863,51600
2019-04-25,14.109999656677246,14.380000114440918,14.0,14.239999771118164,14.239999771118164,6700
2019-04-26,14.25,14.880000114440918,14.25,14.880000114440918,14.880000114440918,2400
2019-04-29,14.423999786376953,14.960000038146973,14.359999656677246,14.960000038146973,14.960000038146973,3500
2019-04-30,14.739999771118164,14.949999809265137,14.5,14.5600004196167,14.5600004196167,14100
2019-05-01,14.5,14.5,14.5,14.5,14.5,100
2019-05-02,14.5,14.579999923706055,14.399999618530273,14.579999923706055,14.579999923706055,5000
2019-05-03,14.149999618530273,14.649999618530273,14.149999618530273,14.5,14.5,13600
2019-05-06,14.5,14.510000228881836,14.5,14.5,14.5,10900
2019-05-07,14.5,14.600000381469727,14.5,14.600000381469727,14.600000381469727,27200
2019-05-08,14.5,14.699999809265137,14.489999771118164,14.5,14.5,2900
2019-05-09,14.5,14.890000343322754,14.5,14.890000343322754,14.890000343322754,400
2019-05-10,14.529999732971191,14.699999809265137,14.524999618530273,14.649999618530273,14.649999618530273,6300
2019-05-13,14.479999542236328,14.501999855041504,14.25,14.25,14.25,31500
2019-05-14,14.479999542236328,14.5,14.479999542236328,14.5,14.5,5000
2019-05-15,14.612000465393066,14.612000465393066,14.612000465393066,14.612000465393066,14.612000465393066,500
2019-05-16,14.699999809265137,14.699999809265137,14.5,14.5,14.5,15000
2019-05-17,14.5,14.800000190734863,14.5,14.75100040435791,14.75100040435791,3100
2019-05-20,14.75100040435791,14.75100040435791,14.75100040435791,14.75100040435791,14.75100040435791,0
2019-05-21,14.399999618530273,14.824999809265137,14.399999618530273,14.520000457763672,14.520000457763672,41900
2019-05-22,14.659000396728516,14.659000396728516,14.520000457763672,14.520000457763672,14.520000457763672,900
2019-05-23,14.5,14.65999984741211,14.479999542236328,14.5,14.5,48500
2019-05-24,14.800000190734863,15.329999923706055,14.595000267028809,14.600000381469727,14.600000381469727,1800
2019-05-28,14.600000381469727,14.600000381469727,14.503999710083008,14.520000457763672,14.520000457763672,9200
2019-05-29,14.600000381469727,14.788999557495117,14.25,14.5,14.5,52800
2019-05-30,14.5,14.550000190734863,14.5,14.5,14.5,3600
2019-05-31,14.5,14.51099967956543,14.5,14.510000228881836,14.510000228881836,9600
2019-06-03,14.510000228881836,14.725000381469727,14.510000228881836,14.725000381469727,14.725000381469727,1300
2019-06-04,14.710000038146973,15.0600004196167,14.5,14.5,14.5,32800
2019-06-05,14.52400016784668,14.52400016784668,14.5,14.5,14.5,200
2019-06-06,14.729999542236328,14.850000381469727,14.729999542236328,14.800000190734863,14.800000190734863,32900
2019-06-07,14.850000381469727,14.925000190734863,14.850000381469727,14.850000381469727,14.850000381469727,10400
2019-06-10,14.869999885559082,15.0,14.869999885559082,15.0,15.0,1200
2019-06-11,15.0,15.0,14.899999618530273,14.899999618530273,14.899999618530273,15300
2019-06-12,14.920000076293945,15.3100004196167,14.899999618530273,15.3100004196167,15.3100004196167,10600
2019-06-13,15.3100004196167,15.3100004196167,15.3100004196167,15.3100004196167,15.3100004196167,0
2019-06-14,14.970000267028809,14.970000267028809,14.970000267028809,14.970000267028809,14.970000267028809,300
2019-06-17,15.0,15.0,15.0,15.0,15.0,6800
2019-06-18,15.210000038146973,15.310999870300293,15.210000038146973,15.25,15.25,7600
2019-06-19,15.010000228881836,15.010000228881836,14.5,14.5,14.5,2000
2019-06-20,14.760000228881836,15.079999923706055,14.760000228881836,15.010000228881836,15.010000228881836,3400
2019-06-21,15.010000228881836,15.010000228881836,14.850000381469727,15.0,15.0,11100
2019-06-24,15.0,15.553999900817871,14.850000381469727,15.0,15.0,1200
2019-06-25,15.0,15.218000411987305,15.0,15.0,15.0,3300
2019-06-26,15.0,15.125,14.850000381469727,15.0,15.0,10600
2019-06-27,15.0,15.050000190734863,15.0,15.050000190734863,15.050000190734863,2000
2019-06-28,15.050000190734863,15.050000190734863,15.050000190734863,15.050000190734863,15.050000190734863,0
2019-07-01,15.010000228881836,15.010000228881836,15.010000228881836,15.010000228881836,15.010000228881836,100
2019-07-02,15.0,15.0,15.0,15.0,15.0,500
2019-07-03,15.0,15.0,15.0,15.0,15.0,0
2019-07-05,18.829999923706055,18.829999923706055,15.100000381469727,15.369999885559082,15.369999885559082,3200
2019-07-08,15.369999885559082,15.369999885559082,15.369999885559082,15.369999885559082,15.369999885559082,0
2019-07-09,15.369999885559082,15.369999885559082,15.369999885559082,15.369999885559082,15.369999885559082,100
2019-07-10,15.010000228881836,15.510000228881836,15.010000228881836,15.470000267028809,15.470000267028809,16500
2019-07-11,15.489999771118164,15.600000381469727,15.489999771118164,15.600000381469727,15.600000381469727,2300
2019-07-12,15.600000381469727,15.600000381469727,15.600000381469727,15.600000381469727,15.600000381469727,100
2019-07-15,15.600000381469727,15.600000381469727,15.600000381469727,15.600000381469727,15.600000381469727,0
2019-07-16,15.0,15.5,15.0,15.5,15.5,2000
2019-07-17,15.5,15.5,15.5,15.5,15.5,100
2019-07-18,15.5,15.5,15.5,15.5,15.5,0
2019-07-19,15.039999961853027,15.039999961853027,15.006999969482422,15.020000457763672,15.020000457763672,800
2019-07-22,15.109999656677246,15.520000457763672,15.109999656677246,15.5,15.5,23900
2019-07-23,15.859999656677246,15.880000114440918,15.782999992370605,15.803000450134277,15.803000450134277,800
2019-07-24,15.899999618530273,15.979999542236328,15.899999618530273,15.979999542236328,15.979999542236328,200
2019-07-25,15.989999771118164,16.020000457763672,15.979999542236328,16.020000457763672,16.020000457763672,2600
2019-07-26,16.040000915527344,16.06999969482422,16.0,16.0,16.0,1700
2019-07-29,16.040000915527344,16.06999969482422,16.0,16.0,16.0,100
2019-07-30,15.569999694824219,16.06999969482422,15.569999694824219,16.0,16.0,4600
2019-07-31,16.030000686645508,16.030000686645508,16.030000686645508,16.030000686645508,16.030000686645508,300
2019-08-01,16.030000686645508,16.030000686645508,16.030000686645508,16.030000686645508,16.030000686645508,300
2019-08-02,16.030000686645508,16.030000686645508,16.030000686645508,16.030000686645508,16.030000686645508,300
2019-08-05,15.692000389099121,15.692000389099121,15.5600004196167,15.5600004196167,15.5600004196167,300
2019-08-06,14.989999771118164,14.989999771118164,14.949999809265137,14.949999809265137,14.949999809265137,1000
2019-08-07,14.949999809265137,14.949999809265137,14.949999809265137,14.949999809265137,14.949999809265137,300
2019-08-08,14.949999809265137,14.949999809265137,14.949999809265137,14.949999809265137,14.949999809265137,300
2019-08-09,14.609999656677246,14.732999801635742,14.609999656677246,14.609999656677246,14.609999656677246,3700
2019-08-12,14.359999656677246,14.670000076293945,14.359999656677246,14.619999885559082,14.619999885559082,5700
2019-08-13,14.600000381469727,14.711000442504883,14.600000381469727,14.711000442504883,14.711000442504883,400
2019-08-14,14.359999656677246,14.359999656677246,14.149999618530273,14.149999618530273,14.149999618530273,4500
2019-08-15,14.359999656677246,14.359999656677246,14.149999618530273,14.149999618530273,14.149999618530273,4500
2019-08-16,14.149999618530273,14.149999618530273,14.149999618530273,14.149999618530273,14.149999618530273,0
2019-08-19,14.149999618530273,14.149999618530273,14.149999618530273,14.149999618530273,14.149999618530273,0
2019-08-20,14.149999618530273,14.149999618530273,14.149999618530273,14.149999618530273,14.149999618530273,0
2019-08-21,14.210000038146973,14.25,14.210000038146973,14.246999740600586,14.246999740600586,900
2019-08-22,14.246999740600586,14.246999740600586,14.246999740600586,14.246999740600586,14.246999740600586,0
2019-08-23,14.246999740600586,14.246999740600586,14.246999740600586,14.246999740600586,14.246999740600586,0
2019-08-26,14.246999740600586,14.246999740600586,14.246999740600586,14.246999740600586,14.246999740600586,0
2019-08-27,13.65999984741211,13.727999687194824,13.65999984741211,13.727999687194824,13.727999687194824,400
2019-08-28,13.727999687194824,13.727999687194824,13.727999687194824,13.727999687194824,13.727999687194824,0
2019-08-29,14.229000091552734,14.300000190734863,14.229000091552734,14.229000091552734,14.229000091552734,600
2019-08-30,14.229000091552734,14.229000091552734,14.229000091552734,14.229000091552734,14.229000091552734,0
2019-09-03,13.6899995803833,13.800000190734863,13.640000343322754,13.75,13.75,4900
2019-09-04,13.949999809265137,13.949999809265137,13.899999618530273,13.899999618530273,13.899999618530273,1300
2019-09-05,13.899999618530273,13.899999618530273,13.899999618530273,13.899999618530273,13.899999618530273,0
2019-09-06,13.899999618530273,13.899999618530273,13.899999618530273,13.899999618530273,13.899999618530273,0
2019-09-09,13.5,13.958999633789062,13.5,13.947999954223633,13.947999954223633,3200
2019-09-10,13.739999771118164,13.75,13.661999702453613,13.75,13.75,5600
2019-09-11,13.5,13.5,12.829000473022461,13.42199993133545,13.42199993133545,17700
2019-09-12,13.0600004196167,13.489999771118164,12.539999961853027,13.479999542236328,13.479999542236328,10200
2019-09-13,13.479999542236328,13.479999542236328,13.479999542236328,13.479999542236328,13.479999542236328,0
2019-09-16,13.211999893188477,13.75,13.100000381469727,13.75,13.75,4400
2019-09-17,13.75,13.75,13.75,13.75,13.75,0
2019-09-18,13.75,13.75,13.75,13.75,13.75,0
2019-09-19,13.75,14.178999900817871,13.3100004196167,13.3100004196167,13.3100004196167,37200
2019-09-20,13.489999771118164,13.5,13.4399995803833,13.4399995803833,13.4399995803833,3100
2019-09-23,13.5,13.567999839782715,13.5,13.5,13.5,10900
2019-09-24,13.5,13.5,13.4350004196167,13.5,13.5,13300
2019-09-25,13.5,13.5,13.5,13.5,13.5,0
2019-09-26,13.5,13.5,13.5,13.5,13.5,0
2019-09-27,13.5,13.5,13.5,13.5,13.5,0
2019-09-30,14.180000305175781,14.180000305175781,14.180000305175781,14.180000305175781,14.180000305175781,300
2019-10-01,14.180000305175781,14.180000305175781,14.180000305175781,14.180000305175781,14.180000305175781,0
2019-10-02,13.246000289916992,13.246000289916992,13.246000289916992,13.246000289916992,13.246000289916992,100
2019-10-03,13.470000267028809,13.470000267028809,13.470000267028809,13.470000267028809,13.470000267028809,100
2019-10-04,13.470000267028809,13.470000267028809,13.470000267028809,13.470000267028809,13.470000267028809,100
2019-10-07,13.470000267028809,13.470000267028809,13.470000267028809,13.470000267028809,13.470000267028809,0
2019-10-08,13.75,13.75,13.75,13.75,13.75,900
2019-10-09,13.75,14.0,13.75,13.961999893188477,13.961999893188477,1700
2019-10-10,14.147000312805176,14.25,14.126999855041504,14.25,14.25,8600
2019-10-11,14.739999771118164,14.739999771118164,13.585000038146973,14.572999954223633,14.572999954223633,9800
2019-10-14,14.739999771118164,15.0,14.739999771118164,15.0,15.0,3800
2019-10-15,15.008000373840332,15.008000373840332,15.0,15.0,15.0,600
2019-10-16,15.5,15.5,15.0,15.0,15.0,24500
2019-10-17,15.0,15.015000343322754,15.0,15.0,15.0,2300
2019-10-18,15.039999961853027,15.25,15.039999961853027,15.25,15.25,3200
2019-10-21,15.449000358581543,15.449000358581543,15.25,15.300000190734863,15.300000190734863,2600
2019-10-22,16.5,16.5,15.25,15.25,15.25,8700
2019-10-23,15.0,15.0,15.0,15.0,15.0,1200
2019-10-24,13.5,15.510000228881836,13.5,15.0,15.0,2700
2019-10-25,15.0,15.0,15.0,15.0,15.0,0
2019-10-28,15.25,15.623000144958496,15.25,15.326000213623047,15.326000213623047,2400
2019-10-29,15.260000228881836,15.59000015258789,15.260000228881836,15.59000015258789,15.59000015258789,600
2019-10-30,15.289999961853027,15.75,15.25,15.5,15.5,34100
2019-10-31,15.789999961853027,15.819999694824219,15.789999961853027,15.819999694824219,15.819999694824219,800
2019-11-01,15.819999694824219,15.819999694824219,15.819999694824219,15.819999694824219,15.819999694824219,0
2019-11-04,15.930000305175781,15.9399995803833,15.199999809265137,15.199999809265137,15.199999809265137,9700
2019-11-05,15.039999961853027,15.100000381469727,14.949999809265137,14.949999809265137,14.949999809265137,70400
2019-11-06,14.949999809265137,14.949999809265137,14.899999618530273,14.899999618530273,14.899999618530273,18300
2019-11-07,14.899999618530273,14.899999618530273,14.899999618530273,14.899999618530273,14.899999618530273,10100
2019-11-08,14.899999618530273,15.010000228881836,14.800000190734863,14.970000267028809,14.970000267028809,34100
2019-11-11,14.970000267028809,14.970000267028809,14.970000267028809,14.970000267028809,14.970000267028809,0
2019-11-12,15.25,15.25,14.574999809265137,14.75,14.75,39100
2019-11-13,15.0,15.0,14.75,14.760000228881836,14.760000228881836,6400
2019-11-14,14.939000129699707,15.234999656677246,14.939000129699707,15.0,15.0,2800
2019-11-15,15.25,15.25,15.0,15.010000228881836,15.010000228881836,4900
2019-11-18,15.0,15.0,14.949999809265137,14.949999809265137,14.949999809265137,5100
2019-11-19,15.010000228881836,15.086000442504883,15.0,15.086000442504883,15.086000442504883,6000
2019-11-20,15.0,15.0,14.949999809265137,14.949999809265137,14.949999809265137,7200
2019-11-21,15.0,15.010000228881836,14.949999809265137,15.0,15.0,6500
2019-11-22,15.0,15.0,15.0,15.0,15.0,0
2019-11-25,14.920999526977539,14.920999526977539,14.920999526977539,14.920999526977539,14.920999526977539,100
2019-11-26,14.850000381469727,14.90999984741211,14.850000381469727,14.850000381469727,14.850000381469727,9000
2019-11-27,14.850000381469727,15.0,14.850000381469727,14.97700023651123,14.97700023651123,7000
2019-11-29,15.850000381469727,15.989999771118164,15.800000190734863,15.850000381469727,15.850000381469727,8700
2019-12-02,15.265000343322754,15.8100004196167,15.265000343322754,15.8100004196167,15.8100004196167,1100
2019-12-03,15.050000190734863,15.218000411987305,14.300000190734863,14.75,14.75,73600
2019-12-04,14.541000366210938,14.541000366210938,14.541000366210938,14.541000366210938,14.541000366210938,200
2019-12-05,15.0,15.0,14.34000015258789,14.5,14.5,2100
2019-12-06,14.520000457763672,14.529999732971191,14.3100004196167,14.512999534606934,14.512999534606934,8900
2019-12-09,14.5,15.515000343322754,14.5,14.529999732971191,14.529999732971191,1500
2019-12-10,15.935999870300293,15.935999870300293,15.935999870300293,15.935999870300293,15.935999870300293,800
2019-12-11,15.010000228881836,15.039999961853027,15.010000228881836,15.039999961853027,15.039999961853027,300
2019-12-12,15.0,15.0,15.0,15.0,15.0,700
2019-12-13,15.0,15.0,15.0,15.0,15.0,5300
2019-12-16,15.0,15.0,15.0,15.0,15.0,5000
2019-12-17,15.0,15.0,15.0,15.0,15.0,0
2019-12-18,15.5,16.530000686645508,15.5,15.550000190734863,15.550000190734863,6100
2019-12-19,15.0,15.0,15.0,15.0,15.0,1000
2019-12-20,16.25,16.25,15.5,16.190000534057617,16.190000534057617,4200
2019-12-23,15.989999771118164,15.989999771118164,15.5,15.699999809265137,15.699999809265137,2100
2019-12-24,15.0,15.0,14.649999618530273,14.930000305175781,14.930000305175781,1100
2019-12-26,14.510000228881836,14.583000183105469,14.510000228881836,14.583000183105469,14.583000183105469,400
2019-12-27,15.0,15.0,14.949999809265137,15.0,15.0,2300
2019-12-30,15.25,15.25,14.75,14.75,14.75,1900
2019-12-31,15.010000228881836,15.074999809265137,14.904999732971191,14.984999656677246,14.984999656677246,3800
2020-01-02,14.984999656677246,14.984999656677246,14.984999656677246,14.984999656677246,14.984999656677246,0
2020-01-03,14.984999656677246,14.984999656677246,14.984999656677246,14.984999656677246,14.984999656677246,0
2020-01-06,15.25,15.5,14.5600004196167,14.96500015258789,14.96500015258789,6100
2020-01-07,14.96500015258789,14.96500015258789,14.96500015258789,14.96500015258789,14.96500015258789,0
2020-01-08,15.0,15.461999893188477,15.0,15.166999816894531,15.166999816894531,9000
2020-01-09,15.430000305175781,15.430000305175781,14.8100004196167,14.883999824523926,14.883999824523926,700
2020-01-10,15.210000038146973,15.574999809265137,14.510000228881836,15.574999809265137,15.574999809265137,6200
2020-01-13,15.574999809265137,15.574999809265137,15.574999809265137,15.574999809265137,15.574999809265137,0
2020-01-14,15.390000343322754,15.390000343322754,15.10200023651123,15.210000038146973,15.210000038146973,3200
2020-01-15,15.430000305175781,15.5,14.75,15.315999984741211,15.315999984741211,8800
2020-01-16,15.232999801635742,15.350000381469727,15.175000190734863,15.175000190734863,15.175000190734863,3200
2020-01-17,15.0,15.104999542236328,14.829999923706055,15.010000228881836,15.010000228881836,7500
2020-01-21,15.100000381469727,15.496999740600586,15.0,15.340999603271484,15.340999603271484,3100
2020-01-22,15.0600004196167,15.5,15.0600004196167,15.265000343322754,15.265000343322754,2900
2020-01-23,15.199999809265137,15.199999809265137,15.09000015258789,15.09000015258789,15.09000015258789,4600
2020-01-24,15.100000381469727,15.190999984741211,15.100000381469727,15.190999984741211,15.190999984741211,2900
2020-01-27,15.1899995803833,15.498000144958496,14.8100004196167,15.489999771118164,15.489999771118164,4700
2020-01-28,15.350000381469727,15.5,15.149999618530273,15.322999954223633,15.322999954223633,5700
2020-01-29,15.350000381469727,15.350000381469727,15.149999618530273,15.251999855041504,15.251999855041504,3600
2020-01-30,15.251999855041504,15.251999855041504,15.251999855041504,15.251999855041504,15.251999855041504,0
2020-01-31,15.180000305175781,15.199999809265137,15.130000114440918,15.130000114440918,15.130000114440918,2800
2020-02-03,15.050000190734863,15.050000190734863,15.050000190734863,15.050000190734863,15.050000190734863,100
2020-02-04,15.100000381469727,15.324000358581543,15.100000381469727,15.180000305175781,15.180000305175781,4900
2020-02-05,15.399999618530273,15.399999618530273,15.199999809265137,15.25,15.25,4500
2020-02-06,15.239999771118164,15.430999755859375,15.220000267028809,15.430999755859375,15.430999755859375,11200
2020-02-07,15.5,15.5,15.149999618530273,15.149999618530273,15.149999618530273,41800
2020-02-10,15.371999740600586,15.371999740600586,15.0600004196167,15.0600004196167,15.0600004196167,3700
2020-02-11,15.25,15.25,15.0,15.199999809265137,15.199999809265137,12000
2020-02-12,15.083000183105469,15.100000381469727,15.0600004196167,15.09000015258789,15.09000015258789,2800
2020-02-13,15.07800006866455,15.083999633789062,15.032999992370605,15.032999992370605,15.032999992370605,2000
2020-02-14,15.100000381469727,15.130000114440918,15.100000381469727,15.130000114440918,15.130000114440918,600
2020-02-18,15.130000114440918,15.130000114440918,15.130000114440918,15.130000114440918,15.130000114440918,0
2020-02-19,15.0,15.125,15.0,15.125,15.125,3300
2020-02-20,15.100000381469727,15.199999809265137,15.100000381469727,15.199999809265137,15.199999809265137,6500
2020-02-21,15.170000076293945,15.1899995803833,15.0600004196167,15.154999732971191,15.154999732971191,10100
2020-02-24,15.15999984741211,15.15999984741211,15.050000190734863,15.050000190734863,15.050000190734863,5200
2020-02-25,15.0,15.038000106811523,15.0,15.038000106811523,15.038000106811523,1800
2020-02-26,15.0,15.0,15.0,15.0,15.0,11600
2020-02-27,14.75,14.824000358581543,14.489999771118164,14.75,14.75,3600
2020-02-28,14.550000190734863,14.550000190734863,13.859999656677246,14.069999694824219,14.069999694824219,8900
2020-03-02,14.069999694824219,14.069999694824219,14.069999694824219,14.069999694824219,14.069999694824219,0
2020-03-03,14.600000381469727,14.649999618530273,13.97700023651123,14.0,14.0,7600
2020-03-04,13.829999923706055,14.0,13.829999923706055,14.0,14.0,3700
2020-03-05,14.25,14.345999717712402,13.899999618530273,14.25,14.25,48700
2020-03-06,13.970000267028809,14.260000228881836,13.970000267028809,14.25,14.25,27600
2020-03-09,13.390000343322754,13.586999893188477,12.5600004196167,12.699999809265137,12.699999809265137,13900
2020-03-10,12.699999809265137,12.699999809265137,12.699999809265137,12.699999809265137,12.699999809265137,0
2020-03-11,12.600000381469727,12.800000190734863,11.649999618530273,11.699999809265137,11.699999809265137,53300
2020-03-12,10.470000267028809,10.600000381469727,10.319000244140625,10.319000244140625,10.319000244140625,2400
2020-03-13,10.5,11.4399995803833,9.75,10.0,10.0,5800
2020-03-16,9.020000457763672,9.300000190734863,8.609999656677246,8.619999885559082,8.619999885559082,7200
2020-03-17,8.789999961853027,8.789999961853027,7.409999847412109,7.5,7.5,6900
2020-03-18,5.400000095367432,5.449999809265137,4.5,4.760000228881836,4.760000228881836,5100
2020-03-19,5.230000019073486,6.840000152587891,5.079999923706055,6.610000133514404,6.610000133514404,10000
2020-03-20,6.53000020980835,6.53000020980835,6.0,6.0,6.0,800
2020-03-23,6.0,6.230999946594238,6.0,6.0,6.0,4500
2020-03-24,5.889999866485596,6.309999942779541,5.230000019073486,6.010000228881836,6.010000228881836,2000
2020-03-25,6.349999904632568,6.900000095367432,6.269999980926514,6.866000175476074,6.866000175476074,22300
2020-03-26,6.809999942779541,6.809999942779541,6.809999942779541,6.809999942779541,6.809999942779541,200
2020-03-27,6.329999923706055,6.329999923706055,5.46999979019165,6.300000190734863,6.300000190734863,4200
2020-03-30,6.5,7.769999980926514,6.5,7.769999980926514,7.769999980926514,8700
2020-03-31,8.739999771118164,8.819999694824219,8.720000267028809,8.819999694824219,8.819999694824219,2300
2020-04-01,9.0,9.197999954223633,9.0,9.197999954223633,9.197999954223633,1100
2020-04-02,8.109999656677246,8.109999656677246,8.109999656677246,8.109999656677246,8.109999656677246,400
2020-04-03,8.109999656677246,8.140000343322754,8.109999656677246,8.109999656677246,8.109999656677246,2000
2020-04-06,8.109999656677246,8.109999656677246,8.109999656677246,8.109999656677246,8.109999656677246,0
2020-04-07,7.900000095367432,7.900000095367432,7.900000095367432,7.900000095367432,7.900000095367432,200
2020-04-08,7.900000095367432,7.900000095367432,7.900000095367432,7.900000095367432,7.900000095367432,0
2020-04-09,7.900000095367432,7.900000095367432,7.900000095367432,7.900000095367432,7.900000095367432,0
2020-04-13,8.25,8.75,8.25,8.75,8.75,1900
2020-04-14,8.75,8.75,8.75,8.75,8.75,0
2020-04-15,8.75,8.75,8.75,8.75,8.75,0
2020-04-16,8.75,8.75,8.75,8.75,8.75,0
2020-04-17,8.75,8.75,8.75,8.75,8.75,0
2020-04-20,7.900000095367432,8.029999732971191,7.5,7.835000038146973,7.835000038146973,9000
2020-04-21,7.5,7.699999809265137,7.5,7.699999809265137,7.699999809265137,1300
2020-04-22,8.5,8.5,8.270000457763672,8.270000457763672,8.270000457763672,200
2020-04-23,8.75,9.199999809265137,8.399999618530273,8.399999618530273,8.399999618530273,2200
2020-04-24,9.210000038146973,9.210000038146973,9.210000038146973,9.210000038146973,9.210000038146973,100
2020-04-27,9.210000038146973,9.210000038146973,9.210000038146973,9.210000038146973,9.210000038146973,0
2020-04-28,9.0,9.399999618530273,9.0,9.399999618530273,9.399999618530273,1300
2020-04-29,9.25,9.25,9.25,9.25,9.25,100
2020-04-30,9.25,9.25,9.25,9.25,9.25,0
2020-05-01,8.130000114440918,9.050000190734863,8.130000114440918,9.020000457763672,9.020000457763672,1400
2020-05-04,9.020000457763672,9.020000457763672,9.020000457763672,9.020000457763672,9.020000457763672,0
2020-05-05,8.5600004196167,8.600000381469727,8.5600004196167,8.600000381469727,8.600000381469727,700
2020-05-06,8.600000381469727,8.600000381469727,7.96999979019165,8.09000015258789,8.09000015258789,2800
2020-05-07,8.029999732971191,8.050000190734863,8.0,8.0,8.0,1100
2020-05-08,8.600000381469727,8.600000381469727,8.100000381469727,8.100000381469727,8.100000381469727,1200
2020-05-11,7.400000095367432,7.610000133514404,6.745999813079834,7.610000133514404,7.610000133514404,5400
2020-05-12,7.170000076293945,7.869999885559082,7.170000076293945,7.869999885559082,7.869999885559082,300
2020-05-13,7.300000190734863,7.300000190734863,7.300000190734863,7.300000190734863,7.300000190734863,300
2020-05-14,7.199999809265137,8.04800033569336,7.199999809265137,7.889999866485596,7.889999866485596,5100
2020-05-15,7.619999885559082,8.375,7.619999885559082,8.194999694824219,8.194999694824219,5700
2020-05-18,8.739999771118164,9.204999923706055,8.739999771118164,9.071000099182129,9.071000099182129,4100
2020-05-19,9.239999771118164,10.0,9.239999771118164,10.0,10.0,2600
2020-05-20,9.899999618530273,10.149999618530273,9.654999732971191,10.0,10.0,7700
2020-05-21,9.75,10.0600004196167,9.75,9.90999984741211,9.90999984741211,2200
2020-05-22,9.90999984741211,9.90999984741211,9.90999984741211,9.90999984741211,9.90999984741211,0
2020-05-26,10.0,10.0,10.0,10.0,10.0,500
2020-05-27,10.720000267028809,10.779999732971191,10.0,10.25,10.25,4700
2020-05-28,9.819999694824219,10.800000190734863,9.819999694824219,10.300999641418457,10.300999641418457,12600
2020-05-29,10.699999809265137,11.1850004196167,10.699999809265137,11.1850004196167,11.1850004196167,600
2020-06-01,11.095000267028809,11.244999885559082,11.095000267028809,11.244999885559082,11.244999885559082,1000
2020-06-02,11.244999885559082,11.244999885559082,11.244999885559082,11.244999885559082,11.244999885559082,0
2020-06-03,11.244999885559082,11.244999885559082,11.244999885559082,11.244999885559082,11.244999885559082,0
2020-06-04,11.100000381469727,11.399999618530273,10.614999771118164,10.614999771118164,10.614999771118164,3100
2020-06-05,11.0,12.010000228881836,11.0,11.15999984741211,11.15999984741211,54900
2020-06-08,11.520000457763672,11.520000457763672,11.180000305175781,11.5,11.5,800
2020-06-09,11.399999618530273,11.5,11.399999618530273,11.399999618530273,11.399999618530273,11700
2020-06-10,11.199999809265137,12.029999732971191,11.199999809265137,11.210000038146973,11.210000038146973,4800
2020-06-11,10.505000114440918,11.003999710083008,10.260000228881836,10.510000228881836,10.510000228881836,4700
2020-06-12,10.510000228881836,10.510000228881836,10.510000228881836,10.510000228881836,10.510000228881836,2500
2020-06-15,10.539999961853027,10.539999961853027,10.470000267028809,10.470000267028809,10.470000267028809,2100
2020-06-16,11.449999809265137,11.449999809265137,10.630000114440918,10.630000114440918,10.630000114440918,5000
2020-06-17,11.25,11.25,11.25,11.25,11.25,1800
2020-06-18,11.0,11.5,11.0,11.5,11.5,200
2020-06-19,11.5,11.5,11.5,11.5,11.5,0
2020-06-22,10.90999984741211,10.90999984741211,10.90999984741211,10.90999984741211,10.90999984741211,200
2020-06-23,11.5,11.5,11.5,11.5,11.5,1100
2020-06-24,11.100000381469727,11.100000381469727,11.039999961853027,11.097999572753906,11.097999572753906,700
2020-06-25,12.0,12.210000038146973,11.654999732971191,12.210000038146973,12.210000038146973,1100
2020-06-26,12.0,12.0,12.0,12.0,12.0,100
2020-06-29,12.0,12.0,12.0,12.0,12.0,0
2020-06-30,12.0,12.0,12.0,12.0,12.0,0
2020-07-01,11.819000244140625,12.210000038146973,11.819000244140625,12.157999992370605,12.157999992370605,6800
2020-07-02,12.100000381469727,12.210000038146973,12.100000381469727,12.210000038146973,12.210000038146973,1600
2020-07-06,12.095000267028809,12.220000267028809,12.095000267028809,12.199999809265137,12.199999809265137,7200
2020-07-07,12.050000190734863,12.149999618530273,12.0,12.119999885559082,12.119999885559082,6700
2020-07-08,12.359999656677246,12.989999771118164,12.25,12.25,12.25,15600
2020-07-09,12.270000457763672,12.432999610900879,12.25,12.399999618530273,12.399999618530273,2800
2020-07-10,12.5,12.75,12.5,12.600000381469727,12.600000381469727,11600
2020-07-13,12.555000305175781,12.600000381469727,12.555000305175781,12.600000381469727,12.600000381469727,3200
2020-07-14,12.75,12.850000381469727,12.520000457763672,12.520000457763672,12.520000457763672,10300
2020-07-15,12.729999542236328,12.800000190734863,12.699999809265137,12.800000190734863,12.800000190734863,500
2020-07-16,12.649999618530273,13.050000190734863,12.649999618530273,13.0,13.0,14400
2020-07-17,13.0,13.0,13.0,13.0,13.0,2500
2020-07-20,13.0,13.0,13.0,13.0,13.0,0
2020-07-21,13.0,13.0,13.0,13.0,13.0,0
2020-07-22,13.0,13.0,13.0,13.0,13.0,0
2020-07-23,13.0,13.0,13.0,13.0,13.0,0
2020-07-24,13.0,13.0,13.0,13.0,13.0,0
2020-07-27,12.449999809265137,12.449999809265137,12.449999809265137,12.449999809265137,12.449999809265137,2000
2020-07-28,12.449999809265137,12.449999809265137,12.449999809265137,12.449999809265137,12.449999809265137,0
2020-07-29,12.470000267028809,12.470000267028809,12.263999938964844,12.274999618530273,12.274999618530273,6100
2020-07-30,12.300000190734863,12.989999771118164,12.300000190734863,12.75,12.75,5500
2020-07-31,12.75,12.75,12.75,12.75,12.75,0
2020-08-03,12.270000457763672,12.449999809265137,11.460000038146973,11.949999809265137,11.949999809265137,12400
2020-08-04,12.9399995803833,12.9399995803833,12.5,12.5,12.5,400
2020-08-05,12.489999771118164,12.550000190734863,12.300000190734863,12.550000190734863,12.550000190734863,10300
2020-08-06,12.550000190734863,12.920000076293945,12.550000190734863,12.600000381469727,12.600000381469727,7000
2020-08-07,12.600000381469727,12.600000381469727,12.399999618530273,12.399999618530273,12.399999618530273,1200
2020-08-10,12.550000190734863,13.0,12.550000190734863,12.850000381469727,12.850000381469727,9100
2020-08-11,13.0,13.25,12.75,12.949999809265137,12.949999809265137,21900
2020-08-12,13.0,13.13599967956543,13.0,13.0,13.0,22000
2020-08-13,13.0,13.100000381469727,12.894000053405762,13.100000381469727,13.100000381469727,6900
2020-08-14,13.149999618530273,13.300000190734863,13.149999618530273,13.199999809265137,13.199999809265137,3500
2020-08-17,13.779999732971191,14.0,13.579999923706055,13.579999923706055,13.579999923706055,8100
2020-08-18,13.579999923706055,13.579999923706055,13.579999923706055,13.579999923706055,13.579999923706055,0
2020-08-19,14.100000381469727,14.100000381469727,13.75,13.883000373840332,13.883000373840332,4000
2020-08-20,14.5,14.506999969482422,14.079999923706055,14.100000381469727,14.100000381469727,13200
2020-08-21,14.300999641418457,14.300999641418457,14.0,14.079999923706055,14.079999923706055,8300
2020-08-24,14.289999961853027,14.949999809265137,14.25,14.949999809265137,14.949999809265137,6600
2020-08-25,14.651000022888184,14.875,14.649999618530273,14.812000274658203,14.812000274658203,6000
2020-08-26,14.649999618530273,14.87399959564209,14.649999618530273,14.75,14.75,2300
2020-08-27,14.65999984741211,14.722999572753906,14.649999618530273,14.699999809265137,14.699999809265137,2200
2020-08-28,14.710000038146973,14.949999809265137,14.710000038146973,14.850000381469727,14.850000381469727,5800
2020-08-31,14.649999618530273,14.710000038146973,14.649999618530273,14.710000038146973,14.710000038146973,600
2020-09-01,14.800000190734863,14.899999618530273,14.800000190734863,14.826000213623047,14.826000213623047,1500
2020-09-02,14.710000038146973,14.710000038146973,14.710000038146973,14.710000038146973,14.710000038146973,100
2020-09-03,14.737000465393066,14.899999618530273,14.737000465393066,14.8100004196167,14.8100004196167,4600
2020-09-04,14.800000190734863,14.800000190734863,14.800000190734863,14.800000190734863,14.800000190734863,1300
2020-09-08,14.739999771118164,14.789999961853027,14.739999771118164,14.789999961853027,14.789999961853027,500
2020-09-09,14.789999961853027,14.789999961853027,14.789999961853027,14.789999961853027,14.789999961853027,0
2020-09-10,14.8100004196167,14.949999809265137,14.800000190734863,14.850000381469727,14.850000381469727,3600
2020-09-11,14.850000381469727,14.850000381469727,14.850000381469727,14.850000381469727,14.850000381469727,0
2020-09-14,15.25,15.369999885559082,15.0,15.0,15.0,3000
2020-09-15,15.449999809265137,15.550000190734863,15.25,15.5,15.5,4300
2020-09-16,15.569999694824219,15.600000381469727,15.5,15.5,15.5,3000
2020-09-17,15.5,15.5,15.5,15.5,15.5,0
2020-09-18,15.744999885559082,15.744999885559082,15.25,15.25,15.25,82200
2020-09-21,15.260000228881836,15.350000381469727,15.25,15.25,15.25,1900
2020-09-22,15.0,15.010000228881836,14.899999618530273,15.010000228881836,15.010000228881836,3800
2020-09-23,15.020000457763672,15.020000457763672,15.0,15.0,15.0,8000
2020-09-24,14.949999809265137,15.050000190734863,14.918000221252441,15.0,15.0,12600
2020-09-25,15.0,15.0,15.0,15.0,15.0,1800
2020-09-28,15.0,15.0,15.0,15.0,15.0,1500
2020-09-29,15.199999809265137,15.399999618530273,14.928000450134277,15.399999618530273,15.399999618530273,10700
2020-09-30,15.25,15.25,15.157999992370605,15.175999641418457,15.175999641418457,3400
2020-10-01,15.175999641418457,15.175999641418457,15.175999641418457,15.175999641418457,15.175999641418457,2000
2020-10-02,15.399999618530273,15.449999809265137,15.286999702453613,15.390000343322754,15.390000343322754,3700
2020-10-05,15.390000343322754,15.390000343322754,15.390000343322754,15.390000343322754,15.390000343322754,0
2020-10-06,15.390000343322754,15.390000343322754,15.390000343322754,15.390000343322754,15.390000343322754,0
2020-10-07,15.239999771118164,15.25,15.119999885559082,15.119999885559082,15.119999885559082,1000
2020-10-08,15.119999885559082,15.119999885559082,15.119999885559082,15.119999885559082,15.119999885559082,0
2020-10-09,15.119999885559082,15.119999885559082,15.119999885559082,15.119999885559082,15.119999885559082,0
2020-10-12,15.119999885559082,15.119999885559082,15.119999885559082,15.119999885559082,15.119999885559082,0
2020-10-13,15.119999885559082,15.119999885559082,15.119999885559082,15.119999885559082,15.119999885559082,0
2020-10-14,15.119999885559082,15.119999885559082,15.119999885559082,15.119999885559082,15.119999885559082,0
2020-10-15,15.675000190734863,15.899999618530273,15.675000190734863,15.859999656677246,15.859999656677246,1200
2020-10-16,15.25,15.829999923706055,15.25,15.829999923706055,15.829999923706055,1800
2020-10-19,15.5,15.5,15.449999809265137,15.449999809265137,15.449999809265137,200
2020-10-20,15.449999809265137,15.449999809265137,15.449999809265137,15.449999809265137,15.449999809265137,0
2020-10-21,15.0,15.267000198364258,15.0,15.267000198364258,15.267000198364258,600
2020-10-22,15.720000267028809,15.720000267028809,15.600000381469727,15.600000381469727,15.600000381469727,1500
2020-10-23,15.600000381469727,15.600000381469727,15.600000381469727,15.600000381469727,15.600000381469727,100
2020-10-26,15.050000190734863,15.050000190734863,15.050000190734863,15.050000190734863,15.050000190734863,100
2020-10-27,15.020000457763672,15.670000076293945,15.0,15.0,15.0,2600
2020-10-28,15.0,15.0,15.0,15.0,15.0,0
2020-10-29,15.0,15.0,15.0,15.0,15.0,0
2020-10-30,15.0,15.0,15.0,15.0,15.0,0
2020-11-02,15.039999961853027,15.039999961853027,15.0,15.0,15.0,1500
2020-11-03,15.0,15.0,15.0,15.0,15.0,0
2020-11-04,15.0,15.0,15.0,15.0,15.0,0
2020-11-05,15.0,15.0,15.0,15.0,15.0,0
2020-11-06,15.90999984741211,15.90999984741211,14.319999694824219,14.470000267028809,14.470000267028809,700
2020-11-09,14.539999961853027,14.539999961853027,14.539999961853027,14.539999961853027,14.539999961853027,100
2020-11-10,14.529999732971191,15.5,14.5,15.5,15.5,3400
2020-11-11,15.5,15.510000228881836,15.0,15.350000381469727,15.350000381469727,5900
2020-11-12,15.5,15.600000381469727,15.449999809265137,15.600000381469727,15.600000381469727,5900
2020-11-13,15.5,15.949999809265137,15.5,15.899999618530273,15.899999618530273,5900
2020-11-16,15.920000076293945,16.520000457763672,15.920000076293945,16.059999465942383,16.059999465942383,6700
2020-11-17,16.170000076293945,16.690000534057617,16.170000076293945,16.690000534057617,16.690000534057617,3600
2020-11-18,16.549999237060547,16.549999237060547,16.5,16.5,16.5,700
2020-11-19,16.5,16.5,16.5,16.5,16.5,0
2020-11-20,16.459999084472656,16.479999542236328,16.020000457763672,16.399999618530273,16.399999618530273,1700
2020-11-23,16.389999389648438,16.399999618530273,16.079999923706055,16.200000762939453,16.200000762939453,1400
2020-11-24,16.270000457763672,16.729999542236328,16.270000457763672,16.729999542236328,16.729999542236328,4700
2020-11-25,16.510000228881836,17.0,16.5,17.0,17.0,6500
2020-11-27,17.0,17.0,17.0,17.0,17.0,0
2020-11-30,17.0,17.0,17.0,17.0,17.0,0
2020-12-01,18.0,18.0,17.5,17.5,17.5,1700
2020-12-02,17.780000686645508,17.780000686645508,17.235000610351562,17.235000610351562,17.235000610351562,1300
2020-12-03,17.235000610351562,17.235000610351562,17.235000610351562,17.235000610351562,17.235000610351562,0
2020-12-04,17.309999465942383,17.559999465942383,17.25,17.25,17.25,2400
2020-12-07,17.56800079345703,17.56800079345703,17.5,17.5,17.5,1900
2020-12-08,17.399999618530273,17.399999618530273,17.34000015258789,17.34000015258789,17.34000015258789,200
2020-12-09,16.959999084472656,17.31999969482422,16.959999084472656,17.299999237060547,17.299999237060547,13300
2020-12-10,17.25,17.25,17.187000274658203,17.25,17.25,13800
2020-12-11,16.783000946044922,17.5,16.783000946044922,17.209999084472656,17.209999084472656,4800
2020-12-14,17.25,17.25,17.059999465942383,17.059999465942383,17.059999465942383,1600
2020-12-15,17.90999984741211,17.90999984741211,17.020000457763672,17.030000686645508,17.030000686645508,1400
2020-12-16,17.90999984741211,17.90999984741211,17.5,17.5,17.5,3600
2020-12-17,17.559999465942383,17.559999465942383,17.260000228881836,17.5,17.5,900
2020-12-18,17.350000381469727,17.549999237060547,17.350000381469727,17.350000381469727,17.350000381469727,5300
2020-12-21,17.030000686645508,17.030000686645508,17.030000686645508,17.030000686645508,17.030000686645508,200
2020-12-22,17.010000228881836,17.350000381469727,17.010000228881836,17.350000381469727,17.350000381469727,1200
2020-12-23,17.389999389648438,17.389999389648438,17.149999618530273,17.15999984741211,17.15999984741211,500
2020-12-24,17.5,17.975000381469727,17.5,17.75,17.75,18500
2020-12-28,17.979999542236328,17.979999542236328,17.760000228881836,17.8799991607666,17.8799991607666,4600
2020-12-29,18.200000762939453,18.200000762939453,17.989999771118164,18.0,18.0,1400
2020-12-30,18.100000381469727,18.200000762939453,18.0,18.149999618530273,18.149999618530273,4600
