Date,Open,High,Low,Close,Adj Close,Volume
2019-01-11,19.225000381469727,19.225000381469727,19.225000381469727,19.225000381469727,19.225000381469727,40
2019-01-14,18.350000381469727,18.350000381469727,18.350000381469727,18.350000381469727,18.350000381469727,520
2019-01-15,18.350000381469727,18.350000381469727,18.350000381469727,18.350000381469727,18.350000381469727,0
2019-01-16,18.350000381469727,18.350000381469727,18.350000381469727,18.350000381469727,18.350000381469727,0
2019-01-17,18.350000381469727,18.350000381469727,18.350000381469727,18.350000381469727,18.350000381469727,0
2019-01-18,18.350000381469727,18.350000381469727,18.350000381469727,18.350000381469727,18.350000381469727,0
2019-01-22,17.5,17.5,17.5,17.5,17.5,2800
2019-01-23,17.5,17.5,17.5,17.5,17.5,0
2019-01-24,17.5,17.5,17.5,17.5,17.5,0
2019-01-25,17.5,17.5,17.5,17.5,17.5,0
2019-01-28,17.5,17.5,17.5,17.5,17.5,0
2019-01-29,17.5,17.5,17.5,17.5,17.5,0
2019-01-30,17.5,17.5,17.5,17.5,17.5,0
2019-01-31,17.5,17.5,17.5,17.5,17.5,0
2019-02-01,17.5,17.5,17.5,17.5,17.5,0
2019-02-04,17.5,17.5,17.5,17.5,17.5,0
2019-02-05,16.0,16.0,16.0,16.0,16.0,520
2019-02-06,16.0,16.0,16.0,16.0,16.0,0
2019-02-07,16.0,16.0,16.0,16.0,16.0,0
2019-02-08,16.0,16.0,16.0,16.0,16.0,0
2019-02-11,16.0,16.0,16.0,16.0,16.0,0
2019-02-12,16.0,16.0,16.0,16.0,16.0,0
2019-02-13,16.0,16.0,16.0,16.0,16.0,0
2019-02-14,16.0,16.0,16.0,16.0,16.0,0
2019-02-15,16.0,16.0,16.0,16.0,16.0,0
2019-02-19,16.0,16.0,16.0,16.0,16.0,0
2019-02-20,17.25,17.25,17.25,17.25,17.25,40
2019-02-21,17.25,17.25,17.25,17.25,17.25,0
2019-02-22,17.25,17.25,17.25,17.25,17.25,0
2019-02-25,17.25,17.25,17.25,17.25,17.25,0
2019-02-26,17.25,17.25,17.25,17.25,17.25,0
2019-02-27,17.25,17.25,17.25,17.25,17.25,0
2019-02-28,17.25,17.25,17.25,17.25,17.25,0
2019-03-01,17.25,17.25,17.25,17.25,17.25,0
2019-03-04,17.25,17.25,17.25,17.25,17.25,0
2019-03-05,17.25,17.25,17.25,17.25,17.25,0
2019-03-06,17.25,17.25,17.25,17.25,17.25,0
2019-03-07,17.25,17.25,17.25,17.25,17.25,0
2019-03-08,17.25,17.25,17.25,17.25,17.25,0
2019-03-11,17.25,17.25,17.25,17.25,17.25,0
2019-03-12,17.25,17.25,17.25,17.25,17.25,0
2019-03-13,17.25,17.25,17.25,17.25,17.25,0
2019-03-14,17.25,17.25,17.25,17.25,17.25,0
2019-03-15,17.25,17.25,17.25,17.25,17.25,0
2019-03-18,17.25,17.25,17.25,17.25,17.25,0
2019-03-19,17.25,17.25,17.25,17.25,17.25,0
2019-03-20,17.25,17.25,17.25,17.25,17.25,0
2019-03-21,17.25,17.25,17.25,17.25,17.25,0
2019-03-22,17.25,17.25,17.25,17.25,17.25,0
2019-03-25,17.25,17.25,17.25,17.25,17.25,0
2019-03-26,17.25,17.25,17.25,17.25,17.25,0
2019-03-27,17.25,17.25,17.25,17.25,17.25,0
2019-03-28,17.25,17.25,17.25,17.25,17.25,0
2019-03-29,17.25,17.25,17.25,17.25,17.25,0
2019-04-01,17.25,17.25,17.25,17.25,17.25,0
2019-04-02,17.25,17.25,17.25,17.25,17.25,0
2019-04-03,14.5,14.5,14.5,14.5,14.5,40
2019-04-04,14.5,14.5,14.5,14.5,14.5,0
2019-04-05,14.5,14.5,14.5,14.5,14.5,0
2019-04-08,15.5,15.5,15.5,15.5,15.5,40
2019-04-09,15.5,15.5,15.5,15.5,15.5,0
2019-04-10,15.5,15.5,15.5,15.5,15.5,0
2019-04-11,15.5,15.5,15.5,15.5,15.5,0
2019-04-12,15.5,15.5,15.5,15.5,15.5,0
2019-04-15,15.5,15.5,15.5,15.5,15.5,0
2019-04-16,15.5,15.5,15.5,15.5,15.5,0
2019-04-17,15.5,15.5,15.5,15.5,15.5,0
2019-04-18,15.5,15.5,15.5,15.5,15.5,0
2019-04-22,15.5,15.5,15.5,15.5,15.5,0
2019-04-23,15.5,15.5,15.5,15.5,15.5,0
2019-04-24,15.5,15.5,15.5,15.5,15.5,0
2019-04-25,15.5,15.5,15.5,15.5,15.5,0
2019-04-26,15.5,15.5,15.5,15.5,15.5,0
2019-04-29,15.5,15.5,15.5,15.5,15.5,0
2019-04-30,15.5,15.5,15.5,15.5,15.5,0
2019-05-01,15.5,15.5,15.5,15.5,15.5,0
2019-05-02,15.5,15.5,15.5,15.5,15.5,0
2019-05-03,15.5,15.5,15.5,15.5,15.5,0
2019-05-06,15.5,15.5,15.5,15.5,15.5,0
2019-05-07,15.5,15.5,15.5,15.5,15.5,0
2019-05-08,15.5,15.5,15.5,15.5,15.5,0
2019-05-09,15.5,15.5,15.5,15.5,15.5,0
2019-05-10,15.5,15.5,15.5,15.5,15.5,0
2019-05-13,15.5,15.5,15.5,15.5,15.5,0
2019-05-14,15.5,15.5,15.5,15.5,15.5,0
2019-05-15,15.5,15.5,15.5,15.5,15.5,0
2019-05-16,15.5,15.5,15.5,15.5,15.5,0
2019-05-17,15.5,15.5,15.5,15.5,15.5,0
2019-05-20,15.5,15.5,15.5,15.5,15.5,0
2019-05-21,15.5,15.5,15.5,15.5,15.5,0
2019-05-22,15.5,15.5,15.5,15.5,15.5,0
2019-05-23,15.5,15.5,15.5,15.5,15.5,0
2019-05-24,15.5,15.5,15.5,15.5,15.5,0
2019-05-28,15.5,15.5,15.5,15.5,15.5,0
2019-05-29,15.5,15.5,15.5,15.5,15.5,0
2019-05-30,15.5,15.5,15.5,15.5,15.5,0
2019-05-31,15.5,15.5,15.5,15.5,15.5,0
2019-06-03,15.5,15.5,15.5,15.5,15.5,0
2019-06-04,15.5,15.5,15.5,15.5,15.5,0
2019-06-05,15.5,15.5,15.5,15.5,15.5,0
2019-06-06,15.5,15.5,15.5,15.5,15.5,0
2019-06-07,15.5,15.5,15.5,15.5,15.5,0
2019-06-10,15.5,15.5,15.5,15.5,15.5,0
2019-06-11,15.5,15.5,15.5,15.5,15.5,0
2019-06-12,15.5,15.5,15.5,15.5,15.5,0
2019-06-13,15.5,15.5,15.5,15.5,15.5,0
2019-06-14,15.5,15.5,15.5,15.5,15.5,0
2019-06-17,15.5,15.5,15.5,15.5,15.5,0
2019-06-18,15.5,15.5,15.5,15.5,15.5,0
2019-06-19,15.5,15.5,15.5,15.5,15.5,0
2019-06-20,15.5,15.5,15.5,15.5,15.5,0
2019-06-21,15.5,15.5,15.5,15.5,15.5,0
2019-06-24,15.5,15.5,15.5,15.5,15.5,0
2019-06-25,15.5,15.5,15.5,15.5,15.5,0
2019-06-26,15.5,15.5,15.5,15.5,15.5,0
2019-06-27,15.5,15.5,15.5,15.5,15.5,0
2019-06-28,15.5,15.5,15.5,15.5,15.5,0
2019-07-01,15.5,15.5,15.5,15.5,15.5,0
2019-07-02,15.5,15.5,15.5,15.5,15.5,0
2019-07-03,15.5,15.5,15.5,15.5,15.5,0
2019-07-05,15.5,15.5,15.5,15.5,15.5,0
2019-07-08,15.5,15.5,15.5,15.5,15.5,0
2019-07-09,15.5,15.5,15.5,15.5,15.5,0
2019-07-10,15.5,15.5,15.5,15.5,15.5,0
2019-07-11,15.5,15.5,15.5,15.5,15.5,0
2019-07-12,15.5,15.5,15.5,15.5,15.5,0
2019-07-15,15.5,15.5,15.5,15.5,15.5,0
2019-07-16,15.5,15.5,15.5,15.5,15.5,0
2019-07-17,15.5,15.5,15.5,15.5,15.5,0
2019-07-18,15.5,15.5,15.5,15.5,15.5,0
2019-07-19,15.5,15.5,15.5,15.5,15.5,0
2019-07-22,15.5,15.5,15.5,15.5,15.5,0
2019-07-23,15.625,15.625,15.625,15.625,15.625,400
2019-07-24,15.625,15.625,15.625,15.625,15.625,0
2019-07-25,15.625,15.625,15.625,15.625,15.625,0
2019-07-26,15.625,15.625,15.625,15.625,15.625,0
2019-07-29,15.625,15.625,15.625,15.625,15.625,0
2019-07-30,15.625,15.625,15.625,15.625,15.625,0
2019-07-31,15.625,15.625,15.625,15.625,15.625,0
2019-08-01,15.625,15.625,15.625,15.625,15.625,0
2019-08-02,15.625,15.625,15.625,15.625,15.625,0
2019-08-05,15.625,15.625,15.625,15.625,15.625,0
2019-08-06,15.625,15.625,15.625,15.625,15.625,0
2019-08-07,15.625,15.625,15.625,15.625,15.625,0
2019-08-08,15.625,15.625,15.625,15.625,15.625,0
2019-08-09,15.625,15.625,15.625,15.625,15.625,0
2019-08-12,15.625,15.625,15.625,15.625,15.625,0
2019-08-13,15.625,15.625,15.625,15.625,15.625,0
2019-08-14,15.625,15.625,15.625,15.625,15.625,0
2019-08-15,15.625,15.625,15.625,15.625,15.625,0
2019-08-16,15.625,15.625,15.625,15.625,15.625,0
2019-08-19,15.625,15.625,15.625,15.625,15.625,0
2019-08-20,15.625,15.625,15.625,15.625,15.625,0
2019-08-21,15.625,15.625,15.625,15.625,15.625,0
2019-08-22,15.625,15.625,15.625,15.625,15.625,0
2019-08-23,15.625,15.625,15.625,15.625,15.625,0
2019-08-26,15.625,15.625,15.625,15.625,15.625,0
2019-08-27,15.625,15.625,15.625,15.625,15.625,0
2019-08-28,15.625,15.625,15.625,15.625,15.625,0
2019-08-29,15.625,15.625,15.625,15.625,15.625,0
2019-08-30,15.625,15.625,15.625,15.625,15.625,0
2019-09-03,14.199999809265137,15.300000190734863,14.199999809265137,15.300000190734863,15.300000190734863,80
2019-09-04,15.300000190734863,15.300000190734863,15.300000190734863,15.300000190734863,15.300000190734863,0
2019-09-05,15.300000190734863,15.300000190734863,15.300000190734863,15.300000190734863,15.300000190734863,0
2019-09-06,15.300000190734863,15.300000190734863,15.300000190734863,15.300000190734863,15.300000190734863,0
2019-09-09,15.300000190734863,15.300000190734863,15.300000190734863,15.300000190734863,15.300000190734863,0
2019-09-10,15.300000190734863,15.300000190734863,15.300000190734863,15.300000190734863,15.300000190734863,0
2019-09-11,15.300000190734863,15.300000190734863,15.300000190734863,15.300000190734863,15.300000190734863,0
2019-09-12,15.300000190734863,15.300000190734863,15.300000190734863,15.300000190734863,15.300000190734863,0
2019-09-13,15.300000190734863,15.300000190734863,15.300000190734863,15.300000190734863,15.300000190734863,0
2019-09-16,15.300000190734863,15.300000190734863,15.300000190734863,15.300000190734863,15.300000190734863,0
2019-09-17,15.300000190734863,15.300000190734863,15.300000190734863,15.300000190734863,15.300000190734863,0
2019-09-18,15.300000190734863,15.300000190734863,15.300000190734863,15.300000190734863,15.300000190734863,0
2019-09-19,15.300000190734863,15.300000190734863,15.300000190734863,15.300000190734863,15.300000190734863,0
2019-09-20,15.300000190734863,15.300000190734863,15.300000190734863,15.300000190734863,15.300000190734863,0
2019-09-23,15.300000190734863,15.300000190734863,15.300000190734863,15.300000190734863,15.300000190734863,0
2019-09-24,15.300000190734863,15.300000190734863,15.300000190734863,15.300000190734863,15.300000190734863,0
2019-09-25,15.300000190734863,15.300000190734863,15.300000190734863,15.300000190734863,15.300000190734863,0
2019-09-26,15.300000190734863,15.300000190734863,15.300000190734863,15.300000190734863,15.300000190734863,0
2019-09-27,15.300000190734863,15.300000190734863,15.300000190734863,15.300000190734863,15.300000190734863,0
2019-09-30,15.300000190734863,15.300000190734863,15.300000190734863,15.300000190734863,15.300000190734863,0
2019-10-01,15.300000190734863,15.300000190734863,15.300000190734863,15.300000190734863,15.300000190734863,0
2019-10-02,15.300000190734863,15.300000190734863,15.300000190734863,15.300000190734863,15.300000190734863,0
2019-10-03,15.300000190734863,15.300000190734863,15.300000190734863,15.300000190734863,15.300000190734863,0
2019-10-04,15.300000190734863,15.300000190734863,15.300000190734863,15.300000190734863,15.300000190734863,0
2019-10-07,15.300000190734863,15.300000190734863,15.300000190734863,15.300000190734863,15.300000190734863,0
2019-10-08,15.300000190734863,15.300000190734863,15.300000190734863,15.300000190734863,15.300000190734863,0
2019-10-09,15.300000190734863,15.300000190734863,15.300000190734863,15.300000190734863,15.300000190734863,0
2019-10-10,15.300000190734863,15.300000190734863,15.300000190734863,15.300000190734863,15.300000190734863,0
2019-10-11,15.300000190734863,15.300000190734863,15.300000190734863,15.300000190734863,15.300000190734863,0
2019-10-14,15.300000190734863,15.300000190734863,15.300000190734863,15.300000190734863,15.300000190734863,0
2019-10-15,15.300000190734863,15.300000190734863,15.300000190734863,15.300000190734863,15.300000190734863,0
2019-10-16,15.300000190734863,15.300000190734863,15.300000190734863,15.300000190734863,15.300000190734863,0
2019-10-17,15.300000190734863,15.300000190734863,15.300000190734863,15.300000190734863,15.300000190734863,0
2019-10-18,15.300000190734863,15.300000190734863,15.300000190734863,15.300000190734863,15.300000190734863,0
2019-10-21,15.300000190734863,15.300000190734863,15.300000190734863,15.300000190734863,15.300000190734863,0
2019-10-22,15.300000190734863,15.300000190734863,15.300000190734863,15.300000190734863,15.300000190734863,0
2019-10-23,15.300000190734863,15.300000190734863,15.300000190734863,15.300000190734863,15.300000190734863,0
2019-10-24,15.300000190734863,15.300000190734863,15.300000190734863,15.300000190734863,15.300000190734863,0
2019-10-25,15.300000190734863,15.300000190734863,15.300000190734863,15.300000190734863,15.300000190734863,0
2019-10-28,15.300000190734863,15.300000190734863,15.300000190734863,15.300000190734863,15.300000190734863,0
2019-10-29,15.300000190734863,15.300000190734863,15.300000190734863,15.300000190734863,15.300000190734863,0
2019-10-30,15.300000190734863,15.300000190734863,15.300000190734863,15.300000190734863,15.300000190734863,0
2019-10-31,15.300000190734863,15.300000190734863,15.300000190734863,15.300000190734863,15.300000190734863,0
2019-11-01,10.850000381469727,10.850000381469727,10.850000381469727,10.850000381469727,10.850000381469727,400
2019-11-04,10.850000381469727,10.850000381469727,10.850000381469727,10.850000381469727,10.850000381469727,0
2019-11-05,10.850000381469727,10.850000381469727,10.850000381469727,10.850000381469727,10.850000381469727,0
2019-11-06,10.850000381469727,10.850000381469727,10.850000381469727,10.850000381469727,10.850000381469727,0
2019-11-07,10.850000381469727,10.850000381469727,10.850000381469727,10.850000381469727,10.850000381469727,0
2019-11-08,10.850000381469727,10.850000381469727,10.850000381469727,10.850000381469727,10.850000381469727,0
2019-11-11,10.850000381469727,10.850000381469727,10.850000381469727,10.850000381469727,10.850000381469727,0
2019-11-12,10.850000381469727,10.850000381469727,10.850000381469727,10.850000381469727,10.850000381469727,0
2019-11-13,10.850000381469727,10.850000381469727,10.850000381469727,10.850000381469727,10.850000381469727,0
2019-11-14,10.850000381469727,10.850000381469727,10.850000381469727,10.850000381469727,10.850000381469727,0
2019-11-15,10.850000381469727,10.850000381469727,10.850000381469727,10.850000381469727,10.850000381469727,0
2019-11-18,10.850000381469727,10.850000381469727,10.850000381469727,10.850000381469727,10.850000381469727,0
2019-11-19,10.850000381469727,10.850000381469727,10.850000381469727,10.850000381469727,10.850000381469727,0
2019-11-20,10.850000381469727,10.850000381469727,10.850000381469727,10.850000381469727,10.850000381469727,0
2019-11-21,10.850000381469727,10.850000381469727,10.850000381469727,10.850000381469727,10.850000381469727,0
2019-11-22,10.850000381469727,10.850000381469727,10.850000381469727,10.850000381469727,10.850000381469727,0
2019-11-25,10.850000381469727,10.850000381469727,10.850000381469727,10.850000381469727,10.850000381469727,0
2019-11-26,10.850000381469727,10.850000381469727,10.850000381469727,10.850000381469727,10.850000381469727,0
2019-11-27,10.850000381469727,10.850000381469727,10.850000381469727,10.850000381469727,10.850000381469727,0
2019-11-29,10.850000381469727,10.850000381469727,10.850000381469727,10.850000381469727,10.850000381469727,0
2019-12-02,10.850000381469727,10.850000381469727,10.850000381469727,10.850000381469727,10.850000381469727,0
2019-12-03,10.850000381469727,10.850000381469727,10.850000381469727,10.850000381469727,10.850000381469727,0
2019-12-04,10.850000381469727,10.850000381469727,10.850000381469727,10.850000381469727,10.850000381469727,0
2019-12-05,10.850000381469727,10.850000381469727,10.850000381469727,10.850000381469727,10.850000381469727,0
2019-12-06,10.850000381469727,10.850000381469727,10.850000381469727,10.850000381469727,10.850000381469727,0
2019-12-09,10.850000381469727,10.850000381469727,10.850000381469727,10.850000381469727,10.850000381469727,0
2019-12-10,10.850000381469727,10.850000381469727,10.850000381469727,10.850000381469727,10.850000381469727,0
2019-12-11,10.850000381469727,10.850000381469727,10.850000381469727,10.850000381469727,10.850000381469727,0
2019-12-12,10.850000381469727,10.850000381469727,10.850000381469727,10.850000381469727,10.850000381469727,0
2019-12-13,10.850000381469727,10.850000381469727,10.850000381469727,10.850000381469727,10.850000381469727,0
2019-12-16,10.850000381469727,10.850000381469727,10.850000381469727,10.850000381469727,10.850000381469727,0
2019-12-17,10.850000381469727,10.850000381469727,10.850000381469727,10.850000381469727,10.850000381469727,0
2019-12-18,10.850000381469727,10.850000381469727,10.850000381469727,10.850000381469727,10.850000381469727,0
2019-12-19,10.850000381469727,10.850000381469727,10.850000381469727,10.850000381469727,10.850000381469727,0
2019-12-20,10.850000381469727,10.850000381469727,10.850000381469727,10.850000381469727,10.850000381469727,0
2019-12-23,10.850000381469727,10.850000381469727,10.850000381469727,10.850000381469727,10.850000381469727,0
2019-12-24,10.850000381469727,10.850000381469727,10.850000381469727,10.850000381469727,10.850000381469727,0
2019-12-26,10.850000381469727,10.850000381469727,10.850000381469727,10.850000381469727,10.850000381469727,0
2019-12-27,9.321999549865723,12.0,9.321999549865723,12.0,12.0,1400
2019-12-30,14.0,22.270000457763672,10.899999618530273,11.25,11.25,23100
2019-12-31,11.25,11.739999771118164,9.5,11.739999771118164,11.739999771118164,6400
2020-01-02,10.829999923706055,11.239999771118164,10.800000190734863,11.239999771118164,11.239999771118164,1500
2020-01-03,11.239999771118164,11.239999771118164,11.239999771118164,11.239999771118164,11.239999771118164,0
2020-01-06,11.239999771118164,11.239999771118164,11.239999771118164,11.239999771118164,11.239999771118164,0
2020-01-07,11.239999771118164,11.239999771118164,11.239999771118164,11.239999771118164,11.239999771118164,0
2020-01-08,11.239999771118164,11.239999771118164,11.239999771118164,11.239999771118164,11.239999771118164,0
2020-01-09,11.239999771118164,11.239999771118164,11.239999771118164,11.239999771118164,11.239999771118164,0
2020-01-10,11.239999771118164,11.239999771118164,11.239999771118164,11.239999771118164,11.239999771118164,0
2020-01-13,11.239999771118164,11.239999771118164,11.239999771118164,11.239999771118164,11.239999771118164,0
2020-01-14,11.239999771118164,11.239999771118164,11.239999771118164,11.239999771118164,11.239999771118164,0
2020-01-15,11.239999771118164,11.239999771118164,11.239999771118164,11.239999771118164,11.239999771118164,0
2020-01-16,9.630999565124512,9.630999565124512,9.630999565124512,9.630999565124512,9.630999565124512,100
2020-01-17,9.630999565124512,9.630999565124512,9.630999565124512,9.630999565124512,9.630999565124512,0
2020-01-21,9.630999565124512,9.630999565124512,9.630999565124512,9.630999565124512,9.630999565124512,0
2020-01-22,9.630999565124512,9.630999565124512,9.630999565124512,9.630999565124512,9.630999565124512,0
2020-01-23,9.630999565124512,9.630999565124512,9.630999565124512,9.630999565124512,9.630999565124512,0
2020-01-24,9.630999565124512,9.630999565124512,9.630999565124512,9.630999565124512,9.630999565124512,0
2020-01-27,9.630999565124512,9.630999565124512,9.630999565124512,9.630999565124512,9.630999565124512,0
2020-01-28,9.630999565124512,9.630999565124512,9.630999565124512,9.630999565124512,9.630999565124512,0
2020-01-29,9.630999565124512,9.630999565124512,9.630999565124512,9.630999565124512,9.630999565124512,0
2020-01-30,8.550000190734863,8.989999771118164,7.789999961853027,8.989999771118164,8.989999771118164,300
2020-01-31,7.28000020980835,7.949999809265137,7.28000020980835,7.949999809265137,7.949999809265137,300
2020-02-03,7.949999809265137,7.949999809265137,7.949999809265137,7.949999809265137,7.949999809265137,0
2020-02-04,8.100000381469727,8.100000381469727,8.100000381469727,8.100000381469727,8.100000381469727,600
2020-02-05,8.100000381469727,8.100000381469727,8.100000381469727,8.100000381469727,8.100000381469727,0
2020-02-06,8.100000381469727,8.100000381469727,8.100000381469727,8.100000381469727,8.100000381469727,0
2020-02-07,8.100000381469727,8.100000381469727,8.100000381469727,8.100000381469727,8.100000381469727,0
2020-02-10,8.90999984741211,8.90999984741211,7.585000038146973,7.585000038146973,7.585000038146973,7100
2020-02-11,7.585000038146973,7.585000038146973,7.585000038146973,7.585000038146973,7.585000038146973,0
2020-02-12,7.585000038146973,7.585000038146973,7.585000038146973,7.585000038146973,7.585000038146973,0
2020-02-13,7.585000038146973,7.585000038146973,7.585000038146973,7.585000038146973,7.585000038146973,0
2020-02-14,7.585000038146973,7.585000038146973,7.585000038146973,7.585000038146973,7.585000038146973,0
2020-02-18,7.585000038146973,7.585000038146973,7.585000038146973,7.585000038146973,7.585000038146973,0
2020-02-19,7.585000038146973,7.585000038146973,7.585000038146973,7.585000038146973,7.585000038146973,0
2020-02-20,7.585000038146973,7.585000038146973,7.585000038146973,7.585000038146973,7.585000038146973,0
2020-02-21,7.585000038146973,7.585000038146973,7.585000038146973,7.585000038146973,7.585000038146973,0
2020-02-24,7.585000038146973,7.585000038146973,7.585000038146973,7.585000038146973,7.585000038146973,0
2020-02-25,7.585000038146973,7.585000038146973,7.585000038146973,7.585000038146973,7.585000038146973,0
2020-02-26,7.585000038146973,7.585000038146973,7.585000038146973,7.585000038146973,7.585000038146973,0
2020-02-27,7.585000038146973,7.585000038146973,7.585000038146973,7.585000038146973,7.585000038146973,0
2020-02-28,7.585000038146973,7.585000038146973,7.585000038146973,7.585000038146973,7.585000038146973,0
2020-03-02,6.949999809265137,6.949999809265137,6.010000228881836,6.010000228881836,6.010000228881836,1100
2020-03-03,6.010000228881836,6.010000228881836,6.010000228881836,6.010000228881836,6.010000228881836,0
2020-03-04,6.099999904632568,6.099999904632568,6.099999904632568,6.099999904632568,6.099999904632568,1000
2020-03-05,6.099999904632568,6.099999904632568,6.099999904632568,6.099999904632568,6.099999904632568,0
2020-03-06,5.949999809265137,5.949999809265137,5.949999809265137,5.949999809265137,5.949999809265137,2000
2020-03-09,5.949999809265137,5.949999809265137,5.949999809265137,5.949999809265137,5.949999809265137,0
2020-03-10,5.949999809265137,5.949999809265137,5.949999809265137,5.949999809265137,5.949999809265137,0
2020-03-11,5.949999809265137,5.949999809265137,5.949999809265137,5.949999809265137,5.949999809265137,0
2020-03-12,5.949999809265137,5.949999809265137,5.949999809265137,5.949999809265137,5.949999809265137,0
2020-03-13,5.949999809265137,5.949999809265137,5.440000057220459,5.440000057220459,5.440000057220459,400
2020-03-16,5.71999979019165,5.71999979019165,5.71999979019165,5.71999979019165,5.71999979019165,200
2020-03-17,5.5,6.0,5.5,6.0,6.0,500
2020-03-18,6.0,6.0,6.0,6.0,6.0,0
2020-03-19,4.568999767303467,4.568999767303467,4.568999767303467,4.568999767303467,4.568999767303467,2000
2020-03-20,4.568999767303467,4.568999767303467,4.568999767303467,4.568999767303467,4.568999767303467,0
2020-03-23,4.568999767303467,4.568999767303467,4.568999767303467,4.568999767303467,4.568999767303467,0
2020-03-24,4.568999767303467,4.568999767303467,4.568999767303467,4.568999767303467,4.568999767303467,0
2020-03-25,4.568999767303467,4.568999767303467,4.568999767303467,4.568999767303467,4.568999767303467,0
2020-03-26,4.568999767303467,4.568999767303467,4.568999767303467,4.568999767303467,4.568999767303467,0
2020-03-27,4.568999767303467,4.568999767303467,4.568999767303467,4.568999767303467,4.568999767303467,0
2020-03-30,4.568999767303467,4.568999767303467,4.568999767303467,4.568999767303467,4.568999767303467,0
2020-03-31,4.568999767303467,4.568999767303467,4.568999767303467,4.568999767303467,4.568999767303467,0
2020-04-01,4.568999767303467,4.568999767303467,4.568999767303467,4.568999767303467,4.568999767303467,0
2020-04-02,4.568999767303467,4.568999767303467,4.568999767303467,4.568999767303467,4.568999767303467,0
2020-04-03,4.568999767303467,4.568999767303467,4.568999767303467,4.568999767303467,4.568999767303467,0
2020-04-06,4.568999767303467,4.568999767303467,4.568999767303467,4.568999767303467,4.568999767303467,0
2020-04-07,4.568999767303467,4.568999767303467,4.568999767303467,4.568999767303467,4.568999767303467,0
2020-04-08,4.568999767303467,4.568999767303467,4.568999767303467,4.568999767303467,4.568999767303467,0
2020-04-09,4.568999767303467,4.568999767303467,4.568999767303467,4.568999767303467,4.568999767303467,0
2020-04-13,4.300000190734863,4.300000190734863,4.300000190734863,4.300000190734863,4.300000190734863,200
2020-04-14,4.300000190734863,4.300000190734863,4.300000190734863,4.300000190734863,4.300000190734863,0
2020-04-15,4.300000190734863,4.300000190734863,4.300000190734863,4.300000190734863,4.300000190734863,0
2020-04-16,4.300000190734863,4.300000190734863,4.300000190734863,4.300000190734863,4.300000190734863,0
2020-04-17,4.300000190734863,4.300000190734863,4.300000190734863,4.300000190734863,4.300000190734863,0
2020-04-20,4.300000190734863,4.300000190734863,4.300000190734863,4.300000190734863,4.300000190734863,0
2020-04-21,4.300000190734863,4.300000190734863,4.300000190734863,4.300000190734863,4.300000190734863,0
2020-04-22,4.300000190734863,4.300000190734863,4.300000190734863,4.300000190734863,4.300000190734863,0
2020-04-23,4.300000190734863,4.300000190734863,4.300000190734863,4.300000190734863,4.300000190734863,0
2020-04-24,4.300000190734863,4.300000190734863,4.300000190734863,4.300000190734863,4.300000190734863,0
2020-04-27,4.300000190734863,4.300000190734863,4.300000190734863,4.300000190734863,4.300000190734863,0
2020-04-28,4.300000190734863,4.300000190734863,4.300000190734863,4.300000190734863,4.300000190734863,0
2020-04-29,4.300000190734863,4.300000190734863,4.300000190734863,4.300000190734863,4.300000190734863,0
2020-04-30,4.300000190734863,4.300000190734863,4.300000190734863,4.300000190734863,4.300000190734863,0
2020-05-01,4.300000190734863,4.300000190734863,4.300000190734863,4.300000190734863,4.300000190734863,0
2020-05-04,4.300000190734863,4.300000190734863,4.300000190734863,4.300000190734863,4.300000190734863,0
2020-05-05,4.639999866485596,5.0,4.639999866485596,4.650000095367432,4.650000095367432,4000
2020-05-06,4.400000095367432,4.400000095367432,4.0,4.0,4.0,1200
2020-05-07,4.019999980926514,4.019999980926514,4.019999980926514,4.019999980926514,4.019999980926514,200
2020-05-08,6.0,6.0,4.349999904632568,4.570000171661377,4.570000171661377,51500
2020-05-11,5.0,5.0,4.449999809265137,4.539999961853027,4.539999961853027,17500
2020-05-12,4.260000228881836,4.300000190734863,3.9000000953674316,4.199999809265137,4.199999809265137,4200
2020-05-13,4.409999847412109,4.409999847412109,4.28000020980835,4.28000020980835,4.28000020980835,1000
2020-05-14,4.28000020980835,4.73799991607666,3.9700000286102295,3.9700000286102295,3.9700000286102295,2100
2020-05-15,3.9700000286102295,4.139999866485596,3.9509999752044678,3.9700000286102295,3.9700000286102295,2000
2020-05-18,4.322000026702881,4.322000026702881,4.322000026702881,4.322000026702881,4.322000026702881,1500
2020-05-19,4.679999828338623,5.489999771118164,4.559000015258789,5.0,5.0,32300
2020-05-20,4.980000019073486,5.21999979019165,4.875,5.090000152587891,5.090000152587891,1400
2020-05-21,4.599999904632568,5.199999809265137,4.599999904632568,5.199999809265137,5.199999809265137,3700
2020-05-22,4.538000106811523,5.199999809265137,4.538000106811523,4.984000205993652,4.984000205993652,5600
2020-05-26,5.230000019073486,5.230000019073486,5.019999980926514,5.044000148773193,5.044000148773193,1900
2020-05-27,4.708000183105469,4.800000190734863,4.708000183105469,4.800000190734863,4.800000190734863,3500
2020-05-28,4.53000020980835,4.849999904632568,4.53000020980835,4.800000190734863,4.800000190734863,6600
2020-05-29,4.800000190734863,5.010000228881836,4.440000057220459,4.5,4.5,1700
2020-06-01,4.320000171661377,4.546999931335449,4.320000171661377,4.546999931335449,4.546999931335449,700
2020-06-02,4.5960001945495605,4.5960001945495605,4.5960001945495605,4.5960001945495605,4.5960001945495605,400
2020-06-03,5.050000190734863,5.099999904632568,5.050000190734863,5.099999904632568,5.099999904632568,500
2020-06-04,5.5,5.5,4.699999809265137,4.980000019073486,4.980000019073486,1300
2020-06-05,4.526000022888184,4.699999809265137,4.510000228881836,4.699999809265137,4.699999809265137,2600
2020-06-08,4.699999809265137,4.699999809265137,4.699999809265137,4.699999809265137,4.699999809265137,300
2020-06-09,5.0,7.489999771118164,4.980000019073486,6.380000114440918,6.380000114440918,21500
2020-06-10,7.400000095367432,14.564000129699707,6.760000228881836,7.989999771118164,7.989999771118164,99300
2020-06-11,8.510000228881836,10.0,6.800000190734863,7.329999923706055,7.329999923706055,33200
2020-06-12,8.979999542236328,12.020000457763672,8.0,8.350000381469727,8.350000381469727,81500
2020-06-15,9.15999984741211,10.079999923706055,8.4399995803833,8.458000183105469,8.458000183105469,13700
2020-06-16,7.5,8.760000228881836,6.639999866485596,8.0,8.0,20400
2020-06-17,7.25,7.949999809265137,7.0,7.260000228881836,7.260000228881836,8300
2020-06-18,6.96999979019165,7.949999809265137,6.769999980926514,6.909999847412109,6.909999847412109,5300
2020-06-19,7.0,8.930000305175781,6.900000095367432,8.0,8.0,23400
2020-06-22,8.899999618530273,8.899999618530273,7.5,7.5,7.5,4800
2020-06-23,8.380000114440918,8.729999542236328,7.269999980926514,8.0,8.0,8300
2020-06-24,8.5,9.979999542236328,7.861000061035156,7.861000061035156,7.861000061035156,105700
2020-06-25,8.420000076293945,8.420000076293945,7.150000095367432,7.489999771118164,7.489999771118164,39300
2020-06-26,7.789999961853027,7.789999961853027,6.739999771118164,6.900000095367432,6.900000095367432,37000
2020-06-29,6.960000038146973,7.380000114440918,6.769999980926514,6.900000095367432,6.900000095367432,24700
2020-06-30,7.089000225067139,7.199999809265137,6.809999942779541,6.809999942779541,6.809999942779541,11100
2020-07-01,7.03000020980835,7.03000020980835,6.0,6.679999828338623,6.679999828338623,20900
2020-07-02,7.099999904632568,7.400000095367432,6.589000225067139,6.920000076293945,6.920000076293945,14700
2020-07-06,7.389999866485596,7.389999866485596,6.718999862670898,7.070000171661377,7.070000171661377,15500
2020-07-07,6.590000152587891,6.696000099182129,6.315000057220459,6.559999942779541,6.559999942779541,9400
2020-07-08,6.929999828338623,7.13700008392334,6.309999942779541,6.320000171661377,6.320000171661377,41300
2020-07-09,6.329999923706055,6.751999855041504,5.974999904632568,6.199999809265137,6.199999809265137,21400
2020-07-10,6.010000228881836,6.349999904632568,6.0,6.289999961853027,6.289999961853027,20100
2020-07-13,6.349999904632568,6.349999904632568,5.675000190734863,5.900000095367432,5.900000095367432,21600
2020-07-14,5.900000095367432,6.230000019073486,5.639999866485596,5.994999885559082,5.994999885559082,19300
2020-07-15,6.09499979019165,18.489999771118164,6.09499979019165,9.539999961853027,9.539999961853027,2446500
2020-07-16,8.0,8.960000038146973,7.320000171661377,7.559999942779541,7.559999942779541,553300
2020-07-17,7.349999904632568,7.489999771118164,7.0,7.389999866485596,7.389999866485596,134000
2020-07-20,6.989999771118164,7.0,6.300000190734863,6.889999866485596,6.889999866485596,131600
2020-07-21,6.510000228881836,8.0,6.510000228881836,7.070000171661377,7.070000171661377,479100
2020-07-22,6.880000114440918,7.21999979019165,6.5,6.828000068664551,6.828000068664551,90500
2020-07-23,7.199999809265137,8.369999885559082,6.550000190734863,7.079999923706055,7.079999923706055,543600
2020-07-24,6.860000133514404,9.5,6.650000095367432,9.5,9.5,673000
2020-07-27,7.5,8.859999656677246,7.300000190734863,7.599999904632568,7.599999904632568,479800
2020-07-28,7.480000019073486,8.199999809265137,7.360000133514404,7.775000095367432,7.775000095367432,192800
2020-07-29,7.650000095367432,8.40999984741211,7.650000095367432,7.980000019073486,7.980000019073486,183000
2020-07-30,7.809999942779541,7.809999942779541,7.5,7.550000190734863,7.550000190734863,139900
2020-07-31,7.550000190734863,7.6579999923706055,7.269999980926514,7.380000114440918,7.380000114440918,127600
2020-08-03,7.489999771118164,8.100000381469727,7.269999980926514,7.559999942779541,7.559999942779541,215600
2020-08-04,7.710000038146973,8.399999618530273,7.599999904632568,7.800000190734863,7.800000190734863,339200
2020-08-05,7.860000133514404,11.369999885559082,7.84499979019165,9.850000381469727,9.850000381469727,2276000
2020-08-06,9.0,11.130000114440918,8.579999923706055,10.380000114440918,10.380000114440918,960300
2020-08-07,9.9399995803833,11.229999542236328,9.819999694824219,10.479999542236328,10.479999542236328,660100
2020-08-10,11.0,12.229999542236328,10.66100025177002,11.109999656677246,11.109999656677246,617300
2020-08-11,11.0,13.760000228881836,9.890000343322754,10.399999618530273,10.399999618530273,1363600
2020-08-12,10.399999618530273,10.899999618530273,10.199999809265137,10.25,10.25,232500
2020-08-13,10.079999923706055,10.1899995803833,9.75,10.010000228881836,10.010000228881836,135200
2020-08-14,10.300000190734863,11.164999961853027,9.979999542236328,10.800000190734863,10.800000190734863,394700
2020-08-17,10.579999923706055,10.789999961853027,10.350000381469727,10.430000305175781,10.430000305175781,148200
2020-08-18,10.359999656677246,10.550000190734863,10.156000137329102,10.3100004196167,10.3100004196167,80400
2020-08-19,10.380000114440918,11.050000190734863,10.100000381469727,10.600000381469727,10.600000381469727,181700
2020-08-20,10.510000228881836,10.6899995803833,10.300000190734863,10.359999656677246,10.359999656677246,114400
2020-08-21,10.239999771118164,10.510000228881836,10.1899995803833,10.335000038146973,10.335000038146973,82000
2020-08-24,10.350000381469727,10.46500015258789,9.40999984741211,9.649999618530273,9.649999618530273,191500
2020-08-25,9.8100004196167,9.940999984741211,9.586000442504883,9.770000457763672,9.770000457763672,41800
2020-08-26,9.75,11.699999809265137,9.550000190734863,9.880000114440918,9.880000114440918,586700
2020-08-27,9.720000267028809,9.720000267028809,8.600000381469727,9.029999732971191,9.029999732971191,219900
2020-08-28,9.130000114440918,9.361000061035156,8.824000358581543,8.979999542236328,8.979999542236328,66700
2020-08-31,9.130000114440918,9.1899995803833,8.550000190734863,8.600000381469727,8.600000381469727,108800
2020-09-01,8.649999618530273,8.949999809265137,8.300000190734863,8.479999542236328,8.479999542236328,178100
2020-09-02,8.6899995803833,9.0,8.449999809265137,8.600000381469727,8.600000381469727,86100
2020-09-03,8.680000305175781,8.850000381469727,7.909999847412109,8.210000038146973,8.210000038146973,179000
2020-09-04,8.270000457763672,8.420000076293945,7.75,8.350000381469727,8.350000381469727,95900
2020-09-08,8.199999809265137,8.619999885559082,7.271999835968018,7.579999923706055,7.579999923706055,179500
2020-09-09,7.840000152587891,8.140000343322754,7.5,7.559999942779541,7.559999942779541,101000
2020-09-10,7.679999828338623,8.0600004196167,7.340000152587891,7.460000038146973,7.460000038146973,102800
2020-09-11,7.510000228881836,7.6620001792907715,6.130000114440918,6.449999809265137,6.449999809265137,356700
2020-09-14,6.650000095367432,7.300000190734863,6.349999904632568,7.039999961853027,7.039999961853027,350900
2020-09-15,7.170000076293945,7.199999809265137,6.420000076293945,6.630000114440918,6.630000114440918,186500
2020-09-16,6.699999809265137,7.400000095367432,6.670000076293945,6.940000057220459,6.940000057220459,301300
2020-09-17,6.880000114440918,7.080999851226807,6.599999904632568,6.820000171661377,6.820000171661377,70400
2020-09-18,6.900000095367432,7.119999885559082,6.769999980926514,6.989999771118164,6.989999771118164,98700
2020-09-21,6.610000133514404,6.789999961853027,6.309999942779541,6.599999904632568,6.599999904632568,112800
2020-09-22,6.650000095367432,6.75,6.320000171661377,6.610000133514404,6.610000133514404,93600
2020-09-23,6.559999942779541,6.639999866485596,6.300000190734863,6.300000190734863,6.300000190734863,47100
2020-09-24,6.505000114440918,6.505000114440918,6.170000076293945,6.21999979019165,6.21999979019165,75400
2020-09-25,6.190000057220459,6.5,6.099999904632568,6.329999923706055,6.329999923706055,58800
2020-09-28,6.420000076293945,6.739999771118164,6.349999904632568,6.40500020980835,6.40500020980835,63600
2020-09-29,6.449999809265137,6.699999809265137,6.260000228881836,6.400000095367432,6.400000095367432,25700
2020-09-30,6.400000095367432,6.699999809265137,6.260000228881836,6.559999942779541,6.559999942779541,44400
2020-10-01,6.550000190734863,7.329999923706055,6.170000076293945,6.269999980926514,6.269999980926514,475600
2020-10-02,6.159999847412109,6.309999942779541,6.059999942779541,6.099999904632568,6.099999904632568,116400
2020-10-05,6.25,6.480000019073486,6.150000095367432,6.190000057220459,6.190000057220459,39000
2020-10-06,6.199999809265137,6.690000057220459,6.199999809265137,6.300000190734863,6.300000190734863,113400
2020-10-07,6.460000038146973,6.5,6.349999904632568,6.380000114440918,6.380000114440918,29100
2020-10-08,6.409999847412109,6.550000190734863,6.300000190734863,6.369999885559082,6.369999885559082,70600
2020-10-09,6.659999847412109,6.989999771118164,6.5,6.510000228881836,6.510000228881836,135500
2020-10-12,6.730000019073486,6.735000133514404,6.432000160217285,6.599999904632568,6.599999904632568,27300
2020-10-13,6.460000038146973,6.679999828338623,6.25,6.260000228881836,6.260000228881836,73200
2020-10-14,6.449999809265137,6.449999809265137,6.269999980926514,6.269999980926514,6.269999980926514,21300
2020-10-15,6.25,6.25,6.119999885559082,6.239999771118164,6.239999771118164,24400
2020-10-16,6.199999809265137,6.650000095367432,6.130000114440918,6.170000076293945,6.170000076293945,101100
2020-10-19,6.389999866485596,6.389999866485596,6.150000095367432,6.159999847412109,6.159999847412109,32500
2020-10-20,6.260000228881836,6.46999979019165,6.050000190734863,6.099999904632568,6.099999904632568,182000
2020-10-21,6.130000114440918,6.840000152587891,6.105000019073486,6.150000095367432,6.150000095367432,674700
2020-10-22,6.150000095367432,6.329999923706055,6.039999961853027,6.119999885559082,6.119999885559082,86200
2020-10-23,6.159999847412109,6.489999771118164,6.150000095367432,6.260000228881836,6.260000228881836,72700
2020-10-26,6.21999979019165,6.328000068664551,5.929999828338623,6.0,6.0,150400
2020-10-27,6.099999904632568,6.179999828338623,5.630000114440918,5.730000019073486,5.730000019073486,62900
2020-10-28,5.659999847412109,5.670000076293945,5.179999828338623,5.210000038146973,5.210000038146973,95900
2020-10-29,5.139999866485596,5.361999988555908,5.139999866485596,5.25,5.25,56100
2020-10-30,5.300000190734863,5.389999866485596,5.0,5.090000152587891,5.090000152587891,62300
2020-11-02,5.210000038146973,5.940000057220459,5.079999923706055,5.130000114440918,5.130000114440918,175700
2020-11-03,5.199999809265137,5.360000133514404,5.199999809265137,5.21999979019165,5.21999979019165,29700
2020-11-04,5.230000019073486,5.619999885559082,5.230000019073486,5.269999980926514,5.269999980926514,41400
2020-11-05,5.369999885559082,5.539999961853027,5.2820000648498535,5.46999979019165,5.46999979019165,24500
2020-11-06,5.429999828338623,5.51200008392334,5.260000228881836,5.269999980926514,5.269999980926514,27000
2020-11-09,5.349999904632568,5.658999919891357,5.304999828338623,5.420000076293945,5.420000076293945,59900
2020-11-10,5.409999847412109,5.659999847412109,5.409999847412109,5.539999961853027,5.539999961853027,14200
2020-11-11,5.570000171661377,5.849999904632568,5.441999912261963,5.570000171661377,5.570000171661377,48900
2020-11-12,5.760000228881836,5.900000095367432,5.639999866485596,5.849999904632568,5.849999904632568,28200
2020-11-13,5.78000020980835,5.840000152587891,5.559999942779541,5.760000228881836,5.760000228881836,17400
2020-11-16,5.840000152587891,5.889999866485596,5.75,5.75,5.75,23700
2020-11-17,5.829999923706055,6.099999904632568,5.670000076293945,5.96999979019165,5.96999979019165,138600
2020-11-18,5.849999904632568,5.849999904632568,5.650000095367432,5.71999979019165,5.71999979019165,89000
2020-11-19,5.710000038146973,5.806000232696533,5.550000190734863,5.71999979019165,5.71999979019165,49400
2020-11-20,5.78000020980835,6.099999904632568,5.699999809265137,5.949999809265137,5.949999809265137,148000
2020-11-23,6.099999904632568,6.5879998207092285,6.090000152587891,6.46999979019165,6.46999979019165,269100
2020-11-24,6.460000038146973,6.493000030517578,5.940000057220459,6.099999904632568,6.099999904632568,120200
2020-11-25,6.190000057220459,6.329999923706055,5.909999847412109,6.25,6.25,55200
2020-11-27,6.320000171661377,6.320000171661377,6.039999961853027,6.070000171661377,6.070000171661377,31300
2020-11-30,6.300000190734863,6.5,6.199999809265137,6.369999885559082,6.369999885559082,52700
2020-12-01,6.349999904632568,6.570000171661377,6.0,6.130000114440918,6.130000114440918,89700
2020-12-02,6.190000057220459,6.230000019073486,5.670000076293945,6.090000152587891,6.090000152587891,98800
2020-12-03,6.010000228881836,6.079999923706055,5.849999904632568,5.960000038146973,5.960000038146973,37100
2020-12-04,5.994999885559082,6.050000190734863,5.659999847412109,5.829999923706055,5.829999923706055,56100
2020-12-07,5.829999923706055,6.510000228881836,5.5,5.650000095367432,5.650000095367432,491400
2020-12-08,5.690000057220459,6.090000152587891,5.360000133514404,5.519999980926514,5.519999980926514,326300
2020-12-09,5.510000228881836,5.510000228881836,5.329999923706055,5.409999847412109,5.409999847412109,62500
2020-12-10,5.550000190734863,5.690000057220459,5.380000114440918,5.579999923706055,5.579999923706055,87200
2020-12-11,5.570000171661377,5.650000095367432,5.420000076293945,5.510000228881836,5.510000228881836,41900
2020-12-14,5.519999980926514,5.75,5.429999828338623,5.46999979019165,5.46999979019165,47000
2020-12-15,5.531000137329102,5.590000152587891,5.309999942779541,5.480000019073486,5.480000019073486,47900
2020-12-16,5.699999809265137,6.198999881744385,5.591000080108643,6.099999904632568,6.099999904632568,661100
2020-12-17,6.019999980926514,7.610000133514404,5.760000228881836,6.650000095367432,6.650000095367432,1266400
2020-12-18,6.599999904632568,6.789999961853027,6.130000114440918,6.269999980926514,6.269999980926514,482400
2020-12-21,6.0,6.460000038146973,5.880000114440918,6.110000133514404,6.110000133514404,206000
2020-12-22,6.090000152587891,6.21999979019165,5.920000076293945,6.139999866485596,6.139999866485596,178500
2020-12-23,6.190000057220459,6.389999866485596,5.960000038146973,6.269999980926514,6.269999980926514,392300
2020-12-24,6.300000190734863,6.304999828338623,5.979000091552734,6.041999816894531,6.041999816894531,71300
2020-12-28,6.190000057220459,6.460000038146973,6.090000152587891,6.409999847412109,6.409999847412109,276400
2020-12-29,6.510000228881836,10.729999542236328,6.110000133514404,7.630000114440918,7.630000114440918,6293400
2020-12-30,6.75,7.349999904632568,6.75,6.960000038146973,6.960000038146973,571200
