Date,Open,High,Low,Close,Adj Close,Volume
2018-06-21,15.75,20.280000686645508,15.75,20.219999313354492,20.219999313354492,2071300
2018-06-22,19.559999465942383,19.84000015258789,18.030000686645508,18.799999237060547,18.799999237060547,193900
2018-06-25,18.690000534057617,20.059999465942383,18.25,19.100000381469727,19.100000381469727,117000
2018-06-26,21.0,22.3700008392334,18.270000457763672,19.790000915527344,19.790000915527344,341600
2018-06-27,19.790000915527344,20.25,18.799999237060547,19.940000534057617,19.940000534057617,151200
2018-06-28,20.040000915527344,20.1200008392334,18.40999984741211,19.200000762939453,19.200000762939453,64900
2018-06-29,19.25,19.899999618530273,18.600000381469727,18.979999542236328,18.979999542236328,98400
2018-07-02,18.3799991607666,18.889999389648438,17.520000457763672,18.010000228881836,18.010000228881836,63300
2018-07-03,17.81999969482422,19.969999313354492,17.81999969482422,18.0,18.0,39300
2018-07-05,18.420000076293945,18.950000762939453,18.200000762939453,18.8799991607666,18.8799991607666,14600
2018-07-06,19.729999542236328,19.739999771118164,18.1299991607666,18.670000076293945,18.670000076293945,7300
2018-07-09,18.040000915527344,18.540000915527344,18.030000686645508,18.489999771118164,18.489999771118164,8600
2018-07-10,18.399999618530273,19.489999771118164,18.100000381469727,19.489999771118164,19.489999771118164,40500
2018-07-11,19.350000381469727,19.350000381469727,18.030000686645508,18.799999237060547,18.799999237060547,14900
2018-07-12,18.989999771118164,18.989999771118164,18.229999542236328,18.399999618530273,18.399999618530273,6500
2018-07-13,18.06999969482422,18.979999542236328,18.06999969482422,18.5,18.5,8100
2018-07-16,18.549999237060547,18.68000030517578,17.5,18.399999618530273,18.399999618530273,81700
2018-07-17,18.329999923706055,19.639999389648438,18.329999923706055,19.290000915527344,19.290000915527344,36500
2018-07-18,19.56999969482422,20.0,19.0,19.56999969482422,19.56999969482422,23600
2018-07-19,19.739999771118164,19.989999771118164,19.0,19.110000610351562,19.110000610351562,12800
2018-07-20,19.559999465942383,21.0,19.280000686645508,20.850000381469727,20.850000381469727,21200
2018-07-23,21.0,22.280000686645508,20.0,20.209999084472656,20.209999084472656,36500
2018-07-24,20.559999465942383,21.399999618530273,20.0,21.3799991607666,21.3799991607666,43100
2018-07-25,21.299999237060547,21.329999923706055,20.299999237060547,20.450000762939453,20.450000762939453,23800
2018-07-26,20.450000762939453,21.25,19.559999465942383,19.770000457763672,19.770000457763672,363100
2018-07-27,20.110000610351562,21.010000228881836,17.8700008392334,18.600000381469727,18.600000381469727,67800
2018-07-30,18.600000381469727,18.969999313354492,17.899999618530273,18.209999084472656,18.209999084472656,13700
2018-07-31,18.389999389648438,18.829999923706055,18.200000762939453,18.200000762939453,18.200000762939453,6600
2018-08-01,18.329999923706055,18.969999313354492,18.049999237060547,18.059999465942383,18.059999465942383,37700
2018-08-02,18.06999969482422,19.0,16.5,17.719999313354492,17.719999313354492,65300
2018-08-03,18.06999969482422,19.18000030517578,17.31999969482422,18.8799991607666,18.8799991607666,140000
2018-08-06,18.989999771118164,19.18000030517578,17.6299991607666,18.950000762939453,18.950000762939453,32900
2018-08-07,18.579999923706055,20.5,18.329999923706055,19.899999618530273,19.899999618530273,126700
2018-08-08,19.989999771118164,20.200000762939453,18.219999313354492,19.799999237060547,19.799999237060547,59400
2018-08-09,19.899999618530273,19.899999618530273,18.959999084472656,19.760000228881836,19.760000228881836,27000
2018-08-10,19.600000381469727,20.690000534057617,18.8799991607666,20.510000228881836,20.510000228881836,122700
2018-08-13,19.709999084472656,22.389999389648438,19.190000534057617,21.15999984741211,21.15999984741211,36100
2018-08-14,21.309999465942383,26.450000762939453,21.309999465942383,25.020000457763672,25.020000457763672,56300
2018-08-15,25.0,26.25,23.549999237060547,24.25,24.25,156400
2018-08-16,24.219999313354492,24.8799991607666,23.200000762939453,23.59000015258789,23.59000015258789,21500
2018-08-17,23.469999313354492,24.989999771118164,22.399999618530273,23.049999237060547,23.049999237060547,37500
2018-08-20,23.489999771118164,25.5,23.489999771118164,24.75,24.75,78200
2018-08-21,24.729999542236328,25.81999969482422,24.0,24.829999923706055,24.829999923706055,39500
2018-08-22,24.75,25.920000076293945,24.25,25.600000381469727,25.600000381469727,43600
2018-08-23,25.770000457763672,26.969999313354492,25.079999923706055,26.399999618530273,26.399999618530273,45900
2018-08-24,26.469999313354492,26.850000381469727,25.479999542236328,25.780000686645508,25.780000686645508,61900
2018-08-27,25.59000015258789,26.700000762939453,25.59000015258789,26.239999771118164,26.239999771118164,78400
2018-08-28,26.31999969482422,26.75,25.5,26.110000610351562,26.110000610351562,20700
2018-08-29,26.200000762939453,27.030000686645508,25.799999237060547,26.200000762939453,26.200000762939453,49100
2018-08-30,26.290000915527344,26.6200008392334,24.010000228881836,25.5,25.5,41500
2018-08-31,25.43000030517578,26.75,24.600000381469727,25.700000762939453,25.700000762939453,84700
2018-09-04,25.56999969482422,27.510000228881836,25.030000686645508,25.84000015258789,25.84000015258789,88300
2018-09-05,25.700000762939453,26.709999084472656,25.309999465942383,26.209999084472656,26.209999084472656,50500
2018-09-06,26.219999313354492,26.969999313354492,26.0,26.110000610351562,26.110000610351562,121200
2018-09-07,26.290000915527344,27.5,26.06999969482422,27.0,27.0,81200
2018-09-10,27.0,27.5,26.540000915527344,27.229999542236328,27.229999542236328,90600
2018-09-11,27.110000610351562,27.600000381469727,26.5,26.989999771118164,26.989999771118164,64000
2018-09-12,26.989999771118164,27.979999542236328,26.530000686645508,27.219999313354492,27.219999313354492,70300
2018-09-13,26.209999084472656,26.5,24.309999465942383,24.719999313354492,24.719999313354492,150900
2018-09-14,24.889999389648438,25.260000228881836,22.489999771118164,23.1200008392334,23.1200008392334,148100
2018-09-17,23.06999969482422,24.75,21.860000610351562,23.260000228881836,23.260000228881836,90100
2018-09-18,23.270000457763672,24.81999969482422,22.6200008392334,23.780000686645508,23.780000686645508,61200
2018-09-19,23.690000534057617,24.260000228881836,21.489999771118164,21.489999771118164,21.489999771118164,232900
2018-09-20,21.510000228881836,23.450000762939453,20.530000686645508,20.950000762939453,20.950000762939453,103300
2018-09-21,21.110000610351562,21.110000610351562,19.399999618530273,20.09000015258789,20.09000015258789,1011200
2018-09-24,20.06999969482422,20.65999984741211,19.979999542236328,20.1200008392334,20.1200008392334,57900
2018-09-25,20.270000457763672,21.329999923706055,19.809999465942383,19.81999969482422,19.81999969482422,81700
2018-09-26,19.969999313354492,20.399999618530273,18.299999237060547,18.56999969482422,18.56999969482422,135000
2018-09-27,18.559999465942383,18.610000610351562,17.760000228881836,18.209999084472656,18.209999084472656,64000
2018-09-28,18.190000534057617,20.6200008392334,17.350000381469727,17.579999923706055,17.579999923706055,79900
2018-10-01,17.600000381469727,17.600000381469727,17.040000915527344,17.31999969482422,17.31999969482422,57300
2018-10-02,17.3700008392334,18.5,17.280000686645508,17.8700008392334,17.8700008392334,39600
2018-10-03,17.950000762939453,18.219999313354492,17.540000915527344,17.989999771118164,17.989999771118164,45100
2018-10-04,17.850000381469727,18.5,17.6200008392334,18.350000381469727,18.350000381469727,98300
2018-10-05,18.440000534057617,19.100000381469727,17.5,19.0,19.0,81900
2018-10-08,18.860000610351562,20.219999313354492,18.520000457763672,19.700000762939453,19.700000762939453,77400
2018-10-09,19.809999465942383,21.25,19.3799991607666,19.93000030517578,19.93000030517578,139500
2018-10-10,19.889999389648438,20.110000610351562,17.90999984741211,17.90999984741211,17.90999984741211,42000
2018-10-11,17.84000015258789,19.84000015258789,17.84000015258789,18.510000228881836,18.510000228881836,28800
2018-10-12,18.770000457763672,18.770000457763672,17.84000015258789,18.549999237060547,18.549999237060547,34100
2018-10-15,18.65999984741211,19.18000030517578,17.84000015258789,18.100000381469727,18.100000381469727,45300
2018-10-16,18.299999237060547,19.889999389648438,18.200000762939453,19.709999084472656,19.709999084472656,45200
2018-10-17,19.729999542236328,19.729999542236328,19.25,19.40999984741211,19.40999984741211,12200
2018-10-18,19.3700008392334,21.059999465942383,19.3700008392334,20.719999313354492,20.719999313354492,221700
2018-10-19,20.68000030517578,21.290000915527344,19.75,19.940000534057617,19.940000534057617,41200
2018-10-22,19.950000762939453,21.0,19.950000762939453,20.760000228881836,20.760000228881836,113100
2018-10-23,20.530000686645508,21.90999984741211,20.450000762939453,21.149999618530273,21.149999618530273,173500
2018-10-24,20.989999771118164,21.59000015258789,20.719999313354492,21.100000381469727,21.100000381469727,71900
2018-10-25,21.290000915527344,21.889999389648438,20.700000762939453,21.709999084472656,21.709999084472656,107200
2018-10-26,21.790000915527344,21.790000915527344,20.75,20.889999389648438,20.889999389648438,70800
2018-10-29,21.170000076293945,22.1200008392334,20.729999542236328,21.06999969482422,21.06999969482422,98400
2018-10-30,21.260000228881836,22.239999771118164,20.860000610351562,21.649999618530273,21.649999618530273,98800
2018-10-31,21.850000381469727,22.31999969482422,21.420000076293945,21.920000076293945,21.920000076293945,100600
2018-11-01,21.979999542236328,22.65999984741211,21.84000015258789,22.270000457763672,22.270000457763672,30300
2018-11-02,22.43000030517578,23.43000030517578,22.079999923706055,23.219999313354492,23.219999313354492,72200
2018-11-05,23.18000030517578,23.989999771118164,23.040000915527344,23.790000915527344,23.790000915527344,41800
2018-11-06,23.760000228881836,23.8700008392334,23.1299991607666,23.639999389648438,23.639999389648438,14900
2018-11-07,24.389999389648438,24.75,23.149999618530273,24.459999084472656,24.459999084472656,52600
2018-11-08,24.389999389648438,25.280000686645508,24.18000030517578,25.0,25.0,65100
2018-11-09,25.0,25.489999771118164,23.079999923706055,23.209999084472656,23.209999084472656,59800
2018-11-12,23.100000381469727,23.920000076293945,21.190000534057617,21.450000762939453,21.450000762939453,25000
2018-11-13,21.65999984741211,22.260000228881836,20.31999969482422,20.530000686645508,20.530000686645508,30500
2018-11-14,20.6299991607666,21.43000030517578,20.270000457763672,20.440000534057617,20.440000534057617,33600
2018-11-15,20.479999542236328,21.399999618530273,19.959999084472656,20.610000610351562,20.610000610351562,19600
2018-11-16,20.3799991607666,21.90999984741211,19.81999969482422,21.030000686645508,21.030000686645508,37700
2018-11-19,20.959999084472656,21.200000762939453,19.56999969482422,20.010000228881836,20.010000228881836,32400
2018-11-20,19.6299991607666,20.760000228881836,19.6299991607666,19.760000228881836,19.760000228881836,19800
2018-11-21,19.90999984741211,20.729999542236328,19.90999984741211,20.59000015258789,20.59000015258789,30100
2018-11-23,20.25,21.40999984741211,19.3799991607666,21.34000015258789,21.34000015258789,34500
2018-11-26,21.469999313354492,21.469999313354492,20.469999313354492,21.1299991607666,21.1299991607666,37000
2018-11-27,20.940000534057617,21.239999771118164,20.5,20.920000076293945,20.920000076293945,27800
2018-11-28,20.969999313354492,21.299999237060547,19.959999084472656,20.149999618530273,20.149999618530273,55300
2018-11-29,20.200000762939453,21.010000228881836,20.09000015258789,20.350000381469727,20.350000381469727,12200
2018-11-30,20.280000686645508,21.059999465942383,20.280000686645508,20.809999465942383,20.809999465942383,33800
2018-12-03,21.1200008392334,21.34000015258789,20.190000534057617,20.43000030517578,20.43000030517578,25500
2018-12-04,20.5,20.889999389648438,19.84000015258789,19.90999984741211,19.90999984741211,16800
2018-12-06,19.780000686645508,20.899999618530273,19.5,20.6200008392334,20.6200008392334,41500
2018-12-07,20.65999984741211,20.899999618530273,19.5,20.559999465942383,20.559999465942383,18000
2018-12-10,20.350000381469727,20.56999969482422,19.969999313354492,20.34000015258789,20.34000015258789,17200
2018-12-11,20.389999389648438,20.65999984741211,19.700000762939453,20.190000534057617,20.190000534057617,37500
2018-12-12,20.440000534057617,20.600000381469727,20.040000915527344,20.219999313354492,20.219999313354492,54600
2018-12-13,20.25,20.5,20.0,20.190000534057617,20.190000534057617,42100
2018-12-14,20.170000076293945,20.34000015258789,19.700000762939453,20.110000610351562,20.110000610351562,33000
2018-12-17,20.149999618530273,20.40999984741211,19.639999389648438,20.0,20.0,55200
2018-12-18,20.149999618530273,20.790000915527344,19.450000762939453,19.770000457763672,19.770000457763672,73600
2018-12-19,19.770000457763672,20.579999923706055,17.559999465942383,17.899999618530273,17.899999618530273,112600
2018-12-20,17.899999618530273,18.90999984741211,15.180000305175781,15.760000228881836,15.760000228881836,129000
2018-12-21,15.739999771118164,16.469999313354492,15.5,15.760000228881836,15.760000228881836,361400
2018-12-24,15.569999694824219,16.170000076293945,15.010000228881836,15.520000457763672,15.520000457763672,54500
2018-12-26,15.8100004196167,17.739999771118164,15.319999694824219,17.239999771118164,17.239999771118164,63500
2018-12-27,17.3799991607666,17.3799991607666,16.420000076293945,17.329999923706055,17.329999923706055,38000
2018-12-28,17.100000381469727,17.5,16.479999542236328,16.959999084472656,16.959999084472656,57700
2018-12-31,17.25,17.25,16.760000228881836,17.0,17.0,33400
2019-01-02,16.360000610351562,17.950000762939453,16.360000610351562,17.5,17.5,49600
2019-01-03,17.290000915527344,17.34000015258789,16.56999969482422,16.829999923706055,16.829999923706055,31200
2019-01-04,17.079999923706055,17.5,16.739999771118164,17.5,17.5,30500
2019-01-07,17.559999465942383,18.450000762939453,17.280000686645508,17.84000015258789,17.84000015258789,55500
2019-01-08,17.989999771118164,18.860000610351562,17.8700008392334,18.739999771118164,18.739999771118164,45200
2019-01-09,18.75,18.8799991607666,18.0,18.510000228881836,18.510000228881836,41000
2019-01-10,18.5,18.5,17.93000030517578,18.329999923706055,18.329999923706055,19400
2019-01-11,18.860000610351562,18.860000610351562,17.5,17.950000762939453,17.950000762939453,12800
2019-01-14,17.969999313354492,18.170000076293945,17.020000457763672,17.110000610351562,17.110000610351562,42700
2019-01-15,17.1299991607666,17.6200008392334,17.0,17.149999618530273,17.149999618530273,13000
2019-01-16,17.25,17.5,16.860000610351562,17.170000076293945,17.170000076293945,11400
2019-01-17,17.18000030517578,17.399999618530273,16.940000534057617,17.139999389648438,17.139999389648438,4900
2019-01-18,17.200000762939453,17.350000381469727,16.579999923706055,17.0,17.0,24200
2019-01-22,16.899999618530273,17.3799991607666,16.649999618530273,16.700000762939453,16.700000762939453,83400
2019-01-23,16.700000762939453,16.90999984741211,15.739999771118164,15.819999694824219,15.819999694824219,91500
2019-01-24,15.819999694824219,15.819999694824219,14.600000381469727,14.90999984741211,14.90999984741211,63000
2019-01-25,15.5600004196167,15.5600004196167,14.6899995803833,15.0,15.0,135900
2019-01-28,14.84000015258789,15.0,14.630000114440918,14.880000114440918,14.880000114440918,22000
2019-01-29,14.869999885559082,15.279999732971191,14.720000267028809,14.930000305175781,14.930000305175781,58300
2019-01-30,15.109999656677246,15.119999885559082,14.819999694824219,14.90999984741211,14.90999984741211,25400
2019-01-31,14.8100004196167,14.899999618530273,13.3100004196167,13.880000114440918,13.880000114440918,65100
2019-02-01,13.880000114440918,13.890000343322754,13.710000038146973,13.850000381469727,13.850000381469727,25900
2019-02-04,13.6899995803833,15.09000015258789,13.680000305175781,14.90999984741211,14.90999984741211,16000
2019-02-05,15.050000190734863,15.289999961853027,14.729999542236328,14.890000343322754,14.890000343322754,27500
2019-02-06,14.890000343322754,15.0,14.579999923706055,14.680000305175781,14.680000305175781,28800
2019-02-07,14.529999732971191,15.050000190734863,14.529999732971191,14.760000228881836,14.760000228881836,62000
2019-02-08,14.6899995803833,15.25,14.5,14.899999618530273,14.899999618530273,32700
2019-02-11,14.899999618530273,15.0,14.630000114440918,14.699999809265137,14.699999809265137,37500
2019-02-12,12.539999961853027,12.819999694824219,11.270000457763672,11.539999961853027,11.539999961853027,352700
2019-02-13,11.460000038146973,11.869999885559082,10.420000076293945,10.539999961853027,10.539999961853027,531500
2019-02-14,9.5,9.789999961853027,9.210000038146973,9.210000038146973,9.210000038146973,2778700
2019-02-15,9.380000114440918,9.75,9.270000457763672,9.729999542236328,9.729999542236328,470400
2019-02-19,9.779999732971191,10.050000190734863,9.489999771118164,9.979999542236328,9.979999542236328,568300
2019-02-20,9.9399995803833,9.970000267028809,9.539999961853027,9.84000015258789,9.84000015258789,229900
2019-02-21,9.90999984741211,9.949999809265137,9.609999656677246,9.640000343322754,9.640000343322754,221700
2019-02-22,9.829999923706055,9.949999809265137,9.670000076293945,9.850000381469727,9.850000381469727,329600
2019-02-25,10.0,10.300000190734863,9.869999885559082,10.119999885559082,10.119999885559082,775400
2019-02-26,10.199999809265137,10.300000190734863,9.859999656677246,9.859999656677246,9.859999656677246,351100
2019-02-27,9.90999984741211,10.170000076293945,9.850000381469727,10.0,10.0,469100
2019-02-28,9.989999771118164,10.380000114440918,9.710000038146973,10.010000228881836,10.010000228881836,460800
2019-03-01,10.09000015258789,10.800000190734863,9.960000038146973,10.1899995803833,10.1899995803833,1016100
2019-03-04,10.300000190734863,10.680000305175781,10.09000015258789,10.5,10.5,325100
2019-03-05,10.5,10.520000457763672,9.8100004196167,10.34000015258789,10.34000015258789,222300
2019-03-06,10.300000190734863,10.479999542236328,10.15999984741211,10.319999694824219,10.319999694824219,134800
2019-03-07,10.199999809265137,10.25,9.5600004196167,9.739999771118164,9.739999771118164,540400
2019-03-08,9.739999771118164,9.890000343322754,8.670000076293945,8.739999771118164,8.739999771118164,282200
2019-03-11,8.75,9.289999961853027,8.75,9.260000228881836,9.260000228881836,255700
2019-03-12,9.220000267028809,9.539999961853027,8.850000381469727,9.140000343322754,9.140000343322754,144000
2019-03-13,9.449999809265137,9.920000076293945,9.399999618530273,9.729999542236328,9.729999542236328,440700
2019-03-14,9.720000267028809,9.729999542236328,9.399999618530273,9.539999961853027,9.539999961853027,177200
2019-03-15,9.65999984741211,9.850000381469727,9.5,9.729999542236328,9.729999542236328,1589000
2019-03-18,9.770000457763672,10.550000190734863,9.739999771118164,10.329999923706055,10.329999923706055,616800
2019-03-19,10.369999885559082,10.720000267028809,10.069999694824219,10.5,10.5,241400
2019-03-20,10.510000228881836,10.550000190734863,10.0600004196167,10.100000381469727,10.100000381469727,514500
2019-03-21,10.149999618530273,10.350000381469727,9.970000267028809,10.119999885559082,10.119999885559082,143100
2019-03-22,10.100000381469727,10.300000190734863,9.920000076293945,10.0,10.0,158900
2019-03-25,9.989999771118164,10.25,9.899999618530273,9.960000038146973,9.960000038146973,295000
2019-03-26,10.020000457763672,10.430000305175781,10.020000457763672,10.079999923706055,10.079999923706055,81000
2019-03-27,10.050000190734863,10.5,9.970000267028809,10.489999771118164,10.489999771118164,275200
2019-03-28,10.539999961853027,10.739999771118164,9.899999618530273,10.0,10.0,214800
2019-03-29,10.010000228881836,10.119999885559082,9.550000190734863,10.039999961853027,10.039999961853027,221900
2019-04-01,10.140000343322754,10.199999809265137,9.5,9.710000038146973,9.710000038146973,193400
2019-04-02,9.699999809265137,9.930000305175781,9.649999618530273,9.859999656677246,9.859999656677246,136200
2019-04-03,9.890000343322754,10.020000457763672,9.4399995803833,9.569999694824219,9.569999694824219,157300
2019-04-04,9.579999923706055,10.0600004196167,9.529999732971191,9.920000076293945,9.920000076293945,111900
2019-04-05,9.930000305175781,9.979999542236328,9.670000076293945,9.699999809265137,9.699999809265137,145000
2019-04-08,9.75,10.449999809265137,9.65999984741211,10.34000015258789,10.34000015258789,128300
2019-04-09,10.289999961853027,10.460000038146973,9.899999618530273,9.899999618530273,9.899999618530273,121700
2019-04-10,9.890000343322754,10.289999961853027,9.649999618530273,9.789999961853027,9.789999961853027,75000
2019-04-11,9.949999809265137,9.949999809265137,9.350000381469727,9.449999809265137,9.449999809265137,209700
2019-04-12,9.510000228881836,10.100000381469727,9.329999923706055,9.760000228881836,9.760000228881836,99600
2019-04-15,9.729999542236328,9.859999656677246,9.15999984741211,9.350000381469727,9.350000381469727,117000
2019-04-16,9.399999618530273,9.640000343322754,9.300000190734863,9.569999694824219,9.569999694824219,87300
2019-04-17,9.609999656677246,9.800000190734863,9.0600004196167,9.449999809265137,9.449999809265137,74000
2019-04-18,9.380000114440918,9.6899995803833,9.100000381469727,9.600000381469727,9.600000381469727,66800
2019-04-22,9.550000190734863,9.680000305175781,9.1899995803833,9.34000015258789,9.34000015258789,80300
2019-04-23,9.350000381469727,9.65999984741211,9.15999984741211,9.619999885559082,9.619999885559082,62800
2019-04-24,9.680000305175781,9.680000305175781,9.050000190734863,9.25,9.25,151100
2019-04-25,9.25,9.600000381469727,9.1899995803833,9.529999732971191,9.529999732971191,53700
2019-04-26,9.520000457763672,10.050000190734863,9.520000457763672,9.949999809265137,9.949999809265137,91700
2019-04-29,10.0,10.800000190734863,10.0,10.720000267028809,10.720000267028809,132700
2019-04-30,10.869999885559082,10.960000038146973,10.09000015258789,10.199999809265137,10.199999809265137,134700
2019-05-01,10.210000038146973,10.3100004196167,9.880000114440918,10.109999656677246,10.109999656677246,61100
2019-05-02,10.199999809265137,10.430000305175781,9.989999771118164,10.279999732971191,10.279999732971191,56200
2019-05-03,10.380000114440918,10.729999542236328,10.170000076293945,10.630000114440918,10.630000114440918,77700
2019-05-06,10.539999961853027,10.640000343322754,10.15999984741211,10.380000114440918,10.380000114440918,75400
2019-05-07,10.260000228881836,10.6899995803833,10.25,10.550000190734863,10.550000190734863,77200
2019-05-08,10.569999694824219,11.100000381469727,10.420000076293945,11.029999732971191,11.029999732971191,74300
2019-05-09,10.989999771118164,11.720000267028809,10.949999809265137,11.619999885559082,11.619999885559082,191200
2019-05-10,11.579999923706055,12.979999542236328,11.550000190734863,12.5,12.5,276500
2019-05-13,12.369999885559082,12.649999618530273,11.59000015258789,12.5,12.5,198900
2019-05-14,12.5,12.670000076293945,12.0600004196167,12.5,12.5,202700
2019-05-15,12.470000267028809,12.710000038146973,12.119999885559082,12.5,12.5,207700
2019-05-16,12.529999732971191,12.789999961853027,12.119999885559082,12.520000457763672,12.520000457763672,302200
2019-05-17,12.470000267028809,12.789999961853027,12.329999923706055,12.399999618530273,12.399999618530273,252000
2019-05-20,12.359999656677246,12.680000305175781,12.180000305175781,12.399999618530273,12.399999618530273,333700
2019-05-21,12.449999809265137,12.779999732971191,12.399999618530273,12.449999809265137,12.449999809265137,242500
2019-05-22,12.470000267028809,12.729999542236328,12.199999809265137,12.489999771118164,12.489999771118164,153900
2019-05-23,12.380000114440918,12.59000015258789,11.5,11.720000267028809,11.720000267028809,243400
2019-05-24,11.84000015258789,11.869999885559082,11.100000381469727,11.369999885559082,11.369999885559082,130700
2019-05-28,11.479999542236328,11.770000457763672,11.260000228881836,11.5,11.5,150600
2019-05-29,11.329999923706055,11.630000114440918,11.199999809265137,11.539999961853027,11.539999961853027,118300
2019-05-30,11.539999961853027,11.989999771118164,11.270000457763672,11.479999542236328,11.479999542236328,184600
2019-05-31,11.260000228881836,11.460000038146973,10.630000114440918,10.970000267028809,10.970000267028809,232300
2019-06-03,11.050000190734863,11.569999694824219,11.020000457763672,11.529999732971191,11.529999732971191,113300
2019-06-04,11.729999542236328,11.930000305175781,10.890000343322754,11.029999732971191,11.029999732971191,259000
2019-06-05,11.079999923706055,11.359999656677246,9.369999885559082,9.529999732971191,9.529999732971191,289500
2019-06-06,9.40999984741211,9.420000076293945,6.849999904632568,8.0,8.0,999600
2019-06-07,8.029999732971191,8.65999984741211,8.0,8.510000228881836,8.510000228881836,993100
2019-06-10,8.369999885559082,8.609999656677246,7.690000057220459,8.220000267028809,8.220000267028809,308700
2019-06-11,8.329999923706055,8.520000457763672,8.039999961853027,8.350000381469727,8.350000381469727,183500
2019-06-12,8.369999885559082,9.5600004196167,8.369999885559082,9.489999771118164,9.489999771118164,258200
2019-06-13,9.520000457763672,9.84000015258789,9.239999771118164,9.5,9.5,182400
2019-06-14,9.460000038146973,10.119999885559082,9.4399995803833,9.609999656677246,9.609999656677246,151900
2019-06-17,9.65999984741211,10.550000190734863,9.65999984741211,10.420000076293945,10.420000076293945,144600
2019-06-18,10.489999771118164,10.720000267028809,10.25,10.550000190734863,10.550000190734863,117400
2019-06-19,10.460000038146973,10.619999885559082,10.130000114440918,10.399999618530273,10.399999618530273,115200
2019-06-20,10.510000228881836,11.029999732971191,10.479999542236328,10.680000305175781,10.680000305175781,112300
2019-06-21,10.59000015258789,11.210000038146973,10.3100004196167,11.109999656677246,11.109999656677246,187400
2019-06-24,11.119999885559082,11.119999885559082,10.539999961853027,10.819999694824219,10.819999694824219,154700
2019-06-25,10.8100004196167,11.260000228881836,10.619999885559082,10.819999694824219,10.819999694824219,140800
2019-06-26,11.09000015258789,11.100000381469727,10.550000190734863,10.619999885559082,10.619999885559082,185600
2019-06-27,10.630000114440918,11.100000381469727,10.619999885559082,10.75,10.75,93900
2019-06-28,10.779999732971191,11.510000228881836,10.779999732971191,11.4399995803833,11.4399995803833,1152800
2019-07-01,11.5,12.220000267028809,11.4399995803833,11.59000015258789,11.59000015258789,172800
2019-07-02,11.600000381469727,11.789999961853027,11.369999885559082,11.670000076293945,11.670000076293945,119200
2019-07-03,11.729999542236328,12.020000457763672,11.520000457763672,11.729999542236328,11.729999542236328,41800
2019-07-05,11.6899995803833,12.470000267028809,11.6899995803833,12.15999984741211,12.15999984741211,125300
2019-07-08,12.180000305175781,12.369999885559082,11.8100004196167,12.020000457763672,12.020000457763672,125800
2019-07-09,11.960000038146973,12.779999732971191,11.960000038146973,12.569999694824219,12.569999694824219,124500
2019-07-10,12.710000038146973,12.9399995803833,12.1899995803833,12.569999694824219,12.569999694824219,89000
2019-07-11,12.579999923706055,12.770000457763672,11.59000015258789,12.710000038146973,12.710000038146973,211500
2019-07-12,12.699999809265137,12.789999961853027,11.430000305175781,11.930000305175781,11.930000305175781,237300
2019-07-15,11.9399995803833,12.0,11.539999961853027,11.970000267028809,11.970000267028809,79400
2019-07-16,11.979999542236328,12.649999618530273,11.75,12.350000381469727,12.350000381469727,104300
2019-07-17,12.380000114440918,12.479999542236328,11.84000015258789,11.899999618530273,11.899999618530273,52300
2019-07-18,11.9399995803833,12.079999923706055,11.569999694824219,11.960000038146973,11.960000038146973,64300
2019-07-19,11.869999885559082,12.350000381469727,11.729999542236328,12.279999732971191,12.279999732971191,94300
2019-07-22,12.270000457763672,12.890000343322754,12.140000343322754,12.800000190734863,12.800000190734863,239200
2019-07-23,12.930000305175781,12.9399995803833,12.0,12.180000305175781,12.180000305175781,130100
2019-07-24,12.170000076293945,12.430000305175781,11.649999618530273,12.260000228881836,12.260000228881836,142400
2019-07-25,12.260000228881836,12.699999809265137,11.829999923706055,12.220000267028809,12.220000267028809,170100
2019-07-26,12.25,12.300000190734863,11.899999618530273,11.989999771118164,11.989999771118164,66900
2019-07-29,11.989999771118164,12.010000228881836,11.579999923706055,11.930000305175781,11.930000305175781,150600
2019-07-30,11.859999656677246,12.260000228881836,11.619999885559082,12.1899995803833,12.1899995803833,207300
2019-07-31,12.1899995803833,12.350000381469727,11.5,11.699999809265137,11.699999809265137,149200
2019-08-01,11.720000267028809,12.039999961853027,11.390000343322754,11.460000038146973,11.460000038146973,116500
2019-08-02,11.470000267028809,11.479999542236328,10.520000457763672,10.75,10.75,124200
2019-08-05,10.59000015258789,10.739999771118164,9.65999984741211,10.149999618530273,10.149999618530273,253300
2019-08-06,10.25,10.279999732971191,9.850000381469727,9.960000038146973,9.960000038146973,92600
2019-08-07,9.010000228881836,10.390000343322754,8.65999984741211,10.010000228881836,10.010000228881836,211600
2019-08-08,10.029999732971191,11.680000305175781,10.029999732971191,11.300000190734863,11.300000190734863,181000
2019-08-09,11.239999771118164,11.359999656677246,10.729999542236328,10.75,10.75,136800
2019-08-12,10.649999618530273,11.600000381469727,10.5,11.520000457763672,11.520000457763672,129100
2019-08-13,11.380000114440918,11.899999618530273,11.300000190734863,11.729999542236328,11.729999542236328,85500
2019-08-14,11.5,11.789999961853027,10.989999771118164,11.239999771118164,11.239999771118164,193300
2019-08-15,11.25,11.25,10.630000114440918,10.8100004196167,10.8100004196167,166400
2019-08-16,10.920000076293945,11.75,10.84000015258789,11.59000015258789,11.59000015258789,117900
2019-08-19,11.819999694824219,11.930000305175781,11.529999732971191,11.6899995803833,11.6899995803833,80500
2019-08-20,11.710000038146973,12.180000305175781,11.449999809265137,11.619999885559082,11.619999885559082,114700
2019-08-21,11.649999618530273,12.5,11.619999885559082,12.1899995803833,12.1899995803833,339800
2019-08-22,12.1899995803833,12.1899995803833,11.0,11.449999809265137,11.449999809265137,145800
2019-08-23,11.350000381469727,11.600000381469727,10.600000381469727,10.8100004196167,10.8100004196167,129600
2019-08-26,11.010000228881836,11.329999923706055,10.739999771118164,11.199999809265137,11.199999809265137,71500
2019-08-27,11.319999694824219,11.40999984741211,10.609999656677246,10.649999618530273,10.649999618530273,69700
2019-08-28,10.649999618530273,11.1899995803833,10.220000267028809,11.079999923706055,11.079999923706055,84700
2019-08-29,11.260000228881836,11.75,11.199999809265137,11.550000190734863,11.550000190734863,76200
2019-08-30,11.579999923706055,11.630000114440918,11.140000343322754,11.59000015258789,11.59000015258789,71300
2019-09-03,11.449999809265137,11.880000114440918,11.300000190734863,11.789999961853027,11.789999961853027,95200
2019-09-04,11.90999984741211,11.920000076293945,11.0,11.100000381469727,11.100000381469727,151800
2019-09-05,11.25,11.460000038146973,10.220000267028809,10.75,10.75,238600
2019-09-06,10.84000015258789,11.09000015258789,10.609999656677246,10.8100004196167,10.8100004196167,244100
2019-09-09,10.8100004196167,11.25,10.649999618530273,10.9399995803833,10.9399995803833,435600
2019-09-10,11.170000076293945,12.289999961853027,9.399999618530273,9.739999771118164,9.739999771118164,1652500
2019-09-11,9.859999656677246,10.420000076293945,8.8100004196167,10.220000267028809,10.220000267028809,708200
2019-09-12,10.130000114440918,11.0,9.770000457763672,10.369999885559082,10.369999885559082,312000
2019-09-13,10.3100004196167,10.619999885559082,10.140000343322754,10.420000076293945,10.420000076293945,107100
2019-09-16,10.380000114440918,11.15999984741211,10.300000190734863,11.0,11.0,375700
2019-09-17,11.050000190734863,11.15999984741211,10.65999984741211,10.739999771118164,10.739999771118164,163800
2019-09-18,10.729999542236328,10.760000228881836,10.130000114440918,10.34000015258789,10.34000015258789,134300
2019-09-19,10.369999885559082,10.890000343322754,10.170000076293945,10.350000381469727,10.350000381469727,75200
2019-09-20,10.34000015258789,10.8100004196167,9.84000015258789,10.229999542236328,10.229999542236328,262500
2019-09-23,10.229999542236328,10.239999771118164,9.949999809265137,10.010000228881836,10.010000228881836,106700
2019-09-24,10.039999961853027,10.260000228881836,9.399999618530273,9.510000228881836,9.510000228881836,93200
2019-09-25,9.449999809265137,9.979999542236328,9.130000114440918,9.890000343322754,9.890000343322754,102400
2019-09-26,9.850000381469727,9.899999618530273,9.399999618530273,9.680000305175781,9.680000305175781,107400
2019-09-27,9.729999542236328,10.109999656677246,9.479999542236328,9.640000343322754,9.640000343322754,166900
2019-09-30,9.970000267028809,10.029999732971191,9.6899995803833,9.829999923706055,9.829999923706055,206300
2019-10-01,9.8100004196167,10.130000114440918,9.1899995803833,9.3100004196167,9.3100004196167,136800
2019-10-02,9.1899995803833,9.359999656677246,8.5600004196167,8.75,8.75,148900
2019-10-03,8.720000267028809,8.789999961853027,8.34000015258789,8.670000076293945,8.670000076293945,80700
2019-10-04,8.75,9.029999732971191,8.3100004196167,8.75,8.75,104100
2019-10-07,8.680000305175781,9.1899995803833,8.319999694824219,8.670000076293945,8.670000076293945,115500
2019-10-08,8.569999694824219,8.630000114440918,8.109999656677246,8.270000457763672,8.270000457763672,93500
2019-10-09,8.350000381469727,8.399999618530273,7.360000133514404,7.639999866485596,7.639999866485596,161900
2019-10-10,7.690000057220459,7.869999885559082,7.480000019073486,7.71999979019165,7.71999979019165,94100
2019-10-11,7.829999923706055,8.25,7.730000019073486,7.849999904632568,7.849999904632568,82900
2019-10-14,7.849999904632568,7.920000076293945,7.440000057220459,7.699999809265137,7.699999809265137,107600
2019-10-15,7.670000076293945,8.149999618530273,7.670000076293945,8.039999961853027,8.039999961853027,57000
2019-10-16,8.039999961853027,8.59000015258789,8.039999961853027,8.489999771118164,8.489999771118164,72000
2019-10-17,8.470000267028809,9.140000343322754,8.40999984741211,9.0,9.0,120800
2019-10-18,8.920000076293945,9.399999618530273,8.920000076293945,9.010000228881836,9.010000228881836,166500
2019-10-21,9.109999656677246,9.109999656677246,8.470000267028809,8.569999694824219,8.569999694824219,73500
2019-10-22,8.59000015258789,8.649999618530273,7.769999980926514,7.920000076293945,7.920000076293945,119500
2019-10-23,7.909999847412109,8.069999694824219,7.619999885559082,7.75,7.75,111500
2019-10-24,7.789999961853027,8.09000015258789,7.659999847412109,7.989999771118164,7.989999771118164,107000
2019-10-25,7.909999847412109,8.149999618530273,7.909999847412109,8.010000228881836,8.010000228881836,51500
2019-10-28,8.0600004196167,8.069999694824219,7.53000020980835,7.690000057220459,7.690000057220459,168100
2019-10-29,7.659999847412109,8.170000076293945,7.610000133514404,8.0,8.0,194000
2019-10-30,7.989999771118164,8.140000343322754,7.78000020980835,7.960000038146973,7.960000038146973,57800
2019-10-31,7.980000019073486,8.239999771118164,7.900000095367432,8.180000305175781,8.180000305175781,59700
2019-11-01,8.199999809265137,8.75,8.15999984741211,8.720000267028809,8.720000267028809,66300
2019-11-04,8.739999771118164,8.979999542236328,8.550000190734863,8.770000457763672,8.770000457763672,64800
2019-11-05,8.800000190734863,8.960000038146973,8.529999732971191,8.770000457763672,8.770000457763672,121700
2019-11-06,8.789999961853027,9.050000190734863,8.569999694824219,8.920000076293945,8.920000076293945,74500
2019-11-07,9.010000228881836,9.279999732971191,8.140000343322754,8.229999542236328,8.229999542236328,116700
2019-11-08,8.199999809265137,8.399999618530273,7.96999979019165,8.020000457763672,8.020000457763672,109200
2019-11-11,7.889999866485596,8.489999771118164,7.820000171661377,8.460000038146973,8.460000038146973,84900
2019-11-12,8.489999771118164,8.5,8.140000343322754,8.1899995803833,8.1899995803833,80100
2019-11-13,8.069999694824219,8.220000267028809,7.78000020980835,8.100000381469727,8.100000381469727,117700
2019-11-14,8.079999923706055,8.180000305175781,7.800000190734863,7.960000038146973,7.960000038146973,59400
2019-11-15,7.989999771118164,8.260000228881836,7.75,8.229999542236328,8.229999542236328,92900
2019-11-18,8.25,8.300000190734863,7.710000038146973,7.849999904632568,7.849999904632568,130400
2019-11-19,7.889999866485596,8.239999771118164,7.869999885559082,8.0,8.0,109700
2019-11-20,7.96999979019165,8.09000015258789,7.710000038146973,7.889999866485596,7.889999866485596,260000
2019-11-21,7.940000057220459,8.0,7.699999809265137,7.75,7.75,146500
2019-11-22,7.699999809265137,8.1899995803833,7.699999809265137,8.109999656677246,8.109999656677246,130700
2019-11-25,8.229999542236328,8.819999694824219,8.100000381469727,8.640000343322754,8.640000343322754,248200
2019-11-26,8.670000076293945,8.949999809265137,8.399999618530273,8.770000457763672,8.770000457763672,93700
2019-11-27,8.529999732971191,8.949999809265137,8.5,8.5600004196167,8.5600004196167,84300
2019-11-29,8.979999542236328,9.390000343322754,8.850000381469727,8.930000305175781,8.930000305175781,150500
2019-12-02,9.050000190734863,9.180000305175781,8.34000015258789,8.5,8.5,201900
2019-12-03,8.380000114440918,8.869999885559082,8.329999923706055,8.800000190734863,8.800000190734863,113300
2019-12-04,8.789999961853027,9.15999984741211,8.770000457763672,8.9399995803833,8.9399995803833,125800
2019-12-05,8.8100004196167,8.949999809265137,8.600000381469727,8.680000305175781,8.680000305175781,97400
2019-12-06,8.630000114440918,8.850000381469727,8.369999885559082,8.75,8.75,143500
2019-12-09,8.739999771118164,9.0,8.720000267028809,8.869999885559082,8.869999885559082,214400
2019-12-10,8.90999984741211,9.279999732971191,8.880000114440918,9.0,9.0,297200
2019-12-11,9.5,9.6899995803833,8.640000343322754,8.90999984741211,8.90999984741211,369900
2019-12-12,8.850000381469727,9.0,8.5600004196167,8.819999694824219,8.819999694824219,249100
2019-12-13,8.779999732971191,9.130000114440918,8.109999656677246,8.300000190734863,8.300000190734863,277800
2019-12-16,8.300000190734863,8.479999542236328,7.699999809265137,7.78000020980835,7.78000020980835,262000
2019-12-17,7.800000190734863,7.949999809265137,7.46999979019165,7.829999923706055,7.829999923706055,309200
2019-12-18,7.849999904632568,8.050000190734863,7.659999847412109,7.739999771118164,7.739999771118164,171900
2019-12-19,7.739999771118164,7.829999923706055,7.039999961853027,7.599999904632568,7.599999904632568,315900
2019-12-20,7.679999828338623,7.75,7.389999866485596,7.559999942779541,7.559999942779541,291900
2019-12-23,7.599999904632568,8.119999885559082,7.449999809265137,7.949999809265137,7.949999809265137,569800
2019-12-24,7.960000038146973,8.039999961853027,7.699999809265137,8.010000228881836,8.010000228881836,98400
2019-12-26,8.029999732971191,8.180000305175781,7.739999771118164,7.809999942779541,7.809999942779541,203000
2019-12-27,7.849999904632568,7.909999847412109,7.380000114440918,7.449999809265137,7.449999809265137,147600
2019-12-30,7.449999809265137,7.690000057220459,7.050000190734863,7.239999771118164,7.239999771118164,295300
2019-12-31,7.170000076293945,7.409999847412109,6.809999942779541,7.050000190734863,7.050000190734863,286500
2020-01-02,7.159999847412109,7.239999771118164,6.679999828338623,6.699999809265137,6.699999809265137,230800
2020-01-03,6.570000171661377,6.690000057220459,6.019999980926514,6.070000171661377,6.070000171661377,240900
2020-01-06,6.110000133514404,6.239999771118164,5.760000228881836,5.789999961853027,5.789999961853027,474200
2020-01-07,6.659999847412109,6.860000133514404,6.03000020980835,6.389999866485596,6.389999866485596,1364100
2020-01-08,6.329999923706055,6.489999771118164,5.960000038146973,6.25,6.25,448200
2020-01-09,6.25,6.429999828338623,5.820000171661377,6.159999847412109,6.159999847412109,292700
2020-01-10,6.179999828338623,6.260000228881836,5.800000190734863,5.809999942779541,5.809999942779541,284900
2020-01-13,5.849999904632568,5.889999866485596,5.300000190734863,5.550000190734863,5.550000190734863,263900
2020-01-14,5.480000019073486,5.960000038146973,5.420000076293945,5.929999828338623,5.929999828338623,347000
2020-01-15,5.949999809265137,6.289999961853027,5.949999809265137,6.190000057220459,6.190000057220459,226200
2020-01-16,6.260000228881836,6.389999866485596,6.050000190734863,6.269999980926514,6.269999980926514,197800
2020-01-17,6.349999904632568,6.369999885559082,6.090000152587891,6.190000057220459,6.190000057220459,129300
2020-01-21,6.119999885559082,6.179999828338623,5.829999923706055,6.139999866485596,6.139999866485596,189600
2020-01-22,6.199999809265137,6.25,6.019999980926514,6.150000095367432,6.150000095367432,131400
2020-01-23,6.059999942779541,6.230000019073486,5.929999828338623,6.039999961853027,6.039999961853027,144800
2020-01-24,6.110000133514404,6.170000076293945,5.679999828338623,5.75,5.75,336600
2020-01-27,5.53000020980835,6.050000190734863,5.5,5.980000019073486,5.980000019073486,332700
2020-01-28,5.940000057220459,6.190000057220459,5.909999847412109,6.110000133514404,6.110000133514404,124900
2020-01-29,6.130000114440918,6.21999979019165,5.920000076293945,6.010000228881836,6.010000228881836,107900
2020-01-30,5.980000019073486,6.099999904632568,5.849999904632568,5.949999809265137,5.949999809265137,131400
2020-01-31,5.889999866485596,6.400000095367432,5.820000171661377,6.369999885559082,6.369999885559082,367100
2020-02-03,6.429999828338623,6.46999979019165,5.900000095367432,6.110000133514404,6.110000133514404,280800
2020-02-04,6.159999847412109,6.289999961853027,5.860000133514404,5.949999809265137,5.949999809265137,252100
2020-02-05,6.010000228881836,6.190000057220459,6.010000228881836,6.110000133514404,6.110000133514404,116400
2020-02-06,6.119999885559082,6.179999828338623,5.929999828338623,6.159999847412109,6.159999847412109,89000
2020-02-07,6.179999828338623,6.179999828338623,5.960000038146973,6.099999904632568,6.099999904632568,69500
2020-02-10,6.090000152587891,6.170000076293945,5.900000095367432,6.110000133514404,6.110000133514404,129700
2020-02-11,5.400000095367432,5.5,4.159999847412109,4.329999923706055,4.329999923706055,1409700
2020-02-12,4.039999961853027,4.300000190734863,3.9700000286102295,4.03000020980835,4.03000020980835,6429600
2020-02-13,4.050000190734863,4.150000095367432,3.8399999141693115,4.130000114440918,4.130000114440918,1403900
2020-02-14,4.150000095367432,4.190000057220459,3.869999885559082,4.0,4.0,815200
2020-02-18,4.25,4.420000076293945,4.079999923706055,4.329999923706055,4.329999923706055,1219000
2020-02-19,4.53000020980835,4.760000228881836,4.440000057220459,4.710000038146973,4.710000038146973,1026500
2020-02-20,4.659999847412109,4.989999771118164,4.630000114440918,4.639999866485596,4.639999866485596,681200
2020-02-21,4.650000095367432,4.739999771118164,4.340000152587891,4.380000114440918,4.380000114440918,795300
2020-02-24,4.260000228881836,4.429999828338623,4.090000152587891,4.099999904632568,4.099999904632568,467400
2020-02-25,4.079999923706055,4.230000019073486,4.019999980926514,4.050000190734863,4.050000190734863,376100
2020-02-26,4.070000171661377,4.21999979019165,3.819999933242798,3.8499999046325684,3.8499999046325684,395000
2020-02-27,3.799999952316284,3.8499999046325684,3.5199999809265137,3.5999999046325684,3.5999999046325684,572200
2020-02-28,3.5199999809265137,3.6600000858306885,3.430000066757202,3.559999942779541,3.559999942779541,623500
2020-03-02,3.5799999237060547,3.75,3.5299999713897705,3.640000104904175,3.640000104904175,409800
2020-03-03,3.609999895095825,3.700000047683716,3.2699999809265137,3.390000104904175,3.390000104904175,770900
2020-03-04,3.4600000381469727,3.4600000381469727,3.309999942779541,3.369999885559082,3.369999885559082,277400
2020-03-05,3.299999952316284,3.319999933242798,3.069999933242798,3.119999885559082,3.119999885559082,294200
2020-03-06,3.0299999713897705,3.0899999141693115,2.5899999141693115,2.640000104904175,2.640000104904175,770300
2020-03-09,2.359999895095825,2.5399999618530273,1.899999976158142,1.940000057220459,1.940000057220459,988700
2020-03-10,2.0299999713897705,2.069999933242798,1.7400000095367432,2.009999990463257,2.009999990463257,1174800
2020-03-11,1.909999966621399,2.5,1.899999976158142,2.2200000286102295,2.2200000286102295,587600
2020-03-12,2.069999933242798,2.069999933242798,1.7599999904632568,1.7899999618530273,1.7899999618530273,822800
2020-03-13,1.9500000476837158,2.3299999237060547,1.8200000524520874,2.299999952316284,2.299999952316284,1215700
2020-03-16,2.0399999618530273,2.0999999046325684,1.5,1.5700000524520874,1.5700000524520874,589400
2020-03-17,1.659999966621399,1.9500000476837158,1.600000023841858,1.7899999618530273,1.7899999618530273,500500
2020-03-18,1.7300000190734863,1.7899999618530273,1.4800000190734863,1.4900000095367432,1.4900000095367432,386700
2020-03-19,1.6299999952316284,1.7899999618530273,1.4199999570846558,1.690000057220459,1.690000057220459,471100
2020-03-20,1.7400000095367432,1.899999976158142,1.590000033378601,1.6100000143051147,1.6100000143051147,960500
2020-03-23,1.659999966621399,1.7699999809265137,1.4500000476837158,1.6699999570846558,1.6699999570846558,428000
2020-03-24,1.7000000476837158,2.0,1.6799999475479126,2.0,2.0,445400
2020-03-25,2.0299999713897705,2.049999952316284,1.8200000524520874,1.8799999952316284,1.8799999952316284,372000
2020-03-26,1.9299999475479126,2.299999952316284,1.850000023841858,2.2799999713897705,2.2799999713897705,399700
2020-03-27,2.200000047683716,2.200000047683716,2.0399999618530273,2.049999952316284,2.049999952316284,195700
2020-03-30,2.0399999618530273,2.1700000762939453,1.9500000476837158,2.1700000762939453,2.1700000762939453,189300
2020-03-31,2.1500000953674316,2.1500000953674316,1.850000023841858,1.9500000476837158,1.9500000476837158,340300
2020-04-01,1.8700000047683716,1.9299999475479126,1.75,1.7599999904632568,1.7599999904632568,188300
2020-04-02,1.7899999618530273,1.7899999618530273,1.5,1.559999942779541,1.559999942779541,839100
2020-04-03,1.6200000047683716,1.7899999618530273,1.6100000143051147,1.7000000476837158,1.7000000476837158,276900
2020-04-06,1.7999999523162842,2.0,1.7999999523162842,1.9900000095367432,1.9900000095367432,255600
2020-04-07,2.0999999046325684,2.0999999046325684,1.690000057220459,1.7100000381469727,1.7100000381469727,381000
2020-04-08,1.7799999713897705,1.9600000381469727,1.7400000095367432,1.8600000143051147,1.8600000143051147,268900
2020-04-09,1.9199999570846558,2.0399999618530273,1.8200000524520874,1.9600000381469727,1.9600000381469727,281800
2020-04-13,1.9500000476837158,1.9800000190734863,1.7999999523162842,1.8200000524520874,1.8200000524520874,232600
2020-04-14,1.8899999856948853,2.049999952316284,1.7999999523162842,1.9500000476837158,1.9500000476837158,789900
2020-04-15,1.8600000143051147,1.9299999475479126,1.7100000381469727,1.7599999904632568,1.7599999904632568,396100
2020-04-16,1.7899999618530273,1.7899999618530273,1.659999966621399,1.6799999475479126,1.6799999475479126,279800
2020-04-17,1.7000000476837158,1.8300000429153442,1.5800000429153442,1.659999966621399,1.659999966621399,676500
2020-04-20,1.659999966621399,1.940000057220459,1.649999976158142,1.690000057220459,1.690000057220459,664900
2020-04-21,1.75,1.75,1.559999942779541,1.649999976158142,1.649999976158142,770300
2020-04-22,1.6799999475479126,1.75,1.6399999856948853,1.6699999570846558,1.6699999570846558,371400
2020-04-23,1.690000057220459,1.9500000476837158,1.649999976158142,1.8300000429153442,1.8300000429153442,594300
2020-04-24,1.8600000143051147,1.9299999475479126,1.75,1.8899999856948853,1.8899999856948853,261500
2020-04-27,1.9600000381469727,2.0999999046325684,1.8700000047683716,2.059999942779541,2.059999942779541,534200
2020-04-28,2.0999999046325684,2.5,1.9800000190734863,2.2699999809265137,2.2699999809265137,1135800
2020-04-29,2.4100000858306885,2.6700000762939453,2.359999895095825,2.6500000953674316,2.6500000953674316,847300
2020-04-30,2.640000104904175,2.8299999237060547,2.380000114440918,2.700000047683716,2.700000047683716,546500
2020-05-01,2.680000066757202,2.680000066757202,2.25,2.440000057220459,2.440000057220459,987400
2020-05-04,2.430000066757202,2.740000009536743,2.2799999713897705,2.5,2.5,752800
2020-05-05,2.5399999618530273,2.690000057220459,2.4100000858306885,2.5799999237060547,2.5799999237060547,616200
2020-05-06,2.630000114440918,2.700000047683716,2.309999942779541,2.4200000762939453,2.4200000762939453,369600
2020-05-07,2.5199999809265137,2.75,2.5,2.7200000286102295,2.7200000286102295,518400
2020-05-08,2.700000047683716,3.75,2.700000047683716,3.2300000190734863,3.2300000190734863,2490300
2020-05-11,3.2300000190734863,3.559999942779541,3.049999952316284,3.5399999618530273,3.5399999618530273,1438600
2020-05-12,3.7899999618530273,4.349999904632568,3.6700000762939453,3.940000057220459,3.940000057220459,1763800
2020-05-13,4.019999980926514,4.260000228881836,3.200000047683716,3.619999885559082,3.619999885559082,1320800
2020-05-14,3.809999942779541,3.809999942779541,3.2300000190734863,3.6500000953674316,3.6500000953674316,663700
2020-05-15,3.5999999046325684,4.099999904632568,3.4000000953674316,3.7799999713897705,3.7799999713897705,701000
2020-05-18,3.7200000286102295,4.389999866485596,3.700000047683716,4.150000095367432,4.150000095367432,835700
2020-05-19,4.150000095367432,4.239999771118164,4.0,4.139999866485596,4.139999866485596,322300
2020-05-20,4.28000020980835,4.619999885559082,4.25,4.429999828338623,4.429999828338623,696300
2020-05-21,4.480000019073486,4.570000171661377,4.340000152587891,4.53000020980835,4.53000020980835,271100
2020-05-22,4.599999904632568,5.849999904632568,4.579999923706055,5.800000190734863,5.800000190734863,1740100
2020-05-26,5.789999961853027,5.920000076293945,5.139999866485596,5.389999866485596,5.389999866485596,809100
2020-05-27,5.480000019073486,5.510000228881836,4.96999979019165,5.400000095367432,5.400000095367432,461400
2020-05-28,5.400000095367432,5.579999923706055,5.099999904632568,5.349999904632568,5.349999904632568,289400
2020-05-29,5.28000020980835,5.28000020980835,4.900000095367432,5.139999866485596,5.139999866485596,416000
2020-06-01,5.179999828338623,5.349999904632568,4.929999828338623,5.110000133514404,5.110000133514404,495900
2020-06-02,5.179999828338623,5.21999979019165,4.590000152587891,4.769999980926514,4.769999980926514,582700
2020-06-03,4.78000020980835,4.900000095367432,4.46999979019165,4.579999923706055,4.579999923706055,545900
2020-06-04,4.489999771118164,4.760000228881836,4.349999904632568,4.679999828338623,4.679999828338623,487800
2020-06-05,4.880000114440918,4.980000019073486,4.739999771118164,4.840000152587891,4.840000152587891,346600
2020-06-08,4.920000076293945,5.349999904632568,4.789999961853027,5.190000057220459,5.190000057220459,380000
2020-06-09,5.090000152587891,5.329999923706055,4.869999885559082,5.179999828338623,5.179999828338623,329100
2020-06-10,5.21999979019165,5.21999979019165,4.739999771118164,5.03000020980835,5.03000020980835,208900
2020-06-11,4.699999809265137,4.800000190734863,4.210000038146973,4.289999961853027,4.289999961853027,468000
2020-06-12,4.460000038146973,4.599999904632568,4.210000038146973,4.489999771118164,4.489999771118164,296600
2020-06-15,4.559999942779541,4.579999923706055,4.119999885559082,4.510000228881836,4.510000228881836,386500
2020-06-16,4.75,5.409999847412109,4.489999771118164,5.320000171661377,5.320000171661377,534900
2020-06-17,5.320000171661377,5.789999961853027,5.019999980926514,5.159999847412109,5.159999847412109,546000
2020-06-18,5.199999809265137,5.670000076293945,5.179999828338623,5.489999771118164,5.489999771118164,411200
2020-06-19,5.550000190734863,5.579999923706055,5.070000171661377,5.289999961853027,5.289999961853027,402700
2020-06-22,5.369999885559082,5.550000190734863,5.079999923706055,5.400000095367432,5.400000095367432,394400
2020-06-23,5.510000228881836,5.690000057220459,5.320000171661377,5.539999961853027,5.539999961853027,176800
2020-06-24,5.409999847412109,5.570000171661377,5.090000152587891,5.309999942779541,5.309999942779541,277800
2020-06-25,4.130000114440918,4.130000114440918,2.640000104904175,2.7200000286102295,2.7200000286102295,14225700
2020-06-26,2.740000009536743,2.7699999809265137,2.450000047683716,2.509999990463257,2.509999990463257,8588400
2020-06-29,2.549999952316284,2.7200000286102295,2.450000047683716,2.680000066757202,2.680000066757202,3353500
2020-06-30,2.700000047683716,2.7200000286102295,2.569999933242798,2.6600000858306885,2.6600000858306885,4682000
2020-07-01,2.8299999237060547,2.8499999046325684,2.6600000858306885,2.7300000190734863,2.7300000190734863,6485600
2020-07-02,2.9000000953674316,3.0999999046325684,2.5999999046325684,2.7899999618530273,2.7899999618530273,13110800
2020-07-06,2.859999895095825,2.890000104904175,2.7100000381469727,2.759999990463257,2.759999990463257,3717100
2020-07-07,2.700000047683716,2.7300000190734863,2.569999933242798,2.609999895095825,2.609999895095825,2316300
2020-07-08,2.630000114440918,2.759999990463257,2.569999933242798,2.640000104904175,2.640000104904175,1735200
2020-07-09,2.680000066757202,2.700000047683716,2.4800000190734863,2.5799999237060547,2.5799999237060547,2134000
2020-07-10,2.5999999046325684,2.6600000858306885,2.5299999713897705,2.640000104904175,2.640000104904175,3057200
2020-07-13,2.9700000286102295,3.2200000286102295,2.7200000286102295,2.740000009536743,2.740000009536743,11282000
2020-07-14,2.799999952316284,2.8299999237060547,2.619999885559082,2.8299999237060547,2.8299999237060547,3596700
2020-07-15,2.8299999237060547,2.950000047683716,2.740000009536743,2.890000104904175,2.890000104904175,2975100
2020-07-16,2.859999895095825,2.930000066757202,2.7699999809265137,2.9000000953674316,2.9000000953674316,2022800
2020-07-17,2.8499999046325684,2.9100000858306885,2.7799999713897705,2.869999885559082,2.869999885559082,2013400
2020-07-20,2.9200000762939453,3.009999990463257,2.809999942779541,2.950000047683716,2.950000047683716,2911700
2020-07-21,3.049999952316284,3.049999952316284,2.8399999141693115,2.940000057220459,2.940000057220459,2833900
2020-07-22,2.9100000858306885,2.950000047683716,2.859999895095825,2.890000104904175,2.890000104904175,1379600
2020-07-23,2.859999895095825,2.9200000762939453,2.759999990463257,2.8399999141693115,2.8399999141693115,1998500
2020-07-24,2.819999933242798,3.0,2.75,2.859999895095825,2.859999895095825,2614500
2020-07-27,2.9000000953674316,2.9100000858306885,2.6700000762939453,2.809999942779541,2.809999942779541,3233400
2020-07-28,2.759999990463257,2.799999952316284,2.700000047683716,2.740000009536743,2.740000009536743,1443300
2020-07-29,2.7200000286102295,2.740000009536743,2.619999885559082,2.700000047683716,2.700000047683716,1921800
2020-07-30,2.7899999618530273,2.9700000286102295,2.700000047683716,2.9000000953674316,2.9000000953674316,4283800
2020-07-31,2.8399999141693115,2.869999885559082,2.7300000190734863,2.859999895095825,2.859999895095825,1285700
2020-08-03,2.859999895095825,3.0999999046325684,2.799999952316284,3.0799999237060547,3.0799999237060547,3357900
2020-08-04,3.0999999046325684,3.2799999713897705,3.059999942779541,3.200000047683716,3.200000047683716,3115700
2020-08-05,3.2300000190734863,3.430000066757202,3.0999999046325684,3.380000114440918,3.380000114440918,3022500
2020-08-06,3.4000000953674316,3.4200000762939453,3.059999942779541,3.200000047683716,3.200000047683716,3805400
2020-08-07,3.2300000190734863,3.369999885559082,3.0799999237060547,3.3499999046325684,3.3499999046325684,3187800
2020-08-10,3.5,3.6700000762939453,3.4000000953674316,3.5199999809265137,3.5199999809265137,5062600
2020-08-11,3.5299999713897705,3.5399999618530273,3.2799999713897705,3.2899999618530273,3.2899999618530273,2766600
2020-08-12,3.2799999713897705,3.390000104904175,3.200000047683716,3.200000047683716,3.200000047683716,1963300
2020-08-13,3.1500000953674316,3.9600000381469727,3.109999895095825,3.6700000762939453,3.6700000762939453,15067900
2020-08-14,3.690000057220459,4.389999866485596,3.680000066757202,4.190000057220459,4.190000057220459,12156000
2020-08-17,4.429999828338623,4.670000076293945,4.239999771118164,4.400000095367432,4.400000095367432,5863100
2020-08-18,4.449999809265137,4.599999904632568,4.269999980926514,4.289999961853027,4.289999961853027,2883600
2020-08-19,4.230000019073486,4.429999828338623,4.059999942779541,4.269999980926514,4.269999980926514,2382400
2020-08-20,4.260000228881836,4.980000019073486,3.190000057220459,4.260000228881836,4.260000228881836,15395400
2020-08-21,4.380000114440918,4.679999828338623,4.070000171661377,4.159999847412109,4.159999847412109,3474900
2020-08-24,4.199999809265137,4.21999979019165,3.700000047683716,3.740000009536743,3.740000009536743,4594600
2020-08-25,3.8499999046325684,4.199999809265137,3.5199999809265137,3.880000114440918,3.880000114440918,3464300
2020-08-26,3.8399999141693115,4.130000114440918,3.7699999809265137,3.940000057220459,3.940000057220459,4179900
2020-08-27,4.03000020980835,4.25,3.740000009536743,3.8499999046325684,3.8499999046325684,3841200
2020-08-28,4.039999961853027,4.440000057220459,3.75,4.25,4.25,6122400
2020-08-31,4.329999923706055,4.869999885559082,4.190000057220459,4.710000038146973,4.710000038146973,6609000
2020-09-01,4.659999847412109,5.039999961853027,4.610000133514404,4.809999942779541,4.809999942779541,4239400
2020-09-02,4.849999904632568,4.96999979019165,4.659999847412109,4.800000190734863,4.800000190734863,2594500
2020-09-03,4.739999771118164,5.150000095367432,4.630000114440918,4.989999771118164,4.989999771118164,4981200
2020-09-04,4.809999942779541,4.96999979019165,4.010000228881836,4.480000019073486,4.480000019073486,5637000
2020-09-08,4.320000171661377,4.75,4.300000190734863,4.630000114440918,4.630000114440918,1929700
2020-09-09,4.639999866485596,4.889999866485596,4.579999923706055,4.809999942779541,4.809999942779541,1938000
2020-09-10,4.900000095367432,5.21999979019165,4.800000190734863,4.880000114440918,4.880000114440918,3672200
2020-09-11,4.940000057220459,5.130000114440918,4.829999923706055,4.909999847412109,4.909999847412109,2202400
2020-09-14,5.0,5.119999885559082,4.880000114440918,5.119999885559082,5.119999885559082,2307800
2020-09-15,5.210000038146973,5.71999979019165,5.210000038146973,5.550000190734863,5.550000190734863,3758000
2020-09-16,5.510000228881836,5.679999828338623,5.360000133514404,5.550000190734863,5.550000190734863,2332900
2020-09-17,5.440000057220459,6.0,5.400000095367432,5.730000019073486,5.730000019073486,3155200
2020-09-18,5.800000190734863,6.340000152587891,5.599999904632568,6.340000152587891,6.340000152587891,5779700
2020-09-21,6.150000095367432,7.159999847412109,6.139999866485596,6.590000152587891,6.590000152587891,6362400
2020-09-22,6.710000038146973,6.940000057220459,6.320000171661377,6.559999942779541,6.559999942779541,3809500
2020-09-23,6.619999885559082,6.829999923706055,5.28000020980835,5.989999771118164,5.989999771118164,4769300
2020-09-24,5.869999885559082,6.050000190734863,5.420000076293945,5.590000152587891,5.590000152587891,3410600
2020-09-25,5.619999885559082,5.900000095367432,5.440000057220459,5.75,5.75,2555200
2020-09-28,5.860000133514404,5.980000019073486,5.599999904632568,5.75,5.75,1824500
2020-09-29,5.78000020980835,5.889999866485596,5.670000076293945,5.840000152587891,5.840000152587891,1244700
2020-09-30,5.769999980926514,6.25,5.730000019073486,5.929999828338623,5.929999828338623,2331200
2020-10-01,5.960000038146973,6.130000114440918,5.869999885559082,6.03000020980835,6.03000020980835,1030800
2020-10-02,5.78000020980835,6.090000152587891,5.630000114440918,5.699999809265137,5.699999809265137,1793400
2020-10-05,5.739999771118164,5.920000076293945,5.679999828338623,5.849999904632568,5.849999904632568,891400
2020-10-06,5.900000095367432,6.050000190734863,5.789999961853027,5.789999961853027,5.789999961853027,1271600
2020-10-07,5.849999904632568,5.929999828338623,5.739999771118164,5.860000133514404,5.860000133514404,1211100
2020-10-08,5.78000020980835,6.300000190734863,5.760000228881836,6.179999828338623,6.179999828338623,2115900
2020-10-09,6.190000057220459,6.329999923706055,5.78000020980835,5.849999904632568,5.849999904632568,2463000
2020-10-12,5.840000152587891,5.880000114440918,5.150000095367432,5.25,5.25,3912700
2020-10-13,5.25,5.550000190734863,4.920000076293945,5.269999980926514,5.269999980926514,2226500
2020-10-14,5.260000228881836,5.449999809265137,5.210000038146973,5.369999885559082,5.369999885559082,803600
2020-10-15,5.239999771118164,5.420000076293945,5.150000095367432,5.300000190734863,5.300000190734863,915400
2020-10-16,5.269999980926514,5.400000095367432,5.019999980926514,5.079999923706055,5.079999923706055,1660400
2020-10-19,5.110000133514404,5.670000076293945,5.050000190734863,5.519999980926514,5.519999980926514,1947500
2020-10-20,5.559999942779541,5.71999979019165,5.210000038146973,5.25,5.25,1715000
2020-10-21,5.579999923706055,5.579999923706055,5.179999828338623,5.269999980926514,5.269999980926514,1516000
2020-10-22,5.260000228881836,5.550000190734863,5.260000228881836,5.5,5.5,1347700
2020-10-23,5.5,5.619999885559082,5.320000171661377,5.559999942779541,5.559999942779541,624600
2020-10-26,5.409999847412109,5.550000190734863,5.210000038146973,5.300000190734863,5.300000190734863,742600
2020-10-27,5.300000190734863,5.380000114440918,5.010000228881836,5.119999885559082,5.119999885559082,955400
2020-10-28,5.010000228881836,5.039999961853027,4.730000019073486,4.889999866485596,4.889999866485596,1458200
2020-10-29,4.849999904632568,5.019999980926514,4.690000057220459,4.920000076293945,4.920000076293945,1312900
2020-10-30,4.949999809265137,4.949999809265137,4.510000228881836,4.730000019073486,4.730000019073486,1583400
2020-11-02,4.650000095367432,4.769999980926514,4.369999885559082,4.440000057220459,4.440000057220459,1325500
2020-11-03,4.510000228881836,4.559999942779541,4.349999904632568,4.53000020980835,4.53000020980835,973800
2020-11-04,4.579999923706055,4.920000076293945,4.579999923706055,4.869999885559082,4.869999885559082,1264400
2020-11-05,4.980000019073486,5.449999809265137,4.869999885559082,5.409999847412109,5.409999847412109,1771800
2020-11-06,5.340000152587891,5.730000019073486,5.119999885559082,5.449999809265137,5.449999809265137,1556900
2020-11-09,5.980000019073486,6.070000171661377,5.679999828338623,5.739999771118164,5.739999771118164,2774000
2020-11-10,5.699999809265137,5.699999809265137,5.199999809265137,5.400000095367432,5.400000095367432,1727700
2020-11-11,5.449999809265137,5.699999809265137,5.309999942779541,5.369999885559082,5.369999885559082,936500
2020-11-12,5.349999904632568,5.440000057220459,5.130000114440918,5.21999979019165,5.21999979019165,829200
2020-11-13,5.25,5.360000133514404,5.059999942779541,5.28000020980835,5.28000020980835,815300
2020-11-16,5.179999828338623,5.21999979019165,4.820000171661377,4.980000019073486,4.980000019073486,2567600
2020-11-17,5.070000171661377,5.070000171661377,4.559999942779541,4.659999847412109,4.659999847412109,2139900
2020-11-18,4.659999847412109,4.849999904632568,4.559999942779541,4.599999904632568,4.599999904632568,1680400
2020-11-19,4.590000152587891,4.699999809265137,4.460000038146973,4.630000114440918,4.630000114440918,1464400
2020-11-20,4.610000133514404,4.679999828338623,4.449999809265137,4.519999980926514,4.519999980926514,1808700
2020-11-23,4.599999904632568,4.619999885559082,4.429999828338623,4.480000019073486,4.480000019073486,1522000
2020-11-24,4.449999809265137,4.449999809265137,4.190000057220459,4.320000171661377,4.320000171661377,2022800
2020-11-25,4.320000171661377,4.760000228881836,4.210000038146973,4.579999923706055,4.579999923706055,1926100
2020-11-27,4.650000095367432,4.650000095367432,4.460000038146973,4.53000020980835,4.53000020980835,560200
2020-11-30,4.579999923706055,4.579999923706055,4.269999980926514,4.360000133514404,4.360000133514404,1494600
2020-12-01,4.380000114440918,4.550000190734863,4.159999847412109,4.210000038146973,4.210000038146973,2149300
2020-12-02,4.150000095367432,4.269999980926514,4.059999942779541,4.179999828338623,4.179999828338623,1566000
2020-12-03,4.179999828338623,4.389999866485596,4.150000095367432,4.25,4.25,955300
2020-12-04,4.269999980926514,4.340000152587891,4.150000095367432,4.21999979019165,4.21999979019165,885200
2020-12-07,4.21999979019165,4.340000152587891,4.059999942779541,4.159999847412109,4.159999847412109,1274300
2020-12-08,4.170000076293945,4.239999771118164,3.9700000286102295,4.099999904632568,4.099999904632568,1776600
2020-12-09,4.119999885559082,4.150000095367432,3.9800000190734863,4.03000020980835,4.03000020980835,1232200
2020-12-10,4.039999961853027,4.119999885559082,3.9700000286102295,4.090000152587891,4.090000152587891,1088400
2020-12-11,4.349999904632568,4.730000019073486,4.099999904632568,4.570000171661377,4.570000171661377,6101400
2020-12-14,4.679999828338623,4.900000095367432,4.610000133514404,4.639999866485596,4.639999866485596,2608200
2020-12-15,4.650000095367432,4.769999980926514,4.480000019073486,4.75,4.75,1640700
2020-12-16,4.699999809265137,5.03000020980835,4.699999809265137,4.800000190734863,4.800000190734863,1449300
2020-12-17,4.860000133514404,4.889999866485596,4.630000114440918,4.659999847412109,4.659999847412109,1135000
2020-12-18,4.690000057220459,4.849999904632568,4.559999942779541,4.639999866485596,4.639999866485596,1520800
2020-12-21,4.590000152587891,5.269999980926514,4.5,5.170000076293945,5.170000076293945,3807900
2020-12-22,5.349999904632568,5.519999980926514,5.019999980926514,5.070000171661377,5.070000171661377,2663500
2020-12-23,5.119999885559082,5.610000133514404,5.050000190734863,5.480000019073486,5.480000019073486,2708400
2020-12-24,5.539999961853027,5.690000057220459,5.380000114440918,5.449999809265137,5.449999809265137,1011600
2020-12-28,5.670000076293945,5.71999979019165,5.369999885559082,5.400000095367432,5.400000095367432,1277500
2020-12-29,5.340000152587891,5.380000114440918,5.070000171661377,5.340000152587891,5.340000152587891,1804500
2020-12-30,5.289999961853027,5.389999866485596,5.079999923706055,5.110000133514404,5.110000133514404,1527800
