Date,Open,High,Low,Close,Adj Close,Volume
2018-10-25,16.75,17.450000762939453,16.479999542236328,17.0,17.0,9911600
2018-10-26,16.520000457763672,16.829999923706055,15.779999732971191,16.450000762939453,16.450000762939453,2498100
2018-10-29,16.450000762939453,16.690000534057617,15.25,15.40999984741211,15.40999984741211,1630700
2018-10-30,15.630000114440918,15.670000076293945,14.619999885559082,15.260000228881836,15.260000228881836,1135500
2018-10-31,15.289999961853027,16.510000228881836,15.289999961853027,15.930000305175781,15.930000305175781,1819200
2018-11-01,16.09000015258789,16.3799991607666,15.75,16.15999984741211,16.15999984741211,708600
2018-11-02,16.25,16.549999237060547,16.010000228881836,16.5,16.5,711700
2018-11-05,16.65999984741211,17.149999618530273,16.5,17.010000228881836,17.010000228881836,525500
2018-11-06,17.0,17.440000534057617,16.709999084472656,17.200000762939453,17.200000762939453,704400
2018-11-07,17.06999969482422,17.299999237060547,16.559999465942383,16.649999618530273,16.649999618530273,465600
2018-11-08,16.790000915527344,16.829999923706055,16.280000686645508,16.309999465942383,16.309999465942383,254200
2018-11-09,16.329999923706055,16.520000457763672,15.359999656677246,16.510000228881836,16.510000228881836,800000
2018-11-12,16.389999389648438,16.700000762939453,16.209999084472656,16.530000686645508,16.530000686645508,366300
2018-11-13,16.469999313354492,17.170000076293945,16.3799991607666,16.75,16.75,402600
2018-11-14,16.75,17.170000076293945,16.700000762939453,16.889999389648438,16.889999389648438,322300
2018-11-15,16.610000610351562,17.149999618530273,16.510000228881836,16.889999389648438,16.889999389648438,444500
2018-11-16,16.790000915527344,17.1299991607666,16.75,17.020000457763672,17.020000457763672,410400
2018-11-19,17.489999771118164,18.1200008392334,17.100000381469727,17.56999969482422,17.56999969482422,2743800
2018-11-20,18.0,18.25,17.280000686645508,17.479999542236328,17.479999542236328,3055900
2018-11-21,17.760000228881836,18.1200008392334,16.56999969482422,18.1200008392334,18.1200008392334,2638800
2018-11-23,18.09000015258789,18.25,17.809999465942383,18.09000015258789,18.09000015258789,853100
2018-11-26,18.209999084472656,18.479999542236328,17.360000610351562,17.920000076293945,17.920000076293945,1166900
2018-11-27,18.040000915527344,18.200000762939453,17.56999969482422,18.079999923706055,18.079999923706055,1091200
2018-11-28,18.1200008392334,19.209999084472656,18.040000915527344,19.200000762939453,19.200000762939453,1943400
2018-11-29,20.25,21.450000762939453,15.949999809265137,16.100000381469727,16.100000381469727,6776500
2018-11-30,16.40999984741211,17.350000381469727,16.25,16.84000015258789,16.84000015258789,2184800
2018-12-03,17.219999313354492,17.399999618530273,16.920000076293945,17.010000228881836,17.010000228881836,1278100
2018-12-04,16.899999618530273,17.299999237060547,16.780000686645508,16.8700008392334,16.8700008392334,958500
2018-12-06,16.479999542236328,16.850000381469727,15.5600004196167,16.829999923706055,16.829999923706055,1034300
2018-12-07,16.649999618530273,16.989999771118164,15.399999618530273,15.4399995803833,15.4399995803833,859400
2018-12-10,15.449999809265137,15.5,14.449999809265137,15.130000114440918,15.130000114440918,988200
2018-12-11,15.390000343322754,15.729999542236328,14.5,14.850000381469727,14.850000381469727,801300
2018-12-12,14.949999809265137,15.140000343322754,13.890000343322754,13.899999618530273,13.899999618530273,1176100
2018-12-13,13.829999923706055,13.899999618530273,12.579999923706055,13.050000190734863,13.050000190734863,1630800
2018-12-14,13.0,13.949999809265137,12.880000114440918,13.770000457763672,13.770000457763672,812100
2018-12-17,13.649999618530273,13.779999732971191,13.0600004196167,13.25,13.25,821700
2018-12-18,13.300000190734863,14.180000305175781,13.300000190734863,13.75,13.75,625300
2018-12-19,13.880000114440918,14.4399995803833,13.449999809265137,13.5600004196167,13.5600004196167,521800
2018-12-20,13.5,13.729999542236328,12.760000228881836,12.979999542236328,12.979999542236328,660300
2018-12-21,13.069999694824219,13.199999809265137,12.4399995803833,12.779999732971191,12.779999732971191,3338100
2018-12-24,12.600000381469727,12.869999885559082,12.399999618530273,12.510000228881836,12.510000228881836,242000
2018-12-26,12.5600004196167,14.100000381469727,12.529999732971191,14.100000381469727,14.100000381469727,864600
2018-12-27,13.84000015258789,14.229999542236328,13.329999923706055,14.220000267028809,14.220000267028809,507500
2018-12-28,14.180000305175781,14.9399995803833,14.0,14.819999694824219,14.819999694824219,474900
2018-12-31,14.890000343322754,15.130000114440918,14.449999809265137,14.84000015258789,14.84000015258789,514800
2019-01-02,14.729999542236328,16.350000381469727,14.579999923706055,16.170000076293945,16.170000076293945,1040600
2019-01-03,15.989999771118164,16.0,14.609999656677246,15.039999961853027,15.039999961853027,874900
2019-01-04,15.239999771118164,15.739999771118164,15.050000190734863,15.300000190734863,15.300000190734863,469300
2019-01-07,15.470000267028809,16.329999923706055,15.319999694824219,16.260000228881836,16.260000228881836,663400
2019-01-08,16.700000762939453,17.18000030517578,16.139999389648438,16.829999923706055,16.829999923706055,897800
2019-01-09,16.829999923706055,17.18000030517578,16.56999969482422,16.709999084472656,16.709999084472656,706600
2019-01-10,16.549999237060547,16.739999771118164,16.079999923706055,16.350000381469727,16.350000381469727,852900
2019-01-11,16.239999771118164,16.940000534057617,16.239999771118164,16.719999313354492,16.719999313354492,726500
2019-01-14,18.579999923706055,19.200000762939453,17.350000381469727,18.139999389648438,18.139999389648438,4197000
2019-01-15,18.049999237060547,18.649999618530273,17.280000686645508,17.549999237060547,17.549999237060547,1580700
2019-01-16,17.579999923706055,18.06999969482422,17.149999618530273,17.5,17.5,986300
2019-01-17,17.809999465942383,18.600000381469727,17.799999237060547,18.09000015258789,18.09000015258789,1298300
2019-01-18,18.190000534057617,18.510000228881836,17.6200008392334,18.079999923706055,18.079999923706055,752400
2019-01-22,17.969999313354492,18.31999969482422,16.770000457763672,17.170000076293945,17.170000076293945,1422400
2019-01-23,17.239999771118164,17.700000762939453,17.18000030517578,17.530000686645508,17.530000686645508,1087200
2019-01-24,17.530000686645508,18.0,17.43000030517578,17.90999984741211,17.90999984741211,651900
2019-01-25,17.979999542236328,18.149999618530273,17.59000015258789,17.75,17.75,664100
2019-01-28,17.5,18.09000015258789,17.010000228881836,17.690000534057617,17.690000534057617,495400
2019-01-29,17.709999084472656,17.8799991607666,16.559999465942383,16.770000457763672,16.770000457763672,1117900
2019-01-30,17.309999465942383,17.360000610351562,16.399999618530273,16.81999969482422,16.81999969482422,1427700
2019-01-31,16.850000381469727,17.049999237060547,16.65999984741211,17.010000228881836,17.010000228881836,626700
2019-02-01,17.0,17.059999465942383,16.31999969482422,16.799999237060547,16.799999237060547,1122200
2019-02-04,16.739999771118164,17.309999465942383,16.739999771118164,17.06999969482422,17.06999969482422,998100
2019-02-05,17.149999618530273,18.18000030517578,17.110000610351562,17.540000915527344,17.540000915527344,1012400
2019-02-06,17.549999237060547,17.850000381469727,17.200000762939453,17.770000457763672,17.770000457763672,419800
2019-02-07,17.600000381469727,17.959999084472656,17.440000534057617,17.670000076293945,17.670000076293945,525500
2019-02-08,17.520000457763672,17.979999542236328,17.40999984741211,17.920000076293945,17.920000076293945,516000
2019-02-11,17.989999771118164,18.34000015258789,17.610000610351562,17.81999969482422,17.81999969482422,627200
2019-02-12,18.030000686645508,18.670000076293945,17.81999969482422,18.479999542236328,18.479999542236328,877300
2019-02-13,18.59000015258789,18.84000015258789,18.3700008392334,18.65999984741211,18.65999984741211,1056700
2019-02-14,20.899999618530273,22.299999237060547,19.860000610351562,21.899999618530273,21.899999618530273,6439600
2019-02-15,22.260000228881836,23.6200008392334,21.809999465942383,22.84000015258789,22.84000015258789,3291200
2019-02-19,23.25,24.639999389648438,23.100000381469727,23.889999389648438,23.889999389648438,3550400
2019-02-20,24.190000534057617,24.93000030517578,22.540000915527344,23.15999984741211,23.15999984741211,3189800
2019-02-21,23.0,23.829999923706055,22.899999618530273,23.639999389648438,23.639999389648438,1666700
2019-02-22,23.790000915527344,24.549999237060547,23.399999618530273,24.469999313354492,24.469999313354492,1048200
2019-02-25,24.899999618530273,24.93000030517578,23.219999313354492,23.6200008392334,23.6200008392334,1053900
2019-02-26,23.639999389648438,24.190000534057617,22.920000076293945,23.139999389648438,23.139999389648438,1005100
2019-02-27,23.280000686645508,24.670000076293945,23.200000762939453,24.219999313354492,24.219999313354492,1285000
2019-02-28,24.200000762939453,24.459999084472656,23.75,23.989999771118164,23.989999771118164,792100
2019-03-01,24.219999313354492,25.920000076293945,24.06999969482422,25.09000015258789,25.09000015258789,1932000
2019-03-04,25.75,25.829999923706055,23.459999084472656,23.719999313354492,23.719999313354492,1408100
2019-03-05,23.610000610351562,24.489999771118164,23.25,24.079999923706055,24.079999923706055,1076700
2019-03-06,24.06999969482422,24.68000030517578,23.719999313354492,24.020000457763672,24.020000457763672,741700
2019-03-07,24.0,24.0,22.360000610351562,22.59000015258789,22.59000015258789,1333700
2019-03-08,22.43000030517578,23.950000762939453,22.350000381469727,23.950000762939453,23.950000762939453,1152600
2019-03-11,24.0,24.309999465942383,23.5,24.149999618530273,24.149999618530273,791500
2019-03-12,23.889999389648438,24.799999237060547,23.649999618530273,24.420000076293945,24.420000076293945,1326400
2019-03-13,24.600000381469727,27.110000610351562,24.3700008392334,26.270000457763672,26.270000457763672,2855000
2019-03-14,26.93000030517578,27.860000610351562,26.0,27.809999465942383,27.809999465942383,2105900
2019-03-15,28.190000534057617,29.790000915527344,28.010000228881836,29.790000915527344,29.790000915527344,2694400
2019-03-18,30.270000457763672,30.270000457763672,28.06999969482422,30.020000457763672,30.020000457763672,2284200
2019-03-19,29.899999618530273,31.0,28.6200008392334,29.280000686645508,29.280000686645508,1953600
2019-03-20,29.020000457763672,29.100000381469727,27.520000457763672,28.15999984741211,28.15999984741211,1405900
2019-03-21,27.920000076293945,29.1200008392334,27.549999237060547,28.719999313354492,28.719999313354492,897500
2019-03-22,29.299999237060547,31.440000534057617,28.280000686645508,28.6200008392334,28.6200008392334,3440300
2019-03-25,28.610000610351562,30.389999389648438,28.440000534057617,30.020000457763672,30.020000457763672,1518700
2019-03-26,30.65999984741211,31.459999084472656,30.440000534057617,30.729999542236328,30.729999542236328,2213200
2019-03-27,30.84000015258789,33.20000076293945,30.799999237060547,32.560001373291016,32.560001373291016,3616400
2019-03-28,33.0,34.43000030517578,30.68000030517578,31.889999389648438,31.889999389648438,3166400
2019-03-29,30.520000457763672,30.59000015258789,28.670000076293945,30.25,30.25,3084300
2019-04-01,30.149999618530273,30.170000076293945,27.850000381469727,29.989999771118164,29.989999771118164,2142200
2019-04-02,29.649999618530273,30.809999465942383,28.93000030517578,30.649999618530273,30.649999618530273,1034500
2019-04-03,30.979999542236328,31.84000015258789,29.649999618530273,30.139999389648438,30.139999389648438,1579900
2019-04-04,29.729999542236328,30.479999542236328,29.5,29.59000015258789,29.59000015258789,842000
2019-04-05,29.6299991607666,30.270000457763672,29.049999237060547,29.600000381469727,29.600000381469727,983800
2019-04-08,29.799999237060547,29.90999984741211,28.299999237060547,29.5,29.5,1033800
2019-04-09,29.350000381469727,30.670000076293945,29.100000381469727,29.8700008392334,29.8700008392334,1028600
2019-04-10,29.93000030517578,30.670000076293945,29.670000076293945,30.200000762939453,30.200000762939453,912500
2019-04-11,30.770000457763672,32.27000045776367,30.719999313354492,32.0,32.0,1766000
2019-04-12,32.7400016784668,32.880001068115234,30.5,30.950000762939453,30.950000762939453,1152700
2019-04-15,31.079999923706055,32.099998474121094,30.510000228881836,32.040000915527344,32.040000915527344,690000
2019-04-16,32.130001068115234,32.31999969482422,31.0,31.559999465942383,31.559999465942383,1081300
2019-04-17,31.790000915527344,32.20000076293945,31.0,32.0099983215332,32.0099983215332,833200
2019-04-18,31.690000534057617,33.0,31.299999237060547,32.529998779296875,32.529998779296875,1205300
2019-04-22,31.809999465942383,31.950000762939453,30.3799991607666,30.90999984741211,30.90999984741211,1827900
2019-04-23,31.399999618530273,32.709999084472656,31.1299991607666,31.639999389648438,31.639999389648438,2047800
2019-04-24,31.739999771118164,33.029998779296875,31.309999465942383,33.02000045776367,33.02000045776367,908100
2019-04-25,33.15999984741211,34.33000183105469,32.52000045776367,33.349998474121094,33.349998474121094,1187200
2019-04-26,33.439998626708984,35.25,33.150001525878906,34.91999816894531,34.91999816894531,1172300
2019-04-29,35.209999084472656,36.59000015258789,34.54999923706055,35.5,35.5,1895500
2019-04-30,35.58000183105469,36.599998474121094,34.75,35.68000030517578,35.68000030517578,1470700
2019-05-01,35.91999816894531,36.0,33.290000915527344,33.91999816894531,33.91999816894531,1996900
2019-05-02,32.150001525878906,33.349998474121094,29.809999465942383,30.940000534057617,30.940000534057617,5964900
2019-05-03,30.459999084472656,31.600000381469727,29.139999389648438,31.5,31.5,2296700
2019-05-06,30.43000030517578,30.600000381469727,29.59000015258789,30.149999618530273,30.149999618530273,1978100
2019-05-07,29.969999313354492,30.0,27.1299991607666,28.709999084472656,28.709999084472656,3536500
2019-05-08,28.110000610351562,29.5,27.219999313354492,29.040000915527344,29.040000915527344,2898200
2019-05-09,27.59000015258789,28.799999237060547,27.010000228881836,28.3799991607666,28.3799991607666,7603400
2019-05-10,28.309999465942383,29.1200008392334,28.309999465942383,29.0,29.0,2635600
2019-05-13,27.799999237060547,29.040000915527344,27.329999923706055,28.639999389648438,28.639999389648438,3603200
2019-05-14,28.93000030517578,30.0,28.5,28.59000015258789,28.59000015258789,1924700
2019-05-15,28.459999084472656,28.670000076293945,27.979999542236328,28.110000610351562,28.110000610351562,2527600
2019-05-16,28.0,28.049999237060547,26.920000076293945,27.5,27.5,2447300
2019-05-17,27.350000381469727,27.479999542236328,25.350000381469727,25.6200008392334,25.6200008392334,2858400
2019-05-20,25.360000610351562,25.889999389648438,24.600000381469727,25.329999923706055,25.329999923706055,2047000
2019-05-21,25.90999984741211,27.6200008392334,25.799999237060547,27.3799991607666,27.3799991607666,2506700
2019-05-22,27.0,27.899999618530273,26.770000457763672,27.100000381469727,27.100000381469727,1238600
2019-05-23,26.6299991607666,27.770000457763672,26.270000457763672,27.389999389648438,27.389999389648438,1600200
2019-05-24,27.510000228881836,28.010000228881836,26.6200008392334,26.6200008392334,26.6200008392334,1582400
2019-05-28,26.790000915527344,27.31999969482422,26.690000534057617,26.969999313354492,26.969999313354492,1330000
2019-05-29,26.81999969482422,26.889999389648438,24.5,24.84000015258789,24.84000015258789,3625400
2019-05-30,24.979999542236328,25.790000915527344,24.690000534057617,25.780000686645508,25.780000686645508,3043300
2019-05-31,25.049999237060547,25.389999389648438,23.770000457763672,23.920000076293945,23.920000076293945,2001200
2019-06-03,24.100000381469727,24.360000610351562,23.110000610351562,23.709999084472656,23.709999084472656,2915300
2019-06-04,24.170000076293945,24.389999389648438,23.40999984741211,24.290000915527344,24.290000915527344,2534000
2019-06-05,24.450000762939453,24.719999313354492,23.6299991607666,24.5,24.5,1314500
2019-06-06,24.43000030517578,24.579999923706055,23.209999084472656,23.760000228881836,23.760000228881836,1997100
2019-06-07,23.760000228881836,25.34000015258789,23.75,25.15999984741211,25.15999984741211,1476400
2019-06-10,25.389999389648438,25.850000381469727,25.06999969482422,25.309999465942383,25.309999465942383,1094700
2019-06-11,25.520000457763672,26.100000381469727,25.399999618530273,25.8799991607666,25.8799991607666,1036700
2019-06-12,26.229999542236328,26.8799991607666,25.850000381469727,26.1200008392334,26.1200008392334,1143500
2019-06-13,26.43000030517578,27.809999465942383,26.170000076293945,27.229999542236328,27.229999542236328,1813100
2019-06-14,27.270000457763672,27.709999084472656,26.8799991607666,27.0,27.0,1149700
2019-06-17,27.290000915527344,27.350000381469727,26.31999969482422,26.770000457763672,26.770000457763672,1119500
2019-06-18,27.0,28.18000030517578,26.649999618530273,28.010000228881836,28.010000228881836,2086900
2019-06-19,28.010000228881836,28.739999771118164,27.920000076293945,28.290000915527344,28.290000915527344,1412100
2019-06-20,28.690000534057617,28.850000381469727,28.079999923706055,28.25,28.25,955700
2019-06-21,28.34000015258789,29.190000534057617,28.290000915527344,29.190000534057617,29.190000534057617,1350800
2019-06-24,29.389999389648438,29.84000015258789,27.34000015258789,27.75,27.75,2167900
2019-06-25,27.739999771118164,28.440000534057617,27.209999084472656,27.610000610351562,27.610000610351562,909200
2019-06-26,27.610000610351562,27.899999618530273,26.59000015258789,27.6200008392334,27.6200008392334,963600
2019-06-27,27.799999237060547,29.0,27.6299991607666,28.56999969482422,28.56999969482422,970400
2019-06-28,28.610000610351562,29.239999771118164,28.170000076293945,28.950000762939453,28.950000762939453,2030900
2019-07-01,29.350000381469727,29.860000610351562,28.81999969482422,29.770000457763672,29.770000457763672,1256200
2019-07-02,29.75,29.770000457763672,28.530000686645508,29.270000457763672,29.270000457763672,997300
2019-07-03,29.34000015258789,30.329999923706055,29.239999771118164,30.270000457763672,30.270000457763672,871100
2019-07-05,30.239999771118164,30.469999313354492,29.5,30.31999969482422,30.31999969482422,1234000
2019-07-08,30.030000686645508,31.399999618530273,30.030000686645508,31.0,31.0,1000300
2019-07-09,31.15999984741211,32.84000015258789,30.8799991607666,32.61000061035156,32.61000061035156,2192200
2019-07-10,32.79999923706055,33.869998931884766,32.540000915527344,33.4900016784668,33.4900016784668,1988400
2019-07-11,33.779998779296875,33.970001220703125,32.869998931884766,33.959999084472656,33.959999084472656,2037000
2019-07-12,34.0,34.27000045776367,33.119998931884766,33.40999984741211,33.40999984741211,1353100
2019-07-15,33.59000015258789,33.59000015258789,30.809999465942383,32.25,32.25,2550500
2019-07-16,32.099998474121094,32.959999084472656,31.8700008392334,32.779998779296875,32.779998779296875,942500
2019-07-17,32.810001373291016,32.880001068115234,31.850000381469727,32.029998779296875,32.029998779296875,786600
2019-07-18,32.11000061035156,32.7400016784668,31.559999465942383,32.20000076293945,32.20000076293945,758600
2019-07-19,32.310001373291016,33.220001220703125,32.18000030517578,32.869998931884766,32.869998931884766,994600
2019-07-22,32.91999816894531,33.18000030517578,31.75,32.279998779296875,32.279998779296875,1153100
2019-07-23,33.0,36.5,32.459999084472656,36.2599983215332,36.2599983215332,3906500
2019-07-24,36.189998626708984,36.779998779296875,35.400001525878906,36.36000061035156,36.36000061035156,1827000
2019-07-25,36.560001373291016,38.11000061035156,35.189998626708984,35.72999954223633,35.72999954223633,2015300
2019-07-26,35.970001220703125,36.459999084472656,33.900001525878906,35.849998474121094,35.849998474121094,1170800
2019-07-29,36.25,36.529998779296875,34.86000061035156,36.34000015258789,36.34000015258789,919900
2019-07-30,35.93000030517578,35.93000030517578,34.25,34.880001068115234,34.880001068115234,1140200
2019-07-31,34.95000076293945,36.09000015258789,34.470001220703125,34.7599983215332,34.7599983215332,2200500
2019-08-01,34.459999084472656,34.720001220703125,29.760000228881836,32.34000015258789,32.34000015258789,4754000
2019-08-02,31.56999969482422,32.290000915527344,30.049999237060547,30.360000610351562,30.360000610351562,2389100
2019-08-05,29.5,29.700000762939453,28.6299991607666,29.530000686645508,29.530000686645508,1737700
2019-08-06,30.0,30.25,28.979999542236328,29.790000915527344,29.790000915527344,1210500
2019-08-07,29.25,29.6299991607666,27.709999084472656,28.899999618530273,28.899999618530273,1720500
2019-08-08,29.34000015258789,31.239999771118164,28.649999618530273,31.0,31.0,1394600
2019-08-09,30.700000762939453,30.719999313354492,29.579999923706055,30.09000015258789,30.09000015258789,1069000
2019-08-12,29.6299991607666,29.8799991607666,28.510000228881836,29.040000915527344,29.040000915527344,974500
2019-08-13,29.0,31.0,28.59000015258789,29.719999313354492,29.719999313354492,1278100
2019-08-14,29.0,29.0,27.5,28.049999237060547,28.049999237060547,1267100
2019-08-15,28.1299991607666,28.3700008392334,26.93000030517578,27.0,27.0,1183700
2019-08-16,27.459999084472656,27.889999389648438,26.8799991607666,27.670000076293945,27.670000076293945,1063200
2019-08-19,28.030000686645508,28.399999618530273,27.450000762939453,27.780000686645508,27.780000686645508,902400
2019-08-20,27.969999313354492,28.389999389648438,27.0,28.079999923706055,28.079999923706055,917900
2019-08-21,28.280000686645508,28.530000686645508,28.020000457763672,28.200000762939453,28.200000762939453,1078300
2019-08-22,28.420000076293945,29.43000030517578,28.350000381469727,29.059999465942383,29.059999465942383,1205100
2019-08-23,28.600000381469727,29.0,26.0,26.1299991607666,26.1299991607666,1851000
2019-08-26,27.200000762939453,27.799999237060547,25.18000030517578,25.780000686645508,25.780000686645508,1572000
2019-08-27,26.0,26.600000381469727,25.829999923706055,26.34000015258789,26.34000015258789,1194700
2019-08-28,26.290000915527344,27.399999618530273,26.020000457763672,27.260000228881836,27.260000228881836,998000
2019-08-29,27.68000030517578,28.450000762939453,27.329999923706055,28.420000076293945,28.420000076293945,1218600
2019-08-30,28.65999984741211,28.920000076293945,27.770000457763672,28.25,28.25,913800
2019-09-03,27.700000762939453,28.25,26.530000686645508,26.6200008392334,26.6200008392334,922900
2019-09-04,27.18000030517578,28.959999084472656,27.010000228881836,28.81999969482422,28.81999969482422,2123300
2019-09-05,29.290000915527344,29.799999237060547,28.81999969482422,29.229999542236328,29.229999542236328,1118500
2019-09-06,29.600000381469727,30.84000015258789,29.520000457763672,30.350000381469727,30.350000381469727,1515200
2019-09-09,30.5,30.549999237060547,28.709999084472656,28.889999389648438,28.889999389648438,985500
2019-09-10,28.8799991607666,30.239999771118164,28.520000457763672,30.139999389648438,30.139999389648438,1267700
2019-09-11,30.540000915527344,30.6299991607666,29.549999237060547,30.299999237060547,30.299999237060547,1166400
2019-09-12,30.190000534057617,31.809999465942383,30.010000228881836,30.700000762939453,30.700000762939453,1328800
2019-09-13,30.84000015258789,31.3700008392334,29.8700008392334,30.0,30.0,954100
2019-09-16,29.700000762939453,30.280000686645508,28.600000381469727,28.850000381469727,28.850000381469727,820100
2019-09-17,29.65999984741211,30.270000457763672,29.010000228881836,29.5,29.5,834300
2019-09-18,29.3700008392334,29.579999923706055,28.049999237060547,28.790000915527344,28.790000915527344,792900
2019-09-19,29.030000686645508,29.299999237060547,28.709999084472656,28.850000381469727,28.850000381469727,577700
2019-09-20,28.989999771118164,29.399999618530273,28.440000534057617,28.940000534057617,28.940000534057617,1359100
2019-09-23,28.829999923706055,30.670000076293945,28.709999084472656,29.93000030517578,29.93000030517578,932300
2019-09-24,30.010000228881836,30.299999237060547,29.18000030517578,29.530000686645508,29.530000686645508,761200
2019-09-25,29.6299991607666,29.969999313354492,29.059999465942383,29.600000381469727,29.600000381469727,564600
2019-09-26,29.600000381469727,29.8799991607666,28.110000610351562,28.43000030517578,28.43000030517578,930200
2019-09-27,28.459999084472656,29.479999542236328,27.799999237060547,28.100000381469727,28.100000381469727,804100
2019-09-30,28.209999084472656,28.799999237060547,27.760000228881836,28.0,28.0,602700
2019-10-01,28.020000457763672,28.40999984741211,26.670000076293945,26.709999084472656,26.709999084472656,1266500
2019-10-02,26.25,26.829999923706055,26.100000381469727,26.739999771118164,26.739999771118164,905600
2019-10-03,26.700000762939453,28.34000015258789,26.100000381469727,28.280000686645508,28.280000686645508,878000
2019-10-04,28.420000076293945,28.610000610351562,27.59000015258789,28.459999084472656,28.459999084472656,562600
2019-10-07,28.170000076293945,28.75,27.799999237060547,28.65999984741211,28.65999984741211,391100
2019-10-08,28.100000381469727,28.790000915527344,27.790000915527344,28.5,28.5,435200
2019-10-09,28.75,29.68000030517578,28.360000610351562,29.1299991607666,29.1299991607666,859400
2019-10-10,29.010000228881836,29.93000030517578,29.0,29.540000915527344,29.540000915527344,743300
2019-10-11,29.899999618530273,32.029998779296875,29.8799991607666,31.790000915527344,31.790000915527344,1423700
2019-10-14,31.31999969482422,32.18000030517578,30.81999969482422,32.0,32.0,564500
2019-10-15,32.04999923706055,32.59000015258789,31.530000686645508,32.34000015258789,32.34000015258789,524800
2019-10-16,32.20000076293945,32.81999969482422,31.6200008392334,32.0099983215332,32.0099983215332,595500
2019-10-17,32.15999984741211,32.4900016784668,31.549999237060547,31.889999389648438,31.889999389648438,377700
2019-10-18,31.549999237060547,33.40999984741211,31.1299991607666,32.45000076293945,32.45000076293945,1074700
2019-10-21,32.599998474121094,32.81999969482422,31.229999542236328,31.889999389648438,31.889999389648438,663700
2019-10-22,32.439998626708984,32.709999084472656,31.520000457763672,31.8700008392334,31.8700008392334,433600
2019-10-23,31.610000610351562,31.920000076293945,31.110000610351562,31.399999618530273,31.399999618530273,528100
2019-10-24,31.40999984741211,32.2400016784668,31.139999389648438,32.189998626708984,32.189998626708984,370300
2019-10-25,31.950000762939453,33.11000061035156,31.950000762939453,32.810001373291016,32.810001373291016,425600
2019-10-28,33.150001525878906,34.20000076293945,33.0,33.31999969482422,33.31999969482422,1285100
2019-10-29,33.369998931884766,34.25,33.349998474121094,33.630001068115234,33.630001068115234,1207500
2019-10-30,33.540000915527344,34.7400016784668,33.5,34.709999084472656,34.709999084472656,1879300
2019-10-31,34.0,34.0,31.799999237060547,33.310001373291016,33.310001373291016,2533400
2019-11-01,32.9900016784668,34.029998779296875,32.529998779296875,32.900001525878906,32.900001525878906,1392100
2019-11-04,33.099998474121094,33.43000030517578,32.45000076293945,33.11000061035156,33.11000061035156,1884100
2019-11-05,31.239999771118164,32.689998626708984,30.600000381469727,31.8700008392334,31.8700008392334,2591700
2019-11-06,31.709999084472656,32.70000076293945,30.5,30.729999542236328,30.729999542236328,1785900
2019-11-07,30.25,30.59000015258789,29.09000015258789,29.15999984741211,29.15999984741211,7085700
2019-11-08,29.75,30.989999771118164,29.549999237060547,30.440000534057617,30.440000534057617,2517800
2019-11-11,30.239999771118164,30.8799991607666,30.010000228881836,30.40999984741211,30.40999984741211,2372500
2019-11-12,30.399999618530273,30.729999542236328,29.84000015258789,30.3700008392334,30.3700008392334,860100
2019-11-13,30.18000030517578,31.420000076293945,30.100000381469727,31.149999618530273,31.149999618530273,1034000
2019-11-14,31.0,31.100000381469727,29.149999618530273,29.40999984741211,29.40999984741211,1714300
2019-11-15,29.610000610351562,30.540000915527344,29.510000228881836,29.700000762939453,29.700000762939453,1528300
2019-11-18,29.65999984741211,29.989999771118164,28.540000915527344,29.40999984741211,29.40999984741211,1463600
2019-11-19,29.34000015258789,29.5,28.860000610351562,29.280000686645508,29.280000686645508,736900
2019-11-20,29.079999923706055,29.969999313354492,29.049999237060547,29.790000915527344,29.790000915527344,896200
2019-11-21,29.860000610351562,30.190000534057617,28.719999313354492,28.729999542236328,28.729999542236328,1071800
2019-11-22,29.110000610351562,29.219999313354492,28.31999969482422,29.06999969482422,29.06999969482422,818200
2019-11-25,29.25,29.799999237060547,29.1299991607666,29.56999969482422,29.56999969482422,985400
2019-11-26,29.600000381469727,30.489999771118164,29.40999984741211,30.440000534057617,30.440000534057617,1386000
2019-11-27,30.649999618530273,32.2400016784668,30.450000762939453,32.02000045776367,32.02000045776367,1094600
2019-11-29,31.809999465942383,32.349998474121094,31.5,31.81999969482422,31.81999969482422,435900
2019-12-02,31.799999237060547,32.13999938964844,31.469999313354492,31.799999237060547,31.799999237060547,1177300
2019-12-03,31.040000915527344,31.079999923706055,29.15999984741211,29.969999313354492,29.969999313354492,2424300
2019-12-04,30.510000228881836,31.8799991607666,30.5,31.3700008392334,31.3700008392334,1351200
2019-12-05,32.91999816894531,34.20000076293945,31.600000381469727,32.279998779296875,32.279998779296875,3320600
2019-12-06,32.5099983215332,32.83000183105469,31.260000228881836,31.420000076293945,31.420000076293945,1482800
2019-12-09,31.350000381469727,31.549999237060547,30.469999313354492,30.809999465942383,30.809999465942383,873100
2019-12-10,30.739999771118164,31.459999084472656,30.549999237060547,30.709999084472656,30.709999084472656,713700
2019-12-11,31.299999237060547,32.380001068115234,30.899999618530273,31.8700008392334,31.8700008392334,1554100
2019-12-12,31.920000076293945,33.939998626708984,31.860000610351562,33.84000015258789,33.84000015258789,1721300
2019-12-13,33.34000015258789,33.52000045776367,32.31999969482422,33.34000015258789,33.34000015258789,1398300
2019-12-16,33.59000015258789,33.72999954223633,32.400001525878906,32.70000076293945,32.70000076293945,1259300
2019-12-17,32.97999954223633,33.83000183105469,32.630001068115234,33.27000045776367,33.27000045776367,1369600
2019-12-18,33.349998474121094,35.529998779296875,33.29999923706055,34.04999923706055,34.04999923706055,2540400
2019-12-19,33.900001525878906,34.040000915527344,32.709999084472656,33.40999984741211,33.40999984741211,2151500
2019-12-20,33.52000045776367,34.83000183105469,33.189998626708984,34.709999084472656,34.709999084472656,1466300
2019-12-23,34.77000045776367,35.0,34.16999816894531,34.310001373291016,34.310001373291016,838900
2019-12-24,34.5,34.83000183105469,34.02000045776367,34.540000915527344,34.540000915527344,323200
2019-12-26,34.650001525878906,34.83000183105469,33.91999816894531,34.47999954223633,34.47999954223633,647900
2019-12-27,34.84000015258789,35.619998931884766,34.54999923706055,34.97999954223633,34.97999954223633,1393100
2019-12-30,35.0,35.43000030517578,33.91999816894531,35.029998779296875,35.029998779296875,1275000
2019-12-31,35.0,35.04999923706055,34.369998931884766,34.779998779296875,34.779998779296875,1017800
2020-01-02,34.779998779296875,35.290000915527344,34.20000076293945,34.900001525878906,34.900001525878906,1529200
2020-01-03,34.31999969482422,34.7400016784668,33.529998779296875,33.779998779296875,33.779998779296875,1371900
2020-01-06,33.2599983215332,33.2599983215332,30.920000076293945,32.119998931884766,32.119998931884766,3290600
2020-01-07,32.150001525878906,32.720001220703125,31.31999969482422,31.399999618530273,31.399999618530273,1736900
2020-01-08,31.3700008392334,32.599998474121094,31.270000457763672,32.15999984741211,32.15999984741211,1759400
2020-01-09,32.45000076293945,32.61000061035156,31.5,31.84000015258789,31.84000015258789,1391800
2020-01-10,31.790000915527344,32.0,30.950000762939453,31.309999465942383,31.309999465942383,1646100
2020-01-13,31.440000534057617,32.15999984741211,31.299999237060547,32.040000915527344,32.040000915527344,973800
2020-01-14,32.02000045776367,32.93000030517578,31.649999618530273,32.439998626708984,32.439998626708984,1154700
2020-01-15,32.2400016784668,33.08000183105469,32.20000076293945,32.86000061035156,32.86000061035156,1080000
2020-01-16,33.18000030517578,33.349998474121094,32.439998626708984,32.619998931884766,32.619998931884766,863100
2020-01-17,32.81999969482422,34.29999923706055,32.689998626708984,34.25,34.25,2155300
2020-01-21,34.09000015258789,37.150001525878906,33.65999984741211,35.70000076293945,35.70000076293945,4846700
2020-01-22,35.88999938964844,36.40999984741211,33.849998474121094,34.220001220703125,34.220001220703125,1505900
2020-01-23,33.97999954223633,34.959999084472656,33.849998474121094,34.68000030517578,34.68000030517578,775900
2020-01-24,34.810001373291016,34.93000030517578,33.439998626708984,34.189998626708984,34.189998626708984,841300
2020-01-27,33.15999984741211,34.459999084472656,32.79999923706055,33.83000183105469,33.83000183105469,1016900
2020-01-28,34.2599983215332,35.0,33.7400016784668,34.630001068115234,34.630001068115234,903000
2020-01-29,34.970001220703125,36.18000030517578,34.90999984741211,35.81999969482422,35.81999969482422,1626300
2020-01-30,35.90999984741211,37.61000061035156,35.88999938964844,37.38999938964844,37.38999938964844,2562400
2020-01-31,37.349998474121094,37.349998474121094,36.290000915527344,36.36000061035156,36.36000061035156,1328400
2020-02-03,36.61000061035156,37.150001525878906,35.939998626708984,36.68000030517578,36.68000030517578,1202600
2020-02-04,37.900001525878906,38.61000061035156,37.29999923706055,37.90999984741211,37.90999984741211,1316200
2020-02-05,38.45000076293945,38.45000076293945,37.20000076293945,37.43000030517578,37.43000030517578,994300
2020-02-06,37.560001373291016,37.66999816894531,36.150001525878906,36.59000015258789,36.59000015258789,1121700
2020-02-07,36.52000045776367,36.52000045776367,35.279998779296875,35.599998474121094,35.599998474121094,1302800
2020-02-10,35.529998779296875,36.72999954223633,35.41999816894531,35.79999923706055,35.79999923706055,1280800
2020-02-11,36.18000030517578,36.29999923706055,34.08000183105469,34.22999954223633,34.22999954223633,2165600
2020-02-12,34.5,35.130001068115234,33.54999923706055,34.720001220703125,34.720001220703125,2717100
2020-02-13,34.70000076293945,35.08000183105469,32.2599983215332,34.189998626708984,34.189998626708984,4657200
2020-02-14,34.599998474121094,34.630001068115234,32.25,32.84000015258789,32.84000015258789,3996200
2020-02-18,31.799999237060547,32.369998931884766,31.65999984741211,32.130001068115234,32.130001068115234,6220200
2020-02-19,32.25,32.47999954223633,31.780000686645508,32.13999938964844,32.13999938964844,2760500
2020-02-20,32.04999923706055,33.099998474121094,31.770000457763672,32.40999984741211,32.40999984741211,3754300
2020-02-21,32.220001220703125,32.31999969482422,31.1299991607666,31.780000686645508,31.780000686645508,4066300
2020-02-24,30.5,32.15999984741211,30.190000534057617,31.889999389648438,31.889999389648438,3054700
2020-02-25,32.04999923706055,32.08000183105469,30.649999618530273,31.149999618530273,31.149999618530273,2319800
2020-02-26,31.200000762939453,32.029998779296875,30.260000228881836,30.40999984741211,30.40999984741211,2948900
2020-02-27,29.549999237060547,30.65999984741211,28.299999237060547,29.440000534057617,29.440000534057617,3414400
2020-02-28,28.149999618530273,30.34000015258789,28.079999923706055,30.25,30.25,3198500
2020-03-02,30.360000610351562,30.360000610351562,28.43000030517578,29.610000610351562,29.610000610351562,3230600
2020-03-03,30.34000015258789,31.06999969482422,28.56999969482422,29.110000610351562,29.110000610351562,2411500
2020-03-04,29.510000228881836,30.510000228881836,28.899999618530273,30.389999389648438,30.389999389648438,1569800
2020-03-05,29.420000076293945,29.760000228881836,28.25,28.389999389648438,28.389999389648438,2016900
2020-03-06,27.450000762939453,28.399999618530273,26.75,26.850000381469727,26.850000381469727,2887200
2020-03-09,25.43000030517578,25.559999465942383,22.93000030517578,22.979999542236328,22.979999542236328,3295200
2020-03-10,24.200000762939453,25.940000534057617,23.0,25.780000686645508,25.780000686645508,4418000
2020-03-11,25.020000457763672,25.690000534057617,23.040000915527344,23.510000228881836,23.510000228881836,2700700
2020-03-12,20.5,23.149999618530273,20.5,22.399999618530273,22.399999618530273,2806400
2020-03-13,23.6200008392334,23.799999237060547,20.940000534057617,22.8799991607666,22.8799991607666,2126300
2020-03-16,20.0,21.209999084472656,19.43000030517578,19.889999389648438,19.889999389648438,2585500
2020-03-17,20.219999313354492,21.239999771118164,18.139999389648438,19.860000610351562,19.860000610351562,2261000
2020-03-18,18.739999771118164,19.100000381469727,15.640000343322754,17.229999542236328,17.229999542236328,2624300
2020-03-19,17.0,18.850000381469727,15.819999694824219,18.40999984741211,18.40999984741211,2553300
2020-03-20,18.56999969482422,19.1200008392334,16.149999618530273,16.420000076293945,16.420000076293945,2779900
2020-03-23,16.389999389648438,16.899999618530273,15.279999732971191,15.579999923706055,15.579999923706055,1993300
2020-03-24,16.610000610351562,18.81999969482422,16.059999465942383,18.649999618530273,18.649999618530273,2128100
2020-03-25,19.049999237060547,21.860000610351562,18.65999984741211,21.329999923706055,21.329999923706055,3075400
2020-03-26,21.600000381469727,22.670000076293945,21.09000015258789,22.139999389648438,22.139999389648438,1975700
2020-03-27,20.889999389648438,21.600000381469727,19.25,20.93000030517578,20.93000030517578,1799000
2020-03-30,20.600000381469727,20.75,19.399999618530273,20.170000076293945,20.170000076293945,1383100
2020-03-31,19.940000534057617,20.920000076293945,19.309999465942383,19.520000457763672,19.520000457763672,1445200
2020-04-01,18.459999084472656,18.600000381469727,17.559999465942383,18.059999465942383,18.059999465942383,1716700
2020-04-02,17.809999465942383,18.059999465942383,16.40999984741211,16.93000030517578,16.93000030517578,1743700
2020-04-03,16.93000030517578,17.6200008392334,16.530000686645508,17.290000915527344,17.290000915527344,1480700
2020-04-06,18.709999084472656,19.350000381469727,18.15999984741211,18.799999237060547,18.799999237060547,1496800
2020-04-07,19.75,20.760000228881836,19.25,20.100000381469727,20.100000381469727,1917200
2020-04-08,20.389999389648438,22.6200008392334,20.1200008392334,22.170000076293945,22.170000076293945,1850900
2020-04-09,22.690000534057617,23.700000762939453,22.360000610351562,23.299999237060547,23.299999237060547,1877700
2020-04-13,23.260000228881836,23.290000915527344,21.420000076293945,22.25,22.25,1236800
2020-04-14,24.479999542236328,26.280000686645508,24.479999542236328,25.8799991607666,25.8799991607666,4987800
2020-04-15,24.290000915527344,24.90999984741211,22.6299991607666,24.540000915527344,24.540000915527344,3098400
2020-04-16,24.84000015258789,25.559999465942383,24.329999923706055,24.889999389648438,24.889999389648438,9817400
2020-04-17,24.889999389648438,25.5,23.850000381469727,24.420000076293945,24.420000076293945,2515000
2020-04-20,23.860000610351562,25.190000534057617,23.65999984741211,24.059999465942383,24.059999465942383,1586300
2020-04-21,23.209999084472656,23.81999969482422,22.690000534057617,23.110000610351562,23.110000610351562,1416200
2020-04-22,23.700000762939453,24.139999389648438,23.049999237060547,23.049999237060547,23.049999237060547,1656000
2020-04-23,23.540000915527344,24.149999618530273,23.1299991607666,23.219999313354492,23.219999313354492,1539900
2020-04-24,23.56999969482422,25.0,22.899999618530273,24.8799991607666,24.8799991607666,1861400
2020-04-27,25.459999084472656,26.690000534057617,25.149999618530273,26.0,26.0,2010700
2020-04-28,26.979999542236328,27.5,26.15999984741211,26.670000076293945,26.670000076293945,1584200
2020-04-29,27.670000076293945,29.399999618530273,27.010000228881836,28.6200008392334,28.6200008392334,1922300
2020-04-30,28.329999923706055,28.889999389648438,27.31999969482422,27.610000610351562,27.610000610351562,1260000
2020-05-01,26.760000228881836,27.389999389648438,25.670000076293945,26.059999465942383,26.059999465942383,1862400
2020-05-04,25.670000076293945,26.56999969482422,25.059999465942383,26.5,26.5,1648200
2020-05-05,26.81999969482422,27.920000076293945,26.739999771118164,26.8799991607666,26.8799991607666,1067600
2020-05-06,27.010000228881836,28.15999984741211,26.790000915527344,27.260000228881836,27.260000228881836,1522000
2020-05-07,29.850000381469727,30.489999771118164,27.639999389648438,28.31999969482422,28.31999969482422,2218400
2020-05-08,28.5,29.469999313354492,28.260000228881836,29.09000015258789,29.09000015258789,2232200
2020-05-11,27.700000762939453,27.8700008392334,26.299999237060547,27.219999313354492,27.219999313354492,7961400
2020-05-12,27.579999923706055,28.079999923706055,27.010000228881836,27.34000015258789,27.34000015258789,8612700
2020-05-13,27.479999542236328,27.690000534057617,24.6299991607666,26.170000076293945,26.170000076293945,3157700
2020-05-14,25.530000686645508,26.25,24.81999969482422,26.1299991607666,26.1299991607666,4589300
2020-05-15,25.799999237060547,27.440000534057617,25.3799991607666,26.93000030517578,26.93000030517578,2509000
2020-05-18,28.149999618530273,28.84000015258789,27.950000762939453,28.5,28.5,1916100
2020-05-19,28.270000457763672,29.110000610351562,28.010000228881836,28.030000686645508,28.030000686645508,1271600
2020-05-20,28.5,29.100000381469727,27.93000030517578,29.030000686645508,29.030000686645508,1500800
2020-05-21,28.959999084472656,30.389999389648438,28.65999984741211,30.040000915527344,30.040000915527344,1764800
2020-05-22,30.190000534057617,30.56999969482422,29.1200008392334,30.440000534057617,30.440000534057617,1311600
2020-05-26,32.0,33.22999954223633,31.790000915527344,31.989999771118164,31.989999771118164,2013300
2020-05-27,32.58000183105469,33.970001220703125,32.20000076293945,33.75,33.75,2128200
2020-05-28,32.06999969482422,32.88999938964844,31.649999618530273,31.979999542236328,31.979999542236328,3371700
2020-05-29,31.690000534057617,32.459999084472656,31.270000457763672,32.099998474121094,32.099998474121094,3949700
2020-06-01,32.43000030517578,33.130001068115234,31.860000610351562,32.20000076293945,32.20000076293945,1096900
2020-06-02,32.5099983215332,33.7400016784668,32.0099983215332,33.189998626708984,33.189998626708984,1857800
2020-06-03,33.959999084472656,34.47999954223633,33.369998931884766,34.02000045776367,34.02000045776367,2373600
2020-06-04,33.869998931884766,35.29999923706055,33.70000076293945,34.59000015258789,34.59000015258789,1440900
2020-06-05,35.439998626708984,36.790000915527344,35.43000030517578,35.81999969482422,35.81999969482422,1712900
2020-06-08,36.84000015258789,38.970001220703125,36.77000045776367,37.04999923706055,37.04999923706055,3713500
2020-06-09,36.45000076293945,37.310001373291016,35.459999084472656,36.709999084472656,36.709999084472656,1644300
2020-06-10,37.36000061035156,37.93000030517578,36.5,36.7599983215332,36.7599983215332,1515300
2020-06-11,34.90999984741211,35.20000076293945,33.06999969482422,33.40999984741211,33.40999984741211,1676400
2020-06-12,35.18000030517578,35.869998931884766,34.220001220703125,35.66999816894531,35.66999816894531,1320100
2020-06-15,34.04999923706055,36.209999084472656,33.68000030517578,35.869998931884766,35.869998931884766,1654700
2020-06-16,39.09000015258789,39.09000015258789,36.689998626708984,37.099998474121094,37.099998474121094,1663100
2020-06-17,37.0,38.040000915527344,36.880001068115234,37.650001525878906,37.650001525878906,1277900
2020-06-18,37.06999969482422,38.90999984741211,37.0099983215332,38.41999816894531,38.41999816894531,1199500
2020-06-19,38.709999084472656,39.619998931884766,38.689998626708984,39.33000183105469,39.33000183105469,1933800
2020-06-22,38.79999923706055,40.59000015258789,38.720001220703125,40.470001220703125,40.470001220703125,1257600
2020-06-23,41.54999923706055,44.599998474121094,41.279998779296875,42.959999084472656,42.959999084472656,4042400
2020-06-24,42.31999969482422,44.47999954223633,40.95000076293945,41.91999816894531,41.91999816894531,2444300
2020-06-25,41.529998779296875,43.09000015258789,41.16999816894531,42.959999084472656,42.959999084472656,1876500
2020-06-26,42.86000061035156,43.4900016784668,41.25,41.540000915527344,41.540000915527344,2163000
2020-06-29,41.689998626708984,42.88999938964844,41.16999816894531,42.720001220703125,42.720001220703125,1245200
2020-06-30,42.63999938964844,43.7599983215332,42.119998931884766,42.72999954223633,42.72999954223633,1367800
2020-07-01,43.599998474121094,44.310001373291016,43.09000015258789,43.849998474121094,43.849998474121094,1483700
2020-07-02,44.939998626708984,45.18000030517578,42.439998626708984,42.650001525878906,42.650001525878906,1446400
2020-07-06,43.869998931884766,44.38999938964844,42.9900016784668,43.09000015258789,43.09000015258789,1147300
2020-07-07,42.540000915527344,43.209999084472656,41.97999954223633,42.0,42.0,1902500
2020-07-08,42.0,42.27000045776367,40.75,42.040000915527344,42.040000915527344,1595400
2020-07-09,42.25,42.88999938964844,41.630001068115234,41.880001068115234,41.880001068115234,1110000
2020-07-10,41.970001220703125,42.58000183105469,41.459999084472656,41.810001373291016,41.810001373291016,1055400
2020-07-13,42.470001220703125,42.790000915527344,40.439998626708984,40.560001373291016,40.560001373291016,1056100
2020-07-14,40.45000076293945,41.7400016784668,40.099998474121094,41.45000076293945,41.45000076293945,863200
2020-07-15,43.2400016784668,43.9900016784668,42.13999938964844,43.95000076293945,43.95000076293945,2392500
2020-07-16,43.45000076293945,44.369998931884766,43.27000045776367,43.81999969482422,43.81999969482422,1284600
2020-07-17,45.0,45.0,43.86000061035156,44.15999984741211,44.15999984741211,1297100
2020-07-20,44.0,45.310001373291016,43.93000030517578,45.04999923706055,45.04999923706055,1159600
2020-07-21,46.310001373291016,46.36000061035156,45.2400016784668,45.7599983215332,45.7599983215332,1264100
2020-07-22,45.84000015258789,47.599998474121094,45.790000915527344,46.880001068115234,46.880001068115234,1100900
2020-07-23,46.880001068115234,47.959999084472656,45.2599983215332,46.2599983215332,46.2599983215332,1042700
2020-07-24,45.72999954223633,46.119998931884766,44.40999984741211,45.59000015258789,45.59000015258789,959200
2020-07-27,45.59000015258789,46.72999954223633,45.02000045776367,46.61000061035156,46.61000061035156,981700
2020-07-28,46.400001525878906,46.900001525878906,45.38999938964844,45.41999816894531,45.41999816894531,852100
2020-07-29,45.650001525878906,47.06999969482422,45.650001525878906,46.810001373291016,46.810001373291016,1267700
2020-07-30,46.439998626708984,48.470001220703125,46.33000183105469,48.029998779296875,48.029998779296875,993700
2020-07-31,48.2599983215332,48.959999084472656,47.209999084472656,48.88999938964844,48.88999938964844,1301100
2020-08-03,49.150001525878906,51.09000015258789,49.02000045776367,50.79999923706055,50.79999923706055,1302900
2020-08-04,50.58000183105469,50.900001525878906,50.040000915527344,50.5099983215332,50.5099983215332,1422600
2020-08-05,51.08000183105469,52.209999084472656,50.7400016784668,51.630001068115234,51.630001068115234,3120100
2020-08-06,52.63999938964844,55.040000915527344,50.52000045776367,50.79999923706055,50.79999923706055,3362400
2020-08-07,51.7400016784668,52.220001220703125,49.84000015258789,50.400001525878906,50.400001525878906,2426900
2020-08-10,50.54999923706055,51.13999938964844,47.2400016784668,47.849998474121094,47.849998474121094,1605300
2020-08-11,48.06999969482422,49.04999923706055,46.720001220703125,47.650001525878906,47.650001525878906,1993900
2020-08-12,48.0099983215332,49.459999084472656,47.83000183105469,49.41999816894531,49.41999816894531,1694100
2020-08-13,49.290000915527344,50.95000076293945,49.16999816894531,49.9900016784668,49.9900016784668,1324500
2020-08-14,49.5099983215332,50.2599983215332,49.2599983215332,49.380001068115234,49.380001068115234,930200
2020-08-17,48.56999969482422,50.08000183105469,48.040000915527344,49.86000061035156,49.86000061035156,998100
2020-08-18,50.06999969482422,50.13999938964844,49.02000045776367,49.380001068115234,49.380001068115234,994100
2020-08-19,49.36000061035156,51.0,49.18000030517578,50.38999938964844,50.38999938964844,2112700
2020-08-20,49.97999954223633,51.41999816894531,49.7599983215332,50.369998931884766,50.369998931884766,1351400
2020-08-21,49.900001525878906,51.97999954223633,49.54999923706055,51.720001220703125,51.720001220703125,1378600
2020-08-24,52.81999969482422,52.88999938964844,51.13999938964844,51.34000015258789,51.34000015258789,1479700
2020-08-25,51.29999923706055,51.77000045776367,50.40999984741211,51.630001068115234,51.630001068115234,1331700
2020-08-26,52.15999984741211,52.349998474121094,51.09000015258789,51.099998474121094,51.099998474121094,1226900
2020-08-27,51.290000915527344,51.97999954223633,49.90999984741211,50.41999816894531,50.41999816894531,1481300
2020-08-28,50.84000015258789,51.56999969482422,50.54999923706055,51.2599983215332,51.2599983215332,828100
2020-08-31,51.38999938964844,51.619998931884766,50.279998779296875,51.380001068115234,51.380001068115234,1385400
2020-09-01,51.959999084472656,53.540000915527344,51.65999984741211,53.540000915527344,53.540000915527344,1514200
2020-09-02,53.880001068115234,54.0,51.060001373291016,53.31999969482422,53.31999969482422,1410300
2020-09-03,52.5,52.970001220703125,48.56999969482422,49.720001220703125,49.720001220703125,2220600
2020-09-04,50.220001220703125,50.77000045776367,45.77000045776367,49.5099983215332,49.5099983215332,1788000
2020-09-08,47.59000015258789,50.400001525878906,47.560001373291016,48.970001220703125,48.970001220703125,1026400
2020-09-09,49.689998626708984,50.4900016784668,48.95000076293945,49.9900016784668,49.9900016784668,1385800
2020-09-10,50.27000045776367,51.08000183105469,48.54999923706055,48.810001373291016,48.810001373291016,842500
2020-09-11,49.63999938964844,50.599998474121094,48.41999816894531,48.849998474121094,48.849998474121094,939500
2020-09-14,49.279998779296875,49.5099983215332,46.869998931884766,47.84000015258789,47.84000015258789,1318500
2020-09-15,48.279998779296875,48.880001068115234,47.91999816894531,48.130001068115234,48.130001068115234,860200
2020-09-16,48.400001525878906,48.43000030517578,46.36000061035156,47.900001525878906,47.900001525878906,1271000
2020-09-17,46.83000183105469,47.459999084472656,45.650001525878906,46.0,46.0,1314600
2020-09-18,46.43000030517578,46.70000076293945,44.27000045776367,44.61000061035156,44.61000061035156,3072500
2020-09-21,43.5,45.38999938964844,43.09000015258789,45.189998626708984,45.189998626708984,1819900
2020-09-22,45.79999923706055,47.41999816894531,44.56999969482422,47.040000915527344,47.040000915527344,1499700
2020-09-23,47.06999969482422,47.189998626708984,44.310001373291016,44.439998626708984,44.439998626708984,1090200
2020-09-24,44.34000015258789,45.279998779296875,43.380001068115234,44.099998474121094,44.099998474121094,1206000
2020-09-25,44.310001373291016,45.72999954223633,44.08000183105469,45.189998626708984,45.189998626708984,1009300
2020-09-28,46.400001525878906,46.400001525878906,44.810001373291016,45.93000030517578,45.93000030517578,791900
2020-09-29,46.20000076293945,46.56999969482422,45.34000015258789,45.81999969482422,45.81999969482422,683000
2020-09-30,45.810001373291016,46.45000076293945,44.84000015258789,45.31999969482422,45.31999969482422,1096400
2020-10-01,45.689998626708984,46.56999969482422,44.630001068115234,46.529998779296875,46.529998779296875,1041100
2020-10-02,45.08000183105469,47.18000030517578,45.08000183105469,46.88999938964844,46.88999938964844,859100
2020-10-05,47.310001373291016,48.560001373291016,47.16999816894531,48.45000076293945,48.45000076293945,773000
2020-10-06,48.900001525878906,49.880001068115234,48.150001525878906,48.349998474121094,48.349998474121094,1151300
2020-10-07,49.0,50.95000076293945,48.880001068115234,50.0,50.0,1148200
2020-10-08,50.540000915527344,50.56999969482422,49.029998779296875,49.27000045776367,49.27000045776367,846300
2020-10-09,49.63999938964844,50.970001220703125,49.63999938964844,50.61000061035156,50.61000061035156,873000
2020-10-12,51.0,51.70000076293945,49.81999969482422,49.93000030517578,49.93000030517578,889700
2020-10-13,49.54999923706055,52.689998626708984,49.220001220703125,52.5,52.5,864000
2020-10-14,52.63999938964844,53.599998474121094,51.45000076293945,51.779998779296875,51.779998779296875,1096900
2020-10-15,50.7400016784668,53.459999084472656,50.720001220703125,53.349998474121094,53.349998474121094,669700
2020-10-16,53.45000076293945,53.79999923706055,51.900001525878906,52.060001373291016,52.060001373291016,507200
2020-10-19,52.52000045776367,54.18000030517578,51.95000076293945,52.15999984741211,52.15999984741211,783500
2020-10-20,52.459999084472656,53.369998931884766,51.02000045776367,51.22999954223633,51.22999954223633,697500
2020-10-21,51.52000045776367,52.58000183105469,50.7400016784668,51.290000915527344,51.290000915527344,524000
2020-10-22,51.34000015258789,51.599998474121094,49.63999938964844,50.369998931884766,50.369998931884766,502000
2020-10-23,50.68000030517578,51.09000015258789,49.68000030517578,50.7400016784668,50.7400016784668,587900
2020-10-26,50.0,50.9900016784668,49.540000915527344,50.650001525878906,50.650001525878906,740700
2020-10-27,51.189998626708984,53.56999969482422,50.560001373291016,53.06999969482422,53.06999969482422,1203400
2020-10-28,52.470001220703125,53.040000915527344,51.34000015258789,52.27000045776367,52.27000045776367,986500
2020-10-29,52.13999938964844,52.83000183105469,51.220001220703125,52.25,52.25,716500
2020-10-30,51.9900016784668,52.349998474121094,48.650001525878906,49.47999954223633,49.47999954223633,1704500
2020-11-02,49.849998474121094,50.20000076293945,48.27000045776367,49.09000015258789,49.09000015258789,711300
2020-11-03,49.779998779296875,50.279998779296875,48.54999923706055,48.79999923706055,48.79999923706055,742000
2020-11-04,48.869998931884766,51.61000061035156,47.65999984741211,51.41999816894531,51.41999816894531,977200
2020-11-05,53.34000015258789,60.93000030517578,51.790000915527344,59.90999984741211,59.90999984741211,5417100
2020-11-06,61.18000030517578,62.720001220703125,58.11000061035156,58.75,58.75,1724400
2020-11-09,59.63999938964844,59.75,50.45000076293945,51.45000076293945,51.45000076293945,4132000
2020-11-10,51.25,56.13999938964844,50.529998779296875,55.63999938964844,55.63999938964844,3338900
2020-11-11,56.09000015258789,56.5,53.84000015258789,56.13999938964844,56.13999938964844,1203500
2020-11-12,55.790000915527344,57.16999816894531,55.119998931884766,55.650001525878906,55.650001525878906,917800
2020-11-13,56.5099983215332,58.41999816894531,56.400001525878906,57.130001068115234,57.130001068115234,1486300
2020-11-16,56.72999954223633,57.88999938964844,56.11000061035156,57.31999969482422,57.31999969482422,1955800
2020-11-17,57.27000045776367,57.97999954223633,55.79999923706055,57.869998931884766,57.869998931884766,1566600
2020-11-18,57.45000076293945,58.81999969482422,57.029998779296875,57.47999954223633,57.47999954223633,1954600
2020-11-19,57.9900016784668,60.43000030517578,57.7400016784668,60.22999954223633,60.22999954223633,1077000
2020-11-20,60.099998474121094,61.9900016784668,59.20000076293945,61.779998779296875,61.779998779296875,1233300
2020-11-23,62.540000915527344,63.119998931884766,60.9900016784668,61.630001068115234,61.630001068115234,1422900
2020-11-24,62.61000061035156,63.0,61.900001525878906,62.11000061035156,62.11000061035156,887500
2020-11-25,61.84000015258789,64.11000061035156,61.66999816894531,63.58000183105469,63.58000183105469,778000
2020-11-27,63.0099983215332,64.37000274658203,62.689998626708984,64.18000030517578,64.18000030517578,361600
2020-11-30,64.27999877929688,64.29000091552734,61.83000183105469,63.16999816894531,63.16999816894531,1182300
2020-12-01,63.9900016784668,64.12999725341797,61.20000076293945,62.470001220703125,62.470001220703125,745400
2020-12-02,62.08000183105469,63.68000030517578,60.900001525878906,62.810001373291016,62.810001373291016,576900
2020-12-03,63.06999969482422,65.48999786376953,62.5,64.48999786376953,64.48999786376953,1089300
2020-12-04,64.48999786376953,64.9000015258789,62.709999084472656,62.810001373291016,62.810001373291016,610100
2020-12-07,62.54999923706055,64.0199966430664,62.20000076293945,63.81999969482422,63.81999969482422,601800
2020-12-08,64.19000244140625,67.54000091552734,63.06999969482422,67.0999984741211,67.0999984741211,1657700
2020-12-09,67.55999755859375,71.48999786376953,66.68000030517578,69.62000274658203,69.62000274658203,2212500
2020-12-10,68.75,72.0199966430664,68.0,71.2699966430664,71.2699966430664,1496800
2020-12-11,70.80000305175781,72.05999755859375,67.83999633789062,68.26000213623047,68.26000213623047,1644900
2020-12-14,69.69999694824219,71.33999633789062,68.97000122070312,70.80999755859375,70.80999755859375,1238100
2020-12-15,71.26000213623047,72.38999938964844,70.6500015258789,72.22000122070312,72.22000122070312,714400
2020-12-16,72.51000213623047,74.06999969482422,71.86000061035156,73.6500015258789,73.6500015258789,954600
2020-12-17,74.37999725341797,74.66000366210938,70.70999908447266,71.97000122070312,71.97000122070312,990700
2020-12-18,72.63999938964844,73.73999786376953,71.5199966430664,72.37000274658203,72.37000274658203,1164000
2020-12-21,70.97000122070312,73.08999633789062,70.52999877929688,72.2300033569336,72.2300033569336,479000
2020-12-22,72.98999786376953,74.81999969482422,72.58000183105469,74.31999969482422,74.31999969482422,580700
2020-12-23,74.12999725341797,74.7300033569336,72.76000213623047,72.88999938964844,72.88999938964844,480200
2020-12-24,72.91000366210938,73.83000183105469,72.5199966430664,73.08999633789062,73.08999633789062,169400
2020-12-28,73.77999877929688,73.87999725341797,69.76000213623047,69.81999969482422,69.81999969482422,708000
2020-12-29,70.16000366210938,70.55000305175781,67.04000091552734,68.7699966430664,68.7699966430664,838500
2020-12-30,68.91000366210938,70.16000366210938,67.9000015258789,68.19000244140625,68.19000244140625,483300
