Date,Open,High,Low,Close,Adj Close,Volume
2018-09-12,16.75,16.829999923706055,11.579999923706055,13.800000190734863,13.800000190734863,1302200
2018-09-13,13.899999618530273,14.220000267028809,13.0,14.0,14.0,685200
2018-09-14,14.600000381469727,14.729999542236328,13.050000190734863,13.989999771118164,13.989999771118164,773400
2018-09-17,13.609999656677246,13.920000076293945,13.25,13.720000267028809,13.720000267028809,198000
2018-09-18,13.850000381469727,13.850000381469727,12.699999809265137,13.0600004196167,13.0600004196167,259200
2018-09-19,13.260000228881836,13.819999694824219,12.710000038146973,13.819999694824219,13.819999694824219,96000
2018-09-20,13.819999694824219,13.819999694824219,13.119999885559082,13.510000228881836,13.510000228881836,56000
2018-09-21,13.5,15.5,13.5,15.4399995803833,15.4399995803833,297000
2018-09-24,15.119999885559082,15.119999885559082,14.3100004196167,14.8100004196167,14.8100004196167,76000
2018-09-25,14.800000190734863,14.800000190734863,13.65999984741211,14.069999694824219,14.069999694824219,91500
2018-09-26,14.069999694824219,14.300000190734863,13.569999694824219,14.300000190734863,14.300000190734863,15200
2018-09-27,14.0600004196167,14.260000228881836,13.800000190734863,13.800000190734863,13.800000190734863,15300
2018-09-28,13.479999542236328,14.289999961853027,13.399999618530273,13.520000457763672,13.520000457763672,20400
2018-10-01,13.75,13.989999771118164,13.260000228881836,13.380000114440918,13.380000114440918,37700
2018-10-02,13.399999618530273,13.5600004196167,11.729999542236328,11.75,11.75,45700
2018-10-03,11.710000038146973,11.960000038146973,10.210000038146973,11.369999885559082,11.369999885559082,62000
2018-10-04,11.0,11.300000190734863,10.25,10.800000190734863,10.800000190734863,153900
2018-10-05,10.6899995803833,12.119999885559082,10.5,12.119999885559082,12.119999885559082,119700
2018-10-08,11.720000267028809,12.0,10.760000228881836,11.640000343322754,11.640000343322754,78300
2018-10-09,11.859999656677246,11.859999656677246,10.260000228881836,11.149999618530273,11.149999618530273,77100
2018-10-10,10.979999542236328,11.050000190734863,10.3100004196167,10.510000228881836,10.510000228881836,20300
2018-10-11,10.399999618530273,10.4399995803833,9.729999542236328,9.850000381469727,9.850000381469727,31800
2018-10-12,10.010000228881836,10.239999771118164,9.199999809265137,9.350000381469727,9.350000381469727,23800
2018-10-15,9.3100004196167,10.0,8.289999961853027,9.989999771118164,9.989999771118164,48100
2018-10-16,9.960000038146973,11.4399995803833,9.84000015258789,10.640000343322754,10.640000343322754,41100
2018-10-17,10.520000457763672,10.789999961853027,10.520000457763672,10.75,10.75,8500
2018-10-18,10.609999656677246,10.609999656677246,10.0600004196167,10.199999809265137,10.199999809265137,8400
2018-10-19,10.800000190734863,10.800000190734863,8.65999984741211,8.890000343322754,8.890000343322754,38600
2018-10-22,9.020000457763672,9.270000457763672,8.020000457763672,8.020000457763672,8.020000457763672,46100
2018-10-23,8.0,8.6899995803833,7.579999923706055,8.050000190734863,8.050000190734863,16500
2018-10-24,8.09000015258789,8.520000457763672,7.960000038146973,8.100000381469727,8.100000381469727,13300
2018-10-25,8.050000190734863,8.100000381469727,7.849999904632568,8.010000228881836,8.010000228881836,15900
2018-10-26,7.989999771118164,8.430000305175781,7.519999980926514,8.149999618530273,8.149999618530273,13400
2018-10-29,8.210000038146973,8.890000343322754,8.180000305175781,8.210000038146973,8.210000038146973,16800
2018-10-30,8.260000228881836,9.300000190734863,8.260000228881836,8.710000038146973,8.710000038146973,33800
2018-10-31,8.710000038146973,9.489999771118164,8.710000038146973,8.880000114440918,8.880000114440918,9700
2018-11-01,9.0,10.399999618530273,8.970000267028809,10.0,10.0,24700
2018-11-02,10.239999771118164,12.34000015258789,9.5,11.279999732971191,11.279999732971191,34000
2018-11-05,11.199999809265137,11.949999809265137,11.199999809265137,11.199999809265137,11.199999809265137,23600
2018-11-06,11.100000381469727,11.649999618530273,10.119999885559082,11.5,11.5,12500
2018-11-07,11.84000015258789,11.859999656677246,10.260000228881836,11.770000457763672,11.770000457763672,19600
2018-11-08,11.5,11.84000015258789,10.989999771118164,11.0,11.0,22000
2018-11-09,10.510000228881836,10.510000228881836,9.739999771118164,9.75,9.75,32600
2018-11-12,9.630000114440918,10.180000305175781,9.5,9.899999618530273,9.899999618530273,10500
2018-11-13,9.890000343322754,9.890000343322754,9.600000381469727,9.619999885559082,9.619999885559082,2100
2018-11-14,9.729999542236328,9.819999694824219,9.729999542236328,9.800000190734863,9.800000190734863,2000
2018-11-15,9.789999961853027,10.300000190734863,9.75,10.0,10.0,12300
2018-11-16,10.109999656677246,10.5,9.960000038146973,10.119999885559082,10.119999885559082,9400
2018-11-19,10.180000305175781,10.960000038146973,10.0,10.0600004196167,10.0600004196167,38900
2018-11-20,10.029999732971191,10.029999732971191,9.149999618530273,9.149999618530273,9.149999618530273,12300
2018-11-21,9.239999771118164,9.979999542236328,9.239999771118164,9.279999732971191,9.279999732971191,9800
2018-11-23,9.25,9.800000190734863,9.0,9.800000190734863,9.800000190734863,900
2018-11-26,9.949999809265137,10.4399995803833,9.199999809265137,9.6899995803833,9.6899995803833,7900
2018-11-27,9.600000381469727,9.609999656677246,9.600000381469727,9.609999656677246,9.609999656677246,6700
2018-11-28,9.930000305175781,10.0600004196167,9.5,9.5,9.5,6300
2018-11-29,9.5,9.930000305175781,9.5,9.5,9.5,16000
2018-11-30,9.5,9.65999984741211,9.5,9.5,9.5,2200
2018-12-03,9.670000076293945,10.0,8.5,9.5600004196167,9.5600004196167,40000
2018-12-04,9.350000381469727,9.350000381469727,7.170000076293945,7.170000076293945,7.170000076293945,59700
2018-12-06,7.179999828338623,8.0,7.179999828338623,7.980000019073486,7.980000019073486,25200
2018-12-07,7.880000114440918,7.980000019073486,7.5,7.53000020980835,7.53000020980835,5800
2018-12-10,7.559999942779541,7.699999809265137,7.5,7.5,7.5,8100
2018-12-11,7.510000228881836,7.510000228881836,6.619999885559082,7.0,7.0,33700
2018-12-12,7.079999923706055,7.440000057220459,6.650000095367432,7.0,7.0,20900
2018-12-13,7.0,7.0,6.510000228881836,6.550000190734863,6.550000190734863,9800
2018-12-14,6.550000190734863,6.690000057220459,6.5,6.5,6.5,2700
2018-12-17,6.5,6.96999979019165,6.349999904632568,6.679999828338623,6.679999828338623,29700
2018-12-18,6.730000019073486,6.769999980926514,6.420000076293945,6.440000057220459,6.440000057220459,1700
2018-12-19,6.5,6.53000020980835,6.440000057220459,6.5,6.5,14700
2018-12-20,6.5,6.590000152587891,6.010000228881836,6.099999904632568,6.099999904632568,20400
2018-12-21,6.570000171661377,6.570000171661377,6.0,6.0,6.0,12000
2018-12-24,6.070000171661377,6.409999847412109,6.070000171661377,6.150000095367432,6.150000095367432,1200
2018-12-26,6.25,6.380000114440918,6.010000228881836,6.369999885559082,6.369999885559082,5500
2018-12-27,6.269999980926514,6.269999980926514,6.019999980926514,6.03000020980835,6.03000020980835,1900
2018-12-28,6.170000076293945,6.260000228881836,6.050000190734863,6.050000190734863,6.050000190734863,7800
2018-12-31,6.150000095367432,6.150000095367432,6.139999866485596,6.139999866485596,6.139999866485596,4700
2019-01-02,6.019999980926514,6.110000133514404,6.0,6.0,6.0,4100
2019-01-03,6.019999980926514,6.050000190734863,5.949999809265137,6.050000190734863,6.050000190734863,4700
2019-01-04,6.050000190734863,6.96999979019165,6.050000190734863,6.78000020980835,6.78000020980835,10300
2019-01-07,6.800000190734863,7.0,6.550000190734863,7.0,7.0,10100
2019-01-08,7.0,9.760000228881836,6.900000095367432,9.550000190734863,9.550000190734863,60300
2019-01-09,9.5600004196167,10.800000190734863,9.5,9.619999885559082,9.619999885559082,38500
2019-01-10,9.75,9.989999771118164,9.5600004196167,9.84000015258789,9.84000015258789,6000
2019-01-11,9.829999923706055,9.899999618530273,9.449999809265137,9.899999618530273,9.899999618530273,2800
2019-01-14,9.800000190734863,9.800000190734863,9.5,9.789999961853027,9.789999961853027,6600
2019-01-15,9.800000190734863,9.800000190734863,9.039999961853027,9.3100004196167,9.3100004196167,8900
2019-01-16,9.3100004196167,9.3100004196167,8.520000457763672,8.520000457763672,8.520000457763672,9500
2019-01-17,8.470000267028809,8.470000267028809,8.170000076293945,8.170000076293945,8.170000076293945,10000
2019-01-18,8.050000190734863,8.050000190734863,7.5,7.53000020980835,7.53000020980835,29300
2019-01-22,7.519999980926514,7.739999771118164,7.519999980926514,7.739999771118164,7.739999771118164,400
2019-01-23,7.909999847412109,8.199999809265137,7.909999847412109,8.100000381469727,8.100000381469727,1700
2019-01-24,8.550000190734863,9.470000267028809,8.550000190734863,8.800000190734863,8.800000190734863,12900
2019-01-25,8.949999809265137,9.25,8.699999809265137,8.699999809265137,8.699999809265137,6000
2019-01-28,8.09000015258789,8.789999961853027,8.09000015258789,8.489999771118164,8.489999771118164,2900
2019-01-29,8.600000381469727,9.029999732971191,8.600000381469727,9.029999732971191,9.029999732971191,800
2019-01-30,9.130000114440918,9.5,8.789999961853027,8.8100004196167,8.8100004196167,15900
2019-01-31,8.8100004196167,9.5,8.710000038146973,8.75,8.75,16800
2019-02-01,9.109999656677246,9.279999732971191,8.770000457763672,8.770000457763672,8.770000457763672,10600
2019-02-04,8.819999694824219,9.5,8.800000190734863,9.380000114440918,9.380000114440918,10800
2019-02-05,9.350000381469727,9.489999771118164,8.899999618530273,9.0,9.0,7200
2019-02-06,9.180000305175781,9.180000305175781,8.850000381469727,8.850000381469727,8.850000381469727,15200
2019-02-07,9.0,9.069999694824219,8.109999656677246,8.539999961853027,8.539999961853027,14200
2019-02-08,8.649999618530273,8.989999771118164,7.230000019073486,7.789999961853027,7.789999961853027,26500
2019-02-11,8.149999618530273,8.220000267028809,8.010000228881836,8.010000228881836,8.010000228881836,1900
2019-02-12,8.100000381469727,8.390000343322754,8.100000381469727,8.390000343322754,8.390000343322754,1800
2019-02-13,8.399999618530273,8.460000038146973,8.300000190734863,8.300000190734863,8.300000190734863,2200
2019-02-14,8.34000015258789,8.34000015258789,7.5,7.510000228881836,7.510000228881836,11700
2019-02-15,7.75,8.369999885559082,7.75,8.359999656677246,8.359999656677246,13700
2019-02-19,8.420000076293945,8.420000076293945,7.900000095367432,8.010000228881836,8.010000228881836,6900
2019-02-20,8.350000381469727,8.479999542236328,8.020000457763672,8.020000457763672,8.020000457763672,3300
2019-02-21,8.1899995803833,8.1899995803833,7.679999828338623,7.679999828338623,7.679999828338623,11600
2019-02-22,7.670000076293945,8.079999923706055,7.670000076293945,8.039999961853027,8.039999961853027,8100
2019-02-25,8.109999656677246,8.640000343322754,8.109999656677246,8.430000305175781,8.430000305175781,35500
2019-02-26,8.359999656677246,8.819999694824219,8.359999656677246,8.75,8.75,10100
2019-02-27,8.720000267028809,9.079999923706055,8.600000381469727,9.079999923706055,9.079999923706055,15600
2019-02-28,9.390000343322754,9.390000343322754,8.319999694824219,8.699999809265137,8.699999809265137,11000
2019-03-01,8.880000114440918,8.880000114440918,8.319999694824219,8.34000015258789,8.34000015258789,5200
2019-03-04,8.40999984741211,8.40999984741211,8.119999885559082,8.399999618530273,8.399999618530273,17000
2019-03-05,8.399999618530273,8.420000076293945,8.119999885559082,8.1899995803833,8.1899995803833,14000
2019-03-06,8.510000228881836,8.510000228881836,8.140000343322754,8.15999984741211,8.15999984741211,5400
2019-03-07,8.399999618530273,8.399999618530273,7.599999904632568,7.989999771118164,7.989999771118164,12900
2019-03-08,7.710000038146973,7.900000095367432,7.5,7.519999980926514,7.519999980926514,21900
2019-03-11,7.599999904632568,8.260000228881836,7.53000020980835,8.149999618530273,8.149999618530273,4500
2019-03-12,8.039999961853027,8.5,7.96999979019165,8.289999961853027,8.289999961853027,6300
2019-03-13,7.960000038146973,8.34000015258789,7.610000133514404,8.029999732971191,8.029999732971191,7300
2019-03-14,8.029999732971191,8.029999732971191,7.900000095367432,7.949999809265137,7.949999809265137,2400
2019-03-15,7.619999885559082,8.0,7.599999904632568,7.849999904632568,7.849999904632568,106500
2019-03-18,7.800000190734863,7.880000114440918,6.940000057220459,7.449999809265137,7.449999809265137,176000
2019-03-19,7.099999904632568,7.800000190734863,6.820000171661377,6.949999809265137,6.949999809265137,141700
2019-03-20,6.909999847412109,7.059999942779541,6.820000171661377,6.840000152587891,6.840000152587891,25600
2019-03-21,6.849999904632568,7.199999809265137,6.820000171661377,6.989999771118164,6.989999771118164,65800
2019-03-22,6.960000038146973,7.170000076293945,6.75,6.980000019073486,6.980000019073486,75600
2019-03-25,7.130000114440918,7.170000076293945,6.900000095367432,7.0,7.0,25300
2019-03-26,7.0,7.199999809265137,6.590000152587891,7.0,7.0,75000
2019-03-27,6.860000133514404,6.860000133514404,6.300000190734863,6.409999847412109,6.409999847412109,62800
2019-03-28,6.460000038146973,6.670000076293945,5.599999904632568,5.690000057220459,5.690000057220459,56400
2019-03-29,5.820000171661377,6.579999923706055,5.820000171661377,6.489999771118164,6.489999771118164,31100
2019-04-01,6.519999980926514,6.849999904632568,6.5,6.510000228881836,6.510000228881836,24600
2019-04-02,6.5,6.599999904632568,6.429999828338623,6.550000190734863,6.550000190734863,9600
2019-04-03,6.570000171661377,6.800000190734863,6.5,6.590000152587891,6.590000152587891,9100
2019-04-04,6.590000152587891,7.25,6.590000152587891,7.25,7.25,19400
2019-04-05,7.349999904632568,7.349999904632568,7.0,7.320000171661377,7.320000171661377,15800
2019-04-08,7.349999904632568,7.349999904632568,6.900000095367432,7.150000095367432,7.150000095367432,8200
2019-04-09,7.260000228881836,7.349999904632568,6.710000038146973,7.019999980926514,7.019999980926514,10900
2019-04-10,7.199999809265137,7.389999866485596,6.809999942779541,7.099999904632568,7.099999904632568,4100
2019-04-11,7.110000133514404,7.400000095367432,7.110000133514404,7.400000095367432,7.400000095367432,26100
2019-04-12,7.400000095367432,7.5,6.929999828338623,7.300000190734863,7.300000190734863,23000
2019-04-15,7.440000057220459,7.699999809265137,7.179999828338623,7.699999809265137,7.699999809265137,22900
2019-04-16,7.400000095367432,7.900000095367432,7.400000095367432,7.699999809265137,7.699999809265137,19800
2019-04-17,7.5,8.010000228881836,7.5,7.699999809265137,7.699999809265137,35700
2019-04-18,7.909999847412109,7.909999847412109,7.519999980926514,7.699999809265137,7.699999809265137,6400
2019-04-22,7.630000114440918,8.0,7.329999923706055,7.760000228881836,7.760000228881836,45800
2019-04-23,7.769999980926514,8.890000343322754,7.769999980926514,8.609999656677246,8.609999656677246,167400
2019-04-24,8.4399995803833,8.899999618530273,8.4399995803833,8.800000190734863,8.800000190734863,47300
2019-04-25,8.729999542236328,9.0,8.729999542236328,8.920000076293945,8.920000076293945,35600
2019-04-26,8.970000267028809,9.0,8.670000076293945,8.800000190734863,8.800000190734863,11900
2019-04-29,8.770000457763672,9.09000015258789,8.300000190734863,8.649999618530273,8.649999618530273,15200
2019-04-30,8.649999618530273,8.770000457763672,8.149999618530273,8.149999618530273,8.149999618530273,82700
2019-05-01,8.149999618530273,8.390000343322754,7.900000095367432,8.0,8.0,14400
2019-05-02,7.960000038146973,8.359999656677246,7.599999904632568,7.800000190734863,7.800000190734863,28500
2019-05-03,7.78000020980835,8.010000228881836,7.400000095367432,7.5,7.5,46200
2019-05-06,7.210000038146973,7.639999866485596,7.0,7.340000152587891,7.340000152587891,17400
2019-05-07,7.289999961853027,8.050000190734863,7.0,7.96999979019165,7.96999979019165,84500
2019-05-08,7.960000038146973,8.75,7.699999809265137,8.75,8.75,63800
2019-05-09,8.399999618530273,9.0,7.139999866485596,8.399999618530273,8.399999618530273,45900
2019-05-10,8.319999694824219,8.319999694824219,8.010000228881836,8.010000228881836,8.010000228881836,600
2019-05-13,7.730000019073486,8.039999961853027,7.730000019073486,8.039999961853027,8.039999961853027,8800
2019-05-14,8.09000015258789,8.149999618530273,8.069999694824219,8.149999618530273,8.149999618530273,1600
2019-05-15,8.149999618530273,8.699999809265137,8.109999656677246,8.260000228881836,8.260000228881836,7000
2019-05-16,8.359999656677246,8.489999771118164,7.519999980926514,8.430000305175781,8.430000305175781,38800
2019-05-17,8.5,9.0,8.350000381469727,8.989999771118164,8.989999771118164,55500
2019-05-20,8.90999984741211,9.199999809265137,8.199999809265137,9.0,9.0,41600
2019-05-21,8.979999542236328,9.0,8.420000076293945,8.710000038146973,8.710000038146973,45900
2019-05-22,8.619999885559082,8.890000343322754,8.619999885559082,8.649999618530273,8.649999618530273,8500
2019-05-23,8.619999885559082,8.670000076293945,8.220000267028809,8.609999656677246,8.609999656677246,19300
2019-05-24,8.529999732971191,8.579999923706055,8.229999542236328,8.5600004196167,8.5600004196167,11000
2019-05-28,8.520000457763672,8.65999984741211,8.020000457763672,8.34000015258789,8.34000015258789,22500
2019-05-29,8.239999771118164,8.550000190734863,8.239999771118164,8.25,8.25,1000
2019-05-30,8.039999961853027,8.239999771118164,7.900000095367432,8.0,8.0,15200
2019-05-31,7.809999942779541,8.430000305175781,7.639999866485596,7.909999847412109,7.909999847412109,30500
2019-06-03,7.960000038146973,8.0,7.650000095367432,7.690000057220459,7.690000057220459,7600
2019-06-04,7.650000095367432,7.860000133514404,7.420000076293945,7.599999904632568,7.599999904632568,26900
2019-06-05,7.53000020980835,7.53000020980835,7.119999885559082,7.21999979019165,7.21999979019165,12600
2019-06-06,7.159999847412109,7.349999904632568,7.099999904632568,7.349999904632568,7.349999904632568,7000
2019-06-07,7.349999904632568,7.349999904632568,7.159999847412109,7.159999847412109,7.159999847412109,6300
2019-06-10,7.199999809265137,7.659999847412109,7.179999828338623,7.400000095367432,7.400000095367432,9100
2019-06-11,7.320000171661377,7.449999809265137,6.639999866485596,7.0,7.0,32800
2019-06-12,7.059999942779541,7.25,6.800000190734863,7.21999979019165,7.21999979019165,13900
2019-06-13,7.210000038146973,7.210000038146973,6.809999942779541,6.849999904632568,6.849999904632568,33500
2019-06-14,6.699999809265137,6.920000076293945,6.699999809265137,6.800000190734863,6.800000190734863,5300
2019-06-17,6.679999828338623,6.849999904632568,6.679999828338623,6.75,6.75,6300
2019-06-18,6.650000095367432,6.809999942779541,6.5,6.619999885559082,6.619999885559082,19800
2019-06-19,6.650000095367432,6.849999904632568,6.510000228881836,6.619999885559082,6.619999885559082,22000
2019-06-20,6.539999961853027,6.920000076293945,6.269999980926514,6.619999885559082,6.619999885559082,18900
2019-06-21,6.53000020980835,6.610000133514404,6.420000076293945,6.489999771118164,6.489999771118164,3000
2019-06-24,6.400000095367432,6.5,6.210000038146973,6.210000038146973,6.210000038146973,21300
2019-06-25,6.170000076293945,6.210000038146973,5.71999979019165,5.78000020980835,5.78000020980835,22100
2019-06-26,5.849999904632568,6.050000190734863,5.849999904632568,6.0,6.0,14700
2019-06-27,6.110000133514404,6.179999828338623,5.920000076293945,6.010000228881836,6.010000228881836,9200
2019-06-28,5.889999866485596,6.0,5.309999942779541,5.559999942779541,5.559999942779541,29200
2019-07-01,5.690000057220459,5.690000057220459,5.409999847412109,5.5,5.5,22900
2019-07-02,5.610000133514404,5.809999942779541,5.409999847412109,5.449999809265137,5.449999809265137,134900
2019-07-03,5.650000095367432,5.739999771118164,5.340000152587891,5.340000152587891,5.340000152587891,30200
2019-07-05,5.46999979019165,5.46999979019165,5.360000133514404,5.360000133514404,5.360000133514404,27400
2019-07-08,5.389999866485596,5.389999866485596,5.090000152587891,5.159999847412109,5.159999847412109,20600
2019-07-09,5.150000095367432,5.159999847412109,5.090000152587891,5.099999904632568,5.099999904632568,21400
2019-07-10,5.260000228881836,5.260000228881836,5.010000228881836,5.010000228881836,5.010000228881836,13300
2019-07-11,5.119999885559082,5.170000076293945,5.0,5.0,5.0,9600
2019-07-12,5.119999885559082,5.119999885559082,5.099999904632568,5.099999904632568,5.099999904632568,1200
2019-07-15,5.25,5.25,4.960000038146973,4.989999771118164,4.989999771118164,15600
2019-07-16,4.960000038146973,5.070000171661377,4.849999904632568,4.849999904632568,4.849999904632568,37500
2019-07-17,4.900000095367432,4.900000095367432,4.630000114440918,4.75,4.75,16800
2019-07-18,4.820000171661377,4.820000171661377,4.599999904632568,4.650000095367432,4.650000095367432,3200
2019-07-19,4.650000095367432,4.75,4.420000076293945,4.550000190734863,4.550000190734863,22200
2019-07-22,4.489999771118164,4.539999961853027,4.010000228881836,4.070000171661377,4.070000171661377,89400
2019-07-23,4.099999904632568,4.110000133514404,4.0,4.070000171661377,4.070000171661377,24900
2019-07-24,4.070000171661377,4.070000171661377,3.990000009536743,4.050000190734863,4.050000190734863,17700
2019-07-25,4.010000228881836,4.039999961853027,3.859999895095825,3.880000114440918,3.880000114440918,2500
2019-07-26,3.8499999046325684,3.990000009536743,3.5399999618530273,3.759999990463257,3.759999990463257,63000
2019-07-29,3.6600000858306885,4.179999828338623,3.6600000858306885,4.0,4.0,11800
2019-07-30,4.079999923706055,4.079999923706055,3.700000047683716,3.7100000381469727,3.7100000381469727,8700
2019-07-31,3.7100000381469727,3.9000000953674316,3.640000104904175,3.9000000953674316,3.9000000953674316,13800
2019-08-01,3.7699999809265137,3.7699999809265137,3.359999895095825,3.5,3.5,37700
2019-08-02,3.4200000762939453,3.619999885559082,3.4200000762939453,3.5299999713897705,3.5299999713897705,4600
2019-08-05,3.509999990463257,3.6700000762939453,3.509999990463257,3.549999952316284,3.549999952316284,6900
2019-08-06,3.640000104904175,3.6600000858306885,3.4000000953674316,3.5,3.5,16100
2019-08-07,3.380000114440918,3.5399999618530273,3.3499999046325684,3.5,3.5,23500
2019-08-08,3.5999999046325684,3.6500000953674316,3.259999990463257,3.3499999046325684,3.3499999046325684,20300
2019-08-09,3.2899999618530273,3.380000114440918,3.25,3.25,3.25,7900
2019-08-12,3.190000057220459,3.4800000190734863,3.190000057220459,3.25,3.25,7100
2019-08-13,3.1700000762939453,3.25,3.009999990463257,3.0799999237060547,3.0799999237060547,28700
2019-08-14,3.0199999809265137,3.130000114440918,2.5999999046325684,3.0,3.0,66500
2019-08-15,3.0999999046325684,3.2300000190734863,2.549999952316284,2.7899999618530273,2.7899999618530273,310300
2019-08-16,2.950000047683716,3.059999942779541,2.950000047683716,2.950000047683716,2.950000047683716,38500
2019-08-19,2.9100000858306885,3.069999933242798,2.8499999046325684,2.859999895095825,2.859999895095825,24400
2019-08-20,2.9000000953674316,3.0,2.799999952316284,2.890000104904175,2.890000104904175,41500
2019-08-21,2.809999942779541,2.990000009536743,2.809999942779541,2.880000114440918,2.880000114440918,26000
2019-08-22,2.809999942779541,2.9100000858306885,2.809999942779541,2.819999933242798,2.819999933242798,7700
2019-08-23,2.7899999618530273,3.1500000953674316,2.690000057220459,2.690000057220459,2.690000057220459,366800
2019-08-26,2.690000057220459,2.809999942779541,2.690000057220459,2.700000047683716,2.700000047683716,33800
2019-08-27,2.700000047683716,2.799999952316284,2.680000066757202,2.700000047683716,2.700000047683716,11500
2019-08-28,2.630000114440918,2.7200000286102295,2.2899999618530273,2.619999885559082,2.619999885559082,47100
2019-08-29,2.6500000953674316,2.700000047683716,2.640000104904175,2.690000057220459,2.690000057220459,13700
2019-08-30,2.640000104904175,2.7100000381469727,2.5999999046325684,2.6500000953674316,2.6500000953674316,26400
2019-09-03,2.490000009536743,2.5999999046325684,2.3299999237060547,2.4000000953674316,2.4000000953674316,45500
2019-09-04,2.380000114440918,2.549999952316284,2.3499999046325684,2.4200000762939453,2.4200000762939453,43600
2019-09-05,2.4700000286102295,2.4700000286102295,2.309999942779541,2.430000066757202,2.430000066757202,27500
2019-09-06,2.369999885559082,2.430000066757202,2.299999952316284,2.299999952316284,2.299999952316284,30200
2019-09-09,2.359999895095825,3.1500000953674316,2.3399999141693115,3.0799999237060547,3.0799999237060547,298600
2019-09-10,2.950000047683716,5.21999979019165,2.950000047683716,4.989999771118164,4.989999771118164,1882600
2019-09-11,4.25,4.940000057220459,4.050000190734863,4.599999904632568,4.599999904632568,420500
2019-09-12,4.559999942779541,6.179999828338623,4.409999847412109,5.690000057220459,5.690000057220459,392200
2019-09-13,5.550000190734863,7.050000190734863,4.800000190734863,4.849999904632568,4.849999904632568,619800
2019-09-16,4.820000171661377,5.349999904632568,4.610000133514404,4.78000020980835,4.78000020980835,84800
2019-09-17,4.75,4.889999866485596,4.260000228881836,4.440000057220459,4.440000057220459,67100
2019-09-18,4.409999847412109,4.869999885559082,4.320000171661377,4.739999771118164,4.739999771118164,22000
2019-09-19,4.800000190734863,5.079999923706055,4.5,4.519999980926514,4.519999980926514,30800
2019-09-20,4.519999980926514,4.860000133514404,4.5,4.699999809265137,4.699999809265137,16600
2019-09-23,4.590000152587891,5.25,4.590000152587891,4.949999809265137,4.949999809265137,59900
2019-09-24,4.809999942779541,5.059999942779541,4.809999942779541,4.909999847412109,4.909999847412109,32100
2019-09-25,4.980000019073486,5.139999866485596,4.710000038146973,4.809999942779541,4.809999942779541,20800
2019-09-26,4.71999979019165,5.260000228881836,4.71999979019165,5.019999980926514,5.019999980926514,68300
2019-09-27,4.800000190734863,5.5,4.75,4.800000190734863,4.800000190734863,139900
2019-09-30,4.730000019073486,5.300000190734863,4.570000171661377,4.869999885559082,4.869999885559082,137800
2019-10-01,4.829999923706055,5.110000133514404,4.829999923706055,4.849999904632568,4.849999904632568,37400
2019-10-02,4.929999828338623,5.099999904632568,4.800000190734863,4.940000057220459,4.940000057220459,31900
2019-10-03,4.989999771118164,5.0,4.809999942779541,4.820000171661377,4.820000171661377,16600
2019-10-04,4.809999942779541,5.0,4.809999942779541,4.920000076293945,4.920000076293945,14400
2019-10-07,4.989999771118164,5.179999828338623,4.869999885559082,4.909999847412109,4.909999847412109,23300
2019-10-08,4.909999847412109,5.039999961853027,4.909999847412109,5.039999961853027,5.039999961853027,400
2019-10-09,4.909999847412109,5.059999942779541,4.909999847412109,5.03000020980835,5.03000020980835,20400
2019-10-10,4.920000076293945,4.960000038146973,4.53000020980835,4.880000114440918,4.880000114440918,12700
2019-10-11,4.940000057220459,5.150000095367432,4.900000095367432,5.0,5.0,12500
2019-10-14,4.909999847412109,4.909999847412109,4.880000114440918,4.889999866485596,4.889999866485596,7500
2019-10-15,4.809999942779541,4.96999979019165,4.809999942779541,4.829999923706055,4.829999923706055,5800
2019-10-16,4.96999979019165,5.010000228881836,4.949999809265137,5.0,5.0,1800
2019-10-17,4.929999828338623,4.929999828338623,4.849999904632568,4.849999904632568,4.849999904632568,1200
2019-10-18,4.809999942779541,4.920000076293945,4.699999809265137,4.699999809265137,4.699999809265137,5600
2019-10-21,4.659999847412109,4.820000171661377,4.659999847412109,4.659999847412109,4.659999847412109,11100
2019-10-22,4.699999809265137,4.860000133514404,4.650000095367432,4.800000190734863,4.800000190734863,7400
2019-10-23,4.800000190734863,4.800000190734863,4.800000190734863,4.800000190734863,4.800000190734863,100
2019-10-24,4.75,4.800000190734863,4.75,4.75,4.75,2900
2019-10-25,4.75,4.869999885559082,4.559999942779541,4.559999942779541,4.559999942779541,18600
2019-10-28,4.550000190734863,4.699999809265137,4.510000228881836,4.559999942779541,4.559999942779541,12200
2019-10-29,4.559999942779541,4.820000171661377,4.559999942779541,4.559999942779541,4.559999942779541,9300
2019-10-30,4.590000152587891,4.590000152587891,4.429999828338623,4.449999809265137,4.449999809265137,21700
2019-10-31,4.5,4.769999980926514,4.5,4.659999847412109,4.659999847412109,10200
2019-11-01,4.639999866485596,4.639999866485596,4.53000020980835,4.53000020980835,4.53000020980835,500
2019-11-04,4.619999885559082,4.860000133514404,4.619999885559082,4.639999866485596,4.639999866485596,1200
2019-11-05,5.059999942779541,5.199999809265137,4.679999828338623,5.179999828338623,5.179999828338623,11000
2019-11-06,5.090000152587891,5.090000152587891,4.71999979019165,4.71999979019165,4.71999979019165,5100
2019-11-07,4.769999980926514,4.78000020980835,4.760000228881836,4.78000020980835,4.78000020980835,1300
2019-11-08,4.710000038146973,5.389999866485596,4.710000038146973,5.260000228881836,5.260000228881836,12100
2019-11-11,5.179999828338623,5.260000228881836,4.659999847412109,5.260000228881836,5.260000228881836,24000
2019-11-12,5.150000095367432,5.579999923706055,5.150000095367432,5.579999923706055,5.579999923706055,6000
2019-11-13,5.5,5.690000057220459,5.150000095367432,5.289999961853027,5.289999961853027,18900
2019-11-14,5.5,5.5,4.639999866485596,5.0,5.0,37000
2019-11-15,4.96999979019165,5.21999979019165,4.96999979019165,5.199999809265137,5.199999809265137,17500
2019-11-18,5.03000020980835,5.199999809265137,5.0,5.199999809265137,5.199999809265137,8800
2019-11-19,5.159999847412109,5.239999771118164,5.019999980926514,5.199999809265137,5.199999809265137,10200
2019-11-20,5.150000095367432,5.199999809265137,5.0,5.179999828338623,5.179999828338623,11200
2019-11-21,5.170000076293945,5.179999828338623,5.0,5.170000076293945,5.170000076293945,7900
2019-11-22,5.119999885559082,5.170000076293945,5.0,5.099999904632568,5.099999904632568,23000
2019-11-25,5.050000190734863,5.050000190734863,4.789999961853027,5.050000190734863,5.050000190734863,15200
2019-11-26,4.960000038146973,5.190000057220459,4.960000038146973,5.099999904632568,5.099999904632568,27700
2019-11-27,5.0,5.070000171661377,4.960000038146973,5.0,5.0,30900
2019-11-29,4.960000038146973,5.130000114440918,4.960000038146973,5.110000133514404,5.110000133514404,5400
2019-12-02,5.099999904632568,5.199999809265137,5.010000228881836,5.150000095367432,5.150000095367432,12500
2019-12-03,5.019999980926514,5.050000190734863,4.849999904632568,5.010000228881836,5.010000228881836,17200
2019-12-04,5.050000190734863,5.050000190734863,4.860000133514404,5.0,5.0,9100
2019-12-05,5.010000228881836,5.099999904632568,5.0,5.099999904632568,5.099999904632568,7300
2019-12-06,5.070000171661377,5.090000152587891,5.0,5.050000190734863,5.050000190734863,7700
2019-12-09,5.099999904632568,5.119999885559082,4.909999847412109,5.110000133514404,5.110000133514404,21600
2019-12-10,5.110000133514404,5.110000133514404,4.659999847412109,5.0,5.0,40900
2019-12-11,4.889999866485596,5.0,4.75,4.75,4.75,17200
2019-12-12,4.800000190734863,5.059999942779541,4.760000228881836,4.880000114440918,4.880000114440918,15100
2019-12-13,5.03000020980835,5.03000020980835,4.820000171661377,4.980000019073486,4.980000019073486,5800
2019-12-16,4.960000038146973,5.010000228881836,4.929999828338623,4.929999828338623,4.929999828338623,1300
2019-12-17,4.869999885559082,5.03000020980835,4.869999885559082,5.03000020980835,5.03000020980835,13100
2019-12-18,5.03000020980835,5.03000020980835,5.03000020980835,5.03000020980835,5.03000020980835,0
2019-12-19,5.03000020980835,5.03000020980835,5.03000020980835,5.03000020980835,5.03000020980835,0
2019-12-20,5.019999980926514,5.110000133514404,5.019999980926514,5.110000133514404,5.110000133514404,5000
2019-12-23,4.96999979019165,5.150000095367432,4.960000038146973,5.150000095367432,5.150000095367432,8200
2019-12-24,5.150000095367432,5.199999809265137,4.900000095367432,5.159999847412109,5.159999847412109,49900
2019-12-26,5.059999942779541,5.300000190734863,4.460000038146973,5.269999980926514,5.269999980926514,223300
2019-12-27,5.300000190734863,6.900000095367432,5.0,6.75,6.75,89600
2019-12-30,5.460000038146973,6.940000057220459,5.03000020980835,6.449999809265137,6.449999809265137,194500
2019-12-31,5.840000152587891,7.010000228881836,5.150000095367432,6.730000019073486,6.730000019073486,437500
2020-01-02,6.159999847412109,6.78000020980835,5.980000019073486,6.239999771118164,6.239999771118164,39100
2020-01-03,6.070000171661377,6.46999979019165,6.0,6.199999809265137,6.199999809265137,26200
2020-01-06,6.320000171661377,6.320000171661377,6.130000114440918,6.130000114440918,6.130000114440918,6400
2020-01-07,6.010000228881836,7.150000095367432,6.010000228881836,6.929999828338623,6.929999828338623,54800
2020-01-08,6.949999809265137,7.25,6.199999809265137,6.380000114440918,6.380000114440918,50900
2020-01-09,6.53000020980835,6.909999847412109,6.449999809265137,6.5,6.5,37000
2020-01-10,6.699999809265137,6.889999866485596,6.21999979019165,6.559999942779541,6.559999942779541,28600
2020-01-13,6.699999809265137,6.760000228881836,6.210000038146973,6.440000057220459,6.440000057220459,27100
2020-01-14,6.260000228881836,6.460000038146973,6.260000228881836,6.460000038146973,6.460000038146973,5600
2020-01-15,6.449999809265137,6.550000190734863,6.440000057220459,6.449999809265137,6.449999809265137,8500
2020-01-16,6.570000171661377,6.860000133514404,6.309999942779541,6.53000020980835,6.53000020980835,34000
2020-01-17,7.059999942779541,7.059999942779541,6.460000038146973,6.630000114440918,6.630000114440918,35100
2020-01-21,6.650000095367432,6.980000019073486,6.5,6.920000076293945,6.920000076293945,54800
2020-01-22,7.170000076293945,7.199999809265137,6.71999979019165,7.0,7.0,48900
2020-01-23,7.190000057220459,7.190000057220459,6.0,6.699999809265137,6.699999809265137,661200
2020-01-24,6.639999866485596,7.059999942779541,6.289999961853027,6.630000114440918,6.630000114440918,51700
2020-01-27,7.019999980926514,7.070000171661377,6.559999942779541,7.0,7.0,334900
2020-01-28,6.929999828338623,8.050000190734863,6.610000133514404,8.0,8.0,258500
2020-01-29,8.100000381469727,8.699999809265137,6.75,7.150000095367432,7.150000095367432,1202600
2020-01-30,7.139999866485596,7.420000076293945,6.039999961853027,6.309999942779541,6.309999942779541,946700
2020-01-31,6.210000038146973,6.519999980926514,5.550000190734863,5.550000190734863,5.550000190734863,132700
2020-02-03,5.610000133514404,5.840000152587891,5.329999923706055,5.550000190734863,5.550000190734863,85900
2020-02-04,5.659999847412109,5.769999980926514,5.309999942779541,5.619999885559082,5.619999885559082,106300
2020-02-05,5.610000133514404,5.619999885559082,5.320000171661377,5.53000020980835,5.53000020980835,41100
2020-02-06,5.510000228881836,5.690000057220459,5.329999923706055,5.429999828338623,5.429999828338623,19000
2020-02-07,5.380000114440918,5.510000228881836,5.309999942779541,5.46999979019165,5.46999979019165,18100
2020-02-10,5.46999979019165,5.46999979019165,5.320000171661377,5.349999904632568,5.349999904632568,19600
2020-02-11,5.400000095367432,5.590000152587891,5.320000171661377,5.460000038146973,5.460000038146973,30000
2020-02-12,5.519999980926514,5.820000171661377,5.489999771118164,5.610000133514404,5.610000133514404,29100
2020-02-13,5.610000133514404,6.099999904632568,5.539999961853027,5.630000114440918,5.630000114440918,34500
2020-02-14,5.679999828338623,6.059999942779541,5.679999828338623,6.03000020980835,6.03000020980835,147800
2020-02-18,6.0,7.199999809265137,5.78000020980835,7.199999809265137,7.199999809265137,2144000
2020-02-19,6.960000038146973,7.190000057220459,6.329999923706055,6.900000095367432,6.900000095367432,1579800
2020-02-20,6.760000228881836,7.5,6.710000038146973,7.159999847412109,7.159999847412109,54300
2020-02-21,7.079999923706055,7.079999923706055,6.21999979019165,6.760000228881836,6.760000228881836,1944800
2020-02-24,6.550000190734863,6.840000152587891,6.380000114440918,6.599999904632568,6.599999904632568,1242400
2020-02-25,6.590000152587891,7.039999961853027,6.510000228881836,6.739999771118164,6.739999771118164,59700
2020-02-26,6.739999771118164,6.900000095367432,6.619999885559082,6.679999828338623,6.679999828338623,29700
2020-02-27,6.630000114440918,6.75,6.0,6.550000190734863,6.550000190734863,3205900
2020-02-28,6.449999809265137,6.679999828338623,6.25,6.510000228881836,6.510000228881836,31700
2020-03-02,6.46999979019165,6.869999885559082,6.03000020980835,6.78000020980835,6.78000020980835,2401500
2020-03-03,6.71999979019165,7.349999904632568,6.550000190734863,7.010000228881836,7.010000228881836,378700
2020-03-04,7.090000152587891,7.460000038146973,6.050000190734863,6.170000076293945,6.170000076293945,1528600
2020-03-05,6.179999828338623,6.559999942779541,6.110000133514404,6.179999828338623,6.179999828338623,139600
2020-03-06,6.090000152587891,6.340000152587891,5.949999809265137,6.079999923706055,6.079999923706055,93700
2020-03-09,5.840000152587891,5.860000133514404,5.409999847412109,5.699999809265137,5.699999809265137,93200
2020-03-10,5.909999847412109,6.239999771118164,5.860000133514404,6.099999904632568,6.099999904632568,130800
2020-03-11,6.059999942779541,6.550000190734863,6.0,6.550000190734863,6.550000190734863,64700
2020-03-12,6.269999980926514,6.699999809265137,6.010000228881836,6.329999923706055,6.329999923706055,197900
2020-03-13,6.380000114440918,6.510000228881836,6.03000020980835,6.389999866485596,6.389999866485596,60100
2020-03-16,5.809999942779541,7.199999809265137,5.309999942779541,6.710000038146973,6.710000038146973,967200
2020-03-17,6.550000190734863,6.820000171661377,5.889999866485596,6.400000095367432,6.400000095367432,148100
2020-03-18,6.099999904632568,6.489999771118164,5.610000133514404,5.900000095367432,5.900000095367432,44900
2020-03-19,5.940000057220459,6.360000133514404,5.380000114440918,5.78000020980835,5.78000020980835,85700
2020-03-20,5.940000057220459,6.199999809265137,5.619999885559082,6.099999904632568,6.099999904632568,49700
2020-03-23,6.099999904632568,6.139999866485596,5.550000190734863,5.940000057220459,5.940000057220459,80000
2020-03-24,5.96999979019165,6.75,5.570000171661377,6.559999942779541,6.559999942779541,1854000
2020-03-25,6.269999980926514,6.760000228881836,6.010000228881836,6.320000171661377,6.320000171661377,96000
2020-03-26,5.960000038146973,6.929999828338623,5.880000114440918,6.769999980926514,6.769999980926514,217300
2020-03-27,6.900000095367432,6.940000057220459,6.510000228881836,6.699999809265137,6.699999809265137,64200
2020-03-30,6.409999847412109,6.739999771118164,6.210000038146973,6.349999904632568,6.349999904632568,54000
2020-03-31,6.21999979019165,6.699999809265137,6.150000095367432,6.610000133514404,6.610000133514404,813400
2020-04-01,6.670000076293945,6.949999809265137,6.510000228881836,6.599999904632568,6.599999904632568,53600
2020-04-02,6.489999771118164,6.78000020980835,6.340000152587891,6.610000133514404,6.610000133514404,106400
2020-04-03,6.590000152587891,6.75,6.300000190734863,6.550000190734863,6.550000190734863,53600
2020-04-06,6.599999904632568,6.989999771118164,6.369999885559082,6.840000152587891,6.840000152587891,156100
2020-04-07,6.840000152587891,7.21999979019165,6.570000171661377,7.199999809265137,7.199999809265137,129100
2020-04-08,7.25,7.25,6.820000171661377,7.159999847412109,7.159999847412109,154400
2020-04-09,7.110000133514404,7.599999904632568,7.050000190734863,7.5,7.5,120600
2020-04-13,7.639999866485596,7.639999866485596,7.170000076293945,7.440000057220459,7.440000057220459,70400
2020-04-14,7.369999885559082,7.599999904632568,7.300000190734863,7.460000038146973,7.460000038146973,81400
2020-04-15,7.28000020980835,7.599999904632568,7.25,7.53000020980835,7.53000020980835,63000
2020-04-16,7.5,7.599999904632568,7.190000057220459,7.409999847412109,7.409999847412109,25000
2020-04-17,7.429999828338623,7.599999904632568,6.539999961853027,7.550000190734863,7.550000190734863,767100
2020-04-20,7.710000038146973,7.710000038146973,7.21999979019165,7.539999961853027,7.539999961853027,104200
2020-04-21,7.53000020980835,7.590000152587891,6.920000076293945,7.050000190734863,7.050000190734863,35400
2020-04-22,7.199999809265137,7.449999809265137,7.010000228881836,7.389999866485596,7.389999866485596,5600
2020-04-23,7.329999923706055,7.329999923706055,6.639999866485596,6.760000228881836,6.760000228881836,59000
2020-04-24,6.909999847412109,7.0,6.340000152587891,6.5,6.5,39200
2020-04-27,6.599999904632568,7.71999979019165,6.25,7.46999979019165,7.46999979019165,1928500
2020-04-28,7.590000152587891,7.590000152587891,6.650000095367432,7.119999885559082,7.119999885559082,73000
2020-04-29,7.159999847412109,7.489999771118164,7.059999942779541,7.489999771118164,7.489999771118164,76000
2020-04-30,7.480000019073486,7.699999809265137,7.130000114440918,7.599999904632568,7.599999904632568,36100
2020-05-01,7.380000114440918,7.739999771118164,7.230000019073486,7.230000019073486,7.230000019073486,19600
2020-05-04,7.300000190734863,7.599999904632568,7.050000190734863,7.599999904632568,7.599999904632568,103300
2020-05-05,7.75,7.75,7.119999885559082,7.420000076293945,7.420000076293945,73700
2020-05-06,7.429999828338623,7.5,7.289999961853027,7.480000019073486,7.480000019073486,13900
2020-05-07,7.360000133514404,7.739999771118164,7.340000152587891,7.599999904632568,7.599999904632568,24400
2020-05-08,7.739999771118164,7.739999771118164,6.909999847412109,7.53000020980835,7.53000020980835,476600
2020-05-11,7.590000152587891,7.590000152587891,7.309999942779541,7.440000057220459,7.440000057220459,25600
2020-05-12,7.440000057220459,7.480000019073486,7.170000076293945,7.170000076293945,7.170000076293945,23000
2020-05-13,7.21999979019165,7.71999979019165,7.21999979019165,7.610000133514404,7.610000133514404,38600
2020-05-14,7.980000019073486,7.980000019073486,7.349999904632568,7.599999904632568,7.599999904632568,51700
2020-05-15,7.630000114440918,7.690000057220459,7.429999828338623,7.610000133514404,7.610000133514404,28800
2020-05-18,7.679999828338623,7.730000019073486,7.300000190734863,7.610000133514404,7.610000133514404,93600
2020-05-19,7.670000076293945,7.690000057220459,7.300000190734863,7.639999866485596,7.639999866485596,53700
2020-05-20,7.650000095367432,7.650000095367432,7.300000190734863,7.300000190734863,7.300000190734863,70100
2020-05-21,7.539999961853027,7.619999885559082,7.380000114440918,7.46999979019165,7.46999979019165,98000
2020-05-22,7.460000038146973,7.460000038146973,6.900000095367432,7.090000152587891,7.090000152587891,181900
2020-05-26,7.340000152587891,7.5,7.010000228881836,7.400000095367432,7.400000095367432,46500
2020-05-27,7.360000133514404,7.650000095367432,7.309999942779541,7.639999866485596,7.639999866485596,61700
2020-05-28,7.78000020980835,7.78000020980835,7.519999980926514,7.559999942779541,7.559999942779541,66200
2020-05-29,7.460000038146973,7.650000095367432,7.050000190734863,7.400000095367432,7.400000095367432,1175500
2020-06-01,7.369999885559082,7.440000057220459,7.150000095367432,7.239999771118164,7.239999771118164,34900
2020-06-02,7.199999809265137,7.599999904632568,7.050000190734863,7.420000076293945,7.420000076293945,50400
2020-06-03,7.329999923706055,7.429999828338623,7.179999828338623,7.289999961853027,7.289999961853027,21300
2020-06-04,7.199999809265137,7.389999866485596,7.119999885559082,7.130000114440918,7.130000114440918,18300
2020-06-05,7.150000095367432,7.340000152587891,7.0,7.0,7.0,54600
2020-06-08,7.010000228881836,7.139999866485596,7.0,7.099999904632568,7.099999904632568,37800
2020-06-09,7.050000190734863,7.170000076293945,6.920000076293945,6.96999979019165,6.96999979019165,19700
2020-06-10,6.960000038146973,7.070000171661377,6.960000038146973,7.03000020980835,7.03000020980835,35600
2020-06-11,7.0,7.039999961853027,6.21999979019165,6.320000171661377,6.320000171661377,641500
2020-06-12,6.510000228881836,6.75,6.369999885559082,6.380000114440918,6.380000114440918,68300
2020-06-15,6.420000076293945,6.820000171661377,6.409999847412109,6.619999885559082,6.619999885559082,35700
2020-06-16,6.809999942779541,6.829999923706055,6.639999866485596,6.829999923706055,6.829999923706055,34900
2020-06-17,6.960000038146973,6.989999771118164,6.670000076293945,6.860000133514404,6.860000133514404,24000
2020-06-18,6.809999942779541,6.840000152587891,6.519999980926514,6.690000057220459,6.690000057220459,31700
2020-06-19,6.940000057220459,6.940000057220459,6.610000133514404,6.860000133514404,6.860000133514404,50800
2020-06-22,6.860000133514404,6.869999885559082,6.300000190734863,6.420000076293945,6.420000076293945,256500
2020-06-23,6.429999828338623,6.619999885559082,6.380000114440918,6.590000152587891,6.590000152587891,26100
2020-06-24,6.579999923706055,6.880000114440918,6.25,6.340000152587891,6.340000152587891,337700
2020-06-25,6.369999885559082,6.800000190734863,6.099999904632568,6.21999979019165,6.21999979019165,271400
2020-06-26,6.199999809265137,6.889999866485596,6.050000190734863,6.78000020980835,6.78000020980835,560700
2020-06-29,6.769999980926514,6.809999942779541,6.340000152587891,6.440000057220459,6.440000057220459,30300
2020-06-30,6.269999980926514,6.75,6.170000076293945,6.349999904632568,6.349999904632568,49800
2020-07-01,6.400000095367432,6.650000095367432,6.260000228881836,6.329999923706055,6.329999923706055,10500
2020-07-02,6.329999923706055,6.659999847412109,6.159999847412109,6.380000114440918,6.380000114440918,37900
2020-07-06,6.5,6.679999828338623,6.5,6.679999828338623,6.679999828338623,27500
2020-07-07,6.710000038146973,6.800000190734863,6.599999904632568,6.730000019073486,6.730000019073486,30800
2020-07-08,6.679999828338623,6.75,6.519999980926514,6.739999771118164,6.739999771118164,21900
2020-07-09,6.75,6.800000190734863,6.699999809265137,6.739999771118164,6.739999771118164,26100
2020-07-10,6.78000020980835,6.78000020980835,6.690000057220459,6.739999771118164,6.739999771118164,65800
2020-07-13,6.800000190734863,6.809999942779541,6.340000152587891,6.480000019073486,6.480000019073486,91400
2020-07-14,6.489999771118164,6.800000190734863,6.190000057220459,6.639999866485596,6.639999866485596,30200
2020-07-15,6.690000057220459,6.840000152587891,6.25,6.309999942779541,6.309999942779541,960400
2020-07-16,6.309999942779541,6.619999885559082,6.309999942779541,6.53000020980835,6.53000020980835,136000
2020-07-17,6.53000020980835,6.75,6.53000020980835,6.71999979019165,6.71999979019165,133300
2020-07-20,6.730000019073486,6.889999866485596,6.570000171661377,6.699999809265137,6.699999809265137,153200
2020-07-21,6.880000114440918,6.920000076293945,6.670000076293945,6.840000152587891,6.840000152587891,185000
2020-07-22,6.800000190734863,6.849999904632568,6.710000038146973,6.800000190734863,6.800000190734863,84000
2020-07-23,6.800000190734863,6.840000152587891,6.260000228881836,6.289999961853027,6.289999961853027,164400
2020-07-24,6.300000190734863,6.389999866485596,6.079999923706055,6.139999866485596,6.139999866485596,98600
2020-07-27,6.340000152587891,6.489999771118164,6.159999847412109,6.269999980926514,6.269999980926514,54500
2020-07-28,6.21999979019165,6.519999980926514,6.21999979019165,6.46999979019165,6.46999979019165,57200
2020-07-29,6.480000019073486,6.550000190734863,6.380000114440918,6.389999866485596,6.389999866485596,12300
2020-07-30,6.510000228881836,6.510000228881836,6.349999904632568,6.389999866485596,6.389999866485596,15800
2020-07-31,6.409999847412109,6.579999923706055,6.409999847412109,6.46999979019165,6.46999979019165,18700
2020-08-03,6.429999828338623,6.480000019073486,6.260000228881836,6.309999942779541,6.309999942779541,21300
2020-08-04,6.28000020980835,6.53000020980835,6.28000020980835,6.440000057220459,6.440000057220459,12900
2020-08-05,6.429999828338623,6.510000228881836,6.429999828338623,6.46999979019165,6.46999979019165,16000
2020-08-06,6.489999771118164,6.610000133514404,6.440000057220459,6.480000019073486,6.480000019073486,21600
2020-08-07,6.420000076293945,6.53000020980835,6.420000076293945,6.429999828338623,6.429999828338623,17500
2020-08-10,6.46999979019165,6.789999961853027,6.460000038146973,6.789999961853027,6.789999961853027,34900
2020-08-11,6.829999923706055,6.909999847412109,6.559999942779541,6.739999771118164,6.739999771118164,96900
2020-08-12,6.730000019073486,6.800000190734863,6.550000190734863,6.559999942779541,6.559999942779541,27800
2020-08-13,6.599999904632568,6.679999828338623,6.28000020980835,6.679999828338623,6.679999828338623,24600
2020-08-14,6.579999923706055,6.579999923706055,6.440000057220459,6.53000020980835,6.53000020980835,8200
2020-08-17,6.679999828338623,6.860000133514404,6.570000171661377,6.699999809265137,6.699999809265137,40100
2020-08-18,6.710000038146973,6.949999809265137,6.409999847412109,6.769999980926514,6.769999980926514,658600
2020-08-19,6.760000228881836,6.840000152587891,6.659999847412109,6.75,6.75,77800
2020-08-20,6.880000114440918,7.71999979019165,6.860000133514404,7.329999923706055,7.329999923706055,451600
2020-08-21,7.329999923706055,7.329999923706055,6.590000152587891,6.880000114440918,6.880000114440918,312500
2020-08-24,6.989999771118164,6.989999771118164,6.309999942779541,6.559999942779541,6.559999942779541,217300
2020-08-25,6.440000057220459,6.440000057220459,6.199999809265137,6.28000020980835,6.28000020980835,73700
2020-08-26,6.239999771118164,6.519999980926514,6.239999771118164,6.420000076293945,6.420000076293945,33400
2020-08-27,6.369999885559082,6.489999771118164,6.21999979019165,6.25,6.25,48000
2020-08-28,6.239999771118164,6.400000095367432,6.110000133514404,6.139999866485596,6.139999866485596,39700
2020-08-31,6.139999866485596,6.260000228881836,6.0,6.159999847412109,6.159999847412109,73500
2020-09-01,6.099999904632568,6.230000019073486,6.039999961853027,6.21999979019165,6.21999979019165,15500
2020-09-02,6.190000057220459,6.230000019073486,6.099999904632568,6.230000019073486,6.230000019073486,27500
2020-09-03,6.150000095367432,6.28000020980835,6.150000095367432,6.179999828338623,6.179999828338623,27200
2020-09-04,6.170000076293945,6.170000076293945,5.820000171661377,5.960000038146973,5.960000038146973,52100
2020-09-08,5.929999828338623,5.980000019073486,5.199999809265137,5.449999809265137,5.449999809265137,128800
2020-09-09,5.619999885559082,5.960000038146973,5.519999980926514,5.760000228881836,5.760000228881836,34000
2020-09-10,5.800000190734863,5.989999771118164,5.639999866485596,5.730000019073486,5.730000019073486,72700
2020-09-11,5.71999979019165,5.71999979019165,5.289999961853027,5.570000171661377,5.570000171661377,33500
2020-09-14,5.570000171661377,6.340000152587891,5.420000076293945,5.75,5.75,1131200
2020-09-15,5.849999904632568,5.960000038146973,5.730000019073486,5.920000076293945,5.920000076293945,15100
2020-09-16,5.909999847412109,5.96999979019165,5.710000038146973,5.889999866485596,5.889999866485596,28800
2020-09-17,5.78000020980835,6.010000228881836,5.78000020980835,5.949999809265137,5.949999809265137,14300
2020-09-18,6.0,6.099999904632568,5.840000152587891,5.900000095367432,5.900000095367432,33900
2020-09-21,5.949999809265137,6.639999866485596,5.900000095367432,6.590000152587891,6.590000152587891,61500
2020-09-22,6.590000152587891,6.590000152587891,6.0,6.0,6.0,31200
2020-09-23,6.010000228881836,6.190000057220459,5.789999961853027,5.829999923706055,5.829999923706055,28400
2020-09-24,5.929999828338623,6.139999866485596,5.909999847412109,6.03000020980835,6.03000020980835,13100
2020-09-25,6.0,6.139999866485596,5.96999979019165,6.119999885559082,6.119999885559082,8900
2020-09-28,6.179999828338623,6.179999828338623,6.079999923706055,6.170000076293945,6.170000076293945,11700
2020-09-29,6.170000076293945,6.170000076293945,6.050000190734863,6.150000095367432,6.150000095367432,3700
2020-09-30,6.079999923706055,6.409999847412109,6.070000171661377,6.199999809265137,6.199999809265137,8100
2020-10-01,6.190000057220459,6.420000076293945,6.159999847412109,6.320000171661377,6.320000171661377,11400
2020-10-02,6.199999809265137,6.440000057220459,6.199999809265137,6.230000019073486,6.230000019073486,26000
2020-10-05,6.260000228881836,6.800000190734863,6.25,6.800000190734863,6.800000190734863,94300
2020-10-06,6.849999904632568,6.849999904632568,6.710000038146973,6.789999961853027,6.789999961853027,59000
2020-10-07,6.800000190734863,6.849999904632568,6.449999809265137,6.650000095367432,6.650000095367432,25100
2020-10-08,6.739999771118164,6.840000152587891,6.559999942779541,6.570000171661377,6.570000171661377,11100
2020-10-09,6.550000190734863,6.800000190734863,6.550000190734863,6.570000171661377,6.570000171661377,32400
2020-10-12,6.550000190734863,6.710000038146973,6.519999980926514,6.630000114440918,6.630000114440918,7900
2020-10-13,6.579999923706055,6.730000019073486,6.519999980926514,6.519999980926514,6.519999980926514,32800
2020-10-14,6.5,6.78000020980835,6.5,6.5,6.5,31000
2020-10-15,6.650000095367432,6.889999866485596,6.28000020980835,6.570000171661377,6.570000171661377,589600
2020-10-16,6.53000020980835,6.800000190734863,6.510000228881836,6.800000190734863,6.800000190734863,36800
2020-10-19,6.710000038146973,7.119999885559082,6.519999980926514,6.789999961853027,6.789999961853027,549100
2020-10-20,6.800000190734863,6.949999809265137,6.659999847412109,6.800000190734863,6.800000190734863,97400
2020-10-21,6.809999942779541,7.190000057220459,6.619999885559082,7.0,7.0,1533100
2020-10-22,6.980000019073486,7.150000095367432,6.900000095367432,7.050000190734863,7.050000190734863,784000
2020-10-23,7.0,7.159999847412109,6.829999923706055,7.0,7.0,81600
2020-10-26,6.880000114440918,7.070000171661377,6.800000190734863,6.820000171661377,6.820000171661377,48000
2020-10-27,6.829999923706055,6.900000095367432,6.809999942779541,6.840000152587891,6.840000152587891,23900
2020-10-28,6.800000190734863,6.96999979019165,6.800000190734863,6.809999942779541,6.809999942779541,36500
2020-10-29,6.820000171661377,7.0,6.820000171661377,7.0,7.0,24300
2020-10-30,6.989999771118164,7.099999904632568,6.940000057220459,6.940000057220459,6.940000057220459,39400
2020-11-02,7.0,7.099999904632568,6.489999771118164,6.539999961853027,6.539999961853027,186200
2020-11-03,6.519999980926514,6.78000020980835,6.309999942779541,6.510000228881836,6.510000228881836,78300
2020-11-04,6.510000228881836,6.730000019073486,6.380000114440918,6.559999942779541,6.559999942779541,43300
2020-11-05,6.71999979019165,7.0,6.510000228881836,6.639999866485596,6.639999866485596,301300
2020-11-06,6.860000133514404,7.059999942779541,6.690000057220459,6.840000152587891,6.840000152587891,89900
2020-11-09,6.900000095367432,7.019999980926514,6.840000152587891,7.019999980926514,7.019999980926514,75700
2020-11-10,7.0,7.099999904632568,6.829999923706055,7.03000020980835,7.03000020980835,40100
2020-11-11,7.099999904632568,7.5,7.0,7.449999809265137,7.449999809265137,44600
2020-11-12,7.449999809265137,7.5,7.079999923706055,7.199999809265137,7.199999809265137,60700
2020-11-13,7.170000076293945,7.309999942779541,7.070000171661377,7.269999980926514,7.269999980926514,43000
2020-11-16,7.380000114440918,7.389999866485596,7.099999904632568,7.159999847412109,7.159999847412109,172700
2020-11-17,7.21999979019165,7.400000095367432,7.139999866485596,7.25,7.25,167500
2020-11-18,7.300000190734863,7.340000152587891,7.119999885559082,7.150000095367432,7.150000095367432,31400
2020-11-19,7.389999866485596,7.539999961853027,7.110000133514404,7.199999809265137,7.199999809265137,265600
2020-11-20,7.25,7.25,6.800000190734863,6.800000190734863,6.800000190734863,71300
2020-11-23,6.889999866485596,7.139999866485596,6.800000190734863,6.96999979019165,6.96999979019165,71800
2020-11-24,7.0,7.090000152587891,6.809999942779541,6.860000133514404,6.860000133514404,64000
2020-11-25,6.820000171661377,6.989999771118164,6.599999904632568,6.75,6.75,81100
2020-11-27,6.900000095367432,7.309999942779541,6.900000095367432,7.139999866485596,7.139999866485596,80400
2020-11-30,7.010000228881836,7.110000133514404,6.909999847412109,7.110000133514404,7.110000133514404,92300
2020-12-01,7.059999942779541,7.119999885559082,6.900000095367432,6.900000095367432,6.900000095367432,61300
2020-12-02,6.769999980926514,6.920000076293945,6.769999980926514,6.769999980926514,6.769999980926514,60400
2020-12-03,6.78000020980835,6.880000114440918,6.639999866485596,6.659999847412109,6.659999847412109,57800
2020-12-04,6.699999809265137,6.800000190734863,6.53000020980835,6.539999961853027,6.539999961853027,90100
2020-12-07,6.539999961853027,6.710000038146973,6.309999942779541,6.489999771118164,6.489999771118164,101900
2020-12-08,6.5,6.570000171661377,6.409999847412109,6.539999961853027,6.539999961853027,22600
2020-12-09,6.769999980926514,6.769999980926514,6.369999885559082,6.460000038146973,6.460000038146973,49500
2020-12-10,6.940000057220459,6.980000019073486,6.630000114440918,6.760000228881836,6.760000228881836,76500
2020-12-11,6.760000228881836,6.880000114440918,6.440000057220459,6.5,6.5,65200
2020-12-14,6.389999866485596,6.489999771118164,6.260000228881836,6.340000152587891,6.340000152587891,57100
2020-12-15,6.309999942779541,6.360000133514404,6.159999847412109,6.170000076293945,6.170000076293945,49400
2020-12-16,6.320000171661377,6.369999885559082,6.139999866485596,6.28000020980835,6.28000020980835,33700
2020-12-17,6.28000020980835,6.820000171661377,6.28000020980835,6.5,6.5,438000
2020-12-18,6.5,6.699999809265137,6.369999885559082,6.400000095367432,6.400000095367432,60900
2020-12-21,6.420000076293945,6.519999980926514,6.420000076293945,6.460000038146973,6.460000038146973,23700
2020-12-22,6.679999828338623,6.679999828338623,6.429999828338623,6.510000228881836,6.510000228881836,31600
2020-12-23,6.699999809265137,6.75,6.510000228881836,6.590000152587891,6.590000152587891,673100
2020-12-24,6.539999961853027,7.079999923706055,6.5,6.929999828338623,6.929999828338623,375200
2020-12-28,6.869999885559082,6.949999809265137,6.670000076293945,6.699999809265137,6.699999809265137,95500
2020-12-29,6.699999809265137,7.0,6.550000190734863,6.960000038146973,6.960000038146973,61600
2020-12-30,6.909999847412109,7.039999961853027,6.599999904632568,6.860000133514404,6.860000133514404,832500
