Date,Open,High,Low,Close,Adj Close,Volume
2020-02-25,3.799999952316284,4.300000190734863,3.799999952316284,4.03000020980835,4.03000020980835,234000
2020-02-26,4.170000076293945,4.489999771118164,3.819999933242798,4.130000114440918,4.130000114440918,783200
2020-02-27,4.130000114440918,4.1539998054504395,3.809999942779541,3.9000000953674316,3.9000000953674316,325800
2020-02-28,3.9200000762939453,4.0,3.549999952316284,3.9100000858306885,3.9100000858306885,188400
2020-03-02,3.990000009536743,4.0,3.5799999237060547,3.5999999046325684,3.5999999046325684,82900
2020-03-03,3.609999895095825,3.890000104904175,3.450000047683716,3.4800000190734863,3.4800000190734863,37700
2020-03-04,3.5199999809265137,3.690000057220459,3.130000114440918,3.5,3.5,107500
2020-03-05,3.490000009536743,3.490000009536743,3.200000047683716,3.2100000381469727,3.2100000381469727,40700
2020-03-06,3.109999895095825,3.3480000495910645,2.625,2.9100000858306885,2.9100000858306885,111500
2020-03-09,2.6700000762939453,3.0999999046325684,1.8700000047683716,2.2699999809265137,2.2699999809265137,183900
2020-03-10,2.5999999046325684,2.753000020980835,2.0299999713897705,2.319999933242798,2.319999933242798,59600
2020-03-11,2.4200000762939453,2.5450000762939453,2.1500000953674316,2.3299999237060547,2.3299999237060547,85900
2020-03-12,2.140000104904175,3.5,2.0999999046325684,2.3610000610351562,2.3610000610351562,25200
2020-03-13,2.4000000953674316,2.7200000286102295,2.1500000953674316,2.3499999046325684,2.3499999046325684,54600
2020-03-16,1.9299999475479126,2.3399999141693115,1.899999976158142,2.3299999237060547,2.3299999237060547,10200
2020-03-17,2.1480000019073486,2.4700000286102295,2.0999999046325684,2.4600000381469727,2.4600000381469727,26000
2020-03-18,2.6500000953674316,2.6500000953674316,2.0999999046325684,2.200000047683716,2.200000047683716,18100
2020-03-19,2.1700000762939453,2.3499999046325684,2.140000104904175,2.2799999713897705,2.2799999713897705,14600
2020-03-20,2.2799999713897705,2.2799999713897705,2.0,2.0899999141693115,2.0899999141693115,40500
2020-03-23,2.2699999809265137,3.0999999046325684,2.119999885559082,2.369999885559082,2.369999885559082,348300
2020-03-24,2.240000009536743,2.446000099182129,2.2109999656677246,2.2200000286102295,2.2200000286102295,30200
2020-03-25,2.190000057220459,2.450000047683716,2.1589999198913574,2.4200000762939453,2.4200000762939453,38000
2020-03-26,2.4200000762939453,2.490000009536743,2.2699999809265137,2.4000000953674316,2.4000000953674316,20400
2020-03-27,2.4000000953674316,2.4700000286102295,2.3499999046325684,2.4119999408721924,2.4119999408721924,12700
2020-03-30,2.440000057220459,2.565000057220459,2.259999990463257,2.2799999713897705,2.2799999713897705,15500
2020-03-31,2.5799999237060547,2.5799999237060547,2.3399999141693115,2.450000047683716,2.450000047683716,2700
2020-04-01,2.6480000019073486,2.6480000019073486,2.2100000381469727,2.2100000381469727,2.2100000381469727,54200
2020-04-02,2.3299999237060547,2.380000114440918,2.2049999237060547,2.3499999046325684,2.3499999046325684,17700
2020-04-03,2.4189999103546143,2.4189999103546143,2.25,2.380000114440918,2.380000114440918,20500
2020-04-06,2.440000057220459,2.5,2.25,2.4000000953674316,2.4000000953674316,25200
2020-04-07,2.3350000381469727,2.5399999618530273,2.0999999046325684,2.3499999046325684,2.3499999046325684,22000
2020-04-08,2.3320000171661377,2.4200000762939453,2.25,2.380000114440918,2.380000114440918,17700
2020-04-09,2.25,2.4700000286102295,2.183000087738037,2.4000000953674316,2.4000000953674316,6000
2020-04-13,2.4800000190734863,2.4800000190734863,2.2100000381469727,2.380000114440918,2.380000114440918,17400
2020-04-14,2.4200000762939453,2.450000047683716,2.2200000286102295,2.309999942779541,2.309999942779541,12800
2020-04-15,2.4000000953674316,2.4000000953674316,2.2899999618530273,2.4000000953674316,2.4000000953674316,22000
2020-04-16,2.4000000953674316,2.4000000953674316,2.2899999618530273,2.3399999141693115,2.3399999141693115,11600
2020-04-17,2.390000104904175,2.4000000953674316,2.2899999618530273,2.359999895095825,2.359999895095825,25900
2020-04-20,2.365999937057495,2.380000114440918,2.3010001182556152,2.380000114440918,2.380000114440918,8800
2020-04-21,2.380000114440918,2.380000114440918,2.25600004196167,2.299999952316284,2.299999952316284,10800
2020-04-22,2.380000114440918,2.4000000953674316,2.25,2.299999952316284,2.299999952316284,11700
2020-04-23,2.4000000953674316,2.4000000953674316,2.2799999713897705,2.368000030517578,2.368000030517578,12400
2020-04-24,2.390000104904175,2.450000047683716,2.299999952316284,2.4200000762939453,2.4200000762939453,15100
2020-04-27,2.450000047683716,2.5999999046325684,2.2699999809265137,2.299999952316284,2.299999952316284,63100
2020-04-28,2.2799999713897705,2.450000047683716,2.25,2.4000000953674316,2.4000000953674316,36400
2020-04-29,2.374000072479248,2.4000000953674316,2.1500000953674316,2.2339999675750732,2.2339999675750732,31800
2020-04-30,2.369999885559082,2.369999885559082,2.0899999141693115,2.240000009536743,2.240000009536743,24500
2020-05-01,2.2699999809265137,2.2699999809265137,2.0810000896453857,2.25,2.25,26000
2020-05-04,2.25,2.299999952316284,2.059999942779541,2.190000057220459,2.190000057220459,13100
2020-05-05,2.0999999046325684,2.2799999713897705,2.049999952316284,2.0999999046325684,2.0999999046325684,18600
2020-05-06,2.184999942779541,2.184999942779541,2.049999952316284,2.0899999141693115,2.0899999141693115,5100
2020-05-07,2.0299999713897705,2.1700000762939453,2.0,2.055000066757202,2.055000066757202,13900
2020-05-08,2.053999900817871,2.200000047683716,1.9700000286102295,2.059999942779541,2.059999942779541,46300
2020-05-11,2.1500000953674316,2.1500000953674316,1.9900000095367432,2.0799999237060547,2.0799999237060547,10000
2020-05-12,2.049999952316284,2.109999895095825,1.7999999523162842,2.0250000953674316,2.0250000953674316,14800
2020-05-13,2.009999990463257,2.200000047683716,1.9930000305175781,2.075000047683716,2.075000047683716,21800
2020-05-14,2.1050000190734863,2.1050000190734863,1.8300000429153442,2.069999933242798,2.069999933242798,47200
2020-05-15,2.059999942779541,2.059999942779541,1.9900000095367432,2.009999990463257,2.009999990463257,31200
2020-05-18,1.9199999570846558,1.9800000190734863,1.7999999523162842,1.850000023841858,1.850000023841858,16800
2020-05-19,1.7999999523162842,2.0999999046325684,1.6299999952316284,2.0,2.0,25900
2020-05-20,2.015000104904175,2.1500000953674316,1.8700000047683716,1.909999966621399,1.909999966621399,50800
2020-05-21,2.0799999237060547,2.0799999237060547,1.850000023841858,1.8700000047683716,1.8700000047683716,8800
2020-05-22,2.0199999809265137,2.0199999809265137,1.899999976158142,1.9500000476837158,1.9500000476837158,24400
2020-05-26,2.0399999618530273,2.0399999618530273,1.809999942779541,1.8300000429153442,1.8300000429153442,26400
2020-05-27,1.850000023841858,1.8700000047683716,1.7100000381469727,1.7899999618530273,1.7899999618530273,17900
2020-05-28,1.7599999904632568,1.8799999952316284,1.75,1.8600000143051147,1.8600000143051147,51800
2020-05-29,1.8700000047683716,2.0999999046325684,1.7829999923706055,2.0999999046325684,2.0999999046325684,41100
2020-06-01,1.899999976158142,2.200000047683716,1.899999976158142,2.190000057220459,2.190000057220459,39400
2020-06-02,2.1600000858306885,2.200000047683716,2.0820000171661377,2.200000047683716,2.200000047683716,29200
2020-06-03,2.200000047683716,2.390000104904175,2.200000047683716,2.375,2.375,42900
2020-06-04,2.4000000953674316,2.4000000953674316,2.369999885559082,2.390000104904175,2.390000104904175,15900
2020-06-05,2.390000104904175,2.450000047683716,2.390000104904175,2.430000066757202,2.430000066757202,12600
2020-06-08,2.6600000858306885,2.890000104904175,2.309999942779541,2.6500000953674316,2.6500000953674316,96700
2020-06-09,2.6700000762939453,2.880000114440918,2.299999952316284,2.390000104904175,2.390000104904175,50800
2020-06-10,2.4800000190734863,2.5399999618530273,2.2699999809265137,2.430000066757202,2.430000066757202,34900
2020-06-11,2.4200000762939453,2.7699999809265137,2.069999933242798,2.200000047683716,2.200000047683716,137700
2020-06-12,2.4000000953674316,2.450000047683716,2.234999895095825,2.240000009536743,2.240000009536743,23600
2020-06-15,2.240000009536743,2.319999933242798,2.2100000381469727,2.2100000381469727,2.2100000381469727,41000
2020-06-16,2.2100000381469727,2.3399999141693115,2.1600000858306885,2.190000057220459,2.190000057220459,28800
2020-06-17,2.25,2.25,2.1700000762939453,2.180000066757202,2.180000066757202,13600
2020-06-18,2.2249999046325684,2.240000009536743,2.1600000858306885,2.180000066757202,2.180000066757202,10400
2020-06-19,2.2200000286102295,2.2200000286102295,2.180000066757202,2.180000066757202,2.180000066757202,11100
2020-06-22,2.25,2.5,2.180000066757202,2.2200000286102295,2.2200000286102295,145300
2020-06-23,2.2799999713897705,2.2899999618530273,2.240000009536743,2.2899999618530273,2.2899999618530273,11700
2020-06-24,2.325000047683716,2.325000047683716,2.200000047683716,2.200000047683716,2.200000047683716,16500
2020-06-25,2.2699999809265137,2.2699999809265137,2.200000047683716,2.240000009536743,2.240000009536743,14400
2020-06-26,2.2799999713897705,2.2799999713897705,2.190000057220459,2.190000057220459,2.190000057220459,9000
2020-06-29,2.240000009536743,2.2799999713897705,2.0199999809265137,2.1600000858306885,2.1600000858306885,28300
2020-06-30,2.190000057220459,2.2300000190734863,2.109999895095825,2.180000066757202,2.180000066757202,17900
2020-07-01,2.180000066757202,2.4200000762939453,2.140000104904175,2.190000057220459,2.190000057220459,7100
2020-07-02,2.259999990463257,2.259999990463257,2.119999885559082,2.1600000858306885,2.1600000858306885,6200
2020-07-06,2.2899999618530273,2.4000000953674316,2.180999994277954,2.2799999713897705,2.2799999713897705,13300
2020-07-07,2.3399999141693115,2.380000114440918,2.2699999809265137,2.2799999713897705,2.2799999713897705,8100
2020-07-08,2.369999885559082,2.369999885559082,2.180000066757202,2.2799999713897705,2.2799999713897705,8300
2020-07-09,2.2699999809265137,2.299999952316284,2.240000009536743,2.2699999809265137,2.2699999809265137,23900
2020-07-10,2.3499999046325684,2.390000104904175,2.2200000286102295,2.3399999141693115,2.3399999141693115,17900
2020-07-13,2.390000104904175,2.759999990463257,2.319999933242798,2.424999952316284,2.424999952316284,135600
2020-07-14,2.430000066757202,2.5199999809265137,2.299999952316284,2.4600000381469727,2.4600000381469727,50200
2020-07-15,2.569999933242798,2.5899999141693115,2.4700000286102295,2.509999990463257,2.509999990463257,139300
2020-07-16,2.5999999046325684,2.5999999046325684,2.5,2.5199999809265137,2.5199999809265137,36800
2020-07-17,2.5999999046325684,2.5999999046325684,2.4000000953674316,2.5,2.5,50200
2020-07-20,2.490000009536743,2.569999933242798,2.490000009536743,2.549999952316284,2.549999952316284,37600
2020-07-21,2.5999999046325684,2.5999999046325684,2.430000066757202,2.5,2.5,49900
2020-07-22,2.5,2.5899999141693115,2.5,2.5399999618530273,2.5399999618530273,26600
2020-07-23,2.549999952316284,2.690000057220459,2.549999952316284,2.549999952316284,2.549999952316284,48700
2020-07-24,2.549999952316284,2.575000047683716,2.5,2.5,2.5,15800
2020-07-27,2.569999933242798,2.569999933242798,2.4800000190734863,2.4800000190734863,2.4800000190734863,37100
2020-07-28,2.4700000286102295,2.5250000953674316,2.2899999618530273,2.3399999141693115,2.3399999141693115,11500
2020-07-29,2.4100000858306885,2.5199999809265137,2.259999990463257,2.3320000171661377,2.3320000171661377,13900
2020-07-30,2.4200000762939453,2.484999895095825,2.319999933242798,2.319999933242798,2.319999933242798,5900
2020-07-31,2.5199999809265137,2.5199999809265137,2.3499999046325684,2.4100000858306885,2.4100000858306885,8500
2020-08-03,2.4800000190734863,2.4800000190734863,2.3499999046325684,2.4000000953674316,2.4000000953674316,10200
2020-08-04,2.9800000190734863,5.25,2.619999885559082,2.8499999046325684,2.8499999046325684,17400300
2020-08-05,2.7200000286102295,2.7899999618530273,2.3299999237060547,2.440000057220459,2.440000057220459,662300
2020-08-06,2.5,2.549999952316284,2.25,2.430000066757202,2.430000066757202,398000
2020-08-07,2.390000104904175,2.4800000190734863,2.299999952316284,2.3399999141693115,2.3399999141693115,181600
2020-08-10,2.2899999618530273,2.4700000286102295,2.2699999809265137,2.309999942779541,2.309999942779541,291700
2020-08-11,2.390000104904175,2.390000104904175,2.240000009536743,2.259999990463257,2.259999990463257,105300
2020-08-12,2.2699999809265137,2.3399999141693115,2.0999999046325684,2.1600000858306885,2.1600000858306885,240000
2020-08-13,2.119999885559082,2.2100000381469727,2.0999999046325684,2.180000066757202,2.180000066757202,134500
2020-08-14,2.140000104904175,2.2300000190734863,2.109999895095825,2.2200000286102295,2.2200000286102295,78600
2020-08-17,2.259999990463257,2.299999952316284,2.0799999237060547,2.109999895095825,2.109999895095825,116000
2020-08-18,2.0799999237060547,2.2100000381469727,2.0799999237060547,2.1700000762939453,2.1700000762939453,58300
2020-08-19,2.130000114440918,2.2200000286102295,2.119999885559082,2.180000066757202,2.180000066757202,44200
2020-08-20,2.0999999046325684,2.240000009536743,2.0999999046325684,2.240000009536743,2.240000009536743,26800
2020-08-21,2.2100000381469727,2.2899999618530273,2.130000114440918,2.194999933242798,2.194999933242798,55400
2020-08-24,2.2850000858306885,2.2850000858306885,2.0999999046325684,2.180000066757202,2.180000066757202,122000
2020-08-25,2.1700000762939453,2.2300000190734863,2.0799999237060547,2.2200000286102295,2.2200000286102295,43000
2020-08-26,2.190000057220459,2.200000047683716,2.119999885559082,2.1500000953674316,2.1500000953674316,68300
2020-08-27,2.140000104904175,2.200000047683716,2.009999990463257,2.109999895095825,2.109999895095825,39700
2020-08-28,2.180000066757202,2.180000066757202,2.0299999713897705,2.0799999237060547,2.0799999237060547,54200
2020-08-31,2.1500000953674316,2.1500000953674316,2.0,2.0299999713897705,2.0299999713897705,53300
2020-09-01,2.0,2.0899999141693115,1.850000023841858,1.9299999475479126,1.9299999475479126,139800
2020-09-02,1.899999976158142,1.9800000190734863,1.8200000524520874,1.8700000047683716,1.8700000047683716,40400
2020-09-03,1.940000057220459,1.940000057220459,1.7999999523162842,1.8200000524520874,1.8200000524520874,36200
2020-09-04,1.8200000524520874,1.9299999475479126,1.590000033378601,1.7200000286102295,1.7200000286102295,59300
2020-09-08,1.6699999570846558,1.7599999904632568,1.6699999570846558,1.7100000381469727,1.7100000381469727,14400
2020-09-09,1.8700000047683716,1.8700000047683716,1.7100000381469727,1.75,1.75,38700
2020-09-10,1.8300000429153442,1.8300000429153442,1.7000000476837158,1.7339999675750732,1.7339999675750732,12900
2020-09-11,1.7300000190734863,1.850000023841858,1.7300000190734863,1.7400000095367432,1.7400000095367432,18200
2020-09-14,1.7300000190734863,1.7899999618530273,1.649999976158142,1.7799999713897705,1.7799999713897705,26400
2020-09-15,1.899999976158142,1.899999976158142,1.659999966621399,1.7699999809265137,1.7699999809265137,9400
2020-09-16,1.809999942779541,1.8200000524520874,1.7400000095367432,1.8200000524520874,1.8200000524520874,4000
2020-09-17,1.649999976158142,1.7999999523162842,1.649999976158142,1.774999976158142,1.774999976158142,49500
2020-09-18,1.75,1.850000023841858,1.690000057220459,1.7599999904632568,1.7599999904632568,12100
2020-09-21,1.8700000047683716,1.8700000047683716,1.715000033378601,1.7400000095367432,1.7400000095367432,12600
2020-09-22,1.7899999618530273,1.7899999618530273,1.7100000381469727,1.7699999809265137,1.7699999809265137,13300
2020-09-23,1.8300000429153442,1.8300000429153442,1.659999966621399,1.75,1.75,7800
2020-09-24,1.75,1.7699999809265137,1.6100000143051147,1.7699999809265137,1.7699999809265137,10300
2020-09-25,1.7799999713897705,1.7799999713897705,1.7200000286102295,1.75,1.75,7800
2020-09-28,1.8300000429153442,1.8300000429153442,1.6799999475479126,1.7400000095367432,1.7400000095367432,7000
2020-09-29,1.7400000095367432,1.7400000095367432,1.690000057220459,1.7400000095367432,1.7400000095367432,2400
2020-09-30,1.840000033378601,1.840000033378601,1.6799999475479126,1.7239999771118164,1.7239999771118164,9900
2020-10-01,1.840000033378601,1.840000033378601,1.6799999475479126,1.715000033378601,1.715000033378601,12600
2020-10-02,1.7000000476837158,1.7000000476837158,1.6699999570846558,1.7000000476837158,1.7000000476837158,15100
2020-10-05,1.659999966621399,1.7400000095367432,1.659999966621399,1.7000000476837158,1.7000000476837158,4900
2020-10-06,1.7899999618530273,1.7899999618530273,1.6699999570846558,1.7300000190734863,1.7300000190734863,4800
2020-10-07,1.7300000190734863,1.7400000095367432,1.6799999475479126,1.7200000286102295,1.7200000286102295,1900
2020-10-08,1.7899999618530273,2.0399999618530273,1.6799999475479126,1.8200000524520874,1.8200000524520874,35400
2020-10-09,1.7740000486373901,1.7999999523162842,1.6699999570846558,1.7400000095367432,1.7400000095367432,32000
2020-10-12,1.7999999523162842,1.8200000524520874,1.7200000286102295,1.7300000190734863,1.7300000190734863,17700
2020-10-13,1.7799999713897705,1.7799999713897705,1.7100000381469727,1.7100000381469727,1.7100000381469727,4400
2020-10-14,1.7799999713897705,1.7799999713897705,1.75,1.75600004196167,1.75600004196167,2000
2020-10-15,1.75,1.75,1.690000057220459,1.7100000381469727,1.7100000381469727,5500
2020-10-16,1.8200000524520874,1.8200000524520874,1.6799999475479126,1.7300000190734863,1.7300000190734863,18200
2020-10-19,1.7999999523162842,2.0399999618530273,1.7799999713897705,1.809999942779541,1.809999942779541,100800
2020-10-20,1.7999999523162842,2.0299999713897705,1.7569999694824219,1.9199999570846558,1.9199999570846558,113200
2020-10-21,1.9199999570846558,1.9700000286102295,1.8300000429153442,1.8600000143051147,1.8600000143051147,38700
2020-10-22,1.9299999475479126,1.940000057220459,1.8600000143051147,1.9049999713897705,1.9049999713897705,7400
2020-10-23,1.9500000476837158,1.9500000476837158,1.8450000286102295,1.8899999856948853,1.8899999856948853,5200
2020-10-26,1.9199999570846558,1.940000057220459,1.8200000524520874,1.940000057220459,1.940000057220459,4700
2020-10-27,1.7999999523162842,1.9199999570846558,1.7999999523162842,1.899999976158142,1.899999976158142,27800
2020-10-28,1.8200000524520874,1.899999976158142,1.7100000381469727,1.7999999523162842,1.7999999523162842,21500
2020-10-29,1.7699999809265137,1.8600000143051147,1.7300000190734863,1.8250000476837158,1.8250000476837158,4400
2020-10-30,1.7100000381469727,1.8200000524520874,1.7000000476837158,1.7100000381469727,1.7100000381469727,10500
2020-11-02,1.840000033378601,1.840000033378601,1.7200000286102295,1.7799999713897705,1.7799999713897705,6200
2020-11-03,1.8300000429153442,1.8300000429153442,1.7000000476837158,1.7599999904632568,1.7599999904632568,1600
2020-11-04,1.809999942779541,1.809999942779541,1.7359999418258667,1.7899999618530273,1.7899999618530273,1600
2020-11-05,1.809999942779541,1.9249999523162842,1.7549999952316284,1.899999976158142,1.899999976158142,10600
2020-11-06,1.8600000143051147,1.909999966621399,1.805999994277954,1.8600000143051147,1.8600000143051147,5700
2020-11-09,1.8200000524520874,1.8799999952316284,1.7300000190734863,1.8200000524520874,1.8200000524520874,9000
2020-11-10,1.850000023841858,1.850000023841858,1.7999999523162842,1.8200000524520874,1.8200000524520874,9100
2020-11-11,1.8300000429153442,1.899999976158142,1.7799999713897705,1.8799999952316284,1.8799999952316284,15300
2020-11-12,2.799999952316284,2.9800000190734863,2.0,2.1500000953674316,2.1500000953674316,13437300
2020-11-13,1.850000023841858,2.0399999618530273,1.7999999523162842,2.0199999809265137,2.0199999809265137,609100
2020-11-16,1.899999976158142,1.9700000286102295,1.850000023841858,1.8899999856948853,1.8899999856948853,156000
2020-11-17,1.8300000429153442,1.9500000476837158,1.7999999523162842,1.7999999523162842,1.7999999523162842,140500
2020-11-18,1.7999999523162842,1.8259999752044678,1.7100000381469727,1.7699999809265137,1.7699999809265137,110300
2020-11-19,1.7999999523162842,1.7999999523162842,1.7300000190734863,1.7599999904632568,1.7599999904632568,72900
2020-11-20,1.7699999809265137,1.850000023841858,1.7300000190734863,1.840000033378601,1.840000033378601,63300
2020-11-23,1.8300000429153442,1.840000033378601,1.7699999809265137,1.8200000524520874,1.8200000524520874,57000
2020-11-24,1.840000033378601,1.8600000143051147,1.7699999809265137,1.8200000524520874,1.8200000524520874,85000
2020-11-25,1.840000033378601,1.9199999570846558,1.7999999523162842,1.8200000524520874,1.8200000524520874,148300
2020-11-27,1.8200000524520874,1.8380000591278076,1.7799999713897705,1.8300000429153442,1.8300000429153442,44200
2020-11-30,1.840000033378601,1.840000033378601,1.7599999904632568,1.8250000476837158,1.8250000476837158,51600
2020-12-01,1.7999999523162842,1.8799999952316284,1.7999999523162842,1.8700000047683716,1.8700000047683716,167900
2020-12-02,1.8700000047683716,1.8700000047683716,1.7999999523162842,1.840000033378601,1.840000033378601,73100
2020-12-03,1.850000023841858,1.9700000286102295,1.850000023841858,1.9299999475479126,1.9299999475479126,281700
2020-12-04,1.909999966621399,1.909999966621399,1.7799999713897705,1.8200000524520874,1.8200000524520874,82500
2020-12-07,1.7999999523162842,1.8799999952316284,1.7799999713897705,1.7799999713897705,1.7799999713897705,48800
2020-12-08,1.7999999523162842,1.8300000429153442,1.7699999809265137,1.7999999523162842,1.7999999523162842,28700
2020-12-09,1.7699999809265137,1.7999999523162842,1.7400000095367432,1.7400000095367432,1.7400000095367432,41000
2020-12-10,1.7599999904632568,1.7899999618530273,1.7200000286102295,1.75,1.75,135700
2020-12-11,1.7200000286102295,1.7799999713897705,1.7000000476837158,1.7300000190734863,1.7300000190734863,49700
2020-12-14,1.7300000190734863,1.7300000190734863,1.659999966621399,1.7000000476837158,1.7000000476837158,61100
2020-12-15,1.715000033378601,1.7400000095367432,1.6699999570846558,1.7200000286102295,1.7200000286102295,24500
2020-12-16,1.7100000381469727,1.7699999809265137,1.6699999570846558,1.7100000381469727,1.7100000381469727,56500
2020-12-17,1.7100000381469727,2.190000057220459,1.7100000381469727,2.1050000190734863,2.1050000190734863,2603200
2020-12-18,2.0799999237060547,2.119999885559082,1.7599999904632568,1.809999942779541,1.809999942779541,1022300
2020-12-21,1.7200000286102295,1.809999942779541,1.7200000286102295,1.7899999618530273,1.7899999618530273,214600
2020-12-22,1.7599999904632568,1.8350000381469727,1.7400000095367432,1.7599999904632568,1.7599999904632568,218600
2020-12-23,1.75,1.8600000143051147,1.7400000095367432,1.8300000429153442,1.8300000429153442,261200
2020-12-24,1.7899999618530273,1.809999942779541,1.7400000095367432,1.7599999904632568,1.7599999904632568,68200
2020-12-28,1.7300000190734863,1.7899999618530273,1.7300000190734863,1.7599999904632568,1.7599999904632568,67200
2020-12-29,1.7400000095367432,1.7599999904632568,1.6799999475479126,1.7200000286102295,1.7200000286102295,177400
2020-12-30,1.7100000381469727,1.7999999523162842,1.7000000476837158,1.7200000286102295,1.7200000286102295,218200
