Date,Open,High,Low,Close,Adj Close,Volume
2017-08-09,18.1200008392334,18.690000534057617,17.440000534057617,17.81999969482422,17.81999969482422,1715000
2017-08-10,17.969999313354492,18.450000762939453,17.8700008392334,18.190000534057617,18.190000534057617,191900
2017-08-11,18.020000457763672,18.139999389648438,17.600000381469727,17.899999618530273,17.899999618530273,176000
2017-08-14,17.959999084472656,18.200000762939453,17.8799991607666,17.8799991607666,17.8799991607666,64600
2017-08-15,17.809999465942383,17.899999618530273,17.719999313354492,17.889999389648438,17.889999389648438,42500
2017-08-16,17.950000762939453,18.0,17.8700008392334,17.889999389648438,17.889999389648438,14200
2017-08-17,18.020000457763672,18.040000915527344,17.739999771118164,17.809999465942383,17.809999465942383,14800
2017-08-18,17.299999237060547,18.0,16.06999969482422,17.579999923706055,17.579999923706055,44000
2017-08-21,17.809999465942383,17.889999389648438,17.25,17.700000762939453,17.700000762939453,31600
2017-08-22,17.780000686645508,17.93000030517578,17.1299991607666,17.899999618530273,17.899999618530273,46700
2017-08-23,17.899999618530273,18.0,17.18000030517578,17.850000381469727,17.850000381469727,34500
2017-08-24,18.399999618530273,18.75,18.399999618530273,18.540000915527344,18.540000915527344,93300
2017-08-25,19.059999465942383,19.493000030517578,19.059999465942383,19.239999771118164,19.239999771118164,78400
2017-08-28,18.950000762939453,19.440000534057617,18.950000762939453,19.440000534057617,19.440000534057617,13500
2017-08-29,19.15999984741211,19.299999237060547,18.829999923706055,18.84000015258789,18.84000015258789,11300
2017-08-30,18.739999771118164,18.940000534057617,18.610000610351562,18.75,18.75,19600
2017-08-31,18.75,19.020000457763672,18.709999084472656,18.799999237060547,18.799999237060547,26100
2017-09-01,19.040000915527344,19.649999618530273,18.889999389648438,19.649999618530273,19.649999618530273,45800
2017-09-05,20.25,20.329999923706055,19.899999618530273,19.989999771118164,19.989999771118164,184900
2017-09-06,20.170000076293945,20.270000457763672,19.985000610351562,20.149999618530273,20.149999618530273,117700
2017-09-07,20.34000015258789,20.34000015258789,20.09000015258789,20.100000381469727,20.100000381469727,64000
2017-09-08,20.170000076293945,20.3700008392334,19.950000762939453,20.1200008392334,20.1200008392334,65600
2017-09-11,20.100000381469727,20.229999542236328,20.100000381469727,20.100000381469727,20.100000381469727,34000
2017-09-12,20.100000381469727,20.170000076293945,19.950000762939453,20.030000686645508,20.030000686645508,110700
2017-09-13,20.200000762939453,20.200000762939453,20.03499984741211,20.040000915527344,20.040000915527344,19300
2017-09-14,20.040000915527344,20.049999237060547,19.520000457763672,19.739999771118164,19.739999771118164,100000
2017-09-15,19.700000762939453,19.799999237060547,19.25,19.700000762939453,19.700000762939453,147700
2017-09-18,19.450000762939453,19.489999771118164,18.950000762939453,19.0,19.0,155400
2017-09-19,19.0,19.0,18.639999389648438,18.729999542236328,18.729999542236328,13900
2017-09-20,18.81999969482422,18.881000518798828,18.579999923706055,18.65999984741211,18.65999984741211,7500
2017-09-21,18.6200008392334,18.729999542236328,18.510000228881836,18.510000228881836,18.510000228881836,5100
2017-09-22,18.850000381469727,18.93000030517578,18.511999130249023,18.739999771118164,18.739999771118164,6800
2017-09-25,18.65999984741211,18.719999313354492,18.389999389648438,18.440000534057617,18.440000534057617,6900
2017-09-26,18.299999237060547,18.299999237060547,18.049999237060547,18.06999969482422,18.06999969482422,14000
2017-09-27,18.8700008392334,19.049999237060547,18.801000595092773,18.989999771118164,18.989999771118164,62600
2017-09-28,18.950000762939453,19.239999771118164,18.950000762939453,19.059999465942383,19.059999465942383,12600
2017-09-29,19.0,19.219999313354492,18.920000076293945,19.200000762939453,19.200000762939453,10500
2017-10-02,18.81999969482422,18.950000762939453,18.81999969482422,18.90999984741211,18.90999984741211,2100
2017-10-03,19.179000854492188,19.179000854492188,19.0,19.010000228881836,19.010000228881836,6300
2017-10-04,19.25,19.25,19.020000457763672,19.030000686645508,19.030000686645508,10900
2017-10-05,19.030000686645508,19.079999923706055,18.969999313354492,19.0,19.0,8700
2017-10-06,19.209999084472656,19.209999084472656,18.700000762939453,18.700000762939453,18.700000762939453,13800
2017-10-09,19.100000381469727,19.100000381469727,19.0,19.020000457763672,19.020000457763672,2900
2017-10-10,19.110000610351562,19.139999389648438,19.059999465942383,19.059999465942383,19.059999465942383,1300
2017-10-11,19.299999237060547,19.299999237060547,19.110000610351562,19.110000610351562,19.110000610351562,2500
2017-10-12,19.260000228881836,19.360000610351562,19.049999237060547,19.360000610351562,19.360000610351562,12500
2017-10-13,19.229999542236328,19.229999542236328,18.920000076293945,18.920000076293945,18.920000076293945,1800
2017-10-16,18.969999313354492,19.1200008392334,18.829999923706055,18.84000015258789,18.84000015258789,6900
2017-10-17,18.739999771118164,18.739999771118164,18.549999237060547,18.610000610351562,18.610000610351562,12400
2017-10-18,18.59000015258789,18.59000015258789,18.520000457763672,18.520000457763672,18.520000457763672,900
2017-10-19,18.799999237060547,18.809999465942383,18.530000686645508,18.540000915527344,18.540000915527344,8200
2017-10-20,18.47100067138672,18.6299991607666,18.469999313354492,18.6299991607666,18.6299991607666,7000
2017-10-23,18.709999084472656,18.860000610351562,18.6299991607666,18.65999984741211,18.65999984741211,5500
2017-10-24,18.90999984741211,18.90999984741211,18.450000762939453,18.700000762939453,18.700000762939453,10000
2017-10-25,18.729999542236328,18.760000228881836,18.437000274658203,18.739999771118164,18.739999771118164,3800
2017-10-26,18.649999618530273,18.649999618530273,18.350000381469727,18.350000381469727,18.350000381469727,2000
2017-10-27,18.40999984741211,18.489999771118164,18.270000457763672,18.270000457763672,18.270000457763672,2300
2017-10-30,18.399999618530273,18.489999771118164,18.219999313354492,18.219999313354492,18.219999313354492,9800
2017-10-31,18.479999542236328,18.510000228881836,18.229999542236328,18.290000915527344,18.290000915527344,10000
2017-11-01,18.280000686645508,18.489999771118164,18.110000610351562,18.479999542236328,18.479999542236328,10200
2017-11-02,17.0,17.149999618530273,16.344999313354492,16.600000381469727,16.600000381469727,102000
2017-11-03,15.5600004196167,15.5600004196167,15.100000381469727,15.100000381469727,15.100000381469727,27200
2017-11-06,15.539999961853027,15.600000381469727,15.359999656677246,15.489999771118164,15.489999771118164,5400
2017-11-07,14.899999618530273,15.239999771118164,14.569999694824219,14.920000076293945,14.920000076293945,5700
2017-11-08,15.15999984741211,15.15999984741211,14.520000457763672,14.729999542236328,14.729999542236328,37400
2017-11-09,14.239999771118164,14.470000267028809,13.90999984741211,13.90999984741211,13.90999984741211,33600
2017-11-10,14.390000343322754,14.9399995803833,14.350000381469727,14.9399995803833,14.9399995803833,37000
2017-11-13,14.520000457763672,14.960000038146973,14.510000228881836,14.960000038146973,14.960000038146973,28800
2017-11-14,14.5,14.619999885559082,14.199999809265137,14.619999885559082,14.619999885559082,16600
2017-11-15,14.0600004196167,14.40999984741211,13.920000076293945,14.40999984741211,14.40999984741211,400
2017-11-16,14.829999923706055,15.300000190734863,14.720000267028809,14.729999542236328,14.729999542236328,33100
2017-11-17,14.604999542236328,14.739999771118164,14.550000190734863,14.550000190734863,14.550000190734863,6600
2017-11-20,14.555000305175781,14.555000305175781,14.362000465393066,14.420000076293945,14.420000076293945,6100
2017-11-21,14.449999809265137,14.489999771118164,14.449999809265137,14.449999809265137,14.449999809265137,9300
2017-11-22,14.319999694824219,14.369999885559082,14.1899995803833,14.369999885559082,14.369999885559082,17700
2017-11-24,14.649999618530273,14.649999618530273,14.109999656677246,14.109999656677246,14.109999656677246,1900
2017-11-27,14.199999809265137,14.210000038146973,14.010000228881836,14.010000228881836,14.010000228881836,3000
2017-11-28,13.579999923706055,13.859999656677246,13.449999809265137,13.449999809265137,13.449999809265137,22800
2017-11-29,13.5,13.6899995803833,12.539999961853027,12.539999961853027,12.539999961853027,3200
2017-11-30,14.085000038146973,14.170000076293945,13.65999984741211,13.670000076293945,13.670000076293945,6800
2017-12-01,14.15999984741211,14.199999809265137,14.0600004196167,14.100000381469727,14.100000381469727,4400
2017-12-04,14.149999618530273,14.149999618530273,13.880000114440918,13.920000076293945,13.920000076293945,3600
2017-12-05,13.670000076293945,13.680000305175781,13.350000381469727,13.569999694824219,13.569999694824219,27900
2017-12-06,13.34000015258789,13.34000015258789,12.880999565124512,13.260000228881836,13.260000228881836,30400
2017-12-07,13.270000457763672,13.954999923706055,13.1899995803833,13.449999809265137,13.449999809265137,41500
2017-12-08,14.020000457763672,14.079999923706055,13.760000228881836,14.0,14.0,30100
2017-12-11,13.829999923706055,13.890000343322754,13.550000190734863,13.84000015258789,13.84000015258789,21200
2017-12-12,13.539999961853027,13.579999923706055,13.270000457763672,13.300000190734863,13.300000190734863,15100
2017-12-13,13.380000114440918,13.5,13.130000114440918,13.5,13.5,18900
2017-12-14,13.420000076293945,13.420000076293945,13.149999618530273,13.180000305175781,13.180000305175781,2900
2017-12-15,13.329999923706055,13.329999923706055,12.989999771118164,12.989999771118164,12.989999771118164,13600
2017-12-18,13.130000114440918,13.199999809265137,12.75,12.75,12.75,7700
2017-12-19,12.720000267028809,12.720000267028809,12.600000381469727,12.649999618530273,12.649999618530273,2200
2017-12-20,12.569999694824219,12.600000381469727,12.449999809265137,12.460000038146973,12.460000038146973,3200
2017-12-21,13.178000450134277,13.430000305175781,12.770000457763672,13.329999923706055,13.329999923706055,7900
2017-12-22,13.729999542236328,13.829999923706055,13.5,13.5,13.5,2900
2017-12-26,13.619999885559082,13.67199993133545,13.520000457763672,13.520000457763672,13.520000457763672,26100
2017-12-27,13.930000305175781,13.930000305175781,13.770000457763672,13.770000457763672,13.770000457763672,4200
2017-12-28,14.140000343322754,14.149999618530273,13.6899995803833,13.920000076293945,13.920000076293945,12200
2017-12-29,13.800000190734863,13.800000190734863,13.390000343322754,13.600000381469727,13.600000381469727,5200
2018-01-02,13.989999771118164,14.34000015258789,13.390000343322754,13.390000343322754,13.390000343322754,23300
2018-01-03,14.770000457763672,14.800000190734863,14.430000305175781,14.430000305175781,14.430000305175781,9300
2018-01-04,15.029999732971191,15.12600040435791,15.00100040435791,15.100000381469727,15.100000381469727,3100
2018-01-05,14.819999694824219,14.850000381469727,14.59000015258789,14.850000381469727,14.850000381469727,11900
2018-01-08,14.760000228881836,14.920000076293945,14.699999809265137,14.850000381469727,14.850000381469727,23000
2018-01-09,14.609999656677246,14.770000457763672,14.5600004196167,14.770000457763672,14.770000457763672,9100
2018-01-10,14.479999542236328,14.479999542236328,14.286999702453613,14.399999618530273,14.399999618530273,12000
2018-01-11,14.15999984741211,14.40999984741211,14.119000434875488,14.34000015258789,14.34000015258789,11100
2018-01-12,14.470000267028809,14.869999885559082,14.470000267028809,14.869999885559082,14.869999885559082,5100
2018-01-16,14.760000228881836,15.989999771118164,14.680000305175781,15.130000114440918,15.130000114440918,8900
2018-01-17,14.729999542236328,15.319000244140625,14.720000267028809,14.920000076293945,14.920000076293945,48400
2018-01-18,14.829999923706055,15.829999923706055,14.829999923706055,15.829999923706055,15.829999923706055,23500
2018-01-19,14.819999694824219,15.239999771118164,14.819999694824219,15.050000190734863,15.050000190734863,28600
2018-01-22,15.0,16.079999923706055,14.899999618530273,15.319999694824219,15.319999694824219,33700
2018-01-23,15.75,16.399999618530273,15.640000343322754,16.09000015258789,16.09000015258789,34100
2018-01-24,15.819999694824219,16.059999465942383,15.600000381469727,15.680000305175781,15.680000305175781,7900
2018-01-25,15.720000267028809,16.479999542236328,15.427000045776367,15.680000305175781,15.680000305175781,18300
2018-01-26,16.0,16.239999771118164,15.9399995803833,16.075000762939453,16.075000762939453,22300
2018-01-29,16.649999618530273,17.260000228881836,16.6200008392334,17.200000762939453,17.200000762939453,11600
2018-01-30,16.809999465942383,17.024999618530273,16.56999969482422,16.68000030517578,16.68000030517578,9200
2018-01-31,16.829999923706055,17.229999542236328,16.81999969482422,16.8700008392334,16.8700008392334,36900
2018-02-01,16.969999313354492,17.780000686645508,16.969999313354492,17.780000686645508,17.780000686645508,33000
2018-02-02,16.639999389648438,16.75200080871582,16.270000457763672,16.34000015258789,16.34000015258789,12100
2018-02-05,15.989999771118164,16.1299991607666,15.850000381469727,15.960000038146973,15.960000038146973,16900
2018-02-06,15.210000038146973,16.709999084472656,15.210000038146973,15.699999809265137,15.699999809265137,38900
2018-02-07,15.420000076293945,16.6200008392334,15.130999565124512,15.15999984741211,15.15999984741211,48400
2018-02-08,15.210000038146973,16.75,14.831999778747559,14.960000038146973,14.960000038146973,29100
2018-02-09,15.0,15.319999694824219,14.819999694824219,15.279999732971191,15.279999732971191,37000
2018-02-12,15.239999771118164,15.260000228881836,15.0,15.130000114440918,15.130000114440918,11900
2018-02-13,15.020000457763672,15.121000289916992,15.0,15.0,15.0,1800
2018-02-14,15.100000381469727,15.800000190734863,15.095000267028809,15.800000190734863,15.800000190734863,14900
2018-02-15,15.239999771118164,15.6899995803833,15.180000305175781,15.550000190734863,15.550000190734863,42000
2018-02-16,15.300000190734863,15.680000305175781,15.170000076293945,15.399999618530273,15.399999618530273,18800
2018-02-20,15.239999771118164,15.479999542236328,15.020000457763672,15.430000305175781,15.430000305175781,19500
2018-02-21,15.300000190734863,15.430000305175781,15.270000457763672,15.300000190734863,15.300000190734863,14200
2018-02-22,15.399999618530273,15.630000114440918,15.399999618530273,15.460000038146973,15.460000038146973,12600
2018-02-23,15.880000114440918,15.960000038146973,15.770000457763672,15.899999618530273,15.899999618530273,17600
2018-02-26,15.970000267028809,16.305999755859375,15.949999809265137,16.139999389648438,16.139999389648438,11600
2018-02-27,15.779999732971191,15.779999732971191,15.710000038146973,15.776000022888184,15.776000022888184,62800
2018-02-28,15.59000015258789,15.59000015258789,15.402000427246094,15.539999961853027,15.539999961853027,8700
2018-03-01,15.5,15.739999771118164,15.411999702453613,15.479999542236328,15.479999542236328,17500
2018-03-02,15.359999656677246,15.359999656677246,15.350000381469727,15.359999656677246,15.359999656677246,23000
2018-03-05,15.520000457763672,15.989999771118164,15.520000457763672,15.729999542236328,15.729999542236328,4500
2018-03-06,15.720000267028809,15.970000267028809,15.720000267028809,15.970000267028809,15.970000267028809,3000
2018-03-07,15.510000228881836,15.699999809265137,15.289999961853027,15.550000190734863,15.550000190734863,65700
2018-03-08,15.4399995803833,16.690000534057617,15.4399995803833,15.510000228881836,15.510000228881836,28500
2018-03-09,15.5,16.1299991607666,15.5,16.010000228881836,16.010000228881836,105700
2018-03-12,15.460000038146973,16.399999618530273,15.34000015258789,15.960000038146973,15.960000038146973,23700
2018-03-13,15.460000038146973,16.399999618530273,15.34000015258789,15.779999732971191,15.779999732971191,150500
2018-03-14,15.5,15.979999542236328,15.5,15.979999542236328,15.979999542236328,31800
2018-03-15,15.5,15.600000381469727,15.399999618530273,15.460000038146973,15.460000038146973,14600
2018-03-16,15.380000114440918,15.380000114440918,15.15999984741211,15.1850004196167,15.1850004196167,10800
2018-03-19,15.40999984741211,15.609999656677246,14.609999656677246,14.609999656677246,14.609999656677246,9600
2018-03-20,16.110000610351562,16.309999465942383,15.949999809265137,16.174999237060547,16.174999237060547,24500
2018-03-21,15.850000381469727,16.450000762939453,15.800000190734863,15.989999771118164,15.989999771118164,6300
2018-03-22,15.770000457763672,16.059999465942383,15.720000267028809,15.899999618530273,15.899999618530273,9700
2018-03-23,15.65999984741211,15.729999542236328,15.479999542236328,15.550000190734863,15.550000190734863,72500
2018-03-26,15.829999923706055,15.890000343322754,15.479999542236328,15.890000343322754,15.890000343322754,33100
2018-03-27,15.789999961853027,15.789999961853027,15.430000305175781,15.65999984741211,15.65999984741211,12700
2018-03-28,15.510000228881836,15.569999694824219,15.390000343322754,15.390000343322754,15.390000343322754,4400
2018-03-29,15.380000114440918,15.609999656677246,14.720000267028809,15.020000457763672,15.020000457763672,6500
2018-04-02,15.100000381469727,15.380999565124512,14.84000015258789,14.949999809265137,14.949999809265137,45800
2018-04-03,15.430000305175781,15.65999984741211,15.350000381469727,15.449999809265137,15.449999809265137,9100
2018-04-04,15.359999656677246,15.569999694824219,15.319999694824219,15.550000190734863,15.550000190734863,3100
2018-04-05,15.539999961853027,15.539999961853027,15.34000015258789,15.34000015258789,15.34000015258789,2800
2018-04-06,15.359999656677246,15.59000015258789,14.600000381469727,14.600000381469727,14.600000381469727,30300
2018-04-09,15.760000228881836,15.890000343322754,15.630000114440918,15.880000114440918,15.880000114440918,5600
2018-04-10,15.920000076293945,16.0,15.770000457763672,15.789999961853027,15.789999961853027,4400
2018-04-11,15.989999771118164,15.989999771118164,15.600000381469727,15.600000381469727,15.600000381469727,700
2018-04-12,15.760000228881836,16.040000915527344,15.760000228881836,16.040000915527344,16.040000915527344,700
2018-04-13,15.760000228881836,15.760000228881836,15.5,15.510000228881836,15.510000228881836,5800
2018-04-16,15.59000015258789,15.59000015258789,15.010000228881836,15.010000228881836,15.010000228881836,4300
2018-04-17,15.40999984741211,15.609999656677246,15.289999961853027,15.609999656677246,15.609999656677246,2500
2018-04-18,15.600000381469727,15.789999961853027,15.0,15.0,15.0,2500
2018-04-19,15.699999809265137,15.75,15.5,15.729999542236328,15.729999542236328,4900
2018-04-20,15.40999984741211,15.40999984741211,14.899999618530273,14.899999618530273,14.899999618530273,7700
2018-04-23,15.260000228881836,16.360000610351562,15.119999885559082,16.360000610351562,16.360000610351562,5300
2018-04-24,15.319999694824219,15.329999923706055,15.0,15.0,15.0,6900
2018-04-25,15.0600004196167,15.0600004196167,14.869999885559082,14.979999542236328,14.979999542236328,21900
2018-04-26,15.270000457763672,15.270000457763672,15.15999984741211,15.15999984741211,15.15999984741211,3100
2018-04-27,15.359999656677246,15.800000190734863,14.859999656677246,14.859999656677246,14.859999656677246,2900
2018-04-30,15.109999656677246,15.109999656677246,14.890000343322754,14.899999618530273,14.899999618530273,5100
2018-05-01,15.079999923706055,15.079999923706055,14.75,14.979999542236328,14.979999542236328,3400
2018-05-02,15.109999656677246,15.210000038146973,14.960000038146973,15.210000038146973,15.210000038146973,7300
2018-05-03,15.329999923706055,15.600000381469727,15.319999694824219,15.529999732971191,15.529999732971191,7800
2018-05-04,15.239999771118164,15.569999694824219,15.170000076293945,15.220000267028809,15.220000267028809,5500
2018-05-07,15.460000038146973,15.600000381469727,15.390000343322754,15.390000343322754,15.390000343322754,4900
2018-05-08,15.470000267028809,15.619999885559082,15.289999961853027,15.619999885559082,15.619999885559082,5800
2018-05-09,15.550000190734863,15.779999732971191,15.069999694824219,15.069999694824219,15.069999694824219,5600
2018-05-10,15.319999694824219,15.890000343322754,15.319999694824219,15.890000343322754,15.890000343322754,4100
2018-05-11,15.847000122070312,16.350000381469727,15.6850004196167,16.25,16.25,64600
2018-05-14,16.25,16.399999618530273,16.149999618530273,16.15999984741211,16.15999984741211,21600
2018-05-15,15.819999694824219,15.819999694824219,15.600000381469727,15.600000381469727,15.600000381469727,8600
2018-05-16,15.710000038146973,15.859999656677246,15.661999702453613,15.819999694824219,15.819999694824219,2500
2018-05-17,15.90999984741211,16.106000900268555,15.800000190734863,15.800000190734863,15.800000190734863,13000
2018-05-18,16.040000915527344,16.18000030517578,16.0,16.18000030517578,16.18000030517578,13300
2018-05-21,16.309999465942383,16.309999465942383,15.9350004196167,16.040000915527344,16.040000915527344,4000
2018-05-22,16.200000762939453,16.399999618530273,16.200000762939453,16.260000228881836,16.260000228881836,5900
2018-05-23,15.760000228881836,16.700000762939453,15.663000106811523,16.700000762939453,16.700000762939453,7500
2018-05-24,15.640000343322754,15.850000381469727,15.520000457763672,15.600000381469727,15.600000381469727,22700
2018-05-25,15.539999961853027,15.539999961853027,15.369999885559082,15.399999618530273,15.399999618530273,4200
2018-05-29,15.010000228881836,15.0600004196167,14.720000267028809,14.770000457763672,14.770000457763672,10800
2018-05-30,15.0,15.989999771118164,14.899999618530273,15.989999771118164,15.989999771118164,3100
2018-05-31,15.199999809265137,15.199999809265137,14.75,14.75,14.75,4800
2018-06-01,15.130000114440918,15.319999694824219,14.970000267028809,15.319999694824219,15.319999694824219,7100
2018-06-04,15.270000457763672,15.550000190734863,15.270000457763672,15.270000457763672,15.270000457763672,4500
2018-06-05,14.619999885559082,15.319999694824219,14.600000381469727,15.229999542236328,15.229999542236328,4600
2018-06-06,15.199999809265137,15.295000076293945,15.029999732971191,15.029999732971191,15.029999732971191,5600
2018-06-07,15.210000038146973,15.300000190734863,14.920000076293945,15.300000190734863,15.300000190734863,5900
2018-06-08,15.319999694824219,15.319999694824219,14.930000305175781,15.029999732971191,15.029999732971191,14100
2018-06-11,15.229999542236328,15.347000122070312,14.949999809265137,15.329999923706055,15.329999923706055,5700
2018-06-12,15.25,15.529999732971191,15.156000137329102,15.156000137329102,15.156000137329102,10400
2018-06-13,15.210000038146973,15.210000038146973,15.010000228881836,15.020000457763672,15.020000457763672,1700
2018-06-14,15.045000076293945,15.045000076293945,14.770000457763672,14.779999732971191,14.779999732971191,2000
2018-06-15,14.899999618530273,14.9399995803833,14.619999885559082,14.6899995803833,14.6899995803833,21900
2018-06-18,14.600000381469727,14.800000190734863,14.600000381469727,14.800000190734863,14.800000190734863,1100
2018-06-19,14.569999694824219,14.6899995803833,14.479999542236328,14.520000457763672,14.520000457763672,2800
2018-06-20,14.510000228881836,14.779999732971191,14.510000228881836,14.770000457763672,14.770000457763672,1700
2018-06-21,14.5,14.776000022888184,14.5,14.520000457763672,14.520000457763672,500
2018-06-22,14.756999969482422,14.850000381469727,14.010000228881836,14.010000228881836,14.010000228881836,2200
2018-06-25,14.609999656677246,14.680000305175781,14.130000114440918,14.397000312805176,14.397000312805176,5300
2018-06-26,14.460000038146973,14.510000228881836,14.029999732971191,14.029999732971191,14.029999732971191,9400
2018-06-27,13.84000015258789,13.84000015258789,12.880000114440918,12.880000114440918,12.880000114440918,4300
2018-06-28,13.0,13.164999961853027,12.170000076293945,12.930000305175781,12.930000305175781,20400
2018-06-29,13.0,13.04699993133545,12.680000305175781,12.680000305175781,12.680000305175781,7800
2018-07-02,12.720000267028809,12.949999809265137,12.670000076293945,12.949999809265137,12.949999809265137,3200
2018-07-03,12.850000381469727,12.850000381469727,12.010000228881836,12.010000228881836,12.010000228881836,6100
2018-07-05,13.069999694824219,13.460000038146973,13.069999694824219,13.460000038146973,13.460000038146973,5800
2018-07-06,13.569999694824219,13.739999771118164,13.550000190734863,13.550000190734863,13.550000190734863,6800
2018-07-09,13.65999984741211,13.65999984741211,12.574000358581543,13.270000457763672,13.270000457763672,14400
2018-07-10,13.460000038146973,13.479999542236328,13.289999961853027,13.479999542236328,13.479999542236328,4200
2018-07-11,13.399999618530273,13.479999542236328,13.270000457763672,13.380000114440918,13.380000114440918,6400
2018-07-12,14.390000343322754,14.630000114440918,14.055999755859375,14.630000114440918,14.630000114440918,17600
2018-07-13,15.0600004196167,15.25,14.90999984741211,15.149999618530273,15.149999618530273,22700
2018-07-16,15.510000228881836,15.710000038146973,15.40999984741211,15.710000038146973,15.710000038146973,5500
2018-07-17,15.739999771118164,15.75,15.470000267028809,15.470000267028809,15.470000267028809,1900
2018-07-18,15.420000076293945,15.520000457763672,15.279999732971191,15.520000457763672,15.520000457763672,700
2018-07-19,15.4399995803833,15.5,15.279999732971191,15.279999732971191,15.279999732971191,5900
2018-07-20,15.300999641418457,15.449999809265137,15.170000076293945,15.449999809265137,15.449999809265137,1100
2018-07-23,15.079999923706055,15.079999923706055,14.869999885559082,14.869999885559082,14.869999885559082,5300
2018-07-24,15.260000228881836,15.329999923706055,15.229999542236328,15.25,15.25,8900
2018-07-25,15.15999984741211,15.229999542236328,15.079999923706055,15.1899995803833,15.1899995803833,1300
2018-07-26,15.109999656677246,15.239999771118164,14.970000267028809,14.970000267028809,14.970000267028809,6700
2018-07-27,14.949999809265137,15.008999824523926,14.850000381469727,14.890000343322754,14.890000343322754,1800
2018-07-30,14.894000053405762,14.899999618530273,14.350000381469727,14.350000381469727,14.350000381469727,2200
2018-07-31,14.8100004196167,14.989999771118164,14.359999656677246,14.359999656677246,14.359999656677246,1800
2018-08-01,14.739999771118164,14.880000114440918,14.569999694824219,14.880000114440918,14.880000114440918,9100
2018-08-02,14.680000305175781,14.680000305175781,14.51099967956543,14.649999618530273,14.649999618530273,4700
2018-08-03,14.5600004196167,14.5600004196167,14.510000228881836,14.510000228881836,14.510000228881836,2000
2018-08-06,14.512999534606934,14.579999923706055,14.512999534606934,14.579999923706055,14.579999923706055,33500
2018-08-07,14.649999618530273,14.819999694824219,14.649999618530273,14.819999694824219,14.819999694824219,25500
2018-08-08,14.489999771118164,14.619999885559082,14.100000381469727,14.100000381469727,14.100000381469727,2500
2018-08-09,14.279999732971191,14.40999984741211,14.109999656677246,14.40999984741211,14.40999984741211,7000
2018-08-10,14.09000015258789,14.239999771118164,13.760000228881836,13.760000228881836,13.760000228881836,2300
2018-08-13,14.220000267028809,14.270000457763672,14.0,14.0,14.0,4000
2018-08-14,14.229999542236328,14.229999542236328,13.989999771118164,14.010000228881836,14.010000228881836,800
2018-08-15,13.9399995803833,14.1899995803833,13.0,13.0,13.0,5700
2018-08-16,13.795999526977539,14.251999855041504,13.640000343322754,13.649999618530273,13.649999618530273,3600
2018-08-17,14.109999656677246,14.178999900817871,14.0,14.119999885559082,14.119999885559082,5500
2018-08-20,13.819999694824219,14.154999732971191,13.630000114440918,13.630000114440918,13.630000114440918,600
2018-08-21,13.739999771118164,14.15999984741211,13.739999771118164,14.0,14.0,1800
2018-08-22,14.15999984741211,14.199999809265137,14.100000381469727,14.100000381469727,14.100000381469727,500
2018-08-23,14.279999732971191,14.350000381469727,14.229999542236328,14.229999542236328,14.229999542236328,2700
2018-08-24,14.520000457763672,15.15999984741211,14.510000228881836,14.510000228881836,14.510000228881836,5400
2018-08-27,14.781000137329102,15.0,14.40999984741211,14.40999984741211,14.40999984741211,5200
2018-08-28,14.850000381469727,15.069999694824219,14.850000381469727,15.039999961853027,15.039999961853027,8500
2018-08-29,14.911999702453613,15.140000343322754,14.829999923706055,14.880000114440918,14.880000114440918,13600
2018-08-30,14.720000267028809,14.732000350952148,14.460000038146973,14.460000038146973,14.460000038146973,2600
2018-08-31,14.482999801635742,15.1899995803833,14.482999801635742,14.550000190734863,14.550000190734863,2800
2018-09-04,14.380000114440918,15.180000305175781,14.380000114440918,14.380000114440918,14.380000114440918,11000
2018-09-05,14.229999542236328,14.479999542236328,14.140000343322754,14.479999542236328,14.479999542236328,10500
2018-09-06,14.25,14.739999771118164,14.25,14.369999885559082,14.369999885559082,5800
2018-09-07,15.90999984741211,16.799999237060547,15.899999618530273,16.059999465942383,16.059999465942383,115200
2018-09-10,17.079999923706055,17.450000762939453,16.989999771118164,17.209999084472656,17.209999084472656,27200
2018-09-11,17.5,17.670000076293945,17.350000381469727,17.3799991607666,17.3799991607666,9200
2018-09-12,18.270000457763672,18.350000381469727,17.950000762939453,18.229999542236328,18.229999542236328,63900
2018-09-13,17.959999084472656,18.100000381469727,17.780000686645508,17.90999984741211,17.90999984741211,10300
2018-09-14,17.92300033569336,18.0,17.770000457763672,17.799999237060547,17.799999237060547,13100
2018-09-17,18.040000915527344,18.299999237060547,16.889999389648438,16.889999389648438,16.889999389648438,15600
2018-09-18,18.34000015258789,18.90999984741211,18.209999084472656,18.489999771118164,18.489999771118164,105300
2018-09-19,18.6299991607666,18.670000076293945,18.260000228881836,18.270000457763672,18.270000457763672,31500
2018-09-20,18.09000015258789,18.09000015258789,17.6299991607666,17.920000076293945,17.920000076293945,4500
2018-09-21,17.760000228881836,17.809999465942383,16.690000534057617,16.690000534057617,16.690000534057617,8200
2018-09-24,17.25,17.34000015258789,16.510000228881836,16.809999465942383,16.809999465942383,28700
2018-09-25,17.170000076293945,17.280000686645508,16.979999542236328,17.0,17.0,37100
2018-09-26,17.09000015258789,17.260000228881836,16.68000030517578,16.84000015258789,16.84000015258789,23600
2018-09-27,16.579999923706055,16.6299991607666,16.5,16.59000015258789,16.59000015258789,10600
2018-09-28,16.399999618530273,16.520000457763672,16.31999969482422,16.520000457763672,16.520000457763672,4700
2018-10-01,16.540000915527344,16.610000610351562,16.350000381469727,16.44499969482422,16.44499969482422,14100
2018-10-02,16.049999237060547,16.059999465942383,16.030000686645508,16.049999237060547,16.049999237060547,1000
2018-10-03,16.290000915527344,16.68000030517578,16.290000915527344,16.399999618530273,16.399999618530273,9000
2018-10-04,16.0,16.079999923706055,15.619999885559082,15.682000160217285,15.682000160217285,3000
2018-10-05,15.59000015258789,15.649999618530273,15.4399995803833,15.470000267028809,15.470000267028809,7100
2018-10-08,15.010000228881836,15.050000190734863,14.73799991607666,14.890000343322754,14.890000343322754,8900
2018-10-09,14.789999961853027,15.09000015258789,14.789999961853027,14.9399995803833,14.9399995803833,4500
2018-10-10,14.779999732971191,14.779999732971191,14.199999809265137,14.199999809265137,14.199999809265137,2000
2018-10-11,14.229999542236328,14.263999938964844,13.630000114440918,13.630000114440918,13.630000114440918,5800
2018-10-12,14.100000381469727,14.100000381469727,13.989999771118164,13.989999771118164,13.989999771118164,400
2018-10-15,14.109999656677246,14.11400032043457,14.039999961853027,14.050000190734863,14.050000190734863,2700
2018-10-16,14.149999618530273,14.149999618530273,13.753999710083008,14.0600004196167,14.0600004196167,2900
2018-10-17,14.369999885559082,14.401000022888184,14.300000190734863,14.300000190734863,14.300000190734863,1900
2018-10-18,14.15999984741211,14.15999984741211,13.829999923706055,13.904000282287598,13.904000282287598,2500
2018-10-19,13.729999542236328,13.739999771118164,13.0,13.0,13.0,2600
2018-10-22,13.390000343322754,13.420000076293945,13.1899995803833,13.399999618530273,13.399999618530273,9300
2018-10-23,12.890000343322754,12.890000343322754,12.5600004196167,12.595000267028809,12.595000267028809,3100
2018-10-24,12.789999961853027,12.800000190734863,12.529999732971191,12.579999923706055,12.579999923706055,3100
2018-10-25,12.420000076293945,12.640000343322754,12.220999717712402,12.640000343322754,12.640000343322754,4200
2018-10-26,12.210000038146973,12.319999694824219,12.0,12.010000228881836,12.010000228881836,24200
2018-10-29,12.479999542236328,12.699999809265137,11.510000228881836,11.510000228881836,11.510000228881836,13500
2018-10-30,12.300000190734863,12.39900016784668,11.800000190734863,11.800000190734863,11.800000190734863,19200
2018-10-31,12.850000381469727,12.99899959564209,12.6899995803833,12.75,12.75,41400
2018-11-01,13.300000190734863,13.600000381469727,13.25,13.550000190734863,13.550000190734863,19100
2018-11-02,13.430000305175781,13.458000183105469,13.0,13.1899995803833,13.1899995803833,6700
2018-11-05,13.359999656677246,13.47599983215332,12.5,12.5,12.5,3300
2018-11-06,13.479999542236328,13.586000442504883,13.479999542236328,13.550000190734863,13.550000190734863,2500
2018-11-07,13.649999618530273,13.789999961853027,13.649999618530273,13.710000038146973,13.710000038146973,4100
2018-11-08,13.699999809265137,13.859999656677246,13.210000038146973,13.210000038146973,13.210000038146973,2500
2018-11-09,13.640000343322754,13.869999885559082,13.619999885559082,13.869999885559082,13.869999885559082,4400
2018-11-12,13.350000381469727,13.350000381469727,12.0,12.0,12.0,5100
2018-11-13,12.649999618530273,12.753999710083008,12.0,12.15999984741211,12.15999984741211,12000
2018-11-14,12.460000038146973,12.649999618530273,11.510000228881836,11.510000228881836,11.510000228881836,19400
2018-11-15,12.180000305175781,12.550000190734863,12.180000305175781,12.289999961853027,12.289999961853027,3600
2018-11-16,12.09000015258789,12.359999656677246,12.0600004196167,12.229999542236328,12.229999542236328,7100
2018-11-19,12.890000343322754,13.010000228881836,12.279999732971191,12.729999542236328,12.729999542236328,31800
2018-11-20,12.699999809265137,12.899999618530273,12.5,12.520000457763672,12.520000457763672,13300
2018-11-21,12.449999809265137,12.449999809265137,11.550000190734863,11.550000190734863,11.550000190734863,1600
2018-11-23,12.3100004196167,12.430000305175781,12.204999923706055,12.210000038146973,12.210000038146973,9100
2018-11-26,12.470000267028809,12.479999542236328,12.010000228881836,12.010000228881836,12.010000228881836,3100
2018-11-27,12.529999732971191,12.649999618530273,12.5,12.630000114440918,12.630000114440918,3700
2018-11-28,13.027999877929688,13.1899995803833,13.027999877929688,13.175999641418457,13.175999641418457,2100
2018-11-29,13.380000114440918,13.401000022888184,13.020000457763672,13.050000190734863,13.050000190734863,5600
2018-11-30,12.539999961853027,13.520000457763672,12.25,13.520000457763672,13.520000457763672,5500
2018-12-03,12.319999694824219,13.369999885559082,12.319999694824219,13.369999885559082,13.369999885559082,4200
2018-12-04,12.779999732971191,12.779999732971191,12.329999923706055,12.760000228881836,12.760000228881836,1200
2018-12-06,12.229999542236328,12.229999542236328,11.699999809265137,11.699999809265137,11.699999809265137,16300
2018-12-07,12.449999809265137,12.5,12.199999809265137,12.260000228881836,12.260000228881836,29700
2018-12-10,13.095000267028809,13.40999984741211,13.095000267028809,13.220000267028809,13.220000267028809,3200
2018-12-11,13.170000076293945,13.170000076293945,12.722999572753906,12.739999771118164,12.739999771118164,3200
2018-12-12,13.149999618530273,13.380000114440918,13.149999618530273,13.180000305175781,13.180000305175781,9500
2018-12-13,13.230999946594238,13.230999946594238,12.850000381469727,13.09000015258789,13.09000015258789,1300
2018-12-14,13.380000114440918,13.420000076293945,13.199999809265137,13.199999809265137,13.199999809265137,2300
2018-12-17,12.970000267028809,12.970000267028809,12.539999961853027,12.609999656677246,12.609999656677246,3800
2018-12-18,12.869999885559082,13.541999816894531,12.510000228881836,12.510000228881836,12.510000228881836,11300
2018-12-19,13.069999694824219,13.149999618530273,12.800000190734863,12.800000190734863,12.800000190734863,2500
2018-12-20,12.649999618530273,12.649999618530273,11.63700008392334,12.170000076293945,12.170000076293945,9400
2018-12-21,12.399999618530273,12.5,12.140000343322754,12.237000465393066,12.237000465393066,4200
2018-12-24,12.225000381469727,12.225000381469727,11.75,11.75,11.75,9300
2018-12-26,11.890999794006348,12.020000457763672,11.5600004196167,12.020000457763672,12.020000457763672,7800
2018-12-27,12.170000076293945,13.460000038146973,11.819999694824219,13.460000038146973,13.460000038146973,7500
2018-12-28,12.350000381469727,12.444000244140625,12.350000381469727,12.444000244140625,12.444000244140625,900
2018-12-31,12.40999984741211,12.449999809265137,11.609999656677246,11.609999656677246,11.609999656677246,2200
2019-01-02,12.720000267028809,12.720000267028809,12.350000381469727,12.350000381469727,12.350000381469727,500
2019-01-03,12.899999618530273,12.96500015258789,12.65999984741211,12.670000076293945,12.670000076293945,4100
2019-01-04,13.15999984741211,13.199999809265137,13.130000114440918,13.199999809265137,13.199999809265137,4200
2019-01-07,13.65999984741211,14.01099967956543,13.65999984741211,13.8100004196167,13.8100004196167,1900
2019-01-08,13.930000305175781,13.979999542236328,13.6899995803833,13.890000343322754,13.890000343322754,8200
2019-01-09,14.163000106811523,14.163000106811523,14.163000106811523,14.163000106811523,14.163000106811523,300
2019-01-10,14.210000038146973,14.210000038146973,14.130000114440918,14.130000114440918,14.130000114440918,900
2019-01-11,14.255000114440918,14.255000114440918,14.255000114440918,14.255000114440918,14.255000114440918,300
2019-01-14,14.130000114440918,14.289999961853027,14.09000015258789,14.289999961853027,14.289999961853027,14600
2019-01-15,14.119999885559082,14.119999885559082,13.010000228881836,13.010000228881836,13.010000228881836,3600
2019-01-16,14.5600004196167,14.571999549865723,14.350000381469727,14.350000381469727,14.350000381469727,1700
2019-01-17,14.199999809265137,14.199999809265137,13.630000114440918,14.039999961853027,14.039999961853027,3400
2019-01-18,14.920000076293945,14.9399995803833,14.65999984741211,14.9399995803833,14.9399995803833,700
2019-01-22,14.770000457763672,14.770000457763672,14.770000457763672,14.770000457763672,14.770000457763672,500
2019-01-23,14.720000267028809,14.720999717712402,14.680000305175781,14.699999809265137,14.699999809265137,3100
2019-01-24,14.699999809265137,14.699999809265137,14.699999809265137,14.699999809265137,14.699999809265137,100
2019-01-25,14.649999618530273,14.699999809265137,14.649999618530273,14.699999809265137,14.699999809265137,1500
2019-01-28,14.484999656677246,14.5,14.402999877929688,14.402999877929688,14.402999877929688,3500
2019-01-29,14.402999877929688,14.402999877929688,14.402999877929688,14.402999877929688,14.402999877929688,0
2019-01-30,14.15999984741211,14.369999885559082,14.15999984741211,14.369999885559082,14.369999885559082,5000
2019-01-31,14.279999732971191,14.649999618530273,14.279999732971191,14.649999618530273,14.649999618530273,300
2019-02-01,14.449999809265137,14.449999809265137,14.140000343322754,14.449999809265137,14.449999809265137,37500
2019-02-04,14.449999809265137,14.449999809265137,14.449999809265137,14.449999809265137,14.449999809265137,200
2019-02-05,14.449999809265137,14.449999809265137,14.449999809265137,14.449999809265137,14.449999809265137,100
2019-02-06,14.506999969482422,14.506999969482422,14.506999969482422,14.506999969482422,14.506999969482422,200
2019-02-07,14.5,14.550000190734863,14.5,14.550000190734863,14.550000190734863,1000
2019-02-08,14.020000457763672,14.020000457763672,14.0,14.0,14.0,800
2019-02-11,14.25,14.420000076293945,14.25,14.270000457763672,14.270000457763672,1800
2019-02-12,14.3100004196167,14.40999984741211,14.270000457763672,14.319999694824219,14.319999694824219,10600
2019-02-13,14.0600004196167,14.300999641418457,14.050000190734863,14.300999641418457,14.300999641418457,1700
2019-02-14,14.520000457763672,14.699999809265137,14.496999740600586,14.699999809265137,14.699999809265137,1000
2019-02-15,14.6899995803833,14.739999771118164,14.618000030517578,14.618000030517578,14.618000030517578,1500
2019-02-19,14.520000457763672,15.010000228881836,14.510000228881836,15.010000228881836,15.010000228881836,11300
2019-02-20,14.800000190734863,14.84000015258789,14.699999809265137,14.739999771118164,14.739999771118164,7900
2019-02-21,14.699999809265137,14.699999809265137,14.449000358581543,14.449000358581543,14.449000358581543,5100
2019-02-22,14.402999877929688,14.539999961853027,14.402999877929688,14.477999687194824,14.477999687194824,1500
2019-02-25,14.699999809265137,14.77299976348877,14.59000015258789,14.59000015258789,14.59000015258789,1700
2019-02-26,14.600000381469727,14.758999824523926,14.59000015258789,14.758999824523926,14.758999824523926,1000
2019-02-27,14.885000228881836,14.956000328063965,14.819999694824219,14.819999694824219,14.819999694824219,8600
2019-02-28,14.760000228881836,14.760000228881836,14.600000381469727,14.699999809265137,14.699999809265137,7800
2019-03-01,15.119999885559082,15.119999885559082,14.970000267028809,15.029999732971191,15.029999732971191,6000
2019-03-04,15.5,15.65999984741211,15.37600040435791,15.545000076293945,15.545000076293945,5600
2019-03-05,15.079999923706055,15.260000228881836,15.0,15.0,15.0,3900
2019-03-06,15.295000076293945,15.319999694824219,14.989999771118164,15.319999694824219,15.319999694824219,1800
2019-03-07,14.600000381469727,15.09000015258789,14.550000190734863,14.890000343322754,14.890000343322754,5900
2019-03-08,14.710000038146973,14.710000038146973,14.520000457763672,14.59000015258789,14.59000015258789,4100
2019-03-11,14.729999542236328,14.897000312805176,14.65999984741211,14.897000312805176,14.897000312805176,7100
2019-03-12,15.210000038146973,15.600000381469727,15.130000114440918,15.199999809265137,15.199999809265137,7300
2019-03-13,15.312999725341797,15.970000267028809,15.300000190734863,15.319999694824219,15.319999694824219,3000
2019-03-14,15.430000305175781,15.720000267028809,15.430000305175781,15.600000381469727,15.600000381469727,18300
2019-03-15,15.460000038146973,15.467000007629395,15.460000038146973,15.467000007629395,15.467000007629395,400
2019-03-18,15.569999694824219,15.678000450134277,15.569999694824219,15.678000450134277,15.678000450134277,900
2019-03-19,16.139999389648438,16.25,16.100000381469727,16.139999389648438,16.139999389648438,1100
2019-03-20,17.059999465942383,18.020000457763672,16.885000228881836,17.70400047302246,17.70400047302246,18000
2019-03-21,17.829999923706055,18.0310001373291,17.652000427246094,18.030000686645508,18.030000686645508,13500
2019-03-22,18.100000381469727,18.100000381469727,17.899999618530273,17.899999618530273,17.899999618530273,6100
2019-03-25,17.399999618530273,17.450000762939453,17.15999984741211,17.450000762939453,17.450000762939453,9600
2019-03-26,18.09000015258789,18.091999053955078,18.0,18.076000213623047,18.076000213623047,7600
2019-03-27,17.93199920654297,17.93199920654297,17.799999237060547,17.850000381469727,17.850000381469727,3400
2019-03-28,17.90999984741211,18.089000701904297,17.90999984741211,17.969999313354492,17.969999313354492,1000
2019-03-29,17.780000686645508,17.85099983215332,17.020000457763672,17.020000457763672,17.020000457763672,3200
2019-04-01,18.170000076293945,18.469999313354492,18.170000076293945,18.3799991607666,18.3799991607666,15600
2019-04-02,18.34000015258789,18.739999771118164,18.309999465942383,18.683000564575195,18.683000564575195,4300
2019-04-03,18.68000030517578,18.780000686645508,18.60300064086914,18.760000228881836,18.760000228881836,6600
2019-04-04,18.65999984741211,19.010000228881836,18.65999984741211,19.010000228881836,19.010000228881836,2600
2019-04-05,19.270000457763672,19.280000686645508,19.15999984741211,19.165000915527344,19.165000915527344,8500
2019-04-08,19.239999771118164,20.0,19.190000534057617,19.579999923706055,19.579999923706055,80600
2019-04-09,19.15999984741211,19.440000534057617,19.0,19.170000076293945,19.170000076293945,20500
2019-04-10,18.940000534057617,19.200000762939453,18.940000534057617,19.010000228881836,19.010000228881836,19300
2019-04-11,19.059999465942383,19.219999313354492,19.059999465942383,19.059999465942383,19.059999465942383,8900
2019-04-12,18.850000381469727,18.850000381469727,18.06999969482422,18.06999969482422,18.06999969482422,2700
2019-04-15,18.790000915527344,18.81999969482422,18.690000534057617,18.770000457763672,18.770000457763672,7100
2019-04-16,18.770000457763672,18.799999237060547,18.299999237060547,18.530000686645508,18.530000686645508,8200
2019-04-17,18.309999465942383,18.309999465942383,18.200000762939453,18.299999237060547,18.299999237060547,19400
2019-04-18,18.34000015258789,18.34000015258789,18.283000946044922,18.283000946044922,18.283000946044922,1600
2019-04-22,18.549999237060547,18.549999237060547,18.25,18.299999237060547,18.299999237060547,4400
2019-04-23,18.219999313354492,18.780000686645508,18.18000030517578,18.780000686645508,18.780000686645508,16100
2019-04-24,19.149999618530273,19.190000534057617,19.059999465942383,19.059999465942383,19.059999465942383,6200
2019-04-25,19.450000762939453,20.09000015258789,19.450000762939453,20.09000015258789,20.09000015258789,14400
2019-04-26,20.149999618530273,20.290000915527344,20.0,20.0,20.0,29300
2019-04-29,20.139999389648438,20.239999771118164,20.139999389648438,20.239999771118164,20.239999771118164,14200
2019-04-30,20.450000762939453,20.827999114990234,20.450000762939453,20.81999969482422,20.81999969482422,9300
2019-05-01,20.649999618530273,20.799999237060547,20.510000228881836,20.799999237060547,20.799999237060547,6300
2019-05-02,20.3799991607666,20.3799991607666,20.1200008392334,20.160999298095703,20.160999298095703,1800
2019-05-03,20.219999313354492,20.45400047302246,20.219999313354492,20.45400047302246,20.45400047302246,2600
2019-05-06,19.65999984741211,20.790000915527344,19.65999984741211,20.790000915527344,20.790000915527344,4600
2019-05-07,20.540000915527344,20.739999771118164,20.510000228881836,20.510000228881836,20.510000228881836,2000
2019-05-08,20.43000030517578,20.43000030517578,20.43000030517578,20.43000030517578,20.43000030517578,600
2019-05-09,20.190000534057617,20.329999923706055,20.139999389648438,20.329999923706055,20.329999923706055,1500
2019-05-10,20.329999923706055,20.329999923706055,20.329999923706055,20.329999923706055,20.329999923706055,100
2019-05-13,19.790000915527344,19.790000915527344,19.700000762939453,19.700000762939453,19.700000762939453,300
2019-05-14,20.799999237060547,20.850000381469727,20.448999404907227,20.784000396728516,20.784000396728516,42800
2019-05-15,20.290000915527344,20.54800033569336,20.27199935913086,20.40999984741211,20.40999984741211,10100
2019-05-16,20.229999542236328,20.440000534057617,19.96299934387207,20.280000686645508,20.280000686645508,4800
2019-05-17,19.790000915527344,20.260000228881836,19.790000915527344,19.850000381469727,19.850000381469727,7200
2019-05-20,20.229999542236328,20.260000228881836,20.0,20.260000228881836,20.260000228881836,9400
2019-05-21,20.68000030517578,21.1200008392334,20.68000030517578,21.049999237060547,21.049999237060547,57100
2019-05-22,21.920000076293945,22.219999313354492,21.724000930786133,22.100000381469727,22.100000381469727,54600
2019-05-23,21.350000381469727,21.43000030517578,21.25,21.25,21.25,4300
2019-05-24,21.780000686645508,21.815000534057617,21.565000534057617,21.565000534057617,21.565000534057617,5100
2019-05-28,20.799999237060547,21.0,20.790000915527344,20.878000259399414,20.878000259399414,2300
2019-05-29,20.56999969482422,21.1299991607666,20.440000534057617,21.100000381469727,21.100000381469727,19400
2019-05-30,20.391000747680664,20.93000030517578,20.385000228881836,20.90999984741211,20.90999984741211,3200
2019-05-31,20.6299991607666,20.829999923706055,20.6299991607666,20.829999923706055,20.829999923706055,1700
2019-06-03,19.709999084472656,19.81999969482422,19.454999923706055,19.81999969482422,19.81999969482422,6300
2019-06-04,20.007999420166016,20.007999420166016,20.007999420166016,20.007999420166016,20.007999420166016,500
2019-06-05,19.663999557495117,19.76799964904785,19.663999557495117,19.76799964904785,19.76799964904785,300
2019-06-06,20.25,20.25,20.160999298095703,20.17799949645996,20.17799949645996,1800
2019-06-07,20.760000228881836,21.937999725341797,20.760000228881836,21.200000762939453,21.200000762939453,95400
2019-06-10,21.739999771118164,21.739999771118164,21.200000762939453,21.200000762939453,21.200000762939453,6500
2019-06-11,21.59000015258789,21.59000015258789,21.1200008392334,21.1299991607666,21.1299991607666,6000
2019-06-12,21.010000228881836,21.100000381469727,20.829999923706055,20.996999740600586,20.996999740600586,11500
2019-06-13,21.290000915527344,21.3799991607666,21.280000686645508,21.329999923706055,21.329999923706055,11400
2019-06-14,21.329999923706055,21.3799991607666,21.23699951171875,21.23699951171875,21.23699951171875,5800
2019-06-17,20.780000686645508,20.8799991607666,20.75200080871582,20.8799991607666,20.8799991607666,1800
2019-06-18,20.639999389648438,20.790000915527344,20.55900001525879,20.790000915527344,20.790000915527344,6000
2019-06-19,20.920000076293945,21.0,20.920000076293945,20.95199966430664,20.95199966430664,500
2019-06-20,21.06999969482422,21.229999542236328,20.981000900268555,20.981000900268555,20.981000900268555,1300
2019-06-21,20.969999313354492,21.100000381469727,20.799999237060547,21.100000381469727,21.100000381469727,5800
2019-06-24,21.25,21.280000686645508,21.25,21.25,21.25,800
2019-06-25,21.049999237060547,21.200000762939453,21.049999237060547,21.049999237060547,21.049999237060547,1800
2019-06-26,21.3799991607666,21.402999877929688,21.339000701904297,21.339000701904297,21.339000701904297,15600
2019-06-27,21.299999237060547,21.299999237060547,21.079999923706055,21.1299991607666,21.1299991607666,3200
2019-06-28,21.559999465942383,21.77899932861328,21.52400016784668,21.52400016784668,21.52400016784668,28800
2019-07-01,21.760000228881836,21.8700008392334,21.579999923706055,21.850000381469727,21.850000381469727,39700
2019-07-02,22.020000457763672,23.04400062561035,21.979999542236328,22.39699935913086,22.39699935913086,102700
2019-07-03,22.31999969482422,22.3700008392334,22.31100082397461,22.350000381469727,22.350000381469727,5200
2019-07-05,22.200000762939453,22.5,22.0,22.280000686645508,22.280000686645508,8500
2019-07-08,21.969999313354492,22.110000610351562,21.840999603271484,22.079999923706055,22.079999923706055,6600
2019-07-09,21.3799991607666,21.850000381469727,21.309999465942383,21.850000381469727,21.850000381469727,2700
2019-07-10,21.84000015258789,21.940000534057617,21.520000457763672,21.520000457763672,21.520000457763672,8200
2019-07-11,22.170000076293945,22.170000076293945,21.75,21.979999542236328,21.979999542236328,1600
2019-07-12,22.530000686645508,22.559999465942383,22.200000762939453,22.200000762939453,22.200000762939453,19900
2019-07-15,22.190000534057617,22.273000717163086,21.959999084472656,21.959999084472656,21.959999084472656,1300
2019-07-16,22.360000610351562,22.5,22.100000381469727,22.200000762939453,22.200000762939453,5500
2019-07-17,22.5,22.8799991607666,22.5,22.860000610351562,22.860000610351562,12700
2019-07-18,22.65999984741211,22.65999984741211,22.260000228881836,22.440000534057617,22.440000534057617,2700
2019-07-19,22.649999618530273,22.65999984741211,22.469999313354492,22.469999313354492,22.469999313354492,1100
2019-07-22,22.850000381469727,22.850000381469727,22.799999237060547,22.809999465942383,22.809999465942383,3900
2019-07-23,22.67300033569336,22.850000381469727,22.67300033569336,22.850000381469727,22.850000381469727,21800
2019-07-24,22.920000076293945,22.920000076293945,22.81999969482422,22.8700008392334,22.8700008392334,6000
2019-07-25,23.34000015258789,23.549999237060547,22.790000915527344,22.790000915527344,22.790000915527344,45900
2019-07-26,23.0,23.0,21.309999465942383,21.309999465942383,21.309999465942383,9300
2019-07-29,22.90999984741211,23.1299991607666,22.780000686645508,22.920000076293945,22.920000076293945,51400
2019-07-30,22.940000534057617,23.049999237060547,22.559999465942383,22.559999465942383,22.559999465942383,6400
2019-07-31,22.5,22.631000518798828,22.5,22.6299991607666,22.6299991607666,5000
2019-08-01,22.58799934387207,22.58799934387207,22.31999969482422,22.41699981689453,22.41699981689453,2900
2019-08-02,22.329999923706055,22.329999923706055,21.90999984741211,21.950000762939453,21.950000762939453,6100
2019-08-05,21.510000228881836,21.639999389648438,21.200000762939453,21.29199981689453,21.29199981689453,4800
2019-08-06,21.510000228881836,21.6299991607666,21.469999313354492,21.479999542236328,21.479999542236328,2700
2019-08-07,21.709999084472656,22.05699920654297,21.670000076293945,21.899999618530273,21.899999618530273,19700
2019-08-08,22.450000762939453,22.5,21.959999084472656,22.059999465942383,22.059999465942383,5200
2019-08-09,22.489999771118164,22.489999771118164,22.06999969482422,22.06999969482422,22.06999969482422,6600
2019-08-12,22.219999313354492,22.219999313354492,22.209999084472656,22.209999084472656,22.209999084472656,500
2019-08-13,22.06999969482422,22.43000030517578,22.0,22.34000015258789,22.34000015258789,5300
2019-08-14,22.299999237060547,22.299999237060547,22.06999969482422,22.100000381469727,22.100000381469727,4800
2019-08-15,21.899999618530273,21.899999618530273,21.649999618530273,21.75,21.75,9800
2019-08-16,21.59000015258789,21.770000457763672,21.079999923706055,21.152000427246094,21.152000427246094,30200
2019-08-19,20.850000381469727,21.040000915527344,20.78700065612793,20.78700065612793,20.78700065612793,2400
2019-08-20,21.809999465942383,21.809999465942383,21.809999465942383,21.809999465942383,21.809999465942383,1600
2019-08-21,21.209999084472656,21.219999313354492,21.0,21.020000457763672,21.020000457763672,5200
2019-08-22,20.719999313354492,20.719999313354492,20.3799991607666,20.3799991607666,20.3799991607666,2100
2019-08-23,20.639999389648438,20.889999389648438,20.639999389648438,20.826000213623047,20.826000213623047,1800
2019-08-26,20.124000549316406,20.30699920654297,20.0,20.18000030517578,20.18000030517578,4000
2019-08-27,19.549999237060547,19.554000854492188,19.420000076293945,19.450000762939453,19.450000762939453,3700
2019-08-28,19.0,19.239999771118164,19.0,19.18000030517578,19.18000030517578,4900
2019-08-29,18.84000015258789,18.90399932861328,18.75,18.75,18.75,1600
2019-08-30,18.760000228881836,19.190000534057617,18.760000228881836,19.190000534057617,19.190000534057617,5800
2019-09-03,21.239999771118164,21.5,21.104999542236328,21.229999542236328,21.229999542236328,6800
2019-09-04,21.540000915527344,21.871000289916992,21.540000915527344,21.871000289916992,21.871000289916992,1600
2019-09-05,23.3799991607666,23.6200008392334,23.375,23.450000762939453,23.450000762939453,25600
2019-09-06,23.454999923706055,23.690000534057617,23.38800048828125,23.527000427246094,23.527000427246094,35300
2019-09-09,23.649999618530273,23.84000015258789,23.649999618530273,23.81999969482422,23.81999969482422,1700
2019-09-10,23.040000915527344,23.506000518798828,23.040000915527344,23.5,23.5,3800
2019-09-11,23.18000030517578,23.559999465942383,23.18000030517578,23.440000534057617,23.440000534057617,1700
2019-09-12,23.959999084472656,23.959999084472656,23.68000030517578,23.829999923706055,23.829999923706055,13000
2019-09-13,24.110000610351562,24.232999801635742,24.011999130249023,24.084999084472656,24.084999084472656,4100
2019-09-16,24.079999923706055,24.25,24.030000686645508,24.184999465942383,24.184999465942383,2300
2019-09-17,24.579999923706055,24.8700008392334,24.579999923706055,24.8700008392334,24.8700008392334,700
2019-09-18,24.8700008392334,24.95800018310547,24.799999237060547,24.875,24.875,1300
2019-09-19,24.875,24.875,24.875,24.875,24.875,800
2019-09-20,24.889999389648438,24.944000244140625,24.812000274658203,24.84000015258789,24.84000015258789,6900
2019-09-23,25.4689998626709,25.520000457763672,25.44099998474121,25.520000457763672,25.520000457763672,6400
2019-09-24,26.920000076293945,28.0,26.82900047302246,28.0,28.0,39600
2019-09-25,27.0,27.209999084472656,26.81999969482422,27.170000076293945,27.170000076293945,11900
2019-09-26,27.049999237060547,28.850000381469727,26.760000228881836,28.850000381469727,28.850000381469727,7200
2019-09-27,26.225000381469727,26.34000015258789,25.297000885009766,25.72100067138672,25.72100067138672,21300
2019-09-30,25.260000228881836,25.530000686645508,25.260000228881836,25.360000610351562,25.360000610351562,5500
2019-10-01,24.3799991607666,24.402999877929688,23.459999084472656,23.90999984741211,23.90999984741211,44600
2019-10-02,23.530000686645508,23.770000457763672,23.479999542236328,23.530000686645508,23.530000686645508,2800
2019-10-03,23.780000686645508,23.780000686645508,23.594999313354492,23.594999313354492,23.594999313354492,1300
2019-10-04,23.559999465942383,24.950000762939453,23.334999084472656,24.950000762939453,24.950000762939453,2400
2019-10-07,23.549999237060547,23.648000717163086,23.489999771118164,23.530000686645508,23.530000686645508,3500
2019-10-08,23.219999313354492,23.43000030517578,23.079999923706055,23.079999923706055,23.079999923706055,3600
2019-10-09,23.170000076293945,23.459999084472656,23.170000076293945,23.459999084472656,23.459999084472656,9800
2019-10-10,23.459999084472656,23.459999084472656,23.459999084472656,23.459999084472656,23.459999084472656,400
2019-10-11,23.1200008392334,23.1200008392334,23.0,23.040000915527344,23.040000915527344,500
2019-10-14,23.177000045776367,23.177000045776367,23.177000045776367,23.177000045776367,23.177000045776367,200
2019-10-15,27.389999389648438,27.65999984741211,26.68199920654297,27.549999237060547,27.549999237060547,31200
2019-10-16,26.65999984741211,26.959999084472656,25.0,25.0,25.0,41400
2019-10-17,27.233999252319336,27.233999252319336,26.93899917602539,27.190000534057617,27.190000534057617,20900
2019-10-18,27.110000610351562,27.110000610351562,26.530000686645508,26.7450008392334,26.7450008392334,8600
2019-10-21,26.59000015258789,26.610000610351562,26.450000762939453,26.549999237060547,26.549999237060547,2800
2019-10-22,27.40999984741211,27.549999237060547,27.190000534057617,27.190000534057617,27.190000534057617,3900
2019-10-23,26.770000457763672,26.950000762939453,26.559999465942383,26.767000198364258,26.767000198364258,16100
2019-10-24,27.231000900268555,27.719999313354492,27.231000900268555,27.44499969482422,27.44499969482422,2800
2019-10-25,27.40999984741211,27.451000213623047,27.34600067138672,27.451000213623047,27.451000213623047,500
2019-10-28,27.649999618530273,27.649999618530273,27.31599998474121,27.50200080871582,27.50200080871582,7000
2019-10-29,27.440000534057617,27.69499969482422,27.225000381469727,27.670000076293945,27.670000076293945,7300
2019-10-30,30.200000762939453,30.989999771118164,30.200000762939453,30.645000457763672,30.645000457763672,12100
2019-10-31,29.969999313354492,30.011999130249023,29.450000762939453,29.450000762939453,29.450000762939453,16200
2019-11-01,30.795000076293945,30.795000076293945,29.670000076293945,29.670000076293945,29.670000076293945,3000
2019-11-04,32.09000015258789,32.27000045776367,31.94700050354004,32.20000076293945,32.20000076293945,4100
2019-11-05,32.540000915527344,32.599998474121094,32.08599853515625,32.15999984741211,32.15999984741211,7300
2019-11-06,33.11000061035156,33.23899841308594,32.77000045776367,32.77000045776367,32.77000045776367,4900
2019-11-07,32.79999923706055,32.86000061035156,32.290000915527344,32.29499816894531,32.29499816894531,4100
2019-11-08,33.25699996948242,34.2599983215332,32.20000076293945,32.20000076293945,32.20000076293945,11600
2019-11-11,32.7599983215332,33.0099983215332,32.58000183105469,32.80500030517578,32.80500030517578,2000
2019-11-12,31.670000076293945,31.739999771118164,31.441999435424805,31.441999435424805,31.441999435424805,5900
2019-11-13,31.579999923706055,31.690000534057617,31.31999969482422,31.594999313354492,31.594999313354492,3100
2019-11-14,33.33000183105469,33.68000030517578,32.81999969482422,33.29999923706055,33.29999923706055,9800
2019-11-15,34.08000183105469,34.560001373291016,31.329999923706055,31.329999923706055,31.329999923706055,8900
2019-11-18,35.5099983215332,36.84000015258789,35.29999923706055,36.4900016784668,36.4900016784668,15700
2019-11-19,32.93000030517578,33.18000030517578,32.5099983215332,32.61000061035156,32.61000061035156,15900
2019-11-20,31.0,31.639999389648438,30.82900047302246,31.56999969482422,31.56999969482422,20200
2019-11-21,31.1200008392334,31.229999542236328,30.733999252319336,30.760000228881836,30.760000228881836,33900
2019-11-22,32.130001068115234,32.130001068115234,29.700000762939453,30.700000762939453,30.700000762939453,57500
2019-11-25,31.040000915527344,31.329999923706055,30.329999923706055,30.614999771118164,30.614999771118164,20000
2019-11-26,30.8700008392334,31.45400047302246,30.809999465942383,31.170000076293945,31.170000076293945,22700
2019-11-27,31.100000381469727,31.149999618530273,30.90999984741211,31.010000228881836,31.010000228881836,6900
2019-11-29,30.610000610351562,30.93000030517578,30.610000610351562,30.93000030517578,30.93000030517578,5600
2019-12-02,30.709999084472656,30.709999084472656,29.84000015258789,29.8700008392334,29.8700008392334,14600
2019-12-03,30.079999923706055,30.600000381469727,30.06999969482422,30.600000381469727,30.600000381469727,6100
2019-12-04,32.189998626708984,32.72999954223633,32.13999938964844,32.70600128173828,32.70600128173828,4000
2019-12-05,31.639999389648438,31.639999389648438,31.030000686645508,31.059999465942383,31.059999465942383,16700
2019-12-06,31.200000762939453,32.869998931884766,30.979999542236328,32.869998931884766,32.869998931884766,4200
2019-12-09,30.950000762939453,30.950000762939453,30.604999542236328,30.604999542236328,30.604999542236328,2300
2019-12-10,31.969999313354492,32.849998474121094,31.90999984741211,32.6150016784668,32.6150016784668,11900
2019-12-11,31.860000610351562,31.920000076293945,31.0,31.0,31.0,5400
2019-12-12,31.790000915527344,31.790000915527344,31.15999984741211,31.15999984741211,31.15999984741211,2500
2019-12-13,31.760000228881836,31.895000457763672,31.52199935913086,31.895000457763672,31.895000457763672,5200
2019-12-16,31.920000076293945,32.16999816894531,31.75,32.16999816894531,32.16999816894531,5100
2019-12-17,31.6299991607666,31.915000915527344,31.36400032043457,31.690000534057617,31.690000534057617,26300
2019-12-18,31.190000534057617,31.229999542236328,30.59000015258789,30.59000015258789,30.59000015258789,40800
2019-12-19,31.420000076293945,31.895999908447266,31.420000076293945,31.65999984741211,31.65999984741211,32500
2019-12-20,32.310001373291016,32.7400016784668,32.310001373291016,32.7400016784668,32.7400016784668,12100
2019-12-23,32.869998931884766,33.17499923706055,32.529998779296875,32.540000915527344,32.540000915527344,3000
2019-12-24,32.80500030517578,32.80500030517578,32.80500030517578,32.80500030517578,32.80500030517578,800
2019-12-26,33.29999923706055,34.90999984741211,33.047000885009766,34.0,34.0,26900
2019-12-27,34.779998779296875,34.900001525878906,34.400001525878906,34.86000061035156,34.86000061035156,14900
2019-12-30,35.439998626708984,36.0,35.09000015258789,35.09000015258789,35.09000015258789,8300
2019-12-31,35.36000061035156,35.36000061035156,33.20000076293945,33.20000076293945,33.20000076293945,7500
2020-01-02,35.29999923706055,35.34299850463867,34.22999954223633,34.22999954223633,34.22999954223633,6400
2020-01-03,33.599998474121094,34.150001525878906,32.5,32.77000045776367,32.77000045776367,18200
2020-01-06,32.41699981689453,32.87300109863281,32.41699981689453,32.83399963378906,32.83399963378906,2700
2020-01-07,32.7760009765625,33.0099983215332,32.599998474121094,32.95000076293945,32.95000076293945,3400
2020-01-08,32.880001068115234,33.369998931884766,32.689998626708984,32.709999084472656,32.709999084472656,5100
2020-01-09,33.900001525878906,33.970001220703125,33.75,33.75,33.75,1600
2020-01-10,34.529998779296875,35.79999923706055,34.52000045776367,35.395999908447266,35.395999908447266,33300
2020-01-13,35.29999923706055,35.310001373291016,34.54999923706055,34.606998443603516,34.606998443603516,7100
2020-01-14,34.630001068115234,35.0099983215332,34.0,34.0,34.0,12400
2020-01-15,35.79999923706055,36.380001068115234,35.630001068115234,36.08000183105469,36.08000183105469,15900
2020-01-16,35.731998443603516,36.529998779296875,35.72999954223633,36.099998474121094,36.099998474121094,11400
2020-01-17,36.45000076293945,36.65999984741211,36.34000015258789,36.34000015258789,36.34000015258789,5900
2020-01-21,36.97999954223633,37.0,36.68000030517578,36.70000076293945,36.70000076293945,11200
2020-01-22,36.70000076293945,37.0,36.68000030517578,37.0,37.0,8900
2020-01-23,36.191001892089844,36.47999954223633,35.9739990234375,36.47999954223633,36.47999954223633,1900
2020-01-24,36.779998779296875,36.779998779296875,36.11000061035156,36.24800109863281,36.24800109863281,4800
2020-01-27,36.025001525878906,36.040000915527344,35.70000076293945,35.70000076293945,35.70000076293945,3100
2020-01-28,36.0,36.209999084472656,35.861000061035156,35.861000061035156,35.861000061035156,2200
2020-01-29,36.119998931884766,36.119998931884766,35.81999969482422,35.86000061035156,35.86000061035156,3300
2020-01-30,36.810001373291016,36.83000183105469,35.880001068115234,35.880001068115234,35.880001068115234,3300
2020-01-31,36.310001373291016,38.2599983215332,35.79999923706055,38.2599983215332,38.2599983215332,8600
2020-02-03,35.81999969482422,36.290000915527344,35.5,36.0,36.0,24700
2020-02-04,38.349998474121094,38.400001525878906,35.79999923706055,35.79999923706055,35.79999923706055,6900
2020-02-05,39.15999984741211,39.15999984741211,38.125,38.369998931884766,38.369998931884766,9900
2020-02-06,37.22999954223633,37.7599983215332,36.869998931884766,37.7599983215332,37.7599983215332,4500
2020-02-07,37.470001220703125,39.374000549316406,36.62699890136719,37.9900016784668,37.9900016784668,1600
2020-02-10,37.63999938964844,37.79999923706055,37.310001373291016,37.75,37.75,4400
2020-02-11,38.88999938964844,39.400001525878906,38.88999938964844,39.20000076293945,39.20000076293945,2100
2020-02-12,39.310001373291016,39.599998474121094,38.5,38.5,38.5,4000
2020-02-13,40.77000045776367,42.119998931884766,40.551998138427734,42.099998474121094,42.099998474121094,40900
2020-02-14,42.209999084472656,44.599998474121094,42.189998626708984,44.25,44.25,21200
2020-02-18,41.540000915527344,42.060001373291016,41.494998931884766,41.97999954223633,41.97999954223633,25500
2020-02-19,41.61000061035156,42.06999969482422,41.61000061035156,42.06999969482422,42.06999969482422,3000
2020-02-20,40.91999816894531,41.150001525878906,40.65999984741211,40.87900161743164,40.87900161743164,10100
2020-02-21,40.91999816894531,41.042999267578125,40.470001220703125,40.47999954223633,40.47999954223633,4900
2020-02-24,39.349998474121094,39.63999938964844,39.040000915527344,39.209999084472656,39.209999084472656,7000
2020-02-25,38.880001068115234,38.939998626708984,37.63999938964844,37.93000030517578,37.93000030517578,18500
2020-02-26,37.939998626708984,38.367000579833984,36.380001068115234,37.2599983215332,37.2599983215332,12400
2020-02-27,35.83000183105469,36.27000045776367,34.81999969482422,34.81999969482422,34.81999969482422,24700
2020-02-28,35.33000183105469,35.93000030517578,35.007999420166016,35.77000045776367,35.77000045776367,11400
2020-03-02,36.56999969482422,37.5,35.97999954223633,37.5,37.5,26500
2020-03-03,38.4900016784668,38.4900016784668,37.189998626708984,37.189998626708984,37.189998626708984,8300
2020-03-04,38.84000015258789,39.349998474121094,38.09000015258789,39.349998474121094,39.349998474121094,8300
2020-03-05,38.720001220703125,39.09000015258789,38.194000244140625,38.61000061035156,38.61000061035156,7200
2020-03-06,37.2400016784668,37.849998474121094,36.79999923706055,37.83000183105469,37.83000183105469,7800
2020-03-09,34.86000061035156,36.279998779296875,34.220001220703125,34.47999954223633,34.47999954223633,15300
2020-03-10,35.900001525878906,36.04999923706055,34.04999923706055,35.400001525878906,35.400001525878906,28300
2020-03-11,32.959999084472656,33.09000015258789,28.100000381469727,28.100000381469727,28.100000381469727,18300
2020-03-12,27.59000015258789,27.59000015258789,24.170000076293945,24.899999618530273,24.899999618530273,32400
2020-03-13,26.468000411987305,26.479999542236328,23.239999771118164,23.860000610351562,23.860000610351562,17600
2020-03-16,22.0,26.979999542236328,22.0,24.6299991607666,24.6299991607666,14000
2020-03-17,25.729999542236328,27.510000228881836,25.489999771118164,27.510000228881836,27.510000228881836,9500
2020-03-18,27.8700008392334,30.774999618530273,27.6200008392334,28.489999771118164,28.489999771118164,15800
2020-03-19,28.440000534057617,30.200000762939453,28.440000534057617,29.040000915527344,29.040000915527344,10800
2020-03-20,30.610000610351562,31.110000610351562,28.5,28.5,28.5,9600
2020-03-23,28.75,28.788000106811523,26.81999969482422,27.040000915527344,27.040000915527344,5800
2020-03-24,28.0,28.040000915527344,27.288000106811523,28.040000915527344,28.040000915527344,4900
2020-03-25,27.90999984741211,28.670000076293945,27.65999984741211,27.700000762939453,27.700000762939453,15500
2020-03-26,28.170000076293945,29.299999237060547,28.1299991607666,28.950000762939453,28.950000762939453,8800
2020-03-27,28.899999618530273,29.24799919128418,28.690000534057617,29.24799919128418,29.24799919128418,5800
2020-03-30,30.700000762939453,31.34000015258789,30.520000457763672,31.079999923706055,31.079999923706055,7100
2020-03-31,33.56999969482422,35.0,33.5099983215332,34.5,34.5,12400
2020-04-01,31.899999618530273,32.119998931884766,31.049999237060547,31.350000381469727,31.350000381469727,9500
2020-04-02,31.239999771118164,31.719999313354492,30.950000762939453,31.719999313354492,31.719999313354492,3500
2020-04-03,31.030000686645508,31.030000686645508,30.0,30.670000076293945,30.670000076293945,3000
2020-04-06,32.62300109863281,32.93000030517578,32.09000015258789,32.93000030517578,32.93000030517578,8200
2020-04-07,32.81999969482422,34.08000183105469,31.34000015258789,31.34000015258789,31.34000015258789,5400
2020-04-08,31.770000457763672,32.2400016784668,31.6200008392334,32.099998474121094,32.099998474121094,3500
2020-04-09,32.869998931884766,33.79999923706055,32.869998931884766,33.41999816894531,33.41999816894531,4900
2020-04-13,33.060001373291016,33.060001373291016,32.189998626708984,33.0,33.0,7600
2020-04-14,32.79999923706055,33.369998931884766,32.79999923706055,33.369998931884766,33.369998931884766,4900
2020-04-15,31.389999389648438,31.790000915527344,30.988000869750977,31.614999771118164,31.614999771118164,4800
2020-04-16,33.02000045776367,33.02000045776367,31.81999969482422,33.0,33.0,2100
2020-04-17,32.97999954223633,33.349998474121094,32.97999954223633,33.334999084472656,33.334999084472656,1700
2020-04-20,33.06999969482422,33.310001373291016,31.90999984741211,33.290000915527344,33.290000915527344,12000
2020-04-21,33.90999984741211,33.97999954223633,33.27199935913086,33.68000030517578,33.68000030517578,3000
2020-04-22,34.220001220703125,34.630001068115234,34.11000061035156,34.630001068115234,34.630001068115234,4300
2020-04-23,34.09000015258789,34.86000061035156,33.40999984741211,34.86000061035156,34.86000061035156,5600
2020-04-24,34.400001525878906,35.33000183105469,34.2599983215332,35.2599983215332,35.2599983215332,5500
2020-04-27,35.2400016784668,35.2400016784668,34.97999954223633,35.01599884033203,35.01599884033203,2000
2020-04-28,34.650001525878906,34.70500183105469,33.840999603271484,33.840999603271484,33.840999603271484,1000
2020-04-29,33.43000030517578,33.70000076293945,33.27000045776367,33.369998931884766,33.369998931884766,3000
2020-04-30,34.560001373291016,35.0,34.209999084472656,35.0,35.0,2500
2020-05-01,33.970001220703125,33.97999954223633,32.939998626708984,33.2400016784668,33.2400016784668,6800
2020-05-04,33.650001525878906,33.650001525878906,33.38999938964844,33.465999603271484,33.465999603271484,1600
2020-05-05,34.5,34.630001068115234,34.39500045776367,34.39500045776367,34.39500045776367,1700
2020-05-06,34.70000076293945,34.72999954223633,34.290000915527344,34.55500030517578,34.55500030517578,2900
2020-05-07,34.849998474121094,34.93000030517578,34.66999816894531,34.93000030517578,34.93000030517578,2300
2020-05-08,36.5,36.5,34.77000045776367,34.77000045776367,34.77000045776367,1200
2020-05-11,35.61000061035156,37.310001373291016,35.61000061035156,37.27000045776367,37.27000045776367,8400
2020-05-12,37.41999816894531,37.65999984741211,36.630001068115234,37.0,37.0,4700
2020-05-13,36.86000061035156,36.86000061035156,36.007999420166016,36.007999420166016,36.007999420166016,1600
2020-05-14,34.959999084472656,38.130001068115234,33.91999816894531,38.130001068115234,38.130001068115234,11200
2020-05-15,34.65999984741211,35.150001525878906,34.599998474121094,34.849998474121094,34.849998474121094,3400
2020-05-18,35.439998626708984,35.689998626708984,34.91999816894531,35.47999954223633,35.47999954223633,10100
2020-05-19,36.11000061035156,36.11000061035156,35.790000915527344,36.082000732421875,36.082000732421875,1800
2020-05-20,36.082000732421875,36.082000732421875,36.082000732421875,36.082000732421875,36.082000732421875,0
2020-05-21,35.48699951171875,35.810001373291016,34.91999816894531,34.959999084472656,34.959999084472656,6200
2020-05-22,33.900001525878906,35.047000885009766,33.2599983215332,34.939998626708984,34.939998626708984,6000
2020-05-26,39.38999938964844,39.43000030517578,35.95000076293945,35.95000076293945,35.95000076293945,18200
2020-05-27,37.220001220703125,37.220001220703125,36.2599983215332,37.15999984741211,37.15999984741211,13200
2020-05-28,37.22999954223633,37.66999816894531,36.95000076293945,37.0,37.0,4500
2020-05-29,39.33000183105469,41.0,38.630001068115234,41.0,41.0,9100
2020-06-01,39.20000076293945,39.79999923706055,38.900001525878906,39.15999984741211,39.15999984741211,6600
2020-06-02,38.83000183105469,38.880001068115234,38.189998626708984,38.189998626708984,38.189998626708984,4200
2020-06-03,38.81999969482422,39.459999084472656,38.65999984741211,38.959999084472656,38.959999084472656,6000
2020-06-04,39.369998931884766,39.560001373291016,39.20000076293945,39.560001373291016,39.560001373291016,2600
2020-06-05,40.02000045776367,40.45000076293945,39.529998779296875,39.54999923706055,39.54999923706055,2800
2020-06-08,37.849998474121094,38.875,37.849998474121094,38.875,38.875,9300
2020-06-09,38.16999816894531,38.89500045776367,38.060001373291016,38.5,38.5,2100
2020-06-10,39.369998931884766,39.439998626708984,38.7400016784668,38.90999984741211,38.90999984741211,4100
2020-06-11,38.64500045776367,39.029998779296875,37.56999969482422,37.56999969482422,37.56999969482422,5200
2020-06-12,37.86000061035156,38.22999954223633,37.119998931884766,37.65999984741211,37.65999984741211,4800
2020-06-15,38.099998474121094,39.029998779296875,37.93000030517578,39.029998779296875,39.029998779296875,7500
2020-06-16,38.90999984741211,39.099998474121094,38.470001220703125,39.099998474121094,39.099998474121094,2500
2020-06-17,38.75,40.779998779296875,38.0,40.779998779296875,40.779998779296875,8900
2020-06-18,36.369998931884766,37.13999938964844,36.369998931884766,36.79999923706055,36.79999923706055,19400
2020-06-19,36.83000183105469,37.13999938964844,36.345001220703125,36.345001220703125,36.345001220703125,3400
2020-06-22,36.779998779296875,37.165000915527344,36.66999816894531,37.10499954223633,37.10499954223633,1900
2020-06-23,36.90999984741211,37.46500015258789,36.630001068115234,37.060001373291016,37.060001373291016,5600
2020-06-24,36.40999984741211,36.40999984741211,36.099998474121094,36.099998474121094,36.099998474121094,1700
2020-06-25,35.5099983215332,36.27000045776367,35.2400016784668,36.27000045776367,36.27000045776367,5500
2020-06-26,35.72999954223633,35.72999954223633,32.20000076293945,33.040000915527344,33.040000915527344,20800
2020-06-29,34.45000076293945,34.56999969482422,32.09000015258789,32.09000015258789,32.09000015258789,8500
2020-06-30,34.4900016784668,35.0,33.9900016784668,35.0,35.0,14600
2020-07-01,34.79999923706055,35.095001220703125,34.40999984741211,34.7599983215332,34.7599983215332,13200
2020-07-02,35.400001525878906,35.880001068115234,35.290000915527344,35.85499954223633,35.85499954223633,2500
2020-07-06,36.529998779296875,37.04999923706055,36.2599983215332,37.04999923706055,37.04999923706055,8600
2020-07-07,36.09000015258789,36.880001068115234,36.0,36.84000015258789,36.84000015258789,4600
2020-07-08,36.65999984741211,36.959999084472656,36.36000061035156,36.959999084472656,36.959999084472656,2200
2020-07-09,36.5,36.599998474121094,36.34000015258789,36.599998474121094,36.599998474121094,4600
2020-07-10,35.63999938964844,35.63999938964844,35.36000061035156,35.47999954223633,35.47999954223633,800
2020-07-13,35.290000915527344,35.45000076293945,34.4900016784668,34.4900016784668,34.4900016784668,4700
2020-07-14,34.0,34.5099983215332,33.84000015258789,34.5,34.5,12700
2020-07-15,35.220001220703125,35.349998474121094,34.61000061035156,35.34000015258789,35.34000015258789,3900
2020-07-16,34.345001220703125,34.345001220703125,34.345001220703125,34.345001220703125,34.345001220703125,200
2020-07-17,34.540000915527344,34.540000915527344,34.52000045776367,34.52000045776367,34.52000045776367,1200
2020-07-20,35.689998626708984,36.5,35.45000076293945,36.040000915527344,36.040000915527344,8600
2020-07-21,36.25,36.25,35.45000076293945,35.45000076293945,35.45000076293945,2400
2020-07-22,36.25,36.25,35.41999816894531,35.709999084472656,35.709999084472656,7300
2020-07-23,35.70000076293945,36.1150016784668,35.70000076293945,35.72999954223633,35.72999954223633,3100
2020-07-24,35.22999954223633,35.22999954223633,35.165000915527344,35.165000915527344,35.165000915527344,1000
2020-07-27,34.9900016784668,35.17499923706055,34.529998779296875,34.650001525878906,34.650001525878906,3900
2020-07-28,34.650001525878906,34.650001525878906,34.650001525878906,34.650001525878906,34.650001525878906,0
2020-07-29,35.349998474121094,35.54999923706055,35.220001220703125,35.284000396728516,35.284000396728516,2900
2020-07-30,34.349998474121094,34.630001068115234,34.220001220703125,34.220001220703125,34.220001220703125,1400
2020-07-31,35.189998626708984,35.189998626708984,32.439998626708984,32.439998626708984,32.439998626708984,2300
2020-08-03,34.709999084472656,35.369998931884766,34.45000076293945,35.369998931884766,35.369998931884766,8500
2020-08-04,34.900001525878906,34.900001525878906,34.380001068115234,34.380001068115234,34.380001068115234,500
2020-08-05,34.810001373291016,35.189998626708984,34.810001373291016,35.150001525878906,35.150001525878906,1400
2020-08-06,34.66999816894531,34.810001373291016,34.5,34.54999923706055,34.54999923706055,3700
2020-08-07,34.5,34.5,34.5,34.5,34.5,200
2020-08-10,35.790000915527344,36.0,35.59000015258789,35.97999954223633,35.97999954223633,4200
2020-08-11,36.09000015258789,36.369998931884766,35.81999969482422,36.130001068115234,36.130001068115234,4600
2020-08-12,35.849998474121094,36.060001373291016,35.65999984741211,35.81999969482422,35.81999969482422,2800
2020-08-13,37.08000183105469,38.209999084472656,37.08000183105469,37.18000030517578,37.18000030517578,10900
2020-08-14,38.40999984741211,38.72999954223633,37.84000015258789,38.72999954223633,38.72999954223633,9500
2020-08-17,38.13999938964844,38.47999954223633,38.13999938964844,38.470001220703125,38.470001220703125,2300
2020-08-18,38.720001220703125,38.720001220703125,38.720001220703125,38.720001220703125,38.720001220703125,1100
2020-08-19,39.470001220703125,39.5,38.470001220703125,38.470001220703125,38.470001220703125,4400
2020-08-20,37.79999923706055,38.36000061035156,37.55099868774414,38.36000061035156,38.36000061035156,3600
2020-08-21,37.27000045776367,37.959999084472656,37.27000045776367,37.959999084472656,37.959999084472656,9200
2020-08-24,38.19499969482422,38.40999984741211,37.95600128173828,38.40999984741211,38.40999984741211,4500
2020-08-25,37.58000183105469,37.689998626708984,37.47999954223633,37.689998626708984,37.689998626708984,2400
2020-08-26,37.72999954223633,38.029998779296875,37.72999954223633,38.0,38.0,4000
2020-08-27,37.93000030517578,38.04999923706055,37.529998779296875,38.04999923706055,38.04999923706055,3700
2020-08-28,37.77000045776367,37.93000030517578,37.77000045776367,37.93000030517578,37.93000030517578,1200
2020-08-31,37.68000030517578,38.279998779296875,37.68000030517578,38.27000045776367,38.27000045776367,30700
2020-09-01,39.13999938964844,39.41999816894531,38.09700012207031,38.09700012207031,38.09700012207031,6400
2020-09-02,38.0,38.56999969482422,37.630001068115234,38.56999969482422,38.56999969482422,8000
2020-09-03,37.5099983215332,37.5099983215332,36.44499969482422,37.0,37.0,9900
2020-09-04,35.83000183105469,35.84000015258789,35.290000915527344,35.803001403808594,35.803001403808594,7300
2020-09-08,34.58000183105469,35.119998931884766,34.08000183105469,35.09000015258789,35.09000015258789,9200
2020-09-09,34.97999954223633,34.97999954223633,34.97999954223633,34.97999954223633,34.97999954223633,900
2020-09-10,34.59000015258789,34.689998626708984,34.59000015258789,34.689998626708984,34.689998626708984,1300
2020-09-11,34.13999938964844,34.2599983215332,31.6200008392334,31.6200008392334,31.6200008392334,1000
2020-09-14,35.040000915527344,35.939998626708984,35.040000915527344,35.900001525878906,35.900001525878906,2800
2020-09-15,36.31999969482422,36.5,36.066001892089844,36.066001892089844,36.066001892089844,4000
2020-09-16,36.33000183105469,36.779998779296875,36.33000183105469,36.779998779296875,36.779998779296875,1400
2020-09-17,36.4900016784668,37.0099983215332,36.4900016784668,37.0099983215332,37.0099983215332,4400
2020-09-18,37.59000015258789,38.58000183105469,36.5,36.5,36.5,11500
2020-09-21,36.470001220703125,36.5,36.130001068115234,36.439998626708984,36.439998626708984,4500
2020-09-22,35.709999084472656,36.029998779296875,35.459999084472656,36.029998779296875,36.029998779296875,3500
2020-09-23,35.849998474121094,36.209999084472656,35.369998931884766,35.369998931884766,35.369998931884766,3300
2020-09-24,35.2599983215332,35.72999954223633,35.2599983215332,35.720001220703125,35.720001220703125,4300
2020-09-25,35.150001525878906,36.029998779296875,35.0099983215332,35.4900016784668,35.4900016784668,4700
2020-09-28,36.099998474121094,36.189998626708984,36.02000045776367,36.189998626708984,36.189998626708984,600
2020-09-29,36.540000915527344,38.0,36.540000915527344,37.099998474121094,37.099998474121094,13100
2020-09-30,37.959999084472656,38.40999984741211,37.95000076293945,38.40999984741211,38.40999984741211,13200
2020-10-01,38.81999969482422,39.13999938964844,38.81999969482422,39.130001068115234,39.130001068115234,3400
2020-10-02,40.34000015258789,42.0,40.34000015258789,41.150001525878906,41.150001525878906,9500
2020-10-05,42.0,44.41999816894531,42.0,44.0,44.0,17500
2020-10-06,42.869998931884766,43.08000183105469,42.45000076293945,42.61000061035156,42.61000061035156,8700
2020-10-07,42.17499923706055,42.349998474121094,42.17499923706055,42.349998474121094,42.349998474121094,1800
2020-10-08,41.75,42.040000915527344,41.4900016784668,41.64500045776367,41.64500045776367,5700
2020-10-09,42.380001068115234,42.380001068115234,42.119998931884766,42.20000076293945,42.20000076293945,2000
2020-10-12,42.630001068115234,42.81999969482422,42.630001068115234,42.68000030517578,42.68000030517578,7500
2020-10-13,42.630001068115234,42.81999969482422,42.029998779296875,42.13999938964844,42.13999938964844,4000
2020-10-14,41.209999084472656,41.529998779296875,41.09000015258789,41.310001373291016,41.310001373291016,1300
2020-10-15,41.310001373291016,41.310001373291016,41.310001373291016,41.310001373291016,41.310001373291016,0
2020-10-16,39.150001525878906,40.279998779296875,39.150001525878906,40.13999938964844,40.13999938964844,4600
2020-10-19,40.959999084472656,40.959999084472656,40.369998931884766,40.369998931884766,40.369998931884766,800
2020-10-20,40.334999084472656,40.334999084472656,40.33000183105469,40.33000183105469,40.33000183105469,1400
2020-10-21,39.72999954223633,39.72999954223633,38.4900016784668,38.4900016784668,38.4900016784668,1300
2020-10-22,37.83000183105469,38.25,36.5,37.290000915527344,37.290000915527344,7800
2020-10-23,37.70000076293945,37.70000076293945,37.22999954223633,37.22999954223633,37.22999954223633,700
2020-10-26,36.2400016784668,36.4109992980957,34.0,35.29999923706055,35.29999923706055,12300
2020-10-27,36.06999969482422,36.06999969482422,36.06999969482422,36.06999969482422,36.06999969482422,300
2020-10-28,34.209999084472656,34.209999084472656,32.72999954223633,32.790000915527344,32.790000915527344,8500
2020-10-29,33.20000076293945,33.83000183105469,32.90999984741211,33.83000183105469,33.83000183105469,5100
2020-10-30,33.97999954223633,33.97999954223633,33.435001373291016,33.75,33.75,3700
2020-11-02,34.619998931884766,34.619998931884766,34.13999938964844,34.22999954223633,34.22999954223633,1800
2020-11-03,35.47999954223633,35.900001525878906,35.13999938964844,35.89500045776367,35.89500045776367,4500
2020-11-04,36.68000030517578,37.85599899291992,36.68000030517578,37.4900016784668,37.4900016784668,2000
2020-11-05,39.02000045776367,39.27000045776367,38.75,38.93000030517578,38.93000030517578,1700
2020-11-06,39.630001068115234,39.81999969482422,39.25199890136719,39.29999923706055,39.29999923706055,7400
2020-11-09,39.22999954223633,39.22999954223633,38.08000183105469,38.22999954223633,38.22999954223633,9400
2020-11-10,37.83000183105469,38.10900115966797,37.47999954223633,38.10900115966797,38.10900115966797,3300
2020-11-11,38.15999984741211,38.15999984741211,37.7599983215332,38.04999923706055,38.04999923706055,3200
2020-11-12,37.41999816894531,37.63999938964844,36.430999755859375,36.85200119018555,36.85200119018555,4000
2020-11-13,37.279998779296875,37.380001068115234,37.130001068115234,37.27000045776367,37.27000045776367,2600
2020-11-16,36.189998626708984,36.189998626708984,35.81999969482422,36.05500030517578,36.05500030517578,3100
2020-11-17,36.52000045776367,36.52000045776367,35.5,36.099998474121094,36.099998474121094,5200
2020-11-18,35.36000061035156,35.75,35.150001525878906,35.150001525878906,35.150001525878906,2000
2020-11-19,35.41999816894531,36.040000915527344,35.41999816894531,36.040000915527344,36.040000915527344,1500
2020-11-20,35.95000076293945,35.95000076293945,35.95000076293945,35.95000076293945,35.95000076293945,800
2020-11-23,36.40999984741211,36.81999969482422,36.125,36.14799880981445,36.14799880981445,1600
2020-11-24,35.88999938964844,36.130001068115234,35.650001525878906,35.83000183105469,35.83000183105469,4600
2020-11-25,36.09000015258789,36.301998138427734,36.09000015258789,36.301998138427734,36.301998138427734,500
2020-11-27,37.209999084472656,37.81999969482422,37.209999084472656,37.62900161743164,37.62900161743164,4100
2020-11-30,38.125,40.0,38.125,38.529998779296875,38.529998779296875,6300
2020-12-01,37.88999938964844,38.209999084472656,37.0,37.34000015258789,37.34000015258789,7000
2020-12-02,37.470001220703125,37.97999954223633,37.470001220703125,37.97999954223633,37.97999954223633,3300
2020-12-03,37.34000015258789,37.34000015258789,36.43000030517578,36.56999969482422,36.56999969482422,5800
2020-12-04,37.20000076293945,37.20000076293945,37.0,37.060001373291016,37.060001373291016,1400
2020-12-07,37.41999816894531,37.41999816894531,37.18000030517578,37.18000030517578,37.18000030517578,1400
2020-12-08,37.388999938964844,37.388999938964844,37.388999938964844,37.388999938964844,37.388999938964844,600
2020-12-09,37.077999114990234,37.077999114990234,36.900001525878906,37.06999969482422,37.06999969482422,4100
2020-12-10,37.06999969482422,37.06999969482422,37.06999969482422,37.06999969482422,37.06999969482422,200
2020-12-11,37.18000030517578,37.36000061035156,37.18000030517578,37.36000061035156,37.36000061035156,700
2020-12-14,38.0,38.75,38.0,38.75,38.75,1100
2020-12-15,34.650001525878906,35.68199920654297,34.279998779296875,35.68000030517578,35.68000030517578,53400
2020-12-16,36.060001373291016,36.11399841308594,35.81999969482422,36.099998474121094,36.099998474121094,37800
2020-12-17,35.97999954223633,36.689998626708984,35.849998474121094,36.689998626708984,36.689998626708984,13500
2020-12-18,36.20000076293945,36.20000076293945,34.470001220703125,34.470001220703125,34.470001220703125,2000
2020-12-21,35.790000915527344,36.31999969482422,35.560001373291016,36.31999969482422,36.31999969482422,2000
2020-12-22,36.5,36.5,36.5,36.5,36.5,600
2020-12-23,35.79999923706055,35.81999969482422,35.79999923706055,35.810001373291016,35.810001373291016,1100
2020-12-24,35.810001373291016,35.81100082397461,35.40999984741211,35.81100082397461,35.81100082397461,1000
2020-12-28,35.95000076293945,36.0989990234375,35.630001068115234,36.0099983215332,36.0099983215332,2400
2020-12-29,37.380001068115234,37.939998626708984,37.36000061035156,37.869998931884766,37.869998931884766,5900
2020-12-30,36.970001220703125,36.970001220703125,36.31999969482422,36.75,36.75,2800
