Date,Open,High,Low,Close,Adj Close,Volume
2017-09-01,7.610000133514404,8.680000305175781,7.5,8.449999809265137,8.449999809265137,300200
2017-09-05,9.15999984741211,9.649999618530273,8.800000190734863,9.484999656677246,9.484999656677246,149400
2017-09-06,9.9399995803833,10.5,9.5,10.270000457763672,10.270000457763672,171500
2017-09-07,10.449999809265137,10.5,8.5,8.859999656677246,8.859999656677246,176700
2017-09-08,8.880000114440918,8.880000114440918,8.170000076293945,8.319999694824219,8.319999694824219,65700
2017-09-11,8.399999618530273,8.9399995803833,7.78000020980835,7.920000076293945,7.920000076293945,47400
2017-09-12,7.849999904632568,8.109999656677246,7.849999904632568,7.909999847412109,7.909999847412109,29700
2017-09-13,8.0,8.239999771118164,8.0,8.0,8.0,36700
2017-09-14,8.010000228881836,8.199999809265137,7.920000076293945,7.920000076293945,7.920000076293945,33600
2017-09-15,8.170000076293945,8.170000076293945,7.900000095367432,8.149999618530273,8.149999618530273,47200
2017-09-18,8.15999984741211,8.170000076293945,7.949999809265137,8.100000381469727,8.100000381469727,24200
2017-09-19,8.069999694824219,8.260000228881836,7.949999809265137,8.260000228881836,8.260000228881836,24500
2017-09-20,8.369999885559082,8.970000267028809,8.34000015258789,8.489999771118164,8.489999771118164,51200
2017-09-21,8.539999961853027,8.539999961853027,8.399999618530273,8.479999542236328,8.479999542236328,9100
2017-09-22,8.539999961853027,8.600000381469727,8.317999839782715,8.350000381469727,8.350000381469727,25600
2017-09-25,8.489999771118164,8.619999885559082,8.260000228881836,8.420000076293945,8.420000076293945,32700
2017-09-26,8.460000038146973,8.460000038146973,8.260000228881836,8.369999885559082,8.369999885559082,6800
2017-09-27,8.289999961853027,8.753999710083008,8.270000457763672,8.569999694824219,8.569999694824219,42700
2017-09-28,8.699999809265137,8.699999809265137,8.529999732971191,8.619999885559082,8.619999885559082,6000
2017-09-29,8.600000381469727,8.680000305175781,8.600000381469727,8.680000305175781,8.680000305175781,5300
2017-10-02,8.760000228881836,8.779999732971191,8.619999885559082,8.649999618530273,8.649999618530273,10600
2017-10-03,8.651000022888184,8.75,8.399999618530273,8.5,8.5,18800
2017-10-04,8.510000228881836,8.59000015258789,8.40999984741211,8.4399995803833,8.4399995803833,15400
2017-10-05,8.399999618530273,8.579000473022461,8.399999618530273,8.5,8.5,7900
2017-10-06,8.59000015258789,8.770000457763672,8.5,8.6899995803833,8.6899995803833,25900
2017-10-09,8.779999732971191,8.970000267028809,8.600000381469727,8.729999542236328,8.729999542236328,71500
2017-10-10,8.729999542236328,9.420000076293945,8.699999809265137,9.25,9.25,196500
2017-10-11,9.430000305175781,9.430000305175781,8.880000114440918,9.329999923706055,9.329999923706055,153600
2017-10-12,9.4399995803833,9.4399995803833,9.140000343322754,9.40999984741211,9.40999984741211,47400
2017-10-13,9.479999542236328,10.199999809265137,9.369999885559082,9.869999885559082,9.869999885559082,297800
2017-10-16,10.229999542236328,10.229999542236328,8.840999603271484,8.876999855041504,8.876999855041504,58900
2017-10-17,9.300000190734863,9.489999771118164,7.840000152587891,8.109999656677246,8.109999656677246,116500
2017-10-18,8.369999885559082,8.619000434875488,7.5,8.0,8.0,114500
2017-10-19,8.09000015258789,8.350000381469727,7.599999904632568,8.15999984741211,8.15999984741211,29900
2017-10-20,8.229999542236328,8.479999542236328,8.149999618530273,8.229999542236328,8.229999542236328,21200
2017-10-23,8.5600004196167,8.670000076293945,7.659999847412109,7.880000114440918,7.880000114440918,41600
2017-10-24,7.849999904632568,7.989999771118164,7.699999809265137,7.760000228881836,7.760000228881836,26600
2017-10-25,7.690000057220459,7.755000114440918,6.71999979019165,6.809999942779541,6.809999942779541,43100
2017-10-26,6.75,7.184999942779541,6.739999771118164,6.880000114440918,6.880000114440918,32100
2017-10-27,6.900000095367432,6.900000095367432,6.699999809265137,6.840000152587891,6.840000152587891,21500
2017-10-30,6.800000190734863,6.952000141143799,6.800000190734863,6.900000095367432,6.900000095367432,8300
2017-10-31,6.949999809265137,7.099999904632568,6.769999980926514,7.099999904632568,7.099999904632568,21600
2017-11-01,7.0,7.300000190734863,7.0,7.150000095367432,7.150000095367432,18500
2017-11-02,7.139999866485596,7.340000152587891,7.050000190734863,7.329999923706055,7.329999923706055,20800
2017-11-03,7.269999980926514,7.380000114440918,7.190000057220459,7.340000152587891,7.340000152587891,13800
2017-11-06,7.329999923706055,7.710000038146973,7.309999942779541,7.480000019073486,7.480000019073486,7600
2017-11-07,7.519999980926514,7.519999980926514,7.315999984741211,7.420000076293945,7.420000076293945,7800
2017-11-08,7.360000133514404,7.369999885559082,7.110000133514404,7.260000228881836,7.260000228881836,16900
2017-11-09,7.289999961853027,7.626999855041504,7.289999961853027,7.329999923706055,7.329999923706055,18600
2017-11-10,7.199999809265137,7.60699987411499,7.199999809265137,7.409999847412109,7.409999847412109,9400
2017-11-13,7.329999923706055,7.517000198364258,7.199999809265137,7.440000057220459,7.440000057220459,16200
2017-11-14,7.519999980926514,7.519999980926514,7.380000114440918,7.5,7.5,15700
2017-11-15,7.460000038146973,7.5,7.420000076293945,7.449999809265137,7.449999809265137,8600
2017-11-16,7.409999847412109,7.506999969482422,7.400000095367432,7.5,7.5,4800
2017-11-17,7.519999980926514,8.0,7.46999979019165,7.670000076293945,7.670000076293945,56800
2017-11-20,7.699999809265137,7.739999771118164,7.650000095367432,7.730000019073486,7.730000019073486,16400
2017-11-21,7.650000095367432,7.901000022888184,7.650000095367432,7.760000228881836,7.760000228881836,39100
2017-11-22,7.710000038146973,7.710000038146973,7.599999904632568,7.659999847412109,7.659999847412109,22500
2017-11-24,7.619999885559082,7.800000190734863,7.590000152587891,7.670000076293945,7.670000076293945,11800
2017-11-27,7.590000152587891,7.760000228881836,7.590000152587891,7.760000228881836,7.760000228881836,14500
2017-11-28,7.690000057220459,7.758999824523926,7.670000076293945,7.690000057220459,7.690000057220459,6800
2017-11-29,7.730000019073486,7.900000095367432,7.698999881744385,7.820000171661377,7.820000171661377,15700
2017-11-30,7.909999847412109,7.964000225067139,7.829999923706055,7.829999923706055,7.829999923706055,15400
2017-12-01,7.900000095367432,7.900000095367432,7.78000020980835,7.889999866485596,7.889999866485596,22700
2017-12-04,7.920000076293945,7.920000076293945,7.849999904632568,7.909999847412109,7.909999847412109,2400
2017-12-05,7.939000129699707,7.939000129699707,7.800000190734863,7.800000190734863,7.800000190734863,20400
2017-12-06,7.931000232696533,7.989999771118164,7.869999885559082,7.96999979019165,7.96999979019165,24800
2017-12-07,8.0,8.319999694824219,8.0,8.25,8.25,94900
2017-12-08,8.28499984741211,8.289999961853027,8.079999923706055,8.173999786376953,8.173999786376953,48400
2017-12-11,8.149999618530273,8.25,8.0600004196167,8.0600004196167,8.0600004196167,24100
2017-12-12,8.100000381469727,8.140000343322754,8.029999732971191,8.109999656677246,8.109999656677246,29200
2017-12-13,8.0600004196167,8.100000381469727,8.039999961853027,8.050000190734863,8.050000190734863,20000
2017-12-14,8.010000228881836,8.220000267028809,8.010000228881836,8.210000038146973,8.210000038146973,24900
2017-12-15,8.220000267028809,8.220000267028809,8.100000381469727,8.119999885559082,8.119999885559082,12900
2017-12-18,8.220000267028809,8.902000427246094,8.220000267028809,8.390000343322754,8.390000343322754,68300
2017-12-19,8.4399995803833,8.550000190734863,8.380000114440918,8.4399995803833,8.4399995803833,20500
2017-12-20,8.529999732971191,8.649999618530273,8.446999549865723,8.529999732971191,8.529999732971191,45300
2017-12-21,8.600000381469727,9.0,8.526000022888184,8.649999618530273,8.649999618530273,109200
2017-12-22,8.699999809265137,9.0,8.6899995803833,8.739999771118164,8.739999771118164,48900
2017-12-26,9.0,9.229999542236328,8.899999618530273,8.920000076293945,8.920000076293945,37800
2017-12-27,9.0,9.170000076293945,8.880000114440918,9.109999656677246,9.109999656677246,43800
2017-12-28,16.0,16.0,9.789999961853027,10.100000381469727,10.100000381469727,2716800
2017-12-29,9.890000343322754,10.0,8.609999656677246,9.800000190734863,9.800000190734863,374600
2018-01-02,10.0,11.470000267028809,10.0,11.470000267028809,11.470000267028809,229000
2018-01-03,11.779999732971191,11.869999885559082,11.109999656677246,11.5,11.5,179000
2018-01-04,11.569999694824219,11.64900016784668,10.859999656677246,11.569999694824219,11.569999694824219,94900
2018-01-05,11.979999542236328,11.979999542236328,10.90999984741211,11.420000076293945,11.420000076293945,125700
2018-01-08,11.670000076293945,12.100000381469727,11.289999961853027,12.09000015258789,12.09000015258789,100300
2018-01-09,12.050000190734863,12.180000305175781,11.6899995803833,12.109999656677246,12.109999656677246,81400
2018-01-10,12.449999809265137,12.850000381469727,11.144000053405762,11.350000381469727,11.350000381469727,466800
2018-01-11,11.170000076293945,11.510000228881836,10.029999732971191,10.630000114440918,10.630000114440918,130800
2018-01-12,10.600000381469727,10.680000305175781,10.25,10.609999656677246,10.609999656677246,45300
2018-01-16,10.899999618530273,10.899999618530273,9.649999618530273,9.800000190734863,9.800000190734863,97700
2018-01-17,9.859999656677246,9.859999656677246,8.329999923706055,8.949999809265137,8.949999809265137,136100
2018-01-18,9.050000190734863,10.09000015258789,9.020000457763672,9.770000457763672,9.770000457763672,133300
2018-01-19,9.800000190734863,10.149999618530273,9.600000381469727,10.109999656677246,10.109999656677246,49200
2018-01-22,10.100000381469727,10.289999961853027,9.819999694824219,10.109999656677246,10.109999656677246,71400
2018-01-23,10.199999809265137,10.399999618530273,10.199999809265137,10.380000114440918,10.380000114440918,31000
2018-01-24,10.399999618530273,10.470000267028809,10.00100040435791,10.4399995803833,10.4399995803833,45000
2018-01-25,10.479999542236328,10.489999771118164,10.369999885559082,10.369999885559082,10.369999885559082,27300
2018-01-26,10.489999771118164,10.489999771118164,9.630000114440918,10.0,10.0,22900
2018-01-29,9.890000343322754,10.229999542236328,9.890000343322754,10.149999618530273,10.149999618530273,26600
2018-01-30,10.270000457763672,10.270000457763672,9.531999588012695,9.960000038146973,9.960000038146973,47600
2018-01-31,10.239999771118164,10.430000305175781,8.420000076293945,8.760000228881836,8.760000228881836,187000
2018-02-01,8.90999984741211,9.029000282287598,8.5,8.880000114440918,8.880000114440918,76800
2018-02-02,8.899999618530273,8.899999618530273,8.255999565124512,8.399999618530273,8.399999618530273,35200
2018-02-05,8.34000015258789,8.34000015258789,7.110000133514404,7.578999996185303,7.578999996185303,53100
2018-02-06,7.110000133514404,7.585999965667725,6.699999809265137,7.139999866485596,7.139999866485596,53100
2018-02-07,7.269999980926514,7.980000019073486,7.230000019073486,7.610000133514404,7.610000133514404,35700
2018-02-08,7.710000038146973,8.09000015258789,7.625999927520752,7.840000152587891,7.840000152587891,17300
2018-02-09,7.909999847412109,8.260000228881836,7.909999847412109,8.149999618530273,8.149999618530273,10000
2018-02-12,8.25,8.300000190734863,7.5,7.96999979019165,7.96999979019165,183000
2018-02-13,8.109999656677246,8.130000114440918,7.560999870300293,7.929999828338623,7.929999828338623,135700
2018-02-14,7.980000019073486,8.199999809265137,7.900000095367432,8.15999984741211,8.15999984741211,88900
2018-02-15,8.25,8.25,8.0,8.140000343322754,8.140000343322754,55600
2018-02-16,8.149999618530273,8.149999618530273,7.610000133514404,7.670000076293945,7.670000076293945,21200
2018-02-20,7.869999885559082,8.050000190734863,7.610000133514404,7.679999828338623,7.679999828338623,36100
2018-02-21,7.760000228881836,7.820000171661377,7.360000133514404,7.360000133514404,7.360000133514404,45400
2018-02-22,7.440000057220459,7.559999942779541,7.198999881744385,7.409999847412109,7.409999847412109,32000
2018-02-23,7.369999885559082,7.369999885559082,6.900000095367432,6.909999847412109,6.909999847412109,31100
2018-02-26,6.840000152587891,7.2729997634887695,6.840000152587891,7.119999885559082,7.119999885559082,99900
2018-02-27,7.21999979019165,7.349999904632568,6.849999904632568,7.179999828338623,7.179999828338623,75600
2018-02-28,7.179999828338623,7.199999809265137,7.085999965667725,7.190000057220459,7.190000057220459,54300
2018-03-01,7.289999961853027,7.289999961853027,7.010000228881836,7.190000057220459,7.190000057220459,28200
2018-03-02,7.130000114440918,7.190000057220459,7.059999942779541,7.110000133514404,7.110000133514404,14600
2018-03-05,7.0,7.139999866485596,7.0,7.079999923706055,7.079999923706055,13100
2018-03-06,7.070000171661377,7.198999881744385,7.070000171661377,7.099999904632568,7.099999904632568,10100
2018-03-07,7.010000228881836,7.199999809265137,7.010000228881836,7.119999885559082,7.119999885559082,21000
2018-03-08,7.170000076293945,7.170000076293945,7.0,7.150000095367432,7.150000095367432,14700
2018-03-09,7.150000095367432,7.25,7.090000152587891,7.159999847412109,7.159999847412109,34100
2018-03-12,7.139999866485596,7.21999979019165,7.139999866485596,7.179999828338623,7.179999828338623,23300
2018-03-13,7.139999866485596,7.239999771118164,7.110000133514404,7.239999771118164,7.239999771118164,34300
2018-03-14,7.139999866485596,7.199999809265137,7.039999961853027,7.159999847412109,7.159999847412109,27300
2018-03-15,7.329999923706055,7.367000102996826,7.119999885559082,7.239999771118164,7.239999771118164,85900
2018-03-16,7.25,7.340000152587891,7.110000133514404,7.289999961853027,7.289999961853027,119900
2018-03-19,7.300000190734863,7.300000190734863,7.076000213623047,7.130000114440918,7.130000114440918,9200
2018-03-20,7.190000057220459,7.190000057220459,7.060999870300293,7.079999923706055,7.079999923706055,10800
2018-03-21,7.139999866485596,7.139999866485596,7.039999961853027,7.079999923706055,7.079999923706055,8000
2018-03-22,7.110000133514404,7.150000095367432,6.550000190734863,6.909999847412109,6.909999847412109,36600
2018-03-23,7.130000114440918,7.139999866485596,6.9679999351501465,7.019999980926514,7.019999980926514,13900
2018-03-26,7.150000095367432,7.150000095367432,6.644000053405762,6.789999961853027,6.789999961853027,31300
2018-03-27,7.099999904632568,7.130000114440918,6.681000232696533,6.900000095367432,6.900000095367432,35300
2018-03-28,6.920000076293945,7.03000020980835,6.684000015258789,6.699999809265137,6.699999809265137,27000
2018-03-29,6.739999771118164,6.868000030517578,6.710000038146973,6.710000038146973,6.710000038146973,11700
2018-04-02,6.800000190734863,6.829999923706055,6.539999961853027,6.659999847412109,6.659999847412109,15700
2018-04-03,6.619999885559082,6.619999885559082,6.010000228881836,6.130000114440918,6.130000114440918,45100
2018-04-04,6.598999977111816,6.598999977111816,6.019999980926514,6.389999866485596,6.389999866485596,26000
2018-04-05,6.429999828338623,6.869999885559082,6.309999942779541,6.869999885559082,6.869999885559082,51000
2018-04-06,6.820000171661377,6.84499979019165,6.539999961853027,6.769000053405762,6.769000053405762,7800
2018-04-09,6.800000190734863,6.860000133514404,6.619999885559082,6.670000076293945,6.670000076293945,4500
2018-04-10,6.789999961853027,7.236000061035156,6.789999961853027,7.0,7.0,50600
2018-04-11,7.070000171661377,7.084000110626221,6.889999866485596,6.929999828338623,6.929999828338623,17100
2018-04-12,6.949999809265137,7.019999980926514,6.929999828338623,6.960000038146973,6.960000038146973,3300
2018-04-13,7.059999942779541,7.110000133514404,6.829999923706055,7.059999942779541,7.059999942779541,19000
2018-04-16,7.139999866485596,7.21999979019165,7.0279998779296875,7.190000057220459,7.190000057220459,19300
2018-04-17,7.179999828338623,7.190000057220459,7.0,7.0,7.0,15100
2018-04-18,7.050000190734863,7.159999847412109,6.989999771118164,7.119999885559082,7.119999885559082,3800
2018-04-19,7.084000110626221,7.084000110626221,6.920000076293945,7.0,7.0,8500
2018-04-20,6.960000038146973,6.989999771118164,6.650000095367432,6.809999942779541,6.809999942779541,16100
2018-04-23,6.769999980926514,6.809999942779541,6.5,6.5,6.5,8800
2018-04-24,6.440000057220459,6.614999771118164,6.349999904632568,6.349999904632568,6.349999904632568,12500
2018-04-25,6.389999866485596,6.877999782562256,6.389999866485596,6.699999809265137,6.699999809265137,16300
2018-04-26,6.570000171661377,6.769999980926514,6.570000171661377,6.710000038146973,6.710000038146973,9300
2018-04-27,6.760000228881836,6.949999809265137,6.738999843597412,6.84499979019165,6.84499979019165,15700
2018-04-30,6.860000133514404,6.900000095367432,6.800000190734863,6.900000095367432,6.900000095367432,8100
2018-05-01,6.860000133514404,6.934999942779541,6.71999979019165,6.71999979019165,6.71999979019165,5600
2018-05-02,6.659999847412109,6.920000076293945,6.510000228881836,6.510000228881836,6.510000228881836,14700
2018-05-03,6.550000190734863,6.795000076293945,6.550000190734863,6.71999979019165,6.71999979019165,12600
2018-05-04,6.71999979019165,6.813000202178955,6.71999979019165,6.78000020980835,6.78000020980835,13100
2018-05-07,6.75,6.75,6.663000106811523,6.679999828338623,6.679999828338623,3200
2018-05-08,6.670000076293945,6.900000095367432,6.545000076293945,6.760000228881836,6.760000228881836,17900
2018-05-09,6.900000095367432,6.900000095367432,6.699999809265137,6.699999809265137,6.699999809265137,7600
2018-05-10,6.760000228881836,6.889999866485596,6.5,6.630000114440918,6.630000114440918,10700
2018-05-11,6.590000152587891,6.679999828338623,6.590000152587891,6.650000095367432,6.650000095367432,6000
2018-05-14,6.679999828338623,6.679999828338623,6.610000133514404,6.610000133514404,6.610000133514404,3100
2018-05-15,6.559999942779541,6.670000076293945,6.559999942779541,6.659999847412109,6.659999847412109,6700
2018-05-16,6.659999847412109,6.670000076293945,6.579999923706055,6.659999847412109,6.659999847412109,8200
2018-05-17,6.679999828338623,6.679999828338623,6.638999938964844,6.670000076293945,6.670000076293945,2300
2018-05-18,6.699999809265137,6.699999809265137,6.599999904632568,6.640999794006348,6.640999794006348,4000
2018-05-21,6.679999828338623,6.679999828338623,6.494999885559082,6.539999961853027,6.539999961853027,22100
2018-05-22,6.578999996185303,6.599999904632568,6.46999979019165,6.559000015258789,6.559000015258789,4900
2018-05-23,6.590000152587891,6.699999809265137,6.4029998779296875,6.699999809265137,6.699999809265137,3000
2018-05-24,6.684000015258789,6.684000015258789,6.510000228881836,6.669000148773193,6.669000148773193,2200
2018-05-25,6.685999870300293,6.690000057220459,6.449999809265137,6.690000057220459,6.690000057220459,3600
2018-05-29,6.679999828338623,6.738999843597412,6.651000022888184,6.71999979019165,6.71999979019165,7500
2018-05-30,6.677999973297119,6.690000057220459,6.610000133514404,6.670000076293945,6.670000076293945,2300
2018-05-31,6.610000133514404,6.659999847412109,6.610000133514404,6.659999847412109,6.659999847412109,1000
2018-06-01,6.626999855041504,6.638000011444092,6.579999923706055,6.579999923706055,6.579999923706055,5000
2018-06-04,6.5,6.699999809265137,6.5,6.5,6.5,12100
2018-06-05,6.559999942779541,6.559999942779541,6.400000095367432,6.400000095367432,6.400000095367432,4700
2018-06-06,6.400000095367432,6.441999912261963,5.980000019073486,5.980000019073486,5.980000019073486,5800
2018-06-07,5.989999771118164,6.300000190734863,5.989999771118164,6.239999771118164,6.239999771118164,5400
2018-06-08,6.239999771118164,6.239999771118164,6.110000133514404,6.110000133514404,6.110000133514404,6200
2018-06-11,6.079999923706055,6.480000019073486,6.03000020980835,6.260000228881836,6.260000228881836,46700
2018-06-12,6.360000133514404,6.360000133514404,5.699999809265137,6.13100004196167,6.13100004196167,41600
2018-06-13,6.059999942779541,6.28000020980835,5.699999809265137,5.880000114440918,5.880000114440918,32000
2018-06-14,5.949999809265137,7.510000228881836,5.630000114440918,6.320000171661377,6.320000171661377,113400
2018-06-15,5.829999923706055,6.840000152587891,5.829999923706055,6.769999980926514,6.769999980926514,119900
2018-06-18,6.849999904632568,6.928999900817871,6.079999923706055,6.329999923706055,6.329999923706055,41800
2018-06-19,6.070000171661377,6.289999961853027,5.03000020980835,5.577000141143799,5.577000141143799,109500
2018-06-20,5.599999904632568,5.689000129699707,5.309999942779541,5.320000171661377,5.320000171661377,28200
2018-06-21,5.738999843597412,5.738999843597412,5.300000190734863,5.449999809265137,5.449999809265137,21300
2018-06-22,5.519999980926514,5.611000061035156,5.300000190734863,5.369999885559082,5.369999885559082,20900
2018-06-25,5.460000038146973,5.5980000495910645,5.119999885559082,5.210000038146973,5.210000038146973,12500
2018-06-26,5.052000045776367,5.28000020980835,5.052000045776367,5.110000133514404,5.110000133514404,12100
2018-06-27,5.159999847412109,5.21999979019165,4.75,4.869999885559082,4.869999885559082,16200
2018-06-28,5.110000133514404,5.110000133514404,4.52400016784668,4.650000095367432,4.650000095367432,7800
2018-06-29,4.61299991607666,4.656000137329102,3.1700000762939453,3.1700000762939453,3.1700000762939453,120500
2018-07-02,3.1700000762939453,4.659999847412109,3.1700000762939453,4.309999942779541,4.309999942779541,158000
2018-07-03,4.159999847412109,4.2779998779296875,3.640000104904175,4.0,4.0,51100
2018-07-05,4.0,4.085000038146973,4.0,4.039999961853027,4.039999961853027,13400
2018-07-06,4.010000228881836,4.099999904632568,3.7300000190734863,3.8399999141693115,3.8399999141693115,22300
2018-07-09,3.740000009536743,4.039000034332275,3.740000009536743,3.8499999046325684,3.8499999046325684,24700
2018-07-10,3.9240000247955322,3.9769999980926514,3.319999933242798,3.5899999141693115,3.5899999141693115,35400
2018-07-11,3.680000066757202,3.680000066757202,3.509999990463257,3.5299999713897705,3.5299999713897705,20600
2018-07-12,3.509999990463257,3.6700000762939453,3.4179999828338623,3.6600000858306885,3.6600000858306885,28100
2018-07-13,3.359999895095825,3.7829999923706055,3.259999990463257,3.509999990463257,3.509999990463257,13600
2018-07-16,3.441999912261963,3.4779999256134033,3.359999895095825,3.430000066757202,3.430000066757202,3000
2018-07-17,3.430000066757202,3.430000066757202,3.1500000953674316,3.4200000762939453,3.4200000762939453,34200
2018-07-18,3.5,3.9600000381469727,3.4100000858306885,3.510999917984009,3.510999917984009,55800
2018-07-19,3.5799999237060547,3.700000047683716,3.359999895095825,3.359999895095825,3.359999895095825,7400
2018-07-20,3.359999895095825,3.4200000762939453,3.1570000648498535,3.309999942779541,3.309999942779541,11800
2018-07-23,3.2799999713897705,3.4100000858306885,3.2799999713897705,3.4100000858306885,3.4100000858306885,6000
2018-07-24,3.359999895095825,3.377000093460083,3.2279999256134033,3.2899999618530273,3.2899999618530273,11400
2018-07-25,3.3299999237060547,3.4630000591278076,3.2269999980926514,3.2899999618530273,3.2899999618530273,6900
2018-07-26,3.299999952316284,3.490000009536743,3.299999952316284,3.4000000953674316,3.4000000953674316,14800
2018-07-27,3.490000009536743,3.7200000286102295,3.4700000286102295,3.7200000286102295,3.7200000286102295,34000
2018-07-30,3.8299999237060547,4.159999847412109,3.75,4.139999866485596,4.139999866485596,59900
2018-07-31,4.110000133514404,4.139999866485596,3.640000104904175,3.98799991607666,3.98799991607666,40900
2018-08-01,4.090000152587891,4.090000152587891,3.680000066757202,3.8499999046325684,3.8499999046325684,8800
2018-08-02,3.950000047683716,4.296000003814697,3.815000057220459,4.199999809265137,4.199999809265137,45600
2018-08-03,4.329999923706055,4.489999771118164,4.085999965667725,4.489999771118164,4.489999771118164,20700
2018-08-06,4.570000171661377,4.734000205993652,3.950000047683716,4.150000095367432,4.150000095367432,28700
2018-08-07,4.150000095367432,4.150000095367432,4.013000011444092,4.099999904632568,4.099999904632568,11200
2018-08-08,4.099999904632568,4.099999904632568,3.799999952316284,3.9700000286102295,3.9700000286102295,13500
2018-08-09,3.859999895095825,4.322000026702881,3.859999895095825,4.090000152587891,4.090000152587891,25300
2018-08-10,4.139999866485596,4.150000095367432,3.933000087738037,4.09499979019165,4.09499979019165,8100
2018-08-13,4.119999885559082,4.119999885559082,4.013999938964844,4.013999938964844,4.013999938964844,900
2018-08-14,4.110000133514404,4.150000095367432,4.010000228881836,4.079999923706055,4.079999923706055,13100
2018-08-15,4.150000095367432,4.159999847412109,3.505000114440918,3.680000066757202,3.680000066757202,22300
2018-08-16,3.7100000381469727,3.8399999141693115,3.7079999446868896,3.8399999141693115,3.8399999141693115,2900
2018-08-17,3.6600000858306885,3.930000066757202,3.621999979019165,3.6600000858306885,3.6600000858306885,16700
2018-08-20,3.7300000190734863,3.9040000438690186,3.7300000190734863,3.7769999504089355,3.7769999504089355,7000
2018-08-21,3.7839999198913574,3.950000047683716,3.7839999198913574,3.934000015258789,3.934000015258789,3400
2018-08-22,3.950000047683716,4.090000152587891,3.9200000762939453,4.021999835968018,4.021999835968018,3600
2018-08-23,3.9210000038146973,3.9660000801086426,3.9000000953674316,3.9000000953674316,3.9000000953674316,16700
2018-08-24,3.9100000858306885,3.931999921798706,3.75,3.859999895095825,3.859999895095825,1600
2018-08-27,3.859999895095825,3.9000000953674316,3.5329999923706055,3.8380000591278076,3.8380000591278076,6700
2018-08-28,3.799999952316284,3.890000104904175,3.5899999141693115,3.890000104904175,3.890000104904175,13900
2018-08-29,3.890000104904175,3.890000104904175,3.740000009536743,3.799999952316284,3.799999952316284,10500
2018-08-30,3.869999885559082,3.869999885559082,3.5309998989105225,3.8499999046325684,3.8499999046325684,2700
2018-08-31,3.930999994277954,3.930999994277954,3.4000000953674316,3.5460000038146973,3.5460000038146973,11500
2018-09-04,3.5299999713897705,3.7109999656677246,3.5299999713897705,3.569999933242798,3.569999933242798,6600
2018-09-05,3.569999933242798,3.569999933242798,3.4609999656677246,3.4700000286102295,3.4700000286102295,27600
2018-09-06,3.5899999141693115,3.690999984741211,3.5899999141693115,3.690999984741211,3.690999984741211,1000
2018-09-07,3.680000066757202,3.680000066757202,3.4600000381469727,3.4600000381469727,3.4600000381469727,2900
2018-09-10,3.4600000381469727,3.4600000381469727,3.368000030517578,3.4509999752044678,3.4509999752044678,6200
2018-09-11,3.380000114440918,3.5429999828338623,3.180000066757202,3.180000066757202,3.180000066757202,2100
2018-09-12,3.1700000762939453,3.4189999103546143,3.1700000762939453,3.3989999294281006,3.3989999294281006,6100
2018-09-13,3.369999885559082,3.369999885559082,3.246000051498413,3.3299999237060547,3.3299999237060547,6400
2018-09-14,3.130000114440918,3.490000009536743,3.130000114440918,3.25,3.25,13600
2018-09-17,3.2300000190734863,3.378000020980835,3.2300000190734863,3.319999933242798,3.319999933242798,3400
2018-09-18,3.431999921798706,3.4489998817443848,3.319999933242798,3.319999933242798,3.319999933242798,11400
2018-09-19,3.0999999046325684,3.0999999046325684,2.6700000762939453,3.0,3.0,68300
2018-09-20,3.0,3.009999990463257,2.950000047683716,2.950000047683716,2.950000047683716,5600
2018-09-21,2.9800000190734863,2.990000009536743,2.9000000953674316,2.990000009536743,2.990000009536743,16200
2018-09-24,2.927000045776367,2.9839999675750732,2.9000000953674316,2.930000066757202,2.930000066757202,6400
2018-09-25,2.9100000858306885,2.9100000858306885,2.9000000953674316,2.9100000858306885,2.9100000858306885,2400
2018-09-26,2.9000000953674316,2.9509999752044678,2.9000000953674316,2.9230000972747803,2.9230000972747803,2000
2018-09-27,2.990000009536743,3.0,2.934999942779541,2.950000047683716,2.950000047683716,20200
2018-09-28,2.950000047683716,3.0899999141693115,2.950000047683716,2.9660000801086426,2.9660000801086426,5000
2018-10-01,3.0299999713897705,3.200000047683716,3.0299999713897705,3.200000047683716,3.200000047683716,4300
2018-10-02,3.200000047683716,3.2239999771118164,2.940000057220459,3.130000114440918,3.130000114440918,25100
2018-10-03,3.140000104904175,3.1500000953674316,2.9260001182556152,3.130000114440918,3.130000114440918,2500
2018-10-04,3.1500000953674316,3.1500000953674316,3.0450000762939453,3.130000114440918,3.130000114440918,1400
2018-10-05,3.059999942779541,3.140000104904175,2.9549999237060547,3.0999999046325684,3.0999999046325684,1700
2018-10-08,3.0299999713897705,3.0999999046325684,2.9600000381469727,3.0999999046325684,3.0999999046325684,2500
2018-10-09,3.0899999141693115,3.196000099182129,3.0,3.0199999809265137,3.0199999809265137,12200
2018-10-10,3.0,3.1500000953674316,2.944999933242798,3.130000114440918,3.130000114440918,5700
2018-10-11,3.109999895095825,3.140000104904175,2.936000108718872,3.140000104904175,3.140000104904175,2000
2018-10-12,3.0299999713897705,3.1500000953674316,2.9570000171661377,3.1500000953674316,3.1500000953674316,8300
2018-10-15,3.1700000762939453,3.1700000762939453,3.0999999046325684,3.128000020980835,3.128000020980835,11300
2018-10-16,3.078000068664551,3.171999931335449,3.059999942779541,3.059999942779541,3.059999942779541,5200
2018-10-17,3.109999895095825,3.490000009536743,3.0390000343322754,3.244999885559082,3.244999885559082,51700
2018-10-18,3.140000104904175,3.1500000953674316,3.059999942779541,3.130000114440918,3.130000114440918,15900
2018-10-19,3.180000066757202,3.690000057220459,2.940000057220459,3.075000047683716,3.075000047683716,220600
2018-10-22,3.069999933242798,3.200000047683716,2.9649999141693115,3.006999969482422,3.006999969482422,17500
2018-10-23,3.059999942779541,3.059999942779541,2.6700000762939453,2.938999891281128,2.938999891281128,41500
2018-10-24,2.8499999046325684,2.9800000190734863,2.569999933242798,2.884999990463257,2.884999990463257,8200
2018-10-25,2.9000000953674316,2.9000000953674316,2.4200000762939453,2.5999999046325684,2.5999999046325684,18300
2018-10-26,2.5299999713897705,2.5799999237060547,2.309999942779541,2.309999942779541,2.309999942779541,8900
2018-10-29,2.319999933242798,2.4489998817443848,2.1700000762939453,2.3299999237060547,2.3299999237060547,20400
2018-10-30,2.259999990463257,2.259999990463257,2.0899999141693115,2.1500000953674316,2.1500000953674316,10100
2018-10-31,2.1700000762939453,2.490000009536743,2.1700000762939453,2.450000047683716,2.450000047683716,9100
2018-11-01,2.450000047683716,2.4600000381469727,2.312000036239624,2.450000047683716,2.450000047683716,5600
2018-11-02,2.450000047683716,2.5,2.299999952316284,2.5,2.5,6500
2018-11-05,2.4700000286102295,2.5,2.4079999923706055,2.5,2.5,1900
2018-11-06,2.4800000190734863,2.4800000190734863,2.390000104904175,2.4000000953674316,2.4000000953674316,1900
2018-11-07,2.440000057220459,2.569999933242798,2.359999895095825,2.490000009536743,2.490000009536743,21900
2018-11-08,2.4800000190734863,2.569999933242798,2.4200000762939453,2.4549999237060547,2.4549999237060547,4500
2018-11-09,2.4000000953674316,2.443000078201294,2.180000066757202,2.200000047683716,2.200000047683716,11900
2018-11-12,2.200000047683716,2.2039999961853027,2.0799999237060547,2.0799999237060547,2.0799999237060547,5000
2018-11-13,2.119999885559082,2.119999885559082,1.7999999523162842,1.7999999523162842,1.7999999523162842,58500
2018-11-14,1.8300000429153442,1.9299999475479126,1.6200000047683716,1.7999999523162842,1.7999999523162842,31800
2018-11-15,1.7400000095367432,1.909999966621399,1.7000000476837158,1.7300000190734863,1.7300000190734863,20000
2018-11-16,1.7300000190734863,1.8600000143051147,1.6299999952316284,1.6799999475479126,1.6799999475479126,11800
2018-11-19,1.6200000047683716,1.7419999837875366,1.6200000047683716,1.649999976158142,1.649999976158142,7000
2018-11-20,1.6299999952316284,1.8200000524520874,1.6299999952316284,1.6299999952316284,1.6299999952316284,12200
2018-11-21,1.6399999856948853,1.850000023841858,1.6399999856948853,1.659999966621399,1.659999966621399,1600
2018-11-23,1.659999966621399,1.659999966621399,1.659999966621399,1.659999966621399,1.659999966621399,100
2018-11-26,1.7400000095367432,1.7999999523162842,1.659999966621399,1.6699999570846558,1.6699999570846558,1700
2018-11-27,1.7389999628067017,1.7389999628067017,1.659999966621399,1.7000000476837158,1.7000000476837158,900
2018-11-28,1.6699999570846558,1.6829999685287476,1.3300000429153442,1.399999976158142,1.399999976158142,42100
2018-11-29,1.5099999904632568,1.7000000476837158,1.4270000457763672,1.5499999523162842,1.5499999523162842,16200
2018-11-30,1.5,1.7100000381469727,1.5,1.7000000476837158,1.7000000476837158,1800
2018-12-03,1.899999976158142,2.0899999141693115,1.6299999952316284,1.9900000095367432,1.9900000095367432,19300
2018-12-04,1.9800000190734863,1.9800000190734863,1.649999976158142,1.7999999523162842,1.7999999523162842,2000
2018-12-06,1.7300000190734863,1.7300000190734863,1.5199999809265137,1.690000057220459,1.690000057220459,15600
2018-12-07,1.6330000162124634,1.850000023841858,1.600000023841858,1.6009999513626099,1.6009999513626099,27900
2018-12-10,1.6100000143051147,1.8949999809265137,1.600000023841858,1.6399999856948853,1.6399999856948853,7600
2018-12-11,1.8899999856948853,1.9900000095367432,1.600000023841858,1.6200000047683716,1.6200000047683716,41900
2018-12-12,1.6100000143051147,1.8660000562667847,1.6100000143051147,1.7000000476837158,1.7000000476837158,20400
2018-12-13,1.7089999914169312,1.7089999914169312,1.7089999914169312,1.7089999914169312,1.7089999914169312,2400
2018-12-14,1.7000000476837158,1.8109999895095825,1.7000000476837158,1.7380000352859497,1.7380000352859497,6300
2018-12-17,1.74399995803833,1.74399995803833,1.690000057220459,1.690000057220459,1.690000057220459,6700
2018-12-18,1.7009999752044678,1.7009999752044678,1.5470000505447388,1.5980000495910645,1.5980000495910645,19200
2018-12-19,1.6200000047683716,1.690000057220459,1.600000023841858,1.649999976158142,1.649999976158142,13100
2018-12-20,1.6299999952316284,1.6299999952316284,1.5499999523162842,1.5499999523162842,1.5499999523162842,72000
2018-12-21,1.6799999475479126,1.6799999475479126,1.5299999713897705,1.5429999828338623,1.5429999828338623,11600
2018-12-24,1.559999942779541,1.559999942779541,1.350000023841858,1.3990000486373901,1.3990000486373901,38800
2018-12-26,1.4600000381469727,1.4600000381469727,1.25,1.3300000429153442,1.3300000429153442,7500
2018-12-27,1.3700000047683716,1.3700000047683716,1.2599999904632568,1.2699999809265137,1.2699999809265137,8000
2018-12-28,1.2899999618530273,1.4839999675750732,1.2799999713897705,1.4199999570846558,1.4199999570846558,28800
2018-12-31,1.4500000476837158,1.5099999904632568,1.4199999570846558,1.4199999570846558,1.4199999570846558,17300
2019-01-02,1.4199999570846558,1.5800000429153442,1.4129999876022339,1.5700000524520874,1.5700000524520874,2100
2019-01-03,1.5,1.5800000429153442,1.4709999561309814,1.4709999561309814,1.4709999561309814,5300
2019-01-04,1.590000033378601,1.7619999647140503,1.590000033378601,1.6699999570846558,1.6699999570846558,6700
2019-01-07,1.8600000143051147,1.8600000143051147,1.7000000476837158,1.7000000476837158,1.7000000476837158,13300
2019-01-08,1.8200000524520874,1.8200000524520874,1.5499999523162842,1.5499999523162842,1.5499999523162842,3500
2019-01-09,1.590000033378601,1.8300000429153442,1.5700000524520874,1.8300000429153442,1.8300000429153442,4500
2019-01-10,1.7999999523162842,1.7999999523162842,1.6399999856948853,1.6399999856948853,1.6399999856948853,2100
2019-01-11,1.75,1.7999999523162842,1.6820000410079956,1.7200000286102295,1.7200000286102295,3600
2019-01-14,1.7100000381469727,1.7899999618530273,1.656999945640564,1.7300000190734863,1.7300000190734863,3300
2019-01-15,1.6399999856948853,1.6399999856948853,1.6399999856948853,1.6399999856948853,1.6399999856948853,500
2019-01-16,1.7699999809265137,1.7899999618530273,1.7599999904632568,1.7599999904632568,1.7599999904632568,2900
2019-01-17,1.7000000476837158,1.7899999618530273,1.6679999828338623,1.7100000381469727,1.7100000381469727,2600
2019-01-18,1.781000018119812,1.781000018119812,1.649999976158142,1.7419999837875366,1.7419999837875366,1000
2019-01-22,1.6799999475479126,1.6959999799728394,1.6799999475479126,1.6959999799728394,1.6959999799728394,500
2019-01-23,1.659999966621399,1.7400000095367432,1.659999966621399,1.7400000095367432,1.7400000095367432,1700
2019-01-24,1.649999976158142,1.649999976158142,1.5499999523162842,1.5750000476837158,1.5750000476837158,6200
2019-01-25,1.590000033378601,1.6699999570846558,1.590000033378601,1.6699999570846558,1.6699999570846558,2500
2019-01-28,1.6799999475479126,1.6799999475479126,1.6330000162124634,1.6330000162124634,1.6330000162124634,3400
2019-01-29,1.6699999570846558,1.6799999475479126,1.5499999523162842,1.5499999523162842,1.5499999523162842,18400
2019-01-30,1.5499999523162842,1.5800000429153442,1.5080000162124634,1.5729999542236328,1.5729999542236328,5500
2019-01-31,1.5080000162124634,1.6200000047683716,1.4850000143051147,1.6200000047683716,1.6200000047683716,14000
2019-02-01,1.6200000047683716,1.6200000047683716,1.6200000047683716,1.6200000047683716,1.6200000047683716,500
2019-02-04,2.6700000762939453,4.179999828338623,1.6200000047683716,1.690000057220459,1.690000057220459,12576100
2019-02-05,1.75,1.8450000286102295,1.5,1.5800000429153442,1.5800000429153442,1645300
2019-02-06,1.600000023841858,1.6200000047683716,1.5099999904632568,1.5499999523162842,1.5499999523162842,764300
2019-02-07,1.5800000429153442,1.5800000429153442,1.3630000352859497,1.4179999828338623,1.4179999828338623,537100
2019-02-08,1.2999999523162842,1.5299999713897705,1.2999999523162842,1.5299999713897705,1.5299999713897705,397700
2019-02-11,1.5199999809265137,1.6299999952316284,1.4600000381469727,1.559999942779541,1.559999942779541,658800
2019-02-12,1.559999942779541,1.6100000143051147,1.4600000381469727,1.4600000381469727,1.4600000381469727,478400
2019-02-13,1.399999976158142,1.4600000381469727,1.3799999952316284,1.4500000476837158,1.4500000476837158,322800
2019-02-14,1.4299999475479126,1.4630000591278076,1.3700000047683716,1.3799999952316284,1.3799999952316284,212300
2019-02-15,1.3899999856948853,1.4299999475479126,1.3600000143051147,1.409999966621399,1.409999966621399,171300
2019-02-19,1.4600000381469727,1.5,1.3799999952316284,1.4700000286102295,1.4700000286102295,314700
2019-02-20,1.4600000381469727,1.5,1.440000057220459,1.4500000476837158,1.4500000476837158,123900
2019-02-21,1.4800000190734863,1.4800000190734863,1.3700000047683716,1.4049999713897705,1.4049999713897705,203900
2019-02-22,1.4199999570846558,1.4800000190734863,1.3700000047683716,1.409999966621399,1.409999966621399,548500
2019-02-25,1.4700000286102295,1.5700000524520874,1.409999966621399,1.5609999895095825,1.5609999895095825,1712800
2019-02-26,1.4600000381469727,1.5099999904632568,1.4199999570846558,1.4600000381469727,1.4600000381469727,668400
2019-02-27,1.4700000286102295,1.4700000286102295,1.3799999952316284,1.440000057220459,1.440000057220459,222800
2019-02-28,1.4500000476837158,1.4500000476837158,1.3700000047683716,1.399999976158142,1.399999976158142,327600
2019-03-01,1.4199999570846558,1.4700000286102295,1.38100004196167,1.409999966621399,1.409999966621399,454100
2019-03-04,1.440000057220459,1.5,1.3899999856948853,1.4600000381469727,1.4600000381469727,1574800
2019-03-05,1.600000023841858,1.7799999713897705,1.4199999570846558,1.440000057220459,1.440000057220459,3638800
2019-03-06,1.4500000476837158,1.4900000095367432,1.3700000047683716,1.4299999475479126,1.4299999475479126,785100
2019-03-07,1.409999966621399,1.4299999475479126,1.3799999952316284,1.409999966621399,1.409999966621399,376300
2019-03-08,1.3700000047683716,1.3899999856948853,1.2799999713897705,1.3799999952316284,1.3799999952316284,468200
2019-03-11,1.3799999952316284,1.3799999952316284,1.3300000429153442,1.340000033378601,1.340000033378601,261800
2019-03-12,1.3799999952316284,1.4900000095367432,1.340000033378601,1.4700000286102295,1.4700000286102295,634300
2019-03-13,1.4800000190734863,1.590000033378601,1.4299999475479126,1.5099999904632568,1.5099999904632568,823500
2019-03-14,1.4900000095367432,1.5,1.4299999475479126,1.4600000381469727,1.4600000381469727,177300
2019-03-15,1.4700000286102295,1.5399999618530273,1.440000057220459,1.4700000286102295,1.4700000286102295,329500
2019-03-18,1.4500000476837158,1.4900000095367432,1.4299999475479126,1.440000057220459,1.440000057220459,219200
2019-03-19,1.4459999799728394,1.4700000286102295,1.4299999475479126,1.4299999475479126,1.4299999475479126,210900
2019-03-20,1.4600000381469727,1.5399999618530273,1.440000057220459,1.5199999809265137,1.5199999809265137,320200
2019-03-21,1.4700000286102295,1.5,1.3969999551773071,1.4559999704360962,1.4559999704360962,240500
2019-03-22,1.4299999475479126,1.4500000476837158,1.409999966621399,1.440000057220459,1.440000057220459,98600
2019-03-25,1.409999966621399,1.4500000476837158,1.3899999856948853,1.399999976158142,1.399999976158142,79900
2019-03-26,1.4199999570846558,1.4299999475479126,1.3799999952316284,1.4299999475479126,1.4299999475479126,175900
2019-03-27,1.4199999570846558,1.6100000143051147,1.3799999952316284,1.5099999904632568,1.5099999904632568,928100
2019-03-28,1.5399999618530273,1.7400000095367432,1.4700000286102295,1.6399999856948853,1.6399999856948853,1744300
2019-03-29,1.7400000095367432,1.809999942779541,1.4950000047683716,1.5499999523162842,1.5499999523162842,1151700
2019-04-01,1.559999942779541,1.600000023841858,1.5,1.5499999523162842,1.5499999523162842,263900
2019-04-02,1.565000057220459,1.600000023841858,1.5199999809265137,1.5549999475479126,1.5549999475479126,149000
2019-04-03,1.559999942779541,1.7599999904632568,1.5399999618530273,1.6829999685287476,1.6829999685287476,829800
2019-04-04,1.690000057220459,1.940000057220459,1.6299999952316284,1.8200000524520874,1.8200000524520874,1098300
2019-04-05,1.909999966621399,2.0799999237060547,1.8300000429153442,1.9010000228881836,1.9010000228881836,826000
2019-04-08,1.8899999856948853,1.8969999551773071,1.75,1.8300000429153442,1.8300000429153442,221600
2019-04-09,1.809999942779541,1.8899999856948853,1.75,1.7799999713897705,1.7799999713897705,163800
2019-04-10,1.7999999523162842,1.840000033378601,1.75,1.809999942779541,1.809999942779541,172000
2019-04-11,1.8799999952316284,2.1700000762939453,1.8799999952316284,2.0,2.0,1463500
2019-04-12,2.0799999237060547,2.0999999046325684,1.9600000381469727,2.0799999237060547,2.0799999237060547,431900
2019-04-15,1.899999976158142,1.9700000286102295,1.7799999713897705,1.9199999570846558,1.9199999570846558,528800
2019-04-16,1.9299999475479126,2.0299999713897705,1.8700000047683716,1.9800000190734863,1.9800000190734863,186600
2019-04-17,1.9800000190734863,2.390000104904175,1.409999966621399,1.690000057220459,1.690000057220459,2890600
2019-04-18,1.7100000381469727,1.7289999723434448,1.5399999618530273,1.659999966621399,1.659999966621399,310500
2019-04-22,1.6299999952316284,1.6799999475479126,1.559999942779541,1.590000033378601,1.590000033378601,251800
2019-04-23,1.6100000143051147,1.649999976158142,1.4800000190734863,1.5499999523162842,1.5499999523162842,265400
2019-04-24,1.5499999523162842,1.7300000190734863,1.5499999523162842,1.6540000438690186,1.6540000438690186,348600
2019-04-25,1.659999966621399,1.7400000095367432,1.600000023841858,1.6799999475479126,1.6799999475479126,75500
2019-04-26,1.6699999570846558,1.690000057220459,1.6050000190734863,1.6399999856948853,1.6399999856948853,116700
2019-04-29,1.6399999856948853,1.6950000524520874,1.5800000429153442,1.649999976158142,1.649999976158142,98900
2019-04-30,1.6200000047683716,1.659999966621399,1.600000023841858,1.649999976158142,1.649999976158142,62100
2019-05-01,1.6399999856948853,1.725000023841858,1.6200000047683716,1.7000000476837158,1.7000000476837158,142600
2019-05-02,1.6799999475479126,1.7000000476837158,1.6299999952316284,1.659999966621399,1.659999966621399,85300
2019-05-03,1.690000057220459,1.7400000095367432,1.649999976158142,1.7100000381469727,1.7100000381469727,204300
2019-05-06,1.649999976158142,1.7999999523162842,1.6299999952316284,1.75,1.75,325500
2019-05-07,1.7400000095367432,1.840000033378601,1.659999966621399,1.7200000286102295,1.7200000286102295,176000
2019-05-08,1.722000002861023,1.7289999723434448,1.649999976158142,1.690000057220459,1.690000057220459,136300
2019-05-09,1.659999966621399,1.6749999523162842,1.600000023841858,1.6390000581741333,1.6390000581741333,173400
2019-05-10,1.649999976158142,1.649999976158142,1.5299999713897705,1.590000033378601,1.590000033378601,321000
2019-05-13,1.5800000429153442,1.5800000429153442,1.49399995803833,1.5399999618530273,1.5399999618530273,111100
2019-05-14,1.5499999523162842,1.5499999523162842,1.4500000476837158,1.5199999809265137,1.5199999809265137,82300
2019-05-15,1.5,1.5299999713897705,1.4600000381469727,1.5,1.5,68900
2019-05-16,1.4900000095367432,1.5099999904632568,1.4500000476837158,1.4600000381469727,1.4600000381469727,97400
2019-05-17,1.440000057220459,1.4429999589920044,1.3600000143051147,1.4199999570846558,1.4199999570846558,177200
2019-05-20,1.399999976158142,1.4500000476837158,1.3700000047683716,1.4199999570846558,1.4199999570846558,64600
2019-05-21,1.4299999475479126,1.4800000190734863,1.4249999523162842,1.4600000381469727,1.4600000381469727,45300
2019-05-22,1.440000057220459,1.468999981880188,1.409999966621399,1.4500000476837158,1.4500000476837158,78200
2019-05-23,1.4199999570846558,1.440000057220459,1.3700000047683716,1.3899999856948853,1.3899999856948853,104700
2019-05-24,1.409999966621399,1.409999966621399,1.343000054359436,1.3600000143051147,1.3600000143051147,111700
2019-05-28,1.3600000143051147,1.3700000047683716,1.3300000429153442,1.340000033378601,1.340000033378601,44500
2019-05-29,1.3300000429153442,1.340000033378601,1.2599999904632568,1.309999942779541,1.309999942779541,47200
2019-05-30,1.2899999618530273,1.3799999952316284,1.2699999809265137,1.3600000143051147,1.3600000143051147,284700
2019-05-31,1.340000033378601,1.3899999856948853,1.315999984741211,1.3799999952316284,1.3799999952316284,90000
2019-06-03,1.3799999952316284,1.3799999952316284,1.25,1.2999999523162842,1.2999999523162842,92800
2019-06-04,1.2699999809265137,1.340000033378601,1.2519999742507935,1.3300000429153442,1.3300000429153442,192400
2019-06-05,1.309999942779541,1.350000023841858,1.2710000276565552,1.2999999523162842,1.2999999523162842,81900
2019-06-06,1.2999999523162842,1.3799999952316284,1.2999999523162842,1.3600000143051147,1.3600000143051147,100200
2019-06-07,1.3799999952316284,1.4190000295639038,1.3200000524520874,1.340000033378601,1.340000033378601,119400
2019-06-10,1.3300000429153442,1.3700000047683716,1.2999999523162842,1.309999942779541,1.309999942779541,86300
2019-06-11,1.3300000429153442,1.3799999952316284,1.2710000276565552,1.3300000429153442,1.3300000429153442,88500
2019-06-12,1.3300000429153442,1.350000023841858,1.2999999523162842,1.350000023841858,1.350000023841858,23100
2019-06-13,1.350000023841858,1.3700000047683716,1.2999999523162842,1.340000033378601,1.340000033378601,32200
2019-06-14,1.3200000524520874,1.3530000448226929,1.309999942779541,1.340000033378601,1.340000033378601,41300
2019-06-17,1.340000033378601,1.371000051498413,1.2699999809265137,1.350000023841858,1.350000023841858,74400
2019-06-18,1.340000033378601,1.5,1.340000033378601,1.4900000095367432,1.4900000095367432,307500
2019-06-19,1.4500000476837158,1.5,1.3899999856948853,1.4299999475479126,1.4299999475479126,114800
2019-06-20,1.4500000476837158,1.4700000286102295,1.3799999952316284,1.399999976158142,1.399999976158142,54800
2019-06-21,1.3899999856948853,1.4299999475479126,1.3700000047683716,1.4299999475479126,1.4299999475479126,36100
2019-06-24,1.4299999475479126,1.4800000190734863,1.3899999856948853,1.4529999494552612,1.4529999494552612,111300
2019-06-25,1.4529999494552612,1.4600000381469727,1.399999976158142,1.4199999570846558,1.4199999570846558,62100
2019-06-26,1.4500000476837158,1.5499999523162842,1.399999976158142,1.5,1.5,363200
2019-06-27,1.5,1.5,1.4199999570846558,1.4500000476837158,1.4500000476837158,86400
2019-06-28,1.468999981880188,1.4800000190734863,1.4229999780654907,1.4229999780654907,1.4229999780654907,72800
2019-07-01,1.4700000286102295,1.4700000286102295,1.409999966621399,1.4700000286102295,1.4700000286102295,49300
2019-07-02,1.4509999752044678,1.4800000190734863,1.4119999408721924,1.4299999475479126,1.4299999475479126,49800
2019-07-03,1.4299999475479126,1.440000057220459,1.3799999952316284,1.409999966621399,1.409999966621399,74900
2019-07-05,1.399999976158142,1.4190000295639038,1.3700000047683716,1.3899999856948853,1.3899999856948853,54800
2019-07-08,1.3600000143051147,1.4229999780654907,1.340000033378601,1.3799999952316284,1.3799999952316284,61400
2019-07-09,1.3799999952316284,1.4199999570846558,1.378000020980835,1.4199999570846558,1.4199999570846558,19300
2019-07-10,1.409999966621399,1.409999966621399,1.3799999952316284,1.3799999952316284,1.3799999952316284,38600
2019-07-11,1.3899999856948853,1.4119999408721924,1.3650000095367432,1.399999976158142,1.399999976158142,43100
2019-07-12,1.3899999856948853,1.440000057220459,1.3799999952316284,1.3899999856948853,1.3899999856948853,51500
2019-07-15,1.440000057220459,1.440000057220459,1.340000033378601,1.399999976158142,1.399999976158142,78200
2019-07-16,1.340000033378601,1.3799999952316284,1.3200000524520874,1.3799999952316284,1.3799999952316284,81300
2019-07-17,1.312000036239624,1.350000023841858,1.309999942779541,1.3270000219345093,1.3270000219345093,85200
2019-07-18,1.3600000143051147,1.3600000143051147,1.2949999570846558,1.2999999523162842,1.2999999523162842,59300
2019-07-19,1.3339999914169312,1.340000033378601,1.2899999618530273,1.2929999828338623,1.2929999828338623,33600
2019-07-22,1.3300000429153442,1.3300000429153442,1.2799999713897705,1.309999942779541,1.309999942779541,28800
2019-07-23,1.3049999475479126,1.378000020980835,1.2699999809265137,1.3300000429153442,1.3300000429153442,145200
2019-07-24,1.309999942779541,1.3600000143051147,1.3009999990463257,1.309999942779541,1.309999942779541,11200
2019-07-25,1.3170000314712524,1.350000023841858,1.309999942779541,1.3200000524520874,1.3200000524520874,29200
2019-07-26,1.315000057220459,1.3200000524520874,1.274999976158142,1.2999999523162842,1.2999999523162842,64300
2019-07-29,1.2999999523162842,1.3200000524520874,1.2599999904632568,1.2899999618530273,1.2899999618530273,55800
2019-07-30,1.2899999618530273,1.2999999523162842,1.2599999904632568,1.2799999713897705,1.2799999713897705,56400
2019-07-31,1.2899999618530273,1.3200000524520874,1.2599999904632568,1.2599999904632568,1.2599999904632568,55700
2019-08-01,1.2899999618530273,1.2899999618530273,1.149999976158142,1.2100000381469727,1.2100000381469727,253000
2019-08-02,1.2000000476837158,1.2400000095367432,1.1660000085830688,1.2200000286102295,1.2200000286102295,59100
2019-08-05,1.159999966621399,1.190000057220459,1.0499999523162842,1.1299999952316284,1.1299999952316284,144500
2019-08-06,1.149999976158142,1.149999976158142,1.059999942779541,1.100000023841858,1.100000023841858,40600
2019-08-07,1.0800000429153442,1.1100000143051147,1.059999942779541,1.0700000524520874,1.0700000524520874,46500
2019-08-08,1.0800000429153442,1.190000057220459,1.0800000429153442,1.159999966621399,1.159999966621399,73700
2019-08-09,1.190000057220459,1.2400000095367432,1.1299999952316284,1.2200000286102295,1.2200000286102295,146300
2019-08-12,1.1660000085830688,1.3799999952316284,1.1660000085830688,1.350000023841858,1.350000023841858,243400
2019-08-13,1.3420000076293945,1.5,1.3370000123977661,1.399999976158142,1.399999976158142,290600
2019-08-14,1.4500000476837158,1.4500000476837158,1.2999999523162842,1.3799999952316284,1.3799999952316284,66200
2019-08-15,1.3799999952316284,1.3799999952316284,1.2699999809265137,1.2999999523162842,1.2999999523162842,47200
2019-08-16,1.350000023841858,1.350000023841858,1.2699999809265137,1.309999942779541,1.309999942779541,41900
2019-08-19,1.350000023841858,1.350000023841858,1.2799999713897705,1.350000023841858,1.350000023841858,19000
2019-08-20,1.350000023841858,1.3899999856948853,1.2999999523162842,1.312999963760376,1.312999963760376,27800
2019-08-21,1.350000023841858,1.3799999952316284,1.2799999713897705,1.3359999656677246,1.3359999656677246,88200
2019-08-22,1.309999942779541,1.350000023841858,1.2999999523162842,1.3200000524520874,1.3200000524520874,15800
2019-08-23,1.3200000524520874,1.399999976158142,1.2999999523162842,1.3799999952316284,1.3799999952316284,136900
2019-08-26,1.409999966621399,1.4500000476837158,1.3700000047683716,1.375,1.375,133100
2019-08-27,1.3700000047683716,1.440000057220459,1.3600000143051147,1.399999976158142,1.399999976158142,56300
2019-08-28,1.399999976158142,1.5499999523162842,1.3869999647140503,1.5,1.5,258700
2019-08-29,1.5,1.5499999523162842,1.409999966621399,1.4500000476837158,1.4500000476837158,217700
2019-08-30,1.4600000381469727,1.5499999523162842,1.409999966621399,1.5199999809265137,1.5199999809265137,55700
2019-09-03,1.5210000276565552,1.5490000247955322,1.4700000286102295,1.5,1.5,24700
2019-09-04,1.5199999809265137,1.600000023841858,1.5,1.5700000524520874,1.5700000524520874,80500
2019-09-05,1.6200000047683716,1.6200000047683716,1.5499999523162842,1.5700000524520874,1.5700000524520874,68200
2019-09-06,1.5880000591278076,1.6699999570846558,1.5820000171661377,1.6699999570846558,1.6699999570846558,88200
2019-09-09,1.6699999570846558,1.7200000286102295,1.6299999952316284,1.6410000324249268,1.6410000324249268,99700
2019-09-10,1.6799999475479126,1.7300000190734863,1.649999976158142,1.6699999570846558,1.6699999570846558,32100
2019-09-11,1.7000000476837158,1.7899999618530273,1.6799999475479126,1.7599999904632568,1.7599999904632568,181300
2019-09-12,1.7799999713897705,1.7899999618530273,1.690000057220459,1.7400000095367432,1.7400000095367432,45300
2019-09-13,1.7699999809265137,1.8700000047683716,1.7200000286102295,1.8600000143051147,1.8600000143051147,140300
2019-09-16,1.940000057220459,1.9900000095367432,1.649999976158142,1.7200000286102295,1.7200000286102295,519400
2019-09-17,1.7599999904632568,1.909999966621399,1.75,1.8700000047683716,1.8700000047683716,283900
2019-09-18,1.6399999856948853,1.649999976158142,1.4800000190734863,1.5299999713897705,1.5299999713897705,402900
2019-09-19,1.5399999618530273,1.5700000524520874,1.5199999809265137,1.5499999523162842,1.5499999523162842,38300
2019-09-20,1.5399999618530273,1.5499999523162842,1.4600000381469727,1.4600000381469727,1.4600000381469727,128800
2019-09-23,1.4600000381469727,1.4709999561309814,1.2949999570846558,1.309999942779541,1.309999942779541,79100
2019-09-24,1.350000023841858,1.3600000143051147,1.25,1.3300000429153442,1.3300000429153442,42300
2019-09-25,1.3200000524520874,1.3300000429153442,1.277999997138977,1.2999999523162842,1.2999999523162842,17600
2019-09-26,1.3799999952316284,1.3799999952316284,1.2899999618530273,1.2970000505447388,1.2970000505447388,34500
2019-09-27,1.2899999618530273,1.350000023841858,1.2899999618530273,1.309999942779541,1.309999942779541,75200
2019-09-30,1.309999942779541,1.3849999904632568,1.2120000123977661,1.2300000190734863,1.2300000190734863,34600
2019-10-01,1.2200000286102295,1.2599999904632568,1.125,1.149999976158142,1.149999976158142,102800
2019-10-02,1.159999966621399,1.190000057220459,1.1330000162124634,1.149999976158142,1.149999976158142,6000
2019-10-03,1.149999976158142,1.184000015258789,1.0800000429153442,1.1050000190734863,1.1050000190734863,66100
2019-10-04,1.100000023841858,1.1950000524520874,1.100000023841858,1.1799999475479126,1.1799999475479126,18400
2019-10-07,1.1699999570846558,1.2000000476837158,1.1670000553131104,1.1799999475479126,1.1799999475479126,31000
2019-10-08,1.2000000476837158,1.2000000476837158,1.1699999570846558,1.2000000476837158,1.2000000476837158,14800
2019-10-09,1.2000000476837158,1.2000000476837158,1.1660000085830688,1.1799999475479126,1.1799999475479126,6200
2019-10-10,1.2000000476837158,1.3200000524520874,1.1200000047683716,1.309999942779541,1.309999942779541,251600
2019-10-11,1.3300000429153442,1.399999976158142,1.2400000095367432,1.2699999809265137,1.2699999809265137,192100
2019-10-14,1.2899999618530273,1.2899999618530273,1.25,1.25,1.25,24300
2019-10-15,1.25,1.309999942779541,1.25,1.2999999523162842,1.2999999523162842,38300
2019-10-16,1.2999999523162842,1.3329999446868896,1.2599999904632568,1.2699999809265137,1.2699999809265137,14300
2019-10-17,1.2699999809265137,1.3389999866485596,1.2000000476837158,1.25,1.25,24200
2019-10-18,1.2300000190734863,1.2300000190734863,1.1799999475479126,1.1799999475479126,1.1799999475479126,13700
2019-10-21,1.2319999933242798,1.25,1.2000000476837158,1.2000000476837158,1.2000000476837158,49300
2019-10-22,1.2300000190734863,1.2599999904632568,1.2000000476837158,1.2599999904632568,1.2599999904632568,45900
2019-10-23,1.2400000095367432,1.25,1.1890000104904175,1.2200000286102295,1.2200000286102295,4200
2019-10-24,1.2339999675750732,1.2400000095367432,1.2100000381469727,1.2300000190734863,1.2300000190734863,26700
2019-10-25,1.2400000095367432,1.350000023841858,1.2400000095367432,1.25,1.25,131900
2019-10-28,1.2699999809265137,1.340000033378601,1.25,1.340000033378601,1.340000033378601,5000
2019-10-29,1.2999999523162842,1.340000033378601,1.2860000133514404,1.2999999523162842,1.2999999523162842,5400
2019-10-30,1.2999999523162842,1.309999942779541,1.2999999523162842,1.309999942779541,1.309999942779541,8800
2019-10-31,1.2999999523162842,1.2999999523162842,1.2569999694824219,1.2699999809265137,1.2699999809265137,6600
2019-11-01,1.2899999618530273,1.309999942779541,1.25,1.253000020980835,1.253000020980835,8700
2019-11-04,1.2699999809265137,1.2999999523162842,1.2699999809265137,1.2899999618530273,1.2899999618530273,8800
2019-11-05,1.2899999618530273,1.2999999523162842,1.2599999904632568,1.2799999713897705,1.2799999713897705,5500
2019-11-06,1.2899999618530273,1.2899999618530273,1.2669999599456787,1.2699999809265137,1.2699999809265137,4400
2019-11-07,1.2599999904632568,1.2599999904632568,1.2000000476837158,1.2000000476837158,1.2000000476837158,33300
2019-11-08,1.2300000190734863,1.2400000095367432,1.2200000286102295,1.2300000190734863,1.2300000190734863,2400
2019-11-11,1.2300000190734863,1.2369999885559082,1.1799999475479126,1.2100000381469727,1.2100000381469727,4300
2019-11-12,1.2120000123977661,1.2120000123977661,1.1799999475479126,1.1859999895095825,1.1859999895095825,9800
2019-11-13,1.2120000123977661,1.2300000190734863,1.2000000476837158,1.2000000476837158,1.2000000476837158,2100
2019-11-14,1.2100000381469727,1.2209999561309814,1.2000000476837158,1.2100000381469727,1.2100000381469727,3200
2019-11-15,1.2000000476837158,1.215999960899353,1.2000000476837158,1.2000000476837158,1.2000000476837158,7200
2019-11-18,1.2209999561309814,1.2400000095367432,1.2200000286102295,1.2200000286102295,1.2200000286102295,2200
2019-11-19,1.2400000095367432,1.2899999618530273,1.190000057220459,1.2100000381469727,1.2100000381469727,22500
2019-11-20,1.2510000467300415,1.2510000467300415,1.187999963760376,1.2029999494552612,1.2029999494552612,20300
2019-11-21,1.2000000476837158,1.2300000190734863,1.190000057220459,1.2000000476837158,1.2000000476837158,3500
2019-11-22,1.2300000190734863,1.2300000190734863,1.149999976158142,1.1699999570846558,1.1699999570846558,11200
2019-11-25,1.1399999856948853,1.1699999570846558,1.100000023841858,1.149999976158142,1.149999976158142,62600
2019-11-26,1.1959999799728394,1.2300000190734863,1.1369999647140503,1.2000000476837158,1.2000000476837158,52000
2019-11-27,1.2200000286102295,1.25,1.2000000476837158,1.2100000381469727,1.2100000381469727,25000
2019-11-29,1.2200000286102295,1.2799999713897705,1.2130000591278076,1.277999997138977,1.277999997138977,36800
2019-12-02,1.2799999713897705,1.2799999713897705,1.2200000286102295,1.2699999809265137,1.2699999809265137,11000
2019-12-03,1.25,1.2680000066757202,1.2200000286102295,1.25,1.25,15900
2019-12-04,1.2669999599456787,1.2699999809265137,1.2289999723434448,1.2300000190734863,1.2300000190734863,20100
2019-12-05,1.2640000581741333,1.2999999523162842,1.2510000467300415,1.2899999618530273,1.2899999618530273,40700
2019-12-06,1.2999999523162842,1.2999999523162842,1.2100000381469727,1.2799999713897705,1.2799999713897705,21300
2019-12-09,1.25,1.2999999523162842,1.25,1.2899999618530273,1.2899999618530273,38400
2019-12-10,1.2999999523162842,1.340000033378601,1.2610000371932983,1.2610000371932983,1.2610000371932983,60500
2019-12-11,1.309999942779541,1.340000033378601,1.2999999523162842,1.309999942779541,1.309999942779541,29400
2019-12-12,1.2799999713897705,1.3300000429153442,1.2799999713897705,1.309999942779541,1.309999942779541,17900
2019-12-13,1.309999942779541,1.340000033378601,1.2799999713897705,1.281000018119812,1.281000018119812,68000
2019-12-16,1.2999999523162842,1.3300000429153442,1.2799999713897705,1.2799999713897705,1.2799999713897705,25400
2019-12-17,1.2869999408721924,1.2929999828338623,1.2799999713897705,1.2899999618530273,1.2899999618530273,7400
2019-12-18,1.3240000009536743,1.350000023841858,1.315000057220459,1.3300000429153442,1.3300000429153442,40500
2019-12-19,1.2899999618530273,1.3300000429153442,1.2899999618530273,1.3300000429153442,1.3300000429153442,21600
2019-12-20,1.309999942779541,1.3300000429153442,1.25,1.2599999904632568,1.2599999904632568,21400
2019-12-23,1.2940000295639038,1.3389999866485596,1.2899999618530273,1.309999942779541,1.309999942779541,31400
2019-12-24,1.340000033378601,1.340000033378601,1.2999999523162842,1.3200000524520874,1.3200000524520874,12300
2019-12-26,1.309999942779541,1.312999963760376,1.2899999618530273,1.309999942779541,1.309999942779541,50600
2019-12-27,1.309999942779541,1.309999942779541,1.2699999809265137,1.2899999618530273,1.2899999618530273,45500
2019-12-30,1.3049999475479126,1.309000015258789,1.2799999713897705,1.2910000085830688,1.2910000085830688,19300
2019-12-31,1.2899999618530273,1.2970000505447388,1.2799999713897705,1.2899999618530273,1.2899999618530273,37000
2020-01-02,1.2999999523162842,1.3300000429153442,1.2829999923706055,1.3300000429153442,1.3300000429153442,47600
2020-01-03,1.2899999618530273,1.5199999809265137,1.2899999618530273,1.4850000143051147,1.4850000143051147,180800
2020-01-06,1.4900000095367432,1.4900000095367432,1.4119999408721924,1.4600000381469727,1.4600000381469727,82400
2020-01-07,1.4299999475479126,1.4800000190734863,1.4299999475479126,1.4800000190734863,1.4800000190734863,33100
2020-01-08,1.4700000286102295,1.590000033378601,1.4500000476837158,1.5800000429153442,1.5800000429153442,155200
2020-01-09,1.600000023841858,1.6779999732971191,1.5499999523162842,1.6399999856948853,1.6399999856948853,53500
2020-01-10,1.6699999570846558,1.7000000476837158,1.600000023841858,1.6540000438690186,1.6540000438690186,157500
2020-01-13,1.6660000085830688,1.6670000553131104,1.559999942779541,1.600000023841858,1.600000023841858,144500
2020-01-14,1.559999942779541,1.6299999952316284,1.559999942779541,1.565000057220459,1.565000057220459,60900
2020-01-15,1.5499999523162842,1.7100000381469727,1.5199999809265137,1.7100000381469727,1.7100000381469727,427600
2020-01-16,1.6200000047683716,1.7300000190734863,1.6200000047683716,1.684999942779541,1.684999942779541,154300
2020-01-17,1.690000057220459,1.7100000381469727,1.6619999408721924,1.6799999475479126,1.6799999475479126,75800
2020-01-21,1.5800000429153442,1.6699999570846558,1.5800000429153442,1.6549999713897705,1.6549999713897705,84400
2020-01-22,1.625,1.6699999570846558,1.625,1.649999976158142,1.649999976158142,15900
2020-01-23,1.649999976158142,1.7400000095367432,1.6100000143051147,1.7100000381469727,1.7100000381469727,197800
2020-01-24,1.7000000476837158,1.7799999713897705,1.649999976158142,1.687999963760376,1.687999963760376,81700
2020-01-27,1.649999976158142,1.649999976158142,1.5499999523162842,1.6100000143051147,1.6100000143051147,53900
2020-01-28,1.5800000429153442,1.600000023841858,1.5499999523162842,1.590000033378601,1.590000033378601,37500
2020-01-29,1.559999942779541,1.7000000476837158,1.559999942779541,1.6299999952316284,1.6299999952316284,60100
2020-01-30,1.5800000429153442,1.649999976158142,1.5299999713897705,1.5299999713897705,1.5299999713897705,73300
2020-01-31,1.5,1.5,1.4199999570846558,1.5,1.5,94500
2020-02-03,1.5800000429153442,1.5800000429153442,1.2949999570846558,1.3240000009536743,1.3240000009536743,116600
2020-02-04,1.2999999523162842,1.2999999523162842,1.2100000381469727,1.2300000190734863,1.2300000190734863,92400
2020-02-05,1.25,1.2699999809265137,1.2100000381469727,1.2599999904632568,1.2599999904632568,76700
2020-02-06,1.2300000190734863,1.2899999618530273,1.2300000190734863,1.2649999856948853,1.2649999856948853,30900
2020-02-07,1.2799999713897705,1.2860000133514404,1.2599999904632568,1.2599999904632568,1.2599999904632568,19500
2020-02-10,1.2599999904632568,1.2699999809265137,1.2350000143051147,1.2430000305175781,1.2430000305175781,7200
2020-02-11,1.350000023841858,1.6299999952316284,1.2799999713897705,1.340000033378601,1.340000033378601,1191500
2020-02-12,1.2999999523162842,1.3480000495910645,1.2999999523162842,1.3200000524520874,1.3200000524520874,57900
2020-02-13,1.3600000143051147,1.3600000143051147,1.3200000524520874,1.3300000429153442,1.3300000429153442,37700
2020-02-14,1.3309999704360962,1.4700000286102295,1.2999999523162842,1.402999997138977,1.402999997138977,459200
2020-02-18,1.409999966621399,1.409999966621399,1.1299999952316284,1.190000057220459,1.190000057220459,286200
2020-02-19,1.190000057220459,1.2799999713897705,1.190000057220459,1.2699999809265137,1.2699999809265137,70400
2020-02-20,1.2899999618530273,1.2899999618530273,1.2100000381469727,1.2419999837875366,1.2419999837875366,39700
2020-02-21,1.25,1.25,1.2100000381469727,1.2269999980926514,1.2269999980926514,49100
2020-02-24,1.2100000381469727,1.2200000286102295,1.1799999475479126,1.2000000476837158,1.2000000476837158,40300
2020-02-25,1.2100000381469727,1.2319999933242798,1.1399999856948853,1.1649999618530273,1.1649999618530273,61400
2020-02-26,1.149999976158142,1.159999966621399,1.11899995803833,1.1269999742507935,1.1269999742507935,62100
2020-02-27,1.1119999885559082,1.1119999885559082,1.0499999523162842,1.1009999513626099,1.1009999513626099,73800
2020-02-28,1.1200000047683716,1.1299999952316284,1.0329999923706055,1.0399999618530273,1.0399999618530273,78400
2020-03-02,1.059999942779541,1.1299999952316284,1.0499999523162842,1.090000033378601,1.090000033378601,27300
2020-03-03,1.0800000429153442,1.1200000047683716,1.0800000429153442,1.100000023841858,1.100000023841858,25700
2020-03-04,1.1200000047683716,1.1200000047683716,1.0800000429153442,1.1100000143051147,1.1100000143051147,13500
2020-03-05,1.090000033378601,1.0989999771118164,1.065000057220459,1.0800000429153442,1.0800000429153442,23600
2020-03-06,1.100000023841858,1.100000023841858,1.0099999904632568,1.0099999904632568,1.0099999904632568,29600
2020-03-09,1.0,1.003000020980835,0.8500000238418579,0.9549999833106995,0.9549999833106995,50100
2020-03-10,1.0,1.0,0.9300000071525574,0.9319999814033508,0.9319999814033508,19800
2020-03-11,0.9319999814033508,0.9319999814033508,0.8799999952316284,0.8799999952316284,0.8799999952316284,48900
2020-03-12,0.8399999737739563,0.8999999761581421,0.7509999871253967,0.8600000143051147,0.8600000143051147,62100
2020-03-13,0.8999999761581421,0.8999999761581421,0.800000011920929,0.8019999861717224,0.8019999861717224,41600
2020-03-16,0.8420000076293945,0.8420000076293945,0.6510000228881836,0.7200000286102295,0.7200000286102295,61800
2020-03-17,0.8999999761581421,0.8999999761581421,0.6700000166893005,0.781000018119812,0.781000018119812,23600
2020-03-18,0.7099999785423279,0.800000011920929,0.699999988079071,0.765999972820282,0.765999972820282,7200
2020-03-19,0.699999988079071,0.7419999837875366,0.6510000228881836,0.6899999976158142,0.6899999976158142,50600
2020-03-20,0.7609999775886536,0.7870000004768372,0.7200000286102295,0.7200000286102295,0.7200000286102295,2800
2020-03-23,0.7250000238418579,0.7789999842643738,0.7250000238418579,0.7300000190734863,0.7300000190734863,40600
2020-03-24,0.7749999761581421,0.7749999761581421,0.7269999980926514,0.7300000190734863,0.7300000190734863,21500
2020-03-25,0.75,0.7639999985694885,0.75,0.75,0.75,20600
2020-03-26,0.800000011920929,1.1299999952316284,0.800000011920929,0.8799999952316284,0.8799999952316284,495100
2020-03-27,0.8199999928474426,0.8759999871253967,0.8100000023841858,0.8230000138282776,0.8230000138282776,58900
2020-03-30,0.8230000138282776,0.8700000047683716,0.8230000138282776,0.8230000138282776,0.8230000138282776,50500
2020-03-31,0.8500000238418579,0.8999999761581421,0.8100000023841858,0.8799999952316284,0.8799999952316284,148900
2020-04-01,0.824999988079071,0.8550000190734863,0.8230000138282776,0.8370000123977661,0.8370000123977661,29800
2020-04-02,0.8330000042915344,0.8399999737739563,0.8230000138282776,0.8299999833106995,0.8299999833106995,10500
2020-04-03,0.8299999833106995,0.8500000238418579,0.8230000138282776,0.8270000219345093,0.8270000219345093,29500
2020-04-06,0.8500000238418579,0.8999999761581421,0.8230000138282776,0.8399999737739563,0.8399999737739563,55400
2020-04-07,0.8799999952316284,0.8799999952316284,0.8460000157356262,0.8600000143051147,0.8600000143051147,24200
2020-04-08,0.8600000143051147,0.8799999952316284,0.8230000138282776,0.8309999704360962,0.8309999704360962,56300
2020-04-09,0.8299999833106995,1.059999942779541,0.8299999833106995,1.0,1.0,421200
2020-04-13,1.0800000429153442,1.2699999809265137,1.0499999523162842,1.1699999570846558,1.1699999570846558,450900
2020-04-14,1.1399999856948853,1.149999976158142,1.0499999523162842,1.100000023841858,1.100000023841858,129300
2020-04-15,1.149999976158142,1.2000000476837158,1.0859999656677246,1.1100000143051147,1.1100000143051147,72600
2020-04-16,1.1100000143051147,1.149999976158142,1.0700000524520874,1.090000033378601,1.090000033378601,47700
2020-04-17,1.100000023841858,1.1200000047683716,1.0499999523162842,1.0499999523162842,1.0499999523162842,49400
2020-04-20,1.0800000429153442,1.1299999952316284,1.0199999809265137,1.100000023841858,1.100000023841858,169600
2020-04-21,1.1799999475479126,1.2400000095367432,1.100000023841858,1.1019999980926514,1.1019999980926514,254800
2020-04-22,1.1100000143051147,1.1299999952316284,1.0700000524520874,1.090000033378601,1.090000033378601,48900
2020-04-23,1.0700000524520874,1.2000000476837158,1.0499999523162842,1.1740000247955322,1.1740000247955322,238200
2020-04-24,1.2400000095367432,1.2599999904632568,1.1799999475479126,1.2100000381469727,1.2100000381469727,199400
2020-04-27,1.2400000095367432,1.2400000095367432,1.100000023841858,1.190000057220459,1.190000057220459,77000
2020-04-28,1.2100000381469727,1.2200000286102295,1.1299999952316284,1.1799999475479126,1.1799999475479126,43800
2020-04-29,1.1799999475479126,1.2100000381469727,1.149999976158142,1.190000057220459,1.190000057220459,48500
2020-04-30,1.190000057220459,1.190000057220459,1.149999976158142,1.159999966621399,1.159999966621399,31700
2020-05-01,1.1399999856948853,1.1449999809265137,1.1100000143051147,1.1200000047683716,1.1200000047683716,31400
2020-05-04,1.1299999952316284,1.1799999475479126,1.1100000143051147,1.1200000047683716,1.1200000047683716,19500
2020-05-05,1.1200000047683716,1.1299999952316284,1.1100000143051147,1.1100000143051147,1.1100000143051147,24800
2020-05-06,1.149999976158142,1.149999976158142,1.1100000143051147,1.1399999856948853,1.1399999856948853,20200
2020-05-07,1.149999976158142,1.149999976158142,1.1299999952316284,1.1299999952316284,1.1299999952316284,20300
2020-05-08,1.1299999952316284,1.1399999856948853,1.1100000143051147,1.1399999856948853,1.1399999856948853,114500
2020-05-11,1.5099999904632568,1.6799999475479126,1.350000023841858,1.440000057220459,1.440000057220459,4961400
2020-05-12,1.409999966621399,1.5800000429153442,1.399999976158142,1.5399999618530273,1.5399999618530273,692900
2020-05-13,1.4900000095367432,1.5199999809265137,1.2999999523162842,1.309999942779541,1.309999942779541,208500
2020-05-14,1.309999942779541,1.3329999446868896,1.1200000047683716,1.2799999713897705,1.2799999713897705,167400
2020-05-15,1.190000057220459,1.2799999713897705,1.159999966621399,1.1799999475479126,1.1799999475479126,132000
2020-05-18,1.1699999570846558,1.2699999809265137,1.1699999570846558,1.190000057220459,1.190000057220459,54300
2020-05-19,1.2000000476837158,1.2599999904632568,1.2000000476837158,1.2100000381469727,1.2100000381469727,56200
2020-05-20,1.2300000190734863,1.2649999856948853,1.190000057220459,1.25,1.25,105300
2020-05-21,1.2400000095367432,1.309999942779541,1.2400000095367432,1.25,1.25,72400
2020-05-22,1.25,1.2699999809265137,1.1799999475479126,1.2100000381469727,1.2100000381469727,47400
2020-05-26,1.2300000190734863,1.2300000190734863,1.1510000228881836,1.159999966621399,1.159999966621399,87100
2020-05-27,1.190000057220459,1.190000057220459,1.1100000143051147,1.1399999856948853,1.1399999856948853,93900
2020-05-28,1.1799999475479126,1.1799999475479126,1.1200000047683716,1.1200000047683716,1.1200000047683716,40500
2020-05-29,1.1299999952316284,1.149999976158142,1.059999942779541,1.0800000429153442,1.0800000429153442,87200
2020-06-01,1.1399999856948853,1.1699999570846558,1.1399999856948853,1.159999966621399,1.159999966621399,65100
2020-06-02,1.2000000476837158,1.2000000476837158,1.159999966621399,1.1619999408721924,1.1619999408721924,26500
2020-06-03,1.159999966621399,1.1649999618530273,1.1299999952316284,1.1549999713897705,1.1549999713897705,45800
2020-06-04,1.1399999856948853,1.159999966621399,1.1200000047683716,1.1200000047683716,1.1200000047683716,79500
2020-06-05,1.1299999952316284,1.184999942779541,1.1299999952316284,1.1770000457763672,1.1770000457763672,69300
2020-06-08,1.159999966621399,1.2350000143051147,1.149999976158142,1.2000000476837158,1.2000000476837158,96300
2020-06-09,1.2100000381469727,1.2200000286102295,1.1799999475479126,1.2100000381469727,1.2100000381469727,44700
2020-06-10,1.2000000476837158,1.4500000476837158,1.190000057220459,1.2699999809265137,1.2699999809265137,777300
2020-06-11,1.3899999856948853,1.4299999475479126,1.25,1.340000033378601,1.340000033378601,219700
2020-06-12,1.9800000190734863,1.9900000095367432,1.340000033378601,1.649999976158142,1.649999976158142,7653500
2020-06-15,1.4299999475479126,1.659999966621399,1.3799999952316284,1.649999976158142,1.649999976158142,375200
2020-06-16,1.6200000047683716,1.649999976158142,1.4600000381469727,1.5199999809265137,1.5199999809265137,323500
2020-06-17,1.5199999809265137,1.5290000438690186,1.3899999856948853,1.440000057220459,1.440000057220459,221400
2020-06-18,1.4049999713897705,1.4900000095367432,1.3899999856948853,1.4500000476837158,1.4500000476837158,119400
2020-06-19,1.4800000190734863,1.4800000190734863,1.409999966621399,1.4299999475479126,1.4299999475479126,103300
2020-06-22,1.4800000190734863,1.4800000190734863,1.3899999856948853,1.4179999828338623,1.4179999828338623,77700
2020-06-23,1.409999966621399,1.4700000286102295,1.399999976158142,1.440000057220459,1.440000057220459,48500
2020-06-24,1.4500000476837158,1.559999942779541,1.4199999570846558,1.4700000286102295,1.4700000286102295,201900
2020-06-25,1.4500000476837158,1.5399999618530273,1.4299999475479126,1.4600000381469727,1.4600000381469727,64300
2020-06-26,1.4299999475479126,1.5,1.406999945640564,1.437999963760376,1.437999963760376,177700
2020-06-29,1.4800000190734863,1.4800000190734863,1.399999976158142,1.399999976158142,1.399999976158142,53000
2020-06-30,1.4299999475479126,1.440000057220459,1.399999976158142,1.4149999618530273,1.4149999618530273,28600
2020-07-01,1.409999966621399,1.4199999570846558,1.3799999952316284,1.3799999952316284,1.3799999952316284,33300
2020-07-02,1.4199999570846558,1.4199999570846558,1.350000023841858,1.3799999952316284,1.3799999952316284,50200
2020-07-06,1.409999966621399,1.4199999570846558,1.3799999952316284,1.409999966621399,1.409999966621399,43700
2020-07-07,1.3899999856948853,1.409999966621399,1.3799999952316284,1.399999976158142,1.399999976158142,18000
2020-07-08,1.399999976158142,1.4800000190734863,1.399999976158142,1.4199999570846558,1.4199999570846558,83900
2020-07-09,1.4299999475479126,1.5,1.4299999475479126,1.4450000524520874,1.4450000524520874,73200
2020-07-10,1.4500000476837158,1.475000023841858,1.4199999570846558,1.434999942779541,1.434999942779541,79000
2020-07-13,1.440000057220459,1.4800000190734863,1.409999966621399,1.4199999570846558,1.4199999570846558,70000
2020-07-14,1.409999966621399,1.4800000190734863,1.399999976158142,1.4299999475479126,1.4299999475479126,50500
2020-07-15,1.4600000381469727,1.4700000286102295,1.4299999475479126,1.4450000524520874,1.4450000524520874,36600
2020-07-16,1.4299999475479126,1.4500000476837158,1.4299999475479126,1.434999942779541,1.434999942779541,36800
2020-07-17,1.4700000286102295,1.4700000286102295,1.4299999475479126,1.4550000429153442,1.4550000429153442,23000
2020-07-20,1.4600000381469727,1.590000033378601,1.4600000381469727,1.5099999904632568,1.5099999904632568,127600
2020-07-21,1.5,1.5149999856948853,1.4600000381469727,1.4830000400543213,1.4830000400543213,28500
2020-07-22,1.4800000190734863,1.590000033378601,1.4800000190734863,1.5750000476837158,1.5750000476837158,103900
2020-07-23,1.5449999570846558,1.6399999856948853,1.5199999809265137,1.5499999523162842,1.5499999523162842,177100
2020-07-24,1.5800000429153442,1.5800000429153442,1.4800000190734863,1.4800000190734863,1.4800000190734863,28700
2020-07-27,1.5199999809265137,1.5199999809265137,1.4500000476837158,1.4500000476837158,1.4500000476837158,55600
2020-07-28,1.440000057220459,1.5470000505447388,1.440000057220459,1.4600000381469727,1.4600000381469727,12600
2020-07-29,1.5,1.5,1.440000057220459,1.4500000476837158,1.4500000476837158,25000
2020-07-30,1.4600000381469727,1.4700000286102295,1.215999960899353,1.3300000429153442,1.3300000429153442,139100
2020-07-31,1.3200000524520874,1.3300000429153442,1.2400000095367432,1.2899999618530273,1.2899999618530273,49000
2020-08-03,1.2699999809265137,1.3200000524520874,1.25,1.3200000524520874,1.3200000524520874,34300
2020-08-04,1.340000033378601,1.340000033378601,1.2899999618530273,1.3200000524520874,1.3200000524520874,46500
2020-08-05,1.2999999523162842,1.3300000429153442,1.2899999618530273,1.3200000524520874,1.3200000524520874,5800
2020-08-06,1.3450000286102295,1.440000057220459,1.309999942779541,1.309999942779541,1.309999942779541,74700
2020-08-07,1.309999942779541,1.3890000581741333,1.2970000505447388,1.312000036239624,1.312000036239624,13100
2020-08-10,1.350000023841858,1.350000023841858,1.2059999704360962,1.2799999713897705,1.2799999713897705,73800
2020-08-11,1.2599999904632568,1.2999999523162842,1.2599999904632568,1.2799999713897705,1.2799999713897705,12400
2020-08-12,1.2599999904632568,1.309999942779541,1.25,1.2999999523162842,1.2999999523162842,29100
2020-08-13,1.3009999990463257,1.3300000429153442,1.2599999904632568,1.2899999618530273,1.2899999618530273,18400
2020-08-14,1.2400000095367432,1.3300000429153442,1.2400000095367432,1.309999942779541,1.309999942779541,19000
2020-08-17,1.3300000429153442,1.3300000429153442,1.2899999618530273,1.2999999523162842,1.2999999523162842,16200
2020-08-18,1.3020000457763672,1.4299999475479126,1.2999999523162842,1.3600000143051147,1.3600000143051147,94000
2020-08-19,1.3600000143051147,1.3700000047683716,1.2760000228881836,1.2999999523162842,1.2999999523162842,36400
2020-08-20,1.2699999809265137,1.3289999961853027,1.25,1.2999999523162842,1.2999999523162842,20500
2020-08-21,1.2899999618530273,1.2899999618530273,1.159999966621399,1.190000057220459,1.190000057220459,58900
2020-08-24,1.1699999570846558,1.2380000352859497,1.1549999713897705,1.159999966621399,1.159999966621399,30000
2020-08-25,1.1699999570846558,1.253999948501587,1.149999976158142,1.1799999475479126,1.1799999475479126,47600
2020-08-26,1.149999976158142,1.2100000381469727,1.149999976158142,1.2050000429153442,1.2050000429153442,46400
2020-08-27,1.184999942779541,1.2100000381469727,1.1299999952316284,1.149999976158142,1.149999976158142,47500
2020-08-28,1.1299999952316284,1.184000015258789,1.100000023841858,1.1399999856948853,1.1399999856948853,75600
2020-08-31,1.159999966621399,1.1799999475479126,1.1399999856948853,1.1549999713897705,1.1549999713897705,13700
2020-09-01,1.159999966621399,1.1799999475479126,1.0499999523162842,1.0700000524520874,1.0700000524520874,88200
2020-09-02,1.1100000143051147,1.1339999437332153,1.0800000429153442,1.100000023841858,1.100000023841858,14900
2020-09-03,1.0800000429153442,1.1200000047683716,1.059999942779541,1.0800000429153442,1.0800000429153442,30000
2020-09-04,1.100000023841858,1.1139999628067017,1.059999942779541,1.0700000524520874,1.0700000524520874,221200
2020-09-08,1.159999966621399,1.2400000095367432,1.0700000524520874,1.1799999475479126,1.1799999475479126,344400
2020-09-09,1.149999976158142,1.2300000190734863,1.1299999952316284,1.2000000476837158,1.2000000476837158,54500
2020-09-10,1.149999976158142,1.2300000190734863,1.149999976158142,1.2100000381469727,1.2100000381469727,28600
2020-09-11,1.190000057220459,1.2400000095367432,1.190000057220459,1.2400000095367432,1.2400000095367432,27800
2020-09-14,1.2799999713897705,1.2999999523162842,1.2380000352859497,1.2999999523162842,1.2999999523162842,47800
2020-09-15,1.2999999523162842,1.350000023841858,1.2999999523162842,1.350000023841858,1.350000023841858,49700
2020-09-16,1.3700000047683716,1.3799999952316284,1.350000023841858,1.3700000047683716,1.3700000047683716,54800
2020-09-17,1.309999942779541,1.4500000476837158,1.309999942779541,1.3899999856948853,1.3899999856948853,126300
2020-09-18,1.399999976158142,1.399999976158142,1.350000023841858,1.3600000143051147,1.3600000143051147,7700
2020-09-21,1.4299999475479126,1.4299999475479126,1.2999999523162842,1.340000033378601,1.340000033378601,10300
2020-09-22,1.3600000143051147,1.3600000143051147,1.3250000476837158,1.3250000476837158,1.3250000476837158,3500
2020-09-23,1.3200000524520874,1.350000023841858,1.2699999809265137,1.3300000429153442,1.3300000429153442,37800
2020-09-24,1.2799999713897705,1.2999999523162842,1.2599999904632568,1.2599999904632568,1.2599999904632568,5700
2020-09-25,1.2799999713897705,1.309999942779541,1.2599999904632568,1.309999942779541,1.309999942779541,8800
2020-09-28,1.3300000429153442,1.340000033378601,1.2599999904632568,1.2999999523162842,1.2999999523162842,22300
2020-09-29,1.309999942779541,1.3200000524520874,1.2599999904632568,1.2999999523162842,1.2999999523162842,32700
2020-09-30,1.2760000228881836,1.2899999618530273,1.2000000476837158,1.2000000476837158,1.2000000476837158,7800
2020-10-01,1.25,1.2699999809265137,1.2200000286102295,1.25,1.25,6300
2020-10-02,1.2000000476837158,1.2999999523162842,1.2000000476837158,1.284999966621399,1.284999966621399,52300
2020-10-05,1.274999976158142,1.2999999523162842,1.274999976158142,1.2899999618530273,1.2899999618530273,9500
2020-10-06,1.2999999523162842,1.4500000476837158,1.2799999713897705,1.409999966621399,1.409999966621399,117100
2020-10-07,1.4500000476837158,1.4500000476837158,1.3760000467300415,1.409999966621399,1.409999966621399,12400
2020-10-08,1.409000039100647,1.409000039100647,1.350000023841858,1.3869999647140503,1.3869999647140503,15500
2020-10-09,1.3830000162124634,1.399999976158142,1.3300000429153442,1.399999976158142,1.399999976158142,9000
2020-10-12,1.4299999475479126,1.4299999475479126,1.3509999513626099,1.3799999952316284,1.3799999952316284,6300
2020-10-13,1.399999976158142,1.4900000095367432,1.3600000143051147,1.4700000286102295,1.4700000286102295,94100
2020-10-14,1.4299999475479126,1.4500000476837158,1.350000023841858,1.350000023841858,1.350000023841858,37800
2020-10-15,1.3899999856948853,1.4299999475479126,1.309999942779541,1.409999966621399,1.409999966621399,25900
2020-10-16,1.399999976158142,1.409999966621399,1.3339999914169312,1.3899999856948853,1.3899999856948853,20600
2020-10-19,1.4299999475479126,1.5,1.3650000095367432,1.440000057220459,1.440000057220459,165100
2020-10-20,1.4299999475479126,1.590000033378601,1.4299999475479126,1.5199999809265137,1.5199999809265137,288000
2020-10-21,1.5399999618530273,1.6200000047683716,1.4700000286102295,1.559999942779541,1.559999942779541,226900
2020-10-22,1.6399999856948853,1.649999976158142,1.5299999713897705,1.6339999437332153,1.6339999437332153,392900
2020-10-23,1.690000057220459,2.0299999713897705,1.5199999809265137,1.5800000429153442,1.5800000429153442,1793800
2020-10-26,1.6299999952316284,1.6299999952316284,1.4500000476837158,1.5099999904632568,1.5099999904632568,236400
2020-10-27,1.5199999809265137,1.559999942779541,1.5099999904632568,1.559999942779541,1.559999942779541,58500
2020-10-28,1.4819999933242798,1.5099999904632568,1.4600000381469727,1.4900000095367432,1.4900000095367432,53800
2020-10-29,1.5670000314712524,1.5670000314712524,1.4700000286102295,1.5099999904632568,1.5099999904632568,23300
2020-10-30,1.4900000095367432,1.5049999952316284,1.4579999446868896,1.5,1.5,24700
2020-11-02,1.4800000190734863,1.6200000047683716,1.4800000190734863,1.6200000047683716,1.6200000047683716,78300
2020-11-03,1.6399999856948853,1.7899999618530273,1.6100000143051147,1.7000000476837158,1.7000000476837158,181500
2020-11-04,1.7000000476837158,1.7999999523162842,1.7000000476837158,1.7999999523162842,1.7999999523162842,147700
2020-11-05,1.7699999809265137,1.809999942779541,1.7200000286102295,1.75,1.75,67600
2020-11-06,1.7300000190734863,1.809999942779541,1.690000057220459,1.7599999904632568,1.7599999904632568,62900
2020-11-09,1.809999942779541,1.8600000143051147,1.7000000476837158,1.7899999618530273,1.7899999618530273,131100
2020-11-10,1.8300000429153442,1.8300000429153442,1.6299999952316284,1.7899999618530273,1.7899999618530273,38500
2020-11-11,1.7999999523162842,1.7999999523162842,1.649999976158142,1.6549999713897705,1.6549999713897705,46700
2020-11-12,1.7100000381469727,1.7660000324249268,1.6299999952316284,1.659999966621399,1.659999966621399,21700
2020-11-13,1.6449999809265137,1.7400000095367432,1.5399999618530273,1.6749999523162842,1.6749999523162842,138100
2020-11-16,1.7999999523162842,1.840000033378601,1.7200000286102295,1.7599999904632568,1.7599999904632568,88800
2020-11-17,1.7000000476837158,1.7599999904632568,1.6690000295639038,1.7200000286102295,1.7200000286102295,132500
2020-11-18,1.7999999523162842,1.7999999523162842,1.6100000143051147,1.6649999618530273,1.6649999618530273,79400
2020-11-19,1.659999966621399,1.7209999561309814,1.559999942779541,1.600000023841858,1.600000023841858,53500
2020-11-20,1.600000023841858,1.7000000476837158,1.600000023841858,1.6399999856948853,1.6399999856948853,38900
2020-11-23,1.6699999570846558,1.75,1.5800000429153442,1.7000000476837158,1.7000000476837158,212800
2020-11-24,1.7599999904632568,1.840000033378601,1.690000057220459,1.75,1.75,272000
2020-11-25,2.630000114440918,3.049999952316284,2.0899999141693115,2.2799999713897705,2.2799999713897705,31788700
2020-11-27,2.0,2.2799999713897705,1.9600000381469727,2.2200000286102295,2.2200000286102295,1286400
2020-11-30,2.25,2.5799999237060547,1.9800000190734863,2.25,2.25,3934100
2020-12-01,2.180000066757202,2.200000047683716,1.899999976158142,1.9700000286102295,1.9700000286102295,748000
2020-12-02,1.8300000429153442,2.069999933242798,1.8300000429153442,2.0299999713897705,2.0299999713897705,233700
2020-12-03,1.9809999465942383,2.0899999141693115,1.9199999570846558,2.0399999618530273,2.0399999618530273,191800
2020-12-04,2.0199999809265137,2.0899999141693115,1.9600000381469727,2.0299999713897705,2.0299999713897705,151700
2020-12-07,2.0,2.0999999046325684,1.88100004196167,1.9700000286102295,1.9700000286102295,191000
2020-12-08,1.9600000381469727,2.0799999237060547,1.9500000476837158,2.0299999713897705,2.0299999713897705,157600
2020-12-09,2.0299999713897705,2.1600000858306885,1.975000023841858,2.049999952316284,2.049999952316284,236400
2020-12-10,2.5480000972747803,2.5899999141693115,2.049999952316284,2.2100000381469727,2.2100000381469727,6635800
2020-12-11,2.059999942779541,2.3299999237060547,2.059999942779541,2.319999933242798,2.319999933242798,878700
2020-12-14,2.3499999046325684,2.4000000953674316,2.190000057220459,2.25,2.25,360600
2020-12-15,2.299999952316284,2.299999952316284,2.0799999237060547,2.2300000190734863,2.2300000190734863,247300
2020-12-16,2.2300000190734863,2.25,2.1500000953674316,2.240000009536743,2.240000009536743,189200
2020-12-17,2.2300000190734863,2.799999952316284,2.119999885559082,2.4100000858306885,2.4100000858306885,5666000
2020-12-18,2.2699999809265137,2.359999895095825,2.200000047683716,2.2899999618530273,2.2899999618530273,626300
2020-12-21,2.240000009536743,2.2850000858306885,2.1500000953674316,2.200000047683716,2.200000047683716,381000
2020-12-22,2.2300000190734863,2.3399999141693115,2.184999942779541,2.2899999618530273,2.2899999618530273,396000
2020-12-23,2.309999942779541,2.3299999237060547,2.2100000381469727,2.2799999713897705,2.2799999713897705,179700
2020-12-24,2.3299999237060547,2.3399999141693115,2.2100000381469727,2.240000009536743,2.240000009536743,122700
2020-12-28,2.4730000495910645,2.5399999618530273,2.309999942779541,2.440000057220459,2.440000057220459,1603600
2020-12-29,2.5,2.5,2.2209999561309814,2.3499999046325684,2.3499999046325684,323900
2020-12-30,2.4000000953674316,2.680000066757202,2.380000114440918,2.5299999713897705,2.5299999713897705,1833000
