Date,Open,High,Low,Close,Adj Close,Volume
2017-09-20,24.25,30.0,23.799999237060547,27.93000030517578,27.93000030517578,5031500
2017-09-21,28.18000030517578,32.63999938964844,28.0,31.110000610351562,31.110000610351562,1334900
2017-09-22,31.190000534057617,31.190000534057617,27.100000381469727,27.729999542236328,27.729999542236328,759500
2017-09-25,27.610000610351562,27.854999542236328,26.6200008392334,27.010000228881836,27.010000228881836,365000
2017-09-26,27.209999084472656,28.799999237060547,26.729999542236328,27.690000534057617,27.690000534057617,394500
2017-09-27,28.09000015258789,28.979999542236328,27.40999984741211,27.6200008392334,27.6200008392334,352100
2017-09-28,26.75,27.200000762939453,26.75,27.030000686645508,27.030000686645508,231700
2017-09-29,27.149999618530273,27.149999618530273,26.100000381469727,27.0,27.0,374000
2017-10-02,26.93000030517578,26.93000030517578,26.200000762939453,26.40999984741211,26.40999984741211,149900
2017-10-03,27.049999237060547,27.850000381469727,26.219999313354492,26.969999313354492,26.969999313354492,156200
2017-10-04,27.09000015258789,27.399999618530273,26.875,27.100000381469727,27.100000381469727,157700
2017-10-05,27.15999984741211,27.200000762939453,26.3700008392334,26.850000381469727,26.850000381469727,115400
2017-10-06,26.6299991607666,28.950000762939453,26.6299991607666,28.450000762939453,28.450000762939453,139000
2017-10-09,28.389999389648438,30.850000381469727,28.209999084472656,30.770000457763672,30.770000457763672,249400
2017-10-10,30.860000610351562,32.849998474121094,30.450000762939453,32.619998931884766,32.619998931884766,350300
2017-10-11,33.70000076293945,34.83000183105469,32.53900146484375,34.09000015258789,34.09000015258789,324400
2017-10-12,35.5,35.7400016784668,31.559999465942383,32.630001068115234,32.630001068115234,313800
2017-10-13,32.81999969482422,33.5880012512207,30.850000381469727,32.189998626708984,32.189998626708984,120500
2017-10-16,31.56999969482422,32.45800018310547,30.489999771118164,31.989999771118164,31.989999771118164,177900
2017-10-17,31.850000381469727,32.41899871826172,30.611000061035156,30.84000015258789,30.84000015258789,141500
2017-10-18,30.6200008392334,31.1200008392334,28.600000381469727,28.639999389648438,28.639999389648438,271100
2017-10-19,28.559999465942383,28.559999465942383,27.0,27.59000015258789,27.59000015258789,275400
2017-10-20,27.700000762939453,28.469999313354492,27.700000762939453,28.239999771118164,28.239999771118164,203400
2017-10-23,28.420000076293945,28.7189998626709,26.110000610351562,26.459999084472656,26.459999084472656,193200
2017-10-24,26.43000030517578,27.34000015258789,26.43000030517578,26.979999542236328,26.979999542236328,295600
2017-10-25,27.020000457763672,27.200000762939453,26.329999923706055,27.06999969482422,27.06999969482422,157400
2017-10-26,27.1299991607666,27.1299991607666,26.624000549316406,27.09000015258789,27.09000015258789,119400
2017-10-27,26.8700008392334,27.274999618530273,26.51099967956543,26.8700008392334,26.8700008392334,240200
2017-10-30,26.84000015258789,27.3700008392334,26.780000686645508,27.09000015258789,27.09000015258789,250000
2017-10-31,27.280000686645508,27.479999542236328,26.81999969482422,27.010000228881836,27.010000228881836,92000
2017-11-01,27.1299991607666,28.520000457763672,27.110000610351562,27.989999771118164,27.989999771118164,77400
2017-11-02,27.780000686645508,30.15999984741211,27.08799934387207,29.06999969482422,29.06999969482422,150000
2017-11-03,29.18000030517578,29.420000076293945,27.600000381469727,28.0,28.0,120100
2017-11-06,27.989999771118164,28.045000076293945,27.84000015258789,27.90999984741211,27.90999984741211,43200
2017-11-07,28.40999984741211,28.40999984741211,26.770000457763672,27.09000015258789,27.09000015258789,73600
2017-11-08,27.280000686645508,27.719999313354492,26.809999465942383,27.200000762939453,27.200000762939453,108300
2017-11-09,27.520000457763672,27.520000457763672,27.0,27.030000686645508,27.030000686645508,82500
2017-11-10,26.959999084472656,28.43000030517578,26.959999084472656,27.780000686645508,27.780000686645508,20500
2017-11-13,28.020000457763672,28.020000457763672,27.020000457763672,27.389999389648438,27.389999389648438,39200
2017-11-14,27.309999465942383,28.0,26.5,26.850000381469727,26.850000381469727,80700
2017-11-15,26.649999618530273,27.614999771118164,26.15999984741211,26.200000762939453,26.200000762939453,184700
2017-11-16,26.399999618530273,27.1299991607666,24.389999389648438,24.6200008392334,24.6200008392334,140300
2017-11-17,24.649999618530273,26.0,24.649999618530273,25.0,25.0,76500
2017-11-20,25.06999969482422,26.0,24.399999618530273,24.65999984741211,24.65999984741211,37200
2017-11-21,24.809999465942383,27.825000762939453,24.584999084472656,25.68000030517578,25.68000030517578,162500
2017-11-22,25.700000762939453,27.239999771118164,25.700000762939453,26.84000015258789,26.84000015258789,85200
2017-11-24,27.010000228881836,27.02899932861328,26.5,26.799999237060547,26.799999237060547,17700
2017-11-27,27.0,27.190000534057617,25.799999237060547,26.719999313354492,26.719999313354492,87000
2017-11-28,26.489999771118164,26.670000076293945,25.100000381469727,25.860000610351562,25.860000610351562,76200
2017-11-29,25.530000686645508,26.5,25.000999450683594,25.389999389648438,25.389999389648438,77400
2017-11-30,25.40999984741211,26.290000915527344,25.200000762939453,26.110000610351562,26.110000610351562,42300
2017-12-01,26.040000915527344,26.479999542236328,25.0,25.920000076293945,25.920000076293945,53000
2017-12-04,25.950000762939453,27.110000610351562,25.75,27.110000610351562,27.110000610351562,44100
2017-12-05,27.200000762939453,27.200000762939453,25.329999923706055,25.729999542236328,25.729999542236328,60100
2017-12-06,25.540000915527344,26.93899917602539,25.540000915527344,25.739999771118164,25.739999771118164,42900
2017-12-07,25.829999923706055,26.34000015258789,25.399999618530273,25.549999237060547,25.549999237060547,73200
2017-12-08,25.3700008392334,26.3799991607666,25.1200008392334,25.489999771118164,25.489999771118164,94900
2017-12-11,25.049999237060547,26.100000381469727,25.049999237060547,25.350000381469727,25.350000381469727,56000
2017-12-12,25.25,26.0,25.020000457763672,25.6299991607666,25.6299991607666,41700
2017-12-13,26.0,26.0,25.260000228881836,25.280000686645508,25.280000686645508,41100
2017-12-14,25.5,25.68400001525879,25.059999465942383,25.209999084472656,25.209999084472656,23100
2017-12-15,25.170000076293945,26.0,24.75,24.950000762939453,24.950000762939453,93000
2017-12-18,25.079999923706055,25.749000549316406,23.510000228881836,23.889999389648438,23.889999389648438,152800
2017-12-19,23.950000762939453,24.170000076293945,23.219999313354492,23.510000228881836,23.510000228881836,37900
2017-12-20,23.600000381469727,24.941999435424805,22.299999237060547,22.860000610351562,22.860000610351562,100800
2017-12-21,23.100000381469727,23.100000381469727,21.5,21.81999969482422,21.81999969482422,194300
2017-12-22,21.989999771118164,21.989999771118164,20.670000076293945,21.440000534057617,21.440000534057617,132000
2017-12-26,21.270000457763672,22.3700008392334,21.170000076293945,21.5,21.5,76100
2017-12-27,21.459999084472656,22.915000915527344,21.270000457763672,22.040000915527344,22.040000915527344,107400
2017-12-28,22.040000915527344,22.280000686645508,21.270000457763672,21.360000610351562,21.360000610351562,105000
2017-12-29,21.489999771118164,22.4950008392334,20.799999237060547,21.229999542236328,21.229999542236328,119200
2018-01-02,21.100000381469727,22.6299991607666,20.90999984741211,22.260000228881836,22.260000228881836,72300
2018-01-03,22.290000915527344,22.969999313354492,22.049999237060547,22.350000381469727,22.350000381469727,79100
2018-01-04,22.719999313354492,23.389999389648438,21.5,22.100000381469727,22.100000381469727,58000
2018-01-05,22.260000228881836,22.93000030517578,22.184999465942383,22.809999465942383,22.809999465942383,48300
2018-01-08,23.0,23.5,22.510000228881836,22.979999542236328,22.979999542236328,92600
2018-01-09,23.239999771118164,23.8799991607666,23.0,23.6299991607666,23.6299991607666,76900
2018-01-10,23.649999618530273,23.700000762939453,22.34000015258789,22.530000686645508,22.530000686645508,58500
2018-01-11,22.790000915527344,23.459999084472656,22.510000228881836,23.110000610351562,23.110000610351562,29600
2018-01-12,23.229999542236328,23.65999984741211,22.90999984741211,23.3700008392334,23.3700008392334,65000
2018-01-16,24.0,24.0,23.040000915527344,23.440000534057617,23.440000534057617,84300
2018-01-17,23.280000686645508,23.860000610351562,22.229999542236328,22.6200008392334,22.6200008392334,69600
2018-01-18,22.549999237060547,23.510000228881836,22.549999237060547,23.5,23.5,27600
2018-01-19,23.03499984741211,23.40999984741211,22.520000457763672,22.639999389648438,22.639999389648438,36400
2018-01-22,22.850000381469727,23.784000396728516,22.850000381469727,23.739999771118164,23.739999771118164,45600
2018-01-23,23.579999923706055,23.850000381469727,23.3700008392334,23.68000030517578,23.68000030517578,38700
2018-01-24,23.829999923706055,24.200000762939453,22.829999923706055,24.1200008392334,24.1200008392334,55100
2018-01-25,24.799999237060547,24.799999237060547,23.809999465942383,24.399999618530273,24.399999618530273,18300
2018-01-26,24.799999237060547,24.799999237060547,23.799999237060547,24.579999923706055,24.579999923706055,71100
2018-01-29,25.989999771118164,25.989999771118164,24.6299991607666,24.959999084472656,24.959999084472656,63000
2018-01-30,25.170000076293945,25.420000076293945,24.520000457763672,24.850000381469727,24.850000381469727,34600
2018-01-31,25.15999984741211,26.969999313354492,24.850000381469727,26.959999084472656,26.959999084472656,376800
2018-02-01,27.34000015258789,27.34000015258789,25.5,26.389999389648438,26.389999389648438,52700
2018-02-02,26.299999237060547,27.045000076293945,25.209999084472656,25.979999542236328,25.979999542236328,48500
2018-02-05,25.829999923706055,25.829999923706055,24.600000381469727,25.350000381469727,25.350000381469727,56600
2018-02-06,25.190000534057617,25.190000534057617,22.799999237060547,23.049999237060547,23.049999237060547,142100
2018-02-07,23.0,23.0,22.209999084472656,22.5,22.5,68900
2018-02-08,22.5,22.899999618530273,20.049999237060547,20.049999237060547,20.049999237060547,118100
2018-02-09,20.209999084472656,21.15999984741211,19.799999237060547,20.25,20.25,119700
2018-02-12,20.299999237060547,21.48699951171875,20.299999237060547,20.799999237060547,20.799999237060547,128400
2018-02-13,20.75,22.110000610351562,20.200000762939453,22.0,22.0,182000
2018-02-14,23.600000381469727,24.799999237060547,22.030000686645508,24.219999313354492,24.219999313354492,214500
2018-02-15,24.25,24.25,23.450000762939453,23.899999618530273,23.899999618530273,97100
2018-02-16,23.719999313354492,23.989999771118164,23.1200008392334,23.489999771118164,23.489999771118164,61400
2018-02-20,23.649999618530273,24.440000534057617,23.5,24.25,24.25,104100
2018-02-21,24.440000534057617,24.440000534057617,23.829999923706055,23.989999771118164,23.989999771118164,115000
2018-02-22,24.15999984741211,24.350000381469727,22.600000381469727,23.0,23.0,113700
2018-02-23,22.979999542236328,23.09000015258789,22.059999465942383,23.0,23.0,50300
2018-02-26,23.200000762939453,23.209999084472656,22.329999923706055,23.049999237060547,23.049999237060547,56200
2018-02-27,23.209999084472656,23.209999084472656,22.31999969482422,22.540000915527344,22.540000915527344,34800
2018-02-28,22.459999084472656,22.459999084472656,21.15999984741211,22.149999618530273,22.149999618530273,93700
2018-03-01,21.540000915527344,21.969999313354492,21.010000228881836,21.899999618530273,21.899999618530273,17600
2018-03-02,21.530000686645508,22.155000686645508,21.440000534057617,21.84000015258789,21.84000015258789,18400
2018-03-05,22.09000015258789,22.25,21.520000457763672,21.96500015258789,21.96500015258789,16100
2018-03-06,22.0,22.68000030517578,21.510000228881836,22.15999984741211,22.15999984741211,58700
2018-03-07,22.15999984741211,22.18000030517578,21.520000457763672,21.799999237060547,21.799999237060547,61000
2018-03-08,21.889999389648438,23.479999542236328,21.610000610351562,21.959999084472656,21.959999084472656,95400
2018-03-09,21.950000762939453,22.558000564575195,21.889999389648438,22.100000381469727,22.100000381469727,195200
2018-03-12,22.0,22.920000076293945,21.68000030517578,22.059999465942383,22.059999465942383,144400
2018-03-13,22.0,22.920000076293945,21.209999084472656,21.6299991607666,21.6299991607666,95100
2018-03-14,21.25,21.799999237060547,20.524999618530273,20.700000762939453,20.700000762939453,71400
2018-03-15,20.719999313354492,21.674999237060547,20.5,20.799999237060547,20.799999237060547,52400
2018-03-16,20.829999923706055,21.270000457763672,20.600000381469727,21.020000457763672,21.020000457763672,43500
2018-03-19,21.209999084472656,21.81999969482422,21.0,21.06999969482422,21.06999969482422,83800
2018-03-20,21.229999542236328,21.549999237060547,21.020000457763672,21.139999389648438,21.139999389648438,74400
2018-03-21,21.0,22.200000762939453,20.860000610351562,21.780000686645508,21.780000686645508,142500
2018-03-22,21.549999237060547,21.985000610351562,20.549999237060547,20.739999771118164,20.739999771118164,108000
2018-03-23,20.989999771118164,21.639999389648438,20.75,20.760000228881836,20.760000228881836,68400
2018-03-26,21.059999465942383,22.600000381469727,20.770000457763672,20.780000686645508,20.780000686645508,85700
2018-03-27,20.969999313354492,21.469999313354492,20.780000686645508,20.790000915527344,20.790000915527344,90800
2018-03-28,20.969999313354492,21.0,20.56999969482422,20.899999618530273,20.899999618530273,34600
2018-03-29,21.1200008392334,21.8799991607666,20.790000915527344,21.350000381469727,21.350000381469727,47700
2018-04-02,21.1299991607666,21.809999465942383,20.983999252319336,21.239999771118164,21.239999771118164,18200
2018-04-03,20.90999984741211,21.25,20.559999465942383,21.100000381469727,21.100000381469727,83200
2018-04-04,20.8700008392334,22.68000030517578,20.59000015258789,22.40999984741211,22.40999984741211,97200
2018-04-05,22.479999542236328,22.479999542236328,21.270000457763672,21.510000228881836,21.510000228881836,68000
2018-04-06,21.290000915527344,22.0,21.18000030517578,21.440000534057617,21.440000534057617,65400
2018-04-09,21.540000915527344,22.600000381469727,21.5,22.440000534057617,22.440000534057617,66100
2018-04-10,22.510000228881836,22.625,21.95800018310547,22.56999969482422,22.56999969482422,109200
2018-04-11,22.31999969482422,22.878999710083008,21.68000030517578,21.690000534057617,21.690000534057617,30300
2018-04-12,21.959999084472656,22.229999542236328,21.360000610351562,22.079999923706055,22.079999923706055,60400
2018-04-13,22.010000228881836,22.55900001525879,21.6200008392334,21.68000030517578,21.68000030517578,37300
2018-04-16,21.729999542236328,22.0,21.15999984741211,21.610000610351562,21.610000610351562,68700
2018-04-17,21.549999237060547,21.600000381469727,21.389999389648438,21.59000015258789,21.59000015258789,12300
2018-04-18,21.520000457763672,21.600000381469727,20.906999588012695,21.059999465942383,21.059999465942383,71300
2018-04-19,21.25,21.5,20.690000534057617,20.969999313354492,20.969999313354492,37400
2018-04-20,20.84000015258789,21.125,20.610000610351562,20.940000534057617,20.940000534057617,7400
2018-04-23,21.0,21.0,20.6200008392334,20.700000762939453,20.700000762939453,25200
2018-04-24,20.5,20.5,17.860000610351562,18.0,18.0,202900
2018-04-25,18.34000015258789,18.75,18.299999237060547,18.440000534057617,18.440000534057617,30700
2018-04-26,18.579999923706055,18.954999923706055,18.100000381469727,18.40999984741211,18.40999984741211,35100
2018-04-27,18.68000030517578,19.989999771118164,18.5,19.770000457763672,19.770000457763672,63200
2018-04-30,19.75,19.770000457763672,18.510000228881836,18.670000076293945,18.670000076293945,109300
2018-05-01,18.670000076293945,18.989999771118164,18.510000228881836,18.729999542236328,18.729999542236328,50300
2018-05-02,18.5,18.809999465942383,18.0,18.260000228881836,18.260000228881836,61100
2018-05-03,18.420000076293945,18.5,17.850000381469727,18.149999618530273,18.149999618530273,105700
2018-05-04,18.079999923706055,18.520000457763672,18.0,18.040000915527344,18.040000915527344,48600
2018-05-07,18.0,18.290000915527344,17.899999618530273,18.139999389648438,18.139999389648438,95800
2018-05-08,18.010000228881836,18.25,17.954999923706055,18.229999542236328,18.229999542236328,35000
2018-05-09,18.139999389648438,19.15999984741211,18.049999237060547,18.950000762939453,18.950000762939453,126000
2018-05-10,18.81999969482422,18.81999969482422,18.030000686645508,18.030000686645508,18.030000686645508,162700
2018-05-11,18.0,19.420000076293945,18.0,18.940000534057617,18.940000534057617,79000
2018-05-14,19.0,20.0,18.559999465942383,19.780000686645508,19.780000686645508,89300
2018-05-15,19.700000762939453,20.540000915527344,19.625999450683594,20.540000915527344,20.540000915527344,111400
2018-05-16,20.5,21.5,20.5,20.959999084472656,20.959999084472656,192100
2018-05-17,21.100000381469727,21.100000381469727,20.26099967956543,20.610000610351562,20.610000610351562,51900
2018-05-18,20.18000030517578,20.600000381469727,19.520000457763672,20.040000915527344,20.040000915527344,96700
2018-05-21,20.049999237060547,21.360000610351562,19.84000015258789,20.100000381469727,20.100000381469727,93900
2018-05-22,19.989999771118164,21.059999465942383,19.989999771118164,20.299999237060547,20.299999237060547,26500
2018-05-23,20.229999542236328,21.520000457763672,20.229999542236328,21.520000457763672,21.520000457763672,69100
2018-05-24,21.690000534057617,24.959999084472656,21.55500030517578,22.190000534057617,22.190000534057617,399100
2018-05-25,22.190000534057617,25.059999465942383,22.190000534057617,24.690000534057617,24.690000534057617,151200
2018-05-29,24.65999984741211,25.589000701904297,23.790000915527344,25.010000228881836,25.010000228881836,130600
2018-05-30,25.100000381469727,25.399999618530273,23.56999969482422,24.280000686645508,24.280000686645508,182900
2018-05-31,24.290000915527344,24.530000686645508,23.170000076293945,23.420000076293945,23.420000076293945,270600
2018-06-01,23.959999084472656,24.239999771118164,23.149999618530273,23.389999389648438,23.389999389648438,105200
2018-06-04,23.719999313354492,24.09000015258789,23.559999465942383,23.799999237060547,23.799999237060547,160600
2018-06-05,23.989999771118164,24.15999984741211,22.28499984741211,22.40999984741211,22.40999984741211,153600
2018-06-06,22.6200008392334,24.989999771118164,22.530000686645508,24.139999389648438,24.139999389648438,128100
2018-06-07,24.450000762939453,24.5,23.020000457763672,24.280000686645508,24.280000686645508,80200
2018-06-08,24.5,24.5,23.530000686645508,23.739999771118164,23.739999771118164,60800
2018-06-11,23.920000076293945,24.180999755859375,23.15999984741211,23.860000610351562,23.860000610351562,58800
2018-06-12,23.709999084472656,24.989999771118164,23.56999969482422,23.59000015258789,23.59000015258789,41900
2018-06-13,23.81999969482422,24.170000076293945,23.309999465942383,23.739999771118164,23.739999771118164,30000
2018-06-14,24.3799991607666,24.3799991607666,23.1299991607666,23.829999923706055,23.829999923706055,102100
2018-06-15,24.06999969482422,24.459999084472656,23.440000534057617,23.950000762939453,23.950000762939453,97500
2018-06-18,24.0,24.25,23.18000030517578,23.760000228881836,23.760000228881836,61800
2018-06-19,23.399999618530273,23.6200008392334,22.049999237060547,22.75,22.75,94400
2018-06-20,23.3700008392334,24.200000762939453,23.1200008392334,24.18000030517578,24.18000030517578,72200
2018-06-21,24.68000030517578,24.68000030517578,23.219999313354492,23.440000534057617,23.440000534057617,71300
2018-06-22,23.5,23.90999984741211,23.329999923706055,23.360000610351562,23.360000610351562,38600
2018-06-25,23.540000915527344,23.850000381469727,22.010000228881836,22.579999923706055,22.579999923706055,72500
2018-06-26,22.989999771118164,23.8700008392334,22.760000228881836,23.700000762939453,23.700000762939453,50700
2018-06-27,23.549999237060547,23.989999771118164,22.5,22.510000228881836,22.510000228881836,28200
2018-06-28,22.479999542236328,23.450000762939453,22.350000381469727,22.790000915527344,22.790000915527344,64800
2018-06-29,22.799999237060547,23.520000457763672,22.469999313354492,23.25,23.25,24700
2018-07-02,23.299999237060547,23.604999542236328,23.05500030517578,23.530000686645508,23.530000686645508,27300
2018-07-03,23.56999969482422,23.93000030517578,23.219999313354492,23.25,23.25,17300
2018-07-05,23.56999969482422,23.979999542236328,22.6299991607666,23.31999969482422,23.31999969482422,148500
2018-07-06,23.34000015258789,23.780000686645508,22.25,23.0,23.0,119400
2018-07-09,23.239999771118164,23.780000686645508,22.559999465942383,23.299999237060547,23.299999237060547,45200
2018-07-10,23.440000534057617,24.5,23.264999389648438,24.06999969482422,24.06999969482422,90400
2018-07-11,23.799999237060547,24.049999237060547,23.299999237060547,23.920000076293945,23.920000076293945,54700
2018-07-12,23.969999313354492,23.969999313354492,23.253999710083008,23.510000228881836,23.510000228881836,52500
2018-07-13,23.6299991607666,23.920000076293945,23.0,23.540000915527344,23.540000915527344,30200
2018-07-16,23.639999389648438,23.829999923706055,23.299999237060547,23.579999923706055,23.579999923706055,47200
2018-07-17,23.559999465942383,23.993999481201172,23.5,23.799999237060547,23.799999237060547,39400
2018-07-18,23.8799991607666,24.149999618530273,23.610000610351562,24.1200008392334,24.1200008392334,47300
2018-07-19,24.06999969482422,24.5,23.799999237060547,24.190000534057617,24.190000534057617,75700
2018-07-20,24.389999389648438,24.48699951171875,23.760000228881836,24.1200008392334,24.1200008392334,62900
2018-07-23,24.270000457763672,24.979999542236328,23.799999237060547,24.65999984741211,24.65999984741211,97900
2018-07-24,24.950000762939453,25.246999740600586,24.0049991607666,24.139999389648438,24.139999389648438,85300
2018-07-25,24.200000762939453,24.399999618530273,23.170000076293945,23.690000534057617,23.690000534057617,63500
2018-07-26,23.920000076293945,23.920000076293945,22.770000457763672,22.940000534057617,22.940000534057617,40200
2018-07-27,22.979999542236328,23.149999618530273,21.790000915527344,22.239999771118164,22.239999771118164,71800
2018-07-30,22.079999923706055,22.079999923706055,21.020000457763672,21.299999237060547,21.299999237060547,104100
2018-07-31,21.100000381469727,21.959999084472656,21.013999938964844,21.920000076293945,21.920000076293945,49700
2018-08-01,22.06999969482422,23.09000015258789,21.690000534057617,21.790000915527344,21.790000915527344,43200
2018-08-02,21.6200008392334,22.139999389648438,21.290000915527344,21.309999465942383,21.309999465942383,71500
2018-08-03,21.440000534057617,21.59000015258789,20.100000381469727,20.1299991607666,20.1299991607666,152600
2018-08-06,20.1200008392334,22.399999618530273,20.0,22.0,22.0,105600
2018-08-07,21.690000534057617,22.459999084472656,20.670000076293945,21.0,21.0,59900
2018-08-08,21.049999237060547,22.239999771118164,20.649999618530273,22.15999984741211,22.15999984741211,66100
2018-08-09,21.700000762939453,22.59000015258789,21.489999771118164,21.709999084472656,21.709999084472656,23000
2018-08-10,21.75,22.489999771118164,21.540000915527344,22.0,22.0,134200
2018-08-13,21.920000076293945,22.399999618530273,21.899999618530273,22.06999969482422,22.06999969482422,75700
2018-08-14,22.219999313354492,22.30500030517578,21.510000228881836,21.93000030517578,21.93000030517578,47300
2018-08-15,21.729999542236328,22.299999237060547,21.25,21.450000762939453,21.450000762939453,72600
2018-08-16,21.68000030517578,22.3700008392334,21.34000015258789,22.139999389648438,22.139999389648438,54300
2018-08-17,22.290000915527344,22.860000610351562,21.81999969482422,22.190000534057617,22.190000534057617,58000
2018-08-20,22.360000610351562,23.350000381469727,22.256999969482422,22.75,22.75,78400
2018-08-21,22.6200008392334,24.0,22.6200008392334,23.360000610351562,23.360000610351562,90000
2018-08-22,23.43000030517578,23.709999084472656,22.450000762939453,22.520000457763672,22.520000457763672,30000
2018-08-23,22.489999771118164,23.299999237060547,22.489999771118164,23.239999771118164,23.239999771118164,18700
2018-08-24,22.68000030517578,23.170000076293945,22.68000030517578,22.989999771118164,22.989999771118164,171400
2018-08-27,23.25,24.489999771118164,23.25,23.8799991607666,23.8799991607666,197000
2018-08-28,23.8799991607666,25.799999237060547,23.799999237060547,25.350000381469727,25.350000381469727,222700
2018-08-29,25.639999389648438,25.760000228881836,22.700000762939453,22.729999542236328,22.729999542236328,156000
2018-08-30,22.75,23.559999465942383,22.51099967956543,23.450000762939453,23.450000762939453,117300
2018-08-31,23.399999618530273,23.44499969482422,22.510000228881836,22.729999542236328,22.729999542236328,61100
2018-09-04,21.399999618530273,21.700000762939453,20.18000030517578,21.1200008392334,21.1200008392334,160600
2018-09-05,21.239999771118164,21.690000534057617,20.200000762939453,20.219999313354492,20.219999313354492,242000
2018-09-06,19.049999237060547,19.149999618530273,17.520000457763672,18.0,18.0,4028300
2018-09-07,18.209999084472656,18.299999237060547,17.6200008392334,17.809999465942383,17.809999465942383,505800
2018-09-10,18.049999237060547,18.149999618530273,17.170000076293945,17.799999237060547,17.799999237060547,292600
2018-09-11,17.81999969482422,18.389999389648438,17.600000381469727,18.299999237060547,18.299999237060547,294000
2018-09-12,18.219999313354492,18.639999389648438,17.881000518798828,18.040000915527344,18.040000915527344,584500
2018-09-13,18.5,18.5,17.399999618530273,17.8799991607666,17.8799991607666,404600
2018-09-14,18.1200008392334,18.700000762939453,17.809999465942383,18.399999618530273,18.399999618530273,500400
2018-09-17,18.270000457763672,18.690000534057617,18.110000610351562,18.59000015258789,18.59000015258789,278900
2018-09-18,18.520000457763672,18.889999389648438,18.139999389648438,18.709999084472656,18.709999084472656,293500
2018-09-19,18.6200008392334,19.25,18.38800048828125,19.18000030517578,19.18000030517578,186500
2018-09-20,19.219999313354492,19.700000762939453,19.15999984741211,19.540000915527344,19.540000915527344,276500
2018-09-21,19.639999389648438,19.690000534057617,18.940000534057617,19.18000030517578,19.18000030517578,889500
2018-09-24,19.229999542236328,19.229999542236328,18.6299991607666,18.920000076293945,18.920000076293945,115700
2018-09-25,18.969999313354492,19.37299919128418,18.829999923706055,19.149999618530273,19.149999618530273,108100
2018-09-26,19.299999237060547,19.5,19.049999237060547,19.440000534057617,19.440000534057617,131200
2018-09-27,19.200000762939453,19.520000457763672,19.059999465942383,19.399999618530273,19.399999618530273,104800
2018-09-28,19.360000610351562,19.5,19.239999771118164,19.479999542236328,19.479999542236328,113700
2018-10-01,19.43000030517578,19.729999542236328,19.209999084472656,19.649999618530273,19.649999618530273,176200
2018-10-02,19.649999618530273,19.729999542236328,19.190000534057617,19.420000076293945,19.420000076293945,108300
2018-10-03,19.3700008392334,20.010000228881836,19.100000381469727,20.010000228881836,20.010000228881836,474000
2018-10-04,19.809999465942383,20.0,19.100000381469727,19.219999313354492,19.219999313354492,163000
2018-10-05,19.15999984741211,19.459999084472656,17.81999969482422,18.25,18.25,195900
2018-10-08,18.1200008392334,18.59000015258789,17.219999313354492,17.479999542236328,17.479999542236328,152000
2018-10-09,17.440000534057617,17.610000610351562,17.18000030517578,17.450000762939453,17.450000762939453,340100
2018-10-10,17.600000381469727,17.639999389648438,15.880000114440918,15.880000114440918,15.880000114440918,449200
2018-10-11,15.640000343322754,15.720000267028809,14.289999961853027,14.949999809265137,14.949999809265137,256700
2018-10-12,15.079999923706055,16.25,15.079999923706055,15.699999809265137,15.699999809265137,149400
2018-10-15,15.670000076293945,16.229999542236328,15.571000099182129,15.949999809265137,15.949999809265137,78300
2018-10-16,15.899999618530273,16.739999771118164,15.760000228881836,16.469999313354492,16.469999313354492,80400
2018-10-17,16.209999084472656,17.020000457763672,16.18000030517578,16.989999771118164,16.989999771118164,129800
2018-10-18,16.8700008392334,16.8700008392334,16.18000030517578,16.469999313354492,16.469999313354492,69400
2018-10-19,16.479999542236328,16.56999969482422,16.15999984741211,16.3700008392334,16.3700008392334,81100
2018-10-22,16.559999465942383,16.799999237060547,16.15999984741211,16.43000030517578,16.43000030517578,254800
2018-10-23,16.110000610351562,16.110000610351562,15.149999618530273,15.40999984741211,15.40999984741211,178600
2018-10-24,15.449999809265137,15.529999732971191,15.180000305175781,15.199999809265137,15.199999809265137,169000
2018-10-25,15.199999809265137,16.010000228881836,15.199999809265137,15.680000305175781,15.680000305175781,56600
2018-10-26,15.489999771118164,16.639999389648438,15.489999771118164,16.600000381469727,16.600000381469727,66000
2018-10-29,16.540000915527344,16.79800033569336,15.868000030517578,16.06999969482422,16.06999969482422,119900
2018-10-30,15.979999542236328,16.469999313354492,15.819999694824219,16.450000762939453,16.450000762939453,57100
2018-10-31,16.5,16.639999389648438,16.038999557495117,16.360000610351562,16.360000610351562,71600
2018-11-01,16.360000610351562,16.985000610351562,16.360000610351562,16.950000762939453,16.950000762939453,97300
2018-11-02,16.950000762939453,18.0,16.709999084472656,17.239999771118164,17.239999771118164,51500
2018-11-05,17.190000534057617,17.389999389648438,16.81999969482422,17.030000686645508,17.030000686645508,49000
2018-11-06,16.920000076293945,17.52899932861328,16.920000076293945,17.219999313354492,17.219999313354492,34300
2018-11-07,17.139999389648438,18.479999542236328,17.139999389648438,18.299999237060547,18.299999237060547,75700
2018-11-08,18.25,18.489999771118164,17.6200008392334,17.860000610351562,17.860000610351562,42000
2018-11-09,17.610000610351562,17.68000030517578,16.90999984741211,16.90999984741211,16.90999984741211,42500
2018-11-12,16.90999984741211,16.950000762939453,16.229999542236328,16.43000030517578,16.43000030517578,26900
2018-11-13,16.43000030517578,18.459999084472656,16.43000030517578,16.940000534057617,16.940000534057617,73800
2018-11-14,16.8700008392334,17.924999237060547,16.8700008392334,16.93000030517578,16.93000030517578,106700
2018-11-15,16.899999618530273,17.889999389648438,16.899999618530273,17.5,17.5,65100
2018-11-16,17.3799991607666,18.298999786376953,16.878000259399414,17.989999771118164,17.989999771118164,68300
2018-11-19,18.049999237060547,18.25,17.030000686645508,17.200000762939453,17.200000762939453,29000
2018-11-20,16.940000534057617,17.8700008392334,16.549999237060547,17.170000076293945,17.170000076293945,20100
2018-11-21,17.209999084472656,17.39699935913086,16.760000228881836,17.190000534057617,17.190000534057617,75400
2018-11-23,16.75,17.420000076293945,16.75,17.190000534057617,17.190000534057617,20900
2018-11-26,17.209999084472656,17.809999465942383,17.06999969482422,17.600000381469727,17.600000381469727,46400
2018-11-27,17.530000686645508,17.969999313354492,17.1299991607666,17.65999984741211,17.65999984741211,64100
2018-11-28,17.829999923706055,18.5,17.67099952697754,18.420000076293945,18.420000076293945,60100
2018-11-29,18.399999618530273,18.84000015258789,17.648000717163086,18.5,18.5,55900
2018-11-30,18.5,19.719999313354492,18.40999984741211,19.719999313354492,19.719999313354492,100800
2018-12-03,19.979999542236328,20.68000030517578,19.780000686645508,20.030000686645508,20.030000686645508,149700
2018-12-04,20.040000915527344,21.600000381469727,19.6200008392334,20.110000610351562,20.110000610351562,337000
2018-12-06,19.780000686645508,19.889999389648438,18.56999969482422,19.729999542236328,19.729999542236328,85600
2018-12-07,19.600000381469727,20.940000534057617,19.010000228881836,20.59000015258789,20.59000015258789,147100
2018-12-10,20.3700008392334,20.3700008392334,18.940000534057617,19.920000076293945,19.920000076293945,98000
2018-12-11,20.0,20.44499969482422,19.549999237060547,20.1200008392334,20.1200008392334,59400
2018-12-12,20.440000534057617,21.420000076293945,20.149999618530273,21.18000030517578,21.18000030517578,126500
2018-12-13,21.239999771118164,24.93000030517578,21.024999618530273,24.719999313354492,24.719999313354492,1189800
2018-12-14,23.93000030517578,24.440000534057617,22.37299919128418,23.389999389648438,23.389999389648438,304600
2018-12-17,23.399999618530273,23.889999389648438,22.5,22.84000015258789,22.84000015258789,144100
2018-12-18,23.020000457763672,23.700000762939453,22.360000610351562,22.729999542236328,22.729999542236328,110000
2018-12-19,22.799999237060547,23.219999313354492,21.19499969482422,21.65999984741211,21.65999984741211,155100
2018-12-20,21.450000762939453,22.530000686645508,20.799999237060547,21.329999923706055,21.329999923706055,205500
2018-12-21,21.5,21.510000228881836,20.34000015258789,20.40999984741211,20.40999984741211,546500
2018-12-24,20.350000381469727,21.65999984741211,20.219999313354492,21.469999313354492,21.469999313354492,118700
2018-12-26,22.30299949645996,23.219999313354492,21.65999984741211,23.110000610351562,23.110000610351562,140400
2018-12-27,22.739999771118164,23.010000228881836,22.209999084472656,22.8799991607666,22.8799991607666,64700
2018-12-28,22.770000457763672,23.260000228881836,22.260000228881836,22.6200008392334,22.6200008392334,123500
2018-12-31,23.0,23.229999542236328,22.81999969482422,23.219999313354492,23.219999313354492,55200
2019-01-02,22.979999542236328,23.170000076293945,22.209999084472656,22.299999237060547,22.299999237060547,179700
2019-01-03,21.850000381469727,21.940000534057617,21.011999130249023,21.709999084472656,21.709999084472656,155400
2019-01-04,21.280000686645508,22.420000076293945,21.239999771118164,22.0,22.0,118800
2019-01-07,22.190000534057617,22.8799991607666,21.959999084472656,22.600000381469727,22.600000381469727,145000
2019-01-08,22.969999313354492,23.190000534057617,22.450000762939453,22.729999542236328,22.729999542236328,93600
2019-01-09,23.079999923706055,23.329999923706055,22.790000915527344,23.18000030517578,23.18000030517578,93300
2019-01-10,23.25,24.5,22.860000610351562,24.329999923706055,24.329999923706055,424500
2019-01-11,24.440000534057617,25.89900016784668,23.959999084472656,24.600000381469727,24.600000381469727,384600
2019-01-14,24.219999313354492,24.739999771118164,23.459999084472656,23.989999771118164,23.989999771118164,164900
2019-01-15,23.8799991607666,25.93000030517578,23.8799991607666,25.729999542236328,25.729999542236328,176400
2019-01-16,25.700000762939453,26.959999084472656,25.665000915527344,26.6299991607666,26.6299991607666,302700
2019-01-17,26.260000228881836,26.5,25.643999099731445,26.079999923706055,26.079999923706055,195300
2019-01-18,26.299999237060547,26.729999542236328,25.924999237060547,26.0,26.0,142100
2019-01-22,25.700000762939453,26.469999313354492,25.3799991607666,25.700000762939453,25.700000762939453,114300
2019-01-23,25.790000915527344,26.079999923706055,25.325000762939453,25.959999084472656,25.959999084472656,171300
2019-01-24,25.860000610351562,26.079999923706055,25.299999237060547,25.469999313354492,25.469999313354492,181900
2019-01-25,25.6200008392334,25.940000534057617,25.520000457763672,25.68000030517578,25.68000030517578,155700
2019-01-28,25.479999542236328,26.469999313354492,24.770000457763672,26.049999237060547,26.049999237060547,121800
2019-01-29,26.309999465942383,27.649999618530273,25.920000076293945,27.34000015258789,27.34000015258789,344800
2019-01-30,27.329999923706055,27.600000381469727,26.329999923706055,26.959999084472656,26.959999084472656,197200
2019-01-31,27.110000610351562,27.559999465942383,26.739999771118164,26.989999771118164,26.989999771118164,96100
2019-02-01,26.8799991607666,27.3700008392334,26.760000228881836,27.209999084472656,27.209999084472656,109700
2019-02-04,27.25,27.549999237060547,26.670000076293945,27.190000534057617,27.190000534057617,115400
2019-02-05,27.209999084472656,27.993999481201172,27.209999084472656,27.56999969482422,27.56999969482422,120300
2019-02-06,29.010000228881836,33.86000061035156,29.010000228881836,31.540000915527344,31.540000915527344,657300
2019-02-07,31.31999969482422,31.969999313354492,30.489999771118164,30.600000381469727,30.600000381469727,208900
2019-02-08,30.459999084472656,30.700000762939453,29.770000457763672,30.559999465942383,30.559999465942383,180300
2019-02-11,30.709999084472656,30.799999237060547,28.510000228881836,28.56999969482422,28.56999969482422,290900
2019-02-12,28.639999389648438,29.899999618530273,28.290000915527344,28.81999969482422,28.81999969482422,281300
2019-02-13,28.93000030517578,29.200000762939453,27.260000228881836,27.399999618530273,27.399999618530273,242000
2019-02-14,27.360000610351562,28.0,27.010000228881836,27.540000915527344,27.540000915527344,132400
2019-02-15,27.6200008392334,28.93000030517578,27.6200008392334,28.049999237060547,28.049999237060547,85700
2019-02-19,28.040000915527344,29.030000686645508,27.85300064086914,28.6299991607666,28.6299991607666,140600
2019-02-20,29.010000228881836,29.969999313354492,27.889999389648438,28.18000030517578,28.18000030517578,271000
2019-02-21,28.940000534057617,29.010000228881836,27.549999237060547,28.200000762939453,28.200000762939453,82400
2019-02-22,28.25,28.940000534057617,27.565000534057617,28.479999542236328,28.479999542236328,214300
2019-02-25,29.09000015258789,29.729000091552734,28.719999313354492,29.1200008392334,29.1200008392334,76600
2019-02-26,29.100000381469727,29.639999389648438,28.43000030517578,29.030000686645508,29.030000686645508,100100
2019-02-27,29.010000228881836,29.43000030517578,28.485000610351562,29.0,29.0,42400
2019-02-28,29.729999542236328,29.860000610351562,28.520000457763672,28.81999969482422,28.81999969482422,86400
2019-03-01,29.040000915527344,30.260000228881836,28.6299991607666,29.719999313354492,29.719999313354492,217500
2019-03-04,29.84000015258789,30.1299991607666,28.030000686645508,28.5,28.5,147600
2019-03-05,28.459999084472656,29.198999404907227,28.260000228881836,28.520000457763672,28.520000457763672,149800
2019-03-06,28.520000457763672,29.290000915527344,27.549999237060547,27.860000610351562,27.860000610351562,204700
2019-03-07,27.920000076293945,28.8799991607666,26.010000228881836,28.549999237060547,28.549999237060547,183300
2019-03-08,28.030000686645508,28.299999237060547,26.700000762939453,27.75,27.75,67400
2019-03-11,27.850000381469727,28.790000915527344,27.770000457763672,28.079999923706055,28.079999923706055,186900
2019-03-12,28.15999984741211,28.81999969482422,27.760000228881836,28.110000610351562,28.110000610351562,76400
2019-03-13,28.280000686645508,28.450000762939453,27.020000457763672,28.3700008392334,28.3700008392334,123400
2019-03-14,28.399999618530273,28.700000762939453,28.149999618530273,28.31999969482422,28.31999969482422,173300
2019-03-15,28.3700008392334,29.18199920654297,28.309999465942383,28.989999771118164,28.989999771118164,82000
2019-03-18,29.100000381469727,30.100000381469727,28.834999084472656,29.899999618530273,29.899999618530273,129700
2019-03-19,30.0,30.979999542236328,29.510000228881836,30.06999969482422,30.06999969482422,340000
2019-03-20,30.059999465942383,30.469999313354492,29.700000762939453,30.040000915527344,30.040000915527344,132100
2019-03-21,29.84000015258789,30.0,29.34000015258789,29.93000030517578,29.93000030517578,39200
2019-03-22,29.700000762939453,29.829999923706055,29.003000259399414,29.110000610351562,29.110000610351562,65500
2019-03-25,29.079999923706055,29.100000381469727,27.900999069213867,28.219999313354492,28.219999313354492,109300
2019-03-26,28.260000228881836,28.32699966430664,27.25,27.709999084472656,27.709999084472656,91000
2019-03-27,27.690000534057617,28.209999084472656,27.290000915527344,28.06999969482422,28.06999969482422,105100
2019-03-28,28.06999969482422,28.389999389648438,27.059999465942383,27.729999542236328,27.729999542236328,70200
2019-03-29,27.93000030517578,29.84000015258789,27.81999969482422,29.510000228881836,29.510000228881836,116700
2019-04-01,29.719999313354492,30.969999313354492,29.356000900268555,30.610000610351562,30.610000610351562,378200
2019-04-02,30.770000457763672,30.950000762939453,30.0,30.459999084472656,30.459999084472656,61600
2019-04-03,30.65999984741211,31.049999237060547,30.510000228881836,30.610000610351562,30.610000610351562,67500
2019-04-04,31.010000228881836,31.399999618530273,30.799999237060547,31.170000076293945,31.170000076293945,133400
2019-04-05,31.3700008392334,31.93000030517578,31.18000030517578,31.479999542236328,31.479999542236328,108300
2019-04-08,31.469999313354492,31.988000869750977,30.860000610351562,31.829999923706055,31.829999923706055,273900
2019-04-09,31.799999237060547,31.989999771118164,31.25,31.459999084472656,31.459999084472656,98300
2019-04-10,31.579999923706055,32.74800109863281,31.18000030517578,32.43000030517578,32.43000030517578,117200
2019-04-11,32.459999084472656,32.5,31.420000076293945,31.600000381469727,31.600000381469727,126100
2019-04-12,31.8700008392334,31.90999984741211,30.920000076293945,31.34000015258789,31.34000015258789,92200
2019-04-15,31.3799991607666,31.3799991607666,30.738000869750977,31.030000686645508,31.030000686645508,99600
2019-04-16,31.100000381469727,31.450000762939453,29.780000686645508,29.8700008392334,29.8700008392334,250400
2019-04-17,29.969999313354492,29.969999313354492,28.520000457763672,28.68000030517578,28.68000030517578,144000
2019-04-18,28.8700008392334,29.43000030517578,28.31100082397461,29.3799991607666,29.3799991607666,116900
2019-04-22,29.350000381469727,30.18000030517578,29.190000534057617,29.459999084472656,29.459999084472656,104800
2019-04-23,29.399999618530273,30.3799991607666,29.15999984741211,30.260000228881836,30.260000228881836,110700
2019-04-24,30.389999389648438,30.389999389648438,28.700000762939453,29.059999465942383,29.059999465942383,152700
2019-04-25,28.899999618530273,29.059999465942383,28.010000228881836,28.40999984741211,28.40999984741211,126200
2019-04-26,28.709999084472656,28.709999084472656,27.871000289916992,28.18000030517578,28.18000030517578,138200
2019-04-29,28.25,28.479999542236328,27.34000015258789,27.520000457763672,27.520000457763672,190400
2019-04-30,27.459999084472656,27.489999771118164,26.489999771118164,26.649999618530273,26.649999618530273,126200
2019-05-01,26.709999084472656,27.035999298095703,25.469999313354492,26.049999237060547,26.049999237060547,147900
2019-05-02,25.0,26.049999237060547,23.415000915527344,25.729999542236328,25.729999542236328,514400
2019-05-03,26.649999618530273,27.0,25.3799991607666,26.3700008392334,26.3700008392334,1667700
2019-05-06,25.760000228881836,27.9950008392334,25.049999237060547,27.829999923706055,27.829999923706055,271200
2019-05-07,27.479999542236328,27.899999618530273,26.93000030517578,27.049999237060547,27.049999237060547,274400
2019-05-08,27.09000015258789,28.010000228881836,27.09000015258789,27.81999969482422,27.81999969482422,383000
2019-05-09,27.399999618530273,28.270000457763672,26.549999237060547,28.190000534057617,28.190000534057617,178200
2019-05-10,28.0,29.0,28.0,28.1299991607666,28.1299991607666,219700
2019-05-13,27.450000762939453,27.959999084472656,26.437000274658203,27.8799991607666,27.8799991607666,318100
2019-05-14,28.1200008392334,28.700000762939453,27.600000381469727,28.010000228881836,28.010000228881836,155800
2019-05-15,27.8700008392334,28.75,27.700000762939453,28.40999984741211,28.40999984741211,111800
2019-05-16,27.59000015258789,28.0,26.614999771118164,27.049999237060547,27.049999237060547,505800
2019-05-17,26.6200008392334,27.295000076293945,26.350000381469727,27.200000762939453,27.200000762939453,171400
2019-05-20,27.18000030517578,27.299999237060547,26.6299991607666,26.899999618530273,26.899999618530273,195600
2019-05-21,26.979999542236328,27.989999771118164,26.81999969482422,27.969999313354492,27.969999313354492,143000
2019-05-22,27.360000610351562,27.729999542236328,27.020000457763672,27.559999465942383,27.559999465942383,133900
2019-05-23,27.190000534057617,27.299999237060547,26.200000762939453,26.780000686645508,26.780000686645508,172400
2019-05-24,26.68000030517578,26.90999984741211,26.229999542236328,26.309999465942383,26.309999465942383,112800
2019-05-28,26.31999969482422,27.1200008392334,25.420000076293945,26.440000534057617,26.440000534057617,458900
2019-05-29,26.299999237060547,26.299999237060547,25.540000915527344,26.0,26.0,100000
2019-05-30,25.84000015258789,26.399999618530273,25.559999465942383,26.200000762939453,26.200000762939453,165700
2019-05-31,25.8799991607666,26.34000015258789,25.510000228881836,26.209999084472656,26.209999084472656,254600
2019-06-03,26.31999969482422,27.290000915527344,26.010000228881836,27.229999542236328,27.229999542236328,170100
2019-06-04,27.459999084472656,28.5,27.219999313354492,28.5,28.5,226100
2019-06-05,28.530000686645508,28.90999984741211,27.520000457763672,27.760000228881836,27.760000228881836,476400
2019-06-06,27.739999771118164,28.190000534057617,27.024999618530273,27.90999984741211,27.90999984741211,193400
2019-06-07,27.700000762939453,28.06999969482422,27.360000610351562,27.850000381469727,27.850000381469727,428100
2019-06-10,28.0,28.739999771118164,28.0,28.450000762939453,28.450000762939453,70900
2019-06-11,28.690000534057617,30.0,28.350000381469727,29.709999084472656,29.709999084472656,302600
2019-06-12,29.790000915527344,30.2189998626709,29.649999618530273,30.09000015258789,30.09000015258789,309800
2019-06-13,30.170000076293945,31.299999237060547,29.450000762939453,31.200000762939453,31.200000762939453,239200
2019-06-14,30.90999984741211,31.8700008392334,30.5,31.469999313354492,31.469999313354492,137200
2019-06-17,31.479999542236328,32.0,30.886999130249023,31.940000534057617,31.940000534057617,140100
2019-06-18,31.899999618530273,32.45000076293945,31.600000381469727,32.369998931884766,32.369998931884766,169300
2019-06-19,32.5,32.65999984741211,31.860000610351562,32.2400016784668,32.2400016784668,208900
2019-06-20,32.63999938964844,33.70000076293945,32.415000915527344,33.4900016784668,33.4900016784668,278700
2019-06-21,33.4900016784668,34.0,33.08000183105469,33.779998779296875,33.779998779296875,460100
2019-06-24,34.150001525878906,34.279998779296875,32.83000183105469,34.060001373291016,34.060001373291016,167000
2019-06-25,34.09000015258789,35.029998779296875,34.09000015258789,34.70000076293945,34.70000076293945,178000
2019-06-26,34.599998474121094,34.869998931884766,34.2400016784668,34.689998626708984,34.689998626708984,149500
2019-06-27,34.939998626708984,35.900001525878906,34.584999084472656,35.790000915527344,35.790000915527344,150900
2019-06-28,35.91999816894531,36.04999923706055,34.73500061035156,34.869998931884766,34.869998931884766,160100
2019-07-01,35.4900016784668,36.5,35.064998626708984,36.36000061035156,36.36000061035156,206000
2019-07-02,36.290000915527344,36.68000030517578,35.020999908447266,36.40999984741211,36.40999984741211,208500
2019-07-03,35.880001068115234,36.44499969482422,35.444000244140625,36.33000183105469,36.33000183105469,83900
2019-07-05,36.540000915527344,36.540000915527344,35.529998779296875,36.290000915527344,36.290000915527344,222600
2019-07-08,35.91999816894531,36.209999084472656,35.36000061035156,35.86000061035156,35.86000061035156,424000
2019-07-09,35.650001525878906,36.005001068115234,35.40999984741211,35.900001525878906,35.900001525878906,61100
2019-07-10,35.91999816894531,36.5,35.52000045776367,36.06999969482422,36.06999969482422,139100
2019-07-11,35.97999954223633,36.244998931884766,35.15999984741211,35.779998779296875,35.779998779296875,163200
2019-07-12,36.15999984741211,36.529998779296875,35.5,36.349998474121094,36.349998474121094,265000
2019-07-15,36.349998474121094,36.779998779296875,36.150001525878906,36.40999984741211,36.40999984741211,84200
2019-07-16,36.5,36.75,35.904998779296875,36.2400016784668,36.2400016784668,151900
2019-07-17,36.2599983215332,36.459999084472656,35.63999938964844,36.29999923706055,36.29999923706055,139100
2019-07-18,36.310001373291016,36.45000076293945,35.41999816894531,35.91999816894531,35.91999816894531,131300
2019-07-19,36.150001525878906,36.290000915527344,35.4900016784668,35.59000015258789,35.59000015258789,107800
2019-07-22,35.790000915527344,36.560001373291016,35.65999984741211,36.33000183105469,36.33000183105469,155200
2019-07-23,36.540000915527344,36.68000030517578,34.9900016784668,35.41999816894531,35.41999816894531,102300
2019-07-24,35.5,36.619998931884766,34.65999984741211,35.06999969482422,35.06999969482422,100600
2019-07-25,35.099998474121094,36.5099983215332,34.689998626708984,34.709999084472656,34.709999084472656,95600
2019-07-26,34.79999923706055,35.13999938964844,34.5,35.0099983215332,35.0099983215332,110200
2019-07-29,35.06999969482422,36.025001525878906,35.04499816894531,35.900001525878906,35.900001525878906,227700
2019-07-30,35.4900016784668,35.95500183105469,33.13999938964844,33.470001220703125,33.470001220703125,482900
2019-07-31,33.29999923706055,34.06999969482422,31.940000534057617,32.119998931884766,32.119998931884766,254600
2019-08-01,31.75,32.2599983215332,30.899999618530273,32.040000915527344,32.040000915527344,174200
2019-08-02,31.940000534057617,32.43000030517578,31.010000228881836,31.489999771118164,31.489999771118164,92200
2019-08-05,31.030000686645508,31.299999237060547,30.110000610351562,31.1200008392334,31.1200008392334,225100
2019-08-06,31.1200008392334,32.06999969482422,31.100000381469727,31.489999771118164,31.489999771118164,172700
2019-08-07,31.5,32.185001373291016,31.190000534057617,32.0,32.0,347400
2019-08-08,31.299999237060547,32.09000015258789,30.989999771118164,31.68000030517578,31.68000030517578,91400
2019-08-09,31.75,31.8700008392334,31.0,31.649999618530273,31.649999618530273,69400
2019-08-12,31.989999771118164,32.04999923706055,29.969999313354492,30.469999313354492,30.469999313354492,88500
2019-08-13,30.469999313354492,33.189998626708984,30.469999313354492,32.66999816894531,32.66999816894531,523400
2019-08-14,32.5,34.2599983215332,32.27000045776367,33.95000076293945,33.95000076293945,431200
2019-08-15,34.45000076293945,34.630001068115234,33.36000061035156,33.459999084472656,33.459999084472656,234000
2019-08-16,33.68000030517578,34.43000030517578,33.439998626708984,33.72999954223633,33.72999954223633,357200
2019-08-19,34.349998474121094,34.85499954223633,33.86000061035156,34.0099983215332,34.0099983215332,228700
2019-08-20,34.20000076293945,34.516998291015625,33.5,34.0099983215332,34.0099983215332,194300
2019-08-21,34.41999816894531,35.97999954223633,34.099998474121094,35.63999938964844,35.63999938964844,624100
2019-08-22,35.7400016784668,37.904998779296875,35.680999755859375,37.650001525878906,37.650001525878906,333000
2019-08-23,37.720001220703125,38.439998626708984,36.72999954223633,36.880001068115234,36.880001068115234,152700
2019-08-26,37.2599983215332,37.33000183105469,36.435001373291016,36.95000076293945,36.95000076293945,73400
2019-08-27,35.970001220703125,35.970001220703125,33.22999954223633,34.209999084472656,34.209999084472656,398500
2019-08-28,33.38999938964844,34.709999084472656,32.7400016784668,33.130001068115234,33.130001068115234,210500
2019-08-29,33.40999984741211,34.470001220703125,31.450000762939453,32.189998626708984,32.189998626708984,245200
2019-08-30,32.040000915527344,33.0,31.700000762939453,32.61000061035156,32.61000061035156,109400
2019-09-03,32.529998779296875,34.40999984741211,31.961999893188477,32.540000915527344,32.540000915527344,268500
2019-09-04,33.650001525878906,33.689998626708984,32.650001525878906,33.18000030517578,33.18000030517578,169600
2019-09-05,33.2400016784668,33.77000045776367,33.06999969482422,33.70000076293945,33.70000076293945,165900
2019-09-06,33.11000061035156,35.279998779296875,32.58000183105469,34.36000061035156,34.36000061035156,294500
2019-09-09,34.02000045776367,35.599998474121094,34.02000045776367,35.5,35.5,264000
2019-09-10,35.29999923706055,36.47999954223633,34.75,34.88999938964844,34.88999938964844,287400
2019-09-11,35.0,36.2400016784668,34.810001373291016,35.58000183105469,35.58000183105469,143500
2019-09-12,35.400001525878906,35.88999938964844,33.58000183105469,33.79999923706055,33.79999923706055,111600
2019-09-13,33.86000061035156,34.439998626708984,33.43000030517578,33.95000076293945,33.95000076293945,133700
2019-09-16,33.84000015258789,34.61000061035156,33.70000076293945,34.25,34.25,82600
2019-09-17,34.189998626708984,35.130001068115234,33.79999923706055,34.90999984741211,34.90999984741211,98700
2019-09-18,34.88999938964844,35.15999984741211,33.77399826049805,34.380001068115234,34.380001068115234,113600
2019-09-19,34.40999984741211,34.959999084472656,34.25,34.33000183105469,34.33000183105469,82100
2019-09-20,34.400001525878906,35.040000915527344,33.46699905395508,34.810001373291016,34.810001373291016,272900
2019-09-23,34.599998474121094,35.31999969482422,34.33000183105469,34.56999969482422,34.56999969482422,104600
2019-09-24,34.540000915527344,34.560001373291016,32.54999923706055,33.22999954223633,33.22999954223633,122100
2019-09-25,33.16999816894531,33.54600143432617,32.779998779296875,33.189998626708984,33.189998626708984,109900
2019-09-26,32.939998626708984,33.5,32.5,33.31999969482422,33.31999969482422,81900
2019-09-27,33.2400016784668,33.5,31.5,31.850000381469727,31.850000381469727,267100
2019-09-30,32.349998474121094,32.84000015258789,32.11000061035156,32.349998474121094,32.349998474121094,146400
2019-10-01,32.11000061035156,33.189998626708984,32.11000061035156,32.599998474121094,32.599998474121094,142200
2019-10-02,32.70000076293945,32.70000076293945,30.719999313354492,31.139999389648438,31.139999389648438,79000
2019-10-03,31.299999237060547,32.119998931884766,31.09000015258789,32.04999923706055,32.04999923706055,106900
2019-10-04,32.0099983215332,32.90999984741211,31.530000686645508,32.560001373291016,32.560001373291016,76000
2019-10-07,32.68000030517578,32.70000076293945,31.530000686645508,31.8799991607666,31.8799991607666,112900
2019-10-08,31.399999618530273,32.220001220703125,31.399999618530273,31.81999969482422,31.81999969482422,121100
2019-10-09,32.16999816894531,32.40999984741211,30.850000381469727,31.030000686645508,31.030000686645508,75200
2019-10-10,31.010000228881836,32.65999984741211,30.850000381469727,32.470001220703125,32.470001220703125,174900
2019-10-11,32.5,32.97999954223633,31.510000228881836,32.5,32.5,93900
2019-10-14,32.41999816894531,34.08000183105469,32.07500076293945,33.43000030517578,33.43000030517578,144500
2019-10-15,33.689998626708984,34.361000061035156,33.0099983215332,33.7599983215332,33.7599983215332,110000
2019-10-16,33.470001220703125,33.79999923706055,32.84000015258789,33.25,33.25,144300
2019-10-17,33.439998626708984,34.505001068115234,33.064998626708984,34.119998931884766,34.119998931884766,177300
2019-10-18,34.22999954223633,34.470001220703125,33.36000061035156,34.040000915527344,34.040000915527344,94500
2019-10-21,34.279998779296875,34.459999084472656,32.63999938964844,32.83000183105469,32.83000183105469,197800
2019-10-22,32.75,33.130001068115234,30.520000457763672,30.530000686645508,30.530000686645508,228800
2019-10-23,31.0,31.079999923706055,29.43000030517578,29.790000915527344,29.790000915527344,228100
2019-10-24,30.010000228881836,30.8799991607666,30.010000228881836,30.65999984741211,30.65999984741211,150600
2019-10-25,30.729999542236328,32.29999923706055,30.31999969482422,32.2599983215332,32.2599983215332,297500
2019-10-28,32.2599983215332,32.970001220703125,32.209999084472656,32.52000045776367,32.52000045776367,72900
2019-10-29,32.650001525878906,33.5,32.61000061035156,33.29999923706055,33.29999923706055,94800
2019-10-30,33.380001068115234,34.279998779296875,32.6510009765625,34.09000015258789,34.09000015258789,132700
2019-10-31,33.95000076293945,34.97999954223633,33.38800048828125,33.790000915527344,33.790000915527344,192900
2019-11-01,35.9900016784668,36.95000076293945,35.0099983215332,35.59000015258789,35.59000015258789,381400
2019-11-04,35.65999984741211,36.11000061035156,35.34000015258789,35.97999954223633,35.97999954223633,116400
2019-11-05,35.9900016784668,36.93000030517578,35.65999984741211,36.790000915527344,36.790000915527344,124900
2019-11-06,36.880001068115234,37.02000045776367,36.31999969482422,36.97999954223633,36.97999954223633,175700
2019-11-07,37.0,37.67499923706055,36.70000076293945,37.33000183105469,37.33000183105469,131500
2019-11-08,37.15999984741211,38.354000091552734,37.08000183105469,37.599998474121094,37.599998474121094,106700
2019-11-11,37.36000061035156,39.4900016784668,37.2599983215332,39.400001525878906,39.400001525878906,193400
2019-11-12,39.709999084472656,40.369998931884766,38.064998626708984,38.59000015258789,38.59000015258789,393800
2019-11-13,38.47999954223633,39.18000030517578,38.47999954223633,38.66999816894531,38.66999816894531,154400
2019-11-14,38.34000015258789,39.41999816894531,38.34000015258789,38.93000030517578,38.93000030517578,141300
2019-11-15,39.209999084472656,39.22200012207031,38.47999954223633,38.93000030517578,38.93000030517578,100600
2019-11-18,38.801998138427734,39.2400016784668,38.45000076293945,38.7400016784668,38.7400016784668,107700
2019-11-19,38.9900016784668,39.72999954223633,38.439998626708984,38.61000061035156,38.61000061035156,221400
2019-11-20,38.599998474121094,39.28499984741211,38.40999984741211,38.88999938964844,38.88999938964844,396000
2019-11-21,38.900001525878906,39.220001220703125,38.27000045776367,38.47999954223633,38.47999954223633,117800
2019-11-22,38.72999954223633,39.959999084472656,37.54999923706055,38.150001525878906,38.150001525878906,390600
2019-11-25,38.15999984741211,39.220001220703125,37.9900016784668,38.150001525878906,38.150001525878906,211700
2019-11-26,38.189998626708984,39.20000076293945,37.72999954223633,38.720001220703125,38.720001220703125,117200
2019-11-27,38.130001068115234,39.52000045776367,38.119998931884766,38.86000061035156,38.86000061035156,64000
2019-11-29,38.470001220703125,40.0099983215332,38.29999923706055,39.79999923706055,39.79999923706055,94500
2019-12-02,40.0,40.20000076293945,39.029998779296875,39.880001068115234,39.880001068115234,103100
2019-12-03,39.77000045776367,40.5099983215332,39.54999923706055,40.5099983215332,40.5099983215332,153600
2019-12-04,40.290000915527344,40.97999954223633,39.619998931884766,40.849998474121094,40.849998474121094,163700
2019-12-05,41.0,42.220001220703125,40.849998474121094,41.15999984741211,41.15999984741211,169200
2019-12-06,41.709999084472656,41.77000045776367,40.189998626708984,41.279998779296875,41.279998779296875,158100
2019-12-09,42.0,42.849998474121094,41.5099983215332,42.09000015258789,42.09000015258789,173800
2019-12-10,42.5099983215332,42.560001373291016,40.5099983215332,41.900001525878906,41.900001525878906,242600
2019-12-11,42.08000183105469,42.68000030517578,41.369998931884766,41.900001525878906,41.900001525878906,157500
2019-12-12,41.79999923706055,43.290000915527344,41.79999923706055,43.029998779296875,43.029998779296875,133100
2019-12-13,43.22999954223633,43.244998931884766,42.54999923706055,43.060001373291016,43.060001373291016,236600
2019-12-16,43.130001068115234,44.060001373291016,40.040000915527344,40.459999084472656,40.459999084472656,291100
2019-12-17,40.20000076293945,40.5,39.43000030517578,40.130001068115234,40.130001068115234,233700
2019-12-18,40.29999923706055,41.349998474121094,39.5,39.720001220703125,39.720001220703125,137800
2019-12-19,39.93000030517578,39.93000030517578,38.82500076293945,39.560001373291016,39.560001373291016,175100
2019-12-20,39.689998626708984,39.689998626708984,38.6349983215332,39.0,39.0,215000
2019-12-23,39.2599983215332,39.349998474121094,38.18000030517578,39.20000076293945,39.20000076293945,149200
2019-12-24,38.90999984741211,39.560001373291016,38.61000061035156,38.869998931884766,38.869998931884766,64100
2019-12-26,39.0,39.0,38.060001373291016,38.22999954223633,38.22999954223633,154100
2019-12-27,42.0,42.08000183105469,39.720001220703125,40.25,40.25,353600
2019-12-30,42.0,42.0,39.54999923706055,40.41999816894531,40.41999816894531,335500
2019-12-31,40.0,42.08000183105469,39.849998474121094,41.59000015258789,41.59000015258789,226600
2020-01-02,41.75,42.68000030517578,41.53499984741211,42.619998931884766,42.619998931884766,113900
2020-01-03,42.0,42.43000030517578,39.16999816894531,39.63999938964844,39.63999938964844,184000
2020-01-06,39.0099983215332,40.290000915527344,38.74700164794922,39.099998474121094,39.099998474121094,114600
2020-01-07,38.810001373291016,39.7400016784668,38.641998291015625,39.349998474121094,39.349998474121094,130100
2020-01-08,38.72999954223633,40.08000183105469,38.72999954223633,39.52000045776367,39.52000045776367,107800
2020-01-09,39.529998779296875,40.97999954223633,39.529998779296875,40.75,40.75,79000
2020-01-10,40.83000183105469,41.619998931884766,40.650001525878906,41.43000030517578,41.43000030517578,462400
2020-01-13,41.869998931884766,43.93000030517578,41.2599983215332,43.52000045776367,43.52000045776367,348300
2020-01-14,43.529998779296875,48.2400016784668,43.529998779296875,48.13999938964844,48.13999938964844,419100
2020-01-15,47.470001220703125,52.43000030517578,47.40999984741211,51.7400016784668,51.7400016784668,473700
2020-01-16,50.20000076293945,51.7400016784668,48.28499984741211,51.65999984741211,51.65999984741211,626900
2020-01-17,51.790000915527344,53.47999954223633,51.22999954223633,53.099998474121094,53.099998474121094,412400
2020-01-21,52.119998931884766,53.47999954223633,51.029998779296875,52.13999938964844,52.13999938964844,336000
2020-01-22,51.75,51.810001373291016,47.720001220703125,48.47999954223633,48.47999954223633,708400
2020-01-23,51.75,54.720001220703125,51.040000915527344,54.63999938964844,54.63999938964844,1984100
2020-01-24,54.63999938964844,55.529998779296875,53.689998626708984,54.7400016784668,54.7400016784668,586000
2020-01-27,53.08000183105469,54.97999954223633,52.040000915527344,54.11000061035156,54.11000061035156,992800
2020-01-28,53.810001373291016,55.529998779296875,53.630001068115234,55.310001373291016,55.310001373291016,365300
2020-01-29,55.02000045776367,55.150001525878906,53.2599983215332,54.529998779296875,54.529998779296875,183500
2020-01-30,53.97999954223633,54.209999084472656,50.47999954223633,51.599998474121094,51.599998474121094,743300
2020-01-31,51.470001220703125,53.3489990234375,50.790000915527344,50.9900016784668,50.9900016784668,237500
2020-02-03,50.65999984741211,51.4900016784668,50.41699981689453,50.58000183105469,50.58000183105469,2133600
2020-02-04,51.70000076293945,52.95000076293945,50.16999816894531,52.5,52.5,244300
2020-02-05,52.63999938964844,53.459999084472656,51.79999923706055,53.060001373291016,53.060001373291016,216100
2020-02-06,53.06999969482422,54.750999450683594,52.970001220703125,54.20000076293945,54.20000076293945,205200
2020-02-07,54.02000045776367,55.58000183105469,53.540000915527344,55.52000045776367,55.52000045776367,217700
2020-02-10,55.119998931884766,58.47999954223633,55.025001525878906,58.29999923706055,58.29999923706055,460200
2020-02-11,57.06999969482422,58.630001068115234,57.06999969482422,58.400001525878906,58.400001525878906,340600
2020-02-12,58.939998626708984,59.810001373291016,58.08000183105469,59.689998626708984,59.689998626708984,564900
2020-02-13,59.720001220703125,61.56999969482422,58.619998931884766,61.40999984741211,61.40999984741211,444600
2020-02-14,61.77000045776367,62.63999938964844,60.16999816894531,60.529998779296875,60.529998779296875,306500
2020-02-18,60.20000076293945,61.61000061035156,60.20000076293945,61.099998474121094,61.099998474121094,258300
2020-02-19,61.22999954223633,63.27000045776367,61.11000061035156,62.900001525878906,62.900001525878906,333100
2020-02-20,63.0099983215332,63.95000076293945,61.459999084472656,62.810001373291016,62.810001373291016,276400
2020-02-21,63.18000030517578,63.29999923706055,58.77000045776367,59.119998931884766,59.119998931884766,305300
2020-02-24,55.33000183105469,57.459999084472656,54.0,56.029998779296875,56.029998779296875,485100
2020-02-25,57.27000045776367,58.70000076293945,54.939998626708984,55.31999969482422,55.31999969482422,459200
2020-02-26,54.91999816894531,58.220001220703125,54.290000915527344,57.81999969482422,57.81999969482422,641300
2020-02-27,56.4900016784668,57.83000183105469,54.029998779296875,55.9900016784668,55.9900016784668,556200
2020-02-28,54.060001373291016,56.97999954223633,53.470001220703125,54.970001220703125,54.970001220703125,4320900
2020-03-02,55.54999923706055,57.09000015258789,55.15999984741211,56.22999954223633,56.22999954223633,621400
2020-03-03,56.459999084472656,59.97999954223633,56.459999084472656,58.09000015258789,58.09000015258789,585200
2020-03-04,58.79999923706055,60.01900100708008,56.02000045776367,56.90999984741211,56.90999984741211,513900
2020-03-05,56.18000030517578,57.814998626708984,55.76100158691406,56.029998779296875,56.029998779296875,281300
2020-03-06,55.88999938964844,56.779998779296875,53.0,53.560001373291016,53.560001373291016,245000
2020-03-09,50.119998931884766,52.939998626708984,45.279998779296875,52.38999938964844,52.38999938964844,412700
2020-03-10,52.9900016784668,54.93000030517578,51.15999984741211,52.810001373291016,52.810001373291016,372400
2020-03-11,51.18000030517578,52.34000015258789,49.040000915527344,50.130001068115234,50.130001068115234,364700
2020-03-12,46.689998626708984,47.66999816894531,44.06999969482422,44.939998626708984,44.939998626708984,470900
2020-03-13,46.97999954223633,51.95000076293945,46.81999969482422,51.68000030517578,51.68000030517578,739200
2020-03-16,46.34000015258789,47.0,43.060001373291016,44.540000915527344,44.540000915527344,375000
2020-03-17,45.29999923706055,52.5099983215332,44.72999954223633,51.56999969482422,51.56999969482422,501900
2020-03-18,49.09000015258789,51.349998474121094,47.060001373291016,48.650001525878906,48.650001525878906,776800
2020-03-19,50.31999969482422,51.9900016784668,46.185001373291016,49.63999938964844,49.63999938964844,368100
2020-03-20,51.279998779296875,51.66999816894531,48.0,48.04999923706055,48.04999923706055,461900
2020-03-23,48.849998474121094,49.15999984741211,44.77000045776367,48.470001220703125,48.470001220703125,346400
2020-03-24,51.59000015258789,52.0,48.720001220703125,51.029998779296875,51.029998779296875,230700
2020-03-25,51.34000015258789,53.36000061035156,50.029998779296875,51.45000076293945,51.45000076293945,420700
2020-03-26,51.43000030517578,52.790000915527344,49.0,52.59000015258789,52.59000015258789,431200
2020-03-27,51.0,51.70500183105469,49.5,50.959999084472656,50.959999084472656,415400
2020-03-30,51.529998779296875,53.09000015258789,50.74800109863281,52.970001220703125,52.970001220703125,228000
2020-03-31,53.25,53.29999923706055,50.17499923706055,51.47999954223633,51.47999954223633,257800
2020-04-01,50.06999969482422,51.90999984741211,47.75,48.81999969482422,48.81999969482422,316200
2020-04-02,49.290000915527344,51.97999954223633,49.290000915527344,51.4900016784668,51.4900016784668,492400
2020-04-03,51.47999954223633,55.0,50.0,51.54999923706055,51.54999923706055,218000
2020-04-06,53.16999816894531,53.16999816894531,51.869998931884766,52.439998626708984,52.439998626708984,183000
2020-04-07,54.279998779296875,54.5,51.0099983215332,51.36000061035156,51.36000061035156,338600
2020-04-08,53.36000061035156,55.900001525878906,51.400001525878906,55.11000061035156,55.11000061035156,391500
2020-04-09,56.33000183105469,59.93000030517578,56.33000183105469,59.91999816894531,59.91999816894531,494700
2020-04-13,60.0,60.31999969482422,57.130001068115234,58.060001373291016,58.060001373291016,327200
2020-04-14,60.0,60.400001525878906,58.04999923706055,59.599998474121094,59.599998474121094,354300
2020-04-15,59.09000015258789,59.97999954223633,58.01499938964844,59.79999923706055,59.79999923706055,374500
2020-04-16,60.0,63.025001525878906,60.0,62.290000915527344,62.290000915527344,347400
2020-04-17,62.0,63.5,61.29999923706055,63.470001220703125,63.470001220703125,162800
2020-04-20,63.369998931884766,66.29000091552734,62.224998474121094,64.9000015258789,64.9000015258789,317700
2020-04-21,64.55999755859375,64.55999755859375,61.0,62.400001525878906,62.400001525878906,280900
2020-04-22,62.959999084472656,65.0,62.5,64.69999694824219,64.69999694824219,422000
2020-04-23,66.12999725341797,66.90499877929688,64.55500030517578,65.80000305175781,65.80000305175781,345700
2020-04-24,66.19000244140625,66.66999816894531,62.900001525878906,63.45000076293945,63.45000076293945,314800
2020-04-27,64.1500015258789,65.70999908447266,63.869998931884766,64.55000305175781,64.55000305175781,220900
2020-04-28,65.55000305175781,66.0,62.779998779296875,63.61000061035156,63.61000061035156,262500
2020-04-29,63.70000076293945,66.0,63.130001068115234,64.6500015258789,64.6500015258789,401600
2020-04-30,64.0,64.58999633789062,61.2400016784668,62.720001220703125,62.720001220703125,349100
2020-05-01,60.0099983215332,60.915000915527344,58.59000015258789,60.41999816894531,60.41999816894531,232800
2020-05-04,60.130001068115234,61.915000915527344,59.91999816894531,61.900001525878906,61.900001525878906,196400
2020-05-05,61.060001373291016,62.83000183105469,61.060001373291016,61.5,61.5,209500
2020-05-06,61.0,64.56999969482422,61.0,64.0,64.0,237600
2020-05-07,65.2699966430664,65.60700225830078,64.0199966430664,64.80999755859375,64.80999755859375,196900
2020-05-08,65.9000015258789,66.52999877929688,65.19999694824219,65.9800033569336,65.9800033569336,185800
2020-05-11,65.80999755859375,70.6500015258789,65.69000244140625,69.9800033569336,69.9800033569336,314100
2020-05-12,71.87000274658203,71.9800033569336,69.2699966430664,69.33999633789062,69.33999633789062,229000
2020-05-13,70.56999969482422,72.52999877929688,69.55000305175781,70.69999694824219,70.69999694824219,504900
2020-05-14,70.01000213623047,70.98999786376953,63.849998474121094,64.48999786376953,64.48999786376953,629100
2020-05-15,64.44000244140625,70.37000274658203,63.779998779296875,70.2699966430664,70.2699966430664,403700
2020-05-18,71.91000366210938,73.9800033569336,71.0199966430664,73.37000274658203,73.37000274658203,524100
2020-05-19,72.61000061035156,76.38500213623047,72.3550033569336,76.05000305175781,76.05000305175781,612600
2020-05-20,75.56999969482422,75.95999908447266,71.55999755859375,72.04000091552734,72.04000091552734,531700
2020-05-21,71.48999786376953,71.48999786376953,66.9000015258789,67.75,67.75,412000
2020-05-22,67.29000091552734,67.36399841308594,62.88999938964844,63.5,63.5,471500
2020-05-26,64.61000061035156,69.05999755859375,64.39099884033203,67.66000366210938,67.66000366210938,1046500
2020-05-27,67.87000274658203,68.91000366210938,66.41000366210938,67.44000244140625,67.44000244140625,597400
2020-05-28,67.8499984741211,69.9800033569336,67.44000244140625,68.36000061035156,68.36000061035156,473100
2020-05-29,69.25,75.66999816894531,69.12999725341797,74.4000015258789,74.4000015258789,2478100
2020-06-01,74.27999877929688,74.94999694824219,73.16999816894531,74.01000213623047,74.01000213623047,392000
2020-06-02,75.80000305175781,76.18000030517578,72.62000274658203,76.0,76.0,468100
2020-06-03,75.56999969482422,75.56999969482422,71.29000091552734,73.13999938964844,73.13999938964844,603100
2020-06-04,71.4000015258789,73.8499984741211,70.76000213623047,71.72000122070312,71.72000122070312,578900
2020-06-05,72.0,72.61000061035156,69.80999755859375,70.12000274658203,70.12000274658203,501400
2020-06-08,69.12000274658203,71.98999786376953,67.87999725341797,68.25,68.25,395700
2020-06-09,68.52999877929688,74.5,68.52999877929688,74.05999755859375,74.05999755859375,676700
2020-06-10,72.62000274658203,75.01000213623047,70.77400207519531,72.62000274658203,72.62000274658203,427200
2020-06-11,71.19999694824219,72.45999908447266,67.95999908447266,68.98999786376953,68.98999786376953,461300
2020-06-12,70.0199966430664,71.16000366210938,68.0,69.0,69.0,355900
2020-06-15,67.51000213623047,73.9800033569336,67.51000213623047,73.37000274658203,73.37000274658203,671900
2020-06-16,74.04000091552734,74.53800201416016,70.22000122070312,72.25,72.25,304600
2020-06-17,72.22000122070312,76.66000366210938,72.22000122070312,75.73999786376953,75.73999786376953,557600
2020-06-18,75.75,76.52999877929688,75.02999877929688,75.87999725341797,75.87999725341797,293000
2020-06-19,77.0,82.0999984741211,76.0999984741211,80.8499984741211,80.8499984741211,1559500
2020-06-22,80.8499984741211,82.1500015258789,77.5199966430664,78.69000244140625,78.69000244140625,422300
2020-06-23,80.20999908447266,83.20999908447266,78.16000366210938,78.37999725341797,78.37999725341797,469900
2020-06-24,77.33000183105469,80.66999816894531,77.33000183105469,78.58999633789062,78.58999633789062,288200
2020-06-25,78.30000305175781,80.9000015258789,78.19999694824219,80.05000305175781,80.05000305175781,311800
2020-06-26,80.55000305175781,83.87000274658203,79.77999877929688,80.98999786376953,80.98999786376953,461500
2020-06-29,80.19999694824219,82.82499694824219,79.30999755859375,82.52999877929688,82.52999877929688,300600
2020-06-30,82.33999633789062,83.06999969482422,80.30999755859375,82.12999725341797,82.12999725341797,313500
2020-07-01,81.04000091552734,81.23999786376953,78.80000305175781,79.69999694824219,79.69999694824219,365900
2020-07-02,81.4800033569336,83.97000122070312,81.02999877929688,81.0999984741211,81.0999984741211,285700
2020-07-06,81.33000183105469,82.69999694824219,79.54000091552734,82.30000305175781,82.30000305175781,436000
2020-07-07,82.5999984741211,86.20999908447266,82.5999984741211,82.80999755859375,82.80999755859375,407800
2020-07-08,83.0,87.12000274658203,82.41000366210938,86.87000274658203,86.87000274658203,317200
2020-07-09,86.79000091552734,89.4800033569336,85.52999877929688,89.4800033569336,89.4800033569336,511300
2020-07-10,88.0999984741211,89.1500015258789,85.30000305175781,86.97000122070312,86.97000122070312,461400
2020-07-13,86.0999984741211,88.79000091552734,84.66000366210938,85.04000091552734,85.04000091552734,416300
2020-07-14,85.36000061035156,86.69499969482422,81.3550033569336,85.68000030517578,85.68000030517578,394400
2020-07-15,84.41999816894531,86.7699966430664,84.41999816894531,85.95999908447266,85.95999908447266,266800
2020-07-16,84.5199966430664,85.0,82.0199966430664,83.51000213623047,83.51000213623047,372300
2020-07-17,82.58000183105469,84.2699966430664,82.0199966430664,83.66000366210938,83.66000366210938,251800
2020-07-20,83.0199966430664,86.73999786376953,82.52999877929688,84.44000244140625,84.44000244140625,227900
2020-07-21,85.31999969482422,85.55000305175781,81.02999877929688,81.61000061035156,81.61000061035156,230300
2020-07-22,80.62999725341797,82.22000122070312,80.58999633789062,81.44999694824219,81.44999694824219,206200
2020-07-23,82.25,82.69000244140625,78.31999969482422,78.4800033569336,78.4800033569336,361100
2020-07-24,75.7699966430664,76.5,74.0199966430664,76.0199966430664,76.0199966430664,282900
2020-07-27,75.36000061035156,77.51899719238281,75.36000061035156,76.44000244140625,76.44000244140625,274700
2020-07-28,76.88999938964844,76.88999938964844,74.0199966430664,74.3499984741211,74.3499984741211,235000
2020-07-29,72.94999694824219,75.37999725341797,71.79000091552734,74.87999725341797,74.87999725341797,318000
2020-07-30,74.70999908447266,76.51000213623047,74.2750015258789,75.16000366210938,75.16000366210938,272400
2020-07-31,74.33000183105469,76.9800033569336,74.33000183105469,76.11000061035156,76.11000061035156,247400
2020-08-03,76.01000213623047,80.55999755859375,76.01000213623047,80.25,80.25,257500
2020-08-04,81.5,82.94000244140625,78.66999816894531,80.0,80.0,285400
2020-08-05,80.0,82.02999877929688,80.0,81.19999694824219,81.19999694824219,128300
2020-08-06,82.20999908447266,82.68000030517578,80.6050033569336,81.27999877929688,81.27999877929688,166400
2020-08-07,78.02999877929688,81.93000030517578,77.37999725341797,80.3499984741211,80.3499984741211,446900
2020-08-10,79.33000183105469,80.19499969482422,78.08000183105469,79.6500015258789,79.6500015258789,574000
2020-08-11,79.05999755859375,79.6500015258789,75.77999877929688,78.27999877929688,78.27999877929688,431500
2020-08-12,76.94000244140625,80.01000213623047,76.94000244140625,79.6500015258789,79.6500015258789,604600
2020-08-13,82.80999755859375,82.80999755859375,80.25,81.29000091552734,81.29000091552734,376900
2020-08-14,80.75,81.48999786376953,79.0199966430664,79.52999877929688,79.52999877929688,329300
2020-08-17,75.5,82.5,75.5,82.5,82.5,328600
2020-08-18,83.0,83.98999786376953,81.25,81.5199966430664,81.5199966430664,181500
2020-08-19,81.11000061035156,83.38999938964844,80.18000030517578,80.25,80.25,235100
2020-08-20,81.88999938964844,81.88999938964844,79.04000091552734,79.9800033569336,79.9800033569336,317500
2020-08-21,80.3499984741211,80.91999816894531,79.41999816894531,80.37000274658203,80.37000274658203,207600
2020-08-24,81.7699966430664,81.7699966430664,79.33999633789062,80.27999877929688,80.27999877929688,754500
2020-08-25,80.06999969482422,82.01000213623047,79.93499755859375,81.94000244140625,81.94000244140625,320700
2020-08-26,82.27999877929688,86.0,82.27999877929688,83.37000274658203,83.37000274658203,387500
2020-08-27,83.69999694824219,84.40499877929688,80.01000213623047,80.44999694824219,80.44999694824219,299600
2020-08-28,81.23999786376953,81.88999938964844,80.0,81.43000030517578,81.43000030517578,214800
2020-08-31,79.6500015258789,81.37000274658203,78.51000213623047,79.37000274658203,79.37000274658203,493500
2020-09-01,80.9800033569336,81.37000274658203,79.69000244140625,81.05999755859375,81.05999755859375,274300
2020-09-02,80.29000091552734,82.05999755859375,80.29000091552734,81.88999938964844,81.88999938964844,272800
2020-09-03,82.05000305175781,82.05000305175781,77.87999725341797,78.30000305175781,78.30000305175781,280100
2020-09-04,78.30000305175781,79.12999725341797,76.19999694824219,77.91000366210938,77.91000366210938,311700
2020-09-08,76.05999755859375,77.93000030517578,74.80999755859375,76.2699966430664,76.2699966430664,366600
2020-09-09,77.44000244140625,79.13999938964844,76.85099792480469,78.5,78.5,212300
2020-09-10,79.01000213623047,80.44499969482422,72.41999816894531,74.0,74.0,610000
2020-09-11,74.58000183105469,76.04000091552734,74.54000091552734,75.16999816894531,75.16999816894531,331500
2020-09-14,76.1500015258789,78.61000061035156,76.1500015258789,77.41999816894531,77.41999816894531,199300
2020-09-15,78.51000213623047,79.08999633789062,77.37000274658203,78.80000305175781,78.80000305175781,179300
2020-09-16,79.44999694824219,83.8499984741211,79.44999694824219,82.61000061035156,82.61000061035156,301300
2020-09-17,82.2699966430664,82.61000061035156,80.0199966430664,80.83000183105469,80.83000183105469,350100
2020-09-18,80.88999938964844,81.81999969482422,77.81999969482422,79.2699966430664,79.2699966430664,658200
2020-09-21,77.51000213623047,77.55999755859375,72.76000213623047,73.30000305175781,73.30000305175781,390800
2020-09-22,73.4000015258789,76.1500015258789,73.4000015258789,76.02999877929688,76.02999877929688,637600
2020-09-23,75.88999938964844,76.80999755859375,74.94000244140625,76.62000274658203,76.62000274658203,339400
2020-09-24,76.30000305175781,77.9800033569336,74.25,77.12000274658203,77.12000274658203,310800
2020-09-25,76.5999984741211,81.33000183105469,75.41000366210938,79.33000183105469,79.33000183105469,750800
2020-09-28,81.58000183105469,83.93000030517578,79.6449966430664,82.72000122070312,82.72000122070312,2570300
2020-09-29,83.30999755859375,83.62999725341797,81.19999694824219,82.58999633789062,82.58999633789062,494100
2020-09-30,82.3499984741211,83.29000091552734,81.69999694824219,83.16999816894531,83.16999816894531,272400
2020-10-01,84.26000213623047,87.37999725341797,83.4749984741211,87.37999725341797,87.37999725341797,387500
2020-10-02,86.29000091552734,87.9990005493164,83.80999755859375,84.54000091552734,84.54000091552734,193700
2020-10-05,84.55000305175781,86.26799774169922,83.06999969482422,84.61000061035156,84.61000061035156,421500
2020-10-06,84.9000015258789,88.68000030517578,84.61000061035156,85.08000183105469,85.08000183105469,209500
2020-10-07,86.23999786376953,90.69999694824219,85.98999786376953,90.52999877929688,90.52999877929688,315100
2020-10-08,91.33999633789062,93.31999969482422,90.08999633789062,91.80000305175781,91.80000305175781,270600
2020-10-09,92.0,94.0,91.02999877929688,93.0,93.0,258800
2020-10-12,94.11000061035156,94.5999984741211,91.52999877929688,91.97000122070312,91.97000122070312,166400
2020-10-13,92.16000366210938,95.51499938964844,91.3949966430664,91.94000244140625,91.94000244140625,286900
2020-10-14,92.62000274658203,94.1500015258789,90.58999633789062,91.0,91.0,311000
2020-10-15,89.66999816894531,90.73999786376953,86.63999938964844,88.33000183105469,88.33000183105469,180100
2020-10-16,88.94000244140625,91.375,88.37999725341797,90.44000244140625,90.44000244140625,281200
2020-10-19,90.5,90.87999725341797,86.94999694824219,87.47000122070312,87.47000122070312,217100
2020-10-20,88.05000305175781,89.9000015258789,86.69999694824219,87.54000091552734,87.54000091552734,169400
2020-10-21,87.0,89.29000091552734,84.73999786376953,85.08999633789062,85.08999633789062,364000
2020-10-22,85.0,86.98999786376953,83.38999938964844,86.69000244140625,86.69000244140625,235600
2020-10-23,86.79000091552734,87.4000015258789,84.44999694824219,87.19999694824219,87.19999694824219,159800
2020-10-26,86.51000213623047,89.00499725341797,83.81999969482422,85.2300033569336,85.2300033569336,194300
2020-10-27,85.69000244140625,88.9000015258789,85.69000244140625,88.48999786376953,88.48999786376953,889900
2020-10-28,87.41999816894531,87.7300033569336,83.29000091552734,84.5,84.5,361700
2020-10-29,85.45999908447266,85.58999633789062,82.54000091552734,84.20999908447266,84.20999908447266,203000
2020-10-30,83.69000244140625,84.13999938964844,80.45999908447266,82.05000305175781,82.05000305175781,225100
2020-11-02,82.55000305175781,83.7300033569336,80.87000274658203,81.94000244140625,81.94000244140625,271700
2020-11-03,83.2300033569336,84.73999786376953,81.41999816894531,84.5999984741211,84.5999984741211,230500
2020-11-04,85.0,88.70999908447266,84.72000122070312,88.3499984741211,88.3499984741211,354600
2020-11-05,87.80999755859375,90.16999816894531,87.80999755859375,88.69999694824219,88.69999694824219,288000
2020-11-06,88.63999938964844,88.98999786376953,87.02999877929688,88.05000305175781,88.05000305175781,220300
2020-11-09,88.0,89.74500274658203,82.55000305175781,88.12000274658203,88.12000274658203,652800
2020-11-10,85.7300033569336,87.08000183105469,83.5199966430664,86.08000183105469,86.08000183105469,398300
2020-11-11,96.7300033569336,101.0,93.0,98.4000015258789,98.4000015258789,1158800
2020-11-12,98.0,100.76000213623047,96.33399963378906,99.0,99.0,412600
2020-11-13,99.4800033569336,104.44999694824219,99.4800033569336,103.5,103.5,509600
2020-11-16,104.66000366210938,105.37899780273438,103.3499984741211,105.13999938964844,105.13999938964844,381300
2020-11-17,102.95999908447266,104.19000244140625,102.09500122070312,104.0199966430664,104.0199966430664,551300
2020-11-18,104.02999877929688,105.0,103.08000183105469,103.91999816894531,103.91999816894531,415600
2020-11-19,102.5999984741211,104.9800033569336,102.41000366210938,103.62999725341797,103.62999725341797,543300
2020-11-20,102.77999877929688,105.0,102.77999877929688,104.30999755859375,104.30999755859375,184100
2020-11-23,104.98999786376953,105.23999786376953,103.87000274658203,104.95999908447266,104.95999908447266,240100
2020-11-24,105.41000366210938,107.97000122070312,105.41000366210938,106.41000366210938,106.41000366210938,426400
2020-11-25,106.26000213623047,107.11000061035156,104.69000244140625,106.69000244140625,106.69000244140625,435000
2020-11-27,106.08999633789062,108.39900207519531,104.26000213623047,108.13999938964844,108.13999938964844,265000
2020-11-30,108.80000305175781,110.98999786376953,106.63999938964844,110.77999877929688,110.77999877929688,811500
2020-12-01,111.12000274658203,112.66999816894531,108.7699966430664,108.93000030517578,108.93000030517578,382200
2020-12-02,108.93000030517578,109.37000274658203,106.68000030517578,107.69000244140625,107.69000244140625,331000
2020-12-03,106.80999755859375,108.76000213623047,106.08499908447266,108.2300033569336,108.2300033569336,378200
2020-12-04,107.41000366210938,108.98999786376953,106.7300033569336,108.0,108.0,474300
2020-12-07,108.0999984741211,108.44999694824219,106.86000061035156,107.27999877929688,107.27999877929688,296000
2020-12-08,105.51000213623047,108.91000366210938,105.37000274658203,108.69999694824219,108.69999694824219,226700
2020-12-09,107.77999877929688,108.63999938964844,105.66999816894531,106.1500015258789,106.1500015258789,321200
2020-12-10,105.94999694824219,112.03500366210938,105.69000244140625,111.72000122070312,111.72000122070312,170800
2020-12-11,111.54000091552734,111.54000091552734,108.5199966430664,108.87000274658203,108.87000274658203,272400
2020-12-14,108.77999877929688,112.13500213623047,108.73999786376953,108.77999877929688,108.77999877929688,319700
2020-12-15,109.43000030517578,114.375,109.43000030517578,112.91999816894531,112.91999816894531,356000
2020-12-16,114.9800033569336,119.12999725341797,112.5999984741211,117.58000183105469,117.58000183105469,424400
2020-12-17,123.29000091552734,123.98999786376953,119.2699966430664,123.55999755859375,123.55999755859375,343800
2020-12-18,124.08000183105469,126.61000061035156,123.18000030517578,125.25,125.25,426000
2020-12-21,123.3499984741211,128.99000549316406,123.30000305175781,128.72000122070312,128.72000122070312,275100
2020-12-22,128.39999389648438,130.92999267578125,127.12999725341797,130.5,130.5,165900
2020-12-23,131.0399932861328,134.74000549316406,131.0399932861328,134.57000732421875,134.57000732421875,202200
2020-12-24,134.5500030517578,135.60000610351562,132.17999267578125,133.77999877929688,133.77999877929688,82700
2020-12-28,134.08999633789062,134.3350067138672,128.72999572753906,130.35000610351562,130.35000610351562,291000
2020-12-29,129.77999877929688,130.77999877929688,127.19999694824219,129.77000427246094,129.77000427246094,231700
2020-12-30,130.74000549316406,134.22999572753906,130.23500061035156,134.11000061035156,134.11000061035156,210300
