Date,Open,High,Low,Close,Adj Close,Volume
2018-03-16,27.5,33.470001220703125,26.059999465942383,33.0,33.0,16931900
2018-03-19,31.450000762939453,31.5,26.75,27.899999618530273,27.899999618530273,5892100
2018-03-20,28.40999984741211,30.90399932861328,28.06999969482422,30.3799991607666,30.3799991607666,3262000
2018-03-21,30.790000915527344,34.83000183105469,29.290000915527344,31.079999923706055,31.079999923706055,4460900
2018-03-22,30.0,31.8799991607666,28.559999465942383,29.829999923706055,29.829999923706055,3239500
2018-03-23,30.309999465942383,30.450000762939453,28.600000381469727,29.43000030517578,29.43000030517578,1247100
2018-03-26,30.6299991607666,30.937999725341797,27.299999237060547,27.829999923706055,27.829999923706055,1916700
2018-03-27,28.0,28.599000930786133,26.600000381469727,27.75,27.75,1719500
2018-03-28,27.350000381469727,28.190000534057617,27.0,27.530000686645508,27.530000686645508,824700
2018-03-29,27.75,28.454999923706055,26.799999237060547,28.06999969482422,28.06999969482422,1137600
2018-04-02,27.899999618530273,28.65999984741211,26.80699920654297,27.059999465942383,27.059999465942383,786700
2018-04-03,27.1299991607666,27.190000534057617,26.5,26.799999237060547,26.799999237060547,787500
2018-04-04,26.350000381469727,28.950000762939453,26.31999969482422,27.969999313354492,27.969999313354492,1023800
2018-04-05,28.610000610351562,29.149999618530273,27.969999313354492,28.530000686645508,28.530000686645508,1210400
2018-04-06,28.31999969482422,29.663000106811523,28.049999237060547,28.219999313354492,28.219999313354492,737300
2018-04-09,28.469999313354492,28.700000762939453,26.5,26.540000915527344,26.540000915527344,934500
2018-04-10,27.059999465942383,28.5,26.84000015258789,28.06999969482422,28.06999969482422,1068400
2018-04-11,28.030000686645508,29.459999084472656,27.399999618530273,27.709999084472656,27.709999084472656,795300
2018-04-12,27.809999465942383,28.59000015258789,27.774999618530273,27.959999084472656,27.959999084472656,258900
2018-04-13,28.700000762939453,28.700000762939453,27.030000686645508,27.479999542236328,27.479999542236328,418300
2018-04-16,27.889999389648438,29.0,27.565000534057617,28.989999771118164,28.989999771118164,401000
2018-04-17,29.309999465942383,29.972999572753906,28.6299991607666,28.75,28.75,951500
2018-04-18,28.959999084472656,29.0,28.0,28.649999618530273,28.649999618530273,377700
2018-04-19,28.649999618530273,28.94499969482422,27.75,28.030000686645508,28.030000686645508,265500
2018-04-20,28.049999237060547,28.229999542236328,27.030000686645508,27.219999313354492,27.219999313354492,522500
2018-04-23,27.200000762939453,27.579999923706055,26.5,26.860000610351562,26.860000610351562,626800
2018-04-24,27.0,27.969999313354492,27.0,27.139999389648438,27.139999389648438,393200
2018-04-25,27.09000015258789,28.450000762939453,26.850000381469727,28.110000610351562,28.110000610351562,415700
2018-04-26,28.399999618530273,28.809999465942383,28.17099952697754,28.649999618530273,28.649999618530273,396000
2018-04-27,28.860000610351562,28.93000030517578,28.410999298095703,28.709999084472656,28.709999084472656,197200
2018-04-30,28.700000762939453,30.059999465942383,28.700000762939453,29.889999389648438,29.889999389648438,399100
2018-05-01,29.799999237060547,30.030000686645508,29.0,29.1299991607666,29.1299991607666,418400
2018-05-02,29.31999969482422,30.059999465942383,29.010000228881836,29.950000762939453,29.950000762939453,265300
2018-05-03,28.75,28.75,26.75,27.56999969482422,27.56999969482422,1937300
2018-05-04,27.579999923706055,27.959999084472656,27.579999923706055,27.860000610351562,27.860000610351562,651300
2018-05-07,28.0,28.350000381469727,27.510000228881836,27.649999618530273,27.649999618530273,470200
2018-05-08,27.649999618530273,27.90999984741211,27.270000457763672,27.530000686645508,27.530000686645508,266400
2018-05-09,27.489999771118164,27.8700008392334,27.333999633789062,27.850000381469727,27.850000381469727,325500
2018-05-10,27.850000381469727,28.81999969482422,27.5,28.18000030517578,28.18000030517578,380900
2018-05-11,28.25,29.459999084472656,28.010000228881836,29.31999969482422,29.31999969482422,604500
2018-05-14,29.3700008392334,30.100000381469727,28.40999984741211,28.469999313354492,28.469999313354492,564800
2018-05-15,28.420000076293945,28.760000228881836,27.25,27.40999984741211,27.40999984741211,753500
2018-05-16,27.530000686645508,27.799999237060547,27.065000534057617,27.09000015258789,27.09000015258789,383100
2018-05-17,27.06999969482422,28.510000228881836,26.75200080871582,27.389999389648438,27.389999389648438,676300
2018-05-18,27.399999618530273,27.809999465942383,27.209999084472656,27.280000686645508,27.280000686645508,227400
2018-05-21,27.350000381469727,27.989999771118164,27.040000915527344,27.420000076293945,27.420000076293945,268300
2018-05-22,27.559999465942383,27.559999465942383,27.0,27.09000015258789,27.09000015258789,348700
2018-05-23,26.8799991607666,27.139999389648438,26.260000228881836,26.559999465942383,26.559999465942383,693400
2018-05-24,26.450000762939453,27.030000686645508,26.350000381469727,26.549999237060547,26.549999237060547,467800
2018-05-25,26.5,26.75,24.760000228881836,24.950000762939453,24.950000762939453,1034000
2018-05-29,25.0,26.139999389648438,25.0,25.6299991607666,25.6299991607666,731200
2018-05-30,25.940000534057617,26.399999618530273,25.111000061035156,25.5,25.5,763300
2018-05-31,25.6200008392334,26.329999923706055,25.06999969482422,26.260000228881836,26.260000228881836,725900
2018-06-01,26.360000610351562,28.200000762939453,26.360000610351562,28.18000030517578,28.18000030517578,849100
2018-06-04,28.389999389648438,29.399999618530273,28.389999389648438,29.209999084472656,29.209999084472656,1217700
2018-06-05,29.31999969482422,30.15999984741211,28.90999984741211,30.1299991607666,30.1299991607666,818100
2018-06-06,30.200000762939453,31.510000228881836,29.860000610351562,30.649999618530273,30.649999618530273,2051600
2018-06-07,36.0,42.15999984741211,34.849998474121094,37.790000915527344,37.790000915527344,10862900
2018-06-08,37.4900016784668,40.95000076293945,37.400001525878906,40.529998779296875,40.529998779296875,3254200
2018-06-11,40.959999084472656,43.97999954223633,40.59000015258789,41.25,41.25,3320600
2018-06-12,41.7599983215332,41.79999923706055,38.790000915527344,38.93000030517578,38.93000030517578,2774100
2018-06-13,39.11000061035156,39.869998931884766,38.29999923706055,38.83000183105469,38.83000183105469,1568600
2018-06-14,39.58000183105469,41.0,39.27000045776367,39.38999938964844,39.38999938964844,1952300
2018-06-15,38.95000076293945,42.720001220703125,38.935001373291016,41.0,41.0,3448000
2018-06-18,40.75,40.84000015258789,39.52000045776367,40.400001525878906,40.400001525878906,1760500
2018-06-19,39.88999938964844,39.9900016784668,36.36000061035156,39.15999984741211,39.15999984741211,3160600
2018-06-20,39.61000061035156,39.9900016784668,37.77000045776367,37.8849983215332,37.8849983215332,1292000
2018-06-21,38.08000183105469,38.08000183105469,35.189998626708984,35.209999084472656,35.209999084472656,2687000
2018-06-22,35.599998474121094,36.900001525878906,34.25,36.630001068115234,36.630001068115234,3702500
2018-06-25,36.380001068115234,37.81999969482422,34.38999938964844,36.36000061035156,36.36000061035156,2068800
2018-06-26,36.45000076293945,37.34000015258789,35.29999923706055,35.869998931884766,35.869998931884766,1090100
2018-06-27,35.779998779296875,36.895999908447266,34.310001373291016,34.61000061035156,34.61000061035156,1080400
2018-06-28,34.5,35.66999816894531,33.5099983215332,35.310001373291016,35.310001373291016,1206200
2018-06-29,35.70000076293945,36.900001525878906,34.279998779296875,35.75,35.75,1381700
2018-07-02,36.0,37.47999954223633,34.79999923706055,37.08000183105469,37.08000183105469,1355700
2018-07-03,37.459999084472656,37.790000915527344,35.599998474121094,36.43000030517578,36.43000030517578,761200
2018-07-05,36.61000061035156,36.81999969482422,35.279998779296875,36.66999816894531,36.66999816894531,624400
2018-07-06,36.70000076293945,38.779998779296875,36.54999923706055,38.0099983215332,38.0099983215332,1256600
2018-07-09,38.95000076293945,40.06999969482422,37.619998931884766,39.869998931884766,39.869998931884766,1279800
2018-07-10,40.34000015258789,40.34000015258789,38.150001525878906,38.540000915527344,38.540000915527344,1241200
2018-07-11,38.0,39.310001373291016,37.0099983215332,39.119998931884766,39.119998931884766,970200
2018-07-12,39.22999954223633,40.790000915527344,38.810001373291016,40.540000915527344,40.540000915527344,1003000
2018-07-13,40.68000030517578,40.77000045776367,39.119998931884766,39.7400016784668,39.7400016784668,724400
2018-07-16,39.65999984741211,41.43000030517578,39.02000045776367,41.119998931884766,41.119998931884766,896800
2018-07-17,41.119998931884766,41.97999954223633,40.17499923706055,41.880001068115234,41.880001068115234,1151100
2018-07-18,42.31999969482422,42.630001068115234,40.91999816894531,41.68000030517578,41.68000030517578,963100
2018-07-19,41.45000076293945,41.8650016784668,40.15999984741211,40.380001068115234,40.380001068115234,722200
2018-07-20,40.56999969482422,41.7599983215332,39.31800079345703,39.790000915527344,39.790000915527344,1290900
2018-07-23,39.619998931884766,42.43000030517578,39.0,41.380001068115234,41.380001068115234,947600
2018-07-24,41.52000045776367,42.540000915527344,38.099998474121094,39.810001373291016,39.810001373291016,1207900
2018-07-25,39.689998626708984,41.279998779296875,39.0,41.220001220703125,41.220001220703125,599900
2018-07-26,39.869998931884766,40.72999954223633,39.47999954223633,39.66999816894531,39.66999816894531,856700
2018-07-27,40.099998474121094,40.40999984741211,37.11000061035156,37.380001068115234,37.380001068115234,1134100
2018-07-30,37.290000915527344,37.72999954223633,35.18000030517578,36.220001220703125,36.220001220703125,1235600
2018-07-31,36.099998474121094,36.77000045776367,33.900001525878906,35.310001373291016,35.310001373291016,1391200
2018-08-01,35.599998474121094,36.22999954223633,35.191001892089844,36.060001373291016,36.060001373291016,508700
2018-08-02,35.65999984741211,37.465999603271484,35.32400131225586,37.029998779296875,37.029998779296875,868700
2018-08-03,37.16999816894531,37.632999420166016,36.347999572753906,37.33000183105469,37.33000183105469,647700
2018-08-06,37.41999816894531,38.66999816894531,36.060001373291016,36.59000015258789,36.59000015258789,692800
2018-08-07,37.060001373291016,38.29999923706055,36.75,37.25,37.25,501500
2018-08-08,37.40999984741211,38.43000030517578,36.77899932861328,37.040000915527344,37.040000915527344,546900
2018-08-09,37.08000183105469,39.59000015258789,37.08000183105469,38.290000915527344,38.290000915527344,703600
2018-08-10,38.209999084472656,38.63999938964844,37.150001525878906,38.189998626708984,38.189998626708984,457300
2018-08-13,38.43000030517578,39.22600173950195,37.54999923706055,38.060001373291016,38.060001373291016,565500
2018-08-14,38.029998779296875,38.59000015258789,36.77000045776367,37.52000045776367,37.52000045776367,633900
2018-08-15,37.02000045776367,37.404998779296875,35.5099983215332,36.349998474121094,36.349998474121094,1100400
2018-08-16,36.9900016784668,39.150001525878906,36.678001403808594,39.099998474121094,39.099998474121094,1754700
2018-08-17,38.91999816894531,41.0,38.55500030517578,40.290000915527344,40.290000915527344,1513200
2018-08-20,40.70000076293945,40.9900016784668,39.779998779296875,39.81999969482422,39.81999969482422,968500
2018-08-21,39.79999923706055,39.98899841308594,39.060001373291016,39.43000030517578,39.43000030517578,922700
2018-08-22,39.70000076293945,42.5,39.04999923706055,41.720001220703125,41.720001220703125,1956100
2018-08-23,41.5,43.900001525878906,41.26100158691406,42.54999923706055,42.54999923706055,1528500
2018-08-24,43.099998474121094,45.439998626708984,43.0,44.43000030517578,44.43000030517578,1892300
2018-08-27,45.119998931884766,47.86000061035156,45.11000061035156,47.2599983215332,47.2599983215332,2974300
2018-08-28,48.2400016784668,48.2400016784668,45.604000091552734,47.0,47.0,1696500
2018-08-29,47.0,48.0,46.5099983215332,47.15999984741211,47.15999984741211,738200
2018-08-30,47.29999923706055,47.970001220703125,43.7599983215332,43.900001525878906,43.900001525878906,1913100
2018-08-31,43.400001525878906,44.435001373291016,42.5,42.790000915527344,42.790000915527344,1279200
2018-09-04,43.0,45.13999938964844,41.36000061035156,44.2599983215332,44.2599983215332,1703600
2018-09-05,44.540000915527344,45.470001220703125,43.099998474121094,44.06999969482422,44.06999969482422,3305300
2018-09-06,42.0099983215332,42.689998626708984,39.619998931884766,41.869998931884766,41.869998931884766,3115300
2018-09-07,41.79999923706055,46.900001525878906,41.66999816894531,46.04999923706055,46.04999923706055,2573000
2018-09-10,45.189998626708984,47.790000915527344,43.65599822998047,45.7599983215332,45.7599983215332,2130400
2018-09-11,45.7400016784668,45.880001068115234,42.77000045776367,42.95000076293945,42.95000076293945,1932100
2018-09-12,41.369998931884766,43.369998931884766,40.5099983215332,42.68000030517578,42.68000030517578,6087700
2018-09-13,42.25,43.2599983215332,41.51499938964844,42.439998626708984,42.439998626708984,1935100
2018-09-14,42.279998779296875,43.810001373291016,42.099998474121094,42.63999938964844,42.63999938964844,1878900
2018-09-17,42.56999969482422,42.84000015258789,40.099998474121094,40.2599983215332,40.2599983215332,2203200
2018-09-18,40.0099983215332,40.56999969482422,39.119998931884766,39.75,39.75,1532900
2018-09-19,39.150001525878906,39.70000076293945,37.5099983215332,37.83000183105469,37.83000183105469,2170700
2018-09-20,37.599998474121094,39.5,37.08000183105469,38.81999969482422,38.81999969482422,1450100
2018-09-21,38.900001525878906,40.25,38.38999938964844,40.130001068115234,40.130001068115234,2187300
2018-09-24,39.060001373291016,41.81999969482422,39.060001373291016,41.43000030517578,41.43000030517578,1881500
2018-09-25,41.349998474121094,43.13999938964844,41.11000061035156,42.63999938964844,42.63999938964844,1683300
2018-09-26,42.0,42.80500030517578,41.099998474121094,41.970001220703125,41.970001220703125,1612600
2018-09-27,41.869998931884766,42.470001220703125,41.439998626708984,41.61000061035156,41.61000061035156,753400
2018-09-28,41.41999816894531,42.34000015258789,40.5,40.779998779296875,40.779998779296875,1178800
2018-10-01,41.5,41.939998626708984,39.7400016784668,39.93000030517578,39.93000030517578,1496400
2018-10-02,39.790000915527344,40.40999984741211,36.790000915527344,37.029998779296875,37.029998779296875,2329100
2018-10-03,38.06999969482422,38.61000061035156,36.369998931884766,38.209999084472656,38.209999084472656,1389700
2018-10-04,38.29999923706055,38.369998931884766,36.58000183105469,37.810001373291016,37.810001373291016,1315900
2018-10-05,37.52000045776367,37.777000427246094,35.599998474121094,37.040000915527344,37.040000915527344,1484000
2018-10-08,36.720001220703125,37.220001220703125,35.599998474121094,36.349998474121094,36.349998474121094,1166500
2018-10-09,36.189998626708984,37.20000076293945,35.630001068115234,35.72999954223633,35.72999954223633,1036200
2018-10-10,35.189998626708984,35.84000015258789,33.439998626708984,33.540000915527344,33.540000915527344,1923600
2018-10-11,33.0,36.06999969482422,33.0,34.54999923706055,34.54999923706055,2001600
2018-10-12,37.09000015258789,37.2400016784668,34.97999954223633,36.29999923706055,36.29999923706055,1437600
2018-10-15,36.29999923706055,37.59000015258789,35.70000076293945,36.86000061035156,36.86000061035156,1033800
2018-10-16,37.29999923706055,39.130001068115234,37.060001373291016,38.959999084472656,38.959999084472656,1126900
2018-10-17,39.099998474121094,39.119998931884766,37.18000030517578,37.90999984741211,37.90999984741211,1122900
2018-10-18,37.95000076293945,38.375,36.439998626708984,36.779998779296875,36.779998779296875,1071800
2018-10-19,37.11000061035156,37.90999984741211,35.560001373291016,35.68000030517578,35.68000030517578,1188400
2018-10-22,36.13999938964844,36.724998474121094,34.939998626708984,36.29999923706055,36.29999923706055,1063800
2018-10-23,35.22999954223633,36.0,34.099998474121094,35.529998779296875,35.529998779296875,1047700
2018-10-24,35.54999923706055,36.04999923706055,33.939998626708984,34.02000045776367,34.02000045776367,1020000
2018-10-25,34.599998474121094,36.20000076293945,34.02000045776367,35.75,35.75,890300
2018-10-26,34.4900016784668,35.0099983215332,33.2400016784668,33.75,33.75,1511500
2018-10-29,34.70000076293945,35.5,33.45000076293945,34.16999816894531,34.16999816894531,1279200
2018-10-30,33.970001220703125,35.67499923706055,33.47999954223633,35.4900016784668,35.4900016784668,859800
2018-10-31,36.59000015258789,36.869998931884766,35.189998626708984,36.290000915527344,36.290000915527344,1047800
2018-11-01,36.29999923706055,39.369998931884766,35.25,38.959999084472656,38.959999084472656,2498100
2018-11-02,39.2599983215332,39.849998474121094,38.06999969482422,39.41999816894531,39.41999816894531,1435300
2018-11-05,39.84000015258789,40.0,38.75299835205078,39.77000045776367,39.77000045776367,1028000
2018-11-06,39.810001373291016,41.08000183105469,39.61000061035156,40.970001220703125,40.970001220703125,912000
2018-11-07,41.06999969482422,42.290000915527344,40.34000015258789,41.0,41.0,1446100
2018-11-08,41.25,42.47999954223633,40.891998291015625,41.7400016784668,41.7400016784668,617500
2018-11-09,41.7400016784668,41.854000091552734,39.95000076293945,40.709999084472656,40.709999084472656,648700
2018-11-12,40.52000045776367,40.569000244140625,38.06999969482422,39.34000015258789,39.34000015258789,962600
2018-11-13,39.27000045776367,40.75,39.08000183105469,40.31999969482422,40.31999969482422,533700
2018-11-14,41.0,41.33000183105469,39.869998931884766,40.09000015258789,40.09000015258789,839600
2018-11-15,40.029998779296875,41.599998474121094,39.79999923706055,40.9900016784668,40.9900016784668,1518200
2018-11-16,40.2599983215332,40.38999938964844,37.56999969482422,37.650001525878906,37.650001525878906,1853600
2018-11-19,37.599998474121094,37.970001220703125,31.709999084472656,33.099998474121094,33.099998474121094,2994300
2018-11-20,31.280000686645508,34.04999923706055,30.719999313354492,32.25,32.25,2057400
2018-11-21,32.95000076293945,33.880001068115234,32.500999450683594,33.47999954223633,33.47999954223633,788100
2018-11-23,33.11000061035156,34.29999923706055,32.540000915527344,33.849998474121094,33.849998474121094,280500
2018-11-26,34.459999084472656,34.7599983215332,33.54999923706055,34.68000030517578,34.68000030517578,961800
2018-11-27,34.25,34.869998931884766,33.90999984741211,34.61000061035156,34.61000061035156,794800
2018-11-28,35.15999984741211,36.90999984741211,35.0099983215332,36.900001525878906,36.900001525878906,1315700
2018-11-29,36.58000183105469,37.84000015258789,36.58000183105469,37.560001373291016,37.560001373291016,1670200
2018-11-30,37.720001220703125,39.310001373291016,37.189998626708984,39.2599983215332,39.2599983215332,2068900
2018-12-03,40.9900016784668,41.0,38.380001068115234,39.119998931884766,39.119998931884766,2161100
2018-12-04,38.84000015258789,40.20000076293945,36.9900016784668,37.209999084472656,37.209999084472656,2092200
2018-12-06,38.29999923706055,43.058998107910156,37.150001525878906,42.97999954223633,42.97999954223633,5616200
2018-12-07,42.61000061035156,43.400001525878906,39.099998474121094,40.38999938964844,40.38999938964844,2129300
2018-12-10,39.29999923706055,41.900001525878906,39.18000030517578,40.599998474121094,40.599998474121094,1923700
2018-12-11,41.25,41.9900016784668,39.41999816894531,39.7599983215332,39.7599983215332,1825200
2018-12-12,40.75,42.720001220703125,40.20399856567383,41.220001220703125,41.220001220703125,1911100
2018-12-13,41.33000183105469,42.4900016784668,41.0099983215332,41.86000061035156,41.86000061035156,1258300
2018-12-14,41.11000061035156,44.0,41.0,42.470001220703125,42.470001220703125,2855100
2018-12-17,41.900001525878906,42.220001220703125,37.90999984741211,38.27000045776367,38.27000045776367,2557200
2018-12-18,38.2599983215332,40.099998474121094,38.2599983215332,39.599998474121094,39.599998474121094,1555100
2018-12-19,39.529998779296875,41.150001525878906,38.90999984741211,39.33000183105469,39.33000183105469,1888800
2018-12-20,39.25,40.09000015258789,36.141998291015625,37.22999954223633,37.22999954223633,2439900
2018-12-21,37.5,37.5099983215332,34.209999084472656,34.959999084472656,34.959999084472656,7189800
2018-12-24,34.40999984741211,36.95000076293945,34.40999984741211,35.54999923706055,35.54999923706055,1123000
2018-12-26,35.95000076293945,39.20000076293945,35.790000915527344,39.130001068115234,39.130001068115234,1308900
2018-12-27,38.18000030517578,40.20000076293945,38.0,40.16999816894531,40.16999816894531,1629600
2018-12-28,40.13999938964844,40.45000076293945,38.88399887084961,39.79999923706055,39.79999923706055,817400
2018-12-31,40.2400016784668,40.400001525878906,37.72999954223633,39.209999084472656,39.209999084472656,1515200
2019-01-02,38.38999938964844,40.939998626708984,38.0260009765625,39.810001373291016,39.810001373291016,1280700
2019-01-03,38.95000076293945,39.91999816894531,38.27000045776367,39.31999969482422,39.31999969482422,974800
2019-01-04,40.15999984741211,42.31999969482422,39.650001525878906,41.77000045776367,41.77000045776367,1782700
2019-01-07,41.970001220703125,43.983001708984375,41.869998931884766,43.560001373291016,43.560001373291016,2211000
2019-01-08,44.0,45.0099983215332,42.56399917602539,43.97999954223633,43.97999954223633,1568600
2019-01-09,43.68000030517578,45.0,43.36000061035156,44.880001068115234,44.880001068115234,1194500
2019-01-10,43.970001220703125,45.722999572753906,43.65299987792969,45.40999984741211,45.40999984741211,1303300
2019-01-11,44.90999984741211,45.869998931884766,44.68000030517578,45.20000076293945,45.20000076293945,1115200
2019-01-14,44.5099983215332,45.369998931884766,44.13999938964844,45.0099983215332,45.0099983215332,529100
2019-01-15,43.31999969482422,45.5,42.20000076293945,45.31999969482422,45.31999969482422,1146500
2019-01-16,45.5,45.59000015258789,43.439998626708984,44.150001525878906,44.150001525878906,1417900
2019-01-17,44.15999984741211,45.290000915527344,44.029998779296875,44.84000015258789,44.84000015258789,820100
2019-01-18,45.38999938964844,46.0,44.88999938964844,45.349998474121094,45.349998474121094,2477300
2019-01-22,45.099998474121094,45.220001220703125,43.61000061035156,44.59000015258789,44.59000015258789,1059900
2019-01-23,45.0,45.880001068115234,44.27000045776367,45.04999923706055,45.04999923706055,973800
2019-01-24,45.0,45.36000061035156,42.59000015258789,45.060001373291016,45.060001373291016,1125300
2019-01-25,45.56999969482422,46.68000030517578,45.08000183105469,45.88999938964844,45.88999938964844,2473900
2019-01-28,44.970001220703125,45.61000061035156,44.2599983215332,45.59000015258789,45.59000015258789,959700
2019-01-29,45.70000076293945,45.95000076293945,44.599998474121094,45.16999816894531,45.16999816894531,970900
2019-01-30,45.560001373291016,46.29499816894531,44.90999984741211,45.52000045776367,45.52000045776367,1129100
2019-01-31,45.369998931884766,48.849998474121094,45.099998474121094,48.369998931884766,48.369998931884766,3566400
2019-02-01,48.040000915527344,48.40999984741211,47.0,48.31999969482422,48.31999969482422,2014200
2019-02-04,48.41999816894531,49.75,48.04999923706055,49.06999969482422,49.06999969482422,2257100
2019-02-05,49.380001068115234,49.95000076293945,47.85200119018555,48.31999969482422,48.31999969482422,1603500
2019-02-06,48.0,48.65999984741211,46.52000045776367,47.75,47.75,1231800
2019-02-07,47.220001220703125,48.060001373291016,46.5099983215332,48.029998779296875,48.029998779296875,988000
2019-02-08,47.220001220703125,48.790000915527344,47.11000061035156,48.459999084472656,48.459999084472656,1023800
2019-02-11,48.90999984741211,49.28799819946289,48.18000030517578,48.59000015258789,48.59000015258789,1122800
2019-02-12,49.130001068115234,50.70000076293945,48.81999969482422,50.099998474121094,50.099998474121094,1493600
2019-02-13,50.459999084472656,50.900001525878906,48.88999938964844,49.0,49.0,1194800
2019-02-14,48.85499954223633,50.32600021362305,48.5,50.08000183105469,50.08000183105469,1315000
2019-02-15,50.400001525878906,50.79999923706055,49.70000076293945,50.11000061035156,50.11000061035156,1018100
2019-02-19,50.18000030517578,50.5,49.76499938964844,49.9900016784668,49.9900016784668,1004400
2019-02-20,50.18000030517578,50.58000183105469,49.2400016784668,49.83000183105469,49.83000183105469,943200
2019-02-21,50.040000915527344,50.18000030517578,48.81999969482422,49.66999816894531,49.66999816894531,631500
2019-02-22,50.060001373291016,50.56999969482422,49.52000045776367,49.779998779296875,49.779998779296875,1426000
2019-02-25,50.29999923706055,50.599998474121094,49.290000915527344,49.93000030517578,49.93000030517578,2270500
2019-02-26,50.029998779296875,50.099998474121094,49.47999954223633,50.0,50.0,1938700
2019-02-27,50.27000045776367,51.36000061035156,49.95000076293945,50.720001220703125,50.720001220703125,3252700
2019-02-28,51.0,51.0,49.08000183105469,49.68000030517578,49.68000030517578,2881600
2019-03-01,57.4900016784668,61.13999938964844,55.29999923706055,60.56999969482422,60.56999969482422,9658400
2019-03-04,60.61000061035156,61.63999938964844,56.61000061035156,58.029998779296875,58.029998779296875,4175900
2019-03-05,57.0,57.959999084472656,56.70000076293945,57.529998779296875,57.529998779296875,1748700
2019-03-06,57.400001525878906,59.25,57.23099899291992,58.27000045776367,58.27000045776367,2371000
2019-03-07,58.25,60.0,57.66999816894531,59.18000030517578,59.18000030517578,2242500
2019-03-08,58.22999954223633,60.709999084472656,57.02000045776367,60.540000915527344,60.540000915527344,2423600
2019-03-11,60.79999923706055,64.4000015258789,60.75,63.34000015258789,63.34000015258789,3669000
2019-03-12,63.349998474121094,65.0,62.59000015258789,63.650001525878906,63.650001525878906,2297600
2019-03-13,64.0,65.0199966430664,63.7599983215332,64.80000305175781,64.80000305175781,1889700
2019-03-14,65.0,67.33000183105469,64.80000305175781,66.94000244140625,66.94000244140625,2201400
2019-03-15,67.2300033569336,68.8499984741211,66.66000366210938,67.19000244140625,67.19000244140625,3089800
2019-03-18,67.38999938964844,68.4800033569336,66.18000030517578,67.27999877929688,67.27999877929688,1519500
2019-03-19,68.0,68.2229995727539,66.68000030517578,67.91000366210938,67.91000366210938,1103800
2019-03-20,67.73999786376953,68.30000305175781,66.55000305175781,67.48999786376953,67.48999786376953,1788100
2019-03-21,67.01000213623047,70.0,67.01000213623047,69.91999816894531,69.91999816894531,1550700
2019-03-22,69.9000015258789,70.9000015258789,65.43000030517578,66.01000213623047,66.01000213623047,3158900
2019-03-25,65.55000305175781,68.30000305175781,63.5,67.80999755859375,67.80999755859375,2430600
2019-03-26,68.66999816894531,72.69000244140625,67.93000030517578,71.02999877929688,71.02999877929688,4153200
2019-03-27,71.11000061035156,72.08999633789062,67.0,69.75,69.75,3130000
2019-03-28,69.9800033569336,71.98999786376953,69.27999877929688,71.05000305175781,71.05000305175781,2189700
2019-03-29,71.38999938964844,71.7300033569336,70.0199966430664,70.93000030517578,70.93000030517578,1782000
2019-04-01,72.0,72.94000244140625,69.55999755859375,70.73999786376953,70.73999786376953,1635900
2019-04-02,70.93000030517578,71.29499816894531,69.22000122070312,70.91000366210938,70.91000366210938,1460400
2019-04-03,71.30000305175781,71.45999908447266,69.30999755859375,69.33999633789062,69.33999633789062,1670200
2019-04-04,69.70999908447266,69.70999908447266,61.38999938964844,63.279998779296875,63.279998779296875,7484600
2019-04-05,63.5,64.69999694824219,62.5,63.13999938964844,63.13999938964844,2553900
2019-04-08,62.810001373291016,64.80000305175781,61.51499938964844,63.470001220703125,63.470001220703125,1603000
2019-04-09,64.70999908447266,65.61499786376953,63.5099983215332,64.94000244140625,64.94000244140625,2349500
2019-04-10,64.75,68.45999908447266,64.5,68.44000244140625,68.44000244140625,3402900
2019-04-11,68.2300033569336,68.81999969482422,66.69000244140625,67.75,67.75,1708900
2019-04-12,68.30999755859375,68.7300033569336,66.25,66.63999938964844,66.63999938964844,1241700
2019-04-15,66.58999633789062,67.99500274658203,66.01000213623047,67.04000091552734,67.04000091552734,1269200
2019-04-16,67.30000305175781,67.44999694824219,65.2699966430664,66.26000213623047,66.26000213623047,1378300
2019-04-17,66.44000244140625,66.5,62.060001373291016,62.43000030517578,62.43000030517578,2414900
2019-04-18,62.27000045776367,62.79999923706055,60.02000045776367,62.72999954223633,62.72999954223633,2081000
2019-04-22,62.5,64.4800033569336,62.400001525878906,64.26000213623047,64.26000213623047,1234600
2019-04-23,65.0,65.76000213623047,64.58000183105469,65.41999816894531,65.41999816894531,1170300
2019-04-24,65.93000030517578,66.26000213623047,64.06999969482422,64.98999786376953,64.98999786376953,1027200
2019-04-25,65.8499984741211,69.0,65.83000183105469,66.95999908447266,66.95999908447266,3386300
2019-04-26,66.7699966430664,67.69999694824219,65.26499938964844,66.94000244140625,66.94000244140625,1225700
2019-04-29,66.87000274658203,69.5,66.87000274658203,68.19999694824219,68.19999694824219,1776800
2019-04-30,67.95999908447266,69.19999694824219,66.43000030517578,68.30999755859375,68.30999755859375,1293000
2019-05-01,68.9800033569336,69.4000015258789,65.97000122070312,66.16999816894531,66.16999816894531,1551700
2019-05-02,65.87999725341797,67.1500015258789,64.43499755859375,65.66999816894531,65.66999816894531,1741700
2019-05-03,66.31999969482422,67.56999969482422,65.11000061035156,67.4000015258789,67.4000015258789,1147500
2019-05-06,65.01000213623047,69.98999786376953,63.404998779296875,69.5,69.5,2097300
2019-05-07,68.88999938964844,69.94999694824219,64.80000305175781,66.36000061035156,66.36000061035156,2758000
2019-05-08,66.33000183105469,68.19000244140625,65.58999633789062,67.61000061035156,67.61000061035156,1305000
2019-05-09,66.91000366210938,69.0,65.3949966430664,68.62000274658203,68.62000274658203,1867800
2019-05-10,68.76000213623047,74.58999633789062,68.23400115966797,73.55000305175781,73.55000305175781,5345000
2019-05-13,71.62000274658203,72.5199966430664,67.51000213623047,68.08999633789062,68.08999633789062,3355700
2019-05-14,69.97000122070312,72.86000061035156,69.69999694824219,72.05000305175781,72.05000305175781,2503800
2019-05-15,71.6500015258789,75.9000015258789,71.08599853515625,75.0199966430664,75.0199966430664,2661100
2019-05-16,75.12999725341797,79.33000183105469,75.12999725341797,78.66000366210938,78.66000366210938,2544500
2019-05-17,77.68000030517578,80.37999725341797,77.54000091552734,78.79000091552734,78.79000091552734,2481200
2019-05-20,77.5999984741211,77.88999938964844,74.81999969482422,76.63999938964844,76.63999938964844,2121700
2019-05-21,77.52999877929688,78.19000244140625,75.51000213623047,76.08999633789062,76.08999633789062,1651300
2019-05-22,75.30999755859375,77.88999938964844,75.30999755859375,75.88999938964844,75.88999938964844,1531400
2019-05-23,75.25,75.30999755859375,72.19000244140625,73.44999694824219,73.44999694824219,2554400
2019-05-24,74.11000061035156,75.11000061035156,72.85600280761719,73.76000213623047,73.76000213623047,1588700
2019-05-28,74.58000183105469,76.76000213623047,73.60700225830078,74.23999786376953,74.23999786376953,2385500
2019-05-29,72.87999725341797,73.04000091552734,70.58000183105469,71.1500015258789,71.1500015258789,3162000
2019-05-30,71.83999633789062,74.55000305175781,71.55000305175781,72.98999786376953,72.98999786376953,4186500
2019-05-31,71.9800033569336,72.72000122070312,66.41999816894531,68.62999725341797,68.62999725341797,5813400
2019-06-03,68.66000366210938,69.5999984741211,65.30400085449219,66.9000015258789,66.9000015258789,3906400
2019-06-04,68.0,72.125,67.26000213623047,71.95999908447266,71.95999908447266,3323800
2019-06-05,72.97000122070312,74.0199966430664,71.20999908447266,72.44999694824219,72.44999694824219,2554100
2019-06-06,72.5,73.16999816894531,71.06999969482422,72.33000183105469,72.33000183105469,1926200
2019-06-07,72.5,76.0,72.44999694824219,75.51000213623047,75.51000213623047,3024200
2019-06-10,76.76000213623047,79.38999938964844,76.61000061035156,76.91999816894531,76.91999816894531,2584100
2019-06-11,77.18000030517578,78.14299774169922,73.11000061035156,75.83000183105469,75.83000183105469,2842300
2019-06-12,76.0,77.33000183105469,74.41000366210938,77.16999816894531,77.16999816894531,1433000
2019-06-13,77.38999938964844,80.19999694824219,76.51000213623047,79.72000122070312,79.72000122070312,4243200
2019-06-14,79.69999694824219,79.70999908447266,76.83999633789062,77.66999816894531,77.66999816894531,1949200
2019-06-17,78.43000030517578,78.9800033569336,75.80000305175781,76.73999786376953,76.73999786376953,2101500
2019-06-18,77.91999816894531,78.93000030517578,76.61000061035156,78.0,78.0,2320300
2019-06-19,78.62999725341797,80.06999969482422,77.31999969482422,79.87999725341797,79.87999725341797,2642500
2019-06-20,80.80000305175781,82.25,78.18000030517578,79.18000030517578,79.18000030517578,3184500
2019-06-21,78.88999938964844,78.88999938964844,76.8499984741211,77.23999786376953,77.23999786376953,2786700
2019-06-24,77.72000122070312,77.80000305175781,74.3010025024414,75.45999908447266,75.45999908447266,2691000
2019-06-25,75.4800033569336,76.26000213623047,73.05000305175781,73.81999969482422,73.81999969482422,2089600
2019-06-26,74.8499984741211,75.98999786376953,73.9010009765625,74.30000305175781,74.30000305175781,1741700
2019-06-27,75.95999908447266,78.08999633789062,74.81999969482422,77.5,77.5,2244000
2019-06-28,78.01000213623047,78.01000213623047,76.34100341796875,76.63999938964844,76.63999938964844,8153500
2019-07-01,78.2300033569336,78.4000015258789,75.0,76.61000061035156,76.61000061035156,1516600
2019-07-02,76.83000183105469,79.63999938964844,76.5,78.95999908447266,78.95999908447266,2047100
2019-07-03,79.16000366210938,80.93000030517578,78.5,80.63999938964844,80.63999938964844,3215000
2019-07-05,80.52999877929688,83.4219970703125,79.0199966430664,83.05999755859375,83.05999755859375,2726200
2019-07-08,82.56999969482422,84.56999969482422,81.19999694824219,83.79000091552734,83.79000091552734,2850100
2019-07-09,83.01000213623047,84.41000366210938,82.55000305175781,84.30999755859375,84.30999755859375,1463700
2019-07-10,84.62000274658203,85.5,83.16000366210938,83.29000091552734,83.29000091552734,2189000
2019-07-11,83.8499984741211,84.24199676513672,80.44000244140625,82.27999877929688,82.27999877929688,1853200
2019-07-12,82.4000015258789,82.80000305175781,80.61000061035156,81.87000274658203,81.87000274658203,1070800
2019-07-15,82.44000244140625,84.6449966430664,81.93000030517578,83.79000091552734,83.79000091552734,1628900
2019-07-16,83.87999725341797,84.83999633789062,81.87999725341797,82.58999633789062,82.58999633789062,1691300
2019-07-17,82.94999694824219,83.18000030517578,81.1500015258789,82.0,82.0,1687700
2019-07-18,81.83000183105469,82.52999877929688,81.01000213623047,82.37999725341797,82.37999725341797,1626400
2019-07-19,83.79000091552734,85.5,82.52999877929688,82.68000030517578,82.68000030517578,1843900
2019-07-22,83.25,85.1500015258789,83.0199966430664,84.0,84.0,1155900
2019-07-23,85.0,85.0999984741211,82.52999877929688,84.0,84.0,1277200
2019-07-24,83.80999755859375,86.83999633789062,82.94300079345703,86.69000244140625,86.69000244140625,2084500
2019-07-25,86.51000213623047,86.66999816894531,84.78099822998047,86.41999816894531,86.41999816894531,1623400
2019-07-26,87.0,89.54000091552734,86.69999694824219,88.20999908447266,88.20999908447266,2000600
2019-07-29,88.5,88.68000030517578,82.5199966430664,85.56999969482422,85.56999969482422,2595300
2019-07-30,84.69999694824219,85.93000030517578,83.86000061035156,84.68000030517578,84.68000030517578,1159200
2019-07-31,85.19999694824219,86.29000091552734,83.0,84.2699966430664,84.2699966430664,1744000
2019-08-01,84.83000183105469,85.91999816894531,83.66100311279297,85.26000213623047,85.26000213623047,1801400
2019-08-02,84.13999938964844,84.5,81.04000091552734,83.4800033569336,83.4800033569336,2072000
2019-08-05,80.0,80.197998046875,76.2699966430664,78.16999816894531,78.16999816894531,2863400
2019-08-06,79.91000366210938,81.69999694824219,79.20999908447266,79.94000244140625,79.94000244140625,2186900
2019-08-07,79.0,81.7300033569336,77.30000305175781,81.22000122070312,81.22000122070312,1681900
2019-08-08,82.87999725341797,84.98999786376953,81.75,84.72000122070312,84.72000122070312,1590000
2019-08-09,84.38999938964844,86.41000366210938,84.11000061035156,85.18000030517578,85.18000030517578,1337600
2019-08-12,84.69999694824219,84.93000030517578,82.25,83.20999908447266,83.20999908447266,1525900
2019-08-13,83.02999877929688,85.58999633789062,82.51000213623047,85.04000091552734,85.04000091552734,1118400
2019-08-14,83.36000061035156,83.6500015258789,79.23999786376953,81.5,81.5,2121800
2019-08-15,82.26000213623047,82.6989974975586,78.20500183105469,79.18000030517578,79.18000030517578,1838800
2019-08-16,80.0,81.88600158691406,79.9000015258789,80.91000366210938,80.91000366210938,1482400
2019-08-19,80.27999877929688,80.44999694824219,71.0999984741211,71.80000305175781,71.80000305175781,8783400
2019-08-20,71.5,71.70899963378906,69.87000274658203,70.80000305175781,70.80000305175781,3640200
2019-08-21,71.55999755859375,74.51000213623047,71.33999633789062,72.98999786376953,72.98999786376953,2746900
2019-08-22,73.6500015258789,73.78900146484375,70.81999969482422,72.54000091552734,72.54000091552734,1862900
2019-08-23,72.5,74.33999633789062,71.0,71.27999877929688,71.27999877929688,1843200
2019-08-26,72.0999984741211,72.45999908447266,70.05999755859375,71.77999877929688,71.77999877929688,1716400
2019-08-27,72.37999725341797,72.94999694824219,70.16000366210938,71.45999908447266,71.45999908447266,961300
2019-08-28,70.91999816894531,70.91999816894531,68.5,69.16000366210938,69.16000366210938,1699500
2019-08-29,70.19999694824219,70.87000274658203,68.94999694824219,70.51000213623047,70.51000213623047,1506800
2019-08-30,70.88999938964844,71.25299835205078,67.77999877929688,68.73999786376953,68.73999786376953,1958200
2019-09-03,68.08999633789062,68.9000015258789,65.2959976196289,65.66999816894531,65.66999816894531,2326400
2019-09-04,66.5199966430664,68.01000213623047,66.02999877929688,67.91000366210938,67.91000366210938,2606800
2019-09-05,68.94000244140625,68.94000244140625,63.689998626708984,66.9800033569336,66.9800033569336,4720400
2019-09-06,65.86000061035156,66.4800033569336,63.869998931884766,64.05000305175781,64.05000305175781,3384300
2019-09-09,64.30999755859375,65.38999938964844,60.560001373291016,62.02000045776367,62.02000045776367,5137900
2019-09-10,60.939998626708984,64.48999786376953,60.029998779296875,61.599998474121094,61.599998474121094,6961700
2019-09-11,48.36000061035156,50.15999984741211,46.040000915527344,49.66999816894531,49.66999816894531,26845800
2019-09-12,50.70000076293945,51.400001525878906,48.417999267578125,49.59000015258789,49.59000015258789,7085800
2019-09-13,49.34000015258789,49.400001525878906,47.279998779296875,47.47999954223633,47.47999954223633,4892800
2019-09-16,47.02000045776367,48.724998474121094,46.85300064086914,47.619998931884766,47.619998931884766,2863800
2019-09-17,48.04999923706055,51.54999923706055,48.0,50.63999938964844,50.63999938964844,7088100
2019-09-18,50.75,52.619998931884766,49.86000061035156,51.95000076293945,51.95000076293945,6867600
2019-09-19,52.15999984741211,53.150001525878906,48.90999984741211,50.349998474121094,50.349998474121094,5432500
2019-09-20,50.66999816894531,52.36000061035156,50.36000061035156,51.45000076293945,51.45000076293945,6801900
2019-09-23,51.20000076293945,52.08000183105469,50.220001220703125,50.31999969482422,50.31999969482422,2970100
2019-09-24,51.45000076293945,51.97999954223633,48.93000030517578,49.22999954223633,49.22999954223633,3343200
2019-09-25,48.869998931884766,49.380001068115234,47.369998931884766,48.88999938964844,48.88999938964844,3053800
2019-09-26,49.20000076293945,49.8849983215332,48.45000076293945,48.77000045776367,48.77000045776367,2363500
2019-09-27,48.86000061035156,49.0,46.310001373291016,46.9900016784668,46.9900016784668,2877900
2019-09-30,46.869998931884766,47.72999954223633,46.060001373291016,47.2599983215332,47.2599983215332,2122100
2019-10-01,47.400001525878906,47.650001525878906,46.029998779296875,47.02000045776367,47.02000045776367,2177600
2019-10-02,46.459999084472656,47.20000076293945,46.119998931884766,46.939998626708984,46.939998626708984,2286400
2019-10-03,47.599998474121094,49.310001373291016,46.68000030517578,48.970001220703125,48.970001220703125,3225500
2019-10-04,49.310001373291016,49.77000045776367,47.880001068115234,49.209999084472656,49.209999084472656,1897500
2019-10-07,49.369998931884766,50.58000183105469,49.24700164794922,49.880001068115234,49.880001068115234,2720600
2019-10-08,49.36000061035156,49.3849983215332,46.81999969482422,46.900001525878906,46.900001525878906,2435100
2019-10-09,47.369998931884766,48.7400016784668,47.369998931884766,48.220001220703125,48.220001220703125,1346300
2019-10-10,48.16999816894531,48.2400016784668,47.029998779296875,47.29999923706055,47.29999923706055,2330700
2019-10-11,47.880001068115234,48.66999816894531,47.154998779296875,48.119998931884766,48.119998931884766,2346100
2019-10-14,48.150001525878906,48.279998779296875,47.2599983215332,47.5,47.5,1886800
2019-10-15,47.59000015258789,47.939998626708984,46.15999984741211,46.3849983215332,46.3849983215332,2458100
2019-10-16,45.099998474121094,46.0,44.5,45.650001525878906,45.650001525878906,2634200
2019-10-17,45.72999954223633,45.90999984741211,44.779998779296875,45.150001525878906,45.150001525878906,1343100
2019-10-18,44.88999938964844,45.150001525878906,41.650001525878906,42.84000015258789,42.84000015258789,5720300
2019-10-21,42.869998931884766,43.316001892089844,41.869998931884766,42.16999816894531,42.16999816894531,2239600
2019-10-22,42.599998474121094,43.04999923706055,40.47999954223633,40.75,40.75,2573200
2019-10-23,40.209999084472656,42.099998474121094,40.04999923706055,41.09000015258789,41.09000015258789,2805600
2019-10-24,41.65999984741211,43.40999984741211,41.11000061035156,43.33000183105469,43.33000183105469,2794000
2019-10-25,43.380001068115234,43.45000076293945,41.91999816894531,42.86000061035156,42.86000061035156,1411600
2019-10-28,43.34000015258789,43.45500183105469,42.18000030517578,42.40999984741211,42.40999984741211,1338800
2019-10-29,42.65999984741211,44.11000061035156,42.5099983215332,43.119998931884766,43.119998931884766,1580100
2019-10-30,43.70000076293945,45.58000183105469,42.42100143432617,45.15999984741211,45.15999984741211,3486700
2019-10-31,45.29999923706055,45.5,42.439998626708984,43.97999954223633,43.97999954223633,2164100
2019-11-01,44.0,45.0,43.279998779296875,45.0,45.0,1592400
2019-11-04,45.209999084472656,45.439998626708984,44.040000915527344,44.36000061035156,44.36000061035156,1366000
2019-11-05,44.70000076293945,45.22999954223633,43.45000076293945,44.43000030517578,44.43000030517578,1593000
2019-11-06,44.88999938964844,45.63999938964844,43.43000030517578,43.90999984741211,43.90999984741211,1822400
2019-11-07,44.5,44.5,42.290000915527344,42.54999923706055,42.54999923706055,2179200
2019-11-08,42.54999923706055,44.0099983215332,42.34000015258789,43.900001525878906,43.900001525878906,2117300
2019-11-11,43.79999923706055,44.439998626708984,43.369998931884766,44.06999969482422,44.06999969482422,1035300
2019-11-12,44.599998474121094,45.349998474121094,44.20000076293945,44.77000045776367,44.77000045776367,1993000
2019-11-13,44.810001373291016,45.2239990234375,44.380001068115234,44.81999969482422,44.81999969482422,1207900
2019-11-14,44.83000183105469,46.060001373291016,44.83000183105469,45.31999969482422,45.31999969482422,1554100
2019-11-15,45.599998474121094,46.04999923706055,44.599998474121094,45.83000183105469,45.83000183105469,1885800
2019-11-18,46.0,46.09000015258789,44.45000076293945,44.5099983215332,44.5099983215332,2742000
2019-11-19,45.2400016784668,46.68000030517578,45.060001373291016,46.220001220703125,46.220001220703125,3037800
2019-11-20,46.54999923706055,47.665000915527344,45.599998474121094,46.599998474121094,46.599998474121094,2541400
2019-11-21,46.77000045776367,46.95000076293945,45.130001068115234,45.41999816894531,45.41999816894531,2120100
2019-11-22,45.959999084472656,46.45000076293945,45.220001220703125,46.31999969482422,46.31999969482422,1524100
2019-11-25,48.15999984741211,51.060001373291016,48.05500030517578,50.38999938964844,50.38999938964844,5551600
2019-11-26,50.31999969482422,52.68000030517578,50.064998626708984,51.65999984741211,51.65999984741211,4011300
2019-11-27,52.0,52.68000030517578,51.400001525878906,52.060001373291016,52.060001373291016,2250400
2019-11-29,52.040000915527344,52.34299850463867,51.439998626708984,52.130001068115234,52.130001068115234,1184100
2019-12-02,52.06999969482422,52.165000915527344,49.40999984741211,51.06999969482422,51.06999969482422,4164600
2019-12-03,49.29999923706055,53.06999969482422,48.630001068115234,52.79999923706055,52.79999923706055,4494500
2019-12-04,48.7400016784668,50.5,47.209999084472656,49.849998474121094,49.849998474121094,7754300
2019-12-05,49.79999923706055,50.15999984741211,47.709999084472656,48.11000061035156,48.11000061035156,3181000
2019-12-06,48.38999938964844,48.4900016784668,46.33000183105469,46.70000076293945,46.70000076293945,3071500
2019-12-09,46.5,47.86000061035156,46.5,47.29999923706055,47.29999923706055,1649900
2019-12-10,47.0,47.25,45.720001220703125,46.130001068115234,46.130001068115234,2126200
2019-12-11,46.279998779296875,46.33000183105469,44.540000915527344,45.20000076293945,45.20000076293945,2250500
2019-12-12,45.130001068115234,45.68000030517578,44.61000061035156,45.189998626708984,45.189998626708984,1475700
2019-12-13,45.22999954223633,46.0,44.56999969482422,45.97999954223633,45.97999954223633,1520000
2019-12-16,46.04999923706055,47.0,45.310001373291016,46.959999084472656,46.959999084472656,1801800
2019-12-17,46.130001068115234,47.279998779296875,46.119998931884766,46.52000045776367,46.52000045776367,1829400
2019-12-18,46.619998931884766,47.790000915527344,46.29999923706055,47.2400016784668,47.2400016784668,1634900
2019-12-19,47.029998779296875,47.970001220703125,46.33000183105469,47.90999984741211,47.90999984741211,1624900
2019-12-20,48.060001373291016,49.20000076293945,47.70000076293945,49.130001068115234,49.130001068115234,2670600
2019-12-23,49.20000076293945,49.61000061035156,48.0099983215332,48.16999816894531,48.16999816894531,1750900
2019-12-24,48.400001525878906,48.43000030517578,47.470001220703125,47.7400016784668,47.7400016784668,637700
2019-12-26,48.0,48.66999816894531,47.650001525878906,48.15999984741211,48.15999984741211,893000
2019-12-27,48.5,48.5,47.2599983215332,47.61000061035156,47.61000061035156,1134700
2019-12-30,47.25,47.28900146484375,45.61000061035156,46.5,46.5,1484800
2019-12-31,46.11000061035156,46.70899963378906,45.849998474121094,46.5,46.5,1256300
2020-01-02,46.869998931884766,47.900001525878906,46.5099983215332,47.33000183105469,47.33000183105469,1377200
2020-01-03,46.619998931884766,47.88999938964844,46.52000045776367,47.380001068115234,47.380001068115234,1165200
2020-01-06,46.900001525878906,48.959999084472656,46.810001373291016,48.70000076293945,48.70000076293945,1534600
2020-01-07,49.040000915527344,49.689998626708984,48.16999816894531,48.400001525878906,48.400001525878906,1714900
2020-01-08,48.13999938964844,51.75,47.79999923706055,50.75,50.75,3232500
2020-01-09,51.15999984741211,54.08000183105469,51.040000915527344,54.0,54.0,4279200
2020-01-10,54.0,55.349998474121094,53.95000076293945,55.0,55.0,4006000
2020-01-13,55.5,59.79999923706055,55.45000076293945,59.619998931884766,59.619998931884766,3985700
2020-01-14,59.61000061035156,59.88999938964844,57.0,59.540000915527344,59.540000915527344,3445600
2020-01-15,58.810001373291016,60.7599983215332,58.36000061035156,59.9900016784668,59.9900016784668,2909000
2020-01-16,60.0099983215332,61.84000015258789,59.7599983215332,61.81999969482422,61.81999969482422,2916700
2020-01-17,62.0,62.290000915527344,58.90999984741211,59.43000030517578,59.43000030517578,3098900
2020-01-21,59.290000915527344,61.0,58.33000183105469,60.5099983215332,60.5099983215332,2175300
2020-01-22,61.119998931884766,62.689998626708984,59.869998931884766,59.91999816894531,59.91999816894531,2726300
2020-01-23,59.9900016784668,60.380001068115234,59.073001861572266,59.310001373291016,59.310001373291016,1825400
2020-01-24,59.70000076293945,60.45000076293945,57.130001068115234,57.79999923706055,57.79999923706055,2359300
2020-01-27,55.54999923706055,56.58000183105469,54.75,56.040000915527344,56.040000915527344,2068400
2020-01-28,56.52000045776367,56.90999984741211,56.02000045776367,56.5,56.5,1165300
2020-01-29,56.93000030517578,57.63999938964844,56.08000183105469,57.130001068115234,57.130001068115234,1359900
2020-01-30,56.90999984741211,58.20000076293945,56.5099983215332,57.689998626708984,57.689998626708984,1375700
2020-01-31,57.75,57.90999984741211,55.939998626708984,56.09000015258789,56.09000015258789,1823400
2020-02-03,56.560001373291016,57.09000015258789,55.849998474121094,56.81999969482422,56.81999969482422,951100
2020-02-04,58.189998626708984,59.630001068115234,57.68000030517578,58.880001068115234,58.880001068115234,1431400
2020-02-05,60.0,60.400001525878906,58.09000015258789,58.5099983215332,58.5099983215332,1635900
2020-02-06,59.0,59.0,57.0099983215332,58.400001525878906,58.400001525878906,1015300
2020-02-07,58.380001068115234,59.880001068115234,57.9900016784668,58.970001220703125,58.970001220703125,955800
2020-02-10,59.04999923706055,61.0,58.7400016784668,60.84000015258789,60.84000015258789,1130500
2020-02-11,61.2599983215332,61.599998474121094,59.65999984741211,60.91999816894531,60.91999816894531,1366200
2020-02-12,61.220001220703125,61.43000030517578,59.060001373291016,60.47999954223633,60.47999954223633,1569500
2020-02-13,60.09000015258789,62.255001068115234,59.900001525878906,61.900001525878906,61.900001525878906,1672200
2020-02-14,62.15999984741211,63.06999969482422,61.720001220703125,62.11000061035156,62.11000061035156,1334800
2020-02-18,62.0,65.5,61.650001525878906,63.86000061035156,63.86000061035156,2576500
2020-02-19,64.63999938964844,65.80999755859375,64.01000213623047,65.16999816894531,65.16999816894531,2236300
2020-02-20,65.47000122070312,66.5,62.54999923706055,65.18000030517578,65.18000030517578,4711000
2020-02-21,56.71500015258789,58.290000915527344,52.2599983215332,54.5099983215332,54.5099983215332,13200700
2020-02-24,50.16999816894531,53.47999954223633,50.0,51.86000061035156,51.86000061035156,3711400
2020-02-25,52.779998779296875,53.400001525878906,49.720001220703125,50.40999984741211,50.40999984741211,3310800
2020-02-26,51.0,52.119998931884766,50.75,51.33000183105469,51.33000183105469,2114500
2020-02-27,49.9900016784668,51.83000183105469,48.5,49.7400016784668,49.7400016784668,2617100
2020-02-28,48.14500045776367,52.0,48.040000915527344,51.9900016784668,51.9900016784668,3012600
2020-03-02,52.810001373291016,53.16999816894531,50.90999984741211,52.779998779296875,52.779998779296875,1990200
2020-03-03,52.65999984741211,53.150001525878906,50.20000076293945,51.33000183105469,51.33000183105469,1771000
2020-03-04,52.38999938964844,53.43000030517578,51.77000045776367,53.38999938964844,53.38999938964844,1491500
2020-03-05,52.619998931884766,53.810001373291016,52.040000915527344,53.36000061035156,53.36000061035156,1603100
2020-03-06,53.0,53.040000915527344,48.22999954223633,49.38999938964844,49.38999938964844,2984100
2020-03-09,44.95000076293945,46.400001525878906,43.619998931884766,43.939998626708984,43.939998626708984,2974600
2020-03-10,46.150001525878906,47.2400016784668,43.470001220703125,47.0099983215332,47.0099983215332,2989400
2020-03-11,45.790000915527344,46.45000076293945,42.20000076293945,42.880001068115234,42.880001068115234,3079300
2020-03-12,37.5,40.56999969482422,35.0,39.5,39.5,4014100
2020-03-13,41.959999084472656,42.13999938964844,37.279998779296875,41.88999938964844,41.88999938964844,3056000
2020-03-16,37.0,43.7400016784668,36.66999816894531,41.81999969482422,41.81999969482422,3219800
2020-03-17,40.970001220703125,47.959999084472656,40.88999938964844,46.86000061035156,46.86000061035156,3358300
2020-03-18,44.0,50.64500045776367,44.0,50.16999816894531,50.16999816894531,4373600
2020-03-19,50.0,53.36000061035156,48.59199905395508,51.80500030517578,51.80500030517578,3202700
2020-03-20,52.540000915527344,55.34199905395508,51.590999603271484,53.63999938964844,53.63999938964844,4209500
2020-03-23,53.36000061035156,58.150001525878906,52.4900016784668,58.029998779296875,58.029998779296875,5662400
2020-03-24,58.54999923706055,64.27999877929688,58.45000076293945,62.13999938964844,62.13999938964844,4847200
2020-03-25,61.93000030517578,66.5,58.0099983215332,59.130001068115234,59.130001068115234,6479000
2020-03-26,60.290000915527344,62.0,59.439998626708984,60.54999923706055,60.54999923706055,3618400
2020-03-27,59.540000915527344,60.84000015258789,57.939998626708984,58.630001068115234,58.630001068115234,3422300
2020-03-30,59.15999984741211,60.5,57.77000045776367,58.84000015258789,58.84000015258789,3815100
2020-03-31,58.5,62.33000183105469,58.290000915527344,60.86000061035156,60.86000061035156,3648000
2020-04-01,59.25,64.75,59.20000076293945,61.9900016784668,61.9900016784668,4603000
2020-04-02,61.650001525878906,64.0,59.63999938964844,61.18000030517578,61.18000030517578,3277100
2020-04-03,61.0,63.88999938964844,60.599998474121094,63.400001525878906,63.400001525878906,4136300
2020-04-06,64.76000213623047,65.0,62.150001525878906,63.310001373291016,63.310001373291016,2975300
2020-04-07,62.84000015258789,63.650001525878906,61.599998474121094,62.36000061035156,62.36000061035156,2827100
2020-04-08,62.43000030517578,65.0199966430664,62.06999969482422,64.93000030517578,64.93000030517578,2621600
2020-04-09,64.18000030517578,66.41999816894531,62.02000045776367,62.59000015258789,62.59000015258789,4588600
2020-04-13,64.01000213623047,64.04000091552734,61.880001068115234,62.16999816894531,62.16999816894531,2649700
2020-04-14,63.349998474121094,66.58000183105469,63.25,66.4800033569336,66.4800033569336,3513000
2020-04-15,65.94999694824219,70.0999984741211,65.5250015258789,69.95999908447266,69.95999908447266,4389100
2020-04-16,70.69999694824219,73.5999984741211,69.95999908447266,70.37000274658203,70.37000274658203,3440200
2020-04-17,70.41000366210938,70.41000366210938,67.80000305175781,68.0,68.0,2563600
2020-04-20,68.33999633789062,70.83000183105469,67.11000061035156,70.51000213623047,70.51000213623047,3187900
2020-04-21,70.77999877929688,71.42500305175781,64.27999877929688,65.18000030517578,65.18000030517578,5615100
2020-04-22,67.0999984741211,68.36000061035156,66.38999938964844,66.91000366210938,66.91000366210938,1814300
2020-04-23,66.0,66.80000305175781,64.86000061035156,66.23999786376953,66.23999786376953,3402100
2020-04-24,66.5999984741211,68.0999984741211,66.05999755859375,67.5,67.5,2607400
2020-04-27,68.50499725341797,71.26000213623047,68.19999694824219,70.47000122070312,70.47000122070312,2615600
2020-04-28,71.0,71.19999694824219,66.26000213623047,66.72000122070312,66.72000122070312,3035700
2020-04-29,66.70999908447266,68.06999969482422,64.9000015258789,66.62999725341797,66.62999725341797,2567500
2020-04-30,66.97000122070312,69.0,66.2699966430664,67.08000183105469,67.08000183105469,1828400
2020-05-01,66.2300033569336,67.75,65.51000213623047,66.8499984741211,66.8499984741211,1794000
2020-05-04,66.61000061035156,69.0999984741211,66.0,69.08000183105469,69.08000183105469,2026200
2020-05-05,70.0,71.66999816894531,69.66000366210938,71.2300033569336,71.2300033569336,2501300
2020-05-06,71.83999633789062,73.0999984741211,70.30000305175781,72.54000091552734,72.54000091552734,3089400
2020-05-07,73.5,75.1500015258789,73.11000061035156,74.87999725341797,74.87999725341797,2773400
2020-05-08,75.1500015258789,75.55000305175781,73.0009994506836,74.0199966430664,74.0199966430664,2091400
2020-05-11,73.98999786376953,77.5,73.66000366210938,76.95999908447266,76.95999908447266,2408900
2020-05-12,77.5,78.76000213623047,75.72000122070312,76.44999694824219,76.44999694824219,2006800
2020-05-13,76.94999694824219,78.19499969482422,73.26499938964844,75.16000366210938,75.16000366210938,2089200
2020-05-14,73.72000122070312,75.88999938964844,73.20999908447266,75.62000274658203,75.62000274658203,2596200
2020-05-15,75.4800033569336,78.30999755859375,75.4800033569336,76.38999938964844,76.38999938964844,1856000
2020-05-18,77.87000274658203,77.87000274658203,73.5,73.80999755859375,73.80999755859375,2361300
2020-05-19,75.0,76.01000213623047,74.26000213623047,75.23999786376953,75.23999786376953,1644500
2020-05-20,76.83000183105469,77.77999877929688,75.95999908447266,77.05999755859375,77.05999755859375,1517600
2020-05-21,77.62999725341797,77.6500015258789,74.16000366210938,75.62999725341797,75.62999725341797,1638600
2020-05-22,76.66999816894531,77.13999938964844,75.0999984741211,76.94000244140625,76.94000244140625,1330600
2020-05-26,79.0,80.0,76.30000305175781,76.5199966430664,76.5199966430664,2485100
2020-05-27,76.86000061035156,76.91000366210938,69.83000183105469,74.52999877929688,74.52999877929688,3720100
2020-05-28,74.69999694824219,77.05000305175781,73.78800201416016,75.80000305175781,75.80000305175781,4293200
2020-05-29,87.08000183105469,98.37999725341797,85.5,98.08999633789062,98.08999633789062,22768800
2020-06-01,96.80000305175781,112.7300033569336,96.5,109.9800033569336,109.9800033569336,17087800
2020-06-02,108.05000305175781,111.83000183105469,102.25,106.16999816894531,106.16999816894531,10192100
2020-06-03,105.54000091552734,108.87999725341797,104.23999786376953,107.41000366210938,107.41000366210938,3607600
2020-06-04,106.51000213623047,107.19999694824219,101.66000366210938,103.05000305175781,103.05000305175781,3989500
2020-06-05,100.37999725341797,101.05000305175781,96.58999633789062,99.30999755859375,99.30999755859375,4659200
2020-06-08,99.23999786376953,102.87999725341797,96.80999755859375,102.73999786376953,102.73999786376953,4852900
2020-06-09,103.22000122070312,105.94999694824219,102.11000061035156,103.58999633789062,103.58999633789062,2522500
2020-06-10,105.08999633789062,106.46800231933594,103.40499877929688,105.72000122070312,105.72000122070312,2310200
2020-06-11,104.4800033569336,108.97000122070312,102.30000305175781,102.68000030517578,102.68000030517578,2662600
2020-06-12,104.80999755859375,106.47000122070312,100.52999877929688,102.47000122070312,102.47000122070312,2010500
2020-06-15,101.94999694824219,105.30000305175781,101.1500015258789,104.5199966430664,104.5199966430664,2664600
2020-06-16,99.86000061035156,103.82499694824219,98.55000305175781,102.80999755859375,102.80999755859375,3334300
2020-06-17,103.18000030517578,108.37000274658203,103.01000213623047,106.18000030517578,106.18000030517578,2505700
2020-06-18,108.91000366210938,115.16999816894531,108.48999786376953,113.05000305175781,113.05000305175781,5456700
2020-06-19,114.80000305175781,114.80000305175781,108.19999694824219,108.56999969482422,108.56999969482422,3898100
2020-06-22,110.29000091552734,113.25,109.3499984741211,109.66999816894531,109.66999816894531,3734300
2020-06-23,109.5999984741211,112.0,107.70999908447266,110.30999755859375,110.30999755859375,4584800
2020-06-24,111.0,113.69999694824219,107.2300033569336,108.26000213623047,108.26000213623047,3018800
2020-06-25,109.88999938964844,112.44999694824219,108.25,111.61000061035156,111.61000061035156,2660800
2020-06-26,112.5999984741211,113.55999755859375,105.61000061035156,106.0,106.0,4791300
2020-06-29,106.86000061035156,107.0,103.05000305175781,105.38999938964844,105.38999938964844,2430800
2020-06-30,106.23999786376953,110.0,105.52999877929688,109.5,109.5,2959000
2020-07-01,109.30000305175781,111.79499816894531,107.02400207519531,111.51000213623047,111.51000213623047,2552400
2020-07-02,112.26000213623047,112.9000015258789,109.69200134277344,110.20999908447266,110.20999908447266,1897000
2020-07-06,113.0199966430664,121.45999908447266,112.5,114.77999877929688,114.77999877929688,5131300
2020-07-07,115.9800033569336,116.55000305175781,112.58000183105469,113.83999633789062,113.83999633789062,2241600
2020-07-08,115.68000030517578,121.01000213623047,115.41000366210938,120.8499984741211,120.8499984741211,3072800
2020-07-09,122.0999984741211,128.75,122.0999984741211,127.41000366210938,127.41000366210938,5372200
2020-07-10,126.51000213623047,127.0,123.13999938964844,125.48999786376953,125.48999786376953,2757000
2020-07-13,126.11000061035156,129.0,118.58200073242188,119.91000366210938,119.91000366210938,3936500
2020-07-14,119.0,123.25,115.68000030517578,122.43000030517578,122.43000030517578,3197900
2020-07-15,122.5,123.7699966430664,119.2300033569336,119.83999633789062,119.83999633789062,2389500
2020-07-16,118.75,119.5,113.80999755859375,117.1500015258789,117.1500015258789,2316500
2020-07-17,118.25,120.98999786376953,115.67400360107422,120.30999755859375,120.30999755859375,1860900
2020-07-20,121.19999694824219,128.1300048828125,121.19999694824219,127.5999984741211,127.5999984741211,2053000
2020-07-21,127.44999694824219,127.61000061035156,124.78500366210938,125.47000122070312,125.47000122070312,1555200
2020-07-22,126.58999633789062,128.35000610351562,123.70999908447266,125.11000061035156,125.11000061035156,1186500
2020-07-23,125.26000213623047,129.3000030517578,121.83000183105469,123.45999908447266,123.45999908447266,2186900
2020-07-24,121.23999786376953,124.81999969482422,118.52999877929688,121.72000122070312,121.72000122070312,1567700
2020-07-27,123.68000030517578,125.58000183105469,122.30999755859375,124.87000274658203,124.87000274658203,4151900
2020-07-28,124.58999633789062,126.48999786376953,121.44999694824219,124.37999725341797,124.37999725341797,3422900
2020-07-29,126.26000213623047,131.30999755859375,126.0,126.97000122070312,126.97000122070312,2966400
2020-07-30,127.36000061035156,129.94000244140625,126.18399810791016,129.2899932861328,129.2899932861328,1300600
2020-07-31,131.00999450683594,131.35000610351562,126.9000015258789,129.85000610351562,129.85000610351562,1672200
2020-08-03,131.0500030517578,133.125,130.25999450683594,132.5800018310547,132.5800018310547,1767000
2020-08-04,132.47999572753906,132.97999572753906,130.32000732421875,132.49000549316406,132.49000549316406,1186900
2020-08-05,132.49000549316406,135.2100067138672,131.3300018310547,134.52999877929688,134.52999877929688,1286400
2020-08-06,135.85000610351562,135.85000610351562,130.7100067138672,132.27999877929688,132.27999877929688,1570300
2020-08-07,131.3300018310547,131.7899932861328,125.19999694824219,125.8499984741211,125.8499984741211,2425800
2020-08-10,125.8499984741211,126.5,118.66000366210938,122.38999938964844,122.38999938964844,3014200
2020-08-11,119.5,121.4800033569336,116.87999725341797,117.51000213623047,117.51000213623047,2547600
2020-08-12,118.95999908447266,122.12000274658203,117.5,119.33999633789062,119.33999633789062,1949800
2020-08-13,121.0,124.29000091552734,120.94000244140625,122.06999969482422,122.06999969482422,2024000
2020-08-14,124.19999694824219,126.20999908447266,120.83000183105469,122.88999938964844,122.88999938964844,3389000
2020-08-17,124.63999938964844,125.93000030517578,122.1500015258789,124.48999786376953,124.48999786376953,1575200
2020-08-18,125.70999908447266,128.09800720214844,125.01000213623047,127.97000122070312,127.97000122070312,1829200
2020-08-19,129.1300048828125,131.47000122070312,127.7750015258789,128.25999450683594,128.25999450683594,1738000
2020-08-20,129.0,137.02999877929688,129.0,136.4199981689453,136.4199981689453,3133600
2020-08-21,136.4199981689453,138.8000030517578,135.0,135.22000122070312,135.22000122070312,2136700
2020-08-24,137.02000427246094,137.5,132.7899932861328,135.74000549316406,135.74000549316406,1661800
2020-08-25,135.61000061035156,136.55999755859375,134.22000122070312,135.6300048828125,135.6300048828125,1195800
2020-08-26,137.5,142.24000549316406,137.02000427246094,140.0,140.0,2228500
2020-08-27,141.99000549316406,142.24000549316406,137.67999267578125,138.75999450683594,138.75999450683594,1906400
2020-08-28,139.52000427246094,143.5500030517578,139.44000244140625,141.1300048828125,141.1300048828125,2135000
2020-08-31,141.99000549316406,146.92999267578125,141.77000427246094,143.33999633789062,143.33999633789062,5861100
2020-09-01,147.60000610351562,159.80999755859375,146.21499633789062,159.36000061035156,159.36000061035156,4511200
2020-09-02,162.99000549316406,163.8000030517578,152.8300018310547,158.52000427246094,158.52000427246094,3489200
2020-09-03,150.80999755859375,153.0500030517578,140.57000732421875,143.4499969482422,143.4499969482422,4213300
2020-09-04,140.0,143.0,127.5,134.33999633789062,134.33999633789062,4313300
2020-09-08,130.11000061035156,137.3699951171875,129.00100708007812,133.1699981689453,133.1699981689453,2558100
2020-09-09,137.0,139.58999633789062,132.07000732421875,134.19000244140625,134.19000244140625,4560200
2020-09-10,140.0,146.0,131.0399932861328,132.61000061035156,132.61000061035156,5889800
2020-09-11,135.47999572753906,135.9600067138672,126.86000061035156,128.5,128.5,2401000
2020-09-14,130.75,130.89999389648438,125.77999877929688,130.10000610351562,130.10000610351562,2163500
2020-09-15,131.14999389648438,132.75,127.48999786376953,132.63999938964844,132.63999938964844,1818900
2020-09-16,133.0,135.10000610351562,129.27000427246094,131.05999755859375,131.05999755859375,2221200
2020-09-17,127.0,128.45799255371094,124.0,127.20999908447266,127.20999908447266,2718500
2020-09-18,128.22999572753906,130.17999267578125,125.55999755859375,129.10000610351562,129.10000610351562,3113000
2020-09-21,127.69000244140625,135.0,126.51000213623047,134.92999267578125,134.92999267578125,2541000
2020-09-22,135.0500030517578,138.0,130.2550048828125,137.99000549316406,137.99000549316406,2328100
2020-09-23,137.0,140.50999450683594,134.89999389648438,135.61000061035156,135.61000061035156,2042700
2020-09-24,134.97000122070312,136.35000610351562,131.4199981689453,134.55999755859375,134.55999755859375,1718100
2020-09-25,135.0399932861328,139.13999938964844,134.86500549316406,138.27000427246094,138.27000427246094,1710500
2020-09-28,139.0800018310547,139.9499969482422,136.10000610351562,138.4199981689453,138.4199981689453,1733800
2020-09-29,138.7899932861328,141.41900634765625,138.49000549316406,140.49000549316406,140.49000549316406,2122300
2020-09-30,139.47000122070312,142.3000030517578,138.72000122070312,140.69000244140625,140.69000244140625,1946200
2020-10-01,142.1999969482422,146.4499969482422,141.0,144.2949981689453,144.2949981689453,3491100
2020-10-02,141.4199981689453,145.55999755859375,140.61000061035156,142.0500030517578,142.0500030517578,1924700
2020-10-05,143.00999450683594,145.7100067138672,141.5,145.30999755859375,145.30999755859375,1636600
2020-10-06,145.0,148.33999633789062,144.1060028076172,145.50999450683594,145.50999450683594,1985400
2020-10-07,147.16000366210938,149.4499969482422,146.0,147.67999267578125,147.67999267578125,1830100
2020-10-08,149.35000610351562,150.41099548339844,146.9600067138672,147.66000366210938,147.66000366210938,1524000
2020-10-09,148.0,152.72999572753906,147.7050018310547,151.9600067138672,151.9600067138672,1641700
2020-10-12,153.0,155.50999450683594,150.86000061035156,151.14999389648438,151.14999389648438,1798100
2020-10-13,153.10000610351562,155.13999938964844,152.11000061035156,154.4199981689453,154.4199981689453,1764800
2020-10-14,155.52000427246094,157.4499969482422,152.7100067138672,155.08999633789062,155.08999633789062,2904100
2020-10-15,152.41000366210938,155.25,149.69000244140625,154.97000122070312,154.97000122070312,1871700
2020-10-16,155.66000366210938,156.7100067138672,152.50999450683594,154.85000610351562,154.85000610351562,1710000
2020-10-19,156.0,158.73599243164062,152.3699951171875,153.1699981689453,153.1699981689453,2135700
2020-10-20,153.0,155.2899932861328,150.50999450683594,150.8000030517578,150.8000030517578,1097400
2020-10-21,151.97000122070312,151.97000122070312,145.4499969482422,146.85000610351562,146.85000610351562,1369100
2020-10-22,147.7899932861328,150.77999877929688,144.8000030517578,146.5800018310547,146.5800018310547,1088200
2020-10-23,145.6999969482422,147.0500030517578,143.17999267578125,147.0500030517578,147.0500030517578,972300
2020-10-26,148.27000427246094,154.60000610351562,147.25999450683594,149.0,149.0,2071300
2020-10-27,151.5399932861328,154.5800018310547,147.9510040283203,148.63999938964844,148.63999938964844,1596100
2020-10-28,147.49000549316406,147.8000030517578,142.3000030517578,144.05999755859375,144.05999755859375,1471500
2020-10-29,145.3800048828125,146.60000610351562,140.92999267578125,142.55999755859375,142.55999755859375,1311600
2020-10-30,140.75999450683594,141.38400268554688,133.80999755859375,135.75,135.75,1741300
2020-11-02,136.75,137.8699951171875,132.7899932861328,134.42999267578125,134.42999267578125,1355000
2020-11-03,135.02000427246094,136.177001953125,132.8300018310547,134.64999389648438,134.64999389648438,1041500
2020-11-04,139.99000549316406,145.47999572753906,139.12899780273438,145.35000610351562,145.35000610351562,2022900
2020-11-05,148.5500030517578,151.61000061035156,147.1699981689453,150.07000732421875,150.07000732421875,1911000
2020-11-06,151.0,151.7899932861328,146.4600067138672,150.05999755859375,150.05999755859375,1225200
2020-11-09,145.6199951171875,146.4499969482422,128.75999450683594,128.77000427246094,128.77000427246094,3936300
2020-11-10,132.22999572753906,132.22999572753906,120.33999633789062,127.76000213623047,127.76000213623047,3787400
2020-11-11,133.0399932861328,138.1699981689453,129.8000030517578,135.49000549316406,135.49000549316406,2463200
2020-11-12,137.6199951171875,140.41000366210938,137.27499389648438,140.05999755859375,140.05999755859375,1643300
2020-11-13,140.0399932861328,140.31700134277344,131.6699981689453,131.9199981689453,131.9199981689453,2314500
2020-11-16,128.99000549316406,134.1699981689453,127.0,133.52000427246094,133.52000427246094,2650800
2020-11-17,135.0800018310547,137.85000610351562,132.5,136.63999938964844,136.63999938964844,1347400
2020-11-18,136.99000549316406,139.0,132.92999267578125,135.3800048828125,135.3800048828125,1272800
2020-11-19,136.14999389648438,141.5,136.0800018310547,138.5399932861328,138.5399932861328,1474700
2020-11-20,139.99000549316406,144.9600067138672,139.00999450683594,143.00999450683594,143.00999450683594,1491400
2020-11-23,142.38999938964844,144.4199981689453,140.4600067138672,143.0399932861328,143.0399932861328,1511000
2020-11-24,143.39999389648438,143.61000061035156,138.6750030517578,141.19000244140625,141.19000244140625,1636300
2020-11-25,145.11000061035156,149.77999877929688,144.50999450683594,146.94000244140625,146.94000244140625,2329700
2020-11-27,150.0,150.39999389648438,146.4290008544922,149.74000549316406,149.74000549316406,939600
2020-11-30,151.67999267578125,155.75,148.5,155.75,155.75,3377400
2020-12-01,155.50999450683594,157.3300018310547,147.82000732421875,151.67999267578125,151.67999267578125,2276100
2020-12-02,149.0330047607422,149.0330047607422,143.39999389648438,146.7899932861328,146.7899932861328,2924100
2020-12-03,163.4499969482422,189.64500427246094,163.2899932861328,185.61000061035156,185.61000061035156,15382800
2020-12-04,181.72999572753906,183.3699951171875,175.60000610351562,180.75,180.75,4358600
2020-12-07,180.0,181.89500427246094,176.5500030517578,178.11000061035156,178.11000061035156,2135700
2020-12-08,178.5,189.55999755859375,178.5,184.60000610351562,184.60000610351562,2852400
2020-12-09,183.02999877929688,185.0,173.4499969482422,176.6999969482422,176.6999969482422,2296000
2020-12-10,173.0,182.5,172.0749969482422,179.75,179.75,2566500
2020-12-11,181.60000610351562,184.47000122070312,178.24000549316406,181.91000366210938,181.91000366210938,1851900
2020-12-14,182.343994140625,187.42999267578125,181.8000030517578,183.4499969482422,183.4499969482422,2162500
2020-12-15,184.97999572753906,185.0,178.6649932861328,181.24000549316406,181.24000549316406,1677700
2020-12-16,180.9199981689453,186.0,179.83999633789062,184.02999877929688,184.02999877929688,2119700
2020-12-17,186.0,194.6999969482422,185.80999755859375,187.75999450683594,187.75999450683594,4202600
2020-12-18,191.97999572753906,198.16000366210938,190.52000427246094,195.8800048828125,195.8800048828125,4657200
2020-12-21,196.64999389648438,200.39999389648438,194.22000122070312,199.6199951171875,199.6199951171875,2790400
2020-12-22,202.22999572753906,208.06500244140625,200.00999450683594,206.77999877929688,206.77999877929688,3587300
2020-12-23,208.8300018310547,212.5850067138672,203.1300048828125,207.47000122070312,207.47000122070312,2297400
2020-12-24,208.0,209.97999572753906,204.0,205.27000427246094,205.27000427246094,908800
2020-12-28,207.47999572753906,209.4499969482422,197.47000122070312,199.3699951171875,199.3699951171875,2552900
2020-12-29,198.50999450683594,199.38999938964844,194.00999450683594,197.83999633789062,197.83999633789062,2225500
2020-12-30,198.8000030517578,201.3699951171875,197.07000732421875,201.30999755859375,201.30999755859375,1126400
