Date,Open,High,Low,Close,Adj Close,Volume
2019-04-15,6.289999961853027,6.420000076293945,6.289999961853027,6.349999904632568,6.349999904632568,17900
2019-04-16,6.380000114440918,6.380000114440918,6.150000095367432,6.150000095367432,6.150000095367432,82900
2019-04-17,6.130000114440918,6.239999771118164,5.840000152587891,5.929999828338623,5.929999828338623,124300
2019-04-18,5.929999828338623,6.110000133514404,5.889999866485596,6.010000228881836,6.010000228881836,50800
2019-04-22,5.980000019073486,6.224999904632568,5.869999885559082,5.920000076293945,5.920000076293945,44500
2019-04-23,5.900000095367432,5.989999771118164,5.78000020980835,5.949999809265137,5.949999809265137,216900
2019-04-24,6.010000228881836,6.25,5.820000171661377,5.829999923706055,5.829999923706055,81100
2019-04-25,5.820000171661377,5.880000114440918,5.735000133514404,5.739999771118164,5.739999771118164,114100
2019-04-26,5.78000020980835,6.150000095367432,5.730000019073486,6.130000114440918,6.130000114440918,106400
2019-04-29,6.150000095367432,6.230000019073486,5.96999979019165,6.03000020980835,6.03000020980835,267700
2019-04-30,6.010000228881836,6.25,5.960000038146973,6.019999980926514,6.019999980926514,136800
2019-05-01,6.019999980926514,6.429999828338623,6.0,6.239999771118164,6.239999771118164,153600
2019-05-02,6.239999771118164,6.239999771118164,5.929999828338623,5.989999771118164,5.989999771118164,128700
2019-05-03,6.010000228881836,6.090000152587891,5.920000076293945,5.96999979019165,5.96999979019165,259900
2019-05-06,5.949999809265137,6.329999923706055,5.920000076293945,6.269999980926514,6.269999980926514,218400
2019-05-07,6.190000057220459,6.199999809265137,6.070000171661377,6.090000152587891,6.090000152587891,139500
2019-05-08,6.050000190734863,6.070000171661377,5.800000190734863,5.869999885559082,5.869999885559082,200000
2019-05-09,5.849999904632568,6.03000020980835,5.71999979019165,5.889999866485596,5.889999866485596,122600
2019-05-10,5.699999809265137,6.000999927520752,4.769999980926514,5.0,5.0,626400
2019-05-13,4.800000190734863,4.96999979019165,4.710000038146973,4.869999885559082,4.869999885559082,590500
2019-05-14,4.909999847412109,5.139999866485596,4.800000190734863,5.0,5.0,220700
2019-05-15,4.809999942779541,5.019999980926514,4.75,4.760000228881836,4.760000228881836,256300
2019-05-16,4.75,4.860000133514404,4.699999809265137,4.760000228881836,4.760000228881836,160700
2019-05-17,4.710000038146973,4.820000171661377,4.610000133514404,4.690000057220459,4.690000057220459,119300
2019-05-20,4.639999866485596,4.849999904632568,4.590000152587891,4.699999809265137,4.699999809265137,229800
2019-05-21,4.739999771118164,4.820000171661377,4.699999809265137,4.739999771118164,4.739999771118164,241600
2019-05-22,4.71999979019165,4.840000152587891,4.579999923706055,4.610000133514404,4.610000133514404,148300
2019-05-23,4.510000228881836,4.644000053405762,4.465000152587891,4.510000228881836,4.510000228881836,221900
2019-05-24,4.510000228881836,4.559999942779541,4.349999904632568,4.429999828338623,4.429999828338623,302300
2019-05-28,4.449999809265137,4.53000020980835,4.389999866485596,4.409999847412109,4.409999847412109,276300
2019-05-29,4.409999847412109,4.5,4.179999828338623,4.230000019073486,4.230000019073486,166500
2019-05-30,4.21999979019165,4.329999923706055,4.070000171661377,4.159999847412109,4.159999847412109,297300
2019-05-31,4.150000095367432,4.159999847412109,4.019999980926514,4.099999904632568,4.099999904632568,85400
2019-06-03,4.099999904632568,4.190000057220459,3.9000000953674316,3.9200000762939453,3.9200000762939453,150500
2019-06-04,3.9600000381469727,4.190000057220459,3.950000047683716,4.170000076293945,4.170000076293945,92800
2019-06-05,4.179999828338623,4.179999828338623,3.9700000286102295,4.070000171661377,4.070000171661377,97300
2019-06-06,4.099999904632568,4.159999847412109,3.9200000762939453,4.070000171661377,4.070000171661377,85400
2019-06-07,4.079999923706055,4.079999923706055,3.75,3.7899999618530273,3.7899999618530273,194100
2019-06-10,3.75,3.9000000953674316,3.4000000953674316,3.5899999141693115,3.5899999141693115,303700
2019-06-11,3.5799999237060547,3.700000047683716,3.4600000381469727,3.549999952316284,3.549999952316284,101100
2019-06-12,3.509999990463257,3.7899999618530273,3.490000009536743,3.509999990463257,3.509999990463257,147200
2019-06-13,3.5299999713897705,3.619999885559082,3.490000009536743,3.549999952316284,3.549999952316284,310600
2019-06-14,3.5899999141693115,3.7300000190734863,3.549999952316284,3.640000104904175,3.640000104904175,208400
2019-06-17,3.609999895095825,3.7100000381469727,3.4700000286102295,3.5299999713897705,3.5299999713897705,68300
2019-06-18,3.5399999618530273,3.6500000953674316,3.490000009536743,3.5199999809265137,3.5199999809265137,51300
2019-06-19,3.549999952316284,3.6500000953674316,3.4800000190734863,3.549999952316284,3.549999952316284,45300
2019-06-20,3.5799999237060547,3.640000104904175,3.5199999809265137,3.549999952316284,3.549999952316284,75500
2019-06-21,3.5399999618530273,3.619999885559082,3.319999933242798,3.359999895095825,3.359999895095825,108000
2019-06-24,3.359999895095825,3.369999885559082,3.2200000286102295,3.309999942779541,3.309999942779541,99500
2019-06-25,3.319999933242798,3.3299999237060547,3.2300000190734863,3.2799999713897705,3.2799999713897705,91400
2019-06-26,3.2699999809265137,3.4100000858306885,3.2699999809265137,3.369999885559082,3.369999885559082,69700
2019-06-27,3.359999895095825,3.509999990463257,3.359999895095825,3.440000057220459,3.440000057220459,126000
2019-06-28,3.4600000381469727,3.640000104904175,3.194999933242798,3.5799999237060547,3.5799999237060547,150000
2019-07-01,3.6600000858306885,3.680000066757202,3.5899999141693115,3.640000104904175,3.640000104904175,68500
2019-07-02,3.630000114440918,3.690000057220459,3.5450000762939453,3.640000104904175,3.640000104904175,76800
2019-07-03,3.700000047683716,3.7699999809265137,3.5350000858306885,3.7699999809265137,3.7699999809265137,60500
2019-07-05,3.740000009536743,3.740000009536743,3.640000104904175,3.7200000286102295,3.7200000286102295,86400
2019-07-08,3.6600000858306885,3.75,3.5799999237060547,3.7100000381469727,3.7100000381469727,192300
2019-07-09,3.680000066757202,3.75,3.569999933242798,3.5899999141693115,3.5899999141693115,40500
2019-07-10,3.5799999237060547,3.7100000381469727,3.5199999809265137,3.6500000953674316,3.6500000953674316,83100
2019-07-11,3.700000047683716,3.75,3.5299999713897705,3.609999895095825,3.609999895095825,43400
2019-07-12,3.619999885559082,3.7100000381469727,3.5,3.640000104904175,3.640000104904175,158800
2019-07-15,3.799999952316284,4.25,3.799999952316284,4.019999980926514,4.019999980926514,410500
2019-07-16,3.940000057220459,4.03000020980835,3.75,3.7699999809265137,3.7699999809265137,129700
2019-07-17,3.7899999618530273,4.019999980926514,3.7899999618530273,4.0,4.0,157300
2019-07-18,3.9700000286102295,4.099999904632568,3.9700000286102295,4.0,4.0,74600
2019-07-19,4.0,4.070000171661377,3.990000009536743,4.019999980926514,4.019999980926514,65600
2019-07-22,4.0,4.070000171661377,3.940000057220459,3.9600000381469727,3.9600000381469727,155800
2019-07-23,4.0,4.190000057220459,3.9200000762939453,4.010000228881836,4.010000228881836,50700
2019-07-24,4.0,4.079999923706055,3.9200000762939453,3.9600000381469727,3.9600000381469727,88100
2019-07-25,3.990000009536743,4.03000020980835,3.8299999237060547,3.8499999046325684,3.8499999046325684,48700
2019-07-26,3.8399999141693115,3.9100000858306885,3.7699999809265137,3.8399999141693115,3.8399999141693115,41000
2019-07-29,3.8299999237060547,3.9800000190734863,3.799999952316284,3.809999942779541,3.809999942779541,52800
2019-07-30,3.869999885559082,3.940000057220459,3.809999942779541,3.869999885559082,3.869999885559082,35400
2019-07-31,3.9000000953674316,3.9200000762939453,3.7699999809265137,3.809999942779541,3.809999942779541,69800
2019-08-01,3.799999952316284,3.9000000953674316,3.7699999809265137,3.8299999237060547,3.8299999237060547,107400
2019-08-02,3.8499999046325684,3.9800000190734863,3.7200000286102295,3.8399999141693115,3.8399999141693115,58000
2019-08-05,3.7300000190734863,3.9100000858306885,3.7200000286102295,3.9000000953674316,3.9000000953674316,75400
2019-08-06,4.010000228881836,4.130000114440918,3.8499999046325684,3.890000104904175,3.890000104904175,119100
2019-08-07,3.9100000858306885,4.079999923706055,3.819999933242798,4.03000020980835,4.03000020980835,59200
2019-08-08,3.5199999809265137,3.569999933242798,2.5999999046325684,2.7100000381469727,2.7100000381469727,458800
2019-08-09,2.7200000286102295,3.109999895095825,2.680000066757202,2.950000047683716,2.950000047683716,241700
2019-08-12,2.890000104904175,3.0299999713897705,2.5920000076293945,2.990000009536743,2.990000009536743,128900
2019-08-13,3.009999990463257,3.2300000190734863,2.9600000381469727,3.0,3.0,178100
2019-08-14,3.0,3.0,2.700000047683716,2.8299999237060547,2.8299999237060547,106900
2019-08-15,2.8299999237060547,2.8299999237060547,2.8299999237060547,2.8299999237060547,2.8299999237060547,25200
2019-08-16,2.799999952316284,2.9200000762939453,2.680000066757202,2.8399999141693115,2.8399999141693115,76100
2019-08-19,2.799999952316284,2.880000114440918,2.7799999713897705,2.8399999141693115,2.8399999141693115,25100
2019-08-20,2.799999952316284,2.799999952316284,2.690000057220459,2.690000057220459,2.690000057220459,30400
2019-08-21,2.619999885559082,2.6600000858306885,2.5980000495910645,2.640000104904175,2.640000104904175,84200
2019-08-22,2.6500000953674316,2.6500000953674316,2.490000009536743,2.5199999809265137,2.5199999809265137,106300
2019-08-23,2.4700000286102295,2.4800000190734863,2.309999942779541,2.4000000953674316,2.4000000953674316,23100
2019-08-26,2.625,2.625,2.380000114440918,2.4200000762939453,2.4200000762939453,46000
2019-08-27,2.440000057220459,2.450000047683716,1.9800000190734863,2.0,2.0,336200
2019-08-28,2.009999990463257,2.25,1.9700000286102295,2.25,2.25,59400
2019-08-29,2.25,2.3399999141693115,2.1600000858306885,2.240000009536743,2.240000009536743,66900
2019-08-30,2.25,2.369999885559082,2.2200000286102295,2.2799999713897705,2.2799999713897705,16100
2019-09-03,2.25,2.25,2.1600000858306885,2.200000047683716,2.200000047683716,45100
2019-09-04,2.200000047683716,2.2799999713897705,2.190000057220459,2.2300000190734863,2.2300000190734863,67300
2019-09-05,2.2300000190734863,2.5199999809265137,2.2300000190734863,2.5199999809265137,2.5199999809265137,234000
2019-09-06,2.5199999809265137,2.549999952316284,2.494999885559082,2.5299999713897705,2.5299999713897705,83800
2019-09-09,2.569999933242798,2.5799999237060547,2.509999990463257,2.5399999618530273,2.5399999618530273,67000
2019-09-10,2.424999952316284,2.5399999618530273,2.200000047683716,2.509999990463257,2.509999990463257,35600
2019-09-11,2.490000009536743,2.559999942779541,2.4700000286102295,2.4800000190734863,2.4800000190734863,85500
2019-09-12,2.4700000286102295,2.5999999046325684,2.2100000381469727,2.240000009536743,2.240000009536743,52300
2019-09-13,2.25,2.430000066757202,2.25,2.3499999046325684,2.3499999046325684,19000
2019-09-16,2.3399999141693115,2.3399999141693115,2.2300000190734863,2.25,2.25,32200
2019-09-17,2.240000009536743,2.299999952316284,2.119999885559082,2.2100000381469727,2.2100000381469727,51800
2019-09-18,2.200000047683716,2.2799999713897705,2.130000114440918,2.240000009536743,2.240000009536743,31200
2019-09-19,2.2200000286102295,2.2300000190734863,2.0999999046325684,2.1500000953674316,2.1500000953674316,43100
2019-09-20,2.140000104904175,2.2200000286102295,2.049999952316284,2.180000066757202,2.180000066757202,178500
2019-09-23,2.1600000858306885,2.2799999713897705,2.140000104904175,2.1500000953674316,2.1500000953674316,61500
2019-09-24,2.1500000953674316,2.1500000953674316,2.059999942779541,2.0799999237060547,2.0799999237060547,13700
2019-09-25,2.049999952316284,2.109999895095825,1.9900000095367432,1.9900000095367432,1.9900000095367432,66700
2019-09-26,1.9700000286102295,2.0299999713897705,1.9299999475479126,1.9600000381469727,1.9600000381469727,34600
2019-09-27,1.9500000476837158,2.0199999809265137,1.9500000476837158,1.9500000476837158,1.9500000476837158,142100
2019-09-30,1.9500000476837158,2.0,1.909999966621399,1.9700000286102295,1.9700000286102295,38700
2019-10-01,2.049999952316284,2.0799999237060547,1.9850000143051147,2.049999952316284,2.049999952316284,48100
2019-10-02,2.049999952316284,2.0899999141693115,2.009999990463257,2.0399999618530273,2.0399999618530273,88000
2019-10-03,2.0399999618530273,2.0999999046325684,2.0,2.049999952316284,2.049999952316284,43900
2019-10-04,2.0399999618530273,2.0999999046325684,1.9900000095367432,2.0399999618530273,2.0399999618530273,48000
2019-10-07,2.0329999923706055,2.069999933242798,1.9900000095367432,2.009999990463257,2.009999990463257,48100
2019-10-08,2.0199999809265137,2.0399999618530273,1.996999979019165,2.0199999809265137,2.0199999809265137,28400
2019-10-09,2.009999990463257,2.059999942779541,1.809999942779541,1.850000023841858,1.850000023841858,72700
2019-10-10,1.840000033378601,1.8899999856948853,1.809999942779541,1.850000023841858,1.850000023841858,72800
2019-10-11,1.8700000047683716,1.9199999570846558,1.6100000143051147,1.7400000095367432,1.7400000095367432,130800
2019-10-14,1.7400000095367432,1.7599999904632568,1.5099999904632568,1.5199999809265137,1.5199999809265137,250700
2019-10-15,1.5210000276565552,1.7200000286102295,1.4509999752044678,1.5700000524520874,1.5700000524520874,252400
2019-10-16,1.6200000047683716,1.7999999523162842,1.4199999570846558,1.5,1.5,389700
2019-10-17,1.5099999904632568,1.590000033378601,1.5,1.5499999523162842,1.5499999523162842,53800
2019-10-18,1.5499999523162842,1.590000033378601,1.5099999904632568,1.5800000429153442,1.5800000429153442,37400
2019-10-21,1.600000023841858,1.659999966621399,1.5099999904632568,1.5399999618530273,1.5399999618530273,36800
2019-10-22,1.5700000524520874,1.5800000429153442,1.399999976158142,1.440000057220459,1.440000057220459,86000
2019-10-23,1.4299999475479126,1.4900000095367432,1.3300000429153442,1.4800000190734863,1.4800000190734863,131900
2019-10-24,1.4110000133514404,1.5399999618530273,1.4110000133514404,1.440000057220459,1.440000057220459,218700
2019-10-25,1.4700000286102295,1.4700000286102295,1.3300000429153442,1.3899999856948853,1.3899999856948853,158600
2019-10-28,1.434000015258789,1.6200000047683716,1.434000015258789,1.600000023841858,1.600000023841858,55100
2019-10-29,1.600000023841858,1.6100000143051147,1.5,1.5099999904632568,1.5099999904632568,85600
2019-10-30,1.5,1.6299999952316284,1.4800000190734863,1.5499999523162842,1.5499999523162842,76800
2019-10-31,1.7000000476837158,2.690000057220459,1.7000000476837158,1.9600000381469727,1.9600000381469727,3019100
2019-11-01,1.940000057220459,2.1700000762939453,1.809999942779541,2.0799999237060547,2.0799999237060547,628700
2019-11-04,2.069999933242798,2.2899999618530273,1.9199999570846558,2.240000009536743,2.240000009536743,263800
2019-11-05,2.259999990463257,2.684999942779541,2.259999990463257,2.5899999141693115,2.5899999141693115,931700
2019-11-06,2.609999895095825,2.609999895095825,2.0999999046325684,2.4000000953674316,2.4000000953674316,420300
2019-11-07,2.4600000381469727,2.680000066757202,2.3499999046325684,2.380000114440918,2.380000114440918,180700
2019-11-08,2.380000114440918,2.437999963760376,2.240000009536743,2.2899999618530273,2.2899999618530273,213000
2019-11-11,2.259999990463257,2.3399999141693115,2.2300000190734863,2.259999990463257,2.259999990463257,60500
2019-11-12,2.2799999713897705,2.4100000858306885,2.2209999561309814,2.2799999713897705,2.2799999713897705,227100
2019-11-13,2.299999952316284,2.316999912261963,2.2039999961853027,2.25,2.25,107900
2019-11-14,2.2699999809265137,2.4600000381469727,2.2100000381469727,2.4100000858306885,2.4100000858306885,81500
2019-11-15,2.4200000762939453,2.4200000762939453,2.2809998989105225,2.4100000858306885,2.4100000858306885,87700
2019-11-18,2.2899999618530273,2.4600000381469727,2.200000047683716,2.2100000381469727,2.2100000381469727,155800
2019-11-19,2.200000047683716,2.2699999809265137,2.119999885559082,2.1700000762939453,2.1700000762939453,86800
2019-11-20,2.174999952316284,2.240000009536743,2.0999999046325684,2.0999999046325684,2.0999999046325684,55900
2019-11-21,2.119999885559082,2.1500000953674316,2.009999990463257,2.059999942779541,2.059999942779541,267500
2019-11-22,2.049999952316284,2.1600000858306885,2.0399999618530273,2.109999895095825,2.109999895095825,75200
2019-11-25,2.059999942779541,2.2200000286102295,2.0299999713897705,2.200000047683716,2.200000047683716,72500
2019-11-26,2.2100000381469727,2.234999895095825,2.130000114440918,2.130000114440918,2.130000114440918,62200
2019-11-27,2.109999895095825,2.200000047683716,2.0399999618530273,2.0999999046325684,2.0999999046325684,45700
2019-11-29,2.049999952316284,2.075000047683716,2.0199999809265137,2.0199999809265137,2.0199999809265137,34500
2019-12-02,2.0299999713897705,2.109999895095825,1.9700000286102295,2.009999990463257,2.009999990463257,86600
2019-12-03,2.0399999618530273,2.309999942779541,2.0199999809265137,2.2300000190734863,2.2300000190734863,268800
2019-12-04,2.299999952316284,2.440000057220459,2.2200000286102295,2.2200000286102295,2.2200000286102295,178200
2019-12-05,2.240000009536743,2.2799999713897705,2.109999895095825,2.1600000858306885,2.1600000858306885,76200
2019-12-06,2.2039999961853027,2.2039999961853027,2.049999952316284,2.049999952316284,2.049999952316284,108800
2019-12-09,2.049999952316284,2.1700000762939453,2.0399999618530273,2.1700000762939453,2.1700000762939453,87700
2019-12-10,2.183000087738037,2.2170000076293945,2.119999885559082,2.180000066757202,2.180000066757202,81800
2019-12-11,2.200000047683716,2.200000047683716,2.0999999046325684,2.200000047683716,2.200000047683716,49200
2019-12-12,2.200000047683716,2.200000047683716,2.049999952316284,2.0899999141693115,2.0899999141693115,52000
2019-12-13,2.059999942779541,2.0799999237060547,1.9700000286102295,2.0799999237060547,2.0799999237060547,115800
2019-12-16,2.109999895095825,2.1449999809265137,2.0,2.049999952316284,2.049999952316284,44800
2019-12-17,2.009999990463257,2.069999933242798,2.0,2.069999933242798,2.069999933242798,62800
2019-12-18,2.140000104904175,2.1600000858306885,1.9900000095367432,1.9900000095367432,1.9900000095367432,48900
2019-12-19,1.9900000095367432,2.1500000953674316,1.9900000095367432,2.049999952316284,2.049999952316284,71700
2019-12-20,2.049999952316284,2.1050000190734863,1.9199999570846558,1.9800000190734863,1.9800000190734863,242600
2019-12-23,1.940000057220459,2.130000114440918,1.940000057220459,2.0999999046325684,2.0999999046325684,167600
2019-12-24,1.8899999856948853,2.109999895095825,1.8899999856948853,2.069999933242798,2.069999933242798,37100
2019-12-26,1.9839999675750732,2.130000114440918,1.9800000190734863,2.119999885559082,2.119999885559082,95300
2019-12-27,2.0999999046325684,2.130000114440918,2.0,2.009999990463257,2.009999990463257,119900
2019-12-30,2.0299999713897705,2.069999933242798,2.0299999713897705,2.049999952316284,2.049999952316284,44000
2019-12-31,2.0399999618530273,2.1700000762939453,2.009999990463257,2.059999942779541,2.059999942779541,248000
2020-01-02,2.049999952316284,2.119999885559082,2.0299999713897705,2.059999942779541,2.059999942779541,54800
2020-01-03,2.0,2.119999885559082,1.9800000190734863,2.049999952316284,2.049999952316284,58700
2020-01-06,2.049999952316284,2.0899999141693115,2.009999990463257,2.069999933242798,2.069999933242798,37100
2020-01-07,2.1500000953674316,2.2799999713897705,1.9900000095367432,2.009999990463257,2.009999990463257,291200
2020-01-08,2.009999990463257,2.0959999561309814,1.850000023841858,1.909999966621399,1.909999966621399,348700
2020-01-09,1.909999966621399,1.909999966621399,1.690000057220459,1.8200000524520874,1.8200000524520874,163300
2020-01-10,1.7899999618530273,1.8200000524520874,1.75,1.7799999713897705,1.7799999713897705,85900
2020-01-13,1.7699999809265137,1.8049999475479126,1.7000000476837158,1.75,1.75,116100
2020-01-14,1.7200000286102295,1.75,1.649999976158142,1.7000000476837158,1.7000000476837158,114600
2020-01-15,1.7599999904632568,1.7599999904632568,1.6799999475479126,1.7300000190734863,1.7300000190734863,61300
2020-01-16,1.7000000476837158,1.809999942779541,1.7000000476837158,1.809999942779541,1.809999942779541,49000
2020-01-17,1.809999942779541,1.8700000047683716,1.7599999904632568,1.7899999618530273,1.7899999618530273,58400
2020-01-21,1.75,1.7899999618530273,1.7100000381469727,1.7899999618530273,1.7899999618530273,55400
2020-01-22,1.7799999713897705,1.7899999618530273,1.75,1.7599999904632568,1.7599999904632568,48100
2020-01-23,1.7599999904632568,1.7599999904632568,1.7100000381469727,1.7200000286102295,1.7200000286102295,23500
2020-01-24,1.7200000286102295,1.8300000429153442,1.649999976158142,1.659999966621399,1.659999966621399,125400
2020-01-27,1.659999966621399,1.6699999570846558,1.625,1.6299999952316284,1.6299999952316284,38900
2020-01-28,1.6399999856948853,1.659999966621399,1.559999942779541,1.590000033378601,1.590000033378601,66200
2020-01-29,1.600000023841858,1.690000057220459,1.5299999713897705,1.690000057220459,1.690000057220459,90800
2020-01-30,1.690000057220459,1.7200000286102295,1.659999966621399,1.6699999570846558,1.6699999570846558,28700
2020-01-31,1.6200000047683716,1.6399999856948853,1.5750000476837158,1.590000033378601,1.590000033378601,57000
2020-02-03,1.600000023841858,1.6399999856948853,1.5700000524520874,1.5700000524520874,1.5700000524520874,23400
2020-02-04,1.6699999570846558,1.7100000381469727,1.5199999809265137,1.5499999523162842,1.5499999523162842,116000
2020-02-05,1.5299999713897705,1.5499999523162842,1.4700000286102295,1.4700000286102295,1.4700000286102295,108500
2020-02-06,1.5,1.75,1.5,1.7000000476837158,1.7000000476837158,159700
2020-02-07,1.7000000476837158,1.7999999523162842,1.7000000476837158,1.7200000286102295,1.7200000286102295,130500
2020-02-10,1.7300000190734863,1.7699999809265137,1.649999976158142,1.6799999475479126,1.6799999475479126,95500
2020-02-11,1.7100000381469727,1.7100000381469727,1.6349999904632568,1.6799999475479126,1.6799999475479126,107900
2020-02-12,1.7000000476837158,1.7000000476837158,1.600000023841858,1.6200000047683716,1.6200000047683716,24800
2020-02-13,1.5800000429153442,1.6100000143051147,1.5299999713897705,1.6100000143051147,1.6100000143051147,34400
2020-02-14,1.590000033378601,1.6399999856948853,1.5800000429153442,1.6399999856948853,1.6399999856948853,17200
2020-02-18,1.649999976158142,2.200000047683716,1.625,2.140000104904175,2.140000104904175,498700
2020-02-19,2.1700000762939453,2.309999942779541,1.9900000095367432,1.9900000095367432,1.9900000095367432,123800
2020-02-20,1.940000057220459,2.119999885559082,1.9299999475479126,2.0899999141693115,2.0899999141693115,90200
2020-02-21,2.009999990463257,2.0350000858306885,1.690000057220459,1.899999976158142,1.899999976158142,286800
2020-02-24,1.850000023841858,1.850000023841858,1.75,1.809999942779541,1.809999942779541,38500
2020-02-25,1.7599999904632568,1.809999942779541,1.7300000190734863,1.7400000095367432,1.7400000095367432,53700
2020-02-26,1.8600000143051147,1.8600000143051147,1.6349999904632568,1.690000057220459,1.690000057220459,69500
2020-02-27,1.659999966621399,1.659999966621399,1.5,1.5,1.5,139000
2020-02-28,1.5,1.6200000047683716,1.5,1.5700000524520874,1.5700000524520874,64500
2020-03-02,1.5800000429153442,1.7300000190734863,1.5499999523162842,1.590000033378601,1.590000033378601,87400
2020-03-03,1.5399999618530273,1.8600000143051147,1.5,1.809999942779541,1.809999942779541,228100
2020-03-04,1.840000033378601,1.899999976158142,1.649999976158142,1.6799999475479126,1.6799999475479126,132300
2020-03-05,1.6699999570846558,1.899999976158142,1.5850000381469727,1.75,1.75,258300
2020-03-06,1.6920000314712524,1.7400000095367432,1.559999942779541,1.590000033378601,1.590000033378601,142100
2020-03-09,1.559999942779541,1.559999942779541,1.440000057220459,1.4500000476837158,1.4500000476837158,103900
2020-03-10,1.4900000095367432,1.5,1.2200000286102295,1.3200000524520874,1.3200000524520874,229100
2020-03-11,1.3200000524520874,1.350000023841858,1.2200000286102295,1.309999942779541,1.309999942779541,251100
2020-03-12,1.190000057220459,1.409999966621399,1.149999976158142,1.309999942779541,1.309999942779541,133300
2020-03-13,1.3700000047683716,1.5,1.3140000104904175,1.399999976158142,1.399999976158142,107700
2020-03-16,1.25,1.3899999856948853,1.100000023841858,1.1100000143051147,1.1100000143051147,112200
2020-03-17,1.1100000143051147,2.1700000762939453,1.0800000429153442,2.009999990463257,2.009999990463257,826800
2020-03-18,1.899999976158142,1.9500000476837158,1.1100000143051147,1.2799999713897705,1.2799999713897705,601500
2020-03-19,1.2400000095367432,1.5299999713897705,1.1399999856948853,1.4550000429153442,1.4550000429153442,200800
2020-03-20,1.4600000381469727,1.4600000381469727,1.25,1.25,1.25,209000
2020-03-23,1.2999999523162842,1.3559999465942383,1.0800000429153442,1.2649999856948853,1.2649999856948853,224000
2020-03-24,1.350000023841858,1.3899999856948853,1.2799999713897705,1.3200000524520874,1.3200000524520874,160400
2020-03-25,1.3300000429153442,1.3700000047683716,1.25,1.2999999523162842,1.2999999523162842,56100
2020-03-26,1.2999999523162842,1.6799999475479126,1.2100000381469727,1.4700000286102295,1.4700000286102295,372900
2020-03-27,1.5,1.5499999523162842,1.350000023841858,1.5,1.5,79500
2020-03-30,1.4700000286102295,1.6200000047683716,1.4500000476837158,1.4800000190734863,1.4800000190734863,113000
2020-03-31,1.409999966621399,1.7400000095367432,1.4019999504089355,1.649999976158142,1.649999976158142,187900
2020-04-01,1.649999976158142,1.7599999904632568,1.5800000429153442,1.6399999856948853,1.6399999856948853,96400
2020-04-02,1.659999966621399,1.7300000190734863,1.4600000381469727,1.5,1.5,62000
2020-04-03,1.5299999713897705,1.5399999618530273,1.3300000429153442,1.3700000047683716,1.3700000047683716,42000
2020-04-06,1.5,1.5850000381469727,1.350000023841858,1.4900000095367432,1.4900000095367432,85200
2020-04-07,1.5299999713897705,1.5299999713897705,1.3600000143051147,1.4500000476837158,1.4500000476837158,32800
2020-04-08,1.4500000476837158,1.4900000095367432,1.3899999856948853,1.4900000095367432,1.4900000095367432,29600
2020-04-09,1.5099999904632568,1.5499999523162842,1.4500000476837158,1.5499999523162842,1.5499999523162842,34000
2020-04-13,1.559999942779541,1.559999942779541,1.4199999570846558,1.5399999618530273,1.5399999618530273,13400
2020-04-14,1.5800000429153442,1.6549999713897705,1.4700000286102295,1.5199999809265137,1.5199999809265137,172300
2020-04-15,1.5099999904632568,1.590000033378601,1.409999966621399,1.559999942779541,1.559999942779541,56900
2020-04-16,1.5700000524520874,1.8700000047683716,1.5089999437332153,1.6699999570846558,1.6699999570846558,192100
2020-04-17,1.7100000381469727,1.7100000381469727,1.5800000429153442,1.6699999570846558,1.6699999570846558,70600
2020-04-20,1.6200000047683716,1.7300000190734863,1.5499999523162842,1.559999942779541,1.559999942779541,47300
2020-04-21,1.5499999523162842,1.5570000410079956,1.5,1.5,1.5,31800
2020-04-22,1.5399999618530273,1.6299999952316284,1.5,1.5299999713897705,1.5299999713897705,83200
2020-04-23,1.5199999809265137,1.590000033378601,1.409999966621399,1.5399999618530273,1.5399999618530273,36300
2020-04-24,1.590000033378601,1.6699999570846558,1.5099999904632568,1.649999976158142,1.649999976158142,30100
2020-04-27,1.6699999570846558,2.0,1.659999966621399,1.940000057220459,1.940000057220459,180400
2020-04-28,2.0,2.0,1.600000023841858,1.6100000143051147,1.6100000143051147,104700
2020-04-29,1.7200000286102295,2.2300000190734863,1.7100000381469727,2.049999952316284,2.049999952316284,315600
2020-04-30,1.8300000429153442,1.899999976158142,1.309999942779541,1.8200000524520874,1.8200000524520874,415200
2020-05-01,1.7799999713897705,1.7799999713897705,1.600000023841858,1.7100000381469727,1.7100000381469727,89200
2020-05-04,1.7899999618530273,2.0,1.6699999570846558,1.8799999952316284,1.8799999952316284,144600
2020-05-05,1.940000057220459,2.0799999237060547,1.850000023841858,1.899999976158142,1.899999976158142,147500
2020-05-06,1.940000057220459,1.9500000476837158,1.7999999523162842,1.809999942779541,1.809999942779541,92300
2020-05-07,1.809999942779541,1.8799999952316284,1.7200000286102295,1.8300000429153442,1.8300000429153442,63600
2020-05-08,1.8799999952316284,1.940000057220459,1.7899999618530273,1.8799999952316284,1.8799999952316284,97400
2020-05-11,1.909999966621399,2.1500000953674316,1.909999966621399,2.0299999713897705,2.0299999713897705,310000
2020-05-12,2.059999942779541,2.200000047683716,2.0299999713897705,2.180000066757202,2.180000066757202,277300
2020-05-13,2.180000066757202,2.5,2.0999999046325684,2.490000009536743,2.490000009536743,354400
2020-05-14,2.5299999713897705,2.5799999237060547,2.259999990463257,2.509999990463257,2.509999990463257,282400
2020-05-15,2.5,2.700000047683716,2.4800000190734863,2.5999999046325684,2.5999999046325684,217900
2020-05-18,2.690000057220459,2.7850000858306885,2.4000000953674316,2.430000066757202,2.430000066757202,313500
2020-05-19,2.4800000190734863,2.5,2.180000066757202,2.200000047683716,2.200000047683716,199900
2020-05-20,2.240000009536743,3.0999999046325684,2.234999895095825,2.680000066757202,2.680000066757202,566000
2020-05-21,2.880000114440918,3.140000104904175,2.7200000286102295,2.9000000953674316,2.9000000953674316,622000
2020-05-22,2.9700000286102295,3.25,2.9600000381469727,3.0199999809265137,3.0199999809265137,362000
2020-05-26,3.1600000858306885,3.2300000190734863,2.7899999618530273,2.8399999141693115,2.8399999141693115,459500
2020-05-27,2.950000047683716,3.0399999618530273,2.8299999237060547,2.9200000762939453,2.9200000762939453,232700
2020-05-28,3.0,3.0399999618530273,2.6500000953674316,2.6600000858306885,2.6600000858306885,365700
2020-05-29,2.75,2.890000104904175,2.6700000762939453,2.799999952316284,2.799999952316284,233300
2020-06-01,2.880000114440918,3.046999931335449,2.75,2.9100000858306885,2.9100000858306885,375200
2020-06-02,2.9800000190734863,3.0799999237060547,2.940000057220459,3.009999990463257,3.009999990463257,208600
2020-06-03,3.0799999237060547,3.0799999237060547,2.9089999198913574,3.0,3.0,193200
2020-06-04,3.009999990463257,3.0850000381469727,2.9800000190734863,3.0299999713897705,3.0299999713897705,198900
2020-06-05,2.9200000762939453,3.0799999237060547,2.871000051498413,2.990000009536743,2.990000009536743,257800
2020-06-08,3.049999952316284,3.109999895095825,2.9100000858306885,2.9800000190734863,2.9800000190734863,256400
2020-06-09,2.9700000286102295,3.0,2.9000000953674316,2.9100000858306885,2.9100000858306885,173500
2020-06-10,2.9100000858306885,2.941999912261963,2.6700000762939453,2.7300000190734863,2.7300000190734863,279800
2020-06-11,2.680000066757202,2.680000066757202,2.325000047683716,2.430000066757202,2.430000066757202,247500
2020-06-12,2.75,2.75,2.430000066757202,2.5,2.5,211400
2020-06-15,2.4700000286102295,2.5399999618530273,2.2699999809265137,2.490000009536743,2.490000009536743,121100
2020-06-16,2.609999895095825,2.6700000762939453,2.490000009536743,2.490000009536743,2.490000009536743,140400
2020-06-17,2.5199999809265137,2.75,2.4000000953674316,2.5899999141693115,2.5899999141693115,193500
2020-06-18,2.5899999141693115,2.75,2.490000009536743,2.490000009536743,2.490000009536743,218800
2020-06-19,2.549999952316284,2.694999933242798,2.5299999713897705,2.640000104904175,2.640000104904175,202600
2020-06-22,2.6700000762939453,3.0,2.6500000953674316,2.950000047683716,2.950000047683716,542900
2020-06-23,3.0899999141693115,3.1500000953674316,3.0,3.0799999237060547,3.0799999237060547,581900
2020-06-24,3.200000047683716,3.240000009536743,2.75,3.0,3.0,556600
2020-06-25,3.0199999809265137,3.0199999809265137,2.799999952316284,2.930000066757202,2.930000066757202,164000
2020-06-26,2.930000066757202,2.9600000381469727,2.75,2.880000114440918,2.880000114440918,181100
2020-06-29,2.950000047683716,3.0999999046325684,2.7899999618530273,2.9600000381469727,2.9600000381469727,260800
2020-06-30,3.0799999237060547,3.0999999046325684,2.9600000381469727,3.059999942779541,3.059999942779541,218700
2020-07-01,3.069999933242798,3.190000057220459,3.0450000762939453,3.1500000953674316,3.1500000953674316,352300
2020-07-02,3.200000047683716,3.430000066757202,3.180000066757202,3.2699999809265137,3.2699999809265137,538500
2020-07-06,3.450000047683716,3.5,3.3499999046325684,3.4800000190734863,3.4800000190734863,486000
2020-07-07,3.5,3.5799999237060547,3.453000068664551,3.5299999713897705,3.5299999713897705,468800
2020-07-08,3.559999942779541,3.5799999237060547,3.130000114440918,3.2899999618530273,3.2899999618530273,410500
2020-07-09,3.2699999809265137,3.799999952316284,3.130000114440918,3.190000057220459,3.190000057220459,995100
2020-07-10,3.259999990463257,3.309999942779541,3.009999990463257,3.2699999809265137,3.2699999809265137,386800
2020-07-13,3.309999942779541,3.9000000953674316,3.309999942779541,3.630000114440918,3.630000114440918,801900
2020-07-14,3.9000000953674316,3.930000066757202,3.559999942779541,3.6700000762939453,3.6700000762939453,481500
2020-07-15,3.7899999618530273,4.0,3.690000057220459,3.990000009536743,3.990000009536743,629900
2020-07-16,3.950000047683716,4.5,3.880000114440918,4.349999904632568,4.349999904632568,1871000
2020-07-17,4.5,4.539999961853027,3.9100000858306885,4.300000190734863,4.300000190734863,1320800
2020-07-20,4.369999885559082,4.482999801635742,4.0,4.079999923706055,4.079999923706055,477700
2020-07-21,4.0,4.289999961853027,3.9000000953674316,4.210000038146973,4.210000038146973,483800
2020-07-22,4.230000019073486,4.300000190734863,4.059999942779541,4.210000038146973,4.210000038146973,318200
2020-07-23,4.139999866485596,4.230000019073486,3.9100000858306885,3.990000009536743,3.990000009536743,364600
2020-07-24,3.9600000381469727,3.984999895095825,3.759999990463257,3.7799999713897705,3.7799999713897705,315300
2020-07-27,3.819999933242798,3.940000057220459,3.6600000858306885,3.75,3.75,255400
2020-07-28,3.7699999809265137,3.869999885559082,3.7300000190734863,3.7899999618530273,3.7899999618530273,218600
2020-07-29,3.799999952316284,3.9200000762939453,3.6700000762939453,3.700000047683716,3.700000047683716,211400
2020-07-30,3.6600000858306885,3.690000057220459,3.359999895095825,3.5,3.5,401700
2020-07-31,3.700000047683716,4.239999771118164,3.5999999046325684,3.940000057220459,3.940000057220459,1220700
2020-08-03,4.409999847412109,5.269999980926514,4.28000020980835,5.059999942779541,5.059999942779541,3550100
2020-08-04,5.130000114440918,6.610000133514404,5.119999885559082,6.090000152587891,6.090000152587891,4867000
2020-08-05,5.920000076293945,6.960000038146973,5.820000171661377,6.789999961853027,6.789999961853027,2814700
2020-08-06,6.869999885559082,7.238999843597412,6.239999771118164,6.320000171661377,6.320000171661377,2316900
2020-08-07,6.320000171661377,6.590000152587891,6.099999904632568,6.409999847412109,6.409999847412109,1266300
2020-08-10,6.449999809265137,6.460000038146973,5.440000057220459,6.150000095367432,6.150000095367432,1565900
2020-08-11,6.199999809265137,6.210000038146973,5.360000133514404,5.409999847412109,5.409999847412109,976400
2020-08-12,5.329999923706055,5.599999904632568,4.880000114440918,5.099999904632568,5.099999904632568,1375400
2020-08-13,5.130000114440918,5.429999828338623,5.0,5.210000038146973,5.210000038146973,597300
2020-08-14,5.170000076293945,5.849999904632568,5.090000152587891,5.760000228881836,5.760000228881836,1062400
2020-08-17,6.099999904632568,6.28000020980835,5.880000114440918,6.0,6.0,921700
2020-08-18,5.960000038146973,5.960000038146973,5.304999828338623,5.429999828338623,5.429999828338623,1158100
2020-08-19,5.480000019073486,5.505000114440918,5.199999809265137,5.260000228881836,5.260000228881836,398600
2020-08-20,5.21999979019165,5.380000114440918,4.889999866485596,4.889999866485596,4.889999866485596,599500
2020-08-21,4.900000095367432,5.239999771118164,4.590000152587891,4.619999885559082,4.619999885559082,830600
2020-08-24,4.760000228881836,4.840000152587891,4.440000057220459,4.5,4.5,671100
2020-08-25,4.510000228881836,4.730000019073486,4.369999885559082,4.579999923706055,4.579999923706055,441800
2020-08-26,4.619999885559082,4.900000095367432,4.510000228881836,4.550000190734863,4.550000190734863,416700
2020-08-27,4.590000152587891,4.599999904632568,4.309999942779541,4.579999923706055,4.579999923706055,442000
2020-08-28,4.579999923706055,4.590000152587891,4.409999847412109,4.550000190734863,4.550000190734863,379100
2020-08-31,4.550000190734863,4.550000190734863,4.130000114440918,4.320000171661377,4.320000171661377,793500
2020-09-01,4.380000114440918,4.800000190734863,4.28000020980835,4.800000190734863,4.800000190734863,854200
2020-09-02,4.860000133514404,4.909999847412109,4.510000228881836,4.650000095367432,4.650000095367432,759300
2020-09-03,4.599999904632568,4.599999904632568,4.119999885559082,4.179999828338623,4.179999828338623,539400
2020-09-04,4.179999828338623,4.710000038146973,3.759999990463257,4.519999980926514,4.519999980926514,1551000
2020-09-08,4.46999979019165,4.519999980926514,4.019999980926514,4.070000171661377,4.070000171661377,953800
2020-09-09,4.090000152587891,4.210000038146973,3.990000009536743,4.010000228881836,4.010000228881836,399600
2020-09-10,4.070000171661377,4.179999828338623,3.930000066757202,4.059999942779541,4.059999942779541,321500
2020-09-11,4.190000057220459,4.28000020980835,4.010000228881836,4.019999980926514,4.019999980926514,338200
2020-09-14,4.090000152587891,4.230000019073486,3.9600000381469727,4.119999885559082,4.119999885559082,294000
2020-09-15,4.190000057220459,4.199999809265137,4.050000190734863,4.190000057220459,4.190000057220459,275000
2020-09-16,4.230000019073486,4.489999771118164,4.119999885559082,4.349999904632568,4.349999904632568,535300
2020-09-17,4.260000228881836,4.260000228881836,4.090000152587891,4.230000019073486,4.230000019073486,224800
2020-09-18,4.210000038146973,4.340000152587891,4.010000228881836,4.309999942779541,4.309999942779541,510600
2020-09-21,4.199999809265137,4.380000114440918,4.079999923706055,4.320000171661377,4.320000171661377,273600
2020-09-22,4.340000152587891,4.343999862670898,4.099999904632568,4.28000020980835,4.28000020980835,319200
2020-09-23,4.269999980926514,4.284999847412109,3.9200000762939453,3.9700000286102295,3.9700000286102295,288900
2020-09-24,3.9700000286102295,4.03000020980835,3.799999952316284,3.9100000858306885,3.9100000858306885,261800
2020-09-25,3.9000000953674316,4.170000076293945,3.9000000953674316,4.050000190734863,4.050000190734863,322000
2020-09-28,4.079999923706055,4.190000057220459,4.048999786376953,4.119999885559082,4.119999885559082,222300
2020-09-29,4.110000133514404,4.139999866485596,3.950000047683716,4.110000133514404,4.110000133514404,148200
2020-09-30,4.119999885559082,4.210000038146973,3.9700000286102295,4.0,4.0,353800
2020-10-01,4.099999904632568,4.130000114440918,3.9800000190734863,4.050000190734863,4.050000190734863,173200
2020-10-02,4.0,4.090000152587891,3.950000047683716,4.03000020980835,4.03000020980835,158900
2020-10-05,4.0,4.199999809265137,3.9000000953674316,4.130000114440918,4.130000114440918,334400
2020-10-06,4.130000114440918,4.5,4.11299991607666,4.28000020980835,4.28000020980835,540700
2020-10-07,4.369999885559082,4.449999809265137,4.199999809265137,4.329999923706055,4.329999923706055,334600
2020-10-08,4.400000095367432,4.618000030517578,4.329999923706055,4.409999847412109,4.409999847412109,440600
2020-10-09,4.389999866485596,4.550000190734863,4.329999923706055,4.53000020980835,4.53000020980835,209600
2020-10-12,4.670000076293945,4.940000057220459,4.599999904632568,4.860000133514404,4.860000133514404,922400
2020-10-13,4.929999828338623,4.949999809265137,4.800000190734863,4.880000114440918,4.880000114440918,574800
2020-10-14,4.980000019073486,5.210000038146973,4.889999866485596,5.079999923706055,5.079999923706055,541700
2020-10-15,4.849999904632568,4.90500020980835,4.699999809265137,4.769999980926514,4.769999980926514,325600
2020-10-16,4.760000228881836,4.789999961853027,4.559999942779541,4.630000114440918,4.630000114440918,205800
2020-10-19,4.679999828338623,4.679999828338623,4.335000038146973,4.340000152587891,4.340000152587891,313400
2020-10-20,4.390999794006348,4.639999866485596,4.329999923706055,4.360000133514404,4.360000133514404,202400
2020-10-21,4.413000106811523,4.420000076293945,4.070000171661377,4.119999885559082,4.119999885559082,452600
2020-10-22,4.150000095367432,4.239999771118164,3.9000000953674316,4.190000057220459,4.190000057220459,353000
2020-10-23,4.199999809265137,4.239999771118164,4.03000020980835,4.190000057220459,4.190000057220459,257700
2020-10-26,4.25,4.330999851226807,4.025000095367432,4.159999847412109,4.159999847412109,272800
2020-10-27,4.210000038146973,4.489999771118164,3.9700000286102295,4.03000020980835,4.03000020980835,533200
2020-10-28,3.9600000381469727,3.9820001125335693,3.6500000953674316,3.869999885559082,3.869999885559082,470700
2020-10-29,3.7200000286102295,4.0,3.509999990463257,3.799999952316284,3.799999952316284,497900
2020-10-30,3.7100000381469727,3.7750000953674316,3.5,3.609999895095825,3.609999895095825,436500
2020-11-02,3.609999895095825,3.700000047683716,3.440000057220459,3.559999942779541,3.559999942779541,283300
2020-11-03,3.5899999141693115,3.6700000762939453,3.509999990463257,3.5899999141693115,3.5899999141693115,164600
2020-11-04,3.5799999237060547,3.740000009536743,3.4800000190734863,3.640000104904175,3.640000104904175,147100
2020-11-05,3.700000047683716,3.7799999713897705,3.609999895095825,3.6600000858306885,3.6600000858306885,220300
2020-11-06,3.609999895095825,3.6610000133514404,3.4800000190734863,3.5299999713897705,3.5299999713897705,215000
2020-11-09,3.430000066757202,3.490000009536743,3.2100000381469727,3.390000104904175,3.390000104904175,559200
2020-11-10,3.390000104904175,3.6500000953674316,3.309999942779541,3.5799999237060547,3.5799999237060547,334000
2020-11-11,3.5999999046325684,3.740000009536743,3.5,3.5199999809265137,3.5199999809265137,216900
2020-11-12,3.549999952316284,3.5999999046325684,3.450000047683716,3.4700000286102295,3.4700000286102295,122600
2020-11-13,3.4800000190734863,3.6500000953674316,3.450000047683716,3.630000114440918,3.630000114440918,238600
2020-11-16,3.859999895095825,4.519999980926514,3.7799999713897705,4.480000019073486,4.480000019073486,1104000
2020-11-17,4.489999771118164,4.579999923706055,4.190000057220459,4.300000190734863,4.300000190734863,426200
2020-11-18,4.300000190734863,4.360000133514404,4.150000095367432,4.320000171661377,4.320000171661377,239300
2020-11-19,4.289999961853027,4.440000057220459,4.210000038146973,4.329999923706055,4.329999923706055,269600
2020-11-20,4.369999885559082,4.420000076293945,4.0,4.03000020980835,4.03000020980835,557600
2020-11-23,4.019999980926514,4.0289998054504395,3.75,3.7799999713897705,3.7799999713897705,443600
2020-11-24,3.7799999713897705,3.799999952316284,3.6500000953674316,3.680000066757202,3.680000066757202,251600
2020-11-25,3.6600000858306885,3.799999952316284,3.569999933242798,3.680000066757202,3.680000066757202,271400
2020-11-27,3.640000104904175,3.765000104904175,3.619999885559082,3.6500000953674316,3.6500000953674316,182600
2020-11-30,3.609999895095825,3.75,3.549999952316284,3.7200000286102295,3.7200000286102295,322300
2020-12-01,3.8299999237060547,4.110000133514404,3.7200000286102295,3.930000066757202,3.930000066757202,478500
2020-12-02,3.9000000953674316,3.9100000858306885,3.684000015258789,3.7699999809265137,3.7699999809265137,210400
2020-12-03,3.819999933242798,4.099999904632568,3.759999990463257,4.010000228881836,4.010000228881836,413900
2020-12-04,4.059999942779541,4.199999809265137,3.9700000286102295,4.130000114440918,4.130000114440918,290800
2020-12-07,4.159999847412109,4.239999771118164,4.052999973297119,4.170000076293945,4.170000076293945,175300
2020-12-08,4.170000076293945,4.25,4.070000171661377,4.210000038146973,4.210000038146973,202000
2020-12-09,4.190000057220459,4.639999866485596,4.170000076293945,4.449999809265137,4.449999809265137,612900
2020-12-10,4.400000095367432,4.550000190734863,4.300000190734863,4.46999979019165,4.46999979019165,242100
2020-12-11,4.480000019073486,4.500999927520752,4.139999866485596,4.349999904632568,4.349999904632568,230100
2020-12-14,4.360000133514404,4.409999847412109,4.150000095367432,4.25,4.25,146900
2020-12-15,4.320000171661377,4.440000057220459,4.130000114440918,4.380000114440918,4.380000114440918,151500
2020-12-16,4.369999885559082,4.400000095367432,4.173999786376953,4.199999809265137,4.199999809265137,297600
2020-12-17,4.230000019073486,4.25,3.950000047683716,4.170000076293945,4.170000076293945,182600
2020-12-18,4.130000114440918,4.320000171661377,4.059999942779541,4.059999942779541,4.059999942779541,160300
2020-12-21,4.039999961853027,4.070000171661377,3.9000000953674316,4.070000171661377,4.070000171661377,203100
2020-12-22,4.070000171661377,4.25,4.019999980926514,4.139999866485596,4.139999866485596,132100
2020-12-23,4.119999885559082,4.269999980926514,4.059999942779541,4.119999885559082,4.119999885559082,195600
2020-12-24,4.119999885559082,4.144000053405762,4.010000228881836,4.050000190734863,4.050000190734863,67000
2020-12-28,4.070000171661377,4.5,4.050000190734863,4.409999847412109,4.409999847412109,354200
2020-12-29,4.460000038146973,4.550000190734863,4.110000133514404,4.199999809265137,4.199999809265137,221900
2020-12-30,4.170000076293945,4.550000190734863,4.170000076293945,4.440000057220459,4.440000057220459,213000
